{
  "last_updated_data": "2026-05-24T23:28:17Z",
  "league": {
    "admin_entry": null,
    "closed": false,
    "code_privacy": "p",
    "created": "2025-07-20T23:14:33.933835Z",
    "cup_league": 2815434,
    "has_cup": true,
    "id": 314,
    "league_type": "s",
    "max_entries": null,
    "name": "Overall",
    "rank": null,
    "scoring": "c",
    "start_event": 1
  },
  "new_entries": {
    "has_next": false,
    "page": 1,
    "results": []
  },
  "standings": {
    "has_next": true,
    "page": 1102,
    "results": [
      {
        "club_badge_src": null,
        "entry": 28428,
        "entry_name": "Shan't be Luasers",
        "event_total": 50,
        "has_played": true,
        "id": 179755,
        "last_rank": 44804,
        "player_name": "James Fleming",
        "rank": 55046,
        "rank_sort": 55051,
        "total": 2349
      },
      {
        "club_badge_src": null,
        "entry": 30084,
        "entry_name": "MASSA REBORN",
        "event_total": 52,
        "has_played": true,
        "id": 190350,
        "last_rank": 41967,
        "player_name": "Islam Gamal",
        "rank": 55046,
        "rank_sort": 55052,
        "total": 2349
      },
      {
        "club_badge_src": null,
        "entry": 45678,
        "entry_name": "JaegerBombers",
        "event_total": 54,
        "has_played": true,
        "id": 293005,
        "last_rank": 44672,
        "player_name": "hannes oscarsson",
        "rank": 55046,
        "rank_sort": 55053,
        "total": 2349
      },
      {
        "club_badge_src": "https://fantasy.premierleague.com/gcs/plfpl-production-adobe-approved/plfpl-production/45874/4f0952c4-270a-4e77-ae90-a617690dbeba.png",
        "entry": 45874,
        "entry_name": "Hiney XI",
        "event_total": 46,
        "has_played": true,
        "id": 294246,
        "last_rank": 39403,
        "player_name": "Michael Hineman",
        "rank": 55046,
        "rank_sort": 55054,
        "total": 2349
      },
      {
        "club_badge_src": "https://fantasy.premierleague.com/gcs/plfpl-production-adobe-approved/plfpl-production/52536/dfbcbba5-9f5c-40d8-88bb-312860d65a04.png",
        "entry": 52536,
        "entry_name": "NINJA TURTLES",
        "event_total": 60,
        "has_played": true,
        "id": 337809,
        "last_rank": 53837,
        "player_name": "Saqib Rehman",
        "rank": 55046,
        "rank_sort": 55055,
        "total": 2349
      },
      {
        "club_badge_src": null,
        "entry": 57012,
        "entry_name": "Schelvis FC",
        "event_total": 63,
        "has_played": true,
        "id": 367230,
        "last_rank": 58911,
        "player_name": "Elie Vizzed",
        "rank": 55046,
        "rank_sort": 55056,
        "total": 2349
      },
      {
        "club_badge_src": "https://fantasy.premierleague.com/gcs/plfpl-production-adobe-approved/plfpl-production/77625/066877d9-ae88-4b40-8284-251b20bb2f00.png",
        "entry": 77625,
        "entry_name": "Change Name",
        "event_total": 69,
        "has_played": true,
        "id": 504559,
        "last_rank": 69907,
        "player_name": "James Goodson",
        "rank": 55046,
        "rank_sort": 55057,
        "total": 2349
      },
      {
        "club_badge_src": null,
        "entry": 79083,
        "entry_name": "Rapsody",
        "event_total": 74,
        "has_played": true,
        "id": 514240,
        "last_rank": 89706,
        "player_name": "Aleksandar Radovanovic",
        "rank": 55046,
        "rank_sort": 55058,
        "total": 2349
      },
      {
        "club_badge_src": null,
        "entry": 82990,
        "entry_name": "Bekir'sTeam",
        "event_total": 52,
        "has_played": true,
        "id": 540104,
        "last_rank": 47722,
        "player_name": "NourElDien Bekir",
        "rank": 55046,
        "rank_sort": 55059,
        "total": 2349
      },
      {
        "club_badge_src": null,
        "entry": 85975,
        "entry_name": "Kara Fc",
        "event_total": 65,
        "has_played": true,
        "id": 560147,
        "last_rank": 62223,
        "player_name": "Michalis Karamanos",
        "rank": 55046,
        "rank_sort": 55060,
        "total": 2349
      },
      {
        "club_badge_src": null,
        "entry": 88528,
        "entry_name": "ZABEN",
        "event_total": 67,
        "has_played": true,
        "id": 577703,
        "last_rank": 66057,
        "player_name": "ABDULLAH AL-ZABEN -",
        "rank": 55046,
        "rank_sort": 55061,
        "total": 2349
      },
      {
        "club_badge_src": null,
        "entry": 125448,
        "entry_name": "\u067e\u0627\u0634\u0627\u06cc \u0641\u06d5\u0646\u062a\u0627\u0633\u06cc",
        "event_total": 62,
        "has_played": true,
        "id": 818137,
        "last_rank": 64319,
        "player_name": "Zhhhh Haaaa",
        "rank": 55046,
        "rank_sort": 55062,
        "total": 2349
      },
      {
        "club_badge_src": null,
        "entry": 126344,
        "entry_name": "Langers Legends",
        "event_total": 59,
        "has_played": true,
        "id": 823837,
        "last_rank": 59077,
        "player_name": "Jake Langman",
        "rank": 55046,
        "rank_sort": 55063,
        "total": 2349
      },
      {
        "club_badge_src": "https://fantasy.premierleague.com/gcs/plfpl-production-adobe-approved/plfpl-production/167245/d88831eb-4eb6-40a9-b0ec-24957f0b9aec.png",
        "entry": 167245,
        "entry_name": "Genuine Class",
        "event_total": 59,
        "has_played": true,
        "id": 1105449,
        "last_rank": 59077,
        "player_name": "Fraser Gibson",
        "rank": 55046,
        "rank_sort": 55064,
        "total": 2349
      },
      {
        "club_badge_src": "https://fantasy.premierleague.com/gcs/plfpl-production-adobe-approved/plfpl-production/207345/8dae8742-6db6-4618-962e-83ff555d05b7.png",
        "entry": 207345,
        "entry_name": "Noname",
        "event_total": 65,
        "has_played": true,
        "id": 1378149,
        "last_rank": 62429,
        "player_name": "Meesum Hassan",
        "rank": 55046,
        "rank_sort": 55065,
        "total": 2349
      },
      {
        "club_badge_src": null,
        "entry": 233972,
        "entry_name": "Wolf of Souq Salem",
        "event_total": 61,
        "has_played": true,
        "id": 1556909,
        "last_rank": 62429,
        "player_name": "Firas Elmsmari",
        "rank": 55046,
        "rank_sort": 55066,
        "total": 2349
      },
      {
        "club_badge_src": null,
        "entry": 248299,
        "entry_name": "Inter The Pub",
        "event_total": 53,
        "has_played": true,
        "id": 1652628,
        "last_rank": 38016,
        "player_name": "Phil Saward",
        "rank": 55046,
        "rank_sort": 55067,
        "total": 2349
      },
      {
        "club_badge_src": null,
        "entry": 266420,
        "entry_name": "hwang in there",
        "event_total": 70,
        "has_played": true,
        "id": 1772204,
        "last_rank": 80651,
        "player_name": "Thomas Lee",
        "rank": 55046,
        "rank_sort": 55068,
        "total": 2349
      },
      {
        "club_badge_src": null,
        "entry": 285523,
        "entry_name": "Crofty's Cavaliers",
        "event_total": 48,
        "has_played": true,
        "id": 1901736,
        "last_rank": 42081,
        "player_name": "Andy Croft",
        "rank": 55046,
        "rank_sort": 55069,
        "total": 2349
      },
      {
        "club_badge_src": null,
        "entry": 338365,
        "entry_name": "Deepest Bounce Back",
        "event_total": 52,
        "has_played": true,
        "id": 2265304,
        "last_rank": 47722,
        "player_name": "jonny goldstone",
        "rank": 55046,
        "rank_sort": 55070,
        "total": 2349
      },
      {
        "club_badge_src": "https://fantasy.premierleague.com/gcs/plfpl-production-adobe-approved/plfpl-production/346007/b452d51d-297e-43d3-9b44-abde416754f3.png",
        "entry": 346007,
        "entry_name": "batemetas",
        "event_total": 77,
        "has_played": true,
        "id": 2316111,
        "last_rank": 77999,
        "player_name": "Oscar Amato",
        "rank": 55046,
        "rank_sort": 55071,
        "total": 2349
      },
      {
        "club_badge_src": null,
        "entry": 351353,
        "entry_name": "Template City",
        "event_total": 60,
        "has_played": true,
        "id": 2351859,
        "last_rank": 60827,
        "player_name": "Jakob Obling",
        "rank": 55046,
        "rank_sort": 55072,
        "total": 2349
      },
      {
        "club_badge_src": null,
        "entry": 381999,
        "entry_name": "Unbeaterpool FC",
        "event_total": 73,
        "has_played": true,
        "id": 2561259,
        "last_rank": 87350,
        "player_name": "Marios Pericleous",
        "rank": 55046,
        "rank_sort": 55073,
        "total": 2349
      },
      {
        "club_badge_src": null,
        "entry": 393219,
        "entry_name": "Team Sandman",
        "event_total": 61,
        "has_played": true,
        "id": 2637337,
        "last_rank": 55514,
        "player_name": "Morten Sand",
        "rank": 55046,
        "rank_sort": 55074,
        "total": 2349
      },
      {
        "club_badge_src": null,
        "entry": 400697,
        "entry_name": "Fatawu-Tang Clan",
        "event_total": 42,
        "has_played": true,
        "id": 2686984,
        "last_rank": 30191,
        "player_name": "James Picken",
        "rank": 55046,
        "rank_sort": 55075,
        "total": 2349
      },
      {
        "club_badge_src": null,
        "entry": 411355,
        "entry_name": "ChauveKiPe",
        "event_total": 58,
        "has_played": true,
        "id": 2758179,
        "last_rank": 57358,
        "player_name": "LG Deco",
        "rank": 55046,
        "rank_sort": 55076,
        "total": 2349
      },
      {
        "club_badge_src": null,
        "entry": 458066,
        "entry_name": "Bony",
        "event_total": 80,
        "has_played": true,
        "id": 3073031,
        "last_rank": 104388,
        "player_name": "Captain Bunny",
        "rank": 55046,
        "rank_sort": 55077,
        "total": 2349
      },
      {
        "club_badge_src": null,
        "entry": 478513,
        "entry_name": "Chaddha's Boys",
        "event_total": 66,
        "has_played": true,
        "id": 3212402,
        "last_rank": 64190,
        "player_name": "Aryan Chaddha",
        "rank": 55046,
        "rank_sort": 55078,
        "total": 2349
      },
      {
        "club_badge_src": null,
        "entry": 498354,
        "entry_name": "I'll be Stach",
        "event_total": 51,
        "has_played": true,
        "id": 3344826,
        "last_rank": 46236,
        "player_name": "Sam Franklin",
        "rank": 55046,
        "rank_sort": 55079,
        "total": 2349
      },
      {
        "club_badge_src": null,
        "entry": 504349,
        "entry_name": "Henryville FC",
        "event_total": 62,
        "has_played": true,
        "id": 3385401,
        "last_rank": 57200,
        "player_name": "Danny Blackhall",
        "rank": 55046,
        "rank_sort": 55080,
        "total": 2349
      },
      {
        "club_badge_src": null,
        "entry": 591448,
        "entry_name": "Nebuchadnezzar",
        "event_total": 47,
        "has_played": true,
        "id": 3984804,
        "last_rank": 40832,
        "player_name": "Anthony Christofis",
        "rank": 55046,
        "rank_sort": 55081,
        "total": 2349
      },
      {
        "club_badge_src": "https://fantasy.premierleague.com/gcs/plfpl-production-adobe-approved/plfpl-production/606943/5fd474ae-38e7-45b8-9f6a-f1be5d4e2344.png",
        "entry": 606943,
        "entry_name": "IngsCanOnlyGetBetter",
        "event_total": 68,
        "has_played": true,
        "id": 4098685,
        "last_rank": 67695,
        "player_name": "Joe Dakin",
        "rank": 55046,
        "rank_sort": 55082,
        "total": 2349
      },
      {
        "club_badge_src": null,
        "entry": 621303,
        "entry_name": "Feed the Goat",
        "event_total": 57,
        "has_played": true,
        "id": 4198751,
        "last_rank": 55659,
        "player_name": "Mark Horner",
        "rank": 55046,
        "rank_sort": 55083,
        "total": 2349
      },
      {
        "club_badge_src": null,
        "entry": 625423,
        "entry_name": "Wirtz Case Scenario",
        "event_total": 44,
        "has_played": true,
        "id": 4226380,
        "last_rank": 37058,
        "player_name": "Andy Curls",
        "rank": 55046,
        "rank_sort": 55084,
        "total": 2349
      },
      {
        "club_badge_src": null,
        "entry": 635952,
        "entry_name": "Bielaniaki",
        "event_total": 58,
        "has_played": true,
        "id": 4297935,
        "last_rank": 50635,
        "player_name": "Andrzej Jaworski",
        "rank": 55046,
        "rank_sort": 55085,
        "total": 2349
      },
      {
        "club_badge_src": null,
        "entry": 691881,
        "entry_name": "lavapupollie",
        "event_total": 76,
        "has_played": true,
        "id": 4685477,
        "last_rank": 84731,
        "player_name": "oliver ince",
        "rank": 55046,
        "rank_sort": 55086,
        "total": 2349
      },
      {
        "club_badge_src": "https://fantasy.premierleague.com/gcs/plfpl-production-adobe-approved/plfpl-production/707157/8f1365c1-58e6-4042-86d8-0858bc01a511.png",
        "entry": 707157,
        "entry_name": "MarcoBizot",
        "event_total": 75,
        "has_played": true,
        "id": 4792593,
        "last_rank": 92126,
        "player_name": "Parshav Banger",
        "rank": 55046,
        "rank_sort": 55087,
        "total": 2349
      },
      {
        "club_badge_src": null,
        "entry": 708441,
        "entry_name": "Bayer Neverlosin",
        "event_total": 63,
        "has_played": true,
        "id": 4801575,
        "last_rank": 58911,
        "player_name": "finlay bruce",
        "rank": 55046,
        "rank_sort": 55088,
        "total": 2349
      },
      {
        "club_badge_src": null,
        "entry": 768948,
        "entry_name": "Krul Intentions",
        "event_total": 66,
        "has_played": true,
        "id": 5245087,
        "last_rank": 64190,
        "player_name": "Ross Plunkett",
        "rank": 55046,
        "rank_sort": 55089,
        "total": 2349
      },
      {
        "club_badge_src": null,
        "entry": 771896,
        "entry_name": "FC BARTHOLO",
        "event_total": 76,
        "has_played": true,
        "id": 5265993,
        "last_rank": 67063,
        "player_name": "Nick Bartholomeeusen",
        "rank": 55046,
        "rank_sort": 55090,
        "total": 2349
      },
      {
        "club_badge_src": null,
        "entry": 790920,
        "entry_name": "Beef Cherki",
        "event_total": 51,
        "has_played": true,
        "id": 5412159,
        "last_rank": 30957,
        "player_name": "Jake Bailey",
        "rank": 55046,
        "rank_sort": 55091,
        "total": 2349
      },
      {
        "club_badge_src": "https://fantasy.premierleague.com/gcs/plfpl-production-adobe-approved/plfpl-production/902681/72d629a1-4768-43f0-987f-154d6e7cd812.png",
        "entry": 902681,
        "entry_name": "Scorpions Glory FC",
        "event_total": 36,
        "has_played": true,
        "id": 6202456,
        "last_rank": 28348,
        "player_name": "Sanket Gaikwad",
        "rank": 55046,
        "rank_sort": 55092,
        "total": 2349
      },
      {
        "club_badge_src": "https://fantasy.premierleague.com/gcs/plfpl-production-adobe-approved/plfpl-production/903587/e8fe17bc-c7de-4c31-bf91-06731dd877cc.png",
        "entry": 903587,
        "entry_name": "Angel Squadron",
        "event_total": 65,
        "has_played": true,
        "id": 6208758,
        "last_rank": 70072,
        "player_name": "Edvard Angelsen",
        "rank": 55046,
        "rank_sort": 55093,
        "total": 2349
      },
      {
        "club_badge_src": null,
        "entry": 949998,
        "entry_name": "Trang hjelm",
        "event_total": 61,
        "has_played": true,
        "id": 6544667,
        "last_rank": 62617,
        "player_name": "Simen Bj\u00f8rk",
        "rank": 55046,
        "rank_sort": 55094,
        "total": 2349
      },
      {
        "club_badge_src": null,
        "entry": 967740,
        "entry_name": "Talent Galore",
        "event_total": 41,
        "has_played": true,
        "id": 6669915,
        "last_rank": 33582,
        "player_name": "Rune N\u00f8dland",
        "rank": 55046,
        "rank_sort": 55095,
        "total": 2349
      },
      {
        "club_badge_src": "https://fantasy.premierleague.com/gcs/plfpl-production-adobe-approved/plfpl-production/989624/54e6e197-30f7-4bb5-a60b-78b0ceb90d43.png",
        "entry": 989624,
        "entry_name": "Snoop Udogie Dogg",
        "event_total": 60,
        "has_played": true,
        "id": 6823653,
        "last_rank": 60671,
        "player_name": "kayne Redmond-poulton",
        "rank": 55046,
        "rank_sort": 55096,
        "total": 2349
      },
      {
        "club_badge_src": null,
        "entry": 1060320,
        "entry_name": "Bruno Dos Tres",
        "event_total": 53,
        "has_played": true,
        "id": 7338607,
        "last_rank": 49207,
        "player_name": "Josh Davies",
        "rank": 55046,
        "rank_sort": 55097,
        "total": 2349
      },
      {
        "club_badge_src": null,
        "entry": 1064962,
        "entry_name": "The Snipers Brazil",
        "event_total": 53,
        "has_played": true,
        "id": 7372412,
        "last_rank": 49078,
        "player_name": "Evertan Rebelatto",
        "rank": 55046,
        "rank_sort": 55098,
        "total": 2349
      },
      {
        "club_badge_src": "https://fantasy.premierleague.com/gcs/plfpl-production-adobe-approved/plfpl-production/1243328/14f640e4-321e-4f60-96d3-08317672cdf7.png",
        "entry": 1243328,
        "entry_name": "Mosaid",
        "event_total": 57,
        "has_played": true,
        "id": 8634928,
        "last_rank": 55659,
        "player_name": "Hamza Boussalem",
        "rank": 55046,
        "rank_sort": 55099,
        "total": 2349
      },
      {
        "club_badge_src": "https://fantasy.premierleague.com/gcs/plfpl-production-adobe-approved/plfpl-production/1379399/ea79ea3d-09e7-471a-9f78-f63633b2ce64.png",
        "entry": 1379399,
        "entry_name": "Redwater40 FC",
        "event_total": 47,
        "has_played": true,
        "id": 9588692,
        "last_rank": 40647,
        "player_name": "karn mungmai",
        "rank": 55046,
        "rank_sort": 55100,
        "total": 2349
      }
    ]
  }
}