{
  "last_updated_data": "2026-05-24T23:28:17Z",
  "league": {
    "admin_entry": null,
    "closed": false,
    "code_privacy": "p",
    "created": "2025-07-20T23:14:33.933835Z",
    "cup_league": 2815434,
    "has_cup": true,
    "id": 314,
    "league_type": "s",
    "max_entries": null,
    "name": "Overall",
    "rank": null,
    "scoring": "c",
    "start_event": 1
  },
  "new_entries": {
    "has_next": false,
    "page": 1,
    "results": []
  },
  "standings": {
    "has_next": true,
    "page": 1299,
    "results": [
      {
        "club_badge_src": null,
        "entry": 491915,
        "entry_name": "GittensKittens",
        "event_total": 64,
        "has_played": true,
        "id": 3301865,
        "last_rank": 79431,
        "player_name": "Matthew Goodson",
        "rank": 64833,
        "rank_sort": 64901,
        "total": 2343
      },
      {
        "club_badge_src": null,
        "entry": 494610,
        "entry_name": "Chaffing Status",
        "event_total": 63,
        "has_played": true,
        "id": 3319949,
        "last_rank": 77999,
        "player_name": "Stephen Sargeant",
        "rank": 64833,
        "rank_sort": 64902,
        "total": 2343
      },
      {
        "club_badge_src": null,
        "entry": 496878,
        "entry_name": "Reprobates",
        "event_total": 67,
        "has_played": true,
        "id": 3335026,
        "last_rank": 77676,
        "player_name": "Owen Underhill",
        "rank": 64833,
        "rank_sort": 64903,
        "total": 2343
      },
      {
        "club_badge_src": null,
        "entry": 499485,
        "entry_name": "dropit like its slot",
        "event_total": 62,
        "has_played": true,
        "id": 3352257,
        "last_rank": 75139,
        "player_name": "Max Ruess",
        "rank": 64833,
        "rank_sort": 64904,
        "total": 2343
      },
      {
        "club_badge_src": null,
        "entry": 569975,
        "entry_name": "A Tier 1 Club",
        "event_total": 78,
        "has_played": true,
        "id": 3836149,
        "last_rank": 115421,
        "player_name": "Dipen Patel",
        "rank": 64833,
        "rank_sort": 64905,
        "total": 2343
      },
      {
        "club_badge_src": null,
        "entry": 571370,
        "entry_name": "MS X1",
        "event_total": 63,
        "has_played": true,
        "id": 3845397,
        "last_rank": 77676,
        "player_name": "Muthu Swamy",
        "rank": 64833,
        "rank_sort": 64906,
        "total": 2343
      },
      {
        "club_badge_src": null,
        "entry": 571665,
        "entry_name": "ricky fc",
        "event_total": 74,
        "has_played": true,
        "id": 3847321,
        "last_rank": 103978,
        "player_name": "Ricky Hamilton",
        "rank": 64833,
        "rank_sort": 64907,
        "total": 2343
      },
      {
        "club_badge_src": null,
        "entry": 576408,
        "entry_name": "BODE",
        "event_total": 65,
        "has_played": true,
        "id": 3878712,
        "last_rank": 73423,
        "player_name": "abdullah ahmed",
        "rank": 64833,
        "rank_sort": 64908,
        "total": 2343
      },
      {
        "club_badge_src": null,
        "entry": 618457,
        "entry_name": "Mantastika",
        "event_total": 81,
        "has_played": true,
        "id": 4178745,
        "last_rank": 100949,
        "player_name": "Mantas Urbonas",
        "rank": 64833,
        "rank_sort": 64909,
        "total": 2343
      },
      {
        "club_badge_src": null,
        "entry": 627464,
        "entry_name": "Lionel Senesi",
        "event_total": 64,
        "has_played": true,
        "id": 4240114,
        "last_rank": 71386,
        "player_name": "Daniel Dener-Madsen",
        "rank": 64833,
        "rank_sort": 64910,
        "total": 2343
      },
      {
        "club_badge_src": null,
        "entry": 648343,
        "entry_name": "wonderlul",
        "event_total": 62,
        "has_played": true,
        "id": 4381692,
        "last_rank": 67063,
        "player_name": "Michal Lul",
        "rank": 64833,
        "rank_sort": 64911,
        "total": 2343
      },
      {
        "club_badge_src": null,
        "entry": 653474,
        "entry_name": "Crystal Phall\u00fcs",
        "event_total": 57,
        "has_played": true,
        "id": 4416176,
        "last_rank": 65796,
        "player_name": "Richard White",
        "rank": 64833,
        "rank_sort": 64912,
        "total": 2343
      },
      {
        "club_badge_src": null,
        "entry": 714437,
        "entry_name": "\u0645\u0639\u0644\u0634\u064a \u0628\u0642\u0627 \u064a\u0627 \u0631\u062c\u0627\u0644\u0629",
        "event_total": 92,
        "has_played": true,
        "id": 4847014,
        "last_rank": 161246,
        "player_name": "Mahmoud Okasha",
        "rank": 64833,
        "rank_sort": 64913,
        "total": 2343
      },
      {
        "club_badge_src": null,
        "entry": 749183,
        "entry_name": "Life on VARs",
        "event_total": 61,
        "has_played": true,
        "id": 5097171,
        "last_rank": 73975,
        "player_name": "David Kemp",
        "rank": 64833,
        "rank_sort": 64914,
        "total": 2343
      },
      {
        "club_badge_src": null,
        "entry": 764958,
        "entry_name": "Brewdog Udogie",
        "event_total": 58,
        "has_played": true,
        "id": 5217155,
        "last_rank": 67063,
        "player_name": "Gareth Jephson",
        "rank": 64833,
        "rank_sort": 64915,
        "total": 2343
      },
      {
        "club_badge_src": "https://fantasy.premierleague.com/gcs/plfpl-production-adobe-approved/plfpl-production/765227/3d03717f-8c5e-4827-a8d7-00c0656f5ff7.png",
        "entry": 765227,
        "entry_name": "Ser, Duncan the Tall",
        "event_total": 58,
        "has_played": true,
        "id": 5219041,
        "last_rank": 67695,
        "player_name": "Mustafa Nasri",
        "rank": 64833,
        "rank_sort": 64916,
        "total": 2343
      },
      {
        "club_badge_src": null,
        "entry": 771166,
        "entry_name": "ShaneLong Shaw Drift",
        "event_total": 67,
        "has_played": true,
        "id": 5260878,
        "last_rank": 68957,
        "player_name": "Joshua Meehan-Hill",
        "rank": 64833,
        "rank_sort": 64917,
        "total": 2343
      },
      {
        "club_badge_src": null,
        "entry": 852029,
        "entry_name": "Change Name",
        "event_total": 68,
        "has_played": true,
        "id": 5840149,
        "last_rank": 89055,
        "player_name": "Patrick Bindel",
        "rank": 64833,
        "rank_sort": 64918,
        "total": 2343
      },
      {
        "club_badge_src": null,
        "entry": 854835,
        "entry_name": "Rabid Rabbis",
        "event_total": 74,
        "has_played": true,
        "id": 5859441,
        "last_rank": 103526,
        "player_name": "Ka Chun Lai",
        "rank": 64833,
        "rank_sort": 64919,
        "total": 2343
      },
      {
        "club_badge_src": null,
        "entry": 863121,
        "entry_name": "E",
        "event_total": 57,
        "has_played": true,
        "id": 5917059,
        "last_rank": 65163,
        "player_name": "Isai Carrillo",
        "rank": 64833,
        "rank_sort": 64920,
        "total": 2343
      },
      {
        "club_badge_src": null,
        "entry": 870919,
        "entry_name": "kiwi fc",
        "event_total": 41,
        "has_played": true,
        "id": 5970875,
        "last_rank": 35424,
        "player_name": "Stephen Clayton",
        "rank": 64833,
        "rank_sort": 64921,
        "total": 2343
      },
      {
        "club_badge_src": "https://fantasy.premierleague.com/gcs/plfpl-production-adobe-approved/plfpl-production/880416/6e069575-8737-4f32-95c7-6e3719cc2241.png",
        "entry": 880416,
        "entry_name": "Botafogo UK",
        "event_total": 58,
        "has_played": true,
        "id": 6037560,
        "last_rank": 67695,
        "player_name": "Fernando C",
        "rank": 64833,
        "rank_sort": 64922,
        "total": 2343
      },
      {
        "club_badge_src": null,
        "entry": 882482,
        "entry_name": "ASMR Begovic",
        "event_total": 60,
        "has_played": true,
        "id": 6051982,
        "last_rank": 71386,
        "player_name": "Rowan Smith",
        "rank": 64833,
        "rank_sort": 64923,
        "total": 2343
      },
      {
        "club_badge_src": "https://fantasy.premierleague.com/gcs/plfpl-production-adobe-approved/plfpl-production/921402/53ec63ca-652f-43ac-a321-dae680f63a53.png",
        "entry": 921402,
        "entry_name": "Wembley will shake",
        "event_total": 63,
        "has_played": true,
        "id": 6336769,
        "last_rank": 77999,
        "player_name": "Andy Glynne",
        "rank": 64833,
        "rank_sort": 64924,
        "total": 2343
      },
      {
        "club_badge_src": null,
        "entry": 966594,
        "entry_name": "Change Name",
        "event_total": 74,
        "has_played": true,
        "id": 6661846,
        "last_rank": 103526,
        "player_name": "Aiden Savage",
        "rank": 64833,
        "rank_sort": 64925,
        "total": 2343
      },
      {
        "club_badge_src": "https://fantasy.premierleague.com/gcs/plfpl-production-adobe-approved/plfpl-production/989621/f12f3bff-06ad-4ab6-8a0d-6ebacd067e7b.png",
        "entry": 989621,
        "entry_name": "Zmek FC",
        "event_total": 64,
        "has_played": true,
        "id": 6823634,
        "last_rank": 71386,
        "player_name": "Hannes Gerdin",
        "rank": 64833,
        "rank_sort": 64926,
        "total": 2343
      },
      {
        "club_badge_src": "https://fantasy.premierleague.com/gcs/plfpl-production-adobe-approved/plfpl-production/1003626/d37ad2ac-4975-4838-b866-367ee9ace534.png",
        "entry": 1003626,
        "entry_name": "JoeMama",
        "event_total": 68,
        "has_played": true,
        "id": 6937620,
        "last_rank": 89055,
        "player_name": "Hoh Zhong Zheng",
        "rank": 64833,
        "rank_sort": 64927,
        "total": 2343
      },
      {
        "club_badge_src": null,
        "entry": 1057522,
        "entry_name": "Pime",
        "event_total": 67,
        "has_played": true,
        "id": 7318633,
        "last_rank": 87074,
        "player_name": "Hrvoje \u0160imi\u0107",
        "rank": 64833,
        "rank_sort": 64928,
        "total": 2343
      },
      {
        "club_badge_src": null,
        "entry": 1128916,
        "entry_name": "7O M O S A A",
        "event_total": 47,
        "has_played": true,
        "id": 7824201,
        "last_rank": 42940,
        "player_name": "Mohamed Khira",
        "rank": 64833,
        "rank_sort": 64929,
        "total": 2343
      },
      {
        "club_badge_src": null,
        "entry": 1130374,
        "entry_name": "cruyff",
        "event_total": 68,
        "has_played": true,
        "id": 7834747,
        "last_rank": 89426,
        "player_name": "Cruyff JC",
        "rank": 64833,
        "rank_sort": 64930,
        "total": 2343
      },
      {
        "club_badge_src": null,
        "entry": 1140141,
        "entry_name": "Olymique du Kef",
        "event_total": 68,
        "has_played": true,
        "id": 7903298,
        "last_rank": 79817,
        "player_name": "Achref Dachraoui",
        "rank": 64833,
        "rank_sort": 64931,
        "total": 2343
      },
      {
        "club_badge_src": null,
        "entry": 1156318,
        "entry_name": "Toms Turnips",
        "event_total": 64,
        "has_played": true,
        "id": 8018204,
        "last_rank": 71386,
        "player_name": "Tom Gregory",
        "rank": 64833,
        "rank_sort": 64932,
        "total": 2343
      },
      {
        "club_badge_src": null,
        "entry": 1206098,
        "entry_name": "Restored",
        "event_total": 40,
        "has_played": true,
        "id": 8370050,
        "last_rank": 34293,
        "player_name": "George Stavrinou",
        "rank": 64833,
        "rank_sort": 64933,
        "total": 2343
      },
      {
        "club_badge_src": "https://fantasy.premierleague.com/gcs/plfpl-production-adobe-approved/plfpl-production/1208816/939fe588-ffc6-4696-94b5-40e19be2655a.png",
        "entry": 1208816,
        "entry_name": "ill win dalot",
        "event_total": 59,
        "has_played": true,
        "id": 8389794,
        "last_rank": 69323,
        "player_name": "Dan Sweeney",
        "rank": 64833,
        "rank_sort": 64934,
        "total": 2343
      },
      {
        "club_badge_src": null,
        "entry": 1284555,
        "entry_name": "Ekitike taka",
        "event_total": 49,
        "has_played": true,
        "id": 8925947,
        "last_rank": 51984,
        "player_name": "Dan Hughes",
        "rank": 64833,
        "rank_sort": 64935,
        "total": 2343
      },
      {
        "club_badge_src": null,
        "entry": 1287028,
        "entry_name": "Huw's Hopefuls",
        "event_total": 53,
        "has_played": true,
        "id": 8943216,
        "last_rank": 58688,
        "player_name": "Huw Lewis",
        "rank": 64833,
        "rank_sort": 64936,
        "total": 2343
      },
      {
        "club_badge_src": "https://fantasy.premierleague.com/gcs/plfpl-production-adobe-approved/plfpl-production/1308198/5e674a90-1ef5-4c41-96a2-b606007e214b.png",
        "entry": 1308198,
        "entry_name": "Lokomotiv Summit Ave",
        "event_total": 72,
        "has_played": true,
        "id": 9092979,
        "last_rank": 88594,
        "player_name": "Jon Vall",
        "rank": 64833,
        "rank_sort": 64937,
        "total": 2343
      },
      {
        "club_badge_src": null,
        "entry": 1363321,
        "entry_name": "gogogo",
        "event_total": 49,
        "has_played": true,
        "id": 9477555,
        "last_rank": 51720,
        "player_name": "fai c",
        "rank": 64833,
        "rank_sort": 64938,
        "total": 2343
      },
      {
        "club_badge_src": "https://fantasy.premierleague.com/gcs/plfpl-production-adobe-approved/plfpl-production/1368053/807e1104-d350-4803-87ca-19c1020af84f.png",
        "entry": 1368053,
        "entry_name": "Rooney77",
        "event_total": 57,
        "has_played": true,
        "id": 9510074,
        "last_rank": 58388,
        "player_name": "Chanasorn Tubtimtong",
        "rank": 64833,
        "rank_sort": 64939,
        "total": 2343
      },
      {
        "club_badge_src": null,
        "entry": 1526218,
        "entry_name": "FC Karlo",
        "event_total": 43,
        "has_played": true,
        "id": 10645011,
        "last_rank": 43168,
        "player_name": "Ana Dimitrovska",
        "rank": 64833,
        "rank_sort": 64940,
        "total": 2343
      },
      {
        "club_badge_src": null,
        "entry": 1555404,
        "entry_name": "Not For Me Clive FC",
        "event_total": 36,
        "has_played": true,
        "id": 10860497,
        "last_rank": 34458,
        "player_name": "Andrew Timbrell",
        "rank": 64833,
        "rank_sort": 64941,
        "total": 2343
      },
      {
        "club_badge_src": null,
        "entry": 1564476,
        "entry_name": "lil uzi wirtz",
        "event_total": 39,
        "has_played": true,
        "id": 10928692,
        "last_rank": 38016,
        "player_name": "BIG CURRY",
        "rank": 64833,
        "rank_sort": 64942,
        "total": 2343
      },
      {
        "club_badge_src": null,
        "entry": 1593549,
        "entry_name": "\u0627\u0628\u0648 \u064a\u0645\u0627\u0646",
        "event_total": 56,
        "has_played": true,
        "id": 11145152,
        "last_rank": 56708,
        "player_name": "\u064a\u062d\u064a\u0649 \u0627\u0644\u0633\u0646\u0648\u0627\u0631 \u270c\u270c\u270c",
        "rank": 64833,
        "rank_sort": 64943,
        "total": 2343
      },
      {
        "club_badge_src": null,
        "entry": 1619541,
        "entry_name": "Noni R U OK FC",
        "event_total": 53,
        "has_played": true,
        "id": 11333145,
        "last_rank": 58388,
        "player_name": "Daniel Pearce",
        "rank": 64833,
        "rank_sort": 64944,
        "total": 2343
      },
      {
        "club_badge_src": null,
        "entry": 1624627,
        "entry_name": "The Only Way Is Up",
        "event_total": 69,
        "has_played": true,
        "id": 11371070,
        "last_rank": 91835,
        "player_name": "Russell Davis",
        "rank": 64833,
        "rank_sort": 64945,
        "total": 2343
      },
      {
        "club_badge_src": null,
        "entry": 1650390,
        "entry_name": "Old Red",
        "event_total": 45,
        "has_played": true,
        "id": 11554404,
        "last_rank": 45927,
        "player_name": "Mike Lewis",
        "rank": 64833,
        "rank_sort": 64946,
        "total": 2343
      },
      {
        "club_badge_src": "https://fantasy.premierleague.com/gcs/plfpl-production-adobe-approved/plfpl-production/1690393/65102f26-b23a-48a6-af26-91642dc10400.png",
        "entry": 1690393,
        "entry_name": "Tetey Champions",
        "event_total": 76,
        "has_played": true,
        "id": 11835003,
        "last_rank": 110187,
        "player_name": "ALIEN DATANG MENAKLUKI BUMI",
        "rank": 64833,
        "rank_sort": 64947,
        "total": 2343
      },
      {
        "club_badge_src": null,
        "entry": 1703268,
        "entry_name": "Pompey Wannabies",
        "event_total": 59,
        "has_played": true,
        "id": 11931614,
        "last_rank": 69323,
        "player_name": "Laura Hann",
        "rank": 64833,
        "rank_sort": 64948,
        "total": 2343
      },
      {
        "club_badge_src": "https://fantasy.premierleague.com/gcs/plfpl-production-adobe-approved/plfpl-production/1761618/711bf01b-01c2-44f4-93f4-1b197c7347e6.png",
        "entry": 1761618,
        "entry_name": "I am Maximus",
        "event_total": 66,
        "has_played": true,
        "id": 12368658,
        "last_rank": 84360,
        "player_name": "David Butler",
        "rank": 64833,
        "rank_sort": 64949,
        "total": 2343
      },
      {
        "club_badge_src": null,
        "entry": 1908076,
        "entry_name": "Feli City",
        "event_total": 48,
        "has_played": true,
        "id": 13451841,
        "last_rank": 50199,
        "player_name": "Felicity Hanrahan",
        "rank": 64833,
        "rank_sort": 64950,
        "total": 2343
      }
    ]
  }
}