{
  "last_updated_data": "2026-05-24T23:28:17Z",
  "league": {
    "admin_entry": null,
    "closed": false,
    "code_privacy": "p",
    "created": "2025-07-20T23:14:33.933835Z",
    "cup_league": 2815434,
    "has_cup": true,
    "id": 314,
    "league_type": "s",
    "max_entries": null,
    "name": "Overall",
    "rank": null,
    "scoring": "c",
    "start_event": 1
  },
  "new_entries": {
    "has_next": false,
    "page": 1,
    "results": []
  },
  "standings": {
    "has_next": true,
    "page": 1482,
    "results": [
      {
        "club_badge_src": null,
        "entry": 337609,
        "entry_name": "Rodrilicious",
        "event_total": 59,
        "has_played": true,
        "id": 2260189,
        "last_rank": 79817,
        "player_name": "Rishabh Raj",
        "rank": 73983,
        "rank_sort": 74051,
        "total": 2338
      },
      {
        "club_badge_src": null,
        "entry": 382284,
        "entry_name": "xx",
        "event_total": 64,
        "has_played": true,
        "id": 2563258,
        "last_rank": 90625,
        "player_name": "Lars-Erik Schelbred",
        "rank": 73983,
        "rank_sort": 74052,
        "total": 2338
      },
      {
        "club_badge_src": null,
        "entry": 405493,
        "entry_name": "The Chicken Kroup",
        "event_total": 58,
        "has_played": true,
        "id": 2718638,
        "last_rank": 68957,
        "player_name": "Ben Oakley",
        "rank": 73983,
        "rank_sort": 74053,
        "total": 2338
      },
      {
        "club_badge_src": null,
        "entry": 409822,
        "entry_name": "Top of the Klopps",
        "event_total": 54,
        "has_played": true,
        "id": 2748056,
        "last_rank": 69323,
        "player_name": "Thomas Bithell",
        "rank": 73983,
        "rank_sort": 74054,
        "total": 2338
      },
      {
        "club_badge_src": null,
        "entry": 446673,
        "entry_name": "Fc Samburg",
        "event_total": 62,
        "has_played": true,
        "id": 2996061,
        "last_rank": 77258,
        "player_name": "Sam Sharp",
        "rank": 73983,
        "rank_sort": 74055,
        "total": 2338
      },
      {
        "club_badge_src": "https://fantasy.premierleague.com/gcs/plfpl-production-adobe-approved/plfpl-production/455386/4b845d72-89ab-4334-ba5e-39526c3ccf6b.png",
        "entry": 455386,
        "entry_name": "MaestroYG",
        "event_total": 60,
        "has_played": true,
        "id": 3055062,
        "last_rank": 82069,
        "player_name": "Youngan Kim",
        "rank": 73983,
        "rank_sort": 74056,
        "total": 2338
      },
      {
        "club_badge_src": null,
        "entry": 461995,
        "entry_name": "Sverred Cityzens",
        "event_total": 61,
        "has_played": true,
        "id": 3099058,
        "last_rank": 75139,
        "player_name": "Irfan Jawad",
        "rank": 73983,
        "rank_sort": 74057,
        "total": 2338
      },
      {
        "club_badge_src": null,
        "entry": 471572,
        "entry_name": "Amr ghonine",
        "event_total": 53,
        "has_played": true,
        "id": 3165983,
        "last_rank": 67695,
        "player_name": "Yazan Amr",
        "rank": 73983,
        "rank_sort": 74058,
        "total": 2338
      },
      {
        "club_badge_src": null,
        "entry": 487327,
        "entry_name": "Charli xGx",
        "event_total": 47,
        "has_played": true,
        "id": 3271618,
        "last_rank": 57001,
        "player_name": "Charlie Sivell",
        "rank": 73983,
        "rank_sort": 74059,
        "total": 2338
      },
      {
        "club_badge_src": null,
        "entry": 494072,
        "entry_name": "say my name",
        "event_total": 76,
        "has_played": true,
        "id": 3316377,
        "last_rank": 123908,
        "player_name": "Mateusz W\u00f3jtowicz",
        "rank": 73983,
        "rank_sort": 74060,
        "total": 2338
      },
      {
        "club_badge_src": null,
        "entry": 502874,
        "entry_name": "GOAT Palmer",
        "event_total": 37,
        "has_played": true,
        "id": 3375434,
        "last_rank": 36348,
        "player_name": "Aidan Jastreboff",
        "rank": 73983,
        "rank_sort": 74061,
        "total": 2338
      },
      {
        "club_badge_src": "https://fantasy.premierleague.com/gcs/plfpl-production-adobe-approved/plfpl-production/512981/55af2c98-9178-4a2e-9770-093d821ea695.png",
        "entry": 512981,
        "entry_name": "StruggleBus FC",
        "event_total": 59,
        "has_played": true,
        "id": 3444481,
        "last_rank": 79431,
        "player_name": "Ryan Tarrant",
        "rank": 73983,
        "rank_sort": 74062,
        "total": 2338
      },
      {
        "club_badge_src": null,
        "entry": 521276,
        "entry_name": "COYG",
        "event_total": 56,
        "has_played": true,
        "id": 3500740,
        "last_rank": 73038,
        "player_name": "Thomas Lim",
        "rank": 73983,
        "rank_sort": 74063,
        "total": 2338
      },
      {
        "club_badge_src": null,
        "entry": 525556,
        "entry_name": "COYG",
        "event_total": 56,
        "has_played": true,
        "id": 3532231,
        "last_rank": 73423,
        "player_name": "Alex North",
        "rank": 73983,
        "rank_sort": 74064,
        "total": 2338
      },
      {
        "club_badge_src": null,
        "entry": 527341,
        "entry_name": "Gymteam",
        "event_total": 63,
        "has_played": true,
        "id": 3545040,
        "last_rank": 88594,
        "player_name": "gym gym",
        "rank": 73983,
        "rank_sort": 74065,
        "total": 2338
      },
      {
        "club_badge_src": null,
        "entry": 532974,
        "entry_name": "Wirtz of Wisdom",
        "event_total": 63,
        "has_played": true,
        "id": 3585773,
        "last_rank": 79079,
        "player_name": "Paley Ho",
        "rank": 73983,
        "rank_sort": 74066,
        "total": 2338
      },
      {
        "club_badge_src": null,
        "entry": 542904,
        "entry_name": "XIII",
        "event_total": 62,
        "has_played": true,
        "id": 3653954,
        "last_rank": 86735,
        "player_name": "Darren Shannon",
        "rank": 73983,
        "rank_sort": 74067,
        "total": 2338
      },
      {
        "club_badge_src": null,
        "entry": 553707,
        "entry_name": "You Hato see it",
        "event_total": 57,
        "has_played": true,
        "id": 3726829,
        "last_rank": 74898,
        "player_name": "charlie walden",
        "rank": 73983,
        "rank_sort": 74068,
        "total": 2338
      },
      {
        "club_badge_src": null,
        "entry": 560286,
        "entry_name": "Rice Rice Baby",
        "event_total": 59,
        "has_played": true,
        "id": 3771334,
        "last_rank": 79190,
        "player_name": "Kallum Kafesci",
        "rank": 73983,
        "rank_sort": 74069,
        "total": 2338
      },
      {
        "club_badge_src": "https://fantasy.premierleague.com/gcs/plfpl-production-adobe-approved/plfpl-production/580456/d066cc89-d28b-4add-ad21-05858624f47a.png",
        "entry": 580456,
        "entry_name": "Haven't got a Kalou",
        "event_total": 47,
        "has_played": true,
        "id": 3906093,
        "last_rank": 56369,
        "player_name": "Oli Le Marquand",
        "rank": 73983,
        "rank_sort": 74070,
        "total": 2338
      },
      {
        "club_badge_src": null,
        "entry": 582646,
        "entry_name": "Bubble Blowers",
        "event_total": 65,
        "has_played": true,
        "id": 3921081,
        "last_rank": 93443,
        "player_name": "Amit Chauhan",
        "rank": 73983,
        "rank_sort": 74071,
        "total": 2338
      },
      {
        "club_badge_src": null,
        "entry": 585098,
        "entry_name": "Claret & Blue Army",
        "event_total": 62,
        "has_played": true,
        "id": 3937598,
        "last_rank": 86054,
        "player_name": "Mark Dudley",
        "rank": 73983,
        "rank_sort": 74072,
        "total": 2338
      },
      {
        "club_badge_src": null,
        "entry": 587860,
        "entry_name": "Hooman",
        "event_total": 59,
        "has_played": true,
        "id": 3957756,
        "last_rank": 79431,
        "player_name": "Hooman N",
        "rank": 73983,
        "rank_sort": 74073,
        "total": 2338
      },
      {
        "club_badge_src": null,
        "entry": 594684,
        "entry_name": "Yoro Wizard Lenny",
        "event_total": 50,
        "has_played": true,
        "id": 4008451,
        "last_rank": 61950,
        "player_name": "Bryan Schneider",
        "rank": 73983,
        "rank_sort": 74074,
        "total": 2338
      },
      {
        "club_badge_src": null,
        "entry": 598931,
        "entry_name": "\ufffd KIMO FC \ufffd",
        "event_total": 52,
        "has_played": true,
        "id": 4039756,
        "last_rank": 65475,
        "player_name": "Temitope Afolabi",
        "rank": 73983,
        "rank_sort": 74075,
        "total": 2338
      },
      {
        "club_badge_src": null,
        "entry": 598948,
        "entry_name": "Gunnar",
        "event_total": 62,
        "has_played": true,
        "id": 4039878,
        "last_rank": 86735,
        "player_name": "Danny Morgan",
        "rank": 73983,
        "rank_sort": 74076,
        "total": 2338
      },
      {
        "club_badge_src": "https://fantasy.premierleague.com/gcs/plfpl-production-adobe-approved/plfpl-production/617027/1900e0e2-af1b-4017-a69c-e3c25d441857.png",
        "entry": 617027,
        "entry_name": "slip madueke in",
        "event_total": 51,
        "has_played": true,
        "id": 4169055,
        "last_rank": 63390,
        "player_name": "Toby Wilkes",
        "rank": 73983,
        "rank_sort": 74077,
        "total": 2338
      },
      {
        "club_badge_src": null,
        "entry": 679761,
        "entry_name": "Keep em Guessand",
        "event_total": 68,
        "has_played": true,
        "id": 4599863,
        "last_rank": 101419,
        "player_name": "Luke Boughen",
        "rank": 73983,
        "rank_sort": 74078,
        "total": 2338
      },
      {
        "club_badge_src": null,
        "entry": 681715,
        "entry_name": "Banter FC",
        "event_total": 84,
        "has_played": true,
        "id": 4613568,
        "last_rank": 149245,
        "player_name": "Matthew Wellman Jr",
        "rank": 73983,
        "rank_sort": 74079,
        "total": 2338
      },
      {
        "club_badge_src": null,
        "entry": 696548,
        "entry_name": "FC VAR Again",
        "event_total": 52,
        "has_played": true,
        "id": 4718002,
        "last_rank": 65163,
        "player_name": "Henning Bjune",
        "rank": 73983,
        "rank_sort": 74080,
        "total": 2338
      },
      {
        "club_badge_src": "https://fantasy.premierleague.com/gcs/plfpl-production-adobe-approved/plfpl-production/741297/3545cb1a-8422-4b59-9639-07370c430389.png",
        "entry": 741297,
        "entry_name": "Leeds XI",
        "event_total": 52,
        "has_played": true,
        "id": 5041312,
        "last_rank": 65475,
        "player_name": "Johnny Stewart",
        "rank": 73983,
        "rank_sort": 74081,
        "total": 2338
      },
      {
        "club_badge_src": null,
        "entry": 742016,
        "entry_name": "AlianzaGWS",
        "event_total": 44,
        "has_played": true,
        "id": 5046948,
        "last_rank": 51403,
        "player_name": "Gerry Sanabria",
        "rank": 73983,
        "rank_sort": 74082,
        "total": 2338
      },
      {
        "club_badge_src": null,
        "entry": 767617,
        "entry_name": "Salah W 3ashretoh",
        "event_total": 60,
        "has_played": true,
        "id": 5235578,
        "last_rank": 73038,
        "player_name": "Sherif Ahmed",
        "rank": 73983,
        "rank_sort": 74083,
        "total": 2338
      },
      {
        "club_badge_src": null,
        "entry": 784774,
        "entry_name": "Reuben's Raiders",
        "event_total": 52,
        "has_played": true,
        "id": 5361579,
        "last_rank": 65475,
        "player_name": "Rob Yardley",
        "rank": 73983,
        "rank_sort": 74084,
        "total": 2338
      },
      {
        "club_badge_src": null,
        "entry": 812802,
        "entry_name": "Al-HilALMA",
        "event_total": 61,
        "has_played": true,
        "id": 5565245,
        "last_rank": 83934,
        "player_name": "J\u00f8rgen Kristensen",
        "rank": 73983,
        "rank_sort": 74085,
        "total": 2338
      },
      {
        "club_badge_src": null,
        "entry": 816654,
        "entry_name": "Whateverton",
        "event_total": 44,
        "has_played": true,
        "id": 5592521,
        "last_rank": 45416,
        "player_name": "Alex Howe",
        "rank": 73983,
        "rank_sort": 74086,
        "total": 2338
      },
      {
        "club_badge_src": "https://fantasy.premierleague.com/gcs/plfpl-production-adobe-approved/plfpl-production/848242/035cc9b9-5177-43a1-bc4b-e239eaf7fb86.png",
        "entry": 848242,
        "entry_name": "Pokt-Mrm",
        "event_total": 66,
        "has_played": true,
        "id": 5813564,
        "last_rank": 96374,
        "player_name": "Pokt MrM",
        "rank": 73983,
        "rank_sort": 74087,
        "total": 2338
      },
      {
        "club_badge_src": null,
        "entry": 849095,
        "entry_name": "Crouch Potato's",
        "event_total": 58,
        "has_played": true,
        "id": 5819843,
        "last_rank": 77258,
        "player_name": "Angus Bridge",
        "rank": 73983,
        "rank_sort": 74088,
        "total": 2338
      },
      {
        "club_badge_src": null,
        "entry": 869886,
        "entry_name": "Yorkshire Puddings",
        "event_total": 76,
        "has_played": true,
        "id": 5963757,
        "last_rank": 123422,
        "player_name": "Ross Widdows",
        "rank": 73983,
        "rank_sort": 74089,
        "total": 2338
      },
      {
        "club_badge_src": null,
        "entry": 907831,
        "entry_name": "Barnab\u00e1\u0161i",
        "event_total": 52,
        "has_played": true,
        "id": 6240497,
        "last_rank": 58071,
        "player_name": "Bob Vardan",
        "rank": 73983,
        "rank_sort": 74090,
        "total": 2338
      },
      {
        "club_badge_src": null,
        "entry": 929184,
        "entry_name": "Footballator 3.0",
        "event_total": 55,
        "has_played": true,
        "id": 6393286,
        "last_rank": 71386,
        "player_name": "Gabriel Dutru",
        "rank": 73983,
        "rank_sort": 74091,
        "total": 2338
      },
      {
        "club_badge_src": null,
        "entry": 953888,
        "entry_name": "Amorim's Red",
        "event_total": 53,
        "has_played": true,
        "id": 6572231,
        "last_rank": 67063,
        "player_name": "Jitesh Assudani",
        "rank": 73983,
        "rank_sort": 74092,
        "total": 2338
      },
      {
        "club_badge_src": null,
        "entry": 971387,
        "entry_name": "GrampyGuardiola",
        "event_total": 56,
        "has_played": true,
        "id": 6696087,
        "last_rank": 72815,
        "player_name": "Greg Buchan",
        "rank": 73983,
        "rank_sort": 74093,
        "total": 2338
      },
      {
        "club_badge_src": null,
        "entry": 976454,
        "entry_name": "Don Corleone",
        "event_total": 71,
        "has_played": true,
        "id": 6731595,
        "last_rank": 108959,
        "player_name": "Aydan Butt",
        "rank": 73983,
        "rank_sort": 74094,
        "total": 2338
      },
      {
        "club_badge_src": null,
        "entry": 998947,
        "entry_name": "I'M A BALEBA",
        "event_total": 49,
        "has_played": true,
        "id": 6903767,
        "last_rank": 60168,
        "player_name": "Chris Harmes",
        "rank": 73983,
        "rank_sort": 74095,
        "total": 2338
      },
      {
        "club_badge_src": null,
        "entry": 1012607,
        "entry_name": "Austin fc",
        "event_total": 65,
        "has_played": true,
        "id": 7004919,
        "last_rank": 93443,
        "player_name": "Caleb Austin",
        "rank": 73983,
        "rank_sort": 74096,
        "total": 2338
      },
      {
        "club_badge_src": null,
        "entry": 1026180,
        "entry_name": "Ake Breaky Heart",
        "event_total": 56,
        "has_played": true,
        "id": 7099700,
        "last_rank": 73423,
        "player_name": "Fiona McLaughlin",
        "rank": 73983,
        "rank_sort": 74097,
        "total": 2338
      },
      {
        "club_badge_src": "https://fantasy.premierleague.com/gcs/plfpl-production-adobe-approved/plfpl-production/1027856/cf3caeff-98b2-48e9-a0b4-02d1367c9f21.png",
        "entry": 1027856,
        "entry_name": "Leothrix FC",
        "event_total": 57,
        "has_played": true,
        "id": 7111357,
        "last_rank": 75537,
        "player_name": "Tanmay Dey",
        "rank": 73983,
        "rank_sort": 74098,
        "total": 2338
      },
      {
        "club_badge_src": null,
        "entry": 1032295,
        "entry_name": "\u66fc\u806f\u7687\u671d\u5343\u79cb\u842c\u4e16",
        "event_total": 61,
        "has_played": true,
        "id": 7142194,
        "last_rank": 75139,
        "player_name": "Tino Tang",
        "rank": 73983,
        "rank_sort": 74099,
        "total": 2338
      },
      {
        "club_badge_src": null,
        "entry": 1074510,
        "entry_name": "Can't get any Wirtz",
        "event_total": 41,
        "has_played": true,
        "id": 7438998,
        "last_rank": 41324,
        "player_name": "Koen Geens",
        "rank": 73983,
        "rank_sort": 74100,
        "total": 2338
      }
    ]
  }
}