{
  "last_updated_data": "2026-05-24T23:28:17Z",
  "league": {
    "admin_entry": null,
    "closed": false,
    "code_privacy": "p",
    "created": "2025-07-20T23:14:33.933835Z",
    "cup_league": 2815434,
    "has_cup": true,
    "id": 314,
    "league_type": "s",
    "max_entries": null,
    "name": "Overall",
    "rank": null,
    "scoring": "c",
    "start_event": 1
  },
  "new_entries": {
    "has_next": false,
    "page": 1,
    "results": []
  },
  "standings": {
    "has_next": true,
    "page": 582,
    "results": [
      {
        "club_badge_src": null,
        "entry": 4217164,
        "entry_name": "athletico hawkshaw",
        "event_total": 49,
        "has_played": true,
        "id": 31938356,
        "last_rank": 21775,
        "player_name": "Dave Perkins",
        "rank": 28885,
        "rank_sort": 29051,
        "total": 2369
      },
      {
        "club_badge_src": "https://fantasy.premierleague.com/gcs/plfpl-production-adobe-approved/plfpl-production/4225767/b33f7ba7-3b6d-43f6-9021-58e96b30a4d7.png",
        "entry": 4225767,
        "entry_name": "Dig in your buh twin",
        "event_total": 69,
        "has_played": true,
        "id": 32014321,
        "last_rank": 42506,
        "player_name": "Harry Brook",
        "rank": 28885,
        "rank_sort": 29052,
        "total": 2369
      },
      {
        "club_badge_src": null,
        "entry": 4230323,
        "entry_name": "SikboyXI",
        "event_total": 84,
        "has_played": true,
        "id": 32052163,
        "last_rank": 66848,
        "player_name": "Sikander Pandher",
        "rank": 28885,
        "rank_sort": 29053,
        "total": 2369
      },
      {
        "club_badge_src": null,
        "entry": 4403118,
        "entry_name": "Creamer Dreamers",
        "event_total": 40,
        "has_played": true,
        "id": 33488663,
        "last_rank": 15550,
        "player_name": "Samuel Bratby",
        "rank": 28885,
        "rank_sort": 29054,
        "total": 2369
      },
      {
        "club_badge_src": null,
        "entry": 4463366,
        "entry_name": "Purple Reina",
        "event_total": 55,
        "has_played": true,
        "id": 34005822,
        "last_rank": 26827,
        "player_name": "Sam Harridge",
        "rank": 28885,
        "rank_sort": 29055,
        "total": 2369
      },
      {
        "club_badge_src": null,
        "entry": 4573296,
        "entry_name": "ezinosi",
        "event_total": 56,
        "has_played": true,
        "id": 34905261,
        "last_rank": 27644,
        "player_name": "Jonathan Pell",
        "rank": 28885,
        "rank_sort": 29056,
        "total": 2369
      },
      {
        "club_badge_src": null,
        "entry": 4578053,
        "entry_name": "40YearOldVirgil",
        "event_total": 68,
        "has_played": true,
        "id": 34946032,
        "last_rank": 41162,
        "player_name": "Adam Smart",
        "rank": 28885,
        "rank_sort": 29057,
        "total": 2369
      },
      {
        "club_badge_src": null,
        "entry": 4778095,
        "entry_name": "\u26bd\ufe0f\u26bd\ufe0fSTRONGBOW\u26bd\ufe0f\u26bd\ufe0f",
        "event_total": 69,
        "has_played": true,
        "id": 36781052,
        "last_rank": 42401,
        "player_name": "Arek K.",
        "rank": 28885,
        "rank_sort": 29058,
        "total": 2369
      },
      {
        "club_badge_src": null,
        "entry": 4779261,
        "entry_name": "Buttons",
        "event_total": 61,
        "has_played": true,
        "id": 36790473,
        "last_rank": 32688,
        "player_name": "Richard O-Donnell",
        "rank": 28885,
        "rank_sort": 29059,
        "total": 2369
      },
      {
        "club_badge_src": null,
        "entry": 4797318,
        "entry_name": "Brucie Bonus points",
        "event_total": 58,
        "has_played": true,
        "id": 36935353,
        "last_rank": 29688,
        "player_name": "Josh Grindley",
        "rank": 28885,
        "rank_sort": 29060,
        "total": 2369
      },
      {
        "club_badge_src": null,
        "entry": 4817200,
        "entry_name": "Wirtz Case Scenario",
        "event_total": 71,
        "has_played": true,
        "id": 37094062,
        "last_rank": 45252,
        "player_name": "Izzat Ishak",
        "rank": 28885,
        "rank_sort": 29061,
        "total": 2369
      },
      {
        "club_badge_src": null,
        "entry": 4821596,
        "entry_name": "Rennemo Rejects",
        "event_total": 73,
        "has_played": true,
        "id": 37129992,
        "last_rank": 48363,
        "player_name": "Richard Rennemo",
        "rank": 28885,
        "rank_sort": 29062,
        "total": 2369
      },
      {
        "club_badge_src": null,
        "entry": 4840577,
        "entry_name": "Marching orders",
        "event_total": 53,
        "has_played": true,
        "id": 37288043,
        "last_rank": 24897,
        "player_name": "Mike Joyner",
        "rank": 28885,
        "rank_sort": 29063,
        "total": 2369
      },
      {
        "club_badge_src": null,
        "entry": 4909159,
        "entry_name": "Malaka FC",
        "event_total": 49,
        "has_played": true,
        "id": 37858060,
        "last_rank": 21677,
        "player_name": "Kimon Good",
        "rank": 28885,
        "rank_sort": 29064,
        "total": 2369
      },
      {
        "club_badge_src": null,
        "entry": 4934132,
        "entry_name": "NYC",
        "event_total": 64,
        "has_played": true,
        "id": 38064415,
        "last_rank": 36200,
        "player_name": "Jonathan Ng",
        "rank": 28885,
        "rank_sort": 29065,
        "total": 2369
      },
      {
        "club_badge_src": null,
        "entry": 5058390,
        "entry_name": "\u0623\u062c\u0645\u062f \u0639\u0627\u0644\u0645 \u0628\u0627\u0644\u0639\u0627\u0644\u0645",
        "event_total": 51,
        "has_played": true,
        "id": 39086327,
        "last_rank": 23522,
        "player_name": "\u0645\u0639\u0627\u0630 \u0645\u062d\u0645\u0627",
        "rank": 28885,
        "rank_sort": 29066,
        "total": 2369
      },
      {
        "club_badge_src": null,
        "entry": 5059836,
        "entry_name": "Sonny",
        "event_total": 72,
        "has_played": true,
        "id": 39098207,
        "last_rank": 46839,
        "player_name": "Shawn Hamilton",
        "rank": 28885,
        "rank_sort": 29067,
        "total": 2369
      },
      {
        "club_badge_src": null,
        "entry": 5122114,
        "entry_name": "Forever DJ20",
        "event_total": 59,
        "has_played": true,
        "id": 39606743,
        "last_rank": 30727,
        "player_name": "Sakurr SR",
        "rank": 28885,
        "rank_sort": 29068,
        "total": 2369
      },
      {
        "club_badge_src": null,
        "entry": 5178344,
        "entry_name": "ORZE\u0141 KOZY",
        "event_total": 65,
        "has_played": true,
        "id": 40081237,
        "last_rank": 37435,
        "player_name": "Rados\u0142aw Byrski",
        "rank": 28885,
        "rank_sort": 29069,
        "total": 2369
      },
      {
        "club_badge_src": null,
        "entry": 5224219,
        "entry_name": "I'm Quanstahpated",
        "event_total": 61,
        "has_played": true,
        "id": 40479567,
        "last_rank": 32751,
        "player_name": "Kiran Nutter",
        "rank": 28885,
        "rank_sort": 29070,
        "total": 2369
      },
      {
        "club_badge_src": null,
        "entry": 5429605,
        "entry_name": "Ponies Off A Balcony",
        "event_total": 55,
        "has_played": true,
        "id": 42233206,
        "last_rank": 26827,
        "player_name": "Carlos Nodar",
        "rank": 28885,
        "rank_sort": 29071,
        "total": 2369
      },
      {
        "club_badge_src": null,
        "entry": 5437150,
        "entry_name": "Lauge",
        "event_total": 71,
        "has_played": true,
        "id": 42298042,
        "last_rank": 45182,
        "player_name": "Lauge Trangb\u00e6k-Gavnholt",
        "rank": 28885,
        "rank_sort": 29072,
        "total": 2369
      },
      {
        "club_badge_src": null,
        "entry": 5564955,
        "entry_name": "PandArmy",
        "event_total": 53,
        "has_played": true,
        "id": 43449292,
        "last_rank": 24897,
        "player_name": "Simen Aamodt",
        "rank": 28885,
        "rank_sort": 29073,
        "total": 2369
      },
      {
        "club_badge_src": null,
        "entry": 5566294,
        "entry_name": "FPL Ultimate",
        "event_total": 57,
        "has_played": true,
        "id": 43461435,
        "last_rank": 28517,
        "player_name": "Choo Peter",
        "rank": 28885,
        "rank_sort": 29074,
        "total": 2369
      },
      {
        "club_badge_src": null,
        "entry": 5602086,
        "entry_name": "UnbeLEIFable",
        "event_total": 65,
        "has_played": true,
        "id": 43774425,
        "last_rank": 37435,
        "player_name": "Oliver Townsend",
        "rank": 28885,
        "rank_sort": 29075,
        "total": 2369
      },
      {
        "club_badge_src": null,
        "entry": 5607610,
        "entry_name": "Nomadwanderers",
        "event_total": 71,
        "has_played": true,
        "id": 43822486,
        "last_rank": 45416,
        "player_name": "Tom Walsh",
        "rank": 28885,
        "rank_sort": 29076,
        "total": 2369
      },
      {
        "club_badge_src": "https://fantasy.premierleague.com/gcs/plfpl-production-adobe-approved/plfpl-production/5672857/0840a63b-3a8f-4a91-8d93-1e1042f4983c.png",
        "entry": 5672857,
        "entry_name": "tseefXI",
        "event_total": 49,
        "has_played": true,
        "id": 44393466,
        "last_rank": 21775,
        "player_name": "Tseef XI",
        "rank": 28885,
        "rank_sort": 29077,
        "total": 2369
      },
      {
        "club_badge_src": null,
        "entry": 5695565,
        "entry_name": "Mikelin\u2019 It Happen",
        "event_total": 58,
        "has_played": true,
        "id": 44589692,
        "last_rank": 29688,
        "player_name": "Michael Abdul",
        "rank": 28885,
        "rank_sort": 29078,
        "total": 2369
      },
      {
        "club_badge_src": null,
        "entry": 5725165,
        "entry_name": "abdullah",
        "event_total": 55,
        "has_played": true,
        "id": 44847325,
        "last_rank": 26827,
        "player_name": "\u0639\u0628\u062f\u0627\u0644\u0644\u0647 \u0633\u0644\u0645\u0627\u0646",
        "rank": 28885,
        "rank_sort": 29079,
        "total": 2369
      },
      {
        "club_badge_src": null,
        "entry": 5795098,
        "entry_name": "King Kante",
        "event_total": 67,
        "has_played": true,
        "id": 45456513,
        "last_rank": 40036,
        "player_name": "Daniel Meade",
        "rank": 28885,
        "rank_sort": 29080,
        "total": 2369
      },
      {
        "club_badge_src": null,
        "entry": 5808332,
        "entry_name": "The Bears",
        "event_total": 88,
        "has_played": true,
        "id": 45572169,
        "last_rank": 74898,
        "player_name": "Sarah J",
        "rank": 28885,
        "rank_sort": 29081,
        "total": 2369
      },
      {
        "club_badge_src": "https://fantasy.premierleague.com/gcs/plfpl-production-adobe-approved/plfpl-production/5834058/f07e118b-ff4c-4a89-860e-27c0b61d9530.png",
        "entry": 5834058,
        "entry_name": "Game of Throw-ins",
        "event_total": 44,
        "has_played": true,
        "id": 45792842,
        "last_rank": 18113,
        "player_name": "Jade Ledgerwood",
        "rank": 28885,
        "rank_sort": 29082,
        "total": 2369
      },
      {
        "club_badge_src": null,
        "entry": 5895184,
        "entry_name": "Sigma",
        "event_total": 58,
        "has_played": true,
        "id": 46312686,
        "last_rank": 29578,
        "player_name": "Fin Frost",
        "rank": 28885,
        "rank_sort": 29083,
        "total": 2369
      },
      {
        "club_badge_src": null,
        "entry": 6009499,
        "entry_name": "Hangnemo",
        "event_total": 59,
        "has_played": true,
        "id": 47382396,
        "last_rank": 30600,
        "player_name": "Mingfuk Dinhiw",
        "rank": 28885,
        "rank_sort": 29084,
        "total": 2369
      },
      {
        "club_badge_src": "https://fantasy.premierleague.com/gcs/plfpl-production-adobe-approved/plfpl-production/6058535/fd1ef6c4-1542-4a63-9b18-4f236303f2b8.png",
        "entry": 6058535,
        "entry_name": "DrejFc",
        "event_total": 64,
        "has_played": true,
        "id": 47813175,
        "last_rank": 36200,
        "player_name": "Andrej Dimeski",
        "rank": 28885,
        "rank_sort": 29085,
        "total": 2369
      },
      {
        "club_badge_src": null,
        "entry": 6108797,
        "entry_name": "Lord Farkequad 11",
        "event_total": 61,
        "has_played": true,
        "id": 48253092,
        "last_rank": 32879,
        "player_name": "James Waterhouse",
        "rank": 28885,
        "rank_sort": 29086,
        "total": 2369
      },
      {
        "club_badge_src": null,
        "entry": 6109307,
        "entry_name": "Melbourne XI",
        "event_total": 63,
        "has_played": true,
        "id": 48257605,
        "last_rank": 35166,
        "player_name": "Greg Melbourne",
        "rank": 28885,
        "rank_sort": 29087,
        "total": 2369
      },
      {
        "club_badge_src": null,
        "entry": 6183448,
        "entry_name": "RiceAndShine",
        "event_total": 74,
        "has_played": true,
        "id": 48902057,
        "last_rank": 49880,
        "player_name": "karen menhem",
        "rank": 28885,
        "rank_sort": 29088,
        "total": 2369
      },
      {
        "club_badge_src": null,
        "entry": 6382322,
        "entry_name": "Herrhagens BK",
        "event_total": 67,
        "has_played": true,
        "id": 50763256,
        "last_rank": 40036,
        "player_name": "Andreas Karlsson",
        "rank": 28885,
        "rank_sort": 29089,
        "total": 2369
      },
      {
        "club_badge_src": "https://fantasy.premierleague.com/gcs/plfpl-production-adobe-approved/plfpl-production/6445095/e3ea1049-396c-4f6a-98d5-fd77e74ae6dc.png",
        "entry": 6445095,
        "entry_name": "Stax",
        "event_total": 71,
        "has_played": true,
        "id": 51319157,
        "last_rank": 45416,
        "player_name": "Moises Cano",
        "rank": 28885,
        "rank_sort": 29090,
        "total": 2369
      },
      {
        "club_badge_src": null,
        "entry": 6486896,
        "entry_name": "Hakuna Mateta",
        "event_total": 52,
        "has_played": true,
        "id": 51706286,
        "last_rank": 24039,
        "player_name": "Roy Raad",
        "rank": 28885,
        "rank_sort": 29091,
        "total": 2369
      },
      {
        "club_badge_src": null,
        "entry": 6489546,
        "entry_name": "Orze\u0142 Wysoka G\u0142og.",
        "event_total": 55,
        "has_played": true,
        "id": 51729542,
        "last_rank": 26710,
        "player_name": "Adam Kubicz",
        "rank": 28885,
        "rank_sort": 29092,
        "total": 2369
      },
      {
        "club_badge_src": null,
        "entry": 6501029,
        "entry_name": "FC Malelito",
        "event_total": 43,
        "has_played": true,
        "id": 51831139,
        "last_rank": 17585,
        "player_name": "Diego Alonso Avilez",
        "rank": 28885,
        "rank_sort": 29093,
        "total": 2369
      },
      {
        "club_badge_src": "https://fantasy.premierleague.com/gcs/plfpl-production-adobe-approved/plfpl-production/6566634/13e5b243-268b-449e-b464-f5bb91e8a167.png",
        "entry": 6566634,
        "entry_name": "Curious Jo\u00e3orge",
        "event_total": 62,
        "has_played": true,
        "id": 52415080,
        "last_rank": 33869,
        "player_name": "George Brooks",
        "rank": 28885,
        "rank_sort": 29094,
        "total": 2369
      },
      {
        "club_badge_src": null,
        "entry": 6645090,
        "entry_name": "Redbourn Rovers",
        "event_total": 69,
        "has_played": true,
        "id": 53120059,
        "last_rank": 37376,
        "player_name": "Alex Cast",
        "rank": 28885,
        "rank_sort": 29095,
        "total": 2369
      },
      {
        "club_badge_src": null,
        "entry": 6839250,
        "entry_name": "Yolo Tour\u00e9",
        "event_total": 62,
        "has_played": true,
        "id": 54787140,
        "last_rank": 33936,
        "player_name": "Matthew Akehurst",
        "rank": 28885,
        "rank_sort": 29096,
        "total": 2369
      },
      {
        "club_badge_src": null,
        "entry": 6848110,
        "entry_name": "One Season Wonder",
        "event_total": 70,
        "has_played": true,
        "id": 54863149,
        "last_rank": 43786,
        "player_name": "Ross Cordingley",
        "rank": 28885,
        "rank_sort": 29097,
        "total": 2369
      },
      {
        "club_badge_src": null,
        "entry": 6898990,
        "entry_name": "Miraculous Mavericks",
        "event_total": 76,
        "has_played": true,
        "id": 55295781,
        "last_rank": 52759,
        "player_name": "Joe Manfredi",
        "rank": 28885,
        "rank_sort": 29098,
        "total": 2369
      },
      {
        "club_badge_src": null,
        "entry": 6944851,
        "entry_name": "Maguire FC",
        "event_total": 64,
        "has_played": true,
        "id": 55682474,
        "last_rank": 36200,
        "player_name": "Ben Nandabhiwat",
        "rank": 28885,
        "rank_sort": 29099,
        "total": 2369
      },
      {
        "club_badge_src": null,
        "entry": 6960455,
        "entry_name": "Team Awesome",
        "event_total": 66,
        "has_played": true,
        "id": 55820692,
        "last_rank": 38644,
        "player_name": "Steven Holmes",
        "rank": 28885,
        "rank_sort": 29100,
        "total": 2369
      }
    ]
  }
}