{
  "last_updated_data": "2026-05-24T23:28:17Z",
  "league": {
    "admin_entry": null,
    "closed": false,
    "code_privacy": "p",
    "created": "2025-07-20T23:14:33.933835Z",
    "cup_league": 2815434,
    "has_cup": true,
    "id": 314,
    "league_type": "s",
    "max_entries": null,
    "name": "Overall",
    "rank": null,
    "scoring": "c",
    "start_event": 1
  },
  "new_entries": {
    "has_next": false,
    "page": 1,
    "results": []
  },
  "standings": {
    "has_next": true,
    "page": 61,
    "results": [
      {
        "club_badge_src": null,
        "entry": 276271,
        "entry_name": "Haimon FC",
        "event_total": 67,
        "has_played": true,
        "id": 1838719,
        "last_rank": 4394,
        "player_name": "Maor Navon",
        "rank": 2997,
        "rank_sort": 3001,
        "total": 2426
      },
      {
        "club_badge_src": null,
        "entry": 282337,
        "entry_name": "Buchinho IL",
        "event_total": 68,
        "has_played": true,
        "id": 1879260,
        "last_rank": 4615,
        "player_name": "Joachim Buch",
        "rank": 2997,
        "rank_sort": 3002,
        "total": 2426
      },
      {
        "club_badge_src": null,
        "entry": 342253,
        "entry_name": "Kessel Run",
        "event_total": 63,
        "has_played": true,
        "id": 2290756,
        "last_rank": 3627,
        "player_name": "Marcin Bulski",
        "rank": 2997,
        "rank_sort": 3003,
        "total": 2426
      },
      {
        "club_badge_src": null,
        "entry": 928555,
        "entry_name": "Brainstrust",
        "event_total": 58,
        "has_played": true,
        "id": 6388878,
        "last_rank": 2328,
        "player_name": "nik krunic",
        "rank": 2997,
        "rank_sort": 3004,
        "total": 2426
      },
      {
        "club_badge_src": null,
        "entry": 2080476,
        "entry_name": "Sesko clubcard",
        "event_total": 63,
        "has_played": true,
        "id": 14752598,
        "last_rank": 3627,
        "player_name": "Matt Hopkin",
        "rank": 2997,
        "rank_sort": 3005,
        "total": 2426
      },
      {
        "club_badge_src": null,
        "entry": 2154187,
        "entry_name": "Ekitika Masala",
        "event_total": 53,
        "has_played": true,
        "id": 15312564,
        "last_rank": 2235,
        "player_name": "Akshay Patel",
        "rank": 2997,
        "rank_sort": 3006,
        "total": 2426
      },
      {
        "club_badge_src": null,
        "entry": 2230569,
        "entry_name": "moyes will be moyes",
        "event_total": 54,
        "has_played": true,
        "id": 15890296,
        "last_rank": 2363,
        "player_name": "Rowan Evans",
        "rank": 2997,
        "rank_sort": 3007,
        "total": 2426
      },
      {
        "club_badge_src": null,
        "entry": 2514832,
        "entry_name": "kaishanghai utd",
        "event_total": 55,
        "has_played": true,
        "id": 18017018,
        "last_rank": 2468,
        "player_name": "Kai Stian Larsen",
        "rank": 2997,
        "rank_sort": 3008,
        "total": 2426
      },
      {
        "club_badge_src": null,
        "entry": 3431362,
        "entry_name": "devilsfc",
        "event_total": 66,
        "has_played": true,
        "id": 25490267,
        "last_rank": 4155,
        "player_name": "Naval Sharma",
        "rank": 2997,
        "rank_sort": 3009,
        "total": 2426
      },
      {
        "club_badge_src": "https://fantasy.premierleague.com/gcs/plfpl-production-adobe-approved/plfpl-production/3433103/4b495491-e62e-402e-ac6b-0bac2823139f.png",
        "entry": 3433103,
        "entry_name": "Bottleta Teta FC",
        "event_total": 64,
        "has_played": true,
        "id": 25503809,
        "last_rank": 3765,
        "player_name": "Kevin Kumar",
        "rank": 2997,
        "rank_sort": 3010,
        "total": 2426
      },
      {
        "club_badge_src": null,
        "entry": 3483452,
        "entry_name": "OldfieldsArmy",
        "event_total": 76,
        "has_played": true,
        "id": 25902932,
        "last_rank": 5498,
        "player_name": "Matt Oldfield",
        "rank": 2997,
        "rank_sort": 3011,
        "total": 2426
      },
      {
        "club_badge_src": null,
        "entry": 3646837,
        "entry_name": "Warnock & Peace",
        "event_total": 67,
        "has_played": true,
        "id": 27182275,
        "last_rank": 3601,
        "player_name": "Jez Sumner",
        "rank": 2997,
        "rank_sort": 3012,
        "total": 2426
      },
      {
        "club_badge_src": "https://fantasy.premierleague.com/gcs/plfpl-production-adobe-approved/plfpl-production/5967996/7edd926c-54c7-4c0e-a513-0c9f50662116.png",
        "entry": 5967996,
        "entry_name": "Freep Alice Tyne",
        "event_total": 62,
        "has_played": true,
        "id": 46957326,
        "last_rank": 2870,
        "player_name": "Ennis Alhashimi",
        "rank": 2997,
        "rank_sort": 3013,
        "total": 2426
      },
      {
        "club_badge_src": null,
        "entry": 7204221,
        "entry_name": "KIERAS TEAM",
        "event_total": 65,
        "has_played": true,
        "id": 58171576,
        "last_rank": 2685,
        "player_name": "Dawid Ko\u0142odziej",
        "rank": 2997,
        "rank_sort": 3014,
        "total": 2426
      },
      {
        "club_badge_src": null,
        "entry": 7732518,
        "entry_name": "mohammed A",
        "event_total": 64,
        "has_played": true,
        "id": 63463823,
        "last_rank": 3796,
        "player_name": "Mohammed Abduallh",
        "rank": 2997,
        "rank_sort": 3015,
        "total": 2426
      },
      {
        "club_badge_src": null,
        "entry": 7858821,
        "entry_name": "Sheva_7",
        "event_total": 57,
        "has_played": true,
        "id": 64612370,
        "last_rank": 2762,
        "player_name": "Ac. Milan",
        "rank": 2997,
        "rank_sort": 3016,
        "total": 2426
      },
      {
        "club_badge_src": null,
        "entry": 8021749,
        "entry_name": "Ezz stars",
        "event_total": 36,
        "has_played": true,
        "id": 66080867,
        "last_rank": 951,
        "player_name": "youssef Nasser",
        "rank": 2997,
        "rank_sort": 3017,
        "total": 2426
      },
      {
        "club_badge_src": null,
        "entry": 8971989,
        "entry_name": "Really Punny Name FC",
        "event_total": 52,
        "has_played": true,
        "id": 75211588,
        "last_rank": 2133,
        "player_name": "Dylan Hull",
        "rank": 2997,
        "rank_sort": 3018,
        "total": 2426
      },
      {
        "club_badge_src": "https://fantasy.premierleague.com/gcs/plfpl-production-adobe-approved/plfpl-production/30463/16669c2f-7fc0-4747-9e8a-fdad9a65420a.png",
        "entry": 30463,
        "entry_name": "ChroniclesOfRuddock",
        "event_total": 65,
        "has_played": true,
        "id": 192794,
        "last_rank": 3331,
        "player_name": "Stephan Haugsrud",
        "rank": 3019,
        "rank_sort": 3019,
        "total": 2426
      },
      {
        "club_badge_src": "https://fantasy.premierleague.com/gcs/plfpl-production-adobe-approved/plfpl-production/51543/3591e787-0c52-4a7c-bfd0-32e48f49d499.png",
        "entry": 51543,
        "entry_name": "Yummy",
        "event_total": 63,
        "has_played": true,
        "id": 331472,
        "last_rank": 3648,
        "player_name": "Ethan Yang",
        "rank": 3019,
        "rank_sort": 3020,
        "total": 2426
      },
      {
        "club_badge_src": "https://fantasy.premierleague.com/gcs/plfpl-production-adobe-approved/plfpl-production/316997/1a91e995-bcbf-460e-9a85-4103ae42063a.png",
        "entry": 316997,
        "entry_name": "Chrupek C.F.",
        "event_total": 80,
        "has_played": true,
        "id": 2124772,
        "last_rank": 7822,
        "player_name": "Maciej Kozi\u0144ski",
        "rank": 3019,
        "rank_sort": 3021,
        "total": 2426
      },
      {
        "club_badge_src": null,
        "entry": 859688,
        "entry_name": "Ekruor",
        "event_total": 59,
        "has_played": true,
        "id": 5893205,
        "last_rank": 3035,
        "player_name": "Rourke taylor",
        "rank": 3019,
        "rank_sort": 3022,
        "total": 2426
      },
      {
        "club_badge_src": null,
        "entry": 1839730,
        "entry_name": "Murillo Madrid",
        "event_total": 50,
        "has_played": true,
        "id": 12943102,
        "last_rank": 1563,
        "player_name": "Richard Payne",
        "rank": 3019,
        "rank_sort": 3023,
        "total": 2426
      },
      {
        "club_badge_src": null,
        "entry": 3518788,
        "entry_name": "Morgan snifs-wite",
        "event_total": 69,
        "has_played": true,
        "id": 26185955,
        "last_rank": 4866,
        "player_name": "Sam Hampton",
        "rank": 3019,
        "rank_sort": 3024,
        "total": 2426
      },
      {
        "club_badge_src": "https://fantasy.premierleague.com/gcs/plfpl-production-adobe-approved/plfpl-production/5877539/29e0a1e8-9039-47d5-839d-817229cbb14a.png",
        "entry": 5877539,
        "entry_name": "Miyu FC",
        "event_total": 64,
        "has_played": true,
        "id": 46167029,
        "last_rank": 3813,
        "player_name": "Sheng Siong",
        "rank": 3019,
        "rank_sort": 3025,
        "total": 2426
      },
      {
        "club_badge_src": null,
        "entry": 6384812,
        "entry_name": "CelosFC",
        "event_total": 67,
        "has_played": true,
        "id": 50784976,
        "last_rank": 3627,
        "player_name": "Gon\u00e7alo Vasconcelos",
        "rank": 3019,
        "rank_sort": 3026,
        "total": 2426
      },
      {
        "club_badge_src": null,
        "entry": 6398865,
        "entry_name": "\u00c1str\u00ed\u00f0u Krossfer\u00f0",
        "event_total": 63,
        "has_played": true,
        "id": 50909787,
        "last_rank": 3026,
        "player_name": "Kari Thor Birgisson",
        "rank": 3019,
        "rank_sort": 3027,
        "total": 2426
      },
      {
        "club_badge_src": null,
        "entry": 6474614,
        "entry_name": "The mask of Porro",
        "event_total": 54,
        "has_played": true,
        "id": 51593067,
        "last_rank": 1551,
        "player_name": "Anthony Tribe",
        "rank": 3019,
        "rank_sort": 3028,
        "total": 2426
      },
      {
        "club_badge_src": null,
        "entry": 6555783,
        "entry_name": "Delden To Glory",
        "event_total": 61,
        "has_played": true,
        "id": 52318530,
        "last_rank": 3331,
        "player_name": "Sem Koop",
        "rank": 3019,
        "rank_sort": 3029,
        "total": 2426
      },
      {
        "club_badge_src": "https://fantasy.premierleague.com/gcs/plfpl-production-adobe-approved/plfpl-production/128522/b652101b-89e9-485c-b01d-da4da1159240.png",
        "entry": 128522,
        "entry_name": "Teamjus",
        "event_total": 45,
        "has_played": true,
        "id": 837763,
        "last_rank": 1491,
        "player_name": "Robert Haarstad",
        "rank": 3030,
        "rank_sort": 3030,
        "total": 2426
      },
      {
        "club_badge_src": null,
        "entry": 414261,
        "entry_name": "Secret life of PEP",
        "event_total": 66,
        "has_played": true,
        "id": 2777240,
        "last_rank": 4223,
        "player_name": "Mshari B.K.M",
        "rank": 3030,
        "rank_sort": 3031,
        "total": 2426
      },
      {
        "club_badge_src": null,
        "entry": 838225,
        "entry_name": "ice cole goals",
        "event_total": 69,
        "has_played": true,
        "id": 5742807,
        "last_rank": 4880,
        "player_name": "Abraham Mansoor",
        "rank": 3030,
        "rank_sort": 3032,
        "total": 2426
      },
      {
        "club_badge_src": null,
        "entry": 2604427,
        "entry_name": "Kaffe Bailey",
        "event_total": 66,
        "has_played": true,
        "id": 18707762,
        "last_rank": 3473,
        "player_name": "Sebastian Nor Olsen",
        "rank": 3030,
        "rank_sort": 3033,
        "total": 2426
      },
      {
        "club_badge_src": "https://fantasy.premierleague.com/gcs/plfpl-production-adobe-approved/plfpl-production/8532009/de0b2283-e680-4df3-891b-26e33a55e60d.png",
        "entry": 8532009,
        "entry_name": "Lances rig",
        "event_total": 73,
        "has_played": true,
        "id": 70946210,
        "last_rank": 5845,
        "player_name": "Vincent Holden",
        "rank": 3030,
        "rank_sort": 3034,
        "total": 2426
      },
      {
        "club_badge_src": null,
        "entry": 1430735,
        "entry_name": "Gabagool",
        "event_total": 66,
        "has_played": true,
        "id": 9969487,
        "last_rank": 3482,
        "player_name": "Anders Broderstad",
        "rank": 3035,
        "rank_sort": 3035,
        "total": 2426
      },
      {
        "club_badge_src": null,
        "entry": 6682579,
        "entry_name": "Gazza's Glory Boys",
        "event_total": 57,
        "has_played": true,
        "id": 53455025,
        "last_rank": 2254,
        "player_name": "Gary Walker",
        "rank": 3035,
        "rank_sort": 3036,
        "total": 2426
      },
      {
        "club_badge_src": null,
        "entry": 2312972,
        "entry_name": "Tigers l\u00e4rljungar",
        "event_total": 77,
        "has_played": true,
        "id": 16499156,
        "last_rank": 5845,
        "player_name": "Rasmus Lindquist",
        "rank": 3037,
        "rank_sort": 3037,
        "total": 2426
      },
      {
        "club_badge_src": "https://fantasy.premierleague.com/gcs/plfpl-production-adobe-approved/plfpl-production/2398280/97765642-32fc-4370-9350-dda3ece864ea.png",
        "entry": 2398280,
        "entry_name": "KFC",
        "event_total": 60,
        "has_played": true,
        "id": 17135195,
        "last_rank": 2620,
        "player_name": "Karan Kumar",
        "rank": 3037,
        "rank_sort": 3038,
        "total": 2426
      },
      {
        "club_badge_src": null,
        "entry": 110092,
        "entry_name": "Charli xGx",
        "event_total": 54,
        "has_played": true,
        "id": 717935,
        "last_rank": 2384,
        "player_name": "Nathan Strover",
        "rank": 3039,
        "rank_sort": 3039,
        "total": 2426
      },
      {
        "club_badge_src": "https://fantasy.premierleague.com/gcs/plfpl-production-adobe-approved/plfpl-production/644191/b4ec25ee-57cb-4b25-9751-2a77a46ecc09.png",
        "entry": 644191,
        "entry_name": "Leaky Diapers",
        "event_total": 51,
        "has_played": true,
        "id": 4353493,
        "last_rank": 2054,
        "player_name": "Martin Croft",
        "rank": 3039,
        "rank_sort": 3040,
        "total": 2426
      },
      {
        "club_badge_src": null,
        "entry": 4754717,
        "entry_name": "\u0639\u0633\u064a\u0644\u0629 \u0627\u0644\u0645\u063a\u0648\u0627\u0631",
        "event_total": 67,
        "has_played": true,
        "id": 36588763,
        "last_rank": 3670,
        "player_name": "Sifou Derouaz",
        "rank": 3039,
        "rank_sort": 3041,
        "total": 2426
      },
      {
        "club_badge_src": null,
        "entry": 200147,
        "entry_name": "Patate Dolci",
        "event_total": 74,
        "has_played": true,
        "id": 1328548,
        "last_rank": 5115,
        "player_name": "Balikis Abale",
        "rank": 3042,
        "rank_sort": 3042,
        "total": 2426
      },
      {
        "club_badge_src": null,
        "entry": 252956,
        "entry_name": "Luma United",
        "event_total": 59,
        "has_played": true,
        "id": 1682466,
        "last_rank": 2057,
        "player_name": "Dragan Stanacev",
        "rank": 3043,
        "rank_sort": 3043,
        "total": 2426
      },
      {
        "club_badge_src": null,
        "entry": 5458894,
        "entry_name": "Cancelo Culture",
        "event_total": 62,
        "has_played": true,
        "id": 42482439,
        "last_rank": 2934,
        "player_name": "Zewelanji Sinyinza",
        "rank": 3043,
        "rank_sort": 3044,
        "total": 2426
      },
      {
        "club_badge_src": null,
        "entry": 479551,
        "entry_name": "McNeil Deal",
        "event_total": 58,
        "has_played": true,
        "id": 3219347,
        "last_rank": 2935,
        "player_name": "Daniel Kelly",
        "rank": 3045,
        "rank_sort": 3045,
        "total": 2426
      },
      {
        "club_badge_src": null,
        "entry": 2260558,
        "entry_name": "Norty Horty FC",
        "event_total": 71,
        "has_played": true,
        "id": 16116668,
        "last_rank": 4460,
        "player_name": "Martin Hort",
        "rank": 3045,
        "rank_sort": 3046,
        "total": 2426
      },
      {
        "club_badge_src": null,
        "entry": 6273372,
        "entry_name": "Murdoch FC",
        "event_total": 80,
        "has_played": true,
        "id": 49676994,
        "last_rank": 7942,
        "player_name": "Euan Murdoch",
        "rank": 3047,
        "rank_sort": 3047,
        "total": 2425
      },
      {
        "club_badge_src": null,
        "entry": 755442,
        "entry_name": "Delph & Safety",
        "event_total": 73,
        "has_played": true,
        "id": 5143031,
        "last_rank": 5884,
        "player_name": "Joe Bailey",
        "rank": 3048,
        "rank_sort": 3048,
        "total": 2425
      },
      {
        "club_badge_src": null,
        "entry": 5354029,
        "entry_name": "JAY FC",
        "event_total": 42,
        "has_played": true,
        "id": 41569005,
        "last_rank": 1288,
        "player_name": "Jahangir Ali",
        "rank": 3049,
        "rank_sort": 3049,
        "total": 2425
      },
      {
        "club_badge_src": null,
        "entry": 97352,
        "entry_name": "Bread 'n' Catchit",
        "event_total": 54,
        "has_played": true,
        "id": 635848,
        "last_rank": 2396,
        "player_name": "Cian Marriott",
        "rank": 3050,
        "rank_sort": 3050,
        "total": 2425
      }
    ]
  }
}