{
  "last_updated_data": "2026-05-24T23:28:17Z",
  "league": {
    "admin_entry": null,
    "closed": false,
    "code_privacy": "p",
    "created": "2025-07-20T23:14:33.933835Z",
    "cup_league": 2815434,
    "has_cup": true,
    "id": 314,
    "league_type": "s",
    "max_entries": null,
    "name": "Overall",
    "rank": null,
    "scoring": "c",
    "start_event": 1
  },
  "new_entries": {
    "has_next": false,
    "page": 1,
    "results": []
  },
  "standings": {
    "has_next": true,
    "page": 410,
    "results": [
      {
        "club_badge_src": null,
        "entry": 1376834,
        "entry_name": "Jayden Fc",
        "event_total": 80,
        "has_played": true,
        "id": 9570796,
        "last_rank": 38391,
        "player_name": "Jayden Khan",
        "rank": 20440,
        "rank_sort": 20451,
        "total": 2380
      },
      {
        "club_badge_src": null,
        "entry": 1665290,
        "entry_name": "youssef obama",
        "event_total": 61,
        "has_played": true,
        "id": 11659294,
        "last_rank": 23089,
        "player_name": "Youssef Mohamed",
        "rank": 20440,
        "rank_sort": 20452,
        "total": 2380
      },
      {
        "club_badge_src": null,
        "entry": 1863992,
        "entry_name": "FPLGavalar",
        "event_total": 67,
        "has_played": true,
        "id": 13119809,
        "last_rank": 24713,
        "player_name": "Gavin Starns",
        "rank": 20440,
        "rank_sort": 20453,
        "total": 2380
      },
      {
        "club_badge_src": null,
        "entry": 2157013,
        "entry_name": "Ahmed Nasef",
        "event_total": 59,
        "has_played": true,
        "id": 15333245,
        "last_rank": 21510,
        "player_name": "Ahmed nasef",
        "rank": 20440,
        "rank_sort": 20454,
        "total": 2380
      },
      {
        "club_badge_src": null,
        "entry": 6261142,
        "entry_name": "AfterburnFC",
        "event_total": 70,
        "has_played": true,
        "id": 49571977,
        "last_rank": 31437,
        "player_name": "Ole Kristian Fossum",
        "rank": 20440,
        "rank_sort": 20455,
        "total": 2380
      },
      {
        "club_badge_src": null,
        "entry": 7412467,
        "entry_name": "Snapussontheloose fc",
        "event_total": 55,
        "has_played": true,
        "id": 60149219,
        "last_rank": 18592,
        "player_name": "Guy Flax",
        "rank": 20440,
        "rank_sort": 20456,
        "total": 2380
      },
      {
        "club_badge_src": "https://fantasy.premierleague.com/gcs/plfpl-production-adobe-approved/plfpl-production/1264/edad79e5-ff15-44d0-8836-f206bf99ff8d.png",
        "entry": 1264,
        "entry_name": "Cold as rice",
        "event_total": 52,
        "has_played": true,
        "id": 7024,
        "last_rank": 16639,
        "player_name": "Josh Smith",
        "rank": 20457,
        "rank_sort": 20457,
        "total": 2380
      },
      {
        "club_badge_src": null,
        "entry": 180548,
        "entry_name": "Winterfell FC",
        "event_total": 65,
        "has_played": true,
        "id": 1191475,
        "last_rank": 23089,
        "player_name": "hakan gulec",
        "rank": 20457,
        "rank_sort": 20458,
        "total": 2380
      },
      {
        "club_badge_src": "https://fantasy.premierleague.com/gcs/plfpl-production-adobe-approved/plfpl-production/394733/4951f662-ad98-4e7a-80d2-1715a49fd414.png",
        "entry": 394733,
        "entry_name": "Ahmed.mostafa",
        "event_total": 57,
        "has_played": true,
        "id": 2647230,
        "last_rank": 20065,
        "player_name": "AHMED .MO",
        "rank": 20457,
        "rank_sort": 20459,
        "total": 2380
      },
      {
        "club_badge_src": null,
        "entry": 463935,
        "entry_name": "abdo elnhas",
        "event_total": 60,
        "has_played": true,
        "id": 3111903,
        "last_rank": 19318,
        "player_name": "Abdo Elnahas",
        "rank": 20457,
        "rank_sort": 20460,
        "total": 2380
      },
      {
        "club_badge_src": null,
        "entry": 832230,
        "entry_name": "Bowen 747",
        "event_total": 57,
        "has_played": true,
        "id": 5700329,
        "last_rank": 20065,
        "player_name": "Jonah Duffy",
        "rank": 20457,
        "rank_sort": 20461,
        "total": 2380
      },
      {
        "club_badge_src": "https://fantasy.premierleague.com/gcs/plfpl-production-adobe-approved/plfpl-production/919139/159a0350-30b4-4254-a106-bce2364196b2.png",
        "entry": 919139,
        "entry_name": "Dawe37",
        "event_total": 63,
        "has_played": true,
        "id": 6320827,
        "last_rank": 24757,
        "player_name": "David Tom\u010d\u00edk",
        "rank": 20457,
        "rank_sort": 20462,
        "total": 2380
      },
      {
        "club_badge_src": null,
        "entry": 1552921,
        "entry_name": "Wirtz Case Scenario",
        "event_total": 63,
        "has_played": true,
        "id": 10842851,
        "last_rank": 21530,
        "player_name": "Raasib Mahmood",
        "rank": 20457,
        "rank_sort": 20463,
        "total": 2380
      },
      {
        "club_badge_src": null,
        "entry": 4416935,
        "entry_name": "Mo salah",
        "event_total": 40,
        "has_played": true,
        "id": 33603616,
        "last_rank": 10230,
        "player_name": "Ahmed Dawood",
        "rank": 20457,
        "rank_sort": 20464,
        "total": 2380
      },
      {
        "club_badge_src": null,
        "entry": 5748870,
        "entry_name": "z GOAT dynasty",
        "event_total": 67,
        "has_played": true,
        "id": 45056688,
        "last_rank": 21510,
        "player_name": "Sateesh -Fpl Sat-",
        "rank": 20457,
        "rank_sort": 20465,
        "total": 2380
      },
      {
        "club_badge_src": "https://fantasy.premierleague.com/gcs/plfpl-production-adobe-approved/plfpl-production/6048143/1cfc9ad9-9468-41a2-a5e4-059b041ec5ff.png",
        "entry": 6048143,
        "entry_name": "maccabi liverpool",
        "event_total": 63,
        "has_played": true,
        "id": 47723435,
        "last_rank": 24735,
        "player_name": "Fadi Kiwan",
        "rank": 20457,
        "rank_sort": 20466,
        "total": 2380
      },
      {
        "club_badge_src": null,
        "entry": 6793602,
        "entry_name": "Stranger Mings",
        "event_total": 50,
        "has_played": true,
        "id": 54403872,
        "last_rank": 13084,
        "player_name": "chris Brophy",
        "rank": 20457,
        "rank_sort": 20467,
        "total": 2380
      },
      {
        "club_badge_src": null,
        "entry": 7105514,
        "entry_name": "Hoodless 11",
        "event_total": 54,
        "has_played": true,
        "id": 57228521,
        "last_rank": 17918,
        "player_name": "Archie Love",
        "rank": 20457,
        "rank_sort": 20468,
        "total": 2380
      },
      {
        "club_badge_src": null,
        "entry": 7198276,
        "entry_name": "Pennypackers",
        "event_total": 57,
        "has_played": true,
        "id": 58116183,
        "last_rank": 20065,
        "player_name": "Mads Hansen",
        "rank": 20457,
        "rank_sort": 20469,
        "total": 2380
      },
      {
        "club_badge_src": null,
        "entry": 325965,
        "entry_name": "Emirates to Emirates",
        "event_total": 72,
        "has_played": true,
        "id": 2184075,
        "last_rank": 25613,
        "player_name": "James Grimwood",
        "rank": 20470,
        "rank_sort": 20470,
        "total": 2380
      },
      {
        "club_badge_src": null,
        "entry": 1764299,
        "entry_name": "B E A Utiful",
        "event_total": 58,
        "has_played": true,
        "id": 12390314,
        "last_rank": 15336,
        "player_name": "Steven Culley",
        "rank": 20470,
        "rank_sort": 20471,
        "total": 2380
      },
      {
        "club_badge_src": "https://fantasy.premierleague.com/gcs/plfpl-production-adobe-approved/plfpl-production/2193756/fb99c62a-fad3-4f1d-94e6-bd860cb09ca3.png",
        "entry": 2193756,
        "entry_name": "B' Jesus Said Paddy",
        "event_total": 60,
        "has_played": true,
        "id": 15608546,
        "last_rank": 19318,
        "player_name": "Ian Major",
        "rank": 20470,
        "rank_sort": 20472,
        "total": 2380
      },
      {
        "club_badge_src": null,
        "entry": 29517,
        "entry_name": "Cuccarellaeatspaella",
        "event_total": 62,
        "has_played": true,
        "id": 186669,
        "last_rank": 20782,
        "player_name": "Ian McFarland",
        "rank": 20473,
        "rank_sort": 20473,
        "total": 2380
      },
      {
        "club_badge_src": null,
        "entry": 275263,
        "entry_name": "Balerion",
        "event_total": 67,
        "has_played": true,
        "id": 1831894,
        "last_rank": 28480,
        "player_name": "Jayan S",
        "rank": 20473,
        "rank_sort": 20474,
        "total": 2380
      },
      {
        "club_badge_src": null,
        "entry": 478674,
        "entry_name": "Fc twentie benson",
        "event_total": 64,
        "has_played": true,
        "id": 3213449,
        "last_rank": 25653,
        "player_name": "Ken Dunphy",
        "rank": 20473,
        "rank_sort": 20475,
        "total": 2380
      },
      {
        "club_badge_src": null,
        "entry": 780999,
        "entry_name": "Rutter Woke Nonsense",
        "event_total": 41,
        "has_played": true,
        "id": 5332065,
        "last_rank": 10693,
        "player_name": "Leon Black",
        "rank": 20473,
        "rank_sort": 20476,
        "total": 2380
      },
      {
        "club_badge_src": "https://fantasy.premierleague.com/gcs/plfpl-production-adobe-approved/plfpl-production/784733/171b376a-db61-4a02-afb5-6320a640646f.png",
        "entry": 784733,
        "entry_name": "labubu",
        "event_total": 65,
        "has_played": true,
        "id": 5361155,
        "last_rank": 23110,
        "player_name": "Adam AL",
        "rank": 20473,
        "rank_sort": 20477,
        "total": 2380
      },
      {
        "club_badge_src": null,
        "entry": 2333458,
        "entry_name": "Prime Killlers CFC",
        "event_total": 66,
        "has_played": true,
        "id": 16649407,
        "last_rank": 27499,
        "player_name": "Saoud Alotaibi",
        "rank": 20473,
        "rank_sort": 20478,
        "total": 2380
      },
      {
        "club_badge_src": null,
        "entry": 5908232,
        "entry_name": "kauza fc",
        "event_total": 58,
        "has_played": true,
        "id": 46426579,
        "last_rank": 20790,
        "player_name": "obinna madueke",
        "rank": 20473,
        "rank_sort": 20479,
        "total": 2380
      },
      {
        "club_badge_src": null,
        "entry": 7845201,
        "entry_name": "Fc Barald",
        "event_total": 60,
        "has_played": true,
        "id": 64487462,
        "last_rank": 19332,
        "player_name": "Jogvan Jacobsen",
        "rank": 20473,
        "rank_sort": 20480,
        "total": 2380
      },
      {
        "club_badge_src": null,
        "entry": 233179,
        "entry_name": "115 Charges FC",
        "event_total": 40,
        "has_played": true,
        "id": 1551439,
        "last_rank": 10235,
        "player_name": "Per Magnus Lervik",
        "rank": 20481,
        "rank_sort": 20481,
        "total": 2380
      },
      {
        "club_badge_src": null,
        "entry": 4054474,
        "entry_name": "crush on you",
        "event_total": 58,
        "has_played": true,
        "id": 30591174,
        "last_rank": 17930,
        "player_name": "Kenneth Tjessem",
        "rank": 20481,
        "rank_sort": 20482,
        "total": 2380
      },
      {
        "club_badge_src": null,
        "entry": 2103961,
        "entry_name": "Coppers Trotters",
        "event_total": 46,
        "has_played": true,
        "id": 14930681,
        "last_rank": 13113,
        "player_name": "Nicola Fricker",
        "rank": 20483,
        "rank_sort": 20483,
        "total": 2380
      },
      {
        "club_badge_src": null,
        "entry": 2437277,
        "entry_name": "Messi 10",
        "event_total": 62,
        "has_played": true,
        "id": 17429653,
        "last_rank": 17930,
        "player_name": "Fares Ezzat",
        "rank": 20483,
        "rank_sort": 20484,
        "total": 2380
      },
      {
        "club_badge_src": null,
        "entry": 6909361,
        "entry_name": "sbaat",
        "event_total": 72,
        "has_played": true,
        "id": 55382662,
        "last_rank": 33782,
        "player_name": "Hichem Benmouffok",
        "rank": 20483,
        "rank_sort": 20485,
        "total": 2380
      },
      {
        "club_badge_src": null,
        "entry": 601595,
        "entry_name": "One Step Beyond",
        "event_total": 50,
        "has_played": true,
        "id": 4059461,
        "last_rank": 13101,
        "player_name": "Nikola Spasi\u0107",
        "rank": 20486,
        "rank_sort": 20486,
        "total": 2380
      },
      {
        "club_badge_src": null,
        "entry": 1135025,
        "entry_name": "Bowen747",
        "event_total": 60,
        "has_played": true,
        "id": 7867742,
        "last_rank": 22347,
        "player_name": "Dan McGahey",
        "rank": 20486,
        "rank_sort": 20487,
        "total": 2380
      },
      {
        "club_badge_src": null,
        "entry": 8155126,
        "entry_name": "Larrys Leisure",
        "event_total": 74,
        "has_played": true,
        "id": 67316446,
        "last_rank": 31484,
        "player_name": "lauri lailavuo",
        "rank": 20486,
        "rank_sort": 20488,
        "total": 2380
      },
      {
        "club_badge_src": null,
        "entry": 360877,
        "entry_name": "Cunha fit it inside",
        "event_total": 68,
        "has_played": true,
        "id": 2414761,
        "last_rank": 16652,
        "player_name": "James Kennan",
        "rank": 20489,
        "rank_sort": 20489,
        "total": 2380
      },
      {
        "club_badge_src": null,
        "entry": 1548325,
        "entry_name": "GomoManU",
        "event_total": 76,
        "has_played": true,
        "id": 10810089,
        "last_rank": 33795,
        "player_name": "Shahmi Musni",
        "rank": 20489,
        "rank_sort": 20490,
        "total": 2380
      },
      {
        "club_badge_src": null,
        "entry": 4654475,
        "entry_name": "Tarky's Hard Tackle",
        "event_total": 47,
        "has_played": true,
        "id": 35617981,
        "last_rank": 9831,
        "player_name": "Gareth Ratcliffe",
        "rank": 20491,
        "rank_sort": 20491,
        "total": 2380
      },
      {
        "club_badge_src": null,
        "entry": 6663131,
        "entry_name": "Devine09",
        "event_total": 58,
        "has_played": true,
        "id": 53285594,
        "last_rank": 17944,
        "player_name": "Ryan Devine",
        "rank": 20491,
        "rank_sort": 20492,
        "total": 2380
      },
      {
        "club_badge_src": null,
        "entry": 8785788,
        "entry_name": "pacosarmy",
        "event_total": 63,
        "has_played": true,
        "id": 73407416,
        "last_rank": 24799,
        "player_name": "Baptiste Bourgeois",
        "rank": 20493,
        "rank_sort": 20493,
        "total": 2380
      },
      {
        "club_badge_src": null,
        "entry": 815139,
        "entry_name": "Bijol And End All",
        "event_total": 60,
        "has_played": true,
        "id": 5581884,
        "last_rank": 22353,
        "player_name": "Liam oldcorn",
        "rank": 20494,
        "rank_sort": 20494,
        "total": 2380
      },
      {
        "club_badge_src": "https://fantasy.premierleague.com/gcs/plfpl-production-adobe-approved/plfpl-production/2598578/515e603e-69d8-4da2-b78c-8b6d15ec9457.png",
        "entry": 2598578,
        "entry_name": "PoltergeistX",
        "event_total": 68,
        "has_played": true,
        "id": 18662110,
        "last_rank": 29463,
        "player_name": "Nicholas Lau",
        "rank": 20494,
        "rank_sort": 20495,
        "total": 2380
      },
      {
        "club_badge_src": null,
        "entry": 3378845,
        "entry_name": "YAGI",
        "event_total": 59,
        "has_played": true,
        "id": 25079960,
        "last_rank": 21583,
        "player_name": "Mr YAGI",
        "rank": 20496,
        "rank_sort": 20496,
        "total": 2380
      },
      {
        "club_badge_src": null,
        "entry": 4913266,
        "entry_name": "Last Again",
        "event_total": 62,
        "has_played": true,
        "id": 37891284,
        "last_rank": 23955,
        "player_name": "Ron Kitching",
        "rank": 20497,
        "rank_sort": 20497,
        "total": 2379
      },
      {
        "club_badge_src": null,
        "entry": 1581714,
        "entry_name": "PUPA HUNTERS",
        "event_total": 80,
        "has_played": true,
        "id": 11053310,
        "last_rank": 43731,
        "player_name": "Nishant Parmar",
        "rank": 20498,
        "rank_sort": 20498,
        "total": 2379
      },
      {
        "club_badge_src": null,
        "entry": 2077759,
        "entry_name": "Tintern Trojans",
        "event_total": 55,
        "has_played": true,
        "id": 14731938,
        "last_rank": 18628,
        "player_name": "Ian Bass",
        "rank": 20498,
        "rank_sort": 20499,
        "total": 2379
      },
      {
        "club_badge_src": null,
        "entry": 8944279,
        "entry_name": "Inter Row Z",
        "event_total": 58,
        "has_played": true,
        "id": 74943141,
        "last_rank": 20809,
        "player_name": "Kieran OBrien",
        "rank": 20498,
        "rank_sort": 20500,
        "total": 2379
      }
    ]
  }
}