{
  "last_updated_data": "2026-05-24T23:28:17Z",
  "league": {
    "admin_entry": null,
    "closed": false,
    "code_privacy": "p",
    "created": "2025-07-20T23:14:33.933835Z",
    "cup_league": 2815434,
    "has_cup": true,
    "id": 314,
    "league_type": "s",
    "max_entries": null,
    "name": "Overall",
    "rank": null,
    "scoring": "c",
    "start_event": 1
  },
  "new_entries": {
    "has_next": false,
    "page": 1,
    "results": []
  },
  "standings": {
    "has_next": true,
    "page": 1394,
    "results": [
      {
        "club_badge_src": null,
        "entry": 2523647,
        "entry_name": "Wirtz Case Scenario",
        "event_total": 41,
        "has_played": true,
        "id": 18083021,
        "last_rank": 44048,
        "player_name": "Jordan Hennessy",
        "rank": 69596,
        "rank_sort": 69651,
        "total": 2340
      },
      {
        "club_badge_src": "https://fantasy.premierleague.com/gcs/plfpl-production-adobe-approved/plfpl-production/2760429/933e635b-05ed-47ad-b95c-0f4cc569d4ab.png",
        "entry": 2760429,
        "entry_name": "Dream Team",
        "event_total": 53,
        "has_played": true,
        "id": 20138018,
        "last_rank": 63390,
        "player_name": "Ricardo Torres",
        "rank": 69596,
        "rank_sort": 69652,
        "total": 2340
      },
      {
        "club_badge_src": null,
        "entry": 2781056,
        "entry_name": "Wirtz Case Scenario",
        "event_total": 60,
        "has_played": true,
        "id": 20299734,
        "last_rank": 68624,
        "player_name": "Doug S",
        "rank": 69596,
        "rank_sort": 69653,
        "total": 2340
      },
      {
        "club_badge_src": null,
        "entry": 3005245,
        "entry_name": "Wirtz nightmare",
        "event_total": 62,
        "has_played": true,
        "id": 22105878,
        "last_rank": 81646,
        "player_name": "Chris Young",
        "rank": 69596,
        "rank_sort": 69654,
        "total": 2340
      },
      {
        "club_badge_src": null,
        "entry": 3111192,
        "entry_name": "HK United",
        "event_total": 67,
        "has_played": true,
        "id": 22958573,
        "last_rank": 93052,
        "player_name": "Chris Yeung",
        "rank": 69596,
        "rank_sort": 69655,
        "total": 2340
      },
      {
        "club_badge_src": null,
        "entry": 3136205,
        "entry_name": "Rubber Digne Rapids",
        "event_total": 60,
        "has_played": true,
        "id": 23150711,
        "last_rank": 77258,
        "player_name": "Liam Bond",
        "rank": 69596,
        "rank_sort": 69656,
        "total": 2340
      },
      {
        "club_badge_src": null,
        "entry": 3152276,
        "entry_name": "Haps Chaps",
        "event_total": 62,
        "has_played": true,
        "id": 23280122,
        "last_rank": 81244,
        "player_name": "Hen King",
        "rank": 69596,
        "rank_sort": 69657,
        "total": 2340
      },
      {
        "club_badge_src": null,
        "entry": 3184026,
        "entry_name": "Had One Tchouameni",
        "event_total": 45,
        "has_played": true,
        "id": 23529408,
        "last_rank": 49691,
        "player_name": "Sam Bagshaw",
        "rank": 69596,
        "rank_sort": 69658,
        "total": 2340
      },
      {
        "club_badge_src": null,
        "entry": 3324657,
        "entry_name": "loneRanger77",
        "event_total": 59,
        "has_played": true,
        "id": 24647387,
        "last_rank": 75139,
        "player_name": "Mohd Nizam",
        "rank": 69596,
        "rank_sort": 69659,
        "total": 2340
      },
      {
        "club_badge_src": "https://fantasy.premierleague.com/gcs/plfpl-production-adobe-approved/plfpl-production/3521444/2aee8924-9dfa-4ec9-9450-7e57f405c9b2.png",
        "entry": 3521444,
        "entry_name": "Sunny DeLigt",
        "event_total": 54,
        "has_played": true,
        "id": 26206622,
        "last_rank": 64943,
        "player_name": "Mig Cardamone",
        "rank": 69596,
        "rank_sort": 69660,
        "total": 2340
      },
      {
        "club_badge_src": null,
        "entry": 3553418,
        "entry_name": "Falconer Flight FC",
        "event_total": 43,
        "has_played": true,
        "id": 26454925,
        "last_rank": 46591,
        "player_name": "Martyn Falconer",
        "rank": 69596,
        "rank_sort": 69661,
        "total": 2340
      },
      {
        "club_badge_src": null,
        "entry": 3683931,
        "entry_name": "Gy\u00f6ken FC",
        "event_total": 54,
        "has_played": true,
        "id": 27480698,
        "last_rank": 64830,
        "player_name": "Joel Johansson",
        "rank": 69596,
        "rank_sort": 69662,
        "total": 2340
      },
      {
        "club_badge_src": null,
        "entry": 3818783,
        "entry_name": "S Club 11",
        "event_total": 60,
        "has_played": true,
        "id": 28559624,
        "last_rank": 77258,
        "player_name": "Sam Rowell",
        "rank": 69596,
        "rank_sort": 69663,
        "total": 2340
      },
      {
        "club_badge_src": null,
        "entry": 3855390,
        "entry_name": "PoomWick",
        "event_total": 67,
        "has_played": true,
        "id": 28903245,
        "last_rank": 93052,
        "player_name": "Sorawit Soonthornsubkul",
        "rank": 69596,
        "rank_sort": 69664,
        "total": 2340
      },
      {
        "club_badge_src": null,
        "entry": 4202333,
        "entry_name": "Bratwirtz",
        "event_total": 62,
        "has_played": true,
        "id": 31811254,
        "last_rank": 81420,
        "player_name": "Magnus Sj\u00f6strand",
        "rank": 69596,
        "rank_sort": 69665,
        "total": 2340
      },
      {
        "club_badge_src": null,
        "entry": 4320726,
        "entry_name": "KyloFC",
        "event_total": 60,
        "has_played": true,
        "id": 32790384,
        "last_rank": 77050,
        "player_name": "Kingsley Okiyi",
        "rank": 69596,
        "rank_sort": 69666,
        "total": 2340
      },
      {
        "club_badge_src": null,
        "entry": 4329958,
        "entry_name": "ChelseaChampions",
        "event_total": 43,
        "has_played": true,
        "id": 32866571,
        "last_rank": 46839,
        "player_name": "Bob Mckern",
        "rank": 69596,
        "rank_sort": 69667,
        "total": 2340
      },
      {
        "club_badge_src": null,
        "entry": 4362193,
        "entry_name": "SakaStarBoy",
        "event_total": 58,
        "has_played": true,
        "id": 33132451,
        "last_rank": 73038,
        "player_name": "Rohan Dosaj",
        "rank": 69596,
        "rank_sort": 69668,
        "total": 2340
      },
      {
        "club_badge_src": null,
        "entry": 4432306,
        "entry_name": "Moh Alenezi",
        "event_total": 37,
        "has_played": true,
        "id": 33744951,
        "last_rank": 38774,
        "player_name": "Mohammad Alenezi",
        "rank": 69596,
        "rank_sort": 69669,
        "total": 2340
      },
      {
        "club_badge_src": null,
        "entry": 4709889,
        "entry_name": "Nambar 1",
        "event_total": 64,
        "has_played": true,
        "id": 36130309,
        "last_rank": 86054,
        "player_name": "Wael Ballouk",
        "rank": 69596,
        "rank_sort": 69670,
        "total": 2340
      },
      {
        "club_badge_src": null,
        "entry": 4850688,
        "entry_name": "Wacko14",
        "event_total": 58,
        "has_played": true,
        "id": 37372624,
        "last_rank": 73038,
        "player_name": "Nick Jackson",
        "rank": 69596,
        "rank_sort": 69671,
        "total": 2340
      },
      {
        "club_badge_src": null,
        "entry": 4864178,
        "entry_name": "EnterSquadIGJEN",
        "event_total": 33,
        "has_played": true,
        "id": 37487056,
        "last_rank": 34051,
        "player_name": "Magnus Barstad",
        "rank": 69596,
        "rank_sort": 69672,
        "total": 2340
      },
      {
        "club_badge_src": null,
        "entry": 4904653,
        "entry_name": "Net Six and Chill",
        "event_total": 46,
        "has_played": true,
        "id": 37821962,
        "last_rank": 51220,
        "player_name": "Nathan Corley",
        "rank": 69596,
        "rank_sort": 69673,
        "total": 2340
      },
      {
        "club_badge_src": null,
        "entry": 5058729,
        "entry_name": "Gueye for Jarrad",
        "event_total": 65,
        "has_played": true,
        "id": 39089123,
        "last_rank": 88594,
        "player_name": "Daniel Walker",
        "rank": 69596,
        "rank_sort": 69674,
        "total": 2340
      },
      {
        "club_badge_src": null,
        "entry": 5129519,
        "entry_name": "Wingers and a Prayer",
        "event_total": 54,
        "has_played": true,
        "id": 39670013,
        "last_rank": 64943,
        "player_name": "Paul Routledge",
        "rank": 69596,
        "rank_sort": 69675,
        "total": 2340
      },
      {
        "club_badge_src": "https://fantasy.premierleague.com/gcs/plfpl-production-adobe-approved/plfpl-production/5312988/fd940858-bede-48f9-9227-28ddc0c3d411.png",
        "entry": 5312988,
        "entry_name": "pusb",
        "event_total": 56,
        "has_played": true,
        "id": 41184013,
        "last_rank": 68624,
        "player_name": "Liam Penavega",
        "rank": 69596,
        "rank_sort": 69676,
        "total": 2340
      },
      {
        "club_badge_src": null,
        "entry": 5319009,
        "entry_name": "Hotel Calafiori",
        "event_total": 49,
        "has_played": true,
        "id": 41232771,
        "last_rank": 56180,
        "player_name": "Leo Carter",
        "rank": 69596,
        "rank_sort": 69677,
        "total": 2340
      },
      {
        "club_badge_src": null,
        "entry": 5528959,
        "entry_name": "EE9",
        "event_total": 68,
        "has_played": true,
        "id": 43125398,
        "last_rank": 95527,
        "player_name": "Edward Ejderhamn",
        "rank": 69596,
        "rank_sort": 69678,
        "total": 2340
      },
      {
        "club_badge_src": null,
        "entry": 5786735,
        "entry_name": "safe as ouses",
        "event_total": 43,
        "has_played": true,
        "id": 45380853,
        "last_rank": 46660,
        "player_name": "Jamie Judge",
        "rank": 69596,
        "rank_sort": 69679,
        "total": 2340
      },
      {
        "club_badge_src": null,
        "entry": 6056642,
        "entry_name": "Cheers Son's Crying",
        "event_total": 69,
        "has_played": true,
        "id": 47796909,
        "last_rank": 98183,
        "player_name": "Callum Gater",
        "rank": 69596,
        "rank_sort": 69680,
        "total": 2340
      },
      {
        "club_badge_src": null,
        "entry": 6193103,
        "entry_name": "FC G\u00f6taberg",
        "event_total": 78,
        "has_played": true,
        "id": 48985968,
        "last_rank": 123120,
        "player_name": "Marie Palmqvist",
        "rank": 69596,
        "rank_sort": 69681,
        "total": 2340
      },
      {
        "club_badge_src": "https://fantasy.premierleague.com/gcs/plfpl-production-adobe-approved/plfpl-production/6253963/0d72bbde-3f3d-4188-9845-2a9f3a508a85.png",
        "entry": 6253963,
        "entry_name": "Placeholder***",
        "event_total": 67,
        "has_played": true,
        "id": 49509196,
        "last_rank": 93186,
        "player_name": "Tim Marlega",
        "rank": 69596,
        "rank_sort": 69682,
        "total": 2340
      },
      {
        "club_badge_src": null,
        "entry": 6281851,
        "entry_name": "SHANGHAI",
        "event_total": 43,
        "has_played": true,
        "id": 49753743,
        "last_rank": 46660,
        "player_name": "Peter Gara",
        "rank": 69596,
        "rank_sort": 69683,
        "total": 2340
      },
      {
        "club_badge_src": null,
        "entry": 6316251,
        "entry_name": "Matz Sels Seashells",
        "event_total": 46,
        "has_played": true,
        "id": 50127771,
        "last_rank": 51220,
        "player_name": "Andy Oskwarek",
        "rank": 69596,
        "rank_sort": 69684,
        "total": 2340
      },
      {
        "club_badge_src": null,
        "entry": 6404914,
        "entry_name": "..and they were boys",
        "event_total": 39,
        "has_played": true,
        "id": 50963057,
        "last_rank": 41324,
        "player_name": "Andi Hunt",
        "rank": 69596,
        "rank_sort": 69685,
        "total": 2340
      },
      {
        "club_badge_src": null,
        "entry": 6503916,
        "entry_name": "Mountain FC",
        "event_total": 71,
        "has_played": true,
        "id": 51856696,
        "last_rank": 103017,
        "player_name": "Alexander Fjeld",
        "rank": 69596,
        "rank_sort": 69686,
        "total": 2340
      },
      {
        "club_badge_src": "https://fantasy.premierleague.com/gcs/plfpl-production-adobe-approved/plfpl-production/6560582/4c479971-1fe6-4d11-b53e-f84472fe4299.png",
        "entry": 6560582,
        "entry_name": "GuessandHope4TheBest",
        "event_total": 44,
        "has_played": true,
        "id": 52361290,
        "last_rank": 48197,
        "player_name": "Amy Parkinson",
        "rank": 69596,
        "rank_sort": 69687,
        "total": 2340
      },
      {
        "club_badge_src": null,
        "entry": 6659981,
        "entry_name": "Adams Alligators",
        "event_total": 56,
        "has_played": true,
        "id": 53255020,
        "last_rank": 68624,
        "player_name": "Adam Gray",
        "rank": 69596,
        "rank_sort": 69688,
        "total": 2340
      },
      {
        "club_badge_src": null,
        "entry": 6733060,
        "entry_name": "The Bijol an End All",
        "event_total": 64,
        "has_played": true,
        "id": 53892752,
        "last_rank": 85932,
        "player_name": "Matthew Daw",
        "rank": 69596,
        "rank_sort": 69689,
        "total": 2340
      },
      {
        "club_badge_src": null,
        "entry": 6741802,
        "entry_name": "the blues",
        "event_total": 61,
        "has_played": true,
        "id": 53966758,
        "last_rank": 70651,
        "player_name": "Abd Albeik",
        "rank": 69596,
        "rank_sort": 69690,
        "total": 2340
      },
      {
        "club_badge_src": null,
        "entry": 6777619,
        "entry_name": "Stardust United",
        "event_total": 74,
        "has_played": true,
        "id": 54270235,
        "last_rank": 111203,
        "player_name": "Ingrid Osmundsen",
        "rank": 69596,
        "rank_sort": 69691,
        "total": 2340
      },
      {
        "club_badge_src": null,
        "entry": 6856544,
        "entry_name": "it's too Eze",
        "event_total": 58,
        "has_played": true,
        "id": 54935261,
        "last_rank": 73038,
        "player_name": "Chris Beattie",
        "rank": 69596,
        "rank_sort": 69692,
        "total": 2340
      },
      {
        "club_badge_src": "https://fantasy.premierleague.com/gcs/plfpl-production-adobe-approved/plfpl-production/7045723/7784dd76-0121-4a19-9fec-24f3ecf3ceb8.png",
        "entry": 7045723,
        "entry_name": "KIB United",
        "event_total": 64,
        "has_played": true,
        "id": 56655557,
        "last_rank": 86054,
        "player_name": "Knut Inge Bjerklund",
        "rank": 69596,
        "rank_sort": 69693,
        "total": 2340
      },
      {
        "club_badge_src": null,
        "entry": 7083007,
        "entry_name": "Havertz Your Way",
        "event_total": 60,
        "has_played": true,
        "id": 57015093,
        "last_rank": 77050,
        "player_name": "Marko Maal",
        "rank": 69596,
        "rank_sort": 69694,
        "total": 2340
      },
      {
        "club_badge_src": null,
        "entry": 7269215,
        "entry_name": "Nut stach n crack",
        "event_total": 75,
        "has_played": true,
        "id": 58785684,
        "last_rank": 114095,
        "player_name": "oliver millard",
        "rank": 69596,
        "rank_sort": 69695,
        "total": 2340
      },
      {
        "club_badge_src": null,
        "entry": 7269565,
        "entry_name": "Ctrl Alt De Ligt",
        "event_total": 53,
        "has_played": true,
        "id": 58788909,
        "last_rank": 63390,
        "player_name": "Amy Mullins",
        "rank": 69596,
        "rank_sort": 69696,
        "total": 2340
      },
      {
        "club_badge_src": null,
        "entry": 7482246,
        "entry_name": "kac",
        "event_total": 40,
        "has_played": true,
        "id": 61052124,
        "last_rank": 42506,
        "player_name": "faissal el azzaoui",
        "rank": 69596,
        "rank_sort": 69697,
        "total": 2340
      },
      {
        "club_badge_src": null,
        "entry": 7586765,
        "entry_name": "Bampys Team",
        "event_total": 72,
        "has_played": true,
        "id": 62144705,
        "last_rank": 105818,
        "player_name": "Robert Franklin",
        "rank": 69596,
        "rank_sort": 69698,
        "total": 2340
      },
      {
        "club_badge_src": null,
        "entry": 7650767,
        "entry_name": "Pathetico Madrid",
        "event_total": 73,
        "has_played": true,
        "id": 62723737,
        "last_rank": 108959,
        "player_name": "Simon King",
        "rank": 69596,
        "rank_sort": 69699,
        "total": 2340
      },
      {
        "club_badge_src": null,
        "entry": 7744384,
        "entry_name": "CSB ICB",
        "event_total": 52,
        "has_played": true,
        "id": 63570267,
        "last_rank": 61606,
        "player_name": "Nabeel A",
        "rank": 69596,
        "rank_sort": 69700,
        "total": 2340
      }
    ]
  }
}