{
  "last_updated_data": "2026-05-24T23:28:17Z",
  "league": {
    "admin_entry": null,
    "closed": false,
    "code_privacy": "p",
    "created": "2025-07-20T23:14:33.933835Z",
    "cup_league": 2815434,
    "has_cup": true,
    "id": 314,
    "league_type": "s",
    "max_entries": null,
    "name": "Overall",
    "rank": null,
    "scoring": "c",
    "start_event": 1
  },
  "new_entries": {
    "has_next": false,
    "page": 1,
    "results": []
  },
  "standings": {
    "has_next": true,
    "page": 802,
    "results": [
      {
        "club_badge_src": null,
        "entry": 5594625,
        "entry_name": "\u00d8degaard til toppen",
        "event_total": 52,
        "has_played": true,
        "id": 43710139,
        "last_rank": 34293,
        "player_name": "Lukas Troelsen",
        "rank": 39837,
        "rank_sort": 40051,
        "total": 2359
      },
      {
        "club_badge_src": null,
        "entry": 5641509,
        "entry_name": "Novo Rapid Vienna",
        "event_total": 51,
        "has_played": true,
        "id": 44119020,
        "last_rank": 32879,
        "player_name": "Mark Lowdon",
        "rank": 39837,
        "rank_sort": 40052,
        "total": 2359
      },
      {
        "club_badge_src": null,
        "entry": 5784557,
        "entry_name": "Change Name",
        "event_total": 52,
        "has_played": true,
        "id": 45362586,
        "last_rank": 34293,
        "player_name": "Amer M",
        "rank": 39837,
        "rank_sort": 40053,
        "total": 2359
      },
      {
        "club_badge_src": null,
        "entry": 5865297,
        "entry_name": "Jarvis FC",
        "event_total": 64,
        "has_played": true,
        "id": 46066862,
        "last_rank": 49880,
        "player_name": "Andy Cocker",
        "rank": 39837,
        "rank_sort": 40054,
        "total": 2359
      },
      {
        "club_badge_src": null,
        "entry": 5910378,
        "entry_name": "Absolutely Fabregas",
        "event_total": 62,
        "has_played": true,
        "id": 46444988,
        "last_rank": 46839,
        "player_name": "Victor Waters",
        "rank": 39837,
        "rank_sort": 40055,
        "total": 2359
      },
      {
        "club_badge_src": "https://fantasy.premierleague.com/gcs/plfpl-production-adobe-approved/plfpl-production/5970797/279d18de-e960-4c6a-bceb-8146827347dd.png",
        "entry": 5970797,
        "entry_name": "Madueke Wines",
        "event_total": 80,
        "has_played": true,
        "id": 46985800,
        "last_rank": 79431,
        "player_name": "Aaron Kane",
        "rank": 39837,
        "rank_sort": 40056,
        "total": 2359
      },
      {
        "club_badge_src": "https://fantasy.premierleague.com/gcs/plfpl-production-adobe-approved/plfpl-production/6019063/e5b3fbba-64e1-4247-b530-4246a614df56.png",
        "entry": 6019063,
        "entry_name": "Lokomotiv London",
        "event_total": 71,
        "has_played": true,
        "id": 47468783,
        "last_rank": 61315,
        "player_name": "Stoyan Kukov",
        "rank": 39837,
        "rank_sort": 40057,
        "total": 2359
      },
      {
        "club_badge_src": null,
        "entry": 6043231,
        "entry_name": "Bare tull FC",
        "event_total": 61,
        "has_played": true,
        "id": 47680721,
        "last_rank": 45252,
        "player_name": "\u00d8mer Bozkurt",
        "rank": 39837,
        "rank_sort": 40058,
        "total": 2359
      },
      {
        "club_badge_src": null,
        "entry": 6073203,
        "entry_name": "Stokealona",
        "event_total": 59,
        "has_played": true,
        "id": 47942332,
        "last_rank": 42648,
        "player_name": "Lewis Colley",
        "rank": 39837,
        "rank_sort": 40059,
        "total": 2359
      },
      {
        "club_badge_src": null,
        "entry": 6085891,
        "entry_name": "Milk Enshi",
        "event_total": 51,
        "has_played": true,
        "id": 48053659,
        "last_rank": 32879,
        "player_name": "Osilama Ugbome",
        "rank": 39837,
        "rank_sort": 40060,
        "total": 2359
      },
      {
        "club_badge_src": null,
        "entry": 6111720,
        "entry_name": "Fc.Jabooruge val",
        "event_total": 69,
        "has_played": true,
        "id": 48278393,
        "last_rank": 57776,
        "player_name": "Rashiethere Meeha",
        "rank": 39837,
        "rank_sort": 40061,
        "total": 2359
      },
      {
        "club_badge_src": null,
        "entry": 6152637,
        "entry_name": "De nusselige",
        "event_total": 58,
        "has_played": true,
        "id": 48635738,
        "last_rank": 41162,
        "player_name": "Emma Dahle",
        "rank": 39837,
        "rank_sort": 40062,
        "total": 2359
      },
      {
        "club_badge_src": "https://fantasy.premierleague.com/gcs/plfpl-production-adobe-approved/plfpl-production/6277222/e200199e-79ae-4438-bd6e-984d413f71c2.png",
        "entry": 6277222,
        "entry_name": "Digestive Busquets",
        "event_total": 55,
        "has_played": true,
        "id": 49710512,
        "last_rank": 37435,
        "player_name": "Jason Galvin",
        "rank": 39837,
        "rank_sort": 40063,
        "total": 2359
      },
      {
        "club_badge_src": null,
        "entry": 6410543,
        "entry_name": "chickentikkamosalah",
        "event_total": 53,
        "has_played": true,
        "id": 51012814,
        "last_rank": 35166,
        "player_name": "Swatee Umapathy",
        "rank": 39837,
        "rank_sort": 40064,
        "total": 2359
      },
      {
        "club_badge_src": "https://fantasy.premierleague.com/gcs/plfpl-production-adobe-approved/plfpl-production/6411202/b0e508ec-1040-45da-85f9-8e379ce418c6.png",
        "entry": 6411202,
        "entry_name": "Sporting Armageddon",
        "event_total": 68,
        "has_played": true,
        "id": 51018994,
        "last_rank": 56180,
        "player_name": "Se\u00e1n Galvin",
        "rank": 39837,
        "rank_sort": 40065,
        "total": 2359
      },
      {
        "club_badge_src": null,
        "entry": 6474948,
        "entry_name": "Sheehan FC",
        "event_total": 52,
        "has_played": true,
        "id": 51596302,
        "last_rank": 34051,
        "player_name": "Jack Sheehan",
        "rank": 39837,
        "rank_sort": 40066,
        "total": 2359
      },
      {
        "club_badge_src": null,
        "entry": 6505769,
        "entry_name": "Jamil Jamal",
        "event_total": 52,
        "has_played": true,
        "id": 51873262,
        "last_rank": 34051,
        "player_name": "Georgy Debs",
        "rank": 39837,
        "rank_sort": 40067,
        "total": 2359
      },
      {
        "club_badge_src": null,
        "entry": 6668082,
        "entry_name": "ForeverBowenBubbles",
        "event_total": 64,
        "has_played": true,
        "id": 53328234,
        "last_rank": 49691,
        "player_name": "Liam Heath-Lay",
        "rank": 39837,
        "rank_sort": 40068,
        "total": 2359
      },
      {
        "club_badge_src": "https://fantasy.premierleague.com/gcs/plfpl-production-adobe-approved/plfpl-production/6683799/b0cc4c06-75fc-44cf-89e1-65955fd58f4c.png",
        "entry": 6683799,
        "entry_name": "Change Name",
        "event_total": 63,
        "has_played": true,
        "id": 53465816,
        "last_rank": 48363,
        "player_name": "Graeme Murtha",
        "rank": 39837,
        "rank_sort": 40069,
        "total": 2359
      },
      {
        "club_badge_src": null,
        "entry": 6712721,
        "entry_name": "Big Burn Theory",
        "event_total": 57,
        "has_played": true,
        "id": 53720656,
        "last_rank": 39874,
        "player_name": "Jake Mara",
        "rank": 39837,
        "rank_sort": 40070,
        "total": 2359
      },
      {
        "club_badge_src": null,
        "entry": 6754002,
        "entry_name": "Flying Monkeys",
        "event_total": 60,
        "has_played": true,
        "id": 54071728,
        "last_rank": 44048,
        "player_name": "Daniel Valdes",
        "rank": 39837,
        "rank_sort": 40071,
        "total": 2359
      },
      {
        "club_badge_src": null,
        "entry": 6767729,
        "entry_name": "Tanuki",
        "event_total": 57,
        "has_played": true,
        "id": 54188265,
        "last_rank": 40036,
        "player_name": "Albert Matayoshi",
        "rank": 39837,
        "rank_sort": 40072,
        "total": 2359
      },
      {
        "club_badge_src": null,
        "entry": 6801983,
        "entry_name": "Summit",
        "event_total": 59,
        "has_played": true,
        "id": 54473206,
        "last_rank": 42506,
        "player_name": "Gary Howard",
        "rank": 39837,
        "rank_sort": 40073,
        "total": 2359
      },
      {
        "club_badge_src": null,
        "entry": 6878776,
        "entry_name": "Missing Prowsey",
        "event_total": 62,
        "has_played": true,
        "id": 55124984,
        "last_rank": 46839,
        "player_name": "Vasco Alves",
        "rank": 39837,
        "rank_sort": 40074,
        "total": 2359
      },
      {
        "club_badge_src": null,
        "entry": 6893465,
        "entry_name": "A2CHEB WARRIORS",
        "event_total": 64,
        "has_played": true,
        "id": 55249243,
        "last_rank": 49880,
        "player_name": "Abdellah Chebcheb",
        "rank": 39837,
        "rank_sort": 40075,
        "total": 2359
      },
      {
        "club_badge_src": "https://fantasy.premierleague.com/gcs/plfpl-production-adobe-approved/plfpl-production/6899762/66605e3d-0779-4d6d-a533-56b0b589e746.png",
        "entry": 6899762,
        "entry_name": "McNeil Deal",
        "event_total": 58,
        "has_played": true,
        "id": 55301955,
        "last_rank": 41101,
        "player_name": "Jack Wang",
        "rank": 39837,
        "rank_sort": 40076,
        "total": 2359
      },
      {
        "club_badge_src": "https://fantasy.premierleague.com/gcs/plfpl-production-adobe-approved/plfpl-production/6913709/6e4aee32-4ed6-4da4-89fb-3e3ad0328d7a.png",
        "entry": 6913709,
        "entry_name": "Trailer Park Boys",
        "event_total": 56,
        "has_played": true,
        "id": 55420022,
        "last_rank": 38644,
        "player_name": "Sean Maloney",
        "rank": 39837,
        "rank_sort": 40077,
        "total": 2359
      },
      {
        "club_badge_src": null,
        "entry": 6982527,
        "entry_name": "Bassel F.C",
        "event_total": 52,
        "has_played": true,
        "id": 56042008,
        "last_rank": 33936,
        "player_name": "Bassel Swaid",
        "rank": 39837,
        "rank_sort": 40078,
        "total": 2359
      },
      {
        "club_badge_src": null,
        "entry": 7013467,
        "entry_name": "Snoop Udogie Dogg",
        "event_total": 67,
        "has_played": true,
        "id": 56327313,
        "last_rank": 54667,
        "player_name": "Alex Watts",
        "rank": 39837,
        "rank_sort": 40079,
        "total": 2359
      },
      {
        "club_badge_src": null,
        "entry": 7022625,
        "entry_name": "Bilal Al Boroj",
        "event_total": 57,
        "has_played": true,
        "id": 56412380,
        "last_rank": 40036,
        "player_name": "Bilal B",
        "rank": 39837,
        "rank_sort": 40080,
        "total": 2359
      },
      {
        "club_badge_src": null,
        "entry": 7050862,
        "entry_name": "Pole Calmer",
        "event_total": 57,
        "has_played": true,
        "id": 56705898,
        "last_rank": 40297,
        "player_name": "Kumbirai Jena",
        "rank": 39837,
        "rank_sort": 40081,
        "total": 2359
      },
      {
        "club_badge_src": null,
        "entry": 7070906,
        "entry_name": "Neville wears Prada",
        "event_total": 56,
        "has_played": true,
        "id": 56897784,
        "last_rank": 38774,
        "player_name": "Oliver Frazer-Nevin",
        "rank": 39837,
        "rank_sort": 40082,
        "total": 2359
      },
      {
        "club_badge_src": null,
        "entry": 7114553,
        "entry_name": "HamezMcDW4",
        "event_total": 62,
        "has_played": true,
        "id": 57315491,
        "last_rank": 46660,
        "player_name": "James McDermott Walshe",
        "rank": 39837,
        "rank_sort": 40083,
        "total": 2359
      },
      {
        "club_badge_src": null,
        "entry": 7162058,
        "entry_name": "panda fc",
        "event_total": 43,
        "has_played": true,
        "id": 57773934,
        "last_rank": 24897,
        "player_name": "Nick Pandis",
        "rank": 39837,
        "rank_sort": 40084,
        "total": 2359
      },
      {
        "club_badge_src": null,
        "entry": 7193986,
        "entry_name": "MI\u010cIG",
        "event_total": 42,
        "has_played": true,
        "id": 58077275,
        "last_rank": 24143,
        "player_name": "Mitar Vu\u010di\u0107evi\u0107",
        "rank": 39837,
        "rank_sort": 40085,
        "total": 2359
      },
      {
        "club_badge_src": "https://fantasy.premierleague.com/gcs/plfpl-production-adobe-approved/plfpl-production/7469492/93558e98-5aea-4016-a405-2abf44dfaae5.png",
        "entry": 7469492,
        "entry_name": "freedom of speech FC",
        "event_total": 60,
        "has_played": true,
        "id": 60888523,
        "last_rank": 44048,
        "player_name": "Benjamin Parra III",
        "rank": 39837,
        "rank_sort": 40086,
        "total": 2359
      },
      {
        "club_badge_src": null,
        "entry": 7538386,
        "entry_name": "TOP 1 LIKE ARSENAL",
        "event_total": 61,
        "has_played": true,
        "id": 61705256,
        "last_rank": 45416,
        "player_name": "Faris Shazali",
        "rank": 39837,
        "rank_sort": 40087,
        "total": 2359
      },
      {
        "club_badge_src": null,
        "entry": 7596952,
        "entry_name": "Clo Salah",
        "event_total": 42,
        "has_played": true,
        "id": 62237425,
        "last_rank": 24143,
        "player_name": "Chloe Pettman",
        "rank": 39837,
        "rank_sort": 40088,
        "total": 2359
      },
      {
        "club_badge_src": null,
        "entry": 7619894,
        "entry_name": "Hornesmouth FC",
        "event_total": 68,
        "has_played": true,
        "id": 62445902,
        "last_rank": 56708,
        "player_name": "Marc Pattison",
        "rank": 39837,
        "rank_sort": 40089,
        "total": 2359
      },
      {
        "club_badge_src": null,
        "entry": 7702841,
        "entry_name": "Whu Tang Clan",
        "event_total": 74,
        "has_played": true,
        "id": 63196566,
        "last_rank": 67063,
        "player_name": "Steve Evans",
        "rank": 39837,
        "rank_sort": 40090,
        "total": 2359
      },
      {
        "club_badge_src": null,
        "entry": 8039174,
        "entry_name": "FouadSpurs",
        "event_total": 58,
        "has_played": true,
        "id": 66239682,
        "last_rank": 41617,
        "player_name": "Fouad Bahnasi",
        "rank": 39837,
        "rank_sort": 40091,
        "total": 2359
      },
      {
        "club_badge_src": null,
        "entry": 8071404,
        "entry_name": "Chaijen",
        "event_total": 59,
        "has_played": true,
        "id": 66534781,
        "last_rank": 42648,
        "player_name": "Rachata Jenjitranon",
        "rank": 39837,
        "rank_sort": 40092,
        "total": 2359
      },
      {
        "club_badge_src": null,
        "entry": 8230726,
        "entry_name": "CWC Champs",
        "event_total": 50,
        "has_played": true,
        "id": 68033523,
        "last_rank": 31620,
        "player_name": "Ken Leong",
        "rank": 39837,
        "rank_sort": 40093,
        "total": 2359
      },
      {
        "club_badge_src": null,
        "entry": 8251764,
        "entry_name": "HaalandGlobetrotters",
        "event_total": 69,
        "has_played": true,
        "id": 68241119,
        "last_rank": 57857,
        "player_name": "Adam Botwright",
        "rank": 39837,
        "rank_sort": 40094,
        "total": 2359
      },
      {
        "club_badge_src": null,
        "entry": 9458465,
        "entry_name": "Gyokesaurus FC",
        "event_total": 47,
        "has_played": true,
        "id": 79926908,
        "last_rank": 28546,
        "player_name": "Kai Him Lee",
        "rank": 39837,
        "rank_sort": 40095,
        "total": 2359
      },
      {
        "club_badge_src": null,
        "entry": 10024211,
        "entry_name": "anas.zain",
        "event_total": 84,
        "has_played": true,
        "id": 85011252,
        "last_rank": 89055,
        "player_name": "Nesma Ahmed",
        "rank": 39837,
        "rank_sort": 40096,
        "total": 2359
      },
      {
        "club_badge_src": "https://fantasy.premierleague.com/gcs/plfpl-production-adobe-approved/plfpl-production/1309/4b742b36-4dfc-4796-913b-6b14a0615141.png",
        "entry": 1309,
        "entry_name": "Zokora\u2019s All Stars",
        "event_total": 59,
        "has_played": true,
        "id": 7276,
        "last_rank": 37589,
        "player_name": "Alastair Cowper",
        "rank": 40097,
        "rank_sort": 40097,
        "total": 2359
      },
      {
        "club_badge_src": null,
        "entry": 2459,
        "entry_name": "Moggy's XI",
        "event_total": 65,
        "has_played": true,
        "id": 13709,
        "last_rank": 45416,
        "player_name": "Andy Morris",
        "rank": 40097,
        "rank_sort": 40098,
        "total": 2359
      },
      {
        "club_badge_src": "https://fantasy.premierleague.com/gcs/plfpl-production-adobe-approved/plfpl-production/2554/3516687d-7a0d-46fc-bd72-6d457a1652b9.png",
        "entry": 2554,
        "entry_name": "Syvde IL",
        "event_total": 70,
        "has_played": true,
        "id": 14255,
        "last_rank": 60168,
        "player_name": "Eldar Nordal",
        "rank": 40097,
        "rank_sort": 40099,
        "total": 2359
      },
      {
        "club_badge_src": "https://fantasy.premierleague.com/gcs/plfpl-production-adobe-approved/plfpl-production/5540/563aa781-d158-4c7f-ab6b-e24a4484b06d.png",
        "entry": 5540,
        "entry_name": "Mantle's Marvels",
        "event_total": 59,
        "has_played": true,
        "id": 31585,
        "last_rank": 42940,
        "player_name": "Gareth Mantle",
        "rank": 40097,
        "rank_sort": 40100,
        "total": 2359
      }
    ]
  }
}