{
  "last_updated_data": "2026-05-24T23:28:17Z",
  "league": {
    "admin_entry": null,
    "closed": false,
    "code_privacy": "p",
    "created": "2025-07-20T23:14:33.933835Z",
    "cup_league": 2815434,
    "has_cup": true,
    "id": 314,
    "league_type": "s",
    "max_entries": null,
    "name": "Overall",
    "rank": null,
    "scoring": "c",
    "start_event": 1
  },
  "new_entries": {
    "has_next": false,
    "page": 1,
    "results": []
  },
  "standings": {
    "has_next": true,
    "page": 271,
    "results": [
      {
        "club_badge_src": null,
        "entry": 7216832,
        "entry_name": "BONDOK",
        "event_total": 68,
        "has_played": true,
        "id": 58292923,
        "last_rank": 16959,
        "player_name": "mohamed adel",
        "rank": 13459,
        "rank_sort": 13501,
        "total": 2391
      },
      {
        "club_badge_src": null,
        "entry": 7517510,
        "entry_name": "KOK's XI",
        "event_total": 54,
        "has_played": true,
        "id": 61490914,
        "last_rank": 11482,
        "player_name": "Kevin O'Keeffe",
        "rank": 13459,
        "rank_sort": 13502,
        "total": 2391
      },
      {
        "club_badge_src": "https://fantasy.premierleague.com/gcs/plfpl-production-adobe-approved/plfpl-production/8313912/49230ccb-f73c-4c28-ae50-7f5b24a868f4.png",
        "entry": 8313912,
        "entry_name": "Boudah United",
        "event_total": 66,
        "has_played": true,
        "id": 68856696,
        "last_rank": 18475,
        "player_name": "Abdullah Al-Mulhim",
        "rank": 13459,
        "rank_sort": 13503,
        "total": 2391
      },
      {
        "club_badge_src": "https://fantasy.premierleague.com/gcs/plfpl-production-adobe-approved/plfpl-production/8423803/1ba84a57-addb-4458-b98f-2c45e4bd9efd.png",
        "entry": 8423803,
        "entry_name": "Toby-Or-Not-Toby",
        "event_total": 54,
        "has_played": true,
        "id": 69904963,
        "last_rank": 11482,
        "player_name": "Tobelius Le Conte",
        "rank": 13459,
        "rank_sort": 13504,
        "total": 2391
      },
      {
        "club_badge_src": null,
        "entry": 85643,
        "entry_name": "That\u2019s Bijol Folks",
        "event_total": 60,
        "has_played": true,
        "id": 557867,
        "last_rank": 12470,
        "player_name": "Gareth Cromie",
        "rank": 13505,
        "rank_sort": 13505,
        "total": 2391
      },
      {
        "club_badge_src": null,
        "entry": 116828,
        "entry_name": "FC L\u00e9o Hy\u00e8nited",
        "event_total": 55,
        "has_played": true,
        "id": 762660,
        "last_rank": 10151,
        "player_name": "Michael Polom\u00e9",
        "rank": 13505,
        "rank_sort": 13506,
        "total": 2391
      },
      {
        "club_badge_src": null,
        "entry": 245901,
        "entry_name": "MasonMounting",
        "event_total": 61,
        "has_played": true,
        "id": 1637218,
        "last_rank": 15280,
        "player_name": "Harry Forsyth",
        "rank": 13505,
        "rank_sort": 13507,
        "total": 2391
      },
      {
        "club_badge_src": null,
        "entry": 282712,
        "entry_name": "The Tip Tops",
        "event_total": 67,
        "has_played": true,
        "id": 1881900,
        "last_rank": 19237,
        "player_name": "Stephen Kenny",
        "rank": 13505,
        "rank_sort": 13508,
        "total": 2391
      },
      {
        "club_badge_src": "https://fantasy.premierleague.com/gcs/plfpl-production-adobe-approved/plfpl-production/309630/1ad6c75c-6533-48cf-b3dd-7931d4d6ab6b.png",
        "entry": 309630,
        "entry_name": "Fc Perc",
        "event_total": 65,
        "has_played": true,
        "id": 2074026,
        "last_rank": 15226,
        "player_name": "John Aloga",
        "rank": 13505,
        "rank_sort": 13509,
        "total": 2391
      },
      {
        "club_badge_src": "https://fantasy.premierleague.com/gcs/plfpl-production-adobe-approved/plfpl-production/376847/ca8c3b25-d693-4ca7-995a-54d6c47cdfd5.png",
        "entry": 376847,
        "entry_name": "DeadPool\ufffd",
        "event_total": 67,
        "has_played": true,
        "id": 2524157,
        "last_rank": 19237,
        "player_name": "Ahmed Hassan",
        "rank": 13505,
        "rank_sort": 13510,
        "total": 2391
      },
      {
        "club_badge_src": "https://fantasy.premierleague.com/gcs/plfpl-production-adobe-approved/plfpl-production/455870/0338d709-8d17-4c08-8391-32280cbb94d5.png",
        "entry": 455870,
        "entry_name": "jooooooooooo",
        "event_total": 59,
        "has_played": true,
        "id": 3058316,
        "last_rank": 11957,
        "player_name": "Yousef Ali",
        "rank": 13505,
        "rank_sort": 13511,
        "total": 2391
      },
      {
        "club_badge_src": "https://fantasy.premierleague.com/gcs/plfpl-production-adobe-approved/plfpl-production/579854/a72f3792-d1e6-4d29-a159-0cb40789a010.png",
        "entry": 579854,
        "entry_name": "Silva Lining",
        "event_total": 47,
        "has_played": true,
        "id": 3901769,
        "last_rank": 8617,
        "player_name": "Amanda Fisher",
        "rank": 13505,
        "rank_sort": 13512,
        "total": 2391
      },
      {
        "club_badge_src": "https://fantasy.premierleague.com/gcs/plfpl-production-adobe-approved/plfpl-production/689111/140d2049-9ee2-49fc-a26c-b254e485f93f.png",
        "entry": 689111,
        "entry_name": "P\u0159i\u0161el vid\u011bl prohr\u00e1l",
        "event_total": 70,
        "has_played": true,
        "id": 4665736,
        "last_rank": 15797,
        "player_name": "Filip \u010cumpel\u00edk",
        "rank": 13505,
        "rank_sort": 13513,
        "total": 2391
      },
      {
        "club_badge_src": null,
        "entry": 959335,
        "entry_name": "Cereal Killer FC",
        "event_total": 55,
        "has_played": true,
        "id": 6610734,
        "last_rank": 11999,
        "player_name": "Joshua Smallwood",
        "rank": 13505,
        "rank_sort": 13514,
        "total": 2391
      },
      {
        "club_badge_src": "https://fantasy.premierleague.com/gcs/plfpl-production-adobe-approved/plfpl-production/1058927/605e0deb-2901-4830-9512-f4c35aea2525.png",
        "entry": 1058927,
        "entry_name": "\u0158\u0190L\u0190N\u0166L\u0190SS",
        "event_total": 81,
        "has_played": true,
        "id": 7328448,
        "last_rank": 31309,
        "player_name": "Nadeem Nortje",
        "rank": 13505,
        "rank_sort": 13515,
        "total": 2391
      },
      {
        "club_badge_src": null,
        "entry": 1490178,
        "entry_name": "GOMAKO",
        "event_total": 79,
        "has_played": true,
        "id": 10391780,
        "last_rank": 28906,
        "player_name": "Maciej Koc",
        "rank": 13505,
        "rank_sort": 13516,
        "total": 2391
      },
      {
        "club_badge_src": null,
        "entry": 1722544,
        "entry_name": "Bowen 747",
        "event_total": 65,
        "has_played": true,
        "id": 12074329,
        "last_rank": 17848,
        "player_name": "Vinko Kolak",
        "rank": 13505,
        "rank_sort": 13517,
        "total": 2391
      },
      {
        "club_badge_src": null,
        "entry": 2078268,
        "entry_name": "Sheffield Westy",
        "event_total": 61,
        "has_played": true,
        "id": 14735863,
        "last_rank": 15280,
        "player_name": "Martin West",
        "rank": 13505,
        "rank_sort": 13518,
        "total": 2391
      },
      {
        "club_badge_src": null,
        "entry": 2341295,
        "entry_name": "V9 Academy",
        "event_total": 68,
        "has_played": true,
        "id": 16705756,
        "last_rank": 12322,
        "player_name": "Edward Laquis",
        "rank": 13505,
        "rank_sort": 13519,
        "total": 2391
      },
      {
        "club_badge_src": null,
        "entry": 3220456,
        "entry_name": "Abdo Binina",
        "event_total": 67,
        "has_played": true,
        "id": 23814580,
        "last_rank": 19103,
        "player_name": "GeekAmine Bakkar",
        "rank": 13505,
        "rank_sort": 13520,
        "total": 2391
      },
      {
        "club_badge_src": null,
        "entry": 4013047,
        "entry_name": "Icyaussie",
        "event_total": 66,
        "has_played": true,
        "id": 30239324,
        "last_rank": 18520,
        "player_name": "Jordan Smylie",
        "rank": 13505,
        "rank_sort": 13521,
        "total": 2391
      },
      {
        "club_badge_src": null,
        "entry": 4577531,
        "entry_name": "Dukensmuken",
        "event_total": 67,
        "has_played": true,
        "id": 34941641,
        "last_rank": 19176,
        "player_name": "Petter Heggemsnes",
        "rank": 13505,
        "rank_sort": 13522,
        "total": 2391
      },
      {
        "club_badge_src": null,
        "entry": 4846196,
        "entry_name": "EmberBorne",
        "event_total": 41,
        "has_played": true,
        "id": 37334625,
        "last_rank": 6637,
        "player_name": "Toluwanimi Omowale",
        "rank": 13505,
        "rank_sort": 13523,
        "total": 2391
      },
      {
        "club_badge_src": null,
        "entry": 4957001,
        "entry_name": "\u0160e\u0161ko Clubcard",
        "event_total": 67,
        "has_played": true,
        "id": 38251342,
        "last_rank": 19237,
        "player_name": "James Ross",
        "rank": 13505,
        "rank_sort": 13524,
        "total": 2391
      },
      {
        "club_badge_src": null,
        "entry": 5137114,
        "entry_name": "M\u00e9s Que Un Club",
        "event_total": 64,
        "has_played": true,
        "id": 39735024,
        "last_rank": 17194,
        "player_name": "Prasana Kalanathan",
        "rank": 13505,
        "rank_sort": 13525,
        "total": 2391
      },
      {
        "club_badge_src": null,
        "entry": 5299232,
        "entry_name": "Don't Fear the Wirtz",
        "event_total": 65,
        "has_played": true,
        "id": 41076986,
        "last_rank": 17848,
        "player_name": "Tom Ramsey",
        "rank": 13505,
        "rank_sort": 13526,
        "total": 2391
      },
      {
        "club_badge_src": null,
        "entry": 6221613,
        "entry_name": "Kick in Tanakas",
        "event_total": 68,
        "has_played": true,
        "id": 49230139,
        "last_rank": 19835,
        "player_name": "Paul Custus",
        "rank": 13505,
        "rank_sort": 13527,
        "total": 2391
      },
      {
        "club_badge_src": null,
        "entry": 6359328,
        "entry_name": "JK1",
        "event_total": 72,
        "has_played": true,
        "id": 50561913,
        "last_rank": 22996,
        "player_name": "James Koh",
        "rank": 13505,
        "rank_sort": 13528,
        "total": 2391
      },
      {
        "club_badge_src": null,
        "entry": 7458901,
        "entry_name": "Kuznets Curva",
        "event_total": 60,
        "has_played": true,
        "id": 60751290,
        "last_rank": 14712,
        "player_name": "Karl Johnston",
        "rank": 13505,
        "rank_sort": 13529,
        "total": 2391
      },
      {
        "club_badge_src": null,
        "entry": 8249305,
        "entry_name": "Cat that Pops",
        "event_total": 71,
        "has_played": true,
        "id": 68217668,
        "last_rank": 19176,
        "player_name": "Jay Magnez",
        "rank": 13505,
        "rank_sort": 13530,
        "total": 2391
      },
      {
        "club_badge_src": null,
        "entry": 9027096,
        "entry_name": "Awunors11",
        "event_total": 68,
        "has_played": true,
        "id": 75741465,
        "last_rank": 19966,
        "player_name": "Daniel Awunor",
        "rank": 13505,
        "rank_sort": 13531,
        "total": 2391
      },
      {
        "club_badge_src": null,
        "entry": 2606,
        "entry_name": "No Pressure",
        "event_total": 72,
        "has_played": true,
        "id": 14560,
        "last_rank": 22996,
        "player_name": "Roshan Shingadia",
        "rank": 13532,
        "rank_sort": 13532,
        "total": 2391
      },
      {
        "club_badge_src": "https://fantasy.premierleague.com/gcs/plfpl-production-adobe-approved/plfpl-production/24122/7cf16e7c-e8ef-4aa8-a06f-5562435c67a9.png",
        "entry": 24122,
        "entry_name": "REDs UNITED",
        "event_total": 78,
        "has_played": true,
        "id": 152187,
        "last_rank": 21392,
        "player_name": "Salim Baradei",
        "rank": 13532,
        "rank_sort": 13533,
        "total": 2391
      },
      {
        "club_badge_src": null,
        "entry": 40734,
        "entry_name": "\u062d\u0645\u0648\u062f\u064a \u0634\u0631\u0637\u0627\u0648\u064a",
        "event_total": 56,
        "has_played": true,
        "id": 261106,
        "last_rank": 10629,
        "player_name": "\u062d\u0645\u0648\u062f\u064a \u0634\u0631\u0637\u0627\u0648\u064a",
        "rank": 13532,
        "rank_sort": 13534,
        "total": 2391
      },
      {
        "club_badge_src": "https://fantasy.premierleague.com/gcs/plfpl-production-adobe-approved/plfpl-production/84434/66140a01-7487-43e4-a01e-e3ec32c91386.png",
        "entry": 84434,
        "entry_name": "Champagne Beevers",
        "event_total": 60,
        "has_played": true,
        "id": 549756,
        "last_rank": 14746,
        "player_name": "Nathan Riches",
        "rank": 13532,
        "rank_sort": 13535,
        "total": 2391
      },
      {
        "club_badge_src": "https://fantasy.premierleague.com/gcs/plfpl-production-adobe-approved/plfpl-production/88948/4b616ea2-b08b-4b75-994c-340c2dd2b871.png",
        "entry": 88948,
        "entry_name": "I LAVIA THIS GAME!",
        "event_total": 66,
        "has_played": true,
        "id": 580577,
        "last_rank": 18555,
        "player_name": "Sean Ballantyne",
        "rank": 13532,
        "rank_sort": 13536,
        "total": 2391
      },
      {
        "club_badge_src": null,
        "entry": 116136,
        "entry_name": "Billion \u00a3 Bottlejobs",
        "event_total": 66,
        "has_played": true,
        "id": 758143,
        "last_rank": 15920,
        "player_name": "Geet Chandratre",
        "rank": 13532,
        "rank_sort": 13537,
        "total": 2391
      },
      {
        "club_badge_src": null,
        "entry": 171794,
        "entry_name": "Gaza",
        "event_total": 66,
        "has_played": true,
        "id": 1134792,
        "last_rank": 13558,
        "player_name": "Mohammad Wagih",
        "rank": 13532,
        "rank_sort": 13538,
        "total": 2391
      },
      {
        "club_badge_src": "https://fantasy.premierleague.com/gcs/plfpl-production-adobe-approved/plfpl-production/338381/5f9768ee-6d9a-48d8-a7e2-6c6d4bc432b6.png",
        "entry": 338381,
        "entry_name": "Hyper Hyper",
        "event_total": 62,
        "has_played": true,
        "id": 2265403,
        "last_rank": 13601,
        "player_name": "Always Hardcore",
        "rank": 13532,
        "rank_sort": 13539,
        "total": 2391
      },
      {
        "club_badge_src": null,
        "entry": 573721,
        "entry_name": "I am Inevitable",
        "event_total": 64,
        "has_played": true,
        "id": 3861057,
        "last_rank": 14712,
        "player_name": "Wayne Mainga",
        "rank": 13532,
        "rank_sort": 13540,
        "total": 2391
      },
      {
        "club_badge_src": null,
        "entry": 619127,
        "entry_name": "saber",
        "event_total": 76,
        "has_played": true,
        "id": 4183573,
        "last_rank": 26475,
        "player_name": "Saber Gamal",
        "rank": 13532,
        "rank_sort": 13541,
        "total": 2391
      },
      {
        "club_badge_src": null,
        "entry": 861572,
        "entry_name": "Toque de Maestro",
        "event_total": 61,
        "has_played": true,
        "id": 5906416,
        "last_rank": 13033,
        "player_name": "Abdelkader Chakhtouna",
        "rank": 13532,
        "rank_sort": 13542,
        "total": 2391
      },
      {
        "club_badge_src": null,
        "entry": 904314,
        "entry_name": "Smoggies utd.",
        "event_total": 71,
        "has_played": true,
        "id": 6213919,
        "last_rank": 19237,
        "player_name": "Chris Girouard",
        "rank": 13532,
        "rank_sort": 13543,
        "total": 2391
      },
      {
        "club_badge_src": null,
        "entry": 911192,
        "entry_name": "Falcon Chest",
        "event_total": 58,
        "has_played": true,
        "id": 6265188,
        "last_rank": 11516,
        "player_name": "Frank Nygren",
        "rank": 13532,
        "rank_sort": 13544,
        "total": 2391
      },
      {
        "club_badge_src": null,
        "entry": 982206,
        "entry_name": "Lakes eleven",
        "event_total": 59,
        "has_played": true,
        "id": 6771420,
        "last_rank": 14148,
        "player_name": "Elliot Lake",
        "rank": 13532,
        "rank_sort": 13545,
        "total": 2391
      },
      {
        "club_badge_src": null,
        "entry": 1177833,
        "entry_name": "Med-Amine Yahiaoui",
        "event_total": 66,
        "has_played": true,
        "id": 8172308,
        "last_rank": 15920,
        "player_name": "Med-amine Yahiaoui",
        "rank": 13532,
        "rank_sort": 13546,
        "total": 2391
      },
      {
        "club_badge_src": "https://fantasy.premierleague.com/gcs/plfpl-production-adobe-approved/plfpl-production/1335604/45d04b80-4bb2-4142-95eb-c75a4ebbebd0.png",
        "entry": 1335604,
        "entry_name": "Bronte FC",
        "event_total": 66,
        "has_played": true,
        "id": 9283749,
        "last_rank": 18555,
        "player_name": "Dave Leeder",
        "rank": 13532,
        "rank_sort": 13547,
        "total": 2391
      },
      {
        "club_badge_src": null,
        "entry": 1518582,
        "entry_name": "My Young New Boys FC",
        "event_total": 43,
        "has_played": true,
        "id": 10591720,
        "last_rank": 7280,
        "player_name": "Taro Suto",
        "rank": 13532,
        "rank_sort": 13548,
        "total": 2391
      },
      {
        "club_badge_src": null,
        "entry": 1832540,
        "entry_name": "No Means No Thomas",
        "event_total": 46,
        "has_played": true,
        "id": 12890705,
        "last_rank": 8260,
        "player_name": "Scott Taylor",
        "rank": 13532,
        "rank_sort": 13549,
        "total": 2391
      },
      {
        "club_badge_src": null,
        "entry": 2391836,
        "entry_name": "ahmed fc",
        "event_total": 76,
        "has_played": true,
        "id": 17085712,
        "last_rank": 22830,
        "player_name": "sghaier Ahmed",
        "rank": 13532,
        "rank_sort": 13550,
        "total": 2391
      }
    ]
  }
}