{
  "last_updated_data": "2026-05-24T23:28:17Z",
  "league": {
    "admin_entry": null,
    "closed": false,
    "code_privacy": "p",
    "created": "2025-07-20T23:14:33.933835Z",
    "cup_league": 2815434,
    "has_cup": true,
    "id": 314,
    "league_type": "s",
    "max_entries": null,
    "name": "Overall",
    "rank": null,
    "scoring": "c",
    "start_event": 1
  },
  "new_entries": {
    "has_next": false,
    "page": 1,
    "results": []
  },
  "standings": {
    "has_next": true,
    "page": 1419,
    "results": [
      {
        "club_badge_src": null,
        "entry": 1735223,
        "entry_name": "SeaBiscuitsFC",
        "event_total": 51,
        "has_played": true,
        "id": 12173162,
        "last_rank": 47417,
        "player_name": "Jacob Appleyard",
        "rank": 70836,
        "rank_sort": 70901,
        "total": 2340
      },
      {
        "club_badge_src": null,
        "entry": 1754529,
        "entry_name": "Chateau Sessegnon",
        "event_total": 84,
        "has_played": true,
        "id": 12317428,
        "last_rank": 144179,
        "player_name": "James Newton-Price",
        "rank": 70836,
        "rank_sort": 70902,
        "total": 2340
      },
      {
        "club_badge_src": "https://fantasy.premierleague.com/gcs/plfpl-production-adobe-approved/plfpl-production/1851825/5c4b1a5e-ef29-4b0d-ac96-f87f246ff734.png",
        "entry": 1851825,
        "entry_name": "Hazardous Play",
        "event_total": 56,
        "has_played": true,
        "id": 13030876,
        "last_rank": 62429,
        "player_name": "Malcolm Adam",
        "rank": 70836,
        "rank_sort": 70903,
        "total": 2340
      },
      {
        "club_badge_src": null,
        "entry": 1874738,
        "entry_name": "Brian Brubbey",
        "event_total": 55,
        "has_played": true,
        "id": 13199030,
        "last_rank": 60671,
        "player_name": "Sebastiaan During",
        "rank": 70836,
        "rank_sort": 70904,
        "total": 2340
      },
      {
        "club_badge_src": null,
        "entry": 2038167,
        "entry_name": "Dire",
        "event_total": 51,
        "has_played": true,
        "id": 14432708,
        "last_rank": 60827,
        "player_name": "Michael Atinafe",
        "rank": 70836,
        "rank_sort": 70905,
        "total": 2340
      },
      {
        "club_badge_src": null,
        "entry": 2072902,
        "entry_name": "Solo till the end",
        "event_total": 50,
        "has_played": true,
        "id": 14696535,
        "last_rank": 52205,
        "player_name": "omar hagag",
        "rank": 70836,
        "rank_sort": 70906,
        "total": 2340
      },
      {
        "club_badge_src": null,
        "entry": 2212515,
        "entry_name": "Vlado Chernozemski",
        "event_total": 64,
        "has_played": true,
        "id": 15755791,
        "last_rank": 87541,
        "player_name": "Simeon Kostadinov",
        "rank": 70836,
        "rank_sort": 70907,
        "total": 2340
      },
      {
        "club_badge_src": null,
        "entry": 2238353,
        "entry_name": "Jibby FC",
        "event_total": 65,
        "has_played": true,
        "id": 15946098,
        "last_rank": 89897,
        "player_name": "Najib Farhan",
        "rank": 70836,
        "rank_sort": 70908,
        "total": 2340
      },
      {
        "club_badge_src": "https://fantasy.premierleague.com/gcs/plfpl-production-adobe-approved/plfpl-production/2249881/c8fd9c61-79d1-4fda-aafe-7d8588158e71.png",
        "entry": 2249881,
        "entry_name": "Kings Road",
        "event_total": 67,
        "has_played": true,
        "id": 16031955,
        "last_rank": 84731,
        "player_name": "Geir Ove Rugsveen",
        "rank": 70836,
        "rank_sort": 70909,
        "total": 2340
      },
      {
        "club_badge_src": null,
        "entry": 2288892,
        "entry_name": "Langy's Losers",
        "event_total": 49,
        "has_played": true,
        "id": 16323901,
        "last_rank": 57358,
        "player_name": "Steven Langford",
        "rank": 70836,
        "rank_sort": 70910,
        "total": 2340
      },
      {
        "club_badge_src": "https://fantasy.premierleague.com/gcs/plfpl-production-adobe-approved/plfpl-production/2399328/9327b2e4-a5c9-4ee0-8e98-3129b53bc3bf.png",
        "entry": 2399328,
        "entry_name": "Zamalek 1911",
        "event_total": 54,
        "has_played": true,
        "id": 17147938,
        "last_rank": 58911,
        "player_name": "MOHAMMED UWK07 EL ZAYAT",
        "rank": 70836,
        "rank_sort": 70911,
        "total": 2340
      },
      {
        "club_badge_src": null,
        "entry": 2424116,
        "entry_name": "BT FC",
        "event_total": 73,
        "has_played": true,
        "id": 17332470,
        "last_rank": 110573,
        "player_name": "B T",
        "rank": 70836,
        "rank_sort": 70912,
        "total": 2340
      },
      {
        "club_badge_src": null,
        "entry": 2484626,
        "entry_name": "Mackans kalkoner",
        "event_total": 68,
        "has_played": true,
        "id": 17779572,
        "last_rank": 97305,
        "player_name": "Marko Monir",
        "rank": 70836,
        "rank_sort": 70913,
        "total": 2340
      },
      {
        "club_badge_src": "https://fantasy.premierleague.com/gcs/plfpl-production-adobe-approved/plfpl-production/2547721/ed57cf17-848a-4b2d-bde1-502b00ef67e9.png",
        "entry": 2547721,
        "entry_name": "Al-Majecoo...",
        "event_total": 49,
        "has_played": true,
        "id": 18262822,
        "last_rank": 57451,
        "player_name": "Mo Farg",
        "rank": 70836,
        "rank_sort": 70914,
        "total": 2340
      },
      {
        "club_badge_src": null,
        "entry": 2596378,
        "entry_name": "Seans XI",
        "event_total": 64,
        "has_played": true,
        "id": 18644666,
        "last_rank": 78244,
        "player_name": "Sean Smith",
        "rank": 70836,
        "rank_sort": 70915,
        "total": 2340
      },
      {
        "club_badge_src": null,
        "entry": 2612672,
        "entry_name": "Ranskill Rovers",
        "event_total": 63,
        "has_played": true,
        "id": 18771556,
        "last_rank": 85207,
        "player_name": "Steven owens",
        "rank": 70836,
        "rank_sort": 70916,
        "total": 2340
      },
      {
        "club_badge_src": null,
        "entry": 2827151,
        "entry_name": "TURKEY ALDAIHANI",
        "event_total": 56,
        "has_played": true,
        "id": 20656415,
        "last_rank": 62429,
        "player_name": "Turkey Aldaihani",
        "rank": 70836,
        "rank_sort": 70917,
        "total": 2340
      },
      {
        "club_badge_src": null,
        "entry": 2867607,
        "entry_name": "m7",
        "event_total": 63,
        "has_played": true,
        "id": 20973716,
        "last_rank": 85207,
        "player_name": "Mubarak Mohammad",
        "rank": 70836,
        "rank_sort": 70918,
        "total": 2340
      },
      {
        "club_badge_src": "https://fantasy.premierleague.com/gcs/plfpl-production-adobe-approved/plfpl-production/2934938/bfbf890c-314a-4d2c-ab9d-8353c4311ada.png",
        "entry": 2934938,
        "entry_name": "\u0627\u0644\u0639\u0642\u0628\u0627\u0648\u064a\u0629",
        "event_total": 52,
        "has_played": true,
        "id": 21535288,
        "last_rank": 55514,
        "player_name": "Ahmed Alghanam",
        "rank": 70836,
        "rank_sort": 70919,
        "total": 2340
      },
      {
        "club_badge_src": null,
        "entry": 2992519,
        "entry_name": "Eki-chike Girls",
        "event_total": 61,
        "has_played": true,
        "id": 22009082,
        "last_rank": 71713,
        "player_name": "Nathan Dale",
        "rank": 70836,
        "rank_sort": 70920,
        "total": 2340
      },
      {
        "club_badge_src": null,
        "entry": 3103168,
        "entry_name": "Prayers",
        "event_total": 56,
        "has_played": true,
        "id": 22879393,
        "last_rank": 70072,
        "player_name": "Cole Hanniwell",
        "rank": 70836,
        "rank_sort": 70921,
        "total": 2340
      },
      {
        "club_badge_src": null,
        "entry": 3286824,
        "entry_name": "Livin\u2019 Saliba Loca",
        "event_total": 60,
        "has_played": true,
        "id": 24332044,
        "last_rank": 78244,
        "player_name": "Viren Kohli",
        "rank": 70836,
        "rank_sort": 70922,
        "total": 2340
      },
      {
        "club_badge_src": null,
        "entry": 3341392,
        "entry_name": "The Real Slim Brady",
        "event_total": 38,
        "has_played": true,
        "id": 24783911,
        "last_rank": 40770,
        "player_name": "Andrew Hart",
        "rank": 70836,
        "rank_sort": 70923,
        "total": 2340
      },
      {
        "club_badge_src": null,
        "entry": 3357629,
        "entry_name": "Givenupbyxmas",
        "event_total": 63,
        "has_played": true,
        "id": 24911535,
        "last_rank": 85207,
        "player_name": "Chris Geenes",
        "rank": 70836,
        "rank_sort": 70924,
        "total": 2340
      },
      {
        "club_badge_src": null,
        "entry": 3489794,
        "entry_name": "Two's Kompany",
        "event_total": 52,
        "has_played": true,
        "id": 25953251,
        "last_rank": 62617,
        "player_name": "Joe Campbell",
        "rank": 70836,
        "rank_sort": 70925,
        "total": 2340
      },
      {
        "club_badge_src": null,
        "entry": 3509380,
        "entry_name": "Oddrane",
        "event_total": 77,
        "has_played": true,
        "id": 26111857,
        "last_rank": 109863,
        "player_name": "Odd Kl\u00f8ver\u00f8d",
        "rank": 70836,
        "rank_sort": 70926,
        "total": 2340
      },
      {
        "club_badge_src": null,
        "entry": 3676743,
        "entry_name": "Driter i FPL",
        "event_total": 55,
        "has_played": true,
        "id": 27423051,
        "last_rank": 67926,
        "player_name": "Ole-Martin Sandvik Nyb\u00f8le",
        "rank": 70836,
        "rank_sort": 70927,
        "total": 2340
      },
      {
        "club_badge_src": null,
        "entry": 3744845,
        "entry_name": "Half The World (A)",
        "event_total": 50,
        "has_played": true,
        "id": 27955523,
        "last_rank": 59077,
        "player_name": "William Masters",
        "rank": 70836,
        "rank_sort": 70928,
        "total": 2340
      },
      {
        "club_badge_src": "https://fantasy.premierleague.com/gcs/plfpl-production-adobe-approved/plfpl-production/3823107/cc4dac8c-c4aa-48f9-8776-a916063fc343.png",
        "entry": 3823107,
        "entry_name": "Athletic Dribblers",
        "event_total": 59,
        "has_played": true,
        "id": 28594845,
        "last_rank": 76128,
        "player_name": "Jamie Cheetham",
        "rank": 70836,
        "rank_sort": 70929,
        "total": 2340
      },
      {
        "club_badge_src": "https://fantasy.premierleague.com/gcs/plfpl-production-adobe-approved/plfpl-production/3948345/90033552-5f35-4ea0-ad04-c7843193158f.png",
        "entry": 3948345,
        "entry_name": "Zhimpu Takala FC",
        "event_total": 74,
        "has_played": true,
        "id": 29702617,
        "last_rank": 113223,
        "player_name": "Tshering Phuntsho",
        "rank": 70836,
        "rank_sort": 70930,
        "total": 2340
      },
      {
        "club_badge_src": null,
        "entry": 4085026,
        "entry_name": "Cunha Dig It",
        "event_total": 70,
        "has_played": true,
        "id": 30840274,
        "last_rank": 91835,
        "player_name": "Vishwajeet Singh",
        "rank": 70836,
        "rank_sort": 70931,
        "total": 2340
      },
      {
        "club_badge_src": null,
        "entry": 4134117,
        "entry_name": "El boss",
        "event_total": 61,
        "has_played": true,
        "id": 31241860,
        "last_rank": 80781,
        "player_name": "khalid mousa",
        "rank": 70836,
        "rank_sort": 70932,
        "total": 2340
      },
      {
        "club_badge_src": null,
        "entry": 4177921,
        "entry_name": "Hato Be You",
        "event_total": 54,
        "has_played": true,
        "id": 31603506,
        "last_rank": 58911,
        "player_name": "Nils Christian Svere",
        "rank": 70836,
        "rank_sort": 70933,
        "total": 2340
      },
      {
        "club_badge_src": null,
        "entry": 4229546,
        "entry_name": "iyadrjal",
        "event_total": 58,
        "has_played": true,
        "id": 32045757,
        "last_rank": 66057,
        "player_name": "fadoua rjal",
        "rank": 70836,
        "rank_sort": 70934,
        "total": 2340
      },
      {
        "club_badge_src": null,
        "entry": 4365669,
        "entry_name": "Victoria's Sakaret",
        "event_total": 55,
        "has_played": true,
        "id": 33162606,
        "last_rank": 68107,
        "player_name": "V Seymour",
        "rank": 70836,
        "rank_sort": 70935,
        "total": 2340
      },
      {
        "club_badge_src": "https://fantasy.premierleague.com/gcs/plfpl-production-adobe-approved/plfpl-production/4467044/4f260d4d-111c-4b45-b716-c28a2e21c2b1.png",
        "entry": 4467044,
        "entry_name": "Petr Cech Yourself",
        "event_total": 72,
        "has_played": true,
        "id": 34038476,
        "last_rank": 97096,
        "player_name": "Kai Mycoe",
        "rank": 70836,
        "rank_sort": 70936,
        "total": 2340
      },
      {
        "club_badge_src": null,
        "entry": 4594505,
        "entry_name": "Joe heath****",
        "event_total": 59,
        "has_played": true,
        "id": 35087548,
        "last_rank": 67926,
        "player_name": "Joe heath",
        "rank": 70836,
        "rank_sort": 70937,
        "total": 2340
      },
      {
        "club_badge_src": null,
        "entry": 4619007,
        "entry_name": "One-hit wonder",
        "event_total": 54,
        "has_played": true,
        "id": 35304695,
        "last_rank": 66057,
        "player_name": "Marcus Risa Ouff",
        "rank": 70836,
        "rank_sort": 70938,
        "total": 2340
      },
      {
        "club_badge_src": null,
        "entry": 4626592,
        "entry_name": "Risto",
        "event_total": 59,
        "has_played": true,
        "id": 35372032,
        "last_rank": 76474,
        "player_name": "Risto Saarimaa",
        "rank": 70836,
        "rank_sort": 70939,
        "total": 2340
      },
      {
        "club_badge_src": null,
        "entry": 4701697,
        "entry_name": "Dizzy's Rascals",
        "event_total": 54,
        "has_played": true,
        "id": 36044469,
        "last_rank": 66296,
        "player_name": "Paul Disley",
        "rank": 70836,
        "rank_sort": 70940,
        "total": 2340
      },
      {
        "club_badge_src": null,
        "entry": 4784263,
        "entry_name": "Scrappy",
        "event_total": 65,
        "has_played": true,
        "id": 36830281,
        "last_rank": 80465,
        "player_name": "Chung yeung",
        "rank": 70836,
        "rank_sort": 70941,
        "total": 2340
      },
      {
        "club_badge_src": null,
        "entry": 4891689,
        "entry_name": "Sugar Kane",
        "event_total": 63,
        "has_played": true,
        "id": 37715585,
        "last_rank": 85207,
        "player_name": "Pedro Barbosa",
        "rank": 70836,
        "rank_sort": 70942,
        "total": 2340
      },
      {
        "club_badge_src": null,
        "entry": 4899445,
        "entry_name": "Nepa_Devils",
        "event_total": 57,
        "has_played": true,
        "id": 37779669,
        "last_rank": 72265,
        "player_name": "Rujen Maharjan",
        "rank": 70836,
        "rank_sort": 70943,
        "total": 2340
      },
      {
        "club_badge_src": null,
        "entry": 4940752,
        "entry_name": "Sheva7 Team",
        "event_total": 40,
        "has_played": true,
        "id": 38119991,
        "last_rank": 38163,
        "player_name": "Fahad Alharbi",
        "rank": 70836,
        "rank_sort": 70944,
        "total": 2340
      },
      {
        "club_badge_src": null,
        "entry": 5050071,
        "entry_name": "bruh",
        "event_total": 65,
        "has_played": true,
        "id": 39017878,
        "last_rank": 80465,
        "player_name": "Alejandro Zetina",
        "rank": 70836,
        "rank_sort": 70945,
        "total": 2340
      },
      {
        "club_badge_src": null,
        "entry": 5177510,
        "entry_name": "Pepiki",
        "event_total": 68,
        "has_played": true,
        "id": 40074481,
        "last_rank": 87074,
        "player_name": "Maciek Tr\u0105bski",
        "rank": 70836,
        "rank_sort": 70946,
        "total": 2340
      },
      {
        "club_badge_src": null,
        "entry": 5248430,
        "entry_name": "KareemTheDream",
        "event_total": 77,
        "has_played": true,
        "id": 40676084,
        "last_rank": 122201,
        "player_name": "Kareem Abu hejleh",
        "rank": 70836,
        "rank_sort": 70947,
        "total": 2340
      },
      {
        "club_badge_src": "https://fantasy.premierleague.com/gcs/plfpl-production-adobe-approved/plfpl-production/5486670/ceefd92c-5cc8-4339-9970-e0e581f23f06.png",
        "entry": 5486670,
        "entry_name": "tba",
        "event_total": 68,
        "has_played": true,
        "id": 42727810,
        "last_rank": 97305,
        "player_name": "Darnell Sachi",
        "rank": 70836,
        "rank_sort": 70948,
        "total": 2340
      },
      {
        "club_badge_src": null,
        "entry": 5539882,
        "entry_name": "OJEEN",
        "event_total": 42,
        "has_played": true,
        "id": 43226198,
        "last_rank": 30957,
        "player_name": "Hussain Sahlan",
        "rank": 70836,
        "rank_sort": 70949,
        "total": 2340
      },
      {
        "club_badge_src": null,
        "entry": 5600593,
        "entry_name": "EAB_FC",
        "event_total": 54,
        "has_played": true,
        "id": 43761613,
        "last_rank": 58911,
        "player_name": "Ed B",
        "rank": 70836,
        "rank_sort": 70950,
        "total": 2340
      }
    ]
  }
}