{
  "last_updated_data": "2026-05-24T23:28:17Z",
  "league": {
    "admin_entry": null,
    "closed": false,
    "code_privacy": "p",
    "created": "2025-07-20T23:14:33.933835Z",
    "cup_league": 2815434,
    "has_cup": true,
    "id": 314,
    "league_type": "s",
    "max_entries": null,
    "name": "Overall",
    "rank": null,
    "scoring": "c",
    "start_event": 1
  },
  "new_entries": {
    "has_next": false,
    "page": 1,
    "results": []
  },
  "standings": {
    "has_next": true,
    "page": 421,
    "results": [
      {
        "club_badge_src": null,
        "entry": 530,
        "entry_name": "THUNDERZTRUCK",
        "event_total": 66,
        "has_played": true,
        "id": 2920,
        "last_rank": 24330,
        "player_name": "Lee Underz",
        "rank": 21001,
        "rank_sort": 21001,
        "total": 2379
      },
      {
        "club_badge_src": null,
        "entry": 7038,
        "entry_name": "Bijol and Endo'l",
        "event_total": 57,
        "has_played": true,
        "id": 40527,
        "last_rank": 17718,
        "player_name": "Doohan Vaz",
        "rank": 21001,
        "rank_sort": 21002,
        "total": 2379
      },
      {
        "club_badge_src": null,
        "entry": 11424,
        "entry_name": "Marrecovic",
        "event_total": 56,
        "has_played": true,
        "id": 67919,
        "last_rank": 17078,
        "player_name": "Ant\u00f3nio Arantes",
        "rank": 21001,
        "rank_sort": 21003,
        "total": 2379
      },
      {
        "club_badge_src": "https://fantasy.premierleague.com/gcs/plfpl-production-adobe-approved/plfpl-production/24797/f1cfd6bf-018e-493f-8e04-8cd0d64095eb.png",
        "entry": 24797,
        "entry_name": "Nummer 1",
        "event_total": 73,
        "has_played": true,
        "id": 156597,
        "last_rank": 35424,
        "player_name": "Lukas Stenelo",
        "rank": 21001,
        "rank_sort": 21004,
        "total": 2379
      },
      {
        "club_badge_src": null,
        "entry": 58192,
        "entry_name": "Rafa Bon\u00edtez",
        "event_total": 62,
        "has_played": true,
        "id": 374876,
        "last_rank": 21301,
        "player_name": "George Hingston",
        "rank": 21001,
        "rank_sort": 21005,
        "total": 2379
      },
      {
        "club_badge_src": "https://fantasy.premierleague.com/gcs/plfpl-production-adobe-approved/plfpl-production/62295/7e734f5f-4266-47b6-89f2-3bfb22c64487.png",
        "entry": 62295,
        "entry_name": "Tarikk",
        "event_total": 49,
        "has_played": true,
        "id": 401453,
        "last_rank": 15226,
        "player_name": "Tarik Kaplan",
        "rank": 21001,
        "rank_sort": 21006,
        "total": 2379
      },
      {
        "club_badge_src": null,
        "entry": 73018,
        "entry_name": "\u00a9\uff29 AM @ $p\u20acCi@L ON\u03a3#",
        "event_total": 68,
        "has_played": true,
        "id": 474589,
        "last_rank": 26230,
        "player_name": "Piyawat Wongloa",
        "rank": 21001,
        "rank_sort": 21007,
        "total": 2379
      },
      {
        "club_badge_src": null,
        "entry": 73567,
        "entry_name": "Just Mo with the Flo",
        "event_total": 68,
        "has_played": true,
        "id": 478171,
        "last_rank": 26230,
        "player_name": "Nathan Lake",
        "rank": 21001,
        "rank_sort": 21008,
        "total": 2379
      },
      {
        "club_badge_src": null,
        "entry": 75261,
        "entry_name": "lawtons legends",
        "event_total": 66,
        "has_played": true,
        "id": 489291,
        "last_rank": 24475,
        "player_name": "Shaun Lawton",
        "rank": 21001,
        "rank_sort": 21009,
        "total": 2379
      },
      {
        "club_badge_src": "https://fantasy.premierleague.com/gcs/plfpl-production-adobe-approved/plfpl-production/82096/c5280d13-85fb-41e1-9d16-7422dc198147.png",
        "entry": 82096,
        "entry_name": "My (c) Always Blanks",
        "event_total": 61,
        "has_played": true,
        "id": 534109,
        "last_rank": 17585,
        "player_name": "BARNABY WESTWATER JONES",
        "rank": 21001,
        "rank_sort": 21010,
        "total": 2379
      },
      {
        "club_badge_src": null,
        "entry": 85214,
        "entry_name": "On Giants' Shoulders",
        "event_total": 59,
        "has_played": true,
        "id": 554883,
        "last_rank": 19103,
        "player_name": "Jeff McGow",
        "rank": 21001,
        "rank_sort": 21011,
        "total": 2379
      },
      {
        "club_badge_src": null,
        "entry": 110351,
        "entry_name": "MDFC",
        "event_total": 49,
        "has_played": true,
        "id": 719685,
        "last_rank": 15164,
        "player_name": "Matt Deng",
        "rank": 21001,
        "rank_sort": 21012,
        "total": 2379
      },
      {
        "club_badge_src": "https://fantasy.premierleague.com/gcs/plfpl-production-adobe-approved/plfpl-production/115631/12aff23f-832c-4865-be5b-fc2ad76b809d.png",
        "entry": 115631,
        "entry_name": "Maguire & Mis\u00e4ren",
        "event_total": 53,
        "has_played": true,
        "id": 754695,
        "last_rank": 17802,
        "player_name": "Robin Jakobsson",
        "rank": 21001,
        "rank_sort": 21013,
        "total": 2379
      },
      {
        "club_badge_src": null,
        "entry": 118041,
        "entry_name": "Brisk FC",
        "event_total": 60,
        "has_played": true,
        "id": 770391,
        "last_rank": 22921,
        "player_name": "Kishor Ravindran",
        "rank": 21001,
        "rank_sort": 21014,
        "total": 2379
      },
      {
        "club_badge_src": "https://fantasy.premierleague.com/gcs/plfpl-production-adobe-approved/plfpl-production/162636/392b7b8c-a221-4e5a-9911-9581b1ba86b5.png",
        "entry": 162636,
        "entry_name": "Taktaka F.C. 8.0",
        "event_total": 66,
        "has_played": true,
        "id": 1072195,
        "last_rank": 28150,
        "player_name": "Mohamed Labib",
        "rank": 21001,
        "rank_sort": 21015,
        "total": 2379
      },
      {
        "club_badge_src": null,
        "entry": 163463,
        "entry_name": "Top Of The Klopps",
        "event_total": 71,
        "has_played": true,
        "id": 1078180,
        "last_rank": 33483,
        "player_name": "Max Rowlinson",
        "rank": 21001,
        "rank_sort": 21016,
        "total": 2379
      },
      {
        "club_badge_src": "https://fantasy.premierleague.com/gcs/plfpl-production-adobe-approved/plfpl-production/198781/d37ca1ab-7fe1-4444-8b4a-86f6966800b0.png",
        "entry": 198781,
        "entry_name": "MaduAK47",
        "event_total": 58,
        "has_played": true,
        "id": 1319171,
        "last_rank": 21450,
        "player_name": "Charles Stafford-Rose",
        "rank": 21001,
        "rank_sort": 21017,
        "total": 2379
      },
      {
        "club_badge_src": null,
        "entry": 219857,
        "entry_name": "Knickerbocker Glory",
        "event_total": 52,
        "has_played": true,
        "id": 1462191,
        "last_rank": 14604,
        "player_name": "Neill McNicholl",
        "rank": 21001,
        "rank_sort": 21018,
        "total": 2379
      },
      {
        "club_badge_src": null,
        "entry": 229986,
        "entry_name": "On Porro'D Time",
        "event_total": 63,
        "has_played": true,
        "id": 1530093,
        "last_rank": 22064,
        "player_name": "Louis Newson",
        "rank": 21001,
        "rank_sort": 21019,
        "total": 2379
      },
      {
        "club_badge_src": null,
        "entry": 241488,
        "entry_name": "Svinepels",
        "event_total": 67,
        "has_played": true,
        "id": 1607373,
        "last_rank": 28906,
        "player_name": "Frode Hovland Egge",
        "rank": 21001,
        "rank_sort": 21020,
        "total": 2379
      },
      {
        "club_badge_src": null,
        "entry": 250572,
        "entry_name": "Raminom",
        "event_total": 51,
        "has_played": true,
        "id": 1667117,
        "last_rank": 16567,
        "player_name": "The Special One",
        "rank": 21001,
        "rank_sort": 21021,
        "total": 2379
      },
      {
        "club_badge_src": null,
        "entry": 283347,
        "entry_name": "Welly Gang",
        "event_total": 46,
        "has_played": true,
        "id": 1886346,
        "last_rank": 13558,
        "player_name": "Ian Welly Jones",
        "rank": 21001,
        "rank_sort": 21022,
        "total": 2379
      },
      {
        "club_badge_src": null,
        "entry": 290996,
        "entry_name": "Unc Caicedo Lost",
        "event_total": 65,
        "has_played": true,
        "id": 1940734,
        "last_rank": 27304,
        "player_name": "Miro Santala",
        "rank": 21001,
        "rank_sort": 21023,
        "total": 2379
      },
      {
        "club_badge_src": null,
        "entry": 438333,
        "entry_name": "Scottys XI",
        "event_total": 71,
        "has_played": true,
        "id": 2939289,
        "last_rank": 29071,
        "player_name": "Scott Hardiman",
        "rank": 21001,
        "rank_sort": 21024,
        "total": 2379
      },
      {
        "club_badge_src": null,
        "entry": 470471,
        "entry_name": "Bellingham Forest",
        "event_total": 56,
        "has_played": true,
        "id": 3158215,
        "last_rank": 16959,
        "player_name": "Damian G\u00f3rniak",
        "rank": 21001,
        "rank_sort": 21025,
        "total": 2379
      },
      {
        "club_badge_src": "https://fantasy.premierleague.com/gcs/plfpl-production-adobe-approved/plfpl-production/642166/ccf55ded-fdc2-4617-8215-90878d4be915.png",
        "entry": 642166,
        "entry_name": "Slotball",
        "event_total": 54,
        "has_played": true,
        "id": 4340026,
        "last_rank": 15797,
        "player_name": "Mohamed Irfan",
        "rank": 21001,
        "rank_sort": 21026,
        "total": 2379
      },
      {
        "club_badge_src": null,
        "entry": 669103,
        "entry_name": "ThomasTheFrankEngine",
        "event_total": 72,
        "has_played": true,
        "id": 4524986,
        "last_rank": 29904,
        "player_name": "Sheila Maguire",
        "rank": 21001,
        "rank_sort": 21027,
        "total": 2379
      },
      {
        "club_badge_src": null,
        "entry": 674142,
        "entry_name": "Tollie United",
        "event_total": 72,
        "has_played": true,
        "id": 4560471,
        "last_rank": 34458,
        "player_name": "Mahmood Williams",
        "rank": 21001,
        "rank_sort": 21028,
        "total": 2379
      },
      {
        "club_badge_src": null,
        "entry": 732340,
        "entry_name": "Gittens In There",
        "event_total": 56,
        "has_played": true,
        "id": 4976525,
        "last_rank": 19904,
        "player_name": "David Bickham",
        "rank": 21001,
        "rank_sort": 21029,
        "total": 2379
      },
      {
        "club_badge_src": "https://fantasy.premierleague.com/gcs/plfpl-production-adobe-approved/plfpl-production/800717/b1240fd0-59bd-4a10-8559-1ddd11f7a4d5.png",
        "entry": 800717,
        "entry_name": "TOFFEEGODS",
        "event_total": 54,
        "has_played": true,
        "id": 5480872,
        "last_rank": 18475,
        "player_name": "RICHARD DELAHUNTY",
        "rank": 21001,
        "rank_sort": 21030,
        "total": 2379
      },
      {
        "club_badge_src": null,
        "entry": 836815,
        "entry_name": "Cunha Believe it!",
        "event_total": 68,
        "has_played": true,
        "id": 5732499,
        "last_rank": 30060,
        "player_name": "Paddy Matthews",
        "rank": 21001,
        "rank_sort": 21031,
        "total": 2379
      },
      {
        "club_badge_src": null,
        "entry": 879339,
        "entry_name": "Captain Colby xxi",
        "event_total": 69,
        "has_played": true,
        "id": 6029940,
        "last_rank": 27203,
        "player_name": "Paul McDonagh",
        "rank": 21001,
        "rank_sort": 21032,
        "total": 2379
      },
      {
        "club_badge_src": null,
        "entry": 895574,
        "entry_name": "Reservoir Dogs",
        "event_total": 63,
        "has_played": true,
        "id": 6152272,
        "last_rank": 25436,
        "player_name": "Jordan Stewart",
        "rank": 21001,
        "rank_sort": 21033,
        "total": 2379
      },
      {
        "club_badge_src": null,
        "entry": 941540,
        "entry_name": "Lokomotiv Fidje",
        "event_total": 71,
        "has_played": true,
        "id": 6482621,
        "last_rank": 29071,
        "player_name": "Knut Stian Fidje Andersen",
        "rank": 21001,
        "rank_sort": 21034,
        "total": 2379
      },
      {
        "club_badge_src": "https://fantasy.premierleague.com/gcs/plfpl-production-adobe-approved/plfpl-production/1098518/184979b8-5a4c-4b22-803f-9fb84046e465.png",
        "entry": 1098518,
        "entry_name": "ODUMODUWHITE F.C",
        "event_total": 51,
        "has_played": true,
        "id": 7608923,
        "last_rank": 16512,
        "player_name": "Olawale Aborowa",
        "rank": 21001,
        "rank_sort": 21035,
        "total": 2379
      },
      {
        "club_badge_src": null,
        "entry": 1200299,
        "entry_name": "Delap Dance",
        "event_total": 68,
        "has_played": true,
        "id": 8329456,
        "last_rank": 30060,
        "player_name": "Parsa Eshragh",
        "rank": 21001,
        "rank_sort": 21036,
        "total": 2379
      },
      {
        "club_badge_src": null,
        "entry": 1370371,
        "entry_name": "Blank Generation",
        "event_total": 62,
        "has_played": true,
        "id": 9525762,
        "last_rank": 21301,
        "player_name": "nigel colby",
        "rank": 21001,
        "rank_sort": 21037,
        "total": 2379
      },
      {
        "club_badge_src": null,
        "entry": 1386167,
        "entry_name": "Livin' Saliba Loca",
        "event_total": 62,
        "has_played": true,
        "id": 9641340,
        "last_rank": 24475,
        "player_name": "Bart\u0142omiej Cichocki",
        "rank": 21001,
        "rank_sort": 21038,
        "total": 2379
      },
      {
        "club_badge_src": null,
        "entry": 1435084,
        "entry_name": "Tsikisto FC",
        "event_total": 69,
        "has_played": true,
        "id": 9999749,
        "last_rank": 31125,
        "player_name": "Taoana Tsiki",
        "rank": 21001,
        "rank_sort": 21039,
        "total": 2379
      },
      {
        "club_badge_src": null,
        "entry": 1508392,
        "entry_name": "Merseyside blue",
        "event_total": 60,
        "has_played": true,
        "id": 10520141,
        "last_rank": 22685,
        "player_name": "Andrew Williamson",
        "rank": 21001,
        "rank_sort": 21040,
        "total": 2379
      },
      {
        "club_badge_src": null,
        "entry": 1596958,
        "entry_name": "Cheesey Wotsits",
        "event_total": 65,
        "has_played": true,
        "id": 11171297,
        "last_rank": 23656,
        "player_name": "Matthew Pollard",
        "rank": 21001,
        "rank_sort": 21041,
        "total": 2379
      },
      {
        "club_badge_src": null,
        "entry": 1733243,
        "entry_name": "NINETEEN ELEVEN",
        "event_total": 67,
        "has_played": true,
        "id": 12158024,
        "last_rank": 29199,
        "player_name": "AANN Juliant",
        "rank": 21001,
        "rank_sort": 21042,
        "total": 2379
      },
      {
        "club_badge_src": null,
        "entry": 1945377,
        "entry_name": "Change Name",
        "event_total": 55,
        "has_played": true,
        "id": 13722441,
        "last_rank": 16320,
        "player_name": "b1 .",
        "rank": 21001,
        "rank_sort": 21043,
        "total": 2379
      },
      {
        "club_badge_src": null,
        "entry": 2051437,
        "entry_name": "Haaland = GOAT",
        "event_total": 80,
        "has_played": true,
        "id": 14530639,
        "last_rank": 44804,
        "player_name": "Indy Awesome",
        "rank": 21001,
        "rank_sort": 21044,
        "total": 2379
      },
      {
        "club_badge_src": "https://fantasy.premierleague.com/gcs/plfpl-production-adobe-approved/plfpl-production/2062983/6d904be1-3f7a-469b-af39-f1ec2b05ce46.png",
        "entry": 2062983,
        "entry_name": "Thursday Beerday",
        "event_total": 60,
        "has_played": true,
        "id": 14617811,
        "last_rank": 19835,
        "player_name": "Panagis Zafiriou",
        "rank": 21001,
        "rank_sort": 21045,
        "total": 2379
      },
      {
        "club_badge_src": null,
        "entry": 2311992,
        "entry_name": "\u9ed1\u624b\u9ee8",
        "event_total": 64,
        "has_played": true,
        "id": 16491676,
        "last_rank": 26345,
        "player_name": "Bei Guo",
        "rank": 21001,
        "rank_sort": 21046,
        "total": 2379
      },
      {
        "club_badge_src": null,
        "entry": 2390413,
        "entry_name": "Ostakaka",
        "event_total": 74,
        "has_played": true,
        "id": 17075193,
        "last_rank": 27770,
        "player_name": "Otto Hakonarson",
        "rank": 21001,
        "rank_sort": 21047,
        "total": 2379
      },
      {
        "club_badge_src": null,
        "entry": 2411640,
        "entry_name": "Walk Alone FC",
        "event_total": 54,
        "has_played": true,
        "id": 17239300,
        "last_rank": 15797,
        "player_name": "Svein Olav Hansen",
        "rank": 21001,
        "rank_sort": 21048,
        "total": 2379
      },
      {
        "club_badge_src": null,
        "entry": 2481218,
        "entry_name": "SinganewsongEkitike",
        "event_total": 61,
        "has_played": true,
        "id": 17753996,
        "last_rank": 20538,
        "player_name": "Alistair Andrews",
        "rank": 21001,
        "rank_sort": 21049,
        "total": 2379
      },
      {
        "club_badge_src": null,
        "entry": 2532960,
        "entry_name": "cant stop winning !",
        "event_total": 66,
        "has_played": true,
        "id": 18151265,
        "last_rank": 24475,
        "player_name": "Sam Football",
        "rank": 21001,
        "rank_sort": 21050,
        "total": 2379
      }
    ]
  }
}