{
  "last_updated_data": "2026-05-24T23:28:17Z",
  "league": {
    "admin_entry": null,
    "closed": false,
    "code_privacy": "p",
    "created": "2025-07-20T23:14:33.933835Z",
    "cup_league": 2815434,
    "has_cup": true,
    "id": 314,
    "league_type": "s",
    "max_entries": null,
    "name": "Overall",
    "rank": null,
    "scoring": "c",
    "start_event": 1
  },
  "new_entries": {
    "has_next": false,
    "page": 1,
    "results": []
  },
  "standings": {
    "has_next": true,
    "page": 1329,
    "results": [
      {
        "club_badge_src": null,
        "entry": 345605,
        "entry_name": "The Konate Kid",
        "event_total": 59,
        "has_played": true,
        "id": 2313453,
        "last_rank": 70985,
        "player_name": "Matt Barron",
        "rank": 66338,
        "rank_sort": 66401,
        "total": 2342
      },
      {
        "club_badge_src": null,
        "entry": 368121,
        "entry_name": "Hacunha Mateta",
        "event_total": 51,
        "has_played": true,
        "id": 2463467,
        "last_rank": 49880,
        "player_name": "Bendik Skj\u00f8nhaug",
        "rank": 66338,
        "rank_sort": 66402,
        "total": 2342
      },
      {
        "club_badge_src": null,
        "entry": 393003,
        "entry_name": "Good, no?",
        "event_total": 41,
        "has_played": true,
        "id": 2635916,
        "last_rank": 36348,
        "player_name": "Isak Goodnoe",
        "rank": 66338,
        "rank_sort": 66403,
        "total": 2342
      },
      {
        "club_badge_src": "https://fantasy.premierleague.com/gcs/plfpl-production-adobe-approved/plfpl-production/428222/9d107728-ad1e-4523-a8bf-9d8da2888aac.png",
        "entry": 428222,
        "entry_name": "C.A. PE\u00d1AROL",
        "event_total": 76,
        "has_played": true,
        "id": 2872216,
        "last_rank": 111669,
        "player_name": "Joaquin Aguerre",
        "rank": 66338,
        "rank_sort": 66404,
        "total": 2342
      },
      {
        "club_badge_src": null,
        "entry": 438407,
        "entry_name": "Partey's playground",
        "event_total": 52,
        "has_played": true,
        "id": 2939813,
        "last_rank": 51403,
        "player_name": "Zakari Amassoul",
        "rank": 66338,
        "rank_sort": 66405,
        "total": 2342
      },
      {
        "club_badge_src": null,
        "entry": 452534,
        "entry_name": "Shah07",
        "event_total": 65,
        "has_played": true,
        "id": 3035803,
        "last_rank": 83934,
        "player_name": "Moammar Shah",
        "rank": 66338,
        "rank_sort": 66406,
        "total": 2342
      },
      {
        "club_badge_src": null,
        "entry": 453877,
        "entry_name": "\ufffd \ufffd",
        "event_total": 56,
        "has_played": true,
        "id": 3044613,
        "last_rank": 65163,
        "player_name": "Sami Boudad",
        "rank": 66338,
        "rank_sort": 66407,
        "total": 2342
      },
      {
        "club_badge_src": null,
        "entry": 467851,
        "entry_name": "FC Zeno",
        "event_total": 42,
        "has_played": true,
        "id": 3139665,
        "last_rank": 42940,
        "player_name": "Michal Danko",
        "rank": 66338,
        "rank_sort": 66408,
        "total": 2342
      },
      {
        "club_badge_src": null,
        "entry": 478013,
        "entry_name": "Rosinante",
        "event_total": 52,
        "has_played": true,
        "id": 3209096,
        "last_rank": 58071,
        "player_name": "Meron Tesfay",
        "rank": 66338,
        "rank_sort": 66409,
        "total": 2342
      },
      {
        "club_badge_src": null,
        "entry": 485903,
        "entry_name": "Here we Mike again",
        "event_total": 46,
        "has_played": true,
        "id": 3261879,
        "last_rank": 48363,
        "player_name": "James Bastow",
        "rank": 66338,
        "rank_sort": 66410,
        "total": 2342
      },
      {
        "club_badge_src": null,
        "entry": 502784,
        "entry_name": "Frimping Pong",
        "event_total": 75,
        "has_played": true,
        "id": 3374769,
        "last_rank": 108959,
        "player_name": "Jack Prince",
        "rank": 66338,
        "rank_sort": 66411,
        "total": 2342
      },
      {
        "club_badge_src": null,
        "entry": 543791,
        "entry_name": "Ma'sSaka's",
        "event_total": 60,
        "has_played": true,
        "id": 3659745,
        "last_rank": 73038,
        "player_name": "Shaun O'Mahony",
        "rank": 66338,
        "rank_sort": 66412,
        "total": 2342
      },
      {
        "club_badge_src": null,
        "entry": 572809,
        "entry_name": "Rizzle Kicks",
        "event_total": 58,
        "has_played": true,
        "id": 3855024,
        "last_rank": 61606,
        "player_name": "Riz Dusoye",
        "rank": 66338,
        "rank_sort": 66413,
        "total": 2342
      },
      {
        "club_badge_src": null,
        "entry": 594665,
        "entry_name": "THE BLUES",
        "event_total": 60,
        "has_played": true,
        "id": 4008321,
        "last_rank": 73423,
        "player_name": "J L",
        "rank": 66338,
        "rank_sort": 66414,
        "total": 2342
      },
      {
        "club_badge_src": null,
        "entry": 597776,
        "entry_name": "Stingy Wenger",
        "event_total": 63,
        "has_played": true,
        "id": 4031300,
        "last_rank": 70985,
        "player_name": "Sushrut Kokane",
        "rank": 66338,
        "rank_sort": 66415,
        "total": 2342
      },
      {
        "club_badge_src": null,
        "entry": 605629,
        "entry_name": "gavad3_11",
        "event_total": 67,
        "has_played": true,
        "id": 4089103,
        "last_rank": 89055,
        "player_name": "Vishal Gavad3",
        "rank": 66338,
        "rank_sort": 66416,
        "total": 2342
      },
      {
        "club_badge_src": null,
        "entry": 606066,
        "entry_name": "Kinder Mbeumo",
        "event_total": 65,
        "has_played": true,
        "id": 4092306,
        "last_rank": 84360,
        "player_name": "Denise Schult",
        "rank": 66338,
        "rank_sort": 66417,
        "total": 2342
      },
      {
        "club_badge_src": null,
        "entry": 611932,
        "entry_name": "Slot of the Klopps",
        "event_total": 70,
        "has_played": true,
        "id": 4134764,
        "last_rank": 86304,
        "player_name": "Robert Brundish",
        "rank": 66338,
        "rank_sort": 66418,
        "total": 2342
      },
      {
        "club_badge_src": "https://fantasy.premierleague.com/gcs/plfpl-production-adobe-approved/plfpl-production/614465/cf84e5a1-e59a-45e4-b3de-beffffa2f5e6.png",
        "entry": 614465,
        "entry_name": "Flo motion",
        "event_total": 67,
        "has_played": true,
        "id": 4151949,
        "last_rank": 88594,
        "player_name": "Jonatan Freyr",
        "rank": 66338,
        "rank_sort": 66419,
        "total": 2342
      },
      {
        "club_badge_src": null,
        "entry": 623081,
        "entry_name": "Beer and gear",
        "event_total": 55,
        "has_played": true,
        "id": 4210764,
        "last_rank": 63724,
        "player_name": "Aaron West",
        "rank": 66338,
        "rank_sort": 66420,
        "total": 2342
      },
      {
        "club_badge_src": null,
        "entry": 655177,
        "entry_name": "manciiniii",
        "event_total": 68,
        "has_played": true,
        "id": 4427788,
        "last_rank": 90746,
        "player_name": "Ben Mancini",
        "rank": 66338,
        "rank_sort": 66421,
        "total": 2342
      },
      {
        "club_badge_src": null,
        "entry": 670889,
        "entry_name": "Catch Me If You Can",
        "event_total": 52,
        "has_played": true,
        "id": 4537613,
        "last_rank": 58688,
        "player_name": "Richard Phillips",
        "rank": 66338,
        "rank_sort": 66422,
        "total": 2342
      },
      {
        "club_badge_src": null,
        "entry": 675226,
        "entry_name": "Sadlinhooooooooooooo",
        "event_total": 42,
        "has_played": true,
        "id": 4568128,
        "last_rank": 42940,
        "player_name": "Dave Sadler",
        "rank": 66338,
        "rank_sort": 66423,
        "total": 2342
      },
      {
        "club_badge_src": null,
        "entry": 675616,
        "entry_name": "WANTAM 022",
        "event_total": 57,
        "has_played": true,
        "id": 4570866,
        "last_rank": 67422,
        "player_name": "Kamos Wanjiru",
        "rank": 66338,
        "rank_sort": 66424,
        "total": 2342
      },
      {
        "club_badge_src": null,
        "entry": 675940,
        "entry_name": "Gastarbajteri",
        "event_total": 57,
        "has_played": true,
        "id": 4573051,
        "last_rank": 67422,
        "player_name": "Damjan Rodic",
        "rank": 66338,
        "rank_sort": 66425,
        "total": 2342
      },
      {
        "club_badge_src": null,
        "entry": 684008,
        "entry_name": "Zubi dooby doo!",
        "event_total": 61,
        "has_played": true,
        "id": 4629700,
        "last_rank": 74898,
        "player_name": "Danny Creak",
        "rank": 66338,
        "rank_sort": 66426,
        "total": 2342
      },
      {
        "club_badge_src": null,
        "entry": 684904,
        "entry_name": "What Defence?",
        "event_total": 65,
        "has_played": true,
        "id": 4635905,
        "last_rank": 83698,
        "player_name": "Deane Lawson",
        "rank": 66338,
        "rank_sort": 66427,
        "total": 2342
      },
      {
        "club_badge_src": null,
        "entry": 685033,
        "entry_name": "bottlejobs",
        "event_total": 67,
        "has_played": true,
        "id": 4636802,
        "last_rank": 89055,
        "player_name": "David Donnelly",
        "rank": 66338,
        "rank_sort": 66428,
        "total": 2342
      },
      {
        "club_badge_src": null,
        "entry": 717441,
        "entry_name": "Bruno dos tres",
        "event_total": 70,
        "has_played": true,
        "id": 4868053,
        "last_rank": 86304,
        "player_name": "Ollie Walker",
        "rank": 66338,
        "rank_sort": 66429,
        "total": 2342
      },
      {
        "club_badge_src": null,
        "entry": 739729,
        "entry_name": "Dan United",
        "event_total": 67,
        "has_played": true,
        "id": 5029609,
        "last_rank": 88594,
        "player_name": "Dan Burgess",
        "rank": 66338,
        "rank_sort": 66430,
        "total": 2342
      },
      {
        "club_badge_src": null,
        "entry": 757411,
        "entry_name": "They Tsimi Rollin",
        "event_total": 65,
        "has_played": true,
        "id": 5158617,
        "last_rank": 75139,
        "player_name": "Tejan Patel",
        "rank": 66338,
        "rank_sort": 66431,
        "total": 2342
      },
      {
        "club_badge_src": null,
        "entry": 768564,
        "entry_name": "Kai About It",
        "event_total": 68,
        "has_played": true,
        "id": 5242078,
        "last_rank": 81420,
        "player_name": "jim byrne",
        "rank": 66338,
        "rank_sort": 66432,
        "total": 2342
      },
      {
        "club_badge_src": "https://fantasy.premierleague.com/gcs/plfpl-production-adobe-approved/plfpl-production/794022/60a31955-022f-401e-94a7-af70477435c2.png",
        "entry": 794022,
        "entry_name": "Forever #20",
        "event_total": 73,
        "has_played": true,
        "id": 5433924,
        "last_rank": 103978,
        "player_name": "Francisco Gaiv\u00e3o",
        "rank": 66338,
        "rank_sort": 66433,
        "total": 2342
      },
      {
        "club_badge_src": "https://fantasy.premierleague.com/gcs/plfpl-production-adobe-approved/plfpl-production/812780/bac5fd19-b384-42f4-b2b5-685887be8692.png",
        "entry": 812780,
        "entry_name": "Dead Target\u2620\ufe0f",
        "event_total": 69,
        "has_played": true,
        "id": 5565078,
        "last_rank": 93883,
        "player_name": "Uduak Akpan",
        "rank": 66338,
        "rank_sort": 66434,
        "total": 2342
      },
      {
        "club_badge_src": null,
        "entry": 818488,
        "entry_name": "VO XI",
        "event_total": 57,
        "has_played": true,
        "id": 5605420,
        "last_rank": 67422,
        "player_name": "Steve Williams",
        "rank": 66338,
        "rank_sort": 66435,
        "total": 2342
      },
      {
        "club_badge_src": null,
        "entry": 824914,
        "entry_name": "FC Defcon",
        "event_total": 68,
        "has_played": true,
        "id": 5649715,
        "last_rank": 91006,
        "player_name": "Sir \u00d6zgurson",
        "rank": 66338,
        "rank_sort": 66436,
        "total": 2342
      },
      {
        "club_badge_src": null,
        "entry": 852686,
        "entry_name": "Cunha Believe It",
        "event_total": 52,
        "has_played": true,
        "id": 5844623,
        "last_rank": 51403,
        "player_name": "Benson Le",
        "rank": 66338,
        "rank_sort": 66437,
        "total": 2342
      },
      {
        "club_badge_src": null,
        "entry": 906322,
        "entry_name": "Whistler Whites",
        "event_total": 55,
        "has_played": true,
        "id": 6229922,
        "last_rank": 63390,
        "player_name": "K Wood",
        "rank": 66338,
        "rank_sort": 66438,
        "total": 2342
      },
      {
        "club_badge_src": "https://fantasy.premierleague.com/gcs/plfpl-production-adobe-approved/plfpl-production/931420/467f390b-1dbb-42f3-9f74-12bb9d81f27a.png",
        "entry": 931420,
        "entry_name": "Its Football No Saka",
        "event_total": 47,
        "has_played": true,
        "id": 6409057,
        "last_rank": 44048,
        "player_name": "Vojt\u011bch Mart\u00ednek",
        "rank": 66338,
        "rank_sort": 66439,
        "total": 2342
      },
      {
        "club_badge_src": null,
        "entry": 943702,
        "entry_name": "Ask FC",
        "event_total": 53,
        "has_played": true,
        "id": 6499753,
        "last_rank": 60168,
        "player_name": "Kent Skogsrud",
        "rank": 66338,
        "rank_sort": 66440,
        "total": 2342
      },
      {
        "club_badge_src": "https://fantasy.premierleague.com/gcs/plfpl-production-adobe-approved/plfpl-production/946027/dcf8c9d6-7c03-48d9-b1b4-980f5f4440a2.png",
        "entry": 946027,
        "entry_name": "D\u00f8dens Dal",
        "event_total": 58,
        "has_played": true,
        "id": 6515977,
        "last_rank": 68957,
        "player_name": "Oskar Hammari",
        "rank": 66338,
        "rank_sort": 66441,
        "total": 2342
      },
      {
        "club_badge_src": null,
        "entry": 958476,
        "entry_name": "Didsco Dancers",
        "event_total": 49,
        "has_played": true,
        "id": 6604503,
        "last_rank": 53023,
        "player_name": "Pratik Didwania",
        "rank": 66338,
        "rank_sort": 66442,
        "total": 2342
      },
      {
        "club_badge_src": null,
        "entry": 962290,
        "entry_name": "43Time2",
        "event_total": 71,
        "has_played": true,
        "id": 6631432,
        "last_rank": 98073,
        "player_name": "Adam Haward",
        "rank": 66338,
        "rank_sort": 66443,
        "total": 2342
      },
      {
        "club_badge_src": null,
        "entry": 984013,
        "entry_name": "Botman Begins",
        "event_total": 61,
        "has_played": true,
        "id": 6784362,
        "last_rank": 67063,
        "player_name": "Ryan Townsend",
        "rank": 66338,
        "rank_sort": 66444,
        "total": 2342
      },
      {
        "club_badge_src": "https://fantasy.premierleague.com/gcs/plfpl-production-adobe-approved/plfpl-production/991630/eef19515-b35b-400d-af1d-b6f5d4c83ef5.png",
        "entry": 991630,
        "entry_name": "Mohling Salaaland",
        "event_total": 60,
        "has_played": true,
        "id": 6837504,
        "last_rank": 73423,
        "player_name": "Ben Hirst",
        "rank": 66338,
        "rank_sort": 66445,
        "total": 2342
      },
      {
        "club_badge_src": null,
        "entry": 995886,
        "entry_name": "Paint Fumes FC",
        "event_total": 39,
        "has_played": true,
        "id": 6874916,
        "last_rank": 39023,
        "player_name": "Mark Henderson",
        "rank": 66338,
        "rank_sort": 66446,
        "total": 2342
      },
      {
        "club_badge_src": null,
        "entry": 1005281,
        "entry_name": "MKZoes",
        "event_total": 54,
        "has_played": true,
        "id": 6949330,
        "last_rank": 61606,
        "player_name": "Zoe Field",
        "rank": 66338,
        "rank_sort": 66447,
        "total": 2342
      },
      {
        "club_badge_src": null,
        "entry": 1008547,
        "entry_name": "1 Delap dance pleez",
        "event_total": 56,
        "has_played": true,
        "id": 6972813,
        "last_rank": 65475,
        "player_name": "Matty Turpie",
        "rank": 66338,
        "rank_sort": 66448,
        "total": 2342
      },
      {
        "club_badge_src": null,
        "entry": 1037022,
        "entry_name": "He wears the No. 20",
        "event_total": 56,
        "has_played": true,
        "id": 7176281,
        "last_rank": 57857,
        "player_name": "Hardeep Sidhu",
        "rank": 66338,
        "rank_sort": 66449,
        "total": 2342
      },
      {
        "club_badge_src": "https://fantasy.premierleague.com/gcs/plfpl-production-adobe-approved/plfpl-production/1045120/142a3267-037f-4058-99da-d0da236cb533.png",
        "entry": 1045120,
        "entry_name": "Earth,Wind&Maguire",
        "event_total": 61,
        "has_played": true,
        "id": 7232903,
        "last_rank": 75537,
        "player_name": "Stijn Meesters",
        "rank": 66338,
        "rank_sort": 66450,
        "total": 2342
      }
    ]
  }
}