{
  "last_updated_data": "2026-05-24T23:28:17Z",
  "league": {
    "admin_entry": null,
    "closed": false,
    "code_privacy": "p",
    "created": "2025-07-20T23:14:33.933835Z",
    "cup_league": 2815434,
    "has_cup": true,
    "id": 314,
    "league_type": "s",
    "max_entries": null,
    "name": "Overall",
    "rank": null,
    "scoring": "c",
    "start_event": 1
  },
  "new_entries": {
    "has_next": false,
    "page": 1,
    "results": []
  },
  "standings": {
    "has_next": true,
    "page": 1483,
    "results": [
      {
        "club_badge_src": null,
        "entry": 1151546,
        "entry_name": "FC Dubayern Choclate",
        "event_total": 60,
        "has_played": true,
        "id": 7984365,
        "last_rank": 82069,
        "player_name": "Ben Jowett",
        "rank": 73983,
        "rank_sort": 74101,
        "total": 2338
      },
      {
        "club_badge_src": null,
        "entry": 1158028,
        "entry_name": "Bloodhounds",
        "event_total": 71,
        "has_played": true,
        "id": 8030031,
        "last_rank": 109454,
        "player_name": "Paul Stephan",
        "rank": 73983,
        "rank_sort": 74102,
        "total": 2338
      },
      {
        "club_badge_src": null,
        "entry": 1159271,
        "entry_name": "Nassir",
        "event_total": 80,
        "has_played": true,
        "id": 8040692,
        "last_rank": 136624,
        "player_name": "Nassire Okil",
        "rank": 73983,
        "rank_sort": 74103,
        "total": 2338
      },
      {
        "club_badge_src": null,
        "entry": 1205739,
        "entry_name": "FC Keej",
        "event_total": 53,
        "has_played": true,
        "id": 8367551,
        "last_rank": 67422,
        "player_name": "Kijaun Wilkinson",
        "rank": 73983,
        "rank_sort": 74104,
        "total": 2338
      },
      {
        "club_badge_src": null,
        "entry": 1235871,
        "entry_name": "Giroud: Sandstorm",
        "event_total": 68,
        "has_played": true,
        "id": 8582079,
        "last_rank": 90746,
        "player_name": "Alasdair Shaw",
        "rank": 73983,
        "rank_sort": 74105,
        "total": 2338
      },
      {
        "club_badge_src": null,
        "entry": 1243751,
        "entry_name": "Theatre of Dreams",
        "event_total": 54,
        "has_played": true,
        "id": 8637919,
        "last_rank": 69323,
        "player_name": "Lyndon Agard",
        "rank": 73983,
        "rank_sort": 74106,
        "total": 2338
      },
      {
        "club_badge_src": null,
        "entry": 1258106,
        "entry_name": "Murder on Zidanes Fl",
        "event_total": 56,
        "has_played": true,
        "id": 8739136,
        "last_rank": 73423,
        "player_name": "Jonathan Cheers",
        "rank": 73983,
        "rank_sort": 74107,
        "total": 2338
      },
      {
        "club_badge_src": null,
        "entry": 1268040,
        "entry_name": "Cunha Matata",
        "event_total": 45,
        "has_played": true,
        "id": 8810421,
        "last_rank": 53345,
        "player_name": "Jim Foley",
        "rank": 73983,
        "rank_sort": 74108,
        "total": 2338
      },
      {
        "club_badge_src": null,
        "entry": 1280110,
        "entry_name": "Sp\u00f8rs FC",
        "event_total": 49,
        "has_played": true,
        "id": 8895165,
        "last_rank": 60168,
        "player_name": "Heidi Johnsrud",
        "rank": 73983,
        "rank_sort": 74109,
        "total": 2338
      },
      {
        "club_badge_src": null,
        "entry": 1315396,
        "entry_name": "JB5",
        "event_total": 45,
        "has_played": true,
        "id": 9142692,
        "last_rank": 53345,
        "player_name": "Abdulrahman Alotaibi",
        "rank": 73983,
        "rank_sort": 74110,
        "total": 2338
      },
      {
        "club_badge_src": null,
        "entry": 1364636,
        "entry_name": "abyad batal el dawry",
        "event_total": 71,
        "has_played": true,
        "id": 9486492,
        "last_rank": 109454,
        "player_name": "Mostafa Mohamed",
        "rank": 73983,
        "rank_sort": 74111,
        "total": 2338
      },
      {
        "club_badge_src": null,
        "entry": 1364783,
        "entry_name": "Z FC",
        "event_total": 59,
        "has_played": true,
        "id": 9487458,
        "last_rank": 70985,
        "player_name": "Zach Gonsalves",
        "rank": 73983,
        "rank_sort": 74112,
        "total": 2338
      },
      {
        "club_badge_src": null,
        "entry": 1371644,
        "entry_name": "Girizmen",
        "event_total": 60,
        "has_played": true,
        "id": 9534763,
        "last_rank": 81312,
        "player_name": "Ameya Giri",
        "rank": 73983,
        "rank_sort": 74113,
        "total": 2338
      },
      {
        "club_badge_src": null,
        "entry": 1416098,
        "entry_name": "Jason Allstars",
        "event_total": 62,
        "has_played": true,
        "id": 9859274,
        "last_rank": 86304,
        "player_name": "Jason Pegler",
        "rank": 73983,
        "rank_sort": 74114,
        "total": 2338
      },
      {
        "club_badge_src": "https://fantasy.premierleague.com/gcs/plfpl-production-adobe-approved/plfpl-production/1417966/1e6cb03e-3382-4560-aebb-97e3897247b4.png",
        "entry": 1417966,
        "entry_name": "Fc Pekkssu",
        "event_total": 66,
        "has_played": true,
        "id": 9872560,
        "last_rank": 95890,
        "player_name": "Risto Anttila",
        "rank": 73983,
        "rank_sort": 74115,
        "total": 2338
      },
      {
        "club_badge_src": null,
        "entry": 1447143,
        "entry_name": "micahs machines",
        "event_total": 47,
        "has_played": true,
        "id": 10083947,
        "last_rank": 56708,
        "player_name": "Anthony Rawlinson",
        "rank": 73983,
        "rank_sort": 74116,
        "total": 2338
      },
      {
        "club_badge_src": null,
        "entry": 1457084,
        "entry_name": "Unai's Socceroos",
        "event_total": 58,
        "has_played": true,
        "id": 10153314,
        "last_rank": 77676,
        "player_name": "Chris Rootkin",
        "rank": 73983,
        "rank_sort": 74117,
        "total": 2338
      },
      {
        "club_badge_src": null,
        "entry": 1458802,
        "entry_name": "KwetuAfrica Fc",
        "event_total": 65,
        "has_played": true,
        "id": 10167463,
        "last_rank": 83934,
        "player_name": "Nassri Ally",
        "rank": 73983,
        "rank_sort": 74118,
        "total": 2338
      },
      {
        "club_badge_src": null,
        "entry": 1528558,
        "entry_name": "Ha! Gu\u00e9hiii",
        "event_total": 58,
        "has_played": true,
        "id": 10663597,
        "last_rank": 68748,
        "player_name": "Herman Ruud",
        "rank": 73983,
        "rank_sort": 74119,
        "total": 2338
      },
      {
        "club_badge_src": null,
        "entry": 1542098,
        "entry_name": "Here Comes the Son",
        "event_total": 82,
        "has_played": true,
        "id": 10762934,
        "last_rank": 143322,
        "player_name": "Steven May",
        "rank": 73983,
        "rank_sort": 74120,
        "total": 2338
      },
      {
        "club_badge_src": null,
        "entry": 1543345,
        "entry_name": "Tommis gutter",
        "event_total": 54,
        "has_played": true,
        "id": 10772433,
        "last_rank": 68957,
        "player_name": "Thomas Johansen",
        "rank": 73983,
        "rank_sort": 74121,
        "total": 2338
      },
      {
        "club_badge_src": null,
        "entry": 1546320,
        "entry_name": "Dogs of Warr",
        "event_total": 47,
        "has_played": true,
        "id": 10795767,
        "last_rank": 56708,
        "player_name": "Stephen Warr",
        "rank": 73983,
        "rank_sort": 74122,
        "total": 2338
      },
      {
        "club_badge_src": "https://fantasy.premierleague.com/gcs/plfpl-production-adobe-approved/plfpl-production/1554379/f2506dd4-9386-4790-9d9d-45bab0def670.png",
        "entry": 1554379,
        "entry_name": "Donal Drop FCxd",
        "event_total": 62,
        "has_played": true,
        "id": 10853148,
        "last_rank": 86304,
        "player_name": "Sebastian Donoso",
        "rank": 73983,
        "rank_sort": 74123,
        "total": 2338
      },
      {
        "club_badge_src": null,
        "entry": 1559654,
        "entry_name": "Saka Potatoes",
        "event_total": 76,
        "has_played": true,
        "id": 10891920,
        "last_rank": 111669,
        "player_name": "Timothy Utting",
        "rank": 73983,
        "rank_sort": 74124,
        "total": 2338
      },
      {
        "club_badge_src": null,
        "entry": 1562883,
        "entry_name": "\u0641\u0631\u0637 \u0635\u0648\u062a\u064a \ufffd",
        "event_total": 60,
        "has_played": true,
        "id": 10916918,
        "last_rank": 82069,
        "player_name": "Omar Bouasla",
        "rank": 73983,
        "rank_sort": 74125,
        "total": 2338
      },
      {
        "club_badge_src": null,
        "entry": 1610459,
        "entry_name": "Hall Charge",
        "event_total": 56,
        "has_played": true,
        "id": 11267674,
        "last_rank": 73423,
        "player_name": "Joel Hallenbert",
        "rank": 73983,
        "rank_sort": 74126,
        "total": 2338
      },
      {
        "club_badge_src": null,
        "entry": 1614842,
        "entry_name": "We'll have a look",
        "event_total": 61,
        "has_played": true,
        "id": 11299326,
        "last_rank": 84360,
        "player_name": "Jake Batty",
        "rank": 73983,
        "rank_sort": 74127,
        "total": 2338
      },
      {
        "club_badge_src": null,
        "entry": 1640295,
        "entry_name": "Ladies On Tour\u00e9",
        "event_total": 49,
        "has_played": true,
        "id": 11482158,
        "last_rank": 53023,
        "player_name": "Danielle English",
        "rank": 73983,
        "rank_sort": 74128,
        "total": 2338
      },
      {
        "club_badge_src": null,
        "entry": 1673696,
        "entry_name": "shaw and order",
        "event_total": 58,
        "has_played": true,
        "id": 11717688,
        "last_rank": 77050,
        "player_name": "Ozaer Patel",
        "rank": 73983,
        "rank_sort": 74129,
        "total": 2338
      },
      {
        "club_badge_src": null,
        "entry": 1693700,
        "entry_name": "bleazknees",
        "event_total": 79,
        "has_played": true,
        "id": 11862367,
        "last_rank": 133328,
        "player_name": "Lance Bleazard",
        "rank": 73983,
        "rank_sort": 74130,
        "total": 2338
      },
      {
        "club_badge_src": null,
        "entry": 1738186,
        "entry_name": "LZ7",
        "event_total": 64,
        "has_played": true,
        "id": 12194573,
        "last_rank": 81646,
        "player_name": "Lukas Zingg",
        "rank": 73983,
        "rank_sort": 74131,
        "total": 2338
      },
      {
        "club_badge_src": null,
        "entry": 1739119,
        "entry_name": "Fc Vid",
        "event_total": 61,
        "has_played": true,
        "id": 12201577,
        "last_rank": 84360,
        "player_name": "Mirko Medak",
        "rank": 73983,
        "rank_sort": 74132,
        "total": 2338
      },
      {
        "club_badge_src": null,
        "entry": 1751517,
        "entry_name": "Mimikrixx",
        "event_total": 66,
        "has_played": true,
        "id": 12292342,
        "last_rank": 95890,
        "player_name": "edhim bariq",
        "rank": 73983,
        "rank_sort": 74133,
        "total": 2338
      },
      {
        "club_badge_src": null,
        "entry": 1779307,
        "entry_name": "FC Strijders",
        "event_total": 55,
        "has_played": true,
        "id": 12500583,
        "last_rank": 70985,
        "player_name": "mathias defer",
        "rank": 73983,
        "rank_sort": 74134,
        "total": 2338
      },
      {
        "club_badge_src": null,
        "entry": 1797244,
        "entry_name": "Cookies and ream",
        "event_total": 43,
        "has_played": true,
        "id": 12630265,
        "last_rank": 50468,
        "player_name": "Rusch Rosenberg",
        "rank": 73983,
        "rank_sort": 74135,
        "total": 2338
      },
      {
        "club_badge_src": "https://fantasy.premierleague.com/gcs/plfpl-production-adobe-approved/plfpl-production/1800404/191668b1-bea1-46dc-a7b9-e09a239ba4a7.png",
        "entry": 1800404,
        "entry_name": "Super Mobot",
        "event_total": 65,
        "has_played": true,
        "id": 12654200,
        "last_rank": 83934,
        "player_name": "Muhammed Waseem",
        "rank": 73983,
        "rank_sort": 74136,
        "total": 2338
      },
      {
        "club_badge_src": null,
        "entry": 1833963,
        "entry_name": "Neces razbojnice",
        "event_total": 45,
        "has_played": true,
        "id": 12901096,
        "last_rank": 46660,
        "player_name": "mario vrljic",
        "rank": 73983,
        "rank_sort": 74137,
        "total": 2338
      },
      {
        "club_badge_src": null,
        "entry": 1835394,
        "entry_name": "FC Necko 13",
        "event_total": 51,
        "has_played": true,
        "id": 12911467,
        "last_rank": 63724,
        "player_name": "Nedzad Planincic",
        "rank": 73983,
        "rank_sort": 74138,
        "total": 2338
      },
      {
        "club_badge_src": "https://fantasy.premierleague.com/gcs/plfpl-production-adobe-approved/plfpl-production/1843459/a9a5d71a-2a37-4e64-9387-1cd4d9e9aa86.png",
        "entry": 1843459,
        "entry_name": "Gonna Knock It Over",
        "event_total": 76,
        "has_played": true,
        "id": 12970066,
        "last_rank": 123422,
        "player_name": "Matthew Mycoe",
        "rank": 73983,
        "rank_sort": 74139,
        "total": 2338
      },
      {
        "club_badge_src": null,
        "entry": 1893444,
        "entry_name": "neqo",
        "event_total": 46,
        "has_played": true,
        "id": 13345392,
        "last_rank": 54494,
        "player_name": "Tam\u00e1s Paller",
        "rank": 73983,
        "rank_sort": 74140,
        "total": 2338
      },
      {
        "club_badge_src": null,
        "entry": 1920884,
        "entry_name": "Dokmak",
        "event_total": 56,
        "has_played": true,
        "id": 13545123,
        "last_rank": 65163,
        "player_name": "Khaled Dokmak1",
        "rank": 73983,
        "rank_sort": 74141,
        "total": 2338
      },
      {
        "club_badge_src": null,
        "entry": 1926202,
        "entry_name": "Vikthorylions",
        "event_total": 54,
        "has_played": true,
        "id": 13584519,
        "last_rank": 61606,
        "player_name": "Vitor Ribeiro",
        "rank": 73983,
        "rank_sort": 74142,
        "total": 2338
      },
      {
        "club_badge_src": null,
        "entry": 1926489,
        "entry_name": "old bean united",
        "event_total": 59,
        "has_played": true,
        "id": 13586657,
        "last_rank": 70985,
        "player_name": "david smith",
        "rank": 73983,
        "rank_sort": 74143,
        "total": 2338
      },
      {
        "club_badge_src": null,
        "entry": 1946460,
        "entry_name": "K1K",
        "event_total": 69,
        "has_played": true,
        "id": 13730033,
        "last_rank": 83584,
        "player_name": "rafiq dumdeedum",
        "rank": 73983,
        "rank_sort": 74144,
        "total": 2338
      },
      {
        "club_badge_src": null,
        "entry": 1963349,
        "entry_name": "Ville Villains",
        "event_total": 52,
        "has_played": true,
        "id": 13852705,
        "last_rank": 64777,
        "player_name": "Simen Nesse",
        "rank": 73983,
        "rank_sort": 74145,
        "total": 2338
      },
      {
        "club_badge_src": "https://fantasy.premierleague.com/gcs/plfpl-production-adobe-approved/plfpl-production/1984428/719bf253-84b3-4e0e-9f64-21d8b6e973ba.png",
        "entry": 1984428,
        "entry_name": "FPL_Blue Blood",
        "event_total": 50,
        "has_played": true,
        "id": 14017179,
        "last_rank": 61950,
        "player_name": "Jimmy Zeng",
        "rank": 73983,
        "rank_sort": 74146,
        "total": 2338
      },
      {
        "club_badge_src": "https://fantasy.premierleague.com/gcs/plfpl-production-adobe-approved/plfpl-production/2011120/132b54c2-edac-43da-b88e-705f68b4d35d.png",
        "entry": 2011120,
        "entry_name": "Atl\u00e9ticoll",
        "event_total": 61,
        "has_played": true,
        "id": 14220898,
        "last_rank": 83934,
        "player_name": "Lewis Colley",
        "rank": 73983,
        "rank_sort": 74147,
        "total": 2338
      },
      {
        "club_badge_src": null,
        "entry": 2013152,
        "entry_name": "Kinder Mbeumo",
        "event_total": 57,
        "has_played": true,
        "id": 14235801,
        "last_rank": 67063,
        "player_name": "Dylan Uppal",
        "rank": 73983,
        "rank_sort": 74148,
        "total": 2338
      },
      {
        "club_badge_src": null,
        "entry": 2028685,
        "entry_name": "Please Mind Delap",
        "event_total": 46,
        "has_played": true,
        "id": 14361952,
        "last_rank": 54667,
        "player_name": "Anders Hexeberg",
        "rank": 73983,
        "rank_sort": 74149,
        "total": 2338
      },
      {
        "club_badge_src": null,
        "entry": 2061669,
        "entry_name": "ChauKung",
        "event_total": 68,
        "has_played": true,
        "id": 14608097,
        "last_rank": 101419,
        "player_name": "Chau Kung",
        "rank": 73983,
        "rank_sort": 74150,
        "total": 2338
      }
    ]
  }
}