{
  "last_updated_data": "2026-05-24T23:28:17Z",
  "league": {
    "admin_entry": null,
    "closed": false,
    "code_privacy": "p",
    "created": "2025-07-20T23:14:33.933835Z",
    "cup_league": 2815434,
    "has_cup": true,
    "id": 314,
    "league_type": "s",
    "max_entries": null,
    "name": "Overall",
    "rank": null,
    "scoring": "c",
    "start_event": 1
  },
  "new_entries": {
    "has_next": false,
    "page": 1,
    "results": []
  },
  "standings": {
    "has_next": true,
    "page": 1450,
    "results": [
      {
        "club_badge_src": null,
        "entry": 2164130,
        "entry_name": "Pain In Dias",
        "event_total": 56,
        "has_played": true,
        "id": 15384621,
        "last_rank": 71386,
        "player_name": "Emin Durakovic",
        "rank": 72321,
        "rank_sort": 72451,
        "total": 2339
      },
      {
        "club_badge_src": null,
        "entry": 2258258,
        "entry_name": "ALMJADIM",
        "event_total": 63,
        "has_played": true,
        "id": 16098661,
        "last_rank": 87074,
        "player_name": "Mohammed Almjedim",
        "rank": 72321,
        "rank_sort": 72452,
        "total": 2339
      },
      {
        "club_badge_src": null,
        "entry": 2274586,
        "entry_name": "Hassan",
        "event_total": 57,
        "has_played": true,
        "id": 16219439,
        "last_rank": 73720,
        "player_name": "Hassan Elostaz",
        "rank": 72321,
        "rank_sort": 72453,
        "total": 2339
      },
      {
        "club_badge_src": null,
        "entry": 2322329,
        "entry_name": "BigMacNFries",
        "event_total": 58,
        "has_played": true,
        "id": 16567025,
        "last_rank": 75874,
        "player_name": "Philip Mayne",
        "rank": 72321,
        "rank_sort": 72454,
        "total": 2339
      },
      {
        "club_badge_src": null,
        "entry": 2418661,
        "entry_name": "FC Pannekoek",
        "event_total": 51,
        "has_played": true,
        "id": 17290657,
        "last_rank": 62429,
        "player_name": "Jari De Bruijn",
        "rank": 72321,
        "rank_sort": 72455,
        "total": 2339
      },
      {
        "club_badge_src": null,
        "entry": 2446590,
        "entry_name": "Fulhaminati",
        "event_total": 80,
        "has_played": true,
        "id": 17498234,
        "last_rank": 133827,
        "player_name": "Amanda Croxon",
        "rank": 72321,
        "rank_sort": 72456,
        "total": 2339
      },
      {
        "club_badge_src": null,
        "entry": 2502806,
        "entry_name": "DIG FC",
        "event_total": 48,
        "has_played": true,
        "id": 17922207,
        "last_rank": 57001,
        "player_name": "Darryl Grant",
        "rank": 72321,
        "rank_sort": 72457,
        "total": 2339
      },
      {
        "club_badge_src": null,
        "entry": 2511855,
        "entry_name": "Ramen United",
        "event_total": 72,
        "has_played": true,
        "id": 17994969,
        "last_rank": 109454,
        "player_name": "Norah Song",
        "rank": 72321,
        "rank_sort": 72458,
        "total": 2339
      },
      {
        "club_badge_src": "https://fantasy.premierleague.com/gcs/plfpl-production-adobe-approved/plfpl-production/2549643/dee82c0e-cf11-4a6e-baf9-8a4f4a786ee4.png",
        "entry": 2549643,
        "entry_name": "Tel Aviv Data Drip",
        "event_total": 73,
        "has_played": true,
        "id": 18277677,
        "last_rank": 101419,
        "player_name": "Alex S",
        "rank": 72321,
        "rank_sort": 72459,
        "total": 2339
      },
      {
        "club_badge_src": null,
        "entry": 2549997,
        "entry_name": "UptownFunk",
        "event_total": 55,
        "has_played": true,
        "id": 18280376,
        "last_rank": 69641,
        "player_name": "Mykola Reshniuk",
        "rank": 72321,
        "rank_sort": 72460,
        "total": 2339
      },
      {
        "club_badge_src": null,
        "entry": 2587711,
        "entry_name": "Can't Cacace Me",
        "event_total": 57,
        "has_played": true,
        "id": 18577112,
        "last_rank": 65163,
        "player_name": "Morgan Edwards",
        "rank": 72321,
        "rank_sort": 72461,
        "total": 2339
      },
      {
        "club_badge_src": "https://fantasy.premierleague.com/gcs/plfpl-production-adobe-approved/plfpl-production/2605375/967371e3-cfc5-4e65-82a3-e8f05ada21be.png",
        "entry": 2605375,
        "entry_name": "You'll Walk W Caner",
        "event_total": 66,
        "has_played": true,
        "id": 18714768,
        "last_rank": 84360,
        "player_name": "Caner \u015eahinler",
        "rank": 72321,
        "rank_sort": 72462,
        "total": 2339
      },
      {
        "club_badge_src": "https://fantasy.premierleague.com/gcs/plfpl-production-adobe-approved/plfpl-production/2638826/7ff344bd-ebd2-4b38-bdb6-22420f33993b.png",
        "entry": 2638826,
        "entry_name": "BLC COYS",
        "event_total": 57,
        "has_played": true,
        "id": 18965902,
        "last_rank": 65475,
        "player_name": "Sheldon Greenblatt",
        "rank": 72321,
        "rank_sort": 72463,
        "total": 2339
      },
      {
        "club_badge_src": null,
        "entry": 2641503,
        "entry_name": "Not Too Xavi",
        "event_total": 49,
        "has_played": true,
        "id": 18985207,
        "last_rank": 58911,
        "player_name": "David Morrison",
        "rank": 72321,
        "rank_sort": 72464,
        "total": 2339
      },
      {
        "club_badge_src": null,
        "entry": 2641848,
        "entry_name": "MoUrY@\u30de\u30a6\u30ea\u30a2 FC",
        "event_total": 56,
        "has_played": true,
        "id": 18987751,
        "last_rank": 71386,
        "player_name": "Kinley Tenzin",
        "rank": 72321,
        "rank_sort": 72465,
        "total": 2339
      },
      {
        "club_badge_src": null,
        "entry": 2643216,
        "entry_name": "waleed hagy",
        "event_total": 75,
        "has_played": true,
        "id": 18997941,
        "last_rank": 117915,
        "player_name": "waleed hagy",
        "rank": 72321,
        "rank_sort": 72466,
        "total": 2339
      },
      {
        "club_badge_src": null,
        "entry": 2733770,
        "entry_name": "Rice Rice Baby",
        "event_total": 51,
        "has_played": true,
        "id": 19672739,
        "last_rank": 61950,
        "player_name": "Arunan Arulnesan",
        "rank": 72321,
        "rank_sort": 72467,
        "total": 2339
      },
      {
        "club_badge_src": "https://fantasy.premierleague.com/gcs/plfpl-production-adobe-approved/plfpl-production/2740401/10c812e1-49a4-428b-85f1-d76a52013681.png",
        "entry": 2740401,
        "entry_name": "F.RAJA.PL",
        "event_total": 66,
        "has_played": true,
        "id": 19772553,
        "last_rank": 93883,
        "player_name": "MOURAD DAHIRI",
        "rank": 72321,
        "rank_sort": 72468,
        "total": 2339
      },
      {
        "club_badge_src": null,
        "entry": 2753814,
        "entry_name": "MUH",
        "event_total": 59,
        "has_played": true,
        "id": 20038782,
        "last_rank": 77999,
        "player_name": "Muhab Muhammed Elhwefi",
        "rank": 72321,
        "rank_sort": 72469,
        "total": 2339
      },
      {
        "club_badge_src": "https://fantasy.premierleague.com/gcs/plfpl-production-adobe-approved/plfpl-production/2773424/350c0730-09e2-4ead-9e1d-b832e626325f.png",
        "entry": 2773424,
        "entry_name": "Ballz FC",
        "event_total": 59,
        "has_played": true,
        "id": 20237511,
        "last_rank": 77258,
        "player_name": "Nathan Thorley",
        "rank": 72321,
        "rank_sort": 72470,
        "total": 2339
      },
      {
        "club_badge_src": null,
        "entry": 2831835,
        "entry_name": "Goonies",
        "event_total": 54,
        "has_played": true,
        "id": 20693113,
        "last_rank": 67695,
        "player_name": "Billy Watts",
        "rank": 72321,
        "rank_sort": 72471,
        "total": 2339
      },
      {
        "club_badge_src": null,
        "entry": 2831959,
        "entry_name": "Jam Tarts",
        "event_total": 58,
        "has_played": true,
        "id": 20694027,
        "last_rank": 67063,
        "player_name": "Daniel Prentice",
        "rank": 72321,
        "rank_sort": 72472,
        "total": 2339
      },
      {
        "club_badge_src": null,
        "entry": 2841141,
        "entry_name": "Microsoft Wirtz",
        "event_total": 54,
        "has_played": true,
        "id": 20765595,
        "last_rank": 59813,
        "player_name": "Darren Wong",
        "rank": 72321,
        "rank_sort": 72473,
        "total": 2339
      },
      {
        "club_badge_src": null,
        "entry": 2875361,
        "entry_name": "Wissa-pon a star",
        "event_total": 63,
        "has_played": true,
        "id": 21042090,
        "last_rank": 87074,
        "player_name": "Jair Klaver",
        "rank": 72321,
        "rank_sort": 72474,
        "total": 2339
      },
      {
        "club_badge_src": null,
        "entry": 2880206,
        "entry_name": "BBC Match of the Day",
        "event_total": 73,
        "has_played": true,
        "id": 21084207,
        "last_rank": 112591,
        "player_name": "Pavel Kokotyukha",
        "rank": 72321,
        "rank_sort": 72475,
        "total": 2339
      },
      {
        "club_badge_src": null,
        "entry": 2910784,
        "entry_name": "Martin Nosh\u00f8wdegaard",
        "event_total": 77,
        "has_played": true,
        "id": 21334332,
        "last_rank": 124336,
        "player_name": "Robert Hulse",
        "rank": 72321,
        "rank_sort": 72476,
        "total": 2339
      },
      {
        "club_badge_src": "https://fantasy.premierleague.com/gcs/plfpl-production-adobe-approved/plfpl-production/2913432/6c337dc1-c115-4727-a693-0e78eec81e96.png",
        "entry": 2913432,
        "entry_name": "Son of King Kane",
        "event_total": 58,
        "has_played": true,
        "id": 21354450,
        "last_rank": 75874,
        "player_name": "Alex Rahaman",
        "rank": 72321,
        "rank_sort": 72477,
        "total": 2339
      },
      {
        "club_badge_src": null,
        "entry": 2959425,
        "entry_name": "Pain in Diaz",
        "event_total": 59,
        "has_played": true,
        "id": 21738177,
        "last_rank": 77676,
        "player_name": "Tom Nicholson",
        "rank": 72321,
        "rank_sort": 72478,
        "total": 2339
      },
      {
        "club_badge_src": null,
        "entry": 2994035,
        "entry_name": "Sakattack",
        "event_total": 58,
        "has_played": true,
        "id": 22020849,
        "last_rank": 75874,
        "player_name": "Jacob Nord",
        "rank": 72321,
        "rank_sort": 72479,
        "total": 2339
      },
      {
        "club_badge_src": null,
        "entry": 3046103,
        "entry_name": "Time For Heroes",
        "event_total": 68,
        "has_played": true,
        "id": 22423474,
        "last_rank": 99596,
        "player_name": "Luke Rossiter",
        "rank": 72321,
        "rank_sort": 72480,
        "total": 2339
      },
      {
        "club_badge_src": null,
        "entry": 3047422,
        "entry_name": "gurragucci",
        "event_total": 71,
        "has_played": true,
        "id": 22433414,
        "last_rank": 107162,
        "player_name": "Gustav Palmberg",
        "rank": 72321,
        "rank_sort": 72481,
        "total": 2339
      },
      {
        "club_badge_src": null,
        "entry": 3196254,
        "entry_name": "\u26a1RICHIE FC\ufffd\u2620\ufe0f\u00ae\ufe0f",
        "event_total": 61,
        "has_played": true,
        "id": 23625225,
        "last_rank": 73423,
        "player_name": "Richard Osumba",
        "rank": 72321,
        "rank_sort": 72482,
        "total": 2339
      },
      {
        "club_badge_src": "https://fantasy.premierleague.com/gcs/plfpl-production-adobe-approved/plfpl-production/3266572/a5bbc490-f127-4b75-80f1-ecbedff8879e.png",
        "entry": 3266572,
        "entry_name": "FC PERFURADORES",
        "event_total": 78,
        "has_played": true,
        "id": 24172467,
        "last_rank": 127384,
        "player_name": "Tiago J. Rafael Correia",
        "rank": 72321,
        "rank_sort": 72483,
        "total": 2339
      },
      {
        "club_badge_src": null,
        "entry": 3282985,
        "entry_name": "PSV Hangover",
        "event_total": 52,
        "has_played": true,
        "id": 24301377,
        "last_rank": 56708,
        "player_name": "Jon Dyke",
        "rank": 72321,
        "rank_sort": 72484,
        "total": 2339
      },
      {
        "club_badge_src": null,
        "entry": 3309715,
        "entry_name": "Top G XI",
        "event_total": 72,
        "has_played": true,
        "id": 24520298,
        "last_rank": 109863,
        "player_name": "Chris Millwood",
        "rank": 72321,
        "rank_sort": 72485,
        "total": 2339
      },
      {
        "club_badge_src": null,
        "entry": 3356753,
        "entry_name": "afc kenzo 3",
        "event_total": 66,
        "has_played": true,
        "id": 24904284,
        "last_rank": 94537,
        "player_name": "Seb Andersson",
        "rank": 72321,
        "rank_sort": 72486,
        "total": 2339
      },
      {
        "club_badge_src": null,
        "entry": 3395708,
        "entry_name": "Gorashis",
        "event_total": 36,
        "has_played": true,
        "id": 25211008,
        "last_rank": 39403,
        "player_name": "Mohammed Gorashi",
        "rank": 72321,
        "rank_sort": 72487,
        "total": 2339
      },
      {
        "club_badge_src": null,
        "entry": 3455659,
        "entry_name": "Wera Ni Wera Fc",
        "event_total": 69,
        "has_played": true,
        "id": 25683141,
        "last_rank": 91466,
        "player_name": "Thomas Tuchel",
        "rank": 72321,
        "rank_sort": 72488,
        "total": 2339
      },
      {
        "club_badge_src": null,
        "entry": 3638159,
        "entry_name": "Stay Humble FC",
        "event_total": 65,
        "has_played": true,
        "id": 27113079,
        "last_rank": 92126,
        "player_name": "Jordan Hickson",
        "rank": 72321,
        "rank_sort": 72489,
        "total": 2339
      },
      {
        "club_badge_src": "https://fantasy.premierleague.com/gcs/plfpl-production-adobe-approved/plfpl-production/3722227/2df2ec4e-965e-4634-a1a0-b58244b39c2f.png",
        "entry": 3722227,
        "entry_name": "Up where we belong",
        "event_total": 66,
        "has_played": true,
        "id": 27778645,
        "last_rank": 84360,
        "player_name": "Daniel Gerard O'Sullivan",
        "rank": 72321,
        "rank_sort": 72490,
        "total": 2339
      },
      {
        "club_badge_src": null,
        "entry": 3759042,
        "entry_name": "S\u00e3o Tom\u00e9",
        "event_total": 55,
        "has_played": true,
        "id": 28066475,
        "last_rank": 69641,
        "player_name": "Tom Roland",
        "rank": 72321,
        "rank_sort": 72491,
        "total": 2339
      },
      {
        "club_badge_src": null,
        "entry": 3762335,
        "entry_name": "FC Prestige Ultra",
        "event_total": 61,
        "has_played": true,
        "id": 28091179,
        "last_rank": 82398,
        "player_name": "Prestige Obimba",
        "rank": 72321,
        "rank_sort": 72492,
        "total": 2339
      },
      {
        "club_badge_src": null,
        "entry": 3874312,
        "entry_name": "Eikestadbooitjie",
        "event_total": 33,
        "has_played": true,
        "id": 29091878,
        "last_rank": 35619,
        "player_name": "Jack van Niekerk",
        "rank": 72321,
        "rank_sort": 72493,
        "total": 2339
      },
      {
        "club_badge_src": null,
        "entry": 3891739,
        "entry_name": "Sonic Mbeumo",
        "event_total": 67,
        "has_played": true,
        "id": 29246682,
        "last_rank": 96777,
        "player_name": "Andy K",
        "rank": 72321,
        "rank_sort": 72494,
        "total": 2339
      },
      {
        "club_badge_src": null,
        "entry": 3904888,
        "entry_name": "ThomasTheFrankEngine",
        "event_total": 69,
        "has_played": true,
        "id": 29356120,
        "last_rank": 101419,
        "player_name": "Jack Woodhead",
        "rank": 72321,
        "rank_sort": 72495,
        "total": 2339
      },
      {
        "club_badge_src": null,
        "entry": 3907813,
        "entry_name": "Chang Eng",
        "event_total": 58,
        "has_played": true,
        "id": 29379747,
        "last_rank": 75874,
        "player_name": "Andy Running",
        "rank": 72321,
        "rank_sort": 72496,
        "total": 2339
      },
      {
        "club_badge_src": null,
        "entry": 3914492,
        "entry_name": "Insert witty name",
        "event_total": 63,
        "has_played": true,
        "id": 29433238,
        "last_rank": 87074,
        "player_name": "Christian Stevens",
        "rank": 72321,
        "rank_sort": 72497,
        "total": 2339
      },
      {
        "club_badge_src": null,
        "entry": 3941782,
        "entry_name": "Mike",
        "event_total": 65,
        "has_played": true,
        "id": 29651892,
        "last_rank": 82069,
        "player_name": "Michael Kunwar",
        "rank": 72321,
        "rank_sort": 72498,
        "total": 2339
      },
      {
        "club_badge_src": null,
        "entry": 3962962,
        "entry_name": "MALONEY AFC",
        "event_total": 50,
        "has_played": true,
        "id": 29818361,
        "last_rank": 53023,
        "player_name": "Jamie Maloney",
        "rank": 72321,
        "rank_sort": 72499,
        "total": 2339
      },
      {
        "club_badge_src": null,
        "entry": 4148104,
        "entry_name": "Little mommy",
        "event_total": 63,
        "has_played": true,
        "id": 31352219,
        "last_rank": 87074,
        "player_name": "\u0141\u01d0\u0291 \u0291\u01d0\u1ec7",
        "rank": 72321,
        "rank_sort": 72500,
        "total": 2339
      }
    ]
  }
}