{
  "last_updated_data": "2026-05-24T23:28:17Z",
  "league": {
    "admin_entry": null,
    "closed": false,
    "code_privacy": "p",
    "created": "2025-07-20T23:14:33.933835Z",
    "cup_league": 2815434,
    "has_cup": true,
    "id": 314,
    "league_type": "s",
    "max_entries": null,
    "name": "Overall",
    "rank": null,
    "scoring": "c",
    "start_event": 1
  },
  "new_entries": {
    "has_next": false,
    "page": 1,
    "results": []
  },
  "standings": {
    "has_next": true,
    "page": 1421,
    "results": [
      {
        "club_badge_src": null,
        "entry": 471483,
        "entry_name": "Half the World (A)",
        "event_total": 62,
        "has_played": true,
        "id": 3165321,
        "last_rank": 74166,
        "player_name": "Chris Dolan",
        "rank": 70970,
        "rank_sort": 71001,
        "total": 2340
      },
      {
        "club_badge_src": null,
        "entry": 501608,
        "entry_name": "Boats n howez",
        "event_total": 64,
        "has_played": true,
        "id": 3366385,
        "last_rank": 87541,
        "player_name": "Simon Porton",
        "rank": 70970,
        "rank_sort": 71002,
        "total": 2340
      },
      {
        "club_badge_src": null,
        "entry": 601577,
        "entry_name": "\u0627\u0644\u0628\u0639\u0627\u0628\u064a\u0639",
        "event_total": 53,
        "has_played": true,
        "id": 4059322,
        "last_rank": 57200,
        "player_name": "Sherif Dawood",
        "rank": 70970,
        "rank_sort": 71003,
        "total": 2340
      },
      {
        "club_badge_src": null,
        "entry": 628043,
        "entry_name": "Dalot of Trouble",
        "event_total": 55,
        "has_played": true,
        "id": 4243906,
        "last_rank": 60827,
        "player_name": "Thomas Bruno Bottolfsen",
        "rank": 70970,
        "rank_sort": 71004,
        "total": 2340
      },
      {
        "club_badge_src": null,
        "entry": 755729,
        "entry_name": "AC MILAN",
        "event_total": 62,
        "has_played": true,
        "id": 5145058,
        "last_rank": 58688,
        "player_name": "BENZADA AYOUB",
        "rank": 70970,
        "rank_sort": 71005,
        "total": 2340
      },
      {
        "club_badge_src": null,
        "entry": 799262,
        "entry_name": "Heads Gone...Again",
        "event_total": 53,
        "has_played": true,
        "id": 5470669,
        "last_rank": 57358,
        "player_name": "Jamie McQuillan",
        "rank": 70970,
        "rank_sort": 71006,
        "total": 2340
      },
      {
        "club_badge_src": "https://fantasy.premierleague.com/gcs/plfpl-production-adobe-approved/plfpl-production/814707/7cc748e9-1305-4bff-828b-a393ea149b8b.png",
        "entry": 814707,
        "entry_name": "Atl\u00e9tico de Scissett",
        "event_total": 55,
        "has_played": true,
        "id": 5578876,
        "last_rank": 60827,
        "player_name": "Paul Thornton",
        "rank": 70970,
        "rank_sort": 71007,
        "total": 2340
      },
      {
        "club_badge_src": "https://fantasy.premierleague.com/gcs/plfpl-production-adobe-approved/plfpl-production/845405/cc7bd407-2a24-4a1b-86d2-c40c284733b6.png",
        "entry": 845405,
        "entry_name": "El Nino",
        "event_total": 75,
        "has_played": true,
        "id": 5792495,
        "last_rank": 116017,
        "player_name": "Kiran Kanoj",
        "rank": 70970,
        "rank_sort": 71008,
        "total": 2340
      },
      {
        "club_badge_src": null,
        "entry": 914088,
        "entry_name": "F\u00e5rSegBerg's",
        "event_total": 60,
        "has_played": true,
        "id": 6285490,
        "last_rank": 70072,
        "player_name": "Erik Vibe",
        "rank": 70970,
        "rank_sort": 71009,
        "total": 2340
      },
      {
        "club_badge_src": null,
        "entry": 968025,
        "entry_name": "Drake fc",
        "event_total": 34,
        "has_played": true,
        "id": 6671869,
        "last_rank": 35926,
        "player_name": "Talvir singh Khangura",
        "rank": 70970,
        "rank_sort": 71010,
        "total": 2340
      },
      {
        "club_badge_src": null,
        "entry": 1067250,
        "entry_name": "Slims XI",
        "event_total": 56,
        "has_played": true,
        "id": 7388318,
        "last_rank": 55514,
        "player_name": "Slim Shadey",
        "rank": 70970,
        "rank_sort": 71011,
        "total": 2340
      },
      {
        "club_badge_src": null,
        "entry": 1107967,
        "entry_name": "Taz FC",
        "event_total": 65,
        "has_played": true,
        "id": 7674483,
        "last_rank": 90158,
        "player_name": "Inzaman Taz",
        "rank": 70970,
        "rank_sort": 71012,
        "total": 2340
      },
      {
        "club_badge_src": null,
        "entry": 1115904,
        "entry_name": "Wirtz Case Scenario",
        "event_total": 67,
        "has_played": true,
        "id": 7729620,
        "last_rank": 94778,
        "player_name": "Stuart Smyth",
        "rank": 70970,
        "rank_sort": 71013,
        "total": 2340
      },
      {
        "club_badge_src": null,
        "entry": 1161720,
        "entry_name": "Gale Forss Wins",
        "event_total": 54,
        "has_played": true,
        "id": 8058657,
        "last_rank": 66296,
        "player_name": "Matty Downes",
        "rank": 70970,
        "rank_sort": 71014,
        "total": 2340
      },
      {
        "club_badge_src": null,
        "entry": 1255278,
        "entry_name": "Yuvipool",
        "event_total": 58,
        "has_played": true,
        "id": 8718482,
        "last_rank": 66057,
        "player_name": "Yuval Shaham",
        "rank": 70970,
        "rank_sort": 71015,
        "total": 2340
      },
      {
        "club_badge_src": null,
        "entry": 1308940,
        "entry_name": "Return to glory",
        "event_total": 59,
        "has_played": true,
        "id": 9098372,
        "last_rank": 76574,
        "player_name": "Mohammed Y",
        "rank": 70970,
        "rank_sort": 71016,
        "total": 2340
      },
      {
        "club_badge_src": null,
        "entry": 1353096,
        "entry_name": "\u0645\u064a\u0643\u0627\u0646\u064a\u0643\u064a \u0641\u0627\u0646\u062a\u0632\u064a",
        "event_total": 74,
        "has_played": true,
        "id": 9406444,
        "last_rank": 102343,
        "player_name": "Hossam Mohamed",
        "rank": 70970,
        "rank_sort": 71017,
        "total": 2340
      },
      {
        "club_badge_src": null,
        "entry": 1373929,
        "entry_name": "Diabe\u0142ki_99",
        "event_total": 73,
        "has_played": true,
        "id": 9550582,
        "last_rank": 110573,
        "player_name": "Maciej Terzimann",
        "rank": 70970,
        "rank_sort": 71018,
        "total": 2340
      },
      {
        "club_badge_src": null,
        "entry": 1412552,
        "entry_name": "Reece's set pieces",
        "event_total": 35,
        "has_played": true,
        "id": 9830033,
        "last_rank": 37134,
        "player_name": "Tom Nicholls",
        "rank": 70970,
        "rank_sort": 71019,
        "total": 2340
      },
      {
        "club_badge_src": null,
        "entry": 1457622,
        "entry_name": "Shim Fc",
        "event_total": 63,
        "has_played": true,
        "id": 10157598,
        "last_rank": 85487,
        "player_name": "Aamir Hussain",
        "rank": 70970,
        "rank_sort": 71020,
        "total": 2340
      },
      {
        "club_badge_src": "https://fantasy.premierleague.com/gcs/plfpl-production-adobe-approved/plfpl-production/1532591/42547782-9388-4983-88eb-db5dd91eb513.png",
        "entry": 1532591,
        "entry_name": "Wirtz The Matter",
        "event_total": 67,
        "has_played": true,
        "id": 10695075,
        "last_rank": 94778,
        "player_name": "Martyn Jobling",
        "rank": 70970,
        "rank_sort": 71021,
        "total": 2340
      },
      {
        "club_badge_src": null,
        "entry": 1538662,
        "entry_name": "Fat Frank's Kebabs",
        "event_total": 47,
        "has_played": true,
        "id": 10738655,
        "last_rank": 54065,
        "player_name": "Andy N",
        "rank": 70970,
        "rank_sort": 71022,
        "total": 2340
      },
      {
        "club_badge_src": null,
        "entry": 1629958,
        "entry_name": "Riverbeach",
        "event_total": 70,
        "has_played": true,
        "id": 11408610,
        "last_rank": 102343,
        "player_name": "Morten Elvestrand",
        "rank": 70970,
        "rank_sort": 71023,
        "total": 2340
      },
      {
        "club_badge_src": "https://fantasy.premierleague.com/gcs/plfpl-production-adobe-approved/plfpl-production/1881387/0cbbfb53-1925-492b-919b-eaaebc7c8e07.png",
        "entry": 1881387,
        "entry_name": "Aston Villa Nil \u2026",
        "event_total": 67,
        "has_played": true,
        "id": 13256144,
        "last_rank": 94933,
        "player_name": "Tim Crisp",
        "rank": 70970,
        "rank_sort": 71024,
        "total": 2340
      },
      {
        "club_badge_src": null,
        "entry": 2027977,
        "entry_name": "Alfa Beta FC",
        "event_total": 62,
        "has_played": true,
        "id": 14356461,
        "last_rank": 73975,
        "player_name": "H\u00e5vard Eriksen",
        "rank": 70970,
        "rank_sort": 71025,
        "total": 2340
      },
      {
        "club_badge_src": null,
        "entry": 2174919,
        "entry_name": "Terkawi",
        "event_total": 37,
        "has_played": true,
        "id": 15465251,
        "last_rank": 39585,
        "player_name": "Mohamed Terkawi-",
        "rank": 70970,
        "rank_sort": 71026,
        "total": 2340
      },
      {
        "club_badge_src": null,
        "entry": 2342156,
        "entry_name": "Bo gabr",
        "event_total": 83,
        "has_played": true,
        "id": 16712052,
        "last_rank": 141498,
        "player_name": "Mohamed Gabr",
        "rank": 70970,
        "rank_sort": 71027,
        "total": 2340
      },
      {
        "club_badge_src": null,
        "entry": 2403209,
        "entry_name": "Magpie magic",
        "event_total": 66,
        "has_played": true,
        "id": 17176940,
        "last_rank": 92126,
        "player_name": "Cho Dpp",
        "rank": 70970,
        "rank_sort": 71028,
        "total": 2340
      },
      {
        "club_badge_src": null,
        "entry": 2426242,
        "entry_name": "BUNCH OF WALLIES",
        "event_total": 64,
        "has_played": true,
        "id": 17348302,
        "last_rank": 87710,
        "player_name": "Kristen Nironen",
        "rank": 70970,
        "rank_sort": 71029,
        "total": 2340
      },
      {
        "club_badge_src": null,
        "entry": 2487140,
        "entry_name": "Shandy Bass",
        "event_total": 63,
        "has_played": true,
        "id": 17802428,
        "last_rank": 85349,
        "player_name": "Rich Stovell",
        "rank": 70970,
        "rank_sort": 71030,
        "total": 2340
      },
      {
        "club_badge_src": null,
        "entry": 2523294,
        "entry_name": "NADUS",
        "event_total": 46,
        "has_played": true,
        "id": 18080390,
        "last_rank": 52461,
        "player_name": "M7med 3li",
        "rank": 70970,
        "rank_sort": 71031,
        "total": 2340
      },
      {
        "club_badge_src": null,
        "entry": 2542260,
        "entry_name": "Asal Boleh",
        "event_total": 62,
        "has_played": true,
        "id": 18220574,
        "last_rank": 83018,
        "player_name": "MZAB Al-Koleqi",
        "rank": 70970,
        "rank_sort": 71032,
        "total": 2340
      },
      {
        "club_badge_src": "https://fantasy.premierleague.com/gcs/plfpl-production-adobe-approved/plfpl-production/2569404/3330f86e-bc06-4216-bc5d-b8b2ede8defe.png",
        "entry": 2569404,
        "entry_name": "I'm a Baleba",
        "event_total": 61,
        "has_played": true,
        "id": 18434693,
        "last_rank": 80781,
        "player_name": "Ishaq Choudhury",
        "rank": 70970,
        "rank_sort": 71033,
        "total": 2340
      },
      {
        "club_badge_src": null,
        "entry": 2592430,
        "entry_name": "Black Mama King 11",
        "event_total": 77,
        "has_played": true,
        "id": 18613311,
        "last_rank": 110416,
        "player_name": "Black mama Black mama",
        "rank": 70970,
        "rank_sort": 71034,
        "total": 2340
      },
      {
        "club_badge_src": "https://fantasy.premierleague.com/gcs/plfpl-production-adobe-approved/plfpl-production/2756951/076e620e-dbb3-4752-a81f-5349c33672e3.png",
        "entry": 2756951,
        "entry_name": "Toji",
        "event_total": 45,
        "has_played": true,
        "id": 20092544,
        "last_rank": 44804,
        "player_name": "Jirapus Techasirinukul",
        "rank": 70970,
        "rank_sort": 71035,
        "total": 2340
      },
      {
        "club_badge_src": null,
        "entry": 2772631,
        "entry_name": "Show me the Man\u00e9",
        "event_total": 66,
        "has_played": true,
        "id": 20230898,
        "last_rank": 82873,
        "player_name": "Ben Pritchett",
        "rank": 70970,
        "rank_sort": 71036,
        "total": 2340
      },
      {
        "club_badge_src": null,
        "entry": 2831537,
        "entry_name": "3armosh",
        "event_total": 66,
        "has_played": true,
        "id": 20690850,
        "last_rank": 82873,
        "player_name": "George Amin",
        "rank": 70970,
        "rank_sort": 71037,
        "total": 2340
      },
      {
        "club_badge_src": null,
        "entry": 2896426,
        "entry_name": "Damsgaardians",
        "event_total": 59,
        "has_played": true,
        "id": 21222006,
        "last_rank": 76330,
        "player_name": "Jake Tickner",
        "rank": 70970,
        "rank_sort": 71038,
        "total": 2340
      },
      {
        "club_badge_src": null,
        "entry": 3044898,
        "entry_name": "PRIMA",
        "event_total": 62,
        "has_played": true,
        "id": 22413949,
        "last_rank": 74166,
        "player_name": "AHMED AFIFI",
        "rank": 70970,
        "rank_sort": 71039,
        "total": 2340
      },
      {
        "club_badge_src": null,
        "entry": 3131903,
        "entry_name": "David Blackwell",
        "event_total": 64,
        "has_played": true,
        "id": 23117002,
        "last_rank": 87541,
        "player_name": "Chibuzor David",
        "rank": 70970,
        "rank_sort": 71040,
        "total": 2340
      },
      {
        "club_badge_src": null,
        "entry": 3193026,
        "entry_name": "Majekodunmi Fc",
        "event_total": 50,
        "has_played": true,
        "id": 23598734,
        "last_rank": 59170,
        "player_name": "Olaide Oguntowo",
        "rank": 70970,
        "rank_sort": 71041,
        "total": 2340
      },
      {
        "club_badge_src": null,
        "entry": 3298318,
        "entry_name": "Mission Frimpossible",
        "event_total": 51,
        "has_played": true,
        "id": 24426573,
        "last_rank": 60827,
        "player_name": "Sam McCartney",
        "rank": 70970,
        "rank_sort": 71042,
        "total": 2340
      },
      {
        "club_badge_src": null,
        "entry": 3333143,
        "entry_name": "Jammy Dodgers?",
        "event_total": 64,
        "has_played": true,
        "id": 24714372,
        "last_rank": 87541,
        "player_name": "Viral Sheth",
        "rank": 70970,
        "rank_sort": 71043,
        "total": 2340
      },
      {
        "club_badge_src": null,
        "entry": 3471135,
        "entry_name": "Fc kananpojat",
        "event_total": 39,
        "has_played": true,
        "id": 25805780,
        "last_rank": 42152,
        "player_name": "niko rasinkangas",
        "rank": 70970,
        "rank_sort": 71044,
        "total": 2340
      },
      {
        "club_badge_src": null,
        "entry": 3535410,
        "entry_name": "GingiLing",
        "event_total": 65,
        "has_played": true,
        "id": 26314626,
        "last_rank": 90057,
        "player_name": "Mirsad Kukic",
        "rank": 70970,
        "rank_sort": 71045,
        "total": 2340
      },
      {
        "club_badge_src": null,
        "entry": 3683453,
        "entry_name": "Inini ndoda Sadza",
        "event_total": 75,
        "has_played": true,
        "id": 27477127,
        "last_rank": 116017,
        "player_name": "Dean Kamedza",
        "rank": 70970,
        "rank_sort": 71046,
        "total": 2340
      },
      {
        "club_badge_src": null,
        "entry": 3802250,
        "entry_name": "Too Eze",
        "event_total": 69,
        "has_played": true,
        "id": 28424344,
        "last_rank": 99959,
        "player_name": "Ben Watts",
        "rank": 70970,
        "rank_sort": 71047,
        "total": 2340
      },
      {
        "club_badge_src": null,
        "entry": 3856063,
        "entry_name": "world champions",
        "event_total": 41,
        "has_played": true,
        "id": 28909035,
        "last_rank": 44882,
        "player_name": "Steve DALLY",
        "rank": 70970,
        "rank_sort": 71048,
        "total": 2340
      },
      {
        "club_badge_src": null,
        "entry": 3896305,
        "entry_name": "slot the lot",
        "event_total": 56,
        "has_played": true,
        "id": 29284441,
        "last_rank": 62617,
        "player_name": "John Seddon",
        "rank": 70970,
        "rank_sort": 71049,
        "total": 2340
      },
      {
        "club_badge_src": null,
        "entry": 3989931,
        "entry_name": "\u010c\u00edhysFC",
        "event_total": 65,
        "has_played": true,
        "id": 30042372,
        "last_rank": 89706,
        "player_name": "Luk\u00e1\u0161 \u010cihal",
        "rank": 70970,
        "rank_sort": 71050,
        "total": 2340
      }
    ]
  }
}