{
  "last_updated_data": "2026-05-24T23:28:17Z",
  "league": {
    "admin_entry": null,
    "closed": false,
    "code_privacy": "p",
    "created": "2025-07-20T23:14:33.933835Z",
    "cup_league": 2815434,
    "has_cup": true,
    "id": 314,
    "league_type": "s",
    "max_entries": null,
    "name": "Overall",
    "rank": null,
    "scoring": "c",
    "start_event": 1
  },
  "new_entries": {
    "has_next": false,
    "page": 1,
    "results": []
  },
  "standings": {
    "has_next": true,
    "page": 523,
    "results": [
      {
        "club_badge_src": null,
        "entry": 566341,
        "entry_name": "Sesko club card",
        "event_total": 85,
        "has_played": true,
        "id": 3811780,
        "last_rank": 63063,
        "player_name": "Paddy Fehily",
        "rank": 26095,
        "rank_sort": 26101,
        "total": 2372
      },
      {
        "club_badge_src": null,
        "entry": 583576,
        "entry_name": "Jox",
        "event_total": 37,
        "has_played": true,
        "id": 3927309,
        "last_rank": 12200,
        "player_name": "Youssef saeed",
        "rank": 26095,
        "rank_sort": 26102,
        "total": 2372
      },
      {
        "club_badge_src": null,
        "entry": 596985,
        "entry_name": "Havertz Your Way",
        "event_total": 37,
        "has_played": true,
        "id": 4025509,
        "last_rank": 12200,
        "player_name": "Alex Kenyon",
        "rank": 26095,
        "rank_sort": 26103,
        "total": 2372
      },
      {
        "club_badge_src": null,
        "entry": 635211,
        "entry_name": "That\u2019s NumberHwang",
        "event_total": 58,
        "has_played": true,
        "id": 4292919,
        "last_rank": 26656,
        "player_name": "Christopher Gage",
        "rank": 26095,
        "rank_sort": 26104,
        "total": 2372
      },
      {
        "club_badge_src": null,
        "entry": 656893,
        "entry_name": "Yesam FC",
        "event_total": 45,
        "has_played": true,
        "id": 4439275,
        "last_rank": 16807,
        "player_name": "Samuel Yeboah",
        "rank": 26095,
        "rank_sort": 26105,
        "total": 2372
      },
      {
        "club_badge_src": "https://fantasy.premierleague.com/gcs/plfpl-production-adobe-approved/plfpl-production/1087366/aadbaf7b-0e27-4f1c-8fa2-bc0f30512282.png",
        "entry": 1087366,
        "entry_name": "MAXvision FC",
        "event_total": 69,
        "has_played": true,
        "id": 7530407,
        "last_rank": 38528,
        "player_name": "Max Kramer",
        "rank": 26095,
        "rank_sort": 26106,
        "total": 2372
      },
      {
        "club_badge_src": null,
        "entry": 1235793,
        "entry_name": "Hillside FC",
        "event_total": 42,
        "has_played": true,
        "id": 8581559,
        "last_rank": 14857,
        "player_name": "Shaun Bailey",
        "rank": 26095,
        "rank_sort": 26107,
        "total": 2372
      },
      {
        "club_badge_src": null,
        "entry": 1430772,
        "entry_name": "Monstr\u00f8se Makkere",
        "event_total": 45,
        "has_played": true,
        "id": 9969719,
        "last_rank": 16807,
        "player_name": "Mathias Ringberg",
        "rank": 26095,
        "rank_sort": 26108,
        "total": 2372
      },
      {
        "club_badge_src": null,
        "entry": 1443395,
        "entry_name": "Still above spurs FC",
        "event_total": 62,
        "has_played": true,
        "id": 10057812,
        "last_rank": 30600,
        "player_name": "Jordan Holes",
        "rank": 26095,
        "rank_sort": 26109,
        "total": 2372
      },
      {
        "club_badge_src": null,
        "entry": 1613715,
        "entry_name": "Va Va Voom!",
        "event_total": 62,
        "has_played": true,
        "id": 11291455,
        "last_rank": 30536,
        "player_name": "Roderic Johnson",
        "rank": 26095,
        "rank_sort": 26110,
        "total": 2372
      },
      {
        "club_badge_src": null,
        "entry": 1645688,
        "entry_name": "goWrogn",
        "event_total": 73,
        "has_played": true,
        "id": 11519941,
        "last_rank": 43757,
        "player_name": "Gaurang Parulekar",
        "rank": 26095,
        "rank_sort": 26111,
        "total": 2372
      },
      {
        "club_badge_src": null,
        "entry": 1816770,
        "entry_name": "yany",
        "event_total": 46,
        "has_played": true,
        "id": 12775856,
        "last_rank": 17327,
        "player_name": "Jan Trnovski",
        "rank": 26095,
        "rank_sort": 26112,
        "total": 2372
      },
      {
        "club_badge_src": null,
        "entry": 1942010,
        "entry_name": "Odegoood",
        "event_total": 66,
        "has_played": true,
        "id": 13698474,
        "last_rank": 34969,
        "player_name": "Syl Koh",
        "rank": 26095,
        "rank_sort": 26113,
        "total": 2372
      },
      {
        "club_badge_src": null,
        "entry": 2037016,
        "entry_name": "Nozmos",
        "event_total": 51,
        "has_played": true,
        "id": 14424194,
        "last_rank": 20983,
        "player_name": "Norayr Djerrahian",
        "rank": 26095,
        "rank_sort": 26114,
        "total": 2372
      },
      {
        "club_badge_src": "https://fantasy.premierleague.com/gcs/plfpl-production-adobe-approved/plfpl-production/2201066/57d61fb5-e984-4d6f-908e-ee51ad27dc2a.png",
        "entry": 2201066,
        "entry_name": "Fc youri",
        "event_total": 80,
        "has_played": true,
        "id": 15663623,
        "last_rank": 54667,
        "player_name": "Younes Youri \ud83e\udd28",
        "rank": 26095,
        "rank_sort": 26115,
        "total": 2372
      },
      {
        "club_badge_src": null,
        "entry": 2709843,
        "entry_name": "Cabaye of the Tiger",
        "event_total": 40,
        "has_played": true,
        "id": 19496707,
        "last_rank": 13821,
        "player_name": "Robin Phipps",
        "rank": 26095,
        "rank_sort": 26116,
        "total": 2372
      },
      {
        "club_badge_src": null,
        "entry": 2736226,
        "entry_name": "Tito's Toffees",
        "event_total": 54,
        "has_played": true,
        "id": 19690479,
        "last_rank": 23341,
        "player_name": "Zach Aston",
        "rank": 26095,
        "rank_sort": 26117,
        "total": 2372
      },
      {
        "club_badge_src": null,
        "entry": 3298194,
        "entry_name": "Saka Potatoes",
        "event_total": 65,
        "has_played": true,
        "id": 24425565,
        "last_rank": 33936,
        "player_name": "Richard Creek",
        "rank": 26095,
        "rank_sort": 26118,
        "total": 2372
      },
      {
        "club_badge_src": null,
        "entry": 3306277,
        "entry_name": "Haribo Sch\u00e4rmix",
        "event_total": 68,
        "has_played": true,
        "id": 24490721,
        "last_rank": 37435,
        "player_name": "Matt Peer",
        "rank": 26095,
        "rank_sort": 26119,
        "total": 2372
      },
      {
        "club_badge_src": null,
        "entry": 3763123,
        "entry_name": "ahmed banana",
        "event_total": 39,
        "has_played": true,
        "id": 28097483,
        "last_rank": 13184,
        "player_name": "Ahmed Banana",
        "rank": 26095,
        "rank_sort": 26120,
        "total": 2372
      },
      {
        "club_badge_src": null,
        "entry": 3890455,
        "entry_name": "john mahon",
        "event_total": 51,
        "has_played": true,
        "id": 29235682,
        "last_rank": 20853,
        "player_name": "john mahon",
        "rank": 26095,
        "rank_sort": 26121,
        "total": 2372
      },
      {
        "club_badge_src": null,
        "entry": 4220815,
        "entry_name": "Jase & Status",
        "event_total": 65,
        "has_played": true,
        "id": 31972237,
        "last_rank": 33869,
        "player_name": "Jason Quilter",
        "rank": 26095,
        "rank_sort": 26122,
        "total": 2372
      },
      {
        "club_badge_src": null,
        "entry": 4581070,
        "entry_name": "No Piroe No Party",
        "event_total": 59,
        "has_played": true,
        "id": 34971833,
        "last_rank": 27585,
        "player_name": "Ethan Wetherell",
        "rank": 26095,
        "rank_sort": 26123,
        "total": 2372
      },
      {
        "club_badge_src": null,
        "entry": 4738060,
        "entry_name": "Peaky Blinders FC",
        "event_total": 51,
        "has_played": true,
        "id": 36454580,
        "last_rank": 20826,
        "player_name": "Eryk Kasprzak",
        "rank": 26095,
        "rank_sort": 26124,
        "total": 2372
      },
      {
        "club_badge_src": "https://fantasy.premierleague.com/gcs/plfpl-production-adobe-approved/plfpl-production/4749021/66a47cc1-c53f-4bfc-b796-7ce49661b7ab.png",
        "entry": 4749021,
        "entry_name": "teamoflargenumbers",
        "event_total": 63,
        "has_played": true,
        "id": 36543105,
        "last_rank": 31556,
        "player_name": "Mads Bech",
        "rank": 26095,
        "rank_sort": 26125,
        "total": 2372
      },
      {
        "club_badge_src": null,
        "entry": 5081727,
        "entry_name": "\u00d8degaardian Angel",
        "event_total": 45,
        "has_played": true,
        "id": 39275370,
        "last_rank": 16807,
        "player_name": "Alex Hunt",
        "rank": 26095,
        "rank_sort": 26126,
        "total": 2372
      },
      {
        "club_badge_src": null,
        "entry": 5808772,
        "entry_name": "Saka Potatoes",
        "event_total": 63,
        "has_played": true,
        "id": 45575940,
        "last_rank": 31556,
        "player_name": "Michael O Connor",
        "rank": 26095,
        "rank_sort": 26127,
        "total": 2372
      },
      {
        "club_badge_src": null,
        "entry": 6430709,
        "entry_name": "Just 1 Cornet 0",
        "event_total": 61,
        "has_played": true,
        "id": 51191478,
        "last_rank": 29578,
        "player_name": "Chris Gristwood",
        "rank": 26095,
        "rank_sort": 26128,
        "total": 2372
      },
      {
        "club_badge_src": null,
        "entry": 6467479,
        "entry_name": "Melrose Magicians",
        "event_total": 69,
        "has_played": true,
        "id": 51528230,
        "last_rank": 38528,
        "player_name": "Trevor Cooper",
        "rank": 26095,
        "rank_sort": 26129,
        "total": 2372
      },
      {
        "club_badge_src": null,
        "entry": 6531346,
        "entry_name": "No Kluivert",
        "event_total": 62,
        "has_played": true,
        "id": 52101107,
        "last_rank": 30600,
        "player_name": "harry hayden",
        "rank": 26095,
        "rank_sort": 26130,
        "total": 2372
      },
      {
        "club_badge_src": null,
        "entry": 7076889,
        "entry_name": "Cob1995",
        "event_total": 69,
        "has_played": true,
        "id": 56954313,
        "last_rank": 38542,
        "player_name": "Ciaran O-Brien",
        "rank": 26095,
        "rank_sort": 26131,
        "total": 2372
      },
      {
        "club_badge_src": "https://fantasy.premierleague.com/gcs/plfpl-production-adobe-approved/plfpl-production/7324721/56938115-3cb8-46e2-a5c0-0fb02cb66b35.png",
        "entry": 7324721,
        "entry_name": "g\u00fcndowins",
        "event_total": 56,
        "has_played": true,
        "id": 59308577,
        "last_rank": 24857,
        "player_name": "Josh Martin",
        "rank": 26095,
        "rank_sort": 26132,
        "total": 2372
      },
      {
        "club_badge_src": null,
        "entry": 7689763,
        "entry_name": "Areola_Grande",
        "event_total": 61,
        "has_played": true,
        "id": 63079487,
        "last_rank": 29688,
        "player_name": "Elise Krogstad",
        "rank": 26095,
        "rank_sort": 26133,
        "total": 2372
      },
      {
        "club_badge_src": null,
        "entry": 7758957,
        "entry_name": "Decks mess",
        "event_total": 61,
        "has_played": true,
        "id": 63703705,
        "last_rank": 29578,
        "player_name": "deck Corcoran",
        "rank": 26095,
        "rank_sort": 26134,
        "total": 2372
      },
      {
        "club_badge_src": null,
        "entry": 8261364,
        "entry_name": "Bags n bags of glory",
        "event_total": 28,
        "has_played": true,
        "id": 68332513,
        "last_rank": 8382,
        "player_name": "Stuart Ross",
        "rank": 26095,
        "rank_sort": 26135,
        "total": 2372
      },
      {
        "club_badge_src": null,
        "entry": 8614854,
        "entry_name": "Lana del Raya",
        "event_total": 55,
        "has_played": true,
        "id": 71741310,
        "last_rank": 24039,
        "player_name": "Nadia Kusneraitis",
        "rank": 26095,
        "rank_sort": 26136,
        "total": 2372
      },
      {
        "club_badge_src": null,
        "entry": 9101145,
        "entry_name": "SaturdayDwightFever",
        "event_total": 59,
        "has_played": true,
        "id": 76463330,
        "last_rank": 27585,
        "player_name": "Graeme Davies",
        "rank": 26095,
        "rank_sort": 26137,
        "total": 2372
      },
      {
        "club_badge_src": null,
        "entry": 9353743,
        "entry_name": "Gilet",
        "event_total": 64,
        "has_played": true,
        "id": 78922778,
        "last_rank": 32751,
        "player_name": "Hannah Lambe",
        "rank": 26095,
        "rank_sort": 26138,
        "total": 2372
      },
      {
        "club_badge_src": null,
        "entry": 121,
        "entry_name": "Mayor",
        "event_total": 75,
        "has_played": true,
        "id": 667,
        "last_rank": 46660,
        "player_name": "Brad Lyne",
        "rank": 26139,
        "rank_sort": 26139,
        "total": 2372
      },
      {
        "club_badge_src": "https://fantasy.premierleague.com/gcs/plfpl-production-adobe-approved/plfpl-production/5031/1ec5f55f-998d-4c5d-9a1f-df303c6eae40.png",
        "entry": 5031,
        "entry_name": "Danielw457",
        "event_total": 64,
        "has_played": true,
        "id": 28654,
        "last_rank": 32879,
        "player_name": "Daniel Williams",
        "rank": 26139,
        "rank_sort": 26140,
        "total": 2372
      },
      {
        "club_badge_src": null,
        "entry": 16297,
        "entry_name": "Darren's Dynamo's",
        "event_total": 69,
        "has_played": true,
        "id": 100581,
        "last_rank": 38644,
        "player_name": "Darren Middleton",
        "rank": 26139,
        "rank_sort": 26141,
        "total": 2372
      },
      {
        "club_badge_src": "https://fantasy.premierleague.com/gcs/plfpl-production-adobe-approved/plfpl-production/20346/232ac7a4-6968-4735-8c45-a5e4c9233c3e.png",
        "entry": 20346,
        "entry_name": "Seguraaaa",
        "event_total": 68,
        "has_played": true,
        "id": 126786,
        "last_rank": 37435,
        "player_name": "Younes L",
        "rank": 26139,
        "rank_sort": 26142,
        "total": 2372
      },
      {
        "club_badge_src": "https://fantasy.premierleague.com/gcs/plfpl-production-adobe-approved/plfpl-production/20598/24361df0-a00e-4ed0-9a22-2d3642be93d2.png",
        "entry": 20598,
        "entry_name": "Dunk & Disorderly",
        "event_total": 61,
        "has_played": true,
        "id": 128698,
        "last_rank": 29522,
        "player_name": "Rob Shapland",
        "rank": 26139,
        "rank_sort": 26143,
        "total": 2372
      },
      {
        "club_badge_src": null,
        "entry": 21810,
        "entry_name": "Eibars best",
        "event_total": 58,
        "has_played": true,
        "id": 136812,
        "last_rank": 26710,
        "player_name": "Carl Wilson",
        "rank": 26139,
        "rank_sort": 26144,
        "total": 2372
      },
      {
        "club_badge_src": null,
        "entry": 25242,
        "entry_name": "Devoted WALTER Hater",
        "event_total": 54,
        "has_played": true,
        "id": 159668,
        "last_rank": 23341,
        "player_name": "Thomas Daines",
        "rank": 26139,
        "rank_sort": 26145,
        "total": 2372
      },
      {
        "club_badge_src": "https://fantasy.premierleague.com/gcs/plfpl-production-adobe-approved/plfpl-production/25919/9fa8fdb2-9487-453e-befd-e3b4c765920a.png",
        "entry": 25919,
        "entry_name": "Khwan Muang Park",
        "event_total": 66,
        "has_played": true,
        "id": 163904,
        "last_rank": 35034,
        "player_name": "\u0e01\u0e19\u0e19\u0e32\u0e42\u0e0a\u0e48 Nathan",
        "rank": 26139,
        "rank_sort": 26146,
        "total": 2372
      },
      {
        "club_badge_src": "https://fantasy.premierleague.com/gcs/plfpl-production-adobe-approved/plfpl-production/30524/e57ea334-f812-4e07-b8c5-2926f1e44c4c.png",
        "entry": 30524,
        "entry_name": "On Porrowed Time",
        "event_total": 59,
        "has_played": true,
        "id": 193178,
        "last_rank": 27644,
        "player_name": "Joshua Gray",
        "rank": 26139,
        "rank_sort": 26147,
        "total": 2372
      },
      {
        "club_badge_src": null,
        "entry": 31082,
        "entry_name": "midlertidig",
        "event_total": 57,
        "has_played": true,
        "id": 196824,
        "last_rank": 25902,
        "player_name": "Henrik Fl\u00e5tt Hermansen",
        "rank": 26139,
        "rank_sort": 26148,
        "total": 2372
      },
      {
        "club_badge_src": "https://fantasy.premierleague.com/gcs/plfpl-production-adobe-approved/plfpl-production/34786/e5f5926f-5f86-415e-bd40-82cb5107be1f.png",
        "entry": 34786,
        "entry_name": "Tel me Why",
        "event_total": 59,
        "has_played": true,
        "id": 222379,
        "last_rank": 27770,
        "player_name": "Mr. morale",
        "rank": 26139,
        "rank_sort": 26149,
        "total": 2372
      },
      {
        "club_badge_src": null,
        "entry": 37173,
        "entry_name": "Yoro Wizard Harry",
        "event_total": 65,
        "has_played": true,
        "id": 238056,
        "last_rank": 33936,
        "player_name": "Ross Collier",
        "rank": 26139,
        "rank_sort": 26150,
        "total": 2372
      }
    ]
  }
}