{
  "last_updated_data": "2026-05-24T23:28:17Z",
  "league": {
    "admin_entry": null,
    "closed": false,
    "code_privacy": "p",
    "created": "2025-07-20T23:14:33.933835Z",
    "cup_league": 2815434,
    "has_cup": true,
    "id": 314,
    "league_type": "s",
    "max_entries": null,
    "name": "Overall",
    "rank": null,
    "scoring": "c",
    "start_event": 1
  },
  "new_entries": {
    "has_next": false,
    "page": 1,
    "results": []
  },
  "standings": {
    "has_next": true,
    "page": 566,
    "results": [
      {
        "club_badge_src": null,
        "entry": 1279900,
        "entry_name": "Chao5",
        "event_total": 40,
        "has_played": true,
        "id": 8893728,
        "last_rank": 15063,
        "player_name": "sp y",
        "rank": 28179,
        "rank_sort": 28251,
        "total": 2370
      },
      {
        "club_badge_src": null,
        "entry": 1354663,
        "entry_name": "HIDIRIDI",
        "event_total": 59,
        "has_played": true,
        "id": 9416934,
        "last_rank": 29578,
        "player_name": "wan z",
        "rank": 28179,
        "rank_sort": 28252,
        "total": 2370
      },
      {
        "club_badge_src": null,
        "entry": 1434898,
        "entry_name": "Teimlo'n Salech",
        "event_total": 60,
        "has_played": true,
        "id": 9998337,
        "last_rank": 30957,
        "player_name": "Ifan Price",
        "rank": 28179,
        "rank_sort": 28253,
        "total": 2370
      },
      {
        "club_badge_src": null,
        "entry": 1611753,
        "entry_name": "OneChatWithSlot.....",
        "event_total": 44,
        "has_played": true,
        "id": 11276926,
        "last_rank": 17585,
        "player_name": "Pardeep Bithal",
        "rank": 28179,
        "rank_sort": 28254,
        "total": 2370
      },
      {
        "club_badge_src": null,
        "entry": 1620384,
        "entry_name": "Slot Machine",
        "event_total": 68,
        "has_played": true,
        "id": 11339593,
        "last_rank": 35166,
        "player_name": "Matt Glazier",
        "rank": 28179,
        "rank_sort": 28255,
        "total": 2370
      },
      {
        "club_badge_src": null,
        "entry": 1640445,
        "entry_name": "Boomerang Trotter",
        "event_total": 64,
        "has_played": true,
        "id": 11483139,
        "last_rank": 35424,
        "player_name": "Paul Young",
        "rank": 28179,
        "rank_sort": 28256,
        "total": 2370
      },
      {
        "club_badge_src": null,
        "entry": 1707174,
        "entry_name": "kelly's Heros",
        "event_total": 67,
        "has_played": true,
        "id": 11960258,
        "last_rank": 38774,
        "player_name": "Paul Harwood",
        "rank": 28179,
        "rank_sort": 28257,
        "total": 2370
      },
      {
        "club_badge_src": null,
        "entry": 1712100,
        "entry_name": "Wpi3rdol_TheReds",
        "event_total": 63,
        "has_played": true,
        "id": 11996441,
        "last_rank": 34051,
        "player_name": "Sebastian Kulesza",
        "rank": 28179,
        "rank_sort": 28258,
        "total": 2370
      },
      {
        "club_badge_src": null,
        "entry": 1727567,
        "entry_name": "El Toro",
        "event_total": 55,
        "has_played": true,
        "id": 12115831,
        "last_rank": 25902,
        "player_name": "Victor H\u00f6gn\u00e4s",
        "rank": 28179,
        "rank_sort": 28259,
        "total": 2370
      },
      {
        "club_badge_src": "https://fantasy.premierleague.com/gcs/plfpl-production-adobe-approved/plfpl-production/1747311/07006360-58c3-463f-b38f-0b15766cbf17.png",
        "entry": 1747311,
        "entry_name": "SSB Tegal Parang",
        "event_total": 57,
        "has_played": true,
        "id": 12261520,
        "last_rank": 28150,
        "player_name": "Rane Slot",
        "rank": 28179,
        "rank_sort": 28260,
        "total": 2370
      },
      {
        "club_badge_src": null,
        "entry": 1784161,
        "entry_name": "S&C",
        "event_total": 49,
        "has_played": true,
        "id": 12535353,
        "last_rank": 21301,
        "player_name": "Ali Ashraf",
        "rank": 28179,
        "rank_sort": 28261,
        "total": 2370
      },
      {
        "club_badge_src": null,
        "entry": 1796110,
        "entry_name": "fuzzywuzzywasawoman",
        "event_total": 59,
        "has_played": true,
        "id": 12621871,
        "last_rank": 29904,
        "player_name": "Pete Lawlor",
        "rank": 28179,
        "rank_sort": 28262,
        "total": 2370
      },
      {
        "club_badge_src": null,
        "entry": 1891049,
        "entry_name": "Neville Wears Prada",
        "event_total": 65,
        "has_played": true,
        "id": 13328210,
        "last_rank": 36624,
        "player_name": "Hywel Bartlett",
        "rank": 28179,
        "rank_sort": 28263,
        "total": 2370
      },
      {
        "club_badge_src": null,
        "entry": 1910539,
        "entry_name": "Miami Rice",
        "event_total": 63,
        "has_played": true,
        "id": 13469665,
        "last_rank": 34293,
        "player_name": "Connor Hayes",
        "rank": 28179,
        "rank_sort": 28264,
        "total": 2370
      },
      {
        "club_badge_src": "https://fantasy.premierleague.com/gcs/plfpl-production-adobe-approved/plfpl-production/1959853/e0f14bda-62ca-4849-a3e2-8f6e365d26f5.png",
        "entry": 1959853,
        "entry_name": "Lord Bacon of Ham",
        "event_total": 50,
        "has_played": true,
        "id": 13827001,
        "last_rank": 21775,
        "player_name": "Frederik van Stuyvesant Meijen",
        "rank": 28179,
        "rank_sort": 28265,
        "total": 2370
      },
      {
        "club_badge_src": null,
        "entry": 1978799,
        "entry_name": "kjaasen",
        "event_total": 62,
        "has_played": true,
        "id": 13969858,
        "last_rank": 32751,
        "player_name": "Kjetil Aasen",
        "rank": 28179,
        "rank_sort": 28266,
        "total": 2370
      },
      {
        "club_badge_src": null,
        "entry": 2031267,
        "entry_name": "Yamal's 11 dwarfs",
        "event_total": 61,
        "has_played": true,
        "id": 14380814,
        "last_rank": 27770,
        "player_name": "Nicolas Fragoyiannis",
        "rank": 28179,
        "rank_sort": 28267,
        "total": 2370
      },
      {
        "club_badge_src": null,
        "entry": 2033961,
        "entry_name": "Sulaiman",
        "event_total": 52,
        "has_played": true,
        "id": 14400788,
        "last_rank": 23522,
        "player_name": "Sulaiman-- Alsheikh",
        "rank": 28179,
        "rank_sort": 28268,
        "total": 2370
      },
      {
        "club_badge_src": null,
        "entry": 2470887,
        "entry_name": "Yuddypool",
        "event_total": 59,
        "has_played": true,
        "id": 17676266,
        "last_rank": 29688,
        "player_name": "Yuthadej Thaweekul",
        "rank": 28179,
        "rank_sort": 28269,
        "total": 2370
      },
      {
        "club_badge_src": null,
        "entry": 2493084,
        "entry_name": "HazLovesFrankfurters",
        "event_total": 64,
        "has_played": true,
        "id": 17848299,
        "last_rank": 35166,
        "player_name": "Charlie Molnar",
        "rank": 28179,
        "rank_sort": 28270,
        "total": 2370
      },
      {
        "club_badge_src": null,
        "entry": 2528160,
        "entry_name": "abdallah",
        "event_total": 86,
        "has_played": true,
        "id": 18115880,
        "last_rank": 68957,
        "player_name": "Abdallah Ahmed",
        "rank": 28179,
        "rank_sort": 28271,
        "total": 2370
      },
      {
        "club_badge_src": null,
        "entry": 2561864,
        "entry_name": "Just a Slot machine",
        "event_total": 59,
        "has_played": true,
        "id": 18374261,
        "last_rank": 29578,
        "player_name": "Nicky Kong",
        "rank": 28179,
        "rank_sort": 28272,
        "total": 2370
      },
      {
        "club_badge_src": null,
        "entry": 2776044,
        "entry_name": "partim\u00e5let ff",
        "event_total": 47,
        "has_played": true,
        "id": 20258988,
        "last_rank": 19721,
        "player_name": "Milton Olsson",
        "rank": 28179,
        "rank_sort": 28273,
        "total": 2370
      },
      {
        "club_badge_src": null,
        "entry": 2815658,
        "entry_name": "Ange Pustekuchen",
        "event_total": 51,
        "has_played": true,
        "id": 20565940,
        "last_rank": 22685,
        "player_name": "Markus F\u00fchrer",
        "rank": 28179,
        "rank_sort": 28274,
        "total": 2370
      },
      {
        "club_badge_src": null,
        "entry": 2880609,
        "entry_name": "thatcher's dead",
        "event_total": 40,
        "has_played": true,
        "id": 21087250,
        "last_rank": 15063,
        "player_name": "Scott Lilley",
        "rank": 28179,
        "rank_sort": 28275,
        "total": 2370
      },
      {
        "club_badge_src": null,
        "entry": 3092379,
        "entry_name": "4ikaal",
        "event_total": 54,
        "has_played": true,
        "id": 22790624,
        "last_rank": 25172,
        "player_name": "Martin Aam",
        "rank": 28179,
        "rank_sort": 28276,
        "total": 2370
      },
      {
        "club_badge_src": null,
        "entry": 3352264,
        "entry_name": "wunited",
        "event_total": 69,
        "has_played": true,
        "id": 24869514,
        "last_rank": 41162,
        "player_name": "Francis Thiongo",
        "rank": 28179,
        "rank_sort": 28277,
        "total": 2370
      },
      {
        "club_badge_src": null,
        "entry": 3383625,
        "entry_name": "Wrong Captain Again",
        "event_total": 62,
        "has_played": true,
        "id": 25117181,
        "last_rank": 33147,
        "player_name": "Nicola Mellor",
        "rank": 28179,
        "rank_sort": 28278,
        "total": 2370
      },
      {
        "club_badge_src": null,
        "entry": 3574457,
        "entry_name": "Champagne Khusanova",
        "event_total": 46,
        "has_played": true,
        "id": 26616394,
        "last_rank": 16163,
        "player_name": "Liam Emery",
        "rank": 28179,
        "rank_sort": 28279,
        "total": 2370
      },
      {
        "club_badge_src": null,
        "entry": 3578239,
        "entry_name": "Elite Supreme",
        "event_total": 77,
        "has_played": true,
        "id": 26645482,
        "last_rank": 53345,
        "player_name": "Fredrik Kullerud",
        "rank": 28179,
        "rank_sort": 28280,
        "total": 2370
      },
      {
        "club_badge_src": null,
        "entry": 3608823,
        "entry_name": "youngamechanger",
        "event_total": 49,
        "has_played": true,
        "id": 26882392,
        "last_rank": 21301,
        "player_name": "tre tanaka",
        "rank": 28179,
        "rank_sort": 28281,
        "total": 2370
      },
      {
        "club_badge_src": null,
        "entry": 3793723,
        "entry_name": "Bobb's Yer Uncle",
        "event_total": 67,
        "has_played": true,
        "id": 28354099,
        "last_rank": 39023,
        "player_name": "Martin Thundercliffe",
        "rank": 28179,
        "rank_sort": 28282,
        "total": 2370
      },
      {
        "club_badge_src": null,
        "entry": 3979087,
        "entry_name": "Throwing Schade",
        "event_total": 61,
        "has_played": true,
        "id": 29951588,
        "last_rank": 31995,
        "player_name": "richard towey",
        "rank": 28179,
        "rank_sort": 28283,
        "total": 2370
      },
      {
        "club_badge_src": null,
        "entry": 3995024,
        "entry_name": "showmethemuniz",
        "event_total": 64,
        "has_played": true,
        "id": 30084846,
        "last_rank": 35166,
        "player_name": "Scott Pickett",
        "rank": 28179,
        "rank_sort": 28284,
        "total": 2370
      },
      {
        "club_badge_src": null,
        "entry": 4041428,
        "entry_name": "The Life of Bryan",
        "event_total": 52,
        "has_played": true,
        "id": 30478588,
        "last_rank": 23341,
        "player_name": "Matthew Kennedy",
        "rank": 28179,
        "rank_sort": 28285,
        "total": 2370
      },
      {
        "club_badge_src": null,
        "entry": 4051720,
        "entry_name": "Mbeumo Jumbo",
        "event_total": 60,
        "has_played": true,
        "id": 30563226,
        "last_rank": 30727,
        "player_name": "Aaron Renaghan",
        "rank": 28179,
        "rank_sort": 28286,
        "total": 2370
      },
      {
        "club_badge_src": null,
        "entry": 4080380,
        "entry_name": "d'you mean lamal",
        "event_total": 62,
        "has_played": true,
        "id": 30802648,
        "last_rank": 33147,
        "player_name": "Jack Gage",
        "rank": 28179,
        "rank_sort": 28287,
        "total": 2370
      },
      {
        "club_badge_src": null,
        "entry": 4123645,
        "entry_name": "Inter Row Z",
        "event_total": 62,
        "has_played": true,
        "id": 31155072,
        "last_rank": 33147,
        "player_name": "Matthew Jones",
        "rank": 28179,
        "rank_sort": 28288,
        "total": 2370
      },
      {
        "club_badge_src": null,
        "entry": 4168982,
        "entry_name": "ABK FC",
        "event_total": 53,
        "has_played": true,
        "id": 31528478,
        "last_rank": 24143,
        "player_name": "Chris Bridge",
        "rank": 28179,
        "rank_sort": 28289,
        "total": 2370
      },
      {
        "club_badge_src": null,
        "entry": 4348239,
        "entry_name": "neeked v3",
        "event_total": 62,
        "has_played": true,
        "id": 33017848,
        "last_rank": 33147,
        "player_name": "Jack Shaw",
        "rank": 28179,
        "rank_sort": 28290,
        "total": 2370
      },
      {
        "club_badge_src": "https://fantasy.premierleague.com/gcs/plfpl-production-adobe-approved/plfpl-production/4362276/feb93040-ac1e-4f4b-9aca-6e812dd2aafb.png",
        "entry": 4362276,
        "entry_name": "Pique blinders",
        "event_total": 55,
        "has_played": true,
        "id": 33133449,
        "last_rank": 26088,
        "player_name": "oliver smith",
        "rank": 28179,
        "rank_sort": 28291,
        "total": 2370
      },
      {
        "club_badge_src": null,
        "entry": 4427127,
        "entry_name": "FPL_Delfouneso",
        "event_total": 66,
        "has_played": true,
        "id": 33697505,
        "last_rank": 37822,
        "player_name": "Etai Beyar",
        "rank": 28179,
        "rank_sort": 28292,
        "total": 2370
      },
      {
        "club_badge_src": "https://fantasy.premierleague.com/gcs/plfpl-production-adobe-approved/plfpl-production/4503047/8e9d5b2f-9b34-4bad-8643-a8fd243478bd.png",
        "entry": 4503047,
        "entry_name": "Pending Moderation",
        "event_total": 73,
        "has_played": true,
        "id": 34331196,
        "last_rank": 46839,
        "player_name": "Robin Beard",
        "rank": 28179,
        "rank_sort": 28293,
        "total": 2370
      },
      {
        "club_badge_src": null,
        "entry": 4667980,
        "entry_name": "Sesko Clubcard",
        "event_total": 52,
        "has_played": true,
        "id": 35754966,
        "last_rank": 23341,
        "player_name": "Michael Broderick",
        "rank": 28179,
        "rank_sort": 28294,
        "total": 2370
      },
      {
        "club_badge_src": null,
        "entry": 4682222,
        "entry_name": "Ms Iganes",
        "event_total": 64,
        "has_played": true,
        "id": 35878906,
        "last_rank": 35034,
        "player_name": "Uko U.",
        "rank": 28179,
        "rank_sort": 28295,
        "total": 2370
      },
      {
        "club_badge_src": null,
        "entry": 4742313,
        "entry_name": "Para Bellum*",
        "event_total": 63,
        "has_played": true,
        "id": 36489151,
        "last_rank": 34293,
        "player_name": "Andrew Pemberton",
        "rank": 28179,
        "rank_sort": 28296,
        "total": 2370
      },
      {
        "club_badge_src": "https://fantasy.premierleague.com/gcs/plfpl-production-adobe-approved/plfpl-production/4868522/a9dd46e2-80c1-4bbe-b8c5-f8311da71f3e.png",
        "entry": 4868522,
        "entry_name": "Backstreet Moyes",
        "event_total": 56,
        "has_played": true,
        "id": 37524792,
        "last_rank": 23341,
        "player_name": "Will Hall",
        "rank": 28179,
        "rank_sort": 28297,
        "total": 2370
      },
      {
        "club_badge_src": "https://fantasy.premierleague.com/gcs/plfpl-production-adobe-approved/plfpl-production/4906285/efbb174f-50ac-4302-98d9-595baa872e57.png",
        "entry": 4906285,
        "entry_name": "H\u00e5vikmesteren",
        "event_total": 61,
        "has_played": true,
        "id": 37834980,
        "last_rank": 31620,
        "player_name": "Fredrik Jackson",
        "rank": 28179,
        "rank_sort": 28298,
        "total": 2370
      },
      {
        "club_badge_src": null,
        "entry": 4911747,
        "entry_name": "Real Turmat FC",
        "event_total": 39,
        "has_played": true,
        "id": 37878712,
        "last_rank": 14370,
        "player_name": "Bengt Lorentzen",
        "rank": 28179,
        "rank_sort": 28299,
        "total": 2370
      },
      {
        "club_badge_src": null,
        "entry": 5126752,
        "entry_name": "Chemin Long FC",
        "event_total": 52,
        "has_played": true,
        "id": 39646359,
        "last_rank": 20179,
        "player_name": "Tom Davies",
        "rank": 28179,
        "rank_sort": 28300,
        "total": 2370
      }
    ]
  }
}