{
  "last_updated_data": "2026-05-24T23:28:17Z",
  "league": {
    "admin_entry": null,
    "closed": false,
    "code_privacy": "p",
    "created": "2025-07-20T23:14:33.933835Z",
    "cup_league": 2815434,
    "has_cup": true,
    "id": 314,
    "league_type": "s",
    "max_entries": null,
    "name": "Overall",
    "rank": null,
    "scoring": "c",
    "start_event": 1
  },
  "new_entries": {
    "has_next": false,
    "page": 1,
    "results": []
  },
  "standings": {
    "has_next": true,
    "page": 584,
    "results": [
      {
        "club_badge_src": null,
        "entry": 257970,
        "entry_name": "Cesc Fabulous",
        "event_total": 59,
        "has_played": true,
        "id": 1715461,
        "last_rank": 30727,
        "player_name": "Excel Makros",
        "rank": 29128,
        "rank_sort": 29151,
        "total": 2369
      },
      {
        "club_badge_src": null,
        "entry": 318437,
        "entry_name": "Andy's Oddballs",
        "event_total": 65,
        "has_played": true,
        "id": 2134541,
        "last_rank": 37822,
        "player_name": "Andrew Greenman",
        "rank": 29128,
        "rank_sort": 29152,
        "total": 2369
      },
      {
        "club_badge_src": null,
        "entry": 352575,
        "entry_name": "Naughty Nigels",
        "event_total": 62,
        "has_played": true,
        "id": 2359751,
        "last_rank": 29578,
        "player_name": "Rudi Oak",
        "rank": 29128,
        "rank_sort": 29153,
        "total": 2369
      },
      {
        "club_badge_src": null,
        "entry": 356569,
        "entry_name": "Emile Deal Heskey",
        "event_total": 41,
        "has_played": true,
        "id": 2386116,
        "last_rank": 16441,
        "player_name": "Conor Leach",
        "rank": 29128,
        "rank_sort": 29154,
        "total": 2369
      },
      {
        "club_badge_src": null,
        "entry": 363332,
        "entry_name": "Lallana's in Pyjamas",
        "event_total": 60,
        "has_played": true,
        "id": 2431306,
        "last_rank": 31995,
        "player_name": "Jim Johnson",
        "rank": 29128,
        "rank_sort": 29155,
        "total": 2369
      },
      {
        "club_badge_src": null,
        "entry": 366126,
        "entry_name": "FootballGuruBestXI",
        "event_total": 74,
        "has_played": true,
        "id": 2450081,
        "last_rank": 49691,
        "player_name": "Jia Wei Lim",
        "rank": 29128,
        "rank_sort": 29156,
        "total": 2369
      },
      {
        "club_badge_src": "https://fantasy.premierleague.com/gcs/plfpl-production-adobe-approved/plfpl-production/387500/5083e809-3c1e-4b5b-9e4a-49ba01ff6668.png",
        "entry": 387500,
        "entry_name": "Pickled Cirkin",
        "event_total": 65,
        "has_played": true,
        "id": 2599596,
        "last_rank": 32751,
        "player_name": "Ryan Inch",
        "rank": 29128,
        "rank_sort": 29157,
        "total": 2369
      },
      {
        "club_badge_src": "https://fantasy.premierleague.com/gcs/plfpl-production-adobe-approved/plfpl-production/425158/b7c82a00-8f3f-4127-beb0-5a602bf41177.png",
        "entry": 425158,
        "entry_name": "Scuderia Blaugrana",
        "event_total": 44,
        "has_played": true,
        "id": 2849647,
        "last_rank": 18270,
        "player_name": "Sebastian G",
        "rank": 29128,
        "rank_sort": 29158,
        "total": 2369
      },
      {
        "club_badge_src": "https://fantasy.premierleague.com/gcs/plfpl-production-adobe-approved/plfpl-production/447352/2a074072-d8e9-4234-a492-5fcc3ef6f26b.png",
        "entry": 447352,
        "entry_name": "FC Witki",
        "event_total": 59,
        "has_played": true,
        "id": 3000747,
        "last_rank": 26827,
        "player_name": "Bartosz Witkowski",
        "rank": 29128,
        "rank_sort": 29159,
        "total": 2369
      },
      {
        "club_badge_src": null,
        "entry": 486473,
        "entry_name": "Chicken Legends",
        "event_total": 53,
        "has_played": true,
        "id": 3265982,
        "last_rank": 21775,
        "player_name": "Jamie Maddison",
        "rank": 29128,
        "rank_sort": 29160,
        "total": 2369
      },
      {
        "club_badge_src": null,
        "entry": 494055,
        "entry_name": "Ebou Adams family",
        "event_total": 58,
        "has_played": true,
        "id": 3316266,
        "last_rank": 25776,
        "player_name": "Thomas Little",
        "rank": 29128,
        "rank_sort": 29161,
        "total": 2369
      },
      {
        "club_badge_src": null,
        "entry": 515237,
        "entry_name": "Golden Boys!!",
        "event_total": 52,
        "has_played": true,
        "id": 3459386,
        "last_rank": 24330,
        "player_name": "Bryan obeng",
        "rank": 29128,
        "rank_sort": 29162,
        "total": 2369
      },
      {
        "club_badge_src": null,
        "entry": 570756,
        "entry_name": "40 Year Old Virgil",
        "event_total": 72,
        "has_played": true,
        "id": 3841294,
        "last_rank": 46839,
        "player_name": "Tom Walls",
        "rank": 29128,
        "rank_sort": 29163,
        "total": 2369
      },
      {
        "club_badge_src": null,
        "entry": 591957,
        "entry_name": "Nelson Kee Fantasy",
        "event_total": 59,
        "has_played": true,
        "id": 3988449,
        "last_rank": 30600,
        "player_name": "NELSON ARANHA",
        "rank": 29128,
        "rank_sort": 29164,
        "total": 2369
      },
      {
        "club_badge_src": "https://fantasy.premierleague.com/gcs/plfpl-production-adobe-approved/plfpl-production/595981/f3d49f29-5242-4275-8b0e-961744af4134.png",
        "entry": 595981,
        "entry_name": "Morph",
        "event_total": 27,
        "has_played": true,
        "id": 4018075,
        "last_rank": 9311,
        "player_name": "Christopher Morgan",
        "rank": 29128,
        "rank_sort": 29165,
        "total": 2369
      },
      {
        "club_badge_src": null,
        "entry": 603091,
        "entry_name": "Bola fc",
        "event_total": 48,
        "has_played": true,
        "id": 4070491,
        "last_rank": 20983,
        "player_name": "Muhammad Agung",
        "rank": 29128,
        "rank_sort": 29166,
        "total": 2369
      },
      {
        "club_badge_src": null,
        "entry": 625580,
        "entry_name": "Busato C.F.",
        "event_total": 60,
        "has_played": true,
        "id": 4227448,
        "last_rank": 31995,
        "player_name": "Fabian Buser",
        "rank": 29128,
        "rank_sort": 29167,
        "total": 2369
      },
      {
        "club_badge_src": "https://fantasy.premierleague.com/gcs/plfpl-production-adobe-approved/plfpl-production/633856/2776b9f7-4e44-4ad7-8cc7-6c32a95bc796.png",
        "entry": 633856,
        "entry_name": "Demolition Zerbi",
        "event_total": 66,
        "has_played": true,
        "id": 4283588,
        "last_rank": 39023,
        "player_name": "Craig Treacy Bagshaw",
        "rank": 29128,
        "rank_sort": 29168,
        "total": 2369
      },
      {
        "club_badge_src": null,
        "entry": 662802,
        "entry_name": "Palmer d'or",
        "event_total": 50,
        "has_played": true,
        "id": 4480670,
        "last_rank": 22685,
        "player_name": "Miel Opsommer",
        "rank": 29128,
        "rank_sort": 29169,
        "total": 2369
      },
      {
        "club_badge_src": null,
        "entry": 676502,
        "entry_name": "Hugo The Boss",
        "event_total": 36,
        "has_played": true,
        "id": 4577011,
        "last_rank": 13401,
        "player_name": "Gareth Williams",
        "rank": 29128,
        "rank_sort": 29170,
        "total": 2369
      },
      {
        "club_badge_src": null,
        "entry": 678163,
        "entry_name": "Tactician",
        "event_total": 58,
        "has_played": true,
        "id": 4588712,
        "last_rank": 30060,
        "player_name": "Adrian Brown",
        "rank": 29128,
        "rank_sort": 29171,
        "total": 2369
      },
      {
        "club_badge_src": null,
        "entry": 680172,
        "entry_name": "sweedish howes mafia",
        "event_total": 64,
        "has_played": true,
        "id": 4602764,
        "last_rank": 36200,
        "player_name": "Jack Tilbury",
        "rank": 29128,
        "rank_sort": 29172,
        "total": 2369
      },
      {
        "club_badge_src": null,
        "entry": 692917,
        "entry_name": "bomber4",
        "event_total": 55,
        "has_played": true,
        "id": 4692769,
        "last_rank": 26827,
        "player_name": "Alberto Xuereb",
        "rank": 29128,
        "rank_sort": 29173,
        "total": 2369
      },
      {
        "club_badge_src": null,
        "entry": 709109,
        "entry_name": "Rev. Schlachbals XV",
        "event_total": 63,
        "has_played": true,
        "id": 4807142,
        "last_rank": 30727,
        "player_name": "Brian Hatton",
        "rank": 29128,
        "rank_sort": 29174,
        "total": 2369
      },
      {
        "club_badge_src": "https://fantasy.premierleague.com/gcs/plfpl-production-adobe-approved/plfpl-production/782696/891af1c0-154f-46e0-8112-8c0b3c42fb90.png",
        "entry": 782696,
        "entry_name": "Finding Wreck It",
        "event_total": 57,
        "has_played": true,
        "id": 5344072,
        "last_rank": 28906,
        "player_name": "Ralph Dorey",
        "rank": 29128,
        "rank_sort": 29175,
        "total": 2369
      },
      {
        "club_badge_src": null,
        "entry": 801325,
        "entry_name": "GUNAIDI UTD",
        "event_total": 64,
        "has_played": true,
        "id": 5485251,
        "last_rank": 36200,
        "player_name": "Ahmed Al gunaidi",
        "rank": 29128,
        "rank_sort": 29176,
        "total": 2369
      },
      {
        "club_badge_src": null,
        "entry": 804949,
        "entry_name": "Athletico Stobbie",
        "event_total": 69,
        "has_played": true,
        "id": 5510201,
        "last_rank": 42940,
        "player_name": "Mark Scullin",
        "rank": 29128,
        "rank_sort": 29177,
        "total": 2369
      },
      {
        "club_badge_src": null,
        "entry": 833058,
        "entry_name": "Livin\u2019 Saliba Loca",
        "event_total": 45,
        "has_played": true,
        "id": 5706087,
        "last_rank": 18790,
        "player_name": "jonathan gustavsson",
        "rank": 29128,
        "rank_sort": 29178,
        "total": 2369
      },
      {
        "club_badge_src": null,
        "entry": 865735,
        "entry_name": "Chris Wood The Goat!",
        "event_total": 68,
        "has_played": true,
        "id": 5935032,
        "last_rank": 41324,
        "player_name": "Aaren Lam",
        "rank": 29128,
        "rank_sort": 29179,
        "total": 2369
      },
      {
        "club_badge_src": null,
        "entry": 917222,
        "entry_name": "THE VIKINGS",
        "event_total": 40,
        "has_played": true,
        "id": 6307429,
        "last_rank": 15694,
        "player_name": "Mohvammed Almontsir",
        "rank": 29128,
        "rank_sort": 29180,
        "total": 2369
      },
      {
        "club_badge_src": "https://fantasy.premierleague.com/gcs/plfpl-production-adobe-approved/plfpl-production/924544/c37ba0ca-635b-4650-80e7-bf07f158fb6d.png",
        "entry": 924544,
        "entry_name": "Da Big Kahuna",
        "event_total": 54,
        "has_played": true,
        "id": 6360007,
        "last_rank": 26088,
        "player_name": "Brian Russell",
        "rank": 29128,
        "rank_sort": 29181,
        "total": 2369
      },
      {
        "club_badge_src": null,
        "entry": 980577,
        "entry_name": "RB Quade FC",
        "event_total": 62,
        "has_played": true,
        "id": 6760083,
        "last_rank": 34293,
        "player_name": "Andrew McQuade",
        "rank": 29128,
        "rank_sort": 29182,
        "total": 2369
      },
      {
        "club_badge_src": null,
        "entry": 1004211,
        "entry_name": "Djurg\u00e5rdens IF \ufffd",
        "event_total": 79,
        "has_played": true,
        "id": 6941819,
        "last_rank": 58388,
        "player_name": "Mohamed badr Baassoul \ud83c\uddf2\ud83c\udde6",
        "rank": 29128,
        "rank_sort": 29183,
        "total": 2369
      },
      {
        "club_badge_src": null,
        "entry": 1064791,
        "entry_name": "Cunha believe it",
        "event_total": 65,
        "has_played": true,
        "id": 7371228,
        "last_rank": 32879,
        "player_name": "Adam Lewin",
        "rank": 29128,
        "rank_sort": 29184,
        "total": 2369
      },
      {
        "club_badge_src": null,
        "entry": 1221392,
        "entry_name": "North Mundham 4ever",
        "event_total": 49,
        "has_played": true,
        "id": 8479835,
        "last_rank": 21949,
        "player_name": "Sir Fish-Pig",
        "rank": 29128,
        "rank_sort": 29185,
        "total": 2369
      },
      {
        "club_badge_src": null,
        "entry": 1230834,
        "entry_name": "FC Barbercelona",
        "event_total": 64,
        "has_played": true,
        "id": 8546703,
        "last_rank": 36348,
        "player_name": "Dean Barber",
        "rank": 29128,
        "rank_sort": 29186,
        "total": 2369
      },
      {
        "club_badge_src": null,
        "entry": 1274088,
        "entry_name": "wing",
        "event_total": 52,
        "has_played": true,
        "id": 8853099,
        "last_rank": 24330,
        "player_name": "Andrew Burgoyne",
        "rank": 29128,
        "rank_sort": 29187,
        "total": 2369
      },
      {
        "club_badge_src": null,
        "entry": 1326563,
        "entry_name": "Saving Private Rodri",
        "event_total": 52,
        "has_played": true,
        "id": 9220885,
        "last_rank": 24143,
        "player_name": "Mattias Bergsten",
        "rank": 29128,
        "rank_sort": 29188,
        "total": 2369
      },
      {
        "club_badge_src": null,
        "entry": 1364067,
        "entry_name": "necgoat williams",
        "event_total": 41,
        "has_played": true,
        "id": 9482704,
        "last_rank": 16441,
        "player_name": "Shua Wajsbort",
        "rank": 29128,
        "rank_sort": 29189,
        "total": 2369
      },
      {
        "club_badge_src": null,
        "entry": 1370393,
        "entry_name": "TheNdidiPartey",
        "event_total": 62,
        "has_played": true,
        "id": 9525911,
        "last_rank": 34293,
        "player_name": "Caleb Birkett",
        "rank": 29128,
        "rank_sort": 29190,
        "total": 2369
      },
      {
        "club_badge_src": null,
        "entry": 1421308,
        "entry_name": "The Tykes",
        "event_total": 50,
        "has_played": true,
        "id": 9896443,
        "last_rank": 22534,
        "player_name": "Gary Horsfall",
        "rank": 29128,
        "rank_sort": 29191,
        "total": 2369
      },
      {
        "club_badge_src": null,
        "entry": 1503562,
        "entry_name": "Zubi or not Zubi",
        "event_total": 61,
        "has_played": true,
        "id": 10486015,
        "last_rank": 32879,
        "player_name": "Nick Boulter",
        "rank": 29128,
        "rank_sort": 29192,
        "total": 2369
      },
      {
        "club_badge_src": null,
        "entry": 1609401,
        "entry_name": "YFZ",
        "event_total": 62,
        "has_played": true,
        "id": 11260153,
        "last_rank": 29688,
        "player_name": "\ud83c\uddf9\ud83c\uddf3 Chaabani Nour",
        "rank": 29128,
        "rank_sort": 29193,
        "total": 2369
      },
      {
        "club_badge_src": "https://fantasy.premierleague.com/gcs/plfpl-production-adobe-approved/plfpl-production/1628929/73f5bef0-a2f6-4220-bb74-988f984f4506.png",
        "entry": 1628929,
        "entry_name": "MuljaaniMuuliturvat",
        "event_total": 42,
        "has_played": true,
        "id": 11401464,
        "last_rank": 14370,
        "player_name": "Niko Sundberg",
        "rank": 29128,
        "rank_sort": 29194,
        "total": 2369
      },
      {
        "club_badge_src": null,
        "entry": 1693706,
        "entry_name": "The Causes",
        "event_total": 79,
        "has_played": true,
        "id": 11862403,
        "last_rank": 57857,
        "player_name": "Jon Fleri",
        "rank": 29128,
        "rank_sort": 29195,
        "total": 2369
      },
      {
        "club_badge_src": "https://fantasy.premierleague.com/gcs/plfpl-production-adobe-approved/plfpl-production/1872722/4fda19ac-9ff1-4bec-ae35-2d7a097a3da0.png",
        "entry": 1872722,
        "entry_name": "\u0635\u0644\u064a \u0639\u0644\u0649 \u0627\u0644\u0646\u0628\u064a \u00b3\u00b9 \u2764\ufe0f",
        "event_total": 52,
        "has_played": true,
        "id": 13184334,
        "last_rank": 24330,
        "player_name": "Benbrahim rachid",
        "rank": 29128,
        "rank_sort": 29196,
        "total": 2369
      },
      {
        "club_badge_src": null,
        "entry": 1874552,
        "entry_name": "OBriens Boys",
        "event_total": 58,
        "has_played": true,
        "id": 13197748,
        "last_rank": 29688,
        "player_name": "Colm O'Brien",
        "rank": 29128,
        "rank_sort": 29197,
        "total": 2369
      },
      {
        "club_badge_src": "https://fantasy.premierleague.com/gcs/plfpl-production-adobe-approved/plfpl-production/1885916/fc9eda80-58b3-48aa-b95d-26826d0e4eda.png",
        "entry": 1885916,
        "entry_name": "The Mainiacs",
        "event_total": 66,
        "has_played": true,
        "id": 13289268,
        "last_rank": 39023,
        "player_name": "Alex Maini",
        "rank": 29128,
        "rank_sort": 29198,
        "total": 2369
      },
      {
        "club_badge_src": null,
        "entry": 1961181,
        "entry_name": "simsalahbim",
        "event_total": 71,
        "has_played": true,
        "id": 13836728,
        "last_rank": 45416,
        "player_name": "Noah Aschwanden",
        "rank": 29128,
        "rank_sort": 29199,
        "total": 2369
      },
      {
        "club_badge_src": null,
        "entry": 1999841,
        "entry_name": "AFC",
        "event_total": 55,
        "has_played": true,
        "id": 14137289,
        "last_rank": 27020,
        "player_name": "Abdulla A.rahim",
        "rank": 29128,
        "rank_sort": 29200,
        "total": 2369
      }
    ]
  }
}