{
  "last_updated_data": "2026-05-24T23:28:17Z",
  "league": {
    "admin_entry": null,
    "closed": false,
    "code_privacy": "p",
    "created": "2025-07-20T23:14:33.933835Z",
    "cup_league": 2815434,
    "has_cup": true,
    "id": 314,
    "league_type": "s",
    "max_entries": null,
    "name": "Overall",
    "rank": null,
    "scoring": "c",
    "start_event": 1
  },
  "new_entries": {
    "has_next": false,
    "page": 1,
    "results": []
  },
  "standings": {
    "has_next": true,
    "page": 1278,
    "results": [
      {
        "club_badge_src": null,
        "entry": 7847432,
        "entry_name": "Dontstopballieving",
        "event_total": 49,
        "has_played": true,
        "id": 64507960,
        "last_rank": 44950,
        "player_name": "Devina Morjaria",
        "rank": 63800,
        "rank_sort": 63851,
        "total": 2344
      },
      {
        "club_badge_src": null,
        "entry": 8204706,
        "entry_name": "Nightfury FC",
        "event_total": 56,
        "has_played": true,
        "id": 67784715,
        "last_rank": 43444,
        "player_name": "lal awma",
        "rank": 63800,
        "rank_sort": 63852,
        "total": 2344
      },
      {
        "club_badge_src": null,
        "entry": 8225625,
        "entry_name": "Os Ratos Cegos",
        "event_total": 65,
        "has_played": true,
        "id": 67982924,
        "last_rank": 72346,
        "player_name": "Rogerio Coimbra",
        "rank": 63800,
        "rank_sort": 63853,
        "total": 2344
      },
      {
        "club_badge_src": null,
        "entry": 8309068,
        "entry_name": "VirtualFc",
        "event_total": 59,
        "has_played": true,
        "id": 68805565,
        "last_rank": 47722,
        "player_name": "Vittorio Puzzuoli",
        "rank": 63800,
        "rank_sort": 63854,
        "total": 2344
      },
      {
        "club_badge_src": "https://fantasy.premierleague.com/gcs/plfpl-production-adobe-approved/plfpl-production/9302321/364d3225-b480-4846-adff-a9ad4a9e9f0a.png",
        "entry": 9302321,
        "entry_name": "Lool's boys",
        "event_total": 58,
        "has_played": true,
        "id": 78431973,
        "last_rank": 66447,
        "player_name": "Alaaldin Mahmoud",
        "rank": 63800,
        "rank_sort": 63855,
        "total": 2344
      },
      {
        "club_badge_src": null,
        "entry": 9419600,
        "entry_name": "Dark Knight FC",
        "event_total": 52,
        "has_played": true,
        "id": 79562351,
        "last_rank": 55747,
        "player_name": "Andy Syahmi",
        "rank": 63800,
        "rank_sort": 63856,
        "total": 2344
      },
      {
        "club_badge_src": null,
        "entry": 19271,
        "entry_name": "bruNO",
        "event_total": 52,
        "has_played": true,
        "id": 119929,
        "last_rank": 49407,
        "player_name": "Anthony Cirillo",
        "rank": 63857,
        "rank_sort": 63857,
        "total": 2344
      },
      {
        "club_badge_src": null,
        "entry": 21112,
        "entry_name": "\u65e9\u8336",
        "event_total": 72,
        "has_played": true,
        "id": 132350,
        "last_rank": 78671,
        "player_name": "\u65e0\u4ed6 \u552f\u624b\u719f\u5c14",
        "rank": 63857,
        "rank_sort": 63858,
        "total": 2344
      },
      {
        "club_badge_src": null,
        "entry": 26000,
        "entry_name": "Zubi Doobie Do",
        "event_total": 64,
        "has_played": true,
        "id": 164400,
        "last_rank": 70276,
        "player_name": "Rohan Bhimrajka",
        "rank": 63857,
        "rank_sort": 63859,
        "total": 2344
      },
      {
        "club_badge_src": null,
        "entry": 48711,
        "entry_name": "Hari's Redemption",
        "event_total": 63,
        "has_played": true,
        "id": 312935,
        "last_rank": 76638,
        "player_name": "hari undre",
        "rank": 63857,
        "rank_sort": 63860,
        "total": 2344
      },
      {
        "club_badge_src": null,
        "entry": 83652,
        "entry_name": "BUKIT BUNGA FC",
        "event_total": 59,
        "has_played": true,
        "id": 544490,
        "last_rank": 61045,
        "player_name": "BOY FREDLOSE",
        "rank": 63857,
        "rank_sort": 63861,
        "total": 2344
      },
      {
        "club_badge_src": null,
        "entry": 101180,
        "entry_name": "DRINK WATER NOT KOKE",
        "event_total": 68,
        "has_played": true,
        "id": 660230,
        "last_rank": 87945,
        "player_name": "Sufyan Nagia",
        "rank": 63857,
        "rank_sort": 63862,
        "total": 2344
      },
      {
        "club_badge_src": null,
        "entry": 139005,
        "entry_name": "Howe's The Bacon?",
        "event_total": 59,
        "has_played": true,
        "id": 907073,
        "last_rank": 61045,
        "player_name": "Josh Kerslake",
        "rank": 63857,
        "rank_sort": 63863,
        "total": 2344
      },
      {
        "club_badge_src": null,
        "entry": 142976,
        "entry_name": "Zubi Tuesday",
        "event_total": 52,
        "has_played": true,
        "id": 935223,
        "last_rank": 55902,
        "player_name": "Matthew Freeley",
        "rank": 63857,
        "rank_sort": 63864,
        "total": 2344
      },
      {
        "club_badge_src": "https://fantasy.premierleague.com/gcs/plfpl-production-adobe-approved/plfpl-production/333561/49f0f4cc-d4f4-4d43-b410-0d5ecc683c3a.png",
        "entry": 333561,
        "entry_name": "Bobby1874",
        "event_total": 63,
        "has_played": true,
        "id": 2233869,
        "last_rank": 68351,
        "player_name": "Rob Moseley",
        "rank": 63857,
        "rank_sort": 63865,
        "total": 2344
      },
      {
        "club_badge_src": null,
        "entry": 338682,
        "entry_name": "The Little Shirts",
        "event_total": 57,
        "has_played": true,
        "id": 2267368,
        "last_rank": 57557,
        "player_name": "Fergal Howard",
        "rank": 63857,
        "rank_sort": 63866,
        "total": 2344
      },
      {
        "club_badge_src": null,
        "entry": 454935,
        "entry_name": "Willie Wonkie Wonka",
        "event_total": 57,
        "has_played": true,
        "id": 3051973,
        "last_rank": 64634,
        "player_name": "Ardty Crafty",
        "rank": 63857,
        "rank_sort": 63867,
        "total": 2344
      },
      {
        "club_badge_src": null,
        "entry": 532319,
        "entry_name": "PARK SHE-HUNG",
        "event_total": 68,
        "has_played": true,
        "id": 3580788,
        "last_rank": 87945,
        "player_name": "Dan Edwards",
        "rank": 63857,
        "rank_sort": 63868,
        "total": 2344
      },
      {
        "club_badge_src": null,
        "entry": 766109,
        "entry_name": "Baby Reijnders",
        "event_total": 47,
        "has_played": true,
        "id": 5225236,
        "last_rank": 42263,
        "player_name": "Steve Sargeant",
        "rank": 63857,
        "rank_sort": 63869,
        "total": 2344
      },
      {
        "club_badge_src": "https://fantasy.premierleague.com/gcs/plfpl-production-adobe-approved/plfpl-production/866393/2d2d38ed-df99-4f51-a8fe-2d2143415762.png",
        "entry": 866393,
        "entry_name": "Agni Force One",
        "event_total": 55,
        "has_played": true,
        "id": 5939527,
        "last_rank": 61087,
        "player_name": "Regu B",
        "rank": 63857,
        "rank_sort": 63870,
        "total": 2344
      },
      {
        "club_badge_src": null,
        "entry": 994210,
        "entry_name": "bring me my coffee",
        "event_total": 71,
        "has_played": true,
        "id": 6859472,
        "last_rank": 95213,
        "player_name": "Mason Nealgrove",
        "rank": 63857,
        "rank_sort": 63871,
        "total": 2344
      },
      {
        "club_badge_src": null,
        "entry": 1297691,
        "entry_name": "up the Blues",
        "event_total": 62,
        "has_played": true,
        "id": 9019015,
        "last_rank": 74524,
        "player_name": "Chris Bourke",
        "rank": 63857,
        "rank_sort": 63872,
        "total": 2344
      },
      {
        "club_badge_src": null,
        "entry": 1641239,
        "entry_name": "Manning Yella Up",
        "event_total": 69,
        "has_played": true,
        "id": 11488757,
        "last_rank": 80965,
        "player_name": "Daron Jordan",
        "rank": 63857,
        "rank_sort": 63873,
        "total": 2344
      },
      {
        "club_badge_src": null,
        "entry": 2789732,
        "entry_name": "kiki989bbb86",
        "event_total": 64,
        "has_played": true,
        "id": 20367432,
        "last_rank": 78782,
        "player_name": "Kristijan Turbi\u0107",
        "rank": 63857,
        "rank_sort": 63874,
        "total": 2344
      },
      {
        "club_badge_src": null,
        "entry": 2886051,
        "entry_name": "SHIMO FC",
        "event_total": 69,
        "has_played": true,
        "id": 21128991,
        "last_rank": 90229,
        "player_name": "Hashim Mohamed",
        "rank": 63857,
        "rank_sort": 63875,
        "total": 2344
      },
      {
        "club_badge_src": "https://fantasy.premierleague.com/gcs/plfpl-production-adobe-approved/plfpl-production/2997688/f9e4c43d-f935-43b7-8c22-865fa47d8d58.png",
        "entry": 2997688,
        "entry_name": "BillyT LUFC",
        "event_total": 66,
        "has_played": true,
        "id": 22048468,
        "last_rank": 83267,
        "player_name": "Billy Toulson",
        "rank": 63857,
        "rank_sort": 63876,
        "total": 2344
      },
      {
        "club_badge_src": null,
        "entry": 3033928,
        "entry_name": "GansmoFroiland FC",
        "event_total": 51,
        "has_played": true,
        "id": 22327064,
        "last_rank": 47920,
        "player_name": "Even Fr\u00f8iland",
        "rank": 63857,
        "rank_sort": 63877,
        "total": 2344
      },
      {
        "club_badge_src": "https://fantasy.premierleague.com/gcs/plfpl-production-adobe-approved/plfpl-production/3137397/cecdda99-cc37-4c88-9412-6b84d5274ff7.png",
        "entry": 3137397,
        "entry_name": "UNCHAINED FC",
        "event_total": 69,
        "has_played": true,
        "id": 23160143,
        "last_rank": 90158,
        "player_name": "Yamar Thioune",
        "rank": 63857,
        "rank_sort": 63878,
        "total": 2344
      },
      {
        "club_badge_src": null,
        "entry": 4190995,
        "entry_name": "The Big Cats!",
        "event_total": 82,
        "has_played": true,
        "id": 31714258,
        "last_rank": 125480,
        "player_name": "Paige Pilgrim-Brown",
        "rank": 63857,
        "rank_sort": 63879,
        "total": 2344
      },
      {
        "club_badge_src": null,
        "entry": 4202398,
        "entry_name": "Vladimir Luton",
        "event_total": 76,
        "has_played": true,
        "id": 31811793,
        "last_rank": 97597,
        "player_name": "Jurgen Klopp",
        "rank": 63857,
        "rank_sort": 63880,
        "total": 2344
      },
      {
        "club_badge_src": null,
        "entry": 5049661,
        "entry_name": "TopspotforSlotslot2",
        "event_total": 65,
        "has_played": true,
        "id": 39014636,
        "last_rank": 81010,
        "player_name": "Paul Topping",
        "rank": 63857,
        "rank_sort": 63881,
        "total": 2344
      },
      {
        "club_badge_src": null,
        "entry": 5109877,
        "entry_name": "McGaberr",
        "event_total": 61,
        "has_played": true,
        "id": 39501428,
        "last_rank": 64508,
        "player_name": "Gabriel Burlacu",
        "rank": 63857,
        "rank_sort": 63882,
        "total": 2344
      },
      {
        "club_badge_src": null,
        "entry": 5367833,
        "entry_name": "Medlocticos",
        "event_total": 55,
        "has_played": true,
        "id": 41703415,
        "last_rank": 54181,
        "player_name": "Ryan Medlock",
        "rank": 63857,
        "rank_sort": 63883,
        "total": 2344
      },
      {
        "club_badge_src": null,
        "entry": 5394893,
        "entry_name": "Change Name",
        "event_total": 71,
        "has_played": true,
        "id": 41944282,
        "last_rank": 85565,
        "player_name": "Sander Hagen",
        "rank": 63857,
        "rank_sort": 63884,
        "total": 2344
      },
      {
        "club_badge_src": null,
        "entry": 5544557,
        "entry_name": "Ruben's Wizard HQ",
        "event_total": 70,
        "has_played": true,
        "id": 43267279,
        "last_rank": 92738,
        "player_name": "Alex Pollen",
        "rank": 63857,
        "rank_sort": 63885,
        "total": 2344
      },
      {
        "club_badge_src": null,
        "entry": 5796726,
        "entry_name": "Why So Coy",
        "event_total": 62,
        "has_played": true,
        "id": 45470471,
        "last_rank": 74524,
        "player_name": "Michael Byrne",
        "rank": 63857,
        "rank_sort": 63886,
        "total": 2344
      },
      {
        "club_badge_src": "https://fantasy.premierleague.com/gcs/plfpl-production-adobe-approved/plfpl-production/6398000/4258dda5-134d-4905-b3d8-e762829f31fd.png",
        "entry": 6398000,
        "entry_name": "DaSanYuan",
        "event_total": 60,
        "has_played": true,
        "id": 50902261,
        "last_rank": 49301,
        "player_name": "Rayna Ng",
        "rank": 63857,
        "rank_sort": 63887,
        "total": 2344
      },
      {
        "club_badge_src": null,
        "entry": 7425643,
        "entry_name": "Fierce Red Devils",
        "event_total": 66,
        "has_played": true,
        "id": 60312821,
        "last_rank": 83216,
        "player_name": "Jonish Maharjan",
        "rank": 63857,
        "rank_sort": 63888,
        "total": 2344
      },
      {
        "club_badge_src": null,
        "entry": 7707690,
        "entry_name": "Donkey's 11",
        "event_total": 71,
        "has_played": true,
        "id": 63240245,
        "last_rank": 95147,
        "player_name": "Leigh Wooldridge",
        "rank": 63857,
        "rank_sort": 63889,
        "total": 2344
      },
      {
        "club_badge_src": null,
        "entry": 8048434,
        "entry_name": "Frukt och Gr\u00f6nt",
        "event_total": 74,
        "has_played": true,
        "id": 66323063,
        "last_rank": 83127,
        "player_name": "Martin Alfredsson",
        "rank": 63857,
        "rank_sort": 63890,
        "total": 2344
      },
      {
        "club_badge_src": null,
        "entry": 9362680,
        "entry_name": "Whoppas Sac-de-Merde",
        "event_total": 65,
        "has_played": true,
        "id": 79009153,
        "last_rank": 64508,
        "player_name": "Davide Lantini",
        "rank": 63857,
        "rank_sort": 63891,
        "total": 2344
      },
      {
        "club_badge_src": "https://fantasy.premierleague.com/gcs/plfpl-production-adobe-approved/plfpl-production/3723/428c2718-d8fa-4e86-85a1-1ef411f5b6be.png",
        "entry": 3723,
        "entry_name": "Que Sera Sera",
        "event_total": 60,
        "has_played": true,
        "id": 21093,
        "last_rank": 55865,
        "player_name": "Mohamed Matar",
        "rank": 63892,
        "rank_sort": 63892,
        "total": 2344
      },
      {
        "club_badge_src": null,
        "entry": 78471,
        "entry_name": "FC OLD STONES",
        "event_total": 58,
        "has_played": true,
        "id": 510215,
        "last_rank": 66447,
        "player_name": "Rajiv Jadoo",
        "rank": 63892,
        "rank_sort": 63893,
        "total": 2344
      },
      {
        "club_badge_src": "https://fantasy.premierleague.com/gcs/plfpl-production-adobe-approved/plfpl-production/100117/eafeba23-d2e3-4dfc-8723-a762216f84ec.png",
        "entry": 100117,
        "entry_name": "SV Saivet 08",
        "event_total": 63,
        "has_played": true,
        "id": 653419,
        "last_rank": 68216,
        "player_name": "Adam Gilks",
        "rank": 63892,
        "rank_sort": 63894,
        "total": 2344
      },
      {
        "club_badge_src": "https://fantasy.premierleague.com/gcs/plfpl-production-adobe-approved/plfpl-production/202850/d78b8e21-c016-4cfc-91ab-c28377c29138.png",
        "entry": 202850,
        "entry_name": "and Frank's drum kit",
        "event_total": 51,
        "has_played": true,
        "id": 1347305,
        "last_rank": 54244,
        "player_name": "dod davies",
        "rank": 63892,
        "rank_sort": 63895,
        "total": 2344
      },
      {
        "club_badge_src": "https://fantasy.premierleague.com/gcs/plfpl-production-adobe-approved/plfpl-production/385639/53427cf2-c998-49c8-ab7f-2dc15a04a1d0.png",
        "entry": 385639,
        "entry_name": "South Park FC",
        "event_total": 67,
        "has_played": true,
        "id": 2586963,
        "last_rank": 76693,
        "player_name": "Monty Kirkham",
        "rank": 63892,
        "rank_sort": 63896,
        "total": 2344
      },
      {
        "club_badge_src": null,
        "entry": 530564,
        "entry_name": "Team Raw FC",
        "event_total": 75,
        "has_played": true,
        "id": 3568145,
        "last_rank": 105483,
        "player_name": "Crip Raw",
        "rank": 63892,
        "rank_sort": 63897,
        "total": 2344
      },
      {
        "club_badge_src": null,
        "entry": 618832,
        "entry_name": "Isoo\u26bd\ufe0f",
        "event_total": 51,
        "has_played": true,
        "id": 4181480,
        "last_rank": 42263,
        "player_name": "Miri Ismail",
        "rank": 63892,
        "rank_sort": 63898,
        "total": 2344
      },
      {
        "club_badge_src": "https://fantasy.premierleague.com/gcs/plfpl-production-adobe-approved/plfpl-production/711883/06729b0b-7595-4695-9dcd-4524183a9e80.png",
        "entry": 711883,
        "entry_name": "HORIZON",
        "event_total": 52,
        "has_played": true,
        "id": 4829007,
        "last_rank": 55902,
        "player_name": "Radi El Mehdi",
        "rank": 63892,
        "rank_sort": 63899,
        "total": 2344
      },
      {
        "club_badge_src": null,
        "entry": 746599,
        "entry_name": "Nazzy's Allstars",
        "event_total": 62,
        "has_played": true,
        "id": 5079142,
        "last_rank": 66487,
        "player_name": "Karl Nazareth",
        "rank": 63892,
        "rank_sort": 63900,
        "total": 2344
      }
    ]
  }
}