{
  "last_updated_data": "2026-05-24T23:28:17Z",
  "league": {
    "admin_entry": null,
    "closed": false,
    "code_privacy": "p",
    "created": "2025-07-20T23:14:33.933835Z",
    "cup_league": 2815434,
    "has_cup": true,
    "id": 314,
    "league_type": "s",
    "max_entries": null,
    "name": "Overall",
    "rank": null,
    "scoring": "c",
    "start_event": 1
  },
  "new_entries": {
    "has_next": false,
    "page": 1,
    "results": []
  },
  "standings": {
    "has_next": true,
    "page": 1184,
    "results": [
      {
        "club_badge_src": null,
        "entry": 4097088,
        "entry_name": "Only knows the WAGS",
        "event_total": 50,
        "has_played": true,
        "id": 30936014,
        "last_rank": 48197,
        "player_name": "Sally Smith",
        "rank": 58914,
        "rank_sort": 59151,
        "total": 2346
      },
      {
        "club_badge_src": null,
        "entry": 4112754,
        "entry_name": "Frank's Hotspurs",
        "event_total": 47,
        "has_played": true,
        "id": 31061039,
        "last_rank": 43849,
        "player_name": "Frank Moss",
        "rank": 58914,
        "rank_sort": 59152,
        "total": 2346
      },
      {
        "club_badge_src": null,
        "entry": 4130947,
        "entry_name": "Cunha Ride Tandem",
        "event_total": 76,
        "has_played": true,
        "id": 31216539,
        "last_rank": 100949,
        "player_name": "Jon Buck",
        "rank": 58914,
        "rank_sort": 59153,
        "total": 2346
      },
      {
        "club_badge_src": null,
        "entry": 4165068,
        "entry_name": "Kloppenheimer",
        "event_total": 40,
        "has_played": true,
        "id": 31496284,
        "last_rank": 35166,
        "player_name": "Peter Clarke",
        "rank": 58914,
        "rank_sort": 59154,
        "total": 2346
      },
      {
        "club_badge_src": null,
        "entry": 4175219,
        "entry_name": "Gamst Pederscenes",
        "event_total": 45,
        "has_played": true,
        "id": 31580709,
        "last_rank": 41324,
        "player_name": "Mike Seddon",
        "rank": 58914,
        "rank_sort": 59155,
        "total": 2346
      },
      {
        "club_badge_src": null,
        "entry": 4178263,
        "entry_name": "Grey Goose Dreamteam",
        "event_total": 53,
        "has_played": true,
        "id": 31606520,
        "last_rank": 53023,
        "player_name": "Derrick Meikle",
        "rank": 58914,
        "rank_sort": 59156,
        "total": 2346
      },
      {
        "club_badge_src": null,
        "entry": 4213987,
        "entry_name": "Ma Team Is So Flexy",
        "event_total": 81,
        "has_played": true,
        "id": 31908517,
        "last_rank": 115057,
        "player_name": "Richard Flexer",
        "rank": 58914,
        "rank_sort": 59157,
        "total": 2346
      },
      {
        "club_badge_src": null,
        "entry": 4304664,
        "entry_name": "Bynoe, Pay Later",
        "event_total": 71,
        "has_played": true,
        "id": 32659613,
        "last_rank": 88348,
        "player_name": "Lewis Pyke",
        "rank": 58914,
        "rank_sort": 59158,
        "total": 2346
      },
      {
        "club_badge_src": null,
        "entry": 4383889,
        "entry_name": "Kinder Mbeumo",
        "event_total": 55,
        "has_played": true,
        "id": 33320879,
        "last_rank": 56369,
        "player_name": "Ansh Bagrecha",
        "rank": 58914,
        "rank_sort": 59159,
        "total": 2346
      },
      {
        "club_badge_src": null,
        "entry": 4443727,
        "entry_name": "Julies XI",
        "event_total": 52,
        "has_played": true,
        "id": 33840209,
        "last_rank": 51403,
        "player_name": "Julie Brooks",
        "rank": 58914,
        "rank_sort": 59160,
        "total": 2346
      },
      {
        "club_badge_src": null,
        "entry": 4485497,
        "entry_name": "Just Mo with the Flo",
        "event_total": 52,
        "has_played": true,
        "id": 34188257,
        "last_rank": 51137,
        "player_name": "Alex Wharton",
        "rank": 58914,
        "rank_sort": 59161,
        "total": 2346
      },
      {
        "club_badge_src": null,
        "entry": 4582901,
        "entry_name": "Jacques' MVP's",
        "event_total": 77,
        "has_played": true,
        "id": 34987427,
        "last_rank": 103254,
        "player_name": "Louis Lyssens",
        "rank": 58914,
        "rank_sort": 59162,
        "total": 2346
      },
      {
        "club_badge_src": "https://fantasy.premierleague.com/gcs/plfpl-production-adobe-approved/plfpl-production/4640391/055e753b-7310-410b-afa6-4db29c54338b.png",
        "entry": 4640391,
        "entry_name": "Carrick Ball",
        "event_total": 70,
        "has_played": true,
        "id": 35490841,
        "last_rank": 86304,
        "player_name": "Attish Das",
        "rank": 58914,
        "rank_sort": 59163,
        "total": 2346
      },
      {
        "club_badge_src": null,
        "entry": 4656049,
        "entry_name": "Bayer Neverlusen",
        "event_total": 65,
        "has_played": true,
        "id": 35635308,
        "last_rank": 74898,
        "player_name": "Steven Sim",
        "rank": 58914,
        "rank_sort": 59164,
        "total": 2346
      },
      {
        "club_badge_src": "https://fantasy.premierleague.com/gcs/plfpl-production-adobe-approved/plfpl-production/4681674/accb0e76-8a6d-4de6-9876-c51df2711712.png",
        "entry": 4681674,
        "entry_name": "Peaky Reijnders",
        "event_total": 42,
        "has_played": true,
        "id": 35874200,
        "last_rank": 37589,
        "player_name": "Rares Armenciu",
        "rank": 58914,
        "rank_sort": 59165,
        "total": 2346
      },
      {
        "club_badge_src": null,
        "entry": 4682471,
        "entry_name": "OMONOIA FC",
        "event_total": 53,
        "has_played": true,
        "id": 35881039,
        "last_rank": 53023,
        "player_name": "Panagiotis Varellas",
        "rank": 58914,
        "rank_sort": 59166,
        "total": 2346
      },
      {
        "club_badge_src": null,
        "entry": 4691265,
        "entry_name": "Gooners XI",
        "event_total": 82,
        "has_played": true,
        "id": 35957493,
        "last_rank": 117915,
        "player_name": "Nahid Ali",
        "rank": 58914,
        "rank_sort": 59167,
        "total": 2346
      },
      {
        "club_badge_src": null,
        "entry": 4695573,
        "entry_name": "PUSB!",
        "event_total": 60,
        "has_played": true,
        "id": 35993888,
        "last_rank": 65475,
        "player_name": "Tom Edden",
        "rank": 58914,
        "rank_sort": 59168,
        "total": 2346
      },
      {
        "club_badge_src": null,
        "entry": 4743074,
        "entry_name": "Bosrem FC",
        "event_total": 70,
        "has_played": true,
        "id": 36495297,
        "last_rank": 86054,
        "player_name": "Tola Odebode",
        "rank": 58914,
        "rank_sort": 59169,
        "total": 2346
      },
      {
        "club_badge_src": null,
        "entry": 4766261,
        "entry_name": "Slackin' off",
        "event_total": 44,
        "has_played": true,
        "id": 36682706,
        "last_rank": 40036,
        "player_name": "Rob Slack",
        "rank": 58914,
        "rank_sort": 59170,
        "total": 2346
      },
      {
        "club_badge_src": null,
        "entry": 4800831,
        "entry_name": "ahmed saed",
        "event_total": 36,
        "has_played": true,
        "id": 36963434,
        "last_rank": 30957,
        "player_name": "ahmed saed",
        "rank": 58914,
        "rank_sort": 59171,
        "total": 2346
      },
      {
        "club_badge_src": "https://fantasy.premierleague.com/gcs/plfpl-production-adobe-approved/plfpl-production/4882486/b5e0cdcc-cde3-4602-9c4e-e1ed61a70cb8.png",
        "entry": 4882486,
        "entry_name": "Confidemus",
        "event_total": 71,
        "has_played": true,
        "id": 37639272,
        "last_rank": 88348,
        "player_name": "Niilo Pakarinen",
        "rank": 58914,
        "rank_sort": 59172,
        "total": 2346
      },
      {
        "club_badge_src": null,
        "entry": 4899793,
        "entry_name": "Allison Wonderland",
        "event_total": 66,
        "has_played": true,
        "id": 37782479,
        "last_rank": 77050,
        "player_name": "Ross Taylor",
        "rank": 58914,
        "rank_sort": 59173,
        "total": 2346
      },
      {
        "club_badge_src": null,
        "entry": 4910277,
        "entry_name": "LILI FC",
        "event_total": 70,
        "has_played": true,
        "id": 37867037,
        "last_rank": 85932,
        "player_name": "Liel Dadush",
        "rank": 58914,
        "rank_sort": 59174,
        "total": 2346
      },
      {
        "club_badge_src": null,
        "entry": 4975373,
        "entry_name": "R\u00f8dna FK",
        "event_total": 57,
        "has_played": true,
        "id": 38404725,
        "last_rank": 59813,
        "player_name": "Kjetil Berge",
        "rank": 58914,
        "rank_sort": 59175,
        "total": 2346
      },
      {
        "club_badge_src": null,
        "entry": 5011856,
        "entry_name": "nearly won the Yoros",
        "event_total": 64,
        "has_played": true,
        "id": 38702616,
        "last_rank": 73038,
        "player_name": "Shay Reynolds",
        "rank": 58914,
        "rank_sort": 59176,
        "total": 2346
      },
      {
        "club_badge_src": null,
        "entry": 5026964,
        "entry_name": "Tarraghetto FC",
        "event_total": 54,
        "has_played": true,
        "id": 38825015,
        "last_rank": 54667,
        "player_name": "Sebastian Carpentier",
        "rank": 58914,
        "rank_sort": 59177,
        "total": 2346
      },
      {
        "club_badge_src": null,
        "entry": 5028702,
        "entry_name": "Dreamchasers",
        "event_total": 49,
        "has_played": true,
        "id": 38838800,
        "last_rank": 46839,
        "player_name": "Jason Edwards",
        "rank": 58914,
        "rank_sort": 59178,
        "total": 2346
      },
      {
        "club_badge_src": null,
        "entry": 5047956,
        "entry_name": "I don\u2019t know Jeff !!",
        "event_total": 44,
        "has_played": true,
        "id": 38999283,
        "last_rank": 39874,
        "player_name": "Ismail patel",
        "rank": 58914,
        "rank_sort": 59179,
        "total": 2346
      },
      {
        "club_badge_src": null,
        "entry": 5087304,
        "entry_name": "Kinder Mbeumo",
        "event_total": 67,
        "has_played": true,
        "id": 39319606,
        "last_rank": 79431,
        "player_name": "Aqib Banaris",
        "rank": 58914,
        "rank_sort": 59180,
        "total": 2346
      },
      {
        "club_badge_src": null,
        "entry": 5112026,
        "entry_name": "Oscar Bobb's Burgers",
        "event_total": 53,
        "has_played": true,
        "id": 39520224,
        "last_rank": 53023,
        "player_name": "Tyler Wint",
        "rank": 58914,
        "rank_sort": 59181,
        "total": 2346
      },
      {
        "club_badge_src": null,
        "entry": 5129782,
        "entry_name": "Alisson Chains",
        "event_total": 73,
        "has_played": true,
        "id": 39672743,
        "last_rank": 93008,
        "player_name": "James Mount",
        "rank": 58914,
        "rank_sort": 59182,
        "total": 2346
      },
      {
        "club_badge_src": null,
        "entry": 5179781,
        "entry_name": "AFC Broski",
        "event_total": 57,
        "has_played": true,
        "id": 40093335,
        "last_rank": 59813,
        "player_name": "Ben Fleming",
        "rank": 58914,
        "rank_sort": 59183,
        "total": 2346
      },
      {
        "club_badge_src": null,
        "entry": 5202169,
        "entry_name": "Stone Cold Palmer",
        "event_total": 68,
        "has_played": true,
        "id": 40289147,
        "last_rank": 72702,
        "player_name": "Uwais Faiz",
        "rank": 58914,
        "rank_sort": 59184,
        "total": 2346
      },
      {
        "club_badge_src": null,
        "entry": 5242989,
        "entry_name": "Onana's Howlers",
        "event_total": 69,
        "has_played": true,
        "id": 40632298,
        "last_rank": 83698,
        "player_name": "Adamson Bryant",
        "rank": 58914,
        "rank_sort": 59185,
        "total": 2346
      },
      {
        "club_badge_src": null,
        "entry": 5302608,
        "entry_name": "Bale-End",
        "event_total": 35,
        "has_played": true,
        "id": 41103372,
        "last_rank": 29904,
        "player_name": "Liam Rudd",
        "rank": 58914,
        "rank_sort": 59186,
        "total": 2346
      },
      {
        "club_badge_src": null,
        "entry": 5319844,
        "entry_name": "Lil Uzi Wirtz",
        "event_total": 50,
        "has_played": true,
        "id": 41239522,
        "last_rank": 48642,
        "player_name": "Lucas Mcgahey",
        "rank": 58914,
        "rank_sort": 59187,
        "total": 2346
      },
      {
        "club_badge_src": null,
        "entry": 5320255,
        "entry_name": "Liverona",
        "event_total": 55,
        "has_played": true,
        "id": 41242743,
        "last_rank": 56369,
        "player_name": "Songvit Thanasuwanditee",
        "rank": 58914,
        "rank_sort": 59188,
        "total": 2346
      },
      {
        "club_badge_src": null,
        "entry": 5337585,
        "entry_name": "BFC",
        "event_total": 44,
        "has_played": true,
        "id": 41384929,
        "last_rank": 39874,
        "player_name": "Bas Simmers",
        "rank": 58914,
        "rank_sort": 59189,
        "total": 2346
      },
      {
        "club_badge_src": null,
        "entry": 5380746,
        "entry_name": "Yaba Daba Drew",
        "event_total": 47,
        "has_played": true,
        "id": 41827615,
        "last_rank": 44048,
        "player_name": "Andrew Hanna",
        "rank": 58914,
        "rank_sort": 59190,
        "total": 2346
      },
      {
        "club_badge_src": null,
        "entry": 5507497,
        "entry_name": "Unreal Madrid",
        "event_total": 29,
        "has_played": true,
        "id": 42925077,
        "last_rank": 24330,
        "player_name": "raphael rom",
        "rank": 58914,
        "rank_sort": 59191,
        "total": 2346
      },
      {
        "club_badge_src": null,
        "entry": 5593337,
        "entry_name": "Fok Smash My Door",
        "event_total": 51,
        "has_played": true,
        "id": 43699017,
        "last_rank": 50199,
        "player_name": "Jamie Martin",
        "rank": 58914,
        "rank_sort": 59192,
        "total": 2346
      },
      {
        "club_badge_src": null,
        "entry": 5603546,
        "entry_name": "zanko barber",
        "event_total": 71,
        "has_played": true,
        "id": 43787156,
        "last_rank": 88594,
        "player_name": "Zanko Namiq",
        "rank": 58914,
        "rank_sort": 59193,
        "total": 2346
      },
      {
        "club_badge_src": "https://fantasy.premierleague.com/gcs/plfpl-production-adobe-approved/plfpl-production/5620247/e9b38789-b301-402d-adfa-b676da0c7e7f.png",
        "entry": 5620247,
        "entry_name": "Batman and Robben",
        "event_total": 51,
        "has_played": true,
        "id": 43932983,
        "last_rank": 49691,
        "player_name": "Elliott Wittmeyer",
        "rank": 58914,
        "rank_sort": 59194,
        "total": 2346
      },
      {
        "club_badge_src": null,
        "entry": 5649917,
        "entry_name": "Daires11",
        "event_total": 43,
        "has_played": true,
        "id": 44196668,
        "last_rank": 39023,
        "player_name": "Daire Maxwell",
        "rank": 58914,
        "rank_sort": 59195,
        "total": 2346
      },
      {
        "club_badge_src": null,
        "entry": 5775016,
        "entry_name": "The Dominators",
        "event_total": 57,
        "has_played": true,
        "id": 45279229,
        "last_rank": 59813,
        "player_name": "Dominic Williams",
        "rank": 58914,
        "rank_sort": 59196,
        "total": 2346
      },
      {
        "club_badge_src": null,
        "entry": 5849841,
        "entry_name": "FC Skeelarin",
        "event_total": 55,
        "has_played": true,
        "id": 45926416,
        "last_rank": 56180,
        "player_name": "Andreas Skeel Nols\u00f8e",
        "rank": 58914,
        "rank_sort": 59197,
        "total": 2346
      },
      {
        "club_badge_src": null,
        "entry": 5863519,
        "entry_name": "What The Skelly",
        "event_total": 56,
        "has_played": true,
        "id": 46046947,
        "last_rank": 58388,
        "player_name": "Aqib Qamar",
        "rank": 58914,
        "rank_sort": 59198,
        "total": 2346
      },
      {
        "club_badge_src": null,
        "entry": 5885144,
        "entry_name": "KUFC",
        "event_total": 54,
        "has_played": true,
        "id": 46229462,
        "last_rank": 54667,
        "player_name": "Ethan Kingston",
        "rank": 58914,
        "rank_sort": 59199,
        "total": 2346
      },
      {
        "club_badge_src": null,
        "entry": 5922328,
        "entry_name": "Amartey McFly",
        "event_total": 52,
        "has_played": true,
        "id": 46550431,
        "last_rank": 51720,
        "player_name": "Robert Moden",
        "rank": 58914,
        "rank_sort": 59200,
        "total": 2346
      }
    ]
  }
}