{
  "last_updated_data": "2026-05-24T23:28:17Z",
  "league": {
    "admin_entry": null,
    "closed": false,
    "code_privacy": "p",
    "created": "2025-07-20T23:14:33.933835Z",
    "cup_league": 2815434,
    "has_cup": true,
    "id": 314,
    "league_type": "s",
    "max_entries": null,
    "name": "Overall",
    "rank": null,
    "scoring": "c",
    "start_event": 1
  },
  "new_entries": {
    "has_next": false,
    "page": 1,
    "results": []
  },
  "standings": {
    "has_next": true,
    "page": 812,
    "results": [
      {
        "club_badge_src": null,
        "entry": 1611567,
        "entry_name": "Jonny Dogs",
        "event_total": 68,
        "has_played": true,
        "id": 11275625,
        "last_rank": 57358,
        "player_name": "Jonny Wellman",
        "rank": 40485,
        "rank_sort": 40551,
        "total": 2359
      },
      {
        "club_badge_src": null,
        "entry": 1663319,
        "entry_name": "Pep\u2019s Puppet Show",
        "event_total": 66,
        "has_played": true,
        "id": 11645466,
        "last_rank": 53621,
        "player_name": "Anshumaan Paliwal",
        "rank": 40485,
        "rank_sort": 40552,
        "total": 2359
      },
      {
        "club_badge_src": null,
        "entry": 1801782,
        "entry_name": "Christopher's Wood",
        "event_total": 63,
        "has_played": true,
        "id": 12666137,
        "last_rank": 48898,
        "player_name": "Chuck Berrie",
        "rank": 40485,
        "rank_sort": 40553,
        "total": 2359
      },
      {
        "club_badge_src": null,
        "entry": 1867883,
        "entry_name": "EMO#001",
        "event_total": 70,
        "has_played": true,
        "id": 13148095,
        "last_rank": 47163,
        "player_name": "Emlyn October",
        "rank": 40485,
        "rank_sort": 40554,
        "total": 2359
      },
      {
        "club_badge_src": null,
        "entry": 1890531,
        "entry_name": "JimsBalls",
        "event_total": 40,
        "has_played": true,
        "id": 13324427,
        "last_rank": 22921,
        "player_name": "james Hinchcliffe",
        "rank": 40485,
        "rank_sort": 40555,
        "total": 2359
      },
      {
        "club_badge_src": null,
        "entry": 1972755,
        "entry_name": "Lospolloshermanos",
        "event_total": 68,
        "has_played": true,
        "id": 13924180,
        "last_rank": 57001,
        "player_name": "M Keinan",
        "rank": 40485,
        "rank_sort": 40556,
        "total": 2359
      },
      {
        "club_badge_src": null,
        "entry": 2215637,
        "entry_name": "\ufffd",
        "event_total": 56,
        "has_played": true,
        "id": 15778963,
        "last_rank": 29904,
        "player_name": "Denis Moloney",
        "rank": 40485,
        "rank_sort": 40557,
        "total": 2359
      },
      {
        "club_badge_src": null,
        "entry": 2234269,
        "entry_name": "FK Jacques",
        "event_total": 66,
        "has_played": true,
        "id": 15917007,
        "last_rank": 53621,
        "player_name": "\u017dare Petkov",
        "rank": 40485,
        "rank_sort": 40558,
        "total": 2359
      },
      {
        "club_badge_src": null,
        "entry": 2409814,
        "entry_name": "Pickord's Army",
        "event_total": 63,
        "has_played": true,
        "id": 17225445,
        "last_rank": 49078,
        "player_name": "Daniel Friett",
        "rank": 40485,
        "rank_sort": 40559,
        "total": 2359
      },
      {
        "club_badge_src": null,
        "entry": 2465078,
        "entry_name": "Fear the wirtz",
        "event_total": 54,
        "has_played": true,
        "id": 17632953,
        "last_rank": 36963,
        "player_name": "Hotee Fharad",
        "rank": 40485,
        "rank_sort": 40560,
        "total": 2359
      },
      {
        "club_badge_src": null,
        "entry": 2699482,
        "entry_name": "WhiteRose Utd",
        "event_total": 63,
        "has_played": true,
        "id": 19418976,
        "last_rank": 49078,
        "player_name": "Rahul Dash",
        "rank": 40485,
        "rank_sort": 40561,
        "total": 2359
      },
      {
        "club_badge_src": null,
        "entry": 2716676,
        "entry_name": "Half the world (a)",
        "event_total": 48,
        "has_played": true,
        "id": 19547124,
        "last_rank": 30191,
        "player_name": "David Booth",
        "rank": 40485,
        "rank_sort": 40562,
        "total": 2359
      },
      {
        "club_badge_src": null,
        "entry": 2776939,
        "entry_name": "Mac Salah Stars",
        "event_total": 59,
        "has_played": true,
        "id": 20265927,
        "last_rank": 37822,
        "player_name": "Phil McCarthy",
        "rank": 40485,
        "rank_sort": 40563,
        "total": 2359
      },
      {
        "club_badge_src": null,
        "entry": 2808676,
        "entry_name": "Mbeumo your house",
        "event_total": 65,
        "has_played": true,
        "id": 20513161,
        "last_rank": 45927,
        "player_name": "Ethan Georgopoulos",
        "rank": 40485,
        "rank_sort": 40564,
        "total": 2359
      },
      {
        "club_badge_src": "https://fantasy.premierleague.com/gcs/plfpl-production-adobe-approved/plfpl-production/2972250/978bfe55-c96b-4711-bd46-09a191a9bc1e.png",
        "entry": 2972250,
        "entry_name": "Swat Kats",
        "event_total": 51,
        "has_played": true,
        "id": 21838884,
        "last_rank": 29071,
        "player_name": "Devraj C.K",
        "rank": 40485,
        "rank_sort": 40565,
        "total": 2359
      },
      {
        "club_badge_src": null,
        "entry": 3240053,
        "entry_name": "in it to winnett",
        "event_total": 54,
        "has_played": true,
        "id": 23965532,
        "last_rank": 36963,
        "player_name": "Nick Winnett",
        "rank": 40485,
        "rank_sort": 40566,
        "total": 2359
      },
      {
        "club_badge_src": null,
        "entry": 3492126,
        "entry_name": "fpl25",
        "event_total": 56,
        "has_played": true,
        "id": 25973168,
        "last_rank": 39510,
        "player_name": "fpl flashily",
        "rank": 40485,
        "rank_sort": 40567,
        "total": 2359
      },
      {
        "club_badge_src": null,
        "entry": 3636990,
        "entry_name": "tzing's team",
        "event_total": 68,
        "has_played": true,
        "id": 27104103,
        "last_rank": 57001,
        "player_name": "Thomas Zinguinian",
        "rank": 40485,
        "rank_sort": 40568,
        "total": 2359
      },
      {
        "club_badge_src": null,
        "entry": 3725598,
        "entry_name": "The Curly Wurlys",
        "event_total": 53,
        "has_played": true,
        "id": 27806622,
        "last_rank": 35768,
        "player_name": "Rob Pearse",
        "rank": 40485,
        "rank_sort": 40569,
        "total": 2359
      },
      {
        "club_badge_src": null,
        "entry": 3808664,
        "entry_name": "Costa Living Crisis",
        "event_total": 62,
        "has_played": true,
        "id": 28476736,
        "last_rank": 41824,
        "player_name": "Jack Charles",
        "rank": 40485,
        "rank_sort": 40570,
        "total": 2359
      },
      {
        "club_badge_src": null,
        "entry": 3914293,
        "entry_name": "Bend It Like Beckham",
        "event_total": 73,
        "has_played": true,
        "id": 29431732,
        "last_rank": 58688,
        "player_name": "Tim M",
        "rank": 40485,
        "rank_sort": 40571,
        "total": 2359
      },
      {
        "club_badge_src": "https://fantasy.premierleague.com/gcs/plfpl-production-adobe-approved/plfpl-production/4124872/1d98ba63-befc-4318-a5f0-42f43469148b.png",
        "entry": 4124872,
        "entry_name": "DasiEden FC",
        "event_total": 66,
        "has_played": true,
        "id": 31165133,
        "last_rank": 47417,
        "player_name": "Daniel Iyiola",
        "rank": 40485,
        "rank_sort": 40572,
        "total": 2359
      },
      {
        "club_badge_src": null,
        "entry": 4367839,
        "entry_name": "Githatu Wonderers",
        "event_total": 38,
        "has_played": true,
        "id": 33180811,
        "last_rank": 21450,
        "player_name": "Kelvin Kimathi",
        "rank": 40485,
        "rank_sort": 40573,
        "total": 2359
      },
      {
        "club_badge_src": null,
        "entry": 4607994,
        "entry_name": "Rocket Hunter",
        "event_total": 66,
        "has_played": true,
        "id": 35208119,
        "last_rank": 53837,
        "player_name": "Ong C",
        "rank": 40485,
        "rank_sort": 40574,
        "total": 2359
      },
      {
        "club_badge_src": null,
        "entry": 4608553,
        "entry_name": "Trippier Advisor",
        "event_total": 56,
        "has_played": true,
        "id": 35212832,
        "last_rank": 39246,
        "player_name": "Joe Snell",
        "rank": 40485,
        "rank_sort": 40575,
        "total": 2359
      },
      {
        "club_badge_src": "https://fantasy.premierleague.com/gcs/plfpl-production-adobe-approved/plfpl-production/4629563/21b12aec-8e00-45a9-8a3a-db9ffa1c60cd.png",
        "entry": 4629563,
        "entry_name": "Woods's Wanderers",
        "event_total": 45,
        "has_played": true,
        "id": 35397626,
        "last_rank": 27203,
        "player_name": "connor woods",
        "rank": 40485,
        "rank_sort": 40576,
        "total": 2359
      },
      {
        "club_badge_src": null,
        "entry": 5203799,
        "entry_name": "ucfc1955",
        "event_total": 63,
        "has_played": true,
        "id": 40302530,
        "last_rank": 42940,
        "player_name": "alan tadd",
        "rank": 40485,
        "rank_sort": 40577,
        "total": 2359
      },
      {
        "club_badge_src": null,
        "entry": 5209901,
        "entry_name": "Selecao Oliveira",
        "event_total": 53,
        "has_played": true,
        "id": 40354186,
        "last_rank": 35768,
        "player_name": "Allan Oliveira",
        "rank": 40485,
        "rank_sort": 40578,
        "total": 2359
      },
      {
        "club_badge_src": "https://fantasy.premierleague.com/gcs/plfpl-production-adobe-approved/plfpl-production/5236399/d265f79f-0b05-423d-a64b-8273b6855708.png",
        "entry": 5236399,
        "entry_name": "Aku-Kamu-Kita FC",
        "event_total": 55,
        "has_played": true,
        "id": 40578964,
        "last_rank": 33332,
        "player_name": "Muhammad Alfian Gunawan",
        "rank": 40485,
        "rank_sort": 40579,
        "total": 2359
      },
      {
        "club_badge_src": null,
        "entry": 5258813,
        "entry_name": "Dre's Devils",
        "event_total": 56,
        "has_played": true,
        "id": 40757685,
        "last_rank": 34458,
        "player_name": "Andrei Jungkman",
        "rank": 40485,
        "rank_sort": 40580,
        "total": 2359
      },
      {
        "club_badge_src": null,
        "entry": 5277764,
        "entry_name": "FC MARRON",
        "event_total": 54,
        "has_played": true,
        "id": 40907604,
        "last_rank": 32190,
        "player_name": "Dan Marron",
        "rank": 40485,
        "rank_sort": 40581,
        "total": 2359
      },
      {
        "club_badge_src": null,
        "entry": 5322807,
        "entry_name": "Fc Kezungte",
        "event_total": 78,
        "has_played": true,
        "id": 41262752,
        "last_rank": 75139,
        "player_name": "Lalnunsanga Sailo",
        "rank": 40485,
        "rank_sort": 40582,
        "total": 2359
      },
      {
        "club_badge_src": null,
        "entry": 5523199,
        "entry_name": "Babben8",
        "event_total": 56,
        "has_played": true,
        "id": 43070492,
        "last_rank": 39246,
        "player_name": "Albin H\u00e4ll eriksson",
        "rank": 40485,
        "rank_sort": 40583,
        "total": 2359
      },
      {
        "club_badge_src": null,
        "entry": 5784567,
        "entry_name": "NdiayeWillAlwaysLuvU",
        "event_total": 33,
        "has_played": true,
        "id": 45362665,
        "last_rank": 17802,
        "player_name": "Lukas Benson",
        "rank": 40485,
        "rank_sort": 40584,
        "total": 2359
      },
      {
        "club_badge_src": null,
        "entry": 5786630,
        "entry_name": "UNITED",
        "event_total": 57,
        "has_played": true,
        "id": 45379946,
        "last_rank": 40647,
        "player_name": "Ram Patel",
        "rank": 40485,
        "rank_sort": 40585,
        "total": 2359
      },
      {
        "club_badge_src": "https://fantasy.premierleague.com/gcs/plfpl-production-adobe-approved/plfpl-production/5991662/f1185f0b-d618-4e53-beac-e77b82a655a0.png",
        "entry": 5991662,
        "entry_name": "It\u2019s Naz or Neverrrr",
        "event_total": 64,
        "has_played": true,
        "id": 47213493,
        "last_rank": 44525,
        "player_name": "Naz Mehari",
        "rank": 40485,
        "rank_sort": 40586,
        "total": 2359
      },
      {
        "club_badge_src": null,
        "entry": 6031396,
        "entry_name": "Tacos a Sandbager",
        "event_total": 59,
        "has_played": true,
        "id": 47578453,
        "last_rank": 37822,
        "player_name": "Patrick Tansey",
        "rank": 40485,
        "rank_sort": 40587,
        "total": 2359
      },
      {
        "club_badge_src": "https://fantasy.premierleague.com/gcs/plfpl-production-adobe-approved/plfpl-production/6089315/65bdbd6c-4dcc-4a77-9de1-9bf08a9712ca.png",
        "entry": 6089315,
        "entry_name": "fun",
        "event_total": 60,
        "has_played": true,
        "id": 48083812,
        "last_rank": 44672,
        "player_name": "Mohammad Ibrahim",
        "rank": 40485,
        "rank_sort": 40588,
        "total": 2359
      },
      {
        "club_badge_src": null,
        "entry": 6395296,
        "entry_name": "Mego's Mahyem",
        "event_total": 51,
        "has_played": true,
        "id": 50878263,
        "last_rank": 33332,
        "player_name": "Euan Megson",
        "rank": 40485,
        "rank_sort": 40589,
        "total": 2359
      },
      {
        "club_badge_src": "https://fantasy.premierleague.com/gcs/plfpl-production-adobe-approved/plfpl-production/6585989/1b0443fc-829d-4d67-808c-93665f7b7d06.png",
        "entry": 6585989,
        "entry_name": "Lions FC",
        "event_total": 68,
        "has_played": true,
        "id": 52596296,
        "last_rank": 56369,
        "player_name": "Michal Bartosz",
        "rank": 40485,
        "rank_sort": 40590,
        "total": 2359
      },
      {
        "club_badge_src": null,
        "entry": 6883941,
        "entry_name": "Wirtz Nightmare",
        "event_total": 58,
        "has_played": true,
        "id": 55169367,
        "last_rank": 41967,
        "player_name": "Jelani Robertson",
        "rank": 40485,
        "rank_sort": 40591,
        "total": 2359
      },
      {
        "club_badge_src": null,
        "entry": 7058311,
        "entry_name": "Korpilombolo FC",
        "event_total": 63,
        "has_played": true,
        "id": 56777805,
        "last_rank": 43168,
        "player_name": "Petter Edholm",
        "rank": 40485,
        "rank_sort": 40592,
        "total": 2359
      },
      {
        "club_badge_src": null,
        "entry": 7078053,
        "entry_name": "Vikhagen FC",
        "event_total": 73,
        "has_played": true,
        "id": 56966010,
        "last_rank": 66057,
        "player_name": "Arve Vikhagen",
        "rank": 40485,
        "rank_sort": 40593,
        "total": 2359
      },
      {
        "club_badge_src": null,
        "entry": 7189773,
        "entry_name": "Top of the Slot",
        "event_total": 67,
        "has_played": true,
        "id": 58037694,
        "last_rank": 42940,
        "player_name": "Julie Burns",
        "rank": 40485,
        "rank_sort": 40594,
        "total": 2359
      },
      {
        "club_badge_src": "https://fantasy.premierleague.com/gcs/plfpl-production-adobe-approved/plfpl-production/7421859/199c3267-137e-419c-8ecc-90c91393b46f.png",
        "entry": 7421859,
        "entry_name": "Peaky Reijnders",
        "event_total": 53,
        "has_played": true,
        "id": 60264636,
        "last_rank": 31125,
        "player_name": "Samyak Shrestha",
        "rank": 40485,
        "rank_sort": 40595,
        "total": 2359
      },
      {
        "club_badge_src": null,
        "entry": 7736087,
        "entry_name": "Joelintoon",
        "event_total": 57,
        "has_played": true,
        "id": 63496177,
        "last_rank": 40503,
        "player_name": "Mitchell Henderson",
        "rank": 40485,
        "rank_sort": 40596,
        "total": 2359
      },
      {
        "club_badge_src": null,
        "entry": 7877538,
        "entry_name": "wydad",
        "event_total": 64,
        "has_played": true,
        "id": 64782314,
        "last_rank": 50635,
        "player_name": "Zakaria Elachyr",
        "rank": 40485,
        "rank_sort": 40597,
        "total": 2359
      },
      {
        "club_badge_src": null,
        "entry": 8139797,
        "entry_name": "Van Diagram",
        "event_total": 53,
        "has_played": true,
        "id": 67173049,
        "last_rank": 35768,
        "player_name": "Brian Kim",
        "rank": 40485,
        "rank_sort": 40598,
        "total": 2359
      },
      {
        "club_badge_src": null,
        "entry": 8157053,
        "entry_name": "Get 5th Ndiaye tryin",
        "event_total": 53,
        "has_played": true,
        "id": 67334310,
        "last_rank": 35768,
        "player_name": "Isaac Quarry",
        "rank": 40485,
        "rank_sort": 40599,
        "total": 2359
      },
      {
        "club_badge_src": null,
        "entry": 8656128,
        "entry_name": "Super Dandies",
        "event_total": 54,
        "has_played": true,
        "id": 72149586,
        "last_rank": 36963,
        "player_name": "Sean D Butcher",
        "rank": 40485,
        "rank_sort": 40600,
        "total": 2359
      }
    ]
  }
}