{
  "last_updated_data": "2026-05-24T23:28:17Z",
  "league": {
    "admin_entry": null,
    "closed": false,
    "code_privacy": "p",
    "created": "2025-07-20T23:14:33.933835Z",
    "cup_league": 2815434,
    "has_cup": true,
    "id": 314,
    "league_type": "s",
    "max_entries": null,
    "name": "Overall",
    "rank": null,
    "scoring": "c",
    "start_event": 1
  },
  "new_entries": {
    "has_next": false,
    "page": 1,
    "results": []
  },
  "standings": {
    "has_next": true,
    "page": 80,
    "results": [
      {
        "club_badge_src": null,
        "entry": 8761,
        "entry_name": "Anjing FC",
        "event_total": 61,
        "has_played": true,
        "id": 51114,
        "last_rank": 3601,
        "player_name": "Alexander Mosin",
        "rank": 3950,
        "rank_sort": 3951,
        "total": 2420
      },
      {
        "club_badge_src": null,
        "entry": 12803,
        "entry_name": "General Joel Palmer",
        "event_total": 54,
        "has_played": true,
        "id": 76979,
        "last_rank": 3175,
        "player_name": "Joel Philpott",
        "rank": 3950,
        "rank_sort": 3952,
        "total": 2420
      },
      {
        "club_badge_src": null,
        "entry": 31206,
        "entry_name": "Sulturnar",
        "event_total": 70,
        "has_played": true,
        "id": 197678,
        "last_rank": 4515,
        "player_name": "Tomas Vidarsson",
        "rank": 3950,
        "rank_sort": 3953,
        "total": 2420
      },
      {
        "club_badge_src": "https://fantasy.premierleague.com/gcs/plfpl-production-adobe-approved/plfpl-production/63776/fc53599a-6bea-4cde-8eed-9db99d613701.png",
        "entry": 63776,
        "entry_name": "Fast & Ekitikeous",
        "event_total": 64,
        "has_played": true,
        "id": 411553,
        "last_rank": 4155,
        "player_name": "Ben Rowe",
        "rank": 3950,
        "rank_sort": 3954,
        "total": 2420
      },
      {
        "club_badge_src": null,
        "entry": 117783,
        "entry_name": "Syltelabb",
        "event_total": 51,
        "has_played": true,
        "id": 768722,
        "last_rank": 2749,
        "player_name": "Gjermund Christensen",
        "rank": 3950,
        "rank_sort": 3955,
        "total": 2420
      },
      {
        "club_badge_src": null,
        "entry": 206035,
        "entry_name": "\u0648\u064a\u0643\u0627 \u064a\u063a\u0631\u062f \u0648\u062d\u064a\u062f\u0627",
        "event_total": 78,
        "has_played": true,
        "id": 1369476,
        "last_rank": 9311,
        "player_name": "Mohamed ElbeYali",
        "rank": 3950,
        "rank_sort": 3956,
        "total": 2420
      },
      {
        "club_badge_src": null,
        "entry": 256440,
        "entry_name": "Kay FC",
        "event_total": 67,
        "has_played": true,
        "id": 1705542,
        "last_rank": 4742,
        "player_name": "Kieran Cunningham",
        "rank": 3950,
        "rank_sort": 3957,
        "total": 2420
      },
      {
        "club_badge_src": null,
        "entry": 982513,
        "entry_name": "MbeumoVstaSocialClub",
        "event_total": 58,
        "has_played": true,
        "id": 6773714,
        "last_rank": 3796,
        "player_name": "Shane Houlihan",
        "rank": 3950,
        "rank_sort": 3958,
        "total": 2420
      },
      {
        "club_badge_src": "https://fantasy.premierleague.com/gcs/plfpl-production-adobe-approved/plfpl-production/1274592/4257c37a-a115-4678-b4e6-493ffaaf6ab9.png",
        "entry": 1274592,
        "entry_name": "Bayern Bru",
        "event_total": 62,
        "has_played": true,
        "id": 8856677,
        "last_rank": 4570,
        "player_name": "Michael Hadley",
        "rank": 3950,
        "rank_sort": 3959,
        "total": 2420
      },
      {
        "club_badge_src": null,
        "entry": 1756825,
        "entry_name": "Noni to be mad",
        "event_total": 63,
        "has_played": true,
        "id": 12333883,
        "last_rank": 3951,
        "player_name": "Jaman Salique",
        "rank": 3950,
        "rank_sort": 3960,
        "total": 2420
      },
      {
        "club_badge_src": null,
        "entry": 1965466,
        "entry_name": "S&P 500",
        "event_total": 63,
        "has_played": true,
        "id": 13868362,
        "last_rank": 3951,
        "player_name": "Nikodem Wojewodzic",
        "rank": 3950,
        "rank_sort": 3961,
        "total": 2420
      },
      {
        "club_badge_src": null,
        "entry": 2063658,
        "entry_name": "Wirts Up Gyokeres",
        "event_total": 39,
        "has_played": true,
        "id": 14622913,
        "last_rank": 1478,
        "player_name": "Sai Kurakula",
        "rank": 3950,
        "rank_sort": 3962,
        "total": 2420
      },
      {
        "club_badge_src": null,
        "entry": 2407753,
        "entry_name": "team1",
        "event_total": 78,
        "has_played": true,
        "id": 17210256,
        "last_rank": 7676,
        "player_name": "Dean Lo Seen Chong",
        "rank": 3950,
        "rank_sort": 3963,
        "total": 2420
      },
      {
        "club_badge_src": null,
        "entry": 2940717,
        "entry_name": "Vitagen",
        "event_total": 63,
        "has_played": true,
        "id": 21577933,
        "last_rank": 4839,
        "player_name": "Air Sedap",
        "rank": 3950,
        "rank_sort": 3964,
        "total": 2420
      },
      {
        "club_badge_src": null,
        "entry": 2965905,
        "entry_name": "Nuttooy",
        "event_total": 51,
        "has_played": true,
        "id": 21789224,
        "last_rank": 2215,
        "player_name": "Nut Nutthapong",
        "rank": 3950,
        "rank_sort": 3965,
        "total": 2420
      },
      {
        "club_badge_src": null,
        "entry": 3261421,
        "entry_name": "I'm a Baleba",
        "event_total": 74,
        "has_played": true,
        "id": 24132659,
        "last_rank": 7822,
        "player_name": "Justin Gilbert",
        "rank": 3950,
        "rank_sort": 3966,
        "total": 2420
      },
      {
        "club_badge_src": null,
        "entry": 3630097,
        "entry_name": "WOUT",
        "event_total": 56,
        "has_played": true,
        "id": 27050575,
        "last_rank": 2870,
        "player_name": "Colm Cahill",
        "rank": 3950,
        "rank_sort": 3967,
        "total": 2420
      },
      {
        "club_badge_src": null,
        "entry": 4466254,
        "entry_name": "Zmagovbom",
        "event_total": 59,
        "has_played": true,
        "id": 34031906,
        "last_rank": 3951,
        "player_name": "Ju\u0161 Pogorevc",
        "rank": 3950,
        "rank_sort": 3968,
        "total": 2420
      },
      {
        "club_badge_src": null,
        "entry": 6697876,
        "entry_name": "Mahmoud",
        "event_total": 69,
        "has_played": true,
        "id": 53590160,
        "last_rank": 6305,
        "player_name": "Mahmoud Essam",
        "rank": 3950,
        "rank_sort": 3969,
        "total": 2420
      },
      {
        "club_badge_src": null,
        "entry": 7933743,
        "entry_name": "harry team",
        "event_total": 58,
        "has_played": true,
        "id": 65294789,
        "last_rank": 3813,
        "player_name": "Harry Cox",
        "rank": 3950,
        "rank_sort": 3970,
        "total": 2420
      },
      {
        "club_badge_src": null,
        "entry": 9176758,
        "entry_name": "Jethro's Juniors FC",
        "event_total": 56,
        "has_played": true,
        "id": 77204139,
        "last_rank": 3462,
        "player_name": "Simon Westland",
        "rank": 3950,
        "rank_sort": 3971,
        "total": 2420
      },
      {
        "club_badge_src": null,
        "entry": 21035,
        "entry_name": "It's Gonna Get Messi",
        "event_total": 57,
        "has_played": true,
        "id": 131805,
        "last_rank": 3026,
        "player_name": "Jamie Brooks",
        "rank": 3972,
        "rank_sort": 3972,
        "total": 2420
      },
      {
        "club_badge_src": "https://fantasy.premierleague.com/gcs/plfpl-production-adobe-approved/plfpl-production/32063/d2c7354d-3660-4286-adf2-07c45cda21b5.png",
        "entry": 32063,
        "entry_name": "Widawczak x Goggins",
        "event_total": 53,
        "has_played": true,
        "id": 203704,
        "last_rank": 3007,
        "player_name": "Wojciech Bonter",
        "rank": 3972,
        "rank_sort": 3973,
        "total": 2420
      },
      {
        "club_badge_src": null,
        "entry": 99212,
        "entry_name": "#",
        "event_total": 76,
        "has_played": true,
        "id": 647681,
        "last_rank": 7141,
        "player_name": "catch me if you can",
        "rank": 3972,
        "rank_sort": 3974,
        "total": 2420
      },
      {
        "club_badge_src": null,
        "entry": 102806,
        "entry_name": "Surke FC",
        "event_total": 51,
        "has_played": true,
        "id": 670819,
        "last_rank": 2235,
        "player_name": "Seth Burke",
        "rank": 3972,
        "rank_sort": 3975,
        "total": 2420
      },
      {
        "club_badge_src": null,
        "entry": 200420,
        "entry_name": "Salop Supremes",
        "event_total": 53,
        "has_played": true,
        "id": 1330511,
        "last_rank": 3035,
        "player_name": "Adam Glithero",
        "rank": 3972,
        "rank_sort": 3976,
        "total": 2420
      },
      {
        "club_badge_src": null,
        "entry": 404146,
        "entry_name": "Tekkerslovakia",
        "event_total": 62,
        "has_played": true,
        "id": 2709880,
        "last_rank": 4644,
        "player_name": "Francis Mooney",
        "rank": 3972,
        "rank_sort": 3977,
        "total": 2420
      },
      {
        "club_badge_src": null,
        "entry": 412016,
        "entry_name": "Wirtz Case Scenario",
        "event_total": 70,
        "has_played": true,
        "id": 2762566,
        "last_rank": 6614,
        "player_name": "Doorgesh Jhugroo",
        "rank": 3972,
        "rank_sort": 3978,
        "total": 2420
      },
      {
        "club_badge_src": null,
        "entry": 469658,
        "entry_name": "You\u2019re a Wissa Harry",
        "event_total": 38,
        "has_played": true,
        "id": 3152560,
        "last_rank": 1420,
        "player_name": "Liam Casey",
        "rank": 3972,
        "rank_sort": 3979,
        "total": 2420
      },
      {
        "club_badge_src": null,
        "entry": 482222,
        "entry_name": "MOSPCHP",
        "event_total": 51,
        "has_played": true,
        "id": 3237218,
        "last_rank": 2762,
        "player_name": "Pacharapol Sasivimolpith",
        "rank": 3972,
        "rank_sort": 3980,
        "total": 2420
      },
      {
        "club_badge_src": null,
        "entry": 547561,
        "entry_name": "Change Name",
        "event_total": 71,
        "has_played": true,
        "id": 3685105,
        "last_rank": 5792,
        "player_name": "Calum Somerville",
        "rank": 3972,
        "rank_sort": 3981,
        "total": 2420
      },
      {
        "club_badge_src": null,
        "entry": 557904,
        "entry_name": "Sheikh & Bake",
        "event_total": 61,
        "has_played": true,
        "id": 3754639,
        "last_rank": 3627,
        "player_name": "Jim John",
        "rank": 3972,
        "rank_sort": 3982,
        "total": 2420
      },
      {
        "club_badge_src": "https://fantasy.premierleague.com/gcs/plfpl-production-adobe-approved/plfpl-production/572146/4edd0d40-4258-4349-838a-49ba2a7a82b3.png",
        "entry": 572146,
        "entry_name": "YogisPicnicBasket",
        "event_total": 68,
        "has_played": true,
        "id": 3850574,
        "last_rank": 4155,
        "player_name": "J\u00f8rgen R\u00f8geberg",
        "rank": 3972,
        "rank_sort": 3983,
        "total": 2420
      },
      {
        "club_badge_src": "https://fantasy.premierleague.com/gcs/plfpl-production-adobe-approved/plfpl-production/625419/51455335-b4c0-463a-bb81-2434ba0614f8.png",
        "entry": 625419,
        "entry_name": "Kommunarka",
        "event_total": 53,
        "has_played": true,
        "id": 4226354,
        "last_rank": 2009,
        "player_name": "Stanislav Gerasimov",
        "rank": 3972,
        "rank_sort": 3984,
        "total": 2420
      },
      {
        "club_badge_src": "https://fantasy.premierleague.com/gcs/plfpl-production-adobe-approved/plfpl-production/708983/5c52ebc6-80d3-4d5b-afe5-c2b4b9fa4ae7.png",
        "entry": 708983,
        "entry_name": "YNWA 20",
        "event_total": 70,
        "has_played": true,
        "id": 4806083,
        "last_rank": 6579,
        "player_name": "Mauro Rodrigues",
        "rank": 3972,
        "rank_sort": 3985,
        "total": 2420
      },
      {
        "club_badge_src": null,
        "entry": 961152,
        "entry_name": "Meiminho XI",
        "event_total": 66,
        "has_played": true,
        "id": 6623388,
        "last_rank": 4615,
        "player_name": "Jan Meimer",
        "rank": 3972,
        "rank_sort": 3986,
        "total": 2420
      },
      {
        "club_badge_src": null,
        "entry": 1002052,
        "entry_name": "Grand Old Team ***",
        "event_total": 66,
        "has_played": true,
        "id": 6926811,
        "last_rank": 4615,
        "player_name": "Stuart Leighton",
        "rank": 3972,
        "rank_sort": 3987,
        "total": 2420
      },
      {
        "club_badge_src": null,
        "entry": 1289947,
        "entry_name": "muppy muppets",
        "event_total": 47,
        "has_played": true,
        "id": 8963659,
        "last_rank": 2235,
        "player_name": "Arthur Wood",
        "rank": 3972,
        "rank_sort": 3988,
        "total": 2420
      },
      {
        "club_badge_src": null,
        "entry": 2056674,
        "entry_name": "Goodfellas FC",
        "event_total": 67,
        "has_played": true,
        "id": 14569640,
        "last_rank": 4839,
        "player_name": "Maciej Staniszewski",
        "rank": 3972,
        "rank_sort": 3989,
        "total": 2420
      },
      {
        "club_badge_src": null,
        "entry": 2710582,
        "entry_name": "\u0627\u0644\u0645\u062d\u0646\u0643",
        "event_total": 24,
        "has_played": true,
        "id": 19502096,
        "last_rank": 694,
        "player_name": "Prince Beez",
        "rank": 3972,
        "rank_sort": 3990,
        "total": 2420
      },
      {
        "club_badge_src": null,
        "entry": 2997911,
        "entry_name": "Uncle Tyrones Badman",
        "event_total": 47,
        "has_played": true,
        "id": 22050344,
        "last_rank": 2247,
        "player_name": "Edward Pyne",
        "rank": 3972,
        "rank_sort": 3991,
        "total": 2420
      },
      {
        "club_badge_src": null,
        "entry": 3303629,
        "entry_name": "Oyuok Fresh Mart 2",
        "event_total": 71,
        "has_played": true,
        "id": 24469478,
        "last_rank": 6752,
        "player_name": "Amelko Kiko",
        "rank": 3972,
        "rank_sort": 3992,
        "total": 2420
      },
      {
        "club_badge_src": "https://fantasy.premierleague.com/gcs/plfpl-production-adobe-approved/plfpl-production/3829946/7966fde0-e9ac-4cbe-a598-32efda7c2ef4.png",
        "entry": 3829946,
        "entry_name": "Dicjk Van Dijk",
        "event_total": 66,
        "has_played": true,
        "id": 28649737,
        "last_rank": 5560,
        "player_name": "Chris Benali",
        "rank": 3972,
        "rank_sort": 3993,
        "total": 2420
      },
      {
        "club_badge_src": null,
        "entry": 4138322,
        "entry_name": "Salah El Spreadsheet",
        "event_total": 60,
        "has_played": true,
        "id": 31275201,
        "last_rank": 4186,
        "player_name": "Ray Helou",
        "rank": 3972,
        "rank_sort": 3994,
        "total": 2420
      },
      {
        "club_badge_src": null,
        "entry": 4677189,
        "entry_name": "rightinthegoalhole",
        "event_total": 50,
        "has_played": true,
        "id": 35833311,
        "last_rank": 2133,
        "player_name": "Joe Morris",
        "rank": 3972,
        "rank_sort": 3995,
        "total": 2420
      },
      {
        "club_badge_src": null,
        "entry": 4952230,
        "entry_name": "ARNE'S XI",
        "event_total": 64,
        "has_played": true,
        "id": 38213307,
        "last_rank": 4186,
        "player_name": "Hamzah Rekher",
        "rank": 3972,
        "rank_sort": 3996,
        "total": 2420
      },
      {
        "club_badge_src": "https://fantasy.premierleague.com/gcs/plfpl-production-adobe-approved/plfpl-production/5763884/54567d48-9cd1-4dba-a7e5-b7f9ac8bdd47.png",
        "entry": 5763884,
        "entry_name": "Cronrea United",
        "event_total": 68,
        "has_played": true,
        "id": 45185538,
        "last_rank": 5053,
        "player_name": "Liam Murphy",
        "rank": 3972,
        "rank_sort": 3997,
        "total": 2420
      },
      {
        "club_badge_src": null,
        "entry": 7201781,
        "entry_name": "TheBear",
        "event_total": 65,
        "has_played": true,
        "id": 58148554,
        "last_rank": 5313,
        "player_name": "brandon Kaikitis",
        "rank": 3972,
        "rank_sort": 3998,
        "total": 2420
      },
      {
        "club_badge_src": "https://fantasy.premierleague.com/gcs/plfpl-production-adobe-approved/plfpl-production/9169544/47483094-7a66-4ee2-a66a-7635b4b85916.png",
        "entry": 9169544,
        "entry_name": "Nadezhda FC",
        "event_total": 47,
        "has_played": true,
        "id": 77132732,
        "last_rank": 2247,
        "player_name": "hope mukombero",
        "rank": 3972,
        "rank_sort": 3999,
        "total": 2420
      },
      {
        "club_badge_src": null,
        "entry": 44294,
        "entry_name": "Catch me if u Cunha",
        "event_total": 63,
        "has_played": true,
        "id": 283859,
        "last_rank": 4839,
        "player_name": "Erik Scheffer",
        "rank": 4000,
        "rank_sort": 4000,
        "total": 2420
      }
    ]
  }
}