{
  "last_updated_data": "2026-05-24T23:28:17Z",
  "league": {
    "admin_entry": null,
    "closed": false,
    "code_privacy": "p",
    "created": "2025-07-20T23:14:33.933835Z",
    "cup_league": 2815434,
    "has_cup": true,
    "id": 314,
    "league_type": "s",
    "max_entries": null,
    "name": "Overall",
    "rank": null,
    "scoring": "c",
    "start_event": 1
  },
  "new_entries": {
    "has_next": false,
    "page": 1,
    "results": []
  },
  "standings": {
    "has_next": true,
    "page": 1382,
    "results": [
      {
        "club_badge_src": null,
        "entry": 4065145,
        "entry_name": "Kinder Mbeumo",
        "event_total": 52,
        "has_played": true,
        "id": 30679191,
        "last_rank": 53621,
        "player_name": "Kishan Mardania",
        "rank": 68952,
        "rank_sort": 69051,
        "total": 2341
      },
      {
        "club_badge_src": "https://fantasy.premierleague.com/gcs/plfpl-production-adobe-approved/plfpl-production/4070060/6e276322-3c7b-47ae-8b06-53ac0bd5ff94.png",
        "entry": 4070060,
        "entry_name": "TheGreat mhapour FBI",
        "event_total": 51,
        "has_played": true,
        "id": 30719311,
        "last_rank": 59077,
        "player_name": "mohammad hosein afshari pour",
        "rank": 68952,
        "rank_sort": 69052,
        "total": 2341
      },
      {
        "club_badge_src": null,
        "entry": 4135141,
        "entry_name": "bakrrii",
        "event_total": 59,
        "has_played": true,
        "id": 31249998,
        "last_rank": 74166,
        "player_name": "Sir Alex",
        "rank": 68952,
        "rank_sort": 69053,
        "total": 2341
      },
      {
        "club_badge_src": null,
        "entry": 4162837,
        "entry_name": "Saint Nick's Ballers",
        "event_total": 81,
        "has_played": true,
        "id": 31477764,
        "last_rank": 130957,
        "player_name": "Sir Tonnie",
        "rank": 68952,
        "rank_sort": 69054,
        "total": 2341
      },
      {
        "club_badge_src": "https://fantasy.premierleague.com/gcs/plfpl-production-adobe-approved/plfpl-production/4183112/5ea80dd7-7e74-482d-9d88-9ad33ffa2e24.png",
        "entry": 4183112,
        "entry_name": "Havertz your way",
        "event_total": 56,
        "has_played": true,
        "id": 31648733,
        "last_rank": 67926,
        "player_name": "ahmad fahim",
        "rank": 68952,
        "rank_sort": 69055,
        "total": 2341
      },
      {
        "club_badge_src": null,
        "entry": 4215258,
        "entry_name": "Change Name",
        "event_total": 56,
        "has_played": true,
        "id": 31922368,
        "last_rank": 68107,
        "player_name": "David Walsh",
        "rank": 68952,
        "rank_sort": 69056,
        "total": 2341
      },
      {
        "club_badge_src": null,
        "entry": 4760101,
        "entry_name": "DOJ FC",
        "event_total": 64,
        "has_played": true,
        "id": 36633385,
        "last_rank": 60168,
        "player_name": "skander bedoui",
        "rank": 68952,
        "rank_sort": 69057,
        "total": 2341
      },
      {
        "club_badge_src": null,
        "entry": 4952420,
        "entry_name": "DontLookBackInElanga",
        "event_total": 72,
        "has_played": true,
        "id": 38214964,
        "last_rank": 104388,
        "player_name": "Claire Carr",
        "rank": 68952,
        "rank_sort": 69058,
        "total": 2341
      },
      {
        "club_badge_src": "https://fantasy.premierleague.com/gcs/plfpl-production-adobe-approved/plfpl-production/5133889/f017eaf9-5001-4c30-9b37-feae8b2a36f3.png",
        "entry": 5133889,
        "entry_name": "The Cuhh's",
        "event_total": 66,
        "has_played": true,
        "id": 39708072,
        "last_rank": 89897,
        "player_name": "Cyprian Danze",
        "rank": 68952,
        "rank_sort": 69059,
        "total": 2341
      },
      {
        "club_badge_src": null,
        "entry": 5175183,
        "entry_name": "Tamer El Aswad",
        "event_total": 50,
        "has_played": true,
        "id": 40055789,
        "last_rank": 57451,
        "player_name": "\u062a\u0627\u0645\u0631 \u0627\u0644\u0623\u0633\u0648\u062f",
        "rank": 68952,
        "rank_sort": 69060,
        "total": 2341
      },
      {
        "club_badge_src": null,
        "entry": 5406532,
        "entry_name": "Grilla kylling",
        "event_total": 74,
        "has_played": true,
        "id": 42040702,
        "last_rank": 110187,
        "player_name": "Martin Bjornerem",
        "rank": 68952,
        "rank_sort": 69061,
        "total": 2341
      },
      {
        "club_badge_src": null,
        "entry": 5491448,
        "entry_name": "Tobirama FC",
        "event_total": 75,
        "has_played": true,
        "id": 42770206,
        "last_rank": 113223,
        "player_name": "Torbj\u00f8rn Saue",
        "rank": 68952,
        "rank_sort": 69062,
        "total": 2341
      },
      {
        "club_badge_src": null,
        "entry": 5519380,
        "entry_name": "Thunder.1926",
        "event_total": 69,
        "has_played": true,
        "id": 43036791,
        "last_rank": 97096,
        "player_name": "Constantinos Papaellinas",
        "rank": 68952,
        "rank_sort": 69063,
        "total": 2341
      },
      {
        "club_badge_src": null,
        "entry": 5652767,
        "entry_name": "Backstreet Moyes",
        "event_total": 60,
        "has_played": true,
        "id": 44220698,
        "last_rank": 67926,
        "player_name": "Ross Parsons",
        "rank": 68952,
        "rank_sort": 69064,
        "total": 2341
      },
      {
        "club_badge_src": null,
        "entry": 5796838,
        "entry_name": "AH",
        "event_total": 48,
        "has_played": true,
        "id": 45471543,
        "last_rank": 53952,
        "player_name": "Aziz Alhammadi",
        "rank": 68952,
        "rank_sort": 69065,
        "total": 2341
      },
      {
        "club_badge_src": null,
        "entry": 6158101,
        "entry_name": "Malick Ciao",
        "event_total": 58,
        "has_played": true,
        "id": 48682827,
        "last_rank": 49691,
        "player_name": "Fiachra Starr",
        "rank": 68952,
        "rank_sort": 69066,
        "total": 2341
      },
      {
        "club_badge_src": null,
        "entry": 6321195,
        "entry_name": "Blue1Skin",
        "event_total": 59,
        "has_played": true,
        "id": 50198251,
        "last_rank": 66057,
        "player_name": "George Assiotis",
        "rank": 68952,
        "rank_sort": 69067,
        "total": 2341
      },
      {
        "club_badge_src": null,
        "entry": 6334300,
        "entry_name": "Gingers United",
        "event_total": 58,
        "has_played": true,
        "id": 50343069,
        "last_rank": 71956,
        "player_name": "Richard Somerfield-Taylor",
        "rank": 68952,
        "rank_sort": 69068,
        "total": 2341
      },
      {
        "club_badge_src": null,
        "entry": 6387670,
        "entry_name": "sons of ragnar",
        "event_total": 76,
        "has_played": true,
        "id": 50809428,
        "last_rank": 115421,
        "player_name": "jim wheeler",
        "rank": 68952,
        "rank_sort": 69069,
        "total": 2341
      },
      {
        "club_badge_src": null,
        "entry": 6425463,
        "entry_name": "Lewis XI",
        "event_total": 55,
        "has_played": true,
        "id": 51145994,
        "last_rank": 66200,
        "player_name": "Dave Lewis",
        "rank": 68952,
        "rank_sort": 69070,
        "total": 2341
      },
      {
        "club_badge_src": null,
        "entry": 6433331,
        "entry_name": "Thomas Myhre eie",
        "event_total": 51,
        "has_played": true,
        "id": 51214432,
        "last_rank": 52205,
        "player_name": "Eirik Lea",
        "rank": 68952,
        "rank_sort": 69071,
        "total": 2341
      },
      {
        "club_badge_src": null,
        "entry": 6454638,
        "entry_name": "Dark Legacy FC",
        "event_total": 77,
        "has_played": true,
        "id": 51403362,
        "last_rank": 118654,
        "player_name": "volkan and\u0131rangil",
        "rank": 68952,
        "rank_sort": 69072,
        "total": 2341
      },
      {
        "club_badge_src": null,
        "entry": 6584733,
        "entry_name": "I am Your Guru",
        "event_total": 71,
        "has_played": true,
        "id": 52585380,
        "last_rank": 91835,
        "player_name": "Will Shaw",
        "rank": 68952,
        "rank_sort": 69073,
        "total": 2341
      },
      {
        "club_badge_src": null,
        "entry": 6715046,
        "entry_name": "Relegation Fodder 3",
        "event_total": 64,
        "has_played": true,
        "id": 53740137,
        "last_rank": 67695,
        "player_name": "William Kerr",
        "rank": 68952,
        "rank_sort": 69074,
        "total": 2341
      },
      {
        "club_badge_src": null,
        "entry": 7068977,
        "entry_name": "BJC FC",
        "event_total": 49,
        "has_played": true,
        "id": 56879694,
        "last_rank": 55659,
        "player_name": "Ben Wright",
        "rank": 68952,
        "rank_sort": 69075,
        "total": 2341
      },
      {
        "club_badge_src": null,
        "entry": 7086952,
        "entry_name": "Real Toolmaker.",
        "event_total": 50,
        "has_played": true,
        "id": 57052444,
        "last_rank": 57358,
        "player_name": "Paul Chatham",
        "rank": 68952,
        "rank_sort": 69076,
        "total": 2341
      },
      {
        "club_badge_src": null,
        "entry": 7144343,
        "entry_name": "This Means A Bit",
        "event_total": 64,
        "has_played": true,
        "id": 57597665,
        "last_rank": 76128,
        "player_name": "David Lloyd",
        "rank": 68952,
        "rank_sort": 69077,
        "total": 2341
      },
      {
        "club_badge_src": null,
        "entry": 7230734,
        "entry_name": "Vikovic FC",
        "event_total": 71,
        "has_played": true,
        "id": 58421956,
        "last_rank": 82398,
        "player_name": "Victor Akobundu",
        "rank": 68952,
        "rank_sort": 69078,
        "total": 2341
      },
      {
        "club_badge_src": null,
        "entry": 7457437,
        "entry_name": "EFL Large",
        "event_total": 76,
        "has_played": true,
        "id": 60732051,
        "last_rank": 104712,
        "player_name": "Ed Large",
        "rank": 68952,
        "rank_sort": 69079,
        "total": 2341
      },
      {
        "club_badge_src": null,
        "entry": 7594481,
        "entry_name": "AMS",
        "event_total": 84,
        "has_played": true,
        "id": 62215628,
        "last_rank": 115421,
        "player_name": "Abdulaziz Al-Sabah",
        "rank": 68952,
        "rank_sort": 69080,
        "total": 2341
      },
      {
        "club_badge_src": null,
        "entry": 7808504,
        "entry_name": "Careless Visper",
        "event_total": 54,
        "has_played": true,
        "id": 64149957,
        "last_rank": 64319,
        "player_name": "Chris Cubitt",
        "rank": 68952,
        "rank_sort": 69081,
        "total": 2341
      },
      {
        "club_badge_src": "https://fantasy.premierleague.com/gcs/plfpl-production-adobe-approved/plfpl-production/8160424/690be929-c213-4437-a59b-b2778d1a9f9b.png",
        "entry": 8160424,
        "entry_name": "Maresca La Vista bby",
        "event_total": 64,
        "has_played": true,
        "id": 67365473,
        "last_rank": 76128,
        "player_name": "Frederik Guldager",
        "rank": 68952,
        "rank_sort": 69082,
        "total": 2341
      },
      {
        "club_badge_src": null,
        "entry": 8233878,
        "entry_name": "Silva Service",
        "event_total": 62,
        "has_played": true,
        "id": 68064768,
        "last_rank": 80465,
        "player_name": "Abhiraj Dhamija",
        "rank": 68952,
        "rank_sort": 69083,
        "total": 2341
      },
      {
        "club_badge_src": null,
        "entry": 8293890,
        "entry_name": "Mainoo in the Middle",
        "event_total": 66,
        "has_played": true,
        "id": 68645598,
        "last_rank": 71713,
        "player_name": "Joe Watson",
        "rank": 68952,
        "rank_sort": 69084,
        "total": 2341
      },
      {
        "club_badge_src": null,
        "entry": 8450007,
        "entry_name": "First Draft FC",
        "event_total": 60,
        "has_played": true,
        "id": 70155274,
        "last_rank": 67926,
        "player_name": "Emil Bergmann",
        "rank": 68952,
        "rank_sort": 69085,
        "total": 2341
      },
      {
        "club_badge_src": null,
        "entry": 8508123,
        "entry_name": "CBA",
        "event_total": 50,
        "has_played": true,
        "id": 70716045,
        "last_rank": 57358,
        "player_name": "Matthew Ure",
        "rank": 68952,
        "rank_sort": 69086,
        "total": 2341
      },
      {
        "club_badge_src": null,
        "entry": 8682786,
        "entry_name": "Always Ready",
        "event_total": 64,
        "has_played": true,
        "id": 72412019,
        "last_rank": 84980,
        "player_name": "Jere Kalauz",
        "rank": 68952,
        "rank_sort": 69087,
        "total": 2341
      },
      {
        "club_badge_src": null,
        "entry": 8892828,
        "entry_name": "Tinchy Sneijder",
        "event_total": 40,
        "has_played": true,
        "id": 74439079,
        "last_rank": 42081,
        "player_name": "Tej Sthankiya",
        "rank": 68952,
        "rank_sort": 69088,
        "total": 2341
      },
      {
        "club_badge_src": null,
        "entry": 9197552,
        "entry_name": "Cargo Utd",
        "event_total": 57,
        "has_played": true,
        "id": 77409734,
        "last_rank": 62429,
        "player_name": "Richard Derek Henderson",
        "rank": 68952,
        "rank_sort": 69089,
        "total": 2341
      },
      {
        "club_badge_src": "https://fantasy.premierleague.com/gcs/plfpl-production-adobe-approved/plfpl-production/4554/ed67c513-1343-4bb5-9fb7-03f4bf640882.png",
        "entry": 4554,
        "entry_name": "My Own Wirtz Enemy",
        "event_total": 70,
        "has_played": true,
        "id": 25891,
        "last_rank": 89897,
        "player_name": "Danny Brothers",
        "rank": 69090,
        "rank_sort": 69090,
        "total": 2341
      },
      {
        "club_badge_src": "https://fantasy.premierleague.com/gcs/plfpl-production-adobe-approved/plfpl-production/7385/7efa5c29-461e-44d0-aa90-e3c061a3a063.png",
        "entry": 7385,
        "entry_name": "yauzaaa",
        "event_total": 69,
        "has_played": true,
        "id": 42563,
        "last_rank": 78244,
        "player_name": "james yau",
        "rank": 69090,
        "rank_sort": 69091,
        "total": 2341
      },
      {
        "club_badge_src": "https://fantasy.premierleague.com/gcs/plfpl-production-adobe-approved/plfpl-production/8860/3690b49b-2660-4bbb-9568-01aeb895cddf.png",
        "entry": 8860,
        "entry_name": "El MAESTRO",
        "event_total": 68,
        "has_played": true,
        "id": 51733,
        "last_rank": 84980,
        "player_name": "Hassan Naseeb",
        "rank": 69090,
        "rank_sort": 69092,
        "total": 2341
      },
      {
        "club_badge_src": null,
        "entry": 12697,
        "entry_name": "Troje",
        "event_total": 58,
        "has_played": true,
        "id": 76278,
        "last_rank": 72265,
        "player_name": "Paul Bongers",
        "rank": 69090,
        "rank_sort": 69093,
        "total": 2341
      },
      {
        "club_badge_src": null,
        "entry": 19989,
        "entry_name": "YO25 Tigers",
        "event_total": 69,
        "has_played": true,
        "id": 124441,
        "last_rank": 97305,
        "player_name": "Keir Smith",
        "rank": 69090,
        "rank_sort": 69094,
        "total": 2341
      },
      {
        "club_badge_src": null,
        "entry": 44876,
        "entry_name": "Foppacobana",
        "event_total": 81,
        "has_played": true,
        "id": 287738,
        "last_rank": 118946,
        "player_name": "Marius Solhaug",
        "rank": 69090,
        "rank_sort": 69095,
        "total": 2341
      },
      {
        "club_badge_src": "https://fantasy.premierleague.com/gcs/plfpl-production-adobe-approved/plfpl-production/62046/aaa93830-fb6c-4c4a-babe-bceb10367463.png",
        "entry": 62046,
        "entry_name": "luck is not chance",
        "event_total": 59,
        "has_played": true,
        "id": 399800,
        "last_rank": 58911,
        "player_name": "Talal Alazemi",
        "rank": 69090,
        "rank_sort": 69096,
        "total": 2341
      },
      {
        "club_badge_src": null,
        "entry": 63513,
        "entry_name": "LeBrad James",
        "event_total": 69,
        "has_played": true,
        "id": 409819,
        "last_rank": 87541,
        "player_name": "Brad James",
        "rank": 69090,
        "rank_sort": 69097,
        "total": 2341
      },
      {
        "club_badge_src": "https://fantasy.premierleague.com/gcs/plfpl-production-adobe-approved/plfpl-production/65008/18001b02-ca59-44d5-9462-9e17988d2675.png",
        "entry": 65008,
        "entry_name": "FC Belmiloud",
        "event_total": 63,
        "has_played": true,
        "id": 419635,
        "last_rank": 74166,
        "player_name": "Fc Belmiloud",
        "rank": 69090,
        "rank_sort": 69098,
        "total": 2341
      },
      {
        "club_badge_src": null,
        "entry": 71523,
        "entry_name": "Bruno dos tres",
        "event_total": 59,
        "has_played": true,
        "id": 464588,
        "last_rank": 74317,
        "player_name": "Theo Bryant",
        "rank": 69090,
        "rank_sort": 69099,
        "total": 2341
      },
      {
        "club_badge_src": null,
        "entry": 108150,
        "entry_name": "Kencing 1Malaysia",
        "event_total": 62,
        "has_played": true,
        "id": 705130,
        "last_rank": 80651,
        "player_name": "M 01",
        "rank": 69090,
        "rank_sort": 69100,
        "total": 2341
      }
    ]
  }
}