{
  "last_updated_data": "2026-05-24T23:28:17Z",
  "league": {
    "admin_entry": null,
    "closed": false,
    "code_privacy": "p",
    "created": "2025-07-20T23:14:33.933835Z",
    "cup_league": 2815434,
    "has_cup": true,
    "id": 314,
    "league_type": "s",
    "max_entries": null,
    "name": "Overall",
    "rank": null,
    "scoring": "c",
    "start_event": 1
  },
  "new_entries": {
    "has_next": false,
    "page": 1,
    "results": []
  },
  "standings": {
    "has_next": true,
    "page": 622,
    "results": [
      {
        "club_badge_src": null,
        "entry": 1527,
        "entry_name": "Blessington Babes",
        "event_total": 69,
        "has_played": true,
        "id": 8496,
        "last_rank": 45714,
        "player_name": "Conor's Team",
        "rank": 31050,
        "rank_sort": 31051,
        "total": 2367
      },
      {
        "club_badge_src": null,
        "entry": 4017,
        "entry_name": "M@i666",
        "event_total": 52,
        "has_played": true,
        "id": 22787,
        "last_rank": 25902,
        "player_name": "Sukol Kaewcharoen",
        "rank": 31050,
        "rank_sort": 31052,
        "total": 2367
      },
      {
        "club_badge_src": null,
        "entry": 5209,
        "entry_name": "MassUTD",
        "event_total": 58,
        "has_played": true,
        "id": 29688,
        "last_rank": 27644,
        "player_name": "Jj Hhh",
        "rank": 31050,
        "rank_sort": 31053,
        "total": 2367
      },
      {
        "club_badge_src": null,
        "entry": 6069,
        "entry_name": "Kroos Control",
        "event_total": 55,
        "has_played": true,
        "id": 34737,
        "last_rank": 25002,
        "player_name": "Mats Olsen",
        "rank": 31050,
        "rank_sort": 31054,
        "total": 2367
      },
      {
        "club_badge_src": "https://fantasy.premierleague.com/gcs/plfpl-production-adobe-approved/plfpl-production/7211/c7db44f5-089d-47fa-95a8-12863b1e7474.png",
        "entry": 7211,
        "entry_name": "DontLookBackElanga",
        "event_total": 54,
        "has_played": true,
        "id": 41546,
        "last_rank": 27770,
        "player_name": "George Grieves",
        "rank": 31050,
        "rank_sort": 31055,
        "total": 2367
      },
      {
        "club_badge_src": "https://fantasy.premierleague.com/gcs/plfpl-production-adobe-approved/plfpl-production/7315/9db58fe7-36fb-4c56-b692-1d7cd81b8472.png",
        "entry": 7315,
        "entry_name": "Peaky Reijnders",
        "event_total": 71,
        "has_played": true,
        "id": 42144,
        "last_rank": 48119,
        "player_name": "Bas Thomas",
        "rank": 31050,
        "rank_sort": 31056,
        "total": 2367
      },
      {
        "club_badge_src": null,
        "entry": 7834,
        "entry_name": "MattyCashMoney",
        "event_total": 44,
        "has_played": true,
        "id": 45212,
        "last_rank": 19721,
        "player_name": "Dom Ferri",
        "rank": 31050,
        "rank_sort": 31057,
        "total": 2367
      },
      {
        "club_badge_src": "https://fantasy.premierleague.com/gcs/plfpl-production-adobe-approved/plfpl-production/12362/38086a9a-9285-4b78-92c2-cc5a36a45821.png",
        "entry": 12362,
        "entry_name": "Calafiorication",
        "event_total": 58,
        "has_played": true,
        "id": 73884,
        "last_rank": 31747,
        "player_name": "Keelan Farley",
        "rank": 31050,
        "rank_sort": 31058,
        "total": 2367
      },
      {
        "club_badge_src": null,
        "entry": 14470,
        "entry_name": "CHR_ Fluorescent",
        "event_total": 51,
        "has_played": true,
        "id": 87891,
        "last_rank": 21677,
        "player_name": "Marco Schober",
        "rank": 31050,
        "rank_sort": 31059,
        "total": 2367
      },
      {
        "club_badge_src": "https://fantasy.premierleague.com/gcs/plfpl-production-adobe-approved/plfpl-production/16118/fb434381-523a-474f-b864-fce313176d36.png",
        "entry": 16118,
        "entry_name": "Silkie FC \u26a1\ufe0f",
        "event_total": 61,
        "has_played": true,
        "id": 99377,
        "last_rank": 30727,
        "player_name": "Felix Impens",
        "rank": 31050,
        "rank_sort": 31060,
        "total": 2367
      },
      {
        "club_badge_src": null,
        "entry": 26595,
        "entry_name": "X11 WLR",
        "event_total": 61,
        "has_played": true,
        "id": 168132,
        "last_rank": 30727,
        "player_name": "Lewis Waller",
        "rank": 31050,
        "rank_sort": 31061,
        "total": 2367
      },
      {
        "club_badge_src": null,
        "entry": 26875,
        "entry_name": "Ah Cunha Mateta",
        "event_total": 65,
        "has_played": true,
        "id": 169936,
        "last_rank": 40297,
        "player_name": "Odell Charles",
        "rank": 31050,
        "rank_sort": 31062,
        "total": 2367
      },
      {
        "club_badge_src": null,
        "entry": 30432,
        "entry_name": "Garnacho Cheese",
        "event_total": 53,
        "has_played": true,
        "id": 192586,
        "last_rank": 26827,
        "player_name": "James Milne",
        "rank": 31050,
        "rank_sort": 31063,
        "total": 2367
      },
      {
        "club_badge_src": null,
        "entry": 31110,
        "entry_name": "Blank",
        "event_total": 60,
        "has_played": true,
        "id": 197011,
        "last_rank": 29578,
        "player_name": "Samir Sherif",
        "rank": 31050,
        "rank_sort": 31064,
        "total": 2367
      },
      {
        "club_badge_src": "https://fantasy.premierleague.com/gcs/plfpl-production-adobe-approved/plfpl-production/42906/44dbf23c-2473-41aa-8c72-4799f8a7b673.png",
        "entry": 42906,
        "entry_name": "Mike Dean is Back",
        "event_total": 50,
        "has_played": true,
        "id": 274827,
        "last_rank": 24143,
        "player_name": "Daniel Emmerton",
        "rank": 31050,
        "rank_sort": 31065,
        "total": 2367
      },
      {
        "club_badge_src": "https://fantasy.premierleague.com/gcs/plfpl-production-adobe-approved/plfpl-production/44168/524a962f-60ed-49ac-868e-b7ae5325738e.png",
        "entry": 44168,
        "entry_name": "Bruno Dos Tres",
        "event_total": 57,
        "has_played": true,
        "id": 283036,
        "last_rank": 26827,
        "player_name": "Arjun Lotay",
        "rank": 31050,
        "rank_sort": 31066,
        "total": 2367
      },
      {
        "club_badge_src": null,
        "entry": 47409,
        "entry_name": "Eldhorados",
        "event_total": 49,
        "has_played": true,
        "id": 304081,
        "last_rank": 23522,
        "player_name": "Emil Eldh",
        "rank": 31050,
        "rank_sort": 31067,
        "total": 2367
      },
      {
        "club_badge_src": "https://fantasy.premierleague.com/gcs/plfpl-production-adobe-approved/plfpl-production/47566/30ff9b41-f70a-4203-89e9-0ff44345dacb.png",
        "entry": 47566,
        "entry_name": "Bardziej rzu\u0142te daj",
        "event_total": 44,
        "has_played": true,
        "id": 305179,
        "last_rank": 19544,
        "player_name": "Bartosz Babiarz",
        "rank": 31050,
        "rank_sort": 31068,
        "total": 2367
      },
      {
        "club_badge_src": null,
        "entry": 49562,
        "entry_name": "Goatsson FC",
        "event_total": 73,
        "has_played": true,
        "id": 318617,
        "last_rank": 45252,
        "player_name": "Robin G\u00f6tesson",
        "rank": 31050,
        "rank_sort": 31069,
        "total": 2367
      },
      {
        "club_badge_src": "https://fantasy.premierleague.com/gcs/plfpl-production-adobe-approved/plfpl-production/55169/470f6482-c055-49f3-a9b8-bbcfeaa403f0.png",
        "entry": 55169,
        "entry_name": "Haaland\u2019s Hatchet",
        "event_total": 69,
        "has_played": true,
        "id": 355091,
        "last_rank": 45714,
        "player_name": "Paul Dwyer",
        "rank": 31050,
        "rank_sort": 31070,
        "total": 2367
      },
      {
        "club_badge_src": null,
        "entry": 56411,
        "entry_name": "Its coldpamr outside",
        "event_total": 61,
        "has_played": true,
        "id": 363330,
        "last_rank": 35034,
        "player_name": "Jaspreet Brar",
        "rank": 31050,
        "rank_sort": 31071,
        "total": 2367
      },
      {
        "club_badge_src": "https://fantasy.premierleague.com/gcs/plfpl-production-adobe-approved/plfpl-production/61094/b6e7f7b3-904f-45b6-aea5-2ece1b5c3d91.png",
        "entry": 61094,
        "entry_name": "That's Number Hwang",
        "event_total": 49,
        "has_played": true,
        "id": 393401,
        "last_rank": 23522,
        "player_name": "James Baker",
        "rank": 31050,
        "rank_sort": 31072,
        "total": 2367
      },
      {
        "club_badge_src": null,
        "entry": 62823,
        "entry_name": "Now I\u2019m a Baleba",
        "event_total": 59,
        "has_played": true,
        "id": 405146,
        "last_rank": 28609,
        "player_name": "Dean Grindrod",
        "rank": 31050,
        "rank_sort": 31073,
        "total": 2367
      },
      {
        "club_badge_src": null,
        "entry": 85106,
        "entry_name": "Jammy FC",
        "event_total": 63,
        "has_played": true,
        "id": 554189,
        "last_rank": 37822,
        "player_name": "Jonny Jam",
        "rank": 31050,
        "rank_sort": 31074,
        "total": 2367
      },
      {
        "club_badge_src": "https://fantasy.premierleague.com/gcs/plfpl-production-adobe-approved/plfpl-production/91676/2212c23b-9ddb-4564-8f40-54a2f95df92e.png",
        "entry": 91676,
        "entry_name": "Kavun de Bruyne",
        "event_total": 64,
        "has_played": true,
        "id": 598888,
        "last_rank": 34051,
        "player_name": "Serdar \u015ee\u015feo\u011fullar\u0131",
        "rank": 31050,
        "rank_sort": 31075,
        "total": 2367
      },
      {
        "club_badge_src": "https://fantasy.premierleague.com/gcs/plfpl-production-adobe-approved/plfpl-production/96865/71f4c965-9a8e-4cdc-92f6-f15fbd4ff2bc.png",
        "entry": 96865,
        "entry_name": "Tai Hwa Mee Pogba",
        "event_total": 68,
        "has_played": true,
        "id": 632734,
        "last_rank": 38774,
        "player_name": "KW LEE",
        "rank": 31050,
        "rank_sort": 31076,
        "total": 2367
      },
      {
        "club_badge_src": null,
        "entry": 110229,
        "entry_name": "Costa Del Studsr\u00f8d",
        "event_total": 50,
        "has_played": true,
        "id": 718873,
        "last_rank": 24475,
        "player_name": "Elisabeth Holland",
        "rank": 31050,
        "rank_sort": 31077,
        "total": 2367
      },
      {
        "club_badge_src": "https://fantasy.premierleague.com/gcs/plfpl-production-adobe-approved/plfpl-production/112127/32d72627-48c8-4de4-a258-2212fa82b03b.png",
        "entry": 112127,
        "entry_name": "Yellow Soumarine",
        "event_total": 64,
        "has_played": true,
        "id": 731044,
        "last_rank": 34051,
        "player_name": "Jackson Fosse",
        "rank": 31050,
        "rank_sort": 31078,
        "total": 2367
      },
      {
        "club_badge_src": null,
        "entry": 114452,
        "entry_name": "Glad All Over FC",
        "event_total": 73,
        "has_played": true,
        "id": 746569,
        "last_rank": 51720,
        "player_name": "John Murphy",
        "rank": 31050,
        "rank_sort": 31079,
        "total": 2367
      },
      {
        "club_badge_src": null,
        "entry": 125851,
        "entry_name": "Farcelona",
        "event_total": 46,
        "has_played": true,
        "id": 820744,
        "last_rank": 21159,
        "player_name": "Shezad Mahomedali",
        "rank": 31050,
        "rank_sort": 31080,
        "total": 2367
      },
      {
        "club_badge_src": null,
        "entry": 130501,
        "entry_name": "jayresie",
        "event_total": 31,
        "has_played": true,
        "id": 850362,
        "last_rank": 11699,
        "player_name": "Joe Ayres",
        "rank": 31050,
        "rank_sort": 31081,
        "total": 2367
      },
      {
        "club_badge_src": null,
        "entry": 130925,
        "entry_name": "Rahul Gandhi Next PM",
        "event_total": 72,
        "has_played": true,
        "id": 853070,
        "last_rank": 49880,
        "player_name": "Prathamesh Landekar",
        "rank": 31050,
        "rank_sort": 31082,
        "total": 2367
      },
      {
        "club_badge_src": null,
        "entry": 133158,
        "entry_name": "Blood, Sweat & Beers",
        "event_total": 68,
        "has_played": true,
        "id": 867334,
        "last_rank": 44048,
        "player_name": "David Booth",
        "rank": 31050,
        "rank_sort": 31083,
        "total": 2367
      },
      {
        "club_badge_src": null,
        "entry": 137778,
        "entry_name": "Ao! Right in Tanakas",
        "event_total": 58,
        "has_played": true,
        "id": 898345,
        "last_rank": 27770,
        "player_name": "Thomas Vaughan",
        "rank": 31050,
        "rank_sort": 31084,
        "total": 2367
      },
      {
        "club_badge_src": "https://fantasy.premierleague.com/gcs/plfpl-production-adobe-approved/plfpl-production/147870/2ce0e402-6f96-47fc-b434-bf917bf294d4.png",
        "entry": 147870,
        "entry_name": "it's time to go",
        "event_total": 48,
        "has_played": true,
        "id": 969132,
        "last_rank": 19544,
        "player_name": "Jan Ju\u017enik",
        "rank": 31050,
        "rank_sort": 31085,
        "total": 2367
      },
      {
        "club_badge_src": "https://fantasy.premierleague.com/gcs/plfpl-production-adobe-approved/plfpl-production/176429/973e10cc-65ae-4668-a700-056158568e0e.png",
        "entry": 176429,
        "entry_name": "Inter Bibbyan",
        "event_total": 59,
        "has_played": true,
        "id": 1164657,
        "last_rank": 33147,
        "player_name": "Daryl Bibby",
        "rank": 31050,
        "rank_sort": 31086,
        "total": 2367
      },
      {
        "club_badge_src": null,
        "entry": 176589,
        "entry_name": "DHtenis",
        "event_total": 69,
        "has_played": true,
        "id": 1165699,
        "last_rank": 45714,
        "player_name": "Tomasz Hetzig",
        "rank": 31050,
        "rank_sort": 31087,
        "total": 2367
      },
      {
        "club_badge_src": null,
        "entry": 187138,
        "entry_name": "OPPEGOAT UNITED",
        "event_total": 66,
        "has_played": true,
        "id": 1237157,
        "last_rank": 41162,
        "player_name": "Daniel Oppeg\u00e5rd",
        "rank": 31050,
        "rank_sort": 31088,
        "total": 2367
      },
      {
        "club_badge_src": null,
        "entry": 208088,
        "entry_name": "Thekhim",
        "event_total": 58,
        "has_played": true,
        "id": 1383370,
        "last_rank": 31995,
        "player_name": "Narong Srikittiprapas",
        "rank": 31050,
        "rank_sort": 31089,
        "total": 2367
      },
      {
        "club_badge_src": "https://fantasy.premierleague.com/gcs/plfpl-production-adobe-approved/plfpl-production/215349/78a4e114-e363-4142-adc2-88bddb9d1b8a.png",
        "entry": 215349,
        "entry_name": "Digby County",
        "event_total": 61,
        "has_played": true,
        "id": 1432389,
        "last_rank": 35424,
        "player_name": "Marcus Digby",
        "rank": 31050,
        "rank_sort": 31090,
        "total": 2367
      },
      {
        "club_badge_src": null,
        "entry": 221096,
        "entry_name": "Bru no1",
        "event_total": 64,
        "has_played": true,
        "id": 1470500,
        "last_rank": 33936,
        "player_name": "Shagilan Jeevaresan",
        "rank": 31050,
        "rank_sort": 31091,
        "total": 2367
      },
      {
        "club_badge_src": null,
        "entry": 229468,
        "entry_name": "Plymouth Argy",
        "event_total": 58,
        "has_played": true,
        "id": 1526678,
        "last_rank": 27770,
        "player_name": "Danendra Argyaputra Sakti",
        "rank": 31050,
        "rank_sort": 31092,
        "total": 2367
      },
      {
        "club_badge_src": null,
        "entry": 283240,
        "entry_name": "HunterFC",
        "event_total": 61,
        "has_played": true,
        "id": 1885574,
        "last_rank": 35166,
        "player_name": "Mac Hunter",
        "rank": 31050,
        "rank_sort": 31093,
        "total": 2367
      },
      {
        "club_badge_src": "https://fantasy.premierleague.com/gcs/plfpl-production-adobe-approved/plfpl-production/297166/e69f43d3-943e-4e5b-b966-8d57626ca0ac.png",
        "entry": 297166,
        "entry_name": "STEEL UNITED",
        "event_total": 74,
        "has_played": true,
        "id": 1986018,
        "last_rank": 53023,
        "player_name": "Conor Leach",
        "rank": 31050,
        "rank_sort": 31094,
        "total": 2367
      },
      {
        "club_badge_src": null,
        "entry": 312673,
        "entry_name": "Tomas Souchin",
        "event_total": 59,
        "has_played": true,
        "id": 2094873,
        "last_rank": 33147,
        "player_name": "Harry Rowe",
        "rank": 31050,
        "rank_sort": 31095,
        "total": 2367
      },
      {
        "club_badge_src": null,
        "entry": 325672,
        "entry_name": "eljawhara \u00a9\u2122",
        "event_total": 55,
        "has_played": true,
        "id": 2182163,
        "last_rank": 28906,
        "player_name": "Aiyad Belguenbour",
        "rank": 31050,
        "rank_sort": 31096,
        "total": 2367
      },
      {
        "club_badge_src": null,
        "entry": 360261,
        "entry_name": "Oussama Frioua",
        "event_total": 55,
        "has_played": true,
        "id": 2410675,
        "last_rank": 28906,
        "player_name": "oussama frioua",
        "rank": 31050,
        "rank_sort": 31097,
        "total": 2367
      },
      {
        "club_badge_src": null,
        "entry": 401566,
        "entry_name": "oisin team \ufffd",
        "event_total": 64,
        "has_played": true,
        "id": 2692671,
        "last_rank": 38644,
        "player_name": "Lorraine Rooney",
        "rank": 31050,
        "rank_sort": 31098,
        "total": 2367
      },
      {
        "club_badge_src": null,
        "entry": 414848,
        "entry_name": "Cold Palmer",
        "event_total": 51,
        "has_played": true,
        "id": 2780994,
        "last_rank": 25172,
        "player_name": "Theo Rundquist",
        "rank": 31050,
        "rank_sort": 31099,
        "total": 2367
      },
      {
        "club_badge_src": null,
        "entry": 424643,
        "entry_name": "ihall",
        "event_total": 68,
        "has_played": true,
        "id": 2845995,
        "last_rank": 44303,
        "player_name": "Seenlawat Suthipong",
        "rank": 31050,
        "rank_sort": 31100,
        "total": 2367
      }
    ]
  }
}