{
  "last_updated_data": "2026-05-24T23:28:17Z",
  "league": {
    "admin_entry": null,
    "closed": false,
    "code_privacy": "p",
    "created": "2025-07-20T23:14:33.933835Z",
    "cup_league": 2815434,
    "has_cup": true,
    "id": 314,
    "league_type": "s",
    "max_entries": null,
    "name": "Overall",
    "rank": null,
    "scoring": "c",
    "start_event": 1
  },
  "new_entries": {
    "has_next": false,
    "page": 1,
    "results": []
  },
  "standings": {
    "has_next": true,
    "page": 641,
    "results": [
      {
        "club_badge_src": null,
        "entry": 4077082,
        "entry_name": "Avada Dubravka",
        "event_total": 66,
        "has_played": true,
        "id": 30776372,
        "last_rank": 42434,
        "player_name": "Mark Knight",
        "rank": 31853,
        "rank_sort": 32001,
        "total": 2366
      },
      {
        "club_badge_src": "https://fantasy.premierleague.com/gcs/plfpl-production-adobe-approved/plfpl-production/4122244/b39e0382-0564-4935-8d81-165938c4d500.png",
        "entry": 4122244,
        "entry_name": "Hammertime",
        "event_total": 73,
        "has_played": true,
        "id": 31143638,
        "last_rank": 53345,
        "player_name": "Eric Harold",
        "rank": 31853,
        "rank_sort": 32002,
        "total": 2366
      },
      {
        "club_badge_src": null,
        "entry": 4197948,
        "entry_name": "Set and Regret",
        "event_total": 59,
        "has_played": true,
        "id": 31775215,
        "last_rank": 34051,
        "player_name": "J F",
        "rank": 31853,
        "rank_sort": 32003,
        "total": 2366
      },
      {
        "club_badge_src": null,
        "entry": 4254656,
        "entry_name": "Red Bull Bridgeton",
        "event_total": 71,
        "has_played": true,
        "id": 32254889,
        "last_rank": 49691,
        "player_name": "Josh White",
        "rank": 31853,
        "rank_sort": 32004,
        "total": 2366
      },
      {
        "club_badge_src": "https://fantasy.premierleague.com/gcs/plfpl-production-adobe-approved/plfpl-production/4277754/cfef2081-69b2-4f76-9d9a-1aaebc5668b5.png",
        "entry": 4277754,
        "entry_name": "Loftus-Cheeky Nandos",
        "event_total": 74,
        "has_played": true,
        "id": 32441910,
        "last_rank": 54416,
        "player_name": "Dan Loftus",
        "rank": 31853,
        "rank_sort": 32005,
        "total": 2366
      },
      {
        "club_badge_src": "https://fantasy.premierleague.com/gcs/plfpl-production-adobe-approved/plfpl-production/4357142/b385a9ce-70a1-44fd-b523-9c0a4ffbcab8.png",
        "entry": 4357142,
        "entry_name": "Winterfell Warriors",
        "event_total": 54,
        "has_played": true,
        "id": 33090788,
        "last_rank": 28726,
        "player_name": "Olaf Padar",
        "rank": 31853,
        "rank_sort": 32006,
        "total": 2366
      },
      {
        "club_badge_src": null,
        "entry": 4376329,
        "entry_name": "Flying Without Ings",
        "event_total": 59,
        "has_played": true,
        "id": 33253127,
        "last_rank": 34051,
        "player_name": "Sam Ambrose",
        "rank": 31853,
        "rank_sort": 32007,
        "total": 2366
      },
      {
        "club_badge_src": null,
        "entry": 4435959,
        "entry_name": "CJ",
        "event_total": 33,
        "has_played": true,
        "id": 33775483,
        "last_rank": 13257,
        "player_name": "chatchai jaritwong",
        "rank": 31853,
        "rank_sort": 32008,
        "total": 2366
      },
      {
        "club_badge_src": null,
        "entry": 4543573,
        "entry_name": "Dragons",
        "event_total": 80,
        "has_played": true,
        "id": 34664328,
        "last_rank": 64777,
        "player_name": "Laurence Feehan",
        "rank": 31853,
        "rank_sort": 32009,
        "total": 2366
      },
      {
        "club_badge_src": null,
        "entry": 4563131,
        "entry_name": "yousef hesham",
        "event_total": 53,
        "has_played": true,
        "id": 34820799,
        "last_rank": 27976,
        "player_name": "yousef hisham",
        "rank": 31853,
        "rank_sort": 32010,
        "total": 2366
      },
      {
        "club_badge_src": "https://fantasy.premierleague.com/gcs/plfpl-production-adobe-approved/plfpl-production/4658495/93991253-07b1-4ec0-985b-517abfc1054a.png",
        "entry": 4658495,
        "entry_name": "The Kamara Sutra",
        "event_total": 62,
        "has_played": true,
        "id": 35662570,
        "last_rank": 37589,
        "player_name": "Arthur Carter",
        "rank": 31853,
        "rank_sort": 32011,
        "total": 2366
      },
      {
        "club_badge_src": null,
        "entry": 4686234,
        "entry_name": "Gosforth PC FC",
        "event_total": 77,
        "has_played": true,
        "id": 35913542,
        "last_rank": 59535,
        "player_name": "Alex Plent",
        "rank": 31853,
        "rank_sort": 32012,
        "total": 2366
      },
      {
        "club_badge_src": "https://fantasy.premierleague.com/gcs/plfpl-production-adobe-approved/plfpl-production/4724628/b9a46888-1912-46f2-94b4-8b36c83b78b6.png",
        "entry": 4724628,
        "entry_name": "Los Panditas FC",
        "event_total": 61,
        "has_played": true,
        "id": 36313318,
        "last_rank": 36200,
        "player_name": "Maria Kval\u00f8",
        "rank": 31853,
        "rank_sort": 32013,
        "total": 2366
      },
      {
        "club_badge_src": null,
        "entry": 4747298,
        "entry_name": "darren's destroyers",
        "event_total": 61,
        "has_played": true,
        "id": 36528838,
        "last_rank": 36348,
        "player_name": "Darren Borozan",
        "rank": 31853,
        "rank_sort": 32014,
        "total": 2366
      },
      {
        "club_badge_src": null,
        "entry": 4777898,
        "entry_name": "Cam XI",
        "event_total": 74,
        "has_played": true,
        "id": 36779453,
        "last_rank": 54416,
        "player_name": "Cameron Currie",
        "rank": 31853,
        "rank_sort": 32015,
        "total": 2366
      },
      {
        "club_badge_src": null,
        "entry": 4807234,
        "entry_name": "Celtic Cowboys",
        "event_total": 55,
        "has_played": true,
        "id": 37014423,
        "last_rank": 29688,
        "player_name": "Ronan McFeely",
        "rank": 31853,
        "rank_sort": 32016,
        "total": 2366
      },
      {
        "club_badge_src": null,
        "entry": 4851050,
        "entry_name": "big R Blancos",
        "event_total": 56,
        "has_played": true,
        "id": 37375674,
        "last_rank": 30600,
        "player_name": "Big R",
        "rank": 31853,
        "rank_sort": 32017,
        "total": 2366
      },
      {
        "club_badge_src": null,
        "entry": 4994746,
        "entry_name": "BC United",
        "event_total": 42,
        "has_played": true,
        "id": 38562563,
        "last_rank": 18655,
        "player_name": "Ben Craft",
        "rank": 31853,
        "rank_sort": 32018,
        "total": 2366
      },
      {
        "club_badge_src": null,
        "entry": 5155206,
        "entry_name": "Bridge_B",
        "event_total": 65,
        "has_played": true,
        "id": 39887501,
        "last_rank": 41162,
        "player_name": "Terasak Jitngamkusol",
        "rank": 31853,
        "rank_sort": 32019,
        "total": 2366
      },
      {
        "club_badge_src": null,
        "entry": 5214728,
        "entry_name": "Mowo FC",
        "event_total": 53,
        "has_played": true,
        "id": 40394383,
        "last_rank": 27770,
        "player_name": "Daniel Onimowo",
        "rank": 31853,
        "rank_sort": 32020,
        "total": 2366
      },
      {
        "club_badge_src": null,
        "entry": 5331254,
        "entry_name": "nummer4",
        "event_total": 46,
        "has_played": true,
        "id": 41330421,
        "last_rank": 21775,
        "player_name": "Svein Dahlbo",
        "rank": 31853,
        "rank_sort": 32021,
        "total": 2366
      },
      {
        "club_badge_src": "https://fantasy.premierleague.com/gcs/plfpl-production-adobe-approved/plfpl-production/5435791/81a8cfcf-962a-4fea-a264-cf37b15cd13c.png",
        "entry": 5435791,
        "entry_name": "S\u00e3o Aursnes",
        "event_total": 34,
        "has_played": true,
        "id": 42286269,
        "last_rank": 13821,
        "player_name": "Ricardo Fernandes",
        "rank": 31853,
        "rank_sort": 32022,
        "total": 2366
      },
      {
        "club_badge_src": null,
        "entry": 5440327,
        "entry_name": "Luka10.",
        "event_total": 56,
        "has_played": true,
        "id": 42327161,
        "last_rank": 26656,
        "player_name": "ABDOURA HMANE",
        "rank": 31853,
        "rank_sort": 32023,
        "total": 2366
      },
      {
        "club_badge_src": null,
        "entry": 5469606,
        "entry_name": "Fieldstream",
        "event_total": 46,
        "has_played": true,
        "id": 42572000,
        "last_rank": 21677,
        "player_name": "Andreas Engstr\u00f6m",
        "rank": 31853,
        "rank_sort": 32024,
        "total": 2366
      },
      {
        "club_badge_src": null,
        "entry": 5540450,
        "entry_name": "Rutter Woke Nonsense",
        "event_total": 57,
        "has_played": true,
        "id": 43231226,
        "last_rank": 31747,
        "player_name": "Cole Williams",
        "rank": 31853,
        "rank_sort": 32025,
        "total": 2366
      },
      {
        "club_badge_src": null,
        "entry": 5549391,
        "entry_name": "Benrahmas in Pyjamas",
        "event_total": 42,
        "has_played": true,
        "id": 43309922,
        "last_rank": 18691,
        "player_name": "Jack Dempsey",
        "rank": 31853,
        "rank_sort": 32026,
        "total": 2366
      },
      {
        "club_badge_src": null,
        "entry": 5553224,
        "entry_name": "Brodshaug United",
        "event_total": 51,
        "has_played": true,
        "id": 43343752,
        "last_rank": 25902,
        "player_name": "Daniel Brodshaug",
        "rank": 31853,
        "rank_sort": 32027,
        "total": 2366
      },
      {
        "club_badge_src": null,
        "entry": 5565501,
        "entry_name": "Autobots",
        "event_total": 51,
        "has_played": true,
        "id": 43454260,
        "last_rank": 25902,
        "player_name": "Saurabh Sharma",
        "rank": 31853,
        "rank_sort": 32028,
        "total": 2366
      },
      {
        "club_badge_src": "https://fantasy.premierleague.com/gcs/plfpl-production-adobe-approved/plfpl-production/5566247/82466e8a-55f2-4796-a632-085edb8a0c4b.png",
        "entry": 5566247,
        "entry_name": "\u00f8de",
        "event_total": 67,
        "has_played": true,
        "id": 43461031,
        "last_rank": 44048,
        "player_name": "Mohammed Bataher",
        "rank": 31853,
        "rank_sort": 32029,
        "total": 2366
      },
      {
        "club_badge_src": null,
        "entry": 5666694,
        "entry_name": "Special Projects",
        "event_total": 64,
        "has_played": true,
        "id": 44338550,
        "last_rank": 39874,
        "player_name": "Will Hurman",
        "rank": 31853,
        "rank_sort": 32030,
        "total": 2366
      },
      {
        "club_badge_src": null,
        "entry": 5687387,
        "entry_name": "Fergusons Mini Bus",
        "event_total": 61,
        "has_played": true,
        "id": 44519694,
        "last_rank": 36348,
        "player_name": "Kev Conway",
        "rank": 31853,
        "rank_sort": 32031,
        "total": 2366
      },
      {
        "club_badge_src": null,
        "entry": 5729851,
        "entry_name": "Al-Winthis",
        "event_total": 60,
        "has_played": true,
        "id": 44887136,
        "last_rank": 34969,
        "player_name": "Eamonn McKeown",
        "rank": 31853,
        "rank_sort": 32032,
        "total": 2366
      },
      {
        "club_badge_src": null,
        "entry": 5793975,
        "entry_name": "FCB",
        "event_total": 68,
        "has_played": true,
        "id": 45446814,
        "last_rank": 45252,
        "player_name": "Semir Pepic",
        "rank": 31853,
        "rank_sort": 32033,
        "total": 2366
      },
      {
        "club_badge_src": null,
        "entry": 5801311,
        "entry_name": "Tonali's Toon Army 3",
        "event_total": 69,
        "has_played": true,
        "id": 45510953,
        "last_rank": 47163,
        "player_name": "Caleb Summers",
        "rank": 31853,
        "rank_sort": 32034,
        "total": 2366
      },
      {
        "club_badge_src": null,
        "entry": 5813300,
        "entry_name": "Netflix and Chilwell",
        "event_total": 58,
        "has_played": true,
        "id": 45615204,
        "last_rank": 32688,
        "player_name": "Lorenzo Sintini",
        "rank": 31853,
        "rank_sort": 32035,
        "total": 2366
      },
      {
        "club_badge_src": "https://fantasy.premierleague.com/gcs/plfpl-production-adobe-approved/plfpl-production/5861930/265577fb-7fec-402b-bae9-984395458df3.png",
        "entry": 5861930,
        "entry_name": "Zubi Doobie Doo",
        "event_total": 62,
        "has_played": true,
        "id": 46033144,
        "last_rank": 37822,
        "player_name": "Kai Mukherjee",
        "rank": 31853,
        "rank_sort": 32036,
        "total": 2366
      },
      {
        "club_badge_src": null,
        "entry": 5950953,
        "entry_name": "DontNeedChips",
        "event_total": 60,
        "has_played": true,
        "id": 46807600,
        "last_rank": 35034,
        "player_name": "J\u00f8rgen Jakobsen",
        "rank": 31853,
        "rank_sort": 32037,
        "total": 2366
      },
      {
        "club_badge_src": null,
        "entry": 6049998,
        "entry_name": "Bahnhofstrasse",
        "event_total": 73,
        "has_played": true,
        "id": 47739564,
        "last_rank": 52853,
        "player_name": "Owais Edroos",
        "rank": 31853,
        "rank_sort": 32038,
        "total": 2366
      },
      {
        "club_badge_src": null,
        "entry": 6285794,
        "entry_name": "Netflix n' Chilwell",
        "event_total": 58,
        "has_played": true,
        "id": 49791595,
        "last_rank": 32751,
        "player_name": "Josh Groves",
        "rank": 31853,
        "rank_sort": 32039,
        "total": 2366
      },
      {
        "club_badge_src": null,
        "entry": 6345536,
        "entry_name": "Yeboah's Witnesses",
        "event_total": 86,
        "has_played": true,
        "id": 50438978,
        "last_rank": 76908,
        "player_name": "Baafour Yeboah",
        "rank": 31853,
        "rank_sort": 32040,
        "total": 2366
      },
      {
        "club_badge_src": null,
        "entry": 6507734,
        "entry_name": "Lady Yaya",
        "event_total": 56,
        "has_played": true,
        "id": 51890424,
        "last_rank": 30727,
        "player_name": "Helen Ellis",
        "rank": 31853,
        "rank_sort": 32041,
        "total": 2366
      },
      {
        "club_badge_src": null,
        "entry": 6509973,
        "entry_name": "BlueMoon",
        "event_total": 59,
        "has_played": true,
        "id": 51910256,
        "last_rank": 34051,
        "player_name": "Paul Faulkner",
        "rank": 31853,
        "rank_sort": 32042,
        "total": 2366
      },
      {
        "club_badge_src": null,
        "entry": 6678630,
        "entry_name": "SAU SOCCEROOKIES",
        "event_total": 68,
        "has_played": true,
        "id": 53420990,
        "last_rank": 45416,
        "player_name": "Md. Ibrahim Siddique Shakik",
        "rank": 31853,
        "rank_sort": 32043,
        "total": 2366
      },
      {
        "club_badge_src": "https://fantasy.premierleague.com/gcs/plfpl-production-adobe-approved/plfpl-production/6774560/9bfdd973-6c75-4507-a2bb-ae99debd21f1.png",
        "entry": 6774560,
        "entry_name": "CtrlAltDeLigt",
        "event_total": 51,
        "has_played": true,
        "id": 54244735,
        "last_rank": 25776,
        "player_name": "Morgan Jack",
        "rank": 31853,
        "rank_sort": 32044,
        "total": 2366
      },
      {
        "club_badge_src": null,
        "entry": 6854342,
        "entry_name": "Lil Uzi Wirtz",
        "event_total": 51,
        "has_played": true,
        "id": 54916223,
        "last_rank": 25902,
        "player_name": "Ali Mohammed",
        "rank": 31853,
        "rank_sort": 32045,
        "total": 2366
      },
      {
        "club_badge_src": null,
        "entry": 6906475,
        "entry_name": "Infernoqt",
        "event_total": 61,
        "has_played": true,
        "id": 55358396,
        "last_rank": 36142,
        "player_name": "Pepa Jarkovsk\u00fd",
        "rank": 31853,
        "rank_sort": 32046,
        "total": 2366
      },
      {
        "club_badge_src": null,
        "entry": 6975898,
        "entry_name": "Nevo till I die",
        "event_total": 61,
        "has_played": true,
        "id": 55970235,
        "last_rank": 36200,
        "player_name": "Nevo And Guy W",
        "rank": 31853,
        "rank_sort": 32047,
        "total": 2366
      },
      {
        "club_badge_src": null,
        "entry": 7107426,
        "entry_name": "On Me Edson",
        "event_total": 39,
        "has_played": true,
        "id": 57247376,
        "last_rank": 16959,
        "player_name": "James McGrogan",
        "rank": 31853,
        "rank_sort": 32048,
        "total": 2366
      },
      {
        "club_badge_src": null,
        "entry": 7121638,
        "entry_name": "Aussie Rules",
        "event_total": 72,
        "has_played": true,
        "id": 57381530,
        "last_rank": 51137,
        "player_name": "Tomas Grove",
        "rank": 31853,
        "rank_sort": 32049,
        "total": 2366
      },
      {
        "club_badge_src": null,
        "entry": 7311317,
        "entry_name": "Make \u0160e\u0161ko, Not War",
        "event_total": 40,
        "has_played": true,
        "id": 59182812,
        "last_rank": 17358,
        "player_name": "Zand Craig",
        "rank": 31853,
        "rank_sort": 32050,
        "total": 2366
      }
    ]
  }
}