{
  "last_updated_data": "2026-05-24T23:28:17Z",
  "league": {
    "admin_entry": null,
    "closed": false,
    "code_privacy": "p",
    "created": "2025-07-20T23:14:33.933835Z",
    "cup_league": 2815434,
    "has_cup": true,
    "id": 314,
    "league_type": "s",
    "max_entries": null,
    "name": "Overall",
    "rank": null,
    "scoring": "c",
    "start_event": 1
  },
  "new_entries": {
    "has_next": false,
    "page": 1,
    "results": []
  },
  "standings": {
    "has_next": true,
    "page": 654,
    "results": [
      {
        "club_badge_src": null,
        "entry": 9375983,
        "entry_name": "Kinder Mbeumo",
        "event_total": 63,
        "has_played": true,
        "id": 79140207,
        "last_rank": 39510,
        "player_name": "Caleb Wilkinson",
        "rank": 32571,
        "rank_sort": 32651,
        "total": 2366
      },
      {
        "club_badge_src": "https://fantasy.premierleague.com/gcs/plfpl-production-adobe-approved/plfpl-production/9484158/1a3f0b7e-912e-4947-94f9-4c00bd2a064a.png",
        "entry": 9484158,
        "entry_name": "Better Call Ezz",
        "event_total": 67,
        "has_played": true,
        "id": 80155020,
        "last_rank": 44525,
        "player_name": "Ezz Yasser",
        "rank": 32571,
        "rank_sort": 32652,
        "total": 2366
      },
      {
        "club_badge_src": "https://fantasy.premierleague.com/gcs/plfpl-production-adobe-approved/plfpl-production/51794/4a6e1afe-3b84-4c86-b9d1-7b5d69d2829f.png",
        "entry": 51794,
        "entry_name": "Kinder Mbeumo",
        "event_total": 60,
        "has_played": true,
        "id": 333061,
        "last_rank": 31309,
        "player_name": "Omar Meerun",
        "rank": 32653,
        "rank_sort": 32653,
        "total": 2366
      },
      {
        "club_badge_src": null,
        "entry": 85744,
        "entry_name": "Rhodes Ahead Closed",
        "event_total": 62,
        "has_played": true,
        "id": 558564,
        "last_rank": 33582,
        "player_name": "Alex Price",
        "rank": 32653,
        "rank_sort": 32654,
        "total": 2366
      },
      {
        "club_badge_src": null,
        "entry": 89872,
        "entry_name": "Popcrazed Youngsters",
        "event_total": 65,
        "has_played": true,
        "id": 586650,
        "last_rank": 42152,
        "player_name": "Suleiman Banian",
        "rank": 32653,
        "rank_sort": 32655,
        "total": 2366
      },
      {
        "club_badge_src": null,
        "entry": 170923,
        "entry_name": "Swampdonkey",
        "event_total": 66,
        "has_played": true,
        "id": 1129209,
        "last_rank": 43512,
        "player_name": "andy jones",
        "rank": 32653,
        "rank_sort": 32656,
        "total": 2366
      },
      {
        "club_badge_src": null,
        "entry": 197307,
        "entry_name": "Hardly Athletic FC",
        "event_total": 59,
        "has_played": true,
        "id": 1309109,
        "last_rank": 34749,
        "player_name": "Dave Tainton",
        "rank": 32653,
        "rank_sort": 32657,
        "total": 2366
      },
      {
        "club_badge_src": null,
        "entry": 199502,
        "entry_name": "FPL_Shin",
        "event_total": 61,
        "has_played": true,
        "id": 1324073,
        "last_rank": 32335,
        "player_name": "Robert Shin",
        "rank": 32653,
        "rank_sort": 32658,
        "total": 2366
      },
      {
        "club_badge_src": null,
        "entry": 255157,
        "entry_name": "Could be Wirtz",
        "event_total": 67,
        "has_played": true,
        "id": 1697253,
        "last_rank": 39510,
        "player_name": "Glenn Jacob",
        "rank": 32653,
        "rank_sort": 32659,
        "total": 2366
      },
      {
        "club_badge_src": "https://fantasy.premierleague.com/gcs/plfpl-production-adobe-approved/plfpl-production/311876/94cf0825-1ffe-46e3-9b6f-968b2bbab606.png",
        "entry": 311876,
        "entry_name": "Hettie's Hero's",
        "event_total": 65,
        "has_played": true,
        "id": 2089450,
        "last_rank": 37058,
        "player_name": "Joanne Grant",
        "rank": 32653,
        "rank_sort": 32660,
        "total": 2366
      },
      {
        "club_badge_src": null,
        "entry": 342639,
        "entry_name": "Hilly 11",
        "event_total": 46,
        "has_played": true,
        "id": 2293291,
        "last_rank": 22216,
        "player_name": "Rian Hill",
        "rank": 32653,
        "rank_sort": 32661,
        "total": 2366
      },
      {
        "club_badge_src": null,
        "entry": 484843,
        "entry_name": "zirkzee me rolling",
        "event_total": 67,
        "has_played": true,
        "id": 3254380,
        "last_rank": 44882,
        "player_name": "Leo Biviano",
        "rank": 32653,
        "rank_sort": 32662,
        "total": 2366
      },
      {
        "club_badge_src": null,
        "entry": 497617,
        "entry_name": "Jackhtar Donetsk",
        "event_total": 61,
        "has_played": true,
        "id": 3340000,
        "last_rank": 37134,
        "player_name": "Jack Blyth",
        "rank": 32653,
        "rank_sort": 32663,
        "total": 2366
      },
      {
        "club_badge_src": "https://fantasy.premierleague.com/gcs/plfpl-production-adobe-approved/plfpl-production/514183/97beb639-2c50-42ca-af19-f4a1b295f076.png",
        "entry": 514183,
        "entry_name": "Frugal Politik FC",
        "event_total": 51,
        "has_played": true,
        "id": 3452458,
        "last_rank": 26475,
        "player_name": "Arlian Buana",
        "rank": 32653,
        "rank_sort": 32664,
        "total": 2366
      },
      {
        "club_badge_src": null,
        "entry": 618347,
        "entry_name": "Kick in Tanakas",
        "event_total": 72,
        "has_played": true,
        "id": 4177929,
        "last_rank": 52357,
        "player_name": "Ben Smith",
        "rank": 32653,
        "rank_sort": 32665,
        "total": 2366
      },
      {
        "club_badge_src": null,
        "entry": 697326,
        "entry_name": "FC Rookie Minstake",
        "event_total": 60,
        "has_played": true,
        "id": 4723468,
        "last_rank": 35926,
        "player_name": "Oliver Matthew Anthony Holten",
        "rank": 32653,
        "rank_sort": 32666,
        "total": 2366
      },
      {
        "club_badge_src": "https://fantasy.premierleague.com/gcs/plfpl-production-adobe-approved/plfpl-production/768290/a5aa1c74-6ef5-49ba-90f8-a2e5bad2c505.png",
        "entry": 768290,
        "entry_name": "Steve's D's",
        "event_total": 51,
        "has_played": true,
        "id": 5240220,
        "last_rank": 26475,
        "player_name": "Steven Davies-Cortes",
        "rank": 32653,
        "rank_sort": 32667,
        "total": 2366
      },
      {
        "club_badge_src": null,
        "entry": 840239,
        "entry_name": "\u5c0f\u738bFC",
        "event_total": 31,
        "has_played": true,
        "id": 5756902,
        "last_rank": 12547,
        "player_name": "kaokaokao pu",
        "rank": 32653,
        "rank_sort": 32668,
        "total": 2366
      },
      {
        "club_badge_src": null,
        "entry": 897450,
        "entry_name": "Beastie Boys",
        "event_total": 40,
        "has_played": true,
        "id": 6165995,
        "last_rank": 17878,
        "player_name": "Asda JP",
        "rank": 32653,
        "rank_sort": 32669,
        "total": 2366
      },
      {
        "club_badge_src": null,
        "entry": 1026090,
        "entry_name": "DeOnes",
        "event_total": 85,
        "has_played": true,
        "id": 7099075,
        "last_rank": 76474,
        "player_name": "Mortimer Barry",
        "rank": 32653,
        "rank_sort": 32670,
        "total": 2366
      },
      {
        "club_badge_src": null,
        "entry": 1049489,
        "entry_name": "Marlene\u2019s MelonHead",
        "event_total": 52,
        "has_played": true,
        "id": 7263008,
        "last_rank": 27364,
        "player_name": "Matthew Smitten",
        "rank": 32653,
        "rank_sort": 32671,
        "total": 2366
      },
      {
        "club_badge_src": null,
        "entry": 1112911,
        "entry_name": "Backstreet Moyes",
        "event_total": 55,
        "has_played": true,
        "id": 7708962,
        "last_rank": 30276,
        "player_name": "Jordan Smith",
        "rank": 32653,
        "rank_sort": 32672,
        "total": 2366
      },
      {
        "club_badge_src": "https://fantasy.premierleague.com/gcs/plfpl-production-adobe-approved/plfpl-production/1129350/6114da3e-3174-4e61-ad2a-f270bf55327e.png",
        "entry": 1129350,
        "entry_name": "Thud\u00e9n FC",
        "event_total": 60,
        "has_played": true,
        "id": 7827212,
        "last_rank": 35867,
        "player_name": "Viktor Thud\u00e9n",
        "rank": 32653,
        "rank_sort": 32673,
        "total": 2366
      },
      {
        "club_badge_src": null,
        "entry": 1173279,
        "entry_name": "Griffs Guides",
        "event_total": 71,
        "has_played": true,
        "id": 8139603,
        "last_rank": 50772,
        "player_name": "William Griffiths",
        "rank": 32653,
        "rank_sort": 32674,
        "total": 2366
      },
      {
        "club_badge_src": "https://fantasy.premierleague.com/gcs/plfpl-production-adobe-approved/plfpl-production/1229933/21a2c438-5435-44f3-a048-b9c9f7553ced.png",
        "entry": 1229933,
        "entry_name": "Fazanerija UTD",
        "event_total": 60,
        "has_played": true,
        "id": 8540193,
        "last_rank": 31309,
        "player_name": "Florijan Na\u0111",
        "rank": 32653,
        "rank_sort": 32675,
        "total": 2366
      },
      {
        "club_badge_src": null,
        "entry": 1269448,
        "entry_name": "John's Champions",
        "event_total": 56,
        "has_played": true,
        "id": 8820187,
        "last_rank": 31236,
        "player_name": "John Herbert",
        "rank": 32653,
        "rank_sort": 32676,
        "total": 2366
      },
      {
        "club_badge_src": null,
        "entry": 1372637,
        "entry_name": "SoccerloverSmayan",
        "event_total": 48,
        "has_played": true,
        "id": 9541707,
        "last_rank": 20678,
        "player_name": "Smayan Tandon",
        "rank": 32653,
        "rank_sort": 32677,
        "total": 2366
      },
      {
        "club_badge_src": null,
        "entry": 1715034,
        "entry_name": "Mezo United",
        "event_total": 66,
        "has_played": true,
        "id": 12017983,
        "last_rank": 43342,
        "player_name": "Hamza Bekheet",
        "rank": 32653,
        "rank_sort": 32678,
        "total": 2366
      },
      {
        "club_badge_src": "https://fantasy.premierleague.com/gcs/plfpl-production-adobe-approved/plfpl-production/1828644/4a82b6c3-0634-4800-acef-e5da801aef1f.png",
        "entry": 1828644,
        "entry_name": "Whats Rob Holding",
        "event_total": 51,
        "has_played": true,
        "id": 12862552,
        "last_rank": 26345,
        "player_name": "Hassan Ahmed",
        "rank": 32653,
        "rank_sort": 32679,
        "total": 2366
      },
      {
        "club_badge_src": null,
        "entry": 2155477,
        "entry_name": "Team Rocket",
        "event_total": 65,
        "has_played": true,
        "id": 15322105,
        "last_rank": 37058,
        "player_name": "Rotund' jere",
        "rank": 32653,
        "rank_sort": 32680,
        "total": 2366
      },
      {
        "club_badge_src": null,
        "entry": 2538524,
        "entry_name": "Alec FC",
        "event_total": 59,
        "has_played": true,
        "id": 18192745,
        "last_rank": 34749,
        "player_name": "Alec Bayne",
        "rank": 32653,
        "rank_sort": 32681,
        "total": 2366
      },
      {
        "club_badge_src": null,
        "entry": 2606230,
        "entry_name": "Vital 3 Points Fc",
        "event_total": 49,
        "has_played": true,
        "id": 18721340,
        "last_rank": 24680,
        "player_name": "Vincent Vert",
        "rank": 32653,
        "rank_sort": 32682,
        "total": 2366
      },
      {
        "club_badge_src": null,
        "entry": 2810886,
        "entry_name": "Under My Cucurella",
        "event_total": 66,
        "has_played": true,
        "id": 20530044,
        "last_rank": 38267,
        "player_name": "Naeem Taidi",
        "rank": 32653,
        "rank_sort": 32683,
        "total": 2366
      },
      {
        "club_badge_src": null,
        "entry": 2966637,
        "entry_name": "OshoME the Money",
        "event_total": 66,
        "has_played": true,
        "id": 21795091,
        "last_rank": 43512,
        "player_name": "Oshone Osi-Iyere",
        "rank": 32653,
        "rank_sort": 32684,
        "total": 2366
      },
      {
        "club_badge_src": null,
        "entry": 3343984,
        "entry_name": "Aston Valla",
        "event_total": 49,
        "has_played": true,
        "id": 24804571,
        "last_rank": 24680,
        "player_name": "Jamaa Abdalla",
        "rank": 32653,
        "rank_sort": 32685,
        "total": 2366
      },
      {
        "club_badge_src": null,
        "entry": 3453060,
        "entry_name": "Gy\u00f6gurt Smoothie",
        "event_total": 64,
        "has_played": true,
        "id": 25662064,
        "last_rank": 35768,
        "player_name": "Ethan Kim",
        "rank": 32653,
        "rank_sort": 32686,
        "total": 2366
      },
      {
        "club_badge_src": null,
        "entry": 3642529,
        "entry_name": "Martini time",
        "event_total": 52,
        "has_played": true,
        "id": 27147177,
        "last_rank": 27402,
        "player_name": "Simon Hillary",
        "rank": 32653,
        "rank_sort": 32687,
        "total": 2366
      },
      {
        "club_badge_src": null,
        "entry": 3646483,
        "entry_name": "Samba FC",
        "event_total": 60,
        "has_played": true,
        "id": 27178510,
        "last_rank": 35867,
        "player_name": "Dan Pearce",
        "rank": 32653,
        "rank_sort": 32688,
        "total": 2366
      },
      {
        "club_badge_src": null,
        "entry": 4779265,
        "entry_name": "Yung Dot Morgan 2",
        "event_total": 44,
        "has_played": true,
        "id": 36790502,
        "last_rank": 20727,
        "player_name": "Ben Morgan",
        "rank": 32653,
        "rank_sort": 32689,
        "total": 2366
      },
      {
        "club_badge_src": null,
        "entry": 4808911,
        "entry_name": "Tok Dalang Reborn",
        "event_total": 73,
        "has_played": true,
        "id": 37027775,
        "last_rank": 47722,
        "player_name": "Muammar Zia Nasution",
        "rank": 32653,
        "rank_sort": 32690,
        "total": 2366
      },
      {
        "club_badge_src": "https://fantasy.premierleague.com/gcs/plfpl-production-adobe-approved/plfpl-production/5034200/1e59e470-5c47-4417-afc2-07b576ab5d43.png",
        "entry": 5034200,
        "entry_name": "Bath City",
        "event_total": 60,
        "has_played": true,
        "id": 38883447,
        "last_rank": 27304,
        "player_name": "Blake Finney",
        "rank": 32653,
        "rank_sort": 32691,
        "total": 2366
      },
      {
        "club_badge_src": null,
        "entry": 5100991,
        "entry_name": "THAMER",
        "event_total": 78,
        "has_played": true,
        "id": 39427799,
        "last_rank": 62617,
        "player_name": "Eng-\u062b\u0627\u0645\u0631 \u0627\u0644\u0631\u0634\u064a\u062f\u064a",
        "rank": 32653,
        "rank_sort": 32692,
        "total": 2366
      },
      {
        "club_badge_src": null,
        "entry": 5116041,
        "entry_name": "Sultans of Unai",
        "event_total": 58,
        "has_played": true,
        "id": 39553638,
        "last_rank": 33651,
        "player_name": "Roger Ellison",
        "rank": 32653,
        "rank_sort": 32693,
        "total": 2366
      },
      {
        "club_badge_src": null,
        "entry": 5436150,
        "entry_name": "\u0627\u0644\u062d\u0627\u062c \u0633\u0644\u064a\u0645",
        "event_total": 66,
        "has_played": true,
        "id": 42289364,
        "last_rank": 38267,
        "player_name": "slim soliman",
        "rank": 32653,
        "rank_sort": 32694,
        "total": 2366
      },
      {
        "club_badge_src": null,
        "entry": 5723399,
        "entry_name": "marco reus",
        "event_total": 71,
        "has_played": true,
        "id": 44832216,
        "last_rank": 50905,
        "player_name": "Tanaka Marunga",
        "rank": 32653,
        "rank_sort": 32695,
        "total": 2366
      },
      {
        "club_badge_src": null,
        "entry": 5893897,
        "entry_name": "Picaroons",
        "event_total": 75,
        "has_played": true,
        "id": 46300331,
        "last_rank": 57358,
        "player_name": "Henry Terlecki",
        "rank": 32653,
        "rank_sort": 32696,
        "total": 2366
      },
      {
        "club_badge_src": null,
        "entry": 6204300,
        "entry_name": "ahmed",
        "event_total": 60,
        "has_played": true,
        "id": 49082564,
        "last_rank": 35926,
        "player_name": "\u0627\u062d\u0645\u062f \u062d\u0645\u0632\u0647",
        "rank": 32653,
        "rank_sort": 32697,
        "total": 2366
      },
      {
        "club_badge_src": null,
        "entry": 6634032,
        "entry_name": "Dhillz 11",
        "event_total": 59,
        "has_played": true,
        "id": 53022919,
        "last_rank": 34749,
        "player_name": "Aaran Dhillz",
        "rank": 32653,
        "rank_sort": 32698,
        "total": 2366
      },
      {
        "club_badge_src": null,
        "entry": 7448090,
        "entry_name": "YYDS",
        "event_total": 57,
        "has_played": true,
        "id": 60608694,
        "last_rank": 28348,
        "player_name": "Karl Yin",
        "rank": 32653,
        "rank_sort": 32699,
        "total": 2366
      },
      {
        "club_badge_src": null,
        "entry": 7845939,
        "entry_name": "Carlile County",
        "event_total": 72,
        "has_played": true,
        "id": 64494187,
        "last_rank": 40647,
        "player_name": "Michael Carlile",
        "rank": 32653,
        "rank_sort": 32700,
        "total": 2366
      }
    ]
  }
}