{
  "last_updated_data": "2026-05-24T23:28:17Z",
  "league": {
    "admin_entry": null,
    "closed": false,
    "code_privacy": "p",
    "created": "2025-07-20T23:14:33.933835Z",
    "cup_league": 2815434,
    "has_cup": true,
    "id": 314,
    "league_type": "s",
    "max_entries": null,
    "name": "Overall",
    "rank": null,
    "scoring": "c",
    "start_event": 1
  },
  "new_entries": {
    "has_next": false,
    "page": 1,
    "results": []
  },
  "standings": {
    "has_next": true,
    "page": 1453,
    "results": [
      {
        "club_badge_src": null,
        "entry": 140272,
        "entry_name": "TR25",
        "event_total": 60,
        "has_played": true,
        "id": 915964,
        "last_rank": 71713,
        "player_name": "Thines Rau",
        "rank": 72579,
        "rank_sort": 72601,
        "total": 2339
      },
      {
        "club_badge_src": null,
        "entry": 152422,
        "entry_name": "MadriStella",
        "event_total": 55,
        "has_played": true,
        "id": 1000385,
        "last_rank": 62223,
        "player_name": "Phil Norris",
        "rank": 72579,
        "rank_sort": 72602,
        "total": 2339
      },
      {
        "club_badge_src": null,
        "entry": 167420,
        "entry_name": "FC Bich\u00e8sit\u00e9",
        "event_total": 56,
        "has_played": true,
        "id": 1106668,
        "last_rank": 71956,
        "player_name": "Dimitar Mihov",
        "rank": 72579,
        "rank_sort": 72603,
        "total": 2339
      },
      {
        "club_badge_src": "https://fantasy.premierleague.com/gcs/plfpl-production-adobe-approved/plfpl-production/194349/9f678775-8fe3-4b65-8888-9eb92a40b659.png",
        "entry": 194349,
        "entry_name": "ALRAYAN",
        "event_total": 44,
        "has_played": true,
        "id": 1288463,
        "last_rank": 50635,
        "player_name": "ALRAYAN ALMUTIRI",
        "rank": 72579,
        "rank_sort": 72604,
        "total": 2339
      },
      {
        "club_badge_src": "https://fantasy.premierleague.com/gcs/plfpl-production-adobe-approved/plfpl-production/203044/1e49b781-7f9f-40c2-8e70-93bba6ffcda1.png",
        "entry": 203044,
        "entry_name": "TheJelseaBrojek",
        "event_total": 33,
        "has_played": true,
        "id": 1348717,
        "last_rank": 31125,
        "player_name": "James Beattie",
        "rank": 72579,
        "rank_sort": 72605,
        "total": 2339
      },
      {
        "club_badge_src": null,
        "entry": 203046,
        "entry_name": "Howsey FC",
        "event_total": 54,
        "has_played": true,
        "id": 1348730,
        "last_rank": 60168,
        "player_name": "Luke Howell",
        "rank": 72579,
        "rank_sort": 72606,
        "total": 2339
      },
      {
        "club_badge_src": null,
        "entry": 217806,
        "entry_name": "Marco Silverware",
        "event_total": 71,
        "has_played": true,
        "id": 1448444,
        "last_rank": 107162,
        "player_name": "Ben Arengo",
        "rank": 72579,
        "rank_sort": 72607,
        "total": 2339
      },
      {
        "club_badge_src": null,
        "entry": 219792,
        "entry_name": "Stone Cole J Palmer",
        "event_total": 57,
        "has_played": true,
        "id": 1461701,
        "last_rank": 74166,
        "player_name": "Timothy James Aldridge",
        "rank": 72579,
        "rank_sort": 72608,
        "total": 2339
      },
      {
        "club_badge_src": null,
        "entry": 220757,
        "entry_name": "Kaamaaqdil",
        "event_total": 65,
        "has_played": true,
        "id": 1468257,
        "last_rank": 92126,
        "player_name": "Rashid Hamid",
        "rank": 72579,
        "rank_sort": 72609,
        "total": 2339
      },
      {
        "club_badge_src": null,
        "entry": 223381,
        "entry_name": "\u017dOC \u26ab\u26aa",
        "event_total": 60,
        "has_played": true,
        "id": 1485951,
        "last_rank": 80465,
        "player_name": "Vladimir Gvozden",
        "rank": 72579,
        "rank_sort": 72610,
        "total": 2339
      },
      {
        "club_badge_src": null,
        "entry": 228110,
        "entry_name": "\u4f60\u5728\u9632\u6211\uff1f",
        "event_total": 66,
        "has_played": true,
        "id": 1517352,
        "last_rank": 94255,
        "player_name": "Xinghao Gu",
        "rank": 72579,
        "rank_sort": 72611,
        "total": 2339
      },
      {
        "club_badge_src": "https://fantasy.premierleague.com/gcs/plfpl-production-adobe-approved/plfpl-production/244641/a337da2c-a389-421e-ba5d-6e2846961c9d.png",
        "entry": 244641,
        "entry_name": "FPL Zyronic",
        "event_total": 69,
        "has_played": true,
        "id": 1628805,
        "last_rank": 102125,
        "player_name": "Zyronic ZTFPL",
        "rank": 72579,
        "rank_sort": 72612,
        "total": 2339
      },
      {
        "club_badge_src": null,
        "entry": 246604,
        "entry_name": "AllaHeterGlenniGbg",
        "event_total": 36,
        "has_played": true,
        "id": 1641719,
        "last_rank": 39403,
        "player_name": "Martin Gezelius",
        "rank": 72579,
        "rank_sort": 72613,
        "total": 2339
      },
      {
        "club_badge_src": "https://fantasy.premierleague.com/gcs/plfpl-production-adobe-approved/plfpl-production/265963/1a457733-93a0-448d-a2d3-e1a9e889e0c7.png",
        "entry": 265963,
        "entry_name": "Suman's 11",
        "event_total": 58,
        "has_played": true,
        "id": 1769142,
        "last_rank": 67422,
        "player_name": "Suman Pandey",
        "rank": 72579,
        "rank_sort": 72614,
        "total": 2339
      },
      {
        "club_badge_src": null,
        "entry": 266339,
        "entry_name": "Dip Your Tosin",
        "event_total": 64,
        "has_played": true,
        "id": 1771648,
        "last_rank": 80194,
        "player_name": "Michael Glerup",
        "rank": 72579,
        "rank_sort": 72615,
        "total": 2339
      },
      {
        "club_badge_src": null,
        "entry": 272080,
        "entry_name": "STR's XI",
        "event_total": 59,
        "has_played": true,
        "id": 1810196,
        "last_rank": 69641,
        "player_name": "Jack Streeting",
        "rank": 72579,
        "rank_sort": 72616,
        "total": 2339
      },
      {
        "club_badge_src": null,
        "entry": 274769,
        "entry_name": "JAB",
        "event_total": 43,
        "has_played": true,
        "id": 1828384,
        "last_rank": 49078,
        "player_name": "Jamie Barham",
        "rank": 72579,
        "rank_sort": 72617,
        "total": 2339
      },
      {
        "club_badge_src": null,
        "entry": 294197,
        "entry_name": "left back in the 80s",
        "event_total": 64,
        "has_played": true,
        "id": 1964231,
        "last_rank": 80194,
        "player_name": "Richard Hope",
        "rank": 72579,
        "rank_sort": 72618,
        "total": 2339
      },
      {
        "club_badge_src": "https://fantasy.premierleague.com/gcs/plfpl-production-adobe-approved/plfpl-production/327320/1d53ce97-ac15-48fa-857b-1c5b7f9c319c.png",
        "entry": 327320,
        "entry_name": "Moonlight Dribblers",
        "event_total": 50,
        "has_played": true,
        "id": 2193052,
        "last_rank": 60671,
        "player_name": "Chris Reynolds",
        "rank": 72579,
        "rank_sort": 72619,
        "total": 2339
      },
      {
        "club_badge_src": null,
        "entry": 333459,
        "entry_name": "Unlucky",
        "event_total": 65,
        "has_played": true,
        "id": 2233228,
        "last_rank": 82398,
        "player_name": "Stefan Kanev",
        "rank": 72579,
        "rank_sort": 72620,
        "total": 2339
      },
      {
        "club_badge_src": null,
        "entry": 343847,
        "entry_name": "LingLing",
        "event_total": 61,
        "has_played": true,
        "id": 2301202,
        "last_rank": 82664,
        "player_name": "Chris Long",
        "rank": 72579,
        "rank_sort": 72621,
        "total": 2339
      },
      {
        "club_badge_src": "https://fantasy.premierleague.com/gcs/plfpl-production-adobe-approved/plfpl-production/353754/106db638-6043-4720-82c8-6682c675b7d5.png",
        "entry": 353754,
        "entry_name": "Rockhoppers",
        "event_total": 69,
        "has_played": true,
        "id": 2367585,
        "last_rank": 91835,
        "player_name": "Jack Peck",
        "rank": 72579,
        "rank_sort": 72622,
        "total": 2339
      },
      {
        "club_badge_src": null,
        "entry": 360171,
        "entry_name": "boooooooooom",
        "event_total": 59,
        "has_played": true,
        "id": 2410087,
        "last_rank": 77999,
        "player_name": "Boom Vorapoom",
        "rank": 72579,
        "rank_sort": 72623,
        "total": 2339
      },
      {
        "club_badge_src": null,
        "entry": 379827,
        "entry_name": "simon girault",
        "event_total": 73,
        "has_played": true,
        "id": 2545216,
        "last_rank": 112960,
        "player_name": "Simon Girault",
        "rank": 72579,
        "rank_sort": 72624,
        "total": 2339
      },
      {
        "club_badge_src": null,
        "entry": 398484,
        "entry_name": "Finding Timo",
        "event_total": 61,
        "has_played": true,
        "id": 2672232,
        "last_rank": 73720,
        "player_name": "Nick Sirski",
        "rank": 72579,
        "rank_sort": 72625,
        "total": 2339
      },
      {
        "club_badge_src": null,
        "entry": 402547,
        "entry_name": "Shippers Eleven",
        "event_total": 59,
        "has_played": true,
        "id": 2699127,
        "last_rank": 77999,
        "player_name": "David Shipman",
        "rank": 72579,
        "rank_sort": 72626,
        "total": 2339
      },
      {
        "club_badge_src": "https://fantasy.premierleague.com/gcs/plfpl-production-adobe-approved/plfpl-production/421674/5aca364c-b556-44b5-bec1-0a62f38adcaa.png",
        "entry": 421674,
        "entry_name": "calcio kings",
        "event_total": 52,
        "has_played": true,
        "id": 2825877,
        "last_rank": 64005,
        "player_name": "Marco Sciuto",
        "rank": 72579,
        "rank_sort": 72627,
        "total": 2339
      },
      {
        "club_badge_src": null,
        "entry": 445131,
        "entry_name": "Reverse barometers",
        "event_total": 62,
        "has_played": true,
        "id": 2985047,
        "last_rank": 67422,
        "player_name": "Nigel Marche",
        "rank": 72579,
        "rank_sort": 72628,
        "total": 2339
      },
      {
        "club_badge_src": null,
        "entry": 450108,
        "entry_name": "Scranit Xhaka",
        "event_total": 54,
        "has_played": true,
        "id": 3019854,
        "last_rank": 67926,
        "player_name": "William Mullarkey",
        "rank": 72579,
        "rank_sort": 72629,
        "total": 2339
      },
      {
        "club_badge_src": null,
        "entry": 455785,
        "entry_name": "Team Ryan",
        "event_total": 59,
        "has_played": true,
        "id": 3057727,
        "last_rank": 78244,
        "player_name": "Ryan McMurtry",
        "rank": 72579,
        "rank_sort": 72630,
        "total": 2339
      },
      {
        "club_badge_src": "https://fantasy.premierleague.com/gcs/plfpl-production-adobe-approved/plfpl-production/482357/05aab82d-ac35-45a9-bbe3-3619ff17aaba.png",
        "entry": 482357,
        "entry_name": "The Hurricanes",
        "event_total": 61,
        "has_played": true,
        "id": 3238099,
        "last_rank": 73720,
        "player_name": "Jonathan Oppe",
        "rank": 72579,
        "rank_sort": 72631,
        "total": 2339
      },
      {
        "club_badge_src": null,
        "entry": 485184,
        "entry_name": "Lerengen FC",
        "event_total": 62,
        "has_played": true,
        "id": 3256655,
        "last_rank": 84980,
        "player_name": "Felix Lerengen",
        "rank": 72579,
        "rank_sort": 72632,
        "total": 2339
      },
      {
        "club_badge_src": null,
        "entry": 506113,
        "entry_name": "Enzo It Begins",
        "event_total": 51,
        "has_played": true,
        "id": 3396934,
        "last_rank": 55311,
        "player_name": "Scott Townley",
        "rank": 72579,
        "rank_sort": 72633,
        "total": 2339
      },
      {
        "club_badge_src": null,
        "entry": 559596,
        "entry_name": "YamalAndThe7Dwarfs",
        "event_total": 58,
        "has_played": true,
        "id": 3766080,
        "last_rank": 75874,
        "player_name": "Satvik Kundra",
        "rank": 72579,
        "rank_sort": 72634,
        "total": 2339
      },
      {
        "club_badge_src": null,
        "entry": 582351,
        "entry_name": "Marzipan's Private",
        "event_total": 59,
        "has_played": true,
        "id": 3919154,
        "last_rank": 69323,
        "player_name": "Anthony Swainston",
        "rank": 72579,
        "rank_sort": 72635,
        "total": 2339
      },
      {
        "club_badge_src": "https://fantasy.premierleague.com/gcs/plfpl-production-adobe-approved/plfpl-production/591930/f9cfcfc7-4022-43d1-9fa1-b3064aa0180b.png",
        "entry": 591930,
        "entry_name": "Corn on the Kobbie",
        "event_total": 67,
        "has_played": true,
        "id": 3988256,
        "last_rank": 87074,
        "player_name": "Benjamin Esgate",
        "rank": 72579,
        "rank_sort": 72636,
        "total": 2339
      },
      {
        "club_badge_src": null,
        "entry": 600475,
        "entry_name": "ThomasTheFrankEngine",
        "event_total": 58,
        "has_played": true,
        "id": 4051424,
        "last_rank": 75874,
        "player_name": "Toby wright",
        "rank": 72579,
        "rank_sort": 72637,
        "total": 2339
      },
      {
        "club_badge_src": null,
        "entry": 602584,
        "entry_name": "super cool team",
        "event_total": 62,
        "has_played": true,
        "id": 4066710,
        "last_rank": 75874,
        "player_name": "Lewis Fox",
        "rank": 72579,
        "rank_sort": 72638,
        "total": 2339
      },
      {
        "club_badge_src": null,
        "entry": 605978,
        "entry_name": "Team LSH",
        "event_total": 51,
        "has_played": true,
        "id": 4091674,
        "last_rank": 55311,
        "player_name": "L S Hansen",
        "rank": 72579,
        "rank_sort": 72639,
        "total": 2339
      },
      {
        "club_badge_src": null,
        "entry": 610534,
        "entry_name": "high5",
        "event_total": 63,
        "has_played": true,
        "id": 4124807,
        "last_rank": 87350,
        "player_name": "Alan Molyneux",
        "rank": 72579,
        "rank_sort": 72640,
        "total": 2339
      },
      {
        "club_badge_src": null,
        "entry": 614940,
        "entry_name": "AuraFarmer",
        "event_total": 63,
        "has_played": true,
        "id": 4155113,
        "last_rank": 87350,
        "player_name": "luqman baisar",
        "rank": 72579,
        "rank_sort": 72641,
        "total": 2339
      },
      {
        "club_badge_src": null,
        "entry": 622105,
        "entry_name": "1 under Sarr",
        "event_total": 37,
        "has_played": true,
        "id": 4204091,
        "last_rank": 40647,
        "player_name": "Andy Morton",
        "rank": 72579,
        "rank_sort": 72642,
        "total": 2339
      },
      {
        "club_badge_src": null,
        "entry": 624725,
        "entry_name": "Bazalona",
        "event_total": 64,
        "has_played": true,
        "id": 4221729,
        "last_rank": 89706,
        "player_name": "Kyle Barratt",
        "rank": 72579,
        "rank_sort": 72643,
        "total": 2339
      },
      {
        "club_badge_src": null,
        "entry": 635023,
        "entry_name": "Beef Cherki",
        "event_total": 62,
        "has_played": true,
        "id": 4291644,
        "last_rank": 84980,
        "player_name": "Jamie O'Sullivan",
        "rank": 72579,
        "rank_sort": 72644,
        "total": 2339
      },
      {
        "club_badge_src": null,
        "entry": 642358,
        "entry_name": "D Shift Champion \ufffd",
        "event_total": 51,
        "has_played": true,
        "id": 4341310,
        "last_rank": 62429,
        "player_name": "Kev Gamble",
        "rank": 72579,
        "rank_sort": 72645,
        "total": 2339
      },
      {
        "club_badge_src": null,
        "entry": 646391,
        "entry_name": "Saka Potatoes",
        "event_total": 72,
        "has_played": true,
        "id": 4368262,
        "last_rank": 99296,
        "player_name": "Seb Biggam",
        "rank": 72579,
        "rank_sort": 72646,
        "total": 2339
      },
      {
        "club_badge_src": null,
        "entry": 646806,
        "entry_name": "BishhCF",
        "event_total": 70,
        "has_played": true,
        "id": 4371111,
        "last_rank": 104941,
        "player_name": "Xav Bishop",
        "rank": 72579,
        "rank_sort": 72647,
        "total": 2339
      },
      {
        "club_badge_src": null,
        "entry": 652592,
        "entry_name": "Bobby Davro FC",
        "event_total": 59,
        "has_played": true,
        "id": 4410256,
        "last_rank": 69641,
        "player_name": "Stuart Ritchie",
        "rank": 72579,
        "rank_sort": 72648,
        "total": 2339
      },
      {
        "club_badge_src": null,
        "entry": 676487,
        "entry_name": "Calafiori Dreamin",
        "event_total": 79,
        "has_played": true,
        "id": 4576912,
        "last_rank": 117915,
        "player_name": "Luke Gorman",
        "rank": 72579,
        "rank_sort": 72649,
        "total": 2339
      },
      {
        "club_badge_src": null,
        "entry": 802556,
        "entry_name": "ud0giestyle",
        "event_total": 56,
        "has_played": true,
        "id": 5493723,
        "last_rank": 64005,
        "player_name": "Anders Kihle",
        "rank": 72579,
        "rank_sort": 72650,
        "total": 2339
      }
    ]
  }
}