{
  "last_updated_data": "2026-05-24T23:28:17Z",
  "league": {
    "admin_entry": null,
    "closed": false,
    "code_privacy": "p",
    "created": "2025-07-20T23:14:33.933835Z",
    "cup_league": 2815434,
    "has_cup": true,
    "id": 314,
    "league_type": "s",
    "max_entries": null,
    "name": "Overall",
    "rank": null,
    "scoring": "c",
    "start_event": 1
  },
  "new_entries": {
    "has_next": false,
    "page": 1,
    "results": []
  },
  "standings": {
    "has_next": true,
    "page": 700,
    "results": [
      {
        "club_badge_src": null,
        "entry": 7183760,
        "entry_name": "Mould Trafford",
        "event_total": 52,
        "has_played": true,
        "id": 57981216,
        "last_rank": 29419,
        "player_name": "Lindsay McCrudden",
        "rank": 34942,
        "rank_sort": 34951,
        "total": 2364
      },
      {
        "club_badge_src": null,
        "entry": 9227984,
        "entry_name": "\u2620\ufe0f\ufffd+1",
        "event_total": 84,
        "has_played": true,
        "id": 77708312,
        "last_rank": 70276,
        "player_name": "\u6bd2 \u5976",
        "rank": 34942,
        "rank_sort": 34952,
        "total": 2364
      },
      {
        "club_badge_src": "https://fantasy.premierleague.com/gcs/plfpl-production-adobe-approved/plfpl-production/10656/f61a5485-e5b1-490f-a3f1-cb962aa4f1bc.png",
        "entry": 10656,
        "entry_name": "Fpl Welly",
        "event_total": 60,
        "has_played": true,
        "id": 63093,
        "last_rank": 33751,
        "player_name": "Waleed Zahran",
        "rank": 34953,
        "rank_sort": 34953,
        "total": 2364
      },
      {
        "club_badge_src": null,
        "entry": 355994,
        "entry_name": "Cunha Sesko Mbeumo",
        "event_total": 67,
        "has_played": true,
        "id": 2382351,
        "last_rank": 47995,
        "player_name": "Shean Yu",
        "rank": 34953,
        "rank_sort": 34954,
        "total": 2364
      },
      {
        "club_badge_src": null,
        "entry": 493588,
        "entry_name": "OnlyFrans",
        "event_total": 65,
        "has_played": true,
        "id": 3313250,
        "last_rank": 45050,
        "player_name": "Frans \u00c5berg",
        "rank": 34953,
        "rank_sort": 34955,
        "total": 2364
      },
      {
        "club_badge_src": null,
        "entry": 555293,
        "entry_name": "DABAZZABOYS",
        "event_total": 33,
        "has_played": true,
        "id": 3737343,
        "last_rank": 14790,
        "player_name": "Chris Barry",
        "rank": 34953,
        "rank_sort": 34956,
        "total": 2364
      },
      {
        "club_badge_src": "https://fantasy.premierleague.com/gcs/plfpl-production-adobe-approved/plfpl-production/576832/28edc202-1941-4730-9f52-9abe945f14d1.png",
        "entry": 576832,
        "entry_name": "Dotty United",
        "event_total": 63,
        "has_played": true,
        "id": 3881508,
        "last_rank": 42327,
        "player_name": "Tom McManus",
        "rank": 34953,
        "rank_sort": 34957,
        "total": 2364
      },
      {
        "club_badge_src": null,
        "entry": 753009,
        "entry_name": "Nutberry Nutters",
        "event_total": 57,
        "has_played": true,
        "id": 5124173,
        "last_rank": 34874,
        "player_name": "Ernest Brocklehurst",
        "rank": 34953,
        "rank_sort": 34958,
        "total": 2364
      },
      {
        "club_badge_src": null,
        "entry": 1586534,
        "entry_name": "Crash Tess Dummies",
        "event_total": 72,
        "has_played": true,
        "id": 11091385,
        "last_rank": 49463,
        "player_name": "Nick Tesseyman",
        "rank": 34953,
        "rank_sort": 34959,
        "total": 2364
      },
      {
        "club_badge_src": null,
        "entry": 1702671,
        "entry_name": "Taware2",
        "event_total": 57,
        "has_played": true,
        "id": 11927342,
        "last_rank": 34874,
        "player_name": "Mohamed Tare2",
        "rank": 34953,
        "rank_sort": 34960,
        "total": 2364
      },
      {
        "club_badge_src": "https://fantasy.premierleague.com/gcs/plfpl-production-adobe-approved/plfpl-production/2237670/d0043c42-d0ec-4765-a875-87bf05afb5b9.png",
        "entry": 2237670,
        "entry_name": "Least Wirtz XI",
        "event_total": 65,
        "has_played": true,
        "id": 15941256,
        "last_rank": 39716,
        "player_name": "Gabriel Heley",
        "rank": 34953,
        "rank_sort": 34961,
        "total": 2364
      },
      {
        "club_badge_src": null,
        "entry": 2243340,
        "entry_name": "omar ahmed",
        "event_total": 65,
        "has_played": true,
        "id": 15982527,
        "last_rank": 45050,
        "player_name": "Omar Ahmed",
        "rank": 34953,
        "rank_sort": 34962,
        "total": 2364
      },
      {
        "club_badge_src": null,
        "entry": 3431697,
        "entry_name": "El-Zoghaby",
        "event_total": 64,
        "has_played": true,
        "id": 25492879,
        "last_rank": 38461,
        "player_name": "Sayed Elzoghby",
        "rank": 34953,
        "rank_sort": 34963,
        "total": 2364
      },
      {
        "club_badge_src": null,
        "entry": 236709,
        "entry_name": "Im Sorry Nic Jackson",
        "event_total": 62,
        "has_played": true,
        "id": 1574901,
        "last_rank": 36042,
        "player_name": "David Lewis",
        "rank": 34964,
        "rank_sort": 34964,
        "total": 2364
      },
      {
        "club_badge_src": null,
        "entry": 1673381,
        "entry_name": "Samourai/PL",
        "event_total": 67,
        "has_played": true,
        "id": 11715591,
        "last_rank": 42327,
        "player_name": "Khalil Boufes",
        "rank": 34964,
        "rank_sort": 34965,
        "total": 2364
      },
      {
        "club_badge_src": null,
        "entry": 3985724,
        "entry_name": "RED-MERSEYSIDE",
        "event_total": 62,
        "has_played": true,
        "id": 30007590,
        "last_rank": 36042,
        "player_name": "Dimitar Stoychev",
        "rank": 34964,
        "rank_sort": 34966,
        "total": 2364
      },
      {
        "club_badge_src": null,
        "entry": 58976,
        "entry_name": "\u0633\u064a\u062f \u0627\u0628\u0648 \u0639\u0628\u062f\u0627\u0644\u0644\u0647",
        "event_total": 52,
        "has_played": true,
        "id": 379849,
        "last_rank": 22337,
        "player_name": "sayd Ahlawy Abu Abdullah",
        "rank": 34967,
        "rank_sort": 34967,
        "total": 2364
      },
      {
        "club_badge_src": null,
        "entry": 193673,
        "entry_name": "OLD PECULIAR",
        "event_total": 57,
        "has_played": true,
        "id": 1283802,
        "last_rank": 30450,
        "player_name": "John Strange",
        "rank": 34967,
        "rank_sort": 34968,
        "total": 2364
      },
      {
        "club_badge_src": "https://fantasy.premierleague.com/gcs/plfpl-production-adobe-approved/plfpl-production/792281/ac01060b-ec3b-4de1-bb84-c209ad81c228.png",
        "entry": 792281,
        "entry_name": "Jack in the Box",
        "event_total": 60,
        "has_played": true,
        "id": 5421850,
        "last_rank": 33782,
        "player_name": "Reiss Malone",
        "rank": 34967,
        "rank_sort": 34969,
        "total": 2364
      },
      {
        "club_badge_src": null,
        "entry": 1780348,
        "entry_name": "Los Blancos",
        "event_total": 67,
        "has_played": true,
        "id": 12508211,
        "last_rank": 37264,
        "player_name": "karim abozeid",
        "rank": 34967,
        "rank_sort": 34970,
        "total": 2364
      },
      {
        "club_badge_src": null,
        "entry": 2118875,
        "entry_name": "neeeeeeee idea",
        "event_total": 72,
        "has_played": true,
        "id": 15050621,
        "last_rank": 55980,
        "player_name": "Jack Dillon",
        "rank": 34967,
        "rank_sort": 34971,
        "total": 2364
      },
      {
        "club_badge_src": null,
        "entry": 2804266,
        "entry_name": "Change Name",
        "event_total": 72,
        "has_played": true,
        "id": 20478543,
        "last_rank": 49488,
        "player_name": "Connor hurford",
        "rank": 34967,
        "rank_sort": 34972,
        "total": 2364
      },
      {
        "club_badge_src": null,
        "entry": 3691225,
        "entry_name": "The panic attacks",
        "event_total": 66,
        "has_played": true,
        "id": 27537223,
        "last_rank": 36042,
        "player_name": "Mohamed kudos",
        "rank": 34967,
        "rank_sort": 34973,
        "total": 2364
      },
      {
        "club_badge_src": null,
        "entry": 354974,
        "entry_name": "VaVaWhom",
        "event_total": 58,
        "has_played": true,
        "id": 2375629,
        "last_rank": 31484,
        "player_name": "Henry O",
        "rank": 34974,
        "rank_sort": 34974,
        "total": 2364
      },
      {
        "club_badge_src": null,
        "entry": 1290220,
        "entry_name": "No More Mr Rice Kai",
        "event_total": 54,
        "has_played": true,
        "id": 8965592,
        "last_rank": 31494,
        "player_name": "Bobby Joyce",
        "rank": 34974,
        "rank_sort": 34975,
        "total": 2364
      },
      {
        "club_badge_src": null,
        "entry": 1869792,
        "entry_name": "Hanchester Utd",
        "event_total": 53,
        "has_played": true,
        "id": 13162165,
        "last_rank": 30463,
        "player_name": "Hassen Lazaar",
        "rank": 34974,
        "rank_sort": 34976,
        "total": 2364
      },
      {
        "club_badge_src": null,
        "entry": 5254657,
        "entry_name": "Marco Yoro",
        "event_total": 64,
        "has_played": true,
        "id": 40725593,
        "last_rank": 38475,
        "player_name": "sam lynch",
        "rank": 34974,
        "rank_sort": 34977,
        "total": 2364
      },
      {
        "club_badge_src": "https://fantasy.premierleague.com/gcs/plfpl-production-adobe-approved/plfpl-production/5580411/ddbe6a24-2919-45ac-b40b-00d81ab66d04.png",
        "entry": 5580411,
        "entry_name": "The Unknown Legends",
        "event_total": 64,
        "has_played": true,
        "id": 43583568,
        "last_rank": 43701,
        "player_name": "OM Kolnes",
        "rank": 34974,
        "rank_sort": 34978,
        "total": 2364
      },
      {
        "club_badge_src": null,
        "entry": 486019,
        "entry_name": "Loveitifwebeatthem",
        "event_total": 61,
        "has_played": true,
        "id": 3262736,
        "last_rank": 39747,
        "player_name": "Colin Mitchell",
        "rank": 34979,
        "rank_sort": 34979,
        "total": 2364
      },
      {
        "club_badge_src": null,
        "entry": 2649323,
        "entry_name": "Back Sack & Isak",
        "event_total": 60,
        "has_played": true,
        "id": 19042783,
        "last_rank": 38491,
        "player_name": "Brad Thatcher",
        "rank": 34979,
        "rank_sort": 34980,
        "total": 2364
      },
      {
        "club_badge_src": null,
        "entry": 839208,
        "entry_name": "Zubi Zubi Do",
        "event_total": 91,
        "has_played": true,
        "id": 5749767,
        "last_rank": 61157,
        "player_name": "Adam Dahlman",
        "rank": 34981,
        "rank_sort": 34981,
        "total": 2364
      },
      {
        "club_badge_src": null,
        "entry": 180013,
        "entry_name": "Slavic Balls Clamp",
        "event_total": 57,
        "has_played": true,
        "id": 1187919,
        "last_rank": 23133,
        "player_name": "\u0414\u0435\u043d\u0438\u0441 \u041b\u0435\u0442\u043e\u0432",
        "rank": 34982,
        "rank_sort": 34982,
        "total": 2364
      },
      {
        "club_badge_src": "https://fantasy.premierleague.com/gcs/plfpl-production-adobe-approved/plfpl-production/184883/0deff5d1-19de-486c-9a60-311e8ed309ca.png",
        "entry": 184883,
        "entry_name": "Tamer Eldawly 14",
        "event_total": 48,
        "has_played": true,
        "id": 1220983,
        "last_rank": 22351,
        "player_name": "Tamer Salah",
        "rank": 34983,
        "rank_sort": 34983,
        "total": 2364
      },
      {
        "club_badge_src": null,
        "entry": 5448135,
        "entry_name": "2nd Place FC",
        "event_total": 72,
        "has_played": true,
        "id": 42392473,
        "last_rank": 56025,
        "player_name": "Anderson Lester",
        "rank": 34984,
        "rank_sort": 34984,
        "total": 2363
      },
      {
        "club_badge_src": null,
        "entry": 8531705,
        "entry_name": "Lorna's Legends",
        "event_total": 79,
        "has_played": true,
        "id": 70943340,
        "last_rank": 68544,
        "player_name": "Lorna Tester",
        "rank": 34985,
        "rank_sort": 34985,
        "total": 2363
      },
      {
        "club_badge_src": null,
        "entry": 1051876,
        "entry_name": "Yoro Wissa Harry",
        "event_total": 38,
        "has_played": true,
        "id": 7279629,
        "last_rank": 17960,
        "player_name": "dylan kelly",
        "rank": 34986,
        "rank_sort": 34986,
        "total": 2363
      },
      {
        "club_badge_src": null,
        "entry": 2405421,
        "entry_name": "Under my Cucurella",
        "event_total": 61,
        "has_played": true,
        "id": 17193168,
        "last_rank": 39762,
        "player_name": "Dan Sowden",
        "rank": 34986,
        "rank_sort": 34987,
        "total": 2363
      },
      {
        "club_badge_src": null,
        "entry": 4742673,
        "entry_name": "Obi Wan-Kenobi Nil",
        "event_total": 55,
        "has_played": true,
        "id": 36492111,
        "last_rank": 32633,
        "player_name": "Sam Chamberlain",
        "rank": 34986,
        "rank_sort": 34988,
        "total": 2363
      },
      {
        "club_badge_src": null,
        "entry": 5266824,
        "entry_name": "Bacuna Mateta",
        "event_total": 58,
        "has_played": true,
        "id": 40821206,
        "last_rank": 36091,
        "player_name": "Jonny Wilson",
        "rank": 34986,
        "rank_sort": 34989,
        "total": 2363
      },
      {
        "club_badge_src": null,
        "entry": 6840028,
        "entry_name": "Vibes United",
        "event_total": 58,
        "has_played": true,
        "id": 54793721,
        "last_rank": 36091,
        "player_name": "Alex Repetto",
        "rank": 34986,
        "rank_sort": 34990,
        "total": 2363
      },
      {
        "club_badge_src": null,
        "entry": 698472,
        "entry_name": "We All Hate Leeds",
        "event_total": 53,
        "has_played": true,
        "id": 4731513,
        "last_rank": 30486,
        "player_name": "Adrian Jacob",
        "rank": 34991,
        "rank_sort": 34991,
        "total": 2363
      },
      {
        "club_badge_src": null,
        "entry": 3240584,
        "entry_name": "the slot machine",
        "event_total": 54,
        "has_played": true,
        "id": 23969736,
        "last_rank": 31512,
        "player_name": "Andrea May",
        "rank": 34991,
        "rank_sort": 34992,
        "total": 2363
      },
      {
        "club_badge_src": "https://fantasy.premierleague.com/gcs/plfpl-production-adobe-approved/plfpl-production/4196476/6dada63b-4b3b-4fbe-849b-4269dfda7e55.png",
        "entry": 4196476,
        "entry_name": "ontopunited",
        "event_total": 76,
        "has_played": true,
        "id": 31761919,
        "last_rank": 63063,
        "player_name": "kane hammett",
        "rank": 34991,
        "rank_sort": 34993,
        "total": 2363
      },
      {
        "club_badge_src": null,
        "entry": 6660454,
        "entry_name": "Average Joe's",
        "event_total": 61,
        "has_played": true,
        "id": 53259822,
        "last_rank": 39755,
        "player_name": "Joe Smith",
        "rank": 34991,
        "rank_sort": 34994,
        "total": 2363
      },
      {
        "club_badge_src": null,
        "entry": 7838449,
        "entry_name": "Neutral_xx",
        "event_total": 53,
        "has_played": true,
        "id": 64427697,
        "last_rank": 30477,
        "player_name": "Joshua Toluwani",
        "rank": 34991,
        "rank_sort": 34995,
        "total": 2363
      },
      {
        "club_badge_src": null,
        "entry": 218506,
        "entry_name": "Diop It Like Its Hot",
        "event_total": 48,
        "has_played": true,
        "id": 1453114,
        "last_rank": 25700,
        "player_name": "Vincent Grant",
        "rank": 34996,
        "rank_sort": 34996,
        "total": 2363
      },
      {
        "club_badge_src": "https://fantasy.premierleague.com/gcs/plfpl-production-adobe-approved/plfpl-production/859437/e2622b5b-6aac-445a-ba0e-aa7f31b0d6c6.png",
        "entry": 859437,
        "entry_name": "ali ahmed",
        "event_total": 41,
        "has_played": true,
        "id": 5891527,
        "last_rank": 20131,
        "player_name": "Norman Zhou",
        "rank": 34996,
        "rank_sort": 34997,
        "total": 2363
      },
      {
        "club_badge_src": null,
        "entry": 3139774,
        "entry_name": "Rovers Return",
        "event_total": 60,
        "has_played": true,
        "id": 23178842,
        "last_rank": 38528,
        "player_name": "Billy-jake Hylands",
        "rank": 34996,
        "rank_sort": 34998,
        "total": 2363
      },
      {
        "club_badge_src": null,
        "entry": 5542083,
        "entry_name": "Wirtz Nightmare",
        "event_total": 50,
        "has_played": true,
        "id": 43245585,
        "last_rank": 27564,
        "player_name": "Sean Kastanas",
        "rank": 34996,
        "rank_sort": 34999,
        "total": 2363
      },
      {
        "club_badge_src": null,
        "entry": 5981399,
        "entry_name": "Potter's Misfits",
        "event_total": 57,
        "has_played": true,
        "id": 47099613,
        "last_rank": 34937,
        "player_name": "Richard Payne",
        "rank": 34996,
        "rank_sort": 35000,
        "total": 2363
      }
    ]
  }
}