{
  "last_updated_data": "2026-05-24T23:28:17Z",
  "league": {
    "admin_entry": null,
    "closed": false,
    "code_privacy": "p",
    "created": "2025-07-20T23:14:33.933835Z",
    "cup_league": 2815434,
    "has_cup": true,
    "id": 314,
    "league_type": "s",
    "max_entries": null,
    "name": "Overall",
    "rank": null,
    "scoring": "c",
    "start_event": 1
  },
  "new_entries": {
    "has_next": false,
    "page": 1,
    "results": []
  },
  "standings": {
    "has_next": true,
    "page": 1368,
    "results": [
      {
        "club_badge_src": null,
        "entry": 2742406,
        "entry_name": "Merchants",
        "event_total": 50,
        "has_played": true,
        "id": 19806210,
        "last_rank": 56708,
        "player_name": "Sebastian Escalante",
        "rank": 68171,
        "rank_sort": 68351,
        "total": 2341
      },
      {
        "club_badge_src": null,
        "entry": 2787563,
        "entry_name": "Rutter Woke Nonsense",
        "event_total": 64,
        "has_played": true,
        "id": 20350802,
        "last_rank": 84731,
        "player_name": "Connor Hicks",
        "rank": 68171,
        "rank_sort": 68352,
        "total": 2341
      },
      {
        "club_badge_src": null,
        "entry": 2799737,
        "entry_name": "Haalandaise Sauce",
        "event_total": 46,
        "has_played": true,
        "id": 20444383,
        "last_rank": 50199,
        "player_name": "Vegard Saerheim",
        "rank": 68171,
        "rank_sort": 68353,
        "total": 2341
      },
      {
        "club_badge_src": "https://fantasy.premierleague.com/gcs/plfpl-production-adobe-approved/plfpl-production/2804874/b8537a9f-1fa9-48a9-a8ba-bda2c842361c.png",
        "entry": 2804874,
        "entry_name": "Revolution",
        "event_total": 56,
        "has_played": true,
        "id": 20483112,
        "last_rank": 59813,
        "player_name": "Filip Pavlovic",
        "rank": 68171,
        "rank_sort": 68354,
        "total": 2341
      },
      {
        "club_badge_src": null,
        "entry": 2806391,
        "entry_name": "Tesoro Del Mundo",
        "event_total": 60,
        "has_played": true,
        "id": 20494810,
        "last_rank": 74898,
        "player_name": "Adam Moralee",
        "rank": 68171,
        "rank_sort": 68355,
        "total": 2341
      },
      {
        "club_badge_src": "https://fantasy.premierleague.com/gcs/plfpl-production-adobe-approved/plfpl-production/2816968/e9746a05-d1ef-41a7-808f-7853c80433f3.png",
        "entry": 2816968,
        "entry_name": "NL",
        "event_total": 65,
        "has_played": true,
        "id": 20575740,
        "last_rank": 86735,
        "player_name": "Nasser Alghaith",
        "rank": 68171,
        "rank_sort": 68356,
        "total": 2341
      },
      {
        "club_badge_src": null,
        "entry": 2829462,
        "entry_name": "Red Devils",
        "event_total": 43,
        "has_played": true,
        "id": 20675074,
        "last_rank": 45714,
        "player_name": "Milan Cernek",
        "rank": 68171,
        "rank_sort": 68357,
        "total": 2341
      },
      {
        "club_badge_src": null,
        "entry": 2829639,
        "entry_name": "Gallagher's Goliaths",
        "event_total": 62,
        "has_played": true,
        "id": 20676499,
        "last_rank": 70985,
        "player_name": "Scott Gallagher",
        "rank": 68171,
        "rank_sort": 68358,
        "total": 2341
      },
      {
        "club_badge_src": null,
        "entry": 2832816,
        "entry_name": "Goal Diggers United",
        "event_total": 71,
        "has_played": true,
        "id": 20700527,
        "last_rank": 90746,
        "player_name": "Thomas Schrauwen",
        "rank": 68171,
        "rank_sort": 68359,
        "total": 2341
      },
      {
        "club_badge_src": "https://fantasy.premierleague.com/gcs/plfpl-production-adobe-approved/plfpl-production/2861917/7a5d8819-d3dd-40d4-bc7a-8e5e7526f6ea.png",
        "entry": 2861917,
        "entry_name": "AREABOYZ",
        "event_total": 68,
        "has_played": true,
        "id": 20929161,
        "last_rank": 93883,
        "player_name": "\ud835\udc05\ud835\udc0f\ud835\udc0b \ud835\udc13\ud835\udc00\ud835\udc05\ud835\udc00\ud835\udc11\ud835\udc08",
        "rank": 68171,
        "rank_sort": 68360,
        "total": 2341
      },
      {
        "club_badge_src": null,
        "entry": 2916382,
        "entry_name": "Hamidoo",
        "event_total": 54,
        "has_played": true,
        "id": 21376728,
        "last_rank": 63724,
        "player_name": "Hamido-Mohamed Abdelhamid",
        "rank": 68171,
        "rank_sort": 68361,
        "total": 2341
      },
      {
        "club_badge_src": "https://fantasy.premierleague.com/gcs/plfpl-production-adobe-approved/plfpl-production/2956060/91e68d2b-66c7-4f2e-9660-9832c59f7bd0.png",
        "entry": 2956060,
        "entry_name": "Supplement Boii",
        "event_total": 57,
        "has_played": true,
        "id": 21711991,
        "last_rank": 69323,
        "player_name": "Alexandre Le Dantec",
        "rank": 68171,
        "rank_sort": 68362,
        "total": 2341
      },
      {
        "club_badge_src": null,
        "entry": 2994251,
        "entry_name": "Matipastis",
        "event_total": 62,
        "has_played": true,
        "id": 22022416,
        "last_rank": 79190,
        "player_name": "Antoine Duchesne",
        "rank": 68171,
        "rank_sort": 68363,
        "total": 2341
      },
      {
        "club_badge_src": null,
        "entry": 2995438,
        "entry_name": "\u0160e\u0161ko Clubcard CF",
        "event_total": 47,
        "has_played": true,
        "id": 22031262,
        "last_rank": 51720,
        "player_name": "Nick Turnbull",
        "rank": 68171,
        "rank_sort": 68364,
        "total": 2341
      },
      {
        "club_badge_src": null,
        "entry": 3069361,
        "entry_name": "Game of Stones",
        "event_total": 66,
        "has_played": true,
        "id": 22600669,
        "last_rank": 79431,
        "player_name": "Craig Farr",
        "rank": 68171,
        "rank_sort": 68365,
        "total": 2341
      },
      {
        "club_badge_src": null,
        "entry": 3088706,
        "entry_name": "Harwood's Huskies",
        "event_total": 42,
        "has_played": true,
        "id": 22759790,
        "last_rank": 38774,
        "player_name": "Marc Harwood",
        "rank": 68171,
        "rank_sort": 68366,
        "total": 2341
      },
      {
        "club_badge_src": null,
        "entry": 3098012,
        "entry_name": "1ST",
        "event_total": 38,
        "has_played": true,
        "id": 22833680,
        "last_rank": 39023,
        "player_name": "Ali.H.M \ud83c\udf2a\ufe0f",
        "rank": 68171,
        "rank_sort": 68367,
        "total": 2341
      },
      {
        "club_badge_src": null,
        "entry": 3137028,
        "entry_name": "Eggy Bread",
        "event_total": 31,
        "has_played": true,
        "id": 23157285,
        "last_rank": 30957,
        "player_name": "Edd Brownson",
        "rank": 68171,
        "rank_sort": 68368,
        "total": 2341
      },
      {
        "club_badge_src": "https://fantasy.premierleague.com/gcs/plfpl-production-adobe-approved/plfpl-production/3171716/03ca6f5b-e5f8-442e-8578-ce4bc66260bb.png",
        "entry": 3171716,
        "entry_name": "Farkos Giantos",
        "event_total": 67,
        "has_played": true,
        "id": 23434158,
        "last_rank": 91006,
        "player_name": "Owen Lewis",
        "rank": 68171,
        "rank_sort": 68369,
        "total": 2341
      },
      {
        "club_badge_src": null,
        "entry": 3210040,
        "entry_name": "Gloves of Haglund",
        "event_total": 44,
        "has_played": true,
        "id": 23732552,
        "last_rank": 46839,
        "player_name": "Christian Haglund",
        "rank": 68171,
        "rank_sort": 68370,
        "total": 2341
      },
      {
        "club_badge_src": null,
        "entry": 3267047,
        "entry_name": "Telstarrrrrrrrrrrrrr",
        "event_total": 72,
        "has_played": true,
        "id": 24175959,
        "last_rank": 104388,
        "player_name": "Rieuwert Hammerstein",
        "rank": 68171,
        "rank_sort": 68371,
        "total": 2341
      },
      {
        "club_badge_src": null,
        "entry": 3277368,
        "entry_name": "Saka'd in the mornin",
        "event_total": 50,
        "has_played": true,
        "id": 24256792,
        "last_rank": 56708,
        "player_name": "Brendan Edmonds",
        "rank": 68171,
        "rank_sort": 68372,
        "total": 2341
      },
      {
        "club_badge_src": null,
        "entry": 3288155,
        "entry_name": "Maeda meal of that",
        "event_total": 28,
        "has_played": true,
        "id": 24342841,
        "last_rank": 28150,
        "player_name": "Sean Benson",
        "rank": 68171,
        "rank_sort": 68373,
        "total": 2341
      },
      {
        "club_badge_src": "https://fantasy.premierleague.com/gcs/plfpl-production-adobe-approved/plfpl-production/3432256/83493b3a-fdb9-4622-bfff-25917a245832.png",
        "entry": 3432256,
        "entry_name": "Kiyoshi's Minions",
        "event_total": 49,
        "has_played": true,
        "id": 25497075,
        "last_rank": 55311,
        "player_name": "Collins Chisom (ChiboY)",
        "rank": 68171,
        "rank_sort": 68374,
        "total": 2341
      },
      {
        "club_badge_src": null,
        "entry": 3460509,
        "entry_name": "Beef Cherki",
        "event_total": 82,
        "has_played": true,
        "id": 25722571,
        "last_rank": 132198,
        "player_name": "Toby Jones",
        "rank": 68171,
        "rank_sort": 68375,
        "total": 2341
      },
      {
        "club_badge_src": null,
        "entry": 3463102,
        "entry_name": "Palancas",
        "event_total": 43,
        "has_played": true,
        "id": 25742912,
        "last_rank": 45416,
        "player_name": "Pedro Madaleno",
        "rank": 68171,
        "rank_sort": 68376,
        "total": 2341
      },
      {
        "club_badge_src": null,
        "entry": 3527097,
        "entry_name": "Lakewood CA",
        "event_total": 66,
        "has_played": true,
        "id": 26249696,
        "last_rank": 79431,
        "player_name": "Matt K",
        "rank": 68171,
        "rank_sort": 68377,
        "total": 2341
      },
      {
        "club_badge_src": null,
        "entry": 3581634,
        "entry_name": "l3akrich",
        "event_total": 65,
        "has_played": true,
        "id": 26671853,
        "last_rank": 86735,
        "player_name": "Emir Dellahi",
        "rank": 68171,
        "rank_sort": 68378,
        "total": 2341
      },
      {
        "club_badge_src": null,
        "entry": 3582962,
        "entry_name": "Bruno dos tres",
        "event_total": 59,
        "has_played": true,
        "id": 26681912,
        "last_rank": 73720,
        "player_name": "Arjun Thinsa",
        "rank": 68171,
        "rank_sort": 68379,
        "total": 2341
      },
      {
        "club_badge_src": null,
        "entry": 3610614,
        "entry_name": "AFEEM29",
        "event_total": 53,
        "has_played": true,
        "id": 26896732,
        "last_rank": 61950,
        "player_name": "Apoorbaa Roy",
        "rank": 68171,
        "rank_sort": 68380,
        "total": 2341
      },
      {
        "club_badge_src": null,
        "entry": 3618900,
        "entry_name": "TAMIM FC",
        "event_total": 78,
        "has_played": true,
        "id": 26961471,
        "last_rank": 108959,
        "player_name": "Tamim Alturki",
        "rank": 68171,
        "rank_sort": 68381,
        "total": 2341
      },
      {
        "club_badge_src": null,
        "entry": 3636809,
        "entry_name": "In off the post",
        "event_total": 65,
        "has_played": true,
        "id": 27102681,
        "last_rank": 86735,
        "player_name": "Matt Parcell",
        "rank": 68171,
        "rank_sort": 68382,
        "total": 2341
      },
      {
        "club_badge_src": null,
        "entry": 3689635,
        "entry_name": "Marco's Eleven",
        "event_total": 54,
        "has_played": true,
        "id": 27524852,
        "last_rank": 63724,
        "player_name": "Marco Freitas",
        "rank": 68171,
        "rank_sort": 68383,
        "total": 2341
      },
      {
        "club_badge_src": null,
        "entry": 3690713,
        "entry_name": "Hunter2000",
        "event_total": 61,
        "has_played": true,
        "id": 27533095,
        "last_rank": 77050,
        "player_name": "Mikael Sj\u00f6stedt",
        "rank": 68171,
        "rank_sort": 68384,
        "total": 2341
      },
      {
        "club_badge_src": null,
        "entry": 3721925,
        "entry_name": "FC Cheddar Cheese",
        "event_total": 51,
        "has_played": true,
        "id": 27776380,
        "last_rank": 58688,
        "player_name": "Taher Malik",
        "rank": 68171,
        "rank_sort": 68385,
        "total": 2341
      },
      {
        "club_badge_src": null,
        "entry": 3735597,
        "entry_name": "Red Devils",
        "event_total": 61,
        "has_played": true,
        "id": 27883920,
        "last_rank": 77676,
        "player_name": "Ella Kirk",
        "rank": 68171,
        "rank_sort": 68386,
        "total": 2341
      },
      {
        "club_badge_src": null,
        "entry": 3751286,
        "entry_name": "Up - Side - Eat",
        "event_total": 36,
        "has_played": true,
        "id": 28006728,
        "last_rank": 36624,
        "player_name": "Matt Taubert",
        "rank": 68171,
        "rank_sort": 68387,
        "total": 2341
      },
      {
        "club_badge_src": null,
        "entry": 3783265,
        "entry_name": "rump steak",
        "event_total": 43,
        "has_played": true,
        "id": 28251036,
        "last_rank": 45416,
        "player_name": "tahi turner",
        "rank": 68171,
        "rank_sort": 68388,
        "total": 2341
      },
      {
        "club_badge_src": "https://fantasy.premierleague.com/gcs/plfpl-production-adobe-approved/plfpl-production/3805297/2e1c19da-df76-42ba-9f38-6fcb2cd98a2b.png",
        "entry": 3805297,
        "entry_name": "Sebbzter2K",
        "event_total": 59,
        "has_played": true,
        "id": 28449652,
        "last_rank": 73423,
        "player_name": "Sebastian Dimmen",
        "rank": 68171,
        "rank_sort": 68389,
        "total": 2341
      },
      {
        "club_badge_src": null,
        "entry": 3805920,
        "entry_name": "Short Attention Sp",
        "event_total": 61,
        "has_played": true,
        "id": 28454723,
        "last_rank": 77050,
        "player_name": "Ellis Croft",
        "rank": 68171,
        "rank_sort": 68390,
        "total": 2341
      },
      {
        "club_badge_src": null,
        "entry": 3844774,
        "entry_name": "Trafford Giants",
        "event_total": 46,
        "has_played": true,
        "id": 28816619,
        "last_rank": 50199,
        "player_name": "Nicos Christodoulou",
        "rank": 68171,
        "rank_sort": 68391,
        "total": 2341
      },
      {
        "club_badge_src": null,
        "entry": 3850430,
        "entry_name": "Won't be around",
        "event_total": 62,
        "has_played": true,
        "id": 28863183,
        "last_rank": 79817,
        "player_name": "Brian Malee",
        "rank": 68171,
        "rank_sort": 68392,
        "total": 2341
      },
      {
        "club_badge_src": null,
        "entry": 3855565,
        "entry_name": "NoSalahNoSalah",
        "event_total": 60,
        "has_played": true,
        "id": 28904853,
        "last_rank": 75139,
        "player_name": "Shaun Altwig",
        "rank": 68171,
        "rank_sort": 68393,
        "total": 2341
      },
      {
        "club_badge_src": null,
        "entry": 3867266,
        "entry_name": "Bangers and Mash",
        "event_total": 64,
        "has_played": true,
        "id": 28999634,
        "last_rank": 83934,
        "player_name": "Brendan Hart",
        "rank": 68171,
        "rank_sort": 68394,
        "total": 2341
      },
      {
        "club_badge_src": null,
        "entry": 3893202,
        "entry_name": "The Slot Machine",
        "event_total": 63,
        "has_played": true,
        "id": 29258739,
        "last_rank": 81420,
        "player_name": "Dan Edwards",
        "rank": 68171,
        "rank_sort": 68395,
        "total": 2341
      },
      {
        "club_badge_src": "https://fantasy.premierleague.com/gcs/plfpl-production-adobe-approved/plfpl-production/3917481/e7beb03f-c3d8-40bc-a991-c682c935a5ce.png",
        "entry": 3917481,
        "entry_name": "\u0628\u0695\u06c6 \u062e\u06c6\u062a\u06cc",
        "event_total": 68,
        "has_played": true,
        "id": 29456861,
        "last_rank": 83934,
        "player_name": "Hazhir Salah",
        "rank": 68171,
        "rank_sort": 68396,
        "total": 2341
      },
      {
        "club_badge_src": null,
        "entry": 3947045,
        "entry_name": "Oakland Wanderers",
        "event_total": 72,
        "has_played": true,
        "id": 29692571,
        "last_rank": 103526,
        "player_name": "Bill Neafsey",
        "rank": 68171,
        "rank_sort": 68397,
        "total": 2341
      },
      {
        "club_badge_src": "https://fantasy.premierleague.com/gcs/plfpl-production-adobe-approved/plfpl-production/3980531/9be73015-ba74-4348-a477-8d9e6d643566.png",
        "entry": 3980531,
        "entry_name": "Big Wilde Fc",
        "event_total": 75,
        "has_played": true,
        "id": 29963392,
        "last_rank": 111669,
        "player_name": "Sam Wilde",
        "rank": 68171,
        "rank_sort": 68398,
        "total": 2341
      },
      {
        "club_badge_src": null,
        "entry": 4041355,
        "entry_name": "Foosty FP",
        "event_total": 64,
        "has_played": true,
        "id": 30477960,
        "last_rank": 84360,
        "player_name": "Graeme Dyce",
        "rank": 68171,
        "rank_sort": 68399,
        "total": 2341
      },
      {
        "club_badge_src": null,
        "entry": 4086541,
        "entry_name": "Ha$hem",
        "event_total": 59,
        "has_played": true,
        "id": 30852484,
        "last_rank": 73423,
        "player_name": "Sherif Hashem",
        "rank": 68171,
        "rank_sort": 68400,
        "total": 2341
      }
    ]
  }
}