{
  "last_updated_data": "2026-05-24T23:28:17Z",
  "league": {
    "admin_entry": null,
    "closed": false,
    "code_privacy": "p",
    "created": "2025-07-20T23:14:33.933835Z",
    "cup_league": 2815434,
    "has_cup": true,
    "id": 314,
    "league_type": "s",
    "max_entries": null,
    "name": "Overall",
    "rank": null,
    "scoring": "c",
    "start_event": 1
  },
  "new_entries": {
    "has_next": false,
    "page": 1,
    "results": []
  },
  "standings": {
    "has_next": true,
    "page": 163,
    "results": [
      {
        "club_badge_src": null,
        "entry": 625812,
        "entry_name": "Ekitekkers",
        "event_total": 52,
        "has_played": true,
        "id": 4229033,
        "last_rank": 6166,
        "player_name": "Nathan Gootee",
        "rank": 8097,
        "rank_sort": 8101,
        "total": 2403
      },
      {
        "club_badge_src": null,
        "entry": 1385257,
        "entry_name": "Secret coach 18",
        "event_total": 70,
        "has_played": true,
        "id": 9634750,
        "last_rank": 13153,
        "player_name": "Anish pokhrel",
        "rank": 8097,
        "rank_sort": 8102,
        "total": 2403
      },
      {
        "club_badge_src": null,
        "entry": 1417572,
        "entry_name": "tekkerslovakia",
        "event_total": 58,
        "has_played": true,
        "id": 9869826,
        "last_rank": 7959,
        "player_name": "Max Wilson",
        "rank": 8097,
        "rank_sort": 8103,
        "total": 2403
      },
      {
        "club_badge_src": "https://fantasy.premierleague.com/gcs/plfpl-production-adobe-approved/plfpl-production/1811100/8fd994b3-c90b-4d0c-a53a-a41e4ebf9f78.png",
        "entry": 1811100,
        "entry_name": "CHR_Prizm",
        "event_total": 53,
        "has_played": true,
        "id": 12733681,
        "last_rank": 6409,
        "player_name": "QUYNH ANH LE",
        "rank": 8097,
        "rank_sort": 8104,
        "total": 2403
      },
      {
        "club_badge_src": null,
        "entry": 1976326,
        "entry_name": "Vegas Blues",
        "event_total": 62,
        "has_played": true,
        "id": 13950527,
        "last_rank": 9448,
        "player_name": "Joel Reese",
        "rank": 8097,
        "rank_sort": 8105,
        "total": 2403
      },
      {
        "club_badge_src": null,
        "entry": 2389886,
        "entry_name": "NUNEZ NUNEZ NUNEZ",
        "event_total": 37,
        "has_played": true,
        "id": 17071205,
        "last_rank": 3066,
        "player_name": "Brian McHugh",
        "rank": 8097,
        "rank_sort": 8106,
        "total": 2403
      },
      {
        "club_badge_src": null,
        "entry": 3188307,
        "entry_name": "Shiver me Timber",
        "event_total": 57,
        "has_played": true,
        "id": 23562265,
        "last_rank": 7625,
        "player_name": "Alasdair Evans",
        "rank": 8097,
        "rank_sort": 8107,
        "total": 2403
      },
      {
        "club_badge_src": null,
        "entry": 5581319,
        "entry_name": "GOATED.",
        "event_total": 58,
        "has_played": true,
        "id": 43591865,
        "last_rank": 8032,
        "player_name": "Abdulaziz Al Tassan",
        "rank": 8097,
        "rank_sort": 8108,
        "total": 2403
      },
      {
        "club_badge_src": null,
        "entry": 5615233,
        "entry_name": "Ru Dogs",
        "event_total": 60,
        "has_played": true,
        "id": 43888993,
        "last_rank": 8687,
        "player_name": "Ruairi Howarth",
        "rank": 8097,
        "rank_sort": 8109,
        "total": 2403
      },
      {
        "club_badge_src": null,
        "entry": 6347380,
        "entry_name": "Murex",
        "event_total": 87,
        "has_played": true,
        "id": 50454571,
        "last_rank": 24832,
        "player_name": "Krunal Tandel",
        "rank": 8097,
        "rank_sort": 8110,
        "total": 2403
      },
      {
        "club_badge_src": null,
        "entry": 6786425,
        "entry_name": "Caro Lions",
        "event_total": 49,
        "has_played": true,
        "id": 54343863,
        "last_rank": 5400,
        "player_name": "Caroline Hall",
        "rank": 8097,
        "rank_sort": 8111,
        "total": 2403
      },
      {
        "club_badge_src": null,
        "entry": 7222262,
        "entry_name": "P\u00f6t\u00fcrgeg\u00fcc\u00fc",
        "event_total": 53,
        "has_played": true,
        "id": 58343744,
        "last_rank": 6392,
        "player_name": "cihan usul",
        "rank": 8097,
        "rank_sort": 8112,
        "total": 2403
      },
      {
        "club_badge_src": null,
        "entry": 7449576,
        "entry_name": "Cheezy",
        "event_total": 69,
        "has_played": true,
        "id": 60628090,
        "last_rank": 12645,
        "player_name": "Favour Emechete",
        "rank": 8097,
        "rank_sort": 8113,
        "total": 2403
      },
      {
        "club_badge_src": null,
        "entry": 8100,
        "entry_name": "Ebbe FC",
        "event_total": 63,
        "has_played": true,
        "id": 46904,
        "last_rank": 9885,
        "player_name": "Ebbe Gunnerstam",
        "rank": 8114,
        "rank_sort": 8114,
        "total": 2403
      },
      {
        "club_badge_src": "https://fantasy.premierleague.com/gcs/plfpl-production-adobe-approved/plfpl-production/10325/a777ea04-db2d-4f39-bae2-dba755cfd76e.png",
        "entry": 10325,
        "entry_name": "Xisco Inferno",
        "event_total": 58,
        "has_played": true,
        "id": 61025,
        "last_rank": 7979,
        "player_name": "Dan Furneaux",
        "rank": 8114,
        "rank_sort": 8115,
        "total": 2403
      },
      {
        "club_badge_src": null,
        "entry": 18404,
        "entry_name": "\u6b6a\u6253\u6b63\u7740",
        "event_total": 66,
        "has_played": true,
        "id": 114479,
        "last_rank": 11150,
        "player_name": "Evan Zhu",
        "rank": 8114,
        "rank_sort": 8116,
        "total": 2403
      },
      {
        "club_badge_src": null,
        "entry": 52162,
        "entry_name": "Rutter woke nonsense",
        "event_total": 69,
        "has_played": true,
        "id": 335461,
        "last_rank": 12705,
        "player_name": "Bobby Stradling",
        "rank": 8114,
        "rank_sort": 8117,
        "total": 2403
      },
      {
        "club_badge_src": null,
        "entry": 53701,
        "entry_name": "Los Porro Hermanos",
        "event_total": 61,
        "has_played": true,
        "id": 345536,
        "last_rank": 9142,
        "player_name": "Ben Hackett",
        "rank": 8114,
        "rank_sort": 8118,
        "total": 2403
      },
      {
        "club_badge_src": null,
        "entry": 57341,
        "entry_name": "Hard Stop At XI",
        "event_total": 75,
        "has_played": true,
        "id": 369380,
        "last_rank": 16062,
        "player_name": "Andy Forbes",
        "rank": 8114,
        "rank_sort": 8119,
        "total": 2403
      },
      {
        "club_badge_src": null,
        "entry": 73183,
        "entry_name": "Trust the Process",
        "event_total": 61,
        "has_played": true,
        "id": 475671,
        "last_rank": 9142,
        "player_name": "Shane McGowan",
        "rank": 8114,
        "rank_sort": 8120,
        "total": 2403
      },
      {
        "club_badge_src": null,
        "entry": 78549,
        "entry_name": "Silver Medalists",
        "event_total": 60,
        "has_played": true,
        "id": 510710,
        "last_rank": 8718,
        "player_name": "Dan Jopp",
        "rank": 8114,
        "rank_sort": 8121,
        "total": 2403
      },
      {
        "club_badge_src": null,
        "entry": 79710,
        "entry_name": "Wonky Wanderers (C)",
        "event_total": 61,
        "has_played": true,
        "id": 518516,
        "last_rank": 9089,
        "player_name": "Conor Morgan",
        "rank": 8114,
        "rank_sort": 8122,
        "total": 2403
      },
      {
        "club_badge_src": null,
        "entry": 89269,
        "entry_name": "Raya sunshine",
        "event_total": 44,
        "has_played": true,
        "id": 582720,
        "last_rank": 4303,
        "player_name": "Leopold Beresford-Montjoy",
        "rank": 8114,
        "rank_sort": 8123,
        "total": 2403
      },
      {
        "club_badge_src": null,
        "entry": 133196,
        "entry_name": "You Haaland A Laugh",
        "event_total": 63,
        "has_played": true,
        "id": 867575,
        "last_rank": 9942,
        "player_name": "Jack Stringer",
        "rank": 8114,
        "rank_sort": 8124,
        "total": 2403
      },
      {
        "club_badge_src": "https://fantasy.premierleague.com/gcs/plfpl-production-adobe-approved/plfpl-production/145245/10ac6362-9abf-4c5c-8f9e-b8b35d51df9c.png",
        "entry": 145245,
        "entry_name": "Haalandaise Sauce",
        "event_total": 61,
        "has_played": true,
        "id": 951120,
        "last_rank": 7625,
        "player_name": "Jack Tindal",
        "rank": 8114,
        "rank_sort": 8125,
        "total": 2403
      },
      {
        "club_badge_src": null,
        "entry": 153163,
        "entry_name": "Lillywhites",
        "event_total": 53,
        "has_played": true,
        "id": 1005714,
        "last_rank": 6448,
        "player_name": "Jonas Berg",
        "rank": 8114,
        "rank_sort": 8126,
        "total": 2403
      },
      {
        "club_badge_src": "https://fantasy.premierleague.com/gcs/plfpl-production-adobe-approved/plfpl-production/156730/1f14c1ef-7626-4ed8-955f-5cba8093fcf6.png",
        "entry": 156730,
        "entry_name": "Mission ImPOCsible",
        "event_total": 65,
        "has_played": true,
        "id": 1030778,
        "last_rank": 10805,
        "player_name": "Patrick O'Callaghan",
        "rank": 8114,
        "rank_sort": 8127,
        "total": 2403
      },
      {
        "club_badge_src": null,
        "entry": 178386,
        "entry_name": "K_e_59",
        "event_total": 47,
        "has_played": true,
        "id": 1177360,
        "last_rank": 5011,
        "player_name": "Karar Haider",
        "rank": 8114,
        "rank_sort": 8128,
        "total": 2403
      },
      {
        "club_badge_src": null,
        "entry": 195460,
        "entry_name": "The Legend",
        "event_total": 54,
        "has_played": true,
        "id": 1296183,
        "last_rank": 6752,
        "player_name": "FIF Demetriou",
        "rank": 8114,
        "rank_sort": 8129,
        "total": 2403
      },
      {
        "club_badge_src": null,
        "entry": 203904,
        "entry_name": "DeLap Dancers",
        "event_total": 62,
        "has_played": true,
        "id": 1354921,
        "last_rank": 9459,
        "player_name": "Gowtham Narayan",
        "rank": 8114,
        "rank_sort": 8130,
        "total": 2403
      },
      {
        "club_badge_src": null,
        "entry": 211811,
        "entry_name": "Bolton Wanderer",
        "event_total": 57,
        "has_played": true,
        "id": 1408881,
        "last_rank": 7676,
        "player_name": "steven adamson",
        "rank": 8114,
        "rank_sort": 8131,
        "total": 2403
      },
      {
        "club_badge_src": null,
        "entry": 388985,
        "entry_name": "Bailey",
        "event_total": 56,
        "has_played": true,
        "id": 2609355,
        "last_rank": 7375,
        "player_name": "Antonio Leung",
        "rank": 8114,
        "rank_sort": 8132,
        "total": 2403
      },
      {
        "club_badge_src": null,
        "entry": 405038,
        "entry_name": "LiveLaughLoveramento",
        "event_total": 64,
        "has_played": true,
        "id": 2715713,
        "last_rank": 10288,
        "player_name": "Dan Hadlow",
        "rank": 8114,
        "rank_sort": 8133,
        "total": 2403
      },
      {
        "club_badge_src": null,
        "entry": 519403,
        "entry_name": "Can I Porro A Feelin",
        "event_total": 48,
        "has_played": true,
        "id": 3487554,
        "last_rank": 5173,
        "player_name": "Tom Leonard",
        "rank": 8114,
        "rank_sort": 8134,
        "total": 2403
      },
      {
        "club_badge_src": null,
        "entry": 525771,
        "entry_name": "Saka Khan",
        "event_total": 62,
        "has_played": true,
        "id": 3533879,
        "last_rank": 9484,
        "player_name": "Benjamin East",
        "rank": 8114,
        "rank_sort": 8135,
        "total": 2403
      },
      {
        "club_badge_src": null,
        "entry": 556392,
        "entry_name": "Let's Goal",
        "event_total": 54,
        "has_played": true,
        "id": 3744568,
        "last_rank": 6703,
        "player_name": "Tiago Santo",
        "rank": 8114,
        "rank_sort": 8136,
        "total": 2403
      },
      {
        "club_badge_src": null,
        "entry": 564865,
        "entry_name": "DavidLoh",
        "event_total": 70,
        "has_played": true,
        "id": 3802061,
        "last_rank": 13257,
        "player_name": "Egor Panfilov",
        "rank": 8114,
        "rank_sort": 8137,
        "total": 2403
      },
      {
        "club_badge_src": null,
        "entry": 683393,
        "entry_name": "Ander the Radar",
        "event_total": 68,
        "has_played": true,
        "id": 4625328,
        "last_rank": 12141,
        "player_name": "Nick Purdon",
        "rank": 8114,
        "rank_sort": 8138,
        "total": 2403
      },
      {
        "club_badge_src": null,
        "entry": 697886,
        "entry_name": "Listarxos",
        "event_total": 64,
        "has_played": true,
        "id": 4727387,
        "last_rank": 10263,
        "player_name": "Kimon Ath",
        "rank": 8114,
        "rank_sort": 8139,
        "total": 2403
      },
      {
        "club_badge_src": "https://fantasy.premierleague.com/gcs/plfpl-production-adobe-approved/plfpl-production/818598/0b86c5b3-5cb0-40be-98fa-3fcc1c6e0295.png",
        "entry": 818598,
        "entry_name": "DrAWSquad",
        "event_total": 71,
        "has_played": true,
        "id": 5606183,
        "last_rank": 13702,
        "player_name": "Dr AW-",
        "rank": 8114,
        "rank_sort": 8140,
        "total": 2403
      },
      {
        "club_badge_src": null,
        "entry": 856970,
        "entry_name": "The Ball Baggers",
        "event_total": 49,
        "has_played": true,
        "id": 5874150,
        "last_rank": 5448,
        "player_name": "Luke Zeidler",
        "rank": 8114,
        "rank_sort": 8141,
        "total": 2403
      },
      {
        "club_badge_src": null,
        "entry": 877035,
        "entry_name": "DTHReborn Revolution",
        "event_total": 63,
        "has_played": true,
        "id": 6012926,
        "last_rank": 9942,
        "player_name": "Thong SenTenceD",
        "rank": 8114,
        "rank_sort": 8142,
        "total": 2403
      },
      {
        "club_badge_src": null,
        "entry": 913520,
        "entry_name": "AHMED AZ",
        "event_total": 57,
        "has_played": true,
        "id": 6281525,
        "last_rank": 7676,
        "player_name": "Ahmed Azguaoua",
        "rank": 8114,
        "rank_sort": 8143,
        "total": 2403
      },
      {
        "club_badge_src": null,
        "entry": 919709,
        "entry_name": "RedDevilsAdvocate",
        "event_total": 44,
        "has_played": true,
        "id": 6324954,
        "last_rank": 4303,
        "player_name": "Tim Beer",
        "rank": 8114,
        "rank_sort": 8144,
        "total": 2403
      },
      {
        "club_badge_src": null,
        "entry": 938683,
        "entry_name": "The Slot Thickens",
        "event_total": 59,
        "has_played": true,
        "id": 6460586,
        "last_rank": 8382,
        "player_name": "Malcolm Pipes",
        "rank": 8114,
        "rank_sort": 8145,
        "total": 2403
      },
      {
        "club_badge_src": null,
        "entry": 1244028,
        "entry_name": "Bikini Bottom FC",
        "event_total": 55,
        "has_played": true,
        "id": 8639792,
        "last_rank": 7014,
        "player_name": "Jarda Kub\u00ed\u010dek",
        "rank": 8114,
        "rank_sort": 8146,
        "total": 2403
      },
      {
        "club_badge_src": null,
        "entry": 1339986,
        "entry_name": "Countryside Clovers",
        "event_total": 56,
        "has_played": true,
        "id": 9316251,
        "last_rank": 7333,
        "player_name": "Scott Rodeheaver",
        "rank": 8114,
        "rank_sort": 8147,
        "total": 2403
      },
      {
        "club_badge_src": null,
        "entry": 1504638,
        "entry_name": "Benicio del Porro",
        "event_total": 80,
        "has_played": true,
        "id": 10493525,
        "last_rank": 19544,
        "player_name": "Kostas Tazes",
        "rank": 8114,
        "rank_sort": 8148,
        "total": 2403
      },
      {
        "club_badge_src": null,
        "entry": 1718032,
        "entry_name": "Wirtigo",
        "event_total": 50,
        "has_played": true,
        "id": 12040246,
        "last_rank": 5688,
        "player_name": "Declan Boyle",
        "rank": 8114,
        "rank_sort": 8149,
        "total": 2403
      },
      {
        "club_badge_src": "https://fantasy.premierleague.com/gcs/plfpl-production-adobe-approved/plfpl-production/1787034/f723e39d-8114-4a5f-93c4-bbd4d73456d7.png",
        "entry": 1787034,
        "entry_name": "\ufffdEnemy @ the Gate\ufffd",
        "event_total": 46,
        "has_played": true,
        "id": 12556302,
        "last_rank": 4742,
        "player_name": "MVP -\ufe0f-\ufe0f",
        "rank": 8114,
        "rank_sort": 8150,
        "total": 2403
      }
    ]
  }
}