{
  "last_updated_data": "2026-05-24T23:28:17Z",
  "league": {
    "admin_entry": null,
    "closed": false,
    "code_privacy": "p",
    "created": "2025-07-20T23:14:33.933835Z",
    "cup_league": 2815434,
    "has_cup": true,
    "id": 314,
    "league_type": "s",
    "max_entries": null,
    "name": "Overall",
    "rank": null,
    "scoring": "c",
    "start_event": 1
  },
  "new_entries": {
    "has_next": false,
    "page": 1,
    "results": []
  },
  "standings": {
    "has_next": true,
    "page": 279,
    "results": [
      {
        "club_badge_src": null,
        "entry": 9655,
        "entry_name": "team name",
        "event_total": 61,
        "has_played": true,
        "id": 56828,
        "last_rank": 13401,
        "player_name": "Dom B",
        "rank": 13901,
        "rank_sort": 13901,
        "total": 2390
      },
      {
        "club_badge_src": "https://fantasy.premierleague.com/gcs/plfpl-production-adobe-approved/plfpl-production/14579/44e1a1f6-c8d0-473e-8486-6d36096db146.png",
        "entry": 14579,
        "entry_name": "Pote d'Or",
        "event_total": 58,
        "has_played": true,
        "id": 88603,
        "last_rank": 14040,
        "player_name": "Tiago Matos Alves",
        "rank": 13901,
        "rank_sort": 13902,
        "total": 2390
      },
      {
        "club_badge_src": "https://fantasy.premierleague.com/gcs/plfpl-production-adobe-approved/plfpl-production/16754/6b8d2da5-855f-4c3d-9613-f7144b63cc68.png",
        "entry": 16754,
        "entry_name": "Restored",
        "event_total": 59,
        "has_played": true,
        "id": 103676,
        "last_rank": 14604,
        "player_name": "S. Fahrudin",
        "rank": 13901,
        "rank_sort": 13903,
        "total": 2390
      },
      {
        "club_badge_src": null,
        "entry": 25088,
        "entry_name": "Red Ruby FC",
        "event_total": 64,
        "has_played": true,
        "id": 158613,
        "last_rank": 17585,
        "player_name": "Anders Rubin",
        "rank": 13901,
        "rank_sort": 13904,
        "total": 2390
      },
      {
        "club_badge_src": null,
        "entry": 25833,
        "entry_name": "No Lovren Deep Web",
        "event_total": 55,
        "has_played": true,
        "id": 163387,
        "last_rank": 10462,
        "player_name": "Henry Noble",
        "rank": 13901,
        "rank_sort": 13905,
        "total": 2390
      },
      {
        "club_badge_src": "https://fantasy.premierleague.com/gcs/plfpl-production-adobe-approved/plfpl-production/26880/be88780c-0a68-4c45-a3cd-19138c4dcbe2.png",
        "entry": 26880,
        "entry_name": "vader plays fantasy",
        "event_total": 68,
        "has_played": true,
        "id": 169964,
        "last_rank": 17585,
        "player_name": "Daniel Enwezor",
        "rank": 13901,
        "rank_sort": 13906,
        "total": 2390
      },
      {
        "club_badge_src": null,
        "entry": 27415,
        "entry_name": "Mado's XI",
        "event_total": 50,
        "has_played": true,
        "id": 173305,
        "last_rank": 8484,
        "player_name": "Ahmed Salaheldin",
        "rank": 13901,
        "rank_sort": 13907,
        "total": 2390
      },
      {
        "club_badge_src": "https://fantasy.premierleague.com/gcs/plfpl-production-adobe-approved/plfpl-production/33508/9fb3d719-702c-485c-8e71-532e6294812d.png",
        "entry": 33508,
        "entry_name": "Bing Sporting Club",
        "event_total": 59,
        "has_played": true,
        "id": 213710,
        "last_rank": 12200,
        "player_name": "Ronny Greipsland",
        "rank": 13901,
        "rank_sort": 13908,
        "total": 2390
      },
      {
        "club_badge_src": null,
        "entry": 43624,
        "entry_name": "\u2665\ufe0fMoMo\u2122\ufe0f\u2665\ufe0f",
        "event_total": 65,
        "has_played": true,
        "id": 279382,
        "last_rank": 13257,
        "player_name": "Mohamed El-Dash",
        "rank": 13901,
        "rank_sort": 13909,
        "total": 2390
      },
      {
        "club_badge_src": null,
        "entry": 53948,
        "entry_name": "MissedDeadline",
        "event_total": 60,
        "has_played": true,
        "id": 347173,
        "last_rank": 15063,
        "player_name": "Sihab Muhammad",
        "rank": 13901,
        "rank_sort": 13910,
        "total": 2390
      },
      {
        "club_badge_src": "https://fantasy.premierleague.com/gcs/plfpl-production-adobe-approved/plfpl-production/61609/a18603eb-0dcc-41eb-9b8c-609bb53e1159.png",
        "entry": 61609,
        "entry_name": "cosmos sports",
        "event_total": 66,
        "has_played": true,
        "id": 396837,
        "last_rank": 16320,
        "player_name": "Dmytro Ryzhyi",
        "rank": 13901,
        "rank_sort": 13911,
        "total": 2390
      },
      {
        "club_badge_src": null,
        "entry": 72507,
        "entry_name": "Coutinho:d by Wirtz",
        "event_total": 63,
        "has_played": true,
        "id": 471164,
        "last_rank": 14496,
        "player_name": "Markus J\u00f6nsson",
        "rank": 13901,
        "rank_sort": 13912,
        "total": 2390
      },
      {
        "club_badge_src": null,
        "entry": 76589,
        "entry_name": "Deportivo Rastrillo*",
        "event_total": 54,
        "has_played": true,
        "id": 497878,
        "last_rank": 11821,
        "player_name": "Niek Goedvolk",
        "rank": 13901,
        "rank_sort": 13913,
        "total": 2390
      },
      {
        "club_badge_src": null,
        "entry": 97112,
        "entry_name": "Bubbas Shrimp team",
        "event_total": 73,
        "has_played": true,
        "id": 634301,
        "last_rank": 24475,
        "player_name": "Harald Byberg",
        "rank": 13901,
        "rank_sort": 13914,
        "total": 2390
      },
      {
        "club_badge_src": null,
        "entry": 102498,
        "entry_name": "Medyokeres FC",
        "event_total": 61,
        "has_played": true,
        "id": 668773,
        "last_rank": 15797,
        "player_name": "Benjamin Tay",
        "rank": 13901,
        "rank_sort": 13915,
        "total": 2390
      },
      {
        "club_badge_src": null,
        "entry": 109960,
        "entry_name": "Hakuna Mateta",
        "event_total": 65,
        "has_played": true,
        "id": 717046,
        "last_rank": 18270,
        "player_name": "Alex Day",
        "rank": 13901,
        "rank_sort": 13916,
        "total": 2390
      },
      {
        "club_badge_src": null,
        "entry": 150109,
        "entry_name": "Saving Private Raya",
        "event_total": 60,
        "has_played": true,
        "id": 984348,
        "last_rank": 10805,
        "player_name": "Thierno Barry",
        "rank": 13901,
        "rank_sort": 13917,
        "total": 2390
      },
      {
        "club_badge_src": null,
        "entry": 162540,
        "entry_name": "Tigani",
        "event_total": 58,
        "has_played": true,
        "id": 1071494,
        "last_rank": 14102,
        "player_name": "Tudor Precup",
        "rank": 13901,
        "rank_sort": 13918,
        "total": 2390
      },
      {
        "club_badge_src": null,
        "entry": 184071,
        "entry_name": "Snoop Udogiedog",
        "event_total": 54,
        "has_played": true,
        "id": 1215385,
        "last_rank": 11901,
        "player_name": "Simon EK",
        "rank": 13901,
        "rank_sort": 13919,
        "total": 2390
      },
      {
        "club_badge_src": null,
        "entry": 210372,
        "entry_name": "Eze dub",
        "event_total": 67,
        "has_played": true,
        "id": 1399073,
        "last_rank": 16959,
        "player_name": "Sondre Vhile",
        "rank": 13901,
        "rank_sort": 13920,
        "total": 2390
      },
      {
        "club_badge_src": null,
        "entry": 261440,
        "entry_name": "World Champs 25",
        "event_total": 61,
        "has_played": true,
        "id": 1737950,
        "last_rank": 13401,
        "player_name": "Tom Steigerwald",
        "rank": 13901,
        "rank_sort": 13921,
        "total": 2390
      },
      {
        "club_badge_src": null,
        "entry": 375630,
        "entry_name": "Vold FC",
        "event_total": 66,
        "has_played": true,
        "id": 2515018,
        "last_rank": 18790,
        "player_name": "Martin Vold",
        "rank": 13901,
        "rank_sort": 13922,
        "total": 2390
      },
      {
        "club_badge_src": null,
        "entry": 385229,
        "entry_name": "Erik teng hag",
        "event_total": 63,
        "has_played": true,
        "id": 2583965,
        "last_rank": 16959,
        "player_name": "Teddy Bear",
        "rank": 13901,
        "rank_sort": 13923,
        "total": 2390
      },
      {
        "club_badge_src": null,
        "entry": 406922,
        "entry_name": "Dynamo Flick",
        "event_total": 56,
        "has_played": true,
        "id": 2728544,
        "last_rank": 10920,
        "player_name": "James Marley",
        "rank": 13901,
        "rank_sort": 13924,
        "total": 2390
      },
      {
        "club_badge_src": null,
        "entry": 422920,
        "entry_name": "Who\u2019s Tony Adams?",
        "event_total": 46,
        "has_played": true,
        "id": 2834091,
        "last_rank": 8552,
        "player_name": "Lewis Devaney",
        "rank": 13901,
        "rank_sort": 13925,
        "total": 2390
      },
      {
        "club_badge_src": null,
        "entry": 451965,
        "entry_name": "The Scout",
        "event_total": 65,
        "has_played": true,
        "id": 3032074,
        "last_rank": 18377,
        "player_name": "Wallace Waflace",
        "rank": 13901,
        "rank_sort": 13926,
        "total": 2390
      },
      {
        "club_badge_src": null,
        "entry": 455452,
        "entry_name": "Felix Ostehorn",
        "event_total": 71,
        "has_played": true,
        "id": 3055518,
        "last_rank": 19721,
        "player_name": "Magnus Fjeldstad",
        "rank": 13901,
        "rank_sort": 13927,
        "total": 2390
      },
      {
        "club_badge_src": null,
        "entry": 522763,
        "entry_name": "Kneejerk FC",
        "event_total": 59,
        "has_played": true,
        "id": 3511122,
        "last_rank": 14604,
        "player_name": "Josh Holcombe",
        "rank": 13901,
        "rank_sort": 13928,
        "total": 2390
      },
      {
        "club_badge_src": "https://fantasy.premierleague.com/gcs/plfpl-production-adobe-approved/plfpl-production/538578/646807bc-cc6b-4601-ab50-0ad733a36f8b.png",
        "entry": 538578,
        "entry_name": "Hawk Pride",
        "event_total": 56,
        "has_played": true,
        "id": 3625361,
        "last_rank": 12995,
        "player_name": "Matt Butler",
        "rank": 13901,
        "rank_sort": 13929,
        "total": 2390
      },
      {
        "club_badge_src": null,
        "entry": 557487,
        "entry_name": "FC Arwelona",
        "event_total": 75,
        "has_played": true,
        "id": 3751843,
        "last_rank": 25902,
        "player_name": "Arwen Elsinga",
        "rank": 13901,
        "rank_sort": 13930,
        "total": 2390
      },
      {
        "club_badge_src": "https://fantasy.premierleague.com/gcs/plfpl-production-adobe-approved/plfpl-production/626650/70134d8e-955e-4204-91c8-eb2993fe95a9.png",
        "entry": 626650,
        "entry_name": "XXI",
        "event_total": 60,
        "has_played": true,
        "id": 4234689,
        "last_rank": 15063,
        "player_name": "Abul Bashar",
        "rank": 13901,
        "rank_sort": 13931,
        "total": 2390
      },
      {
        "club_badge_src": null,
        "entry": 645291,
        "entry_name": "The Special Ones",
        "event_total": 56,
        "has_played": true,
        "id": 4360825,
        "last_rank": 10920,
        "player_name": "Khalid S",
        "rank": 13901,
        "rank_sort": 13932,
        "total": 2390
      },
      {
        "club_badge_src": null,
        "entry": 763905,
        "entry_name": "ARSENAL FC",
        "event_total": 60,
        "has_played": true,
        "id": 5209816,
        "last_rank": 15164,
        "player_name": "yusuf Nuhu",
        "rank": 13901,
        "rank_sort": 13933,
        "total": 2390
      },
      {
        "club_badge_src": null,
        "entry": 790102,
        "entry_name": "DreamGold",
        "event_total": 36,
        "has_played": true,
        "id": 5405971,
        "last_rank": 4570,
        "player_name": "Ahmed Mubarak",
        "rank": 13901,
        "rank_sort": 13934,
        "total": 2390
      },
      {
        "club_badge_src": null,
        "entry": 812953,
        "entry_name": "Visocki zeleni",
        "event_total": 65,
        "has_played": true,
        "id": 5566262,
        "last_rank": 18377,
        "player_name": "Enes Skopljak",
        "rank": 13901,
        "rank_sort": 13935,
        "total": 2390
      },
      {
        "club_badge_src": null,
        "entry": 866096,
        "entry_name": "BA United",
        "event_total": 53,
        "has_played": true,
        "id": 5937470,
        "last_rank": 11419,
        "player_name": "Bennet A",
        "rank": 13901,
        "rank_sort": 13936,
        "total": 2390
      },
      {
        "club_badge_src": "https://fantasy.premierleague.com/gcs/plfpl-production-adobe-approved/plfpl-production/952441/c2872d92-925e-4a26-a25d-ba2674d100a4.png",
        "entry": 952441,
        "entry_name": "Billion Bound Bottle",
        "event_total": 68,
        "has_played": true,
        "id": 6562088,
        "last_rank": 20538,
        "player_name": "Birk Helland",
        "rank": 13901,
        "rank_sort": 13937,
        "total": 2390
      },
      {
        "club_badge_src": "https://fantasy.premierleague.com/gcs/plfpl-production-adobe-approved/plfpl-production/953831/d416612c-89f0-4e46-b265-1edbf9af78bf.png",
        "entry": 953831,
        "entry_name": "Yoro Wissa Harry",
        "event_total": 80,
        "has_played": true,
        "id": 6571855,
        "last_rank": 31125,
        "player_name": "Jack Berry",
        "rank": 13901,
        "rank_sort": 13938,
        "total": 2390
      },
      {
        "club_badge_src": null,
        "entry": 964832,
        "entry_name": "Mobeck IL",
        "event_total": 68,
        "has_played": true,
        "id": 6649379,
        "last_rank": 20416,
        "player_name": "Sigurd Mobeck",
        "rank": 13901,
        "rank_sort": 13939,
        "total": 2390
      },
      {
        "club_badge_src": "https://fantasy.premierleague.com/gcs/plfpl-production-adobe-approved/plfpl-production/998670/aa266776-a7be-427e-a91b-057c3fac1caf.png",
        "entry": 998670,
        "entry_name": "Chaos in the box",
        "event_total": 54,
        "has_played": true,
        "id": 6901284,
        "last_rank": 11901,
        "player_name": "Richard Neale",
        "rank": 13901,
        "rank_sort": 13940,
        "total": 2390
      },
      {
        "club_badge_src": "https://fantasy.premierleague.com/gcs/plfpl-production-adobe-approved/plfpl-production/1154849/44e71f33-9f08-4621-899e-fed571020175.png",
        "entry": 1154849,
        "entry_name": "FPL Alex",
        "event_total": 83,
        "has_played": true,
        "id": 8008125,
        "last_rank": 34293,
        "player_name": "Alex Aliev",
        "rank": 13901,
        "rank_sort": 13941,
        "total": 2390
      },
      {
        "club_badge_src": null,
        "entry": 1222935,
        "entry_name": "Ekitikka MoSalah",
        "event_total": 63,
        "has_played": true,
        "id": 8490460,
        "last_rank": 16959,
        "player_name": "Aadarsh S",
        "rank": 13901,
        "rank_sort": 13942,
        "total": 2390
      },
      {
        "club_badge_src": null,
        "entry": 1255874,
        "entry_name": "Hard 2 Get",
        "event_total": 64,
        "has_played": true,
        "id": 8723303,
        "last_rank": 15063,
        "player_name": "Matthew Smithurst",
        "rank": 13901,
        "rank_sort": 13943,
        "total": 2390
      },
      {
        "club_badge_src": null,
        "entry": 1312632,
        "entry_name": "HaaCuhna Mateta",
        "event_total": 49,
        "has_played": true,
        "id": 9123810,
        "last_rank": 9711,
        "player_name": "Alan Doole",
        "rank": 13901,
        "rank_sort": 13944,
        "total": 2390
      },
      {
        "club_badge_src": "https://fantasy.premierleague.com/gcs/plfpl-production-adobe-approved/plfpl-production/1439690/7a0a97a0-66e0-442d-94f9-c07b85f49046.png",
        "entry": 1439690,
        "entry_name": "Catalunya cf",
        "event_total": 59,
        "has_played": true,
        "id": 10032076,
        "last_rank": 12322,
        "player_name": "Xavier Arla",
        "rank": 13901,
        "rank_sort": 13945,
        "total": 2390
      },
      {
        "club_badge_src": null,
        "entry": 1460692,
        "entry_name": "Cammy Junts",
        "event_total": 59,
        "has_played": true,
        "id": 10181721,
        "last_rank": 14604,
        "player_name": "Pete Harvey",
        "rank": 13901,
        "rank_sort": 13946,
        "total": 2390
      },
      {
        "club_badge_src": "https://fantasy.premierleague.com/gcs/plfpl-production-adobe-approved/plfpl-production/1473279/83be3581-a63e-45bc-9114-4b33ed4ac485.png",
        "entry": 1473279,
        "entry_name": "Farke in \u2018ell Mate!",
        "event_total": 60,
        "has_played": true,
        "id": 10269660,
        "last_rank": 15063,
        "player_name": "Jimmy white",
        "rank": 13901,
        "rank_sort": 13947,
        "total": 2390
      },
      {
        "club_badge_src": null,
        "entry": 1881917,
        "entry_name": "Redbaroni",
        "event_total": 60,
        "has_played": true,
        "id": 13259998,
        "last_rank": 15164,
        "player_name": "Paul Barron",
        "rank": 13901,
        "rank_sort": 13948,
        "total": 2390
      },
      {
        "club_badge_src": "https://fantasy.premierleague.com/gcs/plfpl-production-adobe-approved/plfpl-production/1956897/715b1cd6-4fb7-49fd-81b4-d77b7ab77a94.png",
        "entry": 1956897,
        "entry_name": "KING-MOHAMED-K9",
        "event_total": 59,
        "has_played": true,
        "id": 13805024,
        "last_rank": 12200,
        "player_name": "koudad mohamed",
        "rank": 13901,
        "rank_sort": 13949,
        "total": 2390
      },
      {
        "club_badge_src": null,
        "entry": 2270185,
        "entry_name": "21iscoming",
        "event_total": 51,
        "has_played": true,
        "id": 16187476,
        "last_rank": 10556,
        "player_name": "Oliver Higson-Guy",
        "rank": 13901,
        "rank_sort": 13950,
        "total": 2390
      }
    ]
  }
}