{
  "last_updated_data": "2026-05-24T23:28:17Z",
  "league": {
    "admin_entry": null,
    "closed": false,
    "code_privacy": "p",
    "created": "2025-07-20T23:14:33.933835Z",
    "cup_league": 2815434,
    "has_cup": true,
    "id": 314,
    "league_type": "s",
    "max_entries": null,
    "name": "Overall",
    "rank": null,
    "scoring": "c",
    "start_event": 1
  },
  "new_entries": {
    "has_next": false,
    "page": 1,
    "results": []
  },
  "standings": {
    "has_next": true,
    "page": 1034,
    "results": [
      {
        "club_badge_src": null,
        "entry": 1691452,
        "entry_name": "TOKTO SANSALEE",
        "event_total": 43,
        "has_played": true,
        "id": 11846022,
        "last_rank": 33332,
        "player_name": "TOKTO SANSALEE",
        "rank": 51550,
        "rank_sort": 51651,
        "total": 2351
      },
      {
        "club_badge_src": null,
        "entry": 1730725,
        "entry_name": "Amr FC",
        "event_total": 60,
        "has_played": true,
        "id": 12139227,
        "last_rank": 50199,
        "player_name": "Amr AbdElwahab",
        "rank": 51550,
        "rank_sort": 51652,
        "total": 2351
      },
      {
        "club_badge_src": null,
        "entry": 1760956,
        "entry_name": "Only Goats FC",
        "event_total": 57,
        "has_played": true,
        "id": 12363904,
        "last_rank": 45714,
        "player_name": "Piotr Bonecki",
        "rank": 51550,
        "rank_sort": 51653,
        "total": 2351
      },
      {
        "club_badge_src": null,
        "entry": 1806023,
        "entry_name": "My Own Wirtz Enemy",
        "event_total": 55,
        "has_played": true,
        "id": 12696796,
        "last_rank": 48898,
        "player_name": "Jamie Kirby",
        "rank": 51550,
        "rank_sort": 51654,
        "total": 2351
      },
      {
        "club_badge_src": null,
        "entry": 1846249,
        "entry_name": "ChickenTikkaMoSalah",
        "event_total": 62,
        "has_played": true,
        "id": 12990562,
        "last_rank": 53023,
        "player_name": "Nick Morris",
        "rank": 51550,
        "rank_sort": 51655,
        "total": 2351
      },
      {
        "club_badge_src": null,
        "entry": 1862141,
        "entry_name": "\u0634\u0627\u064a \u0627\u062e\u0636\u0631",
        "event_total": 71,
        "has_played": true,
        "id": 13106693,
        "last_rank": 77676,
        "player_name": "Joo Botros",
        "rank": 51550,
        "rank_sort": 51656,
        "total": 2351
      },
      {
        "club_badge_src": null,
        "entry": 1866666,
        "entry_name": "Mondo23 FC",
        "event_total": 68,
        "has_played": true,
        "id": 13139214,
        "last_rank": 63724,
        "player_name": "armand terruli",
        "rank": 51550,
        "rank_sort": 51657,
        "total": 2351
      },
      {
        "club_badge_src": null,
        "entry": 1884759,
        "entry_name": "MU_AK_2",
        "event_total": 68,
        "has_played": true,
        "id": 13280829,
        "last_rank": 71713,
        "player_name": "Andrej Kuruc\u00e1r",
        "rank": 51550,
        "rank_sort": 51658,
        "total": 2351
      },
      {
        "club_badge_src": null,
        "entry": 1954218,
        "entry_name": "Satii FC",
        "event_total": 64,
        "has_played": true,
        "id": 13785628,
        "last_rank": 64005,
        "player_name": "Satyam Subba",
        "rank": 51550,
        "rank_sort": 51659,
        "total": 2351
      },
      {
        "club_badge_src": null,
        "entry": 1970032,
        "entry_name": "This is the year",
        "event_total": 61,
        "has_played": true,
        "id": 13904118,
        "last_rank": 58071,
        "player_name": "Olivier Bastian",
        "rank": 51550,
        "rank_sort": 51660,
        "total": 2351
      },
      {
        "club_badge_src": null,
        "entry": 1975281,
        "entry_name": "\u00d8rnene",
        "event_total": 39,
        "has_played": true,
        "id": 13942749,
        "last_rank": 25172,
        "player_name": "Robert Ramberg",
        "rank": 51550,
        "rank_sort": 51661,
        "total": 2351
      },
      {
        "club_badge_src": "https://fantasy.premierleague.com/gcs/plfpl-production-adobe-approved/plfpl-production/2049891/40a9e274-31ec-4246-bc67-f00f1c48327d.png",
        "entry": 2049891,
        "entry_name": "TironTo",
        "event_total": 52,
        "has_played": true,
        "id": 14519228,
        "last_rank": 44525,
        "player_name": "Semanuel Gjakova",
        "rank": 51550,
        "rank_sort": 51662,
        "total": 2351
      },
      {
        "club_badge_src": null,
        "entry": 2138354,
        "entry_name": "Yahia6",
        "event_total": 59,
        "has_played": true,
        "id": 15197042,
        "last_rank": 55014,
        "player_name": "Yahia Badawy",
        "rank": 51550,
        "rank_sort": 51663,
        "total": 2351
      },
      {
        "club_badge_src": null,
        "entry": 2146339,
        "entry_name": "Jachas",
        "event_total": 66,
        "has_played": true,
        "id": 15255694,
        "last_rank": 67695,
        "player_name": "Jachas Jachas",
        "rank": 51550,
        "rank_sort": 51664,
        "total": 2351
      },
      {
        "club_badge_src": "https://fantasy.premierleague.com/gcs/plfpl-production-adobe-approved/plfpl-production/2152869/865b2ef3-7576-4e84-9676-496cc02ca9ab.png",
        "entry": 2152869,
        "entry_name": "Raptor FC",
        "event_total": 68,
        "has_played": true,
        "id": 15302669,
        "last_rank": 63724,
        "player_name": "Collin Kleest",
        "rank": 51550,
        "rank_sort": 51665,
        "total": 2351
      },
      {
        "club_badge_src": null,
        "entry": 2154771,
        "entry_name": "Inanjo Ogiriosa",
        "event_total": 42,
        "has_played": true,
        "id": 15316779,
        "last_rank": 32190,
        "player_name": "Sinmi Dele",
        "rank": 51550,
        "rank_sort": 51666,
        "total": 2351
      },
      {
        "club_badge_src": "https://fantasy.premierleague.com/gcs/plfpl-production-adobe-approved/plfpl-production/2221700/cee0d0fd-04b2-49e6-85cb-ad1dc31682be.png",
        "entry": 2221700,
        "entry_name": "-Artician-",
        "event_total": 62,
        "has_played": true,
        "id": 15823571,
        "last_rank": 46839,
        "player_name": "Kian Haw Kong",
        "rank": 51550,
        "rank_sort": 51667,
        "total": 2351
      },
      {
        "club_badge_src": null,
        "entry": 2223492,
        "entry_name": "Red Army",
        "event_total": 50,
        "has_played": true,
        "id": 15837364,
        "last_rank": 41824,
        "player_name": "Mansour Pers",
        "rank": 51550,
        "rank_sort": 51668,
        "total": 2351
      },
      {
        "club_badge_src": null,
        "entry": 2354833,
        "entry_name": "Mena Attia Alkomos",
        "event_total": 51,
        "has_played": true,
        "id": 16802608,
        "last_rank": 32879,
        "player_name": "mena atai1512",
        "rank": 51550,
        "rank_sort": 51669,
        "total": 2351
      },
      {
        "club_badge_src": null,
        "entry": 2359451,
        "entry_name": "Livin' Saliba Loca",
        "event_total": 57,
        "has_played": true,
        "id": 16838366,
        "last_rank": 51984,
        "player_name": "Adam Elliott",
        "rank": 51550,
        "rank_sort": 51670,
        "total": 2351
      },
      {
        "club_badge_src": null,
        "entry": 2361069,
        "entry_name": "AHH FFS",
        "event_total": 65,
        "has_played": true,
        "id": 16850314,
        "last_rank": 58388,
        "player_name": "niall keating",
        "rank": 51550,
        "rank_sort": 51671,
        "total": 2351
      },
      {
        "club_badge_src": "https://fantasy.premierleague.com/gcs/plfpl-production-adobe-approved/plfpl-production/2427622/855cb6ca-955b-43c9-a632-dde7839c6809.png",
        "entry": 2427622,
        "entry_name": "Toms XI",
        "event_total": 51,
        "has_played": true,
        "id": 17358443,
        "last_rank": 43168,
        "player_name": "Tom Platt",
        "rank": 51550,
        "rank_sort": 51672,
        "total": 2351
      },
      {
        "club_badge_src": null,
        "entry": 2481687,
        "entry_name": "Irens Disipler",
        "event_total": 50,
        "has_played": true,
        "id": 17757464,
        "last_rank": 41824,
        "player_name": "Aksel S\u00f8rloth",
        "rank": 51550,
        "rank_sort": 51673,
        "total": 2351
      },
      {
        "club_badge_src": null,
        "entry": 2487043,
        "entry_name": "More Than Wirtz",
        "event_total": 66,
        "has_played": true,
        "id": 17801388,
        "last_rank": 67422,
        "player_name": "Paul Noyce",
        "rank": 51550,
        "rank_sort": 51674,
        "total": 2351
      },
      {
        "club_badge_src": null,
        "entry": 2509235,
        "entry_name": "Carbotriceratops FC",
        "event_total": 52,
        "has_played": true,
        "id": 17970741,
        "last_rank": 44525,
        "player_name": "Ale Cho",
        "rank": 51550,
        "rank_sort": 51675,
        "total": 2351
      },
      {
        "club_badge_src": null,
        "entry": 2557861,
        "entry_name": "FreestonFC",
        "event_total": 47,
        "has_played": true,
        "id": 18342946,
        "last_rank": 38016,
        "player_name": "Will Freeston",
        "rank": 51550,
        "rank_sort": 51676,
        "total": 2351
      },
      {
        "club_badge_src": null,
        "entry": 2636564,
        "entry_name": "Xplayer",
        "event_total": 52,
        "has_played": true,
        "id": 18949080,
        "last_rank": 39023,
        "player_name": "Ahmed Akl",
        "rank": 51550,
        "rank_sort": 51677,
        "total": 2351
      },
      {
        "club_badge_src": "https://fantasy.premierleague.com/gcs/plfpl-production-adobe-approved/plfpl-production/2705207/358394c1-e4ca-42c6-bba7-40319fa41929.png",
        "entry": 2705207,
        "entry_name": "Garibaldi United",
        "event_total": 48,
        "has_played": true,
        "id": 19462088,
        "last_rank": 39246,
        "player_name": "Matt Alford",
        "rank": 51550,
        "rank_sort": 51678,
        "total": 2351
      },
      {
        "club_badge_src": "https://fantasy.premierleague.com/gcs/plfpl-production-adobe-approved/plfpl-production/2747207/a6f3dec6-d5fc-46ee-889c-63b8596708ab.png",
        "entry": 2747207,
        "entry_name": "Shawn Utd",
        "event_total": 67,
        "has_played": true,
        "id": 19908374,
        "last_rank": 61606,
        "player_name": "Sawan Kumar Salhotra",
        "rank": 51550,
        "rank_sort": 51679,
        "total": 2351
      },
      {
        "club_badge_src": "https://fantasy.premierleague.com/gcs/plfpl-production-adobe-approved/plfpl-production/2788251/dfab6f92-cb2d-4a1f-9922-e1f1e3ee8643.png",
        "entry": 2788251,
        "entry_name": "\u0631\u0628\u0646\u0627 \u0645\u0639\u0627\u0646\u0627",
        "event_total": 57,
        "has_played": true,
        "id": 20355990,
        "last_rank": 51984,
        "player_name": "seif gomaa",
        "rank": 51550,
        "rank_sort": 51680,
        "total": 2351
      },
      {
        "club_badge_src": null,
        "entry": 2803692,
        "entry_name": "Cold",
        "event_total": 61,
        "has_played": true,
        "id": 20474265,
        "last_rank": 58071,
        "player_name": "Menaw Bahiru",
        "rank": 51550,
        "rank_sort": 51681,
        "total": 2351
      },
      {
        "club_badge_src": null,
        "entry": 2820475,
        "entry_name": "Pilgrims Progress",
        "event_total": 59,
        "has_played": true,
        "id": 20605051,
        "last_rank": 55014,
        "player_name": "Francis Wilson",
        "rank": 51550,
        "rank_sort": 51682,
        "total": 2351
      },
      {
        "club_badge_src": null,
        "entry": 2865668,
        "entry_name": "Leathard's Lads",
        "event_total": 50,
        "has_played": true,
        "id": 20958835,
        "last_rank": 41824,
        "player_name": "Phil Leathard",
        "rank": 51550,
        "rank_sort": 51683,
        "total": 2351
      },
      {
        "club_badge_src": null,
        "entry": 2884639,
        "entry_name": "\u03a3\u03ba\u03cd\u03b2\u03b1\u03bb\u03b1",
        "event_total": 75,
        "has_played": true,
        "id": 21118345,
        "last_rank": 87074,
        "player_name": "\u0391\u03c7\u03b9\u03bb\u03bb\u03ad\u03b1\u03c2 \u039f\u03b9\u03ba\u03bf\u03bd\u03cc\u03bc\u03bf\u03c5",
        "rank": 51550,
        "rank_sort": 51684,
        "total": 2351
      },
      {
        "club_badge_src": null,
        "entry": 2893296,
        "entry_name": "ByeByeKev",
        "event_total": 57,
        "has_played": true,
        "id": 21192788,
        "last_rank": 51720,
        "player_name": "Jayesh Bhatter",
        "rank": 51550,
        "rank_sort": 51685,
        "total": 2351
      },
      {
        "club_badge_src": "https://fantasy.premierleague.com/gcs/plfpl-production-adobe-approved/plfpl-production/2950597/ee1dc7e8-c1bb-43a9-b769-9836d00b150b.png",
        "entry": 2950597,
        "entry_name": "FPL WATERnation",
        "event_total": 67,
        "has_played": true,
        "id": 21669670,
        "last_rank": 69641,
        "player_name": "mike kamande",
        "rank": 51550,
        "rank_sort": 51686,
        "total": 2351
      },
      {
        "club_badge_src": null,
        "entry": 2963304,
        "entry_name": "Brennan Jerry's",
        "event_total": 52,
        "has_played": true,
        "id": 21768856,
        "last_rank": 44525,
        "player_name": "Elliot Cloke",
        "rank": 51550,
        "rank_sort": 51687,
        "total": 2351
      },
      {
        "club_badge_src": null,
        "entry": 2969404,
        "entry_name": "Dude, where's Micah?",
        "event_total": 50,
        "has_played": true,
        "id": 21816763,
        "last_rank": 41824,
        "player_name": "Joel Grauf",
        "rank": 51550,
        "rank_sort": 51688,
        "total": 2351
      },
      {
        "club_badge_src": null,
        "entry": 2973160,
        "entry_name": "The Barron's",
        "event_total": 51,
        "has_played": true,
        "id": 21846029,
        "last_rank": 43168,
        "player_name": "Mike Barron",
        "rank": 51550,
        "rank_sort": 51689,
        "total": 2351
      },
      {
        "club_badge_src": null,
        "entry": 3050508,
        "entry_name": "Noom the gunner Th",
        "event_total": 71,
        "has_played": true,
        "id": 22457002,
        "last_rank": 78244,
        "player_name": "nuttawoot tugsin",
        "rank": 51550,
        "rank_sort": 51690,
        "total": 2351
      },
      {
        "club_badge_src": "https://fantasy.premierleague.com/gcs/plfpl-production-adobe-approved/plfpl-production/3098726/76606a14-e706-4735-b715-587eba5d8c71.png",
        "entry": 3098726,
        "entry_name": "BOBBO\u2019s krigare",
        "event_total": 67,
        "has_played": true,
        "id": 22844449,
        "last_rank": 69641,
        "player_name": "Hannes pettersson",
        "rank": 51550,
        "rank_sort": 51691,
        "total": 2351
      },
      {
        "club_badge_src": null,
        "entry": 3157906,
        "entry_name": "FC Ejdur 3.0",
        "event_total": 56,
        "has_played": true,
        "id": 23325597,
        "last_rank": 50199,
        "player_name": "Partrick Ejderfj\u00e4ll",
        "rank": 51550,
        "rank_sort": 51692,
        "total": 2351
      },
      {
        "club_badge_src": null,
        "entry": 3176702,
        "entry_name": "pivo",
        "event_total": 66,
        "has_played": true,
        "id": 23472978,
        "last_rank": 67695,
        "player_name": "Mihajlo Cvetkovic",
        "rank": 51550,
        "rank_sort": 51693,
        "total": 2351
      },
      {
        "club_badge_src": null,
        "entry": 3223431,
        "entry_name": "MeggyFC",
        "event_total": 61,
        "has_played": true,
        "id": 23837275,
        "last_rank": 58688,
        "player_name": "Megan Edwards",
        "rank": 51550,
        "rank_sort": 51694,
        "total": 2351
      },
      {
        "club_badge_src": "https://fantasy.premierleague.com/gcs/plfpl-production-adobe-approved/plfpl-production/3229569/8de033bb-2735-4821-ae66-6e0c9bbbe30c.png",
        "entry": 3229569,
        "entry_name": "FFC U CJ",
        "event_total": 50,
        "has_played": true,
        "id": 23884945,
        "last_rank": 36624,
        "player_name": "Razvan Arsene",
        "rank": 51550,
        "rank_sort": 51695,
        "total": 2351
      },
      {
        "club_badge_src": null,
        "entry": 3234982,
        "entry_name": "Friday FC",
        "event_total": 72,
        "has_played": true,
        "id": 23926663,
        "last_rank": 79817,
        "player_name": "Wahab Jumah",
        "rank": 51550,
        "rank_sort": 51696,
        "total": 2351
      },
      {
        "club_badge_src": null,
        "entry": 3253182,
        "entry_name": "Who Ate All Depays?",
        "event_total": 51,
        "has_played": true,
        "id": 24069642,
        "last_rank": 43168,
        "player_name": "Peter Heighway",
        "rank": 51550,
        "rank_sort": 51697,
        "total": 2351
      },
      {
        "club_badge_src": null,
        "entry": 3260911,
        "entry_name": "Mean McKeen",
        "event_total": 68,
        "has_played": true,
        "id": 24128757,
        "last_rank": 71956,
        "player_name": "Callum McKeen",
        "rank": 51550,
        "rank_sort": 51698,
        "total": 2351
      },
      {
        "club_badge_src": null,
        "entry": 3301417,
        "entry_name": "Alisson Wonderland",
        "event_total": 67,
        "has_played": true,
        "id": 24451903,
        "last_rank": 68957,
        "player_name": "George Afaka",
        "rank": 51550,
        "rank_sort": 51699,
        "total": 2351
      },
      {
        "club_badge_src": null,
        "entry": 3340719,
        "entry_name": "Barnstoneworth Utd",
        "event_total": 68,
        "has_played": true,
        "id": 24778480,
        "last_rank": 70985,
        "player_name": "Mark Taylor",
        "rank": 51550,
        "rank_sort": 51700,
        "total": 2351
      }
    ]
  }
}