{
  "last_updated_data": "2026-05-24T23:28:17Z",
  "league": {
    "admin_entry": null,
    "closed": false,
    "code_privacy": "p",
    "created": "2025-07-20T23:14:33.933835Z",
    "cup_league": 2815434,
    "has_cup": true,
    "id": 314,
    "league_type": "s",
    "max_entries": null,
    "name": "Overall",
    "rank": null,
    "scoring": "c",
    "start_event": 1
  },
  "new_entries": {
    "has_next": false,
    "page": 1,
    "results": []
  },
  "standings": {
    "has_next": true,
    "page": 1024,
    "results": [
      {
        "club_badge_src": null,
        "entry": 2523202,
        "entry_name": "Anonymous",
        "event_total": 45,
        "has_played": true,
        "id": 18079741,
        "last_rank": 35166,
        "player_name": "Anonymous ly",
        "rank": 51004,
        "rank_sort": 51151,
        "total": 2351
      },
      {
        "club_badge_src": null,
        "entry": 2534241,
        "entry_name": "Zubi Dooby Doo",
        "event_total": 68,
        "has_played": true,
        "id": 18161029,
        "last_rank": 70985,
        "player_name": "Ethan Chequer",
        "rank": 51004,
        "rank_sort": 51152,
        "total": 2351
      },
      {
        "club_badge_src": null,
        "entry": 2559924,
        "entry_name": "Vikings Reborn(Champ",
        "event_total": 52,
        "has_played": true,
        "id": 18358978,
        "last_rank": 43786,
        "player_name": "Gennings Omondi",
        "rank": 51004,
        "rank_sort": 51153,
        "total": 2351
      },
      {
        "club_badge_src": null,
        "entry": 2572103,
        "entry_name": "No Place I'd Radebe",
        "event_total": 55,
        "has_played": true,
        "id": 18456372,
        "last_rank": 48363,
        "player_name": "John Moran",
        "rank": 51004,
        "rank_sort": 51154,
        "total": 2351
      },
      {
        "club_badge_src": "https://fantasy.premierleague.com/gcs/plfpl-production-adobe-approved/plfpl-production/2586827/9989cb97-1628-44a8-baee-f5003c8bd52e.png",
        "entry": 2586827,
        "entry_name": "Bruno Dos Tres",
        "event_total": 59,
        "has_played": true,
        "id": 18570155,
        "last_rank": 54667,
        "player_name": "Antti Meriluoto",
        "rank": 51004,
        "rank_sort": 51155,
        "total": 2351
      },
      {
        "club_badge_src": null,
        "entry": 2595664,
        "entry_name": "Ruth Rovers",
        "event_total": 75,
        "has_played": true,
        "id": 18639262,
        "last_rank": 86304,
        "player_name": "Marcus Roberts",
        "rank": 51004,
        "rank_sort": 51156,
        "total": 2351
      },
      {
        "club_badge_src": null,
        "entry": 2609300,
        "entry_name": "Wshhhh",
        "event_total": 41,
        "has_played": true,
        "id": 18745711,
        "last_rank": 30957,
        "player_name": "Kenny .",
        "rank": 51004,
        "rank_sort": 51157,
        "total": 2351
      },
      {
        "club_badge_src": "https://fantasy.premierleague.com/gcs/plfpl-production-adobe-approved/plfpl-production/2630714/5d96c67f-a69f-4a4c-9050-1dba9d505964.png",
        "entry": 2630714,
        "entry_name": "Mo Fc",
        "event_total": 52,
        "has_played": true,
        "id": 18906018,
        "last_rank": 43849,
        "player_name": "Mohamed Akmal",
        "rank": 51004,
        "rank_sort": 51158,
        "total": 2351
      },
      {
        "club_badge_src": null,
        "entry": 2822606,
        "entry_name": "Pain In Diaz",
        "event_total": 61,
        "has_played": true,
        "id": 20621831,
        "last_rank": 57776,
        "player_name": "Finn Hunter",
        "rank": 51004,
        "rank_sort": 51159,
        "total": 2351
      },
      {
        "club_badge_src": null,
        "entry": 2840438,
        "entry_name": "jameson",
        "event_total": 61,
        "has_played": true,
        "id": 20760286,
        "last_rank": 58071,
        "player_name": "Stipe \u010covi\u0107",
        "rank": 51004,
        "rank_sort": 51160,
        "total": 2351
      },
      {
        "club_badge_src": null,
        "entry": 2844978,
        "entry_name": "Fc Wirtz",
        "event_total": 66,
        "has_played": true,
        "id": 20797904,
        "last_rank": 66693,
        "player_name": "Teme Longley",
        "rank": 51004,
        "rank_sort": 51161,
        "total": 2351
      },
      {
        "club_badge_src": null,
        "entry": 2845509,
        "entry_name": "Four Four Three FC",
        "event_total": 65,
        "has_played": true,
        "id": 20802136,
        "last_rank": 65163,
        "player_name": "Jack Theobald",
        "rank": 51004,
        "rank_sort": 51162,
        "total": 2351
      },
      {
        "club_badge_src": null,
        "entry": 2916820,
        "entry_name": "Brain",
        "event_total": 51,
        "has_played": true,
        "id": 21379908,
        "last_rank": 42648,
        "player_name": "akamu fc",
        "rank": 51004,
        "rank_sort": 51163,
        "total": 2351
      },
      {
        "club_badge_src": null,
        "entry": 2933488,
        "entry_name": "madrid_oussama",
        "event_total": 55,
        "has_played": true,
        "id": 21518925,
        "last_rank": 48642,
        "player_name": "Madrid Oussama",
        "rank": 51004,
        "rank_sort": 51164,
        "total": 2351
      },
      {
        "club_badge_src": null,
        "entry": 2957472,
        "entry_name": "Topp",
        "event_total": 46,
        "has_played": true,
        "id": 21722890,
        "last_rank": 36348,
        "player_name": "Andreas Topp Nielsen",
        "rank": 51004,
        "rank_sort": 51165,
        "total": 2351
      },
      {
        "club_badge_src": null,
        "entry": 2984025,
        "entry_name": "wilko stares at goat",
        "event_total": 49,
        "has_played": true,
        "id": 21940792,
        "last_rank": 40297,
        "player_name": "Aidan Conlon-Taylor",
        "rank": 51004,
        "rank_sort": 51166,
        "total": 2351
      },
      {
        "club_badge_src": null,
        "entry": 2984349,
        "entry_name": "Just the Wirtz",
        "event_total": 55,
        "has_played": true,
        "id": 21943385,
        "last_rank": 48363,
        "player_name": "Justin Lewis",
        "rank": 51004,
        "rank_sort": 51167,
        "total": 2351
      },
      {
        "club_badge_src": null,
        "entry": 3027073,
        "entry_name": "Emmy & Cassie",
        "event_total": 70,
        "has_played": true,
        "id": 22273429,
        "last_rank": 74898,
        "player_name": "Chris Ingram",
        "rank": 51004,
        "rank_sort": 51168,
        "total": 2351
      },
      {
        "club_badge_src": null,
        "entry": 3087061,
        "entry_name": "Tarsiano11",
        "event_total": 71,
        "has_played": true,
        "id": 22744937,
        "last_rank": 77258,
        "player_name": "Tars Scheers",
        "rank": 51004,
        "rank_sort": 51169,
        "total": 2351
      },
      {
        "club_badge_src": null,
        "entry": 3157920,
        "entry_name": "ever  hopeful",
        "event_total": 29,
        "has_played": true,
        "id": 23325720,
        "last_rank": 20179,
        "player_name": "John Hinkins",
        "rank": 51004,
        "rank_sort": 51170,
        "total": 2351
      },
      {
        "club_badge_src": null,
        "entry": 3186775,
        "entry_name": "Mika Al-Teta",
        "event_total": 59,
        "has_played": true,
        "id": 23550596,
        "last_rank": 54667,
        "player_name": "Shah Rahman",
        "rank": 51004,
        "rank_sort": 51171,
        "total": 2351
      },
      {
        "club_badge_src": "https://fantasy.premierleague.com/gcs/plfpl-production-adobe-approved/plfpl-production/3234051/9885bfa4-b839-48dd-ad43-63c674f3a88d.png",
        "entry": 3234051,
        "entry_name": "OKAN FC",
        "event_total": 74,
        "has_played": true,
        "id": 23919479,
        "last_rank": 83698,
        "player_name": "Odafe Okandeji",
        "rank": 51004,
        "rank_sort": 51172,
        "total": 2351
      },
      {
        "club_badge_src": null,
        "entry": 3373578,
        "entry_name": "Omar Tarek",
        "event_total": 51,
        "has_played": true,
        "id": 25037246,
        "last_rank": 42940,
        "player_name": "Omar Mohamed",
        "rank": 51004,
        "rank_sort": 51173,
        "total": 2351
      },
      {
        "club_badge_src": null,
        "entry": 3397465,
        "entry_name": "an_eye_4_an_eye",
        "event_total": 68,
        "has_played": true,
        "id": 25224725,
        "last_rank": 70757,
        "player_name": "Adewale Praiseworth",
        "rank": 51004,
        "rank_sort": 51174,
        "total": 2351
      },
      {
        "club_badge_src": "https://fantasy.premierleague.com/gcs/plfpl-production-adobe-approved/plfpl-production/3458615/d61f4f1d-0452-40b4-b68d-4decea3ef3c0.png",
        "entry": 3458615,
        "entry_name": "MRC Albion",
        "event_total": 63,
        "has_played": true,
        "id": 25707295,
        "last_rank": 61315,
        "player_name": "Jordy Valdo",
        "rank": 51004,
        "rank_sort": 51175,
        "total": 2351
      },
      {
        "club_badge_src": null,
        "entry": 3479159,
        "entry_name": "Chiellini Con Carne",
        "event_total": 75,
        "has_played": true,
        "id": 25870006,
        "last_rank": 86304,
        "player_name": "Noah Keatley Whyte",
        "rank": 51004,
        "rank_sort": 51176,
        "total": 2351
      },
      {
        "club_badge_src": null,
        "entry": 3480338,
        "entry_name": "Mortens boys",
        "event_total": 47,
        "has_played": true,
        "id": 25879293,
        "last_rank": 37589,
        "player_name": "Morten Pedersen",
        "rank": 51004,
        "rank_sort": 51177,
        "total": 2351
      },
      {
        "club_badge_src": null,
        "entry": 3498169,
        "entry_name": "Hakuna Mateta",
        "event_total": 48,
        "has_played": true,
        "id": 26020610,
        "last_rank": 39023,
        "player_name": "Corum Jameson",
        "rank": 51004,
        "rank_sort": 51178,
        "total": 2351
      },
      {
        "club_badge_src": null,
        "entry": 3528081,
        "entry_name": "Sgorio",
        "event_total": 50,
        "has_played": true,
        "id": 26257504,
        "last_rank": 41324,
        "player_name": "Wes Harris",
        "rank": 51004,
        "rank_sort": 51179,
        "total": 2351
      },
      {
        "club_badge_src": null,
        "entry": 3533171,
        "entry_name": "Onanarama",
        "event_total": 61,
        "has_played": true,
        "id": 26297076,
        "last_rank": 58071,
        "player_name": "Joseph Richardson",
        "rank": 51004,
        "rank_sort": 51180,
        "total": 2351
      },
      {
        "club_badge_src": null,
        "entry": 3583473,
        "entry_name": "Woody FC",
        "event_total": 71,
        "has_played": true,
        "id": 26685981,
        "last_rank": 77050,
        "player_name": "Callum Wood",
        "rank": 51004,
        "rank_sort": 51181,
        "total": 2351
      },
      {
        "club_badge_src": null,
        "entry": 3626090,
        "entry_name": "Stoke",
        "event_total": 61,
        "has_played": true,
        "id": 27018835,
        "last_rank": 58071,
        "player_name": "Kjell-Ivar Myhr",
        "rank": 51004,
        "rank_sort": 51182,
        "total": 2351
      },
      {
        "club_badge_src": null,
        "entry": 3683381,
        "entry_name": "Haaland, not yours",
        "event_total": 47,
        "has_played": true,
        "id": 27476589,
        "last_rank": 37589,
        "player_name": "Ashwin Ahuja",
        "rank": 51004,
        "rank_sort": 51183,
        "total": 2351
      },
      {
        "club_badge_src": "https://fantasy.premierleague.com/gcs/plfpl-production-adobe-approved/plfpl-production/3698821/8f455ebe-1cd1-4fb5-bb95-72334dd20761.png",
        "entry": 3698821,
        "entry_name": "BrumGulls",
        "event_total": 63,
        "has_played": true,
        "id": 27596845,
        "last_rank": 61606,
        "player_name": "Martin Roberts",
        "rank": 51004,
        "rank_sort": 51184,
        "total": 2351
      },
      {
        "club_badge_src": null,
        "entry": 3718094,
        "entry_name": "Brennan XI",
        "event_total": 50,
        "has_played": true,
        "id": 27746071,
        "last_rank": 41162,
        "player_name": "Shay Brennan",
        "rank": 51004,
        "rank_sort": 51185,
        "total": 2351
      },
      {
        "club_badge_src": "https://fantasy.premierleague.com/gcs/plfpl-production-adobe-approved/plfpl-production/3843686/47d805dc-51e9-4685-a8fc-6d1eba725b73.png",
        "entry": 3843686,
        "entry_name": "Furetre",
        "event_total": 56,
        "has_played": true,
        "id": 28802824,
        "last_rank": 49880,
        "player_name": "Steffen Furevik",
        "rank": 51004,
        "rank_sort": 51186,
        "total": 2351
      },
      {
        "club_badge_src": null,
        "entry": 3957192,
        "entry_name": "1899",
        "event_total": 58,
        "has_played": true,
        "id": 29772155,
        "last_rank": 52853,
        "player_name": "David Wredling",
        "rank": 51004,
        "rank_sort": 51187,
        "total": 2351
      },
      {
        "club_badge_src": null,
        "entry": 4008918,
        "entry_name": "legalise qorn",
        "event_total": 32,
        "has_played": true,
        "id": 30200900,
        "last_rank": 22685,
        "player_name": "Ethan Lloyd",
        "rank": 51004,
        "rank_sort": 51188,
        "total": 2351
      },
      {
        "club_badge_src": null,
        "entry": 4033166,
        "entry_name": "MakeUnitedGreatAgain",
        "event_total": 49,
        "has_played": true,
        "id": 30407789,
        "last_rank": 40297,
        "player_name": "Lasse Olsen",
        "rank": 51004,
        "rank_sort": 51189,
        "total": 2351
      },
      {
        "club_badge_src": null,
        "entry": 4110010,
        "entry_name": "Bruno Dos Tres",
        "event_total": 50,
        "has_played": true,
        "id": 31039295,
        "last_rank": 41324,
        "player_name": "Matt Rose",
        "rank": 51004,
        "rank_sort": 51190,
        "total": 2351
      },
      {
        "club_badge_src": null,
        "entry": 4165571,
        "entry_name": "LWFC",
        "event_total": 55,
        "has_played": true,
        "id": 31500267,
        "last_rank": 48197,
        "player_name": "Liam Woolley",
        "rank": 51004,
        "rank_sort": 51191,
        "total": 2351
      },
      {
        "club_badge_src": "https://fantasy.premierleague.com/gcs/plfpl-production-adobe-approved/plfpl-production/4201384/bef8b674-2c75-4474-97ec-a64ad8d49a9b.png",
        "entry": 4201384,
        "entry_name": "Mahyak Fc",
        "event_total": 69,
        "has_played": true,
        "id": 31803423,
        "last_rank": 73038,
        "player_name": "Mahmud Yakubu",
        "rank": 51004,
        "rank_sort": 51192,
        "total": 2351
      },
      {
        "club_badge_src": null,
        "entry": 4225410,
        "entry_name": "Ibiza Final Moush",
        "event_total": 68,
        "has_played": true,
        "id": 32011004,
        "last_rank": 70985,
        "player_name": "Ryan Coombs",
        "rank": 51004,
        "rank_sort": 51193,
        "total": 2351
      },
      {
        "club_badge_src": null,
        "entry": 4295184,
        "entry_name": "Like My Dreams",
        "event_total": 57,
        "has_played": true,
        "id": 32583638,
        "last_rank": 51403,
        "player_name": "Nicky Foster",
        "rank": 51004,
        "rank_sort": 51194,
        "total": 2351
      },
      {
        "club_badge_src": "https://fantasy.premierleague.com/gcs/plfpl-production-adobe-approved/plfpl-production/4301590/2dac73d5-032f-4055-81cd-e2e35dd835e7.png",
        "entry": 4301590,
        "entry_name": "sambaa fc",
        "event_total": 48,
        "has_played": true,
        "id": 32635066,
        "last_rank": 38774,
        "player_name": "Samuel Seo",
        "rank": 51004,
        "rank_sort": 51195,
        "total": 2351
      },
      {
        "club_badge_src": null,
        "entry": 4349858,
        "entry_name": "Sr1rxm",
        "event_total": 57,
        "has_played": true,
        "id": 33031225,
        "last_rank": 51403,
        "player_name": "D Sriram",
        "rank": 51004,
        "rank_sort": 51196,
        "total": 2351
      },
      {
        "club_badge_src": null,
        "entry": 4433559,
        "entry_name": "You Got Dis-Graced",
        "event_total": 58,
        "has_played": true,
        "id": 33755409,
        "last_rank": 52759,
        "player_name": "grace goldstein",
        "rank": 51004,
        "rank_sort": 51197,
        "total": 2351
      },
      {
        "club_badge_src": null,
        "entry": 4471316,
        "entry_name": "Naan Thaan da Leo",
        "event_total": 59,
        "has_played": true,
        "id": 34072772,
        "last_rank": 54667,
        "player_name": "Venkat Natarajan",
        "rank": 51004,
        "rank_sort": 51198,
        "total": 2351
      },
      {
        "club_badge_src": "https://fantasy.premierleague.com/gcs/plfpl-production-adobe-approved/plfpl-production/4580786/4992f9fc-7841-41f4-989c-53938adc081c.png",
        "entry": 4580786,
        "entry_name": "El Team",
        "event_total": 61,
        "has_played": true,
        "id": 34969437,
        "last_rank": 57857,
        "player_name": "Ahmed ElRuby",
        "rank": 51004,
        "rank_sort": 51199,
        "total": 2351
      },
      {
        "club_badge_src": null,
        "entry": 4632769,
        "entry_name": "How Dalot can we go?",
        "event_total": 43,
        "has_played": true,
        "id": 35425066,
        "last_rank": 32879,
        "player_name": "Herman Solem",
        "rank": 51004,
        "rank_sort": 51200,
        "total": 2351
      }
    ]
  }
}