{
  "last_updated_data": "2026-05-24T23:28:17Z",
  "league": {
    "admin_entry": null,
    "closed": false,
    "code_privacy": "p",
    "created": "2025-07-20T23:14:33.933835Z",
    "cup_league": 2815434,
    "has_cup": true,
    "id": 314,
    "league_type": "s",
    "max_entries": null,
    "name": "Overall",
    "rank": null,
    "scoring": "c",
    "start_event": 1
  },
  "new_entries": {
    "has_next": false,
    "page": 1,
    "results": []
  },
  "standings": {
    "has_next": true,
    "page": 784,
    "results": [
      {
        "club_badge_src": null,
        "entry": 906275,
        "entry_name": "Dixon Balls FC",
        "event_total": 63,
        "has_played": true,
        "id": 6229591,
        "last_rank": 47417,
        "player_name": "Byron Jones",
        "rank": 39094,
        "rank_sort": 39151,
        "total": 2360
      },
      {
        "club_badge_src": null,
        "entry": 952233,
        "entry_name": "Footbapalooza",
        "event_total": 55,
        "has_played": true,
        "id": 6560628,
        "last_rank": 36831,
        "player_name": "Juan Caicedo",
        "rank": 39094,
        "rank_sort": 39152,
        "total": 2360
      },
      {
        "club_badge_src": null,
        "entry": 957572,
        "entry_name": "Kirp",
        "event_total": 73,
        "has_played": true,
        "id": 6598078,
        "last_rank": 63724,
        "player_name": "igor tyshchenko",
        "rank": 39094,
        "rank_sort": 39153,
        "total": 2360
      },
      {
        "club_badge_src": null,
        "entry": 1044915,
        "entry_name": "The Wallies",
        "event_total": 45,
        "has_played": true,
        "id": 7231431,
        "last_rank": 26230,
        "player_name": "martin robinson",
        "rank": 39094,
        "rank_sort": 39154,
        "total": 2360
      },
      {
        "club_badge_src": null,
        "entry": 1046239,
        "entry_name": "ultras flame boys",
        "event_total": 64,
        "has_played": true,
        "id": 7240670,
        "last_rank": 48363,
        "player_name": "Xzero Aziz",
        "rank": 39094,
        "rank_sort": 39155,
        "total": 2360
      },
      {
        "club_badge_src": null,
        "entry": 1084139,
        "entry_name": "AlAhly",
        "event_total": 50,
        "has_played": true,
        "id": 7506852,
        "last_rank": 23341,
        "player_name": "Ahmed Rashad",
        "rank": 39094,
        "rank_sort": 39156,
        "total": 2360
      },
      {
        "club_badge_src": null,
        "entry": 1091486,
        "entry_name": "shop filemonni",
        "event_total": 55,
        "has_played": true,
        "id": 7559453,
        "last_rank": 31995,
        "player_name": "Pietari Kykk\u00e4nen",
        "rank": 39094,
        "rank_sort": 39157,
        "total": 2360
      },
      {
        "club_badge_src": null,
        "entry": 1094556,
        "entry_name": "hoopers no hopers",
        "event_total": 52,
        "has_played": true,
        "id": 7580947,
        "last_rank": 33332,
        "player_name": "Lee Hooper",
        "rank": 39094,
        "rank_sort": 39158,
        "total": 2360
      },
      {
        "club_badge_src": null,
        "entry": 1102745,
        "entry_name": "Hakuna Mateta",
        "event_total": 69,
        "has_played": true,
        "id": 7638416,
        "last_rank": 56708,
        "player_name": "Archie Gibson",
        "rank": 39094,
        "rank_sort": 39159,
        "total": 2360
      },
      {
        "club_badge_src": null,
        "entry": 1104392,
        "entry_name": "The Mighty Ducks",
        "event_total": 66,
        "has_played": true,
        "id": 7649847,
        "last_rank": 52205,
        "player_name": "Harry Duckels",
        "rank": 39094,
        "rank_sort": 39160,
        "total": 2360
      },
      {
        "club_badge_src": null,
        "entry": 1133863,
        "entry_name": "Pope Matthew",
        "event_total": 71,
        "has_played": true,
        "id": 7859710,
        "last_rank": 46839,
        "player_name": "Matthew Barrett",
        "rank": 39094,
        "rank_sort": 39161,
        "total": 2360
      },
      {
        "club_badge_src": null,
        "entry": 1149335,
        "entry_name": "HD",
        "event_total": 51,
        "has_played": true,
        "id": 7968961,
        "last_rank": 32190,
        "player_name": "Christoffer Burman",
        "rank": 39094,
        "rank_sort": 39162,
        "total": 2360
      },
      {
        "club_badge_src": null,
        "entry": 1151894,
        "entry_name": "To Mo or Not to Mo",
        "event_total": 62,
        "has_played": true,
        "id": 7986824,
        "last_rank": 45927,
        "player_name": "Ashvir Harcharan",
        "rank": 39094,
        "rank_sort": 39163,
        "total": 2360
      },
      {
        "club_badge_src": null,
        "entry": 1161722,
        "entry_name": "Pain in Dias",
        "event_total": 53,
        "has_played": true,
        "id": 8058671,
        "last_rank": 34458,
        "player_name": "Dexter Dawes",
        "rank": 39094,
        "rank_sort": 39164,
        "total": 2360
      },
      {
        "club_badge_src": null,
        "entry": 1187094,
        "entry_name": "JuanPoker",
        "event_total": 42,
        "has_played": true,
        "id": 8236536,
        "last_rank": 23748,
        "player_name": "youssef lab",
        "rank": 39094,
        "rank_sort": 39165,
        "total": 2360
      },
      {
        "club_badge_src": null,
        "entry": 1231011,
        "entry_name": "FC Suso",
        "event_total": 60,
        "has_played": true,
        "id": 8547913,
        "last_rank": 37822,
        "player_name": "David Stefansson",
        "rank": 39094,
        "rank_sort": 39166,
        "total": 2360
      },
      {
        "club_badge_src": "https://fantasy.premierleague.com/gcs/plfpl-production-adobe-approved/plfpl-production/1381056/01459794-81be-4c3f-88b6-f601f31dbe82.png",
        "entry": 1381056,
        "entry_name": "Victoria's secret",
        "event_total": 63,
        "has_played": true,
        "id": 9604448,
        "last_rank": 36348,
        "player_name": "victoria johnson",
        "rank": 39094,
        "rank_sort": 39167,
        "total": 2360
      },
      {
        "club_badge_src": null,
        "entry": 1391571,
        "entry_name": "Glenweiss",
        "event_total": 59,
        "has_played": true,
        "id": 9680985,
        "last_rank": 41324,
        "player_name": "Andreas Glenvig",
        "rank": 39094,
        "rank_sort": 39168,
        "total": 2360
      },
      {
        "club_badge_src": null,
        "entry": 1415156,
        "entry_name": "Foden to the Lions",
        "event_total": 59,
        "has_played": true,
        "id": 9850499,
        "last_rank": 36348,
        "player_name": "James Robinson",
        "rank": 39094,
        "rank_sort": 39169,
        "total": 2360
      },
      {
        "club_badge_src": null,
        "entry": 1431084,
        "entry_name": "B.L.L",
        "event_total": 68,
        "has_played": true,
        "id": 9971844,
        "last_rank": 55014,
        "player_name": "Belal Mohamed",
        "rank": 39094,
        "rank_sort": 39170,
        "total": 2360
      },
      {
        "club_badge_src": "https://fantasy.premierleague.com/gcs/plfpl-production-adobe-approved/plfpl-production/1483524/59e504bd-0424-429c-a68b-5d545a698d70.png",
        "entry": 1483524,
        "entry_name": "Krulinhos FC",
        "event_total": 64,
        "has_played": true,
        "id": 10345188,
        "last_rank": 48898,
        "player_name": "Igor Krulik",
        "rank": 39094,
        "rank_sort": 39171,
        "total": 2360
      },
      {
        "club_badge_src": null,
        "entry": 1537916,
        "entry_name": "Titus Shambles",
        "event_total": 55,
        "has_played": true,
        "id": 10733344,
        "last_rank": 31995,
        "player_name": "James Woolley",
        "rank": 39094,
        "rank_sort": 39172,
        "total": 2360
      },
      {
        "club_badge_src": null,
        "entry": 1703365,
        "entry_name": "Rutter woke nonsense",
        "event_total": 36,
        "has_played": true,
        "id": 11932295,
        "last_rank": 19103,
        "player_name": "Oliver Craig",
        "rank": 39094,
        "rank_sort": 39173,
        "total": 2360
      },
      {
        "club_badge_src": null,
        "entry": 1826676,
        "entry_name": "Team Mona FC",
        "event_total": 76,
        "has_played": true,
        "id": 12848352,
        "last_rank": 61606,
        "player_name": "Mona Jahr Pedersen",
        "rank": 39094,
        "rank_sort": 39174,
        "total": 2360
      },
      {
        "club_badge_src": null,
        "entry": 1838084,
        "entry_name": "Swedish House Mafia",
        "event_total": 85,
        "has_played": true,
        "id": 12931157,
        "last_rank": 89426,
        "player_name": "Sebastian Hansen",
        "rank": 39094,
        "rank_sort": 39175,
        "total": 2360
      },
      {
        "club_badge_src": "https://fantasy.premierleague.com/gcs/plfpl-production-adobe-approved/plfpl-production/1922441/1a81a624-8ba3-4ec6-9f75-763cf9021ad1.png",
        "entry": 1922441,
        "entry_name": "One Step Klose",
        "event_total": 64,
        "has_played": true,
        "id": 13557380,
        "last_rank": 48898,
        "player_name": "Mwamba Lombe",
        "rank": 39094,
        "rank_sort": 39176,
        "total": 2360
      },
      {
        "club_badge_src": null,
        "entry": 1945495,
        "entry_name": "Huy city",
        "event_total": 64,
        "has_played": true,
        "id": 13723285,
        "last_rank": 48898,
        "player_name": "Huy Doan",
        "rank": 39094,
        "rank_sort": 39177,
        "total": 2360
      },
      {
        "club_badge_src": null,
        "entry": 1968576,
        "entry_name": "Half The Wirtz Away",
        "event_total": 61,
        "has_played": true,
        "id": 13893019,
        "last_rank": 44525,
        "player_name": "Lewis Harbon",
        "rank": 39094,
        "rank_sort": 39178,
        "total": 2360
      },
      {
        "club_badge_src": null,
        "entry": 1991888,
        "entry_name": "KWG",
        "event_total": 60,
        "has_played": true,
        "id": 14073593,
        "last_rank": 37822,
        "player_name": "Kalle Gustafsson",
        "rank": 39094,
        "rank_sort": 39179,
        "total": 2360
      },
      {
        "club_badge_src": null,
        "entry": 2024358,
        "entry_name": "Beckdeaw",
        "event_total": 61,
        "has_played": true,
        "id": 14326496,
        "last_rank": 44525,
        "player_name": "Pobpong Brahmaputra",
        "rank": 39094,
        "rank_sort": 39180,
        "total": 2360
      },
      {
        "club_badge_src": null,
        "entry": 2046964,
        "entry_name": "Wolfies Wonders",
        "event_total": 70,
        "has_played": true,
        "id": 14497332,
        "last_rank": 58388,
        "player_name": "Matthew Wolfe",
        "rank": 39094,
        "rank_sort": 39181,
        "total": 2360
      },
      {
        "club_badge_src": null,
        "entry": 2059704,
        "entry_name": "Listenent",
        "event_total": 63,
        "has_played": true,
        "id": 14592605,
        "last_rank": 47417,
        "player_name": "Nemanja Milojevic",
        "rank": 39094,
        "rank_sort": 39182,
        "total": 2360
      },
      {
        "club_badge_src": "https://fantasy.premierleague.com/gcs/plfpl-production-adobe-approved/plfpl-production/2069495/85bdf516-c1a6-44fc-a89c-d67cbb7385e8.png",
        "entry": 2069495,
        "entry_name": "Juku Eja",
        "event_total": 65,
        "has_played": true,
        "id": 14669858,
        "last_rank": 44303,
        "player_name": "ryan akmal",
        "rank": 39094,
        "rank_sort": 39183,
        "total": 2360
      },
      {
        "club_badge_src": "https://fantasy.premierleague.com/gcs/plfpl-production-adobe-approved/plfpl-production/2077913/0b76598b-5f3b-444d-907c-348afd9aabe5.png",
        "entry": 2077913,
        "entry_name": "Quay to the Wagon",
        "event_total": 63,
        "has_played": true,
        "id": 14733203,
        "last_rank": 47417,
        "player_name": "Robert Summerscales",
        "rank": 39094,
        "rank_sort": 39184,
        "total": 2360
      },
      {
        "club_badge_src": null,
        "entry": 2167380,
        "entry_name": "Tredje halvlek",
        "event_total": 64,
        "has_played": true,
        "id": 15409513,
        "last_rank": 48642,
        "player_name": "markus \u00e5bom",
        "rank": 39094,
        "rank_sort": 39185,
        "total": 2360
      },
      {
        "club_badge_src": null,
        "entry": 2270860,
        "entry_name": "Collier FC",
        "event_total": 68,
        "has_played": true,
        "id": 16192282,
        "last_rank": 55014,
        "player_name": "Dominic Collier",
        "rank": 39094,
        "rank_sort": 39186,
        "total": 2360
      },
      {
        "club_badge_src": null,
        "entry": 2272780,
        "entry_name": "Sir Lumi",
        "event_total": 52,
        "has_played": true,
        "id": 16206189,
        "last_rank": 33332,
        "player_name": "Lumi Lof",
        "rank": 39094,
        "rank_sort": 39187,
        "total": 2360
      },
      {
        "club_badge_src": null,
        "entry": 2342427,
        "entry_name": "Bayernhool",
        "event_total": 62,
        "has_played": true,
        "id": 16713957,
        "last_rank": 45927,
        "player_name": "Magnus Bogstad",
        "rank": 39094,
        "rank_sort": 39188,
        "total": 2360
      },
      {
        "club_badge_src": null,
        "entry": 2412926,
        "entry_name": "The Gy\u00f6k Destroyers",
        "event_total": 55,
        "has_played": true,
        "id": 17248697,
        "last_rank": 36831,
        "player_name": "Adam Gregory",
        "rank": 39094,
        "rank_sort": 39189,
        "total": 2360
      },
      {
        "club_badge_src": null,
        "entry": 2421869,
        "entry_name": "fells finest",
        "event_total": 47,
        "has_played": true,
        "id": 17314993,
        "last_rank": 24330,
        "player_name": "John Fell",
        "rank": 39094,
        "rank_sort": 39190,
        "total": 2360
      },
      {
        "club_badge_src": null,
        "entry": 2454951,
        "entry_name": "Bramback",
        "event_total": 72,
        "has_played": true,
        "id": 17559199,
        "last_rank": 61950,
        "player_name": "Maxime Abrams",
        "rank": 39094,
        "rank_sort": 39191,
        "total": 2360
      },
      {
        "club_badge_src": null,
        "entry": 2468319,
        "entry_name": "JP Van hecke yeah",
        "event_total": 49,
        "has_played": true,
        "id": 17657260,
        "last_rank": 29904,
        "player_name": "Jack Sandell",
        "rank": 39094,
        "rank_sort": 39192,
        "total": 2360
      },
      {
        "club_badge_src": null,
        "entry": 2482544,
        "entry_name": "Gresvikallstar fc",
        "event_total": 59,
        "has_played": true,
        "id": 17763999,
        "last_rank": 36348,
        "player_name": "H\u00e5vard L\u00f8yland",
        "rank": 39094,
        "rank_sort": 39193,
        "total": 2360
      },
      {
        "club_badge_src": null,
        "entry": 2767439,
        "entry_name": "KaiCunha Mateta",
        "event_total": 61,
        "has_played": true,
        "id": 20191276,
        "last_rank": 44303,
        "player_name": "Tom\u00e1s Sheil",
        "rank": 39094,
        "rank_sort": 39194,
        "total": 2360
      },
      {
        "club_badge_src": null,
        "entry": 2812316,
        "entry_name": "Twenty Two",
        "event_total": 71,
        "has_played": true,
        "id": 20540979,
        "last_rank": 60462,
        "player_name": "Shahaf Fligeltaub",
        "rank": 39094,
        "rank_sort": 39195,
        "total": 2360
      },
      {
        "club_badge_src": null,
        "entry": 2827155,
        "entry_name": "Hicham Boughalim",
        "event_total": 48,
        "has_played": true,
        "id": 20656451,
        "last_rank": 25172,
        "player_name": "Hicham boughalim",
        "rank": 39094,
        "rank_sort": 39196,
        "total": 2360
      },
      {
        "club_badge_src": null,
        "entry": 2914103,
        "entry_name": "TACtician",
        "event_total": 54,
        "has_played": true,
        "id": 21359506,
        "last_rank": 35619,
        "player_name": "Theo Ceres",
        "rank": 39094,
        "rank_sort": 39197,
        "total": 2360
      },
      {
        "club_badge_src": null,
        "entry": 2937390,
        "entry_name": "CTRL",
        "event_total": 60,
        "has_played": true,
        "id": 21553606,
        "last_rank": 42940,
        "player_name": "Marcellino Wana",
        "rank": 39094,
        "rank_sort": 39198,
        "total": 2360
      },
      {
        "club_badge_src": "https://fantasy.premierleague.com/gcs/plfpl-production-adobe-approved/plfpl-production/2979395/43495768-6f7e-465c-a21a-a4f89517496f.png",
        "entry": 2979395,
        "entry_name": "Kinder Mbeumo",
        "event_total": 74,
        "has_played": true,
        "id": 21904871,
        "last_rank": 65475,
        "player_name": "Kelvin Lee",
        "rank": 39094,
        "rank_sort": 39199,
        "total": 2360
      },
      {
        "club_badge_src": null,
        "entry": 3011115,
        "entry_name": "Ain't got a Kalou #8",
        "event_total": 66,
        "has_played": true,
        "id": 22151173,
        "last_rank": 51984,
        "player_name": "John Holmes",
        "rank": 39094,
        "rank_sort": 39200,
        "total": 2360
      }
    ]
  }
}