{
  "last_updated_data": "2026-05-24T23:28:17Z",
  "league": {
    "admin_entry": null,
    "closed": false,
    "code_privacy": "p",
    "created": "2025-07-20T23:14:33.933835Z",
    "cup_league": 2815434,
    "has_cup": true,
    "id": 314,
    "league_type": "s",
    "max_entries": null,
    "name": "Overall",
    "rank": null,
    "scoring": "c",
    "start_event": 1
  },
  "new_entries": {
    "has_next": false,
    "page": 1,
    "results": []
  },
  "standings": {
    "has_next": true,
    "page": 1429,
    "results": [
      {
        "club_badge_src": null,
        "entry": 4280023,
        "entry_name": "GoonchesterCity",
        "event_total": 33,
        "has_played": true,
        "id": 32460240,
        "last_rank": 34915,
        "player_name": "Siyabonga Skosana",
        "rank": 71396,
        "rank_sort": 71401,
        "total": 2339
      },
      {
        "club_badge_src": null,
        "entry": 4845635,
        "entry_name": "Top ranking",
        "event_total": 53,
        "has_played": true,
        "id": 37330023,
        "last_rank": 64751,
        "player_name": "Roots Squad",
        "rank": 71396,
        "rank_sort": 71402,
        "total": 2339
      },
      {
        "club_badge_src": null,
        "entry": 6305356,
        "entry_name": "Rice&Peas",
        "event_total": 69,
        "has_played": true,
        "id": 50004626,
        "last_rank": 100469,
        "player_name": "Ethan Babic",
        "rank": 71396,
        "rank_sort": 71403,
        "total": 2339
      },
      {
        "club_badge_src": null,
        "entry": 6541371,
        "entry_name": "Champagne Super Debs",
        "event_total": 59,
        "has_played": true,
        "id": 52190924,
        "last_rank": 76866,
        "player_name": "Debs Tomlin",
        "rank": 71396,
        "rank_sort": 71404,
        "total": 2339
      },
      {
        "club_badge_src": null,
        "entry": 94112,
        "entry_name": "Backstreet Moyes",
        "event_total": 85,
        "has_played": true,
        "id": 614997,
        "last_rank": 148930,
        "player_name": "Lova Lennartsson",
        "rank": 71405,
        "rank_sort": 71405,
        "total": 2339
      },
      {
        "club_badge_src": null,
        "entry": 1399179,
        "entry_name": "gulli74",
        "event_total": 54,
        "has_played": true,
        "id": 9734426,
        "last_rank": 66636,
        "player_name": "Gunnlaugur Vesteinsson",
        "rank": 71405,
        "rank_sort": 71406,
        "total": 2339
      },
      {
        "club_badge_src": null,
        "entry": 1444124,
        "entry_name": "HarriMania",
        "event_total": 42,
        "has_played": true,
        "id": 10062928,
        "last_rank": 46526,
        "player_name": "Mark Harrison",
        "rank": 71405,
        "rank_sort": 71407,
        "total": 2339
      },
      {
        "club_badge_src": null,
        "entry": 2009550,
        "entry_name": "HavertzYourWay",
        "event_total": 64,
        "has_played": true,
        "id": 14209255,
        "last_rank": 88154,
        "player_name": "Joel Rogers",
        "rank": 71405,
        "rank_sort": 71408,
        "total": 2339
      },
      {
        "club_badge_src": null,
        "entry": 3786094,
        "entry_name": "TheMags",
        "event_total": 65,
        "has_played": true,
        "id": 28276195,
        "last_rank": 90524,
        "player_name": "Keith Jenkinson",
        "rank": 71405,
        "rank_sort": 71409,
        "total": 2339
      },
      {
        "club_badge_src": null,
        "entry": 6822327,
        "entry_name": "Oscar FC",
        "event_total": 47,
        "has_played": true,
        "id": 54643971,
        "last_rank": 54344,
        "player_name": "Oscar Cooney",
        "rank": 71405,
        "rank_sort": 71410,
        "total": 2339
      },
      {
        "club_badge_src": null,
        "entry": 6833166,
        "entry_name": "Reinforcement",
        "event_total": 61,
        "has_played": true,
        "id": 54735900,
        "last_rank": 81211,
        "player_name": "Carl Marshall",
        "rank": 71405,
        "rank_sort": 71411,
        "total": 2339
      },
      {
        "club_badge_src": null,
        "entry": 8270744,
        "entry_name": "ShawAteDalot",
        "event_total": 68,
        "has_played": true,
        "id": 68421624,
        "last_rank": 97935,
        "player_name": "Max Murphy",
        "rank": 71405,
        "rank_sort": 71412,
        "total": 2339
      },
      {
        "club_badge_src": null,
        "entry": 8311671,
        "entry_name": "zeyad hendy",
        "event_total": 49,
        "has_played": true,
        "id": 68832871,
        "last_rank": 57723,
        "player_name": "Zeyad Hendy",
        "rank": 71405,
        "rank_sort": 71413,
        "total": 2339
      },
      {
        "club_badge_src": null,
        "entry": 9282015,
        "entry_name": "Chief Wigs XI",
        "event_total": 84,
        "has_played": true,
        "id": 78235666,
        "last_rank": 145401,
        "player_name": "Jack Applebee",
        "rank": 71405,
        "rank_sort": 71414,
        "total": 2339
      },
      {
        "club_badge_src": null,
        "entry": 183036,
        "entry_name": "\u12a0\u12cd\u122c\u12cd777",
        "event_total": 55,
        "has_played": true,
        "id": 1207981,
        "last_rank": 68585,
        "player_name": "Kalab Gosaye",
        "rank": 71415,
        "rank_sort": 71415,
        "total": 2339
      },
      {
        "club_badge_src": null,
        "entry": 309284,
        "entry_name": "Tiki Taka Tanaka",
        "event_total": 27,
        "has_played": true,
        "id": 2071741,
        "last_rank": 28532,
        "player_name": "Aran Rajes",
        "rank": 71415,
        "rank_sort": 71416,
        "total": 2339
      },
      {
        "club_badge_src": "https://fantasy.premierleague.com/gcs/plfpl-production-adobe-approved/plfpl-production/721994/8a8df6a1-4cad-48a4-ba6f-bdf10f0eab8e.png",
        "entry": 721994,
        "entry_name": "Creusers",
        "event_total": 59,
        "has_played": true,
        "id": 4903288,
        "last_rank": 76908,
        "player_name": "Gareth Jenkins",
        "rank": 71415,
        "rank_sort": 71417,
        "total": 2339
      },
      {
        "club_badge_src": null,
        "entry": 2678721,
        "entry_name": "Be in that number",
        "event_total": 51,
        "has_played": true,
        "id": 19265216,
        "last_rank": 61258,
        "player_name": "Robert Codgbrook",
        "rank": 71415,
        "rank_sort": 71418,
        "total": 2339
      },
      {
        "club_badge_src": null,
        "entry": 3045435,
        "entry_name": "\u062a\u062d\u062f\u064a \u062c\u062f\u064a\u062f",
        "event_total": 50,
        "has_played": true,
        "id": 22418373,
        "last_rank": 59496,
        "player_name": "Abdooo Abdo",
        "rank": 71415,
        "rank_sort": 71419,
        "total": 2339
      },
      {
        "club_badge_src": null,
        "entry": 3724826,
        "entry_name": "Ratcliffe Says No...",
        "event_total": 60,
        "has_played": true,
        "id": 27799313,
        "last_rank": 78997,
        "player_name": "David Levick",
        "rank": 71415,
        "rank_sort": 71420,
        "total": 2339
      },
      {
        "club_badge_src": "https://fantasy.premierleague.com/gcs/plfpl-production-adobe-approved/plfpl-production/4159823/11637cbe-0e7b-4f09-bcbc-3f5481ab4923.png",
        "entry": 4159823,
        "entry_name": "B871MTS",
        "event_total": 72,
        "has_played": true,
        "id": 31447660,
        "last_rank": 108420,
        "player_name": "Toriq Sabri",
        "rank": 71415,
        "rank_sort": 71421,
        "total": 2339
      },
      {
        "club_badge_src": null,
        "entry": 4842547,
        "entry_name": "Red_Devil_999",
        "event_total": 63,
        "has_played": true,
        "id": 37304145,
        "last_rank": 85823,
        "player_name": "Supat Pholsawang",
        "rank": 71415,
        "rank_sort": 71422,
        "total": 2339
      },
      {
        "club_badge_src": null,
        "entry": 5135496,
        "entry_name": "Me\u0161etarji",
        "event_total": 57,
        "has_played": true,
        "id": 39721369,
        "last_rank": 72638,
        "player_name": "Kristian Prekpaljaj",
        "rank": 71415,
        "rank_sort": 71423,
        "total": 2339
      },
      {
        "club_badge_src": null,
        "entry": 5135791,
        "entry_name": "Ac-Picchia",
        "event_total": 48,
        "has_played": true,
        "id": 39723855,
        "last_rank": 56041,
        "player_name": "Fabio Biffi",
        "rank": 71415,
        "rank_sort": 71424,
        "total": 2339
      },
      {
        "club_badge_src": null,
        "entry": 5235587,
        "entry_name": "Kulusexy",
        "event_total": 29,
        "has_played": true,
        "id": 40572320,
        "last_rank": 30503,
        "player_name": "Max Ekl\u00f6f",
        "rank": 71415,
        "rank_sort": 71425,
        "total": 2339
      },
      {
        "club_badge_src": null,
        "entry": 5389693,
        "entry_name": "RuPS",
        "event_total": 49,
        "has_played": true,
        "id": 41901297,
        "last_rank": 57723,
        "player_name": "Iiro Rajantie",
        "rank": 71415,
        "rank_sort": 71426,
        "total": 2339
      },
      {
        "club_badge_src": null,
        "entry": 5506785,
        "entry_name": "Big Players",
        "event_total": 60,
        "has_played": true,
        "id": 42918594,
        "last_rank": 78979,
        "player_name": "Tom Summerhill",
        "rank": 71415,
        "rank_sort": 71427,
        "total": 2339
      },
      {
        "club_badge_src": null,
        "entry": 5516536,
        "entry_name": "Rich Pickings",
        "event_total": 40,
        "has_played": true,
        "id": 43009796,
        "last_rank": 43733,
        "player_name": "Rich Grimsdell",
        "rank": 71415,
        "rank_sort": 71428,
        "total": 2339
      },
      {
        "club_badge_src": null,
        "entry": 6046911,
        "entry_name": "Percy Pigs",
        "event_total": 60,
        "has_played": true,
        "id": 47712672,
        "last_rank": 79027,
        "player_name": "Michael Mack",
        "rank": 71415,
        "rank_sort": 71429,
        "total": 2339
      },
      {
        "club_badge_src": null,
        "entry": 6107402,
        "entry_name": "La vie est Bell",
        "event_total": 60,
        "has_played": true,
        "id": 48240899,
        "last_rank": 78979,
        "player_name": "James Bell",
        "rank": 71415,
        "rank_sort": 71430,
        "total": 2339
      },
      {
        "club_badge_src": null,
        "entry": 6465593,
        "entry_name": "Empire",
        "event_total": 57,
        "has_played": true,
        "id": 51512208,
        "last_rank": 72662,
        "player_name": "solomon namonyo",
        "rank": 71415,
        "rank_sort": 71431,
        "total": 2339
      },
      {
        "club_badge_src": null,
        "entry": 6751224,
        "entry_name": "Tom Brady's 11",
        "event_total": 66,
        "has_played": true,
        "id": 54047791,
        "last_rank": 92958,
        "player_name": "Dan McArdle",
        "rank": 71415,
        "rank_sort": 71432,
        "total": 2339
      },
      {
        "club_badge_src": "https://fantasy.premierleague.com/gcs/plfpl-production-adobe-approved/plfpl-production/7208958/b88766fc-eab1-4fc2-bc51-b0375403e721.png",
        "entry": 7208958,
        "entry_name": "Red Trident FC",
        "event_total": 80,
        "has_played": true,
        "id": 58217194,
        "last_rank": 132110,
        "player_name": "Hasin Ishrak Labib",
        "rank": 71415,
        "rank_sort": 71433,
        "total": 2339
      },
      {
        "club_badge_src": null,
        "entry": 7265228,
        "entry_name": "Whats Rob Holding",
        "event_total": 55,
        "has_played": true,
        "id": 58749313,
        "last_rank": 68556,
        "player_name": "George Port",
        "rank": 71415,
        "rank_sort": 71434,
        "total": 2339
      },
      {
        "club_badge_src": null,
        "entry": 7837108,
        "entry_name": "Birch Bonanza",
        "event_total": 61,
        "has_played": true,
        "id": 64414796,
        "last_rank": 81185,
        "player_name": "Tom Birch",
        "rank": 71415,
        "rank_sort": 71435,
        "total": 2339
      },
      {
        "club_badge_src": null,
        "entry": 8067316,
        "entry_name": "Partidazo",
        "event_total": 68,
        "has_played": true,
        "id": 66496569,
        "last_rank": 97982,
        "player_name": "Mateusz Wojtachnia",
        "rank": 71415,
        "rank_sort": 71436,
        "total": 2339
      },
      {
        "club_badge_src": null,
        "entry": 9143763,
        "entry_name": "HPFC",
        "event_total": 65,
        "has_played": true,
        "id": 76880101,
        "last_rank": 90504,
        "player_name": "Heather Parker",
        "rank": 71415,
        "rank_sort": 71437,
        "total": 2339
      },
      {
        "club_badge_src": null,
        "entry": 413819,
        "entry_name": "\u010cech Mate \u265f\ufe0f",
        "event_total": 46,
        "has_played": true,
        "id": 2774275,
        "last_rank": 52759,
        "player_name": "Magnus Christensen",
        "rank": 71438,
        "rank_sort": 71438,
        "total": 2339
      },
      {
        "club_badge_src": null,
        "entry": 484786,
        "entry_name": "Se7s",
        "event_total": 62,
        "has_played": true,
        "id": 3254022,
        "last_rank": 83584,
        "player_name": "Hussein Sherif",
        "rank": 71438,
        "rank_sort": 71439,
        "total": 2339
      },
      {
        "club_badge_src": null,
        "entry": 999935,
        "entry_name": "Winkas",
        "event_total": 61,
        "has_played": true,
        "id": 6912011,
        "last_rank": 81211,
        "player_name": "ALASTAIR NESBITT",
        "rank": 71438,
        "rank_sort": 71440,
        "total": 2339
      },
      {
        "club_badge_src": null,
        "entry": 1165103,
        "entry_name": "Savio",
        "event_total": 48,
        "has_played": true,
        "id": 8082186,
        "last_rank": 56069,
        "player_name": "Savio Bataq",
        "rank": 71438,
        "rank_sort": 71441,
        "total": 2339
      },
      {
        "club_badge_src": null,
        "entry": 1742135,
        "entry_name": "Dream Team",
        "event_total": 70,
        "has_played": true,
        "id": 12223694,
        "last_rank": 103017,
        "player_name": "Ruchit Sharma",
        "rank": 71438,
        "rank_sort": 71442,
        "total": 2339
      },
      {
        "club_badge_src": null,
        "entry": 1961487,
        "entry_name": "LandoNorrisDub",
        "event_total": 55,
        "has_played": true,
        "id": 13839015,
        "last_rank": 68572,
        "player_name": "Isaac Hydes",
        "rank": 71438,
        "rank_sort": 71443,
        "total": 2339
      },
      {
        "club_badge_src": null,
        "entry": 2118368,
        "entry_name": "Diagon Alli",
        "event_total": 57,
        "has_played": true,
        "id": 15046889,
        "last_rank": 72702,
        "player_name": "Kieran Watson",
        "rank": 71438,
        "rank_sort": 71444,
        "total": 2339
      },
      {
        "club_badge_src": null,
        "entry": 3219980,
        "entry_name": "Kinder Mbeumo",
        "event_total": 56,
        "has_played": true,
        "id": 23810977,
        "last_rank": 70576,
        "player_name": "Joseph Ray",
        "rank": 71438,
        "rank_sort": 71445,
        "total": 2339
      },
      {
        "club_badge_src": null,
        "entry": 3336302,
        "entry_name": "Underwhelming FC",
        "event_total": 56,
        "has_played": true,
        "id": 24742556,
        "last_rank": 70576,
        "player_name": "Alex Pointon",
        "rank": 71438,
        "rank_sort": 71446,
        "total": 2339
      },
      {
        "club_badge_src": null,
        "entry": 3590423,
        "entry_name": "Brads Lads",
        "event_total": 79,
        "has_played": true,
        "id": 26739481,
        "last_rank": 128975,
        "player_name": "Bradley Stimson",
        "rank": 71438,
        "rank_sort": 71447,
        "total": 2339
      },
      {
        "club_badge_src": null,
        "entry": 3643167,
        "entry_name": "Ctrl Alt De Ligt",
        "event_total": 65,
        "has_played": true,
        "id": 27151977,
        "last_rank": 90625,
        "player_name": "Aryaan Ahmed",
        "rank": 71438,
        "rank_sort": 71448,
        "total": 2339
      },
      {
        "club_badge_src": null,
        "entry": 3763988,
        "entry_name": "Mcginniesta",
        "event_total": 61,
        "has_played": true,
        "id": 28103961,
        "last_rank": 81211,
        "player_name": "Harry Predo",
        "rank": 71438,
        "rank_sort": 71449,
        "total": 2339
      },
      {
        "club_badge_src": "https://fantasy.premierleague.com/gcs/plfpl-production-adobe-approved/plfpl-production/4734723/4b8974ae-23d3-4bb3-b6d5-a17438e3908f.png",
        "entry": 4734723,
        "entry_name": "Brownman United",
        "event_total": 68,
        "has_played": true,
        "id": 36427929,
        "last_rank": 97954,
        "player_name": "Mark Antony Rasanayagam",
        "rank": 71438,
        "rank_sort": 71450,
        "total": 2339
      }
    ]
  }
}