{
  "last_updated_data": "2026-05-24T23:28:17Z",
  "league": {
    "admin_entry": null,
    "closed": false,
    "code_privacy": "p",
    "created": "2025-07-20T23:14:33.933835Z",
    "cup_league": 2815434,
    "has_cup": true,
    "id": 314,
    "league_type": "s",
    "max_entries": null,
    "name": "Overall",
    "rank": null,
    "scoring": "c",
    "start_event": 1
  },
  "new_entries": {
    "has_next": false,
    "page": 1,
    "results": []
  },
  "standings": {
    "has_next": true,
    "page": 429,
    "results": [
      {
        "club_badge_src": null,
        "entry": 461367,
        "entry_name": "Olama8",
        "event_total": 49,
        "has_played": true,
        "id": 3094864,
        "last_rank": 15550,
        "player_name": "mohamed olama",
        "rank": 21354,
        "rank_sort": 21401,
        "total": 2378
      },
      {
        "club_badge_src": null,
        "entry": 465502,
        "entry_name": "FlancrestEnterprises",
        "event_total": 76,
        "has_played": true,
        "id": 3122938,
        "last_rank": 39874,
        "player_name": "Dylan Willis",
        "rank": 21354,
        "rank_sort": 21402,
        "total": 2378
      },
      {
        "club_badge_src": null,
        "entry": 540309,
        "entry_name": "Saudi Prince",
        "event_total": 73,
        "has_played": true,
        "id": 3636726,
        "last_rank": 36200,
        "player_name": "Samuel Tesfamicael",
        "rank": 21354,
        "rank_sort": 21403,
        "total": 2378
      },
      {
        "club_badge_src": null,
        "entry": 547636,
        "entry_name": "ABCDE FC",
        "event_total": 73,
        "has_played": true,
        "id": 3685609,
        "last_rank": 36348,
        "player_name": "Kanad Bapat",
        "rank": 21354,
        "rank_sort": 21404,
        "total": 2378
      },
      {
        "club_badge_src": null,
        "entry": 558696,
        "entry_name": "Benjy's XI",
        "event_total": 64,
        "has_played": true,
        "id": 3759948,
        "last_rank": 26710,
        "player_name": "Benjy Lantos",
        "rank": 21354,
        "rank_sort": 21405,
        "total": 2378
      },
      {
        "club_badge_src": null,
        "entry": 572615,
        "entry_name": "Tiki Saka",
        "event_total": 62,
        "has_played": true,
        "id": 3853750,
        "last_rank": 25002,
        "player_name": "Anita R\u00f8yksund",
        "rank": 21354,
        "rank_sort": 21406,
        "total": 2378
      },
      {
        "club_badge_src": null,
        "entry": 579672,
        "entry_name": "offspinnersinahurry",
        "event_total": 60,
        "has_played": true,
        "id": 3900426,
        "last_rank": 23522,
        "player_name": "Ally Milroy",
        "rank": 21354,
        "rank_sort": 21407,
        "total": 2378
      },
      {
        "club_badge_src": null,
        "entry": 579975,
        "entry_name": "Tiki-Taka",
        "event_total": 57,
        "has_played": true,
        "id": 3902668,
        "last_rank": 20983,
        "player_name": "\u00d8rjan A. Skare",
        "rank": 21354,
        "rank_sort": 21408,
        "total": 2378
      },
      {
        "club_badge_src": null,
        "entry": 631854,
        "entry_name": "OmarTeam",
        "event_total": 54,
        "has_played": true,
        "id": 4269552,
        "last_rank": 18790,
        "player_name": "Omar Rajab",
        "rank": 21354,
        "rank_sort": 21409,
        "total": 2378
      },
      {
        "club_badge_src": null,
        "entry": 645154,
        "entry_name": "Trondheim Thunder",
        "event_total": 53,
        "has_played": true,
        "id": 4359906,
        "last_rank": 18029,
        "player_name": "Lars Juel",
        "rank": 21354,
        "rank_sort": 21410,
        "total": 2378
      },
      {
        "club_badge_src": null,
        "entry": 657006,
        "entry_name": "Werder Bremer",
        "event_total": 68,
        "has_played": true,
        "id": 4440052,
        "last_rank": 30727,
        "player_name": "H\u00e5var Bremer",
        "rank": 21354,
        "rank_sort": 21411,
        "total": 2378
      },
      {
        "club_badge_src": null,
        "entry": 700982,
        "entry_name": "Blues Your Daddy?",
        "event_total": 67,
        "has_played": true,
        "id": 4749469,
        "last_rank": 29495,
        "player_name": "Ollie Britter",
        "rank": 21354,
        "rank_sort": 21412,
        "total": 2378
      },
      {
        "club_badge_src": null,
        "entry": 708281,
        "entry_name": "Concrete Talks FC",
        "event_total": 53,
        "has_played": true,
        "id": 4800429,
        "last_rank": 18029,
        "player_name": "Noel Mc Govern",
        "rank": 21354,
        "rank_sort": 21413,
        "total": 2378
      },
      {
        "club_badge_src": null,
        "entry": 726205,
        "entry_name": "ABCDEFC",
        "event_total": 60,
        "has_played": true,
        "id": 4932926,
        "last_rank": 23230,
        "player_name": "Peter Cook",
        "rank": 21354,
        "rank_sort": 21414,
        "total": 2378
      },
      {
        "club_badge_src": null,
        "entry": 770195,
        "entry_name": "Palmer Sutra",
        "event_total": 57,
        "has_played": true,
        "id": 5254048,
        "last_rank": 20983,
        "player_name": "Charlie Bruce",
        "rank": 21354,
        "rank_sort": 21415,
        "total": 2378
      },
      {
        "club_badge_src": null,
        "entry": 784946,
        "entry_name": "#winning team",
        "event_total": 68,
        "has_played": true,
        "id": 5362941,
        "last_rank": 30727,
        "player_name": "Liza Greatrex",
        "rank": 21354,
        "rank_sort": 21416,
        "total": 2378
      },
      {
        "club_badge_src": null,
        "entry": 850381,
        "entry_name": "Nippy's Team",
        "event_total": 56,
        "has_played": true,
        "id": 5828768,
        "last_rank": 20280,
        "player_name": "Lachlan McNiven",
        "rank": 21354,
        "rank_sort": 21417,
        "total": 2378
      },
      {
        "club_badge_src": "https://fantasy.premierleague.com/gcs/plfpl-production-adobe-approved/plfpl-production/949765/307ff7d7-78ed-4bb3-b07d-099482d4afcc.png",
        "entry": 949765,
        "entry_name": "AleOrNothing",
        "event_total": 67,
        "has_played": true,
        "id": 6542928,
        "last_rank": 29578,
        "player_name": "Alexandros Gavrielides",
        "rank": 21354,
        "rank_sort": 21418,
        "total": 2378
      },
      {
        "club_badge_src": null,
        "entry": 1019628,
        "entry_name": "Tonali Uno di Noi",
        "event_total": 68,
        "has_played": true,
        "id": 7054240,
        "last_rank": 30727,
        "player_name": "Andrej Dukovski",
        "rank": 21354,
        "rank_sort": 21419,
        "total": 2378
      },
      {
        "club_badge_src": null,
        "entry": 1038915,
        "entry_name": "Kinder Mbeumo",
        "event_total": 68,
        "has_played": true,
        "id": 7189552,
        "last_rank": 30536,
        "player_name": "Colm Maguire",
        "rank": 21354,
        "rank_sort": 21420,
        "total": 2378
      },
      {
        "club_badge_src": null,
        "entry": 1121664,
        "entry_name": "Red-Nosed Reijnders",
        "event_total": 64,
        "has_played": true,
        "id": 7770850,
        "last_rank": 26827,
        "player_name": "Peter Castellani",
        "rank": 21354,
        "rank_sort": 21421,
        "total": 2378
      },
      {
        "club_badge_src": "https://fantasy.premierleague.com/gcs/plfpl-production-adobe-approved/plfpl-production/1214131/35821393-0039-4ad0-abc4-f686612f091b.png",
        "entry": 1214131,
        "entry_name": "Rutter Dinghy Rapids",
        "event_total": 74,
        "has_played": true,
        "id": 8427295,
        "last_rank": 37589,
        "player_name": "Joel Sturgess",
        "rank": 21354,
        "rank_sort": 21422,
        "total": 2378
      },
      {
        "club_badge_src": null,
        "entry": 1261211,
        "entry_name": "Yoro Raya Sunshine",
        "event_total": 48,
        "has_played": true,
        "id": 8760802,
        "last_rank": 14926,
        "player_name": "Trevor Rousseau",
        "rank": 21354,
        "rank_sort": 21423,
        "total": 2378
      },
      {
        "club_badge_src": null,
        "entry": 1268042,
        "entry_name": "Bobby Dazzlers",
        "event_total": 43,
        "has_played": true,
        "id": 8810440,
        "last_rank": 12141,
        "player_name": "Wai Kan",
        "rank": 21354,
        "rank_sort": 21424,
        "total": 2378
      },
      {
        "club_badge_src": null,
        "entry": 1407494,
        "entry_name": "sonu",
        "event_total": 70,
        "has_played": true,
        "id": 9793445,
        "last_rank": 32879,
        "player_name": "Sai Teja Reddy",
        "rank": 21354,
        "rank_sort": 21425,
        "total": 2378
      },
      {
        "club_badge_src": null,
        "entry": 1519438,
        "entry_name": "qualtz",
        "event_total": 68,
        "has_played": true,
        "id": 10597645,
        "last_rank": 30536,
        "player_name": "David Pereira",
        "rank": 21354,
        "rank_sort": 21426,
        "total": 2378
      },
      {
        "club_badge_src": null,
        "entry": 1576137,
        "entry_name": "The Silver Surfers",
        "event_total": 52,
        "has_played": true,
        "id": 11013582,
        "last_rank": 14857,
        "player_name": "T P",
        "rank": 21354,
        "rank_sort": 21427,
        "total": 2378
      },
      {
        "club_badge_src": null,
        "entry": 1599245,
        "entry_name": "Jonas FC",
        "event_total": 66,
        "has_played": true,
        "id": 11187688,
        "last_rank": 28609,
        "player_name": "Jonathan Heubri",
        "rank": 21354,
        "rank_sort": 21428,
        "total": 2378
      },
      {
        "club_badge_src": null,
        "entry": 1618780,
        "entry_name": "Amad For It",
        "event_total": 67,
        "has_played": true,
        "id": 11327741,
        "last_rank": 29688,
        "player_name": "Daniel Gorzejewski",
        "rank": 21354,
        "rank_sort": 21429,
        "total": 2378
      },
      {
        "club_badge_src": null,
        "entry": 1666435,
        "entry_name": "Filipinos",
        "event_total": 61,
        "has_played": true,
        "id": 11667285,
        "last_rank": 24143,
        "player_name": "Helder Eibeiro",
        "rank": 21354,
        "rank_sort": 21430,
        "total": 2378
      },
      {
        "club_badge_src": null,
        "entry": 1721745,
        "entry_name": "Under my Cucurella",
        "event_total": 79,
        "has_played": true,
        "id": 12067731,
        "last_rank": 43786,
        "player_name": "Ewan Burnham",
        "rank": 21354,
        "rank_sort": 21431,
        "total": 2378
      },
      {
        "club_badge_src": null,
        "entry": 1751900,
        "entry_name": "Gribbos Guns",
        "event_total": 53,
        "has_played": true,
        "id": 12295064,
        "last_rank": 18029,
        "player_name": "Oliver Gribben",
        "rank": 21354,
        "rank_sort": 21432,
        "total": 2378
      },
      {
        "club_badge_src": "https://fantasy.premierleague.com/gcs/plfpl-production-adobe-approved/plfpl-production/1815309/09b34156-6b42-46ae-817d-a5936461289a.png",
        "entry": 1815309,
        "entry_name": "UCL Tourists",
        "event_total": 50,
        "has_played": true,
        "id": 12765288,
        "last_rank": 16062,
        "player_name": "Shreeram Mirle Krishnaswamy",
        "rank": 21354,
        "rank_sort": 21433,
        "total": 2378
      },
      {
        "club_badge_src": null,
        "entry": 1865498,
        "entry_name": "Peaky Reijnders",
        "event_total": 72,
        "has_played": true,
        "id": 13130794,
        "last_rank": 35034,
        "player_name": "Fahim Yusufali",
        "rank": 21354,
        "rank_sort": 21434,
        "total": 2378
      },
      {
        "club_badge_src": null,
        "entry": 1977599,
        "entry_name": "Honeybadgers",
        "event_total": 66,
        "has_played": true,
        "id": 13960204,
        "last_rank": 28546,
        "player_name": "Jon Winters",
        "rank": 21354,
        "rank_sort": 21435,
        "total": 2378
      },
      {
        "club_badge_src": "https://fantasy.premierleague.com/gcs/plfpl-production-adobe-approved/plfpl-production/2023349/fafd0d65-a797-496b-ae68-2a235fbf733d.png",
        "entry": 2023349,
        "entry_name": "FC HENDRIX",
        "event_total": 42,
        "has_played": true,
        "id": 14318905,
        "last_rank": 11699,
        "player_name": "Ahmed Arzan",
        "rank": 21354,
        "rank_sort": 21436,
        "total": 2378
      },
      {
        "club_badge_src": null,
        "entry": 2129146,
        "entry_name": "California Cantona",
        "event_total": 67,
        "has_played": true,
        "id": 15129106,
        "last_rank": 29688,
        "player_name": "cameron corda",
        "rank": 21354,
        "rank_sort": 21437,
        "total": 2378
      },
      {
        "club_badge_src": null,
        "entry": 2199081,
        "entry_name": "where is MU?",
        "event_total": 59,
        "has_played": true,
        "id": 15648311,
        "last_rank": 22534,
        "player_name": "John Pipintakos",
        "rank": 21354,
        "rank_sort": 21438,
        "total": 2378
      },
      {
        "club_badge_src": null,
        "entry": 2268494,
        "entry_name": "Trai Hume Glamour",
        "event_total": 45,
        "has_played": true,
        "id": 16175299,
        "last_rank": 13184,
        "player_name": "Sean OSullivan",
        "rank": 21354,
        "rank_sort": 21439,
        "total": 2378
      },
      {
        "club_badge_src": null,
        "entry": 2338295,
        "entry_name": "Saunders FC",
        "event_total": 40,
        "has_played": true,
        "id": 16684185,
        "last_rank": 10920,
        "player_name": "Matt Saunders",
        "rank": 21354,
        "rank_sort": 21440,
        "total": 2378
      },
      {
        "club_badge_src": null,
        "entry": 2416587,
        "entry_name": "Kinder Mbeumo",
        "event_total": 65,
        "has_played": true,
        "id": 17275327,
        "last_rank": 27644,
        "player_name": "Martin Durant",
        "rank": 21354,
        "rank_sort": 21441,
        "total": 2378
      },
      {
        "club_badge_src": null,
        "entry": 2420830,
        "entry_name": "Regerande M\u00e4staren",
        "event_total": 51,
        "has_played": true,
        "id": 17307118,
        "last_rank": 16807,
        "player_name": "Elias Klarinsson",
        "rank": 21354,
        "rank_sort": 21442,
        "total": 2378
      },
      {
        "club_badge_src": null,
        "entry": 2477660,
        "entry_name": "Games gone",
        "event_total": 51,
        "has_played": true,
        "id": 17727560,
        "last_rank": 16807,
        "player_name": "Peter Groves",
        "rank": 21354,
        "rank_sort": 21443,
        "total": 2378
      },
      {
        "club_badge_src": null,
        "entry": 2501586,
        "entry_name": "Change name again?",
        "event_total": 45,
        "has_played": true,
        "id": 17912668,
        "last_rank": 13184,
        "player_name": "Vikas Jhabakh",
        "rank": 21354,
        "rank_sort": 21444,
        "total": 2378
      },
      {
        "club_badge_src": null,
        "entry": 2502126,
        "entry_name": "Tea and Busquets",
        "event_total": 69,
        "has_played": true,
        "id": 17916963,
        "last_rank": 31747,
        "player_name": "Sam Alder",
        "rank": 21354,
        "rank_sort": 21445,
        "total": 2378
      },
      {
        "club_badge_src": null,
        "entry": 2522156,
        "entry_name": "Goalden Wonders",
        "event_total": 69,
        "has_played": true,
        "id": 18071860,
        "last_rank": 31747,
        "player_name": "Jeremy Pampel",
        "rank": 21354,
        "rank_sort": 21446,
        "total": 2378
      },
      {
        "club_badge_src": null,
        "entry": 2547571,
        "entry_name": "Manama HoHa",
        "event_total": 61,
        "has_played": true,
        "id": 18261668,
        "last_rank": 24143,
        "player_name": "mahmoud jaffari",
        "rank": 21354,
        "rank_sort": 21447,
        "total": 2378
      },
      {
        "club_badge_src": null,
        "entry": 2747919,
        "entry_name": "Ding+ Thep",
        "event_total": 55,
        "has_played": true,
        "id": 19924506,
        "last_rank": 19432,
        "player_name": "Thepsak Mapiam",
        "rank": 21354,
        "rank_sort": 21448,
        "total": 2378
      },
      {
        "club_badge_src": null,
        "entry": 2965317,
        "entry_name": "Nakuru",
        "event_total": 51,
        "has_played": true,
        "id": 21784437,
        "last_rank": 16807,
        "player_name": "My Name",
        "rank": 21354,
        "rank_sort": 21449,
        "total": 2378
      },
      {
        "club_badge_src": null,
        "entry": 3002426,
        "entry_name": "MagicMikeFC",
        "event_total": 57,
        "has_played": true,
        "id": 22084356,
        "last_rank": 20983,
        "player_name": "Michael Boyle",
        "rank": 21354,
        "rank_sort": 21450,
        "total": 2378
      }
    ]
  }
}