{
  "last_updated_data": "2026-05-24T23:28:17Z",
  "league": {
    "admin_entry": null,
    "closed": false,
    "code_privacy": "p",
    "created": "2025-07-20T23:14:33.933835Z",
    "cup_league": 2815434,
    "has_cup": true,
    "id": 314,
    "league_type": "s",
    "max_entries": null,
    "name": "Overall",
    "rank": null,
    "scoring": "c",
    "start_event": 1
  },
  "new_entries": {
    "has_next": false,
    "page": 1,
    "results": []
  },
  "standings": {
    "has_next": true,
    "page": 324,
    "results": [
      {
        "club_badge_src": null,
        "entry": 2462024,
        "entry_name": "Kobbie Dobbie Doo",
        "event_total": 67,
        "has_played": true,
        "id": 17610855,
        "last_rank": 22534,
        "player_name": "Milan Shivji",
        "rank": 16086,
        "rank_sort": 16151,
        "total": 2386
      },
      {
        "club_badge_src": null,
        "entry": 2596521,
        "entry_name": "Canj cf",
        "event_total": 57,
        "has_played": true,
        "id": 18645817,
        "last_rank": 15694,
        "player_name": "Joseph McCarthy",
        "rank": 16086,
        "rank_sort": 16152,
        "total": 2386
      },
      {
        "club_badge_src": "https://fantasy.premierleague.com/gcs/plfpl-production-adobe-approved/plfpl-production/2673152/d95e2802-e795-41f1-9a51-58a6253e7b78.png",
        "entry": 2673152,
        "entry_name": "FPL Murtadha",
        "event_total": 65,
        "has_played": true,
        "id": 19219688,
        "last_rank": 20983,
        "player_name": "Murtadha Nizar",
        "rank": 16086,
        "rank_sort": 16153,
        "total": 2386
      },
      {
        "club_badge_src": "https://fantasy.premierleague.com/gcs/plfpl-production-adobe-approved/plfpl-production/2746458/9f86e799-4377-4cda-9bbc-d25eeb5e519e.png",
        "entry": 2746458,
        "entry_name": "Spartak Hestinsetter",
        "event_total": 61,
        "has_played": true,
        "id": 19891405,
        "last_rank": 18270,
        "player_name": "Duncan Fraser",
        "rank": 16086,
        "rank_sort": 16154,
        "total": 2386
      },
      {
        "club_badge_src": null,
        "entry": 2837707,
        "entry_name": "Mo Selector",
        "event_total": 63,
        "has_played": true,
        "id": 20738548,
        "last_rank": 19721,
        "player_name": "Adam Hampson",
        "rank": 16086,
        "rank_sort": 16155,
        "total": 2386
      },
      {
        "club_badge_src": null,
        "entry": 2895134,
        "entry_name": "MBFC",
        "event_total": 50,
        "has_played": true,
        "id": 21212108,
        "last_rank": 11901,
        "player_name": "Mikey Baxter",
        "rank": 16086,
        "rank_sort": 16156,
        "total": 2386
      },
      {
        "club_badge_src": null,
        "entry": 2961328,
        "entry_name": "Harry's Dream 11",
        "event_total": 59,
        "has_played": true,
        "id": 21753135,
        "last_rank": 16959,
        "player_name": "Harry Nicholls",
        "rank": 16086,
        "rank_sort": 16157,
        "total": 2386
      },
      {
        "club_badge_src": null,
        "entry": 2963117,
        "entry_name": "Amyl andthe Wieffers",
        "event_total": 73,
        "has_played": true,
        "id": 21767370,
        "last_rank": 23990,
        "player_name": "Rhys Graham",
        "rank": 16086,
        "rank_sort": 16158,
        "total": 2386
      },
      {
        "club_badge_src": null,
        "entry": 3003302,
        "entry_name": "GLORY UNITED",
        "event_total": 60,
        "has_played": true,
        "id": 22091094,
        "last_rank": 17585,
        "player_name": "sherab Dorji",
        "rank": 16086,
        "rank_sort": 16159,
        "total": 2386
      },
      {
        "club_badge_src": "https://fantasy.premierleague.com/gcs/plfpl-production-adobe-approved/plfpl-production/3160389/cafe6b4b-ec05-4c6f-8338-466173e120de.png",
        "entry": 3160389,
        "entry_name": "FC STOPTAP",
        "event_total": 74,
        "has_played": true,
        "id": 23346204,
        "last_rank": 28906,
        "player_name": "Dave Haden",
        "rank": 16086,
        "rank_sort": 16160,
        "total": 2386
      },
      {
        "club_badge_src": "https://fantasy.premierleague.com/gcs/plfpl-production-adobe-approved/plfpl-production/3286733/b880ee09-188b-4681-9150-0989aab1945f.png",
        "entry": 3286733,
        "entry_name": "Ere comes da Mbeumo!",
        "event_total": 64,
        "has_played": true,
        "id": 24331360,
        "last_rank": 17358,
        "player_name": "Kelvin Tui",
        "rank": 16086,
        "rank_sort": 16161,
        "total": 2386
      },
      {
        "club_badge_src": null,
        "entry": 3291186,
        "entry_name": "Change Name",
        "event_total": 68,
        "has_played": true,
        "id": 24367973,
        "last_rank": 23522,
        "player_name": "Nabeel Boda",
        "rank": 16086,
        "rank_sort": 16162,
        "total": 2386
      },
      {
        "club_badge_src": "https://fantasy.premierleague.com/gcs/plfpl-production-adobe-approved/plfpl-production/3453189/bbd54e35-d99a-4ac7-9b3f-5bd63450765f.png",
        "entry": 3453189,
        "entry_name": "Rom och Kols",
        "event_total": 62,
        "has_played": true,
        "id": 25663142,
        "last_rank": 16163,
        "player_name": "Johan Kols",
        "rank": 16086,
        "rank_sort": 16163,
        "total": 2386
      },
      {
        "club_badge_src": null,
        "entry": 3739748,
        "entry_name": "Second hand team",
        "event_total": 74,
        "has_played": true,
        "id": 27916266,
        "last_rank": 25002,
        "player_name": "Steve Martin",
        "rank": 16086,
        "rank_sort": 16164,
        "total": 2386
      },
      {
        "club_badge_src": null,
        "entry": 3919924,
        "entry_name": "Running Bull FC",
        "event_total": 65,
        "has_played": true,
        "id": 29476035,
        "last_rank": 18029,
        "player_name": "Richard Moir",
        "rank": 16086,
        "rank_sort": 16165,
        "total": 2386
      },
      {
        "club_badge_src": null,
        "entry": 3956655,
        "entry_name": "Braziliant",
        "event_total": 67,
        "has_played": true,
        "id": 29768020,
        "last_rank": 19544,
        "player_name": "Mitchell Gutteridge",
        "rank": 16086,
        "rank_sort": 16166,
        "total": 2386
      },
      {
        "club_badge_src": null,
        "entry": 4087803,
        "entry_name": "Moore Points Than U",
        "event_total": 65,
        "has_played": true,
        "id": 30862367,
        "last_rank": 18113,
        "player_name": "Joe Moore",
        "rank": 16086,
        "rank_sort": 16167,
        "total": 2386
      },
      {
        "club_badge_src": null,
        "entry": 4142200,
        "entry_name": "Kinder Mbeumo",
        "event_total": 65,
        "has_played": true,
        "id": 31306006,
        "last_rank": 18113,
        "player_name": "Devanshi Sharma",
        "rank": 16086,
        "rank_sort": 16168,
        "total": 2386
      },
      {
        "club_badge_src": null,
        "entry": 4194463,
        "entry_name": "Hairy Cane",
        "event_total": 60,
        "has_played": true,
        "id": 31745478,
        "last_rank": 17585,
        "player_name": "Jonathan Oh",
        "rank": 16086,
        "rank_sort": 16169,
        "total": 2386
      },
      {
        "club_badge_src": null,
        "entry": 4399520,
        "entry_name": "Stranger Ings",
        "event_total": 60,
        "has_played": true,
        "id": 33457442,
        "last_rank": 17585,
        "player_name": "Yusuf Cenkci",
        "rank": 16086,
        "rank_sort": 16170,
        "total": 2386
      },
      {
        "club_badge_src": null,
        "entry": 4720149,
        "entry_name": "AO Lets Go!",
        "event_total": 63,
        "has_played": true,
        "id": 36258128,
        "last_rank": 19721,
        "player_name": "Tony Bennett",
        "rank": 16086,
        "rank_sort": 16171,
        "total": 2386
      },
      {
        "club_badge_src": null,
        "entry": 4850937,
        "entry_name": "Bring Out The Wirtz",
        "event_total": 76,
        "has_played": true,
        "id": 37374715,
        "last_rank": 30957,
        "player_name": "James Sullivan",
        "rank": 16086,
        "rank_sort": 16172,
        "total": 2386
      },
      {
        "club_badge_src": null,
        "entry": 4990539,
        "entry_name": "No Loss with Alonso",
        "event_total": 64,
        "has_played": true,
        "id": 38528439,
        "last_rank": 17437,
        "player_name": "Saud Alqunb",
        "rank": 16086,
        "rank_sort": 16173,
        "total": 2386
      },
      {
        "club_badge_src": null,
        "entry": 5112794,
        "entry_name": "@li",
        "event_total": 72,
        "has_played": true,
        "id": 39526635,
        "last_rank": 26710,
        "player_name": "Ali Alkandari",
        "rank": 16086,
        "rank_sort": 16174,
        "total": 2386
      },
      {
        "club_badge_src": "https://fantasy.premierleague.com/gcs/plfpl-production-adobe-approved/plfpl-production/5217672/691a4ebe-4491-47c2-9ba6-6345a8c95ea4.png",
        "entry": 5217672,
        "entry_name": "URO CF",
        "event_total": 62,
        "has_played": true,
        "id": 40424369,
        "last_rank": 16062,
        "player_name": "Yugal Nepal",
        "rank": 16086,
        "rank_sort": 16175,
        "total": 2386
      },
      {
        "club_badge_src": null,
        "entry": 5237388,
        "entry_name": "Banter FC",
        "event_total": 57,
        "has_played": true,
        "id": 40586966,
        "last_rank": 13184,
        "player_name": "Faisal Alsayed",
        "rank": 16086,
        "rank_sort": 16176,
        "total": 2386
      },
      {
        "club_badge_src": null,
        "entry": 5358487,
        "entry_name": "Skinchers United",
        "event_total": 64,
        "has_played": true,
        "id": 41613195,
        "last_rank": 20416,
        "player_name": "Pradyumna Bharadwaj",
        "rank": 16086,
        "rank_sort": 16177,
        "total": 2386
      },
      {
        "club_badge_src": "https://fantasy.premierleague.com/gcs/plfpl-production-adobe-approved/plfpl-production/5421815/90414e70-4da5-46fa-b16b-879a12bb05dd.png",
        "entry": 5421815,
        "entry_name": "Serial Weaners",
        "event_total": 65,
        "has_played": true,
        "id": 42168465,
        "last_rank": 18113,
        "player_name": "Aljo\u0161a Jurini\u0107",
        "rank": 16086,
        "rank_sort": 16178,
        "total": 2386
      },
      {
        "club_badge_src": null,
        "entry": 5431047,
        "entry_name": "Sandhu's XI",
        "event_total": 56,
        "has_played": true,
        "id": 42245084,
        "last_rank": 15063,
        "player_name": "Nav Sandhu",
        "rank": 16086,
        "rank_sort": 16179,
        "total": 2386
      },
      {
        "club_badge_src": null,
        "entry": 5471509,
        "entry_name": "ArneBall",
        "event_total": 56,
        "has_played": true,
        "id": 42590975,
        "last_rank": 12705,
        "player_name": "Brynjar T\u00f8rum",
        "rank": 16086,
        "rank_sort": 16180,
        "total": 2386
      },
      {
        "club_badge_src": null,
        "entry": 5532883,
        "entry_name": "How I Met Your Mata",
        "event_total": 63,
        "has_played": true,
        "id": 43165190,
        "last_rank": 16807,
        "player_name": "Umair Hussain",
        "rank": 16086,
        "rank_sort": 16181,
        "total": 2386
      },
      {
        "club_badge_src": null,
        "entry": 5548928,
        "entry_name": "Final draft day!!!!!",
        "event_total": 62,
        "has_played": true,
        "id": 43305754,
        "last_rank": 18790,
        "player_name": "Final draft Fc",
        "rank": 16086,
        "rank_sort": 16182,
        "total": 2386
      },
      {
        "club_badge_src": null,
        "entry": 5549923,
        "entry_name": "F\u00fatbol Club Bandon",
        "event_total": 57,
        "has_played": true,
        "id": 43314767,
        "last_rank": 15452,
        "player_name": "Brian Crowley",
        "rank": 16086,
        "rank_sort": 16183,
        "total": 2386
      },
      {
        "club_badge_src": null,
        "entry": 5571011,
        "entry_name": "no more mr Rice Kai",
        "event_total": 57,
        "has_played": true,
        "id": 43502417,
        "last_rank": 13257,
        "player_name": "Jordan Brown",
        "rank": 16086,
        "rank_sort": 16184,
        "total": 2386
      },
      {
        "club_badge_src": null,
        "entry": 5608984,
        "entry_name": "Reds Predator",
        "event_total": 52,
        "has_played": true,
        "id": 43834436,
        "last_rank": 12645,
        "player_name": "Trevor Lau",
        "rank": 16086,
        "rank_sort": 16185,
        "total": 2386
      },
      {
        "club_badge_src": null,
        "entry": 5618298,
        "entry_name": "Pathetico Madrid",
        "event_total": 71,
        "has_played": true,
        "id": 43916095,
        "last_rank": 26088,
        "player_name": "Marc Kemp",
        "rank": 16086,
        "rank_sort": 16186,
        "total": 2386
      },
      {
        "club_badge_src": "https://fantasy.premierleague.com/gcs/plfpl-production-adobe-approved/plfpl-production/5749495/db228f27-3431-4e32-a6b7-daf3fff63f49.png",
        "entry": 5749495,
        "entry_name": "JaqGooner",
        "event_total": 43,
        "has_played": true,
        "id": 45061955,
        "last_rank": 8854,
        "player_name": "Jacques E",
        "rank": 16086,
        "rank_sort": 16187,
        "total": 2386
      },
      {
        "club_badge_src": null,
        "entry": 5958319,
        "entry_name": "BilbaoBaggins",
        "event_total": 66,
        "has_played": true,
        "id": 46872923,
        "last_rank": 21949,
        "player_name": "George Robertson",
        "rank": 16086,
        "rank_sort": 16188,
        "total": 2386
      },
      {
        "club_badge_src": null,
        "entry": 6143396,
        "entry_name": "HE!A HENNING",
        "event_total": 55,
        "has_played": true,
        "id": 48555269,
        "last_rank": 12141,
        "player_name": "Henning Hand\u00e5",
        "rank": 16086,
        "rank_sort": 16189,
        "total": 2386
      },
      {
        "club_badge_src": null,
        "entry": 6205963,
        "entry_name": "Potter's magic dust",
        "event_total": 67,
        "has_played": true,
        "id": 49096900,
        "last_rank": 22685,
        "player_name": "John Elgar",
        "rank": 16086,
        "rank_sort": 16190,
        "total": 2386
      },
      {
        "club_badge_src": null,
        "entry": 6332246,
        "entry_name": "D2H",
        "event_total": 94,
        "has_played": true,
        "id": 50324907,
        "last_rank": 55014,
        "player_name": "Mike Tselentis",
        "rank": 16086,
        "rank_sort": 16191,
        "total": 2386
      },
      {
        "club_badge_src": null,
        "entry": 6427543,
        "entry_name": "White Castle \ufffd",
        "event_total": 46,
        "has_played": true,
        "id": 51164014,
        "last_rank": 10031,
        "player_name": "Andrew Atef",
        "rank": 16086,
        "rank_sort": 16192,
        "total": 2386
      },
      {
        "club_badge_src": null,
        "entry": 6482453,
        "entry_name": "slam Dunk (da funk)",
        "event_total": 73,
        "has_played": true,
        "id": 51667290,
        "last_rank": 24143,
        "player_name": "Sophie Hennigan",
        "rank": 16086,
        "rank_sort": 16193,
        "total": 2386
      },
      {
        "club_badge_src": null,
        "entry": 6601578,
        "entry_name": "DeeCeeUtd",
        "event_total": 43,
        "has_played": true,
        "id": 52734551,
        "last_rank": 8854,
        "player_name": "Dave Clarke",
        "rank": 16086,
        "rank_sort": 16194,
        "total": 2386
      },
      {
        "club_badge_src": null,
        "entry": 6610229,
        "entry_name": "Who ate all Depays",
        "event_total": 61,
        "has_played": true,
        "id": 52812508,
        "last_rank": 18270,
        "player_name": "Benny Fahy",
        "rank": 16086,
        "rank_sort": 16195,
        "total": 2386
      },
      {
        "club_badge_src": null,
        "entry": 6877579,
        "entry_name": "Dhian X1",
        "event_total": 65,
        "has_played": true,
        "id": 55115088,
        "last_rank": 21159,
        "player_name": "Dhian Boparai",
        "rank": 16086,
        "rank_sort": 16196,
        "total": 2386
      },
      {
        "club_badge_src": null,
        "entry": 6997420,
        "entry_name": "Mo Money Mo Problems",
        "event_total": 68,
        "has_played": true,
        "id": 56177993,
        "last_rank": 23341,
        "player_name": ". Nau",
        "rank": 16086,
        "rank_sort": 16197,
        "total": 2386
      },
      {
        "club_badge_src": null,
        "entry": 7114507,
        "entry_name": "Beer O'clock",
        "event_total": 55,
        "has_played": true,
        "id": 57315044,
        "last_rank": 14604,
        "player_name": "Rudresh Patel",
        "rank": 16086,
        "rank_sort": 16198,
        "total": 2386
      },
      {
        "club_badge_src": null,
        "entry": 7129442,
        "entry_name": "I'll have a Naga",
        "event_total": 57,
        "has_played": true,
        "id": 57454899,
        "last_rank": 15694,
        "player_name": "Rob Winteringham",
        "rank": 16086,
        "rank_sort": 16199,
        "total": 2386
      },
      {
        "club_badge_src": null,
        "entry": 7249444,
        "entry_name": "Antony 2007",
        "event_total": 41,
        "has_played": true,
        "id": 58599279,
        "last_rank": 8032,
        "player_name": "Kaian King",
        "rank": 16086,
        "rank_sort": 16200,
        "total": 2386
      }
    ]
  }
}