{
  "last_updated_data": "2026-05-24T23:28:17Z",
  "league": {
    "admin_entry": null,
    "closed": false,
    "code_privacy": "p",
    "created": "2025-07-20T23:14:33.933835Z",
    "cup_league": 2815434,
    "has_cup": true,
    "id": 314,
    "league_type": "s",
    "max_entries": null,
    "name": "Overall",
    "rank": null,
    "scoring": "c",
    "start_event": 1
  },
  "new_entries": {
    "has_next": false,
    "page": 1,
    "results": []
  },
  "standings": {
    "has_next": true,
    "page": 414,
    "results": [
      {
        "club_badge_src": null,
        "entry": 970927,
        "entry_name": "Mo with the Flo",
        "event_total": 49,
        "has_played": true,
        "id": 6692910,
        "last_rank": 14857,
        "player_name": "Max Dolby Griffiths",
        "rank": 20598,
        "rank_sort": 20651,
        "total": 2379
      },
      {
        "club_badge_src": null,
        "entry": 1022321,
        "entry_name": "9awi el niveau",
        "event_total": 70,
        "has_played": true,
        "id": 7073005,
        "last_rank": 31620,
        "player_name": "Alae Fnina",
        "rank": 20598,
        "rank_sort": 20652,
        "total": 2379
      },
      {
        "club_badge_src": "https://fantasy.premierleague.com/gcs/plfpl-production-adobe-approved/plfpl-production/1023662/b403c963-648d-4ce5-9f23-0de45af15ffc.png",
        "entry": 1023662,
        "entry_name": "Everybody Wirtz",
        "event_total": 53,
        "has_played": true,
        "id": 7082266,
        "last_rank": 17437,
        "player_name": "Marc Kibbey",
        "rank": 20598,
        "rank_sort": 20653,
        "total": 2379
      },
      {
        "club_badge_src": null,
        "entry": 1042180,
        "entry_name": "AlissonWonderland",
        "event_total": 37,
        "has_played": true,
        "id": 7212201,
        "last_rank": 9142,
        "player_name": "Ben Watson",
        "rank": 20598,
        "rank_sort": 20654,
        "total": 2379
      },
      {
        "club_badge_src": null,
        "entry": 1072243,
        "entry_name": "BratWIRTZ SALAHd",
        "event_total": 58,
        "has_played": true,
        "id": 7423057,
        "last_rank": 20983,
        "player_name": "Mikey Yee",
        "rank": 20598,
        "rank_sort": 20655,
        "total": 2379
      },
      {
        "club_badge_src": null,
        "entry": 1106153,
        "entry_name": "Wissa's On Fire",
        "event_total": 54,
        "has_played": true,
        "id": 7662077,
        "last_rank": 17989,
        "player_name": "David Symonds-Barnes",
        "rank": 20598,
        "rank_sort": 20656,
        "total": 2379
      },
      {
        "club_badge_src": null,
        "entry": 1111871,
        "entry_name": "Lowsy fc",
        "event_total": 65,
        "has_played": true,
        "id": 7701827,
        "last_rank": 26710,
        "player_name": "Andrew Low",
        "rank": 20598,
        "rank_sort": 20657,
        "total": 2379
      },
      {
        "club_badge_src": null,
        "entry": 1119502,
        "entry_name": "Kinder Mbeumo",
        "event_total": 67,
        "has_played": true,
        "id": 7754874,
        "last_rank": 28609,
        "player_name": "Alex Bickerstaff",
        "rank": 20598,
        "rank_sort": 20658,
        "total": 2379
      },
      {
        "club_badge_src": null,
        "entry": 1238191,
        "entry_name": "NotWrightButItsGyok",
        "event_total": 59,
        "has_played": true,
        "id": 8598247,
        "last_rank": 21775,
        "player_name": "Albert Edwards",
        "rank": 20598,
        "rank_sort": 20659,
        "total": 2379
      },
      {
        "club_badge_src": null,
        "entry": 1251840,
        "entry_name": "Unaibelievable",
        "event_total": 66,
        "has_played": true,
        "id": 8694472,
        "last_rank": 27644,
        "player_name": "Tom Knight",
        "rank": 20598,
        "rank_sort": 20660,
        "total": 2379
      },
      {
        "club_badge_src": null,
        "entry": 1330475,
        "entry_name": "AgathaAudreyAllstars",
        "event_total": 62,
        "has_played": true,
        "id": 9247848,
        "last_rank": 24143,
        "player_name": "Adrian Delph",
        "rank": 20598,
        "rank_sort": 20661,
        "total": 2379
      },
      {
        "club_badge_src": null,
        "entry": 1436374,
        "entry_name": "Wirtz Nightmare",
        "event_total": 66,
        "has_played": true,
        "id": 10008623,
        "last_rank": 27644,
        "player_name": "Matt Sievwright",
        "rank": 20598,
        "rank_sort": 20662,
        "total": 2379
      },
      {
        "club_badge_src": null,
        "entry": 1474254,
        "entry_name": "Change Name",
        "event_total": 54,
        "has_played": true,
        "id": 10276387,
        "last_rank": 18029,
        "player_name": "Euan McIntyre",
        "rank": 20598,
        "rank_sort": 20663,
        "total": 2379
      },
      {
        "club_badge_src": "https://fantasy.premierleague.com/gcs/plfpl-production-adobe-approved/plfpl-production/1480908/4f12ca6b-06ca-443b-9ca7-f4d4e61e8867.png",
        "entry": 1480908,
        "entry_name": "Cole's Kickers",
        "event_total": 55,
        "has_played": true,
        "id": 10326110,
        "last_rank": 18790,
        "player_name": "Josh Kisby",
        "rank": 20598,
        "rank_sort": 20664,
        "total": 2379
      },
      {
        "club_badge_src": null,
        "entry": 1513085,
        "entry_name": "Ludwig von Messis",
        "event_total": 46,
        "has_played": true,
        "id": 10553125,
        "last_rank": 13153,
        "player_name": "Emir Muradba\u0161i\u0107",
        "rank": 20598,
        "rank_sort": 20665,
        "total": 2379
      },
      {
        "club_badge_src": null,
        "entry": 1520401,
        "entry_name": "Bowen 747",
        "event_total": 63,
        "has_played": true,
        "id": 10604406,
        "last_rank": 21677,
        "player_name": "Ethan Deller",
        "rank": 20598,
        "rank_sort": 20666,
        "total": 2379
      },
      {
        "club_badge_src": null,
        "entry": 1573261,
        "entry_name": "NoniToWorry",
        "event_total": 55,
        "has_played": true,
        "id": 10993145,
        "last_rank": 18790,
        "player_name": "Parth Bansal",
        "rank": 20598,
        "rank_sort": 20667,
        "total": 2379
      },
      {
        "club_badge_src": null,
        "entry": 1680027,
        "entry_name": "mostaFAAA",
        "event_total": 28,
        "has_played": true,
        "id": 11761124,
        "last_rank": 6194,
        "player_name": "Mostafa Fathy",
        "rank": 20598,
        "rank_sort": 20668,
        "total": 2379
      },
      {
        "club_badge_src": null,
        "entry": 1682981,
        "entry_name": "Sam the Eagle",
        "event_total": 58,
        "has_played": true,
        "id": 11781369,
        "last_rank": 20888,
        "player_name": "Christopher To",
        "rank": 20598,
        "rank_sort": 20669,
        "total": 2379
      },
      {
        "club_badge_src": null,
        "entry": 1802013,
        "entry_name": "bounce on it",
        "event_total": 67,
        "has_played": true,
        "id": 12667806,
        "last_rank": 28726,
        "player_name": "Millie Hindle",
        "rank": 20598,
        "rank_sort": 20670,
        "total": 2379
      },
      {
        "club_badge_src": "https://fantasy.premierleague.com/gcs/plfpl-production-adobe-approved/plfpl-production/1990637/e32c4e4d-cf8c-42ea-9973-409abdd286c4.png",
        "entry": 1990637,
        "entry_name": "YBTeamxz",
        "event_total": 52,
        "has_played": true,
        "id": 14063874,
        "last_rank": 16807,
        "player_name": "Shamil Firdauss",
        "rank": 20598,
        "rank_sort": 20671,
        "total": 2379
      },
      {
        "club_badge_src": null,
        "entry": 2108426,
        "entry_name": "Ahmad Fathe",
        "event_total": 67,
        "has_played": true,
        "id": 14964016,
        "last_rank": 28726,
        "player_name": "Ahmed Fathe",
        "rank": 20598,
        "rank_sort": 20672,
        "total": 2379
      },
      {
        "club_badge_src": null,
        "entry": 2129227,
        "entry_name": "Bobs Flip Flops",
        "event_total": 66,
        "has_played": true,
        "id": 15129748,
        "last_rank": 27644,
        "player_name": "rob Moore",
        "rank": 20598,
        "rank_sort": 20673,
        "total": 2379
      },
      {
        "club_badge_src": null,
        "entry": 2209538,
        "entry_name": "Druzhba United",
        "event_total": 56,
        "has_played": true,
        "id": 15733874,
        "last_rank": 19432,
        "player_name": "Kliment Stefanov",
        "rank": 20598,
        "rank_sort": 20674,
        "total": 2379
      },
      {
        "club_badge_src": "https://fantasy.premierleague.com/gcs/plfpl-production-adobe-approved/plfpl-production/2248927/0d5bcd35-a818-45b2-94ff-3cb42574c6eb.png",
        "entry": 2248927,
        "entry_name": "HNK Durlinici 13",
        "event_total": 80,
        "has_played": true,
        "id": 16025043,
        "last_rank": 43849,
        "player_name": "Eddy Blazina",
        "rank": 20598,
        "rank_sort": 20675,
        "total": 2379
      },
      {
        "club_badge_src": null,
        "entry": 2266522,
        "entry_name": "Smithams  XI",
        "event_total": 48,
        "has_played": true,
        "id": 16160583,
        "last_rank": 14370,
        "player_name": "Morgan Smitham",
        "rank": 20598,
        "rank_sort": 20676,
        "total": 2379
      },
      {
        "club_badge_src": null,
        "entry": 2367639,
        "entry_name": "Best Brom",
        "event_total": 71,
        "has_played": true,
        "id": 16900477,
        "last_rank": 32879,
        "player_name": "Ben Buckeldee",
        "rank": 20598,
        "rank_sort": 20677,
        "total": 2379
      },
      {
        "club_badge_src": null,
        "entry": 2393320,
        "entry_name": "Marescas Disciple",
        "event_total": 58,
        "has_played": true,
        "id": 17096720,
        "last_rank": 20983,
        "player_name": "Mathias Rosenlund",
        "rank": 20598,
        "rank_sort": 20678,
        "total": 2379
      },
      {
        "club_badge_src": null,
        "entry": 2406022,
        "entry_name": "Footysweats",
        "event_total": 55,
        "has_played": true,
        "id": 17197601,
        "last_rank": 18640,
        "player_name": "Footy Sweats",
        "rank": 20598,
        "rank_sort": 20679,
        "total": 2379
      },
      {
        "club_badge_src": null,
        "entry": 2444016,
        "entry_name": "Chemistry",
        "event_total": 64,
        "has_played": true,
        "id": 17479499,
        "last_rank": 25776,
        "player_name": "Mohamed Tamer",
        "rank": 20598,
        "rank_sort": 20680,
        "total": 2379
      },
      {
        "club_badge_src": null,
        "entry": 2640692,
        "entry_name": "How I Met Your Mata",
        "event_total": 55,
        "has_played": true,
        "id": 18979158,
        "last_rank": 18790,
        "player_name": "Richard Ingman",
        "rank": 20598,
        "rank_sort": 20681,
        "total": 2379
      },
      {
        "club_badge_src": null,
        "entry": 2780249,
        "entry_name": "Goal Diggers",
        "event_total": 55,
        "has_played": true,
        "id": 20291870,
        "last_rank": 18790,
        "player_name": "Dodrup Wangchuk",
        "rank": 20598,
        "rank_sort": 20682,
        "total": 2379
      },
      {
        "club_badge_src": null,
        "entry": 2878906,
        "entry_name": "chunks",
        "event_total": 50,
        "has_played": true,
        "id": 21074251,
        "last_rank": 15550,
        "player_name": "Jeff Chunks",
        "rank": 20598,
        "rank_sort": 20683,
        "total": 2379
      },
      {
        "club_badge_src": null,
        "entry": 2893673,
        "entry_name": "Wirtz Case Scenario",
        "event_total": 62,
        "has_played": true,
        "id": 21196697,
        "last_rank": 24039,
        "player_name": "Dave Stewart",
        "rank": 20598,
        "rank_sort": 20684,
        "total": 2379
      },
      {
        "club_badge_src": null,
        "entry": 3068556,
        "entry_name": "Power Reijnders",
        "event_total": 62,
        "has_played": true,
        "id": 22594474,
        "last_rank": 24039,
        "player_name": "Tom Kellett",
        "rank": 20598,
        "rank_sort": 20685,
        "total": 2379
      },
      {
        "club_badge_src": null,
        "entry": 3089062,
        "entry_name": "Khedira Pin Drop",
        "event_total": 64,
        "has_played": true,
        "id": 22763718,
        "last_rank": 25902,
        "player_name": "Joel Walker",
        "rank": 20598,
        "rank_sort": 20686,
        "total": 2379
      },
      {
        "club_badge_src": null,
        "entry": 3102215,
        "entry_name": "Change Name",
        "event_total": 58,
        "has_played": true,
        "id": 22872319,
        "last_rank": 20853,
        "player_name": "Jamal Shamim",
        "rank": 20598,
        "rank_sort": 20687,
        "total": 2379
      },
      {
        "club_badge_src": null,
        "entry": 3144668,
        "entry_name": "Superfamily",
        "event_total": 58,
        "has_played": true,
        "id": 23218294,
        "last_rank": 20983,
        "player_name": "Arve Corneliussen",
        "rank": 20598,
        "rank_sort": 20688,
        "total": 2379
      },
      {
        "club_badge_src": "https://fantasy.premierleague.com/gcs/plfpl-production-adobe-approved/plfpl-production/3309023/f946ea0d-f49d-4afc-bb25-5a359f76d7df.png",
        "entry": 3309023,
        "entry_name": "David AttenboroughXI",
        "event_total": 77,
        "has_played": true,
        "id": 24514455,
        "last_rank": 39816,
        "player_name": "Mark Jennings",
        "rank": 20598,
        "rank_sort": 20689,
        "total": 2379
      },
      {
        "club_badge_src": null,
        "entry": 3453244,
        "entry_name": "SOLDIER BOY",
        "event_total": 68,
        "has_played": true,
        "id": 25663715,
        "last_rank": 29688,
        "player_name": "Jeremiah Attamah",
        "rank": 20598,
        "rank_sort": 20690,
        "total": 2379
      },
      {
        "club_badge_src": null,
        "entry": 3515511,
        "entry_name": "Wirtz of Rhodesia",
        "event_total": 63,
        "has_played": true,
        "id": 26159941,
        "last_rank": 21677,
        "player_name": "Stuart Rhodes",
        "rank": 20598,
        "rank_sort": 20691,
        "total": 2379
      },
      {
        "club_badge_src": null,
        "entry": 3584517,
        "entry_name": "Turkish De Ligt",
        "event_total": 72,
        "has_played": true,
        "id": 26694187,
        "last_rank": 33936,
        "player_name": "Neil Hawkins",
        "rank": 20598,
        "rank_sort": 20692,
        "total": 2379
      },
      {
        "club_badge_src": null,
        "entry": 3660051,
        "entry_name": "M_Squared",
        "event_total": 61,
        "has_played": true,
        "id": 27292933,
        "last_rank": 23341,
        "player_name": "Menelaos Menelaou",
        "rank": 20598,
        "rank_sort": 20693,
        "total": 2379
      },
      {
        "club_badge_src": null,
        "entry": 3681989,
        "entry_name": "FCDOMINICO",
        "event_total": 66,
        "has_played": true,
        "id": 27463922,
        "last_rank": 27644,
        "player_name": "Dominic Grogan",
        "rank": 20598,
        "rank_sort": 20694,
        "total": 2379
      },
      {
        "club_badge_src": null,
        "entry": 3704100,
        "entry_name": "Markham\u2019s Merry Men",
        "event_total": 55,
        "has_played": true,
        "id": 27637318,
        "last_rank": 18790,
        "player_name": "Chris Markham",
        "rank": 20598,
        "rank_sort": 20695,
        "total": 2379
      },
      {
        "club_badge_src": null,
        "entry": 3780178,
        "entry_name": "ROBNDI UTD",
        "event_total": 59,
        "has_played": true,
        "id": 28227017,
        "last_rank": 21628,
        "player_name": "Robert Underwood",
        "rank": 20598,
        "rank_sort": 20696,
        "total": 2379
      },
      {
        "club_badge_src": null,
        "entry": 3783289,
        "entry_name": "Cunha Dig It",
        "event_total": 65,
        "has_played": true,
        "id": 28251229,
        "last_rank": 27020,
        "player_name": "Ben Scib",
        "rank": 20598,
        "rank_sort": 20697,
        "total": 2379
      },
      {
        "club_badge_src": null,
        "entry": 3866977,
        "entry_name": "TheOnlyWayIsUp 15",
        "event_total": 64,
        "has_played": true,
        "id": 28996659,
        "last_rank": 25902,
        "player_name": "Christopher Wong",
        "rank": 20598,
        "rank_sort": 20698,
        "total": 2379
      },
      {
        "club_badge_src": null,
        "entry": 4001526,
        "entry_name": "Dinoco King",
        "event_total": 61,
        "has_played": true,
        "id": 30139608,
        "last_rank": 23341,
        "player_name": "Callum Robson",
        "rank": 20598,
        "rank_sort": 20699,
        "total": 2379
      },
      {
        "club_badge_src": null,
        "entry": 4106379,
        "entry_name": "Billing Me Softly",
        "event_total": 54,
        "has_played": true,
        "id": 31010417,
        "last_rank": 18113,
        "player_name": "Gary Smith",
        "rank": 20598,
        "rank_sort": 20700,
        "total": 2379
      }
    ]
  }
}