{
  "last_updated_data": "2026-05-24T23:28:17Z",
  "league": {
    "admin_entry": null,
    "closed": false,
    "code_privacy": "p",
    "created": "2025-07-20T23:14:33.933835Z",
    "cup_league": 2815434,
    "has_cup": true,
    "id": 314,
    "league_type": "s",
    "max_entries": null,
    "name": "Overall",
    "rank": null,
    "scoring": "c",
    "start_event": 1
  },
  "new_entries": {
    "has_next": false,
    "page": 1,
    "results": []
  },
  "standings": {
    "has_next": true,
    "page": 1351,
    "results": [
      {
        "club_badge_src": null,
        "entry": 1781365,
        "entry_name": "##GymTeam##",
        "event_total": 91,
        "has_played": true,
        "id": 12515525,
        "last_rank": 134879,
        "player_name": "Grzegorz Piotrowski",
        "rank": 67485,
        "rank_sort": 67501,
        "total": 2342
      },
      {
        "club_badge_src": null,
        "entry": 2081649,
        "entry_name": "FC TARIK\u2764\ufe0f\ufffd",
        "event_total": 61,
        "has_played": true,
        "id": 14763266,
        "last_rank": 76730,
        "player_name": "tarik bassissi",
        "rank": 67485,
        "rank_sort": 67502,
        "total": 2342
      },
      {
        "club_badge_src": null,
        "entry": 2181967,
        "entry_name": "cap ayam fc",
        "event_total": 85,
        "has_played": true,
        "id": 15519663,
        "last_rank": 128583,
        "player_name": "Wan Nafais",
        "rank": 67485,
        "rank_sort": 67503,
        "total": 2342
      },
      {
        "club_badge_src": null,
        "entry": 2292542,
        "entry_name": "Lekegrind for voksne",
        "event_total": 63,
        "has_played": true,
        "id": 16350458,
        "last_rank": 72454,
        "player_name": "Kim Andr\u00e9 Seltveit",
        "rank": 67485,
        "rank_sort": 67504,
        "total": 2342
      },
      {
        "club_badge_src": null,
        "entry": 2306772,
        "entry_name": "Fight4Top1",
        "event_total": 83,
        "has_played": true,
        "id": 16453789,
        "last_rank": 122458,
        "player_name": "Rama Mze",
        "rank": 67485,
        "rank_sort": 67505,
        "total": 2342
      },
      {
        "club_badge_src": null,
        "entry": 2347854,
        "entry_name": "GrinTa F.O",
        "event_total": 64,
        "has_played": true,
        "id": 16752703,
        "last_rank": 74524,
        "player_name": "Fared Omar",
        "rank": 67485,
        "rank_sort": 67506,
        "total": 2342
      },
      {
        "club_badge_src": null,
        "entry": 3067696,
        "entry_name": "Saka Potatoes",
        "event_total": 75,
        "has_played": true,
        "id": 22587879,
        "last_rank": 110949,
        "player_name": "Pablo Moles",
        "rank": 67485,
        "rank_sort": 67507,
        "total": 2342
      },
      {
        "club_badge_src": null,
        "entry": 3547662,
        "entry_name": "acheb",
        "event_total": 72,
        "has_played": true,
        "id": 26410292,
        "last_rank": 83216,
        "player_name": "Isam Acheb",
        "rank": 67485,
        "rank_sort": 67508,
        "total": 2342
      },
      {
        "club_badge_src": null,
        "entry": 3990136,
        "entry_name": "DreamersInAction",
        "event_total": 51,
        "has_played": true,
        "id": 30044127,
        "last_rank": 50984,
        "player_name": "Atila Frankl",
        "rank": 67485,
        "rank_sort": 67509,
        "total": 2342
      },
      {
        "club_badge_src": null,
        "entry": 4736780,
        "entry_name": "pato-7",
        "event_total": 49,
        "has_played": true,
        "id": 36444470,
        "last_rank": 54218,
        "player_name": "Abdul amir Harb",
        "rank": 67485,
        "rank_sort": 67510,
        "total": 2342
      },
      {
        "club_badge_src": null,
        "entry": 6273685,
        "entry_name": "SlurryMaster",
        "event_total": 66,
        "has_played": true,
        "id": 49679803,
        "last_rank": 78782,
        "player_name": "Joao Girao",
        "rank": 67485,
        "rank_sort": 67511,
        "total": 2342
      },
      {
        "club_badge_src": null,
        "entry": 6947307,
        "entry_name": "Kingpin Maxxx",
        "event_total": 39,
        "has_played": true,
        "id": 55704624,
        "last_rank": 34825,
        "player_name": "MSR King",
        "rank": 67485,
        "rank_sort": 67512,
        "total": 2342
      },
      {
        "club_badge_src": null,
        "entry": 7284395,
        "entry_name": "Name",
        "event_total": 64,
        "has_played": true,
        "id": 58930672,
        "last_rank": 74524,
        "player_name": "Adam Sklen\u00e1\u0159",
        "rank": 67485,
        "rank_sort": 67513,
        "total": 2342
      },
      {
        "club_badge_src": null,
        "entry": 8768610,
        "entry_name": "U",
        "event_total": 47,
        "has_played": true,
        "id": 73241721,
        "last_rank": 51035,
        "player_name": "Udhav Sharma",
        "rank": 67485,
        "rank_sort": 67514,
        "total": 2342
      },
      {
        "club_badge_src": null,
        "entry": 551520,
        "entry_name": "Salih osman",
        "event_total": 69,
        "has_played": true,
        "id": 3712200,
        "last_rank": 85672,
        "player_name": "Salih Osman",
        "rank": 67515,
        "rank_sort": 67515,
        "total": 2342
      },
      {
        "club_badge_src": "https://fantasy.premierleague.com/gcs/plfpl-production-adobe-approved/plfpl-production/611317/60b140ab-d3c8-4849-a26a-2362e0e1dfbe.png",
        "entry": 611317,
        "entry_name": "ROMANI ITE DOMUM\u2122",
        "event_total": 58,
        "has_played": true,
        "id": 4130475,
        "last_rank": 62939,
        "player_name": "Nip Carey",
        "rank": 67515,
        "rank_sort": 67516,
        "total": 2342
      },
      {
        "club_badge_src": null,
        "entry": 757665,
        "entry_name": "Bryggan FC",
        "event_total": 60,
        "has_played": true,
        "id": 5160610,
        "last_rank": 59291,
        "player_name": "Rasmus Lindblom",
        "rank": 67515,
        "rank_sort": 67517,
        "total": 2342
      },
      {
        "club_badge_src": null,
        "entry": 780840,
        "entry_name": "Absolutely Fabregas",
        "event_total": 46,
        "has_played": true,
        "id": 5330978,
        "last_rank": 43657,
        "player_name": "Andrew Hall",
        "rank": 67515,
        "rank_sort": 67518,
        "total": 2342
      },
      {
        "club_badge_src": null,
        "entry": 1898400,
        "entry_name": "AAA",
        "event_total": 51,
        "has_played": true,
        "id": 13381754,
        "last_rank": 45007,
        "player_name": "Jovincent Hermoso",
        "rank": 67515,
        "rank_sort": 67519,
        "total": 2342
      },
      {
        "club_badge_src": "https://fantasy.premierleague.com/gcs/plfpl-production-adobe-approved/plfpl-production/2331026/7b93e696-298c-4a98-9ebe-ecb77f5aa6b2.png",
        "entry": 2331026,
        "entry_name": "shib",
        "event_total": 45,
        "has_played": true,
        "id": 16631093,
        "last_rank": 42314,
        "player_name": "Tom Cain",
        "rank": 67515,
        "rank_sort": 67520,
        "total": 2342
      },
      {
        "club_badge_src": null,
        "entry": 2754395,
        "entry_name": "D Company",
        "event_total": 69,
        "has_played": true,
        "id": 20049260,
        "last_rank": 95281,
        "player_name": "Anand Bathija",
        "rank": 67515,
        "rank_sort": 67521,
        "total": 2342
      },
      {
        "club_badge_src": null,
        "entry": 2775501,
        "entry_name": "\u0639\u0628\u0645\u0642\u0635\u0648\u062f \u0627\u0648\u064a",
        "event_total": 61,
        "has_played": true,
        "id": 20254826,
        "last_rank": 76758,
        "player_name": "Omar Abdelmaksod",
        "rank": 67515,
        "rank_sort": 67522,
        "total": 2342
      },
      {
        "club_badge_src": null,
        "entry": 2868106,
        "entry_name": "AlwaysSecondGuessand",
        "event_total": 44,
        "has_played": true,
        "id": 20977532,
        "last_rank": 46468,
        "player_name": "Tom Bird",
        "rank": 67515,
        "rank_sort": 67523,
        "total": 2342
      },
      {
        "club_badge_src": null,
        "entry": 3027180,
        "entry_name": "Change Name",
        "event_total": 60,
        "has_played": true,
        "id": 22274221,
        "last_rank": 66518,
        "player_name": "Benjamin Whyatt",
        "rank": 67515,
        "rank_sort": 67524,
        "total": 2342
      },
      {
        "club_badge_src": null,
        "entry": 3762282,
        "entry_name": "shika",
        "event_total": 45,
        "has_played": true,
        "id": 28090797,
        "last_rank": 47995,
        "player_name": "mostafa Adel",
        "rank": 67515,
        "rank_sort": 67525,
        "total": 2342
      },
      {
        "club_badge_src": null,
        "entry": 4279769,
        "entry_name": "Kitt Bura",
        "event_total": 67,
        "has_played": true,
        "id": 32458208,
        "last_rank": 72454,
        "player_name": "Kijja Burana",
        "rank": 67515,
        "rank_sort": 67526,
        "total": 2342
      },
      {
        "club_badge_src": null,
        "entry": 4421248,
        "entry_name": "Iwobi Wan-Kenobi",
        "event_total": 69,
        "has_played": true,
        "id": 33639418,
        "last_rank": 95303,
        "player_name": "Michael Briody",
        "rank": 67515,
        "rank_sort": 67527,
        "total": 2342
      },
      {
        "club_badge_src": null,
        "entry": 4620212,
        "entry_name": "The End \ufffd",
        "event_total": 58,
        "has_played": true,
        "id": 35315253,
        "last_rank": 70493,
        "player_name": "Kareem Elgdidy",
        "rank": 67515,
        "rank_sort": 67528,
        "total": 2342
      },
      {
        "club_badge_src": "https://fantasy.premierleague.com/gcs/plfpl-production-adobe-approved/plfpl-production/4658595/32f97c3c-0995-4501-b9cd-45f4dd51f89e.png",
        "entry": 4658595,
        "entry_name": "CR Flamengo",
        "event_total": 59,
        "has_played": true,
        "id": 35663719,
        "last_rank": 57596,
        "player_name": "N\u00e9stor Lorenzo",
        "rank": 67515,
        "rank_sort": 67529,
        "total": 2342
      },
      {
        "club_badge_src": null,
        "entry": 5077490,
        "entry_name": "Adem Mun",
        "event_total": 48,
        "has_played": true,
        "id": 39241692,
        "last_rank": 46454,
        "player_name": "Adem Talbi",
        "rank": 67515,
        "rank_sort": 67530,
        "total": 2342
      },
      {
        "club_badge_src": "https://fantasy.premierleague.com/gcs/plfpl-production-adobe-approved/plfpl-production/5825118/b0e6daa5-d3db-411e-a11d-056d7fcdae1d.png",
        "entry": 5825118,
        "entry_name": "Slot Machine",
        "event_total": 63,
        "has_played": true,
        "id": 45716271,
        "last_rank": 81073,
        "player_name": "Archie Stoneman",
        "rank": 67515,
        "rank_sort": 67531,
        "total": 2342
      },
      {
        "club_badge_src": null,
        "entry": 5963601,
        "entry_name": "El Bosh",
        "event_total": 57,
        "has_played": true,
        "id": 46919068,
        "last_rank": 68460,
        "player_name": "Ben Childs",
        "rank": 67515,
        "rank_sort": 67532,
        "total": 2342
      },
      {
        "club_badge_src": null,
        "entry": 6892429,
        "entry_name": "bouda",
        "event_total": 60,
        "has_played": true,
        "id": 55240655,
        "last_rank": 59291,
        "player_name": "Mohamed boudabous",
        "rank": 67515,
        "rank_sort": 67533,
        "total": 2342
      },
      {
        "club_badge_src": null,
        "entry": 6952688,
        "entry_name": "M United",
        "event_total": 83,
        "has_played": true,
        "id": 55750817,
        "last_rank": 110890,
        "player_name": "Jetsada Sanongphan",
        "rank": 67515,
        "rank_sort": 67534,
        "total": 2342
      },
      {
        "club_badge_src": null,
        "entry": 7033279,
        "entry_name": "\u0424\u041a \u0420\u0435\u043c\u043e\u043d\u0442",
        "event_total": 72,
        "has_played": true,
        "id": 56529934,
        "last_rank": 102813,
        "player_name": "\u041f\u0440\u0435\u0434\u0440\u0430\u0433 \u041c\u0430\u0441\u043b\u0430\u045b\u0435\u0432\u0438\u045b",
        "rank": 67515,
        "rank_sort": 67535,
        "total": 2342
      },
      {
        "club_badge_src": null,
        "entry": 7166915,
        "entry_name": "Mister  Arbi",
        "event_total": 40,
        "has_played": true,
        "id": 57824603,
        "last_rank": 36031,
        "player_name": "Mister Arbi",
        "rank": 67515,
        "rank_sort": 67536,
        "total": 2342
      },
      {
        "club_badge_src": null,
        "entry": 261316,
        "entry_name": "Calrik The Rogue",
        "event_total": 66,
        "has_played": true,
        "id": 1737094,
        "last_rank": 88005,
        "player_name": "Mahmoud Hamdey",
        "rank": 67537,
        "rank_sort": 67537,
        "total": 2342
      },
      {
        "club_badge_src": null,
        "entry": 327513,
        "entry_name": "kowal",
        "event_total": 63,
        "has_played": true,
        "id": 2194289,
        "last_rank": 64634,
        "player_name": "Rafal Kowalik",
        "rank": 67537,
        "rank_sort": 67538,
        "total": 2342
      },
      {
        "club_badge_src": "https://fantasy.premierleague.com/gcs/plfpl-production-adobe-approved/plfpl-production/432333/e2c7bdc7-cd7d-4313-b0a9-1baae9dbb0dd.png",
        "entry": 432333,
        "entry_name": "Moamen",
        "event_total": 61,
        "has_played": true,
        "id": 2899487,
        "last_rank": 54218,
        "player_name": "Moamen Mohamed",
        "rank": 67537,
        "rank_sort": 67539,
        "total": 2342
      },
      {
        "club_badge_src": "https://fantasy.premierleague.com/gcs/plfpl-production-adobe-approved/plfpl-production/542422/36e8d7be-2612-46d3-8e26-e9f6b1f6de4a.png",
        "entry": 542422,
        "entry_name": "Fraser Walk With Mee",
        "event_total": 63,
        "has_played": true,
        "id": 3650715,
        "last_rank": 72524,
        "player_name": "Kuba Ko\u0142odziejczyk",
        "rank": 67537,
        "rank_sort": 67540,
        "total": 2342
      },
      {
        "club_badge_src": null,
        "entry": 825510,
        "entry_name": "RichDollar $$ fc",
        "event_total": 34,
        "has_played": true,
        "id": 5653886,
        "last_rank": 29434,
        "player_name": "Erasmus Allotey",
        "rank": 67537,
        "rank_sort": 67541,
        "total": 2342
      },
      {
        "club_badge_src": null,
        "entry": 961240,
        "entry_name": "Ginger FC",
        "event_total": 63,
        "has_played": true,
        "id": 6624043,
        "last_rank": 72524,
        "player_name": "Barry Curtis",
        "rank": 67537,
        "rank_sort": 67542,
        "total": 2342
      },
      {
        "club_badge_src": null,
        "entry": 1025832,
        "entry_name": "Abu taleb",
        "event_total": 51,
        "has_played": true,
        "id": 7097305,
        "last_rank": 45034,
        "player_name": "Ahmed Abu Taleb",
        "rank": 67537,
        "rank_sort": 67543,
        "total": 2342
      },
      {
        "club_badge_src": null,
        "entry": 2083778,
        "entry_name": "TOSTER",
        "event_total": 73,
        "has_played": true,
        "id": 14782038,
        "last_rank": 95281,
        "player_name": "Nikola Cokic",
        "rank": 67537,
        "rank_sort": 67544,
        "total": 2342
      },
      {
        "club_badge_src": null,
        "entry": 3157320,
        "entry_name": "aaronfinch23",
        "event_total": 56,
        "has_played": true,
        "id": 23321103,
        "last_rank": 59386,
        "player_name": "Adam Fitch",
        "rank": 67537,
        "rank_sort": 67545,
        "total": 2342
      },
      {
        "club_badge_src": null,
        "entry": 3291208,
        "entry_name": "Enter Team Name",
        "event_total": 54,
        "has_played": true,
        "id": 24368146,
        "last_rank": 62958,
        "player_name": "Dale Western",
        "rank": 67537,
        "rank_sort": 67546,
        "total": 2342
      },
      {
        "club_badge_src": null,
        "entry": 5484806,
        "entry_name": "kecohhh FC",
        "event_total": 56,
        "has_played": true,
        "id": 42709293,
        "last_rank": 59386,
        "player_name": "Kathiravan Rajagopal",
        "rank": 67537,
        "rank_sort": 67547,
        "total": 2342
      },
      {
        "club_badge_src": null,
        "entry": 5527600,
        "entry_name": "Kulu and the Gang",
        "event_total": 65,
        "has_played": true,
        "id": 43110178,
        "last_rank": 68437,
        "player_name": "Paul Lyons",
        "rank": 67537,
        "rank_sort": 67548,
        "total": 2342
      },
      {
        "club_badge_src": null,
        "entry": 7710595,
        "entry_name": "Kinder Mbeumo",
        "event_total": 81,
        "has_played": true,
        "id": 63265893,
        "last_rank": 116600,
        "player_name": "Zaaks .",
        "rank": 67537,
        "rank_sort": 67549,
        "total": 2342
      },
      {
        "club_badge_src": null,
        "entry": 8172787,
        "entry_name": "Jack Grealish GEDEN",
        "event_total": 83,
        "has_played": true,
        "id": 67481366,
        "last_rank": 135226,
        "player_name": "Rasmus Storm",
        "rank": 67537,
        "rank_sort": 67550,
        "total": 2342
      }
    ]
  }
}