{
  "last_updated_data": "2026-05-24T23:28:17Z",
  "league": {
    "admin_entry": null,
    "closed": false,
    "code_privacy": "p",
    "created": "2025-07-20T23:14:33.933835Z",
    "cup_league": 2815434,
    "has_cup": true,
    "id": 314,
    "league_type": "s",
    "max_entries": null,
    "name": "Overall",
    "rank": null,
    "scoring": "c",
    "start_event": 1
  },
  "new_entries": {
    "has_next": false,
    "page": 1,
    "results": []
  },
  "standings": {
    "has_next": true,
    "page": 1676,
    "results": [
      {
        "club_badge_src": null,
        "entry": 5150735,
        "entry_name": "Salah Airlines",
        "event_total": 59,
        "has_played": true,
        "id": 39849271,
        "last_rank": 81010,
        "player_name": "Chisco Ndala",
        "rank": 83723,
        "rank_sort": 83751,
        "total": 2334
      },
      {
        "club_badge_src": null,
        "entry": 5295373,
        "entry_name": "WelchRarebits",
        "event_total": 42,
        "has_played": true,
        "id": 41046526,
        "last_rank": 55932,
        "player_name": "Greg Welch",
        "rank": 83723,
        "rank_sort": 83752,
        "total": 2334
      },
      {
        "club_badge_src": null,
        "entry": 6375837,
        "entry_name": "\u0e04\u0e31\u0e25\u0e40\u0e25\u0e48\u0e2d\u0e23\u0e4c\u0e43\u0e2b\u0e49\u0e40\u0e23\u0e35\u0e22\u0e01\u0e2a\u0e35",
        "event_total": 54,
        "has_played": true,
        "id": 50705699,
        "last_rank": 70414,
        "player_name": "Jirawat T",
        "rank": 83723,
        "rank_sort": 83753,
        "total": 2334
      },
      {
        "club_badge_src": "https://fantasy.premierleague.com/gcs/plfpl-production-adobe-approved/plfpl-production/6945230/aded0856-ab9d-4a3d-a031-48cc40000d5f.png",
        "entry": 6945230,
        "entry_name": "Mousse Cuts",
        "event_total": 56,
        "has_played": true,
        "id": 55685690,
        "last_rank": 83267,
        "player_name": "Mousse Cut-s",
        "rank": 83723,
        "rank_sort": 83754,
        "total": 2334
      },
      {
        "club_badge_src": null,
        "entry": 51098,
        "entry_name": "Szelaki",
        "event_total": 46,
        "has_played": true,
        "id": 328643,
        "last_rank": 49442,
        "player_name": "Rafa\u0142 Szmaj",
        "rank": 83755,
        "rank_sort": 83755,
        "total": 2334
      },
      {
        "club_badge_src": null,
        "entry": 152952,
        "entry_name": "One",
        "event_total": 76,
        "has_played": true,
        "id": 1004205,
        "last_rank": 125556,
        "player_name": "Morten Byklum",
        "rank": 83755,
        "rank_sort": 83756,
        "total": 2334
      },
      {
        "club_badge_src": null,
        "entry": 178739,
        "entry_name": "GM17",
        "event_total": 78,
        "has_played": true,
        "id": 1179617,
        "last_rank": 131833,
        "player_name": "Mel Ghazi",
        "rank": 83755,
        "rank_sort": 83757,
        "total": 2334
      },
      {
        "club_badge_src": null,
        "entry": 232262,
        "entry_name": "Jamie10987",
        "event_total": 68,
        "has_played": true,
        "id": 1545221,
        "last_rank": 102813,
        "player_name": "Jamie Hill",
        "rank": 83755,
        "rank_sort": 83758,
        "total": 2334
      },
      {
        "club_badge_src": null,
        "entry": 820603,
        "entry_name": "Only Time will Tel",
        "event_total": 58,
        "has_played": true,
        "id": 5620055,
        "last_rank": 88005,
        "player_name": "Dev Tank",
        "rank": 83755,
        "rank_sort": 83759,
        "total": 2334
      },
      {
        "club_badge_src": null,
        "entry": 854646,
        "entry_name": "DkUnited",
        "event_total": 52,
        "has_played": true,
        "id": 5858136,
        "last_rank": 74591,
        "player_name": "Darshan Keswani",
        "rank": 83755,
        "rank_sort": 83760,
        "total": 2334
      },
      {
        "club_badge_src": null,
        "entry": 948244,
        "entry_name": "FC SeasonWorkers",
        "event_total": 67,
        "has_played": true,
        "id": 6531818,
        "last_rank": 100283,
        "player_name": "Mikko Kauppinen",
        "rank": 83755,
        "rank_sort": 83761,
        "total": 2334
      },
      {
        "club_badge_src": "https://fantasy.premierleague.com/gcs/plfpl-production-adobe-approved/plfpl-production/1271550/b7eee6f3-66e3-456b-b5ed-bf2a28a172e2.png",
        "entry": 1271550,
        "entry_name": "TIKTIKE",
        "event_total": 55,
        "has_played": true,
        "id": 8835135,
        "last_rank": 64603,
        "player_name": "Yohan Antoinette",
        "rank": 83755,
        "rank_sort": 83762,
        "total": 2334
      },
      {
        "club_badge_src": null,
        "entry": 1658881,
        "entry_name": "I fear no evil",
        "event_total": 62,
        "has_played": true,
        "id": 11614210,
        "last_rank": 97814,
        "player_name": "Ahmed nour",
        "rank": 83755,
        "rank_sort": 83763,
        "total": 2334
      },
      {
        "club_badge_src": null,
        "entry": 1806376,
        "entry_name": "Hit the Wall",
        "event_total": 85,
        "has_played": true,
        "id": 12699361,
        "last_rank": 155522,
        "player_name": "Fattah Mirza",
        "rank": 83755,
        "rank_sort": 83764,
        "total": 2334
      },
      {
        "club_badge_src": null,
        "entry": 1956795,
        "entry_name": "King Dusty \ufffd",
        "event_total": 55,
        "has_played": true,
        "id": 13804275,
        "last_rank": 64603,
        "player_name": "Richie Rotstein",
        "rank": 83755,
        "rank_sort": 83765,
        "total": 2334
      },
      {
        "club_badge_src": null,
        "entry": 2058131,
        "entry_name": "Sir Hassan",
        "event_total": 73,
        "has_played": true,
        "id": 14580313,
        "last_rank": 128729,
        "player_name": "Hassan Abed",
        "rank": 83755,
        "rank_sort": 83766,
        "total": 2334
      },
      {
        "club_badge_src": null,
        "entry": 2456418,
        "entry_name": "Maradona kebab",
        "event_total": 50,
        "has_played": true,
        "id": 17569832,
        "last_rank": 70471,
        "player_name": "aaron ward",
        "rank": 83755,
        "rank_sort": 83767,
        "total": 2334
      },
      {
        "club_badge_src": null,
        "entry": 3185029,
        "entry_name": "Rahuland",
        "event_total": 65,
        "has_played": true,
        "id": 23536985,
        "last_rank": 95248,
        "player_name": "Rahul Gurung",
        "rank": 83755,
        "rank_sort": 83768,
        "total": 2334
      },
      {
        "club_badge_src": null,
        "entry": 3274669,
        "entry_name": "Blacklake",
        "event_total": 48,
        "has_played": true,
        "id": 24235321,
        "last_rank": 66518,
        "player_name": "Shaxzod Xalilov",
        "rank": 83755,
        "rank_sort": 83769,
        "total": 2334
      },
      {
        "club_badge_src": null,
        "entry": 3404785,
        "entry_name": "Finesse*",
        "event_total": 64,
        "has_played": true,
        "id": 25281834,
        "last_rank": 102844,
        "player_name": "Youssef Hasnaoui",
        "rank": 83755,
        "rank_sort": 83770,
        "total": 2334
      },
      {
        "club_badge_src": "https://fantasy.premierleague.com/gcs/plfpl-production-adobe-approved/plfpl-production/3673205/6610aa83-6759-4461-b74f-3660a2f86219.png",
        "entry": 3673205,
        "entry_name": "arez",
        "event_total": 53,
        "has_played": true,
        "id": 27395618,
        "last_rank": 76778,
        "player_name": "Arez Rauf",
        "rank": 83755,
        "rank_sort": 83771,
        "total": 2334
      },
      {
        "club_badge_src": null,
        "entry": 4082137,
        "entry_name": "WASHERS FC",
        "event_total": 70,
        "has_played": true,
        "id": 30816668,
        "last_rank": 119651,
        "player_name": "Olly Chandler",
        "rank": 83755,
        "rank_sort": 83772,
        "total": 2334
      },
      {
        "club_badge_src": null,
        "entry": 4459781,
        "entry_name": "Kungaga Kungaga",
        "event_total": 78,
        "has_played": true,
        "id": 33976185,
        "last_rank": 145192,
        "player_name": "Daniel Alase",
        "rank": 83755,
        "rank_sort": 83773,
        "total": 2334
      },
      {
        "club_badge_src": null,
        "entry": 4469442,
        "entry_name": "Khabis FC",
        "event_total": 55,
        "has_played": true,
        "id": 34057573,
        "last_rank": 72495,
        "player_name": "Omar Javed",
        "rank": 83755,
        "rank_sort": 83774,
        "total": 2334
      },
      {
        "club_badge_src": null,
        "entry": 4541731,
        "entry_name": "GHOST \u265f\ufe0f",
        "event_total": 53,
        "has_played": true,
        "id": 34649432,
        "last_rank": 68437,
        "player_name": "Shalom Leo",
        "rank": 83755,
        "rank_sort": 83775,
        "total": 2334
      },
      {
        "club_badge_src": null,
        "entry": 5183629,
        "entry_name": "breareysbremnar",
        "event_total": 47,
        "has_played": true,
        "id": 40124759,
        "last_rank": 64656,
        "player_name": "NEIL BREAREY",
        "rank": 83755,
        "rank_sort": 83776,
        "total": 2334
      },
      {
        "club_badge_src": null,
        "entry": 5800886,
        "entry_name": "Return of the Ralph",
        "event_total": 42,
        "has_played": true,
        "id": 45506731,
        "last_rank": 49463,
        "player_name": "James Hollingworth",
        "rank": 83755,
        "rank_sort": 83777,
        "total": 2334
      },
      {
        "club_badge_src": "https://fantasy.premierleague.com/gcs/plfpl-production-adobe-approved/plfpl-production/6236490/e3522259-55f3-423d-b4e4-2f53c95ee0ea.png",
        "entry": 6236490,
        "entry_name": "Children of Prague",
        "event_total": 43,
        "has_played": true,
        "id": 49358898,
        "last_rank": 51013,
        "player_name": "Alan O Boyle",
        "rank": 83755,
        "rank_sort": 83778,
        "total": 2334
      },
      {
        "club_badge_src": "https://fantasy.premierleague.com/gcs/plfpl-production-adobe-approved/plfpl-production/6879766/c37dc214-64c6-45b4-b849-1556313c3922.png",
        "entry": 6879766,
        "entry_name": "Bohemians FC",
        "event_total": 65,
        "has_played": true,
        "id": 55133506,
        "last_rank": 105529,
        "player_name": "JB Trinidad",
        "rank": 83755,
        "rank_sort": 83779,
        "total": 2334
      },
      {
        "club_badge_src": null,
        "entry": 7677886,
        "entry_name": "AFC Birkenstock",
        "event_total": 44,
        "has_played": true,
        "id": 62972423,
        "last_rank": 40923,
        "player_name": "Jake Imrie",
        "rank": 83755,
        "rank_sort": 83780,
        "total": 2334
      },
      {
        "club_badge_src": null,
        "entry": 8013667,
        "entry_name": "The Dean\u2019s List",
        "event_total": 66,
        "has_played": true,
        "id": 66007371,
        "last_rank": 108264,
        "player_name": "Cotton Dean",
        "rank": 83755,
        "rank_sort": 83781,
        "total": 2334
      },
      {
        "club_badge_src": null,
        "entry": 9149126,
        "entry_name": "Socks & Slides",
        "event_total": 66,
        "has_played": true,
        "id": 76932190,
        "last_rank": 97786,
        "player_name": "Dan Hawtin",
        "rank": 83755,
        "rank_sort": 83782,
        "total": 2334
      },
      {
        "club_badge_src": null,
        "entry": 9342122,
        "entry_name": "Change Name",
        "event_total": 73,
        "has_played": true,
        "id": 78812655,
        "last_rank": 116600,
        "player_name": "Eliott Wolstenholme",
        "rank": 83755,
        "rank_sort": 83783,
        "total": 2334
      },
      {
        "club_badge_src": null,
        "entry": 464192,
        "entry_name": "Cul\u00e8",
        "event_total": 63,
        "has_played": true,
        "id": 3113614,
        "last_rank": 81049,
        "player_name": "Ziad Amr",
        "rank": 83784,
        "rank_sort": 83784,
        "total": 2334
      },
      {
        "club_badge_src": null,
        "entry": 533363,
        "entry_name": "Team Supreme",
        "event_total": 56,
        "has_played": true,
        "id": 3588714,
        "last_rank": 83364,
        "player_name": "Marc Evans",
        "rank": 83784,
        "rank_sort": 83785,
        "total": 2334
      },
      {
        "club_badge_src": null,
        "entry": 587555,
        "entry_name": "Lamo's 11",
        "event_total": 57,
        "has_played": true,
        "id": 3955360,
        "last_rank": 85730,
        "player_name": "Nathan Lamkin",
        "rank": 83784,
        "rank_sort": 83786,
        "total": 2334
      },
      {
        "club_badge_src": null,
        "entry": 699400,
        "entry_name": "Wirtz Behaviour",
        "event_total": 74,
        "has_played": true,
        "id": 4738024,
        "last_rank": 131833,
        "player_name": "Munei Tshamano",
        "rank": 83784,
        "rank_sort": 83787,
        "total": 2334
      },
      {
        "club_badge_src": "https://fantasy.premierleague.com/gcs/plfpl-production-adobe-approved/plfpl-production/782326/48d0285e-97b8-40e1-9a4d-c349f8d19318.png",
        "entry": 782326,
        "entry_name": "AhmedYassin74",
        "event_total": 61,
        "has_played": true,
        "id": 5341232,
        "last_rank": 95303,
        "player_name": "Ahmed Yassin",
        "rank": 83784,
        "rank_sort": 83788,
        "total": 2334
      },
      {
        "club_badge_src": null,
        "entry": 1073242,
        "entry_name": "BrunoTheGoat",
        "event_total": 55,
        "has_played": true,
        "id": 7430175,
        "last_rank": 81111,
        "player_name": "islem bruno",
        "rank": 83784,
        "rank_sort": 83789,
        "total": 2334
      },
      {
        "club_badge_src": "https://fantasy.premierleague.com/gcs/plfpl-production-adobe-approved/plfpl-production/1417497/360800b5-d967-4927-9aa1-4556f84a014f.png",
        "entry": 1417497,
        "entry_name": "3amo sami",
        "event_total": 66,
        "has_played": true,
        "id": 9869284,
        "last_rank": 78782,
        "player_name": "mohamed nour el deen",
        "rank": 83784,
        "rank_sort": 83790,
        "total": 2334
      },
      {
        "club_badge_src": "https://fantasy.premierleague.com/gcs/plfpl-production-adobe-approved/plfpl-production/1616526/4b7524b5-e65c-47ef-8103-3c2dd5fb1a17.png",
        "entry": 1616526,
        "entry_name": "FC LAYMA",
        "event_total": 47,
        "has_played": true,
        "id": 11311317,
        "last_rank": 64677,
        "player_name": "Ayman El yatim",
        "rank": 83784,
        "rank_sort": 83791,
        "total": 2334
      },
      {
        "club_badge_src": null,
        "entry": 1670096,
        "entry_name": "HaalandSalahSauce",
        "event_total": 49,
        "has_played": true,
        "id": 11692960,
        "last_rank": 68480,
        "player_name": "Michael Dobbs",
        "rank": 83784,
        "rank_sort": 83792,
        "total": 2334
      },
      {
        "club_badge_src": null,
        "entry": 2592062,
        "entry_name": "Ctrl Alt de Ligt",
        "event_total": 64,
        "has_played": true,
        "id": 18610524,
        "last_rank": 92820,
        "player_name": "Tom Jacob",
        "rank": 83784,
        "rank_sort": 83793,
        "total": 2334
      },
      {
        "club_badge_src": null,
        "entry": 2648271,
        "entry_name": "E b e n e z e r",
        "event_total": 63,
        "has_played": true,
        "id": 19034920,
        "last_rank": 90386,
        "player_name": "ebeny -27",
        "rank": 83784,
        "rank_sort": 83794,
        "total": 2334
      },
      {
        "club_badge_src": null,
        "entry": 2768062,
        "entry_name": "Abu Faris C.F.",
        "event_total": 53,
        "has_played": true,
        "id": 20195907,
        "last_rank": 68460,
        "player_name": "Ahmed Hussain",
        "rank": 83784,
        "rank_sort": 83795,
        "total": 2334
      },
      {
        "club_badge_src": null,
        "entry": 2893873,
        "entry_name": "A Vellam Eleven",
        "event_total": 52,
        "has_played": true,
        "id": 21198784,
        "last_rank": 74609,
        "player_name": "Joe Vellam",
        "rank": 83784,
        "rank_sort": 83796,
        "total": 2334
      },
      {
        "club_badge_src": "https://fantasy.premierleague.com/gcs/plfpl-production-adobe-approved/plfpl-production/4047905/492a4c33-9913-4686-a674-c6f7d19302c9.png",
        "entry": 4047905,
        "entry_name": "FC Jedi",
        "event_total": 60,
        "has_played": true,
        "id": 30532312,
        "last_rank": 83340,
        "player_name": "Ye Min Htet",
        "rank": 83784,
        "rank_sort": 83797,
        "total": 2334
      },
      {
        "club_badge_src": null,
        "entry": 5505575,
        "entry_name": "VARsenal FC",
        "event_total": 57,
        "has_played": true,
        "id": 42903418,
        "last_rank": 85747,
        "player_name": "Ishtear Aziz",
        "rank": 83784,
        "rank_sort": 83798,
        "total": 2334
      },
      {
        "club_badge_src": "https://fantasy.premierleague.com/gcs/plfpl-production-adobe-approved/plfpl-production/7924283/9af5e2c7-901b-4734-9cdd-590288d6d54d.png",
        "entry": 7924283,
        "entry_name": "NoMercy x1",
        "event_total": 70,
        "has_played": true,
        "id": 65206695,
        "last_rank": 119620,
        "player_name": "Waseem Alam",
        "rank": 83784,
        "rank_sort": 83799,
        "total": 2334
      },
      {
        "club_badge_src": null,
        "entry": 8883803,
        "entry_name": "The Toffees",
        "event_total": 45,
        "has_played": true,
        "id": 74351082,
        "last_rank": 54268,
        "player_name": "Hossam Ahmed",
        "rank": 83784,
        "rank_sort": 83800,
        "total": 2334
      }
    ]
  }
}