{
  "last_updated_data": "2026-05-24T23:28:17Z",
  "league": {
    "admin_entry": null,
    "closed": false,
    "code_privacy": "p",
    "created": "2025-07-20T23:14:33.933835Z",
    "cup_league": 2815434,
    "has_cup": true,
    "id": 314,
    "league_type": "s",
    "max_entries": null,
    "name": "Overall",
    "rank": null,
    "scoring": "c",
    "start_event": 1
  },
  "new_entries": {
    "has_next": false,
    "page": 1,
    "results": []
  },
  "standings": {
    "has_next": true,
    "page": 1268,
    "results": [
      {
        "club_badge_src": null,
        "entry": 25200,
        "entry_name": "tikka scum fc",
        "event_total": 76,
        "has_played": true,
        "id": 159389,
        "last_rank": 96374,
        "player_name": "Will Gezza",
        "rank": 63343,
        "rank_sort": 63351,
        "total": 2344
      },
      {
        "club_badge_src": null,
        "entry": 27619,
        "entry_name": "D'\u00dcnal What I Mean?",
        "event_total": 59,
        "has_played": true,
        "id": 174611,
        "last_rank": 53345,
        "player_name": "Marc Coward",
        "rank": 63343,
        "rank_sort": 63352,
        "total": 2344
      },
      {
        "club_badge_src": "https://fantasy.premierleague.com/gcs/plfpl-production-adobe-approved/plfpl-production/48726/2adad2ba-2b0e-4a92-91d5-36686de04ffa.png",
        "entry": 48726,
        "entry_name": "The Calpol Cals",
        "event_total": 57,
        "has_played": true,
        "id": 313039,
        "last_rank": 57001,
        "player_name": "Callum Johnson",
        "rank": 63343,
        "rank_sort": 63353,
        "total": 2344
      },
      {
        "club_badge_src": null,
        "entry": 61435,
        "entry_name": "Ajer Winning, Son?",
        "event_total": 75,
        "has_played": true,
        "id": 395687,
        "last_rank": 103978,
        "player_name": "Louis Lenehan",
        "rank": 63343,
        "rank_sort": 63354,
        "total": 2344
      },
      {
        "club_badge_src": null,
        "entry": 63605,
        "entry_name": "On Porro'd Time",
        "event_total": 59,
        "has_played": true,
        "id": 410431,
        "last_rank": 60462,
        "player_name": "Elliott Lane",
        "rank": 63343,
        "rank_sort": 63355,
        "total": 2344
      },
      {
        "club_badge_src": null,
        "entry": 64054,
        "entry_name": "Armenianchester City",
        "event_total": 62,
        "has_played": true,
        "id": 413359,
        "last_rank": 65796,
        "player_name": "Patrick Helbling",
        "rank": 63343,
        "rank_sort": 63356,
        "total": 2344
      },
      {
        "club_badge_src": null,
        "entry": 85470,
        "entry_name": "no pie no glory",
        "event_total": 69,
        "has_played": true,
        "id": 556663,
        "last_rank": 89426,
        "player_name": "bela rex-kiss",
        "rank": 63343,
        "rank_sort": 63357,
        "total": 2344
      },
      {
        "club_badge_src": "https://fantasy.premierleague.com/gcs/plfpl-production-adobe-approved/plfpl-production/99152/7956417c-2709-4015-9302-7986bf4819d9.png",
        "entry": 99152,
        "entry_name": "Chalabin",
        "event_total": 70,
        "has_played": true,
        "id": 647303,
        "last_rank": 82398,
        "player_name": "Ivan Zivkovic",
        "rank": 63343,
        "rank_sort": 63358,
        "total": 2344
      },
      {
        "club_badge_src": null,
        "entry": 115121,
        "entry_name": "Cigarettes & AlHilal",
        "event_total": 72,
        "has_played": true,
        "id": 751212,
        "last_rank": 87074,
        "player_name": "Dan Toner",
        "rank": 63343,
        "rank_sort": 63359,
        "total": 2344
      },
      {
        "club_badge_src": null,
        "entry": 130912,
        "entry_name": "currywirtz",
        "event_total": 63,
        "has_played": true,
        "id": 852978,
        "last_rank": 76128,
        "player_name": "James Paton",
        "rank": 63343,
        "rank_sort": 63360,
        "total": 2344
      },
      {
        "club_badge_src": null,
        "entry": 148027,
        "entry_name": "Eye Of The Steiger",
        "event_total": 67,
        "has_played": true,
        "id": 970200,
        "last_rank": 67422,
        "player_name": "Anton Storer",
        "rank": 63343,
        "rank_sort": 63361,
        "total": 2344
      },
      {
        "club_badge_src": null,
        "entry": 152273,
        "entry_name": "Rutter Woke Nonsense",
        "event_total": 61,
        "has_played": true,
        "id": 999371,
        "last_rank": 63724,
        "player_name": "Ethan Squires",
        "rank": 63343,
        "rank_sort": 63362,
        "total": 2344
      },
      {
        "club_badge_src": null,
        "entry": 172493,
        "entry_name": "The Lightning Bolts",
        "event_total": 39,
        "has_played": true,
        "id": 1139321,
        "last_rank": 36831,
        "player_name": "Sandy Kennedy",
        "rank": 63343,
        "rank_sort": 63363,
        "total": 2344
      },
      {
        "club_badge_src": null,
        "entry": 191391,
        "entry_name": "Pienaar Pants",
        "event_total": 60,
        "has_played": true,
        "id": 1267671,
        "last_rank": 55014,
        "player_name": "John O'Halloran",
        "rank": 63343,
        "rank_sort": 63364,
        "total": 2344
      },
      {
        "club_badge_src": null,
        "entry": 208449,
        "entry_name": "Alisson Wonderland",
        "event_total": 64,
        "has_played": true,
        "id": 1385898,
        "last_rank": 69641,
        "player_name": "Mohamed Jamal",
        "rank": 63343,
        "rank_sort": 63365,
        "total": 2344
      },
      {
        "club_badge_src": "https://fantasy.premierleague.com/gcs/plfpl-production-adobe-approved/plfpl-production/209466/f1a27896-718c-494d-bd96-6241624d285f.png",
        "entry": 209466,
        "entry_name": "Gangsta's Allardyce",
        "event_total": 59,
        "has_played": true,
        "id": 1392995,
        "last_rank": 60462,
        "player_name": "Henrik Bruhaug",
        "rank": 63343,
        "rank_sort": 63366,
        "total": 2344
      },
      {
        "club_badge_src": null,
        "entry": 214579,
        "entry_name": "CTKs brunklag",
        "event_total": 49,
        "has_played": true,
        "id": 1427411,
        "last_rank": 50635,
        "player_name": "Thim Kareinen",
        "rank": 63343,
        "rank_sort": 63367,
        "total": 2344
      },
      {
        "club_badge_src": "https://fantasy.premierleague.com/gcs/plfpl-production-adobe-approved/plfpl-production/214759/009aa5c1-998e-43c7-9593-525c7cc8c433.png",
        "entry": 214759,
        "entry_name": "Wakanda Wanderers",
        "event_total": 67,
        "has_played": true,
        "id": 1428549,
        "last_rank": 84980,
        "player_name": "Deji Davies",
        "rank": 63343,
        "rank_sort": 63368,
        "total": 2344
      },
      {
        "club_badge_src": "https://fantasy.premierleague.com/gcs/plfpl-production-adobe-approved/plfpl-production/219208/41684757-0b96-47d3-b714-85ad23c06802.png",
        "entry": 219208,
        "entry_name": "Mt Jube\ufffd",
        "event_total": 64,
        "has_played": true,
        "id": 1457771,
        "last_rank": 77676,
        "player_name": "David Conroy",
        "rank": 63343,
        "rank_sort": 63369,
        "total": 2344
      },
      {
        "club_badge_src": null,
        "entry": 219382,
        "entry_name": "Agurksalat",
        "event_total": 65,
        "has_played": true,
        "id": 1458942,
        "last_rank": 80465,
        "player_name": "Vegard Skaug",
        "rank": 63343,
        "rank_sort": 63370,
        "total": 2344
      },
      {
        "club_badge_src": null,
        "entry": 221234,
        "entry_name": "Balls of Steel",
        "event_total": 51,
        "has_played": true,
        "id": 1471417,
        "last_rank": 47417,
        "player_name": "Joshua Nunthuk",
        "rank": 63343,
        "rank_sort": 63371,
        "total": 2344
      },
      {
        "club_badge_src": null,
        "entry": 231218,
        "entry_name": "Short Cowboy Jo\u00e3o",
        "event_total": 65,
        "has_played": true,
        "id": 1538315,
        "last_rank": 79817,
        "player_name": "Thomas Rice",
        "rank": 63343,
        "rank_sort": 63372,
        "total": 2344
      },
      {
        "club_badge_src": null,
        "entry": 241966,
        "entry_name": "Breaking Ballard",
        "event_total": 60,
        "has_played": true,
        "id": 1610633,
        "last_rank": 69907,
        "player_name": "Josh McQuade",
        "rank": 63343,
        "rank_sort": 63373,
        "total": 2344
      },
      {
        "club_badge_src": null,
        "entry": 257890,
        "entry_name": "Nick Jackson :(",
        "event_total": 61,
        "has_played": true,
        "id": 1714955,
        "last_rank": 49880,
        "player_name": "Max Bruggy",
        "rank": 63343,
        "rank_sort": 63374,
        "total": 2344
      },
      {
        "club_badge_src": null,
        "entry": 261511,
        "entry_name": "Wee Froots v4",
        "event_total": 60,
        "has_played": true,
        "id": 1738436,
        "last_rank": 69323,
        "player_name": "Craig Pollock",
        "rank": 63343,
        "rank_sort": 63375,
        "total": 2344
      },
      {
        "club_badge_src": null,
        "entry": 310940,
        "entry_name": "attar777",
        "event_total": 72,
        "has_played": true,
        "id": 2083078,
        "last_rank": 97096,
        "player_name": "Bob Attar",
        "rank": 63343,
        "rank_sort": 63376,
        "total": 2344
      },
      {
        "club_badge_src": null,
        "entry": 320844,
        "entry_name": "Botman Begins",
        "event_total": 71,
        "has_played": true,
        "id": 2150362,
        "last_rank": 84731,
        "player_name": "Yod R",
        "rank": 63343,
        "rank_sort": 63377,
        "total": 2344
      },
      {
        "club_badge_src": null,
        "entry": 327660,
        "entry_name": "Wirtz case scenario",
        "event_total": 61,
        "has_played": true,
        "id": 2195239,
        "last_rank": 71713,
        "player_name": "Oscar Stephenson",
        "rank": 63343,
        "rank_sort": 63378,
        "total": 2344
      },
      {
        "club_badge_src": null,
        "entry": 333706,
        "entry_name": "DarkLord's United",
        "event_total": 84,
        "has_played": true,
        "id": 2234778,
        "last_rank": 131244,
        "player_name": "Vade Palash",
        "rank": 63343,
        "rank_sort": 63379,
        "total": 2344
      },
      {
        "club_badge_src": "https://fantasy.premierleague.com/gcs/plfpl-production-adobe-approved/plfpl-production/335542/d93200aa-c339-43db-94e3-81ee134233af.png",
        "entry": 335542,
        "entry_name": "Pazza Inter",
        "event_total": 70,
        "has_played": true,
        "id": 2246712,
        "last_rank": 91835,
        "player_name": "Peter Parisi",
        "rank": 63343,
        "rank_sort": 63380,
        "total": 2344
      },
      {
        "club_badge_src": null,
        "entry": 348195,
        "entry_name": "Rice Rice Baby",
        "event_total": 58,
        "has_played": true,
        "id": 2330627,
        "last_rank": 58688,
        "player_name": "Luke Chinda-Coutts",
        "rank": 63343,
        "rank_sort": 63381,
        "total": 2344
      },
      {
        "club_badge_src": null,
        "entry": 368343,
        "entry_name": "xiaoshowFPL",
        "event_total": 65,
        "has_played": true,
        "id": 2464960,
        "last_rank": 71713,
        "player_name": "Nicholas Lim",
        "rank": 63343,
        "rank_sort": 63382,
        "total": 2344
      },
      {
        "club_badge_src": null,
        "entry": 394952,
        "entry_name": "RashDecisions10",
        "event_total": 70,
        "has_played": true,
        "id": 2648673,
        "last_rank": 82398,
        "player_name": "Mike Mullane",
        "rank": 63343,
        "rank_sort": 63383,
        "total": 2344
      },
      {
        "club_badge_src": "https://fantasy.premierleague.com/gcs/plfpl-production-adobe-approved/plfpl-production/396145/92b26a66-1dd5-4614-974e-e76dd03a5ef0.png",
        "entry": 396145,
        "entry_name": "Lionel Amad Messi",
        "event_total": 67,
        "has_played": true,
        "id": 2656590,
        "last_rank": 84731,
        "player_name": "Arnor M Kristinsson",
        "rank": 63343,
        "rank_sort": 63384,
        "total": 2344
      },
      {
        "club_badge_src": null,
        "entry": 434102,
        "entry_name": "Florian Firtz",
        "event_total": 56,
        "has_played": true,
        "id": 2911179,
        "last_rank": 55014,
        "player_name": "Korapuk Lerswanichwattana",
        "rank": 63343,
        "rank_sort": 63385,
        "total": 2344
      },
      {
        "club_badge_src": "https://fantasy.premierleague.com/gcs/plfpl-production-adobe-approved/plfpl-production/438753/288dda08-1f1b-44f7-9bd3-ed309e8a78b8.png",
        "entry": 438753,
        "entry_name": "FidelCa$hFlo",
        "event_total": 47,
        "has_played": true,
        "id": 2942182,
        "last_rank": 47722,
        "player_name": "Ben Taylor",
        "rank": 63343,
        "rank_sort": 63386,
        "total": 2344
      },
      {
        "club_badge_src": "https://fantasy.premierleague.com/gcs/plfpl-production-adobe-approved/plfpl-production/450705/c91c26f1-c089-425d-a0c8-10fec3ef5872.png",
        "entry": 450705,
        "entry_name": "BMFC\u2122",
        "event_total": 62,
        "has_played": true,
        "id": 3023809,
        "last_rank": 65796,
        "player_name": "Thiti Oak",
        "rank": 63343,
        "rank_sort": 63387,
        "total": 2344
      },
      {
        "club_badge_src": null,
        "entry": 461846,
        "entry_name": "F em FC",
        "event_total": 66,
        "has_played": true,
        "id": 3098110,
        "last_rank": 82664,
        "player_name": "cameron smith",
        "rank": 63343,
        "rank_sort": 63388,
        "total": 2344
      },
      {
        "club_badge_src": null,
        "entry": 467947,
        "entry_name": "just james",
        "event_total": 52,
        "has_played": true,
        "id": 3140330,
        "last_rank": 55514,
        "player_name": "James Mulligan",
        "rank": 63343,
        "rank_sort": 63389,
        "total": 2344
      },
      {
        "club_badge_src": null,
        "entry": 470717,
        "entry_name": "History FC",
        "event_total": 87,
        "has_played": true,
        "id": 3160001,
        "last_rank": 126948,
        "player_name": "\u12a1\u1235\u1273\u12dd \u12a8\u12f5\u122d",
        "rank": 63343,
        "rank_sort": 63390,
        "total": 2344
      },
      {
        "club_badge_src": "https://fantasy.premierleague.com/gcs/plfpl-production-adobe-approved/plfpl-production/492753/d9ec6244-3400-471a-8fd9-35521a431f36.png",
        "entry": 492753,
        "entry_name": "LaPulga",
        "event_total": 54,
        "has_played": true,
        "id": 3307659,
        "last_rank": 58688,
        "player_name": "Sulaiman Altamimi",
        "rank": 63343,
        "rank_sort": 63391,
        "total": 2344
      },
      {
        "club_badge_src": "https://fantasy.premierleague.com/gcs/plfpl-production-adobe-approved/plfpl-production/495900/cdf6b74d-b42a-4036-b9fe-a7e6c28a2e3a.png",
        "entry": 495900,
        "entry_name": "ggwp",
        "event_total": 64,
        "has_played": true,
        "id": 3328559,
        "last_rank": 61606,
        "player_name": "Nikola Hristov",
        "rank": 63343,
        "rank_sort": 63392,
        "total": 2344
      },
      {
        "club_badge_src": null,
        "entry": 500111,
        "entry_name": "Beef Cherki",
        "event_total": 57,
        "has_played": true,
        "id": 3356419,
        "last_rank": 57001,
        "player_name": "Jack Lally",
        "rank": 63343,
        "rank_sort": 63393,
        "total": 2344
      },
      {
        "club_badge_src": null,
        "entry": 522187,
        "entry_name": "Curl Up Ndiaye",
        "event_total": 52,
        "has_played": true,
        "id": 3507090,
        "last_rank": 55514,
        "player_name": "Isaac Campbell-Lee",
        "rank": 63343,
        "rank_sort": 63394,
        "total": 2344
      },
      {
        "club_badge_src": null,
        "entry": 530242,
        "entry_name": "Tiger74",
        "event_total": 49,
        "has_played": true,
        "id": 3565838,
        "last_rank": 50635,
        "player_name": "Wira Ismail",
        "rank": 63343,
        "rank_sort": 63395,
        "total": 2344
      },
      {
        "club_badge_src": null,
        "entry": 543225,
        "entry_name": "AMExpress",
        "event_total": 67,
        "has_played": true,
        "id": 3656025,
        "last_rank": 84731,
        "player_name": "Aleksander Maciejewski",
        "rank": 63343,
        "rank_sort": 63396,
        "total": 2344
      },
      {
        "club_badge_src": null,
        "entry": 564434,
        "entry_name": "KBL",
        "event_total": 63,
        "has_played": true,
        "id": 3799225,
        "last_rank": 75874,
        "player_name": "Janne Pirinen",
        "rank": 63343,
        "rank_sort": 63397,
        "total": 2344
      },
      {
        "club_badge_src": "https://fantasy.premierleague.com/gcs/plfpl-production-adobe-approved/plfpl-production/593781/e56ec298-44b3-4b23-9596-84dc67140cc6.png",
        "entry": 593781,
        "entry_name": "corphul",
        "event_total": 62,
        "has_played": true,
        "id": 4001822,
        "last_rank": 65796,
        "player_name": "Artor Pogosean",
        "rank": 63343,
        "rank_sort": 63398,
        "total": 2344
      },
      {
        "club_badge_src": null,
        "entry": 607630,
        "entry_name": "Eustace Barmy Army",
        "event_total": 73,
        "has_played": true,
        "id": 4103624,
        "last_rank": 79817,
        "player_name": "J\u00f8rgen Flenstad",
        "rank": 63343,
        "rank_sort": 63399,
        "total": 2344
      },
      {
        "club_badge_src": null,
        "entry": 657074,
        "entry_name": "BigJoesArmy37",
        "event_total": 52,
        "has_played": true,
        "id": 4440509,
        "last_rank": 55514,
        "player_name": "Brian Daly",
        "rank": 63343,
        "rank_sort": 63400,
        "total": 2344
      }
    ]
  }
}