{
  "last_updated_data": "2026-05-24T23:28:17Z",
  "league": {
    "admin_entry": null,
    "closed": false,
    "code_privacy": "p",
    "created": "2025-07-20T23:14:33.933835Z",
    "cup_league": 2815434,
    "has_cup": true,
    "id": 314,
    "league_type": "s",
    "max_entries": null,
    "name": "Overall",
    "rank": null,
    "scoring": "c",
    "start_event": 1
  },
  "new_entries": {
    "has_next": false,
    "page": 1,
    "results": []
  },
  "standings": {
    "has_next": true,
    "page": 1259,
    "results": [
      {
        "club_badge_src": null,
        "entry": 1208621,
        "entry_name": "Gunners EPL Champs",
        "event_total": 41,
        "has_played": true,
        "id": 8388145,
        "last_rank": 39246,
        "player_name": "Tevin Lawrence",
        "rank": 62778,
        "rank_sort": 62901,
        "total": 2344
      },
      {
        "club_badge_src": null,
        "entry": 1211862,
        "entry_name": "Super Nashwan Power",
        "event_total": 46,
        "has_played": true,
        "id": 8411513,
        "last_rank": 45714,
        "player_name": "James Porteous",
        "rank": 62778,
        "rank_sort": 62902,
        "total": 2344
      },
      {
        "club_badge_src": null,
        "entry": 1226688,
        "entry_name": "ThePeoplesClub11\u26bd\ufe0f",
        "event_total": 77,
        "has_played": true,
        "id": 8517638,
        "last_rank": 109454,
        "player_name": "Andy Przystanski",
        "rank": 62778,
        "rank_sort": 62903,
        "total": 2344
      },
      {
        "club_badge_src": null,
        "entry": 1235263,
        "entry_name": "Joga Bonito",
        "event_total": 47,
        "has_played": true,
        "id": 8577896,
        "last_rank": 46839,
        "player_name": "James Saukila",
        "rank": 62778,
        "rank_sort": 62904,
        "total": 2344
      },
      {
        "club_badge_src": null,
        "entry": 1235660,
        "entry_name": "Too Eze",
        "event_total": 70,
        "has_played": true,
        "id": 8580643,
        "last_rank": 90565,
        "player_name": "Yousef Muqaddas",
        "rank": 62778,
        "rank_sort": 62905,
        "total": 2344
      },
      {
        "club_badge_src": null,
        "entry": 1245417,
        "entry_name": "Tricky Trees FC",
        "event_total": 74,
        "has_played": true,
        "id": 8649500,
        "last_rank": 101419,
        "player_name": "Neil Wood",
        "rank": 62778,
        "rank_sort": 62906,
        "total": 2344
      },
      {
        "club_badge_src": null,
        "entry": 1289203,
        "entry_name": "mixed brunch",
        "event_total": 52,
        "has_played": true,
        "id": 8958423,
        "last_rank": 55311,
        "player_name": "Dawn Hoare",
        "rank": 62778,
        "rank_sort": 62907,
        "total": 2344
      },
      {
        "club_badge_src": null,
        "entry": 1309444,
        "entry_name": "Dingles",
        "event_total": 52,
        "has_played": true,
        "id": 9101837,
        "last_rank": 48363,
        "player_name": "James Martin",
        "rank": 62778,
        "rank_sort": 62908,
        "total": 2344
      },
      {
        "club_badge_src": "https://fantasy.premierleague.com/gcs/plfpl-production-adobe-approved/plfpl-production/1316328/e79eb734-198f-474e-87bd-42fd51501a10.png",
        "entry": 1316328,
        "entry_name": "McGinn and tonic",
        "event_total": 56,
        "has_played": true,
        "id": 9149226,
        "last_rank": 61606,
        "player_name": "Tim Buss",
        "rank": 62778,
        "rank_sort": 62909,
        "total": 2344
      },
      {
        "club_badge_src": null,
        "entry": 1352633,
        "entry_name": "There we land",
        "event_total": 56,
        "has_played": true,
        "id": 9403270,
        "last_rank": 61950,
        "player_name": "Oskar Lindblom",
        "rank": 62778,
        "rank_sort": 62910,
        "total": 2344
      },
      {
        "club_badge_src": null,
        "entry": 1389421,
        "entry_name": "Blood Sweat & Beers",
        "event_total": 59,
        "has_played": true,
        "id": 9664762,
        "last_rank": 59813,
        "player_name": "Ricky Goodenough",
        "rank": 62778,
        "rank_sort": 62911,
        "total": 2344
      },
      {
        "club_badge_src": null,
        "entry": 1435482,
        "entry_name": "Yanited",
        "event_total": 51,
        "has_played": true,
        "id": 10002457,
        "last_rank": 53621,
        "player_name": "Delmin Abdullah",
        "rank": 62778,
        "rank_sort": 62912,
        "total": 2344
      },
      {
        "club_badge_src": null,
        "entry": 1530939,
        "entry_name": "The Squadfather",
        "event_total": 65,
        "has_played": true,
        "id": 10683380,
        "last_rank": 79431,
        "player_name": "Luke Haslam",
        "rank": 62778,
        "rank_sort": 62913,
        "total": 2344
      },
      {
        "club_badge_src": null,
        "entry": 1567725,
        "entry_name": "Loggas Lions",
        "event_total": 48,
        "has_played": true,
        "id": 10951740,
        "last_rank": 48363,
        "player_name": "Chris Lloyd",
        "rank": 62778,
        "rank_sort": 62914,
        "total": 2344
      },
      {
        "club_badge_src": "https://fantasy.premierleague.com/gcs/plfpl-production-adobe-approved/plfpl-production/1608553/fbc18c2a-9e89-4305-9c99-005e9803f6ee.png",
        "entry": 1608553,
        "entry_name": "Bruno Dos Tres _Manu",
        "event_total": 38,
        "has_played": true,
        "id": 11254299,
        "last_rank": 35619,
        "player_name": "Hassanein Mohamed",
        "rank": 62778,
        "rank_sort": 62915,
        "total": 2344
      },
      {
        "club_badge_src": null,
        "entry": 1612800,
        "entry_name": "Troy Story",
        "event_total": 57,
        "has_played": true,
        "id": 11284874,
        "last_rank": 63724,
        "player_name": "Thomas Walsh",
        "rank": 62778,
        "rank_sort": 62916,
        "total": 2344
      },
      {
        "club_badge_src": null,
        "entry": 1666898,
        "entry_name": "Holy Moises",
        "event_total": 72,
        "has_played": true,
        "id": 11670517,
        "last_rank": 95640,
        "player_name": "Kyle Romance",
        "rank": 62778,
        "rank_sort": 62917,
        "total": 2344
      },
      {
        "club_badge_src": null,
        "entry": 1667336,
        "entry_name": "ChIcKeN OdEmWiNgiE",
        "event_total": 57,
        "has_played": true,
        "id": 11673620,
        "last_rank": 56369,
        "player_name": "Daniel Winmill",
        "rank": 62778,
        "rank_sort": 62918,
        "total": 2344
      },
      {
        "club_badge_src": null,
        "entry": 1671503,
        "entry_name": "Its getting Messi",
        "event_total": 56,
        "has_played": true,
        "id": 11702675,
        "last_rank": 62223,
        "player_name": "H Rahman",
        "rank": 62778,
        "rank_sort": 62919,
        "total": 2344
      },
      {
        "club_badge_src": null,
        "entry": 1815057,
        "entry_name": "Tiny Danso",
        "event_total": 44,
        "has_played": true,
        "id": 12763508,
        "last_rank": 37435,
        "player_name": "Connor Brand",
        "rank": 62778,
        "rank_sort": 62920,
        "total": 2344
      },
      {
        "club_badge_src": "https://fantasy.premierleague.com/gcs/plfpl-production-adobe-approved/plfpl-production/1823784/f3d9a4d1-8dee-4cfe-852f-cd48a621a0ff.png",
        "entry": 1823784,
        "entry_name": "A Dutch of Class XI",
        "event_total": 41,
        "has_played": true,
        "id": 12827239,
        "last_rank": 39023,
        "player_name": "Calum Scott",
        "rank": 62778,
        "rank_sort": 62921,
        "total": 2344
      },
      {
        "club_badge_src": null,
        "entry": 1855363,
        "entry_name": "BERI",
        "event_total": 64,
        "has_played": true,
        "id": 13056788,
        "last_rank": 77676,
        "player_name": "Brigui Beri",
        "rank": 62778,
        "rank_sort": 62922,
        "total": 2344
      },
      {
        "club_badge_src": null,
        "entry": 1894405,
        "entry_name": "Shezchenko fc",
        "event_total": 64,
        "has_played": true,
        "id": 13352402,
        "last_rank": 77258,
        "player_name": "Joseph Sherratt",
        "rank": 62778,
        "rank_sort": 62923,
        "total": 2344
      },
      {
        "club_badge_src": null,
        "entry": 1905488,
        "entry_name": "Haalandaise Sauce",
        "event_total": 58,
        "has_played": true,
        "id": 13433178,
        "last_rank": 65796,
        "player_name": "James Foley",
        "rank": 62778,
        "rank_sort": 62924,
        "total": 2344
      },
      {
        "club_badge_src": null,
        "entry": 1913536,
        "entry_name": "Saka La Vista, Baby",
        "event_total": 30,
        "has_played": true,
        "id": 13491372,
        "last_rank": 27020,
        "player_name": "Adam Osweiler",
        "rank": 62778,
        "rank_sort": 62925,
        "total": 2344
      },
      {
        "club_badge_src": null,
        "entry": 1946635,
        "entry_name": "Hazem",
        "event_total": 55,
        "has_played": true,
        "id": 13731295,
        "last_rank": 60462,
        "player_name": "Hazem Elhemasy",
        "rank": 62778,
        "rank_sort": 62926,
        "total": 2344
      },
      {
        "club_badge_src": null,
        "entry": 1959529,
        "entry_name": "Pisa's Pansies",
        "event_total": 61,
        "has_played": true,
        "id": 13824676,
        "last_rank": 71386,
        "player_name": "Craig Pisani",
        "rank": 62778,
        "rank_sort": 62927,
        "total": 2344
      },
      {
        "club_badge_src": "https://fantasy.premierleague.com/gcs/plfpl-production-adobe-approved/plfpl-production/1977877/2f4ca403-0582-46c5-b0ab-009542f15683.png",
        "entry": 1977877,
        "entry_name": "TP's Cityzens",
        "event_total": 58,
        "has_played": true,
        "id": 13962703,
        "last_rank": 65475,
        "player_name": "Tom Parker",
        "rank": 62778,
        "rank_sort": 62928,
        "total": 2344
      },
      {
        "club_badge_src": null,
        "entry": 2002819,
        "entry_name": "Crouch Potato",
        "event_total": 59,
        "has_played": true,
        "id": 14159580,
        "last_rank": 67063,
        "player_name": "Jonny Rendall",
        "rank": 62778,
        "rank_sort": 62929,
        "total": 2344
      },
      {
        "club_badge_src": null,
        "entry": 2003526,
        "entry_name": "ZkusitSusn",
        "event_total": 48,
        "has_played": true,
        "id": 14164758,
        "last_rank": 48642,
        "player_name": "Tom\u00e1\u0161 Novotn\u00fd",
        "rank": 62778,
        "rank_sort": 62930,
        "total": 2344
      },
      {
        "club_badge_src": null,
        "entry": 2155986,
        "entry_name": "Dude Where's My VAR",
        "event_total": 68,
        "has_played": true,
        "id": 15325775,
        "last_rank": 86304,
        "player_name": "Ace Ventura",
        "rank": 62778,
        "rank_sort": 62931,
        "total": 2344
      },
      {
        "club_badge_src": null,
        "entry": 2157100,
        "entry_name": "What the Helly",
        "event_total": 68,
        "has_played": true,
        "id": 15333828,
        "last_rank": 77258,
        "player_name": "Denzel Woods",
        "rank": 62778,
        "rank_sort": 62932,
        "total": 2344
      },
      {
        "club_badge_src": null,
        "entry": 2174230,
        "entry_name": "Obi-Wan Kenobi-Nil",
        "event_total": 64,
        "has_played": true,
        "id": 15460095,
        "last_rank": 77676,
        "player_name": "Max Turnbull",
        "rank": 62778,
        "rank_sort": 62933,
        "total": 2344
      },
      {
        "club_badge_src": "https://fantasy.premierleague.com/gcs/plfpl-production-adobe-approved/plfpl-production/2198086/0c97a979-cc43-4f32-870f-192ec310f24f.png",
        "entry": 2198086,
        "entry_name": "Siuuuuuuuuuuuuuuu FC",
        "event_total": 59,
        "has_played": true,
        "id": 15640998,
        "last_rank": 66848,
        "player_name": "Jamie Bond",
        "rank": 62778,
        "rank_sort": 62934,
        "total": 2344
      },
      {
        "club_badge_src": null,
        "entry": 2226512,
        "entry_name": "Padchester united",
        "event_total": 60,
        "has_played": true,
        "id": 15859786,
        "last_rank": 68957,
        "player_name": "Paddy Donnelly",
        "rank": 62778,
        "rank_sort": 62935,
        "total": 2344
      },
      {
        "club_badge_src": null,
        "entry": 2239887,
        "entry_name": "Fidelis' Finest",
        "event_total": 50,
        "has_played": true,
        "id": 15957309,
        "last_rank": 51403,
        "player_name": "Mark Straub",
        "rank": 62778,
        "rank_sort": 62936,
        "total": 2344
      },
      {
        "club_badge_src": "https://fantasy.premierleague.com/gcs/plfpl-production-adobe-approved/plfpl-production/2287904/ba80ce80-d699-43f1-b51e-f54d6772846a.png",
        "entry": 2287904,
        "entry_name": "Ayyappan FC",
        "event_total": 66,
        "has_played": true,
        "id": 16316785,
        "last_rank": 72815,
        "player_name": "Arun Rushdie",
        "rank": 62778,
        "rank_sort": 62937,
        "total": 2344
      },
      {
        "club_badge_src": null,
        "entry": 2302924,
        "entry_name": "One Man Arne",
        "event_total": 56,
        "has_played": true,
        "id": 16425579,
        "last_rank": 61950,
        "player_name": "Aidan Sloan",
        "rank": 62778,
        "rank_sort": 62938,
        "total": 2344
      },
      {
        "club_badge_src": null,
        "entry": 2311959,
        "entry_name": "Frankly The Best",
        "event_total": 64,
        "has_played": true,
        "id": 16491438,
        "last_rank": 68957,
        "player_name": "Thomas VS",
        "rank": 62778,
        "rank_sort": 62939,
        "total": 2344
      },
      {
        "club_badge_src": "https://fantasy.premierleague.com/gcs/plfpl-production-adobe-approved/plfpl-production/2316728/3e11da02-8a13-4eae-b228-7960500d9554.png",
        "entry": 2316728,
        "entry_name": "Punaiset paholaiset",
        "event_total": 45,
        "has_played": true,
        "id": 16526520,
        "last_rank": 44048,
        "player_name": "Otto Lahikainen",
        "rank": 62778,
        "rank_sort": 62940,
        "total": 2344
      },
      {
        "club_badge_src": "https://fantasy.premierleague.com/gcs/plfpl-production-adobe-approved/plfpl-production/2325204/d06fd210-4d19-4c14-911b-d3d5879ce523.png",
        "entry": 2325204,
        "entry_name": "It`s Turf at the top",
        "event_total": 63,
        "has_played": true,
        "id": 16588815,
        "last_rank": 75139,
        "player_name": "FPL King Bot",
        "rank": 62778,
        "rank_sort": 62941,
        "total": 2344
      },
      {
        "club_badge_src": null,
        "entry": 2325668,
        "entry_name": "Wirtz year ever",
        "event_total": 22,
        "has_played": true,
        "id": 16592227,
        "last_rank": 20280,
        "player_name": "Iain Brown",
        "rank": 62778,
        "rank_sort": 62942,
        "total": 2344
      },
      {
        "club_badge_src": null,
        "entry": 2345141,
        "entry_name": "Pine Riders",
        "event_total": 56,
        "has_played": true,
        "id": 16733481,
        "last_rank": 54494,
        "player_name": "Mike Wackerfuss",
        "rank": 62778,
        "rank_sort": 62943,
        "total": 2344
      },
      {
        "club_badge_src": null,
        "entry": 2405028,
        "entry_name": "Nice Lille Brest",
        "event_total": 64,
        "has_played": true,
        "id": 17190286,
        "last_rank": 77258,
        "player_name": "Mervin Wee",
        "rank": 62778,
        "rank_sort": 62944,
        "total": 2344
      },
      {
        "club_badge_src": null,
        "entry": 2430204,
        "entry_name": "Trebeinte H\u00f8ns",
        "event_total": 72,
        "has_played": true,
        "id": 17377383,
        "last_rank": 95640,
        "player_name": "Malini M\u00f8lleb\u00f8lle",
        "rank": 62778,
        "rank_sort": 62945,
        "total": 2344
      },
      {
        "club_badge_src": null,
        "entry": 2433936,
        "entry_name": "El Diamante",
        "event_total": 59,
        "has_played": true,
        "id": 17405054,
        "last_rank": 66848,
        "player_name": "Luke Dickson",
        "rank": 62778,
        "rank_sort": 62946,
        "total": 2344
      },
      {
        "club_badge_src": null,
        "entry": 2460792,
        "entry_name": "Living Saliba Loca",
        "event_total": 58,
        "has_played": true,
        "id": 17601769,
        "last_rank": 65163,
        "player_name": "Felix Peach",
        "rank": 62778,
        "rank_sort": 62947,
        "total": 2344
      },
      {
        "club_badge_src": null,
        "entry": 2463705,
        "entry_name": "FC Joika",
        "event_total": 52,
        "has_played": true,
        "id": 17622944,
        "last_rank": 55014,
        "player_name": "Runar N\u00f8rstad",
        "rank": 62778,
        "rank_sort": 62948,
        "total": 2344
      },
      {
        "club_badge_src": null,
        "entry": 2499710,
        "entry_name": "Mzaklem",
        "event_total": 52,
        "has_played": true,
        "id": 17897839,
        "last_rank": 54667,
        "player_name": "Achraf Hakim",
        "rank": 62778,
        "rank_sort": 62949,
        "total": 2344
      },
      {
        "club_badge_src": null,
        "entry": 2578437,
        "entry_name": "Bellonearth United",
        "event_total": 63,
        "has_played": true,
        "id": 18505635,
        "last_rank": 75139,
        "player_name": "Jason Bell",
        "rank": 62778,
        "rank_sort": 62950,
        "total": 2344
      }
    ]
  }
}