{
  "last_updated_data": "2026-05-24T23:28:17Z",
  "league": {
    "admin_entry": null,
    "closed": false,
    "code_privacy": "p",
    "created": "2025-07-20T23:14:33.933835Z",
    "cup_league": 2815434,
    "has_cup": true,
    "id": 314,
    "league_type": "s",
    "max_entries": null,
    "name": "Overall",
    "rank": null,
    "scoring": "c",
    "start_event": 1
  },
  "new_entries": {
    "has_next": false,
    "page": 1,
    "results": []
  },
  "standings": {
    "has_next": true,
    "page": 1532,
    "results": [
      {
        "club_badge_src": null,
        "entry": 3250852,
        "entry_name": "The Alvincibles",
        "event_total": 68,
        "has_played": true,
        "id": 24051717,
        "last_rank": 93443,
        "player_name": "Alvin Soden",
        "rank": 76375,
        "rank_sort": 76551,
        "total": 2337
      },
      {
        "club_badge_src": null,
        "entry": 3333708,
        "entry_name": "Wirtz Case Scenario",
        "event_total": 56,
        "has_played": true,
        "id": 24720675,
        "last_rank": 75874,
        "player_name": "Jack Gaynor",
        "rank": 76375,
        "rank_sort": 76552,
        "total": 2337
      },
      {
        "club_badge_src": null,
        "entry": 3451532,
        "entry_name": "Robin van H\u00f8jlund",
        "event_total": 66,
        "has_played": true,
        "id": 25649678,
        "last_rank": 99296,
        "player_name": "Jirapong Tara-Artron",
        "rank": 76375,
        "rank_sort": 76553,
        "total": 2337
      },
      {
        "club_badge_src": "https://fantasy.premierleague.com/gcs/plfpl-production-adobe-approved/plfpl-production/3515116/915f16e8-810c-4a2c-83db-b168dd8fad12.png",
        "entry": 3515116,
        "entry_name": "We won the FA Cup",
        "event_total": 61,
        "has_played": true,
        "id": 26156781,
        "last_rank": 86735,
        "player_name": "Jamie Bedingham",
        "rank": 76375,
        "rank_sort": 76554,
        "total": 2337
      },
      {
        "club_badge_src": null,
        "entry": 3521303,
        "entry_name": "Haiders Hotspurs",
        "event_total": 54,
        "has_played": true,
        "id": 26205436,
        "last_rank": 71386,
        "player_name": "Jawad Haider",
        "rank": 76375,
        "rank_sort": 76555,
        "total": 2337
      },
      {
        "club_badge_src": "https://fantasy.premierleague.com/gcs/plfpl-production-adobe-approved/plfpl-production/3536806/a54f531f-4ac9-42a3-a587-71ee9435859b.png",
        "entry": 3536806,
        "entry_name": "Milanelo",
        "event_total": 59,
        "has_played": true,
        "id": 26325562,
        "last_rank": 82069,
        "player_name": "Erik Vacev",
        "rank": 76375,
        "rank_sort": 76556,
        "total": 2337
      },
      {
        "club_badge_src": null,
        "entry": 3561868,
        "entry_name": "Zulfi FC",
        "event_total": 69,
        "has_played": true,
        "id": 26520349,
        "last_rank": 96374,
        "player_name": "Bader Ali",
        "rank": 76375,
        "rank_sort": 76557,
        "total": 2337
      },
      {
        "club_badge_src": null,
        "entry": 3562288,
        "entry_name": "AsteriskFC*",
        "event_total": 67,
        "has_played": true,
        "id": 26523545,
        "last_rank": 101818,
        "player_name": "Neil Stewart",
        "rank": 76375,
        "rank_sort": 76558,
        "total": 2337
      },
      {
        "club_badge_src": null,
        "entry": 3563066,
        "entry_name": "BlueKangaroo",
        "event_total": 69,
        "has_played": true,
        "id": 26529545,
        "last_rank": 96374,
        "player_name": "Simon Holm Andersen",
        "rank": 76375,
        "rank_sort": 76559,
        "total": 2337
      },
      {
        "club_badge_src": null,
        "entry": 3623945,
        "entry_name": "Craigs 11 duds",
        "event_total": 51,
        "has_played": true,
        "id": 27001857,
        "last_rank": 65796,
        "player_name": "Craig Brazill",
        "rank": 76375,
        "rank_sort": 76560,
        "total": 2337
      },
      {
        "club_badge_src": null,
        "entry": 3642459,
        "entry_name": "Captain Majid",
        "event_total": 63,
        "has_played": true,
        "id": 27146622,
        "last_rank": 91466,
        "player_name": "Ahmed Kamal",
        "rank": 76375,
        "rank_sort": 76561,
        "total": 2337
      },
      {
        "club_badge_src": null,
        "entry": 3733311,
        "entry_name": "good kitties",
        "event_total": 62,
        "has_played": true,
        "id": 27866075,
        "last_rank": 89426,
        "player_name": "oakley james",
        "rank": 76375,
        "rank_sort": 76562,
        "total": 2337
      },
      {
        "club_badge_src": null,
        "entry": 3786546,
        "entry_name": "Raging to Trade",
        "event_total": 49,
        "has_played": true,
        "id": 28282932,
        "last_rank": 55014,
        "player_name": "JS Paine",
        "rank": 76375,
        "rank_sort": 76563,
        "total": 2337
      },
      {
        "club_badge_src": null,
        "entry": 3830864,
        "entry_name": "Snoop Udogie Dogg",
        "event_total": 58,
        "has_played": true,
        "id": 28657052,
        "last_rank": 79817,
        "player_name": "Hugh Hart",
        "rank": 76375,
        "rank_sort": 76564,
        "total": 2337
      },
      {
        "club_badge_src": null,
        "entry": 3842413,
        "entry_name": "FC Z",
        "event_total": 67,
        "has_played": true,
        "id": 28786490,
        "last_rank": 91466,
        "player_name": "Oliver L\u00f6vgren",
        "rank": 76375,
        "rank_sort": 76565,
        "total": 2337
      },
      {
        "club_badge_src": null,
        "entry": 3858978,
        "entry_name": "SD Sockers",
        "event_total": 51,
        "has_played": true,
        "id": 28932745,
        "last_rank": 58388,
        "player_name": "Nathan Plein",
        "rank": 76375,
        "rank_sort": 76566,
        "total": 2337
      },
      {
        "club_badge_src": null,
        "entry": 3994018,
        "entry_name": "Bosden Farm Boys",
        "event_total": 66,
        "has_played": true,
        "id": 30076565,
        "last_rank": 89055,
        "player_name": "Ryan Legg",
        "rank": 76375,
        "rank_sort": 76567,
        "total": 2337
      },
      {
        "club_badge_src": null,
        "entry": 4175466,
        "entry_name": "Baines on Toast",
        "event_total": 54,
        "has_played": true,
        "id": 31582633,
        "last_rank": 70985,
        "player_name": "Kevin Keohane",
        "rank": 76375,
        "rank_sort": 76568,
        "total": 2337
      },
      {
        "club_badge_src": null,
        "entry": 4285699,
        "entry_name": "Diosestavivo",
        "event_total": 71,
        "has_played": true,
        "id": 32506745,
        "last_rank": 112169,
        "player_name": "Godis Ajudeonu-Cyril",
        "rank": 76375,
        "rank_sort": 76569,
        "total": 2337
      },
      {
        "club_badge_src": null,
        "entry": 4298539,
        "entry_name": "Poringa Utd",
        "event_total": 52,
        "has_played": true,
        "id": 32610472,
        "last_rank": 67422,
        "player_name": "Andres Bisquertt",
        "rank": 76375,
        "rank_sort": 76570,
        "total": 2337
      },
      {
        "club_badge_src": null,
        "entry": 4467388,
        "entry_name": "Hakuna Mateta",
        "event_total": 68,
        "has_played": true,
        "id": 34041180,
        "last_rank": 103978,
        "player_name": "Lukas Kelly",
        "rank": 76375,
        "rank_sort": 76571,
        "total": 2337
      },
      {
        "club_badge_src": null,
        "entry": 4486807,
        "entry_name": "Rice Rice Baby",
        "event_total": 76,
        "has_played": true,
        "id": 34198726,
        "last_rank": 126948,
        "player_name": "Kalle Kurjenmaa",
        "rank": 76375,
        "rank_sort": 76572,
        "total": 2337
      },
      {
        "club_badge_src": null,
        "entry": 4509759,
        "entry_name": "Sbuck Utd",
        "event_total": 74,
        "has_played": true,
        "id": 34386654,
        "last_rank": 121705,
        "player_name": "Sam Buckmaster",
        "rank": 76375,
        "rank_sort": 76573,
        "total": 2337
      },
      {
        "club_badge_src": null,
        "entry": 4528410,
        "entry_name": "Toney and the Bets",
        "event_total": 65,
        "has_played": true,
        "id": 34539824,
        "last_rank": 96374,
        "player_name": "Rocco Casale",
        "rank": 76375,
        "rank_sort": 76574,
        "total": 2337
      },
      {
        "club_badge_src": null,
        "entry": 4531887,
        "entry_name": "Led Boots",
        "event_total": 77,
        "has_played": true,
        "id": 34568454,
        "last_rank": 130957,
        "player_name": "Talcy M",
        "rank": 76375,
        "rank_sort": 76575,
        "total": 2337
      },
      {
        "club_badge_src": null,
        "entry": 4585508,
        "entry_name": "HFC",
        "event_total": 54,
        "has_played": true,
        "id": 35009854,
        "last_rank": 71713,
        "player_name": "Josh Houghton",
        "rank": 76375,
        "rank_sort": 76576,
        "total": 2337
      },
      {
        "club_badge_src": null,
        "entry": 4600198,
        "entry_name": "3amore_FC",
        "event_total": 62,
        "has_played": true,
        "id": 35140300,
        "last_rank": 79817,
        "player_name": "Ammar Ahmed",
        "rank": 76375,
        "rank_sort": 76577,
        "total": 2337
      },
      {
        "club_badge_src": null,
        "entry": 4607841,
        "entry_name": "William's Wanderers",
        "event_total": 50,
        "has_played": true,
        "id": 35206866,
        "last_rank": 63201,
        "player_name": "William Enticknap",
        "rank": 76375,
        "rank_sort": 76578,
        "total": 2337
      },
      {
        "club_badge_src": null,
        "entry": 4757498,
        "entry_name": "Mo Haal No Mercy",
        "event_total": 52,
        "has_played": true,
        "id": 36611135,
        "last_rank": 67695,
        "player_name": "Lawrence Howard",
        "rank": 76375,
        "rank_sort": 76579,
        "total": 2337
      },
      {
        "club_badge_src": null,
        "entry": 4848279,
        "entry_name": "Crofton FC",
        "event_total": 56,
        "has_played": true,
        "id": 37352056,
        "last_rank": 75537,
        "player_name": "Alex Forster",
        "rank": 76375,
        "rank_sort": 76580,
        "total": 2337
      },
      {
        "club_badge_src": null,
        "entry": 4856008,
        "entry_name": "Barca Boys",
        "event_total": 62,
        "has_played": true,
        "id": 37416992,
        "last_rank": 89426,
        "player_name": "Loui Hassan",
        "rank": 76375,
        "rank_sort": 76581,
        "total": 2337
      },
      {
        "club_badge_src": null,
        "entry": 4906067,
        "entry_name": "Genebos Sport",
        "event_total": 52,
        "has_played": true,
        "id": 37833224,
        "last_rank": 67695,
        "player_name": "Lander Engelen",
        "rank": 76375,
        "rank_sort": 76582,
        "total": 2337
      },
      {
        "club_badge_src": null,
        "entry": 4948620,
        "entry_name": "Ballon d\u2019Orgu",
        "event_total": 44,
        "has_played": true,
        "id": 38184059,
        "last_rank": 53621,
        "player_name": "Royston Lee",
        "rank": 76375,
        "rank_sort": 76583,
        "total": 2337
      },
      {
        "club_badge_src": null,
        "entry": 5002121,
        "entry_name": "Haakaan",
        "event_total": 52,
        "has_played": true,
        "id": 38624434,
        "last_rank": 67926,
        "player_name": "Hakon Henriksen",
        "rank": 76375,
        "rank_sort": 76584,
        "total": 2337
      },
      {
        "club_badge_src": null,
        "entry": 5058950,
        "entry_name": "JAMO FC",
        "event_total": 74,
        "has_played": true,
        "id": 39090954,
        "last_rank": 120438,
        "player_name": "Ibrahim Jamo",
        "rank": 76375,
        "rank_sort": 76585,
        "total": 2337
      },
      {
        "club_badge_src": null,
        "entry": 5184630,
        "entry_name": "Mcdonken",
        "event_total": 53,
        "has_played": true,
        "id": 40133341,
        "last_rank": 69641,
        "player_name": "Filip Johnsson",
        "rank": 76375,
        "rank_sort": 76586,
        "total": 2337
      },
      {
        "club_badge_src": null,
        "entry": 5205352,
        "entry_name": "Hood Oos Kudus",
        "event_total": 64,
        "has_played": true,
        "id": 40315940,
        "last_rank": 94255,
        "player_name": "Ryan Ilter",
        "rank": 76375,
        "rank_sort": 76587,
        "total": 2337
      },
      {
        "club_badge_src": null,
        "entry": 5216402,
        "entry_name": "Holy Boehly",
        "event_total": 56,
        "has_played": true,
        "id": 40413299,
        "last_rank": 75874,
        "player_name": "Parth Chugh",
        "rank": 76375,
        "rank_sort": 76588,
        "total": 2337
      },
      {
        "club_badge_src": null,
        "entry": 5224911,
        "entry_name": "AitNouri Got Time",
        "event_total": 77,
        "has_played": true,
        "id": 40485250,
        "last_rank": 117915,
        "player_name": "Jeremy Tsai",
        "rank": 76375,
        "rank_sort": 76589,
        "total": 2337
      },
      {
        "club_badge_src": null,
        "entry": 5270154,
        "entry_name": "Kuda Designs",
        "event_total": 74,
        "has_played": true,
        "id": 40846991,
        "last_rank": 108959,
        "player_name": "Alfie Dulley",
        "rank": 76375,
        "rank_sort": 76590,
        "total": 2337
      },
      {
        "club_badge_src": null,
        "entry": 5294901,
        "entry_name": "Bottlejob FC",
        "event_total": 61,
        "has_played": true,
        "id": 41042619,
        "last_rank": 87074,
        "player_name": "Harry Murphy",
        "rank": 76375,
        "rank_sort": 76591,
        "total": 2337
      },
      {
        "club_badge_src": null,
        "entry": 5385365,
        "entry_name": "Chokers FC",
        "event_total": 43,
        "has_played": true,
        "id": 41865687,
        "last_rank": 51984,
        "player_name": "Akshay Sujith",
        "rank": 76375,
        "rank_sort": 76592,
        "total": 2337
      },
      {
        "club_badge_src": null,
        "entry": 5429313,
        "entry_name": "Silent Assassins",
        "event_total": 61,
        "has_played": true,
        "id": 42230794,
        "last_rank": 77258,
        "player_name": "Darren Useree",
        "rank": 76375,
        "rank_sort": 76593,
        "total": 2337
      },
      {
        "club_badge_src": null,
        "entry": 5441858,
        "entry_name": "Moises in the middle",
        "event_total": 45,
        "has_played": true,
        "id": 42339759,
        "last_rank": 55311,
        "player_name": "Bishwa Rai",
        "rank": 76375,
        "rank_sort": 76594,
        "total": 2337
      },
      {
        "club_badge_src": "https://fantasy.premierleague.com/gcs/plfpl-production-adobe-approved/plfpl-production/5456555/ee36aab0-cb86-4193-8d75-d8f996741cb8.png",
        "entry": 5456555,
        "entry_name": "COSYRANKY FC",
        "event_total": 62,
        "has_played": true,
        "id": 42463147,
        "last_rank": 89426,
        "player_name": "DJ TOPLION",
        "rank": 76375,
        "rank_sort": 76595,
        "total": 2337
      },
      {
        "club_badge_src": null,
        "entry": 5470721,
        "entry_name": "Big B\u2019s Biguns",
        "event_total": 60,
        "has_played": true,
        "id": 42584129,
        "last_rank": 84360,
        "player_name": "Brian O Connell",
        "rank": 76375,
        "rank_sort": 76596,
        "total": 2337
      },
      {
        "club_badge_src": null,
        "entry": 5637231,
        "entry_name": "CityGem",
        "event_total": 57,
        "has_played": true,
        "id": 44080480,
        "last_rank": 61606,
        "player_name": "Bambeey Blue",
        "rank": 76375,
        "rank_sort": 76597,
        "total": 2337
      },
      {
        "club_badge_src": null,
        "entry": 5728675,
        "entry_name": "Victory XI",
        "event_total": 34,
        "has_played": true,
        "id": 44877180,
        "last_rank": 29688,
        "player_name": "Jimmy Victory",
        "rank": 76375,
        "rank_sort": 76598,
        "total": 2337
      },
      {
        "club_badge_src": null,
        "entry": 5829274,
        "entry_name": "Cancelo Culture",
        "event_total": 43,
        "has_played": true,
        "id": 45752725,
        "last_rank": 51984,
        "player_name": "Ciaran Boland",
        "rank": 76375,
        "rank_sort": 76599,
        "total": 2337
      },
      {
        "club_badge_src": null,
        "entry": 5857753,
        "entry_name": "the lord",
        "event_total": 43,
        "has_played": true,
        "id": 45994982,
        "last_rank": 51984,
        "player_name": "ahmed osama",
        "rank": 76375,
        "rank_sort": 76600,
        "total": 2337
      }
    ]
  }
}