{
  "last_updated_data": "2026-05-24T23:28:17Z",
  "league": {
    "admin_entry": null,
    "closed": false,
    "code_privacy": "p",
    "created": "2025-07-20T23:14:33.933835Z",
    "cup_league": 2815434,
    "has_cup": true,
    "id": 314,
    "league_type": "s",
    "max_entries": null,
    "name": "Overall",
    "rank": null,
    "scoring": "c",
    "start_event": 1
  },
  "new_entries": {
    "has_next": false,
    "page": 1,
    "results": []
  },
  "standings": {
    "has_next": true,
    "page": 1091,
    "results": [
      {
        "club_badge_src": null,
        "entry": 4146997,
        "entry_name": "2nd Amendment",
        "event_total": 66,
        "has_played": true,
        "id": 31343682,
        "last_rank": 70985,
        "player_name": "Prasanna Raut",
        "rank": 54315,
        "rank_sort": 54501,
        "total": 2349
      },
      {
        "club_badge_src": null,
        "entry": 4152992,
        "entry_name": "Guaro F.C.",
        "event_total": 50,
        "has_played": true,
        "id": 31390322,
        "last_rank": 44303,
        "player_name": "Jes\u00fas Garavito",
        "rank": 54315,
        "rank_sort": 54502,
        "total": 2349
      },
      {
        "club_badge_src": null,
        "entry": 4180272,
        "entry_name": "Olly's At The Wheel",
        "event_total": 60,
        "has_played": true,
        "id": 31623922,
        "last_rank": 52738,
        "player_name": "Oliver Esdaile",
        "rank": 54315,
        "rank_sort": 54503,
        "total": 2349
      },
      {
        "club_badge_src": "https://fantasy.premierleague.com/gcs/plfpl-production-adobe-approved/plfpl-production/4197332/c51b8817-2f3b-4475-b0f3-ded720e240b2.png",
        "entry": 4197332,
        "entry_name": "11 Strikers",
        "event_total": 70,
        "has_played": true,
        "id": 31769071,
        "last_rank": 79431,
        "player_name": "Kwame Danquah",
        "rank": 54315,
        "rank_sort": 54504,
        "total": 2349
      },
      {
        "club_badge_src": null,
        "entry": 4209855,
        "entry_name": "Johnzinho",
        "event_total": 53,
        "has_played": true,
        "id": 31873732,
        "last_rank": 42506,
        "player_name": "John Siefert",
        "rank": 54315,
        "rank_sort": 54505,
        "total": 2349
      },
      {
        "club_badge_src": null,
        "entry": 4214179,
        "entry_name": "McGinn & Tonic",
        "event_total": 55,
        "has_played": true,
        "id": 31910544,
        "last_rank": 51403,
        "player_name": "Sean Martin",
        "rank": 54315,
        "rank_sort": 54506,
        "total": 2349
      },
      {
        "club_badge_src": null,
        "entry": 4241745,
        "entry_name": "He who dares...",
        "event_total": 49,
        "has_played": true,
        "id": 32148295,
        "last_rank": 37589,
        "player_name": "Juraj \u0160pehar",
        "rank": 54315,
        "rank_sort": 54507,
        "total": 2349
      },
      {
        "club_badge_src": null,
        "entry": 4281366,
        "entry_name": "CTRL ALT de Ligt",
        "event_total": 72,
        "has_played": true,
        "id": 32471184,
        "last_rank": 83698,
        "player_name": "Kris Andr\u00e9 Sciuto",
        "rank": 54315,
        "rank_sort": 54508,
        "total": 2349
      },
      {
        "club_badge_src": null,
        "entry": 4347014,
        "entry_name": "crt alt de ligt",
        "event_total": 51,
        "has_played": true,
        "id": 33008210,
        "last_rank": 45927,
        "player_name": "Patrick Mccarthy",
        "rank": 54315,
        "rank_sort": 54509,
        "total": 2349
      },
      {
        "club_badge_src": null,
        "entry": 4391115,
        "entry_name": "\u0160e\u0161ko Clubcard",
        "event_total": 68,
        "has_played": true,
        "id": 33381407,
        "last_rank": 67063,
        "player_name": "Jasper Fenwick",
        "rank": 54315,
        "rank_sort": 54510,
        "total": 2349
      },
      {
        "club_badge_src": null,
        "entry": 4425733,
        "entry_name": "Arnes Slotmaskin",
        "event_total": 52,
        "has_played": true,
        "id": 33684283,
        "last_rank": 41324,
        "player_name": "Albin Olofsson",
        "rank": 54315,
        "rank_sort": 54511,
        "total": 2349
      },
      {
        "club_badge_src": "https://fantasy.premierleague.com/gcs/plfpl-production-adobe-approved/plfpl-production/4465441/460fa4e7-027a-465d-8794-2e9a006cee72.png",
        "entry": 4465441,
        "entry_name": "MadWad Wednesday",
        "event_total": 57,
        "has_played": true,
        "id": 34024649,
        "last_rank": 55014,
        "player_name": "Madeleine Waddington",
        "rank": 54315,
        "rank_sort": 54512,
        "total": 2349
      },
      {
        "club_badge_src": null,
        "entry": 4470849,
        "entry_name": "The Wizard",
        "event_total": 64,
        "has_played": true,
        "id": 34068957,
        "last_rank": 67422,
        "player_name": "Rayhan Chowdhury",
        "rank": 54315,
        "rank_sort": 54513,
        "total": 2349
      },
      {
        "club_badge_src": null,
        "entry": 4473103,
        "entry_name": "Breado",
        "event_total": 55,
        "has_played": true,
        "id": 34087597,
        "last_rank": 51403,
        "player_name": "Braden Ong",
        "rank": 54315,
        "rank_sort": 54514,
        "total": 2349
      },
      {
        "club_badge_src": null,
        "entry": 4495036,
        "entry_name": "omar ahmed",
        "event_total": 60,
        "has_played": true,
        "id": 34265874,
        "last_rank": 60168,
        "player_name": "\u0639\u0645\u0631 \u0627\u0644\u062f\u0644\u064a\u0645\u064a",
        "rank": 54315,
        "rank_sort": 54515,
        "total": 2349
      },
      {
        "club_badge_src": null,
        "entry": 4550039,
        "entry_name": "\u2665\ufe0fPhil Jones 4eva\u2665\ufe0f",
        "event_total": 56,
        "has_played": true,
        "id": 34715916,
        "last_rank": 53345,
        "player_name": "Michael Allpress",
        "rank": 54315,
        "rank_sort": 54516,
        "total": 2349
      },
      {
        "club_badge_src": "https://fantasy.premierleague.com/gcs/plfpl-production-adobe-approved/plfpl-production/4566699/f02005fb-93cd-4d69-a5ea-cafd1bb2a73c.png",
        "entry": 4566699,
        "entry_name": "StFYou FC",
        "event_total": 69,
        "has_played": true,
        "id": 34849430,
        "last_rank": 77050,
        "player_name": "Matthew Illingworth",
        "rank": 54315,
        "rank_sort": 54517,
        "total": 2349
      },
      {
        "club_badge_src": null,
        "entry": 4722778,
        "entry_name": "Ali ibrahim",
        "event_total": 54,
        "has_played": true,
        "id": 36290837,
        "last_rank": 50199,
        "player_name": "Ali Ebrahem",
        "rank": 54315,
        "rank_sort": 54518,
        "total": 2349
      },
      {
        "club_badge_src": null,
        "entry": 4728468,
        "entry_name": "The Payne Train",
        "event_total": 72,
        "has_played": true,
        "id": 36360768,
        "last_rank": 83934,
        "player_name": "Mark Payne",
        "rank": 54315,
        "rank_sort": 54519,
        "total": 2349
      },
      {
        "club_badge_src": null,
        "entry": 4750568,
        "entry_name": "Winging It!",
        "event_total": 60,
        "has_played": true,
        "id": 36555508,
        "last_rank": 52759,
        "player_name": "Andrew Wingfield",
        "rank": 54315,
        "rank_sort": 54520,
        "total": 2349
      },
      {
        "club_badge_src": null,
        "entry": 4807730,
        "entry_name": "Hakuna Mateta",
        "event_total": 63,
        "has_played": true,
        "id": 37018389,
        "last_rank": 65475,
        "player_name": "Miguel Anaya",
        "rank": 54315,
        "rank_sort": 54521,
        "total": 2349
      },
      {
        "club_badge_src": null,
        "entry": 5063021,
        "entry_name": "FFK1903",
        "event_total": 62,
        "has_played": true,
        "id": 39124346,
        "last_rank": 63724,
        "player_name": "Lars Petter Gjermundsen",
        "rank": 54315,
        "rank_sort": 54522,
        "total": 2349
      },
      {
        "club_badge_src": null,
        "entry": 5069762,
        "entry_name": "Magic Team",
        "event_total": 63,
        "has_played": true,
        "id": 39178453,
        "last_rank": 65475,
        "player_name": "Andjela Karan",
        "rank": 54315,
        "rank_sort": 54523,
        "total": 2349
      },
      {
        "club_badge_src": null,
        "entry": 5166729,
        "entry_name": "Curry Wirtz",
        "event_total": 56,
        "has_played": true,
        "id": 39985484,
        "last_rank": 53345,
        "player_name": "Wei Shoon Chow",
        "rank": 54315,
        "rank_sort": 54524,
        "total": 2349
      },
      {
        "club_badge_src": null,
        "entry": 5167198,
        "entry_name": "Hajduk Lion",
        "event_total": 66,
        "has_played": true,
        "id": 39989336,
        "last_rank": 63201,
        "player_name": "Stefan Radmanovic",
        "rank": 54315,
        "rank_sort": 54525,
        "total": 2349
      },
      {
        "club_badge_src": null,
        "entry": 5206969,
        "entry_name": "Doileys Devils",
        "event_total": 65,
        "has_played": true,
        "id": 40329643,
        "last_rank": 69323,
        "player_name": "Paul Dennis",
        "rank": 54315,
        "rank_sort": 54526,
        "total": 2349
      },
      {
        "club_badge_src": null,
        "entry": 5334150,
        "entry_name": "Angus Old",
        "event_total": 42,
        "has_played": true,
        "id": 41353824,
        "last_rank": 34458,
        "player_name": "Kenneth Odden",
        "rank": 54315,
        "rank_sort": 54527,
        "total": 2349
      },
      {
        "club_badge_src": null,
        "entry": 5354658,
        "entry_name": "PIQUE BLINDERS",
        "event_total": 51,
        "has_played": true,
        "id": 41575392,
        "last_rank": 45714,
        "player_name": "Jude J",
        "rank": 54315,
        "rank_sort": 54528,
        "total": 2349
      },
      {
        "club_badge_src": null,
        "entry": 5368573,
        "entry_name": "AdelK",
        "event_total": 59,
        "has_played": true,
        "id": 41710946,
        "last_rank": 51403,
        "player_name": "Adel AlKadi",
        "rank": 54315,
        "rank_sort": 54529,
        "total": 2349
      },
      {
        "club_badge_src": null,
        "entry": 5397166,
        "entry_name": "Cunha Believe It?",
        "event_total": 67,
        "has_played": true,
        "id": 41962859,
        "last_rank": 65163,
        "player_name": "\u0287s\u01ddq .",
        "rank": 54315,
        "rank_sort": 54530,
        "total": 2349
      },
      {
        "club_badge_src": null,
        "entry": 5444832,
        "entry_name": "Mr Mahmoud Hamdy",
        "event_total": 57,
        "has_played": true,
        "id": 42364067,
        "last_rank": 55014,
        "player_name": "\u2705 \u2705",
        "rank": 54315,
        "rank_sort": 54531,
        "total": 2349
      },
      {
        "club_badge_src": null,
        "entry": 5491513,
        "entry_name": "Nashies Devils",
        "event_total": 49,
        "has_played": true,
        "id": 42770821,
        "last_rank": 43168,
        "player_name": "Brian Nash",
        "rank": 54315,
        "rank_sort": 54532,
        "total": 2349
      },
      {
        "club_badge_src": null,
        "entry": 5520027,
        "entry_name": "Alisson Wonderland",
        "event_total": 61,
        "has_played": true,
        "id": 43042495,
        "last_rank": 61411,
        "player_name": "James M",
        "rank": 54315,
        "rank_sort": 54533,
        "total": 2349
      },
      {
        "club_badge_src": "https://fantasy.premierleague.com/gcs/plfpl-production-adobe-approved/plfpl-production/5556252/d54e91f8-2246-4cc9-b06f-19dc03f4b18b.png",
        "entry": 5556252,
        "entry_name": "Astro United",
        "event_total": 52,
        "has_played": true,
        "id": 43370789,
        "last_rank": 47163,
        "player_name": "Gappe T\u00f6rnqvist",
        "rank": 54315,
        "rank_sort": 54534,
        "total": 2349
      },
      {
        "club_badge_src": null,
        "entry": 5684852,
        "entry_name": "Barclaysman FC",
        "event_total": 72,
        "has_played": true,
        "id": 44498412,
        "last_rank": 83934,
        "player_name": "Luke Freely",
        "rank": 54315,
        "rank_sort": 54535,
        "total": 2349
      },
      {
        "club_badge_src": null,
        "entry": 5771012,
        "entry_name": "Unai-Ted Front",
        "event_total": 50,
        "has_played": true,
        "id": 45245938,
        "last_rank": 44303,
        "player_name": "Robert Carsley",
        "rank": 54315,
        "rank_sort": 54536,
        "total": 2349
      },
      {
        "club_badge_src": null,
        "entry": 5785481,
        "entry_name": "Tinchy Sneijder",
        "event_total": 66,
        "has_played": true,
        "id": 45370206,
        "last_rank": 71713,
        "player_name": "ollie williams",
        "rank": 54315,
        "rank_sort": 54537,
        "total": 2349
      },
      {
        "club_badge_src": null,
        "entry": 5805595,
        "entry_name": "NFFCUL8R",
        "event_total": 67,
        "has_played": true,
        "id": 45548626,
        "last_rank": 72815,
        "player_name": "Alec Sladen",
        "rank": 54315,
        "rank_sort": 54538,
        "total": 2349
      },
      {
        "club_badge_src": null,
        "entry": 5843882,
        "entry_name": "Wingit FC",
        "event_total": 41,
        "has_played": true,
        "id": 45876659,
        "last_rank": 33332,
        "player_name": "Ogunmefun Omowonuola",
        "rank": 54315,
        "rank_sort": 54539,
        "total": 2349
      },
      {
        "club_badge_src": null,
        "entry": 5949818,
        "entry_name": "\u53ef\u7231\u591a\u591a\u53ef\u7231",
        "event_total": 61,
        "has_played": true,
        "id": 46797424,
        "last_rank": 61950,
        "player_name": "zeyu chen",
        "rank": 54315,
        "rank_sort": 54540,
        "total": 2349
      },
      {
        "club_badge_src": null,
        "entry": 5980618,
        "entry_name": "Ive had 1 tchouam\u00e9ni",
        "event_total": 59,
        "has_played": true,
        "id": 47091586,
        "last_rank": 51403,
        "player_name": "Josh Furey",
        "rank": 54315,
        "rank_sort": 54541,
        "total": 2349
      },
      {
        "club_badge_src": null,
        "entry": 5985007,
        "entry_name": "K.I.N.G.S F.C",
        "event_total": 57,
        "has_played": true,
        "id": 47137442,
        "last_rank": 54667,
        "player_name": "Mr. Unbeatable",
        "rank": 54315,
        "rank_sort": 54542,
        "total": 2349
      },
      {
        "club_badge_src": null,
        "entry": 5997308,
        "entry_name": "Mrs brown's boys",
        "event_total": 54,
        "has_played": true,
        "id": 47272643,
        "last_rank": 49880,
        "player_name": "Anthony Brown",
        "rank": 54315,
        "rank_sort": 54543,
        "total": 2349
      },
      {
        "club_badge_src": null,
        "entry": 6002449,
        "entry_name": "Kinder Mbuemo",
        "event_total": 48,
        "has_played": true,
        "id": 47320058,
        "last_rank": 41617,
        "player_name": "Harry Graham",
        "rank": 54315,
        "rank_sort": 54544,
        "total": 2349
      },
      {
        "club_badge_src": null,
        "entry": 6014943,
        "entry_name": "Game set and snatch",
        "event_total": 68,
        "has_played": true,
        "id": 47430569,
        "last_rank": 75537,
        "player_name": "Caleb Shah",
        "rank": 54315,
        "rank_sort": 54545,
        "total": 2349
      },
      {
        "club_badge_src": null,
        "entry": 6036847,
        "entry_name": "Zlatan Forever \u270a",
        "event_total": 64,
        "has_played": true,
        "id": 47626146,
        "last_rank": 67695,
        "player_name": "Varun Sridar",
        "rank": 54315,
        "rank_sort": 54546,
        "total": 2349
      },
      {
        "club_badge_src": null,
        "entry": 6050531,
        "entry_name": "Daddy Doddy",
        "event_total": 63,
        "has_played": true,
        "id": 47744325,
        "last_rank": 57857,
        "player_name": "Paul Dorsey",
        "rank": 54315,
        "rank_sort": 54547,
        "total": 2349
      },
      {
        "club_badge_src": null,
        "entry": 6052808,
        "entry_name": "Eze Money",
        "event_total": 57,
        "has_played": true,
        "id": 47764067,
        "last_rank": 55014,
        "player_name": "Dominic Nardizzi",
        "rank": 54315,
        "rank_sort": 54548,
        "total": 2349
      },
      {
        "club_badge_src": null,
        "entry": 6129727,
        "entry_name": "killing Joke Fc",
        "event_total": 80,
        "has_played": true,
        "id": 48435292,
        "last_rank": 104388,
        "player_name": "oladehinde olamilekan",
        "rank": 54315,
        "rank_sort": 54549,
        "total": 2349
      },
      {
        "club_badge_src": null,
        "entry": 6134565,
        "entry_name": "Lokomotiv Davidson",
        "event_total": 62,
        "has_played": true,
        "id": 48478266,
        "last_rank": 63724,
        "player_name": "Russell Davidson",
        "rank": 54315,
        "rank_sort": 54550,
        "total": 2349
      }
    ]
  }
}