{
  "last_updated_data": "2026-05-24T23:28:17Z",
  "league": {
    "admin_entry": null,
    "closed": false,
    "code_privacy": "p",
    "created": "2025-07-20T23:14:33.933835Z",
    "cup_league": 2815434,
    "has_cup": true,
    "id": 314,
    "league_type": "s",
    "max_entries": null,
    "name": "Overall",
    "rank": null,
    "scoring": "c",
    "start_event": 1
  },
  "new_entries": {
    "has_next": false,
    "page": 1,
    "results": []
  },
  "standings": {
    "has_next": true,
    "page": 1267,
    "results": [
      {
        "club_badge_src": null,
        "entry": 6324666,
        "entry_name": "1v9",
        "event_total": 66,
        "has_played": true,
        "id": 50239712,
        "last_rank": 82069,
        "player_name": "Abdulla Ishaq",
        "rank": 63076,
        "rank_sort": 63301,
        "total": 2344
      },
      {
        "club_badge_src": "https://fantasy.premierleague.com/gcs/plfpl-production-adobe-approved/plfpl-production/6350846/c108d7a8-dc3d-4a3a-b39a-f4f4b8568132.png",
        "entry": 6350846,
        "entry_name": "Calafiori Fried Rice",
        "event_total": 73,
        "has_played": true,
        "id": 50487228,
        "last_rank": 98436,
        "player_name": "Marion Agbayani",
        "rank": 63076,
        "rank_sort": 63302,
        "total": 2344
      },
      {
        "club_badge_src": null,
        "entry": 6399405,
        "entry_name": "EzeMoney EzeProblems",
        "event_total": 63,
        "has_played": true,
        "id": 50914547,
        "last_rank": 67063,
        "player_name": "Leyroy G",
        "rank": 63076,
        "rank_sort": 63303,
        "total": 2344
      },
      {
        "club_badge_src": null,
        "entry": 6413711,
        "entry_name": "change name",
        "event_total": 52,
        "has_played": true,
        "id": 51041711,
        "last_rank": 55311,
        "player_name": "jack lindsay",
        "rank": 63076,
        "rank_sort": 63304,
        "total": 2344
      },
      {
        "club_badge_src": null,
        "entry": 6428664,
        "entry_name": "AI XI",
        "event_total": 35,
        "has_played": true,
        "id": 51173662,
        "last_rank": 32190,
        "player_name": "A I",
        "rank": 63076,
        "rank_sort": 63305,
        "total": 2344
      },
      {
        "club_badge_src": "https://fantasy.premierleague.com/gcs/plfpl-production-adobe-approved/plfpl-production/6460308/4b0f4f4f-e96e-4764-b90d-4f3c904a027a.png",
        "entry": 6460308,
        "entry_name": "Bend it like Biggins",
        "event_total": 64,
        "has_played": true,
        "id": 51462878,
        "last_rank": 69323,
        "player_name": "Lizzy Biggins",
        "rank": 63076,
        "rank_sort": 63306,
        "total": 2344
      },
      {
        "club_badge_src": null,
        "entry": 6536351,
        "entry_name": "Forza Leeks",
        "event_total": 58,
        "has_played": true,
        "id": 52145459,
        "last_rank": 65796,
        "player_name": "Alex Bain",
        "rank": 63076,
        "rank_sort": 63307,
        "total": 2344
      },
      {
        "club_badge_src": null,
        "entry": 6603692,
        "entry_name": "ClubdeFutbol1902",
        "event_total": 59,
        "has_played": true,
        "id": 52753141,
        "last_rank": 67926,
        "player_name": "Daniel Kozik",
        "rank": 63076,
        "rank_sort": 63308,
        "total": 2344
      },
      {
        "club_badge_src": null,
        "entry": 6651235,
        "entry_name": "Die Pichliteras",
        "event_total": 46,
        "has_played": true,
        "id": 53172975,
        "last_rank": 45927,
        "player_name": "Marvid Pichlitera",
        "rank": 63076,
        "rank_sort": 63309,
        "total": 2344
      },
      {
        "club_badge_src": null,
        "entry": 6777811,
        "entry_name": "Put a Dendonck on it",
        "event_total": 63,
        "has_played": true,
        "id": 54271783,
        "last_rank": 75874,
        "player_name": "Sean Doyle",
        "rank": 63076,
        "rank_sort": 63310,
        "total": 2344
      },
      {
        "club_badge_src": null,
        "entry": 6869434,
        "entry_name": "6side 1gaff dfu",
        "event_total": 57,
        "has_played": true,
        "id": 55045053,
        "last_rank": 64005,
        "player_name": "Jacob Matalon",
        "rank": 63076,
        "rank_sort": 63311,
        "total": 2344
      },
      {
        "club_badge_src": null,
        "entry": 6920695,
        "entry_name": "bunbohueychinga",
        "event_total": 50,
        "has_played": true,
        "id": 55477354,
        "last_rank": 52205,
        "player_name": "Ephraim Tawia",
        "rank": 63076,
        "rank_sort": 63312,
        "total": 2344
      },
      {
        "club_badge_src": null,
        "entry": 6968853,
        "entry_name": "Bueno Mbeumo",
        "event_total": 57,
        "has_played": true,
        "id": 55899459,
        "last_rank": 64005,
        "player_name": "Kasper Bru\u00e5s",
        "rank": 63076,
        "rank_sort": 63313,
        "total": 2344
      },
      {
        "club_badge_src": null,
        "entry": 6980325,
        "entry_name": "KHASS.11",
        "event_total": 51,
        "has_played": true,
        "id": 56020436,
        "last_rank": 53345,
        "player_name": "kongchen lepcha",
        "rank": 63076,
        "rank_sort": 63314,
        "total": 2344
      },
      {
        "club_badge_src": null,
        "entry": 7291060,
        "entry_name": "Rice to meet you",
        "event_total": 63,
        "has_played": true,
        "id": 58992681,
        "last_rank": 74787,
        "player_name": "Amber Hornbuckle",
        "rank": 63076,
        "rank_sort": 63315,
        "total": 2344
      },
      {
        "club_badge_src": null,
        "entry": 7413410,
        "entry_name": "Nani Al Sabah",
        "event_total": 58,
        "has_played": true,
        "id": 60161788,
        "last_rank": 65475,
        "player_name": "Alex Metev",
        "rank": 63076,
        "rank_sort": 63316,
        "total": 2344
      },
      {
        "club_badge_src": null,
        "entry": 7427015,
        "entry_name": "Shieldsy dream team",
        "event_total": 53,
        "has_played": true,
        "id": 60330638,
        "last_rank": 57001,
        "player_name": "Alan Shields",
        "rank": 63076,
        "rank_sort": 63317,
        "total": 2344
      },
      {
        "club_badge_src": null,
        "entry": 7474311,
        "entry_name": "Burnley",
        "event_total": 70,
        "has_played": true,
        "id": 60950516,
        "last_rank": 91466,
        "player_name": "Ameen Alyosfi",
        "rank": 63076,
        "rank_sort": 63318,
        "total": 2344
      },
      {
        "club_badge_src": null,
        "entry": 7558117,
        "entry_name": "shoot the damn ball",
        "event_total": 68,
        "has_played": true,
        "id": 61885164,
        "last_rank": 87074,
        "player_name": "Jeff Mueller",
        "rank": 63076,
        "rank_sort": 63319,
        "total": 2344
      },
      {
        "club_badge_src": null,
        "entry": 7612437,
        "entry_name": "Wirtz Case Scenario",
        "event_total": 84,
        "has_played": true,
        "id": 62377097,
        "last_rank": 117112,
        "player_name": "Laurence Jones",
        "rank": 63076,
        "rank_sort": 63320,
        "total": 2344
      },
      {
        "club_badge_src": null,
        "entry": 7629674,
        "entry_name": "$\u00fa\u00ef\u00e7\u00eed\u00eb $q\u00fc\u00e3d",
        "event_total": 82,
        "has_played": true,
        "id": 62532921,
        "last_rank": 124682,
        "player_name": "R\u00fcss\u00ef\u00e4n R\u00f8meo",
        "rank": 63076,
        "rank_sort": 63321,
        "total": 2344
      },
      {
        "club_badge_src": null,
        "entry": 7798890,
        "entry_name": "pszcz\u00f3\u0142ki",
        "event_total": 72,
        "has_played": true,
        "id": 64063267,
        "last_rank": 97096,
        "player_name": "Anna W",
        "rank": 63076,
        "rank_sort": 63322,
        "total": 2344
      },
      {
        "club_badge_src": null,
        "entry": 7831201,
        "entry_name": "SakaSpuds",
        "event_total": 43,
        "has_played": true,
        "id": 64356171,
        "last_rank": 41324,
        "player_name": "Eoghan Kelly",
        "rank": 63076,
        "rank_sort": 63323,
        "total": 2344
      },
      {
        "club_badge_src": null,
        "entry": 7848387,
        "entry_name": "Dream team",
        "event_total": 71,
        "has_played": true,
        "id": 64517039,
        "last_rank": 83934,
        "player_name": "Remon Assaad",
        "rank": 63076,
        "rank_sort": 63324,
        "total": 2344
      },
      {
        "club_badge_src": null,
        "entry": 8011653,
        "entry_name": "Sir Isaac Lime XII",
        "event_total": 54,
        "has_played": true,
        "id": 65989569,
        "last_rank": 58388,
        "player_name": "David Feinberg",
        "rank": 63076,
        "rank_sort": 63325,
        "total": 2344
      },
      {
        "club_badge_src": null,
        "entry": 8115586,
        "entry_name": "Dinamo Chicken Kyiv",
        "event_total": 58,
        "has_played": true,
        "id": 66946463,
        "last_rank": 65796,
        "player_name": "Stefan A",
        "rank": 63076,
        "rank_sort": 63326,
        "total": 2344
      },
      {
        "club_badge_src": null,
        "entry": 8207089,
        "entry_name": "CBA FC",
        "event_total": 54,
        "has_played": true,
        "id": 67807617,
        "last_rank": 58688,
        "player_name": "Jatin Tailor",
        "rank": 63076,
        "rank_sort": 63327,
        "total": 2344
      },
      {
        "club_badge_src": "https://fantasy.premierleague.com/gcs/plfpl-production-adobe-approved/plfpl-production/8208943/ee90caea-3ef9-400d-a953-81825378b254.png",
        "entry": 8208943,
        "entry_name": "Bvlgari_70",
        "event_total": 47,
        "has_played": true,
        "id": 67825786,
        "last_rank": 41617,
        "player_name": "Eugen Pivorunas",
        "rank": 63076,
        "rank_sort": 63328,
        "total": 2344
      },
      {
        "club_badge_src": null,
        "entry": 8283681,
        "entry_name": "AQUAFRESH",
        "event_total": 48,
        "has_played": true,
        "id": 68543895,
        "last_rank": 48642,
        "player_name": "Santiparb 14374",
        "rank": 63076,
        "rank_sort": 63329,
        "total": 2344
      },
      {
        "club_badge_src": null,
        "entry": 8345481,
        "entry_name": "Vieirinha FC",
        "event_total": 64,
        "has_played": true,
        "id": 69160334,
        "last_rank": 77999,
        "player_name": "Miguel Vieira",
        "rank": 63076,
        "rank_sort": 63330,
        "total": 2344
      },
      {
        "club_badge_src": null,
        "entry": 8458788,
        "entry_name": "Underdogs United",
        "event_total": 65,
        "has_played": true,
        "id": 70237479,
        "last_rank": 71386,
        "player_name": "Niklas Streimelweger",
        "rank": 63076,
        "rank_sort": 63331,
        "total": 2344
      },
      {
        "club_badge_src": "https://fantasy.premierleague.com/gcs/plfpl-production-adobe-approved/plfpl-production/8471044/6c9f4e1a-554e-4b1c-ba71-10359d2e8b2f.png",
        "entry": 8471044,
        "entry_name": "The Peckers",
        "event_total": 60,
        "has_played": true,
        "id": 70354758,
        "last_rank": 61950,
        "player_name": "Lee Haines",
        "rank": 63076,
        "rank_sort": 63332,
        "total": 2344
      },
      {
        "club_badge_src": null,
        "entry": 8543846,
        "entry_name": "Stached Lineup",
        "event_total": 51,
        "has_played": true,
        "id": 71058998,
        "last_rank": 53621,
        "player_name": "Max Ellacott",
        "rank": 63076,
        "rank_sort": 63333,
        "total": 2344
      },
      {
        "club_badge_src": null,
        "entry": 8577876,
        "entry_name": "Mo Mane Mo Problems",
        "event_total": 66,
        "has_played": true,
        "id": 71385767,
        "last_rank": 73038,
        "player_name": "Connor Farrell",
        "rank": 63076,
        "rank_sort": 63334,
        "total": 2344
      },
      {
        "club_badge_src": null,
        "entry": 8594987,
        "entry_name": "AmorimBall",
        "event_total": 64,
        "has_played": true,
        "id": 71549895,
        "last_rank": 77676,
        "player_name": "Kiarash Mazarei",
        "rank": 63076,
        "rank_sort": 63335,
        "total": 2344
      },
      {
        "club_badge_src": null,
        "entry": 8864491,
        "entry_name": "\u0639\u0628\u0642\u0631\u064a\u0646\u0648",
        "event_total": 59,
        "has_played": true,
        "id": 74166657,
        "last_rank": 67926,
        "player_name": "FAISAL Aburamia",
        "rank": 63076,
        "rank_sort": 63336,
        "total": 2344
      },
      {
        "club_badge_src": null,
        "entry": 8930643,
        "entry_name": "zulusers111",
        "event_total": 56,
        "has_played": true,
        "id": 74808763,
        "last_rank": 62223,
        "player_name": "Rob Whitaker",
        "rank": 63076,
        "rank_sort": 63337,
        "total": 2344
      },
      {
        "club_badge_src": null,
        "entry": 8949447,
        "entry_name": "dczh",
        "event_total": 53,
        "has_played": true,
        "id": 74993728,
        "last_rank": 50199,
        "player_name": "Darrius Cheong",
        "rank": 63076,
        "rank_sort": 63338,
        "total": 2344
      },
      {
        "club_badge_src": null,
        "entry": 9117896,
        "entry_name": "Hensel",
        "event_total": 58,
        "has_played": true,
        "id": 76626534,
        "last_rank": 65796,
        "player_name": "Henrik Selvig",
        "rank": 63076,
        "rank_sort": 63339,
        "total": 2344
      },
      {
        "club_badge_src": null,
        "entry": 9133239,
        "entry_name": "Hardly Athletic.",
        "event_total": 47,
        "has_played": true,
        "id": 76777850,
        "last_rank": 47417,
        "player_name": "dave donovan",
        "rank": 63076,
        "rank_sort": 63340,
        "total": 2344
      },
      {
        "club_badge_src": null,
        "entry": 9289994,
        "entry_name": "Oppstandelsen",
        "event_total": 67,
        "has_played": true,
        "id": 78313617,
        "last_rank": 84360,
        "player_name": "Kenneth SLETVIK",
        "rank": 63076,
        "rank_sort": 63341,
        "total": 2344
      },
      {
        "club_badge_src": null,
        "entry": 9418811,
        "entry_name": "i ewe po kolpa4ku",
        "event_total": 63,
        "has_played": true,
        "id": 79554815,
        "last_rank": 75874,
        "player_name": "Arthur Beloichuk",
        "rank": 63076,
        "rank_sort": 63342,
        "total": 2344
      },
      {
        "club_badge_src": "https://fantasy.premierleague.com/gcs/plfpl-production-adobe-approved/plfpl-production/240/4d393cea-9e87-4c26-8c20-f6d374897cfc.png",
        "entry": 240,
        "entry_name": "DaR\u00fcdiger Sandstorm",
        "event_total": 60,
        "has_played": true,
        "id": 1327,
        "last_rank": 69323,
        "player_name": "Adam Wheeler",
        "rank": 63343,
        "rank_sort": 63343,
        "total": 2344
      },
      {
        "club_badge_src": "https://fantasy.premierleague.com/gcs/plfpl-production-adobe-approved/plfpl-production/2787/f556e467-725f-4847-b13a-05e571f0d959.png",
        "entry": 2787,
        "entry_name": "Ameobi FC",
        "event_total": 60,
        "has_played": true,
        "id": 15656,
        "last_rank": 62223,
        "player_name": "Tom FitzGerald",
        "rank": 63343,
        "rank_sort": 63344,
        "total": 2344
      },
      {
        "club_badge_src": "https://fantasy.premierleague.com/gcs/plfpl-production-adobe-approved/plfpl-production/4952/b13bd5a0-7238-4de8-8871-f7ff0bdecb91.png",
        "entry": 4952,
        "entry_name": "Cold Brew Palmer",
        "event_total": 69,
        "has_played": true,
        "id": 28179,
        "last_rank": 71386,
        "player_name": "Shervin House",
        "rank": 63343,
        "rank_sort": 63345,
        "total": 2344
      },
      {
        "club_badge_src": null,
        "entry": 5970,
        "entry_name": "Cisowianka Perlage",
        "event_total": 62,
        "has_played": true,
        "id": 34155,
        "last_rank": 73423,
        "player_name": "Darek Lewandowski",
        "rank": 63343,
        "rank_sort": 63346,
        "total": 2344
      },
      {
        "club_badge_src": null,
        "entry": 6886,
        "entry_name": "Net Six and Chill",
        "event_total": 65,
        "has_played": true,
        "id": 39622,
        "last_rank": 80465,
        "player_name": "Matthew Hubbard",
        "rank": 63343,
        "rank_sort": 63347,
        "total": 2344
      },
      {
        "club_badge_src": null,
        "entry": 13388,
        "entry_name": "Jeremie Pingpong",
        "event_total": 58,
        "has_played": true,
        "id": 80850,
        "last_rank": 58388,
        "player_name": "Daniel Ellis",
        "rank": 63343,
        "rank_sort": 63348,
        "total": 2344
      },
      {
        "club_badge_src": "https://fantasy.premierleague.com/gcs/plfpl-production-adobe-approved/plfpl-production/15618/9a16fa66-3135-48e3-9415-1f4480b833f8.png",
        "entry": 15618,
        "entry_name": "Housequake Jazz",
        "event_total": 57,
        "has_played": true,
        "id": 96004,
        "last_rank": 56708,
        "player_name": "Sam Millls",
        "rank": 63343,
        "rank_sort": 63349,
        "total": 2344
      },
      {
        "club_badge_src": null,
        "entry": 16507,
        "entry_name": "Obi 1 Kenobi 0",
        "event_total": 59,
        "has_played": true,
        "id": 102008,
        "last_rank": 60462,
        "player_name": "Kyle Reid",
        "rank": 63343,
        "rank_sort": 63350,
        "total": 2344
      }
    ]
  }
}