{
  "last_updated_data": "2026-05-24T23:28:17Z",
  "league": {
    "admin_entry": null,
    "closed": false,
    "code_privacy": "p",
    "created": "2025-07-20T23:14:33.933835Z",
    "cup_league": 2815434,
    "has_cup": true,
    "id": 314,
    "league_type": "s",
    "max_entries": null,
    "name": "Overall",
    "rank": null,
    "scoring": "c",
    "start_event": 1
  },
  "new_entries": {
    "has_next": false,
    "page": 1,
    "results": []
  },
  "standings": {
    "has_next": true,
    "page": 602,
    "results": [
      {
        "club_badge_src": null,
        "entry": 8372281,
        "entry_name": "Tulppaani",
        "event_total": 95,
        "has_played": true,
        "id": 69416492,
        "last_rank": 92973,
        "player_name": "Aleksi Hiidensalo",
        "rank": 29830,
        "rank_sort": 30051,
        "total": 2368
      },
      {
        "club_badge_src": null,
        "entry": 8404560,
        "entry_name": "Ewood You Believe it",
        "event_total": 59,
        "has_played": true,
        "id": 69720562,
        "last_rank": 31747,
        "player_name": "Trevor Montgomery",
        "rank": 29830,
        "rank_sort": 30052,
        "total": 2368
      },
      {
        "club_badge_src": null,
        "entry": 8469483,
        "entry_name": "ramahi team",
        "event_total": 68,
        "has_played": true,
        "id": 70339723,
        "last_rank": 42434,
        "player_name": "ahmed alramahi",
        "rank": 29830,
        "rank_sort": 30053,
        "total": 2368
      },
      {
        "club_badge_src": null,
        "entry": 8580600,
        "entry_name": "The Boehly Trinity",
        "event_total": 68,
        "has_played": true,
        "id": 71411557,
        "last_rank": 42940,
        "player_name": "Joe Lobosco",
        "rank": 29830,
        "rank_sort": 30054,
        "total": 2368
      },
      {
        "club_badge_src": null,
        "entry": 8595004,
        "entry_name": "mob home",
        "event_total": 54,
        "has_played": true,
        "id": 71550063,
        "last_rank": 26827,
        "player_name": "Eugene McSweeney",
        "rank": 29830,
        "rank_sort": 30055,
        "total": 2368
      },
      {
        "club_badge_src": null,
        "entry": 8802387,
        "entry_name": "txznk",
        "event_total": 61,
        "has_played": true,
        "id": 73567884,
        "last_rank": 33936,
        "player_name": "Thanin Muakkaew",
        "rank": 29830,
        "rank_sort": 30056,
        "total": 2368
      },
      {
        "club_badge_src": null,
        "entry": 8890381,
        "entry_name": "FC Bitterball",
        "event_total": 53,
        "has_played": true,
        "id": 74415334,
        "last_rank": 26088,
        "player_name": "Arjen Verlaan",
        "rank": 29830,
        "rank_sort": 30057,
        "total": 2368
      },
      {
        "club_badge_src": null,
        "entry": 8955604,
        "entry_name": "Free Palestine",
        "event_total": 77,
        "has_played": true,
        "id": 75053802,
        "last_rank": 56369,
        "player_name": "Kaspar K\u00fctt",
        "rank": 29830,
        "rank_sort": 30058,
        "total": 2368
      },
      {
        "club_badge_src": "https://fantasy.premierleague.com/gcs/plfpl-production-adobe-approved/plfpl-production/9013791/59bab35f-ddde-4010-8cc5-78a700420160.png",
        "entry": 9013791,
        "entry_name": "BarBlaBla",
        "event_total": 56,
        "has_played": true,
        "id": 75612858,
        "last_rank": 28726,
        "player_name": "Weerapong Lertwisuttipaibul",
        "rank": 29830,
        "rank_sort": 30059,
        "total": 2368
      },
      {
        "club_badge_src": null,
        "entry": 9430372,
        "entry_name": "Saka Potatoes",
        "event_total": 66,
        "has_played": true,
        "id": 79663782,
        "last_rank": 39874,
        "player_name": "Eman Kazemi",
        "rank": 29830,
        "rank_sort": 30060,
        "total": 2368
      },
      {
        "club_badge_src": null,
        "entry": 846,
        "entry_name": "The Bijol & End All",
        "event_total": 65,
        "has_played": true,
        "id": 4677,
        "last_rank": 34051,
        "player_name": "Cormac Adams",
        "rank": 30061,
        "rank_sort": 30061,
        "total": 2368
      },
      {
        "club_badge_src": null,
        "entry": 1394,
        "entry_name": "Men with Van de Ven",
        "event_total": 61,
        "has_played": true,
        "id": 7748,
        "last_rank": 34293,
        "player_name": "Jack Lester",
        "rank": 30061,
        "rank_sort": 30062,
        "total": 2368
      },
      {
        "club_badge_src": null,
        "entry": 1429,
        "entry_name": "Amadum njanum tammil",
        "event_total": 58,
        "has_played": true,
        "id": 7951,
        "last_rank": 26710,
        "player_name": "Rishad Puthiyandi",
        "rank": 30061,
        "rank_sort": 30063,
        "total": 2368
      },
      {
        "club_badge_src": null,
        "entry": 3153,
        "entry_name": "CF Shins 2010",
        "event_total": 75,
        "has_played": true,
        "id": 17795,
        "last_rank": 53023,
        "player_name": "Fernando Granjo",
        "rank": 30061,
        "rank_sort": 30064,
        "total": 2368
      },
      {
        "club_badge_src": "https://fantasy.premierleague.com/gcs/plfpl-production-adobe-approved/plfpl-production/3539/7781bb96-2f29-4041-85a2-644296c6f258.png",
        "entry": 3539,
        "entry_name": "Krafftwerk",
        "event_total": 64,
        "has_played": true,
        "id": 20060,
        "last_rank": 32879,
        "player_name": "Richard Wehinger Krafft",
        "rank": 30061,
        "rank_sort": 30065,
        "total": 2368
      },
      {
        "club_badge_src": "https://fantasy.premierleague.com/gcs/plfpl-production-adobe-approved/plfpl-production/6638/d1090d5c-5534-49da-9d02-83508059f4e1.png",
        "entry": 6638,
        "entry_name": "Galatean Giants",
        "event_total": 51,
        "has_played": true,
        "id": 38144,
        "last_rank": 24143,
        "player_name": "Jonathan Nsofor",
        "rank": 30061,
        "rank_sort": 30066,
        "total": 2368
      },
      {
        "club_badge_src": null,
        "entry": 6956,
        "entry_name": "KraftWirtz",
        "event_total": 68,
        "has_played": true,
        "id": 40036,
        "last_rank": 37589,
        "player_name": "Matt KW",
        "rank": 30061,
        "rank_sort": 30067,
        "total": 2368
      },
      {
        "club_badge_src": null,
        "entry": 11436,
        "entry_name": "RB MATCZYN",
        "event_total": 63,
        "has_played": true,
        "id": 67986,
        "last_rank": 36348,
        "player_name": "Szymon Pi\u0142at",
        "rank": 30061,
        "rank_sort": 30068,
        "total": 2368
      },
      {
        "club_badge_src": null,
        "entry": 18395,
        "entry_name": "mutant ninja skrtls",
        "event_total": 67,
        "has_played": true,
        "id": 114416,
        "last_rank": 41617,
        "player_name": "Josh Botha",
        "rank": 30061,
        "rank_sort": 30069,
        "total": 2368
      },
      {
        "club_badge_src": null,
        "entry": 22769,
        "entry_name": "Robertson and Spice",
        "event_total": 64,
        "has_played": true,
        "id": 143117,
        "last_rank": 37589,
        "player_name": "Gabriel Levy",
        "rank": 30061,
        "rank_sort": 30070,
        "total": 2368
      },
      {
        "club_badge_src": null,
        "entry": 28615,
        "entry_name": "Obi1Kenobi2",
        "event_total": 64,
        "has_played": true,
        "id": 180911,
        "last_rank": 37589,
        "player_name": "Rick Blanco",
        "rank": 30061,
        "rank_sort": 30071,
        "total": 2368
      },
      {
        "club_badge_src": null,
        "entry": 33215,
        "entry_name": "Someone call a Medi\u0107",
        "event_total": 63,
        "has_played": true,
        "id": 211724,
        "last_rank": 36624,
        "player_name": "Joe Meades",
        "rank": 30061,
        "rank_sort": 30072,
        "total": 2368
      },
      {
        "club_badge_src": null,
        "entry": 37253,
        "entry_name": "Ein2Sieben",
        "event_total": 51,
        "has_played": true,
        "id": 238582,
        "last_rank": 24475,
        "player_name": "Asyraf Zeneca",
        "rank": 30061,
        "rank_sort": 30073,
        "total": 2368
      },
      {
        "club_badge_src": null,
        "entry": 37752,
        "entry_name": "Game of throw-ins",
        "event_total": 66,
        "has_played": true,
        "id": 241886,
        "last_rank": 34969,
        "player_name": "Luke C-C",
        "rank": 30061,
        "rank_sort": 30074,
        "total": 2368
      },
      {
        "club_badge_src": null,
        "entry": 38010,
        "entry_name": "Keo FC **",
        "event_total": 58,
        "has_played": true,
        "id": 243570,
        "last_rank": 26710,
        "player_name": "Alex Keenan",
        "rank": 30061,
        "rank_sort": 30075,
        "total": 2368
      },
      {
        "club_badge_src": null,
        "entry": 47265,
        "entry_name": "Kessoku Band",
        "event_total": 68,
        "has_played": true,
        "id": 303108,
        "last_rank": 42648,
        "player_name": "Iroha Isshiki",
        "rank": 30061,
        "rank_sort": 30076,
        "total": 2368
      },
      {
        "club_badge_src": "https://fantasy.premierleague.com/gcs/plfpl-production-adobe-approved/plfpl-production/48650/1297bbb3-d213-4d6d-9783-81e155e1d196.png",
        "entry": 48650,
        "entry_name": "FC moins joli 20",
        "event_total": 67,
        "has_played": true,
        "id": 312522,
        "last_rank": 41162,
        "player_name": "Nicolas Darms",
        "rank": 30061,
        "rank_sort": 30077,
        "total": 2368
      },
      {
        "club_badge_src": null,
        "entry": 48825,
        "entry_name": "Bruno United",
        "event_total": 67,
        "has_played": true,
        "id": 313711,
        "last_rank": 41162,
        "player_name": "Philip Moreton",
        "rank": 30061,
        "rank_sort": 30078,
        "total": 2368
      },
      {
        "club_badge_src": null,
        "entry": 51958,
        "entry_name": "Rooney Tunes",
        "event_total": 68,
        "has_played": true,
        "id": 334147,
        "last_rank": 42940,
        "player_name": "shivanshu kumar",
        "rank": 30061,
        "rank_sort": 30079,
        "total": 2368
      },
      {
        "club_badge_src": null,
        "entry": 53128,
        "entry_name": "LegoHead1",
        "event_total": 66,
        "has_played": true,
        "id": 341721,
        "last_rank": 40297,
        "player_name": "Nikolas Louka",
        "rank": 30061,
        "rank_sort": 30080,
        "total": 2368
      },
      {
        "club_badge_src": null,
        "entry": 60161,
        "entry_name": "The Champ",
        "event_total": 51,
        "has_played": true,
        "id": 387362,
        "last_rank": 20888,
        "player_name": "Adam O Connor",
        "rank": 30061,
        "rank_sort": 30081,
        "total": 2368
      },
      {
        "club_badge_src": null,
        "entry": 60232,
        "entry_name": "Nike Fives",
        "event_total": 56,
        "has_played": true,
        "id": 387813,
        "last_rank": 28726,
        "player_name": "Joshua Taylor",
        "rank": 30061,
        "rank_sort": 30082,
        "total": 2368
      },
      {
        "club_badge_src": null,
        "entry": 61234,
        "entry_name": "Haaland Oates",
        "event_total": 57,
        "has_played": true,
        "id": 394372,
        "last_rank": 29688,
        "player_name": "Mihailo Majstorovic",
        "rank": 30061,
        "rank_sort": 30083,
        "total": 2368
      },
      {
        "club_badge_src": null,
        "entry": 62947,
        "entry_name": "Saka Potatoes",
        "event_total": 48,
        "has_played": true,
        "id": 405993,
        "last_rank": 18691,
        "player_name": "M Siu",
        "rank": 30061,
        "rank_sort": 30084,
        "total": 2368
      },
      {
        "club_badge_src": null,
        "entry": 73581,
        "entry_name": "Noblett's XI",
        "event_total": 59,
        "has_played": true,
        "id": 478292,
        "last_rank": 31747,
        "player_name": "Luca Noblett",
        "rank": 30061,
        "rank_sort": 30085,
        "total": 2368
      },
      {
        "club_badge_src": null,
        "entry": 76332,
        "entry_name": "Delap Dance",
        "event_total": 61,
        "has_played": true,
        "id": 496204,
        "last_rank": 29688,
        "player_name": "Henry Lanfear",
        "rank": 30061,
        "rank_sort": 30086,
        "total": 2368
      },
      {
        "club_badge_src": null,
        "entry": 80134,
        "entry_name": "Not Chester",
        "event_total": 54,
        "has_played": true,
        "id": 521403,
        "last_rank": 27020,
        "player_name": "Mike Williams",
        "rank": 30061,
        "rank_sort": 30087,
        "total": 2368
      },
      {
        "club_badge_src": null,
        "entry": 82113,
        "entry_name": "NotMikeDeanForever \u2b50",
        "event_total": 51,
        "has_played": true,
        "id": 534240,
        "last_rank": 24143,
        "player_name": "Stefan Chetty",
        "rank": 30061,
        "rank_sort": 30088,
        "total": 2368
      },
      {
        "club_badge_src": "https://fantasy.premierleague.com/gcs/plfpl-production-adobe-approved/plfpl-production/87624/3829a377-74f9-443e-b851-88fff355350a.png",
        "entry": 87624,
        "entry_name": "HaCunha Mateta",
        "event_total": 61,
        "has_played": true,
        "id": 571493,
        "last_rank": 34293,
        "player_name": "Stephen Hurd",
        "rank": 30061,
        "rank_sort": 30089,
        "total": 2368
      },
      {
        "club_badge_src": null,
        "entry": 99656,
        "entry_name": "LAZU",
        "event_total": 41,
        "has_played": true,
        "id": 650528,
        "last_rank": 16959,
        "player_name": "Evgeny L",
        "rank": 30061,
        "rank_sort": 30090,
        "total": 2368
      },
      {
        "club_badge_src": "https://fantasy.premierleague.com/gcs/plfpl-production-adobe-approved/plfpl-production/108763/7177c295-6efc-4246-9632-7f0866e9e124.png",
        "entry": 108763,
        "entry_name": "Vege-lista",
        "event_total": 62,
        "has_played": true,
        "id": 709097,
        "last_rank": 35166,
        "player_name": "H\u00e5vard Hjorthaug Vege",
        "rank": 30061,
        "rank_sort": 30091,
        "total": 2368
      },
      {
        "club_badge_src": null,
        "entry": 109402,
        "entry_name": "Phulham FC",
        "event_total": 67,
        "has_played": true,
        "id": 713305,
        "last_rank": 41617,
        "player_name": "Derek Phu",
        "rank": 30061,
        "rank_sort": 30092,
        "total": 2368
      },
      {
        "club_badge_src": "https://fantasy.premierleague.com/gcs/plfpl-production-adobe-approved/plfpl-production/126913/ca834e09-7b3a-4acc-89d5-9379cb8f6c81.png",
        "entry": 126913,
        "entry_name": "alhamdulillah",
        "event_total": 45,
        "has_played": true,
        "id": 827464,
        "last_rank": 19721,
        "player_name": "\u0623\u0633\u062a\u063a\u0641\u0631 \u0644\u0644\u0647",
        "rank": 30061,
        "rank_sort": 30093,
        "total": 2368
      },
      {
        "club_badge_src": null,
        "entry": 133164,
        "entry_name": "Taher",
        "event_total": 66,
        "has_played": true,
        "id": 867370,
        "last_rank": 40297,
        "player_name": "Taher Yasser",
        "rank": 30061,
        "rank_sort": 30094,
        "total": 2368
      },
      {
        "club_badge_src": null,
        "entry": 134665,
        "entry_name": "Linception",
        "event_total": 69,
        "has_played": true,
        "id": 877027,
        "last_rank": 38774,
        "player_name": "Oscar Mok",
        "rank": 30061,
        "rank_sort": 30095,
        "total": 2368
      },
      {
        "club_badge_src": null,
        "entry": 139470,
        "entry_name": "Bruno Joe Sandro",
        "event_total": 52,
        "has_played": true,
        "id": 910293,
        "last_rank": 25002,
        "player_name": "Brandon Teh",
        "rank": 30061,
        "rank_sort": 30096,
        "total": 2368
      },
      {
        "club_badge_src": null,
        "entry": 141144,
        "entry_name": "Great and Good",
        "event_total": 62,
        "has_played": true,
        "id": 922069,
        "last_rank": 30727,
        "player_name": "Grey Head",
        "rank": 30061,
        "rank_sort": 30097,
        "total": 2368
      },
      {
        "club_badge_src": null,
        "entry": 146990,
        "entry_name": "Luke Unshaw",
        "event_total": 67,
        "has_played": true,
        "id": 963103,
        "last_rank": 41324,
        "player_name": "Luke Loughlin",
        "rank": 30061,
        "rank_sort": 30098,
        "total": 2368
      },
      {
        "club_badge_src": null,
        "entry": 152451,
        "entry_name": "Frankos",
        "event_total": 55,
        "has_played": true,
        "id": 1000601,
        "last_rank": 27770,
        "player_name": "Steve Franklin",
        "rank": 30061,
        "rank_sort": 30099,
        "total": 2368
      },
      {
        "club_badge_src": null,
        "entry": 173480,
        "entry_name": "Cunha Believe It?",
        "event_total": 67,
        "has_played": true,
        "id": 1145712,
        "last_rank": 36348,
        "player_name": "sakeen k",
        "rank": 30061,
        "rank_sort": 30100,
        "total": 2368
      }
    ]
  }
}