{
  "last_updated_data": "2026-05-24T23:28:17Z",
  "league": {
    "admin_entry": null,
    "closed": false,
    "code_privacy": "p",
    "created": "2025-07-20T23:14:33.933835Z",
    "cup_league": 2815434,
    "has_cup": true,
    "id": 314,
    "league_type": "s",
    "max_entries": null,
    "name": "Overall",
    "rank": null,
    "scoring": "c",
    "start_event": 1
  },
  "new_entries": {
    "has_next": false,
    "page": 1,
    "results": []
  },
  "standings": {
    "has_next": true,
    "page": 1556,
    "results": [
      {
        "club_badge_src": null,
        "entry": 8766658,
        "entry_name": "Tepsiti",
        "event_total": 59,
        "has_played": true,
        "id": 73222703,
        "last_rank": 83934,
        "player_name": "Terenyi Istv\u00e1n",
        "rank": 77615,
        "rank_sort": 77751,
        "total": 2336
      },
      {
        "club_badge_src": null,
        "entry": 8883316,
        "entry_name": "cockconfidence",
        "event_total": 53,
        "has_played": true,
        "id": 74346573,
        "last_rank": 70651,
        "player_name": "Cayman Tang",
        "rank": 77615,
        "rank_sort": 77752,
        "total": 2336
      },
      {
        "club_badge_src": null,
        "entry": 9180780,
        "entry_name": "Onslow Cockaynes",
        "event_total": 49,
        "has_played": true,
        "id": 77243813,
        "last_rank": 63117,
        "player_name": "James Maitland",
        "rank": 77615,
        "rank_sort": 77753,
        "total": 2336
      },
      {
        "club_badge_src": null,
        "entry": 9200810,
        "entry_name": "rovers rejects",
        "event_total": 51,
        "has_played": true,
        "id": 77442043,
        "last_rank": 66848,
        "player_name": "Craig Ross",
        "rank": 77615,
        "rank_sort": 77754,
        "total": 2336
      },
      {
        "club_badge_src": "https://fantasy.premierleague.com/gcs/plfpl-production-adobe-approved/plfpl-production/9222182/276221b5-76b0-4616-8f85-fff124fc9a60.png",
        "entry": 9222182,
        "entry_name": "ABSXI",
        "event_total": 58,
        "has_played": true,
        "id": 77651301,
        "last_rank": 81244,
        "player_name": "Adarsh Simepurushkar",
        "rank": 77615,
        "rank_sort": 77755,
        "total": 2336
      },
      {
        "club_badge_src": null,
        "entry": 9300733,
        "entry_name": "Joy boy  \u2b50\u2b50\u2b50\u2b50",
        "event_total": 47,
        "has_played": true,
        "id": 78416856,
        "last_rank": 59813,
        "player_name": "Chihab LIVERPOOL",
        "rank": 77615,
        "rank_sort": 77756,
        "total": 2336
      },
      {
        "club_badge_src": null,
        "entry": 780,
        "entry_name": "BK Grovjobb",
        "event_total": 53,
        "has_played": true,
        "id": 4312,
        "last_rank": 71386,
        "player_name": "Johannes Wetterberg",
        "rank": 77757,
        "rank_sort": 77757,
        "total": 2336
      },
      {
        "club_badge_src": null,
        "entry": 814,
        "entry_name": "Calgoat",
        "event_total": 73,
        "has_played": true,
        "id": 4497,
        "last_rank": 119893,
        "player_name": "Calum Conneely",
        "rank": 77757,
        "rank_sort": 77758,
        "total": 2336
      },
      {
        "club_badge_src": null,
        "entry": 874,
        "entry_name": "Hellstr\u00f6ms Elit",
        "event_total": 65,
        "has_played": true,
        "id": 4830,
        "last_rank": 98183,
        "player_name": "Edvin Hellstr\u00f6m",
        "rank": 77757,
        "rank_sort": 77759,
        "total": 2336
      },
      {
        "club_badge_src": null,
        "entry": 1042,
        "entry_name": "Kn\u00f6ck Y\u00f6ur Gy\u00f6ks \u00d6ff",
        "event_total": 52,
        "has_played": true,
        "id": 5781,
        "last_rank": 69323,
        "player_name": "George Williamson",
        "rank": 77757,
        "rank_sort": 77760,
        "total": 2336
      },
      {
        "club_badge_src": null,
        "entry": 1085,
        "entry_name": "Tividale Rangers",
        "event_total": 61,
        "has_played": true,
        "id": 6026,
        "last_rank": 88594,
        "player_name": "Richard Whittall",
        "rank": 77757,
        "rank_sort": 77761,
        "total": 2336
      },
      {
        "club_badge_src": "https://fantasy.premierleague.com/gcs/plfpl-production-adobe-approved/plfpl-production/1211/ef2644d0-544c-4941-ac25-d38a3085aa3f.png",
        "entry": 1211,
        "entry_name": "Rutter Woke Nonsense",
        "event_total": 48,
        "has_played": true,
        "id": 6725,
        "last_rank": 61606,
        "player_name": "Devin Ignore The Template Pod",
        "rank": 77757,
        "rank_sort": 77762,
        "total": 2336
      },
      {
        "club_badge_src": null,
        "entry": 4463,
        "entry_name": "FC Whisky",
        "event_total": 60,
        "has_played": true,
        "id": 25378,
        "last_rank": 86735,
        "player_name": "Are Christian Nesheim",
        "rank": 77757,
        "rank_sort": 77763,
        "total": 2336
      },
      {
        "club_badge_src": null,
        "entry": 16679,
        "entry_name": "Bat Jose",
        "event_total": 56,
        "has_played": true,
        "id": 103170,
        "last_rank": 77050,
        "player_name": "Jensu Arifin",
        "rank": 77757,
        "rank_sort": 77764,
        "total": 2336
      },
      {
        "club_badge_src": null,
        "entry": 21189,
        "entry_name": "Toney Doesn\u2019t Beto",
        "event_total": 57,
        "has_played": true,
        "id": 132823,
        "last_rank": 79190,
        "player_name": "James Baillie",
        "rank": 77757,
        "rank_sort": 77765,
        "total": 2336
      },
      {
        "club_badge_src": null,
        "entry": 25792,
        "entry_name": "Rapid Brennevin",
        "event_total": 68,
        "has_played": true,
        "id": 163127,
        "last_rank": 105963,
        "player_name": "Petter T\u00f8mmerberg",
        "rank": 77757,
        "rank_sort": 77766,
        "total": 2336
      },
      {
        "club_badge_src": "https://fantasy.premierleague.com/gcs/plfpl-production-adobe-approved/plfpl-production/28432/89e22936-e964-4208-a17f-ccc0d0fae321.png",
        "entry": 28432,
        "entry_name": "YAMAM\u00d8T\u00d8'S",
        "event_total": 65,
        "has_played": true,
        "id": 179784,
        "last_rank": 98436,
        "player_name": "Shinya Yamamoto",
        "rank": 77757,
        "rank_sort": 77767,
        "total": 2336
      },
      {
        "club_badge_src": null,
        "entry": 29837,
        "entry_name": "FF",
        "event_total": 68,
        "has_played": true,
        "id": 188748,
        "last_rank": 105818,
        "player_name": "Chris Gibbs",
        "rank": 77757,
        "rank_sort": 77768,
        "total": 2336
      },
      {
        "club_badge_src": "https://fantasy.premierleague.com/gcs/plfpl-production-adobe-approved/plfpl-production/30148/9a7f5067-2bcd-4d6f-976a-b82861abafc0.png",
        "entry": 30148,
        "entry_name": "Zirkzee me rolling",
        "event_total": 65,
        "has_played": true,
        "id": 190771,
        "last_rank": 98436,
        "player_name": "Isaac Callaghan-Kay",
        "rank": 77757,
        "rank_sort": 77769,
        "total": 2336
      },
      {
        "club_badge_src": null,
        "entry": 30564,
        "entry_name": "Unsheathed lance",
        "event_total": 43,
        "has_played": true,
        "id": 193422,
        "last_rank": 53023,
        "player_name": "I B",
        "rank": 77757,
        "rank_sort": 77770,
        "total": 2336
      },
      {
        "club_badge_src": null,
        "entry": 36092,
        "entry_name": "Full Escabio",
        "event_total": 69,
        "has_played": true,
        "id": 230970,
        "last_rank": 108689,
        "player_name": "Santiago Ferrero",
        "rank": 77757,
        "rank_sort": 77771,
        "total": 2336
      },
      {
        "club_badge_src": null,
        "entry": 38018,
        "entry_name": "FC Belvedere",
        "event_total": 68,
        "has_played": true,
        "id": 243616,
        "last_rank": 106259,
        "player_name": "Tim Pau",
        "rank": 77757,
        "rank_sort": 77772,
        "total": 2336
      },
      {
        "club_badge_src": "https://fantasy.premierleague.com/gcs/plfpl-production-adobe-approved/plfpl-production/38808/6208bbf8-9dec-4d8f-8170-1bdb23efb9b0.png",
        "entry": 38808,
        "entry_name": "Pragovka",
        "event_total": 58,
        "has_played": true,
        "id": 248782,
        "last_rank": 81646,
        "player_name": "Tom\u00e1\u0161 F\u00f6rster",
        "rank": 77757,
        "rank_sort": 77773,
        "total": 2336
      },
      {
        "club_badge_src": null,
        "entry": 39836,
        "entry_name": "Steven's Scimitars",
        "event_total": 66,
        "has_played": true,
        "id": 255336,
        "last_rank": 100700,
        "player_name": "Steven Hawkins",
        "rank": 77757,
        "rank_sort": 77774,
        "total": 2336
      },
      {
        "club_badge_src": null,
        "entry": 46580,
        "entry_name": "queens park raisins",
        "event_total": 64,
        "has_played": true,
        "id": 298595,
        "last_rank": 95890,
        "player_name": "Jack Jones",
        "rank": 77757,
        "rank_sort": 77775,
        "total": 2336
      },
      {
        "club_badge_src": null,
        "entry": 46780,
        "entry_name": "Pique Blinders",
        "event_total": 55,
        "has_played": true,
        "id": 299876,
        "last_rank": 74787,
        "player_name": "Daniel Watt",
        "rank": 77757,
        "rank_sort": 77776,
        "total": 2336
      },
      {
        "club_badge_src": null,
        "entry": 48021,
        "entry_name": "Weetabix Knee FC",
        "event_total": 68,
        "has_played": true,
        "id": 308226,
        "last_rank": 105963,
        "player_name": "Josh Hunt",
        "rank": 77757,
        "rank_sort": 77777,
        "total": 2336
      },
      {
        "club_badge_src": null,
        "entry": 48048,
        "entry_name": "Mbeumordi",
        "event_total": 54,
        "has_played": true,
        "id": 308404,
        "last_rank": 73038,
        "player_name": "David Minge",
        "rank": 77757,
        "rank_sort": 77778,
        "total": 2336
      },
      {
        "club_badge_src": null,
        "entry": 53395,
        "entry_name": "KobbieKobbieKobbie",
        "event_total": 50,
        "has_played": true,
        "id": 343514,
        "last_rank": 64943,
        "player_name": "Pieter van der Ploeg",
        "rank": 77757,
        "rank_sort": 77779,
        "total": 2336
      },
      {
        "club_badge_src": null,
        "entry": 66357,
        "entry_name": "Cannons go BOOM!",
        "event_total": 54,
        "has_played": true,
        "id": 428953,
        "last_rank": 73038,
        "player_name": "H\u00f6r\u00f0ur Stef\u00e1nsson",
        "rank": 77757,
        "rank_sort": 77780,
        "total": 2336
      },
      {
        "club_badge_src": "https://fantasy.premierleague.com/gcs/plfpl-production-adobe-approved/plfpl-production/69836/ee0d7979-4eb2-452f-8640-591fc25a8d58.png",
        "entry": 69836,
        "entry_name": "Obi 1 Kenobi 0",
        "event_total": 51,
        "has_played": true,
        "id": 453227,
        "last_rank": 66848,
        "player_name": "Gerg\u0151 Hark\u00e1nyi",
        "rank": 77757,
        "rank_sort": 77781,
        "total": 2336
      },
      {
        "club_badge_src": "https://fantasy.premierleague.com/gcs/plfpl-production-adobe-approved/plfpl-production/70848/a2af44ba-2d5c-4e7e-a4dd-736cda761fd7.png",
        "entry": 70848,
        "entry_name": "Red Nose Reijnders",
        "event_total": 62,
        "has_played": true,
        "id": 460084,
        "last_rank": 91006,
        "player_name": "Nicolas Black",
        "rank": 77757,
        "rank_sort": 77782,
        "total": 2336
      },
      {
        "club_badge_src": null,
        "entry": 80847,
        "entry_name": "Lukaku Lukamu Jua",
        "event_total": 60,
        "has_played": true,
        "id": 525986,
        "last_rank": 86735,
        "player_name": "Mohd Qamar",
        "rank": 77757,
        "rank_sort": 77783,
        "total": 2336
      },
      {
        "club_badge_src": "https://fantasy.premierleague.com/gcs/plfpl-production-adobe-approved/plfpl-production/82379/32f51bfb-b98c-4312-a590-25c1cc1b806a.png",
        "entry": 82379,
        "entry_name": "Blinchki",
        "event_total": 40,
        "has_played": true,
        "id": 536034,
        "last_rank": 48197,
        "player_name": "James Michaelis",
        "rank": 77757,
        "rank_sort": 77784,
        "total": 2336
      },
      {
        "club_badge_src": null,
        "entry": 85131,
        "entry_name": "No Country For Foden",
        "event_total": 49,
        "has_played": true,
        "id": 554338,
        "last_rank": 63390,
        "player_name": "Michael Coyle",
        "rank": 77757,
        "rank_sort": 77785,
        "total": 2336
      },
      {
        "club_badge_src": null,
        "entry": 86527,
        "entry_name": "Suk my Gyok",
        "event_total": 51,
        "has_played": true,
        "id": 563927,
        "last_rank": 66848,
        "player_name": "Rory Wheeler",
        "rank": 77757,
        "rank_sort": 77786,
        "total": 2336
      },
      {
        "club_badge_src": "https://fantasy.premierleague.com/gcs/plfpl-production-adobe-approved/plfpl-production/86590/f8ba086b-f28b-474a-b1c3-b1e5a6e8986a.png",
        "entry": 86590,
        "entry_name": "The Wirtz Team FC",
        "event_total": 53,
        "has_played": true,
        "id": 564371,
        "last_rank": 70651,
        "player_name": "Stuart Pearce",
        "rank": 77757,
        "rank_sort": 77787,
        "total": 2336
      },
      {
        "club_badge_src": null,
        "entry": 87587,
        "entry_name": "What the Hecke?",
        "event_total": 54,
        "has_played": true,
        "id": 571239,
        "last_rank": 72815,
        "player_name": "Gary Lee",
        "rank": 77757,
        "rank_sort": 77788,
        "total": 2336
      },
      {
        "club_badge_src": null,
        "entry": 87748,
        "entry_name": "tar83tar",
        "event_total": 52,
        "has_played": true,
        "id": 572325,
        "last_rank": 68957,
        "player_name": "tar vajarachitkul",
        "rank": 77757,
        "rank_sort": 77789,
        "total": 2336
      },
      {
        "club_badge_src": null,
        "entry": 90411,
        "entry_name": "Aqif Faiha FC",
        "event_total": 58,
        "has_played": true,
        "id": 590277,
        "last_rank": 81312,
        "player_name": "Firdaus Taicho",
        "rank": 77757,
        "rank_sort": 77790,
        "total": 2336
      },
      {
        "club_badge_src": "https://fantasy.premierleague.com/gcs/plfpl-production-adobe-approved/plfpl-production/97006/eb56d9f8-98fd-4476-ada6-e14d62114d7c.png",
        "entry": 97006,
        "entry_name": "Ogera FC",
        "event_total": 54,
        "has_played": true,
        "id": 633634,
        "last_rank": 72815,
        "player_name": "Omur Mahmoud",
        "rank": 77757,
        "rank_sort": 77791,
        "total": 2336
      },
      {
        "club_badge_src": "https://fantasy.premierleague.com/gcs/plfpl-production-adobe-approved/plfpl-production/97197/c4ff9df0-0ce9-4e4a-b55e-996d6d9f5140.png",
        "entry": 97197,
        "entry_name": "Mohammad 9 year old",
        "event_total": 55,
        "has_played": true,
        "id": 634862,
        "last_rank": 75537,
        "player_name": "Prian Chatha",
        "rank": 77757,
        "rank_sort": 77792,
        "total": 2336
      },
      {
        "club_badge_src": "https://fantasy.premierleague.com/gcs/plfpl-production-adobe-approved/plfpl-production/99799/22643b7f-ac52-4f1f-a8c8-8f1a5d7bcc67.png",
        "entry": 99799,
        "entry_name": "Victor Moses Lawn",
        "event_total": 65,
        "has_played": true,
        "id": 651426,
        "last_rank": 98183,
        "player_name": "Sasha Lancefield",
        "rank": 77757,
        "rank_sort": 77793,
        "total": 2336
      },
      {
        "club_badge_src": null,
        "entry": 101497,
        "entry_name": "Your Wirtz Nightmare",
        "event_total": 60,
        "has_played": true,
        "id": 662227,
        "last_rank": 86304,
        "player_name": "Joshua McConkey",
        "rank": 77757,
        "rank_sort": 77794,
        "total": 2336
      },
      {
        "club_badge_src": null,
        "entry": 107707,
        "entry_name": "Thomas the Frank Eng",
        "event_total": 55,
        "has_played": true,
        "id": 702203,
        "last_rank": 74787,
        "player_name": "Corey Voakes",
        "rank": 77757,
        "rank_sort": 77795,
        "total": 2336
      },
      {
        "club_badge_src": null,
        "entry": 108195,
        "entry_name": "Fab4",
        "event_total": 55,
        "has_played": true,
        "id": 705428,
        "last_rank": 74898,
        "player_name": "Christian Br\u00e4utigam",
        "rank": 77757,
        "rank_sort": 77796,
        "total": 2336
      },
      {
        "club_badge_src": null,
        "entry": 112106,
        "entry_name": "Utter Woke Nonsense",
        "event_total": 48,
        "has_played": true,
        "id": 730898,
        "last_rank": 61315,
        "player_name": "Alexey Kondratov",
        "rank": 77757,
        "rank_sort": 77797,
        "total": 2336
      },
      {
        "club_badge_src": null,
        "entry": 112592,
        "entry_name": "Dembele Galaxy",
        "event_total": 60,
        "has_played": true,
        "id": 734169,
        "last_rank": 86054,
        "player_name": "Martin Sinfield",
        "rank": 77757,
        "rank_sort": 77798,
        "total": 2336
      },
      {
        "club_badge_src": null,
        "entry": 116471,
        "entry_name": "Fc Harrikane",
        "event_total": 58,
        "has_played": true,
        "id": 760402,
        "last_rank": 81646,
        "player_name": "Timur Emaldynov",
        "rank": 77757,
        "rank_sort": 77799,
        "total": 2336
      },
      {
        "club_badge_src": "https://fantasy.premierleague.com/gcs/plfpl-production-adobe-approved/plfpl-production/126833/a7a6b100-2ce7-47f6-9234-5a053af19cc7.png",
        "entry": 126833,
        "entry_name": "Gengeta",
        "event_total": 66,
        "has_played": true,
        "id": 826938,
        "last_rank": 100572,
        "player_name": "Genry Piletsky",
        "rank": 77757,
        "rank_sort": 77800,
        "total": 2336
      }
    ]
  }
}