{
  "last_updated_data": "2026-05-24T23:28:17Z",
  "league": {
    "admin_entry": null,
    "closed": false,
    "code_privacy": "p",
    "created": "2025-07-20T23:14:33.933835Z",
    "cup_league": 2815434,
    "has_cup": true,
    "id": 314,
    "league_type": "s",
    "max_entries": null,
    "name": "Overall",
    "rank": null,
    "scoring": "c",
    "start_event": 1
  },
  "new_entries": {
    "has_next": false,
    "page": 1,
    "results": []
  },
  "standings": {
    "has_next": true,
    "page": 1099,
    "results": [
      {
        "club_badge_src": null,
        "entry": 526372,
        "entry_name": "Expected Toulouse",
        "event_total": 60,
        "has_played": true,
        "id": 3538260,
        "last_rank": 60827,
        "player_name": "Oliver Gore",
        "rank": 54848,
        "rank_sort": 54901,
        "total": 2349
      },
      {
        "club_badge_src": null,
        "entry": 551396,
        "entry_name": "Bongo Fury",
        "event_total": 55,
        "has_played": true,
        "id": 3711331,
        "last_rank": 45714,
        "player_name": "Paul Wilkins",
        "rank": 54848,
        "rank_sort": 54902,
        "total": 2349
      },
      {
        "club_badge_src": null,
        "entry": 556368,
        "entry_name": "Squallpool",
        "event_total": 67,
        "has_played": true,
        "id": 3744414,
        "last_rank": 65475,
        "player_name": "Vincent Dahlin",
        "rank": 54848,
        "rank_sort": 54903,
        "total": 2349
      },
      {
        "club_badge_src": null,
        "entry": 615255,
        "entry_name": "AmiloX1",
        "event_total": 60,
        "has_played": true,
        "id": 4157201,
        "last_rank": 60462,
        "player_name": "JP Healy",
        "rank": 54848,
        "rank_sort": 54904,
        "total": 2349
      },
      {
        "club_badge_src": null,
        "entry": 618544,
        "entry_name": "Milambo No.5",
        "event_total": 64,
        "has_played": true,
        "id": 4179400,
        "last_rank": 67695,
        "player_name": "James Hauser",
        "rank": 54848,
        "rank_sort": 54905,
        "total": 2349
      },
      {
        "club_badge_src": null,
        "entry": 638329,
        "entry_name": "IFeelLove Donnarumma",
        "event_total": 58,
        "has_played": true,
        "id": 4314120,
        "last_rank": 50468,
        "player_name": "Warren Bolton",
        "rank": 54848,
        "rank_sort": 54906,
        "total": 2349
      },
      {
        "club_badge_src": "https://fantasy.premierleague.com/gcs/plfpl-production-adobe-approved/plfpl-production/645016/1edaba0c-9f7d-455a-8331-9f6495bcb630.png",
        "entry": 645016,
        "entry_name": "Jamrock Rovers",
        "event_total": 70,
        "has_played": true,
        "id": 4358941,
        "last_rank": 80194,
        "player_name": "Michael Sheehy",
        "rank": 54848,
        "rank_sort": 54907,
        "total": 2349
      },
      {
        "club_badge_src": null,
        "entry": 651352,
        "entry_name": "Kante Beat Mee",
        "event_total": 35,
        "has_played": true,
        "id": 4401895,
        "last_rank": 27304,
        "player_name": "Luke Marshall",
        "rank": 54848,
        "rank_sort": 54908,
        "total": 2349
      },
      {
        "club_badge_src": null,
        "entry": 663681,
        "entry_name": "Kitmuscles FC",
        "event_total": 64,
        "has_played": true,
        "id": 4486843,
        "last_rank": 67926,
        "player_name": "Kitan Dada",
        "rank": 54848,
        "rank_sort": 54909,
        "total": 2349
      },
      {
        "club_badge_src": null,
        "entry": 665245,
        "entry_name": "Roberto Curlos",
        "event_total": 58,
        "has_played": true,
        "id": 4497622,
        "last_rank": 50199,
        "player_name": "Daniel \u00c4lveus",
        "rank": 54848,
        "rank_sort": 54910,
        "total": 2349
      },
      {
        "club_badge_src": "https://fantasy.premierleague.com/gcs/plfpl-production-adobe-approved/plfpl-production/672679/12623153-c1a0-4342-aeb0-00395e369f91.png",
        "entry": 672679,
        "entry_name": "Anfield of Dreams",
        "event_total": 71,
        "has_played": true,
        "id": 4550169,
        "last_rank": 82398,
        "player_name": "Arek Martirossian",
        "rank": 54848,
        "rank_sort": 54911,
        "total": 2349
      },
      {
        "club_badge_src": null,
        "entry": 674064,
        "entry_name": "Ninja Skrtels",
        "event_total": 75,
        "has_played": true,
        "id": 4559884,
        "last_rank": 92126,
        "player_name": "Ewan Fisher",
        "rank": 54848,
        "rank_sort": 54912,
        "total": 2349
      },
      {
        "club_badge_src": null,
        "entry": 677619,
        "entry_name": "Wirtz case scenario!",
        "event_total": 53,
        "has_played": true,
        "id": 4584799,
        "last_rank": 48898,
        "player_name": "Adam Lawson",
        "rank": 54848,
        "rank_sort": 54913,
        "total": 2349
      },
      {
        "club_badge_src": "https://fantasy.premierleague.com/gcs/plfpl-production-adobe-approved/plfpl-production/693401/976f81bc-38b6-483a-831f-a5d48d98fc56.png",
        "entry": 693401,
        "entry_name": "ChampionSheep",
        "event_total": 41,
        "has_played": true,
        "id": 4696088,
        "last_rank": 29071,
        "player_name": "Michael George",
        "rank": 54848,
        "rank_sort": 54914,
        "total": 2349
      },
      {
        "club_badge_src": null,
        "entry": 728888,
        "entry_name": "Alisson Wonderland",
        "event_total": 68,
        "has_played": true,
        "id": 4952276,
        "last_rank": 60168,
        "player_name": "Sunny Lin",
        "rank": 54848,
        "rank_sort": 54915,
        "total": 2349
      },
      {
        "club_badge_src": null,
        "entry": 756225,
        "entry_name": "Tikka Mo Salah",
        "event_total": 60,
        "has_played": true,
        "id": 5148516,
        "last_rank": 53023,
        "player_name": "Sigve Kvellestad",
        "rank": 54848,
        "rank_sort": 54916,
        "total": 2349
      },
      {
        "club_badge_src": null,
        "entry": 767974,
        "entry_name": "Yoro Wizard Harry",
        "event_total": 55,
        "has_played": true,
        "id": 5238091,
        "last_rank": 45714,
        "player_name": "Mersim K",
        "rank": 54848,
        "rank_sort": 54917,
        "total": 2349
      },
      {
        "club_badge_src": null,
        "entry": 777325,
        "entry_name": "xflamin",
        "event_total": 51,
        "has_played": true,
        "id": 5303960,
        "last_rank": 35424,
        "player_name": "Angelo Pinnaduwa",
        "rank": 54848,
        "rank_sort": 54918,
        "total": 2349
      },
      {
        "club_badge_src": null,
        "entry": 778632,
        "entry_name": "WhatsTheBradleyDack",
        "event_total": 48,
        "has_played": true,
        "id": 5313765,
        "last_rank": 41967,
        "player_name": "Dan Tabeart",
        "rank": 54848,
        "rank_sort": 54919,
        "total": 2349
      },
      {
        "club_badge_src": null,
        "entry": 785740,
        "entry_name": "Eze white chocolate",
        "event_total": 78,
        "has_played": true,
        "id": 5369452,
        "last_rank": 89426,
        "player_name": "Shaun Prakaash",
        "rank": 54848,
        "rank_sort": 54920,
        "total": 2349
      },
      {
        "club_badge_src": null,
        "entry": 844541,
        "entry_name": "No Man\u2019s Haaland",
        "event_total": 42,
        "has_played": true,
        "id": 5786571,
        "last_rank": 34293,
        "player_name": "J Alonzo",
        "rank": 54848,
        "rank_sort": 54921,
        "total": 2349
      },
      {
        "club_badge_src": "https://fantasy.premierleague.com/gcs/plfpl-production-adobe-approved/plfpl-production/890244/fe769061-e4b4-4d41-ac41-ece2cd4aa82c.png",
        "entry": 890244,
        "entry_name": "Saka Animals",
        "event_total": 49,
        "has_played": true,
        "id": 6106470,
        "last_rank": 42940,
        "player_name": "Neil Phillips",
        "rank": 54848,
        "rank_sort": 54922,
        "total": 2349
      },
      {
        "club_badge_src": null,
        "entry": 902121,
        "entry_name": "DingDongFrimpong",
        "event_total": 65,
        "has_played": true,
        "id": 6198575,
        "last_rank": 69907,
        "player_name": "Andrew Fishwick",
        "rank": 54848,
        "rank_sort": 54923,
        "total": 2349
      },
      {
        "club_badge_src": "https://fantasy.premierleague.com/gcs/plfpl-production-adobe-approved/plfpl-production/968843/30453092-6190-4b43-8d41-6c621e8bf303.png",
        "entry": 968843,
        "entry_name": "AFC-ZINKLER",
        "event_total": 62,
        "has_played": true,
        "id": 6677466,
        "last_rank": 64190,
        "player_name": "Alvirn Zimondi Musecho",
        "rank": 54848,
        "rank_sort": 54924,
        "total": 2349
      },
      {
        "club_badge_src": null,
        "entry": 1036783,
        "entry_name": "Stats,Facts +Luck FC",
        "event_total": 66,
        "has_played": true,
        "id": 7174594,
        "last_rank": 63724,
        "player_name": "Chris Hawkesworth",
        "rank": 54848,
        "rank_sort": 54925,
        "total": 2349
      },
      {
        "club_badge_src": "https://fantasy.premierleague.com/gcs/plfpl-production-adobe-approved/plfpl-production/1077143/b350a463-6bd2-4130-aa6c-62fbca598c51.png",
        "entry": 1077143,
        "entry_name": "TRA1LBLAZ1NG",
        "event_total": 60,
        "has_played": true,
        "id": 7458122,
        "last_rank": 60671,
        "player_name": "Jack Pridz",
        "rank": 54848,
        "rank_sort": 54926,
        "total": 2349
      },
      {
        "club_badge_src": null,
        "entry": 1089009,
        "entry_name": "Spud FC",
        "event_total": 77,
        "has_played": true,
        "id": 7541999,
        "last_rank": 87074,
        "player_name": "Adam Spicer",
        "rank": 54848,
        "rank_sort": 54927,
        "total": 2349
      },
      {
        "club_badge_src": null,
        "entry": 1126347,
        "entry_name": "RSC Andylecht",
        "event_total": 81,
        "has_played": true,
        "id": 7806061,
        "last_rank": 107162,
        "player_name": "Andrew Ditchfield",
        "rank": 54848,
        "rank_sort": 54928,
        "total": 2349
      },
      {
        "club_badge_src": null,
        "entry": 1140894,
        "entry_name": "Heaven",
        "event_total": 65,
        "has_played": true,
        "id": 7908427,
        "last_rank": 69641,
        "player_name": "Mohamed Zaki",
        "rank": 54848,
        "rank_sort": 54929,
        "total": 2349
      },
      {
        "club_badge_src": null,
        "entry": 1197509,
        "entry_name": "ElFeto von FatCamp",
        "event_total": 59,
        "has_played": true,
        "id": 8309927,
        "last_rank": 51984,
        "player_name": "Audun Sandberg",
        "rank": 54848,
        "rank_sort": 54930,
        "total": 2349
      },
      {
        "club_badge_src": null,
        "entry": 1204414,
        "entry_name": "Eid",
        "event_total": 66,
        "has_played": true,
        "id": 8358213,
        "last_rank": 64005,
        "player_name": "Mohammed Eid",
        "rank": 54848,
        "rank_sort": 54931,
        "total": 2349
      },
      {
        "club_badge_src": null,
        "entry": 1300401,
        "entry_name": "Calafiorication",
        "event_total": 39,
        "has_played": true,
        "id": 9037715,
        "last_rank": 27203,
        "player_name": "Ben Rowe",
        "rank": 54848,
        "rank_sort": 54932,
        "total": 2349
      },
      {
        "club_badge_src": null,
        "entry": 1301603,
        "entry_name": "Wirtz Case Scenario",
        "event_total": 60,
        "has_played": true,
        "id": 9046155,
        "last_rank": 60462,
        "player_name": "Finn McConway",
        "rank": 54848,
        "rank_sort": 54933,
        "total": 2349
      },
      {
        "club_badge_src": null,
        "entry": 1443145,
        "entry_name": "sirlfc1",
        "event_total": 58,
        "has_played": true,
        "id": 10056046,
        "last_rank": 57200,
        "player_name": "Kardo K",
        "rank": 54848,
        "rank_sort": 54934,
        "total": 2349
      },
      {
        "club_badge_src": null,
        "entry": 1470248,
        "entry_name": "Seigmenn",
        "event_total": 62,
        "has_played": true,
        "id": 10248511,
        "last_rank": 64005,
        "player_name": "Henrik Johan Aspenes",
        "rank": 54848,
        "rank_sort": 54935,
        "total": 2349
      },
      {
        "club_badge_src": null,
        "entry": 1489377,
        "entry_name": "B2B",
        "event_total": 65,
        "has_played": true,
        "id": 10386099,
        "last_rank": 69641,
        "player_name": "Ben Vogtherr",
        "rank": 54848,
        "rank_sort": 54936,
        "total": 2349
      },
      {
        "club_badge_src": "https://fantasy.premierleague.com/gcs/plfpl-production-adobe-approved/plfpl-production/1586934/79fb2d81-0e55-4e2f-9c5a-a07762015d80.png",
        "entry": 1586934,
        "entry_name": "bahlright",
        "event_total": 59,
        "has_played": true,
        "id": 11094232,
        "last_rank": 51984,
        "player_name": "Mark van Drunen",
        "rank": 54848,
        "rank_sort": 54937,
        "total": 2349
      },
      {
        "club_badge_src": null,
        "entry": 1602095,
        "entry_name": "Scotty XI",
        "event_total": 67,
        "has_played": true,
        "id": 11207678,
        "last_rank": 73975,
        "player_name": "Paul Scott",
        "rank": 54848,
        "rank_sort": 54938,
        "total": 2349
      },
      {
        "club_badge_src": "https://fantasy.premierleague.com/gcs/plfpl-production-adobe-approved/plfpl-production/1630667/5067ca76-1cf8-4b3f-80ba-48caa1e7ba04.png",
        "entry": 1630667,
        "entry_name": "KMAC'S 11",
        "event_total": 60,
        "has_played": true,
        "id": 11413604,
        "last_rank": 53345,
        "player_name": "Killian McDonnell",
        "rank": 54848,
        "rank_sort": 54939,
        "total": 2349
      },
      {
        "club_badge_src": null,
        "entry": 1664663,
        "entry_name": "Ao Largie Stache",
        "event_total": 50,
        "has_played": true,
        "id": 11654889,
        "last_rank": 44672,
        "player_name": "Louis Rogerson",
        "rank": 54848,
        "rank_sort": 54940,
        "total": 2349
      },
      {
        "club_badge_src": "https://fantasy.premierleague.com/gcs/plfpl-production-adobe-approved/plfpl-production/1700726/2505acf9-29cd-404b-bae7-ec9cb305a9af.png",
        "entry": 1700726,
        "entry_name": "Syko11",
        "event_total": 50,
        "has_played": true,
        "id": 11913246,
        "last_rank": 44672,
        "player_name": "Mozammel Haque Shourav",
        "rank": 54848,
        "rank_sort": 54941,
        "total": 2349
      },
      {
        "club_badge_src": null,
        "entry": 1729234,
        "entry_name": "Ibizatoonali",
        "event_total": 61,
        "has_played": true,
        "id": 12128215,
        "last_rank": 62429,
        "player_name": "Peter Wade",
        "rank": 54848,
        "rank_sort": 54942,
        "total": 2349
      },
      {
        "club_badge_src": "https://fantasy.premierleague.com/gcs/plfpl-production-adobe-approved/plfpl-production/1740270/c2cdb562-8007-4a5c-8628-7b5d16f7fb80.png",
        "entry": 1740270,
        "entry_name": "EL 3NAB",
        "event_total": 68,
        "has_played": true,
        "id": 12209909,
        "last_rank": 75874,
        "player_name": "Ahmed Yehia",
        "rank": 54848,
        "rank_sort": 54943,
        "total": 2349
      },
      {
        "club_badge_src": null,
        "entry": 1744341,
        "entry_name": "KPI-naldo",
        "event_total": 72,
        "has_played": true,
        "id": 12239792,
        "last_rank": 75537,
        "player_name": "Ivan Zhukov",
        "rank": 54848,
        "rank_sort": 54944,
        "total": 2349
      },
      {
        "club_badge_src": null,
        "entry": 1749638,
        "entry_name": "Pep Talk",
        "event_total": 64,
        "has_played": true,
        "id": 12278336,
        "last_rank": 68107,
        "player_name": "Philip Bibby",
        "rank": 54848,
        "rank_sort": 54945,
        "total": 2349
      },
      {
        "club_badge_src": null,
        "entry": 1762254,
        "entry_name": "A-Cunha Matata",
        "event_total": 61,
        "has_played": true,
        "id": 12374294,
        "last_rank": 55014,
        "player_name": "Milton Gomes",
        "rank": 54848,
        "rank_sort": 54946,
        "total": 2349
      },
      {
        "club_badge_src": null,
        "entry": 1803928,
        "entry_name": "Arnes lot",
        "event_total": 63,
        "has_played": true,
        "id": 12681673,
        "last_rank": 65796,
        "player_name": "markus s\u00e6levik",
        "rank": 54848,
        "rank_sort": 54947,
        "total": 2349
      },
      {
        "club_badge_src": null,
        "entry": 1892899,
        "entry_name": "holyfc",
        "event_total": 78,
        "has_played": true,
        "id": 13341453,
        "last_rank": 79817,
        "player_name": "Hassan Mumtaz",
        "rank": 54848,
        "rank_sort": 54948,
        "total": 2349
      },
      {
        "club_badge_src": null,
        "entry": 1909903,
        "entry_name": "Amorim Era",
        "event_total": 67,
        "has_played": true,
        "id": 13465094,
        "last_rank": 73423,
        "player_name": "Chris Colley",
        "rank": 54848,
        "rank_sort": 54949,
        "total": 2349
      },
      {
        "club_badge_src": null,
        "entry": 1956080,
        "entry_name": "La Masia",
        "event_total": 61,
        "has_played": true,
        "id": 13799073,
        "last_rank": 55311,
        "player_name": "Paul Magerdich",
        "rank": 54848,
        "rank_sort": 54950,
        "total": 2349
      }
    ]
  }
}