{
  "last_updated_data": "2026-05-24T23:28:17Z",
  "league": {
    "admin_entry": null,
    "closed": false,
    "code_privacy": "p",
    "created": "2025-07-20T23:14:33.933835Z",
    "cup_league": 2815434,
    "has_cup": true,
    "id": 314,
    "league_type": "s",
    "max_entries": null,
    "name": "Overall",
    "rank": null,
    "scoring": "c",
    "start_event": 1
  },
  "new_entries": {
    "has_next": false,
    "page": 1,
    "results": []
  },
  "standings": {
    "has_next": true,
    "page": 750,
    "results": [
      {
        "club_badge_src": null,
        "entry": 8249,
        "entry_name": "plottkisi",
        "event_total": 62,
        "has_played": true,
        "id": 47849,
        "last_rank": 43849,
        "player_name": "Kristjan Dagur J\u00f3nsson",
        "rank": 37444,
        "rank_sort": 37451,
        "total": 2361
      },
      {
        "club_badge_src": "https://fantasy.premierleague.com/gcs/plfpl-production-adobe-approved/plfpl-production/13252/9fe9c12a-41ef-4538-9ed8-1f7d5beecfc3.png",
        "entry": 13252,
        "entry_name": "Random Forest",
        "event_total": 59,
        "has_played": true,
        "id": 79945,
        "last_rank": 40036,
        "player_name": "Neil Rankin",
        "rank": 37444,
        "rank_sort": 37452,
        "total": 2361
      },
      {
        "club_badge_src": "https://fantasy.premierleague.com/gcs/plfpl-production-adobe-approved/plfpl-production/13803/70f2dec0-ea8f-4bb1-b726-b8210d4c9993.png",
        "entry": 13803,
        "entry_name": "Power Reijnders",
        "event_total": 65,
        "has_played": true,
        "id": 83559,
        "last_rank": 48197,
        "player_name": "Gert-Jan Hulsbosch",
        "rank": 37444,
        "rank_sort": 37453,
        "total": 2361
      },
      {
        "club_badge_src": null,
        "entry": 16270,
        "entry_name": "Eso FC",
        "event_total": 69,
        "has_played": true,
        "id": 100393,
        "last_rank": 54667,
        "player_name": "Michael Bridger",
        "rank": 37444,
        "rank_sort": 37454,
        "total": 2361
      },
      {
        "club_badge_src": null,
        "entry": 19300,
        "entry_name": "Savage FC",
        "event_total": 65,
        "has_played": true,
        "id": 120105,
        "last_rank": 48363,
        "player_name": "Daryl Savage",
        "rank": 37444,
        "rank_sort": 37455,
        "total": 2361
      },
      {
        "club_badge_src": null,
        "entry": 20250,
        "entry_name": "Shmelcer",
        "event_total": 51,
        "has_played": true,
        "id": 126145,
        "last_rank": 30727,
        "player_name": "Dan Melcer",
        "rank": 37444,
        "rank_sort": 37456,
        "total": 2361
      },
      {
        "club_badge_src": null,
        "entry": 20563,
        "entry_name": "Real Solinidad",
        "event_total": 52,
        "has_played": true,
        "id": 128407,
        "last_rank": 31747,
        "player_name": "Kristoffer Solini",
        "rank": 37444,
        "rank_sort": 37457,
        "total": 2361
      },
      {
        "club_badge_src": null,
        "entry": 21939,
        "entry_name": "Hipster Xi",
        "event_total": 53,
        "has_played": true,
        "id": 137661,
        "last_rank": 32879,
        "player_name": "James Grady",
        "rank": 37444,
        "rank_sort": 37458,
        "total": 2361
      },
      {
        "club_badge_src": null,
        "entry": 22459,
        "entry_name": "nakakajaja",
        "event_total": 53,
        "has_played": true,
        "id": 141029,
        "last_rank": 33147,
        "player_name": "Jack Sessions",
        "rank": 37444,
        "rank_sort": 37459,
        "total": 2361
      },
      {
        "club_badge_src": null,
        "entry": 23497,
        "entry_name": "WesMantooth",
        "event_total": 60,
        "has_played": true,
        "id": 148005,
        "last_rank": 41162,
        "player_name": "Arne Barsnes",
        "rank": 37444,
        "rank_sort": 37460,
        "total": 2361
      },
      {
        "club_badge_src": null,
        "entry": 25029,
        "entry_name": "n0n_l0c4l.exe",
        "event_total": 71,
        "has_played": true,
        "id": 158208,
        "last_rank": 57743,
        "player_name": "Will Finney",
        "rank": 37444,
        "rank_sort": 37461,
        "total": 2361
      },
      {
        "club_badge_src": null,
        "entry": 26563,
        "entry_name": "Mudanje",
        "event_total": 39,
        "has_played": true,
        "id": 167945,
        "last_rank": 20416,
        "player_name": "Milan Tesic",
        "rank": 37444,
        "rank_sort": 37462,
        "total": 2361
      },
      {
        "club_badge_src": null,
        "entry": 37745,
        "entry_name": "Football, not Saka",
        "event_total": 71,
        "has_played": true,
        "id": 241849,
        "last_rank": 57857,
        "player_name": "Calum Langan",
        "rank": 37444,
        "rank_sort": 37463,
        "total": 2361
      },
      {
        "club_badge_src": null,
        "entry": 46447,
        "entry_name": "Hakuna Mateta",
        "event_total": 59,
        "has_played": true,
        "id": 297783,
        "last_rank": 40036,
        "player_name": "Alex Godwin",
        "rank": 37444,
        "rank_sort": 37464,
        "total": 2361
      },
      {
        "club_badge_src": null,
        "entry": 76468,
        "entry_name": "No Salah no party",
        "event_total": 68,
        "has_played": true,
        "id": 497077,
        "last_rank": 52759,
        "player_name": "Adam Jakubowski",
        "rank": 37444,
        "rank_sort": 37465,
        "total": 2361
      },
      {
        "club_badge_src": "https://fantasy.premierleague.com/gcs/plfpl-production-adobe-approved/plfpl-production/76498/18be1130-6233-4a3b-ac2e-4f799a075c23.png",
        "entry": 76498,
        "entry_name": "Keep Palm & Carry On",
        "event_total": 68,
        "has_played": true,
        "id": 497271,
        "last_rank": 52853,
        "player_name": "Nate Jones",
        "rank": 37444,
        "rank_sort": 37466,
        "total": 2361
      },
      {
        "club_badge_src": null,
        "entry": 96057,
        "entry_name": "Fifty Year Storm",
        "event_total": 68,
        "has_played": true,
        "id": 627535,
        "last_rank": 53023,
        "player_name": "Leigh Agnew",
        "rank": 37444,
        "rank_sort": 37467,
        "total": 2361
      },
      {
        "club_badge_src": "https://fantasy.premierleague.com/gcs/plfpl-production-adobe-approved/plfpl-production/105123/42c62803-02cd-4a6e-b173-9382efe611ea.png",
        "entry": 105123,
        "entry_name": "Full Throstle",
        "event_total": 59,
        "has_played": true,
        "id": 685654,
        "last_rank": 39816,
        "player_name": "Dan Cooper",
        "rank": 37444,
        "rank_sort": 37468,
        "total": 2361
      },
      {
        "club_badge_src": "https://fantasy.premierleague.com/gcs/plfpl-production-adobe-approved/plfpl-production/105759/03d7ccaf-9be5-4508-aa4f-ab3dc7cc4117.png",
        "entry": 105759,
        "entry_name": "GALACTICOS FC",
        "event_total": 57,
        "has_played": true,
        "id": 689740,
        "last_rank": 37376,
        "player_name": "James Stecca",
        "rank": 37444,
        "rank_sort": 37469,
        "total": 2361
      },
      {
        "club_badge_src": null,
        "entry": 125467,
        "entry_name": "Back of the Neto",
        "event_total": 67,
        "has_played": true,
        "id": 818259,
        "last_rank": 51403,
        "player_name": "Yusuf Mahmood",
        "rank": 37444,
        "rank_sort": 37470,
        "total": 2361
      },
      {
        "club_badge_src": null,
        "entry": 139359,
        "entry_name": "UTC1882",
        "event_total": 63,
        "has_played": true,
        "id": 909495,
        "last_rank": 45252,
        "player_name": "Mike Dickinson",
        "rank": 37444,
        "rank_sort": 37471,
        "total": 2361
      },
      {
        "club_badge_src": null,
        "entry": 151117,
        "entry_name": "Andy karel",
        "event_total": 65,
        "has_played": true,
        "id": 991305,
        "last_rank": 48197,
        "player_name": "Karol Wojda",
        "rank": 37444,
        "rank_sort": 37472,
        "total": 2361
      },
      {
        "club_badge_src": null,
        "entry": 198047,
        "entry_name": "Ratzeputz",
        "event_total": 46,
        "has_played": true,
        "id": 1314221,
        "last_rank": 25902,
        "player_name": "Frank Skatland",
        "rank": 37444,
        "rank_sort": 37473,
        "total": 2361
      },
      {
        "club_badge_src": null,
        "entry": 206161,
        "entry_name": "M Wray Dons",
        "event_total": 46,
        "has_played": true,
        "id": 1370296,
        "last_rank": 25776,
        "player_name": "Matt Wray",
        "rank": 37444,
        "rank_sort": 37474,
        "total": 2361
      },
      {
        "club_badge_src": null,
        "entry": 216736,
        "entry_name": "Only Blue",
        "event_total": 76,
        "has_played": true,
        "id": 1441554,
        "last_rank": 66738,
        "player_name": "Denitsa Ianeva",
        "rank": 37444,
        "rank_sort": 37475,
        "total": 2361
      },
      {
        "club_badge_src": "https://fantasy.premierleague.com/gcs/plfpl-production-adobe-approved/plfpl-production/243390/cb8d8cb3-6000-437e-90f7-5a13391bb8f0.png",
        "entry": 243390,
        "entry_name": "A Winter Wondhaaland",
        "event_total": 37,
        "has_played": true,
        "id": 1620714,
        "last_rank": 18790,
        "player_name": "Michael Spratt",
        "rank": 37444,
        "rank_sort": 37476,
        "total": 2361
      },
      {
        "club_badge_src": null,
        "entry": 245029,
        "entry_name": "Deadline Anxiety FC",
        "event_total": 73,
        "has_played": true,
        "id": 1631397,
        "last_rank": 61411,
        "player_name": "Nick Mongold",
        "rank": 37444,
        "rank_sort": 37477,
        "total": 2361
      },
      {
        "club_badge_src": null,
        "entry": 246370,
        "entry_name": "The Special One",
        "event_total": 68,
        "has_played": true,
        "id": 1640214,
        "last_rank": 52759,
        "player_name": "Sebi Ward",
        "rank": 37444,
        "rank_sort": 37478,
        "total": 2361
      },
      {
        "club_badge_src": null,
        "entry": 257001,
        "entry_name": "Pique Blinders",
        "event_total": 56,
        "has_played": true,
        "id": 1709246,
        "last_rank": 36348,
        "player_name": "Sam Wilkie",
        "rank": 37444,
        "rank_sort": 37479,
        "total": 2361
      },
      {
        "club_badge_src": null,
        "entry": 280203,
        "entry_name": "Coca Juniors",
        "event_total": 63,
        "has_played": true,
        "id": 1864781,
        "last_rank": 45416,
        "player_name": "Dimitris Papakonstantinou",
        "rank": 37444,
        "rank_sort": 37480,
        "total": 2361
      },
      {
        "club_badge_src": null,
        "entry": 300536,
        "entry_name": "RodallegaBomb",
        "event_total": 72,
        "has_played": true,
        "id": 2010304,
        "last_rank": 59813,
        "player_name": "harrison wilson",
        "rank": 37444,
        "rank_sort": 37481,
        "total": 2361
      },
      {
        "club_badge_src": null,
        "entry": 307851,
        "entry_name": "Mainoo kj\u00f6r vi",
        "event_total": 56,
        "has_played": true,
        "id": 2061943,
        "last_rank": 36200,
        "player_name": "Magnus Wik",
        "rank": 37444,
        "rank_sort": 37482,
        "total": 2361
      },
      {
        "club_badge_src": null,
        "entry": 308360,
        "entry_name": "Go Eze on Mee",
        "event_total": 58,
        "has_played": true,
        "id": 2065417,
        "last_rank": 38774,
        "player_name": "Josh Smith",
        "rank": 37444,
        "rank_sort": 37483,
        "total": 2361
      },
      {
        "club_badge_src": null,
        "entry": 334379,
        "entry_name": "Wujer FC",
        "event_total": 76,
        "has_played": true,
        "id": 2239154,
        "last_rank": 66738,
        "player_name": "Chun Ho Wu",
        "rank": 37444,
        "rank_sort": 37484,
        "total": 2361
      },
      {
        "club_badge_src": null,
        "entry": 340814,
        "entry_name": "Mush fc",
        "event_total": 70,
        "has_played": true,
        "id": 2281317,
        "last_rank": 56180,
        "player_name": "Jacob Smale",
        "rank": 37444,
        "rank_sort": 37485,
        "total": 2361
      },
      {
        "club_badge_src": null,
        "entry": 360064,
        "entry_name": "Giallorossi",
        "event_total": 55,
        "has_played": true,
        "id": 2409370,
        "last_rank": 35424,
        "player_name": "Vasco Rodrigues",
        "rank": 37444,
        "rank_sort": 37486,
        "total": 2361
      },
      {
        "club_badge_src": "https://fantasy.premierleague.com/gcs/plfpl-production-adobe-approved/plfpl-production/362152/b71cc9e9-e630-4e1f-b0ed-292ea29fd49e.png",
        "entry": 362152,
        "entry_name": "Too Beaucoup",
        "event_total": 56,
        "has_played": true,
        "id": 2423187,
        "last_rank": 36348,
        "player_name": "Sean Collum",
        "rank": 37444,
        "rank_sort": 37487,
        "total": 2361
      },
      {
        "club_badge_src": null,
        "entry": 390875,
        "entry_name": "Gode Grallen",
        "event_total": 28,
        "has_played": true,
        "id": 2621903,
        "last_rank": 13257,
        "player_name": "Sindre Aksdal",
        "rank": 37444,
        "rank_sort": 37488,
        "total": 2361
      },
      {
        "club_badge_src": null,
        "entry": 399260,
        "entry_name": "Wirtz so good",
        "event_total": 54,
        "has_played": true,
        "id": 2677314,
        "last_rank": 29495,
        "player_name": "Stuart Nichols",
        "rank": 37444,
        "rank_sort": 37489,
        "total": 2361
      },
      {
        "club_badge_src": null,
        "entry": 425998,
        "entry_name": "Redemption Pending",
        "event_total": 59,
        "has_played": true,
        "id": 2855798,
        "last_rank": 39874,
        "player_name": "Michael Elder",
        "rank": 37444,
        "rank_sort": 37490,
        "total": 2361
      },
      {
        "club_badge_src": null,
        "entry": 428499,
        "entry_name": "Vardy Bucks",
        "event_total": 57,
        "has_played": true,
        "id": 2874025,
        "last_rank": 37435,
        "player_name": "Stephen Clein",
        "rank": 37444,
        "rank_sort": 37491,
        "total": 2361
      },
      {
        "club_badge_src": null,
        "entry": 467515,
        "entry_name": "ARISTO",
        "event_total": 38,
        "has_played": true,
        "id": 3137269,
        "last_rank": 19544,
        "player_name": "Japhet OKWARA",
        "rank": 37444,
        "rank_sort": 37492,
        "total": 2361
      },
      {
        "club_badge_src": null,
        "entry": 478923,
        "entry_name": "Medany",
        "event_total": 71,
        "has_played": true,
        "id": 3215045,
        "last_rank": 58388,
        "player_name": "Ahmed Medany",
        "rank": 37444,
        "rank_sort": 37493,
        "total": 2361
      },
      {
        "club_badge_src": null,
        "entry": 480528,
        "entry_name": "Sunny FC",
        "event_total": 58,
        "has_played": true,
        "id": 3226117,
        "last_rank": 38542,
        "player_name": "Ronny Solberg",
        "rank": 37444,
        "rank_sort": 37494,
        "total": 2361
      },
      {
        "club_badge_src": null,
        "entry": 510967,
        "entry_name": "The Annual Kanevass",
        "event_total": 64,
        "has_played": true,
        "id": 3431266,
        "last_rank": 46547,
        "player_name": "Luke Brewster",
        "rank": 37444,
        "rank_sort": 37495,
        "total": 2361
      },
      {
        "club_badge_src": null,
        "entry": 542763,
        "entry_name": "Sprey FC",
        "event_total": 63,
        "has_played": true,
        "id": 3653025,
        "last_rank": 45252,
        "player_name": "Abdurrahman Shougee",
        "rank": 37444,
        "rank_sort": 37496,
        "total": 2361
      },
      {
        "club_badge_src": "https://fantasy.premierleague.com/gcs/plfpl-production-adobe-approved/plfpl-production/545854/27fe0f46-a632-4236-89aa-29737a0352e6.png",
        "entry": 545854,
        "entry_name": "Hacunha Mateta",
        "event_total": 49,
        "has_played": true,
        "id": 3673605,
        "last_rank": 28906,
        "player_name": "Youssef Kenawy",
        "rank": 37444,
        "rank_sort": 37497,
        "total": 2361
      },
      {
        "club_badge_src": null,
        "entry": 545993,
        "entry_name": "&",
        "event_total": 78,
        "has_played": true,
        "id": 3674513,
        "last_rank": 70651,
        "player_name": "Andi Blaka",
        "rank": 37444,
        "rank_sort": 37498,
        "total": 2361
      },
      {
        "club_badge_src": null,
        "entry": 567902,
        "entry_name": "Winter WondHaaland",
        "event_total": 47,
        "has_played": true,
        "id": 3822302,
        "last_rank": 26827,
        "player_name": "Emma Brittain",
        "rank": 37444,
        "rank_sort": 37499,
        "total": 2361
      },
      {
        "club_badge_src": null,
        "entry": 568301,
        "entry_name": "Blues",
        "event_total": 36,
        "has_played": true,
        "id": 3825021,
        "last_rank": 18113,
        "player_name": "Mohamed Bahaa",
        "rank": 37444,
        "rank_sort": 37500,
        "total": 2361
      }
    ]
  }
}