{
  "last_updated_data": "2026-05-24T23:28:17Z",
  "league": {
    "admin_entry": null,
    "closed": false,
    "code_privacy": "p",
    "created": "2025-07-20T23:14:33.933835Z",
    "cup_league": 2815434,
    "has_cup": true,
    "id": 314,
    "league_type": "s",
    "max_entries": null,
    "name": "Overall",
    "rank": null,
    "scoring": "c",
    "start_event": 1
  },
  "new_entries": {
    "has_next": false,
    "page": 1,
    "results": []
  },
  "standings": {
    "has_next": true,
    "page": 989,
    "results": [
      {
        "club_badge_src": null,
        "entry": 5175785,
        "entry_name": "Peejosh",
        "event_total": 56,
        "has_played": true,
        "id": 40060653,
        "last_rank": 48363,
        "player_name": "ayodeji joshua",
        "rank": 49320,
        "rank_sort": 49401,
        "total": 2352
      },
      {
        "club_badge_src": null,
        "entry": 5213048,
        "entry_name": "zaha haha",
        "event_total": 51,
        "has_played": true,
        "id": 40380555,
        "last_rank": 41162,
        "player_name": "Colin Evans",
        "rank": 49320,
        "rank_sort": 49402,
        "total": 2352
      },
      {
        "club_badge_src": null,
        "entry": 5229757,
        "entry_name": "Union Galvin",
        "event_total": 73,
        "has_played": true,
        "id": 40524809,
        "last_rank": 78997,
        "player_name": "Ciaran Galvin",
        "rank": 49320,
        "rank_sort": 49403,
        "total": 2352
      },
      {
        "club_badge_src": null,
        "entry": 5257718,
        "entry_name": "Last and Furious",
        "event_total": 53,
        "has_played": true,
        "id": 40749283,
        "last_rank": 43786,
        "player_name": "Harry Dunn",
        "rank": 49320,
        "rank_sort": 49404,
        "total": 2352
      },
      {
        "club_badge_src": "https://fantasy.premierleague.com/gcs/plfpl-production-adobe-approved/plfpl-production/5394542/dd0ccca4-431a-42a5-a0ed-8ed9fbaf2737.png",
        "entry": 5394542,
        "entry_name": "EPO Enjoyers",
        "event_total": 70,
        "has_played": true,
        "id": 41941377,
        "last_rank": 72815,
        "player_name": "Adam Townsend",
        "rank": 49320,
        "rank_sort": 49405,
        "total": 2352
      },
      {
        "club_badge_src": null,
        "entry": 5461032,
        "entry_name": "Qandil sc",
        "event_total": 55,
        "has_played": true,
        "id": 42500133,
        "last_rank": 46839,
        "player_name": "mahmoud kandil",
        "rank": 49320,
        "rank_sort": 49406,
        "total": 2352
      },
      {
        "club_badge_src": null,
        "entry": 5998558,
        "entry_name": "ACE",
        "event_total": 50,
        "has_played": true,
        "id": 47285654,
        "last_rank": 40036,
        "player_name": "Rani Obeid",
        "rank": 49320,
        "rank_sort": 49407,
        "total": 2352
      },
      {
        "club_badge_src": null,
        "entry": 6143999,
        "entry_name": "Emergency Sandwich",
        "event_total": 57,
        "has_played": true,
        "id": 48560287,
        "last_rank": 49691,
        "player_name": "Jeremy page",
        "rank": 49320,
        "rank_sort": 49408,
        "total": 2352
      },
      {
        "club_badge_src": null,
        "entry": 6686415,
        "entry_name": "Rapid de Klaksv\u00edk",
        "event_total": 70,
        "has_played": true,
        "id": 53488522,
        "last_rank": 72815,
        "player_name": "Basile Guinchard",
        "rank": 49320,
        "rank_sort": 49409,
        "total": 2352
      },
      {
        "club_badge_src": null,
        "entry": 6839498,
        "entry_name": "Inter Row Z",
        "event_total": 64,
        "has_played": true,
        "id": 54789218,
        "last_rank": 61258,
        "player_name": "Rob Eden",
        "rank": 49320,
        "rank_sort": 49410,
        "total": 2352
      },
      {
        "club_badge_src": null,
        "entry": 7132051,
        "entry_name": "Bend It Like Rice",
        "event_total": 58,
        "has_played": true,
        "id": 57479343,
        "last_rank": 51220,
        "player_name": "George Thompson",
        "rank": 49320,
        "rank_sort": 49411,
        "total": 2352
      },
      {
        "club_badge_src": null,
        "entry": 7353934,
        "entry_name": "Suffelipuffeli",
        "event_total": 52,
        "has_played": true,
        "id": 59584992,
        "last_rank": 42401,
        "player_name": "Silja Laaksonen",
        "rank": 49320,
        "rank_sort": 49412,
        "total": 2352
      },
      {
        "club_badge_src": null,
        "entry": 7372265,
        "entry_name": "Who Ate All Depays?",
        "event_total": 70,
        "has_played": true,
        "id": 59755270,
        "last_rank": 72622,
        "player_name": "Ben Tomlinson",
        "rank": 49320,
        "rank_sort": 49413,
        "total": 2352
      },
      {
        "club_badge_src": null,
        "entry": 7653602,
        "entry_name": "Hakuna Mateta",
        "event_total": 34,
        "has_played": true,
        "id": 62748697,
        "last_rank": 23230,
        "player_name": "Jayveer Singh",
        "rank": 49320,
        "rank_sort": 49414,
        "total": 2352
      },
      {
        "club_badge_src": null,
        "entry": 7673645,
        "entry_name": "\u00d8de to Joy",
        "event_total": 68,
        "has_played": true,
        "id": 62934283,
        "last_rank": 61258,
        "player_name": "Jeremy Ma",
        "rank": 49320,
        "rank_sort": 49415,
        "total": 2352
      },
      {
        "club_badge_src": null,
        "entry": 7946810,
        "entry_name": "FidoFc",
        "event_total": 44,
        "has_played": true,
        "id": 65411002,
        "last_rank": 32879,
        "player_name": "Melvin Chacko Dennies",
        "rank": 49320,
        "rank_sort": 49416,
        "total": 2352
      },
      {
        "club_badge_src": null,
        "entry": 7986696,
        "entry_name": "Aston Fraca",
        "event_total": 50,
        "has_played": true,
        "id": 65765814,
        "last_rank": 40036,
        "player_name": "Diego Molina",
        "rank": 49320,
        "rank_sort": 49417,
        "total": 2352
      },
      {
        "club_badge_src": null,
        "entry": 8137406,
        "entry_name": "leny \u20ac",
        "event_total": 58,
        "has_played": true,
        "id": 67150386,
        "last_rank": 51220,
        "player_name": "Brian Gleeson",
        "rank": 49320,
        "rank_sort": 49418,
        "total": 2352
      },
      {
        "club_badge_src": null,
        "entry": 8208453,
        "entry_name": "Talib",
        "event_total": 37,
        "has_played": true,
        "id": 67820779,
        "last_rank": 25776,
        "player_name": "Abhishek Panchal",
        "rank": 49320,
        "rank_sort": 49419,
        "total": 2352
      },
      {
        "club_badge_src": null,
        "entry": 8330909,
        "entry_name": "Change Name",
        "event_total": 58,
        "has_played": true,
        "id": 69023861,
        "last_rank": 51220,
        "player_name": "Ali Khalife",
        "rank": 49320,
        "rank_sort": 49420,
        "total": 2352
      },
      {
        "club_badge_src": null,
        "entry": 8491778,
        "entry_name": "Unreal Madrid",
        "event_total": 58,
        "has_played": true,
        "id": 70557062,
        "last_rank": 51220,
        "player_name": "Roeen Atefi",
        "rank": 49320,
        "rank_sort": 49421,
        "total": 2352
      },
      {
        "club_badge_src": null,
        "entry": 9028646,
        "entry_name": "\u0160e\u0161kual healing",
        "event_total": 52,
        "has_played": true,
        "id": 75756201,
        "last_rank": 42648,
        "player_name": "Emmanuel Oladipo",
        "rank": 49320,
        "rank_sort": 49422,
        "total": 2352
      },
      {
        "club_badge_src": null,
        "entry": 9116504,
        "entry_name": "Game Of Throw-ins",
        "event_total": 89,
        "has_played": true,
        "id": 76613095,
        "last_rank": 119948,
        "player_name": "James Isherwood",
        "rank": 49320,
        "rank_sort": 49423,
        "total": 2352
      },
      {
        "club_badge_src": null,
        "entry": 10707241,
        "entry_name": "Beef Cherki",
        "event_total": 71,
        "has_played": true,
        "id": 90447910,
        "last_rank": 74898,
        "player_name": "Kade William Venkanna",
        "rank": 49320,
        "rank_sort": 49424,
        "total": 2352
      },
      {
        "club_badge_src": "https://fantasy.premierleague.com/gcs/plfpl-production-adobe-approved/plfpl-production/269/5095c9a0-d5c5-4800-9814-fd7753beee67.png",
        "entry": 269,
        "entry_name": "Zubi, Zubi, Zubi",
        "event_total": 60,
        "has_played": true,
        "id": 1492,
        "last_rank": 54494,
        "player_name": "Alex Austin",
        "rank": 49425,
        "rank_sort": 49425,
        "total": 2352
      },
      {
        "club_badge_src": null,
        "entry": 1903,
        "entry_name": "The Citizens",
        "event_total": 58,
        "has_played": true,
        "id": 10605,
        "last_rank": 51137,
        "player_name": "Sebastian Ogrodowicz",
        "rank": 49425,
        "rank_sort": 49426,
        "total": 2352
      },
      {
        "club_badge_src": "https://fantasy.premierleague.com/gcs/plfpl-production-adobe-approved/plfpl-production/4328/4906d7d9-182d-45b4-be34-7c46fbf844d9.png",
        "entry": 4328,
        "entry_name": "Roger Rapids",
        "event_total": 73,
        "has_played": true,
        "id": 24596,
        "last_rank": 70651,
        "player_name": "Rogier van de Kuilen",
        "rank": 49425,
        "rank_sort": 49427,
        "total": 2352
      },
      {
        "club_badge_src": "https://fantasy.premierleague.com/gcs/plfpl-production-adobe-approved/plfpl-production/4738/00918c25-b6c3-43a0-a12d-a335c4c766c9.png",
        "entry": 4738,
        "entry_name": "Man\u00e9ball",
        "event_total": 75,
        "has_played": true,
        "id": 26961,
        "last_rank": 83584,
        "player_name": "Albert Gudmundsson",
        "rank": 49425,
        "rank_sort": 49428,
        "total": 2352
      },
      {
        "club_badge_src": null,
        "entry": 7056,
        "entry_name": "Boom Xhaka Laka",
        "event_total": 69,
        "has_played": true,
        "id": 40638,
        "last_rank": 70757,
        "player_name": "Reuben Dudley",
        "rank": 49425,
        "rank_sort": 49429,
        "total": 2352
      },
      {
        "club_badge_src": null,
        "entry": 8335,
        "entry_name": "FPL Timmy",
        "event_total": 45,
        "has_played": true,
        "id": 48402,
        "last_rank": 34051,
        "player_name": "Timmy Lai",
        "rank": 49425,
        "rank_sort": 49430,
        "total": 2352
      },
      {
        "club_badge_src": null,
        "entry": 9085,
        "entry_name": "Can't Get Any Wirtz",
        "event_total": 70,
        "has_played": true,
        "id": 53217,
        "last_rank": 72815,
        "player_name": "Luke Villers",
        "rank": 49425,
        "rank_sort": 49431,
        "total": 2352
      },
      {
        "club_badge_src": "https://fantasy.premierleague.com/gcs/plfpl-production-adobe-approved/plfpl-production/13891/1646476f-c91d-4486-a7c3-cb475772008e.png",
        "entry": 13891,
        "entry_name": "Appy Baldy On Tour",
        "event_total": 41,
        "has_played": true,
        "id": 84118,
        "last_rank": 25729,
        "player_name": "Steven Parmiter",
        "rank": 49425,
        "rank_sort": 49432,
        "total": 2352
      },
      {
        "club_badge_src": null,
        "entry": 13902,
        "entry_name": "N.E.C. in the PL",
        "event_total": 68,
        "has_played": true,
        "id": 84183,
        "last_rank": 68624,
        "player_name": "Koen Gebbink",
        "rank": 49425,
        "rank_sort": 49433,
        "total": 2352
      },
      {
        "club_badge_src": null,
        "entry": 15339,
        "entry_name": "Athletic Gilbao",
        "event_total": 54,
        "has_played": true,
        "id": 94045,
        "last_rank": 45182,
        "player_name": "Mat Gilbert",
        "rank": 49425,
        "rank_sort": 49434,
        "total": 2352
      },
      {
        "club_badge_src": null,
        "entry": 15695,
        "entry_name": "BratWirtz Summer",
        "event_total": 59,
        "has_played": true,
        "id": 96561,
        "last_rank": 46660,
        "player_name": "Dom De Groote",
        "rank": 49425,
        "rank_sort": 49435,
        "total": 2352
      },
      {
        "club_badge_src": null,
        "entry": 23130,
        "entry_name": "RKS HUWDU",
        "event_total": 59,
        "has_played": true,
        "id": 145552,
        "last_rank": 52853,
        "player_name": "Damian Gaj",
        "rank": 49425,
        "rank_sort": 49436,
        "total": 2352
      },
      {
        "club_badge_src": null,
        "entry": 26495,
        "entry_name": "Harrys Hammers",
        "event_total": 71,
        "has_played": true,
        "id": 167524,
        "last_rank": 75139,
        "player_name": "Harry Moule",
        "rank": 49425,
        "rank_sort": 49437,
        "total": 2352
      },
      {
        "club_badge_src": "https://fantasy.premierleague.com/gcs/plfpl-production-adobe-approved/plfpl-production/28040/8f982bf0-72df-4c39-a9a4-7b10261d66d5.png",
        "entry": 28040,
        "entry_name": "Cunha get a Hoya",
        "event_total": 68,
        "has_played": true,
        "id": 177323,
        "last_rank": 68957,
        "player_name": "Liam O'Hara",
        "rank": 49425,
        "rank_sort": 49438,
        "total": 2352
      },
      {
        "club_badge_src": null,
        "entry": 30320,
        "entry_name": "Dobbel Oversteg",
        "event_total": 59,
        "has_played": true,
        "id": 191882,
        "last_rank": 52759,
        "player_name": "Jens N\u00e6ss Jacobsen",
        "rank": 49425,
        "rank_sort": 49439,
        "total": 2352
      },
      {
        "club_badge_src": "https://fantasy.premierleague.com/gcs/plfpl-production-adobe-approved/plfpl-production/32729/87792c8c-4a85-4f37-9859-55bf03489f61.png",
        "entry": 32729,
        "entry_name": "Arkonia Szczecin",
        "event_total": 62,
        "has_played": true,
        "id": 208328,
        "last_rank": 58071,
        "player_name": "Jakub Tomaszewski",
        "rank": 49425,
        "rank_sort": 49440,
        "total": 2352
      },
      {
        "club_badge_src": null,
        "entry": 38246,
        "entry_name": "YuryH",
        "event_total": 64,
        "has_played": true,
        "id": 245108,
        "last_rank": 61411,
        "player_name": "Yury H",
        "rank": 49425,
        "rank_sort": 49441,
        "total": 2352
      },
      {
        "club_badge_src": "https://fantasy.premierleague.com/gcs/plfpl-production-adobe-approved/plfpl-production/41165/27b895fe-96f1-4ba1-affb-71b3f60bcebe.png",
        "entry": 41165,
        "entry_name": "2young2Aubameyang",
        "event_total": 53,
        "has_played": true,
        "id": 263786,
        "last_rank": 44048,
        "player_name": "Dimi Kyiv",
        "rank": 49425,
        "rank_sort": 49442,
        "total": 2352
      },
      {
        "club_badge_src": "https://fantasy.premierleague.com/gcs/plfpl-production-adobe-approved/plfpl-production/41791/81ab48c7-1bd0-40a8-a295-b3e5222399ed.png",
        "entry": 41791,
        "entry_name": "Lejonflocken FC",
        "event_total": 48,
        "has_played": true,
        "id": 267774,
        "last_rank": 37376,
        "player_name": "Niklas Krafft",
        "rank": 49425,
        "rank_sort": 49443,
        "total": 2352
      },
      {
        "club_badge_src": null,
        "entry": 45554,
        "entry_name": "Your Wirtz Nightmare",
        "event_total": 58,
        "has_played": true,
        "id": 292226,
        "last_rank": 51220,
        "player_name": "Devon Blackmore",
        "rank": 49425,
        "rank_sort": 49444,
        "total": 2352
      },
      {
        "club_badge_src": "https://fantasy.premierleague.com/gcs/plfpl-production-adobe-approved/plfpl-production/47539/7a52e1b0-89f8-472c-9ea8-487649548496.png",
        "entry": 47539,
        "entry_name": "OVER 2.5",
        "event_total": 69,
        "has_played": true,
        "id": 304980,
        "last_rank": 70985,
        "player_name": "adem sahbani",
        "rank": 49425,
        "rank_sort": 49445,
        "total": 2352
      },
      {
        "club_badge_src": null,
        "entry": 54612,
        "entry_name": "Right up the lanA!",
        "event_total": 47,
        "has_played": true,
        "id": 351502,
        "last_rank": 36348,
        "player_name": "Alan briggs",
        "rank": 49425,
        "rank_sort": 49446,
        "total": 2352
      },
      {
        "club_badge_src": null,
        "entry": 62339,
        "entry_name": "Ka$h P\u00fcss\u00a5 Records",
        "event_total": 71,
        "has_played": true,
        "id": 401756,
        "last_rank": 74787,
        "player_name": "Ally Lee",
        "rank": 49425,
        "rank_sort": 49447,
        "total": 2352
      },
      {
        "club_badge_src": null,
        "entry": 63674,
        "entry_name": "Azun mazun",
        "event_total": 62,
        "has_played": true,
        "id": 410875,
        "last_rank": 57857,
        "player_name": "Alibek Kulimbetov",
        "rank": 49425,
        "rank_sort": 49448,
        "total": 2352
      },
      {
        "club_badge_src": null,
        "entry": 65963,
        "entry_name": "Berlin08",
        "event_total": 96,
        "has_played": true,
        "id": 426145,
        "last_rank": 143322,
        "player_name": "Hosein Karimi",
        "rank": 49425,
        "rank_sort": 49449,
        "total": 2352
      },
      {
        "club_badge_src": null,
        "entry": 85144,
        "entry_name": "Hal Capone",
        "event_total": 61,
        "has_played": true,
        "id": 554420,
        "last_rank": 56180,
        "player_name": "Colin Capon",
        "rank": 49425,
        "rank_sort": 49450,
        "total": 2352
      }
    ]
  }
}