{
  "last_updated_data": "2026-05-24T23:28:17Z",
  "league": {
    "admin_entry": null,
    "closed": false,
    "code_privacy": "p",
    "created": "2025-07-20T23:14:33.933835Z",
    "cup_league": 2815434,
    "has_cup": true,
    "id": 314,
    "league_type": "s",
    "max_entries": null,
    "name": "Overall",
    "rank": null,
    "scoring": "c",
    "start_event": 1
  },
  "new_entries": {
    "has_next": false,
    "page": 1,
    "results": []
  },
  "standings": {
    "has_next": true,
    "page": 971,
    "results": [
      {
        "club_badge_src": null,
        "entry": 268044,
        "entry_name": "Rip Van Winkle",
        "event_total": 54,
        "has_played": true,
        "id": 1783175,
        "last_rank": 34051,
        "player_name": "Mr TRTL",
        "rank": 48456,
        "rank_sort": 48501,
        "total": 2353
      },
      {
        "club_badge_src": "https://fantasy.premierleague.com/gcs/plfpl-production-adobe-approved/plfpl-production/309263/cbbba74c-7cf6-4819-8d88-a73628bc17c1.png",
        "entry": 309263,
        "entry_name": "Unstoppable",
        "event_total": 55,
        "has_played": true,
        "id": 2071606,
        "last_rank": 45927,
        "player_name": "\u0410\u043b\u0435\u043a\u0441\u0430\u043d\u0434\u0430\u0440 \u0412\u0435\u0437\u0438\u0440\u043e\u0441\u043a\u0438",
        "rank": 48456,
        "rank_sort": 48502,
        "total": 2353
      },
      {
        "club_badge_src": null,
        "entry": 326701,
        "entry_name": "It's Only Money Bruv",
        "event_total": 65,
        "has_played": true,
        "id": 2188967,
        "last_rank": 55014,
        "player_name": "John Harrison",
        "rank": 48456,
        "rank_sort": 48503,
        "total": 2353
      },
      {
        "club_badge_src": null,
        "entry": 339716,
        "entry_name": "Team of misfits",
        "event_total": 46,
        "has_played": true,
        "id": 2274102,
        "last_rank": 34293,
        "player_name": "Halvor Eggen",
        "rank": 48456,
        "rank_sort": 48504,
        "total": 2353
      },
      {
        "club_badge_src": null,
        "entry": 339837,
        "entry_name": "Tosinmeselfoff",
        "event_total": 73,
        "has_played": true,
        "id": 2274904,
        "last_rank": 77999,
        "player_name": "colin mullan",
        "rank": 48456,
        "rank_sort": 48505,
        "total": 2353
      },
      {
        "club_badge_src": "https://fantasy.premierleague.com/gcs/plfpl-production-adobe-approved/plfpl-production/340211/a3d94580-232f-4696-9cea-f045892aa970.png",
        "entry": 340211,
        "entry_name": "C's Otters",
        "event_total": 58,
        "has_played": true,
        "id": 2277316,
        "last_rank": 50468,
        "player_name": "chelsea otte",
        "rank": 48456,
        "rank_sort": 48506,
        "total": 2353
      },
      {
        "club_badge_src": null,
        "entry": 374520,
        "entry_name": "Rutter Woke Nonsense",
        "event_total": 57,
        "has_played": true,
        "id": 2506621,
        "last_rank": 48642,
        "player_name": "Ben Howe",
        "rank": 48456,
        "rank_sort": 48507,
        "total": 2353
      },
      {
        "club_badge_src": null,
        "entry": 391423,
        "entry_name": "Keir's Lads",
        "event_total": 71,
        "has_played": true,
        "id": 2625526,
        "last_rank": 73720,
        "player_name": "Keir Halliday",
        "rank": 48456,
        "rank_sort": 48508,
        "total": 2353
      },
      {
        "club_badge_src": null,
        "entry": 394426,
        "entry_name": "fantasy fools",
        "event_total": 62,
        "has_played": true,
        "id": 2645150,
        "last_rank": 56369,
        "player_name": "david salter",
        "rank": 48456,
        "rank_sort": 48509,
        "total": 2353
      },
      {
        "club_badge_src": null,
        "entry": 409527,
        "entry_name": "The Winners",
        "event_total": 50,
        "has_played": true,
        "id": 2746161,
        "last_rank": 39246,
        "player_name": "Ali Naser",
        "rank": 48456,
        "rank_sort": 48510,
        "total": 2353
      },
      {
        "club_badge_src": "https://fantasy.premierleague.com/gcs/plfpl-production-adobe-approved/plfpl-production/410450/a78a345a-1d11-4788-90e6-a0828ee48924.png",
        "entry": 410450,
        "entry_name": "Trent's Corner",
        "event_total": 38,
        "has_played": true,
        "id": 2752134,
        "last_rank": 22685,
        "player_name": "thomas bjerkvik",
        "rank": 48456,
        "rank_sort": 48511,
        "total": 2353
      },
      {
        "club_badge_src": null,
        "entry": 430906,
        "entry_name": "MO WITH THE FLO",
        "event_total": 55,
        "has_played": true,
        "id": 2889969,
        "last_rank": 45927,
        "player_name": "Rory Mullan",
        "rank": 48456,
        "rank_sort": 48512,
        "total": 2353
      },
      {
        "club_badge_src": null,
        "entry": 433397,
        "entry_name": "Leeseandro Martinez",
        "event_total": 58,
        "has_played": true,
        "id": 2906447,
        "last_rank": 50468,
        "player_name": "Ollie Ball",
        "rank": 48456,
        "rank_sort": 48513,
        "total": 2353
      },
      {
        "club_badge_src": null,
        "entry": 448045,
        "entry_name": "Dendonckey Kong",
        "event_total": 67,
        "has_played": true,
        "id": 3005616,
        "last_rank": 58071,
        "player_name": "Matthias Daneels",
        "rank": 48456,
        "rank_sort": 48514,
        "total": 2353
      },
      {
        "club_badge_src": null,
        "entry": 470513,
        "entry_name": "Sids Kids winners",
        "event_total": 46,
        "has_played": true,
        "id": 3158529,
        "last_rank": 34458,
        "player_name": "robin kent",
        "rank": 48456,
        "rank_sort": 48515,
        "total": 2353
      },
      {
        "club_badge_src": "https://fantasy.premierleague.com/gcs/plfpl-production-adobe-approved/plfpl-production/490363/7863c450-0244-43b6-9147-4440141672b3.png",
        "entry": 490363,
        "entry_name": "RIP diogoal slaughta",
        "event_total": 62,
        "has_played": true,
        "id": 3291748,
        "last_rank": 56708,
        "player_name": "Peter Loo",
        "rank": 48456,
        "rank_sort": 48516,
        "total": 2353
      },
      {
        "club_badge_src": null,
        "entry": 496697,
        "entry_name": "Fishingscotland",
        "event_total": 61,
        "has_played": true,
        "id": 3333810,
        "last_rank": 55311,
        "player_name": "ross hood",
        "rank": 48456,
        "rank_sort": 48517,
        "total": 2353
      },
      {
        "club_badge_src": "https://fantasy.premierleague.com/gcs/plfpl-production-adobe-approved/plfpl-production/512004/aededfdd-c846-40f5-be16-06b48c96f4fc.png",
        "entry": 512004,
        "entry_name": "Owli \u00a5",
        "event_total": 52,
        "has_played": true,
        "id": 3438043,
        "last_rank": 31747,
        "player_name": "Abdelali boulaayad",
        "rank": 48456,
        "rank_sort": 48518,
        "total": 2353
      },
      {
        "club_badge_src": null,
        "entry": 543120,
        "entry_name": "FC PSYK",
        "event_total": 69,
        "has_played": true,
        "id": 3655326,
        "last_rank": 69641,
        "player_name": "William T\u00f6rnqvist",
        "rank": 48456,
        "rank_sort": 48519,
        "total": 2353
      },
      {
        "club_badge_src": null,
        "entry": 549108,
        "entry_name": "Cunha Let Me Win",
        "event_total": 53,
        "has_played": true,
        "id": 3695381,
        "last_rank": 43342,
        "player_name": "Ben Morse",
        "rank": 48456,
        "rank_sort": 48520,
        "total": 2353
      },
      {
        "club_badge_src": null,
        "entry": 567403,
        "entry_name": "Beef Cherki",
        "event_total": 73,
        "has_played": true,
        "id": 3818877,
        "last_rank": 77999,
        "player_name": "Daniel Lee",
        "rank": 48456,
        "rank_sort": 48521,
        "total": 2353
      },
      {
        "club_badge_src": null,
        "entry": 572193,
        "entry_name": "The Chosen Nunn",
        "event_total": 58,
        "has_played": true,
        "id": 3850899,
        "last_rank": 50468,
        "player_name": "Kieran Nunn",
        "rank": 48456,
        "rank_sort": 48522,
        "total": 2353
      },
      {
        "club_badge_src": "https://fantasy.premierleague.com/gcs/plfpl-production-adobe-approved/plfpl-production/572414/4ca5d648-dd2c-464d-a3d1-40a3457e273e.png",
        "entry": 572414,
        "entry_name": "FC GOBZzz",
        "event_total": 74,
        "has_played": true,
        "id": 3852412,
        "last_rank": 80194,
        "player_name": "Gobind Singh",
        "rank": 48456,
        "rank_sort": 48523,
        "total": 2353
      },
      {
        "club_badge_src": "https://fantasy.premierleague.com/gcs/plfpl-production-adobe-approved/plfpl-production/577709/b87a5468-30a6-4810-805e-6c0ae30249f9.png",
        "entry": 577709,
        "entry_name": "Wirtz the problem?",
        "event_total": 57,
        "has_played": true,
        "id": 3887317,
        "last_rank": 48898,
        "player_name": "Robert Cornett",
        "rank": 48456,
        "rank_sort": 48524,
        "total": 2353
      },
      {
        "club_badge_src": "https://fantasy.premierleague.com/gcs/plfpl-production-adobe-approved/plfpl-production/580861/d8b2355a-a35d-4c0c-ae59-95ab2a376fb3.png",
        "entry": 580861,
        "entry_name": "Jordie Wataru doing?",
        "event_total": 36,
        "has_played": true,
        "id": 3908837,
        "last_rank": 24475,
        "player_name": "Xander Savenberg",
        "rank": 48456,
        "rank_sort": 48525,
        "total": 2353
      },
      {
        "club_badge_src": null,
        "entry": 639245,
        "entry_name": "Free Palestine",
        "event_total": 65,
        "has_played": true,
        "id": 4320222,
        "last_rank": 55014,
        "player_name": "Michael Delis",
        "rank": 48456,
        "rank_sort": 48526,
        "total": 2353
      },
      {
        "club_badge_src": null,
        "entry": 642987,
        "entry_name": "Jag-ernautz",
        "event_total": 51,
        "has_played": true,
        "id": 4345489,
        "last_rank": 35424,
        "player_name": "Jag Moore",
        "rank": 48456,
        "rank_sort": 48527,
        "total": 2353
      },
      {
        "club_badge_src": null,
        "entry": 674649,
        "entry_name": "abcde fc",
        "event_total": 71,
        "has_played": true,
        "id": 4564036,
        "last_rank": 65163,
        "player_name": "Colin Brady",
        "rank": 48456,
        "rank_sort": 48528,
        "total": 2353
      },
      {
        "club_badge_src": null,
        "entry": 677451,
        "entry_name": "PCSPURS",
        "event_total": 59,
        "has_played": true,
        "id": 4583605,
        "last_rank": 51720,
        "player_name": "Per Christian Housken",
        "rank": 48456,
        "rank_sort": 48529,
        "total": 2353
      },
      {
        "club_badge_src": null,
        "entry": 726749,
        "entry_name": "La Blanqui F.C.",
        "event_total": 50,
        "has_played": true,
        "id": 4936934,
        "last_rank": 39246,
        "player_name": "Diego Torres",
        "rank": 48456,
        "rank_sort": 48530,
        "total": 2353
      },
      {
        "club_badge_src": null,
        "entry": 728182,
        "entry_name": "The PB Posse",
        "event_total": 61,
        "has_played": true,
        "id": 4947298,
        "last_rank": 55014,
        "player_name": "Paul Burns",
        "rank": 48456,
        "rank_sort": 48531,
        "total": 2353
      },
      {
        "club_badge_src": null,
        "entry": 747413,
        "entry_name": "Kaffegy\u00f6k",
        "event_total": 46,
        "has_played": true,
        "id": 5084825,
        "last_rank": 29904,
        "player_name": "Emil H\u00f6\u00f6k",
        "rank": 48456,
        "rank_sort": 48532,
        "total": 2353
      },
      {
        "club_badge_src": null,
        "entry": 796763,
        "entry_name": "Crystal Malt Palace",
        "event_total": 56,
        "has_played": true,
        "id": 5453176,
        "last_rank": 47163,
        "player_name": "Scott Ferguson",
        "rank": 48456,
        "rank_sort": 48533,
        "total": 2353
      },
      {
        "club_badge_src": null,
        "entry": 796978,
        "entry_name": "Ibrakadabra",
        "event_total": 60,
        "has_played": true,
        "id": 5454716,
        "last_rank": 53345,
        "player_name": "Andreas Tendenes",
        "rank": 48456,
        "rank_sort": 48534,
        "total": 2353
      },
      {
        "club_badge_src": "https://fantasy.premierleague.com/gcs/plfpl-production-adobe-approved/plfpl-production/832143/2786b155-bee4-48e7-b15b-0624b7b6db7a.png",
        "entry": 832143,
        "entry_name": "Give Me Some Kudus",
        "event_total": 62,
        "has_played": true,
        "id": 5699721,
        "last_rank": 56708,
        "player_name": "Dorian Grault",
        "rank": 48456,
        "rank_sort": 48535,
        "total": 2353
      },
      {
        "club_badge_src": null,
        "entry": 864335,
        "entry_name": "10th attempt!",
        "event_total": 72,
        "has_played": true,
        "id": 5925399,
        "last_rank": 67422,
        "player_name": "Ahmed Eissa",
        "rank": 48456,
        "rank_sort": 48536,
        "total": 2353
      },
      {
        "club_badge_src": null,
        "entry": 867900,
        "entry_name": "Tiki Ekitike",
        "event_total": 66,
        "has_played": true,
        "id": 5950145,
        "last_rank": 56708,
        "player_name": "KK Lee",
        "rank": 48456,
        "rank_sort": 48537,
        "total": 2353
      },
      {
        "club_badge_src": null,
        "entry": 908395,
        "entry_name": "Cunha Dig It, SOCCER",
        "event_total": 66,
        "has_played": true,
        "id": 6244605,
        "last_rank": 64005,
        "player_name": "Aiden O'Keefe",
        "rank": 48456,
        "rank_sort": 48538,
        "total": 2353
      },
      {
        "club_badge_src": null,
        "entry": 969709,
        "entry_name": "Wirtz Manager",
        "event_total": 70,
        "has_played": true,
        "id": 6683558,
        "last_rank": 56369,
        "player_name": "Edwin Bowers",
        "rank": 48456,
        "rank_sort": 48539,
        "total": 2353
      },
      {
        "club_badge_src": null,
        "entry": 1034878,
        "entry_name": "Kinder Mbuemo",
        "event_total": 66,
        "has_played": true,
        "id": 7161004,
        "last_rank": 64005,
        "player_name": "Thanzim Choudhury",
        "rank": 48456,
        "rank_sort": 48540,
        "total": 2353
      },
      {
        "club_badge_src": null,
        "entry": 1042191,
        "entry_name": "Change Name",
        "event_total": 67,
        "has_played": true,
        "id": 7212273,
        "last_rank": 65796,
        "player_name": "Damien Gill",
        "rank": 48456,
        "rank_sort": 48541,
        "total": 2353
      },
      {
        "club_badge_src": null,
        "entry": 1042352,
        "entry_name": "Hudge FC",
        "event_total": 46,
        "has_played": true,
        "id": 7213344,
        "last_rank": 34458,
        "player_name": "Joshua Hudgins",
        "rank": 48456,
        "rank_sort": 48542,
        "total": 2353
      },
      {
        "club_badge_src": null,
        "entry": 1084478,
        "entry_name": "For my family",
        "event_total": 51,
        "has_played": true,
        "id": 7509628,
        "last_rank": 40503,
        "player_name": "\u00c1rni Steinn Vigg\u00f3sson",
        "rank": 48456,
        "rank_sort": 48543,
        "total": 2353
      },
      {
        "club_badge_src": null,
        "entry": 1102381,
        "entry_name": "Dame Time",
        "event_total": 59,
        "has_played": true,
        "id": 7635940,
        "last_rank": 45714,
        "player_name": "Benjamin White",
        "rank": 48456,
        "rank_sort": 48544,
        "total": 2353
      },
      {
        "club_badge_src": null,
        "entry": 1116920,
        "entry_name": "The Kings of Burma",
        "event_total": 62,
        "has_played": true,
        "id": 7736760,
        "last_rank": 57001,
        "player_name": "Mark Weber",
        "rank": 48456,
        "rank_sort": 48545,
        "total": 2353
      },
      {
        "club_badge_src": "https://fantasy.premierleague.com/gcs/plfpl-production-adobe-approved/plfpl-production/1215001/0919a646-f5f3-4b93-b2ec-0c0845d43339.png",
        "entry": 1215001,
        "entry_name": "Elzooz",
        "event_total": 64,
        "has_played": true,
        "id": 8433291,
        "last_rank": 53345,
        "player_name": "El ZoooZ Mohamed",
        "rank": 48456,
        "rank_sort": 48546,
        "total": 2353
      },
      {
        "club_badge_src": null,
        "entry": 1253076,
        "entry_name": "omar",
        "event_total": 64,
        "has_played": true,
        "id": 8703108,
        "last_rank": 60462,
        "player_name": "Omar ben mahrez",
        "rank": 48456,
        "rank_sort": 48547,
        "total": 2353
      },
      {
        "club_badge_src": null,
        "entry": 1271178,
        "entry_name": "Croxley Green Rovers",
        "event_total": 45,
        "has_played": true,
        "id": 8832434,
        "last_rank": 33483,
        "player_name": "Adam Rochester",
        "rank": 48456,
        "rank_sort": 48548,
        "total": 2353
      },
      {
        "club_badge_src": "https://fantasy.premierleague.com/gcs/plfpl-production-adobe-approved/plfpl-production/1275212/0d5490a9-61ce-4378-be41-127b7315a89b.png",
        "entry": 1275212,
        "entry_name": "Haribo ScharMix",
        "event_total": 59,
        "has_played": true,
        "id": 8860946,
        "last_rank": 45714,
        "player_name": "Matty Conlon",
        "rank": 48456,
        "rank_sort": 48549,
        "total": 2353
      },
      {
        "club_badge_src": null,
        "entry": 1283001,
        "entry_name": "The Floor Is Lavia",
        "event_total": 63,
        "has_played": true,
        "id": 8915187,
        "last_rank": 58688,
        "player_name": "Holly O-Driscoll",
        "rank": 48456,
        "rank_sort": 48550,
        "total": 2353
      }
    ]
  }
}