{
  "last_updated_data": "2026-05-24T23:28:17Z",
  "league": {
    "admin_entry": null,
    "closed": false,
    "code_privacy": "p",
    "created": "2025-07-20T23:14:33.933835Z",
    "cup_league": 2815434,
    "has_cup": true,
    "id": 314,
    "league_type": "s",
    "max_entries": null,
    "name": "Overall",
    "rank": null,
    "scoring": "c",
    "start_event": 1
  },
  "new_entries": {
    "has_next": false,
    "page": 1,
    "results": []
  },
  "standings": {
    "has_next": true,
    "page": 328,
    "results": [
      {
        "club_badge_src": null,
        "entry": 5378419,
        "entry_name": "Holmen Invincibles",
        "event_total": 61,
        "has_played": true,
        "id": 41805859,
        "last_rank": 18377,
        "player_name": "Wilgot Rydborg",
        "rank": 16300,
        "rank_sort": 16351,
        "total": 2386
      },
      {
        "club_badge_src": null,
        "entry": 5992506,
        "entry_name": "Wirtz Case Scenario",
        "event_total": 68,
        "has_played": true,
        "id": 47222457,
        "last_rank": 20538,
        "player_name": "Craig Murden",
        "rank": 16300,
        "rank_sort": 16352,
        "total": 2386
      },
      {
        "club_badge_src": null,
        "entry": 6244026,
        "entry_name": "CW S.A.",
        "event_total": 46,
        "has_played": true,
        "id": 49423306,
        "last_rank": 10151,
        "player_name": "Wojciech Dryka",
        "rank": 16300,
        "rank_sort": 16353,
        "total": 2386
      },
      {
        "club_badge_src": null,
        "entry": 6446085,
        "entry_name": "Only Tans",
        "event_total": 51,
        "has_played": true,
        "id": 51327716,
        "last_rank": 12470,
        "player_name": "James Tansley",
        "rank": 16300,
        "rank_sort": 16354,
        "total": 2386
      },
      {
        "club_badge_src": null,
        "entry": 6529700,
        "entry_name": "Askal's",
        "event_total": 66,
        "has_played": true,
        "id": 52086623,
        "last_rank": 19103,
        "player_name": "Mostafa Elaskalany",
        "rank": 16300,
        "rank_sort": 16355,
        "total": 2386
      },
      {
        "club_badge_src": null,
        "entry": 7009164,
        "entry_name": "YoungTimScanlon",
        "event_total": 60,
        "has_played": true,
        "id": 56287409,
        "last_rank": 15164,
        "player_name": "Ben Howard",
        "rank": 16300,
        "rank_sort": 16356,
        "total": 2386
      },
      {
        "club_badge_src": null,
        "entry": 7637275,
        "entry_name": "NasserFPL",
        "event_total": 53,
        "has_played": true,
        "id": 62601408,
        "last_rank": 11345,
        "player_name": "Nasser Al Saadi",
        "rank": 16300,
        "rank_sort": 16357,
        "total": 2386
      },
      {
        "club_badge_src": null,
        "entry": 8090152,
        "entry_name": "Baldy XI",
        "event_total": 41,
        "has_played": true,
        "id": 66709062,
        "last_rank": 8198,
        "player_name": "Will Porritt",
        "rank": 16300,
        "rank_sort": 16358,
        "total": 2386
      },
      {
        "club_badge_src": null,
        "entry": 8194836,
        "entry_name": "Booomsakaalaka",
        "event_total": 56,
        "has_played": true,
        "id": 67691536,
        "last_rank": 15226,
        "player_name": "Chuka Obiechefu",
        "rank": 16300,
        "rank_sort": 16359,
        "total": 2386
      },
      {
        "club_badge_src": "https://fantasy.premierleague.com/gcs/plfpl-production-adobe-approved/plfpl-production/5718/ce03a390-700d-49a1-a87b-4c8ec20b2c2c.png",
        "entry": 5718,
        "entry_name": "A Cunha Mateta",
        "event_total": 69,
        "has_played": true,
        "id": 32642,
        "last_rank": 21392,
        "player_name": "Milan Stevanovi\u0107",
        "rank": 16360,
        "rank_sort": 16360,
        "total": 2386
      },
      {
        "club_badge_src": null,
        "entry": 26221,
        "entry_name": "Kasztany",
        "event_total": 56,
        "has_played": true,
        "id": 165780,
        "last_rank": 12995,
        "player_name": "Arkadiusz Her\u00f3d",
        "rank": 16360,
        "rank_sort": 16361,
        "total": 2386
      },
      {
        "club_badge_src": null,
        "entry": 61833,
        "entry_name": "bills11",
        "event_total": 52,
        "has_played": true,
        "id": 398363,
        "last_rank": 13033,
        "player_name": "billy tsovolos",
        "rank": 16360,
        "rank_sort": 16362,
        "total": 2386
      },
      {
        "club_badge_src": null,
        "entry": 90548,
        "entry_name": "Change Name",
        "event_total": 65,
        "has_played": true,
        "id": 591189,
        "last_rank": 15797,
        "player_name": "Chaim Itzinger",
        "rank": 16360,
        "rank_sort": 16363,
        "total": 2386
      },
      {
        "club_badge_src": null,
        "entry": 204612,
        "entry_name": "AbraDubravka FC",
        "event_total": 61,
        "has_played": true,
        "id": 1359963,
        "last_rank": 15876,
        "player_name": "Oscar Abrahamsson",
        "rank": 16360,
        "rank_sort": 16364,
        "total": 2386
      },
      {
        "club_badge_src": null,
        "entry": 223224,
        "entry_name": "Hugo Reds",
        "event_total": 47,
        "has_played": true,
        "id": 1484903,
        "last_rank": 8925,
        "player_name": "stephen hughes",
        "rank": 16360,
        "rank_sort": 16365,
        "total": 2386
      },
      {
        "club_badge_src": null,
        "entry": 336039,
        "entry_name": "Pukki Blinders",
        "event_total": 49,
        "has_played": true,
        "id": 2249916,
        "last_rank": 9751,
        "player_name": "Garry Storey",
        "rank": 16360,
        "rank_sort": 16366,
        "total": 2386
      },
      {
        "club_badge_src": null,
        "entry": 367906,
        "entry_name": "Crumb of Harold",
        "event_total": 60,
        "has_played": true,
        "id": 2462091,
        "last_rank": 17848,
        "player_name": "Paul Harris",
        "rank": 16360,
        "rank_sort": 16367,
        "total": 2386
      },
      {
        "club_badge_src": "https://fantasy.premierleague.com/gcs/plfpl-production-adobe-approved/plfpl-production/482514/33f47926-fadb-4e26-9d7f-4b9db5f86063.png",
        "entry": 482514,
        "entry_name": "Pathetico Madrid",
        "event_total": 45,
        "has_played": true,
        "id": 3239121,
        "last_rank": 9775,
        "player_name": "Craig Gaunt",
        "rank": 16360,
        "rank_sort": 16368,
        "total": 2386
      },
      {
        "club_badge_src": "https://fantasy.premierleague.com/gcs/plfpl-production-adobe-approved/plfpl-production/515720/aab681ff-e4b9-4d9e-a503-2fc99ca71a51.png",
        "entry": 515720,
        "entry_name": "Poultry in motion",
        "event_total": 59,
        "has_played": true,
        "id": 3462496,
        "last_rank": 17194,
        "player_name": "Dave Brooksbank",
        "rank": 16360,
        "rank_sort": 16369,
        "total": 2386
      },
      {
        "club_badge_src": "https://fantasy.premierleague.com/gcs/plfpl-production-adobe-approved/plfpl-production/536559/25ecf76c-e759-4b12-bb43-1934c49e9a9f.png",
        "entry": 536559,
        "entry_name": "Big things sn2",
        "event_total": 74,
        "has_played": true,
        "id": 3611419,
        "last_rank": 25330,
        "player_name": "andrew kenan",
        "rank": 16360,
        "rank_sort": 16370,
        "total": 2386
      },
      {
        "club_badge_src": null,
        "entry": 711191,
        "entry_name": "Shoo-o-t!",
        "event_total": 61,
        "has_played": true,
        "id": 4823694,
        "last_rank": 15876,
        "player_name": "Aimar Nyg\u00e5rd",
        "rank": 16360,
        "rank_sort": 16371,
        "total": 2386
      },
      {
        "club_badge_src": null,
        "entry": 764058,
        "entry_name": "Nederlaget",
        "event_total": 54,
        "has_played": true,
        "id": 5210874,
        "last_rank": 11957,
        "player_name": "\u00d8rjan Elstad",
        "rank": 16360,
        "rank_sort": 16372,
        "total": 2386
      },
      {
        "club_badge_src": null,
        "entry": 779031,
        "entry_name": "Slot Machine",
        "event_total": 64,
        "has_played": true,
        "id": 5317256,
        "last_rank": 17802,
        "player_name": "Elliot Oliver",
        "rank": 16360,
        "rank_sort": 16373,
        "total": 2386
      },
      {
        "club_badge_src": null,
        "entry": 811111,
        "entry_name": "ahd_57",
        "event_total": 58,
        "has_played": true,
        "id": 5553509,
        "last_rank": 16512,
        "player_name": "Anas Hani",
        "rank": 16360,
        "rank_sort": 16374,
        "total": 2386
      },
      {
        "club_badge_src": null,
        "entry": 931734,
        "entry_name": "Epke Sunderland",
        "event_total": 43,
        "has_played": true,
        "id": 6411242,
        "last_rank": 8999,
        "player_name": "Dave van Perlo",
        "rank": 16360,
        "rank_sort": 16375,
        "total": 2386
      },
      {
        "club_badge_src": null,
        "entry": 932411,
        "entry_name": "HaleEndBoys",
        "event_total": 69,
        "has_played": true,
        "id": 6415992,
        "last_rank": 24636,
        "player_name": "Emil Bergelin",
        "rank": 16360,
        "rank_sort": 16376,
        "total": 2386
      },
      {
        "club_badge_src": null,
        "entry": 1020175,
        "entry_name": "K I N G",
        "event_total": 68,
        "has_played": true,
        "id": 7057997,
        "last_rank": 23857,
        "player_name": "Magdy Ezz",
        "rank": 16360,
        "rank_sort": 16377,
        "total": 2386
      },
      {
        "club_badge_src": null,
        "entry": 1492162,
        "entry_name": "Kris With A K",
        "event_total": 79,
        "has_played": true,
        "id": 10405707,
        "last_rank": 34682,
        "player_name": "Kris Flynn-Hutt",
        "rank": 16360,
        "rank_sort": 16378,
        "total": 2386
      },
      {
        "club_badge_src": null,
        "entry": 1601622,
        "entry_name": "The Nuts",
        "event_total": 38,
        "has_played": true,
        "id": 11204345,
        "last_rank": 7274,
        "player_name": "Al Basil",
        "rank": 16360,
        "rank_sort": 16379,
        "total": 2386
      },
      {
        "club_badge_src": null,
        "entry": 1755802,
        "entry_name": "I\u2019M NOT GUIU!",
        "event_total": 73,
        "has_played": true,
        "id": 12326701,
        "last_rank": 21301,
        "player_name": "Charlie Old",
        "rank": 16360,
        "rank_sort": 16380,
        "total": 2386
      },
      {
        "club_badge_src": null,
        "entry": 2196421,
        "entry_name": "Wolf Yam Yam",
        "event_total": 70,
        "has_played": true,
        "id": 15628515,
        "last_rank": 25517,
        "player_name": "Rob Fellows",
        "rank": 16360,
        "rank_sort": 16381,
        "total": 2386
      },
      {
        "club_badge_src": null,
        "entry": 2631278,
        "entry_name": "Galacticos",
        "event_total": 44,
        "has_played": true,
        "id": 18910121,
        "last_rank": 9382,
        "player_name": "Yasir Javed",
        "rank": 16360,
        "rank_sort": 16382,
        "total": 2386
      },
      {
        "club_badge_src": null,
        "entry": 3019202,
        "entry_name": "Amourinho's Drenge",
        "event_total": 66,
        "has_played": true,
        "id": 22213582,
        "last_rank": 22064,
        "player_name": "Jonathan Hartwig",
        "rank": 16360,
        "rank_sort": 16383,
        "total": 2386
      },
      {
        "club_badge_src": null,
        "entry": 3197684,
        "entry_name": "Mbeumo's beard",
        "event_total": 55,
        "has_played": true,
        "id": 23636162,
        "last_rank": 14712,
        "player_name": "Ben Phillips",
        "rank": 16360,
        "rank_sort": 16384,
        "total": 2386
      },
      {
        "club_badge_src": null,
        "entry": 3679800,
        "entry_name": "Games gone",
        "event_total": 61,
        "has_played": true,
        "id": 27446602,
        "last_rank": 18520,
        "player_name": "Evan Readshaw",
        "rank": 16360,
        "rank_sort": 16385,
        "total": 2386
      },
      {
        "club_badge_src": null,
        "entry": 3863953,
        "entry_name": "JR fc",
        "event_total": 68,
        "has_played": true,
        "id": 28972348,
        "last_rank": 23748,
        "player_name": "Jon Roaldsnes",
        "rank": 16360,
        "rank_sort": 16386,
        "total": 2386
      },
      {
        "club_badge_src": null,
        "entry": 4020384,
        "entry_name": "Youngsters",
        "event_total": 54,
        "has_played": true,
        "id": 30300722,
        "last_rank": 11957,
        "player_name": "Alan Young",
        "rank": 16360,
        "rank_sort": 16387,
        "total": 2386
      },
      {
        "club_badge_src": null,
        "entry": 4316617,
        "entry_name": "Saka Punch",
        "event_total": 53,
        "has_played": true,
        "id": 32756954,
        "last_rank": 11419,
        "player_name": "Simon Mitas",
        "rank": 16360,
        "rank_sort": 16388,
        "total": 2386
      },
      {
        "club_badge_src": "https://fantasy.premierleague.com/gcs/plfpl-production-adobe-approved/plfpl-production/4401415/4c287c19-a8a5-4664-b71a-81fb512ea919.png",
        "entry": 4401415,
        "entry_name": "ManU comeback",
        "event_total": 65,
        "has_played": true,
        "id": 33473976,
        "last_rank": 21392,
        "player_name": "Tobias Torgersen Ovnerud",
        "rank": 16360,
        "rank_sort": 16389,
        "total": 2386
      },
      {
        "club_badge_src": null,
        "entry": 4670004,
        "entry_name": "Meltinis",
        "event_total": 47,
        "has_played": true,
        "id": 35771551,
        "last_rank": 10629,
        "player_name": "Harry Wolrige Gordon",
        "rank": 16360,
        "rank_sort": 16390,
        "total": 2386
      },
      {
        "club_badge_src": "https://fantasy.premierleague.com/gcs/plfpl-production-adobe-approved/plfpl-production/5425152/fbc4a230-7ff2-4850-b4bf-b87071b89e22.png",
        "entry": 5425152,
        "entry_name": "endless",
        "event_total": 45,
        "has_played": true,
        "id": 42196433,
        "last_rank": 9775,
        "player_name": "jnr amida",
        "rank": 16360,
        "rank_sort": 16391,
        "total": 2386
      },
      {
        "club_badge_src": null,
        "entry": 5778326,
        "entry_name": "GUnitedFC",
        "event_total": 71,
        "has_played": true,
        "id": 45309294,
        "last_rank": 22921,
        "player_name": "Nick Greenhouse",
        "rank": 16360,
        "rank_sort": 16392,
        "total": 2386
      },
      {
        "club_badge_src": null,
        "entry": 6386609,
        "entry_name": "Born 2 lose",
        "event_total": 70,
        "has_played": true,
        "id": 50800344,
        "last_rank": 25517,
        "player_name": "Chris Aksiuk",
        "rank": 16360,
        "rank_sort": 16393,
        "total": 2386
      },
      {
        "club_badge_src": null,
        "entry": 6632801,
        "entry_name": "Pedro Peppers",
        "event_total": 59,
        "has_played": true,
        "id": 53012107,
        "last_rank": 14668,
        "player_name": "Ash Hamdani",
        "rank": 16360,
        "rank_sort": 16394,
        "total": 2386
      },
      {
        "club_badge_src": null,
        "entry": 6665461,
        "entry_name": "Easy mode",
        "event_total": 55,
        "has_played": true,
        "id": 53305722,
        "last_rank": 14712,
        "player_name": "Philip Francis",
        "rank": 16360,
        "rank_sort": 16395,
        "total": 2386
      },
      {
        "club_badge_src": null,
        "entry": 6733207,
        "entry_name": "Kalsarik\u00e4nnit",
        "event_total": 57,
        "has_played": true,
        "id": 53894016,
        "last_rank": 15920,
        "player_name": "Lisa Koivula",
        "rank": 16360,
        "rank_sort": 16396,
        "total": 2386
      },
      {
        "club_badge_src": null,
        "entry": 14572,
        "entry_name": "LesGrossman",
        "event_total": 61,
        "has_played": true,
        "id": 88560,
        "last_rank": 15920,
        "player_name": "Maksym Chornyi",
        "rank": 16397,
        "rank_sort": 16397,
        "total": 2386
      },
      {
        "club_badge_src": "https://fantasy.premierleague.com/gcs/plfpl-production-adobe-approved/plfpl-production/16466/58fb15d4-1a3f-49dd-8f1f-356c41de1f46.png",
        "entry": 16466,
        "entry_name": "Baby Reijnders",
        "event_total": 78,
        "has_played": true,
        "id": 101720,
        "last_rank": 29199,
        "player_name": "Stephen Hirst",
        "rank": 16397,
        "rank_sort": 16398,
        "total": 2386
      },
      {
        "club_badge_src": null,
        "entry": 30247,
        "entry_name": "Scout fc",
        "event_total": 74,
        "has_played": true,
        "id": 191425,
        "last_rank": 29071,
        "player_name": "Will Johnson",
        "rank": 16397,
        "rank_sort": 16399,
        "total": 2386
      },
      {
        "club_badge_src": null,
        "entry": 31693,
        "entry_name": "Anujan",
        "event_total": 67,
        "has_played": true,
        "id": 201075,
        "last_rank": 19966,
        "player_name": "Anujan Arulselvam",
        "rank": 16397,
        "rank_sort": 16400,
        "total": 2386
      }
    ]
  }
}