{
  "last_updated_data": "2026-05-24T23:28:17Z",
  "league": {
    "admin_entry": null,
    "closed": false,
    "code_privacy": "p",
    "created": "2025-07-20T23:14:33.933835Z",
    "cup_league": 2815434,
    "has_cup": true,
    "id": 314,
    "league_type": "s",
    "max_entries": null,
    "name": "Overall",
    "rank": null,
    "scoring": "c",
    "start_event": 1
  },
  "new_entries": {
    "has_next": false,
    "page": 1,
    "results": []
  },
  "standings": {
    "has_next": true,
    "page": 871,
    "results": [
      {
        "club_badge_src": null,
        "entry": 786470,
        "entry_name": "\u0633\u062d\u0633",
        "event_total": 63,
        "has_played": true,
        "id": 5375511,
        "last_rank": 40986,
        "player_name": "Hussam Yousif",
        "rank": 43500,
        "rank_sort": 43501,
        "total": 2357
      },
      {
        "club_badge_src": null,
        "entry": 1617869,
        "entry_name": "\u26bd\u20a3\u00c4\u0145\u021a\u00c4\u015a\u00cf\u0145\u021e\u00d6\u26bd",
        "event_total": 60,
        "has_played": true,
        "id": 11321093,
        "last_rank": 48007,
        "player_name": "ishak sadette",
        "rank": 43500,
        "rank_sort": 43502,
        "total": 2357
      },
      {
        "club_badge_src": null,
        "entry": 1901662,
        "entry_name": "slot machine 21",
        "event_total": 50,
        "has_played": true,
        "id": 13405545,
        "last_rank": 34891,
        "player_name": "Nathan Askew",
        "rank": 43500,
        "rank_sort": 43503,
        "total": 2357
      },
      {
        "club_badge_src": null,
        "entry": 3774594,
        "entry_name": "Whats Rob holding",
        "event_total": 38,
        "has_played": true,
        "id": 28183819,
        "last_rank": 23128,
        "player_name": "Rayan Jaffer",
        "rank": 43500,
        "rank_sort": 43504,
        "total": 2357
      },
      {
        "club_badge_src": null,
        "entry": 4099481,
        "entry_name": "Storyteller",
        "event_total": 80,
        "has_played": true,
        "id": 30955442,
        "last_rank": 76778,
        "player_name": "David Walters",
        "rank": 43500,
        "rank_sort": 43505,
        "total": 2357
      },
      {
        "club_badge_src": null,
        "entry": 4598471,
        "entry_name": "Montgomery FC",
        "event_total": 71,
        "has_played": true,
        "id": 35122954,
        "last_rank": 52653,
        "player_name": "JW Montgomery",
        "rank": 43500,
        "rank_sort": 43506,
        "total": 2357
      },
      {
        "club_badge_src": "https://fantasy.premierleague.com/gcs/plfpl-production-adobe-approved/plfpl-production/4891107/4be5c793-d1a7-48c8-8811-7e8b21176d1c.png",
        "entry": 4891107,
        "entry_name": "Fesa99",
        "event_total": 72,
        "has_played": true,
        "id": 37710695,
        "last_rank": 61139,
        "player_name": "Faisal Albishi",
        "rank": 43500,
        "rank_sort": 43507,
        "total": 2357
      },
      {
        "club_badge_src": null,
        "entry": 6889232,
        "entry_name": "TheMexicans",
        "event_total": 67,
        "has_played": true,
        "id": 55213944,
        "last_rank": 59410,
        "player_name": "Nicolai Diaz",
        "rank": 43500,
        "rank_sort": 43508,
        "total": 2357
      },
      {
        "club_badge_src": "https://fantasy.premierleague.com/gcs/plfpl-production-adobe-approved/plfpl-production/9466943/7567a075-487d-44a2-be54-8d1b06d526a7.png",
        "entry": 9466943,
        "entry_name": "Atletico Sheep",
        "event_total": 57,
        "has_played": true,
        "id": 80004169,
        "last_rank": 43695,
        "player_name": "Arron Turner",
        "rank": 43500,
        "rank_sort": 43509,
        "total": 2357
      },
      {
        "club_badge_src": null,
        "entry": 168729,
        "entry_name": "Crocker's Crackers",
        "event_total": 65,
        "has_played": true,
        "id": 1115151,
        "last_rank": 49492,
        "player_name": "Michael Crocker",
        "rank": 43510,
        "rank_sort": 43510,
        "total": 2357
      },
      {
        "club_badge_src": "https://fantasy.premierleague.com/gcs/plfpl-production-adobe-approved/plfpl-production/1052093/f58614db-54d5-4c5f-be04-c902a19f7009.png",
        "entry": 1052093,
        "entry_name": "2nd is the best",
        "event_total": 73,
        "has_played": true,
        "id": 7281103,
        "last_rank": 55969,
        "player_name": "Luke Drummond",
        "rank": 43510,
        "rank_sort": 43511,
        "total": 2357
      },
      {
        "club_badge_src": null,
        "entry": 1413830,
        "entry_name": "JP XI",
        "event_total": 59,
        "has_played": true,
        "id": 9839093,
        "last_rank": 46490,
        "player_name": "John Penn",
        "rank": 43510,
        "rank_sort": 43512,
        "total": 2357
      },
      {
        "club_badge_src": "https://fantasy.premierleague.com/gcs/plfpl-production-adobe-approved/plfpl-production/4406625/4d301794-b288-4d67-9054-5af50b071126.png",
        "entry": 4406625,
        "entry_name": "Mponga's XI",
        "event_total": 65,
        "has_played": true,
        "id": 33518247,
        "last_rank": 55998,
        "player_name": "Tr\u00e9sor Mponga",
        "rank": 43510,
        "rank_sort": 43513,
        "total": 2357
      },
      {
        "club_badge_src": null,
        "entry": 235214,
        "entry_name": "Wyvern",
        "event_total": 57,
        "has_played": true,
        "id": 1565086,
        "last_rank": 43710,
        "player_name": "Quinton Isaac",
        "rank": 43514,
        "rank_sort": 43514,
        "total": 2357
      },
      {
        "club_badge_src": null,
        "entry": 1486599,
        "entry_name": "Mohamed hesham",
        "event_total": 60,
        "has_played": true,
        "id": 10366763,
        "last_rank": 37283,
        "player_name": "Mohamed Hesham",
        "rank": 43514,
        "rank_sort": 43515,
        "total": 2357
      },
      {
        "club_badge_src": null,
        "entry": 2222545,
        "entry_name": "Kloppage time",
        "event_total": 59,
        "has_played": true,
        "id": 15829713,
        "last_rank": 41017,
        "player_name": "Mwaria Samuel",
        "rank": 43514,
        "rank_sort": 43516,
        "total": 2357
      },
      {
        "club_badge_src": null,
        "entry": 7518377,
        "entry_name": "Robbo's Rovers \u2b50\u2b50\u2b50",
        "event_total": 68,
        "has_played": true,
        "id": 61501607,
        "last_rank": 48007,
        "player_name": "pete robinson",
        "rank": 43514,
        "rank_sort": 43517,
        "total": 2357
      },
      {
        "club_badge_src": null,
        "entry": 884046,
        "entry_name": "A20",
        "event_total": 75,
        "has_played": true,
        "id": 6062931,
        "last_rank": 66588,
        "player_name": "Ali Hassan",
        "rank": 43518,
        "rank_sort": 43518,
        "total": 2357
      },
      {
        "club_badge_src": "https://fantasy.premierleague.com/gcs/plfpl-production-adobe-approved/plfpl-production/179854/13fd2fc9-19b9-4649-9b99-c8ef5332430a.png",
        "entry": 179854,
        "entry_name": "DiMar\u00edaConteMee Ings",
        "event_total": 56,
        "has_played": true,
        "id": 1186830,
        "last_rank": 37295,
        "player_name": "Daniel Glover",
        "rank": 43519,
        "rank_sort": 43519,
        "total": 2357
      },
      {
        "club_badge_src": "https://fantasy.premierleague.com/gcs/plfpl-production-adobe-approved/plfpl-production/1023871/ff5da663-fb3f-4525-9a0f-0ee4c98dc13a.png",
        "entry": 1023871,
        "entry_name": "DunderMifflin",
        "event_total": 82,
        "has_played": true,
        "id": 7083730,
        "last_rank": 64677,
        "player_name": "Joshua KAA",
        "rank": 43519,
        "rank_sort": 43520,
        "total": 2357
      },
      {
        "club_badge_src": "https://fantasy.premierleague.com/gcs/plfpl-production-adobe-approved/plfpl-production/1628384/ae952492-1cb3-4c90-95f1-438c31ef535d.png",
        "entry": 1628384,
        "entry_name": "Gudal FC",
        "event_total": 77,
        "has_played": true,
        "id": 11397733,
        "last_rank": 70533,
        "player_name": "Micha\u0142 Gudalewski",
        "rank": 43519,
        "rank_sort": 43521,
        "total": 2357
      },
      {
        "club_badge_src": null,
        "entry": 3464040,
        "entry_name": "sons of sussex",
        "event_total": 66,
        "has_played": true,
        "id": 25750245,
        "last_rank": 51072,
        "player_name": "Jack Sussex",
        "rank": 43522,
        "rank_sort": 43522,
        "total": 2357
      },
      {
        "club_badge_src": null,
        "entry": 793208,
        "entry_name": "Robs team",
        "event_total": 56,
        "has_played": true,
        "id": 5428304,
        "last_rank": 42372,
        "player_name": "Rob Williams",
        "rank": 43523,
        "rank_sort": 43523,
        "total": 2357
      },
      {
        "club_badge_src": null,
        "entry": 2295434,
        "entry_name": "New Oak Utd",
        "event_total": 70,
        "has_played": true,
        "id": 16371078,
        "last_rank": 64723,
        "player_name": "Keith Gaule",
        "rank": 43523,
        "rank_sort": 43524,
        "total": 2357
      },
      {
        "club_badge_src": null,
        "entry": 6451684,
        "entry_name": "Black Horse",
        "event_total": 54,
        "has_played": true,
        "id": 51377203,
        "last_rank": 34900,
        "player_name": "Bayu Irianto",
        "rank": 43525,
        "rank_sort": 43525,
        "total": 2357
      },
      {
        "club_badge_src": null,
        "entry": 2826775,
        "entry_name": "Jackson`s Fifteen",
        "event_total": 45,
        "has_played": true,
        "id": 20653683,
        "last_rank": 29466,
        "player_name": "Scott Jackson",
        "rank": 43526,
        "rank_sort": 43526,
        "total": 2356
      },
      {
        "club_badge_src": null,
        "entry": 5329111,
        "entry_name": "Rainders",
        "event_total": 56,
        "has_played": true,
        "id": 41313370,
        "last_rank": 42373,
        "player_name": "Timothy Ediu",
        "rank": 43527,
        "rank_sort": 43527,
        "total": 2356
      },
      {
        "club_badge_src": null,
        "entry": 5701707,
        "entry_name": "wandererbarelyknowhe",
        "event_total": 46,
        "has_played": true,
        "id": 44642367,
        "last_rank": 30475,
        "player_name": "Alex Oxner",
        "rank": 43527,
        "rank_sort": 43528,
        "total": 2356
      },
      {
        "club_badge_src": null,
        "entry": 1587859,
        "entry_name": "FC Spicerlona",
        "event_total": 61,
        "has_played": true,
        "id": 11100969,
        "last_rank": 49525,
        "player_name": "Mike Spicer",
        "rank": 43529,
        "rank_sort": 43529,
        "total": 2356
      },
      {
        "club_badge_src": "https://fantasy.premierleague.com/gcs/plfpl-production-adobe-approved/plfpl-production/7153309/0c7f7ce0-9a70-4160-ba36-2837761d1971.png",
        "entry": 7153309,
        "entry_name": "Change Name",
        "event_total": 67,
        "has_played": true,
        "id": 57686618,
        "last_rank": 59451,
        "player_name": "Mikolaj Grzechowiak",
        "rank": 43529,
        "rank_sort": 43530,
        "total": 2356
      },
      {
        "club_badge_src": null,
        "entry": 8895510,
        "entry_name": "Hawkins1977",
        "event_total": 62,
        "has_played": true,
        "id": 74465202,
        "last_rank": 51078,
        "player_name": "Simon Hawkins",
        "rank": 43529,
        "rank_sort": 43531,
        "total": 2356
      },
      {
        "club_badge_src": null,
        "entry": 2772470,
        "entry_name": "Heshy FC",
        "event_total": 58,
        "has_played": true,
        "id": 20229520,
        "last_rank": 45112,
        "player_name": "Heshaam Sahib",
        "rank": 43532,
        "rank_sort": 43532,
        "total": 2356
      },
      {
        "club_badge_src": null,
        "entry": 632837,
        "entry_name": "Pickering's Plonkers",
        "event_total": 43,
        "has_played": true,
        "id": 4276138,
        "last_rank": 27549,
        "player_name": "Nigel Pickering",
        "rank": 43533,
        "rank_sort": 43533,
        "total": 2356
      },
      {
        "club_badge_src": null,
        "entry": 2569351,
        "entry_name": "SilenceOfTheLamps",
        "event_total": 76,
        "has_played": true,
        "id": 18434124,
        "last_rank": 76866,
        "player_name": "Jake Webster",
        "rank": 43533,
        "rank_sort": 43534,
        "total": 2356
      },
      {
        "club_badge_src": null,
        "entry": 4570554,
        "entry_name": "Gavalalas",
        "event_total": 62,
        "has_played": true,
        "id": 34880885,
        "last_rank": 51095,
        "player_name": "Gavin Davies",
        "rank": 43533,
        "rank_sort": 43535,
        "total": 2356
      },
      {
        "club_badge_src": null,
        "entry": 155253,
        "entry_name": "Can't park there S\u00e1",
        "event_total": 65,
        "has_played": true,
        "id": 1020259,
        "last_rank": 56047,
        "player_name": "Ben Lister",
        "rank": 43536,
        "rank_sort": 43536,
        "total": 2356
      },
      {
        "club_badge_src": null,
        "entry": 1898194,
        "entry_name": "A Shawfull injury",
        "event_total": 49,
        "has_played": true,
        "id": 13380229,
        "last_rank": 33819,
        "player_name": "Chris Hartnett",
        "rank": 43536,
        "rank_sort": 43537,
        "total": 2356
      },
      {
        "club_badge_src": null,
        "entry": 3312661,
        "entry_name": "Aspiring for 8th",
        "event_total": 46,
        "has_played": true,
        "id": 24543782,
        "last_rank": 30486,
        "player_name": "Ian Hepples",
        "rank": 43536,
        "rank_sort": 43538,
        "total": 2356
      },
      {
        "club_badge_src": null,
        "entry": 3374385,
        "entry_name": "PatoFC",
        "event_total": 55,
        "has_played": true,
        "id": 25045358,
        "last_rank": 41060,
        "player_name": "Rodrigo Pato",
        "rank": 43536,
        "rank_sort": 43539,
        "total": 2356
      },
      {
        "club_badge_src": null,
        "entry": 4039214,
        "entry_name": "\u261d\ufe0f\u267e\ufe0f\u0645\u062a\u0635\u062f\u0631",
        "event_total": 51,
        "has_played": true,
        "id": 30459720,
        "last_rank": 36099,
        "player_name": "Y Elgaml",
        "rank": 43536,
        "rank_sort": 43540,
        "total": 2356
      },
      {
        "club_badge_src": null,
        "entry": 191898,
        "entry_name": "Frimpong ping pong",
        "event_total": 54,
        "has_played": true,
        "id": 1271233,
        "last_rank": 39762,
        "player_name": "Dan Lydon",
        "rank": 43541,
        "rank_sort": 43541,
        "total": 2356
      },
      {
        "club_badge_src": null,
        "entry": 236289,
        "entry_name": "Back 3 Back",
        "event_total": 49,
        "has_played": true,
        "id": 1572188,
        "last_rank": 33845,
        "player_name": "Alex Miles",
        "rank": 43541,
        "rank_sort": 43542,
        "total": 2356
      },
      {
        "club_badge_src": "https://fantasy.premierleague.com/gcs/plfpl-production-adobe-approved/plfpl-production/422725/9ecb8691-db77-4170-8cfe-cb627726950c.png",
        "entry": 422725,
        "entry_name": "FC Friemelpong",
        "event_total": 51,
        "has_played": true,
        "id": 2832826,
        "last_rank": 36110,
        "player_name": "Quinten Laenen",
        "rank": 43541,
        "rank_sort": 43543,
        "total": 2356
      },
      {
        "club_badge_src": null,
        "entry": 859708,
        "entry_name": "Gooners Athletic",
        "event_total": 66,
        "has_played": true,
        "id": 5893332,
        "last_rank": 57743,
        "player_name": "Murray Francis",
        "rank": 43541,
        "rank_sort": 43544,
        "total": 2356
      },
      {
        "club_badge_src": null,
        "entry": 942595,
        "entry_name": "godkay",
        "event_total": 58,
        "has_played": true,
        "id": 6491676,
        "last_rank": 45144,
        "player_name": "Surachai K",
        "rank": 43541,
        "rank_sort": 43545,
        "total": 2356
      },
      {
        "club_badge_src": null,
        "entry": 955005,
        "entry_name": "AutoEncoders FC",
        "event_total": 69,
        "has_played": true,
        "id": 6580063,
        "last_rank": 63051,
        "player_name": "Joao Coroa",
        "rank": 43541,
        "rank_sort": 43546,
        "total": 2356
      },
      {
        "club_badge_src": null,
        "entry": 1583166,
        "entry_name": "Rutter Woke Nonsense",
        "event_total": 27,
        "has_played": true,
        "id": 11064282,
        "last_rank": 15396,
        "player_name": "Matt Fowkes",
        "rank": 43541,
        "rank_sort": 43547,
        "total": 2356
      },
      {
        "club_badge_src": null,
        "entry": 2523912,
        "entry_name": "Madln Milan",
        "event_total": 49,
        "has_played": true,
        "id": 18084969,
        "last_rank": 33845,
        "player_name": "Michael Craig",
        "rank": 43541,
        "rank_sort": 43548,
        "total": 2356
      },
      {
        "club_badge_src": null,
        "entry": 3160778,
        "entry_name": "Sutton City",
        "event_total": 54,
        "has_played": true,
        "id": 23349114,
        "last_rank": 39784,
        "player_name": "James Sutton",
        "rank": 43541,
        "rank_sort": 43549,
        "total": 2356
      },
      {
        "club_badge_src": null,
        "entry": 3723114,
        "entry_name": "lacathreat",
        "event_total": 41,
        "has_played": true,
        "id": 27785606,
        "last_rank": 25709,
        "player_name": "Nathaniel Seiffert",
        "rank": 43541,
        "rank_sort": 43550,
        "total": 2356
      }
    ]
  }
}