{
  "last_updated_data": "2026-05-24T23:28:17Z",
  "league": {
    "admin_entry": null,
    "closed": false,
    "code_privacy": "p",
    "created": "2025-07-20T23:14:33.933835Z",
    "cup_league": 2815434,
    "has_cup": true,
    "id": 314,
    "league_type": "s",
    "max_entries": null,
    "name": "Overall",
    "rank": null,
    "scoring": "c",
    "start_event": 1
  },
  "new_entries": {
    "has_next": false,
    "page": 1,
    "results": []
  },
  "standings": {
    "has_next": true,
    "page": 133,
    "results": [
      {
        "club_badge_src": null,
        "entry": 2821587,
        "entry_name": "lads on toure",
        "event_total": 61,
        "has_played": true,
        "id": 20613934,
        "last_rank": 7333,
        "player_name": "Jack Smith",
        "rank": 6595,
        "rank_sort": 6601,
        "total": 2408
      },
      {
        "club_badge_src": "https://fantasy.premierleague.com/gcs/plfpl-production-adobe-approved/plfpl-production/3902477/7b93426d-4e24-4c6f-a5dd-9497aba11ef5.png",
        "entry": 3902477,
        "entry_name": "Old Havertz Kai Hard",
        "event_total": 60,
        "has_played": true,
        "id": 29336779,
        "last_rank": 7014,
        "player_name": "Sean Conway",
        "rank": 6595,
        "rank_sort": 6602,
        "total": 2408
      },
      {
        "club_badge_src": "https://fantasy.premierleague.com/gcs/plfpl-production-adobe-approved/plfpl-production/4648155/595f0df7-4f92-4f1c-b8f6-10b571439d76.png",
        "entry": 4648155,
        "entry_name": "Jumas for Goalposts",
        "event_total": 63,
        "has_played": true,
        "id": 35559683,
        "last_rank": 7949,
        "player_name": "Mehdihassan Juma",
        "rank": 6595,
        "rank_sort": 6603,
        "total": 2408
      },
      {
        "club_badge_src": null,
        "entry": 8460476,
        "entry_name": "Amorim FC",
        "event_total": 38,
        "has_played": true,
        "id": 70253817,
        "last_rank": 2526,
        "player_name": "Ian Purcell",
        "rank": 6595,
        "rank_sort": 6604,
        "total": 2408
      },
      {
        "club_badge_src": null,
        "entry": 9121187,
        "entry_name": "alishekla",
        "event_total": 72,
        "has_played": true,
        "id": 76659253,
        "last_rank": 11591,
        "player_name": "Shekla Shekla",
        "rank": 6595,
        "rank_sort": 6605,
        "total": 2408
      },
      {
        "club_badge_src": "https://fantasy.premierleague.com/gcs/plfpl-production-adobe-approved/plfpl-production/58753/e481179d-2fea-407b-b1eb-b317fc5f21ef.png",
        "entry": 58753,
        "entry_name": "Stretford End FC",
        "event_total": 62,
        "has_played": true,
        "id": 378411,
        "last_rank": 7592,
        "player_name": "Chris Rice",
        "rank": 6606,
        "rank_sort": 6606,
        "total": 2408
      },
      {
        "club_badge_src": null,
        "entry": 282881,
        "entry_name": "Ipswich Town FC",
        "event_total": 57,
        "has_played": true,
        "id": 1883058,
        "last_rank": 6154,
        "player_name": "Austin DeLaHunt",
        "rank": 6606,
        "rank_sort": 6607,
        "total": 2408
      },
      {
        "club_badge_src": null,
        "entry": 333069,
        "entry_name": "Goofs and Gaffers",
        "event_total": 73,
        "has_played": true,
        "id": 2230724,
        "last_rank": 12141,
        "player_name": "Harvey Anderson",
        "rank": 6606,
        "rank_sort": 6608,
        "total": 2408
      },
      {
        "club_badge_src": null,
        "entry": 660718,
        "entry_name": "hacunha mateta",
        "event_total": 51,
        "has_played": true,
        "id": 4465457,
        "last_rank": 4742,
        "player_name": "Josh Murdock",
        "rank": 6606,
        "rank_sort": 6609,
        "total": 2408
      },
      {
        "club_badge_src": null,
        "entry": 821372,
        "entry_name": "Joe's Garage FC",
        "event_total": 62,
        "has_played": true,
        "id": 5625352,
        "last_rank": 7625,
        "player_name": "James Allton",
        "rank": 6606,
        "rank_sort": 6610,
        "total": 2408
      },
      {
        "club_badge_src": null,
        "entry": 903959,
        "entry_name": "Working Mons Club",
        "event_total": 64,
        "has_played": true,
        "id": 6211442,
        "last_rank": 8320,
        "player_name": "Joel Danks",
        "rank": 6606,
        "rank_sort": 6611,
        "total": 2408
      },
      {
        "club_badge_src": null,
        "entry": 1011210,
        "entry_name": "crouch potato",
        "event_total": 51,
        "has_played": true,
        "id": 6994294,
        "last_rank": 4704,
        "player_name": "Archie Morpeth",
        "rank": 6606,
        "rank_sort": 6612,
        "total": 2408
      },
      {
        "club_badge_src": null,
        "entry": 1902547,
        "entry_name": "Who's goin bEnzos?",
        "event_total": 71,
        "has_played": true,
        "id": 13411947,
        "last_rank": 11175,
        "player_name": "Steven Kenny",
        "rank": 6606,
        "rank_sort": 6613,
        "total": 2408
      },
      {
        "club_badge_src": null,
        "entry": 2681812,
        "entry_name": "Chicken Caesar Salah",
        "event_total": 60,
        "has_played": true,
        "id": 19287976,
        "last_rank": 7014,
        "player_name": "Dan Wilson",
        "rank": 6606,
        "rank_sort": 6614,
        "total": 2408
      },
      {
        "club_badge_src": null,
        "entry": 4451771,
        "entry_name": "Pushpa Gang",
        "event_total": 63,
        "has_played": true,
        "id": 33908125,
        "last_rank": 7959,
        "player_name": "Sam Eze",
        "rank": 6606,
        "rank_sort": 6615,
        "total": 2408
      },
      {
        "club_badge_src": null,
        "entry": 6314456,
        "entry_name": "FC L\u00e4rv\u00e4n kytin\u00e4",
        "event_total": 45,
        "has_played": true,
        "id": 50107285,
        "last_rank": 3528,
        "player_name": "Kim Saari",
        "rank": 6606,
        "rank_sort": 6616,
        "total": 2408
      },
      {
        "club_badge_src": null,
        "entry": 7300335,
        "entry_name": "FC L\u00e5ngboll",
        "event_total": 48,
        "has_played": true,
        "id": 59079661,
        "last_rank": 4099,
        "player_name": "Adam Falk",
        "rank": 6606,
        "rank_sort": 6617,
        "total": 2408
      },
      {
        "club_badge_src": null,
        "entry": 8076116,
        "entry_name": "Brunnings",
        "event_total": 71,
        "has_played": true,
        "id": 66578533,
        "last_rank": 11142,
        "player_name": "Brandon Runnings",
        "rank": 6606,
        "rank_sort": 6618,
        "total": 2408
      },
      {
        "club_badge_src": null,
        "entry": 8354183,
        "entry_name": "DenhamSquad",
        "event_total": 55,
        "has_played": true,
        "id": 69241884,
        "last_rank": 5632,
        "player_name": "BWT QA Legend",
        "rank": 6606,
        "rank_sort": 6619,
        "total": 2408
      },
      {
        "club_badge_src": "https://fantasy.premierleague.com/gcs/plfpl-production-adobe-approved/plfpl-production/1022/463719c4-3412-4ab0-9863-581b839409da.png",
        "entry": 1022,
        "entry_name": "Deselectors United",
        "event_total": 67,
        "has_played": true,
        "id": 5666,
        "last_rank": 9484,
        "player_name": "Daniel Scaddan",
        "rank": 6620,
        "rank_sort": 6620,
        "total": 2408
      },
      {
        "club_badge_src": null,
        "entry": 2726,
        "entry_name": "Spikes Bridge United",
        "event_total": 58,
        "has_played": true,
        "id": 15288,
        "last_rank": 6392,
        "player_name": "Manjit Virdee",
        "rank": 6620,
        "rank_sort": 6621,
        "total": 2408
      },
      {
        "club_badge_src": null,
        "entry": 3915,
        "entry_name": "Macaldo",
        "event_total": 71,
        "has_played": true,
        "id": 22200,
        "last_rank": 11175,
        "player_name": "Marcus Irestam",
        "rank": 6620,
        "rank_sort": 6622,
        "total": 2408
      },
      {
        "club_badge_src": "https://fantasy.premierleague.com/gcs/plfpl-production-adobe-approved/plfpl-production/5352/509414b9-da85-400b-92d7-c6a973b629ae.png",
        "entry": 5352,
        "entry_name": "Red Reibbon Army",
        "event_total": 71,
        "has_played": true,
        "id": 30506,
        "last_rank": 11175,
        "player_name": "Christian Larisch",
        "rank": 6620,
        "rank_sort": 6623,
        "total": 2408
      },
      {
        "club_badge_src": null,
        "entry": 6412,
        "entry_name": "JohnsonAgainOleOle",
        "event_total": 56,
        "has_played": true,
        "id": 36784,
        "last_rank": 5904,
        "player_name": "Matthew Bland",
        "rank": 6620,
        "rank_sort": 6624,
        "total": 2408
      },
      {
        "club_badge_src": null,
        "entry": 7122,
        "entry_name": "Kinder Mbeumo",
        "event_total": 49,
        "has_played": true,
        "id": 41022,
        "last_rank": 4303,
        "player_name": "Francisco Boavida",
        "rank": 6620,
        "rank_sort": 6625,
        "total": 2408
      },
      {
        "club_badge_src": null,
        "entry": 10494,
        "entry_name": "CHR_Swirtz",
        "event_total": 57,
        "has_played": true,
        "id": 62082,
        "last_rank": 6166,
        "player_name": "Hi\u1ebfu D\u01b0\u01a1ng",
        "rank": 6620,
        "rank_sort": 6626,
        "total": 2408
      },
      {
        "club_badge_src": null,
        "entry": 14860,
        "entry_name": "Sheffield Thursday",
        "event_total": 88,
        "has_played": true,
        "id": 90673,
        "last_rank": 21628,
        "player_name": "Sahil Rampersad",
        "rank": 6620,
        "rank_sort": 6627,
        "total": 2408
      },
      {
        "club_badge_src": "https://fantasy.premierleague.com/gcs/plfpl-production-adobe-approved/plfpl-production/72130/efd21542-2752-476b-b4d8-1d1c96c21aeb.png",
        "entry": 72130,
        "entry_name": "Net6andChill",
        "event_total": 70,
        "has_played": true,
        "id": 468654,
        "last_rank": 10748,
        "player_name": "Narcis Voicu",
        "rank": 6620,
        "rank_sort": 6628,
        "total": 2408
      },
      {
        "club_badge_src": null,
        "entry": 101679,
        "entry_name": "Poohrash FC",
        "event_total": 64,
        "has_played": true,
        "id": 663431,
        "last_rank": 8339,
        "player_name": "Nick P",
        "rank": 6620,
        "rank_sort": 6629,
        "total": 2408
      },
      {
        "club_badge_src": "https://fantasy.premierleague.com/gcs/plfpl-production-adobe-approved/plfpl-production/279760/e92a0d82-95f6-480c-8b87-51d6bd174bdd.png",
        "entry": 279760,
        "entry_name": "The Mighty Reds**",
        "event_total": 65,
        "has_played": true,
        "id": 1861976,
        "last_rank": 8758,
        "player_name": "Lukas Odermatt",
        "rank": 6620,
        "rank_sort": 6630,
        "total": 2408
      },
      {
        "club_badge_src": null,
        "entry": 337705,
        "entry_name": "Hakuna Mateta",
        "event_total": 47,
        "has_played": true,
        "id": 2260832,
        "last_rank": 3853,
        "player_name": "Freddie Godfrey",
        "rank": 6620,
        "rank_sort": 6631,
        "total": 2408
      },
      {
        "club_badge_src": null,
        "entry": 340960,
        "entry_name": "Station 11",
        "event_total": 66,
        "has_played": true,
        "id": 2282288,
        "last_rank": 9089,
        "player_name": "Jann Ton",
        "rank": 6620,
        "rank_sort": 6632,
        "total": 2408
      },
      {
        "club_badge_src": null,
        "entry": 352877,
        "entry_name": "Doner in Naan",
        "event_total": 60,
        "has_played": true,
        "id": 2361765,
        "last_rank": 7000,
        "player_name": "Matthew Bond",
        "rank": 6620,
        "rank_sort": 6633,
        "total": 2408
      },
      {
        "club_badge_src": null,
        "entry": 355903,
        "entry_name": "it can",
        "event_total": 78,
        "has_played": true,
        "id": 2381768,
        "last_rank": 14857,
        "player_name": "Andrew Spink",
        "rank": 6620,
        "rank_sort": 6634,
        "total": 2408
      },
      {
        "club_badge_src": null,
        "entry": 405775,
        "entry_name": "Couldn't Get Wirtz",
        "event_total": 68,
        "has_played": true,
        "id": 2720614,
        "last_rank": 9942,
        "player_name": "Stu Chan",
        "rank": 6620,
        "rank_sort": 6635,
        "total": 2408
      },
      {
        "club_badge_src": null,
        "entry": 469992,
        "entry_name": "Lord Farkesquad",
        "event_total": 68,
        "has_played": true,
        "id": 3154844,
        "last_rank": 9942,
        "player_name": "Joe Roberts",
        "rank": 6620,
        "rank_sort": 6636,
        "total": 2408
      },
      {
        "club_badge_src": null,
        "entry": 538067,
        "entry_name": "Mannschaft Hiskett",
        "event_total": 74,
        "has_played": true,
        "id": 3622009,
        "last_rank": 12608,
        "player_name": "Craig Hiskett",
        "rank": 6620,
        "rank_sort": 6637,
        "total": 2408
      },
      {
        "club_badge_src": null,
        "entry": 544740,
        "entry_name": "Sky Blues",
        "event_total": 47,
        "has_played": true,
        "id": 3666118,
        "last_rank": 3853,
        "player_name": "Markus Andersson",
        "rank": 6620,
        "rank_sort": 6638,
        "total": 2408
      },
      {
        "club_badge_src": "https://fantasy.premierleague.com/gcs/plfpl-production-adobe-approved/plfpl-production/687369/d8af3150-8c2c-43f1-aeb9-f6ff09a8a13a.png",
        "entry": 687369,
        "entry_name": "Cillian Spree FC",
        "event_total": 73,
        "has_played": true,
        "id": 4653433,
        "last_rank": 12141,
        "player_name": "Cillian Keane",
        "rank": 6620,
        "rank_sort": 6639,
        "total": 2408
      },
      {
        "club_badge_src": null,
        "entry": 745256,
        "entry_name": "Tomos M\u00fcllered",
        "event_total": 62,
        "has_played": true,
        "id": 5069698,
        "last_rank": 7676,
        "player_name": "Tomos Ashfield",
        "rank": 6620,
        "rank_sort": 6640,
        "total": 2408
      },
      {
        "club_badge_src": "https://fantasy.premierleague.com/gcs/plfpl-production-adobe-approved/plfpl-production/801118/44722fda-c04b-441f-8d20-b69e93ce3812.png",
        "entry": 801118,
        "entry_name": "Chicken Inn",
        "event_total": 72,
        "has_played": true,
        "id": 5483779,
        "last_rank": 11608,
        "player_name": "Sigve R\u00f8rstad",
        "rank": 6620,
        "rank_sort": 6641,
        "total": 2408
      },
      {
        "club_badge_src": "https://fantasy.premierleague.com/gcs/plfpl-production-adobe-approved/plfpl-production/872299/b7a7b8fd-ba41-47cd-b068-4d4b2ab1c62e.png",
        "entry": 872299,
        "entry_name": "Askam Villa",
        "event_total": 80,
        "has_played": true,
        "id": 5980322,
        "last_rank": 16163,
        "player_name": "George Askam",
        "rank": 6620,
        "rank_sort": 6642,
        "total": 2408
      },
      {
        "club_badge_src": null,
        "entry": 894275,
        "entry_name": "Le Saux solid crew",
        "event_total": 59,
        "has_played": true,
        "id": 6143023,
        "last_rank": 6752,
        "player_name": "Mitchell Leonard",
        "rank": 6620,
        "rank_sort": 6643,
        "total": 2408
      },
      {
        "club_badge_src": "https://fantasy.premierleague.com/gcs/plfpl-production-adobe-approved/plfpl-production/910017/2a220d18-8317-45d1-861d-896c7845b947.png",
        "entry": 910017,
        "entry_name": "xBib",
        "event_total": 63,
        "has_played": true,
        "id": 6256241,
        "last_rank": 8032,
        "player_name": "Karin Fujiyoshi",
        "rank": 6620,
        "rank_sort": 6644,
        "total": 2408
      },
      {
        "club_badge_src": null,
        "entry": 940169,
        "entry_name": "keeno",
        "event_total": 57,
        "has_played": true,
        "id": 6470963,
        "last_rank": 6194,
        "player_name": "Paul Keenan",
        "rank": 6620,
        "rank_sort": 6645,
        "total": 2408
      },
      {
        "club_badge_src": "https://fantasy.premierleague.com/gcs/plfpl-production-adobe-approved/plfpl-production/1000002/afa9bd41-fa7c-4e23-821f-c360b4e7af32.png",
        "entry": 1000002,
        "entry_name": "JC Milan",
        "event_total": 48,
        "has_played": true,
        "id": 6912466,
        "last_rank": 4062,
        "player_name": "Jonny Currie",
        "rank": 6620,
        "rank_sort": 6646,
        "total": 2408
      },
      {
        "club_badge_src": null,
        "entry": 1060619,
        "entry_name": "Amadness",
        "event_total": 67,
        "has_played": true,
        "id": 7341238,
        "last_rank": 9459,
        "player_name": "Kim Andr\u00e9 Tangen",
        "rank": 6620,
        "rank_sort": 6647,
        "total": 2408
      },
      {
        "club_badge_src": null,
        "entry": 1253687,
        "entry_name": "Yerdas Selzavon",
        "event_total": 71,
        "has_played": true,
        "id": 8707409,
        "last_rank": 11237,
        "player_name": "Calum Davies",
        "rank": 6620,
        "rank_sort": 6648,
        "total": 2408
      },
      {
        "club_badge_src": null,
        "entry": 1419522,
        "entry_name": "Ryanaldo FC",
        "event_total": 67,
        "has_played": true,
        "id": 9884024,
        "last_rank": 9459,
        "player_name": "Ryan Goodwin",
        "rank": 6620,
        "rank_sort": 6649,
        "total": 2408
      },
      {
        "club_badge_src": null,
        "entry": 1551412,
        "entry_name": "Rogerthatboss",
        "event_total": 45,
        "has_played": true,
        "id": 10831965,
        "last_rank": 3562,
        "player_name": "Phil Dickens",
        "rank": 6620,
        "rank_sort": 6650,
        "total": 2408
      }
    ]
  }
}