{
  "last_updated_data": "2026-05-24T23:28:17Z",
  "league": {
    "admin_entry": null,
    "closed": false,
    "code_privacy": "p",
    "created": "2025-07-20T23:14:33.933835Z",
    "cup_league": 2815434,
    "has_cup": true,
    "id": 314,
    "league_type": "s",
    "max_entries": null,
    "name": "Overall",
    "rank": null,
    "scoring": "c",
    "start_event": 1
  },
  "new_entries": {
    "has_next": false,
    "page": 1,
    "results": []
  },
  "standings": {
    "has_next": true,
    "page": 174,
    "results": [
      {
        "club_badge_src": null,
        "entry": 498149,
        "entry_name": "Fortuna",
        "event_total": 61,
        "has_played": true,
        "id": 3343490,
        "last_rank": 9711,
        "player_name": "Jovan Stipic",
        "rank": 8634,
        "rank_sort": 8651,
        "total": 2402
      },
      {
        "club_badge_src": null,
        "entry": 502087,
        "entry_name": "Olili",
        "event_total": 64,
        "has_played": true,
        "id": 3369969,
        "last_rank": 10992,
        "player_name": "Bebo \u2728",
        "rank": 8634,
        "rank_sort": 8652,
        "total": 2402
      },
      {
        "club_badge_src": null,
        "entry": 546854,
        "entry_name": "Admin Athletic",
        "event_total": 65,
        "has_played": true,
        "id": 3680279,
        "last_rank": 9644,
        "player_name": "Andrew Parker",
        "rank": 8634,
        "rank_sort": 8653,
        "total": 2402
      },
      {
        "club_badge_src": null,
        "entry": 576686,
        "entry_name": "Busted Flush",
        "event_total": 66,
        "has_played": true,
        "id": 3880545,
        "last_rank": 11901,
        "player_name": "Phillip Houston",
        "rank": 8634,
        "rank_sort": 8654,
        "total": 2402
      },
      {
        "club_badge_src": null,
        "entry": 693040,
        "entry_name": "HaCunha Matata",
        "event_total": 73,
        "has_played": true,
        "id": 4693615,
        "last_rank": 13257,
        "player_name": "Saima Akhtar",
        "rank": 8634,
        "rank_sort": 8655,
        "total": 2402
      },
      {
        "club_badge_src": null,
        "entry": 693496,
        "entry_name": "765OldBoys",
        "event_total": 59,
        "has_played": true,
        "id": 4696728,
        "last_rank": 8758,
        "player_name": "Axel Kristiansen",
        "rank": 8634,
        "rank_sort": 8656,
        "total": 2402
      },
      {
        "club_badge_src": null,
        "entry": 751602,
        "entry_name": "hibbosses",
        "event_total": 40,
        "has_played": true,
        "id": 5114311,
        "last_rank": 3813,
        "player_name": "Sahib Quader",
        "rank": 8634,
        "rank_sort": 8657,
        "total": 2402
      },
      {
        "club_badge_src": null,
        "entry": 829125,
        "entry_name": "Air Force",
        "event_total": 74,
        "has_played": true,
        "id": 5678994,
        "last_rank": 16441,
        "player_name": "\u0645\u0631\u062a\u0636\u0649 \u0627\u0644\u0643\u0639\u0628\u064a",
        "rank": 8634,
        "rank_sort": 8658,
        "total": 2402
      },
      {
        "club_badge_src": null,
        "entry": 1009871,
        "entry_name": "zirkSZN",
        "event_total": 46,
        "has_played": true,
        "id": 6982972,
        "last_rank": 5053,
        "player_name": "Jonathan Mainds",
        "rank": 8634,
        "rank_sort": 8659,
        "total": 2402
      },
      {
        "club_badge_src": null,
        "entry": 1048904,
        "entry_name": "Segar's Squad",
        "event_total": 71,
        "has_played": true,
        "id": 7259002,
        "last_rank": 14370,
        "player_name": "Yogi Segar",
        "rank": 8634,
        "rank_sort": 8660,
        "total": 2402
      },
      {
        "club_badge_src": null,
        "entry": 1364138,
        "entry_name": "kinderbuemo",
        "event_total": 59,
        "has_played": true,
        "id": 9483202,
        "last_rank": 7450,
        "player_name": "Ho Seng Lee",
        "rank": 8634,
        "rank_sort": 8661,
        "total": 2402
      },
      {
        "club_badge_src": "https://fantasy.premierleague.com/gcs/plfpl-production-adobe-approved/plfpl-production/1412200/4a65bbd7-519f-4209-84ca-621b42bfafac.png",
        "entry": 1412200,
        "entry_name": "xmamurii",
        "event_total": 80,
        "has_played": true,
        "id": 9827621,
        "last_rank": 20624,
        "player_name": "Amar Abdulkerim",
        "rank": 8634,
        "rank_sort": 8662,
        "total": 2402
      },
      {
        "club_badge_src": null,
        "entry": 1413994,
        "entry_name": "MADEIRA F.C.",
        "event_total": 63,
        "has_played": true,
        "id": 9840233,
        "last_rank": 10462,
        "player_name": "Miguel Gon\u00e7alves",
        "rank": 8634,
        "rank_sort": 8663,
        "total": 2402
      },
      {
        "club_badge_src": null,
        "entry": 1555427,
        "entry_name": "Pippos Team",
        "event_total": 57,
        "has_played": true,
        "id": 10860645,
        "last_rank": 8198,
        "player_name": "Philipp W\u00fcrl",
        "rank": 8634,
        "rank_sort": 8664,
        "total": 2402
      },
      {
        "club_badge_src": null,
        "entry": 2006862,
        "entry_name": "Cunha Matata",
        "event_total": 59,
        "has_played": true,
        "id": 14189177,
        "last_rank": 8925,
        "player_name": "Tobias Hovda Bergersen",
        "rank": 8634,
        "rank_sort": 8665,
        "total": 2402
      },
      {
        "club_badge_src": "https://fantasy.premierleague.com/gcs/plfpl-production-adobe-approved/plfpl-production/2057361/e01a935c-c568-439c-a95c-4ba84b29ec38.png",
        "entry": 2057361,
        "entry_name": "H\u00f8ylunds korstog",
        "event_total": 49,
        "has_played": true,
        "id": 14574843,
        "last_rank": 5792,
        "player_name": "Erlend Hallan",
        "rank": 8634,
        "rank_sort": 8666,
        "total": 2402
      },
      {
        "club_badge_src": null,
        "entry": 2130267,
        "entry_name": "Agbadou dou dou",
        "event_total": 50,
        "has_played": true,
        "id": 15137725,
        "last_rank": 5011,
        "player_name": "Henry James",
        "rank": 8634,
        "rank_sort": 8667,
        "total": 2402
      },
      {
        "club_badge_src": null,
        "entry": 2513240,
        "entry_name": "Saka Spuds",
        "event_total": 64,
        "has_played": true,
        "id": 18005346,
        "last_rank": 9248,
        "player_name": "Jordan Williams",
        "rank": 8634,
        "rank_sort": 8668,
        "total": 2402
      },
      {
        "club_badge_src": null,
        "entry": 2836299,
        "entry_name": "Rutter Woke Nonsense",
        "event_total": 43,
        "has_played": true,
        "id": 20727729,
        "last_rank": 4394,
        "player_name": "Jed Marshall",
        "rank": 8634,
        "rank_sort": 8669,
        "total": 2402
      },
      {
        "club_badge_src": null,
        "entry": 3174874,
        "entry_name": "FC Aint No Sunsine",
        "event_total": 73,
        "has_played": true,
        "id": 23458888,
        "last_rank": 15694,
        "player_name": "Kariem Badawi",
        "rank": 8634,
        "rank_sort": 8670,
        "total": 2402
      },
      {
        "club_badge_src": "https://fantasy.premierleague.com/gcs/plfpl-production-adobe-approved/plfpl-production/3421932/074f8f3e-89c6-4d78-9aee-cefc5f140dd3.png",
        "entry": 3421932,
        "entry_name": "Andyspurs X1",
        "event_total": 63,
        "has_played": true,
        "id": 25418425,
        "last_rank": 10462,
        "player_name": "Andy Smith",
        "rank": 8634,
        "rank_sort": 8671,
        "total": 2402
      },
      {
        "club_badge_src": null,
        "entry": 3893865,
        "entry_name": "Clube do Povo 1927",
        "event_total": 56,
        "has_played": true,
        "id": 29264005,
        "last_rank": 7822,
        "player_name": "Waleed Jawass",
        "rank": 8634,
        "rank_sort": 8672,
        "total": 2402
      },
      {
        "club_badge_src": "https://fantasy.premierleague.com/gcs/plfpl-production-adobe-approved/plfpl-production/4040022/1cc45ee4-faef-418f-9e4e-8162bac67d91.png",
        "entry": 4040022,
        "entry_name": "Seskonomics",
        "event_total": 62,
        "has_played": true,
        "id": 30466512,
        "last_rank": 8484,
        "player_name": "Adam Davies",
        "rank": 8634,
        "rank_sort": 8673,
        "total": 2402
      },
      {
        "club_badge_src": null,
        "entry": 4358857,
        "entry_name": "A1",
        "event_total": 61,
        "has_played": true,
        "id": 33104672,
        "last_rank": 9644,
        "player_name": "Alice Chao",
        "rank": 8634,
        "rank_sort": 8674,
        "total": 2402
      },
      {
        "club_badge_src": null,
        "entry": 4981828,
        "entry_name": "Hooligans",
        "event_total": 64,
        "has_played": true,
        "id": 38456316,
        "last_rank": 10805,
        "player_name": "Muzammil Roslan",
        "rank": 8634,
        "rank_sort": 8675,
        "total": 2402
      },
      {
        "club_badge_src": null,
        "entry": 5254854,
        "entry_name": "Morley's Mighty",
        "event_total": 73,
        "has_played": true,
        "id": 40727114,
        "last_rank": 15694,
        "player_name": "Joe Morley",
        "rank": 8634,
        "rank_sort": 8676,
        "total": 2402
      },
      {
        "club_badge_src": null,
        "entry": 5407689,
        "entry_name": "Liverpool FC",
        "event_total": 42,
        "has_played": true,
        "id": 42050333,
        "last_rank": 4186,
        "player_name": "kamal pratap",
        "rank": 8634,
        "rank_sort": 8677,
        "total": 2402
      },
      {
        "club_badge_src": null,
        "entry": 5676186,
        "entry_name": "Baba Yaga",
        "event_total": 64,
        "has_played": true,
        "id": 44422027,
        "last_rank": 9248,
        "player_name": "Ahmad Wali",
        "rank": 8634,
        "rank_sort": 8678,
        "total": 2402
      },
      {
        "club_badge_src": null,
        "entry": 6205479,
        "entry_name": "VENN XI",
        "event_total": 68,
        "has_played": true,
        "id": 49092668,
        "last_rank": 12705,
        "player_name": "Kelton Stringer",
        "rank": 8634,
        "rank_sort": 8679,
        "total": 2402
      },
      {
        "club_badge_src": null,
        "entry": 7066385,
        "entry_name": "Chippy chips",
        "event_total": 65,
        "has_played": true,
        "id": 56855225,
        "last_rank": 11345,
        "player_name": "Niklas Svendsen",
        "rank": 8634,
        "rank_sort": 8680,
        "total": 2402
      },
      {
        "club_badge_src": null,
        "entry": 7404842,
        "entry_name": "Max Kudus",
        "event_total": 59,
        "has_played": true,
        "id": 60058999,
        "last_rank": 8925,
        "player_name": "Josh Heap",
        "rank": 8634,
        "rank_sort": 8681,
        "total": 2402
      },
      {
        "club_badge_src": null,
        "entry": 8001893,
        "entry_name": "United We Score",
        "event_total": 77,
        "has_played": true,
        "id": 65901280,
        "last_rank": 15694,
        "player_name": "Ranjit Sapra",
        "rank": 8634,
        "rank_sort": 8682,
        "total": 2402
      },
      {
        "club_badge_src": null,
        "entry": 9803,
        "entry_name": "Jo\u00e3o Pedro Pascal",
        "event_total": 65,
        "has_played": true,
        "id": 57787,
        "last_rank": 9711,
        "player_name": "Chris Saunders",
        "rank": 8683,
        "rank_sort": 8683,
        "total": 2402
      },
      {
        "club_badge_src": null,
        "entry": 28383,
        "entry_name": "Salhaland",
        "event_total": 59,
        "has_played": true,
        "id": 179477,
        "last_rank": 8977,
        "player_name": "David Talbot",
        "rank": 8683,
        "rank_sort": 8684,
        "total": 2402
      },
      {
        "club_badge_src": null,
        "entry": 34683,
        "entry_name": "SBoella",
        "event_total": 58,
        "has_played": true,
        "id": 221678,
        "last_rank": 7193,
        "player_name": "Sigurd B\u00f8lla Riseng",
        "rank": 8683,
        "rank_sort": 8685,
        "total": 2402
      },
      {
        "club_badge_src": "https://fantasy.premierleague.com/gcs/plfpl-production-adobe-approved/plfpl-production/38812/2686020d-90c0-4243-8b5e-b9b615df086a.png",
        "entry": 38812,
        "entry_name": "Pistols",
        "event_total": 60,
        "has_played": true,
        "id": 248804,
        "last_rank": 9350,
        "player_name": "Mohamed Eldeeb",
        "rank": 8683,
        "rank_sort": 8686,
        "total": 2402
      },
      {
        "club_badge_src": null,
        "entry": 59198,
        "entry_name": "Akam_S_99",
        "event_total": 47,
        "has_played": true,
        "id": 381254,
        "last_rank": 5313,
        "player_name": "AKam Sallm",
        "rank": 8683,
        "rank_sort": 8687,
        "total": 2402
      },
      {
        "club_badge_src": "https://fantasy.premierleague.com/gcs/plfpl-production-adobe-approved/plfpl-production/71370/3345db2e-9497-4c54-85d0-59faddb44592.png",
        "entry": 71370,
        "entry_name": "R\u03bfsa Parks the Bus",
        "event_total": 63,
        "has_played": true,
        "id": 463551,
        "last_rank": 7450,
        "player_name": "Elias M",
        "rank": 8683,
        "rank_sort": 8688,
        "total": 2402
      },
      {
        "club_badge_src": null,
        "entry": 124154,
        "entry_name": "inazuma11",
        "event_total": 65,
        "has_played": true,
        "id": 809782,
        "last_rank": 9644,
        "player_name": "Daragh C",
        "rank": 8683,
        "rank_sort": 8689,
        "total": 2402
      },
      {
        "club_badge_src": null,
        "entry": 214156,
        "entry_name": "Fc Naser",
        "event_total": 54,
        "has_played": true,
        "id": 1424682,
        "last_rank": 6061,
        "player_name": "Habed Mohamed vall",
        "rank": 8683,
        "rank_sort": 8690,
        "total": 2402
      },
      {
        "club_badge_src": null,
        "entry": 229852,
        "entry_name": "Lil Uzi Wirtz",
        "event_total": 59,
        "has_played": true,
        "id": 1529200,
        "last_rank": 8758,
        "player_name": "Presley Prince",
        "rank": 8683,
        "rank_sort": 8691,
        "total": 2402
      },
      {
        "club_badge_src": null,
        "entry": 246020,
        "entry_name": "Zeus",
        "event_total": 59,
        "has_played": true,
        "id": 1637992,
        "last_rank": 7501,
        "player_name": "Keshav Geerdharry",
        "rank": 8683,
        "rank_sort": 8692,
        "total": 2402
      },
      {
        "club_badge_src": null,
        "entry": 249942,
        "entry_name": "Wirtz Case Scenario",
        "event_total": 74,
        "has_played": true,
        "id": 1663089,
        "last_rank": 16441,
        "player_name": "Joel Wills",
        "rank": 8683,
        "rank_sort": 8693,
        "total": 2402
      },
      {
        "club_badge_src": null,
        "entry": 323819,
        "entry_name": "rebal fcb",
        "event_total": 49,
        "has_played": true,
        "id": 2169946,
        "last_rank": 4839,
        "player_name": "Reeb Fcb",
        "rank": 8683,
        "rank_sort": 8694,
        "total": 2402
      },
      {
        "club_badge_src": "https://fantasy.premierleague.com/gcs/plfpl-production-adobe-approved/plfpl-production/398270/f75e6e9f-6e39-4c54-907b-563bc3da8fb2.png",
        "entry": 398270,
        "entry_name": "Cook Freyd Eggs Paal",
        "event_total": 66,
        "has_played": true,
        "id": 2670830,
        "last_rank": 11957,
        "player_name": "Isaac Johnson",
        "rank": 8683,
        "rank_sort": 8695,
        "total": 2402
      },
      {
        "club_badge_src": null,
        "entry": 553330,
        "entry_name": "Tanums",
        "event_total": 59,
        "has_played": true,
        "id": 3724292,
        "last_rank": 8925,
        "player_name": "Torolf Tanum",
        "rank": 8683,
        "rank_sort": 8696,
        "total": 2402
      },
      {
        "club_badge_src": null,
        "entry": 696807,
        "entry_name": "Majeckz",
        "event_total": 62,
        "has_played": true,
        "id": 4719768,
        "last_rank": 7141,
        "player_name": "Majed Alammari",
        "rank": 8683,
        "rank_sort": 8697,
        "total": 2402
      },
      {
        "club_badge_src": null,
        "entry": 724598,
        "entry_name": "Glover FC",
        "event_total": 59,
        "has_played": true,
        "id": 4921501,
        "last_rank": 7450,
        "player_name": "Will Glover",
        "rank": 8683,
        "rank_sort": 8698,
        "total": 2402
      },
      {
        "club_badge_src": "https://fantasy.premierleague.com/gcs/plfpl-production-adobe-approved/plfpl-production/887626/4aa11aba-1d4d-4c2e-ad9c-0794b60cf342.png",
        "entry": 887626,
        "entry_name": "The Special Ones",
        "event_total": 36,
        "has_played": true,
        "id": 6088006,
        "last_rank": 3175,
        "player_name": "Suki Sidhu",
        "rank": 8683,
        "rank_sort": 8699,
        "total": 2402
      },
      {
        "club_badge_src": null,
        "entry": 981434,
        "entry_name": "Sopranos FC",
        "event_total": 65,
        "has_played": true,
        "id": 6766050,
        "last_rank": 11482,
        "player_name": "Arvind Kalai Vanan",
        "rank": 8683,
        "rank_sort": 8700,
        "total": 2402
      }
    ]
  }
}