{
  "last_updated_data": "2026-05-24T23:28:17Z",
  "league": {
    "admin_entry": null,
    "closed": false,
    "code_privacy": "p",
    "created": "2025-07-20T23:14:33.933835Z",
    "cup_league": 2815434,
    "has_cup": true,
    "id": 314,
    "league_type": "s",
    "max_entries": null,
    "name": "Overall",
    "rank": null,
    "scoring": "c",
    "start_event": 1
  },
  "new_entries": {
    "has_next": false,
    "page": 1,
    "results": []
  },
  "standings": {
    "has_next": true,
    "page": 546,
    "results": [
      {
        "club_badge_src": null,
        "entry": 14839,
        "entry_name": "Shola System",
        "event_total": 59,
        "has_played": true,
        "id": 90542,
        "last_rank": 25002,
        "player_name": "Will Hume",
        "rank": 27246,
        "rank_sort": 27251,
        "total": 2371
      },
      {
        "club_badge_src": "https://fantasy.premierleague.com/gcs/plfpl-production-adobe-approved/plfpl-production/18348/588222c8-26df-4c05-9941-be2fbf904edd.png",
        "entry": 18348,
        "entry_name": "The Likely Lads",
        "event_total": 49,
        "has_played": true,
        "id": 114124,
        "last_rank": 20416,
        "player_name": "Aiden Phillips",
        "rank": 27246,
        "rank_sort": 27252,
        "total": 2371
      },
      {
        "club_badge_src": null,
        "entry": 20291,
        "entry_name": "FULofHAM",
        "event_total": 38,
        "has_played": true,
        "id": 126428,
        "last_rank": 13257,
        "player_name": "Adam Clark",
        "rank": 27246,
        "rank_sort": 27253,
        "total": 2371
      },
      {
        "club_badge_src": "https://fantasy.premierleague.com/gcs/plfpl-production-adobe-approved/plfpl-production/24414/27299a39-f7b1-4a69-a05c-8d5dbb18dd99.png",
        "entry": 24414,
        "entry_name": "Nashama",
        "event_total": 54,
        "has_played": true,
        "id": 154098,
        "last_rank": 20983,
        "player_name": "mahmoud alzubi",
        "rank": 27246,
        "rank_sort": 27254,
        "total": 2371
      },
      {
        "club_badge_src": null,
        "entry": 24525,
        "entry_name": "Vertical Forest",
        "event_total": 57,
        "has_played": true,
        "id": 154830,
        "last_rank": 27020,
        "player_name": "Sarper Uslupehlivan",
        "rank": 27246,
        "rank_sort": 27255,
        "total": 2371
      },
      {
        "club_badge_src": null,
        "entry": 28688,
        "entry_name": "TT",
        "event_total": 68,
        "has_played": true,
        "id": 181367,
        "last_rank": 34051,
        "player_name": "Therry T",
        "rank": 27246,
        "rank_sort": 27256,
        "total": 2371
      },
      {
        "club_badge_src": null,
        "entry": 30620,
        "entry_name": "Ismail\u2019s XI",
        "event_total": 56,
        "has_played": true,
        "id": 193777,
        "last_rank": 25902,
        "player_name": "Mohammed Ismail",
        "rank": 27246,
        "rank_sort": 27257,
        "total": 2371
      },
      {
        "club_badge_src": "https://fantasy.premierleague.com/gcs/plfpl-production-adobe-approved/plfpl-production/32214/5e32b6bd-968f-44a9-9792-9952025db061.png",
        "entry": 32214,
        "entry_name": "Paranoid Android",
        "event_total": 60,
        "has_played": true,
        "id": 204804,
        "last_rank": 29688,
        "player_name": "Atiar Rahman Nayeem",
        "rank": 27246,
        "rank_sort": 27258,
        "total": 2371
      },
      {
        "club_badge_src": null,
        "entry": 32666,
        "entry_name": "ea",
        "event_total": 56,
        "has_played": true,
        "id": 207909,
        "last_rank": 26230,
        "player_name": "Evgenii Anisimov",
        "rank": 27246,
        "rank_sort": 27259,
        "total": 2371
      },
      {
        "club_badge_src": "https://fantasy.premierleague.com/gcs/plfpl-production-adobe-approved/plfpl-production/35994/47cb4e1a-03c7-4c87-b33c-d1cff483a57a.png",
        "entry": 35994,
        "entry_name": "Wirtz XI",
        "event_total": 56,
        "has_played": true,
        "id": 230346,
        "last_rank": 26230,
        "player_name": "Abhishek P",
        "rank": 27246,
        "rank_sort": 27260,
        "total": 2371
      },
      {
        "club_badge_src": "https://fantasy.premierleague.com/gcs/plfpl-production-adobe-approved/plfpl-production/39734/d62dc5ba-ffc6-4fc6-9fd9-9435b22d45ad.png",
        "entry": 39734,
        "entry_name": "Dream Team",
        "event_total": 68,
        "has_played": true,
        "id": 254656,
        "last_rank": 39023,
        "player_name": "Ildar Shayakhmetov",
        "rank": 27246,
        "rank_sort": 27261,
        "total": 2371
      },
      {
        "club_badge_src": "https://fantasy.premierleague.com/gcs/plfpl-production-adobe-approved/plfpl-production/41728/bc68106a-e6bb-407b-bb6f-9fbc53c92e18.png",
        "entry": 41728,
        "entry_name": "Wirtz and all",
        "event_total": 56,
        "has_played": true,
        "id": 267375,
        "last_rank": 22534,
        "player_name": "Stuart Clarke",
        "rank": 27246,
        "rank_sort": 27262,
        "total": 2371
      },
      {
        "club_badge_src": null,
        "entry": 47062,
        "entry_name": "ZeroTolerance **",
        "event_total": 73,
        "has_played": true,
        "id": 301781,
        "last_rank": 45252,
        "player_name": "Berkan Soydan",
        "rank": 27246,
        "rank_sort": 27263,
        "total": 2371
      },
      {
        "club_badge_src": "https://fantasy.premierleague.com/gcs/plfpl-production-adobe-approved/plfpl-production/50111/16405b87-66d7-4bc9-a62c-1d3f3b9390ef.png",
        "entry": 50111,
        "entry_name": "R\u00ebd St\u00e4r B\u00ebll \u2606",
        "event_total": 72,
        "has_played": true,
        "id": 322237,
        "last_rank": 38774,
        "player_name": "Scott Musiol",
        "rank": 27246,
        "rank_sort": 27264,
        "total": 2371
      },
      {
        "club_badge_src": null,
        "entry": 53748,
        "entry_name": "saka potatoes",
        "event_total": 51,
        "has_played": true,
        "id": 345844,
        "last_rank": 21949,
        "player_name": "Shervinho Neyromiliano",
        "rank": 27246,
        "rank_sort": 27265,
        "total": 2371
      },
      {
        "club_badge_src": null,
        "entry": 63757,
        "entry_name": "TheGingerbreadMen",
        "event_total": 70,
        "has_played": true,
        "id": 411417,
        "last_rank": 41617,
        "player_name": "Alasdair Kingston",
        "rank": 27246,
        "rank_sort": 27266,
        "total": 2371
      },
      {
        "club_badge_src": "https://fantasy.premierleague.com/gcs/plfpl-production-adobe-approved/plfpl-production/68795/f816077f-d7db-4158-ae88-2b0830bf42fe.png",
        "entry": 68795,
        "entry_name": "Bino 1906",
        "event_total": 65,
        "has_played": true,
        "id": 445879,
        "last_rank": 35166,
        "player_name": "Jo\u00e3o Garrotes",
        "rank": 27246,
        "rank_sort": 27267,
        "total": 2371
      },
      {
        "club_badge_src": null,
        "entry": 76425,
        "entry_name": "\u661f\u9b42",
        "event_total": 59,
        "has_played": true,
        "id": 496810,
        "last_rank": 28726,
        "player_name": "\u661f \u9b42",
        "rank": 27246,
        "rank_sort": 27268,
        "total": 2371
      },
      {
        "club_badge_src": null,
        "entry": 79881,
        "entry_name": "Wakanda FC",
        "event_total": 66,
        "has_played": true,
        "id": 519704,
        "last_rank": 36348,
        "player_name": "Jeroen Loop",
        "rank": 27246,
        "rank_sort": 27269,
        "total": 2371
      },
      {
        "club_badge_src": null,
        "entry": 86385,
        "entry_name": "Goal of Duty",
        "event_total": 72,
        "has_played": true,
        "id": 562934,
        "last_rank": 43849,
        "player_name": "Varun Joshi",
        "rank": 27246,
        "rank_sort": 27270,
        "total": 2371
      },
      {
        "club_badge_src": null,
        "entry": 91698,
        "entry_name": "Pez fc",
        "event_total": 51,
        "has_played": true,
        "id": 599055,
        "last_rank": 18691,
        "player_name": "Joe Perry",
        "rank": 27246,
        "rank_sort": 27271,
        "total": 2371
      },
      {
        "club_badge_src": null,
        "entry": 103133,
        "entry_name": "Dj's Fraud Squad",
        "event_total": 67,
        "has_played": true,
        "id": 672988,
        "last_rank": 37822,
        "player_name": "Tommy Lahart",
        "rank": 27246,
        "rank_sort": 27272,
        "total": 2371
      },
      {
        "club_badge_src": "https://fantasy.premierleague.com/gcs/plfpl-production-adobe-approved/plfpl-production/115728/591ad4f4-3c2d-4937-a252-0fd5c366064c.png",
        "entry": 115728,
        "entry_name": "John the real Rooney",
        "event_total": 30,
        "has_played": true,
        "id": 755347,
        "last_rank": 9644,
        "player_name": "Ryan Cawley",
        "rank": 27246,
        "rank_sort": 27273,
        "total": 2371
      },
      {
        "club_badge_src": null,
        "entry": 134119,
        "entry_name": "Ha-Cunha Matata",
        "event_total": 54,
        "has_played": true,
        "id": 873513,
        "last_rank": 20983,
        "player_name": "Oliver Higgins",
        "rank": 27246,
        "rank_sort": 27274,
        "total": 2371
      },
      {
        "club_badge_src": "https://fantasy.premierleague.com/gcs/plfpl-production-adobe-approved/plfpl-production/136402/427d7aa4-bd13-48ba-ac64-016ffab98548.png",
        "entry": 136402,
        "entry_name": "GunnersaurusRex",
        "event_total": 55,
        "has_played": true,
        "id": 888576,
        "last_rank": 21775,
        "player_name": "Ian Cousins",
        "rank": 27246,
        "rank_sort": 27275,
        "total": 2371
      },
      {
        "club_badge_src": null,
        "entry": 148791,
        "entry_name": "Lacer",
        "event_total": 59,
        "has_played": true,
        "id": 975424,
        "last_rank": 28906,
        "player_name": "Neil Carney",
        "rank": 27246,
        "rank_sort": 27276,
        "total": 2371
      },
      {
        "club_badge_src": null,
        "entry": 180298,
        "entry_name": "JOAO PEDRO AND VIBES",
        "event_total": 74,
        "has_played": true,
        "id": 1189846,
        "last_rank": 46660,
        "player_name": "Alex Maye",
        "rank": 27246,
        "rank_sort": 27277,
        "total": 2371
      },
      {
        "club_badge_src": null,
        "entry": 181787,
        "entry_name": "GUSTOfc",
        "event_total": 39,
        "has_played": true,
        "id": 1199607,
        "last_rank": 13947,
        "player_name": "Devv Bhatt",
        "rank": 27246,
        "rank_sort": 27278,
        "total": 2371
      },
      {
        "club_badge_src": null,
        "entry": 194386,
        "entry_name": "Cunha believe it",
        "event_total": 58,
        "has_played": true,
        "id": 1288721,
        "last_rank": 27976,
        "player_name": "Mikhail Lipatov",
        "rank": 27246,
        "rank_sort": 27279,
        "total": 2371
      },
      {
        "club_badge_src": "https://fantasy.premierleague.com/gcs/plfpl-production-adobe-approved/plfpl-production/194707/f584a924-c4df-45dc-968c-dbb70cd5af44.png",
        "entry": 194707,
        "entry_name": "Elastico",
        "event_total": 65,
        "has_played": true,
        "id": 1290971,
        "last_rank": 30727,
        "player_name": "Watcharapong Dokkhem",
        "rank": 27246,
        "rank_sort": 27280,
        "total": 2371
      },
      {
        "club_badge_src": null,
        "entry": 214740,
        "entry_name": "BiBiBuBu",
        "event_total": 66,
        "has_played": true,
        "id": 1428432,
        "last_rank": 31747,
        "player_name": "Cris Wong",
        "rank": 27246,
        "rank_sort": 27281,
        "total": 2371
      },
      {
        "club_badge_src": "https://fantasy.premierleague.com/gcs/plfpl-production-adobe-approved/plfpl-production/227314/0d6491cd-772a-4624-b5ce-1d989815f3fe.png",
        "entry": 227314,
        "entry_name": "LHAWMA",
        "event_total": 58,
        "has_played": true,
        "id": 1512050,
        "last_rank": 27976,
        "player_name": "Alaa Nassah",
        "rank": 27246,
        "rank_sort": 27282,
        "total": 2371
      },
      {
        "club_badge_src": null,
        "entry": 260093,
        "entry_name": "Wirtz Case Scenario",
        "event_total": 52,
        "has_played": true,
        "id": 1729167,
        "last_rank": 19544,
        "player_name": "Harvey Adlem",
        "rank": 27246,
        "rank_sort": 27283,
        "total": 2371
      },
      {
        "club_badge_src": null,
        "entry": 269261,
        "entry_name": "Dido's FC",
        "event_total": 57,
        "has_played": true,
        "id": 1791277,
        "last_rank": 27020,
        "player_name": "dido mekky",
        "rank": 27246,
        "rank_sort": 27284,
        "total": 2371
      },
      {
        "club_badge_src": null,
        "entry": 272047,
        "entry_name": "Noni your business",
        "event_total": 66,
        "has_played": true,
        "id": 1809976,
        "last_rank": 31620,
        "player_name": "Corey Collins",
        "rank": 27246,
        "rank_sort": 27285,
        "total": 2371
      },
      {
        "club_badge_src": null,
        "entry": 291240,
        "entry_name": "Beef Cherki",
        "event_total": 60,
        "has_played": true,
        "id": 1942525,
        "last_rank": 29578,
        "player_name": "Josh Watts",
        "rank": 27246,
        "rank_sort": 27286,
        "total": 2371
      },
      {
        "club_badge_src": null,
        "entry": 317140,
        "entry_name": "Joelintooooon FC",
        "event_total": 67,
        "has_played": true,
        "id": 2125748,
        "last_rank": 32751,
        "player_name": "Peter Ward",
        "rank": 27246,
        "rank_sort": 27287,
        "total": 2371
      },
      {
        "club_badge_src": null,
        "entry": 332025,
        "entry_name": "CircleRoad FC",
        "event_total": 66,
        "has_played": true,
        "id": 2223832,
        "last_rank": 36348,
        "player_name": "Richard Calissendorff",
        "rank": 27246,
        "rank_sort": 27288,
        "total": 2371
      },
      {
        "club_badge_src": null,
        "entry": 339739,
        "entry_name": "De r\u00f8de djevler",
        "event_total": 59,
        "has_played": true,
        "id": 2274267,
        "last_rank": 28906,
        "player_name": "Kay Johansen",
        "rank": 27246,
        "rank_sort": 27289,
        "total": 2371
      },
      {
        "club_badge_src": null,
        "entry": 356777,
        "entry_name": "Wirtz team ever",
        "event_total": 69,
        "has_played": true,
        "id": 2387511,
        "last_rank": 40036,
        "player_name": "Daniel Joska",
        "rank": 27246,
        "rank_sort": 27290,
        "total": 2371
      },
      {
        "club_badge_src": null,
        "entry": 426497,
        "entry_name": "KB5",
        "event_total": 55,
        "has_played": true,
        "id": 2859444,
        "last_rank": 25172,
        "player_name": "Kyle Bartley",
        "rank": 27246,
        "rank_sort": 27291,
        "total": 2371
      },
      {
        "club_badge_src": "https://fantasy.premierleague.com/gcs/plfpl-production-adobe-approved/plfpl-production/449266/d2900461-ba7d-4be9-b528-bbe5ade6d70d.png",
        "entry": 449266,
        "entry_name": "Zaido Boyz",
        "event_total": 74,
        "has_played": true,
        "id": 3014186,
        "last_rank": 41324,
        "player_name": "Zaid Alexander",
        "rank": 27246,
        "rank_sort": 27292,
        "total": 2371
      },
      {
        "club_badge_src": "https://fantasy.premierleague.com/gcs/plfpl-production-adobe-approved/plfpl-production/492790/e02680c0-4fad-4c1d-8a40-a64e127f5ef7.png",
        "entry": 492790,
        "entry_name": "Palace",
        "event_total": 68,
        "has_played": true,
        "id": 3307900,
        "last_rank": 39023,
        "player_name": "Matt Hancock",
        "rank": 27246,
        "rank_sort": 27293,
        "total": 2371
      },
      {
        "club_badge_src": null,
        "entry": 502565,
        "entry_name": "Rordog FC",
        "event_total": 64,
        "has_played": true,
        "id": 3373309,
        "last_rank": 34051,
        "player_name": "Rory McClellan",
        "rank": 27246,
        "rank_sort": 27294,
        "total": 2371
      },
      {
        "club_badge_src": null,
        "entry": 534714,
        "entry_name": "TSUNAme",
        "event_total": 68,
        "has_played": true,
        "id": 3598722,
        "last_rank": 38774,
        "player_name": "JoE EL FEGHALI",
        "rank": 27246,
        "rank_sort": 27295,
        "total": 2371
      },
      {
        "club_badge_src": null,
        "entry": 550078,
        "entry_name": "Paris Saint Gasman",
        "event_total": 63,
        "has_played": true,
        "id": 3702068,
        "last_rank": 33147,
        "player_name": "Max Chapman",
        "rank": 27246,
        "rank_sort": 27296,
        "total": 2371
      },
      {
        "club_badge_src": null,
        "entry": 569666,
        "entry_name": "AndreBru",
        "event_total": 74,
        "has_played": true,
        "id": 3834097,
        "last_rank": 41324,
        "player_name": "Andre Bru",
        "rank": 27246,
        "rank_sort": 27297,
        "total": 2371
      },
      {
        "club_badge_src": null,
        "entry": 611249,
        "entry_name": "DSK Airbags",
        "event_total": 72,
        "has_played": true,
        "id": 4129993,
        "last_rank": 38774,
        "player_name": "Samuel Swartling",
        "rank": 27246,
        "rank_sort": 27298,
        "total": 2371
      },
      {
        "club_badge_src": "https://fantasy.premierleague.com/gcs/plfpl-production-adobe-approved/plfpl-production/619541/a671b86b-0e1b-4e2f-9e8e-5bf898f323e8.png",
        "entry": 619541,
        "entry_name": "The Tilluminati",
        "event_total": 54,
        "has_played": true,
        "id": 4186593,
        "last_rank": 24330,
        "player_name": "Mark Till",
        "rank": 27246,
        "rank_sort": 27299,
        "total": 2371
      },
      {
        "club_badge_src": null,
        "entry": 623041,
        "entry_name": "Beverly Hille FC",
        "event_total": 59,
        "has_played": true,
        "id": 4210505,
        "last_rank": 28906,
        "player_name": "Andreas Dahlqvist",
        "rank": 27246,
        "rank_sort": 27300,
        "total": 2371
      }
    ]
  }
}