{
  "last_updated_data": "2026-05-24T23:28:17Z",
  "league": {
    "admin_entry": null,
    "closed": false,
    "code_privacy": "p",
    "created": "2025-07-20T23:14:33.933835Z",
    "cup_league": 2815434,
    "has_cup": true,
    "id": 314,
    "league_type": "s",
    "max_entries": null,
    "name": "Overall",
    "rank": null,
    "scoring": "c",
    "start_event": 1
  },
  "new_entries": {
    "has_next": false,
    "page": 1,
    "results": []
  },
  "standings": {
    "has_next": true,
    "page": 215,
    "results": [
      {
        "club_badge_src": null,
        "entry": 1795788,
        "entry_name": "asfour\ufffd",
        "event_total": 55,
        "has_played": true,
        "id": 12619590,
        "last_rank": 7891,
        "player_name": "Mohamed Kamal",
        "rank": 10695,
        "rank_sort": 10701,
        "total": 2397
      },
      {
        "club_badge_src": "https://fantasy.premierleague.com/gcs/plfpl-production-adobe-approved/plfpl-production/2003131/481391af-e0c1-4224-9a5b-7b4e05bac5d1.png",
        "entry": 2003131,
        "entry_name": "Dynamo Catford FC",
        "event_total": 51,
        "has_played": true,
        "id": 14161915,
        "last_rank": 7914,
        "player_name": "Jonathan Hall",
        "rank": 10695,
        "rank_sort": 10702,
        "total": 2397
      },
      {
        "club_badge_src": null,
        "entry": 3039334,
        "entry_name": "Holdingbolaget",
        "event_total": 65,
        "has_played": true,
        "id": 22370316,
        "last_rank": 11957,
        "player_name": "Jonas Olsson",
        "rank": 10695,
        "rank_sort": 10703,
        "total": 2397
      },
      {
        "club_badge_src": null,
        "entry": 3874230,
        "entry_name": "Nitro Volva FC",
        "event_total": 87,
        "has_played": true,
        "id": 29090724,
        "last_rank": 31309,
        "player_name": "Ray Bush",
        "rank": 10695,
        "rank_sort": 10704,
        "total": 2397
      },
      {
        "club_badge_src": null,
        "entry": 4235986,
        "entry_name": "\u0628\u0648\u0628 \u062c\u064a\u0644\u0647",
        "event_total": 66,
        "has_played": true,
        "id": 32099252,
        "last_rank": 14746,
        "player_name": "ahmed ehab",
        "rank": 10695,
        "rank_sort": 10705,
        "total": 2397
      },
      {
        "club_badge_src": "https://fantasy.premierleague.com/gcs/plfpl-production-adobe-approved/plfpl-production/4421582/11ac67ce-6a1e-431a-9f4a-28089f6a1d14.png",
        "entry": 4421582,
        "entry_name": "Faa Kin Hell FC",
        "event_total": 60,
        "has_played": true,
        "id": 33642202,
        "last_rank": 11536,
        "player_name": "Ollie Rahman",
        "rank": 10695,
        "rank_sort": 10706,
        "total": 2397
      },
      {
        "club_badge_src": "https://fantasy.premierleague.com/gcs/plfpl-production-adobe-approved/plfpl-production/6092274/34c231a3-57ba-4f5c-8bac-d4738f4087cb.png",
        "entry": 6092274,
        "entry_name": "Gugz FC",
        "event_total": 57,
        "has_played": true,
        "id": 48109731,
        "last_rank": 10195,
        "player_name": "Ryan Ramoni",
        "rank": 10695,
        "rank_sort": 10707,
        "total": 2397
      },
      {
        "club_badge_src": null,
        "entry": 6173768,
        "entry_name": "\u665a\u5b89\u5229\u5229",
        "event_total": 45,
        "has_played": true,
        "id": 48818617,
        "last_rank": 4205,
        "player_name": "c yh",
        "rank": 10695,
        "rank_sort": 10708,
        "total": 2397
      },
      {
        "club_badge_src": null,
        "entry": 6313587,
        "entry_name": "Goalzilla",
        "event_total": 54,
        "has_played": true,
        "id": 50098193,
        "last_rank": 6333,
        "player_name": "Ahmed Khaled",
        "rank": 10695,
        "rank_sort": 10709,
        "total": 2397
      },
      {
        "club_badge_src": null,
        "entry": 6849201,
        "entry_name": "FootballStadiumMaps",
        "event_total": 52,
        "has_played": true,
        "id": 54872429,
        "last_rank": 8274,
        "player_name": "James Currie",
        "rank": 10695,
        "rank_sort": 10710,
        "total": 2397
      },
      {
        "club_badge_src": null,
        "entry": 15654,
        "entry_name": "Come Digne with Mee",
        "event_total": 61,
        "has_played": true,
        "id": 96267,
        "last_rank": 10195,
        "player_name": "charlie daley",
        "rank": 10711,
        "rank_sort": 10711,
        "total": 2397
      },
      {
        "club_badge_src": null,
        "entry": 31021,
        "entry_name": "Huuhkajat",
        "event_total": 63,
        "has_played": true,
        "id": 196415,
        "last_rank": 13033,
        "player_name": "Atte Vanhala",
        "rank": 10711,
        "rank_sort": 10712,
        "total": 2397
      },
      {
        "club_badge_src": null,
        "entry": 32897,
        "entry_name": "Bowen Arrow",
        "event_total": 67,
        "has_played": true,
        "id": 209516,
        "last_rank": 13060,
        "player_name": "Annie Astley",
        "rank": 10711,
        "rank_sort": 10713,
        "total": 2397
      },
      {
        "club_badge_src": null,
        "entry": 49453,
        "entry_name": "Maguire's Mindpalace",
        "event_total": 71,
        "has_played": true,
        "id": 317898,
        "last_rank": 17878,
        "player_name": "Tallann Maguire",
        "rank": 10711,
        "rank_sort": 10714,
        "total": 2397
      },
      {
        "club_badge_src": null,
        "entry": 175957,
        "entry_name": "joepapi",
        "event_total": 58,
        "has_played": true,
        "id": 1161606,
        "last_rank": 10667,
        "player_name": "Joep Wetzels",
        "rank": 10711,
        "rank_sort": 10715,
        "total": 2397
      },
      {
        "club_badge_src": null,
        "entry": 245423,
        "entry_name": "4ever Bowen bubbles",
        "event_total": 61,
        "has_played": true,
        "id": 1634008,
        "last_rank": 12048,
        "player_name": "joey Driscoll",
        "rank": 10711,
        "rank_sort": 10716,
        "total": 2397
      },
      {
        "club_badge_src": "https://fantasy.premierleague.com/gcs/plfpl-production-adobe-approved/plfpl-production/594583/c578299d-b0d3-46d6-b533-7003cfdc3ea7.png",
        "entry": 594583,
        "entry_name": "Omr",
        "event_total": 68,
        "has_played": true,
        "id": 4007732,
        "last_rank": 15972,
        "player_name": "Omr Misho",
        "rank": 10711,
        "rank_sort": 10717,
        "total": 2397
      },
      {
        "club_badge_src": null,
        "entry": 2290351,
        "entry_name": "LoganArt256\ufffd",
        "event_total": 74,
        "has_played": true,
        "id": 16334542,
        "last_rank": 20008,
        "player_name": "Jonathan Logan",
        "rank": 10711,
        "rank_sort": 10718,
        "total": 2397
      },
      {
        "club_badge_src": null,
        "entry": 2365763,
        "entry_name": "Kasemiro",
        "event_total": 66,
        "has_played": true,
        "id": 16886567,
        "last_rank": 12537,
        "player_name": "Christian Kase",
        "rank": 10711,
        "rank_sort": 10719,
        "total": 2397
      },
      {
        "club_badge_src": "https://fantasy.premierleague.com/gcs/plfpl-production-adobe-approved/plfpl-production/4586879/c480eb8a-9f4d-436c-9e45-060924e5be86.png",
        "entry": 4586879,
        "entry_name": "Wihajster UTD",
        "event_total": 72,
        "has_played": true,
        "id": 35022283,
        "last_rank": 18555,
        "player_name": "Miko\u0142aj Lisewski",
        "rank": 10711,
        "rank_sort": 10720,
        "total": 2397
      },
      {
        "club_badge_src": "https://fantasy.premierleague.com/gcs/plfpl-production-adobe-approved/plfpl-production/161398/211c6fd1-0ff5-4a6b-b8a7-5597960d859e.png",
        "entry": 161398,
        "entry_name": "Dile Dile FC",
        "event_total": 69,
        "has_played": true,
        "id": 1063327,
        "last_rank": 14184,
        "player_name": "Nik Aref",
        "rank": 10721,
        "rank_sort": 10721,
        "total": 2397
      },
      {
        "club_badge_src": null,
        "entry": 339503,
        "entry_name": "Haalandam Hodshots",
        "event_total": 60,
        "has_played": true,
        "id": 2272709,
        "last_rank": 11559,
        "player_name": "Gurjit Singh Maan",
        "rank": 10721,
        "rank_sort": 10722,
        "total": 2397
      },
      {
        "club_badge_src": null,
        "entry": 524105,
        "entry_name": "Enniskilling again",
        "event_total": 59,
        "has_played": true,
        "id": 3520757,
        "last_rank": 11104,
        "player_name": "Adrian Caughey",
        "rank": 10721,
        "rank_sort": 10723,
        "total": 2397
      },
      {
        "club_badge_src": null,
        "entry": 1090709,
        "entry_name": "WHU Tang Clan",
        "event_total": 66,
        "has_played": true,
        "id": 7553941,
        "last_rank": 14771,
        "player_name": "Callum Jones",
        "rank": 10721,
        "rank_sort": 10724,
        "total": 2397
      },
      {
        "club_badge_src": null,
        "entry": 4260223,
        "entry_name": "\u0627\u0644\u0641\u064a\u0644 \u0628\u0637\u0644 \u0627\u0644\u062f\u0648\u0631\u064a",
        "event_total": 66,
        "has_played": true,
        "id": 32300731,
        "last_rank": 14761,
        "player_name": "Mostafa Elsawy",
        "rank": 10721,
        "rank_sort": 10725,
        "total": 2397
      },
      {
        "club_badge_src": "https://fantasy.premierleague.com/gcs/plfpl-production-adobe-approved/plfpl-production/5135410/a0c015f1-4d1c-404b-b260-e4aa331f2970.png",
        "entry": 5135410,
        "entry_name": "Kaketsun Talvi",
        "event_total": 56,
        "has_played": true,
        "id": 39720658,
        "last_rank": 9819,
        "player_name": "Jussi Alamikkel\u00e4",
        "rank": 10721,
        "rank_sort": 10726,
        "total": 2397
      },
      {
        "club_badge_src": "https://fantasy.premierleague.com/gcs/plfpl-production-adobe-approved/plfpl-production/223033/270df312-6b4b-4249-86f0-8a9945ecd669.png",
        "entry": 223033,
        "entry_name": "Jason's VARgoalnauts",
        "event_total": 59,
        "has_played": true,
        "id": 1483624,
        "last_rank": 6647,
        "player_name": "Jason Tuck",
        "rank": 10727,
        "rank_sort": 10727,
        "total": 2397
      },
      {
        "club_badge_src": null,
        "entry": 821795,
        "entry_name": "Tete Diop on the DCL",
        "event_total": 66,
        "has_played": true,
        "id": 5628247,
        "last_rank": 12559,
        "player_name": "Matthew Montgomery",
        "rank": 10727,
        "rank_sort": 10728,
        "total": 2397
      },
      {
        "club_badge_src": null,
        "entry": 901795,
        "entry_name": "Beef Cherki",
        "event_total": 41,
        "has_played": true,
        "id": 6196385,
        "last_rank": 5122,
        "player_name": "Nathan Patel",
        "rank": 10727,
        "rank_sort": 10729,
        "total": 2397
      },
      {
        "club_badge_src": null,
        "entry": 1897429,
        "entry_name": "Sesko Meal Deal",
        "event_total": 62,
        "has_played": true,
        "id": 13374501,
        "last_rank": 10676,
        "player_name": "Matthew Milner",
        "rank": 10727,
        "rank_sort": 10730,
        "total": 2397
      },
      {
        "club_badge_src": null,
        "entry": 6314028,
        "entry_name": "Hakuna Wan-Mata",
        "event_total": 65,
        "has_played": true,
        "id": 50102809,
        "last_rank": 12056,
        "player_name": "colin wan",
        "rank": 10727,
        "rank_sort": 10731,
        "total": 2397
      },
      {
        "club_badge_src": null,
        "entry": 380222,
        "entry_name": "Athars Team",
        "event_total": 43,
        "has_played": true,
        "id": 2548061,
        "last_rank": 5613,
        "player_name": "Pawel Panczyk",
        "rank": 10732,
        "rank_sort": 10732,
        "total": 2397
      },
      {
        "club_badge_src": null,
        "entry": 781522,
        "entry_name": "Mali debeli",
        "event_total": 65,
        "has_played": true,
        "id": 5335690,
        "last_rank": 10221,
        "player_name": "Dominik Rados",
        "rank": 10732,
        "rank_sort": 10733,
        "total": 2397
      },
      {
        "club_badge_src": null,
        "entry": 1036211,
        "entry_name": "Fpl Fairfss",
        "event_total": 71,
        "has_played": true,
        "id": 7170666,
        "last_rank": 15356,
        "player_name": "Maybe Itny",
        "rank": 10732,
        "rank_sort": 10734,
        "total": 2397
      },
      {
        "club_badge_src": null,
        "entry": 2043790,
        "entry_name": "Bally",
        "event_total": 57,
        "has_played": true,
        "id": 14473947,
        "last_rank": 8645,
        "player_name": "Parin Numpobsanti",
        "rank": 10732,
        "rank_sort": 10735,
        "total": 2397
      },
      {
        "club_badge_src": "https://fantasy.premierleague.com/gcs/plfpl-production-adobe-approved/plfpl-production/3327561/a24b7fdc-2d61-45f6-b58f-190b959f1eb0.png",
        "entry": 3327561,
        "entry_name": "Red Devils United",
        "event_total": 68,
        "has_played": true,
        "id": 24670609,
        "last_rank": 13662,
        "player_name": "Sechaba Moeketsi",
        "rank": 10732,
        "rank_sort": 10736,
        "total": 2397
      },
      {
        "club_badge_src": "https://fantasy.premierleague.com/gcs/plfpl-production-adobe-approved/plfpl-production/694397/3c10091f-1cf5-4469-b286-3fc265a13206.png",
        "entry": 694397,
        "entry_name": "DrwecaNewMiast",
        "event_total": 68,
        "has_played": true,
        "id": 4702988,
        "last_rank": 13681,
        "player_name": "Mari Pachanen",
        "rank": 10737,
        "rank_sort": 10737,
        "total": 2397
      },
      {
        "club_badge_src": null,
        "entry": 1651387,
        "entry_name": "Saint very good",
        "event_total": 40,
        "has_played": true,
        "id": 11561351,
        "last_rank": 4906,
        "player_name": "David Bone",
        "rank": 10737,
        "rank_sort": 10738,
        "total": 2397
      },
      {
        "club_badge_src": null,
        "entry": 2120221,
        "entry_name": "Spurring Relegation",
        "event_total": 68,
        "has_played": true,
        "id": 15060482,
        "last_rank": 13683,
        "player_name": "Greg Eckelman",
        "rank": 10739,
        "rank_sort": 10739,
        "total": 2397
      },
      {
        "club_badge_src": null,
        "entry": 9371374,
        "entry_name": "Linken fc",
        "event_total": 59,
        "has_played": true,
        "id": 79094545,
        "last_rank": 7934,
        "player_name": "Linn Kristin Magnesen",
        "rank": 10739,
        "rank_sort": 10740,
        "total": 2397
      },
      {
        "club_badge_src": null,
        "entry": 2063864,
        "entry_name": "I Miss You KDB",
        "event_total": 53,
        "has_played": true,
        "id": 14624406,
        "last_rank": 6138,
        "player_name": "Mohammed AL-baujan",
        "rank": 10741,
        "rank_sort": 10741,
        "total": 2397
      },
      {
        "club_badge_src": "https://fantasy.premierleague.com/gcs/plfpl-production-adobe-approved/plfpl-production/2156067/7b6494d2-639b-48a9-83ec-d5585456670c.png",
        "entry": 2156067,
        "entry_name": "Varela",
        "event_total": 58,
        "has_played": true,
        "id": 15326394,
        "last_rank": 9056,
        "player_name": "Panos Tsirikos",
        "rank": 10741,
        "rank_sort": 10742,
        "total": 2397
      },
      {
        "club_badge_src": "https://fantasy.premierleague.com/gcs/plfpl-production-adobe-approved/plfpl-production/2730709/187da885-78b0-4ef0-9b4c-5eca1e86e273.png",
        "entry": 2730709,
        "entry_name": "Backdoor Isidor",
        "event_total": 47,
        "has_played": true,
        "id": 19650719,
        "last_rank": 5617,
        "player_name": "Wasim Shaik",
        "rank": 10741,
        "rank_sort": 10743,
        "total": 2397
      },
      {
        "club_badge_src": null,
        "entry": 2905023,
        "entry_name": "Bir Numarayim",
        "event_total": 70,
        "has_played": true,
        "id": 21289750,
        "last_rank": 14796,
        "player_name": "Paul Wheeler",
        "rank": 10741,
        "rank_sort": 10744,
        "total": 2397
      },
      {
        "club_badge_src": null,
        "entry": 4873212,
        "entry_name": "ThomastheFrankEngine",
        "event_total": 52,
        "has_played": true,
        "id": 37563809,
        "last_rank": 8307,
        "player_name": "Jack Meadham",
        "rank": 10741,
        "rank_sort": 10745,
        "total": 2397
      },
      {
        "club_badge_src": "https://fantasy.premierleague.com/gcs/plfpl-production-adobe-approved/plfpl-production/5282432/b4b69373-799f-4b50-88b5-40979a3893de.png",
        "entry": 5282432,
        "entry_name": "Ayman",
        "event_total": 68,
        "has_played": true,
        "id": 40944653,
        "last_rank": 16015,
        "player_name": "Ayman Sadek",
        "rank": 10741,
        "rank_sort": 10746,
        "total": 2397
      },
      {
        "club_badge_src": null,
        "entry": 5441836,
        "entry_name": "Zuzella Borneo",
        "event_total": 64,
        "has_played": true,
        "id": 42339574,
        "last_rank": 13687,
        "player_name": "Dzmitry Krepchuk",
        "rank": 10741,
        "rank_sort": 10747,
        "total": 2397
      },
      {
        "club_badge_src": null,
        "entry": 5671876,
        "entry_name": "Sesk0 Mamba",
        "event_total": 79,
        "has_played": true,
        "id": 44385142,
        "last_rank": 20799,
        "player_name": "Kana Kula",
        "rank": 10748,
        "rank_sort": 10748,
        "total": 2397
      },
      {
        "club_badge_src": null,
        "entry": 9043994,
        "entry_name": "McMorris AFC",
        "event_total": 67,
        "has_played": true,
        "id": 75906417,
        "last_rank": 15383,
        "player_name": "amy morris",
        "rank": 10749,
        "rank_sort": 10749,
        "total": 2397
      },
      {
        "club_badge_src": null,
        "entry": 2308929,
        "entry_name": "Titus Shambles",
        "event_total": 75,
        "has_played": true,
        "id": 16469481,
        "last_rank": 20803,
        "player_name": "Chris Betts",
        "rank": 10750,
        "rank_sort": 10750,
        "total": 2397
      }
    ]
  }
}