{
  "last_updated_data": "2026-05-24T23:28:17Z",
  "league": {
    "admin_entry": null,
    "closed": false,
    "code_privacy": "p",
    "created": "2025-07-20T23:14:33.933835Z",
    "cup_league": 2815434,
    "has_cup": true,
    "id": 314,
    "league_type": "s",
    "max_entries": null,
    "name": "Overall",
    "rank": null,
    "scoring": "c",
    "start_event": 1
  },
  "new_entries": {
    "has_next": false,
    "page": 1,
    "results": []
  },
  "standings": {
    "has_next": true,
    "page": 1148,
    "results": [
      {
        "club_badge_src": null,
        "entry": 1145001,
        "entry_name": "Fulhams Finest",
        "event_total": 64,
        "has_played": true,
        "id": 7937533,
        "last_rank": 70985,
        "player_name": "Darren Finch",
        "rank": 57227,
        "rank_sort": 57351,
        "total": 2347
      },
      {
        "club_badge_src": null,
        "entry": 1165431,
        "entry_name": "Saka's invincibles",
        "event_total": 67,
        "has_played": true,
        "id": 8084518,
        "last_rank": 77050,
        "player_name": "Michael Rensen",
        "rank": 57227,
        "rank_sort": 57352,
        "total": 2347
      },
      {
        "club_badge_src": null,
        "entry": 1166208,
        "entry_name": "Burj Khalifa Ballers",
        "event_total": 57,
        "has_played": true,
        "id": 8089914,
        "last_rank": 58071,
        "player_name": "Karim Elsharkawi",
        "rank": 57227,
        "rank_sort": 57353,
        "total": 2347
      },
      {
        "club_badge_src": null,
        "entry": 1203849,
        "entry_name": "The Candy Flippers",
        "event_total": 61,
        "has_played": true,
        "id": 8354204,
        "last_rank": 65163,
        "player_name": "Aram Koedood",
        "rank": 57227,
        "rank_sort": 57354,
        "total": 2347
      },
      {
        "club_badge_src": null,
        "entry": 1206998,
        "entry_name": "Viktor Gluckores",
        "event_total": 55,
        "has_played": true,
        "id": 8376440,
        "last_rank": 54667,
        "player_name": "Cameron Utton",
        "rank": 57227,
        "rank_sort": 57355,
        "total": 2347
      },
      {
        "club_badge_src": null,
        "entry": 1227325,
        "entry_name": "On the Shane Longue",
        "event_total": 70,
        "has_played": true,
        "id": 8522044,
        "last_rank": 83934,
        "player_name": "Charlie Beveridge",
        "rank": 57227,
        "rank_sort": 57356,
        "total": 2347
      },
      {
        "club_badge_src": null,
        "entry": 1263065,
        "entry_name": "Bowen 747",
        "event_total": 54,
        "has_played": true,
        "id": 8775804,
        "last_rank": 52853,
        "player_name": "Chris Sansome",
        "rank": 57227,
        "rank_sort": 57357,
        "total": 2347
      },
      {
        "club_badge_src": "https://fantasy.premierleague.com/gcs/plfpl-production-adobe-approved/plfpl-production/1271879/b4fc9ab8-87a1-4a57-a1b3-142e7ec62885.png",
        "entry": 1271879,
        "entry_name": "Badger FC",
        "event_total": 49,
        "has_played": true,
        "id": 8837436,
        "last_rank": 45252,
        "player_name": "Jack Driver",
        "rank": 57227,
        "rank_sort": 57358,
        "total": 2347
      },
      {
        "club_badge_src": null,
        "entry": 1285167,
        "entry_name": "Bowen 747",
        "event_total": 67,
        "has_played": true,
        "id": 8930189,
        "last_rank": 77258,
        "player_name": "Dan Williamson",
        "rank": 57227,
        "rank_sort": 57359,
        "total": 2347
      },
      {
        "club_badge_src": null,
        "entry": 1310874,
        "entry_name": "Palmer Chameleon",
        "event_total": 66,
        "has_played": true,
        "id": 9111670,
        "last_rank": 74898,
        "player_name": "Max Bramble",
        "rank": 57227,
        "rank_sort": 57360,
        "total": 2347
      },
      {
        "club_badge_src": null,
        "entry": 1319442,
        "entry_name": "i love ass 3.0",
        "event_total": 47,
        "has_played": true,
        "id": 9171078,
        "last_rank": 42940,
        "player_name": "Nana Boachie",
        "rank": 57227,
        "rank_sort": 57361,
        "total": 2347
      },
      {
        "club_badge_src": null,
        "entry": 1332973,
        "entry_name": "Kotbinho",
        "event_total": 57,
        "has_played": true,
        "id": 9265020,
        "last_rank": 58071,
        "player_name": "Palestine --",
        "rank": 57227,
        "rank_sort": 57362,
        "total": 2347
      },
      {
        "club_badge_src": null,
        "entry": 1346617,
        "entry_name": "Tofts Tigers",
        "event_total": 64,
        "has_played": true,
        "id": 9362154,
        "last_rank": 70985,
        "player_name": "Will Tofts",
        "rank": 57227,
        "rank_sort": 57363,
        "total": 2347
      },
      {
        "club_badge_src": null,
        "entry": 1355264,
        "entry_name": "United in Midtable",
        "event_total": 50,
        "has_played": true,
        "id": 9420971,
        "last_rank": 46660,
        "player_name": "Idris Oyebamiji",
        "rank": 57227,
        "rank_sort": 57364,
        "total": 2347
      },
      {
        "club_badge_src": "https://fantasy.premierleague.com/gcs/plfpl-production-adobe-approved/plfpl-production/1355796/3641a239-0768-433d-8a29-e8b4139aa09e.png",
        "entry": 1355796,
        "entry_name": "Eee3 fc",
        "event_total": 58,
        "has_played": true,
        "id": 9424540,
        "last_rank": 59632,
        "player_name": "Ebuka Eze",
        "rank": 57227,
        "rank_sort": 57365,
        "total": 2347
      },
      {
        "club_badge_src": null,
        "entry": 1365457,
        "entry_name": "Alibaba",
        "event_total": 60,
        "has_played": true,
        "id": 9492141,
        "last_rank": 63390,
        "player_name": "Kian Meng Tan",
        "rank": 57227,
        "rank_sort": 57366,
        "total": 2347
      },
      {
        "club_badge_src": "https://fantasy.premierleague.com/gcs/plfpl-production-adobe-approved/plfpl-production/1418520/2cb42e1f-c259-4eed-a111-09d9247c2ae3.png",
        "entry": 1418520,
        "entry_name": "MIKI",
        "event_total": 54,
        "has_played": true,
        "id": 9876596,
        "last_rank": 53023,
        "player_name": "Miki B",
        "rank": 57227,
        "rank_sort": 57367,
        "total": 2347
      },
      {
        "club_badge_src": null,
        "entry": 1432594,
        "entry_name": "Saka White Rice",
        "event_total": 45,
        "has_played": true,
        "id": 9982434,
        "last_rank": 40297,
        "player_name": "James Thompson",
        "rank": 57227,
        "rank_sort": 57368,
        "total": 2347
      },
      {
        "club_badge_src": null,
        "entry": 1467238,
        "entry_name": "Delaynomore",
        "event_total": 50,
        "has_played": true,
        "id": 10227331,
        "last_rank": 47163,
        "player_name": "William Wong",
        "rank": 57227,
        "rank_sort": 57369,
        "total": 2347
      },
      {
        "club_badge_src": null,
        "entry": 1479118,
        "entry_name": "UchiwaFC",
        "event_total": 42,
        "has_played": true,
        "id": 10313470,
        "last_rank": 36200,
        "player_name": "Alex Anto",
        "rank": 57227,
        "rank_sort": 57370,
        "total": 2347
      },
      {
        "club_badge_src": null,
        "entry": 1493049,
        "entry_name": "Vardy Party FC",
        "event_total": 61,
        "has_played": true,
        "id": 10411966,
        "last_rank": 65163,
        "player_name": "Jovan Vong",
        "rank": 57227,
        "rank_sort": 57371,
        "total": 2347
      },
      {
        "club_badge_src": null,
        "entry": 1531804,
        "entry_name": "Salah we dance",
        "event_total": 75,
        "has_played": true,
        "id": 10689502,
        "last_rank": 95436,
        "player_name": "Jerian Woo",
        "rank": 57227,
        "rank_sort": 57372,
        "total": 2347
      },
      {
        "club_badge_src": null,
        "entry": 1543676,
        "entry_name": "Nauge",
        "event_total": 32,
        "has_played": true,
        "id": 10774942,
        "last_rank": 25902,
        "player_name": "Mohammed Al-Awadi",
        "rank": 57227,
        "rank_sort": 57373,
        "total": 2347
      },
      {
        "club_badge_src": null,
        "entry": 1553325,
        "entry_name": "FC Jesus Crouch",
        "event_total": 49,
        "has_played": true,
        "id": 10845681,
        "last_rank": 45252,
        "player_name": "anton friedmann",
        "rank": 57227,
        "rank_sort": 57374,
        "total": 2347
      },
      {
        "club_badge_src": null,
        "entry": 1583805,
        "entry_name": "FC Yeeboi",
        "event_total": 59,
        "has_played": true,
        "id": 11069330,
        "last_rank": 61315,
        "player_name": "Nige Yee",
        "rank": 57227,
        "rank_sort": 57375,
        "total": 2347
      },
      {
        "club_badge_src": "https://fantasy.premierleague.com/gcs/plfpl-production-adobe-approved/plfpl-production/1592307/4756551e-0b0b-40d3-aeb4-b2c7c997971d.png",
        "entry": 1592307,
        "entry_name": "Slot's Machine",
        "event_total": 65,
        "has_played": true,
        "id": 11133943,
        "last_rank": 73038,
        "player_name": "Matthew Halliday",
        "rank": 57227,
        "rank_sort": 57376,
        "total": 2347
      },
      {
        "club_badge_src": null,
        "entry": 1615307,
        "entry_name": "Skeens",
        "event_total": 67,
        "has_played": true,
        "id": 11302565,
        "last_rank": 77258,
        "player_name": "William Doyle",
        "rank": 57227,
        "rank_sort": 57377,
        "total": 2347
      },
      {
        "club_badge_src": null,
        "entry": 1646026,
        "entry_name": "The Intrepids",
        "event_total": 50,
        "has_played": true,
        "id": 11522384,
        "last_rank": 46839,
        "player_name": "Mike White",
        "rank": 57227,
        "rank_sort": 57378,
        "total": 2347
      },
      {
        "club_badge_src": null,
        "entry": 1674339,
        "entry_name": "Graham FC",
        "event_total": 62,
        "has_played": true,
        "id": 11722180,
        "last_rank": 66848,
        "player_name": "Graham Evelyn",
        "rank": 57227,
        "rank_sort": 57379,
        "total": 2347
      },
      {
        "club_badge_src": "https://fantasy.premierleague.com/gcs/plfpl-production-adobe-approved/plfpl-production/1692918/3575f986-a3fc-404e-8f15-52f01fbd1e88.png",
        "entry": 1692918,
        "entry_name": "Leeds Redbull Carajo",
        "event_total": 64,
        "has_played": true,
        "id": 11856584,
        "last_rank": 70757,
        "player_name": "Fan Feng",
        "rank": 57227,
        "rank_sort": 57380,
        "total": 2347
      },
      {
        "club_badge_src": null,
        "entry": 1704509,
        "entry_name": "Misery Business",
        "event_total": 58,
        "has_played": true,
        "id": 11940566,
        "last_rank": 59535,
        "player_name": "Lindsey Maw",
        "rank": 57227,
        "rank_sort": 57381,
        "total": 2347
      },
      {
        "club_badge_src": null,
        "entry": 1742643,
        "entry_name": "Wirtz case scenario",
        "event_total": 69,
        "has_played": true,
        "id": 12227426,
        "last_rank": 81312,
        "player_name": "Aditya Koolwal",
        "rank": 57227,
        "rank_sort": 57382,
        "total": 2347
      },
      {
        "club_badge_src": "https://fantasy.premierleague.com/gcs/plfpl-production-adobe-approved/plfpl-production/1808303/e53460a1-b6cf-42f3-9d03-2d32de857a97.png",
        "entry": 1808303,
        "entry_name": "Couldn't get Wirtz",
        "event_total": 61,
        "has_played": true,
        "id": 12713264,
        "last_rank": 65163,
        "player_name": "Nick Shields",
        "rank": 57227,
        "rank_sort": 57383,
        "total": 2347
      },
      {
        "club_badge_src": null,
        "entry": 1819675,
        "entry_name": "yasser fc",
        "event_total": 64,
        "has_played": true,
        "id": 12796955,
        "last_rank": 70757,
        "player_name": "Yasser Ahmed",
        "rank": 57227,
        "rank_sort": 57384,
        "total": 2347
      },
      {
        "club_badge_src": "https://fantasy.premierleague.com/gcs/plfpl-production-adobe-approved/plfpl-production/1838683/aa8e34fe-0a1b-4392-b1fb-e9f8f7317592.png",
        "entry": 1838683,
        "entry_name": "Dunk your Busquets",
        "event_total": 49,
        "has_played": true,
        "id": 12935592,
        "last_rank": 45714,
        "player_name": "Dan Horobin",
        "rank": 57227,
        "rank_sort": 57385,
        "total": 2347
      },
      {
        "club_badge_src": null,
        "entry": 1863608,
        "entry_name": "Iversen FC",
        "event_total": 60,
        "has_played": true,
        "id": 13117089,
        "last_rank": 63201,
        "player_name": "Stian Iversen",
        "rank": 57227,
        "rank_sort": 57386,
        "total": 2347
      },
      {
        "club_badge_src": null,
        "entry": 1896429,
        "entry_name": "Thor Thor Two",
        "event_total": 71,
        "has_played": true,
        "id": 13367146,
        "last_rank": 86735,
        "player_name": "Steven Budd",
        "rank": 57227,
        "rank_sort": 57387,
        "total": 2347
      },
      {
        "club_badge_src": "https://fantasy.premierleague.com/gcs/plfpl-production-adobe-approved/plfpl-production/1941817/8f6bf3cd-16c3-4102-a6b7-82729e12f41c.png",
        "entry": 1941817,
        "entry_name": "\u00d8degaarden Salad",
        "event_total": 65,
        "has_played": true,
        "id": 13696695,
        "last_rank": 73038,
        "player_name": "Arya Amin",
        "rank": 57227,
        "rank_sort": 57388,
        "total": 2347
      },
      {
        "club_badge_src": "https://fantasy.premierleague.com/gcs/plfpl-production-adobe-approved/plfpl-production/1950861/fef41084-eae5-4c5d-9e2f-ff9a3bc50782.png",
        "entry": 1950861,
        "entry_name": "Torta Pounders",
        "event_total": 68,
        "has_played": true,
        "id": 13761642,
        "last_rank": 79079,
        "player_name": "Mark Grzesiowski",
        "rank": 57227,
        "rank_sort": 57389,
        "total": 2347
      },
      {
        "club_badge_src": "https://fantasy.premierleague.com/gcs/plfpl-production-adobe-approved/plfpl-production/2029239/5dc90f29-9f43-428d-a24b-b1e4dea8a0aa.png",
        "entry": 2029239,
        "entry_name": "VAR da te vidi",
        "event_total": 57,
        "has_played": true,
        "id": 14366048,
        "last_rank": 58071,
        "player_name": "Tin Zupet",
        "rank": 57227,
        "rank_sort": 57390,
        "total": 2347
      },
      {
        "club_badge_src": null,
        "entry": 2030709,
        "entry_name": "Ekki Boltastr\u00e1kar",
        "event_total": 48,
        "has_played": true,
        "id": 14376681,
        "last_rank": 44048,
        "player_name": "Hinrik Haraldsson",
        "rank": 57227,
        "rank_sort": 57391,
        "total": 2347
      },
      {
        "club_badge_src": null,
        "entry": 2068455,
        "entry_name": "Baader-Meinhof",
        "event_total": 74,
        "has_played": true,
        "id": 14662245,
        "last_rank": 93052,
        "player_name": "Jason A Spence",
        "rank": 57227,
        "rank_sort": 57392,
        "total": 2347
      },
      {
        "club_badge_src": null,
        "entry": 2119263,
        "entry_name": "MMMMMM",
        "event_total": 73,
        "has_played": true,
        "id": 15053400,
        "last_rank": 91006,
        "player_name": "Ho Leung Li",
        "rank": 57227,
        "rank_sort": 57393,
        "total": 2347
      },
      {
        "club_badge_src": null,
        "entry": 2119416,
        "entry_name": "2 Peps 1 cup",
        "event_total": 66,
        "has_played": true,
        "id": 15054501,
        "last_rank": 75139,
        "player_name": "Jacob Rasmussen",
        "rank": 57227,
        "rank_sort": 57394,
        "total": 2347
      },
      {
        "club_badge_src": null,
        "entry": 2128581,
        "entry_name": "Jammys Boyz",
        "event_total": 47,
        "has_played": true,
        "id": 15124928,
        "last_rank": 42648,
        "player_name": "James Hanna",
        "rank": 57227,
        "rank_sort": 57395,
        "total": 2347
      },
      {
        "club_badge_src": null,
        "entry": 2242181,
        "entry_name": "Rajab barca",
        "event_total": 68,
        "has_played": true,
        "id": 15974025,
        "last_rank": 79190,
        "player_name": "Rajab Saud",
        "rank": 57227,
        "rank_sort": 57396,
        "total": 2347
      },
      {
        "club_badge_src": null,
        "entry": 2245519,
        "entry_name": "Oceangate\u2019s XI",
        "event_total": 75,
        "has_played": true,
        "id": 15998923,
        "last_rank": 95640,
        "player_name": "Ross Blair",
        "rank": 57227,
        "rank_sort": 57397,
        "total": 2347
      },
      {
        "club_badge_src": null,
        "entry": 2398439,
        "entry_name": "Wirtz of Wisdom",
        "event_total": 47,
        "has_played": true,
        "id": 17137063,
        "last_rank": 42506,
        "player_name": "Christiane Ward",
        "rank": 57227,
        "rank_sort": 57398,
        "total": 2347
      },
      {
        "club_badge_src": "https://fantasy.premierleague.com/gcs/plfpl-production-adobe-approved/plfpl-production/2430300/758978ab-8119-47ca-8563-39153909602d.png",
        "entry": 2430300,
        "entry_name": "Doomsters Gloomsters",
        "event_total": 48,
        "has_played": true,
        "id": 17378115,
        "last_rank": 44303,
        "player_name": "Martin Gilmour",
        "rank": 57227,
        "rank_sort": 57399,
        "total": 2347
      },
      {
        "club_badge_src": null,
        "entry": 2498742,
        "entry_name": "Tipptipptipp",
        "event_total": 59,
        "has_played": true,
        "id": 17890588,
        "last_rank": 61411,
        "player_name": "sean breen",
        "rank": 57227,
        "rank_sort": 57400,
        "total": 2347
      }
    ]
  }
}