{
  "last_updated_data": "2026-05-24T23:28:17Z",
  "league": {
    "admin_entry": null,
    "closed": false,
    "code_privacy": "p",
    "created": "2025-07-20T23:14:33.933835Z",
    "cup_league": 2815434,
    "has_cup": true,
    "id": 314,
    "league_type": "s",
    "max_entries": null,
    "name": "Overall",
    "rank": null,
    "scoring": "c",
    "start_event": 1
  },
  "new_entries": {
    "has_next": false,
    "page": 1,
    "results": []
  },
  "standings": {
    "has_next": true,
    "page": 1627,
    "results": [
      {
        "club_badge_src": null,
        "entry": 24876,
        "entry_name": "SONBODYFC",
        "event_total": 60,
        "has_played": true,
        "id": 157162,
        "last_rank": 89897,
        "player_name": "Abdel Rahman mohamed Abdel rahman",
        "rank": 81296,
        "rank_sort": 81301,
        "total": 2335
      },
      {
        "club_badge_src": null,
        "entry": 24978,
        "entry_name": "FPLsibiru",
        "event_total": 56,
        "has_played": true,
        "id": 157845,
        "last_rank": 80781,
        "player_name": "Aulia Afrianshah",
        "rank": 81296,
        "rank_sort": 81302,
        "total": 2335
      },
      {
        "club_badge_src": null,
        "entry": 45897,
        "entry_name": "Kamada Dragons",
        "event_total": 56,
        "has_played": true,
        "id": 294377,
        "last_rank": 72145,
        "player_name": "Tom Pullinger",
        "rank": 81296,
        "rank_sort": 81303,
        "total": 2335
      },
      {
        "club_badge_src": "https://fantasy.premierleague.com/gcs/plfpl-production-adobe-approved/plfpl-production/52651/94dbb418-0b91-49c1-8d28-da12f3d7b5dc.png",
        "entry": 52651,
        "entry_name": "Obi Wan-Bissaka",
        "event_total": 61,
        "has_played": true,
        "id": 338560,
        "last_rank": 82873,
        "player_name": "Alex Keenan",
        "rank": 81296,
        "rank_sort": 81304,
        "total": 2335
      },
      {
        "club_badge_src": null,
        "entry": 81923,
        "entry_name": "Mulh\u00f8jlund Drive",
        "event_total": 71,
        "has_played": true,
        "id": 532976,
        "last_rank": 107702,
        "player_name": "Matthew Jones",
        "rank": 81296,
        "rank_sort": 81305,
        "total": 2335
      },
      {
        "club_badge_src": "https://fantasy.premierleague.com/gcs/plfpl-production-adobe-approved/plfpl-production/88823/c9ab8b2f-19d8-453d-8c56-ec463b522e02.png",
        "entry": 88823,
        "entry_name": "Wirtz So Good",
        "event_total": 61,
        "has_played": true,
        "id": 579744,
        "last_rank": 92471,
        "player_name": "Pedro P",
        "rank": 81296,
        "rank_sort": 81306,
        "total": 2335
      },
      {
        "club_badge_src": null,
        "entry": 97605,
        "entry_name": "Gil FC",
        "event_total": 61,
        "has_played": true,
        "id": 637485,
        "last_rank": 82664,
        "player_name": "Insert Name Here",
        "rank": 81296,
        "rank_sort": 81307,
        "total": 2335
      },
      {
        "club_badge_src": null,
        "entry": 104652,
        "entry_name": "Viking Mode: ON",
        "event_total": 65,
        "has_played": true,
        "id": 682649,
        "last_rank": 102125,
        "player_name": "Eslam Ashour",
        "rank": 81296,
        "rank_sort": 81308,
        "total": 2335
      },
      {
        "club_badge_src": "https://fantasy.premierleague.com/gcs/plfpl-production-adobe-approved/plfpl-production/107207/f73f851b-aa07-408e-943f-0cfdc92244e0.png",
        "entry": 107207,
        "entry_name": "Wingardium Leviosa",
        "event_total": 64,
        "has_played": true,
        "id": 698872,
        "last_rank": 99296,
        "player_name": "So Pyay Thit Lwin",
        "rank": 81296,
        "rank_sort": 81309,
        "total": 2335
      },
      {
        "club_badge_src": null,
        "entry": 121543,
        "entry_name": "GANNERS",
        "event_total": 82,
        "has_played": true,
        "id": 793030,
        "last_rank": 141115,
        "player_name": "MOHAMED SEDIG",
        "rank": 81296,
        "rank_sort": 81310,
        "total": 2335
      },
      {
        "club_badge_src": null,
        "entry": 155042,
        "entry_name": "Theoretical Trouble",
        "event_total": 50,
        "has_played": true,
        "id": 1018746,
        "last_rank": 60827,
        "player_name": "Raymond Lund",
        "rank": 81296,
        "rank_sort": 81311,
        "total": 2335
      },
      {
        "club_badge_src": null,
        "entry": 160444,
        "entry_name": "coq sportif",
        "event_total": 56,
        "has_played": true,
        "id": 1056529,
        "last_rank": 80781,
        "player_name": "Mark Woodward",
        "rank": 81296,
        "rank_sort": 81312,
        "total": 2335
      },
      {
        "club_badge_src": null,
        "entry": 211781,
        "entry_name": "Odegaarden Partey",
        "event_total": 58,
        "has_played": true,
        "id": 1408689,
        "last_rank": 85349,
        "player_name": "Ryan Unsworth",
        "rank": 81296,
        "rank_sort": 81313,
        "total": 2335
      },
      {
        "club_badge_src": "https://fantasy.premierleague.com/gcs/plfpl-production-adobe-approved/plfpl-production/260675/cdf72a48-f12a-4949-a0c2-bbb962573f60.png",
        "entry": 260675,
        "entry_name": "Nothwick Rangers",
        "event_total": 64,
        "has_played": true,
        "id": 1732869,
        "last_rank": 99959,
        "player_name": "Cyrus Bhojwani",
        "rank": 81296,
        "rank_sort": 81314,
        "total": 2335
      },
      {
        "club_badge_src": "https://fantasy.premierleague.com/gcs/plfpl-production-adobe-approved/plfpl-production/267678/143b6835-3952-4951-b362-977b7e7231b4.png",
        "entry": 267678,
        "entry_name": "Onana Wirtz Mane",
        "event_total": 69,
        "has_played": true,
        "id": 1780733,
        "last_rank": 113223,
        "player_name": "Liam Llewellyn",
        "rank": 81296,
        "rank_sort": 81315,
        "total": 2335
      },
      {
        "club_badge_src": null,
        "entry": 337602,
        "entry_name": ",",
        "event_total": 70,
        "has_played": true,
        "id": 2260146,
        "last_rank": 116017,
        "player_name": "^ ^",
        "rank": 81296,
        "rank_sort": 81316,
        "total": 2335
      },
      {
        "club_badge_src": null,
        "entry": 373913,
        "entry_name": "Josep Sayediola",
        "event_total": 71,
        "has_played": true,
        "id": 2501913,
        "last_rank": 118946,
        "player_name": "youssof Elsayed",
        "rank": 81296,
        "rank_sort": 81317,
        "total": 2335
      },
      {
        "club_badge_src": "https://fantasy.premierleague.com/gcs/plfpl-production-adobe-approved/plfpl-production/447467/6f1016d3-1ed2-44fb-8842-b9f3ab426b8a.png",
        "entry": 447467,
        "entry_name": "NashVegas FC",
        "event_total": 63,
        "has_played": true,
        "id": 3001595,
        "last_rank": 87541,
        "player_name": "Goran Kralj",
        "rank": 81296,
        "rank_sort": 81318,
        "total": 2335
      },
      {
        "club_badge_src": null,
        "entry": 516096,
        "entry_name": "Tony Macaroni",
        "event_total": 51,
        "has_played": true,
        "id": 3464989,
        "last_rank": 70183,
        "player_name": "Tony Lawson",
        "rank": 81296,
        "rank_sort": 81319,
        "total": 2335
      },
      {
        "club_badge_src": null,
        "entry": 556293,
        "entry_name": "Haters",
        "event_total": 62,
        "has_played": true,
        "id": 3743892,
        "last_rank": 85207,
        "player_name": "Adam Fekecs",
        "rank": 81296,
        "rank_sort": 81320,
        "total": 2335
      },
      {
        "club_badge_src": null,
        "entry": 588988,
        "entry_name": "Too Eze",
        "event_total": 55,
        "has_played": true,
        "id": 3966603,
        "last_rank": 70072,
        "player_name": "Mikkel Mo",
        "rank": 81296,
        "rank_sort": 81321,
        "total": 2335
      },
      {
        "club_badge_src": "https://fantasy.premierleague.com/gcs/plfpl-production-adobe-approved/plfpl-production/628724/43c1f096-945a-4e92-8fcb-fca5efb4ef29.png",
        "entry": 628724,
        "entry_name": "Manor Ridge FC",
        "event_total": 58,
        "has_played": true,
        "id": 4248620,
        "last_rank": 85349,
        "player_name": "Terry Linhart",
        "rank": 81296,
        "rank_sort": 81322,
        "total": 2335
      },
      {
        "club_badge_src": null,
        "entry": 649261,
        "entry_name": "MAN U & I",
        "event_total": 53,
        "has_played": true,
        "id": 4387883,
        "last_rank": 74317,
        "player_name": "Imran Ibrahim",
        "rank": 81296,
        "rank_sort": 81323,
        "total": 2335
      },
      {
        "club_badge_src": null,
        "entry": 660792,
        "entry_name": "Enter Team Name",
        "event_total": 59,
        "has_played": true,
        "id": 4465942,
        "last_rank": 87541,
        "player_name": "Abigail D",
        "rank": 81296,
        "rank_sort": 81324,
        "total": 2335
      },
      {
        "club_badge_src": null,
        "entry": 775396,
        "entry_name": "COCO F.C",
        "event_total": 60,
        "has_played": true,
        "id": 5290549,
        "last_rank": 90057,
        "player_name": "Stig Runar \u00c5modt Olsen",
        "rank": 81296,
        "rank_sort": 81325,
        "total": 2335
      },
      {
        "club_badge_src": null,
        "entry": 820616,
        "entry_name": "Your Wirtz Nightmare",
        "event_total": 52,
        "has_played": true,
        "id": 5620145,
        "last_rank": 72145,
        "player_name": "Marius Svendsen",
        "rank": 81296,
        "rank_sort": 81326,
        "total": 2335
      },
      {
        "club_badge_src": null,
        "entry": 852413,
        "entry_name": "\u0646\u0643\u0648\u0646 \u0627\u0648 \u0644\u0627 \u0646\u0643\u0648\u0646",
        "event_total": 51,
        "has_played": true,
        "id": 5842739,
        "last_rank": 70183,
        "player_name": "HISHAM ALQADHIBI",
        "rank": 81296,
        "rank_sort": 81327,
        "total": 2335
      },
      {
        "club_badge_src": "https://fantasy.premierleague.com/gcs/plfpl-production-adobe-approved/plfpl-production/926156/09dd2969-d50d-4a96-97bb-3428860f27d1.png",
        "entry": 926156,
        "entry_name": "YallaYalla",
        "event_total": 58,
        "has_played": true,
        "id": 6371556,
        "last_rank": 67926,
        "player_name": "Sagi Korenfeld",
        "rank": 81296,
        "rank_sort": 81328,
        "total": 2335
      },
      {
        "club_badge_src": null,
        "entry": 973928,
        "entry_name": "Yalcouyes",
        "event_total": 50,
        "has_played": true,
        "id": 6713649,
        "last_rank": 60827,
        "player_name": "Ville Bernving",
        "rank": 81296,
        "rank_sort": 81329,
        "total": 2335
      },
      {
        "club_badge_src": null,
        "entry": 1022657,
        "entry_name": "SnOgbonna",
        "event_total": 64,
        "has_played": true,
        "id": 7075334,
        "last_rank": 99959,
        "player_name": "Chris Baker",
        "rank": 81296,
        "rank_sort": 81330,
        "total": 2335
      },
      {
        "club_badge_src": null,
        "entry": 1107799,
        "entry_name": "Woody's Wonders",
        "event_total": 59,
        "has_played": true,
        "id": 7673304,
        "last_rank": 78440,
        "player_name": "Anthony Woodbine",
        "rank": 81296,
        "rank_sort": 81331,
        "total": 2335
      },
      {
        "club_badge_src": "https://fantasy.premierleague.com/gcs/plfpl-production-adobe-approved/plfpl-production/1151720/c8979983-4171-4bc1-bb55-906944e3e966.png",
        "entry": 1151720,
        "entry_name": "Polepark Pantherz",
        "event_total": 67,
        "has_played": true,
        "id": 7985578,
        "last_rank": 107995,
        "player_name": "Leroy Kasani",
        "rank": 81296,
        "rank_sort": 81332,
        "total": 2335
      },
      {
        "club_badge_src": null,
        "entry": 1231821,
        "entry_name": "Black Angles",
        "event_total": 61,
        "has_played": true,
        "id": 8553728,
        "last_rank": 92471,
        "player_name": "Radoslaw Sklodowski",
        "rank": 81296,
        "rank_sort": 81333,
        "total": 2335
      },
      {
        "club_badge_src": "https://fantasy.premierleague.com/gcs/plfpl-production-adobe-approved/plfpl-production/1271349/d6d6b811-564f-4c23-8b95-33a83920b2b4.png",
        "entry": 1271349,
        "entry_name": "Onana's in Pyjamas",
        "event_total": 53,
        "has_played": true,
        "id": 8833714,
        "last_rank": 74317,
        "player_name": "Sam Rylance",
        "rank": 81296,
        "rank_sort": 81334,
        "total": 2335
      },
      {
        "club_badge_src": "https://fantasy.premierleague.com/gcs/plfpl-production-adobe-approved/plfpl-production/1314133/9ef107e3-e923-4565-b180-ad9554d6f570.png",
        "entry": 1314133,
        "entry_name": "Bacon Sane",
        "event_total": 57,
        "has_played": true,
        "id": 9134002,
        "last_rank": 83018,
        "player_name": "Matt Brand",
        "rank": 81296,
        "rank_sort": 81335,
        "total": 2335
      },
      {
        "club_badge_src": null,
        "entry": 1463090,
        "entry_name": "Kobbie and paste",
        "event_total": 44,
        "has_played": true,
        "id": 10198383,
        "last_rank": 57451,
        "player_name": "vexx 1",
        "rank": 81296,
        "rank_sort": 81336,
        "total": 2335
      },
      {
        "club_badge_src": null,
        "entry": 1485343,
        "entry_name": "Quack",
        "event_total": 64,
        "has_played": true,
        "id": 10357930,
        "last_rank": 99959,
        "player_name": "David Falsey",
        "rank": 81296,
        "rank_sort": 81337,
        "total": 2335
      },
      {
        "club_badge_src": null,
        "entry": 1486984,
        "entry_name": "Dam Dogs",
        "event_total": 65,
        "has_played": true,
        "id": 10369426,
        "last_rank": 102501,
        "player_name": "Dale Murchie",
        "rank": 81296,
        "rank_sort": 81338,
        "total": 2335
      },
      {
        "club_badge_src": null,
        "entry": 1504500,
        "entry_name": "victor moses lawn",
        "event_total": 49,
        "has_played": true,
        "id": 10492546,
        "last_rank": 59077,
        "player_name": "Josh Sims",
        "rank": 81296,
        "rank_sort": 81339,
        "total": 2335
      },
      {
        "club_badge_src": "https://fantasy.premierleague.com/gcs/plfpl-production-adobe-approved/plfpl-production/1700088/f6a36d4f-79cf-4e46-81f0-5bdaabc1de55.png",
        "entry": 1700088,
        "entry_name": "Cibadax FC",
        "event_total": 67,
        "has_played": true,
        "id": 11908554,
        "last_rank": 87074,
        "player_name": "Hanintyo Hadiman",
        "rank": 81296,
        "rank_sort": 81340,
        "total": 2335
      },
      {
        "club_badge_src": null,
        "entry": 1880021,
        "entry_name": "Jambo Aeons",
        "event_total": 43,
        "has_played": true,
        "id": 13246185,
        "last_rank": 49207,
        "player_name": "Brian Booden",
        "rank": 81296,
        "rank_sort": 81341,
        "total": 2335
      },
      {
        "club_badge_src": null,
        "entry": 1905390,
        "entry_name": "DV",
        "event_total": 55,
        "has_played": true,
        "id": 13432446,
        "last_rank": 78575,
        "player_name": "Dinh Van",
        "rank": 81296,
        "rank_sort": 81342,
        "total": 2335
      },
      {
        "club_badge_src": null,
        "entry": 2001675,
        "entry_name": "AStar",
        "event_total": 28,
        "has_played": true,
        "id": 14151053,
        "last_rank": 34749,
        "player_name": "Farm Pecking",
        "rank": 81296,
        "rank_sort": 81343,
        "total": 2335
      },
      {
        "club_badge_src": null,
        "entry": 2006726,
        "entry_name": "Abo Ayla",
        "event_total": 74,
        "has_played": true,
        "id": 14188194,
        "last_rank": 128392,
        "player_name": "Abo Ayla",
        "rank": 81296,
        "rank_sort": 81344,
        "total": 2335
      },
      {
        "club_badge_src": null,
        "entry": 2285733,
        "entry_name": "Batch",
        "event_total": 42,
        "has_played": true,
        "id": 16300771,
        "last_rank": 47722,
        "player_name": "Graham Jackson",
        "rank": 81296,
        "rank_sort": 81345,
        "total": 2335
      },
      {
        "club_badge_src": null,
        "entry": 2334002,
        "entry_name": "A Steaming Pile",
        "event_total": 50,
        "has_played": true,
        "id": 16653324,
        "last_rank": 68216,
        "player_name": "Grant Manson",
        "rank": 81296,
        "rank_sort": 81346,
        "total": 2335
      },
      {
        "club_badge_src": null,
        "entry": 2364128,
        "entry_name": "Kfaraabida FC",
        "event_total": 60,
        "has_played": true,
        "id": 16874263,
        "last_rank": 89706,
        "player_name": "Boutros Salloum",
        "rank": 81296,
        "rank_sort": 81347,
        "total": 2335
      },
      {
        "club_badge_src": null,
        "entry": 2453627,
        "entry_name": "FiorenTina Turner",
        "event_total": 68,
        "has_played": true,
        "id": 17549552,
        "last_rank": 110573,
        "player_name": "Daniel Turner",
        "rank": 81296,
        "rank_sort": 81348,
        "total": 2335
      },
      {
        "club_badge_src": null,
        "entry": 2475014,
        "entry_name": "CHRIST IS KING FC",
        "event_total": 65,
        "has_played": true,
        "id": 17707618,
        "last_rank": 92332,
        "player_name": "Shadrach Dave",
        "rank": 81296,
        "rank_sort": 81349,
        "total": 2335
      },
      {
        "club_badge_src": null,
        "entry": 2577353,
        "entry_name": "The Mainoo Event",
        "event_total": 65,
        "has_played": true,
        "id": 18497161,
        "last_rank": 102501,
        "player_name": "Lucas Calvert",
        "rank": 81296,
        "rank_sort": 81350,
        "total": 2335
      }
    ]
  }
}