{
  "last_updated_data": "2026-05-24T23:28:17Z",
  "league": {
    "admin_entry": null,
    "closed": false,
    "code_privacy": "p",
    "created": "2025-07-20T23:14:33.933835Z",
    "cup_league": 2815434,
    "has_cup": true,
    "id": 314,
    "league_type": "s",
    "max_entries": null,
    "name": "Overall",
    "rank": null,
    "scoring": "c",
    "start_event": 1
  },
  "new_entries": {
    "has_next": false,
    "page": 1,
    "results": []
  },
  "standings": {
    "has_next": true,
    "page": 946,
    "results": [
      {
        "club_badge_src": null,
        "entry": 1470032,
        "entry_name": "Is She Gon pop",
        "event_total": 58,
        "has_played": true,
        "id": 10247040,
        "last_rank": 49078,
        "player_name": "Musa H",
        "rank": 47177,
        "rank_sort": 47251,
        "total": 2354
      },
      {
        "club_badge_src": "https://fantasy.premierleague.com/gcs/plfpl-production-adobe-approved/plfpl-production/1496465/3f2fb3bf-3a76-4906-ad26-5333ecb86bcb.png",
        "entry": 1496465,
        "entry_name": "Ipukulubiye FC",
        "event_total": 45,
        "has_played": true,
        "id": 10435853,
        "last_rank": 32335,
        "player_name": "Ibime Ayapripri Jack-Daniel",
        "rank": 47177,
        "rank_sort": 47252,
        "total": 2354
      },
      {
        "club_badge_src": "https://fantasy.premierleague.com/gcs/plfpl-production-adobe-approved/plfpl-production/1523304/2a2dc52b-c779-4e5c-bd92-902c160a9a6d.png",
        "entry": 1523304,
        "entry_name": "VictorMosesLawn",
        "event_total": 64,
        "has_played": true,
        "id": 10624523,
        "last_rank": 58911,
        "player_name": "Jack Shaw",
        "rank": 47177,
        "rank_sort": 47253,
        "total": 2354
      },
      {
        "club_badge_src": null,
        "entry": 1532302,
        "entry_name": "Cleyton Orient",
        "event_total": 61,
        "has_played": true,
        "id": 10693060,
        "last_rank": 41617,
        "player_name": "Clayton Collis",
        "rank": 47177,
        "rank_sort": 47254,
        "total": 2354
      },
      {
        "club_badge_src": null,
        "entry": 1532308,
        "entry_name": "Cant Get Any Wirtz",
        "event_total": 47,
        "has_played": true,
        "id": 10693107,
        "last_rank": 34578,
        "player_name": "Macauley Wright",
        "rank": 47177,
        "rank_sort": 47255,
        "total": 2354
      },
      {
        "club_badge_src": null,
        "entry": 1595432,
        "entry_name": "Egyptian club",
        "event_total": 52,
        "has_played": true,
        "id": 11160200,
        "last_rank": 40647,
        "player_name": "ahmed ghonim",
        "rank": 47177,
        "rank_sort": 47256,
        "total": 2354
      },
      {
        "club_badge_src": null,
        "entry": 1626144,
        "entry_name": "Bovje United",
        "event_total": 68,
        "has_played": true,
        "id": 11381896,
        "last_rank": 58688,
        "player_name": "Bodie Oude Veldhuis",
        "rank": 47177,
        "rank_sort": 47257,
        "total": 2354
      },
      {
        "club_badge_src": null,
        "entry": 1635259,
        "entry_name": "AprilBackbone",
        "event_total": 41,
        "has_played": true,
        "id": 11446111,
        "last_rank": 28273,
        "player_name": "Abdo Fathy",
        "rank": 47177,
        "rank_sort": 47258,
        "total": 2354
      },
      {
        "club_badge_src": null,
        "entry": 1713940,
        "entry_name": "Penshaw Spartans",
        "event_total": 58,
        "has_played": true,
        "id": 12009857,
        "last_rank": 49078,
        "player_name": "David Luke",
        "rank": 47177,
        "rank_sort": 47259,
        "total": 2354
      },
      {
        "club_badge_src": null,
        "entry": 1921216,
        "entry_name": "Mikeys Menaces",
        "event_total": 39,
        "has_played": true,
        "id": 13547525,
        "last_rank": 26345,
        "player_name": "Morgan Evans",
        "rank": 47177,
        "rank_sort": 47260,
        "total": 2354
      },
      {
        "club_badge_src": null,
        "entry": 1947985,
        "entry_name": "Beasts",
        "event_total": 53,
        "has_played": true,
        "id": 13740916,
        "last_rank": 41967,
        "player_name": "John Gakobo",
        "rank": 47177,
        "rank_sort": 47261,
        "total": 2354
      },
      {
        "club_badge_src": null,
        "entry": 1973646,
        "entry_name": "Brook CF",
        "event_total": 61,
        "has_played": true,
        "id": 13930691,
        "last_rank": 53837,
        "player_name": "Liam Brook",
        "rank": 47177,
        "rank_sort": 47262,
        "total": 2354
      },
      {
        "club_badge_src": null,
        "entry": 2110157,
        "entry_name": "Pep in my step",
        "event_total": 49,
        "has_played": true,
        "id": 14977631,
        "last_rank": 36963,
        "player_name": "Hamza Murtaza",
        "rank": 47177,
        "rank_sort": 47263,
        "total": 2354
      },
      {
        "club_badge_src": null,
        "entry": 2210731,
        "entry_name": "The Best Team",
        "event_total": 57,
        "has_played": true,
        "id": 15742508,
        "last_rank": 47596,
        "player_name": "Yassen Freag",
        "rank": 47177,
        "rank_sort": 47264,
        "total": 2354
      },
      {
        "club_badge_src": null,
        "entry": 2232489,
        "entry_name": "the Mighty Gulls",
        "event_total": 62,
        "has_played": true,
        "id": 15904302,
        "last_rank": 48898,
        "player_name": "Calle Clang",
        "rank": 47177,
        "rank_sort": 47265,
        "total": 2354
      },
      {
        "club_badge_src": null,
        "entry": 2276737,
        "entry_name": "opdahls11",
        "event_total": 58,
        "has_played": true,
        "id": 16235123,
        "last_rank": 49078,
        "player_name": "Sander Opdahl",
        "rank": 47177,
        "rank_sort": 47266,
        "total": 2354
      },
      {
        "club_badge_src": null,
        "entry": 2431372,
        "entry_name": "Village Landlord",
        "event_total": 78,
        "has_played": true,
        "id": 17385900,
        "last_rank": 87074,
        "player_name": "Jay Jay",
        "rank": 47177,
        "rank_sort": 47267,
        "total": 2354
      },
      {
        "club_badge_src": "https://fantasy.premierleague.com/gcs/plfpl-production-adobe-approved/plfpl-production/2549168/fc83cd37-4070-476d-b08b-840fd7cfd643.png",
        "entry": 2549168,
        "entry_name": "take it easy \ufffd",
        "event_total": 75,
        "has_played": true,
        "id": 18274003,
        "last_rank": 71713,
        "player_name": "Khaled Mohamed",
        "rank": 47177,
        "rank_sort": 47268,
        "total": 2354
      },
      {
        "club_badge_src": null,
        "entry": 2550017,
        "entry_name": "Part-time Golfers",
        "event_total": 61,
        "has_played": true,
        "id": 18280536,
        "last_rank": 53621,
        "player_name": "Tyson Stubbings",
        "rank": 47177,
        "rank_sort": 47269,
        "total": 2354
      },
      {
        "club_badge_src": null,
        "entry": 2700886,
        "entry_name": "Abo yahia",
        "event_total": 88,
        "has_played": true,
        "id": 19429580,
        "last_rank": 101419,
        "player_name": "\u0627\u062d\u0645\u062f \u0647\u0634\u0627\u0645",
        "rank": 47177,
        "rank_sort": 47270,
        "total": 2354
      },
      {
        "club_badge_src": null,
        "entry": 2757804,
        "entry_name": "Boleh88",
        "event_total": 61,
        "has_played": true,
        "id": 20106010,
        "last_rank": 41617,
        "player_name": "Luck88 88",
        "rank": 47177,
        "rank_sort": 47271,
        "total": 2354
      },
      {
        "club_badge_src": null,
        "entry": 2817431,
        "entry_name": "Sevilla Ortism",
        "event_total": 76,
        "has_played": true,
        "id": 20579284,
        "last_rank": 73720,
        "player_name": "Billy Clayton",
        "rank": 47177,
        "rank_sort": 47272,
        "total": 2354
      },
      {
        "club_badge_src": null,
        "entry": 3032651,
        "entry_name": "Corn On The Kobbie",
        "event_total": 80,
        "has_played": true,
        "id": 22317133,
        "last_rank": 82069,
        "player_name": "Luca O'Shea Breen",
        "rank": 47177,
        "rank_sort": 47273,
        "total": 2354
      },
      {
        "club_badge_src": null,
        "entry": 3033844,
        "entry_name": "FC Real Sosobad",
        "event_total": 58,
        "has_played": true,
        "id": 22326462,
        "last_rank": 49078,
        "player_name": "Luke Davy-Day",
        "rank": 47177,
        "rank_sort": 47274,
        "total": 2354
      },
      {
        "club_badge_src": null,
        "entry": 3129808,
        "entry_name": "Sarr Wars",
        "event_total": 64,
        "has_played": true,
        "id": 23100635,
        "last_rank": 58911,
        "player_name": "Oskar Solling",
        "rank": 47177,
        "rank_sort": 47275,
        "total": 2354
      },
      {
        "club_badge_src": null,
        "entry": 3150141,
        "entry_name": "Hotshot",
        "event_total": 60,
        "has_played": true,
        "id": 23261394,
        "last_rank": 52205,
        "player_name": "Jola Ogunlusi",
        "rank": 47177,
        "rank_sort": 47276,
        "total": 2354
      },
      {
        "club_badge_src": null,
        "entry": 3176775,
        "entry_name": "SK LVL",
        "event_total": 62,
        "has_played": true,
        "id": 23473576,
        "last_rank": 55014,
        "player_name": "Steve Kyalo",
        "rank": 47177,
        "rank_sort": 47277,
        "total": 2354
      },
      {
        "club_badge_src": null,
        "entry": 3293860,
        "entry_name": "Huttisquad",
        "event_total": 80,
        "has_played": true,
        "id": 24390487,
        "last_rank": 91006,
        "player_name": "TP Oksanen",
        "rank": 47177,
        "rank_sort": 47278,
        "total": 2354
      },
      {
        "club_badge_src": null,
        "entry": 3345434,
        "entry_name": "LLT FC",
        "event_total": 72,
        "has_played": true,
        "id": 24815815,
        "last_rank": 73975,
        "player_name": "Stewart Kershaw",
        "rank": 47177,
        "rank_sort": 47279,
        "total": 2354
      },
      {
        "club_badge_src": null,
        "entry": 3379569,
        "entry_name": "LA Carrington",
        "event_total": 67,
        "has_played": true,
        "id": 25085469,
        "last_rank": 63724,
        "player_name": "Hamz K",
        "rank": 47177,
        "rank_sort": 47280,
        "total": 2354
      },
      {
        "club_badge_src": null,
        "entry": 3435406,
        "entry_name": "Thomas The Tank 2.0",
        "event_total": 67,
        "has_played": true,
        "id": 25521320,
        "last_rank": 64190,
        "player_name": "Paul Maskell",
        "rank": 47177,
        "rank_sort": 47281,
        "total": 2354
      },
      {
        "club_badge_src": null,
        "entry": 3858103,
        "entry_name": "JJ's 11",
        "event_total": 71,
        "has_played": true,
        "id": 28925697,
        "last_rank": 71713,
        "player_name": "Jason Jones",
        "rank": 47177,
        "rank_sort": 47282,
        "total": 2354
      },
      {
        "club_badge_src": null,
        "entry": 3886986,
        "entry_name": "Davenham Hotwalker",
        "event_total": 47,
        "has_played": true,
        "id": 29208147,
        "last_rank": 34578,
        "player_name": "David Walker",
        "rank": 47177,
        "rank_sort": 47283,
        "total": 2354
      },
      {
        "club_badge_src": null,
        "entry": 3993953,
        "entry_name": "GoonersFC",
        "event_total": 66,
        "has_played": true,
        "id": 30076069,
        "last_rank": 62223,
        "player_name": "Zahid Ahmed",
        "rank": 47177,
        "rank_sort": 47284,
        "total": 2354
      },
      {
        "club_badge_src": null,
        "entry": 4007746,
        "entry_name": "AB FC",
        "event_total": 46,
        "has_played": true,
        "id": 30191281,
        "last_rank": 33582,
        "player_name": "Asmita Bakhrel",
        "rank": 47177,
        "rank_sort": 47285,
        "total": 2354
      },
      {
        "club_badge_src": null,
        "entry": 4016799,
        "entry_name": "Bear Case",
        "event_total": 59,
        "has_played": true,
        "id": 30270901,
        "last_rank": 50199,
        "player_name": "Mathus Manivannan",
        "rank": 47177,
        "rank_sort": 47286,
        "total": 2354
      },
      {
        "club_badge_src": null,
        "entry": 4055468,
        "entry_name": "\u0631\u0627\u0626\u062f \u0635\u0627\u0644\u062d",
        "event_total": 56,
        "has_played": true,
        "id": 30599440,
        "last_rank": 46106,
        "player_name": "Raed Saleh",
        "rank": 47177,
        "rank_sort": 47287,
        "total": 2354
      },
      {
        "club_badge_src": null,
        "entry": 4071406,
        "entry_name": "nem",
        "event_total": 57,
        "has_played": true,
        "id": 30730188,
        "last_rank": 47596,
        "player_name": "Luka Nicetic",
        "rank": 47177,
        "rank_sort": 47288,
        "total": 2354
      },
      {
        "club_badge_src": null,
        "entry": 4330295,
        "entry_name": "Eggybread fc",
        "event_total": 59,
        "has_played": true,
        "id": 32869335,
        "last_rank": 50635,
        "player_name": "Danny Pearce",
        "rank": 47177,
        "rank_sort": 47289,
        "total": 2354
      },
      {
        "club_badge_src": null,
        "entry": 4382283,
        "entry_name": "Hacunha Matata",
        "event_total": 64,
        "has_played": true,
        "id": 33305798,
        "last_rank": 51984,
        "player_name": "Ronnie Caskey",
        "rank": 47177,
        "rank_sort": 47290,
        "total": 2354
      },
      {
        "club_badge_src": null,
        "entry": 4433943,
        "entry_name": "Mohab",
        "event_total": 75,
        "has_played": true,
        "id": 33758629,
        "last_rank": 80465,
        "player_name": "Mohab Elghamry",
        "rank": 47177,
        "rank_sort": 47291,
        "total": 2354
      },
      {
        "club_badge_src": null,
        "entry": 4486458,
        "entry_name": "boayed",
        "event_total": 68,
        "has_played": true,
        "id": 34195976,
        "last_rank": 66057,
        "player_name": "Mohammad Alshammari",
        "rank": 47177,
        "rank_sort": 47292,
        "total": 2354
      },
      {
        "club_badge_src": null,
        "entry": 4562092,
        "entry_name": "wc26",
        "event_total": 80,
        "has_played": true,
        "id": 34812563,
        "last_rank": 91835,
        "player_name": "Kislay Jha",
        "rank": 47177,
        "rank_sort": 47293,
        "total": 2354
      },
      {
        "club_badge_src": null,
        "entry": 4578807,
        "entry_name": "dredevil",
        "event_total": 52,
        "has_played": true,
        "id": 34952541,
        "last_rank": 40647,
        "player_name": "Ben Teoh",
        "rank": 47177,
        "rank_sort": 47294,
        "total": 2354
      },
      {
        "club_badge_src": null,
        "entry": 4729367,
        "entry_name": "FCCA",
        "event_total": 66,
        "has_played": true,
        "id": 36370782,
        "last_rank": 62223,
        "player_name": "Guillaume Panizza",
        "rank": 47177,
        "rank_sort": 47295,
        "total": 2354
      },
      {
        "club_badge_src": null,
        "entry": 4834127,
        "entry_name": "Gowertasaray",
        "event_total": 56,
        "has_played": true,
        "id": 37234872,
        "last_rank": 40297,
        "player_name": "Nick Gower",
        "rank": 47177,
        "rank_sort": 47296,
        "total": 2354
      },
      {
        "club_badge_src": null,
        "entry": 5057090,
        "entry_name": "Emile Smith Joe",
        "event_total": 67,
        "has_played": true,
        "id": 39075726,
        "last_rank": 63724,
        "player_name": "Joseph Coburn",
        "rank": 47177,
        "rank_sort": 47297,
        "total": 2354
      },
      {
        "club_badge_src": null,
        "entry": 5511903,
        "entry_name": "Rice Beer Syndicate",
        "event_total": 72,
        "has_played": true,
        "id": 42964442,
        "last_rank": 73720,
        "player_name": "Rajiv Rabha",
        "rank": 47177,
        "rank_sort": 47298,
        "total": 2354
      },
      {
        "club_badge_src": null,
        "entry": 5542816,
        "entry_name": "Neville Wears Prada",
        "event_total": 60,
        "has_played": true,
        "id": 43251967,
        "last_rank": 45714,
        "player_name": "Josh Bull",
        "rank": 47177,
        "rank_sort": 47299,
        "total": 2354
      },
      {
        "club_badge_src": null,
        "entry": 5689167,
        "entry_name": "Hard FC",
        "event_total": 61,
        "has_played": true,
        "id": 44534982,
        "last_rank": 53837,
        "player_name": "T Hardian Cahyadi",
        "rank": 47177,
        "rank_sort": 47300,
        "total": 2354
      }
    ]
  }
}