{
  "last_updated_data": "2026-05-24T23:28:17Z",
  "league": {
    "admin_entry": null,
    "closed": false,
    "code_privacy": "p",
    "created": "2025-07-20T23:14:33.933835Z",
    "cup_league": 2815434,
    "has_cup": true,
    "id": 314,
    "league_type": "s",
    "max_entries": null,
    "name": "Overall",
    "rank": null,
    "scoring": "c",
    "start_event": 1
  },
  "new_entries": {
    "has_next": false,
    "page": 1,
    "results": []
  },
  "standings": {
    "has_next": true,
    "page": 1272,
    "results": [
      {
        "club_badge_src": null,
        "entry": 260781,
        "entry_name": "Boom xhakalaka",
        "event_total": 55,
        "has_played": true,
        "id": 1733524,
        "last_rank": 60827,
        "player_name": "Rufus Hemsley",
        "rank": 63533,
        "rank_sort": 63551,
        "total": 2344
      },
      {
        "club_badge_src": null,
        "entry": 262981,
        "entry_name": "KrwawyBaron",
        "event_total": 51,
        "has_played": true,
        "id": 1748466,
        "last_rank": 53952,
        "player_name": "Darek Far",
        "rank": 63533,
        "rank_sort": 63552,
        "total": 2344
      },
      {
        "club_badge_src": null,
        "entry": 294776,
        "entry_name": "Jel A Galaxy",
        "event_total": 53,
        "has_played": true,
        "id": 1968461,
        "last_rank": 44525,
        "player_name": "Andrew Parkhouse",
        "rank": 63533,
        "rank_sort": 63553,
        "total": 2344
      },
      {
        "club_badge_src": null,
        "entry": 313407,
        "entry_name": "Kobbie Doo",
        "event_total": 67,
        "has_played": true,
        "id": 2099874,
        "last_rank": 85207,
        "player_name": "Vilgot Carlsson",
        "rank": 63533,
        "rank_sort": 63554,
        "total": 2344
      },
      {
        "club_badge_src": null,
        "entry": 320207,
        "entry_name": "One trick ponies",
        "event_total": 44,
        "has_played": true,
        "id": 2146235,
        "last_rank": 43444,
        "player_name": "mark fuller",
        "rank": 63533,
        "rank_sort": 63555,
        "total": 2344
      },
      {
        "club_badge_src": null,
        "entry": 328015,
        "entry_name": "Redeemed",
        "event_total": 69,
        "has_played": true,
        "id": 2197534,
        "last_rank": 80194,
        "player_name": "John Payne",
        "rank": 63533,
        "rank_sort": 63556,
        "total": 2344
      },
      {
        "club_badge_src": null,
        "entry": 423978,
        "entry_name": "I'lltakeahumble1st",
        "event_total": 50,
        "has_played": true,
        "id": 2841559,
        "last_rank": 52357,
        "player_name": "Nitty John",
        "rank": 63533,
        "rank_sort": 63557,
        "total": 2344
      },
      {
        "club_badge_src": null,
        "entry": 430694,
        "entry_name": "Iron Man",
        "event_total": 56,
        "has_played": true,
        "id": 2888592,
        "last_rank": 55311,
        "player_name": "Tony Stark",
        "rank": 63533,
        "rank_sort": 63558,
        "total": 2344
      },
      {
        "club_badge_src": null,
        "entry": 439570,
        "entry_name": "Mo salads",
        "event_total": 67,
        "has_played": true,
        "id": 2947581,
        "last_rank": 84980,
        "player_name": "Hamlet Svedin",
        "rank": 63533,
        "rank_sort": 63559,
        "total": 2344
      },
      {
        "club_badge_src": null,
        "entry": 454160,
        "entry_name": "Easypickings9",
        "event_total": 44,
        "has_played": true,
        "id": 3046685,
        "last_rank": 43512,
        "player_name": "Jerry Fryer",
        "rank": 63533,
        "rank_sort": 63560,
        "total": 2344
      },
      {
        "club_badge_src": null,
        "entry": 477446,
        "entry_name": "Gueye pride",
        "event_total": 44,
        "has_played": true,
        "id": 3205128,
        "last_rank": 38016,
        "player_name": "Daniel Mendoza",
        "rank": 63533,
        "rank_sort": 63561,
        "total": 2344
      },
      {
        "club_badge_src": "https://fantasy.premierleague.com/gcs/plfpl-production-adobe-approved/plfpl-production/499929/e42f0455-2668-4481-b100-d4e841684d71.png",
        "entry": 499929,
        "entry_name": "Nestory_Irankunda_FC",
        "event_total": 66,
        "has_played": true,
        "id": 3355200,
        "last_rank": 82873,
        "player_name": "Danny Pham",
        "rank": 63533,
        "rank_sort": 63562,
        "total": 2344
      },
      {
        "club_badge_src": "https://fantasy.premierleague.com/gcs/plfpl-production-adobe-approved/plfpl-production/531658/511d0861-82ae-40ac-a637-d11d95f7b0ac.png",
        "entry": 531658,
        "entry_name": "Joga Bonito",
        "event_total": 66,
        "has_played": true,
        "id": 3575872,
        "last_rank": 82873,
        "player_name": "Petr Bartos",
        "rank": 63533,
        "rank_sort": 63563,
        "total": 2344
      },
      {
        "club_badge_src": null,
        "entry": 572111,
        "entry_name": "Fergietime",
        "event_total": 41,
        "has_played": true,
        "id": 3850329,
        "last_rank": 39510,
        "player_name": "elias turunen",
        "rank": 63533,
        "rank_sort": 63564,
        "total": 2344
      },
      {
        "club_badge_src": "https://fantasy.premierleague.com/gcs/plfpl-production-adobe-approved/plfpl-production/581058/0fa62415-5886-4321-83fd-e6048737953b.png",
        "entry": 581058,
        "entry_name": "MurdaOnZidane'sFloor",
        "event_total": 64,
        "has_played": true,
        "id": 3910108,
        "last_rank": 78244,
        "player_name": "Aryaman Deol",
        "rank": 63533,
        "rank_sort": 63565,
        "total": 2344
      },
      {
        "club_badge_src": null,
        "entry": 630334,
        "entry_name": "Milan 00",
        "event_total": 66,
        "has_played": true,
        "id": 4259439,
        "last_rank": 65796,
        "player_name": "Milan Simic",
        "rank": 63533,
        "rank_sort": 63566,
        "total": 2344
      },
      {
        "club_badge_src": null,
        "entry": 634144,
        "entry_name": "The Champ",
        "event_total": 71,
        "has_played": true,
        "id": 4285645,
        "last_rank": 84731,
        "player_name": "Kirtesh shah",
        "rank": 63533,
        "rank_sort": 63567,
        "total": 2344
      },
      {
        "club_badge_src": "https://fantasy.premierleague.com/gcs/plfpl-production-adobe-approved/plfpl-production/640256/9e6a6bea-765a-4537-b958-e2f82f837d11.png",
        "entry": 640256,
        "entry_name": "ChickenTikkaMoSalah",
        "event_total": 55,
        "has_played": true,
        "id": 4327110,
        "last_rank": 53837,
        "player_name": "Freddy Andersson",
        "rank": 63533,
        "rank_sort": 63568,
        "total": 2344
      },
      {
        "club_badge_src": null,
        "entry": 647498,
        "entry_name": "Benny FC",
        "event_total": 76,
        "has_played": true,
        "id": 4375952,
        "last_rank": 107702,
        "player_name": "Ben Smart",
        "rank": 63533,
        "rank_sort": 63569,
        "total": 2344
      },
      {
        "club_badge_src": null,
        "entry": 675431,
        "entry_name": "Eze Like Sunday Morn",
        "event_total": 64,
        "has_played": true,
        "id": 4569557,
        "last_rank": 69641,
        "player_name": "keith Rowling",
        "rank": 63533,
        "rank_sort": 63570,
        "total": 2344
      },
      {
        "club_badge_src": "https://fantasy.premierleague.com/gcs/plfpl-production-adobe-approved/plfpl-production/681466/7383f7ee-5726-453e-8a49-e59300b3405e.png",
        "entry": 681466,
        "entry_name": "Running Blind",
        "event_total": 67,
        "has_played": true,
        "id": 4611821,
        "last_rank": 76128,
        "player_name": "Keith Griffiths",
        "rank": 63533,
        "rank_sort": 63571,
        "total": 2344
      },
      {
        "club_badge_src": null,
        "entry": 712551,
        "entry_name": "Stardust FC",
        "event_total": 69,
        "has_played": true,
        "id": 4833781,
        "last_rank": 89897,
        "player_name": "Siggi S",
        "rank": 63533,
        "rank_sort": 63572,
        "total": 2344
      },
      {
        "club_badge_src": null,
        "entry": 714404,
        "entry_name": "Wellington F.C.",
        "event_total": 38,
        "has_played": true,
        "id": 4846784,
        "last_rank": 35867,
        "player_name": "Lok Chau",
        "rank": 63533,
        "rank_sort": 63573,
        "total": 2344
      },
      {
        "club_badge_src": "https://fantasy.premierleague.com/gcs/plfpl-production-adobe-approved/plfpl-production/717588/496c89aa-1676-416e-b40c-606d75706f0d.png",
        "entry": 717588,
        "entry_name": "AsantewaaFC",
        "event_total": 66,
        "has_played": true,
        "id": 4869042,
        "last_rank": 82664,
        "player_name": "Tony Appiah",
        "rank": 63533,
        "rank_sort": 63574,
        "total": 2344
      },
      {
        "club_badge_src": "https://fantasy.premierleague.com/gcs/plfpl-production-adobe-approved/plfpl-production/1005857/227d8e19-8b10-4a4d-81e5-46a06c29af8f.png",
        "entry": 1005857,
        "entry_name": "Al Ahly FCB",
        "event_total": 63,
        "has_played": true,
        "id": 6953277,
        "last_rank": 67926,
        "player_name": "Hassan Ahmed",
        "rank": 63533,
        "rank_sort": 63575,
        "total": 2344
      },
      {
        "club_badge_src": "https://fantasy.premierleague.com/gcs/plfpl-production-adobe-approved/plfpl-production/1015011/d401cb0b-3602-416d-bf09-b09c2aee1d91.png",
        "entry": 1015011,
        "entry_name": "Gunners",
        "event_total": 47,
        "has_played": true,
        "id": 7021795,
        "last_rank": 47722,
        "player_name": "Giannis Konstantopoulos",
        "rank": 63533,
        "rank_sort": 63576,
        "total": 2344
      },
      {
        "club_badge_src": null,
        "entry": 1015997,
        "entry_name": "Vtec",
        "event_total": 48,
        "has_played": true,
        "id": 7028719,
        "last_rank": 49207,
        "player_name": "Johnny Tran",
        "rank": 63533,
        "rank_sort": 63577,
        "total": 2344
      },
      {
        "club_badge_src": null,
        "entry": 1044879,
        "entry_name": "Give me back my Son!",
        "event_total": 65,
        "has_played": true,
        "id": 7231185,
        "last_rank": 80651,
        "player_name": "James Swift",
        "rank": 63533,
        "rank_sort": 63578,
        "total": 2344
      },
      {
        "club_badge_src": null,
        "entry": 1178043,
        "entry_name": "B7R FC",
        "event_total": 35,
        "has_played": true,
        "id": 8173763,
        "last_rank": 32491,
        "player_name": "S Bahry",
        "rank": 63533,
        "rank_sort": 63579,
        "total": 2344
      },
      {
        "club_badge_src": null,
        "entry": 1246408,
        "entry_name": "Toto Schillaci",
        "event_total": 72,
        "has_played": true,
        "id": 8656446,
        "last_rank": 97096,
        "player_name": "Niklas Bucher",
        "rank": 63533,
        "rank_sort": 63580,
        "total": 2344
      },
      {
        "club_badge_src": null,
        "entry": 1314625,
        "entry_name": "Fire Starters",
        "event_total": 59,
        "has_played": true,
        "id": 9137356,
        "last_rank": 67695,
        "player_name": "Diana Parker",
        "rank": 63533,
        "rank_sort": 63581,
        "total": 2344
      },
      {
        "club_badge_src": null,
        "entry": 1320001,
        "entry_name": "man united",
        "event_total": 40,
        "has_played": true,
        "id": 9174954,
        "last_rank": 38267,
        "player_name": "muhanad ali",
        "rank": 63533,
        "rank_sort": 63582,
        "total": 2344
      },
      {
        "club_badge_src": "https://fantasy.premierleague.com/gcs/plfpl-production-adobe-approved/plfpl-production/1340309/b7350445-3073-4a4c-bcd7-0deb2cb42755.png",
        "entry": 1340309,
        "entry_name": "The Boot Room",
        "event_total": 49,
        "has_played": true,
        "id": 9318403,
        "last_rank": 50635,
        "player_name": "paul sanders",
        "rank": 63533,
        "rank_sort": 63583,
        "total": 2344
      },
      {
        "club_badge_src": null,
        "entry": 1380334,
        "entry_name": "TOFAS9",
        "event_total": 61,
        "has_played": true,
        "id": 9595504,
        "last_rank": 72145,
        "player_name": "Christoforos Aristidou",
        "rank": 63533,
        "rank_sort": 63584,
        "total": 2344
      },
      {
        "club_badge_src": null,
        "entry": 1433973,
        "entry_name": "Zubi Zubi Do",
        "event_total": 57,
        "has_played": true,
        "id": 9991924,
        "last_rank": 57001,
        "player_name": "Michael Allsop",
        "rank": 63533,
        "rank_sort": 63585,
        "total": 2344
      },
      {
        "club_badge_src": "https://fantasy.premierleague.com/gcs/plfpl-production-adobe-approved/plfpl-production/1442336/2c0764ba-a341-4b71-a578-47cf10bc1311.png",
        "entry": 1442336,
        "entry_name": "Clau",
        "event_total": 72,
        "has_played": true,
        "id": 10050545,
        "last_rank": 97305,
        "player_name": "Claudio Iturbe",
        "rank": 63533,
        "rank_sort": 63586,
        "total": 2344
      },
      {
        "club_badge_src": null,
        "entry": 1461119,
        "entry_name": "Lord Farkesquad",
        "event_total": 45,
        "has_played": true,
        "id": 10184802,
        "last_rank": 44882,
        "player_name": "Ben Davidson",
        "rank": 63533,
        "rank_sort": 63587,
        "total": 2344
      },
      {
        "club_badge_src": null,
        "entry": 1473764,
        "entry_name": "Carrs Stars",
        "event_total": 68,
        "has_played": true,
        "id": 10272993,
        "last_rank": 87710,
        "player_name": "James Carr",
        "rank": 63533,
        "rank_sort": 63588,
        "total": 2344
      },
      {
        "club_badge_src": "https://fantasy.premierleague.com/gcs/plfpl-production-adobe-approved/plfpl-production/1598338/690c30e1-dcc3-4278-be3d-b2ae2c5b9503.png",
        "entry": 1598338,
        "entry_name": "PersInter FC",
        "event_total": 69,
        "has_played": true,
        "id": 11181328,
        "last_rank": 89706,
        "player_name": "Omid J",
        "rank": 63533,
        "rank_sort": 63589,
        "total": 2344
      },
      {
        "club_badge_src": null,
        "entry": 1694243,
        "entry_name": "The Kingslayer",
        "event_total": 34,
        "has_played": true,
        "id": 11866176,
        "last_rank": 31309,
        "player_name": "aws al jarwani",
        "rank": 63533,
        "rank_sort": 63590,
        "total": 2344
      },
      {
        "club_badge_src": null,
        "entry": 1812006,
        "entry_name": "linfieldmassive",
        "event_total": 62,
        "has_played": true,
        "id": 12740949,
        "last_rank": 73975,
        "player_name": "Joel Thornton",
        "rank": 63533,
        "rank_sort": 63591,
        "total": 2344
      },
      {
        "club_badge_src": null,
        "entry": 1912971,
        "entry_name": "The Palmer Effect",
        "event_total": 71,
        "has_played": true,
        "id": 13487187,
        "last_rank": 84980,
        "player_name": "Ricardo Bahadoorsingh",
        "rank": 63533,
        "rank_sort": 63592,
        "total": 2344
      },
      {
        "club_badge_src": null,
        "entry": 1942258,
        "entry_name": "Winpot",
        "event_total": 60,
        "has_played": true,
        "id": 13700317,
        "last_rank": 70072,
        "player_name": "Eddy Lin",
        "rank": 63533,
        "rank_sort": 63593,
        "total": 2344
      },
      {
        "club_badge_src": null,
        "entry": 1992787,
        "entry_name": "Temu FC",
        "event_total": 39,
        "has_played": true,
        "id": 14080197,
        "last_rank": 36963,
        "player_name": "Faizaan Firoz",
        "rank": 63533,
        "rank_sort": 63594,
        "total": 2344
      },
      {
        "club_badge_src": null,
        "entry": 2129296,
        "entry_name": "Always Killin' It",
        "event_total": 54,
        "has_played": true,
        "id": 15130281,
        "last_rank": 52205,
        "player_name": "Ayoub physionomie",
        "rank": 63533,
        "rank_sort": 63595,
        "total": 2344
      },
      {
        "club_badge_src": null,
        "entry": 2167087,
        "entry_name": "Hard Yakka FC",
        "event_total": 64,
        "has_played": true,
        "id": 15407277,
        "last_rank": 78440,
        "player_name": "Daniel Iacobucci",
        "rank": 63533,
        "rank_sort": 63596,
        "total": 2344
      },
      {
        "club_badge_src": null,
        "entry": 2196979,
        "entry_name": "Bridgerunners XI",
        "event_total": 46,
        "has_played": true,
        "id": 15632637,
        "last_rank": 46236,
        "player_name": "gautam Reddy",
        "rank": 63533,
        "rank_sort": 63597,
        "total": 2344
      },
      {
        "club_badge_src": null,
        "entry": 2224735,
        "entry_name": "Por Favor",
        "event_total": 59,
        "has_played": true,
        "id": 15846910,
        "last_rank": 68216,
        "player_name": "Kaj Heck",
        "rank": 63533,
        "rank_sort": 63598,
        "total": 2344
      },
      {
        "club_badge_src": null,
        "entry": 2272231,
        "entry_name": "Wylie Coyote",
        "event_total": 72,
        "has_played": true,
        "id": 16202326,
        "last_rank": 87350,
        "player_name": "Ben Wylie",
        "rank": 63533,
        "rank_sort": 63599,
        "total": 2344
      },
      {
        "club_badge_src": null,
        "entry": 2366357,
        "entry_name": "Essex Eagles",
        "event_total": 56,
        "has_played": true,
        "id": 16891070,
        "last_rank": 55311,
        "player_name": "Mark Foster",
        "rank": 63533,
        "rank_sort": 63600,
        "total": 2344
      }
    ]
  }
}