{
  "last_updated_data": "2026-05-24T23:28:17Z",
  "league": {
    "admin_entry": null,
    "closed": false,
    "code_privacy": "p",
    "created": "2025-07-20T23:14:33.933835Z",
    "cup_league": 2815434,
    "has_cup": true,
    "id": 314,
    "league_type": "s",
    "max_entries": null,
    "name": "Overall",
    "rank": null,
    "scoring": "c",
    "start_event": 1
  },
  "new_entries": {
    "has_next": false,
    "page": 1,
    "results": []
  },
  "standings": {
    "has_next": true,
    "page": 105,
    "results": [
      {
        "club_badge_src": null,
        "entry": 3313220,
        "entry_name": "Marios",
        "event_total": 65,
        "has_played": true,
        "id": 24548061,
        "last_rank": 5752,
        "player_name": "Marios Christofidis",
        "rank": 5185,
        "rank_sort": 5201,
        "total": 2414
      },
      {
        "club_badge_src": null,
        "entry": 3529654,
        "entry_name": "Rayan",
        "event_total": 59,
        "has_played": true,
        "id": 26269604,
        "last_rank": 4358,
        "player_name": "PeP Rayan",
        "rank": 5185,
        "rank_sort": 5202,
        "total": 2414
      },
      {
        "club_badge_src": null,
        "entry": 4160665,
        "entry_name": "Mr Men",
        "event_total": 61,
        "has_played": true,
        "id": 31456289,
        "last_rank": 5792,
        "player_name": "Rehaan Adat",
        "rank": 5185,
        "rank_sort": 5203,
        "total": 2414
      },
      {
        "club_badge_src": null,
        "entry": 6194157,
        "entry_name": "ICFC",
        "event_total": 43,
        "has_played": true,
        "id": 48995061,
        "last_rank": 2468,
        "player_name": "Ivan Chia",
        "rank": 5185,
        "rank_sort": 5204,
        "total": 2414
      },
      {
        "club_badge_src": null,
        "entry": 6702657,
        "entry_name": "Fat Kanzler",
        "event_total": 64,
        "has_played": true,
        "id": 53631724,
        "last_rank": 6528,
        "player_name": "Kostiantyn Drozd",
        "rank": 5185,
        "rank_sort": 5205,
        "total": 2414
      },
      {
        "club_badge_src": null,
        "entry": 7214308,
        "entry_name": "Capt.yousif",
        "event_total": 58,
        "has_played": true,
        "id": 58268570,
        "last_rank": 4155,
        "player_name": "Yousef Almuhaini",
        "rank": 5185,
        "rank_sort": 5206,
        "total": 2414
      },
      {
        "club_badge_src": null,
        "entry": 8779706,
        "entry_name": "JuanosOliveiras",
        "event_total": 60,
        "has_played": true,
        "id": 73348886,
        "last_rank": 4570,
        "player_name": "Patrick Nielsen",
        "rank": 5185,
        "rank_sort": 5207,
        "total": 2414
      },
      {
        "club_badge_src": null,
        "entry": 9120054,
        "entry_name": "Ugarte Be Kidding Me",
        "event_total": 49,
        "has_played": true,
        "id": 76648011,
        "last_rank": 3331,
        "player_name": "Shinsung Park",
        "rank": 5185,
        "rank_sort": 5208,
        "total": 2414
      },
      {
        "club_badge_src": "https://fantasy.premierleague.com/gcs/plfpl-production-adobe-approved/plfpl-production/9619643/b53dadd6-6f09-41f9-9337-2c0df1915bd9.png",
        "entry": 9619643,
        "entry_name": "GMO FC",
        "event_total": 59,
        "has_played": true,
        "id": 81533555,
        "last_rank": 5313,
        "player_name": "Ghassan Mohammed",
        "rank": 5185,
        "rank_sort": 5209,
        "total": 2414
      },
      {
        "club_badge_src": null,
        "entry": 17436,
        "entry_name": "Pablo's Diablos",
        "event_total": 58,
        "has_played": true,
        "id": 108161,
        "last_rank": 4186,
        "player_name": "Paul Kay",
        "rank": 5210,
        "rank_sort": 5210,
        "total": 2414
      },
      {
        "club_badge_src": "https://fantasy.premierleague.com/gcs/plfpl-production-adobe-approved/plfpl-production/45724/f4ffa0fa-1499-4d64-a814-4dad6926f223.png",
        "entry": 45724,
        "entry_name": "Banda Stranda",
        "event_total": 65,
        "has_played": true,
        "id": 293296,
        "last_rank": 5792,
        "player_name": "Michal Szymanek",
        "rank": 5210,
        "rank_sort": 5211,
        "total": 2414
      },
      {
        "club_badge_src": null,
        "entry": 539023,
        "entry_name": "It could be Wirtz!",
        "event_total": 60,
        "has_played": true,
        "id": 3628240,
        "last_rank": 5560,
        "player_name": "Andy Loring",
        "rank": 5210,
        "rank_sort": 5212,
        "total": 2414
      },
      {
        "club_badge_src": "https://fantasy.premierleague.com/gcs/plfpl-production-adobe-approved/plfpl-production/1644987/cc1b7d76-9bdf-4035-a556-276ac3162fe0.png",
        "entry": 1644987,
        "entry_name": "War with Balls",
        "event_total": 59,
        "has_played": true,
        "id": 11515077,
        "last_rank": 5281,
        "player_name": "Mark Lambert",
        "rank": 5210,
        "rank_sort": 5213,
        "total": 2414
      },
      {
        "club_badge_src": "https://fantasy.premierleague.com/gcs/plfpl-production-adobe-approved/plfpl-production/2525979/ca867b95-f0a8-4fc1-9d38-0320513a18a1.png",
        "entry": 2525979,
        "entry_name": "Gado's",
        "event_total": 61,
        "has_played": true,
        "id": 18100064,
        "last_rank": 4804,
        "player_name": "Ahmed Gad",
        "rank": 5210,
        "rank_sort": 5214,
        "total": 2414
      },
      {
        "club_badge_src": null,
        "entry": 2554030,
        "entry_name": "CremeEgg63",
        "event_total": 63,
        "has_played": true,
        "id": 18313088,
        "last_rank": 6333,
        "player_name": "Joel Knott",
        "rank": 5210,
        "rank_sort": 5215,
        "total": 2414
      },
      {
        "club_badge_src": null,
        "entry": 2914038,
        "entry_name": "Sosio332023",
        "event_total": 62,
        "has_played": true,
        "id": 21359046,
        "last_rank": 5011,
        "player_name": "Mina Martinovic",
        "rank": 5210,
        "rank_sort": 5216,
        "total": 2414
      },
      {
        "club_badge_src": null,
        "entry": 4765168,
        "entry_name": "Cohen FC",
        "event_total": 57,
        "has_played": true,
        "id": 36673812,
        "last_rank": 4866,
        "player_name": "Amit Cohen",
        "rank": 5210,
        "rank_sort": 5217,
        "total": 2414
      },
      {
        "club_badge_src": null,
        "entry": 5841979,
        "entry_name": "A Man has no name",
        "event_total": 53,
        "has_played": true,
        "id": 45859595,
        "last_rank": 4007,
        "player_name": "Brandon Camilleri",
        "rank": 5210,
        "rank_sort": 5218,
        "total": 2414
      },
      {
        "club_badge_src": null,
        "entry": 6293435,
        "entry_name": "Al-Merengue",
        "event_total": 64,
        "has_played": true,
        "id": 49871596,
        "last_rank": 6614,
        "player_name": "Ahmed Alghanim",
        "rank": 5210,
        "rank_sort": 5219,
        "total": 2414
      },
      {
        "club_badge_src": "https://fantasy.premierleague.com/gcs/plfpl-production-adobe-approved/plfpl-production/6312401/e799b944-eece-4a8b-a08b-70fefd13e88e.png",
        "entry": 6312401,
        "entry_name": "K\u00e4ttemaksukontor",
        "event_total": 69,
        "has_played": true,
        "id": 50085863,
        "last_rank": 8234,
        "player_name": "Kristo Sikkar",
        "rank": 5210,
        "rank_sort": 5220,
        "total": 2414
      },
      {
        "club_badge_src": null,
        "entry": 6353116,
        "entry_name": "What the Skelly",
        "event_total": 68,
        "has_played": true,
        "id": 50507076,
        "last_rank": 7863,
        "player_name": "Bayley Frise",
        "rank": 5210,
        "rank_sort": 5221,
        "total": 2414
      },
      {
        "club_badge_src": null,
        "entry": 7305916,
        "entry_name": "Invincibles",
        "event_total": 52,
        "has_played": true,
        "id": 59132846,
        "last_rank": 3796,
        "player_name": "Frank Perkin",
        "rank": 5210,
        "rank_sort": 5222,
        "total": 2414
      },
      {
        "club_badge_src": null,
        "entry": 9133217,
        "entry_name": "MountRashford",
        "event_total": 60,
        "has_played": true,
        "id": 76777639,
        "last_rank": 4615,
        "player_name": "Wojciech Jeremy",
        "rank": 5210,
        "rank_sort": 5223,
        "total": 2414
      },
      {
        "club_badge_src": null,
        "entry": 183359,
        "entry_name": "Cudos to Kudus",
        "event_total": 55,
        "has_played": true,
        "id": 1210327,
        "last_rank": 4431,
        "player_name": "Paul Madigan",
        "rank": 5224,
        "rank_sort": 5224,
        "total": 2414
      },
      {
        "club_badge_src": null,
        "entry": 494878,
        "entry_name": "The Illusionist",
        "event_total": 65,
        "has_played": true,
        "id": 3321760,
        "last_rank": 5820,
        "player_name": "kareem kahil",
        "rank": 5224,
        "rank_sort": 5225,
        "total": 2414
      },
      {
        "club_badge_src": null,
        "entry": 571415,
        "entry_name": "Varles Team",
        "event_total": 76,
        "has_played": true,
        "id": 3845690,
        "last_rank": 11058,
        "player_name": "Callum Varle",
        "rank": 5224,
        "rank_sort": 5226,
        "total": 2414
      },
      {
        "club_badge_src": null,
        "entry": 766394,
        "entry_name": "\u00af\\_(\u30c4)_/\u00af",
        "event_total": 68,
        "has_played": true,
        "id": 5227210,
        "last_rank": 7891,
        "player_name": "Arsene Parson",
        "rank": 5224,
        "rank_sort": 5227,
        "total": 2414
      },
      {
        "club_badge_src": "https://fantasy.premierleague.com/gcs/plfpl-production-adobe-approved/plfpl-production/1925636/e6322135-5ee7-4db5-9afb-2bf797e55f1a.png",
        "entry": 1925636,
        "entry_name": "Smug bug",
        "event_total": 63,
        "has_played": true,
        "id": 13580430,
        "last_rank": 6305,
        "player_name": "Andy Campbell",
        "rank": 5224,
        "rank_sort": 5228,
        "total": 2414
      },
      {
        "club_badge_src": null,
        "entry": 2096709,
        "entry_name": "My Own Hurst Enemy",
        "event_total": 64,
        "has_played": true,
        "id": 14876704,
        "last_rank": 6614,
        "player_name": "Ned Waterhouse",
        "rank": 5224,
        "rank_sort": 5229,
        "total": 2414
      },
      {
        "club_badge_src": null,
        "entry": 4779350,
        "entry_name": "Carbeth Rowdies",
        "event_total": 54,
        "has_played": true,
        "id": 36791195,
        "last_rank": 4223,
        "player_name": "Jimmy Hill",
        "rank": 5224,
        "rank_sort": 5230,
        "total": 2414
      },
      {
        "club_badge_src": null,
        "entry": 5207536,
        "entry_name": "Hilal Ayoub",
        "event_total": 73,
        "has_played": true,
        "id": 40334282,
        "last_rank": 9792,
        "player_name": "Hilal Fullham",
        "rank": 5224,
        "rank_sort": 5231,
        "total": 2414
      },
      {
        "club_badge_src": "https://fantasy.premierleague.com/gcs/plfpl-production-adobe-approved/plfpl-production/5291558/1397dbc1-a02a-4241-833a-d9d2b9bdefef.png",
        "entry": 5291558,
        "entry_name": "Polish Fury 4eva",
        "event_total": 64,
        "has_played": true,
        "id": 41016798,
        "last_rank": 6614,
        "player_name": "Harry Kewell",
        "rank": 5224,
        "rank_sort": 5232,
        "total": 2414
      },
      {
        "club_badge_src": null,
        "entry": 6669783,
        "entry_name": "RespectMyRodrygority",
        "event_total": 60,
        "has_played": true,
        "id": 53342877,
        "last_rank": 4644,
        "player_name": "Matthew Holt",
        "rank": 5224,
        "rank_sort": 5233,
        "total": 2414
      },
      {
        "club_badge_src": "https://fantasy.premierleague.com/gcs/plfpl-production-adobe-approved/plfpl-production/7568300/759ff2e6-1b6b-41b3-a94b-45325fbbd85d.png",
        "entry": 7568300,
        "entry_name": "RIP-Diogo Jota",
        "event_total": 69,
        "has_played": true,
        "id": 61976787,
        "last_rank": 6927,
        "player_name": "Iipinge Dominicus",
        "rank": 5224,
        "rank_sort": 5234,
        "total": 2414
      },
      {
        "club_badge_src": null,
        "entry": 7764134,
        "entry_name": "Wirtz Case Scenario",
        "event_total": 70,
        "has_played": true,
        "id": 63750486,
        "last_rank": 8591,
        "player_name": "Jack Beeby",
        "rank": 5224,
        "rank_sort": 5235,
        "total": 2414
      },
      {
        "club_badge_src": null,
        "entry": 7893566,
        "entry_name": "Haha Cunha",
        "event_total": 58,
        "has_played": true,
        "id": 64928299,
        "last_rank": 5053,
        "player_name": "Thomas de Silva",
        "rank": 5224,
        "rank_sort": 5236,
        "total": 2414
      },
      {
        "club_badge_src": "https://fantasy.premierleague.com/gcs/plfpl-production-adobe-approved/plfpl-production/7895479/260a151b-faaa-4b21-baad-413dfb1a9224.png",
        "entry": 7895479,
        "entry_name": "aryyyy",
        "event_total": 84,
        "has_played": true,
        "id": 64946656,
        "last_rank": 12995,
        "player_name": "Ahmed Aydin",
        "rank": 5224,
        "rank_sort": 5237,
        "total": 2414
      },
      {
        "club_badge_src": "https://fantasy.premierleague.com/gcs/plfpl-production-adobe-approved/plfpl-production/141749/6f38a095-3cdc-4c37-9969-3bf8a015edc8.png",
        "entry": 141749,
        "entry_name": "Beto call saul",
        "event_total": 63,
        "has_played": true,
        "id": 926274,
        "last_rank": 5335,
        "player_name": "Priyansh Gupta",
        "rank": 5238,
        "rank_sort": 5238,
        "total": 2414
      },
      {
        "club_badge_src": null,
        "entry": 152260,
        "entry_name": "Your Wirtz Nightmare",
        "event_total": 68,
        "has_played": true,
        "id": 999270,
        "last_rank": 6637,
        "player_name": "Grant Waters",
        "rank": 5238,
        "rank_sort": 5239,
        "total": 2414
      },
      {
        "club_badge_src": null,
        "entry": 291095,
        "entry_name": "YouCan'tHandleDiouf",
        "event_total": 64,
        "has_played": true,
        "id": 1941447,
        "last_rank": 5560,
        "player_name": "Ajay Suglani",
        "rank": 5238,
        "rank_sort": 5240,
        "total": 2414
      },
      {
        "club_badge_src": null,
        "entry": 1052020,
        "entry_name": "Erskinter Milan",
        "event_total": 60,
        "has_played": true,
        "id": 7280613,
        "last_rank": 4657,
        "player_name": "Alan Erskine",
        "rank": 5238,
        "rank_sort": 5241,
        "total": 2414
      },
      {
        "club_badge_src": null,
        "entry": 1604921,
        "entry_name": "CJH",
        "event_total": 40,
        "has_played": true,
        "id": 11228287,
        "last_rank": 2156,
        "player_name": "Cameron Hutton",
        "rank": 5238,
        "rank_sort": 5242,
        "total": 2414
      },
      {
        "club_badge_src": "https://fantasy.premierleague.com/gcs/plfpl-production-adobe-approved/plfpl-production/2607615/c117d254-845f-4aae-a57a-3c15e3e1ff4d.png",
        "entry": 2607615,
        "entry_name": "Cunha feel it\u2694\u2620\u2694",
        "event_total": 73,
        "has_played": true,
        "id": 18733043,
        "last_rank": 9806,
        "player_name": "Tanaka Charamba",
        "rank": 5238,
        "rank_sort": 5243,
        "total": 2414
      },
      {
        "club_badge_src": null,
        "entry": 2766345,
        "entry_name": "itzzzzzz",
        "event_total": 50,
        "has_played": true,
        "id": 20183001,
        "last_rank": 2920,
        "player_name": "Zachary Wong",
        "rank": 5238,
        "rank_sort": 5244,
        "total": 2414
      },
      {
        "club_badge_src": null,
        "entry": 5790458,
        "entry_name": "Jay J FC",
        "event_total": 72,
        "has_played": true,
        "id": 45413521,
        "last_rank": 7891,
        "player_name": "Jay Jones",
        "rank": 5238,
        "rank_sort": 5245,
        "total": 2414
      },
      {
        "club_badge_src": null,
        "entry": 5944859,
        "entry_name": "Saka Potatoes",
        "event_total": 78,
        "has_played": true,
        "id": 46752953,
        "last_rank": 10173,
        "player_name": "Scott Mcfarlane",
        "rank": 5238,
        "rank_sort": 5246,
        "total": 2414
      },
      {
        "club_badge_src": null,
        "entry": 7020100,
        "entry_name": "Fj\u00f8rstads 11",
        "event_total": 57,
        "has_played": true,
        "id": 56388418,
        "last_rank": 4015,
        "player_name": "Frode Fj\u00f8rstad",
        "rank": 5238,
        "rank_sort": 5247,
        "total": 2414
      },
      {
        "club_badge_src": null,
        "entry": 555319,
        "entry_name": "West Ham and Cheese",
        "event_total": 71,
        "has_played": true,
        "id": 3737505,
        "last_rank": 6347,
        "player_name": "Spencer Boothe",
        "rank": 5248,
        "rank_sort": 5248,
        "total": 2414
      },
      {
        "club_badge_src": null,
        "entry": 670428,
        "entry_name": "Wojk\u00f3w United",
        "event_total": 64,
        "has_played": true,
        "id": 4534391,
        "last_rank": 5591,
        "player_name": "Szymon Stanis\u0142awiszyn",
        "rank": 5248,
        "rank_sort": 5249,
        "total": 2414
      },
      {
        "club_badge_src": null,
        "entry": 1924502,
        "entry_name": "Alnajashi",
        "event_total": 67,
        "has_played": true,
        "id": 13572464,
        "last_rank": 7573,
        "player_name": "walid ahmed",
        "rank": 5248,
        "rank_sort": 5250,
        "total": 2414
      }
    ]
  }
}