{
  "last_updated_data": "2026-05-24T23:28:17Z",
  "league": {
    "admin_entry": null,
    "closed": false,
    "code_privacy": "p",
    "created": "2025-07-20T23:14:33.933835Z",
    "cup_league": 2815434,
    "has_cup": true,
    "id": 314,
    "league_type": "s",
    "max_entries": null,
    "name": "Overall",
    "rank": null,
    "scoring": "c",
    "start_event": 1
  },
  "new_entries": {
    "has_next": false,
    "page": 1,
    "results": []
  },
  "standings": {
    "has_next": true,
    "page": 22,
    "results": [
      {
        "club_badge_src": null,
        "entry": 4725584,
        "entry_name": "Ekitikitaka",
        "event_total": 57,
        "has_played": true,
        "id": 36324751,
        "last_rank": 969,
        "player_name": "Ethan Blakely",
        "rank": 1051,
        "rank_sort": 1051,
        "total": 2446
      },
      {
        "club_badge_src": null,
        "entry": 5014575,
        "entry_name": "unReal Madrid",
        "event_total": 63,
        "has_played": true,
        "id": 38724265,
        "last_rank": 1288,
        "player_name": "Krishan Jethwa",
        "rank": 1052,
        "rank_sort": 1052,
        "total": 2446
      },
      {
        "club_badge_src": null,
        "entry": 7099229,
        "entry_name": "Radja Nainggolan",
        "event_total": 55,
        "has_played": true,
        "id": 57168258,
        "last_rank": 867,
        "player_name": "Hadlee Maurd",
        "rank": 1052,
        "rank_sort": 1053,
        "total": 2446
      },
      {
        "club_badge_src": null,
        "entry": 18180,
        "entry_name": "Eze Solutions",
        "event_total": 47,
        "has_played": true,
        "id": 113034,
        "last_rank": 573,
        "player_name": "Yurii Savenkov",
        "rank": 1054,
        "rank_sort": 1054,
        "total": 2446
      },
      {
        "club_badge_src": "https://fantasy.premierleague.com/gcs/plfpl-production-adobe-approved/plfpl-production/151847/4b85c9f4-8fda-4bc0-be15-28cdfe6d5d06.png",
        "entry": 151847,
        "entry_name": "Austvik United",
        "event_total": 45,
        "has_played": true,
        "id": 996366,
        "last_rank": 503,
        "player_name": "Ivar Austvik",
        "rank": 1054,
        "rank_sort": 1055,
        "total": 2446
      },
      {
        "club_badge_src": null,
        "entry": 234234,
        "entry_name": "Bombay Rockers",
        "event_total": 53,
        "has_played": true,
        "id": 1558606,
        "last_rank": 791,
        "player_name": "Nikolaj Dam Eybye",
        "rank": 1054,
        "rank_sort": 1056,
        "total": 2446
      },
      {
        "club_badge_src": null,
        "entry": 245511,
        "entry_name": "Cue Ball FC",
        "event_total": 49,
        "has_played": true,
        "id": 1634595,
        "last_rank": 626,
        "player_name": "Barry Halpin",
        "rank": 1054,
        "rank_sort": 1057,
        "total": 2446
      },
      {
        "club_badge_src": null,
        "entry": 376651,
        "entry_name": "Dapportivo \u2b50\ufe0f\u2b50\ufe0f\u2b50\ufe0f\u2b50\ufe0f",
        "event_total": 55,
        "has_played": true,
        "id": 2522712,
        "last_rank": 870,
        "player_name": "Craig Draper",
        "rank": 1054,
        "rank_sort": 1058,
        "total": 2446
      },
      {
        "club_badge_src": null,
        "entry": 2002542,
        "entry_name": "FC Bla\u017eujke",
        "event_total": 58,
        "has_played": true,
        "id": 14157558,
        "last_rank": 1022,
        "player_name": "Mijo Jukic",
        "rank": 1054,
        "rank_sort": 1059,
        "total": 2446
      },
      {
        "club_badge_src": null,
        "entry": 2824139,
        "entry_name": "Real Princip\u00e9 SC",
        "event_total": 70,
        "has_played": true,
        "id": 20633491,
        "last_rank": 1856,
        "player_name": "Pete F",
        "rank": 1054,
        "rank_sort": 1060,
        "total": 2446
      },
      {
        "club_badge_src": "https://fantasy.premierleague.com/gcs/plfpl-production-adobe-approved/plfpl-production/2876857/d19a0797-7a08-4572-a71c-7a55604c0011.png",
        "entry": 2876857,
        "entry_name": "\u0627\u0644\u0645\u0631\u0627\u0639\u0646\u0647",
        "event_total": 69,
        "has_played": true,
        "id": 21058505,
        "last_rank": 1753,
        "player_name": "Yousef Wael",
        "rank": 1054,
        "rank_sort": 1061,
        "total": 2446
      },
      {
        "club_badge_src": "https://fantasy.premierleague.com/gcs/plfpl-production-adobe-approved/plfpl-production/2982906/fe0af27c-0d2c-473e-95e0-3e46a75ee358.png",
        "entry": 2982906,
        "entry_name": "Dream Team",
        "event_total": 57,
        "has_played": true,
        "id": 21932209,
        "last_rank": 973,
        "player_name": "Abror Khikmatov",
        "rank": 1054,
        "rank_sort": 1062,
        "total": 2446
      },
      {
        "club_badge_src": null,
        "entry": 7180689,
        "entry_name": "Tikka Mo Salah",
        "event_total": 70,
        "has_played": true,
        "id": 57952695,
        "last_rank": 1856,
        "player_name": "Adam Hawley",
        "rank": 1054,
        "rank_sort": 1063,
        "total": 2446
      },
      {
        "club_badge_src": null,
        "entry": 7212156,
        "entry_name": "NK \u010cabdin",
        "event_total": 66,
        "has_played": true,
        "id": 58248473,
        "last_rank": 1523,
        "player_name": "Luka Stefic",
        "rank": 1054,
        "rank_sort": 1064,
        "total": 2446
      },
      {
        "club_badge_src": null,
        "entry": 8238174,
        "entry_name": "TUK TUK PING PONG FC",
        "event_total": 66,
        "has_played": true,
        "id": 68106272,
        "last_rank": 1506,
        "player_name": "Ricky Sandhu",
        "rank": 1054,
        "rank_sort": 1065,
        "total": 2446
      },
      {
        "club_badge_src": null,
        "entry": 10036,
        "entry_name": "Saka White Rice",
        "event_total": 69,
        "has_played": true,
        "id": 59230,
        "last_rank": 1758,
        "player_name": "Kieran Ward",
        "rank": 1066,
        "rank_sort": 1066,
        "total": 2446
      },
      {
        "club_badge_src": null,
        "entry": 32972,
        "entry_name": "MMBAWA",
        "event_total": 69,
        "has_played": true,
        "id": 210036,
        "last_rank": 1773,
        "player_name": "Gareth Thompson",
        "rank": 1066,
        "rank_sort": 1067,
        "total": 2446
      },
      {
        "club_badge_src": null,
        "entry": 156913,
        "entry_name": "Joga Bonito",
        "event_total": 68,
        "has_played": true,
        "id": 1032077,
        "last_rank": 1689,
        "player_name": "Ant\u00f3nio Almeida Dias",
        "rank": 1066,
        "rank_sort": 1068,
        "total": 2446
      },
      {
        "club_badge_src": null,
        "entry": 296583,
        "entry_name": "MartinSteelix22",
        "event_total": 60,
        "has_played": true,
        "id": 1981713,
        "last_rank": 1130,
        "player_name": "Martin H Nilsen",
        "rank": 1066,
        "rank_sort": 1069,
        "total": 2446
      },
      {
        "club_badge_src": null,
        "entry": 453918,
        "entry_name": "BigYellowTaxi",
        "event_total": 54,
        "has_played": true,
        "id": 3044916,
        "last_rank": 820,
        "player_name": "Arron Woodcock",
        "rank": 1066,
        "rank_sort": 1070,
        "total": 2446
      },
      {
        "club_badge_src": null,
        "entry": 862593,
        "entry_name": "SalahAndAPasty",
        "event_total": 69,
        "has_played": true,
        "id": 5913340,
        "last_rank": 1758,
        "player_name": "James Hillam",
        "rank": 1066,
        "rank_sort": 1071,
        "total": 2446
      },
      {
        "club_badge_src": null,
        "entry": 1983978,
        "entry_name": "Goater Hell",
        "event_total": 53,
        "has_played": true,
        "id": 14013743,
        "last_rank": 791,
        "player_name": "Mark Rainford",
        "rank": 1066,
        "rank_sort": 1072,
        "total": 2446
      },
      {
        "club_badge_src": null,
        "entry": 2001366,
        "entry_name": "Gypas Fc\ufffd",
        "event_total": 73,
        "has_played": true,
        "id": 14148751,
        "last_rank": 2166,
        "player_name": "CHRISTOS SKOUFARIS",
        "rank": 1066,
        "rank_sort": 1073,
        "total": 2446
      },
      {
        "club_badge_src": null,
        "entry": 2231587,
        "entry_name": "Better than Alvarez",
        "event_total": 72,
        "has_played": true,
        "id": 15897721,
        "last_rank": 2088,
        "player_name": "Mark Tant",
        "rank": 1066,
        "rank_sort": 1074,
        "total": 2446
      },
      {
        "club_badge_src": null,
        "entry": 2577572,
        "entry_name": "FC Tutulko",
        "event_total": 77,
        "has_played": true,
        "id": 18498854,
        "last_rank": 2646,
        "player_name": "Martin Tutulko",
        "rank": 1066,
        "rank_sort": 1075,
        "total": 2446
      },
      {
        "club_badge_src": null,
        "entry": 3126747,
        "entry_name": "PKP PLK",
        "event_total": 73,
        "has_played": true,
        "id": 23076143,
        "last_rank": 2166,
        "player_name": "Angelika Joachim",
        "rank": 1066,
        "rank_sort": 1076,
        "total": 2446
      },
      {
        "club_badge_src": null,
        "entry": 5337198,
        "entry_name": "WoodFellas",
        "event_total": 73,
        "has_played": true,
        "id": 41381306,
        "last_rank": 2166,
        "player_name": "Gabriel Ellison-Smith",
        "rank": 1066,
        "rank_sort": 1077,
        "total": 2446
      },
      {
        "club_badge_src": null,
        "entry": 5458309,
        "entry_name": "SwansYear",
        "event_total": 92,
        "has_played": true,
        "id": 42477426,
        "last_rank": 5400,
        "player_name": "Mac Williams",
        "rank": 1066,
        "rank_sort": 1078,
        "total": 2446
      },
      {
        "club_badge_src": "https://fantasy.premierleague.com/gcs/plfpl-production-adobe-approved/plfpl-production/8379029/e017f2b0-a2ef-410d-aeb1-3632aad216f2.png",
        "entry": 8379029,
        "entry_name": "USM ALGER",
        "event_total": 65,
        "has_played": true,
        "id": 69481782,
        "last_rank": 1438,
        "player_name": "Nader Baouche",
        "rank": 1066,
        "rank_sort": 1079,
        "total": 2446
      },
      {
        "club_badge_src": null,
        "entry": 9342,
        "entry_name": "Wirt\u2019z Leg",
        "event_total": 81,
        "has_played": true,
        "id": 54885,
        "last_rank": 3237,
        "player_name": "Andy B",
        "rank": 1080,
        "rank_sort": 1080,
        "total": 2446
      },
      {
        "club_badge_src": null,
        "entry": 385951,
        "entry_name": "Change Name",
        "event_total": 60,
        "has_played": true,
        "id": 2589112,
        "last_rank": 926,
        "player_name": "Craig Millar",
        "rank": 1080,
        "rank_sort": 1081,
        "total": 2446
      },
      {
        "club_badge_src": null,
        "entry": 1863541,
        "entry_name": "King of the Kop\u2764\ufe0f20",
        "event_total": 67,
        "has_played": true,
        "id": 13116584,
        "last_rank": 1609,
        "player_name": "Roar Kasin",
        "rank": 1080,
        "rank_sort": 1082,
        "total": 2446
      },
      {
        "club_badge_src": null,
        "entry": 2041869,
        "entry_name": "Bruno Dos Tres",
        "event_total": 70,
        "has_played": true,
        "id": 14459939,
        "last_rank": 1523,
        "player_name": "Tom Salthouse",
        "rank": 1080,
        "rank_sort": 1083,
        "total": 2446
      },
      {
        "club_badge_src": null,
        "entry": 2133833,
        "entry_name": "Buy Sea Chair Ten",
        "event_total": 71,
        "has_played": true,
        "id": 15164007,
        "last_rank": 1609,
        "player_name": "Robert Andersson",
        "rank": 1080,
        "rank_sort": 1084,
        "total": 2446
      },
      {
        "club_badge_src": null,
        "entry": 2805227,
        "entry_name": "Ogul FC",
        "event_total": 41,
        "has_played": true,
        "id": 20485943,
        "last_rank": 412,
        "player_name": "Nedim Ogul",
        "rank": 1080,
        "rank_sort": 1085,
        "total": 2446
      },
      {
        "club_badge_src": null,
        "entry": 6189543,
        "entry_name": "\u91d1\u91c7\u6e90\u4e16\u4e00",
        "event_total": 71,
        "has_played": true,
        "id": 48954847,
        "last_rank": 1978,
        "player_name": "Forever Fearnot",
        "rank": 1080,
        "rank_sort": 1086,
        "total": 2446
      },
      {
        "club_badge_src": null,
        "entry": 6919231,
        "entry_name": "Smeech",
        "event_total": 57,
        "has_played": true,
        "id": 55465218,
        "last_rank": 980,
        "player_name": "Markus Karlsson",
        "rank": 1080,
        "rank_sort": 1087,
        "total": 2446
      },
      {
        "club_badge_src": null,
        "entry": 9116351,
        "entry_name": "What's Rob Holding",
        "event_total": 59,
        "has_played": true,
        "id": 76611676,
        "last_rank": 1096,
        "player_name": "Thijmen Berben",
        "rank": 1080,
        "rank_sort": 1088,
        "total": 2446
      },
      {
        "club_badge_src": null,
        "entry": 3054,
        "entry_name": "Bruno Dos Tres",
        "event_total": 62,
        "has_played": true,
        "id": 17222,
        "last_rank": 825,
        "player_name": "C Ronnie",
        "rank": 1089,
        "rank_sort": 1089,
        "total": 2446
      },
      {
        "club_badge_src": null,
        "entry": 150834,
        "entry_name": "Howe You Doin'",
        "event_total": 63,
        "has_played": true,
        "id": 989389,
        "last_rank": 1096,
        "player_name": "Torjus Nikolaisen",
        "rank": 1089,
        "rank_sort": 1090,
        "total": 2446
      },
      {
        "club_badge_src": null,
        "entry": 460592,
        "entry_name": "Happy Football Team",
        "event_total": 65,
        "has_played": true,
        "id": 3089712,
        "last_rank": 1478,
        "player_name": "Billy Tse",
        "rank": 1089,
        "rank_sort": 1091,
        "total": 2446
      },
      {
        "club_badge_src": null,
        "entry": 671496,
        "entry_name": "Digne get an agenda",
        "event_total": 44,
        "has_played": true,
        "id": 4541880,
        "last_rank": 483,
        "player_name": "Stephan Jaques",
        "rank": 1089,
        "rank_sort": 1092,
        "total": 2446
      },
      {
        "club_badge_src": null,
        "entry": 1210575,
        "entry_name": "Matheus Mbeumo",
        "event_total": 66,
        "has_played": true,
        "id": 8402305,
        "last_rank": 1563,
        "player_name": "Woo Hyoun Lee",
        "rank": 1089,
        "rank_sort": 1093,
        "total": 2446
      },
      {
        "club_badge_src": "https://fantasy.premierleague.com/gcs/plfpl-production-adobe-approved/plfpl-production/1795068/38c0b3f0-9c79-4098-b91b-9ba1224dfb36.png",
        "entry": 1795068,
        "entry_name": "Fantasy Team",
        "event_total": 64,
        "has_played": true,
        "id": 12614462,
        "last_rank": 1410,
        "player_name": "Mohamed Ghareb",
        "rank": 1089,
        "rank_sort": 1094,
        "total": 2446
      },
      {
        "club_badge_src": "https://fantasy.premierleague.com/gcs/plfpl-production-adobe-approved/plfpl-production/2400007/3ea9d409-eb49-44c9-b09c-d312e700be8d.png",
        "entry": 2400007,
        "entry_name": "Pembantu Carrick",
        "event_total": 64,
        "has_played": true,
        "id": 17153068,
        "last_rank": 1410,
        "player_name": "Mr Hohos",
        "rank": 1089,
        "rank_sort": 1095,
        "total": 2446
      },
      {
        "club_badge_src": null,
        "entry": 5594285,
        "entry_name": "Dartford Aces",
        "event_total": 55,
        "has_played": true,
        "id": 43707296,
        "last_rank": 896,
        "player_name": "Darren Harris",
        "rank": 1089,
        "rank_sort": 1096,
        "total": 2446
      },
      {
        "club_badge_src": "https://fantasy.premierleague.com/gcs/plfpl-production-adobe-approved/plfpl-production/6355906/f554284e-46ec-47fd-9eb2-1d1cc0013e3d.png",
        "entry": 6355906,
        "entry_name": "Green Fergs And Ham",
        "event_total": 67,
        "has_played": true,
        "id": 50530901,
        "last_rank": 1633,
        "player_name": "A R",
        "rank": 1089,
        "rank_sort": 1097,
        "total": 2446
      },
      {
        "club_badge_src": null,
        "entry": 6682900,
        "entry_name": "Shy and Retiring",
        "event_total": 51,
        "has_played": true,
        "id": 53457810,
        "last_rank": 727,
        "player_name": "Paul Egan",
        "rank": 1089,
        "rank_sort": 1098,
        "total": 2446
      },
      {
        "club_badge_src": null,
        "entry": 815299,
        "entry_name": "Almita FC",
        "event_total": 68,
        "has_played": true,
        "id": 5583005,
        "last_rank": 1410,
        "player_name": "Aki Ali",
        "rank": 1099,
        "rank_sort": 1099,
        "total": 2446
      },
      {
        "club_badge_src": "https://fantasy.premierleague.com/gcs/plfpl-production-adobe-approved/plfpl-production/3619701/238ecd29-b3ba-469b-aeb8-da895e153f3a.png",
        "entry": 3619701,
        "entry_name": "Mateta Than You",
        "event_total": 74,
        "has_played": true,
        "id": 26967897,
        "last_rank": 1909,
        "player_name": "Joe Grey",
        "rank": 1099,
        "rank_sort": 1100,
        "total": 2446
      }
    ]
  }
}