{
  "last_updated_data": "2026-05-24T23:28:17Z",
  "league": {
    "admin_entry": null,
    "closed": false,
    "code_privacy": "p",
    "created": "2025-07-20T23:14:33.933835Z",
    "cup_league": 2815434,
    "has_cup": true,
    "id": 314,
    "league_type": "s",
    "max_entries": null,
    "name": "Overall",
    "rank": null,
    "scoring": "c",
    "start_event": 1
  },
  "new_entries": {
    "has_next": false,
    "page": 1,
    "results": []
  },
  "standings": {
    "has_next": true,
    "page": 1168,
    "results": [
      {
        "club_badge_src": null,
        "entry": 6846200,
        "entry_name": "Harriers",
        "event_total": 61,
        "has_played": true,
        "id": 54846436,
        "last_rank": 58688,
        "player_name": "Harry Williams",
        "rank": 58227,
        "rank_sort": 58351,
        "total": 2347
      },
      {
        "club_badge_src": null,
        "entry": 7023171,
        "entry_name": "\u0639\u064a\u0633\u0649 \u0627\u0644\u0648\u0632\u0627\u0646",
        "event_total": 51,
        "has_played": true,
        "id": 56418126,
        "last_rank": 49207,
        "player_name": "Moustafa Nasser",
        "rank": 58227,
        "rank_sort": 58352,
        "total": 2347
      },
      {
        "club_badge_src": null,
        "entry": 7038119,
        "entry_name": "Feed the Gyok",
        "event_total": 62,
        "has_played": true,
        "id": 56579357,
        "last_rank": 60462,
        "player_name": "Thomas Stubbs",
        "rank": 58227,
        "rank_sort": 58353,
        "total": 2347
      },
      {
        "club_badge_src": "https://fantasy.premierleague.com/gcs/plfpl-production-adobe-approved/plfpl-production/7397802/22911129-f3fd-4d19-8bc6-bf7cf476ed18.png",
        "entry": 7397802,
        "entry_name": "Trenchfoot FC",
        "event_total": 59,
        "has_played": true,
        "id": 59993991,
        "last_rank": 62617,
        "player_name": "Jack Andrews",
        "rank": 58227,
        "rank_sort": 58354,
        "total": 2347
      },
      {
        "club_badge_src": null,
        "entry": 7505941,
        "entry_name": "Don\u2019t have a Kalou",
        "event_total": 65,
        "has_played": true,
        "id": 61348919,
        "last_rank": 65796,
        "player_name": "Arron Forbes",
        "rank": 58227,
        "rank_sort": 58355,
        "total": 2347
      },
      {
        "club_badge_src": null,
        "entry": 7881760,
        "entry_name": "Bafana",
        "event_total": 65,
        "has_played": true,
        "id": 64819957,
        "last_rank": 65796,
        "player_name": "Hamza Boukchouch",
        "rank": 58227,
        "rank_sort": 58356,
        "total": 2347
      },
      {
        "club_badge_src": null,
        "entry": 8018604,
        "entry_name": "Untouchables",
        "event_total": 69,
        "has_played": true,
        "id": 66052496,
        "last_rank": 82873,
        "player_name": "Damian Felix",
        "rank": 58227,
        "rank_sort": 58357,
        "total": 2347
      },
      {
        "club_badge_src": null,
        "entry": 8693139,
        "entry_name": "Autobots",
        "event_total": 64,
        "has_played": true,
        "id": 72512687,
        "last_rank": 49880,
        "player_name": "Samuel Latham",
        "rank": 58227,
        "rank_sort": 58358,
        "total": 2347
      },
      {
        "club_badge_src": "https://fantasy.premierleague.com/gcs/plfpl-production-adobe-approved/plfpl-production/9267242/d09cdc73-9703-4448-afcb-5e33745db804.png",
        "entry": 9267242,
        "entry_name": "TYPSY",
        "event_total": 53,
        "has_played": true,
        "id": 78090918,
        "last_rank": 45714,
        "player_name": "LORENZO ANTONIO STIANA",
        "rank": 58227,
        "rank_sort": 58359,
        "total": 2347
      },
      {
        "club_badge_src": null,
        "entry": 9433125,
        "entry_name": "Visca Barca",
        "event_total": 51,
        "has_played": true,
        "id": 79689921,
        "last_rank": 49207,
        "player_name": "Hussain Jamali",
        "rank": 58227,
        "rank_sort": 58360,
        "total": 2347
      },
      {
        "club_badge_src": "https://fantasy.premierleague.com/gcs/plfpl-production-adobe-approved/plfpl-production/805/39063a25-4352-42df-b99b-25c35056eadb.png",
        "entry": 805,
        "entry_name": "Mince n Tatties",
        "event_total": 56,
        "has_played": true,
        "id": 4448,
        "last_rank": 50772,
        "player_name": "Jamie McComb",
        "rank": 58361,
        "rank_sort": 58361,
        "total": 2347
      },
      {
        "club_badge_src": null,
        "entry": 1510,
        "entry_name": "yassin",
        "event_total": 65,
        "has_played": true,
        "id": 8397,
        "last_rank": 66200,
        "player_name": "yassin yasser",
        "rank": 58361,
        "rank_sort": 58362,
        "total": 2347
      },
      {
        "club_badge_src": null,
        "entry": 18935,
        "entry_name": "Struggling Albion",
        "event_total": 66,
        "has_played": true,
        "id": 117856,
        "last_rank": 68107,
        "player_name": "George Fairlie",
        "rank": 58361,
        "rank_sort": 58363,
        "total": 2347
      },
      {
        "club_badge_src": null,
        "entry": 25617,
        "entry_name": "Theatre of Memes",
        "event_total": 60,
        "has_played": true,
        "id": 162053,
        "last_rank": 57200,
        "player_name": "Andy Tait",
        "rank": 58361,
        "rank_sort": 58364,
        "total": 2347
      },
      {
        "club_badge_src": null,
        "entry": 34903,
        "entry_name": "los blanco",
        "event_total": 52,
        "has_played": true,
        "id": 223179,
        "last_rank": 44804,
        "player_name": "\u0627\u0644\u0639\u0628\u0631\u0647 \u0628\u0627\u0644\u062e\u0648\u0627\u062a\u064a\u0645",
        "rank": 58361,
        "rank_sort": 58365,
        "total": 2347
      },
      {
        "club_badge_src": null,
        "entry": 51902,
        "entry_name": "Freshman",
        "event_total": 61,
        "has_played": true,
        "id": 333811,
        "last_rank": 66296,
        "player_name": "Jeremy Spice",
        "rank": 58361,
        "rank_sort": 58366,
        "total": 2347
      },
      {
        "club_badge_src": null,
        "entry": 78174,
        "entry_name": "Haz XI",
        "event_total": 31,
        "has_played": true,
        "id": 508257,
        "last_rank": 22216,
        "player_name": "Harry .",
        "rank": 58361,
        "rank_sort": 58367,
        "total": 2347
      },
      {
        "club_badge_src": "https://fantasy.premierleague.com/gcs/plfpl-production-adobe-approved/plfpl-production/84180/4187aaf5-ad39-4561-88a2-5de1e65b385c.png",
        "entry": 84180,
        "entry_name": "Ruud Awakening",
        "event_total": 76,
        "has_played": true,
        "id": 548022,
        "last_rank": 89897,
        "player_name": "Ross Bowyer",
        "rank": 58361,
        "rank_sort": 58368,
        "total": 2347
      },
      {
        "club_badge_src": null,
        "entry": 90322,
        "entry_name": "Cunha's Kings",
        "event_total": 59,
        "has_played": true,
        "id": 589683,
        "last_rank": 55659,
        "player_name": "Dylan o Neill",
        "rank": 58361,
        "rank_sort": 58369,
        "total": 2347
      },
      {
        "club_badge_src": "https://fantasy.premierleague.com/gcs/plfpl-production-adobe-approved/plfpl-production/97136/dccedc59-8878-424b-a303-78a222e055cc.png",
        "entry": 97136,
        "entry_name": "Crash Fc",
        "event_total": 42,
        "has_played": true,
        "id": 634460,
        "last_rank": 32437,
        "player_name": "Davy Crash",
        "rank": 58361,
        "rank_sort": 58370,
        "total": 2347
      },
      {
        "club_badge_src": null,
        "entry": 98696,
        "entry_name": "442",
        "event_total": 72,
        "has_played": true,
        "id": 644409,
        "last_rank": 89897,
        "player_name": "Fahad Alasfar",
        "rank": 58361,
        "rank_sort": 58371,
        "total": 2347
      },
      {
        "club_badge_src": null,
        "entry": 110703,
        "entry_name": "Oraklet2.0",
        "event_total": 59,
        "has_played": true,
        "id": 721977,
        "last_rank": 55659,
        "player_name": "Lukas Vesterholm",
        "rank": 58361,
        "rank_sort": 58372,
        "total": 2347
      },
      {
        "club_badge_src": null,
        "entry": 116217,
        "entry_name": "BrynLaPuppyXI",
        "event_total": 71,
        "has_played": true,
        "id": 758698,
        "last_rank": 87541,
        "player_name": "C Colligan",
        "rank": 58361,
        "rank_sort": 58373,
        "total": 2347
      },
      {
        "club_badge_src": null,
        "entry": 117433,
        "entry_name": "The GL\u00d6CK END",
        "event_total": 72,
        "has_played": true,
        "id": 766574,
        "last_rank": 80651,
        "player_name": "Geordi O-Meara",
        "rank": 58361,
        "rank_sort": 58374,
        "total": 2347
      },
      {
        "club_badge_src": null,
        "entry": 126220,
        "entry_name": "HARRYMAGUIRE!",
        "event_total": 68,
        "has_played": true,
        "id": 823055,
        "last_rank": 72145,
        "player_name": "Adam Wilcox",
        "rank": 58361,
        "rank_sort": 58375,
        "total": 2347
      },
      {
        "club_badge_src": "https://fantasy.premierleague.com/gcs/plfpl-production-adobe-approved/plfpl-production/146641/66774e9d-6f71-400c-89f1-f64b1dc89de3.png",
        "entry": 146641,
        "entry_name": "Mohamed abdallah",
        "event_total": 60,
        "has_played": true,
        "id": 960782,
        "last_rank": 57358,
        "player_name": "Mohamed Abdallah",
        "rank": 58361,
        "rank_sort": 58376,
        "total": 2347
      },
      {
        "club_badge_src": null,
        "entry": 175515,
        "entry_name": "Ellinors Elleve",
        "event_total": 60,
        "has_played": true,
        "id": 1158772,
        "last_rank": 64319,
        "player_name": "Bendik Overskott",
        "rank": 58361,
        "rank_sort": 58377,
        "total": 2347
      },
      {
        "club_badge_src": null,
        "entry": 179549,
        "entry_name": "karlteam",
        "event_total": 48,
        "has_played": true,
        "id": 1184832,
        "last_rank": 39510,
        "player_name": "Karl Jones",
        "rank": 58361,
        "rank_sort": 58378,
        "total": 2347
      },
      {
        "club_badge_src": null,
        "entry": 207153,
        "entry_name": "Snoop Udogie Dogg",
        "event_total": 53,
        "has_played": true,
        "id": 1376863,
        "last_rank": 52357,
        "player_name": "Mitchell siggers",
        "rank": 58361,
        "rank_sort": 58379,
        "total": 2347
      },
      {
        "club_badge_src": null,
        "entry": 228701,
        "entry_name": "Mediocre",
        "event_total": 50,
        "has_played": true,
        "id": 1521519,
        "last_rank": 47596,
        "player_name": "Anders Obrestad",
        "rank": 58361,
        "rank_sort": 58380,
        "total": 2347
      },
      {
        "club_badge_src": "https://fantasy.premierleague.com/gcs/plfpl-production-adobe-approved/plfpl-production/262646/6aa55def-f2f5-4d35-b38d-93b714e379e8.png",
        "entry": 262646,
        "entry_name": "CPT Yanited",
        "event_total": 49,
        "has_played": true,
        "id": 1746120,
        "last_rank": 46236,
        "player_name": "Nabeel Mohamed",
        "rank": 58361,
        "rank_sort": 58381,
        "total": 2347
      },
      {
        "club_badge_src": null,
        "entry": 278742,
        "entry_name": "It Could Be Wirtz",
        "event_total": 52,
        "has_played": true,
        "id": 1855179,
        "last_rank": 50848,
        "player_name": "Calum Tremayne",
        "rank": 58361,
        "rank_sort": 58382,
        "total": 2347
      },
      {
        "club_badge_src": null,
        "entry": 290502,
        "entry_name": "Ode to Joy",
        "event_total": 75,
        "has_played": true,
        "id": 1937125,
        "last_rank": 87541,
        "player_name": "Papi X",
        "rank": 58361,
        "rank_sort": 58383,
        "total": 2347
      },
      {
        "club_badge_src": null,
        "entry": 346467,
        "entry_name": "Mulletguns",
        "event_total": 59,
        "has_played": true,
        "id": 2319120,
        "last_rank": 62724,
        "player_name": "Sean Mulligan",
        "rank": 58361,
        "rank_sort": 58384,
        "total": 2347
      },
      {
        "club_badge_src": null,
        "entry": 382621,
        "entry_name": "Stranger Ings",
        "event_total": 70,
        "has_played": true,
        "id": 2565647,
        "last_rank": 76330,
        "player_name": "Ludvig V\u00e4nnstr\u00f6m",
        "rank": 58361,
        "rank_sort": 58385,
        "total": 2347
      },
      {
        "club_badge_src": null,
        "entry": 407583,
        "entry_name": "Chelski FC",
        "event_total": 64,
        "has_played": true,
        "id": 2733234,
        "last_rank": 72145,
        "player_name": "chris bull",
        "rank": 58361,
        "rank_sort": 58386,
        "total": 2347
      },
      {
        "club_badge_src": "https://fantasy.premierleague.com/gcs/plfpl-production-adobe-approved/plfpl-production/412633/7595469f-d555-44fd-a7a0-b8ef52a8d410.png",
        "entry": 412633,
        "entry_name": "dD",
        "event_total": 66,
        "has_played": true,
        "id": 2766532,
        "last_rank": 76474,
        "player_name": "Doruk Doruk",
        "rank": 58361,
        "rank_sort": 58387,
        "total": 2347
      },
      {
        "club_badge_src": null,
        "entry": 416114,
        "entry_name": "Edge11",
        "event_total": 60,
        "has_played": true,
        "id": 2789448,
        "last_rank": 64319,
        "player_name": "Erik Jan Hutten",
        "rank": 58361,
        "rank_sort": 58388,
        "total": 2347
      },
      {
        "club_badge_src": null,
        "entry": 462727,
        "entry_name": "Mestna Graba",
        "event_total": 68,
        "has_played": true,
        "id": 3103945,
        "last_rank": 64190,
        "player_name": "Miha Podplatnik",
        "rank": 58361,
        "rank_sort": 58389,
        "total": 2347
      },
      {
        "club_badge_src": null,
        "entry": 520805,
        "entry_name": "Turgtown FC",
        "event_total": 48,
        "has_played": true,
        "id": 3497465,
        "last_rank": 44882,
        "player_name": "Philip Forsberg",
        "rank": 58361,
        "rank_sort": 58390,
        "total": 2347
      },
      {
        "club_badge_src": null,
        "entry": 521681,
        "entry_name": "7ankasha Fc",
        "event_total": 70,
        "has_played": true,
        "id": 3503585,
        "last_rank": 76330,
        "player_name": "Omar Refaat",
        "rank": 58361,
        "rank_sort": 58391,
        "total": 2347
      },
      {
        "club_badge_src": "https://fantasy.premierleague.com/gcs/plfpl-production-adobe-approved/plfpl-production/530166/5c72761a-83c0-4920-af19-029fea98c5f4.png",
        "entry": 530166,
        "entry_name": "losing=\u00d8",
        "event_total": 67,
        "has_played": true,
        "id": 3565325,
        "last_rank": 69641,
        "player_name": "Philliam Willips \ud83d\udc0f",
        "rank": 58361,
        "rank_sort": 58392,
        "total": 2347
      },
      {
        "club_badge_src": null,
        "entry": 587293,
        "entry_name": "Run like the hawk",
        "event_total": 48,
        "has_played": true,
        "id": 3953128,
        "last_rank": 44882,
        "player_name": "Robert H\u00f6ckerstrand",
        "rank": 58361,
        "rank_sort": 58393,
        "total": 2347
      },
      {
        "club_badge_src": null,
        "entry": 686569,
        "entry_name": "Hamhama",
        "event_total": 59,
        "has_played": true,
        "id": 4647679,
        "last_rank": 62724,
        "player_name": "Taher Henia",
        "rank": 58361,
        "rank_sort": 58394,
        "total": 2347
      },
      {
        "club_badge_src": "https://fantasy.premierleague.com/gcs/plfpl-production-adobe-approved/plfpl-production/747170/2758c662-1e9d-455a-980f-66b20eadeec1.png",
        "entry": 747170,
        "entry_name": "Ko Nge",
        "event_total": 50,
        "has_played": true,
        "id": 5083091,
        "last_rank": 47812,
        "player_name": "Zaw Htet",
        "rank": 58361,
        "rank_sort": 58395,
        "total": 2347
      },
      {
        "club_badge_src": null,
        "entry": 751332,
        "entry_name": "OLSALUELFR11",
        "event_total": 60,
        "has_played": true,
        "id": 5112179,
        "last_rank": 64422,
        "player_name": "David Mellor",
        "rank": 58361,
        "rank_sort": 58396,
        "total": 2347
      },
      {
        "club_badge_src": "https://fantasy.premierleague.com/gcs/plfpl-production-adobe-approved/plfpl-production/756299/f0d0d564-3e73-4515-99e5-009e32f422fb.png",
        "entry": 756299,
        "entry_name": "Chutney ferrets",
        "event_total": 61,
        "has_played": true,
        "id": 5149029,
        "last_rank": 52205,
        "player_name": "Steve Capp",
        "rank": 58361,
        "rank_sort": 58397,
        "total": 2347
      },
      {
        "club_badge_src": null,
        "entry": 794996,
        "entry_name": "hows it down there?",
        "event_total": 38,
        "has_played": true,
        "id": 5440805,
        "last_rank": 28348,
        "player_name": "Gassan Abdullah",
        "rank": 58361,
        "rank_sort": 58398,
        "total": 2347
      },
      {
        "club_badge_src": "https://fantasy.premierleague.com/gcs/plfpl-production-adobe-approved/plfpl-production/858241/6d8cf84a-a111-41e9-afb8-8f4f68166275.png",
        "entry": 858241,
        "entry_name": "iyadhino FC",
        "event_total": 56,
        "has_played": true,
        "id": 5883333,
        "last_rank": 50772,
        "player_name": "Iyadh Cherif",
        "rank": 58361,
        "rank_sort": 58399,
        "total": 2347
      },
      {
        "club_badge_src": null,
        "entry": 860123,
        "entry_name": "mbeumo is Red",
        "event_total": 59,
        "has_played": true,
        "id": 5896160,
        "last_rank": 55514,
        "player_name": "Alex Ball",
        "rank": 58361,
        "rank_sort": 58400,
        "total": 2347
      }
    ]
  }
}