{
  "last_updated_data": "2026-05-24T23:28:17Z",
  "league": {
    "admin_entry": null,
    "closed": false,
    "code_privacy": "p",
    "created": "2025-07-20T23:14:33.933835Z",
    "cup_league": 2815434,
    "has_cup": true,
    "id": 314,
    "league_type": "s",
    "max_entries": null,
    "name": "Overall",
    "rank": null,
    "scoring": "c",
    "start_event": 1
  },
  "new_entries": {
    "has_next": false,
    "page": 1,
    "results": []
  },
  "standings": {
    "has_next": true,
    "page": 72,
    "results": [
      {
        "club_badge_src": null,
        "entry": 931837,
        "entry_name": "Moose Flies",
        "event_total": 76,
        "has_played": true,
        "id": 6411934,
        "last_rank": 7604,
        "player_name": "Gustav B\u00e4ck",
        "rank": 3527,
        "rank_sort": 3551,
        "total": 2422
      },
      {
        "club_badge_src": null,
        "entry": 1009076,
        "entry_name": "Bowen Arrow",
        "event_total": 66,
        "has_played": true,
        "id": 6976554,
        "last_rank": 4918,
        "player_name": "Matt Sims",
        "rank": 3527,
        "rank_sort": 3552,
        "total": 2422
      },
      {
        "club_badge_src": null,
        "entry": 1036730,
        "entry_name": "No Limit Soldiers",
        "event_total": 77,
        "has_played": true,
        "id": 7174216,
        "last_rank": 7979,
        "player_name": "Matt Larden",
        "rank": 3527,
        "rank_sort": 3553,
        "total": 2422
      },
      {
        "club_badge_src": null,
        "entry": 1078771,
        "entry_name": "Amoo Amass Amad",
        "event_total": 45,
        "has_played": true,
        "id": 7469450,
        "last_rank": 1773,
        "player_name": "Jonathan Green",
        "rank": 3527,
        "rank_sort": 3554,
        "total": 2422
      },
      {
        "club_badge_src": null,
        "entry": 1308355,
        "entry_name": "Bruno Dos Tres",
        "event_total": 61,
        "has_played": true,
        "id": 9094120,
        "last_rank": 3902,
        "player_name": "Tom Fowkes",
        "rank": 3527,
        "rank_sort": 3555,
        "total": 2422
      },
      {
        "club_badge_src": null,
        "entry": 1360972,
        "entry_name": "SONSAWY\u2019S XI",
        "event_total": 44,
        "has_played": true,
        "id": 9459888,
        "last_rank": 1668,
        "player_name": "Hassan Farid",
        "rank": 3527,
        "rank_sort": 3556,
        "total": 2422
      },
      {
        "club_badge_src": null,
        "entry": 1430659,
        "entry_name": "Wallace's Wanderers",
        "event_total": 70,
        "has_played": true,
        "id": 9968987,
        "last_rank": 5904,
        "player_name": "Eric Wallace",
        "rank": 3527,
        "rank_sort": 3557,
        "total": 2422
      },
      {
        "club_badge_src": "https://fantasy.premierleague.com/gcs/plfpl-production-adobe-approved/plfpl-production/1473262/c33d9030-7ef3-47b8-b2b6-cd9f2419ab07.png",
        "entry": 1473262,
        "entry_name": "Kinder Mbeumo",
        "event_total": 71,
        "has_played": true,
        "id": 10269556,
        "last_rank": 6166,
        "player_name": "YewJin Khong",
        "rank": 3527,
        "rank_sort": 3558,
        "total": 2422
      },
      {
        "club_badge_src": null,
        "entry": 1800893,
        "entry_name": "Paralyzer's Arsenal",
        "event_total": 73,
        "has_played": true,
        "id": 12658609,
        "last_rank": 6703,
        "player_name": "Tomas Deak",
        "rank": 3527,
        "rank_sort": 3559,
        "total": 2422
      },
      {
        "club_badge_src": null,
        "entry": 1824705,
        "entry_name": "Chan Utd",
        "event_total": 67,
        "has_played": true,
        "id": 12833901,
        "last_rank": 5147,
        "player_name": "Cillian Hanley",
        "rank": 3527,
        "rank_sort": 3560,
        "total": 2422
      },
      {
        "club_badge_src": null,
        "entry": 2020492,
        "entry_name": "Eat Mo Salah",
        "event_total": 58,
        "has_played": true,
        "id": 14296922,
        "last_rank": 3408,
        "player_name": "Michael Ying",
        "rank": 3527,
        "rank_sort": 3561,
        "total": 2422
      },
      {
        "club_badge_src": null,
        "entry": 2312133,
        "entry_name": "milton magpies",
        "event_total": 53,
        "has_played": true,
        "id": 16492781,
        "last_rank": 2685,
        "player_name": "David Forster",
        "rank": 3527,
        "rank_sort": 3562,
        "total": 2422
      },
      {
        "club_badge_src": null,
        "entry": 2352872,
        "entry_name": "Sanav06",
        "event_total": 66,
        "has_played": true,
        "id": 16788612,
        "last_rank": 4930,
        "player_name": "Amit Khoon Khoon",
        "rank": 3527,
        "rank_sort": 3563,
        "total": 2422
      },
      {
        "club_badge_src": null,
        "entry": 2514491,
        "entry_name": "The King",
        "event_total": 62,
        "has_played": true,
        "id": 18014530,
        "last_rank": 4099,
        "player_name": "Abdel Malek",
        "rank": 3527,
        "rank_sort": 3564,
        "total": 2422
      },
      {
        "club_badge_src": "https://fantasy.premierleague.com/gcs/plfpl-production-adobe-approved/plfpl-production/2528037/8d6a96cb-74e1-422a-94dd-a80c0590b029.png",
        "entry": 2528037,
        "entry_name": "glgl",
        "event_total": 65,
        "has_played": true,
        "id": 18114944,
        "last_rank": 3866,
        "player_name": "Elias Kaipainen",
        "rank": 3527,
        "rank_sort": 3565,
        "total": 2422
      },
      {
        "club_badge_src": null,
        "entry": 2536995,
        "entry_name": "FCBAuthentic",
        "event_total": 77,
        "has_played": true,
        "id": 18181512,
        "last_rank": 8032,
        "player_name": "Fcb 1022",
        "rank": 3527,
        "rank_sort": 3566,
        "total": 2422
      },
      {
        "club_badge_src": null,
        "entry": 2586449,
        "entry_name": "Leicester Wednesday",
        "event_total": 60,
        "has_played": true,
        "id": 18567315,
        "last_rank": 3699,
        "player_name": "Phil Mottram",
        "rank": 3527,
        "rank_sort": 3567,
        "total": 2422
      },
      {
        "club_badge_src": null,
        "entry": 3188656,
        "entry_name": "Austria Salzburg",
        "event_total": 44,
        "has_played": true,
        "id": 23564930,
        "last_rank": 1712,
        "player_name": "Reen Pichmanski",
        "rank": 3527,
        "rank_sort": 3568,
        "total": 2422
      },
      {
        "club_badge_src": null,
        "entry": 3191220,
        "entry_name": "celava prevara",
        "event_total": 63,
        "has_played": true,
        "id": 23584493,
        "last_rank": 4303,
        "player_name": "Mateo Bacani",
        "rank": 3527,
        "rank_sort": 3569,
        "total": 2422
      },
      {
        "club_badge_src": null,
        "entry": 3740484,
        "entry_name": "Kobbie & Paste",
        "event_total": 78,
        "has_played": true,
        "id": 27921995,
        "last_rank": 8339,
        "player_name": "Armand Derri",
        "rank": 3527,
        "rank_sort": 3570,
        "total": 2422
      },
      {
        "club_badge_src": null,
        "entry": 4118303,
        "entry_name": "Krept&Cones",
        "event_total": 67,
        "has_played": true,
        "id": 31112015,
        "last_rank": 4270,
        "player_name": "Rhys Humphreys",
        "rank": 3527,
        "rank_sort": 3571,
        "total": 2422
      },
      {
        "club_badge_src": null,
        "entry": 4289963,
        "entry_name": "Forever20",
        "event_total": 52,
        "has_played": true,
        "id": 32540757,
        "last_rank": 2588,
        "player_name": "Tom Connors",
        "rank": 3527,
        "rank_sort": 3572,
        "total": 2422
      },
      {
        "club_badge_src": "https://fantasy.premierleague.com/gcs/plfpl-production-adobe-approved/plfpl-production/4405929/c80582f1-d45f-4c37-8e11-4f9517f60035.png",
        "entry": 4405929,
        "entry_name": "Florian &deR machine",
        "event_total": 64,
        "has_played": true,
        "id": 33512476,
        "last_rank": 4515,
        "player_name": "Rob Cheng",
        "rank": 3527,
        "rank_sort": 3573,
        "total": 2422
      },
      {
        "club_badge_src": null,
        "entry": 4434008,
        "entry_name": "Saka Potatoes",
        "event_total": 68,
        "has_played": true,
        "id": 33759169,
        "last_rank": 5448,
        "player_name": "Alex Herbert",
        "rank": 3527,
        "rank_sort": 3574,
        "total": 2422
      },
      {
        "club_badge_src": null,
        "entry": 6032502,
        "entry_name": "Raya Sunshine :)",
        "event_total": 73,
        "has_played": true,
        "id": 47587957,
        "last_rank": 6703,
        "player_name": "Adam Elmaadi",
        "rank": 3527,
        "rank_sort": 3575,
        "total": 2422
      },
      {
        "club_badge_src": null,
        "entry": 6538135,
        "entry_name": "Blackstone fc",
        "event_total": 49,
        "has_played": true,
        "id": 52161142,
        "last_rank": 2215,
        "player_name": "Thamil dasan",
        "rank": 3527,
        "rank_sort": 3576,
        "total": 2422
      },
      {
        "club_badge_src": null,
        "entry": 8919688,
        "entry_name": "Da Highs & Dalots",
        "event_total": 82,
        "has_played": true,
        "id": 74700215,
        "last_rank": 8339,
        "player_name": "Joe Thiara",
        "rank": 3527,
        "rank_sort": 3577,
        "total": 2422
      },
      {
        "club_badge_src": null,
        "entry": 9154773,
        "entry_name": "Roadmen F.C.",
        "event_total": 64,
        "has_played": true,
        "id": 76987352,
        "last_rank": 4488,
        "player_name": "Augustin Alm\u00e9ras",
        "rank": 3527,
        "rank_sort": 3578,
        "total": 2422
      },
      {
        "club_badge_src": "https://fantasy.premierleague.com/gcs/plfpl-production-adobe-approved/plfpl-production/9261180/7b201eca-392c-48a8-acf8-7a1c5e2c1485.png",
        "entry": 9261180,
        "entry_name": "C\u00fail Ionchais",
        "event_total": 62,
        "has_played": true,
        "id": 78031904,
        "last_rank": 4062,
        "player_name": "Luke Sheeran-Purcell",
        "rank": 3527,
        "rank_sort": 3579,
        "total": 2422
      },
      {
        "club_badge_src": null,
        "entry": 2431,
        "entry_name": "THE NATURAT",
        "event_total": 62,
        "has_played": true,
        "id": 13556,
        "last_rank": 4099,
        "player_name": "Mateusz Michalski",
        "rank": 3580,
        "rank_sort": 3580,
        "total": 2422
      },
      {
        "club_badge_src": "https://fantasy.premierleague.com/gcs/plfpl-production-adobe-approved/plfpl-production/31798/f2b6d69d-6fc9-4c70-95c3-6bedfff7b02d.png",
        "entry": 31798,
        "entry_name": "ASCENDANT OVERLORDS",
        "event_total": 62,
        "has_played": true,
        "id": 201810,
        "last_rank": 4099,
        "player_name": "Grissanapob Sukrak",
        "rank": 3580,
        "rank_sort": 3581,
        "total": 2422
      },
      {
        "club_badge_src": null,
        "entry": 71522,
        "entry_name": "Jamrock Rovers",
        "event_total": 62,
        "has_played": true,
        "id": 464581,
        "last_rank": 4155,
        "player_name": "Trystan Rice",
        "rank": 3580,
        "rank_sort": 3582,
        "total": 2422
      },
      {
        "club_badge_src": null,
        "entry": 99399,
        "entry_name": "Kvinnefotball er bra",
        "event_total": 64,
        "has_played": true,
        "id": 648880,
        "last_rank": 4515,
        "player_name": "Emil Fallet Kristoffersen",
        "rank": 3580,
        "rank_sort": 3583,
        "total": 2422
      },
      {
        "club_badge_src": null,
        "entry": 150765,
        "entry_name": "MoSalahMoProblems9.0",
        "event_total": 68,
        "has_played": true,
        "id": 988902,
        "last_rank": 4515,
        "player_name": "Ryan Nowland",
        "rank": 3580,
        "rank_sort": 3584,
        "total": 2422
      },
      {
        "club_badge_src": null,
        "entry": 151580,
        "entry_name": "Westham Hogg",
        "event_total": 60,
        "has_played": true,
        "id": 994528,
        "last_rank": 3103,
        "player_name": "Thomas Bratt",
        "rank": 3580,
        "rank_sort": 3585,
        "total": 2422
      },
      {
        "club_badge_src": null,
        "entry": 186180,
        "entry_name": "Power Reijnders",
        "event_total": 65,
        "has_played": true,
        "id": 1230289,
        "last_rank": 4704,
        "player_name": "Jonty Nesaratnam",
        "rank": 3580,
        "rank_sort": 3586,
        "total": 2422
      },
      {
        "club_badge_src": null,
        "entry": 236594,
        "entry_name": "Kid Named Villa",
        "event_total": 57,
        "has_played": true,
        "id": 1574158,
        "last_rank": 2685,
        "player_name": "James Mann",
        "rank": 3580,
        "rank_sort": 3587,
        "total": 2422
      },
      {
        "club_badge_src": null,
        "entry": 275456,
        "entry_name": "Ellis",
        "event_total": 52,
        "has_played": true,
        "id": 1833217,
        "last_rank": 2588,
        "player_name": "Thomas Maycock",
        "rank": 3580,
        "rank_sort": 3588,
        "total": 2422
      },
      {
        "club_badge_src": null,
        "entry": 314738,
        "entry_name": "Desta",
        "event_total": 55,
        "has_played": true,
        "id": 2109155,
        "last_rank": 3007,
        "player_name": "Mutasem Barakat",
        "rank": 3580,
        "rank_sort": 3589,
        "total": 2422
      },
      {
        "club_badge_src": null,
        "entry": 425080,
        "entry_name": "Wayne Fc",
        "event_total": 64,
        "has_played": true,
        "id": 2849020,
        "last_rank": 4515,
        "player_name": "A Rilwayne",
        "rank": 3580,
        "rank_sort": 3590,
        "total": 2422
      },
      {
        "club_badge_src": null,
        "entry": 550990,
        "entry_name": "Big G",
        "event_total": 57,
        "has_played": true,
        "id": 3708635,
        "last_rank": 2685,
        "player_name": "Guro Gustavsen",
        "rank": 3580,
        "rank_sort": 3591,
        "total": 2422
      },
      {
        "club_badge_src": null,
        "entry": 566014,
        "entry_name": "I'm an AI bot",
        "event_total": 70,
        "has_played": true,
        "id": 3809653,
        "last_rank": 6011,
        "player_name": "Chris Denyer",
        "rank": 3580,
        "rank_sort": 3592,
        "total": 2422
      },
      {
        "club_badge_src": null,
        "entry": 791321,
        "entry_name": "Cun bha ya my lord",
        "event_total": 67,
        "has_played": true,
        "id": 5415020,
        "last_rank": 5147,
        "player_name": "Jeroen Pauwels",
        "rank": 3580,
        "rank_sort": 3593,
        "total": 2422
      },
      {
        "club_badge_src": null,
        "entry": 853426,
        "entry_name": "Ooga-bluega",
        "event_total": 66,
        "has_played": true,
        "id": 5849830,
        "last_rank": 4099,
        "player_name": "Vishwajeeth Venkatesh",
        "rank": 3580,
        "rank_sort": 3594,
        "total": 2422
      },
      {
        "club_badge_src": null,
        "entry": 1054992,
        "entry_name": "The Beard of Pirlo",
        "event_total": 61,
        "has_played": true,
        "id": 7301207,
        "last_rank": 3951,
        "player_name": "Daniel Phillips",
        "rank": 3580,
        "rank_sort": 3595,
        "total": 2422
      },
      {
        "club_badge_src": null,
        "entry": 1062265,
        "entry_name": "Bezzalona",
        "event_total": 42,
        "has_played": true,
        "id": 7353578,
        "last_rank": 1563,
        "player_name": "Daniel Beresford",
        "rank": 3580,
        "rank_sort": 3596,
        "total": 2422
      },
      {
        "club_badge_src": null,
        "entry": 2593968,
        "entry_name": "AC United",
        "event_total": 81,
        "has_played": true,
        "id": 18625339,
        "last_rank": 9536,
        "player_name": "Adam Coughlan",
        "rank": 3580,
        "rank_sort": 3597,
        "total": 2422
      },
      {
        "club_badge_src": "https://fantasy.premierleague.com/gcs/plfpl-production-adobe-approved/plfpl-production/2684135/7af65efe-b39d-483f-8c14-dc3444ee230e.png",
        "entry": 2684135,
        "entry_name": "Esso",
        "event_total": 57,
        "has_played": true,
        "id": 19304856,
        "last_rank": 3302,
        "player_name": "Essak Romany",
        "rank": 3580,
        "rank_sort": 3598,
        "total": 2422
      },
      {
        "club_badge_src": null,
        "entry": 2689347,
        "entry_name": "Howe to get Isak'd",
        "event_total": 56,
        "has_played": true,
        "id": 19343599,
        "last_rank": 3150,
        "player_name": "Adarsh Chhabria",
        "rank": 3580,
        "rank_sort": 3599,
        "total": 2422
      },
      {
        "club_badge_src": null,
        "entry": 2884850,
        "entry_name": "Eze Peazy",
        "event_total": 67,
        "has_played": true,
        "id": 21119898,
        "last_rank": 5241,
        "player_name": "Owen Bullman",
        "rank": 3580,
        "rank_sort": 3600,
        "total": 2422
      }
    ]
  }
}