{
  "last_updated_data": "2026-05-24T23:28:17Z",
  "league": {
    "admin_entry": null,
    "closed": false,
    "code_privacy": "p",
    "created": "2025-07-20T23:14:33.933835Z",
    "cup_league": 2815434,
    "has_cup": true,
    "id": 314,
    "league_type": "s",
    "max_entries": null,
    "name": "Overall",
    "rank": null,
    "scoring": "c",
    "start_event": 1
  },
  "new_entries": {
    "has_next": false,
    "page": 1,
    "results": []
  },
  "standings": {
    "has_next": true,
    "page": 665,
    "results": [
      {
        "club_badge_src": null,
        "entry": 81359,
        "entry_name": "Arnie's Slot Machine",
        "event_total": 68,
        "has_played": true,
        "id": 529295,
        "last_rank": 47163,
        "player_name": "Matthew Munn",
        "rank": 33186,
        "rank_sort": 33201,
        "total": 2365
      },
      {
        "club_badge_src": null,
        "entry": 87734,
        "entry_name": "Oakland B's",
        "event_total": 56,
        "has_played": true,
        "id": 572236,
        "last_rank": 27770,
        "player_name": "Tommy C",
        "rank": 33186,
        "rank_sort": 33202,
        "total": 2365
      },
      {
        "club_badge_src": null,
        "entry": 95068,
        "entry_name": "Eze Come Eze Go",
        "event_total": 68,
        "has_played": true,
        "id": 621242,
        "last_rank": 47163,
        "player_name": "Rich O'Reilly",
        "rank": 33186,
        "rank_sort": 33203,
        "total": 2365
      },
      {
        "club_badge_src": null,
        "entry": 106216,
        "entry_name": "Jorgen Grand Larceny",
        "event_total": 69,
        "has_played": true,
        "id": 692648,
        "last_rank": 42648,
        "player_name": "Daniel Turner",
        "rank": 33186,
        "rank_sort": 33204,
        "total": 2365
      },
      {
        "club_badge_src": "https://fantasy.premierleague.com/gcs/plfpl-production-adobe-approved/plfpl-production/113873/df6b36c8-6198-4592-be6a-cf58b34ea2a6.png",
        "entry": 113873,
        "entry_name": "Djed Spencer",
        "event_total": 66,
        "has_played": true,
        "id": 742768,
        "last_rank": 44303,
        "player_name": "Filip Renduli\u0107",
        "rank": 33186,
        "rank_sort": 33205,
        "total": 2365
      },
      {
        "club_badge_src": "https://fantasy.premierleague.com/gcs/plfpl-production-adobe-approved/plfpl-production/116969/f96e9d08-aa9f-422d-8b47-25f4acad66ad.png",
        "entry": 116969,
        "entry_name": "\u1d2e\u1d3c\u02e2\u02e2",
        "event_total": 64,
        "has_played": true,
        "id": 763549,
        "last_rank": 36348,
        "player_name": "\ud835\udd84\ud835\udd94\ud835\udd87\ud835\udd94 .",
        "rank": 33186,
        "rank_sort": 33206,
        "total": 2365
      },
      {
        "club_badge_src": null,
        "entry": 119432,
        "entry_name": "PASTA \u00d0ENIZEVE",
        "event_total": 47,
        "has_played": true,
        "id": 779253,
        "last_rank": 23522,
        "player_name": "Sabit \u0106imi\u0107",
        "rank": 33186,
        "rank_sort": 33207,
        "total": 2365
      },
      {
        "club_badge_src": "https://fantasy.premierleague.com/gcs/plfpl-production-adobe-approved/plfpl-production/125578/4f21df32-c2da-401f-967e-00aebd188459.png",
        "entry": 125578,
        "entry_name": "Vili VDP",
        "event_total": 66,
        "has_played": true,
        "id": 819011,
        "last_rank": 38644,
        "player_name": "Nemanja Peri\u0107",
        "rank": 33186,
        "rank_sort": 33208,
        "total": 2365
      },
      {
        "club_badge_src": null,
        "entry": 126282,
        "entry_name": "Ollieympiakos",
        "event_total": 67,
        "has_played": true,
        "id": 823449,
        "last_rank": 45714,
        "player_name": "Craig Neilson",
        "rank": 33186,
        "rank_sort": 33209,
        "total": 2365
      },
      {
        "club_badge_src": null,
        "entry": 172888,
        "entry_name": "The Monk of Funk",
        "event_total": 74,
        "has_played": true,
        "id": 1141845,
        "last_rank": 56180,
        "player_name": "Scott Outtrim",
        "rank": 33186,
        "rank_sort": 33210,
        "total": 2365
      },
      {
        "club_badge_src": null,
        "entry": 188854,
        "entry_name": "FK Majestic",
        "event_total": 61,
        "has_played": true,
        "id": 1249668,
        "last_rank": 32879,
        "player_name": "Daniel Savevski",
        "rank": 33186,
        "rank_sort": 33211,
        "total": 2365
      },
      {
        "club_badge_src": "https://fantasy.premierleague.com/gcs/plfpl-production-adobe-approved/plfpl-production/203241/eb9b201b-f610-4940-a2e8-24a226bab45e.png",
        "entry": 203241,
        "entry_name": "OBRA FC",
        "event_total": 51,
        "has_played": true,
        "id": 1350121,
        "last_rank": 26827,
        "player_name": "Nwankwo Bruno",
        "rank": 33186,
        "rank_sort": 33212,
        "total": 2365
      },
      {
        "club_badge_src": "https://fantasy.premierleague.com/gcs/plfpl-production-adobe-approved/plfpl-production/233858/5c359b80-30e4-496b-8990-42462a1a0b6e.png",
        "entry": 233858,
        "entry_name": "Ekitike Taka",
        "event_total": 59,
        "has_played": true,
        "id": 1556124,
        "last_rank": 35166,
        "player_name": "Matthew Spiers",
        "rank": 33186,
        "rank_sort": 33213,
        "total": 2365
      },
      {
        "club_badge_src": null,
        "entry": 260885,
        "entry_name": "Kira",
        "event_total": 53,
        "has_played": true,
        "id": 1734203,
        "last_rank": 25002,
        "player_name": "SAFI MUALLA",
        "rank": 33186,
        "rank_sort": 33214,
        "total": 2365
      },
      {
        "club_badge_src": null,
        "entry": 265885,
        "entry_name": "Lomito FC",
        "event_total": 61,
        "has_played": true,
        "id": 1768601,
        "last_rank": 32879,
        "player_name": "Francisco Fonseca",
        "rank": 33186,
        "rank_sort": 33215,
        "total": 2365
      },
      {
        "club_badge_src": null,
        "entry": 307549,
        "entry_name": "Kinder Mbuemo",
        "event_total": 89,
        "has_played": true,
        "id": 2059853,
        "last_rank": 87074,
        "player_name": "Jack Murray",
        "rank": 33186,
        "rank_sort": 33216,
        "total": 2365
      },
      {
        "club_badge_src": null,
        "entry": 353650,
        "entry_name": "Zlabbe Kings",
        "event_total": 63,
        "has_played": true,
        "id": 2366912,
        "last_rank": 39874,
        "player_name": "Albin Maliqi",
        "rank": 33186,
        "rank_sort": 33217,
        "total": 2365
      },
      {
        "club_badge_src": null,
        "entry": 396587,
        "entry_name": "Wirtz case scenario",
        "event_total": 68,
        "has_played": true,
        "id": 2659441,
        "last_rank": 46839,
        "player_name": "Stian Bordewick",
        "rank": 33186,
        "rank_sort": 33218,
        "total": 2365
      },
      {
        "club_badge_src": "https://fantasy.premierleague.com/gcs/plfpl-production-adobe-approved/plfpl-production/411100/6b5e46cf-8e8a-422a-bb7d-e8f356728bae.png",
        "entry": 411100,
        "entry_name": "Your Wirtz nightmare",
        "event_total": 64,
        "has_played": true,
        "id": 2756489,
        "last_rank": 41162,
        "player_name": "Krishna Madvesh",
        "rank": 33186,
        "rank_sort": 33219,
        "total": 2365
      },
      {
        "club_badge_src": "https://fantasy.premierleague.com/gcs/plfpl-production-adobe-approved/plfpl-production/435341/0a120f4c-cd59-4759-a0d1-4dbb349dad95.png",
        "entry": 435341,
        "entry_name": "Expected Toulouse",
        "event_total": 64,
        "has_played": true,
        "id": 2919314,
        "last_rank": 41617,
        "player_name": "Daniel Barrett",
        "rank": 33186,
        "rank_sort": 33220,
        "total": 2365
      },
      {
        "club_badge_src": null,
        "entry": 450602,
        "entry_name": "Fighting Mongooses",
        "event_total": 52,
        "has_played": true,
        "id": 3023160,
        "last_rank": 24143,
        "player_name": "David Gibson",
        "rank": 33186,
        "rank_sort": 33221,
        "total": 2365
      },
      {
        "club_badge_src": null,
        "entry": 497534,
        "entry_name": "The Cesc Pistols",
        "event_total": 56,
        "has_played": true,
        "id": 3339414,
        "last_rank": 32190,
        "player_name": "Michael Phillips",
        "rank": 33186,
        "rank_sort": 33222,
        "total": 2365
      },
      {
        "club_badge_src": null,
        "entry": 498659,
        "entry_name": "Zomorim",
        "event_total": 54,
        "has_played": true,
        "id": 3346847,
        "last_rank": 29904,
        "player_name": "E10 Hag",
        "rank": 33186,
        "rank_sort": 33223,
        "total": 2365
      },
      {
        "club_badge_src": null,
        "entry": 504238,
        "entry_name": "Tiki-Saka",
        "event_total": 53,
        "has_played": true,
        "id": 3384650,
        "last_rank": 28906,
        "player_name": "Haavard Hjelmeseth",
        "rank": 33186,
        "rank_sort": 33224,
        "total": 2365
      },
      {
        "club_badge_src": null,
        "entry": 509934,
        "entry_name": "SIR ALEX BURGERSON",
        "event_total": 67,
        "has_played": true,
        "id": 3424050,
        "last_rank": 40036,
        "player_name": "mohamed Laouini",
        "rank": 33186,
        "rank_sort": 33225,
        "total": 2365
      },
      {
        "club_badge_src": null,
        "entry": 518637,
        "entry_name": "Freya FC",
        "event_total": 55,
        "has_played": true,
        "id": 3482196,
        "last_rank": 30957,
        "player_name": "barra o'shea",
        "rank": 33186,
        "rank_sort": 33226,
        "total": 2365
      },
      {
        "club_badge_src": "https://fantasy.premierleague.com/gcs/plfpl-production-adobe-approved/plfpl-production/568450/0794f36e-b00d-43a9-aa7b-db69f36b26e9.png",
        "entry": 568450,
        "entry_name": "Inter Miami",
        "event_total": 68,
        "has_played": true,
        "id": 3826019,
        "last_rank": 41324,
        "player_name": "Ahmed Elsayed",
        "rank": 33186,
        "rank_sort": 33227,
        "total": 2365
      },
      {
        "club_badge_src": "https://fantasy.premierleague.com/gcs/plfpl-production-adobe-approved/plfpl-production/570547/2f6d915c-9259-48d8-b790-253bdd6de77c.png",
        "entry": 570547,
        "entry_name": "Hollinwood Knights",
        "event_total": 59,
        "has_played": true,
        "id": 3839885,
        "last_rank": 35424,
        "player_name": "Andrew Sikora",
        "rank": 33186,
        "rank_sort": 33228,
        "total": 2365
      },
      {
        "club_badge_src": null,
        "entry": 570784,
        "entry_name": "Amorim it home",
        "event_total": 57,
        "has_played": true,
        "id": 3841464,
        "last_rank": 33147,
        "player_name": "Mike Blood",
        "rank": 33186,
        "rank_sort": 33229,
        "total": 2365
      },
      {
        "club_badge_src": null,
        "entry": 585270,
        "entry_name": "Chinese Select XI",
        "event_total": 68,
        "has_played": true,
        "id": 3938773,
        "last_rank": 41324,
        "player_name": "Simon Grimshaw",
        "rank": 33186,
        "rank_sort": 33230,
        "total": 2365
      },
      {
        "club_badge_src": "https://fantasy.premierleague.com/gcs/plfpl-production-adobe-approved/plfpl-production/606304/b7a9d792-417d-4717-84a8-1ccee183c0e5.png",
        "entry": 606304,
        "entry_name": "Black Swan",
        "event_total": 75,
        "has_played": true,
        "id": 4094012,
        "last_rank": 51403,
        "player_name": "Mateusz Wamka",
        "rank": 33186,
        "rank_sort": 33231,
        "total": 2365
      },
      {
        "club_badge_src": null,
        "entry": 640140,
        "entry_name": "Ricky\u2019s Delights",
        "event_total": 61,
        "has_played": true,
        "id": 4326284,
        "last_rank": 37589,
        "player_name": "Nathan Miles",
        "rank": 33186,
        "rank_sort": 33232,
        "total": 2365
      },
      {
        "club_badge_src": null,
        "entry": 664284,
        "entry_name": "AA KWYJIBO",
        "event_total": 49,
        "has_played": true,
        "id": 4490995,
        "last_rank": 25172,
        "player_name": "Wayne Bowen",
        "rank": 33186,
        "rank_sort": 33233,
        "total": 2365
      },
      {
        "club_badge_src": null,
        "entry": 665199,
        "entry_name": "Pain in Dias",
        "event_total": 51,
        "has_played": true,
        "id": 4497297,
        "last_rank": 26827,
        "player_name": "Dominic Oatley",
        "rank": 33186,
        "rank_sort": 33234,
        "total": 2365
      },
      {
        "club_badge_src": null,
        "entry": 706855,
        "entry_name": "Burkini Faso",
        "event_total": 44,
        "has_played": true,
        "id": 4790539,
        "last_rank": 21159,
        "player_name": "Alex Green",
        "rank": 33186,
        "rank_sort": 33235,
        "total": 2365
      },
      {
        "club_badge_src": null,
        "entry": 714535,
        "entry_name": "iraqian shua",
        "event_total": 54,
        "has_played": true,
        "id": 4847678,
        "last_rank": 25902,
        "player_name": "Or Dabby",
        "rank": 33186,
        "rank_sort": 33236,
        "total": 2365
      },
      {
        "club_badge_src": "https://fantasy.premierleague.com/gcs/plfpl-production-adobe-approved/plfpl-production/716058/674c6e85-f6bd-4ec0-baf3-5a884991c8b9.png",
        "entry": 716058,
        "entry_name": "Koaste\u2019s Kings",
        "event_total": 62,
        "has_played": true,
        "id": 4858333,
        "last_rank": 34051,
        "player_name": "Simon Barrett",
        "rank": 33186,
        "rank_sort": 33237,
        "total": 2365
      },
      {
        "club_badge_src": null,
        "entry": 741780,
        "entry_name": "Pirates",
        "event_total": 52,
        "has_played": true,
        "id": 5045250,
        "last_rank": 27976,
        "player_name": "Stephen Pople",
        "rank": 33186,
        "rank_sort": 33238,
        "total": 2365
      },
      {
        "club_badge_src": null,
        "entry": 781708,
        "entry_name": "Sho Sho FC \u2b50\ufe0f\u2b50\ufe0f\u2b50\ufe0f",
        "event_total": 44,
        "has_played": true,
        "id": 5336955,
        "last_rank": 21159,
        "player_name": "Kam kalaar",
        "rank": 33186,
        "rank_sort": 33239,
        "total": 2365
      },
      {
        "club_badge_src": null,
        "entry": 809309,
        "entry_name": "Ejnars Elite",
        "event_total": 56,
        "has_played": true,
        "id": 5540933,
        "last_rank": 27644,
        "player_name": "Henrik Olesen",
        "rank": 33186,
        "rank_sort": 33240,
        "total": 2365
      },
      {
        "club_badge_src": "https://fantasy.premierleague.com/gcs/plfpl-production-adobe-approved/plfpl-production/845192/4f6c1b61-86e4-41a5-a25e-6b8b00e76932.png",
        "entry": 845192,
        "entry_name": "Chevbenko Gambit FC",
        "event_total": 60,
        "has_played": true,
        "id": 5791094,
        "last_rank": 36348,
        "player_name": "Mark Adamson",
        "rank": 33186,
        "rank_sort": 33241,
        "total": 2365
      },
      {
        "club_badge_src": null,
        "entry": 848193,
        "entry_name": "Torvesta",
        "event_total": 42,
        "has_played": true,
        "id": 5813222,
        "last_rank": 19544,
        "player_name": "Alex Torvesta",
        "rank": 33186,
        "rank_sort": 33242,
        "total": 2365
      },
      {
        "club_badge_src": null,
        "entry": 875949,
        "entry_name": "Mind the Delap",
        "event_total": 49,
        "has_played": true,
        "id": 6005458,
        "last_rank": 25172,
        "player_name": "Josh Rieders",
        "rank": 33186,
        "rank_sort": 33243,
        "total": 2365
      },
      {
        "club_badge_src": null,
        "entry": 912894,
        "entry_name": "Mia san Mia",
        "event_total": 56,
        "has_played": true,
        "id": 6277128,
        "last_rank": 27770,
        "player_name": "bisho nagy2",
        "rank": 33186,
        "rank_sort": 33244,
        "total": 2365
      },
      {
        "club_badge_src": null,
        "entry": 950063,
        "entry_name": "Hakuna Cunhata",
        "event_total": 68,
        "has_played": true,
        "id": 6545122,
        "last_rank": 41324,
        "player_name": "Ben-Leroy Nwosu",
        "rank": 33186,
        "rank_sort": 33245,
        "total": 2365
      },
      {
        "club_badge_src": "https://fantasy.premierleague.com/gcs/plfpl-production-adobe-approved/plfpl-production/1027005/1b8bfc64-8bd5-4d69-8918-0e843e80e614.png",
        "entry": 1027005,
        "entry_name": "Roaring Lions",
        "event_total": 54,
        "has_played": true,
        "id": 7105423,
        "last_rank": 29904,
        "player_name": "Bernie Colairo",
        "rank": 33186,
        "rank_sort": 33246,
        "total": 2365
      },
      {
        "club_badge_src": "https://fantasy.premierleague.com/gcs/plfpl-production-adobe-approved/plfpl-production/1069486/940936d0-308b-49a5-9715-85fd552e2924.png",
        "entry": 1069486,
        "entry_name": "A",
        "event_total": 72,
        "has_played": true,
        "id": 7403957,
        "last_rank": 53023,
        "player_name": "Mikael Svensson",
        "rank": 33186,
        "rank_sort": 33247,
        "total": 2365
      },
      {
        "club_badge_src": null,
        "entry": 1071237,
        "entry_name": "Kinder Mbeumo",
        "event_total": 56,
        "has_played": true,
        "id": 7416167,
        "last_rank": 31995,
        "player_name": "Colin MacDonald",
        "rank": 33186,
        "rank_sort": 33248,
        "total": 2365
      },
      {
        "club_badge_src": null,
        "entry": 1238303,
        "entry_name": "Redemption",
        "event_total": 49,
        "has_played": true,
        "id": 8599026,
        "last_rank": 25172,
        "player_name": "David Thick",
        "rank": 33186,
        "rank_sort": 33249,
        "total": 2365
      },
      {
        "club_badge_src": null,
        "entry": 1290284,
        "entry_name": "Let Things McGinn",
        "event_total": 47,
        "has_played": true,
        "id": 8966042,
        "last_rank": 23341,
        "player_name": "Damon Middleton",
        "rank": 33186,
        "rank_sort": 33250,
        "total": 2365
      }
    ]
  }
}