{
  "last_updated_data": "2026-05-24T23:28:17Z",
  "league": {
    "admin_entry": null,
    "closed": false,
    "code_privacy": "p",
    "created": "2025-07-20T23:14:33.933835Z",
    "cup_league": 2815434,
    "has_cup": true,
    "id": 314,
    "league_type": "s",
    "max_entries": null,
    "name": "Overall",
    "rank": null,
    "scoring": "c",
    "start_event": 1
  },
  "new_entries": {
    "has_next": false,
    "page": 1,
    "results": []
  },
  "standings": {
    "has_next": true,
    "page": 337,
    "results": [
      {
        "club_badge_src": null,
        "entry": 191250,
        "entry_name": "Santalize",
        "event_total": 58,
        "has_played": true,
        "id": 1266675,
        "last_rank": 17078,
        "player_name": "Mehdi Farbagha",
        "rank": 16786,
        "rank_sort": 16801,
        "total": 2385
      },
      {
        "club_badge_src": null,
        "entry": 347499,
        "entry_name": "Kinder Mbeumo",
        "event_total": 45,
        "has_played": true,
        "id": 2325976,
        "last_rank": 10102,
        "player_name": "Ryan Cuthbertson",
        "rank": 16786,
        "rank_sort": 16802,
        "total": 2385
      },
      {
        "club_badge_src": "https://fantasy.premierleague.com/gcs/plfpl-production-adobe-approved/plfpl-production/381153/9fa19b72-4f2a-45d6-a29d-f516345203f8.png",
        "entry": 381153,
        "entry_name": "Spartans FC",
        "event_total": 65,
        "has_played": true,
        "id": 2554998,
        "last_rank": 18985,
        "player_name": "Ojiako Ndubizu",
        "rank": 16786,
        "rank_sort": 16803,
        "total": 2385
      },
      {
        "club_badge_src": null,
        "entry": 456796,
        "entry_name": "OuroborosKay FC",
        "event_total": 70,
        "has_played": true,
        "id": 3064650,
        "last_rank": 22685,
        "player_name": "Kaylon Solomons",
        "rank": 16786,
        "rank_sort": 16804,
        "total": 2385
      },
      {
        "club_badge_src": null,
        "entry": 480637,
        "entry_name": "Inanimate Carbon Rod",
        "event_total": 78,
        "has_played": true,
        "id": 3226857,
        "last_rank": 25902,
        "player_name": "Tom Brownlee",
        "rank": 16786,
        "rank_sort": 16805,
        "total": 2385
      },
      {
        "club_badge_src": null,
        "entry": 500641,
        "entry_name": "Hallam Globetrotters",
        "event_total": 65,
        "has_played": true,
        "id": 3359846,
        "last_rank": 22064,
        "player_name": "nathan jones",
        "rank": 16786,
        "rank_sort": 16806,
        "total": 2385
      },
      {
        "club_badge_src": "https://fantasy.premierleague.com/gcs/plfpl-production-adobe-approved/plfpl-production/571356/304376ce-9392-45d5-8622-e8c04efc0310.png",
        "entry": 571356,
        "entry_name": "FC Krumcelona",
        "event_total": 50,
        "has_played": true,
        "id": 3845301,
        "last_rank": 12420,
        "player_name": "Jan Krumnikl",
        "rank": 16786,
        "rank_sort": 16807,
        "total": 2385
      },
      {
        "club_badge_src": "https://fantasy.premierleague.com/gcs/plfpl-production-adobe-approved/plfpl-production/576247/9a805118-3ec3-4787-af75-2175944e79b8.png",
        "entry": 576247,
        "entry_name": "Brat Summerville",
        "event_total": 69,
        "has_played": true,
        "id": 3877660,
        "last_rank": 21949,
        "player_name": "Jamie Tucker",
        "rank": 16786,
        "rank_sort": 16808,
        "total": 2385
      },
      {
        "club_badge_src": null,
        "entry": 737942,
        "entry_name": "Hatters",
        "event_total": 60,
        "has_played": true,
        "id": 5016954,
        "last_rank": 18113,
        "player_name": "Connor Barford",
        "rank": 16786,
        "rank_sort": 16809,
        "total": 2385
      },
      {
        "club_badge_src": "https://fantasy.premierleague.com/gcs/plfpl-production-adobe-approved/plfpl-production/994498/f279fad1-a9f2-465b-9d2f-96407a9fea04.png",
        "entry": 994498,
        "entry_name": "Villa Vingrom",
        "event_total": 57,
        "has_played": true,
        "id": 6862121,
        "last_rank": 13947,
        "player_name": "Hallvard Skjellerud",
        "rank": 16786,
        "rank_sort": 16810,
        "total": 2385
      },
      {
        "club_badge_src": null,
        "entry": 1018885,
        "entry_name": "Squidwirtz",
        "event_total": 68,
        "has_played": true,
        "id": 7048997,
        "last_rank": 20983,
        "player_name": "Hanzalah Mulla",
        "rank": 16786,
        "rank_sort": 16811,
        "total": 2385
      },
      {
        "club_badge_src": null,
        "entry": 1024428,
        "entry_name": "The Cantonas",
        "event_total": 56,
        "has_played": true,
        "id": 7087514,
        "last_rank": 15550,
        "player_name": "Thomas Henriksen",
        "rank": 16786,
        "rank_sort": 16812,
        "total": 2385
      },
      {
        "club_badge_src": null,
        "entry": 1039985,
        "entry_name": "Svenne Boyz",
        "event_total": 67,
        "has_played": true,
        "id": 7197080,
        "last_rank": 20280,
        "player_name": "Samuel Ryckenberg",
        "rank": 16786,
        "rank_sort": 16813,
        "total": 2385
      },
      {
        "club_badge_src": null,
        "entry": 1090919,
        "entry_name": "Mallard Ducks",
        "event_total": 63,
        "has_played": true,
        "id": 7555411,
        "last_rank": 20416,
        "player_name": "Mel Sarao",
        "rank": 16786,
        "rank_sort": 16814,
        "total": 2385
      },
      {
        "club_badge_src": "https://fantasy.premierleague.com/gcs/plfpl-production-adobe-approved/plfpl-production/1157742/6cfbf9f0-ae96-46c4-b58a-7ee21defbbc7.png",
        "entry": 1157742,
        "entry_name": "Garnettball",
        "event_total": 68,
        "has_played": true,
        "id": 8028013,
        "last_rank": 18113,
        "player_name": "Will Garnett",
        "rank": 16786,
        "rank_sort": 16815,
        "total": 2385
      },
      {
        "club_badge_src": null,
        "entry": 1280183,
        "entry_name": "Stabenfeldt",
        "event_total": 57,
        "has_played": true,
        "id": 8895670,
        "last_rank": 16320,
        "player_name": "Mikkel Stabenfeldt",
        "rank": 16786,
        "rank_sort": 16816,
        "total": 2385
      },
      {
        "club_badge_src": null,
        "entry": 1482453,
        "entry_name": "The Bomb Squad",
        "event_total": 60,
        "has_played": true,
        "id": 10337531,
        "last_rank": 18377,
        "player_name": "Chris FitzGerald",
        "rank": 16786,
        "rank_sort": 16817,
        "total": 2385
      },
      {
        "club_badge_src": null,
        "entry": 1758720,
        "entry_name": "I\u2019m Just Watching",
        "event_total": 66,
        "has_played": true,
        "id": 12347652,
        "last_rank": 19721,
        "player_name": "Tom Parsons",
        "rank": 16786,
        "rank_sort": 16818,
        "total": 2385
      },
      {
        "club_badge_src": null,
        "entry": 1778281,
        "entry_name": "\u0639\u0632\u064a\u0632 \u0627\u0644\u062a\u0631\u064a\u0633  \ufffd",
        "event_total": 42,
        "has_played": true,
        "id": 12493256,
        "last_rank": 8925,
        "player_name": "Aziz Almagdoob",
        "rank": 16786,
        "rank_sort": 16819,
        "total": 2385
      },
      {
        "club_badge_src": null,
        "entry": 1971295,
        "entry_name": "Arsenalex",
        "event_total": 69,
        "has_played": true,
        "id": 13913434,
        "last_rank": 25330,
        "player_name": "Alex T",
        "rank": 16786,
        "rank_sort": 16820,
        "total": 2385
      },
      {
        "club_badge_src": null,
        "entry": 1984731,
        "entry_name": "Mighty Radjen",
        "event_total": 67,
        "has_played": true,
        "id": 14019428,
        "last_rank": 20280,
        "player_name": "Rade Todorovic",
        "rank": 16786,
        "rank_sort": 16821,
        "total": 2385
      },
      {
        "club_badge_src": null,
        "entry": 2045571,
        "entry_name": "Khrystya",
        "event_total": 66,
        "has_played": true,
        "id": 14487111,
        "last_rank": 22830,
        "player_name": "\u0414\u043c\u0438\u0442\u0440\u043e \u041c\u0435\u043d\u0434\u0440\u0438\u0448\u043e\u0440\u0430",
        "rank": 16786,
        "rank_sort": 16822,
        "total": 2385
      },
      {
        "club_badge_src": null,
        "entry": 2089319,
        "entry_name": "Kinder Mbuemo",
        "event_total": 68,
        "has_played": true,
        "id": 14823126,
        "last_rank": 18113,
        "player_name": "Benjamin Keeble",
        "rank": 16786,
        "rank_sort": 16823,
        "total": 2385
      },
      {
        "club_badge_src": "https://fantasy.premierleague.com/gcs/plfpl-production-adobe-approved/plfpl-production/2412954/f0f9fb38-bcb1-4703-8055-ee3dfcb51c22.png",
        "entry": 2412954,
        "entry_name": "Enghaaland FC",
        "event_total": 60,
        "has_played": true,
        "id": 17248892,
        "last_rank": 15694,
        "player_name": "Luke Massey",
        "rank": 16786,
        "rank_sort": 16824,
        "total": 2385
      },
      {
        "club_badge_src": null,
        "entry": 2434138,
        "entry_name": "2nd Is Nothing FC",
        "event_total": 75,
        "has_played": true,
        "id": 17406598,
        "last_rank": 30957,
        "player_name": "Will Mead",
        "rank": 16786,
        "rank_sort": 16825,
        "total": 2385
      },
      {
        "club_badge_src": null,
        "entry": 2602684,
        "entry_name": "Apogee",
        "event_total": 62,
        "has_played": true,
        "id": 18693939,
        "last_rank": 19835,
        "player_name": "Gems Nille",
        "rank": 16786,
        "rank_sort": 16826,
        "total": 2385
      },
      {
        "club_badge_src": null,
        "entry": 2618947,
        "entry_name": "Rice Rice Baby",
        "event_total": 54,
        "has_played": true,
        "id": 18818198,
        "last_rank": 14604,
        "player_name": "Alastair Gibson",
        "rank": 16786,
        "rank_sort": 16827,
        "total": 2385
      },
      {
        "club_badge_src": "https://fantasy.premierleague.com/gcs/plfpl-production-adobe-approved/plfpl-production/2689014/346e0700-b8a3-4804-a849-b34418dc9732.png",
        "entry": 2689014,
        "entry_name": "Sensation",
        "event_total": 53,
        "has_played": true,
        "id": 19341124,
        "last_rank": 11821,
        "player_name": "Rustam Iskandarov",
        "rank": 16786,
        "rank_sort": 16828,
        "total": 2385
      },
      {
        "club_badge_src": null,
        "entry": 3065881,
        "entry_name": "xnatashax",
        "event_total": 57,
        "has_played": true,
        "id": 22573736,
        "last_rank": 16441,
        "player_name": "Natasha Seoane",
        "rank": 16786,
        "rank_sort": 16829,
        "total": 2385
      },
      {
        "club_badge_src": null,
        "entry": 3210256,
        "entry_name": "Chrono Stone **",
        "event_total": 68,
        "has_played": true,
        "id": 23734160,
        "last_rank": 21159,
        "player_name": "Fabian de Klerk",
        "rank": 16786,
        "rank_sort": 16830,
        "total": 2385
      },
      {
        "club_badge_src": null,
        "entry": 3222713,
        "entry_name": "Fener78",
        "event_total": 61,
        "has_played": true,
        "id": 23831786,
        "last_rank": 18985,
        "player_name": "Yuksel \u00d8zbal",
        "rank": 16786,
        "rank_sort": 16831,
        "total": 2385
      },
      {
        "club_badge_src": null,
        "entry": 3262619,
        "entry_name": "Now I\u2019m a Baleba",
        "event_total": 68,
        "has_played": true,
        "id": 24141729,
        "last_rank": 24330,
        "player_name": "Evan McClure",
        "rank": 16786,
        "rank_sort": 16832,
        "total": 2385
      },
      {
        "club_badge_src": "https://fantasy.premierleague.com/gcs/plfpl-production-adobe-approved/plfpl-production/3285994/4071a358-31f0-4944-baf3-cf90f91cec2d.png",
        "entry": 3285994,
        "entry_name": "Junior Right \ufffd\u26bd\ufe0f",
        "event_total": 68,
        "has_played": true,
        "id": 24325203,
        "last_rank": 24475,
        "player_name": "Junior right",
        "rank": 16786,
        "rank_sort": 16833,
        "total": 2385
      },
      {
        "club_badge_src": null,
        "entry": 3292528,
        "entry_name": "Titus Shambles",
        "event_total": 61,
        "has_played": true,
        "id": 24379082,
        "last_rank": 19103,
        "player_name": "Adam Gourley",
        "rank": 16786,
        "rank_sort": 16834,
        "total": 2385
      },
      {
        "club_badge_src": "https://fantasy.premierleague.com/gcs/plfpl-production-adobe-approved/plfpl-production/3307144/5223e0c1-e4cf-4cb0-862d-95901d75a8ff.png",
        "entry": 3307144,
        "entry_name": "Restored",
        "event_total": 70,
        "has_played": true,
        "id": 24497723,
        "last_rank": 26230,
        "player_name": "Hamza Hamad",
        "rank": 16786,
        "rank_sort": 16835,
        "total": 2385
      },
      {
        "club_badge_src": null,
        "entry": 3635231,
        "entry_name": "kfc",
        "event_total": 67,
        "has_played": true,
        "id": 27090375,
        "last_rank": 23522,
        "player_name": "Josh Kenolty",
        "rank": 16786,
        "rank_sort": 16836,
        "total": 2385
      },
      {
        "club_badge_src": null,
        "entry": 3702943,
        "entry_name": "YNWA",
        "event_total": 54,
        "has_played": true,
        "id": 27628457,
        "last_rank": 12322,
        "player_name": "Ming Chan",
        "rank": 16786,
        "rank_sort": 16837,
        "total": 2385
      },
      {
        "club_badge_src": null,
        "entry": 3717806,
        "entry_name": "Atletico Shirley",
        "event_total": 60,
        "has_played": true,
        "id": 27743834,
        "last_rank": 18270,
        "player_name": "Callum Harris",
        "rank": 16786,
        "rank_sort": 16838,
        "total": 2385
      },
      {
        "club_badge_src": "https://fantasy.premierleague.com/gcs/plfpl-production-adobe-approved/plfpl-production/3786691/f4851f18-0ab9-4e49-9066-6501144d6ff6.png",
        "entry": 3786691,
        "entry_name": "Blue Moon",
        "event_total": 54,
        "has_played": true,
        "id": 28285308,
        "last_rank": 14496,
        "player_name": "Adam Hoppe",
        "rank": 16786,
        "rank_sort": 16839,
        "total": 2385
      },
      {
        "club_badge_src": null,
        "entry": 3815934,
        "entry_name": "YOU SHALL NOT PASS!",
        "event_total": 54,
        "has_played": true,
        "id": 28536365,
        "last_rank": 12322,
        "player_name": "Patrick Moen",
        "rank": 16786,
        "rank_sort": 16840,
        "total": 2385
      },
      {
        "club_badge_src": "https://fantasy.premierleague.com/gcs/plfpl-production-adobe-approved/plfpl-production/4168063/9052b9b9-fd03-4b31-b77f-dca4c410d90e.png",
        "entry": 4168063,
        "entry_name": "Black tigers",
        "event_total": 74,
        "has_played": true,
        "id": 31520827,
        "last_rank": 30060,
        "player_name": "ABAZI FIT",
        "rank": 16786,
        "rank_sort": 16841,
        "total": 2385
      },
      {
        "club_badge_src": null,
        "entry": 4401145,
        "entry_name": "Big Baby FC",
        "event_total": 66,
        "has_played": true,
        "id": 33471731,
        "last_rank": 22830,
        "player_name": "Thomas Barrett",
        "rank": 16786,
        "rank_sort": 16842,
        "total": 2385
      },
      {
        "club_badge_src": null,
        "entry": 4538514,
        "entry_name": "FC Ubuntu",
        "event_total": 62,
        "has_played": true,
        "id": 34623554,
        "last_rank": 16959,
        "player_name": "Daniel Chingang",
        "rank": 16786,
        "rank_sort": 16843,
        "total": 2385
      },
      {
        "club_badge_src": null,
        "entry": 4626751,
        "entry_name": "AT_7",
        "event_total": 60,
        "has_played": true,
        "id": 35373403,
        "last_rank": 15694,
        "player_name": "Abd Al-Rahman Tareef",
        "rank": 16786,
        "rank_sort": 16844,
        "total": 2385
      },
      {
        "club_badge_src": null,
        "entry": 4739216,
        "entry_name": "Naser_FC",
        "event_total": 56,
        "has_played": true,
        "id": 36464044,
        "last_rank": 15694,
        "player_name": "Nas Er",
        "rank": 16786,
        "rank_sort": 16845,
        "total": 2385
      },
      {
        "club_badge_src": null,
        "entry": 4951113,
        "entry_name": "ForeverTree",
        "event_total": 67,
        "has_played": true,
        "id": 38203835,
        "last_rank": 23656,
        "player_name": "Desmond Leung",
        "rank": 16786,
        "rank_sort": 16846,
        "total": 2385
      },
      {
        "club_badge_src": null,
        "entry": 5011417,
        "entry_name": "Cole Me Maybe",
        "event_total": 56,
        "has_played": true,
        "id": 38699150,
        "last_rank": 13257,
        "player_name": "Sami Beatty",
        "rank": 16786,
        "rank_sort": 16847,
        "total": 2385
      },
      {
        "club_badge_src": null,
        "entry": 5971145,
        "entry_name": "heel hook",
        "event_total": 65,
        "has_played": true,
        "id": 46989500,
        "last_rank": 18985,
        "player_name": "Adonis Murati",
        "rank": 16786,
        "rank_sort": 16848,
        "total": 2385
      },
      {
        "club_badge_src": null,
        "entry": 6077718,
        "entry_name": "Bjartski",
        "event_total": 47,
        "has_played": true,
        "id": 47982138,
        "last_rank": 10992,
        "player_name": "Bjarte Venaas",
        "rank": 16786,
        "rank_sort": 16849,
        "total": 2385
      },
      {
        "club_badge_src": null,
        "entry": 6786902,
        "entry_name": "Khos FC",
        "event_total": 50,
        "has_played": true,
        "id": 54347826,
        "last_rank": 12470,
        "player_name": "Khosrul Islam",
        "rank": 16786,
        "rank_sort": 16850,
        "total": 2385
      }
    ]
  }
}