{
  "last_updated_data": "2026-05-24T23:28:17Z",
  "league": {
    "admin_entry": null,
    "closed": false,
    "code_privacy": "p",
    "created": "2025-07-20T23:14:33.933835Z",
    "cup_league": 2815434,
    "has_cup": true,
    "id": 314,
    "league_type": "s",
    "max_entries": null,
    "name": "Overall",
    "rank": null,
    "scoring": "c",
    "start_event": 1
  },
  "new_entries": {
    "has_next": false,
    "page": 1,
    "results": []
  },
  "standings": {
    "has_next": true,
    "page": 1134,
    "results": [
      {
        "club_badge_src": null,
        "entry": 115400,
        "entry_name": "Bacon",
        "event_total": 56,
        "has_played": true,
        "id": 753153,
        "last_rank": 55514,
        "player_name": "Eearth Homrossukhon",
        "rank": 56641,
        "rank_sort": 56651,
        "total": 2348
      },
      {
        "club_badge_src": "https://fantasy.premierleague.com/gcs/plfpl-production-adobe-approved/plfpl-production/162986/0922aa29-f656-40c2-8054-a82e4e8627d1.png",
        "entry": 162986,
        "entry_name": "Kizito",
        "event_total": 60,
        "has_played": true,
        "id": 1074664,
        "last_rank": 62617,
        "player_name": "Madut Awur",
        "rank": 56641,
        "rank_sort": 56652,
        "total": 2348
      },
      {
        "club_badge_src": "https://fantasy.premierleague.com/gcs/plfpl-production-adobe-approved/plfpl-production/164731/754214d0-a83e-4b27-a0c9-1d3941bd4aae.png",
        "entry": 164731,
        "entry_name": "ARSENEal",
        "event_total": 31,
        "has_played": true,
        "id": 1087280,
        "last_rank": 24636,
        "player_name": "Ante \u0106ubela",
        "rank": 56641,
        "rank_sort": 56653,
        "total": 2348
      },
      {
        "club_badge_src": null,
        "entry": 169428,
        "entry_name": "Put in G.O.A.T.",
        "event_total": 60,
        "has_played": true,
        "id": 1119631,
        "last_rank": 62429,
        "player_name": "D M",
        "rank": 56641,
        "rank_sort": 56654,
        "total": 2348
      },
      {
        "club_badge_src": null,
        "entry": 174822,
        "entry_name": "Mbooooooomo",
        "event_total": 63,
        "has_played": true,
        "id": 1154321,
        "last_rank": 60671,
        "player_name": "Shakeel Ahmed",
        "rank": 56641,
        "rank_sort": 56655,
        "total": 2348
      },
      {
        "club_badge_src": null,
        "entry": 203284,
        "entry_name": "Baby Reijnders",
        "event_total": 66,
        "has_played": true,
        "id": 1350439,
        "last_rank": 58688,
        "player_name": "Josh Davies",
        "rank": 56641,
        "rank_sort": 56656,
        "total": 2348
      },
      {
        "club_badge_src": null,
        "entry": 204474,
        "entry_name": "KlippityKlopps",
        "event_total": 68,
        "has_played": true,
        "id": 1359001,
        "last_rank": 69907,
        "player_name": "Andrew Harvey",
        "rank": 56641,
        "rank_sort": 56657,
        "total": 2348
      },
      {
        "club_badge_src": "https://fantasy.premierleague.com/gcs/plfpl-production-adobe-approved/plfpl-production/256498/0e55f5b8-be7d-497d-b447-1b794deed0fb.png",
        "entry": 256498,
        "entry_name": "downstars",
        "event_total": 57,
        "has_played": true,
        "id": 1705918,
        "last_rank": 50635,
        "player_name": "James Downie",
        "rank": 56641,
        "rank_sort": 56658,
        "total": 2348
      },
      {
        "club_badge_src": null,
        "entry": 260600,
        "entry_name": "HereComesTheMoneeyyy",
        "event_total": 58,
        "has_played": true,
        "id": 1732383,
        "last_rank": 52205,
        "player_name": "Joshua Penn",
        "rank": 56641,
        "rank_sort": 56659,
        "total": 2348
      },
      {
        "club_badge_src": "https://fantasy.premierleague.com/gcs/plfpl-production-adobe-approved/plfpl-production/263496/9a253355-ebe5-480e-90c6-92ef6dd510fb.png",
        "entry": 263496,
        "entry_name": "AhRoy88",
        "event_total": 65,
        "has_played": true,
        "id": 1751969,
        "last_rank": 64190,
        "player_name": "Tiong How Roy Chua",
        "rank": 56641,
        "rank_sort": 56660,
        "total": 2348
      },
      {
        "club_badge_src": null,
        "entry": 284522,
        "entry_name": "Mamush Getachew",
        "event_total": 65,
        "has_played": true,
        "id": 1894577,
        "last_rank": 71956,
        "player_name": "\" The Special One\"",
        "rank": 56641,
        "rank_sort": 56661,
        "total": 2348
      },
      {
        "club_badge_src": null,
        "entry": 402811,
        "entry_name": "Arsenehenry",
        "event_total": 66,
        "has_played": true,
        "id": 2701042,
        "last_rank": 66057,
        "player_name": "Arsene Henry",
        "rank": 56641,
        "rank_sort": 56662,
        "total": 2348
      },
      {
        "club_badge_src": null,
        "entry": 437290,
        "entry_name": "Trust the process",
        "event_total": 56,
        "has_played": true,
        "id": 2932423,
        "last_rank": 49078,
        "player_name": "Kyle Stidwell",
        "rank": 56641,
        "rank_sort": 56663,
        "total": 2348
      },
      {
        "club_badge_src": null,
        "entry": 455260,
        "entry_name": "YesMan",
        "event_total": 84,
        "has_played": true,
        "id": 3054163,
        "last_rank": 118343,
        "player_name": "Rizqi Maulidiani",
        "rank": 56641,
        "rank_sort": 56664,
        "total": 2348
      },
      {
        "club_badge_src": null,
        "entry": 456890,
        "entry_name": "wilsons vildbasser",
        "event_total": 61,
        "has_played": true,
        "id": 3065275,
        "last_rank": 64190,
        "player_name": "Alexander Wilson",
        "rank": 56641,
        "rank_sort": 56665,
        "total": 2348
      },
      {
        "club_badge_src": "https://fantasy.premierleague.com/gcs/plfpl-production-adobe-approved/plfpl-production/459499/b530b986-d8b0-49cf-9568-31448944051d.png",
        "entry": 459499,
        "entry_name": "345 Resort & Spa",
        "event_total": 59,
        "has_played": true,
        "id": 3082559,
        "last_rank": 53837,
        "player_name": "Natthee Chaibawonwiwath",
        "rank": 56641,
        "rank_sort": 56666,
        "total": 2348
      },
      {
        "club_badge_src": null,
        "entry": 480508,
        "entry_name": "Haribo Sch\u00e4rmix",
        "event_total": 76,
        "has_played": true,
        "id": 3225985,
        "last_rank": 86735,
        "player_name": "Ben Rowell",
        "rank": 56641,
        "rank_sort": 56667,
        "total": 2348
      },
      {
        "club_badge_src": null,
        "entry": 552674,
        "entry_name": "Abo Lola FC",
        "event_total": 81,
        "has_played": true,
        "id": 3720000,
        "last_rank": 110416,
        "player_name": "Ibrahim Arafa",
        "rank": 56641,
        "rank_sort": 56668,
        "total": 2348
      },
      {
        "club_badge_src": null,
        "entry": 660552,
        "entry_name": "M\u0142ode Wilki",
        "event_total": 68,
        "has_played": true,
        "id": 4464311,
        "last_rank": 69907,
        "player_name": "Micha\u0142 Borowski",
        "rank": 56641,
        "rank_sort": 56669,
        "total": 2348
      },
      {
        "club_badge_src": null,
        "entry": 738054,
        "entry_name": "Julesprekken",
        "event_total": 66,
        "has_played": true,
        "id": 5017762,
        "last_rank": 74166,
        "player_name": "Even Emberland",
        "rank": 56641,
        "rank_sort": 56670,
        "total": 2348
      },
      {
        "club_badge_src": null,
        "entry": 766555,
        "entry_name": "Espada",
        "event_total": 58,
        "has_played": true,
        "id": 5228275,
        "last_rank": 52205,
        "player_name": "Damola Akinmoladun",
        "rank": 56641,
        "rank_sort": 56671,
        "total": 2348
      },
      {
        "club_badge_src": "https://fantasy.premierleague.com/gcs/plfpl-production-adobe-approved/plfpl-production/806705/876ed5be-10dc-4670-98b8-821e46cd3406.png",
        "entry": 806705,
        "entry_name": "Magpienificent",
        "event_total": 60,
        "has_played": true,
        "id": 5522713,
        "last_rank": 55514,
        "player_name": "Max Klein",
        "rank": 56641,
        "rank_sort": 56672,
        "total": 2348
      },
      {
        "club_badge_src": null,
        "entry": 831361,
        "entry_name": "EL-Fares",
        "event_total": 47,
        "has_played": true,
        "id": 5694405,
        "last_rank": 42081,
        "player_name": "Ahmed Fares",
        "rank": 56641,
        "rank_sort": 56673,
        "total": 2348
      },
      {
        "club_badge_src": null,
        "entry": 902397,
        "entry_name": "Random Heroes",
        "event_total": 64,
        "has_played": true,
        "id": 6200511,
        "last_rank": 69907,
        "player_name": "Alv Espeseth",
        "rank": 56641,
        "rank_sort": 56674,
        "total": 2348
      },
      {
        "club_badge_src": null,
        "entry": 983797,
        "entry_name": "WhackMySaka",
        "event_total": 63,
        "has_played": true,
        "id": 6782870,
        "last_rank": 60671,
        "player_name": "Mike Monahan",
        "rank": 56641,
        "rank_sort": 56675,
        "total": 2348
      },
      {
        "club_badge_src": null,
        "entry": 1163106,
        "entry_name": "Triple O Squad",
        "event_total": 55,
        "has_played": true,
        "id": 8068419,
        "last_rank": 54065,
        "player_name": "oluseun orebajo",
        "rank": 56641,
        "rank_sort": 56676,
        "total": 2348
      },
      {
        "club_badge_src": null,
        "entry": 1289693,
        "entry_name": "Arteta IN OUT",
        "event_total": 55,
        "has_played": true,
        "id": 8961889,
        "last_rank": 53952,
        "player_name": "Mohsin Asaria",
        "rank": 56641,
        "rank_sort": 56677,
        "total": 2348
      },
      {
        "club_badge_src": null,
        "entry": 1324239,
        "entry_name": "Rock n Roll Saar",
        "event_total": 58,
        "has_played": true,
        "id": 9204690,
        "last_rank": 59077,
        "player_name": "Tom Hendry",
        "rank": 56641,
        "rank_sort": 56678,
        "total": 2348
      },
      {
        "club_badge_src": null,
        "entry": 1393636,
        "entry_name": "Glad All Over",
        "event_total": 50,
        "has_played": true,
        "id": 9695349,
        "last_rank": 46106,
        "player_name": "Rob Berg",
        "rank": 56641,
        "rank_sort": 56679,
        "total": 2348
      },
      {
        "club_badge_src": null,
        "entry": 1424280,
        "entry_name": "Win Hai Ya Learn Hai",
        "event_total": 66,
        "has_played": true,
        "id": 9922226,
        "last_rank": 66057,
        "player_name": "Shahraiz Ilahi",
        "rank": 56641,
        "rank_sort": 56680,
        "total": 2348
      },
      {
        "club_badge_src": null,
        "entry": 1559616,
        "entry_name": "Navlerusk",
        "event_total": 52,
        "has_played": true,
        "id": 10891647,
        "last_rank": 49207,
        "player_name": "svein remme",
        "rank": 56641,
        "rank_sort": 56681,
        "total": 2348
      },
      {
        "club_badge_src": null,
        "entry": 1634647,
        "entry_name": "FolloFlames",
        "event_total": 55,
        "has_played": true,
        "id": 11441774,
        "last_rank": 53952,
        "player_name": "Jens Erik",
        "rank": 56641,
        "rank_sort": 56682,
        "total": 2348
      },
      {
        "club_badge_src": null,
        "entry": 1741734,
        "entry_name": "Kirky The Turkey",
        "event_total": 68,
        "has_played": true,
        "id": 12220776,
        "last_rank": 78440,
        "player_name": "Harry Kirkup",
        "rank": 56641,
        "rank_sort": 56683,
        "total": 2348
      },
      {
        "club_badge_src": null,
        "entry": 1781814,
        "entry_name": "MBC ACTION",
        "event_total": 64,
        "has_played": true,
        "id": 12518771,
        "last_rank": 62429,
        "player_name": "Amir Ad",
        "rank": 56641,
        "rank_sort": 56684,
        "total": 2348
      },
      {
        "club_badge_src": null,
        "entry": 1848145,
        "entry_name": "Everybody Wirtz",
        "event_total": 58,
        "has_played": true,
        "id": 13004389,
        "last_rank": 45927,
        "player_name": "Louis Moss",
        "rank": 56641,
        "rank_sort": 56685,
        "total": 2348
      },
      {
        "club_badge_src": null,
        "entry": 2004197,
        "entry_name": "lepp\u00e4vaaran gattuso",
        "event_total": 68,
        "has_played": true,
        "id": 14169568,
        "last_rank": 78440,
        "player_name": "Roope Kuossari",
        "rank": 56641,
        "rank_sort": 56686,
        "total": 2348
      },
      {
        "club_badge_src": null,
        "entry": 2023492,
        "entry_name": "Nerazzurri",
        "event_total": 72,
        "has_played": true,
        "id": 14319990,
        "last_rank": 78244,
        "player_name": "Ibrahim Adam",
        "rank": 56641,
        "rank_sort": 56687,
        "total": 2348
      },
      {
        "club_badge_src": null,
        "entry": 2125333,
        "entry_name": "Rivers of Goals",
        "event_total": 57,
        "has_played": true,
        "id": 15100708,
        "last_rank": 57200,
        "player_name": "Igors Alferovs",
        "rank": 56641,
        "rank_sort": 56688,
        "total": 2348
      },
      {
        "club_badge_src": null,
        "entry": 2242270,
        "entry_name": "Es Ese Eze's Essay",
        "event_total": 54,
        "has_played": true,
        "id": 15974707,
        "last_rank": 52357,
        "player_name": "Mikkel Danielsen",
        "rank": 56641,
        "rank_sort": 56689,
        "total": 2348
      },
      {
        "club_badge_src": null,
        "entry": 2301662,
        "entry_name": "Luton's Revenge F.C.",
        "event_total": 67,
        "has_played": true,
        "id": 16416419,
        "last_rank": 67695,
        "player_name": "Andre Lamoureux",
        "rank": 56641,
        "rank_sort": 56690,
        "total": 2348
      },
      {
        "club_badge_src": null,
        "entry": 2560090,
        "entry_name": "mor2",
        "event_total": 62,
        "has_played": true,
        "id": 18360281,
        "last_rank": 66200,
        "player_name": "-iimor2 .",
        "rank": 56641,
        "rank_sort": 56691,
        "total": 2348
      },
      {
        "club_badge_src": null,
        "entry": 2578785,
        "entry_name": "Good Luck Michael",
        "event_total": 50,
        "has_played": true,
        "id": 18508312,
        "last_rank": 46236,
        "player_name": "Andrew Walmsley",
        "rank": 56641,
        "rank_sort": 56692,
        "total": 2348
      },
      {
        "club_badge_src": null,
        "entry": 2605249,
        "entry_name": "Bensernal",
        "event_total": 66,
        "has_played": true,
        "id": 18713865,
        "last_rank": 66057,
        "player_name": "benson toh",
        "rank": 56641,
        "rank_sort": 56693,
        "total": 2348
      },
      {
        "club_badge_src": null,
        "entry": 2611072,
        "entry_name": "LukerVandross FC",
        "event_total": 46,
        "has_played": true,
        "id": 18759290,
        "last_rank": 40770,
        "player_name": "Luke Chester",
        "rank": 56641,
        "rank_sort": 56694,
        "total": 2348
      },
      {
        "club_badge_src": null,
        "entry": 2825705,
        "entry_name": "Enter name here",
        "event_total": 51,
        "has_played": true,
        "id": 20645381,
        "last_rank": 47596,
        "player_name": "Niall mcCart",
        "rank": 56641,
        "rank_sort": 56695,
        "total": 2348
      },
      {
        "club_badge_src": "https://fantasy.premierleague.com/gcs/plfpl-production-adobe-approved/plfpl-production/2912371/32e17b65-f502-485d-8fe6-b5ecc6a3358c.png",
        "entry": 2912371,
        "entry_name": "Wakanda FC",
        "event_total": 60,
        "has_played": true,
        "id": 21346369,
        "last_rank": 55514,
        "player_name": "Abdallah Shaban",
        "rank": 56641,
        "rank_sort": 56696,
        "total": 2348
      },
      {
        "club_badge_src": null,
        "entry": 2951418,
        "entry_name": "FC Qtasy",
        "event_total": 58,
        "has_played": true,
        "id": 21675927,
        "last_rank": 59077,
        "player_name": "Jan Kulas",
        "rank": 56641,
        "rank_sort": 56697,
        "total": 2348
      },
      {
        "club_badge_src": null,
        "entry": 3244058,
        "entry_name": "GOSPOD GROF",
        "event_total": 57,
        "has_played": true,
        "id": 23997670,
        "last_rank": 57358,
        "player_name": "Darko Nastevski",
        "rank": 56641,
        "rank_sort": 56698,
        "total": 2348
      },
      {
        "club_badge_src": "https://fantasy.premierleague.com/gcs/plfpl-production-adobe-approved/plfpl-production/3266107/943d4edb-02cb-4dd2-b55c-ea6f2cbc926a.png",
        "entry": 3266107,
        "entry_name": "Creeds Assassins",
        "event_total": 66,
        "has_played": true,
        "id": 24169035,
        "last_rank": 58688,
        "player_name": "Gary Hughes",
        "rank": 56641,
        "rank_sort": 56699,
        "total": 2348
      },
      {
        "club_badge_src": null,
        "entry": 3280739,
        "entry_name": "Haircut 100",
        "event_total": 63,
        "has_played": true,
        "id": 24283129,
        "last_rank": 60671,
        "player_name": "Daniel Harland",
        "rank": 56641,
        "rank_sort": 56700,
        "total": 2348
      }
    ]
  }
}