{
  "last_updated_data": "2026-05-24T23:28:17Z",
  "league": {
    "admin_entry": null,
    "closed": false,
    "code_privacy": "p",
    "created": "2025-07-20T23:14:33.933835Z",
    "cup_league": 2815434,
    "has_cup": true,
    "id": 314,
    "league_type": "s",
    "max_entries": null,
    "name": "Overall",
    "rank": null,
    "scoring": "c",
    "start_event": 1
  },
  "new_entries": {
    "has_next": false,
    "page": 1,
    "results": []
  },
  "standings": {
    "has_next": true,
    "page": 1190,
    "results": [
      {
        "club_badge_src": null,
        "entry": 3252092,
        "entry_name": "The Hurricanes",
        "event_total": 50,
        "has_played": true,
        "id": 24061260,
        "last_rank": 48363,
        "player_name": "Chris Parish",
        "rank": 59248,
        "rank_sort": 59451,
        "total": 2346
      },
      {
        "club_badge_src": "https://fantasy.premierleague.com/gcs/plfpl-production-adobe-approved/plfpl-production/3348659/cc063601-aec2-4350-9136-e30f29ac5407.png",
        "entry": 3348659,
        "entry_name": "Gangsters Allardyce",
        "event_total": 67,
        "has_played": true,
        "id": 24841300,
        "last_rank": 79079,
        "player_name": "Nathan Beirne",
        "rank": 59248,
        "rank_sort": 59452,
        "total": 2346
      },
      {
        "club_badge_src": null,
        "entry": 3359263,
        "entry_name": "Hahaland",
        "event_total": 63,
        "has_played": true,
        "id": 24924377,
        "last_rank": 71386,
        "player_name": "Noah Michael Whitlow",
        "rank": 59248,
        "rank_sort": 59453,
        "total": 2346
      },
      {
        "club_badge_src": null,
        "entry": 3372519,
        "entry_name": "MOT with Farke",
        "event_total": 56,
        "has_played": true,
        "id": 25028696,
        "last_rank": 58388,
        "player_name": "Stig Ebert Nilssen",
        "rank": 59248,
        "rank_sort": 59454,
        "total": 2346
      },
      {
        "club_badge_src": null,
        "entry": 3409712,
        "entry_name": "FC Champions-Once",
        "event_total": 71,
        "has_played": true,
        "id": 25322022,
        "last_rank": 89055,
        "player_name": "Amal N I",
        "rank": 59248,
        "rank_sort": 59455,
        "total": 2346
      },
      {
        "club_badge_src": null,
        "entry": 3419004,
        "entry_name": "Butlers Big Dogs",
        "event_total": 50,
        "has_played": true,
        "id": 25395559,
        "last_rank": 48642,
        "player_name": "Richie Butler",
        "rank": 59248,
        "rank_sort": 59456,
        "total": 2346
      },
      {
        "club_badge_src": null,
        "entry": 3440185,
        "entry_name": "Don Corleone",
        "event_total": 57,
        "has_played": true,
        "id": 25558448,
        "last_rank": 60168,
        "player_name": "Abass --",
        "rank": 59248,
        "rank_sort": 59457,
        "total": 2346
      },
      {
        "club_badge_src": null,
        "entry": 3454278,
        "entry_name": "Heathens 99",
        "event_total": 74,
        "has_played": true,
        "id": 25672058,
        "last_rank": 86304,
        "player_name": "Allan Mugerwa",
        "rank": 59248,
        "rank_sort": 59458,
        "total": 2346
      },
      {
        "club_badge_src": null,
        "entry": 3487126,
        "entry_name": "The good doctor",
        "event_total": 52,
        "has_played": true,
        "id": 25932737,
        "last_rank": 51403,
        "player_name": "Dr.Alaa Nabil Elghazoly",
        "rank": 59248,
        "rank_sort": 59459,
        "total": 2346
      },
      {
        "club_badge_src": "https://fantasy.premierleague.com/gcs/plfpl-production-adobe-approved/plfpl-production/3509337/d32fb26a-be8a-4f62-8b63-a81dcd1d04e4.png",
        "entry": 3509337,
        "entry_name": "One Hit Wonder",
        "event_total": 72,
        "has_played": true,
        "id": 26111511,
        "last_rank": 90746,
        "player_name": "Josiah Wilson",
        "rank": 59248,
        "rank_sort": 59460,
        "total": 2346
      },
      {
        "club_badge_src": null,
        "entry": 3542247,
        "entry_name": "Minuman Ionic",
        "event_total": 68,
        "has_played": true,
        "id": 26367565,
        "last_rank": 82069,
        "player_name": "Yos Wirawan",
        "rank": 59248,
        "rank_sort": 59461,
        "total": 2346
      },
      {
        "club_badge_src": null,
        "entry": 3614166,
        "entry_name": "Rebuild #4",
        "event_total": 73,
        "has_played": true,
        "id": 26924873,
        "last_rank": 93883,
        "player_name": "Sergej Movsesjan",
        "rank": 59248,
        "rank_sort": 59462,
        "total": 2346
      },
      {
        "club_badge_src": "https://fantasy.premierleague.com/gcs/plfpl-production-adobe-approved/plfpl-production/3647585/3f9f91d8-62af-4a2c-85c1-1a319cafd818.png",
        "entry": 3647585,
        "entry_name": "hanngover 96",
        "event_total": 65,
        "has_played": true,
        "id": 27188318,
        "last_rank": 74898,
        "player_name": "Daniel Evans",
        "rank": 59248,
        "rank_sort": 59463,
        "total": 2346
      },
      {
        "club_badge_src": null,
        "entry": 3673704,
        "entry_name": "Gunners and Roses",
        "event_total": 30,
        "has_played": true,
        "id": 27399473,
        "last_rank": 25172,
        "player_name": "Chris Carey",
        "rank": 59248,
        "rank_sort": 59464,
        "total": 2346
      },
      {
        "club_badge_src": null,
        "entry": 3723473,
        "entry_name": "Bosna by night",
        "event_total": 65,
        "has_played": true,
        "id": 27788395,
        "last_rank": 67063,
        "player_name": "Kalle Stark",
        "rank": 59248,
        "rank_sort": 59465,
        "total": 2346
      },
      {
        "club_badge_src": "https://fantasy.premierleague.com/gcs/plfpl-production-adobe-approved/plfpl-production/3729519/cbe85162-cf3d-48f2-9c92-994055fa44d3.png",
        "entry": 3729519,
        "entry_name": "Grecians",
        "event_total": 63,
        "has_played": true,
        "id": 27836829,
        "last_rank": 71386,
        "player_name": "Dave Goad",
        "rank": 59248,
        "rank_sort": 59466,
        "total": 2346
      },
      {
        "club_badge_src": null,
        "entry": 3739346,
        "entry_name": "Two Legged Lurchers",
        "event_total": 67,
        "has_played": true,
        "id": 27913109,
        "last_rank": 70757,
        "player_name": "Simon Austin",
        "rank": 59248,
        "rank_sort": 59467,
        "total": 2346
      },
      {
        "club_badge_src": null,
        "entry": 3740381,
        "entry_name": "Omelette du escargot",
        "event_total": 52,
        "has_played": true,
        "id": 27921180,
        "last_rank": 51720,
        "player_name": "Jake Pincombe",
        "rank": 59248,
        "rank_sort": 59468,
        "total": 2346
      },
      {
        "club_badge_src": "https://fantasy.premierleague.com/gcs/plfpl-production-adobe-approved/plfpl-production/3819030/c84684d1-c398-45fb-a732-77c8a153e51a.png",
        "entry": 3819030,
        "entry_name": "Thistle be the year",
        "event_total": 60,
        "has_played": true,
        "id": 28561555,
        "last_rank": 65475,
        "player_name": "Shaun Jamieson",
        "rank": 59248,
        "rank_sort": 59469,
        "total": 2346
      },
      {
        "club_badge_src": null,
        "entry": 3852841,
        "entry_name": "Hey! Wirtz going on?",
        "event_total": 53,
        "has_played": true,
        "id": 28882815,
        "last_rank": 53621,
        "player_name": "Tjaart Booyens",
        "rank": 59248,
        "rank_sort": 59470,
        "total": 2346
      },
      {
        "club_badge_src": null,
        "entry": 3857557,
        "entry_name": "Loser\u2019s Pay",
        "event_total": 54,
        "has_played": true,
        "id": 28921116,
        "last_rank": 55014,
        "player_name": "biraj joshi",
        "rank": 59248,
        "rank_sort": 59471,
        "total": 2346
      },
      {
        "club_badge_src": null,
        "entry": 3885579,
        "entry_name": "Shaw Me the Thanbir",
        "event_total": 35,
        "has_played": true,
        "id": 29197153,
        "last_rank": 29904,
        "player_name": "Thanbir Moktadir",
        "rank": 59248,
        "rank_sort": 59472,
        "total": 2346
      },
      {
        "club_badge_src": null,
        "entry": 3933585,
        "entry_name": "Corn on the Kobbie",
        "event_total": 62,
        "has_played": true,
        "id": 29585774,
        "last_rank": 68957,
        "player_name": "Christine Lam",
        "rank": 59248,
        "rank_sort": 59473,
        "total": 2346
      },
      {
        "club_badge_src": null,
        "entry": 3937947,
        "entry_name": "Megatrons",
        "event_total": 68,
        "has_played": true,
        "id": 29621888,
        "last_rank": 82069,
        "player_name": "cathal o'regan",
        "rank": 59248,
        "rank_sort": 59474,
        "total": 2346
      },
      {
        "club_badge_src": null,
        "entry": 4033106,
        "entry_name": "Cherkmi off",
        "event_total": 42,
        "has_played": true,
        "id": 30407136,
        "last_rank": 38016,
        "player_name": "Tobie Scott",
        "rank": 59248,
        "rank_sort": 59475,
        "total": 2346
      },
      {
        "club_badge_src": null,
        "entry": 4035381,
        "entry_name": "ChickenLegsFC**",
        "event_total": 81,
        "has_played": true,
        "id": 30427392,
        "last_rank": 114292,
        "player_name": "Jack Williams",
        "rank": 59248,
        "rank_sort": 59476,
        "total": 2346
      },
      {
        "club_badge_src": null,
        "entry": 4115306,
        "entry_name": "Bartlemy FC",
        "event_total": 57,
        "has_played": true,
        "id": 31086899,
        "last_rank": 59813,
        "player_name": "John O Sullivan",
        "rank": 59248,
        "rank_sort": 59477,
        "total": 2346
      },
      {
        "club_badge_src": null,
        "entry": 4178087,
        "entry_name": "MTNC",
        "event_total": 47,
        "has_played": true,
        "id": 31604876,
        "last_rank": 38774,
        "player_name": "Tanachit Wiriyachoke",
        "rank": 59248,
        "rank_sort": 59478,
        "total": 2346
      },
      {
        "club_badge_src": null,
        "entry": 4187461,
        "entry_name": "Dom Slobonmynobazlai",
        "event_total": 67,
        "has_played": true,
        "id": 31684593,
        "last_rank": 79817,
        "player_name": "Travis Kitch",
        "rank": 59248,
        "rank_sort": 59479,
        "total": 2346
      },
      {
        "club_badge_src": null,
        "entry": 4208530,
        "entry_name": "OgiDybala21",
        "event_total": 59,
        "has_played": true,
        "id": 31862679,
        "last_rank": 56369,
        "player_name": "Ognjen Ivanovic",
        "rank": 59248,
        "rank_sort": 59480,
        "total": 2346
      },
      {
        "club_badge_src": null,
        "entry": 4215064,
        "entry_name": "Kinder Mbuemo",
        "event_total": 72,
        "has_played": true,
        "id": 31920221,
        "last_rank": 91466,
        "player_name": "Archie Jackson",
        "rank": 59248,
        "rank_sort": 59481,
        "total": 2346
      },
      {
        "club_badge_src": null,
        "entry": 4236280,
        "entry_name": "CFC",
        "event_total": 68,
        "has_played": true,
        "id": 32101670,
        "last_rank": 81646,
        "player_name": "Mohammed Alraee",
        "rank": 59248,
        "rank_sort": 59482,
        "total": 2346
      },
      {
        "club_badge_src": null,
        "entry": 4283169,
        "entry_name": "Jaffa Cake FC",
        "event_total": 71,
        "has_played": true,
        "id": 32485763,
        "last_rank": 89055,
        "player_name": "Robbie Findlay",
        "rank": 59248,
        "rank_sort": 59483,
        "total": 2346
      },
      {
        "club_badge_src": null,
        "entry": 4288512,
        "entry_name": "Crowley\u2019s XI",
        "event_total": 49,
        "has_played": true,
        "id": 32529278,
        "last_rank": 41324,
        "player_name": "Chris Crowley",
        "rank": 59248,
        "rank_sort": 59484,
        "total": 2346
      },
      {
        "club_badge_src": null,
        "entry": 4297285,
        "entry_name": "THE TOONIES",
        "event_total": 55,
        "has_played": true,
        "id": 32600618,
        "last_rank": 56369,
        "player_name": "martin Tilney",
        "rank": 59248,
        "rank_sort": 59485,
        "total": 2346
      },
      {
        "club_badge_src": null,
        "entry": 4324911,
        "entry_name": "Neville Wears Prada",
        "event_total": 47,
        "has_played": true,
        "id": 32824228,
        "last_rank": 44303,
        "player_name": "Holly Williamson",
        "rank": 59248,
        "rank_sort": 59486,
        "total": 2346
      },
      {
        "club_badge_src": "https://fantasy.premierleague.com/gcs/plfpl-production-adobe-approved/plfpl-production/4402834/4da9b789-db9b-4699-b182-04b928d5bad2.png",
        "entry": 4402834,
        "entry_name": "Snapdragon FC",
        "event_total": 65,
        "has_played": true,
        "id": 33486436,
        "last_rank": 75537,
        "player_name": "Olalekan Hassan",
        "rank": 59248,
        "rank_sort": 59487,
        "total": 2346
      },
      {
        "club_badge_src": null,
        "entry": 4423193,
        "entry_name": "Digging Bill",
        "event_total": 42,
        "has_played": true,
        "id": 33656009,
        "last_rank": 37822,
        "player_name": "Ivan Ugrinov",
        "rank": 59248,
        "rank_sort": 59488,
        "total": 2346
      },
      {
        "club_badge_src": "https://fantasy.premierleague.com/gcs/plfpl-production-adobe-approved/plfpl-production/4423779/94cab245-7336-43d7-8d82-6df79b4fbfaf.png",
        "entry": 4423779,
        "entry_name": "JackpotMarko",
        "event_total": 74,
        "has_played": true,
        "id": 33662388,
        "last_rank": 95640,
        "player_name": "Marko Krijan",
        "rank": 59248,
        "rank_sort": 59489,
        "total": 2346
      },
      {
        "club_badge_src": null,
        "entry": 4471515,
        "entry_name": "Captain Hulland",
        "event_total": 59,
        "has_played": true,
        "id": 34074387,
        "last_rank": 63390,
        "player_name": "Brian Hull",
        "rank": 59248,
        "rank_sort": 59490,
        "total": 2346
      },
      {
        "club_badge_src": null,
        "entry": 4493362,
        "entry_name": "FergieTimeFC",
        "event_total": 63,
        "has_played": true,
        "id": 34252157,
        "last_rank": 71386,
        "player_name": "Wayne Govender",
        "rank": 59248,
        "rank_sort": 59491,
        "total": 2346
      },
      {
        "club_badge_src": null,
        "entry": 4587166,
        "entry_name": "OLIMPIA SM",
        "event_total": 64,
        "has_played": true,
        "id": 35024728,
        "last_rank": 73038,
        "player_name": "Sergiu Pop",
        "rank": 59248,
        "rank_sort": 59492,
        "total": 2346
      },
      {
        "club_badge_src": null,
        "entry": 4591451,
        "entry_name": "KeeleyFC",
        "event_total": 48,
        "has_played": true,
        "id": 35061369,
        "last_rank": 45714,
        "player_name": "Connor Keeley",
        "rank": 59248,
        "rank_sort": 59493,
        "total": 2346
      },
      {
        "club_badge_src": null,
        "entry": 4633118,
        "entry_name": "Annunaki",
        "event_total": 71,
        "has_played": true,
        "id": 35427992,
        "last_rank": 89055,
        "player_name": "Aleksandar Kova\u010devi\u0107",
        "rank": 59248,
        "rank_sort": 59494,
        "total": 2346
      },
      {
        "club_badge_src": null,
        "entry": 4742351,
        "entry_name": "Hel\u2019s Belles",
        "event_total": 62,
        "has_played": true,
        "id": 36489500,
        "last_rank": 68624,
        "player_name": "Helen Green",
        "rank": 59248,
        "rank_sort": 59495,
        "total": 2346
      },
      {
        "club_badge_src": null,
        "entry": 4769163,
        "entry_name": "Bringbackbigange FC",
        "event_total": 44,
        "has_played": true,
        "id": 36705939,
        "last_rank": 39874,
        "player_name": "Matthew Rudd",
        "rank": 59248,
        "rank_sort": 59496,
        "total": 2346
      },
      {
        "club_badge_src": null,
        "entry": 4809153,
        "entry_name": "Lost for Wirtz",
        "event_total": 71,
        "has_played": true,
        "id": 37029661,
        "last_rank": 88185,
        "player_name": "Luke Eggleston",
        "rank": 59248,
        "rank_sort": 59497,
        "total": 2346
      },
      {
        "club_badge_src": null,
        "entry": 4818310,
        "entry_name": "Penal-tea",
        "event_total": 53,
        "has_played": true,
        "id": 37103015,
        "last_rank": 46660,
        "player_name": "Alfred K",
        "rank": 59248,
        "rank_sort": 59498,
        "total": 2346
      },
      {
        "club_badge_src": null,
        "entry": 4819265,
        "entry_name": "Bowen Arrow",
        "event_total": 49,
        "has_played": true,
        "id": 37111054,
        "last_rank": 47163,
        "player_name": "Matt Sanders",
        "rank": 59248,
        "rank_sort": 59499,
        "total": 2346
      },
      {
        "club_badge_src": null,
        "entry": 4878430,
        "entry_name": "Lbaz moi",
        "event_total": 66,
        "has_played": true,
        "id": 37605911,
        "last_rank": 77676,
        "player_name": "\u0631\u0627\u0645\u064a \u0631\u0627\u0645\u064a",
        "rank": 59248,
        "rank_sort": 59500,
        "total": 2346
      }
    ]
  }
}