{
  "last_updated_data": "2026-05-24T23:28:17Z",
  "league": {
    "admin_entry": null,
    "closed": false,
    "code_privacy": "p",
    "created": "2025-07-20T23:14:33.933835Z",
    "cup_league": 2815434,
    "has_cup": true,
    "id": 314,
    "league_type": "s",
    "max_entries": null,
    "name": "Overall",
    "rank": null,
    "scoring": "c",
    "start_event": 1
  },
  "new_entries": {
    "has_next": false,
    "page": 1,
    "results": []
  },
  "standings": {
    "has_next": true,
    "page": 980,
    "results": [
      {
        "club_badge_src": null,
        "entry": 184997,
        "entry_name": "Slavia Luzec",
        "event_total": 59,
        "has_played": true,
        "id": 1221794,
        "last_rank": 52461,
        "player_name": "David Hampl",
        "rank": 48939,
        "rank_sort": 48951,
        "total": 2353
      },
      {
        "club_badge_src": null,
        "entry": 256894,
        "entry_name": "Artekkerz",
        "event_total": 51,
        "has_played": true,
        "id": 1708550,
        "last_rank": 35867,
        "player_name": "Adeel Ahmed",
        "rank": 48939,
        "rank_sort": 48952,
        "total": 2353
      },
      {
        "club_badge_src": null,
        "entry": 265019,
        "entry_name": "Total Football",
        "event_total": 67,
        "has_played": true,
        "id": 1762588,
        "last_rank": 66057,
        "player_name": "Danny Borhannudin",
        "rank": 48939,
        "rank_sort": 48953,
        "total": 2353
      },
      {
        "club_badge_src": null,
        "entry": 285881,
        "entry_name": "Wilson Wanderers",
        "event_total": 45,
        "has_played": true,
        "id": 1904382,
        "last_rank": 33651,
        "player_name": "Rob Wilson",
        "rank": 48939,
        "rank_sort": 48954,
        "total": 2353
      },
      {
        "club_badge_src": null,
        "entry": 315979,
        "entry_name": "Some Billionaire",
        "event_total": 70,
        "has_played": true,
        "id": 2117761,
        "last_rank": 71956,
        "player_name": "Billy Strain",
        "rank": 48939,
        "rank_sort": 48955,
        "total": 2353
      },
      {
        "club_badge_src": null,
        "entry": 353799,
        "entry_name": "Manchester United",
        "event_total": 66,
        "has_played": true,
        "id": 2367864,
        "last_rank": 64422,
        "player_name": "Antreas Mammatsiou",
        "rank": 48939,
        "rank_sort": 48956,
        "total": 2353
      },
      {
        "club_badge_src": null,
        "entry": 366010,
        "entry_name": "Drammen United FC",
        "event_total": 60,
        "has_played": true,
        "id": 2449306,
        "last_rank": 53952,
        "player_name": "Daniel Andr\u00e9 Trulsen-Halvorsen",
        "rank": 48939,
        "rank_sort": 48957,
        "total": 2353
      },
      {
        "club_badge_src": null,
        "entry": 465806,
        "entry_name": "PiwoToMojePaliwo",
        "event_total": 45,
        "has_played": true,
        "id": 3125097,
        "last_rank": 33582,
        "player_name": "Tomasz Traczykowski",
        "rank": 48939,
        "rank_sort": 48958,
        "total": 2353
      },
      {
        "club_badge_src": null,
        "entry": 472183,
        "entry_name": "All-Stars",
        "event_total": 69,
        "has_played": true,
        "id": 3170216,
        "last_rank": 55514,
        "player_name": "Khaled AlFulaij",
        "rank": 48939,
        "rank_sort": 48959,
        "total": 2353
      },
      {
        "club_badge_src": null,
        "entry": 535819,
        "entry_name": "Shalimar Shantit\u00e9",
        "event_total": 75,
        "has_played": true,
        "id": 3606270,
        "last_rank": 74166,
        "player_name": "Simon Keat",
        "rank": 48939,
        "rank_sort": 48960,
        "total": 2353
      },
      {
        "club_badge_src": null,
        "entry": 565417,
        "entry_name": "Opal Fruit Days",
        "event_total": 49,
        "has_played": true,
        "id": 3805747,
        "last_rank": 33582,
        "player_name": "Mick Geen",
        "rank": 48939,
        "rank_sort": 48961,
        "total": 2353
      },
      {
        "club_badge_src": null,
        "entry": 585565,
        "entry_name": "Kinder Mbeumo",
        "event_total": 70,
        "has_played": true,
        "id": 3940753,
        "last_rank": 64319,
        "player_name": "Neil Shingadia",
        "rank": 48939,
        "rank_sort": 48962,
        "total": 2353
      },
      {
        "club_badge_src": null,
        "entry": 666536,
        "entry_name": "Las Vegas Lights",
        "event_total": 47,
        "has_played": true,
        "id": 4506623,
        "last_rank": 31309,
        "player_name": "Matt McDermott",
        "rank": 48939,
        "rank_sort": 48963,
        "total": 2353
      },
      {
        "club_badge_src": null,
        "entry": 674392,
        "entry_name": "ZubiZubiDoo",
        "event_total": 64,
        "has_played": true,
        "id": 4562230,
        "last_rank": 60933,
        "player_name": "Simen Leirmo",
        "rank": 48939,
        "rank_sort": 48964,
        "total": 2353
      },
      {
        "club_badge_src": null,
        "entry": 717420,
        "entry_name": "JoramW",
        "event_total": 61,
        "has_played": true,
        "id": 4867910,
        "last_rank": 55659,
        "player_name": "Joram van Wiefferen",
        "rank": 48939,
        "rank_sort": 48965,
        "total": 2353
      },
      {
        "club_badge_src": null,
        "entry": 733383,
        "entry_name": "AFC Fifty Plus",
        "event_total": 40,
        "has_played": true,
        "id": 4983821,
        "last_rank": 24636,
        "player_name": "Steve Hartley",
        "rank": 48939,
        "rank_sort": 48966,
        "total": 2353
      },
      {
        "club_badge_src": null,
        "entry": 748412,
        "entry_name": "Sonny Side Up",
        "event_total": 67,
        "has_played": true,
        "id": 5091827,
        "last_rank": 66296,
        "player_name": "Mick Turner",
        "rank": 48939,
        "rank_sort": 48967,
        "total": 2353
      },
      {
        "club_badge_src": null,
        "entry": 1048215,
        "entry_name": "MUN RED \u2764\ufe0f",
        "event_total": 65,
        "has_played": true,
        "id": 7254216,
        "last_rank": 62724,
        "player_name": "sajad th",
        "rank": 48939,
        "rank_sort": 48968,
        "total": 2353
      },
      {
        "club_badge_src": null,
        "entry": 1059122,
        "entry_name": "Bhak Salah!",
        "event_total": 52,
        "has_played": true,
        "id": 7329835,
        "last_rank": 37058,
        "player_name": "Rishabh Kumar",
        "rank": 48939,
        "rank_sort": 48969,
        "total": 2353
      },
      {
        "club_badge_src": null,
        "entry": 1270410,
        "entry_name": "Palmer Violets",
        "event_total": 55,
        "has_played": true,
        "id": 8826848,
        "last_rank": 35768,
        "player_name": "Darren Rose",
        "rank": 48939,
        "rank_sort": 48970,
        "total": 2353
      },
      {
        "club_badge_src": "https://fantasy.premierleague.com/gcs/plfpl-production-adobe-approved/plfpl-production/1305270/b905488f-2578-4a79-aa2f-e5128065bb92.png",
        "entry": 1305270,
        "entry_name": "FC SZCZUREK",
        "event_total": 52,
        "has_played": true,
        "id": 9072089,
        "last_rank": 37058,
        "player_name": "Olek Szczurowski",
        "rank": 48939,
        "rank_sort": 48971,
        "total": 2353
      },
      {
        "club_badge_src": null,
        "entry": 1341609,
        "entry_name": "Can\u2019t Havertz It Bot",
        "event_total": 67,
        "has_played": true,
        "id": 9328009,
        "last_rank": 66296,
        "player_name": "Robin Banx",
        "rank": 48939,
        "rank_sort": 48972,
        "total": 2353
      },
      {
        "club_badge_src": null,
        "entry": 1346815,
        "entry_name": "My Invincibles",
        "event_total": 68,
        "has_played": true,
        "id": 9363496,
        "last_rank": 60827,
        "player_name": "Sharad Karki",
        "rank": 48939,
        "rank_sort": 48973,
        "total": 2353
      },
      {
        "club_badge_src": null,
        "entry": 1378906,
        "entry_name": "B\u00fcndasliga FC",
        "event_total": 64,
        "has_played": true,
        "id": 9585287,
        "last_rank": 47596,
        "player_name": "Gumi Somal",
        "rank": 48939,
        "rank_sort": 48974,
        "total": 2353
      },
      {
        "club_badge_src": null,
        "entry": 1421272,
        "entry_name": "Tudor  Championship",
        "event_total": 70,
        "has_played": true,
        "id": 9896210,
        "last_rank": 72346,
        "player_name": "Geng Purushahansa",
        "rank": 48939,
        "rank_sort": 48975,
        "total": 2353
      },
      {
        "club_badge_src": null,
        "entry": 1584769,
        "entry_name": "Everybody Wirtz",
        "event_total": 35,
        "has_played": true,
        "id": 11078076,
        "last_rank": 23857,
        "player_name": "Josh Campbell",
        "rank": 48939,
        "rank_sort": 48976,
        "total": 2353
      },
      {
        "club_badge_src": null,
        "entry": 1725160,
        "entry_name": "Yoro Wizard Harry",
        "event_total": 53,
        "has_played": true,
        "id": 12097647,
        "last_rank": 38267,
        "player_name": "Lee Keating",
        "rank": 48939,
        "rank_sort": 48977,
        "total": 2353
      },
      {
        "club_badge_src": null,
        "entry": 1999067,
        "entry_name": "Mohamed Jamal",
        "event_total": 69,
        "has_played": true,
        "id": 14128803,
        "last_rank": 70183,
        "player_name": "Mohamed Jamal",
        "rank": 48939,
        "rank_sort": 48978,
        "total": 2353
      },
      {
        "club_badge_src": null,
        "entry": 2231752,
        "entry_name": "MU Cooper L",
        "event_total": 68,
        "has_played": true,
        "id": 15898919,
        "last_rank": 68294,
        "player_name": "Alexander Lee",
        "rank": 48939,
        "rank_sort": 48979,
        "total": 2353
      },
      {
        "club_badge_src": null,
        "entry": 2560842,
        "entry_name": "The Special Ones",
        "event_total": 30,
        "has_played": true,
        "id": 18366151,
        "last_rank": 20008,
        "player_name": "Marcus Rosewell",
        "rank": 48939,
        "rank_sort": 48980,
        "total": 2353
      },
      {
        "club_badge_src": null,
        "entry": 2620491,
        "entry_name": "The_Invincibles",
        "event_total": 73,
        "has_played": true,
        "id": 18829286,
        "last_rank": 78575,
        "player_name": "Kash Ali",
        "rank": 48939,
        "rank_sort": 48981,
        "total": 2353
      },
      {
        "club_badge_src": null,
        "entry": 2701131,
        "entry_name": "K.O 85:45",
        "event_total": 59,
        "has_played": true,
        "id": 19431363,
        "last_rank": 46236,
        "player_name": "Ahmed Abdelrehim",
        "rank": 48939,
        "rank_sort": 48982,
        "total": 2353
      },
      {
        "club_badge_src": null,
        "entry": 2747713,
        "entry_name": "begi",
        "event_total": 47,
        "has_played": true,
        "id": 19920303,
        "last_rank": 35926,
        "player_name": "Andreja Ilic",
        "rank": 48939,
        "rank_sort": 48983,
        "total": 2353
      },
      {
        "club_badge_src": null,
        "entry": 2782070,
        "entry_name": "good kid, m.A.n city",
        "event_total": 39,
        "has_played": true,
        "id": 20307393,
        "last_rank": 27438,
        "player_name": "Moe Mokoena",
        "rank": 48939,
        "rank_sort": 48984,
        "total": 2353
      },
      {
        "club_badge_src": null,
        "entry": 2963675,
        "entry_name": "look ma\"i'm RoAdKiLL",
        "event_total": 78,
        "has_played": true,
        "id": 21771686,
        "last_rank": 89426,
        "player_name": "Joakim Mathisen",
        "rank": 48939,
        "rank_sort": 48985,
        "total": 2353
      },
      {
        "club_badge_src": "https://fantasy.premierleague.com/gcs/plfpl-production-adobe-approved/plfpl-production/3148936/f325880d-95bb-4b8a-9e0e-68278b006500.png",
        "entry": 3148936,
        "entry_name": "Georgian Solotcha",
        "event_total": 67,
        "has_played": true,
        "id": 23251913,
        "last_rank": 52205,
        "player_name": "Danila Danila",
        "rank": 48939,
        "rank_sort": 48986,
        "total": 2353
      },
      {
        "club_badge_src": null,
        "entry": 3154134,
        "entry_name": "Kroos Control",
        "event_total": 55,
        "has_played": true,
        "id": 23294678,
        "last_rank": 46236,
        "player_name": "Joachim Kirk",
        "rank": 48939,
        "rank_sort": 48987,
        "total": 2353
      },
      {
        "club_badge_src": null,
        "entry": 3400781,
        "entry_name": "Sayedi",
        "event_total": 55,
        "has_played": true,
        "id": 25250867,
        "last_rank": 46313,
        "player_name": "Youssef Sayedi",
        "rank": 48939,
        "rank_sort": 48988,
        "total": 2353
      },
      {
        "club_badge_src": null,
        "entry": 3673755,
        "entry_name": "Henry XI",
        "event_total": 57,
        "has_played": true,
        "id": 27399832,
        "last_rank": 49368,
        "player_name": "Henry Quinn",
        "rank": 48939,
        "rank_sort": 48989,
        "total": 2353
      },
      {
        "club_badge_src": null,
        "entry": 3725575,
        "entry_name": "ToTo game",
        "event_total": 55,
        "has_played": true,
        "id": 27806460,
        "last_rank": 40770,
        "player_name": "Tewfik Khanteche",
        "rank": 48939,
        "rank_sort": 48990,
        "total": 2353
      },
      {
        "club_badge_src": null,
        "entry": 3810662,
        "entry_name": "Botman Returns",
        "event_total": 58,
        "has_played": true,
        "id": 28493398,
        "last_rank": 50848,
        "player_name": "Andrew Nicholson",
        "rank": 48939,
        "rank_sort": 48991,
        "total": 2353
      },
      {
        "club_badge_src": null,
        "entry": 3921185,
        "entry_name": "Chambers utd",
        "event_total": 68,
        "has_played": true,
        "id": 29486669,
        "last_rank": 60671,
        "player_name": "Ben Chambers",
        "rank": 48939,
        "rank_sort": 48992,
        "total": 2353
      },
      {
        "club_badge_src": null,
        "entry": 4011759,
        "entry_name": "Speaker 33",
        "event_total": 55,
        "has_played": true,
        "id": 30228722,
        "last_rank": 35768,
        "player_name": "Simon Jolly",
        "rank": 48939,
        "rank_sort": 48993,
        "total": 2353
      },
      {
        "club_badge_src": null,
        "entry": 4048986,
        "entry_name": "Dostovoi",
        "event_total": 80,
        "has_played": true,
        "id": 30540991,
        "last_rank": 76128,
        "player_name": "Gary Nickeas",
        "rank": 48939,
        "rank_sort": 48994,
        "total": 2353
      },
      {
        "club_badge_src": null,
        "entry": 4172914,
        "entry_name": "Kiss My Isak Better",
        "event_total": 59,
        "has_played": true,
        "id": 31561486,
        "last_rank": 52461,
        "player_name": "Dins McWins",
        "rank": 48939,
        "rank_sort": 48995,
        "total": 2353
      },
      {
        "club_badge_src": null,
        "entry": 4219082,
        "entry_name": "Where are you, Son?",
        "event_total": 65,
        "has_played": true,
        "id": 31955083,
        "last_rank": 62724,
        "player_name": "Core Parmer",
        "rank": 48939,
        "rank_sort": 48996,
        "total": 2353
      },
      {
        "club_badge_src": null,
        "entry": 4411749,
        "entry_name": "Owls of Despair",
        "event_total": 63,
        "has_played": true,
        "id": 33560790,
        "last_rank": 52357,
        "player_name": "Anna Finch-Smith",
        "rank": 48939,
        "rank_sort": 48997,
        "total": 2353
      },
      {
        "club_badge_src": null,
        "entry": 4469240,
        "entry_name": "BBM ehn",
        "event_total": 73,
        "has_played": true,
        "id": 34055924,
        "last_rank": 78440,
        "player_name": "Rhys Wallbank",
        "rank": 48939,
        "rank_sort": 48998,
        "total": 2353
      },
      {
        "club_badge_src": "https://fantasy.premierleague.com/gcs/plfpl-production-adobe-approved/plfpl-production/4600114/d5996f4a-bd50-49c2-bcf9-bc04aa4f9d28.png",
        "entry": 4600114,
        "entry_name": "Tena City",
        "event_total": 55,
        "has_played": true,
        "id": 35139363,
        "last_rank": 46364,
        "player_name": "Ian Warwick",
        "rank": 48939,
        "rank_sort": 48999,
        "total": 2353
      },
      {
        "club_badge_src": null,
        "entry": 4883114,
        "entry_name": "Little Maggots",
        "event_total": 64,
        "has_played": true,
        "id": 37645209,
        "last_rank": 53952,
        "player_name": "Adam Cole",
        "rank": 48939,
        "rank_sort": 49000,
        "total": 2353
      }
    ]
  }
}