{
  "last_updated_data": "2026-05-24T23:28:17Z",
  "league": {
    "admin_entry": null,
    "closed": false,
    "code_privacy": "p",
    "created": "2025-07-20T23:14:33.933835Z",
    "cup_league": 2815434,
    "has_cup": true,
    "id": 314,
    "league_type": "s",
    "max_entries": null,
    "name": "Overall",
    "rank": null,
    "scoring": "c",
    "start_event": 1
  },
  "new_entries": {
    "has_next": false,
    "page": 1,
    "results": []
  },
  "standings": {
    "has_next": true,
    "page": 1125,
    "results": [
      {
        "club_badge_src": null,
        "entry": 6797598,
        "entry_name": "Cat tattoo",
        "event_total": 68,
        "has_played": true,
        "id": 54436669,
        "last_rank": 77676,
        "player_name": "Justin Highfield",
        "rank": 55963,
        "rank_sort": 56201,
        "total": 2348
      },
      {
        "club_badge_src": null,
        "entry": 6806744,
        "entry_name": "Golden Nuggets",
        "event_total": 61,
        "has_played": true,
        "id": 54512398,
        "last_rank": 63724,
        "player_name": "Paul Stevens",
        "rank": 55963,
        "rank_sort": 56202,
        "total": 2348
      },
      {
        "club_badge_src": null,
        "entry": 6859498,
        "entry_name": "Absolute Novice",
        "event_total": 59,
        "has_played": true,
        "id": 54960708,
        "last_rank": 59813,
        "player_name": "James Morton",
        "rank": 55963,
        "rank_sort": 56203,
        "total": 2348
      },
      {
        "club_badge_src": null,
        "entry": 7001484,
        "entry_name": "Zero to Hero FC",
        "event_total": 61,
        "has_played": true,
        "id": 56217311,
        "last_rank": 63390,
        "player_name": "James Bennett",
        "rank": 55963,
        "rank_sort": 56204,
        "total": 2348
      },
      {
        "club_badge_src": null,
        "entry": 7016735,
        "entry_name": "TeamfantaCE",
        "event_total": 63,
        "has_played": true,
        "id": 56357297,
        "last_rank": 67422,
        "player_name": "Mehedi Hasan Khan",
        "rank": 55963,
        "rank_sort": 56205,
        "total": 2348
      },
      {
        "club_badge_src": null,
        "entry": 7035673,
        "entry_name": "Crazy Traina",
        "event_total": 48,
        "has_played": true,
        "id": 56553938,
        "last_rank": 42648,
        "player_name": "William Garrison",
        "rank": 55963,
        "rank_sort": 56206,
        "total": 2348
      },
      {
        "club_badge_src": null,
        "entry": 7079829,
        "entry_name": "ADRFC",
        "event_total": 59,
        "has_played": true,
        "id": 56983869,
        "last_rank": 53023,
        "player_name": "Adrian Calleja",
        "rank": 55963,
        "rank_sort": 56207,
        "total": 2348
      },
      {
        "club_badge_src": null,
        "entry": 7089820,
        "entry_name": "Man like Martin",
        "event_total": 71,
        "has_played": true,
        "id": 57079805,
        "last_rank": 83934,
        "player_name": "Will Hill",
        "rank": 55963,
        "rank_sort": 56208,
        "total": 2348
      },
      {
        "club_badge_src": null,
        "entry": 7090318,
        "entry_name": "The Untochaballs",
        "event_total": 59,
        "has_played": true,
        "id": 57084406,
        "last_rank": 53023,
        "player_name": "Claire Mangion",
        "rank": 55963,
        "rank_sort": 56209,
        "total": 2348
      },
      {
        "club_badge_src": null,
        "entry": 7155012,
        "entry_name": "DC XI",
        "event_total": 64,
        "has_played": true,
        "id": 57703442,
        "last_rank": 68957,
        "player_name": "Andrew Latimer",
        "rank": 55963,
        "rank_sort": 56210,
        "total": 2348
      },
      {
        "club_badge_src": null,
        "entry": 7273738,
        "entry_name": "MG FC",
        "event_total": 61,
        "has_played": true,
        "id": 58828040,
        "last_rank": 56369,
        "player_name": "Michael Gates",
        "rank": 55963,
        "rank_sort": 56211,
        "total": 2348
      },
      {
        "club_badge_src": null,
        "entry": 7306579,
        "entry_name": "Glockeres FC",
        "event_total": 54,
        "has_played": true,
        "id": 59139204,
        "last_rank": 51403,
        "player_name": "Viktor Skoglund",
        "rank": 55963,
        "rank_sort": 56212,
        "total": 2348
      },
      {
        "club_badge_src": null,
        "entry": 7339983,
        "entry_name": "Le Saux Solid Crew",
        "event_total": 58,
        "has_played": true,
        "id": 59451669,
        "last_rank": 58688,
        "player_name": "Ciaran Cameron",
        "rank": 55963,
        "rank_sort": 56213,
        "total": 2348
      },
      {
        "club_badge_src": "https://fantasy.premierleague.com/gcs/plfpl-production-adobe-approved/plfpl-production/7364923/b62c6ab6-ac42-4455-82d0-1bfb218087ad.png",
        "entry": 7364923,
        "entry_name": "Change Name",
        "event_total": 64,
        "has_played": true,
        "id": 59687404,
        "last_rank": 61606,
        "player_name": "Christopher Warren-Gash",
        "rank": 55963,
        "rank_sort": 56214,
        "total": 2348
      },
      {
        "club_badge_src": null,
        "entry": 7450909,
        "entry_name": "Courtown XI",
        "event_total": 68,
        "has_played": true,
        "id": 60645600,
        "last_rank": 68748,
        "player_name": "Conch\u00fair O'Lorc\u00e1in",
        "rank": 55963,
        "rank_sort": 56215,
        "total": 2348
      },
      {
        "club_badge_src": null,
        "entry": 7476607,
        "entry_name": "Aguila FC",
        "event_total": 58,
        "has_played": true,
        "id": 60979293,
        "last_rank": 58388,
        "player_name": "Paul Olaniyi",
        "rank": 55963,
        "rank_sort": 56216,
        "total": 2348
      },
      {
        "club_badge_src": null,
        "entry": 7481212,
        "entry_name": "top 5",
        "event_total": 59,
        "has_played": true,
        "id": 61038865,
        "last_rank": 59813,
        "player_name": "Mark Donegan",
        "rank": 55963,
        "rank_sort": 56217,
        "total": 2348
      },
      {
        "club_badge_src": null,
        "entry": 7526218,
        "entry_name": "The Slot Thickens",
        "event_total": 73,
        "has_played": true,
        "id": 61594779,
        "last_rank": 88594,
        "player_name": "Stephen Bevan",
        "rank": 55963,
        "rank_sort": 56218,
        "total": 2348
      },
      {
        "club_badge_src": null,
        "entry": 7561498,
        "entry_name": "Moira2012s 'B' Team",
        "event_total": 68,
        "has_played": true,
        "id": 61915418,
        "last_rank": 77999,
        "player_name": "Jonathan Aiken",
        "rank": 55963,
        "rank_sort": 56219,
        "total": 2348
      },
      {
        "club_badge_src": null,
        "entry": 7603610,
        "entry_name": "Corkforthedouble",
        "event_total": 52,
        "has_played": true,
        "id": 62297302,
        "last_rank": 48898,
        "player_name": "Paul O-Regan",
        "rank": 55963,
        "rank_sort": 56220,
        "total": 2348
      },
      {
        "club_badge_src": null,
        "entry": 7627995,
        "entry_name": "Mafakkas",
        "event_total": 53,
        "has_played": true,
        "id": 62517873,
        "last_rank": 50199,
        "player_name": "Kristoffer Nord\u00e5s",
        "rank": 55963,
        "rank_sort": 56221,
        "total": 2348
      },
      {
        "club_badge_src": null,
        "entry": 7637808,
        "entry_name": "Brackium, Semenyo!",
        "event_total": 54,
        "has_played": true,
        "id": 62606250,
        "last_rank": 51720,
        "player_name": "Nic Haworth",
        "rank": 55963,
        "rank_sort": 56222,
        "total": 2348
      },
      {
        "club_badge_src": null,
        "entry": 7669969,
        "entry_name": "Sponsor",
        "event_total": 47,
        "has_played": true,
        "id": 62900846,
        "last_rank": 41324,
        "player_name": "Marius Asdahl",
        "rank": 55963,
        "rank_sort": 56223,
        "total": 2348
      },
      {
        "club_badge_src": "https://fantasy.premierleague.com/gcs/plfpl-production-adobe-approved/plfpl-production/7847179/44151d87-96bf-4c5a-802a-61e35afd9932.png",
        "entry": 7847179,
        "entry_name": "Chino",
        "event_total": 46,
        "has_played": true,
        "id": 64505308,
        "last_rank": 40297,
        "player_name": "Kenzo Huang",
        "rank": 55963,
        "rank_sort": 56224,
        "total": 2348
      },
      {
        "club_badge_src": null,
        "entry": 7964053,
        "entry_name": "Mounir Merouane",
        "event_total": 89,
        "has_played": true,
        "id": 65566286,
        "last_rank": 132198,
        "player_name": "Mounir Merouane",
        "rank": 55963,
        "rank_sort": 56225,
        "total": 2348
      },
      {
        "club_badge_src": null,
        "entry": 8028188,
        "entry_name": "Pol fc",
        "event_total": 62,
        "has_played": true,
        "id": 66139086,
        "last_rank": 65475,
        "player_name": "Rayan Poolee Cootee",
        "rank": 55963,
        "rank_sort": 56226,
        "total": 2348
      },
      {
        "club_badge_src": null,
        "entry": 8268016,
        "entry_name": "Livam FC",
        "event_total": 52,
        "has_played": true,
        "id": 68395412,
        "last_rank": 48363,
        "player_name": "Dan Orton",
        "rank": 55963,
        "rank_sort": 56227,
        "total": 2348
      },
      {
        "club_badge_src": null,
        "entry": 8377214,
        "entry_name": "Salahdelic",
        "event_total": 74,
        "has_played": true,
        "id": 69464401,
        "last_rank": 91006,
        "player_name": "Afzana Shaji",
        "rank": 55963,
        "rank_sort": 56228,
        "total": 2348
      },
      {
        "club_badge_src": null,
        "entry": 8440853,
        "entry_name": "Vestfossen All Stars",
        "event_total": 71,
        "has_played": true,
        "id": 70067340,
        "last_rank": 84731,
        "player_name": "Heidi Lundebakken",
        "rank": 55963,
        "rank_sort": 56229,
        "total": 2348
      },
      {
        "club_badge_src": null,
        "entry": 8682700,
        "entry_name": "ayoubdz",
        "event_total": 49,
        "has_played": true,
        "id": 72411186,
        "last_rank": 44303,
        "player_name": "terra ayoub",
        "rank": 55963,
        "rank_sort": 56230,
        "total": 2348
      },
      {
        "club_badge_src": null,
        "entry": 9101949,
        "entry_name": "WWWWW",
        "event_total": 62,
        "has_played": true,
        "id": 76471304,
        "last_rank": 65475,
        "player_name": "John Wong",
        "rank": 55963,
        "rank_sort": 56231,
        "total": 2348
      },
      {
        "club_badge_src": null,
        "entry": 9269043,
        "entry_name": "Magpies",
        "event_total": 61,
        "has_played": true,
        "id": 78108940,
        "last_rank": 63724,
        "player_name": "Daniel Kelly",
        "rank": 55963,
        "rank_sort": 56232,
        "total": 2348
      },
      {
        "club_badge_src": null,
        "entry": 9368572,
        "entry_name": "Bert Dog FPL",
        "event_total": 39,
        "has_played": true,
        "id": 79066983,
        "last_rank": 31995,
        "player_name": "Bert Dog",
        "rank": 55963,
        "rank_sort": 56233,
        "total": 2348
      },
      {
        "club_badge_src": null,
        "entry": 9433780,
        "entry_name": "Livin Saliba Loca",
        "event_total": 38,
        "has_played": true,
        "id": 79696200,
        "last_rank": 31125,
        "player_name": "Iyaz B",
        "rank": 55963,
        "rank_sort": 56234,
        "total": 2348
      },
      {
        "club_badge_src": null,
        "entry": 471,
        "entry_name": "Taking it Eze",
        "event_total": 77,
        "has_played": true,
        "id": 2602,
        "last_rank": 98436,
        "player_name": "Adam Bardsley",
        "rank": 56235,
        "rank_sort": 56235,
        "total": 2348
      },
      {
        "club_badge_src": null,
        "entry": 3900,
        "entry_name": "Ballon Theod'or",
        "event_total": 44,
        "has_played": true,
        "id": 22119,
        "last_rank": 38163,
        "player_name": "Theodor \u00d8rjas\u00e6ter Aam",
        "rank": 56235,
        "rank_sort": 56236,
        "total": 2348
      },
      {
        "club_badge_src": null,
        "entry": 4224,
        "entry_name": "Lights Kamara Action",
        "event_total": 64,
        "has_played": true,
        "id": 23985,
        "last_rank": 61606,
        "player_name": "Simon Meigh",
        "rank": 56235,
        "rank_sort": 56237,
        "total": 2348
      },
      {
        "club_badge_src": null,
        "entry": 5339,
        "entry_name": "JanBanan",
        "event_total": 65,
        "has_played": true,
        "id": 30435,
        "last_rank": 71956,
        "player_name": "Jan Andre Kristoffersen",
        "rank": 56235,
        "rank_sort": 56238,
        "total": 2348
      },
      {
        "club_badge_src": "https://fantasy.premierleague.com/gcs/plfpl-production-adobe-approved/plfpl-production/5607/474ee8ed-cd6a-4e44-a2e4-cd9f665178d8.png",
        "entry": 5607,
        "entry_name": "Vnited FC",
        "event_total": 65,
        "has_played": true,
        "id": 31979,
        "last_rank": 63724,
        "player_name": "Baiakmenlang Suting",
        "rank": 56235,
        "rank_sort": 56239,
        "total": 2348
      },
      {
        "club_badge_src": "https://fantasy.premierleague.com/gcs/plfpl-production-adobe-approved/plfpl-production/5677/d81c3bd4-daee-4b5e-a427-60efdddfbeae.png",
        "entry": 5677,
        "entry_name": "Good Boy XI",
        "event_total": 64,
        "has_played": true,
        "id": 32393,
        "last_rank": 61950,
        "player_name": "Matty Blakebell",
        "rank": 56235,
        "rank_sort": 56240,
        "total": 2348
      },
      {
        "club_badge_src": null,
        "entry": 5817,
        "entry_name": "Connect Four*",
        "event_total": 60,
        "has_played": true,
        "id": 33247,
        "last_rank": 61950,
        "player_name": "Dan Edwards",
        "rank": 56235,
        "rank_sort": 56241,
        "total": 2348
      },
      {
        "club_badge_src": null,
        "entry": 6651,
        "entry_name": "Bucky Bawz",
        "event_total": 51,
        "has_played": true,
        "id": 38207,
        "last_rank": 41617,
        "player_name": "David Barrett",
        "rank": 56235,
        "rank_sort": 56242,
        "total": 2348
      },
      {
        "club_badge_src": null,
        "entry": 10703,
        "entry_name": "FPL Miki",
        "event_total": 66,
        "has_played": true,
        "id": 63380,
        "last_rank": 73720,
        "player_name": "mikulas jozsa",
        "rank": 56235,
        "rank_sort": 56243,
        "total": 2348
      },
      {
        "club_badge_src": null,
        "entry": 12513,
        "entry_name": "Saka Potatoes",
        "event_total": 55,
        "has_played": true,
        "id": 74971,
        "last_rank": 47163,
        "player_name": "George Blackwell",
        "rank": 56235,
        "rank_sort": 56244,
        "total": 2348
      },
      {
        "club_badge_src": null,
        "entry": 18094,
        "entry_name": "Nottingham Dragons",
        "event_total": 55,
        "has_played": true,
        "id": 112463,
        "last_rank": 53837,
        "player_name": "Antonis Giannopoulos",
        "rank": 56235,
        "rank_sort": 56245,
        "total": 2348
      },
      {
        "club_badge_src": null,
        "entry": 20228,
        "entry_name": "Die Trying",
        "event_total": 73,
        "has_played": true,
        "id": 126006,
        "last_rank": 79431,
        "player_name": "abdulaziz almohannadi",
        "rank": 56235,
        "rank_sort": 56246,
        "total": 2348
      },
      {
        "club_badge_src": null,
        "entry": 22509,
        "entry_name": "Gyok Tuah",
        "event_total": 60,
        "has_played": true,
        "id": 141358,
        "last_rank": 62223,
        "player_name": "Fionn Lennon",
        "rank": 56235,
        "rank_sort": 56247,
        "total": 2348
      },
      {
        "club_badge_src": null,
        "entry": 22743,
        "entry_name": "where is mbappe",
        "event_total": 52,
        "has_played": true,
        "id": 142938,
        "last_rank": 48898,
        "player_name": "Jack Duffy",
        "rank": 56235,
        "rank_sort": 56248,
        "total": 2348
      },
      {
        "club_badge_src": "https://fantasy.premierleague.com/gcs/plfpl-production-adobe-approved/plfpl-production/28802/841df9b6-71eb-4f7e-943c-3030dd1c97ba.png",
        "entry": 28802,
        "entry_name": "Kings of the North",
        "event_total": 62,
        "has_played": true,
        "id": 182082,
        "last_rank": 51403,
        "player_name": "Ish Hall",
        "rank": 56235,
        "rank_sort": 56249,
        "total": 2348
      },
      {
        "club_badge_src": null,
        "entry": 46238,
        "entry_name": "Tut og Kj\u00f8r",
        "event_total": 64,
        "has_played": true,
        "id": 296460,
        "last_rank": 61950,
        "player_name": "Mathias Hjelmervik",
        "rank": 56235,
        "rank_sort": 56250,
        "total": 2348
      }
    ]
  }
}