{
  "last_updated_data": "2026-05-24T23:28:17Z",
  "league": {
    "admin_entry": null,
    "closed": false,
    "code_privacy": "p",
    "created": "2025-07-20T23:14:33.933835Z",
    "cup_league": 2815434,
    "has_cup": true,
    "id": 314,
    "league_type": "s",
    "max_entries": null,
    "name": "Overall",
    "rank": null,
    "scoring": "c",
    "start_event": 1
  },
  "new_entries": {
    "has_next": false,
    "page": 1,
    "results": []
  },
  "standings": {
    "has_next": true,
    "page": 452,
    "results": [
      {
        "club_badge_src": null,
        "entry": 3142629,
        "entry_name": "Hud Hastings",
        "event_total": 50,
        "has_played": true,
        "id": 23201723,
        "last_rank": 14604,
        "player_name": "Matt Finn",
        "rank": 22496,
        "rank_sort": 22551,
        "total": 2377
      },
      {
        "club_badge_src": null,
        "entry": 3788661,
        "entry_name": "Cherki_FC",
        "event_total": 69,
        "has_played": true,
        "id": 28305948,
        "last_rank": 29071,
        "player_name": "Omkar Mule",
        "rank": 22496,
        "rank_sort": 22552,
        "total": 2377
      },
      {
        "club_badge_src": null,
        "entry": 3908819,
        "entry_name": "Palhinha Colada",
        "event_total": 67,
        "has_played": true,
        "id": 29387591,
        "last_rank": 31125,
        "player_name": "Jocke Gustafsson",
        "rank": 22496,
        "rank_sort": 22553,
        "total": 2377
      },
      {
        "club_badge_src": null,
        "entry": 4390763,
        "entry_name": "FC Bayern Fluminense",
        "event_total": 70,
        "has_played": true,
        "id": 33378337,
        "last_rank": 34578,
        "player_name": "Luis Galdino-Glaeser",
        "rank": 22496,
        "rank_sort": 22554,
        "total": 2377
      },
      {
        "club_badge_src": null,
        "entry": 4537629,
        "entry_name": "Nam Sang Wai FC",
        "event_total": 50,
        "has_played": true,
        "id": 34616390,
        "last_rank": 17150,
        "player_name": "Ken Chung",
        "rank": 22496,
        "rank_sort": 22555,
        "total": 2377
      },
      {
        "club_badge_src": null,
        "entry": 5018294,
        "entry_name": "Skilimandiaye",
        "event_total": 64,
        "has_played": true,
        "id": 38754618,
        "last_rank": 28273,
        "player_name": "Peter Gannon",
        "rank": 22496,
        "rank_sort": 22556,
        "total": 2377
      },
      {
        "club_badge_src": null,
        "entry": 5246043,
        "entry_name": "JandanFc",
        "event_total": 66,
        "has_played": true,
        "id": 40656864,
        "last_rank": 26230,
        "player_name": "jaineel bhatt",
        "rank": 22496,
        "rank_sort": 22557,
        "total": 2377
      },
      {
        "club_badge_src": null,
        "entry": 5374811,
        "entry_name": "super team",
        "event_total": 68,
        "has_played": true,
        "id": 41771138,
        "last_rank": 32335,
        "player_name": "Neil Murphy",
        "rank": 22496,
        "rank_sort": 22558,
        "total": 2377
      },
      {
        "club_badge_src": null,
        "entry": 5856756,
        "entry_name": "Stach'ing up points",
        "event_total": 64,
        "has_played": true,
        "id": 45986873,
        "last_rank": 28150,
        "player_name": "Rob Kellett",
        "rank": 22496,
        "rank_sort": 22559,
        "total": 2377
      },
      {
        "club_badge_src": null,
        "entry": 6076763,
        "entry_name": "PartyPoopers",
        "event_total": 59,
        "has_played": true,
        "id": 47973832,
        "last_rank": 23748,
        "player_name": "Samuel Soysal",
        "rank": 22496,
        "rank_sort": 22560,
        "total": 2377
      },
      {
        "club_badge_src": "https://fantasy.premierleague.com/gcs/plfpl-production-adobe-approved/plfpl-production/6432785/37137607-f798-442a-8a12-a7570eb43438.png",
        "entry": 6432785,
        "entry_name": "The Bijol & End all",
        "event_total": 52,
        "has_played": true,
        "id": 51209779,
        "last_rank": 18475,
        "player_name": "Josh Jehan",
        "rank": 22496,
        "rank_sort": 22561,
        "total": 2377
      },
      {
        "club_badge_src": null,
        "entry": 7023558,
        "entry_name": "Isle of Wight Ferry",
        "event_total": 47,
        "has_played": true,
        "id": 56422136,
        "last_rank": 15226,
        "player_name": "Jon Giles",
        "rank": 22496,
        "rank_sort": 22562,
        "total": 2377
      },
      {
        "club_badge_src": "https://fantasy.premierleague.com/gcs/plfpl-production-adobe-approved/plfpl-production/7360423/22226232-71e2-432d-928e-fa2841a14de5.png",
        "entry": 7360423,
        "entry_name": "On My Wirtz Behavior",
        "event_total": 60,
        "has_played": true,
        "id": 59646115,
        "last_rank": 21301,
        "player_name": "Jamie Ferndale",
        "rank": 22496,
        "rank_sort": 22563,
        "total": 2377
      },
      {
        "club_badge_src": null,
        "entry": 7577924,
        "entry_name": "Wirtz is to come",
        "event_total": 60,
        "has_played": true,
        "id": 62064678,
        "last_rank": 21301,
        "player_name": "Alan Graham",
        "rank": 22496,
        "rank_sort": 22564,
        "total": 2377
      },
      {
        "club_badge_src": "https://fantasy.premierleague.com/gcs/plfpl-production-adobe-approved/plfpl-production/8948842/1584127f-a95c-42e1-814e-e9d5cf76fab8.png",
        "entry": 8948842,
        "entry_name": "Piento012",
        "event_total": 64,
        "has_played": true,
        "id": 74987884,
        "last_rank": 24475,
        "player_name": "Tshiamo Metseeme",
        "rank": 22496,
        "rank_sort": 22565,
        "total": 2377
      },
      {
        "club_badge_src": null,
        "entry": 10423653,
        "entry_name": "BOO",
        "event_total": 69,
        "has_played": true,
        "id": 88193887,
        "last_rank": 33332,
        "player_name": "Abbie Riley",
        "rank": 22496,
        "rank_sort": 22566,
        "total": 2377
      },
      {
        "club_badge_src": null,
        "entry": 10458173,
        "entry_name": "Husson",
        "event_total": 43,
        "has_played": true,
        "id": 88461670,
        "last_rank": 12995,
        "player_name": "LORD H",
        "rank": 22496,
        "rank_sort": 22567,
        "total": 2377
      },
      {
        "club_badge_src": null,
        "entry": 369,
        "entry_name": "Baines on Toast",
        "event_total": 48,
        "has_played": true,
        "id": 2044,
        "last_rank": 13500,
        "player_name": "Colin Innes",
        "rank": 22568,
        "rank_sort": 22568,
        "total": 2377
      },
      {
        "club_badge_src": null,
        "entry": 17152,
        "entry_name": "I\u2019m Beto Than You",
        "event_total": 55,
        "has_played": true,
        "id": 106303,
        "last_rank": 15164,
        "player_name": "James Courie",
        "rank": 22568,
        "rank_sort": 22569,
        "total": 2377
      },
      {
        "club_badge_src": "https://fantasy.premierleague.com/gcs/plfpl-production-adobe-approved/plfpl-production/31430/9afe52eb-8e03-4114-9537-561aeef05c84.png",
        "entry": 31430,
        "entry_name": "DribblingDribblersFC",
        "event_total": 55,
        "has_played": true,
        "id": 199228,
        "last_rank": 17718,
        "player_name": "Dean Marshall",
        "rank": 22568,
        "rank_sort": 22570,
        "total": 2377
      },
      {
        "club_badge_src": null,
        "entry": 39086,
        "entry_name": "Punter's Paradise",
        "event_total": 71,
        "has_played": true,
        "id": 250533,
        "last_rank": 27203,
        "player_name": "Kerem Aci",
        "rank": 22568,
        "rank_sort": 22571,
        "total": 2377
      },
      {
        "club_badge_src": null,
        "entry": 54648,
        "entry_name": "HaCunha Mateta",
        "event_total": 37,
        "has_played": true,
        "id": 351724,
        "last_rank": 10195,
        "player_name": "Daniel Bystedt",
        "rank": 22568,
        "rank_sort": 22572,
        "total": 2377
      },
      {
        "club_badge_src": null,
        "entry": 123175,
        "entry_name": "AT FC",
        "event_total": 73,
        "has_played": true,
        "id": 803461,
        "last_rank": 38163,
        "player_name": "Ameer tofa",
        "rank": 22568,
        "rank_sort": 22573,
        "total": 2377
      },
      {
        "club_badge_src": null,
        "entry": 144502,
        "entry_name": "AC My Nan",
        "event_total": 52,
        "has_played": true,
        "id": 945919,
        "last_rank": 18520,
        "player_name": "lee mead",
        "rank": 22568,
        "rank_sort": 22574,
        "total": 2377
      },
      {
        "club_badge_src": null,
        "entry": 204304,
        "entry_name": "Gasforth Blues",
        "event_total": 66,
        "has_played": true,
        "id": 1357807,
        "last_rank": 26230,
        "player_name": "Tom Gorsuch",
        "rank": 22568,
        "rank_sort": 22575,
        "total": 2377
      },
      {
        "club_badge_src": null,
        "entry": 214484,
        "entry_name": "Mandem fc",
        "event_total": 66,
        "has_played": true,
        "id": 1426790,
        "last_rank": 30191,
        "player_name": "Joni-Jesper Rahkola",
        "rank": 22568,
        "rank_sort": 22576,
        "total": 2377
      },
      {
        "club_badge_src": "https://fantasy.premierleague.com/gcs/plfpl-production-adobe-approved/plfpl-production/231078/cc9ea04e-baf8-468c-9ed8-9a2b575a998d.png",
        "entry": 231078,
        "entry_name": "\u0623\u0644\u0628\u0627\u0646 \u0627\u0644\u0645\u0631\u0627\u0639\u064a",
        "event_total": 62,
        "has_played": true,
        "id": 1537345,
        "last_rank": 26425,
        "player_name": "Moslem Brini",
        "rank": 22568,
        "rank_sort": 22577,
        "total": 2377
      },
      {
        "club_badge_src": null,
        "entry": 253755,
        "entry_name": "Midtable Dream Team",
        "event_total": 64,
        "has_played": true,
        "id": 1687890,
        "last_rank": 24570,
        "player_name": "Mike Jackelen",
        "rank": 22568,
        "rank_sort": 22578,
        "total": 2377
      },
      {
        "club_badge_src": null,
        "entry": 302754,
        "entry_name": "massive saka points",
        "event_total": 43,
        "has_played": true,
        "id": 2026235,
        "last_rank": 13033,
        "player_name": "dash gieve",
        "rank": 22568,
        "rank_sort": 22579,
        "total": 2377
      },
      {
        "club_badge_src": null,
        "entry": 365144,
        "entry_name": "Supercalgoballistic",
        "event_total": 72,
        "has_played": true,
        "id": 2443689,
        "last_rank": 32335,
        "player_name": "Stephen Callaghan",
        "rank": 22568,
        "rank_sort": 22580,
        "total": 2377
      },
      {
        "club_badge_src": null,
        "entry": 415126,
        "entry_name": "Mbappe_The_Goat",
        "event_total": 78,
        "has_played": true,
        "id": 2782869,
        "last_rank": 44672,
        "player_name": "Hachem Turki",
        "rank": 22568,
        "rank_sort": 22581,
        "total": 2377
      },
      {
        "club_badge_src": null,
        "entry": 415409,
        "entry_name": "Alisson Wonderland",
        "event_total": 68,
        "has_played": true,
        "id": 2784793,
        "last_rank": 32335,
        "player_name": "R M",
        "rank": 22568,
        "rank_sort": 22582,
        "total": 2377
      },
      {
        "club_badge_src": null,
        "entry": 421178,
        "entry_name": "FoxFC",
        "event_total": 52,
        "has_played": true,
        "id": 2822558,
        "last_rank": 18520,
        "player_name": "Elliott Fox",
        "rank": 22568,
        "rank_sort": 22583,
        "total": 2377
      },
      {
        "club_badge_src": null,
        "entry": 567197,
        "entry_name": "Gangstar Allardyce",
        "event_total": 54,
        "has_played": true,
        "id": 3817501,
        "last_rank": 19966,
        "player_name": "Tom Liddiard",
        "rank": 22568,
        "rank_sort": 22584,
        "total": 2377
      },
      {
        "club_badge_src": "https://fantasy.premierleague.com/gcs/plfpl-production-adobe-approved/plfpl-production/586352/954cedc2-be37-4da8-9188-b4cea0bc2225.png",
        "entry": 586352,
        "entry_name": "Hammers XI",
        "event_total": 58,
        "has_played": true,
        "id": 3946038,
        "last_rank": 22996,
        "player_name": "Athul Augustine",
        "rank": 22568,
        "rank_sort": 22585,
        "total": 2377
      },
      {
        "club_badge_src": null,
        "entry": 588170,
        "entry_name": "Slot Machine",
        "event_total": 56,
        "has_played": true,
        "id": 3960282,
        "last_rank": 21450,
        "player_name": "lukas Mbirimi",
        "rank": 22568,
        "rank_sort": 22586,
        "total": 2377
      },
      {
        "club_badge_src": null,
        "entry": 594906,
        "entry_name": "Glass Half F\u00fcll",
        "event_total": 69,
        "has_played": true,
        "id": 4010097,
        "last_rank": 29199,
        "player_name": "Alex Friend",
        "rank": 22568,
        "rank_sort": 22587,
        "total": 2377
      },
      {
        "club_badge_src": null,
        "entry": 631374,
        "entry_name": "Its Up For Grabs Now",
        "event_total": 36,
        "has_played": true,
        "id": 4266272,
        "last_rank": 8234,
        "player_name": "David Major",
        "rank": 22568,
        "rank_sort": 22588,
        "total": 2377
      },
      {
        "club_badge_src": null,
        "entry": 635870,
        "entry_name": "Earth wind & Maguire",
        "event_total": 66,
        "has_played": true,
        "id": 4297373,
        "last_rank": 30276,
        "player_name": "Tim Frederiksen",
        "rank": 22568,
        "rank_sort": 22589,
        "total": 2377
      },
      {
        "club_badge_src": null,
        "entry": 660141,
        "entry_name": "Roger's 10",
        "event_total": 70,
        "has_played": true,
        "id": 4461556,
        "last_rank": 30191,
        "player_name": "Shoumick Saha",
        "rank": 22568,
        "rank_sort": 22590,
        "total": 2377
      },
      {
        "club_badge_src": null,
        "entry": 706990,
        "entry_name": "Le Saux Solid Crew",
        "event_total": 48,
        "has_played": true,
        "id": 4791458,
        "last_rank": 15920,
        "player_name": "Phil Williams",
        "rank": 22568,
        "rank_sort": 22591,
        "total": 2377
      },
      {
        "club_badge_src": null,
        "entry": 724046,
        "entry_name": "Luke Town",
        "event_total": 55,
        "has_played": true,
        "id": 4917666,
        "last_rank": 20678,
        "player_name": "Luke Beesley",
        "rank": 22568,
        "rank_sort": 22592,
        "total": 2377
      },
      {
        "club_badge_src": null,
        "entry": 826533,
        "entry_name": "S.C.P.",
        "event_total": 47,
        "has_played": true,
        "id": 5661007,
        "last_rank": 15280,
        "player_name": "Zico Pescada",
        "rank": 22568,
        "rank_sort": 22593,
        "total": 2377
      },
      {
        "club_badge_src": "https://fantasy.premierleague.com/gcs/plfpl-production-adobe-approved/plfpl-production/866036/0b53eb89-bc8a-461c-8a6e-95d1cb17e988.png",
        "entry": 866036,
        "entry_name": "AoftimizT",
        "event_total": 75,
        "has_played": true,
        "id": 5937077,
        "last_rank": 40770,
        "player_name": "Panus Noisakul",
        "rank": 22568,
        "rank_sort": 22594,
        "total": 2377
      },
      {
        "club_badge_src": "https://fantasy.premierleague.com/gcs/plfpl-production-adobe-approved/plfpl-production/895513/4b8dc8f3-52bd-408e-a1b7-35a9cc7e6784.png",
        "entry": 895513,
        "entry_name": "Rady FC",
        "event_total": 55,
        "has_played": true,
        "id": 6151841,
        "last_rank": 17802,
        "player_name": "Radyansyah Bagas",
        "rank": 22568,
        "rank_sort": 22595,
        "total": 2377
      },
      {
        "club_badge_src": null,
        "entry": 917048,
        "entry_name": "Boydy's BitBallers",
        "event_total": 65,
        "has_played": true,
        "id": 6306229,
        "last_rank": 25436,
        "player_name": "George Boyd",
        "rank": 22568,
        "rank_sort": 22596,
        "total": 2377
      },
      {
        "club_badge_src": null,
        "entry": 957662,
        "entry_name": "Partey @ De Gea Bar",
        "event_total": 54,
        "has_played": true,
        "id": 6598699,
        "last_rank": 19904,
        "player_name": "Tom Daniels",
        "rank": 22568,
        "rank_sort": 22597,
        "total": 2377
      },
      {
        "club_badge_src": null,
        "entry": 1050354,
        "entry_name": "7naka",
        "event_total": 73,
        "has_played": true,
        "id": 7269094,
        "last_rank": 33483,
        "player_name": "Ali Salah",
        "rank": 22568,
        "rank_sort": 22598,
        "total": 2377
      },
      {
        "club_badge_src": "https://fantasy.premierleague.com/gcs/plfpl-production-adobe-approved/plfpl-production/1169104/d2f2cca5-3775-42d1-9847-ca94a2abe93c.png",
        "entry": 1169104,
        "entry_name": "Golazo United",
        "event_total": 66,
        "has_played": true,
        "id": 8110325,
        "last_rank": 26345,
        "player_name": "Azam Ismail",
        "rank": 22568,
        "rank_sort": 22599,
        "total": 2377
      },
      {
        "club_badge_src": null,
        "entry": 1208850,
        "entry_name": "Stretford End",
        "event_total": 59,
        "has_played": true,
        "id": 8390030,
        "last_rank": 23656,
        "player_name": "Melvin Dan",
        "rank": 22568,
        "rank_sort": 22600,
        "total": 2377
      }
    ]
  }
}