{
  "last_updated_data": "2026-05-24T23:28:17Z",
  "league": {
    "admin_entry": null,
    "closed": false,
    "code_privacy": "p",
    "created": "2025-07-20T23:14:33.933835Z",
    "cup_league": 2815434,
    "has_cup": true,
    "id": 314,
    "league_type": "s",
    "max_entries": null,
    "name": "Overall",
    "rank": null,
    "scoring": "c",
    "start_event": 1
  },
  "new_entries": {
    "has_next": false,
    "page": 1,
    "results": []
  },
  "standings": {
    "has_next": true,
    "page": 691,
    "results": [
      {
        "club_badge_src": null,
        "entry": 1025931,
        "entry_name": "The Sheriffs",
        "event_total": 56,
        "has_played": true,
        "id": 7097979,
        "last_rank": 28906,
        "player_name": "Seref Volkan",
        "rank": 34455,
        "rank_sort": 34501,
        "total": 2364
      },
      {
        "club_badge_src": null,
        "entry": 1039880,
        "entry_name": "FC Geek",
        "event_total": 48,
        "has_played": true,
        "id": 7196351,
        "last_rank": 25330,
        "player_name": "Matt Geekie",
        "rank": 34455,
        "rank_sort": 34502,
        "total": 2364
      },
      {
        "club_badge_src": null,
        "entry": 1077736,
        "entry_name": "Spursane",
        "event_total": 58,
        "has_played": true,
        "id": 7462298,
        "last_rank": 35619,
        "player_name": "Kjetil Olsen Stenersen",
        "rank": 34455,
        "rank_sort": 34503,
        "total": 2364
      },
      {
        "club_badge_src": null,
        "entry": 1097548,
        "entry_name": "Stange IL",
        "event_total": 68,
        "has_played": true,
        "id": 7602120,
        "last_rank": 42940,
        "player_name": "Oliver Stange",
        "rank": 34455,
        "rank_sort": 34504,
        "total": 2364
      },
      {
        "club_badge_src": null,
        "entry": 1300810,
        "entry_name": "Bi-polar Bears",
        "event_total": 67,
        "has_played": true,
        "id": 9040568,
        "last_rank": 46839,
        "player_name": "Matty McArdle",
        "rank": 34455,
        "rank_sort": 34505,
        "total": 2364
      },
      {
        "club_badge_src": null,
        "entry": 1330118,
        "entry_name": "Bryan Bueno",
        "event_total": 52,
        "has_played": true,
        "id": 9245396,
        "last_rank": 29071,
        "player_name": "Mats Tolcsiner",
        "rank": 34455,
        "rank_sort": 34506,
        "total": 2364
      },
      {
        "club_badge_src": null,
        "entry": 1388632,
        "entry_name": "Nightwing",
        "event_total": 60,
        "has_played": true,
        "id": 9659129,
        "last_rank": 37589,
        "player_name": "Raihan Faruque",
        "rank": 34455,
        "rank_sort": 34507,
        "total": 2364
      },
      {
        "club_badge_src": null,
        "entry": 1492610,
        "entry_name": "Tors\u00e5s TikaTaka",
        "event_total": 24,
        "has_played": true,
        "id": 10408848,
        "last_rank": 10102,
        "player_name": "Jim Lysell",
        "rank": 34455,
        "rank_sort": 34508,
        "total": 2364
      },
      {
        "club_badge_src": null,
        "entry": 1523485,
        "entry_name": "The Notorious",
        "event_total": 75,
        "has_played": true,
        "id": 10625765,
        "last_rank": 53345,
        "player_name": "The Notorious",
        "rank": 34455,
        "rank_sort": 34509,
        "total": 2364
      },
      {
        "club_badge_src": null,
        "entry": 1630448,
        "entry_name": "Crossdressers United",
        "event_total": 72,
        "has_played": true,
        "id": 11412051,
        "last_rank": 55311,
        "player_name": "Tommy Pedersen",
        "rank": 34455,
        "rank_sort": 34510,
        "total": 2364
      },
      {
        "club_badge_src": null,
        "entry": 1630994,
        "entry_name": "Fishing Unitied",
        "event_total": 57,
        "has_played": true,
        "id": 11416051,
        "last_rank": 34458,
        "player_name": "Jan Arve Dyrnes",
        "rank": 34455,
        "rank_sort": 34511,
        "total": 2364
      },
      {
        "club_badge_src": null,
        "entry": 1701594,
        "entry_name": "TigersFC",
        "event_total": 47,
        "has_played": true,
        "id": 11919458,
        "last_rank": 21159,
        "player_name": "3mar .",
        "rank": 34455,
        "rank_sort": 34512,
        "total": 2364
      },
      {
        "club_badge_src": null,
        "entry": 1739543,
        "entry_name": "Better Call Saka",
        "event_total": 66,
        "has_played": true,
        "id": 12204627,
        "last_rank": 45927,
        "player_name": "Daniel Todorov",
        "rank": 34455,
        "rank_sort": 34513,
        "total": 2364
      },
      {
        "club_badge_src": null,
        "entry": 1770153,
        "entry_name": "Tom the Frank Engine",
        "event_total": 58,
        "has_played": true,
        "id": 12434873,
        "last_rank": 35619,
        "player_name": "Jonathan Sterling",
        "rank": 34455,
        "rank_sort": 34514,
        "total": 2364
      },
      {
        "club_badge_src": null,
        "entry": 1848729,
        "entry_name": "Ctwy",
        "event_total": 99,
        "has_played": true,
        "id": 13008602,
        "last_rank": 114292,
        "player_name": "Chris Twycross",
        "rank": 34455,
        "rank_sort": 34515,
        "total": 2364
      },
      {
        "club_badge_src": "https://fantasy.premierleague.com/gcs/plfpl-production-adobe-approved/plfpl-production/1902917/17888c3a-adcb-431e-9911-f0beeb6cc12c.png",
        "entry": 1902917,
        "entry_name": "\u26bd\u23e9\ufffd",
        "event_total": 53,
        "has_played": true,
        "id": 13414646,
        "last_rank": 30060,
        "player_name": "Tom Niner",
        "rank": 34455,
        "rank_sort": 34516,
        "total": 2364
      },
      {
        "club_badge_src": "https://fantasy.premierleague.com/gcs/plfpl-production-adobe-approved/plfpl-production/1960839/d9a28877-7a62-41f2-98ce-c67c32ded443.png",
        "entry": 1960839,
        "entry_name": "se\u00f1iorFPL",
        "event_total": 57,
        "has_played": true,
        "id": 13834297,
        "last_rank": 25776,
        "player_name": "Fotis Kanavos",
        "rank": 34455,
        "rank_sort": 34517,
        "total": 2364
      },
      {
        "club_badge_src": null,
        "entry": 1981792,
        "entry_name": "Wout Weghorst",
        "event_total": 73,
        "has_played": true,
        "id": 13997159,
        "last_rank": 56369,
        "player_name": "Pavel Getov",
        "rank": 34455,
        "rank_sort": 34518,
        "total": 2364
      },
      {
        "club_badge_src": null,
        "entry": 2007003,
        "entry_name": "11 Angry Men",
        "event_total": 75,
        "has_played": true,
        "id": 14190186,
        "last_rank": 53345,
        "player_name": "Jacob Daszkiewicz",
        "rank": 34455,
        "rank_sort": 34519,
        "total": 2364
      },
      {
        "club_badge_src": null,
        "entry": 2032903,
        "entry_name": "Matz Sels Sea Shells",
        "event_total": 56,
        "has_played": true,
        "id": 14392930,
        "last_rank": 33147,
        "player_name": "Tom Turner",
        "rank": 34455,
        "rank_sort": 34520,
        "total": 2364
      },
      {
        "club_badge_src": null,
        "entry": 2075885,
        "entry_name": "AmazeBalls FC",
        "event_total": 49,
        "has_played": true,
        "id": 14718267,
        "last_rank": 22685,
        "player_name": "Ryan Tey",
        "rank": 34455,
        "rank_sort": 34521,
        "total": 2364
      },
      {
        "club_badge_src": null,
        "entry": 2096191,
        "entry_name": "Wirtz Case Scenario",
        "event_total": 42,
        "has_played": true,
        "id": 14872902,
        "last_rank": 20416,
        "player_name": "Eli Gosling",
        "rank": 34455,
        "rank_sort": 34522,
        "total": 2364
      },
      {
        "club_badge_src": "https://fantasy.premierleague.com/gcs/plfpl-production-adobe-approved/plfpl-production/2158705/c80d324a-1dd5-48ff-a99f-01af471e0e66.png",
        "entry": 2158705,
        "entry_name": "Herman United",
        "event_total": 66,
        "has_played": true,
        "id": 15345673,
        "last_rank": 40297,
        "player_name": "Alasdair Henry",
        "rank": 34455,
        "rank_sort": 34523,
        "total": 2364
      },
      {
        "club_badge_src": null,
        "entry": 2254769,
        "entry_name": "Gilmore Goals",
        "event_total": 62,
        "has_played": true,
        "id": 16072460,
        "last_rank": 35424,
        "player_name": "Jeff Gilmore",
        "rank": 34455,
        "rank_sort": 34524,
        "total": 2364
      },
      {
        "club_badge_src": null,
        "entry": 2313856,
        "entry_name": "BubbaJoes FC",
        "event_total": 52,
        "has_played": true,
        "id": 16505647,
        "last_rank": 25172,
        "player_name": "Hafeez Rehman",
        "rank": 34455,
        "rank_sort": 34525,
        "total": 2364
      },
      {
        "club_badge_src": null,
        "entry": 2319978,
        "entry_name": "Blake's Ballers",
        "event_total": 64,
        "has_played": true,
        "id": 16550135,
        "last_rank": 43168,
        "player_name": "James Blake",
        "rank": 34455,
        "rank_sort": 34526,
        "total": 2364
      },
      {
        "club_badge_src": null,
        "entry": 2343059,
        "entry_name": "\u0627\u0644\u062d\u0627\u062c \u0637\u0627\u0631\u0642 \u0648 \u0623\u0648\u0644\u0627\u062f\u0647",
        "event_total": 74,
        "has_played": true,
        "id": 16718456,
        "last_rank": 58911,
        "player_name": "Tarek Ayman",
        "rank": 34455,
        "rank_sort": 34527,
        "total": 2364
      },
      {
        "club_badge_src": "https://fantasy.premierleague.com/gcs/plfpl-production-adobe-approved/plfpl-production/2509836/3aaf784d-20b8-425b-a013-aac5a2aff4f3.png",
        "entry": 2509836,
        "entry_name": "Raine or Shine FC",
        "event_total": 51,
        "has_played": true,
        "id": 17977409,
        "last_rank": 28150,
        "player_name": "Louis Raine",
        "rank": 34455,
        "rank_sort": 34528,
        "total": 2364
      },
      {
        "club_badge_src": null,
        "entry": 2640566,
        "entry_name": "waste my time fc",
        "event_total": 64,
        "has_played": true,
        "id": 18978232,
        "last_rank": 37822,
        "player_name": "Djordje Doslo",
        "rank": 34455,
        "rank_sort": 34529,
        "total": 2364
      },
      {
        "club_badge_src": null,
        "entry": 2810591,
        "entry_name": "Rhythm is a Danso",
        "event_total": 48,
        "has_played": true,
        "id": 20527802,
        "last_rank": 25436,
        "player_name": "Sam Dugdale",
        "rank": 34455,
        "rank_sort": 34530,
        "total": 2364
      },
      {
        "club_badge_src": null,
        "entry": 3002001,
        "entry_name": "Kwizyfc",
        "event_total": 65,
        "has_played": true,
        "id": 22081180,
        "last_rank": 39023,
        "player_name": "kodwo pobee",
        "rank": 34455,
        "rank_sort": 34531,
        "total": 2364
      },
      {
        "club_badge_src": "https://fantasy.premierleague.com/gcs/plfpl-production-adobe-approved/plfpl-production/3011217/6ee3e188-67c2-4c94-a3d1-6bbcafaf27f0.png",
        "entry": 3011217,
        "entry_name": "Woodbury FC",
        "event_total": 68,
        "has_played": true,
        "id": 22151983,
        "last_rank": 42940,
        "player_name": "Mike Merrill",
        "rank": 34455,
        "rank_sort": 34532,
        "total": 2364
      },
      {
        "club_badge_src": null,
        "entry": 3015823,
        "entry_name": "Otochan Red Diamonds",
        "event_total": 58,
        "has_played": true,
        "id": 22187675,
        "last_rank": 30957,
        "player_name": "Shin T",
        "rank": 34455,
        "rank_sort": 34533,
        "total": 2364
      },
      {
        "club_badge_src": null,
        "entry": 3040856,
        "entry_name": "Meelan",
        "event_total": 62,
        "has_played": true,
        "id": 22382088,
        "last_rank": 30727,
        "player_name": "Nicky Prince",
        "rank": 34455,
        "rank_sort": 34534,
        "total": 2364
      },
      {
        "club_badge_src": null,
        "entry": 3121282,
        "entry_name": "Europa Leage Winners",
        "event_total": 43,
        "has_played": true,
        "id": 23034097,
        "last_rank": 21392,
        "player_name": "Cade Falconer",
        "rank": 34455,
        "rank_sort": 34535,
        "total": 2364
      },
      {
        "club_badge_src": null,
        "entry": 3178012,
        "entry_name": "Campeone",
        "event_total": 60,
        "has_played": true,
        "id": 23483047,
        "last_rank": 37435,
        "player_name": "Caarticay Panday",
        "rank": 34455,
        "rank_sort": 34536,
        "total": 2364
      },
      {
        "club_badge_src": "https://fantasy.premierleague.com/gcs/plfpl-production-adobe-approved/plfpl-production/3320547/40493427-0914-4b9c-91a5-c2bf9b45423b.png",
        "entry": 3320547,
        "entry_name": "Yeah Against Karate?",
        "event_total": 61,
        "has_played": true,
        "id": 24613858,
        "last_rank": 34051,
        "player_name": "Nathan Stacey",
        "rank": 34455,
        "rank_sort": 34537,
        "total": 2364
      },
      {
        "club_badge_src": null,
        "entry": 3361437,
        "entry_name": "Chicken ekitikka",
        "event_total": 60,
        "has_played": true,
        "id": 24941745,
        "last_rank": 38016,
        "player_name": "Will Turrell",
        "rank": 34455,
        "rank_sort": 34538,
        "total": 2364
      },
      {
        "club_badge_src": null,
        "entry": 3412254,
        "entry_name": "Entre",
        "event_total": 76,
        "has_played": true,
        "id": 25341627,
        "last_rank": 61950,
        "player_name": "Morten Pettersen",
        "rank": 34455,
        "rank_sort": 34539,
        "total": 2364
      },
      {
        "club_badge_src": null,
        "entry": 3427113,
        "entry_name": "super troopers .",
        "event_total": 57,
        "has_played": true,
        "id": 25458368,
        "last_rank": 34458,
        "player_name": "Cillian Sullivan",
        "rank": 34455,
        "rank_sort": 34540,
        "total": 2364
      },
      {
        "club_badge_src": null,
        "entry": 3459372,
        "entry_name": "fanedust",
        "event_total": 65,
        "has_played": true,
        "id": 25713538,
        "last_rank": 39023,
        "player_name": "Nikolai Fanebust",
        "rank": 34455,
        "rank_sort": 34541,
        "total": 2364
      },
      {
        "club_badge_src": null,
        "entry": 3542502,
        "entry_name": "Xavier FC",
        "event_total": 64,
        "has_played": true,
        "id": 26369600,
        "last_rank": 42940,
        "player_name": "Xavier Camisa",
        "rank": 34455,
        "rank_sort": 34542,
        "total": 2364
      },
      {
        "club_badge_src": null,
        "entry": 3588019,
        "entry_name": "kok",
        "event_total": 57,
        "has_played": true,
        "id": 26721015,
        "last_rank": 34051,
        "player_name": "Magnus Gr\u00f8tvik",
        "rank": 34455,
        "rank_sort": 34543,
        "total": 2364
      },
      {
        "club_badge_src": "https://fantasy.premierleague.com/gcs/plfpl-production-adobe-approved/plfpl-production/3630165/1af69b2b-e281-4db0-96c7-15764e4e49b5.png",
        "entry": 3630165,
        "entry_name": "Oh FFS ...",
        "event_total": 65,
        "has_played": true,
        "id": 27051060,
        "last_rank": 38774,
        "player_name": "Matthew Ivey",
        "rank": 34455,
        "rank_sort": 34544,
        "total": 2364
      },
      {
        "club_badge_src": null,
        "entry": 3763864,
        "entry_name": "TJ Sokol Brezova",
        "event_total": 52,
        "has_played": true,
        "id": 28103035,
        "last_rank": 29199,
        "player_name": "Marek Travnik",
        "rank": 34455,
        "rank_sort": 34545,
        "total": 2364
      },
      {
        "club_badge_src": null,
        "entry": 3794506,
        "entry_name": "A New Start",
        "event_total": 55,
        "has_played": true,
        "id": 28360853,
        "last_rank": 32190,
        "player_name": "Patrick Brazzill",
        "rank": 34455,
        "rank_sort": 34546,
        "total": 2364
      },
      {
        "club_badge_src": null,
        "entry": 3843159,
        "entry_name": "DontLookBackElanga",
        "event_total": 49,
        "has_played": true,
        "id": 28796371,
        "last_rank": 26230,
        "player_name": "Josh Beal",
        "rank": 34455,
        "rank_sort": 34547,
        "total": 2364
      },
      {
        "club_badge_src": null,
        "entry": 3890239,
        "entry_name": "Wark This Way",
        "event_total": 51,
        "has_played": true,
        "id": 29233700,
        "last_rank": 28150,
        "player_name": "Christopher Payne",
        "rank": 34455,
        "rank_sort": 34548,
        "total": 2364
      },
      {
        "club_badge_src": null,
        "entry": 3932423,
        "entry_name": "Anfield Bluebirds",
        "event_total": 49,
        "has_played": true,
        "id": 29576470,
        "last_rank": 26230,
        "player_name": "Matt Butler",
        "rank": 34455,
        "rank_sort": 34549,
        "total": 2364
      },
      {
        "club_badge_src": null,
        "entry": 4015371,
        "entry_name": "The Breadcrumbs",
        "event_total": 65,
        "has_played": true,
        "id": 30259004,
        "last_rank": 39023,
        "player_name": "Cameron Barker",
        "rank": 34455,
        "rank_sort": 34550,
        "total": 2364
      }
    ]
  }
}