{
  "last_updated_data": "2026-05-24T23:28:17Z",
  "league": {
    "admin_entry": null,
    "closed": false,
    "code_privacy": "p",
    "created": "2025-07-20T23:14:33.933835Z",
    "cup_league": 2815434,
    "has_cup": true,
    "id": 314,
    "league_type": "s",
    "max_entries": null,
    "name": "Overall",
    "rank": null,
    "scoring": "c",
    "start_event": 1
  },
  "new_entries": {
    "has_next": false,
    "page": 1,
    "results": []
  },
  "standings": {
    "has_next": true,
    "page": 929,
    "results": [
      {
        "club_badge_src": null,
        "entry": 498824,
        "entry_name": "Mission Frimpossible",
        "event_total": 80,
        "has_played": true,
        "id": 3347876,
        "last_rank": 90625,
        "player_name": "David Davies",
        "rank": 46385,
        "rank_sort": 46401,
        "total": 2354
      },
      {
        "club_badge_src": null,
        "entry": 639379,
        "entry_name": "Rice Rice Baby",
        "event_total": 68,
        "has_played": true,
        "id": 4321134,
        "last_rank": 64943,
        "player_name": "Alex Jones",
        "rank": 46385,
        "rank_sort": 46402,
        "total": 2354
      },
      {
        "club_badge_src": null,
        "entry": 662329,
        "entry_name": "alfie in wonderland",
        "event_total": 54,
        "has_played": true,
        "id": 4477231,
        "last_rank": 42648,
        "player_name": "Alfie Howarth",
        "rank": 46385,
        "rank_sort": 46403,
        "total": 2354
      },
      {
        "club_badge_src": null,
        "entry": 671374,
        "entry_name": "Beale Madrid",
        "event_total": 55,
        "has_played": true,
        "id": 4541061,
        "last_rank": 44048,
        "player_name": "Richard Beale",
        "rank": 46385,
        "rank_sort": 46404,
        "total": 2354
      },
      {
        "club_badge_src": null,
        "entry": 702377,
        "entry_name": "Botman Begins",
        "event_total": 74,
        "has_played": true,
        "id": 4759197,
        "last_rank": 76947,
        "player_name": "William Keay",
        "rank": 46385,
        "rank_sort": 46405,
        "total": 2354
      },
      {
        "club_badge_src": null,
        "entry": 881687,
        "entry_name": "Turtelinni Mbappini",
        "event_total": 60,
        "has_played": true,
        "id": 6046446,
        "last_rank": 51137,
        "player_name": "Ryan Sze",
        "rank": 46385,
        "rank_sort": 46406,
        "total": 2354
      },
      {
        "club_badge_src": null,
        "entry": 891425,
        "entry_name": "Game of Stones",
        "event_total": 62,
        "has_played": true,
        "id": 6118175,
        "last_rank": 54494,
        "player_name": "Ashley Hyde",
        "rank": 46385,
        "rank_sort": 46407,
        "total": 2354
      },
      {
        "club_badge_src": null,
        "entry": 915607,
        "entry_name": "ma ka dood",
        "event_total": 59,
        "has_played": true,
        "id": 6296134,
        "last_rank": 49607,
        "player_name": "Aayush Singh",
        "rank": 46385,
        "rank_sort": 46408,
        "total": 2354
      },
      {
        "club_badge_src": null,
        "entry": 986174,
        "entry_name": "STANNA's XI",
        "event_total": 49,
        "has_played": true,
        "id": 6799493,
        "last_rank": 36142,
        "player_name": "George Stanway",
        "rank": 46385,
        "rank_sort": 46409,
        "total": 2354
      },
      {
        "club_badge_src": null,
        "entry": 1050298,
        "entry_name": "Mark My Wirtz",
        "event_total": 83,
        "has_played": true,
        "id": 7268669,
        "last_rank": 98183,
        "player_name": "Stam Monkoev",
        "rank": 46385,
        "rank_sort": 46410,
        "total": 2354
      },
      {
        "club_badge_src": "https://fantasy.premierleague.com/gcs/plfpl-production-adobe-approved/plfpl-production/1118912/336bb3a6-7271-4aa2-b4d2-d753b74ef021.png",
        "entry": 1118912,
        "entry_name": "Trappin in Nans Gaff",
        "event_total": 72,
        "has_played": true,
        "id": 7750453,
        "last_rank": 72662,
        "player_name": "Luca Yates",
        "rank": 46385,
        "rank_sort": 46411,
        "total": 2354
      },
      {
        "club_badge_src": null,
        "entry": 1133332,
        "entry_name": "southside",
        "event_total": 67,
        "has_played": true,
        "id": 7856023,
        "last_rank": 63080,
        "player_name": "Eamonn Mullally",
        "rank": 46385,
        "rank_sort": 46412,
        "total": 2354
      },
      {
        "club_badge_src": "https://fantasy.premierleague.com/gcs/plfpl-production-adobe-approved/plfpl-production/1380697/e5580f1e-fd8e-4ff5-9ae6-ad40ca97d15b.png",
        "entry": 1380697,
        "entry_name": "Change Name",
        "event_total": 51,
        "has_played": true,
        "id": 9599971,
        "last_rank": 38644,
        "player_name": "Jonathan Mole",
        "rank": 46385,
        "rank_sort": 46413,
        "total": 2354
      },
      {
        "club_badge_src": null,
        "entry": 1477638,
        "entry_name": "Dembulance",
        "event_total": 49,
        "has_played": true,
        "id": 10302683,
        "last_rank": 36200,
        "player_name": "Robbie Miners",
        "rank": 46385,
        "rank_sort": 46414,
        "total": 2354
      },
      {
        "club_badge_src": null,
        "entry": 1777604,
        "entry_name": "Mind the 100 Points",
        "event_total": 56,
        "has_played": true,
        "id": 12488069,
        "last_rank": 45182,
        "player_name": "Kostas Michael",
        "rank": 46385,
        "rank_sort": 46415,
        "total": 2354
      },
      {
        "club_badge_src": null,
        "entry": 1842281,
        "entry_name": "Charli xGx",
        "event_total": 52,
        "has_played": true,
        "id": 12961418,
        "last_rank": 39874,
        "player_name": "Alex Jordan",
        "rank": 46385,
        "rank_sort": 46416,
        "total": 2354
      },
      {
        "club_badge_src": null,
        "entry": 1916716,
        "entry_name": "Funnell Flyers",
        "event_total": 61,
        "has_played": true,
        "id": 13514574,
        "last_rank": 46591,
        "player_name": "Tyrone Funnell",
        "rank": 46385,
        "rank_sort": 46417,
        "total": 2354
      },
      {
        "club_badge_src": null,
        "entry": 2117910,
        "entry_name": "HeyDude FC",
        "event_total": 64,
        "has_played": true,
        "id": 15043523,
        "last_rank": 57776,
        "player_name": "Paul Shaw",
        "rank": 46385,
        "rank_sort": 46418,
        "total": 2354
      },
      {
        "club_badge_src": "https://fantasy.premierleague.com/gcs/plfpl-production-adobe-approved/plfpl-production/2288933/87c7bed4-18a4-47af-afe6-993f2462ea53.png",
        "entry": 2288933,
        "entry_name": "JAOG",
        "event_total": 51,
        "has_played": true,
        "id": 16324197,
        "last_rank": 38644,
        "player_name": "Dave R",
        "rank": 46385,
        "rank_sort": 46419,
        "total": 2354
      },
      {
        "club_badge_src": null,
        "entry": 2856826,
        "entry_name": "WanBissakaTwoBissaka",
        "event_total": 64,
        "has_played": true,
        "id": 20890298,
        "last_rank": 57857,
        "player_name": "Lucca Williams",
        "rank": 46385,
        "rank_sort": 46420,
        "total": 2354
      },
      {
        "club_badge_src": null,
        "entry": 2964507,
        "entry_name": "mother effer jones",
        "event_total": 73,
        "has_played": true,
        "id": 21778184,
        "last_rank": 74787,
        "player_name": "Brandon Simmonette",
        "rank": 46385,
        "rank_sort": 46421,
        "total": 2354
      },
      {
        "club_badge_src": null,
        "entry": 3135204,
        "entry_name": "I've Gyokeres this",
        "event_total": 53,
        "has_played": true,
        "id": 23142856,
        "last_rank": 41162,
        "player_name": "Richard Sharratt",
        "rank": 46385,
        "rank_sort": 46422,
        "total": 2354
      },
      {
        "club_badge_src": null,
        "entry": 3137306,
        "entry_name": "Goonerwinthisyear",
        "event_total": 68,
        "has_played": true,
        "id": 23159448,
        "last_rank": 64943,
        "player_name": "Andrew Kettle",
        "rank": 46385,
        "rank_sort": 46423,
        "total": 2354
      },
      {
        "club_badge_src": null,
        "entry": 3204687,
        "entry_name": "FC CORUCHENSE",
        "event_total": 49,
        "has_played": true,
        "id": 23690862,
        "last_rank": 36200,
        "player_name": "Gustavo Valbom",
        "rank": 46385,
        "rank_sort": 46424,
        "total": 2354
      },
      {
        "club_badge_src": null,
        "entry": 3241081,
        "entry_name": "Pain in Diaz",
        "event_total": 28,
        "has_played": true,
        "id": 23973683,
        "last_rank": 17358,
        "player_name": "James Williams",
        "rank": 46385,
        "rank_sort": 46425,
        "total": 2354
      },
      {
        "club_badge_src": "https://fantasy.premierleague.com/gcs/plfpl-production-adobe-approved/plfpl-production/3267478/0cb65028-62d2-4bf8-8c4b-1aafe1b00ccd.png",
        "entry": 3267478,
        "entry_name": "Shady Till I Die",
        "event_total": 45,
        "has_played": true,
        "id": 24179167,
        "last_rank": 31747,
        "player_name": "Osman Tariq",
        "rank": 46385,
        "rank_sort": 46426,
        "total": 2354
      },
      {
        "club_badge_src": null,
        "entry": 3415772,
        "entry_name": "WhiffBallers",
        "event_total": 68,
        "has_played": true,
        "id": 25370738,
        "last_rank": 64777,
        "player_name": "Charlie Whiffen Lawrence",
        "rank": 46385,
        "rank_sort": 46427,
        "total": 2354
      },
      {
        "club_badge_src": null,
        "entry": 3560978,
        "entry_name": "Bramley Moorers",
        "event_total": 37,
        "has_played": true,
        "id": 26513348,
        "last_rank": 24039,
        "player_name": "Keith Myers",
        "rank": 46385,
        "rank_sort": 46428,
        "total": 2354
      },
      {
        "club_badge_src": null,
        "entry": 3811918,
        "entry_name": "DontLookBackTanganga",
        "event_total": 69,
        "has_played": true,
        "id": 28503636,
        "last_rank": 66738,
        "player_name": "Ollie Hutchinson",
        "rank": 46385,
        "rank_sort": 46429,
        "total": 2354
      },
      {
        "club_badge_src": null,
        "entry": 4279976,
        "entry_name": "Gil FC",
        "event_total": 54,
        "has_played": true,
        "id": 32459876,
        "last_rank": 42506,
        "player_name": "Hugo Gil",
        "rank": 46385,
        "rank_sort": 46430,
        "total": 2354
      },
      {
        "club_badge_src": null,
        "entry": 4442203,
        "entry_name": "JJ",
        "event_total": 51,
        "has_played": true,
        "id": 33827268,
        "last_rank": 38774,
        "player_name": "J J",
        "rank": 46385,
        "rank_sort": 46431,
        "total": 2354
      },
      {
        "club_badge_src": null,
        "entry": 4509084,
        "entry_name": "Stevie's Wonders",
        "event_total": 41,
        "has_played": true,
        "id": 34381192,
        "last_rank": 27585,
        "player_name": "Steve Shaw",
        "rank": 46385,
        "rank_sort": 46432,
        "total": 2354
      },
      {
        "club_badge_src": "https://fantasy.premierleague.com/gcs/plfpl-production-adobe-approved/plfpl-production/4655223/cfc7f0e7-eb32-43c1-8ca9-031c48e5e8bb.png",
        "entry": 4655223,
        "entry_name": "Bristol University",
        "event_total": 29,
        "has_played": true,
        "id": 35626089,
        "last_rank": 18113,
        "player_name": "Li Zhang Tam",
        "rank": 46385,
        "rank_sort": 46433,
        "total": 2354
      },
      {
        "club_badge_src": null,
        "entry": 4812729,
        "entry_name": "Manangester united",
        "event_total": 66,
        "has_played": true,
        "id": 37058048,
        "last_rank": 61315,
        "player_name": "Pratik Baral",
        "rank": 46385,
        "rank_sort": 46434,
        "total": 2354
      },
      {
        "club_badge_src": null,
        "entry": 4828073,
        "entry_name": "Glimt",
        "event_total": 67,
        "has_played": true,
        "id": 37184472,
        "last_rank": 63063,
        "player_name": "Arnfinn Oines",
        "rank": 46385,
        "rank_sort": 46435,
        "total": 2354
      },
      {
        "club_badge_src": null,
        "entry": 5092437,
        "entry_name": "Fried Rice",
        "event_total": 61,
        "has_played": true,
        "id": 39359999,
        "last_rank": 52738,
        "player_name": "John Ryan",
        "rank": 46385,
        "rank_sort": 46436,
        "total": 2354
      },
      {
        "club_badge_src": null,
        "entry": 5176132,
        "entry_name": "Bowen Arrow",
        "event_total": 64,
        "has_played": true,
        "id": 40063554,
        "last_rank": 57857,
        "player_name": "Billy Hinson",
        "rank": 46385,
        "rank_sort": 46437,
        "total": 2354
      },
      {
        "club_badge_src": null,
        "entry": 5226318,
        "entry_name": "Florian's Dancefloor",
        "event_total": 63,
        "has_played": true,
        "id": 40496847,
        "last_rank": 56369,
        "player_name": "Ayub Surti",
        "rank": 46385,
        "rank_sort": 46438,
        "total": 2354
      },
      {
        "club_badge_src": null,
        "entry": 5257293,
        "entry_name": "lastHERO#404",
        "event_total": 63,
        "has_played": true,
        "id": 40746018,
        "last_rank": 56069,
        "player_name": "Nicholas Le-Maire",
        "rank": 46385,
        "rank_sort": 46439,
        "total": 2354
      },
      {
        "club_badge_src": "https://fantasy.premierleague.com/gcs/plfpl-production-adobe-approved/plfpl-production/5350025/bbd6101f-b6d5-400e-a9d7-ccda81ab5069.png",
        "entry": 5350025,
        "entry_name": "DERMATINO FETIX",
        "event_total": 68,
        "has_played": true,
        "id": 41524172,
        "last_rank": 64830,
        "player_name": "Hlias Theodosakis",
        "rank": 46385,
        "rank_sort": 46440,
        "total": 2354
      },
      {
        "club_badge_src": null,
        "entry": 5448993,
        "entry_name": "Change Name",
        "event_total": 50,
        "has_played": true,
        "id": 42399342,
        "last_rank": 37435,
        "player_name": "Olly Webb",
        "rank": 46385,
        "rank_sort": 46441,
        "total": 2354
      },
      {
        "club_badge_src": "https://fantasy.premierleague.com/gcs/plfpl-production-adobe-approved/plfpl-production/5622582/8d2f274e-8e3d-4cb0-a2f7-92173a6f6e01.png",
        "entry": 5622582,
        "entry_name": "The Geeks Possum",
        "event_total": 64,
        "has_played": true,
        "id": 43952801,
        "last_rank": 57743,
        "player_name": "David Earls",
        "rank": 46385,
        "rank_sort": 46442,
        "total": 2354
      },
      {
        "club_badge_src": null,
        "entry": 5644240,
        "entry_name": "GAZ v POL",
        "event_total": 74,
        "has_played": true,
        "id": 44145241,
        "last_rank": 76947,
        "player_name": "Art Konstantin",
        "rank": 46385,
        "rank_sort": 46443,
        "total": 2354
      },
      {
        "club_badge_src": null,
        "entry": 5724304,
        "entry_name": "Biscuit Man",
        "event_total": 56,
        "has_played": true,
        "id": 44839984,
        "last_rank": 45182,
        "player_name": "Chris Edwards",
        "rank": 46385,
        "rank_sort": 46444,
        "total": 2354
      },
      {
        "club_badge_src": null,
        "entry": 5814855,
        "entry_name": "Kinder Mbeumo",
        "event_total": 56,
        "has_played": true,
        "id": 45628014,
        "last_rank": 45182,
        "player_name": "Graham Jones",
        "rank": 46385,
        "rank_sort": 46445,
        "total": 2354
      },
      {
        "club_badge_src": null,
        "entry": 6102209,
        "entry_name": "The Fairy Tales",
        "event_total": 62,
        "has_played": true,
        "id": 48194699,
        "last_rank": 54494,
        "player_name": "Helen Mulhall",
        "rank": 46385,
        "rank_sort": 46446,
        "total": 2354
      },
      {
        "club_badge_src": null,
        "entry": 6181949,
        "entry_name": "rupert rovers",
        "event_total": 66,
        "has_played": true,
        "id": 48889286,
        "last_rank": 61315,
        "player_name": "Rupert Ratcliffe",
        "rank": 46385,
        "rank_sort": 46447,
        "total": 2354
      },
      {
        "club_badge_src": null,
        "entry": 6275956,
        "entry_name": "Wirtz Are The Goals?",
        "event_total": 53,
        "has_played": true,
        "id": 49699139,
        "last_rank": 41324,
        "player_name": "kyle richardson",
        "rank": 46385,
        "rank_sort": 46448,
        "total": 2354
      },
      {
        "club_badge_src": null,
        "entry": 6330204,
        "entry_name": "Del Piero",
        "event_total": 63,
        "has_played": true,
        "id": 50304170,
        "last_rank": 56069,
        "player_name": "Vuk Vukadinovic",
        "rank": 46385,
        "rank_sort": 46449,
        "total": 2354
      },
      {
        "club_badge_src": null,
        "entry": 6464867,
        "entry_name": "Ctrl Alt Deligt",
        "event_total": 46,
        "has_played": true,
        "id": 51505481,
        "last_rank": 32879,
        "player_name": "Goran Lugonja",
        "rank": 46385,
        "rank_sort": 46450,
        "total": 2354
      }
    ]
  }
}