{
  "last_updated_data": "2026-05-24T23:28:17Z",
  "league": {
    "admin_entry": null,
    "closed": false,
    "code_privacy": "p",
    "created": "2025-07-20T23:14:33.933835Z",
    "cup_league": 2815434,
    "has_cup": true,
    "id": 314,
    "league_type": "s",
    "max_entries": null,
    "name": "Overall",
    "rank": null,
    "scoring": "c",
    "start_event": 1
  },
  "new_entries": {
    "has_next": false,
    "page": 1,
    "results": []
  },
  "standings": {
    "has_next": true,
    "page": 30,
    "results": [
      {
        "club_badge_src": null,
        "entry": 2624148,
        "entry_name": "Abdoul CF.",
        "event_total": 67,
        "has_played": true,
        "id": 18856595,
        "last_rank": 2141,
        "player_name": "Abdel kader Almunajed",
        "rank": 1451,
        "rank_sort": 1451,
        "total": 2441
      },
      {
        "club_badge_src": null,
        "entry": 5613201,
        "entry_name": "Yoro Wizard Harry",
        "event_total": 47,
        "has_played": true,
        "id": 43871070,
        "last_rank": 769,
        "player_name": "George Hilditch",
        "rank": 1451,
        "rank_sort": 1452,
        "total": 2441
      },
      {
        "club_badge_src": null,
        "entry": 213092,
        "entry_name": "aBrahimovic",
        "event_total": 53,
        "has_played": true,
        "id": 1417527,
        "last_rank": 1056,
        "player_name": "Bank yenprasert",
        "rank": 1453,
        "rank_sort": 1453,
        "total": 2441
      },
      {
        "club_badge_src": null,
        "entry": 393004,
        "entry_name": "Bruno, Dos, Tres",
        "event_total": 62,
        "has_played": true,
        "id": 2635921,
        "last_rank": 1338,
        "player_name": "ALI QAYYUM",
        "rank": 1453,
        "rank_sort": 1454,
        "total": 2441
      },
      {
        "club_badge_src": null,
        "entry": 3217001,
        "entry_name": "Mo's Tobago FC",
        "event_total": 64,
        "has_played": true,
        "id": 23785501,
        "last_rank": 1486,
        "player_name": "Andrew Mohan",
        "rank": 1453,
        "rank_sort": 1455,
        "total": 2441
      },
      {
        "club_badge_src": null,
        "entry": 3818013,
        "entry_name": "Nikanswishamigdirekt",
        "event_total": 47,
        "has_played": true,
        "id": 28553372,
        "last_rank": 769,
        "player_name": "Alexander Eckervall",
        "rank": 1453,
        "rank_sort": 1456,
        "total": 2441
      },
      {
        "club_badge_src": null,
        "entry": 5532153,
        "entry_name": "Kroenke Kong",
        "event_total": 66,
        "has_played": true,
        "id": 43158766,
        "last_rank": 2033,
        "player_name": "Matt Wynter",
        "rank": 1453,
        "rank_sort": 1457,
        "total": 2441
      },
      {
        "club_badge_src": null,
        "entry": 66107,
        "entry_name": "hawktua mateta",
        "event_total": 64,
        "has_played": true,
        "id": 427159,
        "last_rank": 1491,
        "player_name": "Aleksander Solberg",
        "rank": 1458,
        "rank_sort": 1458,
        "total": 2441
      },
      {
        "club_badge_src": null,
        "entry": 1647606,
        "entry_name": "Zubi-doobi-doos",
        "event_total": 53,
        "has_played": true,
        "id": 11533559,
        "last_rank": 858,
        "player_name": "Kamil Cegie\u0142ko",
        "rank": 1458,
        "rank_sort": 1459,
        "total": 2441
      },
      {
        "club_badge_src": null,
        "entry": 3480660,
        "entry_name": "Slot Nation",
        "event_total": 89,
        "has_played": true,
        "id": 25881857,
        "last_rank": 6106,
        "player_name": "Richard Adjei",
        "rank": 1460,
        "rank_sort": 1460,
        "total": 2441
      },
      {
        "club_badge_src": null,
        "entry": 308852,
        "entry_name": "Saka Potato's",
        "event_total": 49,
        "has_played": true,
        "id": 2068770,
        "last_rank": 697,
        "player_name": "Cory Williams",
        "rank": 1461,
        "rank_sort": 1461,
        "total": 2441
      },
      {
        "club_badge_src": null,
        "entry": 834411,
        "entry_name": "Change Name",
        "event_total": 66,
        "has_played": true,
        "id": 5715605,
        "last_rank": 2055,
        "player_name": "DO Jayden",
        "rank": 1461,
        "rank_sort": 1462,
        "total": 2441
      },
      {
        "club_badge_src": null,
        "entry": 889202,
        "entry_name": "BooyakaSaka619",
        "event_total": 72,
        "has_played": true,
        "id": 6099208,
        "last_rank": 1836,
        "player_name": "Bailey Cheung",
        "rank": 1461,
        "rank_sort": 1463,
        "total": 2441
      },
      {
        "club_badge_src": null,
        "entry": 4009171,
        "entry_name": "JoJo",
        "event_total": 41,
        "has_played": true,
        "id": 30202981,
        "last_rank": 452,
        "player_name": "Jo Bratland",
        "rank": 1461,
        "rank_sort": 1464,
        "total": 2441
      },
      {
        "club_badge_src": null,
        "entry": 5284904,
        "entry_name": "Hold my Timber",
        "event_total": 36,
        "has_played": true,
        "id": 40963940,
        "last_rank": 423,
        "player_name": "Simon Hauger",
        "rank": 1465,
        "rank_sort": 1465,
        "total": 2440
      },
      {
        "club_badge_src": null,
        "entry": 2003199,
        "entry_name": "\u0641\u0627\u0646\u0637\u064a\u0632\u064a",
        "event_total": 72,
        "has_played": true,
        "id": 14162418,
        "last_rank": 2790,
        "player_name": "Bahaa Hossam",
        "rank": 1466,
        "rank_sort": 1466,
        "total": 2440
      },
      {
        "club_badge_src": null,
        "entry": 564373,
        "entry_name": "Unge spillere",
        "event_total": 77,
        "has_played": true,
        "id": 3798803,
        "last_rank": 2939,
        "player_name": "Ola Eikill Veflen",
        "rank": 1467,
        "rank_sort": 1467,
        "total": 2440
      },
      {
        "club_badge_src": null,
        "entry": 2000107,
        "entry_name": "Not a Kalou",
        "event_total": 60,
        "has_played": true,
        "id": 14139275,
        "last_rank": 1226,
        "player_name": "Rob Banner",
        "rank": 1468,
        "rank_sort": 1468,
        "total": 2440
      },
      {
        "club_badge_src": null,
        "entry": 2806537,
        "entry_name": "Simeonov ID",
        "event_total": 66,
        "has_played": true,
        "id": 20496038,
        "last_rank": 2068,
        "player_name": "Deyan Simeonov",
        "rank": 1468,
        "rank_sort": 1469,
        "total": 2440
      },
      {
        "club_badge_src": "https://fantasy.premierleague.com/gcs/plfpl-production-adobe-approved/plfpl-production/6218908/deea26a2-4783-43a1-80c1-b90db9d87e00.png",
        "entry": 6218908,
        "entry_name": "Mauled",
        "event_total": 58,
        "has_played": true,
        "id": 49207180,
        "last_rank": 1358,
        "player_name": "James Cushion",
        "rank": 1468,
        "rank_sort": 1470,
        "total": 2440
      },
      {
        "club_badge_src": null,
        "entry": 196932,
        "entry_name": "PU-58",
        "event_total": 44,
        "has_played": true,
        "id": 1306529,
        "last_rank": 665,
        "player_name": "Tomi Tyysteri",
        "rank": 1471,
        "rank_sort": 1471,
        "total": 2440
      },
      {
        "club_badge_src": null,
        "entry": 320278,
        "entry_name": "VELECENTAR BARANDA",
        "event_total": 46,
        "has_played": true,
        "id": 2146684,
        "last_rank": 748,
        "player_name": "Vid Zagar",
        "rank": 1471,
        "rank_sort": 1472,
        "total": 2440
      },
      {
        "club_badge_src": null,
        "entry": 357599,
        "entry_name": "FourCITY",
        "event_total": 60,
        "has_played": true,
        "id": 2393088,
        "last_rank": 1510,
        "player_name": "Supanat Kongsontana",
        "rank": 1471,
        "rank_sort": 1473,
        "total": 2440
      },
      {
        "club_badge_src": null,
        "entry": 362853,
        "entry_name": "Swedish Howe's Mafia",
        "event_total": 67,
        "has_played": true,
        "id": 2427922,
        "last_rank": 2174,
        "player_name": "Tom B",
        "rank": 1471,
        "rank_sort": 1474,
        "total": 2440
      },
      {
        "club_badge_src": null,
        "entry": 589283,
        "entry_name": "Sveto",
        "event_total": 53,
        "has_played": true,
        "id": 3968823,
        "last_rank": 1065,
        "player_name": "Svetoslav Robev",
        "rank": 1471,
        "rank_sort": 1475,
        "total": 2440
      },
      {
        "club_badge_src": null,
        "entry": 707013,
        "entry_name": "Flo-Mo Replay",
        "event_total": 41,
        "has_played": true,
        "id": 4791624,
        "last_rank": 573,
        "player_name": "Craig Martin",
        "rank": 1471,
        "rank_sort": 1476,
        "total": 2440
      },
      {
        "club_badge_src": null,
        "entry": 715098,
        "entry_name": "booboobearsarmy",
        "event_total": 81,
        "has_played": true,
        "id": 4851600,
        "last_rank": 4358,
        "player_name": "alex cochran",
        "rank": 1471,
        "rank_sort": 1477,
        "total": 2440
      },
      {
        "club_badge_src": null,
        "entry": 877819,
        "entry_name": "BoyCharin FC",
        "event_total": 56,
        "has_played": true,
        "id": 6018396,
        "last_rank": 1240,
        "player_name": "Charin Iamprapakul",
        "rank": 1471,
        "rank_sort": 1478,
        "total": 2440
      },
      {
        "club_badge_src": null,
        "entry": 1309723,
        "entry_name": "Bumaa FC",
        "event_total": 68,
        "has_played": true,
        "id": 9103735,
        "last_rank": 2280,
        "player_name": "Adam Saleh",
        "rank": 1471,
        "rank_sort": 1479,
        "total": 2440
      },
      {
        "club_badge_src": null,
        "entry": 1652113,
        "entry_name": "Plodders  FC",
        "event_total": 77,
        "has_played": true,
        "id": 11566635,
        "last_rank": 3562,
        "player_name": "Stephen Mair",
        "rank": 1471,
        "rank_sort": 1480,
        "total": 2440
      },
      {
        "club_badge_src": null,
        "entry": 1694483,
        "entry_name": "Ken'smen11",
        "event_total": 68,
        "has_played": true,
        "id": 11867909,
        "last_rank": 2280,
        "player_name": "Kenneth Chee",
        "rank": 1471,
        "rank_sort": 1481,
        "total": 2440
      },
      {
        "club_badge_src": "https://fantasy.premierleague.com/gcs/plfpl-production-adobe-approved/plfpl-production/2479834/2b25488a-2422-461a-ae4a-1202856c87ac.png",
        "entry": 2479834,
        "entry_name": "stonaldo",
        "event_total": 66,
        "has_played": true,
        "id": 17743666,
        "last_rank": 2062,
        "player_name": "Andrew Stonehouse",
        "rank": 1471,
        "rank_sort": 1482,
        "total": 2440
      },
      {
        "club_badge_src": "https://fantasy.premierleague.com/gcs/plfpl-production-adobe-approved/plfpl-production/3043831/860c79cb-8d5b-4845-8dc4-54cfb44b10bb.png",
        "entry": 3043831,
        "entry_name": "B@rr@ M@-Meijo@ FC",
        "event_total": 77,
        "has_played": true,
        "id": 22404771,
        "last_rank": 3528,
        "player_name": "Jo\u00e3o Manuel Barradas",
        "rank": 1471,
        "rank_sort": 1483,
        "total": 2440
      },
      {
        "club_badge_src": "https://fantasy.premierleague.com/gcs/plfpl-production-adobe-approved/plfpl-production/3571023/2de4f0f5-28ab-4cdd-b801-1db84518ba77.png",
        "entry": 3571023,
        "entry_name": "JoJo's Allstars",
        "event_total": 66,
        "has_played": true,
        "id": 26590176,
        "last_rank": 2088,
        "player_name": "Jonathan May",
        "rank": 1471,
        "rank_sort": 1484,
        "total": 2440
      },
      {
        "club_badge_src": null,
        "entry": 4423097,
        "entry_name": "Machine Gun Skelly",
        "event_total": 56,
        "has_played": true,
        "id": 33654891,
        "last_rank": 1240,
        "player_name": "Matteo Mazzotti",
        "rank": 1471,
        "rank_sort": 1485,
        "total": 2440
      },
      {
        "club_badge_src": null,
        "entry": 4444774,
        "entry_name": "Haven't Got A Kalou",
        "event_total": 59,
        "has_played": true,
        "id": 33848877,
        "last_rank": 1438,
        "player_name": "jay caines",
        "rank": 1471,
        "rank_sort": 1486,
        "total": 2440
      },
      {
        "club_badge_src": null,
        "entry": 5260193,
        "entry_name": "Atomic Gittens",
        "event_total": 57,
        "has_played": true,
        "id": 40768979,
        "last_rank": 1321,
        "player_name": "Max Collins",
        "rank": 1471,
        "rank_sort": 1487,
        "total": 2440
      },
      {
        "club_badge_src": null,
        "entry": 5504709,
        "entry_name": "PawPatrol FC",
        "event_total": 54,
        "has_played": true,
        "id": 42895706,
        "last_rank": 1130,
        "player_name": "Ashok Muthu",
        "rank": 1471,
        "rank_sort": 1488,
        "total": 2440
      },
      {
        "club_badge_src": null,
        "entry": 6161406,
        "entry_name": "G\u00f6ken",
        "event_total": 64,
        "has_played": true,
        "id": 48711065,
        "last_rank": 1880,
        "player_name": "Isak Andersson",
        "rank": 1471,
        "rank_sort": 1489,
        "total": 2440
      },
      {
        "club_badge_src": null,
        "entry": 6613197,
        "entry_name": "\ub208 \uac10\uace0, \ud558\ub098, \ub458, \uc14b \ub6f0\uc5b4",
        "event_total": 71,
        "has_played": true,
        "id": 52840861,
        "last_rank": 2685,
        "player_name": "HN Mak",
        "rank": 1471,
        "rank_sort": 1490,
        "total": 2440
      },
      {
        "club_badge_src": null,
        "entry": 7366951,
        "entry_name": "Tagliatelli",
        "event_total": 49,
        "has_played": true,
        "id": 59706547,
        "last_rank": 879,
        "player_name": "Mario Ray",
        "rank": 1471,
        "rank_sort": 1491,
        "total": 2440
      },
      {
        "club_badge_src": null,
        "entry": 7540287,
        "entry_name": "Cas Vegas Rhinos",
        "event_total": 65,
        "has_played": true,
        "id": 61723830,
        "last_rank": 1978,
        "player_name": "Andy Evans",
        "rank": 1471,
        "rank_sort": 1492,
        "total": 2440
      },
      {
        "club_badge_src": null,
        "entry": 8208163,
        "entry_name": "Strictly Business",
        "event_total": 67,
        "has_played": true,
        "id": 67817898,
        "last_rank": 2174,
        "player_name": "Michael Murley",
        "rank": 1471,
        "rank_sort": 1493,
        "total": 2440
      },
      {
        "club_badge_src": null,
        "entry": 8819893,
        "entry_name": "Diket",
        "event_total": 62,
        "has_played": true,
        "id": 73735387,
        "last_rank": 1668,
        "player_name": "Olle Lindstr\u00f6m",
        "rank": 1471,
        "rank_sort": 1494,
        "total": 2440
      },
      {
        "club_badge_src": null,
        "entry": 10633,
        "entry_name": "ATeamofGaryBreens",
        "event_total": 52,
        "has_played": true,
        "id": 62950,
        "last_rank": 825,
        "player_name": "Damien Fitzpatrick",
        "rank": 1495,
        "rank_sort": 1495,
        "total": 2440
      },
      {
        "club_badge_src": null,
        "entry": 47580,
        "entry_name": "Slot Machine",
        "event_total": 56,
        "has_played": true,
        "id": 305263,
        "last_rank": 1240,
        "player_name": "Tasos Anastasiadis",
        "rank": 1495,
        "rank_sort": 1496,
        "total": 2440
      },
      {
        "club_badge_src": null,
        "entry": 148103,
        "entry_name": "Peaky Reijnders",
        "event_total": 63,
        "has_played": true,
        "id": 970712,
        "last_rank": 1758,
        "player_name": "Dan Key",
        "rank": 1495,
        "rank_sort": 1497,
        "total": 2440
      },
      {
        "club_badge_src": "https://fantasy.premierleague.com/gcs/plfpl-production-adobe-approved/plfpl-production/158176/ca345daf-be0a-4c6c-bcd1-b50ab40f6017.png",
        "entry": 158176,
        "entry_name": "Old Dudleians",
        "event_total": 75,
        "has_played": true,
        "id": 1040793,
        "last_rank": 3237,
        "player_name": "Paul Whitehouse",
        "rank": 1495,
        "rank_sort": 1498,
        "total": 2440
      },
      {
        "club_badge_src": null,
        "entry": 359646,
        "entry_name": "Los Porro Hermanos",
        "event_total": 74,
        "has_played": true,
        "id": 2406652,
        "last_rank": 3079,
        "player_name": "Max Lundstr\u00f6m",
        "rank": 1495,
        "rank_sort": 1499,
        "total": 2440
      },
      {
        "club_badge_src": null,
        "entry": 400918,
        "entry_name": "MILANARA**",
        "event_total": 60,
        "has_played": true,
        "id": 2688447,
        "last_rank": 1523,
        "player_name": "Abdulaziz Mosaad",
        "rank": 1495,
        "rank_sort": 1500,
        "total": 2440
      }
    ]
  }
}