{
  "last_updated_data": "2026-05-24T23:28:17Z",
  "league": {
    "admin_entry": null,
    "closed": false,
    "code_privacy": "p",
    "created": "2025-07-20T23:14:33.933835Z",
    "cup_league": 2815434,
    "has_cup": true,
    "id": 314,
    "league_type": "s",
    "max_entries": null,
    "name": "Overall",
    "rank": null,
    "scoring": "c",
    "start_event": 1
  },
  "new_entries": {
    "has_next": false,
    "page": 1,
    "results": []
  },
  "standings": {
    "has_next": true,
    "page": 1000,
    "results": [
      {
        "club_badge_src": null,
        "entry": 5260874,
        "entry_name": "iCase,iShaw,iCunha\u2019d",
        "event_total": 68,
        "has_played": true,
        "id": 40774358,
        "last_rank": 61606,
        "player_name": "Matthew Wright",
        "rank": 49730,
        "rank_sort": 49951,
        "total": 2352
      },
      {
        "club_badge_src": null,
        "entry": 5409145,
        "entry_name": "Slots county",
        "event_total": 48,
        "has_played": true,
        "id": 42062673,
        "last_rank": 37589,
        "player_name": "christopher hill",
        "rank": 49730,
        "rank_sort": 49952,
        "total": 2352
      },
      {
        "club_badge_src": null,
        "entry": 5419287,
        "entry_name": "Diouf or Dare",
        "event_total": 48,
        "has_played": true,
        "id": 42147582,
        "last_rank": 38016,
        "player_name": "Tom Brookfield",
        "rank": 49730,
        "rank_sort": 49953,
        "total": 2352
      },
      {
        "club_badge_src": null,
        "entry": 5436747,
        "entry_name": "ALTO PIQUIRI",
        "event_total": 54,
        "has_played": true,
        "id": 42294670,
        "last_rank": 45714,
        "player_name": "Paulo Carvalho",
        "rank": 49730,
        "rank_sort": 49954,
        "total": 2352
      },
      {
        "club_badge_src": null,
        "entry": 5554059,
        "entry_name": "Ghetto Superstars",
        "event_total": 55,
        "has_played": true,
        "id": 43351583,
        "last_rank": 46839,
        "player_name": "Fredrik Stellander",
        "rank": 49730,
        "rank_sort": 49955,
        "total": 2352
      },
      {
        "club_badge_src": null,
        "entry": 5558268,
        "entry_name": "NICK&RUSH",
        "event_total": 48,
        "has_played": true,
        "id": 43389756,
        "last_rank": 38016,
        "player_name": "Nick Lauryssen",
        "rank": 49730,
        "rank_sort": 49956,
        "total": 2352
      },
      {
        "club_badge_src": null,
        "entry": 5565081,
        "entry_name": "TK FC",
        "event_total": 69,
        "has_played": true,
        "id": 43450486,
        "last_rank": 70985,
        "player_name": "Tom Knight",
        "rank": 49730,
        "rank_sort": 49957,
        "total": 2352
      },
      {
        "club_badge_src": null,
        "entry": 5578869,
        "entry_name": "Que Salah, Salah",
        "event_total": 62,
        "has_played": true,
        "id": 43570543,
        "last_rank": 58071,
        "player_name": "Warren McDougald",
        "rank": 49730,
        "rank_sort": 49958,
        "total": 2352
      },
      {
        "club_badge_src": "https://fantasy.premierleague.com/gcs/plfpl-production-adobe-approved/plfpl-production/5630724/7f7aea46-afdf-4914-8bf1-374bb07fe37c.png",
        "entry": 5630724,
        "entry_name": "Figo Perde Tudo",
        "event_total": 61,
        "has_played": true,
        "id": 44023611,
        "last_rank": 57001,
        "player_name": "Iago Guimar\u00e3es",
        "rank": 49730,
        "rank_sort": 49959,
        "total": 2352
      },
      {
        "club_badge_src": null,
        "entry": 5685365,
        "entry_name": "Beef Cherki",
        "event_total": 70,
        "has_played": true,
        "id": 44502735,
        "last_rank": 72815,
        "player_name": "Jasper JB",
        "rank": 49730,
        "rank_sort": 49960,
        "total": 2352
      },
      {
        "club_badge_src": null,
        "entry": 5694615,
        "entry_name": "Los Jardineros",
        "event_total": 62,
        "has_played": true,
        "id": 44581608,
        "last_rank": 58071,
        "player_name": "Jack Karlsson",
        "rank": 49730,
        "rank_sort": 49961,
        "total": 2352
      },
      {
        "club_badge_src": null,
        "entry": 5712680,
        "entry_name": "Run The Kewells",
        "event_total": 47,
        "has_played": true,
        "id": 44737243,
        "last_rank": 36624,
        "player_name": "James Gething",
        "rank": 49730,
        "rank_sort": 49962,
        "total": 2352
      },
      {
        "club_badge_src": null,
        "entry": 5992508,
        "entry_name": "Plimmer Argyle",
        "event_total": 62,
        "has_played": true,
        "id": 47222470,
        "last_rank": 58388,
        "player_name": "Darren Plimmer",
        "rank": 49730,
        "rank_sort": 49963,
        "total": 2352
      },
      {
        "club_badge_src": null,
        "entry": 5993008,
        "entry_name": "MurderonZidanesFloor",
        "event_total": 60,
        "has_played": true,
        "id": 47227782,
        "last_rank": 55014,
        "player_name": "Tim Kiernan",
        "rank": 49730,
        "rank_sort": 49964,
        "total": 2352
      },
      {
        "club_badge_src": null,
        "entry": 6079233,
        "entry_name": "As far",
        "event_total": 72,
        "has_played": true,
        "id": 47995650,
        "last_rank": 77258,
        "player_name": "Soulaimane Zerouaoui",
        "rank": 49730,
        "rank_sort": 49965,
        "total": 2352
      },
      {
        "club_badge_src": "https://fantasy.premierleague.com/gcs/plfpl-production-adobe-approved/plfpl-production/6112703/f3eacb4c-3e31-4666-a502-5076d8c4c66d.png",
        "entry": 6112703,
        "entry_name": "Skal ikke p\u00e5 McD",
        "event_total": 56,
        "has_played": true,
        "id": 48287020,
        "last_rank": 48119,
        "player_name": "Tobias Nielsen",
        "rank": 49730,
        "rank_sort": 49966,
        "total": 2352
      },
      {
        "club_badge_src": null,
        "entry": 6167736,
        "entry_name": "Bruno to Glory",
        "event_total": 66,
        "has_played": true,
        "id": 48765976,
        "last_rank": 65163,
        "player_name": "Jim Peters",
        "rank": 49730,
        "rank_sort": 49967,
        "total": 2352
      },
      {
        "club_badge_src": "https://fantasy.premierleague.com/gcs/plfpl-production-adobe-approved/plfpl-production/6191719/edfe56ed-5e25-4d48-8cee-e12744c02d00.png",
        "entry": 6191719,
        "entry_name": "haCunha matata",
        "event_total": 67,
        "has_played": true,
        "id": 48973995,
        "last_rank": 59535,
        "player_name": "John Lee",
        "rank": 49730,
        "rank_sort": 49968,
        "total": 2352
      },
      {
        "club_badge_src": null,
        "entry": 6209805,
        "entry_name": "RedTeam",
        "event_total": 68,
        "has_played": true,
        "id": 49129905,
        "last_rank": 68748,
        "player_name": "Redouane ATTAR --",
        "rank": 49730,
        "rank_sort": 49969,
        "total": 2352
      },
      {
        "club_badge_src": "https://fantasy.premierleague.com/gcs/plfpl-production-adobe-approved/plfpl-production/6232252/83550b73-9264-48b8-a650-c8f5bc790cf1.png",
        "entry": 6232252,
        "entry_name": "Five me crazy",
        "event_total": 60,
        "has_played": true,
        "id": 49322814,
        "last_rank": 54667,
        "player_name": "Mike Parish",
        "rank": 49730,
        "rank_sort": 49970,
        "total": 2352
      },
      {
        "club_badge_src": null,
        "entry": 6261405,
        "entry_name": "HaCunha Mateta",
        "event_total": 57,
        "has_played": true,
        "id": 49574700,
        "last_rank": 49880,
        "player_name": "James Pitt",
        "rank": 49730,
        "rank_sort": 49971,
        "total": 2352
      },
      {
        "club_badge_src": null,
        "entry": 6270641,
        "entry_name": "The Odd Squad",
        "event_total": 44,
        "has_played": true,
        "id": 49654180,
        "last_rank": 33147,
        "player_name": "Lisa Davis",
        "rank": 49730,
        "rank_sort": 49972,
        "total": 2352
      },
      {
        "club_badge_src": null,
        "entry": 6275326,
        "entry_name": "wirtz of wall street",
        "event_total": 61,
        "has_played": true,
        "id": 49693725,
        "last_rank": 49880,
        "player_name": "Saarthak Jain",
        "rank": 49730,
        "rank_sort": 49973,
        "total": 2352
      },
      {
        "club_badge_src": null,
        "entry": 6406314,
        "entry_name": "Wanyama in pyjamas",
        "event_total": 58,
        "has_played": true,
        "id": 50975252,
        "last_rank": 51720,
        "player_name": "Avir Sadarangani",
        "rank": 49730,
        "rank_sort": 49974,
        "total": 2352
      },
      {
        "club_badge_src": null,
        "entry": 6459344,
        "entry_name": "Saka Potatoes",
        "event_total": 59,
        "has_played": true,
        "id": 51452619,
        "last_rank": 53345,
        "player_name": "Lesley English",
        "rank": 49730,
        "rank_sort": 49975,
        "total": 2352
      },
      {
        "club_badge_src": null,
        "entry": 6508059,
        "entry_name": "Vatsal XI",
        "event_total": 65,
        "has_played": true,
        "id": 51893335,
        "last_rank": 63724,
        "player_name": "Vatsal Mishra",
        "rank": 49730,
        "rank_sort": 49976,
        "total": 2352
      },
      {
        "club_badge_src": null,
        "entry": 6543957,
        "entry_name": "FantasyBoy",
        "event_total": 66,
        "has_played": true,
        "id": 52213516,
        "last_rank": 64830,
        "player_name": "Marius Chistiansen",
        "rank": 49730,
        "rank_sort": 49977,
        "total": 2352
      },
      {
        "club_badge_src": null,
        "entry": 6609855,
        "entry_name": "Perri Perri Chicken",
        "event_total": 39,
        "has_played": true,
        "id": 52808962,
        "last_rank": 27976,
        "player_name": "Adam Corcoran",
        "rank": 49730,
        "rank_sort": 49978,
        "total": 2352
      },
      {
        "club_badge_src": null,
        "entry": 6666846,
        "entry_name": "Ses Koffender",
        "event_total": 62,
        "has_played": true,
        "id": 53317682,
        "last_rank": 58071,
        "player_name": "Louis Wainwright",
        "rank": 49730,
        "rank_sort": 49979,
        "total": 2352
      },
      {
        "club_badge_src": null,
        "entry": 6667275,
        "entry_name": "YO",
        "event_total": 69,
        "has_played": true,
        "id": 53321462,
        "last_rank": 70985,
        "player_name": "NongYo A.Liverpool",
        "rank": 49730,
        "rank_sort": 49980,
        "total": 2352
      },
      {
        "club_badge_src": null,
        "entry": 6712489,
        "entry_name": "Yaya Sanogoal",
        "event_total": 66,
        "has_played": true,
        "id": 53718755,
        "last_rank": 65163,
        "player_name": "Victor Makoni",
        "rank": 49730,
        "rank_sort": 49981,
        "total": 2352
      },
      {
        "club_badge_src": null,
        "entry": 6749133,
        "entry_name": "NDC 62",
        "event_total": 68,
        "has_played": true,
        "id": 54030332,
        "last_rank": 69323,
        "player_name": "Neil Chapman",
        "rank": 49730,
        "rank_sort": 49982,
        "total": 2352
      },
      {
        "club_badge_src": null,
        "entry": 6756030,
        "entry_name": "hanyy",
        "event_total": 57,
        "has_played": true,
        "id": 54089474,
        "last_rank": 50199,
        "player_name": "Mohmed hany",
        "rank": 49730,
        "rank_sort": 49983,
        "total": 2352
      },
      {
        "club_badge_src": null,
        "entry": 6781403,
        "entry_name": "FC trust the process",
        "event_total": 50,
        "has_played": true,
        "id": 54301797,
        "last_rank": 40297,
        "player_name": "Vilho Bottas",
        "rank": 49730,
        "rank_sort": 49984,
        "total": 2352
      },
      {
        "club_badge_src": null,
        "entry": 6812765,
        "entry_name": "Gyok Tuah",
        "event_total": 58,
        "has_played": true,
        "id": 54561675,
        "last_rank": 45416,
        "player_name": "Jay Poncha",
        "rank": 49730,
        "rank_sort": 49985,
        "total": 2352
      },
      {
        "club_badge_src": null,
        "entry": 7057012,
        "entry_name": "Average Joes",
        "event_total": 57,
        "has_played": true,
        "id": 56765402,
        "last_rank": 49607,
        "player_name": "Callum Welsh",
        "rank": 49730,
        "rank_sort": 49986,
        "total": 2352
      },
      {
        "club_badge_src": null,
        "entry": 7136732,
        "entry_name": "Cullyhanna Reserves",
        "event_total": 58,
        "has_played": true,
        "id": 57525005,
        "last_rank": 51720,
        "player_name": "rian hoey",
        "rank": 49730,
        "rank_sort": 49987,
        "total": 2352
      },
      {
        "club_badge_src": null,
        "entry": 7190294,
        "entry_name": "Cranky United",
        "event_total": 61,
        "has_played": true,
        "id": 58042534,
        "last_rank": 56180,
        "player_name": "Sara Cooper",
        "rank": 49730,
        "rank_sort": 49988,
        "total": 2352
      },
      {
        "club_badge_src": null,
        "entry": 7242280,
        "entry_name": "\u00a3Thanks But No Yanks",
        "event_total": 41,
        "has_played": true,
        "id": 58529494,
        "last_rank": 29688,
        "player_name": "Alex McKenna",
        "rank": 49730,
        "rank_sort": 49989,
        "total": 2352
      },
      {
        "club_badge_src": null,
        "entry": 7266928,
        "entry_name": "Kinder Mbeumo",
        "event_total": 54,
        "has_played": true,
        "id": 58764779,
        "last_rank": 45714,
        "player_name": "Becky Cleghorn",
        "rank": 49730,
        "rank_sort": 49990,
        "total": 2352
      },
      {
        "club_badge_src": null,
        "entry": 7381712,
        "entry_name": "Nuggets",
        "event_total": 50,
        "has_played": true,
        "id": 59842496,
        "last_rank": 40297,
        "player_name": "Ross McMillan",
        "rank": 49730,
        "rank_sort": 49991,
        "total": 2352
      },
      {
        "club_badge_src": null,
        "entry": 7523896,
        "entry_name": "Marco Pirlo's",
        "event_total": 45,
        "has_played": true,
        "id": 61567793,
        "last_rank": 34293,
        "player_name": "Mark Hughes",
        "rank": 49730,
        "rank_sort": 49992,
        "total": 2352
      },
      {
        "club_badge_src": null,
        "entry": 7571534,
        "entry_name": "#lawyerlife",
        "event_total": 62,
        "has_played": true,
        "id": 62006255,
        "last_rank": 58388,
        "player_name": "Nick McEwen",
        "rank": 49730,
        "rank_sort": 49993,
        "total": 2352
      },
      {
        "club_badge_src": null,
        "entry": 7575984,
        "entry_name": "Kinsky Fan Club",
        "event_total": 87,
        "has_played": true,
        "id": 62047247,
        "last_rank": 103054,
        "player_name": "Nikita Kostikov",
        "rank": 49730,
        "rank_sort": 49994,
        "total": 2352
      },
      {
        "club_badge_src": null,
        "entry": 7593670,
        "entry_name": "We Will Win Dalot",
        "event_total": 56,
        "has_played": true,
        "id": 62208119,
        "last_rank": 48642,
        "player_name": "Sean Brady",
        "rank": 49730,
        "rank_sort": 49995,
        "total": 2352
      },
      {
        "club_badge_src": null,
        "entry": 7722035,
        "entry_name": "Benjamin Tescoooo",
        "event_total": 57,
        "has_played": true,
        "id": 63369407,
        "last_rank": 50468,
        "player_name": "Uwais Ahmed",
        "rank": 49730,
        "rank_sort": 49996,
        "total": 2352
      },
      {
        "club_badge_src": null,
        "entry": 7790824,
        "entry_name": "Los Huevones",
        "event_total": 70,
        "has_played": true,
        "id": 63990942,
        "last_rank": 72815,
        "player_name": "Mark Wohlers",
        "rank": 49730,
        "rank_sort": 49997,
        "total": 2352
      },
      {
        "club_badge_src": null,
        "entry": 7822595,
        "entry_name": "rice rice baby",
        "event_total": 54,
        "has_played": true,
        "id": 64278350,
        "last_rank": 45714,
        "player_name": "kaz laba",
        "rank": 49730,
        "rank_sort": 49998,
        "total": 2352
      },
      {
        "club_badge_src": "https://fantasy.premierleague.com/gcs/plfpl-production-adobe-approved/plfpl-production/7852825/8c262ff1-b583-464f-8919-815dce99b444.png",
        "entry": 7852825,
        "entry_name": "gregvorvo",
        "event_total": 53,
        "has_played": true,
        "id": 64557611,
        "last_rank": 44525,
        "player_name": "Greg Vorvolakos",
        "rank": 49730,
        "rank_sort": 49999,
        "total": 2352
      },
      {
        "club_badge_src": null,
        "entry": 7861966,
        "entry_name": "Eze Money Sniper",
        "event_total": 61,
        "has_played": true,
        "id": 64640965,
        "last_rank": 49880,
        "player_name": "Shahid Chothia",
        "rank": 49730,
        "rank_sort": 50000,
        "total": 2352
      }
    ]
  }
}