{
  "last_updated_data": "2026-05-24T23:28:17Z",
  "league": {
    "admin_entry": null,
    "closed": false,
    "code_privacy": "p",
    "created": "2025-07-20T23:14:33.933835Z",
    "cup_league": 2815434,
    "has_cup": true,
    "id": 314,
    "league_type": "s",
    "max_entries": null,
    "name": "Overall",
    "rank": null,
    "scoring": "c",
    "start_event": 1
  },
  "new_entries": {
    "has_next": false,
    "page": 1,
    "results": []
  },
  "standings": {
    "has_next": true,
    "page": 1338,
    "results": [
      {
        "club_badge_src": null,
        "entry": 5717280,
        "entry_name": "Blue Eagles",
        "event_total": 61,
        "has_played": true,
        "id": 44780171,
        "last_rank": 67422,
        "player_name": "Nawaz Rustum",
        "rank": 66621,
        "rank_sort": 66851,
        "total": 2342
      },
      {
        "club_badge_src": null,
        "entry": 5758698,
        "entry_name": "Party With Partey",
        "event_total": 60,
        "has_played": true,
        "id": 45140965,
        "last_rank": 65163,
        "player_name": "Matt Gaisford",
        "rank": 66621,
        "rank_sort": 66852,
        "total": 2342
      },
      {
        "club_badge_src": null,
        "entry": 5840576,
        "entry_name": "FFCC",
        "event_total": 49,
        "has_played": true,
        "id": 45847623,
        "last_rank": 53621,
        "player_name": "Paul Cotter",
        "rank": 66621,
        "rank_sort": 66853,
        "total": 2342
      },
      {
        "club_badge_src": null,
        "entry": 5843806,
        "entry_name": "ORDER 197",
        "event_total": 59,
        "has_played": true,
        "id": 45876031,
        "last_rank": 71713,
        "player_name": "Olaf \u015awi\u0119ci\u0144ski",
        "rank": 66621,
        "rank_sort": 66854,
        "total": 2342
      },
      {
        "club_badge_src": null,
        "entry": 5954110,
        "entry_name": "FC AHMATI",
        "event_total": 54,
        "has_played": true,
        "id": 46835819,
        "last_rank": 55014,
        "player_name": "Matias Miettunen",
        "rank": 66621,
        "rank_sort": 66855,
        "total": 2342
      },
      {
        "club_badge_src": null,
        "entry": 5960994,
        "entry_name": "\u6c34\u54e5",
        "event_total": 67,
        "has_played": true,
        "id": 46896103,
        "last_rank": 89426,
        "player_name": "TSOI SAN",
        "rank": 66621,
        "rank_sort": 66856,
        "total": 2342
      },
      {
        "club_badge_src": null,
        "entry": 6018092,
        "entry_name": "FRTB Killer",
        "event_total": 67,
        "has_played": true,
        "id": 47459404,
        "last_rank": 88594,
        "player_name": "OleChristian Kran",
        "rank": 66621,
        "rank_sort": 66857,
        "total": 2342
      },
      {
        "club_badge_src": null,
        "entry": 6298254,
        "entry_name": "bo_najim",
        "event_total": 49,
        "has_played": true,
        "id": 49923554,
        "last_rank": 53621,
        "player_name": "Mohammad alfadhli",
        "rank": 66621,
        "rank_sort": 66858,
        "total": 2342
      },
      {
        "club_badge_src": null,
        "entry": 6325467,
        "entry_name": "Broja and the beast",
        "event_total": 61,
        "has_played": true,
        "id": 50249198,
        "last_rank": 66738,
        "player_name": "Scott Duncan",
        "rank": 66621,
        "rank_sort": 66859,
        "total": 2342
      },
      {
        "club_badge_src": null,
        "entry": 6343106,
        "entry_name": "Brunoholic",
        "event_total": 73,
        "has_played": true,
        "id": 50418777,
        "last_rank": 103978,
        "player_name": "Meshary Alghamdi",
        "rank": 66621,
        "rank_sort": 66860,
        "total": 2342
      },
      {
        "club_badge_src": null,
        "entry": 6565602,
        "entry_name": "Kvitrooney",
        "event_total": 66,
        "has_played": true,
        "id": 52405959,
        "last_rank": 68957,
        "player_name": "Ingrid Kvitrud",
        "rank": 66621,
        "rank_sort": 66861,
        "total": 2342
      },
      {
        "club_badge_src": null,
        "entry": 6647372,
        "entry_name": "Rash Decisions",
        "event_total": 36,
        "has_played": true,
        "id": 53139559,
        "last_rank": 35619,
        "player_name": "Tom Edwards",
        "rank": 66621,
        "rank_sort": 66862,
        "total": 2342
      },
      {
        "club_badge_src": null,
        "entry": 6663588,
        "entry_name": "FC Venus",
        "event_total": 56,
        "has_played": true,
        "id": 53289693,
        "last_rank": 58388,
        "player_name": "Ben Venus",
        "rank": 66621,
        "rank_sort": 66863,
        "total": 2342
      },
      {
        "club_badge_src": null,
        "entry": 6726472,
        "entry_name": "Earth,Wind & Maguire",
        "event_total": 39,
        "has_played": true,
        "id": 53836420,
        "last_rank": 39403,
        "player_name": "Kedar Pawar",
        "rank": 66621,
        "rank_sort": 66864,
        "total": 2342
      },
      {
        "club_badge_src": "https://fantasy.premierleague.com/gcs/plfpl-production-adobe-approved/plfpl-production/6733499/5b524b4d-34af-4b45-bc38-35d177ebb390.png",
        "entry": 6733499,
        "entry_name": "$h@y$h@y",
        "event_total": 55,
        "has_played": true,
        "id": 53896496,
        "last_rank": 56708,
        "player_name": "Shayan Jaikarun",
        "rank": 66621,
        "rank_sort": 66865,
        "total": 2342
      },
      {
        "club_badge_src": null,
        "entry": 6741709,
        "entry_name": "Talonator2009",
        "event_total": 62,
        "has_played": true,
        "id": 53965937,
        "last_rank": 77050,
        "player_name": "Talon Ridling",
        "rank": 66621,
        "rank_sort": 66866,
        "total": 2342
      },
      {
        "club_badge_src": null,
        "entry": 6759460,
        "entry_name": "jaminho",
        "event_total": 69,
        "has_played": true,
        "id": 54118719,
        "last_rank": 94255,
        "player_name": "tahlil jamil",
        "rank": 66621,
        "rank_sort": 66867,
        "total": 2342
      },
      {
        "club_badge_src": null,
        "entry": 6885364,
        "entry_name": "GambaS",
        "event_total": 75,
        "has_played": true,
        "id": 55181443,
        "last_rank": 109454,
        "player_name": "Sarah Pyett",
        "rank": 66621,
        "rank_sort": 66868,
        "total": 2342
      },
      {
        "club_badge_src": null,
        "entry": 6939292,
        "entry_name": "ADAD",
        "event_total": 62,
        "has_played": true,
        "id": 55635090,
        "last_rank": 77999,
        "player_name": "WR-27 Reinhard",
        "rank": 66621,
        "rank_sort": 66869,
        "total": 2342
      },
      {
        "club_badge_src": null,
        "entry": 6953917,
        "entry_name": "Lucien FC",
        "event_total": 65,
        "has_played": true,
        "id": 55761412,
        "last_rank": 84360,
        "player_name": "Chris Schnabel",
        "rank": 66621,
        "rank_sort": 66870,
        "total": 2342
      },
      {
        "club_badge_src": "https://fantasy.premierleague.com/gcs/plfpl-production-adobe-approved/plfpl-production/6955973/336f0079-4966-4b75-8d81-07731616cc37.png",
        "entry": 6955973,
        "entry_name": "Shady Fakhry",
        "event_total": 63,
        "has_played": true,
        "id": 55780510,
        "last_rank": 80194,
        "player_name": "Shady Fakhry",
        "rank": 66621,
        "rank_sort": 66871,
        "total": 2342
      },
      {
        "club_badge_src": null,
        "entry": 6957531,
        "entry_name": "Backbencher",
        "event_total": 76,
        "has_played": true,
        "id": 55794407,
        "last_rank": 111669,
        "player_name": "Gotha Tena",
        "rank": 66621,
        "rank_sort": 66872,
        "total": 2342
      },
      {
        "club_badge_src": null,
        "entry": 7066918,
        "entry_name": "Ctrl Alt De Ligt",
        "event_total": 58,
        "has_played": true,
        "id": 56860312,
        "last_rank": 69907,
        "player_name": "Matt Darbyshire",
        "rank": 66621,
        "rank_sort": 66873,
        "total": 2342
      },
      {
        "club_badge_src": "https://fantasy.premierleague.com/gcs/plfpl-production-adobe-approved/plfpl-production/7427215/c09c0f2a-d445-4589-bfde-1ff1c562cfb9.png",
        "entry": 7427215,
        "entry_name": "Azhin",
        "event_total": 51,
        "has_played": true,
        "id": 60333243,
        "last_rank": 57001,
        "player_name": "Azhin Awat",
        "rank": 66621,
        "rank_sort": 66874,
        "total": 2342
      },
      {
        "club_badge_src": null,
        "entry": 7437225,
        "entry_name": "Golden Boy",
        "event_total": 71,
        "has_played": true,
        "id": 60466155,
        "last_rank": 99296,
        "player_name": "glory UTD",
        "rank": 66621,
        "rank_sort": 66875,
        "total": 2342
      },
      {
        "club_badge_src": null,
        "entry": 7512268,
        "entry_name": "Tony Bet-O",
        "event_total": 69,
        "has_played": true,
        "id": 61425726,
        "last_rank": 84360,
        "player_name": "Isaac Osborne",
        "rank": 66621,
        "rank_sort": 66876,
        "total": 2342
      },
      {
        "club_badge_src": "https://fantasy.premierleague.com/gcs/plfpl-production-adobe-approved/plfpl-production/7543351/15efe9dc-3025-480d-a736-5620820d3944.png",
        "entry": 7543351,
        "entry_name": "BSK STAND BY MEE",
        "event_total": 49,
        "has_played": true,
        "id": 61751594,
        "last_rank": 53621,
        "player_name": "Gustavo Quiros",
        "rank": 66621,
        "rank_sort": 66877,
        "total": 2342
      },
      {
        "club_badge_src": null,
        "entry": 7576673,
        "entry_name": "de beste 11",
        "event_total": 34,
        "has_played": true,
        "id": 62053570,
        "last_rank": 33332,
        "player_name": "Niels Hillerstrom",
        "rank": 66621,
        "rank_sort": 66878,
        "total": 2342
      },
      {
        "club_badge_src": null,
        "entry": 7602096,
        "entry_name": "Cole as ice",
        "event_total": 65,
        "has_played": true,
        "id": 62283706,
        "last_rank": 84360,
        "player_name": "Victor Marisa",
        "rank": 66621,
        "rank_sort": 66879,
        "total": 2342
      },
      {
        "club_badge_src": null,
        "entry": 7763742,
        "entry_name": "Thornaby FC",
        "event_total": 52,
        "has_played": true,
        "id": 63747073,
        "last_rank": 58388,
        "player_name": "kenneth walton",
        "rank": 66621,
        "rank_sort": 66880,
        "total": 2342
      },
      {
        "club_badge_src": null,
        "entry": 7777573,
        "entry_name": "Sorry Nic Jackson",
        "event_total": 52,
        "has_played": true,
        "id": 63871632,
        "last_rank": 58388,
        "player_name": "Tom Buckingham",
        "rank": 66621,
        "rank_sort": 66881,
        "total": 2342
      },
      {
        "club_badge_src": null,
        "entry": 7778775,
        "entry_name": "Third time lucky",
        "event_total": 50,
        "has_played": true,
        "id": 63883033,
        "last_rank": 55311,
        "player_name": "Michael Kirkman",
        "rank": 66621,
        "rank_sort": 66882,
        "total": 2342
      },
      {
        "club_badge_src": null,
        "entry": 7801122,
        "entry_name": "Bens Boys",
        "event_total": 63,
        "has_played": true,
        "id": 64083453,
        "last_rank": 80194,
        "player_name": "Ben Firth",
        "rank": 66621,
        "rank_sort": 66883,
        "total": 2342
      },
      {
        "club_badge_src": null,
        "entry": 8079317,
        "entry_name": "Joe's army",
        "event_total": 57,
        "has_played": true,
        "id": 66608612,
        "last_rank": 60168,
        "player_name": "Joe Murray",
        "rank": 66621,
        "rank_sort": 66884,
        "total": 2342
      },
      {
        "club_badge_src": null,
        "entry": 8174723,
        "entry_name": "Manans Lilywhites",
        "event_total": 53,
        "has_played": true,
        "id": 67500343,
        "last_rank": 60671,
        "player_name": "Manan Gandhi",
        "rank": 66621,
        "rank_sort": 66885,
        "total": 2342
      },
      {
        "club_badge_src": null,
        "entry": 8289623,
        "entry_name": "Andras Meow Meows",
        "event_total": 56,
        "has_played": true,
        "id": 68601502,
        "last_rank": 65475,
        "player_name": "Andra Kaltanaite",
        "rank": 66621,
        "rank_sort": 66886,
        "total": 2342
      },
      {
        "club_badge_src": null,
        "entry": 8408898,
        "entry_name": "Wirtz Nighmare",
        "event_total": 59,
        "has_played": true,
        "id": 69761094,
        "last_rank": 71713,
        "player_name": "Ash Sangha",
        "rank": 66621,
        "rank_sort": 66887,
        "total": 2342
      },
      {
        "club_badge_src": null,
        "entry": 8678718,
        "entry_name": "FC Fratton",
        "event_total": 43,
        "has_played": true,
        "id": 72372059,
        "last_rank": 44303,
        "player_name": "chris cleal",
        "rank": 66621,
        "rank_sort": 66888,
        "total": 2342
      },
      {
        "club_badge_src": null,
        "entry": 8967912,
        "entry_name": "LeKi",
        "event_total": 57,
        "has_played": true,
        "id": 75172514,
        "last_rank": 67695,
        "player_name": "Timo Koskinen",
        "rank": 66621,
        "rank_sort": 66889,
        "total": 2342
      },
      {
        "club_badge_src": null,
        "entry": 9035490,
        "entry_name": "Keijol On Kova K\u00e4si",
        "event_total": 82,
        "has_played": true,
        "id": 75823214,
        "last_rank": 117915,
        "player_name": "Aleksi Hyyti\u00e4inen",
        "rank": 66621,
        "rank_sort": 66890,
        "total": 2342
      },
      {
        "club_badge_src": null,
        "entry": 9341855,
        "entry_name": "Change Name",
        "event_total": 63,
        "has_played": true,
        "id": 78810006,
        "last_rank": 71386,
        "player_name": "Nico Edelberg",
        "rank": 66621,
        "rank_sort": 66891,
        "total": 2342
      },
      {
        "club_badge_src": null,
        "entry": 9416790,
        "entry_name": "The Impaler",
        "event_total": 45,
        "has_played": true,
        "id": 79535083,
        "last_rank": 47417,
        "player_name": "Ifure Udofa",
        "rank": 66621,
        "rank_sort": 66892,
        "total": 2342
      },
      {
        "club_badge_src": null,
        "entry": 9464597,
        "entry_name": "KopsAndRobbers",
        "event_total": 58,
        "has_played": true,
        "id": 79983205,
        "last_rank": 69641,
        "player_name": "Shreya Bedi",
        "rank": 66621,
        "rank_sort": 66893,
        "total": 2342
      },
      {
        "club_badge_src": null,
        "entry": 10192598,
        "entry_name": "ThomasTheFrankEngine",
        "event_total": 56,
        "has_played": true,
        "id": 86347423,
        "last_rank": 58388,
        "player_name": "Sarah Yewman",
        "rank": 66621,
        "rank_sort": 66894,
        "total": 2342
      },
      {
        "club_badge_src": "https://fantasy.premierleague.com/gcs/plfpl-production-adobe-approved/plfpl-production/1118/bc36e6ef-cac8-4e69-9194-3fa09aa40f38.png",
        "entry": 1118,
        "entry_name": "Isidor's Bane",
        "event_total": 49,
        "has_played": true,
        "id": 6209,
        "last_rank": 47417,
        "player_name": "Bryan H",
        "rank": 66895,
        "rank_sort": 66895,
        "total": 2342
      },
      {
        "club_badge_src": "https://fantasy.premierleague.com/gcs/plfpl-production-adobe-approved/plfpl-production/2673/e39c035f-d84a-47b0-a835-ecc868dd75f5.png",
        "entry": 2673,
        "entry_name": "sarr man",
        "event_total": 74,
        "has_played": true,
        "id": 14965,
        "last_rank": 107485,
        "player_name": "Will Dennis",
        "rank": 66895,
        "rank_sort": 66896,
        "total": 2342
      },
      {
        "club_badge_src": null,
        "entry": 9519,
        "entry_name": "Chelsea FC",
        "event_total": 65,
        "has_played": true,
        "id": 55978,
        "last_rank": 75874,
        "player_name": "Nooraldeen Nani",
        "rank": 66895,
        "rank_sort": 66897,
        "total": 2342
      },
      {
        "club_badge_src": null,
        "entry": 10110,
        "entry_name": "sivberski",
        "event_total": 54,
        "has_played": true,
        "id": 59689,
        "last_rank": 48363,
        "player_name": "Alexander von Sivers",
        "rank": 66895,
        "rank_sort": 66898,
        "total": 2342
      },
      {
        "club_badge_src": null,
        "entry": 10461,
        "entry_name": "Marwan.syr",
        "event_total": 54,
        "has_played": true,
        "id": 61864,
        "last_rank": 55311,
        "player_name": "Marwan Al-jijakli",
        "rank": 66895,
        "rank_sort": 66899,
        "total": 2342
      },
      {
        "club_badge_src": null,
        "entry": 12244,
        "entry_name": "211'24",
        "event_total": 71,
        "has_played": true,
        "id": 73081,
        "last_rank": 89426,
        "player_name": "Muhammad Bello",
        "rank": 66895,
        "rank_sort": 66900,
        "total": 2342
      }
    ]
  }
}