{
  "last_updated_data": "2026-05-24T23:28:17Z",
  "league": {
    "admin_entry": null,
    "closed": false,
    "code_privacy": "p",
    "created": "2025-07-20T23:14:33.933835Z",
    "cup_league": 2815434,
    "has_cup": true,
    "id": 314,
    "league_type": "s",
    "max_entries": null,
    "name": "Overall",
    "rank": null,
    "scoring": "c",
    "start_event": 1
  },
  "new_entries": {
    "has_next": false,
    "page": 1,
    "results": []
  },
  "standings": {
    "has_next": true,
    "page": 378,
    "results": [
      {
        "club_badge_src": null,
        "entry": 421687,
        "entry_name": "Wirtz Team Name Ever",
        "event_total": 49,
        "has_played": true,
        "id": 2825987,
        "last_rank": 11419,
        "player_name": "Paul Sims",
        "rank": 18835,
        "rank_sort": 18851,
        "total": 2382
      },
      {
        "club_badge_src": null,
        "entry": 492137,
        "entry_name": "Wenger Boys",
        "event_total": 61,
        "has_played": true,
        "id": 3303442,
        "last_rank": 21301,
        "player_name": "Wes Richardson",
        "rank": 18835,
        "rank_sort": 18852,
        "total": 2382
      },
      {
        "club_badge_src": null,
        "entry": 513713,
        "entry_name": "Team Top Chef",
        "event_total": 72,
        "has_played": true,
        "id": 3449368,
        "last_rank": 27203,
        "player_name": "Owen Blandy",
        "rank": 18835,
        "rank_sort": 18853,
        "total": 2382
      },
      {
        "club_badge_src": "https://fantasy.premierleague.com/gcs/plfpl-production-adobe-approved/plfpl-production/527363/33249ade-917f-4b3a-9f92-65ee51ecaff8.png",
        "entry": 527363,
        "entry_name": "Versace United",
        "event_total": 67,
        "has_played": true,
        "id": 3545203,
        "last_rank": 26345,
        "player_name": "Aleksandar Bonev",
        "rank": 18835,
        "rank_sort": 18854,
        "total": 2382
      },
      {
        "club_badge_src": null,
        "entry": 554806,
        "entry_name": "Ball of Duty",
        "event_total": 65,
        "has_played": true,
        "id": 3734094,
        "last_rank": 21301,
        "player_name": "Ade Ade",
        "rank": 18835,
        "rank_sort": 18855,
        "total": 2382
      },
      {
        "club_badge_src": "https://fantasy.premierleague.com/gcs/plfpl-production-adobe-approved/plfpl-production/561196/4d0e851a-5436-4799-85bd-d770288d5ee9.png",
        "entry": 561196,
        "entry_name": "robeet",
        "event_total": 63,
        "has_played": true,
        "id": 3777411,
        "last_rank": 22830,
        "player_name": "jake roberts",
        "rank": 18835,
        "rank_sort": 18856,
        "total": 2382
      },
      {
        "club_badge_src": null,
        "entry": 613392,
        "entry_name": "NoCheesesForUsMices",
        "event_total": 74,
        "has_played": true,
        "id": 4144594,
        "last_rank": 33332,
        "player_name": "Gary Forster",
        "rank": 18835,
        "rank_sort": 18857,
        "total": 2382
      },
      {
        "club_badge_src": "https://fantasy.premierleague.com/gcs/plfpl-production-adobe-approved/plfpl-production/667055/19aa0664-a5fe-42f0-a65d-b5775c686ae5.png",
        "entry": 667055,
        "entry_name": "Pepto Bismal",
        "event_total": 60,
        "has_played": true,
        "id": 4510243,
        "last_rank": 17718,
        "player_name": "Roger Down",
        "rank": 18835,
        "rank_sort": 18858,
        "total": 2382
      },
      {
        "club_badge_src": null,
        "entry": 698732,
        "entry_name": "PLSPORT",
        "event_total": 60,
        "has_played": true,
        "id": 4733345,
        "last_rank": 17718,
        "player_name": "Bader Alajmi",
        "rank": 18835,
        "rank_sort": 18859,
        "total": 2382
      },
      {
        "club_badge_src": null,
        "entry": 700452,
        "entry_name": "St. Marpli",
        "event_total": 59,
        "has_played": true,
        "id": 4745650,
        "last_rank": 17078,
        "player_name": "Steve Grace",
        "rank": 18835,
        "rank_sort": 18860,
        "total": 2382
      },
      {
        "club_badge_src": null,
        "entry": 709152,
        "entry_name": "My hits don't lie",
        "event_total": 63,
        "has_played": true,
        "id": 4807498,
        "last_rank": 16959,
        "player_name": "Mouhaned Mimi",
        "rank": 18835,
        "rank_sort": 18861,
        "total": 2382
      },
      {
        "club_badge_src": null,
        "entry": 759537,
        "entry_name": "Manga Kmanga",
        "event_total": 47,
        "has_played": true,
        "id": 5176087,
        "last_rank": 10556,
        "player_name": "Me Mo",
        "rank": 18835,
        "rank_sort": 18862,
        "total": 2382
      },
      {
        "club_badge_src": null,
        "entry": 944737,
        "entry_name": "MK Doms *",
        "event_total": 71,
        "has_played": true,
        "id": 6506999,
        "last_rank": 30191,
        "player_name": "Dominic Gavin",
        "rank": 18835,
        "rank_sort": 18863,
        "total": 2382
      },
      {
        "club_badge_src": null,
        "entry": 1036835,
        "entry_name": "Abo Rk",
        "event_total": 59,
        "has_played": true,
        "id": 7174969,
        "last_rank": 17078,
        "player_name": "Rakan Alarfaj",
        "rank": 18835,
        "rank_sort": 18864,
        "total": 2382
      },
      {
        "club_badge_src": null,
        "entry": 1090379,
        "entry_name": "First Timer",
        "event_total": 59,
        "has_played": true,
        "id": 7551640,
        "last_rank": 17078,
        "player_name": "Matthew Yong",
        "rank": 18835,
        "rank_sort": 18865,
        "total": 2382
      },
      {
        "club_badge_src": null,
        "entry": 1103572,
        "entry_name": "\u0643*\u0645 \u0627\u0644\u064a \u0641\u0649 \u0628\u0627\u0644\u064a",
        "event_total": 62,
        "has_played": true,
        "id": 7644112,
        "last_rank": 22064,
        "player_name": "Abdallah mahmoud",
        "rank": 18835,
        "rank_sort": 18866,
        "total": 2382
      },
      {
        "club_badge_src": null,
        "entry": 1146605,
        "entry_name": "Glorymanu",
        "event_total": 56,
        "has_played": true,
        "id": 7949908,
        "last_rank": 17802,
        "player_name": "Abdullah Alsulaiman",
        "rank": 18835,
        "rank_sort": 18867,
        "total": 2382
      },
      {
        "club_badge_src": null,
        "entry": 1186389,
        "entry_name": "Eze Viktory",
        "event_total": 57,
        "has_played": true,
        "id": 8231532,
        "last_rank": 18475,
        "player_name": "Ash George",
        "rank": 18835,
        "rank_sort": 18868,
        "total": 2382
      },
      {
        "club_badge_src": null,
        "entry": 1383799,
        "entry_name": "Ctrl Alt De Ligt",
        "event_total": 53,
        "has_played": true,
        "id": 9624515,
        "last_rank": 15876,
        "player_name": "Thomas Martinsen",
        "rank": 18835,
        "rank_sort": 18869,
        "total": 2382
      },
      {
        "club_badge_src": null,
        "entry": 1547536,
        "entry_name": "Manchesthair United",
        "event_total": 40,
        "has_played": true,
        "id": 10804278,
        "last_rank": 9350,
        "player_name": "Risto Takala",
        "rank": 18835,
        "rank_sort": 18870,
        "total": 2382
      },
      {
        "club_badge_src": null,
        "entry": 1667793,
        "entry_name": "Arenos-14",
        "event_total": 56,
        "has_played": true,
        "id": 11676804,
        "last_rank": 15164,
        "player_name": "Abdulmalik Ghazi",
        "rank": 18835,
        "rank_sort": 18871,
        "total": 2382
      },
      {
        "club_badge_src": null,
        "entry": 1703453,
        "entry_name": "ALSAFEEH UNITED",
        "event_total": 68,
        "has_played": true,
        "id": 11932901,
        "last_rank": 23656,
        "player_name": "Soud Alsafeeh",
        "rank": 18835,
        "rank_sort": 18872,
        "total": 2382
      },
      {
        "club_badge_src": null,
        "entry": 1927903,
        "entry_name": "Giovinco 11",
        "event_total": 53,
        "has_played": true,
        "id": 13596796,
        "last_rank": 15876,
        "player_name": "Walid Salah",
        "rank": 18835,
        "rank_sort": 18873,
        "total": 2382
      },
      {
        "club_badge_src": null,
        "entry": 2288195,
        "entry_name": "SolFC",
        "event_total": 58,
        "has_played": true,
        "id": 16318854,
        "last_rank": 16441,
        "player_name": "Joe Solinas",
        "rank": 18835,
        "rank_sort": 18874,
        "total": 2382
      },
      {
        "club_badge_src": null,
        "entry": 2325968,
        "entry_name": "Medium Rare",
        "event_total": 69,
        "has_played": true,
        "id": 16594345,
        "last_rank": 28273,
        "player_name": "Mike Bratter",
        "rank": 18835,
        "rank_sort": 18875,
        "total": 2382
      },
      {
        "club_badge_src": null,
        "entry": 2383669,
        "entry_name": "OouJaI(JinG JinG)",
        "event_total": 52,
        "has_played": true,
        "id": 17021930,
        "last_rank": 15226,
        "player_name": "Jack Dawson",
        "rank": 18835,
        "rank_sort": 18876,
        "total": 2382
      },
      {
        "club_badge_src": null,
        "entry": 2719094,
        "entry_name": "yagunnersya",
        "event_total": 60,
        "has_played": true,
        "id": 19565606,
        "last_rank": 17585,
        "player_name": "Pajtim Nimanaj",
        "rank": 18835,
        "rank_sort": 18877,
        "total": 2382
      },
      {
        "club_badge_src": null,
        "entry": 2905735,
        "entry_name": "Pool and the gang",
        "event_total": 63,
        "has_played": true,
        "id": 21295092,
        "last_rank": 22830,
        "player_name": "Ole Markussen",
        "rank": 18835,
        "rank_sort": 18878,
        "total": 2382
      },
      {
        "club_badge_src": null,
        "entry": 3106088,
        "entry_name": "The way to a Murillo",
        "event_total": 52,
        "has_played": true,
        "id": 22901116,
        "last_rank": 15164,
        "player_name": "Danny Tudor-Jones",
        "rank": 18835,
        "rank_sort": 18879,
        "total": 2382
      },
      {
        "club_badge_src": "https://fantasy.premierleague.com/gcs/plfpl-production-adobe-approved/plfpl-production/3723285/95e5d8bd-b5ec-43f4-830b-4f91db885e2f.png",
        "entry": 3723285,
        "entry_name": "Tollevikbergan FC",
        "event_total": 62,
        "has_played": true,
        "id": 27786919,
        "last_rank": 19103,
        "player_name": "H\u00e5kon Arild",
        "rank": 18835,
        "rank_sort": 18880,
        "total": 2382
      },
      {
        "club_badge_src": null,
        "entry": 3846946,
        "entry_name": "RutterWokeNoniSense",
        "event_total": 65,
        "has_played": true,
        "id": 28834814,
        "last_rank": 21301,
        "player_name": "Daniel Harrison",
        "rank": 18835,
        "rank_sort": 18881,
        "total": 2382
      },
      {
        "club_badge_src": null,
        "entry": 4092872,
        "entry_name": "Slot Machine",
        "event_total": 58,
        "has_played": true,
        "id": 30902463,
        "last_rank": 19176,
        "player_name": "Trent Draper",
        "rank": 18835,
        "rank_sort": 18882,
        "total": 2382
      },
      {
        "club_badge_src": null,
        "entry": 4138691,
        "entry_name": "FC VIV",
        "event_total": 43,
        "has_played": true,
        "id": 31278034,
        "last_rank": 10600,
        "player_name": "Jack Vivian",
        "rank": 18835,
        "rank_sort": 18883,
        "total": 2382
      },
      {
        "club_badge_src": null,
        "entry": 4432581,
        "entry_name": "ibuhatela",
        "event_total": 47,
        "has_played": true,
        "id": 33747195,
        "last_rank": 8854,
        "player_name": "Arjun Malik",
        "rank": 18835,
        "rank_sort": 18884,
        "total": 2382
      },
      {
        "club_badge_src": null,
        "entry": 4754948,
        "entry_name": "Proton men",
        "event_total": 58,
        "has_played": true,
        "id": 36590584,
        "last_rank": 19176,
        "player_name": "Proton Boer",
        "rank": 18835,
        "rank_sort": 18885,
        "total": 2382
      },
      {
        "club_badge_src": "https://fantasy.premierleague.com/gcs/plfpl-production-adobe-approved/plfpl-production/5379124/6e5382af-a5b7-4212-bfa1-0db756439b3b.png",
        "entry": 5379124,
        "entry_name": "Toyota HAALANDer",
        "event_total": 58,
        "has_played": true,
        "id": 41812607,
        "last_rank": 19176,
        "player_name": "MAD Habit",
        "rank": 18835,
        "rank_sort": 18886,
        "total": 2382
      },
      {
        "club_badge_src": null,
        "entry": 5597917,
        "entry_name": "21 is coming",
        "event_total": 77,
        "has_played": true,
        "id": 43738054,
        "last_rank": 36963,
        "player_name": "Bradley Johnson",
        "rank": 18835,
        "rank_sort": 18887,
        "total": 2382
      },
      {
        "club_badge_src": null,
        "entry": 5743493,
        "entry_name": "You'reAWizardBarry",
        "event_total": 65,
        "has_played": true,
        "id": 45010871,
        "last_rank": 24475,
        "player_name": "Cullen Walsh",
        "rank": 18835,
        "rank_sort": 18888,
        "total": 2382
      },
      {
        "club_badge_src": null,
        "entry": 6170056,
        "entry_name": "CONCEPT\ufffd",
        "event_total": 55,
        "has_played": true,
        "id": 48786428,
        "last_rank": 17194,
        "player_name": "Alimamy Kamara",
        "rank": 18835,
        "rank_sort": 18889,
        "total": 2382
      },
      {
        "club_badge_src": null,
        "entry": 6713352,
        "entry_name": "Teutscher\u2019s Terriers",
        "event_total": 58,
        "has_played": true,
        "id": 53726011,
        "last_rank": 19176,
        "player_name": "Ade Teutscher",
        "rank": 18835,
        "rank_sort": 18890,
        "total": 2382
      },
      {
        "club_badge_src": null,
        "entry": 7281356,
        "entry_name": "vcfc",
        "event_total": 58,
        "has_played": true,
        "id": 58902087,
        "last_rank": 11699,
        "player_name": "Shane Santos",
        "rank": 18835,
        "rank_sort": 18891,
        "total": 2382
      },
      {
        "club_badge_src": null,
        "entry": 8380568,
        "entry_name": "Gremlin FC",
        "event_total": 63,
        "has_played": true,
        "id": 69496654,
        "last_rank": 22921,
        "player_name": "Jake Thomo",
        "rank": 18835,
        "rank_sort": 18892,
        "total": 2382
      },
      {
        "club_badge_src": null,
        "entry": 8751445,
        "entry_name": "no mercy fc",
        "event_total": 73,
        "has_played": true,
        "id": 73077095,
        "last_rank": 31995,
        "player_name": "Audrey McBride",
        "rank": 18835,
        "rank_sort": 18893,
        "total": 2382
      },
      {
        "club_badge_src": null,
        "entry": 9288288,
        "entry_name": "Saud",
        "event_total": 60,
        "has_played": true,
        "id": 78296940,
        "last_rank": 20624,
        "player_name": "saud naseer",
        "rank": 18835,
        "rank_sort": 18894,
        "total": 2382
      },
      {
        "club_badge_src": null,
        "entry": 9565,
        "entry_name": "FPL Politics",
        "event_total": 59,
        "has_played": true,
        "id": 56265,
        "last_rank": 19966,
        "player_name": "Daryll Lewis",
        "rank": 18895,
        "rank_sort": 18895,
        "total": 2382
      },
      {
        "club_badge_src": null,
        "entry": 22086,
        "entry_name": "Hairy Chinese Kid",
        "event_total": 62,
        "has_played": true,
        "id": 138642,
        "last_rank": 19176,
        "player_name": "Wayne Thomas",
        "rank": 18895,
        "rank_sort": 18896,
        "total": 2382
      },
      {
        "club_badge_src": null,
        "entry": 36117,
        "entry_name": "Fearing The Wirtz",
        "event_total": 67,
        "has_played": true,
        "id": 231133,
        "last_rank": 22921,
        "player_name": "Jim Stuart",
        "rank": 18895,
        "rank_sort": 18897,
        "total": 2382
      },
      {
        "club_badge_src": null,
        "entry": 37000,
        "entry_name": "Big Screen",
        "event_total": 47,
        "has_played": true,
        "id": 236927,
        "last_rank": 8925,
        "player_name": "Steven Schumann",
        "rank": 18895,
        "rank_sort": 18898,
        "total": 2382
      },
      {
        "club_badge_src": null,
        "entry": 57435,
        "entry_name": "Malloki_2002",
        "event_total": 60,
        "has_played": true,
        "id": 369996,
        "last_rank": 20678,
        "player_name": "Malloki Alhuraiby",
        "rank": 18895,
        "rank_sort": 18899,
        "total": 2382
      },
      {
        "club_badge_src": null,
        "entry": 95506,
        "entry_name": "nasro mhd",
        "event_total": 57,
        "has_played": true,
        "id": 624027,
        "last_rank": 18520,
        "player_name": "Nasro Mhd",
        "rank": 18895,
        "rank_sort": 18900,
        "total": 2382
      }
    ]
  }
}