{
  "last_updated_data": "2026-05-24T23:28:17Z",
  "league": {
    "admin_entry": null,
    "closed": false,
    "code_privacy": "p",
    "created": "2025-07-20T23:14:33.933835Z",
    "cup_league": 2815434,
    "has_cup": true,
    "id": 314,
    "league_type": "s",
    "max_entries": null,
    "name": "Overall",
    "rank": null,
    "scoring": "c",
    "start_event": 1
  },
  "new_entries": {
    "has_next": false,
    "page": 1,
    "results": []
  },
  "standings": {
    "has_next": true,
    "page": 3,
    "results": [
      {
        "club_badge_src": null,
        "entry": 4023040,
        "entry_name": "Rubber Digne Rapids",
        "event_total": 60,
        "has_played": true,
        "id": 30322910,
        "last_rank": 104,
        "player_name": "Giuseppe D-Amore",
        "rank": 99,
        "rank_sort": 101,
        "total": 2489
      },
      {
        "club_badge_src": null,
        "entry": 4289719,
        "entry_name": "Now I'm a Baleba",
        "event_total": 57,
        "has_played": true,
        "id": 32538863,
        "last_rank": 84,
        "player_name": "Ben Smith",
        "rank": 99,
        "rank_sort": 102,
        "total": 2489
      },
      {
        "club_badge_src": null,
        "entry": 7227539,
        "entry_name": "KULAsy",
        "event_total": 68,
        "has_played": true,
        "id": 58392486,
        "last_rank": 163,
        "player_name": "Karol Kulesza",
        "rank": 99,
        "rank_sort": 103,
        "total": 2489
      },
      {
        "club_badge_src": null,
        "entry": 20499,
        "entry_name": "Odds on FC",
        "event_total": 70,
        "has_played": true,
        "id": 127950,
        "last_rank": 143,
        "player_name": "\u00deorgeir finnbogason",
        "rank": 104,
        "rank_sort": 104,
        "total": 2489
      },
      {
        "club_badge_src": null,
        "entry": 3949909,
        "entry_name": "aaaa",
        "event_total": 70,
        "has_played": true,
        "id": 29715119,
        "last_rank": 143,
        "player_name": "Tvrtko Bili\u0107",
        "rank": 104,
        "rank_sort": 105,
        "total": 2489
      },
      {
        "club_badge_src": "https://fantasy.premierleague.com/gcs/plfpl-production-adobe-approved/plfpl-production/753050/bba5d56e-76eb-42c6-ac22-0cfb523cb5af.png",
        "entry": 753050,
        "entry_name": "Kanun of Arsenal",
        "event_total": 68,
        "has_played": true,
        "id": 5124472,
        "last_rank": 133,
        "player_name": "Aldo Kacorri",
        "rank": 106,
        "rank_sort": 106,
        "total": 2489
      },
      {
        "club_badge_src": "https://fantasy.premierleague.com/gcs/plfpl-production-adobe-approved/plfpl-production/668650/d5e632c8-a4a3-4d4f-9d32-f330f181dc4f.png",
        "entry": 668650,
        "entry_name": "Mt Cook Crusaders",
        "event_total": 61,
        "has_played": true,
        "id": 4521724,
        "last_rank": 118,
        "player_name": "Geoff Bilbrough",
        "rank": 107,
        "rank_sort": 107,
        "total": 2488
      },
      {
        "club_badge_src": null,
        "entry": 733298,
        "entry_name": "Darwin <3",
        "event_total": 58,
        "has_played": true,
        "id": 4983230,
        "last_rank": 96,
        "player_name": "Markus Dahlberg",
        "rank": 107,
        "rank_sort": 108,
        "total": 2488
      },
      {
        "club_badge_src": null,
        "entry": 72,
        "entry_name": "FC Gool",
        "event_total": 74,
        "has_played": true,
        "id": 393,
        "last_rank": 241,
        "player_name": "Gil Sorek",
        "rank": 109,
        "rank_sort": 109,
        "total": 2488
      },
      {
        "club_badge_src": "https://fantasy.premierleague.com/gcs/plfpl-production-adobe-approved/plfpl-production/212595/1e2fad08-9dd1-472c-9724-74900af60799.png",
        "entry": 212595,
        "entry_name": "R\u00faben the Reijnders",
        "event_total": 66,
        "has_played": true,
        "id": 1414245,
        "last_rank": 153,
        "player_name": "Karri Koljonen",
        "rank": 109,
        "rank_sort": 110,
        "total": 2488
      },
      {
        "club_badge_src": null,
        "entry": 675018,
        "entry_name": "ALB's Allstars",
        "event_total": 60,
        "has_played": true,
        "id": 4566669,
        "last_rank": 84,
        "player_name": "Alex Le Brun",
        "rank": 111,
        "rank_sort": 111,
        "total": 2488
      },
      {
        "club_badge_src": null,
        "entry": 5393751,
        "entry_name": "Tobdzije",
        "event_total": 79,
        "has_played": true,
        "id": 41934696,
        "last_rank": 350,
        "player_name": "Darko Kilibarda",
        "rank": 112,
        "rank_sort": 112,
        "total": 2487
      },
      {
        "club_badge_src": null,
        "entry": 25693,
        "entry_name": "Sir Hansi Flick",
        "event_total": 61,
        "has_played": true,
        "id": 162515,
        "last_rank": 127,
        "player_name": "Mootez Taleb",
        "rank": 113,
        "rank_sort": 113,
        "total": 2487
      },
      {
        "club_badge_src": null,
        "entry": 124224,
        "entry_name": "Dylan s SuperSonics",
        "event_total": 58,
        "has_played": true,
        "id": 810243,
        "last_rank": 107,
        "player_name": "Dylan Jones",
        "rank": 113,
        "rank_sort": 114,
        "total": 2487
      },
      {
        "club_badge_src": null,
        "entry": 538974,
        "entry_name": "Tonga",
        "event_total": 57,
        "has_played": true,
        "id": 3627925,
        "last_rank": 102,
        "player_name": "Paul Hamilton",
        "rank": 115,
        "rank_sort": 115,
        "total": 2486
      },
      {
        "club_badge_src": null,
        "entry": 873815,
        "entry_name": "Kapiizzz",
        "event_total": 70,
        "has_played": true,
        "id": 5990696,
        "last_rank": 210,
        "player_name": "Mark Auto",
        "rank": 115,
        "rank_sort": 116,
        "total": 2486
      },
      {
        "club_badge_src": null,
        "entry": 3998288,
        "entry_name": "Doogies Dream Team",
        "event_total": 38,
        "has_played": true,
        "id": 30112293,
        "last_rank": 28,
        "player_name": "Tom Wall",
        "rank": 115,
        "rank_sort": 117,
        "total": 2486
      },
      {
        "club_badge_src": null,
        "entry": 430721,
        "entry_name": "Tbc",
        "event_total": 67,
        "has_played": true,
        "id": 2888785,
        "last_rank": 143,
        "player_name": "Matt Banner",
        "rank": 118,
        "rank_sort": 118,
        "total": 2486
      },
      {
        "club_badge_src": null,
        "entry": 462696,
        "entry_name": "FreeMykhailo",
        "event_total": 53,
        "has_played": true,
        "id": 3103738,
        "last_rank": 80,
        "player_name": "jimmy davies",
        "rank": 118,
        "rank_sort": 119,
        "total": 2486
      },
      {
        "club_badge_src": null,
        "entry": 601350,
        "entry_name": "Cr\u00e8me de la cr\u00e8me",
        "event_total": 58,
        "has_played": true,
        "id": 4057674,
        "last_rank": 84,
        "player_name": "Ted Gondwe",
        "rank": 118,
        "rank_sort": 120,
        "total": 2486
      },
      {
        "club_badge_src": null,
        "entry": 24543,
        "entry_name": "Baby Reijnders",
        "event_total": 55,
        "has_played": true,
        "id": 154946,
        "last_rank": 57,
        "player_name": "Mustafa I",
        "rank": 121,
        "rank_sort": 121,
        "total": 2486
      },
      {
        "club_badge_src": null,
        "entry": 3161360,
        "entry_name": "Stroppen Boys",
        "event_total": 78,
        "has_played": true,
        "id": 23353690,
        "last_rank": 358,
        "player_name": "Andy Gustafsson",
        "rank": 122,
        "rank_sort": 122,
        "total": 2486
      },
      {
        "club_badge_src": null,
        "entry": 108132,
        "entry_name": "Win FC",
        "event_total": 69,
        "has_played": true,
        "id": 705002,
        "last_rank": 209,
        "player_name": "Suprise Kenny",
        "rank": 123,
        "rank_sort": 123,
        "total": 2485
      },
      {
        "club_badge_src": null,
        "entry": 2753095,
        "entry_name": "Haalandaise Sauce",
        "event_total": 66,
        "has_played": true,
        "id": 20025259,
        "last_rank": 184,
        "player_name": "King FPL",
        "rank": 124,
        "rank_sort": 124,
        "total": 2485
      },
      {
        "club_badge_src": null,
        "entry": 704501,
        "entry_name": "BAU\u0160TELA",
        "event_total": 73,
        "has_played": true,
        "id": 4774096,
        "last_rank": 276,
        "player_name": "David Pilipovic",
        "rank": 125,
        "rank_sort": 125,
        "total": 2485
      },
      {
        "club_badge_src": null,
        "entry": 5202777,
        "entry_name": "MYTEAMWEARSCLARKS",
        "event_total": 63,
        "has_played": true,
        "id": 40294149,
        "last_rank": 158,
        "player_name": "J Brix",
        "rank": 126,
        "rank_sort": 126,
        "total": 2485
      },
      {
        "club_badge_src": null,
        "entry": 2273579,
        "entry_name": "Kinder Mbeumo",
        "event_total": 73,
        "has_played": true,
        "id": 16211969,
        "last_rank": 286,
        "player_name": "Harry Archer",
        "rank": 127,
        "rank_sort": 127,
        "total": 2484
      },
      {
        "club_badge_src": "https://fantasy.premierleague.com/gcs/plfpl-production-adobe-approved/plfpl-production/19025/eaf4cf93-dc67-4ec4-83c6-5297a2fb26be.png",
        "entry": 19025,
        "entry_name": "Fairdoos Otters",
        "event_total": 60,
        "has_played": true,
        "id": 118402,
        "last_rank": 138,
        "player_name": "Ciaran Sundstrem",
        "rank": 128,
        "rank_sort": 128,
        "total": 2484
      },
      {
        "club_badge_src": null,
        "entry": 9379719,
        "entry_name": "COYG",
        "event_total": 65,
        "has_played": true,
        "id": 79177506,
        "last_rank": 181,
        "player_name": "Carson Ho",
        "rank": 128,
        "rank_sort": 129,
        "total": 2484
      },
      {
        "club_badge_src": null,
        "entry": 81712,
        "entry_name": "WINNING!",
        "event_total": 57,
        "has_played": true,
        "id": 531575,
        "last_rank": 121,
        "player_name": "Magnus Williams",
        "rank": 130,
        "rank_sort": 130,
        "total": 2484
      },
      {
        "club_badge_src": null,
        "entry": 5975748,
        "entry_name": "BK Brackl",
        "event_total": 55,
        "has_played": true,
        "id": 47039516,
        "last_rank": 106,
        "player_name": "Philip Bratt",
        "rank": 130,
        "rank_sort": 131,
        "total": 2484
      },
      {
        "club_badge_src": "https://fantasy.premierleague.com/gcs/plfpl-production-adobe-approved/plfpl-production/1023534/931d5fbf-f28d-4f49-8bdb-8c5e66dc7d0b.png",
        "entry": 1023534,
        "entry_name": "T.J.eleven",
        "event_total": 69,
        "has_played": true,
        "id": 7081397,
        "last_rank": 231,
        "player_name": "Tom Jarmara",
        "rank": 132,
        "rank_sort": 132,
        "total": 2484
      },
      {
        "club_badge_src": null,
        "entry": 117597,
        "entry_name": "Remoo @",
        "event_total": 58,
        "has_played": true,
        "id": 767561,
        "last_rank": 100,
        "player_name": "Remon George",
        "rank": 133,
        "rank_sort": 133,
        "total": 2484
      },
      {
        "club_badge_src": null,
        "entry": 2172826,
        "entry_name": "Bar Beach",
        "event_total": 63,
        "has_played": true,
        "id": 15449848,
        "last_rank": 171,
        "player_name": "Stian Jansson",
        "rank": 134,
        "rank_sort": 134,
        "total": 2484
      },
      {
        "club_badge_src": "https://fantasy.premierleague.com/gcs/plfpl-production-adobe-approved/plfpl-production/43164/51b7271d-05e2-4109-8ad9-8e5cf232f90e.png",
        "entry": 43164,
        "entry_name": "Sweet Viktory",
        "event_total": 63,
        "has_played": true,
        "id": 276414,
        "last_rank": 174,
        "player_name": "Cameron Scott",
        "rank": 135,
        "rank_sort": 135,
        "total": 2483
      },
      {
        "club_badge_src": null,
        "entry": 16424,
        "entry_name": "Unbelievable Jeff",
        "event_total": 50,
        "has_played": true,
        "id": 101427,
        "last_rank": 80,
        "player_name": "Samuel Jeffrey",
        "rank": 136,
        "rank_sort": 136,
        "total": 2483
      },
      {
        "club_badge_src": "https://fantasy.premierleague.com/gcs/plfpl-production-adobe-approved/plfpl-production/210697/d6481405-6cd6-4a71-acc5-4d575bbd3f8c.png",
        "entry": 210697,
        "entry_name": "\u30c9\u30f3\u30ad\u30fc\u30fb\u30a2\u30b9\u30ec\u30c1\u30c3\u30af",
        "event_total": 56,
        "has_played": true,
        "id": 1401295,
        "last_rank": 120,
        "player_name": "Zacharay Murray",
        "rank": 137,
        "rank_sort": 137,
        "total": 2483
      },
      {
        "club_badge_src": null,
        "entry": 594006,
        "entry_name": "Change Name",
        "event_total": 62,
        "has_played": true,
        "id": 4003442,
        "last_rank": 170,
        "player_name": "Archie Ingram",
        "rank": 137,
        "rank_sort": 138,
        "total": 2483
      },
      {
        "club_badge_src": null,
        "entry": 5006014,
        "entry_name": "Wizards",
        "event_total": 58,
        "has_played": true,
        "id": 38655782,
        "last_rank": 135,
        "player_name": "Top Captain MK",
        "rank": 137,
        "rank_sort": 139,
        "total": 2483
      },
      {
        "club_badge_src": null,
        "entry": 120894,
        "entry_name": "Simply The Best FC",
        "event_total": 58,
        "has_played": true,
        "id": 788842,
        "last_rank": 107,
        "player_name": "Andy Smillie",
        "rank": 140,
        "rank_sort": 140,
        "total": 2483
      },
      {
        "club_badge_src": null,
        "entry": 1413928,
        "entry_name": "Under my Cucurella",
        "event_total": 60,
        "has_played": true,
        "id": 9839786,
        "last_rank": 152,
        "player_name": "L S",
        "rank": 141,
        "rank_sort": 141,
        "total": 2482
      },
      {
        "club_badge_src": "https://fantasy.premierleague.com/gcs/plfpl-production-adobe-approved/plfpl-production/72428/58418d35-67b2-4d69-a044-c060346715eb.png",
        "entry": 72428,
        "entry_name": "The 2 time",
        "event_total": 70,
        "has_played": true,
        "id": 470641,
        "last_rank": 274,
        "player_name": "Arjan Metselaar",
        "rank": 142,
        "rank_sort": 142,
        "total": 2482
      },
      {
        "club_badge_src": null,
        "entry": 1125909,
        "entry_name": "Cunha Believe It!?",
        "event_total": 57,
        "has_played": true,
        "id": 7802951,
        "last_rank": 129,
        "player_name": "Isaac Tipler",
        "rank": 142,
        "rank_sort": 143,
        "total": 2482
      },
      {
        "club_badge_src": null,
        "entry": 1294019,
        "entry_name": "Fibbers",
        "event_total": 46,
        "has_played": true,
        "id": 8993162,
        "last_rank": 71,
        "player_name": "miles burt",
        "rank": 144,
        "rank_sort": 144,
        "total": 2482
      },
      {
        "club_badge_src": null,
        "entry": 3033964,
        "entry_name": "drums please fab",
        "event_total": 45,
        "has_played": true,
        "id": 22327363,
        "last_rank": 48,
        "player_name": "Ashley Dilkes",
        "rank": 145,
        "rank_sort": 145,
        "total": 2482
      },
      {
        "club_badge_src": null,
        "entry": 1975501,
        "entry_name": "Gooner win again",
        "event_total": 63,
        "has_played": true,
        "id": 13944403,
        "last_rank": 187,
        "player_name": "Mark Nowell",
        "rank": 146,
        "rank_sort": 146,
        "total": 2482
      },
      {
        "club_badge_src": null,
        "entry": 1110233,
        "entry_name": "Darwin's Theory",
        "event_total": 63,
        "has_played": true,
        "id": 7690573,
        "last_rank": 189,
        "player_name": "Dave Watkeys",
        "rank": 147,
        "rank_sort": 147,
        "total": 2481
      },
      {
        "club_badge_src": "https://fantasy.premierleague.com/gcs/plfpl-production-adobe-approved/plfpl-production/742539/ac7c4236-1258-4f42-ad4f-c72945312b1c.png",
        "entry": 742539,
        "entry_name": "Bryan Mblako's",
        "event_total": 69,
        "has_played": true,
        "id": 5050676,
        "last_rank": 274,
        "player_name": "Dylan Blako",
        "rank": 148,
        "rank_sort": 148,
        "total": 2481
      },
      {
        "club_badge_src": null,
        "entry": 1875191,
        "entry_name": "Abdo fc \ufffd",
        "event_total": 52,
        "has_played": true,
        "id": 13202253,
        "last_rank": 103,
        "player_name": "abdelilah benallal",
        "rank": 148,
        "rank_sort": 149,
        "total": 2481
      },
      {
        "club_badge_src": null,
        "entry": 2415184,
        "entry_name": "Mishel13",
        "event_total": 69,
        "has_played": true,
        "id": 17264888,
        "last_rank": 277,
        "player_name": "Mishel Razouki",
        "rank": 148,
        "rank_sort": 150,
        "total": 2481
      }
    ]
  }
}