{
  "last_updated_data": "2026-05-24T23:28:17Z",
  "league": {
    "admin_entry": null,
    "closed": false,
    "code_privacy": "p",
    "created": "2025-07-20T23:14:33.933835Z",
    "cup_league": 2815434,
    "has_cup": true,
    "id": 314,
    "league_type": "s",
    "max_entries": null,
    "name": "Overall",
    "rank": null,
    "scoring": "c",
    "start_event": 1
  },
  "new_entries": {
    "has_next": false,
    "page": 1,
    "results": []
  },
  "standings": {
    "has_next": true,
    "page": 540,
    "results": [
      {
        "club_badge_src": null,
        "entry": 1660930,
        "entry_name": "besso",
        "event_total": 81,
        "has_played": true,
        "id": 11628546,
        "last_rank": 51070,
        "player_name": "Bassem Samir",
        "rank": 26951,
        "rank_sort": 26951,
        "total": 2372
      },
      {
        "club_badge_src": null,
        "entry": 5573658,
        "entry_name": "De Gea Vu",
        "event_total": 72,
        "has_played": true,
        "id": 43525406,
        "last_rank": 33798,
        "player_name": "Marius Jonassen",
        "rank": 26951,
        "rank_sort": 26952,
        "total": 2372
      },
      {
        "club_badge_src": null,
        "entry": 241184,
        "entry_name": "Team Enzo",
        "event_total": 58,
        "has_played": true,
        "id": 1605300,
        "last_rank": 27533,
        "player_name": "Simon Israelsson",
        "rank": 26953,
        "rank_sort": 26953,
        "total": 2372
      },
      {
        "club_badge_src": null,
        "entry": 92141,
        "entry_name": "\u0641\u0631\u064a\u0642 \u0627\u0644\u062d\u0646\u064a\u0643\u0647",
        "event_total": 72,
        "has_played": true,
        "id": 602039,
        "last_rank": 43718,
        "player_name": "mo7amed gom3a",
        "rank": 26954,
        "rank_sort": 26954,
        "total": 2372
      },
      {
        "club_badge_src": null,
        "entry": 4472242,
        "entry_name": "Earth Wind & Maguire",
        "event_total": 35,
        "has_played": true,
        "id": 34080732,
        "last_rank": 11581,
        "player_name": "Matt Smith",
        "rank": 26955,
        "rank_sort": 26955,
        "total": 2371
      },
      {
        "club_badge_src": null,
        "entry": 2965899,
        "entry_name": "Super stars",
        "event_total": 48,
        "has_played": true,
        "id": 21789177,
        "last_rank": 19356,
        "player_name": "Innocent Maphanga",
        "rank": 26956,
        "rank_sort": 26956,
        "total": 2371
      },
      {
        "club_badge_src": null,
        "entry": 7221005,
        "entry_name": "Ostrick",
        "event_total": 81,
        "has_played": true,
        "id": 58331598,
        "last_rank": 57695,
        "player_name": "Rick Chiong",
        "rank": 26957,
        "rank_sort": 26957,
        "total": 2371
      },
      {
        "club_badge_src": null,
        "entry": 7857456,
        "entry_name": "Wirtz Case Scenario",
        "event_total": 59,
        "has_played": true,
        "id": 64599935,
        "last_rank": 28508,
        "player_name": "Gary Martin",
        "rank": 26957,
        "rank_sort": 26958,
        "total": 2371
      },
      {
        "club_badge_src": null,
        "entry": 4556892,
        "entry_name": "Kinder Mbeumo",
        "event_total": 63,
        "has_played": true,
        "id": 34771272,
        "last_rank": 32633,
        "player_name": "Luis Benny",
        "rank": 26959,
        "rank_sort": 26959,
        "total": 2371
      },
      {
        "club_badge_src": null,
        "entry": 5264830,
        "entry_name": "kheyboardfc",
        "event_total": 73,
        "has_played": true,
        "id": 40805778,
        "last_rank": 45109,
        "player_name": "francis kwabiah",
        "rank": 26959,
        "rank_sort": 26960,
        "total": 2371
      },
      {
        "club_badge_src": null,
        "entry": 9088440,
        "entry_name": "Gary's team gold",
        "event_total": 57,
        "has_played": true,
        "id": 76337838,
        "last_rank": 26607,
        "player_name": "Gary Brooker",
        "rank": 26959,
        "rank_sort": 26961,
        "total": 2371
      },
      {
        "club_badge_src": null,
        "entry": 4388887,
        "entry_name": "FK Aros",
        "event_total": 62,
        "has_played": true,
        "id": 33362620,
        "last_rank": 31512,
        "player_name": "Olle Frendin",
        "rank": 26962,
        "rank_sort": 26962,
        "total": 2371
      },
      {
        "club_badge_src": null,
        "entry": 5346881,
        "entry_name": "Bacalhau",
        "event_total": 64,
        "has_played": true,
        "id": 41489542,
        "last_rank": 33819,
        "player_name": "Diogo Leite",
        "rank": 26962,
        "rank_sort": 26963,
        "total": 2371
      },
      {
        "club_badge_src": null,
        "entry": 9315736,
        "entry_name": "Slappe l\u00e5r FC",
        "event_total": 57,
        "has_played": true,
        "id": 78560652,
        "last_rank": 26612,
        "player_name": "Jenny Larsson",
        "rank": 26962,
        "rank_sort": 26964,
        "total": 2371
      },
      {
        "club_badge_src": null,
        "entry": 495324,
        "entry_name": "stewys11",
        "event_total": 75,
        "has_played": true,
        "id": 3324732,
        "last_rank": 48046,
        "player_name": "stew ensall",
        "rank": 26965,
        "rank_sort": 26965,
        "total": 2371
      },
      {
        "club_badge_src": null,
        "entry": 7076139,
        "entry_name": "\u0645\u064e\u0627\u0644\u0650\u0643",
        "event_total": 67,
        "has_played": true,
        "id": 56947005,
        "last_rank": 37325,
        "player_name": "Maleek Abdul",
        "rank": 26965,
        "rank_sort": 26966,
        "total": 2371
      },
      {
        "club_badge_src": "https://fantasy.premierleague.com/gcs/plfpl-production-adobe-approved/plfpl-production/194061/f39409ac-0663-4c7d-880d-e2874c375f90.png",
        "entry": 194061,
        "entry_name": "Moneke\u010cimaVesniBu...",
        "event_total": 52,
        "has_played": true,
        "id": 1286482,
        "last_rank": 22376,
        "player_name": "Marko Vukovic",
        "rank": 26967,
        "rank_sort": 26967,
        "total": 2371
      },
      {
        "club_badge_src": "https://fantasy.premierleague.com/gcs/plfpl-production-adobe-approved/plfpl-production/304820/b78d4b25-7a2a-45cc-b854-9173b94d4671.png",
        "entry": 304820,
        "entry_name": "quaka",
        "event_total": 70,
        "has_played": true,
        "id": 2041077,
        "last_rank": 41048,
        "player_name": "Darren Carrick",
        "rank": 26967,
        "rank_sort": 26968,
        "total": 2371
      },
      {
        "club_badge_src": null,
        "entry": 2892220,
        "entry_name": "Bronny James",
        "event_total": 75,
        "has_played": true,
        "id": 21181322,
        "last_rank": 48057,
        "player_name": "John P",
        "rank": 26967,
        "rank_sort": 26969,
        "total": 2371
      },
      {
        "club_badge_src": null,
        "entry": 5190830,
        "entry_name": "Kaz me outside",
        "event_total": 61,
        "has_played": true,
        "id": 40186615,
        "last_rank": 30494,
        "player_name": "Shabir Kazmi",
        "rank": 26967,
        "rank_sort": 26970,
        "total": 2371
      },
      {
        "club_badge_src": null,
        "entry": 6483500,
        "entry_name": "Lowe & Behold",
        "event_total": 70,
        "has_played": true,
        "id": 51676579,
        "last_rank": 41060,
        "player_name": "Daniel Lilley",
        "rank": 26967,
        "rank_sort": 26971,
        "total": 2371
      },
      {
        "club_badge_src": null,
        "entry": 9158436,
        "entry_name": "Live from Toughsheet",
        "event_total": 54,
        "has_played": true,
        "id": 77022809,
        "last_rank": 23973,
        "player_name": "Matthew Inman",
        "rank": 26967,
        "rank_sort": 26972,
        "total": 2371
      },
      {
        "club_badge_src": null,
        "entry": 1693400,
        "entry_name": "mvp",
        "event_total": 42,
        "has_played": true,
        "id": 11860155,
        "last_rank": 15416,
        "player_name": "ken veen",
        "rank": 26973,
        "rank_sort": 26973,
        "total": 2371
      },
      {
        "club_badge_src": null,
        "entry": 2998782,
        "entry_name": "Hawk-Tua-nzebe",
        "event_total": 45,
        "has_played": true,
        "id": 22056880,
        "last_rank": 17327,
        "player_name": "Kris Collier",
        "rank": 26973,
        "rank_sort": 26974,
        "total": 2371
      },
      {
        "club_badge_src": "https://fantasy.premierleague.com/gcs/plfpl-production-adobe-approved/plfpl-production/4202973/1fab0160-4862-4dd1-ae29-b8244c84f266.png",
        "entry": 4202973,
        "entry_name": "Alt FC",
        "event_total": 85,
        "has_played": true,
        "id": 31816361,
        "last_rank": 64751,
        "player_name": "Simon Bayliss",
        "rank": 26973,
        "rank_sort": 26975,
        "total": 2371
      },
      {
        "club_badge_src": null,
        "entry": 4223916,
        "entry_name": "Oh, Wirtz Occurring?",
        "event_total": 63,
        "has_played": true,
        "id": 31998247,
        "last_rank": 32647,
        "player_name": "Jacob Jones",
        "rank": 26973,
        "rank_sort": 26976,
        "total": 2371
      },
      {
        "club_badge_src": null,
        "entry": 5230366,
        "entry_name": "Kvinneguiden",
        "event_total": 66,
        "has_played": true,
        "id": 40529723,
        "last_rank": 36099,
        "player_name": "Samuel Vattengard",
        "rank": 26973,
        "rank_sort": 26977,
        "total": 2371
      },
      {
        "club_badge_src": null,
        "entry": 8579167,
        "entry_name": "Wreathall Wanderers",
        "event_total": 78,
        "has_played": true,
        "id": 71398118,
        "last_rank": 52759,
        "player_name": "Jack Wreathall",
        "rank": 26973,
        "rank_sort": 26978,
        "total": 2371
      },
      {
        "club_badge_src": null,
        "entry": 9010067,
        "entry_name": "Cataleya",
        "event_total": 60,
        "has_played": true,
        "id": 75577286,
        "last_rank": 29482,
        "player_name": "Marija Krisan",
        "rank": 26973,
        "rank_sort": 26979,
        "total": 2371
      },
      {
        "club_badge_src": null,
        "entry": 9037892,
        "entry_name": "Gordon4s or Gordon1s",
        "event_total": 74,
        "has_played": true,
        "id": 75846706,
        "last_rank": 46521,
        "player_name": "Nikolay Gritsun",
        "rank": 26973,
        "rank_sort": 26980,
        "total": 2371
      },
      {
        "club_badge_src": null,
        "entry": 191742,
        "entry_name": "Amorim Era",
        "event_total": 58,
        "has_played": true,
        "id": 1270121,
        "last_rank": 27644,
        "player_name": "Ashwin Sureshan",
        "rank": 26981,
        "rank_sort": 26981,
        "total": 2371
      },
      {
        "club_badge_src": null,
        "entry": 617799,
        "entry_name": "Wirtz of Wisdom",
        "event_total": 60,
        "has_played": true,
        "id": 4174093,
        "last_rank": 29522,
        "player_name": "Harry Lockwood",
        "rank": 26981,
        "rank_sort": 26982,
        "total": 2371
      },
      {
        "club_badge_src": null,
        "entry": 673341,
        "entry_name": "abcs",
        "event_total": 64,
        "has_played": true,
        "id": 4554907,
        "last_rank": 33845,
        "player_name": "Somto Egwuonwu",
        "rank": 26981,
        "rank_sort": 26983,
        "total": 2371
      },
      {
        "club_badge_src": null,
        "entry": 936480,
        "entry_name": "ManeMickleMaksMuckle",
        "event_total": 60,
        "has_played": true,
        "id": 6444741,
        "last_rank": 29495,
        "player_name": "Rab McWilliam",
        "rank": 26981,
        "rank_sort": 26984,
        "total": 2371
      },
      {
        "club_badge_src": null,
        "entry": 1439539,
        "entry_name": "alsaeed",
        "event_total": 60,
        "has_played": true,
        "id": 10030937,
        "last_rank": 29522,
        "player_name": "Ahmed Alsaeed",
        "rank": 26981,
        "rank_sort": 26985,
        "total": 2371
      },
      {
        "club_badge_src": null,
        "entry": 1570064,
        "entry_name": "Sewyyy FC",
        "event_total": 47,
        "has_played": true,
        "id": 10969513,
        "last_rank": 18691,
        "player_name": "J Lui JJ",
        "rank": 26981,
        "rank_sort": 26986,
        "total": 2371
      },
      {
        "club_badge_src": null,
        "entry": 1650613,
        "entry_name": "Me, Myself, Ndiaye",
        "event_total": 57,
        "has_played": true,
        "id": 11555984,
        "last_rank": 26656,
        "player_name": "Matt kingsley",
        "rank": 26981,
        "rank_sort": 26987,
        "total": 2371
      },
      {
        "club_badge_src": null,
        "entry": 2388468,
        "entry_name": "Snoopy United",
        "event_total": 67,
        "has_played": true,
        "id": 17060157,
        "last_rank": 37314,
        "player_name": "Mum Ella",
        "rank": 26981,
        "rank_sort": 26988,
        "total": 2371
      },
      {
        "club_badge_src": null,
        "entry": 2450394,
        "entry_name": "kalle215",
        "event_total": 76,
        "has_played": true,
        "id": 17525745,
        "last_rank": 49552,
        "player_name": "Carl-Johan Fisk",
        "rank": 26981,
        "rank_sort": 26989,
        "total": 2371
      },
      {
        "club_badge_src": null,
        "entry": 2454760,
        "entry_name": "Tapsey FC",
        "event_total": 69,
        "has_played": true,
        "id": 17557806,
        "last_rank": 39784,
        "player_name": "Tapsey Tapiwa",
        "rank": 26981,
        "rank_sort": 26990,
        "total": 2371
      },
      {
        "club_badge_src": null,
        "entry": 2919802,
        "entry_name": "FC Raggios",
        "event_total": 60,
        "has_played": true,
        "id": 21403280,
        "last_rank": 25700,
        "player_name": "Simon Edholm",
        "rank": 26981,
        "rank_sort": 26991,
        "total": 2371
      },
      {
        "club_badge_src": null,
        "entry": 2990260,
        "entry_name": "STBJohnny",
        "event_total": 72,
        "has_played": true,
        "id": 21991697,
        "last_rank": 38542,
        "player_name": "Jonathan Chandra",
        "rank": 26981,
        "rank_sort": 26992,
        "total": 2371
      },
      {
        "club_badge_src": null,
        "entry": 4221252,
        "entry_name": "The Defenders",
        "event_total": 77,
        "has_played": true,
        "id": 31976503,
        "last_rank": 51220,
        "player_name": "Def Prot",
        "rank": 26981,
        "rank_sort": 26993,
        "total": 2371
      },
      {
        "club_badge_src": "https://fantasy.premierleague.com/gcs/plfpl-production-adobe-approved/plfpl-production/4676035/0030f11b-4f5d-416e-8a32-6d9a8a5ed2eb.png",
        "entry": 4676035,
        "entry_name": "FC Gino",
        "event_total": 69,
        "has_played": true,
        "id": 35821584,
        "last_rank": 39874,
        "player_name": "Mateusz Kaleta",
        "rank": 26981,
        "rank_sort": 26994,
        "total": 2371
      },
      {
        "club_badge_src": "https://fantasy.premierleague.com/gcs/plfpl-production-adobe-approved/plfpl-production/4728672/4d207e36-be23-4b3c-a4b9-61f51b5a0e87.png",
        "entry": 4728672,
        "entry_name": "Sesk and the City",
        "event_total": 74,
        "has_played": true,
        "id": 36363337,
        "last_rank": 46547,
        "player_name": "Tessa Hiscock",
        "rank": 26981,
        "rank_sort": 26995,
        "total": 2371
      },
      {
        "club_badge_src": null,
        "entry": 5399568,
        "entry_name": "Tom's Team",
        "event_total": 39,
        "has_played": true,
        "id": 41982425,
        "last_rank": 13754,
        "player_name": "Tom Evans",
        "rank": 26981,
        "rank_sort": 26996,
        "total": 2371
      },
      {
        "club_badge_src": "https://fantasy.premierleague.com/gcs/plfpl-production-adobe-approved/plfpl-production/6139774/38489222-d94c-4061-85cf-e1a648377896.png",
        "entry": 6139774,
        "entry_name": "HontyFC",
        "event_total": 79,
        "has_played": true,
        "id": 48523478,
        "last_rank": 54353,
        "player_name": "Soleye Matthew",
        "rank": 26981,
        "rank_sort": 26997,
        "total": 2371
      },
      {
        "club_badge_src": null,
        "entry": 6504829,
        "entry_name": "TOPP ELEVEN",
        "event_total": 64,
        "has_played": true,
        "id": 51864927,
        "last_rank": 33845,
        "player_name": "David Hvideberg Mann",
        "rank": 26981,
        "rank_sort": 26998,
        "total": 2371
      },
      {
        "club_badge_src": null,
        "entry": 7542114,
        "entry_name": "Sandra",
        "event_total": 76,
        "has_played": true,
        "id": 61740053,
        "last_rank": 49607,
        "player_name": "Milo Djateu",
        "rank": 26981,
        "rank_sort": 26999,
        "total": 2371
      },
      {
        "club_badge_src": null,
        "entry": 8121917,
        "entry_name": "Maggys Brawlers",
        "event_total": 51,
        "has_played": true,
        "id": 67006138,
        "last_rank": 21677,
        "player_name": "Sam Maggs",
        "rank": 26981,
        "rank_sort": 27000,
        "total": 2371
      }
    ]
  }
}