{
  "last_updated_data": "2026-05-24T23:28:17Z",
  "league": {
    "admin_entry": null,
    "closed": false,
    "code_privacy": "p",
    "created": "2025-07-20T23:14:33.933835Z",
    "cup_league": 2815434,
    "has_cup": true,
    "id": 314,
    "league_type": "s",
    "max_entries": null,
    "name": "Overall",
    "rank": null,
    "scoring": "c",
    "start_event": 1
  },
  "new_entries": {
    "has_next": false,
    "page": 1,
    "results": []
  },
  "standings": {
    "has_next": true,
    "page": 1398,
    "results": [
      {
        "club_badge_src": null,
        "entry": 1482411,
        "entry_name": "dadar gulung",
        "event_total": 62,
        "has_played": true,
        "id": 10337242,
        "last_rank": 81244,
        "player_name": "Gustav Lukman Adhi Pradhityo",
        "rank": 69708,
        "rank_sort": 69851,
        "total": 2340
      },
      {
        "club_badge_src": null,
        "entry": 1484340,
        "entry_name": "beefburgersfc",
        "event_total": 68,
        "has_played": true,
        "id": 10350824,
        "last_rank": 96374,
        "player_name": "Berk Cosar",
        "rank": 69708,
        "rank_sort": 69852,
        "total": 2340
      },
      {
        "club_badge_src": null,
        "entry": 1493270,
        "entry_name": "Smog on the Tyne",
        "event_total": 42,
        "has_played": true,
        "id": 10413525,
        "last_rank": 45416,
        "player_name": "Andrew Woodcock",
        "rank": 69708,
        "rank_sort": 69853,
        "total": 2340
      },
      {
        "club_badge_src": null,
        "entry": 1497262,
        "entry_name": "Anthony Albaneze",
        "event_total": 64,
        "has_played": true,
        "id": 10441498,
        "last_rank": 86054,
        "player_name": "James Canny",
        "rank": 69708,
        "rank_sort": 69854,
        "total": 2340
      },
      {
        "club_badge_src": null,
        "entry": 1523221,
        "entry_name": "Pique Blinders",
        "event_total": 69,
        "has_played": true,
        "id": 10623945,
        "last_rank": 98436,
        "player_name": "Cory Buck",
        "rank": 69708,
        "rank_sort": 69855,
        "total": 2340
      },
      {
        "club_badge_src": null,
        "entry": 1540126,
        "entry_name": "Net Six and Chill",
        "event_total": 52,
        "has_played": true,
        "id": 10749040,
        "last_rank": 61606,
        "player_name": "Alex Johnstone",
        "rank": 69708,
        "rank_sort": 69856,
        "total": 2340
      },
      {
        "club_badge_src": null,
        "entry": 1577485,
        "entry_name": "Change Name",
        "event_total": 71,
        "has_played": true,
        "id": 11023020,
        "last_rank": 103130,
        "player_name": "Charlie Lewis",
        "rank": 69708,
        "rank_sort": 69857,
        "total": 2340
      },
      {
        "club_badge_src": null,
        "entry": 1588379,
        "entry_name": "The Toffee Turners",
        "event_total": 49,
        "has_played": true,
        "id": 11104801,
        "last_rank": 56369,
        "player_name": "David Leigh",
        "rank": 69708,
        "rank_sort": 69858,
        "total": 2340
      },
      {
        "club_badge_src": null,
        "entry": 1594194,
        "entry_name": "\u0627\u0644\u062d\u0638 \u0646\u0627\u0633\u0649 \u0627\u0644\u0645\u0627\u062c\u064a\u0643",
        "event_total": 69,
        "has_played": true,
        "id": 11150754,
        "last_rank": 98436,
        "player_name": "Ali Elmagic",
        "rank": 69708,
        "rank_sort": 69859,
        "total": 2340
      },
      {
        "club_badge_src": null,
        "entry": 1616415,
        "entry_name": "Kitty cat United",
        "event_total": 54,
        "has_played": true,
        "id": 11310567,
        "last_rank": 65475,
        "player_name": "Christine Pluke",
        "rank": 69708,
        "rank_sort": 69860,
        "total": 2340
      },
      {
        "club_badge_src": null,
        "entry": 1621228,
        "entry_name": "Red Djed Redemption",
        "event_total": 49,
        "has_played": true,
        "id": 11346062,
        "last_rank": 56099,
        "player_name": "Luke Simpson",
        "rank": 69708,
        "rank_sort": 69861,
        "total": 2340
      },
      {
        "club_badge_src": null,
        "entry": 1694909,
        "entry_name": "Daj mi samo pobjedee",
        "event_total": 50,
        "has_played": true,
        "id": 11870985,
        "last_rank": 58071,
        "player_name": "Silvio Vidojevi\u0107",
        "rank": 69708,
        "rank_sort": 69862,
        "total": 2340
      },
      {
        "club_badge_src": null,
        "entry": 1704928,
        "entry_name": "Hang The DJ aiyesimi",
        "event_total": 50,
        "has_played": true,
        "id": 11943649,
        "last_rank": 58388,
        "player_name": "Oliver Bullock",
        "rank": 69708,
        "rank_sort": 69863,
        "total": 2340
      },
      {
        "club_badge_src": null,
        "entry": 1727109,
        "entry_name": "Frimpong show",
        "event_total": 54,
        "has_played": true,
        "id": 12111903,
        "last_rank": 64943,
        "player_name": "Winston Xiaohoney",
        "rank": 69708,
        "rank_sort": 69864,
        "total": 2340
      },
      {
        "club_badge_src": null,
        "entry": 1735437,
        "entry_name": "Hard Home",
        "event_total": 51,
        "has_played": true,
        "id": 12174639,
        "last_rank": 60168,
        "player_name": "Mohab Wafik",
        "rank": 69708,
        "rank_sort": 69865,
        "total": 2340
      },
      {
        "club_badge_src": null,
        "entry": 1760422,
        "entry_name": "Famous Last Wirtz",
        "event_total": 62,
        "has_played": true,
        "id": 12360037,
        "last_rank": 81420,
        "player_name": "ZK Lim",
        "rank": 69708,
        "rank_sort": 69866,
        "total": 2340
      },
      {
        "club_badge_src": null,
        "entry": 1782584,
        "entry_name": "PBT Aggies",
        "event_total": 57,
        "has_played": true,
        "id": 12524200,
        "last_rank": 70985,
        "player_name": "Matt Atkinson",
        "rank": 69708,
        "rank_sort": 69867,
        "total": 2340
      },
      {
        "club_badge_src": null,
        "entry": 1787142,
        "entry_name": "Olapos Athletics",
        "event_total": 62,
        "has_played": true,
        "id": 12557108,
        "last_rank": 81646,
        "player_name": "Paluso Togel",
        "rank": 69708,
        "rank_sort": 69868,
        "total": 2340
      },
      {
        "club_badge_src": null,
        "entry": 1803960,
        "entry_name": "PlayNepal",
        "event_total": 59,
        "has_played": true,
        "id": 12681901,
        "last_rank": 75139,
        "player_name": "Kushal Pandey",
        "rank": 69708,
        "rank_sort": 69869,
        "total": 2340
      },
      {
        "club_badge_src": null,
        "entry": 1820804,
        "entry_name": "Jogabonito\u2b50\ufe0f",
        "event_total": 39,
        "has_played": true,
        "id": 12805168,
        "last_rank": 41617,
        "player_name": "Michael Chalverat",
        "rank": 69708,
        "rank_sort": 69870,
        "total": 2340
      },
      {
        "club_badge_src": "https://fantasy.premierleague.com/gcs/plfpl-production-adobe-approved/plfpl-production/1847944/de7acb39-5d9f-45ff-82e4-86561ca211bc.png",
        "entry": 1847944,
        "entry_name": "US Tataouine",
        "event_total": 52,
        "has_played": true,
        "id": 13003003,
        "last_rank": 61606,
        "player_name": "Mekki gdh",
        "rank": 69708,
        "rank_sort": 69871,
        "total": 2340
      },
      {
        "club_badge_src": null,
        "entry": 1880207,
        "entry_name": "Salah'd cream team",
        "event_total": 60,
        "has_played": true,
        "id": 13247542,
        "last_rank": 76947,
        "player_name": "Cameron Hazard",
        "rank": 69708,
        "rank_sort": 69872,
        "total": 2340
      },
      {
        "club_badge_src": null,
        "entry": 1899445,
        "entry_name": "Dropit like its slot",
        "event_total": 65,
        "has_played": true,
        "id": 13389294,
        "last_rank": 88594,
        "player_name": "ryan mcgarrie",
        "rank": 69708,
        "rank_sort": 69873,
        "total": 2340
      },
      {
        "club_badge_src": null,
        "entry": 1974333,
        "entry_name": "FC BUCOVINA",
        "event_total": 48,
        "has_played": true,
        "id": 13935776,
        "last_rank": 55014,
        "player_name": "Max Solomyan",
        "rank": 69708,
        "rank_sort": 69874,
        "total": 2340
      },
      {
        "club_badge_src": "https://fantasy.premierleague.com/gcs/plfpl-production-adobe-approved/plfpl-production/1996476/c43be4fe-0959-4ca1-9d11-ab01adfee09d.png",
        "entry": 1996476,
        "entry_name": "Marackles",
        "event_total": 69,
        "has_played": true,
        "id": 14107914,
        "last_rank": 98183,
        "player_name": "Alexander Oscar-Andersen",
        "rank": 69708,
        "rank_sort": 69875,
        "total": 2340
      },
      {
        "club_badge_src": null,
        "entry": 2018513,
        "entry_name": "Bilbao Baggins",
        "event_total": 73,
        "has_played": true,
        "id": 14280898,
        "last_rank": 108689,
        "player_name": "Callum Radford",
        "rank": 69708,
        "rank_sort": 69876,
        "total": 2340
      },
      {
        "club_badge_src": null,
        "entry": 2027059,
        "entry_name": "Akatsuki",
        "event_total": 51,
        "has_played": true,
        "id": 14349637,
        "last_rank": 59813,
        "player_name": "Rock Stone",
        "rank": 69708,
        "rank_sort": 69877,
        "total": 2340
      },
      {
        "club_badge_src": null,
        "entry": 2118298,
        "entry_name": "Zubi Dubi Do",
        "event_total": 63,
        "has_played": true,
        "id": 15046380,
        "last_rank": 83934,
        "player_name": "Jayden Solanki",
        "rank": 69708,
        "rank_sort": 69878,
        "total": 2340
      },
      {
        "club_badge_src": "https://fantasy.premierleague.com/gcs/plfpl-production-adobe-approved/plfpl-production/2139379/adc818fb-2da5-4902-8c72-7e78784a14cb.png",
        "entry": 2139379,
        "entry_name": "ab13od",
        "event_total": 44,
        "has_played": true,
        "id": 15204450,
        "last_rank": 48363,
        "player_name": "Abdullah Alodan",
        "rank": 69708,
        "rank_sort": 69879,
        "total": 2340
      },
      {
        "club_badge_src": null,
        "entry": 2143696,
        "entry_name": "Charlie xGx",
        "event_total": 62,
        "has_played": true,
        "id": 15236252,
        "last_rank": 81420,
        "player_name": "Alex Keene",
        "rank": 69708,
        "rank_sort": 69880,
        "total": 2340
      },
      {
        "club_badge_src": null,
        "entry": 2150457,
        "entry_name": "Endo Story",
        "event_total": 58,
        "has_played": true,
        "id": 15285399,
        "last_rank": 72702,
        "player_name": "Tyler Sprague",
        "rank": 69708,
        "rank_sort": 69881,
        "total": 2340
      },
      {
        "club_badge_src": null,
        "entry": 2154762,
        "entry_name": "Marcus Rashyhands",
        "event_total": 56,
        "has_played": true,
        "id": 15316710,
        "last_rank": 68957,
        "player_name": "Jack Walsh",
        "rank": 69708,
        "rank_sort": 69882,
        "total": 2340
      },
      {
        "club_badge_src": null,
        "entry": 2201705,
        "entry_name": "RechaFC",
        "event_total": 69,
        "has_played": true,
        "id": 15668468,
        "last_rank": 98896,
        "player_name": "Kacper Reszka",
        "rank": 69708,
        "rank_sort": 69883,
        "total": 2340
      },
      {
        "club_badge_src": null,
        "entry": 2209411,
        "entry_name": "La Pulga",
        "event_total": 62,
        "has_played": true,
        "id": 15732964,
        "last_rank": 81646,
        "player_name": "Kushtrim Bajgora",
        "rank": 69708,
        "rank_sort": 69884,
        "total": 2340
      },
      {
        "club_badge_src": null,
        "entry": 2210831,
        "entry_name": "Football Sucks",
        "event_total": 71,
        "has_played": true,
        "id": 15743247,
        "last_rank": 103254,
        "player_name": "Jodie Hughes",
        "rank": 69708,
        "rank_sort": 69885,
        "total": 2340
      },
      {
        "club_badge_src": null,
        "entry": 2221961,
        "entry_name": "No More Mr Rice Kai",
        "event_total": 66,
        "has_played": true,
        "id": 15825430,
        "last_rank": 90746,
        "player_name": "Rhys Owen",
        "rank": 69708,
        "rank_sort": 69886,
        "total": 2340
      },
      {
        "club_badge_src": null,
        "entry": 2271845,
        "entry_name": "Lick m-ISAK",
        "event_total": 61,
        "has_played": true,
        "id": 16199481,
        "last_rank": 79431,
        "player_name": "Sean Cummins",
        "rank": 69708,
        "rank_sort": 69887,
        "total": 2340
      },
      {
        "club_badge_src": null,
        "entry": 2280225,
        "entry_name": "Netflix & Chilwell",
        "event_total": 41,
        "has_played": true,
        "id": 16260677,
        "last_rank": 43849,
        "player_name": "Brandon Chpman",
        "rank": 69708,
        "rank_sort": 69888,
        "total": 2340
      },
      {
        "club_badge_src": null,
        "entry": 2325216,
        "entry_name": "Not Really Here",
        "event_total": 50,
        "has_played": true,
        "id": 16588922,
        "last_rank": 58071,
        "player_name": "David Hall",
        "rank": 69708,
        "rank_sort": 69889,
        "total": 2340
      },
      {
        "club_badge_src": null,
        "entry": 2352548,
        "entry_name": "UnitedRoad",
        "event_total": 71,
        "has_played": true,
        "id": 16786154,
        "last_rank": 103054,
        "player_name": "Tim United Road",
        "rank": 69708,
        "rank_sort": 69890,
        "total": 2340
      },
      {
        "club_badge_src": null,
        "entry": 2356038,
        "entry_name": "Livin Saliba Loca",
        "event_total": 49,
        "has_played": true,
        "id": 16811320,
        "last_rank": 56369,
        "player_name": "Hamza Farow",
        "rank": 69708,
        "rank_sort": 69891,
        "total": 2340
      },
      {
        "club_badge_src": null,
        "entry": 2362692,
        "entry_name": "yasser89",
        "event_total": 56,
        "has_played": true,
        "id": 16862303,
        "last_rank": 68957,
        "player_name": "Y Al Fayez",
        "rank": 69708,
        "rank_sort": 69892,
        "total": 2340
      },
      {
        "club_badge_src": null,
        "entry": 2369713,
        "entry_name": "Bobby's dazzlers",
        "event_total": 53,
        "has_played": true,
        "id": 16915993,
        "last_rank": 63201,
        "player_name": "Rob Honeyman",
        "rank": 69708,
        "rank_sort": 69893,
        "total": 2340
      },
      {
        "club_badge_src": null,
        "entry": 2374993,
        "entry_name": "Bocken BK",
        "event_total": 64,
        "has_played": true,
        "id": 16955111,
        "last_rank": 86304,
        "player_name": "Jonas Jonsson",
        "rank": 69708,
        "rank_sort": 69894,
        "total": 2340
      },
      {
        "club_badge_src": null,
        "entry": 2387580,
        "entry_name": "Harold",
        "event_total": 69,
        "has_played": true,
        "id": 17053566,
        "last_rank": 98436,
        "player_name": "Harry Hodgson",
        "rank": 69708,
        "rank_sort": 69895,
        "total": 2340
      },
      {
        "club_badge_src": null,
        "entry": 2387883,
        "entry_name": "Sri Kandi FC",
        "event_total": 53,
        "has_played": true,
        "id": 17055878,
        "last_rank": 63390,
        "player_name": "Nur Kasih",
        "rank": 69708,
        "rank_sort": 69896,
        "total": 2340
      },
      {
        "club_badge_src": null,
        "entry": 2403900,
        "entry_name": "Pr1zyy",
        "event_total": 59,
        "has_played": true,
        "id": 17182040,
        "last_rank": 75139,
        "player_name": "Pr1zyy Jewben Amorim",
        "rank": 69708,
        "rank_sort": 69897,
        "total": 2340
      },
      {
        "club_badge_src": null,
        "entry": 2417735,
        "entry_name": "ROTO 001",
        "event_total": 66,
        "has_played": true,
        "id": 17283682,
        "last_rank": 81244,
        "player_name": "Amirul Rosely",
        "rank": 69708,
        "rank_sort": 69898,
        "total": 2340
      },
      {
        "club_badge_src": null,
        "entry": 2545431,
        "entry_name": "Cunha feelthe Mbeumo",
        "event_total": 70,
        "has_played": true,
        "id": 18244710,
        "last_rank": 100700,
        "player_name": "Joachim Sandberg",
        "rank": 69708,
        "rank_sort": 69899,
        "total": 2340
      },
      {
        "club_badge_src": null,
        "entry": 2557474,
        "entry_name": "Demba Ba",
        "event_total": 63,
        "has_played": true,
        "id": 18339916,
        "last_rank": 83934,
        "player_name": "Demba Ba",
        "rank": 69708,
        "rank_sort": 69900,
        "total": 2340
      }
    ]
  }
}