{
  "last_updated_data": "2026-05-24T23:28:17Z",
  "league": {
    "admin_entry": null,
    "closed": false,
    "code_privacy": "p",
    "created": "2025-07-20T23:14:33.933835Z",
    "cup_league": 2815434,
    "has_cup": true,
    "id": 314,
    "league_type": "s",
    "max_entries": null,
    "name": "Overall",
    "rank": null,
    "scoring": "c",
    "start_event": 1
  },
  "new_entries": {
    "has_next": false,
    "page": 1,
    "results": []
  },
  "standings": {
    "has_next": true,
    "page": 1375,
    "results": [
      {
        "club_badge_src": null,
        "entry": 4503795,
        "entry_name": "Viva United",
        "event_total": 73,
        "has_played": true,
        "id": 34337309,
        "last_rank": 106763,
        "player_name": "Vivek Nair",
        "rank": 68496,
        "rank_sort": 68701,
        "total": 2341
      },
      {
        "club_badge_src": null,
        "entry": 4519864,
        "entry_name": "Be Safe Be Lucky",
        "event_total": 64,
        "has_played": true,
        "id": 34469562,
        "last_rank": 75537,
        "player_name": "Dave Jenkins",
        "rank": 68496,
        "rank_sort": 68702,
        "total": 2341
      },
      {
        "club_badge_src": null,
        "entry": 4558159,
        "entry_name": "Yellow Gunners",
        "event_total": 64,
        "has_played": true,
        "id": 34781333,
        "last_rank": 84731,
        "player_name": "\u039c\u03b9\u03c7\u03b1\u03bb\u03b7\u03c2 \u03a4\u03bf\u03bc\u03b1\u03c1\u03b1\u03c2",
        "rank": 68496,
        "rank_sort": 68703,
        "total": 2341
      },
      {
        "club_badge_src": null,
        "entry": 4713130,
        "entry_name": "Sesko and The City",
        "event_total": 53,
        "has_played": true,
        "id": 36171818,
        "last_rank": 62223,
        "player_name": "Josh Davies",
        "rank": 68496,
        "rank_sort": 68704,
        "total": 2341
      },
      {
        "club_badge_src": null,
        "entry": 4777704,
        "entry_name": "ABCDE FC",
        "event_total": 36,
        "has_played": true,
        "id": 36777897,
        "last_rank": 31747,
        "player_name": "Nick Holroyd-Doveton",
        "rank": 68496,
        "rank_sort": 68705,
        "total": 2341
      },
      {
        "club_badge_src": null,
        "entry": 4855466,
        "entry_name": "Gutta",
        "event_total": 51,
        "has_played": true,
        "id": 37412377,
        "last_rank": 58388,
        "player_name": "Svein Johansen",
        "rank": 68496,
        "rank_sort": 68706,
        "total": 2341
      },
      {
        "club_badge_src": null,
        "entry": 4945263,
        "entry_name": "Chop Noni",
        "event_total": 76,
        "has_played": true,
        "id": 38157322,
        "last_rank": 114574,
        "player_name": "Timi O",
        "rank": 68496,
        "rank_sort": 68707,
        "total": 2341
      },
      {
        "club_badge_src": null,
        "entry": 4955649,
        "entry_name": "FArteta's Chokers",
        "event_total": 59,
        "has_played": true,
        "id": 38240740,
        "last_rank": 73720,
        "player_name": "CJ Reddy",
        "rank": 68496,
        "rank_sort": 68708,
        "total": 2341
      },
      {
        "club_badge_src": null,
        "entry": 4995865,
        "entry_name": "Change Name",
        "event_total": 54,
        "has_played": true,
        "id": 38573623,
        "last_rank": 63724,
        "player_name": "Timmy Doherty",
        "rank": 68496,
        "rank_sort": 68709,
        "total": 2341
      },
      {
        "club_badge_src": null,
        "entry": 5058530,
        "entry_name": "Palmer Sutra",
        "event_total": 62,
        "has_played": true,
        "id": 39087446,
        "last_rank": 80194,
        "player_name": "Chris lewis",
        "rank": 68496,
        "rank_sort": 68710,
        "total": 2341
      },
      {
        "club_badge_src": "https://fantasy.premierleague.com/gcs/plfpl-production-adobe-approved/plfpl-production/5190859/9037b7c6-3fa2-4877-bc9b-86086d9695fe.png",
        "entry": 5190859,
        "entry_name": "Black Mambas F.C.",
        "event_total": 84,
        "has_played": true,
        "id": 40186868,
        "last_rank": 126408,
        "player_name": "Chris Ch",
        "rank": 68496,
        "rank_sort": 68711,
        "total": 2341
      },
      {
        "club_badge_src": null,
        "entry": 5271478,
        "entry_name": "Buckle Up",
        "event_total": 61,
        "has_played": true,
        "id": 40857268,
        "last_rank": 69323,
        "player_name": "Dan Buckle",
        "rank": 68496,
        "rank_sort": 68712,
        "total": 2341
      },
      {
        "club_badge_src": null,
        "entry": 5272323,
        "entry_name": "JM",
        "event_total": 52,
        "has_played": true,
        "id": 40864005,
        "last_rank": 60168,
        "player_name": "Jesz Mireku",
        "rank": 68496,
        "rank_sort": 68713,
        "total": 2341
      },
      {
        "club_badge_src": null,
        "entry": 5273175,
        "entry_name": "The Good Lads",
        "event_total": 66,
        "has_played": true,
        "id": 40870804,
        "last_rank": 89055,
        "player_name": "Avijit Sahay",
        "rank": 68496,
        "rank_sort": 68714,
        "total": 2341
      },
      {
        "club_badge_src": null,
        "entry": 5284459,
        "entry_name": "oogway FC",
        "event_total": 58,
        "has_played": true,
        "id": 40960394,
        "last_rank": 71386,
        "player_name": "Iskander Zhandiyar",
        "rank": 68496,
        "rank_sort": 68715,
        "total": 2341
      },
      {
        "club_badge_src": null,
        "entry": 5315149,
        "entry_name": "Cant kick wont kick",
        "event_total": 50,
        "has_played": true,
        "id": 41201249,
        "last_rank": 57001,
        "player_name": "Nick Neo",
        "rank": 68496,
        "rank_sort": 68716,
        "total": 2341
      },
      {
        "club_badge_src": null,
        "entry": 5502067,
        "entry_name": "L\u00e4ttlagad elangas",
        "event_total": 60,
        "has_played": true,
        "id": 42871912,
        "last_rank": 67422,
        "player_name": "Ludvig J\u00f6nsson",
        "rank": 68496,
        "rank_sort": 68717,
        "total": 2341
      },
      {
        "club_badge_src": null,
        "entry": 5558192,
        "entry_name": "SholeTactico",
        "event_total": 51,
        "has_played": true,
        "id": 43389095,
        "last_rank": 51220,
        "player_name": "Shol\u0113 Lopez",
        "rank": 68496,
        "rank_sort": 68718,
        "total": 2341
      },
      {
        "club_badge_src": null,
        "entry": 5576146,
        "entry_name": "Bidi Hichem",
        "event_total": 45,
        "has_played": true,
        "id": 43546900,
        "last_rank": 48898,
        "player_name": "bidi hichem",
        "rank": 68496,
        "rank_sort": 68719,
        "total": 2341
      },
      {
        "club_badge_src": null,
        "entry": 5601972,
        "entry_name": "Akikdadoenistrood FC",
        "event_total": 71,
        "has_played": true,
        "id": 43773392,
        "last_rank": 101818,
        "player_name": "Yannick Rosseau",
        "rank": 68496,
        "rank_sort": 68720,
        "total": 2341
      },
      {
        "club_badge_src": null,
        "entry": 5632180,
        "entry_name": "InsertPunHere FC",
        "event_total": 67,
        "has_played": true,
        "id": 44036116,
        "last_rank": 90746,
        "player_name": "shane mcevoy",
        "rank": 68496,
        "rank_sort": 68721,
        "total": 2341
      },
      {
        "club_badge_src": null,
        "entry": 5747269,
        "entry_name": "Swedish Howe Mafia",
        "event_total": 48,
        "has_played": true,
        "id": 45043033,
        "last_rank": 53621,
        "player_name": "William Mckemey",
        "rank": 68496,
        "rank_sort": 68722,
        "total": 2341
      },
      {
        "club_badge_src": null,
        "entry": 5754537,
        "entry_name": "Flo State",
        "event_total": 59,
        "has_played": true,
        "id": 45106531,
        "last_rank": 73038,
        "player_name": "Aaron Kambo",
        "rank": 68496,
        "rank_sort": 68723,
        "total": 2341
      },
      {
        "club_badge_src": null,
        "entry": 5772820,
        "entry_name": "Strawberry zackary",
        "event_total": 68,
        "has_played": true,
        "id": 45260866,
        "last_rank": 83934,
        "player_name": "Zack Kendall",
        "rank": 68496,
        "rank_sort": 68724,
        "total": 2341
      },
      {
        "club_badge_src": "https://fantasy.premierleague.com/gcs/plfpl-production-adobe-approved/plfpl-production/5788433/5b03bc50-a962-424a-b701-020d8804a5a9.png",
        "entry": 5788433,
        "entry_name": "Living Saliba Loca",
        "event_total": 63,
        "has_played": true,
        "id": 45395153,
        "last_rank": 82069,
        "player_name": "Julie Dennis",
        "rank": 68496,
        "rank_sort": 68725,
        "total": 2341
      },
      {
        "club_badge_src": null,
        "entry": 5972862,
        "entry_name": "Hvem?",
        "event_total": 66,
        "has_played": true,
        "id": 47007901,
        "last_rank": 89426,
        "player_name": "Simon Nielsen",
        "rank": 68496,
        "rank_sort": 68726,
        "total": 2341
      },
      {
        "club_badge_src": null,
        "entry": 6203023,
        "entry_name": "Lykiri",
        "event_total": 71,
        "has_played": true,
        "id": 49071294,
        "last_rank": 101818,
        "player_name": "Laban Otieno",
        "rank": 68496,
        "rank_sort": 68727,
        "total": 2341
      },
      {
        "club_badge_src": null,
        "entry": 6268184,
        "entry_name": "TINUBU FC",
        "event_total": 69,
        "has_played": true,
        "id": 49633604,
        "last_rank": 96374,
        "player_name": "ogunruku Muyiwa",
        "rank": 68496,
        "rank_sort": 68728,
        "total": 2341
      },
      {
        "club_badge_src": null,
        "entry": 6284152,
        "entry_name": "Cole World",
        "event_total": 67,
        "has_played": true,
        "id": 49776017,
        "last_rank": 92126,
        "player_name": "Kevin Gasca",
        "rank": 68496,
        "rank_sort": 68729,
        "total": 2341
      },
      {
        "club_badge_src": null,
        "entry": 6309207,
        "entry_name": "Gunnersaurus FC",
        "event_total": 61,
        "has_played": true,
        "id": 50048508,
        "last_rank": 77676,
        "player_name": "Matthew Shannon",
        "rank": 68496,
        "rank_sort": 68730,
        "total": 2341
      },
      {
        "club_badge_src": null,
        "entry": 6375636,
        "entry_name": "Je Suis Prest",
        "event_total": 67,
        "has_played": true,
        "id": 50703982,
        "last_rank": 91835,
        "player_name": "Jamie Fraser",
        "rank": 68496,
        "rank_sort": 68731,
        "total": 2341
      },
      {
        "club_badge_src": null,
        "entry": 6376872,
        "entry_name": "Prevman FC",
        "event_total": 40,
        "has_played": true,
        "id": 50714718,
        "last_rank": 41824,
        "player_name": "Paul Prevost",
        "rank": 68496,
        "rank_sort": 68732,
        "total": 2341
      },
      {
        "club_badge_src": null,
        "entry": 6380443,
        "entry_name": "Regis Le Bris Milah",
        "event_total": 59,
        "has_played": true,
        "id": 50746028,
        "last_rank": 73720,
        "player_name": "Zachary Collins",
        "rank": 68496,
        "rank_sort": 68733,
        "total": 2341
      },
      {
        "club_badge_src": "https://fantasy.premierleague.com/gcs/plfpl-production-adobe-approved/plfpl-production/6843536/7a1d5115-c36d-4236-b51f-02ed5345b5e6.png",
        "entry": 6843536,
        "entry_name": "ToonToonTommy",
        "event_total": 64,
        "has_played": true,
        "id": 54823338,
        "last_rank": 84731,
        "player_name": "Andrew Davies",
        "rank": 68496,
        "rank_sort": 68734,
        "total": 2341
      },
      {
        "club_badge_src": null,
        "entry": 6898175,
        "entry_name": "YANITED",
        "event_total": 50,
        "has_played": true,
        "id": 55289217,
        "last_rank": 50199,
        "player_name": "Benjamin V\u00e5g",
        "rank": 68496,
        "rank_sort": 68735,
        "total": 2341
      },
      {
        "club_badge_src": null,
        "entry": 6915566,
        "entry_name": "FCB",
        "event_total": 33,
        "has_played": true,
        "id": 55435319,
        "last_rank": 32879,
        "player_name": "Ali Hadi",
        "rank": 68496,
        "rank_sort": 68736,
        "total": 2341
      },
      {
        "club_badge_src": null,
        "entry": 6980827,
        "entry_name": "AC me rollin'",
        "event_total": 44,
        "has_played": true,
        "id": 56025484,
        "last_rank": 47163,
        "player_name": "James Telfer",
        "rank": 68496,
        "rank_sort": 68737,
        "total": 2341
      },
      {
        "club_badge_src": null,
        "entry": 6985264,
        "entry_name": "Return of the P",
        "event_total": 60,
        "has_played": true,
        "id": 56066796,
        "last_rank": 75874,
        "player_name": "Providence Chibanda",
        "rank": 68496,
        "rank_sort": 68738,
        "total": 2341
      },
      {
        "club_badge_src": null,
        "entry": 7216520,
        "entry_name": "the best team",
        "event_total": 58,
        "has_played": true,
        "id": 58290014,
        "last_rank": 71956,
        "player_name": "Noah Shewan",
        "rank": 68496,
        "rank_sort": 68739,
        "total": 2341
      },
      {
        "club_badge_src": null,
        "entry": 7258743,
        "entry_name": "Suleiman",
        "event_total": 51,
        "has_played": true,
        "id": 58688439,
        "last_rank": 58388,
        "player_name": "Suleiman Alsuqli",
        "rank": 68496,
        "rank_sort": 68740,
        "total": 2341
      },
      {
        "club_badge_src": null,
        "entry": 7362807,
        "entry_name": "Wezchester marmited",
        "event_total": 60,
        "has_played": true,
        "id": 59667918,
        "last_rank": 75874,
        "player_name": "Westley Thomson",
        "rank": 68496,
        "rank_sort": 68741,
        "total": 2341
      },
      {
        "club_badge_src": null,
        "entry": 7368189,
        "entry_name": "SOFE",
        "event_total": 56,
        "has_played": true,
        "id": 59717858,
        "last_rank": 60168,
        "player_name": "Mustafa Raheem",
        "rank": 68496,
        "rank_sort": 68742,
        "total": 2341
      },
      {
        "club_badge_src": null,
        "entry": 7418011,
        "entry_name": "Back of the Neto",
        "event_total": 82,
        "has_played": true,
        "id": 60223229,
        "last_rank": 134226,
        "player_name": "Helen Davies",
        "rank": 68496,
        "rank_sort": 68743,
        "total": 2341
      },
      {
        "club_badge_src": null,
        "entry": 7429594,
        "entry_name": "PolskaGurom",
        "event_total": 66,
        "has_played": true,
        "id": 60365202,
        "last_rank": 89426,
        "player_name": "Tomasz Dylicki",
        "rank": 68496,
        "rank_sort": 68744,
        "total": 2341
      },
      {
        "club_badge_src": null,
        "entry": 7765247,
        "entry_name": "Kindergarten Klopp",
        "event_total": 49,
        "has_played": true,
        "id": 63760471,
        "last_rank": 55514,
        "player_name": "Steven Hillhouse",
        "rank": 68496,
        "rank_sort": 68745,
        "total": 2341
      },
      {
        "club_badge_src": null,
        "entry": 7795069,
        "entry_name": "Saka to me",
        "event_total": 41,
        "has_played": true,
        "id": 64029039,
        "last_rank": 43342,
        "player_name": "Caitlin Merkle",
        "rank": 68496,
        "rank_sort": 68746,
        "total": 2341
      },
      {
        "club_badge_src": null,
        "entry": 7861122,
        "entry_name": "Murphy's Law",
        "event_total": 60,
        "has_played": true,
        "id": 64633337,
        "last_rank": 67063,
        "player_name": "Michael Carlyon",
        "rank": 68496,
        "rank_sort": 68747,
        "total": 2341
      },
      {
        "club_badge_src": null,
        "entry": 8018296,
        "entry_name": "Boko Haram",
        "event_total": 66,
        "has_played": true,
        "id": 66049733,
        "last_rank": 89426,
        "player_name": "Mayukh Alvares",
        "rank": 68496,
        "rank_sort": 68748,
        "total": 2341
      },
      {
        "club_badge_src": null,
        "entry": 8044562,
        "entry_name": "ViktorKlop&Rest",
        "event_total": 72,
        "has_played": true,
        "id": 66288098,
        "last_rank": 103254,
        "player_name": "Alex Son",
        "rank": 68496,
        "rank_sort": 68749,
        "total": 2341
      },
      {
        "club_badge_src": "https://fantasy.premierleague.com/gcs/plfpl-production-adobe-approved/plfpl-production/8131134/f9753a74-bf66-49d1-b5ea-2bc0806d6df7.png",
        "entry": 8131134,
        "entry_name": "FC Batkovica",
        "event_total": 69,
        "has_played": true,
        "id": 67092164,
        "last_rank": 96777,
        "player_name": "Martin Batko jr.",
        "rank": 68496,
        "rank_sort": 68750,
        "total": 2341
      }
    ]
  }
}