{
  "last_updated_data": "2026-05-24T23:28:17Z",
  "league": {
    "admin_entry": null,
    "closed": false,
    "code_privacy": "p",
    "created": "2025-07-20T23:14:33.933835Z",
    "cup_league": 2815434,
    "has_cup": true,
    "id": 314,
    "league_type": "s",
    "max_entries": null,
    "name": "Overall",
    "rank": null,
    "scoring": "c",
    "start_event": 1
  },
  "new_entries": {
    "has_next": false,
    "page": 1,
    "results": []
  },
  "standings": {
    "has_next": true,
    "page": 1205,
    "results": [
      {
        "club_badge_src": null,
        "entry": 5709578,
        "entry_name": "Poom Maverick",
        "event_total": 55,
        "has_played": true,
        "id": 44710145,
        "last_rank": 57451,
        "player_name": "Poom Maverick",
        "rank": 60120,
        "rank_sort": 60201,
        "total": 2346
      },
      {
        "club_badge_src": null,
        "entry": 5978109,
        "entry_name": "PhantomOfTheChopra",
        "event_total": 54,
        "has_played": true,
        "id": 47064616,
        "last_rank": 43342,
        "player_name": "Vir Chopra",
        "rank": 60120,
        "rank_sort": 60202,
        "total": 2346
      },
      {
        "club_badge_src": "https://fantasy.premierleague.com/gcs/plfpl-production-adobe-approved/plfpl-production/6039420/1217609a-bb97-4654-8cf7-2c798542e3d0.png",
        "entry": 6039420,
        "entry_name": "sandchester city",
        "event_total": 61,
        "has_played": true,
        "id": 47647827,
        "last_rank": 60827,
        "player_name": "Christian Sand",
        "rank": 60120,
        "rank_sort": 60203,
        "total": 2346
      },
      {
        "club_badge_src": null,
        "entry": 6056982,
        "entry_name": "Sheeeeeeeeeeeeit",
        "event_total": 75,
        "has_played": true,
        "id": 47799764,
        "last_rank": 89706,
        "player_name": "Vikram Patel",
        "rank": 60120,
        "rank_sort": 60204,
        "total": 2346
      },
      {
        "club_badge_src": null,
        "entry": 6823190,
        "entry_name": "Easyreach CSC",
        "event_total": 68,
        "has_played": true,
        "id": 54651216,
        "last_rank": 83018,
        "player_name": "Paul Forrest",
        "rank": 60120,
        "rank_sort": 60205,
        "total": 2346
      },
      {
        "club_badge_src": null,
        "entry": 7365552,
        "entry_name": "No Pasaran",
        "event_total": 57,
        "has_played": true,
        "id": 59693315,
        "last_rank": 53952,
        "player_name": "Richard Spring",
        "rank": 60120,
        "rank_sort": 60206,
        "total": 2346
      },
      {
        "club_badge_src": null,
        "entry": 7371959,
        "entry_name": "iiiamtriQ",
        "event_total": 44,
        "has_played": true,
        "id": 59752464,
        "last_rank": 35867,
        "player_name": "iim tRiQ",
        "rank": 60120,
        "rank_sort": 60207,
        "total": 2346
      },
      {
        "club_badge_src": null,
        "entry": 7476996,
        "entry_name": "Up The Ding",
        "event_total": 63,
        "has_played": true,
        "id": 60984305,
        "last_rank": 64319,
        "player_name": "Andy C",
        "rank": 60120,
        "rank_sort": 60208,
        "total": 2346
      },
      {
        "club_badge_src": null,
        "entry": 8791320,
        "entry_name": "NAZ-Balayo FC",
        "event_total": 67,
        "has_played": true,
        "id": 73460796,
        "last_rank": 71956,
        "player_name": "Nabil Osman",
        "rank": 60120,
        "rank_sort": 60209,
        "total": 2346
      },
      {
        "club_badge_src": null,
        "entry": 8951317,
        "entry_name": "balavela",
        "event_total": 27,
        "has_played": true,
        "id": 75012326,
        "last_rank": 23039,
        "player_name": "Bala Alhadi",
        "rank": 60120,
        "rank_sort": 60210,
        "total": 2346
      },
      {
        "club_badge_src": null,
        "entry": 13302,
        "entry_name": "Dunder Mifflin XI",
        "event_total": 57,
        "has_played": true,
        "id": 80279,
        "last_rank": 47722,
        "player_name": "Lewis Nicklen",
        "rank": 60211,
        "rank_sort": 60211,
        "total": 2346
      },
      {
        "club_badge_src": "https://fantasy.premierleague.com/gcs/plfpl-production-adobe-approved/plfpl-production/18991/4ca02a09-2846-42a7-a288-a19838db4fee.png",
        "entry": 18991,
        "entry_name": "SQUBASY",
        "event_total": 47,
        "has_played": true,
        "id": 118195,
        "last_rank": 39510,
        "player_name": "Mateusz Szczechluk",
        "rank": 60211,
        "rank_sort": 60212,
        "total": 2346
      },
      {
        "club_badge_src": null,
        "entry": 44961,
        "entry_name": "salah rocks",
        "event_total": 56,
        "has_played": true,
        "id": 288295,
        "last_rank": 52461,
        "player_name": "andrew griffiths",
        "rank": 60211,
        "rank_sort": 60213,
        "total": 2346
      },
      {
        "club_badge_src": null,
        "entry": 53072,
        "entry_name": "FPL Goose",
        "event_total": 71,
        "has_played": true,
        "id": 341341,
        "last_rank": 90057,
        "player_name": "Dan Keohane",
        "rank": 60211,
        "rank_sort": 60214,
        "total": 2346
      },
      {
        "club_badge_src": null,
        "entry": 76112,
        "entry_name": "OminousCloud",
        "event_total": 55,
        "has_played": true,
        "id": 494810,
        "last_rank": 57515,
        "player_name": "Jack Brown",
        "rank": 60211,
        "rank_sort": 60215,
        "total": 2346
      },
      {
        "club_badge_src": null,
        "entry": 109752,
        "entry_name": "PERfect FPL",
        "event_total": 58,
        "has_played": true,
        "id": 715669,
        "last_rank": 49207,
        "player_name": "Per Solberg",
        "rank": 60211,
        "rank_sort": 60216,
        "total": 2346
      },
      {
        "club_badge_src": null,
        "entry": 110397,
        "entry_name": "#The prince team#",
        "event_total": 61,
        "has_played": true,
        "id": 719986,
        "last_rank": 68294,
        "player_name": "Veselin Filipov",
        "rank": 60211,
        "rank_sort": 60217,
        "total": 2346
      },
      {
        "club_badge_src": null,
        "entry": 142238,
        "entry_name": "Fantasy Gladiators",
        "event_total": 62,
        "has_played": true,
        "id": 929778,
        "last_rank": 70276,
        "player_name": "Pavel Ivanchikov",
        "rank": 60211,
        "rank_sort": 60218,
        "total": 2346
      },
      {
        "club_badge_src": null,
        "entry": 156612,
        "entry_name": "qndil",
        "event_total": 57,
        "has_played": true,
        "id": 1029951,
        "last_rank": 54065,
        "player_name": "Mohamed qndil",
        "rank": 60211,
        "rank_sort": 60219,
        "total": 2346
      },
      {
        "club_badge_src": null,
        "entry": 191703,
        "entry_name": "CunSoc",
        "event_total": 54,
        "has_played": true,
        "id": 1269841,
        "last_rank": 49301,
        "player_name": "Phan V\u0169",
        "rank": 60211,
        "rank_sort": 60220,
        "total": 2346
      },
      {
        "club_badge_src": "https://fantasy.premierleague.com/gcs/plfpl-production-adobe-approved/plfpl-production/230544/d56a8a7e-a5ba-41d7-b646-8d0336ecc436.png",
        "entry": 230544,
        "entry_name": "step_by_steph8",
        "event_total": 71,
        "has_played": true,
        "id": 1533731,
        "last_rank": 80651,
        "player_name": "Yehuda Moreno",
        "rank": 60211,
        "rank_sort": 60221,
        "total": 2346
      },
      {
        "club_badge_src": null,
        "entry": 237502,
        "entry_name": "Beef Cherki",
        "event_total": 64,
        "has_played": true,
        "id": 1580157,
        "last_rank": 74395,
        "player_name": "Christopher Ross",
        "rank": 60211,
        "rank_sort": 60222,
        "total": 2346
      },
      {
        "club_badge_src": null,
        "entry": 241165,
        "entry_name": "Fantasia",
        "event_total": 62,
        "has_played": true,
        "id": 1605162,
        "last_rank": 62724,
        "player_name": "Filip Kuklik",
        "rank": 60211,
        "rank_sort": 60223,
        "total": 2346
      },
      {
        "club_badge_src": null,
        "entry": 293331,
        "entry_name": "Change Name",
        "event_total": 65,
        "has_played": true,
        "id": 1957975,
        "last_rank": 68216,
        "player_name": "James Warwick",
        "rank": 60211,
        "rank_sort": 60224,
        "total": 2346
      },
      {
        "club_badge_src": "https://fantasy.premierleague.com/gcs/plfpl-production-adobe-approved/plfpl-production/314956/cf1b7775-79cb-424a-97a4-83a7cbee68e2.png",
        "entry": 314956,
        "entry_name": "\u0160e\u0161ko Meal Deal",
        "event_total": 80,
        "has_played": true,
        "id": 2110638,
        "last_rank": 113553,
        "player_name": "Mikey Traynor",
        "rank": 60211,
        "rank_sort": 60225,
        "total": 2346
      },
      {
        "club_badge_src": null,
        "entry": 332347,
        "entry_name": "The Mask of Porro",
        "event_total": 53,
        "has_played": true,
        "id": 2225960,
        "last_rank": 54134,
        "player_name": "robin griffin",
        "rank": 60211,
        "rank_sort": 60226,
        "total": 2346
      },
      {
        "club_badge_src": null,
        "entry": 336139,
        "entry_name": "Agbadou-dou-dou",
        "event_total": 68,
        "has_played": true,
        "id": 2250547,
        "last_rank": 66200,
        "player_name": "Matthew Cassell",
        "rank": 60211,
        "rank_sort": 60227,
        "total": 2346
      },
      {
        "club_badge_src": null,
        "entry": 356328,
        "entry_name": "ISurvivedErikTenHag",
        "event_total": 61,
        "has_played": true,
        "id": 2384522,
        "last_rank": 68216,
        "player_name": "Ben McGuckin",
        "rank": 60211,
        "rank_sort": 60228,
        "total": 2346
      },
      {
        "club_badge_src": null,
        "entry": 367311,
        "entry_name": "Blaze chelsea boy",
        "event_total": 58,
        "has_played": true,
        "id": 2458249,
        "last_rank": 55747,
        "player_name": "Chelseamaniac santosh Pandit",
        "rank": 60211,
        "rank_sort": 60229,
        "total": 2346
      },
      {
        "club_badge_src": null,
        "entry": 368480,
        "entry_name": "TecksYNWA",
        "event_total": 61,
        "has_played": true,
        "id": 2465904,
        "last_rank": 68294,
        "player_name": "Teck Ming Tan",
        "rank": 60211,
        "rank_sort": 60230,
        "total": 2346
      },
      {
        "club_badge_src": "https://fantasy.premierleague.com/gcs/plfpl-production-adobe-approved/plfpl-production/405864/35f716e9-fb25-471e-9787-7fcfe62b201c.png",
        "entry": 405864,
        "entry_name": "Wakeup Coach 3-6-1 X",
        "event_total": 62,
        "has_played": true,
        "id": 2721244,
        "last_rank": 62724,
        "player_name": "Dan Bofman",
        "rank": 60211,
        "rank_sort": 60231,
        "total": 2346
      },
      {
        "club_badge_src": null,
        "entry": 444197,
        "entry_name": "ChickenTikkamosalah",
        "event_total": 61,
        "has_played": true,
        "id": 2978523,
        "last_rank": 60933,
        "player_name": "Steve Templeton",
        "rank": 60211,
        "rank_sort": 60232,
        "total": 2346
      },
      {
        "club_badge_src": null,
        "entry": 456291,
        "entry_name": "\u0628\u0627\u0628\u0627 \u0627\u0644\u0645\u062c\u0627\u0644",
        "event_total": 51,
        "has_played": true,
        "id": 3061337,
        "last_rank": 50956,
        "player_name": "Tp Wad alhag",
        "rank": 60211,
        "rank_sort": 60233,
        "total": 2346
      },
      {
        "club_badge_src": "https://fantasy.premierleague.com/gcs/plfpl-production-adobe-approved/plfpl-production/558106/097f4bda-4cde-4e30-9feb-ff375d6c49c2.png",
        "entry": 558106,
        "entry_name": "Royal Blue Syndicate",
        "event_total": 52,
        "has_played": true,
        "id": 3755996,
        "last_rank": 40770,
        "player_name": "Nosiri Favour",
        "rank": 60211,
        "rank_sort": 60234,
        "total": 2346
      },
      {
        "club_badge_src": null,
        "entry": 565182,
        "entry_name": "Wirtz nightmare",
        "event_total": 81,
        "has_played": true,
        "id": 3804117,
        "last_rank": 104941,
        "player_name": "Kieran Jenkinson",
        "rank": 60211,
        "rank_sort": 60235,
        "total": 2346
      },
      {
        "club_badge_src": "https://fantasy.premierleague.com/gcs/plfpl-production-adobe-approved/plfpl-production/597516/cc2d21af-eeb2-46f2-8285-5ae00058ef57.png",
        "entry": 597516,
        "entry_name": "Foxes17",
        "event_total": 66,
        "has_played": true,
        "id": 4029387,
        "last_rank": 78671,
        "player_name": "Simon Moore",
        "rank": 60211,
        "rank_sort": 60236,
        "total": 2346
      },
      {
        "club_badge_src": "https://fantasy.premierleague.com/gcs/plfpl-production-adobe-approved/plfpl-production/597650/4c353cad-339e-4fc5-b956-d1166fd41bf9.png",
        "entry": 597650,
        "entry_name": "Ahlybarca",
        "event_total": 70,
        "has_played": true,
        "id": 4030370,
        "last_rank": 87808,
        "player_name": "Mohamed Yehia",
        "rank": 60211,
        "rank_sort": 60237,
        "total": 2346
      },
      {
        "club_badge_src": null,
        "entry": 793585,
        "entry_name": "In For De Jong Haul",
        "event_total": 45,
        "has_played": true,
        "id": 5430847,
        "last_rank": 32437,
        "player_name": "Tom Halliday",
        "rank": 60211,
        "rank_sort": 60238,
        "total": 2346
      },
      {
        "club_badge_src": "https://fantasy.premierleague.com/gcs/plfpl-production-adobe-approved/plfpl-production/850196/b785eef9-f95b-4de4-a4d6-cd6b133e27ff.png",
        "entry": 850196,
        "entry_name": "wirtz case scenario8",
        "event_total": 49,
        "has_played": true,
        "id": 5827451,
        "last_rank": 47868,
        "player_name": "Philip Ollerenshaw",
        "rank": 60211,
        "rank_sort": 60239,
        "total": 2346
      },
      {
        "club_badge_src": null,
        "entry": 887565,
        "entry_name": "Tiki Takwa",
        "event_total": 74,
        "has_played": true,
        "id": 6087611,
        "last_rank": 97597,
        "player_name": "Helmy Hizkya Herzhegovina",
        "rank": 60211,
        "rank_sort": 60240,
        "total": 2346
      },
      {
        "club_badge_src": null,
        "entry": 971913,
        "entry_name": "Hoops I Did It Again",
        "event_total": 67,
        "has_played": true,
        "id": 6699763,
        "last_rank": 80877,
        "player_name": "tom smith",
        "rank": 60211,
        "rank_sort": 60241,
        "total": 2346
      },
      {
        "club_badge_src": null,
        "entry": 1204188,
        "entry_name": "Pain in Diaz",
        "event_total": 65,
        "has_played": true,
        "id": 8356632,
        "last_rank": 68216,
        "player_name": "Andrew Mcintyre",
        "rank": 60211,
        "rank_sort": 60242,
        "total": 2346
      },
      {
        "club_badge_src": null,
        "entry": 1312172,
        "entry_name": "Kanke Benektes",
        "event_total": 60,
        "has_played": true,
        "id": 9120678,
        "last_rank": 59170,
        "player_name": "Magnus Myrmel",
        "rank": 60211,
        "rank_sort": 60243,
        "total": 2346
      },
      {
        "club_badge_src": null,
        "entry": 1361430,
        "entry_name": "Desir168",
        "event_total": 47,
        "has_played": true,
        "id": 9463315,
        "last_rank": 44950,
        "player_name": "Tony Chan",
        "rank": 60211,
        "rank_sort": 60244,
        "total": 2346
      },
      {
        "club_badge_src": null,
        "entry": 1572285,
        "entry_name": "Lekus de Madrid fc",
        "event_total": 55,
        "has_played": true,
        "id": 10986240,
        "last_rank": 57515,
        "player_name": "Fonyuy Leke",
        "rank": 60211,
        "rank_sort": 60245,
        "total": 2346
      },
      {
        "club_badge_src": null,
        "entry": 1698728,
        "entry_name": "FC Byer",
        "event_total": 71,
        "has_played": true,
        "id": 11898409,
        "last_rank": 90158,
        "player_name": "Andrew Byer",
        "rank": 60211,
        "rank_sort": 60246,
        "total": 2346
      },
      {
        "club_badge_src": null,
        "entry": 1907643,
        "entry_name": "Terminators",
        "event_total": 66,
        "has_played": true,
        "id": 13448690,
        "last_rank": 78575,
        "player_name": "Ritwik Singh",
        "rank": 60211,
        "rank_sort": 60247,
        "total": 2346
      },
      {
        "club_badge_src": null,
        "entry": 1957610,
        "entry_name": "\u0641\u0644\u0633\u0637\u064a\u0646",
        "event_total": 73,
        "has_played": true,
        "id": 13810177,
        "last_rank": 67926,
        "player_name": "Chemsou Bvb",
        "rank": 60211,
        "rank_sort": 60248,
        "total": 2346
      },
      {
        "club_badge_src": null,
        "entry": 2055227,
        "entry_name": "Poldervogels Uit",
        "event_total": 64,
        "has_played": true,
        "id": 14558852,
        "last_rank": 66296,
        "player_name": "Sjoerd Jebbink",
        "rank": 60211,
        "rank_sort": 60249,
        "total": 2346
      },
      {
        "club_badge_src": null,
        "entry": 2248317,
        "entry_name": "RGXI",
        "event_total": 66,
        "has_played": true,
        "id": 16020606,
        "last_rank": 70183,
        "player_name": "Rahul Ghame",
        "rank": 60211,
        "rank_sort": 60250,
        "total": 2346
      }
    ]
  }
}