{
  "last_updated_data": "2026-05-24T23:28:17Z",
  "league": {
    "admin_entry": null,
    "closed": false,
    "code_privacy": "p",
    "created": "2025-07-20T23:14:33.933835Z",
    "cup_league": 2815434,
    "has_cup": true,
    "id": 314,
    "league_type": "s",
    "max_entries": null,
    "name": "Overall",
    "rank": null,
    "scoring": "c",
    "start_event": 1
  },
  "new_entries": {
    "has_next": false,
    "page": 1,
    "results": []
  },
  "standings": {
    "has_next": true,
    "page": 1513,
    "results": [
      {
        "club_badge_src": null,
        "entry": 7796432,
        "entry_name": "2k25",
        "event_total": 48,
        "has_played": true,
        "id": 64041210,
        "last_rank": 59813,
        "player_name": "Ben G",
        "rank": 75494,
        "rank_sort": 75601,
        "total": 2337
      },
      {
        "club_badge_src": null,
        "entry": 7860372,
        "entry_name": "Winning Team",
        "event_total": 63,
        "has_played": true,
        "id": 64626524,
        "last_rank": 90565,
        "player_name": "Sam Anderson",
        "rank": 75494,
        "rank_sort": 75602,
        "total": 2337
      },
      {
        "club_badge_src": null,
        "entry": 8134049,
        "entry_name": "ktgoalie",
        "event_total": 52,
        "has_played": true,
        "id": 67119299,
        "last_rank": 67063,
        "player_name": "Ben Gburek",
        "rank": 75494,
        "rank_sort": 75603,
        "total": 2337
      },
      {
        "club_badge_src": null,
        "entry": 8222149,
        "entry_name": "Cristiano_hammoud",
        "event_total": 64,
        "has_played": true,
        "id": 67950745,
        "last_rank": 93186,
        "player_name": "mohammed hammoud",
        "rank": 75494,
        "rank_sort": 75604,
        "total": 2337
      },
      {
        "club_badge_src": null,
        "entry": 8246816,
        "entry_name": "Jack RP FC",
        "event_total": 43,
        "has_played": true,
        "id": 68193888,
        "last_rank": 51403,
        "player_name": "William Rycott",
        "rank": 75494,
        "rank_sort": 75605,
        "total": 2337
      },
      {
        "club_badge_src": null,
        "entry": 8323917,
        "entry_name": "Hannah",
        "event_total": 62,
        "has_played": true,
        "id": 68956795,
        "last_rank": 88154,
        "player_name": "Hannah Wallwork",
        "rank": 75494,
        "rank_sort": 75606,
        "total": 2337
      },
      {
        "club_badge_src": "https://fantasy.premierleague.com/gcs/plfpl-production-adobe-approved/plfpl-production/8335749/f8692897-0ea3-44a0-8efc-52d3879566e0.png",
        "entry": 8335749,
        "entry_name": "gobi",
        "event_total": 69,
        "has_played": true,
        "id": 69069111,
        "last_rank": 105818,
        "player_name": "Yuxuan Ou",
        "rank": 75494,
        "rank_sort": 75607,
        "total": 2337
      },
      {
        "club_badge_src": null,
        "entry": 8396122,
        "entry_name": "trip switch",
        "event_total": 73,
        "has_played": true,
        "id": 69642678,
        "last_rank": 116890,
        "player_name": "tomek larysz",
        "rank": 75494,
        "rank_sort": 75608,
        "total": 2337
      },
      {
        "club_badge_src": null,
        "entry": 8624082,
        "entry_name": "Faka Punyete FC\ufffd",
        "event_total": 52,
        "has_played": true,
        "id": 71830768,
        "last_rank": 66738,
        "player_name": "MK Mole",
        "rank": 75494,
        "rank_sort": 75609,
        "total": 2337
      },
      {
        "club_badge_src": null,
        "entry": 8740533,
        "entry_name": "Ctrl Alt De Ligt",
        "event_total": 67,
        "has_played": true,
        "id": 72972925,
        "last_rank": 100527,
        "player_name": "V M",
        "rank": 75494,
        "rank_sort": 75610,
        "total": 2337
      },
      {
        "club_badge_src": null,
        "entry": 8794853,
        "entry_name": "TELL U WHAT FC",
        "event_total": 57,
        "has_played": true,
        "id": 73495118,
        "last_rank": 77258,
        "player_name": "Sam Amponsah",
        "rank": 75494,
        "rank_sort": 75611,
        "total": 2337
      },
      {
        "club_badge_src": null,
        "entry": 9179404,
        "entry_name": "Gamification FC",
        "event_total": 51,
        "has_played": true,
        "id": 77230203,
        "last_rank": 64830,
        "player_name": "Linn Carin Andreassen",
        "rank": 75494,
        "rank_sort": 75612,
        "total": 2337
      },
      {
        "club_badge_src": null,
        "entry": 9244962,
        "entry_name": "Restored FC",
        "event_total": 63,
        "has_played": true,
        "id": 77873241,
        "last_rank": 90625,
        "player_name": "Alexander S\u00f6derberg",
        "rank": 75494,
        "rank_sort": 75613,
        "total": 2337
      },
      {
        "club_badge_src": null,
        "entry": 9510292,
        "entry_name": "Rodwell FC",
        "event_total": 39,
        "has_played": true,
        "id": 80432272,
        "last_rank": 45416,
        "player_name": "Jack Rodwell",
        "rank": 75494,
        "rank_sort": 75614,
        "total": 2337
      },
      {
        "club_badge_src": "https://fantasy.premierleague.com/gcs/plfpl-production-adobe-approved/plfpl-production/727/a7886d58-0131-4367-87df-670bda1f0ae1.png",
        "entry": 727,
        "entry_name": "You Kante Beat Me",
        "event_total": 62,
        "has_played": true,
        "id": 4016,
        "last_rank": 88249,
        "player_name": "Matt Rimmer",
        "rank": 75615,
        "rank_sort": 75615,
        "total": 2337
      },
      {
        "club_badge_src": null,
        "entry": 927,
        "entry_name": "Game of Throwins",
        "event_total": 64,
        "has_played": true,
        "id": 5129,
        "last_rank": 93186,
        "player_name": "Joe Banks",
        "rank": 75615,
        "rank_sort": 75616,
        "total": 2337
      },
      {
        "club_badge_src": "https://fantasy.premierleague.com/gcs/plfpl-production-adobe-approved/plfpl-production/1430/79ab06cc-c8b7-4d8a-8ab6-71d4aa397c65.png",
        "entry": 1430,
        "entry_name": "Rathnure United",
        "event_total": 63,
        "has_played": true,
        "id": 7945,
        "last_rank": 90746,
        "player_name": "Mark Boland",
        "rank": 75615,
        "rank_sort": 75617,
        "total": 2337
      },
      {
        "club_badge_src": "https://fantasy.premierleague.com/gcs/plfpl-production-adobe-approved/plfpl-production/5728/0bc44d1d-f8c1-469d-9944-9bfaefd34280.png",
        "entry": 5728,
        "entry_name": "Shaw & Order",
        "event_total": 57,
        "has_played": true,
        "id": 32701,
        "last_rank": 77258,
        "player_name": "Tom Shaw",
        "rank": 75615,
        "rank_sort": 75618,
        "total": 2337
      },
      {
        "club_badge_src": null,
        "entry": 6680,
        "entry_name": "AllezLeChef",
        "event_total": 58,
        "has_played": true,
        "id": 38373,
        "last_rank": 79079,
        "player_name": "Gary Cook",
        "rank": 75615,
        "rank_sort": 75619,
        "total": 2337
      },
      {
        "club_badge_src": null,
        "entry": 6693,
        "entry_name": "ItsPronouncedGyr\u00f6",
        "event_total": 64,
        "has_played": true,
        "id": 38464,
        "last_rank": 93186,
        "player_name": "Jarrett Freeman",
        "rank": 75615,
        "rank_sort": 75620,
        "total": 2337
      },
      {
        "club_badge_src": null,
        "entry": 11188,
        "entry_name": "im just a girl",
        "event_total": 51,
        "has_played": true,
        "id": 66411,
        "last_rank": 64830,
        "player_name": "Ilinca Cojocaru",
        "rank": 75615,
        "rank_sort": 75621,
        "total": 2337
      },
      {
        "club_badge_src": null,
        "entry": 19028,
        "entry_name": "Marginal Baines",
        "event_total": 50,
        "has_played": true,
        "id": 118421,
        "last_rank": 63724,
        "player_name": "Harry Podmore",
        "rank": 75615,
        "rank_sort": 75622,
        "total": 2337
      },
      {
        "club_badge_src": "https://fantasy.premierleague.com/gcs/plfpl-production-adobe-approved/plfpl-production/21688/2b69865d-41ac-4d35-b4ae-472940fb2d40.png",
        "entry": 21688,
        "entry_name": "The Kraken",
        "event_total": 40,
        "has_played": true,
        "id": 136043,
        "last_rank": 46839,
        "player_name": "Dominic Chan",
        "rank": 75615,
        "rank_sort": 75623,
        "total": 2337
      },
      {
        "club_badge_src": null,
        "entry": 25908,
        "entry_name": "Sevilla Depression",
        "event_total": 65,
        "has_played": true,
        "id": 163841,
        "last_rank": 95527,
        "player_name": "Harry GB",
        "rank": 75615,
        "rank_sort": 75624,
        "total": 2337
      },
      {
        "club_badge_src": "https://fantasy.premierleague.com/gcs/plfpl-production-adobe-approved/plfpl-production/26396/3ee8e814-b0f5-401c-9fd0-81cf22878296.png",
        "entry": 26396,
        "entry_name": "Bangjo Prapatan",
        "event_total": 58,
        "has_played": true,
        "id": 166896,
        "last_rank": 79431,
        "player_name": "Fajar Nur Fatah",
        "rank": 75615,
        "rank_sort": 75625,
        "total": 2337
      },
      {
        "club_badge_src": null,
        "entry": 27990,
        "entry_name": "Essential Est\u00eav\u00e3o",
        "event_total": 73,
        "has_played": true,
        "id": 177013,
        "last_rank": 116953,
        "player_name": "Xyd O",
        "rank": 75615,
        "rank_sort": 75626,
        "total": 2337
      },
      {
        "club_badge_src": "https://fantasy.premierleague.com/gcs/plfpl-production-adobe-approved/plfpl-production/36374/15940f2f-f2d9-4cae-b7a9-e33c0a42a4a9.png",
        "entry": 36374,
        "entry_name": "Pilsbury Triple ones",
        "event_total": 68,
        "has_played": true,
        "id": 232849,
        "last_rank": 103526,
        "player_name": "Andy Downing",
        "rank": 75615,
        "rank_sort": 75627,
        "total": 2337
      },
      {
        "club_badge_src": null,
        "entry": 36632,
        "entry_name": "Pen Gu Island FC",
        "event_total": 56,
        "has_played": true,
        "id": 234531,
        "last_rank": 75139,
        "player_name": "Adam Gonia",
        "rank": 75615,
        "rank_sort": 75628,
        "total": 2337
      },
      {
        "club_badge_src": null,
        "entry": 36653,
        "entry_name": "Gavin's Goal Diggers",
        "event_total": 51,
        "has_played": true,
        "id": 234661,
        "last_rank": 65163,
        "player_name": "Gavin Robinson",
        "rank": 75615,
        "rank_sort": 75629,
        "total": 2337
      },
      {
        "club_badge_src": null,
        "entry": 36771,
        "entry_name": "Borders Life",
        "event_total": 69,
        "has_played": true,
        "id": 235462,
        "last_rank": 105818,
        "player_name": "Colin Russell",
        "rank": 75615,
        "rank_sort": 75630,
        "total": 2337
      },
      {
        "club_badge_src": null,
        "entry": 37950,
        "entry_name": "Calafiorication",
        "event_total": 61,
        "has_played": true,
        "id": 243173,
        "last_rank": 86054,
        "player_name": "Jaymin Patel",
        "rank": 75615,
        "rank_sort": 75631,
        "total": 2337
      },
      {
        "club_badge_src": null,
        "entry": 38606,
        "entry_name": "My Rash is Gone",
        "event_total": 57,
        "has_played": true,
        "id": 247484,
        "last_rank": 77258,
        "player_name": "Patrick Selman",
        "rank": 75615,
        "rank_sort": 75632,
        "total": 2337
      },
      {
        "club_badge_src": null,
        "entry": 46349,
        "entry_name": "ABCDE FC",
        "event_total": 66,
        "has_played": true,
        "id": 297141,
        "last_rank": 98183,
        "player_name": "James Dudson",
        "rank": 75615,
        "rank_sort": 75633,
        "total": 2337
      },
      {
        "club_badge_src": null,
        "entry": 52695,
        "entry_name": "Turners Cross FC",
        "event_total": 62,
        "has_played": true,
        "id": 338833,
        "last_rank": 88594,
        "player_name": "swaraj chavan",
        "rank": 75615,
        "rank_sort": 75634,
        "total": 2337
      },
      {
        "club_badge_src": null,
        "entry": 53421,
        "entry_name": "Joker",
        "event_total": 58,
        "has_played": true,
        "id": 343693,
        "last_rank": 79190,
        "player_name": "Tody Ramdhani",
        "rank": 75615,
        "rank_sort": 75635,
        "total": 2337
      },
      {
        "club_badge_src": null,
        "entry": 56189,
        "entry_name": "Gordon the Rat",
        "event_total": 67,
        "has_played": true,
        "id": 361896,
        "last_rank": 90746,
        "player_name": "Colm Donnelly",
        "rank": 75615,
        "rank_sort": 75636,
        "total": 2337
      },
      {
        "club_badge_src": "https://fantasy.premierleague.com/gcs/plfpl-production-adobe-approved/plfpl-production/57576/dab8afc8-c737-4fa5-b86e-e512d3fface0.png",
        "entry": 57576,
        "entry_name": "Galacticos",
        "event_total": 45,
        "has_played": true,
        "id": 370918,
        "last_rank": 55014,
        "player_name": "Callum Campbell",
        "rank": 75615,
        "rank_sort": 75637,
        "total": 2337
      },
      {
        "club_badge_src": null,
        "entry": 63813,
        "entry_name": "Kod \u2764\ufe0f Aluko Koch",
        "event_total": 69,
        "has_played": true,
        "id": 411792,
        "last_rank": 105963,
        "player_name": "The Real Slim Schade",
        "rank": 75615,
        "rank_sort": 75638,
        "total": 2337
      },
      {
        "club_badge_src": null,
        "entry": 66827,
        "entry_name": "Limburger Speciaal",
        "event_total": 59,
        "has_played": true,
        "id": 432346,
        "last_rank": 81420,
        "player_name": "Peter Hart",
        "rank": 75615,
        "rank_sort": 75639,
        "total": 2337
      },
      {
        "club_badge_src": null,
        "entry": 69641,
        "entry_name": "Dom Kameelperde",
        "event_total": 64,
        "has_played": true,
        "id": 451835,
        "last_rank": 93186,
        "player_name": "Jeffrey Chang",
        "rank": 75615,
        "rank_sort": 75640,
        "total": 2337
      },
      {
        "club_badge_src": null,
        "entry": 69741,
        "entry_name": "BeatingJeffAgain",
        "event_total": 70,
        "has_played": true,
        "id": 452538,
        "last_rank": 108689,
        "player_name": "Anthony Lownds",
        "rank": 75615,
        "rank_sort": 75641,
        "total": 2337
      },
      {
        "club_badge_src": null,
        "entry": 73272,
        "entry_name": "Kings Road Kings",
        "event_total": 62,
        "has_played": true,
        "id": 476269,
        "last_rank": 88348,
        "player_name": "linden turner",
        "rank": 75615,
        "rank_sort": 75642,
        "total": 2337
      },
      {
        "club_badge_src": null,
        "entry": 79160,
        "entry_name": "Saka Potatoes",
        "event_total": 58,
        "has_played": true,
        "id": 514801,
        "last_rank": 79190,
        "player_name": "Emma Webster",
        "rank": 75615,
        "rank_sort": 75643,
        "total": 2337
      },
      {
        "club_badge_src": null,
        "entry": 79680,
        "entry_name": "Amadness",
        "event_total": 71,
        "has_played": true,
        "id": 518301,
        "last_rank": 111669,
        "player_name": "Zac Hoskins",
        "rank": 75615,
        "rank_sort": 75644,
        "total": 2337
      },
      {
        "club_badge_src": "https://fantasy.premierleague.com/gcs/plfpl-production-adobe-approved/plfpl-production/86999/6b1bc3b9-459d-4e8e-9e52-72875f615b7a.png",
        "entry": 86999,
        "entry_name": "the unbearables",
        "event_total": 78,
        "has_played": true,
        "id": 567211,
        "last_rank": 132758,
        "player_name": "stevo mc nevin",
        "rank": 75615,
        "rank_sort": 75645,
        "total": 2337
      },
      {
        "club_badge_src": null,
        "entry": 94198,
        "entry_name": "Sevo\u2019s_White_Shirt",
        "event_total": 52,
        "has_played": true,
        "id": 615520,
        "last_rank": 67063,
        "player_name": "Collins Muhumuza",
        "rank": 75615,
        "rank_sort": 75646,
        "total": 2337
      },
      {
        "club_badge_src": null,
        "entry": 95460,
        "entry_name": "Lil Uzi Wirtz",
        "event_total": 70,
        "has_played": true,
        "id": 623745,
        "last_rank": 108567,
        "player_name": "Luca Rivara",
        "rank": 75615,
        "rank_sort": 75647,
        "total": 2337
      },
      {
        "club_badge_src": null,
        "entry": 95845,
        "entry_name": "No Baal control",
        "event_total": 72,
        "has_played": true,
        "id": 626160,
        "last_rank": 114292,
        "player_name": "L.L. Baalbergen",
        "rank": 75615,
        "rank_sort": 75648,
        "total": 2337
      },
      {
        "club_badge_src": "https://fantasy.premierleague.com/gcs/plfpl-production-adobe-approved/plfpl-production/113573/68b47d0d-d0ae-42ba-bf42-b246bd38d2ba.png",
        "entry": 113573,
        "entry_name": "Interlect F.C.",
        "event_total": 58,
        "has_played": true,
        "id": 740726,
        "last_rank": 79431,
        "player_name": "KS Teo",
        "rank": 75615,
        "rank_sort": 75649,
        "total": 2337
      },
      {
        "club_badge_src": null,
        "entry": 119325,
        "entry_name": "Frimping pong",
        "event_total": 28,
        "has_played": true,
        "id": 778584,
        "last_rank": 31747,
        "player_name": "Tobey Ratnett",
        "rank": 75615,
        "rank_sort": 75650,
        "total": 2337
      }
    ]
  }
}