{
  "last_updated_data": "2026-05-24T23:28:17Z",
  "league": {
    "admin_entry": null,
    "closed": false,
    "code_privacy": "p",
    "created": "2025-07-20T23:14:33.933835Z",
    "cup_league": 2815434,
    "has_cup": true,
    "id": 314,
    "league_type": "s",
    "max_entries": null,
    "name": "Overall",
    "rank": null,
    "scoring": "c",
    "start_event": 1
  },
  "new_entries": {
    "has_next": false,
    "page": 1,
    "results": []
  },
  "standings": {
    "has_next": true,
    "page": 1266,
    "results": [
      {
        "club_badge_src": null,
        "entry": 4105107,
        "entry_name": "WARRAG",
        "event_total": 42,
        "has_played": true,
        "id": 31000360,
        "last_rank": 40647,
        "player_name": "Mohmd S.Warrag",
        "rank": 63076,
        "rank_sort": 63251,
        "total": 2344
      },
      {
        "club_badge_src": null,
        "entry": 4123643,
        "entry_name": "Onana b1n L4den",
        "event_total": 83,
        "has_played": true,
        "id": 31155056,
        "last_rank": 127749,
        "player_name": "Sal G",
        "rank": 63076,
        "rank_sort": 63252,
        "total": 2344
      },
      {
        "club_badge_src": null,
        "entry": 4133892,
        "entry_name": "Marchelano FC",
        "event_total": 67,
        "has_played": true,
        "id": 31240162,
        "last_rank": 75537,
        "player_name": "Issa Jabri",
        "rank": 63076,
        "rank_sort": 63253,
        "total": 2344
      },
      {
        "club_badge_src": null,
        "entry": 4144415,
        "entry_name": "Funky FC",
        "event_total": 54,
        "has_played": true,
        "id": 31323585,
        "last_rank": 58688,
        "player_name": "Garnett Howse",
        "rank": 63076,
        "rank_sort": 63254,
        "total": 2344
      },
      {
        "club_badge_src": null,
        "entry": 4151147,
        "entry_name": "Gyal Dem United",
        "event_total": 60,
        "has_played": true,
        "id": 31376051,
        "last_rank": 68957,
        "player_name": "Norman Tracey",
        "rank": 63076,
        "rank_sort": 63255,
        "total": 2344
      },
      {
        "club_badge_src": null,
        "entry": 4207033,
        "entry_name": "NoMoaland",
        "event_total": 51,
        "has_played": true,
        "id": 31849890,
        "last_rank": 53621,
        "player_name": "Jakub Soban",
        "rank": 63076,
        "rank_sort": 63256,
        "total": 2344
      },
      {
        "club_badge_src": null,
        "entry": 4314098,
        "entry_name": "Frimpingpong",
        "event_total": 56,
        "has_played": true,
        "id": 32736769,
        "last_rank": 61950,
        "player_name": "Will Tyne",
        "rank": 63076,
        "rank_sort": 63257,
        "total": 2344
      },
      {
        "club_badge_src": "https://fantasy.premierleague.com/gcs/plfpl-production-adobe-approved/plfpl-production/4327851/b31aa80d-2238-4155-94c2-6b39f70be844.png",
        "entry": 4327851,
        "entry_name": "Uzi11",
        "event_total": 67,
        "has_played": true,
        "id": 32847808,
        "last_rank": 75537,
        "player_name": "Uzair Osman",
        "rank": 63076,
        "rank_sort": 63258,
        "total": 2344
      },
      {
        "club_badge_src": null,
        "entry": 4354549,
        "entry_name": "Fighter FC",
        "event_total": 72,
        "has_played": true,
        "id": 33069672,
        "last_rank": 95640,
        "player_name": "Viktor Shine",
        "rank": 63076,
        "rank_sort": 63259,
        "total": 2344
      },
      {
        "club_badge_src": null,
        "entry": 4360887,
        "entry_name": "Pratik XI",
        "event_total": 66,
        "has_played": true,
        "id": 33121673,
        "last_rank": 82069,
        "player_name": "Pratik Premjani",
        "rank": 63076,
        "rank_sort": 63260,
        "total": 2344
      },
      {
        "club_badge_src": null,
        "entry": 4371381,
        "entry_name": "cunha matata",
        "event_total": 61,
        "has_played": true,
        "id": 33210518,
        "last_rank": 71713,
        "player_name": "Tobi Adebutu",
        "rank": 63076,
        "rank_sort": 63261,
        "total": 2344
      },
      {
        "club_badge_src": null,
        "entry": 4423925,
        "entry_name": "Hundpojkarna",
        "event_total": 59,
        "has_played": true,
        "id": 33663932,
        "last_rank": 67695,
        "player_name": "Johan Brannerydh",
        "rank": 63076,
        "rank_sort": 63262,
        "total": 2344
      },
      {
        "club_badge_src": null,
        "entry": 4489030,
        "entry_name": "Kurtknarkar",
        "event_total": 64,
        "has_played": true,
        "id": 34216857,
        "last_rank": 77258,
        "player_name": "Erik Andreasson",
        "rank": 63076,
        "rank_sort": 63263,
        "total": 2344
      },
      {
        "club_badge_src": null,
        "entry": 4649194,
        "entry_name": "Kai me a river",
        "event_total": 55,
        "has_played": true,
        "id": 35568222,
        "last_rank": 53345,
        "player_name": "Botond Szlabony",
        "rank": 63076,
        "rank_sort": 63264,
        "total": 2344
      },
      {
        "club_badge_src": null,
        "entry": 4659921,
        "entry_name": "Power Reijnders",
        "event_total": 67,
        "has_played": true,
        "id": 35678890,
        "last_rank": 84731,
        "player_name": "Matthew French",
        "rank": 63076,
        "rank_sort": 63265,
        "total": 2344
      },
      {
        "club_badge_src": null,
        "entry": 4689964,
        "entry_name": "Tiki Xhaka",
        "event_total": 44,
        "has_played": true,
        "id": 35946251,
        "last_rank": 37822,
        "player_name": "Charles Smith",
        "rank": 63076,
        "rank_sort": 63266,
        "total": 2344
      },
      {
        "club_badge_src": null,
        "entry": 4719210,
        "entry_name": "ESystem",
        "event_total": 65,
        "has_played": true,
        "id": 36247135,
        "last_rank": 80194,
        "player_name": "Ahmed Heikal",
        "rank": 63076,
        "rank_sort": 63267,
        "total": 2344
      },
      {
        "club_badge_src": null,
        "entry": 4849072,
        "entry_name": "In for De Jong Haul",
        "event_total": 67,
        "has_played": true,
        "id": 37358835,
        "last_rank": 84360,
        "player_name": "Matthew Pride",
        "rank": 63076,
        "rank_sort": 63268,
        "total": 2344
      },
      {
        "club_badge_src": null,
        "entry": 4987472,
        "entry_name": "Pat Kenny's Dynasty",
        "event_total": 68,
        "has_played": true,
        "id": 38503537,
        "last_rank": 87074,
        "player_name": "Eoghan Tuffy",
        "rank": 63076,
        "rank_sort": 63269,
        "total": 2344
      },
      {
        "club_badge_src": null,
        "entry": 5013760,
        "entry_name": "Rocket",
        "event_total": 52,
        "has_played": true,
        "id": 38717518,
        "last_rank": 55514,
        "player_name": "Abhinav Jain",
        "rank": 63076,
        "rank_sort": 63270,
        "total": 2344
      },
      {
        "club_badge_src": null,
        "entry": 5105439,
        "entry_name": "Occasionally United",
        "event_total": 56,
        "has_played": true,
        "id": 39464251,
        "last_rank": 54667,
        "player_name": "Ashley Kawasaki",
        "rank": 63076,
        "rank_sort": 63271,
        "total": 2344
      },
      {
        "club_badge_src": null,
        "entry": 5268505,
        "entry_name": "Moorland United",
        "event_total": 70,
        "has_played": true,
        "id": 40834370,
        "last_rank": 91835,
        "player_name": "Michael Winrow",
        "rank": 63076,
        "rank_sort": 63272,
        "total": 2344
      },
      {
        "club_badge_src": null,
        "entry": 5304411,
        "entry_name": "Charlestown Chiefs",
        "event_total": 59,
        "has_played": true,
        "id": 41117602,
        "last_rank": 67695,
        "player_name": "James Cain",
        "rank": 63076,
        "rank_sort": 63273,
        "total": 2344
      },
      {
        "club_badge_src": null,
        "entry": 5371682,
        "entry_name": "\u0648\u0627\u0644\u062a\u0631 \u0627\u0644\u0627\u0628\u064a\u0636",
        "event_total": 33,
        "has_played": true,
        "id": 41740975,
        "last_rank": 30060,
        "player_name": "Mohamed Rabie",
        "rank": 63076,
        "rank_sort": 63274,
        "total": 2344
      },
      {
        "club_badge_src": null,
        "entry": 5408215,
        "entry_name": "frankshtine",
        "event_total": 47,
        "has_played": true,
        "id": 42054614,
        "last_rank": 47417,
        "player_name": "tarek Elsandafawy",
        "rank": 63076,
        "rank_sort": 63275,
        "total": 2344
      },
      {
        "club_badge_src": null,
        "entry": 5418561,
        "entry_name": "I Scored A Joel",
        "event_total": 54,
        "has_played": true,
        "id": 42141420,
        "last_rank": 45416,
        "player_name": "Ceinwen Pryce",
        "rank": 63076,
        "rank_sort": 63276,
        "total": 2344
      },
      {
        "club_badge_src": null,
        "entry": 5442097,
        "entry_name": "Karl",
        "event_total": 58,
        "has_played": true,
        "id": 42341706,
        "last_rank": 58388,
        "player_name": "Karl Chan",
        "rank": 63076,
        "rank_sort": 63277,
        "total": 2344
      },
      {
        "club_badge_src": "https://fantasy.premierleague.com/gcs/plfpl-production-adobe-approved/plfpl-production/5470650/62719dcb-f8b7-4c04-8c43-ff545443bd25.png",
        "entry": 5470650,
        "entry_name": "Nod Eleven",
        "event_total": 50,
        "has_played": true,
        "id": 42583501,
        "last_rank": 51984,
        "player_name": "Khairul Anwar",
        "rank": 63076,
        "rank_sort": 63278,
        "total": 2344
      },
      {
        "club_badge_src": null,
        "entry": 5517861,
        "entry_name": "Mbuemo-Says No",
        "event_total": 59,
        "has_played": true,
        "id": 43022423,
        "last_rank": 67695,
        "player_name": "hasit jethwa",
        "rank": 63076,
        "rank_sort": 63279,
        "total": 2344
      },
      {
        "club_badge_src": null,
        "entry": 5564882,
        "entry_name": "Gyok on 3",
        "event_total": 43,
        "has_played": true,
        "id": 43448554,
        "last_rank": 41824,
        "player_name": "Rian Cassidy",
        "rank": 63076,
        "rank_sort": 63280,
        "total": 2344
      },
      {
        "club_badge_src": null,
        "entry": 5587289,
        "entry_name": "The No Hopes",
        "event_total": 51,
        "has_played": true,
        "id": 43646602,
        "last_rank": 53621,
        "player_name": "Patrick Fawbert Mills",
        "rank": 63076,
        "rank_sort": 63281,
        "total": 2344
      },
      {
        "club_badge_src": null,
        "entry": 5599101,
        "entry_name": "Sibirski plavci",
        "event_total": 68,
        "has_played": true,
        "id": 43748699,
        "last_rank": 86735,
        "player_name": "Bakir Bajrovic",
        "rank": 63076,
        "rank_sort": 63282,
        "total": 2344
      },
      {
        "club_badge_src": null,
        "entry": 5700930,
        "entry_name": "Ponne United",
        "event_total": 34,
        "has_played": true,
        "id": 44635919,
        "last_rank": 31125,
        "player_name": "Pontus Johansson",
        "rank": 63076,
        "rank_sort": 63283,
        "total": 2344
      },
      {
        "club_badge_src": null,
        "entry": 5727302,
        "entry_name": "doubleo",
        "event_total": 66,
        "has_played": true,
        "id": 44865467,
        "last_rank": 82069,
        "player_name": "Chris Hornby",
        "rank": 63076,
        "rank_sort": 63284,
        "total": 2344
      },
      {
        "club_badge_src": "https://fantasy.premierleague.com/gcs/plfpl-production-adobe-approved/plfpl-production/5754789/ff220953-55fd-4e62-a872-02fc50af078f.png",
        "entry": 5754789,
        "entry_name": "Not Isakly Sure FC",
        "event_total": 70,
        "has_played": true,
        "id": 45108542,
        "last_rank": 82069,
        "player_name": "Jeffrey Celis",
        "rank": 63076,
        "rank_sort": 63285,
        "total": 2344
      },
      {
        "club_badge_src": null,
        "entry": 5809881,
        "entry_name": "Menachem Team",
        "event_total": 55,
        "has_played": true,
        "id": 45585188,
        "last_rank": 60462,
        "player_name": "Guy Menachem",
        "rank": 63076,
        "rank_sort": 63286,
        "total": 2344
      },
      {
        "club_badge_src": null,
        "entry": 5879924,
        "entry_name": "Barmby on the Marsh",
        "event_total": 56,
        "has_played": true,
        "id": 46186610,
        "last_rank": 61950,
        "player_name": "JJ Comeau",
        "rank": 63076,
        "rank_sort": 63287,
        "total": 2344
      },
      {
        "club_badge_src": "https://fantasy.premierleague.com/gcs/plfpl-production-adobe-approved/plfpl-production/5927388/1822f88a-adff-47b6-947f-92739ca19e67.png",
        "entry": 5927388,
        "entry_name": "Underdog Shepherd",
        "event_total": 80,
        "has_played": true,
        "id": 46594948,
        "last_rank": 106259,
        "player_name": "Underdog Shepherd",
        "rank": 63076,
        "rank_sort": 63288,
        "total": 2344
      },
      {
        "club_badge_src": null,
        "entry": 5945275,
        "entry_name": "TBXI",
        "event_total": 70,
        "has_played": true,
        "id": 46756660,
        "last_rank": 91835,
        "player_name": "Tom Baber",
        "rank": 63076,
        "rank_sort": 63289,
        "total": 2344
      },
      {
        "club_badge_src": null,
        "entry": 5968880,
        "entry_name": "The Safety Danns",
        "event_total": 65,
        "has_played": true,
        "id": 46965219,
        "last_rank": 79817,
        "player_name": "Boris Leigh",
        "rank": 63076,
        "rank_sort": 63290,
        "total": 2344
      },
      {
        "club_badge_src": null,
        "entry": 6076551,
        "entry_name": "Wirtz nightmare",
        "event_total": 67,
        "has_played": true,
        "id": 47971906,
        "last_rank": 84731,
        "player_name": "Matt Cant",
        "rank": 63076,
        "rank_sort": 63291,
        "total": 2344
      },
      {
        "club_badge_src": null,
        "entry": 6085248,
        "entry_name": "H\u00e4\u00e4\u00e4rliga Finsp\u00e5ng",
        "event_total": 59,
        "has_played": true,
        "id": 48048101,
        "last_rank": 60168,
        "player_name": "Henrik Nyr\u00e9n",
        "rank": 63076,
        "rank_sort": 63292,
        "total": 2344
      },
      {
        "club_badge_src": null,
        "entry": 6086193,
        "entry_name": "mohd",
        "event_total": 59,
        "has_played": true,
        "id": 48056353,
        "last_rank": 52853,
        "player_name": "Mohd Salah",
        "rank": 63076,
        "rank_sort": 63293,
        "total": 2344
      },
      {
        "club_badge_src": "https://fantasy.premierleague.com/gcs/plfpl-production-adobe-approved/plfpl-production/6095184/574aebed-6241-4a94-a1a7-53ce563cbd40.png",
        "entry": 6095184,
        "entry_name": "Feno mvp",
        "event_total": 63,
        "has_played": true,
        "id": 48134571,
        "last_rank": 75874,
        "player_name": "imad feno",
        "rank": 63076,
        "rank_sort": 63294,
        "total": 2344
      },
      {
        "club_badge_src": null,
        "entry": 6139810,
        "entry_name": "Palmer my hands",
        "event_total": 60,
        "has_played": true,
        "id": 48523763,
        "last_rank": 69323,
        "player_name": "Nick Wilkie",
        "rank": 63076,
        "rank_sort": 63295,
        "total": 2344
      },
      {
        "club_badge_src": null,
        "entry": 6196893,
        "entry_name": "Van De Ven Diagram",
        "event_total": 77,
        "has_played": true,
        "id": 49018408,
        "last_rank": 110187,
        "player_name": "Stephen Kelly",
        "rank": 63076,
        "rank_sort": 63296,
        "total": 2344
      },
      {
        "club_badge_src": null,
        "entry": 6201134,
        "entry_name": "Howes Mags",
        "event_total": 70,
        "has_played": true,
        "id": 49054874,
        "last_rank": 82069,
        "player_name": "Lee Megahy",
        "rank": 63076,
        "rank_sort": 63297,
        "total": 2344
      },
      {
        "club_badge_src": null,
        "entry": 6267885,
        "entry_name": "Jeriq",
        "event_total": 56,
        "has_played": true,
        "id": 49631183,
        "last_rank": 62223,
        "player_name": "Jerry Ndukwe",
        "rank": 63076,
        "rank_sort": 63298,
        "total": 2344
      },
      {
        "club_badge_src": null,
        "entry": 6291596,
        "entry_name": "number one",
        "event_total": 63,
        "has_played": true,
        "id": 49852562,
        "last_rank": 76128,
        "player_name": "Mt3b al7rby",
        "rank": 63076,
        "rank_sort": 63299,
        "total": 2344
      },
      {
        "club_badge_src": null,
        "entry": 6314542,
        "entry_name": "JT-C",
        "event_total": 48,
        "has_played": true,
        "id": 50108204,
        "last_rank": 48898,
        "player_name": "jesada trakulpark",
        "rank": 63076,
        "rank_sort": 63300,
        "total": 2344
      }
    ]
  }
}