{
  "last_updated_data": "2026-05-24T23:28:17Z",
  "league": {
    "admin_entry": null,
    "closed": false,
    "code_privacy": "p",
    "created": "2025-07-20T23:14:33.933835Z",
    "cup_league": 2815434,
    "has_cup": true,
    "id": 314,
    "league_type": "s",
    "max_entries": null,
    "name": "Overall",
    "rank": null,
    "scoring": "c",
    "start_event": 1
  },
  "new_entries": {
    "has_next": false,
    "page": 1,
    "results": []
  },
  "standings": {
    "has_next": true,
    "page": 1444,
    "results": [
      {
        "club_badge_src": null,
        "entry": 1597006,
        "entry_name": "Coonagh Tunas \ufffd",
        "event_total": 61,
        "has_played": true,
        "id": 11171678,
        "last_rank": 82069,
        "player_name": "Danny O'Donovan",
        "rank": 72012,
        "rank_sort": 72151,
        "total": 2339
      },
      {
        "club_badge_src": null,
        "entry": 1604938,
        "entry_name": "Boyzin' Blue",
        "event_total": 61,
        "has_played": true,
        "id": 11228407,
        "last_rank": 73038,
        "player_name": "Njabulo Mnembe",
        "rank": 72012,
        "rank_sort": 72152,
        "total": 2339
      },
      {
        "club_badge_src": null,
        "entry": 1657280,
        "entry_name": "GiGi",
        "event_total": 53,
        "has_played": true,
        "id": 11602855,
        "last_rank": 65163,
        "player_name": "Danial Najat",
        "rank": 72012,
        "rank_sort": 72153,
        "total": 2339
      },
      {
        "club_badge_src": null,
        "entry": 1670770,
        "entry_name": "Ghost XI",
        "event_total": 53,
        "has_played": true,
        "id": 11697685,
        "last_rank": 65475,
        "player_name": "Kurt Paulse",
        "rank": 72012,
        "rank_sort": 72154,
        "total": 2339
      },
      {
        "club_badge_src": "https://fantasy.premierleague.com/gcs/plfpl-production-adobe-approved/plfpl-production/1696786/dd7a1d36-4531-4059-adce-0002a13a89ce.png",
        "entry": 1696786,
        "entry_name": "BURNOUT FC",
        "event_total": 74,
        "has_played": true,
        "id": 11884676,
        "last_rank": 114292,
        "player_name": "Ragav Dangol",
        "rank": 72012,
        "rank_sort": 72155,
        "total": 2339
      },
      {
        "club_badge_src": "https://fantasy.premierleague.com/gcs/plfpl-production-adobe-approved/plfpl-production/1742172/57d782d6-e1b4-49bb-98fd-c50f90e0702e.png",
        "entry": 1742172,
        "entry_name": "Cirta defender",
        "event_total": 42,
        "has_played": true,
        "id": 12223956,
        "last_rank": 47163,
        "player_name": "mohamed fethi",
        "rank": 72012,
        "rank_sort": 72156,
        "total": 2339
      },
      {
        "club_badge_src": null,
        "entry": 1754848,
        "entry_name": "SIKO BISO KISO",
        "event_total": 59,
        "has_played": true,
        "id": 12319753,
        "last_rank": 77676,
        "player_name": "Youssef Jneyah",
        "rank": 72012,
        "rank_sort": 72157,
        "total": 2339
      },
      {
        "club_badge_src": null,
        "entry": 1755195,
        "entry_name": "Victor Moses Lawn",
        "event_total": 68,
        "has_played": true,
        "id": 12322239,
        "last_rank": 98896,
        "player_name": "Joe Lynch",
        "rank": 72012,
        "rank_sort": 72158,
        "total": 2339
      },
      {
        "club_badge_src": null,
        "entry": 1782216,
        "entry_name": "hugo.fm",
        "event_total": 63,
        "has_played": true,
        "id": 12521602,
        "last_rank": 86735,
        "player_name": "Hugo Catchpole",
        "rank": 72012,
        "rank_sort": 72159,
        "total": 2339
      },
      {
        "club_badge_src": null,
        "entry": 1797563,
        "entry_name": "Like a Virgil",
        "event_total": 58,
        "has_played": true,
        "id": 12632697,
        "last_rank": 75537,
        "player_name": "Robbe Van Hoye",
        "rank": 72012,
        "rank_sort": 72160,
        "total": 2339
      },
      {
        "club_badge_src": null,
        "entry": 1815152,
        "entry_name": "Worse Than Grant",
        "event_total": 59,
        "has_played": true,
        "id": 12764181,
        "last_rank": 77676,
        "player_name": "Daryl Mclellan",
        "rank": 72012,
        "rank_sort": 72161,
        "total": 2339
      },
      {
        "club_badge_src": null,
        "entry": 1854124,
        "entry_name": "33",
        "event_total": 64,
        "has_played": true,
        "id": 13047545,
        "last_rank": 89055,
        "player_name": "Mostafa ElAssar",
        "rank": 72012,
        "rank_sort": 72162,
        "total": 2339
      },
      {
        "club_badge_src": null,
        "entry": 1872422,
        "entry_name": "mene Nyame n'\u025bnam",
        "event_total": 58,
        "has_played": true,
        "id": 13182253,
        "last_rank": 75537,
        "player_name": "Kwasi Darteh",
        "rank": 72012,
        "rank_sort": 72163,
        "total": 2339
      },
      {
        "club_badge_src": null,
        "entry": 1919591,
        "entry_name": "Bourns Supremacy",
        "event_total": 65,
        "has_played": true,
        "id": 13535929,
        "last_rank": 91466,
        "player_name": "Richard Bourns",
        "rank": 72012,
        "rank_sort": 72164,
        "total": 2339
      },
      {
        "club_badge_src": null,
        "entry": 1938603,
        "entry_name": "Engels r\u00f8de djevler",
        "event_total": 53,
        "has_played": true,
        "id": 13673671,
        "last_rank": 65475,
        "player_name": "Marius Engelsgaard",
        "rank": 72012,
        "rank_sort": 72165,
        "total": 2339
      },
      {
        "club_badge_src": null,
        "entry": 2073392,
        "entry_name": "ditoxteam",
        "event_total": 59,
        "has_played": true,
        "id": 14700128,
        "last_rank": 77676,
        "player_name": "Doudou fantasy",
        "rank": 72012,
        "rank_sort": 72166,
        "total": 2339
      },
      {
        "club_badge_src": null,
        "entry": 2139173,
        "entry_name": "kinder Mbeumo",
        "event_total": 51,
        "has_played": true,
        "id": 15202929,
        "last_rank": 61950,
        "player_name": "Tom MacLennan",
        "rank": 72012,
        "rank_sort": 72167,
        "total": 2339
      },
      {
        "club_badge_src": "https://fantasy.premierleague.com/gcs/plfpl-production-adobe-approved/plfpl-production/2176265/b84043d4-8411-487f-b2e6-c7cc28fdbfc4.png",
        "entry": 2176265,
        "entry_name": "Rivervale United",
        "event_total": 52,
        "has_played": true,
        "id": 15475228,
        "last_rank": 64005,
        "player_name": "Kerwin Tang",
        "rank": 72012,
        "rank_sort": 72168,
        "total": 2339
      },
      {
        "club_badge_src": null,
        "entry": 2188509,
        "entry_name": "2 STARZ FC",
        "event_total": 42,
        "has_played": true,
        "id": 15569199,
        "last_rank": 47163,
        "player_name": "maaz mehmood",
        "rank": 72012,
        "rank_sort": 72169,
        "total": 2339
      },
      {
        "club_badge_src": "https://fantasy.premierleague.com/gcs/plfpl-production-adobe-approved/plfpl-production/2192646/854ede2a-b14a-4d21-9a30-9b13ffcf3741.png",
        "entry": 2192646,
        "entry_name": "Real Madyid Champs",
        "event_total": 49,
        "has_played": true,
        "id": 15600125,
        "last_rank": 57857,
        "player_name": "Dan Morgan",
        "rank": 72012,
        "rank_sort": 72170,
        "total": 2339
      },
      {
        "club_badge_src": null,
        "entry": 2196518,
        "entry_name": "Tree at the Back",
        "event_total": 59,
        "has_played": true,
        "id": 15629214,
        "last_rank": 77258,
        "player_name": "Dominic Tree",
        "rank": 72012,
        "rank_sort": 72171,
        "total": 2339
      },
      {
        "club_badge_src": null,
        "entry": 2210467,
        "entry_name": "The Slot Machine",
        "event_total": 59,
        "has_played": true,
        "id": 15740557,
        "last_rank": 77258,
        "player_name": "Nish Patel",
        "rank": 72012,
        "rank_sort": 72172,
        "total": 2339
      },
      {
        "club_badge_src": null,
        "entry": 2297422,
        "entry_name": "Cotton Ghandi",
        "event_total": 64,
        "has_played": true,
        "id": 16385683,
        "last_rank": 89055,
        "player_name": "Taihou Harris",
        "rank": 72012,
        "rank_sort": 72173,
        "total": 2339
      },
      {
        "club_badge_src": null,
        "entry": 2299850,
        "entry_name": "jarno",
        "event_total": 53,
        "has_played": true,
        "id": 16403277,
        "last_rank": 65475,
        "player_name": "jarno kosman",
        "rank": 72012,
        "rank_sort": 72174,
        "total": 2339
      },
      {
        "club_badge_src": null,
        "entry": 2389424,
        "entry_name": "SECRET SUPERSTAR",
        "event_total": 58,
        "has_played": true,
        "id": 17067266,
        "last_rank": 75874,
        "player_name": "ashutosh joshi",
        "rank": 72012,
        "rank_sort": 72175,
        "total": 2339
      },
      {
        "club_badge_src": null,
        "entry": 2395193,
        "entry_name": "Stchen FC",
        "event_total": 58,
        "has_played": true,
        "id": 17110785,
        "last_rank": 74898,
        "player_name": "Chris Brand",
        "rank": 72012,
        "rank_sort": 72176,
        "total": 2339
      },
      {
        "club_badge_src": null,
        "entry": 2433310,
        "entry_name": "Livin' Saliba Loca",
        "event_total": 56,
        "has_played": true,
        "id": 17400124,
        "last_rank": 71386,
        "player_name": "Elliot Wilson",
        "rank": 72012,
        "rank_sort": 72177,
        "total": 2339
      },
      {
        "club_badge_src": null,
        "entry": 2457674,
        "entry_name": "Houston Rockets 34",
        "event_total": 48,
        "has_played": true,
        "id": 17579179,
        "last_rank": 56708,
        "player_name": "Witold Tadeusz",
        "rank": 72012,
        "rank_sort": 72178,
        "total": 2339
      },
      {
        "club_badge_src": null,
        "entry": 2480204,
        "entry_name": "Sultanistas",
        "event_total": 68,
        "has_played": true,
        "id": 17746355,
        "last_rank": 98436,
        "player_name": "Ahmad Sultan",
        "rank": 72012,
        "rank_sort": 72179,
        "total": 2339
      },
      {
        "club_badge_src": null,
        "entry": 2492017,
        "entry_name": "FC MOUSSE",
        "event_total": 64,
        "has_played": true,
        "id": 17840474,
        "last_rank": 88594,
        "player_name": "Francois Vandenberghe",
        "rank": 72012,
        "rank_sort": 72180,
        "total": 2339
      },
      {
        "club_badge_src": null,
        "entry": 2499258,
        "entry_name": "N5 Gang",
        "event_total": 48,
        "has_played": true,
        "id": 17894398,
        "last_rank": 57001,
        "player_name": "Simon Arvidsson",
        "rank": 72012,
        "rank_sort": 72181,
        "total": 2339
      },
      {
        "club_badge_src": null,
        "entry": 2506634,
        "entry_name": "Scooby snacks",
        "event_total": 69,
        "has_played": true,
        "id": 17950747,
        "last_rank": 101419,
        "player_name": "Sivert S\u00f8berg",
        "rank": 72012,
        "rank_sort": 72182,
        "total": 2339
      },
      {
        "club_badge_src": null,
        "entry": 2530010,
        "entry_name": "Joker",
        "event_total": 66,
        "has_played": true,
        "id": 18129274,
        "last_rank": 94255,
        "player_name": "Nagib Kasem",
        "rank": 72012,
        "rank_sort": 72183,
        "total": 2339
      },
      {
        "club_badge_src": null,
        "entry": 2530612,
        "entry_name": "Redbird15",
        "event_total": 37,
        "has_played": true,
        "id": 18133608,
        "last_rank": 40297,
        "player_name": "Ray Cardinali",
        "rank": 72012,
        "rank_sort": 72184,
        "total": 2339
      },
      {
        "club_badge_src": null,
        "entry": 2593555,
        "entry_name": "Rosarioooh",
        "event_total": 61,
        "has_played": true,
        "id": 18622158,
        "last_rank": 81420,
        "player_name": "Stuart Bremner",
        "rank": 72012,
        "rank_sort": 72185,
        "total": 2339
      },
      {
        "club_badge_src": null,
        "entry": 2600275,
        "entry_name": "\u0414\u0438\u043d\u0430\u043c\u043e",
        "event_total": 71,
        "has_played": true,
        "id": 18675150,
        "last_rank": 107162,
        "player_name": "\u0412\u0456\u0442\u0430\u043b\u0456\u0439 \u041b\u0438\u0441\u0435\u043d\u043a\u043e",
        "rank": 72012,
        "rank_sort": 72186,
        "total": 2339
      },
      {
        "club_badge_src": "https://fantasy.premierleague.com/gcs/plfpl-production-adobe-approved/plfpl-production/2636894/f7883980-2eec-445a-96cd-8dc4e49167b7.png",
        "entry": 2636894,
        "entry_name": "Are you Amad ?",
        "event_total": 59,
        "has_played": true,
        "id": 18951414,
        "last_rank": 77258,
        "player_name": "SAM JONES",
        "rank": 72012,
        "rank_sort": 72187,
        "total": 2339
      },
      {
        "club_badge_src": null,
        "entry": 2669806,
        "entry_name": "Stumpy_United",
        "event_total": 63,
        "has_played": true,
        "id": 19194620,
        "last_rank": 86304,
        "player_name": "Joanna Winning",
        "rank": 72012,
        "rank_sort": 72188,
        "total": 2339
      },
      {
        "club_badge_src": null,
        "entry": 2710129,
        "entry_name": "Xhaka Whites Market",
        "event_total": 66,
        "has_played": true,
        "id": 19498813,
        "last_rank": 93883,
        "player_name": "Adam Lindsay",
        "rank": 72012,
        "rank_sort": 72189,
        "total": 2339
      },
      {
        "club_badge_src": null,
        "entry": 2714097,
        "entry_name": "OneSeasonSalah",
        "event_total": 67,
        "has_played": true,
        "id": 19528147,
        "last_rank": 96374,
        "player_name": "Linus Skagerf\u00e4lt",
        "rank": 72012,
        "rank_sort": 72190,
        "total": 2339
      },
      {
        "club_badge_src": null,
        "entry": 2754630,
        "entry_name": "Partizan Downgrade",
        "event_total": 63,
        "has_played": true,
        "id": 20053333,
        "last_rank": 86735,
        "player_name": "Ben Richardson",
        "rank": 72012,
        "rank_sort": 72191,
        "total": 2339
      },
      {
        "club_badge_src": null,
        "entry": 2765338,
        "entry_name": "Boca Seniros",
        "event_total": 58,
        "has_played": true,
        "id": 20175339,
        "last_rank": 74898,
        "player_name": "Lubo\u0161 Jon\u00e1\u0161",
        "rank": 72012,
        "rank_sort": 72192,
        "total": 2339
      },
      {
        "club_badge_src": null,
        "entry": 2811239,
        "entry_name": "Glamorama",
        "event_total": 42,
        "has_played": true,
        "id": 20532773,
        "last_rank": 47163,
        "player_name": "Tibor Dekker",
        "rank": 72012,
        "rank_sort": 72193,
        "total": 2339
      },
      {
        "club_badge_src": null,
        "entry": 2834819,
        "entry_name": "BlackBurna Boy",
        "event_total": 61,
        "has_played": true,
        "id": 20716102,
        "last_rank": 81646,
        "player_name": "Peter Remon",
        "rank": 72012,
        "rank_sort": 72194,
        "total": 2339
      },
      {
        "club_badge_src": null,
        "entry": 2852243,
        "entry_name": "HaCunha Matata",
        "event_total": 42,
        "has_played": true,
        "id": 20854955,
        "last_rank": 47417,
        "player_name": "John Espino",
        "rank": 72012,
        "rank_sort": 72195,
        "total": 2339
      },
      {
        "club_badge_src": null,
        "entry": 2870779,
        "entry_name": "Ugarte Be Kidding Me",
        "event_total": 60,
        "has_played": true,
        "id": 21003244,
        "last_rank": 79817,
        "player_name": "Anders \u00d8lst\u00f8rn",
        "rank": 72012,
        "rank_sort": 72196,
        "total": 2339
      },
      {
        "club_badge_src": null,
        "entry": 2894685,
        "entry_name": "Beef Cherki",
        "event_total": 73,
        "has_played": true,
        "id": 21207399,
        "last_rank": 111669,
        "player_name": "Elliot Dickens",
        "rank": 72012,
        "rank_sort": 72197,
        "total": 2339
      },
      {
        "club_badge_src": null,
        "entry": 2938399,
        "entry_name": "Os Marrecos",
        "event_total": 51,
        "has_played": true,
        "id": 21560669,
        "last_rank": 61950,
        "player_name": "Andr\u00e9 Santos",
        "rank": 72012,
        "rank_sort": 72198,
        "total": 2339
      },
      {
        "club_badge_src": null,
        "entry": 2967722,
        "entry_name": "Pr\u00f8vigjen FC",
        "event_total": 65,
        "has_played": true,
        "id": 21803395,
        "last_rank": 91006,
        "player_name": "Henrik Sander",
        "rank": 72012,
        "rank_sort": 72199,
        "total": 2339
      },
      {
        "club_badge_src": null,
        "entry": 2984167,
        "entry_name": "gaengerjoe",
        "event_total": 38,
        "has_played": true,
        "id": 21941925,
        "last_rank": 41824,
        "player_name": "Basit Rauf",
        "rank": 72012,
        "rank_sort": 72200,
        "total": 2339
      }
    ]
  }
}