{
  "last_updated_data": "2026-05-24T23:28:17Z",
  "league": {
    "admin_entry": null,
    "closed": false,
    "code_privacy": "p",
    "created": "2025-07-20T23:14:33.933835Z",
    "cup_league": 2815434,
    "has_cup": true,
    "id": 314,
    "league_type": "s",
    "max_entries": null,
    "name": "Overall",
    "rank": null,
    "scoring": "c",
    "start_event": 1
  },
  "new_entries": {
    "has_next": false,
    "page": 1,
    "results": []
  },
  "standings": {
    "has_next": true,
    "page": 1560,
    "results": [
      {
        "club_badge_src": null,
        "entry": 2462543,
        "entry_name": "LYON",
        "event_total": 65,
        "has_played": true,
        "id": 17614677,
        "last_rank": 98436,
        "player_name": "George Musyimi",
        "rank": 77757,
        "rank_sort": 77951,
        "total": 2336
      },
      {
        "club_badge_src": null,
        "entry": 2469601,
        "entry_name": "oddballers",
        "event_total": 58,
        "has_played": true,
        "id": 17666905,
        "last_rank": 81646,
        "player_name": "Clive Battrick",
        "rank": 77757,
        "rank_sort": 77952,
        "total": 2336
      },
      {
        "club_badge_src": null,
        "entry": 2476098,
        "entry_name": "BukayoBukayo619",
        "event_total": 55,
        "has_played": true,
        "id": 17715599,
        "last_rank": 75139,
        "player_name": "Patrick McGauley",
        "rank": 77757,
        "rank_sort": 77953,
        "total": 2336
      },
      {
        "club_badge_src": "https://fantasy.premierleague.com/gcs/plfpl-production-adobe-approved/plfpl-production/2476335/cb62ffd5-d6eb-4bd8-a827-89f62e41c9f1.png",
        "entry": 2476335,
        "entry_name": "Pluto fc",
        "event_total": 56,
        "has_played": true,
        "id": 17717404,
        "last_rank": 77676,
        "player_name": "Michael Ayi",
        "rank": 77757,
        "rank_sort": 77954,
        "total": 2336
      },
      {
        "club_badge_src": null,
        "entry": 2555858,
        "entry_name": "BBQ",
        "event_total": 49,
        "has_played": true,
        "id": 18327230,
        "last_rank": 63390,
        "player_name": "Jimmy Hrouda",
        "rank": 77757,
        "rank_sort": 77955,
        "total": 2336
      },
      {
        "club_badge_src": "https://fantasy.premierleague.com/gcs/plfpl-production-adobe-approved/plfpl-production/2567645/8cac0998-b48c-4c04-aef3-a5fa94a50f32.png",
        "entry": 2567645,
        "entry_name": "Ach_z",
        "event_total": 46,
        "has_played": true,
        "id": 18419947,
        "last_rank": 58071,
        "player_name": "achraf Z",
        "rank": 77757,
        "rank_sort": 77956,
        "total": 2336
      },
      {
        "club_badge_src": null,
        "entry": 2595310,
        "entry_name": "Change Name",
        "event_total": 51,
        "has_played": true,
        "id": 18636549,
        "last_rank": 67063,
        "player_name": "Marcus Rutter",
        "rank": 77757,
        "rank_sort": 77957,
        "total": 2336
      },
      {
        "club_badge_src": null,
        "entry": 2596342,
        "entry_name": "Brighton Early",
        "event_total": 71,
        "has_played": true,
        "id": 18644349,
        "last_rank": 114574,
        "player_name": "Iain Hunter",
        "rank": 77757,
        "rank_sort": 77958,
        "total": 2336
      },
      {
        "club_badge_src": null,
        "entry": 2597860,
        "entry_name": "Crystals",
        "event_total": 79,
        "has_played": true,
        "id": 18656579,
        "last_rank": 139335,
        "player_name": "Matt Trussler",
        "rank": 77757,
        "rank_sort": 77959,
        "total": 2336
      },
      {
        "club_badge_src": null,
        "entry": 2645612,
        "entry_name": "Tk",
        "event_total": 43,
        "has_played": true,
        "id": 19015412,
        "last_rank": 53023,
        "player_name": "Turki Alqarni",
        "rank": 77757,
        "rank_sort": 77960,
        "total": 2336
      },
      {
        "club_badge_src": "https://fantasy.premierleague.com/gcs/plfpl-production-adobe-approved/plfpl-production/2663374/ec21cc81-2ef4-448f-bfeb-919f37768540.png",
        "entry": 2663374,
        "entry_name": "Cherking the ch\u00f8de",
        "event_total": 68,
        "has_played": true,
        "id": 19145943,
        "last_rank": 106259,
        "player_name": "Jack Crawford",
        "rank": 77757,
        "rank_sort": 77961,
        "total": 2336
      },
      {
        "club_badge_src": null,
        "entry": 2683319,
        "entry_name": "SCMM",
        "event_total": 28,
        "has_played": true,
        "id": 19298938,
        "last_rank": 32879,
        "player_name": "Rajarshi Bera",
        "rank": 77757,
        "rank_sort": 77962,
        "total": 2336
      },
      {
        "club_badge_src": null,
        "entry": 2718005,
        "entry_name": "Czarni S\u0142upsk",
        "event_total": 44,
        "has_played": true,
        "id": 19557084,
        "last_rank": 55014,
        "player_name": "Jakub Konieczny",
        "rank": 77757,
        "rank_sort": 77963,
        "total": 2336
      },
      {
        "club_badge_src": "https://fantasy.premierleague.com/gcs/plfpl-production-adobe-approved/plfpl-production/2720531/efaf606a-37fb-4a76-a096-70121fcd5dea.png",
        "entry": 2720531,
        "entry_name": "Forza Felice",
        "event_total": 66,
        "has_played": true,
        "id": 19576196,
        "last_rank": 100949,
        "player_name": "Felice Pucino",
        "rank": 77757,
        "rank_sort": 77964,
        "total": 2336
      },
      {
        "club_badge_src": null,
        "entry": 2761524,
        "entry_name": "Lil Uzi Wirtz",
        "event_total": 52,
        "has_played": true,
        "id": 20146227,
        "last_rank": 68748,
        "player_name": "Ethan Aliano",
        "rank": 77757,
        "rank_sort": 77965,
        "total": 2336
      },
      {
        "club_badge_src": null,
        "entry": 2782089,
        "entry_name": "Charli xGx",
        "event_total": 64,
        "has_played": true,
        "id": 20307533,
        "last_rank": 95527,
        "player_name": "Alex Ferrigno",
        "rank": 77757,
        "rank_sort": 77966,
        "total": 2336
      },
      {
        "club_badge_src": null,
        "entry": 2786124,
        "entry_name": "All Stars",
        "event_total": 67,
        "has_played": true,
        "id": 20340026,
        "last_rank": 103054,
        "player_name": "Ali N",
        "rank": 77757,
        "rank_sort": 77967,
        "total": 2336
      },
      {
        "club_badge_src": null,
        "entry": 2799898,
        "entry_name": "scranaldinho",
        "event_total": 54,
        "has_played": true,
        "id": 20445565,
        "last_rank": 72815,
        "player_name": "ross jamieson",
        "rank": 77757,
        "rank_sort": 77968,
        "total": 2336
      },
      {
        "club_badge_src": null,
        "entry": 2826339,
        "entry_name": "Snoop Dawg Jacks",
        "event_total": 68,
        "has_played": true,
        "id": 20650352,
        "last_rank": 106259,
        "player_name": "Jeff Carne",
        "rank": 77757,
        "rank_sort": 77969,
        "total": 2336
      },
      {
        "club_badge_src": null,
        "entry": 2857481,
        "entry_name": "Flop Gun Maverick",
        "event_total": 54,
        "has_played": true,
        "id": 20895450,
        "last_rank": 73038,
        "player_name": "Robert Farley-Hills",
        "rank": 77757,
        "rank_sort": 77970,
        "total": 2336
      },
      {
        "club_badge_src": "https://fantasy.premierleague.com/gcs/plfpl-production-adobe-approved/plfpl-production/2882309/1567461d-aec3-461f-9ed1-66d93db537c2.png",
        "entry": 2882309,
        "entry_name": "kurdistan fc",
        "event_total": 53,
        "has_played": true,
        "id": 21100155,
        "last_rank": 70985,
        "player_name": "Mahmood Mohammed",
        "rank": 77757,
        "rank_sort": 77971,
        "total": 2336
      },
      {
        "club_badge_src": null,
        "entry": 2894034,
        "entry_name": "gyoks-a-red",
        "event_total": 54,
        "has_played": true,
        "id": 21200478,
        "last_rank": 73423,
        "player_name": "john silva",
        "rank": 77757,
        "rank_sort": 77972,
        "total": 2336
      },
      {
        "club_badge_src": null,
        "entry": 2904338,
        "entry_name": "FC T\u00e5paj",
        "event_total": 40,
        "has_played": true,
        "id": 21284381,
        "last_rank": 48197,
        "player_name": "Jonas Johansson",
        "rank": 77757,
        "rank_sort": 77973,
        "total": 2336
      },
      {
        "club_badge_src": null,
        "entry": 2919839,
        "entry_name": "Rhajae FC",
        "event_total": 52,
        "has_played": true,
        "id": 21403794,
        "last_rank": 68957,
        "player_name": "Mikhail Holmes",
        "rank": 77757,
        "rank_sort": 77974,
        "total": 2336
      },
      {
        "club_badge_src": null,
        "entry": 2925308,
        "entry_name": "Tesco McNeil Deal",
        "event_total": 59,
        "has_played": true,
        "id": 21445412,
        "last_rank": 83698,
        "player_name": "Conor Duncan",
        "rank": 77757,
        "rank_sort": 77975,
        "total": 2336
      },
      {
        "club_badge_src": null,
        "entry": 2957902,
        "entry_name": "Out on Bale",
        "event_total": 42,
        "has_played": true,
        "id": 21726141,
        "last_rank": 51403,
        "player_name": "Jolyon Roderick",
        "rank": 77757,
        "rank_sort": 77976,
        "total": 2336
      },
      {
        "club_badge_src": "https://fantasy.premierleague.com/gcs/plfpl-production-adobe-approved/plfpl-production/2963068/4f6d1377-c5f3-4e70-ae8c-0ddd0c195c0d.png",
        "entry": 2963068,
        "entry_name": "Top Gunner",
        "event_total": 55,
        "has_played": true,
        "id": 21766972,
        "last_rank": 75139,
        "player_name": "Chun Laam CHAN",
        "rank": 77757,
        "rank_sort": 77977,
        "total": 2336
      },
      {
        "club_badge_src": null,
        "entry": 2980674,
        "entry_name": "United top 4.",
        "event_total": 64,
        "has_played": true,
        "id": 21914873,
        "last_rank": 95640,
        "player_name": "Oscar Omland",
        "rank": 77757,
        "rank_sort": 77978,
        "total": 2336
      },
      {
        "club_badge_src": null,
        "entry": 3067887,
        "entry_name": "RKs XI",
        "event_total": 53,
        "has_played": true,
        "id": 22589385,
        "last_rank": 70985,
        "player_name": "Ryan Kenna",
        "rank": 77757,
        "rank_sort": 77979,
        "total": 2336
      },
      {
        "club_badge_src": null,
        "entry": 3141749,
        "entry_name": "Bowen Arrow",
        "event_total": 60,
        "has_played": true,
        "id": 23194847,
        "last_rank": 85932,
        "player_name": "Iain Turnbull",
        "rank": 77757,
        "rank_sort": 77980,
        "total": 2336
      },
      {
        "club_badge_src": null,
        "entry": 3153701,
        "entry_name": "Stranger Mings",
        "event_total": 70,
        "has_played": true,
        "id": 23291302,
        "last_rank": 111405,
        "player_name": "Cole Johnston",
        "rank": 77757,
        "rank_sort": 77981,
        "total": 2336
      },
      {
        "club_badge_src": null,
        "entry": 3158604,
        "entry_name": "CR7",
        "event_total": 50,
        "has_played": true,
        "id": 23331032,
        "last_rank": 65163,
        "player_name": "mina Mina Wajih",
        "rank": 77757,
        "rank_sort": 77982,
        "total": 2336
      },
      {
        "club_badge_src": null,
        "entry": 3180925,
        "entry_name": "Athletico Gus Stiver",
        "event_total": 65,
        "has_played": true,
        "id": 23505320,
        "last_rank": 98183,
        "player_name": "Gus Stiver",
        "rank": 77757,
        "rank_sort": 77983,
        "total": 2336
      },
      {
        "club_badge_src": "https://fantasy.premierleague.com/gcs/plfpl-production-adobe-approved/plfpl-production/3184186/91ceebc4-06ed-477e-ab6a-b527cb350b7d.png",
        "entry": 3184186,
        "entry_name": "All Hail Duck",
        "event_total": 62,
        "has_played": true,
        "id": 23530652,
        "last_rank": 90746,
        "player_name": "Aron Levitz",
        "rank": 77757,
        "rank_sort": 77984,
        "total": 2336
      },
      {
        "club_badge_src": null,
        "entry": 3192409,
        "entry_name": "Winter",
        "event_total": 61,
        "has_played": true,
        "id": 23593963,
        "last_rank": 88185,
        "player_name": "Danny Law",
        "rank": 77757,
        "rank_sort": 77985,
        "total": 2336
      },
      {
        "club_badge_src": null,
        "entry": 3208353,
        "entry_name": "Kulusexy",
        "event_total": 69,
        "has_played": true,
        "id": 23719430,
        "last_rank": 108959,
        "player_name": "Matthew Bright",
        "rank": 77757,
        "rank_sort": 77986,
        "total": 2336
      },
      {
        "club_badge_src": "https://fantasy.premierleague.com/gcs/plfpl-production-adobe-approved/plfpl-production/3272314/1f9a6eaa-5d08-4bc2-80e3-e959e98a602d.png",
        "entry": 3272314,
        "entry_name": "Steady We Go",
        "event_total": 48,
        "has_played": true,
        "id": 24216859,
        "last_rank": 61606,
        "player_name": "Ryan Stidi",
        "rank": 77757,
        "rank_sort": 77987,
        "total": 2336
      },
      {
        "club_badge_src": null,
        "entry": 3272719,
        "entry_name": "NoBigDeal",
        "event_total": 65,
        "has_played": true,
        "id": 24219931,
        "last_rank": 98183,
        "player_name": "Kelvin Chu",
        "rank": 77757,
        "rank_sort": 77988,
        "total": 2336
      },
      {
        "club_badge_src": null,
        "entry": 3292315,
        "entry_name": "Mindes Mandehold",
        "event_total": 65,
        "has_played": true,
        "id": 24377440,
        "last_rank": 98183,
        "player_name": "Frederik Mindested",
        "rank": 77757,
        "rank_sort": 77989,
        "total": 2336
      },
      {
        "club_badge_src": null,
        "entry": 3309943,
        "entry_name": "Somebody Call 115",
        "event_total": 50,
        "has_played": true,
        "id": 24522212,
        "last_rank": 64943,
        "player_name": "Joe May",
        "rank": 77757,
        "rank_sort": 77990,
        "total": 2336
      },
      {
        "club_badge_src": "https://fantasy.premierleague.com/gcs/plfpl-production-adobe-approved/plfpl-production/3354171/a1719586-156b-4ea7-a72b-c7551786ad62.png",
        "entry": 3354171,
        "entry_name": "johnwick",
        "event_total": 54,
        "has_played": true,
        "id": 24884114,
        "last_rank": 73038,
        "player_name": "Manvir Sandhu",
        "rank": 77757,
        "rank_sort": 77991,
        "total": 2336
      },
      {
        "club_badge_src": null,
        "entry": 3528848,
        "entry_name": "FCH",
        "event_total": 59,
        "has_played": true,
        "id": 26263341,
        "last_rank": 83934,
        "player_name": "Fritz Walleczek",
        "rank": 77757,
        "rank_sort": 77992,
        "total": 2336
      },
      {
        "club_badge_src": null,
        "entry": 3573395,
        "entry_name": "Give Solanke Kudus",
        "event_total": 53,
        "has_played": true,
        "id": 26608153,
        "last_rank": 70985,
        "player_name": "Paul Washer",
        "rank": 77757,
        "rank_sort": 77993,
        "total": 2336
      },
      {
        "club_badge_src": null,
        "entry": 3576311,
        "entry_name": "El VinTa",
        "event_total": 25,
        "has_played": true,
        "id": 26630670,
        "last_rank": 29688,
        "player_name": "Houssem Mansour",
        "rank": 77757,
        "rank_sort": 77994,
        "total": 2336
      },
      {
        "club_badge_src": null,
        "entry": 3583626,
        "entry_name": "ZoumaMendy",
        "event_total": 46,
        "has_played": true,
        "id": 26687284,
        "last_rank": 57743,
        "player_name": "Karim Shams",
        "rank": 77757,
        "rank_sort": 77995,
        "total": 2336
      },
      {
        "club_badge_src": null,
        "entry": 3596362,
        "entry_name": "SorcerersXI",
        "event_total": 47,
        "has_played": true,
        "id": 26784477,
        "last_rank": 59813,
        "player_name": "Pawan Khadka",
        "rank": 77757,
        "rank_sort": 77996,
        "total": 2336
      },
      {
        "club_badge_src": null,
        "entry": 3601882,
        "entry_name": "The Bocellis",
        "event_total": 75,
        "has_played": true,
        "id": 26826849,
        "last_rank": 125939,
        "player_name": "Luca Chiaravalloti",
        "rank": 77757,
        "rank_sort": 77997,
        "total": 2336
      },
      {
        "club_badge_src": null,
        "entry": 3762055,
        "entry_name": "Northville FC",
        "event_total": 42,
        "has_played": true,
        "id": 28089174,
        "last_rank": 51403,
        "player_name": "Pete Jones",
        "rank": 77757,
        "rank_sort": 77998,
        "total": 2336
      },
      {
        "club_badge_src": null,
        "entry": 3823191,
        "entry_name": "the Gunners",
        "event_total": 66,
        "has_played": true,
        "id": 28595465,
        "last_rank": 100949,
        "player_name": "Obaida Shams Aldeen",
        "rank": 77757,
        "rank_sort": 77999,
        "total": 2336
      },
      {
        "club_badge_src": null,
        "entry": 3861760,
        "entry_name": "perWRITZ united",
        "event_total": 57,
        "has_played": true,
        "id": 28955007,
        "last_rank": 79431,
        "player_name": "Dombigdik Szoboszlad",
        "rank": 77757,
        "rank_sort": 78000,
        "total": 2336
      }
    ]
  }
}