{
  "last_updated_data": "2026-05-24T23:28:17Z",
  "league": {
    "admin_entry": null,
    "closed": false,
    "code_privacy": "p",
    "created": "2025-07-20T23:14:33.933835Z",
    "cup_league": 2815434,
    "has_cup": true,
    "id": 314,
    "league_type": "s",
    "max_entries": null,
    "name": "Overall",
    "rank": null,
    "scoring": "c",
    "start_event": 1
  },
  "new_entries": {
    "has_next": false,
    "page": 1,
    "results": []
  },
  "standings": {
    "has_next": true,
    "page": 610,
    "results": [
      {
        "club_badge_src": null,
        "entry": 5738962,
        "entry_name": "Palmer Violets",
        "event_total": 61,
        "has_played": true,
        "id": 44967431,
        "last_rank": 34578,
        "player_name": "Tom Harries",
        "rank": 30371,
        "rank_sort": 30451,
        "total": 2368
      },
      {
        "club_badge_src": null,
        "entry": 6333514,
        "entry_name": "Comme ci Konsa",
        "event_total": 62,
        "has_played": true,
        "id": 50336255,
        "last_rank": 31125,
        "player_name": "AbdulRazzak El-Samsam",
        "rank": 30371,
        "rank_sort": 30452,
        "total": 2368
      },
      {
        "club_badge_src": null,
        "entry": 6498704,
        "entry_name": "Slide (A)",
        "event_total": 70,
        "has_played": true,
        "id": 51810145,
        "last_rank": 46106,
        "player_name": "James E",
        "rank": 30371,
        "rank_sort": 30453,
        "total": 2368
      },
      {
        "club_badge_src": null,
        "entry": 6561026,
        "entry_name": "Duel Machine",
        "event_total": 72,
        "has_played": true,
        "id": 52365237,
        "last_rank": 32879,
        "player_name": "Jesu Khalsa",
        "rank": 30371,
        "rank_sort": 30454,
        "total": 2368
      },
      {
        "club_badge_src": null,
        "entry": 7120322,
        "entry_name": "Lost for Wirtz",
        "event_total": 69,
        "has_played": true,
        "id": 57369068,
        "last_rank": 44672,
        "player_name": "Kieron Domo",
        "rank": 30371,
        "rank_sort": 30455,
        "total": 2368
      },
      {
        "club_badge_src": "https://fantasy.premierleague.com/gcs/plfpl-production-adobe-approved/plfpl-production/7439606/baab9631-44c8-44bb-a445-052d4cb07e31.png",
        "entry": 7439606,
        "entry_name": "Trobul_Fc",
        "event_total": 52,
        "has_played": true,
        "id": 60497823,
        "last_rank": 25172,
        "player_name": "Biketi T",
        "rank": 30371,
        "rank_sort": 30456,
        "total": 2368
      },
      {
        "club_badge_src": null,
        "entry": 7449871,
        "entry_name": "KaKin2025",
        "event_total": 69,
        "has_played": true,
        "id": 60631999,
        "last_rank": 44672,
        "player_name": "terry wong",
        "rank": 30371,
        "rank_sort": 30457,
        "total": 2368
      },
      {
        "club_badge_src": null,
        "entry": 7577186,
        "entry_name": "The Trandlets",
        "event_total": 53,
        "has_played": true,
        "id": 62058122,
        "last_rank": 26345,
        "player_name": "Tim Rand",
        "rank": 30371,
        "rank_sort": 30458,
        "total": 2368
      },
      {
        "club_badge_src": "https://fantasy.premierleague.com/gcs/plfpl-production-adobe-approved/plfpl-production/7631373/3c46567b-356f-4295-bb7f-8923e021296e.png",
        "entry": 7631373,
        "entry_name": "Reece's Set Pieces",
        "event_total": 70,
        "has_played": true,
        "id": 62547878,
        "last_rank": 40297,
        "player_name": "Natasha Cooper",
        "rank": 30371,
        "rank_sort": 30459,
        "total": 2368
      },
      {
        "club_badge_src": null,
        "entry": 7635425,
        "entry_name": "OpTic Eagle",
        "event_total": 59,
        "has_played": true,
        "id": 62584742,
        "last_rank": 32190,
        "player_name": "Brogan Saunders",
        "rank": 30371,
        "rank_sort": 30460,
        "total": 2368
      },
      {
        "club_badge_src": null,
        "entry": 8007179,
        "entry_name": "Sjcloniz",
        "event_total": 65,
        "has_played": true,
        "id": 65948222,
        "last_rank": 39246,
        "player_name": "OH SJ",
        "rank": 30371,
        "rank_sort": 30461,
        "total": 2368
      },
      {
        "club_badge_src": null,
        "entry": 8036240,
        "entry_name": "__________",
        "event_total": 64,
        "has_played": true,
        "id": 66211981,
        "last_rank": 38163,
        "player_name": "Zain Abbood",
        "rank": 30371,
        "rank_sort": 30462,
        "total": 2368
      },
      {
        "club_badge_src": null,
        "entry": 8144564,
        "entry_name": "abo yazan elmasry",
        "event_total": 56,
        "has_played": true,
        "id": 67218071,
        "last_rank": 29279,
        "player_name": "Mohamed Farouk",
        "rank": 30371,
        "rank_sort": 30463,
        "total": 2368
      },
      {
        "club_badge_src": null,
        "entry": 9269864,
        "entry_name": "Chebin' It",
        "event_total": 57,
        "has_played": true,
        "id": 78116877,
        "last_rank": 30191,
        "player_name": "Karl Hobson",
        "rank": 30371,
        "rank_sort": 30464,
        "total": 2368
      },
      {
        "club_badge_src": null,
        "entry": 21643,
        "entry_name": "Ibiza Final Boscagli",
        "event_total": 54,
        "has_played": true,
        "id": 135755,
        "last_rank": 23748,
        "player_name": "Jenson Underwood",
        "rank": 30465,
        "rank_sort": 30465,
        "total": 2368
      },
      {
        "club_badge_src": null,
        "entry": 39035,
        "entry_name": "Ligue 2 Warriors",
        "event_total": 58,
        "has_played": true,
        "id": 250213,
        "last_rank": 27304,
        "player_name": "Leo Piesvaux",
        "rank": 30465,
        "rank_sort": 30466,
        "total": 2368
      },
      {
        "club_badge_src": null,
        "entry": 65145,
        "entry_name": "Lets Be Avin' You FC",
        "event_total": 65,
        "has_played": true,
        "id": 420488,
        "last_rank": 34578,
        "player_name": "Darren Larder",
        "rank": 30465,
        "rank_sort": 30467,
        "total": 2368
      },
      {
        "club_badge_src": null,
        "entry": 85593,
        "entry_name": "Loverpool",
        "event_total": 51,
        "has_played": true,
        "id": 557496,
        "last_rank": 18377,
        "player_name": "Tzahi Anton",
        "rank": 30465,
        "rank_sort": 30468,
        "total": 2368
      },
      {
        "club_badge_src": "https://fantasy.premierleague.com/gcs/plfpl-production-adobe-approved/plfpl-production/132593/288d3c2d-2c12-4ed6-b0e6-49161570ad98.png",
        "entry": 132593,
        "entry_name": "Frag in the Kop",
        "event_total": 56,
        "has_played": true,
        "id": 863708,
        "last_rank": 25330,
        "player_name": "Alex Lee-Warner",
        "rank": 30465,
        "rank_sort": 30469,
        "total": 2368
      },
      {
        "club_badge_src": "https://fantasy.premierleague.com/gcs/plfpl-production-adobe-approved/plfpl-production/137012/24af3850-8972-46fa-b0ad-74a92223f98c.png",
        "entry": 137012,
        "entry_name": "Eau de gaard",
        "event_total": 51,
        "has_played": true,
        "id": 892805,
        "last_rank": 21392,
        "player_name": "Matt Thompson",
        "rank": 30465,
        "rank_sort": 30470,
        "total": 2368
      },
      {
        "club_badge_src": null,
        "entry": 179299,
        "entry_name": "Ekitekky Tekkytike",
        "event_total": 60,
        "has_played": true,
        "id": 1183222,
        "last_rank": 33582,
        "player_name": "Alex Johnston",
        "rank": 30465,
        "rank_sort": 30471,
        "total": 2368
      },
      {
        "club_badge_src": null,
        "entry": 179446,
        "entry_name": "Brennan Jerry's",
        "event_total": 54,
        "has_played": true,
        "id": 1184187,
        "last_rank": 27304,
        "player_name": "Pranav Chitnis",
        "rank": 30465,
        "rank_sort": 30472,
        "total": 2368
      },
      {
        "club_badge_src": null,
        "entry": 214992,
        "entry_name": "Kinder Mbeumo",
        "event_total": 58,
        "has_played": true,
        "id": 1430094,
        "last_rank": 27304,
        "player_name": "Brendan Tam",
        "rank": 30465,
        "rank_sort": 30473,
        "total": 2368
      },
      {
        "club_badge_src": "https://fantasy.premierleague.com/gcs/plfpl-production-adobe-approved/plfpl-production/247085/daa58c5a-ed97-4e43-9367-c31dd852a2dd.png",
        "entry": 247085,
        "entry_name": "Keeping it Cole",
        "event_total": 58,
        "has_played": true,
        "id": 1644773,
        "last_rank": 27304,
        "player_name": "Kristian Alberg",
        "rank": 30465,
        "rank_sort": 30474,
        "total": 2368
      },
      {
        "club_badge_src": null,
        "entry": 289342,
        "entry_name": "DanteFc",
        "event_total": 54,
        "has_played": true,
        "id": 1928726,
        "last_rank": 27364,
        "player_name": "Daniel Rios",
        "rank": 30465,
        "rank_sort": 30475,
        "total": 2368
      },
      {
        "club_badge_src": null,
        "entry": 630489,
        "entry_name": "Double Champ",
        "event_total": 41,
        "has_played": true,
        "id": 4260500,
        "last_rank": 17194,
        "player_name": "Anthony Daly",
        "rank": 30465,
        "rank_sort": 30476,
        "total": 2368
      },
      {
        "club_badge_src": null,
        "entry": 640474,
        "entry_name": "\u26bd\ufe0f",
        "event_total": 64,
        "has_played": true,
        "id": 4328571,
        "last_rank": 33332,
        "player_name": "Peder Andreas Nielsen",
        "rank": 30465,
        "rank_sort": 30477,
        "total": 2368
      },
      {
        "club_badge_src": null,
        "entry": 646952,
        "entry_name": "De Cuyper Belt",
        "event_total": 80,
        "has_played": true,
        "id": 4372127,
        "last_rank": 55514,
        "player_name": "Olukemi Popoola",
        "rank": 30465,
        "rank_sort": 30478,
        "total": 2368
      },
      {
        "club_badge_src": null,
        "entry": 670280,
        "entry_name": "Sjubabaloba",
        "event_total": 62,
        "has_played": true,
        "id": 4533301,
        "last_rank": 35867,
        "player_name": "Alf Minothi",
        "rank": 30465,
        "rank_sort": 30479,
        "total": 2368
      },
      {
        "club_badge_src": null,
        "entry": 687846,
        "entry_name": "Bijolly Good Times",
        "event_total": 43,
        "has_played": true,
        "id": 4656800,
        "last_rank": 18520,
        "player_name": "Ben Winders",
        "rank": 30465,
        "rank_sort": 30480,
        "total": 2368
      },
      {
        "club_badge_src": null,
        "entry": 696458,
        "entry_name": "Pele Confidential",
        "event_total": 64,
        "has_played": true,
        "id": 4717361,
        "last_rank": 33483,
        "player_name": "Benjamin Matthews",
        "rank": 30465,
        "rank_sort": 30481,
        "total": 2368
      },
      {
        "club_badge_src": "https://fantasy.premierleague.com/gcs/plfpl-production-adobe-approved/plfpl-production/717602/3bfa4a16-e0a3-46f8-a751-ffb79a4617e3.png",
        "entry": 717602,
        "entry_name": "Barely Managing",
        "event_total": 66,
        "has_played": true,
        "id": 4869137,
        "last_rank": 35768,
        "player_name": "Geoff Kettle",
        "rank": 30465,
        "rank_sort": 30482,
        "total": 2368
      },
      {
        "club_badge_src": null,
        "entry": 787635,
        "entry_name": "Top of the Flops",
        "event_total": 81,
        "has_played": true,
        "id": 5385133,
        "last_rank": 56708,
        "player_name": "John Pilkington",
        "rank": 30465,
        "rank_sort": 30483,
        "total": 2368
      },
      {
        "club_badge_src": null,
        "entry": 805071,
        "entry_name": "Maverick",
        "event_total": 58,
        "has_played": true,
        "id": 5511042,
        "last_rank": 31236,
        "player_name": "Adarsh Karle",
        "rank": 30465,
        "rank_sort": 30484,
        "total": 2368
      },
      {
        "club_badge_src": null,
        "entry": 811735,
        "entry_name": "Amroso FC",
        "event_total": 71,
        "has_played": true,
        "id": 5557818,
        "last_rank": 41967,
        "player_name": "Ameir Salib",
        "rank": 30465,
        "rank_sort": 30485,
        "total": 2368
      },
      {
        "club_badge_src": null,
        "entry": 904870,
        "entry_name": "\u0644\u064a\u0641\u0631\u0628\u0648\u0644 \u0641\u0631\u0642\u0647 \u0645\u0644\u0637",
        "event_total": 63,
        "has_played": true,
        "id": 6217891,
        "last_rank": 32335,
        "player_name": "Anas Ahmed",
        "rank": 30465,
        "rank_sort": 30486,
        "total": 2368
      },
      {
        "club_badge_src": null,
        "entry": 927847,
        "entry_name": "DCFC",
        "event_total": 55,
        "has_played": true,
        "id": 6383340,
        "last_rank": 24570,
        "player_name": "Daniel Cooper",
        "rank": 30465,
        "rank_sort": 30487,
        "total": 2368
      },
      {
        "club_badge_src": null,
        "entry": 1119342,
        "entry_name": "First to Wirtz",
        "event_total": 56,
        "has_played": true,
        "id": 7753528,
        "last_rank": 29279,
        "player_name": "Craig Ekedahl",
        "rank": 30465,
        "rank_sort": 30488,
        "total": 2368
      },
      {
        "club_badge_src": "https://fantasy.premierleague.com/gcs/plfpl-production-adobe-approved/plfpl-production/1377113/3543013a-740c-4468-b084-24ac8bdde3d3.png",
        "entry": 1377113,
        "entry_name": "Atl\u00e9tico San Pancho",
        "event_total": 49,
        "has_played": true,
        "id": 9572664,
        "last_rank": 22996,
        "player_name": "Andres Sierra",
        "rank": 30465,
        "rank_sort": 30489,
        "total": 2368
      },
      {
        "club_badge_src": null,
        "entry": 1407666,
        "entry_name": "Zirkzee-Me-Rollin",
        "event_total": 61,
        "has_played": true,
        "id": 9794705,
        "last_rank": 30191,
        "player_name": "Ashley Atkinson",
        "rank": 30465,
        "rank_sort": 30490,
        "total": 2368
      },
      {
        "club_badge_src": null,
        "entry": 1419075,
        "entry_name": "Mellby Brunkers",
        "event_total": 63,
        "has_played": true,
        "id": 9880514,
        "last_rank": 32190,
        "player_name": "Adam Axelsson",
        "rank": 30465,
        "rank_sort": 30491,
        "total": 2368
      },
      {
        "club_badge_src": null,
        "entry": 1452709,
        "entry_name": "Kung Fu Cantona",
        "event_total": 85,
        "has_played": true,
        "id": 10122507,
        "last_rank": 72145,
        "player_name": "Andrew Graves",
        "rank": 30465,
        "rank_sort": 30492,
        "total": 2368
      },
      {
        "club_badge_src": "https://fantasy.premierleague.com/gcs/plfpl-production-adobe-approved/plfpl-production/1544926/8bb19697-60ae-43d4-92d2-e766aac7f797.png",
        "entry": 1544926,
        "entry_name": "M&M's",
        "event_total": 59,
        "has_played": true,
        "id": 10784449,
        "last_rank": 32335,
        "player_name": "Manu Manandhar",
        "rank": 30465,
        "rank_sort": 30493,
        "total": 2368
      },
      {
        "club_badge_src": null,
        "entry": 1671121,
        "entry_name": "FC BKcelona",
        "event_total": 55,
        "has_played": true,
        "id": 11700075,
        "last_rank": 28348,
        "player_name": "BK Jung",
        "rank": 30465,
        "rank_sort": 30494,
        "total": 2368
      },
      {
        "club_badge_src": null,
        "entry": 1765603,
        "entry_name": "All-Star Warriors",
        "event_total": 78,
        "has_played": true,
        "id": 12401460,
        "last_rank": 59170,
        "player_name": "Chantelle Hamilton",
        "rank": 30465,
        "rank_sort": 30495,
        "total": 2368
      },
      {
        "club_badge_src": null,
        "entry": 1849732,
        "entry_name": "hm team",
        "event_total": 57,
        "has_played": true,
        "id": 13015912,
        "last_rank": 26345,
        "player_name": "hamza mach",
        "rank": 30465,
        "rank_sort": 30496,
        "total": 2368
      },
      {
        "club_badge_src": null,
        "entry": 1901469,
        "entry_name": "Shiver me Timber",
        "event_total": 64,
        "has_played": true,
        "id": 13404146,
        "last_rank": 38163,
        "player_name": "Ash Shaw",
        "rank": 30465,
        "rank_sort": 30497,
        "total": 2368
      },
      {
        "club_badge_src": null,
        "entry": 1976775,
        "entry_name": "lakeiene",
        "event_total": 69,
        "has_played": true,
        "id": 13953891,
        "last_rank": 44672,
        "player_name": "Mathias Eriksen",
        "rank": 30465,
        "rank_sort": 30498,
        "total": 2368
      },
      {
        "club_badge_src": null,
        "entry": 2072483,
        "entry_name": "JonzaBall",
        "event_total": 64,
        "has_played": true,
        "id": 14693482,
        "last_rank": 38163,
        "player_name": "Joona Sirkka",
        "rank": 30465,
        "rank_sort": 30499,
        "total": 2368
      },
      {
        "club_badge_src": null,
        "entry": 2397852,
        "entry_name": "club Art",
        "event_total": 64,
        "has_played": true,
        "id": 17130704,
        "last_rank": 38267,
        "player_name": "Zahou Ala",
        "rank": 30465,
        "rank_sort": 30500,
        "total": 2368
      }
    ]
  }
}