{
  "last_updated_data": "2026-05-24T23:28:17Z",
  "league": {
    "admin_entry": null,
    "closed": false,
    "code_privacy": "p",
    "created": "2025-07-20T23:14:33.933835Z",
    "cup_league": 2815434,
    "has_cup": true,
    "id": 314,
    "league_type": "s",
    "max_entries": null,
    "name": "Overall",
    "rank": null,
    "scoring": "c",
    "start_event": 1
  },
  "new_entries": {
    "has_next": false,
    "page": 1,
    "results": []
  },
  "standings": {
    "has_next": true,
    "page": 833,
    "results": [
      {
        "club_badge_src": null,
        "entry": 199211,
        "entry_name": "Abdo Bianconeri",
        "event_total": 61,
        "has_played": true,
        "id": 1322128,
        "last_rank": 41617,
        "player_name": "abdo sellewa",
        "rank": 41573,
        "rank_sort": 41601,
        "total": 2358
      },
      {
        "club_badge_src": null,
        "entry": 208550,
        "entry_name": "Onana Plaza FC",
        "event_total": 66,
        "has_played": true,
        "id": 1386641,
        "last_rank": 55311,
        "player_name": "Ben Robertson-Macleod",
        "rank": 41573,
        "rank_sort": 41602,
        "total": 2358
      },
      {
        "club_badge_src": null,
        "entry": 237325,
        "entry_name": "Nairne Knights",
        "event_total": 66,
        "has_played": true,
        "id": 1578970,
        "last_rank": 54494,
        "player_name": "Olav Hollebrandse",
        "rank": 41573,
        "rank_sort": 41603,
        "total": 2358
      },
      {
        "club_badge_src": null,
        "entry": 246884,
        "entry_name": "THIS IS ARNE-FIELD",
        "event_total": 65,
        "has_played": true,
        "id": 1643498,
        "last_rank": 47163,
        "player_name": "RICHARD CARTER",
        "rank": 41573,
        "rank_sort": 41604,
        "total": 2358
      },
      {
        "club_badge_src": "https://fantasy.premierleague.com/gcs/plfpl-production-adobe-approved/plfpl-production/251330/73008f53-57ab-47d1-a6f5-128cd60b47b6.png",
        "entry": 251330,
        "entry_name": "FK Radni\u010dki 2025",
        "event_total": 65,
        "has_played": true,
        "id": 1672048,
        "last_rank": 47163,
        "player_name": "Vladimir Martinovi\u0107",
        "rank": 41573,
        "rank_sort": 41605,
        "total": 2358
      },
      {
        "club_badge_src": null,
        "entry": 256901,
        "entry_name": "Whatever",
        "event_total": 64,
        "has_played": true,
        "id": 1708601,
        "last_rank": 45714,
        "player_name": "Paul Wheatcroft",
        "rank": 41573,
        "rank_sort": 41606,
        "total": 2358
      },
      {
        "club_badge_src": null,
        "entry": 261755,
        "entry_name": "Crazy Rich Dejans",
        "event_total": 44,
        "has_played": true,
        "id": 1740069,
        "last_rank": 27020,
        "player_name": "Kyle Sampson",
        "rank": 41573,
        "rank_sort": 41607,
        "total": 2358
      },
      {
        "club_badge_src": null,
        "entry": 292131,
        "entry_name": "FFS City",
        "event_total": 52,
        "has_played": true,
        "id": 1949004,
        "last_rank": 35619,
        "player_name": "Nick Price",
        "rank": 41573,
        "rank_sort": 41608,
        "total": 2358
      },
      {
        "club_badge_src": null,
        "entry": 318713,
        "entry_name": "Change Name",
        "event_total": 55,
        "has_played": true,
        "id": 2136385,
        "last_rank": 38774,
        "player_name": "Forrest Le Roux",
        "rank": 41573,
        "rank_sort": 41609,
        "total": 2358
      },
      {
        "club_badge_src": null,
        "entry": 320818,
        "entry_name": "Hazem CR7",
        "event_total": 63,
        "has_played": true,
        "id": 2150190,
        "last_rank": 50468,
        "player_name": "Hazem- Abd-Elazeem",
        "rank": 41573,
        "rank_sort": 41610,
        "total": 2358
      },
      {
        "club_badge_src": "https://fantasy.premierleague.com/gcs/plfpl-production-adobe-approved/plfpl-production/322256/146ee7c6-cdbb-43d2-bfcb-98e9ec874178.png",
        "entry": 322256,
        "entry_name": "Stahres Golfboll",
        "event_total": 37,
        "has_played": true,
        "id": 2159594,
        "last_rank": 21301,
        "player_name": "Simon Carlsson",
        "rank": 41573,
        "rank_sort": 41611,
        "total": 2358
      },
      {
        "club_badge_src": null,
        "entry": 331160,
        "entry_name": "Kicap Masin FC",
        "event_total": 69,
        "has_played": true,
        "id": 2218136,
        "last_rank": 53345,
        "player_name": "Oneal Banie",
        "rank": 41573,
        "rank_sort": 41612,
        "total": 2358
      },
      {
        "club_badge_src": null,
        "entry": 337501,
        "entry_name": "The Beath",
        "event_total": 63,
        "has_played": true,
        "id": 2259466,
        "last_rank": 50468,
        "player_name": "Scott Parkinson",
        "rank": 41573,
        "rank_sort": 41613,
        "total": 2358
      },
      {
        "club_badge_src": "https://fantasy.premierleague.com/gcs/plfpl-production-adobe-approved/plfpl-production/361676/c3c5cc93-d48a-4175-921e-08c2fb2226bc.png",
        "entry": 361676,
        "entry_name": "Mo_Gamal",
        "event_total": 44,
        "has_played": true,
        "id": 2420058,
        "last_rank": 27304,
        "player_name": "Mohamed Gamal",
        "rank": 41573,
        "rank_sort": 41614,
        "total": 2358
      },
      {
        "club_badge_src": null,
        "entry": 372577,
        "entry_name": "Sandbach Academicals",
        "event_total": 45,
        "has_played": true,
        "id": 2492875,
        "last_rank": 28150,
        "player_name": "David Chapman",
        "rank": 41573,
        "rank_sort": 41615,
        "total": 2358
      },
      {
        "club_badge_src": null,
        "entry": 385584,
        "entry_name": "40 Year Old Virgil",
        "event_total": 59,
        "has_played": true,
        "id": 2586558,
        "last_rank": 39023,
        "player_name": "Jack Hughes",
        "rank": 41573,
        "rank_sort": 41616,
        "total": 2358
      },
      {
        "club_badge_src": "https://fantasy.premierleague.com/gcs/plfpl-production-adobe-approved/plfpl-production/417461/204b6ae2-174f-449e-b6c4-04b33976f177.png",
        "entry": 417461,
        "entry_name": "my own Wirtz enemy",
        "event_total": 66,
        "has_played": true,
        "id": 2798402,
        "last_rank": 55311,
        "player_name": "Tim Pollard",
        "rank": 41573,
        "rank_sort": 41617,
        "total": 2358
      },
      {
        "club_badge_src": null,
        "entry": 494801,
        "entry_name": "Alberlona",
        "event_total": 59,
        "has_played": true,
        "id": 3321272,
        "last_rank": 38774,
        "player_name": "Albert Thangkhiew",
        "rank": 41573,
        "rank_sort": 41618,
        "total": 2358
      },
      {
        "club_badge_src": "https://fantasy.premierleague.com/gcs/plfpl-production-adobe-approved/plfpl-production/555345/cebf1e92-ae78-4872-99ee-d44299834469.png",
        "entry": 555345,
        "entry_name": "Waddy's Wanderers",
        "event_total": 52,
        "has_played": true,
        "id": 3737684,
        "last_rank": 35619,
        "player_name": "Andrew Wadsworth",
        "rank": 41573,
        "rank_sort": 41619,
        "total": 2358
      },
      {
        "club_badge_src": null,
        "entry": 555347,
        "entry_name": "R Skelly",
        "event_total": 50,
        "has_played": true,
        "id": 3737699,
        "last_rank": 33332,
        "player_name": "Macauley Green",
        "rank": 41573,
        "rank_sort": 41620,
        "total": 2358
      },
      {
        "club_badge_src": null,
        "entry": 560481,
        "entry_name": "Gabi in attack",
        "event_total": 59,
        "has_played": true,
        "id": 3772674,
        "last_rank": 44303,
        "player_name": "Billy Hogan",
        "rank": 41573,
        "rank_sort": 41621,
        "total": 2358
      },
      {
        "club_badge_src": null,
        "entry": 582882,
        "entry_name": "Change Name A.S.A.P.",
        "event_total": 41,
        "has_played": true,
        "id": 3922694,
        "last_rank": 24475,
        "player_name": "Pat Lenihan",
        "rank": 41573,
        "rank_sort": 41622,
        "total": 2358
      },
      {
        "club_badge_src": null,
        "entry": 588858,
        "entry_name": "Obi-Wan Iwobi",
        "event_total": 56,
        "has_played": true,
        "id": 3965625,
        "last_rank": 35424,
        "player_name": "Max Cameron",
        "rank": 41573,
        "rank_sort": 41623,
        "total": 2358
      },
      {
        "club_badge_src": null,
        "entry": 623256,
        "entry_name": "Dorsia",
        "event_total": 58,
        "has_played": true,
        "id": 4211937,
        "last_rank": 37822,
        "player_name": "FPL Bateman",
        "rank": 41573,
        "rank_sort": 41624,
        "total": 2358
      },
      {
        "club_badge_src": null,
        "entry": 642108,
        "entry_name": "BTCandME",
        "event_total": 61,
        "has_played": true,
        "id": 4339635,
        "last_rank": 47163,
        "player_name": "Max Engelen",
        "rank": 41573,
        "rank_sort": 41625,
        "total": 2358
      },
      {
        "club_badge_src": null,
        "entry": 653352,
        "entry_name": "Al Pilal",
        "event_total": 59,
        "has_played": true,
        "id": 4415306,
        "last_rank": 39023,
        "player_name": "Olli J\u00e4rvenkyl\u00e4",
        "rank": 41573,
        "rank_sort": 41626,
        "total": 2358
      },
      {
        "club_badge_src": null,
        "entry": 657168,
        "entry_name": "Rathfriland",
        "event_total": 62,
        "has_played": true,
        "id": 4441152,
        "last_rank": 48898,
        "player_name": "- McGivern",
        "rank": 41573,
        "rank_sort": 41627,
        "total": 2358
      },
      {
        "club_badge_src": null,
        "entry": 658840,
        "entry_name": "\u0644\u0642\u0645\u0627\u0646",
        "event_total": 57,
        "has_played": true,
        "id": 4452308,
        "last_rank": 41824,
        "player_name": "\u0644\u0642\u0645\u0627\u0646 \u0627\u062d\u0645\u0627\u062f\u064a",
        "rank": 41573,
        "rank_sort": 41628,
        "total": 2358
      },
      {
        "club_badge_src": null,
        "entry": 674948,
        "entry_name": "IK ODDEVOLD",
        "event_total": 42,
        "has_played": true,
        "id": 4566197,
        "last_rank": 21949,
        "player_name": "Pontus Nestorsson",
        "rank": 41573,
        "rank_sort": 41629,
        "total": 2358
      },
      {
        "club_badge_src": null,
        "entry": 700045,
        "entry_name": "JOAOWWW MUCH?",
        "event_total": 56,
        "has_played": true,
        "id": 4742562,
        "last_rank": 40503,
        "player_name": "Daniel Plumb",
        "rank": 41573,
        "rank_sort": 41630,
        "total": 2358
      },
      {
        "club_badge_src": null,
        "entry": 727849,
        "entry_name": "The Welsh Barcelona",
        "event_total": 30,
        "has_played": true,
        "id": 4944986,
        "last_rank": 16320,
        "player_name": "Jolyon Morgan",
        "rank": 41573,
        "rank_sort": 41631,
        "total": 2358
      },
      {
        "club_badge_src": null,
        "entry": 734838,
        "entry_name": "DBFC",
        "event_total": 66,
        "has_played": true,
        "id": 4994576,
        "last_rank": 55311,
        "player_name": "Dale Barber",
        "rank": 41573,
        "rank_sort": 41632,
        "total": 2358
      },
      {
        "club_badge_src": null,
        "entry": 739186,
        "entry_name": "Juggernauts",
        "event_total": 56,
        "has_played": true,
        "id": 5025762,
        "last_rank": 35424,
        "player_name": "Lamay Rahman",
        "rank": 41573,
        "rank_sort": 41633,
        "total": 2358
      },
      {
        "club_badge_src": null,
        "entry": 741324,
        "entry_name": "Habibi FC",
        "event_total": 58,
        "has_played": true,
        "id": 5041518,
        "last_rank": 43168,
        "player_name": "Haadi Saraf",
        "rank": 41573,
        "rank_sort": 41634,
        "total": 2358
      },
      {
        "club_badge_src": "https://fantasy.premierleague.com/gcs/plfpl-production-adobe-approved/plfpl-production/752459/45e39571-f86c-4f0e-beb0-1567032a3d71.png",
        "entry": 752459,
        "entry_name": "Going Incognito",
        "event_total": 55,
        "has_played": true,
        "id": 5120312,
        "last_rank": 39246,
        "player_name": "Adam Johansson Ulmehed",
        "rank": 41573,
        "rank_sort": 41635,
        "total": 2358
      },
      {
        "club_badge_src": null,
        "entry": 785874,
        "entry_name": "Swindled FC",
        "event_total": 65,
        "has_played": true,
        "id": 5370585,
        "last_rank": 53345,
        "player_name": "Jack Swindell",
        "rank": 41573,
        "rank_sort": 41636,
        "total": 2358
      },
      {
        "club_badge_src": null,
        "entry": 807045,
        "entry_name": "Kinder Mbeumo",
        "event_total": 60,
        "has_played": true,
        "id": 5525032,
        "last_rank": 45714,
        "player_name": "Josh Collins",
        "rank": 41573,
        "rank_sort": 41637,
        "total": 2358
      },
      {
        "club_badge_src": null,
        "entry": 812782,
        "entry_name": "Mr. Champion",
        "event_total": 68,
        "has_played": true,
        "id": 5565099,
        "last_rank": 58688,
        "player_name": "Abdifatah Duale",
        "rank": 41573,
        "rank_sort": 41638,
        "total": 2358
      },
      {
        "club_badge_src": "https://fantasy.premierleague.com/gcs/plfpl-production-adobe-approved/plfpl-production/851046/677489f6-1460-48fa-b689-ef9f590cda26.png",
        "entry": 851046,
        "entry_name": "S\u00f6dra S\u00e4llskapet",
        "event_total": 60,
        "has_played": true,
        "id": 5833282,
        "last_rank": 45927,
        "player_name": "Dilshan Fernando",
        "rank": 41573,
        "rank_sort": 41639,
        "total": 2358
      },
      {
        "club_badge_src": "https://fantasy.premierleague.com/gcs/plfpl-production-adobe-approved/plfpl-production/885240/77f5aee0-7ad8-4fc3-a63f-bbbdc702437c.png",
        "entry": 885240,
        "entry_name": "MU2N",
        "event_total": 79,
        "has_played": true,
        "id": 6071210,
        "last_rank": 80194,
        "player_name": "munawar kholil",
        "rank": 41573,
        "rank_sort": 41640,
        "total": 2358
      },
      {
        "club_badge_src": null,
        "entry": 897699,
        "entry_name": "Free Palestine 79",
        "event_total": 48,
        "has_played": true,
        "id": 6167702,
        "last_rank": 31125,
        "player_name": "Enis Baraka",
        "rank": 41573,
        "rank_sort": 41641,
        "total": 2358
      },
      {
        "club_badge_src": null,
        "entry": 924551,
        "entry_name": "Dunder Miflin FC",
        "event_total": 60,
        "has_played": true,
        "id": 6360058,
        "last_rank": 45927,
        "player_name": "Mihir Tanna",
        "rank": 41573,
        "rank_sort": 41642,
        "total": 2358
      },
      {
        "club_badge_src": null,
        "entry": 934636,
        "entry_name": "Team Watt",
        "event_total": 66,
        "has_played": true,
        "id": 6431755,
        "last_rank": 54667,
        "player_name": "Julian Skytterholm",
        "rank": 41573,
        "rank_sort": 41643,
        "total": 2358
      },
      {
        "club_badge_src": null,
        "entry": 1054324,
        "entry_name": "Da Highs and Dalots",
        "event_total": 54,
        "has_played": true,
        "id": 7296729,
        "last_rank": 38016,
        "player_name": "Jay Dempsey",
        "rank": 41573,
        "rank_sort": 41644,
        "total": 2358
      },
      {
        "club_badge_src": null,
        "entry": 1070001,
        "entry_name": "Jamies Tarts",
        "event_total": 63,
        "has_played": true,
        "id": 7407493,
        "last_rank": 50468,
        "player_name": "Stephen Ashcroft",
        "rank": 41573,
        "rank_sort": 41645,
        "total": 2358
      },
      {
        "club_badge_src": null,
        "entry": 1154695,
        "entry_name": "Of Rice and Men",
        "event_total": 60,
        "has_played": true,
        "id": 8007080,
        "last_rank": 40297,
        "player_name": "Kyle Marsden",
        "rank": 41573,
        "rank_sort": 41646,
        "total": 2358
      },
      {
        "club_badge_src": "https://fantasy.premierleague.com/gcs/plfpl-production-adobe-approved/plfpl-production/1222848/47e9d045-d9fd-486a-a57a-ca6e3f3ac817.png",
        "entry": 1222848,
        "entry_name": "Tax Cheetahs",
        "event_total": 58,
        "has_played": true,
        "id": 8489859,
        "last_rank": 42940,
        "player_name": "Carla Tingley",
        "rank": 41573,
        "rank_sort": 41647,
        "total": 2358
      },
      {
        "club_badge_src": null,
        "entry": 1253912,
        "entry_name": "Delap Dance",
        "event_total": 56,
        "has_played": true,
        "id": 8708975,
        "last_rank": 40503,
        "player_name": "Osama Darwish",
        "rank": 41573,
        "rank_sort": 41648,
        "total": 2358
      },
      {
        "club_badge_src": null,
        "entry": 1300279,
        "entry_name": "Sometimes maybe good",
        "event_total": 65,
        "has_played": true,
        "id": 9036780,
        "last_rank": 47163,
        "player_name": "Alexander Vestg\u00e4rds",
        "rank": 41573,
        "rank_sort": 41649,
        "total": 2358
      },
      {
        "club_badge_src": null,
        "entry": 1303185,
        "entry_name": "Wepson",
        "event_total": 54,
        "has_played": true,
        "id": 9057182,
        "last_rank": 38163,
        "player_name": "wojciech wepa",
        "rank": 41573,
        "rank_sort": 41650,
        "total": 2358
      }
    ]
  }
}