{
  "last_updated_data": "2026-05-24T23:28:17Z",
  "league": {
    "admin_entry": null,
    "closed": false,
    "code_privacy": "p",
    "created": "2025-07-20T23:14:33.933835Z",
    "cup_league": 2815434,
    "has_cup": true,
    "id": 314,
    "league_type": "s",
    "max_entries": null,
    "name": "Overall",
    "rank": null,
    "scoring": "c",
    "start_event": 1
  },
  "new_entries": {
    "has_next": false,
    "page": 1,
    "results": []
  },
  "standings": {
    "has_next": true,
    "page": 1441,
    "results": [
      {
        "club_badge_src": null,
        "entry": 8840407,
        "entry_name": "stoddart fc",
        "event_total": 64,
        "has_played": true,
        "id": 73933379,
        "last_rank": 89055,
        "player_name": "Morgan Stoddart",
        "rank": 71654,
        "rank_sort": 72001,
        "total": 2339
      },
      {
        "club_badge_src": null,
        "entry": 8957091,
        "entry_name": "No Mads",
        "event_total": 40,
        "has_played": true,
        "id": 75068050,
        "last_rank": 44048,
        "player_name": "alex peirson",
        "rank": 71654,
        "rank_sort": 72002,
        "total": 2339
      },
      {
        "club_badge_src": null,
        "entry": 9042761,
        "entry_name": "SPURPURRR",
        "event_total": 35,
        "has_played": true,
        "id": 75894542,
        "last_rank": 37822,
        "player_name": "Lyubcho Georgiev",
        "rank": 71654,
        "rank_sort": 72003,
        "total": 2339
      },
      {
        "club_badge_src": null,
        "entry": 9226703,
        "entry_name": "Wirtz case scenario",
        "event_total": 67,
        "has_played": true,
        "id": 77695846,
        "last_rank": 95890,
        "player_name": "Joshua Stevenson",
        "rank": 71654,
        "rank_sort": 72004,
        "total": 2339
      },
      {
        "club_badge_src": null,
        "entry": 9235524,
        "entry_name": "stardew volley",
        "event_total": 76,
        "has_played": true,
        "id": 77781854,
        "last_rank": 119948,
        "player_name": "Janisse Magnusson",
        "rank": 71654,
        "rank_sort": 72005,
        "total": 2339
      },
      {
        "club_badge_src": null,
        "entry": 9270329,
        "entry_name": "Kinder Mbeumo",
        "event_total": 69,
        "has_played": true,
        "id": 78121352,
        "last_rank": 100949,
        "player_name": "Gabriel Mifsud",
        "rank": 71654,
        "rank_sort": 72006,
        "total": 2339
      },
      {
        "club_badge_src": null,
        "entry": 9290219,
        "entry_name": "Mushroom",
        "event_total": 68,
        "has_played": true,
        "id": 78315750,
        "last_rank": 98896,
        "player_name": "sverrir hreggvidsson",
        "rank": 71654,
        "rank_sort": 72007,
        "total": 2339
      },
      {
        "club_badge_src": null,
        "entry": 9315671,
        "entry_name": "Alnokhada",
        "event_total": 80,
        "has_played": true,
        "id": 78560038,
        "last_rank": 132758,
        "player_name": "Ahmed Alnokhada",
        "rank": 71654,
        "rank_sort": 72008,
        "total": 2339
      },
      {
        "club_badge_src": "https://fantasy.premierleague.com/gcs/plfpl-production-adobe-approved/plfpl-production/9423772/c1a3f87f-6170-4cbc-85ca-5639fd9b540c.png",
        "entry": 9423772,
        "entry_name": "You're a Wissa Harry",
        "event_total": 65,
        "has_played": true,
        "id": 79601810,
        "last_rank": 91006,
        "player_name": "Henry Bailey",
        "rank": 71654,
        "rank_sort": 72009,
        "total": 2339
      },
      {
        "club_badge_src": null,
        "entry": 9436110,
        "entry_name": "ToonToon",
        "event_total": 53,
        "has_played": true,
        "id": 79717998,
        "last_rank": 65163,
        "player_name": "Ruby Ali",
        "rank": 71654,
        "rank_sort": 72010,
        "total": 2339
      },
      {
        "club_badge_src": null,
        "entry": 9461118,
        "entry_name": "ONEILL XI",
        "event_total": 63,
        "has_played": true,
        "id": 79951149,
        "last_rank": 85932,
        "player_name": "Finn O'Neill",
        "rank": 71654,
        "rank_sort": 72011,
        "total": 2339
      },
      {
        "club_badge_src": "https://fantasy.premierleague.com/gcs/plfpl-production-adobe-approved/plfpl-production/234/34d4fcf6-82d8-43b9-a9e1-896aac745b98.png",
        "entry": 234,
        "entry_name": "Vampdoria",
        "event_total": 52,
        "has_played": true,
        "id": 1301,
        "last_rank": 56369,
        "player_name": "Jack Vamplew",
        "rank": 72012,
        "rank_sort": 72012,
        "total": 2339
      },
      {
        "club_badge_src": "https://fantasy.premierleague.com/gcs/plfpl-production-adobe-approved/plfpl-production/2967/46f53660-7e74-4d19-90f1-bb3f45be8d42.png",
        "entry": 2967,
        "entry_name": "Ardflyer",
        "event_total": 65,
        "has_played": true,
        "id": 16710,
        "last_rank": 81646,
        "player_name": "Colm Flynn",
        "rank": 72012,
        "rank_sort": 72013,
        "total": 2339
      },
      {
        "club_badge_src": "https://fantasy.premierleague.com/gcs/plfpl-production-adobe-approved/plfpl-production/3422/eb6ca3da-7edc-4be0-a39c-d16fc06297e5.png",
        "entry": 3422,
        "entry_name": "Frim Ping-Pong",
        "event_total": 57,
        "has_played": true,
        "id": 19386,
        "last_rank": 73038,
        "player_name": "Paul Curtis",
        "rank": 72012,
        "rank_sort": 72014,
        "total": 2339
      },
      {
        "club_badge_src": "https://fantasy.premierleague.com/gcs/plfpl-production-adobe-approved/plfpl-production/3763/a3b11f47-1279-4054-8294-696c6b35f642.png",
        "entry": 3763,
        "entry_name": "We can\u2019t breathe",
        "event_total": 54,
        "has_played": true,
        "id": 21331,
        "last_rank": 66848,
        "player_name": "Anton Gambarini",
        "rank": 72012,
        "rank_sort": 72015,
        "total": 2339
      },
      {
        "club_badge_src": null,
        "entry": 6751,
        "entry_name": "AVB\u2019s Redemption",
        "event_total": 67,
        "has_played": true,
        "id": 38827,
        "last_rank": 96374,
        "player_name": "Phil Riches",
        "rank": 72012,
        "rank_sort": 72016,
        "total": 2339
      },
      {
        "club_badge_src": null,
        "entry": 8343,
        "entry_name": "When Harry Met R\u00faben",
        "event_total": 66,
        "has_played": true,
        "id": 48454,
        "last_rank": 93883,
        "player_name": "Shantanu Agrawal",
        "rank": 72012,
        "rank_sort": 72017,
        "total": 2339
      },
      {
        "club_badge_src": "https://fantasy.premierleague.com/gcs/plfpl-production-adobe-approved/plfpl-production/8977/ac19d987-e4ed-44fb-b065-b74ae0b26556.png",
        "entry": 8977,
        "entry_name": "\u017babka",
        "event_total": 60,
        "has_played": true,
        "id": 52512,
        "last_rank": 79817,
        "player_name": "Evgeni Barzashki",
        "rank": 72012,
        "rank_sort": 72018,
        "total": 2339
      },
      {
        "club_badge_src": null,
        "entry": 11849,
        "entry_name": "Dyche Ball FC",
        "event_total": 64,
        "has_played": true,
        "id": 70634,
        "last_rank": 79431,
        "player_name": "Tom Hague",
        "rank": 72012,
        "rank_sort": 72019,
        "total": 2339
      },
      {
        "club_badge_src": null,
        "entry": 13558,
        "entry_name": "Hakuna Mateta",
        "event_total": 70,
        "has_played": true,
        "id": 81985,
        "last_rank": 93443,
        "player_name": "Cillian Brosnan",
        "rank": 72012,
        "rank_sort": 72020,
        "total": 2339
      },
      {
        "club_badge_src": null,
        "entry": 14259,
        "entry_name": "Jeg (v)Ekitike noe",
        "event_total": 65,
        "has_played": true,
        "id": 86518,
        "last_rank": 91006,
        "player_name": "Erlend S\u00e6ther\u00f8",
        "rank": 72012,
        "rank_sort": 72021,
        "total": 2339
      },
      {
        "club_badge_src": null,
        "entry": 18780,
        "entry_name": "Llamageddon",
        "event_total": 47,
        "has_played": true,
        "id": 116880,
        "last_rank": 55014,
        "player_name": "Richard Barton",
        "rank": 72012,
        "rank_sort": 72022,
        "total": 2339
      },
      {
        "club_badge_src": null,
        "entry": 19860,
        "entry_name": "Egg Fried Guimaraes",
        "event_total": 53,
        "has_played": true,
        "id": 123613,
        "last_rank": 57776,
        "player_name": "Tom Johnston",
        "rank": 72012,
        "rank_sort": 72023,
        "total": 2339
      },
      {
        "club_badge_src": null,
        "entry": 20308,
        "entry_name": "Alisuorittajat",
        "event_total": 69,
        "has_played": true,
        "id": 126526,
        "last_rank": 90746,
        "player_name": "Elmeri Lahti",
        "rank": 72012,
        "rank_sort": 72024,
        "total": 2339
      },
      {
        "club_badge_src": null,
        "entry": 22739,
        "entry_name": "Bruno Dos Tres",
        "event_total": 39,
        "has_played": true,
        "id": 142912,
        "last_rank": 43168,
        "player_name": "Paul Tricker",
        "rank": 72012,
        "rank_sort": 72025,
        "total": 2339
      },
      {
        "club_badge_src": null,
        "entry": 25210,
        "entry_name": "florians fantasy",
        "event_total": 42,
        "has_played": true,
        "id": 159461,
        "last_rank": 47417,
        "player_name": "Jack Gettinby",
        "rank": 72012,
        "rank_sort": 72026,
        "total": 2339
      },
      {
        "club_badge_src": null,
        "entry": 27548,
        "entry_name": "Baya Fc",
        "event_total": 66,
        "has_played": true,
        "id": 174152,
        "last_rank": 93052,
        "player_name": "Edmilson Correia",
        "rank": 72012,
        "rank_sort": 72027,
        "total": 2339
      },
      {
        "club_badge_src": null,
        "entry": 28166,
        "entry_name": "Bjankoneri",
        "event_total": 67,
        "has_played": true,
        "id": 178104,
        "last_rank": 95890,
        "player_name": "Ahmed Pasic",
        "rank": 72012,
        "rank_sort": 72028,
        "total": 2339
      },
      {
        "club_badge_src": null,
        "entry": 31493,
        "entry_name": "Barnes Stormer",
        "event_total": 58,
        "has_played": true,
        "id": 199677,
        "last_rank": 74898,
        "player_name": "brian blick",
        "rank": 72012,
        "rank_sort": 72029,
        "total": 2339
      },
      {
        "club_badge_src": "https://fantasy.premierleague.com/gcs/plfpl-production-adobe-approved/plfpl-production/32463/512d8286-c74e-44e4-97cb-bd24d8263922.png",
        "entry": 32463,
        "entry_name": "/\u1420. \uff61.\u141f\\\u1d3f\u1d31\u1d31\u1d31\u1d31\u1d31\u1d31\u1d31\ua71d\u02ce\u02ca\u02d7",
        "event_total": 62,
        "has_played": true,
        "id": 206538,
        "last_rank": 84360,
        "player_name": "Max H",
        "rank": 72012,
        "rank_sort": 72030,
        "total": 2339
      },
      {
        "club_badge_src": "https://fantasy.premierleague.com/gcs/plfpl-production-adobe-approved/plfpl-production/33610/e57c497e-c3a2-459f-8e9a-acf228e16e2f.png",
        "entry": 33610,
        "entry_name": "Joga Bonito Blues",
        "event_total": 60,
        "has_played": true,
        "id": 214421,
        "last_rank": 79817,
        "player_name": "Barry Jasper",
        "rank": 72012,
        "rank_sort": 72031,
        "total": 2339
      },
      {
        "club_badge_src": null,
        "entry": 33644,
        "entry_name": "Betterthanyou Utd**",
        "event_total": 60,
        "has_played": true,
        "id": 214649,
        "last_rank": 79431,
        "player_name": "Chris Greville-Heygate",
        "rank": 72012,
        "rank_sort": 72032,
        "total": 2339
      },
      {
        "club_badge_src": null,
        "entry": 33978,
        "entry_name": "Bad Kompany",
        "event_total": 58,
        "has_played": true,
        "id": 216963,
        "last_rank": 75139,
        "player_name": "Jake Hutt",
        "rank": 72012,
        "rank_sort": 72033,
        "total": 2339
      },
      {
        "club_badge_src": null,
        "entry": 35226,
        "entry_name": "Shapatar Xl",
        "event_total": 74,
        "has_played": true,
        "id": 225365,
        "last_rank": 114574,
        "player_name": "Mudassir Anwar",
        "rank": 72012,
        "rank_sort": 72034,
        "total": 2339
      },
      {
        "club_badge_src": null,
        "entry": 36727,
        "entry_name": "Tesco McNeil Deal",
        "event_total": 50,
        "has_played": true,
        "id": 235160,
        "last_rank": 59813,
        "player_name": "David Sexton",
        "rank": 72012,
        "rank_sort": 72035,
        "total": 2339
      },
      {
        "club_badge_src": null,
        "entry": 38852,
        "entry_name": "Pino Kamada",
        "event_total": 65,
        "has_played": true,
        "id": 249062,
        "last_rank": 90746,
        "player_name": "Riley James",
        "rank": 72012,
        "rank_sort": 72036,
        "total": 2339
      },
      {
        "club_badge_src": null,
        "entry": 40129,
        "entry_name": "Eze Peze",
        "event_total": 39,
        "has_played": true,
        "id": 257274,
        "last_rank": 42940,
        "player_name": "Anthony james",
        "rank": 72012,
        "rank_sort": 72037,
        "total": 2339
      },
      {
        "club_badge_src": null,
        "entry": 42754,
        "entry_name": "Bowen Arrow",
        "event_total": 66,
        "has_played": true,
        "id": 273862,
        "last_rank": 93883,
        "player_name": "Samuel Littlefield",
        "rank": 72012,
        "rank_sort": 72038,
        "total": 2339
      },
      {
        "club_badge_src": null,
        "entry": 46170,
        "entry_name": "white roses",
        "event_total": 62,
        "has_played": true,
        "id": 296061,
        "last_rank": 83934,
        "player_name": "Lena Lin",
        "rank": 72012,
        "rank_sort": 72039,
        "total": 2339
      },
      {
        "club_badge_src": "https://fantasy.premierleague.com/gcs/plfpl-production-adobe-approved/plfpl-production/50012/3ae5b904-d763-4a3f-ae3a-46413be3b83c.png",
        "entry": 50012,
        "entry_name": "Would Ed Woodward",
        "event_total": 53,
        "has_played": true,
        "id": 321564,
        "last_rank": 65475,
        "player_name": "Dan Robson",
        "rank": 72012,
        "rank_sort": 72040,
        "total": 2339
      },
      {
        "club_badge_src": null,
        "entry": 53091,
        "entry_name": "Football Team",
        "event_total": 55,
        "has_played": true,
        "id": 341466,
        "last_rank": 69323,
        "player_name": "Tom Mawford",
        "rank": 72012,
        "rank_sort": 72041,
        "total": 2339
      },
      {
        "club_badge_src": null,
        "entry": 53763,
        "entry_name": "Eze come Eze go",
        "event_total": 62,
        "has_played": true,
        "id": 345943,
        "last_rank": 75139,
        "player_name": "Hans-H\u00e5kon Lamprecht",
        "rank": 72012,
        "rank_sort": 72042,
        "total": 2339
      },
      {
        "club_badge_src": "https://fantasy.premierleague.com/gcs/plfpl-production-adobe-approved/plfpl-production/57027/15e83961-34e7-4b2a-80d2-7ddada3acf85.png",
        "entry": 57027,
        "entry_name": "whattheskelly",
        "event_total": 48,
        "has_played": true,
        "id": 367333,
        "last_rank": 49691,
        "player_name": "James Lloyd",
        "rank": 72012,
        "rank_sort": 72043,
        "total": 2339
      },
      {
        "club_badge_src": "https://fantasy.premierleague.com/gcs/plfpl-production-adobe-approved/plfpl-production/83211/26762067-50d7-4d38-baec-f04be6388c95.png",
        "entry": 83211,
        "entry_name": "DrittGutta FC",
        "event_total": 59,
        "has_played": true,
        "id": 541526,
        "last_rank": 77676,
        "player_name": "Kjetil Evensen",
        "rank": 72012,
        "rank_sort": 72044,
        "total": 2339
      },
      {
        "club_badge_src": "https://fantasy.premierleague.com/gcs/plfpl-production-adobe-approved/plfpl-production/83682/bb7d73a6-1eab-48a2-a949-5d9c937f793e.png",
        "entry": 83682,
        "entry_name": "Hagios FC",
        "event_total": 56,
        "has_played": true,
        "id": 544706,
        "last_rank": 71386,
        "player_name": "Charif Gn",
        "rank": 72012,
        "rank_sort": 72045,
        "total": 2339
      },
      {
        "club_badge_src": null,
        "entry": 88321,
        "entry_name": "Lacroix Sweetie",
        "event_total": 57,
        "has_played": true,
        "id": 576320,
        "last_rank": 73423,
        "player_name": "Andy Brook",
        "rank": 72012,
        "rank_sort": 72046,
        "total": 2339
      },
      {
        "club_badge_src": null,
        "entry": 97535,
        "entry_name": "Zac Fc",
        "event_total": 53,
        "has_played": true,
        "id": 637031,
        "last_rank": 65163,
        "player_name": "Zachery Bradford",
        "rank": 72012,
        "rank_sort": 72047,
        "total": 2339
      },
      {
        "club_badge_src": null,
        "entry": 102317,
        "entry_name": "Elanga Management",
        "event_total": 66,
        "has_played": true,
        "id": 667576,
        "last_rank": 83584,
        "player_name": "James Baines",
        "rank": 72012,
        "rank_sort": 72048,
        "total": 2339
      },
      {
        "club_badge_src": null,
        "entry": 107045,
        "entry_name": "Meshed \u00d6zil",
        "event_total": 54,
        "has_played": true,
        "id": 697858,
        "last_rank": 67063,
        "player_name": "Jake Wells",
        "rank": 72012,
        "rank_sort": 72049,
        "total": 2339
      },
      {
        "club_badge_src": null,
        "entry": 113267,
        "entry_name": "tescoFC",
        "event_total": 47,
        "has_played": true,
        "id": 738730,
        "last_rank": 48363,
        "player_name": "Jose \u00d3 Carroll",
        "rank": 72012,
        "rank_sort": 72050,
        "total": 2339
      }
    ]
  }
}