{
  "last_updated_data": "2026-05-24T23:28:17Z",
  "league": {
    "admin_entry": null,
    "closed": false,
    "code_privacy": "p",
    "created": "2025-07-20T23:14:33.933835Z",
    "cup_league": 2815434,
    "has_cup": true,
    "id": 314,
    "league_type": "s",
    "max_entries": null,
    "name": "Overall",
    "rank": null,
    "scoring": "c",
    "start_event": 1
  },
  "new_entries": {
    "has_next": false,
    "page": 1,
    "results": []
  },
  "standings": {
    "has_next": true,
    "page": 1487,
    "results": [
      {
        "club_badge_src": null,
        "entry": 8597330,
        "entry_name": "Gonna get Messi",
        "event_total": 59,
        "has_played": true,
        "id": 71572229,
        "last_rank": 79817,
        "player_name": "Devina Ganas",
        "rank": 73983,
        "rank_sort": 74301,
        "total": 2338
      },
      {
        "club_badge_src": null,
        "entry": 8892845,
        "entry_name": "MOWS Salah",
        "event_total": 49,
        "has_played": true,
        "id": 74439253,
        "last_rank": 59813,
        "player_name": "Owain Ellis",
        "rank": 73983,
        "rank_sort": 74302,
        "total": 2338
      },
      {
        "club_badge_src": null,
        "entry": 9000541,
        "entry_name": "NeverTalkAlone",
        "event_total": 72,
        "has_played": true,
        "id": 75485722,
        "last_rank": 112169,
        "player_name": "Daniel Wainwright",
        "rank": 73983,
        "rank_sort": 74303,
        "total": 2338
      },
      {
        "club_badge_src": null,
        "entry": 9137267,
        "entry_name": "Nadina Malaki",
        "event_total": 60,
        "has_played": true,
        "id": 76817327,
        "last_rank": 72815,
        "player_name": "Solaiman Alhamdan",
        "rank": 73983,
        "rank_sort": 74304,
        "total": 2338
      },
      {
        "club_badge_src": null,
        "entry": 9416655,
        "entry_name": "khadar Saleeban",
        "event_total": 65,
        "has_played": true,
        "id": 79533708,
        "last_rank": 93052,
        "player_name": "khadar saleebaan",
        "rank": 73983,
        "rank_sort": 74305,
        "total": 2338
      },
      {
        "club_badge_src": null,
        "entry": 9442384,
        "entry_name": "\u00a1Adi\u00f3s Carlo y Luka!",
        "event_total": 58,
        "has_played": true,
        "id": 79777676,
        "last_rank": 77258,
        "player_name": "Shovon Asadullah",
        "rank": 73983,
        "rank_sort": 74306,
        "total": 2338
      },
      {
        "club_badge_src": "https://fantasy.premierleague.com/gcs/plfpl-production-adobe-approved/plfpl-production/9955188/3c4e381c-7d59-45fe-822e-5ca370c2dd7f.png",
        "entry": 9955188,
        "entry_name": "Ortiz Blue",
        "event_total": 64,
        "has_played": true,
        "id": 84449279,
        "last_rank": 90625,
        "player_name": "David Ortiz",
        "rank": 73983,
        "rank_sort": 74307,
        "total": 2338
      },
      {
        "club_badge_src": null,
        "entry": 322,
        "entry_name": "Mam go na kapitanie",
        "event_total": 58,
        "has_played": true,
        "id": 1779,
        "last_rank": 77676,
        "player_name": "Patryk Tritt",
        "rank": 74308,
        "rank_sort": 74308,
        "total": 2338
      },
      {
        "club_badge_src": null,
        "entry": 8112,
        "entry_name": "TakeTheL FC",
        "event_total": 56,
        "has_played": true,
        "id": 46971,
        "last_rank": 65475,
        "player_name": "Rhys Blakeney",
        "rank": 74308,
        "rank_sort": 74309,
        "total": 2338
      },
      {
        "club_badge_src": null,
        "entry": 10303,
        "entry_name": "K Doc",
        "event_total": 63,
        "has_played": true,
        "id": 60880,
        "last_rank": 79817,
        "player_name": "Kieran Doherty",
        "rank": 74308,
        "rank_sort": 74310,
        "total": 2338
      },
      {
        "club_badge_src": null,
        "entry": 12109,
        "entry_name": "Peaky Reijnders",
        "event_total": 49,
        "has_played": true,
        "id": 72253,
        "last_rank": 60462,
        "player_name": "Nathan Derrick",
        "rank": 74308,
        "rank_sort": 74311,
        "total": 2338
      },
      {
        "club_badge_src": null,
        "entry": 16003,
        "entry_name": "Wirtz the Matter?",
        "event_total": 64,
        "has_played": true,
        "id": 98624,
        "last_rank": 82069,
        "player_name": "Paddy McGarrity",
        "rank": 74308,
        "rank_sort": 74312,
        "total": 2338
      },
      {
        "club_badge_src": "https://fantasy.premierleague.com/gcs/plfpl-production-adobe-approved/plfpl-production/17256/2c58782f-092a-4991-8647-14b8f295f060.png",
        "entry": 17256,
        "entry_name": "xDDD",
        "event_total": 68,
        "has_played": true,
        "id": 107002,
        "last_rank": 101419,
        "player_name": "Grzegorz Cicho\u0144",
        "rank": 74308,
        "rank_sort": 74313,
        "total": 2338
      },
      {
        "club_badge_src": null,
        "entry": 17592,
        "entry_name": "AFC Wight Bear",
        "event_total": 34,
        "has_played": true,
        "id": 109190,
        "last_rank": 38016,
        "player_name": "Steve Saunders",
        "rank": 74308,
        "rank_sort": 74314,
        "total": 2338
      },
      {
        "club_badge_src": "https://fantasy.premierleague.com/gcs/plfpl-production-adobe-approved/plfpl-production/23858/115f75c0-b01a-4a96-b6a3-63791c17e3a9.png",
        "entry": 23858,
        "entry_name": "Maisari FC",
        "event_total": 62,
        "has_played": true,
        "id": 150444,
        "last_rank": 86735,
        "player_name": "Amjed Maisari",
        "rank": 74308,
        "rank_sort": 74315,
        "total": 2338
      },
      {
        "club_badge_src": null,
        "entry": 26654,
        "entry_name": "BHC Wanderers",
        "event_total": 63,
        "has_played": true,
        "id": 168536,
        "last_rank": 89426,
        "player_name": "Ben Horton Cleary",
        "rank": 74308,
        "rank_sort": 74316,
        "total": 2338
      },
      {
        "club_badge_src": null,
        "entry": 29180,
        "entry_name": "Top One",
        "event_total": 58,
        "has_played": true,
        "id": 184499,
        "last_rank": 77258,
        "player_name": "Przemek Kuras",
        "rank": 74308,
        "rank_sort": 74317,
        "total": 2338
      },
      {
        "club_badge_src": null,
        "entry": 32264,
        "entry_name": "Gary @FPLPUBCAST",
        "event_total": 68,
        "has_played": true,
        "id": 205165,
        "last_rank": 101419,
        "player_name": "Gary FPLPubcast",
        "rank": 74308,
        "rank_sort": 74318,
        "total": 2338
      },
      {
        "club_badge_src": "https://fantasy.premierleague.com/gcs/plfpl-production-adobe-approved/plfpl-production/43146/106f800b-213a-46d4-8ad1-a00c48bb1bd4.png",
        "entry": 43146,
        "entry_name": "S\u01b0\u1eddn",
        "event_total": 59,
        "has_played": true,
        "id": 276297,
        "last_rank": 80194,
        "player_name": "Nguyen \u0110.T",
        "rank": 74308,
        "rank_sort": 74319,
        "total": 2338
      },
      {
        "club_badge_src": "https://fantasy.premierleague.com/gcs/plfpl-production-adobe-approved/plfpl-production/50222/4c5aec0f-e40f-462e-a35e-d1ab9bf95222.png",
        "entry": 50222,
        "entry_name": "Keep Wright On",
        "event_total": 54,
        "has_played": true,
        "id": 323000,
        "last_rank": 69641,
        "player_name": "Joel Wright",
        "rank": 74308,
        "rank_sort": 74320,
        "total": 2338
      },
      {
        "club_badge_src": null,
        "entry": 57714,
        "entry_name": "Istvi\u010d",
        "event_total": 44,
        "has_played": true,
        "id": 371816,
        "last_rank": 51984,
        "player_name": "Ognjen Ni\u0161i\u0107",
        "rank": 74308,
        "rank_sort": 74321,
        "total": 2338
      },
      {
        "club_badge_src": null,
        "entry": 58632,
        "entry_name": "[DFPL].KUN18",
        "event_total": 56,
        "has_played": true,
        "id": 377645,
        "last_rank": 73720,
        "player_name": "V\u00f5 Minh Lu\u1eadn",
        "rank": 74308,
        "rank_sort": 74322,
        "total": 2338
      },
      {
        "club_badge_src": null,
        "entry": 60037,
        "entry_name": "SimSalahSon",
        "event_total": 77,
        "has_played": true,
        "id": 386596,
        "last_rank": 114574,
        "player_name": "Mona Christiansen Urdal",
        "rank": 74308,
        "rank_sort": 74323,
        "total": 2338
      },
      {
        "club_badge_src": "https://fantasy.premierleague.com/gcs/plfpl-production-adobe-approved/plfpl-production/62180/1dcfc1bf-185d-49ac-9d7b-e0964272327a.png",
        "entry": 62180,
        "entry_name": "Wirtz Team Ever",
        "event_total": 70,
        "has_played": true,
        "id": 400685,
        "last_rank": 96374,
        "player_name": "Julian OB",
        "rank": 74308,
        "rank_sort": 74324,
        "total": 2338
      },
      {
        "club_badge_src": null,
        "entry": 67829,
        "entry_name": "BongoXI",
        "event_total": 65,
        "has_played": true,
        "id": 439260,
        "last_rank": 84360,
        "player_name": "Alimul Risvey",
        "rank": 74308,
        "rank_sort": 74325,
        "total": 2338
      },
      {
        "club_badge_src": null,
        "entry": 69744,
        "entry_name": "Squidwirtz",
        "event_total": 66,
        "has_played": true,
        "id": 452561,
        "last_rank": 96777,
        "player_name": "Sam McCormick",
        "rank": 74308,
        "rank_sort": 74326,
        "total": 2338
      },
      {
        "club_badge_src": null,
        "entry": 71944,
        "entry_name": "JOwen",
        "event_total": 51,
        "has_played": true,
        "id": 467415,
        "last_rank": 63724,
        "player_name": "Joe Owen",
        "rank": 74308,
        "rank_sort": 74327,
        "total": 2338
      },
      {
        "club_badge_src": null,
        "entry": 71982,
        "entry_name": "Chippy chips FC",
        "event_total": 50,
        "has_played": true,
        "id": 467664,
        "last_rank": 55014,
        "player_name": "Pyry Ohtonen",
        "rank": 74308,
        "rank_sort": 74328,
        "total": 2338
      },
      {
        "club_badge_src": null,
        "entry": 78867,
        "entry_name": "Covport",
        "event_total": 64,
        "has_played": true,
        "id": 512767,
        "last_rank": 82069,
        "player_name": "Pascal Evans",
        "rank": 74308,
        "rank_sort": 74329,
        "total": 2338
      },
      {
        "club_badge_src": null,
        "entry": 91541,
        "entry_name": "Trust The Process",
        "event_total": 57,
        "has_played": true,
        "id": 597952,
        "last_rank": 76128,
        "player_name": "Dr. Abdullah",
        "rank": 74308,
        "rank_sort": 74330,
        "total": 2338
      },
      {
        "club_badge_src": null,
        "entry": 103882,
        "entry_name": "A\u00eft No BodyGotTime",
        "event_total": 63,
        "has_played": true,
        "id": 677763,
        "last_rank": 79817,
        "player_name": "Mihai Stefan",
        "rank": 74308,
        "rank_sort": 74331,
        "total": 2338
      },
      {
        "club_badge_src": null,
        "entry": 123807,
        "entry_name": "Stubbed'Mitoma",
        "event_total": 68,
        "has_played": true,
        "id": 807479,
        "last_rank": 101818,
        "player_name": "Rahim Khan",
        "rank": 74308,
        "rank_sort": 74332,
        "total": 2338
      },
      {
        "club_badge_src": null,
        "entry": 135080,
        "entry_name": "Magician's Redmond",
        "event_total": 59,
        "has_played": true,
        "id": 879632,
        "last_rank": 70985,
        "player_name": "George Backhouse",
        "rank": 74308,
        "rank_sort": 74333,
        "total": 2338
      },
      {
        "club_badge_src": null,
        "entry": 136660,
        "entry_name": "Bruno McSauce",
        "event_total": 61,
        "has_played": true,
        "id": 890343,
        "last_rank": 75537,
        "player_name": "Alexander Wiklund",
        "rank": 74308,
        "rank_sort": 74334,
        "total": 2338
      },
      {
        "club_badge_src": null,
        "entry": 143748,
        "entry_name": "You've got two hopes",
        "event_total": 33,
        "has_played": true,
        "id": 940548,
        "last_rank": 36831,
        "player_name": "Peter Carruthers",
        "rank": 74308,
        "rank_sort": 74335,
        "total": 2338
      },
      {
        "club_badge_src": null,
        "entry": 144152,
        "entry_name": "Ctrl Alt De Ligt",
        "event_total": 52,
        "has_played": true,
        "id": 943420,
        "last_rank": 65163,
        "player_name": "Mala Strange",
        "rank": 74308,
        "rank_sort": 74336,
        "total": 2338
      },
      {
        "club_badge_src": "https://fantasy.premierleague.com/gcs/plfpl-production-adobe-approved/plfpl-production/168796/9f8ed3dc-def5-4531-b51c-27a2285a7df8.png",
        "entry": 168796,
        "entry_name": "Hbib",
        "event_total": 76,
        "has_played": true,
        "id": 1115565,
        "last_rank": 123908,
        "player_name": "Habib Bendada",
        "rank": 74308,
        "rank_sort": 74337,
        "total": 2338
      },
      {
        "club_badge_src": null,
        "entry": 170882,
        "entry_name": "We ar premier league",
        "event_total": 48,
        "has_played": true,
        "id": 1128938,
        "last_rank": 58388,
        "player_name": "Mike Goddard",
        "rank": 74308,
        "rank_sort": 74338,
        "total": 2338
      },
      {
        "club_badge_src": null,
        "entry": 176963,
        "entry_name": "Don'tLookBackElanga",
        "event_total": 61,
        "has_played": true,
        "id": 1168076,
        "last_rank": 84731,
        "player_name": "Ben Smith",
        "rank": 74308,
        "rank_sort": 74339,
        "total": 2338
      },
      {
        "club_badge_src": "https://fantasy.premierleague.com/gcs/plfpl-production-adobe-approved/plfpl-production/177628/cf4e8f80-bf41-4586-b917-0d8397271619.png",
        "entry": 177628,
        "entry_name": ":)",
        "event_total": 59,
        "has_played": true,
        "id": 1172331,
        "last_rank": 71386,
        "player_name": "Daekwun Heo",
        "rank": 74308,
        "rank_sort": 74340,
        "total": 2338
      },
      {
        "club_badge_src": "https://fantasy.premierleague.com/gcs/plfpl-production-adobe-approved/plfpl-production/179631/642f2095-bf55-4f57-9e36-e728b11147e7.png",
        "entry": 179631,
        "entry_name": "Stop Copying Me",
        "event_total": 55,
        "has_played": true,
        "id": 1185368,
        "last_rank": 71713,
        "player_name": "Santino Iafrate",
        "rank": 74308,
        "rank_sort": 74341,
        "total": 2338
      },
      {
        "club_badge_src": null,
        "entry": 197724,
        "entry_name": "Pabbi",
        "event_total": 51,
        "has_played": true,
        "id": 1311990,
        "last_rank": 63390,
        "player_name": "Halld\u00f3r Anton",
        "rank": 74308,
        "rank_sort": 74342,
        "total": 2338
      },
      {
        "club_badge_src": "https://fantasy.premierleague.com/gcs/plfpl-production-adobe-approved/plfpl-production/207427/46942de7-6756-4575-b2f2-d1064b1a6df5.png",
        "entry": 207427,
        "entry_name": "Kinder Mbeumo",
        "event_total": 82,
        "has_played": true,
        "id": 1378705,
        "last_rank": 129043,
        "player_name": "Mike Holt",
        "rank": 74308,
        "rank_sort": 74343,
        "total": 2338
      },
      {
        "club_badge_src": null,
        "entry": 210848,
        "entry_name": "Riggers Fc",
        "event_total": 60,
        "has_played": true,
        "id": 1402319,
        "last_rank": 82398,
        "player_name": "Corey Rigby",
        "rank": 74308,
        "rank_sort": 74344,
        "total": 2338
      },
      {
        "club_badge_src": null,
        "entry": 211721,
        "entry_name": "Made Emile of it",
        "event_total": 66,
        "has_played": true,
        "id": 1408275,
        "last_rank": 86735,
        "player_name": "Matt Wilks",
        "rank": 74308,
        "rank_sort": 74345,
        "total": 2338
      },
      {
        "club_badge_src": null,
        "entry": 235166,
        "entry_name": "Bmx",
        "event_total": 79,
        "has_played": true,
        "id": 1564775,
        "last_rank": 134226,
        "player_name": "Basheer AlAhmad",
        "rank": 74308,
        "rank_sort": 74346,
        "total": 2338
      },
      {
        "club_badge_src": null,
        "entry": 252607,
        "entry_name": "Peaky Reijnders",
        "event_total": 77,
        "has_played": true,
        "id": 1680204,
        "last_rank": 115057,
        "player_name": "Tommy Morgan",
        "rank": 74308,
        "rank_sort": 74347,
        "total": 2338
      },
      {
        "club_badge_src": null,
        "entry": 256441,
        "entry_name": "MEKAWY",
        "event_total": 68,
        "has_played": true,
        "id": 1705555,
        "last_rank": 101419,
        "player_name": "Eslam Mekawy",
        "rank": 74308,
        "rank_sort": 74348,
        "total": 2338
      },
      {
        "club_badge_src": null,
        "entry": 258120,
        "entry_name": "Rice Rice Baby",
        "event_total": 69,
        "has_played": true,
        "id": 1716410,
        "last_rank": 93443,
        "player_name": "Jed Hawes",
        "rank": 74308,
        "rank_sort": 74349,
        "total": 2338
      },
      {
        "club_badge_src": null,
        "entry": 285775,
        "entry_name": "Ameen7",
        "event_total": 69,
        "has_played": true,
        "id": 1903589,
        "last_rank": 104388,
        "player_name": "Ameen Japheth",
        "rank": 74308,
        "rank_sort": 74350,
        "total": 2338
      }
    ]
  }
}