{
  "last_updated_data": "2026-05-24T23:28:17Z",
  "league": {
    "admin_entry": null,
    "closed": false,
    "code_privacy": "p",
    "created": "2025-07-20T23:14:33.933835Z",
    "cup_league": 2815434,
    "has_cup": true,
    "id": 314,
    "league_type": "s",
    "max_entries": null,
    "name": "Overall",
    "rank": null,
    "scoring": "c",
    "start_event": 1
  },
  "new_entries": {
    "has_next": false,
    "page": 1,
    "results": []
  },
  "standings": {
    "has_next": true,
    "page": 541,
    "results": [
      {
        "club_badge_src": null,
        "entry": 8525733,
        "entry_name": "555 NF",
        "event_total": 50,
        "has_played": true,
        "id": 70886066,
        "last_rank": 20888,
        "player_name": "Esca Alshammari",
        "rank": 26981,
        "rank_sort": 27001,
        "total": 2371
      },
      {
        "club_badge_src": null,
        "entry": 8743,
        "entry_name": "TooSeskoForMyShirt",
        "event_total": 43,
        "has_played": true,
        "id": 51002,
        "last_rank": 16163,
        "player_name": "Ben ledgard",
        "rank": 27002,
        "rank_sort": 27002,
        "total": 2371
      },
      {
        "club_badge_src": null,
        "entry": 55023,
        "entry_name": "Toop FC",
        "event_total": 51,
        "has_played": true,
        "id": 354131,
        "last_rank": 21775,
        "player_name": "Jason Toop",
        "rank": 27002,
        "rank_sort": 27003,
        "total": 2371
      },
      {
        "club_badge_src": null,
        "entry": 78286,
        "entry_name": "The Ginger Nuts",
        "event_total": 57,
        "has_played": true,
        "id": 509012,
        "last_rank": 26656,
        "player_name": "Josh Dickson",
        "rank": 27002,
        "rank_sort": 27004,
        "total": 2371
      },
      {
        "club_badge_src": null,
        "entry": 87353,
        "entry_name": "Kev Fc",
        "event_total": 57,
        "has_played": true,
        "id": 569608,
        "last_rank": 26827,
        "player_name": "Kevin Hill",
        "rank": 27002,
        "rank_sort": 27005,
        "total": 2371
      },
      {
        "club_badge_src": null,
        "entry": 105943,
        "entry_name": "spongaloids",
        "event_total": 35,
        "has_played": true,
        "id": 690875,
        "last_rank": 11699,
        "player_name": "Iain Macintosh",
        "rank": 27002,
        "rank_sort": 27006,
        "total": 2371
      },
      {
        "club_badge_src": "https://fantasy.premierleague.com/gcs/plfpl-production-adobe-approved/plfpl-production/139137/f3c2befe-d438-4338-98f4-4745c9459136.png",
        "entry": 139137,
        "entry_name": "Los Pollos Hermanos",
        "event_total": 52,
        "has_played": true,
        "id": 907972,
        "last_rank": 22426,
        "player_name": "Gustavo Fring",
        "rank": 27002,
        "rank_sort": 27007,
        "total": 2371
      },
      {
        "club_badge_src": null,
        "entry": 140989,
        "entry_name": "The Class Of JJ",
        "event_total": 66,
        "has_played": true,
        "id": 920967,
        "last_rank": 36200,
        "player_name": "Jacob J\u00f8rgensen",
        "rank": 27002,
        "rank_sort": 27008,
        "total": 2371
      },
      {
        "club_badge_src": null,
        "entry": 191739,
        "entry_name": "mama fc",
        "event_total": 62,
        "has_played": true,
        "id": 1270101,
        "last_rank": 31556,
        "player_name": "Sandra Peeters",
        "rank": 27002,
        "rank_sort": 27009,
        "total": 2371
      },
      {
        "club_badge_src": null,
        "entry": 207942,
        "entry_name": "Sandakerveien Rovers",
        "event_total": 60,
        "has_played": true,
        "id": 1382314,
        "last_rank": 29522,
        "player_name": "Brage Sikveland",
        "rank": 27002,
        "rank_sort": 27010,
        "total": 2371
      },
      {
        "club_badge_src": "https://fantasy.premierleague.com/gcs/plfpl-production-adobe-approved/plfpl-production/225614/60028038-a790-4695-8010-201da08f9eab.png",
        "entry": 225614,
        "entry_name": "Perfidious Albion",
        "event_total": 51,
        "has_played": true,
        "id": 1500830,
        "last_rank": 21677,
        "player_name": "Paul Cartwright",
        "rank": 27002,
        "rank_sort": 27011,
        "total": 2371
      },
      {
        "club_badge_src": null,
        "entry": 314774,
        "entry_name": "Lavs Lads",
        "event_total": 54,
        "has_played": true,
        "id": 2109394,
        "last_rank": 24143,
        "player_name": "Robin Lavin",
        "rank": 27002,
        "rank_sort": 27012,
        "total": 2371
      },
      {
        "club_badge_src": "https://fantasy.premierleague.com/gcs/plfpl-production-adobe-approved/plfpl-production/351379/185eca22-1a2b-410f-97db-8683ad72360c.png",
        "entry": 351379,
        "entry_name": "Moore the Merrier",
        "event_total": 62,
        "has_played": true,
        "id": 2352035,
        "last_rank": 31620,
        "player_name": "Ray Knight",
        "rank": 27002,
        "rank_sort": 27013,
        "total": 2371
      },
      {
        "club_badge_src": "https://fantasy.premierleague.com/gcs/plfpl-production-adobe-approved/plfpl-production/373663/d9f54382-7145-4719-9ae9-04d560d8834d.png",
        "entry": 373663,
        "entry_name": "Rooney Tunes",
        "event_total": 54,
        "has_played": true,
        "id": 2500093,
        "last_rank": 23990,
        "player_name": "Jash Joshi",
        "rank": 27002,
        "rank_sort": 27014,
        "total": 2371
      },
      {
        "club_badge_src": "https://fantasy.premierleague.com/gcs/plfpl-production-adobe-approved/plfpl-production/517852/d0dfce8f-d823-44d8-a653-14747ee19145.png",
        "entry": 517852,
        "entry_name": "VARcelona",
        "event_total": 45,
        "has_played": true,
        "id": 3476800,
        "last_rank": 17437,
        "player_name": "Kieren King",
        "rank": 27002,
        "rank_sort": 27015,
        "total": 2371
      },
      {
        "club_badge_src": null,
        "entry": 547520,
        "entry_name": "Marty McFly",
        "event_total": 68,
        "has_played": true,
        "id": 3684824,
        "last_rank": 38571,
        "player_name": "Paris Lynch",
        "rank": 27002,
        "rank_sort": 27016,
        "total": 2371
      },
      {
        "club_badge_src": "https://fantasy.premierleague.com/gcs/plfpl-production-adobe-approved/plfpl-production/564331/744665df-16a3-488d-b780-819c4d20b6d7.png",
        "entry": 564331,
        "entry_name": "Can't get Wirtz",
        "event_total": 66,
        "has_played": true,
        "id": 3798532,
        "last_rank": 36110,
        "player_name": "David Falode",
        "rank": 27002,
        "rank_sort": 27017,
        "total": 2371
      },
      {
        "club_badge_src": null,
        "entry": 589278,
        "entry_name": "Ron",
        "event_total": 64,
        "has_played": true,
        "id": 3968771,
        "last_rank": 33845,
        "player_name": "Arttu L\u00e4ms\u00e4",
        "rank": 27002,
        "rank_sort": 27018,
        "total": 2371
      },
      {
        "club_badge_src": "https://fantasy.premierleague.com/gcs/plfpl-production-adobe-approved/plfpl-production/630048/b1481fae-82c5-4025-bd88-fb602ffdc5f3.png",
        "entry": 630048,
        "entry_name": "Det cunha funke i \u00e5r",
        "event_total": 48,
        "has_played": true,
        "id": 4257500,
        "last_rank": 19544,
        "player_name": "Joakim Eriksen",
        "rank": 27002,
        "rank_sort": 27019,
        "total": 2371
      },
      {
        "club_badge_src": null,
        "entry": 802394,
        "entry_name": "I'm Nicked",
        "event_total": 48,
        "has_played": true,
        "id": 5492602,
        "last_rank": 19544,
        "player_name": "Charlie Ransom",
        "rank": 27002,
        "rank_sort": 27020,
        "total": 2371
      },
      {
        "club_badge_src": null,
        "entry": 814490,
        "entry_name": "Mo Salad",
        "event_total": 65,
        "has_played": true,
        "id": 5577357,
        "last_rank": 35034,
        "player_name": "Ethan Elshaw",
        "rank": 27002,
        "rank_sort": 27021,
        "total": 2371
      },
      {
        "club_badge_src": null,
        "entry": 943726,
        "entry_name": "Wirtz Nightmare",
        "event_total": 59,
        "has_played": true,
        "id": 6499919,
        "last_rank": 28609,
        "player_name": "Kristian Popovic",
        "rank": 27002,
        "rank_sort": 27022,
        "total": 2371
      },
      {
        "club_badge_src": null,
        "entry": 1066883,
        "entry_name": "Atletico Emerico",
        "event_total": 45,
        "has_played": true,
        "id": 7385766,
        "last_rank": 17437,
        "player_name": "Erik Kubicka",
        "rank": 27002,
        "rank_sort": 27023,
        "total": 2371
      },
      {
        "club_badge_src": null,
        "entry": 1153201,
        "entry_name": "Ayew Joking",
        "event_total": 73,
        "has_played": true,
        "id": 7996401,
        "last_rank": 45144,
        "player_name": "Liam Karaisko",
        "rank": 27002,
        "rank_sort": 27024,
        "total": 2371
      },
      {
        "club_badge_src": null,
        "entry": 1202476,
        "entry_name": "Stephy Mavipdiddi",
        "event_total": 66,
        "has_played": true,
        "id": 8344584,
        "last_rank": 36200,
        "player_name": "Stephen Waller",
        "rank": 27002,
        "rank_sort": 27025,
        "total": 2371
      },
      {
        "club_badge_src": null,
        "entry": 1302204,
        "entry_name": "GarnachosWithCheese",
        "event_total": 33,
        "has_played": true,
        "id": 9050371,
        "last_rank": 10805,
        "player_name": "Aaron Dold",
        "rank": 27002,
        "rank_sort": 27026,
        "total": 2371
      },
      {
        "club_badge_src": "https://fantasy.premierleague.com/gcs/plfpl-production-adobe-approved/plfpl-production/1435148/c9691dab-4c0c-4a9a-8759-9cdeea99efa2.png",
        "entry": 1435148,
        "entry_name": "Old Trafford Fc",
        "event_total": 47,
        "has_played": true,
        "id": 10000189,
        "last_rank": 18790,
        "player_name": "Shafiek Jacobs",
        "rank": 27002,
        "rank_sort": 27027,
        "total": 2371
      },
      {
        "club_badge_src": null,
        "entry": 1485107,
        "entry_name": "PEDROSA 26",
        "event_total": 38,
        "has_played": true,
        "id": 10356289,
        "last_rank": 13257,
        "player_name": "Abdul Bin Abdul",
        "rank": 27002,
        "rank_sort": 27028,
        "total": 2371
      },
      {
        "club_badge_src": null,
        "entry": 2138898,
        "entry_name": "Hoof hearted",
        "event_total": 61,
        "has_played": true,
        "id": 15200969,
        "last_rank": 30600,
        "player_name": "David Igoe",
        "rank": 27002,
        "rank_sort": 27029,
        "total": 2371
      },
      {
        "club_badge_src": null,
        "entry": 2144929,
        "entry_name": "Never lost @ Wembley",
        "event_total": 57,
        "has_played": true,
        "id": 15245330,
        "last_rank": 26710,
        "player_name": "Simon Crane",
        "rank": 27002,
        "rank_sort": 27030,
        "total": 2371
      },
      {
        "club_badge_src": null,
        "entry": 2235752,
        "entry_name": "Sesko Clubcard",
        "event_total": 57,
        "has_played": true,
        "id": 15927477,
        "last_rank": 26827,
        "player_name": "Ois\u00edn Walsh",
        "rank": 27002,
        "rank_sort": 27031,
        "total": 2371
      },
      {
        "club_badge_src": "https://fantasy.premierleague.com/gcs/plfpl-production-adobe-approved/plfpl-production/2238925/0f50537f-8847-4436-a97f-a370ac0f208d.png",
        "entry": 2238925,
        "entry_name": "Give it Giggseh",
        "event_total": 59,
        "has_played": true,
        "id": 15950321,
        "last_rank": 28609,
        "player_name": "Jack Webb",
        "rank": 27002,
        "rank_sort": 27032,
        "total": 2371
      },
      {
        "club_badge_src": "https://fantasy.premierleague.com/gcs/plfpl-production-adobe-approved/plfpl-production/2240133/770692c0-cdd7-4321-8d0d-6866f19c4b71.png",
        "entry": 2240133,
        "entry_name": "Fernandes n Furious",
        "event_total": 58,
        "has_played": true,
        "id": 15959114,
        "last_rank": 27564,
        "player_name": "Vicky Kasseran",
        "rank": 27002,
        "rank_sort": 27033,
        "total": 2371
      },
      {
        "club_badge_src": null,
        "entry": 2456782,
        "entry_name": "Gilberto FC",
        "event_total": 66,
        "has_played": true,
        "id": 17572433,
        "last_rank": 36142,
        "player_name": "David Gilbert",
        "rank": 27002,
        "rank_sort": 27034,
        "total": 2371
      },
      {
        "club_badge_src": null,
        "entry": 2779298,
        "entry_name": "Cucurella de Vil",
        "event_total": 67,
        "has_played": true,
        "id": 20284048,
        "last_rank": 37376,
        "player_name": "Daniel Guest",
        "rank": 27002,
        "rank_sort": 27035,
        "total": 2371
      },
      {
        "club_badge_src": null,
        "entry": 2787262,
        "entry_name": "Stevos XI",
        "event_total": 58,
        "has_played": true,
        "id": 20348541,
        "last_rank": 27644,
        "player_name": "Sean Stephens",
        "rank": 27002,
        "rank_sort": 27036,
        "total": 2371
      },
      {
        "club_badge_src": null,
        "entry": 3087498,
        "entry_name": "Le Bris' L'Enfants *",
        "event_total": 59,
        "has_played": true,
        "id": 22748375,
        "last_rank": 28609,
        "player_name": "Keith Waugh",
        "rank": 27002,
        "rank_sort": 27037,
        "total": 2371
      },
      {
        "club_badge_src": null,
        "entry": 3505167,
        "entry_name": "Gary Goals",
        "event_total": 48,
        "has_played": true,
        "id": 26075634,
        "last_rank": 19392,
        "player_name": "Gary Fletcher",
        "rank": 27002,
        "rank_sort": 27038,
        "total": 2371
      },
      {
        "club_badge_src": null,
        "entry": 3573008,
        "entry_name": "WenLifeGivesuLammens",
        "event_total": 56,
        "has_played": true,
        "id": 26605217,
        "last_rank": 25902,
        "player_name": "Patrick Hancock",
        "rank": 27002,
        "rank_sort": 27039,
        "total": 2371
      },
      {
        "club_badge_src": null,
        "entry": 3942650,
        "entry_name": "Superstars fc",
        "event_total": 61,
        "has_played": true,
        "id": 29658549,
        "last_rank": 30600,
        "player_name": "Olanrewaju Buari",
        "rank": 27002,
        "rank_sort": 27040,
        "total": 2371
      },
      {
        "club_badge_src": "https://fantasy.premierleague.com/gcs/plfpl-production-adobe-approved/plfpl-production/4045100/cb98ef25-3a74-4b41-9b8f-1943100e62f6.png",
        "entry": 4045100,
        "entry_name": "No one likes us",
        "event_total": 61,
        "has_played": true,
        "id": 30508952,
        "last_rank": 30600,
        "player_name": "Micky Burke",
        "rank": 27002,
        "rank_sort": 27041,
        "total": 2371
      },
      {
        "club_badge_src": null,
        "entry": 4070196,
        "entry_name": "Monkey Tennis FC",
        "event_total": 71,
        "has_played": true,
        "id": 30720394,
        "last_rank": 42506,
        "player_name": "Sean Hayes",
        "rank": 27002,
        "rank_sort": 27042,
        "total": 2371
      },
      {
        "club_badge_src": null,
        "entry": 4362781,
        "entry_name": "...",
        "event_total": 55,
        "has_played": true,
        "id": 33137610,
        "last_rank": 25002,
        "player_name": "James Moura",
        "rank": 27002,
        "rank_sort": 27043,
        "total": 2371
      },
      {
        "club_badge_src": null,
        "entry": 4585606,
        "entry_name": "1st Degree Fellaini",
        "event_total": 52,
        "has_played": true,
        "id": 35010693,
        "last_rank": 22534,
        "player_name": "Minal Jairam",
        "rank": 27002,
        "rank_sort": 27044,
        "total": 2371
      },
      {
        "club_badge_src": null,
        "entry": 4784441,
        "entry_name": "Keyser Sosa",
        "event_total": 48,
        "has_played": true,
        "id": 36831726,
        "last_rank": 19432,
        "player_name": "robert nesbitt",
        "rank": 27002,
        "rank_sort": 27045,
        "total": 2371
      },
      {
        "club_badge_src": null,
        "entry": 5500372,
        "entry_name": "Los chicos",
        "event_total": 53,
        "has_played": true,
        "id": 42857099,
        "last_rank": 23230,
        "player_name": "Marko Kadiev",
        "rank": 27002,
        "rank_sort": 27046,
        "total": 2371
      },
      {
        "club_badge_src": null,
        "entry": 5700329,
        "entry_name": "Tranquilo FC",
        "event_total": 57,
        "has_played": true,
        "id": 44630500,
        "last_rank": 26631,
        "player_name": "Ivan Eng.",
        "rank": 27002,
        "rank_sort": 27047,
        "total": 2371
      },
      {
        "club_badge_src": null,
        "entry": 5718661,
        "entry_name": "Bernardi\u00f1o",
        "event_total": 67,
        "has_played": true,
        "id": 44791798,
        "last_rank": 37376,
        "player_name": "Billy Berner",
        "rank": 27002,
        "rank_sort": 27048,
        "total": 2371
      },
      {
        "club_badge_src": null,
        "entry": 6415453,
        "entry_name": "SamdechGuideKopStand",
        "event_total": 65,
        "has_played": true,
        "id": 51057280,
        "last_rank": 34937,
        "player_name": "Guide Chinnarit",
        "rank": 27002,
        "rank_sort": 27049,
        "total": 2371
      },
      {
        "club_badge_src": null,
        "entry": 6652415,
        "entry_name": "Peaky Reijnders",
        "event_total": 68,
        "has_played": true,
        "id": 53183968,
        "last_rank": 38644,
        "player_name": "Oisin Costello",
        "rank": 27002,
        "rank_sort": 27050,
        "total": 2371
      }
    ]
  }
}