{
  "last_updated_data": "2026-05-24T23:28:17Z",
  "league": {
    "admin_entry": null,
    "closed": false,
    "code_privacy": "p",
    "created": "2025-07-20T23:14:33.933835Z",
    "cup_league": 2815434,
    "has_cup": true,
    "id": 314,
    "league_type": "s",
    "max_entries": null,
    "name": "Overall",
    "rank": null,
    "scoring": "c",
    "start_event": 1
  },
  "new_entries": {
    "has_next": false,
    "page": 1,
    "results": []
  },
  "standings": {
    "has_next": true,
    "page": 151,
    "results": [
      {
        "club_badge_src": null,
        "entry": 428478,
        "entry_name": "Old Havertz Kai Hard",
        "event_total": 51,
        "has_played": true,
        "id": 2873889,
        "last_rank": 5448,
        "player_name": "Robbie Pfeifer",
        "rank": 7482,
        "rank_sort": 7501,
        "total": 2405
      },
      {
        "club_badge_src": null,
        "entry": 520648,
        "entry_name": "\u0627\u0644\u0639\u06a4\u064a\u062f",
        "event_total": 62,
        "has_played": true,
        "id": 3496384,
        "last_rank": 8758,
        "player_name": "\u0632\u064a\u0627\u062f \u0627\u0644\u06a8\u0646\u064a\u0634\u064a----",
        "rank": 7482,
        "rank_sort": 7502,
        "total": 2405
      },
      {
        "club_badge_src": null,
        "entry": 742000,
        "entry_name": "NASL All-Stars",
        "event_total": 52,
        "has_played": true,
        "id": 5046834,
        "last_rank": 5688,
        "player_name": "Simon MacNair",
        "rank": 7482,
        "rank_sort": 7503,
        "total": 2405
      },
      {
        "club_badge_src": null,
        "entry": 779138,
        "entry_name": "MaccAttack",
        "event_total": 52,
        "has_played": true,
        "id": 5318206,
        "last_rank": 5627,
        "player_name": "Andrew McManus",
        "rank": 7482,
        "rank_sort": 7504,
        "total": 2405
      },
      {
        "club_badge_src": null,
        "entry": 806079,
        "entry_name": "Hesho 14",
        "event_total": 60,
        "has_played": true,
        "id": 5518034,
        "last_rank": 8032,
        "player_name": "Ahmed Hashem",
        "rank": 7482,
        "rank_sort": 7505,
        "total": 2405
      },
      {
        "club_badge_src": null,
        "entry": 841678,
        "entry_name": "only time will Tel",
        "event_total": 48,
        "has_played": true,
        "id": 5766757,
        "last_rank": 4804,
        "player_name": "Steven Donegan",
        "rank": 7482,
        "rank_sort": 7506,
        "total": 2405
      },
      {
        "club_badge_src": null,
        "entry": 843634,
        "entry_name": "Cams Hotshots",
        "event_total": 49,
        "has_played": true,
        "id": 5780211,
        "last_rank": 4954,
        "player_name": "Cameron Emery",
        "rank": 7482,
        "rank_sort": 7507,
        "total": 2405
      },
      {
        "club_badge_src": null,
        "entry": 879700,
        "entry_name": "Save The Dip",
        "event_total": 66,
        "has_played": true,
        "id": 6032484,
        "last_rank": 10346,
        "player_name": "Robert Lee",
        "rank": 7482,
        "rank_sort": 7508,
        "total": 2405
      },
      {
        "club_badge_src": null,
        "entry": 907262,
        "entry_name": "Nialls XI",
        "event_total": 59,
        "has_played": true,
        "id": 6236442,
        "last_rank": 7761,
        "player_name": "Niall Buchanan",
        "rank": 7482,
        "rank_sort": 7509,
        "total": 2405
      },
      {
        "club_badge_src": null,
        "entry": 919596,
        "entry_name": "JENAITED",
        "event_total": 41,
        "has_played": true,
        "id": 6324117,
        "last_rank": 3408,
        "player_name": "Ole fredrik Bygland",
        "rank": 7482,
        "rank_sort": 7510,
        "total": 2405
      },
      {
        "club_badge_src": null,
        "entry": 946521,
        "entry_name": "\u0627\u0644\u0644\u064a \u0647\u0646\u0644\u0645\u062d\u0647 \u0647\u0646\u0645\u0631\u062c\u062d\u0647",
        "event_total": 58,
        "has_played": true,
        "id": 6519361,
        "last_rank": 7333,
        "player_name": "\u0648\u0644\u064a\u062f \u0627\u0644\u0628\u0631\u062f\u0648\u064a\u0644",
        "rank": 7482,
        "rank_sort": 7511,
        "total": 2405
      },
      {
        "club_badge_src": null,
        "entry": 983293,
        "entry_name": "S\u00e5 I R\u00f8gen?",
        "event_total": 58,
        "has_played": true,
        "id": 6779317,
        "last_rank": 7310,
        "player_name": "Jakob Holm Christensen",
        "rank": 7482,
        "rank_sort": 7512,
        "total": 2405
      },
      {
        "club_badge_src": null,
        "entry": 1064029,
        "entry_name": "Yoro Millions",
        "event_total": 62,
        "has_played": true,
        "id": 7365931,
        "last_rank": 8758,
        "player_name": "Ronan Harten",
        "rank": 7482,
        "rank_sort": 7513,
        "total": 2405
      },
      {
        "club_badge_src": null,
        "entry": 1184555,
        "entry_name": "Fc Amorim",
        "event_total": 64,
        "has_played": true,
        "id": 8218673,
        "last_rank": 9536,
        "player_name": "\u017danluka Podgornik Pulec",
        "rank": 7482,
        "rank_sort": 7514,
        "total": 2405
      },
      {
        "club_badge_src": null,
        "entry": 1229307,
        "entry_name": "Bobwithink",
        "event_total": 41,
        "has_played": true,
        "id": 8535827,
        "last_rank": 3408,
        "player_name": "Bob Procter",
        "rank": 7482,
        "rank_sort": 7515,
        "total": 2405
      },
      {
        "club_badge_src": "https://fantasy.premierleague.com/gcs/plfpl-production-adobe-approved/plfpl-production/1278299/0bf4e974-a03d-461a-b266-04f57e674613.png",
        "entry": 1278299,
        "entry_name": "Cunha vonne i \u00e5r da",
        "event_total": 75,
        "has_played": true,
        "id": 8882590,
        "last_rank": 14857,
        "player_name": "Erik Eileraas",
        "rank": 7482,
        "rank_sort": 7516,
        "total": 2405
      },
      {
        "club_badge_src": null,
        "entry": 1345439,
        "entry_name": "Sraab69",
        "event_total": 42,
        "has_played": true,
        "id": 9354071,
        "last_rank": 3528,
        "player_name": "Turki Alsubaie",
        "rank": 7482,
        "rank_sort": 7517,
        "total": 2405
      },
      {
        "club_badge_src": null,
        "entry": 1531903,
        "entry_name": "Honzy",
        "event_total": 78,
        "has_played": true,
        "id": 10690211,
        "last_rank": 16675,
        "player_name": "Hani Mo",
        "rank": 7482,
        "rank_sort": 7518,
        "total": 2405
      },
      {
        "club_badge_src": null,
        "entry": 1706578,
        "entry_name": "woodsy11",
        "event_total": 51,
        "has_played": true,
        "id": 11955794,
        "last_rank": 5448,
        "player_name": "Ben Wood",
        "rank": 7482,
        "rank_sort": 7519,
        "total": 2405
      },
      {
        "club_badge_src": null,
        "entry": 1773163,
        "entry_name": "Bungee Gum",
        "event_total": 64,
        "has_played": true,
        "id": 12456292,
        "last_rank": 9448,
        "player_name": "Miguel Cerqueira",
        "rank": 7482,
        "rank_sort": 7520,
        "total": 2405
      },
      {
        "club_badge_src": null,
        "entry": 1830908,
        "entry_name": "WilliamRandolphHurst",
        "event_total": 76,
        "has_played": true,
        "id": 12878843,
        "last_rank": 15388,
        "player_name": "Niall Buckley",
        "rank": 7482,
        "rank_sort": 7521,
        "total": 2405
      },
      {
        "club_badge_src": null,
        "entry": 2349811,
        "entry_name": "3-4-3 & Pray",
        "event_total": 63,
        "has_played": true,
        "id": 16766524,
        "last_rank": 9089,
        "player_name": "Neeraj Bhatia",
        "rank": 7482,
        "rank_sort": 7522,
        "total": 2405
      },
      {
        "club_badge_src": null,
        "entry": 2393971,
        "entry_name": "Storm to the Top",
        "event_total": 56,
        "has_played": true,
        "id": 17101813,
        "last_rank": 6752,
        "player_name": "Manav Jain",
        "rank": 7482,
        "rank_sort": 7523,
        "total": 2405
      },
      {
        "club_badge_src": null,
        "entry": 2524078,
        "entry_name": "egg gy\u00f6k",
        "event_total": 56,
        "has_played": true,
        "id": 18086204,
        "last_rank": 6687,
        "player_name": "Vega Sproul",
        "rank": 7482,
        "rank_sort": 7524,
        "total": 2405
      },
      {
        "club_badge_src": null,
        "entry": 2679294,
        "entry_name": "Paquet\u00e1 Busquets",
        "event_total": 69,
        "has_played": true,
        "id": 19269301,
        "last_rank": 11699,
        "player_name": "Steve Hardy",
        "rank": 7482,
        "rank_sort": 7525,
        "total": 2405
      },
      {
        "club_badge_src": null,
        "entry": 3001989,
        "entry_name": "Pain in Mabbutt",
        "event_total": 45,
        "has_played": true,
        "id": 22081090,
        "last_rank": 4062,
        "player_name": "Laura Davy",
        "rank": 7482,
        "rank_sort": 7526,
        "total": 2405
      },
      {
        "club_badge_src": null,
        "entry": 3378693,
        "entry_name": "Malibu FC",
        "event_total": 70,
        "has_played": true,
        "id": 25078773,
        "last_rank": 12109,
        "player_name": "Makaziwe Mali Ngubeni",
        "rank": 7482,
        "rank_sort": 7527,
        "total": 2405
      },
      {
        "club_badge_src": null,
        "entry": 3403121,
        "entry_name": "Uncle Benoit's Rice",
        "event_total": 65,
        "has_played": true,
        "id": 25268542,
        "last_rank": 9942,
        "player_name": "Alexander Murdoch",
        "rank": 7482,
        "rank_sort": 7528,
        "total": 2405
      },
      {
        "club_badge_src": null,
        "entry": 3408208,
        "entry_name": "N",
        "event_total": 61,
        "has_played": true,
        "id": 25310490,
        "last_rank": 7014,
        "player_name": "Noura Abdulrahman",
        "rank": 7482,
        "rank_sort": 7529,
        "total": 2405
      },
      {
        "club_badge_src": null,
        "entry": 3728884,
        "entry_name": "IngsCanOnlyGetBetter",
        "event_total": 69,
        "has_played": true,
        "id": 27831986,
        "last_rank": 11608,
        "player_name": "Jamie Donald",
        "rank": 7482,
        "rank_sort": 7530,
        "total": 2405
      },
      {
        "club_badge_src": null,
        "entry": 3747140,
        "entry_name": "FC Kennholt",
        "event_total": 73,
        "has_played": true,
        "id": 27973080,
        "last_rank": 13720,
        "player_name": "David Feldell",
        "rank": 7482,
        "rank_sort": 7531,
        "total": 2405
      },
      {
        "club_badge_src": null,
        "entry": 3789069,
        "entry_name": "\u734c\u6027\u4e2d\u6bd2",
        "event_total": 64,
        "has_played": true,
        "id": 28309367,
        "last_rank": 9484,
        "player_name": "Jonathan Lau",
        "rank": 7482,
        "rank_sort": 7532,
        "total": 2405
      },
      {
        "club_badge_src": null,
        "entry": 3946313,
        "entry_name": "*DR.BODY*",
        "event_total": 78,
        "has_played": true,
        "id": 29686919,
        "last_rank": 14234,
        "player_name": "-DR. BODY-",
        "rank": 7482,
        "rank_sort": 7533,
        "total": 2405
      },
      {
        "club_badge_src": null,
        "entry": 4073911,
        "entry_name": "There\u2019s Noni 2 Worry",
        "event_total": 44,
        "has_played": true,
        "id": 30751020,
        "last_rank": 3902,
        "player_name": "Adrian Bruney",
        "rank": 7482,
        "rank_sort": 7534,
        "total": 2405
      },
      {
        "club_badge_src": null,
        "entry": 4639151,
        "entry_name": "Gangsta's Allardyce",
        "event_total": 56,
        "has_played": true,
        "id": 35479047,
        "last_rank": 6703,
        "player_name": "Jonny Fehres",
        "rank": 7482,
        "rank_sort": 7535,
        "total": 2405
      },
      {
        "club_badge_src": "https://fantasy.premierleague.com/gcs/plfpl-production-adobe-approved/plfpl-production/4650516/8a115b3c-cfac-47a0-8b06-129ee9682b35.png",
        "entry": 4650516,
        "entry_name": "Slot My Wirtz In",
        "event_total": 47,
        "has_played": true,
        "id": 35579514,
        "last_rank": 4488,
        "player_name": "Sandy Neill",
        "rank": 7482,
        "rank_sort": 7536,
        "total": 2405
      },
      {
        "club_badge_src": null,
        "entry": 4883037,
        "entry_name": "ThomasTheFrankEngine",
        "event_total": 61,
        "has_played": true,
        "id": 37644514,
        "last_rank": 8382,
        "player_name": "Timothy Rawlinson",
        "rank": 7482,
        "rank_sort": 7537,
        "total": 2405
      },
      {
        "club_badge_src": null,
        "entry": 5523294,
        "entry_name": "Team Rocket",
        "event_total": 50,
        "has_played": true,
        "id": 43071348,
        "last_rank": 5173,
        "player_name": "Geir Slangsvold",
        "rank": 7482,
        "rank_sort": 7538,
        "total": 2405
      },
      {
        "club_badge_src": null,
        "entry": 5996963,
        "entry_name": "Skellyng Sunset",
        "event_total": 37,
        "has_played": true,
        "id": 47269020,
        "last_rank": 2824,
        "player_name": "Alex Carty",
        "rank": 7482,
        "rank_sort": 7539,
        "total": 2405
      },
      {
        "club_badge_src": null,
        "entry": 6091291,
        "entry_name": "Santa's Reijnders",
        "event_total": 57,
        "has_played": true,
        "id": 48101357,
        "last_rank": 7059,
        "player_name": "Timothy J",
        "rank": 7482,
        "rank_sort": 7540,
        "total": 2405
      },
      {
        "club_badge_src": null,
        "entry": 6179788,
        "entry_name": "Lets Gy\u00f6 Eze on them",
        "event_total": 59,
        "has_played": true,
        "id": 48870509,
        "last_rank": 7604,
        "player_name": "Njabulo Cele",
        "rank": 7482,
        "rank_sort": 7541,
        "total": 2405
      },
      {
        "club_badge_src": null,
        "entry": 6180596,
        "entry_name": "Set-piece FC",
        "event_total": 69,
        "has_played": true,
        "id": 48877275,
        "last_rank": 11642,
        "player_name": "SHUAYB ADEN",
        "rank": 7482,
        "rank_sort": 7542,
        "total": 2405
      },
      {
        "club_badge_src": null,
        "entry": 6526447,
        "entry_name": "Naeak",
        "event_total": 60,
        "has_played": true,
        "id": 52057354,
        "last_rank": 8032,
        "player_name": "Naeak wichapom",
        "rank": 7482,
        "rank_sort": 7543,
        "total": 2405
      },
      {
        "club_badge_src": null,
        "entry": 6558839,
        "entry_name": "CtrlAltDligt",
        "event_total": 67,
        "has_played": true,
        "id": 52345782,
        "last_rank": 10748,
        "player_name": "Paresh Parab",
        "rank": 7482,
        "rank_sort": 7544,
        "total": 2405
      },
      {
        "club_badge_src": null,
        "entry": 6595381,
        "entry_name": "Shankly Gates",
        "event_total": 62,
        "has_played": true,
        "id": 52679375,
        "last_rank": 8758,
        "player_name": "Goran Stjepi\u0107",
        "rank": 7482,
        "rank_sort": 7545,
        "total": 2405
      },
      {
        "club_badge_src": null,
        "entry": 6729225,
        "entry_name": "Ceszlo Boz",
        "event_total": 67,
        "has_played": true,
        "id": 53860460,
        "last_rank": 10805,
        "player_name": "George Bebeselea",
        "rank": 7482,
        "rank_sort": 7546,
        "total": 2405
      },
      {
        "club_badge_src": null,
        "entry": 6918466,
        "entry_name": "ChampagneSuperRovers",
        "event_total": 73,
        "has_played": true,
        "id": 55458938,
        "last_rank": 13821,
        "player_name": "Michael Williams",
        "rank": 7482,
        "rank_sort": 7547,
        "total": 2405
      },
      {
        "club_badge_src": null,
        "entry": 7152579,
        "entry_name": "Konat\u00e9 Stop Me Now",
        "event_total": 62,
        "has_played": true,
        "id": 57679208,
        "last_rank": 8718,
        "player_name": "Patrick Nosa",
        "rank": 7482,
        "rank_sort": 7548,
        "total": 2405
      },
      {
        "club_badge_src": null,
        "entry": 7390625,
        "entry_name": "Wirtzcase",
        "event_total": 62,
        "has_played": true,
        "id": 59925578,
        "last_rank": 8758,
        "player_name": "Terry O'Doherty",
        "rank": 7482,
        "rank_sort": 7549,
        "total": 2405
      },
      {
        "club_badge_src": null,
        "entry": 7810780,
        "entry_name": "Glera Rovers",
        "event_total": 56,
        "has_played": true,
        "id": 64170661,
        "last_rank": 6752,
        "player_name": "Niall McGourty",
        "rank": 7482,
        "rank_sort": 7550,
        "total": 2405
      }
    ]
  }
}