{
  "last_updated_data": "2026-05-24T23:28:17Z",
  "league": {
    "admin_entry": null,
    "closed": false,
    "code_privacy": "p",
    "created": "2025-07-20T23:14:33.933835Z",
    "cup_league": 2815434,
    "has_cup": true,
    "id": 314,
    "league_type": "s",
    "max_entries": null,
    "name": "Overall",
    "rank": null,
    "scoring": "c",
    "start_event": 1
  },
  "new_entries": {
    "has_next": false,
    "page": 1,
    "results": []
  },
  "standings": {
    "has_next": true,
    "page": 562,
    "results": [
      {
        "club_badge_src": null,
        "entry": 788149,
        "entry_name": "McGinn and Tonic",
        "event_total": 73,
        "has_played": true,
        "id": 5389445,
        "last_rank": 46660,
        "player_name": "Taylor Eades",
        "rank": 27990,
        "rank_sort": 28051,
        "total": 2370
      },
      {
        "club_badge_src": null,
        "entry": 866365,
        "entry_name": "JackieLeFou",
        "event_total": 62,
        "has_played": true,
        "id": 5939337,
        "last_rank": 32688,
        "player_name": "Jakob Desodt",
        "rank": 27990,
        "rank_sort": 28052,
        "total": 2370
      },
      {
        "club_badge_src": null,
        "entry": 876232,
        "entry_name": "Cunha Matata",
        "event_total": 60,
        "has_played": true,
        "id": 6007411,
        "last_rank": 30600,
        "player_name": "Jaymus Seah",
        "rank": 27990,
        "rank_sort": 28053,
        "total": 2370
      },
      {
        "club_badge_src": null,
        "entry": 887576,
        "entry_name": "Springfield Isotopes",
        "event_total": 68,
        "has_played": true,
        "id": 6087684,
        "last_rank": 39874,
        "player_name": "James Williams Lock",
        "rank": 27990,
        "rank_sort": 28054,
        "total": 2370
      },
      {
        "club_badge_src": null,
        "entry": 893198,
        "entry_name": "The 2nd",
        "event_total": 51,
        "has_played": true,
        "id": 6135334,
        "last_rank": 22685,
        "player_name": "Ray Chan",
        "rank": 27990,
        "rank_sort": 28055,
        "total": 2370
      },
      {
        "club_badge_src": null,
        "entry": 947283,
        "entry_name": "SandlandFC",
        "event_total": 76,
        "has_played": true,
        "id": 6524798,
        "last_rank": 51403,
        "player_name": "AUmar -\ufe0f",
        "rank": 27990,
        "rank_sort": 28056,
        "total": 2370
      },
      {
        "club_badge_src": null,
        "entry": 965818,
        "entry_name": "M\u00e5ndala Effect",
        "event_total": 50,
        "has_played": true,
        "id": 6656466,
        "last_rank": 21775,
        "player_name": "Vegard Stokke",
        "rank": 27990,
        "rank_sort": 28057,
        "total": 2370
      },
      {
        "club_badge_src": "https://fantasy.premierleague.com/gcs/plfpl-production-adobe-approved/plfpl-production/982105/36bc13d1-6c61-4085-84e9-a604527a86b1.png",
        "entry": 982105,
        "entry_name": "FC J\u00e4rpe",
        "event_total": 43,
        "has_played": true,
        "id": 6770726,
        "last_rank": 16807,
        "player_name": "Fredrik Liljeqvist",
        "rank": 27990,
        "rank_sort": 28058,
        "total": 2370
      },
      {
        "club_badge_src": null,
        "entry": 1037280,
        "entry_name": "Go Go Gadget",
        "event_total": 48,
        "has_played": true,
        "id": 7178104,
        "last_rank": 20280,
        "player_name": "Brian Gaffney",
        "rank": 27990,
        "rank_sort": 28059,
        "total": 2370
      },
      {
        "club_badge_src": null,
        "entry": 1068601,
        "entry_name": "Garys XI",
        "event_total": 51,
        "has_played": true,
        "id": 7397758,
        "last_rank": 22534,
        "player_name": "Gary Greatorex",
        "rank": 27990,
        "rank_sort": 28060,
        "total": 2370
      },
      {
        "club_badge_src": null,
        "entry": 1098623,
        "entry_name": "Patas Grabbar",
        "event_total": 59,
        "has_played": true,
        "id": 7609641,
        "last_rank": 29688,
        "player_name": "Patrik Jeppsson",
        "rank": 27990,
        "rank_sort": 28061,
        "total": 2370
      },
      {
        "club_badge_src": null,
        "entry": 1128545,
        "entry_name": "Simpleman Utd",
        "event_total": 69,
        "has_played": true,
        "id": 7821435,
        "last_rank": 41101,
        "player_name": "Gideon Ng",
        "rank": 27990,
        "rank_sort": 28062,
        "total": 2370
      },
      {
        "club_badge_src": null,
        "entry": 1262908,
        "entry_name": "net-six-and-chill",
        "event_total": 71,
        "has_played": true,
        "id": 8774504,
        "last_rank": 44048,
        "player_name": "Somto Ezenagu",
        "rank": 27990,
        "rank_sort": 28063,
        "total": 2370
      },
      {
        "club_badge_src": "https://fantasy.premierleague.com/gcs/plfpl-production-adobe-approved/plfpl-production/1266396/12ed3dd1-6cd5-45e7-aade-99e832167040.png",
        "entry": 1266396,
        "entry_name": "Shazza Khan Utd",
        "event_total": 56,
        "has_played": true,
        "id": 8799112,
        "last_rank": 26827,
        "player_name": "Sarah Cottam",
        "rank": 27990,
        "rank_sort": 28064,
        "total": 2370
      },
      {
        "club_badge_src": null,
        "entry": 1337660,
        "entry_name": "Count Doku",
        "event_total": 68,
        "has_played": true,
        "id": 9300328,
        "last_rank": 40036,
        "player_name": "D\u00e1ire Grant Adams",
        "rank": 27990,
        "rank_sort": 28065,
        "total": 2370
      },
      {
        "club_badge_src": null,
        "entry": 1491267,
        "entry_name": "Hobbit FC",
        "event_total": 72,
        "has_played": true,
        "id": 10399302,
        "last_rank": 45126,
        "player_name": "Albin Wel\u00e9n",
        "rank": 27990,
        "rank_sort": 28066,
        "total": 2370
      },
      {
        "club_badge_src": null,
        "entry": 1539029,
        "entry_name": "Weejockpoolongmcplop",
        "event_total": 62,
        "has_played": true,
        "id": 10741245,
        "last_rank": 32751,
        "player_name": "Craig Miller",
        "rank": 27990,
        "rank_sort": 28067,
        "total": 2370
      },
      {
        "club_badge_src": null,
        "entry": 1825694,
        "entry_name": "Blues",
        "event_total": 64,
        "has_played": true,
        "id": 12841093,
        "last_rank": 35166,
        "player_name": "Moataz Yehia",
        "rank": 27990,
        "rank_sort": 28068,
        "total": 2370
      },
      {
        "club_badge_src": null,
        "entry": 1862503,
        "entry_name": "Holmen Campers",
        "event_total": 59,
        "has_played": true,
        "id": 13109219,
        "last_rank": 29688,
        "player_name": "Atle Opsal",
        "rank": 27990,
        "rank_sort": 28069,
        "total": 2370
      },
      {
        "club_badge_src": "https://fantasy.premierleague.com/gcs/plfpl-production-adobe-approved/plfpl-production/1948375/1fa14e06-7b60-4e82-bc2c-983b0b5c7e2a.png",
        "entry": 1948375,
        "entry_name": "Hwang Mee-Chan",
        "event_total": 66,
        "has_played": true,
        "id": 13743667,
        "last_rank": 37589,
        "player_name": "Klaas H.",
        "rank": 27990,
        "rank_sort": 28070,
        "total": 2370
      },
      {
        "club_badge_src": null,
        "entry": 1985828,
        "entry_name": "HaCunha Mateta",
        "event_total": 52,
        "has_played": true,
        "id": 14027603,
        "last_rank": 23522,
        "player_name": "Iyaz B",
        "rank": 27990,
        "rank_sort": 28071,
        "total": 2370
      },
      {
        "club_badge_src": null,
        "entry": 2003902,
        "entry_name": "Hamza23\u00a9\u2122",
        "event_total": 46,
        "has_played": true,
        "id": 14167433,
        "last_rank": 18985,
        "player_name": "Hamza Aiham Toumiat",
        "rank": 27990,
        "rank_sort": 28072,
        "total": 2370
      },
      {
        "club_badge_src": null,
        "entry": 2029260,
        "entry_name": "Rubber Digne Rapids",
        "event_total": 52,
        "has_played": true,
        "id": 14366184,
        "last_rank": 23341,
        "player_name": "Jay Solder",
        "rank": 27990,
        "rank_sort": 28073,
        "total": 2370
      },
      {
        "club_badge_src": "https://fantasy.premierleague.com/gcs/plfpl-production-adobe-approved/plfpl-production/2100932/79a82ed4-9fbd-46fe-9055-4d583378d0f4.png",
        "entry": 2100932,
        "entry_name": "Mainoo Course",
        "event_total": 61,
        "has_played": true,
        "id": 14907321,
        "last_rank": 31747,
        "player_name": "Ronan Earls",
        "rank": 27990,
        "rank_sort": 28074,
        "total": 2370
      },
      {
        "club_badge_src": null,
        "entry": 2116363,
        "entry_name": "Bad to the Bowen",
        "event_total": 56,
        "has_played": true,
        "id": 15031718,
        "last_rank": 27020,
        "player_name": "Keldt Schoeman",
        "rank": 27990,
        "rank_sort": 28075,
        "total": 2370
      },
      {
        "club_badge_src": "https://fantasy.premierleague.com/gcs/plfpl-production-adobe-approved/plfpl-production/2185407/5c6b3969-1742-49bf-93a1-a354b79fef20.png",
        "entry": 2185407,
        "entry_name": "ZNX",
        "event_total": 63,
        "has_played": true,
        "id": 15546224,
        "last_rank": 33936,
        "player_name": "Ng Say Ping",
        "rank": 27990,
        "rank_sort": 28076,
        "total": 2370
      },
      {
        "club_badge_src": null,
        "entry": 2239902,
        "entry_name": "perro veloz",
        "event_total": 69,
        "has_played": true,
        "id": 15957422,
        "last_rank": 41162,
        "player_name": "Tom Konitzer",
        "rank": 27990,
        "rank_sort": 28077,
        "total": 2370
      },
      {
        "club_badge_src": null,
        "entry": 2268218,
        "entry_name": "First Team",
        "event_total": 81,
        "has_played": true,
        "id": 16173248,
        "last_rank": 59813,
        "player_name": "Gordon Dzotrah",
        "rank": 27990,
        "rank_sort": 28078,
        "total": 2370
      },
      {
        "club_badge_src": null,
        "entry": 2358453,
        "entry_name": "raga_11",
        "event_total": 63,
        "has_played": true,
        "id": 16829036,
        "last_rank": 34051,
        "player_name": "Alexander Sanin",
        "rank": 27990,
        "rank_sort": 28079,
        "total": 2370
      },
      {
        "club_badge_src": null,
        "entry": 2387417,
        "entry_name": "Squeaky Bum Time",
        "event_total": 69,
        "has_played": true,
        "id": 17052409,
        "last_rank": 41324,
        "player_name": "James Kent",
        "rank": 27990,
        "rank_sort": 28080,
        "total": 2370
      },
      {
        "club_badge_src": null,
        "entry": 2399540,
        "entry_name": "Diane's Dynamo's",
        "event_total": 48,
        "has_played": true,
        "id": 17149685,
        "last_rank": 20280,
        "player_name": "Diane Bird",
        "rank": 27990,
        "rank_sort": 28081,
        "total": 2370
      },
      {
        "club_badge_src": null,
        "entry": 2452788,
        "entry_name": "Boehly's Ballers",
        "event_total": 53,
        "has_played": true,
        "id": 17543334,
        "last_rank": 24143,
        "player_name": "George Allen",
        "rank": 27990,
        "rank_sort": 28082,
        "total": 2370
      },
      {
        "club_badge_src": null,
        "entry": 2466549,
        "entry_name": "Wieffer Vendetta",
        "event_total": 57,
        "has_played": true,
        "id": 17643734,
        "last_rank": 27770,
        "player_name": "Bill Adams",
        "rank": 27990,
        "rank_sort": 28083,
        "total": 2370
      },
      {
        "club_badge_src": null,
        "entry": 2482751,
        "entry_name": "wirtz nightmare",
        "event_total": 64,
        "has_played": true,
        "id": 17765703,
        "last_rank": 35424,
        "player_name": "Himmat Gill",
        "rank": 27990,
        "rank_sort": 28084,
        "total": 2370
      },
      {
        "club_badge_src": null,
        "entry": 2496477,
        "entry_name": "Variance",
        "event_total": 37,
        "has_played": true,
        "id": 17873599,
        "last_rank": 13153,
        "player_name": "Sajal Gupta",
        "rank": 27990,
        "rank_sort": 28085,
        "total": 2370
      },
      {
        "club_badge_src": null,
        "entry": 2555177,
        "entry_name": "No balls Murphy",
        "event_total": 65,
        "has_played": true,
        "id": 18322003,
        "last_rank": 36348,
        "player_name": "Mark Bird",
        "rank": 27990,
        "rank_sort": 28086,
        "total": 2370
      },
      {
        "club_badge_src": "https://fantasy.premierleague.com/gcs/plfpl-production-adobe-approved/plfpl-production/2740336/8da697bc-5591-4921-ab35-3b5acf03e011.png",
        "entry": 2740336,
        "entry_name": "DOMINATORS",
        "event_total": 62,
        "has_played": true,
        "id": 19771034,
        "last_rank": 32879,
        "player_name": "Dominic Ferguson",
        "rank": 27990,
        "rank_sort": 28087,
        "total": 2370
      },
      {
        "club_badge_src": null,
        "entry": 2785132,
        "entry_name": "come back kings",
        "event_total": 42,
        "has_played": true,
        "id": 20332371,
        "last_rank": 16163,
        "player_name": "Christo Stoffels",
        "rank": 27990,
        "rank_sort": 28088,
        "total": 2370
      },
      {
        "club_badge_src": null,
        "entry": 2817718,
        "entry_name": "Ofrer alt",
        "event_total": 72,
        "has_played": true,
        "id": 20581608,
        "last_rank": 45182,
        "player_name": "Magnus Jortveit",
        "rank": 27990,
        "rank_sort": 28089,
        "total": 2370
      },
      {
        "club_badge_src": null,
        "entry": 2887041,
        "entry_name": "\u0425\u0430\u045f\u0438\u043d \u0413\u0430\u043d",
        "event_total": 66,
        "has_played": true,
        "id": 21136727,
        "last_rank": 37435,
        "player_name": "\u0402\u043e\u0440\u0452\u0438\u0458\u0435 \u0425\u0430\u045f\u0438\u045b",
        "rank": 27990,
        "rank_sort": 28090,
        "total": 2370
      },
      {
        "club_badge_src": null,
        "entry": 2926874,
        "entry_name": "Sakas Maracas",
        "event_total": 67,
        "has_played": true,
        "id": 21457610,
        "last_rank": 38644,
        "player_name": "Mathias Jonestrand",
        "rank": 27990,
        "rank_sort": 28091,
        "total": 2370
      },
      {
        "club_badge_src": null,
        "entry": 2979937,
        "entry_name": "obi wan kenobi nil",
        "event_total": 69,
        "has_played": true,
        "id": 21909177,
        "last_rank": 41324,
        "player_name": "Mark Turner",
        "rank": 27990,
        "rank_sort": 28092,
        "total": 2370
      },
      {
        "club_badge_src": null,
        "entry": 3015081,
        "entry_name": "Kinder Mbuemo",
        "event_total": 55,
        "has_played": true,
        "id": 22181987,
        "last_rank": 25776,
        "player_name": "T V",
        "rank": 27990,
        "rank_sort": 28093,
        "total": 2370
      },
      {
        "club_badge_src": null,
        "entry": 3035268,
        "entry_name": "Pusey Patrol",
        "event_total": 66,
        "has_played": true,
        "id": 22338395,
        "last_rank": 37435,
        "player_name": "Alfie Keech",
        "rank": 27990,
        "rank_sort": 28094,
        "total": 2370
      },
      {
        "club_badge_src": null,
        "entry": 3173160,
        "entry_name": "ctrl_alt_dilip",
        "event_total": 62,
        "has_played": true,
        "id": 23445387,
        "last_rank": 32879,
        "player_name": "Dilip Sabherwal",
        "rank": 27990,
        "rank_sort": 28095,
        "total": 2370
      },
      {
        "club_badge_src": null,
        "entry": 3176929,
        "entry_name": "ScaryGoodFC",
        "event_total": 55,
        "has_played": true,
        "id": 23474704,
        "last_rank": 25776,
        "player_name": "Naoko Yamamoto",
        "rank": 27990,
        "rank_sort": 28096,
        "total": 2370
      },
      {
        "club_badge_src": null,
        "entry": 3285271,
        "entry_name": "WirtzNightmare",
        "event_total": 61,
        "has_played": true,
        "id": 24319585,
        "last_rank": 31747,
        "player_name": "Mathew Sebastian",
        "rank": 27990,
        "rank_sort": 28097,
        "total": 2370
      },
      {
        "club_badge_src": null,
        "entry": 3325298,
        "entry_name": "Seven nil",
        "event_total": 76,
        "has_played": true,
        "id": 24652475,
        "last_rank": 51403,
        "player_name": "Gav Kearns",
        "rank": 27990,
        "rank_sort": 28098,
        "total": 2370
      },
      {
        "club_badge_src": null,
        "entry": 3371132,
        "entry_name": "Ghosts of Gtech Past",
        "event_total": 49,
        "has_played": true,
        "id": 25017990,
        "last_rank": 20888,
        "player_name": "Hugo W",
        "rank": 27990,
        "rank_sort": 28099,
        "total": 2370
      },
      {
        "club_badge_src": null,
        "entry": 3441083,
        "entry_name": "winnie gakpooh",
        "event_total": 56,
        "has_played": true,
        "id": 25565064,
        "last_rank": 26827,
        "player_name": "Hassan \u0641\u0644\u0648\u0633",
        "rank": 27990,
        "rank_sort": 28100,
        "total": 2370
      }
    ]
  }
}