{
  "last_updated_data": "2026-05-24T23:28:17Z",
  "league": {
    "admin_entry": null,
    "closed": false,
    "code_privacy": "p",
    "created": "2025-07-20T23:14:33.933835Z",
    "cup_league": 2815434,
    "has_cup": true,
    "id": 314,
    "league_type": "s",
    "max_entries": null,
    "name": "Overall",
    "rank": null,
    "scoring": "c",
    "start_event": 1
  },
  "new_entries": {
    "has_next": false,
    "page": 1,
    "results": []
  },
  "standings": {
    "has_next": true,
    "page": 281,
    "results": [
      {
        "club_badge_src": null,
        "entry": 254533,
        "entry_name": "115* Charges Not Out",
        "event_total": 79,
        "has_played": true,
        "id": 1693057,
        "last_rank": 25902,
        "player_name": "M Patel",
        "rank": 13989,
        "rank_sort": 14001,
        "total": 2390
      },
      {
        "club_badge_src": null,
        "entry": 278381,
        "entry_name": "Galerianki",
        "event_total": 50,
        "has_played": true,
        "id": 1852854,
        "last_rank": 8552,
        "player_name": "Konrad Trzeciak",
        "rank": 13989,
        "rank_sort": 14002,
        "total": 2390
      },
      {
        "club_badge_src": null,
        "entry": 293552,
        "entry_name": "TRY",
        "event_total": 62,
        "has_played": true,
        "id": 1959605,
        "last_rank": 16441,
        "player_name": "Terry WONG",
        "rank": 13989,
        "rank_sort": 14003,
        "total": 2390
      },
      {
        "club_badge_src": null,
        "entry": 346212,
        "entry_name": "Old Boys",
        "event_total": 49,
        "has_played": true,
        "id": 2317439,
        "last_rank": 9711,
        "player_name": "Jan Gut",
        "rank": 13989,
        "rank_sort": 14004,
        "total": 2390
      },
      {
        "club_badge_src": null,
        "entry": 361623,
        "entry_name": "The Other Guys",
        "event_total": 70,
        "has_played": true,
        "id": 2419705,
        "last_rank": 22154,
        "player_name": "Simon Stow",
        "rank": 13989,
        "rank_sort": 14005,
        "total": 2390
      },
      {
        "club_badge_src": null,
        "entry": 397175,
        "entry_name": "Mark's moshpits",
        "event_total": 59,
        "has_played": true,
        "id": 2663254,
        "last_rank": 12420,
        "player_name": "Mark Boden",
        "rank": 13989,
        "rank_sort": 14006,
        "total": 2390
      },
      {
        "club_badge_src": null,
        "entry": 425949,
        "entry_name": "\u0633\u0628\u062d\u0627\u0646 \u0627\u0644\u0644\u0647 \u0648\u0628\u062d\u0645\u062f\u0647",
        "event_total": 67,
        "has_played": true,
        "id": 2855480,
        "last_rank": 19721,
        "player_name": "Boto Flick",
        "rank": 13989,
        "rank_sort": 14007,
        "total": 2390
      },
      {
        "club_badge_src": null,
        "entry": 488823,
        "entry_name": "bouga",
        "event_total": 71,
        "has_played": true,
        "id": 3281535,
        "last_rank": 19835,
        "player_name": "yassine bouguezzi",
        "rank": 13989,
        "rank_sort": 14008,
        "total": 2390
      },
      {
        "club_badge_src": null,
        "entry": 514582,
        "entry_name": "jackie chan",
        "event_total": 54,
        "has_played": true,
        "id": 3455064,
        "last_rank": 10102,
        "player_name": "Victor Rydberg",
        "rank": 13989,
        "rank_sort": 14009,
        "total": 2390
      },
      {
        "club_badge_src": null,
        "entry": 524167,
        "entry_name": "Tiki Taka Terror",
        "event_total": 79,
        "has_played": true,
        "id": 3521240,
        "last_rank": 29904,
        "player_name": "Mohit Kumaria",
        "rank": 13989,
        "rank_sort": 14010,
        "total": 2390
      },
      {
        "club_badge_src": "https://fantasy.premierleague.com/gcs/plfpl-production-adobe-approved/plfpl-production/565991/930f96b8-3d1b-4309-8ac2-b539b7d66a71.png",
        "entry": 565991,
        "entry_name": "$paneri",
        "event_total": 75,
        "has_played": true,
        "id": 3809512,
        "last_rank": 16807,
        "player_name": "Marko Kova\u010devi\u0107",
        "rank": 13989,
        "rank_sort": 14011,
        "total": 2390
      },
      {
        "club_badge_src": null,
        "entry": 592054,
        "entry_name": "SamoDisiDuboko",
        "event_total": 78,
        "has_played": true,
        "id": 3989148,
        "last_rank": 21775,
        "player_name": "Dusan Mihailovic",
        "rank": 13989,
        "rank_sort": 14012,
        "total": 2390
      },
      {
        "club_badge_src": null,
        "entry": 613427,
        "entry_name": "Holy Gy\u00f6kamole!",
        "event_total": 51,
        "has_played": true,
        "id": 4144825,
        "last_rank": 8925,
        "player_name": "Ashleigh Hyland",
        "rank": 13989,
        "rank_sort": 14013,
        "total": 2390
      },
      {
        "club_badge_src": "https://fantasy.premierleague.com/gcs/plfpl-production-adobe-approved/plfpl-production/675715/beded1b3-5b27-43e6-8345-8a726bb4ec34.png",
        "entry": 675715,
        "entry_name": "Spurred by Frank",
        "event_total": 67,
        "has_played": true,
        "id": 4571544,
        "last_rank": 19966,
        "player_name": "Andy Savory",
        "rank": 13989,
        "rank_sort": 14014,
        "total": 2390
      },
      {
        "club_badge_src": null,
        "entry": 686219,
        "entry_name": "The Slot Thickens",
        "event_total": 61,
        "has_played": true,
        "id": 4645048,
        "last_rank": 11345,
        "player_name": "Anna Rigby",
        "rank": 13989,
        "rank_sort": 14015,
        "total": 2390
      },
      {
        "club_badge_src": null,
        "entry": 737776,
        "entry_name": "Magpies",
        "event_total": 70,
        "has_played": true,
        "id": 5015793,
        "last_rank": 22154,
        "player_name": "Duncan Barber",
        "rank": 13989,
        "rank_sort": 14016,
        "total": 2390
      },
      {
        "club_badge_src": null,
        "entry": 776797,
        "entry_name": "Ekitik\u00e9taka",
        "event_total": 56,
        "has_played": true,
        "id": 5300290,
        "last_rank": 10992,
        "player_name": "Ruairi Davis Kingscott",
        "rank": 13989,
        "rank_sort": 14017,
        "total": 2390
      },
      {
        "club_badge_src": null,
        "entry": 790022,
        "entry_name": "A.C. Mikasan",
        "event_total": 55,
        "has_played": true,
        "id": 5405298,
        "last_rank": 12512,
        "player_name": "Michael Godridge",
        "rank": 13989,
        "rank_sort": 14018,
        "total": 2390
      },
      {
        "club_badge_src": "https://fantasy.premierleague.com/gcs/plfpl-production-adobe-approved/plfpl-production/802596/9e1dcede-36a4-427a-a4b7-4afcf7de2e5e.png",
        "entry": 802596,
        "entry_name": "Hosni team",
        "event_total": 66,
        "has_played": true,
        "id": 5494024,
        "last_rank": 16441,
        "player_name": "hosni yekhlef",
        "rank": 13989,
        "rank_sort": 14019,
        "total": 2390
      },
      {
        "club_badge_src": null,
        "entry": 1270083,
        "entry_name": "Cold Palmer FC",
        "event_total": 63,
        "has_played": true,
        "id": 8824553,
        "last_rank": 14604,
        "player_name": "james scourse",
        "rank": 13989,
        "rank_sort": 14020,
        "total": 2390
      },
      {
        "club_badge_src": null,
        "entry": 1309440,
        "entry_name": "CimBom",
        "event_total": 66,
        "has_played": true,
        "id": 9101809,
        "last_rank": 19176,
        "player_name": "Eoin Flatley",
        "rank": 13989,
        "rank_sort": 14021,
        "total": 2390
      },
      {
        "club_badge_src": null,
        "entry": 1346165,
        "entry_name": "LUFC",
        "event_total": 60,
        "has_played": true,
        "id": 9359107,
        "last_rank": 15226,
        "player_name": "Edward peasgood",
        "rank": 13989,
        "rank_sort": 14022,
        "total": 2390
      },
      {
        "club_badge_src": null,
        "entry": 1376321,
        "entry_name": "Ballon D'orson",
        "event_total": 59,
        "has_played": true,
        "id": 9567248,
        "last_rank": 14668,
        "player_name": "Alex Jackson",
        "rank": 13989,
        "rank_sort": 14023,
        "total": 2390
      },
      {
        "club_badge_src": "https://fantasy.premierleague.com/gcs/plfpl-production-adobe-approved/plfpl-production/1382846/2d4d54e2-f0be-4f09-b2c3-eeacb5e93c1e.png",
        "entry": 1382846,
        "entry_name": "Fergie Time Traveler",
        "event_total": 58,
        "has_played": true,
        "id": 9617833,
        "last_rank": 11901,
        "player_name": "Farzan Rohani",
        "rank": 13989,
        "rank_sort": 14024,
        "total": 2390
      },
      {
        "club_badge_src": null,
        "entry": 1385979,
        "entry_name": "Duck",
        "event_total": 62,
        "has_played": true,
        "id": 9639984,
        "last_rank": 16512,
        "player_name": "Frank Paul",
        "rank": 13989,
        "rank_sort": 14025,
        "total": 2390
      },
      {
        "club_badge_src": null,
        "entry": 1423152,
        "entry_name": "Wheelers Wonderkids",
        "event_total": 62,
        "has_played": true,
        "id": 9911886,
        "last_rank": 16567,
        "player_name": "Owen Sleap",
        "rank": 13989,
        "rank_sort": 14026,
        "total": 2390
      },
      {
        "club_badge_src": "https://fantasy.premierleague.com/gcs/plfpl-production-adobe-approved/plfpl-production/1542782/e2e2cc9e-8442-4c3a-94f3-d5cfd6c03c0e.png",
        "entry": 1542782,
        "entry_name": "Durtarnir",
        "event_total": 76,
        "has_played": true,
        "id": 10768434,
        "last_rank": 27203,
        "player_name": "\u00deorsteinn Grettir \u00d3lason",
        "rank": 13989,
        "rank_sort": 14027,
        "total": 2390
      },
      {
        "club_badge_src": null,
        "entry": 1608705,
        "entry_name": "Vardy vert sakna",
        "event_total": 48,
        "has_played": true,
        "id": 11255348,
        "last_rank": 7761,
        "player_name": "Kristoffer Haugen",
        "rank": 13989,
        "rank_sort": 14028,
        "total": 2390
      },
      {
        "club_badge_src": null,
        "entry": 1636556,
        "entry_name": "Roger That, UTV",
        "event_total": 58,
        "has_played": true,
        "id": 11455227,
        "last_rank": 14102,
        "player_name": "Jake Stephenson",
        "rank": 13989,
        "rank_sort": 14029,
        "total": 2390
      },
      {
        "club_badge_src": null,
        "entry": 1689947,
        "entry_name": "MeatRaffleFC",
        "event_total": 60,
        "has_played": true,
        "id": 11830442,
        "last_rank": 12940,
        "player_name": "Sean Greene",
        "rank": 13989,
        "rank_sort": 14030,
        "total": 2390
      },
      {
        "club_badge_src": null,
        "entry": 1748281,
        "entry_name": "DJ407-fc",
        "event_total": 65,
        "has_played": true,
        "id": 12268470,
        "last_rank": 18475,
        "player_name": "Dj407 mca",
        "rank": 13989,
        "rank_sort": 14031,
        "total": 2390
      },
      {
        "club_badge_src": null,
        "entry": 1854401,
        "entry_name": "Snowballs chance",
        "event_total": 59,
        "has_played": true,
        "id": 13049585,
        "last_rank": 14668,
        "player_name": "Daniel Snowball",
        "rank": 13989,
        "rank_sort": 14032,
        "total": 2390
      },
      {
        "club_badge_src": null,
        "entry": 2062824,
        "entry_name": "Conor Among Thieves",
        "event_total": 63,
        "has_played": true,
        "id": 14616598,
        "last_rank": 14604,
        "player_name": "Conor O Neill",
        "rank": 13989,
        "rank_sort": 14033,
        "total": 2390
      },
      {
        "club_badge_src": null,
        "entry": 2646177,
        "entry_name": "Optimum",
        "event_total": 68,
        "has_played": true,
        "id": 19019483,
        "last_rank": 20538,
        "player_name": "Nik Javornik",
        "rank": 13989,
        "rank_sort": 14034,
        "total": 2390
      },
      {
        "club_badge_src": null,
        "entry": 2915007,
        "entry_name": "Gordon's Alive!",
        "event_total": 61,
        "has_played": true,
        "id": 21366244,
        "last_rank": 15876,
        "player_name": "Chris Haywood",
        "rank": 13989,
        "rank_sort": 14035,
        "total": 2390
      },
      {
        "club_badge_src": null,
        "entry": 3038626,
        "entry_name": "Power Play 11",
        "event_total": 65,
        "has_played": true,
        "id": 22364746,
        "last_rank": 15797,
        "player_name": "Hussein Babilo",
        "rank": 13989,
        "rank_sort": 14036,
        "total": 2390
      },
      {
        "club_badge_src": null,
        "entry": 3075205,
        "entry_name": "Class on Grass",
        "event_total": 59,
        "has_played": true,
        "id": 22649948,
        "last_rank": 14668,
        "player_name": "Matthew Collins",
        "rank": 13989,
        "rank_sort": 14037,
        "total": 2390
      },
      {
        "club_badge_src": null,
        "entry": 3200262,
        "entry_name": "Fantasy_Guru",
        "event_total": 47,
        "has_played": true,
        "id": 23656384,
        "last_rank": 8999,
        "player_name": "Sanam Sahota",
        "rank": 13989,
        "rank_sort": 14038,
        "total": 2390
      },
      {
        "club_badge_src": null,
        "entry": 3731276,
        "entry_name": "Tonkes prolet\u00e4rer",
        "event_total": 58,
        "has_played": true,
        "id": 27850427,
        "last_rank": 14102,
        "player_name": "Love Sundewall",
        "rank": 13989,
        "rank_sort": 14039,
        "total": 2390
      },
      {
        "club_badge_src": null,
        "entry": 3831732,
        "entry_name": "Slots Galacticos",
        "event_total": 65,
        "has_played": true,
        "id": 28664062,
        "last_rank": 13401,
        "player_name": "Darren Todd",
        "rank": 13989,
        "rank_sort": 14040,
        "total": 2390
      },
      {
        "club_badge_src": "https://fantasy.premierleague.com/gcs/plfpl-production-adobe-approved/plfpl-production/3831808/9bdf1bba-03c6-4efa-8760-f0cb3f313da8.png",
        "entry": 3831808,
        "entry_name": "Victory FC",
        "event_total": 65,
        "has_played": true,
        "id": 28664713,
        "last_rank": 18377,
        "player_name": "Victorino Machava",
        "rank": 13989,
        "rank_sort": 14041,
        "total": 2390
      },
      {
        "club_badge_src": null,
        "entry": 3865058,
        "entry_name": "Viscaa Barca",
        "event_total": 64,
        "has_played": true,
        "id": 28981147,
        "last_rank": 12846,
        "player_name": "Mohammed Aymman",
        "rank": 13989,
        "rank_sort": 14042,
        "total": 2390
      },
      {
        "club_badge_src": null,
        "entry": 4073670,
        "entry_name": "NgeyiEbot united",
        "event_total": 57,
        "has_played": true,
        "id": 30749055,
        "last_rank": 13558,
        "player_name": "Ngeyi Francois",
        "rank": 13989,
        "rank_sort": 14043,
        "total": 2390
      },
      {
        "club_badge_src": "https://fantasy.premierleague.com/gcs/plfpl-production-adobe-approved/plfpl-production/4976553/d2059519-6eba-4aac-9d57-edaced4040d0.png",
        "entry": 4976553,
        "entry_name": "JINXYS SNIPERS",
        "event_total": 72,
        "has_played": true,
        "id": 38414139,
        "last_rank": 23748,
        "player_name": "Mark Jenkins",
        "rank": 13989,
        "rank_sort": 14044,
        "total": 2390
      },
      {
        "club_badge_src": null,
        "entry": 5682286,
        "entry_name": "Champagne Khusanova",
        "event_total": 45,
        "has_played": true,
        "id": 44474469,
        "last_rank": 8234,
        "player_name": "Tom Tipping",
        "rank": 13989,
        "rank_sort": 14045,
        "total": 2390
      },
      {
        "club_badge_src": null,
        "entry": 6261930,
        "entry_name": "McGrory CF",
        "event_total": 51,
        "has_played": true,
        "id": 49579468,
        "last_rank": 8925,
        "player_name": "Jonny Mcgrory",
        "rank": 13989,
        "rank_sort": 14046,
        "total": 2390
      },
      {
        "club_badge_src": null,
        "entry": 6322265,
        "entry_name": "Viktor Glokeres",
        "event_total": 65,
        "has_played": true,
        "id": 50210573,
        "last_rank": 13401,
        "player_name": "Cameron Lillywhite",
        "rank": 13989,
        "rank_sort": 14047,
        "total": 2390
      },
      {
        "club_badge_src": null,
        "entry": 6666937,
        "entry_name": "Inferno FC",
        "event_total": 66,
        "has_played": true,
        "id": 53318443,
        "last_rank": 16441,
        "player_name": "Mubarak Ibrahim",
        "rank": 13989,
        "rank_sort": 14048,
        "total": 2390
      },
      {
        "club_badge_src": "https://fantasy.premierleague.com/gcs/plfpl-production-adobe-approved/plfpl-production/7197424/5efffc03-b3f0-481f-980d-b7cc5eda83a6.png",
        "entry": 7197424,
        "entry_name": "Lewactwo",
        "event_total": 84,
        "has_played": true,
        "id": 58108526,
        "last_rank": 30727,
        "player_name": "Rafa\u0142 Hydzik",
        "rank": 13989,
        "rank_sort": 14049,
        "total": 2390
      },
      {
        "club_badge_src": null,
        "entry": 7212802,
        "entry_name": "Boon FC",
        "event_total": 63,
        "has_played": true,
        "id": 58254719,
        "last_rank": 14604,
        "player_name": "Jaimin Patel",
        "rank": 13989,
        "rank_sort": 14050,
        "total": 2390
      }
    ]
  }
}