{
  "last_updated_data": "2026-05-24T23:28:17Z",
  "league": {
    "admin_entry": null,
    "closed": false,
    "code_privacy": "p",
    "created": "2025-07-20T23:14:33.933835Z",
    "cup_league": 2815434,
    "has_cup": true,
    "id": 314,
    "league_type": "s",
    "max_entries": null,
    "name": "Overall",
    "rank": null,
    "scoring": "c",
    "start_event": 1
  },
  "new_entries": {
    "has_next": false,
    "page": 1,
    "results": []
  },
  "standings": {
    "has_next": true,
    "page": 769,
    "results": [
      {
        "club_badge_src": null,
        "entry": 373472,
        "entry_name": "Major League Saka",
        "event_total": 69,
        "has_played": true,
        "id": 2498767,
        "last_rank": 55932,
        "player_name": "Suleman Jalil",
        "rank": 38397,
        "rank_sort": 38401,
        "total": 2361
      },
      {
        "club_badge_src": null,
        "entry": 599247,
        "entry_name": "PepRoulette",
        "event_total": 60,
        "has_played": true,
        "id": 4042056,
        "last_rank": 42293,
        "player_name": "Omar AlMulla",
        "rank": 38397,
        "rank_sort": 38402,
        "total": 2361
      },
      {
        "club_badge_src": null,
        "entry": 610999,
        "entry_name": "Janusze Klischa",
        "event_total": 68,
        "has_played": true,
        "id": 4128198,
        "last_rank": 47950,
        "player_name": "Micha\u0142 Klisch",
        "rank": 38397,
        "rank_sort": 38403,
        "total": 2361
      },
      {
        "club_badge_src": null,
        "entry": 617326,
        "entry_name": "\u0646\u0645\u0628\u0631 \u0648\u0646 \u0648\u0646\u0635",
        "event_total": 68,
        "has_played": true,
        "id": 4170985,
        "last_rank": 47950,
        "player_name": "MOhamed Alaa",
        "rank": 38397,
        "rank_sort": 38404,
        "total": 2361
      },
      {
        "club_badge_src": null,
        "entry": 1081186,
        "entry_name": "Ahmed Elsayed",
        "event_total": 51,
        "has_played": true,
        "id": 7486231,
        "last_rank": 31459,
        "player_name": "Ahmed Elsayed",
        "rank": 38397,
        "rank_sort": 38405,
        "total": 2361
      },
      {
        "club_badge_src": null,
        "entry": 1434787,
        "entry_name": "Generalen",
        "event_total": 64,
        "has_played": true,
        "id": 9997556,
        "last_rank": 42293,
        "player_name": "Anders Genberg",
        "rank": 38397,
        "rank_sort": 38406,
        "total": 2361
      },
      {
        "club_badge_src": null,
        "entry": 2563596,
        "entry_name": "\u0627\u0633\u0644\u0627\u0645 \u0639\u0644\u0627\u0621",
        "event_total": 64,
        "has_played": true,
        "id": 18387746,
        "last_rank": 42293,
        "player_name": "eslam alaa",
        "rank": 38397,
        "rank_sort": 38407,
        "total": 2361
      },
      {
        "club_badge_src": null,
        "entry": 7669214,
        "entry_name": "princ\u00e8 10 ELPA",
        "event_total": 57,
        "has_played": true,
        "id": 62893654,
        "last_rank": 29393,
        "player_name": "Prince Jr",
        "rank": 38397,
        "rank_sort": 38408,
        "total": 2361
      },
      {
        "club_badge_src": null,
        "entry": 8172943,
        "entry_name": "DenVAAAAAAAArmeste",
        "event_total": 82,
        "has_played": true,
        "id": 67482963,
        "last_rank": 72407,
        "player_name": "Anton Barlach",
        "rank": 38397,
        "rank_sort": 38409,
        "total": 2361
      },
      {
        "club_badge_src": null,
        "entry": 9372714,
        "entry_name": "System of a down",
        "event_total": 64,
        "has_played": true,
        "id": 79107685,
        "last_rank": 37211,
        "player_name": "Wojtas Halbersztadt",
        "rank": 38397,
        "rank_sort": 38410,
        "total": 2361
      },
      {
        "club_badge_src": null,
        "entry": 1256,
        "entry_name": "EmmersonNotSoRoyal*",
        "event_total": 57,
        "has_played": true,
        "id": 6977,
        "last_rank": 33768,
        "player_name": "Sam Emmerson",
        "rank": 38411,
        "rank_sort": 38411,
        "total": 2361
      },
      {
        "club_badge_src": null,
        "entry": 116096,
        "entry_name": "Omar wael 77",
        "event_total": 67,
        "has_played": true,
        "id": 757867,
        "last_rank": 46454,
        "player_name": "omar wael",
        "rank": 38411,
        "rank_sort": 38412,
        "total": 2361
      },
      {
        "club_badge_src": null,
        "entry": 592124,
        "entry_name": "Only Dubs",
        "event_total": 61,
        "has_played": true,
        "id": 3989680,
        "last_rank": 43679,
        "player_name": "Ukash Abdi",
        "rank": 38411,
        "rank_sort": 38413,
        "total": 2361
      },
      {
        "club_badge_src": null,
        "entry": 699424,
        "entry_name": "Arne Slot's Comb",
        "event_total": 68,
        "has_played": true,
        "id": 4738186,
        "last_rank": 54244,
        "player_name": "Kris Miller",
        "rank": 38411,
        "rank_sort": 38414,
        "total": 2361
      },
      {
        "club_badge_src": null,
        "entry": 707867,
        "entry_name": "Dusj-pils Gutteklubb",
        "event_total": 60,
        "has_played": true,
        "id": 4797528,
        "last_rank": 42327,
        "player_name": "Steffen Holmseth",
        "rank": 38411,
        "rank_sort": 38415,
        "total": 2361
      },
      {
        "club_badge_src": null,
        "entry": 3361500,
        "entry_name": "Obi-wan iwobi",
        "event_total": 53,
        "has_played": true,
        "id": 24942208,
        "last_rank": 33751,
        "player_name": "Adam Stimpson",
        "rank": 38411,
        "rank_sort": 38416,
        "total": 2361
      },
      {
        "club_badge_src": null,
        "entry": 4084274,
        "entry_name": "ArsenalDrog",
        "event_total": 71,
        "has_played": true,
        "id": 30834290,
        "last_rank": 35969,
        "player_name": "Louis O'Brien",
        "rank": 38411,
        "rank_sort": 38417,
        "total": 2361
      },
      {
        "club_badge_src": "https://fantasy.premierleague.com/gcs/plfpl-production-adobe-approved/plfpl-production/4855574/84f5a53b-483c-4009-aeaf-754bdae57a96.png",
        "entry": 4855574,
        "entry_name": "MSJ'S PREMIER XI",
        "event_total": 75,
        "has_played": true,
        "id": 37413338,
        "last_rank": 59335,
        "player_name": "M Saad Jada",
        "rank": 38411,
        "rank_sort": 38418,
        "total": 2361
      },
      {
        "club_badge_src": null,
        "entry": 8204077,
        "entry_name": "FC BrUnK",
        "event_total": 59,
        "has_played": true,
        "id": 67778802,
        "last_rank": 31448,
        "player_name": "Linus Svan",
        "rank": 38411,
        "rank_sort": 38419,
        "total": 2361
      },
      {
        "club_badge_src": null,
        "entry": 8461891,
        "entry_name": "REDMAD25",
        "event_total": 65,
        "has_played": true,
        "id": 70267508,
        "last_rank": 38448,
        "player_name": "Soofyan Valli",
        "rank": 38411,
        "rank_sort": 38420,
        "total": 2361
      },
      {
        "club_badge_src": null,
        "entry": 91564,
        "entry_name": "Estevao la bonita",
        "event_total": 55,
        "has_played": true,
        "id": 598119,
        "last_rank": 31471,
        "player_name": "Tapriv \u2606",
        "rank": 38421,
        "rank_sort": 38421,
        "total": 2361
      },
      {
        "club_badge_src": null,
        "entry": 191429,
        "entry_name": "Anfield Sharks",
        "event_total": 67,
        "has_played": true,
        "id": 1267928,
        "last_rank": 36015,
        "player_name": "Jerin Siby",
        "rank": 38421,
        "rank_sort": 38422,
        "total": 2361
      },
      {
        "club_badge_src": null,
        "entry": 539303,
        "entry_name": "Livin\u2019 Saliba Loca",
        "event_total": 34,
        "has_played": true,
        "id": 3630100,
        "last_rank": 17288,
        "player_name": "Paul Lawrence",
        "rank": 38421,
        "rank_sort": 38423,
        "total": 2361
      },
      {
        "club_badge_src": null,
        "entry": 583077,
        "entry_name": "TP THE GOAT",
        "event_total": 69,
        "has_played": true,
        "id": 3923982,
        "last_rank": 55969,
        "player_name": "Tomas Plechaty",
        "rank": 38421,
        "rank_sort": 38424,
        "total": 2361
      },
      {
        "club_badge_src": null,
        "entry": 1358240,
        "entry_name": "KAVRE FC",
        "event_total": 64,
        "has_played": true,
        "id": 9441241,
        "last_rank": 42327,
        "player_name": "Balram Bhandari",
        "rank": 38421,
        "rank_sort": 38425,
        "total": 2361
      },
      {
        "club_badge_src": null,
        "entry": 1729642,
        "entry_name": "Red Ross",
        "event_total": 46,
        "has_played": true,
        "id": 12131214,
        "last_rank": 23118,
        "player_name": "Anine Vingen",
        "rank": 38421,
        "rank_sort": 38426,
        "total": 2361
      },
      {
        "club_badge_src": null,
        "entry": 2465195,
        "entry_name": "ORANGE WALLOPER FC",
        "event_total": 63,
        "has_played": true,
        "id": 17633856,
        "last_rank": 40986,
        "player_name": "Chris Heenan",
        "rank": 38421,
        "rank_sort": 38427,
        "total": 2361
      },
      {
        "club_badge_src": null,
        "entry": 3681065,
        "entry_name": "ETIHAD",
        "event_total": 53,
        "has_played": true,
        "id": 27456662,
        "last_rank": 25653,
        "player_name": "Lun D Guite",
        "rank": 38421,
        "rank_sort": 38428,
        "total": 2361
      },
      {
        "club_badge_src": "https://fantasy.premierleague.com/gcs/plfpl-production-adobe-approved/plfpl-production/4791698/52c0f682-a15c-48d1-844d-589cf8eb1bd9.png",
        "entry": 4791698,
        "entry_name": "The Game of Goals",
        "event_total": 63,
        "has_played": true,
        "id": 36889902,
        "last_rank": 40986,
        "player_name": "Norbert Barta",
        "rank": 38421,
        "rank_sort": 38429,
        "total": 2361
      },
      {
        "club_badge_src": null,
        "entry": 6805080,
        "entry_name": "Change Name",
        "event_total": 70,
        "has_played": true,
        "id": 54498428,
        "last_rank": 45034,
        "player_name": "Richard Moran",
        "rank": 38421,
        "rank_sort": 38430,
        "total": 2361
      },
      {
        "club_badge_src": null,
        "entry": 808693,
        "entry_name": "Los Gofiones",
        "event_total": 68,
        "has_played": true,
        "id": 5536562,
        "last_rank": 48000,
        "player_name": "David P\u00e9rez Gardiner",
        "rank": 38431,
        "rank_sort": 38431,
        "total": 2361
      },
      {
        "club_badge_src": null,
        "entry": 2106641,
        "entry_name": "Al Itti Hock",
        "event_total": 58,
        "has_played": true,
        "id": 14950584,
        "last_rank": 39740,
        "player_name": "Collin Hockenbury",
        "rank": 38431,
        "rank_sort": 38432,
        "total": 2361
      },
      {
        "club_badge_src": "https://fantasy.premierleague.com/gcs/plfpl-production-adobe-approved/plfpl-production/3274681/d86da4b5-7fb6-471f-9950-0b92666ce5d0.png",
        "entry": 3274681,
        "entry_name": "acunha mateta",
        "event_total": 56,
        "has_played": true,
        "id": 24235395,
        "last_rank": 37283,
        "player_name": "Scott Walters",
        "rank": 38431,
        "rank_sort": 38433,
        "total": 2361
      },
      {
        "club_badge_src": null,
        "entry": 6258069,
        "entry_name": "\u0641\u064a\u0642 \u0642\u0628\u0644 \u0645\u0627\u062a\u063a\u064a\u0635",
        "event_total": 65,
        "has_played": true,
        "id": 49544961,
        "last_rank": 43687,
        "player_name": "Spa in",
        "rank": 38431,
        "rank_sort": 38434,
        "total": 2361
      },
      {
        "club_badge_src": null,
        "entry": 98920,
        "entry_name": "The Floor is Lavia",
        "event_total": 42,
        "has_played": true,
        "id": 645810,
        "last_rank": 20087,
        "player_name": "daley gooch",
        "rank": 38435,
        "rank_sort": 38435,
        "total": 2361
      },
      {
        "club_badge_src": null,
        "entry": 835763,
        "entry_name": "Not Isakly Sure",
        "event_total": 57,
        "has_played": true,
        "id": 5725205,
        "last_rank": 38491,
        "player_name": "Rasta Dude",
        "rank": 38435,
        "rank_sort": 38436,
        "total": 2361
      },
      {
        "club_badge_src": null,
        "entry": 2402736,
        "entry_name": "Cant Get Any Wirtz",
        "event_total": 74,
        "has_played": true,
        "id": 17173380,
        "last_rank": 57663,
        "player_name": "Harrison Rodrigoe",
        "rank": 38435,
        "rank_sort": 38437,
        "total": 2361
      },
      {
        "club_badge_src": "https://fantasy.premierleague.com/gcs/plfpl-production-adobe-approved/plfpl-production/3061796/4c558e08-011a-4133-818b-94016d9251ea.png",
        "entry": 3061796,
        "entry_name": "Fudda Mukka",
        "event_total": 80,
        "has_played": true,
        "id": 22542618,
        "last_rank": 76815,
        "player_name": "paul hocking",
        "rank": 38435,
        "rank_sort": 38438,
        "total": 2361
      },
      {
        "club_badge_src": null,
        "entry": 5425485,
        "entry_name": "Grepo \u0642\u0631\u064a\u0628\u0648",
        "event_total": 71,
        "has_played": true,
        "id": 42199196,
        "last_rank": 40986,
        "player_name": "Mohamed Greep alla",
        "rank": 38435,
        "rank_sort": 38439,
        "total": 2361
      },
      {
        "club_badge_src": null,
        "entry": 117814,
        "entry_name": "ayadchiwi fc",
        "event_total": 64,
        "has_played": true,
        "id": 768928,
        "last_rank": 42364,
        "player_name": "Mohamed ayadi",
        "rank": 38440,
        "rank_sort": 38440,
        "total": 2361
      },
      {
        "club_badge_src": null,
        "entry": 596730,
        "entry_name": "fwuah",
        "event_total": 60,
        "has_played": true,
        "id": 4023687,
        "last_rank": 42367,
        "player_name": "Reece Taylor",
        "rank": 38440,
        "rank_sort": 38441,
        "total": 2361
      },
      {
        "club_badge_src": null,
        "entry": 842287,
        "entry_name": "m1",
        "event_total": 56,
        "has_played": true,
        "id": 5771122,
        "last_rank": 32613,
        "player_name": "Mishal One",
        "rank": 38440,
        "rank_sort": 38442,
        "total": 2361
      },
      {
        "club_badge_src": null,
        "entry": 2444558,
        "entry_name": "Kinder Mbeumo",
        "event_total": 49,
        "has_played": true,
        "id": 17483501,
        "last_rank": 29459,
        "player_name": "Benji Chan",
        "rank": 38440,
        "rank_sort": 38443,
        "total": 2361
      },
      {
        "club_badge_src": null,
        "entry": 5410312,
        "entry_name": "Mostafa Ali",
        "event_total": 55,
        "has_played": true,
        "id": 42072443,
        "last_rank": 36065,
        "player_name": "Mostafa Ali",
        "rank": 38440,
        "rank_sort": 38444,
        "total": 2361
      },
      {
        "club_badge_src": null,
        "entry": 425224,
        "entry_name": "YANITED",
        "event_total": 47,
        "has_played": true,
        "id": 2850158,
        "last_rank": 27530,
        "player_name": "Adriano alves",
        "rank": 38445,
        "rank_sort": 38445,
        "total": 2361
      },
      {
        "club_badge_src": null,
        "entry": 2216773,
        "entry_name": "ManU",
        "event_total": 62,
        "has_played": true,
        "id": 15787487,
        "last_rank": 45096,
        "player_name": "Daniel Banksira",
        "rank": 38445,
        "rank_sort": 38446,
        "total": 2361
      },
      {
        "club_badge_src": null,
        "entry": 6323203,
        "entry_name": "ONANASBANANAS",
        "event_total": 70,
        "has_played": true,
        "id": 50222286,
        "last_rank": 45072,
        "player_name": "TAYZOR ....",
        "rank": 38445,
        "rank_sort": 38447,
        "total": 2361
      },
      {
        "club_badge_src": null,
        "entry": 1313499,
        "entry_name": "Hamdy",
        "event_total": 63,
        "has_played": true,
        "id": 9129756,
        "last_rank": 41022,
        "player_name": "Mohamed Hamdy",
        "rank": 38448,
        "rank_sort": 38448,
        "total": 2361
      },
      {
        "club_badge_src": "https://fantasy.premierleague.com/gcs/plfpl-production-adobe-approved/plfpl-production/687578/f46f0b47-9ddc-45bf-8276-7a4372480059.png",
        "entry": 687578,
        "entry_name": "AKT11",
        "event_total": 60,
        "has_played": true,
        "id": 4654812,
        "last_rank": 32618,
        "player_name": "Akanksh Tandon",
        "rank": 38449,
        "rank_sort": 38449,
        "total": 2361
      },
      {
        "club_badge_src": null,
        "entry": 514751,
        "entry_name": "Stark FC",
        "event_total": 51,
        "has_played": true,
        "id": 3456177,
        "last_rank": 31501,
        "player_name": "Ilkin Mursali",
        "rank": 38450,
        "rank_sort": 38450,
        "total": 2361
      }
    ]
  }
}