{
  "last_updated_data": "2026-05-24T23:28:17Z",
  "league": {
    "admin_entry": null,
    "closed": false,
    "code_privacy": "p",
    "created": "2025-07-20T23:14:33.933835Z",
    "cup_league": 2815434,
    "has_cup": true,
    "id": 314,
    "league_type": "s",
    "max_entries": null,
    "name": "Overall",
    "rank": null,
    "scoring": "c",
    "start_event": 1
  },
  "new_entries": {
    "has_next": false,
    "page": 1,
    "results": []
  },
  "standings": {
    "has_next": true,
    "page": 226,
    "results": [
      {
        "club_badge_src": null,
        "entry": 101924,
        "entry_name": "Pepperooney FC",
        "event_total": 71,
        "has_played": true,
        "id": 665022,
        "last_rank": 18790,
        "player_name": "Brendan Geraghty",
        "rank": 11243,
        "rank_sort": 11251,
        "total": 2395
      },
      {
        "club_badge_src": null,
        "entry": 123151,
        "entry_name": "Bongas Boys",
        "event_total": 58,
        "has_played": true,
        "id": 803307,
        "last_rank": 9459,
        "player_name": "Luke Wiseman",
        "rank": 11243,
        "rank_sort": 11252,
        "total": 2395
      },
      {
        "club_badge_src": null,
        "entry": 135615,
        "entry_name": "Slide (A)",
        "event_total": 61,
        "has_played": true,
        "id": 883114,
        "last_rank": 12645,
        "player_name": "Jack Conway",
        "rank": 11243,
        "rank_sort": 11253,
        "total": 2395
      },
      {
        "club_badge_src": null,
        "entry": 145532,
        "entry_name": "11",
        "event_total": 66,
        "has_played": true,
        "id": 953141,
        "last_rank": 15452,
        "player_name": "Adam H",
        "rank": 11243,
        "rank_sort": 11254,
        "total": 2395
      },
      {
        "club_badge_src": null,
        "entry": 168855,
        "entry_name": "Kinder Mbeumo",
        "event_total": 64,
        "has_played": true,
        "id": 1115949,
        "last_rank": 14292,
        "player_name": "Heemesh Vara",
        "rank": 11243,
        "rank_sort": 11255,
        "total": 2395
      },
      {
        "club_badge_src": null,
        "entry": 179759,
        "entry_name": "FPL BACKPACK HOLDER",
        "event_total": 60,
        "has_played": true,
        "id": 1186207,
        "last_rank": 12322,
        "player_name": "Aaron Boughan",
        "rank": 11243,
        "rank_sort": 11256,
        "total": 2395
      },
      {
        "club_badge_src": null,
        "entry": 195378,
        "entry_name": "FC Pogromcy",
        "event_total": 57,
        "has_played": true,
        "id": 1295614,
        "last_rank": 10805,
        "player_name": "Daniel G\u00f3rski",
        "rank": 11243,
        "rank_sort": 11257,
        "total": 2395
      },
      {
        "club_badge_src": null,
        "entry": 195899,
        "entry_name": "Fifty Shades O'Shea",
        "event_total": 62,
        "has_played": true,
        "id": 1299299,
        "last_rank": 13184,
        "player_name": "Sam Billington",
        "rank": 11243,
        "rank_sort": 11258,
        "total": 2395
      },
      {
        "club_badge_src": null,
        "entry": 293337,
        "entry_name": "Apis Arena",
        "event_total": 66,
        "has_played": true,
        "id": 1958025,
        "last_rank": 15550,
        "player_name": "Cezary Fudziak",
        "rank": 11243,
        "rank_sort": 11259,
        "total": 2395
      },
      {
        "club_badge_src": null,
        "entry": 339158,
        "entry_name": "KOTA KEMUNING FC",
        "event_total": 46,
        "has_played": true,
        "id": 2270518,
        "last_rank": 6687,
        "player_name": "SHAHRIL RIDZA JAI",
        "rank": 11243,
        "rank_sort": 11260,
        "total": 2395
      },
      {
        "club_badge_src": null,
        "entry": 347614,
        "entry_name": "Tena",
        "event_total": 61,
        "has_played": true,
        "id": 2326721,
        "last_rank": 10748,
        "player_name": "Stoyan Cinov",
        "rank": 11243,
        "rank_sort": 11261,
        "total": 2395
      },
      {
        "club_badge_src": null,
        "entry": 360510,
        "entry_name": "Cant get any Wirtz",
        "event_total": 84,
        "has_played": true,
        "id": 2412381,
        "last_rank": 29688,
        "player_name": "Carlos Rodriguez",
        "rank": 11243,
        "rank_sort": 11262,
        "total": 2395
      },
      {
        "club_badge_src": "https://fantasy.premierleague.com/gcs/plfpl-production-adobe-approved/plfpl-production/369783/536f4854-ced9-4375-a1d1-36f7500afbe6.png",
        "entry": 369783,
        "entry_name": "Matroserna",
        "event_total": 60,
        "has_played": true,
        "id": 2474380,
        "last_rank": 12141,
        "player_name": "Colin Thomson",
        "rank": 11243,
        "rank_sort": 11263,
        "total": 2395
      },
      {
        "club_badge_src": null,
        "entry": 395522,
        "entry_name": "Moonrise Syndrome",
        "event_total": 51,
        "has_played": true,
        "id": 2652430,
        "last_rank": 8320,
        "player_name": "M S",
        "rank": 11243,
        "rank_sort": 11264,
        "total": 2395
      },
      {
        "club_badge_src": null,
        "entry": 411819,
        "entry_name": "Yoro Wissa Harry",
        "event_total": 54,
        "has_played": true,
        "id": 2761269,
        "last_rank": 9484,
        "player_name": "Craig Stephens",
        "rank": 11243,
        "rank_sort": 11265,
        "total": 2395
      },
      {
        "club_badge_src": "https://fantasy.premierleague.com/gcs/plfpl-production-adobe-approved/plfpl-production/523729/02635166-11e1-4ebf-8757-acc93afdc346.png",
        "entry": 523729,
        "entry_name": "Chiara(Carson)",
        "event_total": 60,
        "has_played": true,
        "id": 3517930,
        "last_rank": 12200,
        "player_name": "Chiara Fabro",
        "rank": 11243,
        "rank_sort": 11266,
        "total": 2395
      },
      {
        "club_badge_src": null,
        "entry": 529932,
        "entry_name": "Kobbie and Paste",
        "event_total": 66,
        "has_played": true,
        "id": 3563666,
        "last_rank": 15550,
        "player_name": "Charlie Morgan",
        "rank": 11243,
        "rank_sort": 11267,
        "total": 2395
      },
      {
        "club_badge_src": null,
        "entry": 549488,
        "entry_name": "Wow Pedro",
        "event_total": 71,
        "has_played": true,
        "id": 3697931,
        "last_rank": 18691,
        "player_name": "lewis Wilkinson",
        "rank": 11243,
        "rank_sort": 11268,
        "total": 2395
      },
      {
        "club_badge_src": null,
        "entry": 559742,
        "entry_name": "thebigbbootupfield",
        "event_total": 61,
        "has_played": true,
        "id": 3767205,
        "last_rank": 12705,
        "player_name": "Anthony Jones",
        "rank": 11243,
        "rank_sort": 11269,
        "total": 2395
      },
      {
        "club_badge_src": null,
        "entry": 657837,
        "entry_name": "Ctrl+Alt+DeLigt",
        "event_total": 51,
        "has_played": true,
        "id": 4445604,
        "last_rank": 8382,
        "player_name": "George Bartlewski",
        "rank": 11243,
        "rank_sort": 11270,
        "total": 2395
      },
      {
        "club_badge_src": null,
        "entry": 670732,
        "entry_name": "Brad n Cheese",
        "event_total": 63,
        "has_played": true,
        "id": 4536507,
        "last_rank": 13821,
        "player_name": "J DANIELS",
        "rank": 11243,
        "rank_sort": 11271,
        "total": 2395
      },
      {
        "club_badge_src": "https://fantasy.premierleague.com/gcs/plfpl-production-adobe-approved/plfpl-production/674201/faa6ea5f-b031-4ce4-b910-65023c0d3f3b.png",
        "entry": 674201,
        "entry_name": "\u256d\u2229\u256e(\u039f_\u039f)\u256d\u2229\u256e",
        "event_total": 71,
        "has_played": true,
        "id": 4560909,
        "last_rank": 18691,
        "player_name": "Yat Cheng",
        "rank": 11243,
        "rank_sort": 11272,
        "total": 2395
      },
      {
        "club_badge_src": null,
        "entry": 707608,
        "entry_name": "Team Haz",
        "event_total": 52,
        "has_played": true,
        "id": 4795763,
        "last_rank": 8718,
        "player_name": "Harald Matre Dahl",
        "rank": 11243,
        "rank_sort": 11273,
        "total": 2395
      },
      {
        "club_badge_src": null,
        "entry": 762088,
        "entry_name": "PedroPutHisWillianMe",
        "event_total": 59,
        "has_played": true,
        "id": 5197092,
        "last_rank": 11608,
        "player_name": "Alex Nekouzad",
        "rank": 11243,
        "rank_sort": 11274,
        "total": 2395
      },
      {
        "club_badge_src": null,
        "entry": 778874,
        "entry_name": "The Meader Boys",
        "event_total": 67,
        "has_played": true,
        "id": 5315891,
        "last_rank": 16062,
        "player_name": "Dan Meader",
        "rank": 11243,
        "rank_sort": 11275,
        "total": 2395
      },
      {
        "club_badge_src": null,
        "entry": 841316,
        "entry_name": "Niek-vdv",
        "event_total": 42,
        "has_played": true,
        "id": 5764288,
        "last_rank": 5688,
        "player_name": "Niek VDV",
        "rank": 11243,
        "rank_sort": 11276,
        "total": 2395
      },
      {
        "club_badge_src": "https://fantasy.premierleague.com/gcs/plfpl-production-adobe-approved/plfpl-production/855838/7500757b-5a02-4b3d-9e8b-f74b115e5a09.png",
        "entry": 855838,
        "entry_name": "Alabari",
        "event_total": 56,
        "has_played": true,
        "id": 5866365,
        "last_rank": 10263,
        "player_name": "Dekar Wangchuk",
        "rank": 11243,
        "rank_sort": 11277,
        "total": 2395
      },
      {
        "club_badge_src": null,
        "entry": 857554,
        "entry_name": "Blink-1 Eto'o",
        "event_total": 60,
        "has_played": true,
        "id": 5878268,
        "last_rank": 10263,
        "player_name": "Dom Ascroft",
        "rank": 11243,
        "rank_sort": 11278,
        "total": 2395
      },
      {
        "club_badge_src": null,
        "entry": 893922,
        "entry_name": "Plant Power Athletic",
        "event_total": 69,
        "has_played": true,
        "id": 6140408,
        "last_rank": 17358,
        "player_name": "Carl Arb",
        "rank": 11243,
        "rank_sort": 11279,
        "total": 2395
      },
      {
        "club_badge_src": null,
        "entry": 905606,
        "entry_name": "Escape from Alcaraz",
        "event_total": 60,
        "has_played": true,
        "id": 6224355,
        "last_rank": 12200,
        "player_name": "Robert Shenkman",
        "rank": 11243,
        "rank_sort": 11280,
        "total": 2395
      },
      {
        "club_badge_src": null,
        "entry": 914077,
        "entry_name": "El Magico",
        "event_total": 56,
        "has_played": true,
        "id": 6285420,
        "last_rank": 8718,
        "player_name": "AbdulAziz Al Qattan",
        "rank": 11243,
        "rank_sort": 11281,
        "total": 2395
      },
      {
        "club_badge_src": null,
        "entry": 952234,
        "entry_name": "Blades FC",
        "event_total": 67,
        "has_played": true,
        "id": 6560636,
        "last_rank": 16062,
        "player_name": "Jon Walker",
        "rank": 11243,
        "rank_sort": 11282,
        "total": 2395
      },
      {
        "club_badge_src": null,
        "entry": 992301,
        "entry_name": "Bahaa esam",
        "event_total": 62,
        "has_played": true,
        "id": 6843430,
        "last_rank": 13401,
        "player_name": "Bahaa Esam",
        "rank": 11243,
        "rank_sort": 11283,
        "total": 2395
      },
      {
        "club_badge_src": null,
        "entry": 1144990,
        "entry_name": "Isak at this game!",
        "event_total": 35,
        "has_played": true,
        "id": 7937448,
        "last_rank": 4099,
        "player_name": "Alex Chun",
        "rank": 11243,
        "rank_sort": 11284,
        "total": 2395
      },
      {
        "club_badge_src": null,
        "entry": 1208907,
        "entry_name": "Arne Sloth",
        "event_total": 33,
        "has_played": true,
        "id": 8390433,
        "last_rank": 3699,
        "player_name": "Arne Pieters",
        "rank": 11243,
        "rank_sort": 11285,
        "total": 2395
      },
      {
        "club_badge_src": "https://fantasy.premierleague.com/gcs/plfpl-production-adobe-approved/plfpl-production/1315067/dc1714c5-a02d-407d-a606-ef22849ad9a8.png",
        "entry": 1315067,
        "entry_name": "Lord Woltemade",
        "event_total": 59,
        "has_played": true,
        "id": 9140443,
        "last_rank": 11699,
        "player_name": "Chris Forrest",
        "rank": 11243,
        "rank_sort": 11286,
        "total": 2395
      },
      {
        "club_badge_src": null,
        "entry": 1330979,
        "entry_name": "Ghost hunter AFC",
        "event_total": 37,
        "has_played": true,
        "id": 9251385,
        "last_rank": 4488,
        "player_name": "Adam Oakley",
        "rank": 11243,
        "rank_sort": 11287,
        "total": 2395
      },
      {
        "club_badge_src": null,
        "entry": 1395710,
        "entry_name": "Vardy Gras",
        "event_total": 60,
        "has_played": true,
        "id": 9709853,
        "last_rank": 12200,
        "player_name": "Matt Twiselton",
        "rank": 11243,
        "rank_sort": 11288,
        "total": 2395
      },
      {
        "club_badge_src": null,
        "entry": 1490185,
        "entry_name": "Team Kahlenberg",
        "event_total": 61,
        "has_played": true,
        "id": 10391848,
        "last_rank": 12645,
        "player_name": "Brian Kj\u00e6r Andersen",
        "rank": 11243,
        "rank_sort": 11289,
        "total": 2395
      },
      {
        "club_badge_src": null,
        "entry": 1536015,
        "entry_name": "Rogs FC",
        "event_total": 52,
        "has_played": true,
        "id": 10719487,
        "last_rank": 8718,
        "player_name": "Ryan Jones",
        "rank": 11243,
        "rank_sort": 11290,
        "total": 2395
      },
      {
        "club_badge_src": "https://fantasy.premierleague.com/gcs/plfpl-production-adobe-approved/plfpl-production/1562949/d13cca38-a689-44be-8c96-af92f8f22c9d.png",
        "entry": 1562949,
        "entry_name": "End of Gravity",
        "event_total": 55,
        "has_played": true,
        "id": 10917420,
        "last_rank": 10031,
        "player_name": "Tom\u00e1\u0161 M\u00f4cik",
        "rank": 11243,
        "rank_sort": 11291,
        "total": 2395
      },
      {
        "club_badge_src": "https://fantasy.premierleague.com/gcs/plfpl-production-adobe-approved/plfpl-production/1672364/81385b7f-be25-4640-93b0-5b73e3e6c270.png",
        "entry": 1672364,
        "entry_name": "The GOATS",
        "event_total": 61,
        "has_played": true,
        "id": 11708571,
        "last_rank": 12645,
        "player_name": "Rob Kocevski",
        "rank": 11243,
        "rank_sort": 11292,
        "total": 2395
      },
      {
        "club_badge_src": null,
        "entry": 1767107,
        "entry_name": "\u0434\u0443\u0431\u044b-\u043a\u043e\u043b\u0434\u0443\u043d\u044b",
        "event_total": 50,
        "has_played": true,
        "id": 12413007,
        "last_rank": 8032,
        "player_name": "Denys Gurov",
        "rank": 11243,
        "rank_sort": 11293,
        "total": 2395
      },
      {
        "club_badge_src": null,
        "entry": 1803504,
        "entry_name": "abo sadeq",
        "event_total": 48,
        "has_played": true,
        "id": 12678635,
        "last_rank": 7375,
        "player_name": "abdullah sabbagh",
        "rank": 11243,
        "rank_sort": 11294,
        "total": 2395
      },
      {
        "club_badge_src": null,
        "entry": 1815044,
        "entry_name": "Dirty Harry XI",
        "event_total": 46,
        "has_played": true,
        "id": 12763414,
        "last_rank": 6752,
        "player_name": "Nigel Youds",
        "rank": 11243,
        "rank_sort": 11295,
        "total": 2395
      },
      {
        "club_badge_src": "https://fantasy.premierleague.com/gcs/plfpl-production-adobe-approved/plfpl-production/1890197/d616d817-a743-4222-b522-03792a31c7fd.png",
        "entry": 1890197,
        "entry_name": "St. Skelly Cartel",
        "event_total": 53,
        "has_played": true,
        "id": 13321933,
        "last_rank": 9142,
        "player_name": "Mo Cunningham",
        "rank": 11243,
        "rank_sort": 11296,
        "total": 2395
      },
      {
        "club_badge_src": null,
        "entry": 1975268,
        "entry_name": "almaynoon",
        "event_total": 59,
        "has_played": true,
        "id": 13942644,
        "last_rank": 11821,
        "player_name": "Azo Alb",
        "rank": 11243,
        "rank_sort": 11297,
        "total": 2395
      },
      {
        "club_badge_src": null,
        "entry": 2180231,
        "entry_name": "Brow's Jackpots",
        "event_total": 57,
        "has_played": true,
        "id": 15506187,
        "last_rank": 10920,
        "player_name": "Jack Brow",
        "rank": 11243,
        "rank_sort": 11298,
        "total": 2395
      },
      {
        "club_badge_src": null,
        "entry": 2288694,
        "entry_name": "RustyballsFC",
        "event_total": 56,
        "has_played": true,
        "id": 16322469,
        "last_rank": 10462,
        "player_name": "Danny Rust",
        "rank": 11243,
        "rank_sort": 11299,
        "total": 2395
      },
      {
        "club_badge_src": "https://fantasy.premierleague.com/gcs/plfpl-production-adobe-approved/plfpl-production/2302266/7a0f1e61-3d11-4d0d-9883-0b9cdabf3b68.png",
        "entry": 2302266,
        "entry_name": "El Up De Blues",
        "event_total": 71,
        "has_played": true,
        "id": 16420801,
        "last_rank": 18691,
        "player_name": "Sydney Abuya",
        "rank": 11243,
        "rank_sort": 11300,
        "total": 2395
      }
    ]
  }
}