{
  "last_updated_data": "2026-05-24T23:28:17Z",
  "league": {
    "admin_entry": null,
    "closed": false,
    "code_privacy": "p",
    "created": "2025-07-20T23:14:33.933835Z",
    "cup_league": 2815434,
    "has_cup": true,
    "id": 314,
    "league_type": "s",
    "max_entries": null,
    "name": "Overall",
    "rank": null,
    "scoring": "c",
    "start_event": 1
  },
  "new_entries": {
    "has_next": false,
    "page": 1,
    "results": []
  },
  "standings": {
    "has_next": true,
    "page": 236,
    "results": [
      {
        "club_badge_src": null,
        "entry": 2790175,
        "entry_name": "Ali Bags Uganda",
        "event_total": 67,
        "has_played": true,
        "id": 20370768,
        "last_rank": 16959,
        "player_name": "We sell all types of Bags 0705284965",
        "rank": 11695,
        "rank_sort": 11751,
        "total": 2394
      },
      {
        "club_badge_src": null,
        "entry": 2887634,
        "entry_name": "Double Parked FC",
        "event_total": 50,
        "has_played": true,
        "id": 21141308,
        "last_rank": 7000,
        "player_name": "Evan Maly",
        "rank": 11695,
        "rank_sort": 11752,
        "total": 2394
      },
      {
        "club_badge_src": "https://fantasy.premierleague.com/gcs/plfpl-production-adobe-approved/plfpl-production/2950154/713fa38b-374f-4319-b4e3-3b63acb31316.png",
        "entry": 2950154,
        "entry_name": "Your Wirtz Nightmare",
        "event_total": 57,
        "has_played": true,
        "id": 21666453,
        "last_rank": 11175,
        "player_name": "Don Carter",
        "rank": 11695,
        "rank_sort": 11753,
        "total": 2394
      },
      {
        "club_badge_src": null,
        "entry": 3026901,
        "entry_name": "Stranger",
        "event_total": 57,
        "has_played": true,
        "id": 22272172,
        "last_rank": 11237,
        "player_name": "Ahmed Elghareeb",
        "rank": 11695,
        "rank_sort": 11754,
        "total": 2394
      },
      {
        "club_badge_src": null,
        "entry": 3072895,
        "entry_name": "Sch\u00e4rface",
        "event_total": 59,
        "has_played": true,
        "id": 22627789,
        "last_rank": 12200,
        "player_name": "Conor Murray",
        "rank": 11695,
        "rank_sort": 11755,
        "total": 2394
      },
      {
        "club_badge_src": null,
        "entry": 3104414,
        "entry_name": "We are United!",
        "event_total": 67,
        "has_played": true,
        "id": 22888737,
        "last_rank": 16702,
        "player_name": "Eeshita Reddi",
        "rank": 11695,
        "rank_sort": 11756,
        "total": 2394
      },
      {
        "club_badge_src": null,
        "entry": 3183342,
        "entry_name": "Smokin'",
        "event_total": 64,
        "has_played": true,
        "id": 23524210,
        "last_rank": 14857,
        "player_name": "Roger Evans",
        "rank": 11695,
        "rank_sort": 11757,
        "total": 2394
      },
      {
        "club_badge_src": null,
        "entry": 3342784,
        "entry_name": "Toad in the goal",
        "event_total": 70,
        "has_played": true,
        "id": 24795073,
        "last_rank": 18790,
        "player_name": "Ian Carroll",
        "rank": 11695,
        "rank_sort": 11758,
        "total": 2394
      },
      {
        "club_badge_src": null,
        "entry": 3447788,
        "entry_name": "Wade's the Wirtz",
        "event_total": 56,
        "has_played": true,
        "id": 25618238,
        "last_rank": 10805,
        "player_name": "Ryan Griffin",
        "rank": 11695,
        "rank_sort": 11759,
        "total": 2394
      },
      {
        "club_badge_src": null,
        "entry": 3564067,
        "entry_name": "HNR FC",
        "event_total": 63,
        "has_played": true,
        "id": 26537438,
        "last_rank": 14251,
        "player_name": "Haithem Rouai",
        "rank": 11695,
        "rank_sort": 11760,
        "total": 2394
      },
      {
        "club_badge_src": null,
        "entry": 3610762,
        "entry_name": "Fluffy Bunny Slipper",
        "event_total": 54,
        "has_played": true,
        "id": 26897880,
        "last_rank": 9942,
        "player_name": "Nigel ALLEN",
        "rank": 11695,
        "rank_sort": 11761,
        "total": 2394
      },
      {
        "club_badge_src": null,
        "entry": 3719742,
        "entry_name": "Ellandback",
        "event_total": 70,
        "has_played": true,
        "id": 27758787,
        "last_rank": 18790,
        "player_name": "Jonathan Churchill",
        "rank": 11695,
        "rank_sort": 11762,
        "total": 2394
      },
      {
        "club_badge_src": null,
        "entry": 3901646,
        "entry_name": "Saka White Rice",
        "event_total": 59,
        "has_played": true,
        "id": 29330270,
        "last_rank": 12200,
        "player_name": "Michael Gray",
        "rank": 11695,
        "rank_sort": 11763,
        "total": 2394
      },
      {
        "club_badge_src": null,
        "entry": 3992291,
        "entry_name": "Aerosmith",
        "event_total": 52,
        "has_played": true,
        "id": 30062525,
        "last_rank": 9142,
        "player_name": "Joe Khayat",
        "rank": 11695,
        "rank_sort": 11764,
        "total": 2394
      },
      {
        "club_badge_src": null,
        "entry": 4082340,
        "entry_name": "Kinder Mbeumo",
        "event_total": 46,
        "has_played": true,
        "id": 30818264,
        "last_rank": 7059,
        "player_name": "Sean O Connor",
        "rank": 11695,
        "rank_sort": 11765,
        "total": 2394
      },
      {
        "club_badge_src": null,
        "entry": 4107708,
        "entry_name": "Goodnight Horse",
        "event_total": 53,
        "has_played": true,
        "id": 31021015,
        "last_rank": 9536,
        "player_name": "Matt Hollick",
        "rank": 11695,
        "rank_sort": 11766,
        "total": 2394
      },
      {
        "club_badge_src": null,
        "entry": 4200040,
        "entry_name": "AI Assisted",
        "event_total": 72,
        "has_played": true,
        "id": 31792321,
        "last_rank": 20147,
        "player_name": "Sir Mikel",
        "rank": 11695,
        "rank_sort": 11767,
        "total": 2394
      },
      {
        "club_badge_src": "https://fantasy.premierleague.com/gcs/plfpl-production-adobe-approved/plfpl-production/4204023/4aeb98cf-e7a9-461a-b71f-d56bc34838d0.png",
        "entry": 4204023,
        "entry_name": "Mazaiok\u00e9 p\u00e1",
        "event_total": 75,
        "has_played": true,
        "id": 31824778,
        "last_rank": 22391,
        "player_name": "Paulo Neto",
        "rank": 11695,
        "rank_sort": 11768,
        "total": 2394
      },
      {
        "club_badge_src": null,
        "entry": 4212335,
        "entry_name": "Team Pera",
        "event_total": 69,
        "has_played": true,
        "id": 31894481,
        "last_rank": 18029,
        "player_name": "Joona Sollo",
        "rank": 11695,
        "rank_sort": 11769,
        "total": 2394
      },
      {
        "club_badge_src": null,
        "entry": 4545352,
        "entry_name": "Farke The Template",
        "event_total": 68,
        "has_played": true,
        "id": 34678605,
        "last_rank": 17327,
        "player_name": "oliver yensch",
        "rank": 11695,
        "rank_sort": 11770,
        "total": 2394
      },
      {
        "club_badge_src": null,
        "entry": 4846886,
        "entry_name": "ThaidaimaruFC",
        "event_total": 69,
        "has_played": true,
        "id": 37340243,
        "last_rank": 18113,
        "player_name": "Sedhiran Naksuk",
        "rank": 11695,
        "rank_sort": 11771,
        "total": 2394
      },
      {
        "club_badge_src": null,
        "entry": 4850272,
        "entry_name": "Rangers",
        "event_total": 64,
        "has_played": true,
        "id": 37369069,
        "last_rank": 14926,
        "player_name": "Patrick Ranger",
        "rank": 11695,
        "rank_sort": 11772,
        "total": 2394
      },
      {
        "club_badge_src": null,
        "entry": 4858498,
        "entry_name": "STEBLOVIA FC",
        "event_total": 67,
        "has_played": true,
        "id": 37438787,
        "last_rank": 16807,
        "player_name": "Piotr Knejski",
        "rank": 11695,
        "rank_sort": 11773,
        "total": 2394
      },
      {
        "club_badge_src": "https://fantasy.premierleague.com/gcs/plfpl-production-adobe-approved/plfpl-production/5006385/a9348d0c-7819-4d7b-86b3-81a94f61107a.png",
        "entry": 5006385,
        "entry_name": "Cole as Ice",
        "event_total": 59,
        "has_played": true,
        "id": 38658697,
        "last_rank": 12200,
        "player_name": "Vineet Sai Kota",
        "rank": 11695,
        "rank_sort": 11774,
        "total": 2394
      },
      {
        "club_badge_src": null,
        "entry": 5173028,
        "entry_name": "Heners NCFC",
        "event_total": 63,
        "has_played": true,
        "id": 40037969,
        "last_rank": 14292,
        "player_name": "Henry Evans",
        "rank": 11695,
        "rank_sort": 11775,
        "total": 2394
      },
      {
        "club_badge_src": null,
        "entry": 5433898,
        "entry_name": "Comunicado oficial",
        "event_total": 48,
        "has_played": true,
        "id": 42269843,
        "last_rank": 7676,
        "player_name": "Kane O",
        "rank": 11695,
        "rank_sort": 11776,
        "total": 2394
      },
      {
        "club_badge_src": null,
        "entry": 5564316,
        "entry_name": "Maradonian Tugboat",
        "event_total": 64,
        "has_played": true,
        "id": 43443095,
        "last_rank": 14832,
        "player_name": "Advait Gunturu",
        "rank": 11695,
        "rank_sort": 11777,
        "total": 2394
      },
      {
        "club_badge_src": null,
        "entry": 5630872,
        "entry_name": "Yumbo Center 2.0",
        "event_total": 61,
        "has_played": true,
        "id": 44024966,
        "last_rank": 13184,
        "player_name": "Carl Puumalainen",
        "rank": 11695,
        "rank_sort": 11778,
        "total": 2394
      },
      {
        "club_badge_src": null,
        "entry": 5961147,
        "entry_name": "Salta Juniors",
        "event_total": 59,
        "has_played": true,
        "id": 46897466,
        "last_rank": 12141,
        "player_name": "Dylan O'Meara",
        "rank": 11695,
        "rank_sort": 11779,
        "total": 2394
      },
      {
        "club_badge_src": null,
        "entry": 6396311,
        "entry_name": "Bendik's XI",
        "event_total": 54,
        "has_played": true,
        "id": 50886976,
        "last_rank": 9942,
        "player_name": "Bendik Andresen",
        "rank": 11695,
        "rank_sort": 11780,
        "total": 2394
      },
      {
        "club_badge_src": null,
        "entry": 6513706,
        "entry_name": "Aldred Athletic",
        "event_total": 61,
        "has_played": true,
        "id": 51943875,
        "last_rank": 13184,
        "player_name": "Stephen Aldred",
        "rank": 11695,
        "rank_sort": 11781,
        "total": 2394
      },
      {
        "club_badge_src": null,
        "entry": 6668394,
        "entry_name": "Saka Potatoes",
        "event_total": 59,
        "has_played": true,
        "id": 53330946,
        "last_rank": 12322,
        "player_name": "Luke Hawkins",
        "rank": 11695,
        "rank_sort": 11782,
        "total": 2394
      },
      {
        "club_badge_src": null,
        "entry": 6819727,
        "entry_name": "Cescs Championees",
        "event_total": 53,
        "has_played": true,
        "id": 54621678,
        "last_rank": 9536,
        "player_name": "Andrew Macrae",
        "rank": 11695,
        "rank_sort": 11783,
        "total": 2394
      },
      {
        "club_badge_src": null,
        "entry": 6945365,
        "entry_name": "Gusto Cherki Dinners",
        "event_total": 67,
        "has_played": true,
        "id": 55686857,
        "last_rank": 16729,
        "player_name": "Chris Morton",
        "rank": 11695,
        "rank_sort": 11784,
        "total": 2394
      },
      {
        "club_badge_src": "https://fantasy.premierleague.com/gcs/plfpl-production-adobe-approved/plfpl-production/7197440/3dbabb3c-1119-4e84-99bc-76b341f9e980.png",
        "entry": 7197440,
        "entry_name": "Old Havertz Kai Hard",
        "event_total": 71,
        "has_played": true,
        "id": 58108677,
        "last_rank": 19544,
        "player_name": "P\u00e4r Wirdfors",
        "rank": 11695,
        "rank_sort": 11785,
        "total": 2394
      },
      {
        "club_badge_src": null,
        "entry": 7264274,
        "entry_name": "Change Name",
        "event_total": 71,
        "has_played": true,
        "id": 58740015,
        "last_rank": 19392,
        "player_name": "Andrew Dumble",
        "rank": 11695,
        "rank_sort": 11786,
        "total": 2394
      },
      {
        "club_badge_src": null,
        "entry": 7362036,
        "entry_name": "Sina",
        "event_total": 57,
        "has_played": true,
        "id": 59660865,
        "last_rank": 11175,
        "player_name": "AmirSina Nassirian",
        "rank": 11695,
        "rank_sort": 11787,
        "total": 2394
      },
      {
        "club_badge_src": "https://fantasy.premierleague.com/gcs/plfpl-production-adobe-approved/plfpl-production/7436684/80321132-8769-416d-96f5-3885dc3f33c5.png",
        "entry": 7436684,
        "entry_name": "No Pittas No Party",
        "event_total": 67,
        "has_played": true,
        "id": 60458777,
        "last_rank": 16729,
        "player_name": "Ross Hart",
        "rank": 11695,
        "rank_sort": 11788,
        "total": 2394
      },
      {
        "club_badge_src": "https://fantasy.premierleague.com/gcs/plfpl-production-adobe-approved/plfpl-production/7529648/d4bf26ab-8e5c-44c6-b46c-4905f81bcb7c.png",
        "entry": 7529648,
        "entry_name": "#1 Foden Defender",
        "event_total": 34,
        "has_played": true,
        "id": 61625775,
        "last_rank": 4062,
        "player_name": "Ryan Carlson",
        "rank": 11695,
        "rank_sort": 11789,
        "total": 2394
      },
      {
        "club_badge_src": null,
        "entry": 7714586,
        "entry_name": "Mohabilis FC",
        "event_total": 67,
        "has_played": true,
        "id": 63302189,
        "last_rank": 16807,
        "player_name": "Mohammed Abdullahi",
        "rank": 11695,
        "rank_sort": 11790,
        "total": 2394
      },
      {
        "club_badge_src": null,
        "entry": 7959836,
        "entry_name": "Dabo",
        "event_total": 67,
        "has_played": true,
        "id": 65529068,
        "last_rank": 16807,
        "player_name": "ahmad adnan",
        "rank": 11695,
        "rank_sort": 11791,
        "total": 2394
      },
      {
        "club_badge_src": null,
        "entry": 8147738,
        "entry_name": "MOMOTARUS",
        "event_total": 46,
        "has_played": true,
        "id": 67247629,
        "last_rank": 7141,
        "player_name": "MOMO ZAFF",
        "rank": 11695,
        "rank_sort": 11792,
        "total": 2394
      },
      {
        "club_badge_src": null,
        "entry": 9033281,
        "entry_name": "$occer star$",
        "event_total": 64,
        "has_played": true,
        "id": 75801595,
        "last_rank": 14926,
        "player_name": "Logan Newman",
        "rank": 11695,
        "rank_sort": 11793,
        "total": 2394
      },
      {
        "club_badge_src": "https://fantasy.premierleague.com/gcs/plfpl-production-adobe-approved/plfpl-production/9106441/eec65036-3070-49da-b954-bcdf02049155.png",
        "entry": 9106441,
        "entry_name": "Sonny Side Up",
        "event_total": 45,
        "has_played": true,
        "id": 76514929,
        "last_rank": 6752,
        "player_name": "Daniel Low",
        "rank": 11695,
        "rank_sort": 11794,
        "total": 2394
      },
      {
        "club_badge_src": null,
        "entry": 9366376,
        "entry_name": "Oaky Dokey",
        "event_total": 59,
        "has_played": true,
        "id": 79045172,
        "last_rank": 12141,
        "player_name": "Callum Rose",
        "rank": 11695,
        "rank_sort": 11795,
        "total": 2394
      },
      {
        "club_badge_src": "https://fantasy.premierleague.com/gcs/plfpl-production-adobe-approved/plfpl-production/2190/b9f90f65-61ca-4fcd-a232-0002ab40f59d.png",
        "entry": 2190,
        "entry_name": "CHANGE NAME!!",
        "event_total": 75,
        "has_played": true,
        "id": 12217,
        "last_rank": 22534,
        "player_name": "Jamie Gordon",
        "rank": 11796,
        "rank_sort": 11796,
        "total": 2394
      },
      {
        "club_badge_src": null,
        "entry": 5331,
        "entry_name": "PALAKORN RED DEVILS",
        "event_total": 79,
        "has_played": true,
        "id": 30386,
        "last_rank": 22426,
        "player_name": "Palakorn Aebthip",
        "rank": 11796,
        "rank_sort": 11797,
        "total": 2394
      },
      {
        "club_badge_src": "https://fantasy.premierleague.com/gcs/plfpl-production-adobe-approved/plfpl-production/17576/d2fe9170-10e8-477a-ac29-9bf6fb2d3809.png",
        "entry": 17576,
        "entry_name": "Awobabob-Bobb",
        "event_total": 54,
        "has_played": true,
        "id": 109076,
        "last_rank": 10031,
        "player_name": "Joe Poppleton",
        "rank": 11796,
        "rank_sort": 11798,
        "total": 2394
      },
      {
        "club_badge_src": null,
        "entry": 24365,
        "entry_name": "Rutter Woke Nonsense",
        "event_total": 67,
        "has_played": true,
        "id": 153790,
        "last_rank": 14370,
        "player_name": "Dzmitryi Tresko",
        "rank": 11796,
        "rank_sort": 11799,
        "total": 2394
      },
      {
        "club_badge_src": null,
        "entry": 32676,
        "entry_name": "Partey of Gooners",
        "event_total": 64,
        "has_played": true,
        "id": 207972,
        "last_rank": 12705,
        "player_name": "Mahdi Syed",
        "rank": 11796,
        "rank_sort": 11800,
        "total": 2394
      }
    ]
  }
}