{
  "last_updated_data": "2026-05-24T23:28:17Z",
  "league": {
    "admin_entry": null,
    "closed": false,
    "code_privacy": "p",
    "created": "2025-07-20T23:14:33.933835Z",
    "cup_league": 2815434,
    "has_cup": true,
    "id": 314,
    "league_type": "s",
    "max_entries": null,
    "name": "Overall",
    "rank": null,
    "scoring": "c",
    "start_event": 1
  },
  "new_entries": {
    "has_next": false,
    "page": 1,
    "results": []
  },
  "standings": {
    "has_next": true,
    "page": 1146,
    "results": [
      {
        "club_badge_src": null,
        "entry": 55223,
        "entry_name": "Cunha believe it?",
        "event_total": 70,
        "has_played": true,
        "id": 355457,
        "last_rank": 83934,
        "player_name": "David Quigley",
        "rank": 57227,
        "rank_sort": 57251,
        "total": 2347
      },
      {
        "club_badge_src": null,
        "entry": 55231,
        "entry_name": "NonnaHver",
        "event_total": 75,
        "has_played": true,
        "id": 355515,
        "last_rank": 95527,
        "player_name": "Jon Arnason",
        "rank": 57227,
        "rank_sort": 57252,
        "total": 2347
      },
      {
        "club_badge_src": null,
        "entry": 56549,
        "entry_name": "Salah Sarr Slitherin",
        "event_total": 65,
        "has_played": true,
        "id": 364210,
        "last_rank": 72815,
        "player_name": "Rhed Alexander",
        "rank": 57227,
        "rank_sort": 57253,
        "total": 2347
      },
      {
        "club_badge_src": null,
        "entry": 60573,
        "entry_name": "Bayern Barron",
        "event_total": 58,
        "has_played": true,
        "id": 389996,
        "last_rank": 59632,
        "player_name": "alastair barron",
        "rank": 57227,
        "rank_sort": 57254,
        "total": 2347
      },
      {
        "club_badge_src": null,
        "entry": 64573,
        "entry_name": "Jin & Tonic",
        "event_total": 65,
        "has_played": true,
        "id": 416779,
        "last_rank": 72815,
        "player_name": "Zizheng Jin",
        "rank": 57227,
        "rank_sort": 57255,
        "total": 2347
      },
      {
        "club_badge_src": "https://fantasy.premierleague.com/gcs/plfpl-production-adobe-approved/plfpl-production/70160/9924bfbc-72c6-4815-9880-ac1dc91646b8.png",
        "entry": 70160,
        "entry_name": "One Hit WonderKids",
        "event_total": 67,
        "has_played": true,
        "id": 455433,
        "last_rank": 68624,
        "player_name": "Meldon Govender",
        "rank": 57227,
        "rank_sort": 57256,
        "total": 2347
      },
      {
        "club_badge_src": null,
        "entry": 70843,
        "entry_name": "Holden's Hammers",
        "event_total": 66,
        "has_played": true,
        "id": 460057,
        "last_rank": 75139,
        "player_name": "Paul Holden-Warren",
        "rank": 57227,
        "rank_sort": 57257,
        "total": 2347
      },
      {
        "club_badge_src": "https://fantasy.premierleague.com/gcs/plfpl-production-adobe-approved/plfpl-production/71259/57aa8b6c-98c6-4bdd-8323-c6ceb79cfc94.png",
        "entry": 71259,
        "entry_name": "Gutsy fc",
        "event_total": 64,
        "has_played": true,
        "id": 462815,
        "last_rank": 70985,
        "player_name": "Oluwatobi Gutsy",
        "rank": 57227,
        "rank_sort": 57258,
        "total": 2347
      },
      {
        "club_badge_src": "https://fantasy.premierleague.com/gcs/plfpl-production-adobe-approved/plfpl-production/72993/bec91e40-ee5b-4579-9b1a-ce63884b7aec.png",
        "entry": 72993,
        "entry_name": "Pichayuth CFC",
        "event_total": 66,
        "has_played": true,
        "id": 474424,
        "last_rank": 74898,
        "player_name": "Pichayuth Thongchaikul",
        "rank": 57227,
        "rank_sort": 57259,
        "total": 2347
      },
      {
        "club_badge_src": null,
        "entry": 74176,
        "entry_name": "Down to Bizot-ness",
        "event_total": 58,
        "has_played": true,
        "id": 482166,
        "last_rank": 59813,
        "player_name": "Sam Elliott",
        "rank": 57227,
        "rank_sort": 57260,
        "total": 2347
      },
      {
        "club_badge_src": null,
        "entry": 79310,
        "entry_name": "Fc Alwaxiis",
        "event_total": 65,
        "has_played": true,
        "id": 515787,
        "last_rank": 72815,
        "player_name": "Abdi zamad",
        "rank": 57227,
        "rank_sort": 57261,
        "total": 2347
      },
      {
        "club_badge_src": null,
        "entry": 83064,
        "entry_name": "Couldn\u2019t be Wirtz",
        "event_total": 57,
        "has_played": true,
        "id": 540563,
        "last_rank": 58071,
        "player_name": "Ryan Freeman",
        "rank": 57227,
        "rank_sort": 57262,
        "total": 2347
      },
      {
        "club_badge_src": null,
        "entry": 87124,
        "entry_name": "Derby County",
        "event_total": 59,
        "has_played": true,
        "id": 568054,
        "last_rank": 61606,
        "player_name": "Erling Haaland",
        "rank": 57227,
        "rank_sort": 57263,
        "total": 2347
      },
      {
        "club_badge_src": "https://fantasy.premierleague.com/gcs/plfpl-production-adobe-approved/plfpl-production/87465/a826a0d6-4ebe-455e-9a15-6eaa0366f3c2.png",
        "entry": 87465,
        "entry_name": "Central Ceedorf",
        "event_total": 44,
        "has_played": true,
        "id": 570411,
        "last_rank": 38644,
        "player_name": "Pete Hibberd",
        "rank": 57227,
        "rank_sort": 57264,
        "total": 2347
      },
      {
        "club_badge_src": "https://fantasy.premierleague.com/gcs/plfpl-production-adobe-approved/plfpl-production/94757/887cc112-fe56-4f41-9638-f61ec9bcea83.png",
        "entry": 94757,
        "entry_name": "HongKongNam026",
        "event_total": 62,
        "has_played": true,
        "id": 619147,
        "last_rank": 66848,
        "player_name": "Matthew Ching",
        "rank": 57227,
        "rank_sort": 57265,
        "total": 2347
      },
      {
        "club_badge_src": null,
        "entry": 107377,
        "entry_name": "Mamoclock",
        "event_total": 51,
        "has_played": true,
        "id": 699974,
        "last_rank": 48197,
        "player_name": "Archit Mam",
        "rank": 57227,
        "rank_sort": 57266,
        "total": 2347
      },
      {
        "club_badge_src": null,
        "entry": 112264,
        "entry_name": "Palmer Violets",
        "event_total": 67,
        "has_played": true,
        "id": 731939,
        "last_rank": 77258,
        "player_name": "Will Barrass",
        "rank": 57227,
        "rank_sort": 57267,
        "total": 2347
      },
      {
        "club_badge_src": null,
        "entry": 131968,
        "entry_name": "Psycho's Forest",
        "event_total": 71,
        "has_played": true,
        "id": 859704,
        "last_rank": 86304,
        "player_name": "Matt Parker",
        "rank": 57227,
        "rank_sort": 57268,
        "total": 2347
      },
      {
        "club_badge_src": null,
        "entry": 134489,
        "entry_name": "The Ziders",
        "event_total": 52,
        "has_played": true,
        "id": 875883,
        "last_rank": 49691,
        "player_name": "Espen Dahl",
        "rank": 57227,
        "rank_sort": 57269,
        "total": 2347
      },
      {
        "club_badge_src": "https://fantasy.premierleague.com/gcs/plfpl-production-adobe-approved/plfpl-production/139887/871c3daa-04da-4b09-b90f-62af97572cd0.png",
        "entry": 139887,
        "entry_name": "Ginger Kids FC",
        "event_total": 63,
        "has_played": true,
        "id": 913238,
        "last_rank": 68957,
        "player_name": "James Siddall",
        "rank": 57227,
        "rank_sort": 57270,
        "total": 2347
      },
      {
        "club_badge_src": null,
        "entry": 140644,
        "entry_name": "ShesGotEkitikeToRide",
        "event_total": 57,
        "has_played": true,
        "id": 918476,
        "last_rank": 57857,
        "player_name": "Tom Skelton",
        "rank": 57227,
        "rank_sort": 57271,
        "total": 2347
      },
      {
        "club_badge_src": "https://fantasy.premierleague.com/gcs/plfpl-production-adobe-approved/plfpl-production/141297/7693f7c1-d098-425b-a229-d80417c7500c.png",
        "entry": 141297,
        "entry_name": "The Pep's Army",
        "event_total": 65,
        "has_played": true,
        "id": 923113,
        "last_rank": 73038,
        "player_name": "Kapil Magar",
        "rank": 57227,
        "rank_sort": 57272,
        "total": 2347
      },
      {
        "club_badge_src": "https://fantasy.premierleague.com/gcs/plfpl-production-adobe-approved/plfpl-production/141318/954ac6bc-f0ff-4906-beaf-e6ff8724c600.png",
        "entry": 141318,
        "entry_name": "Fox Force Eleven",
        "event_total": 73,
        "has_played": true,
        "id": 923273,
        "last_rank": 90625,
        "player_name": "James Nuttall",
        "rank": 57227,
        "rank_sort": 57273,
        "total": 2347
      },
      {
        "club_badge_src": "https://fantasy.premierleague.com/gcs/plfpl-production-adobe-approved/plfpl-production/154992/b4894b75-d478-4b72-b202-2c3a0065c8c5.png",
        "entry": 154992,
        "entry_name": "Prime Barclays",
        "event_total": 68,
        "has_played": true,
        "id": 1018421,
        "last_rank": 79431,
        "player_name": "Hridesh Kapur",
        "rank": 57227,
        "rank_sort": 57274,
        "total": 2347
      },
      {
        "club_badge_src": null,
        "entry": 165337,
        "entry_name": "JosepBall",
        "event_total": 46,
        "has_played": true,
        "id": 1091561,
        "last_rank": 41617,
        "player_name": "Joseph Antonio Abbandonato",
        "rank": 57227,
        "rank_sort": 57275,
        "total": 2347
      },
      {
        "club_badge_src": null,
        "entry": 181859,
        "entry_name": "Little Buff Boys",
        "event_total": 53,
        "has_played": true,
        "id": 1200086,
        "last_rank": 51220,
        "player_name": "Alan Trembath",
        "rank": 57227,
        "rank_sort": 57276,
        "total": 2347
      },
      {
        "club_badge_src": null,
        "entry": 196108,
        "entry_name": "update_pending",
        "event_total": 81,
        "has_played": true,
        "id": 1300755,
        "last_rank": 112169,
        "player_name": "Alex Elliott",
        "rank": 57227,
        "rank_sort": 57277,
        "total": 2347
      },
      {
        "club_badge_src": null,
        "entry": 198159,
        "entry_name": "Schar the Load",
        "event_total": 61,
        "has_played": true,
        "id": 1315007,
        "last_rank": 65163,
        "player_name": "Ben Alexander",
        "rank": 57227,
        "rank_sort": 57278,
        "total": 2347
      },
      {
        "club_badge_src": null,
        "entry": 199949,
        "entry_name": "Kebab With Salahd",
        "event_total": 69,
        "has_played": true,
        "id": 1327165,
        "last_rank": 81312,
        "player_name": "Philip Omatsone",
        "rank": 57227,
        "rank_sort": 57279,
        "total": 2347
      },
      {
        "club_badge_src": null,
        "entry": 200025,
        "entry_name": "AMADness",
        "event_total": 55,
        "has_played": true,
        "id": 1327711,
        "last_rank": 54494,
        "player_name": "Joe Collins",
        "rank": 57227,
        "rank_sort": 57280,
        "total": 2347
      },
      {
        "club_badge_src": null,
        "entry": 217408,
        "entry_name": "Bailey's Boys",
        "event_total": 73,
        "has_played": true,
        "id": 1445878,
        "last_rank": 91006,
        "player_name": "Stephen Strain",
        "rank": 57227,
        "rank_sort": 57281,
        "total": 2347
      },
      {
        "club_badge_src": null,
        "entry": 218338,
        "entry_name": "Cookie Monster",
        "event_total": 52,
        "has_played": true,
        "id": 1451963,
        "last_rank": 49880,
        "player_name": "Adrian Callanan",
        "rank": 57227,
        "rank_sort": 57282,
        "total": 2347
      },
      {
        "club_badge_src": null,
        "entry": 224519,
        "entry_name": "Lemon Goblins",
        "event_total": 41,
        "has_played": true,
        "id": 1493546,
        "last_rank": 35166,
        "player_name": "Matthew Payler",
        "rank": 57227,
        "rank_sort": 57283,
        "total": 2347
      },
      {
        "club_badge_src": null,
        "entry": 227533,
        "entry_name": "Sam United",
        "event_total": 50,
        "has_played": true,
        "id": 1513525,
        "last_rank": 46839,
        "player_name": "Sam Peel",
        "rank": 57227,
        "rank_sort": 57284,
        "total": 2347
      },
      {
        "club_badge_src": null,
        "entry": 249343,
        "entry_name": "Wolf",
        "event_total": 68,
        "has_played": true,
        "id": 1659308,
        "last_rank": 79431,
        "player_name": "Shalini J",
        "rank": 57227,
        "rank_sort": 57285,
        "total": 2347
      },
      {
        "club_badge_src": null,
        "entry": 258982,
        "entry_name": "We\u2019ll have a look",
        "event_total": 70,
        "has_played": true,
        "id": 1721935,
        "last_rank": 83698,
        "player_name": "Scott Speed",
        "rank": 57227,
        "rank_sort": 57286,
        "total": 2347
      },
      {
        "club_badge_src": null,
        "entry": 275888,
        "entry_name": "Top Cats",
        "event_total": 46,
        "has_played": true,
        "id": 1836192,
        "last_rank": 41324,
        "player_name": "Tom Campbell",
        "rank": 57227,
        "rank_sort": 57287,
        "total": 2347
      },
      {
        "club_badge_src": null,
        "entry": 306336,
        "entry_name": "wirtz nightmare",
        "event_total": 49,
        "has_played": true,
        "id": 2051521,
        "last_rank": 45416,
        "player_name": "Cian Sweeney",
        "rank": 57227,
        "rank_sort": 57288,
        "total": 2347
      },
      {
        "club_badge_src": "https://fantasy.premierleague.com/gcs/plfpl-production-adobe-approved/plfpl-production/335952/601b3cb7-20f3-45be-9e7f-59497eaa79af.png",
        "entry": 335952,
        "entry_name": "London is Bluenaldo",
        "event_total": 59,
        "has_played": true,
        "id": 2249373,
        "last_rank": 61411,
        "player_name": "Santtu Miettinen",
        "rank": 57227,
        "rank_sort": 57289,
        "total": 2347
      },
      {
        "club_badge_src": null,
        "entry": 339813,
        "entry_name": "Kudus to this team",
        "event_total": 53,
        "has_played": true,
        "id": 2274760,
        "last_rank": 51220,
        "player_name": "Chris Piggott",
        "rank": 57227,
        "rank_sort": 57290,
        "total": 2347
      },
      {
        "club_badge_src": null,
        "entry": 350502,
        "entry_name": "Faisal7",
        "event_total": 63,
        "has_played": true,
        "id": 2346177,
        "last_rank": 68748,
        "player_name": "Faisal Alrubian",
        "rank": 57227,
        "rank_sort": 57291,
        "total": 2347
      },
      {
        "club_badge_src": null,
        "entry": 350974,
        "entry_name": "Whats the Mata",
        "event_total": 34,
        "has_played": true,
        "id": 2349417,
        "last_rank": 27976,
        "player_name": "Algot Wireng\u00e5rd",
        "rank": 57227,
        "rank_sort": 57292,
        "total": 2347
      },
      {
        "club_badge_src": null,
        "entry": 374045,
        "entry_name": "Can't be Wirtz",
        "event_total": 49,
        "has_played": true,
        "id": 2502818,
        "last_rank": 34969,
        "player_name": "Jacob Rawnsley",
        "rank": 57227,
        "rank_sort": 57293,
        "total": 2347
      },
      {
        "club_badge_src": null,
        "entry": 389379,
        "entry_name": "Sesko Express",
        "event_total": 76,
        "has_played": true,
        "id": 2611960,
        "last_rank": 98436,
        "player_name": "Shaahid Sumra",
        "rank": 57227,
        "rank_sort": 57294,
        "total": 2347
      },
      {
        "club_badge_src": null,
        "entry": 401384,
        "entry_name": "Turkish De Ligt",
        "event_total": 45,
        "has_played": true,
        "id": 2691469,
        "last_rank": 40297,
        "player_name": "James Tyson",
        "rank": 57227,
        "rank_sort": 57295,
        "total": 2347
      },
      {
        "club_badge_src": "https://fantasy.premierleague.com/gcs/plfpl-production-adobe-approved/plfpl-production/424494/e60a9777-96e9-4e77-9b7b-6a0a65bc7adb.png",
        "entry": 424494,
        "entry_name": "willerns xi",
        "event_total": 64,
        "has_played": true,
        "id": 2844992,
        "last_rank": 70651,
        "player_name": "Willern Liaw",
        "rank": 57227,
        "rank_sort": 57296,
        "total": 2347
      },
      {
        "club_badge_src": "https://fantasy.premierleague.com/gcs/plfpl-production-adobe-approved/plfpl-production/433283/dedec6f2-6db4-4785-b4a5-3428e4ebf081.png",
        "entry": 433283,
        "entry_name": "Holy Boehly",
        "event_total": 72,
        "has_played": true,
        "id": 2905716,
        "last_rank": 88348,
        "player_name": "Kila\u00efm Panggih Purwoko",
        "rank": 57227,
        "rank_sort": 57297,
        "total": 2347
      },
      {
        "club_badge_src": null,
        "entry": 443688,
        "entry_name": "Bafana Bafana",
        "event_total": 60,
        "has_played": true,
        "id": 2974884,
        "last_rank": 56180,
        "player_name": "Rafa\u0142 Ma\u0107kowski",
        "rank": 57227,
        "rank_sort": 57298,
        "total": 2347
      },
      {
        "club_badge_src": null,
        "entry": 444436,
        "entry_name": "Losing with Digne-ty",
        "event_total": 63,
        "has_played": true,
        "id": 2980178,
        "last_rank": 68748,
        "player_name": "Jacob McHugh McCartney",
        "rank": 57227,
        "rank_sort": 57299,
        "total": 2347
      },
      {
        "club_badge_src": null,
        "entry": 457126,
        "entry_name": "\u062d\u062f\u0648\u062f \u0627\u0644\u0634\u0648\u0642",
        "event_total": 63,
        "has_played": true,
        "id": 3066836,
        "last_rank": 68748,
        "player_name": "Saeed Merhi",
        "rank": 57227,
        "rank_sort": 57300,
        "total": 2347
      }
    ]
  }
}