{
  "last_updated_data": "2026-05-24T23:28:17Z",
  "league": {
    "admin_entry": null,
    "closed": false,
    "code_privacy": "p",
    "created": "2025-07-20T23:14:33.933835Z",
    "cup_league": 2815434,
    "has_cup": true,
    "id": 314,
    "league_type": "s",
    "max_entries": null,
    "name": "Overall",
    "rank": null,
    "scoring": "c",
    "start_event": 1
  },
  "new_entries": {
    "has_next": false,
    "page": 1,
    "results": []
  },
  "standings": {
    "has_next": true,
    "page": 1470,
    "results": [
      {
        "club_badge_src": null,
        "entry": 9335553,
        "entry_name": "Teams & conditions",
        "event_total": 52,
        "has_played": true,
        "id": 78749137,
        "last_rank": 64760,
        "player_name": "Milan Shrestha",
        "rank": 73422,
        "rank_sort": 73451,
        "total": 2338
      },
      {
        "club_badge_src": null,
        "entry": 9432983,
        "entry_name": "D Dog",
        "event_total": 42,
        "has_played": true,
        "id": 79688662,
        "last_rank": 48119,
        "player_name": "Danny Vallence",
        "rank": 73422,
        "rank_sort": 73452,
        "total": 2338
      },
      {
        "club_badge_src": "https://fantasy.premierleague.com/gcs/plfpl-production-adobe-approved/plfpl-production/99604/6e28cf22-331d-4d9d-b575-ed298a4a8c5e.png",
        "entry": 99604,
        "entry_name": "Wet Whistlers v3",
        "event_total": 74,
        "has_played": true,
        "id": 650198,
        "last_rank": 117112,
        "player_name": "Will Fraser",
        "rank": 73453,
        "rank_sort": 73453,
        "total": 2338
      },
      {
        "club_badge_src": "https://fantasy.premierleague.com/gcs/plfpl-production-adobe-approved/plfpl-production/102912/f09241f1-b425-484f-ae6f-01a59bac8929.png",
        "entry": 102912,
        "entry_name": "Hotel Thiago",
        "event_total": 56,
        "has_played": true,
        "id": 671525,
        "last_rank": 72702,
        "player_name": "Liam ONeill",
        "rank": 73453,
        "rank_sort": 73454,
        "total": 2338
      },
      {
        "club_badge_src": null,
        "entry": 121324,
        "entry_name": "Kinder Mbeumo",
        "event_total": 73,
        "has_played": true,
        "id": 791615,
        "last_rank": 114095,
        "player_name": "Matthew Johnston",
        "rank": 73453,
        "rank_sort": 73455,
        "total": 2338
      },
      {
        "club_badge_src": null,
        "entry": 171410,
        "entry_name": "tesla",
        "event_total": 43,
        "has_played": true,
        "id": 1132411,
        "last_rank": 49691,
        "player_name": "Mohammed Sanusie Daramy",
        "rank": 73453,
        "rank_sort": 73456,
        "total": 2338
      },
      {
        "club_badge_src": null,
        "entry": 260045,
        "entry_name": "Saints",
        "event_total": 43,
        "has_played": true,
        "id": 1728860,
        "last_rank": 49691,
        "player_name": "Ben Thorn",
        "rank": 73453,
        "rank_sort": 73457,
        "total": 2338
      },
      {
        "club_badge_src": null,
        "entry": 342834,
        "entry_name": ".",
        "event_total": 62,
        "has_played": true,
        "id": 2294577,
        "last_rank": 85836,
        "player_name": "Tom Smith",
        "rank": 73453,
        "rank_sort": 73458,
        "total": 2338
      },
      {
        "club_badge_src": null,
        "entry": 366749,
        "entry_name": "Giovanni Change FC",
        "event_total": 61,
        "has_played": true,
        "id": 2454360,
        "last_rank": 83485,
        "player_name": "Seamus Keher",
        "rank": 73453,
        "rank_sort": 73459,
        "total": 2338
      },
      {
        "club_badge_src": null,
        "entry": 564383,
        "entry_name": "Orakel",
        "event_total": 67,
        "has_played": true,
        "id": 3798880,
        "last_rank": 97968,
        "player_name": "Kaspar Teodor Andersen",
        "rank": 73453,
        "rank_sort": 73460,
        "total": 2338
      },
      {
        "club_badge_src": "https://fantasy.premierleague.com/gcs/plfpl-production-adobe-approved/plfpl-production/615697/ea8631cd-1bac-4876-a389-33d240405189.png",
        "entry": 615697,
        "entry_name": "Yo",
        "event_total": 44,
        "has_played": true,
        "id": 4160235,
        "last_rank": 51099,
        "player_name": "Chris Ewart",
        "rank": 73453,
        "rank_sort": 73461,
        "total": 2338
      },
      {
        "club_badge_src": "https://fantasy.premierleague.com/gcs/plfpl-production-adobe-approved/plfpl-production/632420/93967b36-16be-485e-9f43-c98e09a79bb5.png",
        "entry": 632420,
        "entry_name": "Golden team",
        "event_total": 47,
        "has_played": true,
        "id": 4273286,
        "last_rank": 56180,
        "player_name": "Soheib Hebili",
        "rank": 73453,
        "rank_sort": 73462,
        "total": 2338
      },
      {
        "club_badge_src": null,
        "entry": 742563,
        "entry_name": "Centoventi percento",
        "event_total": 49,
        "has_played": true,
        "id": 5050852,
        "last_rank": 59632,
        "player_name": "Przemyslaw Jasicki",
        "rank": 73453,
        "rank_sort": 73463,
        "total": 2338
      },
      {
        "club_badge_src": null,
        "entry": 820596,
        "entry_name": "Don Nketiah",
        "event_total": 60,
        "has_played": true,
        "id": 5620003,
        "last_rank": 81312,
        "player_name": "Eoin Brown",
        "rank": 73453,
        "rank_sort": 73464,
        "total": 2338
      },
      {
        "club_badge_src": null,
        "entry": 821870,
        "entry_name": "wolfin4",
        "event_total": 39,
        "has_played": true,
        "id": 5628744,
        "last_rank": 43786,
        "player_name": "Wolf InApril",
        "rank": 73453,
        "rank_sort": 73465,
        "total": 2338
      },
      {
        "club_badge_src": null,
        "entry": 824053,
        "entry_name": "AC Kilmacar",
        "event_total": 36,
        "has_played": true,
        "id": 5643832,
        "last_rank": 39874,
        "player_name": "Bill Murphy",
        "rank": 73453,
        "rank_sort": 73466,
        "total": 2338
      },
      {
        "club_badge_src": null,
        "entry": 849450,
        "entry_name": "GKneeIss Utd",
        "event_total": 55,
        "has_played": true,
        "id": 5822296,
        "last_rank": 70757,
        "player_name": "Steven Doherty",
        "rank": 73453,
        "rank_sort": 73467,
        "total": 2338
      },
      {
        "club_badge_src": null,
        "entry": 869221,
        "entry_name": "mitoma, hardly knowa",
        "event_total": 62,
        "has_played": true,
        "id": 5959208,
        "last_rank": 85870,
        "player_name": "Casey Krajewski",
        "rank": 73453,
        "rank_sort": 73468,
        "total": 2338
      },
      {
        "club_badge_src": null,
        "entry": 870885,
        "entry_name": "Hakuna Mateta",
        "event_total": 69,
        "has_played": true,
        "id": 5970655,
        "last_rank": 103130,
        "player_name": "Matthew Ward",
        "rank": 73453,
        "rank_sort": 73469,
        "total": 2338
      },
      {
        "club_badge_src": null,
        "entry": 934906,
        "entry_name": "Dutt's Diamonds",
        "event_total": 28,
        "has_played": true,
        "id": 6433643,
        "last_rank": 30600,
        "player_name": "Jordan Dutt",
        "rank": 73453,
        "rank_sort": 73470,
        "total": 2338
      },
      {
        "club_badge_src": null,
        "entry": 1048864,
        "entry_name": "Diogone Jota",
        "event_total": 32,
        "has_played": true,
        "id": 7258756,
        "last_rank": 35034,
        "player_name": "Eoin Murphy",
        "rank": 73453,
        "rank_sort": 73471,
        "total": 2338
      },
      {
        "club_badge_src": null,
        "entry": 1065014,
        "entry_name": "not isakly sure",
        "event_total": 66,
        "has_played": true,
        "id": 7372791,
        "last_rank": 95527,
        "player_name": "Nick Jones",
        "rank": 73453,
        "rank_sort": 73472,
        "total": 2338
      },
      {
        "club_badge_src": null,
        "entry": 1113979,
        "entry_name": "FC Alles geven",
        "event_total": 48,
        "has_played": true,
        "id": 7716391,
        "last_rank": 57857,
        "player_name": "Pierre Prudomme",
        "rank": 73453,
        "rank_sort": 73473,
        "total": 2338
      },
      {
        "club_badge_src": null,
        "entry": 1476343,
        "entry_name": "Nahir en flaska kir",
        "event_total": 82,
        "has_played": true,
        "id": 10291625,
        "last_rank": 142439,
        "player_name": "Vilgot Nilsson",
        "rank": 73453,
        "rank_sort": 73474,
        "total": 2338
      },
      {
        "club_badge_src": null,
        "entry": 1594266,
        "entry_name": "Shufflers",
        "event_total": 52,
        "has_played": true,
        "id": 11151244,
        "last_rank": 64830,
        "player_name": "Pete H",
        "rank": 73453,
        "rank_sort": 73475,
        "total": 2338
      },
      {
        "club_badge_src": null,
        "entry": 1650666,
        "entry_name": "Sammy\u2019s team",
        "event_total": 74,
        "has_played": true,
        "id": 11556337,
        "last_rank": 116890,
        "player_name": "Aiden Vagne",
        "rank": 73453,
        "rank_sort": 73476,
        "total": 2338
      },
      {
        "club_badge_src": null,
        "entry": 1757523,
        "entry_name": "El - Afifi",
        "event_total": 78,
        "has_played": true,
        "id": 12339120,
        "last_rank": 129205,
        "player_name": "khalid elafifi",
        "rank": 73453,
        "rank_sort": 73477,
        "total": 2338
      },
      {
        "club_badge_src": null,
        "entry": 1763173,
        "entry_name": "LK THE BALL",
        "event_total": 56,
        "has_played": true,
        "id": 12380872,
        "last_rank": 72702,
        "player_name": "La Minn Khant",
        "rank": 73453,
        "rank_sort": 73478,
        "total": 2338
      },
      {
        "club_badge_src": null,
        "entry": 1892646,
        "entry_name": "Utd16",
        "event_total": 64,
        "has_played": true,
        "id": 13339543,
        "last_rank": 90746,
        "player_name": "Paul Carmichael",
        "rank": 73453,
        "rank_sort": 73479,
        "total": 2338
      },
      {
        "club_badge_src": null,
        "entry": 2449495,
        "entry_name": "\u0160abani",
        "event_total": 41,
        "has_played": true,
        "id": 17519263,
        "last_rank": 46547,
        "player_name": "Strahinja Ivosev",
        "rank": 73453,
        "rank_sort": 73480,
        "total": 2338
      },
      {
        "club_badge_src": null,
        "entry": 2466901,
        "entry_name": "zakovvs",
        "event_total": 48,
        "has_played": true,
        "id": 17646342,
        "last_rank": 57857,
        "player_name": "zaki Bougherda",
        "rank": 73453,
        "rank_sort": 73481,
        "total": 2338
      },
      {
        "club_badge_src": "https://fantasy.premierleague.com/gcs/plfpl-production-adobe-approved/plfpl-production/2702051/327deacd-e1e7-4ed7-83bb-a7e8e4df4f68.png",
        "entry": 2702051,
        "entry_name": "Maersh Woopers",
        "event_total": 56,
        "has_played": true,
        "id": 19438200,
        "last_rank": 72815,
        "player_name": "Marshal Donnel Shoko",
        "rank": 73453,
        "rank_sort": 73482,
        "total": 2338
      },
      {
        "club_badge_src": null,
        "entry": 2845440,
        "entry_name": "Saladise",
        "event_total": 74,
        "has_played": true,
        "id": 20801604,
        "last_rank": 117112,
        "player_name": "Mike Hart",
        "rank": 73453,
        "rank_sort": 73483,
        "total": 2338
      },
      {
        "club_badge_src": null,
        "entry": 2918599,
        "entry_name": "Beef CHERKI",
        "event_total": 57,
        "has_played": true,
        "id": 21392988,
        "last_rank": 74787,
        "player_name": "James Evans",
        "rank": 73453,
        "rank_sort": 73484,
        "total": 2338
      },
      {
        "club_badge_src": null,
        "entry": 3018050,
        "entry_name": "Snoop Udogie Dog",
        "event_total": 51,
        "has_played": true,
        "id": 22204731,
        "last_rank": 63117,
        "player_name": "Grace Innes",
        "rank": 73453,
        "rank_sort": 73485,
        "total": 2338
      },
      {
        "club_badge_src": "https://fantasy.premierleague.com/gcs/plfpl-production-adobe-approved/plfpl-production/3365246/40cbde55-c658-4789-b59e-c9dcf975f9c7.png",
        "entry": 3365246,
        "entry_name": "Ekitike Taka",
        "event_total": 63,
        "has_played": true,
        "id": 24971596,
        "last_rank": 88249,
        "player_name": "James Edney",
        "rank": 73453,
        "rank_sort": 73486,
        "total": 2338
      },
      {
        "club_badge_src": "https://fantasy.premierleague.com/gcs/plfpl-production-adobe-approved/plfpl-production/3547303/059dd6a2-78e5-4c1a-99ce-195b89335e82.png",
        "entry": 3547303,
        "entry_name": "Back of the Neto",
        "event_total": 56,
        "has_played": true,
        "id": 26407502,
        "last_rank": 72702,
        "player_name": "Ois\u00edn Crowe",
        "rank": 73453,
        "rank_sort": 73487,
        "total": 2338
      },
      {
        "club_badge_src": null,
        "entry": 3646013,
        "entry_name": "Dejan Vu",
        "event_total": 79,
        "has_played": true,
        "id": 27174101,
        "last_rank": 132281,
        "player_name": "Miles Jacklin",
        "rank": 73453,
        "rank_sort": 73488,
        "total": 2338
      },
      {
        "club_badge_src": "https://fantasy.premierleague.com/gcs/plfpl-production-adobe-approved/plfpl-production/3794237/27cd50d5-5492-4da6-9ab9-c2109f3110b9.png",
        "entry": 3794237,
        "entry_name": "Walton Wanderers",
        "event_total": 40,
        "has_played": true,
        "id": 28358581,
        "last_rank": 45252,
        "player_name": "Mark Walton",
        "rank": 73453,
        "rank_sort": 73489,
        "total": 2338
      },
      {
        "club_badge_src": null,
        "entry": 4048095,
        "entry_name": "Gulsvart",
        "event_total": 85,
        "has_played": true,
        "id": 30533821,
        "last_rank": 152426,
        "player_name": "Tobias Nyberg",
        "rank": 73453,
        "rank_sort": 73490,
        "total": 2338
      },
      {
        "club_badge_src": "https://fantasy.premierleague.com/gcs/plfpl-production-adobe-approved/plfpl-production/4102208/954ff2c5-1bc9-48a9-87c3-163b551a944d.png",
        "entry": 4102208,
        "entry_name": "Neville Wears Prada",
        "event_total": 40,
        "has_played": true,
        "id": 30977373,
        "last_rank": 45252,
        "player_name": "Beau Greenwood",
        "rank": 73453,
        "rank_sort": 73491,
        "total": 2338
      },
      {
        "club_badge_src": null,
        "entry": 4320398,
        "entry_name": "Cayman Cider",
        "event_total": 52,
        "has_played": true,
        "id": 32787776,
        "last_rank": 64777,
        "player_name": "Harry Baker",
        "rank": 73453,
        "rank_sort": 73492,
        "total": 2338
      },
      {
        "club_badge_src": null,
        "entry": 4608699,
        "entry_name": "Big Jim's reds",
        "event_total": 48,
        "has_played": true,
        "id": 35214031,
        "last_rank": 57857,
        "player_name": "James Wallace",
        "rank": 73453,
        "rank_sort": 73493,
        "total": 2338
      },
      {
        "club_badge_src": null,
        "entry": 4619199,
        "entry_name": "Team M",
        "event_total": 73,
        "has_played": true,
        "id": 35306331,
        "last_rank": 114292,
        "player_name": "B Masih",
        "rank": 73453,
        "rank_sort": 73494,
        "total": 2338
      },
      {
        "club_badge_src": null,
        "entry": 4695638,
        "entry_name": "Pain in Dias",
        "event_total": 48,
        "has_played": true,
        "id": 35994496,
        "last_rank": 57857,
        "player_name": "Sarah Price",
        "rank": 73453,
        "rank_sort": 73495,
        "total": 2338
      },
      {
        "club_badge_src": null,
        "entry": 5057122,
        "entry_name": "Team Krazi",
        "event_total": 45,
        "has_played": true,
        "id": 39075971,
        "last_rank": 52853,
        "player_name": "Terry Pritchard",
        "rank": 73453,
        "rank_sort": 73496,
        "total": 2338
      },
      {
        "club_badge_src": null,
        "entry": 5437875,
        "entry_name": "LAST BORN",
        "event_total": 54,
        "has_played": true,
        "id": 42304817,
        "last_rank": 68624,
        "player_name": "Peter Orchia",
        "rank": 73453,
        "rank_sort": 73497,
        "total": 2338
      },
      {
        "club_badge_src": null,
        "entry": 5714742,
        "entry_name": "Jansentral Station",
        "event_total": 40,
        "has_played": true,
        "id": 44755489,
        "last_rank": 45252,
        "player_name": "Matthew Jansen",
        "rank": 73453,
        "rank_sort": 73498,
        "total": 2338
      },
      {
        "club_badge_src": null,
        "entry": 5806746,
        "entry_name": "Graig Villa Di-Joe",
        "event_total": 57,
        "has_played": true,
        "id": 45558727,
        "last_rank": 74898,
        "player_name": "Joe Henry",
        "rank": 73453,
        "rank_sort": 73499,
        "total": 2338
      },
      {
        "club_badge_src": null,
        "entry": 5883336,
        "entry_name": "Astros & Jeans",
        "event_total": 57,
        "has_played": true,
        "id": 46214940,
        "last_rank": 74898,
        "player_name": "Llewellyn Evans",
        "rank": 73453,
        "rank_sort": 73500,
        "total": 2338
      }
    ]
  }
}