{
  "last_updated_data": "2026-05-24T23:28:17Z",
  "league": {
    "admin_entry": null,
    "closed": false,
    "code_privacy": "p",
    "created": "2025-07-20T23:14:33.933835Z",
    "cup_league": 2815434,
    "has_cup": true,
    "id": 314,
    "league_type": "s",
    "max_entries": null,
    "name": "Overall",
    "rank": null,
    "scoring": "c",
    "start_event": 1
  },
  "new_entries": {
    "has_next": false,
    "page": 1,
    "results": []
  },
  "standings": {
    "has_next": true,
    "page": 1210,
    "results": [
      {
        "club_badge_src": null,
        "entry": 5043365,
        "entry_name": "Asterix Army",
        "event_total": 53,
        "has_played": true,
        "id": 38957465,
        "last_rank": 54324,
        "player_name": "Axel Ringblom",
        "rank": 60450,
        "rank_sort": 60451,
        "total": 2346
      },
      {
        "club_badge_src": null,
        "entry": 5970428,
        "entry_name": "Alpha",
        "event_total": 48,
        "has_played": true,
        "id": 46981448,
        "last_rank": 46507,
        "player_name": "Aahil Zaman",
        "rank": 60450,
        "rank_sort": 60452,
        "total": 2346
      },
      {
        "club_badge_src": "https://fantasy.premierleague.com/gcs/plfpl-production-adobe-approved/plfpl-production/264384/3df69408-f6a9-4c49-a5d1-1bd4fa23d3f0.png",
        "entry": 264384,
        "entry_name": "Gangsta\u2019s Allardyce",
        "event_total": 78,
        "has_played": true,
        "id": 1758105,
        "last_rank": 108370,
        "player_name": "Aynsley Watson",
        "rank": 60453,
        "rank_sort": 60453,
        "total": 2346
      },
      {
        "club_badge_src": null,
        "entry": 1309597,
        "entry_name": "NotSoHotPot",
        "event_total": 65,
        "has_played": true,
        "id": 9102887,
        "last_rank": 68515,
        "player_name": "Anders Aastveit",
        "rank": 60453,
        "rank_sort": 60454,
        "total": 2346
      },
      {
        "club_badge_src": "https://fantasy.premierleague.com/gcs/plfpl-production-adobe-approved/plfpl-production/2260762/5699fa7a-274f-4090-9a4a-a9ff24da3295.png",
        "entry": 2260762,
        "entry_name": "Manshester",
        "event_total": 58,
        "has_played": true,
        "id": 16118320,
        "last_rank": 63024,
        "player_name": "Mohammed Ali",
        "rank": 60453,
        "rank_sort": 60455,
        "total": 2346
      },
      {
        "club_badge_src": null,
        "entry": 5586403,
        "entry_name": "Gy\u00f6k9 Shoota",
        "event_total": 85,
        "has_played": true,
        "id": 43638894,
        "last_rank": 85776,
        "player_name": "Andreas Angol",
        "rank": 60453,
        "rank_sort": 60456,
        "total": 2346
      },
      {
        "club_badge_src": null,
        "entry": 7294626,
        "entry_name": "UrGoingToulouse",
        "event_total": 54,
        "has_played": true,
        "id": 59026072,
        "last_rank": 49518,
        "player_name": "Duca Vlad",
        "rank": 60457,
        "rank_sort": 60457,
        "total": 2346
      },
      {
        "club_badge_src": "https://fantasy.premierleague.com/gcs/plfpl-production-adobe-approved/plfpl-production/130229/224b0d77-fec6-480f-89bf-a35f22c3144d.png",
        "entry": 130229,
        "entry_name": "Grusade planer",
        "event_total": 54,
        "has_played": true,
        "id": 848641,
        "last_rank": 43714,
        "player_name": "Jonas Brogren",
        "rank": 60458,
        "rank_sort": 60458,
        "total": 2346
      },
      {
        "club_badge_src": "https://fantasy.premierleague.com/gcs/plfpl-production-adobe-approved/plfpl-production/381929/9dc4b6ee-6c95-4c92-a6db-4ff10bf89c14.png",
        "entry": 381929,
        "entry_name": "\u0630\u0626\u0627\u0628 \u062a\u0623\u0643\u0644 \u0627\u0644\u0644\u062d\u0645",
        "event_total": 75,
        "has_played": true,
        "id": 2560782,
        "last_rank": 81160,
        "player_name": "Abdelwahab Mohamed",
        "rank": 60458,
        "rank_sort": 60459,
        "total": 2346
      },
      {
        "club_badge_src": "https://fantasy.premierleague.com/gcs/plfpl-production-adobe-approved/plfpl-production/2188269/54632081-e2a6-41dd-b17e-86783bfc4a1e.png",
        "entry": 2188269,
        "entry_name": "Kinder Mbeumo",
        "event_total": 51,
        "has_played": true,
        "id": 15567410,
        "last_rank": 51075,
        "player_name": "Joshua Pillai",
        "rank": 60458,
        "rank_sort": 60460,
        "total": 2346
      },
      {
        "club_badge_src": null,
        "entry": 2312313,
        "entry_name": "Dukes of Hazard",
        "event_total": 25,
        "has_played": true,
        "id": 16494284,
        "last_rank": 18625,
        "player_name": "G G",
        "rank": 60458,
        "rank_sort": 60461,
        "total": 2346
      },
      {
        "club_badge_src": null,
        "entry": 1949242,
        "entry_name": "Youssef El goo",
        "event_total": 84,
        "has_played": true,
        "id": 13749831,
        "last_rank": 125741,
        "player_name": "Youssef Jo",
        "rank": 60462,
        "rank_sort": 60462,
        "total": 2346
      },
      {
        "club_badge_src": "https://fantasy.premierleague.com/gcs/plfpl-production-adobe-approved/plfpl-production/7909109/bf72de43-f379-47dd-be3f-97291a02b7ce.png",
        "entry": 7909109,
        "entry_name": "Kiritoo",
        "event_total": 60,
        "has_played": true,
        "id": 65069148,
        "last_rank": 46510,
        "player_name": "Kiritoo Asiri",
        "rank": 60463,
        "rank_sort": 60463,
        "total": 2346
      },
      {
        "club_badge_src": null,
        "entry": 3097613,
        "entry_name": "Zombie Cobblers",
        "event_total": 56,
        "has_played": true,
        "id": 22830544,
        "last_rank": 59446,
        "player_name": "Zombie Cobblers",
        "rank": 60464,
        "rank_sort": 60464,
        "total": 2345
      },
      {
        "club_badge_src": null,
        "entry": 193573,
        "entry_name": "Noni your business",
        "event_total": 64,
        "has_played": true,
        "id": 1283092,
        "last_rank": 74676,
        "player_name": "Noah Henry",
        "rank": 60465,
        "rank_sort": 60465,
        "total": 2345
      },
      {
        "club_badge_src": null,
        "entry": 1097424,
        "entry_name": "laja gram",
        "event_total": 67,
        "has_played": true,
        "id": 7601205,
        "last_rank": 81174,
        "player_name": "Awolaja Olaoluwa",
        "rank": 60466,
        "rank_sort": 60466,
        "total": 2345
      },
      {
        "club_badge_src": null,
        "entry": 3340545,
        "entry_name": "bridesmaid no more",
        "event_total": 33,
        "has_played": true,
        "id": 24777103,
        "last_rank": 28506,
        "player_name": "Eddie Watson",
        "rank": 60467,
        "rank_sort": 60467,
        "total": 2345
      },
      {
        "club_badge_src": null,
        "entry": 7575624,
        "entry_name": "What the skelly",
        "event_total": 82,
        "has_played": true,
        "id": 62043790,
        "last_rank": 119777,
        "player_name": "Eelis Herranen",
        "rank": 60467,
        "rank_sort": 60468,
        "total": 2345
      },
      {
        "club_badge_src": null,
        "entry": 2945373,
        "entry_name": "Liam McPoland FC",
        "event_total": 65,
        "has_played": true,
        "id": 21612656,
        "last_rank": 76858,
        "player_name": "Liam Mcpoland",
        "rank": 60469,
        "rank_sort": 60469,
        "total": 2345
      },
      {
        "club_badge_src": null,
        "entry": 7425432,
        "entry_name": "Marching on together",
        "event_total": 49,
        "has_played": true,
        "id": 60309800,
        "last_rank": 48046,
        "player_name": "Wayne Gray",
        "rank": 60469,
        "rank_sort": 60470,
        "total": 2345
      },
      {
        "club_badge_src": null,
        "entry": 611597,
        "entry_name": "Ekitike taka",
        "event_total": 72,
        "has_played": true,
        "id": 4132542,
        "last_rank": 92931,
        "player_name": "Daria Shirazi-Mollett",
        "rank": 60471,
        "rank_sort": 60471,
        "total": 2345
      },
      {
        "club_badge_src": "https://fantasy.premierleague.com/gcs/plfpl-production-adobe-approved/plfpl-production/4756319/3a4bbb90-3d9c-4bfb-8845-e4136868acf8.png",
        "entry": 4756319,
        "entry_name": "AFC RassHoL\u20ac",
        "event_total": 66,
        "has_played": true,
        "id": 36601493,
        "last_rank": 78971,
        "player_name": "Matthew Barnett",
        "rank": 60471,
        "rank_sort": 60472,
        "total": 2345
      },
      {
        "club_badge_src": null,
        "entry": 3012155,
        "entry_name": "NKK",
        "event_total": 48,
        "has_played": true,
        "id": 22159316,
        "last_rank": 46521,
        "player_name": "Blaz Bukovec",
        "rank": 60473,
        "rank_sort": 60473,
        "total": 2345
      },
      {
        "club_badge_src": null,
        "entry": 8313968,
        "entry_name": "charli xgx",
        "event_total": 67,
        "has_played": true,
        "id": 68857296,
        "last_rank": 81183,
        "player_name": "George Thompson",
        "rank": 60473,
        "rank_sort": 60474,
        "total": 2345
      },
      {
        "club_badge_src": null,
        "entry": 9101894,
        "entry_name": "LASTELEVEN",
        "event_total": 58,
        "has_played": true,
        "id": 76470685,
        "last_rank": 63039,
        "player_name": "Tom Weir",
        "rank": 60473,
        "rank_sort": 60475,
        "total": 2345
      },
      {
        "club_badge_src": null,
        "entry": 118353,
        "entry_name": "Saka Potatoes",
        "event_total": 46,
        "has_played": true,
        "id": 772429,
        "last_rank": 43742,
        "player_name": "Nick Lynch",
        "rank": 60476,
        "rank_sort": 60476,
        "total": 2345
      },
      {
        "club_badge_src": "https://fantasy.premierleague.com/gcs/plfpl-production-adobe-approved/plfpl-production/1343647/bd79a455-6a45-4fb1-b72a-8a97637da21b.png",
        "entry": 1343647,
        "entry_name": "Ashwolf",
        "event_total": 87,
        "has_played": true,
        "id": 9341803,
        "last_rank": 135457,
        "player_name": "masoud hoseini",
        "rank": 60476,
        "rank_sort": 60477,
        "total": 2345
      },
      {
        "club_badge_src": null,
        "entry": 5796733,
        "entry_name": "Galtee Rovers",
        "event_total": 70,
        "has_played": true,
        "id": 45470534,
        "last_rank": 88127,
        "player_name": "James Doyle",
        "rank": 60476,
        "rank_sort": 60478,
        "total": 2345
      },
      {
        "club_badge_src": null,
        "entry": 9233494,
        "entry_name": "slettens",
        "event_total": 51,
        "has_played": true,
        "id": 77762231,
        "last_rank": 51099,
        "player_name": "Martin L\u00f8vik",
        "rank": 60476,
        "rank_sort": 60479,
        "total": 2345
      },
      {
        "club_badge_src": null,
        "entry": 80745,
        "entry_name": "Van de Vengaboys",
        "event_total": 45,
        "has_played": true,
        "id": 525322,
        "last_rank": 42379,
        "player_name": "Junaed Razaq",
        "rank": 60480,
        "rank_sort": 60480,
        "total": 2345
      },
      {
        "club_badge_src": null,
        "entry": 335676,
        "entry_name": "Clowns FC",
        "event_total": 72,
        "has_played": true,
        "id": 2247568,
        "last_rank": 92973,
        "player_name": "Mohamed Laaroussi",
        "rank": 60480,
        "rank_sort": 60481,
        "total": 2345
      },
      {
        "club_badge_src": null,
        "entry": 821091,
        "entry_name": "NorthLondonForever",
        "event_total": 60,
        "has_played": true,
        "id": 5623433,
        "last_rank": 66644,
        "player_name": "Paul Vesse",
        "rank": 60480,
        "rank_sort": 60482,
        "total": 2345
      },
      {
        "club_badge_src": null,
        "entry": 930479,
        "entry_name": "Blueprint FC",
        "event_total": 37,
        "has_played": true,
        "id": 6402359,
        "last_rank": 32661,
        "player_name": "Jt Clappers",
        "rank": 60480,
        "rank_sort": 60483,
        "total": 2345
      },
      {
        "club_badge_src": "https://fantasy.premierleague.com/gcs/plfpl-production-adobe-approved/plfpl-production/1916848/87365bd6-2d45-4bc6-b63d-8ea98d87bf46.png",
        "entry": 1916848,
        "entry_name": "Arny's Army",
        "event_total": 70,
        "has_played": true,
        "id": 13515574,
        "last_rank": 88154,
        "player_name": "James Arnold",
        "rank": 60480,
        "rank_sort": 60484,
        "total": 2345
      },
      {
        "club_badge_src": null,
        "entry": 2439242,
        "entry_name": "SeeitSayitSlotdidit",
        "event_total": 55,
        "has_played": true,
        "id": 17444240,
        "last_rank": 57705,
        "player_name": "Adam Daulby",
        "rank": 60480,
        "rank_sort": 60485,
        "total": 2345
      },
      {
        "club_badge_src": null,
        "entry": 3699305,
        "entry_name": "Machine gun Skelly",
        "event_total": 50,
        "has_played": true,
        "id": 27600468,
        "last_rank": 49572,
        "player_name": "Jens Rasmussen",
        "rank": 60480,
        "rank_sort": 60486,
        "total": 2345
      },
      {
        "club_badge_src": null,
        "entry": 4947579,
        "entry_name": "Excellence FC",
        "event_total": 65,
        "has_played": true,
        "id": 38175693,
        "last_rank": 76908,
        "player_name": "Ecelacha Dominic",
        "rank": 60480,
        "rank_sort": 60487,
        "total": 2345
      },
      {
        "club_badge_src": null,
        "entry": 5490038,
        "entry_name": "Rambodinios Atletico",
        "event_total": 34,
        "has_played": true,
        "id": 42757754,
        "last_rank": 29495,
        "player_name": "James Ramsey",
        "rank": 60480,
        "rank_sort": 60488,
        "total": 2345
      },
      {
        "club_badge_src": null,
        "entry": 7242548,
        "entry_name": "Flames",
        "event_total": 52,
        "has_played": true,
        "id": 58532048,
        "last_rank": 52722,
        "player_name": "deepa bishowkarma",
        "rank": 60480,
        "rank_sort": 60489,
        "total": 2345
      },
      {
        "club_badge_src": null,
        "entry": 8107305,
        "entry_name": "SprinklesChips",
        "event_total": 46,
        "has_played": true,
        "id": 66868629,
        "last_rank": 43757,
        "player_name": "Izzy Avery",
        "rank": 60480,
        "rank_sort": 60490,
        "total": 2345
      },
      {
        "club_badge_src": null,
        "entry": 8205850,
        "entry_name": "SKAFA",
        "event_total": 55,
        "has_played": true,
        "id": 67795669,
        "last_rank": 57705,
        "player_name": "Alem Karalic",
        "rank": 60480,
        "rank_sort": 60491,
        "total": 2345
      },
      {
        "club_badge_src": null,
        "entry": 163924,
        "entry_name": "Callum",
        "event_total": 68,
        "has_played": true,
        "id": 1081531,
        "last_rank": 83498,
        "player_name": "Kallum Gavin",
        "rank": 60492,
        "rank_sort": 60492,
        "total": 2345
      },
      {
        "club_badge_src": null,
        "entry": 668915,
        "entry_name": "Lytham All-stars",
        "event_total": 53,
        "has_played": true,
        "id": 4523646,
        "last_rank": 54416,
        "player_name": "Andy Burton",
        "rank": 60492,
        "rank_sort": 60493,
        "total": 2345
      },
      {
        "club_badge_src": null,
        "entry": 688974,
        "entry_name": "Sharpshooters FC",
        "event_total": 64,
        "has_played": true,
        "id": 4664797,
        "last_rank": 74787,
        "player_name": "Uba Chinaka",
        "rank": 60492,
        "rank_sort": 60494,
        "total": 2345
      },
      {
        "club_badge_src": null,
        "entry": 1067126,
        "entry_name": "No Rash, No Glory",
        "event_total": 60,
        "has_played": true,
        "id": 7387461,
        "last_rank": 66738,
        "player_name": "Kay Jena",
        "rank": 60492,
        "rank_sort": 60495,
        "total": 2345
      },
      {
        "club_badge_src": null,
        "entry": 2002713,
        "entry_name": "Saldanha",
        "event_total": 81,
        "has_played": true,
        "id": 14158816,
        "last_rank": 116953,
        "player_name": "Forza Milan",
        "rank": 60492,
        "rank_sort": 60496,
        "total": 2345
      },
      {
        "club_badge_src": null,
        "entry": 3441364,
        "entry_name": "Optimistics FC",
        "event_total": 61,
        "has_played": true,
        "id": 25567227,
        "last_rank": 68572,
        "player_name": "Iqbal Baihaqi",
        "rank": 60492,
        "rank_sort": 60497,
        "total": 2345
      },
      {
        "club_badge_src": null,
        "entry": 3583087,
        "entry_name": "Dirty Harry",
        "event_total": 71,
        "has_played": true,
        "id": 26682841,
        "last_rank": 90565,
        "player_name": "Tim Marsland",
        "rank": 60492,
        "rank_sort": 60498,
        "total": 2345
      },
      {
        "club_badge_src": null,
        "entry": 4094115,
        "entry_name": "Shadwell Town",
        "event_total": 81,
        "has_played": true,
        "id": 30912389,
        "last_rank": 116953,
        "player_name": "Endre Urstad",
        "rank": 60492,
        "rank_sort": 60499,
        "total": 2345
      },
      {
        "club_badge_src": null,
        "entry": 4706149,
        "entry_name": "Change Name",
        "event_total": 29,
        "has_played": true,
        "id": 36086394,
        "last_rank": 24857,
        "player_name": "Oli Elliott",
        "rank": 60492,
        "rank_sort": 60500,
        "total": 2345
      }
    ]
  }
}