{
  "last_updated_data": "2026-05-24T23:28:17Z",
  "league": {
    "admin_entry": null,
    "closed": false,
    "code_privacy": "p",
    "created": "2025-07-20T23:14:33.933835Z",
    "cup_league": 2815434,
    "has_cup": true,
    "id": 314,
    "league_type": "s",
    "max_entries": null,
    "name": "Overall",
    "rank": null,
    "scoring": "c",
    "start_event": 1
  },
  "new_entries": {
    "has_next": false,
    "page": 1,
    "results": []
  },
  "standings": {
    "has_next": true,
    "page": 948,
    "results": [
      {
        "club_badge_src": null,
        "entry": 553762,
        "entry_name": "Mlinki",
        "event_total": 62,
        "has_played": true,
        "id": 3727183,
        "last_rank": 55514,
        "player_name": "Matej Mlinaric",
        "rank": 47321,
        "rank_sort": 47351,
        "total": 2354
      },
      {
        "club_badge_src": null,
        "entry": 557266,
        "entry_name": "The Dementorz",
        "event_total": 56,
        "has_played": true,
        "id": 3750401,
        "last_rank": 40647,
        "player_name": "Dami Oyetan",
        "rank": 47321,
        "rank_sort": 47352,
        "total": 2354
      },
      {
        "club_badge_src": "https://fantasy.premierleague.com/gcs/plfpl-production-adobe-approved/plfpl-production/632263/bd00bc04-4892-4ede-bde7-8bd432a644e5.png",
        "entry": 632263,
        "entry_name": "Real Madrid",
        "event_total": 64,
        "has_played": true,
        "id": 4272236,
        "last_rank": 58688,
        "player_name": "Miguel Angel Ramirez Mansilla",
        "rank": 47321,
        "rank_sort": 47353,
        "total": 2354
      },
      {
        "club_badge_src": null,
        "entry": 637540,
        "entry_name": "kinder mbeumo",
        "event_total": 82,
        "has_played": true,
        "id": 4308857,
        "last_rank": 97096,
        "player_name": "Lucas Potter",
        "rank": 47321,
        "rank_sort": 47354,
        "total": 2354
      },
      {
        "club_badge_src": null,
        "entry": 669748,
        "entry_name": "Wirtz Team Ever",
        "event_total": 74,
        "has_played": true,
        "id": 4529550,
        "last_rank": 77676,
        "player_name": "Matthew Bannister",
        "rank": 47321,
        "rank_sort": 47355,
        "total": 2354
      },
      {
        "club_badge_src": null,
        "entry": 732804,
        "entry_name": "OGFC",
        "event_total": 74,
        "has_played": true,
        "id": 4979807,
        "last_rank": 69323,
        "player_name": "damian ogradymarshall",
        "rank": 47321,
        "rank_sort": 47356,
        "total": 2354
      },
      {
        "club_badge_src": null,
        "entry": 751880,
        "entry_name": "Team",
        "event_total": 47,
        "has_played": true,
        "id": 5116209,
        "last_rank": 30060,
        "player_name": "Joe Stone",
        "rank": 47321,
        "rank_sort": 47357,
        "total": 2354
      },
      {
        "club_badge_src": null,
        "entry": 808445,
        "entry_name": "RSL",
        "event_total": 52,
        "has_played": true,
        "id": 5534844,
        "last_rank": 35768,
        "player_name": "Reuben St.Louis",
        "rank": 47321,
        "rank_sort": 47358,
        "total": 2354
      },
      {
        "club_badge_src": "https://fantasy.premierleague.com/gcs/plfpl-production-adobe-approved/plfpl-production/1043312/bd26dde2-5435-4183-97b6-808a1c94442e.png",
        "entry": 1043312,
        "entry_name": "The Great Doku Tree",
        "event_total": 59,
        "has_played": true,
        "id": 7220033,
        "last_rank": 44672,
        "player_name": "Rob Reddick",
        "rank": 47321,
        "rank_sort": 47359,
        "total": 2354
      },
      {
        "club_badge_src": null,
        "entry": 1319589,
        "entry_name": "ash",
        "event_total": 44,
        "has_played": true,
        "id": 9172144,
        "last_rank": 31371,
        "player_name": "Ashiru Ali",
        "rank": 47321,
        "rank_sort": 47360,
        "total": 2354
      },
      {
        "club_badge_src": null,
        "entry": 1390783,
        "entry_name": "Hirsty for more",
        "event_total": 51,
        "has_played": true,
        "id": 9675433,
        "last_rank": 34578,
        "player_name": "Ross Welton",
        "rank": 47321,
        "rank_sort": 47361,
        "total": 2354
      },
      {
        "club_badge_src": null,
        "entry": 1702408,
        "entry_name": "Wheres the GabbaGoal",
        "event_total": 64,
        "has_played": true,
        "id": 11925271,
        "last_rank": 58911,
        "player_name": "Joe Kelly",
        "rank": 47321,
        "rank_sort": 47362,
        "total": 2354
      },
      {
        "club_badge_src": "https://fantasy.premierleague.com/gcs/plfpl-production-adobe-approved/plfpl-production/1715422/6f8938f5-c883-45ca-9e23-217fcfd26bce.png",
        "entry": 1715422,
        "entry_name": "fpLFC_coach",
        "event_total": 61,
        "has_played": true,
        "id": 12020787,
        "last_rank": 53952,
        "player_name": "Jakub Kascak",
        "rank": 47321,
        "rank_sort": 47363,
        "total": 2354
      },
      {
        "club_badge_src": null,
        "entry": 1778324,
        "entry_name": "ChampionsOfTheWorld",
        "event_total": 63,
        "has_played": true,
        "id": 12493576,
        "last_rank": 57200,
        "player_name": "Ega Ciaputra",
        "rank": 47321,
        "rank_sort": 47364,
        "total": 2354
      },
      {
        "club_badge_src": null,
        "entry": 1790968,
        "entry_name": "Mes_FC",
        "event_total": 56,
        "has_played": true,
        "id": 12584584,
        "last_rank": 46236,
        "player_name": "Mesera Dereje",
        "rank": 47321,
        "rank_sort": 47365,
        "total": 2354
      },
      {
        "club_badge_src": null,
        "entry": 1819984,
        "entry_name": "Geolog_uz",
        "event_total": 69,
        "has_played": true,
        "id": 12799183,
        "last_rank": 60671,
        "player_name": "Umrzoq Xushvaxtov",
        "rank": 47321,
        "rank_sort": 47366,
        "total": 2354
      },
      {
        "club_badge_src": null,
        "entry": 1957468,
        "entry_name": "2ndYellowCard",
        "event_total": 57,
        "has_played": true,
        "id": 13809139,
        "last_rank": 41967,
        "player_name": "Hamood Barwani",
        "rank": 47321,
        "rank_sort": 47367,
        "total": 2354
      },
      {
        "club_badge_src": null,
        "entry": 1968714,
        "entry_name": "Trafford",
        "event_total": 64,
        "has_played": true,
        "id": 13894131,
        "last_rank": 51984,
        "player_name": "Eric Croft",
        "rank": 47321,
        "rank_sort": 47368,
        "total": 2354
      },
      {
        "club_badge_src": null,
        "entry": 2107157,
        "entry_name": "Js",
        "event_total": 51,
        "has_played": true,
        "id": 14954396,
        "last_rank": 39510,
        "player_name": "Jassim Salem",
        "rank": 47321,
        "rank_sort": 47369,
        "total": 2354
      },
      {
        "club_badge_src": null,
        "entry": 2398231,
        "entry_name": "Holmgren refererar",
        "event_total": 69,
        "has_played": true,
        "id": 17134535,
        "last_rank": 67695,
        "player_name": "Dick Kallstr\u00f6m",
        "rank": 47321,
        "rank_sort": 47370,
        "total": 2354
      },
      {
        "club_badge_src": null,
        "entry": 2474185,
        "entry_name": "Some fries with that",
        "event_total": 42,
        "has_played": true,
        "id": 17701459,
        "last_rank": 29199,
        "player_name": "Craig List",
        "rank": 47321,
        "rank_sort": 47371,
        "total": 2354
      },
      {
        "club_badge_src": null,
        "entry": 2478481,
        "entry_name": "Patpot",
        "event_total": 60,
        "has_played": true,
        "id": 17733512,
        "last_rank": 40503,
        "player_name": "Peter Naguib",
        "rank": 47321,
        "rank_sort": 47372,
        "total": 2354
      },
      {
        "club_badge_src": null,
        "entry": 2499432,
        "entry_name": "Il Diavolo",
        "event_total": 56,
        "has_played": true,
        "id": 17895694,
        "last_rank": 46236,
        "player_name": "Daly Robinson",
        "rank": 47321,
        "rank_sort": 47373,
        "total": 2354
      },
      {
        "club_badge_src": null,
        "entry": 2516978,
        "entry_name": "Arkadius FC",
        "event_total": 62,
        "has_played": true,
        "id": 18032974,
        "last_rank": 55514,
        "player_name": "Pascoal Parente",
        "rank": 47321,
        "rank_sort": 47374,
        "total": 2354
      },
      {
        "club_badge_src": null,
        "entry": 2675344,
        "entry_name": "Veni Vidi Vici",
        "event_total": 54,
        "has_played": true,
        "id": 19235713,
        "last_rank": 33332,
        "player_name": "Lisa Belloni",
        "rank": 47321,
        "rank_sort": 47375,
        "total": 2354
      },
      {
        "club_badge_src": null,
        "entry": 2833194,
        "entry_name": "Saka Spuds",
        "event_total": 38,
        "has_played": true,
        "id": 20703339,
        "last_rank": 25517,
        "player_name": "Fiona Brittle",
        "rank": 47321,
        "rank_sort": 47376,
        "total": 2354
      },
      {
        "club_badge_src": "https://fantasy.premierleague.com/gcs/plfpl-production-adobe-approved/plfpl-production/2887772/ec02685e-cfe5-4cc0-b88a-93d2db235591.png",
        "entry": 2887772,
        "entry_name": "TBE TheBestEver Wx1",
        "event_total": 68,
        "has_played": true,
        "id": 21142322,
        "last_rank": 66200,
        "player_name": "Sakarie Suleiman",
        "rank": 47321,
        "rank_sort": 47377,
        "total": 2354
      },
      {
        "club_badge_src": "https://fantasy.premierleague.com/gcs/plfpl-production-adobe-approved/plfpl-production/2893069/01cee984-dcf2-4cbe-935c-4b0e20a95b4a.png",
        "entry": 2893069,
        "entry_name": "Noni Your Business",
        "event_total": 74,
        "has_played": true,
        "id": 21190415,
        "last_rank": 69907,
        "player_name": "Sarah Keelan",
        "rank": 47321,
        "rank_sort": 47378,
        "total": 2354
      },
      {
        "club_badge_src": "https://fantasy.premierleague.com/gcs/plfpl-production-adobe-approved/plfpl-production/2901279/af8fde5a-8b95-4c85-99bd-c4c815fab91e.png",
        "entry": 2901279,
        "entry_name": "Alidragon FC",
        "event_total": 65,
        "has_played": true,
        "id": 21260921,
        "last_rank": 60671,
        "player_name": "Alejandro Sanchez",
        "rank": 47321,
        "rank_sort": 47379,
        "total": 2354
      },
      {
        "club_badge_src": "https://fantasy.premierleague.com/gcs/plfpl-production-adobe-approved/plfpl-production/3121421/4c2511d5-fdab-47c0-bfcb-2ab67715a86b.png",
        "entry": 3121421,
        "entry_name": "Ha - Cunha Mateta",
        "event_total": 69,
        "has_played": true,
        "id": 23035082,
        "last_rank": 53621,
        "player_name": "Emery Chua",
        "rank": 47321,
        "rank_sort": 47380,
        "total": 2354
      },
      {
        "club_badge_src": null,
        "entry": 3212459,
        "entry_name": "Wirtz of Wisdom",
        "event_total": 59,
        "has_played": true,
        "id": 23750806,
        "last_rank": 50468,
        "player_name": "Nick R",
        "rank": 47321,
        "rank_sort": 47381,
        "total": 2354
      },
      {
        "club_badge_src": null,
        "entry": 3283450,
        "entry_name": "Sporting Club BANG",
        "event_total": 48,
        "has_played": true,
        "id": 24304924,
        "last_rank": 35867,
        "player_name": "Paul Bevan",
        "rank": 47321,
        "rank_sort": 47382,
        "total": 2354
      },
      {
        "club_badge_src": null,
        "entry": 3292343,
        "entry_name": "AMaDneSs",
        "event_total": 37,
        "has_played": true,
        "id": 24377671,
        "last_rank": 24636,
        "player_name": "John Kibai",
        "rank": 47321,
        "rank_sort": 47383,
        "total": 2354
      },
      {
        "club_badge_src": null,
        "entry": 3366863,
        "entry_name": "ANASS",
        "event_total": 50,
        "has_played": true,
        "id": 24984006,
        "last_rank": 33483,
        "player_name": "anass el atiky",
        "rank": 47321,
        "rank_sort": 47384,
        "total": 2354
      },
      {
        "club_badge_src": null,
        "entry": 3465993,
        "entry_name": "Talk to Frank",
        "event_total": 54,
        "has_played": true,
        "id": 25765643,
        "last_rank": 43444,
        "player_name": "Joe Fisher",
        "rank": 47321,
        "rank_sort": 47385,
        "total": 2354
      },
      {
        "club_badge_src": null,
        "entry": 3519700,
        "entry_name": "Encrypted FC",
        "event_total": 46,
        "has_played": true,
        "id": 26192993,
        "last_rank": 33582,
        "player_name": "Amarachukwu Franklyn",
        "rank": 47321,
        "rank_sort": 47386,
        "total": 2354
      },
      {
        "club_badge_src": null,
        "entry": 3865745,
        "entry_name": "rdfc",
        "event_total": 69,
        "has_played": true,
        "id": 28986688,
        "last_rank": 67926,
        "player_name": "Rahul D",
        "rank": 47321,
        "rank_sort": 47387,
        "total": 2354
      },
      {
        "club_badge_src": null,
        "entry": 3899693,
        "entry_name": "Ruben Sandwich AFC",
        "event_total": 79,
        "has_played": true,
        "id": 29314454,
        "last_rank": 80194,
        "player_name": "Tiernan Byrne",
        "rank": 47321,
        "rank_sort": 47388,
        "total": 2354
      },
      {
        "club_badge_src": "https://fantasy.premierleague.com/gcs/plfpl-production-adobe-approved/plfpl-production/3992217/869f5ca8-52a3-43a6-a33a-9b437a0bfab2.png",
        "entry": 3992217,
        "entry_name": "The Wirtz Team Evra",
        "event_total": 54,
        "has_played": true,
        "id": 30061887,
        "last_rank": 38163,
        "player_name": "Komatos K",
        "rank": 47321,
        "rank_sort": 47389,
        "total": 2354
      },
      {
        "club_badge_src": null,
        "entry": 4076115,
        "entry_name": "L2TG",
        "event_total": 60,
        "has_played": true,
        "id": 30768722,
        "last_rank": 46106,
        "player_name": "Jonathan Coretti",
        "rank": 47321,
        "rank_sort": 47390,
        "total": 2354
      },
      {
        "club_badge_src": null,
        "entry": 4112536,
        "entry_name": "goalcl2526",
        "event_total": 62,
        "has_played": true,
        "id": 31059326,
        "last_rank": 55659,
        "player_name": "chyelee goh",
        "rank": 47321,
        "rank_sort": 47391,
        "total": 2354
      },
      {
        "club_badge_src": null,
        "entry": 4204212,
        "entry_name": "\u0623\u0628\u0648 \u0627\u0644\u0644\u062d\u0627\u0644\u062d",
        "event_total": 62,
        "has_played": true,
        "id": 31826367,
        "last_rank": 55514,
        "player_name": "mohammad ashraf",
        "rank": 47321,
        "rank_sort": 47392,
        "total": 2354
      },
      {
        "club_badge_src": null,
        "entry": 4210123,
        "entry_name": "riley's runts",
        "event_total": 61,
        "has_played": true,
        "id": 31875996,
        "last_rank": 47596,
        "player_name": "Riley Cochrane",
        "rank": 47321,
        "rank_sort": 47393,
        "total": 2354
      },
      {
        "club_badge_src": "https://fantasy.premierleague.com/gcs/plfpl-production-adobe-approved/plfpl-production/4571980/59aeabec-3a36-4f5a-83ed-25291b69d08b.png",
        "entry": 4571980,
        "entry_name": "Ao",
        "event_total": 71,
        "has_played": true,
        "id": 34892579,
        "last_rank": 71956,
        "player_name": "Atthapol Kusumarunya",
        "rank": 47321,
        "rank_sort": 47394,
        "total": 2354
      },
      {
        "club_badge_src": null,
        "entry": 4665093,
        "entry_name": "Ayari",
        "event_total": 63,
        "has_played": true,
        "id": 35730977,
        "last_rank": 57358,
        "player_name": "Ab Harbi",
        "rank": 47321,
        "rank_sort": 47395,
        "total": 2354
      },
      {
        "club_badge_src": null,
        "entry": 4676550,
        "entry_name": "Hey Ho \u0160e\u0161ko",
        "event_total": 81,
        "has_played": true,
        "id": 35826960,
        "last_rank": 94537,
        "player_name": "Ryan Pendleton",
        "rank": 47321,
        "rank_sort": 47396,
        "total": 2354
      },
      {
        "club_badge_src": "https://fantasy.premierleague.com/gcs/plfpl-production-adobe-approved/plfpl-production/4969763/b90e3b3c-6553-43e5-8789-04696d918657.png",
        "entry": 4969763,
        "entry_name": "zirkzeeandiknowit",
        "event_total": 55,
        "has_played": true,
        "id": 38353781,
        "last_rank": 44804,
        "player_name": "mberede william",
        "rank": 47321,
        "rank_sort": 47397,
        "total": 2354
      },
      {
        "club_badge_src": "https://fantasy.premierleague.com/gcs/plfpl-production-adobe-approved/plfpl-production/5458943/dcd52570-9dc0-4a00-92c9-b5f4b0b734df.png",
        "entry": 5458943,
        "entry_name": "#kamibencibuli",
        "event_total": 82,
        "has_played": true,
        "id": 42482827,
        "last_rank": 97096,
        "player_name": "Baba 3M",
        "rank": 47321,
        "rank_sort": 47398,
        "total": 2354
      },
      {
        "club_badge_src": "https://fantasy.premierleague.com/gcs/plfpl-production-adobe-approved/plfpl-production/5562773/bba1929e-7b48-45fe-a474-46b40bc3d335.png",
        "entry": 5562773,
        "entry_name": "UpTheAlphas",
        "event_total": 60,
        "has_played": true,
        "id": 43429720,
        "last_rank": 52357,
        "player_name": "Jon Mitchell",
        "rank": 47321,
        "rank_sort": 47399,
        "total": 2354
      },
      {
        "club_badge_src": null,
        "entry": 5564922,
        "entry_name": "Tekkers United",
        "event_total": 66,
        "has_played": true,
        "id": 43448997,
        "last_rank": 62429,
        "player_name": "Rohan Dass",
        "rank": 47321,
        "rank_sort": 47400,
        "total": 2354
      }
    ]
  }
}