{
  "last_updated_data": "2026-05-24T23:28:17Z",
  "league": {
    "admin_entry": null,
    "closed": false,
    "code_privacy": "p",
    "created": "2025-07-20T23:14:33.933835Z",
    "cup_league": 2815434,
    "has_cup": true,
    "id": 314,
    "league_type": "s",
    "max_entries": null,
    "name": "Overall",
    "rank": null,
    "scoring": "c",
    "start_event": 1
  },
  "new_entries": {
    "has_next": false,
    "page": 1,
    "results": []
  },
  "standings": {
    "has_next": true,
    "page": 367,
    "results": [
      {
        "club_badge_src": null,
        "entry": 1234899,
        "entry_name": "Under My Cucurella",
        "event_total": 62,
        "has_played": true,
        "id": 8575363,
        "last_rank": 21530,
        "player_name": "Jack Sanders",
        "rank": 18292,
        "rank_sort": 18301,
        "total": 2383
      },
      {
        "club_badge_src": null,
        "entry": 1334367,
        "entry_name": "Err3ad",
        "event_total": 60,
        "has_played": true,
        "id": 9275126,
        "last_rank": 17246,
        "player_name": "Omran Mansour",
        "rank": 18292,
        "rank_sort": 18302,
        "total": 2383
      },
      {
        "club_badge_src": "https://fantasy.premierleague.com/gcs/plfpl-production-adobe-approved/plfpl-production/2339668/db02798b-a491-45da-ae1f-98be687f0a95.png",
        "entry": 2339668,
        "entry_name": "Stoke Azzo",
        "event_total": 81,
        "has_played": true,
        "id": 16694077,
        "last_rank": 35969,
        "player_name": "Matthew Cavallaro",
        "rank": 18292,
        "rank_sort": 18303,
        "total": 2383
      },
      {
        "club_badge_src": null,
        "entry": 3464003,
        "entry_name": "BIG F3LL@ 33",
        "event_total": 62,
        "has_played": true,
        "id": 25749941,
        "last_rank": 21530,
        "player_name": "Robbie Peters",
        "rank": 18292,
        "rank_sort": 18304,
        "total": 2383
      },
      {
        "club_badge_src": "https://fantasy.premierleague.com/gcs/plfpl-production-adobe-approved/plfpl-production/3612785/5ce34ad4-db71-4501-b20d-9cea2402f6a7.png",
        "entry": 3612785,
        "entry_name": "Pride of the North",
        "event_total": 75,
        "has_played": true,
        "id": 26913983,
        "last_rank": 29369,
        "player_name": "Imrahil Skoda",
        "rank": 18292,
        "rank_sort": 18305,
        "total": 2383
      },
      {
        "club_badge_src": null,
        "entry": 4030147,
        "entry_name": "EasyTopThree",
        "event_total": 68,
        "has_played": true,
        "id": 30382030,
        "last_rank": 23071,
        "player_name": "Jamie Ogden",
        "rank": 18292,
        "rank_sort": 18306,
        "total": 2383
      },
      {
        "club_badge_src": null,
        "entry": 5640643,
        "entry_name": "Singara Blues",
        "event_total": 66,
        "has_played": true,
        "id": 44110903,
        "last_rank": 24735,
        "player_name": "Sabarish Krishna",
        "rank": 18292,
        "rank_sort": 18307,
        "total": 2383
      },
      {
        "club_badge_src": null,
        "entry": 51891,
        "entry_name": "Easy PZ",
        "event_total": 35,
        "has_played": true,
        "id": 333727,
        "last_rank": 7290,
        "player_name": "G L Cann",
        "rank": 18308,
        "rank_sort": 18308,
        "total": 2383
      },
      {
        "club_badge_src": "https://fantasy.premierleague.com/gcs/plfpl-production-adobe-approved/plfpl-production/105611/5a23bcfd-5c09-46df-a169-4a05f8f63f26.png",
        "entry": 105611,
        "entry_name": "The Special Unai",
        "event_total": 53,
        "has_played": true,
        "id": 688802,
        "last_rank": 13096,
        "player_name": "Yoni Smith",
        "rank": 18308,
        "rank_sort": 18309,
        "total": 2383
      },
      {
        "club_badge_src": "https://fantasy.premierleague.com/gcs/plfpl-production-adobe-approved/plfpl-production/386885/34e55689-6733-4e2b-abfa-70efc37dffdc.png",
        "entry": 386885,
        "entry_name": "The Faulkens",
        "event_total": 63,
        "has_played": true,
        "id": 2595438,
        "last_rank": 22309,
        "player_name": "James Faulkner",
        "rank": 18308,
        "rank_sort": 18310,
        "total": 2383
      },
      {
        "club_badge_src": null,
        "entry": 833823,
        "entry_name": "Gy\u00f6k Tuah",
        "event_total": 45,
        "has_played": true,
        "id": 5711535,
        "last_rank": 11112,
        "player_name": "Jonathon Wanley",
        "rank": 18308,
        "rank_sort": 18311,
        "total": 2383
      },
      {
        "club_badge_src": "https://fantasy.premierleague.com/gcs/plfpl-production-adobe-approved/plfpl-production/1046941/e185cf21-f89d-4c3a-af67-4daf614008f0.png",
        "entry": 1046941,
        "entry_name": "Bryan n Bruno FC",
        "event_total": 51,
        "has_played": true,
        "id": 7245541,
        "last_rank": 14200,
        "player_name": "Harry Cook",
        "rank": 18308,
        "rank_sort": 18312,
        "total": 2383
      },
      {
        "club_badge_src": null,
        "entry": 1184175,
        "entry_name": "Norwegian Wood",
        "event_total": 65,
        "has_played": true,
        "id": 8216066,
        "last_rank": 23919,
        "player_name": "Asle Kjellsen",
        "rank": 18308,
        "rank_sort": 18313,
        "total": 2383
      },
      {
        "club_badge_src": null,
        "entry": 1859050,
        "entry_name": "Ahmed team",
        "event_total": 51,
        "has_played": true,
        "id": 13084005,
        "last_rank": 12056,
        "player_name": "\u0627\u062d\u0645\u062f \u062a\u0627\u062c \u0627\u0644\u062f\u064a\u0646",
        "rank": 18308,
        "rank_sort": 18314,
        "total": 2383
      },
      {
        "club_badge_src": null,
        "entry": 901839,
        "entry_name": "Constant Misery",
        "event_total": 60,
        "has_played": true,
        "id": 6196680,
        "last_rank": 20079,
        "player_name": "Curt England",
        "rank": 18315,
        "rank_sort": 18315,
        "total": 2383
      },
      {
        "club_badge_src": null,
        "entry": 106243,
        "entry_name": "Ravabellies",
        "event_total": 67,
        "has_played": true,
        "id": 692805,
        "last_rank": 22331,
        "player_name": "Lee brook",
        "rank": 18316,
        "rank_sort": 18316,
        "total": 2383
      },
      {
        "club_badge_src": null,
        "entry": 1274840,
        "entry_name": "Espanol",
        "event_total": 66,
        "has_played": true,
        "id": 8858388,
        "last_rank": 24787,
        "player_name": "Joseph Ruiz",
        "rank": 18316,
        "rank_sort": 18317,
        "total": 2383
      },
      {
        "club_badge_src": "https://fantasy.premierleague.com/gcs/plfpl-production-adobe-approved/plfpl-production/7009449/714c37e2-df23-4cd0-b005-5e529d93f98e.png",
        "entry": 7009449,
        "entry_name": "\u0e01\u0e47\u0e21\u0e32\u0e14\u0e34\u0e04\u0e49\u0e32\u0e1f\u0e1f\u0e1f",
        "event_total": 53,
        "has_played": true,
        "id": 56290043,
        "last_rank": 13101,
        "player_name": "Nattanon Nakornsuk",
        "rank": 18316,
        "rank_sort": 18318,
        "total": 2383
      },
      {
        "club_badge_src": null,
        "entry": 5787403,
        "entry_name": "easy for cc",
        "event_total": 60,
        "has_played": true,
        "id": 45386550,
        "last_rank": 20087,
        "player_name": "Jo\u00e3o Santos",
        "rank": 18319,
        "rank_sort": 18319,
        "total": 2383
      },
      {
        "club_badge_src": null,
        "entry": 890678,
        "entry_name": "Fools Gold",
        "event_total": 74,
        "has_played": true,
        "id": 6110516,
        "last_rank": 24778,
        "player_name": "Darrell Webb",
        "rank": 18320,
        "rank_sort": 18320,
        "total": 2383
      },
      {
        "club_badge_src": null,
        "entry": 1426488,
        "entry_name": "Sssssssselim",
        "event_total": 67,
        "has_played": true,
        "id": 9939068,
        "last_rank": 19339,
        "player_name": "\u0633\u0644\u064a\u0645 .",
        "rank": 18320,
        "rank_sort": 18321,
        "total": 2383
      },
      {
        "club_badge_src": null,
        "entry": 3074465,
        "entry_name": "Livin' Saliba Loca",
        "event_total": 77,
        "has_played": true,
        "id": 22640248,
        "last_rank": 31480,
        "player_name": "Ben Garner",
        "rank": 18320,
        "rank_sort": 18322,
        "total": 2383
      },
      {
        "club_badge_src": null,
        "entry": 1989927,
        "entry_name": "Wenger is Arsenal",
        "event_total": 57,
        "has_played": true,
        "id": 14058557,
        "last_rank": 15371,
        "player_name": "Shane SMITH",
        "rank": 18323,
        "rank_sort": 18323,
        "total": 2383
      },
      {
        "club_badge_src": null,
        "entry": 395363,
        "entry_name": "Prepare 4 the Wirtz",
        "event_total": 74,
        "has_played": true,
        "id": 2651374,
        "last_rank": 32615,
        "player_name": "Lee Diaper",
        "rank": 18324,
        "rank_sort": 18324,
        "total": 2383
      },
      {
        "club_badge_src": "https://fantasy.premierleague.com/gcs/plfpl-production-adobe-approved/plfpl-production/846214/c5e8ffa4-f65b-402e-9ab6-1079eb54ebb3.png",
        "entry": 846214,
        "entry_name": "P_DCity",
        "event_total": 68,
        "has_played": true,
        "id": 5798055,
        "last_rank": 20095,
        "player_name": "P Delaw",
        "rank": 18324,
        "rank_sort": 18325,
        "total": 2383
      },
      {
        "club_badge_src": "https://fantasy.premierleague.com/gcs/plfpl-production-adobe-approved/plfpl-production/3308534/1e65a641-b3ef-439e-b74d-48bb56526844.png",
        "entry": 3308534,
        "entry_name": "Soccer Geek",
        "event_total": 67,
        "has_played": true,
        "id": 24510490,
        "last_rank": 16659,
        "player_name": "Allen Tan",
        "rank": 18326,
        "rank_sort": 18326,
        "total": 2383
      },
      {
        "club_badge_src": null,
        "entry": 8870146,
        "entry_name": "Wirtz Case Scenario",
        "event_total": 45,
        "has_played": true,
        "id": 74220390,
        "last_rank": 11130,
        "player_name": "Hayden Mcandrew",
        "rank": 18326,
        "rank_sort": 18327,
        "total": 2383
      },
      {
        "club_badge_src": null,
        "entry": 1937190,
        "entry_name": "kulaib",
        "event_total": 67,
        "has_played": true,
        "id": 13663213,
        "last_rank": 25688,
        "player_name": "Omar Kulaib",
        "rank": 18328,
        "rank_sort": 18328,
        "total": 2383
      },
      {
        "club_badge_src": null,
        "entry": 2349713,
        "entry_name": "SADIK FC",
        "event_total": 71,
        "has_played": true,
        "id": 16765783,
        "last_rank": 29463,
        "player_name": "SADIK ALI",
        "rank": 18329,
        "rank_sort": 18329,
        "total": 2383
      },
      {
        "club_badge_src": null,
        "entry": 1035700,
        "entry_name": "Hakuna Mateta",
        "event_total": 58,
        "has_played": true,
        "id": 7166925,
        "last_rank": 18626,
        "player_name": "Daniel Herbert",
        "rank": 18330,
        "rank_sort": 18330,
        "total": 2383
      },
      {
        "club_badge_src": null,
        "entry": 942821,
        "entry_name": "ali aldrees",
        "event_total": 73,
        "has_played": true,
        "id": 6493490,
        "last_rank": 27538,
        "player_name": "Ali Aldrees",
        "rank": 18331,
        "rank_sort": 18331,
        "total": 2383
      },
      {
        "club_badge_src": null,
        "entry": 5991897,
        "entry_name": "Sesko de Mayo",
        "event_total": 52,
        "has_played": true,
        "id": 47215957,
        "last_rank": 14801,
        "player_name": "Ashwal Gowda",
        "rank": 18332,
        "rank_sort": 18332,
        "total": 2382
      },
      {
        "club_badge_src": null,
        "entry": 8818281,
        "entry_name": "jhouse",
        "event_total": 33,
        "has_played": true,
        "id": 73719817,
        "last_rank": 6672,
        "player_name": "Bogdan Igor",
        "rank": 18332,
        "rank_sort": 18333,
        "total": 2382
      },
      {
        "club_badge_src": null,
        "entry": 4522774,
        "entry_name": "bowen arrow fc",
        "event_total": 64,
        "has_played": true,
        "id": 34493535,
        "last_rank": 23140,
        "player_name": "Joaquim Kirby",
        "rank": 18334,
        "rank_sort": 18334,
        "total": 2382
      },
      {
        "club_badge_src": null,
        "entry": 6327135,
        "entry_name": "MZAABI",
        "event_total": 57,
        "has_played": true,
        "id": 50269252,
        "last_rank": 17952,
        "player_name": "Mohammed Alzaabi",
        "rank": 18334,
        "rank_sort": 18335,
        "total": 2382
      },
      {
        "club_badge_src": null,
        "entry": 4955330,
        "entry_name": "Mudryk and Morty",
        "event_total": 64,
        "has_played": true,
        "id": 38238154,
        "last_rank": 23140,
        "player_name": "Peter Bradley",
        "rank": 18336,
        "rank_sort": 18336,
        "total": 2382
      },
      {
        "club_badge_src": null,
        "entry": 3048026,
        "entry_name": "EBUBE FC",
        "event_total": 69,
        "has_played": true,
        "id": 22438009,
        "last_rank": 27546,
        "player_name": "Ebube Ibe",
        "rank": 18337,
        "rank_sort": 18337,
        "total": 2382
      },
      {
        "club_badge_src": null,
        "entry": 2452284,
        "entry_name": "Fugel FC",
        "event_total": 60,
        "has_played": true,
        "id": 17539537,
        "last_rank": 20104,
        "player_name": "Vegard Fugelsnes",
        "rank": 18338,
        "rank_sort": 18338,
        "total": 2382
      },
      {
        "club_badge_src": null,
        "entry": 2813465,
        "entry_name": "Romping Shop",
        "event_total": 57,
        "has_played": true,
        "id": 20549527,
        "last_rank": 17965,
        "player_name": "Mohammed Aman",
        "rank": 18339,
        "rank_sort": 18339,
        "total": 2382
      },
      {
        "club_badge_src": null,
        "entry": 6744251,
        "entry_name": "Wirtz Case Scenario",
        "event_total": 56,
        "has_played": true,
        "id": 53988405,
        "last_rank": 17295,
        "player_name": "Matt Kilner",
        "rank": 18339,
        "rank_sort": 18340,
        "total": 2382
      },
      {
        "club_badge_src": null,
        "entry": 2311769,
        "entry_name": "Jackpot FC",
        "event_total": 59,
        "has_played": true,
        "id": 16490103,
        "last_rank": 19369,
        "player_name": "Jack Thomas",
        "rank": 18341,
        "rank_sort": 18341,
        "total": 2382
      },
      {
        "club_badge_src": null,
        "entry": 2648422,
        "entry_name": "Turtle Dream",
        "event_total": 66,
        "has_played": true,
        "id": 19036101,
        "last_rank": 24805,
        "player_name": "Jacob Bach",
        "rank": 18341,
        "rank_sort": 18342,
        "total": 2382
      },
      {
        "club_badge_src": null,
        "entry": 2957981,
        "entry_name": "For Muscat",
        "event_total": 60,
        "has_played": true,
        "id": 21726759,
        "last_rank": 20111,
        "player_name": "Matthew Crookes",
        "rank": 18341,
        "rank_sort": 18343,
        "total": 2382
      },
      {
        "club_badge_src": null,
        "entry": 3391884,
        "entry_name": "Salsa Salibae",
        "event_total": 59,
        "has_played": true,
        "id": 25181218,
        "last_rank": 19369,
        "player_name": "Malvin Gjerde",
        "rank": 18341,
        "rank_sort": 18344,
        "total": 2382
      },
      {
        "club_badge_src": null,
        "entry": 5907292,
        "entry_name": "Vc43",
        "event_total": 69,
        "has_played": true,
        "id": 46418373,
        "last_rank": 27557,
        "player_name": "Victor Jr",
        "rank": 18341,
        "rank_sort": 18345,
        "total": 2382
      },
      {
        "club_badge_src": null,
        "entry": 6872562,
        "entry_name": "Saka To Me",
        "event_total": 57,
        "has_played": true,
        "id": 55071929,
        "last_rank": 17970,
        "player_name": "Nii Mills",
        "rank": 18341,
        "rank_sort": 18346,
        "total": 2382
      },
      {
        "club_badge_src": null,
        "entry": 96405,
        "entry_name": "Hi Ho Wolverhampton",
        "event_total": 38,
        "has_played": true,
        "id": 629823,
        "last_rank": 8320,
        "player_name": "Jord -",
        "rank": 18347,
        "rank_sort": 18347,
        "total": 2382
      },
      {
        "club_badge_src": "https://fantasy.premierleague.com/gcs/plfpl-production-adobe-approved/plfpl-production/513977/54f052bb-9152-4d0e-8fb9-39c73538847f.png",
        "entry": 513977,
        "entry_name": "TITAN FC",
        "event_total": 80,
        "has_played": true,
        "id": 3451103,
        "last_rank": 39755,
        "player_name": "Emmanuel Ali",
        "rank": 18347,
        "rank_sort": 18348,
        "total": 2382
      },
      {
        "club_badge_src": null,
        "entry": 1228126,
        "entry_name": "The Bears",
        "event_total": 46,
        "has_played": true,
        "id": 8527693,
        "last_rank": 11608,
        "player_name": "Joseph Bear-Nicastro",
        "rank": 18347,
        "rank_sort": 18349,
        "total": 2382
      },
      {
        "club_badge_src": null,
        "entry": 3604725,
        "entry_name": "Pirlo's Masterclass",
        "event_total": 58,
        "has_played": true,
        "id": 26849436,
        "last_rank": 18655,
        "player_name": "Ahmed Alhosani",
        "rank": 18347,
        "rank_sort": 18350,
        "total": 2382
      }
    ]
  }
}