{
  "last_updated_data": "2026-05-24T23:28:17Z",
  "league": {
    "admin_entry": null,
    "closed": false,
    "code_privacy": "p",
    "created": "2025-07-20T23:14:33.933835Z",
    "cup_league": 2815434,
    "has_cup": true,
    "id": 314,
    "league_type": "s",
    "max_entries": null,
    "name": "Overall",
    "rank": null,
    "scoring": "c",
    "start_event": 1
  },
  "new_entries": {
    "has_next": false,
    "page": 1,
    "results": []
  },
  "standings": {
    "has_next": true,
    "page": 126,
    "results": [
      {
        "club_badge_src": null,
        "entry": 3861128,
        "entry_name": "OToole FC",
        "event_total": 59,
        "has_played": true,
        "id": 28949836,
        "last_rank": 5281,
        "player_name": "Kieron O'Toole",
        "rank": 6237,
        "rank_sort": 6251,
        "total": 2410
      },
      {
        "club_badge_src": null,
        "entry": 4166843,
        "entry_name": "CUNHA_BELLA",
        "event_total": 64,
        "has_played": true,
        "id": 31510760,
        "last_rank": 7863,
        "player_name": "constantinos katsantonis",
        "rank": 6237,
        "rank_sort": 6252,
        "total": 2410
      },
      {
        "club_badge_src": null,
        "entry": 4510835,
        "entry_name": "Calafiorication",
        "event_total": 58,
        "has_played": true,
        "id": 34395387,
        "last_rank": 6094,
        "player_name": "Joe Powell",
        "rank": 6237,
        "rank_sort": 6253,
        "total": 2410
      },
      {
        "club_badge_src": null,
        "entry": 5209787,
        "entry_name": "Chrissys F.C",
        "event_total": 41,
        "has_played": true,
        "id": 40353225,
        "last_rank": 2762,
        "player_name": "Christina S",
        "rank": 6237,
        "rank_sort": 6254,
        "total": 2410
      },
      {
        "club_badge_src": null,
        "entry": 7200313,
        "entry_name": "Game of Stones",
        "event_total": 58,
        "has_played": true,
        "id": 58135041,
        "last_rank": 5053,
        "player_name": "Preet Bhandari",
        "rank": 6237,
        "rank_sort": 6255,
        "total": 2410
      },
      {
        "club_badge_src": null,
        "entry": 9173,
        "entry_name": "Nein XI",
        "event_total": 57,
        "has_played": true,
        "id": 53822,
        "last_rank": 4866,
        "player_name": "Casey Casey",
        "rank": 6256,
        "rank_sort": 6256,
        "total": 2410
      },
      {
        "club_badge_src": "https://fantasy.premierleague.com/gcs/plfpl-production-adobe-approved/plfpl-production/27079/a8765af3-cec1-442a-bf2b-442691f8ad73.png",
        "entry": 27079,
        "entry_name": "The Funky Bunch",
        "event_total": 72,
        "has_played": true,
        "id": 171197,
        "last_rank": 11034,
        "player_name": "Mark Dinan",
        "rank": 6256,
        "rank_sort": 6257,
        "total": 2410
      },
      {
        "club_badge_src": null,
        "entry": 45161,
        "entry_name": "Frimping Pong",
        "event_total": 49,
        "has_played": true,
        "id": 289629,
        "last_rank": 3342,
        "player_name": "Glen Simpson",
        "rank": 6256,
        "rank_sort": 6258,
        "total": 2410
      },
      {
        "club_badge_src": "https://fantasy.premierleague.com/gcs/plfpl-production-adobe-approved/plfpl-production/145054/34d215cf-dfee-4c6d-a90b-677dbd3f242d.png",
        "entry": 145054,
        "entry_name": "N\u00e4sbypark Nuggets",
        "event_total": 64,
        "has_played": true,
        "id": 949776,
        "last_rank": 6614,
        "player_name": "Kimia Hamra",
        "rank": 6256,
        "rank_sort": 6259,
        "total": 2410
      },
      {
        "club_badge_src": null,
        "entry": 242396,
        "entry_name": "Mainoo Event",
        "event_total": 68,
        "has_played": true,
        "id": 1613641,
        "last_rank": 7863,
        "player_name": "James Scott",
        "rank": 6256,
        "rank_sort": 6260,
        "total": 2410
      },
      {
        "club_badge_src": "https://fantasy.premierleague.com/gcs/plfpl-production-adobe-approved/plfpl-production/533265/4103ac65-430c-42cf-be7e-eda3fbefade8.png",
        "entry": 533265,
        "entry_name": "Killah Bees",
        "event_total": 56,
        "has_played": true,
        "id": 3587975,
        "last_rank": 5583,
        "player_name": "Georgi Kalinkov",
        "rank": 6256,
        "rank_sort": 6261,
        "total": 2410
      },
      {
        "club_badge_src": null,
        "entry": 1692380,
        "entry_name": "Braveheart1",
        "event_total": 56,
        "has_played": true,
        "id": 11852766,
        "last_rank": 4644,
        "player_name": "Khimanie Blackwood",
        "rank": 6256,
        "rank_sort": 6262,
        "total": 2410
      },
      {
        "club_badge_src": "https://fantasy.premierleague.com/gcs/plfpl-production-adobe-approved/plfpl-production/4261726/4af4a25a-2a6d-4562-b286-8a3d9efb3a53.png",
        "entry": 4261726,
        "entry_name": "FPeroutsiosL",
        "event_total": 72,
        "has_played": true,
        "id": 32312565,
        "last_rank": 9350,
        "player_name": "Raphael Photiou",
        "rank": 6256,
        "rank_sort": 6263,
        "total": 2410
      },
      {
        "club_badge_src": null,
        "entry": 5292472,
        "entry_name": "Hon The Banner FC",
        "event_total": 54,
        "has_played": true,
        "id": 41023787,
        "last_rank": 5105,
        "player_name": "Kevin McMahon",
        "rank": 6256,
        "rank_sort": 6264,
        "total": 2410
      },
      {
        "club_badge_src": null,
        "entry": 6700249,
        "entry_name": "CORE FC",
        "event_total": 60,
        "has_played": true,
        "id": 53610761,
        "last_rank": 4615,
        "player_name": "Ahmed Salah",
        "rank": 6256,
        "rank_sort": 6265,
        "total": 2410
      },
      {
        "club_badge_src": null,
        "entry": 5854,
        "entry_name": "whatever",
        "event_total": 65,
        "has_played": true,
        "id": 33458,
        "last_rank": 8260,
        "player_name": "Rajko Gojkovic",
        "rank": 6266,
        "rank_sort": 6266,
        "total": 2410
      },
      {
        "club_badge_src": null,
        "entry": 40963,
        "entry_name": "STSKKNR",
        "event_total": 59,
        "has_played": true,
        "id": 262548,
        "last_rank": 5335,
        "player_name": "sutthisak klinkeawnarong",
        "rank": 6266,
        "rank_sort": 6267,
        "total": 2410
      },
      {
        "club_badge_src": null,
        "entry": 49617,
        "entry_name": "Maamma Mia",
        "event_total": 60,
        "has_played": true,
        "id": 318965,
        "last_rank": 6647,
        "player_name": "Luke Jeeves",
        "rank": 6266,
        "rank_sort": 6268,
        "total": 2410
      },
      {
        "club_badge_src": "https://fantasy.premierleague.com/gcs/plfpl-production-adobe-approved/plfpl-production/141398/48d6974d-9d7a-4563-87ba-75bdecd3015a.png",
        "entry": 141398,
        "entry_name": "F.C BOYO MUNICH \u2605",
        "event_total": 51,
        "has_played": true,
        "id": 923816,
        "last_rank": 3661,
        "player_name": "Ashley Kaha-Andrews",
        "rank": 6266,
        "rank_sort": 6269,
        "total": 2410
      },
      {
        "club_badge_src": null,
        "entry": 975599,
        "entry_name": "Jose@Vito United",
        "event_total": 58,
        "has_played": true,
        "id": 6725329,
        "last_rank": 6106,
        "player_name": "Joze Zagavec",
        "rank": 6266,
        "rank_sort": 6270,
        "total": 2410
      },
      {
        "club_badge_src": null,
        "entry": 1865000,
        "entry_name": "Let's Go",
        "event_total": 58,
        "has_played": true,
        "id": 13127187,
        "last_rank": 5092,
        "player_name": "Kjetil Stigen",
        "rank": 6266,
        "rank_sort": 6271,
        "total": 2410
      },
      {
        "club_badge_src": null,
        "entry": 2498052,
        "entry_name": "Cole as Ice",
        "event_total": 74,
        "has_played": true,
        "id": 17885448,
        "last_rank": 11999,
        "player_name": "Danielle Ransom",
        "rank": 6266,
        "rank_sort": 6272,
        "total": 2410
      },
      {
        "club_badge_src": null,
        "entry": 3166946,
        "entry_name": "Cunning Studs",
        "event_total": 65,
        "has_played": true,
        "id": 23397185,
        "last_rank": 8274,
        "player_name": "Andrew Powell",
        "rank": 6266,
        "rank_sort": 6273,
        "total": 2410
      },
      {
        "club_badge_src": null,
        "entry": 4053707,
        "entry_name": "sasa nageh",
        "event_total": 59,
        "has_played": true,
        "id": 30584605,
        "last_rank": 6362,
        "player_name": "sasa nageh",
        "rank": 6266,
        "rank_sort": 6274,
        "total": 2410
      },
      {
        "club_badge_src": null,
        "entry": 7994530,
        "entry_name": "LABUN FC",
        "event_total": 54,
        "has_played": true,
        "id": 65834595,
        "last_rank": 2891,
        "player_name": "Alexander Isak",
        "rank": 6266,
        "rank_sort": 6275,
        "total": 2410
      },
      {
        "club_badge_src": null,
        "entry": 20169,
        "entry_name": "Knives Out \u274c",
        "event_total": 62,
        "has_played": true,
        "id": 125614,
        "last_rank": 7280,
        "player_name": "Sheriff --",
        "rank": 6276,
        "rank_sort": 6276,
        "total": 2410
      },
      {
        "club_badge_src": null,
        "entry": 101193,
        "entry_name": "Dave FC",
        "event_total": 57,
        "has_played": true,
        "id": 660318,
        "last_rank": 5865,
        "player_name": "David Cummings",
        "rank": 6276,
        "rank_sort": 6277,
        "total": 2410
      },
      {
        "club_badge_src": null,
        "entry": 512154,
        "entry_name": "Palmer Violets",
        "event_total": 59,
        "has_played": true,
        "id": 3439037,
        "last_rank": 5348,
        "player_name": "Jordan Shearman",
        "rank": 6276,
        "rank_sort": 6278,
        "total": 2410
      },
      {
        "club_badge_src": null,
        "entry": 1097906,
        "entry_name": "dodgy dodgers",
        "event_total": 48,
        "has_played": true,
        "id": 7604663,
        "last_rank": 3836,
        "player_name": "jason glasper",
        "rank": 6276,
        "rank_sort": 6279,
        "total": 2410
      },
      {
        "club_badge_src": null,
        "entry": 3330848,
        "entry_name": "Bank of Coutinho",
        "event_total": 64,
        "has_played": true,
        "id": 24696175,
        "last_rank": 6647,
        "player_name": "Jacob V\u00e4h\u00e4kari",
        "rank": 6276,
        "rank_sort": 6280,
        "total": 2410
      },
      {
        "club_badge_src": null,
        "entry": 7601898,
        "entry_name": "So Solid FC",
        "event_total": 66,
        "has_played": true,
        "id": 62281894,
        "last_rank": 7274,
        "player_name": "Neil Dean",
        "rank": 6276,
        "rank_sort": 6281,
        "total": 2410
      },
      {
        "club_badge_src": "https://fantasy.premierleague.com/gcs/plfpl-production-adobe-approved/plfpl-production/7956900/2071b484-a3e9-445b-95e0-fe173049ead2.png",
        "entry": 7956900,
        "entry_name": "BulgarianCremePie",
        "event_total": 61,
        "has_played": true,
        "id": 65502883,
        "last_rank": 5860,
        "player_name": "Nik Petrov",
        "rank": 6276,
        "rank_sort": 6282,
        "total": 2410
      },
      {
        "club_badge_src": null,
        "entry": 9080242,
        "entry_name": "I'm afraid alright!!",
        "event_total": 71,
        "has_played": true,
        "id": 76258375,
        "last_rank": 9015,
        "player_name": "Nicky Cahill",
        "rank": 6276,
        "rank_sort": 6283,
        "total": 2410
      },
      {
        "club_badge_src": null,
        "entry": 107637,
        "entry_name": "Champ Champ",
        "event_total": 71,
        "has_played": true,
        "id": 701710,
        "last_rank": 10667,
        "player_name": "Lee Osborne",
        "rank": 6284,
        "rank_sort": 6284,
        "total": 2410
      },
      {
        "club_badge_src": null,
        "entry": 135987,
        "entry_name": "FantasyNooB24",
        "event_total": 76,
        "has_played": true,
        "id": 885679,
        "last_rank": 11098,
        "player_name": "John Boden",
        "rank": 6284,
        "rank_sort": 6285,
        "total": 2410
      },
      {
        "club_badge_src": null,
        "entry": 330028,
        "entry_name": "Howard Wolowirtz",
        "event_total": 73,
        "has_played": true,
        "id": 2210713,
        "last_rank": 9792,
        "player_name": "William Riddle",
        "rank": 6284,
        "rank_sort": 6286,
        "total": 2410
      },
      {
        "club_badge_src": null,
        "entry": 3600343,
        "entry_name": "B.O.P.    F.C.",
        "event_total": 47,
        "has_played": true,
        "id": 26815160,
        "last_rank": 3676,
        "player_name": "John Stowers",
        "rank": 6284,
        "rank_sort": 6287,
        "total": 2410
      },
      {
        "club_badge_src": null,
        "entry": 1439367,
        "entry_name": "Pogba",
        "event_total": 61,
        "has_played": true,
        "id": 10029801,
        "last_rank": 6978,
        "player_name": "Mahmoud Pogba",
        "rank": 6288,
        "rank_sort": 6288,
        "total": 2410
      },
      {
        "club_badge_src": null,
        "entry": 1169263,
        "entry_name": "FeedMeSeymour",
        "event_total": 61,
        "has_played": true,
        "id": 8111459,
        "last_rank": 4899,
        "player_name": "Martin Seymour",
        "rank": 6289,
        "rank_sort": 6289,
        "total": 2410
      },
      {
        "club_badge_src": null,
        "entry": 140506,
        "entry_name": "Strand and Deliver",
        "event_total": 53,
        "has_played": true,
        "id": 917544,
        "last_rank": 4905,
        "player_name": "Ben Thomas",
        "rank": 6290,
        "rank_sort": 6290,
        "total": 2410
      },
      {
        "club_badge_src": null,
        "entry": 1910249,
        "entry_name": "WinThemAll FC",
        "event_total": 65,
        "has_played": true,
        "id": 13467564,
        "last_rank": 6984,
        "player_name": "Ole Helge Limann",
        "rank": 6291,
        "rank_sort": 6291,
        "total": 2410
      },
      {
        "club_badge_src": null,
        "entry": 1464215,
        "entry_name": "thekingisback",
        "event_total": 69,
        "has_played": true,
        "id": 10206213,
        "last_rank": 8304,
        "player_name": "Andrew Ryan",
        "rank": 6292,
        "rank_sort": 6292,
        "total": 2410
      },
      {
        "club_badge_src": null,
        "entry": 6969787,
        "entry_name": "\uaab6i\uaabb\uaabb\uaab6\uaac0 \u1947i\uaabb \uaaae\u183b \uaa91\uaa96\u19c1i\u1974",
        "event_total": 57,
        "has_played": true,
        "id": 55907901,
        "last_rank": 5877,
        "player_name": "Rich Pearce",
        "rank": 6292,
        "rank_sort": 6293,
        "total": 2410
      },
      {
        "club_badge_src": "https://fantasy.premierleague.com/gcs/plfpl-production-adobe-approved/plfpl-production/1165/829df9ca-6f28-4993-a5d6-03bfe5518dad.png",
        "entry": 1165,
        "entry_name": "TeamWinterfell",
        "event_total": 68,
        "has_played": true,
        "id": 6466,
        "last_rank": 5615,
        "player_name": "Vanya Guchev",
        "rank": 6294,
        "rank_sort": 6294,
        "total": 2410
      },
      {
        "club_badge_src": null,
        "entry": 442499,
        "entry_name": "Abuseif",
        "event_total": 63,
        "has_played": true,
        "id": 2966880,
        "last_rank": 6379,
        "player_name": "haytham Ali",
        "rank": 6294,
        "rank_sort": 6295,
        "total": 2410
      },
      {
        "club_badge_src": "https://fantasy.premierleague.com/gcs/plfpl-production-adobe-approved/plfpl-production/238114/1bb4eca9-4707-44ec-9255-ecbe47166c59.png",
        "entry": 238114,
        "entry_name": "We've Won It All",
        "event_total": 68,
        "has_played": true,
        "id": 1584151,
        "last_rank": 7938,
        "player_name": "Hisham Ruhomutally",
        "rank": 6296,
        "rank_sort": 6296,
        "total": 2410
      },
      {
        "club_badge_src": null,
        "entry": 8017774,
        "entry_name": "Jok",
        "event_total": 62,
        "has_played": true,
        "id": 66045151,
        "last_rank": 7299,
        "player_name": "Jo Jo",
        "rank": 6297,
        "rank_sort": 6297,
        "total": 2409
      },
      {
        "club_badge_src": null,
        "entry": 94281,
        "entry_name": "Wirtz Case Scenario",
        "event_total": 59,
        "has_played": true,
        "id": 616038,
        "last_rank": 6384,
        "player_name": "James Larkins",
        "rank": 6298,
        "rank_sort": 6298,
        "total": 2409
      },
      {
        "club_badge_src": null,
        "entry": 27192,
        "entry_name": "Chippy Interns XI",
        "event_total": 60,
        "has_played": true,
        "id": 171883,
        "last_rank": 6675,
        "player_name": "Archie Luckhurst",
        "rank": 6299,
        "rank_sort": 6299,
        "total": 2409
      },
      {
        "club_badge_src": null,
        "entry": 3720732,
        "entry_name": "Caicenzo",
        "event_total": 59,
        "has_played": true,
        "id": 27766879,
        "last_rank": 6382,
        "player_name": "Duarte Ferreira",
        "rank": 6299,
        "rank_sort": 6300,
        "total": 2409
      }
    ]
  }
}