{
  "last_updated_data": "2026-05-24T23:28:17Z",
  "league": {
    "admin_entry": null,
    "closed": false,
    "code_privacy": "p",
    "created": "2025-07-20T23:14:33.933835Z",
    "cup_league": 2815434,
    "has_cup": true,
    "id": 314,
    "league_type": "s",
    "max_entries": null,
    "name": "Overall",
    "rank": null,
    "scoring": "c",
    "start_event": 1
  },
  "new_entries": {
    "has_next": false,
    "page": 1,
    "results": []
  },
  "standings": {
    "has_next": true,
    "page": 1391,
    "results": [
      {
        "club_badge_src": null,
        "entry": 2203989,
        "entry_name": "Kinder Mbeumo",
        "event_total": 63,
        "has_played": true,
        "id": 15685261,
        "last_rank": 83476,
        "player_name": "Aleksander Halstensen",
        "rank": 69499,
        "rank_sort": 69501,
        "total": 2340
      },
      {
        "club_badge_src": null,
        "entry": 2229373,
        "entry_name": "Sid's Budgie",
        "event_total": 43,
        "has_played": true,
        "id": 15881740,
        "last_rank": 46547,
        "player_name": "Martin Collingbourne",
        "rank": 69499,
        "rank_sort": 69502,
        "total": 2340
      },
      {
        "club_badge_src": null,
        "entry": 3355429,
        "entry_name": "9vs utvalgte",
        "event_total": 79,
        "has_played": true,
        "id": 24893956,
        "last_rank": 125829,
        "player_name": "Nivethan Senthurvasan",
        "rank": 69499,
        "rank_sort": 69503,
        "total": 2340
      },
      {
        "club_badge_src": null,
        "entry": 3480948,
        "entry_name": "J\u00e6rens SIUUUperlag",
        "event_total": 55,
        "has_played": true,
        "id": 25883964,
        "last_rank": 66693,
        "player_name": "Martin B\u00f8",
        "rank": 69499,
        "rank_sort": 69504,
        "total": 2340
      },
      {
        "club_badge_src": null,
        "entry": 4192174,
        "entry_name": "Kinder Mbeumo",
        "event_total": 62,
        "has_played": true,
        "id": 31726130,
        "last_rank": 81244,
        "player_name": "Ben Mchoul",
        "rank": 69499,
        "rank_sort": 69505,
        "total": 2340
      },
      {
        "club_badge_src": null,
        "entry": 5241807,
        "entry_name": "Now I'm a baleba",
        "event_total": 55,
        "has_played": true,
        "id": 40622860,
        "last_rank": 66693,
        "player_name": "Andrew Whittaker",
        "rank": 69499,
        "rank_sort": 69506,
        "total": 2340
      },
      {
        "club_badge_src": null,
        "entry": 5953643,
        "entry_name": "KFC",
        "event_total": 59,
        "has_played": true,
        "id": 46831416,
        "last_rank": 74741,
        "player_name": "Kevin O'malley",
        "rank": 69499,
        "rank_sort": 69507,
        "total": 2340
      },
      {
        "club_badge_src": null,
        "entry": 6260031,
        "entry_name": "World Champions",
        "event_total": 50,
        "has_played": true,
        "id": 49562348,
        "last_rank": 57743,
        "player_name": "Nii Amarh",
        "rank": 69499,
        "rank_sort": 69508,
        "total": 2340
      },
      {
        "club_badge_src": null,
        "entry": 6291901,
        "entry_name": "jetolani",
        "event_total": 65,
        "has_played": true,
        "id": 49855748,
        "last_rank": 88144,
        "player_name": "Jet Fittolani",
        "rank": 69499,
        "rank_sort": 69509,
        "total": 2340
      },
      {
        "club_badge_src": null,
        "entry": 7800001,
        "entry_name": "Lil uzi wirtz",
        "event_total": 69,
        "has_played": true,
        "id": 64073252,
        "last_rank": 98011,
        "player_name": "Alfie Richards",
        "rank": 69499,
        "rank_sort": 69510,
        "total": 2340
      },
      {
        "club_badge_src": null,
        "entry": 135318,
        "entry_name": "first",
        "event_total": 39,
        "has_played": true,
        "id": 881147,
        "last_rank": 41101,
        "player_name": "Bogdan Krechowiecki",
        "rank": 69511,
        "rank_sort": 69511,
        "total": 2340
      },
      {
        "club_badge_src": null,
        "entry": 547780,
        "entry_name": "Live and Let Ndiaye",
        "event_total": 43,
        "has_played": true,
        "id": 3686543,
        "last_rank": 46591,
        "player_name": "Vincent Hammarin",
        "rank": 69511,
        "rank_sort": 69512,
        "total": 2340
      },
      {
        "club_badge_src": null,
        "entry": 834380,
        "entry_name": "Champagne Khusanova",
        "event_total": 39,
        "has_played": true,
        "id": 5715408,
        "last_rank": 41101,
        "player_name": "Zac Towning",
        "rank": 69511,
        "rank_sort": 69513,
        "total": 2340
      },
      {
        "club_badge_src": null,
        "entry": 835135,
        "entry_name": "Lawton City",
        "event_total": 57,
        "has_played": true,
        "id": 5720764,
        "last_rank": 70651,
        "player_name": "Robert Ram\u00edrez",
        "rank": 69511,
        "rank_sort": 69514,
        "total": 2340
      },
      {
        "club_badge_src": null,
        "entry": 1429835,
        "entry_name": "OnlyOneHotspur",
        "event_total": 74,
        "has_played": true,
        "id": 9963086,
        "last_rank": 111270,
        "player_name": "Anders Bjornebekk",
        "rank": 69511,
        "rank_sort": 69515,
        "total": 2340
      },
      {
        "club_badge_src": null,
        "entry": 2078022,
        "entry_name": "In Ruben We Trust",
        "event_total": 65,
        "has_played": true,
        "id": 14733970,
        "last_rank": 88185,
        "player_name": "shane VALLOM",
        "rank": 69511,
        "rank_sort": 69516,
        "total": 2340
      },
      {
        "club_badge_src": null,
        "entry": 2084394,
        "entry_name": "Maddison Beer",
        "event_total": 50,
        "has_played": true,
        "id": 14786516,
        "last_rank": 57776,
        "player_name": "Eerik Rautio",
        "rank": 69511,
        "rank_sort": 69517,
        "total": 2340
      },
      {
        "club_badge_src": null,
        "entry": 2193483,
        "entry_name": "Jota Believe",
        "event_total": 61,
        "has_played": true,
        "id": 15606398,
        "last_rank": 79079,
        "player_name": "Nguyen Hoang",
        "rank": 69511,
        "rank_sort": 69518,
        "total": 2340
      },
      {
        "club_badge_src": null,
        "entry": 2767051,
        "entry_name": "saka white rice",
        "event_total": 65,
        "has_played": true,
        "id": 20188331,
        "last_rank": 78979,
        "player_name": "Harvey Phillips",
        "rank": 69511,
        "rank_sort": 69519,
        "total": 2340
      },
      {
        "club_badge_src": null,
        "entry": 3158780,
        "entry_name": "Bruno Dos Tres",
        "event_total": 65,
        "has_played": true,
        "id": 23332365,
        "last_rank": 88144,
        "player_name": "Wilson Lau",
        "rank": 69511,
        "rank_sort": 69520,
        "total": 2340
      },
      {
        "club_badge_src": "https://fantasy.premierleague.com/gcs/plfpl-production-adobe-approved/plfpl-production/3491151/7dd256ef-96db-4d06-9a23-f7f4f82d3d81.png",
        "entry": 3491151,
        "entry_name": "Sleepy",
        "event_total": 64,
        "has_played": true,
        "id": 25963650,
        "last_rank": 85932,
        "player_name": "Faris Omar",
        "rank": 69511,
        "rank_sort": 69521,
        "total": 2340
      },
      {
        "club_badge_src": null,
        "entry": 3511903,
        "entry_name": "Saka Potatoes",
        "event_total": 59,
        "has_played": true,
        "id": 26131782,
        "last_rank": 74741,
        "player_name": "Robbie Gray",
        "rank": 69511,
        "rank_sort": 69522,
        "total": 2340
      },
      {
        "club_badge_src": null,
        "entry": 3595088,
        "entry_name": "What the Skelly",
        "event_total": 72,
        "has_played": true,
        "id": 26774977,
        "last_rank": 105818,
        "player_name": "Sebastian Zurita",
        "rank": 69511,
        "rank_sort": 69523,
        "total": 2340
      },
      {
        "club_badge_src": null,
        "entry": 4145033,
        "entry_name": "FERREIRA FC",
        "event_total": 74,
        "has_played": true,
        "id": 31328424,
        "last_rank": 100458,
        "player_name": "Justin Ferreira",
        "rank": 69511,
        "rank_sort": 69524,
        "total": 2340
      },
      {
        "club_badge_src": "https://fantasy.premierleague.com/gcs/plfpl-production-adobe-approved/plfpl-production/4811111/9d8bdd13-a56b-4a6a-a80e-c3284b3fd4e8.png",
        "entry": 4811111,
        "entry_name": "AEXI",
        "event_total": 54,
        "has_played": true,
        "id": 37045128,
        "last_rank": 64830,
        "player_name": "Adham Emadeldin",
        "rank": 69511,
        "rank_sort": 69525,
        "total": 2340
      },
      {
        "club_badge_src": null,
        "entry": 4905229,
        "entry_name": "Ingy FC",
        "event_total": 73,
        "has_played": true,
        "id": 37826646,
        "last_rank": 108567,
        "player_name": "Andrew Ingram",
        "rank": 69511,
        "rank_sort": 69526,
        "total": 2340
      },
      {
        "club_badge_src": null,
        "entry": 6102820,
        "entry_name": "leedzie",
        "event_total": 52,
        "has_played": true,
        "id": 48199953,
        "last_rank": 61315,
        "player_name": "Elbara Bakha",
        "rank": 69511,
        "rank_sort": 69527,
        "total": 2340
      },
      {
        "club_badge_src": null,
        "entry": 6682825,
        "entry_name": "Peps11",
        "event_total": 49,
        "has_played": true,
        "id": 53457123,
        "last_rank": 56099,
        "player_name": "Alan Grange",
        "rank": 69511,
        "rank_sort": 69528,
        "total": 2340
      },
      {
        "club_badge_src": null,
        "entry": 7059860,
        "entry_name": "Alsoran",
        "event_total": 61,
        "has_played": true,
        "id": 56793766,
        "last_rank": 70576,
        "player_name": "Robert Colligan",
        "rank": 69511,
        "rank_sort": 69529,
        "total": 2340
      },
      {
        "club_badge_src": null,
        "entry": 7068390,
        "entry_name": "mcmufni",
        "event_total": 68,
        "has_played": true,
        "id": 56874029,
        "last_rank": 95436,
        "player_name": "Linus Pettersson",
        "rank": 69511,
        "rank_sort": 69530,
        "total": 2340
      },
      {
        "club_badge_src": null,
        "entry": 7284038,
        "entry_name": "FaThErNsOn",
        "event_total": 81,
        "has_played": true,
        "id": 58927289,
        "last_rank": 132132,
        "player_name": "sHaHnAz YaZiD",
        "rank": 69511,
        "rank_sort": 69531,
        "total": 2340
      },
      {
        "club_badge_src": null,
        "entry": 8285709,
        "entry_name": "Change Name",
        "event_total": 61,
        "has_played": true,
        "id": 68562774,
        "last_rank": 79027,
        "player_name": "Bertie Allan",
        "rank": 69511,
        "rank_sort": 69532,
        "total": 2340
      },
      {
        "club_badge_src": null,
        "entry": 8417741,
        "entry_name": "Nassr FC",
        "event_total": 55,
        "has_played": true,
        "id": 69845831,
        "last_rank": 66738,
        "player_name": "Faisal Almohanna",
        "rank": 69511,
        "rank_sort": 69533,
        "total": 2340
      },
      {
        "club_badge_src": null,
        "entry": 8574322,
        "entry_name": "Nr2",
        "event_total": 54,
        "has_played": true,
        "id": 71351616,
        "last_rank": 64830,
        "player_name": "Erik K\u00f6hler",
        "rank": 69511,
        "rank_sort": 69534,
        "total": 2340
      },
      {
        "club_badge_src": null,
        "entry": 9102609,
        "entry_name": "Jamesbong11",
        "event_total": 56,
        "has_played": true,
        "id": 76477804,
        "last_rank": 68624,
        "player_name": "Rachit Rastogi",
        "rank": 69511,
        "rank_sort": 69535,
        "total": 2340
      },
      {
        "club_badge_src": null,
        "entry": 9293979,
        "entry_name": "FPL Final Boss",
        "event_total": 45,
        "has_played": true,
        "id": 78352210,
        "last_rank": 49607,
        "player_name": "Matthew Ainley",
        "rank": 69511,
        "rank_sort": 69536,
        "total": 2340
      },
      {
        "club_badge_src": null,
        "entry": 7895,
        "entry_name": "Peaky Reijnders",
        "event_total": 39,
        "has_played": true,
        "id": 45603,
        "last_rank": 41162,
        "player_name": "Ryan Gaughan",
        "rank": 69537,
        "rank_sort": 69537,
        "total": 2340
      },
      {
        "club_badge_src": "https://fantasy.premierleague.com/gcs/plfpl-production-adobe-approved/plfpl-production/124643/98ed366b-120a-455c-86c8-47eed68172e5.png",
        "entry": 124643,
        "entry_name": "Queen's Park Raisins",
        "event_total": 56,
        "has_played": true,
        "id": 812978,
        "last_rank": 68748,
        "player_name": "Kieran Whitehouse",
        "rank": 69537,
        "rank_sort": 69538,
        "total": 2340
      },
      {
        "club_badge_src": null,
        "entry": 133468,
        "entry_name": "Lostbois FF",
        "event_total": 68,
        "has_played": true,
        "id": 869344,
        "last_rank": 95464,
        "player_name": "Lukas Levkvist",
        "rank": 69537,
        "rank_sort": 69539,
        "total": 2340
      },
      {
        "club_badge_src": null,
        "entry": 137475,
        "entry_name": "Inter Row Z",
        "event_total": 73,
        "has_played": true,
        "id": 896159,
        "last_rank": 108452,
        "player_name": "michael lawrence",
        "rank": 69537,
        "rank_sort": 69540,
        "total": 2340
      },
      {
        "club_badge_src": null,
        "entry": 180673,
        "entry_name": "Lingardium Leviosa",
        "event_total": 78,
        "has_played": true,
        "id": 1192297,
        "last_rank": 122897,
        "player_name": "Aarav Agrawal",
        "rank": 69537,
        "rank_sort": 69541,
        "total": 2340
      },
      {
        "club_badge_src": null,
        "entry": 223413,
        "entry_name": "Dial Square FC",
        "event_total": 54,
        "has_played": true,
        "id": 1486161,
        "last_rank": 64760,
        "player_name": "Zachary Harrop",
        "rank": 69537,
        "rank_sort": 69542,
        "total": 2340
      },
      {
        "club_badge_src": null,
        "entry": 364923,
        "entry_name": "Startelvan",
        "event_total": 55,
        "has_played": true,
        "id": 2442223,
        "last_rank": 66693,
        "player_name": "Tage Zettergren",
        "rank": 69537,
        "rank_sort": 69543,
        "total": 2340
      },
      {
        "club_badge_src": null,
        "entry": 387579,
        "entry_name": "Taryn's Soccer Squad",
        "event_total": 56,
        "has_played": true,
        "id": 2600102,
        "last_rank": 68748,
        "player_name": "Taryn Kadar FieldsHowell",
        "rank": 69537,
        "rank_sort": 69544,
        "total": 2340
      },
      {
        "club_badge_src": null,
        "entry": 413751,
        "entry_name": "DOU's Villa Rejects",
        "event_total": 44,
        "has_played": true,
        "id": 2773841,
        "last_rank": 48197,
        "player_name": "Djamel Ouhachi",
        "rank": 69537,
        "rank_sort": 69545,
        "total": 2340
      },
      {
        "club_badge_src": "https://fantasy.premierleague.com/gcs/plfpl-production-adobe-approved/plfpl-production/450300/dc10f643-f6af-4847-981d-a35e7e15eddb.png",
        "entry": 450300,
        "entry_name": "Cunha Feel The Heat",
        "event_total": 58,
        "has_played": true,
        "id": 3021161,
        "last_rank": 72702,
        "player_name": "isa afzal",
        "rank": 69537,
        "rank_sort": 69546,
        "total": 2340
      },
      {
        "club_badge_src": null,
        "entry": 605860,
        "entry_name": "Blue",
        "event_total": 39,
        "has_played": true,
        "id": 4090803,
        "last_rank": 41162,
        "player_name": "Ali Ahmed",
        "rank": 69537,
        "rank_sort": 69547,
        "total": 2340
      },
      {
        "club_badge_src": null,
        "entry": 858922,
        "entry_name": "Eze Money",
        "event_total": 62,
        "has_played": true,
        "id": 5887981,
        "last_rank": 81244,
        "player_name": "Aaron Richards",
        "rank": 69537,
        "rank_sort": 69548,
        "total": 2340
      },
      {
        "club_badge_src": null,
        "entry": 871526,
        "entry_name": "bs out",
        "event_total": 65,
        "has_played": true,
        "id": 5975058,
        "last_rank": 88249,
        "player_name": "Dylan Powell",
        "rank": 69537,
        "rank_sort": 69549,
        "total": 2340
      },
      {
        "club_badge_src": null,
        "entry": 990769,
        "entry_name": "Hihon",
        "event_total": 41,
        "has_played": true,
        "id": 6831552,
        "last_rank": 43786,
        "player_name": "Petrov Trajce",
        "rank": 69537,
        "rank_sort": 69550,
        "total": 2340
      }
    ]
  }
}