{
  "last_updated_data": "2026-05-24T23:28:17Z",
  "league": {
    "admin_entry": null,
    "closed": false,
    "code_privacy": "p",
    "created": "2025-07-20T23:14:33.933835Z",
    "cup_league": 2815434,
    "has_cup": true,
    "id": 314,
    "league_type": "s",
    "max_entries": null,
    "name": "Overall",
    "rank": null,
    "scoring": "c",
    "start_event": 1
  },
  "new_entries": {
    "has_next": false,
    "page": 1,
    "results": []
  },
  "standings": {
    "has_next": true,
    "page": 332,
    "results": [
      {
        "club_badge_src": null,
        "entry": 6494381,
        "entry_name": "Mohamed inshallah",
        "event_total": 69,
        "has_played": true,
        "id": 51772252,
        "last_rank": 24857,
        "player_name": "Alfred Odbert",
        "rank": 16506,
        "rank_sort": 16551,
        "total": 2385
      },
      {
        "club_badge_src": null,
        "entry": 6711689,
        "entry_name": "HPFC",
        "event_total": 61,
        "has_played": true,
        "id": 53711864,
        "last_rank": 16039,
        "player_name": "Hari Patel",
        "rank": 16506,
        "rank_sort": 16552,
        "total": 2385
      },
      {
        "club_badge_src": null,
        "entry": 7016058,
        "entry_name": "Lefsoo FC",
        "event_total": 67,
        "has_played": true,
        "id": 56351004,
        "last_rank": 23230,
        "player_name": "Leif Opedal",
        "rank": 16506,
        "rank_sort": 16553,
        "total": 2385
      },
      {
        "club_badge_src": null,
        "entry": 7059690,
        "entry_name": "sheesh",
        "event_total": 64,
        "has_played": true,
        "id": 56792031,
        "last_rank": 20983,
        "player_name": "Nebiyu Libsneh",
        "rank": 16506,
        "rank_sort": 16554,
        "total": 2385
      },
      {
        "club_badge_src": null,
        "entry": 7152195,
        "entry_name": "Ours To Keep",
        "event_total": 61,
        "has_played": true,
        "id": 57675420,
        "last_rank": 18691,
        "player_name": "Paul Andre",
        "rank": 16506,
        "rank_sort": 16555,
        "total": 2385
      },
      {
        "club_badge_src": null,
        "entry": 7346680,
        "entry_name": "GuakBuaken",
        "event_total": 55,
        "has_played": true,
        "id": 59514342,
        "last_rank": 14926,
        "player_name": "Cecilia Persson",
        "rank": 16506,
        "rank_sort": 16556,
        "total": 2385
      },
      {
        "club_badge_src": null,
        "entry": 7376128,
        "entry_name": "FPL",
        "event_total": 73,
        "has_played": true,
        "id": 59790855,
        "last_rank": 28517,
        "player_name": "Umair Shaikh",
        "rank": 16506,
        "rank_sort": 16557,
        "total": 2385
      },
      {
        "club_badge_src": null,
        "entry": 9153286,
        "entry_name": "QcGoudron",
        "event_total": 26,
        "has_played": true,
        "id": 76973006,
        "last_rank": 4303,
        "player_name": "Philippe Gaudreau",
        "rank": 16506,
        "rank_sort": 16558,
        "total": 2385
      },
      {
        "club_badge_src": null,
        "entry": 761,
        "entry_name": "Team of Gary Breens",
        "event_total": 66,
        "has_played": true,
        "id": 4203,
        "last_rank": 22534,
        "player_name": "Seamus Kerlin",
        "rank": 16559,
        "rank_sort": 16559,
        "total": 2385
      },
      {
        "club_badge_src": null,
        "entry": 812,
        "entry_name": "Borna to be Wild",
        "event_total": 71,
        "has_played": true,
        "id": 4488,
        "last_rank": 26827,
        "player_name": "David Toft",
        "rank": 16559,
        "rank_sort": 16560,
        "total": 2385
      },
      {
        "club_badge_src": "https://fantasy.premierleague.com/gcs/plfpl-production-adobe-approved/plfpl-production/2189/426dca1a-52dd-48a3-bd3a-e029a2f92e8a.png",
        "entry": 2189,
        "entry_name": "Boys from The Lane",
        "event_total": 59,
        "has_played": true,
        "id": 12204,
        "last_rank": 17437,
        "player_name": "Mads Wibeck-Nilsson",
        "rank": 16559,
        "rank_sort": 16561,
        "total": 2385
      },
      {
        "club_badge_src": null,
        "entry": 4314,
        "entry_name": "xTheWirtz",
        "event_total": 59,
        "has_played": true,
        "id": 24515,
        "last_rank": 17437,
        "player_name": "D I",
        "rank": 16559,
        "rank_sort": 16562,
        "total": 2385
      },
      {
        "club_badge_src": null,
        "entry": 8509,
        "entry_name": "Better Call Sesko",
        "event_total": 61,
        "has_played": true,
        "id": 49519,
        "last_rank": 18691,
        "player_name": "Caleb Hendy",
        "rank": 16559,
        "rank_sort": 16563,
        "total": 2385
      },
      {
        "club_badge_src": null,
        "entry": 10161,
        "entry_name": "SUNSUN United",
        "event_total": 55,
        "has_played": true,
        "id": 59993,
        "last_rank": 14857,
        "player_name": "NAKARIN SAMERJAI",
        "rank": 16559,
        "rank_sort": 16564,
        "total": 2385
      },
      {
        "club_badge_src": "https://fantasy.premierleague.com/gcs/plfpl-production-adobe-approved/plfpl-production/16122/4b6a217e-56b0-49f6-ae3b-cfa3febc8214.png",
        "entry": 16122,
        "entry_name": "Mitro\u2019s ladybugs",
        "event_total": 67,
        "has_played": true,
        "id": 99408,
        "last_rank": 23230,
        "player_name": "\u041d\u0438\u043a\u043e\u043b\u0430 \u040f\u0430\u043c\u0431\u0430\u0441\u0435\u0432\u0438\u045b",
        "rank": 16559,
        "rank_sort": 16565,
        "total": 2385
      },
      {
        "club_badge_src": "https://fantasy.premierleague.com/gcs/plfpl-production-adobe-approved/plfpl-production/16359/1f814807-479f-4df7-a0c1-4098df5e4a76.png",
        "entry": 16359,
        "entry_name": "Kajagoogoo",
        "event_total": 57,
        "has_played": true,
        "id": 101002,
        "last_rank": 16163,
        "player_name": "Adrian Tester",
        "rank": 16559,
        "rank_sort": 16566,
        "total": 2385
      },
      {
        "club_badge_src": null,
        "entry": 18602,
        "entry_name": "I Know Nothing",
        "event_total": 59,
        "has_played": true,
        "id": 115749,
        "last_rank": 17437,
        "player_name": "Siddharth M",
        "rank": 16559,
        "rank_sort": 16567,
        "total": 2385
      },
      {
        "club_badge_src": null,
        "entry": 32627,
        "entry_name": "Gibbos Rangers",
        "event_total": 63,
        "has_played": true,
        "id": 207645,
        "last_rank": 20280,
        "player_name": "Dominic Gibbins",
        "rank": 16559,
        "rank_sort": 16568,
        "total": 2385
      },
      {
        "club_badge_src": null,
        "entry": 44069,
        "entry_name": "Cornish Crusaders",
        "event_total": 64,
        "has_played": true,
        "id": 282367,
        "last_rank": 20983,
        "player_name": "Steve Cockett",
        "rank": 16559,
        "rank_sort": 16569,
        "total": 2385
      },
      {
        "club_badge_src": null,
        "entry": 48941,
        "entry_name": "Cleasby Comets",
        "event_total": 60,
        "has_played": true,
        "id": 314489,
        "last_rank": 18029,
        "player_name": "richard laviolette",
        "rank": 16559,
        "rank_sort": 16570,
        "total": 2385
      },
      {
        "club_badge_src": null,
        "entry": 63520,
        "entry_name": "anoopasnl",
        "event_total": 73,
        "has_played": true,
        "id": 409871,
        "last_rank": 28609,
        "player_name": "Anoop m.j",
        "rank": 16559,
        "rank_sort": 16571,
        "total": 2385
      },
      {
        "club_badge_src": null,
        "entry": 78839,
        "entry_name": "All Gone Shane Long",
        "event_total": 55,
        "has_played": true,
        "id": 512579,
        "last_rank": 14926,
        "player_name": "Max Slipaczek",
        "rank": 16559,
        "rank_sort": 16572,
        "total": 2385
      },
      {
        "club_badge_src": null,
        "entry": 114983,
        "entry_name": "Slot Machine 2",
        "event_total": 68,
        "has_played": true,
        "id": 750258,
        "last_rank": 24039,
        "player_name": "Anas Sabbah",
        "rank": 16559,
        "rank_sort": 16573,
        "total": 2385
      },
      {
        "club_badge_src": null,
        "entry": 166466,
        "entry_name": "Pontas lotteri",
        "event_total": 49,
        "has_played": true,
        "id": 1099823,
        "last_rank": 11642,
        "player_name": "Pontus Larsson",
        "rank": 16559,
        "rank_sort": 16574,
        "total": 2385
      },
      {
        "club_badge_src": null,
        "entry": 207775,
        "entry_name": "Cress well done",
        "event_total": 49,
        "has_played": true,
        "id": 1381181,
        "last_rank": 11699,
        "player_name": "Oleg Artemenko",
        "rank": 16559,
        "rank_sort": 16575,
        "total": 2385
      },
      {
        "club_badge_src": null,
        "entry": 239637,
        "entry_name": "Wirtz Nightmare",
        "event_total": 82,
        "has_played": true,
        "id": 1594722,
        "last_rank": 38644,
        "player_name": "Owen Lloyd",
        "rank": 16559,
        "rank_sort": 16576,
        "total": 2385
      },
      {
        "club_badge_src": null,
        "entry": 271354,
        "entry_name": "Amorim to the top",
        "event_total": 42,
        "has_played": true,
        "id": 1805233,
        "last_rank": 8758,
        "player_name": "Andreas Theodosiou",
        "rank": 16559,
        "rank_sort": 16577,
        "total": 2385
      },
      {
        "club_badge_src": "https://fantasy.premierleague.com/gcs/plfpl-production-adobe-approved/plfpl-production/271806/20a67926-e324-4047-88f1-86bf05a69ff4.png",
        "entry": 271806,
        "entry_name": "Noni your business",
        "event_total": 62,
        "has_played": true,
        "id": 1808331,
        "last_rank": 19392,
        "player_name": "Olly Langley",
        "rank": 16559,
        "rank_sort": 16578,
        "total": 2385
      },
      {
        "club_badge_src": null,
        "entry": 319353,
        "entry_name": "Rutter woke nonsense",
        "event_total": 56,
        "has_played": true,
        "id": 2140672,
        "last_rank": 15452,
        "player_name": "Michael Connaughton",
        "rank": 16559,
        "rank_sort": 16579,
        "total": 2385
      },
      {
        "club_badge_src": null,
        "entry": 334235,
        "entry_name": "Nobes FC",
        "event_total": 49,
        "has_played": true,
        "id": 2238208,
        "last_rank": 11699,
        "player_name": "Marc Noble",
        "rank": 16559,
        "rank_sort": 16580,
        "total": 2385
      },
      {
        "club_badge_src": "https://fantasy.premierleague.com/gcs/plfpl-production-adobe-approved/plfpl-production/357337/055c72b3-c61f-4a9c-89db-0c50375994de.png",
        "entry": 357337,
        "entry_name": "General's 11",
        "event_total": 60,
        "has_played": true,
        "id": 2391336,
        "last_rank": 18029,
        "player_name": "ashley eckersall",
        "rank": 16559,
        "rank_sort": 16581,
        "total": 2385
      },
      {
        "club_badge_src": null,
        "entry": 357375,
        "entry_name": "Joy 82",
        "event_total": 51,
        "has_played": true,
        "id": 2391579,
        "last_rank": 12705,
        "player_name": "Sebastian Kluczy\u0144ski",
        "rank": 16559,
        "rank_sort": 16582,
        "total": 2385
      },
      {
        "club_badge_src": "https://fantasy.premierleague.com/gcs/plfpl-production-adobe-approved/plfpl-production/384072/aadf2bae-1518-4c68-9606-9b1f1eb3a440.png",
        "entry": 384072,
        "entry_name": "IcemanJake",
        "event_total": 76,
        "has_played": true,
        "id": 2575845,
        "last_rank": 31518,
        "player_name": "Jin Wah Koh",
        "rank": 16559,
        "rank_sort": 16583,
        "total": 2385
      },
      {
        "club_badge_src": null,
        "entry": 416392,
        "entry_name": "Im sorry Nic Jackson",
        "event_total": 71,
        "has_played": true,
        "id": 2791312,
        "last_rank": 26710,
        "player_name": "Jamie Penmore",
        "rank": 16559,
        "rank_sort": 16584,
        "total": 2385
      },
      {
        "club_badge_src": null,
        "entry": 449157,
        "entry_name": "tossakens",
        "event_total": 70,
        "has_played": true,
        "id": 3013440,
        "last_rank": 25902,
        "player_name": "Tore Rugland",
        "rank": 16559,
        "rank_sort": 16585,
        "total": 2385
      },
      {
        "club_badge_src": null,
        "entry": 464691,
        "entry_name": "Happy Capybarry",
        "event_total": 61,
        "has_played": true,
        "id": 3117056,
        "last_rank": 18691,
        "player_name": "Genghis Khan",
        "rank": 16559,
        "rank_sort": 16586,
        "total": 2385
      },
      {
        "club_badge_src": null,
        "entry": 569872,
        "entry_name": "salopianz",
        "event_total": 43,
        "has_played": true,
        "id": 3835469,
        "last_rank": 9142,
        "player_name": "Peter Bond",
        "rank": 16559,
        "rank_sort": 16587,
        "total": 2385
      },
      {
        "club_badge_src": null,
        "entry": 605463,
        "entry_name": "Sjevers",
        "event_total": 69,
        "has_played": true,
        "id": 4087872,
        "last_rank": 24832,
        "player_name": "Rik Sebens",
        "rank": 16559,
        "rank_sort": 16588,
        "total": 2385
      },
      {
        "club_badge_src": "https://fantasy.premierleague.com/gcs/plfpl-production-adobe-approved/plfpl-production/674733/e08d02ef-32c3-4c18-878d-f176b0c1b7e5.png",
        "entry": 674733,
        "entry_name": "the crews",
        "event_total": 49,
        "has_played": true,
        "id": 4564624,
        "last_rank": 11821,
        "player_name": "aly Ibra",
        "rank": 16559,
        "rank_sort": 16589,
        "total": 2385
      },
      {
        "club_badge_src": null,
        "entry": 685496,
        "entry_name": "Kinder Mbeumo",
        "event_total": 56,
        "has_played": true,
        "id": 4640081,
        "last_rank": 15452,
        "player_name": "Steve Bolton",
        "rank": 16559,
        "rank_sort": 16590,
        "total": 2385
      },
      {
        "club_badge_src": "https://fantasy.premierleague.com/gcs/plfpl-production-adobe-approved/plfpl-production/708289/d5e5d976-48f7-45c3-9ee5-92fc64536e2e.png",
        "entry": 708289,
        "entry_name": "The Special One",
        "event_total": 64,
        "has_played": true,
        "id": 4800494,
        "last_rank": 20826,
        "player_name": "Parth Nanvani",
        "rank": 16559,
        "rank_sort": 16591,
        "total": 2385
      },
      {
        "club_badge_src": null,
        "entry": 708626,
        "entry_name": "Shola Eclipse",
        "event_total": 60,
        "has_played": true,
        "id": 4802878,
        "last_rank": 18029,
        "player_name": "Tom Parker",
        "rank": 16559,
        "rank_sort": 16592,
        "total": 2385
      },
      {
        "club_badge_src": null,
        "entry": 738322,
        "entry_name": "Jmac's Legends",
        "event_total": 38,
        "has_played": true,
        "id": 5019647,
        "last_rank": 7310,
        "player_name": "Justin McCarron",
        "rank": 16559,
        "rank_sort": 16593,
        "total": 2385
      },
      {
        "club_badge_src": null,
        "entry": 752087,
        "entry_name": "Jimothy Tavatavanawa",
        "event_total": 33,
        "has_played": true,
        "id": 5117682,
        "last_rank": 5940,
        "player_name": "Riley Gardner",
        "rank": 16559,
        "rank_sort": 16594,
        "total": 2385
      },
      {
        "club_badge_src": null,
        "entry": 766004,
        "entry_name": "Kobe-Wan Kenobi",
        "event_total": 64,
        "has_played": true,
        "id": 5224499,
        "last_rank": 20888,
        "player_name": "Craig Gohil",
        "rank": 16559,
        "rank_sort": 16595,
        "total": 2385
      },
      {
        "club_badge_src": "https://fantasy.premierleague.com/gcs/plfpl-production-adobe-approved/plfpl-production/767293/c806ee74-b6bc-4c2b-8d0d-431129a86687.png",
        "entry": 767293,
        "entry_name": "Silverfleet",
        "event_total": 54,
        "has_played": true,
        "id": 5233352,
        "last_rank": 14496,
        "player_name": "Marcel Verdonk",
        "rank": 16559,
        "rank_sort": 16596,
        "total": 2385
      },
      {
        "club_badge_src": null,
        "entry": 783807,
        "entry_name": "Marwan",
        "event_total": 67,
        "has_played": true,
        "id": 5353378,
        "last_rank": 23164,
        "player_name": "Marwan Almohammadi",
        "rank": 16559,
        "rank_sort": 16597,
        "total": 2385
      },
      {
        "club_badge_src": null,
        "entry": 790462,
        "entry_name": "AK 47",
        "event_total": 69,
        "has_played": true,
        "id": 5408863,
        "last_rank": 25002,
        "player_name": "Aaron McNamara",
        "rank": 16559,
        "rank_sort": 16598,
        "total": 2385
      },
      {
        "club_badge_src": null,
        "entry": 830269,
        "entry_name": "Cunha hear me now?",
        "event_total": 53,
        "has_played": true,
        "id": 5686898,
        "last_rank": 13720,
        "player_name": "Jonathan Fitzgerald",
        "rank": 16559,
        "rank_sort": 16599,
        "total": 2385
      },
      {
        "club_badge_src": null,
        "entry": 947110,
        "entry_name": "Cold Palmer",
        "event_total": 60,
        "has_played": true,
        "id": 6523472,
        "last_rank": 18113,
        "player_name": "John Yousif",
        "rank": 16559,
        "rank_sort": 16600,
        "total": 2385
      }
    ]
  }
}