{
  "last_updated_data": "2026-05-24T23:28:17Z",
  "league": {
    "admin_entry": null,
    "closed": false,
    "code_privacy": "p",
    "created": "2025-07-20T23:14:33.933835Z",
    "cup_league": 2815434,
    "has_cup": true,
    "id": 314,
    "league_type": "s",
    "max_entries": null,
    "name": "Overall",
    "rank": null,
    "scoring": "c",
    "start_event": 1
  },
  "new_entries": {
    "has_next": false,
    "page": 1,
    "results": []
  },
  "standings": {
    "has_next": true,
    "page": 63,
    "results": [
      {
        "club_badge_src": null,
        "entry": 4748272,
        "entry_name": "Star Rogue Heroes",
        "event_total": 52,
        "has_played": true,
        "id": 36536966,
        "last_rank": 2215,
        "player_name": "Ulv Deglum",
        "rank": 3065,
        "rank_sort": 3101,
        "total": 2425
      },
      {
        "club_badge_src": "https://fantasy.premierleague.com/gcs/plfpl-production-adobe-approved/plfpl-production/4809402/f24c74bd-9485-4708-a45c-b0d8537854e4.png",
        "entry": 4809402,
        "entry_name": "Fighting Wombats",
        "event_total": 44,
        "has_played": true,
        "id": 37031607,
        "last_rank": 1452,
        "player_name": "Sam Lersten",
        "rank": 3065,
        "rank_sort": 3102,
        "total": 2425
      },
      {
        "club_badge_src": null,
        "entry": 4829060,
        "entry_name": "Peagram \ufffd",
        "event_total": 70,
        "has_played": true,
        "id": 37192694,
        "last_rank": 5135,
        "player_name": "James Peagram",
        "rank": 3065,
        "rank_sort": 3103,
        "total": 2425
      },
      {
        "club_badge_src": null,
        "entry": 4886281,
        "entry_name": "kev tigers",
        "event_total": 53,
        "has_played": true,
        "id": 37671639,
        "last_rank": 2300,
        "player_name": "Kevin Pullen",
        "rank": 3065,
        "rank_sort": 3104,
        "total": 2425
      },
      {
        "club_badge_src": "https://fantasy.premierleague.com/gcs/plfpl-production-adobe-approved/plfpl-production/5566686/7d637912-bd9e-4eb9-ae64-98a0a9ff823b.png",
        "entry": 5566686,
        "entry_name": "Katumba oyee",
        "event_total": 68,
        "has_played": true,
        "id": 43464942,
        "last_rank": 4742,
        "player_name": "Geo Fex",
        "rank": 3065,
        "rank_sort": 3105,
        "total": 2425
      },
      {
        "club_badge_src": "https://fantasy.premierleague.com/gcs/plfpl-production-adobe-approved/plfpl-production/5708000/c1cea075-0d23-4770-a921-ae2bb1def16a.png",
        "entry": 5708000,
        "entry_name": "Nala FC",
        "event_total": 53,
        "has_played": true,
        "id": 44696795,
        "last_rank": 2300,
        "player_name": "Hannah Pullen",
        "rank": 3065,
        "rank_sort": 3106,
        "total": 2425
      },
      {
        "club_badge_src": "https://fantasy.premierleague.com/gcs/plfpl-production-adobe-approved/plfpl-production/6055980/0dd724ca-1b34-4b56-96a5-c9e99250a372.png",
        "entry": 6055980,
        "entry_name": "DropItLikeIt\u2019sSlot",
        "event_total": 75,
        "has_played": true,
        "id": 47791177,
        "last_rank": 6392,
        "player_name": "Shane Gonsalves",
        "rank": 3065,
        "rank_sort": 3107,
        "total": 2425
      },
      {
        "club_badge_src": null,
        "entry": 6294144,
        "entry_name": "Ekitike Max",
        "event_total": 51,
        "has_played": true,
        "id": 49879129,
        "last_rank": 2068,
        "player_name": "Jonathan Ricks",
        "rank": 3065,
        "rank_sort": 3108,
        "total": 2425
      },
      {
        "club_badge_src": "https://fantasy.premierleague.com/gcs/plfpl-production-adobe-approved/plfpl-production/7025007/c1dcfbd5-72ce-4f4a-b9d3-43c691e4aed7.png",
        "entry": 7025007,
        "entry_name": "JK Rebased",
        "event_total": 59,
        "has_played": true,
        "id": 56437527,
        "last_rank": 3103,
        "player_name": "Andre Sokolov",
        "rank": 3065,
        "rank_sort": 3109,
        "total": 2425
      },
      {
        "club_badge_src": null,
        "entry": 7466602,
        "entry_name": "\u041b\u0435\u0432\u0443\u043d\u043e\u0432\u043e",
        "event_total": 66,
        "has_played": true,
        "id": 60851249,
        "last_rank": 4270,
        "player_name": "Hristiyan Stoichkov",
        "rank": 3065,
        "rank_sort": 3110,
        "total": 2425
      },
      {
        "club_badge_src": null,
        "entry": 8769009,
        "entry_name": "AFC Shonamond",
        "event_total": 65,
        "has_played": true,
        "id": 73245472,
        "last_rank": 4047,
        "player_name": "Shona Christie",
        "rank": 3065,
        "rank_sort": 3111,
        "total": 2425
      },
      {
        "club_badge_src": null,
        "entry": 9193918,
        "entry_name": "Relegation FC",
        "event_total": 53,
        "has_played": true,
        "id": 77374176,
        "last_rank": 2328,
        "player_name": "Conor Davison",
        "rank": 3065,
        "rank_sort": 3112,
        "total": 2425
      },
      {
        "club_badge_src": null,
        "entry": 66597,
        "entry_name": "Mean Machine",
        "event_total": 59,
        "has_played": true,
        "id": 430659,
        "last_rank": 3103,
        "player_name": "Brian Anderson",
        "rank": 3113,
        "rank_sort": 3113,
        "total": 2425
      },
      {
        "club_badge_src": null,
        "entry": 101183,
        "entry_name": "Nothing Else Madders",
        "event_total": 60,
        "has_played": true,
        "id": 660257,
        "last_rank": 3257,
        "player_name": "Manel Daghar",
        "rank": 3113,
        "rank_sort": 3114,
        "total": 2425
      },
      {
        "club_badge_src": null,
        "entry": 117484,
        "entry_name": "Under My Cucurella",
        "event_total": 63,
        "has_played": true,
        "id": 766844,
        "last_rank": 3079,
        "player_name": "Tom Centorino",
        "rank": 3113,
        "rank_sort": 3115,
        "total": 2425
      },
      {
        "club_badge_src": null,
        "entry": 138852,
        "entry_name": "Myspace FC",
        "event_total": 66,
        "has_played": true,
        "id": 905968,
        "last_rank": 3520,
        "player_name": "Samarth Jain",
        "rank": 3113,
        "rank_sort": 3116,
        "total": 2425
      },
      {
        "club_badge_src": null,
        "entry": 240316,
        "entry_name": "Panutche Camara FC",
        "event_total": 72,
        "has_played": true,
        "id": 1599313,
        "last_rank": 4742,
        "player_name": "Joshua McLaggan",
        "rank": 3113,
        "rank_sort": 3117,
        "total": 2425
      },
      {
        "club_badge_src": null,
        "entry": 329934,
        "entry_name": "Kinder Mbeumo",
        "event_total": 56,
        "has_played": true,
        "id": 2210080,
        "last_rank": 2731,
        "player_name": "Endre Thingn\u00e6s",
        "rank": 3113,
        "rank_sort": 3118,
        "total": 2425
      },
      {
        "club_badge_src": null,
        "entry": 356561,
        "entry_name": "Ultraprosessert",
        "event_total": 50,
        "has_played": true,
        "id": 2386067,
        "last_rank": 2009,
        "player_name": "Bj\u00f8rn Sirevaag",
        "rank": 3113,
        "rank_sort": 3119,
        "total": 2425
      },
      {
        "club_badge_src": null,
        "entry": 442681,
        "entry_name": "Rowley's Raiders",
        "event_total": 55,
        "has_played": true,
        "id": 2968082,
        "last_rank": 2588,
        "player_name": "Philip Craske",
        "rank": 3113,
        "rank_sort": 3120,
        "total": 2425
      },
      {
        "club_badge_src": null,
        "entry": 465116,
        "entry_name": "Unorouge",
        "event_total": 61,
        "has_played": true,
        "id": 3120258,
        "last_rank": 2824,
        "player_name": "Scott Douglas",
        "rank": 3113,
        "rank_sort": 3121,
        "total": 2425
      },
      {
        "club_badge_src": null,
        "entry": 576084,
        "entry_name": "wilson fc",
        "event_total": 70,
        "has_played": true,
        "id": 3876600,
        "last_rank": 5173,
        "player_name": "Callum Wilson",
        "rank": 3113,
        "rank_sort": 3122,
        "total": 2425
      },
      {
        "club_badge_src": null,
        "entry": 689544,
        "entry_name": "The Zoommiz",
        "event_total": 58,
        "has_played": true,
        "id": 4668798,
        "last_rank": 3007,
        "player_name": "Roee Sommerfeld",
        "rank": 3113,
        "rank_sort": 3123,
        "total": 2425
      },
      {
        "club_badge_src": null,
        "entry": 748036,
        "entry_name": "Werder Beermen",
        "event_total": 71,
        "has_played": true,
        "id": 5089118,
        "last_rank": 5498,
        "player_name": "Ryan Clothier",
        "rank": 3113,
        "rank_sort": 3124,
        "total": 2425
      },
      {
        "club_badge_src": null,
        "entry": 1083470,
        "entry_name": "nilllyboy fc",
        "event_total": 64,
        "has_played": true,
        "id": 7502169,
        "last_rank": 3237,
        "player_name": "Nils Rubenis",
        "rank": 3113,
        "rank_sort": 3125,
        "total": 2425
      },
      {
        "club_badge_src": null,
        "entry": 1287148,
        "entry_name": "That'sOneNdiaye",
        "event_total": 62,
        "has_played": true,
        "id": 8944068,
        "last_rank": 3601,
        "player_name": "Sara Edwards",
        "rank": 3113,
        "rank_sort": 3126,
        "total": 2425
      },
      {
        "club_badge_src": null,
        "entry": 1305141,
        "entry_name": "AW",
        "event_total": 69,
        "has_played": true,
        "id": 9071215,
        "last_rank": 4954,
        "player_name": "Adam Vikman",
        "rank": 3113,
        "rank_sort": 3127,
        "total": 2425
      },
      {
        "club_badge_src": null,
        "entry": 1710994,
        "entry_name": "MichaelsHoever FC",
        "event_total": 68,
        "has_played": true,
        "id": 11988428,
        "last_rank": 3902,
        "player_name": "Mick Haayen",
        "rank": 3113,
        "rank_sort": 3128,
        "total": 2425
      },
      {
        "club_badge_src": null,
        "entry": 2081889,
        "entry_name": "Vini Vidi Vicius Jr.",
        "event_total": 67,
        "has_played": true,
        "id": 14765682,
        "last_rank": 4570,
        "player_name": "Laser Tag",
        "rank": 3113,
        "rank_sort": 3129,
        "total": 2425
      },
      {
        "club_badge_src": null,
        "entry": 2241016,
        "entry_name": "im sorry nic jackson",
        "event_total": 53,
        "has_played": true,
        "id": 15965533,
        "last_rank": 2328,
        "player_name": "Jack Thornton",
        "rank": 3113,
        "rank_sort": 3130,
        "total": 2425
      },
      {
        "club_badge_src": "https://fantasy.premierleague.com/gcs/plfpl-production-adobe-approved/plfpl-production/2507335/4655abb6-4045-4ffb-92a9-7714f0aa59fe.png",
        "entry": 2507335,
        "entry_name": "Mother's Milk V",
        "event_total": 59,
        "has_played": true,
        "id": 17956168,
        "last_rank": 3150,
        "player_name": "Taurean Kieron",
        "rank": 3113,
        "rank_sort": 3131,
        "total": 2425
      },
      {
        "club_badge_src": null,
        "entry": 2543228,
        "entry_name": "Five Foot Six FC",
        "event_total": 66,
        "has_played": true,
        "id": 18228176,
        "last_rank": 4303,
        "player_name": "Parker Goldman",
        "rank": 3113,
        "rank_sort": 3132,
        "total": 2425
      },
      {
        "club_badge_src": null,
        "entry": 2779342,
        "entry_name": "Callekula",
        "event_total": 57,
        "has_played": true,
        "id": 20284386,
        "last_rank": 2824,
        "player_name": "Victor Carlsson",
        "rank": 3113,
        "rank_sort": 3133,
        "total": 2425
      },
      {
        "club_badge_src": "https://fantasy.premierleague.com/gcs/plfpl-production-adobe-approved/plfpl-production/3281834/38b3c0ce-b3c7-42f1-b72f-22257a0d8f56.png",
        "entry": 3281834,
        "entry_name": "KGUTD",
        "event_total": 62,
        "has_played": true,
        "id": 24292386,
        "last_rank": 2952,
        "player_name": "Karan Gaba",
        "rank": 3113,
        "rank_sort": 3134,
        "total": 2425
      },
      {
        "club_badge_src": null,
        "entry": 4230486,
        "entry_name": "AmorimEra",
        "event_total": 70,
        "has_played": true,
        "id": 32053419,
        "last_rank": 4303,
        "player_name": "Dody Oktaedi",
        "rank": 3113,
        "rank_sort": 3135,
        "total": 2425
      },
      {
        "club_badge_src": null,
        "entry": 4570506,
        "entry_name": "FPL Gopa",
        "event_total": 69,
        "has_played": true,
        "id": 34880497,
        "last_rank": 5011,
        "player_name": "nithin kumar",
        "rank": 3113,
        "rank_sort": 3136,
        "total": 2425
      },
      {
        "club_badge_src": "https://fantasy.premierleague.com/gcs/plfpl-production-adobe-approved/plfpl-production/4667104/61afdc7b-8608-4cb8-91bb-7ce0f5011fdc.png",
        "entry": 4667104,
        "entry_name": "Red Knights",
        "event_total": 82,
        "has_played": true,
        "id": 35747505,
        "last_rank": 8718,
        "player_name": "Kishor Timsina",
        "rank": 3113,
        "rank_sort": 3137,
        "total": 2425
      },
      {
        "club_badge_src": null,
        "entry": 5652072,
        "entry_name": "yazan Manutd",
        "event_total": 70,
        "has_played": true,
        "id": 44214706,
        "last_rank": 5241,
        "player_name": "yazan abo jabal",
        "rank": 3113,
        "rank_sort": 3138,
        "total": 2425
      },
      {
        "club_badge_src": null,
        "entry": 6232755,
        "entry_name": "Yawning FC",
        "event_total": 60,
        "has_played": true,
        "id": 49327162,
        "last_rank": 3302,
        "player_name": "Siddhartha Shrestha",
        "rank": 3113,
        "rank_sort": 3139,
        "total": 2425
      },
      {
        "club_badge_src": null,
        "entry": 455,
        "entry_name": "Tbc",
        "event_total": 56,
        "has_played": true,
        "id": 2514,
        "last_rank": 2215,
        "player_name": "Mark McAfee",
        "rank": 3140,
        "rank_sort": 3140,
        "total": 2425
      },
      {
        "club_badge_src": null,
        "entry": 5260,
        "entry_name": "Mings of Leon",
        "event_total": 59,
        "has_played": true,
        "id": 29977,
        "last_rank": 2588,
        "player_name": "Jonathan Wright",
        "rank": 3140,
        "rank_sort": 3141,
        "total": 2425
      },
      {
        "club_badge_src": "https://fantasy.premierleague.com/gcs/plfpl-production-adobe-approved/plfpl-production/5468/04f9fce6-eb11-4d3e-afae-5db2ec946bd6.png",
        "entry": 5468,
        "entry_name": "Tekker Time",
        "event_total": 67,
        "has_played": true,
        "id": 31173,
        "last_rank": 3765,
        "player_name": "Callum Gill",
        "rank": 3140,
        "rank_sort": 3142,
        "total": 2425
      },
      {
        "club_badge_src": "https://fantasy.premierleague.com/gcs/plfpl-production-adobe-approved/plfpl-production/32927/721b68ef-7b49-47f6-9f54-40bcb6d2e1bf.png",
        "entry": 32927,
        "entry_name": "Skojevska2k26",
        "event_total": 57,
        "has_played": true,
        "id": 209713,
        "last_rank": 2328,
        "player_name": "Mateja Doj\u010dinovi\u0107",
        "rank": 3140,
        "rank_sort": 3143,
        "total": 2425
      },
      {
        "club_badge_src": "https://fantasy.premierleague.com/gcs/plfpl-production-adobe-approved/plfpl-production/134844/01bce22d-621a-4f95-948e-46282de907e0.png",
        "entry": 134844,
        "entry_name": "KinderMbuemo",
        "event_total": 54,
        "has_played": true,
        "id": 878175,
        "last_rank": 2009,
        "player_name": "Harry Newman",
        "rank": 3140,
        "rank_sort": 3144,
        "total": 2425
      },
      {
        "club_badge_src": null,
        "entry": 139888,
        "entry_name": "Lingheminho",
        "event_total": 56,
        "has_played": true,
        "id": 913223,
        "last_rank": 2749,
        "player_name": "Arvid \u00c4se",
        "rank": 3140,
        "rank_sort": 3145,
        "total": 2425
      },
      {
        "club_badge_src": null,
        "entry": 149735,
        "entry_name": "Carlo Chancellotti",
        "event_total": 67,
        "has_played": true,
        "id": 981816,
        "last_rank": 3765,
        "player_name": "Jason Chan",
        "rank": 3140,
        "rank_sort": 3146,
        "total": 2425
      },
      {
        "club_badge_src": null,
        "entry": 171020,
        "entry_name": "mios mannar",
        "event_total": 70,
        "has_played": true,
        "id": 1129847,
        "last_rank": 5281,
        "player_name": "Mio Rohlin",
        "rank": 3140,
        "rank_sort": 3147,
        "total": 2425
      },
      {
        "club_badge_src": "https://fantasy.premierleague.com/gcs/plfpl-production-adobe-approved/plfpl-production/350320/1e0e8aaf-813f-4bd3-b274-55c20cbdc590.png",
        "entry": 350320,
        "entry_name": "Tugao FC",
        "event_total": 78,
        "has_played": true,
        "id": 2344890,
        "last_rank": 7333,
        "player_name": "Martim Rocha",
        "rank": 3140,
        "rank_sort": 3148,
        "total": 2425
      },
      {
        "club_badge_src": null,
        "entry": 422137,
        "entry_name": "FC Webb",
        "event_total": 71,
        "has_played": true,
        "id": 2828993,
        "last_rank": 5448,
        "player_name": "Dan Webb",
        "rank": 3140,
        "rank_sort": 3149,
        "total": 2425
      },
      {
        "club_badge_src": null,
        "entry": 672138,
        "entry_name": "FCBendleona",
        "event_total": 71,
        "has_played": true,
        "id": 4546380,
        "last_rank": 4488,
        "player_name": "Alex Bendle",
        "rank": 3140,
        "rank_sort": 3150,
        "total": 2425
      }
    ]
  }
}