{
  "last_updated_data": "2026-05-24T23:28:17Z",
  "league": {
    "admin_entry": null,
    "closed": false,
    "code_privacy": "p",
    "created": "2025-07-20T23:14:33.933835Z",
    "cup_league": 2815434,
    "has_cup": true,
    "id": 314,
    "league_type": "s",
    "max_entries": null,
    "name": "Overall",
    "rank": null,
    "scoring": "c",
    "start_event": 1
  },
  "new_entries": {
    "has_next": false,
    "page": 1,
    "results": []
  },
  "standings": {
    "has_next": true,
    "page": 1636,
    "results": [
      {
        "club_badge_src": null,
        "entry": 8345949,
        "entry_name": "Costa del Stopsley",
        "event_total": 78,
        "has_played": true,
        "id": 69164653,
        "last_rank": 142194,
        "player_name": "Paul Dixon",
        "rank": 81744,
        "rank_sort": 81751,
        "total": 2334
      },
      {
        "club_badge_src": null,
        "entry": 8637991,
        "entry_name": "Change Name",
        "event_total": 57,
        "has_played": true,
        "id": 71967620,
        "last_rank": 83534,
        "player_name": "Lucas Smith",
        "rank": 81744,
        "rank_sort": 81752,
        "total": 2334
      },
      {
        "club_badge_src": null,
        "entry": 9426048,
        "entry_name": "Bayern Bru",
        "event_total": 55,
        "has_played": true,
        "id": 79623344,
        "last_rank": 78997,
        "player_name": "Scott Charleson",
        "rank": 81744,
        "rank_sort": 81753,
        "total": 2334
      },
      {
        "club_badge_src": null,
        "entry": 10733216,
        "entry_name": "TC Made Me Do It",
        "event_total": 41,
        "has_played": true,
        "id": 90661497,
        "last_rank": 52722,
        "player_name": "Paul Matthews",
        "rank": 81744,
        "rank_sort": 81754,
        "total": 2334
      },
      {
        "club_badge_src": null,
        "entry": 11151,
        "entry_name": "JJ FC ***",
        "event_total": 52,
        "has_played": true,
        "id": 66177,
        "last_rank": 72702,
        "player_name": "Joel James",
        "rank": 81755,
        "rank_sort": 81755,
        "total": 2334
      },
      {
        "club_badge_src": null,
        "entry": 483388,
        "entry_name": "Lucky over Logic",
        "event_total": 64,
        "has_played": true,
        "id": 3244870,
        "last_rank": 100488,
        "player_name": "Tam Nguyen",
        "rank": 81755,
        "rank_sort": 81756,
        "total": 2334
      },
      {
        "club_badge_src": null,
        "entry": 897732,
        "entry_name": "J\u2019",
        "event_total": 63,
        "has_played": true,
        "id": 6167923,
        "last_rank": 97982,
        "player_name": "John Atef",
        "rank": 81755,
        "rank_sort": 81757,
        "total": 2334
      },
      {
        "club_badge_src": null,
        "entry": 1308047,
        "entry_name": "Taylor Made XI",
        "event_total": 52,
        "has_played": true,
        "id": 9091874,
        "last_rank": 72638,
        "player_name": "Jamie Farnsworth",
        "rank": 81755,
        "rank_sort": 81758,
        "total": 2334
      },
      {
        "club_badge_src": "https://fantasy.premierleague.com/gcs/plfpl-production-adobe-approved/plfpl-production/1308690/3c20b7b2-44d2-4f4c-a478-ea38562d81a0.png",
        "entry": 1308690,
        "entry_name": "Edinson Avani",
        "event_total": 67,
        "has_played": true,
        "id": 9096622,
        "last_rank": 108496,
        "player_name": "Avani Bansal",
        "rank": 81755,
        "rank_sort": 81759,
        "total": 2334
      },
      {
        "club_badge_src": null,
        "entry": 1430603,
        "entry_name": "Juventino",
        "event_total": 49,
        "has_played": true,
        "id": 9968605,
        "last_rank": 66738,
        "player_name": "Piotrek Balawender",
        "rank": 81755,
        "rank_sort": 81760,
        "total": 2334
      },
      {
        "club_badge_src": null,
        "entry": 1457573,
        "entry_name": "Anne No Frank",
        "event_total": 34,
        "has_played": true,
        "id": 10157242,
        "last_rank": 42434,
        "player_name": "Harvey Munday",
        "rank": 81755,
        "rank_sort": 81761,
        "total": 2334
      },
      {
        "club_badge_src": null,
        "entry": 1522172,
        "entry_name": "corn on the kobbie",
        "event_total": 68,
        "has_played": true,
        "id": 10616688,
        "last_rank": 111270,
        "player_name": "Fin Monteith",
        "rank": 81755,
        "rank_sort": 81762,
        "total": 2334
      },
      {
        "club_badge_src": null,
        "entry": 1964911,
        "entry_name": "Champions 20x",
        "event_total": 72,
        "has_played": true,
        "id": 13864269,
        "last_rank": 122897,
        "player_name": "Gary Cassar",
        "rank": 81755,
        "rank_sort": 81763,
        "total": 2334
      },
      {
        "club_badge_src": null,
        "entry": 2205203,
        "entry_name": "\u0627\u0644\u0643\u064a\u0646\u062c",
        "event_total": 66,
        "has_played": true,
        "id": 15696590,
        "last_rank": 105818,
        "player_name": "The Shaheen",
        "rank": 81755,
        "rank_sort": 81764,
        "total": 2334
      },
      {
        "club_badge_src": null,
        "entry": 2585023,
        "entry_name": "Da highs and Dalots",
        "event_total": 54,
        "has_played": true,
        "id": 18556382,
        "last_rank": 76885,
        "player_name": "Kyle L",
        "rank": 81755,
        "rank_sort": 81765,
        "total": 2334
      },
      {
        "club_badge_src": null,
        "entry": 2652443,
        "entry_name": "Plug Palmer",
        "event_total": 41,
        "has_played": true,
        "id": 19065767,
        "last_rank": 52713,
        "player_name": "Oskar J\u00f8ssang",
        "rank": 81755,
        "rank_sort": 81766,
        "total": 2334
      },
      {
        "club_badge_src": null,
        "entry": 3083821,
        "entry_name": "Clarkesaurus FC",
        "event_total": 58,
        "has_played": true,
        "id": 22720039,
        "last_rank": 85870,
        "player_name": "James Evans",
        "rank": 81755,
        "rank_sort": 81767,
        "total": 2334
      },
      {
        "club_badge_src": null,
        "entry": 3641593,
        "entry_name": "A CityUnited",
        "event_total": 42,
        "has_played": true,
        "id": 27139817,
        "last_rank": 54380,
        "player_name": "Musab Abdullah",
        "rank": 81755,
        "rank_sort": 81768,
        "total": 2334
      },
      {
        "club_badge_src": null,
        "entry": 3725338,
        "entry_name": "shots***",
        "event_total": 55,
        "has_played": true,
        "id": 27804681,
        "last_rank": 79079,
        "player_name": "philip martin",
        "rank": 81755,
        "rank_sort": 81769,
        "total": 2334
      },
      {
        "club_badge_src": "https://fantasy.premierleague.com/gcs/plfpl-production-adobe-approved/plfpl-production/4048185/24da868c-2adc-434a-869e-670676606fb5.png",
        "entry": 4048185,
        "entry_name": "Cunha Dig It Saka",
        "event_total": 63,
        "has_played": true,
        "id": 30534531,
        "last_rank": 97982,
        "player_name": "Mike Coals",
        "rank": 81755,
        "rank_sort": 81770,
        "total": 2334
      },
      {
        "club_badge_src": "https://fantasy.premierleague.com/gcs/plfpl-production-adobe-approved/plfpl-production/4464828/79975a34-7c68-4a26-9034-4458f10ba14c.png",
        "entry": 4464828,
        "entry_name": "Ragnar",
        "event_total": 79,
        "has_played": true,
        "id": 34018216,
        "last_rank": 145422,
        "player_name": "Kipkorir Ruto",
        "rank": 81755,
        "rank_sort": 81771,
        "total": 2334
      },
      {
        "club_badge_src": null,
        "entry": 4478683,
        "entry_name": "christianLFC06",
        "event_total": 64,
        "has_played": true,
        "id": 34133004,
        "last_rank": 100572,
        "player_name": "Christian Allott",
        "rank": 81755,
        "rank_sort": 81772,
        "total": 2334
      },
      {
        "club_badge_src": null,
        "entry": 4571406,
        "entry_name": "Tariff laga dunga",
        "event_total": 57,
        "has_played": true,
        "id": 34887765,
        "last_rank": 83534,
        "player_name": "Naveen Gusain",
        "rank": 81755,
        "rank_sort": 81773,
        "total": 2334
      },
      {
        "club_badge_src": null,
        "entry": 5210792,
        "entry_name": "mufc91",
        "event_total": 72,
        "has_played": true,
        "id": 40361654,
        "last_rank": 122860,
        "player_name": "Liam Holly",
        "rank": 81755,
        "rank_sort": 81774,
        "total": 2334
      },
      {
        "club_badge_src": null,
        "entry": 5328900,
        "entry_name": "Cucurella De Vil",
        "event_total": 71,
        "has_played": true,
        "id": 41311504,
        "last_rank": 119893,
        "player_name": "Sam Rose",
        "rank": 81755,
        "rank_sort": 81775,
        "total": 2334
      },
      {
        "club_badge_src": "https://fantasy.premierleague.com/gcs/plfpl-production-adobe-approved/plfpl-production/5395564/ac886ae0-db3c-4ecd-870b-224a6db23b90.png",
        "entry": 5395564,
        "entry_name": "Dou\u00e9 Do-overs",
        "event_total": 72,
        "has_played": true,
        "id": 41949779,
        "last_rank": 122860,
        "player_name": "Faridudeen Musthapha",
        "rank": 81755,
        "rank_sort": 81776,
        "total": 2334
      },
      {
        "club_badge_src": null,
        "entry": 6588384,
        "entry_name": "AZ Woodlaar",
        "event_total": 46,
        "has_played": true,
        "id": 52617413,
        "last_rank": 61239,
        "player_name": "Will Woodward",
        "rank": 81755,
        "rank_sort": 81777,
        "total": 2334
      },
      {
        "club_badge_src": null,
        "entry": 6703654,
        "entry_name": "M\u00f8rph\u00een\u011935",
        "event_total": 40,
        "has_played": true,
        "id": 53640243,
        "last_rank": 51099,
        "player_name": "Amit Sharma",
        "rank": 81755,
        "rank_sort": 81778,
        "total": 2334
      },
      {
        "club_badge_src": null,
        "entry": 6803443,
        "entry_name": "\u00d8hdeargahd",
        "event_total": 55,
        "has_played": true,
        "id": 54485233,
        "last_rank": 79027,
        "player_name": "Temi Adeola",
        "rank": 81755,
        "rank_sort": 81779,
        "total": 2334
      },
      {
        "club_badge_src": null,
        "entry": 6813502,
        "entry_name": "Invincible's",
        "event_total": 60,
        "has_played": true,
        "id": 54567519,
        "last_rank": 90625,
        "player_name": "Rebekah Williams",
        "rank": 81755,
        "rank_sort": 81780,
        "total": 2334
      },
      {
        "club_badge_src": null,
        "entry": 6947618,
        "entry_name": "Ctrl Alt DeLigt",
        "event_total": 47,
        "has_played": true,
        "id": 55707222,
        "last_rank": 63080,
        "player_name": "Sanchit Wason",
        "rank": 81755,
        "rank_sort": 81781,
        "total": 2334
      },
      {
        "club_badge_src": "https://fantasy.premierleague.com/gcs/plfpl-production-adobe-approved/plfpl-production/6992960/8ab96e39-9e50-4d48-9f3b-c190ca85a0e3.png",
        "entry": 6992960,
        "entry_name": "Mojo Jojovski FC",
        "event_total": 33,
        "has_played": true,
        "id": 56137879,
        "last_rank": 41101,
        "player_name": "Yordan Mominski",
        "rank": 81755,
        "rank_sort": 81782,
        "total": 2334
      },
      {
        "club_badge_src": null,
        "entry": 7171522,
        "entry_name": "RCHK Testing Team",
        "event_total": 54,
        "has_played": true,
        "id": 57867263,
        "last_rank": 76877,
        "player_name": "Ralph CHK",
        "rank": 81755,
        "rank_sort": 81783,
        "total": 2334
      },
      {
        "club_badge_src": null,
        "entry": 7422044,
        "entry_name": "Fight club",
        "event_total": 66,
        "has_played": true,
        "id": 60266418,
        "last_rank": 105723,
        "player_name": "Pandurang Naik",
        "rank": 81755,
        "rank_sort": 81784,
        "total": 2334
      },
      {
        "club_badge_src": null,
        "entry": 7660569,
        "entry_name": "Change Name",
        "event_total": 37,
        "has_played": true,
        "id": 62812118,
        "last_rank": 46591,
        "player_name": "Euan Hill",
        "rank": 81755,
        "rank_sort": 81785,
        "total": 2334
      },
      {
        "club_badge_src": null,
        "entry": 7718917,
        "entry_name": "Pique Blinders",
        "event_total": 50,
        "has_played": true,
        "id": 63341191,
        "last_rank": 68572,
        "player_name": "Anand Mayor",
        "rank": 81755,
        "rank_sort": 81786,
        "total": 2334
      },
      {
        "club_badge_src": null,
        "entry": 7950807,
        "entry_name": "Bhasmae Don FC",
        "event_total": 46,
        "has_played": true,
        "id": 65446728,
        "last_rank": 61315,
        "player_name": "Krishna Chaudhary",
        "rank": 81755,
        "rank_sort": 81787,
        "total": 2334
      },
      {
        "club_badge_src": null,
        "entry": 9320336,
        "entry_name": "Elias Manunited",
        "event_total": 72,
        "has_played": true,
        "id": 78604514,
        "last_rank": 122988,
        "player_name": "\u00c9lias Ben Z\u00e2rrouk",
        "rank": 81755,
        "rank_sort": 81788,
        "total": 2334
      },
      {
        "club_badge_src": null,
        "entry": 15668,
        "entry_name": "Sweet Viktor-y",
        "event_total": 51,
        "has_played": true,
        "id": 96363,
        "last_rank": 70757,
        "player_name": "J. Tong",
        "rank": 81789,
        "rank_sort": 81789,
        "total": 2334
      },
      {
        "club_badge_src": "https://fantasy.premierleague.com/gcs/plfpl-production-adobe-approved/plfpl-production/45797/01d8a602-ef3f-4c20-b4b8-35e4ec851b30.png",
        "entry": 45797,
        "entry_name": "The Hustlers",
        "event_total": 57,
        "has_played": true,
        "id": 293765,
        "last_rank": 83698,
        "player_name": "Andrew Smith",
        "rank": 81789,
        "rank_sort": 81790,
        "total": 2334
      },
      {
        "club_badge_src": null,
        "entry": 49980,
        "entry_name": "Ekitike-Taka",
        "event_total": 73,
        "has_played": true,
        "id": 321346,
        "last_rank": 125829,
        "player_name": "Lorc\u00e1n Hegarty",
        "rank": 81789,
        "rank_sort": 81791,
        "total": 2334
      },
      {
        "club_badge_src": "https://fantasy.premierleague.com/gcs/plfpl-production-adobe-approved/plfpl-production/54424/ee1b458a-f15d-4de3-81cf-9b46cc877285.png",
        "entry": 54424,
        "entry_name": "Hey Jude XI",
        "event_total": 63,
        "has_played": true,
        "id": 350278,
        "last_rank": 98073,
        "player_name": "Jude Wallace",
        "rank": 81789,
        "rank_sort": 81792,
        "total": 2334
      },
      {
        "club_badge_src": null,
        "entry": 194195,
        "entry_name": "FC Berzunti",
        "event_total": 47,
        "has_played": true,
        "id": 1287385,
        "last_rank": 63201,
        "player_name": "Spoiala Alexandru",
        "rank": 81789,
        "rank_sort": 81793,
        "total": 2334
      },
      {
        "club_badge_src": null,
        "entry": 635272,
        "entry_name": "VAR du Sebastian?",
        "event_total": 55,
        "has_played": true,
        "id": 4293351,
        "last_rank": 79190,
        "player_name": "Sebastian Eriksen",
        "rank": 81789,
        "rank_sort": 81794,
        "total": 2334
      },
      {
        "club_badge_src": null,
        "entry": 681583,
        "entry_name": "AC Kumomo",
        "event_total": 58,
        "has_played": true,
        "id": 4612643,
        "last_rank": 85823,
        "player_name": "Nils Schuler",
        "rank": 81789,
        "rank_sort": 81795,
        "total": 2334
      },
      {
        "club_badge_src": "https://fantasy.premierleague.com/gcs/plfpl-production-adobe-approved/plfpl-production/693941/ec83ba00-63dc-4411-9cf3-0f6aa4756230.png",
        "entry": 693941,
        "entry_name": "Egoisto FC",
        "event_total": 58,
        "has_played": true,
        "id": 4699802,
        "last_rank": 85932,
        "player_name": "Aiman Hamizan",
        "rank": 81789,
        "rank_sort": 81796,
        "total": 2334
      },
      {
        "club_badge_src": null,
        "entry": 877701,
        "entry_name": "CunhaTastetheMbeumo",
        "event_total": 51,
        "has_played": true,
        "id": 6017548,
        "last_rank": 70757,
        "player_name": "Suman Khakh",
        "rank": 81789,
        "rank_sort": 81797,
        "total": 2334
      },
      {
        "club_badge_src": null,
        "entry": 964645,
        "entry_name": "Yoro Wizard Harry",
        "event_total": 42,
        "has_played": true,
        "id": 6648133,
        "last_rank": 54494,
        "player_name": "Jordan Bartley-Halls",
        "rank": 81789,
        "rank_sort": 81798,
        "total": 2334
      },
      {
        "club_badge_src": null,
        "entry": 1101653,
        "entry_name": "caesar",
        "event_total": 44,
        "has_played": true,
        "id": 7630824,
        "last_rank": 57857,
        "player_name": "Ahmed Taha",
        "rank": 81789,
        "rank_sort": 81799,
        "total": 2334
      },
      {
        "club_badge_src": null,
        "entry": 1334994,
        "entry_name": "Real Spi\u0161",
        "event_total": 48,
        "has_played": true,
        "id": 9279467,
        "last_rank": 57743,
        "player_name": "Vlado Alcznauer",
        "rank": 81789,
        "rank_sort": 81800,
        "total": 2334
      }
    ]
  }
}