{
  "last_updated_data": "2026-05-24T23:28:17Z",
  "league": {
    "admin_entry": null,
    "closed": false,
    "code_privacy": "p",
    "created": "2025-07-20T23:14:33.933835Z",
    "cup_league": 2815434,
    "has_cup": true,
    "id": 314,
    "league_type": "s",
    "max_entries": null,
    "name": "Overall",
    "rank": null,
    "scoring": "c",
    "start_event": 1
  },
  "new_entries": {
    "has_next": false,
    "page": 1,
    "results": []
  },
  "standings": {
    "has_next": true,
    "page": 380,
    "results": [
      {
        "club_badge_src": null,
        "entry": 300424,
        "entry_name": "Baby Reijnders",
        "event_total": 69,
        "has_played": true,
        "id": 2009499,
        "last_rank": 24636,
        "player_name": "Isaac Riley",
        "rank": 18943,
        "rank_sort": 18951,
        "total": 2382
      },
      {
        "club_badge_src": null,
        "entry": 318830,
        "entry_name": "Holsten_Hotspur",
        "event_total": 58,
        "has_played": true,
        "id": 2137151,
        "last_rank": 19279,
        "player_name": "Arild Br\u00e5ten",
        "rank": 18943,
        "rank_sort": 18952,
        "total": 2382
      },
      {
        "club_badge_src": null,
        "entry": 498302,
        "entry_name": "HFSP Utd",
        "event_total": 67,
        "has_played": true,
        "id": 3344482,
        "last_rank": 26425,
        "player_name": "Michael Leek",
        "rank": 18943,
        "rank_sort": 18953,
        "total": 2382
      },
      {
        "club_badge_src": null,
        "entry": 616203,
        "entry_name": "Real Winchester",
        "event_total": 61,
        "has_played": true,
        "id": 4163613,
        "last_rank": 21450,
        "player_name": "Ben Winchester",
        "rank": 18943,
        "rank_sort": 18954,
        "total": 2382
      },
      {
        "club_badge_src": "https://fantasy.premierleague.com/gcs/plfpl-production-adobe-approved/plfpl-production/735986/064d2c2d-216a-43ac-92c9-54862275f27e.png",
        "entry": 735986,
        "entry_name": "Eze Come Eze Go",
        "event_total": 69,
        "has_played": true,
        "id": 5003257,
        "last_rank": 21392,
        "player_name": "Daniel Stanley",
        "rank": 18943,
        "rank_sort": 18955,
        "total": 2382
      },
      {
        "club_badge_src": null,
        "entry": 964405,
        "entry_name": "StoreStyggePapi",
        "event_total": 56,
        "has_played": true,
        "id": 6646504,
        "last_rank": 17894,
        "player_name": "Viggo Mikkelsen",
        "rank": 18943,
        "rank_sort": 18956,
        "total": 2382
      },
      {
        "club_badge_src": null,
        "entry": 992948,
        "entry_name": "Haven't got a Scooby",
        "event_total": 65,
        "has_played": true,
        "id": 6848667,
        "last_rank": 24680,
        "player_name": "Carl Norton",
        "rank": 18943,
        "rank_sort": 18957,
        "total": 2382
      },
      {
        "club_badge_src": "https://fantasy.premierleague.com/gcs/plfpl-production-adobe-approved/plfpl-production/1000169/d1962bec-63a9-4106-91bb-1eaeaa82d4f1.png",
        "entry": 1000169,
        "entry_name": "Earth Wind Maguire",
        "event_total": 65,
        "has_played": true,
        "id": 6913613,
        "last_rank": 21450,
        "player_name": "Dan Keegan -",
        "rank": 18943,
        "rank_sort": 18958,
        "total": 2382
      },
      {
        "club_badge_src": null,
        "entry": 1135370,
        "entry_name": "\u0627\u0644\u0627\u0646\u0635\u0631\u0627\u0641\u064a \u0641\u0627\u0646\u062a\u0627\u0632\u064a\u0643\u0648",
        "event_total": 65,
        "has_played": true,
        "id": 7870170,
        "last_rank": 18475,
        "player_name": "Golden Max",
        "rank": 18943,
        "rank_sort": 18959,
        "total": 2382
      },
      {
        "club_badge_src": null,
        "entry": 1257321,
        "entry_name": "Pocetnici",
        "event_total": 71,
        "has_played": true,
        "id": 8733781,
        "last_rank": 22921,
        "player_name": "Bakir Niksic",
        "rank": 18943,
        "rank_sort": 18960,
        "total": 2382
      },
      {
        "club_badge_src": null,
        "entry": 1494109,
        "entry_name": "Yoro Wizard Harry",
        "event_total": 55,
        "has_played": true,
        "id": 10419321,
        "last_rank": 17233,
        "player_name": "Daniel Taylor",
        "rank": 18943,
        "rank_sort": 18961,
        "total": 2382
      },
      {
        "club_badge_src": null,
        "entry": 1581054,
        "entry_name": "VLT CLUB",
        "event_total": 46,
        "has_played": true,
        "id": 11048228,
        "last_rank": 12027,
        "player_name": "Vanlalthaa Lai",
        "rank": 18943,
        "rank_sort": 18962,
        "total": 2382
      },
      {
        "club_badge_src": null,
        "entry": 1817305,
        "entry_name": "Gunners",
        "event_total": 68,
        "has_played": true,
        "id": 12779858,
        "last_rank": 23748,
        "player_name": "M7md Sdig",
        "rank": 18943,
        "rank_sort": 18963,
        "total": 2382
      },
      {
        "club_badge_src": null,
        "entry": 2142261,
        "entry_name": "Boogeyman",
        "event_total": 40,
        "has_played": true,
        "id": 15225427,
        "last_rank": 7891,
        "player_name": "Salman Fareed",
        "rank": 18943,
        "rank_sort": 18964,
        "total": 2382
      },
      {
        "club_badge_src": null,
        "entry": 2155934,
        "entry_name": "Mrtvacka Kola",
        "event_total": 53,
        "has_played": true,
        "id": 15325379,
        "last_rank": 15797,
        "player_name": "Enes Zukan",
        "rank": 18943,
        "rank_sort": 18965,
        "total": 2382
      },
      {
        "club_badge_src": null,
        "entry": 2295262,
        "entry_name": "Nofaliic",
        "event_total": 59,
        "has_played": true,
        "id": 16369894,
        "last_rank": 17194,
        "player_name": "Ahmed Nofal",
        "rank": 18943,
        "rank_sort": 18966,
        "total": 2382
      },
      {
        "club_badge_src": null,
        "entry": 2418277,
        "entry_name": "Machine Gun Skelly",
        "event_total": 58,
        "has_played": true,
        "id": 17287756,
        "last_rank": 14102,
        "player_name": "Georgi Shokoski",
        "rank": 18943,
        "rank_sort": 18967,
        "total": 2382
      },
      {
        "club_badge_src": null,
        "entry": 2797914,
        "entry_name": "HNK Grbore\u0161ki Biser",
        "event_total": 52,
        "has_played": true,
        "id": 20430659,
        "last_rank": 15336,
        "player_name": "Ivan Vrdoljak",
        "rank": 18943,
        "rank_sort": 18968,
        "total": 2382
      },
      {
        "club_badge_src": "https://fantasy.premierleague.com/gcs/plfpl-production-adobe-approved/plfpl-production/2879606/90a53e40-7ff1-4c4d-9e36-1348ab15574b.png",
        "entry": 2879606,
        "entry_name": "Sohaibx17",
        "event_total": 65,
        "has_played": true,
        "id": 21079418,
        "last_rank": 21392,
        "player_name": "Sohaib yousef",
        "rank": 18943,
        "rank_sort": 18969,
        "total": 2382
      },
      {
        "club_badge_src": null,
        "entry": 2924129,
        "entry_name": "GC United",
        "event_total": 54,
        "has_played": true,
        "id": 21436323,
        "last_rank": 14148,
        "player_name": "gordon craig",
        "rank": 18943,
        "rank_sort": 18970,
        "total": 2382
      },
      {
        "club_badge_src": null,
        "entry": 3089213,
        "entry_name": "Backstreet Moyes",
        "event_total": 65,
        "has_played": true,
        "id": 22765505,
        "last_rank": 21392,
        "player_name": "H\u00e5kon S\u00f8rheim",
        "rank": 18943,
        "rank_sort": 18971,
        "total": 2382
      },
      {
        "club_badge_src": "https://fantasy.premierleague.com/gcs/plfpl-production-adobe-approved/plfpl-production/3563359/39cad6ba-d37c-448b-9f66-8816e165cc96.png",
        "entry": 3563359,
        "entry_name": "Beelieve",
        "event_total": 36,
        "has_played": true,
        "id": 26531767,
        "last_rank": 7914,
        "player_name": "Mike Mangalea",
        "rank": 18943,
        "rank_sort": 18972,
        "total": 2382
      },
      {
        "club_badge_src": null,
        "entry": 3744358,
        "entry_name": "Fedarwe Acieed Spur",
        "event_total": 57,
        "has_played": true,
        "id": 27951857,
        "last_rank": 18578,
        "player_name": "Tony Parris",
        "rank": 18943,
        "rank_sort": 18973,
        "total": 2382
      },
      {
        "club_badge_src": null,
        "entry": 4010799,
        "entry_name": "McGinn and Tonic",
        "event_total": 61,
        "has_played": true,
        "id": 30219361,
        "last_rank": 21486,
        "player_name": "Joshua Williams",
        "rank": 18943,
        "rank_sort": 18974,
        "total": 2382
      },
      {
        "club_badge_src": null,
        "entry": 4035406,
        "entry_name": "Change Name",
        "event_total": 55,
        "has_played": true,
        "id": 30427591,
        "last_rank": 14712,
        "player_name": "Michael Twining",
        "rank": 18943,
        "rank_sort": 18975,
        "total": 2382
      },
      {
        "club_badge_src": null,
        "entry": 4425253,
        "entry_name": "DiegoMarrastebbo",
        "event_total": 52,
        "has_played": true,
        "id": 33678895,
        "last_rank": 9311,
        "player_name": "Pete Stebbing",
        "rank": 18943,
        "rank_sort": 18976,
        "total": 2382
      },
      {
        "club_badge_src": null,
        "entry": 4511648,
        "entry_name": "Sraideoin FC",
        "event_total": 64,
        "has_played": true,
        "id": 34402040,
        "last_rank": 20678,
        "player_name": "Jason Murphy",
        "rank": 18943,
        "rank_sort": 18977,
        "total": 2382
      },
      {
        "club_badge_src": null,
        "entry": 4970175,
        "entry_name": "Peskbromwhich Albion",
        "event_total": 61,
        "has_played": true,
        "id": 38358195,
        "last_rank": 21486,
        "player_name": "Rich Peskett",
        "rank": 18943,
        "rank_sort": 18978,
        "total": 2382
      },
      {
        "club_badge_src": null,
        "entry": 5300308,
        "entry_name": "kr3in lm3iz",
        "event_total": 58,
        "has_played": true,
        "id": 41085284,
        "last_rank": 19302,
        "player_name": "Ilyas Khetatba",
        "rank": 18943,
        "rank_sort": 18979,
        "total": 2382
      },
      {
        "club_badge_src": null,
        "entry": 5379873,
        "entry_name": "Mo's Never Wrong FC",
        "event_total": 65,
        "has_played": true,
        "id": 41819495,
        "last_rank": 18475,
        "player_name": "Mo Abdi",
        "rank": 18943,
        "rank_sort": 18980,
        "total": 2382
      },
      {
        "club_badge_src": null,
        "entry": 6004109,
        "entry_name": "b\u00e4sta laget haha fc",
        "event_total": 39,
        "has_played": true,
        "id": 47335027,
        "last_rank": 7547,
        "player_name": "Lukas Sandgren",
        "rank": 18943,
        "rank_sort": 18981,
        "total": 2382
      },
      {
        "club_badge_src": null,
        "entry": 6158111,
        "entry_name": "bALLFIDDLAZ",
        "event_total": 67,
        "has_played": true,
        "id": 48682909,
        "last_rank": 22996,
        "player_name": "Maximilian Sv\u00e4rd Ailm",
        "rank": 18943,
        "rank_sort": 18982,
        "total": 2382
      },
      {
        "club_badge_src": "https://fantasy.premierleague.com/gcs/plfpl-production-adobe-approved/plfpl-production/6857918/ed21a6b9-8d5e-4724-a352-a01117530064.png",
        "entry": 6857918,
        "entry_name": "Onana Ya Didn't",
        "event_total": 64,
        "has_played": true,
        "id": 54947084,
        "last_rank": 23820,
        "player_name": "Ryan Stratford",
        "rank": 18943,
        "rank_sort": 18983,
        "total": 2382
      },
      {
        "club_badge_src": null,
        "entry": 7142676,
        "entry_name": "Caicedo Royale",
        "event_total": 73,
        "has_played": true,
        "id": 57579919,
        "last_rank": 32437,
        "player_name": "Lobos RJ",
        "rank": 18943,
        "rank_sort": 18984,
        "total": 2382
      },
      {
        "club_badge_src": null,
        "entry": 7320033,
        "entry_name": "GamesGone FC",
        "event_total": 65,
        "has_played": true,
        "id": 59264172,
        "last_rank": 21450,
        "player_name": "Owen Cox",
        "rank": 18943,
        "rank_sort": 18985,
        "total": 2382
      },
      {
        "club_badge_src": null,
        "entry": 7926719,
        "entry_name": "my team",
        "event_total": 37,
        "has_played": true,
        "id": 65229175,
        "last_rank": 8274,
        "player_name": "Mnef Almsabe",
        "rank": 18943,
        "rank_sort": 18986,
        "total": 2382
      },
      {
        "club_badge_src": null,
        "entry": 8586872,
        "entry_name": "ARS",
        "event_total": 75,
        "has_played": true,
        "id": 71471581,
        "last_rank": 30191,
        "player_name": "Mohammed Ahmed",
        "rank": 18943,
        "rank_sort": 18987,
        "total": 2382
      },
      {
        "club_badge_src": null,
        "entry": 7096,
        "entry_name": "FPL Veteran",
        "event_total": 66,
        "has_played": true,
        "id": 40867,
        "last_rank": 25595,
        "player_name": "Shane Auld",
        "rank": 18988,
        "rank_sort": 18988,
        "total": 2382
      },
      {
        "club_badge_src": null,
        "entry": 18072,
        "entry_name": "NoDesireToDoueThing",
        "event_total": 68,
        "has_played": true,
        "id": 112324,
        "last_rank": 27402,
        "player_name": "Leon Waterfield",
        "rank": 18988,
        "rank_sort": 18989,
        "total": 2382
      },
      {
        "club_badge_src": null,
        "entry": 44351,
        "entry_name": "Hills Army",
        "event_total": 63,
        "has_played": true,
        "id": 284240,
        "last_rank": 23071,
        "player_name": "Aaron Hill",
        "rank": 18988,
        "rank_sort": 18990,
        "total": 2382
      },
      {
        "club_badge_src": null,
        "entry": 170263,
        "entry_name": "Flo\u5c0f\u82b1\u82b1",
        "event_total": 57,
        "has_played": true,
        "id": 1124968,
        "last_rank": 15876,
        "player_name": "wendy li",
        "rank": 18988,
        "rank_sort": 18991,
        "total": 2382
      },
      {
        "club_badge_src": null,
        "entry": 187896,
        "entry_name": "zubi zubi doo",
        "event_total": 62,
        "has_played": true,
        "id": 1242704,
        "last_rank": 16567,
        "player_name": "Brad Martin",
        "rank": 18988,
        "rank_sort": 18992,
        "total": 2382
      },
      {
        "club_badge_src": "https://fantasy.premierleague.com/gcs/plfpl-production-adobe-approved/plfpl-production/202211/520d4624-8dac-4d4c-8548-c6a654d17c9d.png",
        "entry": 202211,
        "entry_name": "Wirtz Nightmare",
        "event_total": 72,
        "has_played": true,
        "id": 1342783,
        "last_rank": 27402,
        "player_name": "Diarmuid Mcdermott",
        "rank": 18988,
        "rank_sort": 18993,
        "total": 2382
      },
      {
        "club_badge_src": null,
        "entry": 421606,
        "entry_name": "UnitedGurom",
        "event_total": 56,
        "has_played": true,
        "id": 2825415,
        "last_rank": 17894,
        "player_name": "Daniel Filipowicz",
        "rank": 18988,
        "rank_sort": 18994,
        "total": 2382
      },
      {
        "club_badge_src": "https://fantasy.premierleague.com/gcs/plfpl-production-adobe-approved/plfpl-production/864874/46f7b0bd-c7c3-4269-8574-ac2a5b1f8e65.png",
        "entry": 864874,
        "entry_name": "Sneaky Tiki",
        "event_total": 63,
        "has_played": true,
        "id": 5929120,
        "last_rank": 23039,
        "player_name": "Stewart Hall",
        "rank": 18988,
        "rank_sort": 18995,
        "total": 2382
      },
      {
        "club_badge_src": null,
        "entry": 948666,
        "entry_name": "ooh aah cantona",
        "event_total": 65,
        "has_played": true,
        "id": 6534795,
        "last_rank": 24636,
        "player_name": "Kevin Tang",
        "rank": 18988,
        "rank_sort": 18996,
        "total": 2382
      },
      {
        "club_badge_src": null,
        "entry": 982665,
        "entry_name": "pain in dias",
        "event_total": 67,
        "has_played": true,
        "id": 6774858,
        "last_rank": 26512,
        "player_name": "Cian O-Keeffe",
        "rank": 18988,
        "rank_sort": 18997,
        "total": 2382
      },
      {
        "club_badge_src": null,
        "entry": 1323103,
        "entry_name": "musigny united",
        "event_total": 49,
        "has_played": true,
        "id": 9196846,
        "last_rank": 13653,
        "player_name": "Chris Lee",
        "rank": 18988,
        "rank_sort": 18998,
        "total": 2382
      },
      {
        "club_badge_src": null,
        "entry": 1781051,
        "entry_name": "Onside",
        "event_total": 83,
        "has_played": true,
        "id": 12513293,
        "last_rank": 34293,
        "player_name": "Y amaL",
        "rank": 18988,
        "rank_sort": 18999,
        "total": 2382
      },
      {
        "club_badge_src": null,
        "entry": 1816614,
        "entry_name": "Master McGrath",
        "event_total": 54,
        "has_played": true,
        "id": 12774693,
        "last_rank": 14171,
        "player_name": "Graziella O'Sullivan",
        "rank": 18988,
        "rank_sort": 19000,
        "total": 2382
      }
    ]
  }
}