{
  "last_updated_data": "2026-05-24T23:28:17Z",
  "league": {
    "admin_entry": null,
    "closed": false,
    "code_privacy": "p",
    "created": "2025-07-20T23:14:33.933835Z",
    "cup_league": 2815434,
    "has_cup": true,
    "id": 314,
    "league_type": "s",
    "max_entries": null,
    "name": "Overall",
    "rank": null,
    "scoring": "c",
    "start_event": 1
  },
  "new_entries": {
    "has_next": false,
    "page": 1,
    "results": []
  },
  "standings": {
    "has_next": true,
    "page": 1167,
    "results": [
      {
        "club_badge_src": null,
        "entry": 2238624,
        "entry_name": "Romagnoli",
        "event_total": 52,
        "has_played": true,
        "id": 15948144,
        "last_rank": 44672,
        "player_name": "Visca Luton",
        "rank": 58227,
        "rank_sort": 58301,
        "total": 2347
      },
      {
        "club_badge_src": null,
        "entry": 2309611,
        "entry_name": "Time Will Tel",
        "event_total": 42,
        "has_played": true,
        "id": 16474354,
        "last_rank": 37058,
        "player_name": "Stefan McCarron",
        "rank": 58227,
        "rank_sort": 58302,
        "total": 2347
      },
      {
        "club_badge_src": null,
        "entry": 2338243,
        "entry_name": "Starks",
        "event_total": 54,
        "has_played": true,
        "id": 16683763,
        "last_rank": 53952,
        "player_name": "Amrr Ashraf",
        "rank": 58227,
        "rank_sort": 58303,
        "total": 2347
      },
      {
        "club_badge_src": null,
        "entry": 2379768,
        "entry_name": "Ha Ha Land",
        "event_total": 66,
        "has_played": true,
        "id": 16992616,
        "last_rank": 76330,
        "player_name": "Barry Lambie",
        "rank": 58227,
        "rank_sort": 58304,
        "total": 2347
      },
      {
        "club_badge_src": null,
        "entry": 2435451,
        "entry_name": "Declan Hoose Rice",
        "event_total": 58,
        "has_played": true,
        "id": 17416376,
        "last_rank": 60827,
        "player_name": "Peter Lynch",
        "rank": 58227,
        "rank_sort": 58305,
        "total": 2347
      },
      {
        "club_badge_src": null,
        "entry": 2446897,
        "entry_name": "Moyes Will Be Moyes",
        "event_total": 56,
        "has_played": true,
        "id": 17500412,
        "last_rank": 57358,
        "player_name": "Jack Foran",
        "rank": 58227,
        "rank_sort": 58306,
        "total": 2347
      },
      {
        "club_badge_src": "https://fantasy.premierleague.com/gcs/plfpl-production-adobe-approved/plfpl-production/2535383/3978be38-c48c-43a2-a1ba-b65aae45ea70.png",
        "entry": 2535383,
        "entry_name": "Ekamai United",
        "event_total": 55,
        "has_played": true,
        "id": 18169640,
        "last_rank": 49078,
        "player_name": "Nirut Visavachaipan",
        "rank": 58227,
        "rank_sort": 58307,
        "total": 2347
      },
      {
        "club_badge_src": null,
        "entry": 2582607,
        "entry_name": "nw2025",
        "event_total": 61,
        "has_played": true,
        "id": 18537674,
        "last_rank": 66200,
        "player_name": "Niall Whitney",
        "rank": 58227,
        "rank_sort": 58308,
        "total": 2347
      },
      {
        "club_badge_src": null,
        "entry": 2878565,
        "entry_name": "Wirtzuuup",
        "event_total": 67,
        "has_played": true,
        "id": 21071636,
        "last_rank": 78244,
        "player_name": "Shah Miah",
        "rank": 58227,
        "rank_sort": 58309,
        "total": 2347
      },
      {
        "club_badge_src": null,
        "entry": 2948745,
        "entry_name": "Mohamed 7amada",
        "event_total": 49,
        "has_played": true,
        "id": 21655863,
        "last_rank": 46313,
        "player_name": "Mohamed Khaled",
        "rank": 58227,
        "rank_sort": 58310,
        "total": 2347
      },
      {
        "club_badge_src": null,
        "entry": 3076873,
        "entry_name": "Under Gy\u00f6kens Vingar",
        "event_total": 56,
        "has_played": true,
        "id": 22666944,
        "last_rank": 57001,
        "player_name": "Johan Oddbj\u00f6rn",
        "rank": 58227,
        "rank_sort": 58311,
        "total": 2347
      },
      {
        "club_badge_src": null,
        "entry": 3087974,
        "entry_name": "Delap dance",
        "event_total": 55,
        "has_played": true,
        "id": 22752000,
        "last_rank": 48898,
        "player_name": "Billy Hughes",
        "rank": 58227,
        "rank_sort": 58312,
        "total": 2347
      },
      {
        "club_badge_src": null,
        "entry": 3149559,
        "entry_name": "Ktm Warriors",
        "event_total": 62,
        "has_played": true,
        "id": 23256886,
        "last_rank": 60671,
        "player_name": "Binit Shakya",
        "rank": 58227,
        "rank_sort": 58313,
        "total": 2347
      },
      {
        "club_badge_src": null,
        "entry": 3236731,
        "entry_name": "AbraDubravka",
        "event_total": 39,
        "has_played": true,
        "id": 23940017,
        "last_rank": 33582,
        "player_name": "Helgi Johannsson",
        "rank": 58227,
        "rank_sort": 58314,
        "total": 2347
      },
      {
        "club_badge_src": null,
        "entry": 3303261,
        "entry_name": "Porroject Zeus",
        "event_total": 65,
        "has_played": true,
        "id": 24466622,
        "last_rank": 66057,
        "player_name": "Henry Carr",
        "rank": 58227,
        "rank_sort": 58315,
        "total": 2347
      },
      {
        "club_badge_src": null,
        "entry": 3304783,
        "entry_name": "Havertz your way",
        "event_total": 61,
        "has_played": true,
        "id": 24478824,
        "last_rank": 66200,
        "player_name": "Theo Redgrave",
        "rank": 58227,
        "rank_sort": 58316,
        "total": 2347
      },
      {
        "club_badge_src": null,
        "entry": 3356197,
        "entry_name": "C for Cherki",
        "event_total": 61,
        "has_played": true,
        "id": 24900009,
        "last_rank": 66057,
        "player_name": "Aashraya Badal",
        "rank": 58227,
        "rank_sort": 58317,
        "total": 2347
      },
      {
        "club_badge_src": "https://fantasy.premierleague.com/gcs/plfpl-production-adobe-approved/plfpl-production/3410228/7ae44983-c142-4810-88bf-9a46445d364c.png",
        "entry": 3410228,
        "entry_name": "munt salah",
        "event_total": 57,
        "has_played": true,
        "id": 25326001,
        "last_rank": 58911,
        "player_name": "Jack Joyce",
        "rank": 58227,
        "rank_sort": 58318,
        "total": 2347
      },
      {
        "club_badge_src": "https://fantasy.premierleague.com/gcs/plfpl-production-adobe-approved/plfpl-production/3442263/7d09993b-fa31-4ddf-bb2e-ee435f9e5354.png",
        "entry": 3442263,
        "entry_name": "The T-Warriors",
        "event_total": 59,
        "has_played": true,
        "id": 25574364,
        "last_rank": 62617,
        "player_name": "Tehan Botha",
        "rank": 58227,
        "rank_sort": 58319,
        "total": 2347
      },
      {
        "club_badge_src": null,
        "entry": 3461307,
        "entry_name": "Hibs",
        "event_total": 43,
        "has_played": true,
        "id": 25728759,
        "last_rank": 38267,
        "player_name": "Calum Wilde",
        "rank": 58227,
        "rank_sort": 58320,
        "total": 2347
      },
      {
        "club_badge_src": null,
        "entry": 3623783,
        "entry_name": "Half the World Ndoye",
        "event_total": 59,
        "has_played": true,
        "id": 27000387,
        "last_rank": 62617,
        "player_name": "James Lewin",
        "rank": 58227,
        "rank_sort": 58321,
        "total": 2347
      },
      {
        "club_badge_src": null,
        "entry": 3656071,
        "entry_name": "Bensons Ballers",
        "event_total": 58,
        "has_played": true,
        "id": 27260997,
        "last_rank": 60671,
        "player_name": "Daniel Benson",
        "rank": 58227,
        "rank_sort": 58322,
        "total": 2347
      },
      {
        "club_badge_src": null,
        "entry": 3837655,
        "entry_name": "CHCC",
        "event_total": 67,
        "has_played": true,
        "id": 28726981,
        "last_rank": 69907,
        "player_name": "John Lysne",
        "rank": 58227,
        "rank_sort": 58323,
        "total": 2347
      },
      {
        "club_badge_src": null,
        "entry": 3887729,
        "entry_name": "Oranjeboom Headaches",
        "event_total": 62,
        "has_played": true,
        "id": 29213913,
        "last_rank": 60671,
        "player_name": "Danny Hill",
        "rank": 58227,
        "rank_sort": 58324,
        "total": 2347
      },
      {
        "club_badge_src": null,
        "entry": 3893586,
        "entry_name": "FAiSAL_UTD 48146",
        "event_total": 58,
        "has_played": true,
        "id": 29261807,
        "last_rank": 60827,
        "player_name": "Faisal Mohammed",
        "rank": 58227,
        "rank_sort": 58325,
        "total": 2347
      },
      {
        "club_badge_src": null,
        "entry": 4112276,
        "entry_name": "Change Name",
        "event_total": 47,
        "has_played": true,
        "id": 31057286,
        "last_rank": 43444,
        "player_name": "Narejan Singh",
        "rank": 58227,
        "rank_sort": 58326,
        "total": 2347
      },
      {
        "club_badge_src": null,
        "entry": 4192510,
        "entry_name": "Tad FC",
        "event_total": 81,
        "has_played": true,
        "id": 31729366,
        "last_rank": 113400,
        "player_name": "Derrick Agyapong Tetteh",
        "rank": 58227,
        "rank_sort": 58327,
        "total": 2347
      },
      {
        "club_badge_src": null,
        "entry": 4332384,
        "entry_name": "Beto Call Saul",
        "event_total": 69,
        "has_played": true,
        "id": 32886760,
        "last_rank": 82664,
        "player_name": "Josh Brock",
        "rank": 58227,
        "rank_sort": 58328,
        "total": 2347
      },
      {
        "club_badge_src": null,
        "entry": 4343081,
        "entry_name": "Vox-Populi, Vox-dei.",
        "event_total": 70,
        "has_played": true,
        "id": 32976718,
        "last_rank": 76128,
        "player_name": "Abdullahi Imam",
        "rank": 58227,
        "rank_sort": 58329,
        "total": 2347
      },
      {
        "club_badge_src": null,
        "entry": 4489146,
        "entry_name": "sad \ufffd",
        "event_total": 68,
        "has_played": true,
        "id": 34217812,
        "last_rank": 80651,
        "player_name": "Ahmed Hany",
        "rank": 58227,
        "rank_sort": 58330,
        "total": 2347
      },
      {
        "club_badge_src": null,
        "entry": 4494681,
        "entry_name": "FinCom United",
        "event_total": 49,
        "has_played": true,
        "id": 34263025,
        "last_rank": 40647,
        "player_name": "Anders Haegg",
        "rank": 58227,
        "rank_sort": 58331,
        "total": 2347
      },
      {
        "club_badge_src": "https://fantasy.premierleague.com/gcs/plfpl-production-adobe-approved/plfpl-production/4888467/c498cc52-2ecc-479e-91b1-2fb54f54ad12.png",
        "entry": 4888467,
        "entry_name": "ZiZo SqUaD",
        "event_total": 54,
        "has_played": true,
        "id": 37689386,
        "last_rank": 54065,
        "player_name": "AhMaD GaMaL ErFaN",
        "rank": 58227,
        "rank_sort": 58332,
        "total": 2347
      },
      {
        "club_badge_src": null,
        "entry": 4914982,
        "entry_name": "SpecialistInFailure",
        "event_total": 50,
        "has_played": true,
        "id": 37907594,
        "last_rank": 47722,
        "player_name": "Saleem Miah",
        "rank": 58227,
        "rank_sort": 58333,
        "total": 2347
      },
      {
        "club_badge_src": null,
        "entry": 5177008,
        "entry_name": "El mister",
        "event_total": 54,
        "has_played": true,
        "id": 40070570,
        "last_rank": 47596,
        "player_name": "Faisal Alsayyar",
        "rank": 58227,
        "rank_sort": 58334,
        "total": 2347
      },
      {
        "club_badge_src": null,
        "entry": 5244350,
        "entry_name": "Wirtz Case Scenario",
        "event_total": 64,
        "has_played": true,
        "id": 40643234,
        "last_rank": 64190,
        "player_name": "Pieter Britz",
        "rank": 58227,
        "rank_sort": 58335,
        "total": 2347
      },
      {
        "club_badge_src": null,
        "entry": 5290166,
        "entry_name": "Special One",
        "event_total": 65,
        "has_played": true,
        "id": 41005853,
        "last_rank": 74166,
        "player_name": "Murtaza Shaker",
        "rank": 58227,
        "rank_sort": 58336,
        "total": 2347
      },
      {
        "club_badge_src": null,
        "entry": 5554440,
        "entry_name": "Psykbryt FC",
        "event_total": 62,
        "has_played": true,
        "id": 43354880,
        "last_rank": 67926,
        "player_name": "Jesper Mattsson",
        "rank": 58227,
        "rank_sort": 58337,
        "total": 2347
      },
      {
        "club_badge_src": null,
        "entry": 5647267,
        "entry_name": "Easy win for Spurs",
        "event_total": 55,
        "has_played": true,
        "id": 44173814,
        "last_rank": 55514,
        "player_name": "Sachin Grover",
        "rank": 58227,
        "rank_sort": 58338,
        "total": 2347
      },
      {
        "club_badge_src": null,
        "entry": 5714080,
        "entry_name": "McGinn and Tonic",
        "event_total": 53,
        "has_played": true,
        "id": 44749679,
        "last_rank": 46106,
        "player_name": "Kristian Folberg",
        "rank": 58227,
        "rank_sort": 58339,
        "total": 2347
      },
      {
        "club_badge_src": null,
        "entry": 5872763,
        "entry_name": "Lads on toure",
        "event_total": 64,
        "has_played": true,
        "id": 46128565,
        "last_rank": 57001,
        "player_name": "Adam Baxter",
        "rank": 58227,
        "rank_sort": 58340,
        "total": 2347
      },
      {
        "club_badge_src": null,
        "entry": 5942014,
        "entry_name": "Eze does it",
        "event_total": 62,
        "has_played": true,
        "id": 46727169,
        "last_rank": 60671,
        "player_name": "Finlay Fraser",
        "rank": 58227,
        "rank_sort": 58341,
        "total": 2347
      },
      {
        "club_badge_src": "https://fantasy.premierleague.com/gcs/plfpl-production-adobe-approved/plfpl-production/6126297/3d37a8aa-3404-4c55-878b-ed259be01537.png",
        "entry": 6126297,
        "entry_name": "Hughes Calling Me?",
        "event_total": 67,
        "has_played": true,
        "id": 48405837,
        "last_rank": 78244,
        "player_name": "Ciaran Barron",
        "rank": 58227,
        "rank_sort": 58342,
        "total": 2347
      },
      {
        "club_badge_src": null,
        "entry": 6171126,
        "entry_name": "Pamsbest",
        "event_total": 69,
        "has_played": true,
        "id": 48795552,
        "last_rank": 73975,
        "player_name": "Pam Leamy",
        "rank": 58227,
        "rank_sort": 58343,
        "total": 2347
      },
      {
        "club_badge_src": null,
        "entry": 6198184,
        "entry_name": "Pocket Elevens FC",
        "event_total": 59,
        "has_played": true,
        "id": 49029810,
        "last_rank": 62617,
        "player_name": "Matt Blakeman",
        "rank": 58227,
        "rank_sort": 58344,
        "total": 2347
      },
      {
        "club_badge_src": null,
        "entry": 6345888,
        "entry_name": "Big Sniff United",
        "event_total": 49,
        "has_played": true,
        "id": 50442039,
        "last_rank": 46236,
        "player_name": "David Doherty",
        "rank": 58227,
        "rank_sort": 58345,
        "total": 2347
      },
      {
        "club_badge_src": "https://fantasy.premierleague.com/gcs/plfpl-production-adobe-approved/plfpl-production/6412482/ccf2b7a8-7b7a-468c-9f76-7535cc6a8766.png",
        "entry": 6412482,
        "entry_name": "Me, Myself, Ndiaye",
        "event_total": 55,
        "has_played": true,
        "id": 51030554,
        "last_rank": 55659,
        "player_name": "Abubakar Kachallah",
        "rank": 58227,
        "rank_sort": 58346,
        "total": 2347
      },
      {
        "club_badge_src": null,
        "entry": 6543533,
        "entry_name": "delegati",
        "event_total": 59,
        "has_played": true,
        "id": 52209822,
        "last_rank": 62429,
        "player_name": "Kenan Hatibovi\u0107",
        "rank": 58227,
        "rank_sort": 58347,
        "total": 2347
      },
      {
        "club_badge_src": null,
        "entry": 6547089,
        "entry_name": "Donal FC",
        "event_total": 69,
        "has_played": true,
        "id": 52241507,
        "last_rank": 82873,
        "player_name": "Donal McGeough",
        "rank": 58227,
        "rank_sort": 58348,
        "total": 2347
      },
      {
        "club_badge_src": "https://fantasy.premierleague.com/gcs/plfpl-production-adobe-approved/plfpl-production/6565556/ea9a360a-24c6-413d-be5b-98a1ef3f5473.png",
        "entry": 6565556,
        "entry_name": "CTRL ALT DE LIGT",
        "event_total": 44,
        "has_played": true,
        "id": 52405546,
        "last_rank": 39510,
        "player_name": "Terri Gascoigne",
        "rank": 58227,
        "rank_sort": 58349,
        "total": 2347
      },
      {
        "club_badge_src": null,
        "entry": 6672390,
        "entry_name": "3\u96bb\u9b91\u9b5a6\u500b\u6ce2",
        "event_total": 68,
        "has_played": true,
        "id": 53365586,
        "last_rank": 80651,
        "player_name": "Isaac Lok",
        "rank": 58227,
        "rank_sort": 58350,
        "total": 2347
      }
    ]
  }
}