{
  "last_updated_data": "2026-05-24T23:28:17Z",
  "league": {
    "admin_entry": null,
    "closed": false,
    "code_privacy": "p",
    "created": "2025-07-20T23:14:33.933835Z",
    "cup_league": 2815434,
    "has_cup": true,
    "id": 314,
    "league_type": "s",
    "max_entries": null,
    "name": "Overall",
    "rank": null,
    "scoring": "c",
    "start_event": 1
  },
  "new_entries": {
    "has_next": false,
    "page": 1,
    "results": []
  },
  "standings": {
    "has_next": true,
    "page": 1107,
    "results": [
      {
        "club_badge_src": null,
        "entry": 3286395,
        "entry_name": "LUCKY SEVEN 7",
        "event_total": 61,
        "has_played": true,
        "id": 24328299,
        "last_rank": 62874,
        "player_name": "JIMMY WIJAYA",
        "rank": 55273,
        "rank_sort": 55301,
        "total": 2349
      },
      {
        "club_badge_src": null,
        "entry": 4604981,
        "entry_name": "Sameh\u2019s team",
        "event_total": 75,
        "has_played": true,
        "id": 35182191,
        "last_rank": 83127,
        "player_name": "sameh ramadan",
        "rank": 55273,
        "rank_sort": 55302,
        "total": 2349
      },
      {
        "club_badge_src": null,
        "entry": 4746439,
        "entry_name": "Kaboria 22",
        "event_total": 57,
        "has_played": true,
        "id": 36521768,
        "last_rank": 49368,
        "player_name": "Mohamed Sabry",
        "rank": 55273,
        "rank_sort": 55303,
        "total": 2349
      },
      {
        "club_badge_src": null,
        "entry": 4887564,
        "entry_name": "Slots Machine",
        "event_total": 76,
        "has_played": true,
        "id": 37682159,
        "last_rank": 85487,
        "player_name": "Kieran Eyres",
        "rank": 55273,
        "rank_sort": 55304,
        "total": 2349
      },
      {
        "club_badge_src": null,
        "entry": 4896577,
        "entry_name": "Zayeed FC",
        "event_total": 62,
        "has_played": true,
        "id": 37755920,
        "last_rank": 57451,
        "player_name": "Zayeed Ajibola",
        "rank": 55273,
        "rank_sort": 55305,
        "total": 2349
      },
      {
        "club_badge_src": null,
        "entry": 6059694,
        "entry_name": "marti",
        "event_total": 40,
        "has_played": true,
        "id": 47823320,
        "last_rank": 32531,
        "player_name": "Martijn Peeters",
        "rank": 55273,
        "rank_sort": 55306,
        "total": 2349
      },
      {
        "club_badge_src": null,
        "entry": 7089460,
        "entry_name": "Gasky's army",
        "event_total": 50,
        "has_played": true,
        "id": 57076350,
        "last_rank": 34682,
        "player_name": "Ad Gaskarth",
        "rank": 55273,
        "rank_sort": 55307,
        "total": 2349
      },
      {
        "club_badge_src": null,
        "entry": 7284392,
        "entry_name": "Muscat City",
        "event_total": 69,
        "has_played": true,
        "id": 58930647,
        "last_rank": 78730,
        "player_name": "Roderick Muscat",
        "rank": 55273,
        "rank_sort": 55308,
        "total": 2349
      },
      {
        "club_badge_src": null,
        "entry": 7864969,
        "entry_name": "One More Bet FC",
        "event_total": 69,
        "has_played": true,
        "id": 64667899,
        "last_rank": 78730,
        "player_name": "Nestor Rossi",
        "rank": 55273,
        "rank_sort": 55309,
        "total": 2349
      },
      {
        "club_badge_src": null,
        "entry": 8725157,
        "entry_name": "wolves",
        "event_total": 80,
        "has_played": true,
        "id": 72824309,
        "last_rank": 95063,
        "player_name": "ali sherif",
        "rank": 55273,
        "rank_sort": 55310,
        "total": 2349
      },
      {
        "club_badge_src": null,
        "entry": 8815272,
        "entry_name": "ALAYHAM ALI",
        "event_total": 56,
        "has_played": true,
        "id": 73691384,
        "last_rank": 42152,
        "player_name": "ALAYHAM ali",
        "rank": 55273,
        "rank_sort": 55311,
        "total": 2349
      },
      {
        "club_badge_src": null,
        "entry": 9185898,
        "entry_name": "Slot me out",
        "event_total": 60,
        "has_played": true,
        "id": 77295123,
        "last_rank": 54134,
        "player_name": "Joe Haynes",
        "rank": 55273,
        "rank_sort": 55312,
        "total": 2349
      },
      {
        "club_badge_src": null,
        "entry": 14194,
        "entry_name": "Spurzie",
        "event_total": 51,
        "has_played": true,
        "id": 86081,
        "last_rank": 35969,
        "player_name": "Leith Buchanan",
        "rank": 55313,
        "rank_sort": 55313,
        "total": 2349
      },
      {
        "club_badge_src": "https://fantasy.premierleague.com/gcs/plfpl-production-adobe-approved/plfpl-production/170447/938db3aa-670b-4a71-8ce7-7bfa3730b9af.png",
        "entry": 170447,
        "entry_name": "alolo",
        "event_total": 56,
        "has_played": true,
        "id": 1126116,
        "last_rank": 47920,
        "player_name": "ali lol",
        "rank": 55313,
        "rank_sort": 55314,
        "total": 2349
      },
      {
        "club_badge_src": null,
        "entry": 182088,
        "entry_name": "GOOFY GOALSCORERS",
        "event_total": 67,
        "has_played": true,
        "id": 1201597,
        "last_rank": 74395,
        "player_name": "Matej Jarc",
        "rank": 55313,
        "rank_sort": 55315,
        "total": 2349
      },
      {
        "club_badge_src": null,
        "entry": 562797,
        "entry_name": "TopDogWannabe",
        "event_total": 49,
        "has_played": true,
        "id": 3788144,
        "last_rank": 43637,
        "player_name": "Phil --",
        "rank": 55313,
        "rank_sort": 55316,
        "total": 2349
      },
      {
        "club_badge_src": null,
        "entry": 753499,
        "entry_name": "XG is a scam",
        "event_total": 57,
        "has_played": true,
        "id": 5127841,
        "last_rank": 49407,
        "player_name": "Ajinkya Avachat",
        "rank": 55313,
        "rank_sort": 55317,
        "total": 2349
      },
      {
        "club_badge_src": null,
        "entry": 932864,
        "entry_name": "Obi Wan Iwobi",
        "event_total": 80,
        "has_played": true,
        "id": 6419117,
        "last_rank": 95147,
        "player_name": "Conor McGreivy",
        "rank": 55313,
        "rank_sort": 55318,
        "total": 2349
      },
      {
        "club_badge_src": null,
        "entry": 1154995,
        "entry_name": "kentaky",
        "event_total": 60,
        "has_played": true,
        "id": 8009108,
        "last_rank": 47868,
        "player_name": "Hassan Kamel",
        "rank": 55313,
        "rank_sort": 55319,
        "total": 2349
      },
      {
        "club_badge_src": null,
        "entry": 1158669,
        "entry_name": "Like a G6x",
        "event_total": 66,
        "has_played": true,
        "id": 8035534,
        "last_rank": 64562,
        "player_name": "Siang Loong Lee",
        "rank": 55313,
        "rank_sort": 55320,
        "total": 2349
      },
      {
        "club_badge_src": null,
        "entry": 1490288,
        "entry_name": "Rice Rice baby",
        "event_total": 56,
        "has_played": true,
        "id": 10392556,
        "last_rank": 54218,
        "player_name": "Dylan Howe",
        "rank": 55313,
        "rank_sort": 55321,
        "total": 2349
      },
      {
        "club_badge_src": null,
        "entry": 2555545,
        "entry_name": "Neo",
        "event_total": 65,
        "has_played": true,
        "id": 18324829,
        "last_rank": 70414,
        "player_name": "Kevin Palladan",
        "rank": 55313,
        "rank_sort": 55322,
        "total": 2349
      },
      {
        "club_badge_src": null,
        "entry": 2813316,
        "entry_name": "Aassippu FC",
        "event_total": 65,
        "has_played": true,
        "id": 20548386,
        "last_rank": 62874,
        "player_name": "Aassippu FC",
        "rank": 55313,
        "rank_sort": 55323,
        "total": 2349
      },
      {
        "club_badge_src": null,
        "entry": 2817412,
        "entry_name": "Restart PC",
        "event_total": 58,
        "has_played": true,
        "id": 20579119,
        "last_rank": 57596,
        "player_name": "M MATIC",
        "rank": 55313,
        "rank_sort": 55324,
        "total": 2349
      },
      {
        "club_badge_src": null,
        "entry": 3229829,
        "entry_name": "Beni and the jets",
        "event_total": 58,
        "has_played": true,
        "id": 23886925,
        "last_rank": 57557,
        "player_name": "Cammy Lennie",
        "rank": 55313,
        "rank_sort": 55325,
        "total": 2349
      },
      {
        "club_badge_src": null,
        "entry": 3454033,
        "entry_name": "Farcelona",
        "event_total": 58,
        "has_played": true,
        "id": 25670179,
        "last_rank": 57557,
        "player_name": "Stephen Offord",
        "rank": 55313,
        "rank_sort": 55326,
        "total": 2349
      },
      {
        "club_badge_src": null,
        "entry": 4102411,
        "entry_name": "FC Chyby",
        "event_total": 58,
        "has_played": true,
        "id": 30978850,
        "last_rank": 44950,
        "player_name": "Maks Walkowski",
        "rank": 55313,
        "rank_sort": 55327,
        "total": 2349
      },
      {
        "club_badge_src": null,
        "entry": 4106808,
        "entry_name": "The Honest J's",
        "event_total": 72,
        "has_played": true,
        "id": 31013949,
        "last_rank": 76638,
        "player_name": "mark Jessett",
        "rank": 55313,
        "rank_sort": 55328,
        "total": 2349
      },
      {
        "club_badge_src": null,
        "entry": 4170561,
        "entry_name": "ViVe LA France04",
        "event_total": 53,
        "has_played": true,
        "id": 31541584,
        "last_rank": 43607,
        "player_name": "Dario Nikolic",
        "rank": 55313,
        "rank_sort": 55329,
        "total": 2349
      },
      {
        "club_badge_src": null,
        "entry": 4517745,
        "entry_name": "Squidwirtz",
        "event_total": 40,
        "has_played": true,
        "id": 34451856,
        "last_rank": 32576,
        "player_name": "George Leslie",
        "rank": 55313,
        "rank_sort": 55330,
        "total": 2349
      },
      {
        "club_badge_src": null,
        "entry": 4536308,
        "entry_name": "Milltown Muppets",
        "event_total": 72,
        "has_played": true,
        "id": 34605431,
        "last_rank": 85565,
        "player_name": "Peter Mulvihill",
        "rank": 55313,
        "rank_sort": 55331,
        "total": 2349
      },
      {
        "club_badge_src": null,
        "entry": 5611028,
        "entry_name": "Well Chel FC",
        "event_total": 50,
        "has_played": true,
        "id": 43852019,
        "last_rank": 45007,
        "player_name": "Paz Chauhan",
        "rank": 55313,
        "rank_sort": 55332,
        "total": 2349
      },
      {
        "club_badge_src": null,
        "entry": 7459402,
        "entry_name": "VGS",
        "event_total": 52,
        "has_played": true,
        "id": 60758191,
        "last_rank": 47950,
        "player_name": "EVANGELOS ILIADIS",
        "rank": 55313,
        "rank_sort": 55333,
        "total": 2349
      },
      {
        "club_badge_src": null,
        "entry": 97742,
        "entry_name": "A Saka Rice",
        "event_total": 57,
        "has_played": true,
        "id": 638361,
        "last_rank": 55932,
        "player_name": "Dennis Western",
        "rank": 55334,
        "rank_sort": 55334,
        "total": 2349
      },
      {
        "club_badge_src": null,
        "entry": 268142,
        "entry_name": "u can't be seifer",
        "event_total": 55,
        "has_played": true,
        "id": 1783835,
        "last_rank": 46432,
        "player_name": "seif Galal",
        "rank": 55334,
        "rank_sort": 55335,
        "total": 2349
      },
      {
        "club_badge_src": null,
        "entry": 276659,
        "entry_name": "NRG",
        "event_total": 80,
        "has_played": true,
        "id": 1841343,
        "last_rank": 105529,
        "player_name": "sary elkhodary",
        "rank": 55334,
        "rank_sort": 55336,
        "total": 2349
      },
      {
        "club_badge_src": null,
        "entry": 307712,
        "entry_name": "KuangHasam FC",
        "event_total": 70,
        "has_played": true,
        "id": 2060994,
        "last_rank": 72407,
        "player_name": "M\u0631\u0627\u0632\u064aM FFx",
        "rank": 55334,
        "rank_sort": 55337,
        "total": 2349
      },
      {
        "club_badge_src": null,
        "entry": 459868,
        "entry_name": "Santos Wirtz FC",
        "event_total": 50,
        "has_played": true,
        "id": 3084931,
        "last_rank": 39703,
        "player_name": "Lino Emz",
        "rank": 55334,
        "rank_sort": 55338,
        "total": 2349
      },
      {
        "club_badge_src": null,
        "entry": 492095,
        "entry_name": "FC Belperlona",
        "event_total": 67,
        "has_played": true,
        "id": 3303105,
        "last_rank": 74561,
        "player_name": "Andy Briggs",
        "rank": 55334,
        "rank_sort": 55339,
        "total": 2349
      },
      {
        "club_badge_src": "https://fantasy.premierleague.com/gcs/plfpl-production-adobe-approved/plfpl-production/522125/77850694-6942-42d7-b116-d649a7ae9925.png",
        "entry": 522125,
        "entry_name": "Charli xGx",
        "event_total": 67,
        "has_played": true,
        "id": 3506645,
        "last_rank": 74474,
        "player_name": "Em Reid",
        "rank": 55334,
        "rank_sort": 55340,
        "total": 2349
      },
      {
        "club_badge_src": null,
        "entry": 820487,
        "entry_name": "MCSIRI",
        "event_total": 52,
        "has_played": true,
        "id": 5619277,
        "last_rank": 37211,
        "player_name": "Khajornpon Sirivilaisak",
        "rank": 55334,
        "rank_sort": 55341,
        "total": 2349
      },
      {
        "club_badge_src": null,
        "entry": 915892,
        "entry_name": "nino",
        "event_total": 51,
        "has_played": true,
        "id": 6298113,
        "last_rank": 46406,
        "player_name": "Ever Nino",
        "rank": 55334,
        "rank_sort": 55342,
        "total": 2349
      },
      {
        "club_badge_src": null,
        "entry": 1088121,
        "entry_name": "boudy",
        "event_total": 59,
        "has_played": true,
        "id": 7535803,
        "last_rank": 46406,
        "player_name": "Abdelrhman Omer",
        "rank": 55334,
        "rank_sort": 55343,
        "total": 2349
      },
      {
        "club_badge_src": null,
        "entry": 1176211,
        "entry_name": "Muffins",
        "event_total": 72,
        "has_played": true,
        "id": 8161127,
        "last_rank": 85672,
        "player_name": "Smari Gunnarsson",
        "rank": 55334,
        "rank_sort": 55344,
        "total": 2349
      },
      {
        "club_badge_src": null,
        "entry": 1281794,
        "entry_name": "elsayed elghnam \ufffd",
        "event_total": 56,
        "has_played": true,
        "id": 8906837,
        "last_rank": 47950,
        "player_name": "elsayed adel",
        "rank": 55334,
        "rank_sort": 55345,
        "total": 2349
      },
      {
        "club_badge_src": null,
        "entry": 1964040,
        "entry_name": "Bento Box FC",
        "event_total": 56,
        "has_played": true,
        "id": 13857862,
        "last_rank": 47950,
        "player_name": "Ben Blaikie",
        "rank": 55334,
        "rank_sort": 55346,
        "total": 2349
      },
      {
        "club_badge_src": null,
        "entry": 2203863,
        "entry_name": "Handi FC",
        "event_total": 60,
        "has_played": true,
        "id": 15684207,
        "last_rank": 61118,
        "player_name": "Andy Ak",
        "rank": 55334,
        "rank_sort": 55347,
        "total": 2349
      },
      {
        "club_badge_src": "https://fantasy.premierleague.com/gcs/plfpl-production-adobe-approved/plfpl-production/2288583/bfa13f80-12e0-4240-8b9f-f931dc55aec5.png",
        "entry": 2288583,
        "entry_name": "Walk against People",
        "event_total": 66,
        "has_played": true,
        "id": 16321672,
        "last_rank": 72495,
        "player_name": "Mr. Traveling",
        "rank": 55334,
        "rank_sort": 55348,
        "total": 2349
      },
      {
        "club_badge_src": null,
        "entry": 2541943,
        "entry_name": "Ben(10)chod FC",
        "event_total": 68,
        "has_played": true,
        "id": 18218043,
        "last_rank": 68351,
        "player_name": "You Outta Pocket",
        "rank": 55334,
        "rank_sort": 55349,
        "total": 2349
      },
      {
        "club_badge_src": null,
        "entry": 3067356,
        "entry_name": "Bluerollutd",
        "event_total": 68,
        "has_played": true,
        "id": 22585220,
        "last_rank": 68395,
        "player_name": "Steven Hutchens",
        "rank": 55334,
        "rank_sort": 55350,
        "total": 2349
      }
    ]
  }
}