{
  "last_updated_data": "2026-05-24T23:28:17Z",
  "league": {
    "admin_entry": null,
    "closed": false,
    "code_privacy": "p",
    "created": "2025-07-20T23:14:33.933835Z",
    "cup_league": 2815434,
    "has_cup": true,
    "id": 314,
    "league_type": "s",
    "max_entries": null,
    "name": "Overall",
    "rank": null,
    "scoring": "c",
    "start_event": 1
  },
  "new_entries": {
    "has_next": false,
    "page": 1,
    "results": []
  },
  "standings": {
    "has_next": true,
    "page": 333,
    "results": [
      {
        "club_badge_src": null,
        "entry": 975561,
        "entry_name": "Kroos Control",
        "event_total": 61,
        "has_played": true,
        "id": 6725073,
        "last_rank": 18790,
        "player_name": "Alstaedt Hulme",
        "rank": 16559,
        "rank_sort": 16601,
        "total": 2385
      },
      {
        "club_badge_src": "https://fantasy.premierleague.com/gcs/plfpl-production-adobe-approved/plfpl-production/995676/0930b127-1634-4ddd-a670-28662fa4fe13.png",
        "entry": 995676,
        "entry_name": "Pablo Seskobar",
        "event_total": 55,
        "has_played": true,
        "id": 6872840,
        "last_rank": 14926,
        "player_name": "Nafish Ahsan",
        "rank": 16559,
        "rank_sort": 16602,
        "total": 2385
      },
      {
        "club_badge_src": null,
        "entry": 1123602,
        "entry_name": "Change Name",
        "event_total": 30,
        "has_played": true,
        "id": 7786192,
        "last_rank": 5241,
        "player_name": "Alex Bailey",
        "rank": 16559,
        "rank_sort": 16603,
        "total": 2385
      },
      {
        "club_badge_src": null,
        "entry": 1209512,
        "entry_name": "Bowen 747",
        "event_total": 56,
        "has_played": true,
        "id": 8394792,
        "last_rank": 15694,
        "player_name": "Mitch Burgess",
        "rank": 16559,
        "rank_sort": 16604,
        "total": 2385
      },
      {
        "club_badge_src": null,
        "entry": 1242326,
        "entry_name": "Monsters",
        "event_total": 67,
        "has_played": true,
        "id": 8627843,
        "last_rank": 23188,
        "player_name": "MONSTERS 2",
        "rank": 16559,
        "rank_sort": 16605,
        "total": 2385
      },
      {
        "club_badge_src": null,
        "entry": 1249660,
        "entry_name": "JD FC",
        "event_total": 66,
        "has_played": true,
        "id": 8678856,
        "last_rank": 22426,
        "player_name": "Joshua Donnelly",
        "rank": 16559,
        "rank_sort": 16606,
        "total": 2385
      },
      {
        "club_badge_src": "https://fantasy.premierleague.com/gcs/plfpl-production-adobe-approved/plfpl-production/1428438/d486e861-9f69-48b4-a0b3-2a21b2d69ccd.png",
        "entry": 1428438,
        "entry_name": "Marty Wanderers",
        "event_total": 60,
        "has_played": true,
        "id": 9953203,
        "last_rank": 18113,
        "player_name": "Kathryn Davies",
        "rank": 16559,
        "rank_sort": 16607,
        "total": 2385
      },
      {
        "club_badge_src": null,
        "entry": 1505818,
        "entry_name": "HDS Sunset",
        "event_total": 66,
        "has_played": true,
        "id": 10501810,
        "last_rank": 22534,
        "player_name": "Tom Vanscheeuwyck",
        "rank": 16559,
        "rank_sort": 16608,
        "total": 2385
      },
      {
        "club_badge_src": null,
        "entry": 1517708,
        "entry_name": "LastOnesTheWinner",
        "event_total": 69,
        "has_played": true,
        "id": 10585543,
        "last_rank": 25002,
        "player_name": "Andrew Palmer",
        "rank": 16559,
        "rank_sort": 16609,
        "total": 2385
      },
      {
        "club_badge_src": null,
        "entry": 1520439,
        "entry_name": "Svettegutter FC",
        "event_total": 62,
        "has_played": true,
        "id": 10604680,
        "last_rank": 19432,
        "player_name": "Markus Canny",
        "rank": 16559,
        "rank_sort": 16610,
        "total": 2385
      },
      {
        "club_badge_src": null,
        "entry": 1521045,
        "entry_name": "RobboKop",
        "event_total": 53,
        "has_played": true,
        "id": 10608905,
        "last_rank": 13720,
        "player_name": "Mark Lewis",
        "rank": 16559,
        "rank_sort": 16611,
        "total": 2385
      },
      {
        "club_badge_src": null,
        "entry": 1621895,
        "entry_name": "Ctrl Alt De Ligt",
        "event_total": 64,
        "has_played": true,
        "id": 11351065,
        "last_rank": 20983,
        "player_name": "Haroon Zia",
        "rank": 16559,
        "rank_sort": 16612,
        "total": 2385
      },
      {
        "club_badge_src": null,
        "entry": 1792714,
        "entry_name": "BigSam FC",
        "event_total": 62,
        "has_played": true,
        "id": 12597211,
        "last_rank": 19432,
        "player_name": "Samuel Ogunniyi",
        "rank": 16559,
        "rank_sort": 16613,
        "total": 2385
      },
      {
        "club_badge_src": null,
        "entry": 1798775,
        "entry_name": "Mcginn and Tonic",
        "event_total": 40,
        "has_played": true,
        "id": 12641458,
        "last_rank": 8032,
        "player_name": "Brandon Campbell",
        "rank": 16559,
        "rank_sort": 16614,
        "total": 2385
      },
      {
        "club_badge_src": null,
        "entry": 1800443,
        "entry_name": "We'll have a look",
        "event_total": 59,
        "has_played": true,
        "id": 12654554,
        "last_rank": 17311,
        "player_name": "Finn Begley",
        "rank": 16559,
        "rank_sort": 16615,
        "total": 2385
      },
      {
        "club_badge_src": null,
        "entry": 1964775,
        "entry_name": "CBA",
        "event_total": 53,
        "has_played": true,
        "id": 13863332,
        "last_rank": 13947,
        "player_name": "Adam Masters",
        "rank": 16559,
        "rank_sort": 16616,
        "total": 2385
      },
      {
        "club_badge_src": null,
        "entry": 1966929,
        "entry_name": "Cash League Winner",
        "event_total": 65,
        "has_played": true,
        "id": 13880545,
        "last_rank": 21775,
        "player_name": "James Costello",
        "rank": 16559,
        "rank_sort": 16617,
        "total": 2385
      },
      {
        "club_badge_src": null,
        "entry": 1983538,
        "entry_name": "Funes Moribund",
        "event_total": 61,
        "has_played": true,
        "id": 14010465,
        "last_rank": 18790,
        "player_name": "Paul Birtwistle",
        "rank": 16559,
        "rank_sort": 16618,
        "total": 2385
      },
      {
        "club_badge_src": null,
        "entry": 2018783,
        "entry_name": "\u0645\u062d\u0645\u062f \u0631\u062a\u0627\u062c",
        "event_total": 75,
        "has_played": true,
        "id": 14283400,
        "last_rank": 30600,
        "player_name": "ait baghfar mouhsine",
        "rank": 16559,
        "rank_sort": 16619,
        "total": 2385
      },
      {
        "club_badge_src": null,
        "entry": 2138579,
        "entry_name": "sissou fpl",
        "event_total": 59,
        "has_played": true,
        "id": 15198611,
        "last_rank": 14857,
        "player_name": "sidahmed ouarguii",
        "rank": 16559,
        "rank_sort": 16620,
        "total": 2385
      },
      {
        "club_badge_src": null,
        "entry": 2176936,
        "entry_name": "Yonkers",
        "event_total": 62,
        "has_played": true,
        "id": 15480629,
        "last_rank": 19392,
        "player_name": "Kenneth Joreid",
        "rank": 16559,
        "rank_sort": 16621,
        "total": 2385
      },
      {
        "club_badge_src": null,
        "entry": 2209567,
        "entry_name": "Team Hks \ufffd",
        "event_total": 55,
        "has_played": true,
        "id": 15734090,
        "last_rank": 15063,
        "player_name": "Hk Bhai",
        "rank": 16559,
        "rank_sort": 16622,
        "total": 2385
      },
      {
        "club_badge_src": null,
        "entry": 2227171,
        "entry_name": "Ekitik\u00e9 Takkie",
        "event_total": 64,
        "has_played": true,
        "id": 15864531,
        "last_rank": 20888,
        "player_name": "Thomas van den Berg",
        "rank": 16559,
        "rank_sort": 16623,
        "total": 2385
      },
      {
        "club_badge_src": null,
        "entry": 2236569,
        "entry_name": "Angry Amadiallos",
        "event_total": 62,
        "has_played": true,
        "id": 15933253,
        "last_rank": 19544,
        "player_name": "Kaiser Low",
        "rank": 16559,
        "rank_sort": 16624,
        "total": 2385
      },
      {
        "club_badge_src": null,
        "entry": 2241520,
        "entry_name": "Delap Dance",
        "event_total": 69,
        "has_played": true,
        "id": 15969227,
        "last_rank": 25002,
        "player_name": "George Brown",
        "rank": 16559,
        "rank_sort": 16625,
        "total": 2385
      },
      {
        "club_badge_src": "https://fantasy.premierleague.com/gcs/plfpl-production-adobe-approved/plfpl-production/2277350/f8dc4462-e5e7-4b01-b87e-4b0acbd2fe92.png",
        "entry": 2277350,
        "entry_name": "Bridge The Gap",
        "event_total": 82,
        "has_played": true,
        "id": 16239513,
        "last_rank": 38542,
        "player_name": "Jeevan Acharya",
        "rank": 16559,
        "rank_sort": 16626,
        "total": 2385
      },
      {
        "club_badge_src": null,
        "entry": 2499338,
        "entry_name": "BEKKS",
        "event_total": 69,
        "has_played": true,
        "id": 17894998,
        "last_rank": 25002,
        "player_name": "Blake Keogh-Kedar",
        "rank": 16559,
        "rank_sort": 16627,
        "total": 2385
      },
      {
        "club_badge_src": null,
        "entry": 2592653,
        "entry_name": "Panther FC",
        "event_total": 60,
        "has_played": true,
        "id": 18615048,
        "last_rank": 18113,
        "player_name": "Singye Dorji",
        "rank": 16559,
        "rank_sort": 16628,
        "total": 2385
      },
      {
        "club_badge_src": null,
        "entry": 2598044,
        "entry_name": "Reid all about it",
        "event_total": 59,
        "has_played": true,
        "id": 18658039,
        "last_rank": 17437,
        "player_name": "steven reid",
        "rank": 16559,
        "rank_sort": 16629,
        "total": 2385
      },
      {
        "club_badge_src": null,
        "entry": 2610463,
        "entry_name": "Athletico Turtlehead",
        "event_total": 70,
        "has_played": true,
        "id": 18754705,
        "last_rank": 25776,
        "player_name": "William Davies",
        "rank": 16559,
        "rank_sort": 16630,
        "total": 2385
      },
      {
        "club_badge_src": null,
        "entry": 2615305,
        "entry_name": "ChickenBaltiPieFC",
        "event_total": 59,
        "has_played": true,
        "id": 18791048,
        "last_rank": 17358,
        "player_name": "Mark Kenny",
        "rank": 16559,
        "rank_sort": 16631,
        "total": 2385
      },
      {
        "club_badge_src": "https://fantasy.premierleague.com/gcs/plfpl-production-adobe-approved/plfpl-production/2691036/bcfb64f6-79e7-4bbe-b290-b6411eecfa73.png",
        "entry": 2691036,
        "entry_name": "odegaard, not again",
        "event_total": 55,
        "has_played": true,
        "id": 19356140,
        "last_rank": 14926,
        "player_name": "Jonathan Cohen",
        "rank": 16559,
        "rank_sort": 16632,
        "total": 2385
      },
      {
        "club_badge_src": null,
        "entry": 2706440,
        "entry_name": "Mads ting innit",
        "event_total": 53,
        "has_played": true,
        "id": 19471258,
        "last_rank": 13821,
        "player_name": "Chiro The Churro",
        "rank": 16559,
        "rank_sort": 16633,
        "total": 2385
      },
      {
        "club_badge_src": null,
        "entry": 2754904,
        "entry_name": "FC Carabao",
        "event_total": 69,
        "has_played": true,
        "id": 20058117,
        "last_rank": 25002,
        "player_name": "Silent Striker",
        "rank": 16559,
        "rank_sort": 16634,
        "total": 2385
      },
      {
        "club_badge_src": null,
        "entry": 3046891,
        "entry_name": "Cristiano H\u00f8jlundo",
        "event_total": 63,
        "has_played": true,
        "id": 22429358,
        "last_rank": 20280,
        "player_name": "Jacob Wyles",
        "rank": 16559,
        "rank_sort": 16635,
        "total": 2385
      },
      {
        "club_badge_src": null,
        "entry": 3086904,
        "entry_name": "Gy\u00f6nkon",
        "event_total": 56,
        "has_played": true,
        "id": 22743751,
        "last_rank": 15550,
        "player_name": "Dan Bruce",
        "rank": 16559,
        "rank_sort": 16636,
        "total": 2385
      },
      {
        "club_badge_src": null,
        "entry": 3249167,
        "entry_name": "Pr\u00e4stens lilla kr\u00e5ka",
        "event_total": 74,
        "has_played": true,
        "id": 24038668,
        "last_rank": 29522,
        "player_name": "Jonas Borgelin",
        "rank": 16559,
        "rank_sort": 16637,
        "total": 2385
      },
      {
        "club_badge_src": null,
        "entry": 3282271,
        "entry_name": "Bissaka the Net \u2692\ufe0f",
        "event_total": 59,
        "has_played": true,
        "id": 24295760,
        "last_rank": 17311,
        "player_name": "Nick Friend",
        "rank": 16559,
        "rank_sort": 16638,
        "total": 2385
      },
      {
        "club_badge_src": null,
        "entry": 3326860,
        "entry_name": "Iwobi-Wan Kenobi",
        "event_total": 62,
        "has_played": true,
        "id": 24664896,
        "last_rank": 19432,
        "player_name": "Amy Chung",
        "rank": 16559,
        "rank_sort": 16639,
        "total": 2385
      },
      {
        "club_badge_src": null,
        "entry": 3557735,
        "entry_name": "Practical Gy\u00f6keres",
        "event_total": 48,
        "has_played": true,
        "id": 26488687,
        "last_rank": 11237,
        "player_name": "Joe Q",
        "rank": 16559,
        "rank_sort": 16640,
        "total": 2385
      },
      {
        "club_badge_src": null,
        "entry": 3701156,
        "entry_name": "Bees Knees FC",
        "event_total": 67,
        "has_played": true,
        "id": 27614685,
        "last_rank": 23341,
        "player_name": "John Fossett",
        "rank": 16559,
        "rank_sort": 16641,
        "total": 2385
      },
      {
        "club_badge_src": null,
        "entry": 3756605,
        "entry_name": "Stachs juicy crach",
        "event_total": 48,
        "has_played": true,
        "id": 28047399,
        "last_rank": 11175,
        "player_name": "Noah Hammond",
        "rank": 16559,
        "rank_sort": 16642,
        "total": 2385
      },
      {
        "club_badge_src": "https://fantasy.premierleague.com/gcs/plfpl-production-adobe-approved/plfpl-production/3761843/b6dd8fed-ad98-49a0-9fca-1479670cae5b.png",
        "entry": 3761843,
        "entry_name": "One Man Wolfpack",
        "event_total": 44,
        "has_played": true,
        "id": 28087615,
        "last_rank": 9536,
        "player_name": "Jacob Howarth",
        "rank": 16559,
        "rank_sort": 16643,
        "total": 2385
      },
      {
        "club_badge_src": null,
        "entry": 3823801,
        "entry_name": "Team111",
        "event_total": 59,
        "has_played": true,
        "id": 28600255,
        "last_rank": 17358,
        "player_name": "Frank Zhou",
        "rank": 16559,
        "rank_sort": 16644,
        "total": 2385
      },
      {
        "club_badge_src": null,
        "entry": 3962500,
        "entry_name": "puggiepockie",
        "event_total": 46,
        "has_played": true,
        "id": 29814676,
        "last_rank": 10346,
        "player_name": "Pana Sansombat",
        "rank": 16559,
        "rank_sort": 16645,
        "total": 2385
      },
      {
        "club_badge_src": null,
        "entry": 4004846,
        "entry_name": "Shwenn FC",
        "event_total": 67,
        "has_played": true,
        "id": 30167338,
        "last_rank": 23341,
        "player_name": "Harry Shwenn",
        "rank": 16559,
        "rank_sort": 16646,
        "total": 2385
      },
      {
        "club_badge_src": null,
        "entry": 4133049,
        "entry_name": "D\u00e6nny Blanco",
        "event_total": 66,
        "has_played": true,
        "id": 31233206,
        "last_rank": 22534,
        "player_name": "Daniel Bjornstad",
        "rank": 16559,
        "rank_sort": 16647,
        "total": 2385
      },
      {
        "club_badge_src": null,
        "entry": 4183017,
        "entry_name": "YouDaManArch",
        "event_total": 50,
        "has_played": true,
        "id": 31647957,
        "last_rank": 12200,
        "player_name": "Matthew Moore",
        "rank": 16559,
        "rank_sort": 16648,
        "total": 2385
      },
      {
        "club_badge_src": null,
        "entry": 4395927,
        "entry_name": "Ein Win Wirtz nicht",
        "event_total": 61,
        "has_played": true,
        "id": 33425905,
        "last_rank": 18691,
        "player_name": "Wendelin Engels",
        "rank": 16559,
        "rank_sort": 16649,
        "total": 2385
      },
      {
        "club_badge_src": null,
        "entry": 4433620,
        "entry_name": "guttebassene",
        "event_total": 61,
        "has_played": true,
        "id": 33755875,
        "last_rank": 18790,
        "player_name": "Magnus Riisnaes",
        "rank": 16559,
        "rank_sort": 16650,
        "total": 2385
      }
    ]
  }
}