{
  "last_updated_data": "2026-05-24T23:28:17Z",
  "league": {
    "admin_entry": null,
    "closed": false,
    "code_privacy": "p",
    "created": "2025-07-20T23:14:33.933835Z",
    "cup_league": 2815434,
    "has_cup": true,
    "id": 314,
    "league_type": "s",
    "max_entries": null,
    "name": "Overall",
    "rank": null,
    "scoring": "c",
    "start_event": 1
  },
  "new_entries": {
    "has_next": false,
    "page": 1,
    "results": []
  },
  "standings": {
    "has_next": true,
    "page": 393,
    "results": [
      {
        "club_badge_src": null,
        "entry": 652765,
        "entry_name": "Am Yisrael Kai",
        "event_total": 51,
        "has_played": true,
        "id": 4411451,
        "last_rank": 15226,
        "player_name": "Ashley Blake",
        "rank": 19583,
        "rank_sort": 19601,
        "total": 2381
      },
      {
        "club_badge_src": null,
        "entry": 779676,
        "entry_name": "Don'tLookBackElanga",
        "event_total": 61,
        "has_played": true,
        "id": 5322605,
        "last_rank": 22154,
        "player_name": "Gavin Forrest",
        "rank": 19583,
        "rank_sort": 19602,
        "total": 2381
      },
      {
        "club_badge_src": null,
        "entry": 790119,
        "entry_name": "scribbles.FPL",
        "event_total": 68,
        "has_played": true,
        "id": 5406123,
        "last_rank": 28150,
        "player_name": "James Allenby",
        "rank": 19583,
        "rank_sort": 19603,
        "total": 2381
      },
      {
        "club_badge_src": "https://fantasy.premierleague.com/gcs/plfpl-production-adobe-approved/plfpl-production/877646/4e34a6e6-bc2b-4e34-9633-03ba50bfa22b.png",
        "entry": 877646,
        "entry_name": "Kelechi Eatin Nachos",
        "event_total": 42,
        "has_played": true,
        "id": 6017145,
        "last_rank": 10462,
        "player_name": "Richard Webb",
        "rank": 19583,
        "rank_sort": 19604,
        "total": 2381
      },
      {
        "club_badge_src": null,
        "entry": 925123,
        "entry_name": "Roman\u2019s Empire",
        "event_total": 77,
        "has_played": true,
        "id": 6364191,
        "last_rank": 38163,
        "player_name": "Jordan Mctigue",
        "rank": 19583,
        "rank_sort": 19605,
        "total": 2381
      },
      {
        "club_badge_src": null,
        "entry": 961102,
        "entry_name": "HARIA FC",
        "event_total": 46,
        "has_played": true,
        "id": 6623028,
        "last_rank": 12512,
        "player_name": "Mohd Hazrin -LY-",
        "rank": 19583,
        "rank_sort": 19606,
        "total": 2381
      },
      {
        "club_badge_src": null,
        "entry": 1075878,
        "entry_name": "DontLookBackElanga",
        "event_total": 55,
        "has_played": true,
        "id": 7449242,
        "last_rank": 15164,
        "player_name": "Matt Richards",
        "rank": 19583,
        "rank_sort": 19607,
        "total": 2381
      },
      {
        "club_badge_src": null,
        "entry": 1093925,
        "entry_name": "Yoro Wizard Leny",
        "event_total": 61,
        "has_played": true,
        "id": 7576496,
        "last_rank": 19103,
        "player_name": "Musa .",
        "rank": 19583,
        "rank_sort": 19608,
        "total": 2381
      },
      {
        "club_badge_src": null,
        "entry": 1112206,
        "entry_name": "Pique Blinders",
        "event_total": 48,
        "has_played": true,
        "id": 7704143,
        "last_rank": 13601,
        "player_name": "Joss Moran",
        "rank": 19583,
        "rank_sort": 19609,
        "total": 2381
      },
      {
        "club_badge_src": null,
        "entry": 1119439,
        "entry_name": "Olympique Mayonnaise",
        "event_total": 66,
        "has_played": true,
        "id": 7754322,
        "last_rank": 26230,
        "player_name": "Olly Ford-Lane",
        "rank": 19583,
        "rank_sort": 19610,
        "total": 2381
      },
      {
        "club_badge_src": null,
        "entry": 1227135,
        "entry_name": "Howezzat!",
        "event_total": 56,
        "has_played": true,
        "id": 8520721,
        "last_rank": 15797,
        "player_name": "Adam Ramsden",
        "rank": 19583,
        "rank_sort": 19611,
        "total": 2381
      },
      {
        "club_badge_src": null,
        "entry": 1230332,
        "entry_name": "Ya7ya",
        "event_total": 55,
        "has_played": true,
        "id": 8543078,
        "last_rank": 17802,
        "player_name": "Ya7ya Mohammed",
        "rank": 19583,
        "rank_sort": 19612,
        "total": 2381
      },
      {
        "club_badge_src": null,
        "entry": 1624462,
        "entry_name": "Isak-ly Good",
        "event_total": 57,
        "has_played": true,
        "id": 11369880,
        "last_rank": 19176,
        "player_name": "Ralph Feron",
        "rank": 19583,
        "rank_sort": 19613,
        "total": 2381
      },
      {
        "club_badge_src": "https://fantasy.premierleague.com/gcs/plfpl-production-adobe-approved/plfpl-production/1997677/ad0e91b9-bf35-46a1-8065-517750baa90e.png",
        "entry": 1997677,
        "entry_name": "SKT T1",
        "event_total": 64,
        "has_played": true,
        "id": 14117273,
        "last_rank": 18270,
        "player_name": "Mixalis Vekris",
        "rank": 19583,
        "rank_sort": 19614,
        "total": 2381
      },
      {
        "club_badge_src": "https://fantasy.premierleague.com/gcs/plfpl-production-adobe-approved/plfpl-production/2161337/fccdf621-a2c1-40d5-99f9-d30a915dac23.png",
        "entry": 2161337,
        "entry_name": "FC Bathathe",
        "event_total": 44,
        "has_played": true,
        "id": 15364599,
        "last_rank": 11419,
        "player_name": "Bathathe Msesh",
        "rank": 19583,
        "rank_sort": 19615,
        "total": 2381
      },
      {
        "club_badge_src": null,
        "entry": 2294513,
        "entry_name": "Los Pollos Hermanos",
        "event_total": 62,
        "has_played": true,
        "id": 16364512,
        "last_rank": 22921,
        "player_name": "Gerhardt van Schalkwyk",
        "rank": 19583,
        "rank_sort": 19616,
        "total": 2381
      },
      {
        "club_badge_src": "https://fantasy.premierleague.com/gcs/plfpl-production-adobe-approved/plfpl-production/2440324/1f876dae-2226-437d-9a46-668912e4ca12.png",
        "entry": 2440324,
        "entry_name": "Fijay10",
        "event_total": 66,
        "has_played": true,
        "id": 17452249,
        "last_rank": 26345,
        "player_name": "philip ekalale",
        "rank": 19583,
        "rank_sort": 19617,
        "total": 2381
      },
      {
        "club_badge_src": null,
        "entry": 2589012,
        "entry_name": "06Bronx",
        "event_total": 51,
        "has_played": true,
        "id": 18587075,
        "last_rank": 15226,
        "player_name": "George Lethbridge",
        "rank": 19583,
        "rank_sort": 19618,
        "total": 2381
      },
      {
        "club_badge_src": null,
        "entry": 2656579,
        "entry_name": "inverness magpies",
        "event_total": 59,
        "has_played": true,
        "id": 19096074,
        "last_rank": 20624,
        "player_name": "Paul Murray",
        "rank": 19583,
        "rank_sort": 19619,
        "total": 2381
      },
      {
        "club_badge_src": null,
        "entry": 2660861,
        "entry_name": "Vertigo Warriors",
        "event_total": 68,
        "has_played": true,
        "id": 19127520,
        "last_rank": 27976,
        "player_name": "Sakibul Hasan",
        "rank": 19583,
        "rank_sort": 19620,
        "total": 2381
      },
      {
        "club_badge_src": null,
        "entry": 2891447,
        "entry_name": "C&S",
        "event_total": 48,
        "has_played": true,
        "id": 21173072,
        "last_rank": 13558,
        "player_name": "Dubravko So\u010dkovi\u0107",
        "rank": 19583,
        "rank_sort": 19621,
        "total": 2381
      },
      {
        "club_badge_src": "https://fantasy.premierleague.com/gcs/plfpl-production-adobe-approved/plfpl-production/3008697/49205044-f0f8-45f5-b3e8-f503786e2462.png",
        "entry": 3008697,
        "entry_name": "Bowen Arrow",
        "event_total": 62,
        "has_played": true,
        "id": 22132859,
        "last_rank": 19835,
        "player_name": "Luke Orchard",
        "rank": 19583,
        "rank_sort": 19622,
        "total": 2381
      },
      {
        "club_badge_src": null,
        "entry": 3030872,
        "entry_name": "Nord",
        "event_total": 81,
        "has_played": true,
        "id": 22302785,
        "last_rank": 37822,
        "player_name": "Nord Im",
        "rank": 19583,
        "rank_sort": 19623,
        "total": 2381
      },
      {
        "club_badge_src": "https://fantasy.premierleague.com/gcs/plfpl-production-adobe-approved/plfpl-production/3041639/6b83885e-7638-46ef-97d6-4a21ce7ae1af.png",
        "entry": 3041639,
        "entry_name": "FC LEON",
        "event_total": 45,
        "has_played": true,
        "id": 22388080,
        "last_rank": 11957,
        "player_name": "Louis Man",
        "rank": 19583,
        "rank_sort": 19624,
        "total": 2381
      },
      {
        "club_badge_src": null,
        "entry": 3267693,
        "entry_name": "Miracle-",
        "event_total": 62,
        "has_played": true,
        "id": 24180815,
        "last_rank": 19835,
        "player_name": "Rezki Sholihin",
        "rank": 19583,
        "rank_sort": 19625,
        "total": 2381
      },
      {
        "club_badge_src": null,
        "entry": 3335306,
        "entry_name": "Sablosh Toot",
        "event_total": 67,
        "has_played": true,
        "id": 24734707,
        "last_rank": 27304,
        "player_name": "Ahmed Ismael",
        "rank": 19583,
        "rank_sort": 19626,
        "total": 2381
      },
      {
        "club_badge_src": "https://fantasy.premierleague.com/gcs/plfpl-production-adobe-approved/plfpl-production/3353732/0392d537-3c0f-4c11-8afc-efbc9424063d.png",
        "entry": 3353732,
        "entry_name": "You Keep Dreaming",
        "event_total": 64,
        "has_played": true,
        "id": 24880810,
        "last_rank": 24570,
        "player_name": "Martin Rooks",
        "rank": 19583,
        "rank_sort": 19627,
        "total": 2381
      },
      {
        "club_badge_src": null,
        "entry": 3474278,
        "entry_name": "MVP team \u26a1\ufe0f",
        "event_total": 61,
        "has_played": true,
        "id": 25830715,
        "last_rank": 16062,
        "player_name": "Anass El Khattab",
        "rank": 19583,
        "rank_sort": 19628,
        "total": 2381
      },
      {
        "club_badge_src": null,
        "entry": 3499360,
        "entry_name": "Hagensen United",
        "event_total": 66,
        "has_played": true,
        "id": 26030305,
        "last_rank": 26230,
        "player_name": "Casper Hagensen",
        "rank": 19583,
        "rank_sort": 19629,
        "total": 2381
      },
      {
        "club_badge_src": null,
        "entry": 3542281,
        "entry_name": "Liverp\ufffdl",
        "event_total": 50,
        "has_played": true,
        "id": 26367821,
        "last_rank": 14712,
        "player_name": "M Hsu",
        "rank": 19583,
        "rank_sort": 19630,
        "total": 2381
      },
      {
        "club_badge_src": null,
        "entry": 4006168,
        "entry_name": "Black Panth\u00e8re",
        "event_total": 50,
        "has_played": true,
        "id": 30178368,
        "last_rank": 14712,
        "player_name": "Malala Armel",
        "rank": 19583,
        "rank_sort": 19631,
        "total": 2381
      },
      {
        "club_badge_src": null,
        "entry": 4120090,
        "entry_name": "TBC",
        "event_total": 66,
        "has_played": true,
        "id": 31126088,
        "last_rank": 26345,
        "player_name": "Matthew Wilson",
        "rank": 19583,
        "rank_sort": 19632,
        "total": 2381
      },
      {
        "club_badge_src": null,
        "entry": 4277894,
        "entry_name": "Sesko Clubcard",
        "event_total": 66,
        "has_played": true,
        "id": 32443041,
        "last_rank": 26230,
        "player_name": "Emilie English",
        "rank": 19583,
        "rank_sort": 19633,
        "total": 2381
      },
      {
        "club_badge_src": "https://fantasy.premierleague.com/gcs/plfpl-production-adobe-approved/plfpl-production/4332602/2848cfb8-78d2-43a6-8f32-f57b8b8aa9f0.png",
        "entry": 4332602,
        "entry_name": "We'll Be Back",
        "event_total": 62,
        "has_played": true,
        "id": 32888542,
        "last_rank": 22921,
        "player_name": "Don Haines",
        "rank": 19583,
        "rank_sort": 19634,
        "total": 2381
      },
      {
        "club_badge_src": "https://fantasy.premierleague.com/gcs/plfpl-production-adobe-approved/plfpl-production/4418174/608bc70c-418d-451e-9212-00b35237438e.png",
        "entry": 4418174,
        "entry_name": "Strahoba",
        "event_total": 58,
        "has_played": true,
        "id": 33614087,
        "last_rank": 17078,
        "player_name": "Amir Pajt",
        "rank": 19583,
        "rank_sort": 19635,
        "total": 2381
      },
      {
        "club_badge_src": null,
        "entry": 4562007,
        "entry_name": "Newton Circus F.C.",
        "event_total": 58,
        "has_played": true,
        "id": 34811905,
        "last_rank": 14496,
        "player_name": "Adrian B",
        "rank": 19583,
        "rank_sort": 19636,
        "total": 2381
      },
      {
        "club_badge_src": null,
        "entry": 4574904,
        "entry_name": "Ji Sung Park the Bus",
        "event_total": 55,
        "has_played": true,
        "id": 34918641,
        "last_rank": 17718,
        "player_name": "Drew Bennett",
        "rank": 19583,
        "rank_sort": 19637,
        "total": 2381
      },
      {
        "club_badge_src": null,
        "entry": 4874365,
        "entry_name": "Free Palestine",
        "event_total": 68,
        "has_played": true,
        "id": 37573030,
        "last_rank": 28273,
        "player_name": "Mohammad Husni (Al MaDi)",
        "rank": 19583,
        "rank_sort": 19638,
        "total": 2381
      },
      {
        "club_badge_src": null,
        "entry": 4916902,
        "entry_name": "Stacy's Mum",
        "event_total": 48,
        "has_played": true,
        "id": 37923183,
        "last_rank": 13558,
        "player_name": "James Wilton",
        "rank": 19583,
        "rank_sort": 19639,
        "total": 2381
      },
      {
        "club_badge_src": null,
        "entry": 4990610,
        "entry_name": "FC Veleshta",
        "event_total": 66,
        "has_played": true,
        "id": 38528957,
        "last_rank": 26345,
        "player_name": "Leon Sami",
        "rank": 19583,
        "rank_sort": 19640,
        "total": 2381
      },
      {
        "club_badge_src": null,
        "entry": 5225028,
        "entry_name": "Evans Friends",
        "event_total": 66,
        "has_played": true,
        "id": 40486256,
        "last_rank": 22830,
        "player_name": "Mahmoud Hegazy",
        "rank": 19583,
        "rank_sort": 19641,
        "total": 2381
      },
      {
        "club_badge_src": null,
        "entry": 5260615,
        "entry_name": "Arnies XIs",
        "event_total": 64,
        "has_played": true,
        "id": 40772336,
        "last_rank": 24570,
        "player_name": "Anand Sundaralingam",
        "rank": 19583,
        "rank_sort": 19642,
        "total": 2381
      },
      {
        "club_badge_src": "https://fantasy.premierleague.com/gcs/plfpl-production-adobe-approved/plfpl-production/5514346/6716fe24-4315-4a74-85af-bbc2699c8706.png",
        "entry": 5514346,
        "entry_name": "Mind the Gap",
        "event_total": 53,
        "has_played": true,
        "id": 42988475,
        "last_rank": 16320,
        "player_name": "Kristian Evans",
        "rank": 19583,
        "rank_sort": 19643,
        "total": 2381
      },
      {
        "club_badge_src": null,
        "entry": 5527686,
        "entry_name": "Unbelievable Tekkz",
        "event_total": 59,
        "has_played": true,
        "id": 43111040,
        "last_rank": 20624,
        "player_name": "Jim Ldn",
        "rank": 19583,
        "rank_sort": 19644,
        "total": 2381
      },
      {
        "club_badge_src": null,
        "entry": 5757550,
        "entry_name": "Ankerstar",
        "event_total": 64,
        "has_played": true,
        "id": 45131531,
        "last_rank": 24330,
        "player_name": "Nikolai Ankerstjerne",
        "rank": 19583,
        "rank_sort": 19645,
        "total": 2381
      },
      {
        "club_badge_src": null,
        "entry": 5921874,
        "entry_name": "Blazing Saddle",
        "event_total": 72,
        "has_played": true,
        "id": 46546248,
        "last_rank": 32190,
        "player_name": "Al Ashtiani",
        "rank": 19583,
        "rank_sort": 19646,
        "total": 2381
      },
      {
        "club_badge_src": null,
        "entry": 6973508,
        "entry_name": "Salah-lujah!",
        "event_total": 65,
        "has_played": true,
        "id": 55943121,
        "last_rank": 21949,
        "player_name": "Fredrik \u00c5retun",
        "rank": 19583,
        "rank_sort": 19647,
        "total": 2381
      },
      {
        "club_badge_src": null,
        "entry": 7258779,
        "entry_name": "sir. Muhannad",
        "event_total": 73,
        "has_played": true,
        "id": 58688814,
        "last_rank": 28726,
        "player_name": "Sir.Mohannd Binturaiky",
        "rank": 19583,
        "rank_sort": 19648,
        "total": 2381
      },
      {
        "club_badge_src": null,
        "entry": 7279286,
        "entry_name": "RalleD",
        "event_total": 57,
        "has_played": true,
        "id": 58882534,
        "last_rank": 19176,
        "player_name": "Rasmus R\u00f6nnholm",
        "rank": 19583,
        "rank_sort": 19649,
        "total": 2381
      },
      {
        "club_badge_src": null,
        "entry": 7459782,
        "entry_name": "Larko FC",
        "event_total": 51,
        "has_played": true,
        "id": 60763030,
        "last_rank": 15226,
        "player_name": "Ben Larkin",
        "rank": 19583,
        "rank_sort": 19650,
        "total": 2381
      }
    ]
  }
}