{
  "last_updated_data": "2026-05-24T23:28:17Z",
  "league": {
    "admin_entry": null,
    "closed": false,
    "code_privacy": "p",
    "created": "2025-07-20T23:14:33.933835Z",
    "cup_league": 2815434,
    "has_cup": true,
    "id": 314,
    "league_type": "s",
    "max_entries": null,
    "name": "Overall",
    "rank": null,
    "scoring": "c",
    "start_event": 1
  },
  "new_entries": {
    "has_next": false,
    "page": 1,
    "results": []
  },
  "standings": {
    "has_next": true,
    "page": 588,
    "results": [
      {
        "club_badge_src": null,
        "entry": 3268489,
        "entry_name": "Kinder Mbeumo",
        "event_total": 60,
        "has_played": true,
        "id": 24187525,
        "last_rank": 32190,
        "player_name": "Erik Van Aken",
        "rank": 29282,
        "rank_sort": 29351,
        "total": 2369
      },
      {
        "club_badge_src": null,
        "entry": 3309794,
        "entry_name": "Slate\u2019s saviours",
        "event_total": 38,
        "has_played": true,
        "id": 24520987,
        "last_rank": 14604,
        "player_name": "Joe Slater",
        "rank": 29282,
        "rank_sort": 29352,
        "total": 2369
      },
      {
        "club_badge_src": null,
        "entry": 3364310,
        "entry_name": "A-team",
        "event_total": 53,
        "has_played": true,
        "id": 24964319,
        "last_rank": 25330,
        "player_name": "Garab Dorji",
        "rank": 29282,
        "rank_sort": 29353,
        "total": 2369
      },
      {
        "club_badge_src": null,
        "entry": 3470575,
        "entry_name": "Domaldinho FC",
        "event_total": 72,
        "has_played": true,
        "id": 25801447,
        "last_rank": 46839,
        "player_name": "Dominic Tranter",
        "rank": 29282,
        "rank_sort": 29354,
        "total": 2369
      },
      {
        "club_badge_src": null,
        "entry": 3512178,
        "entry_name": "MoSalah",
        "event_total": 70,
        "has_played": true,
        "id": 26133858,
        "last_rank": 44525,
        "player_name": "Ahmed Salah",
        "rank": 29282,
        "rank_sort": 29355,
        "total": 2369
      },
      {
        "club_badge_src": null,
        "entry": 3841668,
        "entry_name": "gunners",
        "event_total": 53,
        "has_played": true,
        "id": 28777131,
        "last_rank": 25330,
        "player_name": "Stas Muniak",
        "rank": 29282,
        "rank_sort": 29356,
        "total": 2369
      },
      {
        "club_badge_src": null,
        "entry": 3878137,
        "entry_name": "Boy 991",
        "event_total": 59,
        "has_played": true,
        "id": 29138277,
        "last_rank": 27020,
        "player_name": "Mohamed Belkacem",
        "rank": 29282,
        "rank_sort": 29357,
        "total": 2369
      },
      {
        "club_badge_src": null,
        "entry": 4073514,
        "entry_name": "FC",
        "event_total": 66,
        "has_played": true,
        "id": 30747690,
        "last_rank": 39246,
        "player_name": "Dave Willmott",
        "rank": 29282,
        "rank_sort": 29358,
        "total": 2369
      },
      {
        "club_badge_src": null,
        "entry": 4129410,
        "entry_name": "The chosen ones",
        "event_total": 76,
        "has_played": true,
        "id": 31204303,
        "last_rank": 47163,
        "player_name": "Ruben Torp Kvasjord",
        "rank": 29282,
        "rank_sort": 29359,
        "total": 2369
      },
      {
        "club_badge_src": null,
        "entry": 4283026,
        "entry_name": "Fake Madrid",
        "event_total": 73,
        "has_played": true,
        "id": 32484596,
        "last_rank": 48898,
        "player_name": "Leandro Ribeiro",
        "rank": 29282,
        "rank_sort": 29360,
        "total": 2369
      },
      {
        "club_badge_src": null,
        "entry": 4297690,
        "entry_name": "Hell in Lascelles",
        "event_total": 54,
        "has_played": true,
        "id": 32603880,
        "last_rank": 26230,
        "player_name": "Louie Moulden",
        "rank": 29282,
        "rank_sort": 29361,
        "total": 2369
      },
      {
        "club_badge_src": null,
        "entry": 4324200,
        "entry_name": "KomigjenTroillan",
        "event_total": 60,
        "has_played": true,
        "id": 32818440,
        "last_rank": 27976,
        "player_name": "Erlend Sund",
        "rank": 29282,
        "rank_sort": 29362,
        "total": 2369
      },
      {
        "club_badge_src": null,
        "entry": 4540986,
        "entry_name": "This Sesko's on fire",
        "event_total": 57,
        "has_played": true,
        "id": 34643323,
        "last_rank": 21775,
        "player_name": "Miche\u00e1l Faherty",
        "rank": 29282,
        "rank_sort": 29363,
        "total": 2369
      },
      {
        "club_badge_src": "https://fantasy.premierleague.com/gcs/plfpl-production-adobe-approved/plfpl-production/4595742/a2c5b023-22f1-40b6-9c69-d36ef6ec7bae.png",
        "entry": 4595742,
        "entry_name": "Okay Mbeumo",
        "event_total": 63,
        "has_played": true,
        "id": 35099435,
        "last_rank": 30957,
        "player_name": "Catrin Mascall",
        "rank": 29282,
        "rank_sort": 29364,
        "total": 2369
      },
      {
        "club_badge_src": null,
        "entry": 4693993,
        "entry_name": "Hhfff",
        "event_total": 57,
        "has_played": true,
        "id": 35980752,
        "last_rank": 29071,
        "player_name": "Nawfal Kaanan",
        "rank": 29282,
        "rank_sort": 29365,
        "total": 2369
      },
      {
        "club_badge_src": null,
        "entry": 4711760,
        "entry_name": "Aguirre United",
        "event_total": 73,
        "has_played": true,
        "id": 36155087,
        "last_rank": 48898,
        "player_name": "Carlos Eduardo Aguirre Gambule",
        "rank": 29282,
        "rank_sort": 29366,
        "total": 2369
      },
      {
        "club_badge_src": null,
        "entry": 4824764,
        "entry_name": "JLB Credit FC",
        "event_total": 67,
        "has_played": true,
        "id": 37157561,
        "last_rank": 40297,
        "player_name": "James Johnson",
        "rank": 29282,
        "rank_sort": 29367,
        "total": 2369
      },
      {
        "club_badge_src": null,
        "entry": 4925012,
        "entry_name": "Return of the Nantes",
        "event_total": 59,
        "has_played": true,
        "id": 37988698,
        "last_rank": 31125,
        "player_name": "Marcel Rose",
        "rank": 29282,
        "rank_sort": 29368,
        "total": 2369
      },
      {
        "club_badge_src": "https://fantasy.premierleague.com/gcs/plfpl-production-adobe-approved/plfpl-production/5221865/99605067-bb25-41f0-9447-b7e3d40e7894.png",
        "entry": 5221865,
        "entry_name": "STEAMSHIP",
        "event_total": 61,
        "has_played": true,
        "id": 40460039,
        "last_rank": 33147,
        "player_name": "Jed Domb",
        "rank": 29282,
        "rank_sort": 29369,
        "total": 2369
      },
      {
        "club_badge_src": null,
        "entry": 5316364,
        "entry_name": "Saka'd tomorrow",
        "event_total": 51,
        "has_played": true,
        "id": 41211585,
        "last_rank": 23341,
        "player_name": "Richard Mayer",
        "rank": 29282,
        "rank_sort": 29370,
        "total": 2369
      },
      {
        "club_badge_src": null,
        "entry": 5479578,
        "entry_name": "ScouseAfricans",
        "event_total": 69,
        "has_played": true,
        "id": 42662002,
        "last_rank": 37822,
        "player_name": "Ian Johnson",
        "rank": 29282,
        "rank_sort": 29371,
        "total": 2369
      },
      {
        "club_badge_src": null,
        "entry": 5551097,
        "entry_name": "hke_Gunner",
        "event_total": 64,
        "has_played": true,
        "id": 43325167,
        "last_rank": 31995,
        "player_name": "Hasthika Ekneligoda",
        "rank": 29282,
        "rank_sort": 29372,
        "total": 2369
      },
      {
        "club_badge_src": null,
        "entry": 5559554,
        "entry_name": "Sufi XI",
        "event_total": 61,
        "has_played": true,
        "id": 43400824,
        "last_rank": 33332,
        "player_name": "Sufiyan Mohamed",
        "rank": 29282,
        "rank_sort": 29373,
        "total": 2369
      },
      {
        "club_badge_src": null,
        "entry": 5616869,
        "entry_name": "FC Joycey",
        "event_total": 53,
        "has_played": true,
        "id": 43903752,
        "last_rank": 18790,
        "player_name": "Tom Joyce",
        "rank": 29282,
        "rank_sort": 29374,
        "total": 2369
      },
      {
        "club_badge_src": null,
        "entry": 5629039,
        "entry_name": "Iron Bru",
        "event_total": 61,
        "has_played": true,
        "id": 44008915,
        "last_rank": 28906,
        "player_name": "Mark Simon",
        "rank": 29282,
        "rank_sort": 29375,
        "total": 2369
      },
      {
        "club_badge_src": null,
        "entry": 5649759,
        "entry_name": "you kante be serious",
        "event_total": 56,
        "has_played": true,
        "id": 44195353,
        "last_rank": 28150,
        "player_name": "Himmath Maharaj",
        "rank": 29282,
        "rank_sort": 29376,
        "total": 2369
      },
      {
        "club_badge_src": null,
        "entry": 5720025,
        "entry_name": "Mazi paltan",
        "event_total": 74,
        "has_played": true,
        "id": 44803124,
        "last_rank": 44048,
        "player_name": "Yash Patel",
        "rank": 29282,
        "rank_sort": 29377,
        "total": 2369
      },
      {
        "club_badge_src": null,
        "entry": 5768715,
        "entry_name": "alexanderBEEFsak",
        "event_total": 63,
        "has_played": true,
        "id": 45226579,
        "last_rank": 35619,
        "player_name": "Mitchell Reuter",
        "rank": 29282,
        "rank_sort": 29378,
        "total": 2369
      },
      {
        "club_badge_src": null,
        "entry": 5843556,
        "entry_name": "Master League",
        "event_total": 60,
        "has_played": true,
        "id": 45873137,
        "last_rank": 31995,
        "player_name": "Steven Le",
        "rank": 29282,
        "rank_sort": 29379,
        "total": 2369
      },
      {
        "club_badge_src": null,
        "entry": 5952881,
        "entry_name": "El Pu\u00e8bo",
        "event_total": 59,
        "has_played": true,
        "id": 46824635,
        "last_rank": 30957,
        "player_name": "Sam Saunders",
        "rank": 29282,
        "rank_sort": 29380,
        "total": 2369
      },
      {
        "club_badge_src": null,
        "entry": 5956786,
        "entry_name": "The Lazy Druid",
        "event_total": 66,
        "has_played": true,
        "id": 46859403,
        "last_rank": 39023,
        "player_name": "Dom Wilson",
        "rank": 29282,
        "rank_sort": 29381,
        "total": 2369
      },
      {
        "club_badge_src": "https://fantasy.premierleague.com/gcs/plfpl-production-adobe-approved/plfpl-production/6207995/d3b2f14f-ca1b-4f20-8d00-3fde3b38892d.png",
        "entry": 6207995,
        "entry_name": "Said Madridista",
        "event_total": 55,
        "has_played": true,
        "id": 49114580,
        "last_rank": 23522,
        "player_name": "Sa\u00efd Tahri",
        "rank": 29282,
        "rank_sort": 29382,
        "total": 2369
      },
      {
        "club_badge_src": null,
        "entry": 6279844,
        "entry_name": "Kinder Mbeumo",
        "event_total": 65,
        "has_played": true,
        "id": 49734605,
        "last_rank": 33147,
        "player_name": "Hassan Kadva",
        "rank": 29282,
        "rank_sort": 29383,
        "total": 2369
      },
      {
        "club_badge_src": null,
        "entry": 6469245,
        "entry_name": "Mcurnan Cook",
        "event_total": 58,
        "has_played": true,
        "id": 51543650,
        "last_rank": 29904,
        "player_name": "Alfie Smart",
        "rank": 29282,
        "rank_sort": 29384,
        "total": 2369
      },
      {
        "club_badge_src": "https://fantasy.premierleague.com/gcs/plfpl-production-adobe-approved/plfpl-production/6483499/6c7bfcb8-27d0-42f2-a706-b4034a068ed8.png",
        "entry": 6483499,
        "entry_name": "3smoke Fc",
        "event_total": 52,
        "has_played": true,
        "id": 51676568,
        "last_rank": 24475,
        "player_name": "Marlon Mcfarlane",
        "rank": 29282,
        "rank_sort": 29385,
        "total": 2369
      },
      {
        "club_badge_src": null,
        "entry": 6862356,
        "entry_name": "London is BLUE",
        "event_total": 56,
        "has_played": true,
        "id": 54984792,
        "last_rank": 27770,
        "player_name": "Gregory Taroyan",
        "rank": 29282,
        "rank_sort": 29386,
        "total": 2369
      },
      {
        "club_badge_src": null,
        "entry": 6963146,
        "entry_name": "OAO",
        "event_total": 65,
        "has_played": true,
        "id": 55845240,
        "last_rank": 38016,
        "player_name": "Othman Ahmed",
        "rank": 29282,
        "rank_sort": 29387,
        "total": 2369
      },
      {
        "club_badge_src": null,
        "entry": 7042949,
        "entry_name": "Etikat",
        "event_total": 84,
        "has_played": true,
        "id": 56626778,
        "last_rank": 60168,
        "player_name": "peon silva",
        "rank": 29282,
        "rank_sort": 29388,
        "total": 2369
      },
      {
        "club_badge_src": null,
        "entry": 7381229,
        "entry_name": "Zedley Kings XI",
        "event_total": 65,
        "has_played": true,
        "id": 59837957,
        "last_rank": 38016,
        "player_name": "Zack Fallon",
        "rank": 29282,
        "rank_sort": 29389,
        "total": 2369
      },
      {
        "club_badge_src": null,
        "entry": 7549678,
        "entry_name": "Change Name",
        "event_total": 65,
        "has_played": true,
        "id": 61809229,
        "last_rank": 33147,
        "player_name": "Patrick Crowther",
        "rank": 29282,
        "rank_sort": 29390,
        "total": 2369
      },
      {
        "club_badge_src": null,
        "entry": 7715398,
        "entry_name": "R\u00fdchorsk\u00e9 s\u00eddli\u0161t\u011b",
        "event_total": 64,
        "has_played": true,
        "id": 63309560,
        "last_rank": 36624,
        "player_name": "Martin Klucho",
        "rank": 29282,
        "rank_sort": 29391,
        "total": 2369
      },
      {
        "club_badge_src": null,
        "entry": 7793528,
        "entry_name": "Rock 'n' Roll Schar",
        "event_total": 63,
        "has_played": true,
        "id": 64015287,
        "last_rank": 30957,
        "player_name": "Danny Napier",
        "rank": 29282,
        "rank_sort": 29392,
        "total": 2369
      },
      {
        "club_badge_src": null,
        "entry": 7990942,
        "entry_name": "lilasikuta",
        "event_total": 51,
        "has_played": true,
        "id": 65803116,
        "last_rank": 23748,
        "player_name": "Hopkins Tang",
        "rank": 29282,
        "rank_sort": 29393,
        "total": 2369
      },
      {
        "club_badge_src": null,
        "entry": 8140972,
        "entry_name": "Passou Voando",
        "event_total": 57,
        "has_played": true,
        "id": 67184375,
        "last_rank": 29071,
        "player_name": "Victor Hugo",
        "rank": 29282,
        "rank_sort": 29394,
        "total": 2369
      },
      {
        "club_badge_src": null,
        "entry": 8670841,
        "entry_name": "Utd Hittaz",
        "event_total": 54,
        "has_played": true,
        "id": 72295481,
        "last_rank": 22685,
        "player_name": "Sully Mart\u00ednez",
        "rank": 29282,
        "rank_sort": 29395,
        "total": 2369
      },
      {
        "club_badge_src": null,
        "entry": 9050671,
        "entry_name": "Omari (GWOAT)Patrick",
        "event_total": 61,
        "has_played": true,
        "id": 75971450,
        "last_rank": 33332,
        "player_name": "Brian Hayden",
        "rank": 29282,
        "rank_sort": 29396,
        "total": 2369
      },
      {
        "club_badge_src": null,
        "entry": 9325431,
        "entry_name": "LastMinute.com",
        "event_total": 65,
        "has_played": true,
        "id": 78653342,
        "last_rank": 33147,
        "player_name": "Neil Webb",
        "rank": 29282,
        "rank_sort": 29397,
        "total": 2369
      },
      {
        "club_badge_src": null,
        "entry": 9451341,
        "entry_name": "Cunha Kick it?",
        "event_total": 59,
        "has_played": true,
        "id": 79860466,
        "last_rank": 31125,
        "player_name": "Pedro Barroso",
        "rank": 29282,
        "rank_sort": 29398,
        "total": 2369
      },
      {
        "club_badge_src": "https://fantasy.premierleague.com/gcs/plfpl-production-adobe-approved/plfpl-production/9453199/56f71665-a8e4-40f9-84a6-454c858e1ea9.png",
        "entry": 9453199,
        "entry_name": "essella wonderers",
        "event_total": 52,
        "has_played": true,
        "id": 79878041,
        "last_rank": 24475,
        "player_name": "Martin Allcock",
        "rank": 29282,
        "rank_sort": 29399,
        "total": 2369
      },
      {
        "club_badge_src": null,
        "entry": 370,
        "entry_name": "Goalshy Allstars",
        "event_total": 58,
        "has_played": true,
        "id": 2038,
        "last_rank": 30191,
        "player_name": "Michael Wells",
        "rank": 29400,
        "rank_sort": 29400,
        "total": 2369
      }
    ]
  }
}