{
  "last_updated_data": "2026-05-24T23:28:17Z",
  "league": {
    "admin_entry": null,
    "closed": false,
    "code_privacy": "p",
    "created": "2025-07-20T23:14:33.933835Z",
    "cup_league": 2815434,
    "has_cup": true,
    "id": 314,
    "league_type": "s",
    "max_entries": null,
    "name": "Overall",
    "rank": null,
    "scoring": "c",
    "start_event": 1
  },
  "new_entries": {
    "has_next": false,
    "page": 1,
    "results": []
  },
  "standings": {
    "has_next": true,
    "page": 938,
    "results": [
      {
        "club_badge_src": null,
        "entry": 2230348,
        "entry_name": "Wirtz of Wisdom",
        "event_total": 42,
        "has_played": true,
        "id": 15888643,
        "last_rank": 29071,
        "player_name": "Rob Smith",
        "rank": 46727,
        "rank_sort": 46851,
        "total": 2354
      },
      {
        "club_badge_src": null,
        "entry": 2290267,
        "entry_name": "PappasPojkar",
        "event_total": 58,
        "has_played": true,
        "id": 16333889,
        "last_rank": 42648,
        "player_name": "William Wassberg",
        "rank": 46727,
        "rank_sort": 46852,
        "total": 2354
      },
      {
        "club_badge_src": null,
        "entry": 2353305,
        "entry_name": "Arapaimore FC",
        "event_total": 50,
        "has_played": true,
        "id": 16791685,
        "last_rank": 37589,
        "player_name": "Azmil Mohd",
        "rank": 46727,
        "rank_sort": 46853,
        "total": 2354
      },
      {
        "club_badge_src": null,
        "entry": 2378327,
        "entry_name": "Hwang in there",
        "event_total": 58,
        "has_played": true,
        "id": 16981449,
        "last_rank": 48363,
        "player_name": "Jack Hurdiss",
        "rank": 46727,
        "rank_sort": 46854,
        "total": 2354
      },
      {
        "club_badge_src": null,
        "entry": 2383988,
        "entry_name": "Deejay FC",
        "event_total": 63,
        "has_played": true,
        "id": 17024283,
        "last_rank": 56369,
        "player_name": "Daniel SerJeanton",
        "rank": 46727,
        "rank_sort": 46855,
        "total": 2354
      },
      {
        "club_badge_src": null,
        "entry": 2396719,
        "entry_name": "Catchy'side",
        "event_total": 76,
        "has_played": true,
        "id": 17122228,
        "last_rank": 82398,
        "player_name": "David Catcheside",
        "rank": 46727,
        "rank_sort": 46856,
        "total": 2354
      },
      {
        "club_badge_src": null,
        "entry": 2464073,
        "entry_name": "michu at the gea bar",
        "event_total": 48,
        "has_played": true,
        "id": 17625653,
        "last_rank": 35424,
        "player_name": "Fintan Butler",
        "rank": 46727,
        "rank_sort": 46857,
        "total": 2354
      },
      {
        "club_badge_src": "https://fantasy.premierleague.com/gcs/plfpl-production-adobe-approved/plfpl-production/2511308/82e083b5-7f31-4be8-9af5-43f444f84598.png",
        "entry": 2511308,
        "entry_name": "freek arno ragebait",
        "event_total": 62,
        "has_played": true,
        "id": 17990967,
        "last_rank": 54494,
        "player_name": "Nico C",
        "rank": 46727,
        "rank_sort": 46858,
        "total": 2354
      },
      {
        "club_badge_src": null,
        "entry": 2530856,
        "entry_name": "SK77leoking",
        "event_total": 66,
        "has_played": true,
        "id": 18135442,
        "last_rank": 54667,
        "player_name": "SANDESH KC",
        "rank": 46727,
        "rank_sort": 46859,
        "total": 2354
      },
      {
        "club_badge_src": null,
        "entry": 2599950,
        "entry_name": "Kinder Mbeumo",
        "event_total": 58,
        "has_played": true,
        "id": 18672593,
        "last_rank": 48642,
        "player_name": "Thomas Robertson",
        "rank": 46727,
        "rank_sort": 46860,
        "total": 2354
      },
      {
        "club_badge_src": null,
        "entry": 2605384,
        "entry_name": "ANDRE 4000",
        "event_total": 64,
        "has_played": true,
        "id": 18714842,
        "last_rank": 58388,
        "player_name": "Andre le Roux",
        "rank": 46727,
        "rank_sort": 46861,
        "total": 2354
      },
      {
        "club_badge_src": null,
        "entry": 2685683,
        "entry_name": "Forever Boleyn",
        "event_total": 54,
        "has_played": true,
        "id": 19316430,
        "last_rank": 42940,
        "player_name": "Neil Sargent",
        "rank": 46727,
        "rank_sort": 46862,
        "total": 2354
      },
      {
        "club_badge_src": null,
        "entry": 2724102,
        "entry_name": "Kabadir \u1bd3\u26bd\ufe0e",
        "event_total": 66,
        "has_played": true,
        "id": 19602232,
        "last_rank": 54667,
        "player_name": "Karim Abadir",
        "rank": 46727,
        "rank_sort": 46863,
        "total": 2354
      },
      {
        "club_badge_src": "https://fantasy.premierleague.com/gcs/plfpl-production-adobe-approved/plfpl-production/2754368/9b644954-db6e-4963-a601-13a77e24046e.png",
        "entry": 2754368,
        "entry_name": "The Right Stuff",
        "event_total": 55,
        "has_played": true,
        "id": 20048832,
        "last_rank": 44303,
        "player_name": "Richard Curtis",
        "rank": 46727,
        "rank_sort": 46864,
        "total": 2354
      },
      {
        "club_badge_src": null,
        "entry": 2762647,
        "entry_name": "Imti FC",
        "event_total": 58,
        "has_played": true,
        "id": 20154849,
        "last_rank": 48197,
        "player_name": "Imtiyaaz Bester",
        "rank": 46727,
        "rank_sort": 46865,
        "total": 2354
      },
      {
        "club_badge_src": null,
        "entry": 2767241,
        "entry_name": "Europa Winner FC",
        "event_total": 60,
        "has_played": true,
        "id": 20189826,
        "last_rank": 51720,
        "player_name": "Vincentius Victor",
        "rank": 46727,
        "rank_sort": 46866,
        "total": 2354
      },
      {
        "club_badge_src": null,
        "entry": 2771841,
        "entry_name": "FC WiTiCaCa",
        "event_total": 55,
        "has_played": true,
        "id": 20224544,
        "last_rank": 44303,
        "player_name": "Adam Thomas",
        "rank": 46727,
        "rank_sort": 46867,
        "total": 2354
      },
      {
        "club_badge_src": null,
        "entry": 2789538,
        "entry_name": "Cold",
        "event_total": 35,
        "has_played": true,
        "id": 20365984,
        "last_rank": 22685,
        "player_name": "Kirubel Assefa",
        "rank": 46727,
        "rank_sort": 46868,
        "total": 2354
      },
      {
        "club_badge_src": null,
        "entry": 2892779,
        "entry_name": "System of a Downes",
        "event_total": 62,
        "has_played": true,
        "id": 21187368,
        "last_rank": 55311,
        "player_name": "Daniel Downes",
        "rank": 46727,
        "rank_sort": 46869,
        "total": 2354
      },
      {
        "club_badge_src": "https://fantasy.premierleague.com/gcs/plfpl-production-adobe-approved/plfpl-production/2927689/053a5add-1fca-479d-af7e-24b4c31d7530.png",
        "entry": 2927689,
        "entry_name": "Hudders Reserves",
        "event_total": 49,
        "has_played": true,
        "id": 21463863,
        "last_rank": 36624,
        "player_name": "Stephen Brinkworth",
        "rank": 46727,
        "rank_sort": 46870,
        "total": 2354
      },
      {
        "club_badge_src": null,
        "entry": 2951306,
        "entry_name": "wow bey",
        "event_total": 74,
        "has_played": true,
        "id": 21675111,
        "last_rank": 77676,
        "player_name": "Neil Thanawala",
        "rank": 46727,
        "rank_sort": 46871,
        "total": 2354
      },
      {
        "club_badge_src": null,
        "entry": 2985423,
        "entry_name": "EkipaKozy",
        "event_total": 65,
        "has_played": true,
        "id": 21951726,
        "last_rank": 59813,
        "player_name": "Bart\u0142omiej Koz\u0142owski",
        "rank": 46727,
        "rank_sort": 46872,
        "total": 2354
      },
      {
        "club_badge_src": null,
        "entry": 3086209,
        "entry_name": "Kroos Missile",
        "event_total": 59,
        "has_played": true,
        "id": 22738669,
        "last_rank": 44048,
        "player_name": "Elliott Whitty",
        "rank": 46727,
        "rank_sort": 46873,
        "total": 2354
      },
      {
        "club_badge_src": null,
        "entry": 3126772,
        "entry_name": "Sunday United",
        "event_total": 54,
        "has_played": true,
        "id": 23076329,
        "last_rank": 42648,
        "player_name": "Karina Mee Hegre",
        "rank": 46727,
        "rank_sort": 46874,
        "total": 2354
      },
      {
        "club_badge_src": "https://fantasy.premierleague.com/gcs/plfpl-production-adobe-approved/plfpl-production/3138321/03ed8b5a-56c2-4c86-bb3b-4ef61b541625.png",
        "entry": 3138321,
        "entry_name": "palestino",
        "event_total": 60,
        "has_played": true,
        "id": 23167537,
        "last_rank": 51720,
        "player_name": "Ibraheem Khalifa",
        "rank": 46727,
        "rank_sort": 46875,
        "total": 2354
      },
      {
        "club_badge_src": null,
        "entry": 3256448,
        "entry_name": "Change Name",
        "event_total": 41,
        "has_played": true,
        "id": 24094928,
        "last_rank": 27976,
        "player_name": "Will Ryley",
        "rank": 46727,
        "rank_sort": 46876,
        "total": 2354
      },
      {
        "club_badge_src": null,
        "entry": 3346823,
        "entry_name": "TNT FC",
        "event_total": 58,
        "has_played": true,
        "id": 24826961,
        "last_rank": 42648,
        "player_name": "Azlan Tariq",
        "rank": 46727,
        "rank_sort": 46877,
        "total": 2354
      },
      {
        "club_badge_src": null,
        "entry": 3557610,
        "entry_name": "Raw! No Condom III",
        "event_total": 41,
        "has_played": true,
        "id": 26487698,
        "last_rank": 28150,
        "player_name": "Desmond Normeshie",
        "rank": 46727,
        "rank_sort": 46878,
        "total": 2354
      },
      {
        "club_badge_src": null,
        "entry": 3562634,
        "entry_name": "Jesus Wept",
        "event_total": 46,
        "has_played": true,
        "id": 26526097,
        "last_rank": 33332,
        "player_name": "Shordy 1z",
        "rank": 46727,
        "rank_sort": 46879,
        "total": 2354
      },
      {
        "club_badge_src": null,
        "entry": 3587752,
        "entry_name": "\u0645\u0627\u0634\u064a\u0647 \u0628\u0627\u0644\u0628\u0631\u0643\u0647",
        "event_total": 69,
        "has_played": true,
        "id": 26718964,
        "last_rank": 67063,
        "player_name": "ahmed ayman",
        "rank": 46727,
        "rank_sort": 46880,
        "total": 2354
      },
      {
        "club_badge_src": null,
        "entry": 3600245,
        "entry_name": "lanka arsenal",
        "event_total": 72,
        "has_played": true,
        "id": 26814408,
        "last_rank": 73038,
        "player_name": "Sachinka Ranasinghe",
        "rank": 46727,
        "rank_sort": 46881,
        "total": 2354
      },
      {
        "club_badge_src": "https://fantasy.premierleague.com/gcs/plfpl-production-adobe-approved/plfpl-production/3765338/c2379b91-fabb-4ac5-a27a-b880d368f325.png",
        "entry": 3765338,
        "entry_name": "Idan United",
        "event_total": 65,
        "has_played": true,
        "id": 28114019,
        "last_rank": 59813,
        "player_name": "Augustine Sodeke",
        "rank": 46727,
        "rank_sort": 46882,
        "total": 2354
      },
      {
        "club_badge_src": null,
        "entry": 3833114,
        "entry_name": "Rutter 66",
        "event_total": 81,
        "has_played": true,
        "id": 28674990,
        "last_rank": 93186,
        "player_name": "Louis Hart",
        "rank": 46727,
        "rank_sort": 46883,
        "total": 2354
      },
      {
        "club_badge_src": null,
        "entry": 3842906,
        "entry_name": "Solo leveling",
        "event_total": 65,
        "has_played": true,
        "id": 28793216,
        "last_rank": 60168,
        "player_name": "Golf ZA",
        "rank": 46727,
        "rank_sort": 46884,
        "total": 2354
      },
      {
        "club_badge_src": null,
        "entry": 3851361,
        "entry_name": "Fever Pitch",
        "event_total": 68,
        "has_played": true,
        "id": 28870625,
        "last_rank": 65475,
        "player_name": "Michael Corleone",
        "rank": 46727,
        "rank_sort": 46885,
        "total": 2354
      },
      {
        "club_badge_src": null,
        "entry": 3925419,
        "entry_name": "Yoro wizard Harry",
        "event_total": 59,
        "has_played": true,
        "id": 29520612,
        "last_rank": 50199,
        "player_name": "Kelly Wilson",
        "rank": 46727,
        "rank_sort": 46886,
        "total": 2354
      },
      {
        "club_badge_src": null,
        "entry": 4033557,
        "entry_name": "Fish FC",
        "event_total": 50,
        "has_played": true,
        "id": 30411608,
        "last_rank": 37822,
        "player_name": "Paul Jones",
        "rank": 46727,
        "rank_sort": 46887,
        "total": 2354
      },
      {
        "club_badge_src": null,
        "entry": 4236138,
        "entry_name": "Thats NumberHwang!",
        "event_total": 79,
        "has_played": true,
        "id": 32100507,
        "last_rank": 88594,
        "player_name": "Scott Williams",
        "rank": 46727,
        "rank_sort": 46888,
        "total": 2354
      },
      {
        "club_badge_src": null,
        "entry": 4292903,
        "entry_name": "Richard Slingers",
        "event_total": 55,
        "has_played": true,
        "id": 32564380,
        "last_rank": 44048,
        "player_name": "philip davies",
        "rank": 46727,
        "rank_sort": 46889,
        "total": 2354
      },
      {
        "club_badge_src": null,
        "entry": 4395682,
        "entry_name": "Guesswork",
        "event_total": 59,
        "has_played": true,
        "id": 33423594,
        "last_rank": 50199,
        "player_name": "Tim McClean",
        "rank": 46727,
        "rank_sort": 46890,
        "total": 2354
      },
      {
        "club_badge_src": null,
        "entry": 4464571,
        "entry_name": "Beermen FC",
        "event_total": 60,
        "has_played": true,
        "id": 34015489,
        "last_rank": 45416,
        "player_name": "Shane Greene",
        "rank": 46727,
        "rank_sort": 46891,
        "total": 2354
      },
      {
        "club_badge_src": null,
        "entry": 4477913,
        "entry_name": "FLICKYFLACA",
        "event_total": 65,
        "has_played": true,
        "id": 34126586,
        "last_rank": 53023,
        "player_name": "Ibrahim Mohamed",
        "rank": 46727,
        "rank_sort": 46892,
        "total": 2354
      },
      {
        "club_badge_src": null,
        "entry": 4519902,
        "entry_name": "JigsPihu",
        "event_total": 73,
        "has_played": true,
        "id": 34469863,
        "last_rank": 66848,
        "player_name": "jigar mehta",
        "rank": 46727,
        "rank_sort": 46893,
        "total": 2354
      },
      {
        "club_badge_src": null,
        "entry": 4548830,
        "entry_name": "Wirtz Muniz",
        "event_total": 61,
        "has_played": true,
        "id": 34706160,
        "last_rank": 46839,
        "player_name": "Reagan Pereira",
        "rank": 46727,
        "rank_sort": 46894,
        "total": 2354
      },
      {
        "club_badge_src": null,
        "entry": 4574761,
        "entry_name": "Tikitaka Boyz",
        "event_total": 52,
        "has_played": true,
        "id": 34917343,
        "last_rank": 35166,
        "player_name": "William Strand",
        "rank": 46727,
        "rank_sort": 46895,
        "total": 2354
      },
      {
        "club_badge_src": null,
        "entry": 4743645,
        "entry_name": "Jubbys Giants",
        "event_total": 55,
        "has_played": true,
        "id": 36499872,
        "last_rank": 44303,
        "player_name": "Steve Jubb",
        "rank": 46727,
        "rank_sort": 46896,
        "total": 2354
      },
      {
        "club_badge_src": null,
        "entry": 4810456,
        "entry_name": "Blues For Ever",
        "event_total": 70,
        "has_played": true,
        "id": 37040031,
        "last_rank": 68957,
        "player_name": "Thanveer Bin Saleem",
        "rank": 46727,
        "rank_sort": 46897,
        "total": 2354
      },
      {
        "club_badge_src": null,
        "entry": 4891455,
        "entry_name": "Killua Hatrik",
        "event_total": 67,
        "has_played": true,
        "id": 37713445,
        "last_rank": 63117,
        "player_name": "Hisham Ismail",
        "rank": 46727,
        "rank_sort": 46898,
        "total": 2354
      },
      {
        "club_badge_src": null,
        "entry": 4917424,
        "entry_name": "The Dunphys",
        "event_total": 69,
        "has_played": true,
        "id": 37927457,
        "last_rank": 67422,
        "player_name": "aaron murphy",
        "rank": 46727,
        "rank_sort": 46899,
        "total": 2354
      },
      {
        "club_badge_src": "https://fantasy.premierleague.com/gcs/plfpl-production-adobe-approved/plfpl-production/4937739/4f7d4c86-b757-4f3e-bba4-3574a13faf63.png",
        "entry": 4937739,
        "entry_name": "M.CH",
        "event_total": 81,
        "has_played": true,
        "id": 38096224,
        "last_rank": 93883,
        "player_name": "Marta Ch",
        "rank": 46727,
        "rank_sort": 46900,
        "total": 2354
      }
    ]
  }
}