{
  "last_updated_data": "2026-05-24T23:28:17Z",
  "league": {
    "admin_entry": null,
    "closed": false,
    "code_privacy": "p",
    "created": "2025-07-20T23:14:33.933835Z",
    "cup_league": 2815434,
    "has_cup": true,
    "id": 314,
    "league_type": "s",
    "max_entries": null,
    "name": "Overall",
    "rank": null,
    "scoring": "c",
    "start_event": 1
  },
  "new_entries": {
    "has_next": false,
    "page": 1,
    "results": []
  },
  "standings": {
    "has_next": true,
    "page": 1036,
    "results": [
      {
        "club_badge_src": null,
        "entry": 6586818,
        "entry_name": "Pawnee Spurs",
        "event_total": 52,
        "has_played": true,
        "id": 52603726,
        "last_rank": 44525,
        "player_name": "Owen Stickings",
        "rank": 51550,
        "rank_sort": 51751,
        "total": 2351
      },
      {
        "club_badge_src": null,
        "entry": 6588857,
        "entry_name": "PoppeKung",
        "event_total": 72,
        "has_played": true,
        "id": 52621619,
        "last_rank": 63201,
        "player_name": "Pontus Moberg",
        "rank": 51550,
        "rank_sort": 51752,
        "total": 2351
      },
      {
        "club_badge_src": null,
        "entry": 6624748,
        "entry_name": "Hungry Wolves",
        "event_total": 58,
        "has_played": true,
        "id": 52940947,
        "last_rank": 53621,
        "player_name": "Antonio Oliveira",
        "rank": 51550,
        "rank_sort": 51753,
        "total": 2351
      },
      {
        "club_badge_src": null,
        "entry": 6829936,
        "entry_name": "AFC Wombles",
        "event_total": 40,
        "has_played": true,
        "id": 54707590,
        "last_rank": 30060,
        "player_name": "Gary Shoebridge",
        "rank": 51550,
        "rank_sort": 51754,
        "total": 2351
      },
      {
        "club_badge_src": null,
        "entry": 6901168,
        "entry_name": "Haalander",
        "event_total": 62,
        "has_played": true,
        "id": 55313758,
        "last_rank": 46839,
        "player_name": "Georgios Chatzikomnou",
        "rank": 51550,
        "rank_sort": 51755,
        "total": 2351
      },
      {
        "club_badge_src": null,
        "entry": 6924321,
        "entry_name": "Net Six and Chill",
        "event_total": 52,
        "has_played": true,
        "id": 55507539,
        "last_rank": 44525,
        "player_name": "Keno Irving",
        "rank": 51550,
        "rank_sort": 51756,
        "total": 2351
      },
      {
        "club_badge_src": null,
        "entry": 6937975,
        "entry_name": "neXt Level XI",
        "event_total": 61,
        "has_played": true,
        "id": 55623478,
        "last_rank": 58388,
        "player_name": "Sandile Xolani Mlangeni",
        "rank": 51550,
        "rank_sort": 51757,
        "total": 2351
      },
      {
        "club_badge_src": "https://fantasy.premierleague.com/gcs/plfpl-production-adobe-approved/plfpl-production/6999463/2d8ffcc5-077e-47de-9c7a-b59e0538ca31.png",
        "entry": 6999463,
        "entry_name": "The A Team",
        "event_total": 51,
        "has_played": true,
        "id": 56198096,
        "last_rank": 43168,
        "player_name": "Allan Ngetich",
        "rank": 51550,
        "rank_sort": 51758,
        "total": 2351
      },
      {
        "club_badge_src": null,
        "entry": 7080842,
        "entry_name": "Boknaaiers",
        "event_total": 50,
        "has_played": true,
        "id": 56993615,
        "last_rank": 41824,
        "player_name": "adriaan duivestein",
        "rank": 51550,
        "rank_sort": 51759,
        "total": 2351
      },
      {
        "club_badge_src": "https://fantasy.premierleague.com/gcs/plfpl-production-adobe-approved/plfpl-production/7162236/38f2eb50-551d-42d9-8fd3-05f9b44fd950.png",
        "entry": 7162236,
        "entry_name": "Amnak's",
        "event_total": 71,
        "has_played": true,
        "id": 57775893,
        "last_rank": 77999,
        "player_name": "Amnak Chu-Umnart",
        "rank": 51550,
        "rank_sort": 51760,
        "total": 2351
      },
      {
        "club_badge_src": null,
        "entry": 7279831,
        "entry_name": "Viktor Gyarados",
        "event_total": 55,
        "has_played": true,
        "id": 58887719,
        "last_rank": 48898,
        "player_name": "James Gallagher",
        "rank": 51550,
        "rank_sort": 51761,
        "total": 2351
      },
      {
        "club_badge_src": null,
        "entry": 7281103,
        "entry_name": "Checkmate",
        "event_total": 46,
        "has_played": true,
        "id": 58899740,
        "last_rank": 36624,
        "player_name": "Kevin Kipruto",
        "rank": 51550,
        "rank_sort": 51762,
        "total": 2351
      },
      {
        "club_badge_src": "https://fantasy.premierleague.com/gcs/plfpl-production-adobe-approved/plfpl-production/7716184/0fe9664c-d516-42bc-b5ff-611992c95078.png",
        "entry": 7716184,
        "entry_name": "FC Yone",
        "event_total": 68,
        "has_played": true,
        "id": 63316540,
        "last_rank": 71713,
        "player_name": "Andrei Dumitru",
        "rank": 51550,
        "rank_sort": 51763,
        "total": 2351
      },
      {
        "club_badge_src": null,
        "entry": 7814803,
        "entry_name": "Coach est la",
        "event_total": 64,
        "has_played": true,
        "id": 64207276,
        "last_rank": 63390,
        "player_name": "C\u00e9dric Jan",
        "rank": 51550,
        "rank_sort": 51764,
        "total": 2351
      },
      {
        "club_badge_src": null,
        "entry": 8234661,
        "entry_name": "Paramount United\u2022",
        "event_total": 73,
        "has_played": true,
        "id": 68072539,
        "last_rank": 73423,
        "player_name": "Natasha Musonda",
        "rank": 51550,
        "rank_sort": 51765,
        "total": 2351
      },
      {
        "club_badge_src": null,
        "entry": 8525266,
        "entry_name": "No more Mr Rice Kai",
        "event_total": 72,
        "has_played": true,
        "id": 70881521,
        "last_rank": 71386,
        "player_name": "Rufus Jackson-Jones",
        "rank": 51550,
        "rank_sort": 51766,
        "total": 2351
      },
      {
        "club_badge_src": null,
        "entry": 8895784,
        "entry_name": "Karl\u00e9n Klassic",
        "event_total": 68,
        "has_played": true,
        "id": 74467881,
        "last_rank": 71386,
        "player_name": "Elina Karl\u00e9n Andersson",
        "rank": 51550,
        "rank_sort": 51767,
        "total": 2351
      },
      {
        "club_badge_src": null,
        "entry": 9055510,
        "entry_name": "The red Knies",
        "event_total": 63,
        "has_played": true,
        "id": 76018481,
        "last_rank": 62223,
        "player_name": "Shay Zuk",
        "rank": 51550,
        "rank_sort": 51768,
        "total": 2351
      },
      {
        "club_badge_src": null,
        "entry": 9079648,
        "entry_name": "The-Wood FC",
        "event_total": 55,
        "has_played": true,
        "id": 76252498,
        "last_rank": 48898,
        "player_name": "Ali Arushal",
        "rank": 51550,
        "rank_sort": 51769,
        "total": 2351
      },
      {
        "club_badge_src": null,
        "entry": 9247261,
        "entry_name": "Saka potatoes",
        "event_total": 71,
        "has_played": true,
        "id": 77895638,
        "last_rank": 68957,
        "player_name": "Lewys Prys Dafydd",
        "rank": 51550,
        "rank_sort": 51770,
        "total": 2351
      },
      {
        "club_badge_src": "https://fantasy.premierleague.com/gcs/plfpl-production-adobe-approved/plfpl-production/9452822/65781b9e-5e51-4cf7-9a88-1b3bed87cea6.png",
        "entry": 9452822,
        "entry_name": "Barcelona",
        "event_total": 75,
        "has_played": true,
        "id": 79874621,
        "last_rank": 87074,
        "player_name": "Alyaa Amro",
        "rank": 51550,
        "rank_sort": 51771,
        "total": 2351
      },
      {
        "club_badge_src": "https://fantasy.premierleague.com/gcs/plfpl-production-adobe-approved/plfpl-production/8968/11cce035-e08d-4ac0-b38e-0a5ec44f4f8e.png",
        "entry": 8968,
        "entry_name": "Cherki Boys",
        "event_total": 56,
        "has_played": true,
        "id": 52443,
        "last_rank": 50635,
        "player_name": "Andrew Fielder",
        "rank": 51772,
        "rank_sort": 51772,
        "total": 2351
      },
      {
        "club_badge_src": null,
        "entry": 12547,
        "entry_name": "Name Changed",
        "event_total": 57,
        "has_played": true,
        "id": 75190,
        "last_rank": 45927,
        "player_name": "Alan McDermott",
        "rank": 51772,
        "rank_sort": 51773,
        "total": 2351
      },
      {
        "club_badge_src": null,
        "entry": 16636,
        "entry_name": "Egyptian King",
        "event_total": 60,
        "has_played": true,
        "id": 102863,
        "last_rank": 44048,
        "player_name": "Anthony Sheerin",
        "rank": 51772,
        "rank_sort": 51774,
        "total": 2351
      },
      {
        "club_badge_src": null,
        "entry": 17297,
        "entry_name": "Mohammed Yakout",
        "event_total": 68,
        "has_played": true,
        "id": 107279,
        "last_rank": 64005,
        "player_name": "Muhammed M . Yakout",
        "rank": 51772,
        "rank_sort": 51775,
        "total": 2351
      },
      {
        "club_badge_src": null,
        "entry": 21653,
        "entry_name": "KoB@NeFaRiouS",
        "event_total": 45,
        "has_played": true,
        "id": 135814,
        "last_rank": 35768,
        "player_name": "Watchapon Tirachanon",
        "rank": 51772,
        "rank_sort": 51776,
        "total": 2351
      },
      {
        "club_badge_src": null,
        "entry": 22430,
        "entry_name": "World Trip FC",
        "event_total": 52,
        "has_played": true,
        "id": 140838,
        "last_rank": 44525,
        "player_name": "Idan Oz",
        "rank": 51772,
        "rank_sort": 51777,
        "total": 2351
      },
      {
        "club_badge_src": null,
        "entry": 35187,
        "entry_name": "GGMU",
        "event_total": 52,
        "has_played": true,
        "id": 225096,
        "last_rank": 34293,
        "player_name": "Anson Ong",
        "rank": 51772,
        "rank_sort": 51778,
        "total": 2351
      },
      {
        "club_badge_src": "https://fantasy.premierleague.com/gcs/plfpl-production-adobe-approved/plfpl-production/42837/0cdab4a6-efad-4645-a8a5-a52e704f3a12.png",
        "entry": 42837,
        "entry_name": "Charlestown FC",
        "event_total": 63,
        "has_played": true,
        "id": 274384,
        "last_rank": 62223,
        "player_name": "Alexander Kronberg",
        "rank": 51772,
        "rank_sort": 51779,
        "total": 2351
      },
      {
        "club_badge_src": null,
        "entry": 44509,
        "entry_name": "Fpl Brollas",
        "event_total": 67,
        "has_played": true,
        "id": 285263,
        "last_rank": 61950,
        "player_name": "Joel Ollas Mattsson",
        "rank": 51772,
        "rank_sort": 51780,
        "total": 2351
      },
      {
        "club_badge_src": null,
        "entry": 51195,
        "entry_name": "Ashbutton Grove",
        "event_total": 70,
        "has_played": true,
        "id": 329259,
        "last_rank": 76128,
        "player_name": "Martin Button",
        "rank": 51772,
        "rank_sort": 51781,
        "total": 2351
      },
      {
        "club_badge_src": null,
        "entry": 52987,
        "entry_name": "Sweet Chin Music",
        "event_total": 58,
        "has_played": true,
        "id": 340748,
        "last_rank": 47417,
        "player_name": "Harsh Garbyal",
        "rank": 51772,
        "rank_sort": 51782,
        "total": 2351
      },
      {
        "club_badge_src": null,
        "entry": 63650,
        "entry_name": "Shibobo fc",
        "event_total": 67,
        "has_played": true,
        "id": 410712,
        "last_rank": 69907,
        "player_name": "Bello Bello",
        "rank": 51772,
        "rank_sort": 51783,
        "total": 2351
      },
      {
        "club_badge_src": null,
        "entry": 64576,
        "entry_name": "Tibet U21s",
        "event_total": 65,
        "has_played": true,
        "id": 416805,
        "last_rank": 66057,
        "player_name": "James Marriott",
        "rank": 51772,
        "rank_sort": 51784,
        "total": 2351
      },
      {
        "club_badge_src": "https://fantasy.premierleague.com/gcs/plfpl-production-adobe-approved/plfpl-production/68405/4f0e839d-8459-4629-9b87-f18be939a50e.png",
        "entry": 68405,
        "entry_name": "Pr1nzyT1",
        "event_total": 39,
        "has_played": true,
        "id": 443221,
        "last_rank": 29199,
        "player_name": "Princewill Madugba",
        "rank": 51772,
        "rank_sort": 51785,
        "total": 2351
      },
      {
        "club_badge_src": "https://fantasy.premierleague.com/gcs/plfpl-production-adobe-approved/plfpl-production/68667/4e0140ef-9eaa-4235-b4f0-2972ec2e55eb.png",
        "entry": 68667,
        "entry_name": "Beast FC",
        "event_total": 65,
        "has_played": true,
        "id": 444994,
        "last_rank": 58688,
        "player_name": "Matteo Piscopo",
        "rank": 51772,
        "rank_sort": 51786,
        "total": 2351
      },
      {
        "club_badge_src": null,
        "entry": 118115,
        "entry_name": "ExpectedToulouse",
        "event_total": 69,
        "has_played": true,
        "id": 770880,
        "last_rank": 65475,
        "player_name": "Paul Mullineaux",
        "rank": 51772,
        "rank_sort": 51787,
        "total": 2351
      },
      {
        "club_badge_src": "https://fantasy.premierleague.com/gcs/plfpl-production-adobe-approved/plfpl-production/119416/e5d28a1d-acdf-4669-a59c-a111ae4c0a99.png",
        "entry": 119416,
        "entry_name": "Tiki Taka i kasztan",
        "event_total": 69,
        "has_played": true,
        "id": 779144,
        "last_rank": 73975,
        "player_name": "Olek P\u0119kacki",
        "rank": 51772,
        "rank_sort": 51788,
        "total": 2351
      },
      {
        "club_badge_src": null,
        "entry": 161906,
        "entry_name": "Wirtz Wizards",
        "event_total": 47,
        "has_played": true,
        "id": 1066936,
        "last_rank": 33332,
        "player_name": "Tariq Islam",
        "rank": 51772,
        "rank_sort": 51789,
        "total": 2351
      },
      {
        "club_badge_src": null,
        "entry": 167246,
        "entry_name": "ekitike maxx",
        "event_total": 59,
        "has_played": true,
        "id": 1105442,
        "last_rank": 55514,
        "player_name": "Matt Jusic-Woodley",
        "rank": 51772,
        "rank_sort": 51790,
        "total": 2351
      },
      {
        "club_badge_src": null,
        "entry": 192752,
        "entry_name": "Amr Australi",
        "event_total": 66,
        "has_played": true,
        "id": 1277358,
        "last_rank": 67695,
        "player_name": "Amr Elsayed",
        "rank": 51772,
        "rank_sort": 51791,
        "total": 2351
      },
      {
        "club_badge_src": null,
        "entry": 198755,
        "entry_name": "Pickled Cirkin",
        "event_total": 69,
        "has_played": true,
        "id": 1318986,
        "last_rank": 65475,
        "player_name": "John Edmundson",
        "rank": 51772,
        "rank_sort": 51792,
        "total": 2351
      },
      {
        "club_badge_src": null,
        "entry": 216222,
        "entry_name": "Ryan Ain't Nouri",
        "event_total": 66,
        "has_played": true,
        "id": 1438080,
        "last_rank": 67926,
        "player_name": "Ryan Mubobo",
        "rank": 51772,
        "rank_sort": 51793,
        "total": 2351
      },
      {
        "club_badge_src": null,
        "entry": 223341,
        "entry_name": "Archie's Boys",
        "event_total": 56,
        "has_played": true,
        "id": 1485683,
        "last_rank": 50635,
        "player_name": "Matthew Holland",
        "rank": 51772,
        "rank_sort": 51794,
        "total": 2351
      },
      {
        "club_badge_src": "https://fantasy.premierleague.com/gcs/plfpl-production-adobe-approved/plfpl-production/262279/8a2ac04c-453b-4422-a00d-4dca47a033d6.png",
        "entry": 262279,
        "entry_name": "La Pulga \u2664",
        "event_total": 40,
        "has_played": true,
        "id": 1743689,
        "last_rank": 30276,
        "player_name": "Zaki Ziani",
        "rank": 51772,
        "rank_sort": 51795,
        "total": 2351
      },
      {
        "club_badge_src": "https://fantasy.premierleague.com/gcs/plfpl-production-adobe-approved/plfpl-production/264507/d5c1d5ef-a1b1-4e12-994d-446b6f8841a0.png",
        "entry": 264507,
        "entry_name": "Mada FC",
        "event_total": 56,
        "has_played": true,
        "id": 1758973,
        "last_rank": 44525,
        "player_name": "Mada Ahmed",
        "rank": 51772,
        "rank_sort": 51796,
        "total": 2351
      },
      {
        "club_badge_src": null,
        "entry": 347348,
        "entry_name": "The Slot Machine",
        "event_total": 52,
        "has_played": true,
        "id": 2324998,
        "last_rank": 44672,
        "player_name": "Petar Opacic",
        "rank": 51772,
        "rank_sort": 51797,
        "total": 2351
      },
      {
        "club_badge_src": null,
        "entry": 368911,
        "entry_name": "Branthwaite A Minite",
        "event_total": 57,
        "has_played": true,
        "id": 2468701,
        "last_rank": 52205,
        "player_name": "Bobby Waine",
        "rank": 51772,
        "rank_sort": 51798,
        "total": 2351
      },
      {
        "club_badge_src": null,
        "entry": 369954,
        "entry_name": "Gunnaz",
        "event_total": 56,
        "has_played": true,
        "id": 2475584,
        "last_rank": 50772,
        "player_name": "Lio Gunnaz",
        "rank": 51772,
        "rank_sort": 51799,
        "total": 2351
      },
      {
        "club_badge_src": null,
        "entry": 416846,
        "entry_name": "Dunder Mifflin",
        "event_total": 63,
        "has_played": true,
        "id": 2794306,
        "last_rank": 62223,
        "player_name": "John Corley",
        "rank": 51772,
        "rank_sort": 51800,
        "total": 2351
      }
    ]
  }
}