{
  "last_updated_data": "2026-05-24T23:28:17Z",
  "league": {
    "admin_entry": null,
    "closed": false,
    "code_privacy": "p",
    "created": "2025-07-20T23:14:33.933835Z",
    "cup_league": 2815434,
    "has_cup": true,
    "id": 314,
    "league_type": "s",
    "max_entries": null,
    "name": "Overall",
    "rank": null,
    "scoring": "c",
    "start_event": 1
  },
  "new_entries": {
    "has_next": false,
    "page": 1,
    "results": []
  },
  "standings": {
    "has_next": true,
    "page": 338,
    "results": [
      {
        "club_badge_src": null,
        "entry": 7395711,
        "entry_name": "theonetheeonly!",
        "event_total": 40,
        "has_played": true,
        "id": 59974363,
        "last_rank": 8234,
        "player_name": "Dr Strange",
        "rank": 16786,
        "rank_sort": 16851,
        "total": 2385
      },
      {
        "club_badge_src": null,
        "entry": 7469953,
        "entry_name": "OneOfOne",
        "event_total": 62,
        "has_played": true,
        "id": 60894923,
        "last_rank": 16959,
        "player_name": "Jaun Nembhard",
        "rank": 16786,
        "rank_sort": 16852,
        "total": 2385
      },
      {
        "club_badge_src": null,
        "entry": 8068650,
        "entry_name": "Femogf\u00f8rti IL",
        "event_total": 68,
        "has_played": true,
        "id": 66509051,
        "last_rank": 24475,
        "player_name": "Sigve Rosslund",
        "rank": 16786,
        "rank_sort": 16853,
        "total": 2385
      },
      {
        "club_badge_src": null,
        "entry": 8203451,
        "entry_name": "\u0160e\u0161ko Express",
        "event_total": 62,
        "has_played": true,
        "id": 67773007,
        "last_rank": 19721,
        "player_name": "Ronan Bransfield",
        "rank": 16786,
        "rank_sort": 16854,
        "total": 2385
      },
      {
        "club_badge_src": null,
        "entry": 8251878,
        "entry_name": "CardioFPL",
        "event_total": 69,
        "has_played": true,
        "id": 68242156,
        "last_rank": 25172,
        "player_name": "Jirawat Darasrisak",
        "rank": 16786,
        "rank_sort": 16855,
        "total": 2385
      },
      {
        "club_badge_src": null,
        "entry": 8304602,
        "entry_name": "KFC",
        "event_total": 64,
        "has_played": true,
        "id": 68758434,
        "last_rank": 20888,
        "player_name": "Karen Waldram",
        "rank": 16786,
        "rank_sort": 16856,
        "total": 2385
      },
      {
        "club_badge_src": "https://fantasy.premierleague.com/gcs/plfpl-production-adobe-approved/plfpl-production/8437640/387c527c-0125-4fe9-a170-f51a0d40bf69.png",
        "entry": 8437640,
        "entry_name": "VIPERS FC",
        "event_total": 70,
        "has_played": true,
        "id": 70037589,
        "last_rank": 25902,
        "player_name": "Victor Igboji",
        "rank": 16786,
        "rank_sort": 16857,
        "total": 2385
      },
      {
        "club_badge_src": null,
        "entry": 8475719,
        "entry_name": "Scholes in one",
        "event_total": 68,
        "has_played": true,
        "id": 70399502,
        "last_rank": 24475,
        "player_name": "Joe Cowan",
        "rank": 16786,
        "rank_sort": 16858,
        "total": 2385
      },
      {
        "club_badge_src": null,
        "entry": 8767084,
        "entry_name": "WonItAll FC",
        "event_total": 65,
        "has_played": true,
        "id": 73226911,
        "last_rank": 18790,
        "player_name": "Billal Machhour",
        "rank": 16786,
        "rank_sort": 16859,
        "total": 2385
      },
      {
        "club_badge_src": null,
        "entry": 9426403,
        "entry_name": "MahrezFC",
        "event_total": 62,
        "has_played": true,
        "id": 79626514,
        "last_rank": 16959,
        "player_name": "Wisdom Eze",
        "rank": 16786,
        "rank_sort": 16860,
        "total": 2385
      },
      {
        "club_badge_src": "https://fantasy.premierleague.com/gcs/plfpl-production-adobe-approved/plfpl-production/9430/03b1e1e2-d543-4a91-ae1c-837a2b934179.png",
        "entry": 9430,
        "entry_name": "\u02e2\u1d57\u1d43\u02b8 \u02b0\u1d58\u1d50\u1d47\u02e1\u1d49 \u1d49\u02b0",
        "event_total": 64,
        "has_played": true,
        "id": 55436,
        "last_rank": 18377,
        "player_name": "albert chan",
        "rank": 16861,
        "rank_sort": 16861,
        "total": 2385
      },
      {
        "club_badge_src": null,
        "entry": 37933,
        "entry_name": "The Headbangers",
        "event_total": 66,
        "has_played": true,
        "id": 243050,
        "last_rank": 19835,
        "player_name": "Dag Kristian Kr\u00e5kmo",
        "rank": 16861,
        "rank_sort": 16862,
        "total": 2385
      },
      {
        "club_badge_src": null,
        "entry": 60439,
        "entry_name": "Hacunha Mateta",
        "event_total": 56,
        "has_played": true,
        "id": 389139,
        "last_rank": 15876,
        "player_name": "James Adamson",
        "rank": 16861,
        "rank_sort": 16863,
        "total": 2385
      },
      {
        "club_badge_src": null,
        "entry": 85902,
        "entry_name": "FC Celery",
        "event_total": 67,
        "has_played": true,
        "id": 559647,
        "last_rank": 23748,
        "player_name": "Jack Bennett",
        "rank": 16861,
        "rank_sort": 16864,
        "total": 2385
      },
      {
        "club_badge_src": null,
        "entry": 105402,
        "entry_name": "Azaleans",
        "event_total": 64,
        "has_played": true,
        "id": 687455,
        "last_rank": 18377,
        "player_name": "Phil Jester",
        "rank": 16861,
        "rank_sort": 16865,
        "total": 2385
      },
      {
        "club_badge_src": null,
        "entry": 120822,
        "entry_name": "Blues World Champion",
        "event_total": 60,
        "has_played": true,
        "id": 788388,
        "last_rank": 18377,
        "player_name": "Mohamed Shaban",
        "rank": 16861,
        "rank_sort": 16866,
        "total": 2385
      },
      {
        "club_badge_src": null,
        "entry": 188012,
        "entry_name": "Noni Your Business",
        "event_total": 64,
        "has_played": true,
        "id": 1243581,
        "last_rank": 18377,
        "player_name": "Benn Wilson",
        "rank": 16861,
        "rank_sort": 16867,
        "total": 2385
      },
      {
        "club_badge_src": null,
        "entry": 196609,
        "entry_name": "Huseb\u00f8s h\u00f8vdinger",
        "event_total": 70,
        "has_played": true,
        "id": 1304248,
        "last_rank": 22830,
        "player_name": "H\u00e5kon Monan Husebo",
        "rank": 16861,
        "rank_sort": 16868,
        "total": 2385
      },
      {
        "club_badge_src": null,
        "entry": 196676,
        "entry_name": "LosFlacosXIII",
        "event_total": 79,
        "has_played": true,
        "id": 1304708,
        "last_rank": 35424,
        "player_name": "Florian Coste",
        "rank": 16861,
        "rank_sort": 16869,
        "total": 2385
      },
      {
        "club_badge_src": null,
        "entry": 225896,
        "entry_name": "Things Cld Get Messi",
        "event_total": 68,
        "has_played": true,
        "id": 1502739,
        "last_rank": 24570,
        "player_name": "Gary Armstrong",
        "rank": 16861,
        "rank_sort": 16870,
        "total": 2385
      },
      {
        "club_badge_src": null,
        "entry": 293750,
        "entry_name": "Coutinkeruno23",
        "event_total": 49,
        "has_played": true,
        "id": 1961018,
        "last_rank": 10102,
        "player_name": "Steve Couhig",
        "rank": 16861,
        "rank_sort": 16871,
        "total": 2385
      },
      {
        "club_badge_src": null,
        "entry": 339448,
        "entry_name": "Mohammed For fantasy",
        "event_total": 45,
        "has_played": true,
        "id": 2272361,
        "last_rank": 8552,
        "player_name": "Mohammed Musa",
        "rank": 16861,
        "rank_sort": 16872,
        "total": 2385
      },
      {
        "club_badge_src": null,
        "entry": 382504,
        "entry_name": "OhDearGaard",
        "event_total": 68,
        "has_played": true,
        "id": 2564804,
        "last_rank": 24143,
        "player_name": "Anton Preis",
        "rank": 16861,
        "rank_sort": 16873,
        "total": 2385
      },
      {
        "club_badge_src": null,
        "entry": 388529,
        "entry_name": "WISTKK",
        "event_total": 86,
        "has_played": true,
        "id": 2606366,
        "last_rank": 44048,
        "player_name": "Micha\u0142 Nowy",
        "rank": 16861,
        "rank_sort": 16874,
        "total": 2385
      },
      {
        "club_badge_src": "https://fantasy.premierleague.com/gcs/plfpl-production-adobe-approved/plfpl-production/411090/af88509f-b216-4c8a-9d73-8b685906e588.png",
        "entry": 411090,
        "entry_name": "69 \u00b0 NORTH",
        "event_total": 62,
        "has_played": true,
        "id": 2756413,
        "last_rank": 17078,
        "player_name": "\u00d8rjan Lysvoll",
        "rank": 16861,
        "rank_sort": 16875,
        "total": 2385
      },
      {
        "club_badge_src": null,
        "entry": 447723,
        "entry_name": "HaChunhaMateta",
        "event_total": 52,
        "has_played": true,
        "id": 3003428,
        "last_rank": 13500,
        "player_name": "Rayan Nasir",
        "rank": 16861,
        "rank_sort": 16876,
        "total": 2385
      },
      {
        "club_badge_src": null,
        "entry": 462525,
        "entry_name": "Ravnevand IL",
        "event_total": 60,
        "has_played": true,
        "id": 3102533,
        "last_rank": 13401,
        "player_name": "Jan Michael Ravnevand",
        "rank": 16861,
        "rank_sort": 16877,
        "total": 2385
      },
      {
        "club_badge_src": "https://fantasy.premierleague.com/gcs/plfpl-production-adobe-approved/plfpl-production/471384/5d9f9fe1-1e50-4d12-9adb-501c0ca8ea94.png",
        "entry": 471384,
        "entry_name": "By The Jaffas",
        "event_total": 61,
        "has_played": true,
        "id": 3164639,
        "last_rank": 16441,
        "player_name": "Farhad Shawkat",
        "rank": 16861,
        "rank_sort": 16878,
        "total": 2385
      },
      {
        "club_badge_src": "https://fantasy.premierleague.com/gcs/plfpl-production-adobe-approved/plfpl-production/489636/8c6c251d-a684-41f8-b9da-d4e0a0c7b21e.png",
        "entry": 489636,
        "entry_name": "Scleroderma Fighters",
        "event_total": 48,
        "has_played": true,
        "id": 3287053,
        "last_rank": 11419,
        "player_name": "Ian Turvey",
        "rank": 16861,
        "rank_sort": 16879,
        "total": 2385
      },
      {
        "club_badge_src": null,
        "entry": 516948,
        "entry_name": "Mcginn it, to win it",
        "event_total": 63,
        "has_played": true,
        "id": 3470623,
        "last_rank": 20624,
        "player_name": "Paul Hughes",
        "rank": 16861,
        "rank_sort": 16880,
        "total": 2385
      },
      {
        "club_badge_src": null,
        "entry": 588730,
        "entry_name": "Norfolk n Chance",
        "event_total": 50,
        "has_played": true,
        "id": 3964693,
        "last_rank": 12470,
        "player_name": "James Abbott",
        "rank": 16861,
        "rank_sort": 16881,
        "total": 2385
      },
      {
        "club_badge_src": "https://fantasy.premierleague.com/gcs/plfpl-production-adobe-approved/plfpl-production/659856/33aaeff1-1164-441f-9416-96b467f0d926.png",
        "entry": 659856,
        "entry_name": "Gipsy King Kong",
        "event_total": 48,
        "has_played": true,
        "id": 4459583,
        "last_rank": 9644,
        "player_name": "Dominick Valusescu",
        "rank": 16861,
        "rank_sort": 16882,
        "total": 2385
      },
      {
        "club_badge_src": "https://fantasy.premierleague.com/gcs/plfpl-production-adobe-approved/plfpl-production/718961/ba78da1e-a01e-48a0-81f5-7f8811f83699.png",
        "entry": 718961,
        "entry_name": "Yotobia",
        "event_total": 55,
        "has_played": true,
        "id": 4879427,
        "last_rank": 15164,
        "player_name": "Mostafa Ahmed",
        "rank": 16861,
        "rank_sort": 16883,
        "total": 2385
      },
      {
        "club_badge_src": null,
        "entry": 742704,
        "entry_name": "FrimPing to Pong",
        "event_total": 51,
        "has_played": true,
        "id": 5051856,
        "last_rank": 10992,
        "player_name": "Omar Shami",
        "rank": 16861,
        "rank_sort": 16884,
        "total": 2385
      },
      {
        "club_badge_src": null,
        "entry": 750024,
        "entry_name": "King Kev FC",
        "event_total": 65,
        "has_played": true,
        "id": 5103032,
        "last_rank": 22064,
        "player_name": "Kev Myers",
        "rank": 16861,
        "rank_sort": 16885,
        "total": 2385
      },
      {
        "club_badge_src": null,
        "entry": 786559,
        "entry_name": "\u062e\u0648\u062f \u064a\u0627\u0632\u0644\u0641\u064a",
        "event_total": 67,
        "has_played": true,
        "id": 5376268,
        "last_rank": 14857,
        "player_name": "tarek hussein",
        "rank": 16861,
        "rank_sort": 16886,
        "total": 2385
      },
      {
        "club_badge_src": null,
        "entry": 1001503,
        "entry_name": "Rubin Me Softly",
        "event_total": 50,
        "has_played": true,
        "id": 6922939,
        "last_rank": 12470,
        "player_name": "Jason Hain",
        "rank": 16861,
        "rank_sort": 16887,
        "total": 2385
      },
      {
        "club_badge_src": null,
        "entry": 1007681,
        "entry_name": "Team Sweat",
        "event_total": 75,
        "has_played": true,
        "id": 6966718,
        "last_rank": 26710,
        "player_name": "Josh Augoustatos",
        "rank": 16861,
        "rank_sort": 16888,
        "total": 2385
      },
      {
        "club_badge_src": null,
        "entry": 1020219,
        "entry_name": "Boozy Suzi",
        "event_total": 64,
        "has_played": true,
        "id": 7058282,
        "last_rank": 18377,
        "player_name": "Suzi Orman",
        "rank": 16861,
        "rank_sort": 16889,
        "total": 2385
      },
      {
        "club_badge_src": null,
        "entry": 1059930,
        "entry_name": "Mandem FC",
        "event_total": 49,
        "has_played": true,
        "id": 7335488,
        "last_rank": 11957,
        "player_name": "John McCarty",
        "rank": 16861,
        "rank_sort": 16890,
        "total": 2385
      },
      {
        "club_badge_src": null,
        "entry": 1079190,
        "entry_name": "Odegaard's Eleven",
        "event_total": 53,
        "has_played": true,
        "id": 7472411,
        "last_rank": 14102,
        "player_name": "Dean Nurthen",
        "rank": 16861,
        "rank_sort": 16891,
        "total": 2385
      },
      {
        "club_badge_src": null,
        "entry": 1137550,
        "entry_name": "Dynamo Chicken Kyiv",
        "event_total": 73,
        "has_played": true,
        "id": 7885168,
        "last_rank": 25330,
        "player_name": "Nathaniel Sharpley",
        "rank": 16861,
        "rank_sort": 16892,
        "total": 2385
      },
      {
        "club_badge_src": null,
        "entry": 1186308,
        "entry_name": "EZE COME, EZE GO",
        "event_total": 61,
        "has_played": true,
        "id": 8230999,
        "last_rank": 13947,
        "player_name": "sam Harris",
        "rank": 16861,
        "rank_sort": 16893,
        "total": 2385
      },
      {
        "club_badge_src": null,
        "entry": 1308678,
        "entry_name": "Bruspurs",
        "event_total": 72,
        "has_played": true,
        "id": 9096537,
        "last_rank": 21159,
        "player_name": "Tomas Bruvik",
        "rank": 16861,
        "rank_sort": 16894,
        "total": 2385
      },
      {
        "club_badge_src": null,
        "entry": 1327426,
        "entry_name": "How's The Bacon?",
        "event_total": 57,
        "has_played": true,
        "id": 9226849,
        "last_rank": 14040,
        "player_name": "Michael Jowett",
        "rank": 16861,
        "rank_sort": 16895,
        "total": 2385
      },
      {
        "club_badge_src": null,
        "entry": 1469739,
        "entry_name": "RedDill Fc",
        "event_total": 69,
        "has_played": true,
        "id": 10244950,
        "last_rank": 22064,
        "player_name": "Alan Doyle",
        "rank": 16861,
        "rank_sort": 16896,
        "total": 2385
      },
      {
        "club_badge_src": null,
        "entry": 1536818,
        "entry_name": "Team Zaza",
        "event_total": 56,
        "has_played": true,
        "id": 10725489,
        "last_rank": 13500,
        "player_name": "Youssef Eltawil",
        "rank": 16861,
        "rank_sort": 16897,
        "total": 2385
      },
      {
        "club_badge_src": null,
        "entry": 1657197,
        "entry_name": "Libakken",
        "event_total": 44,
        "has_played": true,
        "id": 11602273,
        "last_rank": 6839,
        "player_name": "Dag Krister Skaug",
        "rank": 16861,
        "rank_sort": 16898,
        "total": 2385
      },
      {
        "club_badge_src": null,
        "entry": 1659491,
        "entry_name": "Ganzy",
        "event_total": 69,
        "has_played": true,
        "id": 11618397,
        "last_rank": 25172,
        "player_name": "Ganzy Gan",
        "rank": 16861,
        "rank_sort": 16899,
        "total": 2385
      },
      {
        "club_badge_src": null,
        "entry": 1911889,
        "entry_name": "Wood, so good",
        "event_total": 67,
        "has_played": true,
        "id": 13479329,
        "last_rank": 23656,
        "player_name": "Inioluwa Adeniyi",
        "rank": 16861,
        "rank_sort": 16900,
        "total": 2385
      }
    ]
  }
}