{
  "last_updated_data": "2026-05-24T23:28:17Z",
  "league": {
    "admin_entry": null,
    "closed": false,
    "code_privacy": "p",
    "created": "2025-07-20T23:14:33.933835Z",
    "cup_league": 2815434,
    "has_cup": true,
    "id": 314,
    "league_type": "s",
    "max_entries": null,
    "name": "Overall",
    "rank": null,
    "scoring": "c",
    "start_event": 1
  },
  "new_entries": {
    "has_next": false,
    "page": 1,
    "results": []
  },
  "standings": {
    "has_next": true,
    "page": 1449,
    "results": [
      {
        "club_badge_src": null,
        "entry": 847586,
        "entry_name": "HvaSomHelst",
        "event_total": 54,
        "has_played": true,
        "id": 5809068,
        "last_rank": 60168,
        "player_name": "Remi Bjerkan",
        "rank": 72321,
        "rank_sort": 72401,
        "total": 2339
      },
      {
        "club_badge_src": "https://fantasy.premierleague.com/gcs/plfpl-production-adobe-approved/plfpl-production/853322/6ca0c0ea-fade-4662-9433-1233ccc54f86.png",
        "entry": 853322,
        "entry_name": "\u0642\u0627\u0639\u062f\u064a\u0646 \u0644\u064a\u0629",
        "event_total": 57,
        "has_played": true,
        "id": 5849042,
        "last_rank": 73975,
        "player_name": "Mohamed Ragab",
        "rank": 72321,
        "rank_sort": 72402,
        "total": 2339
      },
      {
        "club_badge_src": null,
        "entry": 878664,
        "entry_name": "Coverless Sport Club",
        "event_total": 57,
        "has_played": true,
        "id": 6025201,
        "last_rank": 65163,
        "player_name": "HUS COVERLESS",
        "rank": 72321,
        "rank_sort": 72403,
        "total": 2339
      },
      {
        "club_badge_src": null,
        "entry": 909646,
        "entry_name": "Super_bank",
        "event_total": 60,
        "has_played": true,
        "id": 6253581,
        "last_rank": 80194,
        "player_name": "Super Bank",
        "rank": 72321,
        "rank_sort": 72404,
        "total": 2339
      },
      {
        "club_badge_src": null,
        "entry": 928811,
        "entry_name": "FK Bunnsn\u00f8re",
        "event_total": 57,
        "has_played": true,
        "id": 6390654,
        "last_rank": 73720,
        "player_name": "Christer Bj\u00f8rnstadjordet",
        "rank": 72321,
        "rank_sort": 72405,
        "total": 2339
      },
      {
        "club_badge_src": null,
        "entry": 938643,
        "entry_name": "Gazzade FC",
        "event_total": 52,
        "has_played": true,
        "id": 6460332,
        "last_rank": 63724,
        "player_name": "Gareth Atkinson",
        "rank": 72321,
        "rank_sort": 72406,
        "total": 2339
      },
      {
        "club_badge_src": null,
        "entry": 939180,
        "entry_name": "Atheer Talb",
        "event_total": 74,
        "has_played": true,
        "id": 6463975,
        "last_rank": 115760,
        "player_name": "Atheer talb Alshaghaby",
        "rank": 72321,
        "rank_sort": 72407,
        "total": 2339
      },
      {
        "club_badge_src": null,
        "entry": 981072,
        "entry_name": "Bobby Boucher Jr",
        "event_total": 75,
        "has_played": true,
        "id": 6763467,
        "last_rank": 118654,
        "player_name": "Connor Foster",
        "rank": 72321,
        "rank_sort": 72408,
        "total": 2339
      },
      {
        "club_badge_src": null,
        "entry": 992935,
        "entry_name": "The Mighty Pandas",
        "event_total": 71,
        "has_played": true,
        "id": 6848528,
        "last_rank": 106763,
        "player_name": "Phasit Adisaitham",
        "rank": 72321,
        "rank_sort": 72409,
        "total": 2339
      },
      {
        "club_badge_src": null,
        "entry": 1008855,
        "entry_name": "AC ZAXiS",
        "event_total": 36,
        "has_played": true,
        "id": 6974936,
        "last_rank": 39023,
        "player_name": "Sami Heiskanen",
        "rank": 72321,
        "rank_sort": 72410,
        "total": 2339
      },
      {
        "club_badge_src": null,
        "entry": 1077348,
        "entry_name": "Average Joes",
        "event_total": 59,
        "has_played": true,
        "id": 7459567,
        "last_rank": 77999,
        "player_name": "Cameron Segal",
        "rank": 72321,
        "rank_sort": 72411,
        "total": 2339
      },
      {
        "club_badge_src": null,
        "entry": 1142920,
        "entry_name": "Distinctly Average",
        "event_total": 54,
        "has_played": true,
        "id": 7922504,
        "last_rank": 67695,
        "player_name": "Josh Self",
        "rank": 72321,
        "rank_sort": 72412,
        "total": 2339
      },
      {
        "club_badge_src": null,
        "entry": 1177771,
        "entry_name": "Piroemaniac",
        "event_total": 48,
        "has_played": true,
        "id": 8171898,
        "last_rank": 57001,
        "player_name": "Owen McElhinney",
        "rank": 72321,
        "rank_sort": 72413,
        "total": 2339
      },
      {
        "club_badge_src": null,
        "entry": 1180739,
        "entry_name": "12Time SCFC",
        "event_total": 72,
        "has_played": true,
        "id": 8192325,
        "last_rank": 98896,
        "player_name": "Saif Ali",
        "rank": 72321,
        "rank_sort": 72414,
        "total": 2339
      },
      {
        "club_badge_src": "https://fantasy.premierleague.com/gcs/plfpl-production-adobe-approved/plfpl-production/1221630/e68e9878-527e-4106-9bd9-8dd571922f84.png",
        "entry": 1221630,
        "entry_name": "FPL Astor",
        "event_total": 61,
        "has_played": true,
        "id": 8481498,
        "last_rank": 73423,
        "player_name": "Lawrence Lee",
        "rank": 72321,
        "rank_sort": 72415,
        "total": 2339
      },
      {
        "club_badge_src": null,
        "entry": 1276164,
        "entry_name": "ChampagneSuperRovers",
        "event_total": 67,
        "has_played": true,
        "id": 8867712,
        "last_rank": 96374,
        "player_name": "Riley Tobin",
        "rank": 72321,
        "rank_sort": 72416,
        "total": 2339
      },
      {
        "club_badge_src": null,
        "entry": 1293413,
        "entry_name": "Wirtz'n'All",
        "event_total": 63,
        "has_played": true,
        "id": 8988041,
        "last_rank": 86735,
        "player_name": "Mark McKeary",
        "rank": 72321,
        "rank_sort": 72417,
        "total": 2339
      },
      {
        "club_badge_src": null,
        "entry": 1303638,
        "entry_name": "Shambleham",
        "event_total": 77,
        "has_played": true,
        "id": 9060620,
        "last_rank": 123908,
        "player_name": "Oskar Jonsson",
        "rank": 72321,
        "rank_sort": 72418,
        "total": 2339
      },
      {
        "club_badge_src": null,
        "entry": 1318414,
        "entry_name": "Elgjauuu",
        "event_total": 67,
        "has_played": true,
        "id": 9163710,
        "last_rank": 96374,
        "player_name": "Joakim Vetti Vatsgar",
        "rank": 72321,
        "rank_sort": 72419,
        "total": 2339
      },
      {
        "club_badge_src": null,
        "entry": 1327373,
        "entry_name": "Wirtz Nightmare",
        "event_total": 58,
        "has_played": true,
        "id": 9226480,
        "last_rank": 75874,
        "player_name": "Rory O'Hare",
        "rank": 72321,
        "rank_sort": 72420,
        "total": 2339
      },
      {
        "club_badge_src": null,
        "entry": 1335138,
        "entry_name": "JCFC",
        "event_total": 59,
        "has_played": true,
        "id": 9280490,
        "last_rank": 69323,
        "player_name": "Jonathan Crawford",
        "rank": 72321,
        "rank_sort": 72421,
        "total": 2339
      },
      {
        "club_badge_src": null,
        "entry": 1380341,
        "entry_name": "Khalid al3arab",
        "event_total": 62,
        "has_played": true,
        "id": 9595589,
        "last_rank": 84731,
        "player_name": "Khalid Abbas",
        "rank": 72321,
        "rank_sort": 72422,
        "total": 2339
      },
      {
        "club_badge_src": null,
        "entry": 1416583,
        "entry_name": "Champagne Khusanova",
        "event_total": 39,
        "has_played": true,
        "id": 9862844,
        "last_rank": 42648,
        "player_name": "Darragh Hickey",
        "rank": 72321,
        "rank_sort": 72423,
        "total": 2339
      },
      {
        "club_badge_src": null,
        "entry": 1433849,
        "entry_name": "FK Bj\u00f8rn",
        "event_total": 60,
        "has_played": true,
        "id": 9991046,
        "last_rank": 71386,
        "player_name": "Bj\u00f8rn Harald Pedersen",
        "rank": 72321,
        "rank_sort": 72424,
        "total": 2339
      },
      {
        "club_badge_src": "https://fantasy.premierleague.com/gcs/plfpl-production-adobe-approved/plfpl-production/1445430/358d5ea6-4b35-4c02-9c7b-64e6535dc7b9.png",
        "entry": 1445430,
        "entry_name": "TheWarLord",
        "event_total": 68,
        "has_played": true,
        "id": 10072110,
        "last_rank": 89055,
        "player_name": "John Wick 0011",
        "rank": 72321,
        "rank_sort": 72425,
        "total": 2339
      },
      {
        "club_badge_src": "https://fantasy.premierleague.com/gcs/plfpl-production-adobe-approved/plfpl-production/1464377/1277f61f-a9eb-4338-be15-0acd5be4d73c.png",
        "entry": 1464377,
        "entry_name": "FCGuners89",
        "event_total": 64,
        "has_played": true,
        "id": 10207350,
        "last_rank": 79817,
        "player_name": "Ivan Krstic",
        "rank": 72321,
        "rank_sort": 72426,
        "total": 2339
      },
      {
        "club_badge_src": "https://fantasy.premierleague.com/gcs/plfpl-production-adobe-approved/plfpl-production/1476042/3d8868ea-add8-4a0c-be26-46d77625eab8.png",
        "entry": 1476042,
        "entry_name": "Aston Bilal FC \u2b50\ufe0f\u269c\ufe0f",
        "event_total": 77,
        "has_played": true,
        "id": 10289230,
        "last_rank": 111405,
        "player_name": "Bilal Alijevski",
        "rank": 72321,
        "rank_sort": 72427,
        "total": 2339
      },
      {
        "club_badge_src": null,
        "entry": 1498920,
        "entry_name": "\u0627\u0644\u0645\u0634\u0637\u0634\u0637\ufffd",
        "event_total": 67,
        "has_played": true,
        "id": 10453256,
        "last_rank": 96777,
        "player_name": "Ibrahim Alariby",
        "rank": 72321,
        "rank_sort": 72428,
        "total": 2339
      },
      {
        "club_badge_src": null,
        "entry": 1512774,
        "entry_name": "Hero Gouton Utd",
        "event_total": 57,
        "has_played": true,
        "id": 10550773,
        "last_rank": 73423,
        "player_name": "Paragasu Man",
        "rank": 72321,
        "rank_sort": 72429,
        "total": 2339
      },
      {
        "club_badge_src": null,
        "entry": 1534909,
        "entry_name": "\u0627\u0644\u0628\u0648\u0644\u063a\u0627 \ufffd",
        "event_total": 56,
        "has_played": true,
        "id": 10711607,
        "last_rank": 71713,
        "player_name": "omer mohamed \ud83c\uddf8\ud83c\udde9 \u270c",
        "rank": 72321,
        "rank_sort": 72430,
        "total": 2339
      },
      {
        "club_badge_src": null,
        "entry": 1548785,
        "entry_name": "Do\u017eivotna",
        "event_total": 51,
        "has_played": true,
        "id": 10813381,
        "last_rank": 62223,
        "player_name": "Dragan Cupic",
        "rank": 72321,
        "rank_sort": 72431,
        "total": 2339
      },
      {
        "club_badge_src": null,
        "entry": 1732819,
        "entry_name": "WinningWood",
        "event_total": 59,
        "has_played": true,
        "id": 12154912,
        "last_rank": 77676,
        "player_name": "Clare Wood",
        "rank": 72321,
        "rank_sort": 72432,
        "total": 2339
      },
      {
        "club_badge_src": null,
        "entry": 1755746,
        "entry_name": "Sabra FC",
        "event_total": 53,
        "has_played": true,
        "id": 12326293,
        "last_rank": 65475,
        "player_name": "Omar Mohie",
        "rank": 72321,
        "rank_sort": 72433,
        "total": 2339
      },
      {
        "club_badge_src": null,
        "entry": 1769996,
        "entry_name": "Inter Ilan",
        "event_total": 67,
        "has_played": true,
        "id": 12433788,
        "last_rank": 96777,
        "player_name": "Ilan Hodes",
        "rank": 72321,
        "rank_sort": 72434,
        "total": 2339
      },
      {
        "club_badge_src": null,
        "entry": 1787949,
        "entry_name": "Le Prince Waly",
        "event_total": 62,
        "has_played": true,
        "id": 12562905,
        "last_rank": 84731,
        "player_name": "Islam Waly",
        "rank": 72321,
        "rank_sort": 72435,
        "total": 2339
      },
      {
        "club_badge_src": null,
        "entry": 1819661,
        "entry_name": "HUSSEIN ali",
        "event_total": 95,
        "has_played": true,
        "id": 12796850,
        "last_rank": 156249,
        "player_name": "Hussain Ali",
        "rank": 72321,
        "rank_sort": 72436,
        "total": 2339
      },
      {
        "club_badge_src": null,
        "entry": 1846082,
        "entry_name": "10GiftedChat?",
        "event_total": 63,
        "has_played": true,
        "id": 12989375,
        "last_rank": 87074,
        "player_name": "Farhan Chop",
        "rank": 72321,
        "rank_sort": 72437,
        "total": 2339
      },
      {
        "club_badge_src": null,
        "entry": 1879020,
        "entry_name": "UMFB",
        "event_total": 56,
        "has_played": true,
        "id": 13237481,
        "last_rank": 71386,
        "player_name": "Bjarni \u00c1g\u00fast",
        "rank": 72321,
        "rank_sort": 72438,
        "total": 2339
      },
      {
        "club_badge_src": null,
        "entry": 1889704,
        "entry_name": "Unreal_Madrid",
        "event_total": 64,
        "has_played": true,
        "id": 13318479,
        "last_rank": 89426,
        "player_name": "jas preet",
        "rank": 72321,
        "rank_sort": 72439,
        "total": 2339
      },
      {
        "club_badge_src": null,
        "entry": 1903302,
        "entry_name": "St Pirans Expat XI",
        "event_total": 49,
        "has_played": true,
        "id": 13417350,
        "last_rank": 51720,
        "player_name": "Terry Coombe",
        "rank": 72321,
        "rank_sort": 72440,
        "total": 2339
      },
      {
        "club_badge_src": null,
        "entry": 1907582,
        "entry_name": "Grandad Strikers",
        "event_total": 58,
        "has_played": true,
        "id": 13448269,
        "last_rank": 75874,
        "player_name": "Brian Welsh",
        "rank": 72321,
        "rank_sort": 72441,
        "total": 2339
      },
      {
        "club_badge_src": null,
        "entry": 1908050,
        "entry_name": "Yoro Wissa Harry",
        "event_total": 59,
        "has_played": true,
        "id": 13451649,
        "last_rank": 69323,
        "player_name": "Philip Kvam",
        "rank": 72321,
        "rank_sort": 72442,
        "total": 2339
      },
      {
        "club_badge_src": null,
        "entry": 1909441,
        "entry_name": "Gimmedaloot",
        "event_total": 57,
        "has_played": true,
        "id": 13461754,
        "last_rank": 73720,
        "player_name": "Zully Shah",
        "rank": 72321,
        "rank_sort": 72443,
        "total": 2339
      },
      {
        "club_badge_src": null,
        "entry": 1921662,
        "entry_name": "Seagoal",
        "event_total": 78,
        "has_played": true,
        "id": 13550764,
        "last_rank": 103526,
        "player_name": "Annika Grobler",
        "rank": 72321,
        "rank_sort": 72444,
        "total": 2339
      },
      {
        "club_badge_src": null,
        "entry": 2001374,
        "entry_name": "Reijnders keepers",
        "event_total": 33,
        "has_played": true,
        "id": 14148799,
        "last_rank": 35619,
        "player_name": "Ian Nagoli",
        "rank": 72321,
        "rank_sort": 72445,
        "total": 2339
      },
      {
        "club_badge_src": null,
        "entry": 2010761,
        "entry_name": "Wirtz your problem?",
        "event_total": 45,
        "has_played": true,
        "id": 14218158,
        "last_rank": 45714,
        "player_name": "Chris Gibbs",
        "rank": 72321,
        "rank_sort": 72446,
        "total": 2339
      },
      {
        "club_badge_src": null,
        "entry": 2074750,
        "entry_name": "Tesco Mcneil Deal",
        "event_total": 75,
        "has_played": true,
        "id": 14710002,
        "last_rank": 106259,
        "player_name": "Caleb Richards",
        "rank": 72321,
        "rank_sort": 72447,
        "total": 2339
      },
      {
        "club_badge_src": null,
        "entry": 2117280,
        "entry_name": "KFM",
        "event_total": 52,
        "has_played": true,
        "id": 15038795,
        "last_rank": 63724,
        "player_name": "Ca On",
        "rank": 72321,
        "rank_sort": 72448,
        "total": 2339
      },
      {
        "club_badge_src": null,
        "entry": 2141068,
        "entry_name": "Le F\u00e9e Fi Fo Fum",
        "event_total": 52,
        "has_played": true,
        "id": 15216793,
        "last_rank": 64005,
        "player_name": "Charles Knowlton",
        "rank": 72321,
        "rank_sort": 72449,
        "total": 2339
      },
      {
        "club_badge_src": null,
        "entry": 2162228,
        "entry_name": "Eze Come, Eze Go",
        "event_total": 64,
        "has_played": true,
        "id": 15370842,
        "last_rank": 79431,
        "player_name": "Tom de Vere",
        "rank": 72321,
        "rank_sort": 72450,
        "total": 2339
      }
    ]
  }
}