{
  "last_updated_data": "2026-05-24T23:28:17Z",
  "league": {
    "admin_entry": null,
    "closed": false,
    "code_privacy": "p",
    "created": "2025-07-20T23:14:33.933835Z",
    "cup_league": 2815434,
    "has_cup": true,
    "id": 314,
    "league_type": "s",
    "max_entries": null,
    "name": "Overall",
    "rank": null,
    "scoring": "c",
    "start_event": 1
  },
  "new_entries": {
    "has_next": false,
    "page": 1,
    "results": []
  },
  "standings": {
    "has_next": true,
    "page": 677,
    "results": [
      {
        "club_badge_src": null,
        "entry": 4622931,
        "entry_name": "Svabbens \u00e4nglar",
        "event_total": 59,
        "has_played": true,
        "id": 35340991,
        "last_rank": 31371,
        "player_name": "Kajsa Pettersson",
        "rank": 33762,
        "rank_sort": 33801,
        "total": 2365
      },
      {
        "club_badge_src": null,
        "entry": 5933436,
        "entry_name": "JezykDzisiajNiePije",
        "event_total": 63,
        "has_played": true,
        "id": 46649189,
        "last_rank": 35926,
        "player_name": "Marcin Derewenda",
        "rank": 33762,
        "rank_sort": 33802,
        "total": 2365
      },
      {
        "club_badge_src": null,
        "entry": 6384263,
        "entry_name": "Change Name",
        "event_total": 63,
        "has_played": true,
        "id": 50780461,
        "last_rank": 35926,
        "player_name": "Gary Lynch",
        "rank": 33762,
        "rank_sort": 33803,
        "total": 2365
      },
      {
        "club_badge_src": "https://fantasy.premierleague.com/gcs/plfpl-production-adobe-approved/plfpl-production/6389182/f98cc48c-dcc0-4196-a476-add9b20bf33a.png",
        "entry": 6389182,
        "entry_name": "IronWarrior",
        "event_total": 66,
        "has_played": true,
        "id": 50822652,
        "last_rank": 39585,
        "player_name": "Suman Uprety",
        "rank": 33762,
        "rank_sort": 33804,
        "total": 2365
      },
      {
        "club_badge_src": null,
        "entry": 7874449,
        "entry_name": "YesZirkzee",
        "event_total": 72,
        "has_played": true,
        "id": 64753762,
        "last_rank": 53952,
        "player_name": "Angelo Georgiou",
        "rank": 33762,
        "rank_sort": 33805,
        "total": 2365
      },
      {
        "club_badge_src": null,
        "entry": 9067892,
        "entry_name": "Trust the process FC",
        "event_total": 70,
        "has_played": true,
        "id": 76138044,
        "last_rank": 39510,
        "player_name": "Tarek El Hariri",
        "rank": 33762,
        "rank_sort": 33806,
        "total": 2365
      },
      {
        "club_badge_src": null,
        "entry": 47199,
        "entry_name": "Neville\u2019s Advocate",
        "event_total": 68,
        "has_played": true,
        "id": 302686,
        "last_rank": 47920,
        "player_name": "Sanket Chaudhury",
        "rank": 33807,
        "rank_sort": 33807,
        "total": 2365
      },
      {
        "club_badge_src": "https://fantasy.premierleague.com/gcs/plfpl-production-adobe-approved/plfpl-production/107871/5a857ca6-5244-4348-81e7-77b3af5e6dae.png",
        "entry": 107871,
        "entry_name": "Worms From Uranus",
        "event_total": 55,
        "has_played": true,
        "id": 703330,
        "last_rank": 27438,
        "player_name": "Hafsteinn Sigurbj\u00f6rnsson",
        "rank": 33807,
        "rank_sort": 33808,
        "total": 2365
      },
      {
        "club_badge_src": null,
        "entry": 150107,
        "entry_name": "Flying Finns",
        "event_total": 43,
        "has_played": true,
        "id": 984330,
        "last_rank": 17894,
        "player_name": "Thomas Finn",
        "rank": 33807,
        "rank_sort": 33809,
        "total": 2365
      },
      {
        "club_badge_src": "https://fantasy.premierleague.com/gcs/plfpl-production-adobe-approved/plfpl-production/246598/b9dc49b8-86a9-46ef-ae63-e0ad4e021672.png",
        "entry": 246598,
        "entry_name": "Woodlands fc",
        "event_total": 67,
        "has_played": true,
        "id": 1641683,
        "last_rank": 40878,
        "player_name": "Barry Watkins",
        "rank": 33807,
        "rank_sort": 33810,
        "total": 2365
      },
      {
        "club_badge_src": null,
        "entry": 288362,
        "entry_name": "Lucille\u2019s Legends",
        "event_total": 61,
        "has_played": true,
        "id": 1921984,
        "last_rank": 33651,
        "player_name": "Lucille Smith",
        "rank": 33807,
        "rank_sort": 33811,
        "total": 2365
      },
      {
        "club_badge_src": null,
        "entry": 413634,
        "entry_name": "Kelderklasse 15",
        "event_total": 73,
        "has_played": true,
        "id": 2773066,
        "last_rank": 43512,
        "player_name": "Levi Braamskamp",
        "rank": 33807,
        "rank_sort": 33812,
        "total": 2365
      },
      {
        "club_badge_src": null,
        "entry": 496565,
        "entry_name": "Sit Down, Be Humble",
        "event_total": 58,
        "has_played": true,
        "id": 3332949,
        "last_rank": 34682,
        "player_name": "Daryl Hilton",
        "rank": 33807,
        "rank_sort": 33813,
        "total": 2365
      },
      {
        "club_badge_src": null,
        "entry": 525385,
        "entry_name": "zain8",
        "event_total": 56,
        "has_played": true,
        "id": 3530973,
        "last_rank": 32552,
        "player_name": "Adel Diesel 80",
        "rank": 33807,
        "rank_sort": 33814,
        "total": 2365
      },
      {
        "club_badge_src": null,
        "entry": 573980,
        "entry_name": "Prem 11",
        "event_total": 55,
        "has_played": true,
        "id": 3862726,
        "last_rank": 27438,
        "player_name": "Saqib Hussain",
        "rank": 33807,
        "rank_sort": 33815,
        "total": 2365
      },
      {
        "club_badge_src": "https://fantasy.premierleague.com/gcs/plfpl-production-adobe-approved/plfpl-production/600924/a8f3ded2-8abd-4b1d-bb4c-bb32291ba2bc.png",
        "entry": 600924,
        "entry_name": "Cunha Do It!",
        "event_total": 61,
        "has_played": true,
        "id": 4054658,
        "last_rank": 33695,
        "player_name": "Johan Beckman",
        "rank": 33807,
        "rank_sort": 33816,
        "total": 2365
      },
      {
        "club_badge_src": null,
        "entry": 748353,
        "entry_name": "Fc Jivici",
        "event_total": 60,
        "has_played": true,
        "id": 5091392,
        "last_rank": 32531,
        "player_name": "Mike Jivici",
        "rank": 33807,
        "rank_sort": 33817,
        "total": 2365
      },
      {
        "club_badge_src": null,
        "entry": 863659,
        "entry_name": "Yazan Gazzaz",
        "event_total": 64,
        "has_played": true,
        "id": 5920739,
        "last_rank": 37189,
        "player_name": "Yazan Jazzaz",
        "rank": 33807,
        "rank_sort": 33818,
        "total": 2365
      },
      {
        "club_badge_src": null,
        "entry": 974334,
        "entry_name": "Bavly44",
        "event_total": 72,
        "has_played": true,
        "id": 6716512,
        "last_rank": 42081,
        "player_name": "Bavly Emad",
        "rank": 33807,
        "rank_sort": 33819,
        "total": 2365
      },
      {
        "club_badge_src": null,
        "entry": 1078689,
        "entry_name": "Return of the King",
        "event_total": 70,
        "has_played": true,
        "id": 7468885,
        "last_rank": 50956,
        "player_name": "Kim Estola",
        "rank": 33807,
        "rank_sort": 33820,
        "total": 2365
      },
      {
        "club_badge_src": null,
        "entry": 1700824,
        "entry_name": "Tel Mee its Eze",
        "event_total": 78,
        "has_played": true,
        "id": 11913937,
        "last_rank": 64508,
        "player_name": "Dilip Hirani",
        "rank": 33807,
        "rank_sort": 33821,
        "total": 2365
      },
      {
        "club_badge_src": null,
        "entry": 1801303,
        "entry_name": "Laces Untied",
        "event_total": 71,
        "has_played": true,
        "id": 12662251,
        "last_rank": 46364,
        "player_name": "Craig Botham",
        "rank": 33807,
        "rank_sort": 33822,
        "total": 2365
      },
      {
        "club_badge_src": null,
        "entry": 1989717,
        "entry_name": "DirtyCunha",
        "event_total": 50,
        "has_played": true,
        "id": 14056992,
        "last_rank": 26554,
        "player_name": "Harry Harrold",
        "rank": 33807,
        "rank_sort": 33823,
        "total": 2365
      },
      {
        "club_badge_src": null,
        "entry": 2502461,
        "entry_name": "Isaked in the mornin",
        "event_total": 44,
        "has_played": true,
        "id": 17919622,
        "last_rank": 18578,
        "player_name": "Rupert Heather",
        "rank": 33807,
        "rank_sort": 33824,
        "total": 2365
      },
      {
        "club_badge_src": null,
        "entry": 2645964,
        "entry_name": "The Reds",
        "event_total": 73,
        "has_played": true,
        "id": 19017983,
        "last_rank": 49368,
        "player_name": "Patryk Polak",
        "rank": 33807,
        "rank_sort": 33825,
        "total": 2365
      },
      {
        "club_badge_src": null,
        "entry": 2801542,
        "entry_name": "Change Name",
        "event_total": 65,
        "has_played": true,
        "id": 20457871,
        "last_rank": 33582,
        "player_name": "Maid Sultic",
        "rank": 33807,
        "rank_sort": 33826,
        "total": 2365
      },
      {
        "club_badge_src": "https://fantasy.premierleague.com/gcs/plfpl-production-adobe-approved/plfpl-production/3255293/4313a3ac-b783-4918-aa14-9df866194b0e.png",
        "entry": 3255293,
        "entry_name": "Red Card Redemption",
        "event_total": 55,
        "has_played": true,
        "id": 24085996,
        "last_rank": 31437,
        "player_name": "Kevin Smith",
        "rank": 33807,
        "rank_sort": 33827,
        "total": 2365
      },
      {
        "club_badge_src": null,
        "entry": 3790532,
        "entry_name": "Supernova XI",
        "event_total": 52,
        "has_played": true,
        "id": 28321787,
        "last_rank": 28449,
        "player_name": "James Beddow",
        "rank": 33807,
        "rank_sort": 33828,
        "total": 2365
      },
      {
        "club_badge_src": null,
        "entry": 4785714,
        "entry_name": "Whitehead Wanderers",
        "event_total": 42,
        "has_played": true,
        "id": 36841860,
        "last_rank": 17246,
        "player_name": "Ger Whitehead",
        "rank": 33807,
        "rank_sort": 33829,
        "total": 2365
      },
      {
        "club_badge_src": null,
        "entry": 6168718,
        "entry_name": "Kante touch this",
        "event_total": 62,
        "has_played": true,
        "id": 48774730,
        "last_rank": 39673,
        "player_name": "Aarav Batta",
        "rank": 33807,
        "rank_sort": 33830,
        "total": 2365
      },
      {
        "club_badge_src": "https://fantasy.premierleague.com/gcs/plfpl-production-adobe-approved/plfpl-production/8705010/a68015fc-92dc-4ac3-ba5a-61dc8cc5640a.png",
        "entry": 8705010,
        "entry_name": "Zulu's army",
        "event_total": 59,
        "has_played": true,
        "id": 72627403,
        "last_rank": 35969,
        "player_name": "Emilio Avila",
        "rank": 33807,
        "rank_sort": 33831,
        "total": 2365
      },
      {
        "club_badge_src": null,
        "entry": 9465871,
        "entry_name": "Lord Haaland",
        "event_total": 63,
        "has_played": true,
        "id": 79994419,
        "last_rank": 40923,
        "player_name": "Anik Paul",
        "rank": 33807,
        "rank_sort": 33832,
        "total": 2365
      },
      {
        "club_badge_src": "https://fantasy.premierleague.com/gcs/plfpl-production-adobe-approved/plfpl-production/19988/30443fc2-febc-49a7-b156-d7890ecaf77e.png",
        "entry": 19988,
        "entry_name": "Klubb M8",
        "event_total": 51,
        "has_played": true,
        "id": 124434,
        "last_rank": 20747,
        "player_name": "Otto Myrberg",
        "rank": 33833,
        "rank_sort": 33833,
        "total": 2365
      },
      {
        "club_badge_src": "https://fantasy.premierleague.com/gcs/plfpl-production-adobe-approved/plfpl-production/122445/29741516-4118-45f6-9d32-6040fc4487fe.png",
        "entry": 122445,
        "entry_name": "X-MAC FC",
        "event_total": 57,
        "has_played": true,
        "id": 798817,
        "last_rank": 33751,
        "player_name": "Cyril Atemkeng(XMAC) \ud83e\udd33\ud83d\udcab",
        "rank": 33833,
        "rank_sort": 33834,
        "total": 2365
      },
      {
        "club_badge_src": null,
        "entry": 149372,
        "entry_name": "GIOBOYZ",
        "event_total": 69,
        "has_played": true,
        "id": 979363,
        "last_rank": 38391,
        "player_name": "Paul Speak",
        "rank": 33833,
        "rank_sort": 33835,
        "total": 2365
      },
      {
        "club_badge_src": null,
        "entry": 158071,
        "entry_name": "Victorious Secret",
        "event_total": 66,
        "has_played": true,
        "id": 1040091,
        "last_rank": 39673,
        "player_name": "Ahmed Karimi",
        "rank": 33833,
        "rank_sort": 33836,
        "total": 2365
      },
      {
        "club_badge_src": "https://fantasy.premierleague.com/gcs/plfpl-production-adobe-approved/plfpl-production/311497/a7593215-3b3c-4a91-9215-bdd447825f2c.png",
        "entry": 311497,
        "entry_name": "Unathletic Bilbao",
        "event_total": 70,
        "has_played": true,
        "id": 2086906,
        "last_rank": 39650,
        "player_name": "Omar Osama",
        "rank": 33833,
        "rank_sort": 33837,
        "total": 2365
      },
      {
        "club_badge_src": null,
        "entry": 503371,
        "entry_name": "They Not Like Us",
        "event_total": 58,
        "has_played": true,
        "id": 3378893,
        "last_rank": 30395,
        "player_name": "Wayne Barton",
        "rank": 33833,
        "rank_sort": 33838,
        "total": 2365
      },
      {
        "club_badge_src": null,
        "entry": 877437,
        "entry_name": "Next Level",
        "event_total": 54,
        "has_played": true,
        "id": 6015720,
        "last_rank": 30395,
        "player_name": "Garret Li",
        "rank": 33833,
        "rank_sort": 33839,
        "total": 2365
      },
      {
        "club_badge_src": "https://fantasy.premierleague.com/gcs/plfpl-production-adobe-approved/plfpl-production/1010495/2362d355-2b70-4f76-8203-c647e65ccb34.png",
        "entry": 1010495,
        "entry_name": "Struijk it Lucky \u2618\ufe0f",
        "event_total": 65,
        "has_played": true,
        "id": 6988505,
        "last_rank": 38425,
        "player_name": "Barry Evans",
        "rank": 33833,
        "rank_sort": 33840,
        "total": 2365
      },
      {
        "club_badge_src": "https://fantasy.premierleague.com/gcs/plfpl-production-adobe-approved/plfpl-production/1542608/fcb3ad45-fd3f-4652-9466-18c6786a73ff.png",
        "entry": 1542608,
        "entry_name": "Oggekommerigen",
        "event_total": 53,
        "has_played": true,
        "id": 10767239,
        "last_rank": 25613,
        "player_name": "oskar Rundqvist",
        "rank": 33833,
        "rank_sort": 33841,
        "total": 2365
      },
      {
        "club_badge_src": null,
        "entry": 1594145,
        "entry_name": "BLAAQ- ARROW",
        "event_total": 51,
        "has_played": true,
        "id": 11150408,
        "last_rank": 27464,
        "player_name": "BLAAQ Adetunji",
        "rank": 33833,
        "rank_sort": 33842,
        "total": 2365
      },
      {
        "club_badge_src": "https://fantasy.premierleague.com/gcs/plfpl-production-adobe-approved/plfpl-production/2080511/8668ad51-8424-4419-b25d-abdf52659d4b.png",
        "entry": 2080511,
        "entry_name": "Any last Wirtz?",
        "event_total": 54,
        "has_played": true,
        "id": 14752854,
        "last_rank": 26541,
        "player_name": "Akthar Hussain",
        "rank": 33833,
        "rank_sort": 33843,
        "total": 2365
      },
      {
        "club_badge_src": null,
        "entry": 3122205,
        "entry_name": "Husanboy",
        "event_total": 64,
        "has_played": true,
        "id": 23041056,
        "last_rank": 42293,
        "player_name": "Inomjonov Husanboy",
        "rank": 33833,
        "rank_sort": 33844,
        "total": 2365
      },
      {
        "club_badge_src": null,
        "entry": 3935122,
        "entry_name": "Tangerine Dream",
        "event_total": 68,
        "has_played": true,
        "id": 29599527,
        "last_rank": 47920,
        "player_name": "Ellis Campbell",
        "rank": 33833,
        "rank_sort": 33845,
        "total": 2365
      },
      {
        "club_badge_src": null,
        "entry": 6065278,
        "entry_name": "Deano Dynamos",
        "event_total": 53,
        "has_played": true,
        "id": 47871761,
        "last_rank": 29393,
        "player_name": "Dean Nicholson",
        "rank": 33833,
        "rank_sort": 33846,
        "total": 2365
      },
      {
        "club_badge_src": null,
        "entry": 6667957,
        "entry_name": "Batistruta",
        "event_total": 57,
        "has_played": true,
        "id": 53327175,
        "last_rank": 33751,
        "player_name": "Rickard Malm",
        "rank": 33833,
        "rank_sort": 33847,
        "total": 2365
      },
      {
        "club_badge_src": null,
        "entry": 8052464,
        "entry_name": "Piquenbauer",
        "event_total": 69,
        "has_played": true,
        "id": 66359749,
        "last_rank": 38391,
        "player_name": "Rodrigo Diaz",
        "rank": 33833,
        "rank_sort": 33848,
        "total": 2365
      },
      {
        "club_badge_src": null,
        "entry": 1036955,
        "entry_name": "ItKanteGoOnLikeThis",
        "event_total": 52,
        "has_played": true,
        "id": 7175774,
        "last_rank": 24757,
        "player_name": "Ryan Ponder",
        "rank": 33849,
        "rank_sort": 33849,
        "total": 2365
      },
      {
        "club_badge_src": null,
        "entry": 1114269,
        "entry_name": "Eze Come Eze GOAL",
        "event_total": 53,
        "has_played": true,
        "id": 7718379,
        "last_rank": 25633,
        "player_name": "Tomer Trua",
        "rank": 33849,
        "rank_sort": 33850,
        "total": 2365
      }
    ]
  }
}