{
  "last_updated_data": "2026-05-24T23:28:17Z",
  "league": {
    "admin_entry": null,
    "closed": false,
    "code_privacy": "p",
    "created": "2025-07-20T23:14:33.933835Z",
    "cup_league": 2815434,
    "has_cup": true,
    "id": 314,
    "league_type": "s",
    "max_entries": null,
    "name": "Overall",
    "rank": null,
    "scoring": "c",
    "start_event": 1
  },
  "new_entries": {
    "has_next": false,
    "page": 1,
    "results": []
  },
  "standings": {
    "has_next": true,
    "page": 1004,
    "results": [
      {
        "club_badge_src": null,
        "entry": 3968649,
        "entry_name": "Fabian Winless",
        "event_total": 45,
        "has_played": true,
        "id": 29864124,
        "last_rank": 34458,
        "player_name": "James Rackham",
        "rank": 50020,
        "rank_sort": 50151,
        "total": 2352
      },
      {
        "club_badge_src": null,
        "entry": 3982144,
        "entry_name": "Leeds The Way",
        "event_total": 44,
        "has_played": true,
        "id": 29976683,
        "last_rank": 33332,
        "player_name": "Guy Thornton",
        "rank": 50020,
        "rank_sort": 50152,
        "total": 2352
      },
      {
        "club_badge_src": null,
        "entry": 3999567,
        "entry_name": "Too Slot to Handle",
        "event_total": 84,
        "has_played": true,
        "id": 30123220,
        "last_rank": 107162,
        "player_name": "Matthew Shiels",
        "rank": 50020,
        "rank_sort": 50153,
        "total": 2352
      },
      {
        "club_badge_src": null,
        "entry": 4049181,
        "entry_name": "NoSalad",
        "event_total": 65,
        "has_played": true,
        "id": 30542486,
        "last_rank": 63724,
        "player_name": "Martin Abry",
        "rank": 50020,
        "rank_sort": 50154,
        "total": 2352
      },
      {
        "club_badge_src": null,
        "entry": 4068160,
        "entry_name": "JurassicPark ji sung",
        "event_total": 70,
        "has_played": true,
        "id": 30703625,
        "last_rank": 73423,
        "player_name": "Kevin O Callaghan",
        "rank": 50020,
        "rank_sort": 50155,
        "total": 2352
      },
      {
        "club_badge_src": null,
        "entry": 4073647,
        "entry_name": "Moving at god speed",
        "event_total": 41,
        "has_played": true,
        "id": 30748875,
        "last_rank": 26088,
        "player_name": "David Thomas",
        "rank": 50020,
        "rank_sort": 50156,
        "total": 2352
      },
      {
        "club_badge_src": null,
        "entry": 4129537,
        "entry_name": "Krabbeklo",
        "event_total": 56,
        "has_played": true,
        "id": 31205377,
        "last_rank": 48898,
        "player_name": "Olav Lilleb\u00f8",
        "rank": 50020,
        "rank_sort": 50157,
        "total": 2352
      },
      {
        "club_badge_src": null,
        "entry": 4137484,
        "entry_name": "Sultanes BR",
        "event_total": 53,
        "has_played": true,
        "id": 31268649,
        "last_rank": 44048,
        "player_name": "Antonio Igartua",
        "rank": 50020,
        "rank_sort": 50158,
        "total": 2352
      },
      {
        "club_badge_src": null,
        "entry": 4177001,
        "entry_name": "Rie_27",
        "event_total": 60,
        "has_played": true,
        "id": 31595448,
        "last_rank": 55014,
        "player_name": "Apryan -",
        "rank": 50020,
        "rank_sort": 50159,
        "total": 2352
      },
      {
        "club_badge_src": null,
        "entry": 4186826,
        "entry_name": "GGEZ",
        "event_total": 65,
        "has_played": true,
        "id": 31679480,
        "last_rank": 63724,
        "player_name": "markos iona",
        "rank": 50020,
        "rank_sort": 50160,
        "total": 2352
      },
      {
        "club_badge_src": null,
        "entry": 4229840,
        "entry_name": "Real Leyland",
        "event_total": 44,
        "has_played": true,
        "id": 32048184,
        "last_rank": 33332,
        "player_name": "Calvin Wallace",
        "rank": 50020,
        "rank_sort": 50161,
        "total": 2352
      },
      {
        "club_badge_src": null,
        "entry": 4430307,
        "entry_name": "Pique Blinders",
        "event_total": 69,
        "has_played": true,
        "id": 33725669,
        "last_rank": 71386,
        "player_name": "Adam Candy",
        "rank": 50020,
        "rank_sort": 50162,
        "total": 2352
      },
      {
        "club_badge_src": "https://fantasy.premierleague.com/gcs/plfpl-production-adobe-approved/plfpl-production/4573390/41c18502-22ad-42e9-8fff-799071784868.png",
        "entry": 4573390,
        "entry_name": "Galacticos",
        "event_total": 70,
        "has_played": true,
        "id": 34905926,
        "last_rank": 73423,
        "player_name": "Jan Jakimowicz",
        "rank": 50020,
        "rank_sort": 50163,
        "total": 2352
      },
      {
        "club_badge_src": null,
        "entry": 4612977,
        "entry_name": "ConXI",
        "event_total": 52,
        "has_played": true,
        "id": 35250891,
        "last_rank": 43168,
        "player_name": "Ciaran Oneill",
        "rank": 50020,
        "rank_sort": 50164,
        "total": 2352
      },
      {
        "club_badge_src": null,
        "entry": 4712339,
        "entry_name": "Carter 11",
        "event_total": 61,
        "has_played": true,
        "id": 36160785,
        "last_rank": 57001,
        "player_name": "James Carter",
        "rank": 50020,
        "rank_sort": 50165,
        "total": 2352
      },
      {
        "club_badge_src": null,
        "entry": 4757418,
        "entry_name": "Micky Meep Meep",
        "event_total": 43,
        "has_played": true,
        "id": 36610532,
        "last_rank": 31995,
        "player_name": "Nick Hosier",
        "rank": 50020,
        "rank_sort": 50166,
        "total": 2352
      },
      {
        "club_badge_src": null,
        "entry": 4775114,
        "entry_name": "Peaky Reijnders",
        "event_total": 68,
        "has_played": true,
        "id": 36756816,
        "last_rank": 61950,
        "player_name": "Rory Whewell",
        "rank": 50020,
        "rank_sort": 50167,
        "total": 2352
      },
      {
        "club_badge_src": null,
        "entry": 4826252,
        "entry_name": "TBG ORCAS",
        "event_total": 56,
        "has_played": true,
        "id": 37169661,
        "last_rank": 42940,
        "player_name": "Ntsiki Mayekiso",
        "rank": 50020,
        "rank_sort": 50168,
        "total": 2352
      },
      {
        "club_badge_src": null,
        "entry": 4839787,
        "entry_name": "Orny Lads",
        "event_total": 55,
        "has_played": true,
        "id": 37281545,
        "last_rank": 46839,
        "player_name": "Alex Clough",
        "rank": 50020,
        "rank_sort": 50169,
        "total": 2352
      },
      {
        "club_badge_src": null,
        "entry": 4933571,
        "entry_name": "Game of Stones",
        "event_total": 72,
        "has_played": true,
        "id": 38059750,
        "last_rank": 69323,
        "player_name": "wolf ostyn",
        "rank": 50020,
        "rank_sort": 50170,
        "total": 2352
      },
      {
        "club_badge_src": null,
        "entry": 4939410,
        "entry_name": "Footballers",
        "event_total": 58,
        "has_played": true,
        "id": 38109276,
        "last_rank": 51720,
        "player_name": "Srijana Sapkota",
        "rank": 50020,
        "rank_sort": 50171,
        "total": 2352
      },
      {
        "club_badge_src": null,
        "entry": 5005142,
        "entry_name": "Athletico Mince XV",
        "event_total": 53,
        "has_played": true,
        "id": 38648644,
        "last_rank": 39023,
        "player_name": "Graeme Rodger",
        "rank": 50020,
        "rank_sort": 50172,
        "total": 2352
      },
      {
        "club_badge_src": "https://fantasy.premierleague.com/gcs/plfpl-production-adobe-approved/plfpl-production/5144601/7a3c8b72-c73a-46f9-9b23-c28dfd077c41.png",
        "entry": 5144601,
        "entry_name": "Why",
        "event_total": 48,
        "has_played": true,
        "id": 39798459,
        "last_rank": 38016,
        "player_name": "Sam Bellringer",
        "rank": 50020,
        "rank_sort": 50173,
        "total": 2352
      },
      {
        "club_badge_src": null,
        "entry": 5167868,
        "entry_name": "mah8",
        "event_total": 60,
        "has_played": true,
        "id": 39994950,
        "last_rank": 48642,
        "player_name": "Mahmoud Mohsen",
        "rank": 50020,
        "rank_sort": 50174,
        "total": 2352
      },
      {
        "club_badge_src": null,
        "entry": 5178472,
        "entry_name": "The Motorman",
        "event_total": 58,
        "has_played": true,
        "id": 40082261,
        "last_rank": 45714,
        "player_name": "Mostafa Reda",
        "rank": 50020,
        "rank_sort": 50175,
        "total": 2352
      },
      {
        "club_badge_src": null,
        "entry": 5222770,
        "entry_name": "teamfantaCE",
        "event_total": 68,
        "has_played": true,
        "id": 40467519,
        "last_rank": 69323,
        "player_name": "Nuruzzaman Ronok",
        "rank": 50020,
        "rank_sort": 50176,
        "total": 2352
      },
      {
        "club_badge_src": null,
        "entry": 5227270,
        "entry_name": "Gjedde",
        "event_total": 66,
        "has_played": true,
        "id": 40504602,
        "last_rank": 58388,
        "player_name": "teodor stensrud",
        "rank": 50020,
        "rank_sort": 50177,
        "total": 2352
      },
      {
        "club_badge_src": null,
        "entry": 5245694,
        "entry_name": "Gundogang",
        "event_total": 63,
        "has_played": true,
        "id": 40654008,
        "last_rank": 59632,
        "player_name": "brithel .",
        "rank": 50020,
        "rank_sort": 50178,
        "total": 2352
      },
      {
        "club_badge_src": null,
        "entry": 5344014,
        "entry_name": "Zirkzee & I Know It",
        "event_total": 68,
        "has_played": true,
        "id": 41458068,
        "last_rank": 69323,
        "player_name": "Eirik Fimreite",
        "rank": 50020,
        "rank_sort": 50179,
        "total": 2352
      },
      {
        "club_badge_src": null,
        "entry": 5362056,
        "entry_name": "Listerine",
        "event_total": 58,
        "has_played": true,
        "id": 41647944,
        "last_rank": 45714,
        "player_name": "Antonio Eid",
        "rank": 50020,
        "rank_sort": 50180,
        "total": 2352
      },
      {
        "club_badge_src": null,
        "entry": 5449475,
        "entry_name": "Saka Potatoes",
        "event_total": 71,
        "has_played": true,
        "id": 42404299,
        "last_rank": 75874,
        "player_name": "Michael El-Khoury",
        "rank": 50020,
        "rank_sort": 50181,
        "total": 2352
      },
      {
        "club_badge_src": "https://fantasy.premierleague.com/gcs/plfpl-production-adobe-approved/plfpl-production/5480740/3e03223e-0178-42f8-b6b2-c33bec4116a4.png",
        "entry": 5480740,
        "entry_name": "German Prince F.C.",
        "event_total": 57,
        "has_played": true,
        "id": 42672214,
        "last_rank": 38774,
        "player_name": "kofi adunah",
        "rank": 50020,
        "rank_sort": 50182,
        "total": 2352
      },
      {
        "club_badge_src": null,
        "entry": 5538913,
        "entry_name": "Muggens mammor",
        "event_total": 52,
        "has_played": true,
        "id": 43217803,
        "last_rank": 42506,
        "player_name": "M\u00e5ns Annertz",
        "rank": 50020,
        "rank_sort": 50183,
        "total": 2352
      },
      {
        "club_badge_src": null,
        "entry": 5552196,
        "entry_name": "Noblessner Calcio",
        "event_total": 59,
        "has_played": true,
        "id": 43334874,
        "last_rank": 47163,
        "player_name": "Ville Suutarinen",
        "rank": 50020,
        "rank_sort": 50184,
        "total": 2352
      },
      {
        "club_badge_src": null,
        "entry": 5584095,
        "entry_name": "Nate's Nation",
        "event_total": 81,
        "has_played": true,
        "id": 43617286,
        "last_rank": 98896,
        "player_name": "Anthony Melella",
        "rank": 50020,
        "rank_sort": 50185,
        "total": 2352
      },
      {
        "club_badge_src": null,
        "entry": 5631636,
        "entry_name": "Sarr Bomba",
        "event_total": 47,
        "has_played": true,
        "id": 44031553,
        "last_rank": 36624,
        "player_name": "Udayveer Singh",
        "rank": 50020,
        "rank_sort": 50186,
        "total": 2352
      },
      {
        "club_badge_src": null,
        "entry": 5709111,
        "entry_name": "Stand Fast FC",
        "event_total": 61,
        "has_played": true,
        "id": 44706306,
        "last_rank": 50199,
        "player_name": "Callum Grant",
        "rank": 50020,
        "rank_sort": 50187,
        "total": 2352
      },
      {
        "club_badge_src": null,
        "entry": 5710995,
        "entry_name": "Ecumenical Matter FC",
        "event_total": 58,
        "has_played": true,
        "id": 44722211,
        "last_rank": 51720,
        "player_name": "Cathal Devilly",
        "rank": 50020,
        "rank_sort": 50188,
        "total": 2352
      },
      {
        "club_badge_src": null,
        "entry": 5852267,
        "entry_name": "Magic Mikel",
        "event_total": 63,
        "has_played": true,
        "id": 45947459,
        "last_rank": 59813,
        "player_name": "Cameron Krogh",
        "rank": 50020,
        "rank_sort": 50189,
        "total": 2352
      },
      {
        "club_badge_src": null,
        "entry": 5879671,
        "entry_name": "Tokorozawa Irons",
        "event_total": 67,
        "has_played": true,
        "id": 46184449,
        "last_rank": 60168,
        "player_name": "Lloyd Parker-Wilson",
        "rank": 50020,
        "rank_sort": 50190,
        "total": 2352
      },
      {
        "club_badge_src": "https://fantasy.premierleague.com/gcs/plfpl-production-adobe-approved/plfpl-production/5958119/569e1159-c1ba-47be-9618-73041753015c.png",
        "entry": 5958119,
        "entry_name": "Injuries 11",
        "event_total": 50,
        "has_played": true,
        "id": 46871171,
        "last_rank": 40297,
        "player_name": "Emmanuel Adjei",
        "rank": 50020,
        "rank_sort": 50191,
        "total": 2352
      },
      {
        "club_badge_src": null,
        "entry": 5966552,
        "entry_name": "Dahmech Fc",
        "event_total": 67,
        "has_played": true,
        "id": 46944676,
        "last_rank": 67695,
        "player_name": "Daham Ahmed",
        "rank": 50020,
        "rank_sort": 50192,
        "total": 2352
      },
      {
        "club_badge_src": null,
        "entry": 6266859,
        "entry_name": "Adar Aouate",
        "event_total": 46,
        "has_played": true,
        "id": 49622490,
        "last_rank": 35619,
        "player_name": "Adar Aouate",
        "rank": 50020,
        "rank_sort": 50193,
        "total": 2352
      },
      {
        "club_badge_src": null,
        "entry": 6285154,
        "entry_name": "Team InnuEndo",
        "event_total": 65,
        "has_played": true,
        "id": 49785650,
        "last_rank": 64005,
        "player_name": "Nick Parry",
        "rank": 50020,
        "rank_sort": 50194,
        "total": 2352
      },
      {
        "club_badge_src": null,
        "entry": 6356116,
        "entry_name": "Chronological Order",
        "event_total": 62,
        "has_played": true,
        "id": 50532872,
        "last_rank": 58388,
        "player_name": "Nick Chronowski",
        "rank": 50020,
        "rank_sort": 50195,
        "total": 2352
      },
      {
        "club_badge_src": null,
        "entry": 6364975,
        "entry_name": "ButterBallers",
        "event_total": 50,
        "has_played": true,
        "id": 50611009,
        "last_rank": 40503,
        "player_name": "Eli Butterworth",
        "rank": 50020,
        "rank_sort": 50196,
        "total": 2352
      },
      {
        "club_badge_src": null,
        "entry": 6449616,
        "entry_name": "qwerty",
        "event_total": 50,
        "has_played": true,
        "id": 51359195,
        "last_rank": 40503,
        "player_name": "Ryan Hutchinson",
        "rank": 50020,
        "rank_sort": 50197,
        "total": 2352
      },
      {
        "club_badge_src": null,
        "entry": 6558268,
        "entry_name": "Ikigai",
        "event_total": 67,
        "has_played": true,
        "id": 52340400,
        "last_rank": 67063,
        "player_name": "Antonio Pavlov",
        "rank": 50020,
        "rank_sort": 50198,
        "total": 2352
      },
      {
        "club_badge_src": null,
        "entry": 6636154,
        "entry_name": "Everybody Wirtz",
        "event_total": 67,
        "has_played": true,
        "id": 53042501,
        "last_rank": 60168,
        "player_name": "Ross Harrison",
        "rank": 50020,
        "rank_sort": 50199,
        "total": 2352
      },
      {
        "club_badge_src": "https://fantasy.premierleague.com/gcs/plfpl-production-adobe-approved/plfpl-production/6647526/749f1132-37ee-4828-9a22-5d9778f5207b.png",
        "entry": 6647526,
        "entry_name": "Hutcho's hero's",
        "event_total": 60,
        "has_played": true,
        "id": 53140891,
        "last_rank": 55014,
        "player_name": "Alex Hutcheson",
        "rank": 50020,
        "rank_sort": 50200,
        "total": 2352
      }
    ]
  }
}