{
  "last_updated_data": "2026-05-24T23:28:17Z",
  "league": {
    "admin_entry": null,
    "closed": false,
    "code_privacy": "p",
    "created": "2025-07-20T23:14:33.933835Z",
    "cup_league": 2815434,
    "has_cup": true,
    "id": 314,
    "league_type": "s",
    "max_entries": null,
    "name": "Overall",
    "rank": null,
    "scoring": "c",
    "start_event": 1
  },
  "new_entries": {
    "has_next": false,
    "page": 1,
    "results": []
  },
  "standings": {
    "has_next": true,
    "page": 490,
    "results": [
      {
        "club_badge_src": null,
        "entry": 9242708,
        "entry_name": "markooooo",
        "event_total": 76,
        "has_played": true,
        "id": 77851869,
        "last_rank": 45144,
        "player_name": "Marko Aleksic",
        "rank": 24404,
        "rank_sort": 24451,
        "total": 2374
      },
      {
        "club_badge_src": null,
        "entry": 9350937,
        "entry_name": "AbraDubravka",
        "event_total": 43,
        "has_played": true,
        "id": 78896454,
        "last_rank": 14370,
        "player_name": "Lewis Huntington",
        "rank": 24404,
        "rank_sort": 24452,
        "total": 2374
      },
      {
        "club_badge_src": "https://fantasy.premierleague.com/gcs/plfpl-production-adobe-approved/plfpl-production/4544/1acb71ca-1887-4b2c-a9a1-bbbdefd39dfb.png",
        "entry": 4544,
        "entry_name": "The Rigg Lebowski",
        "event_total": 62,
        "has_played": true,
        "id": 25838,
        "last_rank": 28726,
        "player_name": "Thomas Clarke",
        "rank": 24453,
        "rank_sort": 24453,
        "total": 2374
      },
      {
        "club_badge_src": "https://fantasy.premierleague.com/gcs/plfpl-production-adobe-approved/plfpl-production/4805/ad91d875-efeb-4664-8b20-69f9af695b6b.png",
        "entry": 4805,
        "entry_name": "Europa Champions",
        "event_total": 56,
        "has_played": true,
        "id": 27348,
        "last_rank": 23341,
        "player_name": "Terry Dempster",
        "rank": 24453,
        "rank_sort": 24454,
        "total": 2374
      },
      {
        "club_badge_src": null,
        "entry": 6726,
        "entry_name": "Palmerla Andersen",
        "event_total": 59,
        "has_played": true,
        "id": 38665,
        "last_rank": 25902,
        "player_name": "Cameron Wilson",
        "rank": 24453,
        "rank_sort": 24455,
        "total": 2374
      },
      {
        "club_badge_src": null,
        "entry": 8307,
        "entry_name": "asd",
        "event_total": 64,
        "has_played": true,
        "id": 48217,
        "last_rank": 30600,
        "player_name": "Kristiyan Kalinov",
        "rank": 24453,
        "rank_sort": 24456,
        "total": 2374
      },
      {
        "club_badge_src": null,
        "entry": 11104,
        "entry_name": "European Reds",
        "event_total": 63,
        "has_played": true,
        "id": 65884,
        "last_rank": 29578,
        "player_name": "Brad H",
        "rank": 24453,
        "rank_sort": 24457,
        "total": 2374
      },
      {
        "club_badge_src": "https://fantasy.premierleague.com/gcs/plfpl-production-adobe-approved/plfpl-production/12230/8f3ffafc-21c2-45ce-8d25-6ba49d7f7b98.png",
        "entry": 12230,
        "entry_name": "Watchmysouvla",
        "event_total": 68,
        "has_played": true,
        "id": 72993,
        "last_rank": 35034,
        "player_name": "Demetris Stephanides",
        "rank": 24453,
        "rank_sort": 24458,
        "total": 2374
      },
      {
        "club_badge_src": null,
        "entry": 18380,
        "entry_name": "Wirtz of Wall Street",
        "event_total": 50,
        "has_played": true,
        "id": 114327,
        "last_rank": 18691,
        "player_name": "Anil Kamboj",
        "rank": 24453,
        "rank_sort": 24459,
        "total": 2374
      },
      {
        "club_badge_src": null,
        "entry": 21799,
        "entry_name": "Enthusiasm Curbed",
        "event_total": 53,
        "has_played": true,
        "id": 136734,
        "last_rank": 20888,
        "player_name": "Adam Persen",
        "rank": 24453,
        "rank_sort": 24460,
        "total": 2374
      },
      {
        "club_badge_src": null,
        "entry": 26163,
        "entry_name": "Mind Over Mata",
        "event_total": 54,
        "has_played": true,
        "id": 165419,
        "last_rank": 21775,
        "player_name": "Saunak Pal",
        "rank": 24453,
        "rank_sort": 24461,
        "total": 2374
      },
      {
        "club_badge_src": null,
        "entry": 29554,
        "entry_name": "Moonlight",
        "event_total": 36,
        "has_played": true,
        "id": 186911,
        "last_rank": 10920,
        "player_name": "Tony Oti",
        "rank": 24453,
        "rank_sort": 24462,
        "total": 2374
      },
      {
        "club_badge_src": null,
        "entry": 32468,
        "entry_name": "redmist fc",
        "event_total": 36,
        "has_played": true,
        "id": 206574,
        "last_rank": 10805,
        "player_name": "Karl Pilsworth",
        "rank": 24453,
        "rank_sort": 24463,
        "total": 2374
      },
      {
        "club_badge_src": null,
        "entry": 40350,
        "entry_name": "mdzl",
        "event_total": 74,
        "has_played": true,
        "id": 258689,
        "last_rank": 42434,
        "player_name": "Wiktor \u017belisko",
        "rank": 24453,
        "rank_sort": 24464,
        "total": 2374
      },
      {
        "club_badge_src": null,
        "entry": 54146,
        "entry_name": "Round Ball Jessies",
        "event_total": 42,
        "has_played": true,
        "id": 348470,
        "last_rank": 13947,
        "player_name": "Paul Bodger",
        "rank": 24453,
        "rank_sort": 24465,
        "total": 2374
      },
      {
        "club_badge_src": null,
        "entry": 54317,
        "entry_name": "Milly Vanilly",
        "event_total": 64,
        "has_played": true,
        "id": 349604,
        "last_rank": 30600,
        "player_name": "Claire O'Neill",
        "rank": 24453,
        "rank_sort": 24466,
        "total": 2374
      },
      {
        "club_badge_src": "https://fantasy.premierleague.com/gcs/plfpl-production-adobe-approved/plfpl-production/63078/5b2a10cb-7ac4-40dd-b38d-2f8a8874337d.png",
        "entry": 63078,
        "entry_name": "games gone",
        "event_total": 67,
        "has_played": true,
        "id": 406870,
        "last_rank": 33869,
        "player_name": "Benny Le Brocque",
        "rank": 24453,
        "rank_sort": 24467,
        "total": 2374
      },
      {
        "club_badge_src": null,
        "entry": 75428,
        "entry_name": "Kinder Mbeumo",
        "event_total": 73,
        "has_played": true,
        "id": 490376,
        "last_rank": 41162,
        "player_name": "Evan Lawlor",
        "rank": 24453,
        "rank_sort": 24468,
        "total": 2374
      },
      {
        "club_badge_src": null,
        "entry": 81853,
        "entry_name": "WhoLetTheDorgusOut?",
        "event_total": 73,
        "has_played": true,
        "id": 532489,
        "last_rank": 41162,
        "player_name": "Oliver Preston",
        "rank": 24453,
        "rank_sort": 24469,
        "total": 2374
      },
      {
        "club_badge_src": null,
        "entry": 119789,
        "entry_name": "I Ait Bothered",
        "event_total": 61,
        "has_played": true,
        "id": 781541,
        "last_rank": 27644,
        "player_name": "Richard Mowforth",
        "rank": 24453,
        "rank_sort": 24470,
        "total": 2374
      },
      {
        "club_badge_src": null,
        "entry": 128874,
        "entry_name": "furulya oktat\u00f3k",
        "event_total": 50,
        "has_played": true,
        "id": 840025,
        "last_rank": 18790,
        "player_name": "Patrik Kulcsar",
        "rank": 24453,
        "rank_sort": 24471,
        "total": 2374
      },
      {
        "club_badge_src": "https://fantasy.premierleague.com/gcs/plfpl-production-adobe-approved/plfpl-production/157862/21f78c3e-1ed1-4ffb-835d-462762200926.png",
        "entry": 157862,
        "entry_name": "Frugtplukkerne",
        "event_total": 60,
        "has_played": true,
        "id": 1038666,
        "last_rank": 26827,
        "player_name": "arvid lawaetz",
        "rank": 24453,
        "rank_sort": 24472,
        "total": 2374
      },
      {
        "club_badge_src": null,
        "entry": 162147,
        "entry_name": "Grudden27",
        "event_total": 55,
        "has_played": true,
        "id": 1068691,
        "last_rank": 22426,
        "player_name": "Emil HIF",
        "rank": 24453,
        "rank_sort": 24473,
        "total": 2374
      },
      {
        "club_badge_src": null,
        "entry": 165115,
        "entry_name": "AOA",
        "event_total": 58,
        "has_played": true,
        "id": 1089987,
        "last_rank": 24897,
        "player_name": "Ahmed Atiek",
        "rank": 24453,
        "rank_sort": 24474,
        "total": 2374
      },
      {
        "club_badge_src": null,
        "entry": 171802,
        "entry_name": "Real Royston",
        "event_total": 53,
        "has_played": true,
        "id": 1134848,
        "last_rank": 20853,
        "player_name": "Gareth Hughes",
        "rank": 24453,
        "rank_sort": 24475,
        "total": 2374
      },
      {
        "club_badge_src": "https://fantasy.premierleague.com/gcs/plfpl-production-adobe-approved/plfpl-production/175860/b84e1e3d-0b21-4775-a205-4e623749abc6.png",
        "entry": 175860,
        "entry_name": "tsoonarmy",
        "event_total": 53,
        "has_played": true,
        "id": 1160989,
        "last_rank": 21159,
        "player_name": "Chris Elvin",
        "rank": 24453,
        "rank_sort": 24476,
        "total": 2374
      },
      {
        "club_badge_src": null,
        "entry": 185503,
        "entry_name": "Don\u2019tlookbackElanga",
        "event_total": 75,
        "has_played": true,
        "id": 1225441,
        "last_rank": 43849,
        "player_name": "Sam Massey-Allen",
        "rank": 24453,
        "rank_sort": 24477,
        "total": 2374
      },
      {
        "club_badge_src": null,
        "entry": 237514,
        "entry_name": "Beef Cherki",
        "event_total": 60,
        "has_played": true,
        "id": 1580240,
        "last_rank": 26710,
        "player_name": "Lawrence Walpole",
        "rank": 24453,
        "rank_sort": 24478,
        "total": 2374
      },
      {
        "club_badge_src": "https://fantasy.premierleague.com/gcs/plfpl-production-adobe-approved/plfpl-production/244981/cd864629-fc39-4008-8092-49aa3b3448f3.png",
        "entry": 244981,
        "entry_name": "Shining of Karakum",
        "event_total": 65,
        "has_played": true,
        "id": 1631069,
        "last_rank": 31620,
        "player_name": "Mark Hayles",
        "rank": 24453,
        "rank_sort": 24479,
        "total": 2374
      },
      {
        "club_badge_src": null,
        "entry": 251897,
        "entry_name": "Kr\u00eda Fc",
        "event_total": 65,
        "has_played": true,
        "id": 1675654,
        "last_rank": 31747,
        "player_name": "Kolbeinn \u00d3lafasson",
        "rank": 24453,
        "rank_sort": 24480,
        "total": 2374
      },
      {
        "club_badge_src": null,
        "entry": 266903,
        "entry_name": "Change Name",
        "event_total": 76,
        "has_played": true,
        "id": 1775494,
        "last_rank": 45252,
        "player_name": "William Avadis",
        "rank": 24453,
        "rank_sort": 24481,
        "total": 2374
      },
      {
        "club_badge_src": "https://fantasy.premierleague.com/gcs/plfpl-production-adobe-approved/plfpl-production/270894/242a95f4-fe6f-48b9-966d-555c2d546d71.png",
        "entry": 270894,
        "entry_name": "Slim Schade",
        "event_total": 64,
        "has_played": true,
        "id": 1802181,
        "last_rank": 30536,
        "player_name": "Felix Vorlaender",
        "rank": 24453,
        "rank_sort": 24482,
        "total": 2374
      },
      {
        "club_badge_src": null,
        "entry": 309697,
        "entry_name": "a_utd10 on X",
        "event_total": 64,
        "has_played": true,
        "id": 2074490,
        "last_rank": 30600,
        "player_name": "Alexi Osuji",
        "rank": 24453,
        "rank_sort": 24483,
        "total": 2374
      },
      {
        "club_badge_src": null,
        "entry": 311961,
        "entry_name": "LabubuFC",
        "event_total": 60,
        "has_played": true,
        "id": 2090026,
        "last_rank": 26827,
        "player_name": "Sandra I",
        "rank": 24453,
        "rank_sort": 24484,
        "total": 2374
      },
      {
        "club_badge_src": null,
        "entry": 315706,
        "entry_name": "charlie don't surf",
        "event_total": 58,
        "has_played": true,
        "id": 2115864,
        "last_rank": 25002,
        "player_name": "Dave Shotbolt",
        "rank": 24453,
        "rank_sort": 24485,
        "total": 2374
      },
      {
        "club_badge_src": null,
        "entry": 321417,
        "entry_name": "Life\u2019s a gamble",
        "event_total": 58,
        "has_played": true,
        "id": 2154086,
        "last_rank": 25002,
        "player_name": "Ryo Huntamer",
        "rank": 24453,
        "rank_sort": 24486,
        "total": 2374
      },
      {
        "club_badge_src": "https://fantasy.premierleague.com/gcs/plfpl-production-adobe-approved/plfpl-production/325291/4fc396dd-e31b-4da4-874c-241a3ae1e1ff.png",
        "entry": 325291,
        "entry_name": "Tettozz FC",
        "event_total": 65,
        "has_played": true,
        "id": 2179637,
        "last_rank": 31556,
        "player_name": "Ali Atat",
        "rank": 24453,
        "rank_sort": 24487,
        "total": 2374
      },
      {
        "club_badge_src": null,
        "entry": 327758,
        "entry_name": "Drop Outs",
        "event_total": 64,
        "has_played": true,
        "id": 2195870,
        "last_rank": 30536,
        "player_name": "Stephen Wales",
        "rank": 24453,
        "rank_sort": 24488,
        "total": 2374
      },
      {
        "club_badge_src": "https://fantasy.premierleague.com/gcs/plfpl-production-adobe-approved/plfpl-production/339101/7ba18272-c8b8-4981-a46a-da05d8b89b26.png",
        "entry": 339101,
        "entry_name": "Petr Cech Yourself",
        "event_total": 65,
        "has_played": true,
        "id": 2270146,
        "last_rank": 31556,
        "player_name": "Jayden Mehmet",
        "rank": 24453,
        "rank_sort": 24489,
        "total": 2374
      },
      {
        "club_badge_src": null,
        "entry": 377013,
        "entry_name": "Back to the top",
        "event_total": 50,
        "has_played": true,
        "id": 2525348,
        "last_rank": 18790,
        "player_name": "Jeremy Taft",
        "rank": 24453,
        "rank_sort": 24490,
        "total": 2374
      },
      {
        "club_badge_src": "https://fantasy.premierleague.com/gcs/plfpl-production-adobe-approved/plfpl-production/388845/45244668-1947-4ee0-aebc-79187e2c1c1b.png",
        "entry": 388845,
        "entry_name": "ZXZ",
        "event_total": 57,
        "has_played": true,
        "id": 2608420,
        "last_rank": 23990,
        "player_name": "Zeyad Hazem",
        "rank": 24453,
        "rank_sort": 24491,
        "total": 2374
      },
      {
        "club_badge_src": "https://fantasy.premierleague.com/gcs/plfpl-production-adobe-approved/plfpl-production/401039/c915c08c-9e96-4a70-ac49-51e61561b23d.png",
        "entry": 401039,
        "entry_name": "Gy\u00f6k Tuah",
        "event_total": 52,
        "has_played": true,
        "id": 2689252,
        "last_rank": 20280,
        "player_name": "Lyndon Leissle",
        "rank": 24453,
        "rank_sort": 24492,
        "total": 2374
      },
      {
        "club_badge_src": null,
        "entry": 422111,
        "entry_name": "nam fc",
        "event_total": 54,
        "has_played": true,
        "id": 2828809,
        "last_rank": 21775,
        "player_name": "Supawit Charoensupaphol",
        "rank": 24453,
        "rank_sort": 24493,
        "total": 2374
      },
      {
        "club_badge_src": null,
        "entry": 438096,
        "entry_name": "Moysie's Masterplan",
        "event_total": 70,
        "has_played": true,
        "id": 2937761,
        "last_rank": 37589,
        "player_name": "Andy Brooks",
        "rank": 24453,
        "rank_sort": 24494,
        "total": 2374
      },
      {
        "club_badge_src": null,
        "entry": 440354,
        "entry_name": "Benchbolders",
        "event_total": 64,
        "has_played": true,
        "id": 2952654,
        "last_rank": 30600,
        "player_name": "jack holder",
        "rank": 24453,
        "rank_sort": 24495,
        "total": 2374
      },
      {
        "club_badge_src": null,
        "entry": 466752,
        "entry_name": "\u00d8deparfum",
        "event_total": 62,
        "has_played": true,
        "id": 3131848,
        "last_rank": 28726,
        "player_name": "Ollie Feast",
        "rank": 24453,
        "rank_sort": 24496,
        "total": 2374
      },
      {
        "club_badge_src": null,
        "entry": 474012,
        "entry_name": "wisey",
        "event_total": 55,
        "has_played": true,
        "id": 3182355,
        "last_rank": 22534,
        "player_name": "ian wiseman",
        "rank": 24453,
        "rank_sort": 24497,
        "total": 2374
      },
      {
        "club_badge_src": "https://fantasy.premierleague.com/gcs/plfpl-production-adobe-approved/plfpl-production/511947/4ebd6e33-d841-4d25-88b7-3a82bc542661.png",
        "entry": 511947,
        "entry_name": "Tahobito92",
        "event_total": 42,
        "has_played": true,
        "id": 3437661,
        "last_rank": 13821,
        "player_name": "Belkadi MedTahar",
        "rank": 24453,
        "rank_sort": 24498,
        "total": 2374
      },
      {
        "club_badge_src": null,
        "entry": 527305,
        "entry_name": "For Beto or wirtz",
        "event_total": 67,
        "has_played": true,
        "id": 3544800,
        "last_rank": 33936,
        "player_name": "Julian Netherton",
        "rank": 24453,
        "rank_sort": 24499,
        "total": 2374
      },
      {
        "club_badge_src": null,
        "entry": 557449,
        "entry_name": "Team Ahnie",
        "event_total": 67,
        "has_played": true,
        "id": 3751585,
        "last_rank": 33869,
        "player_name": "Greg Thomson",
        "rank": 24453,
        "rank_sort": 24500,
        "total": 2374
      }
    ]
  }
}