{
  "last_updated_data": "2026-05-24T23:28:17Z",
  "league": {
    "admin_entry": null,
    "closed": false,
    "code_privacy": "p",
    "created": "2025-07-20T23:14:33.933835Z",
    "cup_league": 2815434,
    "has_cup": true,
    "id": 314,
    "league_type": "s",
    "max_entries": null,
    "name": "Overall",
    "rank": null,
    "scoring": "c",
    "start_event": 1
  },
  "new_entries": {
    "has_next": false,
    "page": 1,
    "results": []
  },
  "standings": {
    "has_next": true,
    "page": 598,
    "results": [
      {
        "club_badge_src": null,
        "entry": 80258,
        "entry_name": "Bottennapp BoIF 3.0",
        "event_total": 41,
        "has_played": true,
        "id": 522200,
        "last_rank": 16959,
        "player_name": "Simon Nord\u00e9n",
        "rank": 29830,
        "rank_sort": 29851,
        "total": 2368
      },
      {
        "club_badge_src": null,
        "entry": 102339,
        "entry_name": "MercerNary Squad",
        "event_total": 62,
        "has_played": true,
        "id": 667726,
        "last_rank": 35166,
        "player_name": "James K Mercer",
        "rank": 29830,
        "rank_sort": 29852,
        "total": 2368
      },
      {
        "club_badge_src": null,
        "entry": 102932,
        "entry_name": "Burke XI",
        "event_total": 58,
        "has_played": true,
        "id": 671660,
        "last_rank": 30600,
        "player_name": "Declan Burke",
        "rank": 29830,
        "rank_sort": 29853,
        "total": 2368
      },
      {
        "club_badge_src": null,
        "entry": 110140,
        "entry_name": "Can you dig it Saka?",
        "event_total": 60,
        "has_played": true,
        "id": 718289,
        "last_rank": 32688,
        "player_name": "Andrea Camilleri",
        "rank": 29830,
        "rank_sort": 29854,
        "total": 2368
      },
      {
        "club_badge_src": null,
        "entry": 112876,
        "entry_name": "Papa Shango",
        "event_total": 64,
        "has_played": true,
        "id": 736107,
        "last_rank": 37589,
        "player_name": "mark gardiner",
        "rank": 29830,
        "rank_sort": 29855,
        "total": 2368
      },
      {
        "club_badge_src": "https://fantasy.premierleague.com/gcs/plfpl-production-adobe-approved/plfpl-production/114022/232a3d2b-d9bc-4129-a2c9-7b3385e1d12d.png",
        "entry": 114022,
        "entry_name": "Super Millwall",
        "event_total": 71,
        "has_played": true,
        "id": 743733,
        "last_rank": 46660,
        "player_name": "Simon Parslow",
        "rank": 29830,
        "rank_sort": 29856,
        "total": 2368
      },
      {
        "club_badge_src": null,
        "entry": 114389,
        "entry_name": "Tapiolan Viikingit",
        "event_total": 58,
        "has_played": true,
        "id": 746143,
        "last_rank": 30536,
        "player_name": "Taavi Helim\u00e4ki",
        "rank": 29830,
        "rank_sort": 29857,
        "total": 2368
      },
      {
        "club_badge_src": null,
        "entry": 116957,
        "entry_name": "Eze Does It",
        "event_total": 61,
        "has_played": true,
        "id": 763464,
        "last_rank": 33936,
        "player_name": "Chris Moss",
        "rank": 29830,
        "rank_sort": 29858,
        "total": 2368
      },
      {
        "club_badge_src": "https://fantasy.premierleague.com/gcs/plfpl-production-adobe-approved/plfpl-production/118583/4f8a6dd3-d4e0-4075-977d-9d3c97c9dc31.png",
        "entry": 118583,
        "entry_name": "IH.",
        "event_total": 51,
        "has_played": true,
        "id": 773883,
        "last_rank": 24143,
        "player_name": "Ivan Ho",
        "rank": 29830,
        "rank_sort": 29859,
        "total": 2368
      },
      {
        "club_badge_src": null,
        "entry": 120419,
        "entry_name": "JammyDodgersFC",
        "event_total": 57,
        "has_played": true,
        "id": 785711,
        "last_rank": 29578,
        "player_name": "Jaiden Caldeira",
        "rank": 29830,
        "rank_sort": 29860,
        "total": 2368
      },
      {
        "club_badge_src": null,
        "entry": 163711,
        "entry_name": "Super Smash Pedro\u00b2",
        "event_total": 61,
        "has_played": true,
        "id": 1079968,
        "last_rank": 34051,
        "player_name": "William Bui",
        "rank": 29830,
        "rank_sort": 29861,
        "total": 2368
      },
      {
        "club_badge_src": null,
        "entry": 164787,
        "entry_name": "mohammed reda",
        "event_total": 68,
        "has_played": true,
        "id": 1087674,
        "last_rank": 42648,
        "player_name": "Mohammed Reda",
        "rank": 29830,
        "rank_sort": 29862,
        "total": 2368
      },
      {
        "club_badge_src": null,
        "entry": 207479,
        "entry_name": "uk",
        "event_total": 57,
        "has_played": true,
        "id": 1379100,
        "last_rank": 29688,
        "player_name": "Nutthapat Puetsaka",
        "rank": 29830,
        "rank_sort": 29863,
        "total": 2368
      },
      {
        "club_badge_src": null,
        "entry": 215688,
        "entry_name": "Gittens Kittens",
        "event_total": 61,
        "has_played": true,
        "id": 1434574,
        "last_rank": 33936,
        "player_name": "James Hayden",
        "rank": 29830,
        "rank_sort": 29864,
        "total": 2368
      },
      {
        "club_badge_src": null,
        "entry": 221678,
        "entry_name": "No Kane, No Gain",
        "event_total": 37,
        "has_played": true,
        "id": 1474408,
        "last_rank": 14496,
        "player_name": "Nivrita Ahrar Hossain",
        "rank": 29830,
        "rank_sort": 29865,
        "total": 2368
      },
      {
        "club_badge_src": null,
        "entry": 226514,
        "entry_name": "Elanga Management",
        "event_total": 60,
        "has_played": true,
        "id": 1506800,
        "last_rank": 32879,
        "player_name": "Charlie Danjoux",
        "rank": 29830,
        "rank_sort": 29866,
        "total": 2368
      },
      {
        "club_badge_src": null,
        "entry": 229083,
        "entry_name": "No light blues",
        "event_total": 47,
        "has_played": true,
        "id": 1524105,
        "last_rank": 20888,
        "player_name": "FPL Wag",
        "rank": 29830,
        "rank_sort": 29867,
        "total": 2368
      },
      {
        "club_badge_src": null,
        "entry": 234490,
        "entry_name": "How Soon is Jo\u00e3o?",
        "event_total": 67,
        "has_played": true,
        "id": 1560329,
        "last_rank": 41324,
        "player_name": "Alex Webb",
        "rank": 29830,
        "rank_sort": 29868,
        "total": 2368
      },
      {
        "club_badge_src": null,
        "entry": 235397,
        "entry_name": "Bayern Muniz",
        "event_total": 61,
        "has_played": true,
        "id": 1566327,
        "last_rank": 33936,
        "player_name": "kike muniz",
        "rank": 29830,
        "rank_sort": 29869,
        "total": 2368
      },
      {
        "club_badge_src": null,
        "entry": 238364,
        "entry_name": "Zubimental FC",
        "event_total": 60,
        "has_played": true,
        "id": 1585822,
        "last_rank": 32751,
        "player_name": "Khaled Khamis",
        "rank": 29830,
        "rank_sort": 29870,
        "total": 2368
      },
      {
        "club_badge_src": null,
        "entry": 248340,
        "entry_name": "AllonmyOwn",
        "event_total": 68,
        "has_played": true,
        "id": 1652897,
        "last_rank": 42434,
        "player_name": "Peter Anderson",
        "rank": 29830,
        "rank_sort": 29871,
        "total": 2368
      },
      {
        "club_badge_src": "https://fantasy.premierleague.com/gcs/plfpl-production-adobe-approved/plfpl-production/265958/29bdb16b-e4b2-4968-a70e-71842a34921a.png",
        "entry": 265958,
        "entry_name": "Taylor XI",
        "event_total": 71,
        "has_played": true,
        "id": 1769109,
        "last_rank": 46660,
        "player_name": "Taylor Hindry",
        "rank": 29830,
        "rank_sort": 29872,
        "total": 2368
      },
      {
        "club_badge_src": "https://fantasy.premierleague.com/gcs/plfpl-production-adobe-approved/plfpl-production/269209/6cb24fbe-4e48-4316-9eac-f5995affeb08.png",
        "entry": 269209,
        "entry_name": "Basnakh",
        "event_total": 68,
        "has_played": true,
        "id": 1790947,
        "last_rank": 42648,
        "player_name": "Ithaf Santika",
        "rank": 29830,
        "rank_sort": 29873,
        "total": 2368
      },
      {
        "club_badge_src": null,
        "entry": 269961,
        "entry_name": "Okoli Doku Lee",
        "event_total": 62,
        "has_played": true,
        "id": 1796054,
        "last_rank": 35034,
        "player_name": "Jamie Hayes",
        "rank": 29830,
        "rank_sort": 29874,
        "total": 2368
      },
      {
        "club_badge_src": null,
        "entry": 296014,
        "entry_name": "Eze Come, Eze Go",
        "event_total": 58,
        "has_played": true,
        "id": 1977523,
        "last_rank": 30727,
        "player_name": "Stephen Catton",
        "rank": 29830,
        "rank_sort": 29875,
        "total": 2368
      },
      {
        "club_badge_src": null,
        "entry": 341848,
        "entry_name": "Naming Rights FC",
        "event_total": 42,
        "has_played": true,
        "id": 2288088,
        "last_rank": 17358,
        "player_name": "Billy Kenber",
        "rank": 29830,
        "rank_sort": 29876,
        "total": 2368
      },
      {
        "club_badge_src": null,
        "entry": 357041,
        "entry_name": "Bobr K.",
        "event_total": 50,
        "has_played": true,
        "id": 2389339,
        "last_rank": 23341,
        "player_name": "Andreas Blackne",
        "rank": 29830,
        "rank_sort": 29877,
        "total": 2368
      },
      {
        "club_badge_src": null,
        "entry": 371677,
        "entry_name": "Richmeister 2025",
        "event_total": 53,
        "has_played": true,
        "id": 2486946,
        "last_rank": 25776,
        "player_name": "Richard Rodrigo",
        "rank": 29830,
        "rank_sort": 29878,
        "total": 2368
      },
      {
        "club_badge_src": null,
        "entry": 449990,
        "entry_name": "Change Name",
        "event_total": 57,
        "has_played": true,
        "id": 3019071,
        "last_rank": 29578,
        "player_name": "Andrew Aun",
        "rank": 29830,
        "rank_sort": 29879,
        "total": 2368
      },
      {
        "club_badge_src": null,
        "entry": 453213,
        "entry_name": "RotisBereft",
        "event_total": 54,
        "has_played": true,
        "id": 3040174,
        "last_rank": 26710,
        "player_name": "Irodotos Oikonomidis",
        "rank": 29830,
        "rank_sort": 29880,
        "total": 2368
      },
      {
        "club_badge_src": null,
        "entry": 465448,
        "entry_name": "Unprotected Sesko",
        "event_total": 70,
        "has_played": true,
        "id": 3122587,
        "last_rank": 45416,
        "player_name": "Edoardo Mancini",
        "rank": 29830,
        "rank_sort": 29881,
        "total": 2368
      },
      {
        "club_badge_src": "https://fantasy.premierleague.com/gcs/plfpl-production-adobe-approved/plfpl-production/468469/af3b5b55-9d91-41a8-afc5-18489ce8fbb0.png",
        "entry": 468469,
        "entry_name": "Cancun All Stars",
        "event_total": 51,
        "has_played": true,
        "id": 3144050,
        "last_rank": 24039,
        "player_name": "Solomon Bruce-Oliver",
        "rank": 29830,
        "rank_sort": 29882,
        "total": 2368
      },
      {
        "club_badge_src": null,
        "entry": 473335,
        "entry_name": "Bradzil",
        "event_total": 58,
        "has_played": true,
        "id": 3177781,
        "last_rank": 30600,
        "player_name": "Bradley Statham",
        "rank": 29830,
        "rank_sort": 29883,
        "total": 2368
      },
      {
        "club_badge_src": null,
        "entry": 488216,
        "entry_name": "Rzemie\u015blnicy",
        "event_total": 60,
        "has_played": true,
        "id": 3277509,
        "last_rank": 32751,
        "player_name": "J\u00f3zef Sz",
        "rank": 29830,
        "rank_sort": 29884,
        "total": 2368
      },
      {
        "club_badge_src": "https://fantasy.premierleague.com/gcs/plfpl-production-adobe-approved/plfpl-production/491929/73f28918-2bbe-4b89-b91c-fe9712011ca0.png",
        "entry": 491929,
        "entry_name": "Rekkincrew",
        "event_total": 63,
        "has_played": true,
        "id": 3301954,
        "last_rank": 36348,
        "player_name": "Irtaza Ahmed",
        "rank": 29830,
        "rank_sort": 29885,
        "total": 2368
      },
      {
        "club_badge_src": null,
        "entry": 516001,
        "entry_name": "ABCDE FC",
        "event_total": 65,
        "has_played": true,
        "id": 3464371,
        "last_rank": 38774,
        "player_name": "Joe Cass",
        "rank": 29830,
        "rank_sort": 29886,
        "total": 2368
      },
      {
        "club_badge_src": null,
        "entry": 536628,
        "entry_name": "Tikka Mo Salah",
        "event_total": 67,
        "has_played": true,
        "id": 3611987,
        "last_rank": 41162,
        "player_name": "Joey Fernandez",
        "rank": 29830,
        "rank_sort": 29887,
        "total": 2368
      },
      {
        "club_badge_src": null,
        "entry": 553844,
        "entry_name": "ImToSeskoForMyShirt",
        "event_total": 53,
        "has_played": true,
        "id": 3727699,
        "last_rank": 25902,
        "player_name": "Dylan James",
        "rank": 29830,
        "rank_sort": 29888,
        "total": 2368
      },
      {
        "club_badge_src": null,
        "entry": 574721,
        "entry_name": "saltypretzell",
        "event_total": 73,
        "has_played": true,
        "id": 3867579,
        "last_rank": 43849,
        "player_name": "Jake Pretzell",
        "rank": 29830,
        "rank_sort": 29889,
        "total": 2368
      },
      {
        "club_badge_src": null,
        "entry": 578198,
        "entry_name": "under my cucurella",
        "event_total": 55,
        "has_played": true,
        "id": 3890533,
        "last_rank": 27644,
        "player_name": "tom wilson",
        "rank": 29830,
        "rank_sort": 29890,
        "total": 2368
      },
      {
        "club_badge_src": null,
        "entry": 580351,
        "entry_name": "The Woodhammers",
        "event_total": 38,
        "has_played": true,
        "id": 3905320,
        "last_rank": 14926,
        "player_name": "Sam van Groezen",
        "rank": 29830,
        "rank_sort": 29891,
        "total": 2368
      },
      {
        "club_badge_src": "https://fantasy.premierleague.com/gcs/plfpl-production-adobe-approved/plfpl-production/586419/cf69b0fa-3cb5-4678-93e0-4fe906df99ed.png",
        "entry": 586419,
        "entry_name": "Saka Schmidt",
        "event_total": 67,
        "has_played": true,
        "id": 3946558,
        "last_rank": 41162,
        "player_name": "Graham Oliver",
        "rank": 29830,
        "rank_sort": 29892,
        "total": 2368
      },
      {
        "club_badge_src": "https://fantasy.premierleague.com/gcs/plfpl-production-adobe-approved/plfpl-production/593017/35a11093-4705-4cd0-b7c5-a9d248657b00.png",
        "entry": 593017,
        "entry_name": "Game of Throw-ins",
        "event_total": 67,
        "has_played": true,
        "id": 3996152,
        "last_rank": 41162,
        "player_name": "Sean Pape",
        "rank": 29830,
        "rank_sort": 29893,
        "total": 2368
      },
      {
        "club_badge_src": null,
        "entry": 609377,
        "entry_name": "Slot it Home -Again!",
        "event_total": 31,
        "has_played": true,
        "id": 4116401,
        "last_rank": 11175,
        "player_name": "David D",
        "rank": 29830,
        "rank_sort": 29894,
        "total": 2368
      },
      {
        "club_badge_src": null,
        "entry": 628215,
        "entry_name": "The goalbladder",
        "event_total": 66,
        "has_played": true,
        "id": 4245093,
        "last_rank": 40036,
        "player_name": "Taha Sharif",
        "rank": 29830,
        "rank_sort": 29895,
        "total": 2368
      },
      {
        "club_badge_src": null,
        "entry": 642244,
        "entry_name": "Is yours Golden?",
        "event_total": 62,
        "has_played": true,
        "id": 4340562,
        "last_rank": 35166,
        "player_name": "Simon Morley",
        "rank": 29830,
        "rank_sort": 29896,
        "total": 2368
      },
      {
        "club_badge_src": null,
        "entry": 656388,
        "entry_name": "Zach FC",
        "event_total": 75,
        "has_played": true,
        "id": 4435867,
        "last_rank": 52853,
        "player_name": "Zach Wise",
        "rank": 29830,
        "rank_sort": 29897,
        "total": 2368
      },
      {
        "club_badge_src": "https://fantasy.premierleague.com/gcs/plfpl-production-adobe-approved/plfpl-production/675850/077368ed-181b-455a-bfae-26125d17834c.png",
        "entry": 675850,
        "entry_name": "Abra Dubravka",
        "event_total": 57,
        "has_played": true,
        "id": 4572446,
        "last_rank": 29522,
        "player_name": "Phil Brocklehurst",
        "rank": 29830,
        "rank_sort": 29898,
        "total": 2368
      },
      {
        "club_badge_src": null,
        "entry": 715421,
        "entry_name": "TooMuchOfAPartey",
        "event_total": 65,
        "has_played": true,
        "id": 4853845,
        "last_rank": 38644,
        "player_name": "Andy Dennis",
        "rank": 29830,
        "rank_sort": 29899,
        "total": 2368
      },
      {
        "club_badge_src": null,
        "entry": 724276,
        "entry_name": "Vince The Prince",
        "event_total": 58,
        "has_played": true,
        "id": 4919253,
        "last_rank": 30727,
        "player_name": "Vincent Peres Ferreira",
        "rank": 29830,
        "rank_sort": 29900,
        "total": 2368
      }
    ]
  }
}