{
  "last_updated_data": "2026-05-24T23:28:17Z",
  "league": {
    "admin_entry": null,
    "closed": false,
    "code_privacy": "p",
    "created": "2025-07-20T23:14:33.933835Z",
    "cup_league": 2815434,
    "has_cup": true,
    "id": 314,
    "league_type": "s",
    "max_entries": null,
    "name": "Overall",
    "rank": null,
    "scoring": "c",
    "start_event": 1
  },
  "new_entries": {
    "has_next": false,
    "page": 1,
    "results": []
  },
  "standings": {
    "has_next": true,
    "page": 754,
    "results": [
      {
        "club_badge_src": null,
        "entry": 6300929,
        "entry_name": "mil9",
        "event_total": 64,
        "has_played": true,
        "id": 49954040,
        "last_rank": 46839,
        "player_name": "Milton Lam",
        "rank": 37444,
        "rank_sort": 37651,
        "total": 2361
      },
      {
        "club_badge_src": null,
        "entry": 6429556,
        "entry_name": "Tricky Trees FC",
        "event_total": 62,
        "has_played": true,
        "id": 51181386,
        "last_rank": 43849,
        "player_name": "David Cameron",
        "rank": 37444,
        "rank_sort": 37652,
        "total": 2361
      },
      {
        "club_badge_src": null,
        "entry": 6455177,
        "entry_name": "Prew Stew's Revenge",
        "event_total": 49,
        "has_played": true,
        "id": 51408577,
        "last_rank": 28726,
        "player_name": "Iain Prew",
        "rank": 37444,
        "rank_sort": 37653,
        "total": 2361
      },
      {
        "club_badge_src": null,
        "entry": 6538084,
        "entry_name": "MrBadBoy69",
        "event_total": 60,
        "has_played": true,
        "id": 52160664,
        "last_rank": 41162,
        "player_name": "Chris Roberts",
        "rank": 37444,
        "rank_sort": 37654,
        "total": 2361
      },
      {
        "club_badge_src": null,
        "entry": 6768260,
        "entry_name": "Mortimer FC - L",
        "event_total": 53,
        "has_played": true,
        "id": 54192540,
        "last_rank": 32661,
        "player_name": "Charlotte Mortimer",
        "rank": 37444,
        "rank_sort": 37655,
        "total": 2361
      },
      {
        "club_badge_src": null,
        "entry": 6794815,
        "entry_name": "Ctrl Alt De Ligt",
        "event_total": 65,
        "has_played": true,
        "id": 54413942,
        "last_rank": 48119,
        "player_name": "Cheryl Miller",
        "rank": 37444,
        "rank_sort": 37656,
        "total": 2361
      },
      {
        "club_badge_src": null,
        "entry": 6899165,
        "entry_name": "Noob United",
        "event_total": 61,
        "has_played": true,
        "id": 55297175,
        "last_rank": 37435,
        "player_name": "Bantista Wanniang",
        "rank": 37444,
        "rank_sort": 37657,
        "total": 2361
      },
      {
        "club_badge_src": null,
        "entry": 6929320,
        "entry_name": "Panic! At The Sesko",
        "event_total": 65,
        "has_played": true,
        "id": 55549171,
        "last_rank": 48363,
        "player_name": "Sam Taylor",
        "rank": 37444,
        "rank_sort": 37658,
        "total": 2361
      },
      {
        "club_badge_src": null,
        "entry": 6941329,
        "entry_name": "Saka Xhaka Boom",
        "event_total": 64,
        "has_played": true,
        "id": 55652487,
        "last_rank": 46660,
        "player_name": "Ciaran Pierse",
        "rank": 37444,
        "rank_sort": 37659,
        "total": 2361
      },
      {
        "club_badge_src": null,
        "entry": 6983379,
        "entry_name": "Backstreet Moyes",
        "event_total": 60,
        "has_played": true,
        "id": 56049573,
        "last_rank": 41324,
        "player_name": "Liam Christie",
        "rank": 37444,
        "rank_sort": 37660,
        "total": 2361
      },
      {
        "club_badge_src": null,
        "entry": 7070664,
        "entry_name": "Now I'm a Baleba",
        "event_total": 75,
        "has_played": true,
        "id": 56895532,
        "last_rank": 65163,
        "player_name": "Henrique Campos",
        "rank": 37444,
        "rank_sort": 37661,
        "total": 2361
      },
      {
        "club_badge_src": null,
        "entry": 7092955,
        "entry_name": "CR7 FC",
        "event_total": 63,
        "has_played": true,
        "id": 57109068,
        "last_rank": 45416,
        "player_name": "Divesh Bhagooli",
        "rank": 37444,
        "rank_sort": 37662,
        "total": 2361
      },
      {
        "club_badge_src": null,
        "entry": 7094162,
        "entry_name": "7de2cifang",
        "event_total": 61,
        "has_played": true,
        "id": 57120379,
        "last_rank": 42648,
        "player_name": "hu yu",
        "rank": 37444,
        "rank_sort": 37663,
        "total": 2361
      },
      {
        "club_badge_src": null,
        "entry": 7143321,
        "entry_name": "CamJackArmy",
        "event_total": 60,
        "has_played": true,
        "id": 57586816,
        "last_rank": 41101,
        "player_name": "Ashley Jarvis",
        "rank": 37444,
        "rank_sort": 37664,
        "total": 2361
      },
      {
        "club_badge_src": null,
        "entry": 7312365,
        "entry_name": "Live and Let Ndiaye",
        "event_total": 56,
        "has_played": true,
        "id": 59192602,
        "last_rank": 36348,
        "player_name": "Ben Carson",
        "rank": 37444,
        "rank_sort": 37665,
        "total": 2361
      },
      {
        "club_badge_src": null,
        "entry": 7490025,
        "entry_name": "Elnino FC",
        "event_total": 58,
        "has_played": true,
        "id": 61153444,
        "last_rank": 38774,
        "player_name": "Elnino Uzor",
        "rank": 37444,
        "rank_sort": 37666,
        "total": 2361
      },
      {
        "club_badge_src": null,
        "entry": 7611948,
        "entry_name": "Steadlaroos",
        "event_total": 57,
        "has_played": true,
        "id": 62372385,
        "last_rank": 37589,
        "player_name": "Eddie Fahy",
        "rank": 37444,
        "rank_sort": 37667,
        "total": 2361
      },
      {
        "club_badge_src": null,
        "entry": 7755768,
        "entry_name": "Pleasant Park FC",
        "event_total": 56,
        "has_played": true,
        "id": 63674782,
        "last_rank": 36348,
        "player_name": "Bradley Luddington",
        "rank": 37444,
        "rank_sort": 37668,
        "total": 2361
      },
      {
        "club_badge_src": "https://fantasy.premierleague.com/gcs/plfpl-production-adobe-approved/plfpl-production/7786110/9f44ad64-ebc6-44f5-acfe-7cd8a7158883.png",
        "entry": 7786110,
        "entry_name": "Ballon D'MOR",
        "event_total": 61,
        "has_played": true,
        "id": 63948520,
        "last_rank": 37376,
        "player_name": "Oliver Leonard",
        "rank": 37444,
        "rank_sort": 37669,
        "total": 2361
      },
      {
        "club_badge_src": "https://fantasy.premierleague.com/gcs/plfpl-production-adobe-approved/plfpl-production/8161152/15816dd9-8337-4cc3-8b06-b4d777152ccc.png",
        "entry": 8161152,
        "entry_name": "GG-Team",
        "event_total": 54,
        "has_played": true,
        "id": 67372133,
        "last_rank": 34051,
        "player_name": "Gigla Papalashvili",
        "rank": 37444,
        "rank_sort": 37670,
        "total": 2361
      },
      {
        "club_badge_src": null,
        "entry": 8218767,
        "entry_name": "Borussia Bouakra",
        "event_total": 87,
        "has_played": true,
        "id": 67919040,
        "last_rank": 91466,
        "player_name": "Sami Bouakra",
        "rank": 37444,
        "rank_sort": 37671,
        "total": 2361
      },
      {
        "club_badge_src": null,
        "entry": 8239024,
        "entry_name": "Kitson a boar Hogg",
        "event_total": 65,
        "has_played": true,
        "id": 68115091,
        "last_rank": 48197,
        "player_name": "Alastair Hogg",
        "rank": 37444,
        "rank_sort": 37672,
        "total": 2361
      },
      {
        "club_badge_src": "https://fantasy.premierleague.com/gcs/plfpl-production-adobe-approved/plfpl-production/8439739/a39e74f7-11c5-4004-a59a-fe75044a13b2.png",
        "entry": 8439739,
        "entry_name": "YANITED",
        "event_total": 72,
        "has_played": true,
        "id": 70056912,
        "last_rank": 59632,
        "player_name": "Hjalmar Larsen",
        "rank": 37444,
        "rank_sort": 37673,
        "total": 2361
      },
      {
        "club_badge_src": null,
        "entry": 8454070,
        "entry_name": "Dougthebandithunter",
        "event_total": 69,
        "has_played": true,
        "id": 70193334,
        "last_rank": 54667,
        "player_name": "Tom Williams",
        "rank": 37444,
        "rank_sort": 37674,
        "total": 2361
      },
      {
        "club_badge_src": null,
        "entry": 8611313,
        "entry_name": "Lorenzi Poisikesed",
        "event_total": 62,
        "has_played": true,
        "id": 71706972,
        "last_rank": 43849,
        "player_name": "J\u00fcrgen Lorenz",
        "rank": 37444,
        "rank_sort": 37675,
        "total": 2361
      },
      {
        "club_badge_src": null,
        "entry": 8698112,
        "entry_name": "Mogudinho",
        "event_total": 47,
        "has_played": true,
        "id": 72560677,
        "last_rank": 26710,
        "player_name": "Monica Gulbrandsen",
        "rank": 37444,
        "rank_sort": 37676,
        "total": 2361
      },
      {
        "club_badge_src": null,
        "entry": 8768045,
        "entry_name": "Yosh fc",
        "event_total": 55,
        "has_played": true,
        "id": 73236178,
        "last_rank": 35424,
        "player_name": "Yosh Siwa",
        "rank": 37444,
        "rank_sort": 37677,
        "total": 2361
      },
      {
        "club_badge_src": null,
        "entry": 8889262,
        "entry_name": "im sorry nic jackson",
        "event_total": 64,
        "has_played": true,
        "id": 74404550,
        "last_rank": 46547,
        "player_name": "Ben Bridge",
        "rank": 37444,
        "rank_sort": 37678,
        "total": 2361
      },
      {
        "club_badge_src": null,
        "entry": 8893153,
        "entry_name": "Fabregassed up",
        "event_total": 59,
        "has_played": true,
        "id": 74442449,
        "last_rank": 40036,
        "player_name": "Colby Mozo",
        "rank": 37444,
        "rank_sort": 37679,
        "total": 2361
      },
      {
        "club_badge_src": null,
        "entry": 9017776,
        "entry_name": "TrickySerbs",
        "event_total": 51,
        "has_played": true,
        "id": 75651015,
        "last_rank": 30600,
        "player_name": "Strahinja Tomic",
        "rank": 37444,
        "rank_sort": 37680,
        "total": 2361
      },
      {
        "club_badge_src": null,
        "entry": 9028797,
        "entry_name": "shirax",
        "event_total": 46,
        "has_played": true,
        "id": 75757747,
        "last_rank": 25776,
        "player_name": "Shirak Sarmasty",
        "rank": 37444,
        "rank_sort": 37681,
        "total": 2361
      },
      {
        "club_badge_src": null,
        "entry": 9348045,
        "entry_name": "Pikachoo",
        "event_total": 65,
        "has_played": true,
        "id": 78868856,
        "last_rank": 48363,
        "player_name": "Yukta Verma",
        "rank": 37444,
        "rank_sort": 37682,
        "total": 2361
      },
      {
        "club_badge_src": "https://fantasy.premierleague.com/gcs/plfpl-production-adobe-approved/plfpl-production/887/72f229c7-9078-4177-b0fe-a7ff771a95ee.png",
        "entry": 887,
        "entry_name": "Gitten\u2019 Jiggy Wit It",
        "event_total": 72,
        "has_played": true,
        "id": 4903,
        "last_rank": 53023,
        "player_name": "John Paul Mercieca",
        "rank": 37683,
        "rank_sort": 37683,
        "total": 2361
      },
      {
        "club_badge_src": "https://fantasy.premierleague.com/gcs/plfpl-production-adobe-approved/plfpl-production/2697/7b044851-a0ad-490d-a960-0218e93cf000.png",
        "entry": 2697,
        "entry_name": "M\u00fcllered",
        "event_total": 69,
        "has_played": true,
        "id": 15112,
        "last_rank": 54667,
        "player_name": "Patrick Vane-Tempest",
        "rank": 37683,
        "rank_sort": 37684,
        "total": 2361
      },
      {
        "club_badge_src": null,
        "entry": 7486,
        "entry_name": "Gael Clich-field",
        "event_total": 63,
        "has_played": true,
        "id": 43170,
        "last_rank": 45252,
        "player_name": "Aaron Coleman",
        "rank": 37683,
        "rank_sort": 37685,
        "total": 2361
      },
      {
        "club_badge_src": "https://fantasy.premierleague.com/gcs/plfpl-production-adobe-approved/plfpl-production/8063/e3aa0f90-3f18-490f-9cd4-b01fa62fb8ea.png",
        "entry": 8063,
        "entry_name": "Pythagoreio F.C",
        "event_total": 72,
        "has_played": true,
        "id": 46667,
        "last_rank": 52853,
        "player_name": "Charalampos Vardikos",
        "rank": 37683,
        "rank_sort": 37686,
        "total": 2361
      },
      {
        "club_badge_src": null,
        "entry": 10301,
        "entry_name": "The Mile Kai Club",
        "event_total": 59,
        "has_played": true,
        "id": 60870,
        "last_rank": 39874,
        "player_name": "Harry Magee",
        "rank": 37683,
        "rank_sort": 37687,
        "total": 2361
      },
      {
        "club_badge_src": null,
        "entry": 11603,
        "entry_name": "showmedamane",
        "event_total": 60,
        "has_played": true,
        "id": 69037,
        "last_rank": 41617,
        "player_name": "Graham Brown",
        "rank": 37683,
        "rank_sort": 37688,
        "total": 2361
      },
      {
        "club_badge_src": null,
        "entry": 15040,
        "entry_name": "LUFC",
        "event_total": 49,
        "has_played": true,
        "id": 91963,
        "last_rank": 28726,
        "player_name": "B0zhidar Rusinov",
        "rank": 37683,
        "rank_sort": 37689,
        "total": 2361
      },
      {
        "club_badge_src": null,
        "entry": 18385,
        "entry_name": "On The Shed FC",
        "event_total": 60,
        "has_played": true,
        "id": 114350,
        "last_rank": 41617,
        "player_name": "Danny Whyte",
        "rank": 37683,
        "rank_sort": 37690,
        "total": 2361
      },
      {
        "club_badge_src": null,
        "entry": 55044,
        "entry_name": "Hunjan MTV",
        "event_total": 66,
        "has_played": true,
        "id": 354270,
        "last_rank": 44048,
        "player_name": "Kyle Hunjan",
        "rank": 37683,
        "rank_sort": 37691,
        "total": 2361
      },
      {
        "club_badge_src": null,
        "entry": 58419,
        "entry_name": "CSKA Moscow MK",
        "event_total": 70,
        "has_played": true,
        "id": 376290,
        "last_rank": 56180,
        "player_name": "Ilcho Bogeski",
        "rank": 37683,
        "rank_sort": 37692,
        "total": 2361
      },
      {
        "club_badge_src": null,
        "entry": 70942,
        "entry_name": "Jota Bonito",
        "event_total": 42,
        "has_played": true,
        "id": 460716,
        "last_rank": 22685,
        "player_name": "Norman Lee",
        "rank": 37683,
        "rank_sort": 37693,
        "total": 2361
      },
      {
        "club_badge_src": "https://fantasy.premierleague.com/gcs/plfpl-production-adobe-approved/plfpl-production/79638/db3a6889-95c6-4f0f-b5e0-7a9bad801777.png",
        "entry": 79638,
        "entry_name": "ColePalms are sweaty",
        "event_total": 60,
        "has_played": true,
        "id": 518007,
        "last_rank": 41324,
        "player_name": "Daniel Svoboda",
        "rank": 37683,
        "rank_sort": 37694,
        "total": 2361
      },
      {
        "club_badge_src": "https://fantasy.premierleague.com/gcs/plfpl-production-adobe-approved/plfpl-production/82959/5bf62fa0-b889-4539-981d-a7bd4a420a6b.png",
        "entry": 82959,
        "entry_name": "Glenerals",
        "event_total": 63,
        "has_played": true,
        "id": 539900,
        "last_rank": 45416,
        "player_name": "Ryan Marshall",
        "rank": 37683,
        "rank_sort": 37695,
        "total": 2361
      },
      {
        "club_badge_src": null,
        "entry": 83796,
        "entry_name": "Fiasp FC",
        "event_total": 53,
        "has_played": true,
        "id": 545454,
        "last_rank": 32879,
        "player_name": "Stian Ringstad Nilsen",
        "rank": 37683,
        "rank_sort": 37696,
        "total": 2361
      },
      {
        "club_badge_src": null,
        "entry": 84491,
        "entry_name": "Special Brews",
        "event_total": 57,
        "has_played": true,
        "id": 550140,
        "last_rank": 37822,
        "player_name": "Christian Martin",
        "rank": 37683,
        "rank_sort": 37697,
        "total": 2361
      },
      {
        "club_badge_src": "https://fantasy.premierleague.com/gcs/plfpl-production-adobe-approved/plfpl-production/90718/b30db920-8b9f-45c2-851f-b94735f28453.png",
        "entry": 90718,
        "entry_name": "defcon 15",
        "event_total": 65,
        "has_played": true,
        "id": 592350,
        "last_rank": 42648,
        "player_name": "Vishal Chandrasekar",
        "rank": 37683,
        "rank_sort": 37698,
        "total": 2361
      },
      {
        "club_badge_src": null,
        "entry": 91838,
        "entry_name": "Hwang like a Donkey",
        "event_total": 43,
        "has_played": true,
        "id": 599996,
        "last_rank": 17358,
        "player_name": "Jordan Henderson",
        "rank": 37683,
        "rank_sort": 37699,
        "total": 2361
      },
      {
        "club_badge_src": null,
        "entry": 94527,
        "entry_name": "DENGKIL FC",
        "event_total": 45,
        "has_played": true,
        "id": 617633,
        "last_rank": 25330,
        "player_name": "ADAM BUDIMAN",
        "rank": 37683,
        "rank_sort": 37700,
        "total": 2361
      }
    ]
  }
}