{
  "last_updated_data": "2026-05-24T23:28:17Z",
  "league": {
    "admin_entry": null,
    "closed": false,
    "code_privacy": "p",
    "created": "2025-07-20T23:14:33.933835Z",
    "cup_league": 2815434,
    "has_cup": true,
    "id": 314,
    "league_type": "s",
    "max_entries": null,
    "name": "Overall",
    "rank": null,
    "scoring": "c",
    "start_event": 1
  },
  "new_entries": {
    "has_next": false,
    "page": 1,
    "results": []
  },
  "standings": {
    "has_next": true,
    "page": 633,
    "results": [
      {
        "club_badge_src": null,
        "entry": 6216749,
        "entry_name": "Gunner be a good day",
        "event_total": 44,
        "has_played": true,
        "id": 49188547,
        "last_rank": 20008,
        "player_name": "Stephen Turner",
        "rank": 31570,
        "rank_sort": 31601,
        "total": 2367
      },
      {
        "club_badge_src": null,
        "entry": 6713524,
        "entry_name": "Tangerine Dream",
        "event_total": 51,
        "has_played": true,
        "id": 53727495,
        "last_rank": 25517,
        "player_name": "Ann Shakespeare",
        "rank": 31570,
        "rank_sort": 31602,
        "total": 2367
      },
      {
        "club_badge_src": "https://fantasy.premierleague.com/gcs/plfpl-production-adobe-approved/plfpl-production/6819949/8d4c2431-1e6f-435a-9b03-1c6b7b7dd1c7.png",
        "entry": 6819949,
        "entry_name": "Onurrr",
        "event_total": 55,
        "has_played": true,
        "id": 54623623,
        "last_rank": 29369,
        "player_name": "Kalama Hulu",
        "rank": 31570,
        "rank_sort": 31603,
        "total": 2367
      },
      {
        "club_badge_src": null,
        "entry": 8103926,
        "entry_name": "Paluckiniai",
        "event_total": 65,
        "has_played": true,
        "id": 66837603,
        "last_rank": 40832,
        "player_name": "nerijus maksele",
        "rank": 31570,
        "rank_sort": 31604,
        "total": 2367
      },
      {
        "club_badge_src": "https://fantasy.premierleague.com/gcs/plfpl-production-adobe-approved/plfpl-production/8568114/a7c5ee1f-2b91-4b15-84da-1f860e93bb1a.png",
        "entry": 8568114,
        "entry_name": "Al-Salt",
        "event_total": 55,
        "has_played": true,
        "id": 71293047,
        "last_rank": 29333,
        "player_name": "Ibrahim Awamleh",
        "rank": 31570,
        "rank_sort": 31605,
        "total": 2367
      },
      {
        "club_badge_src": "https://fantasy.premierleague.com/gcs/plfpl-production-adobe-approved/plfpl-production/2993/8bdd4bfa-90eb-4040-ac02-44f85e3cd2cb.png",
        "entry": 2993,
        "entry_name": "GOAT",
        "event_total": 52,
        "has_played": true,
        "id": 16870,
        "last_rank": 23039,
        "player_name": "3b3al -",
        "rank": 31606,
        "rank_sort": 31606,
        "total": 2367
      },
      {
        "club_badge_src": "https://fantasy.premierleague.com/gcs/plfpl-production-adobe-approved/plfpl-production/8969/556f3494-ac01-4e52-9b32-05b8aed62e4a.png",
        "entry": 8969,
        "entry_name": "[CAT] Hiu Hiu",
        "event_total": 73,
        "has_played": true,
        "id": 52447,
        "last_rank": 46313,
        "player_name": "duong ueih",
        "rank": 31606,
        "rank_sort": 31607,
        "total": 2367
      },
      {
        "club_badge_src": null,
        "entry": 19720,
        "entry_name": "stegg",
        "event_total": 54,
        "has_played": true,
        "id": 122728,
        "last_rank": 21450,
        "player_name": "Steve Legg",
        "rank": 31606,
        "rank_sort": 31608,
        "total": 2367
      },
      {
        "club_badge_src": null,
        "entry": 20100,
        "entry_name": "DuncanBarbooSauce",
        "event_total": 52,
        "has_played": true,
        "id": 125147,
        "last_rank": 22921,
        "player_name": "Callum Guest",
        "rank": 31606,
        "rank_sort": 31609,
        "total": 2367
      },
      {
        "club_badge_src": "https://fantasy.premierleague.com/gcs/plfpl-production-adobe-approved/plfpl-production/100653/92bc6862-243f-42b8-b04d-082bfa717fc7.png",
        "entry": 100653,
        "entry_name": "Riverwood Rangers",
        "event_total": 67,
        "has_played": true,
        "id": 656836,
        "last_rank": 43444,
        "player_name": "Joe Pontin",
        "rank": 31606,
        "rank_sort": 31610,
        "total": 2367
      },
      {
        "club_badge_src": null,
        "entry": 469499,
        "entry_name": "Fizz XI",
        "event_total": 35,
        "has_played": true,
        "id": 3151438,
        "last_rank": 14184,
        "player_name": "Rasmus Bastman",
        "rank": 31606,
        "rank_sort": 31611,
        "total": 2367
      },
      {
        "club_badge_src": null,
        "entry": 506363,
        "entry_name": "Jammy dodgers fc",
        "event_total": 56,
        "has_played": true,
        "id": 3398658,
        "last_rank": 30361,
        "player_name": "Lee Elkin",
        "rank": 31606,
        "rank_sort": 31612,
        "total": 2367
      },
      {
        "club_badge_src": null,
        "entry": 571793,
        "entry_name": "Bruno magnifico",
        "event_total": 85,
        "has_played": true,
        "id": 3848153,
        "last_rank": 58911,
        "player_name": "Lautaro Martinez",
        "rank": 31606,
        "rank_sort": 31613,
        "total": 2367
      },
      {
        "club_badge_src": "https://fantasy.premierleague.com/gcs/plfpl-production-adobe-approved/plfpl-production/611952/ef7262ba-5b81-468b-8bb6-f1ff4e362246.png",
        "entry": 611952,
        "entry_name": "Limoncello",
        "event_total": 54,
        "has_played": true,
        "id": 4134924,
        "last_rank": 24680,
        "player_name": "Kristian Stensrud",
        "rank": 31606,
        "rank_sort": 31614,
        "total": 2367
      },
      {
        "club_badge_src": "https://fantasy.premierleague.com/gcs/plfpl-production-adobe-approved/plfpl-production/624446/1de43b2a-be1f-47d9-8246-3efa4c013cce.png",
        "entry": 624446,
        "entry_name": "Calm as you Lijk",
        "event_total": 58,
        "has_played": true,
        "id": 4219871,
        "last_rank": 28348,
        "player_name": "Gurminder Panesar",
        "rank": 31606,
        "rank_sort": 31615,
        "total": 2367
      },
      {
        "club_badge_src": null,
        "entry": 694802,
        "entry_name": "\u0641\u0631\u064a\u0642 \u062e\u0644\u064a\u0647\u0627 \u0639 \u0627\u0644\u0644\u0647",
        "event_total": 60,
        "has_played": true,
        "id": 4705815,
        "last_rank": 30325,
        "player_name": "Musaad Binyousef",
        "rank": 31606,
        "rank_sort": 31616,
        "total": 2367
      },
      {
        "club_badge_src": "https://fantasy.premierleague.com/gcs/plfpl-production-adobe-approved/plfpl-production/772109/26dba03c-1157-4bdf-b248-a2dd3baf8ed0.png",
        "entry": 772109,
        "entry_name": "soccer aid",
        "event_total": 72,
        "has_played": true,
        "id": 5267455,
        "last_rank": 50848,
        "player_name": "Abiye Samuel",
        "rank": 31606,
        "rank_sort": 31617,
        "total": 2367
      },
      {
        "club_badge_src": null,
        "entry": 1064619,
        "entry_name": "Ginaldo",
        "event_total": 53,
        "has_played": true,
        "id": 7370005,
        "last_rank": 23857,
        "player_name": "Gina Soubra",
        "rank": 31606,
        "rank_sort": 31618,
        "total": 2367
      },
      {
        "club_badge_src": null,
        "entry": 1240493,
        "entry_name": "Jack Army xi",
        "event_total": 39,
        "has_played": true,
        "id": 8615190,
        "last_rank": 16621,
        "player_name": "Rob Standish",
        "rank": 31606,
        "rank_sort": 31619,
        "total": 2367
      },
      {
        "club_badge_src": null,
        "entry": 1306481,
        "entry_name": "ZaG'LaGa",
        "event_total": 51,
        "has_played": true,
        "id": 9080937,
        "last_rank": 25595,
        "player_name": "Nuno Henriques",
        "rank": 31606,
        "rank_sort": 31620,
        "total": 2367
      },
      {
        "club_badge_src": null,
        "entry": 1407870,
        "entry_name": "Backdraft United",
        "event_total": 60,
        "has_played": true,
        "id": 9796160,
        "last_rank": 30276,
        "player_name": "Preben Knarvik",
        "rank": 31606,
        "rank_sort": 31621,
        "total": 2367
      },
      {
        "club_badge_src": null,
        "entry": 2206984,
        "entry_name": "Hampa FC",
        "event_total": 65,
        "has_played": true,
        "id": 15714460,
        "last_rank": 35926,
        "player_name": "Karl Hamstedt",
        "rank": 31606,
        "rank_sort": 31622,
        "total": 2367
      },
      {
        "club_badge_src": null,
        "entry": 2379939,
        "entry_name": "oAJ",
        "event_total": 72,
        "has_played": true,
        "id": 16993904,
        "last_rank": 44882,
        "player_name": "Omar Abujamous",
        "rank": 31606,
        "rank_sort": 31623,
        "total": 2367
      },
      {
        "club_badge_src": null,
        "entry": 2607490,
        "entry_name": "...Hardly Athletic..",
        "event_total": 51,
        "has_played": true,
        "id": 18732097,
        "last_rank": 25595,
        "player_name": "Deky Dunne",
        "rank": 31606,
        "rank_sort": 31624,
        "total": 2367
      },
      {
        "club_badge_src": null,
        "entry": 2917177,
        "entry_name": "#saka saga",
        "event_total": 70,
        "has_played": true,
        "id": 21382537,
        "last_rank": 42152,
        "player_name": "Edward Ellis-Jones",
        "rank": 31606,
        "rank_sort": 31625,
        "total": 2367
      },
      {
        "club_badge_src": null,
        "entry": 3362870,
        "entry_name": "Gergeeeeess",
        "event_total": 65,
        "has_played": true,
        "id": 24952914,
        "last_rank": 31309,
        "player_name": "Gerges Rasmy",
        "rank": 31606,
        "rank_sort": 31626,
        "total": 2367
      },
      {
        "club_badge_src": null,
        "entry": 3705081,
        "entry_name": "Red Light Knights",
        "event_total": 71,
        "has_played": true,
        "id": 27645122,
        "last_rank": 49407,
        "player_name": "Matthew Vines",
        "rank": 31606,
        "rank_sort": 31627,
        "total": 2367
      },
      {
        "club_badge_src": null,
        "entry": 3952375,
        "entry_name": "Ctrl Alt De Ligt",
        "event_total": 62,
        "has_played": true,
        "id": 29734541,
        "last_rank": 37189,
        "player_name": "lewis skeggs",
        "rank": 31606,
        "rank_sort": 31628,
        "total": 2367
      },
      {
        "club_badge_src": null,
        "entry": 4447055,
        "entry_name": "Cunha Matata",
        "event_total": 76,
        "has_played": true,
        "id": 33868625,
        "last_rank": 50848,
        "player_name": "Kieran Leese",
        "rank": 31606,
        "rank_sort": 31629,
        "total": 2367
      },
      {
        "club_badge_src": null,
        "entry": 4529363,
        "entry_name": "Coach Gaz",
        "event_total": 66,
        "has_played": true,
        "id": 34547664,
        "last_rank": 42225,
        "player_name": "Garry Pearson",
        "rank": 31606,
        "rank_sort": 31630,
        "total": 2367
      },
      {
        "club_badge_src": null,
        "entry": 5517154,
        "entry_name": "Que Sera sera",
        "event_total": 71,
        "has_played": true,
        "id": 43016270,
        "last_rank": 49301,
        "player_name": "Taiwo Abioye",
        "rank": 31606,
        "rank_sort": 31631,
        "total": 2367
      },
      {
        "club_badge_src": null,
        "entry": 5518033,
        "entry_name": "We won Dalot",
        "event_total": 62,
        "has_played": true,
        "id": 43024043,
        "last_rank": 37189,
        "player_name": "Johan Myrmehl",
        "rank": 31606,
        "rank_sort": 31632,
        "total": 2367
      },
      {
        "club_badge_src": null,
        "entry": 6036924,
        "entry_name": "sidi amor",
        "event_total": 64,
        "has_played": true,
        "id": 47626825,
        "last_rank": 30276,
        "player_name": "mouadh mtiraoui",
        "rank": 31606,
        "rank_sort": 31633,
        "total": 2367
      },
      {
        "club_badge_src": null,
        "entry": 8502346,
        "entry_name": "Shia FC",
        "event_total": 54,
        "has_played": true,
        "id": 70660295,
        "last_rank": 24680,
        "player_name": "Shia Davidson",
        "rank": 31606,
        "rank_sort": 31634,
        "total": 2367
      },
      {
        "club_badge_src": null,
        "entry": 8615269,
        "entry_name": "Mo & The Bandits",
        "event_total": 71,
        "has_played": true,
        "id": 71745449,
        "last_rank": 38267,
        "player_name": "Nadia Machado da Cruz",
        "rank": 31606,
        "rank_sort": 31635,
        "total": 2367
      },
      {
        "club_badge_src": null,
        "entry": 24782,
        "entry_name": "HITMAN",
        "event_total": 69,
        "has_played": true,
        "id": 156501,
        "last_rank": 40878,
        "player_name": "Brett Jeter",
        "rank": 31636,
        "rank_sort": 31636,
        "total": 2367
      },
      {
        "club_badge_src": null,
        "entry": 172027,
        "entry_name": "Atkinson FC",
        "event_total": 64,
        "has_played": true,
        "id": 1136312,
        "last_rank": 39673,
        "player_name": "Akinade Tunde",
        "rank": 31636,
        "rank_sort": 31637,
        "total": 2367
      },
      {
        "club_badge_src": "https://fantasy.premierleague.com/gcs/plfpl-production-adobe-approved/plfpl-production/369412/b4989313-ab94-4a76-b90b-532ce7c0b459.png",
        "entry": 369412,
        "entry_name": "90\u2019s Utd",
        "event_total": 58,
        "has_played": true,
        "id": 2471933,
        "last_rank": 32552,
        "player_name": "Pep Zindiola",
        "rank": 31636,
        "rank_sort": 31638,
        "total": 2367
      },
      {
        "club_badge_src": null,
        "entry": 455886,
        "entry_name": "\u0627\u0644\u0633\u0639\u064a\u062f \u0627\u0644\u062d\u0641\u0646\u0627\u0648\u064a \u2696\ufe0f",
        "event_total": 74,
        "has_played": true,
        "id": 3058433,
        "last_rank": 42152,
        "player_name": "\u0627\u0644\u0633\u0639\u064a\u062f \u0627\u0644\u062d\u0641\u0646\u0627\u0648\u064a",
        "rank": 31636,
        "rank_sort": 31639,
        "total": 2367
      },
      {
        "club_badge_src": "https://fantasy.premierleague.com/gcs/plfpl-production-adobe-approved/plfpl-production/520749/24af7583-97c9-4d48-9515-f019bb30b187.png",
        "entry": 520749,
        "entry_name": "Ranczo PL-PL",
        "event_total": 75,
        "has_played": true,
        "id": 3497074,
        "last_rank": 49301,
        "player_name": "Marcin Para",
        "rank": 31636,
        "rank_sort": 31640,
        "total": 2367
      },
      {
        "club_badge_src": null,
        "entry": 596843,
        "entry_name": "Atack Atack Atack",
        "event_total": 61,
        "has_played": true,
        "id": 4024523,
        "last_rank": 27402,
        "player_name": "Lar I",
        "rank": 31636,
        "rank_sort": 31641,
        "total": 2367
      },
      {
        "club_badge_src": null,
        "entry": 602147,
        "entry_name": "Farke Time",
        "event_total": 60,
        "has_played": true,
        "id": 4063537,
        "last_rank": 26475,
        "player_name": "Lee Woodruff",
        "rank": 31636,
        "rank_sort": 31642,
        "total": 2367
      },
      {
        "club_badge_src": null,
        "entry": 640146,
        "entry_name": "TATA",
        "event_total": 58,
        "has_played": true,
        "id": 4326329,
        "last_rank": 28425,
        "player_name": "Special One",
        "rank": 31636,
        "rank_sort": 31643,
        "total": 2367
      },
      {
        "club_badge_src": null,
        "entry": 1071749,
        "entry_name": "Dazzler FC",
        "event_total": 61,
        "has_played": true,
        "id": 7419706,
        "last_rank": 35969,
        "player_name": "Darryl Shields",
        "rank": 31636,
        "rank_sort": 31644,
        "total": 2367
      },
      {
        "club_badge_src": null,
        "entry": 1551245,
        "entry_name": "MingsCanOnlyGetBeto",
        "event_total": 63,
        "has_played": true,
        "id": 10830740,
        "last_rank": 33695,
        "player_name": "james gardner",
        "rank": 31636,
        "rank_sort": 31645,
        "total": 2367
      },
      {
        "club_badge_src": "https://fantasy.premierleague.com/gcs/plfpl-production-adobe-approved/plfpl-production/1793164/9194e373-31f8-413f-93fd-8f9e1ba4f7f7.png",
        "entry": 1793164,
        "entry_name": "Watching4rmtheDark",
        "event_total": 51,
        "has_played": true,
        "id": 12600477,
        "last_rank": 19279,
        "player_name": "Dhan Paudel",
        "rank": 31636,
        "rank_sort": 31646,
        "total": 2367
      },
      {
        "club_badge_src": "https://fantasy.premierleague.com/gcs/plfpl-production-adobe-approved/plfpl-production/2378973/01fd8d01-bb97-43ed-b584-8c74043ccd2e.png",
        "entry": 2378973,
        "entry_name": "G\u00d6\u00d8NER",
        "event_total": 62,
        "has_played": true,
        "id": 16986454,
        "last_rank": 37211,
        "player_name": "Karim Awkal",
        "rank": 31636,
        "rank_sort": 31647,
        "total": 2367
      },
      {
        "club_badge_src": null,
        "entry": 3443376,
        "entry_name": "JNCxMagicalStar",
        "event_total": 81,
        "has_played": true,
        "id": 25583196,
        "last_rank": 59249,
        "player_name": "Jnc KelvinTing",
        "rank": 31636,
        "rank_sort": 31648,
        "total": 2367
      },
      {
        "club_badge_src": null,
        "entry": 3790292,
        "entry_name": "Tenth Coming",
        "event_total": 36,
        "has_played": true,
        "id": 28319786,
        "last_rank": 14771,
        "player_name": "Paul Hume",
        "rank": 31636,
        "rank_sort": 31649,
        "total": 2367
      },
      {
        "club_badge_src": null,
        "entry": 4185161,
        "entry_name": "grande",
        "event_total": 60,
        "has_played": true,
        "id": 31665852,
        "last_rank": 34849,
        "player_name": "Mary Kamau",
        "rank": 31636,
        "rank_sort": 31650,
        "total": 2367
      }
    ]
  }
}