{
  "last_updated_data": "2026-05-24T23:28:17Z",
  "league": {
    "admin_entry": null,
    "closed": false,
    "code_privacy": "p",
    "created": "2025-07-20T23:14:33.933835Z",
    "cup_league": 2815434,
    "has_cup": true,
    "id": 314,
    "league_type": "s",
    "max_entries": null,
    "name": "Overall",
    "rank": null,
    "scoring": "c",
    "start_event": 1
  },
  "new_entries": {
    "has_next": false,
    "page": 1,
    "results": []
  },
  "standings": {
    "has_next": true,
    "page": 561,
    "results": [
      {
        "club_badge_src": null,
        "entry": 48254,
        "entry_name": "Jarventus",
        "event_total": 60,
        "has_played": true,
        "id": 309810,
        "last_rank": 30600,
        "player_name": "M Jarvis",
        "rank": 27990,
        "rank_sort": 28001,
        "total": 2370
      },
      {
        "club_badge_src": "https://fantasy.premierleague.com/gcs/plfpl-production-adobe-approved/plfpl-production/50075/2e85ee94-d850-461c-839b-35af1eacbc87.png",
        "entry": 50075,
        "entry_name": "Suitable Concept v4",
        "event_total": 48,
        "has_played": true,
        "id": 321996,
        "last_rank": 20280,
        "player_name": "ARJUN VARMA",
        "rank": 27990,
        "rank_sort": 28002,
        "total": 2370
      },
      {
        "club_badge_src": null,
        "entry": 64459,
        "entry_name": "The Special Ones",
        "event_total": 40,
        "has_played": true,
        "id": 416047,
        "last_rank": 14926,
        "player_name": "will yau",
        "rank": 27990,
        "rank_sort": 28003,
        "total": 2370
      },
      {
        "club_badge_src": null,
        "entry": 66415,
        "entry_name": "Cunha Believe it?!",
        "event_total": 61,
        "has_played": true,
        "id": 429374,
        "last_rank": 31620,
        "player_name": "Max Reeves",
        "rank": 27990,
        "rank_sort": 28004,
        "total": 2370
      },
      {
        "club_badge_src": null,
        "entry": 66762,
        "entry_name": "Kurt\u2019s Cats",
        "event_total": 62,
        "has_played": true,
        "id": 431864,
        "last_rank": 28609,
        "player_name": "Kurt Manuel",
        "rank": 27990,
        "rank_sort": 28005,
        "total": 2370
      },
      {
        "club_badge_src": null,
        "entry": 89591,
        "entry_name": "Rice and Shine",
        "event_total": 69,
        "has_played": true,
        "id": 584824,
        "last_rank": 41324,
        "player_name": "Kevin Bjelland",
        "rank": 27990,
        "rank_sort": 28006,
        "total": 2370
      },
      {
        "club_badge_src": "https://fantasy.premierleague.com/gcs/plfpl-production-adobe-approved/plfpl-production/91640/4a11d331-9f1f-4fdb-a8ec-cf4482dcdae7.png",
        "entry": 91640,
        "entry_name": "Royal Cannons",
        "event_total": 75,
        "has_played": true,
        "id": 598638,
        "last_rank": 49691,
        "player_name": "Andrea C",
        "rank": 27990,
        "rank_sort": 28007,
        "total": 2370
      },
      {
        "club_badge_src": null,
        "entry": 129429,
        "entry_name": "Joga Bonito",
        "event_total": 55,
        "has_played": true,
        "id": 843572,
        "last_rank": 22426,
        "player_name": "Joel Andersson",
        "rank": 27990,
        "rank_sort": 28008,
        "total": 2370
      },
      {
        "club_badge_src": null,
        "entry": 146187,
        "entry_name": "Glock 9",
        "event_total": 70,
        "has_played": true,
        "id": 957626,
        "last_rank": 42648,
        "player_name": "Bob Bobby",
        "rank": 27990,
        "rank_sort": 28009,
        "total": 2370
      },
      {
        "club_badge_src": "https://fantasy.premierleague.com/gcs/plfpl-production-adobe-approved/plfpl-production/162836/8837e39e-8299-4eb9-bd3e-d85eec27997c.png",
        "entry": 162836,
        "entry_name": "Hakuna Mateta",
        "event_total": 66,
        "has_played": true,
        "id": 1073626,
        "last_rank": 37589,
        "player_name": "Parvinder Rathore",
        "rank": 27990,
        "rank_sort": 28010,
        "total": 2370
      },
      {
        "club_badge_src": null,
        "entry": 187901,
        "entry_name": "Cheeky Badgers",
        "event_total": 50,
        "has_played": true,
        "id": 1242740,
        "last_rank": 21775,
        "player_name": "Ross Dyke",
        "rank": 27990,
        "rank_sort": 28011,
        "total": 2370
      },
      {
        "club_badge_src": null,
        "entry": 194404,
        "entry_name": "We'll have a Lookman",
        "event_total": 50,
        "has_played": true,
        "id": 1288849,
        "last_rank": 21775,
        "player_name": "Patrick Cox",
        "rank": 27990,
        "rank_sort": 28012,
        "total": 2370
      },
      {
        "club_badge_src": null,
        "entry": 214631,
        "entry_name": "Caesar Salah",
        "event_total": 65,
        "has_played": true,
        "id": 1427763,
        "last_rank": 36099,
        "player_name": "Aidan Foley-Elliff",
        "rank": 27990,
        "rank_sort": 28013,
        "total": 2370
      },
      {
        "club_badge_src": null,
        "entry": 218144,
        "entry_name": "\u0160e\u0161ko Meal Deal",
        "event_total": 63,
        "has_played": true,
        "id": 1450654,
        "last_rank": 34051,
        "player_name": "Dan Parker",
        "rank": 27990,
        "rank_sort": 28014,
        "total": 2370
      },
      {
        "club_badge_src": null,
        "entry": 262475,
        "entry_name": "Lyle foster HateClub",
        "event_total": 74,
        "has_played": true,
        "id": 1745010,
        "last_rank": 48119,
        "player_name": "Cameron Neild",
        "rank": 27990,
        "rank_sort": 28015,
        "total": 2370
      },
      {
        "club_badge_src": null,
        "entry": 262608,
        "entry_name": "Hales Owen Town",
        "event_total": 38,
        "has_played": true,
        "id": 1745863,
        "last_rank": 13821,
        "player_name": "Rote Fuengfoo",
        "rank": 27990,
        "rank_sort": 28016,
        "total": 2370
      },
      {
        "club_badge_src": null,
        "entry": 263474,
        "entry_name": "Nunos Teddy",
        "event_total": 58,
        "has_played": true,
        "id": 1751820,
        "last_rank": 28726,
        "player_name": "Cameron Watson",
        "rank": 27990,
        "rank_sort": 28017,
        "total": 2370
      },
      {
        "club_badge_src": null,
        "entry": 267640,
        "entry_name": "Rossonero1899",
        "event_total": 60,
        "has_played": true,
        "id": 1780479,
        "last_rank": 30600,
        "player_name": "Spasen Sukara",
        "rank": 27990,
        "rank_sort": 28018,
        "total": 2370
      },
      {
        "club_badge_src": null,
        "entry": 271290,
        "entry_name": "Bassil FC",
        "event_total": 64,
        "has_played": true,
        "id": 1804801,
        "last_rank": 35034,
        "player_name": "Rami Bassil",
        "rank": 27990,
        "rank_sort": 28019,
        "total": 2370
      },
      {
        "club_badge_src": null,
        "entry": 274560,
        "entry_name": "Kinder Mbeumo",
        "event_total": 65,
        "has_played": true,
        "id": 1826950,
        "last_rank": 36348,
        "player_name": "Edward Yoxall",
        "rank": 27990,
        "rank_sort": 28020,
        "total": 2370
      },
      {
        "club_badge_src": "https://fantasy.premierleague.com/gcs/plfpl-production-adobe-approved/plfpl-production/298327/e5afd5d3-3391-45ca-ba54-111e8edb3717.png",
        "entry": 298327,
        "entry_name": "A Cunha Mateta",
        "event_total": 68,
        "has_played": true,
        "id": 1994533,
        "last_rank": 40036,
        "player_name": "Karl Chin",
        "rank": 27990,
        "rank_sort": 28021,
        "total": 2370
      },
      {
        "club_badge_src": null,
        "entry": 305851,
        "entry_name": "Champions \ufffd",
        "event_total": 60,
        "has_played": true,
        "id": 2048240,
        "last_rank": 30727,
        "player_name": "Remon Magdy",
        "rank": 27990,
        "rank_sort": 28022,
        "total": 2370
      },
      {
        "club_badge_src": null,
        "entry": 333857,
        "entry_name": "Infantini Bananini",
        "event_total": 67,
        "has_played": true,
        "id": 2235798,
        "last_rank": 38774,
        "player_name": "Lucas Silverstein",
        "rank": 27990,
        "rank_sort": 28023,
        "total": 2370
      },
      {
        "club_badge_src": null,
        "entry": 339870,
        "entry_name": "Brunt\u00e1l",
        "event_total": 57,
        "has_played": true,
        "id": 2275094,
        "last_rank": 27976,
        "player_name": "Josef Kova\u0159\u00edk",
        "rank": 27990,
        "rank_sort": 28024,
        "total": 2370
      },
      {
        "club_badge_src": null,
        "entry": 396483,
        "entry_name": "ARSENAL",
        "event_total": 49,
        "has_played": true,
        "id": 2658755,
        "last_rank": 20983,
        "player_name": "\u0410\u043d\u0434\u0440\u0435\u0439 \u0411\u0435\u0441\u043f\u0430\u043b\u043e\u0432",
        "rank": 27990,
        "rank_sort": 28025,
        "total": 2370
      },
      {
        "club_badge_src": null,
        "entry": 436330,
        "entry_name": "Cudn't give a Tosin",
        "event_total": 61,
        "has_played": true,
        "id": 2925884,
        "last_rank": 31620,
        "player_name": "John smyth",
        "rank": 27990,
        "rank_sort": 28026,
        "total": 2370
      },
      {
        "club_badge_src": null,
        "entry": 437150,
        "entry_name": "Arsenal vinnur Prem",
        "event_total": 77,
        "has_played": true,
        "id": 2931492,
        "last_rank": 46660,
        "player_name": "Magn\u00fas Ari Teitsson",
        "rank": 27990,
        "rank_sort": 28027,
        "total": 2370
      },
      {
        "club_badge_src": null,
        "entry": 448896,
        "entry_name": "Labo's Lobotomy",
        "event_total": 53,
        "has_played": true,
        "id": 3011550,
        "last_rank": 24143,
        "player_name": "Andrew Labovitz",
        "rank": 27990,
        "rank_sort": 28028,
        "total": 2370
      },
      {
        "club_badge_src": "https://fantasy.premierleague.com/gcs/plfpl-production-adobe-approved/plfpl-production/451637/ae162914-fceb-4123-abd3-98992f0e7b7d.png",
        "entry": 451637,
        "entry_name": "SSSIIIBBBBBBAAALLLDD",
        "event_total": 68,
        "has_played": true,
        "id": 3029964,
        "last_rank": 39816,
        "player_name": "bobby kidd",
        "rank": 27990,
        "rank_sort": 28029,
        "total": 2370
      },
      {
        "club_badge_src": null,
        "entry": 474247,
        "entry_name": "Saka Potatoes",
        "event_total": 72,
        "has_played": true,
        "id": 3183849,
        "last_rank": 45714,
        "player_name": "Alfie Jones",
        "rank": 27990,
        "rank_sort": 28030,
        "total": 2370
      },
      {
        "club_badge_src": null,
        "entry": 487938,
        "entry_name": "Crowman",
        "event_total": 54,
        "has_played": true,
        "id": 3275683,
        "last_rank": 25002,
        "player_name": "Pratiq Shah",
        "rank": 27990,
        "rank_sort": 28031,
        "total": 2370
      },
      {
        "club_badge_src": "https://fantasy.premierleague.com/gcs/plfpl-production-adobe-approved/plfpl-production/489312/8f9b9a2c-77ce-4468-9286-7b26e3c1d4a1.png",
        "entry": 489312,
        "entry_name": "Zubi Zubi Zu",
        "event_total": 57,
        "has_played": true,
        "id": 3284875,
        "last_rank": 27644,
        "player_name": "Joe Steadman",
        "rank": 27990,
        "rank_sort": 28032,
        "total": 2370
      },
      {
        "club_badge_src": null,
        "entry": 492015,
        "entry_name": "Edd's XI",
        "event_total": 80,
        "has_played": true,
        "id": 3302557,
        "last_rank": 57857,
        "player_name": "Edward Hatfield",
        "rank": 27990,
        "rank_sort": 28033,
        "total": 2370
      },
      {
        "club_badge_src": "https://fantasy.premierleague.com/gcs/plfpl-production-adobe-approved/plfpl-production/507739/c99f587b-6402-4de4-8d3a-57663dc460e0.png",
        "entry": 507739,
        "entry_name": "Hong Karl FC",
        "event_total": 80,
        "has_played": true,
        "id": 3407940,
        "last_rank": 58388,
        "player_name": "Karl Siu",
        "rank": 27990,
        "rank_sort": 28034,
        "total": 2370
      },
      {
        "club_badge_src": null,
        "entry": 535947,
        "entry_name": "Roll the Dyche",
        "event_total": 65,
        "has_played": true,
        "id": 3607147,
        "last_rank": 36142,
        "player_name": "Ryan Spencer",
        "rank": 27990,
        "rank_sort": 28035,
        "total": 2370
      },
      {
        "club_badge_src": null,
        "entry": 569663,
        "entry_name": "ThomasTheFrankEngine",
        "event_total": 61,
        "has_played": true,
        "id": 3834074,
        "last_rank": 31620,
        "player_name": "Finn Holmes",
        "rank": 27990,
        "rank_sort": 28036,
        "total": 2370
      },
      {
        "club_badge_src": "https://fantasy.premierleague.com/gcs/plfpl-production-adobe-approved/plfpl-production/579863/c2010486-2d88-4eef-bcfb-e8a0f2355cac.png",
        "entry": 579863,
        "entry_name": "\u00d8 Money",
        "event_total": 47,
        "has_played": true,
        "id": 3901835,
        "last_rank": 19544,
        "player_name": "Sam Holland",
        "rank": 27990,
        "rank_sort": 28037,
        "total": 2370
      },
      {
        "club_badge_src": null,
        "entry": 593245,
        "entry_name": "xaulawa2",
        "event_total": 43,
        "has_played": true,
        "id": 3997828,
        "last_rank": 16807,
        "player_name": "Abdulraheem Saulawa",
        "rank": 27990,
        "rank_sort": 28038,
        "total": 2370
      },
      {
        "club_badge_src": null,
        "entry": 613391,
        "entry_name": "Best Team EU",
        "event_total": 79,
        "has_played": true,
        "id": 4144586,
        "last_rank": 56180,
        "player_name": "Anders Sem Nilsen",
        "rank": 27990,
        "rank_sort": 28039,
        "total": 2370
      },
      {
        "club_badge_src": null,
        "entry": 632862,
        "entry_name": "Ribs FC",
        "event_total": 66,
        "has_played": true,
        "id": 4276308,
        "last_rank": 37435,
        "player_name": "Liam Appleby",
        "rank": 27990,
        "rank_sort": 28040,
        "total": 2370
      },
      {
        "club_badge_src": null,
        "entry": 656315,
        "entry_name": "Collembola FC",
        "event_total": 53,
        "has_played": true,
        "id": 4435389,
        "last_rank": 24039,
        "player_name": "Patrick C",
        "rank": 27990,
        "rank_sort": 28041,
        "total": 2370
      },
      {
        "club_badge_src": null,
        "entry": 675673,
        "entry_name": "Gusses Gubbar",
        "event_total": 67,
        "has_played": true,
        "id": 4571249,
        "last_rank": 38644,
        "player_name": "Samuel Gussman",
        "rank": 27990,
        "rank_sort": 28042,
        "total": 2370
      },
      {
        "club_badge_src": null,
        "entry": 683093,
        "entry_name": "B11 United",
        "event_total": 73,
        "has_played": true,
        "id": 4623202,
        "last_rank": 46660,
        "player_name": "Espen Kvam",
        "rank": 27990,
        "rank_sort": 28043,
        "total": 2370
      },
      {
        "club_badge_src": null,
        "entry": 713734,
        "entry_name": "Nayled to the Top",
        "event_total": 75,
        "has_played": true,
        "id": 4842116,
        "last_rank": 49691,
        "player_name": "Lewis Naylor",
        "rank": 27990,
        "rank_sort": 28044,
        "total": 2370
      },
      {
        "club_badge_src": null,
        "entry": 716804,
        "entry_name": "Kilimahewa Complex",
        "event_total": 56,
        "has_played": true,
        "id": 4863612,
        "last_rank": 26656,
        "player_name": "Goleha Masanja",
        "rank": 27990,
        "rank_sort": 28045,
        "total": 2370
      },
      {
        "club_badge_src": null,
        "entry": 722151,
        "entry_name": "Fatburens Angels",
        "event_total": 61,
        "has_played": true,
        "id": 4904446,
        "last_rank": 31620,
        "player_name": "Johan Olesund",
        "rank": 27990,
        "rank_sort": 28046,
        "total": 2370
      },
      {
        "club_badge_src": "https://fantasy.premierleague.com/gcs/plfpl-production-adobe-approved/plfpl-production/750032/f0a7191b-76f8-4d6d-85bd-24d2cc11d43d.png",
        "entry": 750032,
        "entry_name": "RUN CAR SNOW PEN",
        "event_total": 57,
        "has_played": true,
        "id": 5103083,
        "last_rank": 27644,
        "player_name": "Johnny N",
        "rank": 27990,
        "rank_sort": 28047,
        "total": 2370
      },
      {
        "club_badge_src": null,
        "entry": 761713,
        "entry_name": "Transfer Rumors",
        "event_total": 62,
        "has_played": true,
        "id": 5194028,
        "last_rank": 32751,
        "player_name": "Jared Matthews",
        "rank": 27990,
        "rank_sort": 28048,
        "total": 2370
      },
      {
        "club_badge_src": null,
        "entry": 770285,
        "entry_name": "Ugarte Roll With It",
        "event_total": 53,
        "has_played": true,
        "id": 5254658,
        "last_rank": 24143,
        "player_name": "David O'Neill",
        "rank": 27990,
        "rank_sort": 28049,
        "total": 2370
      },
      {
        "club_badge_src": null,
        "entry": 782855,
        "entry_name": "Saka Spuds",
        "event_total": 68,
        "has_played": true,
        "id": 5345428,
        "last_rank": 39770,
        "player_name": "Connor Nelms",
        "rank": 27990,
        "rank_sort": 28050,
        "total": 2370
      }
    ]
  }
}