{
  "last_updated_data": "2026-05-24T23:28:17Z",
  "league": {
    "admin_entry": null,
    "closed": false,
    "code_privacy": "p",
    "created": "2025-07-20T23:14:33.933835Z",
    "cup_league": 2815434,
    "has_cup": true,
    "id": 314,
    "league_type": "s",
    "max_entries": null,
    "name": "Overall",
    "rank": null,
    "scoring": "c",
    "start_event": 1
  },
  "new_entries": {
    "has_next": false,
    "page": 1,
    "results": []
  },
  "standings": {
    "has_next": true,
    "page": 1589,
    "results": [
      {
        "club_badge_src": null,
        "entry": 236877,
        "entry_name": "Ladna Voda",
        "event_total": 70,
        "has_played": true,
        "id": 1575994,
        "last_rank": 102622,
        "player_name": "Dragoljub Canic",
        "rank": 79394,
        "rank_sort": 79401,
        "total": 2336
      },
      {
        "club_badge_src": null,
        "entry": 342678,
        "entry_name": "NONN",
        "event_total": 87,
        "has_played": true,
        "id": 2293571,
        "last_rank": 169960,
        "player_name": "Bishwash Lamichhane",
        "rank": 79394,
        "rank_sort": 79402,
        "total": 2336
      },
      {
        "club_badge_src": "https://fantasy.premierleague.com/gcs/plfpl-production-adobe-approved/plfpl-production/361283/06340ba5-23b0-4665-ad31-fb9befa4a3d9.png",
        "entry": 361283,
        "entry_name": "MhofelaChampion",
        "event_total": 63,
        "has_played": true,
        "id": 2417433,
        "last_rank": 85487,
        "player_name": "Robert Tichivanhu",
        "rank": 79394,
        "rank_sort": 79403,
        "total": 2336
      },
      {
        "club_badge_src": null,
        "entry": 377706,
        "entry_name": "ABCDE FC",
        "event_total": 53,
        "has_played": true,
        "id": 2530253,
        "last_rank": 64562,
        "player_name": "Daniel Lassman",
        "rank": 79394,
        "rank_sort": 79404,
        "total": 2336
      },
      {
        "club_badge_src": null,
        "entry": 596410,
        "entry_name": "Fluke FC",
        "event_total": 60,
        "has_played": true,
        "id": 4021267,
        "last_rank": 87945,
        "player_name": "Miguel Marques",
        "rank": 79394,
        "rank_sort": 79405,
        "total": 2336
      },
      {
        "club_badge_src": "https://fantasy.premierleague.com/gcs/plfpl-production-adobe-approved/plfpl-production/661269/ebf53c46-52e8-41ec-be0d-69d5cfb810c0.png",
        "entry": 661269,
        "entry_name": "DGFC**",
        "event_total": 50,
        "has_played": true,
        "id": 4469396,
        "last_rank": 66487,
        "player_name": "Daniel Gates",
        "rank": 79394,
        "rank_sort": 79406,
        "total": 2336
      },
      {
        "club_badge_src": null,
        "entry": 694473,
        "entry_name": "Tikka Taka FC",
        "event_total": 63,
        "has_played": true,
        "id": 4703509,
        "last_rank": 85565,
        "player_name": "Rohith Yerra",
        "rank": 79394,
        "rank_sort": 79407,
        "total": 2336
      },
      {
        "club_badge_src": null,
        "entry": 712878,
        "entry_name": "Planet of the Yates",
        "event_total": 51,
        "has_played": true,
        "id": 4836072,
        "last_rank": 54134,
        "player_name": "Jack Finlinson",
        "rank": 79394,
        "rank_sort": 79408,
        "total": 2336
      },
      {
        "club_badge_src": "https://fantasy.premierleague.com/gcs/plfpl-production-adobe-approved/plfpl-production/743931/4183f3b1-4cce-451e-90c9-2ede00ddfb0a.png",
        "entry": 743931,
        "entry_name": "PSV Salmiya",
        "event_total": 61,
        "has_played": true,
        "id": 5060475,
        "last_rank": 90300,
        "player_name": "ali basil",
        "rank": 79394,
        "rank_sort": 79409,
        "total": 2336
      },
      {
        "club_badge_src": null,
        "entry": 804073,
        "entry_name": "Crouch Potato*",
        "event_total": 69,
        "has_played": true,
        "id": 5504225,
        "last_rank": 110890,
        "player_name": "Brendon Harvey",
        "rank": 79394,
        "rank_sort": 79410,
        "total": 2336
      },
      {
        "club_badge_src": null,
        "entry": 832355,
        "entry_name": "Freshness Team",
        "event_total": 49,
        "has_played": true,
        "id": 5701237,
        "last_rank": 64603,
        "player_name": "Asen Kolev",
        "rank": 79394,
        "rank_sort": 79411,
        "total": 2336
      },
      {
        "club_badge_src": null,
        "entry": 872769,
        "entry_name": "Town Called Palice",
        "event_total": 68,
        "has_played": true,
        "id": 5983539,
        "last_rank": 97687,
        "player_name": "Mark Gayle",
        "rank": 79394,
        "rank_sort": 79412,
        "total": 2336
      },
      {
        "club_badge_src": null,
        "entry": 998110,
        "entry_name": "Fc Meltsi",
        "event_total": 63,
        "has_played": true,
        "id": 6896295,
        "last_rank": 95213,
        "player_name": "Valtteri Kinnari",
        "rank": 79394,
        "rank_sort": 79413,
        "total": 2336
      },
      {
        "club_badge_src": null,
        "entry": 1060220,
        "entry_name": "Tel me more",
        "event_total": 38,
        "has_played": true,
        "id": 7337789,
        "last_rank": 46432,
        "player_name": "Mark Meenan",
        "rank": 79394,
        "rank_sort": 79414,
        "total": 2336
      },
      {
        "club_badge_src": null,
        "entry": 1196384,
        "entry_name": "Rooney Tunes",
        "event_total": 67,
        "has_played": true,
        "id": 8301971,
        "last_rank": 105370,
        "player_name": "Mats Hansen",
        "rank": 79394,
        "rank_sort": 79415,
        "total": 2336
      },
      {
        "club_badge_src": null,
        "entry": 1215823,
        "entry_name": "\u0627\u0644\u0641\u064a\u0644\u0627",
        "event_total": 59,
        "has_played": true,
        "id": 8439022,
        "last_rank": 76638,
        "player_name": "Watkins Ollie.w11",
        "rank": 79394,
        "rank_sort": 79416,
        "total": 2336
      },
      {
        "club_badge_src": null,
        "entry": 1634047,
        "entry_name": "The Leftovers",
        "event_total": 33,
        "has_played": true,
        "id": 11437549,
        "last_rank": 34825,
        "player_name": "Bent Rasmussen",
        "rank": 79394,
        "rank_sort": 79417,
        "total": 2336
      },
      {
        "club_badge_src": null,
        "entry": 1932865,
        "entry_name": "Mfali533",
        "event_total": 59,
        "has_played": true,
        "id": 13632281,
        "last_rank": 68294,
        "player_name": "Mohammed Ali",
        "rank": 79394,
        "rank_sort": 79418,
        "total": 2336
      },
      {
        "club_badge_src": null,
        "entry": 2053119,
        "entry_name": "Luke at the top",
        "event_total": 74,
        "has_played": true,
        "id": 14543145,
        "last_rank": 113553,
        "player_name": "Luke Balden",
        "rank": 79394,
        "rank_sort": 79419,
        "total": 2336
      },
      {
        "club_badge_src": null,
        "entry": 2194574,
        "entry_name": "Schmeichel Jackson",
        "event_total": 47,
        "has_played": true,
        "id": 15614573,
        "last_rank": 61087,
        "player_name": "Jake Cessford",
        "rank": 79394,
        "rank_sort": 79420,
        "total": 2336
      },
      {
        "club_badge_src": null,
        "entry": 2827922,
        "entry_name": "AFC Ben Mee",
        "event_total": 56,
        "has_played": true,
        "id": 20662549,
        "last_rank": 62812,
        "player_name": "Archie Harding",
        "rank": 79394,
        "rank_sort": 79421,
        "total": 2336
      },
      {
        "club_badge_src": null,
        "entry": 2839084,
        "entry_name": "KL0PPY SEC0ndsss",
        "event_total": 53,
        "has_played": true,
        "id": 20749119,
        "last_rank": 72454,
        "player_name": "Dylan Power",
        "rank": 79394,
        "rank_sort": 79422,
        "total": 2336
      },
      {
        "club_badge_src": null,
        "entry": 2947417,
        "entry_name": "Bruno_Penaldes",
        "event_total": 42,
        "has_played": true,
        "id": 21646011,
        "last_rank": 52603,
        "player_name": "Keith Luo",
        "rank": 79394,
        "rank_sort": 79423,
        "total": 2336
      },
      {
        "club_badge_src": null,
        "entry": 3091412,
        "entry_name": "Mahmoud Tadj",
        "event_total": 66,
        "has_played": true,
        "id": 22783431,
        "last_rank": 92685,
        "player_name": "Mahmoud Tadj",
        "rank": 79394,
        "rank_sort": 79424,
        "total": 2336
      },
      {
        "club_badge_src": null,
        "entry": 3304146,
        "entry_name": "Hair Transplant Fc",
        "event_total": 46,
        "has_played": true,
        "id": 24473756,
        "last_rank": 52561,
        "player_name": "Kevin Chiddy",
        "rank": 79394,
        "rank_sort": 79425,
        "total": 2336
      },
      {
        "club_badge_src": null,
        "entry": 4237432,
        "entry_name": "A Cunha Mateta",
        "event_total": 59,
        "has_played": true,
        "id": 32111308,
        "last_rank": 85565,
        "player_name": "Jacob Duckworth",
        "rank": 79394,
        "rank_sort": 79426,
        "total": 2336
      },
      {
        "club_badge_src": null,
        "entry": 4283519,
        "entry_name": "Aston Birra FC",
        "event_total": 59,
        "has_played": true,
        "id": 32488538,
        "last_rank": 85624,
        "player_name": "Vasilis Georgakopoulos",
        "rank": 79394,
        "rank_sort": 79427,
        "total": 2336
      },
      {
        "club_badge_src": null,
        "entry": 4825420,
        "entry_name": "Fc FerinFerain",
        "event_total": 34,
        "has_played": true,
        "id": 37162958,
        "last_rank": 35998,
        "player_name": "Ale\u0161 Burja",
        "rank": 79394,
        "rank_sort": 79428,
        "total": 2336
      },
      {
        "club_badge_src": "https://fantasy.premierleague.com/gcs/plfpl-production-adobe-approved/plfpl-production/4866421/002ad423-3090-4cd5-9dfe-9bd6cb61c9b6.png",
        "entry": 4866421,
        "entry_name": "Calafiorinication",
        "event_total": 71,
        "has_played": true,
        "id": 37507322,
        "last_rank": 105370,
        "player_name": "Roberto Baggio",
        "rank": 79394,
        "rank_sort": 79429,
        "total": 2336
      },
      {
        "club_badge_src": null,
        "entry": 4974939,
        "entry_name": "Pencher city",
        "event_total": 68,
        "has_played": true,
        "id": 38401320,
        "last_rank": 108086,
        "player_name": "Alex Penkov",
        "rank": 79394,
        "rank_sort": 79430,
        "total": 2336
      },
      {
        "club_badge_src": null,
        "entry": 5186728,
        "entry_name": "#BadBoy0010#",
        "event_total": 60,
        "has_played": true,
        "id": 40151255,
        "last_rank": 78730,
        "player_name": "Ahmed Badshah ShaikhJamadar",
        "rank": 79394,
        "rank_sort": 79431,
        "total": 2336
      },
      {
        "club_badge_src": null,
        "entry": 6763968,
        "entry_name": "Reeeeeaaaal Badman",
        "event_total": 51,
        "has_played": true,
        "id": 54157076,
        "last_rank": 68395,
        "player_name": "Antoni Casto",
        "rank": 79394,
        "rank_sort": 79432,
        "total": 2336
      },
      {
        "club_badge_src": null,
        "entry": 7497204,
        "entry_name": "PJB",
        "event_total": 68,
        "has_played": true,
        "id": 61244531,
        "last_rank": 108172,
        "player_name": "Philip Baron",
        "rank": 79394,
        "rank_sort": 79433,
        "total": 2336
      },
      {
        "club_badge_src": null,
        "entry": 7648891,
        "entry_name": "The champ on paper",
        "event_total": 56,
        "has_played": true,
        "id": 62706963,
        "last_rank": 78782,
        "player_name": "Sadam Hussein",
        "rank": 79394,
        "rank_sort": 79434,
        "total": 2336
      },
      {
        "club_badge_src": null,
        "entry": 8210504,
        "entry_name": "EJ10",
        "event_total": 69,
        "has_played": true,
        "id": 67840850,
        "last_rank": 90158,
        "player_name": "Ethan Johnson",
        "rank": 79394,
        "rank_sort": 79435,
        "total": 2336
      },
      {
        "club_badge_src": null,
        "entry": 8711957,
        "entry_name": "KUSHGOD",
        "event_total": 52,
        "has_played": true,
        "id": 72694860,
        "last_rank": 62874,
        "player_name": "HORNY POPS",
        "rank": 79394,
        "rank_sort": 79436,
        "total": 2336
      },
      {
        "club_badge_src": null,
        "entry": 8918706,
        "entry_name": "Barefoot Rangers FC",
        "event_total": 68,
        "has_played": true,
        "id": 74690354,
        "last_rank": 108086,
        "player_name": "Liashen Padayachee",
        "rank": 79394,
        "rank_sort": 79437,
        "total": 2336
      },
      {
        "club_badge_src": null,
        "entry": 9258692,
        "entry_name": "BigShaq",
        "event_total": 60,
        "has_played": true,
        "id": 78007156,
        "last_rank": 78730,
        "player_name": "Liam Kenny",
        "rank": 79394,
        "rank_sort": 79438,
        "total": 2336
      },
      {
        "club_badge_src": null,
        "entry": 91949,
        "entry_name": "Dudley United",
        "event_total": 60,
        "has_played": true,
        "id": 600716,
        "last_rank": 78782,
        "player_name": "Aaryan Dhaul",
        "rank": 79439,
        "rank_sort": 79439,
        "total": 2336
      },
      {
        "club_badge_src": "https://fantasy.premierleague.com/gcs/plfpl-production-adobe-approved/plfpl-production/141585/71ce218b-bdc1-4167-9e21-58bad2a4a657.png",
        "entry": 141585,
        "entry_name": "Ekitike-Taka",
        "event_total": 62,
        "has_played": true,
        "id": 925100,
        "last_rank": 92780,
        "player_name": "Gareth Oakes",
        "rank": 79439,
        "rank_sort": 79440,
        "total": 2336
      },
      {
        "club_badge_src": "https://fantasy.premierleague.com/gcs/plfpl-production-adobe-approved/plfpl-production/154962/4f4e210f-3eb9-4cf2-995c-40cf8aa3da58.png",
        "entry": 154962,
        "entry_name": "Winning Nowt FC",
        "event_total": 59,
        "has_played": true,
        "id": 1018213,
        "last_rank": 68351,
        "player_name": "Wilson Raine",
        "rank": 79439,
        "rank_sort": 79441,
        "total": 2336
      },
      {
        "club_badge_src": null,
        "entry": 159564,
        "entry_name": "Reijnders Keepers",
        "event_total": 67,
        "has_played": true,
        "id": 1050310,
        "last_rank": 105483,
        "player_name": "Louis Wall",
        "rank": 79439,
        "rank_sort": 79442,
        "total": 2336
      },
      {
        "club_badge_src": "https://fantasy.premierleague.com/gcs/plfpl-production-adobe-approved/plfpl-production/178251/ba5968b0-bff1-488c-ba70-805c4a629eba.png",
        "entry": 178251,
        "entry_name": "Forever 20",
        "event_total": 54,
        "has_played": true,
        "id": 1176432,
        "last_rank": 74561,
        "player_name": "Alex Leedham",
        "rank": 79439,
        "rank_sort": 79443,
        "total": 2336
      },
      {
        "club_badge_src": null,
        "entry": 276400,
        "entry_name": "Cunha Feel It",
        "event_total": 76,
        "has_played": true,
        "id": 1839579,
        "last_rank": 119491,
        "player_name": "Ryan Bush",
        "rank": 79439,
        "rank_sort": 79444,
        "total": 2336
      },
      {
        "club_badge_src": "https://fantasy.premierleague.com/gcs/plfpl-production-adobe-approved/plfpl-production/378585/489f2a06-4c22-4f24-92d0-fc646a93efa3.png",
        "entry": 378585,
        "entry_name": "YUPAK-79",
        "event_total": 65,
        "has_played": true,
        "id": 2536429,
        "last_rank": 90300,
        "player_name": "Deepak Khatiwara",
        "rank": 79439,
        "rank_sort": 79445,
        "total": 2336
      },
      {
        "club_badge_src": null,
        "entry": 558431,
        "entry_name": "Real Warszawa",
        "event_total": 68,
        "has_played": true,
        "id": 3758182,
        "last_rank": 97750,
        "player_name": "Bartosz Borowski",
        "rank": 79439,
        "rank_sort": 79446,
        "total": 2336
      },
      {
        "club_badge_src": null,
        "entry": 665812,
        "entry_name": "Cole As Ice",
        "event_total": 67,
        "has_played": true,
        "id": 4501549,
        "last_rank": 95213,
        "player_name": "Liam Wainwright",
        "rank": 79439,
        "rank_sort": 79447,
        "total": 2336
      },
      {
        "club_badge_src": null,
        "entry": 684430,
        "entry_name": "Pathetico Madrid FC",
        "event_total": 70,
        "has_played": true,
        "id": 4632599,
        "last_rank": 113790,
        "player_name": "Matthew Thomas",
        "rank": 79439,
        "rank_sort": 79448,
        "total": 2336
      },
      {
        "club_badge_src": "https://fantasy.premierleague.com/gcs/plfpl-production-adobe-approved/plfpl-production/699274/6f5803ec-78ec-4be9-afc3-d5ee827ac936.png",
        "entry": 699274,
        "entry_name": "Tickle Me Olmo",
        "event_total": 64,
        "has_played": true,
        "id": 4737148,
        "last_rank": 97750,
        "player_name": "Steve Hibbert",
        "rank": 79439,
        "rank_sort": 79449,
        "total": 2336
      },
      {
        "club_badge_src": "https://fantasy.premierleague.com/gcs/plfpl-production-adobe-approved/plfpl-production/1226281/f4701421-937b-4500-9f63-ef0a34068e4c.png",
        "entry": 1226281,
        "entry_name": "The Honey Badgers",
        "event_total": 62,
        "has_played": true,
        "id": 8514622,
        "last_rank": 83267,
        "player_name": "Kevin O Donnell",
        "rank": 79439,
        "rank_sort": 79450,
        "total": 2336
      }
    ]
  }
}