{
  "last_updated_data": "2026-05-24T23:28:17Z",
  "league": {
    "admin_entry": null,
    "closed": false,
    "code_privacy": "p",
    "created": "2025-07-20T23:14:33.933835Z",
    "cup_league": 2815434,
    "has_cup": true,
    "id": 314,
    "league_type": "s",
    "max_entries": null,
    "name": "Overall",
    "rank": null,
    "scoring": "c",
    "start_event": 1
  },
  "new_entries": {
    "has_next": false,
    "page": 1,
    "results": []
  },
  "standings": {
    "has_next": true,
    "page": 586,
    "results": [
      {
        "club_badge_src": null,
        "entry": 5525624,
        "entry_name": "Soccer Aid",
        "event_total": 63,
        "has_played": true,
        "id": 43091692,
        "last_rank": 35424,
        "player_name": "Farouk Elabd",
        "rank": 29128,
        "rank_sort": 29251,
        "total": 2369
      },
      {
        "club_badge_src": null,
        "entry": 5564004,
        "entry_name": "Not Very Athletic",
        "event_total": 52,
        "has_played": true,
        "id": 43440358,
        "last_rank": 24330,
        "player_name": "James Harper",
        "rank": 29128,
        "rank_sort": 29252,
        "total": 2369
      },
      {
        "club_badge_src": null,
        "entry": 5655972,
        "entry_name": "Leithy",
        "event_total": 47,
        "has_played": true,
        "id": 44247759,
        "last_rank": 20280,
        "player_name": "ahmedl Leithy",
        "rank": 29128,
        "rank_sort": 29253,
        "total": 2369
      },
      {
        "club_badge_src": null,
        "entry": 6087955,
        "entry_name": "Hardly Athletic",
        "event_total": 40,
        "has_played": true,
        "id": 48072076,
        "last_rank": 15797,
        "player_name": "David Stanley-Tate",
        "rank": 29128,
        "rank_sort": 29254,
        "total": 2369
      },
      {
        "club_badge_src": null,
        "entry": 6122344,
        "entry_name": "Cunha Matata",
        "event_total": 62,
        "has_played": true,
        "id": 48370593,
        "last_rank": 34293,
        "player_name": "Niko Eickelbeck",
        "rank": 29128,
        "rank_sort": 29255,
        "total": 2369
      },
      {
        "club_badge_src": null,
        "entry": 6371623,
        "entry_name": "Real Engela FC",
        "event_total": 67,
        "has_played": true,
        "id": 50668425,
        "last_rank": 40036,
        "player_name": "Timo Shihepo",
        "rank": 29128,
        "rank_sort": 29256,
        "total": 2369
      },
      {
        "club_badge_src": "https://fantasy.premierleague.com/gcs/plfpl-production-adobe-approved/plfpl-production/6640254/b6ca0c06-8e2f-4387-a770-1040c8c5774a.png",
        "entry": 6640254,
        "entry_name": "Pique Blinders",
        "event_total": 77,
        "has_played": true,
        "id": 53078589,
        "last_rank": 54494,
        "player_name": "Vinayak Newale",
        "rank": 29128,
        "rank_sort": 29257,
        "total": 2369
      },
      {
        "club_badge_src": null,
        "entry": 6657659,
        "entry_name": "Full Kit Terrys",
        "event_total": 66,
        "has_played": true,
        "id": 53233312,
        "last_rank": 39023,
        "player_name": "James Howley",
        "rank": 29128,
        "rank_sort": 29258,
        "total": 2369
      },
      {
        "club_badge_src": null,
        "entry": 6662369,
        "entry_name": "TH07",
        "event_total": 61,
        "has_played": true,
        "id": 53278942,
        "last_rank": 32688,
        "player_name": "Taylor Hawkins",
        "rank": 29128,
        "rank_sort": 29259,
        "total": 2369
      },
      {
        "club_badge_src": null,
        "entry": 6669828,
        "entry_name": "Watch Mah Back",
        "event_total": 65,
        "has_played": true,
        "id": 53343229,
        "last_rank": 37435,
        "player_name": "Divij Kowlessur",
        "rank": 29128,
        "rank_sort": 29260,
        "total": 2369
      },
      {
        "club_badge_src": null,
        "entry": 6715284,
        "entry_name": "Cook Pass Partridge",
        "event_total": 42,
        "has_played": true,
        "id": 53742157,
        "last_rank": 16729,
        "player_name": "Adam Hilsdon",
        "rank": 29128,
        "rank_sort": 29261,
        "total": 2369
      },
      {
        "club_badge_src": null,
        "entry": 6740806,
        "entry_name": "4 ever",
        "event_total": 53,
        "has_played": true,
        "id": 53958523,
        "last_rank": 25172,
        "player_name": "Mustafa Mohammed",
        "rank": 29128,
        "rank_sort": 29262,
        "total": 2369
      },
      {
        "club_badge_src": null,
        "entry": 6888358,
        "entry_name": "I'll miss you Son",
        "event_total": 64,
        "has_played": true,
        "id": 55206672,
        "last_rank": 31747,
        "player_name": "Jonathan Dokter",
        "rank": 29128,
        "rank_sort": 29263,
        "total": 2369
      },
      {
        "club_badge_src": null,
        "entry": 7141202,
        "entry_name": "FreshVinceOfHilaire",
        "event_total": 65,
        "has_played": true,
        "id": 57565949,
        "last_rank": 37822,
        "player_name": "Paul Smith",
        "rank": 29128,
        "rank_sort": 29264,
        "total": 2369
      },
      {
        "club_badge_src": null,
        "entry": 7155831,
        "entry_name": "Palappas",
        "event_total": 66,
        "has_played": true,
        "id": 57711704,
        "last_rank": 38774,
        "player_name": "Philippe El Khoury",
        "rank": 29128,
        "rank_sort": 29265,
        "total": 2369
      },
      {
        "club_badge_src": null,
        "entry": 7283204,
        "entry_name": "Yasser.R",
        "event_total": 44,
        "has_played": true,
        "id": 58919586,
        "last_rank": 15550,
        "player_name": "yasser razzaq",
        "rank": 29128,
        "rank_sort": 29266,
        "total": 2369
      },
      {
        "club_badge_src": null,
        "entry": 7309066,
        "entry_name": "DATESKIPA",
        "event_total": 60,
        "has_played": true,
        "id": 59161894,
        "last_rank": 27770,
        "player_name": "T J",
        "rank": 29128,
        "rank_sort": 29267,
        "total": 2369
      },
      {
        "club_badge_src": null,
        "entry": 7454947,
        "entry_name": "Gmackerooney",
        "event_total": 50,
        "has_played": true,
        "id": 60699457,
        "last_rank": 22685,
        "player_name": "Graeme McArthur",
        "rank": 29128,
        "rank_sort": 29268,
        "total": 2369
      },
      {
        "club_badge_src": null,
        "entry": 7544750,
        "entry_name": "\u0627\u0644\u0646\u0635\u0631",
        "event_total": 46,
        "has_played": true,
        "id": 61764225,
        "last_rank": 19721,
        "player_name": "wa al",
        "rank": 29128,
        "rank_sort": 29269,
        "total": 2369
      },
      {
        "club_badge_src": null,
        "entry": 7556296,
        "entry_name": "Al-Hazm neighborhood",
        "event_total": 36,
        "has_played": true,
        "id": 61868894,
        "last_rank": 13500,
        "player_name": "Sultan On-Top",
        "rank": 29128,
        "rank_sort": 29270,
        "total": 2369
      },
      {
        "club_badge_src": null,
        "entry": 7729007,
        "entry_name": "Dynamo Ben Nevis",
        "event_total": 62,
        "has_played": true,
        "id": 63432086,
        "last_rank": 34051,
        "player_name": "Keith Cameron",
        "rank": 29128,
        "rank_sort": 29271,
        "total": 2369
      },
      {
        "club_badge_src": null,
        "entry": 7819238,
        "entry_name": "Pistolfeet",
        "event_total": 48,
        "has_played": true,
        "id": 64247699,
        "last_rank": 18113,
        "player_name": "Abishek Thomas",
        "rank": 29128,
        "rank_sort": 29272,
        "total": 2369
      },
      {
        "club_badge_src": null,
        "entry": 7971155,
        "entry_name": "trstr",
        "event_total": 65,
        "has_played": true,
        "id": 65628637,
        "last_rank": 37589,
        "player_name": "Oleg Grachev",
        "rank": 29128,
        "rank_sort": 29273,
        "total": 2369
      },
      {
        "club_badge_src": null,
        "entry": 8096636,
        "entry_name": "The Socceroos",
        "event_total": 43,
        "has_played": true,
        "id": 66769965,
        "last_rank": 17358,
        "player_name": "Matt Studencki",
        "rank": 29128,
        "rank_sort": 29274,
        "total": 2369
      },
      {
        "club_badge_src": null,
        "entry": 8344981,
        "entry_name": "Trinity FC",
        "event_total": 48,
        "has_played": true,
        "id": 69155565,
        "last_rank": 21159,
        "player_name": "Craig Morgan",
        "rank": 29128,
        "rank_sort": 29275,
        "total": 2369
      },
      {
        "club_badge_src": "https://fantasy.premierleague.com/gcs/plfpl-production-adobe-approved/plfpl-production/8392208/dcb61645-ebbe-443a-87da-9fcf25317f1b.png",
        "entry": 8392208,
        "entry_name": "Tobias",
        "event_total": 56,
        "has_played": true,
        "id": 69606613,
        "last_rank": 28150,
        "player_name": "Tobias Fyllgraf Christensen",
        "rank": 29128,
        "rank_sort": 29276,
        "total": 2369
      },
      {
        "club_badge_src": null,
        "entry": 8430480,
        "entry_name": "Szotek Game",
        "event_total": 60,
        "has_played": true,
        "id": 69969548,
        "last_rank": 31995,
        "player_name": "Szot Szot",
        "rank": 29128,
        "rank_sort": 29277,
        "total": 2369
      },
      {
        "club_badge_src": "https://fantasy.premierleague.com/gcs/plfpl-production-adobe-approved/plfpl-production/8650021/51907a13-d822-40a0-a176-7e3c353ece24.png",
        "entry": 8650021,
        "entry_name": "Class of 2025",
        "event_total": 51,
        "has_played": true,
        "id": 72086376,
        "last_rank": 20179,
        "player_name": "Rhys Elliott",
        "rank": 29128,
        "rank_sort": 29278,
        "total": 2369
      },
      {
        "club_badge_src": null,
        "entry": 8695073,
        "entry_name": "Change Name",
        "event_total": 60,
        "has_played": true,
        "id": 72531292,
        "last_rank": 27770,
        "player_name": "Nathanael Boye",
        "rank": 29128,
        "rank_sort": 29279,
        "total": 2369
      },
      {
        "club_badge_src": null,
        "entry": 8814116,
        "entry_name": "VAR and Peace",
        "event_total": 61,
        "has_played": true,
        "id": 73680474,
        "last_rank": 33147,
        "player_name": "Aditya Rohan",
        "rank": 29128,
        "rank_sort": 29280,
        "total": 2369
      },
      {
        "club_badge_src": null,
        "entry": 9195931,
        "entry_name": "Majrells",
        "event_total": 66,
        "has_played": true,
        "id": 77394014,
        "last_rank": 38644,
        "player_name": "Mirella Mi",
        "rank": 29128,
        "rank_sort": 29281,
        "total": 2369
      },
      {
        "club_badge_src": "https://fantasy.premierleague.com/gcs/plfpl-production-adobe-approved/plfpl-production/599/f5e5fbc9-00a2-4d11-ab4f-9cd55b3ac958.png",
        "entry": 599,
        "entry_name": "BlueCo Benchwarmers",
        "event_total": 65,
        "has_played": true,
        "id": 3307,
        "last_rank": 33147,
        "player_name": "Kunal Gandhi",
        "rank": 29282,
        "rank_sort": 29282,
        "total": 2369
      },
      {
        "club_badge_src": "https://fantasy.premierleague.com/gcs/plfpl-production-adobe-approved/plfpl-production/7798/bc6754a1-6873-4174-ad1e-f7ec20094f94.png",
        "entry": 7798,
        "entry_name": "Saudi Howaybia",
        "event_total": 53,
        "has_played": true,
        "id": 45003,
        "last_rank": 21775,
        "player_name": "Craig Hatch",
        "rank": 29282,
        "rank_sort": 29283,
        "total": 2369
      },
      {
        "club_badge_src": null,
        "entry": 11360,
        "entry_name": "Jeremie Frabletennis",
        "event_total": 69,
        "has_played": true,
        "id": 67513,
        "last_rank": 43168,
        "player_name": "Jason Farr",
        "rank": 29282,
        "rank_sort": 29284,
        "total": 2369
      },
      {
        "club_badge_src": null,
        "entry": 18448,
        "entry_name": "Same Old Shearer",
        "event_total": 64,
        "has_played": true,
        "id": 114759,
        "last_rank": 31747,
        "player_name": "Lennon Corfield",
        "rank": 29282,
        "rank_sort": 29285,
        "total": 2369
      },
      {
        "club_badge_src": null,
        "entry": 30553,
        "entry_name": "Hokfok",
        "event_total": 60,
        "has_played": true,
        "id": 193357,
        "last_rank": 27976,
        "player_name": "Akash Chakraborty",
        "rank": 29282,
        "rank_sort": 29286,
        "total": 2369
      },
      {
        "club_badge_src": null,
        "entry": 37969,
        "entry_name": "Watermelon Gang",
        "event_total": 60,
        "has_played": true,
        "id": 243306,
        "last_rank": 27976,
        "player_name": "Aleyeldin Abdelrahim",
        "rank": 29282,
        "rank_sort": 29287,
        "total": 2369
      },
      {
        "club_badge_src": null,
        "entry": 39441,
        "entry_name": "DJ's team",
        "event_total": 56,
        "has_played": true,
        "id": 252731,
        "last_rank": 27976,
        "player_name": "Daniel J\u00f8rgensen",
        "rank": 29282,
        "rank_sort": 29288,
        "total": 2369
      },
      {
        "club_badge_src": null,
        "entry": 42003,
        "entry_name": "Willow Waffles",
        "event_total": 64,
        "has_played": true,
        "id": 269139,
        "last_rank": 36624,
        "player_name": "Dean Moynihan",
        "rank": 29282,
        "rank_sort": 29289,
        "total": 2369
      },
      {
        "club_badge_src": null,
        "entry": 43082,
        "entry_name": "Boots XI",
        "event_total": 80,
        "has_played": true,
        "id": 275902,
        "last_rank": 46591,
        "player_name": "Abdulmohsen Al butti",
        "rank": 29282,
        "rank_sort": 29290,
        "total": 2369
      },
      {
        "club_badge_src": null,
        "entry": 43468,
        "entry_name": "Wirtz Case Scenario",
        "event_total": 58,
        "has_played": true,
        "id": 278386,
        "last_rank": 29904,
        "player_name": "James MacLeod",
        "rank": 29282,
        "rank_sort": 29291,
        "total": 2369
      },
      {
        "club_badge_src": null,
        "entry": 50092,
        "entry_name": "Start the Schar",
        "event_total": 76,
        "has_played": true,
        "id": 322105,
        "last_rank": 53621,
        "player_name": "Sam Colver",
        "rank": 29282,
        "rank_sort": 29292,
        "total": 2369
      },
      {
        "club_badge_src": "https://fantasy.premierleague.com/gcs/plfpl-production-adobe-approved/plfpl-production/50124/76f39e31-e102-4a8d-bb4f-32fc25a996cb.png",
        "entry": 50124,
        "entry_name": "Invincible Vendetta",
        "event_total": 69,
        "has_played": true,
        "id": 322330,
        "last_rank": 32751,
        "player_name": "Nikhil Jethwani",
        "rank": 29282,
        "rank_sort": 29293,
        "total": 2369
      },
      {
        "club_badge_src": null,
        "entry": 79097,
        "entry_name": "Psycho Trees",
        "event_total": 59,
        "has_played": true,
        "id": 514355,
        "last_rank": 27020,
        "player_name": "James Carser",
        "rank": 29282,
        "rank_sort": 29294,
        "total": 2369
      },
      {
        "club_badge_src": null,
        "entry": 113019,
        "entry_name": "Kinder Mbeumo",
        "event_total": 55,
        "has_played": true,
        "id": 737085,
        "last_rank": 27203,
        "player_name": "Harry Palmer",
        "rank": 29282,
        "rank_sort": 29295,
        "total": 2369
      },
      {
        "club_badge_src": null,
        "entry": 152357,
        "entry_name": "Struber's Cider Army",
        "event_total": 60,
        "has_played": true,
        "id": 999942,
        "last_rank": 27976,
        "player_name": "niall corp",
        "rank": 29282,
        "rank_sort": 29296,
        "total": 2369
      },
      {
        "club_badge_src": null,
        "entry": 155797,
        "entry_name": "Ballsletta",
        "event_total": 61,
        "has_played": true,
        "id": 1024217,
        "last_rank": 25002,
        "player_name": "Brede Stav\u00f8",
        "rank": 29282,
        "rank_sort": 29297,
        "total": 2369
      },
      {
        "club_badge_src": null,
        "entry": 159054,
        "entry_name": "star boy",
        "event_total": 66,
        "has_played": true,
        "id": 1046711,
        "last_rank": 34293,
        "player_name": "fady romany",
        "rank": 29282,
        "rank_sort": 29298,
        "total": 2369
      },
      {
        "club_badge_src": null,
        "entry": 191371,
        "entry_name": "FIGHT CLUB",
        "event_total": 70,
        "has_played": true,
        "id": 1267507,
        "last_rank": 33869,
        "player_name": "Kevin Utario",
        "rank": 29282,
        "rank_sort": 29299,
        "total": 2369
      },
      {
        "club_badge_src": null,
        "entry": 308753,
        "entry_name": "Howes the bacon?",
        "event_total": 70,
        "has_played": true,
        "id": 2068076,
        "last_rank": 44303,
        "player_name": "Thomas Halse",
        "rank": 29282,
        "rank_sort": 29300,
        "total": 2369
      }
    ]
  }
}