{
  "last_updated_data": "2026-05-24T23:28:17Z",
  "league": {
    "admin_entry": null,
    "closed": false,
    "code_privacy": "p",
    "created": "2025-07-20T23:14:33.933835Z",
    "cup_league": 2815434,
    "has_cup": true,
    "id": 314,
    "league_type": "s",
    "max_entries": null,
    "name": "Overall",
    "rank": null,
    "scoring": "c",
    "start_event": 1
  },
  "new_entries": {
    "has_next": false,
    "page": 1,
    "results": []
  },
  "standings": {
    "has_next": true,
    "page": 547,
    "results": [
      {
        "club_badge_src": null,
        "entry": 665097,
        "entry_name": "StayHumbleHeh",
        "event_total": 71,
        "has_played": true,
        "id": 4496568,
        "last_rank": 42940,
        "player_name": "Jeroen van Calcar",
        "rank": 27246,
        "rank_sort": 27301,
        "total": 2371
      },
      {
        "club_badge_src": null,
        "entry": 686749,
        "entry_name": "pykker",
        "event_total": 51,
        "has_played": true,
        "id": 4649029,
        "last_rank": 21677,
        "player_name": "Oscar Weber",
        "rank": 27246,
        "rank_sort": 27302,
        "total": 2371
      },
      {
        "club_badge_src": "https://fantasy.premierleague.com/gcs/plfpl-production-adobe-approved/plfpl-production/706659/d7c425eb-521e-49c5-bf94-1675bcd9b447.png",
        "entry": 706659,
        "entry_name": "Satour",
        "event_total": 56,
        "has_played": true,
        "id": 4789237,
        "last_rank": 26088,
        "player_name": "Ahmed Satour",
        "rank": 27246,
        "rank_sort": 27303,
        "total": 2371
      },
      {
        "club_badge_src": null,
        "entry": 713162,
        "entry_name": "Polaris",
        "event_total": 65,
        "has_played": true,
        "id": 4838072,
        "last_rank": 30727,
        "player_name": "Henning Fischer",
        "rank": 27246,
        "rank_sort": 27304,
        "total": 2371
      },
      {
        "club_badge_src": null,
        "entry": 727818,
        "entry_name": "Venom",
        "event_total": 70,
        "has_played": true,
        "id": 4944761,
        "last_rank": 41162,
        "player_name": "daft pppunk",
        "rank": 27246,
        "rank_sort": 27305,
        "total": 2371
      },
      {
        "club_badge_src": null,
        "entry": 752982,
        "entry_name": "Rice, Rice, Baby",
        "event_total": 48,
        "has_played": true,
        "id": 5123972,
        "last_rank": 19544,
        "player_name": "Imad Wasim",
        "rank": 27246,
        "rank_sort": 27306,
        "total": 2371
      },
      {
        "club_badge_src": "https://fantasy.premierleague.com/gcs/plfpl-production-adobe-approved/plfpl-production/775273/f6b11cf0-26d3-4e8e-8deb-5a00d15031c1.png",
        "entry": 775273,
        "entry_name": "Dapto Dogs",
        "event_total": 41,
        "has_played": true,
        "id": 5289735,
        "last_rank": 15063,
        "player_name": "Jimmy Ward",
        "rank": 27246,
        "rank_sort": 27307,
        "total": 2371
      },
      {
        "club_badge_src": null,
        "entry": 813674,
        "entry_name": "therisingstar",
        "event_total": 75,
        "has_played": true,
        "id": 5571711,
        "last_rank": 42648,
        "player_name": "Fumnanya Obi",
        "rank": 27246,
        "rank_sort": 27308,
        "total": 2371
      },
      {
        "club_badge_src": "https://fantasy.premierleague.com/gcs/plfpl-production-adobe-approved/plfpl-production/814453/895ede2c-6fbc-411d-ae0b-b41924b0ca25.png",
        "entry": 814453,
        "entry_name": "Bobbinhopower",
        "event_total": 58,
        "has_played": true,
        "id": 5577109,
        "last_rank": 27976,
        "player_name": "Raph Raph",
        "rank": 27246,
        "rank_sort": 27309,
        "total": 2371
      },
      {
        "club_badge_src": null,
        "entry": 815582,
        "entry_name": "spurs",
        "event_total": 55,
        "has_played": true,
        "id": 5585008,
        "last_rank": 25172,
        "player_name": "Hamou Modri\u0107",
        "rank": 27246,
        "rank_sort": 27310,
        "total": 2371
      },
      {
        "club_badge_src": null,
        "entry": 820369,
        "entry_name": "Kev",
        "event_total": 47,
        "has_played": true,
        "id": 5618508,
        "last_rank": 18985,
        "player_name": "Wong Kevron",
        "rank": 27246,
        "rank_sort": 27311,
        "total": 2371
      },
      {
        "club_badge_src": null,
        "entry": 825132,
        "entry_name": "Could Be Wirtz",
        "event_total": 67,
        "has_played": true,
        "id": 5651271,
        "last_rank": 32879,
        "player_name": "Danny Guy",
        "rank": 27246,
        "rank_sort": 27312,
        "total": 2371
      },
      {
        "club_badge_src": "https://fantasy.premierleague.com/gcs/plfpl-production-adobe-approved/plfpl-production/853611/fe775064-e595-462a-be60-cb764339eca0.png",
        "entry": 853611,
        "entry_name": "HenryDoesFPL",
        "event_total": 65,
        "has_played": true,
        "id": 5851106,
        "last_rank": 35166,
        "player_name": "Henry Warren",
        "rank": 27246,
        "rank_sort": 27313,
        "total": 2371
      },
      {
        "club_badge_src": null,
        "entry": 859804,
        "entry_name": "Id rather walk alone",
        "event_total": 47,
        "has_played": true,
        "id": 5893994,
        "last_rank": 18985,
        "player_name": "Alex Pogacean",
        "rank": 27246,
        "rank_sort": 27314,
        "total": 2371
      },
      {
        "club_badge_src": "https://fantasy.premierleague.com/gcs/plfpl-production-adobe-approved/plfpl-production/902231/5d113612-5e17-4fa7-a157-b7dd6e946932.png",
        "entry": 902231,
        "entry_name": "Red Star Munkey",
        "event_total": 74,
        "has_played": true,
        "id": 6199355,
        "last_rank": 47163,
        "player_name": "Dom Thorrington",
        "rank": 27246,
        "rank_sort": 27315,
        "total": 2371
      },
      {
        "club_badge_src": null,
        "entry": 917775,
        "entry_name": "El Nohman",
        "event_total": 64,
        "has_played": true,
        "id": 6311286,
        "last_rank": 29522,
        "player_name": "Ahmed Nohamn",
        "rank": 27246,
        "rank_sort": 27316,
        "total": 2371
      },
      {
        "club_badge_src": "https://fantasy.premierleague.com/gcs/plfpl-production-adobe-approved/plfpl-production/973122/0b6f37bd-c0fd-4389-a5db-17c6ef57e108.png",
        "entry": 973122,
        "entry_name": "Dude Where's Micah?",
        "event_total": 60,
        "has_played": true,
        "id": 6708157,
        "last_rank": 25902,
        "player_name": "Fred Penu",
        "rank": 27246,
        "rank_sort": 27317,
        "total": 2371
      },
      {
        "club_badge_src": null,
        "entry": 1011295,
        "entry_name": "Alisson wonderland",
        "event_total": 81,
        "has_played": true,
        "id": 6994964,
        "last_rank": 57776,
        "player_name": "Marius H\u00f8ie J\u00f8rgensen",
        "rank": 27246,
        "rank_sort": 27318,
        "total": 2371
      },
      {
        "club_badge_src": "https://fantasy.premierleague.com/gcs/plfpl-production-adobe-approved/plfpl-production/1055320/b8a62a49-c975-4208-87f3-98dd2af613fd.png",
        "entry": 1055320,
        "entry_name": "kos om salah",
        "event_total": 62,
        "has_played": true,
        "id": 7303434,
        "last_rank": 27644,
        "player_name": "Walid Hamaoui",
        "rank": 27246,
        "rank_sort": 27319,
        "total": 2371
      },
      {
        "club_badge_src": null,
        "entry": 1074648,
        "entry_name": "Amorimageddon",
        "event_total": 71,
        "has_played": true,
        "id": 7439935,
        "last_rank": 42648,
        "player_name": "Conor Furlong",
        "rank": 27246,
        "rank_sort": 27320,
        "total": 2371
      },
      {
        "club_badge_src": null,
        "entry": 1092801,
        "entry_name": "Deano's FC",
        "event_total": 66,
        "has_played": true,
        "id": 7568635,
        "last_rank": 36624,
        "player_name": "Debbie Deonysiou",
        "rank": 27246,
        "rank_sort": 27321,
        "total": 2371
      },
      {
        "club_badge_src": "https://fantasy.premierleague.com/gcs/plfpl-production-adobe-approved/plfpl-production/1159117/2b834134-7da2-4659-8683-6e17c212e021.png",
        "entry": 1159117,
        "entry_name": "Ketchup mustard",
        "event_total": 61,
        "has_played": true,
        "id": 8039385,
        "last_rank": 30727,
        "player_name": "Martin Pais",
        "rank": 27246,
        "rank_sort": 27322,
        "total": 2371
      },
      {
        "club_badge_src": null,
        "entry": 1174300,
        "entry_name": "Me Myself N'diaye",
        "event_total": 58,
        "has_played": true,
        "id": 8147021,
        "last_rank": 27770,
        "player_name": "Pierre-Louis Din",
        "rank": 27246,
        "rank_sort": 27323,
        "total": 2371
      },
      {
        "club_badge_src": null,
        "entry": 1187983,
        "entry_name": "Hamedo",
        "event_total": 72,
        "has_played": true,
        "id": 8242789,
        "last_rank": 44048,
        "player_name": "Hamedo Dawood",
        "rank": 27246,
        "rank_sort": 27324,
        "total": 2371
      },
      {
        "club_badge_src": null,
        "entry": 1199864,
        "entry_name": "MasonMountKosciuszko",
        "event_total": 52,
        "has_played": true,
        "id": 8326409,
        "last_rank": 22830,
        "player_name": "Kieran McConnell",
        "rank": 27246,
        "rank_sort": 27325,
        "total": 2371
      },
      {
        "club_badge_src": null,
        "entry": 1200535,
        "entry_name": "Better Call Sels",
        "event_total": 96,
        "has_played": true,
        "id": 8331057,
        "last_rank": 89055,
        "player_name": "Thomas Dickin",
        "rank": 27246,
        "rank_sort": 27326,
        "total": 2371
      },
      {
        "club_badge_src": null,
        "entry": 1408324,
        "entry_name": "Blue \u0932\u0917\u093e\u0928",
        "event_total": 52,
        "has_played": true,
        "id": 9799433,
        "last_rank": 19544,
        "player_name": "Mayukh Yerra",
        "rank": 27246,
        "rank_sort": 27327,
        "total": 2371
      },
      {
        "club_badge_src": null,
        "entry": 1469259,
        "entry_name": "Seggs Benedict",
        "event_total": 42,
        "has_played": true,
        "id": 10241151,
        "last_rank": 15694,
        "player_name": "Luke Holland",
        "rank": 27246,
        "rank_sort": 27328,
        "total": 2371
      },
      {
        "club_badge_src": "https://fantasy.premierleague.com/gcs/plfpl-production-adobe-approved/plfpl-production/1539266/3193b4f9-3210-4216-969b-18b39a5782e8.png",
        "entry": 1539266,
        "entry_name": "Martin Tyler's XI",
        "event_total": 72,
        "has_played": true,
        "id": 10742874,
        "last_rank": 38644,
        "player_name": "Luke Catterson",
        "rank": 27246,
        "rank_sort": 27329,
        "total": 2371
      },
      {
        "club_badge_src": null,
        "entry": 1547598,
        "entry_name": "NDW7",
        "event_total": 66,
        "has_played": true,
        "id": 10804708,
        "last_rank": 31747,
        "player_name": "Niels De Witte",
        "rank": 27246,
        "rank_sort": 27330,
        "total": 2371
      },
      {
        "club_badge_src": null,
        "entry": 1552124,
        "entry_name": "Nagoya Wyverns",
        "event_total": 64,
        "has_played": true,
        "id": 10837169,
        "last_rank": 29688,
        "player_name": "Csaba K\u00e1sa",
        "rank": 27246,
        "rank_sort": 27331,
        "total": 2371
      },
      {
        "club_badge_src": null,
        "entry": 1633520,
        "entry_name": "Bowen 747",
        "event_total": 51,
        "has_played": true,
        "id": 11433818,
        "last_rank": 22064,
        "player_name": "Alexander Sahlstr\u00f6m",
        "rank": 27246,
        "rank_sort": 27332,
        "total": 2371
      },
      {
        "club_badge_src": null,
        "entry": 1650412,
        "entry_name": "KerryGoldXI",
        "event_total": 60,
        "has_played": true,
        "id": 11554558,
        "last_rank": 29688,
        "player_name": "Gerard O Leary",
        "rank": 27246,
        "rank_sort": 27333,
        "total": 2371
      },
      {
        "club_badge_src": "https://fantasy.premierleague.com/gcs/plfpl-production-adobe-approved/plfpl-production/1720839/37c57ca7-0068-4b51-8896-85231f72feec.png",
        "entry": 1720839,
        "entry_name": "Basherbaz's Wolves",
        "event_total": 69,
        "has_played": true,
        "id": 12061061,
        "last_rank": 40297,
        "player_name": "Barrie Whitehouse",
        "rank": 27246,
        "rank_sort": 27334,
        "total": 2371
      },
      {
        "club_badge_src": null,
        "entry": 1788012,
        "entry_name": "Wirtzards of Oz",
        "event_total": 74,
        "has_played": true,
        "id": 12563371,
        "last_rank": 46591,
        "player_name": "Patrick Hansen",
        "rank": 27246,
        "rank_sort": 27335,
        "total": 2371
      },
      {
        "club_badge_src": "https://fantasy.premierleague.com/gcs/plfpl-production-adobe-approved/plfpl-production/1874957/ad5794d8-521d-4679-8d55-326fe404a737.png",
        "entry": 1874957,
        "entry_name": "F.C. Drita",
        "event_total": 62,
        "has_played": true,
        "id": 13200600,
        "last_rank": 31995,
        "player_name": "Terje Karleng",
        "rank": 27246,
        "rank_sort": 27336,
        "total": 2371
      },
      {
        "club_badge_src": null,
        "entry": 1926690,
        "entry_name": "Mean Machines",
        "event_total": 86,
        "has_played": true,
        "id": 13588104,
        "last_rank": 66738,
        "player_name": "Gary Kilroe",
        "rank": 27246,
        "rank_sort": 27337,
        "total": 2371
      },
      {
        "club_badge_src": null,
        "entry": 1977028,
        "entry_name": "AutoPick Warriors",
        "event_total": 50,
        "has_played": true,
        "id": 13955826,
        "last_rank": 21159,
        "player_name": "Sachin Bharadia",
        "rank": 27246,
        "rank_sort": 27338,
        "total": 2371
      },
      {
        "club_badge_src": null,
        "entry": 2028432,
        "entry_name": "Manly United",
        "event_total": 60,
        "has_played": true,
        "id": 14359974,
        "last_rank": 29688,
        "player_name": "rems marchal",
        "rank": 27246,
        "rank_sort": 27339,
        "total": 2371
      },
      {
        "club_badge_src": null,
        "entry": 2372159,
        "entry_name": "kylling og reece",
        "event_total": 59,
        "has_played": true,
        "id": 16934166,
        "last_rank": 28726,
        "player_name": "Leon Alexander Aamodt",
        "rank": 27246,
        "rank_sort": 27340,
        "total": 2371
      },
      {
        "club_badge_src": null,
        "entry": 2401709,
        "entry_name": "quan",
        "event_total": 72,
        "has_played": true,
        "id": 17165773,
        "last_rank": 38644,
        "player_name": "Jun Quan Lim",
        "rank": 27246,
        "rank_sort": 27341,
        "total": 2371
      },
      {
        "club_badge_src": null,
        "entry": 2547056,
        "entry_name": "PeakyBlinders",
        "event_total": 59,
        "has_played": true,
        "id": 18257617,
        "last_rank": 28906,
        "player_name": "Christos Ioannou",
        "rank": 27246,
        "rank_sort": 27342,
        "total": 2371
      },
      {
        "club_badge_src": null,
        "entry": 2675397,
        "entry_name": "Stuffings mardr\u00f6m",
        "event_total": 38,
        "has_played": true,
        "id": 19236106,
        "last_rank": 13257,
        "player_name": "Fabian Morath",
        "rank": 27246,
        "rank_sort": 27343,
        "total": 2371
      },
      {
        "club_badge_src": null,
        "entry": 2774107,
        "entry_name": "Major League Saka",
        "event_total": 55,
        "has_played": true,
        "id": 20244187,
        "last_rank": 25172,
        "player_name": "James Harrison",
        "rank": 27246,
        "rank_sort": 27344,
        "total": 2371
      },
      {
        "club_badge_src": null,
        "entry": 2802223,
        "entry_name": "Blood, Sweat & Beers",
        "event_total": 70,
        "has_played": true,
        "id": 20463056,
        "last_rank": 41617,
        "player_name": "Vasco Correia",
        "rank": 27246,
        "rank_sort": 27345,
        "total": 2371
      },
      {
        "club_badge_src": null,
        "entry": 2846538,
        "entry_name": "F\u00f8sa Rovers",
        "event_total": 74,
        "has_played": true,
        "id": 20810022,
        "last_rank": 47163,
        "player_name": "Thomas Fr\u00f8seth",
        "rank": 27246,
        "rank_sort": 27346,
        "total": 2371
      },
      {
        "club_badge_src": null,
        "entry": 2901601,
        "entry_name": "Witcher",
        "event_total": 61,
        "has_played": true,
        "id": 21263428,
        "last_rank": 30727,
        "player_name": "tom sta",
        "rank": 27246,
        "rank_sort": 27347,
        "total": 2371
      },
      {
        "club_badge_src": null,
        "entry": 3013498,
        "entry_name": "Viva la Vieira",
        "event_total": 71,
        "has_played": true,
        "id": 22169690,
        "last_rank": 42434,
        "player_name": "Anand Vijayashankar",
        "rank": 27246,
        "rank_sort": 27348,
        "total": 2371
      },
      {
        "club_badge_src": null,
        "entry": 3021197,
        "entry_name": "Shoroddieroddie FC",
        "event_total": 56,
        "has_played": true,
        "id": 22228525,
        "last_rank": 25902,
        "player_name": "Jacob Roddie",
        "rank": 27246,
        "rank_sort": 27349,
        "total": 2371
      },
      {
        "club_badge_src": "https://fantasy.premierleague.com/gcs/plfpl-production-adobe-approved/plfpl-production/3082384/110074de-0975-452a-ab75-6b1b168e0cd2.png",
        "entry": 3082384,
        "entry_name": "ChampagneSuperRovers",
        "event_total": 57,
        "has_played": true,
        "id": 22709024,
        "last_rank": 23341,
        "player_name": "Mason Clayton",
        "rank": 27246,
        "rank_sort": 27350,
        "total": 2371
      }
    ]
  }
}