{
  "last_updated_data": "2026-05-24T23:28:17Z",
  "league": {
    "admin_entry": null,
    "closed": false,
    "code_privacy": "p",
    "created": "2025-07-20T23:14:33.933835Z",
    "cup_league": 2815434,
    "has_cup": true,
    "id": 314,
    "league_type": "s",
    "max_entries": null,
    "name": "Overall",
    "rank": null,
    "scoring": "c",
    "start_event": 1
  },
  "new_entries": {
    "has_next": false,
    "page": 1,
    "results": []
  },
  "standings": {
    "has_next": true,
    "page": 470,
    "results": [
      {
        "club_badge_src": null,
        "entry": 2964537,
        "entry_name": "Defcon5",
        "event_total": 61,
        "has_played": true,
        "id": 21778423,
        "last_rank": 22996,
        "player_name": "Michael Ellison",
        "rank": 23426,
        "rank_sort": 23451,
        "total": 2376
      },
      {
        "club_badge_src": "https://fantasy.premierleague.com/gcs/plfpl-production-adobe-approved/plfpl-production/3309523/2b0cf2fe-71d8-4956-819d-a1135df1e184.png",
        "entry": 3309523,
        "entry_name": "Strachan\u2019s Stars",
        "event_total": 54,
        "has_played": true,
        "id": 24518848,
        "last_rank": 20678,
        "player_name": "Roy Erland Funner",
        "rank": 23426,
        "rank_sort": 23452,
        "total": 2376
      },
      {
        "club_badge_src": null,
        "entry": 3705926,
        "entry_name": "The Reds",
        "event_total": 53,
        "has_played": true,
        "id": 27651667,
        "last_rank": 20008,
        "player_name": "Jules Knibbs",
        "rank": 23426,
        "rank_sort": 23453,
        "total": 2376
      },
      {
        "club_badge_src": null,
        "entry": 3784335,
        "entry_name": "Samba United",
        "event_total": 66,
        "has_played": true,
        "id": 28259554,
        "last_rank": 31309,
        "player_name": "Aleksander Bromseth",
        "rank": 23426,
        "rank_sort": 23454,
        "total": 2376
      },
      {
        "club_badge_src": "https://fantasy.premierleague.com/gcs/plfpl-production-adobe-approved/plfpl-production/4075480/3a22213a-426f-4116-b14c-027d49793ff2.png",
        "entry": 4075480,
        "entry_name": "H\u00e5kans dr\u00e4ngar",
        "event_total": 48,
        "has_played": true,
        "id": 30763656,
        "last_rank": 16598,
        "player_name": "Viktor Kock",
        "rank": 23426,
        "rank_sort": 23455,
        "total": 2376
      },
      {
        "club_badge_src": null,
        "entry": 4127637,
        "entry_name": "LE+DUR CETAIT VONDYK",
        "event_total": 66,
        "has_played": true,
        "id": 31190149,
        "last_rank": 27364,
        "player_name": "Amine Affane",
        "rank": 23426,
        "rank_sort": 23456,
        "total": 2376
      },
      {
        "club_badge_src": null,
        "entry": 4650196,
        "entry_name": "TheFinalDeLAP",
        "event_total": 65,
        "has_played": true,
        "id": 35576800,
        "last_rank": 26425,
        "player_name": "Jacob Moss",
        "rank": 23426,
        "rank_sort": 23457,
        "total": 2376
      },
      {
        "club_badge_src": "https://fantasy.premierleague.com/gcs/plfpl-production-adobe-approved/plfpl-production/5747522/2c698d9e-f66f-42c6-ae21-835c724d665d.png",
        "entry": 5747522,
        "entry_name": "The Witcher",
        "event_total": 62,
        "has_played": true,
        "id": 45045195,
        "last_rank": 17718,
        "player_name": "Danny Rossi",
        "rank": 23426,
        "rank_sort": 23458,
        "total": 2376
      },
      {
        "club_badge_src": null,
        "entry": 6181901,
        "entry_name": "Bobby Bunker",
        "event_total": 66,
        "has_played": true,
        "id": 48888893,
        "last_rank": 31371,
        "player_name": "Benjamin Melvin",
        "rank": 23426,
        "rank_sort": 23459,
        "total": 2376
      },
      {
        "club_badge_src": "https://fantasy.premierleague.com/gcs/plfpl-production-adobe-approved/plfpl-production/6464360/d1a705f8-a5d2-4001-8a72-e8d26b63c09f.png",
        "entry": 6464360,
        "entry_name": "Hoojanickabolokov",
        "event_total": 56,
        "has_played": true,
        "id": 51501084,
        "last_rank": 22216,
        "player_name": "Reece Matthews",
        "rank": 23426,
        "rank_sort": 23460,
        "total": 2376
      },
      {
        "club_badge_src": null,
        "entry": 6922946,
        "entry_name": "Wirtzfest",
        "event_total": 56,
        "has_played": true,
        "id": 55496109,
        "last_rank": 19176,
        "player_name": "Jeff Bertke",
        "rank": 23426,
        "rank_sort": 23461,
        "total": 2376
      },
      {
        "club_badge_src": null,
        "entry": 4490,
        "entry_name": "Pe\u0142e",
        "event_total": 64,
        "has_played": true,
        "id": 25530,
        "last_rank": 25564,
        "player_name": "Przemek Pelka",
        "rank": 23462,
        "rank_sort": 23462,
        "total": 2376
      },
      {
        "club_badge_src": null,
        "entry": 54002,
        "entry_name": "SAKA PUNCH",
        "event_total": 58,
        "has_played": true,
        "id": 347532,
        "last_rank": 20727,
        "player_name": "Thebe Kadiege",
        "rank": 23462,
        "rank_sort": 23463,
        "total": 2376
      },
      {
        "club_badge_src": "https://fantasy.premierleague.com/gcs/plfpl-production-adobe-approved/plfpl-production/55365/fb95d24c-7367-45c5-bc4d-dd20b3e8af08.png",
        "entry": 55365,
        "entry_name": "Squirtle Squad",
        "event_total": 61,
        "has_played": true,
        "id": 356394,
        "last_rank": 26512,
        "player_name": "Luke Shepnie",
        "rank": 23462,
        "rank_sort": 23464,
        "total": 2376
      },
      {
        "club_badge_src": null,
        "entry": 78108,
        "entry_name": "S\u00f8r Lotta Goals",
        "event_total": 56,
        "has_played": true,
        "id": 507838,
        "last_rank": 19279,
        "player_name": "Robert Collins Jnr",
        "rank": 23462,
        "rank_sort": 23465,
        "total": 2376
      },
      {
        "club_badge_src": null,
        "entry": 109671,
        "entry_name": "FC de kip",
        "event_total": 62,
        "has_played": true,
        "id": 715112,
        "last_rank": 27438,
        "player_name": "Rolls Reus",
        "rank": 23462,
        "rank_sort": 23466,
        "total": 2376
      },
      {
        "club_badge_src": null,
        "entry": 110955,
        "entry_name": "Forest",
        "event_total": 63,
        "has_played": true,
        "id": 723560,
        "last_rank": 28425,
        "player_name": "steve smoothy",
        "rank": 23462,
        "rank_sort": 23467,
        "total": 2376
      },
      {
        "club_badge_src": "https://fantasy.premierleague.com/gcs/plfpl-production-adobe-approved/plfpl-production/262292/e5dc5340-5489-4313-890a-25d64af3be4c.png",
        "entry": 262292,
        "entry_name": "Eze Money",
        "event_total": 54,
        "has_played": true,
        "id": 1743776,
        "last_rank": 15280,
        "player_name": "Ciaran Barber",
        "rank": 23462,
        "rank_sort": 23468,
        "total": 2376
      },
      {
        "club_badge_src": "https://fantasy.premierleague.com/gcs/plfpl-production-adobe-approved/plfpl-production/316709/410dfae9-cf5d-4007-862a-d134f1cb2029.png",
        "entry": 316709,
        "entry_name": "Maaland H\u00e4stsport",
        "event_total": 81,
        "has_played": true,
        "id": 2122752,
        "last_rank": 39510,
        "player_name": "Robin Peereboom",
        "rank": 23462,
        "rank_sort": 23469,
        "total": 2376
      },
      {
        "club_badge_src": null,
        "entry": 627322,
        "entry_name": "Swindon Town F.C.",
        "event_total": 72,
        "has_played": true,
        "id": 4239174,
        "last_rank": 38340,
        "player_name": "Luke Simpson",
        "rank": 23462,
        "rank_sort": 23470,
        "total": 2376
      },
      {
        "club_badge_src": null,
        "entry": 637488,
        "entry_name": "Greeners Gremlins",
        "event_total": 66,
        "has_played": true,
        "id": 4308504,
        "last_rank": 31309,
        "player_name": "Matt Greenwood",
        "rank": 23462,
        "rank_sort": 23471,
        "total": 2376
      },
      {
        "club_badge_src": null,
        "entry": 862077,
        "entry_name": "Nothing Else Matters",
        "event_total": 67,
        "has_played": true,
        "id": 5909821,
        "last_rank": 32491,
        "player_name": "Pawan Bhargava",
        "rank": 23462,
        "rank_sort": 23472,
        "total": 2376
      },
      {
        "club_badge_src": null,
        "entry": 888895,
        "entry_name": "DPS FC",
        "event_total": 63,
        "has_played": true,
        "id": 6097020,
        "last_rank": 28388,
        "player_name": "Surapong Dangprasert",
        "rank": 23462,
        "rank_sort": 23473,
        "total": 2376
      },
      {
        "club_badge_src": null,
        "entry": 964034,
        "entry_name": "Anfield Hunks",
        "event_total": 56,
        "has_played": true,
        "id": 6643890,
        "last_rank": 19279,
        "player_name": "Daniel Hedlund",
        "rank": 23462,
        "rank_sort": 23474,
        "total": 2376
      },
      {
        "club_badge_src": "https://fantasy.premierleague.com/gcs/plfpl-production-adobe-approved/plfpl-production/1000936/6fd4db02-6075-4a4c-8e90-4722a99538fb.png",
        "entry": 1000936,
        "entry_name": "Hare Bears",
        "event_total": 46,
        "has_played": true,
        "id": 6919018,
        "last_rank": 15336,
        "player_name": "Martin O'Hare",
        "rank": 23462,
        "rank_sort": 23475,
        "total": 2376
      },
      {
        "club_badge_src": null,
        "entry": 1187923,
        "entry_name": "Jensen Hurricanes",
        "event_total": 60,
        "has_played": true,
        "id": 8242378,
        "last_rank": 22263,
        "player_name": "Steinar Jensen",
        "rank": 23462,
        "rank_sort": 23476,
        "total": 2376
      },
      {
        "club_badge_src": null,
        "entry": 1243398,
        "entry_name": "Young KevoO Fc",
        "event_total": 58,
        "has_played": true,
        "id": 8635433,
        "last_rank": 23881,
        "player_name": "OJOGBANE DAVID",
        "rank": 23462,
        "rank_sort": 23477,
        "total": 2376
      },
      {
        "club_badge_src": null,
        "entry": 1632078,
        "entry_name": "suuiii",
        "event_total": 49,
        "has_played": true,
        "id": 11423558,
        "last_rank": 17246,
        "player_name": "Youssef abdelaziz",
        "rank": 23462,
        "rank_sort": 23478,
        "total": 2376
      },
      {
        "club_badge_src": "https://fantasy.premierleague.com/gcs/plfpl-production-adobe-approved/plfpl-production/2724410/3311064f-e897-489e-83d2-7c7a9ea113e4.png",
        "entry": 2724410,
        "entry_name": "Del r\u00edo al mar",
        "event_total": 63,
        "has_played": true,
        "id": 19604564,
        "last_rank": 21450,
        "player_name": "Matt Miles",
        "rank": 23462,
        "rank_sort": 23479,
        "total": 2376
      },
      {
        "club_badge_src": null,
        "entry": 4399990,
        "entry_name": "Hilmark",
        "event_total": 67,
        "has_played": true,
        "id": 33461922,
        "last_rank": 28348,
        "player_name": "Gerhard Kiptoo",
        "rank": 23462,
        "rank_sort": 23480,
        "total": 2376
      },
      {
        "club_badge_src": null,
        "entry": 4531298,
        "entry_name": "Real Sosobad",
        "event_total": 68,
        "has_played": true,
        "id": 34563628,
        "last_rank": 29333,
        "player_name": "Dinesh Patel",
        "rank": 23462,
        "rank_sort": 23481,
        "total": 2376
      },
      {
        "club_badge_src": null,
        "entry": 4635470,
        "entry_name": "CD9 FC",
        "event_total": 65,
        "has_played": true,
        "id": 35447959,
        "last_rank": 30325,
        "player_name": "Andrew Liddle",
        "rank": 23462,
        "rank_sort": 23482,
        "total": 2376
      },
      {
        "club_badge_src": null,
        "entry": 4924007,
        "entry_name": "Kante touch this",
        "event_total": 65,
        "has_played": true,
        "id": 37980565,
        "last_rank": 26475,
        "player_name": "Kyle Tompkins",
        "rank": 23462,
        "rank_sort": 23483,
        "total": 2376
      },
      {
        "club_badge_src": null,
        "entry": 4990064,
        "entry_name": "bHATtu",
        "event_total": 55,
        "has_played": true,
        "id": 38524632,
        "last_rank": 21510,
        "player_name": "Sushil Bhattarai",
        "rank": 23462,
        "rank_sort": 23484,
        "total": 2376
      },
      {
        "club_badge_src": null,
        "entry": 6325085,
        "entry_name": "Chama",
        "event_total": 53,
        "has_played": true,
        "id": 50244847,
        "last_rank": 20038,
        "player_name": "Dongin Kim",
        "rank": 23462,
        "rank_sort": 23485,
        "total": 2376
      },
      {
        "club_badge_src": null,
        "entry": 7066201,
        "entry_name": "what the faes",
        "event_total": 63,
        "has_played": true,
        "id": 56853588,
        "last_rank": 28388,
        "player_name": "Sahil Shah-Smith",
        "rank": 23462,
        "rank_sort": 23486,
        "total": 2376
      },
      {
        "club_badge_src": null,
        "entry": 7209799,
        "entry_name": "Mohammad Nahya",
        "event_total": 68,
        "has_played": true,
        "id": 58225823,
        "last_rank": 33695,
        "player_name": "Mohammad Al Nahya",
        "rank": 23462,
        "rank_sort": 23487,
        "total": 2376
      },
      {
        "club_badge_src": null,
        "entry": 7849545,
        "entry_name": "Nibbles",
        "event_total": 72,
        "has_played": true,
        "id": 64528189,
        "last_rank": 33582,
        "player_name": "Robert Viret",
        "rank": 23462,
        "rank_sort": 23488,
        "total": 2376
      },
      {
        "club_badge_src": null,
        "entry": 7906944,
        "entry_name": "forza juve",
        "event_total": 61,
        "has_played": true,
        "id": 65049844,
        "last_rank": 23039,
        "player_name": "wadah senan",
        "rank": 23462,
        "rank_sort": 23489,
        "total": 2376
      },
      {
        "club_badge_src": null,
        "entry": 8647242,
        "entry_name": "THE GHOST",
        "event_total": 34,
        "has_played": true,
        "id": 72058230,
        "last_rank": 9428,
        "player_name": "The Ghost",
        "rank": 23462,
        "rank_sort": 23490,
        "total": 2376
      },
      {
        "club_badge_src": "https://fantasy.premierleague.com/gcs/plfpl-production-adobe-approved/plfpl-production/9395555/7449c9cb-fa59-4392-a497-f382bd17ce7f.png",
        "entry": 9395555,
        "entry_name": "Ginyu FC",
        "event_total": 60,
        "has_played": true,
        "id": 79330903,
        "last_rank": 25564,
        "player_name": "ozzie taylor",
        "rank": 23462,
        "rank_sort": 23491,
        "total": 2376
      },
      {
        "club_badge_src": "https://fantasy.premierleague.com/gcs/plfpl-production-adobe-approved/plfpl-production/23096/da876979-de04-4483-ac65-264e56edd654.png",
        "entry": 23096,
        "entry_name": "Saka Potatoes",
        "event_total": 66,
        "has_played": true,
        "id": 145322,
        "last_rank": 27438,
        "player_name": "Greg Nichols",
        "rank": 23492,
        "rank_sort": 23492,
        "total": 2376
      },
      {
        "club_badge_src": null,
        "entry": 36408,
        "entry_name": "Bruno Dos Tres",
        "event_total": 75,
        "has_played": true,
        "id": 233071,
        "last_rank": 37189,
        "player_name": "Samuel Eastham",
        "rank": 23492,
        "rank_sort": 23493,
        "total": 2376
      },
      {
        "club_badge_src": null,
        "entry": 75472,
        "entry_name": "Rob of the Green",
        "event_total": 75,
        "has_played": true,
        "id": 490672,
        "last_rank": 37189,
        "player_name": "Hardy Hewson",
        "rank": 23492,
        "rank_sort": 23494,
        "total": 2376
      },
      {
        "club_badge_src": null,
        "entry": 176986,
        "entry_name": "Neur Gonna G!v3 Up",
        "event_total": 63,
        "has_played": true,
        "id": 1168241,
        "last_rank": 21486,
        "player_name": "Mauvin Rego",
        "rank": 23492,
        "rank_sort": 23495,
        "total": 2376
      },
      {
        "club_badge_src": "https://fantasy.premierleague.com/gcs/plfpl-production-adobe-approved/plfpl-production/200907/ad35afd9-b921-44e7-9e9f-e57c45524174.png",
        "entry": 200907,
        "entry_name": "Abdalla Abd",
        "event_total": 58,
        "has_played": true,
        "id": 1333968,
        "last_rank": 17878,
        "player_name": "Abdalla Abd",
        "rank": 23492,
        "rank_sort": 23496,
        "total": 2376
      },
      {
        "club_badge_src": null,
        "entry": 321288,
        "entry_name": "Own Goal",
        "event_total": 52,
        "has_played": true,
        "id": 2153259,
        "last_rank": 19318,
        "player_name": "H\u00e5vard Nj\u00e5",
        "rank": 23492,
        "rank_sort": 23497,
        "total": 2376
      },
      {
        "club_badge_src": null,
        "entry": 365215,
        "entry_name": "Halletts Heroes",
        "event_total": 68,
        "has_played": true,
        "id": 2444182,
        "last_rank": 25564,
        "player_name": "David Hallett",
        "rank": 23492,
        "rank_sort": 23498,
        "total": 2376
      },
      {
        "club_badge_src": null,
        "entry": 413365,
        "entry_name": "mkb",
        "event_total": 49,
        "has_played": true,
        "id": 2771312,
        "last_rank": 12537,
        "player_name": "MOHAMED ELMADANI",
        "rank": 23492,
        "rank_sort": 23499,
        "total": 2376
      },
      {
        "club_badge_src": "https://fantasy.premierleague.com/gcs/plfpl-production-adobe-approved/plfpl-production/449174/707b23db-fb0a-4256-bf6e-723dcbfbde7e.png",
        "entry": 449174,
        "entry_name": "anoweesinthebath",
        "event_total": 46,
        "has_played": true,
        "id": 3013560,
        "last_rank": 15350,
        "player_name": "cameron lumley",
        "rank": 23492,
        "rank_sort": 23500,
        "total": 2376
      }
    ]
  }
}