{
  "last_updated_data": "2026-05-24T23:28:17Z",
  "league": {
    "admin_entry": null,
    "closed": false,
    "code_privacy": "p",
    "created": "2025-07-20T23:14:33.933835Z",
    "cup_league": 2815434,
    "has_cup": true,
    "id": 314,
    "league_type": "s",
    "max_entries": null,
    "name": "Overall",
    "rank": null,
    "scoring": "c",
    "start_event": 1
  },
  "new_entries": {
    "has_next": false,
    "page": 1,
    "results": []
  },
  "standings": {
    "has_next": true,
    "page": 172,
    "results": [
      {
        "club_badge_src": null,
        "entry": 5918877,
        "entry_name": "Joe's team",
        "event_total": 58,
        "has_played": true,
        "id": 46519957,
        "last_rank": 8339,
        "player_name": "Joe Chua",
        "rank": 8472,
        "rank_sort": 8551,
        "total": 2402
      },
      {
        "club_badge_src": null,
        "entry": 6014681,
        "entry_name": "chotov",
        "event_total": 79,
        "has_played": true,
        "id": 47428341,
        "last_rank": 19432,
        "player_name": "Andrej Lazarkov",
        "rank": 8472,
        "rank_sort": 8552,
        "total": 2402
      },
      {
        "club_badge_src": null,
        "entry": 6054799,
        "entry_name": "Toon Barmy",
        "event_total": 75,
        "has_played": true,
        "id": 47780969,
        "last_rank": 16807,
        "player_name": "Colin Gray",
        "rank": 8472,
        "rank_sort": 8553,
        "total": 2402
      },
      {
        "club_badge_src": null,
        "entry": 6095172,
        "entry_name": "Shien",
        "event_total": 54,
        "has_played": true,
        "id": 48134456,
        "last_rank": 7059,
        "player_name": "Wei Shien Ng",
        "rank": 8472,
        "rank_sort": 8554,
        "total": 2402
      },
      {
        "club_badge_src": null,
        "entry": 6278603,
        "entry_name": "Real Christiania",
        "event_total": 74,
        "has_played": true,
        "id": 49723126,
        "last_rank": 16163,
        "player_name": "Dag Andr\u00e9 Nilsen",
        "rank": 8472,
        "rank_sort": 8555,
        "total": 2402
      },
      {
        "club_badge_src": null,
        "entry": 6293240,
        "entry_name": "Wolves FC",
        "event_total": 42,
        "has_played": true,
        "id": 49869578,
        "last_rank": 4099,
        "player_name": "Juan Jos\u00e9 Garc\u00eda de Alba",
        "rank": 8472,
        "rank_sort": 8556,
        "total": 2402
      },
      {
        "club_badge_src": "https://fantasy.premierleague.com/gcs/plfpl-production-adobe-approved/plfpl-production/6434502/1edfc8fa-5aed-4f35-ad06-20cf3d35179b.png",
        "entry": 6434502,
        "entry_name": "\u0e1c\u0e39\u0e49\u0e2b\u0e21\u0e27\u0e14",
        "event_total": 68,
        "has_played": true,
        "id": 51224651,
        "last_rank": 12705,
        "player_name": "\u0e04\u0e34\u0e27\u0e04\u0e34\u0e27 \u0e08\u0e38\u0e11\u0e32\u0e40\u0e17\u0e1e",
        "rank": 8472,
        "rank_sort": 8557,
        "total": 2402
      },
      {
        "club_badge_src": null,
        "entry": 6788154,
        "entry_name": "Golden Goose",
        "event_total": 60,
        "has_played": true,
        "id": 54358317,
        "last_rank": 9142,
        "player_name": "Nainsi Golden",
        "rank": 8472,
        "rank_sort": 8558,
        "total": 2402
      },
      {
        "club_badge_src": null,
        "entry": 7027295,
        "entry_name": "Heggen united",
        "event_total": 54,
        "has_played": true,
        "id": 56461960,
        "last_rank": 7014,
        "player_name": "Andreas Heggen",
        "rank": 8472,
        "rank_sort": 8559,
        "total": 2402
      },
      {
        "club_badge_src": null,
        "entry": 7169469,
        "entry_name": "Jose Mourinho",
        "event_total": 52,
        "has_played": true,
        "id": 57847921,
        "last_rank": 6448,
        "player_name": "Dusan Misic",
        "rank": 8472,
        "rank_sort": 8560,
        "total": 2402
      },
      {
        "club_badge_src": null,
        "entry": 7285806,
        "entry_name": "SU-Per",
        "event_total": 60,
        "has_played": true,
        "id": 58943911,
        "last_rank": 9142,
        "player_name": "Per Wikstr\u00f6m",
        "rank": 8472,
        "rank_sort": 8561,
        "total": 2402
      },
      {
        "club_badge_src": null,
        "entry": 7299079,
        "entry_name": "sefstanice",
        "event_total": 77,
        "has_played": true,
        "id": 59067774,
        "last_rank": 17989,
        "player_name": "Tadej Ignjatovic",
        "rank": 8472,
        "rank_sort": 8562,
        "total": 2402
      },
      {
        "club_badge_src": null,
        "entry": 7604636,
        "entry_name": "Kinder Surprise",
        "event_total": 60,
        "has_played": true,
        "id": 62306375,
        "last_rank": 7625,
        "player_name": "Eoin Kennedy",
        "rank": 8472,
        "rank_sort": 8563,
        "total": 2402
      },
      {
        "club_badge_src": null,
        "entry": 7640030,
        "entry_name": "Back stronger fc",
        "event_total": 51,
        "has_played": true,
        "id": 62626111,
        "last_rank": 6194,
        "player_name": "Brian Robles",
        "rank": 8472,
        "rank_sort": 8564,
        "total": 2402
      },
      {
        "club_badge_src": null,
        "entry": 7794254,
        "entry_name": "tarakowski's team",
        "event_total": 69,
        "has_played": true,
        "id": 64021822,
        "last_rank": 13184,
        "player_name": "Tara Hameed",
        "rank": 8472,
        "rank_sort": 8565,
        "total": 2402
      },
      {
        "club_badge_src": null,
        "entry": 8013846,
        "entry_name": "The Reds",
        "event_total": 53,
        "has_played": true,
        "id": 66009083,
        "last_rank": 6752,
        "player_name": "Fahad AlZarooni",
        "rank": 8472,
        "rank_sort": 8566,
        "total": 2402
      },
      {
        "club_badge_src": null,
        "entry": 8037666,
        "entry_name": "Deb Utd",
        "event_total": 46,
        "has_played": true,
        "id": 66225702,
        "last_rank": 4930,
        "player_name": "Imaduddin M",
        "rank": 8472,
        "rank_sort": 8567,
        "total": 2402
      },
      {
        "club_badge_src": null,
        "entry": 8297931,
        "entry_name": "Red Devils",
        "event_total": 53,
        "has_played": true,
        "id": 68688093,
        "last_rank": 6752,
        "player_name": "Darren Sambells",
        "rank": 8472,
        "rank_sort": 8568,
        "total": 2402
      },
      {
        "club_badge_src": null,
        "entry": 9153073,
        "entry_name": "Mohamed BOUANANI",
        "event_total": 68,
        "has_played": true,
        "id": 76970886,
        "last_rank": 12705,
        "player_name": "Mohamed Bouanani Idrissi",
        "rank": 8472,
        "rank_sort": 8569,
        "total": 2402
      },
      {
        "club_badge_src": null,
        "entry": 2766,
        "entry_name": "Gunners HK",
        "event_total": 57,
        "has_played": true,
        "id": 15532,
        "last_rank": 8032,
        "player_name": "Wilson HK N",
        "rank": 8570,
        "rank_sort": 8570,
        "total": 2402
      },
      {
        "club_badge_src": null,
        "entry": 3958,
        "entry_name": "Il Brane",
        "event_total": 71,
        "has_played": true,
        "id": 22446,
        "last_rank": 14370,
        "player_name": "Stig Mel",
        "rank": 8570,
        "rank_sort": 8571,
        "total": 2402
      },
      {
        "club_badge_src": null,
        "entry": 5831,
        "entry_name": "benchwarmers2025",
        "event_total": 61,
        "has_played": true,
        "id": 33335,
        "last_rank": 7979,
        "player_name": "Istvan Jablanovski",
        "rank": 8570,
        "rank_sort": 8572,
        "total": 2402
      },
      {
        "club_badge_src": "https://fantasy.premierleague.com/gcs/plfpl-production-adobe-approved/plfpl-production/12930/b1c6578a-1f5a-40bc-ab07-59b8e79c0a86.png",
        "entry": 12930,
        "entry_name": "Hector Salah Manka",
        "event_total": 60,
        "has_played": true,
        "id": 77839,
        "last_rank": 7676,
        "player_name": "Akhil Sakaria",
        "rank": 8570,
        "rank_sort": 8573,
        "total": 2402
      },
      {
        "club_badge_src": null,
        "entry": 27627,
        "entry_name": "FuYerN",
        "event_total": 57,
        "has_played": true,
        "id": 174672,
        "last_rank": 8032,
        "player_name": "Natthaphong Banyen",
        "rank": 8570,
        "rank_sort": 8574,
        "total": 2402
      },
      {
        "club_badge_src": null,
        "entry": 32137,
        "entry_name": "Harry's Heroes",
        "event_total": 40,
        "has_played": true,
        "id": 204231,
        "last_rank": 3765,
        "player_name": "Harry Irving",
        "rank": 8570,
        "rank_sort": 8575,
        "total": 2402
      },
      {
        "club_badge_src": null,
        "entry": 40756,
        "entry_name": "Make Emile Of It",
        "event_total": 65,
        "has_played": true,
        "id": 261241,
        "last_rank": 11237,
        "player_name": "Testimony Ukpoweh",
        "rank": 8570,
        "rank_sort": 8576,
        "total": 2402
      },
      {
        "club_badge_src": "https://fantasy.premierleague.com/gcs/plfpl-production-adobe-approved/plfpl-production/50704/9d6cd2bd-8e81-471d-85ff-bd2f4ccd7da2.png",
        "entry": 50704,
        "entry_name": "Dem XI",
        "event_total": 66,
        "has_played": true,
        "id": 326126,
        "last_rank": 9885,
        "player_name": "Ahmed Mohamed",
        "rank": 8570,
        "rank_sort": 8577,
        "total": 2402
      },
      {
        "club_badge_src": null,
        "entry": 73092,
        "entry_name": "Wernham Hogg",
        "event_total": 42,
        "has_played": true,
        "id": 475085,
        "last_rank": 3408,
        "player_name": "Emyr Davies",
        "rank": 8570,
        "rank_sort": 8578,
        "total": 2402
      },
      {
        "club_badge_src": null,
        "entry": 85072,
        "entry_name": "Could be Wirtz",
        "event_total": 58,
        "has_played": true,
        "id": 553957,
        "last_rank": 8484,
        "player_name": "Alistair Little",
        "rank": 8570,
        "rank_sort": 8579,
        "total": 2402
      },
      {
        "club_badge_src": "https://fantasy.premierleague.com/gcs/plfpl-production-adobe-approved/plfpl-production/200486/41785ead-b121-4636-b767-571e27458666.png",
        "entry": 200486,
        "entry_name": "HORROR FC",
        "event_total": 56,
        "has_played": true,
        "id": 1330960,
        "last_rank": 7761,
        "player_name": "Seif Eleraky",
        "rank": 8570,
        "rank_sort": 8580,
        "total": 2402
      },
      {
        "club_badge_src": null,
        "entry": 252892,
        "entry_name": "Calaflawzi",
        "event_total": 66,
        "has_played": true,
        "id": 1682051,
        "last_rank": 11608,
        "player_name": "Joel Lawler",
        "rank": 8570,
        "rank_sort": 8581,
        "total": 2402
      },
      {
        "club_badge_src": null,
        "entry": 282839,
        "entry_name": "HNK Ivano",
        "event_total": 51,
        "has_played": true,
        "id": 1882789,
        "last_rank": 6265,
        "player_name": "Ivano Turina",
        "rank": 8570,
        "rank_sort": 8582,
        "total": 2402
      },
      {
        "club_badge_src": "https://fantasy.premierleague.com/gcs/plfpl-production-adobe-approved/plfpl-production/395163/4b654702-2fcb-489f-ae34-87b791da9448.png",
        "entry": 395163,
        "entry_name": "Ain't signing anyone",
        "event_total": 41,
        "has_played": true,
        "id": 2650040,
        "last_rank": 3951,
        "player_name": "Mukunthan Muthukumar",
        "rank": 8570,
        "rank_sort": 8583,
        "total": 2402
      },
      {
        "club_badge_src": null,
        "entry": 406933,
        "entry_name": "Brors Br\u00f8dre",
        "event_total": 75,
        "has_played": true,
        "id": 2728634,
        "last_rank": 16807,
        "player_name": "Bror H\u00e5kon Delphin-Solli",
        "rank": 8570,
        "rank_sort": 8584,
        "total": 2402
      },
      {
        "club_badge_src": "https://fantasy.premierleague.com/gcs/plfpl-production-adobe-approved/plfpl-production/419769/192948d1-7330-4f4f-8c69-579430a7da31.png",
        "entry": 419769,
        "entry_name": "3amha",
        "event_total": 36,
        "has_played": true,
        "id": 2813339,
        "last_rank": 3150,
        "player_name": "Ahmed Magdy",
        "rank": 8570,
        "rank_sort": 8585,
        "total": 2402
      },
      {
        "club_badge_src": "https://fantasy.premierleague.com/gcs/plfpl-production-adobe-approved/plfpl-production/432927/c53585f0-82bf-45c0-b0af-7949e38c8358.png",
        "entry": 432927,
        "entry_name": "Washed FC",
        "event_total": 59,
        "has_played": true,
        "id": 2903432,
        "last_rank": 8758,
        "player_name": "Etnik Pozhegu",
        "rank": 8570,
        "rank_sort": 8586,
        "total": 2402
      },
      {
        "club_badge_src": null,
        "entry": 447780,
        "entry_name": "sexy11",
        "event_total": 51,
        "has_played": true,
        "id": 3003852,
        "last_rank": 5173,
        "player_name": "Naveen Shariff",
        "rank": 8570,
        "rank_sort": 8587,
        "total": 2402
      },
      {
        "club_badge_src": null,
        "entry": 449573,
        "entry_name": "Whats Schlupp BooBoo",
        "event_total": 60,
        "has_played": true,
        "id": 3016333,
        "last_rank": 9142,
        "player_name": "Alex Logier",
        "rank": 8570,
        "rank_sort": 8588,
        "total": 2402
      },
      {
        "club_badge_src": "https://fantasy.premierleague.com/gcs/plfpl-production-adobe-approved/plfpl-production/479418/c19d7d1f-0716-4b4c-a441-4e64e3654225.png",
        "entry": 479418,
        "entry_name": "Taraji La Prima",
        "event_total": 65,
        "has_played": true,
        "id": 3218374,
        "last_rank": 11237,
        "player_name": "hichem ferjani",
        "rank": 8570,
        "rank_sort": 8589,
        "total": 2402
      },
      {
        "club_badge_src": "https://fantasy.premierleague.com/gcs/plfpl-production-adobe-approved/plfpl-production/536449/c12ecdb6-6e4f-4a5f-b5c4-5273643974fb.png",
        "entry": 536449,
        "entry_name": "Team Beinbrudd",
        "event_total": 63,
        "has_played": true,
        "id": 3610559,
        "last_rank": 8758,
        "player_name": "Marcus Egeland",
        "rank": 8570,
        "rank_sort": 8590,
        "total": 2402
      },
      {
        "club_badge_src": null,
        "entry": 555215,
        "entry_name": "50ShadesGrahamPotter",
        "event_total": 60,
        "has_played": true,
        "id": 3736848,
        "last_rank": 9142,
        "player_name": "Sam Banks",
        "rank": 8570,
        "rank_sort": 8591,
        "total": 2402
      },
      {
        "club_badge_src": "https://fantasy.premierleague.com/gcs/plfpl-production-adobe-approved/plfpl-production/619844/03ebe0f5-4e84-4b5f-9e5e-5d17ad680494.png",
        "entry": 619844,
        "entry_name": "Dumbledore's Army",
        "event_total": 73,
        "has_played": true,
        "id": 4188780,
        "last_rank": 13184,
        "player_name": "Bishoy Gerges",
        "rank": 8570,
        "rank_sort": 8592,
        "total": 2402
      },
      {
        "club_badge_src": null,
        "entry": 774521,
        "entry_name": "Livin' Saliba Loca",
        "event_total": 56,
        "has_played": true,
        "id": 5284442,
        "last_rank": 7676,
        "player_name": "Nick Green",
        "rank": 8570,
        "rank_sort": 8593,
        "total": 2402
      },
      {
        "club_badge_src": null,
        "entry": 844381,
        "entry_name": "Griffbo's Legends",
        "event_total": 57,
        "has_played": true,
        "id": 5785361,
        "last_rank": 8138,
        "player_name": "Kevin Griffiths",
        "rank": 8570,
        "rank_sort": 8594,
        "total": 2402
      },
      {
        "club_badge_src": null,
        "entry": 1014458,
        "entry_name": "Torvund",
        "event_total": 67,
        "has_played": true,
        "id": 7017883,
        "last_rank": 12322,
        "player_name": "Geir Torvund",
        "rank": 8570,
        "rank_sort": 8595,
        "total": 2402
      },
      {
        "club_badge_src": null,
        "entry": 1050093,
        "entry_name": "Kroos Control",
        "event_total": 61,
        "has_played": true,
        "id": 7267247,
        "last_rank": 8032,
        "player_name": "Erfan K",
        "rank": 8570,
        "rank_sort": 8596,
        "total": 2402
      },
      {
        "club_badge_src": null,
        "entry": 1057163,
        "entry_name": "Sreyas x1",
        "event_total": 68,
        "has_played": true,
        "id": 7316097,
        "last_rank": 12846,
        "player_name": "Sreyas Srinivasan",
        "rank": 8570,
        "rank_sort": 8597,
        "total": 2402
      },
      {
        "club_badge_src": null,
        "entry": 1233297,
        "entry_name": "Beefy city",
        "event_total": 76,
        "has_played": true,
        "id": 8564234,
        "last_rank": 17585,
        "player_name": "Keith Simpson",
        "rank": 8570,
        "rank_sort": 8598,
        "total": 2402
      },
      {
        "club_badge_src": null,
        "entry": 1260834,
        "entry_name": "Arne Slot Machines",
        "event_total": 65,
        "has_played": true,
        "id": 8758263,
        "last_rank": 11175,
        "player_name": "Mark Harper",
        "rank": 8570,
        "rank_sort": 8599,
        "total": 2402
      },
      {
        "club_badge_src": null,
        "entry": 1367668,
        "entry_name": "The Goats",
        "event_total": 54,
        "has_played": true,
        "id": 9507345,
        "last_rank": 7059,
        "player_name": "Anon Nimos",
        "rank": 8570,
        "rank_sort": 8600,
        "total": 2402
      }
    ]
  }
}