{
  "last_updated_data": "2026-05-24T23:28:17Z",
  "league": {
    "admin_entry": null,
    "closed": false,
    "code_privacy": "p",
    "created": "2025-07-20T23:14:33.933835Z",
    "cup_league": 2815434,
    "has_cup": true,
    "id": 314,
    "league_type": "s",
    "max_entries": null,
    "name": "Overall",
    "rank": null,
    "scoring": "c",
    "start_event": 1
  },
  "new_entries": {
    "has_next": false,
    "page": 1,
    "results": []
  },
  "standings": {
    "has_next": true,
    "page": 699,
    "results": [
      {
        "club_badge_src": null,
        "entry": 2132577,
        "entry_name": "hima",
        "event_total": 34,
        "has_played": true,
        "id": 15154609,
        "last_rank": 13084,
        "player_name": "Abu Hima",
        "rank": 34880,
        "rank_sort": 34901,
        "total": 2364
      },
      {
        "club_badge_src": null,
        "entry": 2301192,
        "entry_name": "GvardiolsOfTheGalaxy",
        "event_total": 68,
        "has_played": true,
        "id": 16412961,
        "last_rank": 49407,
        "player_name": "Julie Oughton",
        "rank": 34880,
        "rank_sort": 34902,
        "total": 2364
      },
      {
        "club_badge_src": null,
        "entry": 2585675,
        "entry_name": "Happy",
        "event_total": 87,
        "has_played": true,
        "id": 18561405,
        "last_rank": 85349,
        "player_name": "Ahunem Getachew",
        "rank": 34880,
        "rank_sort": 34903,
        "total": 2364
      },
      {
        "club_badge_src": null,
        "entry": 2902504,
        "entry_name": "Heni97",
        "event_total": 63,
        "has_played": true,
        "id": 21270258,
        "last_rank": 37189,
        "player_name": "Heniii 97",
        "rank": 34880,
        "rank_sort": 34904,
        "total": 2364
      },
      {
        "club_badge_src": null,
        "entry": 3056928,
        "entry_name": "Dont look bck Elanga",
        "event_total": 73,
        "has_played": true,
        "id": 22505873,
        "last_rank": 44882,
        "player_name": "Thomas Roberts",
        "rank": 34880,
        "rank_sort": 34905,
        "total": 2364
      },
      {
        "club_badge_src": null,
        "entry": 3276495,
        "entry_name": "DeLap Dance",
        "event_total": 72,
        "has_played": true,
        "id": 24249983,
        "last_rank": 55659,
        "player_name": "Elias Fuglesang",
        "rank": 34880,
        "rank_sort": 34906,
        "total": 2364
      },
      {
        "club_badge_src": null,
        "entry": 3753252,
        "entry_name": "Masitaoka",
        "event_total": 67,
        "has_played": true,
        "id": 28021987,
        "last_rank": 47950,
        "player_name": "Kabo Moses",
        "rank": 34880,
        "rank_sort": 34907,
        "total": 2364
      },
      {
        "club_badge_src": null,
        "entry": 4568962,
        "entry_name": "Ain't Gotta Kalou",
        "event_total": 75,
        "has_played": true,
        "id": 34868122,
        "last_rank": 54134,
        "player_name": "David Fryer",
        "rank": 34880,
        "rank_sort": 34908,
        "total": 2364
      },
      {
        "club_badge_src": null,
        "entry": 4692660,
        "entry_name": "M\u00fcller Rice FC",
        "event_total": 71,
        "has_played": true,
        "id": 35969299,
        "last_rank": 47868,
        "player_name": "Toby Sawyer",
        "rank": 34880,
        "rank_sort": 34909,
        "total": 2364
      },
      {
        "club_badge_src": null,
        "entry": 4726154,
        "entry_name": "Ready Teddy Go!",
        "event_total": 64,
        "has_played": true,
        "id": 36330746,
        "last_rank": 38391,
        "player_name": "Shannon Swire",
        "rank": 34880,
        "rank_sort": 34910,
        "total": 2364
      },
      {
        "club_badge_src": null,
        "entry": 4887619,
        "entry_name": "arsjep",
        "event_total": 42,
        "has_played": true,
        "id": 37682657,
        "last_rank": 20775,
        "player_name": "J\u00e1kup Erlingsson Petersen",
        "rank": 34880,
        "rank_sort": 34911,
        "total": 2364
      },
      {
        "club_badge_src": null,
        "entry": 5434386,
        "entry_name": "FC Podrzecze",
        "event_total": 52,
        "has_played": true,
        "id": 42274068,
        "last_rank": 29393,
        "player_name": "Michal B\u0105k",
        "rank": 34880,
        "rank_sort": 34912,
        "total": 2364
      },
      {
        "club_badge_src": null,
        "entry": 5503823,
        "entry_name": "Kepa the Faith",
        "event_total": 60,
        "has_played": true,
        "id": 42887793,
        "last_rank": 33695,
        "player_name": "Gary Roberts",
        "rank": 34880,
        "rank_sort": 34913,
        "total": 2364
      },
      {
        "club_badge_src": null,
        "entry": 22493,
        "entry_name": "HoneyBadger",
        "event_total": 78,
        "has_played": true,
        "id": 141260,
        "last_rank": 59249,
        "player_name": "Olawale Akinyele",
        "rank": 34914,
        "rank_sort": 34914,
        "total": 2364
      },
      {
        "club_badge_src": null,
        "entry": 52464,
        "entry_name": "andy scuffield fc",
        "event_total": 64,
        "has_played": true,
        "id": 337357,
        "last_rank": 38425,
        "player_name": "Adam Berack",
        "rank": 34914,
        "rank_sort": 34915,
        "total": 2364
      },
      {
        "club_badge_src": null,
        "entry": 266532,
        "entry_name": "HashtownFC",
        "event_total": 53,
        "has_played": true,
        "id": 1772960,
        "last_rank": 17194,
        "player_name": "Sherif Hashish",
        "rank": 34914,
        "rank_sort": 34916,
        "total": 2364
      },
      {
        "club_badge_src": "https://fantasy.premierleague.com/gcs/plfpl-production-adobe-approved/plfpl-production/286009/e2ff8d28-d44a-454f-a623-ec4f586b85dc.png",
        "entry": 286009,
        "entry_name": "Holloway Harriers",
        "event_total": 58,
        "has_played": true,
        "id": 1905275,
        "last_rank": 36015,
        "player_name": "Christian Aarhus",
        "rank": 34914,
        "rank_sort": 34917,
        "total": 2364
      },
      {
        "club_badge_src": null,
        "entry": 293695,
        "entry_name": "JIMMY",
        "event_total": 64,
        "has_played": true,
        "id": 1960627,
        "last_rank": 33695,
        "player_name": "Joo Minn Ooi",
        "rank": 34914,
        "rank_sort": 34918,
        "total": 2364
      },
      {
        "club_badge_src": null,
        "entry": 666539,
        "entry_name": "John Rocket",
        "event_total": 78,
        "has_played": true,
        "id": 4506642,
        "last_rank": 52522,
        "player_name": "Jean Rochaix",
        "rank": 34914,
        "rank_sort": 34919,
        "total": 2364
      },
      {
        "club_badge_src": null,
        "entry": 757453,
        "entry_name": "Panini Allstars 83",
        "event_total": 53,
        "has_played": true,
        "id": 5158971,
        "last_rank": 26512,
        "player_name": "Bill Wright",
        "rank": 34914,
        "rank_sort": 34920,
        "total": 2364
      },
      {
        "club_badge_src": null,
        "entry": 811331,
        "entry_name": "Addekage-Knuser FC",
        "event_total": 59,
        "has_played": true,
        "id": 5555055,
        "last_rank": 24680,
        "player_name": "Olai Kristensen",
        "rank": 34914,
        "rank_sort": 34921,
        "total": 2364
      },
      {
        "club_badge_src": null,
        "entry": 834400,
        "entry_name": "Victory Club",
        "event_total": 57,
        "has_played": true,
        "id": 5715536,
        "last_rank": 30395,
        "player_name": "Shekia Johnson",
        "rank": 34914,
        "rank_sort": 34922,
        "total": 2364
      },
      {
        "club_badge_src": null,
        "entry": 879870,
        "entry_name": "007 FC\ufffd",
        "event_total": 70,
        "has_played": true,
        "id": 6033675,
        "last_rank": 40832,
        "player_name": "Gerson Anderson",
        "rank": 34914,
        "rank_sort": 34923,
        "total": 2364
      },
      {
        "club_badge_src": null,
        "entry": 1392537,
        "entry_name": "M.Ali",
        "event_total": 64,
        "has_played": true,
        "id": 9687666,
        "last_rank": 43607,
        "player_name": "Mohamed Ali",
        "rank": 34914,
        "rank_sort": 34924,
        "total": 2364
      },
      {
        "club_badge_src": null,
        "entry": 1899629,
        "entry_name": "Could be Wirtz",
        "event_total": 63,
        "has_played": true,
        "id": 13390595,
        "last_rank": 37211,
        "player_name": "Richard Gosney",
        "rank": 34914,
        "rank_sort": 34925,
        "total": 2364
      },
      {
        "club_badge_src": null,
        "entry": 1943973,
        "entry_name": "ALAMGIR (CHELSEA FC)",
        "event_total": 63,
        "has_played": true,
        "id": 13712534,
        "last_rank": 37211,
        "player_name": "Alamgir Hussain",
        "rank": 34914,
        "rank_sort": 34926,
        "total": 2364
      },
      {
        "club_badge_src": null,
        "entry": 1977270,
        "entry_name": "Dyl II",
        "event_total": 61,
        "has_played": true,
        "id": 13957680,
        "last_rank": 30361,
        "player_name": "Dylan Alexander",
        "rank": 34914,
        "rank_sort": 34927,
        "total": 2364
      },
      {
        "club_badge_src": null,
        "entry": 2390946,
        "entry_name": "Tanaris Hotnights",
        "event_total": 50,
        "has_played": true,
        "id": 17079185,
        "last_rank": 27499,
        "player_name": "Philip Plantin",
        "rank": 34914,
        "rank_sort": 34928,
        "total": 2364
      },
      {
        "club_badge_src": null,
        "entry": 4028003,
        "entry_name": "Rhettro Reds",
        "event_total": 64,
        "has_played": true,
        "id": 30364069,
        "last_rank": 38425,
        "player_name": "Rhett Hollick",
        "rank": 34914,
        "rank_sort": 34929,
        "total": 2364
      },
      {
        "club_badge_src": null,
        "entry": 4504048,
        "entry_name": "ALAMEER",
        "event_total": 38,
        "has_played": true,
        "id": 34339429,
        "last_rank": 17918,
        "player_name": "Alameer Abbas",
        "rank": 34914,
        "rank_sort": 34930,
        "total": 2364
      },
      {
        "club_badge_src": null,
        "entry": 4522959,
        "entry_name": "OnemorechanceXI",
        "event_total": 75,
        "has_played": true,
        "id": 34495003,
        "last_rank": 54181,
        "player_name": "Neil Hodgkinson",
        "rank": 34914,
        "rank_sort": 34931,
        "total": 2364
      },
      {
        "club_badge_src": null,
        "entry": 4767399,
        "entry_name": "dairylea lynchables",
        "event_total": 67,
        "has_played": true,
        "id": 36691923,
        "last_rank": 42263,
        "player_name": "Michael Lynch",
        "rank": 34914,
        "rank_sort": 34932,
        "total": 2364
      },
      {
        "club_badge_src": null,
        "entry": 4791281,
        "entry_name": "Up the Boing Boing",
        "event_total": 71,
        "has_played": true,
        "id": 36886588,
        "last_rank": 47920,
        "player_name": "Aidan Lewis",
        "rank": 34914,
        "rank_sort": 34933,
        "total": 2364
      },
      {
        "club_badge_src": null,
        "entry": 6054838,
        "entry_name": "Andy's Barmy Army",
        "event_total": 44,
        "has_played": true,
        "id": 47781264,
        "last_rank": 22325,
        "player_name": "Andy Hyden",
        "rank": 34914,
        "rank_sort": 34934,
        "total": 2364
      },
      {
        "club_badge_src": null,
        "entry": 6289130,
        "entry_name": "Bennie Davies Eyes",
        "event_total": 66,
        "has_played": true,
        "id": 49825681,
        "last_rank": 35969,
        "player_name": "Jack McHenry",
        "rank": 34914,
        "rank_sort": 34935,
        "total": 2364
      },
      {
        "club_badge_src": null,
        "entry": 6330706,
        "entry_name": "tesco mcniel deal",
        "event_total": 60,
        "has_played": true,
        "id": 50309659,
        "last_rank": 33729,
        "player_name": "Rowan Johnson",
        "rank": 34914,
        "rank_sort": 34936,
        "total": 2364
      },
      {
        "club_badge_src": null,
        "entry": 6849467,
        "entry_name": "Heavy Hitters",
        "event_total": 57,
        "has_played": true,
        "id": 54874703,
        "last_rank": 30395,
        "player_name": "Omar Farrag",
        "rank": 34914,
        "rank_sort": 34937,
        "total": 2364
      },
      {
        "club_badge_src": null,
        "entry": 7191978,
        "entry_name": "Chris",
        "event_total": 38,
        "has_played": true,
        "id": 58058213,
        "last_rank": 17918,
        "player_name": "Ainebyona Crescent",
        "rank": 34914,
        "rank_sort": 34938,
        "total": 2364
      },
      {
        "club_badge_src": null,
        "entry": 9039984,
        "entry_name": "Malthouse Misfits",
        "event_total": 76,
        "has_played": true,
        "id": 75867006,
        "last_rank": 43512,
        "player_name": "Anthony Harcombe",
        "rank": 34914,
        "rank_sort": 34939,
        "total": 2364
      },
      {
        "club_badge_src": null,
        "entry": 9106845,
        "entry_name": "watching 11\ufffdWachini",
        "event_total": 60,
        "has_played": true,
        "id": 76518717,
        "last_rank": 38448,
        "player_name": "Rezaan Marlie",
        "rank": 34914,
        "rank_sort": 34940,
        "total": 2364
      },
      {
        "club_badge_src": null,
        "entry": 9284592,
        "entry_name": "Mr FirstClassHonours",
        "event_total": 59,
        "has_played": true,
        "id": 78260538,
        "last_rank": 37236,
        "player_name": "Azeem Khan",
        "rank": 34914,
        "rank_sort": 34941,
        "total": 2364
      },
      {
        "club_badge_src": null,
        "entry": 231783,
        "entry_name": "Fpl Sufey's",
        "event_total": 57,
        "has_played": true,
        "id": 1542076,
        "last_rank": 34864,
        "player_name": "YLAP YVA",
        "rank": 34942,
        "rank_sort": 34942,
        "total": 2364
      },
      {
        "club_badge_src": null,
        "entry": 1500927,
        "entry_name": "BOIS",
        "event_total": 52,
        "has_played": true,
        "id": 10467282,
        "last_rank": 29411,
        "player_name": "Emiel Dubois",
        "rank": 34942,
        "rank_sort": 34943,
        "total": 2364
      },
      {
        "club_badge_src": null,
        "entry": 1506138,
        "entry_name": "IssaUnited",
        "event_total": 63,
        "has_played": true,
        "id": 10504205,
        "last_rank": 37236,
        "player_name": "Issa Eibef",
        "rank": 34942,
        "rank_sort": 34944,
        "total": 2364
      },
      {
        "club_badge_src": null,
        "entry": 1997698,
        "entry_name": "PerFect FC",
        "event_total": 53,
        "has_played": true,
        "id": 14117414,
        "last_rank": 30433,
        "player_name": "Per Christian Sandgrind",
        "rank": 34942,
        "rank_sort": 34945,
        "total": 2364
      },
      {
        "club_badge_src": "https://fantasy.premierleague.com/gcs/plfpl-production-adobe-approved/plfpl-production/2624087/b6258779-265f-4706-8625-88955a617123.png",
        "entry": 2624087,
        "entry_name": "Bardestanionfire",
        "event_total": 65,
        "has_played": true,
        "id": 18856134,
        "last_rank": 39703,
        "player_name": "Ali Bardestani",
        "rank": 34942,
        "rank_sort": 34946,
        "total": 2364
      },
      {
        "club_badge_src": null,
        "entry": 2973430,
        "entry_name": "Phuot=maybay",
        "event_total": 74,
        "has_played": true,
        "id": 21848202,
        "last_rank": 52561,
        "player_name": "Nguy\u1ec5n Duy Ch\u00e2u",
        "rank": 34942,
        "rank_sort": 34947,
        "total": 2364
      },
      {
        "club_badge_src": "https://fantasy.premierleague.com/gcs/plfpl-production-adobe-approved/plfpl-production/3869036/21a8b348-882b-4dca-afd7-d5e00cfe9e65.png",
        "entry": 3869036,
        "entry_name": "Red One",
        "event_total": 61,
        "has_played": true,
        "id": 29020350,
        "last_rank": 30395,
        "player_name": "red one",
        "rank": 34942,
        "rank_sort": 34948,
        "total": 2364
      },
      {
        "club_badge_src": null,
        "entry": 4256429,
        "entry_name": "Haven't a Kulu",
        "event_total": 60,
        "has_played": true,
        "id": 32269354,
        "last_rank": 33751,
        "player_name": "Sam Palmer",
        "rank": 34942,
        "rank_sort": 34949,
        "total": 2364
      },
      {
        "club_badge_src": null,
        "entry": 5493588,
        "entry_name": "TipHerDownThereJosie",
        "event_total": 60,
        "has_played": true,
        "id": 42789262,
        "last_rank": 33751,
        "player_name": "Niall Higgins",
        "rank": 34942,
        "rank_sort": 34950,
        "total": 2364
      }
    ]
  }
}