{
  "last_updated_data": "2026-05-24T23:28:17Z",
  "league": {
    "admin_entry": null,
    "closed": false,
    "code_privacy": "p",
    "created": "2025-07-20T23:14:33.933835Z",
    "cup_league": 2815434,
    "has_cup": true,
    "id": 314,
    "league_type": "s",
    "max_entries": null,
    "name": "Overall",
    "rank": null,
    "scoring": "c",
    "start_event": 1
  },
  "new_entries": {
    "has_next": false,
    "page": 1,
    "results": []
  },
  "standings": {
    "has_next": true,
    "page": 1605,
    "results": [
      {
        "club_badge_src": null,
        "entry": 6826956,
        "entry_name": "PALMER DRAMA",
        "event_total": 55,
        "has_played": true,
        "id": 54682638,
        "last_rank": 77258,
        "player_name": "Diego Gasnola",
        "rank": 79844,
        "rank_sort": 80201,
        "total": 2335
      },
      {
        "club_badge_src": null,
        "entry": 6829138,
        "entry_name": "G1\u00f6cke4es",
        "event_total": 59,
        "has_played": true,
        "id": 54701041,
        "last_rank": 77050,
        "player_name": "ananyo roy",
        "rank": 79844,
        "rank_sort": 80202,
        "total": 2335
      },
      {
        "club_badge_src": null,
        "entry": 6854700,
        "entry_name": "FC Siltis",
        "event_total": 40,
        "has_played": true,
        "id": 54919331,
        "last_rank": 49691,
        "player_name": "Jyri Honkanen",
        "rank": 79844,
        "rank_sort": 80203,
        "total": 2335
      },
      {
        "club_badge_src": null,
        "entry": 6856636,
        "entry_name": "Cunha dig it?",
        "event_total": 48,
        "has_played": true,
        "id": 54935991,
        "last_rank": 63724,
        "player_name": "Paul Sewell",
        "rank": 79844,
        "rank_sort": 80204,
        "total": 2335
      },
      {
        "club_badge_src": "https://fantasy.premierleague.com/gcs/plfpl-production-adobe-approved/plfpl-production/6858576/db703a53-beb1-409e-a661-762e2d43c414.png",
        "entry": 6858576,
        "entry_name": "Livin' Saliba Loca",
        "event_total": 51,
        "has_played": true,
        "id": 54952728,
        "last_rank": 68957,
        "player_name": "Kelly Rose Galea",
        "rank": 79844,
        "rank_sort": 80205,
        "total": 2335
      },
      {
        "club_badge_src": "https://fantasy.premierleague.com/gcs/plfpl-production-adobe-approved/plfpl-production/6933030/321fcd3d-03cf-4e66-bef3-bbede8df271e.png",
        "entry": 6933030,
        "entry_name": "Laal ShaitaanoKiSena",
        "event_total": 41,
        "has_played": true,
        "id": 55581178,
        "last_rank": 51720,
        "player_name": "Eish Kapoor",
        "rank": 79844,
        "rank_sort": 80206,
        "total": 2335
      },
      {
        "club_badge_src": null,
        "entry": 7020317,
        "entry_name": "Gunvosta",
        "event_total": 60,
        "has_played": true,
        "id": 56390428,
        "last_rank": 88594,
        "player_name": "Gilbert Gumbo",
        "rank": 79844,
        "rank_sort": 80207,
        "total": 2335
      },
      {
        "club_badge_src": null,
        "entry": 7089481,
        "entry_name": "peinmore panthers",
        "event_total": 53,
        "has_played": true,
        "id": 57076571,
        "last_rank": 73038,
        "player_name": "Graham Cameron",
        "rank": 79844,
        "rank_sort": 80208,
        "total": 2335
      },
      {
        "club_badge_src": null,
        "entry": 7110081,
        "entry_name": "Ragarse Rovers",
        "event_total": 51,
        "has_played": true,
        "id": 57272940,
        "last_rank": 68624,
        "player_name": "joseph howard",
        "rank": 79844,
        "rank_sort": 80209,
        "total": 2335
      },
      {
        "club_badge_src": null,
        "entry": 7135313,
        "entry_name": "M\u00fcller Corners",
        "event_total": 67,
        "has_played": true,
        "id": 57511660,
        "last_rank": 106259,
        "player_name": "Kieran Moloney",
        "rank": 79844,
        "rank_sort": 80210,
        "total": 2335
      },
      {
        "club_badge_src": null,
        "entry": 7197649,
        "entry_name": "Sub-StandardLiege",
        "event_total": 57,
        "has_played": true,
        "id": 58110544,
        "last_rank": 81646,
        "player_name": "James Tanner",
        "rank": 79844,
        "rank_sort": 80211,
        "total": 2335
      },
      {
        "club_badge_src": null,
        "entry": 7254330,
        "entry_name": "FC Jallunpihtaajat",
        "event_total": 47,
        "has_played": true,
        "id": 58647528,
        "last_rank": 61606,
        "player_name": "Juho Hyttinen",
        "rank": 79844,
        "rank_sort": 80212,
        "total": 2335
      },
      {
        "club_badge_src": null,
        "entry": 7260580,
        "entry_name": "A Cunha Mateta",
        "event_total": 57,
        "has_played": true,
        "id": 58705364,
        "last_rank": 81646,
        "player_name": "Jemma Murphy",
        "rank": 79844,
        "rank_sort": 80213,
        "total": 2335
      },
      {
        "club_badge_src": null,
        "entry": 7373342,
        "entry_name": "Zubi-Doo",
        "event_total": 43,
        "has_played": true,
        "id": 59765374,
        "last_rank": 55014,
        "player_name": "Alex Brace",
        "rank": 79844,
        "rank_sort": 80214,
        "total": 2335
      },
      {
        "club_badge_src": null,
        "entry": 7394647,
        "entry_name": "THEPLA11",
        "event_total": 54,
        "has_played": true,
        "id": 59963821,
        "last_rank": 74898,
        "player_name": "Satish Shah",
        "rank": 79844,
        "rank_sort": 80215,
        "total": 2335
      },
      {
        "club_badge_src": null,
        "entry": 7484868,
        "entry_name": "kinderMbuemo",
        "event_total": 57,
        "has_played": true,
        "id": 61085399,
        "last_rank": 81312,
        "player_name": "fahad abid",
        "rank": 79844,
        "rank_sort": 80216,
        "total": 2335
      },
      {
        "club_badge_src": null,
        "entry": 7634181,
        "entry_name": "Snoopy i offside",
        "event_total": 62,
        "has_played": true,
        "id": 62573437,
        "last_rank": 93443,
        "player_name": "Christian Rustad",
        "rank": 79844,
        "rank_sort": 80217,
        "total": 2335
      },
      {
        "club_badge_src": null,
        "entry": 7653538,
        "entry_name": "Go Eze on Mee",
        "event_total": 75,
        "has_played": true,
        "id": 62748141,
        "last_rank": 116890,
        "player_name": "Faiz Aziz",
        "rank": 79844,
        "rank_sort": 80218,
        "total": 2335
      },
      {
        "club_badge_src": null,
        "entry": 7710301,
        "entry_name": "skolmens",
        "event_total": 69,
        "has_played": true,
        "id": 63263348,
        "last_rank": 111405,
        "player_name": "Atle Holmen",
        "rank": 79844,
        "rank_sort": 80219,
        "total": 2335
      },
      {
        "club_badge_src": null,
        "entry": 7714640,
        "entry_name": "Reject Utd",
        "event_total": 74,
        "has_played": true,
        "id": 63302679,
        "last_rank": 126088,
        "player_name": "Lee Day",
        "rank": 79844,
        "rank_sort": 80220,
        "total": 2335
      },
      {
        "club_badge_src": null,
        "entry": 7735502,
        "entry_name": "Super Suds FC",
        "event_total": 53,
        "has_played": true,
        "id": 63491020,
        "last_rank": 73038,
        "player_name": "Dan Sudell",
        "rank": 79844,
        "rank_sort": 80221,
        "total": 2335
      },
      {
        "club_badge_src": null,
        "entry": 7883477,
        "entry_name": "The Special One",
        "event_total": 49,
        "has_played": true,
        "id": 64835706,
        "last_rank": 64830,
        "player_name": "Philip Drummond",
        "rank": 79844,
        "rank_sort": 80222,
        "total": 2335
      },
      {
        "club_badge_src": null,
        "entry": 7945455,
        "entry_name": "TOLA .07",
        "event_total": 59,
        "has_played": true,
        "id": 65398962,
        "last_rank": 86054,
        "player_name": "ahmed luai",
        "rank": 79844,
        "rank_sort": 80223,
        "total": 2335
      },
      {
        "club_badge_src": null,
        "entry": 8026854,
        "entry_name": "dontwearabelt",
        "event_total": 63,
        "has_played": true,
        "id": 66126972,
        "last_rank": 95890,
        "player_name": "Jeppe Lauritzen",
        "rank": 79844,
        "rank_sort": 80224,
        "total": 2335
      },
      {
        "club_badge_src": "https://fantasy.premierleague.com/gcs/plfpl-production-adobe-approved/plfpl-production/8187662/bfc88dfe-6262-4606-a8f7-1de8ec19a6e9.png",
        "entry": 8187662,
        "entry_name": "Njenga FC",
        "event_total": 61,
        "has_played": true,
        "id": 67622961,
        "last_rank": 91006,
        "player_name": "kubali kuwa number last",
        "rank": 79844,
        "rank_sort": 80225,
        "total": 2335
      },
      {
        "club_badge_src": null,
        "entry": 8192552,
        "entry_name": "Oters",
        "event_total": 67,
        "has_played": true,
        "id": 67669337,
        "last_rank": 105818,
        "player_name": "Mette Oterhals",
        "rank": 79844,
        "rank_sort": 80226,
        "total": 2335
      },
      {
        "club_badge_src": null,
        "entry": 8247618,
        "entry_name": "Leader",
        "event_total": 58,
        "has_played": true,
        "id": 68201374,
        "last_rank": 83934,
        "player_name": "The Leader",
        "rank": 79844,
        "rank_sort": 80227,
        "total": 2335
      },
      {
        "club_badge_src": null,
        "entry": 8319631,
        "entry_name": "jubbjangloveinfinity",
        "event_total": 65,
        "has_played": true,
        "id": 68915615,
        "last_rank": 100949,
        "player_name": "Pornprapa Yuenying",
        "rank": 79844,
        "rank_sort": 80228,
        "total": 2335
      },
      {
        "club_badge_src": null,
        "entry": 8468159,
        "entry_name": "High Quality FC",
        "event_total": 49,
        "has_played": true,
        "id": 70326953,
        "last_rank": 57743,
        "player_name": "James Coopey",
        "rank": 79844,
        "rank_sort": 80229,
        "total": 2335
      },
      {
        "club_badge_src": null,
        "entry": 8864420,
        "entry_name": "popo",
        "event_total": 65,
        "has_played": true,
        "id": 74165993,
        "last_rank": 100949,
        "player_name": "Charoenpong Hongto",
        "rank": 79844,
        "rank_sort": 80230,
        "total": 2335
      },
      {
        "club_badge_src": null,
        "entry": 8885345,
        "entry_name": "Openly Gu\u00e9hi",
        "event_total": 71,
        "has_played": true,
        "id": 74366486,
        "last_rank": 117112,
        "player_name": "Danny Sturges",
        "rank": 79844,
        "rank_sort": 80231,
        "total": 2335
      },
      {
        "club_badge_src": null,
        "entry": 8893479,
        "entry_name": "PL Professor",
        "event_total": 63,
        "has_played": true,
        "id": 74445539,
        "last_rank": 95527,
        "player_name": "Ahmad Badran",
        "rank": 79844,
        "rank_sort": 80232,
        "total": 2335
      },
      {
        "club_badge_src": null,
        "entry": 9054097,
        "entry_name": "Paps plonkers",
        "event_total": 67,
        "has_played": true,
        "id": 76005078,
        "last_rank": 105818,
        "player_name": "Paps Carruth",
        "rank": 79844,
        "rank_sort": 80233,
        "total": 2335
      },
      {
        "club_badge_src": null,
        "entry": 9069267,
        "entry_name": "Bakke Street Boys",
        "event_total": 83,
        "has_played": true,
        "id": 76151044,
        "last_rank": 156582,
        "player_name": "Daniel McGeachie",
        "rank": 79844,
        "rank_sort": 80234,
        "total": 2335
      },
      {
        "club_badge_src": null,
        "entry": 9111908,
        "entry_name": "LiamNeesonAirMarshal",
        "event_total": 71,
        "has_played": true,
        "id": 76568290,
        "last_rank": 117112,
        "player_name": "Ryan Jones",
        "rank": 79844,
        "rank_sort": 80235,
        "total": 2335
      },
      {
        "club_badge_src": null,
        "entry": 9127700,
        "entry_name": "Tighter than Sir Jim",
        "event_total": 58,
        "has_played": true,
        "id": 76724073,
        "last_rank": 83934,
        "player_name": "Andrew Purcell",
        "rank": 79844,
        "rank_sort": 80236,
        "total": 2335
      },
      {
        "club_badge_src": null,
        "entry": 9188363,
        "entry_name": "FC Bowen Arrow",
        "event_total": 68,
        "has_played": true,
        "id": 77319384,
        "last_rank": 108567,
        "player_name": "Wilf Gower",
        "rank": 79844,
        "rank_sort": 80237,
        "total": 2335
      },
      {
        "club_badge_src": null,
        "entry": 9228370,
        "entry_name": "Kahnkameratene",
        "event_total": 54,
        "has_played": true,
        "id": 77711987,
        "last_rank": 75139,
        "player_name": "Martin L\u00f8set Lindholm",
        "rank": 79844,
        "rank_sort": 80238,
        "total": 2335
      },
      {
        "club_badge_src": null,
        "entry": 9257668,
        "entry_name": "Let Me Be Frank",
        "event_total": 63,
        "has_played": true,
        "id": 77997201,
        "last_rank": 95527,
        "player_name": "Dilan Aziz",
        "rank": 79844,
        "rank_sort": 80239,
        "total": 2335
      },
      {
        "club_badge_src": null,
        "entry": 9416586,
        "entry_name": "HoofItUpTop",
        "event_total": 73,
        "has_played": true,
        "id": 79533029,
        "last_rank": 122988,
        "player_name": "B Sanzana",
        "rank": 79844,
        "rank_sort": 80240,
        "total": 2335
      },
      {
        "club_badge_src": "https://fantasy.premierleague.com/gcs/plfpl-production-adobe-approved/plfpl-production/12/7b2f0c48-4c70-4b22-a33c-7a0e77d17a47.png",
        "entry": 12,
        "entry_name": "Rumba SV",
        "event_total": 58,
        "has_played": true,
        "id": 64,
        "last_rank": 83934,
        "player_name": "Robin Destatsbader",
        "rank": 80241,
        "rank_sort": 80241,
        "total": 2335
      },
      {
        "club_badge_src": "https://fantasy.premierleague.com/gcs/plfpl-production-adobe-approved/plfpl-production/6958/c47f4b7e-eb29-44ab-992a-0e402447aa84.png",
        "entry": 6958,
        "entry_name": "Lusitanos",
        "event_total": 69,
        "has_played": true,
        "id": 40049,
        "last_rank": 100949,
        "player_name": "Joao Gouveia",
        "rank": 80241,
        "rank_sort": 80242,
        "total": 2335
      },
      {
        "club_badge_src": null,
        "entry": 9381,
        "entry_name": "Never pick Gyokeres",
        "event_total": 61,
        "has_played": true,
        "id": 55130,
        "last_rank": 81420,
        "player_name": "Colin B",
        "rank": 80241,
        "rank_sort": 80243,
        "total": 2335
      },
      {
        "club_badge_src": null,
        "entry": 9552,
        "entry_name": "Virgil Vibes FC",
        "event_total": 64,
        "has_played": true,
        "id": 56186,
        "last_rank": 88594,
        "player_name": "Yudhish Luchoomun",
        "rank": 80241,
        "rank_sort": 80244,
        "total": 2335
      },
      {
        "club_badge_src": null,
        "entry": 10840,
        "entry_name": "Eze does it",
        "event_total": 58,
        "has_played": true,
        "id": 64215,
        "last_rank": 83934,
        "player_name": "Daniel Colville",
        "rank": 80241,
        "rank_sort": 80245,
        "total": 2335
      },
      {
        "club_badge_src": "https://fantasy.premierleague.com/gcs/plfpl-production-adobe-approved/plfpl-production/10996/704f3f3c-cd82-4135-b26f-dc81cf2336b9.png",
        "entry": 10996,
        "entry_name": "Straight Hato Cobham",
        "event_total": 57,
        "has_played": true,
        "id": 65193,
        "last_rank": 82069,
        "player_name": "Kevin T",
        "rank": 80241,
        "rank_sort": 80246,
        "total": 2335
      },
      {
        "club_badge_src": null,
        "entry": 13944,
        "entry_name": "FC Eriksen**",
        "event_total": 58,
        "has_played": true,
        "id": 84457,
        "last_rank": 74898,
        "player_name": "Tom Buiting",
        "rank": 80241,
        "rank_sort": 80247,
        "total": 2335
      },
      {
        "club_badge_src": null,
        "entry": 14050,
        "entry_name": "Power Reijnders",
        "event_total": 71,
        "has_played": true,
        "id": 85143,
        "last_rank": 117915,
        "player_name": "Steve Smasherr",
        "rank": 80241,
        "rank_sort": 80248,
        "total": 2335
      },
      {
        "club_badge_src": null,
        "entry": 14867,
        "entry_name": "FPL Team",
        "event_total": 55,
        "has_played": true,
        "id": 90731,
        "last_rank": 68957,
        "player_name": "James Davies",
        "rank": 80241,
        "rank_sort": 80249,
        "total": 2335
      },
      {
        "club_badge_src": "https://fantasy.premierleague.com/gcs/plfpl-production-adobe-approved/plfpl-production/17910/a666f326-62cc-4383-ad2e-c435372dc21e.png",
        "entry": 17910,
        "entry_name": "Code Brown",
        "event_total": 49,
        "has_played": true,
        "id": 111243,
        "last_rank": 58071,
        "player_name": "Scott Jackson",
        "rank": 80241,
        "rank_sort": 80250,
        "total": 2335
      }
    ]
  }
}