{
  "last_updated_data": "2026-05-24T23:28:17Z",
  "league": {
    "admin_entry": null,
    "closed": false,
    "code_privacy": "p",
    "created": "2025-07-20T23:14:33.933835Z",
    "cup_league": 2815434,
    "has_cup": true,
    "id": 314,
    "league_type": "s",
    "max_entries": null,
    "name": "Overall",
    "rank": null,
    "scoring": "c",
    "start_event": 1
  },
  "new_entries": {
    "has_next": false,
    "page": 1,
    "results": []
  },
  "standings": {
    "has_next": true,
    "page": 258,
    "results": [
      {
        "club_badge_src": null,
        "entry": 17062,
        "entry_name": "BB7",
        "event_total": 59,
        "has_played": true,
        "id": 105709,
        "last_rank": 11345,
        "player_name": "Bj\u00f6rn Bamane",
        "rank": 12846,
        "rank_sort": 12851,
        "total": 2392
      },
      {
        "club_badge_src": null,
        "entry": 32354,
        "entry_name": "Sch\u00e4r wars",
        "event_total": 70,
        "has_played": true,
        "id": 205809,
        "last_rank": 20416,
        "player_name": "Oliver Russell",
        "rank": 12846,
        "rank_sort": 12852,
        "total": 2392
      },
      {
        "club_badge_src": null,
        "entry": 39183,
        "entry_name": "Aaaa",
        "event_total": 42,
        "has_played": true,
        "id": 251124,
        "last_rank": 5498,
        "player_name": "Yaroslav James Bond",
        "rank": 12846,
        "rank_sort": 12853,
        "total": 2392
      },
      {
        "club_badge_src": null,
        "entry": 46034,
        "entry_name": "Chels Finest",
        "event_total": 56,
        "has_played": true,
        "id": 295224,
        "last_rank": 9942,
        "player_name": "Pfokrelo Pfoze",
        "rank": 12846,
        "rank_sort": 12854,
        "total": 2392
      },
      {
        "club_badge_src": null,
        "entry": 47982,
        "entry_name": "The MESSIah",
        "event_total": 65,
        "has_played": true,
        "id": 307973,
        "last_rank": 17078,
        "player_name": "Tom Wardle",
        "rank": 12846,
        "rank_sort": 12855,
        "total": 2392
      },
      {
        "club_badge_src": null,
        "entry": 51002,
        "entry_name": "Clarkeys 11",
        "event_total": 61,
        "has_played": true,
        "id": 328063,
        "last_rank": 14370,
        "player_name": "Luis Clarke",
        "rank": 12846,
        "rank_sort": 12856,
        "total": 2392
      },
      {
        "club_badge_src": "https://fantasy.premierleague.com/gcs/plfpl-production-adobe-approved/plfpl-production/88195/fbf9b8b9-91ff-4a28-8dc0-c5e148e99954.png",
        "entry": 88195,
        "entry_name": "SmileDaddy",
        "event_total": 57,
        "has_played": true,
        "id": 575426,
        "last_rank": 12420,
        "player_name": "Naruwat Petchsangngam",
        "rank": 12846,
        "rank_sort": 12857,
        "total": 2392
      },
      {
        "club_badge_src": null,
        "entry": 96014,
        "entry_name": "inner Corny utd",
        "event_total": 64,
        "has_played": true,
        "id": 627271,
        "last_rank": 16441,
        "player_name": "Micheal Butler",
        "rank": 12846,
        "rank_sort": 12858,
        "total": 2392
      },
      {
        "club_badge_src": "https://fantasy.premierleague.com/gcs/plfpl-production-adobe-approved/plfpl-production/119080/c1d40159-a16a-42d9-bf3f-7f66a3f51631.png",
        "entry": 119080,
        "entry_name": "Sale Dikinela",
        "event_total": 70,
        "has_played": true,
        "id": 777020,
        "last_rank": 17585,
        "player_name": "Marko Micevski",
        "rank": 12846,
        "rank_sort": 12859,
        "total": 2392
      },
      {
        "club_badge_src": null,
        "entry": 140111,
        "entry_name": "FC Fasole",
        "event_total": 52,
        "has_played": true,
        "id": 914827,
        "last_rank": 10102,
        "player_name": "Lavinius Marca",
        "rank": 12846,
        "rank_sort": 12860,
        "total": 2392
      },
      {
        "club_badge_src": null,
        "entry": 143175,
        "entry_name": "Sp\u00ea\u010ciaL \u00d5ne \u00a9\u2728\ufffd",
        "event_total": 61,
        "has_played": true,
        "id": 936643,
        "last_rank": 14496,
        "player_name": "wassim bouabdallah",
        "rank": 12846,
        "rank_sort": 12861,
        "total": 2392
      },
      {
        "club_badge_src": null,
        "entry": 150513,
        "entry_name": "Emelangtons",
        "event_total": 80,
        "has_played": true,
        "id": 987163,
        "last_rank": 28609,
        "player_name": "Mathias Pedersen Svendsen",
        "rank": 12846,
        "rank_sort": 12862,
        "total": 2392
      },
      {
        "club_badge_src": null,
        "entry": 168685,
        "entry_name": "smooth like berta",
        "event_total": 63,
        "has_played": true,
        "id": 1114866,
        "last_rank": 15797,
        "player_name": "Lewis Selwyn",
        "rank": 12846,
        "rank_sort": 12863,
        "total": 2392
      },
      {
        "club_badge_src": null,
        "entry": 284421,
        "entry_name": "Daddy United",
        "event_total": 76,
        "has_played": true,
        "id": 1893867,
        "last_rank": 25172,
        "player_name": "Tasos Kazakis",
        "rank": 12846,
        "rank_sort": 12864,
        "total": 2392
      },
      {
        "club_badge_src": "https://fantasy.premierleague.com/gcs/plfpl-production-adobe-approved/plfpl-production/374735/24db1ec0-4d2e-40f0-a18c-8f958bdc3e49.png",
        "entry": 374735,
        "entry_name": "FALENO",
        "event_total": 62,
        "has_played": true,
        "id": 2508308,
        "last_rank": 12846,
        "player_name": "Kexxxr- TWLS.",
        "rank": 12846,
        "rank_sort": 12865,
        "total": 2392
      },
      {
        "club_badge_src": null,
        "entry": 377500,
        "entry_name": "Utter Stoke Nonsense",
        "event_total": 79,
        "has_played": true,
        "id": 2528755,
        "last_rank": 28150,
        "player_name": "Matt Pickering",
        "rank": 12846,
        "rank_sort": 12866,
        "total": 2392
      },
      {
        "club_badge_src": "https://fantasy.premierleague.com/gcs/plfpl-production-adobe-approved/plfpl-production/378887/79508c2a-73fa-42f9-bc88-304fdca39ddf.png",
        "entry": 378887,
        "entry_name": "Cunha Believe It?",
        "event_total": 73,
        "has_played": true,
        "id": 2538515,
        "last_rank": 22685,
        "player_name": "Aifric O'Shea",
        "rank": 12846,
        "rank_sort": 12867,
        "total": 2392
      },
      {
        "club_badge_src": null,
        "entry": 405938,
        "entry_name": "Rice to the Occasion",
        "event_total": 51,
        "has_played": true,
        "id": 2721749,
        "last_rank": 8138,
        "player_name": "Marius Jahnsen Nygaard",
        "rank": 12846,
        "rank_sort": 12868,
        "total": 2392
      },
      {
        "club_badge_src": null,
        "entry": 427774,
        "entry_name": "Liddle's Lions",
        "event_total": 75,
        "has_played": true,
        "id": 2869042,
        "last_rank": 24475,
        "player_name": "Paul Liddle",
        "rank": 12846,
        "rank_sort": 12869,
        "total": 2392
      },
      {
        "club_badge_src": null,
        "entry": 433537,
        "entry_name": "Mikes Marvels",
        "event_total": 54,
        "has_played": true,
        "id": 2907402,
        "last_rank": 10992,
        "player_name": "Michael Hulligan",
        "rank": 12846,
        "rank_sort": 12870,
        "total": 2392
      },
      {
        "club_badge_src": null,
        "entry": 515832,
        "entry_name": "FC Ciasteczka",
        "event_total": 65,
        "has_played": true,
        "id": 3463243,
        "last_rank": 17078,
        "player_name": "Mateusz Sosn\u00f3wka",
        "rank": 12846,
        "rank_sort": 12871,
        "total": 2392
      },
      {
        "club_badge_src": null,
        "entry": 602271,
        "entry_name": "Florian Sqirtz",
        "event_total": 58,
        "has_played": true,
        "id": 4064438,
        "last_rank": 10805,
        "player_name": "Jordan Pay",
        "rank": 12846,
        "rank_sort": 12872,
        "total": 2392
      },
      {
        "club_badge_src": null,
        "entry": 658363,
        "entry_name": "Show Me the Mane",
        "event_total": 60,
        "has_played": true,
        "id": 4449071,
        "last_rank": 11821,
        "player_name": "Luke Pickering",
        "rank": 12846,
        "rank_sort": 12873,
        "total": 2392
      },
      {
        "club_badge_src": null,
        "entry": 722522,
        "entry_name": "Following Bad Leeds",
        "event_total": 60,
        "has_played": true,
        "id": 4907091,
        "last_rank": 14040,
        "player_name": "David Johnson",
        "rank": 12846,
        "rank_sort": 12874,
        "total": 2392
      },
      {
        "club_badge_src": "https://fantasy.premierleague.com/gcs/plfpl-production-adobe-approved/plfpl-production/741714/4cc0c8ed-71ad-4a39-96bf-2f77a8ab7b50.png",
        "entry": 741714,
        "entry_name": "Hold Your Horswells",
        "event_total": 49,
        "has_played": true,
        "id": 5044678,
        "last_rank": 8854,
        "player_name": "Richard Horswell",
        "rank": 12846,
        "rank_sort": 12875,
        "total": 2392
      },
      {
        "club_badge_src": null,
        "entry": 754602,
        "entry_name": "Dipesh\u2019s XI",
        "event_total": 63,
        "has_played": true,
        "id": 5136872,
        "last_rank": 11237,
        "player_name": "Dipesh Jani",
        "rank": 12846,
        "rank_sort": 12876,
        "total": 2392
      },
      {
        "club_badge_src": null,
        "entry": 858071,
        "entry_name": "WatfORRd FC",
        "event_total": 37,
        "has_played": true,
        "id": 5882165,
        "last_rank": 5281,
        "player_name": "David Orr",
        "rank": 12846,
        "rank_sort": 12877,
        "total": 2392
      },
      {
        "club_badge_src": null,
        "entry": 883581,
        "entry_name": "APTX 4869",
        "event_total": 61,
        "has_played": true,
        "id": 6059666,
        "last_rank": 12322,
        "player_name": "Reza Topani",
        "rank": 12846,
        "rank_sort": 12878,
        "total": 2392
      },
      {
        "club_badge_src": null,
        "entry": 895601,
        "entry_name": "P8plante",
        "event_total": 54,
        "has_played": true,
        "id": 6152447,
        "last_rank": 10920,
        "player_name": "Morten Johansen",
        "rank": 12846,
        "rank_sort": 12879,
        "total": 2392
      },
      {
        "club_badge_src": "https://fantasy.premierleague.com/gcs/plfpl-production-adobe-approved/plfpl-production/946687/3f755f6b-d701-4a22-b166-9ef03c6a38a9.png",
        "entry": 946687,
        "entry_name": "Come Digne with me",
        "event_total": 66,
        "has_played": true,
        "id": 6520523,
        "last_rank": 15063,
        "player_name": "Mylo Hunter",
        "rank": 12846,
        "rank_sort": 12880,
        "total": 2392
      },
      {
        "club_badge_src": null,
        "entry": 997504,
        "entry_name": "kalmari fc",
        "event_total": 54,
        "has_played": true,
        "id": 6890845,
        "last_rank": 10992,
        "player_name": "Toivo Kalmari",
        "rank": 12846,
        "rank_sort": 12881,
        "total": 2392
      },
      {
        "club_badge_src": null,
        "entry": 1064568,
        "entry_name": "Bikoo",
        "event_total": 62,
        "has_played": true,
        "id": 7369657,
        "last_rank": 15226,
        "player_name": "mohammed Hassan",
        "rank": 12846,
        "rank_sort": 12882,
        "total": 2392
      },
      {
        "club_badge_src": null,
        "entry": 1145195,
        "entry_name": "Second Season XI",
        "event_total": 66,
        "has_played": true,
        "id": 7939142,
        "last_rank": 17718,
        "player_name": "Jim Bruce-Ball",
        "rank": 12846,
        "rank_sort": 12883,
        "total": 2392
      },
      {
        "club_badge_src": null,
        "entry": 1312678,
        "entry_name": "Kroos Kontrol",
        "event_total": 53,
        "has_played": true,
        "id": 9124127,
        "last_rank": 10462,
        "player_name": "Sawan Nitesh",
        "rank": 12846,
        "rank_sort": 12884,
        "total": 2392
      },
      {
        "club_badge_src": null,
        "entry": 1396933,
        "entry_name": "aai jhaulee united",
        "event_total": 61,
        "has_played": true,
        "id": 9718516,
        "last_rank": 14604,
        "player_name": "Zain Jaffar",
        "rank": 12846,
        "rank_sort": 12885,
        "total": 2392
      },
      {
        "club_badge_src": "https://fantasy.premierleague.com/gcs/plfpl-production-adobe-approved/plfpl-production/1616457/937dc535-1426-4545-895f-edce755b2a3a.png",
        "entry": 1616457,
        "entry_name": "Decade XI",
        "event_total": 66,
        "has_played": true,
        "id": 11310851,
        "last_rank": 17718,
        "player_name": "Amod Ahuja",
        "rank": 12846,
        "rank_sort": 12886,
        "total": 2392
      },
      {
        "club_badge_src": "https://fantasy.premierleague.com/gcs/plfpl-production-adobe-approved/plfpl-production/1630966/c0417867-c2ae-4b72-82df-8d0a28102881.png",
        "entry": 1630966,
        "entry_name": "New York Gosmos",
        "event_total": 62,
        "has_played": true,
        "id": 11415853,
        "last_rank": 15164,
        "player_name": "James Gosling",
        "rank": 12846,
        "rank_sort": 12887,
        "total": 2392
      },
      {
        "club_badge_src": null,
        "entry": 1661682,
        "entry_name": "Who Let Da Dorgs Out",
        "event_total": 66,
        "has_played": true,
        "id": 11633791,
        "last_rank": 17718,
        "player_name": "Sam Power",
        "rank": 12846,
        "rank_sort": 12888,
        "total": 2392
      },
      {
        "club_badge_src": null,
        "entry": 1712042,
        "entry_name": "Mutiara Selatan",
        "event_total": 59,
        "has_played": true,
        "id": 11996011,
        "last_rank": 13500,
        "player_name": "Febrianto Rizki -2",
        "rank": 12846,
        "rank_sort": 12889,
        "total": 2392
      },
      {
        "club_badge_src": null,
        "entry": 1851630,
        "entry_name": "Muddy May Suggins",
        "event_total": 74,
        "has_played": true,
        "id": 13029436,
        "last_rank": 23656,
        "player_name": "Andy Booth",
        "rank": 12846,
        "rank_sort": 12890,
        "total": 2392
      },
      {
        "club_badge_src": null,
        "entry": 2046900,
        "entry_name": "FPL Lububu",
        "event_total": 62,
        "has_played": true,
        "id": 14496856,
        "last_rank": 12846,
        "player_name": "Peter Chay",
        "rank": 12846,
        "rank_sort": 12891,
        "total": 2392
      },
      {
        "club_badge_src": null,
        "entry": 2410189,
        "entry_name": "Nice for Watkins",
        "event_total": 60,
        "has_played": true,
        "id": 17228162,
        "last_rank": 13947,
        "player_name": "Will Baker",
        "rank": 12846,
        "rank_sort": 12892,
        "total": 2392
      },
      {
        "club_badge_src": null,
        "entry": 2543395,
        "entry_name": "Kante fit mi Willian",
        "event_total": 66,
        "has_played": true,
        "id": 18229443,
        "last_rank": 15063,
        "player_name": "Joe Hindle",
        "rank": 12846,
        "rank_sort": 12893,
        "total": 2392
      },
      {
        "club_badge_src": null,
        "entry": 2862570,
        "entry_name": "Saka Potatoes",
        "event_total": 77,
        "has_played": true,
        "id": 20934399,
        "last_rank": 26088,
        "player_name": "Alex Lockett",
        "rank": 12846,
        "rank_sort": 12894,
        "total": 2392
      },
      {
        "club_badge_src": null,
        "entry": 2864638,
        "entry_name": "Gy\u00f6k's nest",
        "event_total": 74,
        "has_played": true,
        "id": 20950847,
        "last_rank": 23522,
        "player_name": "Henning Lie",
        "rank": 12846,
        "rank_sort": 12895,
        "total": 2392
      },
      {
        "club_badge_src": null,
        "entry": 2884962,
        "entry_name": "Mid-table Mediocrity",
        "event_total": 64,
        "has_played": true,
        "id": 21120732,
        "last_rank": 16441,
        "player_name": "Sam Richardson",
        "rank": 12846,
        "rank_sort": 12896,
        "total": 2392
      },
      {
        "club_badge_src": null,
        "entry": 3110369,
        "entry_name": "QMH",
        "event_total": 90,
        "has_played": true,
        "id": 22952415,
        "last_rank": 35424,
        "player_name": "qais hammouri",
        "rank": 12846,
        "rank_sort": 12897,
        "total": 2392
      },
      {
        "club_badge_src": null,
        "entry": 3410245,
        "entry_name": "Jo\u00e3o You See Me",
        "event_total": 53,
        "has_played": true,
        "id": 25326182,
        "last_rank": 10462,
        "player_name": "Josh Block",
        "rank": 12846,
        "rank_sort": 12898,
        "total": 2392
      },
      {
        "club_badge_src": null,
        "entry": 3436684,
        "entry_name": "Amad a Mount",
        "event_total": 47,
        "has_played": true,
        "id": 25530941,
        "last_rank": 6839,
        "player_name": "James Rissen",
        "rank": 12846,
        "rank_sort": 12899,
        "total": 2392
      },
      {
        "club_badge_src": null,
        "entry": 3506493,
        "entry_name": "This is Howey do it!",
        "event_total": 54,
        "has_played": true,
        "id": 26085976,
        "last_rank": 10992,
        "player_name": "Pav Szymanski",
        "rank": 12846,
        "rank_sort": 12900,
        "total": 2392
      }
    ]
  }
}