{
  "last_updated_data": "2026-05-24T23:28:17Z",
  "league": {
    "admin_entry": null,
    "closed": false,
    "code_privacy": "p",
    "created": "2025-07-20T23:14:33.933835Z",
    "cup_league": 2815434,
    "has_cup": true,
    "id": 314,
    "league_type": "s",
    "max_entries": null,
    "name": "Overall",
    "rank": null,
    "scoring": "c",
    "start_event": 1
  },
  "new_entries": {
    "has_next": false,
    "page": 1,
    "results": []
  },
  "standings": {
    "has_next": true,
    "page": 1293,
    "results": [
      {
        "club_badge_src": null,
        "entry": 334676,
        "entry_name": "dziki \u017c\u00f3\u0142win",
        "event_total": 84,
        "has_played": true,
        "id": 2241058,
        "last_rank": 132427,
        "player_name": "Wojciech Skrabalak",
        "rank": 64538,
        "rank_sort": 64601,
        "total": 2343
      },
      {
        "club_badge_src": null,
        "entry": 350758,
        "entry_name": "Kieran's Champs",
        "event_total": 60,
        "has_played": true,
        "id": 2347994,
        "last_rank": 63201,
        "player_name": "Kieran O'Connor",
        "rank": 64538,
        "rank_sort": 64602,
        "total": 2343
      },
      {
        "club_badge_src": null,
        "entry": 351927,
        "entry_name": "Taking the Micky",
        "event_total": 68,
        "has_played": true,
        "id": 2355548,
        "last_rank": 88594,
        "player_name": "Josh Cowan",
        "rank": 64538,
        "rank_sort": 64603,
        "total": 2343
      },
      {
        "club_badge_src": "https://fantasy.premierleague.com/gcs/plfpl-production-adobe-approved/plfpl-production/363814/373059d2-6646-44da-85e2-ba3cca93dad2.png",
        "entry": 363814,
        "entry_name": "\u0645\u062d\u0645\u062f \u0646\u0648\u0631\u064a",
        "event_total": 64,
        "has_played": true,
        "id": 2434543,
        "last_rank": 79431,
        "player_name": "\u0645\u062d\u0645\u062f \u0646\u0648\u0631\u064a",
        "rank": 64538,
        "rank_sort": 64604,
        "total": 2343
      },
      {
        "club_badge_src": null,
        "entry": 369581,
        "entry_name": "hoth chocolate",
        "event_total": 53,
        "has_played": true,
        "id": 2473042,
        "last_rank": 58388,
        "player_name": "Lewis Shearwood",
        "rank": 64538,
        "rank_sort": 64605,
        "total": 2343
      },
      {
        "club_badge_src": null,
        "entry": 370465,
        "entry_name": "Childish Firmino",
        "event_total": 65,
        "has_played": true,
        "id": 2479014,
        "last_rank": 73038,
        "player_name": "Greg Ahern",
        "rank": 64538,
        "rank_sort": 64606,
        "total": 2343
      },
      {
        "club_badge_src": "https://fantasy.premierleague.com/gcs/plfpl-production-adobe-approved/plfpl-production/374726/84cec979-2b5a-4914-a8d3-d015a2273e34.png",
        "entry": 374726,
        "entry_name": "11:11",
        "event_total": 71,
        "has_played": true,
        "id": 2508237,
        "last_rank": 96374,
        "player_name": "Medsallem Cheinoun",
        "rank": 64538,
        "rank_sort": 64607,
        "total": 2343
      },
      {
        "club_badge_src": "https://fantasy.premierleague.com/gcs/plfpl-production-adobe-approved/plfpl-production/374958/5b44c395-9c74-4501-8b62-e68974bf3550.png",
        "entry": 374958,
        "entry_name": "inshallah",
        "event_total": 61,
        "has_played": true,
        "id": 2509993,
        "last_rank": 73423,
        "player_name": "Kai Rui",
        "rank": 64538,
        "rank_sort": 64608,
        "total": 2343
      },
      {
        "club_badge_src": null,
        "entry": 378075,
        "entry_name": "Pink elephants fc",
        "event_total": 52,
        "has_played": true,
        "id": 2532865,
        "last_rank": 56708,
        "player_name": "Jacob Bagaso",
        "rank": 64538,
        "rank_sort": 64609,
        "total": 2343
      },
      {
        "club_badge_src": null,
        "entry": 409770,
        "entry_name": "Hansa Utd",
        "event_total": 64,
        "has_played": true,
        "id": 2747702,
        "last_rank": 70985,
        "player_name": "Hans Erik Steenberg",
        "rank": 64538,
        "rank_sort": 64610,
        "total": 2343
      },
      {
        "club_badge_src": null,
        "entry": 425926,
        "entry_name": "bout ye",
        "event_total": 50,
        "has_played": true,
        "id": 2855321,
        "last_rank": 53621,
        "player_name": "Chris Gallagher",
        "rank": 64538,
        "rank_sort": 64611,
        "total": 2343
      },
      {
        "club_badge_src": null,
        "entry": 434815,
        "entry_name": "Brunos Bangers",
        "event_total": 59,
        "has_played": true,
        "id": 2915863,
        "last_rank": 69641,
        "player_name": "Quinton Mkandla",
        "rank": 64538,
        "rank_sort": 64612,
        "total": 2343
      },
      {
        "club_badge_src": "https://fantasy.premierleague.com/gcs/plfpl-production-adobe-approved/plfpl-production/439563/d653b67d-5c7a-4c1b-a345-bb306fb2d998.png",
        "entry": 439563,
        "entry_name": "Los Porros Hermanos",
        "event_total": 53,
        "has_played": true,
        "id": 2947538,
        "last_rank": 51403,
        "player_name": "Brandon Biggs",
        "rank": 64538,
        "rank_sort": 64613,
        "total": 2343
      },
      {
        "club_badge_src": null,
        "entry": 440738,
        "entry_name": "Abhi's XI",
        "event_total": 71,
        "has_played": true,
        "id": 2955200,
        "last_rank": 95890,
        "player_name": "Abhishek Mehta",
        "rank": 64538,
        "rank_sort": 64614,
        "total": 2343
      },
      {
        "club_badge_src": null,
        "entry": 454501,
        "entry_name": "Loz Zapatistas",
        "event_total": 42,
        "has_played": true,
        "id": 3049052,
        "last_rank": 41324,
        "player_name": "Chris De Souza",
        "rank": 64538,
        "rank_sort": 64615,
        "total": 2343
      },
      {
        "club_badge_src": null,
        "entry": 511284,
        "entry_name": "washed",
        "event_total": 58,
        "has_played": true,
        "id": 3433359,
        "last_rank": 67063,
        "player_name": "Lily Vinall",
        "rank": 64538,
        "rank_sort": 64616,
        "total": 2343
      },
      {
        "club_badge_src": null,
        "entry": 511403,
        "entry_name": "kinder mbuemo",
        "event_total": 59,
        "has_played": true,
        "id": 3434131,
        "last_rank": 69323,
        "player_name": "Clive Moore",
        "rank": 64538,
        "rank_sort": 64617,
        "total": 2343
      },
      {
        "club_badge_src": null,
        "entry": 516981,
        "entry_name": "Team Mediocre",
        "event_total": 52,
        "has_played": true,
        "id": 3470841,
        "last_rank": 56180,
        "player_name": "Alex Kruize",
        "rank": 64538,
        "rank_sort": 64618,
        "total": 2343
      },
      {
        "club_badge_src": null,
        "entry": 523186,
        "entry_name": "Bayerneverlosen",
        "event_total": 51,
        "has_played": true,
        "id": 3514100,
        "last_rank": 55014,
        "player_name": "Aidan Connolly",
        "rank": 64538,
        "rank_sort": 64619,
        "total": 2343
      },
      {
        "club_badge_src": null,
        "entry": 573298,
        "entry_name": "Only time will Tel",
        "event_total": 72,
        "has_played": true,
        "id": 3858247,
        "last_rank": 98436,
        "player_name": "Sam O'Flynn",
        "rank": 64538,
        "rank_sort": 64620,
        "total": 2343
      },
      {
        "club_badge_src": null,
        "entry": 578002,
        "entry_name": "Palmer sznn",
        "event_total": 41,
        "has_played": true,
        "id": 3889241,
        "last_rank": 40503,
        "player_name": "Hamza Zakraoui",
        "rank": 64538,
        "rank_sort": 64621,
        "total": 2343
      },
      {
        "club_badge_src": null,
        "entry": 595610,
        "entry_name": "Deaf Kids",
        "event_total": 54,
        "has_played": true,
        "id": 4015357,
        "last_rank": 60168,
        "player_name": "David McCarthy",
        "rank": 64538,
        "rank_sort": 64622,
        "total": 2343
      },
      {
        "club_badge_src": null,
        "entry": 601630,
        "entry_name": "Rand\u00f8y IL",
        "event_total": 41,
        "has_played": true,
        "id": 4059714,
        "last_rank": 40297,
        "player_name": "Kristian F\u00f8rre",
        "rank": 64538,
        "rank_sort": 64623,
        "total": 2343
      },
      {
        "club_badge_src": null,
        "entry": 657683,
        "entry_name": "Wifi: Kr4v4tskh3lia",
        "event_total": 60,
        "has_played": true,
        "id": 4444574,
        "last_rank": 71386,
        "player_name": "Alexander Clegg",
        "rank": 64538,
        "rank_sort": 64624,
        "total": 2343
      },
      {
        "club_badge_src": "https://fantasy.premierleague.com/gcs/plfpl-production-adobe-approved/plfpl-production/667617/5116567d-2bc6-44fd-99d7-816c8858229a.png",
        "entry": 667617,
        "entry_name": "Los Ratones",
        "event_total": 64,
        "has_played": true,
        "id": 4514223,
        "last_rank": 79817,
        "player_name": "Hamad Alketbi",
        "rank": 64538,
        "rank_sort": 64625,
        "total": 2343
      },
      {
        "club_badge_src": null,
        "entry": 670038,
        "entry_name": "Sharkskins",
        "event_total": 65,
        "has_played": true,
        "id": 4531622,
        "last_rank": 81420,
        "player_name": "adam larkin",
        "rank": 64538,
        "rank_sort": 64626,
        "total": 2343
      },
      {
        "club_badge_src": null,
        "entry": 714271,
        "entry_name": "Team Nilo",
        "event_total": 67,
        "has_played": true,
        "id": 4845862,
        "last_rank": 77050,
        "player_name": "Usidamen Daniel",
        "rank": 64538,
        "rank_sort": 64627,
        "total": 2343
      },
      {
        "club_badge_src": null,
        "entry": 726442,
        "entry_name": "Sarr Wars",
        "event_total": 61,
        "has_played": true,
        "id": 4934722,
        "last_rank": 73038,
        "player_name": "Elliot Bannister",
        "rank": 64538,
        "rank_sort": 64628,
        "total": 2343
      },
      {
        "club_badge_src": null,
        "entry": 730467,
        "entry_name": "Fitturella",
        "event_total": 61,
        "has_played": true,
        "id": 4963392,
        "last_rank": 72815,
        "player_name": "Karl Felix Krafft",
        "rank": 64538,
        "rank_sort": 64629,
        "total": 2343
      },
      {
        "club_badge_src": "https://fantasy.premierleague.com/gcs/plfpl-production-adobe-approved/plfpl-production/759158/a989b5a6-fbea-41cb-b71f-ee53412519f6.png",
        "entry": 759158,
        "entry_name": "Klopps and Robbers",
        "event_total": 37,
        "has_played": true,
        "id": 5172784,
        "last_rank": 35424,
        "player_name": "Dillon Morgan",
        "rank": 64538,
        "rank_sort": 64630,
        "total": 2343
      },
      {
        "club_badge_src": "https://fantasy.premierleague.com/gcs/plfpl-production-adobe-approved/plfpl-production/769287/43f9566d-55a5-4b56-9412-2d84c691cbe9.png",
        "entry": 769287,
        "entry_name": "Joaowerpuff Girls",
        "event_total": 45,
        "has_played": true,
        "id": 5247686,
        "last_rank": 45714,
        "player_name": "Callum Shepherd",
        "rank": 64538,
        "rank_sort": 64631,
        "total": 2343
      },
      {
        "club_badge_src": "https://fantasy.premierleague.com/gcs/plfpl-production-adobe-approved/plfpl-production/773088/9cc22fd3-7eef-465c-a3a6-0c1c0ce207b0.png",
        "entry": 773088,
        "entry_name": "Frankless Task",
        "event_total": 37,
        "has_played": true,
        "id": 5274291,
        "last_rank": 35424,
        "player_name": "Judith Regen",
        "rank": 64538,
        "rank_sort": 64632,
        "total": 2343
      },
      {
        "club_badge_src": null,
        "entry": 817163,
        "entry_name": "\u0627\u0644\u0628\u0627\u0631\u0648\u0646",
        "event_total": 65,
        "has_played": true,
        "id": 5596042,
        "last_rank": 81420,
        "player_name": "mohamed ismaili alaoui",
        "rank": 64538,
        "rank_sort": 64633,
        "total": 2343
      },
      {
        "club_badge_src": null,
        "entry": 831677,
        "entry_name": "Wassim",
        "event_total": 49,
        "has_played": true,
        "id": 5696528,
        "last_rank": 51720,
        "player_name": "Suiiii Vamos",
        "rank": 64538,
        "rank_sort": 64634,
        "total": 2343
      },
      {
        "club_badge_src": "https://fantasy.premierleague.com/gcs/plfpl-production-adobe-approved/plfpl-production/840905/aeb8ca8e-fed2-4d5e-ab21-939632733b52.png",
        "entry": 840905,
        "entry_name": "The Na7o",
        "event_total": 63,
        "has_played": true,
        "id": 5761504,
        "last_rank": 77676,
        "player_name": "Abdelrahman Magdy",
        "rank": 64538,
        "rank_sort": 64635,
        "total": 2343
      },
      {
        "club_badge_src": null,
        "entry": 841165,
        "entry_name": "Gringoes FC",
        "event_total": 43,
        "has_played": true,
        "id": 5763275,
        "last_rank": 42648,
        "player_name": "Phillip Christy",
        "rank": 64538,
        "rank_sort": 64636,
        "total": 2343
      },
      {
        "club_badge_src": "https://fantasy.premierleague.com/gcs/plfpl-production-adobe-approved/plfpl-production/862061/89576d9b-0371-471c-a54c-871a7927fe4b.png",
        "entry": 862061,
        "entry_name": "ZGZYGWY",
        "event_total": 61,
        "has_played": true,
        "id": 5909716,
        "last_rank": 65163,
        "player_name": "Tian Tian Lin",
        "rank": 64538,
        "rank_sort": 64637,
        "total": 2343
      },
      {
        "club_badge_src": "https://fantasy.premierleague.com/gcs/plfpl-production-adobe-approved/plfpl-production/907074/6a4072b1-53b3-48bc-b99e-4b9a8569981b.png",
        "entry": 907074,
        "entry_name": "Catsanova FC",
        "event_total": 50,
        "has_played": true,
        "id": 6235125,
        "last_rank": 53023,
        "player_name": "Karan Bhatia",
        "rank": 64538,
        "rank_sort": 64638,
        "total": 2343
      },
      {
        "club_badge_src": null,
        "entry": 929171,
        "entry_name": "DDV",
        "event_total": 40,
        "has_played": true,
        "id": 6393209,
        "last_rank": 39023,
        "player_name": "Duica Dragos",
        "rank": 64538,
        "rank_sort": 64639,
        "total": 2343
      },
      {
        "club_badge_src": "https://fantasy.premierleague.com/gcs/plfpl-production-adobe-approved/plfpl-production/933684/124d6301-19db-43c5-b97e-7f62aa5cfa46.png",
        "entry": 933684,
        "entry_name": "Floating Left",
        "event_total": 56,
        "has_played": true,
        "id": 6424950,
        "last_rank": 63724,
        "player_name": "John Lowes",
        "rank": 64538,
        "rank_sort": 64640,
        "total": 2343
      },
      {
        "club_badge_src": null,
        "entry": 949935,
        "entry_name": "Blues FC",
        "event_total": 55,
        "has_played": true,
        "id": 6544210,
        "last_rank": 61606,
        "player_name": "Elias Abdallah",
        "rank": 64538,
        "rank_sort": 64641,
        "total": 2343
      },
      {
        "club_badge_src": null,
        "entry": 951943,
        "entry_name": "macAwoniyi n cheese",
        "event_total": 59,
        "has_played": true,
        "id": 6558523,
        "last_rank": 68957,
        "player_name": "Rupert Howell",
        "rank": 64538,
        "rank_sort": 64642,
        "total": 2343
      },
      {
        "club_badge_src": null,
        "entry": 955375,
        "entry_name": "Ahmed Bisoooo",
        "event_total": 67,
        "has_played": true,
        "id": 6582629,
        "last_rank": 77258,
        "player_name": "Ahmed Mohamed Abas",
        "rank": 64538,
        "rank_sort": 64643,
        "total": 2343
      },
      {
        "club_badge_src": null,
        "entry": 995746,
        "entry_name": "Eze does it",
        "event_total": 52,
        "has_played": true,
        "id": 6873532,
        "last_rank": 56708,
        "player_name": "Johnny Barber",
        "rank": 64538,
        "rank_sort": 64644,
        "total": 2343
      },
      {
        "club_badge_src": null,
        "entry": 1047698,
        "entry_name": "cultoaotaremi",
        "event_total": 60,
        "has_played": true,
        "id": 7250704,
        "last_rank": 71386,
        "player_name": "Martim Silva",
        "rank": 64538,
        "rank_sort": 64645,
        "total": 2343
      },
      {
        "club_badge_src": null,
        "entry": 1054253,
        "entry_name": "Khal_Drogo",
        "event_total": 57,
        "has_played": true,
        "id": 7296151,
        "last_rank": 65475,
        "player_name": "Simohamed Zaki",
        "rank": 64538,
        "rank_sort": 64646,
        "total": 2343
      },
      {
        "club_badge_src": null,
        "entry": 1079645,
        "entry_name": "Petr Cech Yourself",
        "event_total": 52,
        "has_played": true,
        "id": 7475613,
        "last_rank": 56708,
        "player_name": "Joe White",
        "rank": 64538,
        "rank_sort": 64647,
        "total": 2343
      },
      {
        "club_badge_src": null,
        "entry": 1101888,
        "entry_name": "Hasle FC",
        "event_total": 52,
        "has_played": true,
        "id": 7632465,
        "last_rank": 49880,
        "player_name": "Erlend Karlsen",
        "rank": 64538,
        "rank_sort": 64648,
        "total": 2343
      },
      {
        "club_badge_src": null,
        "entry": 1115980,
        "entry_name": "el3omda \ufffd",
        "event_total": 46,
        "has_played": true,
        "id": 7730175,
        "last_rank": 47163,
        "player_name": "FREE PALESTINE--",
        "rank": 64538,
        "rank_sort": 64649,
        "total": 2343
      },
      {
        "club_badge_src": null,
        "entry": 1155263,
        "entry_name": "Alpha United",
        "event_total": 71,
        "has_played": true,
        "id": 8010960,
        "last_rank": 95640,
        "player_name": "Kyan Theissen",
        "rank": 64538,
        "rank_sort": 64650,
        "total": 2343
      }
    ]
  }
}