{
  "last_updated_data": "2026-05-24T23:28:17Z",
  "league": {
    "admin_entry": null,
    "closed": false,
    "code_privacy": "p",
    "created": "2025-07-20T23:14:33.933835Z",
    "cup_league": 2815434,
    "has_cup": true,
    "id": 314,
    "league_type": "s",
    "max_entries": null,
    "name": "Overall",
    "rank": null,
    "scoring": "c",
    "start_event": 1
  },
  "new_entries": {
    "has_next": false,
    "page": 1,
    "results": []
  },
  "standings": {
    "has_next": true,
    "page": 1258,
    "results": [
      {
        "club_badge_src": null,
        "entry": 518670,
        "entry_name": "40 Year Old Virgil",
        "event_total": 51,
        "has_played": true,
        "id": 3482425,
        "last_rank": 53345,
        "player_name": "Tom Gleadhill",
        "rank": 62778,
        "rank_sort": 62851,
        "total": 2344
      },
      {
        "club_badge_src": null,
        "entry": 530473,
        "entry_name": "F.C Hearts",
        "event_total": 55,
        "has_played": true,
        "id": 3567455,
        "last_rank": 59813,
        "player_name": "Mats Hjertum",
        "rank": 62778,
        "rank_sort": 62852,
        "total": 2344
      },
      {
        "club_badge_src": null,
        "entry": 539619,
        "entry_name": "Sayed",
        "event_total": 61,
        "has_played": true,
        "id": 3632225,
        "last_rank": 70985,
        "player_name": "Mohamad Al Sayed",
        "rank": 62778,
        "rank_sort": 62853,
        "total": 2344
      },
      {
        "club_badge_src": null,
        "entry": 542292,
        "entry_name": "So Good It Wirtz",
        "event_total": 73,
        "has_played": true,
        "id": 3649831,
        "last_rank": 88594,
        "player_name": "Rupert Bridges",
        "rank": 62778,
        "rank_sort": 62854,
        "total": 2344
      },
      {
        "club_badge_src": "https://fantasy.premierleague.com/gcs/plfpl-production-adobe-approved/plfpl-production/556794/4ec99623-a705-4c29-a81f-d858554b1e8b.png",
        "entry": 556794,
        "entry_name": "talhaha**",
        "event_total": 60,
        "has_played": true,
        "id": 3747291,
        "last_rank": 69323,
        "player_name": "Talha Saeed",
        "rank": 62778,
        "rank_sort": 62855,
        "total": 2344
      },
      {
        "club_badge_src": "https://fantasy.premierleague.com/gcs/plfpl-production-adobe-approved/plfpl-production/564576/10c82b96-d32d-4d6b-9e14-a448009a391e.png",
        "entry": 564576,
        "entry_name": "Jan-Chester United",
        "event_total": 47,
        "has_played": true,
        "id": 3800168,
        "last_rank": 47163,
        "player_name": "Jan Magnus Brusdal",
        "rank": 62778,
        "rank_sort": 62856,
        "total": 2344
      },
      {
        "club_badge_src": "https://fantasy.premierleague.com/gcs/plfpl-production-adobe-approved/plfpl-production/568939/b0a2ec9a-8fac-4611-b54b-5fbd0370a9e5.png",
        "entry": 568939,
        "entry_name": "A Bridge too VAR",
        "event_total": 72,
        "has_played": true,
        "id": 3829323,
        "last_rank": 95890,
        "player_name": "Frank McGovern",
        "rank": 62778,
        "rank_sort": 62857,
        "total": 2344
      },
      {
        "club_badge_src": "https://fantasy.premierleague.com/gcs/plfpl-production-adobe-approved/plfpl-production/571323/3302bfe3-9d63-427d-8bcd-bddf2ef2f50d.png",
        "entry": 571323,
        "entry_name": "Tub Goats",
        "event_total": 75,
        "has_played": true,
        "id": 3845080,
        "last_rank": 103526,
        "player_name": "Simon B",
        "rank": 62778,
        "rank_sort": 62858,
        "total": 2344
      },
      {
        "club_badge_src": null,
        "entry": 601121,
        "entry_name": "Charleswood BK",
        "event_total": 54,
        "has_played": true,
        "id": 4056062,
        "last_rank": 58388,
        "player_name": "Johan Lundell",
        "rank": 62778,
        "rank_sort": 62859,
        "total": 2344
      },
      {
        "club_badge_src": "https://fantasy.premierleague.com/gcs/plfpl-production-adobe-approved/plfpl-production/604727/605f94ee-7b0a-4e5a-bfd3-713d52ad0c96.png",
        "entry": 604727,
        "entry_name": "THE ONE ABOVE ALL",
        "event_total": 31,
        "has_played": true,
        "id": 4082495,
        "last_rank": 27976,
        "player_name": "Ofure Akpengbe",
        "rank": 62778,
        "rank_sort": 62860,
        "total": 2344
      },
      {
        "club_badge_src": "https://fantasy.premierleague.com/gcs/plfpl-production-adobe-approved/plfpl-production/608393/1c51d673-c2f7-4286-b57e-4e77a1c1c41b.png",
        "entry": 608393,
        "entry_name": "Pikemaster Generals*",
        "event_total": 83,
        "has_played": true,
        "id": 4109119,
        "last_rank": 126408,
        "player_name": "Phil Constantine",
        "rank": 62778,
        "rank_sort": 62861,
        "total": 2344
      },
      {
        "club_badge_src": "https://fantasy.premierleague.com/gcs/plfpl-production-adobe-approved/plfpl-production/610107/f5c229f5-7e7a-4746-9047-127604027bba.png",
        "entry": 610107,
        "entry_name": "Surreal Madrid",
        "event_total": 73,
        "has_played": true,
        "id": 4121667,
        "last_rank": 98436,
        "player_name": "seyoan vela",
        "rank": 62778,
        "rank_sort": 62862,
        "total": 2344
      },
      {
        "club_badge_src": null,
        "entry": 616869,
        "entry_name": "Team Chutney",
        "event_total": 43,
        "has_played": true,
        "id": 4168016,
        "last_rank": 41617,
        "player_name": "david holmes",
        "rank": 62778,
        "rank_sort": 62863,
        "total": 2344
      },
      {
        "club_badge_src": null,
        "entry": 681187,
        "entry_name": "No Piroe No Party",
        "event_total": 65,
        "has_played": true,
        "id": 4609882,
        "last_rank": 70985,
        "player_name": "Joseph Tindall",
        "rank": 62778,
        "rank_sort": 62864,
        "total": 2344
      },
      {
        "club_badge_src": null,
        "entry": 696542,
        "entry_name": "Next Season FC",
        "event_total": 47,
        "has_played": true,
        "id": 4717963,
        "last_rank": 47417,
        "player_name": "Alex Dodsworth",
        "rank": 62778,
        "rank_sort": 62865,
        "total": 2344
      },
      {
        "club_badge_src": null,
        "entry": 717414,
        "entry_name": "FPL Joey",
        "event_total": 52,
        "has_played": true,
        "id": 4867869,
        "last_rank": 55014,
        "player_name": "Joe Vile",
        "rank": 62778,
        "rank_sort": 62866,
        "total": 2344
      },
      {
        "club_badge_src": null,
        "entry": 758638,
        "entry_name": "Snertingdal Hotspur",
        "event_total": 67,
        "has_played": true,
        "id": 5168077,
        "last_rank": 75139,
        "player_name": "Olav Ligaarden",
        "rank": 62778,
        "rank_sort": 62867,
        "total": 2344
      },
      {
        "club_badge_src": null,
        "entry": 785017,
        "entry_name": "Ekitike-taka",
        "event_total": 51,
        "has_played": true,
        "id": 5363559,
        "last_rank": 53345,
        "player_name": "adam hazell",
        "rank": 62778,
        "rank_sort": 62868,
        "total": 2344
      },
      {
        "club_badge_src": "https://fantasy.premierleague.com/gcs/plfpl-production-adobe-approved/plfpl-production/787586/056358ee-34fe-4c04-945d-b89e929f7562.png",
        "entry": 787586,
        "entry_name": "Midas Fc",
        "event_total": 67,
        "has_played": true,
        "id": 5384710,
        "last_rank": 84360,
        "player_name": "Diyar kocdemir",
        "rank": 62778,
        "rank_sort": 62869,
        "total": 2344
      },
      {
        "club_badge_src": null,
        "entry": 804886,
        "entry_name": "Oi Saks",
        "event_total": 42,
        "has_played": true,
        "id": 5509782,
        "last_rank": 40503,
        "player_name": "Corey Bolden",
        "rank": 62778,
        "rank_sort": 62870,
        "total": 2344
      },
      {
        "club_badge_src": null,
        "entry": 836913,
        "entry_name": "WrestleManeia XI",
        "event_total": 59,
        "has_played": true,
        "id": 5733157,
        "last_rank": 67422,
        "player_name": "Ben McIlwaine",
        "rank": 62778,
        "rank_sort": 62871,
        "total": 2344
      },
      {
        "club_badge_src": "https://fantasy.premierleague.com/gcs/plfpl-production-adobe-approved/plfpl-production/838915/36ed2ab2-90ac-4a37-b62a-912767acd1d1.png",
        "entry": 838915,
        "entry_name": "YOUNG STRIKERZ",
        "event_total": 69,
        "has_played": true,
        "id": 5747828,
        "last_rank": 79431,
        "player_name": "Jerson Pereira",
        "rank": 62778,
        "rank_sort": 62872,
        "total": 2344
      },
      {
        "club_badge_src": null,
        "entry": 847960,
        "entry_name": "EDiego's Finest",
        "event_total": 58,
        "has_played": true,
        "id": 5811622,
        "last_rank": 58071,
        "player_name": "Eman Diego",
        "rank": 62778,
        "rank_sort": 62873,
        "total": 2344
      },
      {
        "club_badge_src": null,
        "entry": 871451,
        "entry_name": "Hakuna Mateta",
        "event_total": 38,
        "has_played": true,
        "id": 5974548,
        "last_rank": 35619,
        "player_name": "Luka Phelan",
        "rank": 62778,
        "rank_sort": 62874,
        "total": 2344
      },
      {
        "club_badge_src": null,
        "entry": 876212,
        "entry_name": "Chippy Chips & Salah",
        "event_total": 62,
        "has_played": true,
        "id": 6007269,
        "last_rank": 73038,
        "player_name": "Kerry Lake",
        "rank": 62778,
        "rank_sort": 62875,
        "total": 2344
      },
      {
        "club_badge_src": null,
        "entry": 883395,
        "entry_name": "GKFC",
        "event_total": 68,
        "has_played": true,
        "id": 6058347,
        "last_rank": 77050,
        "player_name": "Camilo Venegas",
        "rank": 62778,
        "rank_sort": 62876,
        "total": 2344
      },
      {
        "club_badge_src": null,
        "entry": 897665,
        "entry_name": "Maestro",
        "event_total": 55,
        "has_played": true,
        "id": 6167466,
        "last_rank": 53023,
        "player_name": "Maestro Kim",
        "rank": 62778,
        "rank_sort": 62877,
        "total": 2344
      },
      {
        "club_badge_src": null,
        "entry": 902804,
        "entry_name": "Wirtz Case Scenario",
        "event_total": 61,
        "has_played": true,
        "id": 6203333,
        "last_rank": 71386,
        "player_name": "Lorenzo Caci",
        "rank": 62778,
        "rank_sort": 62878,
        "total": 2344
      },
      {
        "club_badge_src": null,
        "entry": 905903,
        "entry_name": "mo?mahdy",
        "event_total": 68,
        "has_played": true,
        "id": 6226430,
        "last_rank": 86735,
        "player_name": "Mo-\ufe0fmahdy Mahdy",
        "rank": 62778,
        "rank_sort": 62879,
        "total": 2344
      },
      {
        "club_badge_src": null,
        "entry": 913166,
        "entry_name": "Matthijs Maestro's",
        "event_total": 49,
        "has_played": true,
        "id": 6278993,
        "last_rank": 50199,
        "player_name": "Matthijs Van der Veld",
        "rank": 62778,
        "rank_sort": 62880,
        "total": 2344
      },
      {
        "club_badge_src": null,
        "entry": 917902,
        "entry_name": "Gustaf S\u00f6derlind",
        "event_total": 49,
        "has_played": true,
        "id": 6312195,
        "last_rank": 49691,
        "player_name": "Gustaf S\u00f6derlind",
        "rank": 62778,
        "rank_sort": 62881,
        "total": 2344
      },
      {
        "club_badge_src": "https://fantasy.premierleague.com/gcs/plfpl-production-adobe-approved/plfpl-production/918344/93f15063-99e3-4e19-b7d7-871c41f60ac3.png",
        "entry": 918344,
        "entry_name": "The Special One",
        "event_total": 53,
        "has_played": true,
        "id": 6315355,
        "last_rank": 49880,
        "player_name": "Christophe Decker",
        "rank": 62778,
        "rank_sort": 62882,
        "total": 2344
      },
      {
        "club_badge_src": null,
        "entry": 921532,
        "entry_name": "Wirtz case scenario",
        "event_total": 57,
        "has_played": true,
        "id": 6337677,
        "last_rank": 63724,
        "player_name": "Austin Harwood-Stamper",
        "rank": 62778,
        "rank_sort": 62883,
        "total": 2344
      },
      {
        "club_badge_src": null,
        "entry": 947597,
        "entry_name": "P\u00e5l Roger",
        "event_total": 58,
        "has_played": true,
        "id": 6527143,
        "last_rank": 65475,
        "player_name": "Henrik Medhus",
        "rank": 62778,
        "rank_sort": 62884,
        "total": 2344
      },
      {
        "club_badge_src": null,
        "entry": 950901,
        "entry_name": "murderonzidanesfloor",
        "event_total": 50,
        "has_played": true,
        "id": 6551143,
        "last_rank": 51220,
        "player_name": "Dan Tolson",
        "rank": 62778,
        "rank_sort": 62885,
        "total": 2344
      },
      {
        "club_badge_src": "https://fantasy.premierleague.com/gcs/plfpl-production-adobe-approved/plfpl-production/956261/4ae2ab57-4a5d-4357-ba4d-09d27128c361.png",
        "entry": 956261,
        "entry_name": "alilo0uoo",
        "event_total": 30,
        "has_played": true,
        "id": 6588847,
        "last_rank": 27020,
        "player_name": "ali mlk",
        "rank": 62778,
        "rank_sort": 62886,
        "total": 2344
      },
      {
        "club_badge_src": "https://fantasy.premierleague.com/gcs/plfpl-production-adobe-approved/plfpl-production/970405/4e4d1e20-7f5a-4fbf-b8fb-64387e151a32.png",
        "entry": 970405,
        "entry_name": "Some Might Sels",
        "event_total": 62,
        "has_played": true,
        "id": 6689062,
        "last_rank": 73038,
        "player_name": "B Spencer",
        "rank": 62778,
        "rank_sort": 62887,
        "total": 2344
      },
      {
        "club_badge_src": null,
        "entry": 971793,
        "entry_name": "Udogie Day Afternoon",
        "event_total": 52,
        "has_played": true,
        "id": 6698959,
        "last_rank": 55014,
        "player_name": "Jack Spencer",
        "rank": 62778,
        "rank_sort": 62888,
        "total": 2344
      },
      {
        "club_badge_src": null,
        "entry": 975615,
        "entry_name": "Los Porro Hermanos",
        "event_total": 48,
        "has_played": true,
        "id": 6725451,
        "last_rank": 48642,
        "player_name": "Peter Fisher",
        "rank": 62778,
        "rank_sort": 62889,
        "total": 2344
      },
      {
        "club_badge_src": null,
        "entry": 982754,
        "entry_name": "Tom\u2019s Eleven F91",
        "event_total": 59,
        "has_played": true,
        "id": 6775559,
        "last_rank": 67422,
        "player_name": "Tomohiro Otani",
        "rank": 62778,
        "rank_sort": 62890,
        "total": 2344
      },
      {
        "club_badge_src": null,
        "entry": 993457,
        "entry_name": "Phennahbache",
        "event_total": 60,
        "has_played": true,
        "id": 6852683,
        "last_rank": 68957,
        "player_name": "Tom Phennah",
        "rank": 62778,
        "rank_sort": 62891,
        "total": 2344
      },
      {
        "club_badge_src": null,
        "entry": 1023979,
        "entry_name": "Chippy Chips & Gyok",
        "event_total": 56,
        "has_played": true,
        "id": 7084451,
        "last_rank": 61606,
        "player_name": "Jackson Black",
        "rank": 62778,
        "rank_sort": 62892,
        "total": 2344
      },
      {
        "club_badge_src": null,
        "entry": 1024114,
        "entry_name": "Red nose Reijnders",
        "event_total": 75,
        "has_played": true,
        "id": 7085369,
        "last_rank": 93186,
        "player_name": "Ciaran Willmore",
        "rank": 62778,
        "rank_sort": 62893,
        "total": 2344
      },
      {
        "club_badge_src": null,
        "entry": 1049206,
        "entry_name": "YOLO Toure",
        "event_total": 61,
        "has_played": true,
        "id": 7261052,
        "last_rank": 70757,
        "player_name": "Kenny Plain",
        "rank": 62778,
        "rank_sort": 62894,
        "total": 2344
      },
      {
        "club_badge_src": "https://fantasy.premierleague.com/gcs/plfpl-production-adobe-approved/plfpl-production/1079271/a41034ca-5865-4f2d-b2f0-0826d31464e5.png",
        "entry": 1079271,
        "entry_name": "Hayman",
        "event_total": 73,
        "has_played": true,
        "id": 7473017,
        "last_rank": 98436,
        "player_name": "Hayman Wong",
        "rank": 62778,
        "rank_sort": 62895,
        "total": 2344
      },
      {
        "club_badge_src": null,
        "entry": 1121594,
        "entry_name": "TheDevilWearsBruno",
        "event_total": 51,
        "has_played": true,
        "id": 7770345,
        "last_rank": 53345,
        "player_name": "Matt Monday",
        "rank": 62778,
        "rank_sort": 62896,
        "total": 2344
      },
      {
        "club_badge_src": null,
        "entry": 1140236,
        "entry_name": "Jurgen Off",
        "event_total": 72,
        "has_played": true,
        "id": 7903957,
        "last_rank": 86054,
        "player_name": "JJ Owen",
        "rank": 62778,
        "rank_sort": 62897,
        "total": 2344
      },
      {
        "club_badge_src": null,
        "entry": 1161202,
        "entry_name": "jetmoney",
        "event_total": 44,
        "has_played": true,
        "id": 8055139,
        "last_rank": 42940,
        "player_name": "jethro dede",
        "rank": 62778,
        "rank_sort": 62898,
        "total": 2344
      },
      {
        "club_badge_src": null,
        "entry": 1164165,
        "entry_name": "charrouque du sade",
        "event_total": 57,
        "has_played": true,
        "id": 8075875,
        "last_rank": 63724,
        "player_name": "Rui Marcelino",
        "rank": 62778,
        "rank_sort": 62899,
        "total": 2344
      },
      {
        "club_badge_src": "https://fantasy.premierleague.com/gcs/plfpl-production-adobe-approved/plfpl-production/1169533/4e1a6498-9f2c-4fcb-8211-ec18fc7aa6d0.png",
        "entry": 1169533,
        "entry_name": "No Doubt",
        "event_total": 54,
        "has_played": true,
        "id": 8113479,
        "last_rank": 58071,
        "player_name": "Peter Young",
        "rank": 62778,
        "rank_sort": 62900,
        "total": 2344
      }
    ]
  }
}