{
  "last_updated_data": "2026-05-24T23:28:17Z",
  "league": {
    "admin_entry": null,
    "closed": false,
    "code_privacy": "p",
    "created": "2025-07-20T23:14:33.933835Z",
    "cup_league": 2815434,
    "has_cup": true,
    "id": 314,
    "league_type": "s",
    "max_entries": null,
    "name": "Overall",
    "rank": null,
    "scoring": "c",
    "start_event": 1
  },
  "new_entries": {
    "has_next": false,
    "page": 1,
    "results": []
  },
  "standings": {
    "has_next": true,
    "page": 248,
    "results": [
      {
        "club_badge_src": null,
        "entry": 4316564,
        "entry_name": "N\u00e4ytt\u00e4v\u00e4 Ryhm\u00e4",
        "event_total": 61,
        "has_played": true,
        "id": 32756529,
        "last_rank": 11699,
        "player_name": "Eemil Aavikko",
        "rank": 12272,
        "rank_sort": 12351,
        "total": 2393
      },
      {
        "club_badge_src": null,
        "entry": 4407627,
        "entry_name": "Cole E Form",
        "event_total": 64,
        "has_played": true,
        "id": 33526462,
        "last_rank": 15694,
        "player_name": "Shachar Dayan",
        "rank": 12272,
        "rank_sort": 12352,
        "total": 2393
      },
      {
        "club_badge_src": "https://fantasy.premierleague.com/gcs/plfpl-production-adobe-approved/plfpl-production/4534147/6a2b4a24-e122-4e84-8ee8-de66d44aad95.png",
        "entry": 4534147,
        "entry_name": "Club Tropicana",
        "event_total": 62,
        "has_played": true,
        "id": 34587602,
        "last_rank": 14370,
        "player_name": "Andy Symons",
        "rank": 12272,
        "rank_sort": 12353,
        "total": 2393
      },
      {
        "club_badge_src": null,
        "entry": 4884540,
        "entry_name": "Haaaaaalais",
        "event_total": 67,
        "has_played": true,
        "id": 37657065,
        "last_rank": 17358,
        "player_name": "John Magne Hardersen",
        "rank": 12272,
        "rank_sort": 12354,
        "total": 2393
      },
      {
        "club_badge_src": null,
        "entry": 5213321,
        "entry_name": "Boushy",
        "event_total": 71,
        "has_played": true,
        "id": 40382699,
        "last_rank": 20280,
        "player_name": "Sara Mo",
        "rank": 12272,
        "rank_sort": 12355,
        "total": 2393
      },
      {
        "club_badge_src": null,
        "entry": 5347504,
        "entry_name": "Metavoid",
        "event_total": 51,
        "has_played": true,
        "id": 41496353,
        "last_rank": 7625,
        "player_name": "Anna Tuovinen",
        "rank": 12272,
        "rank_sort": 12356,
        "total": 2393
      },
      {
        "club_badge_src": null,
        "entry": 5519198,
        "entry_name": "Could Be Wirtz",
        "event_total": 53,
        "has_played": true,
        "id": 43035157,
        "last_rank": 10031,
        "player_name": "Jonny Kniveton",
        "rank": 12272,
        "rank_sort": 12357,
        "total": 2393
      },
      {
        "club_badge_src": null,
        "entry": 5551370,
        "entry_name": "BBKBlues",
        "event_total": 78,
        "has_played": true,
        "id": 43327614,
        "last_rank": 25902,
        "player_name": "Erik Andersson",
        "rank": 12272,
        "rank_sort": 12358,
        "total": 2393
      },
      {
        "club_badge_src": null,
        "entry": 5668226,
        "entry_name": "WhoToPick",
        "event_total": 69,
        "has_played": true,
        "id": 44352040,
        "last_rank": 16163,
        "player_name": "Anesh Junak",
        "rank": 12272,
        "rank_sort": 12359,
        "total": 2393
      },
      {
        "club_badge_src": null,
        "entry": 5773323,
        "entry_name": "Bambino's FC",
        "event_total": 56,
        "has_played": true,
        "id": 45265042,
        "last_rank": 11345,
        "player_name": "Claire Robinson",
        "rank": 12272,
        "rank_sort": 12360,
        "total": 2393
      },
      {
        "club_badge_src": null,
        "entry": 5925303,
        "entry_name": "Sesko to None",
        "event_total": 64,
        "has_played": true,
        "id": 46576275,
        "last_rank": 13257,
        "player_name": "Kieran Doherty",
        "rank": 12272,
        "rank_sort": 12361,
        "total": 2393
      },
      {
        "club_badge_src": null,
        "entry": 7150058,
        "entry_name": "FC VARcelona",
        "event_total": 59,
        "has_played": true,
        "id": 57654347,
        "last_rank": 10805,
        "player_name": "Tim Steadman",
        "rank": 12272,
        "rank_sort": 12362,
        "total": 2393
      },
      {
        "club_badge_src": null,
        "entry": 7215384,
        "entry_name": "Abdou kh",
        "event_total": 52,
        "has_played": true,
        "id": 58278979,
        "last_rank": 9711,
        "player_name": "Abdou mun",
        "rank": 12272,
        "rank_sort": 12363,
        "total": 2393
      },
      {
        "club_badge_src": null,
        "entry": 7379638,
        "entry_name": "Howe'sHeManagedThat",
        "event_total": 63,
        "has_played": true,
        "id": 59823220,
        "last_rank": 15063,
        "player_name": "Caoimh\u00edn \u00d3 Loide\u00e1in",
        "rank": 12272,
        "rank_sort": 12364,
        "total": 2393
      },
      {
        "club_badge_src": "https://fantasy.premierleague.com/gcs/plfpl-production-adobe-approved/plfpl-production/7673726/cc579c84-9448-4c7c-af68-88e4a1ba25d3.png",
        "entry": 7673726,
        "entry_name": "Nour's Team",
        "event_total": 63,
        "has_played": true,
        "id": 62934971,
        "last_rank": 14926,
        "player_name": "nour ahmed",
        "rank": 12272,
        "rank_sort": 12365,
        "total": 2393
      },
      {
        "club_badge_src": null,
        "entry": 7752869,
        "entry_name": "Tihe Ubice",
        "event_total": 54,
        "has_played": true,
        "id": 63647196,
        "last_rank": 10462,
        "player_name": "Bogdan Mrksic",
        "rank": 12272,
        "rank_sort": 12366,
        "total": 2393
      },
      {
        "club_badge_src": null,
        "entry": 7824776,
        "entry_name": "Always on Top",
        "event_total": 65,
        "has_played": true,
        "id": 64298169,
        "last_rank": 16163,
        "player_name": "Kash Hussain",
        "rank": 12272,
        "rank_sort": 12367,
        "total": 2393
      },
      {
        "club_badge_src": null,
        "entry": 8584188,
        "entry_name": "jesus take the wheel",
        "event_total": 32,
        "has_played": true,
        "id": 71445651,
        "last_rank": 3902,
        "player_name": "Lottie Whitehead",
        "rank": 12272,
        "rank_sort": 12368,
        "total": 2393
      },
      {
        "club_badge_src": null,
        "entry": 8605221,
        "entry_name": "Risky Kicks",
        "event_total": 59,
        "has_played": true,
        "id": 71648287,
        "last_rank": 12846,
        "player_name": "Neha Mishra",
        "rank": 12272,
        "rank_sort": 12369,
        "total": 2393
      },
      {
        "club_badge_src": "https://fantasy.premierleague.com/gcs/plfpl-production-adobe-approved/plfpl-production/9373692/ac979227-9ec7-4ef0-abd2-09ae5d764858.png",
        "entry": 9373692,
        "entry_name": "Magic Mavericks",
        "event_total": 37,
        "has_played": true,
        "id": 79117542,
        "last_rank": 4954,
        "player_name": "Adam Rooke",
        "rank": 12272,
        "rank_sort": 12370,
        "total": 2393
      },
      {
        "club_badge_src": null,
        "entry": 8683,
        "entry_name": "Dog FC",
        "event_total": 62,
        "has_played": true,
        "id": 50622,
        "last_rank": 12322,
        "player_name": "Rick Porter",
        "rank": 12371,
        "rank_sort": 12371,
        "total": 2393
      },
      {
        "club_badge_src": null,
        "entry": 30583,
        "entry_name": "Baba Hunks FC.",
        "event_total": 62,
        "has_played": true,
        "id": 193542,
        "last_rank": 12322,
        "player_name": "Abdulkadir Othman",
        "rank": 12371,
        "rank_sort": 12372,
        "total": 2393
      },
      {
        "club_badge_src": "https://fantasy.premierleague.com/gcs/plfpl-production-adobe-approved/plfpl-production/42961/c0b9e350-0da8-4058-8c01-63bde1db7b7f.png",
        "entry": 42961,
        "entry_name": "Azpin utd",
        "event_total": 67,
        "has_played": true,
        "id": 275164,
        "last_rank": 15063,
        "player_name": "Jay Dawney",
        "rank": 12371,
        "rank_sort": 12373,
        "total": 2393
      },
      {
        "club_badge_src": null,
        "entry": 54817,
        "entry_name": "OVEC TEAM",
        "event_total": 51,
        "has_played": true,
        "id": 352792,
        "last_rank": 9311,
        "player_name": "Victory Echenaluchi",
        "rank": 12371,
        "rank_sort": 12374,
        "total": 2393
      },
      {
        "club_badge_src": null,
        "entry": 114688,
        "entry_name": "Shaw ate Dalot",
        "event_total": 51,
        "has_played": true,
        "id": 748177,
        "last_rank": 9311,
        "player_name": "Kamil Pietraszewski",
        "rank": 12371,
        "rank_sort": 12375,
        "total": 2393
      },
      {
        "club_badge_src": null,
        "entry": 131614,
        "entry_name": "Caramel Papeccino",
        "event_total": 62,
        "has_played": true,
        "id": 857432,
        "last_rank": 12322,
        "player_name": "Jamie Baker",
        "rank": 12371,
        "rank_sort": 12376,
        "total": 2393
      },
      {
        "club_badge_src": "https://fantasy.premierleague.com/gcs/plfpl-production-adobe-approved/plfpl-production/139036/3045b25b-94ec-420b-9543-2b224ad63476.png",
        "entry": 139036,
        "entry_name": "FALL GUYS FC",
        "event_total": 62,
        "has_played": true,
        "id": 907265,
        "last_rank": 12200,
        "player_name": "Brendan Pereira",
        "rank": 12371,
        "rank_sort": 12377,
        "total": 2393
      },
      {
        "club_badge_src": null,
        "entry": 148579,
        "entry_name": "MAN UTD FANS VOICE",
        "event_total": 66,
        "has_played": true,
        "id": 973975,
        "last_rank": 16959,
        "player_name": "Manolis Vomvas",
        "rank": 12371,
        "rank_sort": 12378,
        "total": 2393
      },
      {
        "club_badge_src": "https://fantasy.premierleague.com/gcs/plfpl-production-adobe-approved/plfpl-production/180346/5d497132-9761-4ea0-9be9-2eab683f17f4.png",
        "entry": 180346,
        "entry_name": "PetRock",
        "event_total": 52,
        "has_played": true,
        "id": 1190145,
        "last_rank": 9644,
        "player_name": "Brendan Hunt",
        "rank": 12371,
        "rank_sort": 12379,
        "total": 2393
      },
      {
        "club_badge_src": "https://fantasy.premierleague.com/gcs/plfpl-production-adobe-approved/plfpl-production/188128/b30b36f4-20f2-467a-9a20-444896b2e4cb.png",
        "entry": 188128,
        "entry_name": "roronoa zoro",
        "event_total": 65,
        "has_played": true,
        "id": 1244386,
        "last_rank": 16441,
        "player_name": "A7MED ALI",
        "rank": 12371,
        "rank_sort": 12380,
        "total": 2393
      },
      {
        "club_badge_src": null,
        "entry": 225068,
        "entry_name": "Frimpingpong",
        "event_total": 65,
        "has_played": true,
        "id": 1497184,
        "last_rank": 16163,
        "player_name": "Chris Moustaka",
        "rank": 12371,
        "rank_sort": 12381,
        "total": 2393
      },
      {
        "club_badge_src": "https://fantasy.premierleague.com/gcs/plfpl-production-adobe-approved/plfpl-production/268549/754a9c8f-bd8d-4e89-aa80-4adfaa050f7b.png",
        "entry": 268549,
        "entry_name": "Davidshalls Demoner",
        "event_total": 64,
        "has_played": true,
        "id": 1786534,
        "last_rank": 13401,
        "player_name": "Anton Fredriksson",
        "rank": 12371,
        "rank_sort": 12382,
        "total": 2393
      },
      {
        "club_badge_src": null,
        "entry": 318127,
        "entry_name": "Not a Salomon Kalou",
        "event_total": 68,
        "has_played": true,
        "id": 2132434,
        "last_rank": 18377,
        "player_name": "Jack Elliott",
        "rank": 12371,
        "rank_sort": 12383,
        "total": 2393
      },
      {
        "club_badge_src": null,
        "entry": 318971,
        "entry_name": "Change Name",
        "event_total": 69,
        "has_played": true,
        "id": 2138121,
        "last_rank": 16320,
        "player_name": "Kane Parsons",
        "rank": 12371,
        "rank_sort": 12384,
        "total": 2393
      },
      {
        "club_badge_src": "https://fantasy.premierleague.com/gcs/plfpl-production-adobe-approved/plfpl-production/322484/2c3987a4-1a59-4f49-a60f-824155edaafb.png",
        "entry": 322484,
        "entry_name": "Ready Teddy Go!",
        "event_total": 61,
        "has_played": true,
        "id": 2161080,
        "last_rank": 14040,
        "player_name": "James Wiltshire",
        "rank": 12371,
        "rank_sort": 12385,
        "total": 2393
      },
      {
        "club_badge_src": null,
        "entry": 347771,
        "entry_name": "marcus2barca",
        "event_total": 64,
        "has_played": true,
        "id": 2327780,
        "last_rank": 15876,
        "player_name": "Simon vijfdrieachteen",
        "rank": 12371,
        "rank_sort": 12386,
        "total": 2393
      },
      {
        "club_badge_src": null,
        "entry": 382995,
        "entry_name": "MPG FC",
        "event_total": 72,
        "has_played": true,
        "id": 2568335,
        "last_rank": 18270,
        "player_name": "Magnus Gundersen",
        "rank": 12371,
        "rank_sort": 12387,
        "total": 2393
      },
      {
        "club_badge_src": null,
        "entry": 442968,
        "entry_name": "Green Army",
        "event_total": 62,
        "has_played": true,
        "id": 2969938,
        "last_rank": 12322,
        "player_name": "Phillip Black",
        "rank": 12371,
        "rank_sort": 12388,
        "total": 2393
      },
      {
        "club_badge_src": "https://fantasy.premierleague.com/gcs/plfpl-production-adobe-approved/plfpl-production/466831/86219d90-8cc0-4c2e-a17c-518a0fc92fe2.png",
        "entry": 466831,
        "entry_name": "The Holy Grail",
        "event_total": 47,
        "has_played": true,
        "id": 3132443,
        "last_rank": 7676,
        "player_name": "Michael Anigbo",
        "rank": 12371,
        "rank_sort": 12389,
        "total": 2393
      },
      {
        "club_badge_src": "https://fantasy.premierleague.com/gcs/plfpl-production-adobe-approved/plfpl-production/539140/5e744909-e712-46c0-9f89-e5f08eacc450.png",
        "entry": 539140,
        "entry_name": "Stiv Brus XI",
        "event_total": 52,
        "has_played": true,
        "id": 3628962,
        "last_rank": 9644,
        "player_name": "Are Terjeson",
        "rank": 12371,
        "rank_sort": 12390,
        "total": 2393
      },
      {
        "club_badge_src": null,
        "entry": 594987,
        "entry_name": "Batman McGinns",
        "event_total": 61,
        "has_played": true,
        "id": 4010729,
        "last_rank": 9942,
        "player_name": "Petter Koen",
        "rank": 12371,
        "rank_sort": 12391,
        "total": 2393
      },
      {
        "club_badge_src": null,
        "entry": 630394,
        "entry_name": "Holden McGroin",
        "event_total": 67,
        "has_played": true,
        "id": 4259858,
        "last_rank": 17585,
        "player_name": "Bradlee Moodley",
        "rank": 12371,
        "rank_sort": 12392,
        "total": 2393
      },
      {
        "club_badge_src": "https://fantasy.premierleague.com/gcs/plfpl-production-adobe-approved/plfpl-production/631455/9378da0c-839c-4fa8-b989-06a5fbdea236.png",
        "entry": 631455,
        "entry_name": "Livin' Lavia Loca",
        "event_total": 61,
        "has_played": true,
        "id": 4266825,
        "last_rank": 13947,
        "player_name": "Eric Chow",
        "rank": 12371,
        "rank_sort": 12393,
        "total": 2393
      },
      {
        "club_badge_src": null,
        "entry": 640636,
        "entry_name": "Change Name",
        "event_total": 40,
        "has_played": true,
        "id": 4329638,
        "last_rank": 5820,
        "player_name": "chris dixon",
        "rank": 12371,
        "rank_sort": 12394,
        "total": 2393
      },
      {
        "club_badge_src": "https://fantasy.premierleague.com/gcs/plfpl-production-adobe-approved/plfpl-production/673050/6d602c04-0f5a-4471-8154-f56684b49758.png",
        "entry": 673050,
        "entry_name": "\u26bd\u26bd\u26bd\u05df\u01dd\u01dd\u0287S \u025fo s\u05df\u05df\u0250\ua4ed\u26bd\u26bd\u26bd",
        "event_total": 71,
        "has_played": true,
        "id": 4552864,
        "last_rank": 20538,
        "player_name": "Veikko Karjalainen",
        "rank": 12371,
        "rank_sort": 12395,
        "total": 2393
      },
      {
        "club_badge_src": null,
        "entry": 720251,
        "entry_name": "Rohl with it fc",
        "event_total": 63,
        "has_played": true,
        "id": 4889810,
        "last_rank": 15164,
        "player_name": "Paul Griffin",
        "rank": 12371,
        "rank_sort": 12396,
        "total": 2393
      },
      {
        "club_badge_src": "https://fantasy.premierleague.com/gcs/plfpl-production-adobe-approved/plfpl-production/756632/2043eb99-59c9-47b6-af79-1c6db89858c4.png",
        "entry": 756632,
        "entry_name": "Vibe Flow FC",
        "event_total": 56,
        "has_played": true,
        "id": 5151340,
        "last_rank": 9644,
        "player_name": "Will Bewley",
        "rank": 12371,
        "rank_sort": 12397,
        "total": 2393
      },
      {
        "club_badge_src": "https://fantasy.premierleague.com/gcs/plfpl-production-adobe-approved/plfpl-production/786754/e3fc56af-4ed1-4504-a11b-313314211146.png",
        "entry": 786754,
        "entry_name": "toon_bArmy",
        "event_total": 47,
        "has_played": true,
        "id": 5377893,
        "last_rank": 7822,
        "player_name": "Stephen Palmer",
        "rank": 12371,
        "rank_sort": 12398,
        "total": 2393
      },
      {
        "club_badge_src": null,
        "entry": 855553,
        "entry_name": "FiXiT",
        "event_total": 71,
        "has_played": true,
        "id": 5864423,
        "last_rank": 20538,
        "player_name": "Rozeen Nakarmi",
        "rank": 12371,
        "rank_sort": 12399,
        "total": 2393
      },
      {
        "club_badge_src": null,
        "entry": 857887,
        "entry_name": "Ragy",
        "event_total": 56,
        "has_played": true,
        "id": 5880850,
        "last_rank": 11419,
        "player_name": "Ragy -\u0631\u0627\u062c\u064a \u0627\u0646\u0648\u0631",
        "rank": 12371,
        "rank_sort": 12400,
        "total": 2393
      }
    ]
  }
}