{
  "last_updated_data": "2026-05-24T23:28:17Z",
  "league": {
    "admin_entry": null,
    "closed": false,
    "code_privacy": "p",
    "created": "2025-07-20T23:14:33.933835Z",
    "cup_league": 2815434,
    "has_cup": true,
    "id": 314,
    "league_type": "s",
    "max_entries": null,
    "name": "Overall",
    "rank": null,
    "scoring": "c",
    "start_event": 1
  },
  "new_entries": {
    "has_next": false,
    "page": 1,
    "results": []
  },
  "standings": {
    "has_next": true,
    "page": 1491,
    "results": [
      {
        "club_badge_src": null,
        "entry": 4487671,
        "entry_name": "Forza Lev",
        "event_total": 68,
        "has_played": true,
        "id": 34205516,
        "last_rank": 101818,
        "player_name": "Adam Lev",
        "rank": 74308,
        "rank_sort": 74501,
        "total": 2338
      },
      {
        "club_badge_src": null,
        "entry": 4543133,
        "entry_name": "Jonjo Shelvey",
        "event_total": 53,
        "has_played": true,
        "id": 34660829,
        "last_rank": 67695,
        "player_name": "Gavin Delamere",
        "rank": 74308,
        "rank_sort": 74502,
        "total": 2338
      },
      {
        "club_badge_src": null,
        "entry": 4551437,
        "entry_name": "Drogbas11",
        "event_total": 55,
        "has_played": true,
        "id": 34727652,
        "last_rank": 56369,
        "player_name": "Max Jones",
        "rank": 74308,
        "rank_sort": 74503,
        "total": 2338
      },
      {
        "club_badge_src": null,
        "entry": 4570349,
        "entry_name": "powered by Mo",
        "event_total": 66,
        "has_played": true,
        "id": 34879248,
        "last_rank": 96374,
        "player_name": "mohammed alqutami",
        "rank": 74308,
        "rank_sort": 74504,
        "total": 2338
      },
      {
        "club_badge_src": null,
        "entry": 4621379,
        "entry_name": "86_\u00d6u7r@g\u20ac\u00f8u$",
        "event_total": 65,
        "has_played": true,
        "id": 35324907,
        "last_rank": 93443,
        "player_name": "Kamren Senior",
        "rank": 74308,
        "rank_sort": 74505,
        "total": 2338
      },
      {
        "club_badge_src": null,
        "entry": 4641543,
        "entry_name": "Boehly Grail",
        "event_total": 53,
        "has_played": true,
        "id": 35500974,
        "last_rank": 60168,
        "player_name": "Louis Anderson",
        "rank": 74308,
        "rank_sort": 74506,
        "total": 2338
      },
      {
        "club_badge_src": null,
        "entry": 4688631,
        "entry_name": "Major League Saka",
        "event_total": 73,
        "has_played": true,
        "id": 35934371,
        "last_rank": 103978,
        "player_name": "Patrick Griffin",
        "rank": 74308,
        "rank_sort": 74507,
        "total": 2338
      },
      {
        "club_badge_src": null,
        "entry": 4700978,
        "entry_name": "LEGGEnds 25-26",
        "event_total": 57,
        "has_played": true,
        "id": 36038475,
        "last_rank": 67422,
        "player_name": "Joe Legge",
        "rank": 74308,
        "rank_sort": 74508,
        "total": 2338
      },
      {
        "club_badge_src": null,
        "entry": 4705687,
        "entry_name": "Yorovision",
        "event_total": 52,
        "has_played": true,
        "id": 36080787,
        "last_rank": 65796,
        "player_name": "Yorkor Baffour",
        "rank": 74308,
        "rank_sort": 74509,
        "total": 2338
      },
      {
        "club_badge_src": "https://fantasy.premierleague.com/gcs/plfpl-production-adobe-approved/plfpl-production/4803295/53d9d6d0-a1b3-4815-ad95-f86211e50f51.png",
        "entry": 4803295,
        "entry_name": "Sebenak fc",
        "event_total": 62,
        "has_played": true,
        "id": 36983223,
        "last_rank": 86735,
        "player_name": "Aiman Hasrin",
        "rank": 74308,
        "rank_sort": 74510,
        "total": 2338
      },
      {
        "club_badge_src": null,
        "entry": 4830989,
        "entry_name": "Pirates",
        "event_total": 53,
        "has_played": true,
        "id": 37208177,
        "last_rank": 60168,
        "player_name": "Rajes Timilsii",
        "rank": 74308,
        "rank_sort": 74511,
        "total": 2338
      },
      {
        "club_badge_src": null,
        "entry": 4884678,
        "entry_name": "The Stretford Enders",
        "event_total": 62,
        "has_played": true,
        "id": 37658165,
        "last_rank": 77676,
        "player_name": "Chaikou Diallo",
        "rank": 74308,
        "rank_sort": 74512,
        "total": 2338
      },
      {
        "club_badge_src": null,
        "entry": 5018053,
        "entry_name": "yoksters",
        "event_total": 54,
        "has_played": true,
        "id": 38752754,
        "last_rank": 68957,
        "player_name": "Andrew Tomlinson",
        "rank": 74308,
        "rank_sort": 74513,
        "total": 2338
      },
      {
        "club_badge_src": null,
        "entry": 5022545,
        "entry_name": "Topnotch fc",
        "event_total": 55,
        "has_played": true,
        "id": 38789049,
        "last_rank": 71956,
        "player_name": "Cypher Benzel",
        "rank": 74308,
        "rank_sort": 74514,
        "total": 2338
      },
      {
        "club_badge_src": null,
        "entry": 5052307,
        "entry_name": "Team Matabjeff",
        "event_total": 54,
        "has_played": true,
        "id": 39036204,
        "last_rank": 69641,
        "player_name": "Karl Erik Drivenes Hevr\u00f8y",
        "rank": 74308,
        "rank_sort": 74515,
        "total": 2338
      },
      {
        "club_badge_src": null,
        "entry": 5091083,
        "entry_name": "11 Sangalow",
        "event_total": 61,
        "has_played": true,
        "id": 39349337,
        "last_rank": 75537,
        "player_name": "Segun Adelakun",
        "rank": 74308,
        "rank_sort": 74516,
        "total": 2338
      },
      {
        "club_badge_src": null,
        "entry": 5104605,
        "entry_name": "white walkers",
        "event_total": 38,
        "has_played": true,
        "id": 39457639,
        "last_rank": 43342,
        "player_name": "Ramah Alawad",
        "rank": 74308,
        "rank_sort": 74517,
        "total": 2338
      },
      {
        "club_badge_src": null,
        "entry": 5161070,
        "entry_name": "Shoulda Woulda Cunha",
        "event_total": 35,
        "has_played": true,
        "id": 39937565,
        "last_rank": 39246,
        "player_name": "Craig Michael Stephen",
        "rank": 74308,
        "rank_sort": 74518,
        "total": 2338
      },
      {
        "club_badge_src": "https://fantasy.premierleague.com/gcs/plfpl-production-adobe-approved/plfpl-production/5199460/65577220-844a-4515-82e3-bc9870f97bd1.png",
        "entry": 5199460,
        "entry_name": "cactus.llc",
        "event_total": 59,
        "has_played": true,
        "id": 40263913,
        "last_rank": 79817,
        "player_name": "Sheriff Babson",
        "rank": 74308,
        "rank_sort": 74519,
        "total": 2338
      },
      {
        "club_badge_src": "https://fantasy.premierleague.com/gcs/plfpl-production-adobe-approved/plfpl-production/5299894/2222174d-f581-40b8-9801-1cd2e324b3ef.png",
        "entry": 5299894,
        "entry_name": "Foxy FC",
        "event_total": 48,
        "has_played": true,
        "id": 41082159,
        "last_rank": 58688,
        "player_name": "Simamkele Ntshokoma",
        "rank": 74308,
        "rank_sort": 74520,
        "total": 2338
      },
      {
        "club_badge_src": null,
        "entry": 5345899,
        "entry_name": "Alsboog",
        "event_total": 75,
        "has_played": true,
        "id": 41478754,
        "last_rank": 98436,
        "player_name": "Ahmed Almubarak",
        "rank": 74308,
        "rank_sort": 74521,
        "total": 2338
      },
      {
        "club_badge_src": null,
        "entry": 5410129,
        "entry_name": "Obi Wan Kenobi Nil",
        "event_total": 71,
        "has_played": true,
        "id": 42070985,
        "last_rank": 109863,
        "player_name": "John Farrow",
        "rank": 74308,
        "rank_sort": 74522,
        "total": 2338
      },
      {
        "club_badge_src": null,
        "entry": 5421102,
        "entry_name": "1st",
        "event_total": 45,
        "has_played": true,
        "id": 42162660,
        "last_rank": 53837,
        "player_name": "Sahil Khan",
        "rank": 74308,
        "rank_sort": 74523,
        "total": 2338
      },
      {
        "club_badge_src": "https://fantasy.premierleague.com/gcs/plfpl-production-adobe-approved/plfpl-production/5446150/6b1116aa-a993-473c-9a29-a1716090a3ed.png",
        "entry": 5446150,
        "entry_name": "Tipbrit United",
        "event_total": 58,
        "has_played": true,
        "id": 42376064,
        "last_rank": 77676,
        "player_name": "Mark Tipple",
        "rank": 74308,
        "rank_sort": 74524,
        "total": 2338
      },
      {
        "club_badge_src": null,
        "entry": 5469087,
        "entry_name": "Cole and the Gang",
        "event_total": 75,
        "has_played": true,
        "id": 42567276,
        "last_rank": 120438,
        "player_name": "Craig Fulton",
        "rank": 74308,
        "rank_sort": 74525,
        "total": 2338
      },
      {
        "club_badge_src": null,
        "entry": 5500784,
        "entry_name": "TANCELOTTI",
        "event_total": 49,
        "has_played": true,
        "id": 42860866,
        "last_rank": 60462,
        "player_name": "Galin Minkov",
        "rank": 74308,
        "rank_sort": 74526,
        "total": 2338
      },
      {
        "club_badge_src": null,
        "entry": 5587093,
        "entry_name": "ChatGPT FC",
        "event_total": 64,
        "has_played": true,
        "id": 43644939,
        "last_rank": 91835,
        "player_name": "Emil Nymoen",
        "rank": 74308,
        "rank_sort": 74527,
        "total": 2338
      },
      {
        "club_badge_src": null,
        "entry": 5599080,
        "entry_name": "Piiiipe",
        "event_total": 47,
        "has_played": true,
        "id": 43748488,
        "last_rank": 56708,
        "player_name": "Nonthapat Pipe",
        "rank": 74308,
        "rank_sort": 74528,
        "total": 2338
      },
      {
        "club_badge_src": null,
        "entry": 5641552,
        "entry_name": "Tell me Moore",
        "event_total": 66,
        "has_played": true,
        "id": 44119444,
        "last_rank": 86735,
        "player_name": "William Gluyas",
        "rank": 74308,
        "rank_sort": 74529,
        "total": 2338
      },
      {
        "club_badge_src": null,
        "entry": 5699005,
        "entry_name": "wwq",
        "event_total": 64,
        "has_played": true,
        "id": 44619247,
        "last_rank": 91466,
        "player_name": "aliv x",
        "rank": 74308,
        "rank_sort": 74530,
        "total": 2338
      },
      {
        "club_badge_src": null,
        "entry": 5771657,
        "entry_name": "AKJ KWIDZYN",
        "event_total": 46,
        "has_played": true,
        "id": 45251235,
        "last_rank": 55311,
        "player_name": "olis inho",
        "rank": 74308,
        "rank_sort": 74531,
        "total": 2338
      },
      {
        "club_badge_src": null,
        "entry": 5830854,
        "entry_name": "Shinners Winners 6.0",
        "event_total": 64,
        "has_played": true,
        "id": 45765946,
        "last_rank": 91466,
        "player_name": "Sean Anderson",
        "rank": 74308,
        "rank_sort": 74532,
        "total": 2338
      },
      {
        "club_badge_src": null,
        "entry": 5879534,
        "entry_name": "BigBlueBalls",
        "event_total": 59,
        "has_played": true,
        "id": 46183287,
        "last_rank": 80194,
        "player_name": "Abhishek Agarwal",
        "rank": 74308,
        "rank_sort": 74533,
        "total": 2338
      },
      {
        "club_badge_src": null,
        "entry": 6057140,
        "entry_name": "joddson",
        "event_total": 50,
        "has_played": true,
        "id": 47801144,
        "last_rank": 61950,
        "player_name": "Martin Johansson",
        "rank": 74308,
        "rank_sort": 74534,
        "total": 2338
      },
      {
        "club_badge_src": null,
        "entry": 6148588,
        "entry_name": "Send Her",
        "event_total": 45,
        "has_played": true,
        "id": 48600873,
        "last_rank": 53837,
        "player_name": "Gavan Connell",
        "rank": 74308,
        "rank_sort": 74535,
        "total": 2338
      },
      {
        "club_badge_src": null,
        "entry": 6182389,
        "entry_name": "Backstreet Moyes",
        "event_total": 50,
        "has_played": true,
        "id": 48892928,
        "last_rank": 62223,
        "player_name": "Tom Minards",
        "rank": 74308,
        "rank_sort": 74536,
        "total": 2338
      },
      {
        "club_badge_src": null,
        "entry": 6194690,
        "entry_name": "Agile Hippos",
        "event_total": 56,
        "has_played": true,
        "id": 48999528,
        "last_rank": 73038,
        "player_name": "Tuomas Urtti",
        "rank": 74308,
        "rank_sort": 74537,
        "total": 2338
      },
      {
        "club_badge_src": null,
        "entry": 6263059,
        "entry_name": "Elliana FC",
        "event_total": 53,
        "has_played": true,
        "id": 49589526,
        "last_rank": 67695,
        "player_name": "Tawanda Magunda",
        "rank": 74308,
        "rank_sort": 74538,
        "total": 2338
      },
      {
        "club_badge_src": null,
        "entry": 6281009,
        "entry_name": "OnlyFras",
        "event_total": 68,
        "has_played": true,
        "id": 49745642,
        "last_rank": 101818,
        "player_name": "Fraser Powley",
        "rank": 74308,
        "rank_sort": 74539,
        "total": 2338
      },
      {
        "club_badge_src": null,
        "entry": 6327670,
        "entry_name": "SquidWirtz",
        "event_total": 60,
        "has_played": true,
        "id": 50275245,
        "last_rank": 73423,
        "player_name": "Ryan Mullin",
        "rank": 74308,
        "rank_sort": 74540,
        "total": 2338
      },
      {
        "club_badge_src": null,
        "entry": 6343213,
        "entry_name": "FN Crew",
        "event_total": 59,
        "has_played": true,
        "id": 50419617,
        "last_rank": 70757,
        "player_name": "FN Crew",
        "rank": 74308,
        "rank_sort": 74541,
        "total": 2338
      },
      {
        "club_badge_src": null,
        "entry": 6422167,
        "entry_name": "Bryan Mbenholmes",
        "event_total": 68,
        "has_played": true,
        "id": 51116921,
        "last_rank": 100949,
        "player_name": "Ben Holmes",
        "rank": 74308,
        "rank_sort": 74542,
        "total": 2338
      },
      {
        "club_badge_src": null,
        "entry": 6666189,
        "entry_name": "Change Name",
        "event_total": 62,
        "has_played": true,
        "id": 53312014,
        "last_rank": 86735,
        "player_name": "Michael Kelly",
        "rank": 74308,
        "rank_sort": 74543,
        "total": 2338
      },
      {
        "club_badge_src": null,
        "entry": 6732637,
        "entry_name": "Billingham Symphonia",
        "event_total": 67,
        "has_played": true,
        "id": 53889088,
        "last_rank": 99296,
        "player_name": "Dean Smith",
        "rank": 74308,
        "rank_sort": 74544,
        "total": 2338
      },
      {
        "club_badge_src": null,
        "entry": 6746829,
        "entry_name": "Safety Hazard",
        "event_total": 65,
        "has_played": true,
        "id": 54010974,
        "last_rank": 93883,
        "player_name": "Amaxn KR",
        "rank": 74308,
        "rank_sort": 74545,
        "total": 2338
      },
      {
        "club_badge_src": null,
        "entry": 6768898,
        "entry_name": "saad",
        "event_total": 66,
        "has_played": true,
        "id": 54197791,
        "last_rank": 96374,
        "player_name": "SAAD NAHIL",
        "rank": 74308,
        "rank_sort": 74546,
        "total": 2338
      },
      {
        "club_badge_src": null,
        "entry": 6777029,
        "entry_name": "Progress United",
        "event_total": 50,
        "has_played": true,
        "id": 54265536,
        "last_rank": 55014,
        "player_name": "Rory Grant",
        "rank": 74308,
        "rank_sort": 74547,
        "total": 2338
      },
      {
        "club_badge_src": null,
        "entry": 6837838,
        "entry_name": "Change Name",
        "event_total": 70,
        "has_played": true,
        "id": 54775125,
        "last_rank": 107162,
        "player_name": "Matt Halden",
        "rank": 74308,
        "rank_sort": 74548,
        "total": 2338
      },
      {
        "club_badge_src": null,
        "entry": 6871355,
        "entry_name": "Ali Jaf",
        "event_total": 46,
        "has_played": true,
        "id": 55061718,
        "last_rank": 55311,
        "player_name": "\u0639\u0644\u0627\u0648\u064a \u062d\u0628\u06cc\u064a\u0628 \u0643\u0644\u0628\u064a",
        "rank": 74308,
        "rank_sort": 74549,
        "total": 2338
      },
      {
        "club_badge_src": null,
        "entry": 7009600,
        "entry_name": "DropItLikeItsSlot",
        "event_total": 58,
        "has_played": true,
        "id": 56291426,
        "last_rank": 69323,
        "player_name": "Sarah Jane Pattison",
        "rank": 74308,
        "rank_sort": 74550,
        "total": 2338
      }
    ]
  }
}