{
  "last_updated_data": "2026-05-24T23:28:17Z",
  "league": {
    "admin_entry": null,
    "closed": false,
    "code_privacy": "p",
    "created": "2025-07-20T23:14:33.933835Z",
    "cup_league": 2815434,
    "has_cup": true,
    "id": 314,
    "league_type": "s",
    "max_entries": null,
    "name": "Overall",
    "rank": null,
    "scoring": "c",
    "start_event": 1
  },
  "new_entries": {
    "has_next": false,
    "page": 1,
    "results": []
  },
  "standings": {
    "has_next": true,
    "page": 716,
    "results": [
      {
        "club_badge_src": null,
        "entry": 4663,
        "entry_name": "Eze Come Eze Go",
        "event_total": 60,
        "has_played": true,
        "id": 26526,
        "last_rank": 29904,
        "player_name": "Sarthak G",
        "rank": 35750,
        "rank_sort": 35751,
        "total": 2363
      },
      {
        "club_badge_src": null,
        "entry": 10056,
        "entry_name": "Kinder Mbeumo",
        "event_total": 62,
        "has_played": true,
        "id": 59363,
        "last_rank": 41824,
        "player_name": "Mark McCready",
        "rank": 35750,
        "rank_sort": 35752,
        "total": 2363
      },
      {
        "club_badge_src": null,
        "entry": 10287,
        "entry_name": "jimmy's gents",
        "event_total": 43,
        "has_played": true,
        "id": 60767,
        "last_rank": 16320,
        "player_name": "James Killeen",
        "rank": 35750,
        "rank_sort": 35753,
        "total": 2363
      },
      {
        "club_badge_src": null,
        "entry": 12962,
        "entry_name": "Br\u00e5rud United",
        "event_total": 64,
        "has_played": true,
        "id": 78042,
        "last_rank": 39246,
        "player_name": "Jens Edqvist",
        "rank": 35750,
        "rank_sort": 35754,
        "total": 2363
      },
      {
        "club_badge_src": null,
        "entry": 13662,
        "entry_name": "Ndiaye Deleteap",
        "event_total": 55,
        "has_played": true,
        "id": 82650,
        "last_rank": 28906,
        "player_name": "Yasho Ferrao",
        "rank": 35750,
        "rank_sort": 35755,
        "total": 2363
      },
      {
        "club_badge_src": "https://fantasy.premierleague.com/gcs/plfpl-production-adobe-approved/plfpl-production/31081/5bafb187-42ff-45f0-9bf3-2090c9f6f840.png",
        "entry": 31081,
        "entry_name": "Jesta",
        "event_total": 60,
        "has_played": true,
        "id": 196817,
        "last_rank": 39023,
        "player_name": "Tuitoek Timm",
        "rank": 35750,
        "rank_sort": 35756,
        "total": 2363
      },
      {
        "club_badge_src": "https://fantasy.premierleague.com/gcs/plfpl-production-adobe-approved/plfpl-production/35454/20cf295a-2c99-47b9-adf9-647c1cf41381.png",
        "entry": 35454,
        "entry_name": "GU UTD",
        "event_total": 77,
        "has_played": true,
        "id": 226900,
        "last_rank": 66200,
        "player_name": "Kazuma Scofield",
        "rank": 35750,
        "rank_sort": 35757,
        "total": 2363
      },
      {
        "club_badge_src": null,
        "entry": 38284,
        "entry_name": "salkarabhi",
        "event_total": 60,
        "has_played": true,
        "id": 245341,
        "last_rank": 34458,
        "player_name": "Abhishek Salkar",
        "rank": 35750,
        "rank_sort": 35758,
        "total": 2363
      },
      {
        "club_badge_src": null,
        "entry": 44697,
        "entry_name": "ThomasTheFrankEngine",
        "event_total": 59,
        "has_played": true,
        "id": 286540,
        "last_rank": 28906,
        "player_name": "Callum White",
        "rank": 35750,
        "rank_sort": 35759,
        "total": 2363
      },
      {
        "club_badge_src": "https://fantasy.premierleague.com/gcs/plfpl-production-adobe-approved/plfpl-production/53745/ebbd1296-130b-44fd-8490-b161118ce7e8.png",
        "entry": 53745,
        "entry_name": "Burritos",
        "event_total": 49,
        "has_played": true,
        "id": 345826,
        "last_rank": 27304,
        "player_name": "James Cunningham",
        "rank": 35750,
        "rank_sort": 35760,
        "total": 2363
      },
      {
        "club_badge_src": "https://fantasy.premierleague.com/gcs/plfpl-production-adobe-approved/plfpl-production/54040/0d69fd41-01aa-41ce-8013-7d8a2548a7c1.png",
        "entry": 54040,
        "entry_name": "Lilium bosniacum",
        "event_total": 65,
        "has_played": true,
        "id": 347787,
        "last_rank": 40503,
        "player_name": "Anes Brkic",
        "rank": 35750,
        "rank_sort": 35761,
        "total": 2363
      },
      {
        "club_badge_src": null,
        "entry": 76383,
        "entry_name": "alexbcfc",
        "event_total": 47,
        "has_played": true,
        "id": 496518,
        "last_rank": 22064,
        "player_name": "Alexander Martin",
        "rank": 35750,
        "rank_sort": 35762,
        "total": 2363
      },
      {
        "club_badge_src": null,
        "entry": 96501,
        "entry_name": "W\u00c0SSIM_BLILIT\u00c3 \u2764\ufe0f\ufffd\ufffd",
        "event_total": 61,
        "has_played": true,
        "id": 630432,
        "last_rank": 35619,
        "player_name": "Wassim Blilita",
        "rank": 35750,
        "rank_sort": 35763,
        "total": 2363
      },
      {
        "club_badge_src": null,
        "entry": 100872,
        "entry_name": "Brinken BK",
        "event_total": 60,
        "has_played": true,
        "id": 658276,
        "last_rank": 34458,
        "player_name": "Johanna Barketorp Dirke",
        "rank": 35750,
        "rank_sort": 35764,
        "total": 2363
      },
      {
        "club_badge_src": null,
        "entry": 109726,
        "entry_name": "Buzzboys",
        "event_total": 59,
        "has_played": true,
        "id": 715474,
        "last_rank": 38016,
        "player_name": "Barry Wales",
        "rank": 35750,
        "rank_sort": 35765,
        "total": 2363
      },
      {
        "club_badge_src": null,
        "entry": 113897,
        "entry_name": "Emond's Field F.C",
        "event_total": 60,
        "has_played": true,
        "id": 742920,
        "last_rank": 34458,
        "player_name": "Henning Knudsen",
        "rank": 35750,
        "rank_sort": 35766,
        "total": 2363
      },
      {
        "club_badge_src": "https://fantasy.premierleague.com/gcs/plfpl-production-adobe-approved/plfpl-production/123246/8a8d1e1a-48dc-4734-b4b3-c2506a6950a3.png",
        "entry": 123246,
        "entry_name": "FC Wild Hornets",
        "event_total": 62,
        "has_played": true,
        "id": 803919,
        "last_rank": 41617,
        "player_name": "Andrew Zura",
        "rank": 35750,
        "rank_sort": 35767,
        "total": 2363
      },
      {
        "club_badge_src": null,
        "entry": 132476,
        "entry_name": "You Kante See Me",
        "event_total": 64,
        "has_played": true,
        "id": 862939,
        "last_rank": 44303,
        "player_name": "Eric Rizzo",
        "rank": 35750,
        "rank_sort": 35768,
        "total": 2363
      },
      {
        "club_badge_src": "https://fantasy.premierleague.com/gcs/plfpl-production-adobe-approved/plfpl-production/132507/f93c0bfc-4a88-4730-aae4-8bd391756594.png",
        "entry": 132507,
        "entry_name": "Young Guns",
        "event_total": 64,
        "has_played": true,
        "id": 863134,
        "last_rank": 44672,
        "player_name": "Julian Young",
        "rank": 35750,
        "rank_sort": 35769,
        "total": 2363
      },
      {
        "club_badge_src": null,
        "entry": 143757,
        "entry_name": "DocEE",
        "event_total": 61,
        "has_played": true,
        "id": 940608,
        "last_rank": 40647,
        "player_name": "Elias EE",
        "rank": 35750,
        "rank_sort": 35770,
        "total": 2363
      },
      {
        "club_badge_src": "https://fantasy.premierleague.com/gcs/plfpl-production-adobe-approved/plfpl-production/180229/7b371bfd-f91a-49db-a9f3-e0cec50c0ddc.png",
        "entry": 180229,
        "entry_name": "Dman Hunters",
        "event_total": 63,
        "has_played": true,
        "id": 1189366,
        "last_rank": 43168,
        "player_name": "Daniel Karlsson",
        "rank": 35750,
        "rank_sort": 35771,
        "total": 2363
      },
      {
        "club_badge_src": null,
        "entry": 209377,
        "entry_name": "Team Name",
        "event_total": 50,
        "has_played": true,
        "id": 1392367,
        "last_rank": 24475,
        "player_name": "Thomas Britten",
        "rank": 35750,
        "rank_sort": 35772,
        "total": 2363
      },
      {
        "club_badge_src": "https://fantasy.premierleague.com/gcs/plfpl-production-adobe-approved/plfpl-production/246840/12eb489e-9e12-4ed7-af9b-37230d3a66e6.png",
        "entry": 246840,
        "entry_name": "SavedByTheBellerin",
        "event_total": 46,
        "has_played": true,
        "id": 1643228,
        "last_rank": 24570,
        "player_name": "Jack Wiggett",
        "rank": 35750,
        "rank_sort": 35773,
        "total": 2363
      },
      {
        "club_badge_src": null,
        "entry": 272287,
        "entry_name": "AP's XI",
        "event_total": 49,
        "has_played": true,
        "id": 1811575,
        "last_rank": 23656,
        "player_name": "Archie Palengat",
        "rank": 35750,
        "rank_sort": 35774,
        "total": 2363
      },
      {
        "club_badge_src": null,
        "entry": 312008,
        "entry_name": "When Haaly Met Salah",
        "event_total": 47,
        "has_played": true,
        "id": 2090359,
        "last_rank": 25330,
        "player_name": "MICHAEL CARTER",
        "rank": 35750,
        "rank_sort": 35775,
        "total": 2363
      },
      {
        "club_badge_src": "https://fantasy.premierleague.com/gcs/plfpl-production-adobe-approved/plfpl-production/317675/297dccea-76d1-474b-a1d1-9c6d1860b815.png",
        "entry": 317675,
        "entry_name": "Football Heritage",
        "event_total": 63,
        "has_played": true,
        "id": 2129382,
        "last_rank": 43342,
        "player_name": "Sahil Sahani",
        "rank": 35750,
        "rank_sort": 35776,
        "total": 2363
      },
      {
        "club_badge_src": "https://fantasy.premierleague.com/gcs/plfpl-production-adobe-approved/plfpl-production/317778/9e6e76b6-ea26-482a-bd34-d607a24b01f9.png",
        "entry": 317778,
        "entry_name": "Chippy Chips FC",
        "event_total": 65,
        "has_played": true,
        "id": 2130057,
        "last_rank": 46106,
        "player_name": "Mike Allen",
        "rank": 35750,
        "rank_sort": 35777,
        "total": 2363
      },
      {
        "club_badge_src": null,
        "entry": 329373,
        "entry_name": "JAYBAY RIVERSIDE RON",
        "event_total": 80,
        "has_played": true,
        "id": 2206378,
        "last_rank": 56708,
        "player_name": "Ron Smith",
        "rank": 35750,
        "rank_sort": 35778,
        "total": 2363
      },
      {
        "club_badge_src": null,
        "entry": 331209,
        "entry_name": "Curry Wirtz",
        "event_total": 54,
        "has_played": true,
        "id": 2218451,
        "last_rank": 32335,
        "player_name": "Rahul Budhan",
        "rank": 35750,
        "rank_sort": 35779,
        "total": 2363
      },
      {
        "club_badge_src": "https://fantasy.premierleague.com/gcs/plfpl-production-adobe-approved/plfpl-production/389816/271da025-c73f-4857-9f78-547b87fd133e.png",
        "entry": 389816,
        "entry_name": "Sterbypool FC",
        "event_total": 52,
        "has_played": true,
        "id": 2614938,
        "last_rank": 30060,
        "player_name": "Jan Sterbak",
        "rank": 35750,
        "rank_sort": 35780,
        "total": 2363
      },
      {
        "club_badge_src": null,
        "entry": 398095,
        "entry_name": "yes ndidi",
        "event_total": 70,
        "has_played": true,
        "id": 2669630,
        "last_rank": 47163,
        "player_name": "John Sawyer",
        "rank": 35750,
        "rank_sort": 35781,
        "total": 2363
      },
      {
        "club_badge_src": null,
        "entry": 402347,
        "entry_name": "Cristiano Kiano FC",
        "event_total": 58,
        "has_played": true,
        "id": 2697844,
        "last_rank": 36963,
        "player_name": "kian matthews",
        "rank": 35750,
        "rank_sort": 35782,
        "total": 2363
      },
      {
        "club_badge_src": null,
        "entry": 458674,
        "entry_name": "Three Lions",
        "event_total": 49,
        "has_played": true,
        "id": 3077089,
        "last_rank": 27304,
        "player_name": "Rolf Martin",
        "rank": 35750,
        "rank_sort": 35783,
        "total": 2363
      },
      {
        "club_badge_src": null,
        "entry": 459982,
        "entry_name": "Oakletes",
        "event_total": 58,
        "has_played": true,
        "id": 3085705,
        "last_rank": 36963,
        "player_name": "Tom Clark",
        "rank": 35750,
        "rank_sort": 35784,
        "total": 2363
      },
      {
        "club_badge_src": null,
        "entry": 486609,
        "entry_name": "Abou_Tia",
        "event_total": 49,
        "has_played": true,
        "id": 3266868,
        "last_rank": 23656,
        "player_name": "Ahmed Nasr",
        "rank": 35750,
        "rank_sort": 35785,
        "total": 2363
      },
      {
        "club_badge_src": null,
        "entry": 486647,
        "entry_name": "Balls of Steele",
        "event_total": 51,
        "has_played": true,
        "id": 3267118,
        "last_rank": 25330,
        "player_name": "Darragh Flynn",
        "rank": 35750,
        "rank_sort": 35786,
        "total": 2363
      },
      {
        "club_badge_src": "https://fantasy.premierleague.com/gcs/plfpl-production-adobe-approved/plfpl-production/529771/e94d519a-0ec0-4e57-83d2-e00735ac9bcc.png",
        "entry": 529771,
        "entry_name": "Magnus Argento",
        "event_total": 60,
        "has_played": true,
        "id": 3562517,
        "last_rank": 38774,
        "player_name": "Daniel Argent",
        "rank": 35750,
        "rank_sort": 35787,
        "total": 2363
      },
      {
        "club_badge_src": null,
        "entry": 545961,
        "entry_name": "I Hart Haaland",
        "event_total": 37,
        "has_played": true,
        "id": 3674312,
        "last_rank": 17802,
        "player_name": "Mark Ratcliffe",
        "rank": 35750,
        "rank_sort": 35788,
        "total": 2363
      },
      {
        "club_badge_src": null,
        "entry": 552813,
        "entry_name": "Rodrigo Gooniz",
        "event_total": 66,
        "has_played": true,
        "id": 3720891,
        "last_rank": 41824,
        "player_name": "Ben Bussell",
        "rank": 35750,
        "rank_sort": 35789,
        "total": 2363
      },
      {
        "club_badge_src": null,
        "entry": 674691,
        "entry_name": "Pablo Marescabar",
        "event_total": 65,
        "has_played": true,
        "id": 4564325,
        "last_rank": 45927,
        "player_name": "Sultan Alhamrani",
        "rank": 35750,
        "rank_sort": 35790,
        "total": 2363
      },
      {
        "club_badge_src": null,
        "entry": 685162,
        "entry_name": "MVP FC",
        "event_total": 65,
        "has_played": true,
        "id": 4637750,
        "last_rank": 46106,
        "player_name": "James Regan",
        "rank": 35750,
        "rank_sort": 35791,
        "total": 2363
      },
      {
        "club_badge_src": null,
        "entry": 752898,
        "entry_name": "Team Arteta FC",
        "event_total": 38,
        "has_played": true,
        "id": 5123364,
        "last_rank": 18520,
        "player_name": "Christoffer \u00d8ie L\u00f8ken",
        "rank": 35750,
        "rank_sort": 35792,
        "total": 2363
      },
      {
        "club_badge_src": null,
        "entry": 772673,
        "entry_name": "VirgillesDeLaTourett",
        "event_total": 70,
        "has_played": true,
        "id": 5271369,
        "last_rank": 53837,
        "player_name": "Rick Van Bakel",
        "rank": 35750,
        "rank_sort": 35793,
        "total": 2363
      },
      {
        "club_badge_src": "https://fantasy.premierleague.com/gcs/plfpl-production-adobe-approved/plfpl-production/820390/54b01bc2-25d1-48f2-93bb-73de32f47c66.png",
        "entry": 820390,
        "entry_name": "Ekitikitaka",
        "event_total": 54,
        "has_played": true,
        "id": 5618650,
        "last_rank": 32190,
        "player_name": "George Harding",
        "rank": 35750,
        "rank_sort": 35794,
        "total": 2363
      },
      {
        "club_badge_src": null,
        "entry": 822410,
        "entry_name": "Calafiori Living",
        "event_total": 48,
        "has_played": true,
        "id": 5632511,
        "last_rank": 19721,
        "player_name": "Bobby Masterson",
        "rank": 35750,
        "rank_sort": 35795,
        "total": 2363
      },
      {
        "club_badge_src": null,
        "entry": 825618,
        "entry_name": "NotWyy",
        "event_total": 63,
        "has_played": true,
        "id": 5654631,
        "last_rank": 38016,
        "player_name": "CK WONG",
        "rank": 35750,
        "rank_sort": 35796,
        "total": 2363
      },
      {
        "club_badge_src": null,
        "entry": 914680,
        "entry_name": "Poengl\u00f8se Profeter",
        "event_total": 65,
        "has_played": true,
        "id": 6289665,
        "last_rank": 45927,
        "player_name": "Ole Andr\u00e8 Dahl",
        "rank": 35750,
        "rank_sort": 35797,
        "total": 2363
      },
      {
        "club_badge_src": null,
        "entry": 939621,
        "entry_name": "Rog's Machine",
        "event_total": 49,
        "has_played": true,
        "id": 6467071,
        "last_rank": 23341,
        "player_name": "Erik Rogstad",
        "rank": 35750,
        "rank_sort": 35798,
        "total": 2363
      },
      {
        "club_badge_src": null,
        "entry": 958700,
        "entry_name": "knezicky kurvicky",
        "event_total": 67,
        "has_played": true,
        "id": 6606185,
        "last_rank": 49078,
        "player_name": "Dominik Krajcr",
        "rank": 35750,
        "rank_sort": 35799,
        "total": 2363
      },
      {
        "club_badge_src": null,
        "entry": 995850,
        "entry_name": "Wirtz the matter",
        "event_total": 46,
        "has_played": true,
        "id": 6874527,
        "last_rank": 24570,
        "player_name": "Eoin O connell",
        "rank": 35750,
        "rank_sort": 35800,
        "total": 2363
      }
    ]
  }
}