{
  "last_updated_data": "2026-05-24T23:28:17Z",
  "league": {
    "admin_entry": null,
    "closed": false,
    "code_privacy": "p",
    "created": "2025-07-20T23:14:33.933835Z",
    "cup_league": 2815434,
    "has_cup": true,
    "id": 314,
    "league_type": "s",
    "max_entries": null,
    "name": "Overall",
    "rank": null,
    "scoring": "c",
    "start_event": 1
  },
  "new_entries": {
    "has_next": false,
    "page": 1,
    "results": []
  },
  "standings": {
    "has_next": true,
    "page": 404,
    "results": [
      {
        "club_badge_src": null,
        "entry": 6284693,
        "entry_name": "Ermi.N",
        "event_total": 64,
        "has_played": true,
        "id": 49781305,
        "last_rank": 25172,
        "player_name": "ermias nigatu",
        "rank": 20022,
        "rank_sort": 20151,
        "total": 2380
      },
      {
        "club_badge_src": "https://fantasy.premierleague.com/gcs/plfpl-production-adobe-approved/plfpl-production/6303339/5714e6c8-71aa-4af0-9be4-1e2eb94bdfa7.png",
        "entry": 6303339,
        "entry_name": "Back of the Neto",
        "event_total": 43,
        "has_played": true,
        "id": 49981211,
        "last_rank": 11345,
        "player_name": "Steve Riordan",
        "rank": 20022,
        "rank_sort": 20152,
        "total": 2380
      },
      {
        "club_badge_src": null,
        "entry": 6378915,
        "entry_name": "Men with Van De Ven",
        "event_total": 39,
        "has_played": true,
        "id": 50732368,
        "last_rank": 9536,
        "player_name": "Dan Letchford",
        "rank": 20022,
        "rank_sort": 20153,
        "total": 2380
      },
      {
        "club_badge_src": null,
        "entry": 6418042,
        "entry_name": "Underdogs FC",
        "event_total": 65,
        "has_played": true,
        "id": 51080321,
        "last_rank": 25902,
        "player_name": "Daria Kormacheva",
        "rank": 20022,
        "rank_sort": 20154,
        "total": 2380
      },
      {
        "club_badge_src": null,
        "entry": 6530426,
        "entry_name": "Team \u00c5mot",
        "event_total": 56,
        "has_played": true,
        "id": 52093000,
        "last_rank": 18790,
        "player_name": "H\u00e5kon Ruud",
        "rank": 20022,
        "rank_sort": 20155,
        "total": 2380
      },
      {
        "club_badge_src": null,
        "entry": 6871819,
        "entry_name": "Baby King George VII",
        "event_total": 63,
        "has_played": true,
        "id": 55065723,
        "last_rank": 24039,
        "player_name": "Claudio Casco",
        "rank": 20022,
        "rank_sort": 20156,
        "total": 2380
      },
      {
        "club_badge_src": "https://fantasy.premierleague.com/gcs/plfpl-production-adobe-approved/plfpl-production/7444458/dea6c7b7-a97f-4b33-8543-d1a8bf027b93.png",
        "entry": 7444458,
        "entry_name": "Swag City",
        "event_total": 71,
        "has_played": true,
        "id": 60561385,
        "last_rank": 31995,
        "player_name": "Ryan Lim",
        "rank": 20022,
        "rank_sort": 20157,
        "total": 2380
      },
      {
        "club_badge_src": "https://fantasy.premierleague.com/gcs/plfpl-production-adobe-approved/plfpl-production/7448528/85aa7de0-180c-4c65-8fba-37fd69927e9e.png",
        "entry": 7448528,
        "entry_name": "Wirtz Khalifa",
        "event_total": 69,
        "has_played": true,
        "id": 60614394,
        "last_rank": 29688,
        "player_name": "Jan Lon\u010dar",
        "rank": 20022,
        "rank_sort": 20158,
        "total": 2380
      },
      {
        "club_badge_src": null,
        "entry": 8156994,
        "entry_name": "Lauken",
        "event_total": 60,
        "has_played": true,
        "id": 67333726,
        "last_rank": 21775,
        "player_name": "Espen Aardalen",
        "rank": 20022,
        "rank_sort": 20159,
        "total": 2380
      },
      {
        "club_badge_src": null,
        "entry": 8799563,
        "entry_name": "Under my cucurella",
        "event_total": 59,
        "has_played": true,
        "id": 73540838,
        "last_rank": 21159,
        "player_name": "Elijah Murray",
        "rank": 20022,
        "rank_sort": 20160,
        "total": 2380
      },
      {
        "club_badge_src": null,
        "entry": 8834830,
        "entry_name": "Shappy11",
        "event_total": 61,
        "has_played": true,
        "id": 73879567,
        "last_rank": 22685,
        "player_name": "Stefan Glad",
        "rank": 20022,
        "rank_sort": 20161,
        "total": 2380
      },
      {
        "club_badge_src": null,
        "entry": 8884008,
        "entry_name": "Yassine",
        "event_total": 52,
        "has_played": true,
        "id": 74353120,
        "last_rank": 16320,
        "player_name": "Yassine Elmallouki",
        "rank": 20022,
        "rank_sort": 20162,
        "total": 2380
      },
      {
        "club_badge_src": null,
        "entry": 9066296,
        "entry_name": "Dr Joker 1221",
        "event_total": 75,
        "has_played": true,
        "id": 76122638,
        "last_rank": 31620,
        "player_name": "Ali Hayek",
        "rank": 20022,
        "rank_sort": 20163,
        "total": 2380
      },
      {
        "club_badge_src": null,
        "entry": 9143498,
        "entry_name": "Mohamed Mostafa FC",
        "event_total": 58,
        "has_played": true,
        "id": 76877565,
        "last_rank": 20538,
        "player_name": "Mohamed Mostafa",
        "rank": 20022,
        "rank_sort": 20164,
        "total": 2380
      },
      {
        "club_badge_src": null,
        "entry": 9292845,
        "entry_name": "hakuna mateta",
        "event_total": 55,
        "has_played": true,
        "id": 78341209,
        "last_rank": 18270,
        "player_name": "Claire Mountford",
        "rank": 20022,
        "rank_sort": 20165,
        "total": 2380
      },
      {
        "club_badge_src": null,
        "entry": 9353539,
        "entry_name": "Haaland og gjengen",
        "event_total": 58,
        "has_played": true,
        "id": 78920906,
        "last_rank": 17437,
        "player_name": "Jakob Lillevik",
        "rank": 20022,
        "rank_sort": 20166,
        "total": 2380
      },
      {
        "club_badge_src": null,
        "entry": 611,
        "entry_name": "Gy\u00f6keres: Ragnar\u00f6k",
        "event_total": 59,
        "has_played": true,
        "id": 3371,
        "last_rank": 21159,
        "player_name": "Jiyong Bai",
        "rank": 20167,
        "rank_sort": 20167,
        "total": 2380
      },
      {
        "club_badge_src": null,
        "entry": 952,
        "entry_name": "Elanga Management",
        "event_total": 58,
        "has_played": true,
        "id": 5271,
        "last_rank": 17585,
        "player_name": "Ollie Williams",
        "rank": 20167,
        "rank_sort": 20168,
        "total": 2380
      },
      {
        "club_badge_src": null,
        "entry": 14124,
        "entry_name": "Billy Beaned",
        "event_total": 67,
        "has_played": true,
        "id": 85606,
        "last_rank": 28150,
        "player_name": "Conall Roe",
        "rank": 20167,
        "rank_sort": 20169,
        "total": 2380
      },
      {
        "club_badge_src": null,
        "entry": 15271,
        "entry_name": "Noah",
        "event_total": 53,
        "has_played": true,
        "id": 93579,
        "last_rank": 16959,
        "player_name": "\u0645\u062d\u0645\u062f \u0627\u064a\u0627\u062f",
        "rank": 20167,
        "rank_sort": 20170,
        "total": 2380
      },
      {
        "club_badge_src": "https://fantasy.premierleague.com/gcs/plfpl-production-adobe-approved/plfpl-production/16939/10c6e596-7208-49b4-ba49-34d6c29271c3.png",
        "entry": 16939,
        "entry_name": "Seattle Stu",
        "event_total": 68,
        "has_played": true,
        "id": 104884,
        "last_rank": 28906,
        "player_name": "Stuart McTiernan",
        "rank": 20167,
        "rank_sort": 20171,
        "total": 2380
      },
      {
        "club_badge_src": "https://fantasy.premierleague.com/gcs/plfpl-production-adobe-approved/plfpl-production/25439/e04014ce-c224-40ea-a6ee-9f51e7ac9654.png",
        "entry": 25439,
        "entry_name": "Cunha Matata",
        "event_total": 52,
        "has_played": true,
        "id": 160877,
        "last_rank": 13821,
        "player_name": "Harvey Gill",
        "rank": 20167,
        "rank_sort": 20172,
        "total": 2380
      },
      {
        "club_badge_src": "https://fantasy.premierleague.com/gcs/plfpl-production-adobe-approved/plfpl-production/65489/7c4a62a3-9870-4c09-884c-ffd6429cfceb.png",
        "entry": 65489,
        "entry_name": "Flintisarnas BK",
        "event_total": 52,
        "has_played": true,
        "id": 422821,
        "last_rank": 13821,
        "player_name": "Sebastian Jonsson",
        "rank": 20167,
        "rank_sort": 20173,
        "total": 2380
      },
      {
        "club_badge_src": "https://fantasy.premierleague.com/gcs/plfpl-production-adobe-approved/plfpl-production/91221/7a18e749-bdb7-46b3-be7d-649ee1e9e651.png",
        "entry": 91221,
        "entry_name": "Kabak For More",
        "event_total": 45,
        "has_played": true,
        "id": 595745,
        "last_rank": 12420,
        "player_name": "Liam Atkinson",
        "rank": 20167,
        "rank_sort": 20174,
        "total": 2380
      },
      {
        "club_badge_src": null,
        "entry": 98256,
        "entry_name": "YAABE FC",
        "event_total": 69,
        "has_played": true,
        "id": 641685,
        "last_rank": 26088,
        "player_name": "Osman abdi aden",
        "rank": 20167,
        "rank_sort": 20175,
        "total": 2380
      },
      {
        "club_badge_src": null,
        "entry": 104798,
        "entry_name": "Change Name",
        "event_total": 70,
        "has_played": true,
        "id": 683576,
        "last_rank": 30957,
        "player_name": "Junho Chong",
        "rank": 20167,
        "rank_sort": 20176,
        "total": 2380
      },
      {
        "club_badge_src": "https://fantasy.premierleague.com/gcs/plfpl-production-adobe-approved/plfpl-production/125145/22a52bf3-c8b5-47b8-ab97-35c566cd0e4e.png",
        "entry": 125145,
        "entry_name": "Noakes CF",
        "event_total": 57,
        "has_played": true,
        "id": 816206,
        "last_rank": 16959,
        "player_name": "James Noakes",
        "rank": 20167,
        "rank_sort": 20177,
        "total": 2380
      },
      {
        "club_badge_src": null,
        "entry": 128704,
        "entry_name": "MammaMie",
        "event_total": 66,
        "has_played": true,
        "id": 838944,
        "last_rank": 23522,
        "player_name": "Marie Elise Eriksen",
        "rank": 20167,
        "rank_sort": 20178,
        "total": 2380
      },
      {
        "club_badge_src": "https://fantasy.premierleague.com/gcs/plfpl-production-adobe-approved/plfpl-production/150892/58fcfd0e-e8c3-436a-953e-62a05b5f3402.png",
        "entry": 150892,
        "entry_name": "Papa d'Barnes",
        "event_total": 72,
        "has_played": true,
        "id": 989792,
        "last_rank": 33147,
        "player_name": "Harry Barnes",
        "rank": 20167,
        "rank_sort": 20179,
        "total": 2380
      },
      {
        "club_badge_src": "https://fantasy.premierleague.com/gcs/plfpl-production-adobe-approved/plfpl-production/181369/328af898-f2e5-4dbf-ba8f-56fa26e13cd5.png",
        "entry": 181369,
        "entry_name": "FC Cadabras",
        "event_total": 60,
        "has_played": true,
        "id": 1196874,
        "last_rank": 18985,
        "player_name": "Elias Andersson",
        "rank": 20167,
        "rank_sort": 20180,
        "total": 2380
      },
      {
        "club_badge_src": "https://fantasy.premierleague.com/gcs/plfpl-production-adobe-approved/plfpl-production/260910/f0f713fc-d675-4d66-9e69-fd6a71b04f0a.png",
        "entry": 260910,
        "entry_name": "Califiori Dreamin'",
        "event_total": 59,
        "has_played": true,
        "id": 1734371,
        "last_rank": 21301,
        "player_name": "SJ Jang",
        "rank": 20167,
        "rank_sort": 20181,
        "total": 2380
      },
      {
        "club_badge_src": null,
        "entry": 371426,
        "entry_name": "Dynamo No-Show",
        "event_total": 65,
        "has_played": true,
        "id": 2485319,
        "last_rank": 26230,
        "player_name": "Kyle Minshull",
        "rank": 20167,
        "rank_sort": 20182,
        "total": 2380
      },
      {
        "club_badge_src": null,
        "entry": 408323,
        "entry_name": "Essa Club de Futbol",
        "event_total": 38,
        "has_played": true,
        "id": 2738201,
        "last_rank": 7761,
        "player_name": "Ignacy Dobinski",
        "rank": 20167,
        "rank_sort": 20183,
        "total": 2380
      },
      {
        "club_badge_src": null,
        "entry": 442540,
        "entry_name": "Sakas a Parrot",
        "event_total": 63,
        "has_played": true,
        "id": 2967164,
        "last_rank": 21159,
        "player_name": "Craig Templeman",
        "rank": 20167,
        "rank_sort": 20184,
        "total": 2380
      },
      {
        "club_badge_src": null,
        "entry": 470231,
        "entry_name": "Happy Holidays",
        "event_total": 67,
        "has_played": true,
        "id": 3156520,
        "last_rank": 24143,
        "player_name": "Jason Tse",
        "rank": 20167,
        "rank_sort": 20185,
        "total": 2380
      },
      {
        "club_badge_src": "https://fantasy.premierleague.com/gcs/plfpl-production-adobe-approved/plfpl-production/494768/4e32f8d6-0b67-4e7b-990f-830d74584de7.png",
        "entry": 494768,
        "entry_name": "Joost weet het niet",
        "event_total": 55,
        "has_played": true,
        "id": 3321071,
        "last_rank": 18270,
        "player_name": "Joost Paping",
        "rank": 20167,
        "rank_sort": 20186,
        "total": 2380
      },
      {
        "club_badge_src": null,
        "entry": 539081,
        "entry_name": "ThomasTheFrankEngine",
        "event_total": 69,
        "has_played": true,
        "id": 3628594,
        "last_rank": 25902,
        "player_name": "Charlie Ladell",
        "rank": 20167,
        "rank_sort": 20187,
        "total": 2380
      },
      {
        "club_badge_src": "https://fantasy.premierleague.com/gcs/plfpl-production-adobe-approved/plfpl-production/543607/8872bdc9-2390-4074-9c69-1f49a4edbd00.png",
        "entry": 543607,
        "entry_name": "Mohamed Allam",
        "event_total": 68,
        "has_played": true,
        "id": 3658506,
        "last_rank": 29071,
        "player_name": "Mohamed Allam",
        "rank": 20167,
        "rank_sort": 20188,
        "total": 2380
      },
      {
        "club_badge_src": null,
        "entry": 569092,
        "entry_name": "Grimley United",
        "event_total": 47,
        "has_played": true,
        "id": 3830325,
        "last_rank": 13401,
        "player_name": "Kurt Fawdry",
        "rank": 20167,
        "rank_sort": 20189,
        "total": 2380
      },
      {
        "club_badge_src": null,
        "entry": 581833,
        "entry_name": "Dewberry & Halls",
        "event_total": 49,
        "has_played": true,
        "id": 3915692,
        "last_rank": 14604,
        "player_name": "Jones Lim",
        "rank": 20167,
        "rank_sort": 20190,
        "total": 2380
      },
      {
        "club_badge_src": null,
        "entry": 604524,
        "entry_name": "Beef Cherki",
        "event_total": 54,
        "has_played": true,
        "id": 4081023,
        "last_rank": 17718,
        "player_name": "Ash Fowler",
        "rank": 20167,
        "rank_sort": 20191,
        "total": 2380
      },
      {
        "club_badge_src": null,
        "entry": 692213,
        "entry_name": "Back of the Neto",
        "event_total": 58,
        "has_played": true,
        "id": 4687807,
        "last_rank": 20538,
        "player_name": "George Hermon",
        "rank": 20167,
        "rank_sort": 20192,
        "total": 2380
      },
      {
        "club_badge_src": null,
        "entry": 722867,
        "entry_name": "SulaiMan United",
        "event_total": 71,
        "has_played": true,
        "id": 4909449,
        "last_rank": 32190,
        "player_name": "Adrian West",
        "rank": 20167,
        "rank_sort": 20193,
        "total": 2380
      },
      {
        "club_badge_src": null,
        "entry": 758758,
        "entry_name": "Winning",
        "event_total": 54,
        "has_played": true,
        "id": 5169142,
        "last_rank": 17718,
        "player_name": "Eivind Myran",
        "rank": 20167,
        "rank_sort": 20194,
        "total": 2380
      },
      {
        "club_badge_src": null,
        "entry": 776141,
        "entry_name": "Fremad Diogo",
        "event_total": 71,
        "has_played": true,
        "id": 5295685,
        "last_rank": 27976,
        "player_name": "Audun Hoel",
        "rank": 20167,
        "rank_sort": 20195,
        "total": 2380
      },
      {
        "club_badge_src": null,
        "entry": 813334,
        "entry_name": "ManCitySparty",
        "event_total": 56,
        "has_played": true,
        "id": 5569065,
        "last_rank": 16320,
        "player_name": "Albert Vadon",
        "rank": 20167,
        "rank_sort": 20196,
        "total": 2380
      },
      {
        "club_badge_src": null,
        "entry": 825699,
        "entry_name": "The Golden Boys",
        "event_total": 57,
        "has_played": true,
        "id": 5655176,
        "last_rank": 19835,
        "player_name": "Ian Beale",
        "rank": 20167,
        "rank_sort": 20197,
        "total": 2380
      },
      {
        "club_badge_src": null,
        "entry": 958284,
        "entry_name": "Still No Hope",
        "event_total": 63,
        "has_played": true,
        "id": 6603167,
        "last_rank": 24330,
        "player_name": "Oscar Dean",
        "rank": 20167,
        "rank_sort": 20198,
        "total": 2380
      },
      {
        "club_badge_src": null,
        "entry": 1054773,
        "entry_name": "Wingnuts FC",
        "event_total": 46,
        "has_played": true,
        "id": 7299750,
        "last_rank": 10805,
        "player_name": "Hayden Lobie",
        "rank": 20167,
        "rank_sort": 20199,
        "total": 2380
      },
      {
        "club_badge_src": null,
        "entry": 1179826,
        "entry_name": "Wirtzdamattawithyou?",
        "event_total": 74,
        "has_played": true,
        "id": 8186073,
        "last_rank": 35424,
        "player_name": "Adam Solley",
        "rank": 20167,
        "rank_sort": 20200,
        "total": 2380
      }
    ]
  }
}