{
  "last_updated_data": "2026-05-24T23:28:17Z",
  "league": {
    "admin_entry": null,
    "closed": false,
    "code_privacy": "p",
    "created": "2025-07-20T23:14:33.933835Z",
    "cup_league": 2815434,
    "has_cup": true,
    "id": 314,
    "league_type": "s",
    "max_entries": null,
    "name": "Overall",
    "rank": null,
    "scoring": "c",
    "start_event": 1
  },
  "new_entries": {
    "has_next": false,
    "page": 1,
    "results": []
  },
  "standings": {
    "has_next": true,
    "page": 1569,
    "results": [
      {
        "club_badge_src": null,
        "entry": 4727075,
        "entry_name": "Ugarte be joking",
        "event_total": 51,
        "has_played": true,
        "id": 36341884,
        "last_rank": 67063,
        "player_name": "James Cullen",
        "rank": 78139,
        "rank_sort": 78401,
        "total": 2336
      },
      {
        "club_badge_src": null,
        "entry": 4756505,
        "entry_name": "Barker-King Utd",
        "event_total": 64,
        "has_played": true,
        "id": 36602936,
        "last_rank": 95640,
        "player_name": "Angela Barker-King",
        "rank": 78139,
        "rank_sort": 78402,
        "total": 2336
      },
      {
        "club_badge_src": null,
        "entry": 4774198,
        "entry_name": "\u0623\u0645\u064a\u0631",
        "event_total": 63,
        "has_played": true,
        "id": 36749321,
        "last_rank": 83934,
        "player_name": "\u0623\u0645\u064a\u0631 \u0623\u0645\u064a\u0631",
        "rank": 78139,
        "rank_sort": 78403,
        "total": 2336
      },
      {
        "club_badge_src": null,
        "entry": 4804115,
        "entry_name": "No Agyemang No Party",
        "event_total": 75,
        "has_played": true,
        "id": 36989673,
        "last_rank": 126948,
        "player_name": "Joshua Lloyd",
        "rank": 78139,
        "rank_sort": 78404,
        "total": 2336
      },
      {
        "club_badge_src": "https://fantasy.premierleague.com/gcs/plfpl-production-adobe-approved/plfpl-production/4827140/5506a062-f9b2-47cd-924c-af3edd72cda4.png",
        "entry": 4827140,
        "entry_name": "FC No-Mercy",
        "event_total": 57,
        "has_played": true,
        "id": 37176886,
        "last_rank": 79431,
        "player_name": "prince Iloka",
        "rank": 78139,
        "rank_sort": 78405,
        "total": 2336
      },
      {
        "club_badge_src": "https://fantasy.premierleague.com/gcs/plfpl-production-adobe-approved/plfpl-production/4893910/2bec15bb-66d2-4e91-90cb-c104d05ffae4.png",
        "entry": 4893910,
        "entry_name": "CHAMP20NS",
        "event_total": 69,
        "has_played": true,
        "id": 37733768,
        "last_rank": 98436,
        "player_name": "Shaheed Stevie G",
        "rank": 78139,
        "rank_sort": 78406,
        "total": 2336
      },
      {
        "club_badge_src": null,
        "entry": 4909470,
        "entry_name": "BDBS",
        "event_total": 67,
        "has_played": true,
        "id": 37860492,
        "last_rank": 103254,
        "player_name": "Benn Tombleson",
        "rank": 78139,
        "rank_sort": 78407,
        "total": 2336
      },
      {
        "club_badge_src": null,
        "entry": 4997043,
        "entry_name": "Swedish Scouse Mafia",
        "event_total": 50,
        "has_played": true,
        "id": 38584391,
        "last_rank": 65475,
        "player_name": "Alex Varney",
        "rank": 78139,
        "rank_sort": 78408,
        "total": 2336
      },
      {
        "club_badge_src": null,
        "entry": 5001593,
        "entry_name": "princepet fc",
        "event_total": 67,
        "has_played": true,
        "id": 38620363,
        "last_rank": 103526,
        "player_name": "Prince peter Oduro",
        "rank": 78139,
        "rank_sort": 78409,
        "total": 2336
      },
      {
        "club_badge_src": null,
        "entry": 5058321,
        "entry_name": "Cheesewedge",
        "event_total": 54,
        "has_played": true,
        "id": 39085679,
        "last_rank": 73038,
        "player_name": "Jacob Baker",
        "rank": 78139,
        "rank_sort": 78410,
        "total": 2336
      },
      {
        "club_badge_src": null,
        "entry": 5092885,
        "entry_name": "Kross.8",
        "event_total": 59,
        "has_played": true,
        "id": 39363501,
        "last_rank": 84360,
        "player_name": "Ahmed El Shafei8",
        "rank": 78139,
        "rank_sort": 78411,
        "total": 2336
      },
      {
        "club_badge_src": null,
        "entry": 5177566,
        "entry_name": "Dit is voor die 1083",
        "event_total": 55,
        "has_played": true,
        "id": 40074913,
        "last_rank": 75537,
        "player_name": "Thomas Caira",
        "rank": 78139,
        "rank_sort": 78412,
        "total": 2336
      },
      {
        "club_badge_src": null,
        "entry": 5178694,
        "entry_name": "Power Reijnders",
        "event_total": 50,
        "has_played": true,
        "id": 40084024,
        "last_rank": 65163,
        "player_name": "Daniel Curtis-Lowe",
        "rank": 78139,
        "rank_sort": 78413,
        "total": 2336
      },
      {
        "club_badge_src": null,
        "entry": 5313013,
        "entry_name": "Amadness",
        "event_total": 54,
        "has_played": true,
        "id": 41184179,
        "last_rank": 73423,
        "player_name": "Robbie kennedy",
        "rank": 78139,
        "rank_sort": 78414,
        "total": 2336
      },
      {
        "club_badge_src": null,
        "entry": 5413634,
        "entry_name": "MAKKAH FC",
        "event_total": 48,
        "has_played": true,
        "id": 42100196,
        "last_rank": 54667,
        "player_name": "Google .",
        "rank": 78139,
        "rank_sort": 78415,
        "total": 2336
      },
      {
        "club_badge_src": null,
        "entry": 5484882,
        "entry_name": "R\u00f8yskatten",
        "event_total": 56,
        "has_played": true,
        "id": 42709971,
        "last_rank": 77050,
        "player_name": "Thea Opsahl",
        "rank": 78139,
        "rank_sort": 78416,
        "total": 2336
      },
      {
        "club_badge_src": null,
        "entry": 5523934,
        "entry_name": "IanEvattable Bounce",
        "event_total": 37,
        "has_played": true,
        "id": 43076855,
        "last_rank": 44525,
        "player_name": "Richard Talbot",
        "rank": 78139,
        "rank_sort": 78417,
        "total": 2336
      },
      {
        "club_badge_src": null,
        "entry": 5568056,
        "entry_name": "BengBeng",
        "event_total": 57,
        "has_played": true,
        "id": 43476807,
        "last_rank": 79817,
        "player_name": "ardyansyah syahkasya",
        "rank": 78139,
        "rank_sort": 78418,
        "total": 2336
      },
      {
        "club_badge_src": null,
        "entry": 5620699,
        "entry_name": "rizel taarabt",
        "event_total": 59,
        "has_played": true,
        "id": 43936790,
        "last_rank": 84731,
        "player_name": "rowan champney",
        "rank": 78139,
        "rank_sort": 78419,
        "total": 2336
      },
      {
        "club_badge_src": null,
        "entry": 5728781,
        "entry_name": "We've won it all!",
        "event_total": 54,
        "has_played": true,
        "id": 44878085,
        "last_rank": 73423,
        "player_name": "Liam Jerrum",
        "rank": 78139,
        "rank_sort": 78420,
        "total": 2336
      },
      {
        "club_badge_src": null,
        "entry": 5778470,
        "entry_name": "Cronten FC",
        "event_total": 44,
        "has_played": true,
        "id": 45310649,
        "last_rank": 55014,
        "player_name": "Christine Ronten",
        "rank": 78139,
        "rank_sort": 78421,
        "total": 2336
      },
      {
        "club_badge_src": null,
        "entry": 5826607,
        "entry_name": "moi caicerock",
        "event_total": 64,
        "has_played": true,
        "id": 45728738,
        "last_rank": 96374,
        "player_name": "Leander Daniels",
        "rank": 78139,
        "rank_sort": 78422,
        "total": 2336
      },
      {
        "club_badge_src": null,
        "entry": 5852056,
        "entry_name": "Sokratov Pressing",
        "event_total": 59,
        "has_played": true,
        "id": 45945713,
        "last_rank": 66848,
        "player_name": "Igor Djordjevic",
        "rank": 78139,
        "rank_sort": 78423,
        "total": 2336
      },
      {
        "club_badge_src": null,
        "entry": 5897021,
        "entry_name": "The highs and dalots",
        "event_total": 62,
        "has_played": true,
        "id": 46328428,
        "last_rank": 91466,
        "player_name": "Jad Safieddine",
        "rank": 78139,
        "rank_sort": 78424,
        "total": 2336
      },
      {
        "club_badge_src": null,
        "entry": 5951836,
        "entry_name": "bald jonjo",
        "event_total": 44,
        "has_played": true,
        "id": 46815303,
        "last_rank": 55014,
        "player_name": "Alex Johansson",
        "rank": 78139,
        "rank_sort": 78425,
        "total": 2336
      },
      {
        "club_badge_src": null,
        "entry": 5983920,
        "entry_name": "Gbears",
        "event_total": 66,
        "has_played": true,
        "id": 47126332,
        "last_rank": 100949,
        "player_name": "Gunnbjorn Sigfusson",
        "rank": 78139,
        "rank_sort": 78426,
        "total": 2336
      },
      {
        "club_badge_src": null,
        "entry": 6021194,
        "entry_name": "Erik Ten Bob",
        "event_total": 54,
        "has_played": true,
        "id": 47487651,
        "last_rank": 73423,
        "player_name": "Br3nt66 .",
        "rank": 78139,
        "rank_sort": 78427,
        "total": 2336
      },
      {
        "club_badge_src": null,
        "entry": 6127392,
        "entry_name": "Hell in Lascelles",
        "event_total": 45,
        "has_played": true,
        "id": 48415180,
        "last_rank": 56369,
        "player_name": "Cillian Murphy",
        "rank": 78139,
        "rank_sort": 78428,
        "total": 2336
      },
      {
        "club_badge_src": null,
        "entry": 6188505,
        "entry_name": "M\u00e9s que un club",
        "event_total": 58,
        "has_played": true,
        "id": 48945789,
        "last_rank": 81420,
        "player_name": "Joni Juhola",
        "rank": 78139,
        "rank_sort": 78429,
        "total": 2336
      },
      {
        "club_badge_src": "https://fantasy.premierleague.com/gcs/plfpl-production-adobe-approved/plfpl-production/6195327/e7baf224-f8b4-42dc-8ecf-9503f5e795e1.png",
        "entry": 6195327,
        "entry_name": "Vice City FC",
        "event_total": 38,
        "has_played": true,
        "id": 49005040,
        "last_rank": 45714,
        "player_name": "Tazwar Ahmed Jawad",
        "rank": 78139,
        "rank_sort": 78430,
        "total": 2336
      },
      {
        "club_badge_src": null,
        "entry": 6238152,
        "entry_name": "Beelsinho",
        "event_total": 53,
        "has_played": true,
        "id": 49372812,
        "last_rank": 71386,
        "player_name": "James Beels",
        "rank": 78139,
        "rank_sort": 78431,
        "total": 2336
      },
      {
        "club_badge_src": "https://fantasy.premierleague.com/gcs/plfpl-production-adobe-approved/plfpl-production/6252207/c8696c4d-5591-4c39-ab8a-c2a5f08e844c.png",
        "entry": 6252207,
        "entry_name": "Cedayne FC",
        "event_total": 70,
        "has_played": true,
        "id": 49493911,
        "last_rank": 100949,
        "player_name": "Cedayne Bent",
        "rank": 78139,
        "rank_sort": 78432,
        "total": 2336
      },
      {
        "club_badge_src": null,
        "entry": 6267301,
        "entry_name": "Isak of shiit",
        "event_total": 57,
        "has_played": true,
        "id": 49626266,
        "last_rank": 79817,
        "player_name": "David John",
        "rank": 78139,
        "rank_sort": 78433,
        "total": 2336
      },
      {
        "club_badge_src": null,
        "entry": 6272315,
        "entry_name": "Cranfield Cockerels",
        "event_total": 59,
        "has_played": true,
        "id": 49668136,
        "last_rank": 84360,
        "player_name": "Hugh McNulty",
        "rank": 78139,
        "rank_sort": 78434,
        "total": 2336
      },
      {
        "club_badge_src": null,
        "entry": 6310264,
        "entry_name": "The fallow year",
        "event_total": 71,
        "has_played": true,
        "id": 50061039,
        "last_rank": 114574,
        "player_name": "simon field",
        "rank": 78139,
        "rank_sort": 78435,
        "total": 2336
      },
      {
        "club_badge_src": null,
        "entry": 6328817,
        "entry_name": "The Mask of Porro",
        "event_total": 50,
        "has_played": true,
        "id": 50288680,
        "last_rank": 65475,
        "player_name": "Anthony Fedele",
        "rank": 78139,
        "rank_sort": 78436,
        "total": 2336
      },
      {
        "club_badge_src": null,
        "entry": 6329666,
        "entry_name": "Fk Avijaticar",
        "event_total": 66,
        "has_played": true,
        "id": 50298355,
        "last_rank": 100949,
        "player_name": "Dane Mijailovic",
        "rank": 78139,
        "rank_sort": 78437,
        "total": 2336
      },
      {
        "club_badge_src": null,
        "entry": 6331206,
        "entry_name": "Binod Tamang",
        "event_total": 67,
        "has_played": true,
        "id": 50314976,
        "last_rank": 103978,
        "player_name": "Biond Tamang",
        "rank": 78139,
        "rank_sort": 78438,
        "total": 2336
      },
      {
        "club_badge_src": null,
        "entry": 6352989,
        "entry_name": "Thisismyyear",
        "event_total": 54,
        "has_played": true,
        "id": 50505925,
        "last_rank": 65163,
        "player_name": "Severin Scheichl",
        "rank": 78139,
        "rank_sort": 78439,
        "total": 2336
      },
      {
        "club_badge_src": null,
        "entry": 6500122,
        "entry_name": "Top1 FC",
        "event_total": 60,
        "has_played": true,
        "id": 51822657,
        "last_rank": 77258,
        "player_name": "Abdou Kounta",
        "rank": 78139,
        "rank_sort": 78440,
        "total": 2336
      },
      {
        "club_badge_src": null,
        "entry": 6568103,
        "entry_name": "Eze like Sonday Morn",
        "event_total": 74,
        "has_played": true,
        "id": 52427984,
        "last_rank": 123422,
        "player_name": "Sharon Hudson",
        "rank": 78139,
        "rank_sort": 78441,
        "total": 2336
      },
      {
        "club_badge_src": null,
        "entry": 6614501,
        "entry_name": "City slickers",
        "event_total": 54,
        "has_played": true,
        "id": 52852178,
        "last_rank": 73423,
        "player_name": "john harvey",
        "rank": 78139,
        "rank_sort": 78442,
        "total": 2336
      },
      {
        "club_badge_src": null,
        "entry": 6626990,
        "entry_name": "Fan",
        "event_total": 64,
        "has_played": true,
        "id": 52960710,
        "last_rank": 95890,
        "player_name": "Wei Fan Lee",
        "rank": 78139,
        "rank_sort": 78443,
        "total": 2336
      },
      {
        "club_badge_src": null,
        "entry": 6640473,
        "entry_name": "From Wirtz to Best",
        "event_total": 50,
        "has_played": true,
        "id": 53080410,
        "last_rank": 65163,
        "player_name": "Max Mendonca",
        "rank": 78139,
        "rank_sort": 78444,
        "total": 2336
      },
      {
        "club_badge_src": null,
        "entry": 6666538,
        "entry_name": "Eze Come, Eze Go",
        "event_total": 67,
        "has_played": true,
        "id": 53315015,
        "last_rank": 103978,
        "player_name": "Emma Sykes",
        "rank": 78139,
        "rank_sort": 78445,
        "total": 2336
      },
      {
        "club_badge_src": null,
        "entry": 6774523,
        "entry_name": "Howzatden",
        "event_total": 54,
        "has_played": true,
        "id": 54244432,
        "last_rank": 72815,
        "player_name": "Gary Flower",
        "rank": 78139,
        "rank_sort": 78446,
        "total": 2336
      },
      {
        "club_badge_src": null,
        "entry": 6802151,
        "entry_name": "Hasses pungkross AB",
        "event_total": 63,
        "has_played": true,
        "id": 54474593,
        "last_rank": 93883,
        "player_name": "Michael Alenrud",
        "rank": 78139,
        "rank_sort": 78447,
        "total": 2336
      },
      {
        "club_badge_src": "https://fantasy.premierleague.com/gcs/plfpl-production-adobe-approved/plfpl-production/6818319/511e255a-6a81-4ea9-bbfe-984ac01025a1.png",
        "entry": 6818319,
        "entry_name": "Chipolopolo",
        "event_total": 54,
        "has_played": true,
        "id": 54609109,
        "last_rank": 73423,
        "player_name": "William Musonda",
        "rank": 78139,
        "rank_sort": 78448,
        "total": 2336
      },
      {
        "club_badge_src": null,
        "entry": 6829429,
        "entry_name": "Baby Reijnders",
        "event_total": 52,
        "has_played": true,
        "id": 54703411,
        "last_rank": 69323,
        "player_name": "Daniel Trinh",
        "rank": 78139,
        "rank_sort": 78449,
        "total": 2336
      },
      {
        "club_badge_src": null,
        "entry": 6880719,
        "entry_name": "TessTickles FC",
        "event_total": 58,
        "has_played": true,
        "id": 55141725,
        "last_rank": 82069,
        "player_name": "Faris Alhumaidi",
        "rank": 78139,
        "rank_sort": 78450,
        "total": 2336
      }
    ]
  }
}