{
  "last_updated_data": "2026-05-24T23:28:17Z",
  "league": {
    "admin_entry": null,
    "closed": false,
    "code_privacy": "p",
    "created": "2025-07-20T23:14:33.933835Z",
    "cup_league": 2815434,
    "has_cup": true,
    "id": 314,
    "league_type": "s",
    "max_entries": null,
    "name": "Overall",
    "rank": null,
    "scoring": "c",
    "start_event": 1
  },
  "new_entries": {
    "has_next": false,
    "page": 1,
    "results": []
  },
  "standings": {
    "has_next": true,
    "page": 572,
    "results": [
      {
        "club_badge_src": null,
        "entry": 5553123,
        "entry_name": "Bula Boot",
        "event_total": 43,
        "has_played": true,
        "id": 43342945,
        "last_rank": 17150,
        "player_name": "Deepak Chand",
        "rank": 28476,
        "rank_sort": 28551,
        "total": 2370
      },
      {
        "club_badge_src": null,
        "entry": 5557176,
        "entry_name": "Obi Wan - Kenobi Nil",
        "event_total": 66,
        "has_played": true,
        "id": 43379383,
        "last_rank": 38163,
        "player_name": "Jonny Wilson",
        "rank": 28476,
        "rank_sort": 28552,
        "total": 2370
      },
      {
        "club_badge_src": null,
        "entry": 5737467,
        "entry_name": "Expected Toulouse",
        "event_total": 62,
        "has_played": true,
        "id": 44953596,
        "last_rank": 33483,
        "player_name": "Naheem Bashir",
        "rank": 28476,
        "rank_sort": 28553,
        "total": 2370
      },
      {
        "club_badge_src": null,
        "entry": 5866110,
        "entry_name": "FC Josagrogg",
        "event_total": 53,
        "has_played": true,
        "id": 46073588,
        "last_rank": 21301,
        "player_name": "Joakim Isberg",
        "rank": 28476,
        "rank_sort": 28554,
        "total": 2370
      },
      {
        "club_badge_src": null,
        "entry": 5889179,
        "entry_name": "HM11",
        "event_total": 59,
        "has_played": true,
        "id": 46262266,
        "last_rank": 22685,
        "player_name": "hussain alramel",
        "rank": 28476,
        "rank_sort": 28555,
        "total": 2370
      },
      {
        "club_badge_src": null,
        "entry": 6268018,
        "entry_name": "he.is.mark",
        "event_total": 38,
        "has_played": true,
        "id": 49632241,
        "last_rank": 14148,
        "player_name": "Only Mac",
        "rank": 28476,
        "rank_sort": 28556,
        "total": 2370
      },
      {
        "club_badge_src": null,
        "entry": 6763847,
        "entry_name": "Bouhroum sami",
        "event_total": 52,
        "has_played": true,
        "id": 54156017,
        "last_rank": 20416,
        "player_name": "sami bouhroum",
        "rank": 28476,
        "rank_sort": 28557,
        "total": 2370
      },
      {
        "club_badge_src": null,
        "entry": 6947667,
        "entry_name": "Shirlock Home",
        "event_total": 68,
        "has_played": true,
        "id": 55707671,
        "last_rank": 40503,
        "player_name": "Shirley Tan",
        "rank": 28476,
        "rank_sort": 28558,
        "total": 2370
      },
      {
        "club_badge_src": "https://fantasy.premierleague.com/gcs/plfpl-production-adobe-approved/plfpl-production/6953707/da2c1f98-f734-4533-a6b3-38c012c219f0.png",
        "entry": 6953707,
        "entry_name": "Milan Baro\u0161",
        "event_total": 68,
        "has_played": true,
        "id": 55759496,
        "last_rank": 40647,
        "player_name": "Mazen 3arishy",
        "rank": 28476,
        "rank_sort": 28559,
        "total": 2370
      },
      {
        "club_badge_src": "https://fantasy.premierleague.com/gcs/plfpl-production-adobe-approved/plfpl-production/7041689/14cbd166-cd76-433e-8e91-3fdd46087bcd.png",
        "entry": 7041689,
        "entry_name": "Otunba Ajayi",
        "event_total": 67,
        "has_played": true,
        "id": 56614652,
        "last_rank": 39246,
        "player_name": "Ajayi Ayomide",
        "rank": 28476,
        "rank_sort": 28560,
        "total": 2370
      },
      {
        "club_badge_src": null,
        "entry": 7068067,
        "entry_name": "Goody GGCC",
        "event_total": 59,
        "has_played": true,
        "id": 56871057,
        "last_rank": 30191,
        "player_name": "Erik Gollcher",
        "rank": 28476,
        "rank_sort": 28561,
        "total": 2370
      },
      {
        "club_badge_src": null,
        "entry": 7097942,
        "entry_name": "Playvind FC",
        "event_total": 70,
        "has_played": true,
        "id": 57155992,
        "last_rank": 42648,
        "player_name": "\u00d8yvind Nordgulen",
        "rank": 28476,
        "rank_sort": 28562,
        "total": 2370
      },
      {
        "club_badge_src": null,
        "entry": 7472529,
        "entry_name": "ndidi-partiye",
        "event_total": 62,
        "has_played": true,
        "id": 60928433,
        "last_rank": 33483,
        "player_name": "Michalis Skapoullis",
        "rank": 28476,
        "rank_sort": 28563,
        "total": 2370
      },
      {
        "club_badge_src": null,
        "entry": 7495546,
        "entry_name": "FC Rudi",
        "event_total": 37,
        "has_played": true,
        "id": 61223679,
        "last_rank": 13558,
        "player_name": "Ross Black",
        "rank": 28476,
        "rank_sort": 28564,
        "total": 2370
      },
      {
        "club_badge_src": null,
        "entry": 7603714,
        "entry_name": "Dragusin din tei",
        "event_total": 71,
        "has_played": true,
        "id": 62298313,
        "last_rank": 44672,
        "player_name": "Eddie Rowe",
        "rank": 28476,
        "rank_sort": 28565,
        "total": 2370
      },
      {
        "club_badge_src": null,
        "entry": 7687056,
        "entry_name": "Gabriel named Jesus",
        "event_total": 62,
        "has_played": true,
        "id": 63054897,
        "last_rank": 33483,
        "player_name": "Aaron Bennett",
        "rank": 28476,
        "rank_sort": 28566,
        "total": 2370
      },
      {
        "club_badge_src": null,
        "entry": 7818248,
        "entry_name": "FC Dad Bods",
        "event_total": 51,
        "has_played": true,
        "id": 64238803,
        "last_rank": 22921,
        "player_name": "Alex Wong",
        "rank": 28476,
        "rank_sort": 28567,
        "total": 2370
      },
      {
        "club_badge_src": null,
        "entry": 8703530,
        "entry_name": "Angel City FC",
        "event_total": 61,
        "has_played": true,
        "id": 72613091,
        "last_rank": 32335,
        "player_name": "Julie Monroe",
        "rank": 28476,
        "rank_sort": 28568,
        "total": 2370
      },
      {
        "club_badge_src": null,
        "entry": 9033088,
        "entry_name": "Extreme FC",
        "event_total": 61,
        "has_played": true,
        "id": 75799773,
        "last_rank": 32190,
        "player_name": "Ganapathy Manoharan",
        "rank": 28476,
        "rank_sort": 28569,
        "total": 2370
      },
      {
        "club_badge_src": null,
        "entry": 9251063,
        "entry_name": "AlFaissal Rahabi",
        "event_total": 47,
        "has_played": true,
        "id": 77932551,
        "last_rank": 19835,
        "player_name": "Faissal Beni Wael",
        "rank": 28476,
        "rank_sort": 28570,
        "total": 2370
      },
      {
        "club_badge_src": "https://fantasy.premierleague.com/gcs/plfpl-production-adobe-approved/plfpl-production/1336/04774c92-e47b-4b98-b049-f18b101297dc.png",
        "entry": 1336,
        "entry_name": "Babis in Wonderland",
        "event_total": 40,
        "has_played": true,
        "id": 7419,
        "last_rank": 12940,
        "player_name": "Karbownik FF",
        "rank": 28571,
        "rank_sort": 28571,
        "total": 2370
      },
      {
        "club_badge_src": null,
        "entry": 2380,
        "entry_name": "IKEA FC",
        "event_total": 59,
        "has_played": true,
        "id": 13276,
        "last_rank": 30191,
        "player_name": "Charles Karlsson",
        "rank": 28571,
        "rank_sort": 28572,
        "total": 2370
      },
      {
        "club_badge_src": null,
        "entry": 25504,
        "entry_name": "Bach on Track",
        "event_total": 64,
        "has_played": true,
        "id": 161312,
        "last_rank": 31236,
        "player_name": "Alexander Bach",
        "rank": 28571,
        "rank_sort": 28573,
        "total": 2370
      },
      {
        "club_badge_src": null,
        "entry": 26233,
        "entry_name": "KULUBEBE FC",
        "event_total": 65,
        "has_played": true,
        "id": 165857,
        "last_rank": 32335,
        "player_name": "Evangel Irenonse",
        "rank": 28571,
        "rank_sort": 28574,
        "total": 2370
      },
      {
        "club_badge_src": null,
        "entry": 29424,
        "entry_name": "FCTM",
        "event_total": 73,
        "has_played": true,
        "id": 186055,
        "last_rank": 47722,
        "player_name": "matthew guido",
        "rank": 28571,
        "rank_sort": 28575,
        "total": 2370
      },
      {
        "club_badge_src": null,
        "entry": 29650,
        "entry_name": "Gro\u00df Misconduct",
        "event_total": 63,
        "has_played": true,
        "id": 187551,
        "last_rank": 30191,
        "player_name": "Jamie Haynes",
        "rank": 28571,
        "rank_sort": 28576,
        "total": 2370
      },
      {
        "club_badge_src": null,
        "entry": 56485,
        "entry_name": "Sheer Audacity FC",
        "event_total": 73,
        "has_played": true,
        "id": 363792,
        "last_rank": 41967,
        "player_name": "D Joshi",
        "rank": 28571,
        "rank_sort": 28577,
        "total": 2370
      },
      {
        "club_badge_src": "https://fantasy.premierleague.com/gcs/plfpl-production-adobe-approved/plfpl-production/95638/3b2ed3d8-9e10-41b1-90d1-5aef9b117845.png",
        "entry": 95638,
        "entry_name": "\u2b50\ufe0f\u2b50\ufe0f\u2b50\ufe0f",
        "event_total": 81,
        "has_played": true,
        "id": 624825,
        "last_rank": 60462,
        "player_name": "Alan Broadbent",
        "rank": 28571,
        "rank_sort": 28578,
        "total": 2370
      },
      {
        "club_badge_src": null,
        "entry": 118445,
        "entry_name": "Jota Than July",
        "event_total": 41,
        "has_played": true,
        "id": 773013,
        "last_rank": 13558,
        "player_name": "Tom Poole",
        "rank": 28571,
        "rank_sort": 28579,
        "total": 2370
      },
      {
        "club_badge_src": "https://fantasy.premierleague.com/gcs/plfpl-production-adobe-approved/plfpl-production/133731/7ac429c1-fbfe-4702-968f-a3cff8985630.png",
        "entry": 133731,
        "entry_name": "Rogers That, Captain",
        "event_total": 55,
        "has_played": true,
        "id": 870991,
        "last_rank": 22921,
        "player_name": "Conor McKevitt",
        "rank": 28571,
        "rank_sort": 28580,
        "total": 2370
      },
      {
        "club_badge_src": null,
        "entry": 219527,
        "entry_name": "Fantazija",
        "event_total": 66,
        "has_played": true,
        "id": 1459904,
        "last_rank": 33483,
        "player_name": "Filip Babic",
        "rank": 28571,
        "rank_sort": 28581,
        "total": 2370
      },
      {
        "club_badge_src": null,
        "entry": 260095,
        "entry_name": "OASIS FC",
        "event_total": 82,
        "has_played": true,
        "id": 1729184,
        "last_rank": 55514,
        "player_name": "Owais Mawjee",
        "rank": 28571,
        "rank_sort": 28582,
        "total": 2370
      },
      {
        "club_badge_src": null,
        "entry": 280298,
        "entry_name": "CUNHA MBEUMO SESKOBA",
        "event_total": 55,
        "has_played": true,
        "id": 1865394,
        "last_rank": 22921,
        "player_name": "JITZ MANDAN",
        "rank": 28571,
        "rank_sort": 28583,
        "total": 2370
      },
      {
        "club_badge_src": null,
        "entry": 335829,
        "entry_name": "InthePalm\u2019er yahand!",
        "event_total": 53,
        "has_played": true,
        "id": 2248598,
        "last_rank": 21392,
        "player_name": "Philip Short",
        "rank": 28571,
        "rank_sort": 28584,
        "total": 2370
      },
      {
        "club_badge_src": null,
        "entry": 389521,
        "entry_name": "The GDogs",
        "event_total": 56,
        "has_played": true,
        "id": 2612911,
        "last_rank": 23748,
        "player_name": "Gareth Tucker",
        "rank": 28571,
        "rank_sort": 28585,
        "total": 2370
      },
      {
        "club_badge_src": null,
        "entry": 414908,
        "entry_name": "Jammy Dodgers",
        "event_total": 69,
        "has_played": true,
        "id": 2781393,
        "last_rank": 36963,
        "player_name": "James Rodger",
        "rank": 28571,
        "rank_sort": 28586,
        "total": 2370
      },
      {
        "club_badge_src": "https://fantasy.premierleague.com/gcs/plfpl-production-adobe-approved/plfpl-production/582410/fb0f6f84-45ad-4df2-9fbc-193f5b24200e.png",
        "entry": 582410,
        "entry_name": ".",
        "event_total": 58,
        "has_played": true,
        "id": 3919548,
        "last_rank": 29279,
        "player_name": "paddy mooney",
        "rank": 28571,
        "rank_sort": 28587,
        "total": 2370
      },
      {
        "club_badge_src": "https://fantasy.premierleague.com/gcs/plfpl-production-adobe-approved/plfpl-production/638995/7ff3a15a-f2b0-49b2-9b01-7134626b57a8.png",
        "entry": 638995,
        "entry_name": "Wirtz up, gang?",
        "event_total": 50,
        "has_played": true,
        "id": 4318571,
        "last_rank": 16441,
        "player_name": "Adam Scheibeler",
        "rank": 28571,
        "rank_sort": 28588,
        "total": 2370
      },
      {
        "club_badge_src": null,
        "entry": 657291,
        "entry_name": "elliot is ass",
        "event_total": 69,
        "has_played": true,
        "id": 4441956,
        "last_rank": 36963,
        "player_name": "Ben Tiley",
        "rank": 28571,
        "rank_sort": 28589,
        "total": 2370
      },
      {
        "club_badge_src": null,
        "entry": 680833,
        "entry_name": "Nottingham Prisa",
        "event_total": 67,
        "has_played": true,
        "id": 4607433,
        "last_rank": 39510,
        "player_name": "Javier L\u00f3pez Casais",
        "rank": 28571,
        "rank_sort": 28590,
        "total": 2370
      },
      {
        "club_badge_src": null,
        "entry": 739436,
        "entry_name": "Jamestown FC",
        "event_total": 62,
        "has_played": true,
        "id": 5027522,
        "last_rank": 33582,
        "player_name": "James Share",
        "rank": 28571,
        "rank_sort": 28591,
        "total": 2370
      },
      {
        "club_badge_src": null,
        "entry": 762368,
        "entry_name": "We'll have a Lookman",
        "event_total": 55,
        "has_played": true,
        "id": 5199048,
        "last_rank": 26425,
        "player_name": "Dan Lord",
        "rank": 28571,
        "rank_sort": 28592,
        "total": 2370
      },
      {
        "club_badge_src": null,
        "entry": 910485,
        "entry_name": "Visca Bar\u00e7a",
        "event_total": 65,
        "has_played": true,
        "id": 6260201,
        "last_rank": 36963,
        "player_name": "KIROLOS NABIL",
        "rank": 28571,
        "rank_sort": 28593,
        "total": 2370
      },
      {
        "club_badge_src": null,
        "entry": 984954,
        "entry_name": "Mohammed\ufffd",
        "event_total": 67,
        "has_played": true,
        "id": 6790890,
        "last_rank": 39246,
        "player_name": "Mohammed Rahmani--",
        "rank": 28571,
        "rank_sort": 28594,
        "total": 2370
      },
      {
        "club_badge_src": null,
        "entry": 1035914,
        "entry_name": "wedonttalkaboutbruno",
        "event_total": 62,
        "has_played": true,
        "id": 7168631,
        "last_rank": 33483,
        "player_name": "Jordan Galloway",
        "rank": 28571,
        "rank_sort": 28595,
        "total": 2370
      },
      {
        "club_badge_src": null,
        "entry": 1130461,
        "entry_name": "Usetheforceluke15",
        "event_total": 51,
        "has_played": true,
        "id": 7835394,
        "last_rank": 22830,
        "player_name": "Kyle Flood",
        "rank": 28571,
        "rank_sort": 28596,
        "total": 2370
      },
      {
        "club_badge_src": null,
        "entry": 1217850,
        "entry_name": "Matz Sels Seashells",
        "event_total": 56,
        "has_played": true,
        "id": 8453447,
        "last_rank": 23748,
        "player_name": "Sreejesh J S",
        "rank": 28571,
        "rank_sort": 28597,
        "total": 2370
      },
      {
        "club_badge_src": null,
        "entry": 2041759,
        "entry_name": "S A",
        "event_total": 57,
        "has_played": true,
        "id": 14459080,
        "last_rank": 24570,
        "player_name": "S Ali",
        "rank": 28571,
        "rank_sort": 28598,
        "total": 2370
      },
      {
        "club_badge_src": null,
        "entry": 2169870,
        "entry_name": "ROVERS",
        "event_total": 66,
        "has_played": true,
        "id": 15427863,
        "last_rank": 38163,
        "player_name": "Ignatius Engine",
        "rank": 28571,
        "rank_sort": 28599,
        "total": 2370
      },
      {
        "club_badge_src": null,
        "entry": 2179721,
        "entry_name": "Chelsea boys",
        "event_total": 66,
        "has_played": true,
        "id": 15502489,
        "last_rank": 38267,
        "player_name": "Ivo Skoko",
        "rank": 28571,
        "rank_sort": 28600,
        "total": 2370
      }
    ]
  }
}