{
  "last_updated_data": "2026-05-24T23:28:17Z",
  "league": {
    "admin_entry": null,
    "closed": false,
    "code_privacy": "p",
    "created": "2025-07-20T23:14:33.933835Z",
    "cup_league": 2815434,
    "has_cup": true,
    "id": 314,
    "league_type": "s",
    "max_entries": null,
    "name": "Overall",
    "rank": null,
    "scoring": "c",
    "start_event": 1
  },
  "new_entries": {
    "has_next": false,
    "page": 1,
    "results": []
  },
  "standings": {
    "has_next": true,
    "page": 455,
    "results": [
      {
        "club_badge_src": null,
        "entry": 1284289,
        "entry_name": "Captain's Gooners",
        "event_total": 73,
        "has_played": true,
        "id": 8924136,
        "last_rank": 33729,
        "player_name": "steve cohen",
        "rank": 22697,
        "rank_sort": 22701,
        "total": 2377
      },
      {
        "club_badge_src": "https://fantasy.premierleague.com/gcs/plfpl-production-adobe-approved/plfpl-production/2206522/98eaa871-b91c-4173-abd4-e2fb3c8393b2.png",
        "entry": 2206522,
        "entry_name": "!! White Walkers !!",
        "event_total": 69,
        "has_played": true,
        "id": 15709987,
        "last_rank": 33729,
        "player_name": "Erman \u00d6ztezer",
        "rank": 22697,
        "rank_sort": 22702,
        "total": 2377
      },
      {
        "club_badge_src": "https://fantasy.premierleague.com/gcs/plfpl-production-adobe-approved/plfpl-production/2270844/93cf0d45-0dc4-4fbb-9ccd-61754253bb4f.png",
        "entry": 2270844,
        "entry_name": "Stranger Mings",
        "event_total": 64,
        "has_played": true,
        "id": 16192161,
        "last_rank": 24735,
        "player_name": "Lea Pearson",
        "rank": 22697,
        "rank_sort": 22703,
        "total": 2377
      },
      {
        "club_badge_src": null,
        "entry": 4757781,
        "entry_name": "Bobby's Blue Boys",
        "event_total": 55,
        "has_played": true,
        "id": 36613492,
        "last_rank": 17909,
        "player_name": "Paul Turner",
        "rank": 22697,
        "rank_sort": 22704,
        "total": 2377
      },
      {
        "club_badge_src": null,
        "entry": 6311004,
        "entry_name": "Breezy",
        "event_total": 48,
        "has_played": true,
        "id": 50069564,
        "last_rank": 15999,
        "player_name": "Bryan Breezy",
        "rank": 22697,
        "rank_sort": 22705,
        "total": 2377
      },
      {
        "club_badge_src": null,
        "entry": 6373680,
        "entry_name": "AFC Wimbletom",
        "event_total": 54,
        "has_played": true,
        "id": 50686682,
        "last_rank": 20065,
        "player_name": "Tom Culhane",
        "rank": 22697,
        "rank_sort": 22706,
        "total": 2377
      },
      {
        "club_badge_src": null,
        "entry": 7192947,
        "entry_name": "Desguardiola",
        "event_total": 57,
        "has_played": true,
        "id": 58067318,
        "last_rank": 22331,
        "player_name": "Jack Griffiths",
        "rank": 22697,
        "rank_sort": 22707,
        "total": 2377
      },
      {
        "club_badge_src": null,
        "entry": 9348932,
        "entry_name": "Eze come Eze go",
        "event_total": 61,
        "has_played": true,
        "id": 78877210,
        "last_rank": 25633,
        "player_name": "Sharon Hasson",
        "rank": 22697,
        "rank_sort": 22708,
        "total": 2377
      },
      {
        "club_badge_src": "https://fantasy.premierleague.com/gcs/plfpl-production-adobe-approved/plfpl-production/106964/91be0fbc-d0bc-4bf6-b7e4-4f65796898cb.png",
        "entry": 106964,
        "entry_name": "TRIPLE R",
        "event_total": 77,
        "has_played": true,
        "id": 697367,
        "last_rank": 43607,
        "player_name": "Ridwan Rashid Rafi",
        "rank": 22709,
        "rank_sort": 22709,
        "total": 2377
      },
      {
        "club_badge_src": null,
        "entry": 111045,
        "entry_name": "Mediocri City",
        "event_total": 68,
        "has_played": true,
        "id": 724152,
        "last_rank": 32586,
        "player_name": "Mark Tucker",
        "rank": 22709,
        "rank_sort": 22710,
        "total": 2377
      },
      {
        "club_badge_src": null,
        "entry": 168841,
        "entry_name": "skool boys own stuff",
        "event_total": 62,
        "has_played": true,
        "id": 1115867,
        "last_rank": 17246,
        "player_name": "Steven Barrow",
        "rank": 22709,
        "rank_sort": 22711,
        "total": 2377
      },
      {
        "club_badge_src": null,
        "entry": 556545,
        "entry_name": "3amooor",
        "event_total": 77,
        "has_played": true,
        "id": 3745584,
        "last_rank": 38448,
        "player_name": "Omar Amr",
        "rank": 22709,
        "rank_sort": 22712,
        "total": 2377
      },
      {
        "club_badge_src": null,
        "entry": 619978,
        "entry_name": "The Melonheads",
        "event_total": 55,
        "has_played": true,
        "id": 4189768,
        "last_rank": 15350,
        "player_name": "Ian Sanderson",
        "rank": 22709,
        "rank_sort": 22713,
        "total": 2377
      },
      {
        "club_badge_src": "https://fantasy.premierleague.com/gcs/plfpl-production-adobe-approved/plfpl-production/1432408/7f7998df-7db4-4406-9530-7360737400aa.png",
        "entry": 1432408,
        "entry_name": "\u062a\u0627\u062c\u0631 \u0628\u063a\u0627\u0627\u0627\u0644 \u0648 \u0632\u0641\u0632\u0641",
        "event_total": 60,
        "has_played": true,
        "id": 9981104,
        "last_rank": 24770,
        "player_name": "Marwan El Shabat",
        "rank": 22709,
        "rank_sort": 22714,
        "total": 2377
      },
      {
        "club_badge_src": null,
        "entry": 3552710,
        "entry_name": "Talk to me, Goose",
        "event_total": 61,
        "has_played": true,
        "id": 26449517,
        "last_rank": 25633,
        "player_name": "Robert Hayes",
        "rank": 22709,
        "rank_sort": 22715,
        "total": 2377
      },
      {
        "club_badge_src": null,
        "entry": 5986138,
        "entry_name": "Stewart FC",
        "event_total": 60,
        "has_played": true,
        "id": 47150486,
        "last_rank": 21545,
        "player_name": "Chris Stewart",
        "rank": 22709,
        "rank_sort": 22716,
        "total": 2377
      },
      {
        "club_badge_src": null,
        "entry": 7979923,
        "entry_name": "Udon Lady",
        "event_total": 57,
        "has_played": true,
        "id": 65706701,
        "last_rank": 19332,
        "player_name": "Nantiya Parks",
        "rank": 22709,
        "rank_sort": 22717,
        "total": 2377
      },
      {
        "club_badge_src": null,
        "entry": 29095,
        "entry_name": "RuSu",
        "event_total": 59,
        "has_played": true,
        "id": 183968,
        "last_rank": 23936,
        "player_name": "Ruth Olsson",
        "rank": 22718,
        "rank_sort": 22718,
        "total": 2377
      },
      {
        "club_badge_src": null,
        "entry": 50865,
        "entry_name": "Bruno dos tres",
        "event_total": 68,
        "has_played": true,
        "id": 327194,
        "last_rank": 32598,
        "player_name": "Ger Middleton",
        "rank": 22718,
        "rank_sort": 22719,
        "total": 2377
      },
      {
        "club_badge_src": null,
        "entry": 95902,
        "entry_name": "Sakho Matip",
        "event_total": 51,
        "has_played": true,
        "id": 626539,
        "last_rank": 17936,
        "player_name": "Indie Uppal",
        "rank": 22718,
        "rank_sort": 22720,
        "total": 2377
      },
      {
        "club_badge_src": null,
        "entry": 97803,
        "entry_name": "Blahrren FF",
        "event_total": 62,
        "has_played": true,
        "id": 638741,
        "last_rank": 26576,
        "player_name": "Johan Hellstr\u00f6m",
        "rank": 22718,
        "rank_sort": 22721,
        "total": 2377
      },
      {
        "club_badge_src": "https://fantasy.premierleague.com/gcs/plfpl-production-adobe-approved/plfpl-production/2158388/7552836e-2dfe-41bf-b3c6-aae3db73408a.png",
        "entry": 2158388,
        "entry_name": "eltarlo \u0627\u0644\u062c\u0632\u0627\u0626\u0631",
        "event_total": 70,
        "has_played": true,
        "id": 15343416,
        "last_rank": 30433,
        "player_name": "baliouze walid",
        "rank": 22718,
        "rank_sort": 22722,
        "total": 2377
      },
      {
        "club_badge_src": null,
        "entry": 6349503,
        "entry_name": "FK Tofotstakling",
        "event_total": 60,
        "has_played": true,
        "id": 50474218,
        "last_rank": 21558,
        "player_name": "Roald Ellingsen",
        "rank": 22718,
        "rank_sort": 22723,
        "total": 2377
      },
      {
        "club_badge_src": "https://fantasy.premierleague.com/gcs/plfpl-production-adobe-approved/plfpl-production/745825/bba7b807-9bf7-4109-903e-72d6b620de07.png",
        "entry": 745825,
        "entry_name": "hacunha mateta",
        "event_total": 75,
        "has_played": true,
        "id": 5073657,
        "last_rank": 40986,
        "player_name": "Alexander Keith",
        "rank": 22724,
        "rank_sort": 22724,
        "total": 2377
      },
      {
        "club_badge_src": null,
        "entry": 1079125,
        "entry_name": "ekitike taka",
        "event_total": 66,
        "has_played": true,
        "id": 7471942,
        "last_rank": 26567,
        "player_name": "Thomas Coote",
        "rank": 22724,
        "rank_sort": 22725,
        "total": 2377
      },
      {
        "club_badge_src": null,
        "entry": 3115110,
        "entry_name": "Keanettrgt",
        "event_total": 66,
        "has_played": true,
        "id": 22987656,
        "last_rank": 30450,
        "player_name": "Thanadon Thongprasert",
        "rank": 22724,
        "rank_sort": 22726,
        "total": 2377
      },
      {
        "club_badge_src": null,
        "entry": 4862142,
        "entry_name": "Sunday League FC",
        "event_total": 65,
        "has_played": true,
        "id": 37469951,
        "last_rank": 25666,
        "player_name": "Shane Millan",
        "rank": 22724,
        "rank_sort": 22727,
        "total": 2377
      },
      {
        "club_badge_src": null,
        "entry": 9138301,
        "entry_name": "skibidi aura",
        "event_total": 56,
        "has_played": true,
        "id": 76827083,
        "last_rank": 18609,
        "player_name": "Rezero Zero",
        "rank": 22724,
        "rank_sort": 22728,
        "total": 2377
      },
      {
        "club_badge_src": null,
        "entry": 2977950,
        "entry_name": "zaki",
        "event_total": 74,
        "has_played": true,
        "id": 21889270,
        "last_rank": 30443,
        "player_name": "Zaki bachiri",
        "rank": 22729,
        "rank_sort": 22729,
        "total": 2377
      },
      {
        "club_badge_src": null,
        "entry": 4417481,
        "entry_name": "NBA FOR REALLY FC",
        "event_total": 70,
        "has_played": true,
        "id": 33608282,
        "last_rank": 30450,
        "player_name": "Brooklyn NBA",
        "rank": 22729,
        "rank_sort": 22730,
        "total": 2377
      },
      {
        "club_badge_src": null,
        "entry": 5416164,
        "entry_name": "K\u00e5l\u00e5ker 66",
        "event_total": 75,
        "has_played": true,
        "id": 42121388,
        "last_rank": 40986,
        "player_name": "Erik Horn",
        "rank": 22729,
        "rank_sort": 22731,
        "total": 2377
      },
      {
        "club_badge_src": "https://fantasy.premierleague.com/gcs/plfpl-production-adobe-approved/plfpl-production/45948/02521589-a570-4487-b009-748f7a1cb79b.png",
        "entry": 45948,
        "entry_name": "ManOriginal",
        "event_total": 66,
        "has_played": true,
        "id": 294684,
        "last_rank": 30463,
        "player_name": "Alexis Margaritis",
        "rank": 22732,
        "rank_sort": 22732,
        "total": 2377
      },
      {
        "club_badge_src": null,
        "entry": 1209725,
        "entry_name": "FC Helland Road",
        "event_total": 50,
        "has_played": true,
        "id": 8396305,
        "last_rank": 17289,
        "player_name": "David Winnard",
        "rank": 22732,
        "rank_sort": 22733,
        "total": 2377
      },
      {
        "club_badge_src": null,
        "entry": 2006119,
        "entry_name": "damn FC",
        "event_total": 66,
        "has_played": true,
        "id": 14183668,
        "last_rank": 30463,
        "player_name": "Damian Berli",
        "rank": 22732,
        "rank_sort": 22734,
        "total": 2377
      },
      {
        "club_badge_src": null,
        "entry": 2682723,
        "entry_name": "Predator FC",
        "event_total": 70,
        "has_played": true,
        "id": 19294636,
        "last_rank": 30456,
        "player_name": "Waseem Joomun",
        "rank": 22732,
        "rank_sort": 22735,
        "total": 2377
      },
      {
        "club_badge_src": null,
        "entry": 2257730,
        "entry_name": "Dellow's Dream",
        "event_total": 71,
        "has_played": true,
        "id": 16094841,
        "last_rank": 31492,
        "player_name": "Steve Dellow",
        "rank": 22736,
        "rank_sort": 22736,
        "total": 2377
      },
      {
        "club_badge_src": null,
        "entry": 563529,
        "entry_name": "Salty Pretzels",
        "event_total": 58,
        "has_played": true,
        "id": 3793031,
        "last_rank": 23135,
        "player_name": "niklas mascha",
        "rank": 22737,
        "rank_sort": 22737,
        "total": 2377
      },
      {
        "club_badge_src": null,
        "entry": 1329741,
        "entry_name": "Speedo F.C",
        "event_total": 65,
        "has_played": true,
        "id": 9242767,
        "last_rank": 25680,
        "player_name": "Methuselah orioki",
        "rank": 22737,
        "rank_sort": 22738,
        "total": 2377
      },
      {
        "club_badge_src": null,
        "entry": 7534481,
        "entry_name": "Peaky Reijnders",
        "event_total": 55,
        "has_played": true,
        "id": 61669268,
        "last_rank": 20804,
        "player_name": "Craig Hardman",
        "rank": 22739,
        "rank_sort": 22739,
        "total": 2377
      },
      {
        "club_badge_src": null,
        "entry": 6538153,
        "entry_name": "Quinnie's Angels",
        "event_total": 53,
        "has_played": true,
        "id": 52161288,
        "last_rank": 19353,
        "player_name": "Quinten Verbunt",
        "rank": 22740,
        "rank_sort": 22740,
        "total": 2376
      },
      {
        "club_badge_src": null,
        "entry": 3147181,
        "entry_name": "Stuck in the Mudryk",
        "event_total": 53,
        "has_played": true,
        "id": 23238017,
        "last_rank": 19356,
        "player_name": "Julian Goldstraw",
        "rank": 22741,
        "rank_sort": 22741,
        "total": 2376
      },
      {
        "club_badge_src": null,
        "entry": 7977744,
        "entry_name": "Deportivo Cali",
        "event_total": 89,
        "has_played": true,
        "id": 65687169,
        "last_rank": 63037,
        "player_name": "Luis Perez",
        "rank": 22741,
        "rank_sort": 22742,
        "total": 2376
      },
      {
        "club_badge_src": null,
        "entry": 683457,
        "entry_name": "Mechanics Away End",
        "event_total": 53,
        "has_played": true,
        "id": 4625788,
        "last_rank": 19360,
        "player_name": "Neil richardson",
        "rank": 22743,
        "rank_sort": 22743,
        "total": 2376
      },
      {
        "club_badge_src": null,
        "entry": 2384251,
        "entry_name": "Viktorious Szczyt",
        "event_total": 58,
        "has_played": true,
        "id": 17026175,
        "last_rank": 23143,
        "player_name": "Sam Gardner",
        "rank": 22743,
        "rank_sort": 22744,
        "total": 2376
      },
      {
        "club_badge_src": null,
        "entry": 2484513,
        "entry_name": "Hibernian NK",
        "event_total": 46,
        "has_played": true,
        "id": 17778765,
        "last_rank": 14802,
        "player_name": "Liam Wallace",
        "rank": 22743,
        "rank_sort": 22745,
        "total": 2376
      },
      {
        "club_badge_src": null,
        "entry": 4372637,
        "entry_name": "PAD Request FC",
        "event_total": 65,
        "has_played": true,
        "id": 33222298,
        "last_rank": 29471,
        "player_name": "Joscelin Pinnington",
        "rank": 22743,
        "rank_sort": 22746,
        "total": 2376
      },
      {
        "club_badge_src": null,
        "entry": 8304978,
        "entry_name": "Dunk and Disorderly",
        "event_total": 55,
        "has_played": true,
        "id": 68762413,
        "last_rank": 20807,
        "player_name": "William Bryant",
        "rank": 22743,
        "rank_sort": 22747,
        "total": 2376
      },
      {
        "club_badge_src": "https://fantasy.premierleague.com/gcs/plfpl-production-adobe-approved/plfpl-production/783818/66c9ca37-198b-4eb7-ae81-f6e443ca90c5.png",
        "entry": 783818,
        "entry_name": "Wirtz Case Scenario",
        "event_total": 60,
        "has_played": true,
        "id": 5353460,
        "last_rank": 24805,
        "player_name": "Sam Yarwood",
        "rank": 22748,
        "rank_sort": 22748,
        "total": 2376
      },
      {
        "club_badge_src": "https://fantasy.premierleague.com/gcs/plfpl-production-adobe-approved/plfpl-production/833991/5df84074-1b01-4023-a908-742ded535ca6.png",
        "entry": 833991,
        "entry_name": "Big Ben",
        "event_total": 55,
        "has_played": true,
        "id": 5712708,
        "last_rank": 20814,
        "player_name": "Ben Howard",
        "rank": 22748,
        "rank_sort": 22749,
        "total": 2376
      },
      {
        "club_badge_src": null,
        "entry": 1419548,
        "entry_name": "JCFC",
        "event_total": 51,
        "has_played": true,
        "id": 9884208,
        "last_rank": 17960,
        "player_name": "John Clarke",
        "rank": 22748,
        "rank_sort": 22750,
        "total": 2376
      }
    ]
  }
}