{
  "last_updated_data": "2026-05-24T23:28:17Z",
  "league": {
    "admin_entry": null,
    "closed": false,
    "code_privacy": "p",
    "created": "2025-07-20T23:14:33.933835Z",
    "cup_league": 2815434,
    "has_cup": true,
    "id": 314,
    "league_type": "s",
    "max_entries": null,
    "name": "Overall",
    "rank": null,
    "scoring": "c",
    "start_event": 1
  },
  "new_entries": {
    "has_next": false,
    "page": 1,
    "results": []
  },
  "standings": {
    "has_next": true,
    "page": 1116,
    "results": [
      {
        "club_badge_src": null,
        "entry": 1013920,
        "entry_name": "We Go Again",
        "event_total": 60,
        "has_played": true,
        "id": 7014089,
        "last_rank": 61411,
        "player_name": "Austin Laylee",
        "rank": 55651,
        "rank_sort": 55751,
        "total": 2348
      },
      {
        "club_badge_src": null,
        "entry": 1018937,
        "entry_name": "Magic Marks",
        "event_total": 66,
        "has_played": true,
        "id": 7049365,
        "last_rank": 73038,
        "player_name": "Mark Branch",
        "rank": 55651,
        "rank_sort": 55752,
        "total": 2348
      },
      {
        "club_badge_src": null,
        "entry": 1033459,
        "entry_name": "Baby Reijnders",
        "event_total": 57,
        "has_played": true,
        "id": 7150941,
        "last_rank": 56369,
        "player_name": "Alex Barton",
        "rank": 55651,
        "rank_sort": 55753,
        "total": 2348
      },
      {
        "club_badge_src": null,
        "entry": 1033646,
        "entry_name": "Cocos Clowns",
        "event_total": 57,
        "has_played": true,
        "id": 7152549,
        "last_rank": 56180,
        "player_name": "John Calvert",
        "rank": 55651,
        "rank_sort": 55754,
        "total": 2348
      },
      {
        "club_badge_src": null,
        "entry": 1079715,
        "entry_name": "Ji Sung Park the Bus",
        "event_total": 58,
        "has_played": true,
        "id": 7476064,
        "last_rank": 57857,
        "player_name": "Matt Hughes",
        "rank": 55651,
        "rank_sort": 55755,
        "total": 2348
      },
      {
        "club_badge_src": null,
        "entry": 1087717,
        "entry_name": "Bn_Nasher20",
        "event_total": 33,
        "has_played": true,
        "id": 7532894,
        "last_rank": 26088,
        "player_name": "Ahmed Abdulhkeem",
        "rank": 55651,
        "rank_sort": 55756,
        "total": 2348
      },
      {
        "club_badge_src": null,
        "entry": 1105946,
        "entry_name": "Humberston FC",
        "event_total": 55,
        "has_played": true,
        "id": 7660527,
        "last_rank": 52759,
        "player_name": "Shaun Matthews",
        "rank": 55651,
        "rank_sort": 55757,
        "total": 2348
      },
      {
        "club_badge_src": null,
        "entry": 1152381,
        "entry_name": "Walsh on Walsh off",
        "event_total": 54,
        "has_played": true,
        "id": 7990312,
        "last_rank": 51403,
        "player_name": "Niall Walsh",
        "rank": 55651,
        "rank_sort": 55758,
        "total": 2348
      },
      {
        "club_badge_src": null,
        "entry": 1165653,
        "entry_name": "Red Hot Chilli Kepa",
        "event_total": 55,
        "has_played": true,
        "id": 8086011,
        "last_rank": 52853,
        "player_name": "John Goodhall",
        "rank": 55651,
        "rank_sort": 55759,
        "total": 2348
      },
      {
        "club_badge_src": null,
        "entry": 1170824,
        "entry_name": "Bravo7",
        "event_total": 67,
        "has_played": true,
        "id": 8122506,
        "last_rank": 74898,
        "player_name": "Igor Pejak",
        "rank": 55651,
        "rank_sort": 55760,
        "total": 2348
      },
      {
        "club_badge_src": null,
        "entry": 1239625,
        "entry_name": "UMF Agnars",
        "event_total": 60,
        "has_played": true,
        "id": 8609150,
        "last_rank": 61411,
        "player_name": "Helgi Agnarsson",
        "rank": 55651,
        "rank_sort": 55761,
        "total": 2348
      },
      {
        "club_badge_src": null,
        "entry": 1258569,
        "entry_name": "Pimpinaafc",
        "event_total": 33,
        "has_played": true,
        "id": 8742287,
        "last_rank": 25902,
        "player_name": "Francis Dugbanor kwablah",
        "rank": 55651,
        "rank_sort": 55762,
        "total": 2348
      },
      {
        "club_badge_src": null,
        "entry": 1302648,
        "entry_name": "EarthWindAndMaguire",
        "event_total": 51,
        "has_played": true,
        "id": 9053417,
        "last_rank": 46839,
        "player_name": "Rhodri Harries",
        "rank": 55651,
        "rank_sort": 55763,
        "total": 2348
      },
      {
        "club_badge_src": null,
        "entry": 1336480,
        "entry_name": "Red Hugh",
        "event_total": 60,
        "has_played": true,
        "id": 9289947,
        "last_rank": 61411,
        "player_name": "Shane Curley",
        "rank": 55651,
        "rank_sort": 55764,
        "total": 2348
      },
      {
        "club_badge_src": null,
        "entry": 1409261,
        "entry_name": "side For Sore Eyes",
        "event_total": 58,
        "has_played": true,
        "id": 9805996,
        "last_rank": 57776,
        "player_name": "Ian Harrison",
        "rank": 55651,
        "rank_sort": 55765,
        "total": 2348
      },
      {
        "club_badge_src": null,
        "entry": 1410618,
        "entry_name": "IceCold",
        "event_total": 63,
        "has_played": true,
        "id": 9815620,
        "last_rank": 66848,
        "player_name": "zaieed hasan",
        "rank": 55651,
        "rank_sort": 55766,
        "total": 2348
      },
      {
        "club_badge_src": null,
        "entry": 1424057,
        "entry_name": "Slotenheimer",
        "event_total": 69,
        "has_played": true,
        "id": 9920145,
        "last_rank": 79190,
        "player_name": "George Kearns",
        "rank": 55651,
        "rank_sort": 55767,
        "total": 2348
      },
      {
        "club_badge_src": "https://fantasy.premierleague.com/gcs/plfpl-production-adobe-approved/plfpl-production/1432085/708683eb-9103-4090-9a47-9833f5adfffd.png",
        "entry": 1432085,
        "entry_name": "Schwoaghof City",
        "event_total": 68,
        "has_played": true,
        "id": 9978899,
        "last_rank": 76947,
        "player_name": "Daniel Kaltenbacher",
        "rank": 55651,
        "rank_sort": 55768,
        "total": 2348
      },
      {
        "club_badge_src": null,
        "entry": 1441600,
        "entry_name": "Dirty Leeds FC",
        "event_total": 59,
        "has_played": true,
        "id": 10045441,
        "last_rank": 59813,
        "player_name": "Michael Colloby",
        "rank": 55651,
        "rank_sort": 55769,
        "total": 2348
      },
      {
        "club_badge_src": null,
        "entry": 1442553,
        "entry_name": "GOAT",
        "event_total": 58,
        "has_played": true,
        "id": 10052015,
        "last_rank": 57857,
        "player_name": "Mahmood Ahmed",
        "rank": 55651,
        "rank_sort": 55770,
        "total": 2348
      },
      {
        "club_badge_src": null,
        "entry": 1481283,
        "entry_name": "\u0422\u0430\u0440\u0430\u0431\u0430\u0448\u0438",
        "event_total": 63,
        "has_played": true,
        "id": 10329231,
        "last_rank": 66848,
        "player_name": "Berislav Bro\u0107ilo",
        "rank": 55651,
        "rank_sort": 55771,
        "total": 2348
      },
      {
        "club_badge_src": null,
        "entry": 1481696,
        "entry_name": "Keown's XI",
        "event_total": 39,
        "has_played": true,
        "id": 10332159,
        "last_rank": 31995,
        "player_name": "Keown Cant",
        "rank": 55651,
        "rank_sort": 55772,
        "total": 2348
      },
      {
        "club_badge_src": "https://fantasy.premierleague.com/gcs/plfpl-production-adobe-approved/plfpl-production/1490928/ad15120c-ac56-4351-b101-58d567fb5448.png",
        "entry": 1490928,
        "entry_name": "Peixes fora D'\u00c1gua",
        "event_total": 67,
        "has_played": true,
        "id": 10396937,
        "last_rank": 74898,
        "player_name": "Pedro Almeida",
        "rank": 55651,
        "rank_sort": 55773,
        "total": 2348
      },
      {
        "club_badge_src": "https://fantasy.premierleague.com/gcs/plfpl-production-adobe-approved/plfpl-production/1537018/b8e0d9c9-55b4-4ae2-b42a-7bbfbf8a110d.png",
        "entry": 1537018,
        "entry_name": "Tuna",
        "event_total": 62,
        "has_played": true,
        "id": 10726917,
        "last_rank": 64943,
        "player_name": "Shubham Kumar",
        "rank": 55651,
        "rank_sort": 55774,
        "total": 2348
      },
      {
        "club_badge_src": null,
        "entry": 1552488,
        "entry_name": "Yorowe'llwinDalot",
        "event_total": 65,
        "has_played": true,
        "id": 10839743,
        "last_rank": 70651,
        "player_name": "David Mc Sweeney",
        "rank": 55651,
        "rank_sort": 55775,
        "total": 2348
      },
      {
        "club_badge_src": null,
        "entry": 1583617,
        "entry_name": "Waytoinvested FC",
        "event_total": 74,
        "has_played": true,
        "id": 11067652,
        "last_rank": 90625,
        "player_name": "phil loosen",
        "rank": 55651,
        "rank_sort": 55776,
        "total": 2348
      },
      {
        "club_badge_src": null,
        "entry": 1598185,
        "entry_name": "FC Plopp",
        "event_total": 44,
        "has_played": true,
        "id": 11180227,
        "last_rank": 37435,
        "player_name": "Tim Nyberg",
        "rank": 55651,
        "rank_sort": 55777,
        "total": 2348
      },
      {
        "club_badge_src": null,
        "entry": 1620948,
        "entry_name": "Life of Riley",
        "event_total": 54,
        "has_played": true,
        "id": 11343984,
        "last_rank": 51137,
        "player_name": "John Curnow",
        "rank": 55651,
        "rank_sort": 55778,
        "total": 2348
      },
      {
        "club_badge_src": null,
        "entry": 1646607,
        "entry_name": "Rashfordforballndor",
        "event_total": 55,
        "has_played": true,
        "id": 11526454,
        "last_rank": 52759,
        "player_name": "Pranav Nagarajah",
        "rank": 55651,
        "rank_sort": 55779,
        "total": 2348
      },
      {
        "club_badge_src": null,
        "entry": 1648200,
        "entry_name": "1, 2, 3 Struijkout",
        "event_total": 52,
        "has_played": true,
        "id": 11537709,
        "last_rank": 48642,
        "player_name": "Christopher Herbst",
        "rank": 55651,
        "rank_sort": 55780,
        "total": 2348
      },
      {
        "club_badge_src": "https://fantasy.premierleague.com/gcs/plfpl-production-adobe-approved/plfpl-production/1655619/faebed62-4831-417d-a311-a15a47267a92.png",
        "entry": 1655619,
        "entry_name": "In Keith We Trust",
        "event_total": 56,
        "has_played": true,
        "id": 11591214,
        "last_rank": 54667,
        "player_name": "Claire Hollinghurst",
        "rank": 55651,
        "rank_sort": 55781,
        "total": 2348
      },
      {
        "club_badge_src": null,
        "entry": 1689843,
        "entry_name": "11 Marcus Beans",
        "event_total": 64,
        "has_played": true,
        "id": 11829728,
        "last_rank": 69323,
        "player_name": "David Styles",
        "rank": 55651,
        "rank_sort": 55782,
        "total": 2348
      },
      {
        "club_badge_src": null,
        "entry": 1691360,
        "entry_name": "Powers Players",
        "event_total": 46,
        "has_played": true,
        "id": 11845302,
        "last_rank": 40036,
        "player_name": "Mike Power",
        "rank": 55651,
        "rank_sort": 55783,
        "total": 2348
      },
      {
        "club_badge_src": null,
        "entry": 1729206,
        "entry_name": "Tha Hurricane \ufffd",
        "event_total": 55,
        "has_played": true,
        "id": 12127997,
        "last_rank": 52853,
        "player_name": "Mohamed \ud83d\udd25\ud83d\udd25",
        "rank": 55651,
        "rank_sort": 55784,
        "total": 2348
      },
      {
        "club_badge_src": null,
        "entry": 1776611,
        "entry_name": "Sporting CP",
        "event_total": 53,
        "has_played": true,
        "id": 12481052,
        "last_rank": 50199,
        "player_name": "Francisco Neves",
        "rank": 55651,
        "rank_sort": 55785,
        "total": 2348
      },
      {
        "club_badge_src": null,
        "entry": 1788565,
        "entry_name": "Fc TarU",
        "event_total": 66,
        "has_played": true,
        "id": 12567382,
        "last_rank": 73038,
        "player_name": "Emil Snell",
        "rank": 55651,
        "rank_sort": 55786,
        "total": 2348
      },
      {
        "club_badge_src": "https://fantasy.premierleague.com/gcs/plfpl-production-adobe-approved/plfpl-production/1790361/04c05872-e6ac-4069-ab01-f99912375167.png",
        "entry": 1790361,
        "entry_name": "Warrcelona FC",
        "event_total": 54,
        "has_played": true,
        "id": 12580278,
        "last_rank": 51220,
        "player_name": "Ravi Willder",
        "rank": 55651,
        "rank_sort": 55787,
        "total": 2348
      },
      {
        "club_badge_src": null,
        "entry": 1807832,
        "entry_name": "RJ United",
        "event_total": 51,
        "has_played": true,
        "id": 12709843,
        "last_rank": 41162,
        "player_name": "Ronan Joyce",
        "rank": 55651,
        "rank_sort": 55788,
        "total": 2348
      },
      {
        "club_badge_src": null,
        "entry": 1830081,
        "entry_name": "Optimal FC",
        "event_total": 57,
        "has_played": true,
        "id": 12872891,
        "last_rank": 56369,
        "player_name": "Sebastien Challen",
        "rank": 55651,
        "rank_sort": 55789,
        "total": 2348
      },
      {
        "club_badge_src": "https://fantasy.premierleague.com/gcs/plfpl-production-adobe-approved/plfpl-production/1887489/54290502-f02f-4d9b-adea-a982506302e1.png",
        "entry": 1887489,
        "entry_name": "Peaky Ballers",
        "event_total": 82,
        "has_played": true,
        "id": 13302010,
        "last_rank": 111669,
        "player_name": "Tom Knowles",
        "rank": 55651,
        "rank_sort": 55790,
        "total": 2348
      },
      {
        "club_badge_src": null,
        "entry": 1916260,
        "entry_name": "I Gotta Le F\u00e9eling",
        "event_total": 45,
        "has_played": true,
        "id": 13511157,
        "last_rank": 38528,
        "player_name": "Kyle Rogerson",
        "rank": 55651,
        "rank_sort": 55791,
        "total": 2348
      },
      {
        "club_badge_src": null,
        "entry": 1921215,
        "entry_name": "@ Wirtz I was afraid",
        "event_total": 79,
        "has_played": true,
        "id": 13547517,
        "last_rank": 103054,
        "player_name": "Micheal Kennedy",
        "rank": 55651,
        "rank_sort": 55792,
        "total": 2348
      },
      {
        "club_badge_src": null,
        "entry": 1923544,
        "entry_name": "Tradbury",
        "event_total": 52,
        "has_played": true,
        "id": 13565425,
        "last_rank": 48197,
        "player_name": "Samik Basu",
        "rank": 55651,
        "rank_sort": 55793,
        "total": 2348
      },
      {
        "club_badge_src": null,
        "entry": 1967013,
        "entry_name": "Beef Cherki",
        "event_total": 60,
        "has_played": true,
        "id": 13881160,
        "last_rank": 61411,
        "player_name": "Andrew Protheroe",
        "rank": 55651,
        "rank_sort": 55794,
        "total": 2348
      },
      {
        "club_badge_src": null,
        "entry": 1970585,
        "entry_name": "MOMO",
        "event_total": 40,
        "has_played": true,
        "id": 13908258,
        "last_rank": 32879,
        "player_name": "Mo Mo",
        "rank": 55651,
        "rank_sort": 55795,
        "total": 2348
      },
      {
        "club_badge_src": "https://fantasy.premierleague.com/gcs/plfpl-production-adobe-approved/plfpl-production/2015337/41da4bc6-c424-49c0-81a3-e2a189dfcc24.png",
        "entry": 2015337,
        "entry_name": "FewGoodMen",
        "event_total": 55,
        "has_played": true,
        "id": 14257035,
        "last_rank": 53023,
        "player_name": "Pavel Dmitriev",
        "rank": 55651,
        "rank_sort": 55796,
        "total": 2348
      },
      {
        "club_badge_src": null,
        "entry": 2022764,
        "entry_name": "Mislykka comeback",
        "event_total": 54,
        "has_played": true,
        "id": 14313732,
        "last_rank": 51403,
        "player_name": "Ole Edvard Veie",
        "rank": 55651,
        "rank_sort": 55797,
        "total": 2348
      },
      {
        "club_badge_src": null,
        "entry": 2038676,
        "entry_name": "Spritely Spritzes",
        "event_total": 61,
        "has_played": true,
        "id": 14436449,
        "last_rank": 63390,
        "player_name": "Michael Chubb",
        "rank": 55651,
        "rank_sort": 55798,
        "total": 2348
      },
      {
        "club_badge_src": null,
        "entry": 2049822,
        "entry_name": "Razzburn",
        "event_total": 52,
        "has_played": true,
        "id": 14518524,
        "last_rank": 48363,
        "player_name": "Ryan Isherwood",
        "rank": 55651,
        "rank_sort": 55799,
        "total": 2348
      },
      {
        "club_badge_src": "https://fantasy.premierleague.com/gcs/plfpl-production-adobe-approved/plfpl-production/2070828/7fd50bcd-8120-4371-9671-9db4bbb9cdce.png",
        "entry": 2070828,
        "entry_name": "Posh Ducks Return",
        "event_total": 71,
        "has_played": true,
        "id": 14681457,
        "last_rank": 83698,
        "player_name": "Lisa Baker",
        "rank": 55651,
        "rank_sort": 55800,
        "total": 2348
      }
    ]
  }
}