{
  "last_updated_data": "2026-05-24T23:28:17Z",
  "league": {
    "admin_entry": null,
    "closed": false,
    "code_privacy": "p",
    "created": "2025-07-20T23:14:33.933835Z",
    "cup_league": 2815434,
    "has_cup": true,
    "id": 314,
    "league_type": "s",
    "max_entries": null,
    "name": "Overall",
    "rank": null,
    "scoring": "c",
    "start_event": 1
  },
  "new_entries": {
    "has_next": false,
    "page": 1,
    "results": []
  },
  "standings": {
    "has_next": true,
    "page": 320,
    "results": [
      {
        "club_badge_src": null,
        "entry": 149515,
        "entry_name": "Eze Come Eze Go",
        "event_total": 53,
        "has_played": true,
        "id": 980341,
        "last_rank": 13184,
        "player_name": "Cian Roche",
        "rank": 15922,
        "rank_sort": 15951,
        "total": 2386
      },
      {
        "club_badge_src": null,
        "entry": 149617,
        "entry_name": "NoniToBeUpset",
        "event_total": 75,
        "has_played": true,
        "id": 981041,
        "last_rank": 29688,
        "player_name": "Salmaan Mayat",
        "rank": 15922,
        "rank_sort": 15952,
        "total": 2386
      },
      {
        "club_badge_src": null,
        "entry": 155398,
        "entry_name": "Bush FC",
        "event_total": 58,
        "has_played": true,
        "id": 1021306,
        "last_rank": 16062,
        "player_name": "Chris Bush",
        "rank": 15922,
        "rank_sort": 15953,
        "total": 2386
      },
      {
        "club_badge_src": null,
        "entry": 177179,
        "entry_name": "KIA Havertz AWD",
        "event_total": 63,
        "has_played": true,
        "id": 1169445,
        "last_rank": 16729,
        "player_name": "Nadir Omar",
        "rank": 15922,
        "rank_sort": 15954,
        "total": 2386
      },
      {
        "club_badge_src": null,
        "entry": 191470,
        "entry_name": "Kimbo Krazy",
        "event_total": 68,
        "has_played": true,
        "id": 1268214,
        "last_rank": 23230,
        "player_name": "Mike Boon",
        "rank": 15922,
        "rank_sort": 15955,
        "total": 2386
      },
      {
        "club_badge_src": null,
        "entry": 227687,
        "entry_name": "Tunnelbana Pojkar",
        "event_total": 43,
        "has_played": true,
        "id": 1514557,
        "last_rank": 8718,
        "player_name": "Daniel Lind\u00e9n",
        "rank": 15922,
        "rank_sort": 15956,
        "total": 2386
      },
      {
        "club_badge_src": null,
        "entry": 255198,
        "entry_name": "The Pear Tree",
        "event_total": 53,
        "has_played": true,
        "id": 1697509,
        "last_rank": 9459,
        "player_name": "Joseph McBreen",
        "rank": 15922,
        "rank_sort": 15957,
        "total": 2386
      },
      {
        "club_badge_src": null,
        "entry": 262770,
        "entry_name": "My mate diz a pedro",
        "event_total": 65,
        "has_played": true,
        "id": 1747013,
        "last_rank": 20983,
        "player_name": "Louie Carman",
        "rank": 15922,
        "rank_sort": 15958,
        "total": 2386
      },
      {
        "club_badge_src": "https://fantasy.premierleague.com/gcs/plfpl-production-adobe-approved/plfpl-production/264169/5daefb7f-35ea-4db6-b246-ab8cf9f98b33.png",
        "entry": 264169,
        "entry_name": "FC Barkelona",
        "event_total": 66,
        "has_played": true,
        "id": 1756635,
        "last_rank": 21775,
        "player_name": "Filip Barkman",
        "rank": 15922,
        "rank_sort": 15959,
        "total": 2386
      },
      {
        "club_badge_src": null,
        "entry": 286219,
        "entry_name": "Milambo No. 5",
        "event_total": 59,
        "has_played": true,
        "id": 1906765,
        "last_rank": 16702,
        "player_name": "Thomas van den Born",
        "rank": 15922,
        "rank_sort": 15960,
        "total": 2386
      },
      {
        "club_badge_src": null,
        "entry": 300766,
        "entry_name": "Bamboozlers",
        "event_total": 34,
        "has_played": true,
        "id": 2011903,
        "last_rank": 5904,
        "player_name": "Gary O'Sullivan",
        "rank": 15922,
        "rank_sort": 15961,
        "total": 2386
      },
      {
        "club_badge_src": null,
        "entry": 303769,
        "entry_name": "Your Wirtz Nightmare",
        "event_total": 57,
        "has_played": true,
        "id": 2033536,
        "last_rank": 15550,
        "player_name": "Sam Ashkuri",
        "rank": 15922,
        "rank_sort": 15962,
        "total": 2386
      },
      {
        "club_badge_src": null,
        "entry": 315851,
        "entry_name": "Stevenoldage United",
        "event_total": 60,
        "has_played": true,
        "id": 2116870,
        "last_rank": 17437,
        "player_name": "Steven Reid",
        "rank": 15922,
        "rank_sort": 15963,
        "total": 2386
      },
      {
        "club_badge_src": null,
        "entry": 335374,
        "entry_name": "meehowski",
        "event_total": 62,
        "has_played": true,
        "id": 2245644,
        "last_rank": 18790,
        "player_name": "Michal Druzga",
        "rank": 15922,
        "rank_sort": 15964,
        "total": 2386
      },
      {
        "club_badge_src": null,
        "entry": 336029,
        "entry_name": "Change Name",
        "event_total": 52,
        "has_played": true,
        "id": 2249846,
        "last_rank": 12705,
        "player_name": "Adam Cavecche",
        "rank": 15922,
        "rank_sort": 15965,
        "total": 2386
      },
      {
        "club_badge_src": null,
        "entry": 337240,
        "entry_name": "Tarmogyfy i smoki",
        "event_total": 66,
        "has_played": true,
        "id": 2257713,
        "last_rank": 21775,
        "player_name": "Wojciech Czerepak",
        "rank": 15922,
        "rank_sort": 15966,
        "total": 2386
      },
      {
        "club_badge_src": null,
        "entry": 386120,
        "entry_name": "Dourish XI",
        "event_total": 51,
        "has_played": true,
        "id": 2590316,
        "last_rank": 12200,
        "player_name": "Niall Dourish",
        "rank": 15922,
        "rank_sort": 15967,
        "total": 2386
      },
      {
        "club_badge_src": "https://fantasy.premierleague.com/gcs/plfpl-production-adobe-approved/plfpl-production/408630/7aabefaa-2aa1-4697-b656-a7ef0cae4b35.png",
        "entry": 408630,
        "entry_name": "Kinder Mbeumo",
        "event_total": 57,
        "has_played": true,
        "id": 2740241,
        "last_rank": 15550,
        "player_name": "Stelios Mouslech",
        "rank": 15922,
        "rank_sort": 15968,
        "total": 2386
      },
      {
        "club_badge_src": null,
        "entry": 472768,
        "entry_name": "Tho.Sof",
        "event_total": 57,
        "has_played": true,
        "id": 3174023,
        "last_rank": 15550,
        "player_name": "Gino Rizzo",
        "rank": 15922,
        "rank_sort": 15969,
        "total": 2386
      },
      {
        "club_badge_src": null,
        "entry": 512687,
        "entry_name": "JME FC",
        "event_total": 71,
        "has_played": true,
        "id": 3442571,
        "last_rank": 25776,
        "player_name": "Alex Williams",
        "rank": 15922,
        "rank_sort": 15970,
        "total": 2386
      },
      {
        "club_badge_src": null,
        "entry": 574727,
        "entry_name": "MCGenius",
        "event_total": 51,
        "has_played": true,
        "id": 3867621,
        "last_rank": 12200,
        "player_name": "Matt Goodwin",
        "rank": 15922,
        "rank_sort": 15971,
        "total": 2386
      },
      {
        "club_badge_src": null,
        "entry": 576204,
        "entry_name": "Run CMC",
        "event_total": 74,
        "has_played": true,
        "id": 3877388,
        "last_rank": 28609,
        "player_name": "Bobby Zhuo",
        "rank": 15922,
        "rank_sort": 15972,
        "total": 2386
      },
      {
        "club_badge_src": null,
        "entry": 578321,
        "entry_name": "VfL Sporting Club 22",
        "event_total": 75,
        "has_played": true,
        "id": 3891350,
        "last_rank": 29495,
        "player_name": "Owen Bellamy",
        "rank": 15922,
        "rank_sort": 15973,
        "total": 2386
      },
      {
        "club_badge_src": null,
        "entry": 578361,
        "entry_name": "C's XI",
        "event_total": 73,
        "has_played": true,
        "id": 3891602,
        "last_rank": 27585,
        "player_name": "Chetan C",
        "rank": 15922,
        "rank_sort": 15974,
        "total": 2386
      },
      {
        "club_badge_src": null,
        "entry": 579044,
        "entry_name": "Hakuna Mateta",
        "event_total": 59,
        "has_played": true,
        "id": 3896142,
        "last_rank": 16807,
        "player_name": "Neil Hunt",
        "rank": 15922,
        "rank_sort": 15975,
        "total": 2386
      },
      {
        "club_badge_src": "https://fantasy.premierleague.com/gcs/plfpl-production-adobe-approved/plfpl-production/638418/24c9d3af-eff2-449d-b540-cf7516a987da.png",
        "entry": 638418,
        "entry_name": "The Slot Thickens",
        "event_total": 61,
        "has_played": true,
        "id": 4314707,
        "last_rank": 18113,
        "player_name": "Katie Britton",
        "rank": 15922,
        "rank_sort": 15976,
        "total": 2386
      },
      {
        "club_badge_src": null,
        "entry": 657261,
        "entry_name": "Struijk Of Genius",
        "event_total": 51,
        "has_played": true,
        "id": 4441761,
        "last_rank": 12200,
        "player_name": "Jack Jennings",
        "rank": 15922,
        "rank_sort": 15977,
        "total": 2386
      },
      {
        "club_badge_src": null,
        "entry": 658029,
        "entry_name": "Gressoggrus",
        "event_total": 51,
        "has_played": true,
        "id": 4446855,
        "last_rank": 12322,
        "player_name": "Ole Petter Nyg\u00e5rd",
        "rank": 15922,
        "rank_sort": 15978,
        "total": 2386
      },
      {
        "club_badge_src": null,
        "entry": 700183,
        "entry_name": "Real Villanelle",
        "event_total": 66,
        "has_played": true,
        "id": 4743637,
        "last_rank": 21609,
        "player_name": "Carlene M",
        "rank": 15922,
        "rank_sort": 15979,
        "total": 2386
      },
      {
        "club_badge_src": null,
        "entry": 724754,
        "entry_name": "FC Dakota",
        "event_total": 69,
        "has_played": true,
        "id": 4922584,
        "last_rank": 24039,
        "player_name": "J Hallenbeck",
        "rank": 15922,
        "rank_sort": 15980,
        "total": 2386
      },
      {
        "club_badge_src": null,
        "entry": 766654,
        "entry_name": "Ctrl Alt De Ligt",
        "event_total": 57,
        "has_played": true,
        "id": 5228930,
        "last_rank": 15550,
        "player_name": "Ivar L\u00f8vik",
        "rank": 15922,
        "rank_sort": 15981,
        "total": 2386
      },
      {
        "club_badge_src": null,
        "entry": 773815,
        "entry_name": "Champagne Football",
        "event_total": 72,
        "has_played": true,
        "id": 5279530,
        "last_rank": 26710,
        "player_name": "Sachin Rajani",
        "rank": 15922,
        "rank_sort": 15982,
        "total": 2386
      },
      {
        "club_badge_src": "https://fantasy.premierleague.com/gcs/plfpl-production-adobe-approved/plfpl-production/806305/4bcb34f5-2774-4622-8e30-97f091559e64.png",
        "entry": 806305,
        "entry_name": "FC Warbler",
        "event_total": 54,
        "has_played": true,
        "id": 5519708,
        "last_rank": 13821,
        "player_name": "Mikhail Kuzin",
        "rank": 15922,
        "rank_sort": 15983,
        "total": 2386
      },
      {
        "club_badge_src": "https://fantasy.premierleague.com/gcs/plfpl-production-adobe-approved/plfpl-production/890578/dbcc852b-a6e7-485c-a8dd-6fb280563c2c.png",
        "entry": 890578,
        "entry_name": "EyeGlassManUnited",
        "event_total": 61,
        "has_played": true,
        "id": 6109566,
        "last_rank": 18029,
        "player_name": "Osas Pete",
        "rank": 15922,
        "rank_sort": 15984,
        "total": 2386
      },
      {
        "club_badge_src": null,
        "entry": 918815,
        "entry_name": "Boca Seniors",
        "event_total": 84,
        "has_played": true,
        "id": 6318566,
        "last_rank": 39816,
        "player_name": "Vaishnav Nair",
        "rank": 15922,
        "rank_sort": 15985,
        "total": 2386
      },
      {
        "club_badge_src": "https://fantasy.premierleague.com/gcs/plfpl-production-adobe-approved/plfpl-production/930059/9ff93c4f-4b6e-4bc9-9317-12c2d0543513.png",
        "entry": 930059,
        "entry_name": "Amad Fer It",
        "event_total": 63,
        "has_played": true,
        "id": 6399379,
        "last_rank": 19432,
        "player_name": "Scott Littler",
        "rank": 15922,
        "rank_sort": 15986,
        "total": 2386
      },
      {
        "club_badge_src": null,
        "entry": 967811,
        "entry_name": "No",
        "event_total": 58,
        "has_played": true,
        "id": 6670414,
        "last_rank": 16163,
        "player_name": "Kenneth Doyle",
        "rank": 15922,
        "rank_sort": 15987,
        "total": 2386
      },
      {
        "club_badge_src": "https://fantasy.premierleague.com/gcs/plfpl-production-adobe-approved/plfpl-production/1038407/afd65036-99a8-4951-826b-06a6b1963ccf.png",
        "entry": 1038407,
        "entry_name": "BalebaBaluba",
        "event_total": 61,
        "has_played": true,
        "id": 7185936,
        "last_rank": 18029,
        "player_name": "Ole Fredrik Kyte",
        "rank": 15922,
        "rank_sort": 15988,
        "total": 2386
      },
      {
        "club_badge_src": "https://fantasy.premierleague.com/gcs/plfpl-production-adobe-approved/plfpl-production/1095429/d7ab7d8c-490c-42df-b940-ee06be9337e1.png",
        "entry": 1095429,
        "entry_name": "Pain in Diaz",
        "event_total": 69,
        "has_played": true,
        "id": 7587049,
        "last_rank": 24039,
        "player_name": "Dino Pacifici",
        "rank": 15922,
        "rank_sort": 15989,
        "total": 2386
      },
      {
        "club_badge_src": null,
        "entry": 1139318,
        "entry_name": "FC Pelimannet",
        "event_total": 57,
        "has_played": true,
        "id": 7897574,
        "last_rank": 15550,
        "player_name": "Onni Kaskela",
        "rank": 15922,
        "rank_sort": 15990,
        "total": 2386
      },
      {
        "club_badge_src": null,
        "entry": 1159147,
        "entry_name": "Too\u0160e\u0161koForMyHat",
        "event_total": 55,
        "has_played": true,
        "id": 8039647,
        "last_rank": 14292,
        "player_name": "Magnus Mathiesen",
        "rank": 15922,
        "rank_sort": 15991,
        "total": 2386
      },
      {
        "club_badge_src": null,
        "entry": 1206498,
        "entry_name": "Ak\u00e9 Breaky Heart",
        "event_total": 53,
        "has_played": true,
        "id": 8372949,
        "last_rank": 13257,
        "player_name": "Nathan Barlow",
        "rank": 15922,
        "rank_sort": 15992,
        "total": 2386
      },
      {
        "club_badge_src": null,
        "entry": 1253989,
        "entry_name": "Up the Saints",
        "event_total": 67,
        "has_played": true,
        "id": 8709552,
        "last_rank": 22426,
        "player_name": "Naji Mua",
        "rank": 15922,
        "rank_sort": 15993,
        "total": 2386
      },
      {
        "club_badge_src": "https://fantasy.premierleague.com/gcs/plfpl-production-adobe-approved/plfpl-production/1274612/37e4d6d0-f515-4570-9ab6-0532216d3a77.png",
        "entry": 1274612,
        "entry_name": "Double Branners",
        "event_total": 48,
        "has_played": true,
        "id": 8856810,
        "last_rank": 10805,
        "player_name": "Brad Cowan",
        "rank": 15922,
        "rank_sort": 15994,
        "total": 2386
      },
      {
        "club_badge_src": null,
        "entry": 1303207,
        "entry_name": "FONCETTE STOP",
        "event_total": 60,
        "has_played": true,
        "id": 9057349,
        "last_rank": 17358,
        "player_name": "Andre Bat Foncette",
        "rank": 15922,
        "rank_sort": 15995,
        "total": 2386
      },
      {
        "club_badge_src": null,
        "entry": 1321391,
        "entry_name": "a'Cunha Mateta",
        "event_total": 41,
        "has_played": true,
        "id": 9184760,
        "last_rank": 8032,
        "player_name": "Rory Atwill",
        "rank": 15922,
        "rank_sort": 15996,
        "total": 2386
      },
      {
        "club_badge_src": null,
        "entry": 1403130,
        "entry_name": "Viikin Voima",
        "event_total": 55,
        "has_played": true,
        "id": 9762714,
        "last_rank": 14370,
        "player_name": "jarmo salo",
        "rank": 15922,
        "rank_sort": 15997,
        "total": 2386
      },
      {
        "club_badge_src": "https://fantasy.premierleague.com/gcs/plfpl-production-adobe-approved/plfpl-production/1428762/a45e8776-6bd8-496d-96fd-6e8ddd61ddd6.png",
        "entry": 1428762,
        "entry_name": "Bazuka that Viduka",
        "event_total": 57,
        "has_played": true,
        "id": 9955604,
        "last_rank": 15550,
        "player_name": "George Howe",
        "rank": 15922,
        "rank_sort": 15998,
        "total": 2386
      },
      {
        "club_badge_src": null,
        "entry": 1494348,
        "entry_name": "Bilbao Baggins",
        "event_total": 68,
        "has_played": true,
        "id": 10421028,
        "last_rank": 23230,
        "player_name": "Ryan Lavery",
        "rank": 15922,
        "rank_sort": 15999,
        "total": 2386
      },
      {
        "club_badge_src": null,
        "entry": 1687260,
        "entry_name": "Chi-Squared United",
        "event_total": 58,
        "has_played": true,
        "id": 11811191,
        "last_rank": 16062,
        "player_name": "Kristi Hafferty",
        "rank": 15922,
        "rank_sort": 16000,
        "total": 2386
      }
    ]
  }
}