{
  "last_updated_data": "2026-05-24T23:28:17Z",
  "league": {
    "admin_entry": null,
    "closed": false,
    "code_privacy": "p",
    "created": "2025-07-20T23:14:33.933835Z",
    "cup_league": 2815434,
    "has_cup": true,
    "id": 314,
    "league_type": "s",
    "max_entries": null,
    "name": "Overall",
    "rank": null,
    "scoring": "c",
    "start_event": 1
  },
  "new_entries": {
    "has_next": false,
    "page": 1,
    "results": []
  },
  "standings": {
    "has_next": true,
    "page": 1324,
    "results": [
      {
        "club_badge_src": null,
        "entry": 1757764,
        "entry_name": "JuicyBoyToy",
        "event_total": 61,
        "has_played": true,
        "id": 12340870,
        "last_rank": 74741,
        "player_name": "Alen Begic",
        "rank": 66017,
        "rank_sort": 66151,
        "total": 2342
      },
      {
        "club_badge_src": null,
        "entry": 1820812,
        "entry_name": "scholsey fc",
        "event_total": 64,
        "has_played": true,
        "id": 12805231,
        "last_rank": 81646,
        "player_name": "Shane Grainger",
        "rank": 66017,
        "rank_sort": 66152,
        "total": 2342
      },
      {
        "club_badge_src": null,
        "entry": 1826885,
        "entry_name": "Los Porros Hermanos",
        "event_total": 30,
        "has_played": true,
        "id": 12849847,
        "last_rank": 28532,
        "player_name": "Tyler Gurr",
        "rank": 66017,
        "rank_sort": 66153,
        "total": 2342
      },
      {
        "club_badge_src": null,
        "entry": 1832012,
        "entry_name": "123456789",
        "event_total": 62,
        "has_played": true,
        "id": 12886810,
        "last_rank": 77050,
        "player_name": "James Kiely",
        "rank": 66017,
        "rank_sort": 66154,
        "total": 2342
      },
      {
        "club_badge_src": null,
        "entry": 1843677,
        "entry_name": "Change Name",
        "event_total": 49,
        "has_played": true,
        "id": 12971649,
        "last_rank": 53023,
        "player_name": "Hadi Basma",
        "rank": 66017,
        "rank_sort": 66155,
        "total": 2342
      },
      {
        "club_badge_src": "https://fantasy.premierleague.com/gcs/plfpl-production-adobe-approved/plfpl-production/1859277/67b3950b-d595-4283-8963-63ce012a24f8.png",
        "entry": 1859277,
        "entry_name": "Martins Mafia",
        "event_total": 53,
        "has_played": true,
        "id": 13085650,
        "last_rank": 59632,
        "player_name": "Lewis Martin",
        "rank": 66017,
        "rank_sort": 66156,
        "total": 2342
      },
      {
        "club_badge_src": null,
        "entry": 1975591,
        "entry_name": "BornLiveDieInCrewe",
        "event_total": 68,
        "has_played": true,
        "id": 13945052,
        "last_rank": 90625,
        "player_name": "Robert Hillerby",
        "rank": 66017,
        "rank_sort": 66157,
        "total": 2342
      },
      {
        "club_badge_src": null,
        "entry": 1985440,
        "entry_name": "The Holy Trinity",
        "event_total": 67,
        "has_played": true,
        "id": 14024720,
        "last_rank": 88348,
        "player_name": "Mark Hughes",
        "rank": 66017,
        "rank_sort": 66158,
        "total": 2342
      },
      {
        "club_badge_src": null,
        "entry": 2011401,
        "entry_name": "Scott's Lot",
        "event_total": 59,
        "has_played": true,
        "id": 14222934,
        "last_rank": 70985,
        "player_name": "Scott Lonergan",
        "rank": 66017,
        "rank_sort": 66159,
        "total": 2342
      },
      {
        "club_badge_src": null,
        "entry": 2021219,
        "entry_name": "None Assist",
        "event_total": 61,
        "has_played": true,
        "id": 14302315,
        "last_rank": 74898,
        "player_name": "Konrad Zarzecki",
        "rank": 66017,
        "rank_sort": 66160,
        "total": 2342
      },
      {
        "club_badge_src": null,
        "entry": 2038510,
        "entry_name": "GlennIsGod",
        "event_total": 58,
        "has_played": true,
        "id": 14435257,
        "last_rank": 68957,
        "player_name": "Calum Kellas",
        "rank": 66017,
        "rank_sort": 66161,
        "total": 2342
      },
      {
        "club_badge_src": null,
        "entry": 2051992,
        "entry_name": "Boro boys",
        "event_total": 49,
        "has_played": true,
        "id": 14534802,
        "last_rank": 53023,
        "player_name": "Ben Knights",
        "rank": 66017,
        "rank_sort": 66162,
        "total": 2342
      },
      {
        "club_badge_src": null,
        "entry": 2076899,
        "entry_name": "Malawiho \u0165ukec",
        "event_total": 55,
        "has_played": true,
        "id": 14725650,
        "last_rank": 63201,
        "player_name": "Martin Ku\u010da",
        "rank": 66017,
        "rank_sort": 66163,
        "total": 2342
      },
      {
        "club_badge_src": null,
        "entry": 2082304,
        "entry_name": "Brent it like nr7",
        "event_total": 48,
        "has_played": true,
        "id": 14770018,
        "last_rank": 51403,
        "player_name": "Brent Debruyne",
        "rank": 66017,
        "rank_sort": 66164,
        "total": 2342
      },
      {
        "club_badge_src": "https://fantasy.premierleague.com/gcs/plfpl-production-adobe-approved/plfpl-production/2107128/b44eb655-0ce5-4e12-a45a-ad4ae68fffc7.png",
        "entry": 2107128,
        "entry_name": "RASTY TEAM",
        "event_total": 52,
        "has_played": true,
        "id": 14954205,
        "last_rank": 58071,
        "player_name": "RASTY AHMAD",
        "rank": 66017,
        "rank_sort": 66165,
        "total": 2342
      },
      {
        "club_badge_src": null,
        "entry": 2117126,
        "entry_name": "FPLHauly",
        "event_total": 54,
        "has_played": true,
        "id": 15037672,
        "last_rank": 61411,
        "player_name": "Josh Hall",
        "rank": 66017,
        "rank_sort": 66166,
        "total": 2342
      },
      {
        "club_badge_src": null,
        "entry": 2143606,
        "entry_name": "WirtzofWisdom",
        "event_total": 66,
        "has_played": true,
        "id": 15235595,
        "last_rank": 86304,
        "player_name": "Bijan Hosseini",
        "rank": 66017,
        "rank_sort": 66167,
        "total": 2342
      },
      {
        "club_badge_src": null,
        "entry": 2160492,
        "entry_name": "Blinkys Spurs",
        "event_total": 54,
        "has_played": true,
        "id": 15358554,
        "last_rank": 61606,
        "player_name": "Stuart Garland",
        "rank": 66017,
        "rank_sort": 66168,
        "total": 2342
      },
      {
        "club_badge_src": null,
        "entry": 2168434,
        "entry_name": "Hwangover FC",
        "event_total": 59,
        "has_played": true,
        "id": 15416972,
        "last_rank": 70757,
        "player_name": "Adam Myatt",
        "rank": 66017,
        "rank_sort": 66169,
        "total": 2342
      },
      {
        "club_badge_src": "https://fantasy.premierleague.com/gcs/plfpl-production-adobe-approved/plfpl-production/2184086/82a7dc5b-111a-4d78-ae49-1b18aae106ef.png",
        "entry": 2184086,
        "entry_name": "Ctrl Alt De Laet Fc",
        "event_total": 63,
        "has_played": true,
        "id": 15535643,
        "last_rank": 79190,
        "player_name": "Ibrahim Haisham Abdulla",
        "rank": 66017,
        "rank_sort": 66170,
        "total": 2342
      },
      {
        "club_badge_src": null,
        "entry": 2188293,
        "entry_name": "Millie\u2019s Misfits",
        "event_total": 60,
        "has_played": true,
        "id": 15567599,
        "last_rank": 73038,
        "player_name": "Paul Heys",
        "rank": 66017,
        "rank_sort": 66171,
        "total": 2342
      },
      {
        "club_badge_src": null,
        "entry": 2192852,
        "entry_name": "Pict2win",
        "event_total": 79,
        "has_played": true,
        "id": 15601656,
        "last_rank": 120438,
        "player_name": "David Illingworth",
        "rank": 66017,
        "rank_sort": 66172,
        "total": 2342
      },
      {
        "club_badge_src": null,
        "entry": 2213135,
        "entry_name": "You're McGavin Me On",
        "event_total": 44,
        "has_played": true,
        "id": 15760392,
        "last_rank": 45252,
        "player_name": "Mike Fleming",
        "rank": 66017,
        "rank_sort": 66173,
        "total": 2342
      },
      {
        "club_badge_src": null,
        "entry": 2225005,
        "entry_name": "Yoro wizard harry",
        "event_total": 36,
        "has_played": true,
        "id": 15848976,
        "last_rank": 35424,
        "player_name": "Soren Wilton",
        "rank": 66017,
        "rank_sort": 66174,
        "total": 2342
      },
      {
        "club_badge_src": null,
        "entry": 2243234,
        "entry_name": "Fc Knights",
        "event_total": 60,
        "has_played": true,
        "id": 15981797,
        "last_rank": 73038,
        "player_name": "Cem \u00c7oban",
        "rank": 66017,
        "rank_sort": 66175,
        "total": 2342
      },
      {
        "club_badge_src": null,
        "entry": 2250709,
        "entry_name": "Potters Chosen Ones",
        "event_total": 61,
        "has_played": true,
        "id": 16037794,
        "last_rank": 75139,
        "player_name": "Ben Allen",
        "rank": 66017,
        "rank_sort": 66176,
        "total": 2342
      },
      {
        "club_badge_src": null,
        "entry": 2252220,
        "entry_name": "Chris' Untouchaballs",
        "event_total": 59,
        "has_played": true,
        "id": 16049674,
        "last_rank": 70757,
        "player_name": "Chris Da Cruz",
        "rank": 66017,
        "rank_sort": 66177,
        "total": 2342
      },
      {
        "club_badge_src": null,
        "entry": 2341326,
        "entry_name": "Maltletico",
        "event_total": 61,
        "has_played": true,
        "id": 16705968,
        "last_rank": 75139,
        "player_name": "Malte B\u00f6rjesson",
        "rank": 66017,
        "rank_sort": 66178,
        "total": 2342
      },
      {
        "club_badge_src": null,
        "entry": 2367640,
        "entry_name": "Phoetbal Club",
        "event_total": 59,
        "has_played": true,
        "id": 16900485,
        "last_rank": 70757,
        "player_name": "Rutger van Leeuwen",
        "rank": 66017,
        "rank_sort": 66179,
        "total": 2342
      },
      {
        "club_badge_src": "https://fantasy.premierleague.com/gcs/plfpl-production-adobe-approved/plfpl-production/2424286/c1377fe2-6f95-44bd-bcdf-98e869d29250.png",
        "entry": 2424286,
        "entry_name": "Mohamed Tawfik",
        "event_total": 63,
        "has_played": true,
        "id": 17333707,
        "last_rank": 79190,
        "player_name": "Mohamed Hanfy",
        "rank": 66017,
        "rank_sort": 66180,
        "total": 2342
      },
      {
        "club_badge_src": null,
        "entry": 2433714,
        "entry_name": "Stay humble, eh?",
        "event_total": 44,
        "has_played": true,
        "id": 17403321,
        "last_rank": 45416,
        "player_name": "Kev K",
        "rank": 66017,
        "rank_sort": 66181,
        "total": 2342
      },
      {
        "club_badge_src": null,
        "entry": 2443518,
        "entry_name": "Salah-vating Victory",
        "event_total": 63,
        "has_played": true,
        "id": 17475747,
        "last_rank": 79190,
        "player_name": "Stephen Connolly",
        "rank": 66017,
        "rank_sort": 66182,
        "total": 2342
      },
      {
        "club_badge_src": null,
        "entry": 2468931,
        "entry_name": "Karar Haider",
        "event_total": 58,
        "has_played": true,
        "id": 17661834,
        "last_rank": 68957,
        "player_name": "\u0643\u0631\u0627\u0631 \u062d\u064a\u062f\u0631",
        "rank": 66017,
        "rank_sort": 66183,
        "total": 2342
      },
      {
        "club_badge_src": null,
        "entry": 2491898,
        "entry_name": "VAJHA",
        "event_total": 65,
        "has_played": true,
        "id": 17839630,
        "last_rank": 83698,
        "player_name": "Tomek Har\u0105\u017cka",
        "rank": 66017,
        "rank_sort": 66184,
        "total": 2342
      },
      {
        "club_badge_src": null,
        "entry": 2494290,
        "entry_name": "Bullmarket AB",
        "event_total": 61,
        "has_played": true,
        "id": 17857371,
        "last_rank": 75139,
        "player_name": "Andr\u00e9 Tolonen",
        "rank": 66017,
        "rank_sort": 66185,
        "total": 2342
      },
      {
        "club_badge_src": null,
        "entry": 2517278,
        "entry_name": "AMBER ARMY",
        "event_total": 46,
        "has_played": true,
        "id": 18035343,
        "last_rank": 48642,
        "player_name": "Cameron Guy",
        "rank": 66017,
        "rank_sort": 66186,
        "total": 2342
      },
      {
        "club_badge_src": null,
        "entry": 2519814,
        "entry_name": "Wirtzmeer",
        "event_total": 44,
        "has_played": true,
        "id": 18054494,
        "last_rank": 45416,
        "player_name": "Dylan Witsmeer",
        "rank": 66017,
        "rank_sort": 66187,
        "total": 2342
      },
      {
        "club_badge_src": null,
        "entry": 2549881,
        "entry_name": "Glazered Donkeys",
        "event_total": 54,
        "has_played": true,
        "id": 18279488,
        "last_rank": 61411,
        "player_name": "Chris Boyce",
        "rank": 66017,
        "rank_sort": 66188,
        "total": 2342
      },
      {
        "club_badge_src": null,
        "entry": 2586609,
        "entry_name": "The Konarteests",
        "event_total": 61,
        "has_played": true,
        "id": 18568496,
        "last_rank": 74898,
        "player_name": "Ceri Magness",
        "rank": 66017,
        "rank_sort": 66189,
        "total": 2342
      },
      {
        "club_badge_src": null,
        "entry": 2596864,
        "entry_name": "Underdogs",
        "event_total": 61,
        "has_played": true,
        "id": 18648598,
        "last_rank": 75139,
        "player_name": "Vsevolod Pushkin",
        "rank": 66017,
        "rank_sort": 66190,
        "total": 2342
      },
      {
        "club_badge_src": null,
        "entry": 2638669,
        "entry_name": "StephenPearsTrodonme",
        "event_total": 62,
        "has_played": true,
        "id": 18964778,
        "last_rank": 77258,
        "player_name": "Michael Cook",
        "rank": 66017,
        "rank_sort": 66191,
        "total": 2342
      },
      {
        "club_badge_src": null,
        "entry": 2642036,
        "entry_name": "Team NaDa23",
        "event_total": 61,
        "has_played": true,
        "id": 18989243,
        "last_rank": 75139,
        "player_name": "Daniel Hernandez Montenegro",
        "rank": 66017,
        "rank_sort": 66192,
        "total": 2342
      },
      {
        "club_badge_src": null,
        "entry": 2712290,
        "entry_name": "Change Name",
        "event_total": 54,
        "has_played": true,
        "id": 19514627,
        "last_rank": 61411,
        "player_name": "Scott Mackenzie",
        "rank": 66017,
        "rank_sort": 66193,
        "total": 2342
      },
      {
        "club_badge_src": null,
        "entry": 2737046,
        "entry_name": "Kinder Mbeumo",
        "event_total": 58,
        "has_played": true,
        "id": 19703325,
        "last_rank": 68957,
        "player_name": "khalid almualla",
        "rank": 66017,
        "rank_sort": 66194,
        "total": 2342
      },
      {
        "club_badge_src": "https://fantasy.premierleague.com/gcs/plfpl-production-adobe-approved/plfpl-production/2847902/e830c4ce-3983-48f1-a008-3c4c90b276a6.png",
        "entry": 2847902,
        "entry_name": "Offside or Off Stump",
        "event_total": 66,
        "has_played": true,
        "id": 20820964,
        "last_rank": 86054,
        "player_name": "Andrew Staplehurst",
        "rank": 66017,
        "rank_sort": 66195,
        "total": 2342
      },
      {
        "club_badge_src": null,
        "entry": 2897741,
        "entry_name": "Crouch Potatoes",
        "event_total": 66,
        "has_played": true,
        "id": 21233018,
        "last_rank": 86054,
        "player_name": "Rupert Scott-Jones",
        "rank": 66017,
        "rank_sort": 66196,
        "total": 2342
      },
      {
        "club_badge_src": null,
        "entry": 2909459,
        "entry_name": "Robs",
        "event_total": 55,
        "has_played": true,
        "id": 21323763,
        "last_rank": 63390,
        "player_name": "Robert Griffiths",
        "rank": 66017,
        "rank_sort": 66197,
        "total": 2342
      },
      {
        "club_badge_src": null,
        "entry": 2912574,
        "entry_name": "Tika MaSaka",
        "event_total": 59,
        "has_played": true,
        "id": 21347908,
        "last_rank": 70757,
        "player_name": "Stian Haugen",
        "rank": 66017,
        "rank_sort": 66198,
        "total": 2342
      },
      {
        "club_badge_src": null,
        "entry": 2925799,
        "entry_name": "Fast & Fosterious",
        "event_total": 64,
        "has_played": true,
        "id": 21449042,
        "last_rank": 81646,
        "player_name": "George Foster",
        "rank": 66017,
        "rank_sort": 66199,
        "total": 2342
      },
      {
        "club_badge_src": null,
        "entry": 2960158,
        "entry_name": "GiveMePointsOrRetire",
        "event_total": 68,
        "has_played": true,
        "id": 21743705,
        "last_rank": 90565,
        "player_name": "Robert Voiculescu",
        "rank": 66017,
        "rank_sort": 66200,
        "total": 2342
      }
    ]
  }
}