{
  "last_updated_data": "2026-05-24T23:28:17Z",
  "league": {
    "admin_entry": null,
    "closed": false,
    "code_privacy": "p",
    "created": "2025-07-20T23:14:33.933835Z",
    "cup_league": 2815434,
    "has_cup": true,
    "id": 314,
    "league_type": "s",
    "max_entries": null,
    "name": "Overall",
    "rank": null,
    "scoring": "c",
    "start_event": 1
  },
  "new_entries": {
    "has_next": false,
    "page": 1,
    "results": []
  },
  "standings": {
    "has_next": true,
    "page": 864,
    "results": [
      {
        "club_badge_src": null,
        "entry": 4023823,
        "entry_name": "I'll Win Again",
        "event_total": 68,
        "has_played": true,
        "id": 30329424,
        "last_rank": 53621,
        "player_name": "James Brown",
        "rank": 43046,
        "rank_sort": 43151,
        "total": 2357
      },
      {
        "club_badge_src": "https://fantasy.premierleague.com/gcs/plfpl-production-adobe-approved/plfpl-production/4046980/1324a787-cd21-44f9-ab06-5cf09ac99657.png",
        "entry": 4046980,
        "entry_name": "Z Beton FC",
        "event_total": 58,
        "has_played": true,
        "id": 30524301,
        "last_rank": 44525,
        "player_name": "Aleksandar Bjelakovi\u0107",
        "rank": 43046,
        "rank_sort": 43152,
        "total": 2357
      },
      {
        "club_badge_src": null,
        "entry": 4096807,
        "entry_name": "Sweet Child O'Nien",
        "event_total": 59,
        "has_played": true,
        "id": 30933704,
        "last_rank": 46106,
        "player_name": "Izaak Coyle",
        "rank": 43046,
        "rank_sort": 43153,
        "total": 2357
      },
      {
        "club_badge_src": null,
        "entry": 4234869,
        "entry_name": "Best XI",
        "event_total": 53,
        "has_played": true,
        "id": 32090156,
        "last_rank": 38163,
        "player_name": "Andrey Li",
        "rank": 43046,
        "rank_sort": 43154,
        "total": 2357
      },
      {
        "club_badge_src": null,
        "entry": 4265766,
        "entry_name": "JEJ Rovers",
        "event_total": 58,
        "has_played": true,
        "id": 32345478,
        "last_rank": 44303,
        "player_name": "David Nesbitt",
        "rank": 43046,
        "rank_sort": 43155,
        "total": 2357
      },
      {
        "club_badge_src": null,
        "entry": 4288938,
        "entry_name": "LEVEE11",
        "event_total": 69,
        "has_played": true,
        "id": 32532701,
        "last_rank": 61950,
        "player_name": "Levee Ayako",
        "rank": 43046,
        "rank_sort": 43156,
        "total": 2357
      },
      {
        "club_badge_src": null,
        "entry": 4309432,
        "entry_name": "Neville Wears Prada",
        "event_total": 52,
        "has_played": true,
        "id": 32698040,
        "last_rank": 36963,
        "player_name": "Amanda Turns",
        "rank": 43046,
        "rank_sort": 43157,
        "total": 2357
      },
      {
        "club_badge_src": null,
        "entry": 4379604,
        "entry_name": "Power Reijnders",
        "event_total": 66,
        "has_played": true,
        "id": 33281299,
        "last_rank": 50199,
        "player_name": "Sven Brandenburg",
        "rank": 43046,
        "rank_sort": 43158,
        "total": 2357
      },
      {
        "club_badge_src": "https://fantasy.premierleague.com/gcs/plfpl-production-adobe-approved/plfpl-production/4455399/ef4a440a-795e-41ce-8e7f-2d5415aebb1f.png",
        "entry": 4455399,
        "entry_name": "Tom Bradys Arm",
        "event_total": 68,
        "has_played": true,
        "id": 33939024,
        "last_rank": 53621,
        "player_name": "Matt Bate",
        "rank": 43046,
        "rank_sort": 43159,
        "total": 2357
      },
      {
        "club_badge_src": null,
        "entry": 4611103,
        "entry_name": "GM XI",
        "event_total": 56,
        "has_played": true,
        "id": 35234859,
        "last_rank": 41967,
        "player_name": "Gregor Masterton",
        "rank": 43046,
        "rank_sort": 43160,
        "total": 2357
      },
      {
        "club_badge_src": null,
        "entry": 4665803,
        "entry_name": "Top of the League",
        "event_total": 60,
        "has_played": true,
        "id": 35736832,
        "last_rank": 47596,
        "player_name": "Mark Robinson",
        "rank": 43046,
        "rank_sort": 43161,
        "total": 2357
      },
      {
        "club_badge_src": null,
        "entry": 4858330,
        "entry_name": "Comeback FC",
        "event_total": 58,
        "has_played": true,
        "id": 37437413,
        "last_rank": 44525,
        "player_name": "Benjamin Iversen",
        "rank": 43046,
        "rank_sort": 43162,
        "total": 2357
      },
      {
        "club_badge_src": null,
        "entry": 5081215,
        "entry_name": "CirkoPapirko",
        "event_total": 62,
        "has_played": true,
        "id": 39271142,
        "last_rank": 50635,
        "player_name": "Uros Ciric",
        "rank": 43046,
        "rank_sort": 43163,
        "total": 2357
      },
      {
        "club_badge_src": null,
        "entry": 5082768,
        "entry_name": "mr alzain",
        "event_total": 68,
        "has_played": true,
        "id": 39283721,
        "last_rank": 53621,
        "player_name": "Alzain Mahde",
        "rank": 43046,
        "rank_sort": 43164,
        "total": 2357
      },
      {
        "club_badge_src": null,
        "entry": 5350834,
        "entry_name": "Amat\u00f8rene",
        "event_total": 66,
        "has_played": true,
        "id": 41533391,
        "last_rank": 57001,
        "player_name": "Olav \u00d8str\u00e5t",
        "rank": 43046,
        "rank_sort": 43165,
        "total": 2357
      },
      {
        "club_badge_src": null,
        "entry": 5421811,
        "entry_name": "samir mohsen",
        "event_total": 74,
        "has_played": true,
        "id": 42168429,
        "last_rank": 64005,
        "player_name": "samir mohsen",
        "rank": 43046,
        "rank_sort": 43166,
        "total": 2357
      },
      {
        "club_badge_src": "https://fantasy.premierleague.com/gcs/plfpl-production-adobe-approved/plfpl-production/5565694/2bcc09d0-d04e-4ce1-a099-96affd6ab6d1.png",
        "entry": 5565694,
        "entry_name": "\u0627\u0644\u0631\u0651\u0628\u0648\u062d\u064a",
        "event_total": 58,
        "has_played": true,
        "id": 43455921,
        "last_rank": 44525,
        "player_name": "\u062c\u064a\u06a8\u0633\u0648 \ud83d\udd2a",
        "rank": 43046,
        "rank_sort": 43167,
        "total": 2357
      },
      {
        "club_badge_src": null,
        "entry": 5919802,
        "entry_name": "Pep The Legend",
        "event_total": 59,
        "has_played": true,
        "id": 46528303,
        "last_rank": 46106,
        "player_name": "John Hourigan",
        "rank": 43046,
        "rank_sort": 43168,
        "total": 2357
      },
      {
        "club_badge_src": null,
        "entry": 6028779,
        "entry_name": "Bainesy's XI",
        "event_total": 45,
        "has_played": true,
        "id": 47555566,
        "last_rank": 29199,
        "player_name": "Paris Chorianopoulos",
        "rank": 43046,
        "rank_sort": 43169,
        "total": 2357
      },
      {
        "club_badge_src": null,
        "entry": 6928869,
        "entry_name": "cheikh br",
        "event_total": 67,
        "has_played": true,
        "id": 55545377,
        "last_rank": 58911,
        "player_name": "Cheikh Brahim Houeibib",
        "rank": 43046,
        "rank_sort": 43170,
        "total": 2357
      },
      {
        "club_badge_src": null,
        "entry": 7082565,
        "entry_name": "Kinder Mbeumo",
        "event_total": 79,
        "has_played": true,
        "id": 57010885,
        "last_rank": 82664,
        "player_name": "Zaineddin Al Asaad",
        "rank": 43046,
        "rank_sort": 43171,
        "total": 2357
      },
      {
        "club_badge_src": null,
        "entry": 7126391,
        "entry_name": "RUDDINGTON RAMBLERS",
        "event_total": 55,
        "has_played": true,
        "id": 57426317,
        "last_rank": 40503,
        "player_name": "michael barker",
        "rank": 43046,
        "rank_sort": 43172,
        "total": 2357
      },
      {
        "club_badge_src": "https://fantasy.premierleague.com/gcs/plfpl-production-adobe-approved/plfpl-production/7137052/c977e852-ee52-44d1-b822-96ef6bdd8348.png",
        "entry": 7137052,
        "entry_name": "SIMA FC",
        "event_total": 43,
        "has_played": true,
        "id": 57527935,
        "last_rank": 27304,
        "player_name": "SIMEON BESHAWERED",
        "rank": 43046,
        "rank_sort": 43173,
        "total": 2357
      },
      {
        "club_badge_src": null,
        "entry": 7349106,
        "entry_name": "Change Name",
        "event_total": 57,
        "has_played": true,
        "id": 59537200,
        "last_rank": 43168,
        "player_name": "Linnea Karlstr\u00f6m",
        "rank": 43046,
        "rank_sort": 43174,
        "total": 2357
      },
      {
        "club_badge_src": null,
        "entry": 7439338,
        "entry_name": "D7DB7",
        "event_total": 50,
        "has_played": true,
        "id": 60494163,
        "last_rank": 34578,
        "player_name": "Dane Butter",
        "rank": 43046,
        "rank_sort": 43175,
        "total": 2357
      },
      {
        "club_badge_src": null,
        "entry": 7501029,
        "entry_name": "Obi Wan-Bissaka",
        "event_total": 63,
        "has_played": true,
        "id": 61290998,
        "last_rank": 52205,
        "player_name": "Callum Laver",
        "rank": 43046,
        "rank_sort": 43176,
        "total": 2357
      },
      {
        "club_badge_src": null,
        "entry": 7763585,
        "entry_name": "Damec",
        "event_total": 58,
        "has_played": true,
        "id": 63745544,
        "last_rank": 44672,
        "player_name": "david stephenson",
        "rank": 43046,
        "rank_sort": 43177,
        "total": 2357
      },
      {
        "club_badge_src": null,
        "entry": 7819612,
        "entry_name": "Mohmed",
        "event_total": 65,
        "has_played": true,
        "id": 64251133,
        "last_rank": 55514,
        "player_name": "Mohmed ibrahim",
        "rank": 43046,
        "rank_sort": 43178,
        "total": 2357
      },
      {
        "club_badge_src": null,
        "entry": 8004155,
        "entry_name": "Feyntastic",
        "event_total": 67,
        "has_played": true,
        "id": 65921479,
        "last_rank": 58911,
        "player_name": "Jason Fey",
        "rank": 43046,
        "rank_sort": 43179,
        "total": 2357
      },
      {
        "club_badge_src": null,
        "entry": 8167359,
        "entry_name": "Not this ham FC",
        "event_total": 57,
        "has_played": true,
        "id": 67429868,
        "last_rank": 28726,
        "player_name": "FPL Rigged",
        "rank": 43046,
        "rank_sort": 43180,
        "total": 2357
      },
      {
        "club_badge_src": "https://fantasy.premierleague.com/gcs/plfpl-production-adobe-approved/plfpl-production/1871/fcfb4551-4499-466c-94b1-33b33399a829.png",
        "entry": 1871,
        "entry_name": "STEAMGER",
        "event_total": 64,
        "has_played": true,
        "id": 10428,
        "last_rank": 47417,
        "player_name": "LUCA AIROLDI",
        "rank": 43181,
        "rank_sort": 43181,
        "total": 2357
      },
      {
        "club_badge_src": null,
        "entry": 2866,
        "entry_name": "Don'tLookBack Elanga",
        "event_total": 55,
        "has_played": true,
        "id": 16117,
        "last_rank": 35768,
        "player_name": "John Hayward",
        "rank": 43181,
        "rank_sort": 43182,
        "total": 2357
      },
      {
        "club_badge_src": "https://fantasy.premierleague.com/gcs/plfpl-production-adobe-approved/plfpl-production/7770/f8fcc4ef-e560-4e50-abb8-a3423f9c1b10.png",
        "entry": 7770,
        "entry_name": "Beans on Tosin",
        "event_total": 58,
        "has_played": true,
        "id": 44839,
        "last_rank": 39403,
        "player_name": "Daniel James",
        "rank": 43181,
        "rank_sort": 43183,
        "total": 2357
      },
      {
        "club_badge_src": null,
        "entry": 8244,
        "entry_name": "Wirtz case scenario",
        "event_total": 38,
        "has_played": true,
        "id": 47818,
        "last_rank": 22996,
        "player_name": "William Gaston Br\u00f8stenes",
        "rank": 43181,
        "rank_sort": 43184,
        "total": 2357
      },
      {
        "club_badge_src": null,
        "entry": 28056,
        "entry_name": "Marwan \u00a3",
        "event_total": 67,
        "has_played": true,
        "id": 177436,
        "last_rank": 52205,
        "player_name": "Marwan AbuHazeem",
        "rank": 43181,
        "rank_sort": 43185,
        "total": 2357
      },
      {
        "club_badge_src": "https://fantasy.premierleague.com/gcs/plfpl-production-adobe-approved/plfpl-production/36676/4b44d713-10a1-472d-bcdd-76db3c67966d.png",
        "entry": 36676,
        "entry_name": "Irish Lions",
        "event_total": 49,
        "has_played": true,
        "id": 234810,
        "last_rank": 33582,
        "player_name": "Max Saunders",
        "rank": 43181,
        "rank_sort": 43186,
        "total": 2357
      },
      {
        "club_badge_src": null,
        "entry": 37980,
        "entry_name": "Murphy\u2019s law",
        "event_total": 41,
        "has_played": true,
        "id": 243380,
        "last_rank": 22154,
        "player_name": "Ollie Randall",
        "rank": 43181,
        "rank_sort": 43187,
        "total": 2357
      },
      {
        "club_badge_src": "https://fantasy.premierleague.com/gcs/plfpl-production-adobe-approved/plfpl-production/79131/f935a998-6a32-4bd5-bdec-51ba3373623f.png",
        "entry": 79131,
        "entry_name": "Ocean Air SC/FC",
        "event_total": 53,
        "has_played": true,
        "id": 514598,
        "last_rank": 25172,
        "player_name": "John V Esser",
        "rank": 43181,
        "rank_sort": 43188,
        "total": 2357
      },
      {
        "club_badge_src": null,
        "entry": 88516,
        "entry_name": "comets FC",
        "event_total": 62,
        "has_played": true,
        "id": 577631,
        "last_rank": 44672,
        "player_name": "seth naidoo",
        "rank": 43181,
        "rank_sort": 43189,
        "total": 2357
      },
      {
        "club_badge_src": "https://fantasy.premierleague.com/gcs/plfpl-production-adobe-approved/plfpl-production/107156/700f299f-5413-4f59-9c8d-cc90230f2ea3.png",
        "entry": 107156,
        "entry_name": "FC Berginho",
        "event_total": 67,
        "has_played": true,
        "id": 698580,
        "last_rank": 52205,
        "player_name": "Sjur Berge",
        "rank": 43181,
        "rank_sort": 43190,
        "total": 2357
      },
      {
        "club_badge_src": null,
        "entry": 118672,
        "entry_name": "Sayoudi gyokeres",
        "event_total": 68,
        "has_played": true,
        "id": 774455,
        "last_rank": 60827,
        "player_name": "Sayoudi Walid",
        "rank": 43181,
        "rank_sort": 43191,
        "total": 2357
      },
      {
        "club_badge_src": null,
        "entry": 119555,
        "entry_name": "Old Pope in an Oak",
        "event_total": 83,
        "has_played": true,
        "id": 780046,
        "last_rank": 82664,
        "player_name": "Kim Grina Midtlie",
        "rank": 43181,
        "rank_sort": 43192,
        "total": 2357
      },
      {
        "club_badge_src": null,
        "entry": 126928,
        "entry_name": "Penaldos X1",
        "event_total": 62,
        "has_played": true,
        "id": 827552,
        "last_rank": 44672,
        "player_name": "Braden Naidoo",
        "rank": 43181,
        "rank_sort": 43193,
        "total": 2357
      },
      {
        "club_badge_src": null,
        "entry": 222305,
        "entry_name": "dylscoop turns",
        "event_total": 68,
        "has_played": true,
        "id": 1478651,
        "last_rank": 53837,
        "player_name": "Dylan Siow-Lee",
        "rank": 43181,
        "rank_sort": 43194,
        "total": 2357
      },
      {
        "club_badge_src": "https://fantasy.premierleague.com/gcs/plfpl-production-adobe-approved/plfpl-production/248115/be8b86f3-9fc9-4f52-9f15-9c530608ba19.png",
        "entry": 248115,
        "entry_name": "tony3dsa",
        "event_total": 74,
        "has_played": true,
        "id": 1651406,
        "last_rank": 63724,
        "player_name": "Anton Todorov",
        "rank": 43181,
        "rank_sort": 43195,
        "total": 2357
      },
      {
        "club_badge_src": null,
        "entry": 250408,
        "entry_name": "APHOK_FC",
        "event_total": 58,
        "has_played": true,
        "id": 1666075,
        "last_rank": 39403,
        "player_name": "PKay Kab",
        "rank": 43181,
        "rank_sort": 43196,
        "total": 2357
      },
      {
        "club_badge_src": null,
        "entry": 251501,
        "entry_name": "DontlookbackElanga",
        "event_total": 55,
        "has_played": true,
        "id": 1673139,
        "last_rank": 40770,
        "player_name": "Matthew Brown-king",
        "rank": 43181,
        "rank_sort": 43197,
        "total": 2357
      },
      {
        "club_badge_src": "https://fantasy.premierleague.com/gcs/plfpl-production-adobe-approved/plfpl-production/258653/4171e842-f9ad-4382-99cf-78455399e2c5.png",
        "entry": 258653,
        "entry_name": "FPL King",
        "event_total": 57,
        "has_played": true,
        "id": 1719854,
        "last_rank": 38016,
        "player_name": "Brendan Richardson",
        "rank": 43181,
        "rank_sort": 43198,
        "total": 2357
      },
      {
        "club_badge_src": null,
        "entry": 283719,
        "entry_name": "Melchester Rovers",
        "event_total": 65,
        "has_played": true,
        "id": 1888929,
        "last_rank": 37822,
        "player_name": "James Polkinghorne",
        "rank": 43181,
        "rank_sort": 43199,
        "total": 2357
      },
      {
        "club_badge_src": null,
        "entry": 296312,
        "entry_name": "Puistolan Pallo",
        "event_total": 77,
        "has_played": true,
        "id": 1979714,
        "last_rank": 77999,
        "player_name": "Vili H\u00e4nninen",
        "rank": 43181,
        "rank_sort": 43200,
        "total": 2357
      }
    ]
  }
}