{
  "last_updated_data": "2026-05-24T23:28:17Z",
  "league": {
    "admin_entry": null,
    "closed": false,
    "code_privacy": "p",
    "created": "2025-07-20T23:14:33.933835Z",
    "cup_league": 2815434,
    "has_cup": true,
    "id": 314,
    "league_type": "s",
    "max_entries": null,
    "name": "Overall",
    "rank": null,
    "scoring": "c",
    "start_event": 1
  },
  "new_entries": {
    "has_next": false,
    "page": 1,
    "results": []
  },
  "standings": {
    "has_next": true,
    "page": 535,
    "results": [
      {
        "club_badge_src": null,
        "entry": 1628615,
        "entry_name": "NO ONE",
        "event_total": 66,
        "has_played": true,
        "id": 11399303,
        "last_rank": 35768,
        "player_name": "FREE ----PALESTINE",
        "rank": 26648,
        "rank_sort": 26701,
        "total": 2372
      },
      {
        "club_badge_src": null,
        "entry": 1705154,
        "entry_name": "Forever Bowen Bubb",
        "event_total": 68,
        "has_played": true,
        "id": 11945316,
        "last_rank": 33332,
        "player_name": "Lee Whitehead",
        "rank": 26648,
        "rank_sort": 26702,
        "total": 2372
      },
      {
        "club_badge_src": null,
        "entry": 1876837,
        "entry_name": "bilal",
        "event_total": 66,
        "has_played": true,
        "id": 13216948,
        "last_rank": 35768,
        "player_name": "Bilal Fares",
        "rank": 26648,
        "rank_sort": 26703,
        "total": 2372
      },
      {
        "club_badge_src": null,
        "entry": 2011224,
        "entry_name": "Sleivspark IL",
        "event_total": 53,
        "has_played": true,
        "id": 14221635,
        "last_rank": 22921,
        "player_name": "\u00d8istein Str\u00f8m",
        "rank": 26648,
        "rank_sort": 26704,
        "total": 2372
      },
      {
        "club_badge_src": null,
        "entry": 2030403,
        "entry_name": "Barcelona",
        "event_total": 73,
        "has_played": true,
        "id": 14374445,
        "last_rank": 39246,
        "player_name": "Erik Ten hug",
        "rank": 26648,
        "rank_sort": 26705,
        "total": 2372
      },
      {
        "club_badge_src": "https://fantasy.premierleague.com/gcs/plfpl-production-adobe-approved/plfpl-production/2124536/9624d007-6164-4256-96dd-2c57351e0c9b.png",
        "entry": 2124536,
        "entry_name": "Farke The Bus",
        "event_total": 61,
        "has_played": true,
        "id": 15094646,
        "last_rank": 30191,
        "player_name": "Rachel G",
        "rank": 26648,
        "rank_sort": 26706,
        "total": 2372
      },
      {
        "club_badge_src": null,
        "entry": 2163671,
        "entry_name": "Hoki Fc",
        "event_total": 74,
        "has_played": true,
        "id": 15381245,
        "last_rank": 45927,
        "player_name": "Gerald Gibran",
        "rank": 26648,
        "rank_sort": 26707,
        "total": 2372
      },
      {
        "club_badge_src": null,
        "entry": 2225312,
        "entry_name": "Musketbee",
        "event_total": 63,
        "has_played": true,
        "id": 15851205,
        "last_rank": 31747,
        "player_name": "Tudor Powell",
        "rank": 26648,
        "rank_sort": 26708,
        "total": 2372
      },
      {
        "club_badge_src": null,
        "entry": 2325366,
        "entry_name": "Gospodar fantazija",
        "event_total": 60,
        "has_played": true,
        "id": 16590046,
        "last_rank": 25330,
        "player_name": "Nikola Bogicevic",
        "rank": 26648,
        "rank_sort": 26709,
        "total": 2372
      },
      {
        "club_badge_src": "https://fantasy.premierleague.com/gcs/plfpl-production-adobe-approved/plfpl-production/2414755/a7fde2a4-1844-461a-9b69-29bc008f27cf.png",
        "entry": 2414755,
        "entry_name": "Mbimbo FC",
        "event_total": 43,
        "has_played": true,
        "id": 17261824,
        "last_rank": 13500,
        "player_name": "George Marere",
        "rank": 26648,
        "rank_sort": 26710,
        "total": 2372
      },
      {
        "club_badge_src": null,
        "entry": 2425155,
        "entry_name": "Glasner Rovers",
        "event_total": 52,
        "has_played": true,
        "id": 17340265,
        "last_rank": 19103,
        "player_name": "Simon Coles",
        "rank": 26648,
        "rank_sort": 26711,
        "total": 2372
      },
      {
        "club_badge_src": null,
        "entry": 2780870,
        "entry_name": "Miracle Maker's",
        "event_total": 83,
        "has_played": true,
        "id": 20298196,
        "last_rank": 60168,
        "player_name": "Declan Geran",
        "rank": 26648,
        "rank_sort": 26712,
        "total": 2372
      },
      {
        "club_badge_src": null,
        "entry": 2826630,
        "entry_name": "TEH CiTy \ufffd",
        "event_total": 60,
        "has_played": true,
        "id": 20652606,
        "last_rank": 29071,
        "player_name": "Houari Temimi",
        "rank": 26648,
        "rank_sort": 26713,
        "total": 2372
      },
      {
        "club_badge_src": null,
        "entry": 3464039,
        "entry_name": "Banditos",
        "event_total": 63,
        "has_played": true,
        "id": 25750237,
        "last_rank": 32335,
        "player_name": "Declan Maguire",
        "rank": 26648,
        "rank_sort": 26714,
        "total": 2372
      },
      {
        "club_badge_src": null,
        "entry": 3795612,
        "entry_name": "Plavi",
        "event_total": 67,
        "has_played": true,
        "id": 28370024,
        "last_rank": 32190,
        "player_name": "Matija Sokol",
        "rank": 26648,
        "rank_sort": 26715,
        "total": 2372
      },
      {
        "club_badge_src": null,
        "entry": 4244859,
        "entry_name": "saefelislam",
        "event_total": 61,
        "has_played": true,
        "id": 32173793,
        "last_rank": 30060,
        "player_name": "sifou guittara",
        "rank": 26648,
        "rank_sort": 26716,
        "total": 2372
      },
      {
        "club_badge_src": null,
        "entry": 4476733,
        "entry_name": "A. gomati",
        "event_total": 58,
        "has_played": true,
        "id": 34116736,
        "last_rank": 27304,
        "player_name": "ahmed algomaty",
        "rank": 26648,
        "rank_sort": 26717,
        "total": 2372
      },
      {
        "club_badge_src": null,
        "entry": 4723564,
        "entry_name": "Cy\u00f6keres",
        "event_total": 58,
        "has_played": true,
        "id": 36299786,
        "last_rank": 27203,
        "player_name": "Sam Dixon",
        "rank": 26648,
        "rank_sort": 26718,
        "total": 2372
      },
      {
        "club_badge_src": null,
        "entry": 4725870,
        "entry_name": "V.C. Bobic",
        "event_total": 56,
        "has_played": true,
        "id": 36328066,
        "last_rank": 21949,
        "player_name": "Bob Corthals",
        "rank": 26648,
        "rank_sort": 26719,
        "total": 2372
      },
      {
        "club_badge_src": null,
        "entry": 5018551,
        "entry_name": "Pompeyfantasy",
        "event_total": 69,
        "has_played": true,
        "id": 38756592,
        "last_rank": 39403,
        "player_name": "Terry Andrew",
        "rank": 26648,
        "rank_sort": 26720,
        "total": 2372
      },
      {
        "club_badge_src": null,
        "entry": 5189745,
        "entry_name": "Clarky FC",
        "event_total": 59,
        "has_played": true,
        "id": 40177199,
        "last_rank": 28150,
        "player_name": "Jayden Clark",
        "rank": 26648,
        "rank_sort": 26721,
        "total": 2372
      },
      {
        "club_badge_src": null,
        "entry": 5385991,
        "entry_name": "Paul of Fame",
        "event_total": 59,
        "has_played": true,
        "id": 41870897,
        "last_rank": 28273,
        "player_name": "Paul Bond",
        "rank": 26648,
        "rank_sort": 26722,
        "total": 2372
      },
      {
        "club_badge_src": null,
        "entry": 5540345,
        "entry_name": "Pathetico FC",
        "event_total": 62,
        "has_played": true,
        "id": 43230229,
        "last_rank": 31236,
        "player_name": "Indy Kalsi",
        "rank": 26648,
        "rank_sort": 26723,
        "total": 2372
      },
      {
        "club_badge_src": null,
        "entry": 5952343,
        "entry_name": "Langesund United",
        "event_total": 54,
        "has_played": true,
        "id": 46819847,
        "last_rank": 23748,
        "player_name": "J\u00f8rgen Vestgarden",
        "rank": 26648,
        "rank_sort": 26724,
        "total": 2372
      },
      {
        "club_badge_src": null,
        "entry": 5966250,
        "entry_name": "AYMAN",
        "event_total": 51,
        "has_played": true,
        "id": 46942092,
        "last_rank": 18377,
        "player_name": "H King",
        "rank": 26648,
        "rank_sort": 26725,
        "total": 2372
      },
      {
        "club_badge_src": null,
        "entry": 6058716,
        "entry_name": "OH-YNWA",
        "event_total": 57,
        "has_played": true,
        "id": 47814850,
        "last_rank": 26345,
        "player_name": "Odd Halvorsen",
        "rank": 26648,
        "rank_sort": 26726,
        "total": 2372
      },
      {
        "club_badge_src": null,
        "entry": 6213164,
        "entry_name": "Kiemb11",
        "event_total": 47,
        "has_played": true,
        "id": 49158267,
        "last_rank": 15797,
        "player_name": "Shoko Biero",
        "rank": 26648,
        "rank_sort": 26727,
        "total": 2372
      },
      {
        "club_badge_src": null,
        "entry": 6440282,
        "entry_name": "Samasemo",
        "event_total": 63,
        "has_played": true,
        "id": 51276158,
        "last_rank": 32335,
        "player_name": "Sami Abdel rahman",
        "rank": 26648,
        "rank_sort": 26728,
        "total": 2372
      },
      {
        "club_badge_src": null,
        "entry": 6473914,
        "entry_name": "Captain's Knock",
        "event_total": 58,
        "has_played": true,
        "id": 51586497,
        "last_rank": 20416,
        "player_name": "Hitesh Bolah",
        "rank": 26648,
        "rank_sort": 26729,
        "total": 2372
      },
      {
        "club_badge_src": null,
        "entry": 6516659,
        "entry_name": "Krul Intentions",
        "event_total": 48,
        "has_played": true,
        "id": 51970462,
        "last_rank": 19176,
        "player_name": "Tom Keating",
        "rank": 26648,
        "rank_sort": 26730,
        "total": 2372
      },
      {
        "club_badge_src": "https://fantasy.premierleague.com/gcs/plfpl-production-adobe-approved/plfpl-production/6627072/13ca9955-7001-4aaa-bc54-8211c93fe439.png",
        "entry": 6627072,
        "entry_name": "muhamad",
        "event_total": 61,
        "has_played": true,
        "id": 52961374,
        "last_rank": 30191,
        "player_name": "muhammad taefur",
        "rank": 26648,
        "rank_sort": 26731,
        "total": 2372
      },
      {
        "club_badge_src": "https://fantasy.premierleague.com/gcs/plfpl-production-adobe-approved/plfpl-production/6633290/45a9a449-58cd-40f3-b3da-e1b93c488c8b.png",
        "entry": 6633290,
        "entry_name": "KingSlayer",
        "event_total": 67,
        "has_played": true,
        "id": 53016408,
        "last_rank": 31995,
        "player_name": "Soumyadeep Dutta",
        "rank": 26648,
        "rank_sort": 26732,
        "total": 2372
      },
      {
        "club_badge_src": null,
        "entry": 6783807,
        "entry_name": "Santas Reijnders",
        "event_total": 42,
        "has_played": true,
        "id": 54321974,
        "last_rank": 15226,
        "player_name": "Umar Rajpura",
        "rank": 26648,
        "rank_sort": 26733,
        "total": 2372
      },
      {
        "club_badge_src": null,
        "entry": 7046915,
        "entry_name": "Itanici",
        "event_total": 61,
        "has_played": true,
        "id": 56667370,
        "last_rank": 30060,
        "player_name": "Nikola Pavlovic",
        "rank": 26648,
        "rank_sort": 26734,
        "total": 2372
      },
      {
        "club_badge_src": null,
        "entry": 7224948,
        "entry_name": "need 0.5GBP more fc",
        "event_total": 60,
        "has_played": true,
        "id": 58368491,
        "last_rank": 25330,
        "player_name": "Yan Lan",
        "rank": 26648,
        "rank_sort": 26735,
        "total": 2372
      },
      {
        "club_badge_src": null,
        "entry": 7234223,
        "entry_name": "Yes Ndidi",
        "event_total": 53,
        "has_played": true,
        "id": 58454286,
        "last_rank": 22921,
        "player_name": "Henry Maver",
        "rank": 26648,
        "rank_sort": 26736,
        "total": 2372
      },
      {
        "club_badge_src": null,
        "entry": 7261602,
        "entry_name": "Change Name",
        "event_total": 62,
        "has_played": true,
        "id": 58714704,
        "last_rank": 27203,
        "player_name": "Dilyan Anastasov",
        "rank": 26648,
        "rank_sort": 26737,
        "total": 2372
      },
      {
        "club_badge_src": null,
        "entry": 7855738,
        "entry_name": "juve",
        "event_total": 44,
        "has_played": true,
        "id": 64584302,
        "last_rank": 16512,
        "player_name": "Salem Aburawi",
        "rank": 26648,
        "rank_sort": 26738,
        "total": 2372
      },
      {
        "club_badge_src": null,
        "entry": 8508520,
        "entry_name": "fulhamerica",
        "event_total": 53,
        "has_played": true,
        "id": 70719808,
        "last_rank": 22921,
        "player_name": "Andy Brooker",
        "rank": 26648,
        "rank_sort": 26739,
        "total": 2372
      },
      {
        "club_badge_src": null,
        "entry": 8725195,
        "entry_name": "townsend07",
        "event_total": 54,
        "has_played": true,
        "id": 72824672,
        "last_rank": 23748,
        "player_name": "Katherine townsend",
        "rank": 26648,
        "rank_sort": 26740,
        "total": 2372
      },
      {
        "club_badge_src": null,
        "entry": 8803660,
        "entry_name": "Tufte",
        "event_total": 62,
        "has_played": true,
        "id": 73580082,
        "last_rank": 27203,
        "player_name": "Christoffer Nore",
        "rank": 26648,
        "rank_sort": 26741,
        "total": 2372
      },
      {
        "club_badge_src": null,
        "entry": 9011282,
        "entry_name": "TAREK FC",
        "event_total": 60,
        "has_played": true,
        "id": 75589000,
        "last_rank": 25330,
        "player_name": "Mostafa Tarek",
        "rank": 26648,
        "rank_sort": 26742,
        "total": 2372
      },
      {
        "club_badge_src": "https://fantasy.premierleague.com/gcs/plfpl-production-adobe-approved/plfpl-production/1320/cb8757cc-afd9-41c4-b103-5b57223557dd.png",
        "entry": 1320,
        "entry_name": "DANIELS XI",
        "event_total": 67,
        "has_played": true,
        "id": 7330,
        "last_rank": 36624,
        "player_name": "Harry Daniels",
        "rank": 26743,
        "rank_sort": 26743,
        "total": 2372
      },
      {
        "club_badge_src": null,
        "entry": 50245,
        "entry_name": "The Jimbos",
        "event_total": 55,
        "has_played": true,
        "id": 323156,
        "last_rank": 21392,
        "player_name": "James Evans",
        "rank": 26743,
        "rank_sort": 26744,
        "total": 2372
      },
      {
        "club_badge_src": "https://fantasy.premierleague.com/gcs/plfpl-production-adobe-approved/plfpl-production/103742/c443a8bb-991b-4828-92a4-1d09dab320b7.png",
        "entry": 103742,
        "entry_name": "Vikkstar Gyokeres",
        "event_total": 69,
        "has_played": true,
        "id": 676878,
        "last_rank": 39510,
        "player_name": "Callum Hillier",
        "rank": 26743,
        "rank_sort": 26745,
        "total": 2372
      },
      {
        "club_badge_src": null,
        "entry": 112598,
        "entry_name": "Mcginn And Tonic",
        "event_total": 63,
        "has_played": true,
        "id": 734204,
        "last_rank": 28273,
        "player_name": "Kyle Milner",
        "rank": 26743,
        "rank_sort": 26746,
        "total": 2372
      },
      {
        "club_badge_src": "https://fantasy.premierleague.com/gcs/plfpl-production-adobe-approved/plfpl-production/117608/f6e5d03a-68f1-4436-8cb4-279fd76815e0.png",
        "entry": 117608,
        "entry_name": "Not Isakly Sure XI",
        "event_total": 61,
        "has_played": true,
        "id": 767626,
        "last_rank": 30191,
        "player_name": "Jason Dancer",
        "rank": 26743,
        "rank_sort": 26747,
        "total": 2372
      },
      {
        "club_badge_src": "https://fantasy.premierleague.com/gcs/plfpl-production-adobe-approved/plfpl-production/119140/5c9b9f87-da07-4d8c-a8ce-0f63d7f889a1.png",
        "entry": 119140,
        "entry_name": "Reeces Pieces",
        "event_total": 72,
        "has_played": true,
        "id": 777403,
        "last_rank": 43342,
        "player_name": "Keerat Nijjar",
        "rank": 26743,
        "rank_sort": 26748,
        "total": 2372
      },
      {
        "club_badge_src": null,
        "entry": 136185,
        "entry_name": "Hakuna Mateta",
        "event_total": 69,
        "has_played": true,
        "id": 887071,
        "last_rank": 30060,
        "player_name": "Cooper .",
        "rank": 26743,
        "rank_sort": 26749,
        "total": 2372
      },
      {
        "club_badge_src": null,
        "entry": 163728,
        "entry_name": "Boom Xhakalaka",
        "event_total": 75,
        "has_played": true,
        "id": 1080078,
        "last_rank": 36624,
        "player_name": "Daniel Potts",
        "rank": 26743,
        "rank_sort": 26750,
        "total": 2372
      }
    ]
  }
}