{
  "last_updated_data": "2026-05-24T23:28:17Z",
  "league": {
    "admin_entry": null,
    "closed": false,
    "code_privacy": "p",
    "created": "2025-07-20T23:14:33.933835Z",
    "cup_league": 2815434,
    "has_cup": true,
    "id": 314,
    "league_type": "s",
    "max_entries": null,
    "name": "Overall",
    "rank": null,
    "scoring": "c",
    "start_event": 1
  },
  "new_entries": {
    "has_next": false,
    "page": 1,
    "results": []
  },
  "standings": {
    "has_next": true,
    "page": 867,
    "results": [
      {
        "club_badge_src": null,
        "entry": 971114,
        "entry_name": "Cacioepepe",
        "event_total": 49,
        "has_played": true,
        "id": 6694233,
        "last_rank": 29279,
        "player_name": "Tomas Logan",
        "rank": 43274,
        "rank_sort": 43301,
        "total": 2357
      },
      {
        "club_badge_src": null,
        "entry": 981008,
        "entry_name": "One Size Fitz-Hall",
        "event_total": 67,
        "has_played": true,
        "id": 6763042,
        "last_rank": 58911,
        "player_name": "Mike Burton",
        "rank": 43274,
        "rank_sort": 43302,
        "total": 2357
      },
      {
        "club_badge_src": null,
        "entry": 1191881,
        "entry_name": "BertyBops",
        "event_total": 64,
        "has_played": true,
        "id": 8269781,
        "last_rank": 53952,
        "player_name": "robert wood",
        "rank": 43274,
        "rank_sort": 43303,
        "total": 2357
      },
      {
        "club_badge_src": null,
        "entry": 1322413,
        "entry_name": "Diego Palmerdonna",
        "event_total": 61,
        "has_played": true,
        "id": 9192106,
        "last_rank": 49207,
        "player_name": "Scott Toomer",
        "rank": 43274,
        "rank_sort": 43304,
        "total": 2357
      },
      {
        "club_badge_src": null,
        "entry": 1492103,
        "entry_name": "Arnie Sloth",
        "event_total": 62,
        "has_played": true,
        "id": 10405276,
        "last_rank": 50772,
        "player_name": "Simon Hicks",
        "rank": 43274,
        "rank_sort": 43305,
        "total": 2357
      },
      {
        "club_badge_src": null,
        "entry": 1682050,
        "entry_name": "Marmoushrooms Please",
        "event_total": 78,
        "has_played": true,
        "id": 11775015,
        "last_rank": 64005,
        "player_name": "Richard Parker",
        "rank": 43274,
        "rank_sort": 43306,
        "total": 2357
      },
      {
        "club_badge_src": "https://fantasy.premierleague.com/gcs/plfpl-production-adobe-approved/plfpl-production/1783062/1aae3c69-119a-43e9-a3bd-26335e392778.png",
        "entry": 1783062,
        "entry_name": "Loka",
        "event_total": 50,
        "has_played": true,
        "id": 12527627,
        "last_rank": 30276,
        "player_name": "Ahmed Salem",
        "rank": 43274,
        "rank_sort": 43307,
        "total": 2357
      },
      {
        "club_badge_src": null,
        "entry": 1976543,
        "entry_name": "The 7 Nation Arne",
        "event_total": 55,
        "has_played": true,
        "id": 13952150,
        "last_rank": 40878,
        "player_name": "Charlie Andrews",
        "rank": 43274,
        "rank_sort": 43308,
        "total": 2357
      },
      {
        "club_badge_src": null,
        "entry": 2115014,
        "entry_name": "VIKING",
        "event_total": 65,
        "has_played": true,
        "id": 15017764,
        "last_rank": 55747,
        "player_name": "Mo Gg",
        "rank": 43274,
        "rank_sort": 43309,
        "total": 2357
      },
      {
        "club_badge_src": "https://fantasy.premierleague.com/gcs/plfpl-production-adobe-approved/plfpl-production/2122129/f5ad4388-a5f7-4fd6-b995-54d775556aca.png",
        "entry": 2122129,
        "entry_name": "Osaka Curled It",
        "event_total": 30,
        "has_played": true,
        "id": 15074823,
        "last_rank": 17233,
        "player_name": "David Hyde",
        "rank": 43274,
        "rank_sort": 43310,
        "total": 2357
      },
      {
        "club_badge_src": null,
        "entry": 2250770,
        "entry_name": "ABCDE FC",
        "event_total": 53,
        "has_played": true,
        "id": 16038223,
        "last_rank": 38340,
        "player_name": "John Dent",
        "rank": 43274,
        "rank_sort": 43311,
        "total": 2357
      },
      {
        "club_badge_src": null,
        "entry": 2275263,
        "entry_name": "Bruno Dos Tres",
        "event_total": 51,
        "has_played": true,
        "id": 16224367,
        "last_rank": 31309,
        "player_name": "cathal o meara",
        "rank": 43274,
        "rank_sort": 43312,
        "total": 2357
      },
      {
        "club_badge_src": null,
        "entry": 2322223,
        "entry_name": "G19",
        "event_total": 62,
        "has_played": true,
        "id": 16566293,
        "last_rank": 50772,
        "player_name": "Kirupakaran Gowtham",
        "rank": 43274,
        "rank_sort": 43313,
        "total": 2357
      },
      {
        "club_badge_src": null,
        "entry": 2428486,
        "entry_name": "Wirtz Case Scenario",
        "event_total": 61,
        "has_played": true,
        "id": 17364794,
        "last_rank": 43342,
        "player_name": "Jordan Gibbons",
        "rank": 43274,
        "rank_sort": 43314,
        "total": 2357
      },
      {
        "club_badge_src": null,
        "entry": 2543672,
        "entry_name": "Kroos Control",
        "event_total": 46,
        "has_played": true,
        "id": 18231522,
        "last_rank": 30325,
        "player_name": "Sanchit Pande",
        "rank": 43274,
        "rank_sort": 43315,
        "total": 2357
      },
      {
        "club_badge_src": null,
        "entry": 2596009,
        "entry_name": "HOWELL'S 11",
        "event_total": 62,
        "has_played": true,
        "id": 18641853,
        "last_rank": 39403,
        "player_name": "Gareth Howell",
        "rank": 43274,
        "rank_sort": 43316,
        "total": 2357
      },
      {
        "club_badge_src": null,
        "entry": 2596608,
        "entry_name": "Gazzasallstars",
        "event_total": 58,
        "has_played": true,
        "id": 18646567,
        "last_rank": 39510,
        "player_name": "Gary Needle",
        "rank": 43274,
        "rank_sort": 43317,
        "total": 2357
      },
      {
        "club_badge_src": null,
        "entry": 2765175,
        "entry_name": "Shah",
        "event_total": 71,
        "has_played": true,
        "id": 20174033,
        "last_rank": 59077,
        "player_name": "Bejal Shah",
        "rank": 43274,
        "rank_sort": 43318,
        "total": 2357
      },
      {
        "club_badge_src": null,
        "entry": 3344639,
        "entry_name": "Norfolk Enchance",
        "event_total": 60,
        "has_played": true,
        "id": 24809583,
        "last_rank": 47812,
        "player_name": "Kieran French",
        "rank": 43274,
        "rank_sort": 43319,
        "total": 2357
      },
      {
        "club_badge_src": null,
        "entry": 3480069,
        "entry_name": "Aguerrrrrroooooooooo",
        "event_total": 44,
        "has_played": true,
        "id": 25877180,
        "last_rank": 28388,
        "player_name": "Yusuf Karimjee",
        "rank": 43274,
        "rank_sort": 43320,
        "total": 2357
      },
      {
        "club_badge_src": null,
        "entry": 3504355,
        "entry_name": "NEBS_FC",
        "event_total": 59,
        "has_played": true,
        "id": 26069292,
        "last_rank": 46313,
        "player_name": "Emre F. Nebioglu",
        "rank": 43274,
        "rank_sort": 43321,
        "total": 2357
      },
      {
        "club_badge_src": null,
        "entry": 3584250,
        "entry_name": "Ahmed",
        "event_total": 63,
        "has_played": true,
        "id": 26692047,
        "last_rank": 52461,
        "player_name": "Elhamzaoui RCA Madrid",
        "rank": 43274,
        "rank_sort": 43322,
        "total": 2357
      },
      {
        "club_badge_src": null,
        "entry": 3770004,
        "entry_name": "CutsNation FC\u2728",
        "event_total": 72,
        "has_played": true,
        "id": 28149258,
        "last_rank": 60827,
        "player_name": "Kwasi James",
        "rank": 43274,
        "rank_sort": 43323,
        "total": 2357
      },
      {
        "club_badge_src": null,
        "entry": 3824914,
        "entry_name": "rudebhoys",
        "event_total": 75,
        "has_played": true,
        "id": 28609266,
        "last_rank": 74317,
        "player_name": "Tony Reilly",
        "rank": 43274,
        "rank_sort": 43324,
        "total": 2357
      },
      {
        "club_badge_src": null,
        "entry": 3867150,
        "entry_name": "BOWEN 747",
        "event_total": 52,
        "has_played": true,
        "id": 28998250,
        "last_rank": 37189,
        "player_name": "Alfie Staines",
        "rank": 43274,
        "rank_sort": 43325,
        "total": 2357
      },
      {
        "club_badge_src": null,
        "entry": 3875788,
        "entry_name": "zeri3t l 9aneb",
        "event_total": 69,
        "has_played": true,
        "id": 29113882,
        "last_rank": 49078,
        "player_name": "marouane lafdoul",
        "rank": 43274,
        "rank_sort": 43326,
        "total": 2357
      },
      {
        "club_badge_src": null,
        "entry": 3949145,
        "entry_name": "BibiBounce",
        "event_total": 69,
        "has_played": true,
        "id": 29709098,
        "last_rank": 62617,
        "player_name": "Mobeen Mob",
        "rank": 43274,
        "rank_sort": 43327,
        "total": 2357
      },
      {
        "club_badge_src": null,
        "entry": 4757703,
        "entry_name": "916 Chelsea",
        "event_total": 61,
        "has_played": true,
        "id": 36612837,
        "last_rank": 49301,
        "player_name": "SAM SAYED",
        "rank": 43274,
        "rank_sort": 43328,
        "total": 2357
      },
      {
        "club_badge_src": null,
        "entry": 4826178,
        "entry_name": "FC Victorinox Utd",
        "event_total": 56,
        "has_played": true,
        "id": 37168983,
        "last_rank": 42152,
        "player_name": "Victor Kerezov",
        "rank": 43274,
        "rank_sort": 43329,
        "total": 2357
      },
      {
        "club_badge_src": null,
        "entry": 5407546,
        "entry_name": "Pyneapple Express",
        "event_total": 60,
        "has_played": true,
        "id": 42049207,
        "last_rank": 47722,
        "player_name": "Chris Pyne",
        "rank": 43274,
        "rank_sort": 43330,
        "total": 2357
      },
      {
        "club_badge_src": null,
        "entry": 5567806,
        "entry_name": "ARISTO",
        "event_total": 70,
        "has_played": true,
        "id": 43474557,
        "last_rank": 64422,
        "player_name": "Alexandar Ristic",
        "rank": 43274,
        "rank_sort": 43331,
        "total": 2357
      },
      {
        "club_badge_src": "https://fantasy.premierleague.com/gcs/plfpl-production-adobe-approved/plfpl-production/5582075/1e550368-f198-4b01-bc8c-2c907da1f826.png",
        "entry": 5582075,
        "entry_name": "L\u00e4myk\u00e4n Pallo",
        "event_total": 70,
        "has_played": true,
        "id": 43598597,
        "last_rank": 64422,
        "player_name": "Tommi Kukkola",
        "rank": 43274,
        "rank_sort": 43332,
        "total": 2357
      },
      {
        "club_badge_src": null,
        "entry": 6135458,
        "entry_name": "Beef Cherki",
        "event_total": 76,
        "has_played": true,
        "id": 48486350,
        "last_rank": 76474,
        "player_name": "Myles Boyd",
        "rank": 43274,
        "rank_sort": 43333,
        "total": 2357
      },
      {
        "club_badge_src": null,
        "entry": 6278039,
        "entry_name": "Garnacho Libre",
        "event_total": 57,
        "has_played": true,
        "id": 49718035,
        "last_rank": 38267,
        "player_name": "Eirik H. Andersen",
        "rank": 43274,
        "rank_sort": 43334,
        "total": 2357
      },
      {
        "club_badge_src": null,
        "entry": 6724356,
        "entry_name": "Salop 11",
        "event_total": 76,
        "has_played": true,
        "id": 53818759,
        "last_rank": 76474,
        "player_name": "Matthew Ballard",
        "rank": 43274,
        "rank_sort": 43335,
        "total": 2357
      },
      {
        "club_badge_src": null,
        "entry": 7143905,
        "entry_name": "Murdochians FC",
        "event_total": 68,
        "has_played": true,
        "id": 57592839,
        "last_rank": 47596,
        "player_name": "Alex Murdoch",
        "rank": 43274,
        "rank_sort": 43336,
        "total": 2357
      },
      {
        "club_badge_src": null,
        "entry": 7422561,
        "entry_name": "King",
        "event_total": 60,
        "has_played": true,
        "id": 60272213,
        "last_rank": 47812,
        "player_name": "Peter Yousef",
        "rank": 43274,
        "rank_sort": 43337,
        "total": 2357
      },
      {
        "club_badge_src": null,
        "entry": 8066543,
        "entry_name": "AverageCuler",
        "event_total": 65,
        "has_played": true,
        "id": 66489458,
        "last_rank": 49207,
        "player_name": "Aadi Ahuja",
        "rank": 43274,
        "rank_sort": 43338,
        "total": 2357
      },
      {
        "club_badge_src": null,
        "entry": 8257692,
        "entry_name": "Caulfield Utd",
        "event_total": 49,
        "has_played": true,
        "id": 68298320,
        "last_rank": 33582,
        "player_name": "Catherine Mackenzie",
        "rank": 43274,
        "rank_sort": 43339,
        "total": 2357
      },
      {
        "club_badge_src": null,
        "entry": 8563554,
        "entry_name": "SPEED",
        "event_total": 55,
        "has_played": true,
        "id": 71248866,
        "last_rank": 40770,
        "player_name": "\u0645\u062d\u0645\u062f \u0637\u0644\u0627\u0644",
        "rank": 43274,
        "rank_sort": 43340,
        "total": 2357
      },
      {
        "club_badge_src": null,
        "entry": 9008901,
        "entry_name": "Pau Patrol",
        "event_total": 77,
        "has_played": true,
        "id": 75566008,
        "last_rank": 62429,
        "player_name": "Kushal Vora",
        "rank": 43274,
        "rank_sort": 43341,
        "total": 2357
      },
      {
        "club_badge_src": null,
        "entry": 9445233,
        "entry_name": "Unsure",
        "event_total": 42,
        "has_played": true,
        "id": 79804293,
        "last_rank": 26475,
        "player_name": "Ben Calton",
        "rank": 43274,
        "rank_sort": 43342,
        "total": 2357
      },
      {
        "club_badge_src": null,
        "entry": 9462816,
        "entry_name": "Michael Bolton W",
        "event_total": 67,
        "has_played": true,
        "id": 79967038,
        "last_rank": 59170,
        "player_name": "Jonathan \u00c5str\u00f6m",
        "rank": 43274,
        "rank_sort": 43343,
        "total": 2357
      },
      {
        "club_badge_src": "https://fantasy.premierleague.com/gcs/plfpl-production-adobe-approved/plfpl-production/3676/2b49dc12-7ab0-49b5-8a03-23a545246c7e.png",
        "entry": 3676,
        "entry_name": "Tores r\u00e5ttor",
        "event_total": 69,
        "has_played": true,
        "id": 20845,
        "last_rank": 55747,
        "player_name": "William Johansson",
        "rank": 43344,
        "rank_sort": 43344,
        "total": 2357
      },
      {
        "club_badge_src": null,
        "entry": 11779,
        "entry_name": "3MO0or",
        "event_total": 65,
        "has_played": true,
        "id": 70179,
        "last_rank": 49301,
        "player_name": "\u00c3MR 27",
        "rank": 43344,
        "rank_sort": 43345,
        "total": 2357
      },
      {
        "club_badge_src": null,
        "entry": 27273,
        "entry_name": "Juventus \ufffd",
        "event_total": 64,
        "has_played": true,
        "id": 172388,
        "last_rank": 47812,
        "player_name": "Alfred Osei",
        "rank": 43344,
        "rank_sort": 43346,
        "total": 2357
      },
      {
        "club_badge_src": null,
        "entry": 33553,
        "entry_name": "Charlesberg FC",
        "event_total": 56,
        "has_played": true,
        "id": 214023,
        "last_rank": 37134,
        "player_name": "Charlie Maxfield",
        "rank": 43344,
        "rank_sort": 43347,
        "total": 2357
      },
      {
        "club_badge_src": "https://fantasy.premierleague.com/gcs/plfpl-production-adobe-approved/plfpl-production/61820/f2c42e67-289b-4adf-905e-859246654fa4.png",
        "entry": 61820,
        "entry_name": "9oo\u00a5\u20ac@\u00ae$",
        "event_total": 71,
        "has_played": true,
        "id": 398278,
        "last_rank": 66447,
        "player_name": "Roman Martynevych",
        "rank": 43344,
        "rank_sort": 43348,
        "total": 2357
      },
      {
        "club_badge_src": null,
        "entry": 249392,
        "entry_name": "Sandved Sharks",
        "event_total": 61,
        "has_played": true,
        "id": 1659639,
        "last_rank": 38016,
        "player_name": "Jarle Tveit",
        "rank": 43344,
        "rank_sort": 43349,
        "total": 2357
      },
      {
        "club_badge_src": null,
        "entry": 308948,
        "entry_name": "Widzew Boat",
        "event_total": 56,
        "has_played": true,
        "id": 2069420,
        "last_rank": 42152,
        "player_name": "Michal Greszko",
        "rank": 43344,
        "rank_sort": 43350,
        "total": 2357
      }
    ]
  }
}