{
  "last_updated_data": "2026-05-24T23:28:17Z",
  "league": {
    "admin_entry": null,
    "closed": false,
    "code_privacy": "p",
    "created": "2025-07-20T23:14:33.933835Z",
    "cup_league": 2815434,
    "has_cup": true,
    "id": 314,
    "league_type": "s",
    "max_entries": null,
    "name": "Overall",
    "rank": null,
    "scoring": "c",
    "start_event": 1
  },
  "new_entries": {
    "has_next": false,
    "page": 1,
    "results": []
  },
  "standings": {
    "has_next": true,
    "page": 450,
    "results": [
      {
        "club_badge_src": null,
        "entry": 2467622,
        "entry_name": "Switch to Attack",
        "event_total": 41,
        "has_played": true,
        "id": 17651856,
        "last_rank": 11901,
        "player_name": "Nigel Spokes",
        "rank": 22395,
        "rank_sort": 22451,
        "total": 2377
      },
      {
        "club_badge_src": null,
        "entry": 2495749,
        "entry_name": "Blue Mandem",
        "event_total": 66,
        "has_played": true,
        "id": 17868242,
        "last_rank": 29904,
        "player_name": "Benjamin Rae",
        "rank": 22395,
        "rank_sort": 22452,
        "total": 2377
      },
      {
        "club_badge_src": null,
        "entry": 3005602,
        "entry_name": "Stranger Mings",
        "event_total": 60,
        "has_played": true,
        "id": 22108623,
        "last_rank": 24475,
        "player_name": "Orlando Hudson",
        "rank": 22395,
        "rank_sort": 22453,
        "total": 2377
      },
      {
        "club_badge_src": "https://fantasy.premierleague.com/gcs/plfpl-production-adobe-approved/plfpl-production/3036946/18459b9d-44c1-41f7-b6a1-36512c4acc65.png",
        "entry": 3036946,
        "entry_name": "turki",
        "event_total": 71,
        "has_played": true,
        "id": 22351304,
        "last_rank": 35619,
        "player_name": "Turki Alhudaib",
        "rank": 22395,
        "rank_sort": 22454,
        "total": 2377
      },
      {
        "club_badge_src": null,
        "entry": 3277345,
        "entry_name": "Vigorously Tosin Off",
        "event_total": 53,
        "has_played": true,
        "id": 24256603,
        "last_rank": 16320,
        "player_name": "Tyler Boddington",
        "rank": 22395,
        "rank_sort": 22455,
        "total": 2377
      },
      {
        "club_badge_src": null,
        "entry": 3297320,
        "entry_name": "Caesar salah",
        "event_total": 42,
        "has_played": true,
        "id": 24418649,
        "last_rank": 12322,
        "player_name": "Sandy Ling",
        "rank": 22395,
        "rank_sort": 22456,
        "total": 2377
      },
      {
        "club_badge_src": "https://fantasy.premierleague.com/gcs/plfpl-production-adobe-approved/plfpl-production/3453723/6fff57ef-a2b4-49d3-bc75-aae2da233dcb.png",
        "entry": 3453723,
        "entry_name": "Cole not dole",
        "event_total": 65,
        "has_played": true,
        "id": 25667685,
        "last_rank": 29071,
        "player_name": "Blake May",
        "rank": 22395,
        "rank_sort": 22457,
        "total": 2377
      },
      {
        "club_badge_src": null,
        "entry": 3572192,
        "entry_name": "MONT FC",
        "event_total": 66,
        "has_played": true,
        "id": 26598967,
        "last_rank": 29904,
        "player_name": "Montaser Ebeid",
        "rank": 22395,
        "rank_sort": 22458,
        "total": 2377
      },
      {
        "club_badge_src": null,
        "entry": 3634652,
        "entry_name": "Falcos 11",
        "event_total": 62,
        "has_played": true,
        "id": 27085900,
        "last_rank": 26230,
        "player_name": "Josh Falco",
        "rank": 22395,
        "rank_sort": 22459,
        "total": 2377
      },
      {
        "club_badge_src": null,
        "entry": 3676579,
        "entry_name": "SEQUENCETV 2",
        "event_total": 67,
        "has_played": true,
        "id": 27421803,
        "last_rank": 30957,
        "player_name": "Chioma Obukwelu",
        "rank": 22395,
        "rank_sort": 22460,
        "total": 2377
      },
      {
        "club_badge_src": null,
        "entry": 3782625,
        "entry_name": "Dyslekksi",
        "event_total": 60,
        "has_played": true,
        "id": 28246221,
        "last_rank": 24039,
        "player_name": "Henning Valdemarsen",
        "rank": 22395,
        "rank_sort": 22461,
        "total": 2377
      },
      {
        "club_badge_src": null,
        "entry": 3850250,
        "entry_name": "Gucci Gang",
        "event_total": 55,
        "has_played": true,
        "id": 28861751,
        "last_rank": 14926,
        "player_name": "Michael Guvi",
        "rank": 22395,
        "rank_sort": 22462,
        "total": 2377
      },
      {
        "club_badge_src": null,
        "entry": 3851257,
        "entry_name": "Heung Min Gone",
        "event_total": 54,
        "has_played": true,
        "id": 28869784,
        "last_rank": 16959,
        "player_name": "David Barrett",
        "rank": 22395,
        "rank_sort": 22463,
        "total": 2377
      },
      {
        "club_badge_src": null,
        "entry": 3877460,
        "entry_name": "Machine Gun Funk",
        "event_total": 67,
        "has_played": true,
        "id": 29132994,
        "last_rank": 31125,
        "player_name": "Faizal Mindhola",
        "rank": 22395,
        "rank_sort": 22464,
        "total": 2377
      },
      {
        "club_badge_src": null,
        "entry": 3877735,
        "entry_name": "Secret Life of Pep",
        "event_total": 63,
        "has_played": true,
        "id": 29135190,
        "last_rank": 23522,
        "player_name": "Roy Anders Sunde Hal\u00e5s",
        "rank": 22395,
        "rank_sort": 22465,
        "total": 2377
      },
      {
        "club_badge_src": "https://fantasy.premierleague.com/gcs/plfpl-production-adobe-approved/plfpl-production/3949182/dee5c9a7-9abd-4d0b-a290-4d5e2d877653.png",
        "entry": 3949182,
        "entry_name": "A.Aziz.FC",
        "event_total": 62,
        "has_played": true,
        "id": 29709385,
        "last_rank": 26230,
        "player_name": "Abd El-Aziz Mohamed",
        "rank": 22395,
        "rank_sort": 22466,
        "total": 2377
      },
      {
        "club_badge_src": null,
        "entry": 3983695,
        "entry_name": "No More Mr Rice Kai",
        "event_total": 56,
        "has_played": true,
        "id": 29990379,
        "last_rank": 21392,
        "player_name": "Jim Stannard",
        "rank": 22395,
        "rank_sort": 22467,
        "total": 2377
      },
      {
        "club_badge_src": null,
        "entry": 4122156,
        "entry_name": "Touchdown Jets",
        "event_total": 47,
        "has_played": true,
        "id": 31142934,
        "last_rank": 15164,
        "player_name": "Paul Tkaczuk",
        "rank": 22395,
        "rank_sort": 22468,
        "total": 2377
      },
      {
        "club_badge_src": null,
        "entry": 4173141,
        "entry_name": "Me-Myself  Ndiaye",
        "event_total": 65,
        "has_played": true,
        "id": 31563288,
        "last_rank": 28906,
        "player_name": "Jamie Parker",
        "rank": 22395,
        "rank_sort": 22469,
        "total": 2377
      },
      {
        "club_badge_src": null,
        "entry": 4234497,
        "entry_name": "Amorimio",
        "event_total": 66,
        "has_played": true,
        "id": 32087046,
        "last_rank": 25776,
        "player_name": "V Loizou",
        "rank": 22395,
        "rank_sort": 22470,
        "total": 2377
      },
      {
        "club_badge_src": null,
        "entry": 4266973,
        "entry_name": "Wirtz888",
        "event_total": 60,
        "has_played": true,
        "id": 32355234,
        "last_rank": 24330,
        "player_name": "Tanin Damrongchokpipat",
        "rank": 22395,
        "rank_sort": 22471,
        "total": 2377
      },
      {
        "club_badge_src": "https://fantasy.premierleague.com/gcs/plfpl-production-adobe-approved/plfpl-production/4377042/85e05c5c-1cce-4251-ba25-727bb5cc2c17.png",
        "entry": 4377042,
        "entry_name": "FPL_Killmonger",
        "event_total": 73,
        "has_played": true,
        "id": 33259253,
        "last_rank": 28726,
        "player_name": "surat khumeng",
        "rank": 22395,
        "rank_sort": 22472,
        "total": 2377
      },
      {
        "club_badge_src": null,
        "entry": 4477556,
        "entry_name": "Ihatepickingnames",
        "event_total": 62,
        "has_played": true,
        "id": 34123594,
        "last_rank": 26230,
        "player_name": "Seth K",
        "rank": 22395,
        "rank_sort": 22473,
        "total": 2377
      },
      {
        "club_badge_src": null,
        "entry": 4738024,
        "entry_name": "Restored",
        "event_total": 62,
        "has_played": true,
        "id": 36454284,
        "last_rank": 26345,
        "player_name": "Rans Fordinho",
        "rank": 22395,
        "rank_sort": 22474,
        "total": 2377
      },
      {
        "club_badge_src": null,
        "entry": 4911399,
        "entry_name": "Calafiaura",
        "event_total": 62,
        "has_played": true,
        "id": 37875920,
        "last_rank": 22685,
        "player_name": "Johan Sandberg",
        "rank": 22395,
        "rank_sort": 22475,
        "total": 2377
      },
      {
        "club_badge_src": null,
        "entry": 5056328,
        "entry_name": "S\u00f8borg Wednesday",
        "event_total": 52,
        "has_played": true,
        "id": 39069257,
        "last_rank": 18377,
        "player_name": "Steve Harwood",
        "rank": 22395,
        "rank_sort": 22476,
        "total": 2377
      },
      {
        "club_badge_src": null,
        "entry": 5104053,
        "entry_name": "The Miracle Men",
        "event_total": 58,
        "has_played": true,
        "id": 39453153,
        "last_rank": 22830,
        "player_name": "sam roffey",
        "rank": 22395,
        "rank_sort": 22477,
        "total": 2377
      },
      {
        "club_badge_src": null,
        "entry": 5141133,
        "entry_name": "1st Earl of Pembroke",
        "event_total": 64,
        "has_played": true,
        "id": 39769939,
        "last_rank": 27976,
        "player_name": "Nick Doll",
        "rank": 22395,
        "rank_sort": 22478,
        "total": 2377
      },
      {
        "club_badge_src": null,
        "entry": 5145580,
        "entry_name": "Amoright or Amorang?",
        "event_total": 57,
        "has_played": true,
        "id": 39806631,
        "last_rank": 22064,
        "player_name": "Jeff Morrison",
        "rank": 22395,
        "rank_sort": 22479,
        "total": 2377
      },
      {
        "club_badge_src": null,
        "entry": 5415727,
        "entry_name": "B07",
        "event_total": 52,
        "has_played": true,
        "id": 42117904,
        "last_rank": 18377,
        "player_name": "Turki Almadi",
        "rank": 22395,
        "rank_sort": 22480,
        "total": 2377
      },
      {
        "club_badge_src": null,
        "entry": 5816078,
        "entry_name": "Neville wears prada",
        "event_total": 70,
        "has_played": true,
        "id": 45638397,
        "last_rank": 34293,
        "player_name": "Lewis Drewett",
        "rank": 22395,
        "rank_sort": 22481,
        "total": 2377
      },
      {
        "club_badge_src": null,
        "entry": 6002552,
        "entry_name": "John Jameson",
        "event_total": 58,
        "has_played": true,
        "id": 47321034,
        "last_rank": 19721,
        "player_name": "Pavle Dabovic",
        "rank": 22395,
        "rank_sort": 22482,
        "total": 2377
      },
      {
        "club_badge_src": null,
        "entry": 6368387,
        "entry_name": "Kevin Danso Gwerin",
        "event_total": 44,
        "has_played": true,
        "id": 50640248,
        "last_rank": 13500,
        "player_name": "Ynyr James",
        "rank": 22395,
        "rank_sort": 22483,
        "total": 2377
      },
      {
        "club_badge_src": null,
        "entry": 6535408,
        "entry_name": "Peter's Troops",
        "event_total": 63,
        "has_played": true,
        "id": 52136905,
        "last_rank": 27020,
        "player_name": "Peter Matlala",
        "rank": 22395,
        "rank_sort": 22484,
        "total": 2377
      },
      {
        "club_badge_src": null,
        "entry": 6575183,
        "entry_name": "Price mild",
        "event_total": 39,
        "has_played": true,
        "id": 52496122,
        "last_rank": 11034,
        "player_name": "Sivert H\u00f8yum",
        "rank": 22395,
        "rank_sort": 22485,
        "total": 2377
      },
      {
        "club_badge_src": null,
        "entry": 6690850,
        "entry_name": "SADI HEROES",
        "event_total": 73,
        "has_played": true,
        "id": 53528508,
        "last_rank": 32879,
        "player_name": "SADI BALLOOR",
        "rank": 22395,
        "rank_sort": 22486,
        "total": 2377
      },
      {
        "club_badge_src": null,
        "entry": 6886972,
        "entry_name": "Barclaysmen",
        "event_total": 41,
        "has_played": true,
        "id": 55195002,
        "last_rank": 11957,
        "player_name": "Hensley Blenman",
        "rank": 22395,
        "rank_sort": 22487,
        "total": 2377
      },
      {
        "club_badge_src": null,
        "entry": 7004362,
        "entry_name": "Oliverpool",
        "event_total": 54,
        "has_played": true,
        "id": 56243569,
        "last_rank": 19835,
        "player_name": "Emil Oliver",
        "rank": 22395,
        "rank_sort": 22488,
        "total": 2377
      },
      {
        "club_badge_src": null,
        "entry": 7070695,
        "entry_name": "ColdBridge FC",
        "event_total": 61,
        "has_played": true,
        "id": 56895806,
        "last_rank": 18691,
        "player_name": "Behrad Taadoli",
        "rank": 22395,
        "rank_sort": 22489,
        "total": 2377
      },
      {
        "club_badge_src": null,
        "entry": 7268789,
        "entry_name": "Nah Gu",
        "event_total": 74,
        "has_played": true,
        "id": 58781901,
        "last_rank": 39023,
        "player_name": "Alex Lee",
        "rank": 22395,
        "rank_sort": 22490,
        "total": 2377
      },
      {
        "club_badge_src": "https://fantasy.premierleague.com/gcs/plfpl-production-adobe-approved/plfpl-production/7349410/c28213e3-e057-4727-bc67-419d14fcacc9.png",
        "entry": 7349410,
        "entry_name": "ChampionsOfEurope",
        "event_total": 63,
        "has_played": true,
        "id": 59539898,
        "last_rank": 23522,
        "player_name": "Soma Horv\u00e1th",
        "rank": 22395,
        "rank_sort": 22491,
        "total": 2377
      },
      {
        "club_badge_src": null,
        "entry": 7428516,
        "entry_name": "Durga prasai fc",
        "event_total": 70,
        "has_played": true,
        "id": 60350721,
        "last_rank": 34458,
        "player_name": "sandesh prasai",
        "rank": 22395,
        "rank_sort": 22492,
        "total": 2377
      },
      {
        "club_badge_src": null,
        "entry": 7440481,
        "entry_name": "Kodai kaalam",
        "event_total": 62,
        "has_played": true,
        "id": 60509362,
        "last_rank": 22685,
        "player_name": "Dominic Pappaly",
        "rank": 22395,
        "rank_sort": 22493,
        "total": 2377
      },
      {
        "club_badge_src": null,
        "entry": 7500123,
        "entry_name": "2 for joy FC",
        "event_total": 45,
        "has_played": true,
        "id": 61280060,
        "last_rank": 14040,
        "player_name": "Sam Wright",
        "rank": 22395,
        "rank_sort": 22494,
        "total": 2377
      },
      {
        "club_badge_src": null,
        "entry": 8603395,
        "entry_name": "Luffy fc",
        "event_total": 75,
        "has_played": true,
        "id": 71630558,
        "last_rank": 40297,
        "player_name": "el sayed Elbalasy",
        "rank": 22395,
        "rank_sort": 22495,
        "total": 2377
      },
      {
        "club_badge_src": null,
        "entry": 3161,
        "entry_name": "ctrl+alt+de ligt",
        "event_total": 60,
        "has_played": true,
        "id": 17841,
        "last_rank": 24570,
        "player_name": "Kai Symon",
        "rank": 22496,
        "rank_sort": 22496,
        "total": 2377
      },
      {
        "club_badge_src": "https://fantasy.premierleague.com/gcs/plfpl-production-adobe-approved/plfpl-production/3895/2e3d4ebe-a236-44fd-9008-e928af38957d.png",
        "entry": 3895,
        "entry_name": "Pedro N Etoo",
        "event_total": 64,
        "has_played": true,
        "id": 22102,
        "last_rank": 24330,
        "player_name": "Aryan Malhotra",
        "rank": 22496,
        "rank_sort": 22497,
        "total": 2377
      },
      {
        "club_badge_src": null,
        "entry": 10306,
        "entry_name": "Crash Corrigans",
        "event_total": 77,
        "has_played": true,
        "id": 60899,
        "last_rank": 37589,
        "player_name": "Morgan Marshall",
        "rank": 22496,
        "rank_sort": 22498,
        "total": 2377
      },
      {
        "club_badge_src": "https://fantasy.premierleague.com/gcs/plfpl-production-adobe-approved/plfpl-production/12038/4c1d0953-58c2-4752-8d76-0a6f66bb9785.png",
        "entry": 12038,
        "entry_name": "Lets all go to \u0160e\u0161ko",
        "event_total": 71,
        "has_played": true,
        "id": 71823,
        "last_rank": 35619,
        "player_name": "Don Carson",
        "rank": 22496,
        "rank_sort": 22499,
        "total": 2377
      },
      {
        "club_badge_src": null,
        "entry": 13353,
        "entry_name": "Mbuemo No.5 FC",
        "event_total": 56,
        "has_played": true,
        "id": 80610,
        "last_rank": 21392,
        "player_name": "Dino Ferreirinha",
        "rank": 22496,
        "rank_sort": 22500,
        "total": 2377
      }
    ]
  }
}