{
  "last_updated_data": "2026-05-24T23:28:17Z",
  "league": {
    "admin_entry": null,
    "closed": false,
    "code_privacy": "p",
    "created": "2025-07-20T23:14:33.933835Z",
    "cup_league": 2815434,
    "has_cup": true,
    "id": 314,
    "league_type": "s",
    "max_entries": null,
    "name": "Overall",
    "rank": null,
    "scoring": "c",
    "start_event": 1
  },
  "new_entries": {
    "has_next": false,
    "page": 1,
    "results": []
  },
  "standings": {
    "has_next": true,
    "page": 1292,
    "results": [
      {
        "club_badge_src": null,
        "entry": 38703,
        "entry_name": "ForeverOurNumber20\u26bd\ufe0f",
        "event_total": 66,
        "has_played": true,
        "id": 248129,
        "last_rank": 84360,
        "player_name": "Sofoklis Peratikos",
        "rank": 64538,
        "rank_sort": 64551,
        "total": 2343
      },
      {
        "club_badge_src": null,
        "entry": 51888,
        "entry_name": "Champions XI",
        "event_total": 48,
        "has_played": true,
        "id": 333702,
        "last_rank": 49880,
        "player_name": "Raghav Bagai",
        "rank": 64538,
        "rank_sort": 64552,
        "total": 2343
      },
      {
        "club_badge_src": null,
        "entry": 51894,
        "entry_name": "Gamer's Team",
        "event_total": 60,
        "has_played": true,
        "id": 333745,
        "last_rank": 71386,
        "player_name": "Muhammed mirza Ali",
        "rank": 64538,
        "rank_sort": 64553,
        "total": 2343
      },
      {
        "club_badge_src": "https://fantasy.premierleague.com/gcs/plfpl-production-adobe-approved/plfpl-production/57055/264c258e-46be-45e4-a0a9-1f4e5047ff2e.png",
        "entry": 57055,
        "entry_name": "Saving Private Rayan",
        "event_total": 57,
        "has_played": true,
        "id": 367515,
        "last_rank": 65796,
        "player_name": "Caleb Still",
        "rank": 64538,
        "rank_sort": 64554,
        "total": 2343
      },
      {
        "club_badge_src": null,
        "entry": 57106,
        "entry_name": "Torr i halsen",
        "event_total": 67,
        "has_played": true,
        "id": 367836,
        "last_rank": 77050,
        "player_name": "Oliver Hillgren",
        "rank": 64538,
        "rank_sort": 64555,
        "total": 2343
      },
      {
        "club_badge_src": null,
        "entry": 58169,
        "entry_name": "Lallana's in Pyjamas",
        "event_total": 50,
        "has_played": true,
        "id": 374720,
        "last_rank": 53023,
        "player_name": "Craig Glassford",
        "rank": 64538,
        "rank_sort": 64556,
        "total": 2343
      },
      {
        "club_badge_src": null,
        "entry": 59294,
        "entry_name": "PH Pang",
        "event_total": 66,
        "has_played": true,
        "id": 381880,
        "last_rank": 84360,
        "player_name": "PH Pang",
        "rank": 64538,
        "rank_sort": 64557,
        "total": 2343
      },
      {
        "club_badge_src": null,
        "entry": 59317,
        "entry_name": "hndsm",
        "event_total": 74,
        "has_played": true,
        "id": 382030,
        "last_rank": 103978,
        "player_name": "Oleksii Lavrov",
        "rank": 64538,
        "rank_sort": 64558,
        "total": 2343
      },
      {
        "club_badge_src": null,
        "entry": 63651,
        "entry_name": "MinusFourFourTwo",
        "event_total": 64,
        "has_played": true,
        "id": 410738,
        "last_rank": 79817,
        "player_name": "James Brady",
        "rank": 64538,
        "rank_sort": 64559,
        "total": 2343
      },
      {
        "club_badge_src": null,
        "entry": 66844,
        "entry_name": "Hull City Rollers",
        "event_total": 59,
        "has_played": true,
        "id": 432479,
        "last_rank": 68957,
        "player_name": "David Fugill",
        "rank": 64538,
        "rank_sort": 64560,
        "total": 2343
      },
      {
        "club_badge_src": null,
        "entry": 75788,
        "entry_name": "I\u2019m a Baleba",
        "event_total": 46,
        "has_played": true,
        "id": 492762,
        "last_rank": 41324,
        "player_name": "Daniel Griffin",
        "rank": 64538,
        "rank_sort": 64561,
        "total": 2343
      },
      {
        "club_badge_src": null,
        "entry": 80281,
        "entry_name": "Abdulaziz",
        "event_total": 53,
        "has_played": true,
        "id": 522357,
        "last_rank": 58388,
        "player_name": "Abdulaziz -",
        "rank": 64538,
        "rank_sort": 64562,
        "total": 2343
      },
      {
        "club_badge_src": null,
        "entry": 82794,
        "entry_name": "Backstreet Moyes",
        "event_total": 50,
        "has_played": true,
        "id": 538808,
        "last_rank": 53621,
        "player_name": "Marcus Galanti",
        "rank": 64538,
        "rank_sort": 64563,
        "total": 2343
      },
      {
        "club_badge_src": null,
        "entry": 88309,
        "entry_name": "Mo Salman 20",
        "event_total": 36,
        "has_played": true,
        "id": 576239,
        "last_rank": 34458,
        "player_name": "Mostafa Salman",
        "rank": 64538,
        "rank_sort": 64564,
        "total": 2343
      },
      {
        "club_badge_src": null,
        "entry": 89929,
        "entry_name": "Franchester United",
        "event_total": 67,
        "has_played": true,
        "id": 587047,
        "last_rank": 86735,
        "player_name": "Francesca Brunning",
        "rank": 64538,
        "rank_sort": 64565,
        "total": 2343
      },
      {
        "club_badge_src": "https://fantasy.premierleague.com/gcs/plfpl-production-adobe-approved/plfpl-production/94595/23f482db-6bf7-45ed-a6bb-8755170e36c6.png",
        "entry": 94595,
        "entry_name": "De Bankzitters",
        "event_total": 67,
        "has_played": true,
        "id": 618111,
        "last_rank": 86054,
        "player_name": "Bert Lauwers",
        "rank": 64538,
        "rank_sort": 64566,
        "total": 2343
      },
      {
        "club_badge_src": null,
        "entry": 94977,
        "entry_name": "Cool Hand Lucas",
        "event_total": 60,
        "has_played": true,
        "id": 620636,
        "last_rank": 63201,
        "player_name": "David Fairchild",
        "rank": 64538,
        "rank_sort": 64567,
        "total": 2343
      },
      {
        "club_badge_src": null,
        "entry": 97449,
        "entry_name": "Too easy mate!",
        "event_total": 50,
        "has_played": true,
        "id": 636453,
        "last_rank": 53345,
        "player_name": "Anup Poudel",
        "rank": 64538,
        "rank_sort": 64568,
        "total": 2343
      },
      {
        "club_badge_src": "https://fantasy.premierleague.com/gcs/plfpl-production-adobe-approved/plfpl-production/97819/50fc3e7a-3083-4860-81ac-9da33f3c0f1d.png",
        "entry": 97819,
        "entry_name": "shiny crystal",
        "event_total": 63,
        "has_played": true,
        "id": 638856,
        "last_rank": 77676,
        "player_name": "pika yellow",
        "rank": 64538,
        "rank_sort": 64569,
        "total": 2343
      },
      {
        "club_badge_src": null,
        "entry": 102295,
        "entry_name": "Revenge of the \u0160e\u0161ko",
        "event_total": 70,
        "has_played": true,
        "id": 667432,
        "last_rank": 83934,
        "player_name": "Alex Hennings",
        "rank": 64538,
        "rank_sort": 64570,
        "total": 2343
      },
      {
        "club_badge_src": "https://fantasy.premierleague.com/gcs/plfpl-production-adobe-approved/plfpl-production/110116/81b11426-f519-4806-8c37-aee782e74a6b.png",
        "entry": 110116,
        "entry_name": "WNWA",
        "event_total": 44,
        "has_played": true,
        "id": 718106,
        "last_rank": 44525,
        "player_name": "Islem Med. 31",
        "rank": 64538,
        "rank_sort": 64571,
        "total": 2343
      },
      {
        "club_badge_src": null,
        "entry": 113498,
        "entry_name": "Lost For Wirtz",
        "event_total": 47,
        "has_played": true,
        "id": 740229,
        "last_rank": 48642,
        "player_name": "Alex Stratford",
        "rank": 64538,
        "rank_sort": 64572,
        "total": 2343
      },
      {
        "club_badge_src": null,
        "entry": 121906,
        "entry_name": "Keanos dobbar",
        "event_total": 54,
        "has_played": true,
        "id": 795352,
        "last_rank": 60462,
        "player_name": "Anton Frisk",
        "rank": 64538,
        "rank_sort": 64573,
        "total": 2343
      },
      {
        "club_badge_src": null,
        "entry": 128757,
        "entry_name": "FC Ribakis",
        "event_total": 78,
        "has_played": true,
        "id": 839271,
        "last_rank": 115057,
        "player_name": "Borna Ribi\u0107",
        "rank": 64538,
        "rank_sort": 64574,
        "total": 2343
      },
      {
        "club_badge_src": null,
        "entry": 130129,
        "entry_name": "Walking Dead City FC",
        "event_total": 60,
        "has_played": true,
        "id": 847983,
        "last_rank": 70985,
        "player_name": "Shaun Riley",
        "rank": 64538,
        "rank_sort": 64575,
        "total": 2343
      },
      {
        "club_badge_src": null,
        "entry": 148316,
        "entry_name": "Change Name",
        "event_total": 56,
        "has_played": true,
        "id": 972169,
        "last_rank": 63724,
        "player_name": "Jake Langlois",
        "rank": 64538,
        "rank_sort": 64576,
        "total": 2343
      },
      {
        "club_badge_src": null,
        "entry": 151450,
        "entry_name": "Lord MarkSquaad",
        "event_total": 62,
        "has_played": true,
        "id": 993621,
        "last_rank": 67063,
        "player_name": "Mark Smith",
        "rank": 64538,
        "rank_sort": 64577,
        "total": 2343
      },
      {
        "club_badge_src": null,
        "entry": 157237,
        "entry_name": "Hannam's XI",
        "event_total": 66,
        "has_played": true,
        "id": 1034323,
        "last_rank": 84360,
        "player_name": "Mark Hannam",
        "rank": 64538,
        "rank_sort": 64578,
        "total": 2343
      },
      {
        "club_badge_src": null,
        "entry": 161504,
        "entry_name": "McGinn & Juice",
        "event_total": 67,
        "has_played": true,
        "id": 1064089,
        "last_rank": 77050,
        "player_name": "Michael Henderson",
        "rank": 64538,
        "rank_sort": 64579,
        "total": 2343
      },
      {
        "club_badge_src": null,
        "entry": 163736,
        "entry_name": "TrustTheProcess FC",
        "event_total": 47,
        "has_played": true,
        "id": 1080144,
        "last_rank": 48642,
        "player_name": "Josef Rusiecki",
        "rank": 64538,
        "rank_sort": 64580,
        "total": 2343
      },
      {
        "club_badge_src": null,
        "entry": 167026,
        "entry_name": "Football Friends",
        "event_total": 54,
        "has_played": true,
        "id": 1103881,
        "last_rank": 59813,
        "player_name": "Louis Wakelin",
        "rank": 64538,
        "rank_sort": 64581,
        "total": 2343
      },
      {
        "club_badge_src": null,
        "entry": 181945,
        "entry_name": "Yoro Wissa Harry",
        "event_total": 69,
        "has_played": true,
        "id": 1200657,
        "last_rank": 91006,
        "player_name": "Eyal Hermoni",
        "rank": 64538,
        "rank_sort": 64582,
        "total": 2343
      },
      {
        "club_badge_src": null,
        "entry": 182613,
        "entry_name": "James Band",
        "event_total": 64,
        "has_played": true,
        "id": 1205160,
        "last_rank": 79431,
        "player_name": "Johan M\u00e5rf\u00e4lt",
        "rank": 64538,
        "rank_sort": 64583,
        "total": 2343
      },
      {
        "club_badge_src": null,
        "entry": 189729,
        "entry_name": "TEAM \u9ca8\u9c7cTRiangle",
        "event_total": 60,
        "has_played": true,
        "id": 1255978,
        "last_rank": 63390,
        "player_name": "JUST FOR FUN",
        "rank": 64538,
        "rank_sort": 64584,
        "total": 2343
      },
      {
        "club_badge_src": null,
        "entry": 191256,
        "entry_name": "roBERTo carlos",
        "event_total": 57,
        "has_played": true,
        "id": 1266720,
        "last_rank": 65475,
        "player_name": "Sam George",
        "rank": 64538,
        "rank_sort": 64585,
        "total": 2343
      },
      {
        "club_badge_src": null,
        "entry": 193264,
        "entry_name": "Gua_Queen12",
        "event_total": 63,
        "has_played": true,
        "id": 1280931,
        "last_rank": 77676,
        "player_name": "Angel Arteaga",
        "rank": 64538,
        "rank_sort": 64586,
        "total": 2343
      },
      {
        "club_badge_src": null,
        "entry": 195700,
        "entry_name": "Bruno Marsch",
        "event_total": 53,
        "has_played": true,
        "id": 1297875,
        "last_rank": 58388,
        "player_name": "Joachim Sm\u00f8rdal",
        "rank": 64538,
        "rank_sort": 64587,
        "total": 2343
      },
      {
        "club_badge_src": null,
        "entry": 196294,
        "entry_name": "nufc89",
        "event_total": 49,
        "has_played": true,
        "id": 1302033,
        "last_rank": 51720,
        "player_name": "Neil Debbage",
        "rank": 64538,
        "rank_sort": 64588,
        "total": 2343
      },
      {
        "club_badge_src": null,
        "entry": 199708,
        "entry_name": "1. plass",
        "event_total": 60,
        "has_played": true,
        "id": 1325480,
        "last_rank": 71386,
        "player_name": "Philip Solberg",
        "rank": 64538,
        "rank_sort": 64589,
        "total": 2343
      },
      {
        "club_badge_src": "https://fantasy.premierleague.com/gcs/plfpl-production-adobe-approved/plfpl-production/223845/7634e7b6-ad21-4f70-a5b9-ae7b53e79c39.png",
        "entry": 223845,
        "entry_name": "Bagres",
        "event_total": 43,
        "has_played": true,
        "id": 1489014,
        "last_rank": 42940,
        "player_name": "Harry Smythe",
        "rank": 64538,
        "rank_sort": 64590,
        "total": 2343
      },
      {
        "club_badge_src": null,
        "entry": 228097,
        "entry_name": "Wireless Rutter",
        "event_total": 48,
        "has_played": true,
        "id": 1517267,
        "last_rank": 50199,
        "player_name": "Kyle Nelson",
        "rank": 64538,
        "rank_sort": 64591,
        "total": 2343
      },
      {
        "club_badge_src": null,
        "entry": 232750,
        "entry_name": "ZoumaFC",
        "event_total": 65,
        "has_played": true,
        "id": 1548620,
        "last_rank": 82069,
        "player_name": "Hussam bin Palmer",
        "rank": 64538,
        "rank_sort": 64592,
        "total": 2343
      },
      {
        "club_badge_src": "https://fantasy.premierleague.com/gcs/plfpl-production-adobe-approved/plfpl-production/232811/c97416af-c64d-4d42-9a50-eb7bcfb4a5c5.png",
        "entry": 232811,
        "entry_name": "Li5\u20194ndro Martinez",
        "event_total": 59,
        "has_played": true,
        "id": 1549018,
        "last_rank": 69323,
        "player_name": "Aaron Magee",
        "rank": 64538,
        "rank_sort": 64593,
        "total": 2343
      },
      {
        "club_badge_src": "https://fantasy.premierleague.com/gcs/plfpl-production-adobe-approved/plfpl-production/251442/b616f595-2101-4695-a7e8-1f5788fa138a.png",
        "entry": 251442,
        "entry_name": "The Squad",
        "event_total": 63,
        "has_played": true,
        "id": 1672766,
        "last_rank": 77676,
        "player_name": "Ethan Donaldson",
        "rank": 64538,
        "rank_sort": 64594,
        "total": 2343
      },
      {
        "club_badge_src": null,
        "entry": 273826,
        "entry_name": "Noob",
        "event_total": 43,
        "has_played": true,
        "id": 1822075,
        "last_rank": 42940,
        "player_name": "Mittal Padia",
        "rank": 64538,
        "rank_sort": 64595,
        "total": 2343
      },
      {
        "club_badge_src": null,
        "entry": 279997,
        "entry_name": "Super Spurs",
        "event_total": 61,
        "has_played": true,
        "id": 1863470,
        "last_rank": 73038,
        "player_name": "James Stanton",
        "rank": 64538,
        "rank_sort": 64596,
        "total": 2343
      },
      {
        "club_badge_src": null,
        "entry": 281264,
        "entry_name": "Rocafella",
        "event_total": 82,
        "has_played": true,
        "id": 1871649,
        "last_rank": 126408,
        "player_name": "Napster Mothiba",
        "rank": 64538,
        "rank_sort": 64597,
        "total": 2343
      },
      {
        "club_badge_src": null,
        "entry": 283773,
        "entry_name": "Stranger Mings",
        "event_total": 61,
        "has_played": true,
        "id": 1889320,
        "last_rank": 64943,
        "player_name": "Sebastian Sarmiento",
        "rank": 64538,
        "rank_sort": 64598,
        "total": 2343
      },
      {
        "club_badge_src": null,
        "entry": 310045,
        "entry_name": "Classic XI",
        "event_total": 36,
        "has_played": true,
        "id": 2076867,
        "last_rank": 34293,
        "player_name": "Sam Byrne",
        "rank": 64538,
        "rank_sort": 64599,
        "total": 2343
      },
      {
        "club_badge_src": null,
        "entry": 316443,
        "entry_name": "Kalles Kiwior",
        "event_total": 66,
        "has_played": true,
        "id": 2120960,
        "last_rank": 84360,
        "player_name": "Simon Eek",
        "rank": 64538,
        "rank_sort": 64600,
        "total": 2343
      }
    ]
  }
}