{
  "last_updated_data": "2026-05-24T23:28:17Z",
  "league": {
    "admin_entry": null,
    "closed": false,
    "code_privacy": "p",
    "created": "2025-07-20T23:14:33.933835Z",
    "cup_league": 2815434,
    "has_cup": true,
    "id": 314,
    "league_type": "s",
    "max_entries": null,
    "name": "Overall",
    "rank": null,
    "scoring": "c",
    "start_event": 1
  },
  "new_entries": {
    "has_next": false,
    "page": 1,
    "results": []
  },
  "standings": {
    "has_next": true,
    "page": 1666,
    "results": [
      {
        "club_badge_src": null,
        "entry": 183989,
        "entry_name": "FC Byki",
        "event_total": 41,
        "has_played": true,
        "id": 1214792,
        "last_rank": 47596,
        "player_name": "Piotr Pyrdo\u0142",
        "rank": 83231,
        "rank_sort": 83251,
        "total": 2334
      },
      {
        "club_badge_src": "https://fantasy.premierleague.com/gcs/plfpl-production-adobe-approved/plfpl-production/185378/f5d50076-3a85-4c7b-99d2-5a168eb85521.png",
        "entry": 185378,
        "entry_name": "Tensai",
        "event_total": 67,
        "has_played": true,
        "id": 1224526,
        "last_rank": 99596,
        "player_name": "Hussen Alhashmi",
        "rank": 83231,
        "rank_sort": 83252,
        "total": 2334
      },
      {
        "club_badge_src": null,
        "entry": 191754,
        "entry_name": "Saka Potatoes",
        "event_total": 66,
        "has_played": true,
        "id": 1270209,
        "last_rank": 96777,
        "player_name": "Kieren Khatri",
        "rank": 83231,
        "rank_sort": 83253,
        "total": 2334
      },
      {
        "club_badge_src": null,
        "entry": 213407,
        "entry_name": "Wirtz Nightmare",
        "event_total": 49,
        "has_played": true,
        "id": 1419632,
        "last_rank": 68107,
        "player_name": "Ethan Scarratt",
        "rank": 83231,
        "rank_sort": 83254,
        "total": 2334
      },
      {
        "club_badge_src": null,
        "entry": 234470,
        "entry_name": "Could Be Wirtz",
        "event_total": 67,
        "has_played": true,
        "id": 1560194,
        "last_rank": 110187,
        "player_name": "Shay Patel",
        "rank": 83231,
        "rank_sort": 83255,
        "total": 2334
      },
      {
        "club_badge_src": null,
        "entry": 243609,
        "entry_name": "Famous Last Wirtz",
        "event_total": 66,
        "has_played": true,
        "id": 1622109,
        "last_rank": 107702,
        "player_name": "Petter Pham",
        "rank": 83231,
        "rank_sort": 83256,
        "total": 2334
      },
      {
        "club_badge_src": "https://fantasy.premierleague.com/gcs/plfpl-production-adobe-approved/plfpl-production/265188/f40009c8-f351-436c-bb0d-4deec2b7d99a.png",
        "entry": 265188,
        "entry_name": "Gentlemen of Leisure",
        "event_total": 50,
        "has_played": true,
        "id": 1763740,
        "last_rank": 70072,
        "player_name": "Ingmar Kiang",
        "rank": 83231,
        "rank_sort": 83257,
        "total": 2334
      },
      {
        "club_badge_src": null,
        "entry": 274220,
        "entry_name": "Gus' Grizzlies",
        "event_total": 62,
        "has_played": true,
        "id": 1824724,
        "last_rank": 87350,
        "player_name": "Callum Beach",
        "rank": 83231,
        "rank_sort": 83258,
        "total": 2334
      },
      {
        "club_badge_src": null,
        "entry": 276497,
        "entry_name": "The Lost Boys",
        "event_total": 76,
        "has_played": true,
        "id": 1840242,
        "last_rank": 123908,
        "player_name": "Tristan Collard",
        "rank": 83231,
        "rank_sort": 83259,
        "total": 2334
      },
      {
        "club_badge_src": "https://fantasy.premierleague.com/gcs/plfpl-production-adobe-approved/plfpl-production/280099/341d26b6-1548-499f-bae0-4f5380755873.png",
        "entry": 280099,
        "entry_name": "Pique Blinders",
        "event_total": 70,
        "has_played": true,
        "id": 1864142,
        "last_rank": 107162,
        "player_name": "Dominic Mitton",
        "rank": 83231,
        "rank_sort": 83260,
        "total": 2334
      },
      {
        "club_badge_src": "https://fantasy.premierleague.com/gcs/plfpl-production-adobe-approved/plfpl-production/281863/fd6730d7-9e13-47e7-9875-9bcaf6cba810.png",
        "entry": 281863,
        "entry_name": "Abover Average",
        "event_total": 67,
        "has_played": true,
        "id": 1875907,
        "last_rank": 110416,
        "player_name": "Kieran Meighan",
        "rank": 83231,
        "rank_sort": 83261,
        "total": 2334
      },
      {
        "club_badge_src": null,
        "entry": 298671,
        "entry_name": "Ilpon nakit",
        "event_total": 52,
        "has_played": true,
        "id": 1996968,
        "last_rank": 73975,
        "player_name": "ilja teerikorpi",
        "rank": 83231,
        "rank_sort": 83262,
        "total": 2334
      },
      {
        "club_badge_src": null,
        "entry": 306296,
        "entry_name": "No skill just luck",
        "event_total": 74,
        "has_played": true,
        "id": 2051267,
        "last_rank": 106763,
        "player_name": "Daniel Ross",
        "rank": 83231,
        "rank_sort": 83263,
        "total": 2334
      },
      {
        "club_badge_src": null,
        "entry": 343725,
        "entry_name": "Udogie S t y l e",
        "event_total": 42,
        "has_played": true,
        "id": 2300380,
        "last_rank": 55659,
        "player_name": "James Gillard",
        "rank": 83231,
        "rank_sort": 83264,
        "total": 2334
      },
      {
        "club_badge_src": "https://fantasy.premierleague.com/gcs/plfpl-production-adobe-approved/plfpl-production/357994/10790997-a804-4eda-8a1c-dcc13a34e52d.png",
        "entry": 357994,
        "entry_name": "DonJuanPabs",
        "event_total": 57,
        "has_played": true,
        "id": 2395684,
        "last_rank": 84731,
        "player_name": "John S",
        "rank": 83231,
        "rank_sort": 83265,
        "total": 2334
      },
      {
        "club_badge_src": null,
        "entry": 369335,
        "entry_name": "Glows XI",
        "event_total": 32,
        "has_played": true,
        "id": 2471427,
        "last_rank": 40647,
        "player_name": "Grant Low",
        "rank": 83231,
        "rank_sort": 83266,
        "total": 2334
      },
      {
        "club_badge_src": null,
        "entry": 384927,
        "entry_name": "Tanum pwnage",
        "event_total": 56,
        "has_played": true,
        "id": 2581880,
        "last_rank": 73975,
        "player_name": "Fredrik Tanum",
        "rank": 83231,
        "rank_sort": 83267,
        "total": 2334
      },
      {
        "club_badge_src": null,
        "entry": 385053,
        "entry_name": "Enai Degery",
        "event_total": 52,
        "has_played": true,
        "id": 2582751,
        "last_rank": 66057,
        "player_name": "Erik Deger",
        "rank": 83231,
        "rank_sort": 83268,
        "total": 2334
      },
      {
        "club_badge_src": null,
        "entry": 399363,
        "entry_name": "A.S.A 2026",
        "event_total": 51,
        "has_played": true,
        "id": 2677981,
        "last_rank": 72145,
        "player_name": "abdallaoui imad",
        "rank": 83231,
        "rank_sort": 83269,
        "total": 2334
      },
      {
        "club_badge_src": "https://fantasy.premierleague.com/gcs/plfpl-production-adobe-approved/plfpl-production/416750/5de9c04c-bc38-4c05-970b-063a593ea205.png",
        "entry": 416750,
        "entry_name": "FC RUDNIK",
        "event_total": 58,
        "has_played": true,
        "id": 2793626,
        "last_rank": 87350,
        "player_name": "Kacper Misiak",
        "rank": 83231,
        "rank_sort": 83270,
        "total": 2334
      },
      {
        "club_badge_src": null,
        "entry": 493858,
        "entry_name": "WIRTZ CASE SCENARIO",
        "event_total": 53,
        "has_played": true,
        "id": 3315024,
        "last_rank": 76128,
        "player_name": "Martin Hopwood",
        "rank": 83231,
        "rank_sort": 83271,
        "total": 2334
      },
      {
        "club_badge_src": null,
        "entry": 496401,
        "entry_name": "Spark the Zubimendi",
        "event_total": 61,
        "has_played": true,
        "id": 3331823,
        "last_rank": 84980,
        "player_name": "Louis Butterfield",
        "rank": 83231,
        "rank_sort": 83272,
        "total": 2334
      },
      {
        "club_badge_src": "https://fantasy.premierleague.com/gcs/plfpl-production-adobe-approved/plfpl-production/507276/c4d99714-b8e7-4deb-84df-5eb15e7abe15.png",
        "entry": 507276,
        "entry_name": "FALAFLY \ufffd\ufe0f",
        "event_total": 62,
        "has_played": true,
        "id": 3404779,
        "last_rank": 77999,
        "player_name": "Ahmed Falafly",
        "rank": 83231,
        "rank_sort": 83273,
        "total": 2334
      },
      {
        "club_badge_src": null,
        "entry": 551509,
        "entry_name": "Murf FC",
        "event_total": 39,
        "has_played": true,
        "id": 3712131,
        "last_rank": 44672,
        "player_name": "Gary Murphy",
        "rank": 83231,
        "rank_sort": 83274,
        "total": 2334
      },
      {
        "club_badge_src": null,
        "entry": 607001,
        "entry_name": "Cunha Matata",
        "event_total": 64,
        "has_played": true,
        "id": 4099094,
        "last_rank": 102125,
        "player_name": "Aakil Mahajan",
        "rank": 83231,
        "rank_sort": 83275,
        "total": 2334
      },
      {
        "club_badge_src": null,
        "entry": 612542,
        "entry_name": "Part Vole",
        "event_total": 62,
        "has_played": true,
        "id": 4138976,
        "last_rank": 97305,
        "player_name": "robert albans",
        "rank": 83231,
        "rank_sort": 83276,
        "total": 2334
      },
      {
        "club_badge_src": "https://fantasy.premierleague.com/gcs/plfpl-production-adobe-approved/plfpl-production/631511/4cc8984e-71c0-4ae3-a33a-f5cc577ed40f.png",
        "entry": 631511,
        "entry_name": "Ndiaye Another Day",
        "event_total": 66,
        "has_played": true,
        "id": 4267199,
        "last_rank": 107702,
        "player_name": "Robert Orford",
        "rank": 83231,
        "rank_sort": 83277,
        "total": 2334
      },
      {
        "club_badge_src": null,
        "entry": 633389,
        "entry_name": "Kinder Mbeumo",
        "event_total": 70,
        "has_played": true,
        "id": 4280127,
        "last_rank": 107485,
        "player_name": "Ashley crane",
        "rank": 83231,
        "rank_sort": 83278,
        "total": 2334
      },
      {
        "club_badge_src": null,
        "entry": 793741,
        "entry_name": "FC Monza",
        "event_total": 56,
        "has_played": true,
        "id": 5431950,
        "last_rank": 73423,
        "player_name": "Martin Mansson",
        "rank": 83231,
        "rank_sort": 83279,
        "total": 2334
      },
      {
        "club_badge_src": null,
        "entry": 858615,
        "entry_name": "Arteta out",
        "event_total": 62,
        "has_played": true,
        "id": 5885845,
        "last_rank": 97305,
        "player_name": "Jack Lam",
        "rank": 83231,
        "rank_sort": 83280,
        "total": 2334
      },
      {
        "club_badge_src": null,
        "entry": 888491,
        "entry_name": "Peka Peka Reserves",
        "event_total": 61,
        "has_played": true,
        "id": 6094128,
        "last_rank": 94778,
        "player_name": "Cliff Martin",
        "rank": 83231,
        "rank_sort": 83281,
        "total": 2334
      },
      {
        "club_badge_src": null,
        "entry": 927257,
        "entry_name": "DeVillagers",
        "event_total": 60,
        "has_played": true,
        "id": 6379242,
        "last_rank": 92332,
        "player_name": "M Barry",
        "rank": 83231,
        "rank_sort": 83282,
        "total": 2334
      },
      {
        "club_badge_src": "https://fantasy.premierleague.com/gcs/plfpl-production-adobe-approved/plfpl-production/993941/761bc57a-647f-4f0b-9b7d-edd66cc58e93.png",
        "entry": 993941,
        "entry_name": "Kinder (M)beumo",
        "event_total": 68,
        "has_played": true,
        "id": 6856936,
        "last_rank": 101818,
        "player_name": "Jun Yi Goh",
        "rank": 83231,
        "rank_sort": 83283,
        "total": 2334
      },
      {
        "club_badge_src": null,
        "entry": 996528,
        "entry_name": "Dragon Slayers",
        "event_total": 40,
        "has_played": true,
        "id": 6881260,
        "last_rank": 46106,
        "player_name": "michael abbott",
        "rank": 83231,
        "rank_sort": 83284,
        "total": 2334
      },
      {
        "club_badge_src": null,
        "entry": 1066899,
        "entry_name": "Sporting Abeergut",
        "event_total": 62,
        "has_played": true,
        "id": 7385877,
        "last_rank": 97305,
        "player_name": "chris leedham",
        "rank": 83231,
        "rank_sort": 83285,
        "total": 2334
      },
      {
        "club_badge_src": "https://fantasy.premierleague.com/gcs/plfpl-production-adobe-approved/plfpl-production/1111746/1aab58b9-8781-4d8e-8aa0-fd9dbbc0ca99.png",
        "entry": 1111746,
        "entry_name": "Dagdeg",
        "event_total": 55,
        "has_played": true,
        "id": 7700934,
        "last_rank": 80651,
        "player_name": "Jihed Louizi",
        "rank": 83231,
        "rank_sort": 83286,
        "total": 2334
      },
      {
        "club_badge_src": null,
        "entry": 1134379,
        "entry_name": "Gy\u00f6kerChess Mess",
        "event_total": 51,
        "has_played": true,
        "id": 7863352,
        "last_rank": 72145,
        "player_name": "Pontus R\u00f6stlund",
        "rank": 83231,
        "rank_sort": 83287,
        "total": 2334
      },
      {
        "club_badge_src": null,
        "entry": 1134815,
        "entry_name": "Grinia",
        "event_total": 67,
        "has_played": true,
        "id": 7866347,
        "last_rank": 110187,
        "player_name": "Ruslan Grinevic",
        "rank": 83231,
        "rank_sort": 83288,
        "total": 2334
      },
      {
        "club_badge_src": null,
        "entry": 1145882,
        "entry_name": "FOOSIL",
        "event_total": 58,
        "has_played": true,
        "id": 7944776,
        "last_rank": 78244,
        "player_name": "FOOSIL FOOSIL",
        "rank": 83231,
        "rank_sort": 83289,
        "total": 2334
      },
      {
        "club_badge_src": null,
        "entry": 1205775,
        "entry_name": "Brooksy FC",
        "event_total": 57,
        "has_played": true,
        "id": 8367792,
        "last_rank": 85349,
        "player_name": "Tom Brooks",
        "rank": 83231,
        "rank_sort": 83290,
        "total": 2334
      },
      {
        "club_badge_src": null,
        "entry": 1211203,
        "entry_name": "HaaHaaland",
        "event_total": 56,
        "has_played": true,
        "id": 8406886,
        "last_rank": 58071,
        "player_name": "Ed Caute",
        "rank": 83231,
        "rank_sort": 83291,
        "total": 2334
      },
      {
        "club_badge_src": null,
        "entry": 1287645,
        "entry_name": "A-Cunha Matata",
        "event_total": 74,
        "has_played": true,
        "id": 8947559,
        "last_rank": 118654,
        "player_name": "Rooster Fitz",
        "rank": 83231,
        "rank_sort": 83292,
        "total": 2334
      },
      {
        "club_badge_src": null,
        "entry": 1308991,
        "entry_name": "Maybank Marauders",
        "event_total": 66,
        "has_played": true,
        "id": 9098726,
        "last_rank": 96777,
        "player_name": "GARETH GRIFFITHS",
        "rank": 83231,
        "rank_sort": 83293,
        "total": 2334
      },
      {
        "club_badge_src": null,
        "entry": 1327166,
        "entry_name": "ibra",
        "event_total": 46,
        "has_played": true,
        "id": 9225004,
        "last_rank": 55514,
        "player_name": "Free Palestine -- Free Palestine --",
        "rank": 83231,
        "rank_sort": 83294,
        "total": 2334
      },
      {
        "club_badge_src": null,
        "entry": 1328433,
        "entry_name": "Trauma Circus FC",
        "event_total": 65,
        "has_played": true,
        "id": 9233714,
        "last_rank": 104941,
        "player_name": "Neil Clifford",
        "rank": 83231,
        "rank_sort": 83295,
        "total": 2334
      },
      {
        "club_badge_src": null,
        "entry": 1382261,
        "entry_name": "PopCorn UTD",
        "event_total": 57,
        "has_played": true,
        "id": 9613664,
        "last_rank": 85207,
        "player_name": "Ronny Bekvik",
        "rank": 83231,
        "rank_sort": 83296,
        "total": 2334
      },
      {
        "club_badge_src": null,
        "entry": 1390057,
        "entry_name": "MDAs",
        "event_total": 62,
        "has_played": true,
        "id": 9669421,
        "last_rank": 97305,
        "player_name": "Martin Abbott",
        "rank": 83231,
        "rank_sort": 83297,
        "total": 2334
      },
      {
        "club_badge_src": null,
        "entry": 1398119,
        "entry_name": "Old Havertz Kai Hard",
        "event_total": 50,
        "has_played": true,
        "id": 9726956,
        "last_rank": 70072,
        "player_name": "Matt Hulme",
        "rank": 83231,
        "rank_sort": 83298,
        "total": 2334
      },
      {
        "club_badge_src": null,
        "entry": 1439263,
        "entry_name": "Frank 2:High Voltage",
        "event_total": 49,
        "has_played": true,
        "id": 10029089,
        "last_rank": 67926,
        "player_name": "Stephen Conlon",
        "rank": 83231,
        "rank_sort": 83299,
        "total": 2334
      },
      {
        "club_badge_src": "https://fantasy.premierleague.com/gcs/plfpl-production-adobe-approved/plfpl-production/1587739/2392aa37-8432-4044-ba13-c284a79e0fae.png",
        "entry": 1587739,
        "entry_name": "Nonchalant Kimmich",
        "event_total": 56,
        "has_played": true,
        "id": 11100067,
        "last_rank": 82873,
        "player_name": "Lewis Simmons",
        "rank": 83231,
        "rank_sort": 83300,
        "total": 2334
      }
    ]
  }
}