{
  "last_updated_data": "2026-05-24T23:28:17Z",
  "league": {
    "admin_entry": null,
    "closed": false,
    "code_privacy": "p",
    "created": "2025-07-20T23:14:33.933835Z",
    "cup_league": 2815434,
    "has_cup": true,
    "id": 314,
    "league_type": "s",
    "max_entries": null,
    "name": "Overall",
    "rank": null,
    "scoring": "c",
    "start_event": 1
  },
  "new_entries": {
    "has_next": false,
    "page": 1,
    "results": []
  },
  "standings": {
    "has_next": true,
    "page": 1126,
    "results": [
      {
        "club_badge_src": null,
        "entry": 48893,
        "entry_name": "Chowe Town",
        "event_total": 64,
        "has_played": true,
        "id": 314173,
        "last_rank": 69641,
        "player_name": "Chris Howe",
        "rank": 56235,
        "rank_sort": 56251,
        "total": 2348
      },
      {
        "club_badge_src": null,
        "entry": 51290,
        "entry_name": "Ray",
        "event_total": 63,
        "has_played": true,
        "id": 329863,
        "last_rank": 67063,
        "player_name": "Daniel Ballan",
        "rank": 56235,
        "rank_sort": 56252,
        "total": 2348
      },
      {
        "club_badge_src": "https://fantasy.premierleague.com/gcs/plfpl-production-adobe-approved/plfpl-production/51358/0f44b925-8eb0-4b80-9ab3-f75755498c81.png",
        "entry": 51358,
        "entry_name": "Go Green",
        "event_total": 35,
        "has_played": true,
        "id": 330306,
        "last_rank": 28150,
        "player_name": "Nh\u00e2n Tr\u1ea7n",
        "rank": 56235,
        "rank_sort": 56253,
        "total": 2348
      },
      {
        "club_badge_src": "https://fantasy.premierleague.com/gcs/plfpl-production-adobe-approved/plfpl-production/73876/95d72768-1b87-4b6e-b9c4-e5dc69af7e3c.png",
        "entry": 73876,
        "entry_name": "NFI",
        "event_total": 74,
        "has_played": true,
        "id": 480252,
        "last_rank": 91466,
        "player_name": "Ricky Tiller",
        "rank": 56235,
        "rank_sort": 56254,
        "total": 2348
      },
      {
        "club_badge_src": "https://fantasy.premierleague.com/gcs/plfpl-production-adobe-approved/plfpl-production/79126/0af14b4a-f9a1-4ffe-8dc2-83c2fd69254e.png",
        "entry": 79126,
        "entry_name": "Team United",
        "event_total": 68,
        "has_played": true,
        "id": 514556,
        "last_rank": 69323,
        "player_name": "Chiko Siwila",
        "rank": 56235,
        "rank_sort": 56255,
        "total": 2348
      },
      {
        "club_badge_src": "https://fantasy.premierleague.com/gcs/plfpl-production-adobe-approved/plfpl-production/80979/f7c2420c-4265-4f49-a648-ba0f99e0de85.png",
        "entry": 80979,
        "entry_name": "muletovi jastrebovi",
        "event_total": 58,
        "has_played": true,
        "id": 526854,
        "last_rank": 58688,
        "player_name": "Muhamed Milisic",
        "rank": 56235,
        "rank_sort": 56256,
        "total": 2348
      },
      {
        "club_badge_src": null,
        "entry": 90030,
        "entry_name": "One man Arne",
        "event_total": 59,
        "has_played": true,
        "id": 587704,
        "last_rank": 60462,
        "player_name": "Lewis Packer",
        "rank": 56235,
        "rank_sort": 56257,
        "total": 2348
      },
      {
        "club_badge_src": null,
        "entry": 95223,
        "entry_name": "Hangover Black",
        "event_total": 59,
        "has_played": true,
        "id": 622230,
        "last_rank": 53345,
        "player_name": "Marcus Thor",
        "rank": 56235,
        "rank_sort": 56258,
        "total": 2348
      },
      {
        "club_badge_src": "https://fantasy.premierleague.com/gcs/plfpl-production-adobe-approved/plfpl-production/96858/3bb81737-31de-4e63-8b3c-a753efb19a08.png",
        "entry": 96858,
        "entry_name": "Wirtz of Wisdom",
        "event_total": 53,
        "has_played": true,
        "id": 632693,
        "last_rank": 43849,
        "player_name": "JT Barras",
        "rank": 56235,
        "rank_sort": 56259,
        "total": 2348
      },
      {
        "club_badge_src": null,
        "entry": 98556,
        "entry_name": "Norf Laandon Forever",
        "event_total": 63,
        "has_played": true,
        "id": 643548,
        "last_rank": 60168,
        "player_name": "Hugh Warmisham",
        "rank": 56235,
        "rank_sort": 56260,
        "total": 2348
      },
      {
        "club_badge_src": null,
        "entry": 99371,
        "entry_name": "MEFO",
        "event_total": 68,
        "has_played": true,
        "id": 648700,
        "last_rank": 69323,
        "player_name": "Mohammad Obeidat",
        "rank": 56235,
        "rank_sort": 56261,
        "total": 2348
      },
      {
        "club_badge_src": "https://fantasy.premierleague.com/gcs/plfpl-production-adobe-approved/plfpl-production/115054/b4b51376-6117-4449-90d3-438192bfc226.png",
        "entry": 115054,
        "entry_name": "Kinder Mbeumo",
        "event_total": 63,
        "has_played": true,
        "id": 750729,
        "last_rank": 59813,
        "player_name": "Alastair Moscuzza",
        "rank": 56235,
        "rank_sort": 56262,
        "total": 2348
      },
      {
        "club_badge_src": null,
        "entry": 119207,
        "entry_name": "OFC",
        "event_total": 51,
        "has_played": true,
        "id": 777827,
        "last_rank": 47596,
        "player_name": "Oscar Chan",
        "rank": 56235,
        "rank_sort": 56263,
        "total": 2348
      },
      {
        "club_badge_src": null,
        "entry": 129586,
        "entry_name": "Bondi Boys",
        "event_total": 54,
        "has_played": true,
        "id": 844571,
        "last_rank": 45714,
        "player_name": "Gabriel Flynn",
        "rank": 56235,
        "rank_sort": 56264,
        "total": 2348
      },
      {
        "club_badge_src": "https://fantasy.premierleague.com/gcs/plfpl-production-adobe-approved/plfpl-production/134738/98ee7478-5852-430b-8cb8-f36081563cb6.png",
        "entry": 134738,
        "entry_name": "ABCDE FC",
        "event_total": 62,
        "has_played": true,
        "id": 877506,
        "last_rank": 65475,
        "player_name": "Andrew Duckworth",
        "rank": 56235,
        "rank_sort": 56265,
        "total": 2348
      },
      {
        "club_badge_src": "https://fantasy.premierleague.com/gcs/plfpl-production-adobe-approved/plfpl-production/138262/0b1337cc-0667-425c-8adf-27d7068be6fe.png",
        "entry": 138262,
        "entry_name": "Deportivo Dawbs",
        "event_total": 58,
        "has_played": true,
        "id": 901841,
        "last_rank": 51720,
        "player_name": "Sam Dawber",
        "rank": 56235,
        "rank_sort": 56266,
        "total": 2348
      },
      {
        "club_badge_src": "https://fantasy.premierleague.com/gcs/plfpl-production-adobe-approved/plfpl-production/140929/ab453b12-f8f8-477a-8e33-d560f6140ae5.png",
        "entry": 140929,
        "entry_name": "Scott chegg",
        "event_total": 80,
        "has_played": true,
        "id": 920520,
        "last_rank": 107485,
        "player_name": "josh eagleton",
        "rank": 56235,
        "rank_sort": 56267,
        "total": 2348
      },
      {
        "club_badge_src": "https://fantasy.premierleague.com/gcs/plfpl-production-adobe-approved/plfpl-production/147643/911548a0-af29-4aba-92b2-67185ac6da84.png",
        "entry": 147643,
        "entry_name": "Styrelsen",
        "event_total": 46,
        "has_played": true,
        "id": 967618,
        "last_rank": 40503,
        "player_name": "Linus Wennerstr\u00f6m",
        "rank": 56235,
        "rank_sort": 56268,
        "total": 2348
      },
      {
        "club_badge_src": "https://fantasy.premierleague.com/gcs/plfpl-production-adobe-approved/plfpl-production/168437/d8cfaa64-5eeb-49fb-8fc4-faf3ebf06b6d.png",
        "entry": 168437,
        "entry_name": "Amadou Badly",
        "event_total": 65,
        "has_played": true,
        "id": 1113248,
        "last_rank": 71713,
        "player_name": "Akhil Deol",
        "rank": 56235,
        "rank_sort": 56269,
        "total": 2348
      },
      {
        "club_badge_src": null,
        "entry": 184742,
        "entry_name": "Deburghs",
        "event_total": 68,
        "has_played": true,
        "id": 1220028,
        "last_rank": 69323,
        "player_name": "Kristoffer Baldysz",
        "rank": 56235,
        "rank_sort": 56270,
        "total": 2348
      },
      {
        "club_badge_src": null,
        "entry": 187212,
        "entry_name": "Bhamu FC",
        "event_total": 54,
        "has_played": true,
        "id": 1237703,
        "last_rank": 51984,
        "player_name": "Anesu Josi",
        "rank": 56235,
        "rank_sort": 56271,
        "total": 2348
      },
      {
        "club_badge_src": "https://fantasy.premierleague.com/gcs/plfpl-production-adobe-approved/plfpl-production/204566/b5cf76fb-6499-4c0d-9cac-2bce6752e218.png",
        "entry": 204566,
        "entry_name": "Rutter Woke Nonsense",
        "event_total": 59,
        "has_played": true,
        "id": 1359649,
        "last_rank": 53023,
        "player_name": "Alex Hainsworth",
        "rank": 56235,
        "rank_sort": 56272,
        "total": 2348
      },
      {
        "club_badge_src": null,
        "entry": 205056,
        "entry_name": "Barely Functioning",
        "event_total": 72,
        "has_played": true,
        "id": 1362959,
        "last_rank": 86735,
        "player_name": "Tim Barnes",
        "rank": 56235,
        "rank_sort": 56273,
        "total": 2348
      },
      {
        "club_badge_src": null,
        "entry": 206341,
        "entry_name": "Man UTD",
        "event_total": 56,
        "has_played": true,
        "id": 1371450,
        "last_rank": 55311,
        "player_name": "Mustafa tato",
        "rank": 56235,
        "rank_sort": 56274,
        "total": 2348
      },
      {
        "club_badge_src": null,
        "entry": 235824,
        "entry_name": "kiro",
        "event_total": 55,
        "has_played": true,
        "id": 1569139,
        "last_rank": 53345,
        "player_name": "Amir Rakhymbaev",
        "rank": 56235,
        "rank_sort": 56275,
        "total": 2348
      },
      {
        "club_badge_src": null,
        "entry": 252829,
        "entry_name": "The Goodballers",
        "event_total": 64,
        "has_played": true,
        "id": 1681619,
        "last_rank": 69641,
        "player_name": "Daniel Gon\u00e7alves",
        "rank": 56235,
        "rank_sort": 56276,
        "total": 2348
      },
      {
        "club_badge_src": "https://fantasy.premierleague.com/gcs/plfpl-production-adobe-approved/plfpl-production/256939/fcc3a923-6792-4aa5-9704-fdfc09e1e815.png",
        "entry": 256939,
        "entry_name": "Kanthalak United",
        "event_total": 65,
        "has_played": true,
        "id": 1708843,
        "last_rank": 71386,
        "player_name": "Adam Smith",
        "rank": 56235,
        "rank_sort": 56277,
        "total": 2348
      },
      {
        "club_badge_src": "https://fantasy.premierleague.com/gcs/plfpl-production-adobe-approved/plfpl-production/268782/6a2de956-c126-4f9a-afc6-443b21dd9e3f.png",
        "entry": 268782,
        "entry_name": "Change Name",
        "event_total": 60,
        "has_played": true,
        "id": 1788091,
        "last_rank": 62223,
        "player_name": "John Williams",
        "rank": 56235,
        "rank_sort": 56278,
        "total": 2348
      },
      {
        "club_badge_src": null,
        "entry": 268957,
        "entry_name": "Joey Jonjo Shelveydo",
        "event_total": 68,
        "has_played": true,
        "id": 1789256,
        "last_rank": 68957,
        "player_name": "Chris Gouw",
        "rank": 56235,
        "rank_sort": 56279,
        "total": 2348
      },
      {
        "club_badge_src": null,
        "entry": 296615,
        "entry_name": "cr7goat",
        "event_total": 62,
        "has_played": true,
        "id": 1981942,
        "last_rank": 65796,
        "player_name": "Abdulrhman Ibrahim",
        "rank": 56235,
        "rank_sort": 56280,
        "total": 2348
      },
      {
        "club_badge_src": null,
        "entry": 306512,
        "entry_name": "Kinder mbeumo",
        "event_total": 67,
        "has_played": true,
        "id": 2052703,
        "last_rank": 75874,
        "player_name": "Ashley Scott",
        "rank": 56235,
        "rank_sort": 56281,
        "total": 2348
      },
      {
        "club_badge_src": null,
        "entry": 312457,
        "entry_name": "YNWA",
        "event_total": 62,
        "has_played": true,
        "id": 2093374,
        "last_rank": 51403,
        "player_name": "minh pham",
        "rank": 56235,
        "rank_sort": 56282,
        "total": 2348
      },
      {
        "club_badge_src": null,
        "entry": 332632,
        "entry_name": "Mus",
        "event_total": 56,
        "has_played": true,
        "id": 2227816,
        "last_rank": 55514,
        "player_name": "Michael R",
        "rank": 56235,
        "rank_sort": 56283,
        "total": 2348
      },
      {
        "club_badge_src": null,
        "entry": 334303,
        "entry_name": "Scarface united",
        "event_total": 64,
        "has_played": true,
        "id": 2238651,
        "last_rank": 69641,
        "player_name": "Mike Scaccia",
        "rank": 56235,
        "rank_sort": 56284,
        "total": 2348
      },
      {
        "club_badge_src": null,
        "entry": 343360,
        "entry_name": "Whitehouse Wanderers",
        "event_total": 57,
        "has_played": true,
        "id": 2298046,
        "last_rank": 56708,
        "player_name": "Steve Whitehouse",
        "rank": 56235,
        "rank_sort": 56285,
        "total": 2348
      },
      {
        "club_badge_src": null,
        "entry": 349051,
        "entry_name": "Bad to the Bowen",
        "event_total": 54,
        "has_played": true,
        "id": 2336307,
        "last_rank": 52205,
        "player_name": "Liam Hale",
        "rank": 56235,
        "rank_sort": 56286,
        "total": 2348
      },
      {
        "club_badge_src": null,
        "entry": 355384,
        "entry_name": "Schaamluis",
        "event_total": 52,
        "has_played": true,
        "id": 2378393,
        "last_rank": 48642,
        "player_name": "Quentin de Groot",
        "rank": 56235,
        "rank_sort": 56287,
        "total": 2348
      },
      {
        "club_badge_src": "https://fantasy.premierleague.com/gcs/plfpl-production-adobe-approved/plfpl-production/395079/fe913dab-d84d-4ad5-9df0-752b02065f50.png",
        "entry": 395079,
        "entry_name": "Slot Machine",
        "event_total": 60,
        "has_played": true,
        "id": 2649489,
        "last_rank": 61950,
        "player_name": "Jesse Lemeer",
        "rank": 56235,
        "rank_sort": 56288,
        "total": 2348
      },
      {
        "club_badge_src": "https://fantasy.premierleague.com/gcs/plfpl-production-adobe-approved/plfpl-production/466838/4025602d-1fd5-4f4d-a243-06913e1ddc47.png",
        "entry": 466838,
        "entry_name": "Palace Won FA Cup",
        "event_total": 57,
        "has_played": true,
        "id": 3132499,
        "last_rank": 49880,
        "player_name": "Michael W",
        "rank": 56235,
        "rank_sort": 56289,
        "total": 2348
      },
      {
        "club_badge_src": "https://fantasy.premierleague.com/gcs/plfpl-production-adobe-approved/plfpl-production/490843/088707fc-596a-49bc-afd2-d6e5480fb4bb.png",
        "entry": 490843,
        "entry_name": "FPLGoobie",
        "event_total": 39,
        "has_played": true,
        "id": 3294843,
        "last_rank": 31747,
        "player_name": "Ryan Niezen",
        "rank": 56235,
        "rank_sort": 56290,
        "total": 2348
      },
      {
        "club_badge_src": null,
        "entry": 520099,
        "entry_name": "Ies",
        "event_total": 62,
        "has_played": true,
        "id": 3492509,
        "last_rank": 65796,
        "player_name": "Magnus Nordin",
        "rank": 56235,
        "rank_sort": 56291,
        "total": 2348
      },
      {
        "club_badge_src": null,
        "entry": 530544,
        "entry_name": "la diog la jot",
        "event_total": 64,
        "has_played": true,
        "id": 3567995,
        "last_rank": 69323,
        "player_name": "Benjamin Nacache",
        "rank": 56235,
        "rank_sort": 56292,
        "total": 2348
      },
      {
        "club_badge_src": null,
        "entry": 535492,
        "entry_name": "the special one",
        "event_total": 56,
        "has_played": true,
        "id": 3604136,
        "last_rank": 55311,
        "player_name": "Adem Djilani",
        "rank": 56235,
        "rank_sort": 56293,
        "total": 2348
      },
      {
        "club_badge_src": null,
        "entry": 536841,
        "entry_name": "Boys Gave Everything",
        "event_total": 67,
        "has_played": true,
        "id": 3613484,
        "last_rank": 75874,
        "player_name": "Zeu Chan",
        "rank": 56235,
        "rank_sort": 56294,
        "total": 2348
      },
      {
        "club_badge_src": null,
        "entry": 545014,
        "entry_name": "KM FC",
        "event_total": 54,
        "has_played": true,
        "id": 3668019,
        "last_rank": 51984,
        "player_name": "Meme Mbalosi",
        "rank": 56235,
        "rank_sort": 56295,
        "total": 2348
      },
      {
        "club_badge_src": null,
        "entry": 546501,
        "entry_name": "Slots slooooooots",
        "event_total": 63,
        "has_played": true,
        "id": 3677921,
        "last_rank": 60168,
        "player_name": "Guy Raybould",
        "rank": 56235,
        "rank_sort": 56296,
        "total": 2348
      },
      {
        "club_badge_src": null,
        "entry": 554705,
        "entry_name": "Arr. Marriage 5.0",
        "event_total": 50,
        "has_played": true,
        "id": 3733418,
        "last_rank": 45927,
        "player_name": "Noel Arthur",
        "rank": 56235,
        "rank_sort": 56297,
        "total": 2348
      },
      {
        "club_badge_src": null,
        "entry": 581887,
        "entry_name": "Slabhead & Shoulders",
        "event_total": 62,
        "has_played": true,
        "id": 3916050,
        "last_rank": 65796,
        "player_name": "Matis Blamey",
        "rank": 56235,
        "rank_sort": 56298,
        "total": 2348
      },
      {
        "club_badge_src": null,
        "entry": 584908,
        "entry_name": "LifewithoutKev",
        "event_total": 68,
        "has_played": true,
        "id": 3936277,
        "last_rank": 77258,
        "player_name": "Dave Laughton",
        "rank": 56235,
        "rank_sort": 56299,
        "total": 2348
      },
      {
        "club_badge_src": null,
        "entry": 595540,
        "entry_name": "Kandy Kane",
        "event_total": 47,
        "has_played": true,
        "id": 4014847,
        "last_rank": 41617,
        "player_name": "Jainil Mewawala",
        "rank": 56235,
        "rank_sort": 56300,
        "total": 2348
      }
    ]
  }
}