{
  "last_updated_data": "2026-05-24T23:28:17Z",
  "league": {
    "admin_entry": null,
    "closed": false,
    "code_privacy": "p",
    "created": "2025-07-20T23:14:33.933835Z",
    "cup_league": 2815434,
    "has_cup": true,
    "id": 314,
    "league_type": "s",
    "max_entries": null,
    "name": "Overall",
    "rank": null,
    "scoring": "c",
    "start_event": 1
  },
  "new_entries": {
    "has_next": false,
    "page": 1,
    "results": []
  },
  "standings": {
    "has_next": true,
    "page": 1597,
    "results": [
      {
        "club_badge_src": null,
        "entry": 5585793,
        "entry_name": "netflix and chilwell",
        "event_total": 64,
        "has_played": true,
        "id": 43633116,
        "last_rank": 97968,
        "player_name": "Jamez Parker",
        "rank": 79702,
        "rank_sort": 79801,
        "total": 2335
      },
      {
        "club_badge_src": null,
        "entry": 5627029,
        "entry_name": "Mellberg2k25/26",
        "event_total": 44,
        "has_played": true,
        "id": 43991111,
        "last_rank": 56180,
        "player_name": "Anton Mellberg",
        "rank": 79702,
        "rank_sort": 79802,
        "total": 2335
      },
      {
        "club_badge_src": null,
        "entry": 5652422,
        "entry_name": "Team AC",
        "event_total": 31,
        "has_played": true,
        "id": 44217752,
        "last_rank": 37589,
        "player_name": "Andreas Christiansen",
        "rank": 79702,
        "rank_sort": 79803,
        "total": 2335
      },
      {
        "club_badge_src": null,
        "entry": 5778120,
        "entry_name": "ChickenTikkaMoSalah",
        "event_total": 55,
        "has_played": true,
        "id": 45307246,
        "last_rank": 77050,
        "player_name": "Rasul Amlani",
        "rank": 79702,
        "rank_sort": 79804,
        "total": 2335
      },
      {
        "club_badge_src": null,
        "entry": 5790306,
        "entry_name": "Siremdee",
        "event_total": 40,
        "has_played": true,
        "id": 45412059,
        "last_rank": 49880,
        "player_name": "Mohammed Abubakar Bala",
        "rank": 79702,
        "rank_sort": 79805,
        "total": 2335
      },
      {
        "club_badge_src": null,
        "entry": 5862686,
        "entry_name": "ChottoLoco",
        "event_total": 51,
        "has_played": true,
        "id": 46039309,
        "last_rank": 68957,
        "player_name": "Gerard Lambe",
        "rank": 79702,
        "rank_sort": 79806,
        "total": 2335
      },
      {
        "club_badge_src": null,
        "entry": 5956866,
        "entry_name": "LYG Monkey Kings",
        "event_total": 51,
        "has_played": true,
        "id": 46860121,
        "last_rank": 68748,
        "player_name": "Jack Stonebridge",
        "rank": 79702,
        "rank_sort": 79807,
        "total": 2335
      },
      {
        "club_badge_src": null,
        "entry": 6011407,
        "entry_name": "SquidWirtz",
        "event_total": 56,
        "has_played": true,
        "id": 47399009,
        "last_rank": 79079,
        "player_name": "Matt Jacob",
        "rank": 79702,
        "rank_sort": 79808,
        "total": 2335
      },
      {
        "club_badge_src": null,
        "entry": 6018283,
        "entry_name": "Baby Reijnders",
        "event_total": 55,
        "has_played": true,
        "id": 47461232,
        "last_rank": 76908,
        "player_name": "Jack Leonard",
        "rank": 79702,
        "rank_sort": 79809,
        "total": 2335
      },
      {
        "club_badge_src": null,
        "entry": 6057162,
        "entry_name": "TopBins",
        "event_total": 55,
        "has_played": true,
        "id": 47801330,
        "last_rank": 76947,
        "player_name": "Nathan Dolphin",
        "rank": 79702,
        "rank_sort": 79810,
        "total": 2335
      },
      {
        "club_badge_src": null,
        "entry": 6079404,
        "entry_name": "ADD United",
        "event_total": 58,
        "has_played": true,
        "id": 47997081,
        "last_rank": 83584,
        "player_name": "Derek Dickinson",
        "rank": 79702,
        "rank_sort": 79811,
        "total": 2335
      },
      {
        "club_badge_src": null,
        "entry": 6262779,
        "entry_name": "Bidzo United",
        "event_total": 48,
        "has_played": true,
        "id": 49587140,
        "last_rank": 63390,
        "player_name": "Brian Chibwe",
        "rank": 79702,
        "rank_sort": 79812,
        "total": 2335
      },
      {
        "club_badge_src": null,
        "entry": 6271685,
        "entry_name": "Gy\u00f6kzilla",
        "event_total": 53,
        "has_played": true,
        "id": 49662845,
        "last_rank": 72815,
        "player_name": "Gustav Karlsson",
        "rank": 79702,
        "rank_sort": 79813,
        "total": 2335
      },
      {
        "club_badge_src": null,
        "entry": 6361631,
        "entry_name": "DARDOUR FC",
        "event_total": 62,
        "has_played": true,
        "id": 50581549,
        "last_rank": 93052,
        "player_name": "Dhia DARDOUR",
        "rank": 79702,
        "rank_sort": 79814,
        "total": 2335
      },
      {
        "club_badge_src": null,
        "entry": 6381201,
        "entry_name": "blaugrana98",
        "event_total": 59,
        "has_played": true,
        "id": 50752899,
        "last_rank": 85932,
        "player_name": "Sayed Hashim",
        "rank": 79702,
        "rank_sort": 79815,
        "total": 2335
      },
      {
        "club_badge_src": null,
        "entry": 6410218,
        "entry_name": "Big Mick Energy",
        "event_total": 66,
        "has_played": true,
        "id": 51009886,
        "last_rank": 103130,
        "player_name": "Luke Alexander",
        "rank": 79702,
        "rank_sort": 79816,
        "total": 2335
      },
      {
        "club_badge_src": null,
        "entry": 6467299,
        "entry_name": "InKonsaquential FC",
        "event_total": 52,
        "has_played": true,
        "id": 51526603,
        "last_rank": 70985,
        "player_name": "Mason Tisdale",
        "rank": 79702,
        "rank_sort": 79817,
        "total": 2335
      },
      {
        "club_badge_src": null,
        "entry": 6480466,
        "entry_name": "Sydenham Swans",
        "event_total": 39,
        "has_played": true,
        "id": 51649924,
        "last_rank": 48363,
        "player_name": "Jonathan Wadsworth",
        "rank": 79702,
        "rank_sort": 79818,
        "total": 2335
      },
      {
        "club_badge_src": null,
        "entry": 6531395,
        "entry_name": "The Konate Kid",
        "event_total": 70,
        "has_played": true,
        "id": 52101494,
        "last_rank": 114292,
        "player_name": "Gerard Madden",
        "rank": 79702,
        "rank_sort": 79819,
        "total": 2335
      },
      {
        "club_badge_src": null,
        "entry": 6596699,
        "entry_name": "ChampionDelMundo",
        "event_total": 41,
        "has_played": true,
        "id": 52691111,
        "last_rank": 51403,
        "player_name": "Kapten Dongo",
        "rank": 79702,
        "rank_sort": 79820,
        "total": 2335
      },
      {
        "club_badge_src": null,
        "entry": 6605401,
        "entry_name": "3d1z FC",
        "event_total": 51,
        "has_played": true,
        "id": 52768392,
        "last_rank": 68957,
        "player_name": "Erdal Idriz",
        "rank": 79702,
        "rank_sort": 79821,
        "total": 2335
      },
      {
        "club_badge_src": "https://fantasy.premierleague.com/gcs/plfpl-production-adobe-approved/plfpl-production/6667877/ac77dbc9-4526-46b0-810f-218e3a1e42af.png",
        "entry": 6667877,
        "entry_name": "Pugh-tang clan",
        "event_total": 55,
        "has_played": true,
        "id": 53326582,
        "last_rank": 77258,
        "player_name": "Ethan Downes",
        "rank": 79702,
        "rank_sort": 79822,
        "total": 2335
      },
      {
        "club_badge_src": null,
        "entry": 6843456,
        "entry_name": "auseed ihsan",
        "event_total": 48,
        "has_played": true,
        "id": 54822679,
        "last_rank": 63390,
        "player_name": "Auseed Ihsan",
        "rank": 79702,
        "rank_sort": 79823,
        "total": 2335
      },
      {
        "club_badge_src": "https://fantasy.premierleague.com/gcs/plfpl-production-adobe-approved/plfpl-production/6856755/db5e1d3f-9c47-42c4-9caa-71773d0f13cb.png",
        "entry": 6856755,
        "entry_name": "Highbury FC",
        "event_total": 60,
        "has_played": true,
        "id": 54937039,
        "last_rank": 88348,
        "player_name": "mark palmer",
        "rank": 79702,
        "rank_sort": 79824,
        "total": 2335
      },
      {
        "club_badge_src": null,
        "entry": 6888526,
        "entry_name": "Bobo Knows ball",
        "event_total": 77,
        "has_played": true,
        "id": 55208021,
        "last_rank": 135577,
        "player_name": "Cristian Diaz",
        "rank": 79702,
        "rank_sort": 79825,
        "total": 2335
      },
      {
        "club_badge_src": null,
        "entry": 7061387,
        "entry_name": "Newborns United",
        "event_total": 48,
        "has_played": true,
        "id": 56808867,
        "last_rank": 63390,
        "player_name": "Maddie Hegener",
        "rank": 79702,
        "rank_sort": 79826,
        "total": 2335
      },
      {
        "club_badge_src": null,
        "entry": 7081154,
        "entry_name": "That's Toughsheet",
        "event_total": 76,
        "has_played": true,
        "id": 56996991,
        "last_rank": 132281,
        "player_name": "Ben Beard",
        "rank": 79702,
        "rank_sort": 79827,
        "total": 2335
      },
      {
        "club_badge_src": null,
        "entry": 7388610,
        "entry_name": "I'm a Baleba",
        "event_total": 62,
        "has_played": true,
        "id": 59906865,
        "last_rank": 93186,
        "player_name": "Eoin Weeks",
        "rank": 79702,
        "rank_sort": 79828,
        "total": 2335
      },
      {
        "club_badge_src": null,
        "entry": 7394678,
        "entry_name": "Finding Timo",
        "event_total": 60,
        "has_played": true,
        "id": 59964113,
        "last_rank": 88185,
        "player_name": "Jobin Jose",
        "rank": 79702,
        "rank_sort": 79829,
        "total": 2335
      },
      {
        "club_badge_src": null,
        "entry": 7605257,
        "entry_name": "goalescore",
        "event_total": 61,
        "has_played": true,
        "id": 62311898,
        "last_rank": 90565,
        "player_name": "Les Wilson",
        "rank": 79702,
        "rank_sort": 79830,
        "total": 2335
      },
      {
        "club_badge_src": null,
        "entry": 7664650,
        "entry_name": "central suiii",
        "event_total": 64,
        "has_played": true,
        "id": 62850774,
        "last_rank": 98073,
        "player_name": "Navya Jain",
        "rank": 79702,
        "rank_sort": 79831,
        "total": 2335
      },
      {
        "club_badge_src": null,
        "entry": 7740359,
        "entry_name": "Aymen Aymen",
        "event_total": 67,
        "has_played": true,
        "id": 63534162,
        "last_rank": 106259,
        "player_name": "aymen aymen",
        "rank": 79702,
        "rank_sort": 79832,
        "total": 2335
      },
      {
        "club_badge_src": null,
        "entry": 7768752,
        "entry_name": "Wirtz Case Scenario",
        "event_total": 61,
        "has_played": true,
        "id": 63791655,
        "last_rank": 90565,
        "player_name": "Frederic Wakim",
        "rank": 79702,
        "rank_sort": 79833,
        "total": 2335
      },
      {
        "club_badge_src": null,
        "entry": 7796596,
        "entry_name": "Sandwich not express",
        "event_total": 64,
        "has_played": true,
        "id": 64042589,
        "last_rank": 98073,
        "player_name": "Neil Munday",
        "rank": 79702,
        "rank_sort": 79834,
        "total": 2335
      },
      {
        "club_badge_src": null,
        "entry": 8261684,
        "entry_name": "Steves Spurs",
        "event_total": 67,
        "has_played": true,
        "id": 68335482,
        "last_rank": 105963,
        "player_name": "Steven Thomson",
        "rank": 79702,
        "rank_sort": 79835,
        "total": 2335
      },
      {
        "club_badge_src": null,
        "entry": 8460966,
        "entry_name": "baldy pepe Fc",
        "event_total": 70,
        "has_played": true,
        "id": 70258427,
        "last_rank": 114574,
        "player_name": "Shaffi Rosdi",
        "rank": 79702,
        "rank_sort": 79836,
        "total": 2335
      },
      {
        "club_badge_src": null,
        "entry": 8540446,
        "entry_name": "Happy Valley Vandals",
        "event_total": 40,
        "has_played": true,
        "id": 71026310,
        "last_rank": 49691,
        "player_name": "Ed Forward",
        "rank": 79702,
        "rank_sort": 79837,
        "total": 2335
      },
      {
        "club_badge_src": null,
        "entry": 8563358,
        "entry_name": "Rizler",
        "event_total": 58,
        "has_played": true,
        "id": 71246955,
        "last_rank": 83584,
        "player_name": "David O'Reilly",
        "rank": 79702,
        "rank_sort": 79838,
        "total": 2335
      },
      {
        "club_badge_src": null,
        "entry": 8630537,
        "entry_name": "I'm trying my best",
        "event_total": 35,
        "has_played": true,
        "id": 71893114,
        "last_rank": 42506,
        "player_name": "Haydn Wright",
        "rank": 79702,
        "rank_sort": 79839,
        "total": 2335
      },
      {
        "club_badge_src": null,
        "entry": 8640018,
        "entry_name": "Aizen Sousuke",
        "event_total": 41,
        "has_played": true,
        "id": 71987485,
        "last_rank": 51403,
        "player_name": "Kaneki Ken",
        "rank": 79702,
        "rank_sort": 79840,
        "total": 2335
      },
      {
        "club_badge_src": null,
        "entry": 8651485,
        "entry_name": "El Bakabortat",
        "event_total": 52,
        "has_played": true,
        "id": 72101735,
        "last_rank": 70985,
        "player_name": "Omar Ayman",
        "rank": 79702,
        "rank_sort": 79841,
        "total": 2335
      },
      {
        "club_badge_src": null,
        "entry": 9060850,
        "entry_name": "Wi(r)tz erz\u00e4hlen",
        "event_total": 50,
        "has_played": true,
        "id": 76070334,
        "last_rank": 66848,
        "player_name": "Nadya Tarpova",
        "rank": 79702,
        "rank_sort": 79842,
        "total": 2335
      },
      {
        "club_badge_src": null,
        "entry": 10780573,
        "entry_name": "\u0628\u062e\u0648\u0634\u0629",
        "event_total": 83,
        "has_played": true,
        "id": 91046216,
        "last_rank": 156067,
        "player_name": "saif tallab",
        "rank": 79702,
        "rank_sort": 79843,
        "total": 2335
      },
      {
        "club_badge_src": null,
        "entry": 1481,
        "entry_name": "stibolten",
        "event_total": 67,
        "has_played": true,
        "id": 8241,
        "last_rank": 105818,
        "player_name": "Jon Oliver Berge",
        "rank": 79844,
        "rank_sort": 79844,
        "total": 2335
      },
      {
        "club_badge_src": "https://fantasy.premierleague.com/gcs/plfpl-production-adobe-approved/plfpl-production/2204/75e10319-5104-48d0-aae8-b0e1e39fb324.png",
        "entry": 2204,
        "entry_name": "Della Army",
        "event_total": 51,
        "has_played": true,
        "id": 12292,
        "last_rank": 68957,
        "player_name": "Robin King",
        "rank": 79844,
        "rank_sort": 79845,
        "total": 2335
      },
      {
        "club_badge_src": "https://fantasy.premierleague.com/gcs/plfpl-production-adobe-approved/plfpl-production/3859/816e55f1-9a56-4aa9-afe0-ca90fb18bcc2.png",
        "entry": 3859,
        "entry_name": "Ake breaky Heart",
        "event_total": 78,
        "has_played": true,
        "id": 21885,
        "last_rank": 139917,
        "player_name": "Liam Mcgreal",
        "rank": 79844,
        "rank_sort": 79846,
        "total": 2335
      },
      {
        "club_badge_src": null,
        "entry": 10091,
        "entry_name": "Ayr United",
        "event_total": 41,
        "has_played": true,
        "id": 59575,
        "last_rank": 51403,
        "player_name": "Ryan Clarke",
        "rank": 79844,
        "rank_sort": 79847,
        "total": 2335
      },
      {
        "club_badge_src": null,
        "entry": 11841,
        "entry_name": "ShouldersKnees&Toney",
        "event_total": 55,
        "has_played": true,
        "id": 70579,
        "last_rank": 77050,
        "player_name": "Liam Smith",
        "rank": 79844,
        "rank_sort": 79848,
        "total": 2335
      },
      {
        "club_badge_src": null,
        "entry": 12861,
        "entry_name": "The Florian Rush",
        "event_total": 50,
        "has_played": true,
        "id": 77381,
        "last_rank": 66848,
        "player_name": "Dennis Ernst",
        "rank": 79844,
        "rank_sort": 79849,
        "total": 2335
      },
      {
        "club_badge_src": null,
        "entry": 15014,
        "entry_name": "Jose\u2019s Bus Drivers",
        "event_total": 67,
        "has_played": true,
        "id": 91778,
        "last_rank": 106259,
        "player_name": "George Owen",
        "rank": 79844,
        "rank_sort": 79850,
        "total": 2335
      }
    ]
  }
}