{
  "last_updated_data": "2026-05-24T23:28:17Z",
  "league": {
    "admin_entry": null,
    "closed": false,
    "code_privacy": "p",
    "created": "2025-07-20T23:14:33.933835Z",
    "cup_league": 2815434,
    "has_cup": true,
    "id": 314,
    "league_type": "s",
    "max_entries": null,
    "name": "Overall",
    "rank": null,
    "scoring": "c",
    "start_event": 1
  },
  "new_entries": {
    "has_next": false,
    "page": 1,
    "results": []
  },
  "standings": {
    "has_next": true,
    "page": 13,
    "results": [
      {
        "club_badge_src": null,
        "entry": 8077152,
        "entry_name": "Go Team Goh!",
        "event_total": 49,
        "has_played": true,
        "id": 66588291,
        "last_rank": 328,
        "player_name": "Kelly Goh",
        "rank": 592,
        "rank_sort": 601,
        "total": 2458
      },
      {
        "club_badge_src": "https://fantasy.premierleague.com/gcs/plfpl-production-adobe-approved/plfpl-production/4842/952c3cca-421b-4380-8ec2-25daa2685a2a.png",
        "entry": 4842,
        "entry_name": "No Haaland Life Brev",
        "event_total": 67,
        "has_played": true,
        "id": 27554,
        "last_rank": 896,
        "player_name": "Mark Merilai",
        "rank": 602,
        "rank_sort": 602,
        "total": 2458
      },
      {
        "club_badge_src": null,
        "entry": 18202,
        "entry_name": "It's Clobberin' Time",
        "event_total": 53,
        "has_played": true,
        "id": 113174,
        "last_rank": 401,
        "player_name": "Tomasz Libner",
        "rank": 602,
        "rank_sort": 603,
        "total": 2458
      },
      {
        "club_badge_src": "https://fantasy.premierleague.com/gcs/plfpl-production-adobe-approved/plfpl-production/46871/b6b19f89-7297-4024-92a4-f26564f90644.png",
        "entry": 46871,
        "entry_name": "migmadafak",
        "event_total": 55,
        "has_played": true,
        "id": 300481,
        "last_rank": 464,
        "player_name": "udomsap poolsawasdi",
        "rank": 602,
        "rank_sort": 604,
        "total": 2458
      },
      {
        "club_badge_src": null,
        "entry": 63714,
        "entry_name": "Gunners IS",
        "event_total": 51,
        "has_played": true,
        "id": 411148,
        "last_rank": 289,
        "player_name": "Anton Dahlstr\u00f6m",
        "rank": 602,
        "rank_sort": 605,
        "total": 2458
      },
      {
        "club_badge_src": "https://fantasy.premierleague.com/gcs/plfpl-production-adobe-approved/plfpl-production/90481/8eff7e2d-91a6-485f-bafa-bfa1e0ca08f6.png",
        "entry": 90481,
        "entry_name": "Son Perignon",
        "event_total": 68,
        "has_played": true,
        "id": 590747,
        "last_rank": 944,
        "player_name": "Rushil Joshi",
        "rank": 602,
        "rank_sort": 606,
        "total": 2458
      },
      {
        "club_badge_src": "https://fantasy.premierleague.com/gcs/plfpl-production-adobe-approved/plfpl-production/261446/ba7538f2-118e-4dad-aa54-6007a8e0a4d7.png",
        "entry": 261446,
        "entry_name": "Isak the ripper",
        "event_total": 68,
        "has_played": true,
        "id": 1737995,
        "last_rank": 951,
        "player_name": "Liam Fisher",
        "rank": 602,
        "rank_sort": 607,
        "total": 2458
      },
      {
        "club_badge_src": null,
        "entry": 301575,
        "entry_name": "Str\u00f8ms\u00f8Aassen Faller",
        "event_total": 72,
        "has_played": true,
        "id": 2017748,
        "last_rank": 1130,
        "player_name": "Patrick Derbakk",
        "rank": 602,
        "rank_sort": 608,
        "total": 2458
      },
      {
        "club_badge_src": null,
        "entry": 332654,
        "entry_name": "ARTTIS",
        "event_total": 64,
        "has_played": true,
        "id": 2227957,
        "last_rank": 762,
        "player_name": "KR7 ARTTIS",
        "rank": 602,
        "rank_sort": 609,
        "total": 2458
      },
      {
        "club_badge_src": "https://fantasy.premierleague.com/gcs/plfpl-production-adobe-approved/plfpl-production/660655/6121058e-e593-443e-8383-54cf166a44a9.png",
        "entry": 660655,
        "entry_name": "RKXI",
        "event_total": 60,
        "has_played": true,
        "id": 4465021,
        "last_rank": 605,
        "player_name": "R K",
        "rank": 602,
        "rank_sort": 610,
        "total": 2458
      },
      {
        "club_badge_src": null,
        "entry": 2672310,
        "entry_name": "Invincibles",
        "event_total": 62,
        "has_played": true,
        "id": 19213544,
        "last_rank": 660,
        "player_name": "Patrick Halvorsen Tolgensbakk",
        "rank": 602,
        "rank_sort": 611,
        "total": 2458
      },
      {
        "club_badge_src": null,
        "entry": 4810529,
        "entry_name": "Tiger24",
        "event_total": 56,
        "has_played": true,
        "id": 37040624,
        "last_rank": 390,
        "player_name": "Supalerk Trakaittikul",
        "rank": 602,
        "rank_sort": 612,
        "total": 2458
      },
      {
        "club_badge_src": null,
        "entry": 5476047,
        "entry_name": "Saka Potatoes",
        "event_total": 67,
        "has_played": true,
        "id": 42630369,
        "last_rank": 896,
        "player_name": "Cam Nott",
        "rank": 602,
        "rank_sort": 613,
        "total": 2458
      },
      {
        "club_badge_src": null,
        "entry": 954152,
        "entry_name": "Blink1Etoo",
        "event_total": 77,
        "has_played": true,
        "id": 6574129,
        "last_rank": 1465,
        "player_name": "Konrad Konstantynowicz",
        "rank": 614,
        "rank_sort": 614,
        "total": 2458
      },
      {
        "club_badge_src": null,
        "entry": 9471033,
        "entry_name": "St Lukes Youth Group",
        "event_total": 48,
        "has_played": true,
        "id": 80040961,
        "last_rank": 319,
        "player_name": "Rob Smyth",
        "rank": 614,
        "rank_sort": 615,
        "total": 2458
      },
      {
        "club_badge_src": null,
        "entry": 4684167,
        "entry_name": "Pain in Dias",
        "event_total": 67,
        "has_played": true,
        "id": 35895819,
        "last_rank": 904,
        "player_name": "Will Cross",
        "rank": 616,
        "rank_sort": 616,
        "total": 2458
      },
      {
        "club_badge_src": null,
        "entry": 295281,
        "entry_name": "Scarlet blue Rash",
        "event_total": 56,
        "has_played": true,
        "id": 1972203,
        "last_rank": 493,
        "player_name": "Pascal Chaisemartin",
        "rank": 617,
        "rank_sort": 617,
        "total": 2458
      },
      {
        "club_badge_src": null,
        "entry": 6022874,
        "entry_name": "MKM25",
        "event_total": 57,
        "has_played": true,
        "id": 47502709,
        "last_rank": 420,
        "player_name": "Mashan Alkhudhair",
        "rank": 617,
        "rank_sort": 618,
        "total": 2458
      },
      {
        "club_badge_src": null,
        "entry": 238004,
        "entry_name": "PocketRockets FC",
        "event_total": 69,
        "has_played": true,
        "id": 1583427,
        "last_rank": 1021,
        "player_name": "Avid D souza",
        "rank": 619,
        "rank_sort": 619,
        "total": 2457
      },
      {
        "club_badge_src": null,
        "entry": 58005,
        "entry_name": "SKM\u5175\u5de5\u5ee0",
        "event_total": 73,
        "has_played": true,
        "id": 373679,
        "last_rank": 1240,
        "player_name": "Henry Lam",
        "rank": 620,
        "rank_sort": 620,
        "total": 2457
      },
      {
        "club_badge_src": null,
        "entry": 108001,
        "entry_name": "Cheese Toastie",
        "event_total": 71,
        "has_played": true,
        "id": 704152,
        "last_rank": 1121,
        "player_name": "Luke Wilkes",
        "rank": 620,
        "rank_sort": 621,
        "total": 2457
      },
      {
        "club_badge_src": "https://fantasy.premierleague.com/gcs/plfpl-production-adobe-approved/plfpl-production/368528/8aeb8019-4529-4dfc-8a0e-f77262e03456.png",
        "entry": 368528,
        "entry_name": "Sempty",
        "event_total": 50,
        "has_played": true,
        "id": 2466203,
        "last_rank": 364,
        "player_name": "Steve Tersigni",
        "rank": 620,
        "rank_sort": 622,
        "total": 2457
      },
      {
        "club_badge_src": "https://fantasy.premierleague.com/gcs/plfpl-production-adobe-approved/plfpl-production/1040253/f017c1f0-0888-44d1-ac47-ccead4b5ec86.png",
        "entry": 1040253,
        "entry_name": "bronny the goat",
        "event_total": 61,
        "has_played": true,
        "id": 7198857,
        "last_rank": 660,
        "player_name": "Bobby Hickson",
        "rank": 620,
        "rank_sort": 623,
        "total": 2457
      },
      {
        "club_badge_src": "https://fantasy.premierleague.com/gcs/plfpl-production-adobe-approved/plfpl-production/4036601/45b02922-5062-441d-8cb8-fa394b241aff.png",
        "entry": 4036601,
        "entry_name": "Cole'd As Ice",
        "event_total": 62,
        "has_played": true,
        "id": 30437670,
        "last_rank": 710,
        "player_name": "Nicholas Halfhide",
        "rank": 620,
        "rank_sort": 624,
        "total": 2457
      },
      {
        "club_badge_src": "https://fantasy.premierleague.com/gcs/plfpl-production-adobe-approved/plfpl-production/4747019/ee93cba6-ff9e-4bfe-8eb3-987f7db1b8bf.png",
        "entry": 4747019,
        "entry_name": "Muhammad Shaxawan",
        "event_total": 68,
        "has_played": true,
        "id": 36526364,
        "last_rank": 980,
        "player_name": "Admin Kurdish Fantasy PL",
        "rank": 620,
        "rank_sort": 625,
        "total": 2457
      },
      {
        "club_badge_src": null,
        "entry": 4957362,
        "entry_name": "D Konqueror!",
        "event_total": 61,
        "has_played": true,
        "id": 38254311,
        "last_rank": 665,
        "player_name": "Bolaji Abdulraheem",
        "rank": 620,
        "rank_sort": 626,
        "total": 2457
      },
      {
        "club_badge_src": null,
        "entry": 5170791,
        "entry_name": "STARRCADE",
        "event_total": 72,
        "has_played": true,
        "id": 40019355,
        "last_rank": 1190,
        "player_name": "Fredderick Bell",
        "rank": 620,
        "rank_sort": 627,
        "total": 2457
      },
      {
        "club_badge_src": "https://fantasy.premierleague.com/gcs/plfpl-production-adobe-approved/plfpl-production/87192/e471269e-12ba-4445-a9af-5ec97d1cfaaf.png",
        "entry": 87192,
        "entry_name": "MeoCantelope",
        "event_total": 72,
        "has_played": true,
        "id": 568525,
        "last_rank": 1190,
        "player_name": "Dzung Pham",
        "rank": 628,
        "rank_sort": 628,
        "total": 2457
      },
      {
        "club_badge_src": null,
        "entry": 629574,
        "entry_name": "Wombleton",
        "event_total": 58,
        "has_played": true,
        "id": 4254292,
        "last_rank": 456,
        "player_name": "Filipe Abreu",
        "rank": 628,
        "rank_sort": 629,
        "total": 2457
      },
      {
        "club_badge_src": null,
        "entry": 3280996,
        "entry_name": "Pedrottinaikos",
        "event_total": 58,
        "has_played": true,
        "id": 24285060,
        "last_rank": 573,
        "player_name": "Matteo Pedrotti",
        "rank": 628,
        "rank_sort": 630,
        "total": 2457
      },
      {
        "club_badge_src": null,
        "entry": 6329109,
        "entry_name": "K\u2019Marsh Dynamos",
        "event_total": 61,
        "has_played": true,
        "id": 50291954,
        "last_rank": 531,
        "player_name": "Sam Haines",
        "rank": 628,
        "rank_sort": 631,
        "total": 2457
      },
      {
        "club_badge_src": "https://fantasy.premierleague.com/gcs/plfpl-production-adobe-approved/plfpl-production/213845/86a1018d-3689-4b22-98d0-273702dfb083.png",
        "entry": 213845,
        "entry_name": "Waaped",
        "event_total": 73,
        "has_played": true,
        "id": 1422584,
        "last_rank": 1045,
        "player_name": "Rubaiyat Wahab",
        "rank": 632,
        "rank_sort": 632,
        "total": 2457
      },
      {
        "club_badge_src": null,
        "entry": 1473948,
        "entry_name": "3laaZidan 3Z",
        "event_total": 54,
        "has_played": true,
        "id": 10274289,
        "last_rank": 372,
        "player_name": "3laa Zidan",
        "rank": 632,
        "rank_sort": 633,
        "total": 2457
      },
      {
        "club_badge_src": null,
        "entry": 6382673,
        "entry_name": "Game of Throw Inns",
        "event_total": 68,
        "has_played": true,
        "id": 50766601,
        "last_rank": 802,
        "player_name": "Keith Wilmoth",
        "rank": 632,
        "rank_sort": 634,
        "total": 2457
      },
      {
        "club_badge_src": null,
        "entry": 7116015,
        "entry_name": "BayerNeverlusen",
        "event_total": 63,
        "has_played": true,
        "id": 57329298,
        "last_rank": 609,
        "player_name": "James Evans",
        "rank": 635,
        "rank_sort": 635,
        "total": 2457
      },
      {
        "club_badge_src": null,
        "entry": 421227,
        "entry_name": "Inter MiTown XVII",
        "event_total": 68,
        "has_played": true,
        "id": 2822877,
        "last_rank": 1011,
        "player_name": "Simon Hellewell",
        "rank": 636,
        "rank_sort": 636,
        "total": 2457
      },
      {
        "club_badge_src": "https://fantasy.premierleague.com/gcs/plfpl-production-adobe-approved/plfpl-production/595767/f2a20842-cdcd-494b-b71d-780fd3c79d5e.png",
        "entry": 595767,
        "entry_name": "Blue Ballers",
        "event_total": 64,
        "has_played": true,
        "id": 4016525,
        "last_rank": 809,
        "player_name": "Ben Mason",
        "rank": 637,
        "rank_sort": 637,
        "total": 2457
      },
      {
        "club_badge_src": null,
        "entry": 636160,
        "entry_name": "FC Bersant",
        "event_total": 42,
        "has_played": true,
        "id": 4299369,
        "last_rank": 186,
        "player_name": "Oscar Teilman",
        "rank": 637,
        "rank_sort": 638,
        "total": 2457
      },
      {
        "club_badge_src": null,
        "entry": 368254,
        "entry_name": "Infinity FC",
        "event_total": 64,
        "has_played": true,
        "id": 2464351,
        "last_rank": 650,
        "player_name": "Joseph Kago",
        "rank": 639,
        "rank_sort": 639,
        "total": 2457
      },
      {
        "club_badge_src": null,
        "entry": 7971013,
        "entry_name": "Mubarak",
        "event_total": 66,
        "has_played": true,
        "id": 65627362,
        "last_rank": 470,
        "player_name": "Mubarak Alajmi",
        "rank": 640,
        "rank_sort": 640,
        "total": 2457
      },
      {
        "club_badge_src": null,
        "entry": 132403,
        "entry_name": "threelittlebirds",
        "event_total": 68,
        "has_played": true,
        "id": 862480,
        "last_rank": 813,
        "player_name": "Padraig Kearney",
        "rank": 641,
        "rank_sort": 641,
        "total": 2457
      },
      {
        "club_badge_src": null,
        "entry": 8614234,
        "entry_name": "Cherry B",
        "event_total": 68,
        "has_played": true,
        "id": 71735235,
        "last_rank": 1017,
        "player_name": "Robert Burnand",
        "rank": 642,
        "rank_sort": 642,
        "total": 2456
      },
      {
        "club_badge_src": null,
        "entry": 38073,
        "entry_name": "Arteta's Tricky Reds",
        "event_total": 60,
        "has_played": true,
        "id": 243998,
        "last_rank": 653,
        "player_name": "Victor Nip",
        "rank": 643,
        "rank_sort": 643,
        "total": 2456
      },
      {
        "club_badge_src": "https://fantasy.premierleague.com/gcs/plfpl-production-adobe-approved/plfpl-production/296614/a87e02cd-7d6c-4c22-9c28-0f27129d8c79.png",
        "entry": 296614,
        "entry_name": "Struijk of Genius",
        "event_total": 62,
        "has_played": true,
        "id": 1981932,
        "last_rank": 743,
        "player_name": "Bj\u00f8rnar Sparb",
        "rank": 644,
        "rank_sort": 644,
        "total": 2456
      },
      {
        "club_badge_src": null,
        "entry": 2983196,
        "entry_name": "SuperSub",
        "event_total": 58,
        "has_played": true,
        "id": 21934494,
        "last_rank": 594,
        "player_name": "Pete Wilkins",
        "rank": 644,
        "rank_sort": 645,
        "total": 2456
      },
      {
        "club_badge_src": null,
        "entry": 3697183,
        "entry_name": "Ctrl + Alt + De Ligt",
        "event_total": 63,
        "has_played": true,
        "id": 27583771,
        "last_rank": 782,
        "player_name": "Sam Thorpe",
        "rank": 644,
        "rank_sort": 646,
        "total": 2456
      },
      {
        "club_badge_src": null,
        "entry": 37423,
        "entry_name": "Zubi One Kenobi",
        "event_total": 65,
        "has_played": true,
        "id": 239709,
        "last_rank": 879,
        "player_name": "Emmett OShea",
        "rank": 647,
        "rank_sort": 647,
        "total": 2456
      },
      {
        "club_badge_src": null,
        "entry": 58709,
        "entry_name": "Aaron Chen",
        "event_total": 75,
        "has_played": true,
        "id": 378125,
        "last_rank": 1438,
        "player_name": "Finley Powditch",
        "rank": 647,
        "rank_sort": 648,
        "total": 2456
      },
      {
        "club_badge_src": "https://fantasy.premierleague.com/gcs/plfpl-production-adobe-approved/plfpl-production/152452/89a2148e-dc5a-42d2-88b1-e5aa2284431f.png",
        "entry": 152452,
        "entry_name": "Tryme",
        "event_total": 59,
        "has_played": true,
        "id": 1000607,
        "last_rank": 626,
        "player_name": "Nutdanai Kaewdee",
        "rank": 647,
        "rank_sort": 649,
        "total": 2456
      },
      {
        "club_badge_src": null,
        "entry": 195213,
        "entry_name": "Hernani FC",
        "event_total": 65,
        "has_played": true,
        "id": 1294458,
        "last_rank": 870,
        "player_name": "Diogo Casaca",
        "rank": 647,
        "rank_sort": 650,
        "total": 2456
      }
    ]
  }
}