{
  "last_updated_data": "2026-05-24T23:28:17Z",
  "league": {
    "admin_entry": null,
    "closed": false,
    "code_privacy": "p",
    "created": "2025-07-20T23:14:33.933835Z",
    "cup_league": 2815434,
    "has_cup": true,
    "id": 314,
    "league_type": "s",
    "max_entries": null,
    "name": "Overall",
    "rank": null,
    "scoring": "c",
    "start_event": 1
  },
  "new_entries": {
    "has_next": false,
    "page": 1,
    "results": []
  },
  "standings": {
    "has_next": true,
    "page": 1089,
    "results": [
      {
        "club_badge_src": null,
        "entry": 681476,
        "entry_name": "Ingatestone FC",
        "event_total": 59,
        "has_played": true,
        "id": 4611900,
        "last_rank": 51220,
        "player_name": "Chris Cullen",
        "rank": 54315,
        "rank_sort": 54401,
        "total": 2349
      },
      {
        "club_badge_src": null,
        "entry": 694823,
        "entry_name": "The Redeem team",
        "event_total": 68,
        "has_played": true,
        "id": 4705967,
        "last_rank": 75139,
        "player_name": "Lee Bradford",
        "rank": 54315,
        "rank_sort": 54402,
        "total": 2349
      },
      {
        "club_badge_src": "https://fantasy.premierleague.com/gcs/plfpl-production-adobe-approved/plfpl-production/717581/819145ef-9989-4d9a-a8e2-a5ac7698ea55.png",
        "entry": 717581,
        "entry_name": "Silesia Szymanow",
        "event_total": 51,
        "has_played": true,
        "id": 4868990,
        "last_rank": 45416,
        "player_name": "Bart Ek",
        "rank": 54315,
        "rank_sort": 54403,
        "total": 2349
      },
      {
        "club_badge_src": null,
        "entry": 722716,
        "entry_name": "Holy Boehly",
        "event_total": 63,
        "has_played": true,
        "id": 4908401,
        "last_rank": 64830,
        "player_name": "Gio Ong",
        "rank": 54315,
        "rank_sort": 54404,
        "total": 2349
      },
      {
        "club_badge_src": "https://fantasy.premierleague.com/gcs/plfpl-production-adobe-approved/plfpl-production/723578/7c862ff0-b0b2-4f53-a8d6-7d146ec0f13e.png",
        "entry": 723578,
        "entry_name": "Dan James In Flames",
        "event_total": 57,
        "has_played": true,
        "id": 4914322,
        "last_rank": 55014,
        "player_name": "Joar Nykvist",
        "rank": 54315,
        "rank_sort": 54405,
        "total": 2349
      },
      {
        "club_badge_src": null,
        "entry": 726420,
        "entry_name": "Mostafa Khaled",
        "event_total": 46,
        "has_played": true,
        "id": 4934566,
        "last_rank": 39023,
        "player_name": "Mostafa Khaled",
        "rank": 54315,
        "rank_sort": 54406,
        "total": 2349
      },
      {
        "club_badge_src": null,
        "entry": 776326,
        "entry_name": "Sam's United",
        "event_total": 68,
        "has_played": true,
        "id": 5296999,
        "last_rank": 67063,
        "player_name": "Desmond Sam Dhivyanathan",
        "rank": 54315,
        "rank_sort": 54407,
        "total": 2349
      },
      {
        "club_badge_src": "https://fantasy.premierleague.com/gcs/plfpl-production-adobe-approved/plfpl-production/787145/58486b58-11bb-40fd-8a71-a5fb968793bc.png",
        "entry": 787145,
        "entry_name": "Magic Wanderers",
        "event_total": 37,
        "has_played": true,
        "id": 5381068,
        "last_rank": 28906,
        "player_name": "Tom d'Ardenne",
        "rank": 54315,
        "rank_sort": 54408,
        "total": 2349
      },
      {
        "club_badge_src": null,
        "entry": 829930,
        "entry_name": "SPFC",
        "event_total": 68,
        "has_played": true,
        "id": 5684578,
        "last_rank": 67063,
        "player_name": "Sagar Pandit",
        "rank": 54315,
        "rank_sort": 54409,
        "total": 2349
      },
      {
        "club_badge_src": null,
        "entry": 851953,
        "entry_name": "I miss Her",
        "event_total": 54,
        "has_played": true,
        "id": 5839641,
        "last_rank": 50468,
        "player_name": "Christopher Nwoke",
        "rank": 54315,
        "rank_sort": 54410,
        "total": 2349
      },
      {
        "club_badge_src": null,
        "entry": 885467,
        "entry_name": "TNT",
        "event_total": 58,
        "has_played": true,
        "id": 6072862,
        "last_rank": 56708,
        "player_name": "Amr Tantawy",
        "rank": 54315,
        "rank_sort": 54411,
        "total": 2349
      },
      {
        "club_badge_src": "https://fantasy.premierleague.com/gcs/plfpl-production-adobe-approved/plfpl-production/888120/4f3d8b1d-51b1-425a-aced-114fd9e62871.png",
        "entry": 888120,
        "entry_name": "Heavy Manners",
        "event_total": 59,
        "has_played": true,
        "id": 6091522,
        "last_rank": 58071,
        "player_name": "Lars Rognlien",
        "rank": 54315,
        "rank_sort": 54412,
        "total": 2349
      },
      {
        "club_badge_src": null,
        "entry": 911780,
        "entry_name": "Schlupptown Dunk",
        "event_total": 61,
        "has_played": true,
        "id": 6269304,
        "last_rank": 54667,
        "player_name": "Terry Sweetman",
        "rank": 54315,
        "rank_sort": 54413,
        "total": 2349
      },
      {
        "club_badge_src": "https://fantasy.premierleague.com/gcs/plfpl-production-adobe-approved/plfpl-production/921304/af2bfb26-8bac-43ca-9948-7b65fc2571a9.png",
        "entry": 921304,
        "entry_name": "More Tea Vicario?",
        "event_total": 65,
        "has_played": true,
        "id": 6336072,
        "last_rank": 61606,
        "player_name": "Gareth Davies",
        "rank": 54315,
        "rank_sort": 54414,
        "total": 2349
      },
      {
        "club_badge_src": null,
        "entry": 946715,
        "entry_name": "Rylane Celtic FC",
        "event_total": 60,
        "has_played": true,
        "id": 6520714,
        "last_rank": 59813,
        "player_name": "S\u00e9amus Murphy",
        "rank": 54315,
        "rank_sort": 54415,
        "total": 2349
      },
      {
        "club_badge_src": null,
        "entry": 969441,
        "entry_name": "Lancashire Rover",
        "event_total": 62,
        "has_played": true,
        "id": 6681623,
        "last_rank": 63201,
        "player_name": "cameron craigie",
        "rank": 54315,
        "rank_sort": 54416,
        "total": 2349
      },
      {
        "club_badge_src": null,
        "entry": 994414,
        "entry_name": "Jazzy Jeff FC",
        "event_total": 61,
        "has_played": true,
        "id": 6861409,
        "last_rank": 61950,
        "player_name": "Jeffrey Atta-Senyah",
        "rank": 54315,
        "rank_sort": 54417,
        "total": 2349
      },
      {
        "club_badge_src": null,
        "entry": 1000582,
        "entry_name": "Cunha Handle This",
        "event_total": 63,
        "has_played": true,
        "id": 6916564,
        "last_rank": 57776,
        "player_name": "Anthony Truong",
        "rank": 54315,
        "rank_sort": 54418,
        "total": 2349
      },
      {
        "club_badge_src": "https://fantasy.premierleague.com/gcs/plfpl-production-adobe-approved/plfpl-production/1006799/2095fb1a-5f82-4032-ad19-27a336b36f45.png",
        "entry": 1006799,
        "entry_name": "J Public",
        "event_total": 61,
        "has_played": true,
        "id": 6960395,
        "last_rank": 48197,
        "player_name": "Joshua Rwanyange",
        "rank": 54315,
        "rank_sort": 54419,
        "total": 2349
      },
      {
        "club_badge_src": "https://fantasy.premierleague.com/gcs/plfpl-production-adobe-approved/plfpl-production/1054300/d872abb8-d6c8-4bee-8af3-dd6a3e44418c.png",
        "entry": 1054300,
        "entry_name": "AbouZahra",
        "event_total": 33,
        "has_played": true,
        "id": 7296540,
        "last_rank": 25172,
        "player_name": "ahmed abouzahra",
        "rank": 54315,
        "rank_sort": 54420,
        "total": 2349
      },
      {
        "club_badge_src": null,
        "entry": 1102142,
        "entry_name": "Earth Wind & Maguire",
        "event_total": 38,
        "has_played": true,
        "id": 7634276,
        "last_rank": 29904,
        "player_name": "John Sullivan",
        "rank": 54315,
        "rank_sort": 54421,
        "total": 2349
      },
      {
        "club_badge_src": null,
        "entry": 1106486,
        "entry_name": "TickTokTimez",
        "event_total": 50,
        "has_played": true,
        "id": 7664322,
        "last_rank": 43786,
        "player_name": "Nippich Panya",
        "rank": 54315,
        "rank_sort": 54422,
        "total": 2349
      },
      {
        "club_badge_src": null,
        "entry": 1110240,
        "entry_name": "kbish",
        "event_total": 61,
        "has_played": true,
        "id": 7690634,
        "last_rank": 61950,
        "player_name": "Kyle Bishop",
        "rank": 54315,
        "rank_sort": 54423,
        "total": 2349
      },
      {
        "club_badge_src": null,
        "entry": 1176087,
        "entry_name": "Big Dunc'in Donuts",
        "event_total": 50,
        "has_played": true,
        "id": 8160231,
        "last_rank": 38774,
        "player_name": "chris meddins",
        "rank": 54315,
        "rank_sort": 54424,
        "total": 2349
      },
      {
        "club_badge_src": null,
        "entry": 1180254,
        "entry_name": "Palmer to glory",
        "event_total": 50,
        "has_played": true,
        "id": 8189024,
        "last_rank": 44048,
        "player_name": "Stan Van Der Steichel",
        "rank": 54315,
        "rank_sort": 54425,
        "total": 2349
      },
      {
        "club_badge_src": null,
        "entry": 1288088,
        "entry_name": "Set Piece FC",
        "event_total": 72,
        "has_played": true,
        "id": 8950672,
        "last_rank": 84360,
        "player_name": "Joe Shaw",
        "rank": 54315,
        "rank_sort": 54426,
        "total": 2349
      },
      {
        "club_badge_src": null,
        "entry": 1288816,
        "entry_name": "Manic Miners",
        "event_total": 66,
        "has_played": true,
        "id": 8955717,
        "last_rank": 70985,
        "player_name": "Matt Howard",
        "rank": 54315,
        "rank_sort": 54427,
        "total": 2349
      },
      {
        "club_badge_src": "https://fantasy.premierleague.com/gcs/plfpl-production-adobe-approved/plfpl-production/1339694/4649e2aa-da1e-495d-9147-4e479504f0b7.png",
        "entry": 1339694,
        "entry_name": "How You Get The Goal",
        "event_total": 55,
        "has_played": true,
        "id": 9314272,
        "last_rank": 45416,
        "player_name": "Lily Cranfield",
        "rank": 54315,
        "rank_sort": 54428,
        "total": 2349
      },
      {
        "club_badge_src": null,
        "entry": 1393970,
        "entry_name": "Frim-Ping-Pong",
        "event_total": 57,
        "has_played": true,
        "id": 9697633,
        "last_rank": 54667,
        "player_name": "Axel Fornasari",
        "rank": 54315,
        "rank_sort": 54429,
        "total": 2349
      },
      {
        "club_badge_src": "https://fantasy.premierleague.com/gcs/plfpl-production-adobe-approved/plfpl-production/1420177/8acb6ae0-e619-459f-8e4f-2188483e7d9f.png",
        "entry": 1420177,
        "entry_name": "Brutalmente CF",
        "event_total": 37,
        "has_played": true,
        "id": 9888527,
        "last_rank": 28906,
        "player_name": "Antti Rautava",
        "rank": 54315,
        "rank_sort": 54430,
        "total": 2349
      },
      {
        "club_badge_src": null,
        "entry": 1465895,
        "entry_name": "Reece\u2019s Pieces",
        "event_total": 49,
        "has_played": true,
        "id": 10217961,
        "last_rank": 42506,
        "player_name": "Michael Sheldon",
        "rank": 54315,
        "rank_sort": 54431,
        "total": 2349
      },
      {
        "club_badge_src": null,
        "entry": 1481480,
        "entry_name": "Zabaletabox",
        "event_total": 50,
        "has_played": true,
        "id": 10330596,
        "last_rank": 44303,
        "player_name": "Dan Chatwin",
        "rank": 54315,
        "rank_sort": 54432,
        "total": 2349
      },
      {
        "club_badge_src": null,
        "entry": 1484381,
        "entry_name": "Brinksy Boys",
        "event_total": 64,
        "has_played": true,
        "id": 10351112,
        "last_rank": 67063,
        "player_name": "Luca Brincat",
        "rank": 54315,
        "rank_sort": 54433,
        "total": 2349
      },
      {
        "club_badge_src": null,
        "entry": 1486889,
        "entry_name": "Red Devils\ufffd",
        "event_total": 61,
        "has_played": true,
        "id": 10368737,
        "last_rank": 61950,
        "player_name": "Martin Mokro\u0161",
        "rank": 54315,
        "rank_sort": 54434,
        "total": 2349
      },
      {
        "club_badge_src": "https://fantasy.premierleague.com/gcs/plfpl-production-adobe-approved/plfpl-production/1501558/2d15b913-d142-4ad7-a472-c512842262ce.png",
        "entry": 1501558,
        "entry_name": "Holy Boehly",
        "event_total": 54,
        "has_played": true,
        "id": 10471754,
        "last_rank": 43849,
        "player_name": "Chris Jones",
        "rank": 54315,
        "rank_sort": 54435,
        "total": 2349
      },
      {
        "club_badge_src": null,
        "entry": 1526754,
        "entry_name": "MAT",
        "event_total": 68,
        "has_played": true,
        "id": 10648765,
        "last_rank": 67063,
        "player_name": "Domagoj August",
        "rank": 54315,
        "rank_sort": 54436,
        "total": 2349
      },
      {
        "club_badge_src": null,
        "entry": 1527303,
        "entry_name": "AJR FC",
        "event_total": 46,
        "has_played": true,
        "id": 10652618,
        "last_rank": 38571,
        "player_name": "Adam Ramsdale",
        "rank": 54315,
        "rank_sort": 54437,
        "total": 2349
      },
      {
        "club_badge_src": "https://fantasy.premierleague.com/gcs/plfpl-production-adobe-approved/plfpl-production/1564988/6897cab4-4d65-41ea-a086-af3476014a65.png",
        "entry": 1564988,
        "entry_name": "Mighty Harps",
        "event_total": 43,
        "has_played": true,
        "id": 10932498,
        "last_rank": 35424,
        "player_name": "Declan McGrath",
        "rank": 54315,
        "rank_sort": 54438,
        "total": 2349
      },
      {
        "club_badge_src": null,
        "entry": 1594133,
        "entry_name": "GvardiolsOfTheGalaxy",
        "event_total": 44,
        "has_played": true,
        "id": 11150319,
        "last_rank": 31747,
        "player_name": "Sahil S",
        "rank": 54315,
        "rank_sort": 54439,
        "total": 2349
      },
      {
        "club_badge_src": null,
        "entry": 1620395,
        "entry_name": "Rice Rice Baby",
        "event_total": 58,
        "has_played": true,
        "id": 11339693,
        "last_rank": 56708,
        "player_name": "Michael Ehrenberg",
        "rank": 54315,
        "rank_sort": 54440,
        "total": 2349
      },
      {
        "club_badge_src": "https://fantasy.premierleague.com/gcs/plfpl-production-adobe-approved/plfpl-production/1636745/8cb4da9d-de3c-45cf-8ab6-fc6b9cdcbc0b.png",
        "entry": 1636745,
        "entry_name": "SexySlots",
        "event_total": 41,
        "has_played": true,
        "id": 11456543,
        "last_rank": 33332,
        "player_name": "Raph Colella",
        "rank": 54315,
        "rank_sort": 54441,
        "total": 2349
      },
      {
        "club_badge_src": null,
        "entry": 1686273,
        "entry_name": "Scooby_D00",
        "event_total": 68,
        "has_played": true,
        "id": 11804394,
        "last_rank": 66848,
        "player_name": "Andres Cubeddu",
        "rank": 54315,
        "rank_sort": 54442,
        "total": 2349
      },
      {
        "club_badge_src": null,
        "entry": 1698829,
        "entry_name": "Ctrl Alt De Ligt",
        "event_total": 76,
        "has_played": true,
        "id": 11899149,
        "last_rank": 93443,
        "player_name": "Ashvin Kristoff",
        "rank": 54315,
        "rank_sort": 54443,
        "total": 2349
      },
      {
        "club_badge_src": null,
        "entry": 1757984,
        "entry_name": "MKW FC",
        "event_total": 56,
        "has_played": true,
        "id": 12342426,
        "last_rank": 53345,
        "player_name": "Megat Khalyd Al-Walyd",
        "rank": 54315,
        "rank_sort": 54444,
        "total": 2349
      },
      {
        "club_badge_src": "https://fantasy.premierleague.com/gcs/plfpl-production-adobe-approved/plfpl-production/1760620/5a7d828b-99a9-43c4-96f5-b789334d2454.png",
        "entry": 1760620,
        "entry_name": "Rolomites",
        "event_total": 57,
        "has_played": true,
        "id": 12361458,
        "last_rank": 54667,
        "player_name": "Robin Loh",
        "rank": 54315,
        "rank_sort": 54445,
        "total": 2349
      },
      {
        "club_badge_src": null,
        "entry": 1773751,
        "entry_name": "Kelvinators",
        "event_total": 52,
        "has_played": true,
        "id": 12460488,
        "last_rank": 46839,
        "player_name": "Kelvin Buckner",
        "rank": 54315,
        "rank_sort": 54446,
        "total": 2349
      },
      {
        "club_badge_src": null,
        "entry": 1778611,
        "entry_name": "Gyolytely",
        "event_total": 60,
        "has_played": true,
        "id": 12495609,
        "last_rank": 59813,
        "player_name": "Tye Springer",
        "rank": 54315,
        "rank_sort": 54447,
        "total": 2349
      },
      {
        "club_badge_src": null,
        "entry": 1853261,
        "entry_name": "FC Humblings",
        "event_total": 75,
        "has_played": true,
        "id": 13041333,
        "last_rank": 90746,
        "player_name": "H BS",
        "rank": 54315,
        "rank_sort": 54448,
        "total": 2349
      },
      {
        "club_badge_src": null,
        "entry": 1905476,
        "entry_name": "Machine Gun Skelly",
        "event_total": 60,
        "has_played": true,
        "id": 13433097,
        "last_rank": 60462,
        "player_name": "Al Di Popolo",
        "rank": 54315,
        "rank_sort": 54449,
        "total": 2349
      },
      {
        "club_badge_src": null,
        "entry": 1919581,
        "entry_name": "Worsley's Wanderers",
        "event_total": 68,
        "has_played": true,
        "id": 13535846,
        "last_rank": 75537,
        "player_name": "Rob Worsley",
        "rank": 54315,
        "rank_sort": 54450,
        "total": 2349
      }
    ]
  }
}