{
  "last_updated_data": "2026-05-24T23:28:17Z",
  "league": {
    "admin_entry": null,
    "closed": false,
    "code_privacy": "p",
    "created": "2025-07-20T23:14:33.933835Z",
    "cup_league": 2815434,
    "has_cup": true,
    "id": 314,
    "league_type": "s",
    "max_entries": null,
    "name": "Overall",
    "rank": null,
    "scoring": "c",
    "start_event": 1
  },
  "new_entries": {
    "has_next": false,
    "page": 1,
    "results": []
  },
  "standings": {
    "has_next": true,
    "page": 480,
    "results": [
      {
        "club_badge_src": null,
        "entry": 5549683,
        "entry_name": "thegunners01",
        "event_total": 56,
        "has_played": true,
        "id": 43312640,
        "last_rank": 22685,
        "player_name": "Jon Bytyci",
        "rank": 23823,
        "rank_sort": 23951,
        "total": 2375
      },
      {
        "club_badge_src": null,
        "entry": 5699154,
        "entry_name": "Minamino Acid",
        "event_total": 37,
        "has_played": true,
        "id": 44620472,
        "last_rank": 10920,
        "player_name": "Ciaran Virk",
        "rank": 23823,
        "rank_sort": 23952,
        "total": 2375
      },
      {
        "club_badge_src": null,
        "entry": 5879586,
        "entry_name": "Ctrl Alt De Laet",
        "event_total": 66,
        "has_played": true,
        "id": 46183704,
        "last_rank": 31747,
        "player_name": "Aayush Sorathia",
        "rank": 23823,
        "rank_sort": 23953,
        "total": 2375
      },
      {
        "club_badge_src": null,
        "entry": 5962277,
        "entry_name": "Too Wood To Be True",
        "event_total": 69,
        "has_played": true,
        "id": 46907396,
        "last_rank": 30727,
        "player_name": "Jordan Meredith",
        "rank": 23823,
        "rank_sort": 23954,
        "total": 2375
      },
      {
        "club_badge_src": null,
        "entry": 5963750,
        "entry_name": "ConorDer/SideShowBob",
        "event_total": 44,
        "has_played": true,
        "id": 46920368,
        "last_rank": 14496,
        "player_name": "jack scannell",
        "rank": 23823,
        "rank_sort": 23955,
        "total": 2375
      },
      {
        "club_badge_src": null,
        "entry": 5978094,
        "entry_name": "Defensive attack",
        "event_total": 62,
        "has_played": true,
        "id": 47064449,
        "last_rank": 24143,
        "player_name": "tomer halaf",
        "rank": 23823,
        "rank_sort": 23956,
        "total": 2375
      },
      {
        "club_badge_src": null,
        "entry": 6260445,
        "entry_name": "Finding Timo",
        "event_total": 59,
        "has_played": true,
        "id": 49566003,
        "last_rank": 21677,
        "player_name": "Gary Kelly",
        "rank": 23823,
        "rank_sort": 23957,
        "total": 2375
      },
      {
        "club_badge_src": null,
        "entry": 6478339,
        "entry_name": "Sa",
        "event_total": 60,
        "has_played": true,
        "id": 51630104,
        "last_rank": 26088,
        "player_name": "Saleh AF",
        "rank": 23823,
        "rank_sort": 23958,
        "total": 2375
      },
      {
        "club_badge_src": null,
        "entry": 6810109,
        "entry_name": "Zubi zubi zubiiii",
        "event_total": 59,
        "has_played": true,
        "id": 54540158,
        "last_rank": 21677,
        "player_name": "Luke Coates",
        "rank": 23823,
        "rank_sort": 23959,
        "total": 2375
      },
      {
        "club_badge_src": null,
        "entry": 6899383,
        "entry_name": "Cutback and sides",
        "event_total": 52,
        "has_played": true,
        "id": 55299004,
        "last_rank": 19544,
        "player_name": "Colm McNicholas",
        "rank": 23823,
        "rank_sort": 23960,
        "total": 2375
      },
      {
        "club_badge_src": null,
        "entry": 6992595,
        "entry_name": "THEOSCORE HUTCHINS",
        "event_total": 85,
        "has_played": true,
        "id": 56134554,
        "last_rank": 57857,
        "player_name": "Theo Hutchins",
        "rank": 23823,
        "rank_sort": 23961,
        "total": 2375
      },
      {
        "club_badge_src": null,
        "entry": 7135195,
        "entry_name": "victorious chaps",
        "event_total": 66,
        "has_played": true,
        "id": 57510527,
        "last_rank": 31747,
        "player_name": "Viktor H\u00e5kansson",
        "rank": 23823,
        "rank_sort": 23962,
        "total": 2375
      },
      {
        "club_badge_src": null,
        "entry": 7149747,
        "entry_name": "VW TEAM",
        "event_total": 66,
        "has_played": true,
        "id": 57651314,
        "last_rank": 27770,
        "player_name": "Nikolas Zikakis",
        "rank": 23823,
        "rank_sort": 23963,
        "total": 2375
      },
      {
        "club_badge_src": null,
        "entry": 7503506,
        "entry_name": "Class on Grass",
        "event_total": 78,
        "has_played": true,
        "id": 61320702,
        "last_rank": 46591,
        "player_name": "Daniel Edge",
        "rank": 23823,
        "rank_sort": 23964,
        "total": 2375
      },
      {
        "club_badge_src": null,
        "entry": 7610692,
        "entry_name": "Rock n Roll Sarr",
        "event_total": 60,
        "has_played": true,
        "id": 62360982,
        "last_rank": 25776,
        "player_name": "Andrew Stewart",
        "rank": 23823,
        "rank_sort": 23965,
        "total": 2375
      },
      {
        "club_badge_src": null,
        "entry": 7725724,
        "entry_name": "Ha Land",
        "event_total": 62,
        "has_played": true,
        "id": 63402371,
        "last_rank": 27770,
        "player_name": "Martin Rayfield",
        "rank": 23823,
        "rank_sort": 23966,
        "total": 2375
      },
      {
        "club_badge_src": null,
        "entry": 7797941,
        "entry_name": "Flekken Unbelievable",
        "event_total": 58,
        "has_played": true,
        "id": 64054778,
        "last_rank": 24330,
        "player_name": "Alastair McGregor",
        "rank": 23823,
        "rank_sort": 23967,
        "total": 2375
      },
      {
        "club_badge_src": null,
        "entry": 7952860,
        "entry_name": "M7NK.",
        "event_total": 68,
        "has_played": true,
        "id": 65465059,
        "last_rank": 34051,
        "player_name": "Baesl 7",
        "rank": 23823,
        "rank_sort": 23968,
        "total": 2375
      },
      {
        "club_badge_src": null,
        "entry": 8037560,
        "entry_name": "Team No Werner",
        "event_total": 50,
        "has_played": true,
        "id": 66224766,
        "last_rank": 18113,
        "player_name": "Richie Rye",
        "rank": 23823,
        "rank_sort": 23969,
        "total": 2375
      },
      {
        "club_badge_src": "https://fantasy.premierleague.com/gcs/plfpl-production-adobe-approved/plfpl-production/8214435/54dfe582-56db-421b-996c-5d809769164b.png",
        "entry": 8214435,
        "entry_name": "Moneyball XI",
        "event_total": 56,
        "has_played": true,
        "id": 67877831,
        "last_rank": 22534,
        "player_name": "Didrik B\u00f8dtker",
        "rank": 23823,
        "rank_sort": 23970,
        "total": 2375
      },
      {
        "club_badge_src": null,
        "entry": 8228171,
        "entry_name": "Cruyffista",
        "event_total": 40,
        "has_played": true,
        "id": 68007538,
        "last_rank": 12322,
        "player_name": "Aseel Rasheed",
        "rank": 23823,
        "rank_sort": 23971,
        "total": 2375
      },
      {
        "club_badge_src": null,
        "entry": 8424598,
        "entry_name": "rnz",
        "event_total": 63,
        "has_played": true,
        "id": 69913052,
        "last_rank": 28906,
        "player_name": "ranjan gyawali",
        "rank": 23823,
        "rank_sort": 23972,
        "total": 2375
      },
      {
        "club_badge_src": null,
        "entry": 8507045,
        "entry_name": "Luke's XI",
        "event_total": 72,
        "has_played": true,
        "id": 70705796,
        "last_rank": 38571,
        "player_name": "Luke Keenan",
        "rank": 23823,
        "rank_sort": 23973,
        "total": 2375
      },
      {
        "club_badge_src": null,
        "entry": 8814933,
        "entry_name": "old man",
        "event_total": 58,
        "has_played": true,
        "id": 73688283,
        "last_rank": 24330,
        "player_name": "Simon Hayes",
        "rank": 23823,
        "rank_sort": 23974,
        "total": 2375
      },
      {
        "club_badge_src": "https://fantasy.premierleague.com/gcs/plfpl-production-adobe-approved/plfpl-production/9248892/589688a7-0e08-46b0-aa65-d90d44984eb0.png",
        "entry": 9248892,
        "entry_name": "Under my Cucurella",
        "event_total": 70,
        "has_played": true,
        "id": 77911752,
        "last_rank": 36624,
        "player_name": "Ketan Gahir",
        "rank": 23823,
        "rank_sort": 23975,
        "total": 2375
      },
      {
        "club_badge_src": null,
        "entry": 9335545,
        "entry_name": "Peterborough United",
        "event_total": 68,
        "has_played": true,
        "id": 78749042,
        "last_rank": 34051,
        "player_name": "Oscar Woodfield-Mills",
        "rank": 23823,
        "rank_sort": 23976,
        "total": 2375
      },
      {
        "club_badge_src": "https://fantasy.premierleague.com/gcs/plfpl-production-adobe-approved/plfpl-production/3035/343e9422-9f42-4a05-969f-5a807e0ed65d.png",
        "entry": 3035,
        "entry_name": "Baccal\u00e0",
        "event_total": 70,
        "has_played": true,
        "id": 17117,
        "last_rank": 36200,
        "player_name": "Daniel Perinetti",
        "rank": 23977,
        "rank_sort": 23977,
        "total": 2375
      },
      {
        "club_badge_src": "https://fantasy.premierleague.com/gcs/plfpl-production-adobe-approved/plfpl-production/6265/aaa8dab6-a451-4360-86eb-793701382458.png",
        "entry": 6265,
        "entry_name": "Aldershot Rejects",
        "event_total": 61,
        "has_played": true,
        "id": 35907,
        "last_rank": 27020,
        "player_name": "Andrew Potter",
        "rank": 23977,
        "rank_sort": 23978,
        "total": 2375
      },
      {
        "club_badge_src": "https://fantasy.premierleague.com/gcs/plfpl-production-adobe-approved/plfpl-production/7779/ec885e80-0481-474c-acb8-585e15fcd188.png",
        "entry": 7779,
        "entry_name": "TIFA'S",
        "event_total": 65,
        "has_played": true,
        "id": 44885,
        "last_rank": 27020,
        "player_name": "FPL -M-G",
        "rank": 23977,
        "rank_sort": 23979,
        "total": 2375
      },
      {
        "club_badge_src": null,
        "entry": 18995,
        "entry_name": "Rooty",
        "event_total": 63,
        "has_played": true,
        "id": 118219,
        "last_rank": 25172,
        "player_name": "Charlie Root",
        "rank": 23977,
        "rank_sort": 23980,
        "total": 2375
      },
      {
        "club_badge_src": null,
        "entry": 21124,
        "entry_name": "The Red Army",
        "event_total": 69,
        "has_played": true,
        "id": 132408,
        "last_rank": 35424,
        "player_name": "Mohammed Tajmal",
        "rank": 23977,
        "rank_sort": 23981,
        "total": 2375
      },
      {
        "club_badge_src": null,
        "entry": 43550,
        "entry_name": "It\u2019s Dalot of Cash!",
        "event_total": 41,
        "has_played": true,
        "id": 278905,
        "last_rank": 10920,
        "player_name": "Kevin Falk",
        "rank": 23977,
        "rank_sort": 23982,
        "total": 2375
      },
      {
        "club_badge_src": null,
        "entry": 44340,
        "entry_name": "PIPGIO",
        "event_total": 60,
        "has_played": true,
        "id": 284157,
        "last_rank": 22685,
        "player_name": "Gance Kov",
        "rank": 23977,
        "rank_sort": 23983,
        "total": 2375
      },
      {
        "club_badge_src": null,
        "entry": 49648,
        "entry_name": "Sean FC",
        "event_total": 70,
        "has_played": true,
        "id": 319158,
        "last_rank": 31995,
        "player_name": "Sean Megahy",
        "rank": 23977,
        "rank_sort": 23984,
        "total": 2375
      },
      {
        "club_badge_src": "https://fantasy.premierleague.com/gcs/plfpl-production-adobe-approved/plfpl-production/69725/2d5cc6cf-3bc9-402d-83cf-ec1d285bec55.png",
        "entry": 69725,
        "entry_name": "\u2606Sitthinanjung\u2606",
        "event_total": 68,
        "has_played": true,
        "id": 452433,
        "last_rank": 34051,
        "player_name": "Sitthinan Phuangjeen",
        "rank": 23977,
        "rank_sort": 23985,
        "total": 2375
      },
      {
        "club_badge_src": null,
        "entry": 72054,
        "entry_name": "RedDeveils FC",
        "event_total": 65,
        "has_played": true,
        "id": 468150,
        "last_rank": 27020,
        "player_name": "Free Palestine \ud83c\uddf5\ud83c\uddf8",
        "rank": 23977,
        "rank_sort": 23986,
        "total": 2375
      },
      {
        "club_badge_src": null,
        "entry": 75099,
        "entry_name": "Noni your business",
        "event_total": 70,
        "has_played": true,
        "id": 488260,
        "last_rank": 36348,
        "player_name": "Dylan Sinnott",
        "rank": 23977,
        "rank_sort": 23987,
        "total": 2375
      },
      {
        "club_badge_src": null,
        "entry": 78167,
        "entry_name": "AinaKleineNachtmusik",
        "event_total": 56,
        "has_played": true,
        "id": 508206,
        "last_rank": 22830,
        "player_name": "David Lewis",
        "rank": 23977,
        "rank_sort": 23988,
        "total": 2375
      },
      {
        "club_badge_src": null,
        "entry": 85743,
        "entry_name": "Frimpong Ping Pong",
        "event_total": 65,
        "has_played": true,
        "id": 558558,
        "last_rank": 31125,
        "player_name": "Matt Bogdanowicz",
        "rank": 23977,
        "rank_sort": 23989,
        "total": 2375
      },
      {
        "club_badge_src": null,
        "entry": 92124,
        "entry_name": "FC Magnifique",
        "event_total": 55,
        "has_played": true,
        "id": 601921,
        "last_rank": 18790,
        "player_name": "Michal Milowicz",
        "rank": 23977,
        "rank_sort": 23990,
        "total": 2375
      },
      {
        "club_badge_src": "https://fantasy.premierleague.com/gcs/plfpl-production-adobe-approved/plfpl-production/104314/3e12c778-c494-4d78-b9d5-5c7e7abd3b88.png",
        "entry": 104314,
        "entry_name": "Snuschester City",
        "event_total": 60,
        "has_played": true,
        "id": 680506,
        "last_rank": 26230,
        "player_name": "Jindra Proch\u00e1zka",
        "rank": 23977,
        "rank_sort": 23991,
        "total": 2375
      },
      {
        "club_badge_src": null,
        "entry": 131713,
        "entry_name": "Chelski",
        "event_total": 64,
        "has_played": true,
        "id": 858070,
        "last_rank": 29904,
        "player_name": "Jose Moronho",
        "rank": 23977,
        "rank_sort": 23992,
        "total": 2375
      },
      {
        "club_badge_src": "https://fantasy.premierleague.com/gcs/plfpl-production-adobe-approved/plfpl-production/146600/b48a5bea-e28f-4c22-8de2-8fa7c70105ac.png",
        "entry": 146600,
        "entry_name": "Lukey's Lads",
        "event_total": 60,
        "has_played": true,
        "id": 960524,
        "last_rank": 22685,
        "player_name": "Andy Luke",
        "rank": 23977,
        "rank_sort": 23993,
        "total": 2375
      },
      {
        "club_badge_src": null,
        "entry": 165286,
        "entry_name": "to var or not to var",
        "event_total": 58,
        "has_played": true,
        "id": 1091194,
        "last_rank": 24143,
        "player_name": "John Rogers",
        "rank": 23977,
        "rank_sort": 23994,
        "total": 2375
      },
      {
        "club_badge_src": null,
        "entry": 203629,
        "entry_name": "xGI Joes",
        "event_total": 54,
        "has_played": true,
        "id": 1352953,
        "last_rank": 21159,
        "player_name": "John Doering",
        "rank": 23977,
        "rank_sort": 23995,
        "total": 2375
      },
      {
        "club_badge_src": null,
        "entry": 210309,
        "entry_name": "Putedeluxe",
        "event_total": 82,
        "has_played": true,
        "id": 1398643,
        "last_rank": 53023,
        "player_name": "Guillaume Thibeault",
        "rank": 23977,
        "rank_sort": 23996,
        "total": 2375
      },
      {
        "club_badge_src": null,
        "entry": 228978,
        "entry_name": "no more mr rice kai",
        "event_total": 49,
        "has_played": true,
        "id": 1523406,
        "last_rank": 17718,
        "player_name": "Edward Lazarus",
        "rank": 23977,
        "rank_sort": 23997,
        "total": 2375
      },
      {
        "club_badge_src": null,
        "entry": 233317,
        "entry_name": "Shockers FC",
        "event_total": 70,
        "has_played": true,
        "id": 1552357,
        "last_rank": 36831,
        "player_name": "Barry Daniels",
        "rank": 23977,
        "rank_sort": 23998,
        "total": 2375
      },
      {
        "club_badge_src": null,
        "entry": 246043,
        "entry_name": "Relegations Battlers",
        "event_total": 56,
        "has_played": true,
        "id": 1638130,
        "last_rank": 22921,
        "player_name": "Paul Tollervey",
        "rank": 23977,
        "rank_sort": 23999,
        "total": 2375
      },
      {
        "club_badge_src": "https://fantasy.premierleague.com/gcs/plfpl-production-adobe-approved/plfpl-production/246691/1cdcb8ff-fa82-46aa-9f42-9644d2ec8523.png",
        "entry": 246691,
        "entry_name": "Madrid Made",
        "event_total": 60,
        "has_played": true,
        "id": 1642298,
        "last_rank": 26230,
        "player_name": "Butti Rashid",
        "rank": 23977,
        "rank_sort": 24000,
        "total": 2375
      }
    ]
  }
}