{
  "last_updated_data": "2026-05-24T23:28:17Z",
  "league": {
    "admin_entry": null,
    "closed": false,
    "code_privacy": "p",
    "created": "2025-07-20T23:14:33.933835Z",
    "cup_league": 2815434,
    "has_cup": true,
    "id": 314,
    "league_type": "s",
    "max_entries": null,
    "name": "Overall",
    "rank": null,
    "scoring": "c",
    "start_event": 1
  },
  "new_entries": {
    "has_next": false,
    "page": 1,
    "results": []
  },
  "standings": {
    "has_next": true,
    "page": 1143,
    "results": [
      {
        "club_badge_src": null,
        "entry": 1112254,
        "entry_name": "Sarr Wars",
        "event_total": 49,
        "has_played": true,
        "id": 7704469,
        "last_rank": 45182,
        "player_name": "Freddie Sullivan",
        "rank": 57090,
        "rank_sort": 57101,
        "total": 2347
      },
      {
        "club_badge_src": null,
        "entry": 1627493,
        "entry_name": "Juichen!",
        "event_total": 75,
        "has_played": true,
        "id": 11391555,
        "last_rank": 95420,
        "player_name": "Martin S",
        "rank": 57090,
        "rank_sort": 57102,
        "total": 2347
      },
      {
        "club_badge_src": null,
        "entry": 1686604,
        "entry_name": "Downiez Fc",
        "event_total": 64,
        "has_played": true,
        "id": 11806642,
        "last_rank": 70600,
        "player_name": "Joe Cardoso",
        "rank": 57090,
        "rank_sort": 57103,
        "total": 2347
      },
      {
        "club_badge_src": "https://fantasy.premierleague.com/gcs/plfpl-production-adobe-approved/plfpl-production/1794426/8bdd5e71-9364-4af0-927c-534265cab235.png",
        "entry": 1794426,
        "entry_name": "#Mubabaz",
        "event_total": 52,
        "has_played": true,
        "id": 12609741,
        "last_rank": 49691,
        "player_name": "Keegan Dilo",
        "rank": 57090,
        "rank_sort": 57104,
        "total": 2347
      },
      {
        "club_badge_src": null,
        "entry": 1860095,
        "entry_name": "It's coming home",
        "event_total": 67,
        "has_played": true,
        "id": 13091689,
        "last_rank": 77050,
        "player_name": "Thibault Stevens",
        "rank": 57090,
        "rank_sort": 57105,
        "total": 2347
      },
      {
        "club_badge_src": null,
        "entry": 2019962,
        "entry_name": "Mo Flo Show",
        "event_total": 27,
        "has_played": true,
        "id": 14293063,
        "last_rank": 21677,
        "player_name": "Akshaye Mediratta",
        "rank": 57090,
        "rank_sort": 57106,
        "total": 2347
      },
      {
        "club_badge_src": null,
        "entry": 2120370,
        "entry_name": "Moneyballers",
        "event_total": 60,
        "has_played": true,
        "id": 15061624,
        "last_rank": 63117,
        "player_name": "Andreas Blomqvist",
        "rank": 57090,
        "rank_sort": 57107,
        "total": 2347
      },
      {
        "club_badge_src": null,
        "entry": 2511323,
        "entry_name": "Red Devil",
        "event_total": 38,
        "has_played": true,
        "id": 17991083,
        "last_rank": 31620,
        "player_name": "Sajid Ul Islam",
        "rank": 57090,
        "rank_sort": 57108,
        "total": 2347
      },
      {
        "club_badge_src": null,
        "entry": 2514520,
        "entry_name": "Class on Grass",
        "event_total": 36,
        "has_played": true,
        "id": 18014732,
        "last_rank": 29578,
        "player_name": "Andrew Augusto",
        "rank": 57090,
        "rank_sort": 57109,
        "total": 2347
      },
      {
        "club_badge_src": null,
        "entry": 2675692,
        "entry_name": "Papathinaikos",
        "event_total": 58,
        "has_played": true,
        "id": 19238272,
        "last_rank": 59475,
        "player_name": "David Robinson",
        "rank": 57090,
        "rank_sort": 57110,
        "total": 2347
      },
      {
        "club_badge_src": "https://fantasy.premierleague.com/gcs/plfpl-production-adobe-approved/plfpl-production/2896659/0cf414a0-8cae-47a9-861a-9d7c6be300f7.png",
        "entry": 2896659,
        "entry_name": "\ufffdFierce Tiger Fc",
        "event_total": 54,
        "has_played": true,
        "id": 21223740,
        "last_rank": 52853,
        "player_name": "\u26a1\ufe0fBlaze\ud83d\udc05 \u2604\ufe0f\ud83d\udd25",
        "rank": 57090,
        "rank_sort": 57111,
        "total": 2347
      },
      {
        "club_badge_src": null,
        "entry": 3007043,
        "entry_name": "It Ain't Eze",
        "event_total": 70,
        "has_played": true,
        "id": 22120293,
        "last_rank": 83534,
        "player_name": "Jaime Tuati",
        "rank": 57090,
        "rank_sort": 57112,
        "total": 2347
      },
      {
        "club_badge_src": null,
        "entry": 3760665,
        "entry_name": "Nawaf",
        "event_total": 36,
        "has_played": true,
        "id": 28078780,
        "last_rank": 29578,
        "player_name": "Nawaf --",
        "rank": 57090,
        "rank_sort": 57113,
        "total": 2347
      },
      {
        "club_badge_src": null,
        "entry": 3919895,
        "entry_name": "Konate Kids",
        "event_total": 40,
        "has_played": true,
        "id": 29475823,
        "last_rank": 33936,
        "player_name": "Samuel Grass",
        "rank": 57090,
        "rank_sort": 57114,
        "total": 2347
      },
      {
        "club_badge_src": null,
        "entry": 4021629,
        "entry_name": "Bowen 747",
        "event_total": 44,
        "has_played": true,
        "id": 30311150,
        "last_rank": 38644,
        "player_name": "Harry Palfreyman",
        "rank": 57090,
        "rank_sort": 57115,
        "total": 2347
      },
      {
        "club_badge_src": null,
        "entry": 4110256,
        "entry_name": "fc united of pele",
        "event_total": 61,
        "has_played": true,
        "id": 31041155,
        "last_rank": 64760,
        "player_name": "Mike Hayward",
        "rank": 57090,
        "rank_sort": 57116,
        "total": 2347
      },
      {
        "club_badge_src": null,
        "entry": 4615308,
        "entry_name": "Guess, and?",
        "event_total": 48,
        "has_played": true,
        "id": 35273066,
        "last_rank": 43742,
        "player_name": "Tom Bacon",
        "rank": 57090,
        "rank_sort": 57117,
        "total": 2347
      },
      {
        "club_badge_src": null,
        "entry": 5372204,
        "entry_name": "Nuthin Betos a Jet2",
        "event_total": 65,
        "has_played": true,
        "id": 41746016,
        "last_rank": 72815,
        "player_name": "Thai Silvera",
        "rank": 57090,
        "rank_sort": 57118,
        "total": 2347
      },
      {
        "club_badge_src": "https://fantasy.premierleague.com/gcs/plfpl-production-adobe-approved/plfpl-production/5442600/33951509-4a36-400c-9dfd-a1ac4f27143c.png",
        "entry": 5442600,
        "entry_name": "FC Mullet",
        "event_total": 42,
        "has_played": true,
        "id": 42345754,
        "last_rank": 36110,
        "player_name": "Aaron Hallett",
        "rank": 57090,
        "rank_sort": 57119,
        "total": 2347
      },
      {
        "club_badge_src": null,
        "entry": 5597811,
        "entry_name": "Burge",
        "event_total": 60,
        "has_played": true,
        "id": 43737198,
        "last_rank": 63117,
        "player_name": "Ned Burgess",
        "rank": 57090,
        "rank_sort": 57120,
        "total": 2347
      },
      {
        "club_badge_src": "https://fantasy.premierleague.com/gcs/plfpl-production-adobe-approved/plfpl-production/5614657/2032db69-cb76-4b1f-a41d-a8c354e3ddcb.png",
        "entry": 5614657,
        "entry_name": "Lilleaker FC",
        "event_total": 87,
        "has_played": true,
        "id": 43884199,
        "last_rank": 128900,
        "player_name": "Linus Karlsson",
        "rank": 57090,
        "rank_sort": 57121,
        "total": 2347
      },
      {
        "club_badge_src": null,
        "entry": 5753447,
        "entry_name": "Wirtz Case Scenario",
        "event_total": 71,
        "has_played": true,
        "id": 45096301,
        "last_rank": 85932,
        "player_name": "James Hemming",
        "rank": 57090,
        "rank_sort": 57122,
        "total": 2347
      },
      {
        "club_badge_src": null,
        "entry": 6315434,
        "entry_name": "Blue Saintropez",
        "event_total": 83,
        "has_played": true,
        "id": 50118162,
        "last_rank": 116826,
        "player_name": "Niklas Wedin",
        "rank": 57090,
        "rank_sort": 57123,
        "total": 2347
      },
      {
        "club_badge_src": null,
        "entry": 6614834,
        "entry_name": "Alisson Wonderland",
        "event_total": 56,
        "has_played": true,
        "id": 52855184,
        "last_rank": 56099,
        "player_name": "Jonty Potgieter",
        "rank": 57090,
        "rank_sort": 57124,
        "total": 2347
      },
      {
        "club_badge_src": null,
        "entry": 6855600,
        "entry_name": "van Diba",
        "event_total": 64,
        "has_played": true,
        "id": 54926984,
        "last_rank": 70600,
        "player_name": "Adiba Khan",
        "rank": 57090,
        "rank_sort": 57125,
        "total": 2347
      },
      {
        "club_badge_src": null,
        "entry": 7483933,
        "entry_name": "Backstreet Moyes",
        "event_total": 41,
        "has_played": true,
        "id": 61073739,
        "last_rank": 35034,
        "player_name": "Matty Morley",
        "rank": 57090,
        "rank_sort": 57126,
        "total": 2347
      },
      {
        "club_badge_src": null,
        "entry": 7805585,
        "entry_name": "Sakaxhaka FC",
        "event_total": 61,
        "has_played": true,
        "id": 64123401,
        "last_rank": 64830,
        "player_name": "Eric Jennerheim",
        "rank": 57090,
        "rank_sort": 57127,
        "total": 2347
      },
      {
        "club_badge_src": null,
        "entry": 7805759,
        "entry_name": "Shana's team",
        "event_total": 47,
        "has_played": true,
        "id": 64125008,
        "last_rank": 42506,
        "player_name": "dana moh",
        "rank": 57090,
        "rank_sort": 57128,
        "total": 2347
      },
      {
        "club_badge_src": null,
        "entry": 7868718,
        "entry_name": "I Don't Know",
        "event_total": 43,
        "has_played": true,
        "id": 64702193,
        "last_rank": 37435,
        "player_name": "Dahir A",
        "rank": 57090,
        "rank_sort": 57129,
        "total": 2347
      },
      {
        "club_badge_src": null,
        "entry": 7975972,
        "entry_name": "J Town Boys",
        "event_total": 39,
        "has_played": true,
        "id": 65671534,
        "last_rank": 32751,
        "player_name": "Josh Durodola",
        "rank": 57090,
        "rank_sort": 57130,
        "total": 2347
      },
      {
        "club_badge_src": null,
        "entry": 8130639,
        "entry_name": "Brodalla",
        "event_total": 51,
        "has_played": true,
        "id": 67087830,
        "last_rank": 48197,
        "player_name": "Brody Brody",
        "rank": 57090,
        "rank_sort": 57131,
        "total": 2347
      },
      {
        "club_badge_src": null,
        "entry": 8215444,
        "entry_name": "Skally FC",
        "event_total": 51,
        "has_played": true,
        "id": 67887601,
        "last_rank": 48119,
        "player_name": "Stephen Skilandis",
        "rank": 57090,
        "rank_sort": 57132,
        "total": 2347
      },
      {
        "club_badge_src": null,
        "entry": 8488910,
        "entry_name": "Kinder Mbuemo",
        "event_total": 59,
        "has_played": true,
        "id": 70527983,
        "last_rank": 61258,
        "player_name": "Eoin Kane",
        "rank": 57090,
        "rank_sort": 57133,
        "total": 2347
      },
      {
        "club_badge_src": null,
        "entry": 9144998,
        "entry_name": "Olsen United",
        "event_total": 65,
        "has_played": true,
        "id": 76891935,
        "last_rank": 72702,
        "player_name": "Vegard Theodor Olsen",
        "rank": 57090,
        "rank_sort": 57134,
        "total": 2347
      },
      {
        "club_badge_src": null,
        "entry": 26693,
        "entry_name": "Hacunha-Mateta",
        "event_total": 61,
        "has_played": true,
        "id": 168781,
        "last_rank": 64943,
        "player_name": "Conor Adamson",
        "rank": 57135,
        "rank_sort": 57135,
        "total": 2347
      },
      {
        "club_badge_src": null,
        "entry": 33702,
        "entry_name": "Quarteira",
        "event_total": 57,
        "has_played": true,
        "id": 215058,
        "last_rank": 57857,
        "player_name": "Sami Abidi",
        "rank": 57135,
        "rank_sort": 57136,
        "total": 2347
      },
      {
        "club_badge_src": null,
        "entry": 44279,
        "entry_name": "Blue Wave XI",
        "event_total": 53,
        "has_played": true,
        "id": 283750,
        "last_rank": 51403,
        "player_name": "Eoin Day",
        "rank": 57135,
        "rank_sort": 57137,
        "total": 2347
      },
      {
        "club_badge_src": null,
        "entry": 93463,
        "entry_name": "Lost for Wirtz",
        "event_total": 46,
        "has_played": true,
        "id": 610773,
        "last_rank": 41324,
        "player_name": "Louis Ahmed",
        "rank": 57135,
        "rank_sort": 57138,
        "total": 2347
      },
      {
        "club_badge_src": null,
        "entry": 141520,
        "entry_name": "Redemption Arc",
        "event_total": 45,
        "has_played": true,
        "id": 924675,
        "last_rank": 34937,
        "player_name": "Nat Morgan",
        "rank": 57135,
        "rank_sort": 57139,
        "total": 2347
      },
      {
        "club_badge_src": null,
        "entry": 174561,
        "entry_name": "Bassey & Adriaan",
        "event_total": 63,
        "has_played": true,
        "id": 1152629,
        "last_rank": 68624,
        "player_name": "Joep Ockhuizen",
        "rank": 57135,
        "rank_sort": 57140,
        "total": 2347
      },
      {
        "club_badge_src": null,
        "entry": 186001,
        "entry_name": "FCB",
        "event_total": 43,
        "has_played": true,
        "id": 1228986,
        "last_rank": 37589,
        "player_name": "Salah Abdelshafy",
        "rank": 57135,
        "rank_sort": 57141,
        "total": 2347
      },
      {
        "club_badge_src": null,
        "entry": 218372,
        "entry_name": "Niamh\u2019s Box To Box",
        "event_total": 57,
        "has_played": true,
        "id": 1452176,
        "last_rank": 58071,
        "player_name": "Max Smith",
        "rank": 57135,
        "rank_sort": 57142,
        "total": 2347
      },
      {
        "club_badge_src": "https://fantasy.premierleague.com/gcs/plfpl-production-adobe-approved/plfpl-production/220163/f5748353-9386-4ceb-bf9a-a7cebb450ce7.png",
        "entry": 220163,
        "entry_name": "Running on cocktails",
        "event_total": 59,
        "has_played": true,
        "id": 1464299,
        "last_rank": 61315,
        "player_name": "Curtis Mee",
        "rank": 57135,
        "rank_sort": 57143,
        "total": 2347
      },
      {
        "club_badge_src": null,
        "entry": 238606,
        "entry_name": "No Injuries Utd",
        "event_total": 69,
        "has_played": true,
        "id": 1587495,
        "last_rank": 81244,
        "player_name": "Jonathan Lau",
        "rank": 57135,
        "rank_sort": 57144,
        "total": 2347
      },
      {
        "club_badge_src": null,
        "entry": 272911,
        "entry_name": "Galantari",
        "event_total": 62,
        "has_played": true,
        "id": 1815845,
        "last_rank": 66738,
        "player_name": "Luka Juri\u010di\u0107",
        "rank": 57135,
        "rank_sort": 57145,
        "total": 2347
      },
      {
        "club_badge_src": null,
        "entry": 311352,
        "entry_name": "Eze Does It Again",
        "event_total": 58,
        "has_played": true,
        "id": 2085900,
        "last_rank": 59813,
        "player_name": "Timothy Collins",
        "rank": 57135,
        "rank_sort": 57146,
        "total": 2347
      },
      {
        "club_badge_src": null,
        "entry": 435550,
        "entry_name": "ozzie",
        "event_total": 40,
        "has_played": true,
        "id": 2920694,
        "last_rank": 34051,
        "player_name": "Oussama Khabir",
        "rank": 57135,
        "rank_sort": 57147,
        "total": 2347
      },
      {
        "club_badge_src": null,
        "entry": 438529,
        "entry_name": "What a group",
        "event_total": 46,
        "has_played": true,
        "id": 2940672,
        "last_rank": 41162,
        "player_name": "Mario Schagerl",
        "rank": 57135,
        "rank_sort": 57148,
        "total": 2347
      },
      {
        "club_badge_src": "https://fantasy.premierleague.com/gcs/plfpl-production-adobe-approved/plfpl-production/445471/6ccc74ed-0141-4568-8797-d7faffc127f4.png",
        "entry": 445471,
        "entry_name": "LA Gunners",
        "event_total": 57,
        "has_played": true,
        "id": 2987493,
        "last_rank": 57857,
        "player_name": "Keith Dallara",
        "rank": 57135,
        "rank_sort": 57149,
        "total": 2347
      },
      {
        "club_badge_src": null,
        "entry": 477021,
        "entry_name": "WIRTZ flex but ok",
        "event_total": 40,
        "has_played": true,
        "id": 3201957,
        "last_rank": 34051,
        "player_name": "Kawin Tiyawattanaroj",
        "rank": 57135,
        "rank_sort": 57150,
        "total": 2347
      }
    ]
  }
}