{
  "last_updated_data": "2026-05-24T23:28:17Z",
  "league": {
    "admin_entry": null,
    "closed": false,
    "code_privacy": "p",
    "created": "2025-07-20T23:14:33.933835Z",
    "cup_league": 2815434,
    "has_cup": true,
    "id": 314,
    "league_type": "s",
    "max_entries": null,
    "name": "Overall",
    "rank": null,
    "scoring": "c",
    "start_event": 1
  },
  "new_entries": {
    "has_next": false,
    "page": 1,
    "results": []
  },
  "standings": {
    "has_next": true,
    "page": 1508,
    "results": [
      {
        "club_badge_src": null,
        "entry": 8846937,
        "entry_name": "CJ",
        "event_total": 30,
        "has_played": true,
        "id": 73996830,
        "last_rank": 33806,
        "player_name": "Chamikara Jayasena",
        "rank": 75350,
        "rank_sort": 75351,
        "total": 2338
      },
      {
        "club_badge_src": null,
        "entry": 5936778,
        "entry_name": "Gyok Tuah",
        "event_total": 67,
        "has_played": true,
        "id": 46679203,
        "last_rank": 72583,
        "player_name": "Shaveel Deo",
        "rank": 75352,
        "rank_sort": 75352,
        "total": 2338
      },
      {
        "club_badge_src": null,
        "entry": 7881866,
        "entry_name": "Anto's Army",
        "event_total": 69,
        "has_played": true,
        "id": 64820821,
        "last_rank": 95378,
        "player_name": "Tony Brady",
        "rank": 75352,
        "rank_sort": 75353,
        "total": 2338
      },
      {
        "club_badge_src": null,
        "entry": 6701009,
        "entry_name": "The Invincibles",
        "event_total": 54,
        "has_played": true,
        "id": 53617424,
        "last_rank": 70546,
        "player_name": "Salem Al Salem",
        "rank": 75354,
        "rank_sort": 75354,
        "total": 2338
      },
      {
        "club_badge_src": null,
        "entry": 8025904,
        "entry_name": "up-ze-arse-007",
        "event_total": 73,
        "has_played": true,
        "id": 66118344,
        "last_rank": 105656,
        "player_name": "Jack Carmelo",
        "rank": 75354,
        "rank_sort": 75355,
        "total": 2338
      },
      {
        "club_badge_src": null,
        "entry": 4733067,
        "entry_name": "Case Closed",
        "event_total": 62,
        "has_played": true,
        "id": 36414671,
        "last_rank": 78949,
        "player_name": "Abdullah Jabib",
        "rank": 75356,
        "rank_sort": 75356,
        "total": 2338
      },
      {
        "club_badge_src": null,
        "entry": 1734476,
        "entry_name": "LOT$ OF TRAN$F\u20acR$",
        "event_total": 30,
        "has_played": true,
        "id": 12167339,
        "last_rank": 33809,
        "player_name": "Sean Tobin",
        "rank": 75357,
        "rank_sort": 75357,
        "total": 2338
      },
      {
        "club_badge_src": "https://fantasy.premierleague.com/gcs/plfpl-production-adobe-approved/plfpl-production/2102606/f68716e2-2f79-4917-9843-e3f602ccc254.png",
        "entry": 2102606,
        "entry_name": "GelvanBlues\u2122",
        "event_total": 60,
        "has_played": true,
        "id": 14920789,
        "last_rank": 66611,
        "player_name": "Luke Howard",
        "rank": 75357,
        "rank_sort": 75358,
        "total": 2338
      },
      {
        "club_badge_src": null,
        "entry": 120517,
        "entry_name": "Mitigate This",
        "event_total": 50,
        "has_played": true,
        "id": 786356,
        "last_rank": 56014,
        "player_name": "Mark Holt",
        "rank": 75359,
        "rank_sort": 75359,
        "total": 2338
      },
      {
        "club_badge_src": null,
        "entry": 131649,
        "entry_name": "simo",
        "event_total": 98,
        "has_played": true,
        "id": 857667,
        "last_rank": 119763,
        "player_name": "eslam emam\ud83c\uddea\ud83c\uddec\ud83c\uddf5\ud83c\uddf8",
        "rank": 75360,
        "rank_sort": 75360,
        "total": 2338
      },
      {
        "club_badge_src": null,
        "entry": 1943050,
        "entry_name": "Mr. Reddington",
        "event_total": 72,
        "has_played": true,
        "id": 13705971,
        "last_rank": 113992,
        "player_name": "Milorad Djukic",
        "rank": 75361,
        "rank_sort": 75361,
        "total": 2337
      },
      {
        "club_badge_src": null,
        "entry": 5554751,
        "entry_name": "Pending Moderation",
        "event_total": 69,
        "has_played": true,
        "id": 43357504,
        "last_rank": 105674,
        "player_name": "Columbo Marko",
        "rank": 75361,
        "rank_sort": 75362,
        "total": 2337
      },
      {
        "club_badge_src": null,
        "entry": 3335764,
        "entry_name": "EARNEST.SV2",
        "event_total": 56,
        "has_played": true,
        "id": 24738244,
        "last_rank": 74685,
        "player_name": "mutua kenya",
        "rank": 75363,
        "rank_sort": 75363,
        "total": 2337
      },
      {
        "club_badge_src": null,
        "entry": 4605304,
        "entry_name": "Ryan\u2019s Raiders",
        "event_total": 67,
        "has_played": true,
        "id": 35185025,
        "last_rank": 100452,
        "player_name": "Mike Ryan",
        "rank": 75363,
        "rank_sort": 75364,
        "total": 2337
      },
      {
        "club_badge_src": null,
        "entry": 6141606,
        "entry_name": "Wirtz Name Ever",
        "event_total": 68,
        "has_played": true,
        "id": 48539739,
        "last_rank": 102971,
        "player_name": "Matthew Bartley",
        "rank": 75363,
        "rank_sort": 75365,
        "total": 2337
      },
      {
        "club_badge_src": null,
        "entry": 1263783,
        "entry_name": "Efilnikufecin",
        "event_total": 52,
        "has_played": true,
        "id": 8780720,
        "last_rank": 66627,
        "player_name": "Mark Bakarich",
        "rank": 75366,
        "rank_sort": 75366,
        "total": 2337
      },
      {
        "club_badge_src": null,
        "entry": 2322518,
        "entry_name": "supersubs fc",
        "event_total": 43,
        "has_played": true,
        "id": 16568391,
        "last_rank": 51085,
        "player_name": "Andrew Heath",
        "rank": 75366,
        "rank_sort": 75367,
        "total": 2337
      },
      {
        "club_badge_src": null,
        "entry": 5424179,
        "entry_name": "GGG",
        "event_total": 44,
        "has_played": true,
        "id": 42188280,
        "last_rank": 52701,
        "player_name": "Garth flynn",
        "rank": 75366,
        "rank_sort": 75368,
        "total": 2337
      },
      {
        "club_badge_src": null,
        "entry": 5589931,
        "entry_name": "Got a Rodon?",
        "event_total": 77,
        "has_played": true,
        "id": 43669497,
        "last_rank": 128872,
        "player_name": "Mark Williams",
        "rank": 75366,
        "rank_sort": 75369,
        "total": 2337
      },
      {
        "club_badge_src": null,
        "entry": 309113,
        "entry_name": "ChickenTikkaMoSalah",
        "event_total": 67,
        "has_played": true,
        "id": 2070566,
        "last_rank": 100448,
        "player_name": "Yuv Galaiya",
        "rank": 75370,
        "rank_sort": 75370,
        "total": 2337
      },
      {
        "club_badge_src": null,
        "entry": 1707811,
        "entry_name": "doyourwirtz",
        "event_total": 52,
        "has_played": true,
        "id": 11964888,
        "last_rank": 66636,
        "player_name": "Ryan Nixon",
        "rank": 75370,
        "rank_sort": 75371,
        "total": 2337
      },
      {
        "club_badge_src": null,
        "entry": 1836919,
        "entry_name": "Woho11",
        "event_total": 26,
        "has_played": true,
        "id": 12922626,
        "last_rank": 29469,
        "player_name": "Dilpreet Singh Chadha",
        "rank": 75370,
        "rank_sort": 75372,
        "total": 2337
      },
      {
        "club_badge_src": null,
        "entry": 7645298,
        "entry_name": "Dads Army",
        "event_total": 58,
        "has_played": true,
        "id": 62673468,
        "last_rank": 78971,
        "player_name": "Wahid Akram",
        "rank": 75370,
        "rank_sort": 75373,
        "total": 2337
      },
      {
        "club_badge_src": null,
        "entry": 7739533,
        "entry_name": "Kanu Believe It",
        "event_total": 45,
        "has_played": true,
        "id": 63526661,
        "last_rank": 54348,
        "player_name": "Hannah Wood",
        "rank": 75370,
        "rank_sort": 75374,
        "total": 2337
      },
      {
        "club_badge_src": null,
        "entry": 1613911,
        "entry_name": "Spurs United",
        "event_total": 44,
        "has_played": true,
        "id": 11292825,
        "last_rank": 52713,
        "player_name": "Grace Clutterbuck",
        "rank": 75375,
        "rank_sort": 75375,
        "total": 2337
      },
      {
        "club_badge_src": null,
        "entry": 2204167,
        "entry_name": "Palmer Violets",
        "event_total": 60,
        "has_played": true,
        "id": 15686980,
        "last_rank": 83485,
        "player_name": "Will von Isenburg",
        "rank": 75375,
        "rank_sort": 75376,
        "total": 2337
      },
      {
        "club_badge_src": null,
        "entry": 4024391,
        "entry_name": "Yoro Wizard Harry",
        "event_total": 36,
        "has_played": true,
        "id": 30334055,
        "last_rank": 41048,
        "player_name": "Matt Budd",
        "rank": 75375,
        "rank_sort": 75377,
        "total": 2337
      },
      {
        "club_badge_src": null,
        "entry": 5756068,
        "entry_name": "ursugg",
        "event_total": 80,
        "has_played": true,
        "id": 45119232,
        "last_rank": 138708,
        "player_name": "Fredrik Hennum",
        "rank": 75375,
        "rank_sort": 75378,
        "total": 2337
      },
      {
        "club_badge_src": null,
        "entry": 6293072,
        "entry_name": "Paqueta Wotsits",
        "event_total": 69,
        "has_played": true,
        "id": 49867869,
        "last_rank": 105709,
        "player_name": "Jack Thacker",
        "rank": 75375,
        "rank_sort": 75379,
        "total": 2337
      },
      {
        "club_badge_src": null,
        "entry": 6936033,
        "entry_name": "September XI \u3164",
        "event_total": 68,
        "has_played": true,
        "id": 55606456,
        "last_rank": 103001,
        "player_name": "Brady Huff",
        "rank": 75375,
        "rank_sort": 75380,
        "total": 2337
      },
      {
        "club_badge_src": null,
        "entry": 8429739,
        "entry_name": "Victory Goalkeres 1",
        "event_total": 47,
        "has_played": true,
        "id": 69962392,
        "last_rank": 57705,
        "player_name": "Hanief Aziz",
        "rank": 75375,
        "rank_sort": 75381,
        "total": 2337
      },
      {
        "club_badge_src": null,
        "entry": 8659922,
        "entry_name": "The Salahmanders",
        "event_total": 53,
        "has_played": true,
        "id": 72188378,
        "last_rank": 68556,
        "player_name": "Jay Ali Barmy army Haha",
        "rank": 75375,
        "rank_sort": 75382,
        "total": 2337
      },
      {
        "club_badge_src": null,
        "entry": 221623,
        "entry_name": "In Kroenke We Thrust",
        "event_total": 64,
        "has_played": true,
        "id": 1474031,
        "last_rank": 92958,
        "player_name": "\u3086\u3042 \u3061\u3083\u3093",
        "rank": 75383,
        "rank_sort": 75383,
        "total": 2337
      },
      {
        "club_badge_src": null,
        "entry": 425048,
        "entry_name": "\ufffd\u269c\ufe0f",
        "event_total": 47,
        "has_played": true,
        "id": 2848783,
        "last_rank": 57723,
        "player_name": "Pana Omar",
        "rank": 75383,
        "rank_sort": 75384,
        "total": 2337
      },
      {
        "club_badge_src": null,
        "entry": 706471,
        "entry_name": "Slot one home",
        "event_total": 59,
        "has_played": true,
        "id": 4787974,
        "last_rank": 81195,
        "player_name": "Dan Higham",
        "rank": 75383,
        "rank_sort": 75385,
        "total": 2337
      },
      {
        "club_badge_src": null,
        "entry": 1387538,
        "entry_name": "Chikn Ektikka Mosala",
        "event_total": 71,
        "has_played": true,
        "id": 9650945,
        "last_rank": 111138,
        "player_name": "David muslado",
        "rank": 75383,
        "rank_sort": 75386,
        "total": 2337
      },
      {
        "club_badge_src": null,
        "entry": 1450760,
        "entry_name": "Wedding Blackout",
        "event_total": 55,
        "has_played": true,
        "id": 10109000,
        "last_rank": 72609,
        "player_name": "Adam Krause",
        "rank": 75383,
        "rank_sort": 75387,
        "total": 2337
      },
      {
        "club_badge_src": null,
        "entry": 3833328,
        "entry_name": "Xhaka Khan",
        "event_total": 60,
        "has_played": true,
        "id": 28676664,
        "last_rank": 83473,
        "player_name": "Marc Weaver",
        "rank": 75383,
        "rank_sort": 75388,
        "total": 2337
      },
      {
        "club_badge_src": null,
        "entry": 5843018,
        "entry_name": "Madness FC",
        "event_total": 67,
        "has_played": true,
        "id": 45868184,
        "last_rank": 100488,
        "player_name": "William Davidsen",
        "rank": 75383,
        "rank_sort": 75389,
        "total": 2337
      },
      {
        "club_badge_src": null,
        "entry": 5990517,
        "entry_name": "Sesko Clubcard",
        "event_total": 50,
        "has_played": true,
        "id": 47201161,
        "last_rank": 63045,
        "player_name": "Adam Phair",
        "rank": 75383,
        "rank_sort": 75390,
        "total": 2337
      },
      {
        "club_badge_src": null,
        "entry": 6698950,
        "entry_name": "Not Isakly Sure",
        "event_total": 68,
        "has_played": true,
        "id": 53599562,
        "last_rank": 103001,
        "player_name": "Tony Cervi",
        "rank": 75383,
        "rank_sort": 75391,
        "total": 2337
      },
      {
        "club_badge_src": null,
        "entry": 7226421,
        "entry_name": "150m Wirtz Nothing",
        "event_total": 52,
        "has_played": true,
        "id": 58381931,
        "last_rank": 66636,
        "player_name": "Abdul Lambarey",
        "rank": 75383,
        "rank_sort": 75392,
        "total": 2337
      },
      {
        "club_badge_src": "https://fantasy.premierleague.com/gcs/plfpl-production-adobe-approved/plfpl-production/7621601/7ee14749-4c6a-441f-813a-480b0b1b4ef2.png",
        "entry": 7621601,
        "entry_name": "You Shall Not Pass",
        "event_total": 51,
        "has_played": true,
        "id": 62461173,
        "last_rank": 64751,
        "player_name": "Tim Copland",
        "rank": 75383,
        "rank_sort": 75393,
        "total": 2337
      },
      {
        "club_badge_src": null,
        "entry": 9275997,
        "entry_name": "bowen bubbles",
        "event_total": 42,
        "has_played": true,
        "id": 78177270,
        "last_rank": 49538,
        "player_name": "Sinead Larkin",
        "rank": 75383,
        "rank_sort": 75394,
        "total": 2337
      },
      {
        "club_badge_src": "https://fantasy.premierleague.com/gcs/plfpl-production-adobe-approved/plfpl-production/207759/c79a43b1-16f1-4e06-8198-79264dcbab5a.png",
        "entry": 207759,
        "entry_name": "Yoro Wizard Lenny",
        "event_total": 31,
        "has_played": true,
        "id": 1381063,
        "last_rank": 34937,
        "player_name": "Thanos Hadjizenonos",
        "rank": 75395,
        "rank_sort": 75395,
        "total": 2337
      },
      {
        "club_badge_src": null,
        "entry": 823246,
        "entry_name": "Palmer Violets",
        "event_total": 75,
        "has_played": true,
        "id": 5638242,
        "last_rank": 122897,
        "player_name": "Dave Gill",
        "rank": 75395,
        "rank_sort": 75396,
        "total": 2337
      },
      {
        "club_badge_src": null,
        "entry": 832881,
        "entry_name": "Dang it in",
        "event_total": 61,
        "has_played": true,
        "id": 5704877,
        "last_rank": 85823,
        "player_name": "Brendan Griffiths",
        "rank": 75395,
        "rank_sort": 75397,
        "total": 2337
      },
      {
        "club_badge_src": null,
        "entry": 875553,
        "entry_name": "Could be Wirtz",
        "event_total": 68,
        "has_played": true,
        "id": 6002707,
        "last_rank": 103054,
        "player_name": "Max L-C",
        "rank": 75395,
        "rank_sort": 75398,
        "total": 2337
      },
      {
        "club_badge_src": null,
        "entry": 1859933,
        "entry_name": "Holy Boehly",
        "event_total": 70,
        "has_played": true,
        "id": 13090464,
        "last_rank": 108427,
        "player_name": "Vetle Aarstad Fjeldheim",
        "rank": 75395,
        "rank_sort": 75399,
        "total": 2337
      },
      {
        "club_badge_src": null,
        "entry": 1886869,
        "entry_name": "Shades of Gray",
        "event_total": 51,
        "has_played": true,
        "id": 13296894,
        "last_rank": 64777,
        "player_name": "Jon Inkersole",
        "rank": 75395,
        "rank_sort": 75400,
        "total": 2337
      }
    ]
  }
}