{
  "last_updated_data": "2026-05-24T23:28:17Z",
  "league": {
    "admin_entry": null,
    "closed": false,
    "code_privacy": "p",
    "created": "2025-07-20T23:14:33.933835Z",
    "cup_league": 2815434,
    "has_cup": true,
    "id": 314,
    "league_type": "s",
    "max_entries": null,
    "name": "Overall",
    "rank": null,
    "scoring": "c",
    "start_event": 1
  },
  "new_entries": {
    "has_next": false,
    "page": 1,
    "results": []
  },
  "standings": {
    "has_next": true,
    "page": 614,
    "results": [
      {
        "club_badge_src": null,
        "entry": 8530667,
        "entry_name": "Diabiola II",
        "event_total": 60,
        "has_played": true,
        "id": 70933372,
        "last_rank": 25564,
        "player_name": "Mhd Diab",
        "rank": 30634,
        "rank_sort": 30651,
        "total": 2368
      },
      {
        "club_badge_src": "https://fantasy.premierleague.com/gcs/plfpl-production-adobe-approved/plfpl-production/29480/7bccdb2c-11c5-4f02-a63b-ca7a2d13c0f0.png",
        "entry": 29480,
        "entry_name": "Whaddon Dinos",
        "event_total": 51,
        "has_played": true,
        "id": 186420,
        "last_rank": 24770,
        "player_name": "Brodie Evans",
        "rank": 30652,
        "rank_sort": 30652,
        "total": 2368
      },
      {
        "club_badge_src": null,
        "entry": 61644,
        "entry_name": "UnitedWeStand",
        "event_total": 85,
        "has_played": true,
        "id": 397071,
        "last_rank": 64603,
        "player_name": "David Tucker",
        "rank": 30652,
        "rank_sort": 30653,
        "total": 2368
      },
      {
        "club_badge_src": null,
        "entry": 199099,
        "entry_name": "Lord of France",
        "event_total": 49,
        "has_played": true,
        "id": 1321337,
        "last_rank": 20065,
        "player_name": "Lionel Mazars",
        "rank": 30652,
        "rank_sort": 30654,
        "total": 2368
      },
      {
        "club_badge_src": null,
        "entry": 211291,
        "entry_name": "BK Sm\u00e6k",
        "event_total": 60,
        "has_played": true,
        "id": 1405353,
        "last_rank": 33768,
        "player_name": "Daniel Krogh",
        "rank": 30652,
        "rank_sort": 30655,
        "total": 2368
      },
      {
        "club_badge_src": null,
        "entry": 389700,
        "entry_name": "KS",
        "event_total": 56,
        "has_played": true,
        "id": 2614159,
        "last_rank": 29419,
        "player_name": "K S",
        "rank": 30652,
        "rank_sort": 30656,
        "total": 2368
      },
      {
        "club_badge_src": null,
        "entry": 880528,
        "entry_name": "Joeliverbird",
        "event_total": 52,
        "has_played": true,
        "id": 6038345,
        "last_rank": 25653,
        "player_name": "Chinnapat Manakitsirisuthi",
        "rank": 30652,
        "rank_sort": 30657,
        "total": 2368
      },
      {
        "club_badge_src": "https://fantasy.premierleague.com/gcs/plfpl-production-adobe-approved/plfpl-production/1188911/66a93441-3fa9-435d-bb55-cb064b7c6d97.png",
        "entry": 1188911,
        "entry_name": "GT heros",
        "event_total": 66,
        "has_played": true,
        "id": 8249352,
        "last_rank": 40976,
        "player_name": "Gez Trathan",
        "rank": 30652,
        "rank_sort": 30658,
        "total": 2368
      },
      {
        "club_badge_src": null,
        "entry": 1460685,
        "entry_name": "Rentacrowd",
        "event_total": 53,
        "has_played": true,
        "id": 10181675,
        "last_rank": 23101,
        "player_name": "Alex Rennie",
        "rank": 30652,
        "rank_sort": 30659,
        "total": 2368
      },
      {
        "club_badge_src": null,
        "entry": 2504402,
        "entry_name": "DJ20 \u2665\ufe0f",
        "event_total": 54,
        "has_played": true,
        "id": 17934259,
        "last_rank": 27480,
        "player_name": "Simon Hamilton",
        "rank": 30652,
        "rank_sort": 30660,
        "total": 2368
      },
      {
        "club_badge_src": null,
        "entry": 3513134,
        "entry_name": "The Redz",
        "event_total": 54,
        "has_played": true,
        "id": 26141281,
        "last_rank": 27499,
        "player_name": "Aditya Nugraha A.",
        "rank": 30652,
        "rank_sort": 30661,
        "total": 2368
      },
      {
        "club_badge_src": null,
        "entry": 4180054,
        "entry_name": "Saka Potatoes",
        "event_total": 58,
        "has_played": true,
        "id": 31621611,
        "last_rank": 31459,
        "player_name": "Rob Jackson",
        "rank": 30652,
        "rank_sort": 30662,
        "total": 2368
      },
      {
        "club_badge_src": null,
        "entry": 4855625,
        "entry_name": "Rudolph Reijnders",
        "event_total": 71,
        "has_played": true,
        "id": 37413745,
        "last_rank": 47982,
        "player_name": "Tom Jinks",
        "rank": 30652,
        "rank_sort": 30663,
        "total": 2368
      },
      {
        "club_badge_src": null,
        "entry": 9320962,
        "entry_name": "McGinn And Tonic",
        "event_total": 42,
        "has_played": true,
        "id": 78610393,
        "last_rank": 15356,
        "player_name": "Brian Milne",
        "rank": 30652,
        "rank_sort": 30664,
        "total": 2368
      },
      {
        "club_badge_src": "https://fantasy.premierleague.com/gcs/plfpl-production-adobe-approved/plfpl-production/108214/4fb52141-aed6-4ac1-abb1-9b51161f66c9.png",
        "entry": 108214,
        "entry_name": "??",
        "event_total": 50,
        "has_played": true,
        "id": 705554,
        "last_rank": 20782,
        "player_name": "Ryan Rimmer",
        "rank": 30665,
        "rank_sort": 30665,
        "total": 2368
      },
      {
        "club_badge_src": "https://fantasy.premierleague.com/gcs/plfpl-production-adobe-approved/plfpl-production/909053/8c50f948-fb18-4a14-a7f6-1ce0631a215f.png",
        "entry": 909053,
        "entry_name": "Meat N 2 Veg",
        "event_total": 69,
        "has_played": true,
        "id": 6249287,
        "last_rank": 45050,
        "player_name": "Paul Golder",
        "rank": 30665,
        "rank_sort": 30666,
        "total": 2368
      },
      {
        "club_badge_src": null,
        "entry": 1001080,
        "entry_name": "TeamShaun",
        "event_total": 79,
        "has_played": true,
        "id": 6920079,
        "last_rank": 42263,
        "player_name": "Shaun McCarthy",
        "rank": 30665,
        "rank_sort": 30667,
        "total": 2368
      },
      {
        "club_badge_src": null,
        "entry": 2513374,
        "entry_name": "stay strapped",
        "event_total": 44,
        "has_played": true,
        "id": 18006262,
        "last_rank": 19339,
        "player_name": "K D-J",
        "rank": 30665,
        "rank_sort": 30668,
        "total": 2368
      },
      {
        "club_badge_src": null,
        "entry": 2594666,
        "entry_name": "Yoro Vision",
        "event_total": 68,
        "has_played": true,
        "id": 18630662,
        "last_rank": 43679,
        "player_name": "Sam Atherton",
        "rank": 30665,
        "rank_sort": 30669,
        "total": 2368
      },
      {
        "club_badge_src": null,
        "entry": 2780108,
        "entry_name": "nizzes hoppl\u00f6sa",
        "event_total": 55,
        "has_played": true,
        "id": 20290608,
        "last_rank": 28480,
        "player_name": "Magnus Nilsson",
        "rank": 30665,
        "rank_sort": 30670,
        "total": 2368
      },
      {
        "club_badge_src": null,
        "entry": 6625197,
        "entry_name": "jaaaaja FC",
        "event_total": 66,
        "has_played": true,
        "id": 52944888,
        "last_rank": 36031,
        "player_name": "Victor Wael",
        "rank": 30665,
        "rank_sort": 30671,
        "total": 2368
      },
      {
        "club_badge_src": null,
        "entry": 134348,
        "entry_name": "Tangerine Army",
        "event_total": 55,
        "has_played": true,
        "id": 874977,
        "last_rank": 24778,
        "player_name": "Mark Turner",
        "rank": 30672,
        "rank_sort": 30672,
        "total": 2368
      },
      {
        "club_badge_src": "https://fantasy.premierleague.com/gcs/plfpl-production-adobe-approved/plfpl-production/248534/9b365905-6637-49e5-9d66-acc25475ae99.png",
        "entry": 248534,
        "entry_name": "FPL Rollercoaster",
        "event_total": 56,
        "has_played": true,
        "id": 1654131,
        "last_rank": 22331,
        "player_name": "David Moseley",
        "rank": 30672,
        "rank_sort": 30673,
        "total": 2368
      },
      {
        "club_badge_src": null,
        "entry": 365594,
        "entry_name": "RED DEVILS",
        "event_total": 70,
        "has_played": true,
        "id": 2446626,
        "last_rank": 36031,
        "player_name": "Warren Muduray",
        "rank": 30672,
        "rank_sort": 30674,
        "total": 2368
      },
      {
        "club_badge_src": null,
        "entry": 1010180,
        "entry_name": "Panjcheki",
        "event_total": 53,
        "has_played": true,
        "id": 6985591,
        "last_rank": 23110,
        "player_name": "Domagoj Puncec",
        "rank": 30672,
        "rank_sort": 30675,
        "total": 2368
      },
      {
        "club_badge_src": null,
        "entry": 4667261,
        "entry_name": "BocaJuniorsReserves",
        "event_total": 60,
        "has_played": true,
        "id": 35748740,
        "last_rank": 33782,
        "player_name": "Michael Percik",
        "rank": 30672,
        "rank_sort": 30676,
        "total": 2368
      },
      {
        "club_badge_src": null,
        "entry": 6063650,
        "entry_name": "UMakeMeAmad",
        "event_total": 61,
        "has_played": true,
        "id": 47857889,
        "last_rank": 34885,
        "player_name": "Niall Mccartan",
        "rank": 30672,
        "rank_sort": 30677,
        "total": 2368
      },
      {
        "club_badge_src": null,
        "entry": 59907,
        "entry_name": "Mali Premium",
        "event_total": 59,
        "has_played": true,
        "id": 385769,
        "last_rank": 32610,
        "player_name": "\u041c\u0438\u0445\u0430\u0458\u043b\u043e \u041c\u0438\u0445\u0430\u0458\u043b\u043e\u0432\u0438\u045b",
        "rank": 30678,
        "rank_sort": 30678,
        "total": 2368
      },
      {
        "club_badge_src": null,
        "entry": 983780,
        "entry_name": "Portchester Pirates",
        "event_total": 59,
        "has_played": true,
        "id": 6782756,
        "last_rank": 28485,
        "player_name": "Peter Beckett",
        "rank": 30678,
        "rank_sort": 30679,
        "total": 2368
      },
      {
        "club_badge_src": null,
        "entry": 1169975,
        "entry_name": "Nather FC",
        "event_total": 69,
        "has_played": true,
        "id": 8116519,
        "last_rank": 39731,
        "player_name": "Nather Al Jubouri",
        "rank": 30678,
        "rank_sort": 30680,
        "total": 2368
      },
      {
        "club_badge_src": null,
        "entry": 2158469,
        "entry_name": "\u0639\u0645\u062f\u0648\u0646\u064a\u0627\u062a",
        "event_total": 76,
        "has_played": true,
        "id": 15343980,
        "last_rank": 43679,
        "player_name": "Ghayth Amdouni",
        "rank": 30678,
        "rank_sort": 30681,
        "total": 2368
      },
      {
        "club_badge_src": null,
        "entry": 2837245,
        "entry_name": "Omar CR7",
        "event_total": 43,
        "has_played": true,
        "id": 20735063,
        "last_rank": 16010,
        "player_name": "omar Cr7",
        "rank": 30678,
        "rank_sort": 30682,
        "total": 2368
      },
      {
        "club_badge_src": null,
        "entry": 3813613,
        "entry_name": "Noah",
        "event_total": 64,
        "has_played": true,
        "id": 28517547,
        "last_rank": 38484,
        "player_name": "Mostafa Hassan",
        "rank": 30678,
        "rank_sort": 30683,
        "total": 2368
      },
      {
        "club_badge_src": null,
        "entry": 3895374,
        "entry_name": "JG XI",
        "event_total": 58,
        "has_played": true,
        "id": 29276224,
        "last_rank": 31484,
        "player_name": "John Gallagher",
        "rank": 30678,
        "rank_sort": 30684,
        "total": 2368
      },
      {
        "club_badge_src": null,
        "entry": 4723871,
        "entry_name": "JEDIBLUEZ",
        "event_total": 66,
        "has_played": true,
        "id": 36304022,
        "last_rank": 41014,
        "player_name": "Azinio Azlan",
        "rank": 30678,
        "rank_sort": 30685,
        "total": 2368
      },
      {
        "club_badge_src": "https://fantasy.premierleague.com/gcs/plfpl-production-adobe-approved/plfpl-production/2161423/a4cfbb20-83b7-4ee0-a095-2d057b91f17c.png",
        "entry": 2161423,
        "entry_name": "4letters1word",
        "event_total": 57,
        "has_played": true,
        "id": 15365155,
        "last_rank": 26590,
        "player_name": "Irwan Muhamad",
        "rank": 30686,
        "rank_sort": 30686,
        "total": 2368
      },
      {
        "club_badge_src": null,
        "entry": 2180852,
        "entry_name": "Le Saux Solid Crew",
        "event_total": 62,
        "has_played": true,
        "id": 15510933,
        "last_rank": 31484,
        "player_name": "Dayle Seymour",
        "rank": 30686,
        "rank_sort": 30687,
        "total": 2368
      },
      {
        "club_badge_src": null,
        "entry": 3413865,
        "entry_name": "\u0634\u0648\u0642 \u0627\u0644\u0633\u0646\u064a\u0646",
        "event_total": 60,
        "has_played": true,
        "id": 25355313,
        "last_rank": 33795,
        "player_name": "King Alg",
        "rank": 30686,
        "rank_sort": 30688,
        "total": 2368
      },
      {
        "club_badge_src": null,
        "entry": 5785934,
        "entry_name": "Zubi-dubi-doo",
        "event_total": 62,
        "has_played": true,
        "id": 45373969,
        "last_rank": 27514,
        "player_name": "Kieran Baldwin",
        "rank": 30686,
        "rank_sort": 30689,
        "total": 2368
      },
      {
        "club_badge_src": null,
        "entry": 1294579,
        "entry_name": "The Messi Gunts",
        "event_total": 70,
        "has_played": true,
        "id": 8997138,
        "last_rank": 36052,
        "player_name": "Brian Brosnan",
        "rank": 30690,
        "rank_sort": 30690,
        "total": 2368
      },
      {
        "club_badge_src": null,
        "entry": 3564385,
        "entry_name": "\u062d\u0643\u0645 \u0627\u0644\u062a\u0627\u0631\u064a\u062e",
        "event_total": 49,
        "has_played": true,
        "id": 26539887,
        "last_rank": 23135,
        "player_name": "ahmed Hakam",
        "rank": 30691,
        "rank_sort": 30691,
        "total": 2368
      },
      {
        "club_badge_src": null,
        "entry": 19257,
        "entry_name": "Half the world (a)",
        "event_total": 74,
        "has_played": true,
        "id": 119843,
        "last_rank": 46503,
        "player_name": "Daniel Larson",
        "rank": 30692,
        "rank_sort": 30692,
        "total": 2368
      },
      {
        "club_badge_src": null,
        "entry": 1233927,
        "entry_name": "Of Rice and Men",
        "event_total": 54,
        "has_played": true,
        "id": 8568625,
        "last_rank": 27535,
        "player_name": "Charlie Page",
        "rank": 30693,
        "rank_sort": 30693,
        "total": 2368
      },
      {
        "club_badge_src": null,
        "entry": 107441,
        "entry_name": "Jonty's Jiants",
        "event_total": 55,
        "has_played": true,
        "id": 700406,
        "last_rank": 28500,
        "player_name": "Michael Gwynne",
        "rank": 30694,
        "rank_sort": 30694,
        "total": 2367
      },
      {
        "club_badge_src": null,
        "entry": 112161,
        "entry_name": "Cole Blooded",
        "event_total": 57,
        "has_played": true,
        "id": 731265,
        "last_rank": 30476,
        "player_name": "Nihal Sood",
        "rank": 30695,
        "rank_sort": 30695,
        "total": 2367
      },
      {
        "club_badge_src": null,
        "entry": 6605213,
        "entry_name": "FC \u0628\u0634\u064a\u0631",
        "event_total": 68,
        "has_played": true,
        "id": 52766758,
        "last_rank": 43728,
        "player_name": "Bashir Balarabe",
        "rank": 30695,
        "rank_sort": 30696,
        "total": 2367
      },
      {
        "club_badge_src": null,
        "entry": 7748190,
        "entry_name": "Paramount FC",
        "event_total": 58,
        "has_played": true,
        "id": 63604746,
        "last_rank": 31507,
        "player_name": "Mayibongwe Khumalo",
        "rank": 30697,
        "rank_sort": 30697,
        "total": 2367
      },
      {
        "club_badge_src": null,
        "entry": 8963106,
        "entry_name": "Rogers Roasters",
        "event_total": 65,
        "has_played": true,
        "id": 75125762,
        "last_rank": 39753,
        "player_name": "James Sutton",
        "rank": 30697,
        "rank_sort": 30698,
        "total": 2367
      },
      {
        "club_badge_src": null,
        "entry": 3089492,
        "entry_name": "Lyttelport United",
        "event_total": 55,
        "has_played": true,
        "id": 22768553,
        "last_rank": 28506,
        "player_name": "Mat Bell",
        "rank": 30699,
        "rank_sort": 30699,
        "total": 2367
      },
      {
        "club_badge_src": "https://fantasy.premierleague.com/gcs/plfpl-production-adobe-approved/plfpl-production/4557954/71bcf59b-f0d3-4f7f-b4a2-c5e0a3d2124e.png",
        "entry": 4557954,
        "entry_name": "Saka Potatoes",
        "event_total": 76,
        "has_played": true,
        "id": 34779710,
        "last_rank": 56025,
        "player_name": "nicholas benedetti",
        "rank": 30699,
        "rank_sort": 30700,
        "total": 2367
      }
    ]
  }
}