{
  "last_updated_data": "2026-05-24T23:28:17Z",
  "league": {
    "admin_entry": null,
    "closed": false,
    "code_privacy": "p",
    "created": "2025-07-20T23:14:33.933835Z",
    "cup_league": 2815434,
    "has_cup": true,
    "id": 314,
    "league_type": "s",
    "max_entries": null,
    "name": "Overall",
    "rank": null,
    "scoring": "c",
    "start_event": 1
  },
  "new_entries": {
    "has_next": false,
    "page": 1,
    "results": []
  },
  "standings": {
    "has_next": true,
    "page": 1188,
    "results": [
      {
        "club_badge_src": null,
        "entry": 901414,
        "entry_name": "Minteh Fresh",
        "event_total": 55,
        "has_played": true,
        "id": 6193705,
        "last_rank": 49880,
        "player_name": "Oliver Pimenta",
        "rank": 59248,
        "rank_sort": 59351,
        "total": 2346
      },
      {
        "club_badge_src": null,
        "entry": 903201,
        "entry_name": "Wit ham Utd",
        "event_total": 67,
        "has_played": true,
        "id": 6206099,
        "last_rank": 79817,
        "player_name": "Darren Winter",
        "rank": 59248,
        "rank_sort": 59352,
        "total": 2346
      },
      {
        "club_badge_src": "https://fantasy.premierleague.com/gcs/plfpl-production-adobe-approved/plfpl-production/908189/4f3267ab-8fe6-4761-a0b9-a09f477e51d2.png",
        "entry": 908189,
        "entry_name": "NonPlusUltra",
        "event_total": 72,
        "has_played": true,
        "id": 6243133,
        "last_rank": 90746,
        "player_name": "Rob Russell",
        "rank": 59248,
        "rank_sort": 59353,
        "total": 2346
      },
      {
        "club_badge_src": null,
        "entry": 930688,
        "entry_name": "Joga Bonito",
        "event_total": 69,
        "has_played": true,
        "id": 6403876,
        "last_rank": 84360,
        "player_name": "Patrick Millington",
        "rank": 59248,
        "rank_sort": 59354,
        "total": 2346
      },
      {
        "club_badge_src": "https://fantasy.premierleague.com/gcs/plfpl-production-adobe-approved/plfpl-production/932037/5d6431fc-c7a5-4fbf-9ee1-bd36adc0ce34.png",
        "entry": 932037,
        "entry_name": "GetTheCabbageOut",
        "event_total": 50,
        "has_played": true,
        "id": 6413287,
        "last_rank": 48197,
        "player_name": "Paddy Wall",
        "rank": 59248,
        "rank_sort": 59355,
        "total": 2346
      },
      {
        "club_badge_src": null,
        "entry": 961713,
        "entry_name": "Taff Times Ahead",
        "event_total": 58,
        "has_played": true,
        "id": 6627361,
        "last_rank": 61950,
        "player_name": "David Cadogan",
        "rank": 59248,
        "rank_sort": 59356,
        "total": 2346
      },
      {
        "club_badge_src": null,
        "entry": 966816,
        "entry_name": "Wirtz Place",
        "event_total": 69,
        "has_played": true,
        "id": 6663381,
        "last_rank": 84360,
        "player_name": "Daniel McMullon",
        "rank": 59248,
        "rank_sort": 59357,
        "total": 2346
      },
      {
        "club_badge_src": null,
        "entry": 979172,
        "entry_name": "Bangkok Shirokuma",
        "event_total": 53,
        "has_played": true,
        "id": 6750361,
        "last_rank": 46660,
        "player_name": "Ampmie Sandwhale",
        "rank": 59248,
        "rank_sort": 59358,
        "total": 2346
      },
      {
        "club_badge_src": null,
        "entry": 990610,
        "entry_name": "Livi Black Cats",
        "event_total": 59,
        "has_played": true,
        "id": 6830464,
        "last_rank": 56369,
        "player_name": "Peter G Wilson",
        "rank": 59248,
        "rank_sort": 59359,
        "total": 2346
      },
      {
        "club_badge_src": null,
        "entry": 1011170,
        "entry_name": "Rutter woke nonsense",
        "event_total": 69,
        "has_played": true,
        "id": 6993971,
        "last_rank": 75139,
        "player_name": "Charlie Silvester",
        "rank": 59248,
        "rank_sort": 59360,
        "total": 2346
      },
      {
        "club_badge_src": null,
        "entry": 1050465,
        "entry_name": "Champagne Khusanova",
        "event_total": 71,
        "has_played": true,
        "id": 7269884,
        "last_rank": 88594,
        "player_name": "lewis thompson",
        "rank": 59248,
        "rank_sort": 59361,
        "total": 2346
      },
      {
        "club_badge_src": null,
        "entry": 1061679,
        "entry_name": "A\u00efn't-Nouriskey",
        "event_total": 47,
        "has_played": true,
        "id": 7349447,
        "last_rank": 38644,
        "player_name": "Immo Kervinen",
        "rank": 59248,
        "rank_sort": 59362,
        "total": 2346
      },
      {
        "club_badge_src": null,
        "entry": 1094966,
        "entry_name": "Let\u2019s Go Sesko",
        "event_total": 67,
        "has_played": true,
        "id": 7583790,
        "last_rank": 79817,
        "player_name": "Sam Van de Schootbrugge",
        "rank": 59248,
        "rank_sort": 59363,
        "total": 2346
      },
      {
        "club_badge_src": null,
        "entry": 1150250,
        "entry_name": "Chris Woodnt",
        "event_total": 65,
        "has_played": true,
        "id": 7975421,
        "last_rank": 66848,
        "player_name": "Chris Clark",
        "rank": 59248,
        "rank_sort": 59364,
        "total": 2346
      },
      {
        "club_badge_src": null,
        "entry": 1158736,
        "entry_name": "Benson Roone(y)",
        "event_total": 58,
        "has_played": true,
        "id": 8036127,
        "last_rank": 61950,
        "player_name": "Django Melly",
        "rank": 59248,
        "rank_sort": 59365,
        "total": 2346
      },
      {
        "club_badge_src": null,
        "entry": 1188752,
        "entry_name": "Darbo FC",
        "event_total": 65,
        "has_played": true,
        "id": 8248273,
        "last_rank": 75139,
        "player_name": "Connor Darbyshire",
        "rank": 59248,
        "rank_sort": 59366,
        "total": 2346
      },
      {
        "club_badge_src": "https://fantasy.premierleague.com/gcs/plfpl-production-adobe-approved/plfpl-production/1190242/5ae99b05-7a3a-4036-b409-add09561eca4.png",
        "entry": 1190242,
        "entry_name": "V\u00c5GENFR\u00c5NTHAILAND",
        "event_total": 66,
        "has_played": true,
        "id": 8258542,
        "last_rank": 77258,
        "player_name": "Kenny H\u00e4gglund",
        "rank": 59248,
        "rank_sort": 59367,
        "total": 2346
      },
      {
        "club_badge_src": null,
        "entry": 1204805,
        "entry_name": "7-7-17- BL",
        "event_total": 58,
        "has_played": true,
        "id": 8361022,
        "last_rank": 61950,
        "player_name": "Jimmy Overton",
        "rank": 59248,
        "rank_sort": 59368,
        "total": 2346
      },
      {
        "club_badge_src": null,
        "entry": 1218115,
        "entry_name": "It Could Be Wirtz",
        "event_total": 66,
        "has_played": true,
        "id": 8455524,
        "last_rank": 77676,
        "player_name": "Daniel Windridge",
        "rank": 59248,
        "rank_sort": 59369,
        "total": 2346
      },
      {
        "club_badge_src": "https://fantasy.premierleague.com/gcs/plfpl-production-adobe-approved/plfpl-production/1227036/850fd8ac-30a9-4c98-869a-795b754ee988.png",
        "entry": 1227036,
        "entry_name": "The MandaFlorian",
        "event_total": 60,
        "has_played": true,
        "id": 8520042,
        "last_rank": 58071,
        "player_name": "Joseph Hubbard",
        "rank": 59248,
        "rank_sort": 59370,
        "total": 2346
      },
      {
        "club_badge_src": "https://fantasy.premierleague.com/gcs/plfpl-production-adobe-approved/plfpl-production/1245597/19cbf395-9e5f-4783-bab3-fdb6cb321f82.png",
        "entry": 1245597,
        "entry_name": "Raccoon Rovers",
        "event_total": 74,
        "has_played": true,
        "id": 8650744,
        "last_rank": 96777,
        "player_name": "Rayaan Ali",
        "rank": 59248,
        "rank_sort": 59371,
        "total": 2346
      },
      {
        "club_badge_src": null,
        "entry": 1264515,
        "entry_name": "Allday AFC",
        "event_total": 40,
        "has_played": true,
        "id": 8785918,
        "last_rank": 35166,
        "player_name": "Dan Allday",
        "rank": 59248,
        "rank_sort": 59372,
        "total": 2346
      },
      {
        "club_badge_src": null,
        "entry": 1299391,
        "entry_name": "Holy Saka-mole",
        "event_total": 65,
        "has_played": true,
        "id": 9030713,
        "last_rank": 75139,
        "player_name": "Chiara Ciarleglio",
        "rank": 59248,
        "rank_sort": 59373,
        "total": 2346
      },
      {
        "club_badge_src": null,
        "entry": 1307700,
        "entry_name": "Keej's Dream Team",
        "event_total": 57,
        "has_played": true,
        "id": 9089335,
        "last_rank": 59813,
        "player_name": "Keith Johnston",
        "rank": 59248,
        "rank_sort": 59374,
        "total": 2346
      },
      {
        "club_badge_src": null,
        "entry": 1326491,
        "entry_name": "Jovo Lukic FC",
        "event_total": 55,
        "has_played": true,
        "id": 9220413,
        "last_rank": 56708,
        "player_name": "Zlatko Vasic",
        "rank": 59248,
        "rank_sort": 59375,
        "total": 2346
      },
      {
        "club_badge_src": "https://fantasy.premierleague.com/gcs/plfpl-production-adobe-approved/plfpl-production/1363021/0723fc2f-b0d9-456c-9cd2-78ab65ad31eb.png",
        "entry": 1363021,
        "entry_name": "Guppies Unleashed",
        "event_total": 62,
        "has_played": true,
        "id": 9475207,
        "last_rank": 61411,
        "player_name": "Gopal Shivanand",
        "rank": 59248,
        "rank_sort": 59376,
        "total": 2346
      },
      {
        "club_badge_src": null,
        "entry": 1364814,
        "entry_name": "NoVA Canes",
        "event_total": 61,
        "has_played": true,
        "id": 9487672,
        "last_rank": 67063,
        "player_name": "Derik Zeitner",
        "rank": 59248,
        "rank_sort": 59377,
        "total": 2346
      },
      {
        "club_badge_src": null,
        "entry": 1369470,
        "entry_name": "Coggie's Boys",
        "event_total": 70,
        "has_played": true,
        "id": 9519619,
        "last_rank": 76947,
        "player_name": "Phil Cogbill",
        "rank": 59248,
        "rank_sort": 59378,
        "total": 2346
      },
      {
        "club_badge_src": null,
        "entry": 1374846,
        "entry_name": "Wathen FC",
        "event_total": 53,
        "has_played": true,
        "id": 9557073,
        "last_rank": 53345,
        "player_name": "Liam Wathen",
        "rank": 59248,
        "rank_sort": 59379,
        "total": 2346
      },
      {
        "club_badge_src": null,
        "entry": 1383513,
        "entry_name": "Tonyreal",
        "event_total": 43,
        "has_played": true,
        "id": 9622504,
        "last_rank": 39023,
        "player_name": "Paul Taylor",
        "rank": 59248,
        "rank_sort": 59380,
        "total": 2346
      },
      {
        "club_badge_src": "https://fantasy.premierleague.com/gcs/plfpl-production-adobe-approved/plfpl-production/1392473/013bf2fe-ac56-43e8-9ff4-955d28f24267.png",
        "entry": 1392473,
        "entry_name": "Here we Gyo",
        "event_total": 59,
        "has_played": true,
        "id": 9687198,
        "last_rank": 63724,
        "player_name": "Antony Rikkou",
        "rank": 59248,
        "rank_sort": 59381,
        "total": 2346
      },
      {
        "club_badge_src": null,
        "entry": 1415581,
        "entry_name": "Atl\u00e9tico Al Pacino",
        "event_total": 58,
        "has_played": true,
        "id": 9854271,
        "last_rank": 54494,
        "player_name": "Nick Leggatt",
        "rank": 59248,
        "rank_sort": 59382,
        "total": 2346
      },
      {
        "club_badge_src": null,
        "entry": 1430512,
        "entry_name": "Tough Sheet Whites",
        "event_total": 46,
        "has_played": true,
        "id": 9967916,
        "last_rank": 42648,
        "player_name": "Ash Flek",
        "rank": 59248,
        "rank_sort": 59383,
        "total": 2346
      },
      {
        "club_badge_src": null,
        "entry": 1464021,
        "entry_name": "salajevih11",
        "event_total": 61,
        "has_played": true,
        "id": 10204920,
        "last_rank": 59632,
        "player_name": "Mihael Salaj",
        "rank": 59248,
        "rank_sort": 59384,
        "total": 2346
      },
      {
        "club_badge_src": null,
        "entry": 1475316,
        "entry_name": "Scissor me, Zirkzee",
        "event_total": 56,
        "has_played": true,
        "id": 10283885,
        "last_rank": 58071,
        "player_name": "Lars Gunnesdal",
        "rank": 59248,
        "rank_sort": 59385,
        "total": 2346
      },
      {
        "club_badge_src": null,
        "entry": 1476241,
        "entry_name": "MyUnited",
        "event_total": 62,
        "has_played": true,
        "id": 10290722,
        "last_rank": 69323,
        "player_name": "Deepak Devanand",
        "rank": 59248,
        "rank_sort": 59386,
        "total": 2346
      },
      {
        "club_badge_src": null,
        "entry": 1516597,
        "entry_name": "FC Club Tropicana",
        "event_total": 58,
        "has_played": true,
        "id": 10577953,
        "last_rank": 61606,
        "player_name": "Jordon Hewitt",
        "rank": 59248,
        "rank_sort": 59387,
        "total": 2346
      },
      {
        "club_badge_src": "https://fantasy.premierleague.com/gcs/plfpl-production-adobe-approved/plfpl-production/1527276/567be7c1-70d8-4794-b884-36d03185e537.png",
        "entry": 1527276,
        "entry_name": "Ain't No Doughty",
        "event_total": 68,
        "has_played": true,
        "id": 10652430,
        "last_rank": 81420,
        "player_name": "Alex McEvoy",
        "rank": 59248,
        "rank_sort": 59388,
        "total": 2346
      },
      {
        "club_badge_src": null,
        "entry": 1550958,
        "entry_name": "Zubimental FC",
        "event_total": 61,
        "has_played": true,
        "id": 10828631,
        "last_rank": 67422,
        "player_name": "George Hart",
        "rank": 59248,
        "rank_sort": 59389,
        "total": 2346
      },
      {
        "club_badge_src": null,
        "entry": 1551921,
        "entry_name": "Show Me Da Mane",
        "event_total": 62,
        "has_played": true,
        "id": 10835705,
        "last_rank": 69323,
        "player_name": "Kyle Crellin",
        "rank": 59248,
        "rank_sort": 59390,
        "total": 2346
      },
      {
        "club_badge_src": null,
        "entry": 1584742,
        "entry_name": "WarrensWanderersFC",
        "event_total": 62,
        "has_played": true,
        "id": 11077829,
        "last_rank": 69323,
        "player_name": "Warren Bradford",
        "rank": 59248,
        "rank_sort": 59391,
        "total": 2346
      },
      {
        "club_badge_src": null,
        "entry": 1593227,
        "entry_name": "All Star United",
        "event_total": 50,
        "has_played": true,
        "id": 11142345,
        "last_rank": 48642,
        "player_name": "Adrian Wong",
        "rank": 59248,
        "rank_sort": 59392,
        "total": 2346
      },
      {
        "club_badge_src": null,
        "entry": 1615605,
        "entry_name": "Le F\u00e9eling Good",
        "event_total": 47,
        "has_played": true,
        "id": 11304804,
        "last_rank": 44048,
        "player_name": "James Doughty",
        "rank": 59248,
        "rank_sort": 59393,
        "total": 2346
      },
      {
        "club_badge_src": null,
        "entry": 1670267,
        "entry_name": "asal",
        "event_total": 56,
        "has_played": true,
        "id": 11694131,
        "last_rank": 58388,
        "player_name": "MohamedFarouk Asal",
        "rank": 59248,
        "rank_sort": 59394,
        "total": 2346
      },
      {
        "club_badge_src": null,
        "entry": 1701487,
        "entry_name": "kalid alnashri",
        "event_total": 56,
        "has_played": true,
        "id": 11918666,
        "last_rank": 58388,
        "player_name": "Kalid Alnashri",
        "rank": 59248,
        "rank_sort": 59395,
        "total": 2346
      },
      {
        "club_badge_src": null,
        "entry": 1709475,
        "entry_name": "Mans Utd",
        "event_total": 40,
        "has_played": true,
        "id": 11977397,
        "last_rank": 35619,
        "player_name": "Mansel Healy",
        "rank": 59248,
        "rank_sort": 59396,
        "total": 2346
      },
      {
        "club_badge_src": null,
        "entry": 1911016,
        "entry_name": "the moyesias",
        "event_total": 59,
        "has_played": true,
        "id": 13473042,
        "last_rank": 63724,
        "player_name": "barry walshe",
        "rank": 59248,
        "rank_sort": 59397,
        "total": 2346
      },
      {
        "club_badge_src": null,
        "entry": 1920642,
        "entry_name": "Games so back",
        "event_total": 42,
        "has_played": true,
        "id": 13543446,
        "last_rank": 37589,
        "player_name": "jason oconnor",
        "rank": 59248,
        "rank_sort": 59398,
        "total": 2346
      },
      {
        "club_badge_src": null,
        "entry": 1931301,
        "entry_name": "Zeus looseaboothoose",
        "event_total": 67,
        "has_played": true,
        "id": 13621199,
        "last_rank": 79817,
        "player_name": "Brian Tunnicliffe",
        "rank": 59248,
        "rank_sort": 59399,
        "total": 2346
      },
      {
        "club_badge_src": null,
        "entry": 1968251,
        "entry_name": "Luggy\u2019s Leven",
        "event_total": 64,
        "has_played": true,
        "id": 13890555,
        "last_rank": 73423,
        "player_name": "Jolyon Lugg",
        "rank": 59248,
        "rank_sort": 59400,
        "total": 2346
      }
    ]
  }
}