{
  "last_updated_data": "2026-05-24T23:28:17Z",
  "league": {
    "admin_entry": null,
    "closed": false,
    "code_privacy": "p",
    "created": "2025-07-20T23:14:33.933835Z",
    "cup_league": 2815434,
    "has_cup": true,
    "id": 314,
    "league_type": "s",
    "max_entries": null,
    "name": "Overall",
    "rank": null,
    "scoring": "c",
    "start_event": 1
  },
  "new_entries": {
    "has_next": false,
    "page": 1,
    "results": []
  },
  "standings": {
    "has_next": true,
    "page": 1609,
    "results": [
      {
        "club_badge_src": null,
        "entry": 1418089,
        "entry_name": "NK Nocna Mora",
        "event_total": 50,
        "has_played": true,
        "id": 9873480,
        "last_rank": 67422,
        "player_name": "Luka Jurisic",
        "rank": 80241,
        "rank_sort": 80401,
        "total": 2335
      },
      {
        "club_badge_src": "https://fantasy.premierleague.com/gcs/plfpl-production-adobe-approved/plfpl-production/1443808/73580a20-69ce-46ce-b8da-5a2e0f5adeeb.png",
        "entry": 1443808,
        "entry_name": "Canine capers",
        "event_total": 41,
        "has_played": true,
        "id": 10060705,
        "last_rank": 51720,
        "player_name": "Robert Shepherd",
        "rank": 80241,
        "rank_sort": 80402,
        "total": 2335
      },
      {
        "club_badge_src": null,
        "entry": 1450965,
        "entry_name": "Fish FC",
        "event_total": 40,
        "has_played": true,
        "id": 10110359,
        "last_rank": 44048,
        "player_name": "Frank Fishenden",
        "rank": 80241,
        "rank_sort": 80403,
        "total": 2335
      },
      {
        "club_badge_src": null,
        "entry": 1454500,
        "entry_name": "FPL_SODO",
        "event_total": 38,
        "has_played": true,
        "id": 10134985,
        "last_rank": 47163,
        "player_name": "Sadik Mohammed",
        "rank": 80241,
        "rank_sort": 80404,
        "total": 2335
      },
      {
        "club_badge_src": "https://fantasy.premierleague.com/gcs/plfpl-production-adobe-approved/plfpl-production/1454850/6177fe72-67fc-40b9-bcb7-19c6b644ccb3.png",
        "entry": 1454850,
        "entry_name": "Expected Toulouse",
        "event_total": 76,
        "has_played": true,
        "id": 10137424,
        "last_rank": 132198,
        "player_name": "Jakub Setkowicz",
        "rank": 80241,
        "rank_sort": 80405,
        "total": 2335
      },
      {
        "club_badge_src": null,
        "entry": 1463278,
        "entry_name": "FC Jonsy",
        "event_total": 60,
        "has_played": true,
        "id": 10199654,
        "last_rank": 88249,
        "player_name": "Nikola Pavlovi\u0107",
        "rank": 80241,
        "rank_sort": 80406,
        "total": 2335
      },
      {
        "club_badge_src": null,
        "entry": 1514862,
        "entry_name": "Kai me a River",
        "event_total": 62,
        "has_played": true,
        "id": 10565671,
        "last_rank": 93883,
        "player_name": "Danny Nash",
        "rank": 80241,
        "rank_sort": 80407,
        "total": 2335
      },
      {
        "club_badge_src": null,
        "entry": 1526742,
        "entry_name": "A-Cunha Matata",
        "event_total": 69,
        "has_played": true,
        "id": 10648691,
        "last_rank": 111405,
        "player_name": "Trev Wright",
        "rank": 80241,
        "rank_sort": 80408,
        "total": 2335
      },
      {
        "club_badge_src": null,
        "entry": 1542976,
        "entry_name": "Tito97Allam",
        "event_total": 67,
        "has_played": true,
        "id": 10769827,
        "last_rank": 95890,
        "player_name": "taha allam",
        "rank": 80241,
        "rank_sort": 80409,
        "total": 2335
      },
      {
        "club_badge_src": null,
        "entry": 1623525,
        "entry_name": "Palmer Violets",
        "event_total": 78,
        "has_played": true,
        "id": 11363228,
        "last_rank": 139917,
        "player_name": "Elliott Young",
        "rank": 80241,
        "rank_sort": 80410,
        "total": 2335
      },
      {
        "club_badge_src": null,
        "entry": 1637110,
        "entry_name": "Cerveza",
        "event_total": 59,
        "has_played": true,
        "id": 11459086,
        "last_rank": 87074,
        "player_name": "Martin Palmer",
        "rank": 80241,
        "rank_sort": 80411,
        "total": 2335
      },
      {
        "club_badge_src": null,
        "entry": 1645212,
        "entry_name": "ShowusyaCunha",
        "event_total": 64,
        "has_played": true,
        "id": 11516684,
        "last_rank": 88185,
        "player_name": "Jake Danson",
        "rank": 80241,
        "rank_sort": 80412,
        "total": 2335
      },
      {
        "club_badge_src": "https://fantasy.premierleague.com/gcs/plfpl-production-adobe-approved/plfpl-production/1660964/058a16e2-5a6b-4154-a8c5-357145b9f5e8.png",
        "entry": 1660964,
        "entry_name": "~\u041a\u0443\u043b\u0430\u26bd\ufe0f25230~",
        "event_total": 49,
        "has_played": true,
        "id": 11628783,
        "last_rank": 65475,
        "player_name": "Sr\u0111an Bogova\u010dki",
        "rank": 80241,
        "rank_sort": 80413,
        "total": 2335
      },
      {
        "club_badge_src": null,
        "entry": 1672684,
        "entry_name": "Profa08",
        "event_total": 54,
        "has_played": true,
        "id": 11710772,
        "last_rank": 67063,
        "player_name": "Milan Nikoli\u0107",
        "rank": 80241,
        "rank_sort": 80414,
        "total": 2335
      },
      {
        "club_badge_src": null,
        "entry": 1678989,
        "entry_name": "Rigor Mortis Rebels",
        "event_total": 57,
        "has_played": true,
        "id": 11754180,
        "last_rank": 82069,
        "player_name": "Paul Stocker",
        "rank": 80241,
        "rank_sort": 80415,
        "total": 2335
      },
      {
        "club_badge_src": null,
        "entry": 1698741,
        "entry_name": "Crouch Potatos",
        "event_total": 58,
        "has_played": true,
        "id": 11898529,
        "last_rank": 84731,
        "player_name": "Matt Hart",
        "rank": 80241,
        "rank_sort": 80416,
        "total": 2335
      },
      {
        "club_badge_src": null,
        "entry": 1701403,
        "entry_name": "Noten FC",
        "event_total": 56,
        "has_played": true,
        "id": 11918059,
        "last_rank": 79817,
        "player_name": "Noah Bruins",
        "rank": 80241,
        "rank_sort": 80417,
        "total": 2335
      },
      {
        "club_badge_src": "https://fantasy.premierleague.com/gcs/plfpl-production-adobe-approved/plfpl-production/1725220/ba769967-726a-47ea-98bf-a531dac62401.png",
        "entry": 1725220,
        "entry_name": "NACER N1",
        "event_total": 43,
        "has_played": true,
        "id": 12098081,
        "last_rank": 55014,
        "player_name": "Nacer El Ouardi",
        "rank": 80241,
        "rank_sort": 80418,
        "total": 2335
      },
      {
        "club_badge_src": "https://fantasy.premierleague.com/gcs/plfpl-production-adobe-approved/plfpl-production/1761193/c438fcf8-e6e0-4230-86bd-a62ec79e7e73.png",
        "entry": 1761193,
        "entry_name": "Pickthatoneout",
        "event_total": 75,
        "has_played": true,
        "id": 12365613,
        "last_rank": 130073,
        "player_name": "Shaun Robinson",
        "rank": 80241,
        "rank_sort": 80419,
        "total": 2335
      },
      {
        "club_badge_src": null,
        "entry": 1800700,
        "entry_name": "SSPX11",
        "event_total": 55,
        "has_played": true,
        "id": 12656984,
        "last_rank": 77676,
        "player_name": "donal griffin",
        "rank": 80241,
        "rank_sort": 80420,
        "total": 2335
      },
      {
        "club_badge_src": null,
        "entry": 1807053,
        "entry_name": "KINGS LANDING",
        "event_total": 45,
        "has_played": true,
        "id": 12704252,
        "last_rank": 58388,
        "player_name": "Aesthetic THings",
        "rank": 80241,
        "rank_sort": 80421,
        "total": 2335
      },
      {
        "club_badge_src": null,
        "entry": 1879362,
        "entry_name": "Andys Allstars",
        "event_total": 55,
        "has_played": true,
        "id": 13240643,
        "last_rank": 77676,
        "player_name": "Andrew Johnson",
        "rank": 80241,
        "rank_sort": 80422,
        "total": 2335
      },
      {
        "club_badge_src": null,
        "entry": 1892242,
        "entry_name": "Always losing",
        "event_total": 61,
        "has_played": true,
        "id": 13336678,
        "last_rank": 81646,
        "player_name": "Roope Kiviranta",
        "rank": 80241,
        "rank_sort": 80423,
        "total": 2335
      },
      {
        "club_badge_src": null,
        "entry": 1939605,
        "entry_name": "Los Merengues",
        "event_total": 51,
        "has_played": true,
        "id": 13681042,
        "last_rank": 69323,
        "player_name": "Roshane Johnson",
        "rank": 80241,
        "rank_sort": 80424,
        "total": 2335
      },
      {
        "club_badge_src": "https://fantasy.premierleague.com/gcs/plfpl-production-adobe-approved/plfpl-production/1986235/7e7c9891-b391-4811-8b41-26a889026211.png",
        "entry": 1986235,
        "entry_name": "Saka Potatoes",
        "event_total": 56,
        "has_played": true,
        "id": 14030475,
        "last_rank": 70985,
        "player_name": "Martin Trueman",
        "rank": 80241,
        "rank_sort": 80425,
        "total": 2335
      },
      {
        "club_badge_src": null,
        "entry": 2045563,
        "entry_name": "Guardiol Hart",
        "event_total": 61,
        "has_played": true,
        "id": 14487056,
        "last_rank": 81646,
        "player_name": "Malvin Chitswamatombo",
        "rank": 80241,
        "rank_sort": 80426,
        "total": 2335
      },
      {
        "club_badge_src": null,
        "entry": 2074153,
        "entry_name": "Sallos",
        "event_total": 61,
        "has_played": true,
        "id": 14705704,
        "last_rank": 91835,
        "player_name": "Gon\u00e7alo Matos",
        "rank": 80241,
        "rank_sort": 80427,
        "total": 2335
      },
      {
        "club_badge_src": null,
        "entry": 2086830,
        "entry_name": "MangoJuice",
        "event_total": 63,
        "has_played": true,
        "id": 14805202,
        "last_rank": 86304,
        "player_name": "Benjamin Seeto",
        "rank": 80241,
        "rank_sort": 80428,
        "total": 2335
      },
      {
        "club_badge_src": null,
        "entry": 2093294,
        "entry_name": "Wirtz' Wurst",
        "event_total": 63,
        "has_played": true,
        "id": 14851935,
        "last_rank": 95890,
        "player_name": "Sjur Kvamme",
        "rank": 80241,
        "rank_sort": 80429,
        "total": 2335
      },
      {
        "club_badge_src": null,
        "entry": 2112601,
        "entry_name": "Machine Gun Skelly",
        "event_total": 77,
        "has_played": true,
        "id": 14995346,
        "last_rank": 135737,
        "player_name": "Ant Christides",
        "rank": 80241,
        "rank_sort": 80430,
        "total": 2335
      },
      {
        "club_badge_src": null,
        "entry": 2126487,
        "entry_name": "pure hoops",
        "event_total": 48,
        "has_played": true,
        "id": 15109353,
        "last_rank": 63390,
        "player_name": "Craig Lee",
        "rank": 80241,
        "rank_sort": 80431,
        "total": 2335
      },
      {
        "club_badge_src": null,
        "entry": 2135759,
        "entry_name": "GUNNERS SEASON VII",
        "event_total": 52,
        "has_played": true,
        "id": 15178449,
        "last_rank": 71386,
        "player_name": "Not Fake Anymore",
        "rank": 80241,
        "rank_sort": 80432,
        "total": 2335
      },
      {
        "club_badge_src": null,
        "entry": 2142243,
        "entry_name": "Frimpong Show",
        "event_total": 49,
        "has_played": true,
        "id": 15225300,
        "last_rank": 65475,
        "player_name": "Jake Leeworthy",
        "rank": 80241,
        "rank_sort": 80433,
        "total": 2335
      },
      {
        "club_badge_src": null,
        "entry": 2185523,
        "entry_name": "Petite FC",
        "event_total": 59,
        "has_played": true,
        "id": 15547090,
        "last_rank": 86735,
        "player_name": "Krish Bagga",
        "rank": 80241,
        "rank_sort": 80434,
        "total": 2335
      },
      {
        "club_badge_src": null,
        "entry": 2191780,
        "entry_name": "zinou kermiche",
        "event_total": 47,
        "has_played": true,
        "id": 15593727,
        "last_rank": 61950,
        "player_name": "Zinou De bruyen",
        "rank": 80241,
        "rank_sort": 80435,
        "total": 2335
      },
      {
        "club_badge_src": null,
        "entry": 2193989,
        "entry_name": "It Could Be Wirtz",
        "event_total": 50,
        "has_played": true,
        "id": 15610269,
        "last_rank": 67422,
        "player_name": "Luke Bates",
        "rank": 80241,
        "rank_sort": 80436,
        "total": 2335
      },
      {
        "club_badge_src": null,
        "entry": 2209885,
        "entry_name": "vaggandre",
        "event_total": 62,
        "has_played": true,
        "id": 15736365,
        "last_rank": 93883,
        "player_name": "Vaggelis Andreou",
        "rank": 80241,
        "rank_sort": 80437,
        "total": 2335
      },
      {
        "club_badge_src": null,
        "entry": 2213799,
        "entry_name": "Champ",
        "event_total": 51,
        "has_played": true,
        "id": 15765168,
        "last_rank": 69323,
        "player_name": "Obey Suleyman",
        "rank": 80241,
        "rank_sort": 80438,
        "total": 2335
      },
      {
        "club_badge_src": null,
        "entry": 2225899,
        "entry_name": "Raja katkat",
        "event_total": 59,
        "has_played": true,
        "id": 15855405,
        "last_rank": 86735,
        "player_name": "katkat roucadi",
        "rank": 80241,
        "rank_sort": 80439,
        "total": 2335
      },
      {
        "club_badge_src": null,
        "entry": 2319740,
        "entry_name": "Sned FC",
        "event_total": 52,
        "has_played": true,
        "id": 16548319,
        "last_rank": 71713,
        "player_name": "Euan Snedden",
        "rank": 80241,
        "rank_sort": 80440,
        "total": 2335
      },
      {
        "club_badge_src": null,
        "entry": 2322694,
        "entry_name": "under my cucurella",
        "event_total": 65,
        "has_played": true,
        "id": 16569668,
        "last_rank": 101419,
        "player_name": "Jack Callan",
        "rank": 80241,
        "rank_sort": 80441,
        "total": 2335
      },
      {
        "club_badge_src": null,
        "entry": 2329796,
        "entry_name": "Me, Myself, Ndiaye",
        "event_total": 72,
        "has_played": true,
        "id": 16622200,
        "last_rank": 120438,
        "player_name": "Jordan Haystead",
        "rank": 80241,
        "rank_sort": 80442,
        "total": 2335
      },
      {
        "club_badge_src": null,
        "entry": 2383127,
        "entry_name": "wadi west",
        "event_total": 56,
        "has_played": true,
        "id": 17017880,
        "last_rank": 79079,
        "player_name": "Wadi West",
        "rank": 80241,
        "rank_sort": 80443,
        "total": 2335
      },
      {
        "club_badge_src": null,
        "entry": 2405646,
        "entry_name": "Joss do it",
        "event_total": 69,
        "has_played": true,
        "id": 17194804,
        "last_rank": 111669,
        "player_name": "Tanya Joselowsky",
        "rank": 80241,
        "rank_sort": 80444,
        "total": 2335
      },
      {
        "club_badge_src": null,
        "entry": 2406028,
        "entry_name": "Cooks Skierniewice",
        "event_total": 56,
        "has_played": true,
        "id": 17197642,
        "last_rank": 79817,
        "player_name": "Kamil Tartanus",
        "rank": 80241,
        "rank_sort": 80445,
        "total": 2335
      },
      {
        "club_badge_src": "https://fantasy.premierleague.com/gcs/plfpl-production-adobe-approved/plfpl-production/2436071/8f9307ce-a93a-4ba0-a314-42961e7c4d84.png",
        "entry": 2436071,
        "entry_name": "Magpies",
        "event_total": 45,
        "has_played": true,
        "id": 17420761,
        "last_rank": 58388,
        "player_name": "Andrew Fielder",
        "rank": 80241,
        "rank_sort": 80446,
        "total": 2335
      },
      {
        "club_badge_src": null,
        "entry": 2619613,
        "entry_name": "Jniggle",
        "event_total": 60,
        "has_played": true,
        "id": 18822886,
        "last_rank": 89055,
        "player_name": "Junaid Mirza",
        "rank": 80241,
        "rank_sort": 80447,
        "total": 2335
      },
      {
        "club_badge_src": null,
        "entry": 2662693,
        "entry_name": "Sherwood United",
        "event_total": 58,
        "has_played": true,
        "id": 19140870,
        "last_rank": 83934,
        "player_name": "Les Wood",
        "rank": 80241,
        "rank_sort": 80448,
        "total": 2335
      },
      {
        "club_badge_src": null,
        "entry": 2678340,
        "entry_name": "Bilbao Baggins V3",
        "event_total": 69,
        "has_played": true,
        "id": 19262363,
        "last_rank": 100949,
        "player_name": "Daniel Whysall",
        "rank": 80241,
        "rank_sort": 80449,
        "total": 2335
      },
      {
        "club_badge_src": null,
        "entry": 2697438,
        "entry_name": "StuMCFC",
        "event_total": 66,
        "has_played": true,
        "id": 19403737,
        "last_rank": 103254,
        "player_name": "Stuart Munro",
        "rank": 80241,
        "rank_sort": 80450,
        "total": 2335
      }
    ]
  }
}