{
  "last_updated_data": "2026-05-24T23:28:17Z",
  "league": {
    "admin_entry": null,
    "closed": false,
    "code_privacy": "p",
    "created": "2025-07-20T23:14:33.933835Z",
    "cup_league": 2815434,
    "has_cup": true,
    "id": 314,
    "league_type": "s",
    "max_entries": null,
    "name": "Overall",
    "rank": null,
    "scoring": "c",
    "start_event": 1
  },
  "new_entries": {
    "has_next": false,
    "page": 1,
    "results": []
  },
  "standings": {
    "has_next": true,
    "page": 976,
    "results": [
      {
        "club_badge_src": null,
        "entry": 2060430,
        "entry_name": "Bad Bunny",
        "event_total": 59,
        "has_played": true,
        "id": 14598309,
        "last_rank": 51984,
        "player_name": "Quentin Jacquemin",
        "rank": 48669,
        "rank_sort": 48751,
        "total": 2353
      },
      {
        "club_badge_src": null,
        "entry": 2099743,
        "entry_name": "BLEACH N&1",
        "event_total": 56,
        "has_played": true,
        "id": 14898568,
        "last_rank": 36624,
        "player_name": "ismail benjdida",
        "rank": 48669,
        "rank_sort": 48752,
        "total": 2353
      },
      {
        "club_badge_src": "https://fantasy.premierleague.com/gcs/plfpl-production-adobe-approved/plfpl-production/2182979/eebd5c13-c70a-456b-a29a-23dc303170c1.png",
        "entry": 2182979,
        "entry_name": "Just Gin Time FC",
        "event_total": 51,
        "has_played": true,
        "id": 15527503,
        "last_rank": 40503,
        "player_name": "Jonathan Tewson",
        "rank": 48669,
        "rank_sort": 48753,
        "total": 2353
      },
      {
        "club_badge_src": null,
        "entry": 2201149,
        "entry_name": "Johnstown FC",
        "event_total": 58,
        "has_played": true,
        "id": 15664246,
        "last_rank": 50635,
        "player_name": "Andrew Johnston",
        "rank": 48669,
        "rank_sort": 48754,
        "total": 2353
      },
      {
        "club_badge_src": null,
        "entry": 2234311,
        "entry_name": "Infinity eleven",
        "event_total": 63,
        "has_played": true,
        "id": 15917286,
        "last_rank": 58911,
        "player_name": "Ada Harris",
        "rank": 48669,
        "rank_sort": 48755,
        "total": 2353
      },
      {
        "club_badge_src": "https://fantasy.premierleague.com/gcs/plfpl-production-adobe-approved/plfpl-production/2285557/543a3731-9042-4c82-91c9-82621c24a9b6.png",
        "entry": 2285557,
        "entry_name": "Ekitike-taka",
        "event_total": 58,
        "has_played": true,
        "id": 16299440,
        "last_rank": 50468,
        "player_name": "Rory Tierney",
        "rank": 48669,
        "rank_sort": 48756,
        "total": 2353
      },
      {
        "club_badge_src": null,
        "entry": 2442139,
        "entry_name": "AL-Jawadi",
        "event_total": 56,
        "has_played": true,
        "id": 17465665,
        "last_rank": 47596,
        "player_name": "ali Aljawadi--",
        "rank": 48669,
        "rank_sort": 48757,
        "total": 2353
      },
      {
        "club_badge_src": null,
        "entry": 2469842,
        "entry_name": "Rangers",
        "event_total": 65,
        "has_played": true,
        "id": 17668622,
        "last_rank": 62429,
        "player_name": "Jayden Maharaj",
        "rank": 48669,
        "rank_sort": 48758,
        "total": 2353
      },
      {
        "club_badge_src": null,
        "entry": 2509572,
        "entry_name": "Reyan fc",
        "event_total": 58,
        "has_played": true,
        "id": 17974451,
        "last_rank": 50199,
        "player_name": "Kedir Nuru",
        "rank": 48669,
        "rank_sort": 48759,
        "total": 2353
      },
      {
        "club_badge_src": null,
        "entry": 2552993,
        "entry_name": "Perth Glory",
        "event_total": 69,
        "has_played": true,
        "id": 18305094,
        "last_rank": 69907,
        "player_name": "Will Matson",
        "rank": 48669,
        "rank_sort": 48760,
        "total": 2353
      },
      {
        "club_badge_src": "https://fantasy.premierleague.com/gcs/plfpl-production-adobe-approved/plfpl-production/2716739/19ae3125-2cb7-43c7-99b8-1bdbcd64dd72.png",
        "entry": 2716739,
        "entry_name": "La Furia",
        "event_total": 61,
        "has_played": true,
        "id": 19547586,
        "last_rank": 48898,
        "player_name": "Gary Sueiro",
        "rank": 48669,
        "rank_sort": 48761,
        "total": 2353
      },
      {
        "club_badge_src": null,
        "entry": 2755585,
        "entry_name": "Cunha believe it?",
        "event_total": 78,
        "has_played": true,
        "id": 20069692,
        "last_rank": 88594,
        "player_name": "Zade Ghedan",
        "rank": 48669,
        "rank_sort": 48762,
        "total": 2353
      },
      {
        "club_badge_src": null,
        "entry": 2821334,
        "entry_name": "I always win mate",
        "event_total": 59,
        "has_played": true,
        "id": 20611791,
        "last_rank": 45927,
        "player_name": "Ashik Dossajee",
        "rank": 48669,
        "rank_sort": 48763,
        "total": 2353
      },
      {
        "club_badge_src": null,
        "entry": 2836457,
        "entry_name": "mokotovianka mokotov",
        "event_total": 67,
        "has_played": true,
        "id": 20728946,
        "last_rank": 65796,
        "player_name": "Maciej Friedel",
        "rank": 48669,
        "rank_sort": 48764,
        "total": 2353
      },
      {
        "club_badge_src": "https://fantasy.premierleague.com/gcs/plfpl-production-adobe-approved/plfpl-production/2847181/3365fccb-96eb-4dce-ac98-c8a0daaecf74.png",
        "entry": 2847181,
        "entry_name": "Cold Palmer FC",
        "event_total": 72,
        "has_played": true,
        "id": 20815345,
        "last_rank": 76128,
        "player_name": "Dean Haddow",
        "rank": 48669,
        "rank_sort": 48765,
        "total": 2353
      },
      {
        "club_badge_src": null,
        "entry": 3031197,
        "entry_name": "Szwagier FC",
        "event_total": 44,
        "has_played": true,
        "id": 22305291,
        "last_rank": 32190,
        "player_name": "Mateusz Matuszewski",
        "rank": 48669,
        "rank_sort": 48766,
        "total": 2353
      },
      {
        "club_badge_src": "https://fantasy.premierleague.com/gcs/plfpl-production-adobe-approved/plfpl-production/3148878/ea889067-c017-4764-bbfe-20ea0e4f9f0e.png",
        "entry": 3148878,
        "entry_name": "OMR",
        "event_total": 64,
        "has_played": true,
        "id": 23251458,
        "last_rank": 60671,
        "player_name": "Mohamed Fantasy",
        "rank": 48669,
        "rank_sort": 48767,
        "total": 2353
      },
      {
        "club_badge_src": "https://fantasy.premierleague.com/gcs/plfpl-production-adobe-approved/plfpl-production/3206821/41dfd7ae-ee21-45d1-a9e8-4ecb2dac590c.png",
        "entry": 3206821,
        "entry_name": "Supper\u00e5det",
        "event_total": 76,
        "has_played": true,
        "id": 23707424,
        "last_rank": 75874,
        "player_name": "Ola Brandsnes",
        "rank": 48669,
        "rank_sort": 48768,
        "total": 2353
      },
      {
        "club_badge_src": null,
        "entry": 3352336,
        "entry_name": "King\u2019s Collection",
        "event_total": 59,
        "has_played": true,
        "id": 24870039,
        "last_rank": 51984,
        "player_name": "Mtoto Mzuri",
        "rank": 48669,
        "rank_sort": 48769,
        "total": 2353
      },
      {
        "club_badge_src": null,
        "entry": 3434324,
        "entry_name": "sajad ammar",
        "event_total": 58,
        "has_played": true,
        "id": 25513115,
        "last_rank": 50635,
        "player_name": "Sajad Ammar",
        "rank": 48669,
        "rank_sort": 48770,
        "total": 2353
      },
      {
        "club_badge_src": null,
        "entry": 3533914,
        "entry_name": "A3 Milan",
        "event_total": 61,
        "has_played": true,
        "id": 26302891,
        "last_rank": 55514,
        "player_name": "BRYN BAGWELL",
        "rank": 48669,
        "rank_sort": 48771,
        "total": 2353
      },
      {
        "club_badge_src": null,
        "entry": 3682448,
        "entry_name": "Palmer Violets",
        "event_total": 59,
        "has_played": true,
        "id": 27467811,
        "last_rank": 52205,
        "player_name": "Ciaran Baker",
        "rank": 48669,
        "rank_sort": 48772,
        "total": 2353
      },
      {
        "club_badge_src": null,
        "entry": 3990199,
        "entry_name": "Ctrl-Alt-DeLeeds",
        "event_total": 50,
        "has_played": true,
        "id": 30044687,
        "last_rank": 39403,
        "player_name": "Shane O'Connor",
        "rank": 48669,
        "rank_sort": 48773,
        "total": 2353
      },
      {
        "club_badge_src": "https://fantasy.premierleague.com/gcs/plfpl-production-adobe-approved/plfpl-production/4045251/9c371b5f-4ef4-494b-90f1-38d1d537bb6a.png",
        "entry": 4045251,
        "entry_name": "Oppegaard United",
        "event_total": 50,
        "has_played": true,
        "id": 30510230,
        "last_rank": 39403,
        "player_name": "Kenny O-E",
        "rank": 48669,
        "rank_sort": 48774,
        "total": 2353
      },
      {
        "club_badge_src": null,
        "entry": 4058841,
        "entry_name": "Beef Cherki",
        "event_total": 80,
        "has_played": true,
        "id": 30627569,
        "last_rank": 94537,
        "player_name": "Tom Royle",
        "rank": 48669,
        "rank_sort": 48775,
        "total": 2353
      },
      {
        "club_badge_src": null,
        "entry": 4081897,
        "entry_name": "Ilkay-\u00eb\u00ebda",
        "event_total": 61,
        "has_played": true,
        "id": 30814761,
        "last_rank": 55014,
        "player_name": "Sam Chipman",
        "rank": 48669,
        "rank_sort": 48776,
        "total": 2353
      },
      {
        "club_badge_src": null,
        "entry": 4088189,
        "entry_name": "Wags FC",
        "event_total": 50,
        "has_played": true,
        "id": 30865492,
        "last_rank": 39246,
        "player_name": "Tyler Wagner",
        "rank": 48669,
        "rank_sort": 48777,
        "total": 2353
      },
      {
        "club_badge_src": null,
        "entry": 4271324,
        "entry_name": "TrickyJose ProMax",
        "event_total": 54,
        "has_played": true,
        "id": 32390318,
        "last_rank": 44525,
        "player_name": "Ifeoluwa Emmanuel",
        "rank": 48669,
        "rank_sort": 48778,
        "total": 2353
      },
      {
        "club_badge_src": null,
        "entry": 4280120,
        "entry_name": "Lewisham Utd",
        "event_total": 56,
        "has_played": true,
        "id": 32461028,
        "last_rank": 47163,
        "player_name": "Lewis Spink",
        "rank": 48669,
        "rank_sort": 48779,
        "total": 2353
      },
      {
        "club_badge_src": null,
        "entry": 4385840,
        "entry_name": "Burnseys XI",
        "event_total": 61,
        "has_played": true,
        "id": 33337090,
        "last_rank": 55514,
        "player_name": "Joseph Burns",
        "rank": 48669,
        "rank_sort": 48780,
        "total": 2353
      },
      {
        "club_badge_src": "https://fantasy.premierleague.com/gcs/plfpl-production-adobe-approved/plfpl-production/4569741/05a9502b-6375-43b9-b5f7-700e6920c57a.png",
        "entry": 4569741,
        "entry_name": "Chiste de Malo Gusto",
        "event_total": 62,
        "has_played": true,
        "id": 34874484,
        "last_rank": 57200,
        "player_name": "Julian Lobo",
        "rank": 48669,
        "rank_sort": 48781,
        "total": 2353
      },
      {
        "club_badge_src": null,
        "entry": 4605437,
        "entry_name": "Always the Victims",
        "event_total": 51,
        "has_played": true,
        "id": 35186115,
        "last_rank": 40503,
        "player_name": "Matt Eyre",
        "rank": 48669,
        "rank_sort": 48782,
        "total": 2353
      },
      {
        "club_badge_src": null,
        "entry": 4828277,
        "entry_name": "MajinBu FC",
        "event_total": 50,
        "has_played": true,
        "id": 37186230,
        "last_rank": 39023,
        "player_name": "Nik Azhar Mohd Zawawi",
        "rank": 48669,
        "rank_sort": 48783,
        "total": 2353
      },
      {
        "club_badge_src": null,
        "entry": 4846669,
        "entry_name": "Zadaam",
        "event_total": 67,
        "has_played": true,
        "id": 37338481,
        "last_rank": 65475,
        "player_name": "Xirsi Apdi",
        "rank": 48669,
        "rank_sort": 48784,
        "total": 2353
      },
      {
        "club_badge_src": null,
        "entry": 4956353,
        "entry_name": "RedRackhamsCurse",
        "event_total": 44,
        "has_played": true,
        "id": 38246244,
        "last_rank": 28150,
        "player_name": "Vasanth Ganesan",
        "rank": 48669,
        "rank_sort": 48785,
        "total": 2353
      },
      {
        "club_badge_src": null,
        "entry": 4969446,
        "entry_name": "Team",
        "event_total": 43,
        "has_played": true,
        "id": 38351229,
        "last_rank": 31236,
        "player_name": "Eirik Lied",
        "rank": 48669,
        "rank_sort": 48786,
        "total": 2353
      },
      {
        "club_badge_src": "https://fantasy.premierleague.com/gcs/plfpl-production-adobe-approved/plfpl-production/4972241/75065247-8990-4811-9937-c96943c22065.png",
        "entry": 4972241,
        "entry_name": "yada yada yada",
        "event_total": 63,
        "has_played": true,
        "id": 38378796,
        "last_rank": 45714,
        "player_name": "Kari Rajala",
        "rank": 48669,
        "rank_sort": 48787,
        "total": 2353
      },
      {
        "club_badge_src": null,
        "entry": 5012193,
        "entry_name": "G xi",
        "event_total": 55,
        "has_played": true,
        "id": 38705327,
        "last_rank": 46106,
        "player_name": "Ramish Khan",
        "rank": 48669,
        "rank_sort": 48788,
        "total": 2353
      },
      {
        "club_badge_src": null,
        "entry": 5115223,
        "entry_name": "Wirtz Case Scenario",
        "event_total": 66,
        "has_played": true,
        "id": 39546962,
        "last_rank": 64005,
        "player_name": "Russell Swinden",
        "rank": 48669,
        "rank_sort": 48789,
        "total": 2353
      },
      {
        "club_badge_src": null,
        "entry": 5258110,
        "entry_name": "Come Digne with STG",
        "event_total": 49,
        "has_played": true,
        "id": 40752253,
        "last_rank": 33147,
        "player_name": "Sampson Nkama",
        "rank": 48669,
        "rank_sort": 48790,
        "total": 2353
      },
      {
        "club_badge_src": null,
        "entry": 5277350,
        "entry_name": "SID FC",
        "event_total": 62,
        "has_played": true,
        "id": 40904307,
        "last_rank": 57001,
        "player_name": "Sachin Dematapitiya",
        "rank": 48669,
        "rank_sort": 48791,
        "total": 2353
      },
      {
        "club_badge_src": null,
        "entry": 5312807,
        "entry_name": "GAMED FC",
        "event_total": 43,
        "has_played": true,
        "id": 41182689,
        "last_rank": 31309,
        "player_name": "Youssef Abdelnasser",
        "rank": 48669,
        "rank_sort": 48792,
        "total": 2353
      },
      {
        "club_badge_src": null,
        "entry": 5315563,
        "entry_name": "baoketi",
        "event_total": 51,
        "has_played": true,
        "id": 41205058,
        "last_rank": 40647,
        "player_name": "Alioski A",
        "rank": 48669,
        "rank_sort": 48793,
        "total": 2353
      },
      {
        "club_badge_src": null,
        "entry": 5386553,
        "entry_name": "Lucas Lads",
        "event_total": 42,
        "has_played": true,
        "id": 41875491,
        "last_rank": 30060,
        "player_name": "Lucas Kock",
        "rank": 48669,
        "rank_sort": 48794,
        "total": 2353
      },
      {
        "club_badge_src": null,
        "entry": 5395768,
        "entry_name": "One Way Street",
        "event_total": 56,
        "has_played": true,
        "id": 41951481,
        "last_rank": 41824,
        "player_name": "Kalid Suleiman",
        "rank": 48669,
        "rank_sort": 48795,
        "total": 2353
      },
      {
        "club_badge_src": null,
        "entry": 5396455,
        "entry_name": "The Slotstars",
        "event_total": 46,
        "has_played": true,
        "id": 41957188,
        "last_rank": 34578,
        "player_name": "Kirsty Okyne",
        "rank": 48669,
        "rank_sort": 48796,
        "total": 2353
      },
      {
        "club_badge_src": null,
        "entry": 5538363,
        "entry_name": "Captain Tsubasa",
        "event_total": 56,
        "has_played": true,
        "id": 43213090,
        "last_rank": 47596,
        "player_name": "Paul Butler",
        "rank": 48669,
        "rank_sort": 48797,
        "total": 2353
      },
      {
        "club_badge_src": null,
        "entry": 5575684,
        "entry_name": "Bamford & sons",
        "event_total": 69,
        "has_played": true,
        "id": 43542899,
        "last_rank": 69641,
        "player_name": "Johan McAdam",
        "rank": 48669,
        "rank_sort": 48798,
        "total": 2353
      },
      {
        "club_badge_src": null,
        "entry": 5738337,
        "entry_name": "A-Cunha Matata",
        "event_total": 65,
        "has_played": true,
        "id": 44961456,
        "last_rank": 55311,
        "player_name": "Callum Hunt",
        "rank": 48669,
        "rank_sort": 48799,
        "total": 2353
      },
      {
        "club_badge_src": null,
        "entry": 5778612,
        "entry_name": "Kaizer Cheifs",
        "event_total": 58,
        "has_played": true,
        "id": 45312025,
        "last_rank": 44303,
        "player_name": "Kai Harris",
        "rank": 48669,
        "rank_sort": 48800,
        "total": 2353
      }
    ]
  }
}