{
  "last_updated_data": "2026-05-24T23:28:17Z",
  "league": {
    "admin_entry": null,
    "closed": false,
    "code_privacy": "p",
    "created": "2025-07-20T23:14:33.933835Z",
    "cup_league": 2815434,
    "has_cup": true,
    "id": 314,
    "league_type": "s",
    "max_entries": null,
    "name": "Overall",
    "rank": null,
    "scoring": "c",
    "start_event": 1
  },
  "new_entries": {
    "has_next": false,
    "page": 1,
    "results": []
  },
  "standings": {
    "has_next": true,
    "page": 1219,
    "results": [
      {
        "club_badge_src": null,
        "entry": 5000410,
        "entry_name": "Griffomania FC",
        "event_total": 53,
        "has_played": true,
        "id": 38611073,
        "last_rank": 54667,
        "player_name": "Mark Griffiths",
        "rank": 60651,
        "rank_sort": 60901,
        "total": 2345
      },
      {
        "club_badge_src": null,
        "entry": 5015381,
        "entry_name": "Storms Ballklubb",
        "event_total": 74,
        "has_played": true,
        "id": 38730548,
        "last_rank": 98073,
        "player_name": "Christian Christiansen",
        "rank": 60651,
        "rank_sort": 60902,
        "total": 2345
      },
      {
        "club_badge_src": null,
        "entry": 5021047,
        "entry_name": "KP FC",
        "event_total": 47,
        "has_played": true,
        "id": 38776687,
        "last_rank": 45714,
        "player_name": "Kieran Phillips",
        "rank": 60651,
        "rank_sort": 60903,
        "total": 2345
      },
      {
        "club_badge_src": "https://fantasy.premierleague.com/gcs/plfpl-production-adobe-approved/plfpl-production/5065929/1e580234-6225-43e4-aed8-b84a139ff002.png",
        "entry": 5065929,
        "entry_name": "No Idea",
        "event_total": 50,
        "has_played": true,
        "id": 39147855,
        "last_rank": 49880,
        "player_name": "Patrick Watson",
        "rank": 60651,
        "rank_sort": 60904,
        "total": 2345
      },
      {
        "club_badge_src": null,
        "entry": 5093906,
        "entry_name": "Optimus Prime",
        "event_total": 52,
        "has_played": true,
        "id": 39371435,
        "last_rank": 53023,
        "player_name": "Berdhi Priyotomo",
        "rank": 60651,
        "rank_sort": 60905,
        "total": 2345
      },
      {
        "club_badge_src": null,
        "entry": 5115341,
        "entry_name": "Letfly xi",
        "event_total": 66,
        "has_played": true,
        "id": 39547894,
        "last_rank": 79431,
        "player_name": "Shane Doran",
        "rank": 60651,
        "rank_sort": 60906,
        "total": 2345
      },
      {
        "club_badge_src": null,
        "entry": 5127607,
        "entry_name": "Bakassi FC",
        "event_total": 70,
        "has_played": true,
        "id": 39653955,
        "last_rank": 88348,
        "player_name": "Ifeanyi Okonkwo",
        "rank": 60651,
        "rank_sort": 60907,
        "total": 2345
      },
      {
        "club_badge_src": null,
        "entry": 5247036,
        "entry_name": "Weighty Henry",
        "event_total": 63,
        "has_played": true,
        "id": 40664870,
        "last_rank": 73423,
        "player_name": "Indar Prasetyo",
        "rank": 60651,
        "rank_sort": 60908,
        "total": 2345
      },
      {
        "club_badge_src": null,
        "entry": 5292556,
        "entry_name": "Tractor Boys",
        "event_total": 68,
        "has_played": true,
        "id": 41024461,
        "last_rank": 83584,
        "player_name": "Dag Skaar",
        "rank": 60651,
        "rank_sort": 60909,
        "total": 2345
      },
      {
        "club_badge_src": null,
        "entry": 5347226,
        "entry_name": "Opara FC",
        "event_total": 75,
        "has_played": true,
        "id": 41493391,
        "last_rank": 101419,
        "player_name": "Gospel Opara",
        "rank": 60651,
        "rank_sort": 60910,
        "total": 2345
      },
      {
        "club_badge_src": null,
        "entry": 5377606,
        "entry_name": "KB United",
        "event_total": 67,
        "has_played": true,
        "id": 41797874,
        "last_rank": 81420,
        "player_name": "Kevin Swiegers",
        "rank": 60651,
        "rank_sort": 60911,
        "total": 2345
      },
      {
        "club_badge_src": "https://fantasy.premierleague.com/gcs/plfpl-production-adobe-approved/plfpl-production/5388368/fca01d3f-bd1e-4e9e-a3cf-20bff7b5dc29.png",
        "entry": 5388368,
        "entry_name": "AC United",
        "event_total": 62,
        "has_played": true,
        "id": 41890631,
        "last_rank": 70757,
        "player_name": "Andrew Connor",
        "rank": 60651,
        "rank_sort": 60912,
        "total": 2345
      },
      {
        "club_badge_src": null,
        "entry": 5473620,
        "entry_name": "Shaun's Players",
        "event_total": 55,
        "has_played": true,
        "id": 42609202,
        "last_rank": 58071,
        "player_name": "shaun ng",
        "rank": 60651,
        "rank_sort": 60913,
        "total": 2345
      },
      {
        "club_badge_src": null,
        "entry": 5477363,
        "entry_name": "AgaDioufDioufDiouf",
        "event_total": 58,
        "has_played": true,
        "id": 42641841,
        "last_rank": 63201,
        "player_name": "Tommy Desborough",
        "rank": 60651,
        "rank_sort": 60914,
        "total": 2345
      },
      {
        "club_badge_src": null,
        "entry": 5480132,
        "entry_name": "Machine Gun Skelly",
        "event_total": 56,
        "has_played": true,
        "id": 42666837,
        "last_rank": 59632,
        "player_name": "Jonathan B\u00e4ck",
        "rank": 60651,
        "rank_sort": 60915,
        "total": 2345
      },
      {
        "club_badge_src": null,
        "entry": 5497984,
        "entry_name": "oldboynutworks",
        "event_total": 61,
        "has_played": true,
        "id": 42835854,
        "last_rank": 69323,
        "player_name": "David Etheridge",
        "rank": 60651,
        "rank_sort": 60916,
        "total": 2345
      },
      {
        "club_badge_src": null,
        "entry": 5506664,
        "entry_name": "Ellord",
        "event_total": 50,
        "has_played": true,
        "id": 42917517,
        "last_rank": 50199,
        "player_name": "Moaaz Hewedy",
        "rank": 60651,
        "rank_sort": 60917,
        "total": 2345
      },
      {
        "club_badge_src": "https://fantasy.premierleague.com/gcs/plfpl-production-adobe-approved/plfpl-production/5533515/1af88152-abda-419e-9f53-f6b8cc549cec.png",
        "entry": 5533515,
        "entry_name": "Bardghjin Through",
        "event_total": 45,
        "has_played": true,
        "id": 43170612,
        "last_rank": 42506,
        "player_name": "Sam H",
        "rank": 60651,
        "rank_sort": 60918,
        "total": 2345
      },
      {
        "club_badge_src": null,
        "entry": 5538842,
        "entry_name": "Wirtz Case Scenario",
        "event_total": 69,
        "has_played": true,
        "id": 43217174,
        "last_rank": 76947,
        "player_name": "Azluv Azaan",
        "rank": 60651,
        "rank_sort": 60919,
        "total": 2345
      },
      {
        "club_badge_src": "https://fantasy.premierleague.com/gcs/plfpl-production-adobe-approved/plfpl-production/5547059/aca5367f-da79-4e0a-82d9-51aa2992f7de.png",
        "entry": 5547059,
        "entry_name": "Neymarathon United",
        "event_total": 60,
        "has_played": true,
        "id": 43289052,
        "last_rank": 66848,
        "player_name": "tandile voyiya",
        "rank": 60651,
        "rank_sort": 60920,
        "total": 2345
      },
      {
        "club_badge_src": null,
        "entry": 5560883,
        "entry_name": "the king",
        "event_total": 35,
        "has_played": true,
        "id": 43412733,
        "last_rank": 30727,
        "player_name": "khaled aziz",
        "rank": 60651,
        "rank_sort": 60921,
        "total": 2345
      },
      {
        "club_badge_src": null,
        "entry": 5567645,
        "entry_name": "AI XI",
        "event_total": 63,
        "has_played": true,
        "id": 43473222,
        "last_rank": 73038,
        "player_name": "Arastu Nambiar",
        "rank": 60651,
        "rank_sort": 60922,
        "total": 2345
      },
      {
        "club_badge_src": null,
        "entry": 5639758,
        "entry_name": "Pica Pica",
        "event_total": 50,
        "has_played": true,
        "id": 44103041,
        "last_rank": 49691,
        "player_name": "Edwin Banns",
        "rank": 60651,
        "rank_sort": 60923,
        "total": 2345
      },
      {
        "club_badge_src": null,
        "entry": 5643790,
        "entry_name": "BAGSI TEAM",
        "event_total": 60,
        "has_played": true,
        "id": 44141153,
        "last_rank": 66848,
        "player_name": "Bagas Kurnianto",
        "rank": 60651,
        "rank_sort": 60924,
        "total": 2345
      },
      {
        "club_badge_src": null,
        "entry": 5666060,
        "entry_name": "Danok FC",
        "event_total": 41,
        "has_played": true,
        "id": 44333181,
        "last_rank": 37435,
        "player_name": "Azlan Abd Razak",
        "rank": 60651,
        "rank_sort": 60925,
        "total": 2345
      },
      {
        "club_badge_src": null,
        "entry": 5674996,
        "entry_name": "Njungos XI",
        "event_total": 46,
        "has_played": true,
        "id": 44411661,
        "last_rank": 43786,
        "player_name": "Fredrik Nyenget",
        "rank": 60651,
        "rank_sort": 60926,
        "total": 2345
      },
      {
        "club_badge_src": null,
        "entry": 5725385,
        "entry_name": "Kottu With Palmer",
        "event_total": 53,
        "has_played": true,
        "id": 44849266,
        "last_rank": 54667,
        "player_name": "Milaka Liyanage",
        "rank": 60651,
        "rank_sort": 60927,
        "total": 2345
      },
      {
        "club_badge_src": null,
        "entry": 5777028,
        "entry_name": "R\u00e5ttpacket BK",
        "event_total": 68,
        "has_played": true,
        "id": 45297916,
        "last_rank": 83698,
        "player_name": "M\u00e5rten Hagman",
        "rank": 60651,
        "rank_sort": 60928,
        "total": 2345
      },
      {
        "club_badge_src": null,
        "entry": 5943753,
        "entry_name": "slorbetti",
        "event_total": 47,
        "has_played": true,
        "id": 46742892,
        "last_rank": 45416,
        "player_name": "Louis Richards",
        "rank": 60651,
        "rank_sort": 60929,
        "total": 2345
      },
      {
        "club_badge_src": null,
        "entry": 5970249,
        "entry_name": "Mu\u00f1ozIsAllYouNeed",
        "event_total": 69,
        "has_played": true,
        "id": 46979419,
        "last_rank": 85836,
        "player_name": "Milo Spanyol Woods",
        "rank": 60651,
        "rank_sort": 60930,
        "total": 2345
      },
      {
        "club_badge_src": null,
        "entry": 6009467,
        "entry_name": "bojkot",
        "event_total": 56,
        "has_played": true,
        "id": 47382119,
        "last_rank": 59535,
        "player_name": "drejc gasat",
        "rank": 60651,
        "rank_sort": 60931,
        "total": 2345
      },
      {
        "club_badge_src": null,
        "entry": 6050599,
        "entry_name": "The Mighty Ducks",
        "event_total": 73,
        "has_played": true,
        "id": 47744958,
        "last_rank": 95640,
        "player_name": "Sigurjon Mar Sigurjonsson",
        "rank": 60651,
        "rank_sort": 60932,
        "total": 2345
      },
      {
        "club_badge_src": null,
        "entry": 6060228,
        "entry_name": "Grimsby Toon",
        "event_total": 68,
        "has_played": true,
        "id": 47828092,
        "last_rank": 83698,
        "player_name": "Liam James",
        "rank": 60651,
        "rank_sort": 60933,
        "total": 2345
      },
      {
        "club_badge_src": "https://fantasy.premierleague.com/gcs/plfpl-production-adobe-approved/plfpl-production/6100886/f462df9a-9fd5-4eb2-8ff8-e1b644ef0b87.png",
        "entry": 6100886,
        "entry_name": "Qu\u00e9zac Stream",
        "event_total": 69,
        "has_played": true,
        "id": 48183457,
        "last_rank": 86304,
        "player_name": "Amine Hilaly",
        "rank": 60651,
        "rank_sort": 60934,
        "total": 2345
      },
      {
        "club_badge_src": null,
        "entry": 6109874,
        "entry_name": "Jack Robbery FC",
        "event_total": 53,
        "has_played": true,
        "id": 48262435,
        "last_rank": 54667,
        "player_name": "Jack Robson",
        "rank": 60651,
        "rank_sort": 60935,
        "total": 2345
      },
      {
        "club_badge_src": null,
        "entry": 6134798,
        "entry_name": "King of Fantasy",
        "event_total": 57,
        "has_played": true,
        "id": 48480275,
        "last_rank": 61411,
        "player_name": "HN R",
        "rank": 60651,
        "rank_sort": 60936,
        "total": 2345
      },
      {
        "club_badge_src": "https://fantasy.premierleague.com/gcs/plfpl-production-adobe-approved/plfpl-production/6213182/79f3ac55-32ed-444c-a22f-9834adc2e4f7.png",
        "entry": 6213182,
        "entry_name": "BarchamFC",
        "event_total": 60,
        "has_played": true,
        "id": 49158439,
        "last_rank": 67063,
        "player_name": "Phil Coutinho",
        "rank": 60651,
        "rank_sort": 60937,
        "total": 2345
      },
      {
        "club_badge_src": null,
        "entry": 6224997,
        "entry_name": "Luts Hand of God",
        "event_total": 60,
        "has_played": true,
        "id": 49258958,
        "last_rank": 66738,
        "player_name": "Lut Rahman",
        "rank": 60651,
        "rank_sort": 60938,
        "total": 2345
      },
      {
        "club_badge_src": null,
        "entry": 6293883,
        "entry_name": "Your Wirtz Nightmare",
        "event_total": 66,
        "has_played": true,
        "id": 49876389,
        "last_rank": 79190,
        "player_name": "Luqman Jun En",
        "rank": 60651,
        "rank_sort": 60939,
        "total": 2345
      },
      {
        "club_badge_src": "https://fantasy.premierleague.com/gcs/plfpl-production-adobe-approved/plfpl-production/6305371/795e1853-b8c5-4d99-886d-994e7472690b.png",
        "entry": 6305371,
        "entry_name": "Old Fashioned",
        "event_total": 55,
        "has_played": true,
        "id": 50004773,
        "last_rank": 58071,
        "player_name": "Sina R",
        "rank": 60651,
        "rank_sort": 60940,
        "total": 2345
      },
      {
        "club_badge_src": null,
        "entry": 6357749,
        "entry_name": "Snoop Udogie Dogg",
        "event_total": 38,
        "has_played": true,
        "id": 50546919,
        "last_rank": 33936,
        "player_name": "Craig Kennedy",
        "rank": 60651,
        "rank_sort": 60941,
        "total": 2345
      },
      {
        "club_badge_src": null,
        "entry": 6441346,
        "entry_name": "Solidified",
        "event_total": 58,
        "has_played": true,
        "id": 51285690,
        "last_rank": 63201,
        "player_name": "Mert Celik",
        "rank": 60651,
        "rank_sort": 60942,
        "total": 2345
      },
      {
        "club_badge_src": "https://fantasy.premierleague.com/gcs/plfpl-production-adobe-approved/plfpl-production/6460165/e6224448-159c-46f0-a686-5649c4427c8a.png",
        "entry": 6460165,
        "entry_name": "Young Striker",
        "event_total": 70,
        "has_played": true,
        "id": 51461301,
        "last_rank": 88594,
        "player_name": "Tyler Young",
        "rank": 60651,
        "rank_sort": 60943,
        "total": 2345
      },
      {
        "club_badge_src": null,
        "entry": 6488334,
        "entry_name": "Mind Delap",
        "event_total": 63,
        "has_played": true,
        "id": 51718920,
        "last_rank": 72815,
        "player_name": "Mobolaji Olagbaju",
        "rank": 60651,
        "rank_sort": 60944,
        "total": 2345
      },
      {
        "club_badge_src": null,
        "entry": 6503039,
        "entry_name": "Bo\u017ekov",
        "event_total": 47,
        "has_played": true,
        "id": 51848991,
        "last_rank": 45252,
        "player_name": "Zden\u011bk Milota",
        "rank": 60651,
        "rank_sort": 60945,
        "total": 2345
      },
      {
        "club_badge_src": null,
        "entry": 6568206,
        "entry_name": "Top Club Tropicana",
        "event_total": 76,
        "has_played": true,
        "id": 52428984,
        "last_rank": 103130,
        "player_name": "Andrew Gillingham",
        "rank": 60651,
        "rank_sort": 60946,
        "total": 2345
      },
      {
        "club_badge_src": null,
        "entry": 6611990,
        "entry_name": "kinder mbuemo",
        "event_total": 64,
        "has_played": true,
        "id": 52829257,
        "last_rank": 74898,
        "player_name": "Jacob Paterson",
        "rank": 60651,
        "rank_sort": 60947,
        "total": 2345
      },
      {
        "club_badge_src": null,
        "entry": 6649592,
        "entry_name": "A mere autopick FC",
        "event_total": 68,
        "has_played": true,
        "id": 53158910,
        "last_rank": 83534,
        "player_name": "Ross Gray",
        "rank": 60651,
        "rank_sort": 60948,
        "total": 2345
      },
      {
        "club_badge_src": "https://fantasy.premierleague.com/gcs/plfpl-production-adobe-approved/plfpl-production/6660839/fd4bb326-79a8-48c7-8de2-009ec4af1ba4.png",
        "entry": 6660839,
        "entry_name": "Team Akita Inu",
        "event_total": 40,
        "has_played": true,
        "id": 53263796,
        "last_rank": 36142,
        "player_name": "Ho Hin Kwok",
        "rank": 60651,
        "rank_sort": 60949,
        "total": 2345
      },
      {
        "club_badge_src": null,
        "entry": 6673134,
        "entry_name": "FarkeTheBus",
        "event_total": 67,
        "has_played": true,
        "id": 53372318,
        "last_rank": 81420,
        "player_name": "Pat Durning",
        "rank": 60651,
        "rank_sort": 60950,
        "total": 2345
      }
    ]
  }
}