{
  "last_updated_data": "2026-05-24T23:28:17Z",
  "league": {
    "admin_entry": null,
    "closed": false,
    "code_privacy": "p",
    "created": "2025-07-20T23:14:33.933835Z",
    "cup_league": 2815434,
    "has_cup": true,
    "id": 314,
    "league_type": "s",
    "max_entries": null,
    "name": "Overall",
    "rank": null,
    "scoring": "c",
    "start_event": 1
  },
  "new_entries": {
    "has_next": false,
    "page": 1,
    "results": []
  },
  "standings": {
    "has_next": true,
    "page": 473,
    "results": [
      {
        "club_badge_src": null,
        "entry": 6749757,
        "entry_name": "Clone force 99",
        "event_total": 61,
        "has_played": true,
        "id": 54035422,
        "last_rank": 26656,
        "player_name": "Andr\u00e1s W\u00e1gner",
        "rank": 23585,
        "rank_sort": 23601,
        "total": 2375
      },
      {
        "club_badge_src": null,
        "entry": 7063561,
        "entry_name": "FC Canada Wharf",
        "event_total": 54,
        "has_played": true,
        "id": 56828850,
        "last_rank": 20853,
        "player_name": "Francis Pieri",
        "rank": 23585,
        "rank_sort": 23602,
        "total": 2375
      },
      {
        "club_badge_src": null,
        "entry": 7193619,
        "entry_name": "Game of Throw-ins",
        "event_total": 85,
        "has_played": true,
        "id": 58073690,
        "last_rank": 57776,
        "player_name": "Connor Hornsby",
        "rank": 23585,
        "rank_sort": 23603,
        "total": 2375
      },
      {
        "club_badge_src": null,
        "entry": 8955307,
        "entry_name": "Jo\u00e3o's a Pedro",
        "event_total": 65,
        "has_played": true,
        "id": 75050961,
        "last_rank": 30600,
        "player_name": "Joe Herrmann",
        "rank": 23585,
        "rank_sort": 23604,
        "total": 2375
      },
      {
        "club_badge_src": "https://fantasy.premierleague.com/gcs/plfpl-production-adobe-approved/plfpl-production/28648/a7124047-f98b-4460-b8ad-6158cdeefcf9.png",
        "entry": 28648,
        "entry_name": "Pino Kamadas",
        "event_total": 62,
        "has_played": true,
        "id": 181117,
        "last_rank": 27644,
        "player_name": "Talvin Johal",
        "rank": 23605,
        "rank_sort": 23605,
        "total": 2375
      },
      {
        "club_badge_src": null,
        "entry": 125367,
        "entry_name": "Amazins",
        "event_total": 72,
        "has_played": true,
        "id": 817628,
        "last_rank": 38571,
        "player_name": "R Barton",
        "rank": 23605,
        "rank_sort": 23606,
        "total": 2375
      },
      {
        "club_badge_src": null,
        "entry": 293937,
        "entry_name": "Brian",
        "event_total": 62,
        "has_played": true,
        "id": 1962334,
        "last_rank": 27564,
        "player_name": "Adam Anderson",
        "rank": 23605,
        "rank_sort": 23607,
        "total": 2375
      },
      {
        "club_badge_src": null,
        "entry": 356782,
        "entry_name": "Eze Come Eze Go",
        "event_total": 53,
        "has_played": true,
        "id": 2387538,
        "last_rank": 20179,
        "player_name": "Jevons Chan",
        "rank": 23605,
        "rank_sort": 23608,
        "total": 2375
      },
      {
        "club_badge_src": null,
        "entry": 570506,
        "entry_name": "No Konat\u00e9st",
        "event_total": 59,
        "has_played": true,
        "id": 3839628,
        "last_rank": 21628,
        "player_name": "Andreas Norstr\u00f6m",
        "rank": 23605,
        "rank_sort": 23609,
        "total": 2375
      },
      {
        "club_badge_src": null,
        "entry": 600344,
        "entry_name": "Dyblos Dream",
        "event_total": 55,
        "has_played": true,
        "id": 4050454,
        "last_rank": 21628,
        "player_name": "Dyl Bolton",
        "rank": 23605,
        "rank_sort": 23610,
        "total": 2375
      },
      {
        "club_badge_src": null,
        "entry": 601017,
        "entry_name": "Rock and Roll Sarr",
        "event_total": 35,
        "has_played": true,
        "id": 4055316,
        "last_rank": 9942,
        "player_name": "connor brockton",
        "rank": 23605,
        "rank_sort": 23611,
        "total": 2375
      },
      {
        "club_badge_src": null,
        "entry": 633011,
        "entry_name": "Mbeumo the King",
        "event_total": 42,
        "has_played": true,
        "id": 4277440,
        "last_rank": 13257,
        "player_name": "Ali Amer Azam",
        "rank": 23605,
        "rank_sort": 23612,
        "total": 2375
      },
      {
        "club_badge_src": null,
        "entry": 915829,
        "entry_name": "Rich Gang",
        "event_total": 58,
        "has_played": true,
        "id": 6297670,
        "last_rank": 20853,
        "player_name": "King Emmy -",
        "rank": 23605,
        "rank_sort": 23613,
        "total": 2375
      },
      {
        "club_badge_src": null,
        "entry": 1223728,
        "entry_name": "Miley High Club",
        "event_total": 67,
        "has_played": true,
        "id": 8496055,
        "last_rank": 32751,
        "player_name": "Ben Warren",
        "rank": 23605,
        "rank_sort": 23614,
        "total": 2375
      },
      {
        "club_badge_src": null,
        "entry": 1371328,
        "entry_name": "JAWS",
        "event_total": 51,
        "has_played": true,
        "id": 9532544,
        "last_rank": 18691,
        "player_name": "Jim Wardle",
        "rank": 23605,
        "rank_sort": 23615,
        "total": 2375
      },
      {
        "club_badge_src": null,
        "entry": 1434988,
        "entry_name": "Trister",
        "event_total": 63,
        "has_played": true,
        "id": 9998988,
        "last_rank": 28546,
        "player_name": "Marcelo Ure\u00f1a Mu\u00f1oz",
        "rank": 23605,
        "rank_sort": 23616,
        "total": 2375
      },
      {
        "club_badge_src": null,
        "entry": 1625112,
        "entry_name": "Dunk Those Busquets",
        "event_total": 42,
        "has_played": true,
        "id": 11374592,
        "last_rank": 13257,
        "player_name": "Jay Dunne",
        "rank": 23605,
        "rank_sort": 23617,
        "total": 2375
      },
      {
        "club_badge_src": null,
        "entry": 1710542,
        "entry_name": "tiocfaidh \u00e1r l\u00e1ds",
        "event_total": 63,
        "has_played": true,
        "id": 11985063,
        "last_rank": 28546,
        "player_name": "Matthew Logue",
        "rank": 23605,
        "rank_sort": 23618,
        "total": 2375
      },
      {
        "club_badge_src": null,
        "entry": 1803773,
        "entry_name": "Hard2diie",
        "event_total": 71,
        "has_played": true,
        "id": 12680627,
        "last_rank": 37589,
        "player_name": "yosbel mulet",
        "rank": 23605,
        "rank_sort": 23619,
        "total": 2375
      },
      {
        "club_badge_src": null,
        "entry": 1897846,
        "entry_name": "Amadness",
        "event_total": 58,
        "has_played": true,
        "id": 13377560,
        "last_rank": 24143,
        "player_name": "Dylan Mills",
        "rank": 23605,
        "rank_sort": 23620,
        "total": 2375
      },
      {
        "club_badge_src": "https://fantasy.premierleague.com/gcs/plfpl-production-adobe-approved/plfpl-production/1921676/ad3e7a3b-6b56-4598-bfa2-23663faef5ef.png",
        "entry": 1921676,
        "entry_name": "'97 Shawn Michaels",
        "event_total": 52,
        "has_played": true,
        "id": 13550859,
        "last_rank": 19392,
        "player_name": "Miyanda Siamo",
        "rank": 23605,
        "rank_sort": 23621,
        "total": 2375
      },
      {
        "club_badge_src": null,
        "entry": 1959244,
        "entry_name": "Belgica",
        "event_total": 66,
        "has_played": true,
        "id": 13822279,
        "last_rank": 31620,
        "player_name": "Kim Smet",
        "rank": 23605,
        "rank_sort": 23622,
        "total": 2375
      },
      {
        "club_badge_src": null,
        "entry": 2145442,
        "entry_name": "A1 KHN",
        "event_total": 59,
        "has_played": true,
        "id": 15249124,
        "last_rank": 25002,
        "player_name": "Mo Khn",
        "rank": 23605,
        "rank_sort": 23623,
        "total": 2375
      },
      {
        "club_badge_src": "https://fantasy.premierleague.com/gcs/plfpl-production-adobe-approved/plfpl-production/2270518/96ff1064-7ba7-4d2a-b990-b9d3b161c8ff.png",
        "entry": 2270518,
        "entry_name": "B3INET",
        "event_total": 68,
        "has_played": true,
        "id": 16189821,
        "last_rank": 33869,
        "player_name": "Thorstein Bjerkeseth",
        "rank": 23605,
        "rank_sort": 23624,
        "total": 2375
      },
      {
        "club_badge_src": null,
        "entry": 2321883,
        "entry_name": "Unbeatable Fc",
        "event_total": 61,
        "has_played": true,
        "id": 16563819,
        "last_rank": 26631,
        "player_name": "Sandesh Pahari",
        "rank": 23605,
        "rank_sort": 23625,
        "total": 2375
      },
      {
        "club_badge_src": "https://fantasy.premierleague.com/gcs/plfpl-production-adobe-approved/plfpl-production/2555611/9a88bdfd-7fcc-4723-ba48-6707c0b9e938.png",
        "entry": 2555611,
        "entry_name": "Pejuang Selat Sunda",
        "event_total": 51,
        "has_played": true,
        "id": 18325350,
        "last_rank": 18691,
        "player_name": "akhsin nasrudin",
        "rank": 23605,
        "rank_sort": 23626,
        "total": 2375
      },
      {
        "club_badge_src": null,
        "entry": 3251582,
        "entry_name": "EraToxic FC",
        "event_total": 45,
        "has_played": true,
        "id": 24057354,
        "last_rank": 14926,
        "player_name": "Ethan Arias",
        "rank": 23605,
        "rank_sort": 23627,
        "total": 2375
      },
      {
        "club_badge_src": null,
        "entry": 3348900,
        "entry_name": "Sir Harry Fc",
        "event_total": 65,
        "has_played": true,
        "id": 24843199,
        "last_rank": 30600,
        "player_name": "Jon Berry",
        "rank": 23605,
        "rank_sort": 23628,
        "total": 2375
      },
      {
        "club_badge_src": null,
        "entry": 3356485,
        "entry_name": "Matz Sels sea shells",
        "event_total": 45,
        "has_played": true,
        "id": 24902146,
        "last_rank": 14857,
        "player_name": "Joel English",
        "rank": 23605,
        "rank_sort": 23629,
        "total": 2375
      },
      {
        "club_badge_src": "https://fantasy.premierleague.com/gcs/plfpl-production-adobe-approved/plfpl-production/3656949/d4b49cfb-cf42-4b1b-aeba-27444ffcfad6.png",
        "entry": 3656949,
        "entry_name": "MightyKings",
        "event_total": 44,
        "has_played": true,
        "id": 27269184,
        "last_rank": 14251,
        "player_name": "Walid Hajji",
        "rank": 23605,
        "rank_sort": 23630,
        "total": 2375
      },
      {
        "club_badge_src": null,
        "entry": 3828058,
        "entry_name": "Luke Shaw Thing",
        "event_total": 46,
        "has_played": true,
        "id": 28634904,
        "last_rank": 15452,
        "player_name": "Anthony Dealey",
        "rank": 23605,
        "rank_sort": 23631,
        "total": 2375
      },
      {
        "club_badge_src": null,
        "entry": 4010140,
        "entry_name": "Bielsalona",
        "event_total": 64,
        "has_played": true,
        "id": 30210803,
        "last_rank": 29688,
        "player_name": "James Clark",
        "rank": 23605,
        "rank_sort": 23632,
        "total": 2375
      },
      {
        "club_badge_src": null,
        "entry": 4242196,
        "entry_name": "L1t3",
        "event_total": 86,
        "has_played": true,
        "id": 32152039,
        "last_rank": 59496,
        "player_name": "Akml Am1r",
        "rank": 23605,
        "rank_sort": 23633,
        "total": 2375
      },
      {
        "club_badge_src": null,
        "entry": 4434249,
        "entry_name": "Worzel Fingers",
        "event_total": 64,
        "has_played": true,
        "id": 33761148,
        "last_rank": 29578,
        "player_name": "Elaine Maxwell",
        "rank": 23605,
        "rank_sort": 23634,
        "total": 2375
      },
      {
        "club_badge_src": null,
        "entry": 4839700,
        "entry_name": "Batman McGinns",
        "event_total": 60,
        "has_played": true,
        "id": 37280828,
        "last_rank": 25709,
        "player_name": "Matias Kaipia",
        "rank": 23605,
        "rank_sort": 23635,
        "total": 2375
      },
      {
        "club_badge_src": null,
        "entry": 5726430,
        "entry_name": "GurungUtd",
        "event_total": 63,
        "has_played": true,
        "id": 44858089,
        "last_rank": 28609,
        "player_name": "Sunny Gurung",
        "rank": 23605,
        "rank_sort": 23636,
        "total": 2375
      },
      {
        "club_badge_src": null,
        "entry": 5869080,
        "entry_name": "Carpool Caperers",
        "event_total": 61,
        "has_played": true,
        "id": 46097547,
        "last_rank": 26710,
        "player_name": "Adam Salmon",
        "rank": 23605,
        "rank_sort": 23637,
        "total": 2375
      },
      {
        "club_badge_src": null,
        "entry": 6178615,
        "entry_name": "Masterclass by Tishi",
        "event_total": 66,
        "has_played": true,
        "id": 48860547,
        "last_rank": 31620,
        "player_name": "Tihomir Panayotov",
        "rank": 23605,
        "rank_sort": 23638,
        "total": 2375
      },
      {
        "club_badge_src": "https://fantasy.premierleague.com/gcs/plfpl-production-adobe-approved/plfpl-production/6322823/dc8a8580-3385-4eb4-abd9-178cab5eba98.png",
        "entry": 6322823,
        "entry_name": "Robbos Raiders",
        "event_total": 52,
        "has_played": true,
        "id": 50217314,
        "last_rank": 19392,
        "player_name": "Keith Robertson",
        "rank": 23605,
        "rank_sort": 23639,
        "total": 2375
      },
      {
        "club_badge_src": "https://fantasy.premierleague.com/gcs/plfpl-production-adobe-approved/plfpl-production/6688896/e63fc5bc-2121-432a-9ba3-73a86f5fe3e3.png",
        "entry": 6688896,
        "entry_name": "Na9 Na9",
        "event_total": 60,
        "has_played": true,
        "id": 53511157,
        "last_rank": 25776,
        "player_name": "OUSSAMA ELHABACHI",
        "rank": 23605,
        "rank_sort": 23640,
        "total": 2375
      },
      {
        "club_badge_src": null,
        "entry": 7128627,
        "entry_name": "Slot it home",
        "event_total": 43,
        "has_played": true,
        "id": 57447204,
        "last_rank": 13821,
        "player_name": "Jonny Hewat",
        "rank": 23605,
        "rank_sort": 23641,
        "total": 2375
      },
      {
        "club_badge_src": null,
        "entry": 7212612,
        "entry_name": "Endless optimism",
        "event_total": 60,
        "has_played": true,
        "id": 58252812,
        "last_rank": 25776,
        "player_name": "Chris Freudmann",
        "rank": 23605,
        "rank_sort": 23642,
        "total": 2375
      },
      {
        "club_badge_src": null,
        "entry": 7306988,
        "entry_name": "Tipp Gunners",
        "event_total": 65,
        "has_played": true,
        "id": 59143011,
        "last_rank": 30600,
        "player_name": "Eddie Anderson",
        "rank": 23605,
        "rank_sort": 23643,
        "total": 2375
      },
      {
        "club_badge_src": null,
        "entry": 7383827,
        "entry_name": "Regency United",
        "event_total": 39,
        "has_played": true,
        "id": 59861808,
        "last_rank": 11699,
        "player_name": "WATCHARANON T",
        "rank": 23605,
        "rank_sort": 23644,
        "total": 2375
      },
      {
        "club_badge_src": null,
        "entry": 7506976,
        "entry_name": "Red chasers",
        "event_total": 52,
        "has_played": true,
        "id": 61361667,
        "last_rank": 19432,
        "player_name": "Lee Rice",
        "rank": 23605,
        "rank_sort": 23645,
        "total": 2375
      },
      {
        "club_badge_src": null,
        "entry": 8008656,
        "entry_name": "outtastreet",
        "event_total": 78,
        "has_played": true,
        "id": 65961845,
        "last_rank": 46547,
        "player_name": "Jevoy Charvis",
        "rank": 23605,
        "rank_sort": 23646,
        "total": 2375
      },
      {
        "club_badge_src": null,
        "entry": 8040128,
        "entry_name": "ThisisntNBA?",
        "event_total": 52,
        "has_played": true,
        "id": 66248258,
        "last_rank": 19432,
        "player_name": "Kyle Williams",
        "rank": 23605,
        "rank_sort": 23647,
        "total": 2375
      },
      {
        "club_badge_src": null,
        "entry": 8438937,
        "entry_name": "Pogback",
        "event_total": 68,
        "has_played": true,
        "id": 70049718,
        "last_rank": 33827,
        "player_name": "Gareth Byrne",
        "rank": 23605,
        "rank_sort": 23648,
        "total": 2375
      },
      {
        "club_badge_src": null,
        "entry": 8675880,
        "entry_name": "IST FC",
        "event_total": 55,
        "has_played": true,
        "id": 72344350,
        "last_rank": 21609,
        "player_name": "Ingvald S\u00f8rheim Tjelflaat",
        "rank": 23605,
        "rank_sort": 23649,
        "total": 2375
      },
      {
        "club_badge_src": null,
        "entry": 8776043,
        "entry_name": "mubarak's Team",
        "event_total": 57,
        "has_played": true,
        "id": 73313049,
        "last_rank": 23341,
        "player_name": "Coach Mubarak",
        "rank": 23605,
        "rank_sort": 23650,
        "total": 2375
      }
    ]
  }
}