{
  "last_updated_data": "2026-05-24T23:28:17Z",
  "league": {
    "admin_entry": null,
    "closed": false,
    "code_privacy": "p",
    "created": "2025-07-20T23:14:33.933835Z",
    "cup_league": 2815434,
    "has_cup": true,
    "id": 314,
    "league_type": "s",
    "max_entries": null,
    "name": "Overall",
    "rank": null,
    "scoring": "c",
    "start_event": 1
  },
  "new_entries": {
    "has_next": false,
    "page": 1,
    "results": []
  },
  "standings": {
    "has_next": true,
    "page": 1322,
    "results": [
      {
        "club_badge_src": null,
        "entry": 205591,
        "entry_name": "Jackattacker",
        "event_total": 59,
        "has_played": true,
        "id": 1366551,
        "last_rank": 70985,
        "player_name": "Jack Campbell",
        "rank": 66017,
        "rank_sort": 66051,
        "total": 2342
      },
      {
        "club_badge_src": "https://fantasy.premierleague.com/gcs/plfpl-production-adobe-approved/plfpl-production/218170/d232638e-baf3-450f-8651-8c3c536e8944.png",
        "entry": 218170,
        "entry_name": "TroyDeenyFC",
        "event_total": 38,
        "has_played": true,
        "id": 1450804,
        "last_rank": 37589,
        "player_name": "Owen Blackwell",
        "rank": 66017,
        "rank_sort": 66052,
        "total": 2342
      },
      {
        "club_badge_src": null,
        "entry": 229364,
        "entry_name": "Song of Rice & Fire",
        "event_total": 51,
        "has_played": true,
        "id": 1525987,
        "last_rank": 56369,
        "player_name": "Paul Le Jamtel",
        "rank": 66017,
        "rank_sort": 66053,
        "total": 2342
      },
      {
        "club_badge_src": null,
        "entry": 230047,
        "entry_name": "SakaSpuds",
        "event_total": 60,
        "has_played": true,
        "id": 1530501,
        "last_rank": 72815,
        "player_name": "Jack Lyons",
        "rank": 66017,
        "rank_sort": 66054,
        "total": 2342
      },
      {
        "club_badge_src": null,
        "entry": 235283,
        "entry_name": "Losada Ball",
        "event_total": 64,
        "has_played": true,
        "id": 1565563,
        "last_rank": 81646,
        "player_name": "Pavlos Constantinou",
        "rank": 66017,
        "rank_sort": 66055,
        "total": 2342
      },
      {
        "club_badge_src": null,
        "entry": 238774,
        "entry_name": "Champagne SuperNeto",
        "event_total": 57,
        "has_played": true,
        "id": 1588706,
        "last_rank": 67063,
        "player_name": "Tomas Helles\u00f8",
        "rank": 66017,
        "rank_sort": 66056,
        "total": 2342
      },
      {
        "club_badge_src": null,
        "entry": 239542,
        "entry_name": "Cobra Kai",
        "event_total": 43,
        "has_played": true,
        "id": 1594026,
        "last_rank": 44048,
        "player_name": "Brandon Cardinale",
        "rank": 66017,
        "rank_sort": 66057,
        "total": 2342
      },
      {
        "club_badge_src": null,
        "entry": 241893,
        "entry_name": "Jimmy McGinn",
        "event_total": 65,
        "has_played": true,
        "id": 1610114,
        "last_rank": 83934,
        "player_name": "Galih \"Kolay\" Syahzada",
        "rank": 66017,
        "rank_sort": 66058,
        "total": 2342
      },
      {
        "club_badge_src": "https://fantasy.premierleague.com/gcs/plfpl-production-adobe-approved/plfpl-production/242931/c94028fe-8fc6-47bd-a9a6-60a89833c5a2.png",
        "entry": 242931,
        "entry_name": "3ziz's Gunners",
        "event_total": 49,
        "has_played": true,
        "id": 1617637,
        "last_rank": 52759,
        "player_name": "Abdullaziz Alenezi",
        "rank": 66017,
        "rank_sort": 66059,
        "total": 2342
      },
      {
        "club_badge_src": null,
        "entry": 264945,
        "entry_name": "Noni your Business",
        "event_total": 70,
        "has_played": true,
        "id": 1762071,
        "last_rank": 95890,
        "player_name": "Toby Brick",
        "rank": 66017,
        "rank_sort": 66060,
        "total": 2342
      },
      {
        "club_badge_src": null,
        "entry": 279711,
        "entry_name": "Cranmere Rovers",
        "event_total": 58,
        "has_played": true,
        "id": 1861644,
        "last_rank": 68957,
        "player_name": "Paul Davies",
        "rank": 66017,
        "rank_sort": 66061,
        "total": 2342
      },
      {
        "club_badge_src": null,
        "entry": 280859,
        "entry_name": "21 STG",
        "event_total": 34,
        "has_played": true,
        "id": 1869011,
        "last_rank": 32879,
        "player_name": "Spencer Huckstepp",
        "rank": 66017,
        "rank_sort": 66062,
        "total": 2342
      },
      {
        "club_badge_src": null,
        "entry": 286147,
        "entry_name": "Let KDB Talk",
        "event_total": 35,
        "has_played": true,
        "id": 1906251,
        "last_rank": 34051,
        "player_name": "Tanush Sharma",
        "rank": 66017,
        "rank_sort": 66063,
        "total": 2342
      },
      {
        "club_badge_src": null,
        "entry": 296192,
        "entry_name": "Mouse City FC",
        "event_total": 56,
        "has_played": true,
        "id": 1978832,
        "last_rank": 64943,
        "player_name": "Mikael Pelfrey",
        "rank": 66017,
        "rank_sort": 66064,
        "total": 2342
      },
      {
        "club_badge_src": null,
        "entry": 310275,
        "entry_name": "R\u00e9al Mart\u00edn",
        "event_total": 72,
        "has_played": true,
        "id": 2078484,
        "last_rank": 100949,
        "player_name": "Ben Martin",
        "rank": 66017,
        "rank_sort": 66065,
        "total": 2342
      },
      {
        "club_badge_src": null,
        "entry": 338037,
        "entry_name": "Babylon Forest",
        "event_total": 72,
        "has_played": true,
        "id": 2263091,
        "last_rank": 100949,
        "player_name": "Simon Sheena",
        "rank": 66017,
        "rank_sort": 66066,
        "total": 2342
      },
      {
        "club_badge_src": null,
        "entry": 340895,
        "entry_name": "Baldy on top",
        "event_total": 47,
        "has_played": true,
        "id": 2281861,
        "last_rank": 49880,
        "player_name": "Paul Hayward",
        "rank": 66017,
        "rank_sort": 66067,
        "total": 2342
      },
      {
        "club_badge_src": null,
        "entry": 365325,
        "entry_name": "Torn DCL",
        "event_total": 58,
        "has_played": true,
        "id": 2444892,
        "last_rank": 68957,
        "player_name": "Teodor Deljanovski",
        "rank": 66017,
        "rank_sort": 66068,
        "total": 2342
      },
      {
        "club_badge_src": null,
        "entry": 373842,
        "entry_name": "Lil Uzi Wirtz",
        "event_total": 51,
        "has_played": true,
        "id": 2501409,
        "last_rank": 56369,
        "player_name": "Connor Bradley",
        "rank": 66017,
        "rank_sort": 66069,
        "total": 2342
      },
      {
        "club_badge_src": null,
        "entry": 382631,
        "entry_name": "Pong Team",
        "event_total": 60,
        "has_played": true,
        "id": 2565717,
        "last_rank": 72815,
        "player_name": "Pong Tinnakorn",
        "rank": 66017,
        "rank_sort": 66070,
        "total": 2342
      },
      {
        "club_badge_src": "https://fantasy.premierleague.com/gcs/plfpl-production-adobe-approved/plfpl-production/397888/1fa984f2-206d-4fbf-a8a7-dad2eb12b04c.png",
        "entry": 397888,
        "entry_name": "FC Doranius City",
        "event_total": 38,
        "has_played": true,
        "id": 2668091,
        "last_rank": 37589,
        "player_name": "Oleksandr Doroshuk",
        "rank": 66017,
        "rank_sort": 66071,
        "total": 2342
      },
      {
        "club_badge_src": null,
        "entry": 400806,
        "entry_name": "EkiTiki - Taka",
        "event_total": 50,
        "has_played": true,
        "id": 2687753,
        "last_rank": 54667,
        "player_name": "Oscar Davey",
        "rank": 66017,
        "rank_sort": 66072,
        "total": 2342
      },
      {
        "club_badge_src": null,
        "entry": 423365,
        "entry_name": "Xavi\u2019s Slow Waltz",
        "event_total": 55,
        "has_played": true,
        "id": 2837107,
        "last_rank": 63117,
        "player_name": "Roman Reda",
        "rank": 66017,
        "rank_sort": 66073,
        "total": 2342
      },
      {
        "club_badge_src": null,
        "entry": 426726,
        "entry_name": "Tonalitubbies",
        "event_total": 49,
        "has_played": true,
        "id": 2861166,
        "last_rank": 52759,
        "player_name": "Ethan Lowes",
        "rank": 66017,
        "rank_sort": 66074,
        "total": 2342
      },
      {
        "club_badge_src": "https://fantasy.premierleague.com/gcs/plfpl-production-adobe-approved/plfpl-production/428628/a58d1e73-1990-4570-9a85-3a70ff58f6a6.png",
        "entry": 428628,
        "entry_name": "Low Socks F.C.",
        "event_total": 36,
        "has_played": true,
        "id": 2874875,
        "last_rank": 35166,
        "player_name": "Brian YS",
        "rank": 66017,
        "rank_sort": 66075,
        "total": 2342
      },
      {
        "club_badge_src": null,
        "entry": 460157,
        "entry_name": "FPL Kordas",
        "event_total": 78,
        "has_played": true,
        "id": 3086867,
        "last_rank": 117915,
        "player_name": "Jon Kordas",
        "rank": 66017,
        "rank_sort": 66076,
        "total": 2342
      },
      {
        "club_badge_src": null,
        "entry": 467989,
        "entry_name": "The Reds",
        "event_total": 67,
        "has_played": true,
        "id": 3140613,
        "last_rank": 88348,
        "player_name": "D\u00e1vid Kamencay",
        "rank": 66017,
        "rank_sort": 66077,
        "total": 2342
      },
      {
        "club_badge_src": null,
        "entry": 494207,
        "entry_name": "Upminster United",
        "event_total": 59,
        "has_played": true,
        "id": 3317259,
        "last_rank": 70985,
        "player_name": "Peter Gunther",
        "rank": 66017,
        "rank_sort": 66078,
        "total": 2342
      },
      {
        "club_badge_src": null,
        "entry": 506601,
        "entry_name": "ChlamyDiallo",
        "event_total": 65,
        "has_played": true,
        "id": 3400333,
        "last_rank": 83934,
        "player_name": "Matthew Baston",
        "rank": 66017,
        "rank_sort": 66079,
        "total": 2342
      },
      {
        "club_badge_src": "https://fantasy.premierleague.com/gcs/plfpl-production-adobe-approved/plfpl-production/539867/db43f12c-d899-42e5-bcc5-7ddbe453a809.png",
        "entry": 539867,
        "entry_name": "Bruno Dos Tres",
        "event_total": 54,
        "has_played": true,
        "id": 3633844,
        "last_rank": 61606,
        "player_name": "Shreyas Navalakhe",
        "rank": 66017,
        "rank_sort": 66080,
        "total": 2342
      },
      {
        "club_badge_src": null,
        "entry": 575013,
        "entry_name": "Cant Farke There Sir",
        "event_total": 58,
        "has_played": true,
        "id": 3869554,
        "last_rank": 69323,
        "player_name": "Oscar Brennan",
        "rank": 66017,
        "rank_sort": 66081,
        "total": 2342
      },
      {
        "club_badge_src": "https://fantasy.premierleague.com/gcs/plfpl-production-adobe-approved/plfpl-production/578483/52c465fc-040d-42d4-bc26-3b1c93022c0c.png",
        "entry": 578483,
        "entry_name": "Lokomotiv Sigg",
        "event_total": 48,
        "has_played": true,
        "id": 3892419,
        "last_rank": 51403,
        "player_name": "Sigvald Ekerhovd \u00d8kland",
        "rank": 66017,
        "rank_sort": 66082,
        "total": 2342
      },
      {
        "club_badge_src": null,
        "entry": 596523,
        "entry_name": "Your Wirtz nightmare",
        "event_total": 68,
        "has_played": true,
        "id": 4022081,
        "last_rank": 90746,
        "player_name": "Ben McLachlan",
        "rank": 66017,
        "rank_sort": 66083,
        "total": 2342
      },
      {
        "club_badge_src": null,
        "entry": 604676,
        "entry_name": "Dead Clowns",
        "event_total": 61,
        "has_played": true,
        "id": 4082140,
        "last_rank": 74898,
        "player_name": "David Bartram",
        "rank": 66017,
        "rank_sort": 66084,
        "total": 2342
      },
      {
        "club_badge_src": null,
        "entry": 607882,
        "entry_name": "Not again",
        "event_total": 58,
        "has_played": true,
        "id": 4105445,
        "last_rank": 68957,
        "player_name": "Dominic Wong",
        "rank": 66017,
        "rank_sort": 66085,
        "total": 2342
      },
      {
        "club_badge_src": null,
        "entry": 608025,
        "entry_name": "Park The Busquets",
        "event_total": 67,
        "has_played": true,
        "id": 4106533,
        "last_rank": 88348,
        "player_name": "luke cormack",
        "rank": 66017,
        "rank_sort": 66086,
        "total": 2342
      },
      {
        "club_badge_src": null,
        "entry": 619855,
        "entry_name": "Gallagh Galactios",
        "event_total": 45,
        "has_played": true,
        "id": 4188865,
        "last_rank": 46660,
        "player_name": "Damian Mcelroy",
        "rank": 66017,
        "rank_sort": 66087,
        "total": 2342
      },
      {
        "club_badge_src": null,
        "entry": 678935,
        "entry_name": "Token Gestures",
        "event_total": 72,
        "has_played": true,
        "id": 4594139,
        "last_rank": 100572,
        "player_name": "Ross Ollerton",
        "rank": 66017,
        "rank_sort": 66088,
        "total": 2342
      },
      {
        "club_badge_src": "https://fantasy.premierleague.com/gcs/plfpl-production-adobe-approved/plfpl-production/683402/b1905aeb-33b2-48d3-bb89-8ab09cb2ad0c.png",
        "entry": 683402,
        "entry_name": "Kinder Mbeumo",
        "event_total": 52,
        "has_played": true,
        "id": 4625386,
        "last_rank": 57857,
        "player_name": "Greg Smith",
        "rank": 66017,
        "rank_sort": 66089,
        "total": 2342
      },
      {
        "club_badge_src": null,
        "entry": 709345,
        "entry_name": "Salt n Kepa",
        "event_total": 56,
        "has_played": true,
        "id": 4809123,
        "last_rank": 65475,
        "player_name": "Connor Dudley",
        "rank": 66017,
        "rank_sort": 66090,
        "total": 2342
      },
      {
        "club_badge_src": null,
        "entry": 718300,
        "entry_name": "Gibbo's Goons",
        "event_total": 59,
        "has_played": true,
        "id": 4874422,
        "last_rank": 70985,
        "player_name": "Stuart Gibson",
        "rank": 66017,
        "rank_sort": 66091,
        "total": 2342
      },
      {
        "club_badge_src": null,
        "entry": 726280,
        "entry_name": "Jimboshire Utd",
        "event_total": 45,
        "has_played": true,
        "id": 4933487,
        "last_rank": 46839,
        "player_name": "Jim Wiltshire",
        "rank": 66017,
        "rank_sort": 66092,
        "total": 2342
      },
      {
        "club_badge_src": "https://fantasy.premierleague.com/gcs/plfpl-production-adobe-approved/plfpl-production/730525/a60b6527-c0f1-4907-8a24-8d1e75fef7e9.png",
        "entry": 730525,
        "entry_name": "Haywards Heros",
        "event_total": 56,
        "has_played": true,
        "id": 4963785,
        "last_rank": 65163,
        "player_name": "Chris Hayward",
        "rank": 66017,
        "rank_sort": 66093,
        "total": 2342
      },
      {
        "club_badge_src": null,
        "entry": 750019,
        "entry_name": "Expecting Toulouse",
        "event_total": 60,
        "has_played": true,
        "id": 5102997,
        "last_rank": 72815,
        "player_name": "Leigh Gilles",
        "rank": 66017,
        "rank_sort": 66094,
        "total": 2342
      },
      {
        "club_badge_src": null,
        "entry": 762114,
        "entry_name": "Lopetegui Bolognese",
        "event_total": 60,
        "has_played": true,
        "id": 5197265,
        "last_rank": 73038,
        "player_name": "Zuri Warren",
        "rank": 66017,
        "rank_sort": 66095,
        "total": 2342
      },
      {
        "club_badge_src": null,
        "entry": 775404,
        "entry_name": "Boehly Grail",
        "event_total": 64,
        "has_played": true,
        "id": 5290611,
        "last_rank": 81420,
        "player_name": "Luc Frean",
        "rank": 66017,
        "rank_sort": 66096,
        "total": 2342
      },
      {
        "club_badge_src": null,
        "entry": 808024,
        "entry_name": "ABCDE FC",
        "event_total": 50,
        "has_played": true,
        "id": 5531860,
        "last_rank": 54667,
        "player_name": "Dan Harnett",
        "rank": 66017,
        "rank_sort": 66097,
        "total": 2342
      },
      {
        "club_badge_src": null,
        "entry": 808947,
        "entry_name": "Bene",
        "event_total": 65,
        "has_played": true,
        "id": 5538272,
        "last_rank": 83934,
        "player_name": "Benedict Smith",
        "rank": 66017,
        "rank_sort": 66098,
        "total": 2342
      },
      {
        "club_badge_src": null,
        "entry": 834983,
        "entry_name": "How I Met Ryzos Maw",
        "event_total": 61,
        "has_played": true,
        "id": 5719666,
        "last_rank": 75139,
        "player_name": "John Beattie",
        "rank": 66017,
        "rank_sort": 66099,
        "total": 2342
      },
      {
        "club_badge_src": null,
        "entry": 835104,
        "entry_name": "ABCrawL",
        "event_total": 73,
        "has_played": true,
        "id": 5720545,
        "last_rank": 103254,
        "player_name": "Abdul Basith Muhammad",
        "rank": 66017,
        "rank_sort": 66100,
        "total": 2342
      }
    ]
  }
}