{
  "last_updated_data": "2026-05-24T23:28:17Z",
  "league": {
    "admin_entry": null,
    "closed": false,
    "code_privacy": "p",
    "created": "2025-07-20T23:14:33.933835Z",
    "cup_league": 2815434,
    "has_cup": true,
    "id": 314,
    "league_type": "s",
    "max_entries": null,
    "name": "Overall",
    "rank": null,
    "scoring": "c",
    "start_event": 1
  },
  "new_entries": {
    "has_next": false,
    "page": 1,
    "results": []
  },
  "standings": {
    "has_next": true,
    "page": 152,
    "results": [
      {
        "club_badge_src": null,
        "entry": 8477044,
        "entry_name": "xiouros",
        "event_total": 42,
        "has_played": true,
        "id": 70411745,
        "last_rank": 3528,
        "player_name": "sotiris xiouros",
        "rank": 7482,
        "rank_sort": 7551,
        "total": 2405
      },
      {
        "club_badge_src": null,
        "entry": 9927665,
        "entry_name": "Latino Liverlips",
        "event_total": 45,
        "has_played": true,
        "id": 84214951,
        "last_rank": 4099,
        "player_name": "Joel Argudo",
        "rank": 7482,
        "rank_sort": 7552,
        "total": 2405
      },
      {
        "club_badge_src": null,
        "entry": 586,
        "entry_name": "Agbadou dou dou",
        "event_total": 48,
        "has_played": true,
        "id": 3225,
        "last_rank": 3902,
        "player_name": "Guy McCombe",
        "rank": 7553,
        "rank_sort": 7553,
        "total": 2405
      },
      {
        "club_badge_src": null,
        "entry": 1124,
        "entry_name": "Yoro Wissa Harry",
        "event_total": 59,
        "has_played": true,
        "id": 6242,
        "last_rank": 7761,
        "player_name": "Harry Allen",
        "rank": 7553,
        "rank_sort": 7554,
        "total": 2405
      },
      {
        "club_badge_src": null,
        "entry": 5389,
        "entry_name": "FK Uflaks",
        "event_total": 59,
        "has_played": true,
        "id": 30713,
        "last_rank": 6448,
        "player_name": "Sigurd Eskeland",
        "rank": 7553,
        "rank_sort": 7555,
        "total": 2405
      },
      {
        "club_badge_src": null,
        "entry": 31405,
        "entry_name": "Kinder Mbeumo",
        "event_total": 63,
        "has_played": true,
        "id": 199049,
        "last_rank": 9248,
        "player_name": "Patrick Kiely",
        "rank": 7553,
        "rank_sort": 7556,
        "total": 2405
      },
      {
        "club_badge_src": null,
        "entry": 31641,
        "entry_name": "---",
        "event_total": 49,
        "has_played": true,
        "id": 200734,
        "last_rank": 4954,
        "player_name": "Karl Deighton",
        "rank": 7553,
        "rank_sort": 7557,
        "total": 2405
      },
      {
        "club_badge_src": "https://fantasy.premierleague.com/gcs/plfpl-production-adobe-approved/plfpl-production/36886/4ad56e73-c7db-4bdb-a0b6-bd0a05ea7d78.png",
        "entry": 36886,
        "entry_name": "Proton FC",
        "event_total": 65,
        "has_played": true,
        "id": 236193,
        "last_rank": 8382,
        "player_name": "Muhammad Sharhan",
        "rank": 7553,
        "rank_sort": 7558,
        "total": 2405
      },
      {
        "club_badge_src": null,
        "entry": 52717,
        "entry_name": "Liverpool",
        "event_total": 70,
        "has_played": true,
        "id": 338982,
        "last_rank": 12109,
        "player_name": "Stephen Klopp",
        "rank": 7553,
        "rank_sort": 7559,
        "total": 2405
      },
      {
        "club_badge_src": "https://fantasy.premierleague.com/gcs/plfpl-production-adobe-approved/plfpl-production/54983/bc7576df-af0a-45e3-85a8-75829c5f2228.png",
        "entry": 54983,
        "entry_name": "Pearce Pressure",
        "event_total": 67,
        "has_played": true,
        "id": 353859,
        "last_rank": 9142,
        "player_name": "Isobel Pearce",
        "rank": 7553,
        "rank_sort": 7560,
        "total": 2405
      },
      {
        "club_badge_src": "https://fantasy.premierleague.com/gcs/plfpl-production-adobe-approved/plfpl-production/62809/3f84a02a-7b15-4bf9-ac8a-3301102348ef.png",
        "entry": 62809,
        "entry_name": "Blues",
        "event_total": 51,
        "has_played": true,
        "id": 405039,
        "last_rank": 4515,
        "player_name": "Daro SOT",
        "rank": 7553,
        "rank_sort": 7561,
        "total": 2405
      },
      {
        "club_badge_src": "https://fantasy.premierleague.com/gcs/plfpl-production-adobe-approved/plfpl-production/73583/48e79ee3-e9bb-4080-9314-4341e33d8338.png",
        "entry": 73583,
        "entry_name": "Neto Fer King Kalou",
        "event_total": 69,
        "has_played": true,
        "id": 478306,
        "last_rank": 11821,
        "player_name": "Alex Baker",
        "rank": 7553,
        "rank_sort": 7562,
        "total": 2405
      },
      {
        "club_badge_src": null,
        "entry": 116207,
        "entry_name": "SamPdoria",
        "event_total": 69,
        "has_played": true,
        "id": 758638,
        "last_rank": 11699,
        "player_name": "Sam Platt",
        "rank": 7553,
        "rank_sort": 7563,
        "total": 2405
      },
      {
        "club_badge_src": null,
        "entry": 131758,
        "entry_name": "I\u2019m the \u00a9 now",
        "event_total": 66,
        "has_played": true,
        "id": 858371,
        "last_rank": 8758,
        "player_name": "Ahmed Mokhtar",
        "rank": 7553,
        "rank_sort": 7564,
        "total": 2405
      },
      {
        "club_badge_src": "https://fantasy.premierleague.com/gcs/plfpl-production-adobe-approved/plfpl-production/132190/19132515-0c18-486d-8d2d-47b53fab72ac.png",
        "entry": 132190,
        "entry_name": "Cole as Ice FC",
        "event_total": 67,
        "has_played": true,
        "id": 861156,
        "last_rank": 10805,
        "player_name": "Romeu Fernandes Junior",
        "rank": 7553,
        "rank_sort": 7565,
        "total": 2405
      },
      {
        "club_badge_src": null,
        "entry": 152333,
        "entry_name": "Pyamink",
        "event_total": 60,
        "has_played": true,
        "id": 999775,
        "last_rank": 6752,
        "player_name": "prachya ataratpreecha",
        "rank": 7553,
        "rank_sort": 7566,
        "total": 2405
      },
      {
        "club_badge_src": null,
        "entry": 174944,
        "entry_name": "Curious Capybaras",
        "event_total": 60,
        "has_played": true,
        "id": 1155132,
        "last_rank": 6752,
        "player_name": "aidan freeman",
        "rank": 7553,
        "rank_sort": 7567,
        "total": 2405
      },
      {
        "club_badge_src": "https://fantasy.premierleague.com/gcs/plfpl-production-adobe-approved/plfpl-production/182534/66d81b75-04ca-4213-9814-d70712216a54.png",
        "entry": 182534,
        "entry_name": "It\u2019s \u2018ER Team",
        "event_total": 58,
        "has_played": true,
        "id": 1204589,
        "last_rank": 7310,
        "player_name": "Elaine Ridgewell",
        "rank": 7553,
        "rank_sort": 7568,
        "total": 2405
      },
      {
        "club_badge_src": null,
        "entry": 215865,
        "entry_name": "bergvallsFinest",
        "event_total": 47,
        "has_played": true,
        "id": 1435688,
        "last_rank": 4570,
        "player_name": "Victor Strandh",
        "rank": 7553,
        "rank_sort": 7569,
        "total": 2405
      },
      {
        "club_badge_src": null,
        "entry": 319651,
        "entry_name": "Aina Sarrnshine",
        "event_total": 71,
        "has_played": true,
        "id": 2142627,
        "last_rank": 10805,
        "player_name": "william whitmore",
        "rank": 7553,
        "rank_sort": 7570,
        "total": 2405
      },
      {
        "club_badge_src": null,
        "entry": 358287,
        "entry_name": "Zimny",
        "event_total": 76,
        "has_played": true,
        "id": 2397657,
        "last_rank": 15550,
        "player_name": "Mateusz Zimnicki",
        "rank": 7553,
        "rank_sort": 7571,
        "total": 2405
      },
      {
        "club_badge_src": null,
        "entry": 369577,
        "entry_name": "Coull XI",
        "event_total": 60,
        "has_played": true,
        "id": 2473013,
        "last_rank": 8138,
        "player_name": "Finn Coull",
        "rank": 7553,
        "rank_sort": 7572,
        "total": 2405
      },
      {
        "club_badge_src": "https://fantasy.premierleague.com/gcs/plfpl-production-adobe-approved/plfpl-production/452662/0b6cabb0-66d9-4a0c-979d-09c4857da2d3.png",
        "entry": 452662,
        "entry_name": "FC Ematon",
        "event_total": 62,
        "has_played": true,
        "id": 3036632,
        "last_rank": 8758,
        "player_name": "Tony Engvoldsen",
        "rank": 7553,
        "rank_sort": 7573,
        "total": 2405
      },
      {
        "club_badge_src": null,
        "entry": 557472,
        "entry_name": "Kaloor Road FC",
        "event_total": 68,
        "has_played": true,
        "id": 3751748,
        "last_rank": 11419,
        "player_name": "Nihar Mp",
        "rank": 7553,
        "rank_sort": 7574,
        "total": 2405
      },
      {
        "club_badge_src": null,
        "entry": 580291,
        "entry_name": "Blinded By de Ligts",
        "event_total": 55,
        "has_played": true,
        "id": 3904936,
        "last_rank": 6528,
        "player_name": "Jordan W",
        "rank": 7553,
        "rank_sort": 7575,
        "total": 2405
      },
      {
        "club_badge_src": null,
        "entry": 648064,
        "entry_name": "eze game",
        "event_total": 66,
        "has_played": true,
        "id": 4379781,
        "last_rank": 10346,
        "player_name": "Dylan Monk",
        "rank": 7553,
        "rank_sort": 7576,
        "total": 2405
      },
      {
        "club_badge_src": null,
        "entry": 766919,
        "entry_name": "McShanes Marvels",
        "event_total": 67,
        "has_played": true,
        "id": 5230801,
        "last_rank": 9142,
        "player_name": "Jack McShane",
        "rank": 7553,
        "rank_sort": 7577,
        "total": 2405
      },
      {
        "club_badge_src": null,
        "entry": 781857,
        "entry_name": "Kante Catch Me",
        "event_total": 65,
        "has_played": true,
        "id": 5338014,
        "last_rank": 10031,
        "player_name": "Calum Lennox",
        "rank": 7553,
        "rank_sort": 7578,
        "total": 2405
      },
      {
        "club_badge_src": "https://fantasy.premierleague.com/gcs/plfpl-production-adobe-approved/plfpl-production/793528/e97a3b2e-5344-4d21-bde5-69d6b1c4ced2.png",
        "entry": 793528,
        "entry_name": "HawkEye",
        "event_total": 66,
        "has_played": true,
        "id": 5430465,
        "last_rank": 10462,
        "player_name": "Taher Rahoma",
        "rank": 7553,
        "rank_sort": 7579,
        "total": 2405
      },
      {
        "club_badge_src": null,
        "entry": 830657,
        "entry_name": "Slotmachine",
        "event_total": 55,
        "has_played": true,
        "id": 5689610,
        "last_rank": 5448,
        "player_name": "CHATCHAI KHAMCHUANCHUEN",
        "rank": 7553,
        "rank_sort": 7580,
        "total": 2405
      },
      {
        "club_badge_src": null,
        "entry": 937408,
        "entry_name": "chikibim",
        "event_total": 66,
        "has_played": true,
        "id": 6451606,
        "last_rank": 10346,
        "player_name": "Hadyan El Aufar",
        "rank": 7553,
        "rank_sort": 7581,
        "total": 2405
      },
      {
        "club_badge_src": null,
        "entry": 1243806,
        "entry_name": "1bissaka",
        "event_total": 64,
        "has_played": true,
        "id": 8638299,
        "last_rank": 9644,
        "player_name": "Angelos Stephanou",
        "rank": 7553,
        "rank_sort": 7582,
        "total": 2405
      },
      {
        "club_badge_src": null,
        "entry": 1479629,
        "entry_name": "Up The Villa",
        "event_total": 43,
        "has_played": true,
        "id": 10316959,
        "last_rank": 3765,
        "player_name": "Marcus Johansson",
        "rank": 7553,
        "rank_sort": 7583,
        "total": 2405
      },
      {
        "club_badge_src": null,
        "entry": 1489141,
        "entry_name": "Martial Mathers",
        "event_total": 56,
        "has_played": true,
        "id": 10384515,
        "last_rank": 5688,
        "player_name": "Josh Mayne",
        "rank": 7553,
        "rank_sort": 7584,
        "total": 2405
      },
      {
        "club_badge_src": null,
        "entry": 1630599,
        "entry_name": "RiGu Group",
        "event_total": 42,
        "has_played": true,
        "id": 11413117,
        "last_rank": 3601,
        "player_name": "Rickard Gustafsson",
        "rank": 7553,
        "rank_sort": 7585,
        "total": 2405
      },
      {
        "club_badge_src": "https://fantasy.premierleague.com/gcs/plfpl-production-adobe-approved/plfpl-production/1917409/a38b213b-5dc1-425c-8313-48e9d6130569.png",
        "entry": 1917409,
        "entry_name": "MatheusBunda",
        "event_total": 78,
        "has_played": true,
        "id": 13519600,
        "last_rank": 16959,
        "player_name": "Sam Thomas",
        "rank": 7553,
        "rank_sort": 7586,
        "total": 2405
      },
      {
        "club_badge_src": "https://fantasy.premierleague.com/gcs/plfpl-production-adobe-approved/plfpl-production/1978367/4521a69a-11e8-4946-a75a-bc00841b6f91.png",
        "entry": 1978367,
        "entry_name": "Pontiac Bandits",
        "event_total": 63,
        "has_played": true,
        "id": 13966560,
        "last_rank": 9142,
        "player_name": "Ben Oldfield",
        "rank": 7553,
        "rank_sort": 7587,
        "total": 2405
      },
      {
        "club_badge_src": null,
        "entry": 2288077,
        "entry_name": "Team Growers",
        "event_total": 58,
        "has_played": true,
        "id": 16317985,
        "last_rank": 7450,
        "player_name": "Dagur Ingi",
        "rank": 7553,
        "rank_sort": 7588,
        "total": 2405
      },
      {
        "club_badge_src": null,
        "entry": 2397559,
        "entry_name": "LewinFC",
        "event_total": 78,
        "has_played": true,
        "id": 17128533,
        "last_rank": 16702,
        "player_name": "Lewin Phiri",
        "rank": 7553,
        "rank_sort": 7589,
        "total": 2405
      },
      {
        "club_badge_src": "https://fantasy.premierleague.com/gcs/plfpl-production-adobe-approved/plfpl-production/2552423/50d9132f-f350-40cd-b440-f28732788e2a.png",
        "entry": 2552423,
        "entry_name": "Pecked by the Parrot",
        "event_total": 59,
        "has_played": true,
        "id": 18300707,
        "last_rank": 7761,
        "player_name": "Conor White",
        "rank": 7553,
        "rank_sort": 7590,
        "total": 2405
      },
      {
        "club_badge_src": null,
        "entry": 2646758,
        "entry_name": "Zakir FC",
        "event_total": 58,
        "has_played": true,
        "id": 19023699,
        "last_rank": 7450,
        "player_name": "Jamshed Zakir",
        "rank": 7553,
        "rank_sort": 7591,
        "total": 2405
      },
      {
        "club_badge_src": null,
        "entry": 2707223,
        "entry_name": "Pizza for Mendonca",
        "event_total": 61,
        "has_played": true,
        "id": 19477236,
        "last_rank": 7059,
        "player_name": "Lilian Willett",
        "rank": 7553,
        "rank_sort": 7592,
        "total": 2405
      },
      {
        "club_badge_src": null,
        "entry": 2756743,
        "entry_name": "25/26 arsenal win Pl",
        "event_total": 50,
        "has_played": true,
        "id": 20089391,
        "last_rank": 5281,
        "player_name": "FIFA TWINS HD",
        "rank": 7553,
        "rank_sort": 7593,
        "total": 2405
      },
      {
        "club_badge_src": null,
        "entry": 2852609,
        "entry_name": "Fresh bowls buffet",
        "event_total": 66,
        "has_played": true,
        "id": 20857788,
        "last_rank": 8758,
        "player_name": "Ollie Halion",
        "rank": 7553,
        "rank_sort": 7594,
        "total": 2405
      },
      {
        "club_badge_src": null,
        "entry": 2953889,
        "entry_name": "Nilsson",
        "event_total": 64,
        "has_played": true,
        "id": 21695087,
        "last_rank": 9536,
        "player_name": "Daniel Nilsson",
        "rank": 7553,
        "rank_sort": 7595,
        "total": 2405
      },
      {
        "club_badge_src": null,
        "entry": 3105795,
        "entry_name": "Carec\u00f3metros FC",
        "event_total": 69,
        "has_played": true,
        "id": 22898959,
        "last_rank": 11821,
        "player_name": "Francisco Pacheco",
        "rank": 7553,
        "rank_sort": 7596,
        "total": 2405
      },
      {
        "club_badge_src": null,
        "entry": 3129124,
        "entry_name": "UnitedForever",
        "event_total": 60,
        "has_played": true,
        "id": 23094837,
        "last_rank": 8138,
        "player_name": "J\u00f8rn Harald Gerhardsen Korbi",
        "rank": 7553,
        "rank_sort": 7597,
        "total": 2405
      },
      {
        "club_badge_src": null,
        "entry": 3620854,
        "entry_name": "Shambala",
        "event_total": 56,
        "has_played": true,
        "id": 26977192,
        "last_rank": 6839,
        "player_name": "Raul Bernabeu",
        "rank": 7553,
        "rank_sort": 7598,
        "total": 2405
      },
      {
        "club_badge_src": null,
        "entry": 3833124,
        "entry_name": "Frankly the best !!",
        "event_total": 71,
        "has_played": true,
        "id": 28675072,
        "last_rank": 12846,
        "player_name": "Steve Williams",
        "rank": 7553,
        "rank_sort": 7599,
        "total": 2405
      },
      {
        "club_badge_src": null,
        "entry": 3948083,
        "entry_name": "notGGMU",
        "event_total": 63,
        "has_played": true,
        "id": 29700645,
        "last_rank": 9142,
        "player_name": "YinWeii C",
        "rank": 7553,
        "rank_sort": 7600,
        "total": 2405
      }
    ]
  }
}