{
  "last_updated_data": "2026-05-24T23:28:17Z",
  "league": {
    "admin_entry": null,
    "closed": false,
    "code_privacy": "p",
    "created": "2025-07-20T23:14:33.933835Z",
    "cup_league": 2815434,
    "has_cup": true,
    "id": 314,
    "league_type": "s",
    "max_entries": null,
    "name": "Overall",
    "rank": null,
    "scoring": "c",
    "start_event": 1
  },
  "new_entries": {
    "has_next": false,
    "page": 1,
    "results": []
  },
  "standings": {
    "has_next": true,
    "page": 770,
    "results": [
      {
        "club_badge_src": null,
        "entry": 454144,
        "entry_name": "stronger_mo7",
        "event_total": 45,
        "has_played": true,
        "id": 3046571,
        "last_rank": 25692,
        "player_name": "Mohamed Benbouaicha",
        "rank": 38451,
        "rank_sort": 38451,
        "total": 2361
      },
      {
        "club_badge_src": null,
        "entry": 2479952,
        "entry_name": "Powell's XI",
        "event_total": 67,
        "has_played": true,
        "id": 17744509,
        "last_rank": 41029,
        "player_name": "Luke Powell",
        "rank": 38452,
        "rank_sort": 38452,
        "total": 2361
      },
      {
        "club_badge_src": null,
        "entry": 4679399,
        "entry_name": "stendorf United",
        "event_total": 63,
        "has_played": true,
        "id": 35851563,
        "last_rank": 46511,
        "player_name": "Lasse Stendorf",
        "rank": 38453,
        "rank_sort": 38453,
        "total": 2360
      },
      {
        "club_badge_src": null,
        "entry": 8060896,
        "entry_name": "Template Utd",
        "event_total": 61,
        "has_played": true,
        "id": 66436372,
        "last_rank": 43725,
        "player_name": "Joseph Lundy",
        "rank": 38454,
        "rank_sort": 38454,
        "total": 2360
      },
      {
        "club_badge_src": null,
        "entry": 5880370,
        "entry_name": "Plumtree FC",
        "event_total": 55,
        "has_played": true,
        "id": 46190119,
        "last_rank": 36087,
        "player_name": "Aidan Heaney",
        "rank": 38455,
        "rank_sort": 38455,
        "total": 2360
      },
      {
        "club_badge_src": null,
        "entry": 7099632,
        "entry_name": "wirtz case scenario",
        "event_total": 54,
        "has_played": true,
        "id": 57172105,
        "last_rank": 34907,
        "player_name": "Chloe Kelly",
        "rank": 38456,
        "rank_sort": 38456,
        "total": 2360
      },
      {
        "club_badge_src": null,
        "entry": 855866,
        "entry_name": "Hatate Scone FC",
        "event_total": 54,
        "has_played": true,
        "id": 5866536,
        "last_rank": 34915,
        "player_name": "Mr Khaotic",
        "rank": 38457,
        "rank_sort": 38457,
        "total": 2360
      },
      {
        "club_badge_src": null,
        "entry": 6714428,
        "entry_name": "ChickenTikka MoSalah",
        "event_total": 56,
        "has_played": true,
        "id": 53735080,
        "last_rank": 37308,
        "player_name": "Zeno Rossi",
        "rank": 38457,
        "rank_sort": 38458,
        "total": 2360
      },
      {
        "club_badge_src": null,
        "entry": 2298725,
        "entry_name": "MurilLo and Behold",
        "event_total": 44,
        "has_played": true,
        "id": 16395199,
        "last_rank": 24817,
        "player_name": "Jago Barclay",
        "rank": 38459,
        "rank_sort": 38459,
        "total": 2360
      },
      {
        "club_badge_src": null,
        "entry": 4773523,
        "entry_name": "Sp. Agent De Cuyper",
        "event_total": 53,
        "has_played": true,
        "id": 36743938,
        "last_rank": 33827,
        "player_name": "Adam Sharpe",
        "rank": 38459,
        "rank_sort": 38460,
        "total": 2360
      },
      {
        "club_badge_src": null,
        "entry": 4895224,
        "entry_name": "Saka Spuds",
        "event_total": 60,
        "has_played": true,
        "id": 37745042,
        "last_rank": 42386,
        "player_name": "Andy Law",
        "rank": 38459,
        "rank_sort": 38461,
        "total": 2360
      },
      {
        "club_badge_src": null,
        "entry": 5056821,
        "entry_name": "Dirty Dozen",
        "event_total": 52,
        "has_played": true,
        "id": 39073323,
        "last_rank": 32647,
        "player_name": "Gurdev Singh",
        "rank": 38459,
        "rank_sort": 38462,
        "total": 2360
      },
      {
        "club_badge_src": null,
        "entry": 7629699,
        "entry_name": "Murder Ball",
        "event_total": 72,
        "has_played": true,
        "id": 62533146,
        "last_rank": 61220,
        "player_name": "Scott Steve",
        "rank": 38459,
        "rank_sort": 38463,
        "total": 2360
      },
      {
        "club_badge_src": null,
        "entry": 67151,
        "entry_name": "DCN TOP 5",
        "event_total": 57,
        "has_played": true,
        "id": 434665,
        "last_rank": 38542,
        "player_name": "Raul Rajkumar",
        "rank": 38464,
        "rank_sort": 38464,
        "total": 2360
      },
      {
        "club_badge_src": null,
        "entry": 1173408,
        "entry_name": "N\u00f8rgaard a clue",
        "event_total": 59,
        "has_played": true,
        "id": 8140665,
        "last_rank": 41073,
        "player_name": "Nicholas Clay",
        "rank": 38464,
        "rank_sort": 38465,
        "total": 2360
      },
      {
        "club_badge_src": null,
        "entry": 2094808,
        "entry_name": "BobbyButterBoots",
        "event_total": 27,
        "has_played": true,
        "id": 14862743,
        "last_rank": 13132,
        "player_name": "Robbie Demarco",
        "rank": 38464,
        "rank_sort": 38466,
        "total": 2360
      },
      {
        "club_badge_src": null,
        "entry": 2416625,
        "entry_name": "Random United",
        "event_total": 75,
        "has_played": true,
        "id": 17275575,
        "last_rank": 66658,
        "player_name": "Thomas Windle",
        "rank": 38464,
        "rank_sort": 38467,
        "total": 2360
      },
      {
        "club_badge_src": null,
        "entry": 4917779,
        "entry_name": "Outsiders FC",
        "event_total": 59,
        "has_played": true,
        "id": 37930376,
        "last_rank": 41073,
        "player_name": "Irewole Akomolafe",
        "rank": 38464,
        "rank_sort": 38468,
        "total": 2360
      },
      {
        "club_badge_src": null,
        "entry": 5513305,
        "entry_name": "HaCunha Mateta",
        "event_total": 59,
        "has_played": true,
        "id": 42978873,
        "last_rank": 41060,
        "player_name": "Frederik Nilsson",
        "rank": 38464,
        "rank_sort": 38469,
        "total": 2360
      },
      {
        "club_badge_src": null,
        "entry": 6263933,
        "entry_name": "Darwinnin The League",
        "event_total": 64,
        "has_played": true,
        "id": 49597204,
        "last_rank": 48084,
        "player_name": "rahul .",
        "rank": 38464,
        "rank_sort": 38470,
        "total": 2360
      },
      {
        "club_badge_src": "https://fantasy.premierleague.com/gcs/plfpl-production-adobe-approved/plfpl-production/8751/164af936-facd-4998-9fc8-833a78c8ceb0.png",
        "entry": 8751,
        "entry_name": "Baby Reijnders",
        "event_total": 67,
        "has_played": true,
        "id": 51059,
        "last_rank": 52722,
        "player_name": "Giacomo Ciccognani",
        "rank": 38471,
        "rank_sort": 38471,
        "total": 2360
      },
      {
        "club_badge_src": null,
        "entry": 54335,
        "entry_name": "Baby Reijnders",
        "event_total": 49,
        "has_played": true,
        "id": 349712,
        "last_rank": 29522,
        "player_name": "Jolyon Stokes",
        "rank": 38471,
        "rank_sort": 38472,
        "total": 2360
      },
      {
        "club_badge_src": null,
        "entry": 136780,
        "entry_name": "dalbys 11",
        "event_total": 45,
        "has_played": true,
        "id": 891161,
        "last_rank": 25729,
        "player_name": "Jack Dalby",
        "rank": 38471,
        "rank_sort": 38473,
        "total": 2360
      },
      {
        "club_badge_src": "https://fantasy.premierleague.com/gcs/plfpl-production-adobe-approved/plfpl-production/156834/2b87c7b2-d176-4d7c-82b2-42546b3f3af9.png",
        "entry": 156834,
        "entry_name": "WWFC UKUP",
        "event_total": 55,
        "has_played": true,
        "id": 1031515,
        "last_rank": 36142,
        "player_name": "Paul Catt",
        "rank": 38471,
        "rank_sort": 38474,
        "total": 2360
      },
      {
        "club_badge_src": null,
        "entry": 195948,
        "entry_name": "::::::::::::::::::::",
        "event_total": 27,
        "has_played": true,
        "id": 1299646,
        "last_rank": 13153,
        "player_name": "James Pike",
        "rank": 38471,
        "rank_sort": 38475,
        "total": 2360
      },
      {
        "club_badge_src": null,
        "entry": 655701,
        "entry_name": "Yotters XI",
        "event_total": 73,
        "has_played": true,
        "id": 4431273,
        "last_rank": 63117,
        "player_name": "John Lawlor",
        "rank": 38471,
        "rank_sort": 38476,
        "total": 2360
      },
      {
        "club_badge_src": null,
        "entry": 1000084,
        "entry_name": "MARTIN FC",
        "event_total": 79,
        "has_played": true,
        "id": 6913041,
        "last_rank": 66658,
        "player_name": "Martin taylor",
        "rank": 38471,
        "rank_sort": 38477,
        "total": 2360
      },
      {
        "club_badge_src": null,
        "entry": 1564927,
        "entry_name": "nickfarole",
        "event_total": 61,
        "has_played": true,
        "id": 10932000,
        "last_rank": 43742,
        "player_name": "Nick Farole",
        "rank": 38471,
        "rank_sort": 38478,
        "total": 2360
      },
      {
        "club_badge_src": null,
        "entry": 2070881,
        "entry_name": "Kinder Mbuemo",
        "event_total": 47,
        "has_played": true,
        "id": 14681837,
        "last_rank": 27564,
        "player_name": "Lucy Derry",
        "rank": 38471,
        "rank_sort": 38479,
        "total": 2360
      },
      {
        "club_badge_src": null,
        "entry": 2167783,
        "entry_name": "Regis' Revolution",
        "event_total": 67,
        "has_played": true,
        "id": 15412349,
        "last_rank": 52713,
        "player_name": "Chris Glassock",
        "rank": 38471,
        "rank_sort": 38480,
        "total": 2360
      },
      {
        "club_badge_src": null,
        "entry": 2538827,
        "entry_name": "Unbelievable TeKkerS",
        "event_total": 53,
        "has_played": true,
        "id": 18194850,
        "last_rank": 33819,
        "player_name": "Johnny Grdovic",
        "rank": 38471,
        "rank_sort": 38481,
        "total": 2360
      },
      {
        "club_badge_src": null,
        "entry": 2589884,
        "entry_name": "Kudus Iscariot",
        "event_total": 65,
        "has_played": true,
        "id": 18593636,
        "last_rank": 43737,
        "player_name": "Nathaniel Cosgriff",
        "rank": 38471,
        "rank_sort": 38482,
        "total": 2360
      },
      {
        "club_badge_src": null,
        "entry": 3285973,
        "entry_name": "FM Milan",
        "event_total": 63,
        "has_played": true,
        "id": 24325033,
        "last_rank": 46591,
        "player_name": "Kenshin Kaggawa",
        "rank": 38471,
        "rank_sort": 38483,
        "total": 2360
      },
      {
        "club_badge_src": "https://fantasy.premierleague.com/gcs/plfpl-production-adobe-approved/plfpl-production/3617348/8f6f3da8-d268-449c-8299-0f4561636f3b.png",
        "entry": 3617348,
        "entry_name": "City boy FC",
        "event_total": 50,
        "has_played": true,
        "id": 26949483,
        "last_rank": 30536,
        "player_name": "Kevin Myrer",
        "rank": 38471,
        "rank_sort": 38484,
        "total": 2360
      },
      {
        "club_badge_src": null,
        "entry": 3618047,
        "entry_name": "Granell FC",
        "event_total": 54,
        "has_played": true,
        "id": 26954849,
        "last_rank": 34937,
        "player_name": "Albin Granell",
        "rank": 38471,
        "rank_sort": 38485,
        "total": 2360
      },
      {
        "club_badge_src": "https://fantasy.premierleague.com/gcs/plfpl-production-adobe-approved/plfpl-production/4574604/5e9fde04-3dd0-494f-8936-b90a9c5522df.png",
        "entry": 4574604,
        "entry_name": "YourOnCam",
        "event_total": 57,
        "has_played": true,
        "id": 34916105,
        "last_rank": 38571,
        "player_name": "Eleander McLaren-Roberti",
        "rank": 38471,
        "rank_sort": 38486,
        "total": 2360
      },
      {
        "club_badge_src": "https://fantasy.premierleague.com/gcs/plfpl-production-adobe-approved/plfpl-production/5038414/0a4af6f4-5351-4a23-9503-8750a92728c0.png",
        "entry": 5038414,
        "entry_name": "Erling Me Softly",
        "event_total": 46,
        "has_played": true,
        "id": 38917416,
        "last_rank": 26620,
        "player_name": "anton H\u00e4\u00e4gg",
        "rank": 38471,
        "rank_sort": 38487,
        "total": 2360
      },
      {
        "club_badge_src": "https://fantasy.premierleague.com/gcs/plfpl-production-adobe-approved/plfpl-production/5430763/94592698-27cf-40c0-8e69-17ff37091a67.png",
        "entry": 5430763,
        "entry_name": "Yanited",
        "event_total": 62,
        "has_played": true,
        "id": 42242827,
        "last_rank": 45144,
        "player_name": "Michael Deloria",
        "rank": 38471,
        "rank_sort": 38488,
        "total": 2360
      },
      {
        "club_badge_src": null,
        "entry": 5870687,
        "entry_name": "ManUTat",
        "event_total": 68,
        "has_played": true,
        "id": 46110873,
        "last_rank": 54416,
        "player_name": "Ming Tat Leung",
        "rank": 38471,
        "rank_sort": 38489,
        "total": 2360
      },
      {
        "club_badge_src": null,
        "entry": 8322277,
        "entry_name": "Eastcote United",
        "event_total": 69,
        "has_played": true,
        "id": 68941040,
        "last_rank": 56041,
        "player_name": "Ben Hemmings",
        "rank": 38471,
        "rank_sort": 38490,
        "total": 2360
      },
      {
        "club_badge_src": "https://fantasy.premierleague.com/gcs/plfpl-production-adobe-approved/plfpl-production/8591109/baec41eb-d020-47f0-a119-c76c6cf1a50f.png",
        "entry": 8591109,
        "entry_name": "Hit Squad",
        "event_total": 53,
        "has_played": true,
        "id": 71512381,
        "last_rank": 33869,
        "player_name": "Alexi Simpson",
        "rank": 38471,
        "rank_sort": 38491,
        "total": 2360
      },
      {
        "club_badge_src": null,
        "entry": 10478132,
        "entry_name": "No clue",
        "event_total": 56,
        "has_played": true,
        "id": 88616097,
        "last_rank": 37325,
        "player_name": "Aaron Williams",
        "rank": 38471,
        "rank_sort": 38492,
        "total": 2360
      },
      {
        "club_badge_src": null,
        "entry": 10702260,
        "entry_name": "F11",
        "event_total": 44,
        "has_played": true,
        "id": 90406361,
        "last_rank": 24817,
        "player_name": "Benny N",
        "rank": 38471,
        "rank_sort": 38493,
        "total": 2360
      },
      {
        "club_badge_src": null,
        "entry": 144443,
        "entry_name": "Wirtz The Wait!",
        "event_total": 47,
        "has_played": true,
        "id": 945496,
        "last_rank": 27644,
        "player_name": "Philip Streng",
        "rank": 38494,
        "rank_sort": 38494,
        "total": 2360
      },
      {
        "club_badge_src": null,
        "entry": 170879,
        "entry_name": "The Special Won",
        "event_total": 46,
        "has_played": true,
        "id": 1128915,
        "last_rank": 26612,
        "player_name": "Damien Bell",
        "rank": 38494,
        "rank_sort": 38495,
        "total": 2360
      },
      {
        "club_badge_src": null,
        "entry": 189641,
        "entry_name": "Bowen Arrow",
        "event_total": 49,
        "has_played": true,
        "id": 1255331,
        "last_rank": 29522,
        "player_name": "Tom Aston",
        "rank": 38494,
        "rank_sort": 38496,
        "total": 2360
      },
      {
        "club_badge_src": null,
        "entry": 468188,
        "entry_name": "Rutter Woke Nonsense",
        "event_total": 58,
        "has_played": true,
        "id": 3142014,
        "last_rank": 39784,
        "player_name": "Adam Horne",
        "rank": 38494,
        "rank_sort": 38497,
        "total": 2360
      },
      {
        "club_badge_src": null,
        "entry": 658299,
        "entry_name": "Wirtz case senario",
        "event_total": 53,
        "has_played": true,
        "id": 4448660,
        "last_rank": 33936,
        "player_name": "kaiden higgins",
        "rank": 38494,
        "rank_sort": 38498,
        "total": 2360
      },
      {
        "club_badge_src": null,
        "entry": 686332,
        "entry_name": "XG Avengers",
        "event_total": 72,
        "has_played": true,
        "id": 4645907,
        "last_rank": 61411,
        "player_name": "Charanpreet Mehta",
        "rank": 38494,
        "rank_sort": 38499,
        "total": 2360
      },
      {
        "club_badge_src": null,
        "entry": 889314,
        "entry_name": "Yoro Wissa Harry",
        "event_total": 41,
        "has_played": true,
        "id": 6099976,
        "last_rank": 22426,
        "player_name": "Mitchell Hiebert",
        "rank": 38494,
        "rank_sort": 38500,
        "total": 2360
      }
    ]
  }
}