{
  "last_updated_data": "2026-05-24T23:28:17Z",
  "league": {
    "admin_entry": null,
    "closed": false,
    "code_privacy": "p",
    "created": "2025-07-20T23:14:33.933835Z",
    "cup_league": 2815434,
    "has_cup": true,
    "id": 314,
    "league_type": "s",
    "max_entries": null,
    "name": "Overall",
    "rank": null,
    "scoring": "c",
    "start_event": 1
  },
  "new_entries": {
    "has_next": false,
    "page": 1,
    "results": []
  },
  "standings": {
    "has_next": true,
    "page": 286,
    "results": [
      {
        "club_badge_src": null,
        "entry": 444521,
        "entry_name": "Oslo City",
        "event_total": 49,
        "has_played": true,
        "id": 2980764,
        "last_rank": 9885,
        "player_name": "Gorm Singsaas Andresen",
        "rank": 14214,
        "rank_sort": 14251,
        "total": 2389
      },
      {
        "club_badge_src": "https://fantasy.premierleague.com/gcs/plfpl-production-adobe-approved/plfpl-production/517993/23af9ebf-33dd-49db-bca1-1c108be730ef.png",
        "entry": 517993,
        "entry_name": "Elliott",
        "event_total": 58,
        "has_played": true,
        "id": 3477727,
        "last_rank": 12141,
        "player_name": "Malik Farid",
        "rank": 14214,
        "rank_sort": 14252,
        "total": 2389
      },
      {
        "club_badge_src": null,
        "entry": 610377,
        "entry_name": "DeclareColeNucleaire",
        "event_total": 70,
        "has_played": true,
        "id": 4123686,
        "last_rank": 22534,
        "player_name": "Adrian Bissenden",
        "rank": 14214,
        "rank_sort": 14253,
        "total": 2389
      },
      {
        "club_badge_src": null,
        "entry": 610645,
        "entry_name": "salahde fc",
        "event_total": 57,
        "has_played": true,
        "id": 4125629,
        "last_rank": 13821,
        "player_name": "Pieter Mertens",
        "rank": 14214,
        "rank_sort": 14254,
        "total": 2389
      },
      {
        "club_badge_src": "https://fantasy.premierleague.com/gcs/plfpl-production-adobe-approved/plfpl-production/621938/b27b320e-e35a-44d2-acd8-3a219e44e2c2.png",
        "entry": 621938,
        "entry_name": "Hooman'sEleven",
        "event_total": 57,
        "has_played": true,
        "id": 4202968,
        "last_rank": 13754,
        "player_name": "Hadi Hojjati",
        "rank": 14214,
        "rank_sort": 14255,
        "total": 2389
      },
      {
        "club_badge_src": null,
        "entry": 650196,
        "entry_name": "Back of the Neto",
        "event_total": 47,
        "has_played": true,
        "id": 4394185,
        "last_rank": 9089,
        "player_name": "Peter Phillips",
        "rank": 14214,
        "rank_sort": 14256,
        "total": 2389
      },
      {
        "club_badge_src": null,
        "entry": 666337,
        "entry_name": "FK Kolektyvas",
        "event_total": 59,
        "has_played": true,
        "id": 4505216,
        "last_rank": 14857,
        "player_name": "Vaidas Cislikauskas",
        "rank": 14214,
        "rank_sort": 14257,
        "total": 2389
      },
      {
        "club_badge_src": null,
        "entry": 704209,
        "entry_name": "Bowen 747",
        "event_total": 62,
        "has_played": true,
        "id": 4772043,
        "last_rank": 16807,
        "player_name": "Martin Thogersen",
        "rank": 14214,
        "rank_sort": 14258,
        "total": 2389
      },
      {
        "club_badge_src": null,
        "entry": 743769,
        "entry_name": "Just Mo with the Flo",
        "event_total": 62,
        "has_played": true,
        "id": 5059361,
        "last_rank": 16729,
        "player_name": "Dominic Cumins",
        "rank": 14214,
        "rank_sort": 14259,
        "total": 2389
      },
      {
        "club_badge_src": null,
        "entry": 818621,
        "entry_name": "ThomasDaFrankEngine",
        "event_total": 63,
        "has_played": true,
        "id": 5606342,
        "last_rank": 17585,
        "player_name": "Robson McWilliams",
        "rank": 14214,
        "rank_sort": 14260,
        "total": 2389
      },
      {
        "club_badge_src": null,
        "entry": 824660,
        "entry_name": "VeryOldBoys",
        "event_total": 62,
        "has_played": true,
        "id": 5647979,
        "last_rank": 16807,
        "player_name": "John Crawford",
        "rank": 14214,
        "rank_sort": 14261,
        "total": 2389
      },
      {
        "club_badge_src": "https://fantasy.premierleague.com/gcs/plfpl-production-adobe-approved/plfpl-production/841691/549b7d2a-c96d-4dce-9949-d2b7bbcdb9e1.png",
        "entry": 841691,
        "entry_name": "Imabaleba",
        "event_total": 66,
        "has_played": true,
        "id": 5766885,
        "last_rank": 19432,
        "player_name": "Rob Scott",
        "rank": 14214,
        "rank_sort": 14262,
        "total": 2389
      },
      {
        "club_badge_src": null,
        "entry": 884770,
        "entry_name": "Better than Figo",
        "event_total": 57,
        "has_played": true,
        "id": 6067948,
        "last_rank": 13754,
        "player_name": "Matteo Maiorano",
        "rank": 14214,
        "rank_sort": 14263,
        "total": 2389
      },
      {
        "club_badge_src": null,
        "entry": 888195,
        "entry_name": "to-htA",
        "event_total": 46,
        "has_played": true,
        "id": 6092070,
        "last_rank": 8758,
        "player_name": "Parvoraphon Pasukmoon",
        "rank": 14214,
        "rank_sort": 14264,
        "total": 2389
      },
      {
        "club_badge_src": null,
        "entry": 888967,
        "entry_name": "Dreamers",
        "event_total": 62,
        "has_played": true,
        "id": 6097519,
        "last_rank": 16807,
        "player_name": "kundan Khadka",
        "rank": 14214,
        "rank_sort": 14265,
        "total": 2389
      },
      {
        "club_badge_src": null,
        "entry": 925847,
        "entry_name": "Godzilla",
        "event_total": 69,
        "has_played": true,
        "id": 6369451,
        "last_rank": 21677,
        "player_name": "daft pppppunk",
        "rank": 14214,
        "rank_sort": 14266,
        "total": 2389
      },
      {
        "club_badge_src": null,
        "entry": 959657,
        "entry_name": "VitoIN",
        "event_total": 48,
        "has_played": true,
        "id": 6612995,
        "last_rank": 9536,
        "player_name": "Ivana Arabadzhieva",
        "rank": 14214,
        "rank_sort": 14267,
        "total": 2389
      },
      {
        "club_badge_src": null,
        "entry": 974599,
        "entry_name": "Raya Sunshine",
        "event_total": 47,
        "has_played": true,
        "id": 6718364,
        "last_rank": 9142,
        "player_name": "James Cairns",
        "rank": 14214,
        "rank_sort": 14268,
        "total": 2389
      },
      {
        "club_badge_src": null,
        "entry": 995640,
        "entry_name": ".",
        "event_total": 60,
        "has_played": true,
        "id": 6872478,
        "last_rank": 15550,
        "player_name": "Bj\u00f8rn Tr\u00f8nnes",
        "rank": 14214,
        "rank_sort": 14269,
        "total": 2389
      },
      {
        "club_badge_src": null,
        "entry": 1046620,
        "entry_name": "L to the D",
        "event_total": 60,
        "has_played": true,
        "id": 7243371,
        "last_rank": 15694,
        "player_name": "Lewis Deradour",
        "rank": 14214,
        "rank_sort": 14270,
        "total": 2389
      },
      {
        "club_badge_src": "https://fantasy.premierleague.com/gcs/plfpl-production-adobe-approved/plfpl-production/1096848/6a4a1a90-9822-41c6-8abb-96db2a7c87f6.png",
        "entry": 1096848,
        "entry_name": "Struijk me Langstaff",
        "event_total": 58,
        "has_played": true,
        "id": 7597169,
        "last_rank": 14292,
        "player_name": "John Rowlinson-Cooke",
        "rank": 14214,
        "rank_sort": 14271,
        "total": 2389
      },
      {
        "club_badge_src": null,
        "entry": 1166211,
        "entry_name": "Profuse",
        "event_total": 64,
        "has_played": true,
        "id": 8089931,
        "last_rank": 18113,
        "player_name": "Craig Lambert",
        "rank": 14214,
        "rank_sort": 14272,
        "total": 2389
      },
      {
        "club_badge_src": null,
        "entry": 1251617,
        "entry_name": "Lord Woodward",
        "event_total": 58,
        "has_played": true,
        "id": 8692926,
        "last_rank": 14292,
        "player_name": "G\u00f8ran Birkeland",
        "rank": 14214,
        "rank_sort": 14273,
        "total": 2389
      },
      {
        "club_badge_src": null,
        "entry": 1267719,
        "entry_name": "Howe's Moving Castle",
        "event_total": 61,
        "has_played": true,
        "id": 8808273,
        "last_rank": 16163,
        "player_name": "Will Murray",
        "rank": 14214,
        "rank_sort": 14274,
        "total": 2389
      },
      {
        "club_badge_src": null,
        "entry": 1304992,
        "entry_name": "southern yemen FC",
        "event_total": 58,
        "has_played": true,
        "id": 9070176,
        "last_rank": 14292,
        "player_name": "Mark Smyth",
        "rank": 14214,
        "rank_sort": 14275,
        "total": 2389
      },
      {
        "club_badge_src": null,
        "entry": 1369666,
        "entry_name": "SAKA POTATOES",
        "event_total": 69,
        "has_played": true,
        "id": 9520890,
        "last_rank": 21677,
        "player_name": "pat Pezzano",
        "rank": 14214,
        "rank_sort": 14276,
        "total": 2389
      },
      {
        "club_badge_src": null,
        "entry": 1409626,
        "entry_name": "LukaYNWA",
        "event_total": 54,
        "has_played": true,
        "id": 9808548,
        "last_rank": 12141,
        "player_name": "Luka Popovi\u0107",
        "rank": 14214,
        "rank_sort": 14277,
        "total": 2389
      },
      {
        "club_badge_src": null,
        "entry": 1411727,
        "entry_name": "Alice in Hangeland",
        "event_total": 66,
        "has_played": true,
        "id": 9824332,
        "last_rank": 19544,
        "player_name": "Ben Brown",
        "rank": 14214,
        "rank_sort": 14278,
        "total": 2389
      },
      {
        "club_badge_src": null,
        "entry": 1476694,
        "entry_name": "Corey Clueless Bozo",
        "event_total": 56,
        "has_played": true,
        "id": 10294564,
        "last_rank": 13153,
        "player_name": "Sam Waterhouse",
        "rank": 14214,
        "rank_sort": 14279,
        "total": 2389
      },
      {
        "club_badge_src": null,
        "entry": 1487521,
        "entry_name": "gazzas boys",
        "event_total": 79,
        "has_played": true,
        "id": 10373143,
        "last_rank": 30727,
        "player_name": "Gary Bennett",
        "rank": 14214,
        "rank_sort": 14280,
        "total": 2389
      },
      {
        "club_badge_src": null,
        "entry": 1616159,
        "entry_name": "SODD FC",
        "event_total": 58,
        "has_played": true,
        "id": 11308755,
        "last_rank": 14292,
        "player_name": "Sam Odd",
        "rank": 14214,
        "rank_sort": 14281,
        "total": 2389
      },
      {
        "club_badge_src": "https://fantasy.premierleague.com/gcs/plfpl-production-adobe-approved/plfpl-production/1733270/ed82eb93-81fa-4334-8a5a-99e65b0c0da2.png",
        "entry": 1733270,
        "entry_name": "9mg Mint ZYNchenko",
        "event_total": 65,
        "has_played": true,
        "id": 12158215,
        "last_rank": 18655,
        "player_name": "Josh Harnett",
        "rank": 14214,
        "rank_sort": 14282,
        "total": 2389
      },
      {
        "club_badge_src": null,
        "entry": 1806012,
        "entry_name": "Cider and Pasty Diet",
        "event_total": 50,
        "has_played": true,
        "id": 12696690,
        "last_rank": 10346,
        "player_name": "Paul Foster",
        "rank": 14214,
        "rank_sort": 14283,
        "total": 2389
      },
      {
        "club_badge_src": null,
        "entry": 1996252,
        "entry_name": "Number 1",
        "event_total": 67,
        "has_played": true,
        "id": 14106224,
        "last_rank": 20280,
        "player_name": "Abdirahman Basrawi",
        "rank": 14214,
        "rank_sort": 14284,
        "total": 2389
      },
      {
        "club_badge_src": null,
        "entry": 2011328,
        "entry_name": "EvanyC",
        "event_total": 63,
        "has_played": true,
        "id": 14222380,
        "last_rank": 17437,
        "player_name": "Evany Carmo",
        "rank": 14214,
        "rank_sort": 14285,
        "total": 2389
      },
      {
        "club_badge_src": "https://fantasy.premierleague.com/gcs/plfpl-production-adobe-approved/plfpl-production/2107302/0cc78d1f-ee1f-4544-a371-54bb50662fc8.png",
        "entry": 2107302,
        "entry_name": "The Polish Pickle",
        "event_total": 59,
        "has_played": true,
        "id": 14955589,
        "last_rank": 14926,
        "player_name": "Robert Rzepa",
        "rank": 14214,
        "rank_sort": 14286,
        "total": 2389
      },
      {
        "club_badge_src": null,
        "entry": 2114311,
        "entry_name": "Charlies Angels",
        "event_total": 53,
        "has_played": true,
        "id": 15010874,
        "last_rank": 11821,
        "player_name": "Charles davis",
        "rank": 14214,
        "rank_sort": 14287,
        "total": 2389
      },
      {
        "club_badge_src": "https://fantasy.premierleague.com/gcs/plfpl-production-adobe-approved/plfpl-production/2167422/b44ada1b-5620-4be3-93de-ec949e9ff67e.png",
        "entry": 2167422,
        "entry_name": "Eleven Ninjaz",
        "event_total": 57,
        "has_played": true,
        "id": 15409808,
        "last_rank": 13754,
        "player_name": "Dennis Nyirenda",
        "rank": 14214,
        "rank_sort": 14288,
        "total": 2389
      },
      {
        "club_badge_src": null,
        "entry": 2180337,
        "entry_name": "Omnipotent XI",
        "event_total": 67,
        "has_played": true,
        "id": 15507008,
        "last_rank": 20147,
        "player_name": "Joel Jacques",
        "rank": 14214,
        "rank_sort": 14289,
        "total": 2389
      },
      {
        "club_badge_src": null,
        "entry": 2194025,
        "entry_name": "East 14",
        "event_total": 66,
        "has_played": true,
        "id": 15610537,
        "last_rank": 19432,
        "player_name": "Harry Strachan",
        "rank": 14214,
        "rank_sort": 14290,
        "total": 2389
      },
      {
        "club_badge_src": "https://fantasy.premierleague.com/gcs/plfpl-production-adobe-approved/plfpl-production/2265488/24a61614-7c3c-4100-bd5d-1d96c1b40014.png",
        "entry": 2265488,
        "entry_name": "Onana What\u2019s My Name",
        "event_total": 70,
        "has_played": true,
        "id": 16152917,
        "last_rank": 22426,
        "player_name": "Ben Hilton",
        "rank": 14214,
        "rank_sort": 14291,
        "total": 2389
      },
      {
        "club_badge_src": null,
        "entry": 2396831,
        "entry_name": "Old Havertz Kai Hard",
        "event_total": 68,
        "has_played": true,
        "id": 17123097,
        "last_rank": 20826,
        "player_name": "Ben Hallifax",
        "rank": 14214,
        "rank_sort": 14292,
        "total": 2389
      },
      {
        "club_badge_src": "https://fantasy.premierleague.com/gcs/plfpl-production-adobe-approved/plfpl-production/2788078/03d20950-c80d-468d-a1d6-3ed1a2f0909d.png",
        "entry": 2788078,
        "entry_name": "Dukes of Hazard",
        "event_total": 59,
        "has_played": true,
        "id": 20354723,
        "last_rank": 14926,
        "player_name": "Olly Lucking",
        "rank": 14214,
        "rank_sort": 14293,
        "total": 2389
      },
      {
        "club_badge_src": null,
        "entry": 2862063,
        "entry_name": "Fpl_darts",
        "event_total": 65,
        "has_played": true,
        "id": 20930321,
        "last_rank": 18691,
        "player_name": "Rabie Mathbout",
        "rank": 14214,
        "rank_sort": 14294,
        "total": 2389
      },
      {
        "club_badge_src": null,
        "entry": 2890693,
        "entry_name": "Nuno your business",
        "event_total": 44,
        "has_played": true,
        "id": 21165523,
        "last_rank": 8032,
        "player_name": "Gert GK",
        "rank": 14214,
        "rank_sort": 14295,
        "total": 2389
      },
      {
        "club_badge_src": "https://fantasy.premierleague.com/gcs/plfpl-production-adobe-approved/plfpl-production/2918940/a8822845-ecb7-4c84-9216-3e8e865e207f.png",
        "entry": 2918940,
        "entry_name": "Kai Hard: Vengeance",
        "event_total": 60,
        "has_played": true,
        "id": 21395529,
        "last_rank": 15550,
        "player_name": "Lenny Rodriguez",
        "rank": 14214,
        "rank_sort": 14296,
        "total": 2389
      },
      {
        "club_badge_src": null,
        "entry": 3143615,
        "entry_name": "wedidntstartMaguire",
        "event_total": 61,
        "has_played": true,
        "id": 23209866,
        "last_rank": 16062,
        "player_name": "Will Heath",
        "rank": 14214,
        "rank_sort": 14297,
        "total": 2389
      },
      {
        "club_badge_src": null,
        "entry": 3258501,
        "entry_name": "Cemed",
        "event_total": 57,
        "has_played": true,
        "id": 24110541,
        "last_rank": 13821,
        "player_name": "mohammed CHAIBEDDOUR",
        "rank": 14214,
        "rank_sort": 14298,
        "total": 2389
      },
      {
        "club_badge_src": null,
        "entry": 3332980,
        "entry_name": "Change Name",
        "event_total": 62,
        "has_played": true,
        "id": 24713000,
        "last_rank": 16807,
        "player_name": "Tertius Alberts",
        "rank": 14214,
        "rank_sort": 14299,
        "total": 2389
      },
      {
        "club_badge_src": null,
        "entry": 3392547,
        "entry_name": "YAZ",
        "event_total": 55,
        "has_played": true,
        "id": 25186296,
        "last_rank": 12608,
        "player_name": "yazeed alturki",
        "rank": 14214,
        "rank_sort": 14300,
        "total": 2389
      }
    ]
  }
}