{
  "last_updated_data": "2026-05-24T23:28:17Z",
  "league": {
    "admin_entry": null,
    "closed": false,
    "code_privacy": "p",
    "created": "2025-07-20T23:14:33.933835Z",
    "cup_league": 2815434,
    "has_cup": true,
    "id": 314,
    "league_type": "s",
    "max_entries": null,
    "name": "Overall",
    "rank": null,
    "scoring": "c",
    "start_event": 1
  },
  "new_entries": {
    "has_next": false,
    "page": 1,
    "results": []
  },
  "standings": {
    "has_next": true,
    "page": 511,
    "results": [
      {
        "club_badge_src": null,
        "entry": 7647118,
        "entry_name": "Beef Cherki",
        "event_total": 62,
        "has_played": true,
        "id": 62690595,
        "last_rank": 29688,
        "player_name": "Matthew Bruckshaw",
        "rank": 25299,
        "rank_sort": 25501,
        "total": 2373
      },
      {
        "club_badge_src": null,
        "entry": 7904223,
        "entry_name": "Gooner",
        "event_total": 53,
        "has_played": true,
        "id": 65025580,
        "last_rank": 21775,
        "player_name": "Aria Bakhtiyariyan",
        "rank": 25299,
        "rank_sort": 25502,
        "total": 2373
      },
      {
        "club_badge_src": null,
        "entry": 7976748,
        "entry_name": "prootball",
        "event_total": 76,
        "has_played": true,
        "id": 65678355,
        "last_rank": 46660,
        "player_name": "Lin Yin Tan",
        "rank": 25299,
        "rank_sort": 25503,
        "total": 2373
      },
      {
        "club_badge_src": null,
        "entry": 8033678,
        "entry_name": "The Wev Show",
        "event_total": 40,
        "has_played": true,
        "id": 66188703,
        "last_rank": 13257,
        "player_name": "Will Evans",
        "rank": 25299,
        "rank_sort": 25504,
        "total": 2373
      },
      {
        "club_badge_src": null,
        "entry": 8076480,
        "entry_name": "L\u00e4nna BK",
        "event_total": 69,
        "has_played": true,
        "id": 66582007,
        "last_rank": 37435,
        "player_name": "Samuel Heeger",
        "rank": 25299,
        "rank_sort": 25505,
        "total": 2373
      },
      {
        "club_badge_src": null,
        "entry": 8135287,
        "entry_name": "Brewcastle Utd",
        "event_total": 60,
        "has_played": true,
        "id": 67130616,
        "last_rank": 27770,
        "player_name": "Rob Brewis",
        "rank": 25299,
        "rank_sort": 25506,
        "total": 2373
      },
      {
        "club_badge_src": null,
        "entry": 8389013,
        "entry_name": "Borussia Teeth",
        "event_total": 73,
        "has_played": true,
        "id": 69576881,
        "last_rank": 42506,
        "player_name": "Evan Hedges",
        "rank": 25299,
        "rank_sort": 25507,
        "total": 2373
      },
      {
        "club_badge_src": null,
        "entry": 8394148,
        "entry_name": "Hoofhearted",
        "event_total": 51,
        "has_played": true,
        "id": 69624349,
        "last_rank": 20147,
        "player_name": "Henry Tsang",
        "rank": 25299,
        "rank_sort": 25508,
        "total": 2373
      },
      {
        "club_badge_src": null,
        "entry": 8752989,
        "entry_name": "EssyGessyMessy",
        "event_total": 58,
        "has_played": true,
        "id": 73091487,
        "last_rank": 25902,
        "player_name": "Sebastian Morley",
        "rank": 25299,
        "rank_sort": 25509,
        "total": 2373
      },
      {
        "club_badge_src": "https://fantasy.premierleague.com/gcs/plfpl-production-adobe-approved/plfpl-production/9061455/21574ccb-c0ef-4037-adde-68d78ea3a7af.png",
        "entry": 9061455,
        "entry_name": "Ladbroke Grove FC",
        "event_total": 68,
        "has_played": true,
        "id": 76076377,
        "last_rank": 36348,
        "player_name": "Ralph Alvarez",
        "rank": 25299,
        "rank_sort": 25510,
        "total": 2373
      },
      {
        "club_badge_src": null,
        "entry": 9062052,
        "entry_name": "Doli",
        "event_total": 42,
        "has_played": true,
        "id": 76082068,
        "last_rank": 14496,
        "player_name": "Dolly Ramos",
        "rank": 25299,
        "rank_sort": 25511,
        "total": 2373
      },
      {
        "club_badge_src": null,
        "entry": 9297761,
        "entry_name": "Hacunha Mateta",
        "event_total": 49,
        "has_played": true,
        "id": 78388774,
        "last_rank": 18691,
        "player_name": "Shiva Gk",
        "rank": 25299,
        "rank_sort": 25512,
        "total": 2373
      },
      {
        "club_badge_src": null,
        "entry": 9376676,
        "entry_name": "Norbiton United",
        "event_total": 31,
        "has_played": true,
        "id": 79147117,
        "last_rank": 9142,
        "player_name": "Alex Hoogewerf",
        "rank": 25299,
        "rank_sort": 25513,
        "total": 2373
      },
      {
        "club_badge_src": null,
        "entry": 2449,
        "entry_name": "English Fitz Percy",
        "event_total": 64,
        "has_played": true,
        "id": 13658,
        "last_rank": 27770,
        "player_name": "A .",
        "rank": 25514,
        "rank_sort": 25514,
        "total": 2373
      },
      {
        "club_badge_src": null,
        "entry": 6806,
        "entry_name": "Beatles",
        "event_total": 67,
        "has_played": true,
        "id": 39140,
        "last_rank": 35424,
        "player_name": "Mats Valvatne",
        "rank": 25514,
        "rank_sort": 25515,
        "total": 2373
      },
      {
        "club_badge_src": null,
        "entry": 17673,
        "entry_name": "Red Devils",
        "event_total": 57,
        "has_played": true,
        "id": 109694,
        "last_rank": 21775,
        "player_name": "Konstantinos Adamou",
        "rank": 25514,
        "rank_sort": 25516,
        "total": 2373
      },
      {
        "club_badge_src": null,
        "entry": 22195,
        "entry_name": "Minus 4 FK",
        "event_total": 52,
        "has_played": true,
        "id": 139334,
        "last_rank": 21159,
        "player_name": "Filip Karlsson",
        "rank": 25514,
        "rank_sort": 25517,
        "total": 2373
      },
      {
        "club_badge_src": null,
        "entry": 34355,
        "entry_name": "ANyg\u00e5rd",
        "event_total": 68,
        "has_played": true,
        "id": 219420,
        "last_rank": 31747,
        "player_name": "Tobias Nyg\u00e5rd",
        "rank": 25514,
        "rank_sort": 25518,
        "total": 2373
      },
      {
        "club_badge_src": null,
        "entry": 39139,
        "entry_name": "\u00c5ker\u00f8y's utvalgte",
        "event_total": 60,
        "has_played": true,
        "id": 250865,
        "last_rank": 24039,
        "player_name": "Johannes \u00c5ker\u00f8y",
        "rank": 25514,
        "rank_sort": 25519,
        "total": 2373
      },
      {
        "club_badge_src": null,
        "entry": 47276,
        "entry_name": "Plan B",
        "event_total": 55,
        "has_played": true,
        "id": 303179,
        "last_rank": 23230,
        "player_name": "Gill Holden",
        "rank": 25514,
        "rank_sort": 25520,
        "total": 2373
      },
      {
        "club_badge_src": "https://fantasy.premierleague.com/gcs/plfpl-production-adobe-approved/plfpl-production/54190/2aaf366f-8a2e-4152-8842-8fabddfe4ead.png",
        "entry": 54190,
        "entry_name": "Merengues",
        "event_total": 73,
        "has_played": true,
        "id": 348791,
        "last_rank": 42506,
        "player_name": "striker enigma",
        "rank": 25514,
        "rank_sort": 25521,
        "total": 2373
      },
      {
        "club_badge_src": "https://fantasy.premierleague.com/gcs/plfpl-production-adobe-approved/plfpl-production/55634/52c8d848-50d2-44cc-b053-ca644ea33ae9.png",
        "entry": 55634,
        "entry_name": "We've won it all",
        "event_total": 69,
        "has_played": true,
        "id": 358224,
        "last_rank": 37589,
        "player_name": "Michael Sgro",
        "rank": 25514,
        "rank_sort": 25522,
        "total": 2373
      },
      {
        "club_badge_src": "https://fantasy.premierleague.com/gcs/plfpl-production-adobe-approved/plfpl-production/57056/9008db50-00ff-4f5e-9f09-7f52f166cf4a.png",
        "entry": 57056,
        "entry_name": "The Rio Deal",
        "event_total": 68,
        "has_played": true,
        "id": 367520,
        "last_rank": 36348,
        "player_name": "Dominic Lincoln",
        "rank": 25514,
        "rank_sort": 25523,
        "total": 2373
      },
      {
        "club_badge_src": null,
        "entry": 60351,
        "entry_name": "Not a Real Madrid",
        "event_total": 52,
        "has_played": true,
        "id": 388581,
        "last_rank": 18029,
        "player_name": "Timo Lekkerm\u00e4ki",
        "rank": 25514,
        "rank_sort": 25524,
        "total": 2373
      },
      {
        "club_badge_src": "https://fantasy.premierleague.com/gcs/plfpl-production-adobe-approved/plfpl-production/74999/4e432aa1-c603-4dd5-bd42-eeca38d536e7.png",
        "entry": 74999,
        "entry_name": "Monkchester United",
        "event_total": 61,
        "has_played": true,
        "id": 487562,
        "last_rank": 28906,
        "player_name": "Josh Monk",
        "rank": 25514,
        "rank_sort": 25525,
        "total": 2373
      },
      {
        "club_badge_src": null,
        "entry": 75851,
        "entry_name": "\u00d8oyour\u2019ard",
        "event_total": 63,
        "has_played": true,
        "id": 493143,
        "last_rank": 30957,
        "player_name": "Joe Murphy",
        "rank": 25514,
        "rank_sort": 25526,
        "total": 2373
      },
      {
        "club_badge_src": null,
        "entry": 89489,
        "entry_name": "JK Tallinna Velo",
        "event_total": 65,
        "has_played": true,
        "id": 584163,
        "last_rank": 33147,
        "player_name": "Henrik Laever",
        "rank": 25514,
        "rank_sort": 25527,
        "total": 2373
      },
      {
        "club_badge_src": "https://fantasy.premierleague.com/gcs/plfpl-production-adobe-approved/plfpl-production/90643/9b454660-c48b-4cfc-af39-9f63636031f0.png",
        "entry": 90643,
        "entry_name": "Akindaddy No.1",
        "event_total": 55,
        "has_played": true,
        "id": 591834,
        "last_rank": 20280,
        "player_name": "Tanapon Inthapong",
        "rank": 25514,
        "rank_sort": 25528,
        "total": 2373
      },
      {
        "club_badge_src": null,
        "entry": 92032,
        "entry_name": "Don Pashew",
        "event_total": 59,
        "has_played": true,
        "id": 601286,
        "last_rank": 27020,
        "player_name": "Jojo Essandoh",
        "rank": 25514,
        "rank_sort": 25529,
        "total": 2373
      },
      {
        "club_badge_src": null,
        "entry": 107662,
        "entry_name": "Tenbefore XI",
        "event_total": 47,
        "has_played": true,
        "id": 701879,
        "last_rank": 17585,
        "player_name": "Tim Hayes",
        "rank": 25514,
        "rank_sort": 25530,
        "total": 2373
      },
      {
        "club_badge_src": "https://fantasy.premierleague.com/gcs/plfpl-production-adobe-approved/plfpl-production/113220/b4be0e02-ddb5-42ba-8a1c-ff28a315d37d.png",
        "entry": 113220,
        "entry_name": "proper flopper",
        "event_total": 67,
        "has_played": true,
        "id": 738421,
        "last_rank": 35424,
        "player_name": "Vaughn Fox-Roberts",
        "rank": 25514,
        "rank_sort": 25531,
        "total": 2373
      },
      {
        "club_badge_src": null,
        "entry": 115073,
        "entry_name": "Dave's Faves",
        "event_total": 59,
        "has_played": true,
        "id": 750859,
        "last_rank": 23341,
        "player_name": "David O'Keeffe",
        "rank": 25514,
        "rank_sort": 25532,
        "total": 2373
      },
      {
        "club_badge_src": null,
        "entry": 140878,
        "entry_name": "Spursgghappy",
        "event_total": 45,
        "has_played": true,
        "id": 920160,
        "last_rank": 16320,
        "player_name": "Hyzon Lam",
        "rank": 25514,
        "rank_sort": 25533,
        "total": 2373
      },
      {
        "club_badge_src": null,
        "entry": 162209,
        "entry_name": "Broderick",
        "event_total": 73,
        "has_played": true,
        "id": 1069127,
        "last_rank": 42648,
        "player_name": "Broderick Tan",
        "rank": 25514,
        "rank_sort": 25534,
        "total": 2373
      },
      {
        "club_badge_src": null,
        "entry": 166718,
        "entry_name": "ForBeto or ForWirtz",
        "event_total": 65,
        "has_played": true,
        "id": 1101631,
        "last_rank": 32879,
        "player_name": "Muhammad Mussa",
        "rank": 25514,
        "rank_sort": 25535,
        "total": 2373
      },
      {
        "club_badge_src": null,
        "entry": 201652,
        "entry_name": "Sakr",
        "event_total": 78,
        "has_played": true,
        "id": 1338978,
        "last_rank": 49691,
        "player_name": "Mohamed Sakr",
        "rank": 25514,
        "rank_sort": 25536,
        "total": 2373
      },
      {
        "club_badge_src": "https://fantasy.premierleague.com/gcs/plfpl-production-adobe-approved/plfpl-production/214782/726ab4d1-eb24-47e3-b6f3-ed0ebd386dd2.png",
        "entry": 214782,
        "entry_name": "Blackstick FC",
        "event_total": 59,
        "has_played": true,
        "id": 1428694,
        "last_rank": 26827,
        "player_name": "Gopal Bhagtani",
        "rank": 25514,
        "rank_sort": 25537,
        "total": 2373
      },
      {
        "club_badge_src": "https://fantasy.premierleague.com/gcs/plfpl-production-adobe-approved/plfpl-production/227621/429a89bc-b8fa-42bc-bb7e-01f5598c3ba2.png",
        "entry": 227621,
        "entry_name": "ShaperFC",
        "event_total": 41,
        "has_played": true,
        "id": 1514100,
        "last_rank": 11699,
        "player_name": "Ryan Talbot",
        "rank": 25514,
        "rank_sort": 25538,
        "total": 2373
      },
      {
        "club_badge_src": "https://fantasy.premierleague.com/gcs/plfpl-production-adobe-approved/plfpl-production/239616/8a3db06a-d9af-4668-ab46-eae38827b31a.png",
        "entry": 239616,
        "entry_name": "HateUsCuzTheyAinaUs",
        "event_total": 57,
        "has_played": true,
        "id": 1594572,
        "last_rank": 21775,
        "player_name": "Goran R",
        "rank": 25514,
        "rank_sort": 25539,
        "total": 2373
      },
      {
        "club_badge_src": "https://fantasy.premierleague.com/gcs/plfpl-production-adobe-approved/plfpl-production/301702/62ec3965-005b-414e-b288-1c3d9d957605.png",
        "entry": 301702,
        "entry_name": "New Forest Ponies",
        "event_total": 48,
        "has_played": true,
        "id": 2018671,
        "last_rank": 18113,
        "player_name": "James Smith",
        "rank": 25514,
        "rank_sort": 25540,
        "total": 2373
      },
      {
        "club_badge_src": null,
        "entry": 370212,
        "entry_name": "FC Slotball",
        "event_total": 69,
        "has_played": true,
        "id": 2477296,
        "last_rank": 37822,
        "player_name": "Martijn van Campen",
        "rank": 25514,
        "rank_sort": 25541,
        "total": 2373
      },
      {
        "club_badge_src": "https://fantasy.premierleague.com/gcs/plfpl-production-adobe-approved/plfpl-production/398474/49238b66-6d94-497b-990b-ed796886fb5e.png",
        "entry": 398474,
        "entry_name": "Kings of Folk",
        "event_total": 62,
        "has_played": true,
        "id": 2672170,
        "last_rank": 29688,
        "player_name": "Sherwyn D'souza",
        "rank": 25514,
        "rank_sort": 25542,
        "total": 2373
      },
      {
        "club_badge_src": null,
        "entry": 410876,
        "entry_name": "Finding Neco",
        "event_total": 52,
        "has_played": true,
        "id": 2754911,
        "last_rank": 21159,
        "player_name": "Callum Finn",
        "rank": 25514,
        "rank_sort": 25543,
        "total": 2373
      },
      {
        "club_badge_src": null,
        "entry": 427252,
        "entry_name": "Trinity S&L FC",
        "event_total": 57,
        "has_played": true,
        "id": 2865166,
        "last_rank": 25172,
        "player_name": "Eoin Finnerty",
        "rank": 25514,
        "rank_sort": 25544,
        "total": 2373
      },
      {
        "club_badge_src": null,
        "entry": 429435,
        "entry_name": "Los Porro Hermanos",
        "event_total": 64,
        "has_played": true,
        "id": 2880248,
        "last_rank": 27644,
        "player_name": "Jose Manuel Blanco Ramos",
        "rank": 25514,
        "rank_sort": 25545,
        "total": 2373
      },
      {
        "club_badge_src": null,
        "entry": 445801,
        "entry_name": "Forza Ferrari",
        "event_total": 70,
        "has_played": true,
        "id": 2989930,
        "last_rank": 34051,
        "player_name": "Hadi Parsi",
        "rank": 25514,
        "rank_sort": 25546,
        "total": 2373
      },
      {
        "club_badge_src": "https://fantasy.premierleague.com/gcs/plfpl-production-adobe-approved/plfpl-production/458141/cd810135-615f-4577-a186-ac8368b834ca.png",
        "entry": 458141,
        "entry_name": "Hotspur",
        "event_total": 52,
        "has_played": true,
        "id": 3073484,
        "last_rank": 21159,
        "player_name": "Piotr P\u0119dzik",
        "rank": 25514,
        "rank_sort": 25547,
        "total": 2373
      },
      {
        "club_badge_src": "https://fantasy.premierleague.com/gcs/plfpl-production-adobe-approved/plfpl-production/466647/8cfbb06b-22c3-49a6-9064-b10be9179f5c.png",
        "entry": 466647,
        "entry_name": "Salahlujah",
        "event_total": 49,
        "has_played": true,
        "id": 3131023,
        "last_rank": 16062,
        "player_name": "Lewis Howarth",
        "rank": 25514,
        "rank_sort": 25548,
        "total": 2373
      },
      {
        "club_badge_src": "https://fantasy.premierleague.com/gcs/plfpl-production-adobe-approved/plfpl-production/529860/f549a49f-6405-4692-ba30-3b3ecbad0cda.png",
        "entry": 529860,
        "entry_name": "Grumbly Rovers",
        "event_total": 63,
        "has_played": true,
        "id": 3563164,
        "last_rank": 30957,
        "player_name": "Graham Ashman",
        "rank": 25514,
        "rank_sort": 25549,
        "total": 2373
      },
      {
        "club_badge_src": null,
        "entry": 530822,
        "entry_name": "ComeonLadz",
        "event_total": 49,
        "has_played": true,
        "id": 3569962,
        "last_rank": 18985,
        "player_name": "Mathias Myrland Syversen",
        "rank": 25514,
        "rank_sort": 25550,
        "total": 2373
      }
    ]
  }
}