{
  "last_updated_data": "2026-05-24T23:28:17Z",
  "league": {
    "admin_entry": null,
    "closed": false,
    "code_privacy": "p",
    "created": "2025-07-20T23:14:33.933835Z",
    "cup_league": 2815434,
    "has_cup": true,
    "id": 314,
    "league_type": "s",
    "max_entries": null,
    "name": "Overall",
    "rank": null,
    "scoring": "c",
    "start_event": 1
  },
  "new_entries": {
    "has_next": false,
    "page": 1,
    "results": []
  },
  "standings": {
    "has_next": true,
    "page": 358,
    "results": [
      {
        "club_badge_src": null,
        "entry": 3937374,
        "entry_name": "The Mattsterplan",
        "event_total": 62,
        "has_played": true,
        "id": 29617469,
        "last_rank": 20983,
        "player_name": "Matthew McHale",
        "rank": 17756,
        "rank_sort": 17851,
        "total": 2383
      },
      {
        "club_badge_src": "https://fantasy.premierleague.com/gcs/plfpl-production-adobe-approved/plfpl-production/4041474/e1b20e0e-3260-40d9-864d-6d06b5c3e3a4.png",
        "entry": 4041474,
        "entry_name": "Tosa_Toffee_Blue",
        "event_total": 62,
        "has_played": true,
        "id": 30478986,
        "last_rank": 20983,
        "player_name": "Adam Fritsch",
        "rank": 17756,
        "rank_sort": 17852,
        "total": 2383
      },
      {
        "club_badge_src": null,
        "entry": 4227055,
        "entry_name": "Fc Wildcard GW2",
        "event_total": 52,
        "has_played": true,
        "id": 32025264,
        "last_rank": 14292,
        "player_name": "Erdem Yagicibulut",
        "rank": 17756,
        "rank_sort": 17853,
        "total": 2383
      },
      {
        "club_badge_src": null,
        "entry": 4384413,
        "entry_name": "Outre Manche",
        "event_total": 45,
        "has_played": true,
        "id": 33325256,
        "last_rank": 10805,
        "player_name": "Benjamin Slade",
        "rank": 17756,
        "rank_sort": 17854,
        "total": 2383
      },
      {
        "club_badge_src": null,
        "entry": 4557573,
        "entry_name": "Hon",
        "event_total": 64,
        "has_played": true,
        "id": 34776581,
        "last_rank": 22685,
        "player_name": "Mohamed Hany",
        "rank": 17756,
        "rank_sort": 17855,
        "total": 2383
      },
      {
        "club_badge_src": null,
        "entry": 4560154,
        "entry_name": "Left 4 Djed",
        "event_total": 49,
        "has_played": true,
        "id": 34796969,
        "last_rank": 12645,
        "player_name": "Rafael Gomez",
        "rank": 17756,
        "rank_sort": 17856,
        "total": 2383
      },
      {
        "club_badge_src": null,
        "entry": 4624562,
        "entry_name": "The Gardens",
        "event_total": 62,
        "has_played": true,
        "id": 35354784,
        "last_rank": 20983,
        "player_name": "Cooper Tubiana",
        "rank": 17756,
        "rank_sort": 17857,
        "total": 2383
      },
      {
        "club_badge_src": "https://fantasy.premierleague.com/gcs/plfpl-production-adobe-approved/plfpl-production/4637777/9b54b1e4-e76b-4415-84bf-6868972a703c.png",
        "entry": 4637777,
        "entry_name": "Lindgroins",
        "event_total": 82,
        "has_played": true,
        "id": 35467510,
        "last_rank": 41617,
        "player_name": "Emil Lindgren",
        "rank": 17756,
        "rank_sort": 17858,
        "total": 2383
      },
      {
        "club_badge_src": null,
        "entry": 4675317,
        "entry_name": "Change Name",
        "event_total": 59,
        "has_played": true,
        "id": 35815596,
        "last_rank": 18790,
        "player_name": "Jake Dower",
        "rank": 17756,
        "rank_sort": 17859,
        "total": 2383
      },
      {
        "club_badge_src": null,
        "entry": 4902793,
        "entry_name": "Trash Team",
        "event_total": 42,
        "has_played": true,
        "id": 37807013,
        "last_rank": 9536,
        "player_name": "Jason Fong",
        "rank": 17756,
        "rank_sort": 17860,
        "total": 2383
      },
      {
        "club_badge_src": null,
        "entry": 4943484,
        "entry_name": "Team WX",
        "event_total": 60,
        "has_played": true,
        "id": 38143121,
        "last_rank": 19392,
        "player_name": "Fernando Wx",
        "rank": 17756,
        "rank_sort": 17861,
        "total": 2383
      },
      {
        "club_badge_src": null,
        "entry": 5138706,
        "entry_name": "Newton Heath",
        "event_total": 63,
        "has_played": true,
        "id": 39748753,
        "last_rank": 21775,
        "player_name": "Chris Boardman",
        "rank": 17756,
        "rank_sort": 17862,
        "total": 2383
      },
      {
        "club_badge_src": null,
        "entry": 5191170,
        "entry_name": "Jak on to zrobi\u0142",
        "event_total": 58,
        "has_played": true,
        "id": 40189549,
        "last_rank": 18113,
        "player_name": "Mate \u0141usz",
        "rank": 17756,
        "rank_sort": 17863,
        "total": 2383
      },
      {
        "club_badge_src": null,
        "entry": 5212866,
        "entry_name": "Wojtek Szponar",
        "event_total": 80,
        "has_played": true,
        "id": 40379058,
        "last_rank": 38571,
        "player_name": "Wojtek Szponar",
        "rank": 17756,
        "rank_sort": 17864,
        "total": 2383
      },
      {
        "club_badge_src": null,
        "entry": 5464649,
        "entry_name": "The Champion Seth",
        "event_total": 50,
        "has_played": true,
        "id": 42529727,
        "last_rank": 13257,
        "player_name": "Junaid Seth",
        "rank": 17756,
        "rank_sort": 17865,
        "total": 2383
      },
      {
        "club_badge_src": "https://fantasy.premierleague.com/gcs/plfpl-production-adobe-approved/plfpl-production/5541136/55da12a2-30d7-435d-99fd-f7e9e7d3e6ed.png",
        "entry": 5541136,
        "entry_name": "GOATMilkCappucino",
        "event_total": 59,
        "has_played": true,
        "id": 43237351,
        "last_rank": 18790,
        "player_name": "S Byrne",
        "rank": 17756,
        "rank_sort": 17866,
        "total": 2383
      },
      {
        "club_badge_src": null,
        "entry": 5736718,
        "entry_name": "Final Boss XI",
        "event_total": 55,
        "has_played": true,
        "id": 44946258,
        "last_rank": 16163,
        "player_name": "William De Cani",
        "rank": 17756,
        "rank_sort": 17867,
        "total": 2383
      },
      {
        "club_badge_src": null,
        "entry": 5802945,
        "entry_name": "Major League Saka",
        "event_total": 65,
        "has_played": true,
        "id": 45525242,
        "last_rank": 23341,
        "player_name": "Paolo Alquiza",
        "rank": 17756,
        "rank_sort": 17868,
        "total": 2383
      },
      {
        "club_badge_src": null,
        "entry": 5847608,
        "entry_name": "Bet your Hatton it",
        "event_total": 63,
        "has_played": true,
        "id": 45907821,
        "last_rank": 21775,
        "player_name": "Mitch Hatton",
        "rank": 17756,
        "rank_sort": 17869,
        "total": 2383
      },
      {
        "club_badge_src": null,
        "entry": 5852983,
        "entry_name": "Armstrong\u2019s Army",
        "event_total": 63,
        "has_played": true,
        "id": 45953434,
        "last_rank": 21677,
        "player_name": "Jamie Armstrong",
        "rank": 17756,
        "rank_sort": 17870,
        "total": 2383
      },
      {
        "club_badge_src": null,
        "entry": 5985300,
        "entry_name": "100 Men vs 1 Ginola",
        "event_total": 61,
        "has_played": true,
        "id": 47140624,
        "last_rank": 20179,
        "player_name": "Gav Larkin",
        "rank": 17756,
        "rank_sort": 17871,
        "total": 2383
      },
      {
        "club_badge_src": null,
        "entry": 5988776,
        "entry_name": "Not Partey time",
        "event_total": 47,
        "has_played": true,
        "id": 47182713,
        "last_rank": 11821,
        "player_name": "Saul Rudolph",
        "rank": 17756,
        "rank_sort": 17872,
        "total": 2383
      },
      {
        "club_badge_src": null,
        "entry": 6162097,
        "entry_name": "Foregone Conclusion",
        "event_total": 62,
        "has_played": true,
        "id": 48717098,
        "last_rank": 20853,
        "player_name": "john o sullivan",
        "rank": 17756,
        "rank_sort": 17873,
        "total": 2383
      },
      {
        "club_badge_src": null,
        "entry": 6183510,
        "entry_name": "NYC Terriers",
        "event_total": 50,
        "has_played": true,
        "id": 48902587,
        "last_rank": 13184,
        "player_name": "Jason Blackwell",
        "rank": 17756,
        "rank_sort": 17874,
        "total": 2383
      },
      {
        "club_badge_src": "https://fantasy.premierleague.com/gcs/plfpl-production-adobe-approved/plfpl-production/6196698/7b12760b-31c9-4916-80d6-5a79ddd8160c.png",
        "entry": 6196698,
        "entry_name": "baldski",
        "event_total": 68,
        "has_played": true,
        "id": 49016802,
        "last_rank": 25902,
        "player_name": "Tom Byrne",
        "rank": 17756,
        "rank_sort": 17875,
        "total": 2383
      },
      {
        "club_badge_src": null,
        "entry": 6506906,
        "entry_name": "Fenerbackache",
        "event_total": 60,
        "has_played": true,
        "id": 51883263,
        "last_rank": 19721,
        "player_name": "David Horne",
        "rank": 17756,
        "rank_sort": 17876,
        "total": 2383
      },
      {
        "club_badge_src": null,
        "entry": 6622870,
        "entry_name": "Renata Tebaldi",
        "event_total": 58,
        "has_played": true,
        "id": 52925022,
        "last_rank": 17989,
        "player_name": "Nicholas Vu",
        "rank": 17756,
        "rank_sort": 17877,
        "total": 2383
      },
      {
        "club_badge_src": null,
        "entry": 7261261,
        "entry_name": "lochos leg ends",
        "event_total": 55,
        "has_played": true,
        "id": 58711526,
        "last_rank": 16163,
        "player_name": "Andrew Loughlin",
        "rank": 17756,
        "rank_sort": 17878,
        "total": 2383
      },
      {
        "club_badge_src": null,
        "entry": 7483066,
        "entry_name": "Lady Dior FC",
        "event_total": 65,
        "has_played": true,
        "id": 61062690,
        "last_rank": 23230,
        "player_name": "Helen Myhrvold",
        "rank": 17756,
        "rank_sort": 17879,
        "total": 2383
      },
      {
        "club_badge_src": null,
        "entry": 7608916,
        "entry_name": "Paul's Hopeless XI",
        "event_total": 42,
        "has_played": true,
        "id": 62344765,
        "last_rank": 9536,
        "player_name": "Paul Riddell",
        "rank": 17756,
        "rank_sort": 17880,
        "total": 2383
      },
      {
        "club_badge_src": "https://fantasy.premierleague.com/gcs/plfpl-production-adobe-approved/plfpl-production/7852369/6e6a45ed-1676-4a62-b45a-ae1fbbc37583.png",
        "entry": 7852369,
        "entry_name": "Ima Baleba",
        "event_total": 57,
        "has_played": true,
        "id": 64553663,
        "last_rank": 17437,
        "player_name": "Callam Dent",
        "rank": 17756,
        "rank_sort": 17881,
        "total": 2383
      },
      {
        "club_badge_src": null,
        "entry": 7989862,
        "entry_name": "Whats Rob Holding",
        "event_total": 71,
        "has_played": true,
        "id": 65793420,
        "last_rank": 28546,
        "player_name": "Ollie Johnson",
        "rank": 17756,
        "rank_sort": 17882,
        "total": 2383
      },
      {
        "club_badge_src": null,
        "entry": 8177553,
        "entry_name": "TIMUNIJAMU",
        "event_total": 58,
        "has_played": true,
        "id": 67528249,
        "last_rank": 18113,
        "player_name": "George Otieno",
        "rank": 17756,
        "rank_sort": 17883,
        "total": 2383
      },
      {
        "club_badge_src": null,
        "entry": 8504927,
        "entry_name": "Change Name",
        "event_total": 69,
        "has_played": true,
        "id": 70685340,
        "last_rank": 26656,
        "player_name": "Jackson Mcnicol",
        "rank": 17756,
        "rank_sort": 17884,
        "total": 2383
      },
      {
        "club_badge_src": null,
        "entry": 8581142,
        "entry_name": "GodspeedYou! FPLFans",
        "event_total": 50,
        "has_played": true,
        "id": 71416641,
        "last_rank": 13184,
        "player_name": "John Tindale",
        "rank": 17756,
        "rank_sort": 17885,
        "total": 2383
      },
      {
        "club_badge_src": "https://fantasy.premierleague.com/gcs/plfpl-production-adobe-approved/plfpl-production/8664229/d5e40e25-5603-4aeb-9fc8-5eb0efb86638.png",
        "entry": 8664229,
        "entry_name": "Golden nuggets",
        "event_total": 55,
        "has_played": true,
        "id": 72230929,
        "last_rank": 16163,
        "player_name": "stephen nugent",
        "rank": 17756,
        "rank_sort": 17886,
        "total": 2383
      },
      {
        "club_badge_src": "https://fantasy.premierleague.com/gcs/plfpl-production-adobe-approved/plfpl-production/8779707/518d90c7-d141-4ac2-9ae6-f2c1a5af74a9.png",
        "entry": 8779707,
        "entry_name": "AFC Poormond",
        "event_total": 68,
        "has_played": true,
        "id": 73348902,
        "last_rank": 25902,
        "player_name": "Theodore Brown",
        "rank": 17756,
        "rank_sort": 17887,
        "total": 2383
      },
      {
        "club_badge_src": null,
        "entry": 9041699,
        "entry_name": "Sporting 2 Suffering",
        "event_total": 46,
        "has_played": true,
        "id": 75884122,
        "last_rank": 11237,
        "player_name": "Jia Ye",
        "rank": 17756,
        "rank_sort": 17888,
        "total": 2383
      },
      {
        "club_badge_src": null,
        "entry": 9168154,
        "entry_name": "Ahmed Abbas",
        "event_total": 66,
        "has_played": true,
        "id": 77119081,
        "last_rank": 24039,
        "player_name": "Ahmed Abbas",
        "rank": 17756,
        "rank_sort": 17889,
        "total": 2383
      },
      {
        "club_badge_src": null,
        "entry": 914,
        "entry_name": "frankasy football",
        "event_total": 66,
        "has_played": true,
        "id": 5065,
        "last_rank": 20888,
        "player_name": "Cass cade",
        "rank": 17890,
        "rank_sort": 17890,
        "total": 2383
      },
      {
        "club_badge_src": null,
        "entry": 1155,
        "entry_name": "VCity FC",
        "event_total": 66,
        "has_played": true,
        "id": 6418,
        "last_rank": 24330,
        "player_name": "Adam Newbould",
        "rank": 17890,
        "rank_sort": 17891,
        "total": 2383
      },
      {
        "club_badge_src": null,
        "entry": 3375,
        "entry_name": "Quansahquences",
        "event_total": 54,
        "has_played": true,
        "id": 19111,
        "last_rank": 13257,
        "player_name": "Matt S",
        "rank": 17890,
        "rank_sort": 17892,
        "total": 2383
      },
      {
        "club_badge_src": "https://fantasy.premierleague.com/gcs/plfpl-production-adobe-approved/plfpl-production/5774/da365ec8-3658-477b-8f17-4c5125b6e697.png",
        "entry": 5774,
        "entry_name": "Fjerdelaget",
        "event_total": 69,
        "has_played": true,
        "id": 32986,
        "last_rank": 27020,
        "player_name": "Fredrik S\u00f8rli",
        "rank": 17890,
        "rank_sort": 17893,
        "total": 2383
      },
      {
        "club_badge_src": null,
        "entry": 5941,
        "entry_name": "Rutter Woke Nonsense",
        "event_total": 62,
        "has_played": true,
        "id": 33984,
        "last_rank": 21159,
        "player_name": "Lewis Owusu-Afriyie",
        "rank": 17890,
        "rank_sort": 17894,
        "total": 2383
      },
      {
        "club_badge_src": "https://fantasy.premierleague.com/gcs/plfpl-production-adobe-approved/plfpl-production/8194/cb4c5225-485f-4928-be4f-b1b69e3903a1.png",
        "entry": 8194,
        "entry_name": "Stop! Hamer Time",
        "event_total": 68,
        "has_played": true,
        "id": 47490,
        "last_rank": 22534,
        "player_name": "Jake Leonard",
        "rank": 17890,
        "rank_sort": 17895,
        "total": 2383
      },
      {
        "club_badge_src": null,
        "entry": 13921,
        "entry_name": "HowIMetYourMata",
        "event_total": 65,
        "has_played": true,
        "id": 84309,
        "last_rank": 20280,
        "player_name": "Mads Hansen",
        "rank": 17890,
        "rank_sort": 17896,
        "total": 2383
      },
      {
        "club_badge_src": null,
        "entry": 14427,
        "entry_name": "Bruno18",
        "event_total": 67,
        "has_played": true,
        "id": 87610,
        "last_rank": 21677,
        "player_name": "Filip Krakowczyk",
        "rank": 17890,
        "rank_sort": 17897,
        "total": 2383
      },
      {
        "club_badge_src": null,
        "entry": 14432,
        "entry_name": "LuiLui",
        "event_total": 61,
        "has_played": true,
        "id": 87644,
        "last_rank": 20416,
        "player_name": "\u0e27\u0e23\u0e1e\u0e31\u0e0a\u0e0a\u0e32 \u0e1a\u0e38\u0e0d\u0e21\u0e35",
        "rank": 17890,
        "rank_sort": 17898,
        "total": 2383
      },
      {
        "club_badge_src": "https://fantasy.premierleague.com/gcs/plfpl-production-adobe-approved/plfpl-production/24595/4449452b-1be2-40a9-9230-3c0b271b4265.png",
        "entry": 24595,
        "entry_name": "Your Wirtz Nightmare",
        "event_total": 61,
        "has_played": true,
        "id": 155274,
        "last_rank": 20416,
        "player_name": "James Pitt",
        "rank": 17890,
        "rank_sort": 17899,
        "total": 2383
      },
      {
        "club_badge_src": null,
        "entry": 25806,
        "entry_name": "Two Left Feet",
        "event_total": 60,
        "has_played": true,
        "id": 163222,
        "last_rank": 16807,
        "player_name": "Rowan Lowe",
        "rank": 17890,
        "rank_sort": 17900,
        "total": 2383
      }
    ]
  }
}