{
  "last_updated_data": "2026-05-24T23:28:17Z",
  "league": {
    "admin_entry": null,
    "closed": false,
    "code_privacy": "p",
    "created": "2025-07-20T23:14:33.933835Z",
    "cup_league": 2815434,
    "has_cup": true,
    "id": 314,
    "league_type": "s",
    "max_entries": null,
    "name": "Overall",
    "rank": null,
    "scoring": "c",
    "start_event": 1
  },
  "new_entries": {
    "has_next": false,
    "page": 1,
    "results": []
  },
  "standings": {
    "has_next": true,
    "page": 475,
    "results": [
      {
        "club_badge_src": null,
        "entry": 599442,
        "entry_name": "Shkodran Mustafi",
        "event_total": 73,
        "has_played": true,
        "id": 4043532,
        "last_rank": 39816,
        "player_name": "Jacob Walker",
        "rank": 23655,
        "rank_sort": 23701,
        "total": 2375
      },
      {
        "club_badge_src": null,
        "entry": 602630,
        "entry_name": "Marescalation",
        "event_total": 59,
        "has_played": true,
        "id": 4067038,
        "last_rank": 24897,
        "player_name": "Rory Cooke",
        "rank": 23655,
        "rank_sort": 23702,
        "total": 2375
      },
      {
        "club_badge_src": null,
        "entry": 639232,
        "entry_name": "Giggy in the middle",
        "event_total": 67,
        "has_played": true,
        "id": 4320140,
        "last_rank": 32879,
        "player_name": "Mike Scallon",
        "rank": 23655,
        "rank_sort": 23703,
        "total": 2375
      },
      {
        "club_badge_src": null,
        "entry": 681395,
        "entry_name": "LMU-NY  3-peat",
        "event_total": 62,
        "has_played": true,
        "id": 4611310,
        "last_rank": 27585,
        "player_name": "Dennis Hou",
        "rank": 23655,
        "rank_sort": 23704,
        "total": 2375
      },
      {
        "club_badge_src": null,
        "entry": 710456,
        "entry_name": "Haven't got a Kalou",
        "event_total": 67,
        "has_played": true,
        "id": 4818062,
        "last_rank": 32879,
        "player_name": "jamie shears",
        "rank": 23655,
        "rank_sort": 23705,
        "total": 2375
      },
      {
        "club_badge_src": null,
        "entry": 711086,
        "entry_name": "Sobh United",
        "event_total": 65,
        "has_played": true,
        "id": 4822863,
        "last_rank": 30536,
        "player_name": "Hussein Sobh",
        "rank": 23655,
        "rank_sort": 23706,
        "total": 2375
      },
      {
        "club_badge_src": null,
        "entry": 747876,
        "entry_name": "Eze Peasey",
        "event_total": 37,
        "has_played": true,
        "id": 5088043,
        "last_rank": 10920,
        "player_name": "shanel paine",
        "rank": 23655,
        "rank_sort": 23707,
        "total": 2375
      },
      {
        "club_badge_src": null,
        "entry": 785855,
        "entry_name": "boo FC",
        "event_total": 64,
        "has_played": true,
        "id": 5370421,
        "last_rank": 29688,
        "player_name": "Chris Boocock",
        "rank": 23655,
        "rank_sort": 23708,
        "total": 2375
      },
      {
        "club_badge_src": null,
        "entry": 796723,
        "entry_name": "We've won it all....",
        "event_total": 64,
        "has_played": true,
        "id": 5452852,
        "last_rank": 29578,
        "player_name": "Dan Martin",
        "rank": 23655,
        "rank_sort": 23709,
        "total": 2375
      },
      {
        "club_badge_src": null,
        "entry": 809539,
        "entry_name": "Bouncebackability",
        "event_total": 36,
        "has_played": true,
        "id": 5542539,
        "last_rank": 10346,
        "player_name": "Gary Hennigan",
        "rank": 23655,
        "rank_sort": 23710,
        "total": 2375
      },
      {
        "club_badge_src": "https://fantasy.premierleague.com/gcs/plfpl-production-adobe-approved/plfpl-production/910332/f77124a5-42f8-43df-8fd7-48a158e93f36.png",
        "entry": 910332,
        "entry_name": "Better Captain me",
        "event_total": 56,
        "has_played": true,
        "id": 6259178,
        "last_rank": 22534,
        "player_name": "Mohamad Hamandoush",
        "rank": 23655,
        "rank_sort": 23711,
        "total": 2375
      },
      {
        "club_badge_src": null,
        "entry": 955676,
        "entry_name": "Boleyn Boys",
        "event_total": 56,
        "has_played": true,
        "id": 6584730,
        "last_rank": 22426,
        "player_name": "Joel Jalkling",
        "rank": 23655,
        "rank_sort": 23712,
        "total": 2375
      },
      {
        "club_badge_src": null,
        "entry": 963241,
        "entry_name": "Baines On Toast",
        "event_total": 69,
        "has_played": true,
        "id": 6638131,
        "last_rank": 34969,
        "player_name": "Ryan Baines",
        "rank": 23655,
        "rank_sort": 23713,
        "total": 2375
      },
      {
        "club_badge_src": "https://fantasy.premierleague.com/gcs/plfpl-production-adobe-approved/plfpl-production/967808/6df8d354-aa6d-4518-8e56-2a5116272855.png",
        "entry": 967808,
        "entry_name": "Amadness",
        "event_total": 73,
        "has_played": true,
        "id": 6670395,
        "last_rank": 40036,
        "player_name": "Tobias Apelgren",
        "rank": 23655,
        "rank_sort": 23714,
        "total": 2375
      },
      {
        "club_badge_src": null,
        "entry": 1004078,
        "entry_name": "Ruz",
        "event_total": 72,
        "has_played": true,
        "id": 6940874,
        "last_rank": 38644,
        "player_name": "Ruzbe Asadullayev",
        "rank": 23655,
        "rank_sort": 23715,
        "total": 2375
      },
      {
        "club_badge_src": null,
        "entry": 1016797,
        "entry_name": "Reece's XI",
        "event_total": 67,
        "has_played": true,
        "id": 7034306,
        "last_rank": 32751,
        "player_name": "Reece Littlefair",
        "rank": 23655,
        "rank_sort": 23716,
        "total": 2375
      },
      {
        "club_badge_src": null,
        "entry": 1026628,
        "entry_name": "Snerf City",
        "event_total": 69,
        "has_played": true,
        "id": 7102864,
        "last_rank": 35166,
        "player_name": "Evan Brown",
        "rank": 23655,
        "rank_sort": 23717,
        "total": 2375
      },
      {
        "club_badge_src": null,
        "entry": 1053654,
        "entry_name": "Milla FC Reloaded",
        "event_total": 60,
        "has_played": true,
        "id": 7291985,
        "last_rank": 25902,
        "player_name": "Camilo Escobar",
        "rank": 23655,
        "rank_sort": 23718,
        "total": 2375
      },
      {
        "club_badge_src": null,
        "entry": 1105310,
        "entry_name": "ForbesList",
        "event_total": 68,
        "has_played": true,
        "id": 7656097,
        "last_rank": 33936,
        "player_name": "Darius Forbes",
        "rank": 23655,
        "rank_sort": 23719,
        "total": 2375
      },
      {
        "club_badge_src": null,
        "entry": 1107780,
        "entry_name": "Goats_Dont_Shave",
        "event_total": 84,
        "has_played": true,
        "id": 7673178,
        "last_rank": 56180,
        "player_name": "Simon Barlow",
        "rank": 23655,
        "rank_sort": 23720,
        "total": 2375
      },
      {
        "club_badge_src": null,
        "entry": 1120436,
        "entry_name": "soccer",
        "event_total": 56,
        "has_played": true,
        "id": 7762330,
        "last_rank": 22426,
        "player_name": "Damian Slevin",
        "rank": 23655,
        "rank_sort": 23721,
        "total": 2375
      },
      {
        "club_badge_src": null,
        "entry": 1140070,
        "entry_name": "Fee Fi Foden",
        "event_total": 62,
        "has_played": true,
        "id": 7902788,
        "last_rank": 27770,
        "player_name": "Wuntizora Iddrisu",
        "rank": 23655,
        "rank_sort": 23722,
        "total": 2375
      },
      {
        "club_badge_src": null,
        "entry": 1177345,
        "entry_name": "Smush!",
        "event_total": 65,
        "has_played": true,
        "id": 8169012,
        "last_rank": 26710,
        "player_name": "Dalton Harrison",
        "rank": 23655,
        "rank_sort": 23723,
        "total": 2375
      },
      {
        "club_badge_src": null,
        "entry": 1256609,
        "entry_name": "Borussia Teeth",
        "event_total": 56,
        "has_played": true,
        "id": 8728802,
        "last_rank": 22391,
        "player_name": "Carl Gowtage",
        "rank": 23655,
        "rank_sort": 23724,
        "total": 2375
      },
      {
        "club_badge_src": null,
        "entry": 1326009,
        "entry_name": "jurgen flop",
        "event_total": 66,
        "has_played": true,
        "id": 9217109,
        "last_rank": 31747,
        "player_name": "Matthew Lewis",
        "rank": 23655,
        "rank_sort": 23725,
        "total": 2375
      },
      {
        "club_badge_src": "https://fantasy.premierleague.com/gcs/plfpl-production-adobe-approved/plfpl-production/1346823/84fd3d5e-3279-4332-baa4-58869f49a24c.png",
        "entry": 1346823,
        "entry_name": "Porirua SaintGermain",
        "event_total": 59,
        "has_played": true,
        "id": 9363557,
        "last_rank": 24897,
        "player_name": "Jack Wylie",
        "rank": 23655,
        "rank_sort": 23726,
        "total": 2375
      },
      {
        "club_badge_src": null,
        "entry": 1368652,
        "entry_name": "Proud Papa's Picks",
        "event_total": 65,
        "has_played": true,
        "id": 9514069,
        "last_rank": 30536,
        "player_name": "Mathews Kodiatte",
        "rank": 23655,
        "rank_sort": 23727,
        "total": 2375
      },
      {
        "club_badge_src": null,
        "entry": 1428265,
        "entry_name": "Palace in Wonderland",
        "event_total": 47,
        "has_played": true,
        "id": 9951883,
        "last_rank": 16163,
        "player_name": "Michael Smith",
        "rank": 23655,
        "rank_sort": 23728,
        "total": 2375
      },
      {
        "club_badge_src": null,
        "entry": 1453538,
        "entry_name": "pelin",
        "event_total": 60,
        "has_played": true,
        "id": 10128253,
        "last_rank": 25902,
        "player_name": "Filip Veli\u010dkovi\u0107",
        "rank": 23655,
        "rank_sort": 23729,
        "total": 2375
      },
      {
        "club_badge_src": null,
        "entry": 1525452,
        "entry_name": "Feniandinho",
        "event_total": 39,
        "has_played": true,
        "id": 10639610,
        "last_rank": 11699,
        "player_name": "Sam Clark",
        "rank": 23655,
        "rank_sort": 23730,
        "total": 2375
      },
      {
        "club_badge_src": null,
        "entry": 1621345,
        "entry_name": "Jamie Tartt da do do",
        "event_total": 68,
        "has_played": true,
        "id": 11347189,
        "last_rank": 33936,
        "player_name": "Trevor Eide",
        "rank": 23655,
        "rank_sort": 23731,
        "total": 2375
      },
      {
        "club_badge_src": null,
        "entry": 1630571,
        "entry_name": "Palace in Wonderland",
        "event_total": 63,
        "has_played": true,
        "id": 11412906,
        "last_rank": 28609,
        "player_name": "Martin Cooper",
        "rank": 23655,
        "rank_sort": 23732,
        "total": 2375
      },
      {
        "club_badge_src": null,
        "entry": 1837337,
        "entry_name": "FC Poopenhagen",
        "event_total": 56,
        "has_played": true,
        "id": 12925735,
        "last_rank": 22426,
        "player_name": "Drew Powell",
        "rank": 23655,
        "rank_sort": 23733,
        "total": 2375
      },
      {
        "club_badge_src": null,
        "entry": 1911007,
        "entry_name": "Ha Ha Haaland",
        "event_total": 47,
        "has_played": true,
        "id": 13472980,
        "last_rank": 16163,
        "player_name": "Daniel Moore",
        "rank": 23655,
        "rank_sort": 23734,
        "total": 2375
      },
      {
        "club_badge_src": null,
        "entry": 1959693,
        "entry_name": "Mustard FC",
        "event_total": 39,
        "has_played": true,
        "id": 13825860,
        "last_rank": 11821,
        "player_name": "Ifedayo Oyedokun",
        "rank": 23655,
        "rank_sort": 23735,
        "total": 2375
      },
      {
        "club_badge_src": null,
        "entry": 1962483,
        "entry_name": "LangleeT",
        "event_total": 76,
        "has_played": true,
        "id": 13846297,
        "last_rank": 44048,
        "player_name": "William Langlee",
        "rank": 23655,
        "rank_sort": 23736,
        "total": 2375
      },
      {
        "club_badge_src": "https://fantasy.premierleague.com/gcs/plfpl-production-adobe-approved/plfpl-production/2010828/de9e54a0-8564-47d4-8907-4b8028795363.png",
        "entry": 2010828,
        "entry_name": "Sila Neprilika",
        "event_total": 56,
        "has_played": true,
        "id": 14218678,
        "last_rank": 22426,
        "player_name": "Hrvoje Brundic",
        "rank": 23655,
        "rank_sort": 23737,
        "total": 2375
      },
      {
        "club_badge_src": null,
        "entry": 2024423,
        "entry_name": "Change Name",
        "event_total": 49,
        "has_played": true,
        "id": 14327011,
        "last_rank": 17437,
        "player_name": "Adam Crowley",
        "rank": 23655,
        "rank_sort": 23738,
        "total": 2375
      },
      {
        "club_badge_src": null,
        "entry": 2120923,
        "entry_name": "alfahd",
        "event_total": 36,
        "has_played": true,
        "id": 15065830,
        "last_rank": 10346,
        "player_name": "Dheab Alminhali",
        "rank": 23655,
        "rank_sort": 23739,
        "total": 2375
      },
      {
        "club_badge_src": null,
        "entry": 2141304,
        "entry_name": "Oussama Rachid",
        "event_total": 49,
        "has_played": true,
        "id": 15218481,
        "last_rank": 17437,
        "player_name": "oussama rachid",
        "rank": 23655,
        "rank_sort": 23740,
        "total": 2375
      },
      {
        "club_badge_src": "https://fantasy.premierleague.com/gcs/plfpl-production-adobe-approved/plfpl-production/2270497/0dcd52cd-0a3f-4ed1-a106-25bbb882e6ed.png",
        "entry": 2270497,
        "entry_name": "Public FC",
        "event_total": 66,
        "has_played": true,
        "id": 16189671,
        "last_rank": 31620,
        "player_name": "Shafiq Saha",
        "rank": 23655,
        "rank_sort": 23741,
        "total": 2375
      },
      {
        "club_badge_src": null,
        "entry": 2280339,
        "entry_name": "Kasi.Setel",
        "event_total": 62,
        "has_played": true,
        "id": 16261456,
        "last_rank": 27770,
        "player_name": "Shack 37",
        "rank": 23655,
        "rank_sort": 23742,
        "total": 2375
      },
      {
        "club_badge_src": null,
        "entry": 2369391,
        "entry_name": "KA2",
        "event_total": 62,
        "has_played": true,
        "id": 16913562,
        "last_rank": 27976,
        "player_name": "Amin Kammoun",
        "rank": 23655,
        "rank_sort": 23743,
        "total": 2375
      },
      {
        "club_badge_src": null,
        "entry": 2454419,
        "entry_name": "Caldons XI",
        "event_total": 68,
        "has_played": true,
        "id": 17555305,
        "last_rank": 33869,
        "player_name": "Callum Donnelly",
        "rank": 23655,
        "rank_sort": 23744,
        "total": 2375
      },
      {
        "club_badge_src": null,
        "entry": 2650029,
        "entry_name": "Jacksons Five",
        "event_total": 73,
        "has_played": true,
        "id": 19047890,
        "last_rank": 40036,
        "player_name": "Harry Smart",
        "rank": 23655,
        "rank_sort": 23745,
        "total": 2375
      },
      {
        "club_badge_src": null,
        "entry": 2660566,
        "entry_name": "Get Frimpong'd",
        "event_total": 52,
        "has_played": true,
        "id": 19125273,
        "last_rank": 19544,
        "player_name": "Daniel Wright",
        "rank": 23655,
        "rank_sort": 23746,
        "total": 2375
      },
      {
        "club_badge_src": null,
        "entry": 2689206,
        "entry_name": "Samisto05",
        "event_total": 64,
        "has_played": true,
        "id": 19342549,
        "last_rank": 29578,
        "player_name": "sam hintsa",
        "rank": 23655,
        "rank_sort": 23747,
        "total": 2375
      },
      {
        "club_badge_src": null,
        "entry": 2824133,
        "entry_name": "Obi-Wan Iwobi",
        "event_total": 47,
        "has_played": true,
        "id": 20633448,
        "last_rank": 16062,
        "player_name": "Hannes Johansson",
        "rank": 23655,
        "rank_sort": 23748,
        "total": 2375
      },
      {
        "club_badge_src": null,
        "entry": 2838507,
        "entry_name": "Entouraj FC",
        "event_total": 56,
        "has_played": true,
        "id": 20744743,
        "last_rank": 22426,
        "player_name": "Raj Jayasekera",
        "rank": 23655,
        "rank_sort": 23749,
        "total": 2375
      },
      {
        "club_badge_src": null,
        "entry": 2892003,
        "entry_name": "Endo's Elite",
        "event_total": 56,
        "has_played": true,
        "id": 21179111,
        "last_rank": 22685,
        "player_name": "Steve Henley",
        "rank": 23655,
        "rank_sort": 23750,
        "total": 2375
      }
    ]
  }
}