{
  "last_updated_data": "2026-05-24T23:28:17Z",
  "league": {
    "admin_entry": null,
    "closed": false,
    "code_privacy": "p",
    "created": "2025-07-20T23:14:33.933835Z",
    "cup_league": 2815434,
    "has_cup": true,
    "id": 314,
    "league_type": "s",
    "max_entries": null,
    "name": "Overall",
    "rank": null,
    "scoring": "c",
    "start_event": 1
  },
  "new_entries": {
    "has_next": false,
    "page": 1,
    "results": []
  },
  "standings": {
    "has_next": true,
    "page": 879,
    "results": [
      {
        "club_badge_src": null,
        "entry": 4356358,
        "entry_name": "Frank's Fortress",
        "event_total": 66,
        "has_played": true,
        "id": 33084489,
        "last_rank": 57857,
        "player_name": "Samuel Chong",
        "rank": 43702,
        "rank_sort": 43901,
        "total": 2356
      },
      {
        "club_badge_src": "https://fantasy.premierleague.com/gcs/plfpl-production-adobe-approved/plfpl-production/4380901/2979b10c-b813-46d9-b0ff-d99c59a0c784.png",
        "entry": 4380901,
        "entry_name": "AusToon",
        "event_total": 57,
        "has_played": true,
        "id": 33292389,
        "last_rank": 44048,
        "player_name": "Rob Hale",
        "rank": 43702,
        "rank_sort": 43902,
        "total": 2356
      },
      {
        "club_badge_src": null,
        "entry": 4418688,
        "entry_name": "NoKaneNoGain",
        "event_total": 58,
        "has_played": true,
        "id": 33618255,
        "last_rank": 45182,
        "player_name": "Ojas Rane",
        "rank": 43702,
        "rank_sort": 43903,
        "total": 2356
      },
      {
        "club_badge_src": null,
        "entry": 4480104,
        "entry_name": "The Manor Boys",
        "event_total": 72,
        "has_played": true,
        "id": 34144487,
        "last_rank": 68748,
        "player_name": "Con O'Flynn",
        "rank": 43702,
        "rank_sort": 43904,
        "total": 2356
      },
      {
        "club_badge_src": null,
        "entry": 4492974,
        "entry_name": "Jo\u00e3o Hard or Go Home",
        "event_total": 76,
        "has_played": true,
        "id": 34248936,
        "last_rank": 77258,
        "player_name": "George Moore",
        "rank": 43702,
        "rank_sort": 43905,
        "total": 2356
      },
      {
        "club_badge_src": null,
        "entry": 4534812,
        "entry_name": "FC Kun lange bolde",
        "event_total": 66,
        "has_played": true,
        "id": 34593174,
        "last_rank": 57776,
        "player_name": "Lucas Damgaard",
        "rank": 43702,
        "rank_sort": 43906,
        "total": 2356
      },
      {
        "club_badge_src": null,
        "entry": 4538816,
        "entry_name": "Hojniczanka Hojnice",
        "event_total": 83,
        "has_played": true,
        "id": 34626063,
        "last_rank": 83498,
        "player_name": "Marcin Hojnca",
        "rank": 43702,
        "rank_sort": 43907,
        "total": 2356
      },
      {
        "club_badge_src": null,
        "entry": 4542600,
        "entry_name": "AVFC",
        "event_total": 75,
        "has_played": true,
        "id": 34656582,
        "last_rank": 75537,
        "player_name": "Olly Chapman",
        "rank": 43702,
        "rank_sort": 43908,
        "total": 2356
      },
      {
        "club_badge_src": null,
        "entry": 4602549,
        "entry_name": "Mediyokeres",
        "event_total": 57,
        "has_played": true,
        "id": 35160971,
        "last_rank": 43849,
        "player_name": "Sander For\u00f8",
        "rank": 43702,
        "rank_sort": 43909,
        "total": 2356
      },
      {
        "club_badge_src": null,
        "entry": 4647636,
        "entry_name": "I'm the Gaffer",
        "event_total": 44,
        "has_played": true,
        "id": 35554387,
        "last_rank": 28609,
        "player_name": "Jamie Collins",
        "rank": 43702,
        "rank_sort": 43910,
        "total": 2356
      },
      {
        "club_badge_src": "https://fantasy.premierleague.com/gcs/plfpl-production-adobe-approved/plfpl-production/4677805/5fbc5c12-1148-4b9f-88ff-b169a745a148.png",
        "entry": 4677805,
        "entry_name": "The Gunners",
        "event_total": 65,
        "has_played": true,
        "id": 35838390,
        "last_rank": 56369,
        "player_name": "Ken Leeu",
        "rank": 43702,
        "rank_sort": 43911,
        "total": 2356
      },
      {
        "club_badge_src": null,
        "entry": 4692462,
        "entry_name": "Petty 11",
        "event_total": 50,
        "has_played": true,
        "id": 35967683,
        "last_rank": 35166,
        "player_name": "Lewis Petty",
        "rank": 43702,
        "rank_sort": 43912,
        "total": 2356
      },
      {
        "club_badge_src": null,
        "entry": 4715576,
        "entry_name": "Brennan Jerrys",
        "event_total": 61,
        "has_played": true,
        "id": 36203257,
        "last_rank": 49880,
        "player_name": "Oliver Clark",
        "rank": 43702,
        "rank_sort": 43913,
        "total": 2356
      },
      {
        "club_badge_src": null,
        "entry": 4818490,
        "entry_name": "Manchester Qnited",
        "event_total": 68,
        "has_played": true,
        "id": 37104545,
        "last_rank": 61258,
        "player_name": "Q Yasin",
        "rank": 43702,
        "rank_sort": 43914,
        "total": 2356
      },
      {
        "club_badge_src": null,
        "entry": 4957831,
        "entry_name": "Diddly Squat UTD",
        "event_total": 75,
        "has_played": true,
        "id": 38258106,
        "last_rank": 74787,
        "player_name": "Joe Dunning",
        "rank": 43702,
        "rank_sort": 43915,
        "total": 2356
      },
      {
        "club_badge_src": null,
        "entry": 4969550,
        "entry_name": "RamFC",
        "event_total": 52,
        "has_played": true,
        "id": 38352049,
        "last_rank": 37589,
        "player_name": "Mohamed Ramadan",
        "rank": 43702,
        "rank_sort": 43916,
        "total": 2356
      },
      {
        "club_badge_src": null,
        "entry": 5045894,
        "entry_name": "Cherki Dinosaur",
        "event_total": 52,
        "has_played": true,
        "id": 38977713,
        "last_rank": 37589,
        "player_name": "Andrew Rowland",
        "rank": 43702,
        "rank_sort": 43917,
        "total": 2356
      },
      {
        "club_badge_src": null,
        "entry": 5061679,
        "entry_name": "Charly's Angels",
        "event_total": 52,
        "has_played": true,
        "id": 39113312,
        "last_rank": 37589,
        "player_name": "Ollie Copland",
        "rank": 43702,
        "rank_sort": 43918,
        "total": 2356
      },
      {
        "club_badge_src": "https://fantasy.premierleague.com/gcs/plfpl-production-adobe-approved/plfpl-production/5123439/4fe7a89c-0fef-4bd2-b9d0-ccd026fa7845.png",
        "entry": 5123439,
        "entry_name": "Unlit Equines",
        "event_total": 34,
        "has_played": true,
        "id": 39619024,
        "last_rank": 20416,
        "player_name": "Ethan Sillery",
        "rank": 43702,
        "rank_sort": 43919,
        "total": 2356
      },
      {
        "club_badge_src": null,
        "entry": 5124349,
        "entry_name": "Bristol Utd",
        "event_total": 61,
        "has_played": true,
        "id": 39626677,
        "last_rank": 49691,
        "player_name": "Roger Chorley",
        "rank": 43702,
        "rank_sort": 43920,
        "total": 2356
      },
      {
        "club_badge_src": null,
        "entry": 5170634,
        "entry_name": "Dont Stop Saliba'in'",
        "event_total": 62,
        "has_played": true,
        "id": 40018103,
        "last_rank": 51403,
        "player_name": "Joshua Crossley",
        "rank": 43702,
        "rank_sort": 43921,
        "total": 2356
      },
      {
        "club_badge_src": null,
        "entry": 5205044,
        "entry_name": "Gary",
        "event_total": 32,
        "has_played": true,
        "id": 40313114,
        "last_rank": 18985,
        "player_name": "Gary Leung",
        "rank": 43702,
        "rank_sort": 43922,
        "total": 2356
      },
      {
        "club_badge_src": null,
        "entry": 5266454,
        "entry_name": "Galaxy11",
        "event_total": 58,
        "has_played": true,
        "id": 40818346,
        "last_rank": 45416,
        "player_name": "Vikrant Mittal",
        "rank": 43702,
        "rank_sort": 43923,
        "total": 2356
      },
      {
        "club_badge_src": null,
        "entry": 5282997,
        "entry_name": "essasalman_",
        "event_total": 75,
        "has_played": true,
        "id": 40949122,
        "last_rank": 74898,
        "player_name": "Essa Mufc4",
        "rank": 43702,
        "rank_sort": 43924,
        "total": 2356
      },
      {
        "club_badge_src": null,
        "entry": 5305711,
        "entry_name": "Thierry Hungry",
        "event_total": 65,
        "has_played": true,
        "id": 41127773,
        "last_rank": 56369,
        "player_name": "Matt Esler",
        "rank": 43702,
        "rank_sort": 43925,
        "total": 2356
      },
      {
        "club_badge_src": null,
        "entry": 5366119,
        "entry_name": "snicklefritz",
        "event_total": 54,
        "has_played": true,
        "id": 41687216,
        "last_rank": 40036,
        "player_name": "Kenzie Mills",
        "rank": 43702,
        "rank_sort": 43926,
        "total": 2356
      },
      {
        "club_badge_src": null,
        "entry": 5393562,
        "entry_name": "What the van Hecke",
        "event_total": 62,
        "has_played": true,
        "id": 41933158,
        "last_rank": 45252,
        "player_name": "Stuart Gould",
        "rank": 43702,
        "rank_sort": 43927,
        "total": 2356
      },
      {
        "club_badge_src": "https://fantasy.premierleague.com/gcs/plfpl-production-adobe-approved/plfpl-production/5445105/44f43471-08fd-44c6-ad73-08f5481421bd.png",
        "entry": 5445105,
        "entry_name": "InItToWinIt",
        "event_total": 38,
        "has_played": true,
        "id": 42366295,
        "last_rank": 23522,
        "player_name": "Fatima -",
        "rank": 43702,
        "rank_sort": 43928,
        "total": 2356
      },
      {
        "club_badge_src": null,
        "entry": 5455730,
        "entry_name": "Lock\u2019s XI",
        "event_total": 78,
        "has_played": true,
        "id": 42456413,
        "last_rank": 81244,
        "player_name": "Jack Lockett",
        "rank": 43702,
        "rank_sort": 43929,
        "total": 2356
      },
      {
        "club_badge_src": null,
        "entry": 5463619,
        "entry_name": "A Sesay Bowl",
        "event_total": 61,
        "has_played": true,
        "id": 42521393,
        "last_rank": 49691,
        "player_name": "Kyle Andrew",
        "rank": 43702,
        "rank_sort": 43930,
        "total": 2356
      },
      {
        "club_badge_src": null,
        "entry": 5505363,
        "entry_name": "Klejson",
        "event_total": 66,
        "has_played": true,
        "id": 42901394,
        "last_rank": 57857,
        "player_name": "Jesper Klaesson",
        "rank": 43702,
        "rank_sort": 43931,
        "total": 2356
      },
      {
        "club_badge_src": null,
        "entry": 5552236,
        "entry_name": "Tinchy Sneijder",
        "event_total": 73,
        "has_played": true,
        "id": 43335203,
        "last_rank": 70757,
        "player_name": "Sam Gardiner",
        "rank": 43702,
        "rank_sort": 43932,
        "total": 2356
      },
      {
        "club_badge_src": null,
        "entry": 5583372,
        "entry_name": "HOPOS UTD",
        "event_total": 70,
        "has_played": true,
        "id": 43610040,
        "last_rank": 64943,
        "player_name": "Elfar El\u00ed Schweitz Jakobsson",
        "rank": 43702,
        "rank_sort": 43933,
        "total": 2356
      },
      {
        "club_badge_src": null,
        "entry": 5583436,
        "entry_name": "Shpuds or Busht",
        "event_total": 53,
        "has_played": true,
        "id": 43610686,
        "last_rank": 38774,
        "player_name": "Paul Gleeson",
        "rank": 43702,
        "rank_sort": 43934,
        "total": 2356
      },
      {
        "club_badge_src": null,
        "entry": 5661156,
        "entry_name": "FC Nakurwiacze",
        "event_total": 57,
        "has_played": true,
        "id": 44291880,
        "last_rank": 44048,
        "player_name": "Christopher Brzozowski",
        "rank": 43702,
        "rank_sort": 43935,
        "total": 2356
      },
      {
        "club_badge_src": null,
        "entry": 5714807,
        "entry_name": "Pucklepirates",
        "event_total": 56,
        "has_played": true,
        "id": 44756035,
        "last_rank": 42648,
        "player_name": "Paul Willmott",
        "rank": 43702,
        "rank_sort": 43936,
        "total": 2356
      },
      {
        "club_badge_src": null,
        "entry": 5723960,
        "entry_name": "Olova Base\u2019Roundini",
        "event_total": 67,
        "has_played": true,
        "id": 44836982,
        "last_rank": 59813,
        "player_name": "Mpilo Mabaso",
        "rank": 43702,
        "rank_sort": 43937,
        "total": 2356
      },
      {
        "club_badge_src": null,
        "entry": 5757288,
        "entry_name": "Shoppie's Shooters",
        "event_total": 52,
        "has_played": true,
        "id": 45129374,
        "last_rank": 37589,
        "player_name": "Richard Shopland",
        "rank": 43702,
        "rank_sort": 43938,
        "total": 2356
      },
      {
        "club_badge_src": null,
        "entry": 5817465,
        "entry_name": "Ardwick AFC",
        "event_total": 63,
        "has_played": true,
        "id": 45650235,
        "last_rank": 53023,
        "player_name": "Michael Adams",
        "rank": 43702,
        "rank_sort": 43939,
        "total": 2356
      },
      {
        "club_badge_src": null,
        "entry": 5856801,
        "entry_name": "Swedish Howe's Mafia",
        "event_total": 57,
        "has_played": true,
        "id": 45987248,
        "last_rank": 43849,
        "player_name": "Adam Day",
        "rank": 43702,
        "rank_sort": 43940,
        "total": 2356
      },
      {
        "club_badge_src": null,
        "entry": 5861675,
        "entry_name": "Huggy Town",
        "event_total": 53,
        "has_played": true,
        "id": 46030959,
        "last_rank": 38644,
        "player_name": "LEE MASON",
        "rank": 43702,
        "rank_sort": 43941,
        "total": 2356
      },
      {
        "club_badge_src": null,
        "entry": 5932592,
        "entry_name": "Kings",
        "event_total": 65,
        "has_played": true,
        "id": 46641560,
        "last_rank": 56180,
        "player_name": "Yohan Setiawan",
        "rank": 43702,
        "rank_sort": 43942,
        "total": 2356
      },
      {
        "club_badge_src": null,
        "entry": 5961992,
        "entry_name": "Positiivarit",
        "event_total": 64,
        "has_played": true,
        "id": 46904887,
        "last_rank": 54667,
        "player_name": "Marko Pirhonen",
        "rank": 43702,
        "rank_sort": 43943,
        "total": 2356
      },
      {
        "club_badge_src": null,
        "entry": 6027870,
        "entry_name": "Club de Whitman",
        "event_total": 68,
        "has_played": true,
        "id": 47546705,
        "last_rank": 61606,
        "player_name": "Grant Whyte",
        "rank": 43702,
        "rank_sort": 43944,
        "total": 2356
      },
      {
        "club_badge_src": "https://fantasy.premierleague.com/gcs/plfpl-production-adobe-approved/plfpl-production/6032002/25054a9d-287f-4c52-9d30-115dd1820a33.png",
        "entry": 6032002,
        "entry_name": "Tuckers 19 Forever",
        "event_total": 52,
        "has_played": true,
        "id": 47583694,
        "last_rank": 37435,
        "player_name": "Dave Black",
        "rank": 43702,
        "rank_sort": 43945,
        "total": 2356
      },
      {
        "club_badge_src": null,
        "entry": 6063005,
        "entry_name": "Bruno Dos Tres",
        "event_total": 60,
        "has_played": true,
        "id": 47852410,
        "last_rank": 48363,
        "player_name": "Amit Bundhoo",
        "rank": 43702,
        "rank_sort": 43946,
        "total": 2356
      },
      {
        "club_badge_src": null,
        "entry": 6085307,
        "entry_name": "Power Reijnders",
        "event_total": 48,
        "has_played": true,
        "id": 48048609,
        "last_rank": 32879,
        "player_name": "F 1",
        "rank": 43702,
        "rank_sort": 43947,
        "total": 2356
      },
      {
        "club_badge_src": null,
        "entry": 6085524,
        "entry_name": "Tony'sKebablets",
        "event_total": 68,
        "has_played": true,
        "id": 48050465,
        "last_rank": 61411,
        "player_name": "Anthony Newton",
        "rank": 43702,
        "rank_sort": 43948,
        "total": 2356
      },
      {
        "club_badge_src": null,
        "entry": 6101624,
        "entry_name": "The Problem Fc",
        "event_total": 61,
        "has_played": true,
        "id": 48189685,
        "last_rank": 49607,
        "player_name": "Thomas Dorine",
        "rank": 43702,
        "rank_sort": 43949,
        "total": 2356
      },
      {
        "club_badge_src": null,
        "entry": 6338892,
        "entry_name": "All Elite Morro",
        "event_total": 60,
        "has_played": true,
        "id": 50382519,
        "last_rank": 42506,
        "player_name": "Niall Morrissey",
        "rank": 43702,
        "rank_sort": 43950,
        "total": 2356
      }
    ]
  }
}