{
  "last_updated_data": "2026-05-24T23:28:17Z",
  "league": {
    "admin_entry": null,
    "closed": false,
    "code_privacy": "p",
    "created": "2025-07-20T23:14:33.933835Z",
    "cup_league": 2815434,
    "has_cup": true,
    "id": 314,
    "league_type": "s",
    "max_entries": null,
    "name": "Overall",
    "rank": null,
    "scoring": "c",
    "start_event": 1
  },
  "new_entries": {
    "has_next": false,
    "page": 1,
    "results": []
  },
  "standings": {
    "has_next": true,
    "page": 350,
    "results": [
      {
        "club_badge_src": null,
        "entry": 1713771,
        "entry_name": "Messy",
        "event_total": 65,
        "has_played": true,
        "id": 12008519,
        "last_rank": 19721,
        "player_name": "Sammy Lee",
        "rank": 17413,
        "rank_sort": 17451,
        "total": 2384
      },
      {
        "club_badge_src": null,
        "entry": 1962863,
        "entry_name": "Yeboah Constrictor",
        "event_total": 53,
        "has_played": true,
        "id": 13849059,
        "last_rank": 12322,
        "player_name": "Mark Robbins",
        "rank": 17413,
        "rank_sort": 17452,
        "total": 2384
      },
      {
        "club_badge_src": null,
        "entry": 2010520,
        "entry_name": "I'm a Baleba",
        "event_total": 72,
        "has_played": true,
        "id": 14216319,
        "last_rank": 29071,
        "player_name": "Ross Hogan",
        "rank": 17413,
        "rank_sort": 17453,
        "total": 2384
      },
      {
        "club_badge_src": null,
        "entry": 2023402,
        "entry_name": "Captain GLS",
        "event_total": 37,
        "has_played": true,
        "id": 14319329,
        "last_rank": 7535,
        "player_name": "Wonder Wonder",
        "rank": 17413,
        "rank_sort": 17454,
        "total": 2384
      },
      {
        "club_badge_src": null,
        "entry": 2178817,
        "entry_name": "Neth FC",
        "event_total": 63,
        "has_played": true,
        "id": 15495231,
        "last_rank": 21301,
        "player_name": "Kenneth Aw",
        "rank": 17413,
        "rank_sort": 17455,
        "total": 2384
      },
      {
        "club_badge_src": "https://fantasy.premierleague.com/gcs/plfpl-production-adobe-approved/plfpl-production/2287250/b5a64fc5-45b3-416f-bb09-e660b60b5ffd.png",
        "entry": 2287250,
        "entry_name": "Lord of the Ings",
        "event_total": 66,
        "has_played": true,
        "id": 16311932,
        "last_rank": 23656,
        "player_name": "Frithjof Moe Slinning",
        "rank": 17413,
        "rank_sort": 17456,
        "total": 2384
      },
      {
        "club_badge_src": null,
        "entry": 2330035,
        "entry_name": "Blackhawk Dowman",
        "event_total": 58,
        "has_played": true,
        "id": 16623969,
        "last_rank": 17718,
        "player_name": "Blake Fletcher",
        "rank": 17413,
        "rank_sort": 17457,
        "total": 2384
      },
      {
        "club_badge_src": null,
        "entry": 2450027,
        "entry_name": "saalllllllleeee",
        "event_total": 58,
        "has_played": true,
        "id": 17523022,
        "last_rank": 17585,
        "player_name": "Markus Sahlin",
        "rank": 17413,
        "rank_sort": 17458,
        "total": 2384
      },
      {
        "club_badge_src": null,
        "entry": 2459412,
        "entry_name": "No Idea XI",
        "event_total": 68,
        "has_played": true,
        "id": 17591806,
        "last_rank": 25002,
        "player_name": "Chris Cain",
        "rank": 17413,
        "rank_sort": 17459,
        "total": 2384
      },
      {
        "club_badge_src": null,
        "entry": 2523409,
        "entry_name": "Xplosive Fantasy",
        "event_total": 64,
        "has_played": true,
        "id": 18081225,
        "last_rank": 21775,
        "player_name": "Miljan Milic",
        "rank": 17413,
        "rank_sort": 17460,
        "total": 2384
      },
      {
        "club_badge_src": null,
        "entry": 2591637,
        "entry_name": "No Hopers",
        "event_total": 41,
        "has_played": true,
        "id": 18607189,
        "last_rank": 8925,
        "player_name": "Nigel Scott",
        "rank": 17413,
        "rank_sort": 17461,
        "total": 2384
      },
      {
        "club_badge_src": null,
        "entry": 2838332,
        "entry_name": "Madmax",
        "event_total": 75,
        "has_played": true,
        "id": 20743379,
        "last_rank": 31995,
        "player_name": "Willy A",
        "rank": 17413,
        "rank_sort": 17462,
        "total": 2384
      },
      {
        "club_badge_src": null,
        "entry": 2842903,
        "entry_name": "Craigo11",
        "event_total": 66,
        "has_played": true,
        "id": 20779151,
        "last_rank": 23522,
        "player_name": "Alex Craig",
        "rank": 17413,
        "rank_sort": 17463,
        "total": 2384
      },
      {
        "club_badge_src": null,
        "entry": 3168781,
        "entry_name": "TXT",
        "event_total": 66,
        "has_played": true,
        "id": 23411470,
        "last_rank": 17437,
        "player_name": "Asim Loonat",
        "rank": 17413,
        "rank_sort": 17464,
        "total": 2384
      },
      {
        "club_badge_src": "https://fantasy.premierleague.com/gcs/plfpl-production-adobe-approved/plfpl-production/3235088/2e829587-07dc-4662-988d-d980d7f70d00.png",
        "entry": 3235088,
        "entry_name": "Gonsos Glory 2026",
        "event_total": 67,
        "has_played": true,
        "id": 23927527,
        "last_rank": 24475,
        "player_name": "Alan Gonsalves",
        "rank": 17413,
        "rank_sort": 17465,
        "total": 2384
      },
      {
        "club_badge_src": null,
        "entry": 3294964,
        "entry_name": "Freds H\u00f6gerfot",
        "event_total": 64,
        "has_played": true,
        "id": 24399346,
        "last_rank": 22064,
        "player_name": "Christoffer Nordanskog",
        "rank": 17413,
        "rank_sort": 17466,
        "total": 2384
      },
      {
        "club_badge_src": "https://fantasy.premierleague.com/gcs/plfpl-production-adobe-approved/plfpl-production/3374466/f76e148c-12e1-4666-a385-21355b23f61c.png",
        "entry": 3374466,
        "entry_name": "\u0628\u0646\u0643 \u0627\u0644\u062d\u0638",
        "event_total": 71,
        "has_played": true,
        "id": 25045981,
        "last_rank": 27976,
        "player_name": "Ahmed Matboly",
        "rank": 17413,
        "rank_sort": 17467,
        "total": 2384
      },
      {
        "club_badge_src": null,
        "entry": 3414636,
        "entry_name": "Crouch Potato",
        "event_total": 76,
        "has_played": true,
        "id": 25361609,
        "last_rank": 32879,
        "player_name": "mark corbin",
        "rank": 17413,
        "rank_sort": 17468,
        "total": 2384
      },
      {
        "club_badge_src": null,
        "entry": 3520442,
        "entry_name": "The Pitmen",
        "event_total": 62,
        "has_played": true,
        "id": 26198683,
        "last_rank": 17585,
        "player_name": "Darren Whitehouse",
        "rank": 17413,
        "rank_sort": 17469,
        "total": 2384
      },
      {
        "club_badge_src": null,
        "entry": 3575844,
        "entry_name": "viking leaders",
        "event_total": 71,
        "has_played": true,
        "id": 26627020,
        "last_rank": 28150,
        "player_name": "Jakob Koel",
        "rank": 17413,
        "rank_sort": 17470,
        "total": 2384
      },
      {
        "club_badge_src": null,
        "entry": 3624626,
        "entry_name": "khunP",
        "event_total": 53,
        "has_played": true,
        "id": 27007273,
        "last_rank": 12322,
        "player_name": "Peera Tangka",
        "rank": 17413,
        "rank_sort": 17471,
        "total": 2384
      },
      {
        "club_badge_src": null,
        "entry": 3628238,
        "entry_name": "Ravin",
        "event_total": 50,
        "has_played": true,
        "id": 27036090,
        "last_rank": 12846,
        "player_name": "Ahmed Ashraf",
        "rank": 17413,
        "rank_sort": 17472,
        "total": 2384
      },
      {
        "club_badge_src": null,
        "entry": 3723630,
        "entry_name": "Majdi",
        "event_total": 55,
        "has_played": true,
        "id": 27789601,
        "last_rank": 15797,
        "player_name": "Majdi Loubani",
        "rank": 17413,
        "rank_sort": 17473,
        "total": 2384
      },
      {
        "club_badge_src": null,
        "entry": 3755200,
        "entry_name": "AMT",
        "event_total": 65,
        "has_played": true,
        "id": 28036548,
        "last_rank": 22830,
        "player_name": "Ahmed Tamim",
        "rank": 17413,
        "rank_sort": 17474,
        "total": 2384
      },
      {
        "club_badge_src": null,
        "entry": 3906411,
        "entry_name": "Will Made Me Do it",
        "event_total": 52,
        "has_played": true,
        "id": 29368307,
        "last_rank": 14040,
        "player_name": "Ian Sinderhoff",
        "rank": 17413,
        "rank_sort": 17475,
        "total": 2384
      },
      {
        "club_badge_src": null,
        "entry": 3994359,
        "entry_name": "Sane3.XI",
        "event_total": 68,
        "has_played": true,
        "id": 30079389,
        "last_rank": 21775,
        "player_name": "Sameer Srivastava",
        "rank": 17413,
        "rank_sort": 17476,
        "total": 2384
      },
      {
        "club_badge_src": null,
        "entry": 4022811,
        "entry_name": "Scranspanners",
        "event_total": 59,
        "has_played": true,
        "id": 30321071,
        "last_rank": 18270,
        "player_name": "Tom Morris",
        "rank": 17413,
        "rank_sort": 17477,
        "total": 2384
      },
      {
        "club_badge_src": "https://fantasy.premierleague.com/gcs/plfpl-production-adobe-approved/plfpl-production/4157927/df5090a5-effe-43f1-820d-98ba6770f534.png",
        "entry": 4157927,
        "entry_name": "Huuver-UP",
        "event_total": 52,
        "has_played": true,
        "id": 31431886,
        "last_rank": 14040,
        "player_name": "Jim Sigafoos",
        "rank": 17413,
        "rank_sort": 17478,
        "total": 2384
      },
      {
        "club_badge_src": null,
        "entry": 4168588,
        "entry_name": "Diogo",
        "event_total": 47,
        "has_played": true,
        "id": 31525064,
        "last_rank": 11419,
        "player_name": "Pierre Hultenius",
        "rank": 17413,
        "rank_sort": 17479,
        "total": 2384
      },
      {
        "club_badge_src": null,
        "entry": 4470828,
        "entry_name": "\u0160e\u0161ko Express",
        "event_total": 52,
        "has_played": true,
        "id": 34068771,
        "last_rank": 14040,
        "player_name": "Charlie Sewell",
        "rank": 17413,
        "rank_sort": 17480,
        "total": 2384
      },
      {
        "club_badge_src": null,
        "entry": 4811719,
        "entry_name": "Happy Maddison",
        "event_total": 77,
        "has_played": true,
        "id": 37049984,
        "last_rank": 34293,
        "player_name": "Paul Reuland",
        "rank": 17413,
        "rank_sort": 17481,
        "total": 2384
      },
      {
        "club_badge_src": null,
        "entry": 4923276,
        "entry_name": "Dribblers",
        "event_total": 63,
        "has_played": true,
        "id": 37974805,
        "last_rank": 21301,
        "player_name": "Terry Redman",
        "rank": 17413,
        "rank_sort": 17482,
        "total": 2384
      },
      {
        "club_badge_src": null,
        "entry": 5104914,
        "entry_name": "Arsenal All-Starrs",
        "event_total": 71,
        "has_played": true,
        "id": 39460161,
        "last_rank": 27976,
        "player_name": "francis starr",
        "rank": 17413,
        "rank_sort": 17483,
        "total": 2384
      },
      {
        "club_badge_src": null,
        "entry": 5275787,
        "entry_name": "Cesc Pistols",
        "event_total": 52,
        "has_played": true,
        "id": 40891838,
        "last_rank": 11821,
        "player_name": "Estevan Collado",
        "rank": 17413,
        "rank_sort": 17484,
        "total": 2384
      },
      {
        "club_badge_src": null,
        "entry": 5302258,
        "entry_name": "How I Nmecha Mother",
        "event_total": 73,
        "has_played": true,
        "id": 41100758,
        "last_rank": 29578,
        "player_name": "Jack Sapherson",
        "rank": 17413,
        "rank_sort": 17485,
        "total": 2384
      },
      {
        "club_badge_src": null,
        "entry": 5330196,
        "entry_name": "kun",
        "event_total": 68,
        "has_played": true,
        "id": 41322026,
        "last_rank": 25172,
        "player_name": "abdullah Alarfaji",
        "rank": 17413,
        "rank_sort": 17486,
        "total": 2384
      },
      {
        "club_badge_src": "https://fantasy.premierleague.com/gcs/plfpl-production-adobe-approved/plfpl-production/5363736/02ac31e7-30bd-4bd5-bf69-90a5e93fe6f4.png",
        "entry": 5363736,
        "entry_name": "Balotellitubbies",
        "event_total": 62,
        "has_played": true,
        "id": 41664246,
        "last_rank": 20179,
        "player_name": "Aidan Towse",
        "rank": 17413,
        "rank_sort": 17487,
        "total": 2384
      },
      {
        "club_badge_src": null,
        "entry": 5445530,
        "entry_name": "M8",
        "event_total": 64,
        "has_played": true,
        "id": 42370169,
        "last_rank": 21949,
        "player_name": "Mate Feher",
        "rank": 17413,
        "rank_sort": 17488,
        "total": 2384
      },
      {
        "club_badge_src": null,
        "entry": 5634832,
        "entry_name": "Garcia United",
        "event_total": 66,
        "has_played": true,
        "id": 44060158,
        "last_rank": 23656,
        "player_name": "Geoff Garcia",
        "rank": 17413,
        "rank_sort": 17489,
        "total": 2384
      },
      {
        "club_badge_src": null,
        "entry": 5936144,
        "entry_name": "Jamcoco FC",
        "event_total": 60,
        "has_played": true,
        "id": 46673281,
        "last_rank": 16320,
        "player_name": "HE Goh",
        "rank": 17413,
        "rank_sort": 17490,
        "total": 2384
      },
      {
        "club_badge_src": "https://fantasy.premierleague.com/gcs/plfpl-production-adobe-approved/plfpl-production/6092706/512014c1-7634-4737-8a3f-a98a1e13b557.png",
        "entry": 6092706,
        "entry_name": "kabsa United",
        "event_total": 65,
        "has_played": true,
        "id": 48113381,
        "last_rank": 22685,
        "player_name": "Abdulazizk Alibrahim",
        "rank": 17413,
        "rank_sort": 17491,
        "total": 2384
      },
      {
        "club_badge_src": null,
        "entry": 6125255,
        "entry_name": "Sesko Meal Deal",
        "event_total": 52,
        "has_played": true,
        "id": 48396555,
        "last_rank": 13754,
        "player_name": "Matt Evans",
        "rank": 17413,
        "rank_sort": 17492,
        "total": 2384
      },
      {
        "club_badge_src": null,
        "entry": 6126331,
        "entry_name": "1.",
        "event_total": 65,
        "has_played": true,
        "id": 48406154,
        "last_rank": 22830,
        "player_name": "Erik Sandberg",
        "rank": 17413,
        "rank_sort": 17493,
        "total": 2384
      },
      {
        "club_badge_src": null,
        "entry": 6218604,
        "entry_name": "Goal-toria Beckham",
        "event_total": 57,
        "has_played": true,
        "id": 49204235,
        "last_rank": 14370,
        "player_name": "Victoria Knight",
        "rank": 17413,
        "rank_sort": 17494,
        "total": 2384
      },
      {
        "club_badge_src": null,
        "entry": 6287857,
        "entry_name": "Im Sorry Nic Jackson",
        "event_total": 53,
        "has_played": true,
        "id": 49813138,
        "last_rank": 14604,
        "player_name": "Padraig Delaney",
        "rank": 17413,
        "rank_sort": 17495,
        "total": 2384
      },
      {
        "club_badge_src": null,
        "entry": 6480961,
        "entry_name": "Saka Potatoes",
        "event_total": 60,
        "has_played": true,
        "id": 51654222,
        "last_rank": 16320,
        "player_name": "Harry Salinger",
        "rank": 17413,
        "rank_sort": 17496,
        "total": 2384
      },
      {
        "club_badge_src": null,
        "entry": 6487773,
        "entry_name": "Machine Gun Skelly",
        "event_total": 50,
        "has_played": true,
        "id": 51714001,
        "last_rank": 12940,
        "player_name": "Oliver Parrott",
        "rank": 17413,
        "rank_sort": 17497,
        "total": 2384
      },
      {
        "club_badge_src": null,
        "entry": 6592210,
        "entry_name": "Runforthepodium",
        "event_total": 58,
        "has_played": true,
        "id": 52650565,
        "last_rank": 17802,
        "player_name": "Vincent Francoeur",
        "rank": 17413,
        "rank_sort": 17498,
        "total": 2384
      },
      {
        "club_badge_src": null,
        "entry": 6624987,
        "entry_name": "\u2b50\ufe0f\u2b50\ufe0f\u2b50\ufe0f\ufffd",
        "event_total": 73,
        "has_played": true,
        "id": 52943079,
        "last_rank": 30191,
        "player_name": "Christian P",
        "rank": 17413,
        "rank_sort": 17499,
        "total": 2384
      },
      {
        "club_badge_src": "https://fantasy.premierleague.com/gcs/plfpl-production-adobe-approved/plfpl-production/6792554/3e5d24e8-595d-4b35-aef2-075ed2eff9da.png",
        "entry": 6792554,
        "entry_name": "potters men",
        "event_total": 64,
        "has_played": true,
        "id": 54395226,
        "last_rank": 22154,
        "player_name": "Frank Bulled",
        "rank": 17413,
        "rank_sort": 17500,
        "total": 2384
      }
    ]
  }
}