{
  "last_updated_data": "2026-05-24T23:28:17Z",
  "league": {
    "admin_entry": null,
    "closed": false,
    "code_privacy": "p",
    "created": "2025-07-20T23:14:33.933835Z",
    "cup_league": 2815434,
    "has_cup": true,
    "id": 314,
    "league_type": "s",
    "max_entries": null,
    "name": "Overall",
    "rank": null,
    "scoring": "c",
    "start_event": 1
  },
  "new_entries": {
    "has_next": false,
    "page": 1,
    "results": []
  },
  "standings": {
    "has_next": true,
    "page": 1585,
    "results": [
      {
        "club_badge_src": null,
        "entry": 1368529,
        "entry_name": "Wagwan Franky",
        "event_total": 69,
        "has_played": true,
        "id": 9513251,
        "last_rank": 99806,
        "player_name": "Alex Davis",
        "rank": 79149,
        "rank_sort": 79201,
        "total": 2336
      },
      {
        "club_badge_src": null,
        "entry": 1436687,
        "entry_name": "Huijsen Sauce",
        "event_total": 61,
        "has_played": true,
        "id": 10010820,
        "last_rank": 80651,
        "player_name": "archie lowe",
        "rank": 79149,
        "rank_sort": 79202,
        "total": 2336
      },
      {
        "club_badge_src": "https://fantasy.premierleague.com/gcs/plfpl-production-adobe-approved/plfpl-production/1582097/3fb05f1a-0506-4895-a0c7-61c0d009ce5b.png",
        "entry": 1582097,
        "entry_name": "Los Blancos",
        "event_total": 64,
        "has_played": true,
        "id": 11056647,
        "last_rank": 97305,
        "player_name": "Mohammed Osman",
        "rank": 79149,
        "rank_sort": 79203,
        "total": 2336
      },
      {
        "club_badge_src": null,
        "entry": 1700413,
        "entry_name": "Shai-Hulud",
        "event_total": 69,
        "has_played": true,
        "id": 11910912,
        "last_rank": 110709,
        "player_name": "Christian Dehlendorff Olesen",
        "rank": 79149,
        "rank_sort": 79204,
        "total": 2336
      },
      {
        "club_badge_src": null,
        "entry": 1787666,
        "entry_name": "m&s ultras",
        "event_total": 62,
        "has_played": true,
        "id": 12560860,
        "last_rank": 92471,
        "player_name": "Reuben Hughes",
        "rank": 79149,
        "rank_sort": 79205,
        "total": 2336
      },
      {
        "club_badge_src": "https://fantasy.premierleague.com/gcs/plfpl-production-adobe-approved/plfpl-production/2033008/00c5bac6-413d-41f1-85ce-cb4c1ec4aca1.png",
        "entry": 2033008,
        "entry_name": "Mo Salad",
        "event_total": 62,
        "has_played": true,
        "id": 14393774,
        "last_rank": 92471,
        "player_name": "Mo Jasson",
        "rank": 79149,
        "rank_sort": 79206,
        "total": 2336
      },
      {
        "club_badge_src": "https://fantasy.premierleague.com/gcs/plfpl-production-adobe-approved/plfpl-production/2209669/057c0d02-cbd0-4306-a072-e5e4d595330f.png",
        "entry": 2209669,
        "entry_name": "KOJIRO FC",
        "event_total": 54,
        "has_played": true,
        "id": 15734838,
        "last_rank": 74317,
        "player_name": "Ditthapong Ampaipong",
        "rank": 79149,
        "rank_sort": 79207,
        "total": 2336
      },
      {
        "club_badge_src": "https://fantasy.premierleague.com/gcs/plfpl-production-adobe-approved/plfpl-production/2234729/9d8e015f-7085-4489-93c0-a84dc4573912.png",
        "entry": 2234729,
        "entry_name": "gigityGODS",
        "event_total": 60,
        "has_played": true,
        "id": 15920196,
        "last_rank": 87541,
        "player_name": "Kaushal Patel",
        "rank": 79149,
        "rank_sort": 79208,
        "total": 2336
      },
      {
        "club_badge_src": null,
        "entry": 2305175,
        "entry_name": "Hassan",
        "event_total": 66,
        "has_played": true,
        "id": 16442135,
        "last_rank": 102501,
        "player_name": "Hassan Ais",
        "rank": 79149,
        "rank_sort": 79209,
        "total": 2336
      },
      {
        "club_badge_src": null,
        "entry": 2308206,
        "entry_name": "Kinder Mbuemo",
        "event_total": 54,
        "has_played": true,
        "id": 16464299,
        "last_rank": 74166,
        "player_name": "Robbie G",
        "rank": 79149,
        "rank_sort": 79210,
        "total": 2336
      },
      {
        "club_badge_src": "https://fantasy.premierleague.com/gcs/plfpl-production-adobe-approved/plfpl-production/2439009/0abc29e2-72db-4f0e-8e44-33b835ae4736.png",
        "entry": 2439009,
        "entry_name": "endeavor27",
        "event_total": 71,
        "has_played": true,
        "id": 17442418,
        "last_rank": 116017,
        "player_name": "Kok Yang Pang",
        "rank": 79149,
        "rank_sort": 79211,
        "total": 2336
      },
      {
        "club_badge_src": null,
        "entry": 2498473,
        "entry_name": "*KingIsBack*",
        "event_total": 59,
        "has_played": true,
        "id": 17888627,
        "last_rank": 67926,
        "player_name": "Vladimir Jelesic",
        "rank": 79149,
        "rank_sort": 79212,
        "total": 2336
      },
      {
        "club_badge_src": null,
        "entry": 2607108,
        "entry_name": "Y\u00f6rda Bierbi\u0107",
        "event_total": 71,
        "has_played": true,
        "id": 18728128,
        "last_rank": 116216,
        "player_name": "Ethan Cantes-Freeman",
        "rank": 79149,
        "rank_sort": 79213,
        "total": 2336
      },
      {
        "club_badge_src": null,
        "entry": 2677905,
        "entry_name": "Clucking Bells",
        "event_total": 52,
        "has_played": true,
        "id": 19258400,
        "last_rank": 62617,
        "player_name": "Mark Bowden",
        "rank": 79149,
        "rank_sort": 79214,
        "total": 2336
      },
      {
        "club_badge_src": null,
        "entry": 2751003,
        "entry_name": "Bukayo",
        "event_total": 51,
        "has_played": true,
        "id": 19987679,
        "last_rank": 68216,
        "player_name": "Max Fuller",
        "rank": 79149,
        "rank_sort": 79215,
        "total": 2336
      },
      {
        "club_badge_src": null,
        "entry": 2839977,
        "entry_name": "Black Roses",
        "event_total": 64,
        "has_played": true,
        "id": 20756673,
        "last_rank": 97470,
        "player_name": "Jan P",
        "rank": 79149,
        "rank_sort": 79216,
        "total": 2336
      },
      {
        "club_badge_src": null,
        "entry": 2980487,
        "entry_name": "LFG FC",
        "event_total": 65,
        "has_played": true,
        "id": 21913413,
        "last_rank": 99806,
        "player_name": "Craig Kuklys",
        "rank": 79149,
        "rank_sort": 79217,
        "total": 2336
      },
      {
        "club_badge_src": null,
        "entry": 3062601,
        "entry_name": "Caroline's Angels",
        "event_total": 60,
        "has_played": true,
        "id": 22548598,
        "last_rank": 78440,
        "player_name": "Caroline Chikomba",
        "rank": 79149,
        "rank_sort": 79218,
        "total": 2336
      },
      {
        "club_badge_src": null,
        "entry": 3076843,
        "entry_name": "Elbinnii",
        "event_total": 59,
        "has_played": true,
        "id": 22666739,
        "last_rank": 85349,
        "player_name": "Amin El Zeyat",
        "rank": 79149,
        "rank_sort": 79219,
        "total": 2336
      },
      {
        "club_badge_src": null,
        "entry": 3121248,
        "entry_name": "EXIA",
        "event_total": 72,
        "has_played": true,
        "id": 23033849,
        "last_rank": 97096,
        "player_name": "Calvin Lam",
        "rank": 79149,
        "rank_sort": 79220,
        "total": 2336
      },
      {
        "club_badge_src": null,
        "entry": 3433574,
        "entry_name": "coach",
        "event_total": 50,
        "has_played": true,
        "id": 25507415,
        "last_rank": 66200,
        "player_name": "Ian Bawtinheimer",
        "rank": 79149,
        "rank_sort": 79221,
        "total": 2336
      },
      {
        "club_badge_src": null,
        "entry": 3750751,
        "entry_name": "Freed from Maguire",
        "event_total": 64,
        "has_played": true,
        "id": 28002764,
        "last_rank": 87541,
        "player_name": "Tom Partington",
        "rank": 79149,
        "rank_sort": 79222,
        "total": 2336
      },
      {
        "club_badge_src": null,
        "entry": 4043067,
        "entry_name": "Raka-Roko FC",
        "event_total": 80,
        "has_played": true,
        "id": 30492126,
        "last_rank": 144830,
        "player_name": "sherub gyeltshen",
        "rank": 79149,
        "rank_sort": 79223,
        "total": 2336
      },
      {
        "club_badge_src": null,
        "entry": 4100733,
        "entry_name": "M.A.S.S",
        "event_total": 98,
        "has_played": true,
        "id": 30965533,
        "last_rank": 213420,
        "player_name": "Mohamed Sabur",
        "rank": 79149,
        "rank_sort": 79224,
        "total": 2336
      },
      {
        "club_badge_src": null,
        "entry": 4132773,
        "entry_name": "Adonis MFs",
        "event_total": 58,
        "has_played": true,
        "id": 31231074,
        "last_rank": 74166,
        "player_name": "mhemed adoniss",
        "rank": 79149,
        "rank_sort": 79225,
        "total": 2336
      },
      {
        "club_badge_src": null,
        "entry": 4294563,
        "entry_name": "Lowry FC",
        "event_total": 82,
        "has_played": true,
        "id": 32578535,
        "last_rank": 151584,
        "player_name": "Simon Johnston",
        "rank": 79149,
        "rank_sort": 79226,
        "total": 2336
      },
      {
        "club_badge_src": null,
        "entry": 4478179,
        "entry_name": "hassansatrawe",
        "event_total": 87,
        "has_played": true,
        "id": 34128815,
        "last_rank": 169815,
        "player_name": "Hassan Satrawi",
        "rank": 79149,
        "rank_sort": 79227,
        "total": 2336
      },
      {
        "club_badge_src": null,
        "entry": 4590228,
        "entry_name": "Forever20",
        "event_total": 68,
        "has_played": true,
        "id": 35050813,
        "last_rank": 87350,
        "player_name": "Donna Mercer",
        "rank": 79149,
        "rank_sort": 79228,
        "total": 2336
      },
      {
        "club_badge_src": null,
        "entry": 4617739,
        "entry_name": "Crustacean Nation",
        "event_total": 39,
        "has_played": true,
        "id": 35293968,
        "last_rank": 47812,
        "player_name": "daniel vaughan",
        "rank": 79149,
        "rank_sort": 79229,
        "total": 2336
      },
      {
        "club_badge_src": null,
        "entry": 4651352,
        "entry_name": "Hun manet fc",
        "event_total": 42,
        "has_played": true,
        "id": 35586538,
        "last_rank": 52461,
        "player_name": "ruettawee kaewpradit",
        "rank": 79149,
        "rank_sort": 79230,
        "total": 2336
      },
      {
        "club_badge_src": null,
        "entry": 4773171,
        "entry_name": "Warlords",
        "event_total": 73,
        "has_played": true,
        "id": 36741117,
        "last_rank": 121991,
        "player_name": "Wajdy Dwaik",
        "rank": 79149,
        "rank_sort": 79231,
        "total": 2336
      },
      {
        "club_badge_src": null,
        "entry": 4881295,
        "entry_name": "eagles \ufffd",
        "event_total": 69,
        "has_played": true,
        "id": 37628992,
        "last_rank": 110416,
        "player_name": "khaled ahmed abbas",
        "rank": 79149,
        "rank_sort": 79232,
        "total": 2336
      },
      {
        "club_badge_src": null,
        "entry": 4945611,
        "entry_name": "Toppers",
        "event_total": 56,
        "has_played": true,
        "id": 38160037,
        "last_rank": 78575,
        "player_name": "Fergus Rose",
        "rank": 79149,
        "rank_sort": 79233,
        "total": 2336
      },
      {
        "club_badge_src": null,
        "entry": 4987530,
        "entry_name": "CunhaBelieveIt",
        "event_total": 70,
        "has_played": true,
        "id": 38503995,
        "last_rank": 113400,
        "player_name": "Yi Ren Chew",
        "rank": 79149,
        "rank_sort": 79234,
        "total": 2336
      },
      {
        "club_badge_src": null,
        "entry": 5021210,
        "entry_name": "khalpyah FC",
        "event_total": 55,
        "has_played": true,
        "id": 38778204,
        "last_rank": 68107,
        "player_name": "Muhammad Bashir",
        "rank": 79149,
        "rank_sort": 79235,
        "total": 2336
      },
      {
        "club_badge_src": null,
        "entry": 5079562,
        "entry_name": "\u0627\u0644\u0645\u0628\u0648\u0631\u062f",
        "event_total": 63,
        "has_played": true,
        "id": 39258316,
        "last_rank": 94933,
        "player_name": "\u0647\u064a\u062b\u0645 \u0627\u0644\u0633\u0627\u0645\u062d",
        "rank": 79149,
        "rank_sort": 79236,
        "total": 2336
      },
      {
        "club_badge_src": null,
        "entry": 5146631,
        "entry_name": "FC Iggy Pop",
        "event_total": 60,
        "has_played": true,
        "id": 39815311,
        "last_rank": 78440,
        "player_name": "Espen Selbaek",
        "rank": 79149,
        "rank_sort": 79237,
        "total": 2336
      },
      {
        "club_badge_src": "https://fantasy.premierleague.com/gcs/plfpl-production-adobe-approved/plfpl-production/5187855/83cba7f1-9c74-4207-997f-7518866baea6.png",
        "entry": 5187855,
        "entry_name": "Redz UTD",
        "event_total": 58,
        "has_played": true,
        "id": 40161017,
        "last_rank": 83018,
        "player_name": "kila k",
        "rank": 79149,
        "rank_sort": 79238,
        "total": 2336
      },
      {
        "club_badge_src": "https://fantasy.premierleague.com/gcs/plfpl-production-adobe-approved/plfpl-production/5194120/4e1e6577-2cbe-4aef-a74f-9cc58ea42a44.png",
        "entry": 5194120,
        "entry_name": "Lingardinho's XI",
        "event_total": 68,
        "has_played": true,
        "id": 40214368,
        "last_rank": 87350,
        "player_name": "Adam Kavanagh",
        "rank": 79149,
        "rank_sort": 79239,
        "total": 2336
      },
      {
        "club_badge_src": null,
        "entry": 5522233,
        "entry_name": "Yellow Tail",
        "event_total": 65,
        "has_played": true,
        "id": 43061914,
        "last_rank": 89897,
        "player_name": "ramesh kandel",
        "rank": 79149,
        "rank_sort": 79240,
        "total": 2336
      },
      {
        "club_badge_src": null,
        "entry": 5605147,
        "entry_name": "HHM",
        "event_total": 57,
        "has_played": true,
        "id": 43800995,
        "last_rank": 72145,
        "player_name": "Daniel Yapp",
        "rank": 79149,
        "rank_sort": 79241,
        "total": 2336
      },
      {
        "club_badge_src": null,
        "entry": 5762234,
        "entry_name": "Warra Trophy",
        "event_total": 67,
        "has_played": true,
        "id": 45171710,
        "last_rank": 105137,
        "player_name": "Ollie Rowles",
        "rank": 79149,
        "rank_sort": 79242,
        "total": 2336
      },
      {
        "club_badge_src": null,
        "entry": 5920201,
        "entry_name": "Marcus der Meister",
        "event_total": 36,
        "has_played": true,
        "id": 46531763,
        "last_rank": 43512,
        "player_name": "Marcus Svensson",
        "rank": 79149,
        "rank_sort": 79243,
        "total": 2336
      },
      {
        "club_badge_src": null,
        "entry": 6299015,
        "entry_name": "Danish Quiz Mafia",
        "event_total": 57,
        "has_played": true,
        "id": 49932422,
        "last_rank": 80781,
        "player_name": "Michael Andersen",
        "rank": 79149,
        "rank_sort": 79244,
        "total": 2336
      },
      {
        "club_badge_src": null,
        "entry": 6466297,
        "entry_name": "sunny innit?",
        "event_total": 60,
        "has_played": true,
        "id": 51518167,
        "last_rank": 87710,
        "player_name": "Pawe\u0142 Libera",
        "rank": 79149,
        "rank_sort": 79245,
        "total": 2336
      },
      {
        "club_badge_src": null,
        "entry": 6560383,
        "entry_name": "Tory FC",
        "event_total": 63,
        "has_played": true,
        "id": 52359447,
        "last_rank": 84980,
        "player_name": "Timothy Mwalenga",
        "rank": 79149,
        "rank_sort": 79246,
        "total": 2336
      },
      {
        "club_badge_src": null,
        "entry": 6626968,
        "entry_name": "goalinton",
        "event_total": 71,
        "has_played": true,
        "id": 52960524,
        "last_rank": 104712,
        "player_name": "Henry Duncan",
        "rank": 79149,
        "rank_sort": 79247,
        "total": 2336
      },
      {
        "club_badge_src": null,
        "entry": 7070299,
        "entry_name": "ThomasFrankEngine",
        "event_total": 48,
        "has_played": true,
        "id": 56892051,
        "last_rank": 62724,
        "player_name": "william barker",
        "rank": 79149,
        "rank_sort": 79248,
        "total": 2336
      },
      {
        "club_badge_src": null,
        "entry": 7437956,
        "entry_name": "Trendy FC",
        "event_total": 61,
        "has_played": true,
        "id": 60475584,
        "last_rank": 90057,
        "player_name": "Benjamin Oduro",
        "rank": 79149,
        "rank_sort": 79249,
        "total": 2336
      },
      {
        "club_badge_src": null,
        "entry": 7662664,
        "entry_name": "Oasis",
        "event_total": 73,
        "has_played": true,
        "id": 62831807,
        "last_rank": 122201,
        "player_name": "James McIntosh",
        "rank": 79149,
        "rank_sort": 79250,
        "total": 2336
      }
    ]
  }
}