{
  "last_updated_data": "2026-05-24T23:28:17Z",
  "league": {
    "admin_entry": null,
    "closed": false,
    "code_privacy": "p",
    "created": "2025-07-20T23:14:33.933835Z",
    "cup_league": 2815434,
    "has_cup": true,
    "id": 314,
    "league_type": "s",
    "max_entries": null,
    "name": "Overall",
    "rank": null,
    "scoring": "c",
    "start_event": 1
  },
  "new_entries": {
    "has_next": false,
    "page": 1,
    "results": []
  },
  "standings": {
    "has_next": true,
    "page": 1104,
    "results": [
      {
        "club_badge_src": null,
        "entry": 8300911,
        "entry_name": "HAAAAAAHOOOOO!!!!",
        "event_total": 55,
        "has_played": true,
        "id": 68719652,
        "last_rank": 46106,
        "player_name": "Haho Haho",
        "rank": 55046,
        "rank_sort": 55151,
        "total": 2349
      },
      {
        "club_badge_src": null,
        "entry": 8364721,
        "entry_name": "Clonross Slashers",
        "event_total": 67,
        "has_played": true,
        "id": 69344227,
        "last_rank": 74166,
        "player_name": "Joe Walsh",
        "rank": 55046,
        "rank_sort": 55152,
        "total": 2349
      },
      {
        "club_badge_src": null,
        "entry": 8721161,
        "entry_name": "Biriyani",
        "event_total": 56,
        "has_played": true,
        "id": 72785316,
        "last_rank": 53952,
        "player_name": "Terrin Kailath",
        "rank": 55046,
        "rank_sort": 55153,
        "total": 2349
      },
      {
        "club_badge_src": null,
        "entry": 9287320,
        "entry_name": "Eyad P5",
        "event_total": 67,
        "has_played": true,
        "id": 78287368,
        "last_rank": 74166,
        "player_name": "Eyad Omar",
        "rank": 55046,
        "rank_sort": 55154,
        "total": 2349
      },
      {
        "club_badge_src": null,
        "entry": 9437211,
        "entry_name": "MATOZ FC",
        "event_total": 76,
        "has_played": true,
        "id": 79728521,
        "last_rank": 75874,
        "player_name": "john matoz",
        "rank": 55046,
        "rank_sort": 55155,
        "total": 2349
      },
      {
        "club_badge_src": null,
        "entry": 11318,
        "entry_name": "Fantasy blocknote",
        "event_total": 72,
        "has_played": true,
        "id": 67228,
        "last_rank": 76330,
        "player_name": "Nikita Gerasev",
        "rank": 55156,
        "rank_sort": 55156,
        "total": 2349
      },
      {
        "club_badge_src": null,
        "entry": 26010,
        "entry_name": "Biankaneri",
        "event_total": 50,
        "has_played": true,
        "id": 164463,
        "last_rank": 44882,
        "player_name": "Maciek Wi\u015bniewski",
        "rank": 55156,
        "rank_sort": 55157,
        "total": 2349
      },
      {
        "club_badge_src": null,
        "entry": 55673,
        "entry_name": "Sesko Express",
        "event_total": 71,
        "has_played": true,
        "id": 358470,
        "last_rank": 82873,
        "player_name": "Rob Miller",
        "rank": 55156,
        "rank_sort": 55158,
        "total": 2349
      },
      {
        "club_badge_src": null,
        "entry": 64773,
        "entry_name": "Abadi\u00f1o Albatrosses",
        "event_total": 48,
        "has_played": true,
        "id": 418097,
        "last_rank": 37058,
        "player_name": "Peter Cooper",
        "rank": 55156,
        "rank_sort": 55159,
        "total": 2349
      },
      {
        "club_badge_src": null,
        "entry": 101076,
        "entry_name": "Kingdom of Kai Rice",
        "event_total": 59,
        "has_played": true,
        "id": 659564,
        "last_rank": 52357,
        "player_name": "Adrian Dyer",
        "rank": 55156,
        "rank_sort": 55160,
        "total": 2349
      },
      {
        "club_badge_src": null,
        "entry": 116281,
        "entry_name": "Wirtzklass FC",
        "event_total": 66,
        "has_played": true,
        "id": 759113,
        "last_rank": 64319,
        "player_name": "Joakim Bor\u00e9n",
        "rank": 55156,
        "rank_sort": 55161,
        "total": 2349
      },
      {
        "club_badge_src": "https://fantasy.premierleague.com/gcs/plfpl-production-adobe-approved/plfpl-production/124083/7724365d-9486-4924-88ae-3192fc29e789.png",
        "entry": 124083,
        "entry_name": "Cant Get Any Wirtz",
        "event_total": 54,
        "has_played": true,
        "id": 809317,
        "last_rank": 39403,
        "player_name": "Steve Ball",
        "rank": 55156,
        "rank_sort": 55162,
        "total": 2349
      },
      {
        "club_badge_src": null,
        "entry": 136998,
        "entry_name": "F.C. Parkeselona",
        "event_total": 73,
        "has_played": true,
        "id": 892711,
        "last_rank": 69641,
        "player_name": "Adam Parkes",
        "rank": 55156,
        "rank_sort": 55163,
        "total": 2349
      },
      {
        "club_badge_src": "https://fantasy.premierleague.com/gcs/plfpl-production-adobe-approved/plfpl-production/147215/c819f145-b080-4b8d-8110-36086cb75153.png",
        "entry": 147215,
        "entry_name": "The Cherries",
        "event_total": 59,
        "has_played": true,
        "id": 964659,
        "last_rank": 52357,
        "player_name": "Andrzej Wi\u015bniewski",
        "rank": 55156,
        "rank_sort": 55164,
        "total": 2349
      },
      {
        "club_badge_src": "https://fantasy.premierleague.com/gcs/plfpl-production-adobe-approved/plfpl-production/159770/ea1bf986-aba7-4a2f-bcc9-5d2e236cdd3f.png",
        "entry": 159770,
        "entry_name": "Spreadsheet FC",
        "event_total": 75,
        "has_played": true,
        "id": 1051751,
        "last_rank": 73975,
        "player_name": "Sam East",
        "rank": 55156,
        "rank_sort": 55165,
        "total": 2349
      },
      {
        "club_badge_src": null,
        "entry": 215622,
        "entry_name": "Team Name",
        "event_total": 73,
        "has_played": true,
        "id": 1434143,
        "last_rank": 87710,
        "player_name": "Jamie Nettleship",
        "rank": 55156,
        "rank_sort": 55166,
        "total": 2349
      },
      {
        "club_badge_src": "https://fantasy.premierleague.com/gcs/plfpl-production-adobe-approved/plfpl-production/277836/ca1081e6-f40e-49e7-acc2-88f63ec33bf6.png",
        "entry": 277836,
        "entry_name": "\u00d0e\u0111a",
        "event_total": 56,
        "has_played": true,
        "id": 1849295,
        "last_rank": 53952,
        "player_name": "D\u017eemil Imamovi\u0107",
        "rank": 55156,
        "rank_sort": 55167,
        "total": 2349
      },
      {
        "club_badge_src": null,
        "entry": 354993,
        "entry_name": "The_Gunner",
        "event_total": 59,
        "has_played": true,
        "id": 2375757,
        "last_rank": 52357,
        "player_name": "KingstaR Inw",
        "rank": 55156,
        "rank_sort": 55168,
        "total": 2349
      },
      {
        "club_badge_src": null,
        "entry": 377484,
        "entry_name": "Captain Kerkez",
        "event_total": 73,
        "has_played": true,
        "id": 2528625,
        "last_rank": 78440,
        "player_name": "kev collin",
        "rank": 55156,
        "rank_sort": 55169,
        "total": 2349
      },
      {
        "club_badge_src": null,
        "entry": 457526,
        "entry_name": "Saka Bangs It",
        "event_total": 66,
        "has_played": true,
        "id": 3069455,
        "last_rank": 64319,
        "player_name": "Alex Bangura",
        "rank": 55156,
        "rank_sort": 55170,
        "total": 2349
      },
      {
        "club_badge_src": "https://fantasy.premierleague.com/gcs/plfpl-production-adobe-approved/plfpl-production/489699/617b5c8c-92d1-4489-968a-973380b9cf28.png",
        "entry": 489699,
        "entry_name": "Aleksa",
        "event_total": 65,
        "has_played": true,
        "id": 3287493,
        "last_rank": 62617,
        "player_name": "Aleksa Petrov",
        "rank": 55156,
        "rank_sort": 55171,
        "total": 2349
      },
      {
        "club_badge_src": null,
        "entry": 598196,
        "entry_name": "SaMoy",
        "event_total": 62,
        "has_played": true,
        "id": 4034298,
        "last_rank": 64422,
        "player_name": "Chanutpat Kmonsin",
        "rank": 55156,
        "rank_sort": 55172,
        "total": 2349
      },
      {
        "club_badge_src": null,
        "entry": 607298,
        "entry_name": "Ahmedtohamy \u261d\ufffd",
        "event_total": 62,
        "has_played": true,
        "id": 4101233,
        "last_rank": 50635,
        "player_name": "ABO tohamy",
        "rank": 55156,
        "rank_sort": 55173,
        "total": 2349
      },
      {
        "club_badge_src": null,
        "entry": 634482,
        "entry_name": "Stam By Mee",
        "event_total": 52,
        "has_played": true,
        "id": 4288055,
        "last_rank": 42081,
        "player_name": "Liam Sullivan",
        "rank": 55156,
        "rank_sort": 55174,
        "total": 2349
      },
      {
        "club_badge_src": null,
        "entry": 663828,
        "entry_name": "Setchells Squad",
        "event_total": 52,
        "has_played": true,
        "id": 4487870,
        "last_rank": 41967,
        "player_name": "Olly Setchell",
        "rank": 55156,
        "rank_sort": 55175,
        "total": 2349
      },
      {
        "club_badge_src": null,
        "entry": 689814,
        "entry_name": "Purra FC",
        "event_total": 66,
        "has_played": true,
        "id": 4670721,
        "last_rank": 64319,
        "player_name": "Jeroen Huter",
        "rank": 55156,
        "rank_sort": 55176,
        "total": 2349
      },
      {
        "club_badge_src": null,
        "entry": 692265,
        "entry_name": "Norfolk n Chance",
        "event_total": 69,
        "has_played": true,
        "id": 4688193,
        "last_rank": 78244,
        "player_name": "Ben Emmerson",
        "rank": 55156,
        "rank_sort": 55177,
        "total": 2349
      },
      {
        "club_badge_src": null,
        "entry": 722613,
        "entry_name": "Hacunha Matata",
        "event_total": 76,
        "has_played": true,
        "id": 4907708,
        "last_rank": 94778,
        "player_name": "Sergio Ramtamere",
        "rank": 55156,
        "rank_sort": 55178,
        "total": 2349
      },
      {
        "club_badge_src": null,
        "entry": 747057,
        "entry_name": "GetInMyBelly",
        "event_total": 67,
        "has_played": true,
        "id": 5082330,
        "last_rank": 74166,
        "player_name": "Kester Chainey",
        "rank": 55156,
        "rank_sort": 55179,
        "total": 2349
      },
      {
        "club_badge_src": null,
        "entry": 876633,
        "entry_name": "Bon_Bull_B\u01a1",
        "event_total": 57,
        "has_played": true,
        "id": 6010185,
        "last_rank": 55747,
        "player_name": "B\u1ed1 Bon-Bull-B\u01a1",
        "rank": 55156,
        "rank_sort": 55180,
        "total": 2349
      },
      {
        "club_badge_src": null,
        "entry": 972751,
        "entry_name": "Harry's left foot",
        "event_total": 58,
        "has_played": true,
        "id": 6705590,
        "last_rank": 50635,
        "player_name": "Love Guve",
        "rank": 55156,
        "rank_sort": 55181,
        "total": 2349
      },
      {
        "club_badge_src": "https://fantasy.premierleague.com/gcs/plfpl-production-adobe-approved/plfpl-production/1010480/54c892b4-5b75-486e-a5f8-9debeb2debf4.png",
        "entry": 1010480,
        "entry_name": "No ni m\u0103 (la) Dueke!",
        "event_total": 59,
        "has_played": true,
        "id": 6988376,
        "last_rank": 52357,
        "player_name": "Tibi D",
        "rank": 55156,
        "rank_sort": 55182,
        "total": 2349
      },
      {
        "club_badge_src": null,
        "entry": 1119920,
        "entry_name": "svallball",
        "event_total": 75,
        "has_played": true,
        "id": 7758416,
        "last_rank": 82664,
        "player_name": "Leon Svalander",
        "rank": 55156,
        "rank_sort": 55183,
        "total": 2349
      },
      {
        "club_badge_src": null,
        "entry": 1158983,
        "entry_name": "Oiled up Oggy",
        "event_total": 59,
        "has_played": true,
        "id": 8038253,
        "last_rank": 59170,
        "player_name": "Mitchell Billyeald",
        "rank": 55156,
        "rank_sort": 55184,
        "total": 2349
      },
      {
        "club_badge_src": null,
        "entry": 1351230,
        "entry_name": "Hovering In The Bush",
        "event_total": 67,
        "has_played": true,
        "id": 9393628,
        "last_rank": 74317,
        "player_name": "Josh Hover",
        "rank": 55156,
        "rank_sort": 55185,
        "total": 2349
      },
      {
        "club_badge_src": null,
        "entry": 1420348,
        "entry_name": "ChickenNuggies",
        "event_total": 61,
        "has_played": true,
        "id": 9889736,
        "last_rank": 62429,
        "player_name": "Patrick Nguyen",
        "rank": 55156,
        "rank_sort": 55186,
        "total": 2349
      },
      {
        "club_badge_src": null,
        "entry": 1500181,
        "entry_name": "Big Red Machine",
        "event_total": 61,
        "has_played": true,
        "id": 10461988,
        "last_rank": 55659,
        "player_name": "Mathew Thomas",
        "rank": 55156,
        "rank_sort": 55187,
        "total": 2349
      },
      {
        "club_badge_src": null,
        "entry": 1631722,
        "entry_name": "lex",
        "event_total": 56,
        "has_played": true,
        "id": 11421078,
        "last_rank": 54065,
        "player_name": "Lex Daplyn",
        "rank": 55156,
        "rank_sort": 55188,
        "total": 2349
      },
      {
        "club_badge_src": null,
        "entry": 1698241,
        "entry_name": "KDB 11",
        "event_total": 54,
        "has_played": true,
        "id": 11894903,
        "last_rank": 44804,
        "player_name": "Karin Doherty-Bach",
        "rank": 55156,
        "rank_sort": 55189,
        "total": 2349
      },
      {
        "club_badge_src": null,
        "entry": 1782192,
        "entry_name": "Adonis FC",
        "event_total": 71,
        "has_played": true,
        "id": 12521430,
        "last_rank": 83018,
        "player_name": "Oswald Tarawally",
        "rank": 55156,
        "rank_sort": 55190,
        "total": 2349
      },
      {
        "club_badge_src": null,
        "entry": 1854989,
        "entry_name": "Avengers",
        "event_total": 72,
        "has_played": true,
        "id": 13054103,
        "last_rank": 85349,
        "player_name": "Ahmed Adel",
        "rank": 55156,
        "rank_sort": 55191,
        "total": 2349
      },
      {
        "club_badge_src": null,
        "entry": 1997872,
        "entry_name": "FC Smythe",
        "event_total": 64,
        "has_played": true,
        "id": 14118778,
        "last_rank": 68107,
        "player_name": "Matthew Smith",
        "rank": 55156,
        "rank_sort": 55192,
        "total": 2349
      },
      {
        "club_badge_src": null,
        "entry": 2068578,
        "entry_name": "Carew's Control",
        "event_total": 59,
        "has_played": true,
        "id": 14663189,
        "last_rank": 59170,
        "player_name": "Sam Bumford",
        "rank": 55156,
        "rank_sort": 55193,
        "total": 2349
      },
      {
        "club_badge_src": null,
        "entry": 2097535,
        "entry_name": "Maguire Masterclass",
        "event_total": 63,
        "has_played": true,
        "id": 14882581,
        "last_rank": 66296,
        "player_name": "David Olausson",
        "rank": 55156,
        "rank_sort": 55194,
        "total": 2349
      },
      {
        "club_badge_src": null,
        "entry": 2224693,
        "entry_name": "AFM",
        "event_total": 59,
        "has_played": true,
        "id": 15846558,
        "last_rank": 52357,
        "player_name": "Abdelazeim Farag",
        "rank": 55156,
        "rank_sort": 55195,
        "total": 2349
      },
      {
        "club_badge_src": "https://fantasy.premierleague.com/gcs/plfpl-production-adobe-approved/plfpl-production/2243976/1e7eeb90-0d8c-4c6a-977d-c5961ed5f275.png",
        "entry": 2243976,
        "entry_name": "Series Play Hub",
        "event_total": 60,
        "has_played": true,
        "id": 15987227,
        "last_rank": 60827,
        "player_name": "Series Baj",
        "rank": 55156,
        "rank_sort": 55196,
        "total": 2349
      },
      {
        "club_badge_src": null,
        "entry": 2311717,
        "entry_name": "Lord of the Ings",
        "event_total": 57,
        "has_played": true,
        "id": 16489747,
        "last_rank": 55747,
        "player_name": "Ethan Tanner",
        "rank": 55156,
        "rank_sort": 55197,
        "total": 2349
      },
      {
        "club_badge_src": null,
        "entry": 2395148,
        "entry_name": "DEVILISH",
        "event_total": 57,
        "has_played": true,
        "id": 17110468,
        "last_rank": 49207,
        "player_name": "suthan Rao",
        "rank": 55156,
        "rank_sort": 55198,
        "total": 2349
      },
      {
        "club_badge_src": null,
        "entry": 2696392,
        "entry_name": "Slay-la",
        "event_total": 55,
        "has_played": true,
        "id": 19396105,
        "last_rank": 52461,
        "player_name": "Nabeel Rahman",
        "rank": 55156,
        "rank_sort": 55199,
        "total": 2349
      },
      {
        "club_badge_src": null,
        "entry": 2753118,
        "entry_name": "BODA",
        "event_total": 67,
        "has_played": true,
        "id": 20025763,
        "last_rank": 58911,
        "player_name": "Abdelrahman Hany",
        "rank": 55156,
        "rank_sort": 55200,
        "total": 2349
      }
    ]
  }
}