{
  "last_updated_data": "2026-05-24T23:28:17Z",
  "league": {
    "admin_entry": null,
    "closed": false,
    "code_privacy": "p",
    "created": "2025-07-20T23:14:33.933835Z",
    "cup_league": 2815434,
    "has_cup": true,
    "id": 314,
    "league_type": "s",
    "max_entries": null,
    "name": "Overall",
    "rank": null,
    "scoring": "c",
    "start_event": 1
  },
  "new_entries": {
    "has_next": false,
    "page": 1,
    "results": []
  },
  "standings": {
    "has_next": true,
    "page": 574,
    "results": [
      {
        "club_badge_src": null,
        "entry": 2240508,
        "entry_name": "Rice, Rice, Baby",
        "event_total": 54,
        "has_played": true,
        "id": 15961826,
        "last_rank": 22216,
        "player_name": "Anaay Vora",
        "rank": 28631,
        "rank_sort": 28651,
        "total": 2370
      },
      {
        "club_badge_src": null,
        "entry": 3264201,
        "entry_name": "\u0627\u0644\u062d\u0631\u064a\u0629 \u0644\u0641\u0644\u0633\u0637\u064a\u0646",
        "event_total": 52,
        "has_played": true,
        "id": 24153526,
        "last_rank": 17802,
        "player_name": "momtaz Lbatal",
        "rank": 28631,
        "rank_sort": 28652,
        "total": 2370
      },
      {
        "club_badge_src": null,
        "entry": 3341607,
        "entry_name": "Viktor-y FC",
        "event_total": 52,
        "has_played": true,
        "id": 24785567,
        "last_rank": 23857,
        "player_name": "Ian Davin",
        "rank": 28631,
        "rank_sort": 28653,
        "total": 2370
      },
      {
        "club_badge_src": null,
        "entry": 3723505,
        "entry_name": "mahmoud elmetwaly",
        "event_total": 55,
        "has_played": true,
        "id": 27788616,
        "last_rank": 26475,
        "player_name": "Mahmod Khalid",
        "rank": 28631,
        "rank_sort": 28654,
        "total": 2370
      },
      {
        "club_badge_src": null,
        "entry": 4020768,
        "entry_name": "Red Titans FC",
        "event_total": 61,
        "has_played": true,
        "id": 30303831,
        "last_rank": 32491,
        "player_name": "Htet Myat Htun",
        "rank": 28631,
        "rank_sort": 28655,
        "total": 2370
      },
      {
        "club_badge_src": null,
        "entry": 4285427,
        "entry_name": "Pils XI",
        "event_total": 67,
        "has_played": true,
        "id": 32504554,
        "last_rank": 34682,
        "player_name": "Nikolai Birkeli",
        "rank": 28631,
        "rank_sort": 28656,
        "total": 2370
      },
      {
        "club_badge_src": "https://fantasy.premierleague.com/gcs/plfpl-production-adobe-approved/plfpl-production/4430170/cbb54679-39f8-4324-85ff-4f66448fd9ae.png",
        "entry": 4430170,
        "entry_name": "Los Pollos Hermanos",
        "event_total": 71,
        "has_played": true,
        "id": 33724300,
        "last_rank": 44804,
        "player_name": "Tyler Botha",
        "rank": 28631,
        "rank_sort": 28657,
        "total": 2370
      },
      {
        "club_badge_src": null,
        "entry": 4634938,
        "entry_name": "Tosin Vigorously",
        "event_total": 44,
        "has_played": true,
        "id": 35443261,
        "last_rank": 17878,
        "player_name": "Tom Matthews",
        "rank": 28631,
        "rank_sort": 28658,
        "total": 2370
      },
      {
        "club_badge_src": null,
        "entry": 5024949,
        "entry_name": "How Nmecha mother",
        "event_total": 49,
        "has_played": true,
        "id": 38808651,
        "last_rank": 21486,
        "player_name": "William Reid",
        "rank": 28631,
        "rank_sort": 28659,
        "total": 2370
      },
      {
        "club_badge_src": null,
        "entry": 5629922,
        "entry_name": "Barnstoneworth",
        "event_total": 62,
        "has_played": true,
        "id": 44016729,
        "last_rank": 33695,
        "player_name": "Kevin Smith",
        "rank": 28631,
        "rank_sort": 28660,
        "total": 2370
      },
      {
        "club_badge_src": null,
        "entry": 6069892,
        "entry_name": "Lone \ufffd Wolf",
        "event_total": 66,
        "has_played": true,
        "id": 47913752,
        "last_rank": 29199,
        "player_name": "Chris Snow",
        "rank": 28631,
        "rank_sort": 28661,
        "total": 2370
      },
      {
        "club_badge_src": null,
        "entry": 6187572,
        "entry_name": "Cheddars FC",
        "event_total": 66,
        "has_played": true,
        "id": 48937810,
        "last_rank": 38267,
        "player_name": "Mike Matthews",
        "rank": 28631,
        "rank_sort": 28662,
        "total": 2370
      },
      {
        "club_badge_src": null,
        "entry": 6544931,
        "entry_name": "Kopend",
        "event_total": 59,
        "has_played": true,
        "id": 52222123,
        "last_rank": 30325,
        "player_name": "Amar Mehta",
        "rank": 28631,
        "rank_sort": 28663,
        "total": 2370
      },
      {
        "club_badge_src": null,
        "entry": 7808668,
        "entry_name": "Solo il Gala",
        "event_total": 63,
        "has_played": true,
        "id": 64151452,
        "last_rank": 26345,
        "player_name": "Ferhat Kibar",
        "rank": 28631,
        "rank_sort": 28664,
        "total": 2370
      },
      {
        "club_badge_src": null,
        "entry": 9246450,
        "entry_name": "Sheperds Fc",
        "event_total": 60,
        "has_played": true,
        "id": 77887637,
        "last_rank": 23656,
        "player_name": "Ndumiso Malendi",
        "rank": 28631,
        "rank_sort": 28665,
        "total": 2370
      },
      {
        "club_badge_src": null,
        "entry": 2194,
        "entry_name": "10",
        "event_total": 67,
        "has_played": true,
        "id": 12234,
        "last_rank": 39510,
        "player_name": "Omar alnesafi",
        "rank": 28666,
        "rank_sort": 28666,
        "total": 2370
      },
      {
        "club_badge_src": null,
        "entry": 2412,
        "entry_name": "ItIsFootieNotSaka",
        "event_total": 60,
        "has_played": true,
        "id": 13454,
        "last_rank": 23748,
        "player_name": "Darren Holliday",
        "rank": 28666,
        "rank_sort": 28667,
        "total": 2370
      },
      {
        "club_badge_src": null,
        "entry": 15523,
        "entry_name": "Kop Troops",
        "event_total": 62,
        "has_played": true,
        "id": 95317,
        "last_rank": 29333,
        "player_name": "Ben Nicholson",
        "rank": 28666,
        "rank_sort": 28668,
        "total": 2370
      },
      {
        "club_badge_src": null,
        "entry": 24521,
        "entry_name": "Desha",
        "event_total": 63,
        "has_played": true,
        "id": 154805,
        "last_rank": 34749,
        "player_name": "Mostafa rashed",
        "rank": 28666,
        "rank_sort": 28669,
        "total": 2370
      },
      {
        "club_badge_src": null,
        "entry": 89396,
        "entry_name": "First the Wirtz",
        "event_total": 45,
        "has_played": true,
        "id": 583552,
        "last_rank": 15952,
        "player_name": "Tony Cassidy",
        "rank": 28666,
        "rank_sort": 28670,
        "total": 2370
      },
      {
        "club_badge_src": null,
        "entry": 92013,
        "entry_name": "Conquerrors",
        "event_total": 46,
        "has_played": true,
        "id": 601152,
        "last_rank": 19302,
        "player_name": "Mohamed Ehab",
        "rank": 28666,
        "rank_sort": 28671,
        "total": 2370
      },
      {
        "club_badge_src": null,
        "entry": 96908,
        "entry_name": "PowerHouse FC",
        "event_total": 66,
        "has_played": true,
        "id": 633002,
        "last_rank": 33651,
        "player_name": "Lokesh Raghupathy",
        "rank": 28666,
        "rank_sort": 28672,
        "total": 2370
      },
      {
        "club_badge_src": null,
        "entry": 104257,
        "entry_name": "HFC United",
        "event_total": 62,
        "has_played": true,
        "id": 680150,
        "last_rank": 29333,
        "player_name": "A Hung",
        "rank": 28666,
        "rank_sort": 28673,
        "total": 2370
      },
      {
        "club_badge_src": null,
        "entry": 124285,
        "entry_name": "Mbemuo number 5",
        "event_total": 70,
        "has_played": true,
        "id": 810658,
        "last_rank": 43570,
        "player_name": "Richard O'Neill",
        "rank": 28666,
        "rank_sort": 28674,
        "total": 2370
      },
      {
        "club_badge_src": null,
        "entry": 219314,
        "entry_name": "Oldstones",
        "event_total": 62,
        "has_played": true,
        "id": 1458497,
        "last_rank": 29333,
        "player_name": "Patrick Stanley",
        "rank": 28666,
        "rank_sort": 28675,
        "total": 2370
      },
      {
        "club_badge_src": "https://fantasy.premierleague.com/gcs/plfpl-production-adobe-approved/plfpl-production/313412/145565dc-f9f8-4fe7-8a78-062ad3939405.png",
        "entry": 313412,
        "entry_name": "VSE V POTOKE",
        "event_total": 55,
        "has_played": true,
        "id": 2099905,
        "last_rank": 17150,
        "player_name": "Vadim Gerasimov",
        "rank": 28666,
        "rank_sort": 28676,
        "total": 2370
      },
      {
        "club_badge_src": null,
        "entry": 359792,
        "entry_name": "AfraXI",
        "event_total": 62,
        "has_played": true,
        "id": 2407599,
        "last_rank": 33695,
        "player_name": "Afra D'Souza",
        "rank": 28666,
        "rank_sort": 28677,
        "total": 2370
      },
      {
        "club_badge_src": null,
        "entry": 387251,
        "entry_name": "McGinn and Tonic",
        "event_total": 70,
        "has_played": true,
        "id": 2597871,
        "last_rank": 43570,
        "player_name": "Eduardo Duarte",
        "rank": 28666,
        "rank_sort": 28678,
        "total": 2370
      },
      {
        "club_badge_src": null,
        "entry": 490702,
        "entry_name": "H.A.K",
        "event_total": 67,
        "has_played": true,
        "id": 3293929,
        "last_rank": 34749,
        "player_name": "Johan Heinonen",
        "rank": 28666,
        "rank_sort": 28679,
        "total": 2370
      },
      {
        "club_badge_src": null,
        "entry": 615499,
        "entry_name": "U\u010de Boyz",
        "event_total": 57,
        "has_played": true,
        "id": 4158871,
        "last_rank": 28425,
        "player_name": "Enej Konec",
        "rank": 28666,
        "rank_sort": 28680,
        "total": 2370
      },
      {
        "club_badge_src": "https://fantasy.premierleague.com/gcs/plfpl-production-adobe-approved/plfpl-production/630598/f0db7532-836c-4adc-bbd0-8e600e87a487.png",
        "entry": 630598,
        "entry_name": "Life's a Mitch",
        "event_total": 66,
        "has_played": true,
        "id": 4261206,
        "last_rank": 38391,
        "player_name": "Dan Mitchard",
        "rank": 28666,
        "rank_sort": 28681,
        "total": 2370
      },
      {
        "club_badge_src": null,
        "entry": 772213,
        "entry_name": "Saints Row",
        "event_total": 32,
        "has_played": true,
        "id": 5268176,
        "last_rank": 11098,
        "player_name": "Callum Sainty",
        "rank": 28666,
        "rank_sort": 28682,
        "total": 2370
      },
      {
        "club_badge_src": null,
        "entry": 1475096,
        "entry_name": "Lionhearts XVKnights",
        "event_total": 59,
        "has_played": true,
        "id": 10282169,
        "last_rank": 26475,
        "player_name": "Manik Kapoor",
        "rank": 28666,
        "rank_sort": 28683,
        "total": 2370
      },
      {
        "club_badge_src": null,
        "entry": 1812195,
        "entry_name": "Tam\u0253\u013e\u0104 fc",
        "event_total": 63,
        "has_played": true,
        "id": 12742287,
        "last_rank": 30325,
        "player_name": "Dennis Losike",
        "rank": 28666,
        "rank_sort": 28684,
        "total": 2370
      },
      {
        "club_badge_src": null,
        "entry": 2419013,
        "entry_name": "Rooney.is.god",
        "event_total": 62,
        "has_played": true,
        "id": 17293331,
        "last_rank": 33651,
        "player_name": "Bhavesh Jindal",
        "rank": 28666,
        "rank_sort": 28685,
        "total": 2370
      },
      {
        "club_badge_src": null,
        "entry": 2713362,
        "entry_name": "Gyokersaurus Rex",
        "event_total": 66,
        "has_played": true,
        "id": 19522567,
        "last_rank": 38391,
        "player_name": "Ian Staveley",
        "rank": 28666,
        "rank_sort": 28686,
        "total": 2370
      },
      {
        "club_badge_src": null,
        "entry": 2918749,
        "entry_name": "Tolly Army",
        "event_total": 66,
        "has_played": true,
        "id": 21394060,
        "last_rank": 38391,
        "player_name": "Jim Williscroft",
        "rank": 28666,
        "rank_sort": 28687,
        "total": 2370
      },
      {
        "club_badge_src": "https://fantasy.premierleague.com/gcs/plfpl-production-adobe-approved/plfpl-production/3161873/5cac11fc-1815-475d-8ed4-cf9dbadc7d35.png",
        "entry": 3161873,
        "entry_name": "Hammarstr\u00f6m Trading",
        "event_total": 60,
        "has_played": true,
        "id": 23357851,
        "last_rank": 27402,
        "player_name": "Tobias Halvarsson",
        "rank": 28666,
        "rank_sort": 28688,
        "total": 2370
      },
      {
        "club_badge_src": null,
        "entry": 3247446,
        "entry_name": "Royal Blue Mersey",
        "event_total": 71,
        "has_played": true,
        "id": 24024948,
        "last_rank": 39585,
        "player_name": "Phil Cotterell",
        "rank": 28666,
        "rank_sort": 28689,
        "total": 2370
      },
      {
        "club_badge_src": null,
        "entry": 3407675,
        "entry_name": "Hoytspur FC",
        "event_total": 77,
        "has_played": true,
        "id": 25306435,
        "last_rank": 47722,
        "player_name": "Peter Hoyt",
        "rank": 28666,
        "rank_sort": 28690,
        "total": 2370
      },
      {
        "club_badge_src": null,
        "entry": 3439980,
        "entry_name": "MIUMIG FPL",
        "event_total": 52,
        "has_played": true,
        "id": 25556810,
        "last_rank": 20727,
        "player_name": "Kriangsak Kobkeratipong",
        "rank": 28666,
        "rank_sort": 28691,
        "total": 2370
      },
      {
        "club_badge_src": null,
        "entry": 4264520,
        "entry_name": "Farken Rubbish",
        "event_total": 57,
        "has_played": true,
        "id": 32335365,
        "last_rank": 24680,
        "player_name": "Neil Orcherton",
        "rank": 28666,
        "rank_sort": 28692,
        "total": 2370
      },
      {
        "club_badge_src": "https://fantasy.premierleague.com/gcs/plfpl-production-adobe-approved/plfpl-production/4368533/10cd8f66-1248-49d5-b468-a06a41f3988d.png",
        "entry": 4368533,
        "entry_name": "TeamBesvim",
        "event_total": 52,
        "has_played": true,
        "id": 33186572,
        "last_rank": 23881,
        "player_name": "Kristian Silseth",
        "rank": 28666,
        "rank_sort": 28693,
        "total": 2370
      },
      {
        "club_badge_src": null,
        "entry": 4800929,
        "entry_name": "CHAMPION OF ASIA",
        "event_total": 70,
        "has_played": true,
        "id": 36964180,
        "last_rank": 43512,
        "player_name": "Yasser Aseeri",
        "rank": 28666,
        "rank_sort": 28694,
        "total": 2370
      },
      {
        "club_badge_src": "https://fantasy.premierleague.com/gcs/plfpl-production-adobe-approved/plfpl-production/4892005/74bc3527-e4c1-4280-ad61-4ebe0f910fbb.png",
        "entry": 4892005,
        "entry_name": "The Greyhounds",
        "event_total": 66,
        "has_played": true,
        "id": 37718343,
        "last_rank": 33651,
        "player_name": "Jake Lane",
        "rank": 28666,
        "rank_sort": 28695,
        "total": 2370
      },
      {
        "club_badge_src": null,
        "entry": 5042606,
        "entry_name": "CELINO",
        "event_total": 44,
        "has_played": true,
        "id": 38951416,
        "last_rank": 15319,
        "player_name": "KloppolK JB",
        "rank": 28666,
        "rank_sort": 28696,
        "total": 2370
      },
      {
        "club_badge_src": null,
        "entry": 94995,
        "entry_name": "Tufte Rovers",
        "event_total": 64,
        "has_played": true,
        "id": 620756,
        "last_rank": 35998,
        "player_name": "Kenneth H",
        "rank": 28697,
        "rank_sort": 28697,
        "total": 2370
      },
      {
        "club_badge_src": "https://fantasy.premierleague.com/gcs/plfpl-production-adobe-approved/plfpl-production/143687/7fc80e69-8420-4670-bc91-c536f540aecf.png",
        "entry": 143687,
        "entry_name": "Gazathinaikos FC",
        "event_total": 66,
        "has_played": true,
        "id": 940127,
        "last_rank": 29333,
        "player_name": "Gareth Sutcliffe",
        "rank": 28697,
        "rank_sort": 28698,
        "total": 2370
      },
      {
        "club_badge_src": null,
        "entry": 222682,
        "entry_name": "The Famous RFC",
        "event_total": 43,
        "has_played": true,
        "id": 1481222,
        "last_rank": 14761,
        "player_name": "Graeme Adams",
        "rank": 28697,
        "rank_sort": 28699,
        "total": 2370
      },
      {
        "club_badge_src": null,
        "entry": 471643,
        "entry_name": "legends",
        "event_total": 53,
        "has_played": true,
        "id": 3166479,
        "last_rank": 21510,
        "player_name": "AHMED MEDO",
        "rank": 28697,
        "rank_sort": 28700,
        "total": 2370
      }
    ]
  }
}