{
  "last_updated_data": "2026-05-24T23:28:17Z",
  "league": {
    "admin_entry": null,
    "closed": false,
    "code_privacy": "p",
    "created": "2025-07-20T23:14:33.933835Z",
    "cup_league": 2815434,
    "has_cup": true,
    "id": 314,
    "league_type": "s",
    "max_entries": null,
    "name": "Overall",
    "rank": null,
    "scoring": "c",
    "start_event": 1
  },
  "new_entries": {
    "has_next": false,
    "page": 1,
    "results": []
  },
  "standings": {
    "has_next": true,
    "page": 692,
    "results": [
      {
        "club_badge_src": null,
        "entry": 4083970,
        "entry_name": "Toter",
        "event_total": 59,
        "has_played": true,
        "id": 30831805,
        "last_rank": 31995,
        "player_name": "Reuben Wheeler",
        "rank": 34455,
        "rank_sort": 34551,
        "total": 2364
      },
      {
        "club_badge_src": "https://fantasy.premierleague.com/gcs/plfpl-production-adobe-approved/plfpl-production/4110196/c0e2e3f4-037e-41ee-81f1-86193abbf6af.png",
        "entry": 4110196,
        "entry_name": "FC XG",
        "event_total": 55,
        "has_played": true,
        "id": 31040690,
        "last_rank": 27976,
        "player_name": "Khatibe Hbirkou",
        "rank": 34455,
        "rank_sort": 34552,
        "total": 2364
      },
      {
        "club_badge_src": "https://fantasy.premierleague.com/gcs/plfpl-production-adobe-approved/plfpl-production/4124502/bb6cbc96-5a45-4d10-b252-d0614e6b4ee1.png",
        "entry": 4124502,
        "entry_name": "Roughty Rovers",
        "event_total": 60,
        "has_played": true,
        "id": 31162179,
        "last_rank": 33147,
        "player_name": "Jason O Shea",
        "rank": 34455,
        "rank_sort": 34553,
        "total": 2364
      },
      {
        "club_badge_src": null,
        "entry": 4239093,
        "entry_name": "Kissapallot",
        "event_total": 61,
        "has_played": true,
        "id": 32126238,
        "last_rank": 39246,
        "player_name": "Esa Ahtiainen",
        "rank": 34455,
        "rank_sort": 34554,
        "total": 2364
      },
      {
        "club_badge_src": null,
        "entry": 4271211,
        "entry_name": "Redeemed",
        "event_total": 66,
        "has_played": true,
        "id": 32389444,
        "last_rank": 45927,
        "player_name": "Josh Russam",
        "rank": 34455,
        "rank_sort": 34555,
        "total": 2364
      },
      {
        "club_badge_src": null,
        "entry": 4352324,
        "entry_name": "Taking The Biss",
        "event_total": 58,
        "has_played": true,
        "id": 33050565,
        "last_rank": 26827,
        "player_name": "Kik\u00e9 Valladares",
        "rank": 34455,
        "rank_sort": 34556,
        "total": 2364
      },
      {
        "club_badge_src": null,
        "entry": 4374322,
        "entry_name": "Ray Gunners",
        "event_total": 60,
        "has_played": true,
        "id": 33236420,
        "last_rank": 37589,
        "player_name": "Tom Dickinson",
        "rank": 34455,
        "rank_sort": 34557,
        "total": 2364
      },
      {
        "club_badge_src": null,
        "entry": 4432100,
        "entry_name": "StreetofSanFranSesko",
        "event_total": 66,
        "has_played": true,
        "id": 33743276,
        "last_rank": 40297,
        "player_name": "Princeworth Sowah",
        "rank": 34455,
        "rank_sort": 34558,
        "total": 2364
      },
      {
        "club_badge_src": null,
        "entry": 4523004,
        "entry_name": "Charli xGx",
        "event_total": 70,
        "has_played": true,
        "id": 34495377,
        "last_rank": 51720,
        "player_name": "Brandon Peat",
        "rank": 34455,
        "rank_sort": 34559,
        "total": 2364
      },
      {
        "club_badge_src": null,
        "entry": 4608509,
        "entry_name": "SaHu",
        "event_total": 49,
        "has_played": true,
        "id": 35212448,
        "last_rank": 26088,
        "player_name": "Lasse Huttunen",
        "rank": 34455,
        "rank_sort": 34560,
        "total": 2364
      },
      {
        "club_badge_src": null,
        "entry": 4655940,
        "entry_name": "kali fc",
        "event_total": 63,
        "has_played": true,
        "id": 35634182,
        "last_rank": 41617,
        "player_name": "daniel whitefield",
        "rank": 34455,
        "rank_sort": 34561,
        "total": 2364
      },
      {
        "club_badge_src": null,
        "entry": 5052516,
        "entry_name": "Madderzaboxoffrogs",
        "event_total": 63,
        "has_played": true,
        "id": 39037907,
        "last_rank": 41824,
        "player_name": "Jack Gene",
        "rank": 34455,
        "rank_sort": 34562,
        "total": 2364
      },
      {
        "club_badge_src": null,
        "entry": 5118896,
        "entry_name": "Sarge's XI",
        "event_total": 68,
        "has_played": true,
        "id": 39577334,
        "last_rank": 48363,
        "player_name": "Joe Sargent",
        "rank": 34455,
        "rank_sort": 34563,
        "total": 2364
      },
      {
        "club_badge_src": null,
        "entry": 5332225,
        "entry_name": "Athletico Pathetico",
        "event_total": 59,
        "has_played": true,
        "id": 41338259,
        "last_rank": 36831,
        "player_name": "Stephen Reed",
        "rank": 34455,
        "rank_sort": 34564,
        "total": 2364
      },
      {
        "club_badge_src": null,
        "entry": 5408962,
        "entry_name": "Salah-vation Army",
        "event_total": 59,
        "has_played": true,
        "id": 42061173,
        "last_rank": 36831,
        "player_name": "CRAIG HATCHARD",
        "rank": 34455,
        "rank_sort": 34565,
        "total": 2364
      },
      {
        "club_badge_src": null,
        "entry": 5451291,
        "entry_name": "Inter Miami",
        "event_total": 67,
        "has_played": true,
        "id": 42419482,
        "last_rank": 46839,
        "player_name": "Asil Alseari",
        "rank": 34455,
        "rank_sort": 34566,
        "total": 2364
      },
      {
        "club_badge_src": "https://fantasy.premierleague.com/gcs/plfpl-production-adobe-approved/plfpl-production/5502732/ab7fb139-bfed-47af-94f8-236362f76b43.png",
        "entry": 5502732,
        "entry_name": "Cochrane FC",
        "event_total": 59,
        "has_played": true,
        "id": 42878213,
        "last_rank": 36831,
        "player_name": "Jordan Grantham",
        "rank": 34455,
        "rank_sort": 34567,
        "total": 2364
      },
      {
        "club_badge_src": null,
        "entry": 5545303,
        "entry_name": "23grafite9dzeko",
        "event_total": 67,
        "has_played": true,
        "id": 43273750,
        "last_rank": 41617,
        "player_name": "Filip Marinovi\u0107",
        "rank": 34455,
        "rank_sort": 34568,
        "total": 2364
      },
      {
        "club_badge_src": null,
        "entry": 5600689,
        "entry_name": "Change Name",
        "event_total": 44,
        "has_played": true,
        "id": 43762368,
        "last_rank": 22154,
        "player_name": "Adrian Valencia",
        "rank": 34455,
        "rank_sort": 34569,
        "total": 2364
      },
      {
        "club_badge_src": null,
        "entry": 5689354,
        "entry_name": "itsa horsham tractor",
        "event_total": 66,
        "has_played": true,
        "id": 44536467,
        "last_rank": 40297,
        "player_name": "David Johnson",
        "rank": 34455,
        "rank_sort": 34570,
        "total": 2364
      },
      {
        "club_badge_src": null,
        "entry": 5694170,
        "entry_name": "Pep Talk FC",
        "event_total": 76,
        "has_played": true,
        "id": 44577645,
        "last_rank": 61950,
        "player_name": "Nipun Bindra",
        "rank": 34455,
        "rank_sort": 34571,
        "total": 2364
      },
      {
        "club_badge_src": null,
        "entry": 5759576,
        "entry_name": "Panic at the Sesko",
        "event_total": 66,
        "has_played": true,
        "id": 45148532,
        "last_rank": 45927,
        "player_name": "Conall Lyons",
        "rank": 34455,
        "rank_sort": 34572,
        "total": 2364
      },
      {
        "club_badge_src": null,
        "entry": 5774029,
        "entry_name": "Unmanageable",
        "event_total": 65,
        "has_played": true,
        "id": 45270928,
        "last_rank": 39023,
        "player_name": "Daniel Johns",
        "rank": 34455,
        "rank_sort": 34573,
        "total": 2364
      },
      {
        "club_badge_src": null,
        "entry": 5802052,
        "entry_name": "Ufo Predators",
        "event_total": 67,
        "has_played": true,
        "id": 45517664,
        "last_rank": 47417,
        "player_name": "Emon Shahariar",
        "rank": 34455,
        "rank_sort": 34574,
        "total": 2364
      },
      {
        "club_badge_src": null,
        "entry": 5814887,
        "entry_name": "OBP United",
        "event_total": 61,
        "has_played": true,
        "id": 45628259,
        "last_rank": 39246,
        "player_name": "Stephen Grindlay",
        "rank": 34455,
        "rank_sort": 34575,
        "total": 2364
      },
      {
        "club_badge_src": "https://fantasy.premierleague.com/gcs/plfpl-production-adobe-approved/plfpl-production/5823336/3ca65a2e-952b-4ffd-aa4e-da566e1c298d.png",
        "entry": 5823336,
        "entry_name": "Shawn Fc",
        "event_total": 64,
        "has_played": true,
        "id": 45701357,
        "last_rank": 43168,
        "player_name": "Ndumbi John",
        "rank": 34455,
        "rank_sort": 34576,
        "total": 2364
      },
      {
        "club_badge_src": null,
        "entry": 5896020,
        "entry_name": "AFC Erosion",
        "event_total": 73,
        "has_played": true,
        "id": 46320031,
        "last_rank": 57200,
        "player_name": "Rob Hall",
        "rank": 34455,
        "rank_sort": 34577,
        "total": 2364
      },
      {
        "club_badge_src": null,
        "entry": 5968297,
        "entry_name": "1st place",
        "event_total": 43,
        "has_played": true,
        "id": 46960042,
        "last_rank": 21301,
        "player_name": "Frankie Morton",
        "rank": 34455,
        "rank_sort": 34578,
        "total": 2364
      },
      {
        "club_badge_src": null,
        "entry": 5972485,
        "entry_name": "Power Reijnders",
        "event_total": 39,
        "has_played": true,
        "id": 47003727,
        "last_rank": 18377,
        "player_name": "William Lewis",
        "rank": 34455,
        "rank_sort": 34579,
        "total": 2364
      },
      {
        "club_badge_src": null,
        "entry": 5979298,
        "entry_name": "50 Shades O'Shea",
        "event_total": 61,
        "has_played": true,
        "id": 47077625,
        "last_rank": 39246,
        "player_name": "Dan Kay",
        "rank": 34455,
        "rank_sort": 34580,
        "total": 2364
      },
      {
        "club_badge_src": null,
        "entry": 6194864,
        "entry_name": "Safe ta yaro ce",
        "event_total": 70,
        "has_played": true,
        "id": 49001011,
        "last_rank": 51720,
        "player_name": "Muhammad Sambo",
        "rank": 34455,
        "rank_sort": 34581,
        "total": 2364
      },
      {
        "club_badge_src": null,
        "entry": 6339081,
        "entry_name": "Young Worker",
        "event_total": 61,
        "has_played": true,
        "id": 50384082,
        "last_rank": 39246,
        "player_name": "Nikola Jancic",
        "rank": 34455,
        "rank_sort": 34582,
        "total": 2364
      },
      {
        "club_badge_src": null,
        "entry": 6362714,
        "entry_name": "Miltons gubbar",
        "event_total": 48,
        "has_played": true,
        "id": 50591212,
        "last_rank": 25330,
        "player_name": "Milton E",
        "rank": 34455,
        "rank_sort": 34583,
        "total": 2364
      },
      {
        "club_badge_src": null,
        "entry": 6418516,
        "entry_name": "2 Girl Wan-Bissaka",
        "event_total": 39,
        "has_played": true,
        "id": 51084386,
        "last_rank": 15694,
        "player_name": "fabio camagni",
        "rank": 34455,
        "rank_sort": 34584,
        "total": 2364
      },
      {
        "club_badge_src": null,
        "entry": 6549977,
        "entry_name": "Spooky",
        "event_total": 68,
        "has_played": true,
        "id": 52267234,
        "last_rank": 48363,
        "player_name": "Abel Woldu",
        "rank": 34455,
        "rank_sort": 34585,
        "total": 2364
      },
      {
        "club_badge_src": null,
        "entry": 6804410,
        "entry_name": "Richies Rovers",
        "event_total": 56,
        "has_played": true,
        "id": 54493030,
        "last_rank": 33332,
        "player_name": "Richie Stokes",
        "rank": 34455,
        "rank_sort": 34586,
        "total": 2364
      },
      {
        "club_badge_src": null,
        "entry": 6997195,
        "entry_name": "fc yellowfront",
        "event_total": 50,
        "has_played": true,
        "id": 56175853,
        "last_rank": 23522,
        "player_name": "Filip Lyden",
        "rank": 34455,
        "rank_sort": 34587,
        "total": 2364
      },
      {
        "club_badge_src": "https://fantasy.premierleague.com/gcs/plfpl-production-adobe-approved/plfpl-production/7301542/0069abe9-59ec-41a8-a503-ee8f4deafcad.png",
        "entry": 7301542,
        "entry_name": "Navnetvarforlangt",
        "event_total": 51,
        "has_played": true,
        "id": 59090739,
        "last_rank": 28150,
        "player_name": "Geir Svensbraaten",
        "rank": 34455,
        "rank_sort": 34588,
        "total": 2364
      },
      {
        "club_badge_src": null,
        "entry": 7520285,
        "entry_name": "OpSoccerballje",
        "event_total": 69,
        "has_played": true,
        "id": 61525214,
        "last_rank": 49880,
        "player_name": "A. Legend",
        "rank": 34455,
        "rank_sort": 34589,
        "total": 2364
      },
      {
        "club_badge_src": null,
        "entry": 7523978,
        "entry_name": "Deptford Dodgers",
        "event_total": 54,
        "has_played": true,
        "id": 61568771,
        "last_rank": 31125,
        "player_name": "Paul Edwards",
        "rank": 34455,
        "rank_sort": 34590,
        "total": 2364
      },
      {
        "club_badge_src": null,
        "entry": 7736636,
        "entry_name": "Samito",
        "event_total": 36,
        "has_played": true,
        "id": 63500908,
        "last_rank": 16320,
        "player_name": "Samuel Levinsen",
        "rank": 34455,
        "rank_sort": 34591,
        "total": 2364
      },
      {
        "club_badge_src": null,
        "entry": 7767567,
        "entry_name": "Oddbodd",
        "event_total": 52,
        "has_played": true,
        "id": 63781063,
        "last_rank": 25172,
        "player_name": "Dieter Wakeling",
        "rank": 34455,
        "rank_sort": 34592,
        "total": 2364
      },
      {
        "club_badge_src": null,
        "entry": 7914593,
        "entry_name": "Moyeses Boyses",
        "event_total": 79,
        "has_played": true,
        "id": 65120240,
        "last_rank": 67695,
        "player_name": "David Wraith",
        "rank": 34455,
        "rank_sort": 34593,
        "total": 2364
      },
      {
        "club_badge_src": null,
        "entry": 8031196,
        "entry_name": "FCMZ",
        "event_total": 54,
        "has_played": true,
        "id": 66166429,
        "last_rank": 31125,
        "player_name": "Anton Saienko",
        "rank": 34455,
        "rank_sort": 34594,
        "total": 2364
      },
      {
        "club_badge_src": "https://fantasy.premierleague.com/gcs/plfpl-production-adobe-approved/plfpl-production/8330042/c226cafd-d06d-40ae-b637-9960c56d032b.png",
        "entry": 8330042,
        "entry_name": "Team Tinks",
        "event_total": 56,
        "has_played": true,
        "id": 69015509,
        "last_rank": 33147,
        "player_name": "Emma Tyrrell",
        "rank": 34455,
        "rank_sort": 34595,
        "total": 2364
      },
      {
        "club_badge_src": "https://fantasy.premierleague.com/gcs/plfpl-production-adobe-approved/plfpl-production/8515144/56bd21a2-59ec-44f2-a340-8ce221d06a8d.png",
        "entry": 8515144,
        "entry_name": "GoldenGrealicious",
        "event_total": 65,
        "has_played": true,
        "id": 70784334,
        "last_rank": 39023,
        "player_name": "Fred Ross",
        "rank": 34455,
        "rank_sort": 34596,
        "total": 2364
      },
      {
        "club_badge_src": null,
        "entry": 8803425,
        "entry_name": "RangeLife FC",
        "event_total": 68,
        "has_played": true,
        "id": 73577811,
        "last_rank": 42940,
        "player_name": "Al Tormej",
        "rank": 34455,
        "rank_sort": 34597,
        "total": 2364
      },
      {
        "club_badge_src": null,
        "entry": 8835300,
        "entry_name": "Manchester City",
        "event_total": 68,
        "has_played": true,
        "id": 73883985,
        "last_rank": 42940,
        "player_name": "Ahmed Mohamed",
        "rank": 34455,
        "rank_sort": 34598,
        "total": 2364
      },
      {
        "club_badge_src": "https://fantasy.premierleague.com/gcs/plfpl-production-adobe-approved/plfpl-production/8693/b8caa11a-0d45-4118-ac32-f137b6a82b89.png",
        "entry": 8693,
        "entry_name": "BK T\u00e5fjut",
        "event_total": 64,
        "has_played": true,
        "id": 50682,
        "last_rank": 38016,
        "player_name": "Lukas Totschnig",
        "rank": 34599,
        "rank_sort": 34599,
        "total": 2364
      },
      {
        "club_badge_src": null,
        "entry": 8999,
        "entry_name": "Ze Dj\u00f6rmans",
        "event_total": 68,
        "has_played": true,
        "id": 52652,
        "last_rank": 49078,
        "player_name": "Petur Arnason",
        "rank": 34599,
        "rank_sort": 34600,
        "total": 2364
      }
    ]
  }
}