{
  "last_updated_data": "2026-05-24T23:28:17Z",
  "league": {
    "admin_entry": null,
    "closed": false,
    "code_privacy": "p",
    "created": "2025-07-20T23:14:33.933835Z",
    "cup_league": 2815434,
    "has_cup": true,
    "id": 314,
    "league_type": "s",
    "max_entries": null,
    "name": "Overall",
    "rank": null,
    "scoring": "c",
    "start_event": 1
  },
  "new_entries": {
    "has_next": false,
    "page": 1,
    "results": []
  },
  "standings": {
    "has_next": true,
    "page": 1463,
    "results": [
      {
        "club_badge_src": null,
        "entry": 1942642,
        "entry_name": "AEGON'S KINGSGUARD",
        "event_total": 56,
        "has_played": true,
        "id": 13703025,
        "last_rank": 64422,
        "player_name": "Thursday Gates",
        "rank": 73063,
        "rank_sort": 73101,
        "total": 2339
      },
      {
        "club_badge_src": null,
        "entry": 1942689,
        "entry_name": "HANSI ZYO",
        "event_total": 56,
        "has_played": true,
        "id": 13703356,
        "last_rank": 64422,
        "player_name": "DUSTIN NUNEZ",
        "rank": 73063,
        "rank_sort": 73102,
        "total": 2339
      },
      {
        "club_badge_src": null,
        "entry": 1943019,
        "entry_name": "J\u00dcRGEN ZYo",
        "event_total": 56,
        "has_played": true,
        "id": 13705738,
        "last_rank": 64422,
        "player_name": "Ziny Yo",
        "rank": 73063,
        "rank_sort": 73103,
        "total": 2339
      },
      {
        "club_badge_src": null,
        "entry": 2012171,
        "entry_name": "X",
        "event_total": 59,
        "has_played": true,
        "id": 14228593,
        "last_rank": 70183,
        "player_name": "Begad X",
        "rank": 73063,
        "rank_sort": 73104,
        "total": 2339
      },
      {
        "club_badge_src": "https://fantasy.premierleague.com/gcs/plfpl-production-adobe-approved/plfpl-production/2164406/84b7290e-68db-4b3a-bb17-a4aa608ff3f3.png",
        "entry": 2164406,
        "entry_name": "StrikeMinded United",
        "event_total": 55,
        "has_played": true,
        "id": 15386600,
        "last_rank": 62724,
        "player_name": "Laurie Wilson",
        "rank": 73063,
        "rank_sort": 73105,
        "total": 2339
      },
      {
        "club_badge_src": null,
        "entry": 2247937,
        "entry_name": "Wills 11",
        "event_total": 61,
        "has_played": true,
        "id": 16017835,
        "last_rank": 74317,
        "player_name": "william lycett",
        "rank": 73063,
        "rank_sort": 73106,
        "total": 2339
      },
      {
        "club_badge_src": "https://fantasy.premierleague.com/gcs/plfpl-production-adobe-approved/plfpl-production/2325702/4091d3cc-ce2d-4547-a900-08870c7ee9f2.png",
        "entry": 2325702,
        "entry_name": "Touf City FC",
        "event_total": 62,
        "has_played": true,
        "id": 16592442,
        "last_rank": 85349,
        "player_name": "Ahmed Mousa",
        "rank": 73063,
        "rank_sort": 73107,
        "total": 2339
      },
      {
        "club_badge_src": "https://fantasy.premierleague.com/gcs/plfpl-production-adobe-approved/plfpl-production/2327144/2c979809-af70-41c9-8c28-6831ff4073b8.png",
        "entry": 2327144,
        "entry_name": "M\u00fam\u00ednsn\u00e1\u00f0i FC",
        "event_total": 68,
        "has_played": true,
        "id": 16603022,
        "last_rank": 100092,
        "player_name": "Sveinbj\u00f6rn Helgason",
        "rank": 73063,
        "rank_sort": 73108,
        "total": 2339
      },
      {
        "club_badge_src": null,
        "entry": 2362939,
        "entry_name": "IT XI",
        "event_total": 74,
        "has_played": true,
        "id": 16864693,
        "last_rank": 116216,
        "player_name": "Ian Teare",
        "rank": 73063,
        "rank_sort": 73109,
        "total": 2339
      },
      {
        "club_badge_src": null,
        "entry": 2396676,
        "entry_name": "Big tom's young lad",
        "event_total": 54,
        "has_played": true,
        "id": 17121800,
        "last_rank": 60933,
        "player_name": "Tony Hession",
        "rank": 73063,
        "rank_sort": 73110,
        "total": 2339
      },
      {
        "club_badge_src": null,
        "entry": 2579903,
        "entry_name": "Kj\u00f8nn\u00f8y IL",
        "event_total": 31,
        "has_played": true,
        "id": 18516983,
        "last_rank": 33729,
        "player_name": "Ivar Kl\u00f8ven",
        "rank": 73063,
        "rank_sort": 73111,
        "total": 2339
      },
      {
        "club_badge_src": null,
        "entry": 2861659,
        "entry_name": "Florian Nitz",
        "event_total": 62,
        "has_played": true,
        "id": 20927226,
        "last_rank": 76474,
        "player_name": "Corey Cameron",
        "rank": 73063,
        "rank_sort": 73112,
        "total": 2339
      },
      {
        "club_badge_src": "https://fantasy.premierleague.com/gcs/plfpl-production-adobe-approved/plfpl-production/3000630/d0752b12-47e6-4325-9c5b-f60f63d74b47.png",
        "entry": 3000630,
        "entry_name": "Liekinheittimet",
        "event_total": 67,
        "has_played": true,
        "id": 22070805,
        "last_rank": 97470,
        "player_name": "Casper Hurri",
        "rank": 73063,
        "rank_sort": 73113,
        "total": 2339
      },
      {
        "club_badge_src": "https://fantasy.premierleague.com/gcs/plfpl-production-adobe-approved/plfpl-production/3076436/21bbdfa1-fc54-42b4-b343-dc0c3fad8190.png",
        "entry": 3076436,
        "entry_name": "Watch Forrest Fly!",
        "event_total": 52,
        "has_played": true,
        "id": 22663612,
        "last_rank": 50772,
        "player_name": "Brian Evans",
        "rank": 73063,
        "rank_sort": 73114,
        "total": 2339
      },
      {
        "club_badge_src": "https://fantasy.premierleague.com/gcs/plfpl-production-adobe-approved/plfpl-production/3096215/e2643089-4f2c-45d5-9a2a-eb68f31871c0.png",
        "entry": 3096215,
        "entry_name": "ErroR^ FC",
        "event_total": 61,
        "has_played": true,
        "id": 22820100,
        "last_rank": 83127,
        "player_name": "Shreyas Kudalkar",
        "rank": 73063,
        "rank_sort": 73115,
        "total": 2339
      },
      {
        "club_badge_src": null,
        "entry": 3214809,
        "entry_name": "Escosolo7",
        "event_total": 52,
        "has_played": true,
        "id": 23768886,
        "last_rank": 64422,
        "player_name": "Emeka Onuorha",
        "rank": 73063,
        "rank_sort": 73116,
        "total": 2339
      },
      {
        "club_badge_src": null,
        "entry": 3518287,
        "entry_name": "Woodlands Wellington",
        "event_total": 48,
        "has_played": true,
        "id": 26181736,
        "last_rank": 57515,
        "player_name": "furnando torres",
        "rank": 73063,
        "rank_sort": 73117,
        "total": 2339
      },
      {
        "club_badge_src": null,
        "entry": 3602059,
        "entry_name": "HS",
        "event_total": 45,
        "has_played": true,
        "id": 26828214,
        "last_rank": 52561,
        "player_name": "Hamed Saleh",
        "rank": 73063,
        "rank_sort": 73118,
        "total": 2339
      },
      {
        "club_badge_src": null,
        "entry": 3630778,
        "entry_name": "Lost Mary C.F",
        "event_total": 72,
        "has_played": true,
        "id": 27055794,
        "last_rank": 99806,
        "player_name": "Mark Porter",
        "rank": 73063,
        "rank_sort": 73119,
        "total": 2339
      },
      {
        "club_badge_src": null,
        "entry": 3704032,
        "entry_name": "Crystal Palastanga",
        "event_total": 62,
        "has_played": true,
        "id": 27636801,
        "last_rank": 76474,
        "player_name": "James Palastanga",
        "rank": 73063,
        "rank_sort": 73120,
        "total": 2339
      },
      {
        "club_badge_src": null,
        "entry": 3752076,
        "entry_name": "Team Zero Stresu",
        "event_total": 62,
        "has_played": true,
        "id": 28013099,
        "last_rank": 85487,
        "player_name": "Damian Surma",
        "rank": 73063,
        "rank_sort": 73121,
        "total": 2339
      },
      {
        "club_badge_src": null,
        "entry": 3752686,
        "entry_name": "Vardyyy",
        "event_total": 59,
        "has_played": true,
        "id": 28017595,
        "last_rank": 70072,
        "player_name": "Jonathan Arvidsson",
        "rank": 73063,
        "rank_sort": 73122,
        "total": 2339
      },
      {
        "club_badge_src": null,
        "entry": 4251153,
        "entry_name": "JokerFC",
        "event_total": 52,
        "has_played": true,
        "id": 32225890,
        "last_rank": 64562,
        "player_name": "Hafidz Rashid",
        "rank": 73063,
        "rank_sort": 73123,
        "total": 2339
      },
      {
        "club_badge_src": "https://fantasy.premierleague.com/gcs/plfpl-production-adobe-approved/plfpl-production/4274392/a3a28ad9-79e3-49cf-bce5-3cc54632b8e7.png",
        "entry": 4274392,
        "entry_name": "Charlo Farm United",
        "event_total": 87,
        "has_played": true,
        "id": 32415544,
        "last_rank": 131244,
        "player_name": "Jon Klam_bo",
        "rank": 73063,
        "rank_sort": 73124,
        "total": 2339
      },
      {
        "club_badge_src": null,
        "entry": 4411100,
        "entry_name": "Yf twista",
        "event_total": 50,
        "has_played": true,
        "id": 33555491,
        "last_rank": 61045,
        "player_name": "- Y",
        "rank": 73063,
        "rank_sort": 73125,
        "total": 2339
      },
      {
        "club_badge_src": null,
        "entry": 4478225,
        "entry_name": "Calibre m\u00e1s",
        "event_total": 71,
        "has_played": true,
        "id": 34129251,
        "last_rank": 107995,
        "player_name": "Tobias Karlsson",
        "rank": 73063,
        "rank_sort": 73126,
        "total": 2339
      },
      {
        "club_badge_src": null,
        "entry": 4767796,
        "entry_name": "Fighlapy",
        "event_total": 59,
        "has_played": true,
        "id": 36695083,
        "last_rank": 78671,
        "player_name": "Pawe\u0142 Tomala",
        "rank": 73063,
        "rank_sort": 73127,
        "total": 2339
      },
      {
        "club_badge_src": "https://fantasy.premierleague.com/gcs/plfpl-production-adobe-approved/plfpl-production/4839078/f0912a98-26b4-453d-a990-16334db7bad8.png",
        "entry": 4839078,
        "entry_name": "Mubi_Fc",
        "event_total": 76,
        "has_played": true,
        "id": 37275788,
        "last_rank": 122201,
        "player_name": "MUBASHIR HUSSAIN",
        "rank": 73063,
        "rank_sort": 73128,
        "total": 2339
      },
      {
        "club_badge_src": null,
        "entry": 4961024,
        "entry_name": "WB Football Warriors",
        "event_total": 57,
        "has_played": true,
        "id": 38283294,
        "last_rank": 74395,
        "player_name": "Bernardus Willy",
        "rank": 73063,
        "rank_sort": 73129,
        "total": 2339
      },
      {
        "club_badge_src": null,
        "entry": 5098130,
        "entry_name": "Mean Jean",
        "event_total": 51,
        "has_played": true,
        "id": 39404836,
        "last_rank": 62812,
        "player_name": "Jaden Jean",
        "rank": 73063,
        "rank_sort": 73130,
        "total": 2339
      },
      {
        "club_badge_src": null,
        "entry": 5152146,
        "entry_name": "Uncle Football",
        "event_total": 65,
        "has_played": true,
        "id": 39861206,
        "last_rank": 92602,
        "player_name": "James Bailey",
        "rank": 73063,
        "rank_sort": 73131,
        "total": 2339
      },
      {
        "club_badge_src": null,
        "entry": 5322071,
        "entry_name": "dream team",
        "event_total": 80,
        "has_played": true,
        "id": 41256957,
        "last_rank": 134879,
        "player_name": "Jonny Maddock",
        "rank": 73063,
        "rank_sort": 73132,
        "total": 2339
      },
      {
        "club_badge_src": null,
        "entry": 5356071,
        "entry_name": "Bruxelles Club\u00e9",
        "event_total": 60,
        "has_played": true,
        "id": 41589592,
        "last_rank": 80965,
        "player_name": "Thomas Sorensen",
        "rank": 73063,
        "rank_sort": 73133,
        "total": 2339
      },
      {
        "club_badge_src": null,
        "entry": 5440708,
        "entry_name": "PatrickGoalford",
        "event_total": 65,
        "has_played": true,
        "id": 42330239,
        "last_rank": 82664,
        "player_name": "Benjamin Houston",
        "rank": 73063,
        "rank_sort": 73134,
        "total": 2339
      },
      {
        "club_badge_src": null,
        "entry": 5474586,
        "entry_name": "Salahdelic Dreams",
        "event_total": 55,
        "has_played": true,
        "id": 42617541,
        "last_rank": 62724,
        "player_name": "Shekhar Saikia",
        "rank": 73063,
        "rank_sort": 73135,
        "total": 2339
      },
      {
        "club_badge_src": "https://fantasy.premierleague.com/gcs/plfpl-production-adobe-approved/plfpl-production/5709588/5efe2d2d-0a28-438b-8d36-2dbe8a86279e.png",
        "entry": 5709588,
        "entry_name": "JJLE Club de F\u00fatbol",
        "event_total": 53,
        "has_played": true,
        "id": 44710223,
        "last_rank": 59170,
        "player_name": "Jovan Edwards",
        "rank": 73063,
        "rank_sort": 73136,
        "total": 2339
      },
      {
        "club_badge_src": null,
        "entry": 5904870,
        "entry_name": "FPL Goat",
        "event_total": 56,
        "has_played": true,
        "id": 46394781,
        "last_rank": 72346,
        "player_name": "Chua Lewis",
        "rank": 73063,
        "rank_sort": 73137,
        "total": 2339
      },
      {
        "club_badge_src": "https://fantasy.premierleague.com/gcs/plfpl-production-adobe-approved/plfpl-production/6004930/bb2d9752-0599-4b30-8b65-bc4938c2969c.png",
        "entry": 6004930,
        "entry_name": "Bruno Dos Tres",
        "event_total": 63,
        "has_played": true,
        "id": 47342061,
        "last_rank": 87808,
        "player_name": "Parminder Degan",
        "rank": 73063,
        "rank_sort": 73138,
        "total": 2339
      },
      {
        "club_badge_src": null,
        "entry": 6254470,
        "entry_name": "Nerazurri",
        "event_total": 68,
        "has_played": true,
        "id": 49513625,
        "last_rank": 99959,
        "player_name": "Abdulrahman Kabir",
        "rank": 73063,
        "rank_sort": 73139,
        "total": 2339
      },
      {
        "club_badge_src": null,
        "entry": 6319860,
        "entry_name": "\u064a\u0648\u0646\u0633",
        "event_total": 54,
        "has_played": true,
        "id": 50177649,
        "last_rank": 68294,
        "player_name": "Emad Haggag",
        "rank": 73063,
        "rank_sort": 73140,
        "total": 2339
      },
      {
        "club_badge_src": null,
        "entry": 6334608,
        "entry_name": "Cragga's Creatures",
        "event_total": 67,
        "has_played": true,
        "id": 50345685,
        "last_rank": 78440,
        "player_name": "Craig Taylor",
        "rank": 73063,
        "rank_sort": 73141,
        "total": 2339
      },
      {
        "club_badge_src": null,
        "entry": 6459591,
        "entry_name": "Mount-less Wonders",
        "event_total": 78,
        "has_played": true,
        "id": 51455147,
        "last_rank": 104941,
        "player_name": "Saqib Rao",
        "rank": 73063,
        "rank_sort": 73142,
        "total": 2339
      },
      {
        "club_badge_src": null,
        "entry": 7032835,
        "entry_name": "Ziad \u261d\ufe0f",
        "event_total": 67,
        "has_played": true,
        "id": 56525066,
        "last_rank": 97470,
        "player_name": "\u0632\u064a\u0627\u062f \u0627\u0644\u062a\u0627\u062c\u0648\u0631\u064a",
        "rank": 73063,
        "rank_sort": 73143,
        "total": 2339
      },
      {
        "club_badge_src": null,
        "entry": 7053329,
        "entry_name": "Lammens Zest",
        "event_total": 72,
        "has_played": true,
        "id": 56729534,
        "last_rank": 110573,
        "player_name": "Stephen Byrne",
        "rank": 73063,
        "rank_sort": 73144,
        "total": 2339
      },
      {
        "club_badge_src": null,
        "entry": 7078647,
        "entry_name": "Hubbusch United",
        "event_total": 48,
        "has_played": true,
        "id": 56972490,
        "last_rank": 57515,
        "player_name": "Hubbe Z-F",
        "rank": 73063,
        "rank_sort": 73145,
        "total": 2339
      },
      {
        "club_badge_src": null,
        "entry": 7129380,
        "entry_name": "chairbuoys",
        "event_total": 58,
        "has_played": true,
        "id": 57454338,
        "last_rank": 76574,
        "player_name": "Nigel Hoath",
        "rank": 73063,
        "rank_sort": 73146,
        "total": 2339
      },
      {
        "club_badge_src": null,
        "entry": 7390728,
        "entry_name": "The Game is on",
        "event_total": 55,
        "has_played": true,
        "id": 59926518,
        "last_rank": 70183,
        "player_name": "Mark Fish",
        "rank": 73063,
        "rank_sort": 73147,
        "total": 2339
      },
      {
        "club_badge_src": "https://fantasy.premierleague.com/gcs/plfpl-production-adobe-approved/plfpl-production/7642130/bc556ffe-21e3-41af-b093-bcd35567ec3f.png",
        "entry": 7642130,
        "entry_name": "Fc Alba",
        "event_total": 58,
        "has_played": true,
        "id": 62644617,
        "last_rank": 76638,
        "player_name": "Roaa Rossaine",
        "rank": 73063,
        "rank_sort": 73148,
        "total": 2339
      },
      {
        "club_badge_src": "https://fantasy.premierleague.com/gcs/plfpl-production-adobe-approved/plfpl-production/7734773/56eb377f-0a62-4278-9fd1-0f16a5ae2f08.png",
        "entry": 7734773,
        "entry_name": "Locomotive to Glory",
        "event_total": 65,
        "has_played": true,
        "id": 63484187,
        "last_rank": 92471,
        "player_name": "pociong dogwiazd",
        "rank": 73063,
        "rank_sort": 73149,
        "total": 2339
      },
      {
        "club_badge_src": null,
        "entry": 7740957,
        "entry_name": "Change Name",
        "event_total": 55,
        "has_played": true,
        "id": 63539531,
        "last_rank": 55659,
        "player_name": "Julie Solum Nymoen",
        "rank": 73063,
        "rank_sort": 73150,
        "total": 2339
      }
    ]
  }
}