{
  "last_updated_data": "2026-05-24T23:28:17Z",
  "league": {
    "admin_entry": null,
    "closed": false,
    "code_privacy": "p",
    "created": "2025-07-20T23:14:33.933835Z",
    "cup_league": 2815434,
    "has_cup": true,
    "id": 314,
    "league_type": "s",
    "max_entries": null,
    "name": "Overall",
    "rank": null,
    "scoring": "c",
    "start_event": 1
  },
  "new_entries": {
    "has_next": false,
    "page": 1,
    "results": []
  },
  "standings": {
    "has_next": true,
    "page": 32,
    "results": [
      {
        "club_badge_src": null,
        "entry": 8440615,
        "entry_name": "too slim to be sim",
        "event_total": 72,
        "has_played": true,
        "id": 70065174,
        "last_rank": 2939,
        "player_name": "Annette Ireland",
        "rank": 1540,
        "rank_sort": 1551,
        "total": 2439
      },
      {
        "club_badge_src": null,
        "entry": 5264,
        "entry_name": "TH FC",
        "event_total": 46,
        "has_played": true,
        "id": 29999,
        "last_rank": 791,
        "player_name": "Toby Hawkins",
        "rank": 1552,
        "rank_sort": 1552,
        "total": 2439
      },
      {
        "club_badge_src": "https://fantasy.premierleague.com/gcs/plfpl-production-adobe-approved/plfpl-production/75810/4f695c68-3758-4aa4-b744-09a5a0e5770d.png",
        "entry": 75810,
        "entry_name": "Wiman Wanderers",
        "event_total": 63,
        "has_played": true,
        "id": 492905,
        "last_rank": 1880,
        "player_name": "Fredrik H\u00f6gstedt",
        "rank": 1552,
        "rank_sort": 1553,
        "total": 2439
      },
      {
        "club_badge_src": null,
        "entry": 520906,
        "entry_name": "Ollikkalan Pallo",
        "event_total": 63,
        "has_played": true,
        "id": 3498159,
        "last_rank": 1856,
        "player_name": "Jarkko Anttila",
        "rank": 1552,
        "rank_sort": 1554,
        "total": 2439
      },
      {
        "club_badge_src": null,
        "entry": 831365,
        "entry_name": "EzeWinAgain",
        "event_total": 60,
        "has_played": true,
        "id": 5694434,
        "last_rank": 1609,
        "player_name": "Malachi Walls",
        "rank": 1552,
        "rank_sort": 1555,
        "total": 2439
      },
      {
        "club_badge_src": null,
        "entry": 1136275,
        "entry_name": "BK Athletic",
        "event_total": 53,
        "has_played": true,
        "id": 7876362,
        "last_rank": 1152,
        "player_name": "Bhupen Kerai",
        "rank": 1552,
        "rank_sort": 1556,
        "total": 2439
      },
      {
        "club_badge_src": null,
        "entry": 1283744,
        "entry_name": "Domo23",
        "event_total": 64,
        "has_played": true,
        "id": 8920405,
        "last_rank": 1978,
        "player_name": "Dominique Brown",
        "rank": 1552,
        "rank_sort": 1557,
        "total": 2439
      },
      {
        "club_badge_src": null,
        "entry": 2145427,
        "entry_name": "Wicker Park",
        "event_total": 47,
        "has_played": true,
        "id": 15248996,
        "last_rank": 825,
        "player_name": "Johnny Walker",
        "rank": 1552,
        "rank_sort": 1558,
        "total": 2439
      },
      {
        "club_badge_src": null,
        "entry": 2294022,
        "entry_name": "abdullah alali",
        "event_total": 55,
        "has_played": true,
        "id": 16360979,
        "last_rank": 1226,
        "player_name": "Abdullah AlAli",
        "rank": 1552,
        "rank_sort": 1559,
        "total": 2439
      },
      {
        "club_badge_src": null,
        "entry": 2820763,
        "entry_name": "Lans FC",
        "event_total": 70,
        "has_played": true,
        "id": 20607330,
        "last_rank": 2665,
        "player_name": "Lanre Shittu",
        "rank": 1552,
        "rank_sort": 1560,
        "total": 2439
      },
      {
        "club_badge_src": null,
        "entry": 3441307,
        "entry_name": "\u7f8e\u51cc\u683c\u56e2\u8d5b\u5206\u683c",
        "event_total": 62,
        "has_played": true,
        "id": 25566791,
        "last_rank": 1758,
        "player_name": "Madridista Swatow",
        "rank": 1552,
        "rank_sort": 1561,
        "total": 2439
      },
      {
        "club_badge_src": "https://fantasy.premierleague.com/gcs/plfpl-production-adobe-approved/plfpl-production/3537707/cba447f6-9bdb-404b-9eeb-9de4ce95e01d.png",
        "entry": 3537707,
        "entry_name": "ODIN",
        "event_total": 68,
        "has_played": true,
        "id": 26332609,
        "last_rank": 2418,
        "player_name": "Nashat Zalzala",
        "rank": 1552,
        "rank_sort": 1562,
        "total": 2439
      },
      {
        "club_badge_src": null,
        "entry": 4878239,
        "entry_name": "Prvaci",
        "event_total": 69,
        "has_played": true,
        "id": 37604353,
        "last_rank": 2553,
        "player_name": "R \u0160",
        "rank": 1552,
        "rank_sort": 1563,
        "total": 2439
      },
      {
        "club_badge_src": "https://fantasy.premierleague.com/gcs/plfpl-production-adobe-approved/plfpl-production/5595718/dca30c33-09e5-4ea6-9832-78e20c47d834.png",
        "entry": 5595718,
        "entry_name": "Tridente",
        "event_total": 66,
        "has_played": true,
        "id": 43719403,
        "last_rank": 2174,
        "player_name": "Muhamad Dinaryo",
        "rank": 1552,
        "rank_sort": 1564,
        "total": 2439
      },
      {
        "club_badge_src": null,
        "entry": 8294887,
        "entry_name": "FPL Mikel",
        "event_total": 58,
        "has_played": true,
        "id": 68656067,
        "last_rank": 1438,
        "player_name": "Julian Ngai",
        "rank": 1552,
        "rank_sort": 1565,
        "total": 2439
      },
      {
        "club_badge_src": null,
        "entry": 698,
        "entry_name": "Mosalah Chai",
        "event_total": 68,
        "has_played": true,
        "id": 3851,
        "last_rank": 1978,
        "player_name": "Vigyan D Ratnoo",
        "rank": 1566,
        "rank_sort": 1566,
        "total": 2439
      },
      {
        "club_badge_src": null,
        "entry": 98316,
        "entry_name": "Mbeumo No. 5",
        "event_total": 67,
        "has_played": true,
        "id": 642049,
        "last_rank": 2328,
        "player_name": "Ryan Mc Cauley",
        "rank": 1566,
        "rank_sort": 1567,
        "total": 2439
      },
      {
        "club_badge_src": null,
        "entry": 121128,
        "entry_name": "world champions",
        "event_total": 50,
        "has_played": true,
        "id": 790367,
        "last_rank": 791,
        "player_name": "Daniel Wyszkowski",
        "rank": 1566,
        "rank_sort": 1568,
        "total": 2439
      },
      {
        "club_badge_src": null,
        "entry": 485248,
        "entry_name": "Sweet Chariot",
        "event_total": 61,
        "has_played": true,
        "id": 3257092,
        "last_rank": 1372,
        "player_name": "Joe Gosling",
        "rank": 1566,
        "rank_sort": 1569,
        "total": 2439
      },
      {
        "club_badge_src": null,
        "entry": 670963,
        "entry_name": "Barmy Army FC",
        "event_total": 69,
        "has_played": true,
        "id": 4538140,
        "last_rank": 2526,
        "player_name": "Pete Smith",
        "rank": 1566,
        "rank_sort": 1570,
        "total": 2439
      },
      {
        "club_badge_src": null,
        "entry": 960863,
        "entry_name": "F\u00fatPol",
        "event_total": 59,
        "has_played": true,
        "id": 6621364,
        "last_rank": 1551,
        "player_name": "Paul Rommel",
        "rank": 1566,
        "rank_sort": 1571,
        "total": 2439
      },
      {
        "club_badge_src": "https://fantasy.premierleague.com/gcs/plfpl-production-adobe-approved/plfpl-production/1203932/8760807a-5b85-4ee8-9f11-abfd89b4b92b.png",
        "entry": 1203932,
        "entry_name": "Los Porro Hermanos",
        "event_total": 66,
        "has_played": true,
        "id": 8354784,
        "last_rank": 2215,
        "player_name": "Jan Lagon",
        "rank": 1566,
        "rank_sort": 1572,
        "total": 2439
      },
      {
        "club_badge_src": null,
        "entry": 1292939,
        "entry_name": "Sunnyvale FC_LUHG",
        "event_total": 57,
        "has_played": true,
        "id": 8984495,
        "last_rank": 1394,
        "player_name": "Anthony Williams",
        "rank": 1566,
        "rank_sort": 1573,
        "total": 2439
      },
      {
        "club_badge_src": null,
        "entry": 1879078,
        "entry_name": "Taci",
        "event_total": 58,
        "has_played": true,
        "id": 13238029,
        "last_rank": 1465,
        "player_name": "Napred Plavi",
        "rank": 1566,
        "rank_sort": 1574,
        "total": 2439
      },
      {
        "club_badge_src": null,
        "entry": 1926048,
        "entry_name": "Ghorbello FC",
        "event_total": 65,
        "has_played": true,
        "id": 13583429,
        "last_rank": 2088,
        "player_name": "Achraf Ghorbel",
        "rank": 1566,
        "rank_sort": 1575,
        "total": 2439
      },
      {
        "club_badge_src": null,
        "entry": 2994100,
        "entry_name": "Just here to Donate",
        "event_total": 71,
        "has_played": true,
        "id": 22021328,
        "last_rank": 2802,
        "player_name": "Cameron Biddulph",
        "rank": 1566,
        "rank_sort": 1576,
        "total": 2439
      },
      {
        "club_badge_src": null,
        "entry": 5423349,
        "entry_name": "Palmer Violates",
        "event_total": 60,
        "has_played": true,
        "id": 42181558,
        "last_rank": 1302,
        "player_name": "Raj Pankhania",
        "rank": 1566,
        "rank_sort": 1577,
        "total": 2439
      },
      {
        "club_badge_src": null,
        "entry": 5760169,
        "entry_name": "FrankTheTankEngine",
        "event_total": 70,
        "has_played": true,
        "id": 45153644,
        "last_rank": 2685,
        "player_name": "Gustav Munk Sigsgaard",
        "rank": 1566,
        "rank_sort": 1578,
        "total": 2439
      },
      {
        "club_badge_src": null,
        "entry": 5892997,
        "entry_name": "AMadAttack",
        "event_total": 65,
        "has_played": true,
        "id": 46293024,
        "last_rank": 2112,
        "player_name": "Kenchog Tshering",
        "rank": 1566,
        "rank_sort": 1579,
        "total": 2439
      },
      {
        "club_badge_src": null,
        "entry": 7599843,
        "entry_name": "Morning Timber",
        "event_total": 70,
        "has_played": true,
        "id": 62263590,
        "last_rank": 1758,
        "player_name": "Henrik Johansen",
        "rank": 1566,
        "rank_sort": 1580,
        "total": 2439
      },
      {
        "club_badge_src": null,
        "entry": 7887126,
        "entry_name": "Saj's XI",
        "event_total": 71,
        "has_played": true,
        "id": 64868380,
        "last_rank": 2824,
        "player_name": "Matsaj Thom",
        "rank": 1566,
        "rank_sort": 1581,
        "total": 2439
      },
      {
        "club_badge_src": null,
        "entry": 9008164,
        "entry_name": "\u00d8rsta IL",
        "event_total": 57,
        "has_played": true,
        "id": 75559110,
        "last_rank": 1130,
        "player_name": "J\u00f8rgen Halse",
        "rank": 1566,
        "rank_sort": 1582,
        "total": 2439
      },
      {
        "club_badge_src": null,
        "entry": 9206566,
        "entry_name": "Gardiola Albion FC",
        "event_total": 53,
        "has_played": true,
        "id": 77499565,
        "last_rank": 1130,
        "player_name": "Gard Neverlien",
        "rank": 1566,
        "rank_sort": 1583,
        "total": 2439
      },
      {
        "club_badge_src": null,
        "entry": 24886,
        "entry_name": "Baby Reijnders",
        "event_total": 58,
        "has_played": true,
        "id": 157217,
        "last_rank": 1203,
        "player_name": "Andy Jones",
        "rank": 1584,
        "rank_sort": 1584,
        "total": 2439
      },
      {
        "club_badge_src": null,
        "entry": 59797,
        "entry_name": "BANKSLAM",
        "event_total": 61,
        "has_played": true,
        "id": 385045,
        "last_rank": 1372,
        "player_name": "B A N K BANKPIRIYA",
        "rank": 1584,
        "rank_sort": 1585,
        "total": 2439
      },
      {
        "club_badge_src": null,
        "entry": 273446,
        "entry_name": "\u00d8degaard of Honour",
        "event_total": 62,
        "has_played": true,
        "id": 1819501,
        "last_rank": 1465,
        "player_name": "Rasmus Retb\u00f8ll",
        "rank": 1584,
        "rank_sort": 1586,
        "total": 2439
      },
      {
        "club_badge_src": null,
        "entry": 461434,
        "entry_name": "What\u2019s on the Mainoo",
        "event_total": 61,
        "has_played": true,
        "id": 3095313,
        "last_rank": 1728,
        "player_name": "Oliver price",
        "rank": 1584,
        "rank_sort": 1587,
        "total": 2439
      },
      {
        "club_badge_src": null,
        "entry": 1244961,
        "entry_name": "Spurs Superstars",
        "event_total": 67,
        "has_played": true,
        "id": 8646334,
        "last_rank": 1880,
        "player_name": "Lars Frejborn",
        "rank": 1584,
        "rank_sort": 1588,
        "total": 2439
      },
      {
        "club_badge_src": "https://fantasy.premierleague.com/gcs/plfpl-production-adobe-approved/plfpl-production/2394998/9d97ed3d-b9f5-40ef-9d10-4a4a27f06262.png",
        "entry": 2394998,
        "entry_name": "Certified Gooner",
        "event_total": 72,
        "has_played": true,
        "id": 17109332,
        "last_rank": 2977,
        "player_name": "Tommy Asmar",
        "rank": 1584,
        "rank_sort": 1589,
        "total": 2439
      },
      {
        "club_badge_src": null,
        "entry": 6424828,
        "entry_name": "FC Shampion",
        "event_total": 59,
        "has_played": true,
        "id": 51140041,
        "last_rank": 1240,
        "player_name": "Filip Davidovski",
        "rank": 1584,
        "rank_sort": 1590,
        "total": 2439
      },
      {
        "club_badge_src": null,
        "entry": 7067443,
        "entry_name": "VinciGunners",
        "event_total": 66,
        "has_played": true,
        "id": 56865273,
        "last_rank": 2235,
        "player_name": "Luca Vinciguerra",
        "rank": 1584,
        "rank_sort": 1591,
        "total": 2439
      },
      {
        "club_badge_src": null,
        "entry": 24634,
        "entry_name": "Master of puppets",
        "event_total": 65,
        "has_played": true,
        "id": 155523,
        "last_rank": 1728,
        "player_name": "Trond Nordli",
        "rank": 1592,
        "rank_sort": 1592,
        "total": 2439
      },
      {
        "club_badge_src": null,
        "entry": 35339,
        "entry_name": "PPNZX",
        "event_total": 53,
        "has_played": true,
        "id": 226129,
        "last_rank": 951,
        "player_name": "Peerat Pookpanich",
        "rank": 1592,
        "rank_sort": 1593,
        "total": 2439
      },
      {
        "club_badge_src": null,
        "entry": 79369,
        "entry_name": "GmanAlmighty",
        "event_total": 77,
        "has_played": true,
        "id": 516187,
        "last_rank": 3175,
        "player_name": "Graeme Barry",
        "rank": 1592,
        "rank_sort": 1594,
        "total": 2439
      },
      {
        "club_badge_src": "https://fantasy.premierleague.com/gcs/plfpl-production-adobe-approved/plfpl-production/595035/f3baf2b9-5c05-4789-b441-f3bf02c25323.png",
        "entry": 595035,
        "entry_name": "Power Polar Bears",
        "event_total": 69,
        "has_played": true,
        "id": 4011149,
        "last_rank": 2112,
        "player_name": "Patrick Murphy",
        "rank": 1592,
        "rank_sort": 1595,
        "total": 2439
      },
      {
        "club_badge_src": null,
        "entry": 968454,
        "entry_name": "Doratos FC",
        "event_total": 66,
        "has_played": true,
        "id": 6674790,
        "last_rank": 1816,
        "player_name": "Antish Dhora",
        "rank": 1592,
        "rank_sort": 1596,
        "total": 2439
      },
      {
        "club_badge_src": null,
        "entry": 1653008,
        "entry_name": "Basse Vippers",
        "event_total": 66,
        "has_played": true,
        "id": 11572847,
        "last_rank": 1816,
        "player_name": "Stian Konstad Aalberg",
        "rank": 1592,
        "rank_sort": 1597,
        "total": 2439
      },
      {
        "club_badge_src": null,
        "entry": 1935952,
        "entry_name": "Same same but not",
        "event_total": 69,
        "has_played": true,
        "id": 13654449,
        "last_rank": 2611,
        "player_name": "Tui Medical Corner",
        "rank": 1592,
        "rank_sort": 1598,
        "total": 2439
      },
      {
        "club_badge_src": "https://fantasy.premierleague.com/gcs/plfpl-production-adobe-approved/plfpl-production/3552679/a0dbb81f-e11f-47d6-afb2-fe115b9e2761.png",
        "entry": 3552679,
        "entry_name": "Peaky Reijnders",
        "event_total": 79,
        "has_played": true,
        "id": 26449298,
        "last_rank": 4205,
        "player_name": "David Shackleton",
        "rank": 1592,
        "rank_sort": 1599,
        "total": 2439
      },
      {
        "club_badge_src": null,
        "entry": 4532783,
        "entry_name": "Stenfors BK",
        "event_total": 50,
        "has_played": true,
        "id": 34576294,
        "last_rank": 1011,
        "player_name": "Anton Elgan",
        "rank": 1592,
        "rank_sort": 1600,
        "total": 2439
      }
    ]
  }
}