{
  "last_updated_data": "2026-05-24T23:28:17Z",
  "league": {
    "admin_entry": null,
    "closed": false,
    "code_privacy": "p",
    "created": "2025-07-20T23:14:33.933835Z",
    "cup_league": 2815434,
    "has_cup": true,
    "id": 314,
    "league_type": "s",
    "max_entries": null,
    "name": "Overall",
    "rank": null,
    "scoring": "c",
    "start_event": 1
  },
  "new_entries": {
    "has_next": false,
    "page": 1,
    "results": []
  },
  "standings": {
    "has_next": true,
    "page": 660,
    "results": [
      {
        "club_badge_src": null,
        "entry": 7396832,
        "entry_name": "MordernDayFootballFC",
        "event_total": 48,
        "has_played": true,
        "id": 59985045,
        "last_rank": 23961,
        "player_name": "Jaidor Patrick",
        "rank": 32898,
        "rank_sort": 32951,
        "total": 2365
      },
      {
        "club_badge_src": null,
        "entry": 7404560,
        "entry_name": "Christobalito",
        "event_total": 44,
        "has_played": true,
        "id": 60056379,
        "last_rank": 20888,
        "player_name": "Christoffer Isaksson",
        "rank": 32898,
        "rank_sort": 32952,
        "total": 2365
      },
      {
        "club_badge_src": null,
        "entry": 7825233,
        "entry_name": "Joga Bonito",
        "event_total": 64,
        "has_played": true,
        "id": 64302247,
        "last_rank": 41101,
        "player_name": "Sunraj Modhara",
        "rank": 32898,
        "rank_sort": 32953,
        "total": 2365
      },
      {
        "club_badge_src": null,
        "entry": 8089358,
        "entry_name": "Eze Come Eze Go",
        "event_total": 86,
        "has_played": true,
        "id": 66701907,
        "last_rank": 79079,
        "player_name": "Ian Izaaks",
        "rank": 32898,
        "rank_sort": 32954,
        "total": 2365
      },
      {
        "club_badge_src": null,
        "entry": 8151430,
        "entry_name": "dead bird",
        "event_total": 59,
        "has_played": true,
        "id": 67282143,
        "last_rank": 35034,
        "player_name": "Ryan Grima",
        "rank": 32898,
        "rank_sort": 32955,
        "total": 2365
      },
      {
        "club_badge_src": null,
        "entry": 8266921,
        "entry_name": "Club RC",
        "event_total": 46,
        "has_played": true,
        "id": 68384833,
        "last_rank": 22391,
        "player_name": "Ryan Casey",
        "rank": 32898,
        "rank_sort": 32956,
        "total": 2365
      },
      {
        "club_badge_src": null,
        "entry": 8358793,
        "entry_name": "Patkoko Fc",
        "event_total": 57,
        "has_played": true,
        "id": 69286491,
        "last_rank": 32751,
        "player_name": "D\u00e9nes Karola",
        "rank": 32898,
        "rank_sort": 32957,
        "total": 2365
      },
      {
        "club_badge_src": null,
        "entry": 8584852,
        "entry_name": "Arne's Army",
        "event_total": 50,
        "has_played": true,
        "id": 71452041,
        "last_rank": 25776,
        "player_name": "Kul Sidhu",
        "rank": 32898,
        "rank_sort": 32958,
        "total": 2365
      },
      {
        "club_badge_src": null,
        "entry": 8976760,
        "entry_name": "Simha XI",
        "event_total": 64,
        "has_played": true,
        "id": 75257313,
        "last_rank": 41101,
        "player_name": "Sujay Simha",
        "rank": 32898,
        "rank_sort": 32959,
        "total": 2365
      },
      {
        "club_badge_src": "https://fantasy.premierleague.com/gcs/plfpl-production-adobe-approved/plfpl-production/9099006/e8d13981-eb38-482f-bb96-1759a7087e93.png",
        "entry": 9099006,
        "entry_name": "Bistrinci",
        "event_total": 80,
        "has_played": true,
        "id": 76442307,
        "last_rank": 66848,
        "player_name": "Marko \u0160estanj",
        "rank": 32898,
        "rank_sort": 32960,
        "total": 2365
      },
      {
        "club_badge_src": null,
        "entry": 9477247,
        "entry_name": "Eze Come Eze Go",
        "event_total": 38,
        "has_played": true,
        "id": 80094316,
        "last_rank": 16807,
        "player_name": "Iyaz B",
        "rank": 32898,
        "rank_sort": 32961,
        "total": 2365
      },
      {
        "club_badge_src": null,
        "entry": 990,
        "entry_name": "Gy\u00f6ked in",
        "event_total": 68,
        "has_played": true,
        "id": 5489,
        "last_rank": 46660,
        "player_name": "Philip Cowing",
        "rank": 32962,
        "rank_sort": 32962,
        "total": 2365
      },
      {
        "club_badge_src": null,
        "entry": 3758,
        "entry_name": "Wirtz Case Scenario",
        "event_total": 52,
        "has_played": true,
        "id": 21309,
        "last_rank": 27644,
        "player_name": "Raf Dworkin",
        "rank": 32962,
        "rank_sort": 32963,
        "total": 2365
      },
      {
        "club_badge_src": null,
        "entry": 5980,
        "entry_name": "Specialty coffee",
        "event_total": 55,
        "has_played": true,
        "id": 34210,
        "last_rank": 30727,
        "player_name": "Olga Goncharova",
        "rank": 32962,
        "rank_sort": 32964,
        "total": 2365
      },
      {
        "club_badge_src": null,
        "entry": 8752,
        "entry_name": "Paul Gyokeres",
        "event_total": 54,
        "has_played": true,
        "id": 51066,
        "last_rank": 29522,
        "player_name": "Sacha Hunter",
        "rank": 32962,
        "rank_sort": 32965,
        "total": 2365
      },
      {
        "club_badge_src": "https://fantasy.premierleague.com/gcs/plfpl-production-adobe-approved/plfpl-production/12818/e0758fca-4b95-426b-a1b8-a140f02d1fd5.png",
        "entry": 12818,
        "entry_name": "Jaded United",
        "event_total": 66,
        "has_played": true,
        "id": 77080,
        "last_rank": 44048,
        "player_name": "AA Ong",
        "rank": 32962,
        "rank_sort": 32966,
        "total": 2365
      },
      {
        "club_badge_src": "https://fantasy.premierleague.com/gcs/plfpl-production-adobe-approved/plfpl-production/13134/a31decd0-195d-4728-b6fc-09cba42f88d3.png",
        "entry": 13134,
        "entry_name": "Glaros F.C",
        "event_total": 60,
        "has_played": true,
        "id": 79166,
        "last_rank": 36348,
        "player_name": "Babis Pavlou",
        "rank": 32962,
        "rank_sort": 32967,
        "total": 2365
      },
      {
        "club_badge_src": null,
        "entry": 20692,
        "entry_name": "TownMeadShedBoy",
        "event_total": 49,
        "has_played": true,
        "id": 129359,
        "last_rank": 24897,
        "player_name": "Sean Killick",
        "rank": 32962,
        "rank_sort": 32968,
        "total": 2365
      },
      {
        "club_badge_src": null,
        "entry": 20815,
        "entry_name": "Take mahon and ball",
        "event_total": 52,
        "has_played": true,
        "id": 130233,
        "last_rank": 27976,
        "player_name": "Stephen Mahon",
        "rank": 32962,
        "rank_sort": 32969,
        "total": 2365
      },
      {
        "club_badge_src": null,
        "entry": 23631,
        "entry_name": "Cherki Twizzlers",
        "event_total": 65,
        "has_played": true,
        "id": 148908,
        "last_rank": 42648,
        "player_name": "Sam Bull",
        "rank": 32962,
        "rank_sort": 32970,
        "total": 2365
      },
      {
        "club_badge_src": null,
        "entry": 24180,
        "entry_name": "Mumbai Madness",
        "event_total": 63,
        "has_played": true,
        "id": 152562,
        "last_rank": 40036,
        "player_name": "Lalit Shah",
        "rank": 32962,
        "rank_sort": 32971,
        "total": 2365
      },
      {
        "club_badge_src": null,
        "entry": 24455,
        "entry_name": "Coopers",
        "event_total": 55,
        "has_played": true,
        "id": 154352,
        "last_rank": 30600,
        "player_name": "Joe Cooper",
        "rank": 32962,
        "rank_sort": 32972,
        "total": 2365
      },
      {
        "club_badge_src": null,
        "entry": 24569,
        "entry_name": "Ultimate 11",
        "event_total": 73,
        "has_played": true,
        "id": 155111,
        "last_rank": 54416,
        "player_name": "Will Frow",
        "rank": 32962,
        "rank_sort": 32973,
        "total": 2365
      },
      {
        "club_badge_src": "https://fantasy.premierleague.com/gcs/plfpl-production-adobe-approved/plfpl-production/29285/77160ba2-502a-41c8-9157-6c9d4a8060fc.png",
        "entry": 29285,
        "entry_name": "Patusolania",
        "event_total": 62,
        "has_played": true,
        "id": 185157,
        "last_rank": 38644,
        "player_name": "Dominik Rochaczewski",
        "rank": 32962,
        "rank_sort": 32974,
        "total": 2365
      },
      {
        "club_badge_src": "https://fantasy.premierleague.com/gcs/plfpl-production-adobe-approved/plfpl-production/38444/fb04a62c-2d44-4bfe-ad86-6c8d2af60666.png",
        "entry": 38444,
        "entry_name": "Cherki Dinosaurs",
        "event_total": 66,
        "has_played": true,
        "id": 246386,
        "last_rank": 43786,
        "player_name": "Will Grenville",
        "rank": 32962,
        "rank_sort": 32975,
        "total": 2365
      },
      {
        "club_badge_src": null,
        "entry": 42446,
        "entry_name": "ZeroZero",
        "event_total": 68,
        "has_played": true,
        "id": 271957,
        "last_rank": 46660,
        "player_name": "Micha\u0142 Sosinski",
        "rank": 32962,
        "rank_sort": 32976,
        "total": 2365
      },
      {
        "club_badge_src": null,
        "entry": 44994,
        "entry_name": "Dions_Dumplings",
        "event_total": 68,
        "has_played": true,
        "id": 288530,
        "last_rank": 46591,
        "player_name": "Gary Cornish-Clarke",
        "rank": 32962,
        "rank_sort": 32977,
        "total": 2365
      },
      {
        "club_badge_src": null,
        "entry": 48973,
        "entry_name": "Ledley's Kings",
        "event_total": 50,
        "has_played": true,
        "id": 314693,
        "last_rank": 25729,
        "player_name": "James Linden",
        "rank": 32962,
        "rank_sort": 32978,
        "total": 2365
      },
      {
        "club_badge_src": "https://fantasy.premierleague.com/gcs/plfpl-production-adobe-approved/plfpl-production/66686/63ec48c6-ece7-4091-bd11-e50f491368cd.png",
        "entry": 66686,
        "entry_name": "Brodersen FC",
        "event_total": 68,
        "has_played": true,
        "id": 431275,
        "last_rank": 46660,
        "player_name": "Jesper Brodersen",
        "rank": 32962,
        "rank_sort": 32979,
        "total": 2365
      },
      {
        "club_badge_src": "https://fantasy.premierleague.com/gcs/plfpl-production-adobe-approved/plfpl-production/70575/1295ca90-6594-410e-812a-70fd601b744d.png",
        "entry": 70575,
        "entry_name": "Zubie XI",
        "event_total": 52,
        "has_played": true,
        "id": 458295,
        "last_rank": 27770,
        "player_name": "David McAuliffe",
        "rank": 32962,
        "rank_sort": 32980,
        "total": 2365
      },
      {
        "club_badge_src": null,
        "entry": 82741,
        "entry_name": "Ooh Leave me Bradley",
        "event_total": 68,
        "has_played": true,
        "id": 538460,
        "last_rank": 46591,
        "player_name": "Bj\u00f8rn Fuglem",
        "rank": 32962,
        "rank_sort": 32981,
        "total": 2365
      },
      {
        "club_badge_src": null,
        "entry": 83686,
        "entry_name": "AlJazeera FC",
        "event_total": 63,
        "has_played": true,
        "id": 544734,
        "last_rank": 39874,
        "player_name": "Jehad Alfantazi",
        "rank": 32962,
        "rank_sort": 32982,
        "total": 2365
      },
      {
        "club_badge_src": null,
        "entry": 90717,
        "entry_name": "Ashley BarneSlot",
        "event_total": 72,
        "has_played": true,
        "id": 592346,
        "last_rank": 53023,
        "player_name": "Conor Hardman",
        "rank": 32962,
        "rank_sort": 32983,
        "total": 2365
      },
      {
        "club_badge_src": null,
        "entry": 106692,
        "entry_name": "I Wanna Be Isidor'd",
        "event_total": 49,
        "has_played": true,
        "id": 695622,
        "last_rank": 25002,
        "player_name": "Blake Burns",
        "rank": 32962,
        "rank_sort": 32984,
        "total": 2365
      },
      {
        "club_badge_src": null,
        "entry": 118987,
        "entry_name": "Kai Me A River",
        "event_total": 60,
        "has_played": true,
        "id": 776433,
        "last_rank": 36200,
        "player_name": "Adam Ferguson",
        "rank": 32962,
        "rank_sort": 32985,
        "total": 2365
      },
      {
        "club_badge_src": null,
        "entry": 119214,
        "entry_name": "Lord",
        "event_total": 56,
        "has_played": true,
        "id": 777864,
        "last_rank": 31747,
        "player_name": "Minh Quang",
        "rank": 32962,
        "rank_sort": 32986,
        "total": 2365
      },
      {
        "club_badge_src": null,
        "entry": 125175,
        "entry_name": "Jamie FC",
        "event_total": 59,
        "has_played": true,
        "id": 816392,
        "last_rank": 35166,
        "player_name": "Jamie Marshall",
        "rank": 32962,
        "rank_sort": 32987,
        "total": 2365
      },
      {
        "club_badge_src": null,
        "entry": 131159,
        "entry_name": "Long b\u1ea5t t\u1eed",
        "event_total": 56,
        "has_played": true,
        "id": 854554,
        "last_rank": 31747,
        "player_name": "Long \u0110\u1eb9p Trai",
        "rank": 32962,
        "rank_sort": 32988,
        "total": 2365
      },
      {
        "club_badge_src": null,
        "entry": 132881,
        "entry_name": "Bowen Arrows",
        "event_total": 51,
        "has_played": true,
        "id": 865549,
        "last_rank": 26827,
        "player_name": "Benjamin Roberts",
        "rank": 32962,
        "rank_sort": 32989,
        "total": 2365
      },
      {
        "club_badge_src": "https://fantasy.premierleague.com/gcs/plfpl-production-adobe-approved/plfpl-production/144887/71eb7cbd-3dc8-4315-bd31-e6c22103281a.png",
        "entry": 144887,
        "entry_name": "Kinder Mbeumo",
        "event_total": 67,
        "has_played": true,
        "id": 948633,
        "last_rank": 45252,
        "player_name": "Alex Cole",
        "rank": 32962,
        "rank_sort": 32990,
        "total": 2365
      },
      {
        "club_badge_src": null,
        "entry": 147246,
        "entry_name": "Zarks",
        "event_total": 63,
        "has_played": true,
        "id": 964886,
        "last_rank": 39816,
        "player_name": "Rayan Hamza",
        "rank": 32962,
        "rank_sort": 32991,
        "total": 2365
      },
      {
        "club_badge_src": null,
        "entry": 173663,
        "entry_name": "Kai Me A River",
        "event_total": 59,
        "has_played": true,
        "id": 1146872,
        "last_rank": 34969,
        "player_name": "Jim Boligitz",
        "rank": 32962,
        "rank_sort": 32992,
        "total": 2365
      },
      {
        "club_badge_src": "https://fantasy.premierleague.com/gcs/plfpl-production-adobe-approved/plfpl-production/181843/797dc2f6-6251-4a52-aeac-4b42c19b10a8.png",
        "entry": 181843,
        "entry_name": "Semper FC",
        "event_total": 49,
        "has_played": true,
        "id": 1199972,
        "last_rank": 24857,
        "player_name": "Seppe De Cnijf",
        "rank": 32962,
        "rank_sort": 32993,
        "total": 2365
      },
      {
        "club_badge_src": null,
        "entry": 194964,
        "entry_name": "Lofoten Utd",
        "event_total": 56,
        "has_played": true,
        "id": 1292720,
        "last_rank": 31747,
        "player_name": "Vlad Gaievenko",
        "rank": 32962,
        "rank_sort": 32994,
        "total": 2365
      },
      {
        "club_badge_src": null,
        "entry": 196965,
        "entry_name": "Frank the tank",
        "event_total": 61,
        "has_played": true,
        "id": 1306768,
        "last_rank": 37589,
        "player_name": "Arvid Kjellman",
        "rank": 32962,
        "rank_sort": 32995,
        "total": 2365
      },
      {
        "club_badge_src": null,
        "entry": 207310,
        "entry_name": "Berkeley Wolfpack",
        "event_total": 51,
        "has_played": true,
        "id": 1377892,
        "last_rank": 26656,
        "player_name": "Will Lukach",
        "rank": 32962,
        "rank_sort": 32996,
        "total": 2365
      },
      {
        "club_badge_src": "https://fantasy.premierleague.com/gcs/plfpl-production-adobe-approved/plfpl-production/208330/1497e0bf-1099-4893-a98a-5ad8de3a9e2e.png",
        "entry": 208330,
        "entry_name": "Bluebloods",
        "event_total": 62,
        "has_played": true,
        "id": 1385039,
        "last_rank": 38774,
        "player_name": "M M",
        "rank": 32962,
        "rank_sort": 32997,
        "total": 2365
      },
      {
        "club_badge_src": null,
        "entry": 210821,
        "entry_name": "RishGOOD",
        "event_total": 64,
        "has_played": true,
        "id": 1402142,
        "last_rank": 41101,
        "player_name": "Taz Smith",
        "rank": 32962,
        "rank_sort": 32998,
        "total": 2365
      },
      {
        "club_badge_src": null,
        "entry": 224115,
        "entry_name": "Foros do Arr\u00e3o",
        "event_total": 69,
        "has_played": true,
        "id": 1490828,
        "last_rank": 48363,
        "player_name": "Bruno Marques",
        "rank": 32962,
        "rank_sort": 32999,
        "total": 2365
      },
      {
        "club_badge_src": null,
        "entry": 227034,
        "entry_name": "Marvin\u2019s Room",
        "event_total": 46,
        "has_played": true,
        "id": 1510230,
        "last_rank": 22534,
        "player_name": "Niall Leddington",
        "rank": 32962,
        "rank_sort": 33000,
        "total": 2365
      }
    ]
  }
}