{
  "last_updated_data": "2026-05-24T23:28:17Z",
  "league": {
    "admin_entry": null,
    "closed": false,
    "code_privacy": "p",
    "created": "2025-07-20T23:14:33.933835Z",
    "cup_league": 2815434,
    "has_cup": true,
    "id": 314,
    "league_type": "s",
    "max_entries": null,
    "name": "Overall",
    "rank": null,
    "scoring": "c",
    "start_event": 1
  },
  "new_entries": {
    "has_next": false,
    "page": 1,
    "results": []
  },
  "standings": {
    "has_next": true,
    "page": 283,
    "results": [
      {
        "club_badge_src": null,
        "entry": 5290727,
        "entry_name": "Bruno Dos Tres",
        "event_total": 66,
        "has_played": true,
        "id": 41010064,
        "last_rank": 19237,
        "player_name": "Ashley Carmichael",
        "rank": 14083,
        "rank_sort": 14101,
        "total": 2390
      },
      {
        "club_badge_src": null,
        "entry": 5642042,
        "entry_name": "TJ's",
        "event_total": 48,
        "has_played": true,
        "id": 44124180,
        "last_rank": 9402,
        "player_name": "Tim Whiting",
        "rank": 14083,
        "rank_sort": 14102,
        "total": 2390
      },
      {
        "club_badge_src": null,
        "entry": 5973662,
        "entry_name": "Bill",
        "event_total": 56,
        "has_played": true,
        "id": 47016560,
        "last_rank": 13060,
        "player_name": "Bila Desta",
        "rank": 14083,
        "rank_sort": 14103,
        "total": 2390
      },
      {
        "club_badge_src": null,
        "entry": 6171871,
        "entry_name": "BlumesNight",
        "event_total": 56,
        "has_played": true,
        "id": 48802093,
        "last_rank": 13033,
        "player_name": "Matt Blumenstein",
        "rank": 14083,
        "rank_sort": 14104,
        "total": 2390
      },
      {
        "club_badge_src": null,
        "entry": 6821840,
        "entry_name": "Afternoon De Ligt",
        "event_total": 66,
        "has_played": true,
        "id": 54639930,
        "last_rank": 19302,
        "player_name": "Ashley Redfern-Williams",
        "rank": 14083,
        "rank_sort": 14105,
        "total": 2390
      },
      {
        "club_badge_src": null,
        "entry": 7086112,
        "entry_name": "PassiveManagement FC",
        "event_total": 52,
        "has_played": true,
        "id": 57044701,
        "last_rank": 11034,
        "player_name": "Joe Abrahams",
        "rank": 14083,
        "rank_sort": 14106,
        "total": 2390
      },
      {
        "club_badge_src": null,
        "entry": 8074046,
        "entry_name": "we go again",
        "event_total": 48,
        "has_played": true,
        "id": 66559446,
        "last_rank": 9382,
        "player_name": "Tunde Adeyele",
        "rank": 14083,
        "rank_sort": 14107,
        "total": 2390
      },
      {
        "club_badge_src": null,
        "entry": 8406480,
        "entry_name": "Greta Henning Berg",
        "event_total": 53,
        "has_played": true,
        "id": 69738617,
        "last_rank": 11536,
        "player_name": "James Miller",
        "rank": 14083,
        "rank_sort": 14108,
        "total": 2390
      },
      {
        "club_badge_src": null,
        "entry": 7956,
        "entry_name": "Demonic Mayhem",
        "event_total": 62,
        "has_played": true,
        "id": 46004,
        "last_rank": 16621,
        "player_name": "Ann Brind",
        "rank": 14109,
        "rank_sort": 14109,
        "total": 2390
      },
      {
        "club_badge_src": "https://fantasy.premierleague.com/gcs/plfpl-production-adobe-approved/plfpl-production/13677/e4f82d28-7f8d-41ce-a0f8-0ff3569416f7.png",
        "entry": 13677,
        "entry_name": "Scranton stranglers",
        "event_total": 65,
        "has_played": true,
        "id": 82744,
        "last_rank": 13601,
        "player_name": "Filip Orsolic",
        "rank": 14109,
        "rank_sort": 14110,
        "total": 2390
      },
      {
        "club_badge_src": null,
        "entry": 347524,
        "entry_name": "Fee Fi Foden",
        "event_total": 72,
        "has_played": true,
        "id": 2326141,
        "last_rank": 23881,
        "player_name": "Zak O'Brien",
        "rank": 14109,
        "rank_sort": 14111,
        "total": 2390
      },
      {
        "club_badge_src": "https://fantasy.premierleague.com/gcs/plfpl-production-adobe-approved/plfpl-production/608414/c8072d13-dbd3-4282-a7d1-0da7d9712914.png",
        "entry": 608414,
        "entry_name": "Roselea FC",
        "event_total": 67,
        "has_played": true,
        "id": 4109259,
        "last_rank": 12470,
        "player_name": "Alex Lee",
        "rank": 14109,
        "rank_sort": 14112,
        "total": 2390
      },
      {
        "club_badge_src": null,
        "entry": 608471,
        "entry_name": "Do I not like that",
        "event_total": 66,
        "has_played": true,
        "id": 4109659,
        "last_rank": 19302,
        "player_name": "Neil Isaac",
        "rank": 14109,
        "rank_sort": 14113,
        "total": 2390
      },
      {
        "club_badge_src": null,
        "entry": 1722795,
        "entry_name": "RutterWokeNonesense",
        "event_total": 65,
        "has_played": true,
        "id": 12076897,
        "last_rank": 13558,
        "player_name": "Harry Blackburn",
        "rank": 14109,
        "rank_sort": 14114,
        "total": 2390
      },
      {
        "club_badge_src": null,
        "entry": 1924429,
        "entry_name": "Sup4 H0t Fir3",
        "event_total": 36,
        "has_played": true,
        "id": 13571941,
        "last_rank": 5597,
        "player_name": "izaak mccall",
        "rank": 14109,
        "rank_sort": 14115,
        "total": 2390
      },
      {
        "club_badge_src": null,
        "entry": 1942093,
        "entry_name": "Bruno-nly Fans XI",
        "event_total": 60,
        "has_played": true,
        "id": 13699102,
        "last_rank": 13060,
        "player_name": "Kyle Mason",
        "rank": 14109,
        "rank_sort": 14116,
        "total": 2390
      },
      {
        "club_badge_src": "https://fantasy.premierleague.com/gcs/plfpl-production-adobe-approved/plfpl-production/2883451/565d9576-3e04-4899-826b-5caa5d2dc559.png",
        "entry": 2883451,
        "entry_name": "London is blue",
        "event_total": 65,
        "has_played": true,
        "id": 21109001,
        "last_rank": 18578,
        "player_name": "Kejdi Gogo",
        "rank": 14109,
        "rank_sort": 14117,
        "total": 2390
      },
      {
        "club_badge_src": null,
        "entry": 3053269,
        "entry_name": "Kane'd and Unable",
        "event_total": 53,
        "has_played": true,
        "id": 22478032,
        "last_rank": 11551,
        "player_name": "David Anderson",
        "rank": 14109,
        "rank_sort": 14118,
        "total": 2390
      },
      {
        "club_badge_src": null,
        "entry": 4001753,
        "entry_name": "Can't Farke There M8",
        "event_total": 73,
        "has_played": true,
        "id": 30141500,
        "last_rank": 24713,
        "player_name": "Luke Thurley",
        "rank": 14109,
        "rank_sort": 14119,
        "total": 2390
      },
      {
        "club_badge_src": null,
        "entry": 4148562,
        "entry_name": "Ten Hags to Riches",
        "event_total": 65,
        "has_played": true,
        "id": 31355626,
        "last_rank": 18578,
        "player_name": "Umear Naseem",
        "rank": 14109,
        "rank_sort": 14120,
        "total": 2390
      },
      {
        "club_badge_src": null,
        "entry": 5935986,
        "entry_name": "yakir fc",
        "event_total": 69,
        "has_played": true,
        "id": 46671849,
        "last_rank": 21510,
        "player_name": "yakir wiesy",
        "rank": 14109,
        "rank_sort": 14121,
        "total": 2390
      },
      {
        "club_badge_src": null,
        "entry": 5965347,
        "entry_name": "COYG\uff01",
        "event_total": 70,
        "has_played": true,
        "id": 46934145,
        "last_rank": 22293,
        "player_name": "Giannis Shawn",
        "rank": 14109,
        "rank_sort": 14122,
        "total": 2390
      },
      {
        "club_badge_src": null,
        "entry": 6612102,
        "entry_name": "The Killer D",
        "event_total": 51,
        "has_played": true,
        "id": 52830318,
        "last_rank": 10667,
        "player_name": "Donal McDaid",
        "rank": 14109,
        "rank_sort": 14123,
        "total": 2390
      },
      {
        "club_badge_src": null,
        "entry": 7747778,
        "entry_name": "Wacko Jacko's 11",
        "event_total": 53,
        "has_played": true,
        "id": 63601073,
        "last_rank": 11536,
        "player_name": "Lee Jackson",
        "rank": 14109,
        "rank_sort": 14124,
        "total": 2390
      },
      {
        "club_badge_src": null,
        "entry": 9001970,
        "entry_name": "Vesna Nikolic Pi",
        "event_total": 65,
        "has_played": true,
        "id": 75499463,
        "last_rank": 15952,
        "player_name": "17.06. 1987.",
        "rank": 14109,
        "rank_sort": 14125,
        "total": 2390
      },
      {
        "club_badge_src": null,
        "entry": 1672029,
        "entry_name": "TM Wisetuwo",
        "event_total": 65,
        "has_played": true,
        "id": 11706230,
        "last_rank": 15972,
        "player_name": "Hamid Salliah",
        "rank": 14126,
        "rank_sort": 14126,
        "total": 2390
      },
      {
        "club_badge_src": null,
        "entry": 2563897,
        "entry_name": "Fennerbackache",
        "event_total": 53,
        "has_played": true,
        "id": 18390107,
        "last_rank": 11551,
        "player_name": "Martin Fenner",
        "rank": 14126,
        "rank_sort": 14127,
        "total": 2390
      },
      {
        "club_badge_src": null,
        "entry": 3555956,
        "entry_name": "Inty Milan",
        "event_total": 58,
        "has_played": true,
        "id": 26475132,
        "last_rank": 14184,
        "player_name": "Khaleeq Ahmed",
        "rank": 14126,
        "rank_sort": 14128,
        "total": 2390
      },
      {
        "club_badge_src": null,
        "entry": 4684798,
        "entry_name": "Stanley's Stormers",
        "event_total": 51,
        "has_played": true,
        "id": 35901140,
        "last_rank": 9028,
        "player_name": "Tom Stanley",
        "rank": 14126,
        "rank_sort": 14129,
        "total": 2390
      },
      {
        "club_badge_src": "https://fantasy.premierleague.com/gcs/plfpl-production-adobe-approved/plfpl-production/5803761/2e3a1091-ed99-4cc7-a023-2a24a0ecbea0.png",
        "entry": 5803761,
        "entry_name": "IMPERATOR 13",
        "event_total": 53,
        "has_played": true,
        "id": 45532422,
        "last_rank": 9806,
        "player_name": "Bianco Verde13",
        "rank": 14126,
        "rank_sort": 14130,
        "total": 2390
      },
      {
        "club_badge_src": null,
        "entry": 8384338,
        "entry_name": "Ollie",
        "event_total": 54,
        "has_played": true,
        "id": 69532301,
        "last_rank": 10209,
        "player_name": "Olisa Obodoechina",
        "rank": 14126,
        "rank_sort": 14131,
        "total": 2390
      },
      {
        "club_badge_src": null,
        "entry": 49038,
        "entry_name": "bench warmer",
        "event_total": 67,
        "has_played": true,
        "id": 315112,
        "last_rank": 20079,
        "player_name": "tk amrie",
        "rank": 14132,
        "rank_sort": 14132,
        "total": 2390
      },
      {
        "club_badge_src": null,
        "entry": 51140,
        "entry_name": "Lock and Roll",
        "event_total": 67,
        "has_played": true,
        "id": 328907,
        "last_rank": 17257,
        "player_name": "Omar Abdi",
        "rank": 14132,
        "rank_sort": 14133,
        "total": 2390
      },
      {
        "club_badge_src": null,
        "entry": 516257,
        "entry_name": "Kanu believe it!!!",
        "event_total": 46,
        "has_played": true,
        "id": 3466018,
        "last_rank": 8652,
        "player_name": "Anthony Jones",
        "rank": 14132,
        "rank_sort": 14134,
        "total": 2390
      },
      {
        "club_badge_src": null,
        "entry": 1670249,
        "entry_name": "Nkry fc",
        "event_total": 60,
        "has_played": true,
        "id": 11694001,
        "last_rank": 15356,
        "player_name": "Khalifa Karaye",
        "rank": 14132,
        "rank_sort": 14135,
        "total": 2390
      },
      {
        "club_badge_src": "https://fantasy.premierleague.com/gcs/plfpl-production-adobe-approved/plfpl-production/1850434/52270036-9320-4fb8-afee-f9e038f59ef6.png",
        "entry": 1850434,
        "entry_name": "Wateva",
        "event_total": 48,
        "has_played": true,
        "id": 13020982,
        "last_rank": 7928,
        "player_name": "Emmanuel Graeve",
        "rank": 14132,
        "rank_sort": 14136,
        "total": 2390
      },
      {
        "club_badge_src": "https://fantasy.premierleague.com/gcs/plfpl-production-adobe-approved/plfpl-production/1871765/096a4ab6-f6c8-41ea-a9a0-dd71b1bcc465.png",
        "entry": 1871765,
        "entry_name": "SAMBA FC",
        "event_total": 69,
        "has_played": true,
        "id": 13177534,
        "last_rank": 21530,
        "player_name": "Skubi Dado",
        "rank": 14132,
        "rank_sort": 14137,
        "total": 2390
      },
      {
        "club_badge_src": null,
        "entry": 2377637,
        "entry_name": "FC SARANSK",
        "event_total": 37,
        "has_played": true,
        "id": 16976212,
        "last_rank": 5873,
        "player_name": "Boss Vanek",
        "rank": 14132,
        "rank_sort": 14138,
        "total": 2390
      },
      {
        "club_badge_src": null,
        "entry": 3461488,
        "entry_name": "a7med_xdii",
        "event_total": 58,
        "has_played": true,
        "id": 25730156,
        "last_rank": 12056,
        "player_name": "Ahmed Osama",
        "rank": 14132,
        "rank_sort": 14139,
        "total": 2390
      },
      {
        "club_badge_src": "https://fantasy.premierleague.com/gcs/plfpl-production-adobe-approved/plfpl-production/601167/f42982f2-0074-4cd7-a9f5-c0b6afc1066d.png",
        "entry": 601167,
        "entry_name": "Cole Blooded",
        "event_total": 62,
        "has_played": true,
        "id": 4056376,
        "last_rank": 16639,
        "player_name": "Joel Newman",
        "rank": 14140,
        "rank_sort": 14140,
        "total": 2390
      },
      {
        "club_badge_src": "https://fantasy.premierleague.com/gcs/plfpl-production-adobe-approved/plfpl-production/1779206/b1168b03-0738-4cd0-a687-4138f06a9d29.png",
        "entry": 1779206,
        "entry_name": "3740",
        "event_total": 62,
        "has_played": true,
        "id": 12499802,
        "last_rank": 14197,
        "player_name": "Mathias Malek",
        "rank": 14140,
        "rank_sort": 14141,
        "total": 2390
      },
      {
        "club_badge_src": null,
        "entry": 1888825,
        "entry_name": "\u0627\u0644\u0634\u064a\u0627\u0637\u064a\u0646 \u0627\u0644\u062d\u0645\u0631",
        "event_total": 66,
        "has_played": true,
        "id": 13311699,
        "last_rank": 16639,
        "player_name": "Ibrahim Ramadan",
        "rank": 14140,
        "rank_sort": 14142,
        "total": 2390
      },
      {
        "club_badge_src": null,
        "entry": 2175794,
        "entry_name": "Los Porro Hermanos",
        "event_total": 67,
        "has_played": true,
        "id": 15471742,
        "last_rank": 17265,
        "player_name": "Kevin Reeve",
        "rank": 14140,
        "rank_sort": 14143,
        "total": 2390
      },
      {
        "club_badge_src": "https://fantasy.premierleague.com/gcs/plfpl-production-adobe-approved/plfpl-production/5635020/356588b3-dffa-4bcc-8a4b-8e80bb99f61d.png",
        "entry": 5635020,
        "entry_name": "Seven Eleven",
        "event_total": 58,
        "has_played": true,
        "id": 44061723,
        "last_rank": 10221,
        "player_name": "Sven Hutchinson",
        "rank": 14140,
        "rank_sort": 14144,
        "total": 2390
      },
      {
        "club_badge_src": null,
        "entry": 5765422,
        "entry_name": "Munuku Fc",
        "event_total": 38,
        "has_played": true,
        "id": 45198283,
        "last_rank": 6127,
        "player_name": "Austin Nthei",
        "rank": 14140,
        "rank_sort": 14145,
        "total": 2390
      },
      {
        "club_badge_src": null,
        "entry": 8421281,
        "entry_name": "Shutesys Superstars",
        "event_total": 67,
        "has_played": true,
        "id": 69879899,
        "last_rank": 20058,
        "player_name": "Alex Shutes",
        "rank": 14140,
        "rank_sort": 14146,
        "total": 2390
      },
      {
        "club_badge_src": null,
        "entry": 2672,
        "entry_name": "ThomasTheFrankEngine",
        "event_total": 67,
        "has_played": true,
        "id": 14958,
        "last_rank": 20084,
        "player_name": "Laura Charman",
        "rank": 14147,
        "rank_sort": 14147,
        "total": 2390
      },
      {
        "club_badge_src": null,
        "entry": 5773608,
        "entry_name": "Raouls XI",
        "event_total": 55,
        "has_played": true,
        "id": 45267520,
        "last_rank": 12577,
        "player_name": "Jack Prettyman",
        "rank": 14147,
        "rank_sort": 14148,
        "total": 2390
      },
      {
        "club_badge_src": null,
        "entry": 479229,
        "entry_name": "Buchu FC",
        "event_total": 54,
        "has_played": true,
        "id": 3217067,
        "last_rank": 8659,
        "player_name": "\u05d0\u05d5\u05e8\u05d9 \u05d1\u05d5\u05e6'\u05d5\u05de\u05e0\u05e1\u05e7\u05d9",
        "rank": 14149,
        "rank_sort": 14149,
        "total": 2390
      },
      {
        "club_badge_src": "https://fantasy.premierleague.com/gcs/plfpl-production-adobe-approved/plfpl-production/135188/0fb1827d-c478-4327-b3e8-7c9de14aff59.png",
        "entry": 135188,
        "entry_name": "Mr Marinakis Mafia",
        "event_total": 63,
        "has_played": true,
        "id": 880310,
        "last_rank": 17292,
        "player_name": "Isaac Jennings",
        "rank": 14150,
        "rank_sort": 14150,
        "total": 2390
      }
    ]
  }
}