{
  "last_updated_data": "2026-05-24T23:28:17Z",
  "league": {
    "admin_entry": null,
    "closed": false,
    "code_privacy": "p",
    "created": "2025-07-20T23:14:33.933835Z",
    "cup_league": 2815434,
    "has_cup": true,
    "id": 314,
    "league_type": "s",
    "max_entries": null,
    "name": "Overall",
    "rank": null,
    "scoring": "c",
    "start_event": 1
  },
  "new_entries": {
    "has_next": false,
    "page": 1,
    "results": []
  },
  "standings": {
    "has_next": true,
    "page": 154,
    "results": [
      {
        "club_badge_src": null,
        "entry": 1138493,
        "entry_name": "In the goal hole",
        "event_total": 62,
        "has_played": true,
        "id": 7891764,
        "last_rank": 7450,
        "player_name": "Rhys Ferguson",
        "rank": 7628,
        "rank_sort": 7651,
        "total": 2405
      },
      {
        "club_badge_src": null,
        "entry": 1193814,
        "entry_name": "GinSuy",
        "event_total": 51,
        "has_played": true,
        "id": 8283106,
        "last_rank": 5528,
        "player_name": "Dean Suy",
        "rank": 7628,
        "rank_sort": 7652,
        "total": 2405
      },
      {
        "club_badge_src": "https://fantasy.premierleague.com/gcs/plfpl-production-adobe-approved/plfpl-production/1439309/9baf82f4-aad7-4564-b801-326ac89c1ee3.png",
        "entry": 1439309,
        "entry_name": "High Score Hotspurs",
        "event_total": 56,
        "has_played": true,
        "id": 10029433,
        "last_rank": 6887,
        "player_name": "Mark Higham",
        "rank": 7628,
        "rank_sort": 7653,
        "total": 2405
      },
      {
        "club_badge_src": null,
        "entry": 2067393,
        "entry_name": "Sergio",
        "event_total": 65,
        "has_played": true,
        "id": 14654477,
        "last_rank": 10102,
        "player_name": "Sergio Silva",
        "rank": 7628,
        "rank_sort": 7654,
        "total": 2405
      },
      {
        "club_badge_src": null,
        "entry": 2561476,
        "entry_name": "Tauranga United",
        "event_total": 50,
        "has_played": true,
        "id": 18371226,
        "last_rank": 5281,
        "player_name": "Ben Schnackenberg",
        "rank": 7628,
        "rank_sort": 7655,
        "total": 2405
      },
      {
        "club_badge_src": null,
        "entry": 2862829,
        "entry_name": "Average Joes",
        "event_total": 60,
        "has_played": true,
        "id": 20936329,
        "last_rank": 8138,
        "player_name": "joe Linden",
        "rank": 7628,
        "rank_sort": 7656,
        "total": 2405
      },
      {
        "club_badge_src": null,
        "entry": 2900427,
        "entry_name": "parkguild2025",
        "event_total": 57,
        "has_played": true,
        "id": 21254427,
        "last_rank": 7193,
        "player_name": "Stephen Gay",
        "rank": 7628,
        "rank_sort": 7657,
        "total": 2405
      },
      {
        "club_badge_src": "https://fantasy.premierleague.com/gcs/plfpl-production-adobe-approved/plfpl-production/3234026/50b85fda-4e10-4522-8d32-e057ee57c364.png",
        "entry": 3234026,
        "entry_name": "Stretford End",
        "event_total": 68,
        "has_played": true,
        "id": 23919285,
        "last_rank": 11419,
        "player_name": "Sir Fergi",
        "rank": 7628,
        "rank_sort": 7658,
        "total": 2405
      },
      {
        "club_badge_src": null,
        "entry": 3305861,
        "entry_name": "Slot Drop",
        "event_total": 63,
        "has_played": true,
        "id": 24487325,
        "last_rank": 9142,
        "player_name": "William Roderick",
        "rank": 7628,
        "rank_sort": 7659,
        "total": 2405
      },
      {
        "club_badge_src": null,
        "entry": 4040080,
        "entry_name": "Team Name",
        "event_total": 62,
        "has_played": true,
        "id": 30466985,
        "last_rank": 8925,
        "player_name": "Michael Richmond",
        "rank": 7628,
        "rank_sort": 7660,
        "total": 2405
      },
      {
        "club_badge_src": null,
        "entry": 4110033,
        "entry_name": "Dog With Wheels",
        "event_total": 57,
        "has_played": true,
        "id": 31039463,
        "last_rank": 7193,
        "player_name": "Connor Kniveton",
        "rank": 7628,
        "rank_sort": 7661,
        "total": 2405
      },
      {
        "club_badge_src": "https://fantasy.premierleague.com/gcs/plfpl-production-adobe-approved/plfpl-production/4308890/a49c6ded-f044-42a4-91d1-243017e92d2f.png",
        "entry": 4308890,
        "entry_name": "Prime XI",
        "event_total": 61,
        "has_played": true,
        "id": 32693572,
        "last_rank": 5940,
        "player_name": "Omar Khaled",
        "rank": 7628,
        "rank_sort": 7662,
        "total": 2405
      },
      {
        "club_badge_src": null,
        "entry": 4454681,
        "entry_name": "Cloyne Hammers",
        "event_total": 63,
        "has_played": true,
        "id": 33933153,
        "last_rank": 9311,
        "player_name": "John O'Neill",
        "rank": 7628,
        "rank_sort": 7663,
        "total": 2405
      },
      {
        "club_badge_src": null,
        "entry": 4486960,
        "entry_name": "Howe's That",
        "event_total": 57,
        "has_played": true,
        "id": 34199994,
        "last_rank": 7193,
        "player_name": "Ben Rochester",
        "rank": 7628,
        "rank_sort": 7664,
        "total": 2405
      },
      {
        "club_badge_src": "https://fantasy.premierleague.com/gcs/plfpl-production-adobe-approved/plfpl-production/4986996/78c64da4-6c8e-4fbe-85b9-23647425da6d.png",
        "entry": 4986996,
        "entry_name": "Costa_Jr",
        "event_total": 48,
        "has_played": true,
        "id": 38499821,
        "last_rank": 4839,
        "player_name": "Jorge Costa",
        "rank": 7628,
        "rank_sort": 7665,
        "total": 2405
      },
      {
        "club_badge_src": null,
        "entry": 5332099,
        "entry_name": "General Bombofart",
        "event_total": 68,
        "has_played": true,
        "id": 41337175,
        "last_rank": 11419,
        "player_name": "Alex Conmy",
        "rank": 7628,
        "rank_sort": 7666,
        "total": 2405
      },
      {
        "club_badge_src": null,
        "entry": 6500260,
        "entry_name": "Fergie Time Xl",
        "event_total": 69,
        "has_played": true,
        "id": 51824021,
        "last_rank": 11699,
        "player_name": "Ross Scott",
        "rank": 7628,
        "rank_sort": 7667,
        "total": 2405
      },
      {
        "club_badge_src": null,
        "entry": 6624811,
        "entry_name": "S@k@ Spuds",
        "event_total": 65,
        "has_played": true,
        "id": 52941500,
        "last_rank": 10102,
        "player_name": "Arran Brennan",
        "rank": 7628,
        "rank_sort": 7668,
        "total": 2405
      },
      {
        "club_badge_src": "https://fantasy.premierleague.com/gcs/plfpl-production-adobe-approved/plfpl-production/7525786/d6650c1c-d300-413c-8be1-f6c9f999d5c9.png",
        "entry": 7525786,
        "entry_name": "Wirtz Case Scenario",
        "event_total": 64,
        "has_played": true,
        "id": 61589854,
        "last_rank": 9711,
        "player_name": "Jon Savage",
        "rank": 7628,
        "rank_sort": 7669,
        "total": 2405
      },
      {
        "club_badge_src": null,
        "entry": 8661106,
        "entry_name": "Neverland",
        "event_total": 57,
        "has_played": true,
        "id": 72200113,
        "last_rank": 6011,
        "player_name": "Lee Zhen Wei",
        "rank": 7628,
        "rank_sort": 7670,
        "total": 2405
      },
      {
        "club_badge_src": null,
        "entry": 9126988,
        "entry_name": "\u0639\u062a\u0627\u0648\u0644\u0629 \u0627\u0644\u0641\u0627\u0646\u062a\u0627\u0632\u064a",
        "event_total": 51,
        "has_played": true,
        "id": 76717060,
        "last_rank": 4570,
        "player_name": "M SALAH",
        "rank": 7628,
        "rank_sort": 7671,
        "total": 2405
      },
      {
        "club_badge_src": null,
        "entry": 25547,
        "entry_name": "The Yourinators",
        "event_total": 67,
        "has_played": true,
        "id": 161600,
        "last_rank": 7761,
        "player_name": "Harry Cornhill",
        "rank": 7672,
        "rank_sort": 7672,
        "total": 2405
      },
      {
        "club_badge_src": null,
        "entry": 173442,
        "entry_name": "Gewirtztraminer",
        "event_total": 32,
        "has_played": true,
        "id": 1145470,
        "last_rank": 2247,
        "player_name": "Adam Cooke",
        "rank": 7672,
        "rank_sort": 7673,
        "total": 2405
      },
      {
        "club_badge_src": null,
        "entry": 440660,
        "entry_name": "Cunha's Lads",
        "event_total": 58,
        "has_played": true,
        "id": 2954640,
        "last_rank": 7501,
        "player_name": "Philip Enstr\u00f6m",
        "rank": 7672,
        "rank_sort": 7674,
        "total": 2405
      },
      {
        "club_badge_src": "https://fantasy.premierleague.com/gcs/plfpl-production-adobe-approved/plfpl-production/711482/d34bda7b-fb61-4714-9b13-29348b1589aa.png",
        "entry": 711482,
        "entry_name": "Bruno Magnifico",
        "event_total": 55,
        "has_played": true,
        "id": 4825920,
        "last_rank": 5528,
        "player_name": "Roan Slack",
        "rank": 7672,
        "rank_sort": 7675,
        "total": 2405
      },
      {
        "club_badge_src": null,
        "entry": 761078,
        "entry_name": "\u0633\u0631\u0627\u062c \u0627\u0644\u0642\u0630\u0627\u0641\u064a",
        "event_total": 67,
        "has_played": true,
        "id": 5188944,
        "last_rank": 11034,
        "player_name": "X Flir",
        "rank": 7672,
        "rank_sort": 7676,
        "total": 2405
      },
      {
        "club_badge_src": null,
        "entry": 820904,
        "entry_name": "Nadjib31_Dz",
        "event_total": 72,
        "has_played": true,
        "id": 5622152,
        "last_rank": 13558,
        "player_name": "Nadjib Mekeddem",
        "rank": 7672,
        "rank_sort": 7677,
        "total": 2405
      },
      {
        "club_badge_src": "https://fantasy.premierleague.com/gcs/plfpl-production-adobe-approved/plfpl-production/848469/0d419f87-d1b0-44b9-b41d-8e1522d009ec.png",
        "entry": 848469,
        "entry_name": "\u54bb\u72d7\u52fe\u4e0d\u5728\u5bb6",
        "event_total": 71,
        "has_played": true,
        "id": 5815226,
        "last_rank": 12705,
        "player_name": "Rud yyyy",
        "rank": 7672,
        "rank_sort": 7678,
        "total": 2405
      },
      {
        "club_badge_src": null,
        "entry": 1015451,
        "entry_name": "ten hag smells",
        "event_total": 65,
        "has_played": true,
        "id": 7024877,
        "last_rank": 10151,
        "player_name": "James Greene",
        "rank": 7672,
        "rank_sort": 7679,
        "total": 2405
      },
      {
        "club_badge_src": null,
        "entry": 1080197,
        "entry_name": "Skyblue Elephants",
        "event_total": 53,
        "has_played": true,
        "id": 7479360,
        "last_rank": 6094,
        "player_name": "Steve Naylor",
        "rank": 7672,
        "rank_sort": 7680,
        "total": 2405
      },
      {
        "club_badge_src": null,
        "entry": 1243317,
        "entry_name": "visca barca",
        "event_total": 45,
        "has_played": true,
        "id": 8634851,
        "last_rank": 4223,
        "player_name": "saadi moussa",
        "rank": 7672,
        "rank_sort": 7681,
        "total": 2405
      },
      {
        "club_badge_src": null,
        "entry": 1360633,
        "entry_name": "Diamond Dogs",
        "event_total": 49,
        "has_played": true,
        "id": 9457528,
        "last_rank": 4155,
        "player_name": "David Warners",
        "rank": 7672,
        "rank_sort": 7682,
        "total": 2405
      },
      {
        "club_badge_src": null,
        "entry": 1629982,
        "entry_name": "Fielies",
        "event_total": 65,
        "has_played": true,
        "id": 11408789,
        "last_rank": 10151,
        "player_name": "Johnny Van Wyk",
        "rank": 7672,
        "rank_sort": 7683,
        "total": 2405
      },
      {
        "club_badge_src": null,
        "entry": 2441588,
        "entry_name": "Furnesscouse",
        "event_total": 68,
        "has_played": true,
        "id": 17461532,
        "last_rank": 8138,
        "player_name": "Karl McQuillan",
        "rank": 7672,
        "rank_sort": 7684,
        "total": 2405
      },
      {
        "club_badge_src": null,
        "entry": 2852711,
        "entry_name": "X:>     @16Rodri1",
        "event_total": 65,
        "has_played": true,
        "id": 20858572,
        "last_rank": 10151,
        "player_name": "Rodri 16",
        "rank": 7672,
        "rank_sort": 7685,
        "total": 2405
      },
      {
        "club_badge_src": null,
        "entry": 2955539,
        "entry_name": "Worn Wild Co UK",
        "event_total": 52,
        "has_played": true,
        "id": 21707975,
        "last_rank": 4839,
        "player_name": "Jerry VL",
        "rank": 7672,
        "rank_sort": 7686,
        "total": 2405
      },
      {
        "club_badge_src": null,
        "entry": 3640349,
        "entry_name": "Yoro Wissa Harry!",
        "event_total": 64,
        "has_played": true,
        "id": 27130097,
        "last_rank": 9711,
        "player_name": "Ilija Cvetkovi\u0107",
        "rank": 7672,
        "rank_sort": 7687,
        "total": 2405
      },
      {
        "club_badge_src": null,
        "entry": 4640448,
        "entry_name": "FC Liverpool",
        "event_total": 79,
        "has_played": true,
        "id": 35491533,
        "last_rank": 15164,
        "player_name": "Mario Baric",
        "rank": 7672,
        "rank_sort": 7688,
        "total": 2405
      },
      {
        "club_badge_src": null,
        "entry": 4641284,
        "entry_name": "Change Name",
        "event_total": 45,
        "has_played": true,
        "id": 35498783,
        "last_rank": 4205,
        "player_name": "Alex McGookin",
        "rank": 7672,
        "rank_sort": 7689,
        "total": 2405
      },
      {
        "club_badge_src": null,
        "entry": 4684389,
        "entry_name": "YesMyG",
        "event_total": 55,
        "has_played": true,
        "id": 35897641,
        "last_rank": 6614,
        "player_name": "Nirav Taneja",
        "rank": 7672,
        "rank_sort": 7690,
        "total": 2405
      },
      {
        "club_badge_src": null,
        "entry": 4999291,
        "entry_name": "The Lynch Mob",
        "event_total": 56,
        "has_played": true,
        "id": 38602181,
        "last_rank": 5792,
        "player_name": "Gerard Lynch",
        "rank": 7672,
        "rank_sort": 7691,
        "total": 2405
      },
      {
        "club_badge_src": null,
        "entry": 5261154,
        "entry_name": "BLanKFaCe",
        "event_total": 76,
        "has_played": true,
        "id": 40776509,
        "last_rank": 15694,
        "player_name": "Natnael Wendirad",
        "rank": 7672,
        "rank_sort": 7692,
        "total": 2405
      },
      {
        "club_badge_src": null,
        "entry": 5346024,
        "entry_name": "BV Number 01",
        "event_total": 59,
        "has_played": true,
        "id": 41480208,
        "last_rank": 7891,
        "player_name": "Bharat Varma",
        "rank": 7672,
        "rank_sort": 7693,
        "total": 2405
      },
      {
        "club_badge_src": null,
        "entry": 5635074,
        "entry_name": "Lil Uzi Wirtz",
        "event_total": 67,
        "has_played": true,
        "id": 44062188,
        "last_rank": 9311,
        "player_name": "Ayman Kebbe",
        "rank": 7672,
        "rank_sort": 7694,
        "total": 2405
      },
      {
        "club_badge_src": null,
        "entry": 6240524,
        "entry_name": "Front of the Net",
        "event_total": 42,
        "has_played": true,
        "id": 49393438,
        "last_rank": 3648,
        "player_name": "Ben Clark",
        "rank": 7672,
        "rank_sort": 7695,
        "total": 2405
      },
      {
        "club_badge_src": "https://fantasy.premierleague.com/gcs/plfpl-production-adobe-approved/plfpl-production/6627958/4af256ae-92c7-47c8-b9b4-e7cdd047c83d.png",
        "entry": 6627958,
        "entry_name": "Troublemakers",
        "event_total": 67,
        "has_played": true,
        "id": 52968991,
        "last_rank": 11034,
        "player_name": "Saransh Goyal",
        "rank": 7672,
        "rank_sort": 7696,
        "total": 2405
      },
      {
        "club_badge_src": null,
        "entry": 7350185,
        "entry_name": "Leoni Way Is Isaks",
        "event_total": 63,
        "has_played": true,
        "id": 59547056,
        "last_rank": 9248,
        "player_name": "Gabriel Robinson",
        "rank": 7672,
        "rank_sort": 7697,
        "total": 2405
      },
      {
        "club_badge_src": "https://fantasy.premierleague.com/gcs/plfpl-production-adobe-approved/plfpl-production/7529248/00e89b39-14d6-4551-b6bb-aed22ffbba4c.png",
        "entry": 7529248,
        "entry_name": "Kloppflopped",
        "event_total": 65,
        "has_played": true,
        "id": 61622239,
        "last_rank": 8552,
        "player_name": "craig soupen",
        "rank": 7672,
        "rank_sort": 7698,
        "total": 2405
      },
      {
        "club_badge_src": null,
        "entry": 8291947,
        "entry_name": "Botboyz",
        "event_total": 72,
        "has_played": true,
        "id": 68625721,
        "last_rank": 13500,
        "player_name": "Will Brindley",
        "rank": 7672,
        "rank_sort": 7699,
        "total": 2405
      },
      {
        "club_badge_src": null,
        "entry": 9393579,
        "entry_name": "Gdynia Represent",
        "event_total": 58,
        "has_played": true,
        "id": 79311829,
        "last_rank": 6305,
        "player_name": "Maks Grzybowski",
        "rank": 7672,
        "rank_sort": 7700,
        "total": 2405
      }
    ]
  }
}