{
  "last_updated_data": "2026-05-24T23:28:17Z",
  "league": {
    "admin_entry": null,
    "closed": false,
    "code_privacy": "p",
    "created": "2025-07-20T23:14:33.933835Z",
    "cup_league": 2815434,
    "has_cup": true,
    "id": 314,
    "league_type": "s",
    "max_entries": null,
    "name": "Overall",
    "rank": null,
    "scoring": "c",
    "start_event": 1
  },
  "new_entries": {
    "has_next": false,
    "page": 1,
    "results": []
  },
  "standings": {
    "has_next": true,
    "page": 99,
    "results": [
      {
        "club_badge_src": null,
        "entry": 2922628,
        "entry_name": "Champions Sound",
        "event_total": 54,
        "has_played": true,
        "id": 21425137,
        "last_rank": 3902,
        "player_name": "Champion Sound",
        "rank": 4869,
        "rank_sort": 4901,
        "total": 2415
      },
      {
        "club_badge_src": null,
        "entry": 3204647,
        "entry_name": "Eye for Unai",
        "event_total": 77,
        "has_played": true,
        "id": 23690547,
        "last_rank": 10748,
        "player_name": "Freddie Orme",
        "rank": 4869,
        "rank_sort": 4902,
        "total": 2415
      },
      {
        "club_badge_src": null,
        "entry": 3266126,
        "entry_name": "Man YourKnighted",
        "event_total": 62,
        "has_played": true,
        "id": 24169160,
        "last_rank": 5646,
        "player_name": "Ryan Crozier",
        "rank": 4869,
        "rank_sort": 4903,
        "total": 2415
      },
      {
        "club_badge_src": null,
        "entry": 3373295,
        "entry_name": "Allison Wonderland",
        "event_total": 58,
        "has_played": true,
        "id": 25034817,
        "last_rank": 4742,
        "player_name": "Keith Flaherty",
        "rank": 4869,
        "rank_sort": 4904,
        "total": 2415
      },
      {
        "club_badge_src": null,
        "entry": 3375255,
        "entry_name": "Haven\u2019t Got A Kalou",
        "event_total": 63,
        "has_played": true,
        "id": 25051893,
        "last_rank": 5940,
        "player_name": "Chris Eastwood",
        "rank": 4869,
        "rank_sort": 4905,
        "total": 2415
      },
      {
        "club_badge_src": "https://fantasy.premierleague.com/gcs/plfpl-production-adobe-approved/plfpl-production/3510585/e29f9701-1bb2-4e47-8d1d-5cf7432512ac.png",
        "entry": 3510585,
        "entry_name": "Djangovci",
        "event_total": 66,
        "has_played": true,
        "id": 26121425,
        "last_rank": 6752,
        "player_name": "Andrej Stojcev",
        "rank": 4869,
        "rank_sort": 4906,
        "total": 2415
      },
      {
        "club_badge_src": null,
        "entry": 3518331,
        "entry_name": "SoReach",
        "event_total": 66,
        "has_played": true,
        "id": 26182060,
        "last_rank": 6677,
        "player_name": "SoReach dizen",
        "rank": 4869,
        "rank_sort": 4907,
        "total": 2415
      },
      {
        "club_badge_src": "https://fantasy.premierleague.com/gcs/plfpl-production-adobe-approved/plfpl-production/3713316/fd6c4e91-abaa-4c17-b9eb-169721a6cd17.png",
        "entry": 3713316,
        "entry_name": "Bari\u2019ly Legal XI",
        "event_total": 65,
        "has_played": true,
        "id": 27709125,
        "last_rank": 6409,
        "player_name": "Ali AlBari",
        "rank": 4869,
        "rank_sort": 4908,
        "total": 2415
      },
      {
        "club_badge_src": null,
        "entry": 4024660,
        "entry_name": "Beef Cherki",
        "event_total": 51,
        "has_played": true,
        "id": 30336196,
        "last_rank": 3408,
        "player_name": "Ben Richardson",
        "rank": 4869,
        "rank_sort": 4909,
        "total": 2415
      },
      {
        "club_badge_src": "https://fantasy.premierleague.com/gcs/plfpl-production-adobe-approved/plfpl-production/4381895/8e34eb3a-8e3e-4761-8f65-e1cd621782c7.png",
        "entry": 4381895,
        "entry_name": "Heung-Min Gone",
        "event_total": 62,
        "has_played": true,
        "id": 33301120,
        "last_rank": 5646,
        "player_name": "N L",
        "rank": 4869,
        "rank_sort": 4910,
        "total": 2415
      },
      {
        "club_badge_src": null,
        "entry": 4647935,
        "entry_name": "ElBazabeez",
        "event_total": 57,
        "has_played": true,
        "id": 35557562,
        "last_rank": 4515,
        "player_name": "Islam Atallah",
        "rank": 4869,
        "rank_sort": 4911,
        "total": 2415
      },
      {
        "club_badge_src": "https://fantasy.premierleague.com/gcs/plfpl-production-adobe-approved/plfpl-production/4686822/14631925-1abe-4171-a0e2-090599e6326c.png",
        "entry": 4686822,
        "entry_name": "Sparkstars United",
        "event_total": 64,
        "has_played": true,
        "id": 35918514,
        "last_rank": 6166,
        "player_name": "Mark Allen",
        "rank": 4869,
        "rank_sort": 4912,
        "total": 2415
      },
      {
        "club_badge_src": null,
        "entry": 4909370,
        "entry_name": "THE RAJAOUI \ufffd",
        "event_total": 47,
        "has_played": true,
        "id": 37859713,
        "last_rank": 2824,
        "player_name": "Elmahjoub Agouram",
        "rank": 4869,
        "rank_sort": 4913,
        "total": 2415
      },
      {
        "club_badge_src": null,
        "entry": 5002076,
        "entry_name": "Victor Baik!",
        "event_total": 46,
        "has_played": true,
        "id": 38624097,
        "last_rank": 2685,
        "player_name": "Victor Lim",
        "rank": 4869,
        "rank_sort": 4914,
        "total": 2415
      },
      {
        "club_badge_src": null,
        "entry": 5766742,
        "entry_name": "The Better Henderson",
        "event_total": 77,
        "has_played": true,
        "id": 45209723,
        "last_rank": 10748,
        "player_name": "Katy Henderson",
        "rank": 4869,
        "rank_sort": 4915,
        "total": 2415
      },
      {
        "club_badge_src": null,
        "entry": 5857891,
        "entry_name": "8Peat F.C.",
        "event_total": 71,
        "has_played": true,
        "id": 45996148,
        "last_rank": 8339,
        "player_name": "Herman Lee",
        "rank": 4869,
        "rank_sort": 4916,
        "total": 2415
      },
      {
        "club_badge_src": null,
        "entry": 6044448,
        "entry_name": "Jazz Hands",
        "event_total": 70,
        "has_played": true,
        "id": 47691332,
        "last_rank": 7979,
        "player_name": "David White",
        "rank": 4869,
        "rank_sort": 4917,
        "total": 2415
      },
      {
        "club_badge_src": null,
        "entry": 6187228,
        "entry_name": "Cestrian all stars",
        "event_total": 51,
        "has_played": true,
        "id": 48934810,
        "last_rank": 3408,
        "player_name": "Brian Dutton",
        "rank": 4869,
        "rank_sort": 4918,
        "total": 2415
      },
      {
        "club_badge_src": null,
        "entry": 6830138,
        "entry_name": "Tonali's Angels",
        "event_total": 64,
        "has_played": true,
        "id": 54709428,
        "last_rank": 6166,
        "player_name": "Tom Carmichael",
        "rank": 4869,
        "rank_sort": 4919,
        "total": 2415
      },
      {
        "club_badge_src": null,
        "entry": 7211298,
        "entry_name": "GGMU",
        "event_total": 63,
        "has_played": true,
        "id": 58240628,
        "last_rank": 5940,
        "player_name": "Michael Suen",
        "rank": 4869,
        "rank_sort": 4920,
        "total": 2415
      },
      {
        "club_badge_src": null,
        "entry": 7692480,
        "entry_name": "Charli xGx",
        "event_total": 69,
        "has_played": true,
        "id": 63103918,
        "last_rank": 7604,
        "player_name": "Jack Boothroyd",
        "rank": 4869,
        "rank_sort": 4921,
        "total": 2415
      },
      {
        "club_badge_src": null,
        "entry": 8150543,
        "entry_name": "Miki",
        "event_total": 60,
        "has_played": true,
        "id": 67273896,
        "last_rank": 5173,
        "player_name": "Ivan Mihokovi\u0107",
        "rank": 4869,
        "rank_sort": 4922,
        "total": 2415
      },
      {
        "club_badge_src": null,
        "entry": 8765394,
        "entry_name": "kom till pappa",
        "event_total": 66,
        "has_played": true,
        "id": 73210100,
        "last_rank": 6752,
        "player_name": "Oliwer Hristovski",
        "rank": 4869,
        "rank_sort": 4923,
        "total": 2415
      },
      {
        "club_badge_src": null,
        "entry": 8975059,
        "entry_name": "Mommo",
        "event_total": 53,
        "has_played": true,
        "id": 75241103,
        "last_rank": 3079,
        "player_name": "Amir Mansour",
        "rank": 4869,
        "rank_sort": 4924,
        "total": 2415
      },
      {
        "club_badge_src": null,
        "entry": 17742,
        "entry_name": "Chillbreeze",
        "event_total": 54,
        "has_played": true,
        "id": 110139,
        "last_rank": 3951,
        "player_name": "Riaan De Jager",
        "rank": 4925,
        "rank_sort": 4925,
        "total": 2415
      },
      {
        "club_badge_src": "https://fantasy.premierleague.com/gcs/plfpl-production-adobe-approved/plfpl-production/21977/99e86343-94e4-4b1c-9bb3-76289186a40a.png",
        "entry": 21977,
        "entry_name": "Da new invincibles",
        "event_total": 57,
        "has_played": true,
        "id": 137913,
        "last_rank": 4570,
        "player_name": "Prince-Abdirahman Cr",
        "rank": 4925,
        "rank_sort": 4926,
        "total": 2415
      },
      {
        "club_badge_src": null,
        "entry": 25250,
        "entry_name": "David N\u2019goggins",
        "event_total": 66,
        "has_played": true,
        "id": 159713,
        "last_rank": 6839,
        "player_name": "Tor Olav Leksb\u00f8",
        "rank": 4925,
        "rank_sort": 4927,
        "total": 2415
      },
      {
        "club_badge_src": null,
        "entry": 33681,
        "entry_name": "Airsenal",
        "event_total": 61,
        "has_played": true,
        "id": 214906,
        "last_rank": 4515,
        "player_name": "Aps Air",
        "rank": 4925,
        "rank_sort": 4928,
        "total": 2415
      },
      {
        "club_badge_src": "https://fantasy.premierleague.com/gcs/plfpl-production-adobe-approved/plfpl-production/71998/842456f0-558f-4d76-8540-1c02c3450607.png",
        "entry": 71998,
        "entry_name": "Where Eagles Dare",
        "event_total": 62,
        "has_played": true,
        "id": 467769,
        "last_rank": 5688,
        "player_name": "James Clement",
        "rank": 4925,
        "rank_sort": 4929,
        "total": 2415
      },
      {
        "club_badge_src": null,
        "entry": 79841,
        "entry_name": "Dream team",
        "event_total": 73,
        "has_played": true,
        "id": 519431,
        "last_rank": 9248,
        "player_name": "piotr haliniak",
        "rank": 4925,
        "rank_sort": 4930,
        "total": 2415
      },
      {
        "club_badge_src": null,
        "entry": 87012,
        "entry_name": "Litter of Gittens",
        "event_total": 52,
        "has_played": true,
        "id": 567303,
        "last_rank": 3627,
        "player_name": "Matt Furey",
        "rank": 4925,
        "rank_sort": 4931,
        "total": 2415
      },
      {
        "club_badge_src": null,
        "entry": 121359,
        "entry_name": "Rascal Chimbonda",
        "event_total": 42,
        "has_played": true,
        "id": 791839,
        "last_rank": 2215,
        "player_name": "Oli Fell",
        "rank": 4925,
        "rank_sort": 4932,
        "total": 2415
      },
      {
        "club_badge_src": null,
        "entry": 208351,
        "entry_name": "Slot Machine",
        "event_total": 58,
        "has_played": true,
        "id": 1385211,
        "last_rank": 4742,
        "player_name": "Finley Goulding",
        "rank": 4925,
        "rank_sort": 4933,
        "total": 2415
      },
      {
        "club_badge_src": "https://fantasy.premierleague.com/gcs/plfpl-production-adobe-approved/plfpl-production/279630/2d95aa75-33bd-4140-9f48-5bfbea119f51.png",
        "entry": 279630,
        "entry_name": "PointsRus",
        "event_total": 60,
        "has_played": true,
        "id": 1861086,
        "last_rank": 4270,
        "player_name": "Thomas Jamieson",
        "rank": 4925,
        "rank_sort": 4934,
        "total": 2415
      },
      {
        "club_badge_src": null,
        "entry": 318752,
        "entry_name": "From Brad to Wirtz",
        "event_total": 63,
        "has_played": true,
        "id": 2136651,
        "last_rank": 4954,
        "player_name": "Calum Duddy",
        "rank": 4925,
        "rank_sort": 4935,
        "total": 2415
      },
      {
        "club_badge_src": null,
        "entry": 378047,
        "entry_name": "Reyndogs Rovers",
        "event_total": 62,
        "has_played": true,
        "id": 2532655,
        "last_rank": 5752,
        "player_name": "Ian Reynolds",
        "rank": 4925,
        "rank_sort": 4936,
        "total": 2415
      },
      {
        "club_badge_src": "https://fantasy.premierleague.com/gcs/plfpl-production-adobe-approved/plfpl-production/530899/5bde6e25-c6df-45fa-bed0-1f65259529b5.png",
        "entry": 530899,
        "entry_name": "Sean City",
        "event_total": 67,
        "has_played": true,
        "id": 3570500,
        "last_rank": 7141,
        "player_name": "Sean Honywill",
        "rank": 4925,
        "rank_sort": 4937,
        "total": 2415
      },
      {
        "club_badge_src": null,
        "entry": 815213,
        "entry_name": "Anderson's Army",
        "event_total": 66,
        "has_played": true,
        "id": 5582392,
        "last_rank": 6839,
        "player_name": "Andy Hamilton",
        "rank": 4925,
        "rank_sort": 4938,
        "total": 2415
      },
      {
        "club_badge_src": "https://fantasy.premierleague.com/gcs/plfpl-production-adobe-approved/plfpl-production/874225/818e6042-ca77-4fc8-8d4b-52c2ad028377.png",
        "entry": 874225,
        "entry_name": "CCW FC",
        "event_total": 62,
        "has_played": true,
        "id": 5993557,
        "last_rank": 4742,
        "player_name": "Ali Mustafa",
        "rank": 4925,
        "rank_sort": 4939,
        "total": 2415
      },
      {
        "club_badge_src": null,
        "entry": 933837,
        "entry_name": "LuciferArmz",
        "event_total": 65,
        "has_played": true,
        "id": 6425975,
        "last_rank": 6448,
        "player_name": "Armz Thanarata",
        "rank": 4925,
        "rank_sort": 4940,
        "total": 2415
      },
      {
        "club_badge_src": null,
        "entry": 1217111,
        "entry_name": "Vini_FC",
        "event_total": 69,
        "has_played": true,
        "id": 8448013,
        "last_rank": 6448,
        "player_name": "mohammad Tavana",
        "rank": 4925,
        "rank_sort": 4941,
        "total": 2415
      },
      {
        "club_badge_src": null,
        "entry": 1218893,
        "entry_name": "Svartvitt",
        "event_total": 49,
        "has_played": true,
        "id": 8461868,
        "last_rank": 3103,
        "player_name": "Kristofer Lindh",
        "rank": 4925,
        "rank_sort": 4942,
        "total": 2415
      },
      {
        "club_badge_src": null,
        "entry": 1302199,
        "entry_name": "Dutch Toon Army",
        "event_total": 56,
        "has_played": true,
        "id": 9050339,
        "last_rank": 4358,
        "player_name": "Martijn De Ree",
        "rank": 4925,
        "rank_sort": 4943,
        "total": 2415
      },
      {
        "club_badge_src": "https://fantasy.premierleague.com/gcs/plfpl-production-adobe-approved/plfpl-production/1357835/8b86e089-97cc-4f43-88ab-bf8c3125fc08.png",
        "entry": 1357835,
        "entry_name": "Hihi FC",
        "event_total": 69,
        "has_played": true,
        "id": 9438516,
        "last_rank": 7676,
        "player_name": "Long Khuat",
        "rank": 4925,
        "rank_sort": 4944,
        "total": 2415
      },
      {
        "club_badge_src": "https://fantasy.premierleague.com/gcs/plfpl-production-adobe-approved/plfpl-production/1426819/3ebb643a-219c-46c8-85b1-df0fa643fd84.png",
        "entry": 1426819,
        "entry_name": "Floor is Lavia",
        "event_total": 42,
        "has_played": true,
        "id": 9941379,
        "last_rank": 2189,
        "player_name": "Jasper Atkinson",
        "rank": 4925,
        "rank_sort": 4945,
        "total": 2415
      },
      {
        "club_badge_src": null,
        "entry": 1590760,
        "entry_name": "Miniesta",
        "event_total": 69,
        "has_played": true,
        "id": 11123148,
        "last_rank": 7676,
        "player_name": "Matthew McKendry",
        "rank": 4925,
        "rank_sort": 4946,
        "total": 2415
      },
      {
        "club_badge_src": null,
        "entry": 1971492,
        "entry_name": "Kanttori Piiparinen",
        "event_total": 54,
        "has_played": true,
        "id": 13914883,
        "last_rank": 3951,
        "player_name": "Juha Turunen",
        "rank": 4925,
        "rank_sort": 4947,
        "total": 2415
      },
      {
        "club_badge_src": null,
        "entry": 2187902,
        "entry_name": "CrawfordFC",
        "event_total": 58,
        "has_played": true,
        "id": 15564676,
        "last_rank": 4742,
        "player_name": "Andrew Crawford",
        "rank": 4925,
        "rank_sort": 4948,
        "total": 2415
      },
      {
        "club_badge_src": null,
        "entry": 2196939,
        "entry_name": "ThomastheFrankEngine",
        "event_total": 74,
        "has_played": true,
        "id": 15632335,
        "last_rank": 9536,
        "player_name": "Conor Mills",
        "rank": 4925,
        "rank_sort": 4949,
        "total": 2415
      },
      {
        "club_badge_src": null,
        "entry": 2243996,
        "entry_name": "Elewavi\u010d",
        "event_total": 57,
        "has_played": true,
        "id": 15987381,
        "last_rank": 4488,
        "player_name": "Osama Elewa",
        "rank": 4925,
        "rank_sort": 4950,
        "total": 2415
      }
    ]
  }
}