{
  "last_updated_data": "2026-05-24T23:28:17Z",
  "league": {
    "admin_entry": null,
    "closed": false,
    "code_privacy": "p",
    "created": "2025-07-20T23:14:33.933835Z",
    "cup_league": 2815434,
    "has_cup": true,
    "id": 314,
    "league_type": "s",
    "max_entries": null,
    "name": "Overall",
    "rank": null,
    "scoring": "c",
    "start_event": 1
  },
  "new_entries": {
    "has_next": false,
    "page": 1,
    "results": []
  },
  "standings": {
    "has_next": true,
    "page": 97,
    "results": [
      {
        "club_badge_src": null,
        "entry": 1886804,
        "entry_name": "Desford Wanderers",
        "event_total": 70,
        "has_played": true,
        "id": 13296178,
        "last_rank": 5498,
        "player_name": "Howard Trust",
        "rank": 4787,
        "rank_sort": 4801,
        "total": 2416
      },
      {
        "club_badge_src": null,
        "entry": 1967090,
        "entry_name": "Meadow cut street BK",
        "event_total": 54,
        "has_played": true,
        "id": 13881719,
        "last_rank": 3813,
        "player_name": "Staffan Willbacka",
        "rank": 4787,
        "rank_sort": 4802,
        "total": 2416
      },
      {
        "club_badge_src": null,
        "entry": 2289715,
        "entry_name": "bushwhacker",
        "event_total": 74,
        "has_played": true,
        "id": 16329841,
        "last_rank": 9311,
        "player_name": "MIchael Keen",
        "rank": 4787,
        "rank_sort": 4803,
        "total": 2416
      },
      {
        "club_badge_src": null,
        "entry": 2868995,
        "entry_name": "B2J",
        "event_total": 61,
        "has_played": true,
        "id": 20984692,
        "last_rank": 4394,
        "player_name": "MUHAMMAD ZARUL IKHMAL SAPIAN",
        "rank": 4787,
        "rank_sort": 4804,
        "total": 2416
      },
      {
        "club_badge_src": null,
        "entry": 3156076,
        "entry_name": "Goalasis",
        "event_total": 71,
        "has_played": true,
        "id": 23311592,
        "last_rank": 6839,
        "player_name": "Sam Gwilliam",
        "rank": 4787,
        "rank_sort": 4805,
        "total": 2416
      },
      {
        "club_badge_src": "https://fantasy.premierleague.com/gcs/plfpl-production-adobe-approved/plfpl-production/3311922/8632d2c9-d7b1-475b-b65d-7d7762252ca4.png",
        "entry": 3311922,
        "entry_name": "Football Heritage",
        "event_total": 71,
        "has_played": true,
        "id": 24537860,
        "last_rank": 8198,
        "player_name": "Chef Juan",
        "rank": 4787,
        "rank_sort": 4806,
        "total": 2416
      },
      {
        "club_badge_src": null,
        "entry": 3482456,
        "entry_name": "Notso Hotspurs",
        "event_total": 51,
        "has_played": true,
        "id": 25895353,
        "last_rank": 3350,
        "player_name": "Eugenio Conti",
        "rank": 4787,
        "rank_sort": 4807,
        "total": 2416
      },
      {
        "club_badge_src": null,
        "entry": 4263101,
        "entry_name": "B\u00f8nes",
        "event_total": 72,
        "has_played": true,
        "id": 32323919,
        "last_rank": 8552,
        "player_name": "Stian Johnsen",
        "rank": 4787,
        "rank_sort": 4808,
        "total": 2416
      },
      {
        "club_badge_src": null,
        "entry": 4924266,
        "entry_name": "Cunha Matata",
        "event_total": 72,
        "has_played": true,
        "id": 37982633,
        "last_rank": 6011,
        "player_name": "Joseph Waterhouse",
        "rank": 4787,
        "rank_sort": 4809,
        "total": 2416
      },
      {
        "club_badge_src": null,
        "entry": 5373151,
        "entry_name": "Richarlisaurus Rex",
        "event_total": 71,
        "has_played": true,
        "id": 41755259,
        "last_rank": 8198,
        "player_name": "N Lus",
        "rank": 4787,
        "rank_sort": 4810,
        "total": 2416
      },
      {
        "club_badge_src": null,
        "entry": 7845127,
        "entry_name": "Gal\u00e1cticos",
        "event_total": 55,
        "has_played": true,
        "id": 64486800,
        "last_rank": 4000,
        "player_name": "Jose Hernandez",
        "rank": 4787,
        "rank_sort": 4811,
        "total": 2416
      },
      {
        "club_badge_src": null,
        "entry": 74782,
        "entry_name": "Yen in Shenzhen",
        "event_total": 63,
        "has_played": true,
        "id": 486116,
        "last_rank": 5820,
        "player_name": "Steve Hawkins",
        "rank": 4812,
        "rank_sort": 4812,
        "total": 2416
      },
      {
        "club_badge_src": "https://fantasy.premierleague.com/gcs/plfpl-production-adobe-approved/plfpl-production/121551/fb253b97-2b59-4fdd-9822-cb61ac9da3ec.png",
        "entry": 121551,
        "entry_name": "CccCccC",
        "event_total": 60,
        "has_played": true,
        "id": 793077,
        "last_rank": 4205,
        "player_name": "Aphisit Yaempinit",
        "rank": 4812,
        "rank_sort": 4813,
        "total": 2416
      },
      {
        "club_badge_src": null,
        "entry": 342204,
        "entry_name": "No Gut...No Glory",
        "event_total": 77,
        "has_played": true,
        "id": 2290429,
        "last_rank": 10556,
        "player_name": "Muktar Habeeb",
        "rank": 4812,
        "rank_sort": 4814,
        "total": 2416
      },
      {
        "club_badge_src": null,
        "entry": 455821,
        "entry_name": "Trust#Amorim",
        "event_total": 46,
        "has_played": true,
        "id": 3057961,
        "last_rank": 2632,
        "player_name": "Arkadiusz Matusiak",
        "rank": 4812,
        "rank_sort": 4815,
        "total": 2416
      },
      {
        "club_badge_src": null,
        "entry": 666818,
        "entry_name": "Gov Utd",
        "event_total": 55,
        "has_played": true,
        "id": 4508584,
        "last_rank": 4015,
        "player_name": "gov chadda",
        "rank": 4812,
        "rank_sort": 4816,
        "total": 2416
      },
      {
        "club_badge_src": null,
        "entry": 2077914,
        "entry_name": "Havertz my way",
        "event_total": 58,
        "has_played": true,
        "id": 14733210,
        "last_rank": 3175,
        "player_name": "Thomas Kaiser",
        "rank": 4812,
        "rank_sort": 4817,
        "total": 2416
      },
      {
        "club_badge_src": null,
        "entry": 3558895,
        "entry_name": "Murphys lag",
        "event_total": 61,
        "has_played": true,
        "id": 26497471,
        "last_rank": 5313,
        "player_name": "Joakim Bergqvist",
        "rank": 4812,
        "rank_sort": 4818,
        "total": 2416
      },
      {
        "club_badge_src": null,
        "entry": 4163115,
        "entry_name": "Why Always Me",
        "event_total": 68,
        "has_played": true,
        "id": 31480068,
        "last_rank": 7193,
        "player_name": "kai wen",
        "rank": 4812,
        "rank_sort": 4819,
        "total": 2416
      },
      {
        "club_badge_src": null,
        "entry": 4294920,
        "entry_name": "Let's go Sesko!",
        "event_total": 55,
        "has_played": true,
        "id": 32581513,
        "last_rank": 4015,
        "player_name": "Art Kernan",
        "rank": 4812,
        "rank_sort": 4820,
        "total": 2416
      },
      {
        "club_badge_src": null,
        "entry": 5431012,
        "entry_name": "Hala Madrid\ufffd",
        "event_total": 70,
        "has_played": true,
        "id": 42244799,
        "last_rank": 7863,
        "player_name": "Taha Abdelgaber\ud83d\ude0e\u270c\ufe0f\ud83c\uddef\ud83c\uddf4",
        "rank": 4812,
        "rank_sort": 4821,
        "total": 2416
      },
      {
        "club_badge_src": null,
        "entry": 80417,
        "entry_name": "Krispy FC",
        "event_total": 66,
        "has_played": true,
        "id": 523206,
        "last_rank": 6637,
        "player_name": "Christopher Plastow",
        "rank": 4822,
        "rank_sort": 4822,
        "total": 2416
      },
      {
        "club_badge_src": null,
        "entry": 4693275,
        "entry_name": "The Boehly Trinity",
        "event_total": 50,
        "has_played": true,
        "id": 35974468,
        "last_rank": 3210,
        "player_name": "Jake Hilder",
        "rank": 4822,
        "rank_sort": 4823,
        "total": 2416
      },
      {
        "club_badge_src": null,
        "entry": 6162856,
        "entry_name": "Hammering soft",
        "event_total": 73,
        "has_played": true,
        "id": 48723538,
        "last_rank": 7547,
        "player_name": "Tore Buvarp",
        "rank": 4822,
        "rank_sort": 4824,
        "total": 2416
      },
      {
        "club_badge_src": null,
        "entry": 6930947,
        "entry_name": "Bring back Henry 14",
        "event_total": 65,
        "has_played": true,
        "id": 55563287,
        "last_rank": 4413,
        "player_name": "Steven Ancevski",
        "rank": 4822,
        "rank_sort": 4825,
        "total": 2416
      },
      {
        "club_badge_src": null,
        "entry": 17704,
        "entry_name": "Moyseh",
        "event_total": 68,
        "has_played": true,
        "id": 109896,
        "last_rank": 7280,
        "player_name": "Mathias Gilhauge",
        "rank": 4826,
        "rank_sort": 4826,
        "total": 2416
      },
      {
        "club_badge_src": null,
        "entry": 18285,
        "entry_name": "Working in Shifts",
        "event_total": 51,
        "has_played": true,
        "id": 113703,
        "last_rank": 3366,
        "player_name": "Jaap O",
        "rank": 4826,
        "rank_sort": 4827,
        "total": 2416
      },
      {
        "club_badge_src": "https://fantasy.premierleague.com/gcs/plfpl-production-adobe-approved/plfpl-production/1631061/c4a89949-2930-45e7-8001-875fa5a20325.png",
        "entry": 1631061,
        "entry_name": "arsenal lubin",
        "event_total": 77,
        "has_played": true,
        "id": 11416510,
        "last_rank": 9015,
        "player_name": "Piotr Kocaba",
        "rank": 4826,
        "rank_sort": 4828,
        "total": 2416
      },
      {
        "club_badge_src": null,
        "entry": 1668964,
        "entry_name": "makTTTTT",
        "event_total": 64,
        "has_played": true,
        "id": 11685094,
        "last_rank": 4223,
        "player_name": "Rare Guy",
        "rank": 4826,
        "rank_sort": 4829,
        "total": 2416
      },
      {
        "club_badge_src": null,
        "entry": 2469226,
        "entry_name": "Mahmouud",
        "event_total": 61,
        "has_played": true,
        "id": 17663991,
        "last_rank": 5356,
        "player_name": "Mahmoud Ahmed Ramadan",
        "rank": 4826,
        "rank_sort": 4830,
        "total": 2416
      },
      {
        "club_badge_src": null,
        "entry": 5154256,
        "entry_name": "Sahalinho",
        "event_total": 35,
        "has_played": true,
        "id": 39879193,
        "last_rank": 1498,
        "player_name": "Sahal Abdullahi",
        "rank": 4826,
        "rank_sort": 4831,
        "total": 2416
      },
      {
        "club_badge_src": null,
        "entry": 6774762,
        "entry_name": "Madridismo",
        "event_total": 75,
        "has_played": true,
        "id": 54246472,
        "last_rank": 6949,
        "player_name": "Moddathir Haddad",
        "rank": 4826,
        "rank_sort": 4832,
        "total": 2416
      },
      {
        "club_badge_src": "https://fantasy.premierleague.com/gcs/plfpl-production-adobe-approved/plfpl-production/40122/b69a574c-8d6b-44df-84ec-d349853f77a3.png",
        "entry": 40122,
        "entry_name": "Grove Street CF",
        "event_total": 67,
        "has_played": true,
        "id": 257224,
        "last_rank": 5865,
        "player_name": "Mohammad Chehade",
        "rank": 4833,
        "rank_sort": 4833,
        "total": 2416
      },
      {
        "club_badge_src": null,
        "entry": 80249,
        "entry_name": "deltacain",
        "event_total": 76,
        "has_played": true,
        "id": 522148,
        "last_rank": 10221,
        "player_name": "Ketan Kumar",
        "rank": 4833,
        "rank_sort": 4834,
        "total": 2416
      },
      {
        "club_badge_src": null,
        "entry": 173847,
        "entry_name": "Daydream Baleba",
        "event_total": 63,
        "has_played": true,
        "id": 1148077,
        "last_rank": 4015,
        "player_name": "petir rojo",
        "rank": 4833,
        "rank_sort": 4835,
        "total": 2416
      },
      {
        "club_badge_src": null,
        "entry": 1325045,
        "entry_name": "West London White FC",
        "event_total": 74,
        "has_played": true,
        "id": 9210201,
        "last_rank": 7920,
        "player_name": "Liam Fulham",
        "rank": 4833,
        "rank_sort": 4836,
        "total": 2416
      },
      {
        "club_badge_src": "https://fantasy.premierleague.com/gcs/plfpl-production-adobe-approved/plfpl-production/30622/60a042e9-71b0-4914-ada7-847ac2edf553.png",
        "entry": 30622,
        "entry_name": "Craiglang Auld Team",
        "event_total": 75,
        "has_played": true,
        "id": 193792,
        "last_rank": 8283,
        "player_name": "B B",
        "rank": 4837,
        "rank_sort": 4837,
        "total": 2416
      },
      {
        "club_badge_src": null,
        "entry": 1976582,
        "entry_name": "Gianluca and friends",
        "event_total": 65,
        "has_played": true,
        "id": 13952459,
        "last_rank": 6374,
        "player_name": "J\u00f6rgen Andersson",
        "rank": 4837,
        "rank_sort": 4838,
        "total": 2416
      },
      {
        "club_badge_src": null,
        "entry": 5050798,
        "entry_name": "Game Of Throw Ins",
        "event_total": 50,
        "has_played": true,
        "id": 39023759,
        "last_rank": 3216,
        "player_name": "Dan White",
        "rank": 4837,
        "rank_sort": 4839,
        "total": 2416
      },
      {
        "club_badge_src": null,
        "entry": 66448,
        "entry_name": "bruno dos tresshurda",
        "event_total": 61,
        "has_played": true,
        "id": 429611,
        "last_rank": 5370,
        "player_name": "Ruben Lindeborg",
        "rank": 4840,
        "rank_sort": 4840,
        "total": 2416
      },
      {
        "club_badge_src": "https://fantasy.premierleague.com/gcs/plfpl-production-adobe-approved/plfpl-production/431856/da94ad2c-c26c-46ee-ab6f-9c59053180d2.png",
        "entry": 431856,
        "entry_name": "ArtThekop",
        "event_total": 64,
        "has_played": true,
        "id": 2896336,
        "last_rank": 5115,
        "player_name": "Pongsatorn Bungaruang",
        "rank": 4840,
        "rank_sort": 4841,
        "total": 2416
      },
      {
        "club_badge_src": null,
        "entry": 1576321,
        "entry_name": "Hakuna Mateta",
        "event_total": 73,
        "has_played": true,
        "id": 11014846,
        "last_rank": 9042,
        "player_name": "Nick Steyls",
        "rank": 4840,
        "rank_sort": 4842,
        "total": 2416
      },
      {
        "club_badge_src": null,
        "entry": 278924,
        "entry_name": "Change Name",
        "event_total": 71,
        "has_played": true,
        "id": 1856339,
        "last_rank": 6974,
        "player_name": "Chris Wills",
        "rank": 4843,
        "rank_sort": 4843,
        "total": 2416
      },
      {
        "club_badge_src": null,
        "entry": 7081427,
        "entry_name": "SonKane ship",
        "event_total": 84,
        "has_played": true,
        "id": 56999760,
        "last_rank": 14210,
        "player_name": "Dylan Stone Blood",
        "rank": 4843,
        "rank_sort": 4844,
        "total": 2416
      },
      {
        "club_badge_src": null,
        "entry": 157757,
        "entry_name": "HaCunhaMateta",
        "event_total": 67,
        "has_played": true,
        "id": 1037928,
        "last_rank": 4906,
        "player_name": "Karol Kolczy\u0144ski",
        "rank": 4845,
        "rank_sort": 4845,
        "total": 2416
      },
      {
        "club_badge_src": null,
        "entry": 8352151,
        "entry_name": "Crouchy's Crusaders",
        "event_total": 75,
        "has_played": true,
        "id": 69222595,
        "last_rank": 9833,
        "player_name": "Steve Talbot",
        "rank": 4846,
        "rank_sort": 4846,
        "total": 2415
      },
      {
        "club_badge_src": null,
        "entry": 7024920,
        "entry_name": "Olderdalen Oilers",
        "event_total": 48,
        "has_played": true,
        "id": 56436614,
        "last_rank": 2937,
        "player_name": "Bj\u00f8rnis Botn",
        "rank": 4847,
        "rank_sort": 4847,
        "total": 2415
      },
      {
        "club_badge_src": "https://fantasy.premierleague.com/gcs/plfpl-production-adobe-approved/plfpl-production/8694944/d6346e3c-a5f8-41ac-b3fe-5810762c8fd0.png",
        "entry": 8694944,
        "entry_name": "Coochie Cloggers",
        "event_total": 55,
        "has_played": true,
        "id": 72529984,
        "last_rank": 4036,
        "player_name": "Lewis Morrison",
        "rank": 4848,
        "rank_sort": 4848,
        "total": 2415
      },
      {
        "club_badge_src": null,
        "entry": 10171089,
        "entry_name": "Delap it like itshot",
        "event_total": 66,
        "has_played": true,
        "id": 86169823,
        "last_rank": 6675,
        "player_name": "Muzammir Shahril Luqman",
        "rank": 4848,
        "rank_sort": 4849,
        "total": 2415
      },
      {
        "club_badge_src": "https://fantasy.premierleague.com/gcs/plfpl-production-adobe-approved/plfpl-production/4659430/e76a9ded-dc8d-43a7-8d9c-80b17a99259b.png",
        "entry": 4659430,
        "entry_name": "Ellun Kanat",
        "event_total": 83,
        "has_played": true,
        "id": 35673369,
        "last_rank": 13699,
        "player_name": "Elias Juonala",
        "rank": 4850,
        "rank_sort": 4850,
        "total": 2415
      }
    ]
  }
}