{
  "last_updated_data": "2026-05-24T23:28:17Z",
  "league": {
    "admin_entry": null,
    "closed": false,
    "code_privacy": "p",
    "created": "2025-07-20T23:14:33.933835Z",
    "cup_league": 2815434,
    "has_cup": true,
    "id": 314,
    "league_type": "s",
    "max_entries": null,
    "name": "Overall",
    "rank": null,
    "scoring": "c",
    "start_event": 1
  },
  "new_entries": {
    "has_next": false,
    "page": 1,
    "results": []
  },
  "standings": {
    "has_next": true,
    "page": 49,
    "results": [
      {
        "club_badge_src": null,
        "entry": 6095711,
        "entry_name": "maqdoom bros",
        "event_total": 69,
        "has_played": true,
        "id": 48139018,
        "last_rank": 3853,
        "player_name": "Rohit Reddy",
        "rank": 2400,
        "rank_sort": 2401,
        "total": 2430
      },
      {
        "club_badge_src": null,
        "entry": 262186,
        "entry_name": "Big milan",
        "event_total": 66,
        "has_played": true,
        "id": 1743035,
        "last_rank": 3382,
        "player_name": "Mohammed Alattar",
        "rank": 2402,
        "rank_sort": 2402,
        "total": 2430
      },
      {
        "club_badge_src": null,
        "entry": 835393,
        "entry_name": "Amadness",
        "event_total": 69,
        "has_played": true,
        "id": 5722647,
        "last_rank": 3227,
        "player_name": "Ben Ingram",
        "rank": 2402,
        "rank_sort": 2403,
        "total": 2430
      },
      {
        "club_badge_src": null,
        "entry": 1381313,
        "entry_name": "\u0420\u041e\u041c\u0410\u041d\u04221\u0427\u0410\u0420\u0418",
        "event_total": 68,
        "has_played": true,
        "id": 9607028,
        "last_rank": 3699,
        "player_name": "Srdjan Trifkovic",
        "rank": 2402,
        "rank_sort": 2404,
        "total": 2430
      },
      {
        "club_badge_src": null,
        "entry": 2404775,
        "entry_name": "Covwgc",
        "event_total": 51,
        "has_played": true,
        "id": 17188372,
        "last_rank": 1609,
        "player_name": "Mike Andrews",
        "rank": 2402,
        "rank_sort": 2405,
        "total": 2430
      },
      {
        "club_badge_src": null,
        "entry": 2717210,
        "entry_name": "The Ballon Diors",
        "event_total": 67,
        "has_played": true,
        "id": 19551111,
        "last_rank": 3528,
        "player_name": "Tim Taylor-Foote",
        "rank": 2402,
        "rank_sort": 2406,
        "total": 2430
      },
      {
        "club_badge_src": null,
        "entry": 3950375,
        "entry_name": "Beef Cherki",
        "event_total": 60,
        "has_played": true,
        "id": 29718671,
        "last_rank": 2518,
        "player_name": "Keith Yang",
        "rank": 2402,
        "rank_sort": 2407,
        "total": 2430
      },
      {
        "club_badge_src": null,
        "entry": 4492850,
        "entry_name": "Smythwicks FC",
        "event_total": 52,
        "has_played": true,
        "id": 34247984,
        "last_rank": 1353,
        "player_name": "Diarmuid Smyth",
        "rank": 2402,
        "rank_sort": 2408,
        "total": 2430
      },
      {
        "club_badge_src": "https://fantasy.premierleague.com/gcs/plfpl-production-adobe-approved/plfpl-production/8889403/eb5a2a61-a6bf-4fe7-aab5-049513b8f92d.png",
        "entry": 8889403,
        "entry_name": "Full time reds",
        "event_total": 89,
        "has_played": true,
        "id": 74405957,
        "last_rank": 9484,
        "player_name": "Lewis Thomas",
        "rank": 2402,
        "rank_sort": 2409,
        "total": 2430
      },
      {
        "club_badge_src": null,
        "entry": 9084203,
        "entry_name": "Alibah",
        "event_total": 56,
        "has_played": true,
        "id": 76296767,
        "last_rank": 2068,
        "player_name": "Ali AlFelaij",
        "rank": 2402,
        "rank_sort": 2410,
        "total": 2430
      },
      {
        "club_badge_src": "https://fantasy.premierleague.com/gcs/plfpl-production-adobe-approved/plfpl-production/15113/67150568-6677-413f-8615-b5a34a53ed8f.png",
        "entry": 15113,
        "entry_name": "Victor Moses Lawn",
        "event_total": 68,
        "has_played": true,
        "id": 92443,
        "last_rank": 3699,
        "player_name": "Benjamin Kayes",
        "rank": 2411,
        "rank_sort": 2411,
        "total": 2430
      },
      {
        "club_badge_src": null,
        "entry": 16590,
        "entry_name": "GimmeSomeBobbyMoore",
        "event_total": 62,
        "has_played": true,
        "id": 102566,
        "last_rank": 2824,
        "player_name": "Claire Easley",
        "rank": 2411,
        "rank_sort": 2412,
        "total": 2430
      },
      {
        "club_badge_src": null,
        "entry": 23659,
        "entry_name": "FC Bardishire",
        "event_total": 60,
        "has_played": true,
        "id": 149100,
        "last_rank": 2553,
        "player_name": "Eigil Rybner",
        "rank": 2411,
        "rank_sort": 2413,
        "total": 2430
      },
      {
        "club_badge_src": null,
        "entry": 91463,
        "entry_name": "The H-Team",
        "event_total": 68,
        "has_played": true,
        "id": 597422,
        "last_rank": 3721,
        "player_name": "Horatio Turner",
        "rank": 2411,
        "rank_sort": 2414,
        "total": 2430
      },
      {
        "club_badge_src": null,
        "entry": 208208,
        "entry_name": "okay",
        "event_total": 69,
        "has_played": true,
        "id": 1384214,
        "last_rank": 3951,
        "player_name": "Joe Pipp",
        "rank": 2411,
        "rank_sort": 2415,
        "total": 2430
      },
      {
        "club_badge_src": null,
        "entry": 347905,
        "entry_name": "Back of the Neto",
        "event_total": 65,
        "has_played": true,
        "id": 2328632,
        "last_rank": 3257,
        "player_name": "Aiden Heraghty",
        "rank": 2411,
        "rank_sort": 2416,
        "total": 2430
      },
      {
        "club_badge_src": null,
        "entry": 370178,
        "entry_name": "Eleven The Dream",
        "event_total": 62,
        "has_played": true,
        "id": 2477069,
        "last_rank": 2280,
        "player_name": "Reece Robertson",
        "rank": 2411,
        "rank_sort": 2417,
        "total": 2430
      },
      {
        "club_badge_src": null,
        "entry": 769394,
        "entry_name": "Pork City",
        "event_total": 59,
        "has_played": true,
        "id": 5248456,
        "last_rank": 2418,
        "player_name": "Tom Metcalfe",
        "rank": 2411,
        "rank_sort": 2418,
        "total": 2430
      },
      {
        "club_badge_src": null,
        "entry": 810210,
        "entry_name": "Cold \ufffd",
        "event_total": 64,
        "has_played": true,
        "id": 5547265,
        "last_rank": 3079,
        "player_name": "Catch me If u can",
        "rank": 2411,
        "rank_sort": 2419,
        "total": 2430
      },
      {
        "club_badge_src": "https://fantasy.premierleague.com/gcs/plfpl-production-adobe-approved/plfpl-production/938787/3acbe5a6-e00d-4249-8ce1-c41be365aa48.png",
        "entry": 938787,
        "entry_name": "Eslene fra Gausel",
        "event_total": 70,
        "has_played": true,
        "id": 6461287,
        "last_rank": 4040,
        "player_name": "Erik \u00d8fsteb\u00f8",
        "rank": 2411,
        "rank_sort": 2420,
        "total": 2430
      },
      {
        "club_badge_src": "https://fantasy.premierleague.com/gcs/plfpl-production-adobe-approved/plfpl-production/1058074/18c48383-a0d1-4454-92f7-c0167a666569.png",
        "entry": 1058074,
        "entry_name": "Esling & Sons",
        "event_total": 53,
        "has_played": true,
        "id": 7322479,
        "last_rank": 1773,
        "player_name": "Ed Esling",
        "rank": 2411,
        "rank_sort": 2421,
        "total": 2430
      },
      {
        "club_badge_src": null,
        "entry": 1118729,
        "entry_name": "El Tri",
        "event_total": 64,
        "has_played": true,
        "id": 7749263,
        "last_rank": 3103,
        "player_name": "Kyle Ellis",
        "rank": 2411,
        "rank_sort": 2422,
        "total": 2430
      },
      {
        "club_badge_src": null,
        "entry": 2185866,
        "entry_name": "Grucha96",
        "event_total": 66,
        "has_played": true,
        "id": 15549641,
        "last_rank": 3382,
        "player_name": "Sebastian Gruszczy\u0144ski",
        "rank": 2411,
        "rank_sort": 2423,
        "total": 2430
      },
      {
        "club_badge_src": null,
        "entry": 3215872,
        "entry_name": "Ali Adnan",
        "event_total": 77,
        "has_played": true,
        "id": 23776932,
        "last_rank": 5688,
        "player_name": "Alosh -56",
        "rank": 2411,
        "rank_sort": 2424,
        "total": 2430
      },
      {
        "club_badge_src": null,
        "entry": 3464889,
        "entry_name": "\u039f\u03a1\u03a6\u0395\u0391\u03a3 \u0397\u039b\u0399\u039f\u03a5\u03a0\u039f\u039b\u0397\u03a3",
        "event_total": 65,
        "has_played": true,
        "id": 25756856,
        "last_rank": 3227,
        "player_name": "Tasos Mavrofridis",
        "rank": 2411,
        "rank_sort": 2425,
        "total": 2430
      },
      {
        "club_badge_src": null,
        "entry": 3490530,
        "entry_name": "Mrs Browns Boys",
        "event_total": 63,
        "has_played": true,
        "id": 25958877,
        "last_rank": 2945,
        "player_name": "Ella New",
        "rank": 2411,
        "rank_sort": 2426,
        "total": 2430
      },
      {
        "club_badge_src": null,
        "entry": 3623028,
        "entry_name": "Mannschaft by proxy",
        "event_total": 73,
        "has_played": true,
        "id": 26994408,
        "last_rank": 3866,
        "player_name": "Thomas Engell",
        "rank": 2411,
        "rank_sort": 2427,
        "total": 2430
      },
      {
        "club_badge_src": null,
        "entry": 3780201,
        "entry_name": "who let the dorg out",
        "event_total": 75,
        "has_played": true,
        "id": 28227194,
        "last_rank": 5173,
        "player_name": "Phin Harbinson",
        "rank": 2411,
        "rank_sort": 2428,
        "total": 2430
      },
      {
        "club_badge_src": "https://fantasy.premierleague.com/gcs/plfpl-production-adobe-approved/plfpl-production/3796885/824024c6-a6ef-408b-84e1-e526d28fc3f1.png",
        "entry": 3796885,
        "entry_name": "Rubrum diaboli",
        "event_total": 52,
        "has_played": true,
        "id": 28380431,
        "last_rank": 1665,
        "player_name": "Alexey Golovin",
        "rank": 2411,
        "rank_sort": 2429,
        "total": 2430
      },
      {
        "club_badge_src": null,
        "entry": 3897648,
        "entry_name": "Lallana Del Rey",
        "event_total": 63,
        "has_played": true,
        "id": 29295119,
        "last_rank": 2945,
        "player_name": "Chloe Lisley",
        "rank": 2411,
        "rank_sort": 2430,
        "total": 2430
      },
      {
        "club_badge_src": null,
        "entry": 4158154,
        "entry_name": "AFC ADMIN",
        "event_total": 65,
        "has_played": true,
        "id": 31433823,
        "last_rank": 3257,
        "player_name": "Apuuli Ronnie",
        "rank": 2411,
        "rank_sort": 2431,
        "total": 2430
      },
      {
        "club_badge_src": null,
        "entry": 4254175,
        "entry_name": "Kitsons kickers",
        "event_total": 57,
        "has_played": true,
        "id": 32250952,
        "last_rank": 2189,
        "player_name": "andrew kitson",
        "rank": 2411,
        "rank_sort": 2432,
        "total": 2430
      },
      {
        "club_badge_src": null,
        "entry": 4371573,
        "entry_name": "not that good",
        "event_total": 52,
        "has_played": true,
        "id": 33212152,
        "last_rank": 1689,
        "player_name": "Fredrik Samuel Ekholdt",
        "rank": 2411,
        "rank_sort": 2433,
        "total": 2430
      },
      {
        "club_badge_src": null,
        "entry": 4504992,
        "entry_name": "KloppItLikeIt'sSlot",
        "event_total": 59,
        "has_played": true,
        "id": 34347101,
        "last_rank": 2418,
        "player_name": "Kristian Milev",
        "rank": 2411,
        "rank_sort": 2434,
        "total": 2430
      },
      {
        "club_badge_src": null,
        "entry": 5177206,
        "entry_name": "Nygaards",
        "event_total": 69,
        "has_played": true,
        "id": 40072144,
        "last_rank": 3853,
        "player_name": "Magnus Nygaard",
        "rank": 2411,
        "rank_sort": 2435,
        "total": 2430
      },
      {
        "club_badge_src": null,
        "entry": 5347402,
        "entry_name": "Cole Train",
        "event_total": 60,
        "has_played": true,
        "id": 41495317,
        "last_rank": 2553,
        "player_name": "Pradyumna Kodali",
        "rank": 2411,
        "rank_sort": 2436,
        "total": 2430
      },
      {
        "club_badge_src": null,
        "entry": 6318302,
        "entry_name": "A94 FC",
        "event_total": 68,
        "has_played": true,
        "id": 50151889,
        "last_rank": 3721,
        "player_name": "AbdulRahman AlMesned",
        "rank": 2411,
        "rank_sort": 2437,
        "total": 2430
      },
      {
        "club_badge_src": null,
        "entry": 6721463,
        "entry_name": "Theatre of memes",
        "event_total": 50,
        "has_played": true,
        "id": 53794143,
        "last_rank": 1523,
        "player_name": "Will Hilsum",
        "rank": 2411,
        "rank_sort": 2438,
        "total": 2430
      },
      {
        "club_badge_src": null,
        "entry": 7123704,
        "entry_name": "Enter Team Name",
        "event_total": 65,
        "has_played": true,
        "id": 57401062,
        "last_rank": 3257,
        "player_name": "Connor Hughes",
        "rank": 2411,
        "rank_sort": 2439,
        "total": 2430
      },
      {
        "club_badge_src": null,
        "entry": 8093284,
        "entry_name": "Wafra Center",
        "event_total": 62,
        "has_played": true,
        "id": 66738544,
        "last_rank": 2824,
        "player_name": "Yousuf Khalaf",
        "rank": 2411,
        "rank_sort": 2440,
        "total": 2430
      },
      {
        "club_badge_src": "https://fantasy.premierleague.com/gcs/plfpl-production-adobe-approved/plfpl-production/8392475/331aac5f-08de-4fd9-a5f0-519e0ddbc216.png",
        "entry": 8392475,
        "entry_name": "CunhaPickAGoodName?",
        "event_total": 37,
        "has_played": true,
        "id": 69608907,
        "last_rank": 782,
        "player_name": "Maya Domb",
        "rank": 2411,
        "rank_sort": 2441,
        "total": 2430
      },
      {
        "club_badge_src": null,
        "entry": 620,
        "entry_name": "Akinde (PEN)",
        "event_total": 67,
        "has_played": true,
        "id": 3428,
        "last_rank": 2977,
        "player_name": "Harry Newman",
        "rank": 2442,
        "rank_sort": 2442,
        "total": 2430
      },
      {
        "club_badge_src": "https://fantasy.premierleague.com/gcs/plfpl-production-adobe-approved/plfpl-production/22744/d4aecb3c-da1b-4beb-960d-087c7d69234f.png",
        "entry": 22744,
        "entry_name": "The VK Husky",
        "event_total": 65,
        "has_played": true,
        "id": 142943,
        "last_rank": 3302,
        "player_name": "Moin Panwar",
        "rank": 2442,
        "rank_sort": 2443,
        "total": 2430
      },
      {
        "club_badge_src": null,
        "entry": 60965,
        "entry_name": "Amad For It",
        "event_total": 73,
        "has_played": true,
        "id": 392540,
        "last_rank": 3902,
        "player_name": "Adam Tinsley",
        "rank": 2442,
        "rank_sort": 2444,
        "total": 2430
      },
      {
        "club_badge_src": null,
        "entry": 113152,
        "entry_name": "Black Cat",
        "event_total": 70,
        "has_played": true,
        "id": 737979,
        "last_rank": 4099,
        "player_name": "Harry G",
        "rank": 2442,
        "rank_sort": 2445,
        "total": 2430
      },
      {
        "club_badge_src": null,
        "entry": 176860,
        "entry_name": "Real Tv\u00e5\u00e5ker",
        "event_total": 64,
        "has_played": true,
        "id": 1167419,
        "last_rank": 2553,
        "player_name": "Billy Bengtsson",
        "rank": 2442,
        "rank_sort": 2446,
        "total": 2430
      },
      {
        "club_badge_src": null,
        "entry": 651942,
        "entry_name": "Mario1982",
        "event_total": 61,
        "has_played": true,
        "id": 4405810,
        "last_rank": 2685,
        "player_name": "Mario Miletic",
        "rank": 2442,
        "rank_sort": 2447,
        "total": 2430
      },
      {
        "club_badge_src": "https://fantasy.premierleague.com/gcs/plfpl-production-adobe-approved/plfpl-production/688503/f1f78a6e-95b6-47b8-86cf-c2a8f21e89dd.png",
        "entry": 688503,
        "entry_name": "Enough IS Enough 15!",
        "event_total": 63,
        "has_played": true,
        "id": 4661496,
        "last_rank": 3007,
        "player_name": "Michael Knight",
        "rank": 2442,
        "rank_sort": 2448,
        "total": 2430
      },
      {
        "club_badge_src": null,
        "entry": 748640,
        "entry_name": "Yoker Dee Dee",
        "event_total": 77,
        "has_played": true,
        "id": 5093352,
        "last_rank": 4704,
        "player_name": "Jamie Kellas",
        "rank": 2442,
        "rank_sort": 2449,
        "total": 2430
      },
      {
        "club_badge_src": "https://fantasy.premierleague.com/gcs/plfpl-production-adobe-approved/plfpl-production/1102123/5d4294b6-7b0c-4feb-ba1a-6cd8a947491b.png",
        "entry": 1102123,
        "entry_name": "New Kid Muzzy",
        "event_total": 67,
        "has_played": true,
        "id": 7634130,
        "last_rank": 3601,
        "player_name": "Dom Musgrove",
        "rank": 2442,
        "rank_sort": 2450,
        "total": 2430
      }
    ]
  }
}