{
  "last_updated_data": "2026-05-24T23:28:17Z",
  "league": {
    "admin_entry": null,
    "closed": false,
    "code_privacy": "p",
    "created": "2025-07-20T23:14:33.933835Z",
    "cup_league": 2815434,
    "has_cup": true,
    "id": 314,
    "league_type": "s",
    "max_entries": null,
    "name": "Overall",
    "rank": null,
    "scoring": "c",
    "start_event": 1
  },
  "new_entries": {
    "has_next": false,
    "page": 1,
    "results": []
  },
  "standings": {
    "has_next": true,
    "page": 477,
    "results": [
      {
        "club_badge_src": null,
        "entry": 6625432,
        "entry_name": "Carlos Puyol 14",
        "event_total": 37,
        "has_played": true,
        "id": 52947035,
        "last_rank": 10920,
        "player_name": "Harry Sands",
        "rank": 23655,
        "rank_sort": 23801,
        "total": 2375
      },
      {
        "club_badge_src": null,
        "entry": 6667347,
        "entry_name": "Shiremoor Terriers",
        "event_total": 62,
        "has_played": true,
        "id": 53322106,
        "last_rank": 27644,
        "player_name": "John Schofield",
        "rank": 23655,
        "rank_sort": 23802,
        "total": 2375
      },
      {
        "club_badge_src": null,
        "entry": 6839124,
        "entry_name": "The Kinder Mbeumos",
        "event_total": 73,
        "has_played": true,
        "id": 54786016,
        "last_rank": 39874,
        "player_name": "Adam Kindillon",
        "rank": 23655,
        "rank_sort": 23803,
        "total": 2375
      },
      {
        "club_badge_src": "https://fantasy.premierleague.com/gcs/plfpl-production-adobe-approved/plfpl-production/6848166/0480b187-26c8-470d-b655-c528406cb86c.png",
        "entry": 6848166,
        "entry_name": "Olsenheimer",
        "event_total": 66,
        "has_played": true,
        "id": 54863645,
        "last_rank": 31747,
        "player_name": "Joakim G Olsen",
        "rank": 23655,
        "rank_sort": 23804,
        "total": 2375
      },
      {
        "club_badge_src": null,
        "entry": 6871617,
        "entry_name": "zeke",
        "event_total": 52,
        "has_played": true,
        "id": 55063972,
        "last_rank": 19544,
        "player_name": "Wesley Salifu",
        "rank": 23655,
        "rank_sort": 23805,
        "total": 2375
      },
      {
        "club_badge_src": null,
        "entry": 7057309,
        "entry_name": "Hakuna Mateta",
        "event_total": 53,
        "has_played": true,
        "id": 56768195,
        "last_rank": 20179,
        "player_name": "Thibau Cauwenbergh",
        "rank": 23655,
        "rank_sort": 23806,
        "total": 2375
      },
      {
        "club_badge_src": null,
        "entry": 7111020,
        "entry_name": "pre season",
        "event_total": 62,
        "has_played": true,
        "id": 57281539,
        "last_rank": 24039,
        "player_name": "Nikesh Agravat",
        "rank": 23655,
        "rank_sort": 23807,
        "total": 2375
      },
      {
        "club_badge_src": null,
        "entry": 7207452,
        "entry_name": "Shaw Ate Dalot",
        "event_total": 59,
        "has_played": true,
        "id": 58202306,
        "last_rank": 25002,
        "player_name": "Jack Q",
        "rank": 23655,
        "rank_sort": 23808,
        "total": 2375
      },
      {
        "club_badge_src": "https://fantasy.premierleague.com/gcs/plfpl-production-adobe-approved/plfpl-production/7224336/6010f01b-661f-49c1-9a4c-0488d3f001fa.png",
        "entry": 7224336,
        "entry_name": "Diego lambdoner",
        "event_total": 70,
        "has_played": true,
        "id": 58362658,
        "last_rank": 36200,
        "player_name": "ross chapman",
        "rank": 23655,
        "rank_sort": 23809,
        "total": 2375
      },
      {
        "club_badge_src": null,
        "entry": 7264348,
        "entry_name": "cekoslovakijos gejai",
        "event_total": 55,
        "has_played": true,
        "id": 58740802,
        "last_rank": 21775,
        "player_name": "Dovydas Epstein",
        "rank": 23655,
        "rank_sort": 23810,
        "total": 2375
      },
      {
        "club_badge_src": null,
        "entry": 7278722,
        "entry_name": "Adoor XI",
        "event_total": 65,
        "has_played": true,
        "id": 58876753,
        "last_rank": 30600,
        "player_name": "Kevin M",
        "rank": 23655,
        "rank_sort": 23811,
        "total": 2375
      },
      {
        "club_badge_src": null,
        "entry": 7298135,
        "entry_name": "Mladi pili\u0107i",
        "event_total": 70,
        "has_played": true,
        "id": 59058622,
        "last_rank": 36200,
        "player_name": "Tomislav Blazevic",
        "rank": 23655,
        "rank_sort": 23812,
        "total": 2375
      },
      {
        "club_badge_src": null,
        "entry": 7337719,
        "entry_name": "Deportivo Jordfar",
        "event_total": 67,
        "has_played": true,
        "id": 59430427,
        "last_rank": 32688,
        "player_name": "Herman Aalstad S\u00f8rensen",
        "rank": 23655,
        "rank_sort": 23813,
        "total": 2375
      },
      {
        "club_badge_src": null,
        "entry": 7545998,
        "entry_name": "2bad4u",
        "event_total": 62,
        "has_played": true,
        "id": 61776200,
        "last_rank": 27644,
        "player_name": "Amanda Rygvold",
        "rank": 23655,
        "rank_sort": 23814,
        "total": 2375
      },
      {
        "club_badge_src": null,
        "entry": 7755574,
        "entry_name": "Sami Cavani",
        "event_total": 59,
        "has_played": true,
        "id": 63672962,
        "last_rank": 24857,
        "player_name": "Sami Jaafar",
        "rank": 23655,
        "rank_sort": 23815,
        "total": 2375
      },
      {
        "club_badge_src": null,
        "entry": 8263263,
        "entry_name": "Bruno's boys",
        "event_total": 73,
        "has_played": true,
        "id": 68349948,
        "last_rank": 40036,
        "player_name": "clive bass",
        "rank": 23655,
        "rank_sort": 23816,
        "total": 2375
      },
      {
        "club_badge_src": null,
        "entry": 8325009,
        "entry_name": "Chan-tastic Hwang",
        "event_total": 57,
        "has_played": true,
        "id": 68967414,
        "last_rank": 23230,
        "player_name": "Will Dale",
        "rank": 23655,
        "rank_sort": 23817,
        "total": 2375
      },
      {
        "club_badge_src": null,
        "entry": 8465339,
        "entry_name": "el cabro",
        "event_total": 65,
        "has_played": true,
        "id": 70300665,
        "last_rank": 30494,
        "player_name": "Oscar Lowry",
        "rank": 23655,
        "rank_sort": 23818,
        "total": 2375
      },
      {
        "club_badge_src": "https://fantasy.premierleague.com/gcs/plfpl-production-adobe-approved/plfpl-production/8477525/a4940fa8-ab89-47c7-b6ed-3068503e1c0f.png",
        "entry": 8477525,
        "entry_name": "ChickenTikkaMoSalah",
        "event_total": 57,
        "has_played": true,
        "id": 70416406,
        "last_rank": 23230,
        "player_name": "Andrew O'Sullivan",
        "rank": 23655,
        "rank_sort": 23819,
        "total": 2375
      },
      {
        "club_badge_src": "https://fantasy.premierleague.com/gcs/plfpl-production-adobe-approved/plfpl-production/9216158/c5b541dc-a050-41ab-88a1-ccdae5b1785c.png",
        "entry": 9216158,
        "entry_name": "\u2766chloe\u22c6kelly\ufffdAura\ufffd",
        "event_total": 65,
        "has_played": true,
        "id": 77593458,
        "last_rank": 30536,
        "player_name": "Abraham Reeve",
        "rank": 23655,
        "rank_sort": 23820,
        "total": 2375
      },
      {
        "club_badge_src": null,
        "entry": 9232698,
        "entry_name": "MB223",
        "event_total": 56,
        "has_played": true,
        "id": 77754566,
        "last_rank": 22534,
        "player_name": "Matej Bachraty",
        "rank": 23655,
        "rank_sort": 23821,
        "total": 2375
      },
      {
        "club_badge_src": null,
        "entry": 9351472,
        "entry_name": "Reece's Pieces",
        "event_total": 77,
        "has_played": true,
        "id": 78901440,
        "last_rank": 45144,
        "player_name": "Gio Bebo",
        "rank": 23655,
        "rank_sort": 23822,
        "total": 2375
      },
      {
        "club_badge_src": null,
        "entry": 4353,
        "entry_name": "Shackleton Sharks",
        "event_total": 64,
        "has_played": true,
        "id": 24739,
        "last_rank": 29904,
        "player_name": "John Sparke",
        "rank": 23823,
        "rank_sort": 23823,
        "total": 2375
      },
      {
        "club_badge_src": null,
        "entry": 5732,
        "entry_name": "Tommy's Team",
        "event_total": 63,
        "has_played": true,
        "id": 32725,
        "last_rank": 25002,
        "player_name": "Jordan Thompson",
        "rank": 23823,
        "rank_sort": 23824,
        "total": 2375
      },
      {
        "club_badge_src": null,
        "entry": 7791,
        "entry_name": "One Size Fitz Hall",
        "event_total": 60,
        "has_played": true,
        "id": 44967,
        "last_rank": 22426,
        "player_name": "Tom Hadley",
        "rank": 23823,
        "rank_sort": 23825,
        "total": 2375
      },
      {
        "club_badge_src": null,
        "entry": 9179,
        "entry_name": "Stray Cats",
        "event_total": 45,
        "has_played": true,
        "id": 53858,
        "last_rank": 12705,
        "player_name": "Andrey S",
        "rank": 23823,
        "rank_sort": 23826,
        "total": 2375
      },
      {
        "club_badge_src": "https://fantasy.premierleague.com/gcs/plfpl-production-adobe-approved/plfpl-production/11663/15d505c4-41be-4d44-b07c-722324493537.png",
        "entry": 11663,
        "entry_name": "Could be Wirtz",
        "event_total": 67,
        "has_played": true,
        "id": 69414,
        "last_rank": 32879,
        "player_name": "Rune \u00d8stg\u00e5rd",
        "rank": 23823,
        "rank_sort": 23827,
        "total": 2375
      },
      {
        "club_badge_src": "https://fantasy.premierleague.com/gcs/plfpl-production-adobe-approved/plfpl-production/19777/fea6dbca-6c57-485c-9b9e-06665f66ac8c.png",
        "entry": 19777,
        "entry_name": "Not So FRANKtastic",
        "event_total": 68,
        "has_played": true,
        "id": 123089,
        "last_rank": 29688,
        "player_name": "Richard King",
        "rank": 23823,
        "rank_sort": 23828,
        "total": 2375
      },
      {
        "club_badge_src": "https://fantasy.premierleague.com/gcs/plfpl-production-adobe-approved/plfpl-production/20167/ffeddf9b-78bf-4085-96a7-ab1336bcf1af.png",
        "entry": 20167,
        "entry_name": "Harchester United",
        "event_total": 60,
        "has_played": true,
        "id": 125601,
        "last_rank": 26088,
        "player_name": "Rhys Carpenter",
        "rank": 23823,
        "rank_sort": 23829,
        "total": 2375
      },
      {
        "club_badge_src": "https://fantasy.premierleague.com/gcs/plfpl-production-adobe-approved/plfpl-production/20420/1713c23a-17e4-406d-a386-5a63c5b1cf85.png",
        "entry": 20420,
        "entry_name": "Piorun Zakrz\u00f3w",
        "event_total": 61,
        "has_played": true,
        "id": 127346,
        "last_rank": 23341,
        "player_name": "Patryk Kurczyna",
        "rank": 23823,
        "rank_sort": 23830,
        "total": 2375
      },
      {
        "club_badge_src": "https://fantasy.premierleague.com/gcs/plfpl-production-adobe-approved/plfpl-production/24682/efc4dc81-b2a3-4684-aff0-7eabef1011c6.png",
        "entry": 24682,
        "entry_name": "[Redacted] FC",
        "event_total": 68,
        "has_played": true,
        "id": 155836,
        "last_rank": 29578,
        "player_name": "Owen Chiu",
        "rank": 23823,
        "rank_sort": 23831,
        "total": 2375
      },
      {
        "club_badge_src": null,
        "entry": 26467,
        "entry_name": "Reus Krispies",
        "event_total": 60,
        "has_played": true,
        "id": 167342,
        "last_rank": 25902,
        "player_name": "Ciar\u00e1n Murphy",
        "rank": 23823,
        "rank_sort": 23832,
        "total": 2375
      },
      {
        "club_badge_src": null,
        "entry": 31831,
        "entry_name": "Noni your business",
        "event_total": 59,
        "has_played": true,
        "id": 202056,
        "last_rank": 25002,
        "player_name": "Simon Fabri",
        "rank": 23823,
        "rank_sort": 23833,
        "total": 2375
      },
      {
        "club_badge_src": null,
        "entry": 32555,
        "entry_name": "Getafekinglife",
        "event_total": 65,
        "has_played": true,
        "id": 207145,
        "last_rank": 30727,
        "player_name": "Asa Yangsirisuk",
        "rank": 23823,
        "rank_sort": 23834,
        "total": 2375
      },
      {
        "club_badge_src": null,
        "entry": 36694,
        "entry_name": "Ramzi Yafai",
        "event_total": 60,
        "has_played": true,
        "id": 234939,
        "last_rank": 26230,
        "player_name": "Ramzi Yafai",
        "rank": 23823,
        "rank_sort": 23835,
        "total": 2375
      },
      {
        "club_badge_src": "https://fantasy.premierleague.com/gcs/plfpl-production-adobe-approved/plfpl-production/49990/8634ebab-41fd-4a02-a73b-9b61c2ffb9d4.png",
        "entry": 49990,
        "entry_name": "Merseyside fc",
        "event_total": 60,
        "has_played": true,
        "id": 321412,
        "last_rank": 22534,
        "player_name": "Morten Offerdal",
        "rank": 23823,
        "rank_sort": 23836,
        "total": 2375
      },
      {
        "club_badge_src": null,
        "entry": 50824,
        "entry_name": "Blue Jays",
        "event_total": 62,
        "has_played": true,
        "id": 326936,
        "last_rank": 24143,
        "player_name": "Chris Cleeve",
        "rank": 23823,
        "rank_sort": 23837,
        "total": 2375
      },
      {
        "club_badge_src": null,
        "entry": 66705,
        "entry_name": "McBros XI",
        "event_total": 63,
        "has_played": true,
        "id": 431422,
        "last_rank": 28726,
        "player_name": "Jordon Gorevan",
        "rank": 23823,
        "rank_sort": 23838,
        "total": 2375
      },
      {
        "club_badge_src": null,
        "entry": 69444,
        "entry_name": "could be wirtz",
        "event_total": 52,
        "has_played": true,
        "id": 450450,
        "last_rank": 19544,
        "player_name": "Peter Vossos",
        "rank": 23823,
        "rank_sort": 23839,
        "total": 2375
      },
      {
        "club_badge_src": null,
        "entry": 73751,
        "entry_name": "Yoros cold as ice",
        "event_total": 79,
        "has_played": true,
        "id": 479440,
        "last_rank": 42434,
        "player_name": "Magnus Larsen",
        "rank": 23823,
        "rank_sort": 23840,
        "total": 2375
      },
      {
        "club_badge_src": null,
        "entry": 76913,
        "entry_name": "Da Highs and Dalots",
        "event_total": 47,
        "has_played": true,
        "id": 499954,
        "last_rank": 16163,
        "player_name": "Harry Macgregor",
        "rank": 23823,
        "rank_sort": 23841,
        "total": 2375
      },
      {
        "club_badge_src": null,
        "entry": 78269,
        "entry_name": "Fowler's Left Foot",
        "event_total": 57,
        "has_played": true,
        "id": 508898,
        "last_rank": 23230,
        "player_name": "Andy Tang",
        "rank": 23823,
        "rank_sort": 23842,
        "total": 2375
      },
      {
        "club_badge_src": null,
        "entry": 94545,
        "entry_name": "\u5feb\u8239\u4f60\u4e0d\u914d\u6709\u51a0\u519b",
        "event_total": 61,
        "has_played": true,
        "id": 617763,
        "last_rank": 27020,
        "player_name": "\u4e2d\u51fa \u4e95\u91ce",
        "rank": 23823,
        "rank_sort": 23843,
        "total": 2375
      },
      {
        "club_badge_src": "https://fantasy.premierleague.com/gcs/plfpl-production-adobe-approved/plfpl-production/111381/d8d9db6b-316e-4e45-8140-3645bc67f9e3.png",
        "entry": 111381,
        "entry_name": "saka potatoes",
        "event_total": 58,
        "has_played": true,
        "id": 726265,
        "last_rank": 24330,
        "player_name": "William Horton",
        "rank": 23823,
        "rank_sort": 23844,
        "total": 2375
      },
      {
        "club_badge_src": "https://fantasy.premierleague.com/gcs/plfpl-production-adobe-approved/plfpl-production/112368/f8cfcb1b-a271-4ca9-884b-cb37482d5485.png",
        "entry": 112368,
        "entry_name": "Don Juan FC*",
        "event_total": 42,
        "has_played": true,
        "id": 732603,
        "last_rank": 13401,
        "player_name": "Nuwan van der Linden",
        "rank": 23823,
        "rank_sort": 23845,
        "total": 2375
      },
      {
        "club_badge_src": null,
        "entry": 117616,
        "entry_name": "Lil Uzi Wirtz",
        "event_total": 55,
        "has_played": true,
        "id": 767675,
        "last_rank": 21949,
        "player_name": "Will Evans",
        "rank": 23823,
        "rank_sort": 23846,
        "total": 2375
      },
      {
        "club_badge_src": null,
        "entry": 131256,
        "entry_name": "Obi-Wan Kenobi Nil",
        "event_total": 42,
        "has_played": true,
        "id": 855144,
        "last_rank": 13500,
        "player_name": "Jake West",
        "rank": 23823,
        "rank_sort": 23847,
        "total": 2375
      },
      {
        "club_badge_src": null,
        "entry": 135952,
        "entry_name": "Rog Dog  Town",
        "event_total": 33,
        "has_played": true,
        "id": 885429,
        "last_rank": 9248,
        "player_name": "Jimmy Juricevich",
        "rank": 23823,
        "rank_sort": 23848,
        "total": 2375
      },
      {
        "club_badge_src": null,
        "entry": 138815,
        "entry_name": "Kilt Lifter",
        "event_total": 67,
        "has_played": true,
        "id": 905716,
        "last_rank": 32879,
        "player_name": "Emre K\u00f6semen",
        "rank": 23823,
        "rank_sort": 23849,
        "total": 2375
      },
      {
        "club_badge_src": null,
        "entry": 144250,
        "entry_name": "Just give me de Ligt",
        "event_total": 67,
        "has_played": true,
        "id": 944099,
        "last_rank": 32879,
        "player_name": "Tom Symes-Brown",
        "rank": 23823,
        "rank_sort": 23850,
        "total": 2375
      }
    ]
  }
}