{
  "last_updated_data": "2026-05-24T23:28:17Z",
  "league": {
    "admin_entry": null,
    "closed": false,
    "code_privacy": "p",
    "created": "2025-07-20T23:14:33.933835Z",
    "cup_league": 2815434,
    "has_cup": true,
    "id": 314,
    "league_type": "s",
    "max_entries": null,
    "name": "Overall",
    "rank": null,
    "scoring": "c",
    "start_event": 1
  },
  "new_entries": {
    "has_next": false,
    "page": 1,
    "results": []
  },
  "standings": {
    "has_next": true,
    "page": 1262,
    "results": [
      {
        "club_badge_src": null,
        "entry": 7005276,
        "entry_name": "Sesko Meal Deal",
        "event_total": 61,
        "has_played": true,
        "id": 56251971,
        "last_rank": 70985,
        "player_name": "Matthew Pudge",
        "rank": 62778,
        "rank_sort": 63051,
        "total": 2344
      },
      {
        "club_badge_src": null,
        "entry": 7026989,
        "entry_name": "Whits XI",
        "event_total": 57,
        "has_played": true,
        "id": 56458475,
        "last_rank": 63390,
        "player_name": "James Whitfield",
        "rank": 62778,
        "rank_sort": 63052,
        "total": 2344
      },
      {
        "club_badge_src": null,
        "entry": 7066730,
        "entry_name": "Rooney Tunes",
        "event_total": 94,
        "has_played": true,
        "id": 56858497,
        "last_rank": 164884,
        "player_name": "lee lenihan",
        "rank": 62778,
        "rank_sort": 63053,
        "total": 2344
      },
      {
        "club_badge_src": null,
        "entry": 7074948,
        "entry_name": "Change Name",
        "event_total": 64,
        "has_played": true,
        "id": 56936120,
        "last_rank": 77999,
        "player_name": "Paul Osborne",
        "rank": 62778,
        "rank_sort": 63054,
        "total": 2344
      },
      {
        "club_badge_src": null,
        "entry": 7080895,
        "entry_name": "Ge fan aldrig upp",
        "event_total": 52,
        "has_played": true,
        "id": 56994159,
        "last_rank": 48363,
        "player_name": "Fredrik St\u00e5lbrand",
        "rank": 62778,
        "rank_sort": 63055,
        "total": 2344
      },
      {
        "club_badge_src": null,
        "entry": 7097703,
        "entry_name": "\u0141\u0119k",
        "event_total": 73,
        "has_played": true,
        "id": 57153727,
        "last_rank": 98073,
        "player_name": "Rafa\u0142 Bernal",
        "rank": 62778,
        "rank_sort": 63056,
        "total": 2344
      },
      {
        "club_badge_src": null,
        "entry": 7148726,
        "entry_name": "SCLondon",
        "event_total": 49,
        "has_played": true,
        "id": 57641543,
        "last_rank": 50199,
        "player_name": "Duarte Bilro",
        "rank": 62778,
        "rank_sort": 63057,
        "total": 2344
      },
      {
        "club_badge_src": "https://fantasy.premierleague.com/gcs/plfpl-production-adobe-approved/plfpl-production/7205995/0fc4a7ba-4a19-4316-b59d-208c278b3c29.png",
        "entry": 7205995,
        "entry_name": "Hale Yeah",
        "event_total": 62,
        "has_played": true,
        "id": 58187815,
        "last_rank": 73038,
        "player_name": "Margot Melville",
        "rank": 62778,
        "rank_sort": 63058,
        "total": 2344
      },
      {
        "club_badge_src": "https://fantasy.premierleague.com/gcs/plfpl-production-adobe-approved/plfpl-production/7277319/93cad5b1-9cfc-4fc3-a0ba-b481c2ff1258.png",
        "entry": 7277319,
        "entry_name": "Arsenalex FC",
        "event_total": 60,
        "has_played": true,
        "id": 58862272,
        "last_rank": 69323,
        "player_name": "Alex Yeo",
        "rank": 62778,
        "rank_sort": 63059,
        "total": 2344
      },
      {
        "club_badge_src": "https://fantasy.premierleague.com/gcs/plfpl-production-adobe-approved/plfpl-production/7295786/6d1c2b96-9e25-4ea7-b2f0-2b2868834fe6.png",
        "entry": 7295786,
        "entry_name": "Azizanthegr8",
        "event_total": 60,
        "has_played": true,
        "id": 59037053,
        "last_rank": 68748,
        "player_name": "Azizan ishak",
        "rank": 62778,
        "rank_sort": 63060,
        "total": 2344
      },
      {
        "club_badge_src": null,
        "entry": 7370254,
        "entry_name": "StubbedMiToma",
        "event_total": 47,
        "has_played": true,
        "id": 59736848,
        "last_rank": 47163,
        "player_name": "Gian Zlupko",
        "rank": 62778,
        "rank_sort": 63061,
        "total": 2344
      },
      {
        "club_badge_src": null,
        "entry": 7413138,
        "entry_name": "Im sorry Nic Jackson",
        "event_total": 40,
        "has_played": true,
        "id": 60158206,
        "last_rank": 37822,
        "player_name": "Iestyn Jones",
        "rank": 62778,
        "rank_sort": 63062,
        "total": 2344
      },
      {
        "club_badge_src": null,
        "entry": 7709947,
        "entry_name": "Bell X-1",
        "event_total": 53,
        "has_played": true,
        "id": 63260319,
        "last_rank": 49880,
        "player_name": "Andy Bell",
        "rank": 62778,
        "rank_sort": 63063,
        "total": 2344
      },
      {
        "club_badge_src": "https://fantasy.premierleague.com/gcs/plfpl-production-adobe-approved/plfpl-production/7710428/ad1ea762-adbb-4028-b7d4-530f6409b9cb.png",
        "entry": 7710428,
        "entry_name": "Bakir 20",
        "event_total": 73,
        "has_played": true,
        "id": 63264445,
        "last_rank": 98896,
        "player_name": "Bakir Bihorac",
        "rank": 62778,
        "rank_sort": 63064,
        "total": 2344
      },
      {
        "club_badge_src": null,
        "entry": 7780502,
        "entry_name": "SAAD TEAM",
        "event_total": 79,
        "has_played": true,
        "id": 63898334,
        "last_rank": 115057,
        "player_name": "saad hakim",
        "rank": 62778,
        "rank_sort": 63065,
        "total": 2344
      },
      {
        "club_badge_src": null,
        "entry": 7953931,
        "entry_name": "Bai FC",
        "event_total": 52,
        "has_played": true,
        "id": 65475221,
        "last_rank": 55014,
        "player_name": "Bai Ibrahim Jobe",
        "rank": 62778,
        "rank_sort": 63066,
        "total": 2344
      },
      {
        "club_badge_src": null,
        "entry": 8190750,
        "entry_name": "slot machine",
        "event_total": 58,
        "has_played": true,
        "id": 67652183,
        "last_rank": 64943,
        "player_name": "Grant Robson",
        "rank": 62778,
        "rank_sort": 63067,
        "total": 2344
      },
      {
        "club_badge_src": null,
        "entry": 8480184,
        "entry_name": "Rscteam",
        "event_total": 65,
        "has_played": true,
        "id": 70441780,
        "last_rank": 79431,
        "player_name": "Rokas \u0160\u010degauskas",
        "rank": 62778,
        "rank_sort": 63068,
        "total": 2344
      },
      {
        "club_badge_src": null,
        "entry": 8862441,
        "entry_name": "Mainoo Event",
        "event_total": 65,
        "has_played": true,
        "id": 74147213,
        "last_rank": 79817,
        "player_name": "Gordon Strachan",
        "rank": 62778,
        "rank_sort": 63069,
        "total": 2344
      },
      {
        "club_badge_src": null,
        "entry": 8970392,
        "entry_name": "West Ham Reserves",
        "event_total": 55,
        "has_played": true,
        "id": 75196259,
        "last_rank": 60168,
        "player_name": "Simon Bates",
        "rank": 62778,
        "rank_sort": 63070,
        "total": 2344
      },
      {
        "club_badge_src": null,
        "entry": 8983933,
        "entry_name": "Jolly Rogers",
        "event_total": 66,
        "has_played": true,
        "id": 75327168,
        "last_rank": 81646,
        "player_name": "Rich Withey",
        "rank": 62778,
        "rank_sort": 63071,
        "total": 2344
      },
      {
        "club_badge_src": null,
        "entry": 9111676,
        "entry_name": "The Straw Hats",
        "event_total": 67,
        "has_played": true,
        "id": 76565984,
        "last_rank": 84360,
        "player_name": "Tacti CO",
        "rank": 62778,
        "rank_sort": 63072,
        "total": 2344
      },
      {
        "club_badge_src": null,
        "entry": 9112830,
        "entry_name": "FC Twente Bensons",
        "event_total": 89,
        "has_played": true,
        "id": 76577229,
        "last_rank": 132427,
        "player_name": "Chris Bromley",
        "rank": 62778,
        "rank_sort": 63073,
        "total": 2344
      },
      {
        "club_badge_src": null,
        "entry": 9188675,
        "entry_name": "Eze does it",
        "event_total": 63,
        "has_played": true,
        "id": 77322423,
        "last_rank": 75537,
        "player_name": "Mark Oxlade",
        "rank": 62778,
        "rank_sort": 63074,
        "total": 2344
      },
      {
        "club_badge_src": null,
        "entry": 9390679,
        "entry_name": "10pBamfreddo",
        "event_total": 53,
        "has_played": true,
        "id": 79284021,
        "last_rank": 49880,
        "player_name": "Olivia Lee",
        "rank": 62778,
        "rank_sort": 63075,
        "total": 2344
      },
      {
        "club_badge_src": "https://fantasy.premierleague.com/gcs/plfpl-production-adobe-approved/plfpl-production/744/f00adc1c-9893-41b3-8996-0caff796d4b6.png",
        "entry": 744,
        "entry_name": "Live ForEvra",
        "event_total": 66,
        "has_played": true,
        "id": 4109,
        "last_rank": 82069,
        "player_name": "Adam Fox",
        "rank": 63076,
        "rank_sort": 63076,
        "total": 2344
      },
      {
        "club_badge_src": null,
        "entry": 3459,
        "entry_name": "Zubi Zubi Doo",
        "event_total": 69,
        "has_played": true,
        "id": 19596,
        "last_rank": 79817,
        "player_name": "Edis Hadzhi",
        "rank": 63076,
        "rank_sort": 63077,
        "total": 2344
      },
      {
        "club_badge_src": null,
        "entry": 3470,
        "entry_name": "Rutter Woke Nonsense",
        "event_total": 64,
        "has_played": true,
        "id": 19666,
        "last_rank": 77258,
        "player_name": "Oli Mitchell",
        "rank": 63076,
        "rank_sort": 63078,
        "total": 2344
      },
      {
        "club_badge_src": "https://fantasy.premierleague.com/gcs/plfpl-production-adobe-approved/plfpl-production/4845/80bfeb40-fed9-42b8-929d-6d10afca691f.png",
        "entry": 4845,
        "entry_name": "Meerlight FC",
        "event_total": 53,
        "has_played": true,
        "id": 27573,
        "last_rank": 57001,
        "player_name": "Graeme Williams",
        "rank": 63076,
        "rank_sort": 63079,
        "total": 2344
      },
      {
        "club_badge_src": null,
        "entry": 5667,
        "entry_name": "Mac Monchengladbach",
        "event_total": 62,
        "has_played": true,
        "id": 32326,
        "last_rank": 73720,
        "player_name": "Stew McLean",
        "rank": 63076,
        "rank_sort": 63080,
        "total": 2344
      },
      {
        "club_badge_src": null,
        "entry": 5698,
        "entry_name": "Too Eze",
        "event_total": 60,
        "has_played": true,
        "id": 32517,
        "last_rank": 69641,
        "player_name": "Tom Gates",
        "rank": 63076,
        "rank_sort": 63081,
        "total": 2344
      },
      {
        "club_badge_src": "https://fantasy.premierleague.com/gcs/plfpl-production-adobe-approved/plfpl-production/21581/3c6e3008-ba17-415e-a24b-43540928e041.png",
        "entry": 21581,
        "entry_name": "\u0643\u0641\u0631 \u0627\u0644\u0632\u064a\u0627\u062a",
        "event_total": 68,
        "has_played": true,
        "id": 135348,
        "last_rank": 86735,
        "player_name": "\u064a\u0648\u0631\u062c\u0646 \u0643\u0644\u0648\u062a",
        "rank": 63076,
        "rank_sort": 63082,
        "total": 2344
      },
      {
        "club_badge_src": "https://fantasy.premierleague.com/gcs/plfpl-production-adobe-approved/plfpl-production/22005/fd73b781-72a0-43cb-ab8a-425af0cfb3c3.png",
        "entry": 22005,
        "entry_name": "jeSUIIs",
        "event_total": 57,
        "has_played": true,
        "id": 138105,
        "last_rank": 63724,
        "player_name": "Henrik Furebotten",
        "rank": 63076,
        "rank_sort": 63083,
        "total": 2344
      },
      {
        "club_badge_src": null,
        "entry": 22335,
        "entry_name": "K4PC4I FC",
        "event_total": 65,
        "has_played": true,
        "id": 140239,
        "last_rank": 79817,
        "player_name": "Hafizi Ahmad",
        "rank": 63076,
        "rank_sort": 63084,
        "total": 2344
      },
      {
        "club_badge_src": "https://fantasy.premierleague.com/gcs/plfpl-production-adobe-approved/plfpl-production/23693/1bba3ae9-d828-4b55-8e5c-f304f2110d95.png",
        "entry": 23693,
        "entry_name": "Sir D'ordalot",
        "event_total": 53,
        "has_played": true,
        "id": 149330,
        "last_rank": 56708,
        "player_name": "Olli M",
        "rank": 63076,
        "rank_sort": 63085,
        "total": 2344
      },
      {
        "club_badge_src": "https://fantasy.premierleague.com/gcs/plfpl-production-adobe-approved/plfpl-production/23704/cfba0e4d-66a6-4c41-853a-409928562131.png",
        "entry": 23704,
        "entry_name": "Fresda",
        "event_total": 60,
        "has_played": true,
        "id": 149415,
        "last_rank": 61606,
        "player_name": "Darren Elliott",
        "rank": 63076,
        "rank_sort": 63086,
        "total": 2344
      },
      {
        "club_badge_src": null,
        "entry": 25183,
        "entry_name": "Saka Potatoes",
        "event_total": 60,
        "has_played": true,
        "id": 159282,
        "last_rank": 61606,
        "player_name": "Ross Dallas",
        "rank": 63076,
        "rank_sort": 63087,
        "total": 2344
      },
      {
        "club_badge_src": null,
        "entry": 26628,
        "entry_name": "Claires crusaders",
        "event_total": 60,
        "has_played": true,
        "id": 168363,
        "last_rank": 61606,
        "player_name": "Claire Keys",
        "rank": 63076,
        "rank_sort": 63088,
        "total": 2344
      },
      {
        "club_badge_src": null,
        "entry": 33387,
        "entry_name": "Lads on Toure",
        "event_total": 44,
        "has_played": true,
        "id": 212901,
        "last_rank": 43168,
        "player_name": "Mark Baker",
        "rank": 63076,
        "rank_sort": 63089,
        "total": 2344
      },
      {
        "club_badge_src": null,
        "entry": 35747,
        "entry_name": "JB Gunner",
        "event_total": 58,
        "has_played": true,
        "id": 228822,
        "last_rank": 65475,
        "player_name": "Justin Brennan",
        "rank": 63076,
        "rank_sort": 63090,
        "total": 2344
      },
      {
        "club_badge_src": null,
        "entry": 36687,
        "entry_name": "Stay Hungry",
        "event_total": 58,
        "has_played": true,
        "id": 234890,
        "last_rank": 66057,
        "player_name": "Michael Ikoro",
        "rank": 63076,
        "rank_sort": 63091,
        "total": 2344
      },
      {
        "club_badge_src": null,
        "entry": 37103,
        "entry_name": "Unagi no Kabayaki",
        "event_total": 51,
        "has_played": true,
        "id": 237599,
        "last_rank": 41324,
        "player_name": "Minh Le",
        "rank": 63076,
        "rank_sort": 63092,
        "total": 2344
      },
      {
        "club_badge_src": null,
        "entry": 41061,
        "entry_name": "United City FC",
        "event_total": 60,
        "has_played": true,
        "id": 263162,
        "last_rank": 61950,
        "player_name": "Mohd Merza",
        "rank": 63076,
        "rank_sort": 63093,
        "total": 2344
      },
      {
        "club_badge_src": null,
        "entry": 41709,
        "entry_name": "Kings of the Bridge",
        "event_total": 49,
        "has_played": true,
        "id": 267259,
        "last_rank": 44303,
        "player_name": "Jack Parrish",
        "rank": 63076,
        "rank_sort": 63094,
        "total": 2344
      },
      {
        "club_badge_src": "https://fantasy.premierleague.com/gcs/plfpl-production-adobe-approved/plfpl-production/55806/71351da2-7d38-41be-a5c5-f9f335b9ab1f.png",
        "entry": 55806,
        "entry_name": "Layton Orient",
        "event_total": 83,
        "has_played": true,
        "id": 359356,
        "last_rank": 126948,
        "player_name": "James Layton",
        "rank": 63076,
        "rank_sort": 63095,
        "total": 2344
      },
      {
        "club_badge_src": "https://fantasy.premierleague.com/gcs/plfpl-production-adobe-approved/plfpl-production/56701/213d03ea-7531-46d6-b766-d85f78382b0f.png",
        "entry": 56701,
        "entry_name": "Olise in Wonderland",
        "event_total": 52,
        "has_played": true,
        "id": 365245,
        "last_rank": 48642,
        "player_name": "Alex Voskanyan\ud83c\udde6\ud83c\uddf2",
        "rank": 63076,
        "rank_sort": 63096,
        "total": 2344
      },
      {
        "club_badge_src": null,
        "entry": 65659,
        "entry_name": "Steady's Revenge",
        "event_total": 52,
        "has_played": true,
        "id": 424036,
        "last_rank": 55311,
        "player_name": "Bailey Stead",
        "rank": 63076,
        "rank_sort": 63097,
        "total": 2344
      },
      {
        "club_badge_src": null,
        "entry": 67348,
        "entry_name": "Neville Wears Prada",
        "event_total": 55,
        "has_played": true,
        "id": 436040,
        "last_rank": 60462,
        "player_name": "Vayun Jacob",
        "rank": 63076,
        "rank_sort": 63098,
        "total": 2344
      },
      {
        "club_badge_src": null,
        "entry": 67454,
        "entry_name": "The Defending Champ",
        "event_total": 55,
        "has_played": true,
        "id": 436714,
        "last_rank": 60462,
        "player_name": "Luke M",
        "rank": 63076,
        "rank_sort": 63099,
        "total": 2344
      },
      {
        "club_badge_src": "https://fantasy.premierleague.com/gcs/plfpl-production-adobe-approved/plfpl-production/67626/f9e01577-d50e-46bb-b86f-c832c9d79e87.png",
        "entry": 67626,
        "entry_name": "Ademullah XI",
        "event_total": 46,
        "has_played": true,
        "id": 437876,
        "last_rank": 40036,
        "player_name": "Jack O'Callaghan",
        "rank": 63076,
        "rank_sort": 63100,
        "total": 2344
      }
    ]
  }
}