{
  "last_updated_data": "2026-05-24T23:28:17Z",
  "league": {
    "admin_entry": null,
    "closed": false,
    "code_privacy": "p",
    "created": "2025-07-20T23:14:33.933835Z",
    "cup_league": 2815434,
    "has_cup": true,
    "id": 314,
    "league_type": "s",
    "max_entries": null,
    "name": "Overall",
    "rank": null,
    "scoring": "c",
    "start_event": 1
  },
  "new_entries": {
    "has_next": false,
    "page": 1,
    "results": []
  },
  "standings": {
    "has_next": true,
    "page": 109,
    "results": [
      {
        "club_badge_src": null,
        "entry": 13306,
        "entry_name": "MGNNEVA",
        "event_total": 60,
        "has_played": true,
        "id": 80295,
        "last_rank": 5752,
        "player_name": "joonas svanb\u00e4ck",
        "rank": 5400,
        "rank_sort": 5401,
        "total": 2413
      },
      {
        "club_badge_src": null,
        "entry": 32747,
        "entry_name": "BakHumNoi-RiverTyne",
        "event_total": 67,
        "has_played": true,
        "id": 208463,
        "last_rank": 6528,
        "player_name": "Prachaya Tanomnak",
        "rank": 5400,
        "rank_sort": 5402,
        "total": 2413
      },
      {
        "club_badge_src": null,
        "entry": 122993,
        "entry_name": "\u2022 Smarkus Mashford \u2022",
        "event_total": 68,
        "has_played": true,
        "id": 802254,
        "last_rank": 6839,
        "player_name": "Sondree Lea Monslaup",
        "rank": 5400,
        "rank_sort": 5403,
        "total": 2413
      },
      {
        "club_badge_src": "https://fantasy.premierleague.com/gcs/plfpl-production-adobe-approved/plfpl-production/142750/4bf519c0-4917-4547-a32b-d0385287964e.png",
        "entry": 142750,
        "entry_name": "Evercreech Rovers",
        "event_total": 67,
        "has_played": true,
        "id": 933577,
        "last_rank": 6528,
        "player_name": "Frazer McLeod",
        "rank": 5400,
        "rank_sort": 5404,
        "total": 2413
      },
      {
        "club_badge_src": null,
        "entry": 413303,
        "entry_name": "STING FC**",
        "event_total": 40,
        "has_played": true,
        "id": 2770911,
        "last_rank": 2235,
        "player_name": "Owen James",
        "rank": 5400,
        "rank_sort": 5405,
        "total": 2413
      },
      {
        "club_badge_src": "https://fantasy.premierleague.com/gcs/plfpl-production-adobe-approved/plfpl-production/416415/7b80bee1-7097-4615-902a-0c1c2466d3c7.png",
        "entry": 416415,
        "entry_name": "Inter Buran 2",
        "event_total": 51,
        "has_played": true,
        "id": 2791451,
        "last_rank": 3150,
        "player_name": "Vetle \u00d8ien",
        "rank": 5400,
        "rank_sort": 5406,
        "total": 2413
      },
      {
        "club_badge_src": null,
        "entry": 557307,
        "entry_name": "WirtzBumps",
        "event_total": 68,
        "has_played": true,
        "id": 3750667,
        "last_rank": 8138,
        "player_name": "Sam Enevoldsen",
        "rank": 5400,
        "rank_sort": 5407,
        "total": 2413
      },
      {
        "club_badge_src": "https://fantasy.premierleague.com/gcs/plfpl-production-adobe-approved/plfpl-production/611954/ba0ffa70-d54f-4c91-83a5-61c8f7f239d3.png",
        "entry": 611954,
        "entry_name": "BTEE3",
        "event_total": 66,
        "has_played": true,
        "id": 4134935,
        "last_rank": 7501,
        "player_name": "B T",
        "rank": 5400,
        "rank_sort": 5408,
        "total": 2413
      },
      {
        "club_badge_src": null,
        "entry": 615296,
        "entry_name": "Donki z Choszczowki",
        "event_total": 56,
        "has_played": true,
        "id": 4157508,
        "last_rank": 3951,
        "player_name": "Micha\u0142 Kania",
        "rank": 5400,
        "rank_sort": 5409,
        "total": 2413
      },
      {
        "club_badge_src": null,
        "entry": 717083,
        "entry_name": "Zubiokezesakapie",
        "event_total": 62,
        "has_played": true,
        "id": 4865601,
        "last_rank": 6305,
        "player_name": "Tran Hoang Anh",
        "rank": 5400,
        "rank_sort": 5410,
        "total": 2413
      },
      {
        "club_badge_src": null,
        "entry": 765900,
        "entry_name": "Marley Fc",
        "event_total": 55,
        "has_played": true,
        "id": 5223762,
        "last_rank": 4615,
        "player_name": "Aderemi Kola-Adejumo",
        "rank": 5400,
        "rank_sort": 5411,
        "total": 2413
      },
      {
        "club_badge_src": null,
        "entry": 802002,
        "entry_name": "Ajgooner",
        "event_total": 46,
        "has_played": true,
        "id": 5489908,
        "last_rank": 3026,
        "player_name": "Aj Manduda",
        "rank": 5400,
        "rank_sort": 5412,
        "total": 2413
      },
      {
        "club_badge_src": "https://fantasy.premierleague.com/gcs/plfpl-production-adobe-approved/plfpl-production/862583/465cdfcb-4789-4a42-84a5-2ae4520ea28b.png",
        "entry": 862583,
        "entry_name": "We Teta!",
        "event_total": 65,
        "has_played": true,
        "id": 5913265,
        "last_rank": 6011,
        "player_name": "I.W.A .",
        "rank": 5400,
        "rank_sort": 5413,
        "total": 2413
      },
      {
        "club_badge_src": null,
        "entry": 917844,
        "entry_name": "SharkMouth",
        "event_total": 53,
        "has_played": true,
        "id": 6311798,
        "last_rank": 3442,
        "player_name": "Ola Kjelle",
        "rank": 5400,
        "rank_sort": 5414,
        "total": 2413
      },
      {
        "club_badge_src": "https://fantasy.premierleague.com/gcs/plfpl-production-adobe-approved/plfpl-production/1127990/474c63e0-2d5b-44bb-bb0a-eb7b8d9482f7.png",
        "entry": 1127990,
        "entry_name": "Cunha Fix United pls",
        "event_total": 61,
        "has_played": true,
        "id": 7817378,
        "last_rank": 6061,
        "player_name": "Justin Barnes",
        "rank": 5400,
        "rank_sort": 5415,
        "total": 2413
      },
      {
        "club_badge_src": null,
        "entry": 1380878,
        "entry_name": "N81_",
        "event_total": 54,
        "has_played": true,
        "id": 9602184,
        "last_rank": 4413,
        "player_name": "Nayef Al Ansari",
        "rank": 5400,
        "rank_sort": 5416,
        "total": 2413
      },
      {
        "club_badge_src": "https://fantasy.premierleague.com/gcs/plfpl-production-adobe-approved/plfpl-production/1529771/9a873fed-8f4e-45d3-b161-088f5975fc04.png",
        "entry": 1529771,
        "entry_name": "Salaluia",
        "event_total": 71,
        "has_played": true,
        "id": 10675155,
        "last_rank": 7676,
        "player_name": "Jim Felle",
        "rank": 5400,
        "rank_sort": 5417,
        "total": 2413
      },
      {
        "club_badge_src": null,
        "entry": 1564314,
        "entry_name": "The Early Birds",
        "event_total": 68,
        "has_played": true,
        "id": 10927510,
        "last_rank": 6839,
        "player_name": "Jonathan Earl",
        "rank": 5400,
        "rank_sort": 5418,
        "total": 2413
      },
      {
        "club_badge_src": null,
        "entry": 2018787,
        "entry_name": "Virinio FC",
        "event_total": 60,
        "has_played": true,
        "id": 14283434,
        "last_rank": 5792,
        "player_name": "Andreas Englezou",
        "rank": 5400,
        "rank_sort": 5419,
        "total": 2413
      },
      {
        "club_badge_src": "https://fantasy.premierleague.com/gcs/plfpl-production-adobe-approved/plfpl-production/2230642/753fb451-d10c-4e9b-ab37-cb1a7bd5b90a.png",
        "entry": 2230642,
        "entry_name": "Wirtz Case Scenario",
        "event_total": 75,
        "has_played": true,
        "id": 15890823,
        "last_rank": 9248,
        "player_name": "Carl Glover",
        "rank": 5400,
        "rank_sort": 5420,
        "total": 2413
      },
      {
        "club_badge_src": null,
        "entry": 2401959,
        "entry_name": "MaskedMan",
        "event_total": 73,
        "has_played": true,
        "id": 17167603,
        "last_rank": 10031,
        "player_name": "Sai Sankara Subramanian",
        "rank": 5400,
        "rank_sort": 5421,
        "total": 2413
      },
      {
        "club_badge_src": "https://fantasy.premierleague.com/gcs/plfpl-production-adobe-approved/plfpl-production/2668442/bcaca0da-0090-43f9-b875-371211c32354.png",
        "entry": 2668442,
        "entry_name": "Aayushggmu",
        "event_total": 62,
        "has_played": true,
        "id": 19184709,
        "last_rank": 6194,
        "player_name": "Aayush Bista",
        "rank": 5400,
        "rank_sort": 5422,
        "total": 2413
      },
      {
        "club_badge_src": null,
        "entry": 2783198,
        "entry_name": "Aloo Kobbie",
        "event_total": 68,
        "has_played": true,
        "id": 20317200,
        "last_rank": 8032,
        "player_name": "Sangeeta Patel",
        "rank": 5400,
        "rank_sort": 5423,
        "total": 2413
      },
      {
        "club_badge_src": null,
        "entry": 3440798,
        "entry_name": "Hill Of Beath AFC",
        "event_total": 67,
        "has_played": true,
        "id": 25562941,
        "last_rank": 7822,
        "player_name": "Aaron Kelly",
        "rank": 5400,
        "rank_sort": 5424,
        "total": 2413
      },
      {
        "club_badge_src": null,
        "entry": 3574745,
        "entry_name": "Bukayo Sakademicals",
        "event_total": 57,
        "has_played": true,
        "id": 26618569,
        "last_rank": 5053,
        "player_name": "Ben Esche",
        "rank": 5400,
        "rank_sort": 5425,
        "total": 2413
      },
      {
        "club_badge_src": null,
        "entry": 3719852,
        "entry_name": "reddevils",
        "event_total": 60,
        "has_played": true,
        "id": 27759648,
        "last_rank": 5792,
        "player_name": "Nikola Terzin",
        "rank": 5400,
        "rank_sort": 5426,
        "total": 2413
      },
      {
        "club_badge_src": null,
        "entry": 3731494,
        "entry_name": "Its Giving Mateta",
        "event_total": 54,
        "has_played": true,
        "id": 27852069,
        "last_rank": 3601,
        "player_name": "Matthew O'Dolan",
        "rank": 5400,
        "rank_sort": 5427,
        "total": 2413
      },
      {
        "club_badge_src": null,
        "entry": 4534392,
        "entry_name": "DC FC",
        "event_total": 55,
        "has_played": true,
        "id": 34589652,
        "last_rank": 4515,
        "player_name": "Jonah Pock",
        "rank": 5400,
        "rank_sort": 5428,
        "total": 2413
      },
      {
        "club_badge_src": "https://fantasy.premierleague.com/gcs/plfpl-production-adobe-approved/plfpl-production/6602652/3007d958-b134-4903-8075-c90bbd849507.png",
        "entry": 6602652,
        "entry_name": "FC BananaKick",
        "event_total": 41,
        "has_played": true,
        "id": 52744119,
        "last_rank": 1909,
        "player_name": "Mo Klobbucino",
        "rank": 5400,
        "rank_sort": 5429,
        "total": 2413
      },
      {
        "club_badge_src": null,
        "entry": 8140577,
        "entry_name": "Gaol Diggers",
        "event_total": 31,
        "has_played": true,
        "id": 67180630,
        "last_rank": 1152,
        "player_name": "Manolis Migkos",
        "rank": 5400,
        "rank_sort": 5430,
        "total": 2413
      },
      {
        "club_badge_src": "https://fantasy.premierleague.com/gcs/plfpl-production-adobe-approved/plfpl-production/8412029/3e94b0c4-1fa3-4e23-b349-f8bccf43f567.png",
        "entry": 8412029,
        "entry_name": "Takehiroes",
        "event_total": 54,
        "has_played": true,
        "id": 69790263,
        "last_rank": 3562,
        "player_name": "Thomas Shear",
        "rank": 5400,
        "rank_sort": 5431,
        "total": 2413
      },
      {
        "club_badge_src": "https://fantasy.premierleague.com/gcs/plfpl-production-adobe-approved/plfpl-production/8867327/c670581a-777f-424b-9c49-e0cc8ea3187a.png",
        "entry": 8867327,
        "entry_name": "Manyork",
        "event_total": 70,
        "has_played": true,
        "id": 74193802,
        "last_rank": 7450,
        "player_name": "Luyanda Manyenge",
        "rank": 5400,
        "rank_sort": 5432,
        "total": 2413
      },
      {
        "club_badge_src": null,
        "entry": 9032910,
        "entry_name": "Brennans Ball Boys",
        "event_total": 61,
        "has_played": true,
        "id": 75798035,
        "last_rank": 6061,
        "player_name": "Matthew Brennan",
        "rank": 5400,
        "rank_sort": 5433,
        "total": 2413
      },
      {
        "club_badge_src": null,
        "entry": 92426,
        "entry_name": "Eze Tiger!",
        "event_total": 59,
        "has_played": true,
        "id": 603979,
        "last_rank": 4615,
        "player_name": "Jim adamson",
        "rank": 5434,
        "rank_sort": 5434,
        "total": 2413
      },
      {
        "club_badge_src": "https://fantasy.premierleague.com/gcs/plfpl-production-adobe-approved/plfpl-production/280776/5ac7083e-5dc4-4ac8-8353-098c5ec6262a.png",
        "entry": 280776,
        "entry_name": "Barth Kings",
        "event_total": 65,
        "has_played": true,
        "id": 1868499,
        "last_rank": 6061,
        "player_name": "\u00d8yvind Barth",
        "rank": 5434,
        "rank_sort": 5435,
        "total": 2413
      },
      {
        "club_badge_src": null,
        "entry": 361324,
        "entry_name": "Cunhalicious FC",
        "event_total": 75,
        "has_played": true,
        "id": 2417698,
        "last_rank": 9311,
        "player_name": "Chris Farrow",
        "rank": 5434,
        "rank_sort": 5436,
        "total": 2413
      },
      {
        "club_badge_src": null,
        "entry": 437891,
        "entry_name": "Reijnders games",
        "event_total": 54,
        "has_played": true,
        "id": 2936426,
        "last_rank": 3627,
        "player_name": "Matt Hoad",
        "rank": 5434,
        "rank_sort": 5437,
        "total": 2413
      },
      {
        "club_badge_src": "https://fantasy.premierleague.com/gcs/plfpl-production-adobe-approved/plfpl-production/878065/de6d178e-9f84-4985-b76b-b7282eadda29.png",
        "entry": 878065,
        "entry_name": "Carrier Pigeons",
        "event_total": 65,
        "has_played": true,
        "id": 6020113,
        "last_rank": 6061,
        "player_name": "Cian McCarthy",
        "rank": 5434,
        "rank_sort": 5438,
        "total": 2413
      },
      {
        "club_badge_src": "https://fantasy.premierleague.com/gcs/plfpl-production-adobe-approved/plfpl-production/885001/a86ecd43-ee0f-4150-930e-e1967ca93dd6.png",
        "entry": 885001,
        "entry_name": "asdf",
        "event_total": 71,
        "has_played": true,
        "id": 6069505,
        "last_rank": 9248,
        "player_name": "Robbie Nunez",
        "rank": 5434,
        "rank_sort": 5439,
        "total": 2413
      },
      {
        "club_badge_src": "https://fantasy.premierleague.com/gcs/plfpl-production-adobe-approved/plfpl-production/1345377/2dc5e3df-6976-4f76-ac07-0e5bcee63eed.png",
        "entry": 1345377,
        "entry_name": "Im Sorry Nic Jackson",
        "event_total": 59,
        "has_played": true,
        "id": 9353664,
        "last_rank": 4615,
        "player_name": "Dusa Shah",
        "rank": 5434,
        "rank_sort": 5440,
        "total": 2413
      },
      {
        "club_badge_src": null,
        "entry": 1560370,
        "entry_name": "MissionaryMintyMase",
        "event_total": 60,
        "has_played": true,
        "id": 10897155,
        "last_rank": 4839,
        "player_name": "Mason Osborne",
        "rank": 5434,
        "rank_sort": 5441,
        "total": 2413
      },
      {
        "club_badge_src": null,
        "entry": 1861304,
        "entry_name": "AC Mafan",
        "event_total": 54,
        "has_played": true,
        "id": 13100464,
        "last_rank": 4413,
        "player_name": "Sam Lynn",
        "rank": 5434,
        "rank_sort": 5442,
        "total": 2413
      },
      {
        "club_badge_src": null,
        "entry": 2331472,
        "entry_name": "Texas",
        "event_total": 66,
        "has_played": true,
        "id": 16634254,
        "last_rank": 5173,
        "player_name": "Jamie Hartley",
        "rank": 5434,
        "rank_sort": 5443,
        "total": 2413
      },
      {
        "club_badge_src": null,
        "entry": 2736706,
        "entry_name": "Samagonschiki",
        "event_total": 61,
        "has_played": true,
        "id": 19697836,
        "last_rank": 5053,
        "player_name": "Andris Pavlovskis",
        "rank": 5434,
        "rank_sort": 5444,
        "total": 2413
      },
      {
        "club_badge_src": null,
        "entry": 3442461,
        "entry_name": "Jagador",
        "event_total": 69,
        "has_played": true,
        "id": 25575926,
        "last_rank": 8552,
        "player_name": "M.L Sejagad",
        "rank": 5434,
        "rank_sort": 5445,
        "total": 2413
      },
      {
        "club_badge_src": null,
        "entry": 4527215,
        "entry_name": "HC",
        "event_total": 52,
        "has_played": true,
        "id": 34530145,
        "last_rank": 3302,
        "player_name": "Hans Christian Bakkehaugen",
        "rank": 5434,
        "rank_sort": 5446,
        "total": 2413
      },
      {
        "club_badge_src": null,
        "entry": 4779276,
        "entry_name": "PANIC AT THE SESKO!",
        "event_total": 69,
        "has_played": true,
        "id": 36790590,
        "last_rank": 8552,
        "player_name": "Matthew Denton",
        "rank": 5434,
        "rank_sort": 5447,
        "total": 2413
      },
      {
        "club_badge_src": "https://fantasy.premierleague.com/gcs/plfpl-production-adobe-approved/plfpl-production/5076077/1e1e2456-a5b3-447e-94c9-09a6df89d40c.png",
        "entry": 5076077,
        "entry_name": "Newton FC",
        "event_total": 58,
        "has_played": true,
        "id": 39230287,
        "last_rank": 5313,
        "player_name": "Ahmed Hagnasir",
        "rank": 5434,
        "rank_sort": 5448,
        "total": 2413
      },
      {
        "club_badge_src": null,
        "entry": 5325316,
        "entry_name": "Hammer & Mikel",
        "event_total": 67,
        "has_played": true,
        "id": 41282964,
        "last_rank": 7863,
        "player_name": "Gareth Deane",
        "rank": 5434,
        "rank_sort": 5449,
        "total": 2413
      },
      {
        "club_badge_src": null,
        "entry": 5471612,
        "entry_name": "Hulalas",
        "event_total": 67,
        "has_played": true,
        "id": 42591891,
        "last_rank": 7863,
        "player_name": "Ronish Shrestha",
        "rank": 5434,
        "rank_sort": 5450,
        "total": 2413
      }
    ]
  }
}