{
  "last_updated_data": "2026-05-24T23:28:17Z",
  "league": {
    "admin_entry": null,
    "closed": false,
    "code_privacy": "p",
    "created": "2025-07-20T23:14:33.933835Z",
    "cup_league": 2815434,
    "has_cup": true,
    "id": 314,
    "league_type": "s",
    "max_entries": null,
    "name": "Overall",
    "rank": null,
    "scoring": "c",
    "start_event": 1
  },
  "new_entries": {
    "has_next": false,
    "page": 1,
    "results": []
  },
  "standings": {
    "has_next": true,
    "page": 71,
    "results": [
      {
        "club_badge_src": null,
        "entry": 190146,
        "entry_name": "beef cherki",
        "event_total": 51,
        "has_played": true,
        "id": 1258983,
        "last_rank": 1591,
        "player_name": "Jamie Brown",
        "rank": 3499,
        "rank_sort": 3501,
        "total": 2423
      },
      {
        "club_badge_src": null,
        "entry": 4276272,
        "entry_name": "Ekitikka MoSalah",
        "event_total": 59,
        "has_played": true,
        "id": 32430176,
        "last_rank": 2932,
        "player_name": "Brian Arnopp",
        "rank": 3499,
        "rank_sort": 3502,
        "total": 2423
      },
      {
        "club_badge_src": "https://fantasy.premierleague.com/gcs/plfpl-production-adobe-approved/plfpl-production/5323551/b2df8805-74a8-4dc1-bea3-17b1fe8999db.png",
        "entry": 5323551,
        "entry_name": "\u0628\u0627\u0631\u0648\u0646 \u0627\u0641\u0631\u064a\u0642\u064a\u0627",
        "event_total": 53,
        "has_played": true,
        "id": 41268971,
        "last_rank": 1748,
        "player_name": "HAKIM TOP",
        "rank": 3499,
        "rank_sort": 3503,
        "total": 2423
      },
      {
        "club_badge_src": null,
        "entry": 7103059,
        "entry_name": "mohamd",
        "event_total": 75,
        "has_played": true,
        "id": 57204254,
        "last_rank": 4244,
        "player_name": "mohamad albayrak",
        "rank": 3504,
        "rank_sort": 3504,
        "total": 2423
      },
      {
        "club_badge_src": null,
        "entry": 3132161,
        "entry_name": "Pipita FC",
        "event_total": 61,
        "has_played": true,
        "id": 23119002,
        "last_rank": 3220,
        "player_name": "Filipe Pipas",
        "rank": 3505,
        "rank_sort": 3505,
        "total": 2423
      },
      {
        "club_badge_src": null,
        "entry": 170614,
        "entry_name": "ChickenChowMainoo",
        "event_total": 63,
        "has_played": true,
        "id": 1127224,
        "last_rank": 3511,
        "player_name": "George Davis",
        "rank": 3506,
        "rank_sort": 3506,
        "total": 2423
      },
      {
        "club_badge_src": null,
        "entry": 8395093,
        "entry_name": "Nodepedia",
        "event_total": 48,
        "has_played": true,
        "id": 69633063,
        "last_rank": 2061,
        "player_name": "Neil Walker",
        "rank": 3507,
        "rank_sort": 3507,
        "total": 2422
      },
      {
        "club_badge_src": null,
        "entry": 3817757,
        "entry_name": "Bad to Wirtz",
        "event_total": 80,
        "has_played": true,
        "id": 28551330,
        "last_rank": 9060,
        "player_name": "jamie barton",
        "rank": 3508,
        "rank_sort": 3508,
        "total": 2422
      },
      {
        "club_badge_src": null,
        "entry": 46479,
        "entry_name": "Popo FF (Cupm\u00e4stare)",
        "event_total": 47,
        "has_played": true,
        "id": 297981,
        "last_rank": 1954,
        "player_name": "Johannes Flyborg",
        "rank": 3509,
        "rank_sort": 3509,
        "total": 2422
      },
      {
        "club_badge_src": null,
        "entry": 1109369,
        "entry_name": "Frimping pong",
        "event_total": 52,
        "has_played": true,
        "id": 7684304,
        "last_rank": 2518,
        "player_name": "Shay Popat",
        "rank": 3510,
        "rank_sort": 3510,
        "total": 2422
      },
      {
        "club_badge_src": null,
        "entry": 5407378,
        "entry_name": "Imagine IF I won",
        "event_total": 60,
        "has_played": true,
        "id": 42047753,
        "last_rank": 3687,
        "player_name": "Imogen Flower",
        "rank": 3510,
        "rank_sort": 3511,
        "total": 2422
      },
      {
        "club_badge_src": "https://fantasy.premierleague.com/gcs/plfpl-production-adobe-approved/plfpl-production/6701378/72dc951e-7989-427f-aad6-0a5e11b25ab7.png",
        "entry": 6701378,
        "entry_name": "Man I Love Fernandes",
        "event_total": 56,
        "has_played": true,
        "id": 53620602,
        "last_rank": 3061,
        "player_name": "Jade Ridgill",
        "rank": 3510,
        "rank_sort": 3512,
        "total": 2422
      },
      {
        "club_badge_src": null,
        "entry": 38694,
        "entry_name": "Victor Moses Lawn",
        "event_total": 61,
        "has_played": true,
        "id": 248074,
        "last_rank": 3853,
        "player_name": "Dan -",
        "rank": 3513,
        "rank_sort": 3513,
        "total": 2422
      },
      {
        "club_badge_src": null,
        "entry": 69383,
        "entry_name": "Reece\u2019s Pieces",
        "event_total": 59,
        "has_played": true,
        "id": 449989,
        "last_rank": 3528,
        "player_name": "Michael Urie",
        "rank": 3513,
        "rank_sort": 3514,
        "total": 2422
      },
      {
        "club_badge_src": null,
        "entry": 194544,
        "entry_name": "Pas de drap propre",
        "event_total": 67,
        "has_played": true,
        "id": 1289827,
        "last_rank": 5147,
        "player_name": "Contre Son Camp",
        "rank": 3513,
        "rank_sort": 3515,
        "total": 2422
      },
      {
        "club_badge_src": null,
        "entry": 919795,
        "entry_name": "WhatVanHecke",
        "event_total": 46,
        "has_played": true,
        "id": 6325540,
        "last_rank": 1880,
        "player_name": "Daniel Archer",
        "rank": 3513,
        "rank_sort": 3516,
        "total": 2422
      },
      {
        "club_badge_src": null,
        "entry": 1186020,
        "entry_name": "Soccer ist Leben",
        "event_total": 84,
        "has_played": true,
        "id": 8228991,
        "last_rank": 10711,
        "player_name": "Wayne Holt",
        "rank": 3513,
        "rank_sort": 3517,
        "total": 2422
      },
      {
        "club_badge_src": null,
        "entry": 1247790,
        "entry_name": "Discord Gittens",
        "event_total": 56,
        "has_played": true,
        "id": 8666026,
        "last_rank": 3103,
        "player_name": "FPL Geto",
        "rank": 3513,
        "rank_sort": 3518,
        "total": 2422
      },
      {
        "club_badge_src": null,
        "entry": 1263458,
        "entry_name": "The Invincibles",
        "event_total": 62,
        "has_played": true,
        "id": 8778538,
        "last_rank": 4062,
        "player_name": "Tom Abraham",
        "rank": 3513,
        "rank_sort": 3519,
        "total": 2422
      },
      {
        "club_badge_src": null,
        "entry": 1517850,
        "entry_name": "Dooley Gate Mafia",
        "event_total": 63,
        "has_played": true,
        "id": 10586523,
        "last_rank": 4303,
        "player_name": "Sean McMahon",
        "rank": 3513,
        "rank_sort": 3520,
        "total": 2422
      },
      {
        "club_badge_src": null,
        "entry": 1544084,
        "entry_name": "Glu10 FC",
        "event_total": 67,
        "has_played": true,
        "id": 10777779,
        "last_rank": 4253,
        "player_name": "C M",
        "rank": 3513,
        "rank_sort": 3521,
        "total": 2422
      },
      {
        "club_badge_src": null,
        "entry": 1606227,
        "entry_name": "Wolfor",
        "event_total": 70,
        "has_played": true,
        "id": 11237862,
        "last_rank": 5904,
        "player_name": "Damien Loup",
        "rank": 3513,
        "rank_sort": 3522,
        "total": 2422
      },
      {
        "club_badge_src": null,
        "entry": 2256475,
        "entry_name": "Arne's Jets",
        "event_total": 64,
        "has_played": true,
        "id": 16085456,
        "last_rank": 4465,
        "player_name": "Yoni R",
        "rank": 3513,
        "rank_sort": 3523,
        "total": 2422
      },
      {
        "club_badge_src": null,
        "entry": 2586853,
        "entry_name": "Could be wirtz (ars)",
        "event_total": 53,
        "has_played": true,
        "id": 18570342,
        "last_rank": 2685,
        "player_name": "Ed Frank",
        "rank": 3513,
        "rank_sort": 3524,
        "total": 2422
      },
      {
        "club_badge_src": null,
        "entry": 4249560,
        "entry_name": "Dinamo Mescha AI",
        "event_total": 63,
        "has_played": true,
        "id": 32213372,
        "last_rank": 4270,
        "player_name": "Guy Vishnia",
        "rank": 3513,
        "rank_sort": 3525,
        "total": 2422
      },
      {
        "club_badge_src": null,
        "entry": 4585790,
        "entry_name": "Finstar",
        "event_total": 50,
        "has_played": true,
        "id": 35012740,
        "last_rank": 2274,
        "player_name": "Finlay Pearson",
        "rank": 3513,
        "rank_sort": 3526,
        "total": 2422
      },
      {
        "club_badge_src": null,
        "entry": 11429,
        "entry_name": "ddhsjs",
        "event_total": 72,
        "has_played": true,
        "id": 67944,
        "last_rank": 6392,
        "player_name": "Justeata banana",
        "rank": 3527,
        "rank_sort": 3527,
        "total": 2422
      },
      {
        "club_badge_src": null,
        "entry": 11659,
        "entry_name": "Guillermo del Yoro",
        "event_total": 62,
        "has_played": true,
        "id": 69384,
        "last_rank": 4062,
        "player_name": "Rian Shah",
        "rank": 3527,
        "rank_sort": 3528,
        "total": 2422
      },
      {
        "club_badge_src": "https://fantasy.premierleague.com/gcs/plfpl-production-adobe-approved/plfpl-production/33114/44570a63-4857-48fa-b35a-e4774d4686bc.png",
        "entry": 33114,
        "entry_name": "LiWirtzPool",
        "event_total": 72,
        "has_played": true,
        "id": 211033,
        "last_rank": 6409,
        "player_name": "Freddie van der Merwe",
        "rank": 3527,
        "rank_sort": 3529,
        "total": 2422
      },
      {
        "club_badge_src": null,
        "entry": 34956,
        "entry_name": "Nagelsmanniac",
        "event_total": 67,
        "has_played": true,
        "id": 223521,
        "last_rank": 5173,
        "player_name": "Yousef Al-Mulla",
        "rank": 3527,
        "rank_sort": 3530,
        "total": 2422
      },
      {
        "club_badge_src": null,
        "entry": 53281,
        "entry_name": "Karas Utd",
        "event_total": 67,
        "has_played": true,
        "id": 342746,
        "last_rank": 5147,
        "player_name": "George Karafokas",
        "rank": 3527,
        "rank_sort": 3531,
        "total": 2422
      },
      {
        "club_badge_src": "https://fantasy.premierleague.com/gcs/plfpl-production-adobe-approved/plfpl-production/58360/f6762bfe-247b-4f55-a6bb-fe1688172f34.png",
        "entry": 58360,
        "entry_name": "FPL Baldon D'Or",
        "event_total": 66,
        "has_played": true,
        "id": 375917,
        "last_rank": 4954,
        "player_name": "Leigh Cartwright",
        "rank": 3527,
        "rank_sort": 3532,
        "total": 2422
      },
      {
        "club_badge_src": "https://fantasy.premierleague.com/gcs/plfpl-production-adobe-approved/plfpl-production/90799/6c3f9453-d0c7-4355-b52b-8953f8c8a953.png",
        "entry": 90799,
        "entry_name": "Palace in Wonderland",
        "event_total": 80,
        "has_played": true,
        "id": 592918,
        "last_rank": 9065,
        "player_name": "Matt Freeman",
        "rank": 3527,
        "rank_sort": 3533,
        "total": 2422
      },
      {
        "club_badge_src": null,
        "entry": 119609,
        "entry_name": "Sturla City",
        "event_total": 61,
        "has_played": true,
        "id": 780372,
        "last_rank": 3866,
        "player_name": "Sturla Wik Jakobsen",
        "rank": 3527,
        "rank_sort": 3534,
        "total": 2422
      },
      {
        "club_badge_src": null,
        "entry": 120900,
        "entry_name": "D\u00e9j\u00e0 Mo",
        "event_total": 61,
        "has_played": true,
        "id": 788878,
        "last_rank": 3866,
        "player_name": "Mo Elmelegy",
        "rank": 3527,
        "rank_sort": 3535,
        "total": 2422
      },
      {
        "club_badge_src": "https://fantasy.premierleague.com/gcs/plfpl-production-adobe-approved/plfpl-production/161852/e7c623c7-2e83-4717-955a-aff87a4d12c7.png",
        "entry": 161852,
        "entry_name": "Deportivo La Mington",
        "event_total": 63,
        "has_played": true,
        "id": 1066540,
        "last_rank": 4270,
        "player_name": "Chris Tangye",
        "rank": 3527,
        "rank_sort": 3536,
        "total": 2422
      },
      {
        "club_badge_src": null,
        "entry": 170197,
        "entry_name": "McSauce FC",
        "event_total": 67,
        "has_played": true,
        "id": 1124510,
        "last_rank": 4270,
        "player_name": "Henrik Lied",
        "rank": 3527,
        "rank_sort": 3537,
        "total": 2422
      },
      {
        "club_badge_src": null,
        "entry": 223734,
        "entry_name": "Maldo",
        "event_total": 57,
        "has_played": true,
        "id": 1488271,
        "last_rank": 3257,
        "player_name": "Magn\u00fas Valur Axelsson",
        "rank": 3527,
        "rank_sort": 3538,
        "total": 2422
      },
      {
        "club_badge_src": null,
        "entry": 253424,
        "entry_name": "ThomastheFrankEngine",
        "event_total": 44,
        "has_played": true,
        "id": 1685588,
        "last_rank": 1689,
        "player_name": "Stefano Brooks",
        "rank": 3527,
        "rank_sort": 3539,
        "total": 2422
      },
      {
        "club_badge_src": null,
        "entry": 267965,
        "entry_name": "Gy\u00f6k Tuah",
        "event_total": 71,
        "has_played": true,
        "id": 1782652,
        "last_rank": 6194,
        "player_name": "Jules Kolo",
        "rank": 3527,
        "rank_sort": 3540,
        "total": 2422
      },
      {
        "club_badge_src": null,
        "entry": 374851,
        "entry_name": "Ranges For Days",
        "event_total": 64,
        "has_played": true,
        "id": 2509199,
        "last_rank": 4471,
        "player_name": "David Backshell",
        "rank": 3527,
        "rank_sort": 3541,
        "total": 2422
      },
      {
        "club_badge_src": "https://fantasy.premierleague.com/gcs/plfpl-production-adobe-approved/plfpl-production/462675/b64fbdce-1413-4996-9c8a-2f7293b51db9.png",
        "entry": 462675,
        "entry_name": "Bry's Bush Beasts",
        "event_total": 72,
        "has_played": true,
        "id": 3103595,
        "last_rank": 6409,
        "player_name": "George Bryant",
        "rank": 3527,
        "rank_sort": 3542,
        "total": 2422
      },
      {
        "club_badge_src": null,
        "entry": 540148,
        "entry_name": "YoroWizardHarry",
        "event_total": 57,
        "has_played": true,
        "id": 3635695,
        "last_rank": 3257,
        "player_name": "Matt Race",
        "rank": 3527,
        "rank_sort": 3543,
        "total": 2422
      },
      {
        "club_badge_src": null,
        "entry": 630446,
        "entry_name": "Benjamin SesBowe",
        "event_total": 56,
        "has_played": true,
        "id": 4260225,
        "last_rank": 3079,
        "player_name": "Jon Bowe",
        "rank": 3527,
        "rank_sort": 3544,
        "total": 2422
      },
      {
        "club_badge_src": null,
        "entry": 633490,
        "entry_name": "(C)old Palmer",
        "event_total": 73,
        "has_played": true,
        "id": 4280835,
        "last_rank": 6703,
        "player_name": "Peter Horstmann",
        "rank": 3527,
        "rank_sort": 3545,
        "total": 2422
      },
      {
        "club_badge_src": "https://fantasy.premierleague.com/gcs/plfpl-production-adobe-approved/plfpl-production/656644/96d190e2-2f37-45be-9ba3-f213f6f724ca.png",
        "entry": 656644,
        "entry_name": "Famous 11",
        "event_total": 48,
        "has_played": true,
        "id": 4437635,
        "last_rank": 2088,
        "player_name": "Piet Fanoy",
        "rank": 3527,
        "rank_sort": 3546,
        "total": 2422
      },
      {
        "club_badge_src": null,
        "entry": 754052,
        "entry_name": "Z!ZO",
        "event_total": 55,
        "has_played": true,
        "id": 5132536,
        "last_rank": 2945,
        "player_name": "Zizo alw",
        "rank": 3527,
        "rank_sort": 3547,
        "total": 2422
      },
      {
        "club_badge_src": null,
        "entry": 756479,
        "entry_name": "Naser Alajmi",
        "event_total": 54,
        "has_played": true,
        "id": 5150302,
        "last_rank": 2824,
        "player_name": "\u0646\u0627\u0635\u0631 \u0645\u062d\u0645\u062f \u0627\u0644\u0639\u062c\u0645\u064a",
        "rank": 3527,
        "rank_sort": 3548,
        "total": 2422
      },
      {
        "club_badge_src": null,
        "entry": 779483,
        "entry_name": "Helston Athletic",
        "event_total": 52,
        "has_played": true,
        "id": 5321027,
        "last_rank": 2526,
        "player_name": "Helen B",
        "rank": 3527,
        "rank_sort": 3549,
        "total": 2422
      },
      {
        "club_badge_src": null,
        "entry": 916643,
        "entry_name": "Bora BORA",
        "event_total": 44,
        "has_played": true,
        "id": 6303423,
        "last_rank": 1668,
        "player_name": "Micha\u0142 Borysiewicz",
        "rank": 3527,
        "rank_sort": 3550,
        "total": 2422
      }
    ]
  }
}