{
  "last_updated_data": "2026-05-24T23:28:17Z",
  "league": {
    "admin_entry": null,
    "closed": false,
    "code_privacy": "p",
    "created": "2025-07-20T23:14:33.933835Z",
    "cup_league": 2815434,
    "has_cup": true,
    "id": 314,
    "league_type": "s",
    "max_entries": null,
    "name": "Overall",
    "rank": null,
    "scoring": "c",
    "start_event": 1
  },
  "new_entries": {
    "has_next": false,
    "page": 1,
    "results": []
  },
  "standings": {
    "has_next": true,
    "page": 927,
    "results": [
      {
        "club_badge_src": null,
        "entry": 3379965,
        "entry_name": "Ibo_QA",
        "event_total": 70,
        "has_played": true,
        "id": 25088418,
        "last_rank": 68536,
        "player_name": "IBRAHEM Ahmad",
        "rank": 46301,
        "rank_sort": 46301,
        "total": 2354
      },
      {
        "club_badge_src": null,
        "entry": 3815321,
        "entry_name": "My Noble 11",
        "event_total": 62,
        "has_played": true,
        "id": 28531324,
        "last_rank": 54339,
        "player_name": "Sverre Askeland",
        "rank": 46302,
        "rank_sort": 46302,
        "total": 2354
      },
      {
        "club_badge_src": null,
        "entry": 5859135,
        "entry_name": "depolleta",
        "event_total": 34,
        "has_played": true,
        "id": 46006470,
        "last_rank": 21587,
        "player_name": "matias millo",
        "rank": 46302,
        "rank_sort": 46303,
        "total": 2354
      },
      {
        "club_badge_src": null,
        "entry": 6777471,
        "entry_name": "DIAMOND ACADEMY",
        "event_total": 31,
        "has_played": true,
        "id": 54269101,
        "last_rank": 19359,
        "player_name": "mukhtar suwidi tukur",
        "rank": 46302,
        "rank_sort": 46304,
        "total": 2354
      },
      {
        "club_badge_src": null,
        "entry": 8618556,
        "entry_name": "IDon'tWatchFootball",
        "event_total": 47,
        "has_played": true,
        "id": 71778341,
        "last_rank": 33816,
        "player_name": "Mark Henderson",
        "rank": 46302,
        "rank_sort": 46305,
        "total": 2354
      },
      {
        "club_badge_src": null,
        "entry": 1757799,
        "entry_name": "Christian United",
        "event_total": 58,
        "has_played": true,
        "id": 12341113,
        "last_rank": 48046,
        "player_name": "Seth Brown-Johnson",
        "rank": 46306,
        "rank_sort": 46306,
        "total": 2354
      },
      {
        "club_badge_src": null,
        "entry": 4079099,
        "entry_name": "Mightylucks",
        "event_total": 49,
        "has_played": true,
        "id": 30792476,
        "last_rank": 36088,
        "player_name": "James Drummond",
        "rank": 46306,
        "rank_sort": 46307,
        "total": 2354
      },
      {
        "club_badge_src": null,
        "entry": 5763961,
        "entry_name": "Not my Team FC",
        "event_total": 63,
        "has_played": true,
        "id": 45186164,
        "last_rank": 56025,
        "player_name": "Ella Yoder",
        "rank": 46306,
        "rank_sort": 46308,
        "total": 2354
      },
      {
        "club_badge_src": null,
        "entry": 5971178,
        "entry_name": "Wenger's wonderland",
        "event_total": 66,
        "has_played": true,
        "id": 46989835,
        "last_rank": 61210,
        "player_name": "Onni Lepp\u00e4l\u00e4",
        "rank": 46306,
        "rank_sort": 46309,
        "total": 2354
      },
      {
        "club_badge_src": null,
        "entry": 6958594,
        "entry_name": "Yousif Ali",
        "event_total": 57,
        "has_played": true,
        "id": 55804162,
        "last_rank": 46526,
        "player_name": "Yusuf Kadhem",
        "rank": 46306,
        "rank_sort": 46310,
        "total": 2354
      },
      {
        "club_badge_src": null,
        "entry": 7468578,
        "entry_name": "Kinder Mbuemo",
        "event_total": 69,
        "has_played": true,
        "id": 60876983,
        "last_rank": 66627,
        "player_name": "James Lymburn",
        "rank": 46306,
        "rank_sort": 46311,
        "total": 2354
      },
      {
        "club_badge_src": null,
        "entry": 2574039,
        "entry_name": "Samdavidson FC",
        "event_total": 71,
        "has_played": true,
        "id": 18471259,
        "last_rank": 70584,
        "player_name": "samuel munge",
        "rank": 46312,
        "rank_sort": 46312,
        "total": 2354
      },
      {
        "club_badge_src": "https://fantasy.premierleague.com/gcs/plfpl-production-adobe-approved/plfpl-production/3489184/f4576275-50b0-4c9f-822c-e65aac53f02f.png",
        "entry": 3489184,
        "entry_name": "Change Name",
        "event_total": 75,
        "has_played": true,
        "id": 25948289,
        "last_rank": 78979,
        "player_name": "George Callaway",
        "rank": 46312,
        "rank_sort": 46313,
        "total": 2354
      },
      {
        "club_badge_src": "https://fantasy.premierleague.com/gcs/plfpl-production-adobe-approved/plfpl-production/5018903/4b66bfe5-f9c8-47dd-994e-ccfba7636820.png",
        "entry": 5018903,
        "entry_name": "White Wanchope",
        "event_total": 68,
        "has_played": true,
        "id": 38759504,
        "last_rank": 64760,
        "player_name": "Darren Lockley",
        "rank": 46312,
        "rank_sort": 46314,
        "total": 2354
      },
      {
        "club_badge_src": null,
        "entry": 6849372,
        "entry_name": "Gy\u00f6ls, Set, Match",
        "event_total": 60,
        "has_played": true,
        "id": 54873908,
        "last_rank": 51092,
        "player_name": "Rick Boelen",
        "rank": 46312,
        "rank_sort": 46315,
        "total": 2354
      },
      {
        "club_badge_src": null,
        "entry": 6897611,
        "entry_name": "chippy chips",
        "event_total": 53,
        "has_played": true,
        "id": 55284554,
        "last_rank": 41039,
        "player_name": "Kade Flitton",
        "rank": 46312,
        "rank_sort": 46316,
        "total": 2354
      },
      {
        "club_badge_src": null,
        "entry": 509822,
        "entry_name": "Blue Lock XI",
        "event_total": 61,
        "has_played": true,
        "id": 3423206,
        "last_rank": 52713,
        "player_name": "Isaac PL",
        "rank": 46317,
        "rank_sort": 46317,
        "total": 2354
      },
      {
        "club_badge_src": null,
        "entry": 1336364,
        "entry_name": "Catnip FC",
        "event_total": 34,
        "has_played": true,
        "id": 9289171,
        "last_rank": 21598,
        "player_name": "Drew Cessford",
        "rank": 46317,
        "rank_sort": 46318,
        "total": 2354
      },
      {
        "club_badge_src": null,
        "entry": 3851899,
        "entry_name": "Kinder Mbuemo",
        "event_total": 77,
        "has_played": true,
        "id": 28875131,
        "last_rank": 83476,
        "player_name": "Louis Davids",
        "rank": 46317,
        "rank_sort": 46319,
        "total": 2354
      },
      {
        "club_badge_src": null,
        "entry": 5407911,
        "entry_name": "Dixie Dust",
        "event_total": 67,
        "has_played": true,
        "id": 42052142,
        "last_rank": 63080,
        "player_name": "Kieran Fay",
        "rank": 46317,
        "rank_sort": 46320,
        "total": 2354
      },
      {
        "club_badge_src": null,
        "entry": 5467738,
        "entry_name": "woopwoop",
        "event_total": 73,
        "has_played": true,
        "id": 42555630,
        "last_rank": 74741,
        "player_name": "wedy chainy",
        "rank": 46317,
        "rank_sort": 46321,
        "total": 2354
      },
      {
        "club_badge_src": null,
        "entry": 6705487,
        "entry_name": "BigWeenus",
        "event_total": 38,
        "has_played": true,
        "id": 53657254,
        "last_rank": 24832,
        "player_name": "kasper kicinski",
        "rank": 46317,
        "rank_sort": 46322,
        "total": 2354
      },
      {
        "club_badge_src": null,
        "entry": 7010622,
        "entry_name": "Nat Gunna Lose",
        "event_total": 59,
        "has_played": true,
        "id": 56300770,
        "last_rank": 49572,
        "player_name": "Natalie Gunn",
        "rank": 46317,
        "rank_sort": 46323,
        "total": 2354
      },
      {
        "club_badge_src": null,
        "entry": 7509378,
        "entry_name": "How cunha she slap?",
        "event_total": 60,
        "has_played": true,
        "id": 61390139,
        "last_rank": 51099,
        "player_name": "Anish Alluri",
        "rank": 46317,
        "rank_sort": 46324,
        "total": 2354
      },
      {
        "club_badge_src": null,
        "entry": 7526906,
        "entry_name": "Tielemans Square",
        "event_total": 58,
        "has_played": true,
        "id": 61600927,
        "last_rank": 48084,
        "player_name": "Rudresh Tiwari",
        "rank": 46317,
        "rank_sort": 46325,
        "total": 2354
      },
      {
        "club_badge_src": null,
        "entry": 8060726,
        "entry_name": "Kors I Taket FC",
        "event_total": 59,
        "has_played": true,
        "id": 66434742,
        "last_rank": 49534,
        "player_name": "Oliver Keelan",
        "rank": 46317,
        "rank_sort": 46326,
        "total": 2354
      },
      {
        "club_badge_src": null,
        "entry": 9272002,
        "entry_name": "One Last Run",
        "event_total": 76,
        "has_played": true,
        "id": 78138135,
        "last_rank": 81185,
        "player_name": "Umar Cheema",
        "rank": 46317,
        "rank_sort": 46327,
        "total": 2354
      },
      {
        "club_badge_src": null,
        "entry": 3903,
        "entry_name": "Bruno Dos Tres",
        "event_total": 51,
        "has_played": true,
        "id": 22129,
        "last_rank": 38571,
        "player_name": "Patrick McGuigan",
        "rank": 46328,
        "rank_sort": 46328,
        "total": 2354
      },
      {
        "club_badge_src": null,
        "entry": 45552,
        "entry_name": "Kaka City",
        "event_total": 48,
        "has_played": true,
        "id": 292233,
        "last_rank": 34969,
        "player_name": "ira robinson",
        "rank": 46328,
        "rank_sort": 46329,
        "total": 2354
      },
      {
        "club_badge_src": null,
        "entry": 440168,
        "entry_name": "Kuoleman Arkkitehti",
        "event_total": 63,
        "has_played": true,
        "id": 2951438,
        "last_rank": 56047,
        "player_name": "Lenni Lindeman",
        "rank": 46328,
        "rank_sort": 46330,
        "total": 2354
      },
      {
        "club_badge_src": null,
        "entry": 662293,
        "entry_name": "DEAD Ball FC",
        "event_total": 39,
        "has_played": true,
        "id": 4476960,
        "last_rank": 25709,
        "player_name": "Mike Rodgers",
        "rank": 46328,
        "rank_sort": 46331,
        "total": 2354
      },
      {
        "club_badge_src": null,
        "entry": 1014282,
        "entry_name": "Change Name",
        "event_total": 57,
        "has_played": true,
        "id": 7016650,
        "last_rank": 46547,
        "player_name": "Matt Lightfoot",
        "rank": 46328,
        "rank_sort": 46332,
        "total": 2354
      },
      {
        "club_badge_src": null,
        "entry": 1014924,
        "entry_name": "abcsyou",
        "event_total": 51,
        "has_played": true,
        "id": 7021193,
        "last_rank": 38571,
        "player_name": "Atri Baksi",
        "rank": 46328,
        "rank_sort": 46333,
        "total": 2354
      },
      {
        "club_badge_src": null,
        "entry": 1397208,
        "entry_name": "That's Gotta Be Kane",
        "event_total": 66,
        "has_played": true,
        "id": 9720455,
        "last_rank": 61239,
        "player_name": "Taryn Stirrup",
        "rank": 46328,
        "rank_sort": 46334,
        "total": 2354
      },
      {
        "club_badge_src": "https://fantasy.premierleague.com/gcs/plfpl-production-adobe-approved/plfpl-production/2260578/ade78467-322e-4c8a-95f1-d7789c4973f9.png",
        "entry": 2260578,
        "entry_name": "E720",
        "event_total": 59,
        "has_played": true,
        "id": 16116910,
        "last_rank": 49572,
        "player_name": "EJ Kohler",
        "rank": 46328,
        "rank_sort": 46335,
        "total": 2354
      },
      {
        "club_badge_src": null,
        "entry": 2713382,
        "entry_name": "What's Rob Holding?",
        "event_total": 79,
        "has_played": true,
        "id": 19522734,
        "last_rank": 88185,
        "player_name": "Ross Wilcox",
        "rank": 46328,
        "rank_sort": 46336,
        "total": 2354
      },
      {
        "club_badge_src": null,
        "entry": 2791802,
        "entry_name": "BoysCertainlyDoCry",
        "event_total": 59,
        "has_played": true,
        "id": 20382974,
        "last_rank": 49552,
        "player_name": "Aleksander Solberg",
        "rank": 46328,
        "rank_sort": 46337,
        "total": 2354
      },
      {
        "club_badge_src": null,
        "entry": 2989660,
        "entry_name": "Viktory",
        "event_total": 36,
        "has_played": true,
        "id": 21986894,
        "last_rank": 23164,
        "player_name": "Darren Cooke",
        "rank": 46328,
        "rank_sort": 46338,
        "total": 2354
      },
      {
        "club_badge_src": null,
        "entry": 5804426,
        "entry_name": "I'm sorry Nic jackso",
        "event_total": 70,
        "has_played": true,
        "id": 45538375,
        "last_rank": 68556,
        "player_name": "noah young",
        "rank": 46328,
        "rank_sort": 46339,
        "total": 2354
      },
      {
        "club_badge_src": "https://fantasy.premierleague.com/gcs/plfpl-production-adobe-approved/plfpl-production/6226768/29212bc2-e1cd-4696-810e-637747d42b5f.png",
        "entry": 6226768,
        "entry_name": "Ruben Icantwin",
        "event_total": 75,
        "has_played": true,
        "id": 49274066,
        "last_rank": 78997,
        "player_name": "David Dobrev",
        "rank": 46328,
        "rank_sort": 46340,
        "total": 2354
      },
      {
        "club_badge_src": null,
        "entry": 6327971,
        "entry_name": "Murray's Magic",
        "event_total": 48,
        "has_played": true,
        "id": 50278773,
        "last_rank": 34937,
        "player_name": "Roger Smith",
        "rank": 46328,
        "rank_sort": 46341,
        "total": 2354
      },
      {
        "club_badge_src": null,
        "entry": 6427604,
        "entry_name": "Deutsch Nepal",
        "event_total": 57,
        "has_played": true,
        "id": 51164532,
        "last_rank": 46547,
        "player_name": "Ian Swinden",
        "rank": 46328,
        "rank_sort": 46342,
        "total": 2354
      },
      {
        "club_badge_src": null,
        "entry": 7894003,
        "entry_name": "Mersey La's",
        "event_total": 58,
        "has_played": true,
        "id": 64932993,
        "last_rank": 48119,
        "player_name": "Adam Mcloughlin",
        "rank": 46328,
        "rank_sort": 46343,
        "total": 2354
      },
      {
        "club_badge_src": null,
        "entry": 8378433,
        "entry_name": "Makes no Sesko",
        "event_total": 73,
        "has_played": true,
        "id": 69476048,
        "last_rank": 74702,
        "player_name": "James Feeney",
        "rank": 46328,
        "rank_sort": 46344,
        "total": 2354
      },
      {
        "club_badge_src": null,
        "entry": 42138,
        "entry_name": "Dont Lookback Elanga",
        "event_total": 78,
        "has_played": true,
        "id": 270027,
        "last_rank": 85932,
        "player_name": "Domhnall Higgins",
        "rank": 46345,
        "rank_sort": 46345,
        "total": 2354
      },
      {
        "club_badge_src": null,
        "entry": 436344,
        "entry_name": "WrensLehmann",
        "event_total": 52,
        "has_played": true,
        "id": 2926008,
        "last_rank": 39874,
        "player_name": "Harry Wren",
        "rank": 46345,
        "rank_sort": 46346,
        "total": 2354
      },
      {
        "club_badge_src": null,
        "entry": 451091,
        "entry_name": "Dominik Sobliss",
        "event_total": 69,
        "has_played": true,
        "id": 3026434,
        "last_rank": 66848,
        "player_name": "Peter Dodsworth",
        "rank": 46345,
        "rank_sort": 46347,
        "total": 2354
      },
      {
        "club_badge_src": null,
        "entry": 578824,
        "entry_name": "Team Kolmogorov",
        "event_total": 66,
        "has_played": true,
        "id": 3894669,
        "last_rank": 61258,
        "player_name": "Jonas Nielsen",
        "rank": 46345,
        "rank_sort": 46348,
        "total": 2354
      },
      {
        "club_badge_src": "https://fantasy.premierleague.com/gcs/plfpl-production-adobe-approved/plfpl-production/720866/453505de-da74-4a25-9589-48cde006db93.png",
        "entry": 720866,
        "entry_name": "Bowen 747",
        "event_total": 66,
        "has_played": true,
        "id": 4894508,
        "last_rank": 61411,
        "player_name": "Toby Palmer",
        "rank": 46345,
        "rank_sort": 46349,
        "total": 2354
      },
      {
        "club_badge_src": null,
        "entry": 828236,
        "entry_name": "Yippee Kayode",
        "event_total": 44,
        "has_played": true,
        "id": 5672722,
        "last_rank": 30503,
        "player_name": "Tom Wells",
        "rank": 46345,
        "rank_sort": 46350,
        "total": 2354
      }
    ]
  }
}