{
  "last_updated_data": "2026-05-24T23:28:17Z",
  "league": {
    "admin_entry": null,
    "closed": false,
    "code_privacy": "p",
    "created": "2025-07-20T23:14:33.933835Z",
    "cup_league": 2815434,
    "has_cup": true,
    "id": 314,
    "league_type": "s",
    "max_entries": null,
    "name": "Overall",
    "rank": null,
    "scoring": "c",
    "start_event": 1
  },
  "new_entries": {
    "has_next": false,
    "page": 1,
    "results": []
  },
  "standings": {
    "has_next": true,
    "page": 217,
    "results": [
      {
        "club_badge_src": null,
        "entry": 6627998,
        "entry_name": "IL Domen",
        "event_total": 66,
        "has_played": true,
        "id": 52969311,
        "last_rank": 14832,
        "player_name": "Kristoffer Kjeldsen",
        "rank": 10781,
        "rank_sort": 10801,
        "total": 2396
      },
      {
        "club_badge_src": "https://fantasy.premierleague.com/gcs/plfpl-production-adobe-approved/plfpl-production/7437992/61a60f54-29aa-40cc-aef2-e371848cabec.png",
        "entry": 7437992,
        "entry_name": "Not Juju",
        "event_total": 44,
        "has_played": true,
        "id": 60476059,
        "last_rank": 5904,
        "player_name": "Juju Zannin",
        "rank": 10781,
        "rank_sort": 10802,
        "total": 2396
      },
      {
        "club_badge_src": null,
        "entry": 7741452,
        "entry_name": "FC FPL",
        "event_total": 54,
        "has_played": true,
        "id": 63544078,
        "last_rank": 9089,
        "player_name": "G R",
        "rank": 10781,
        "rank_sort": 10803,
        "total": 2396
      },
      {
        "club_badge_src": null,
        "entry": 9054387,
        "entry_name": "Dextrose",
        "event_total": 64,
        "has_played": true,
        "id": 76007930,
        "last_rank": 13720,
        "player_name": "Hridesh Shrestha",
        "rank": 10781,
        "rank_sort": 10804,
        "total": 2396
      },
      {
        "club_badge_src": null,
        "entry": 3363,
        "entry_name": "Mbuemo Shakalaka",
        "event_total": 72,
        "has_played": true,
        "id": 19040,
        "last_rank": 18691,
        "player_name": "Jack Freeland",
        "rank": 10805,
        "rank_sort": 10805,
        "total": 2396
      },
      {
        "club_badge_src": "https://fantasy.premierleague.com/gcs/plfpl-production-adobe-approved/plfpl-production/4993/bf4dafd4-d75d-4e0a-beba-b99b17a49ed7.png",
        "entry": 4993,
        "entry_name": "Fullart Rovers",
        "event_total": 61,
        "has_played": true,
        "id": 28428,
        "last_rank": 12109,
        "player_name": "Navapoj Somboonsilp",
        "rank": 10805,
        "rank_sort": 10806,
        "total": 2396
      },
      {
        "club_badge_src": null,
        "entry": 5906,
        "entry_name": "2REK ROVERS",
        "event_total": 56,
        "has_played": true,
        "id": 33773,
        "last_rank": 9885,
        "player_name": "Richard Turek",
        "rank": 10805,
        "rank_sort": 10807,
        "total": 2396
      },
      {
        "club_badge_src": null,
        "entry": 7962,
        "entry_name": "Mallen",
        "event_total": 78,
        "has_played": true,
        "id": 46042,
        "last_rank": 23230,
        "player_name": "Matt Allen",
        "rank": 10805,
        "rank_sort": 10808,
        "total": 2396
      },
      {
        "club_badge_src": null,
        "entry": 13423,
        "entry_name": "Mass4007",
        "event_total": 70,
        "has_played": true,
        "id": 81100,
        "last_rank": 17358,
        "player_name": "Mass DL",
        "rank": 10805,
        "rank_sort": 10809,
        "total": 2396
      },
      {
        "club_badge_src": null,
        "entry": 14309,
        "entry_name": "Dave's Dodgers",
        "event_total": 65,
        "has_played": true,
        "id": 86845,
        "last_rank": 14370,
        "player_name": "David Broadley",
        "rank": 10805,
        "rank_sort": 10810,
        "total": 2396
      },
      {
        "club_badge_src": null,
        "entry": 15595,
        "entry_name": "Jdog FC",
        "event_total": 56,
        "has_played": true,
        "id": 95831,
        "last_rank": 9942,
        "player_name": "Joffy Hetherington",
        "rank": 10805,
        "rank_sort": 10811,
        "total": 2396
      },
      {
        "club_badge_src": null,
        "entry": 15889,
        "entry_name": "Skelly season",
        "event_total": 59,
        "has_played": true,
        "id": 97866,
        "last_rank": 11237,
        "player_name": "Dylan Bahia",
        "rank": 10805,
        "rank_sort": 10812,
        "total": 2396
      },
      {
        "club_badge_src": null,
        "entry": 22807,
        "entry_name": "No Kane No Gain",
        "event_total": 62,
        "has_played": true,
        "id": 143382,
        "last_rank": 12705,
        "player_name": "Ansh Mehta",
        "rank": 10805,
        "rank_sort": 10813,
        "total": 2396
      },
      {
        "club_badge_src": null,
        "entry": 25036,
        "entry_name": "Alisson Wonderland",
        "event_total": 60,
        "has_played": true,
        "id": 158252,
        "last_rank": 11699,
        "player_name": "Bradley Dowson",
        "rank": 10805,
        "rank_sort": 10814,
        "total": 2396
      },
      {
        "club_badge_src": null,
        "entry": 25202,
        "entry_name": "Jimenez Eat World",
        "event_total": 53,
        "has_played": true,
        "id": 159414,
        "last_rank": 8687,
        "player_name": "Graham Smith",
        "rank": 10805,
        "rank_sort": 10815,
        "total": 2396
      },
      {
        "club_badge_src": null,
        "entry": 49972,
        "entry_name": "Slot Machines",
        "event_total": 65,
        "has_played": true,
        "id": 321295,
        "last_rank": 14292,
        "player_name": "andrew bunn",
        "rank": 10805,
        "rank_sort": 10816,
        "total": 2396
      },
      {
        "club_badge_src": null,
        "entry": 50292,
        "entry_name": "The Relegates",
        "event_total": 55,
        "has_played": true,
        "id": 323479,
        "last_rank": 9536,
        "player_name": "Reuben Raquiza",
        "rank": 10805,
        "rank_sort": 10817,
        "total": 2396
      },
      {
        "club_badge_src": null,
        "entry": 56232,
        "entry_name": "AubamaCare",
        "event_total": 53,
        "has_played": true,
        "id": 362177,
        "last_rank": 7333,
        "player_name": "Adam .",
        "rank": 10805,
        "rank_sort": 10818,
        "total": 2396
      },
      {
        "club_badge_src": null,
        "entry": 58142,
        "entry_name": "Charli xGx",
        "event_total": 67,
        "has_played": true,
        "id": 374542,
        "last_rank": 15550,
        "player_name": "Ali S",
        "rank": 10805,
        "rank_sort": 10819,
        "total": 2396
      },
      {
        "club_badge_src": null,
        "entry": 103818,
        "entry_name": "Abo Emad",
        "event_total": 65,
        "has_played": true,
        "id": 677369,
        "last_rank": 14292,
        "player_name": "Arsany Emad",
        "rank": 10805,
        "rank_sort": 10820,
        "total": 2396
      },
      {
        "club_badge_src": null,
        "entry": 140563,
        "entry_name": "Who let the dogs out",
        "event_total": 73,
        "has_played": true,
        "id": 917939,
        "last_rank": 19432,
        "player_name": "Tom Mason",
        "rank": 10805,
        "rank_sort": 10821,
        "total": 2396
      },
      {
        "club_badge_src": null,
        "entry": 142359,
        "entry_name": "zo7le2a",
        "event_total": 58,
        "has_played": true,
        "id": 930680,
        "last_rank": 10805,
        "player_name": "abdo nabil",
        "rank": 10805,
        "rank_sort": 10822,
        "total": 2396
      },
      {
        "club_badge_src": null,
        "entry": 148724,
        "entry_name": "RhysCycling",
        "event_total": 55,
        "has_played": true,
        "id": 974975,
        "last_rank": 9536,
        "player_name": "Rhys Smith",
        "rank": 10805,
        "rank_sort": 10823,
        "total": 2396
      },
      {
        "club_badge_src": null,
        "entry": 184265,
        "entry_name": "Eek",
        "event_total": 67,
        "has_played": true,
        "id": 1216748,
        "last_rank": 15452,
        "player_name": "Rhys baron",
        "rank": 10805,
        "rank_sort": 10824,
        "total": 2396
      },
      {
        "club_badge_src": "https://fantasy.premierleague.com/gcs/plfpl-production-adobe-approved/plfpl-production/200250/d72b1760-22c4-40a1-89e0-9f8eab3929f3.png",
        "entry": 200250,
        "entry_name": "WirtzSeasonEver",
        "event_total": 53,
        "has_played": true,
        "id": 1329295,
        "last_rank": 8718,
        "player_name": "Chyana Klopp",
        "rank": 10805,
        "rank_sort": 10825,
        "total": 2396
      },
      {
        "club_badge_src": null,
        "entry": 206775,
        "entry_name": "StinkyMillerGoHome",
        "event_total": 73,
        "has_played": true,
        "id": 1374362,
        "last_rank": 19392,
        "player_name": "Graham Miller",
        "rank": 10805,
        "rank_sort": 10826,
        "total": 2396
      },
      {
        "club_badge_src": null,
        "entry": 230356,
        "entry_name": "wingdings fc",
        "event_total": 47,
        "has_played": true,
        "id": 1532493,
        "last_rank": 6703,
        "player_name": "Adrian Bubla",
        "rank": 10805,
        "rank_sort": 10827,
        "total": 2396
      },
      {
        "club_badge_src": null,
        "entry": 256195,
        "entry_name": "Old Coulsdon Colts",
        "event_total": 68,
        "has_played": true,
        "id": 1703943,
        "last_rank": 16163,
        "player_name": "Sam McKenzie",
        "rank": 10805,
        "rank_sort": 10828,
        "total": 2396
      },
      {
        "club_badge_src": null,
        "entry": 264239,
        "entry_name": "Kinder Mbeumo",
        "event_total": 54,
        "has_played": true,
        "id": 1757108,
        "last_rank": 7625,
        "player_name": "E Z",
        "rank": 10805,
        "rank_sort": 10829,
        "total": 2396
      },
      {
        "club_badge_src": null,
        "entry": 271704,
        "entry_name": "SweetHomeWan-Bissaka",
        "event_total": 67,
        "has_played": true,
        "id": 1807615,
        "last_rank": 15550,
        "player_name": "James Price",
        "rank": 10805,
        "rank_sort": 10830,
        "total": 2396
      },
      {
        "club_badge_src": null,
        "entry": 298803,
        "entry_name": "\u00a5.___.\u00a5",
        "event_total": 53,
        "has_played": true,
        "id": 1997947,
        "last_rank": 8718,
        "player_name": "sakchai wangsaduak",
        "rank": 10805,
        "rank_sort": 10831,
        "total": 2396
      },
      {
        "club_badge_src": null,
        "entry": 313246,
        "entry_name": "Whitecaps",
        "event_total": 49,
        "has_played": true,
        "id": 2098750,
        "last_rank": 7450,
        "player_name": "Nick Martin",
        "rank": 10805,
        "rank_sort": 10832,
        "total": 2396
      },
      {
        "club_badge_src": null,
        "entry": 370055,
        "entry_name": "In Bruno We Trust",
        "event_total": 67,
        "has_played": true,
        "id": 2476239,
        "last_rank": 15550,
        "player_name": "Daniel Pedersen",
        "rank": 10805,
        "rank_sort": 10833,
        "total": 2396
      },
      {
        "club_badge_src": null,
        "entry": 399817,
        "entry_name": "Oliver's Boys",
        "event_total": 55,
        "has_played": true,
        "id": 2680900,
        "last_rank": 9448,
        "player_name": "John Targett",
        "rank": 10805,
        "rank_sort": 10834,
        "total": 2396
      },
      {
        "club_badge_src": null,
        "entry": 415185,
        "entry_name": "Let There Be Potts",
        "event_total": 74,
        "has_played": true,
        "id": 2783252,
        "last_rank": 20147,
        "player_name": "Alex Sewell",
        "rank": 10805,
        "rank_sort": 10835,
        "total": 2396
      },
      {
        "club_badge_src": null,
        "entry": 421681,
        "entry_name": "GOODISON PARK",
        "event_total": 68,
        "has_played": true,
        "id": 2825939,
        "last_rank": 16163,
        "player_name": "Boris Johnson",
        "rank": 10805,
        "rank_sort": 10836,
        "total": 2396
      },
      {
        "club_badge_src": null,
        "entry": 452414,
        "entry_name": "Botofeis Ballers",
        "event_total": 64,
        "has_played": true,
        "id": 3035007,
        "last_rank": 13821,
        "player_name": "Alex Botofei",
        "rank": 10805,
        "rank_sort": 10837,
        "total": 2396
      },
      {
        "club_badge_src": null,
        "entry": 458547,
        "entry_name": "SotakAttack",
        "event_total": 72,
        "has_played": true,
        "id": 3076243,
        "last_rank": 18655,
        "player_name": "Andrew Sotak",
        "rank": 10805,
        "rank_sort": 10838,
        "total": 2396
      },
      {
        "club_badge_src": null,
        "entry": 565250,
        "entry_name": "sakapuntas",
        "event_total": 76,
        "has_played": true,
        "id": 3804571,
        "last_rank": 21628,
        "player_name": "Rayan Mian",
        "rank": 10805,
        "rank_sort": 10839,
        "total": 2396
      },
      {
        "club_badge_src": "https://fantasy.premierleague.com/gcs/plfpl-production-adobe-approved/plfpl-production/587688/6b8fc21b-4871-448f-be09-fd9b940f382b.png",
        "entry": 587688,
        "entry_name": "mcfcxnepal",
        "event_total": 67,
        "has_played": true,
        "id": 3956420,
        "last_rank": 15452,
        "player_name": "Mahidh Dhakal",
        "rank": 10805,
        "rank_sort": 10840,
        "total": 2396
      },
      {
        "club_badge_src": null,
        "entry": 624947,
        "entry_name": "Mous\u2019s Aussie Army",
        "event_total": 47,
        "has_played": true,
        "id": 4223190,
        "last_rank": 6752,
        "player_name": "Neil Hardyman",
        "rank": 10805,
        "rank_sort": 10841,
        "total": 2396
      },
      {
        "club_badge_src": null,
        "entry": 656132,
        "entry_name": "Ambitious Effort",
        "event_total": 67,
        "has_played": true,
        "id": 4434171,
        "last_rank": 15452,
        "player_name": "Benyamin Mohammadi",
        "rank": 10805,
        "rank_sort": 10842,
        "total": 2396
      },
      {
        "club_badge_src": null,
        "entry": 657567,
        "entry_name": "RMSH",
        "event_total": 52,
        "has_played": true,
        "id": 4443787,
        "last_rank": 8339,
        "player_name": "Tomasz Pis",
        "rank": 10805,
        "rank_sort": 10843,
        "total": 2396
      },
      {
        "club_badge_src": null,
        "entry": 701928,
        "entry_name": "Potski's Pirates",
        "event_total": 50,
        "has_played": true,
        "id": 4756075,
        "last_rank": 7676,
        "player_name": "Mathew Potter",
        "rank": 10805,
        "rank_sort": 10844,
        "total": 2396
      },
      {
        "club_badge_src": null,
        "entry": 774777,
        "entry_name": "Twende United",
        "event_total": 54,
        "has_played": true,
        "id": 5286296,
        "last_rank": 9142,
        "player_name": "Chi Soo Park",
        "rank": 10805,
        "rank_sort": 10845,
        "total": 2396
      },
      {
        "club_badge_src": null,
        "entry": 775148,
        "entry_name": "Zane's Team",
        "event_total": 78,
        "has_played": true,
        "id": 5288881,
        "last_rank": 23188,
        "player_name": "Zane Bougen",
        "rank": 10805,
        "rank_sort": 10846,
        "total": 2396
      },
      {
        "club_badge_src": null,
        "entry": 795086,
        "entry_name": "Bossanova",
        "event_total": 48,
        "has_played": true,
        "id": 5441440,
        "last_rank": 7014,
        "player_name": "Michael McDaid",
        "rank": 10805,
        "rank_sort": 10847,
        "total": 2396
      },
      {
        "club_badge_src": "https://fantasy.premierleague.com/gcs/plfpl-production-adobe-approved/plfpl-production/817804/b475a743-86ac-4c13-a823-4f110a7c2b34.png",
        "entry": 817804,
        "entry_name": "Luje Og\u0142uszacze",
        "event_total": 66,
        "has_played": true,
        "id": 5600401,
        "last_rank": 14832,
        "player_name": "Aleksander G",
        "rank": 10805,
        "rank_sort": 10848,
        "total": 2396
      },
      {
        "club_badge_src": null,
        "entry": 887059,
        "entry_name": "Low Fat Salah Cream",
        "event_total": 47,
        "has_played": true,
        "id": 6084119,
        "last_rank": 6752,
        "player_name": "Saleem Arif",
        "rank": 10805,
        "rank_sort": 10849,
        "total": 2396
      },
      {
        "club_badge_src": "https://fantasy.premierleague.com/gcs/plfpl-production-adobe-approved/plfpl-production/1026786/b0d69fa1-fff8-4ad8-ad26-05dd816f4619.png",
        "entry": 1026786,
        "entry_name": "Change Name",
        "event_total": 59,
        "has_played": true,
        "id": 7103953,
        "last_rank": 11237,
        "player_name": "John Ganter",
        "rank": 10805,
        "rank_sort": 10850,
        "total": 2396
      }
    ]
  }
}