{
  "last_updated_data": "2026-05-24T23:28:17Z",
  "league": {
    "admin_entry": null,
    "closed": false,
    "code_privacy": "p",
    "created": "2025-07-20T23:14:33.933835Z",
    "cup_league": 2815434,
    "has_cup": true,
    "id": 314,
    "league_type": "s",
    "max_entries": null,
    "name": "Overall",
    "rank": null,
    "scoring": "c",
    "start_event": 1
  },
  "new_entries": {
    "has_next": false,
    "page": 1,
    "results": []
  },
  "standings": {
    "has_next": true,
    "page": 348,
    "results": [
      {
        "club_badge_src": null,
        "entry": 1975122,
        "entry_name": "roversreturns",
        "event_total": 63,
        "has_played": true,
        "id": 13941535,
        "last_rank": 20983,
        "player_name": "Jacob Yates",
        "rank": 17283,
        "rank_sort": 17351,
        "total": 2384
      },
      {
        "club_badge_src": null,
        "entry": 2049839,
        "entry_name": "\u0160kart",
        "event_total": 52,
        "has_played": true,
        "id": 14518663,
        "last_rank": 13947,
        "player_name": "\u041c\u0438\u043b\u043e\u0448 \u0416\u0438\u0432\u0430\u0434\u0438\u043d\u043e\u0432\u0438\u045b",
        "rank": 17283,
        "rank_sort": 17352,
        "total": 2384
      },
      {
        "club_badge_src": null,
        "entry": 2079825,
        "entry_name": "OP01",
        "event_total": 65,
        "has_played": true,
        "id": 14747866,
        "last_rank": 19544,
        "player_name": "Abdulrahman Ashraf",
        "rank": 17283,
        "rank_sort": 17353,
        "total": 2384
      },
      {
        "club_badge_src": "https://fantasy.premierleague.com/gcs/plfpl-production-adobe-approved/plfpl-production/2080552/90a73e8e-87ef-4d4b-be74-705e8e907ce5.png",
        "entry": 2080552,
        "entry_name": "Svansen FK",
        "event_total": 64,
        "has_played": true,
        "id": 14753155,
        "last_rank": 21775,
        "player_name": "Sigurd Bloch",
        "rank": 17283,
        "rank_sort": 17354,
        "total": 2384
      },
      {
        "club_badge_src": "https://fantasy.premierleague.com/gcs/plfpl-production-adobe-approved/plfpl-production/2090158/290a57f8-aa13-490e-8105-c42af6bf17d7.png",
        "entry": 2090158,
        "entry_name": "Red Devils",
        "event_total": 76,
        "has_played": true,
        "id": 14829229,
        "last_rank": 28546,
        "player_name": "yassin yousef",
        "rank": 17283,
        "rank_sort": 17355,
        "total": 2384
      },
      {
        "club_badge_src": null,
        "entry": 2210720,
        "entry_name": "Salvador 22",
        "event_total": 54,
        "has_played": true,
        "id": 15742431,
        "last_rank": 15063,
        "player_name": "Salvador Barreto",
        "rank": 17283,
        "rank_sort": 17356,
        "total": 2384
      },
      {
        "club_badge_src": null,
        "entry": 2211221,
        "entry_name": "Lassagne Diarr\u00e9",
        "event_total": 64,
        "has_played": true,
        "id": 15746100,
        "last_rank": 18790,
        "player_name": "Fredrik Hegh",
        "rank": 17283,
        "rank_sort": 17357,
        "total": 2384
      },
      {
        "club_badge_src": null,
        "entry": 2230921,
        "entry_name": "FPL iras",
        "event_total": 50,
        "has_played": true,
        "id": 15892834,
        "last_rank": 12846,
        "player_name": "Iras Imran",
        "rank": 17283,
        "rank_sort": 17358,
        "total": 2384
      },
      {
        "club_badge_src": "https://fantasy.premierleague.com/gcs/plfpl-production-adobe-approved/plfpl-production/2274325/251c9346-8724-4c79-bc2a-7aa5fdb95976.png",
        "entry": 2274325,
        "entry_name": "Bully Bull CHAMPIONS",
        "event_total": 69,
        "has_played": true,
        "id": 16217494,
        "last_rank": 22534,
        "player_name": "A.A Ali",
        "rank": 17283,
        "rank_sort": 17359,
        "total": 2384
      },
      {
        "club_badge_src": null,
        "entry": 2501395,
        "entry_name": "Cobra Kai Havertz",
        "event_total": 65,
        "has_played": true,
        "id": 17911265,
        "last_rank": 19544,
        "player_name": "Soorja Dasgupta",
        "rank": 17283,
        "rank_sort": 17360,
        "total": 2384
      },
      {
        "club_badge_src": null,
        "entry": 2676969,
        "entry_name": "Varun",
        "event_total": 51,
        "has_played": true,
        "id": 19250713,
        "last_rank": 13184,
        "player_name": "Varun Aneet Singh",
        "rank": 17283,
        "rank_sort": 17361,
        "total": 2384
      },
      {
        "club_badge_src": null,
        "entry": 2762622,
        "entry_name": "SWKR",
        "event_total": 49,
        "has_played": true,
        "id": 20154656,
        "last_rank": 12109,
        "player_name": "Kiki Brko",
        "rank": 17283,
        "rank_sort": 17362,
        "total": 2384
      },
      {
        "club_badge_src": null,
        "entry": 2785089,
        "entry_name": "FC Adamantium",
        "event_total": 68,
        "has_played": true,
        "id": 20332054,
        "last_rank": 24897,
        "player_name": "Shakil Ahmed",
        "rank": 17283,
        "rank_sort": 17363,
        "total": 2384
      },
      {
        "club_badge_src": null,
        "entry": 2998575,
        "entry_name": "25/26",
        "event_total": 56,
        "has_played": true,
        "id": 22055309,
        "last_rank": 16441,
        "player_name": "Szymon Ory\u0144czak",
        "rank": 17283,
        "rank_sort": 17364,
        "total": 2384
      },
      {
        "club_badge_src": "https://fantasy.premierleague.com/gcs/plfpl-production-adobe-approved/plfpl-production/3106431/5becc13f-c49c-411d-8529-cd2c01795440.png",
        "entry": 3106431,
        "entry_name": "Sean Dyche with T\u00edts",
        "event_total": 65,
        "has_played": true,
        "id": 22903672,
        "last_rank": 22534,
        "player_name": "Niklas Loppinen",
        "rank": 17283,
        "rank_sort": 17365,
        "total": 2384
      },
      {
        "club_badge_src": "https://fantasy.premierleague.com/gcs/plfpl-production-adobe-approved/plfpl-production/3208417/6124446b-191e-4aea-a095-a9a3a95b27b8.png",
        "entry": 3208417,
        "entry_name": "UptheAssnal",
        "event_total": 42,
        "has_played": true,
        "id": 23719907,
        "last_rank": 9142,
        "player_name": "Dom De Silva",
        "rank": 17283,
        "rank_sort": 17366,
        "total": 2384
      },
      {
        "club_badge_src": null,
        "entry": 3209991,
        "entry_name": "BreakingBoss",
        "event_total": 60,
        "has_played": true,
        "id": 23732113,
        "last_rank": 18985,
        "player_name": "Pusit Vittayanugool",
        "rank": 17283,
        "rank_sort": 17367,
        "total": 2384
      },
      {
        "club_badge_src": null,
        "entry": 3227210,
        "entry_name": "Emk",
        "event_total": 52,
        "has_played": true,
        "id": 23866495,
        "last_rank": 13821,
        "player_name": "Ebrahim Al Khalifa",
        "rank": 17283,
        "rank_sort": 17368,
        "total": 2384
      },
      {
        "club_badge_src": null,
        "entry": 3227695,
        "entry_name": "utter woke nonsense",
        "event_total": 56,
        "has_played": true,
        "id": 23870534,
        "last_rank": 16320,
        "player_name": "Dylan Llufrio",
        "rank": 17283,
        "rank_sort": 17369,
        "total": 2384
      },
      {
        "club_badge_src": null,
        "entry": 3303377,
        "entry_name": "Golden Coles",
        "event_total": 61,
        "has_played": true,
        "id": 24467533,
        "last_rank": 16807,
        "player_name": "Alex Coles",
        "rank": 17283,
        "rank_sort": 17370,
        "total": 2384
      },
      {
        "club_badge_src": null,
        "entry": 3438191,
        "entry_name": "ArsenalsBane",
        "event_total": 73,
        "has_played": true,
        "id": 25542500,
        "last_rank": 29578,
        "player_name": "Mirza Baig",
        "rank": 17283,
        "rank_sort": 17371,
        "total": 2384
      },
      {
        "club_badge_src": null,
        "entry": 3489160,
        "entry_name": "Thunder Road FC",
        "event_total": 63,
        "has_played": true,
        "id": 25948104,
        "last_rank": 21159,
        "player_name": "Robin Enmark",
        "rank": 17283,
        "rank_sort": 17372,
        "total": 2384
      },
      {
        "club_badge_src": null,
        "entry": 3606889,
        "entry_name": "morty's",
        "event_total": 59,
        "has_played": true,
        "id": 26867000,
        "last_rank": 18113,
        "player_name": "Morten Lian",
        "rank": 17283,
        "rank_sort": 17373,
        "total": 2384
      },
      {
        "club_badge_src": null,
        "entry": 3628026,
        "entry_name": "ivai10",
        "event_total": 50,
        "has_played": true,
        "id": 27034451,
        "last_rank": 12846,
        "player_name": "Ivailo Iliev",
        "rank": 17283,
        "rank_sort": 17374,
        "total": 2384
      },
      {
        "club_badge_src": null,
        "entry": 3980820,
        "entry_name": "MmmAfternoonDeLigt",
        "event_total": 65,
        "has_played": true,
        "id": 29965838,
        "last_rank": 19544,
        "player_name": "Stephen Stack",
        "rank": 17283,
        "rank_sort": 17375,
        "total": 2384
      },
      {
        "club_badge_src": null,
        "entry": 4143580,
        "entry_name": "Major League Saka",
        "event_total": 67,
        "has_played": true,
        "id": 31316650,
        "last_rank": 24039,
        "player_name": "Damian Rastocic",
        "rank": 17283,
        "rank_sort": 17376,
        "total": 2384
      },
      {
        "club_badge_src": "https://fantasy.premierleague.com/gcs/plfpl-production-adobe-approved/plfpl-production/4220237/89b129c4-8ce4-48d5-bd61-081506307f81.png",
        "entry": 4220237,
        "entry_name": "Reuben's go to Sesko",
        "event_total": 57,
        "has_played": true,
        "id": 31965795,
        "last_rank": 14292,
        "player_name": "Ian Le Tissier",
        "rank": 17283,
        "rank_sort": 17377,
        "total": 2384
      },
      {
        "club_badge_src": "https://fantasy.premierleague.com/gcs/plfpl-production-adobe-approved/plfpl-production/4346680/348592f3-0188-4da6-8ac2-deeb29067aba.png",
        "entry": 4346680,
        "entry_name": "LionsXII",
        "event_total": 59,
        "has_played": true,
        "id": 33005584,
        "last_rank": 15550,
        "player_name": "Alex Law",
        "rank": 17283,
        "rank_sort": 17378,
        "total": 2384
      },
      {
        "club_badge_src": "https://fantasy.premierleague.com/gcs/plfpl-production-adobe-approved/plfpl-production/4475478/2de9b1d3-a94f-4526-bd3d-42bafad876ab.png",
        "entry": 4475478,
        "entry_name": "here we sesko",
        "event_total": 62,
        "has_played": true,
        "id": 34106672,
        "last_rank": 20416,
        "player_name": "Nasir Omar",
        "rank": 17283,
        "rank_sort": 17379,
        "total": 2384
      },
      {
        "club_badge_src": null,
        "entry": 4505955,
        "entry_name": "Dhaliwal Yanited",
        "event_total": 64,
        "has_played": true,
        "id": 34355181,
        "last_rank": 21775,
        "player_name": "Ryan Dhaliwal",
        "rank": 17283,
        "rank_sort": 17380,
        "total": 2384
      },
      {
        "club_badge_src": null,
        "entry": 4578591,
        "entry_name": "Lallanas in Pyjamas",
        "event_total": 62,
        "has_played": true,
        "id": 34950642,
        "last_rank": 20280,
        "player_name": "Alex Bremner",
        "rank": 17283,
        "rank_sort": 17381,
        "total": 2384
      },
      {
        "club_badge_src": null,
        "entry": 4581544,
        "entry_name": "Pain In Dias",
        "event_total": 66,
        "has_played": true,
        "id": 34975831,
        "last_rank": 23341,
        "player_name": "Daniel Fryer",
        "rank": 17283,
        "rank_sort": 17382,
        "total": 2384
      },
      {
        "club_badge_src": null,
        "entry": 4686217,
        "entry_name": "Manchester United",
        "event_total": 56,
        "has_played": true,
        "id": 35913408,
        "last_rank": 16062,
        "player_name": "Samuel Yeung",
        "rank": 17283,
        "rank_sort": 17383,
        "total": 2384
      },
      {
        "club_badge_src": null,
        "entry": 4809427,
        "entry_name": "PerSIPer",
        "event_total": 62,
        "has_played": true,
        "id": 37031806,
        "last_rank": 20280,
        "player_name": "Weno Adji",
        "rank": 17283,
        "rank_sort": 17384,
        "total": 2384
      },
      {
        "club_badge_src": "https://fantasy.premierleague.com/gcs/plfpl-production-adobe-approved/plfpl-production/4812812/6caefca9-d9c6-4cbe-80b3-43035a115286.png",
        "entry": 4812812,
        "entry_name": "TAW_CITY",
        "event_total": 65,
        "has_played": true,
        "id": 37058665,
        "last_rank": 19544,
        "player_name": "Mohamed Haitam EL MOUSSAOUI",
        "rank": 17283,
        "rank_sort": 17385,
        "total": 2384
      },
      {
        "club_badge_src": "https://fantasy.premierleague.com/gcs/plfpl-production-adobe-approved/plfpl-production/4925406/c7952a6b-882e-44d4-9c47-7313d9d00b47.png",
        "entry": 4925406,
        "entry_name": "Borgs Army",
        "event_total": 56,
        "has_played": true,
        "id": 37991695,
        "last_rank": 16320,
        "player_name": "Hugo Borg",
        "rank": 17283,
        "rank_sort": 17386,
        "total": 2384
      },
      {
        "club_badge_src": null,
        "entry": 5352883,
        "entry_name": "Domie\u0161ava\u010d",
        "event_total": 60,
        "has_played": true,
        "id": 41556203,
        "last_rank": 16062,
        "player_name": "Adam Kuchar\u00edk",
        "rank": 17283,
        "rank_sort": 17387,
        "total": 2384
      },
      {
        "club_badge_src": null,
        "entry": 5357225,
        "entry_name": "Grant Brigade",
        "event_total": 52,
        "has_played": true,
        "id": 41601156,
        "last_rank": 13754,
        "player_name": "Clinton Grant",
        "rank": 17283,
        "rank_sort": 17388,
        "total": 2384
      },
      {
        "club_badge_src": null,
        "entry": 5382481,
        "entry_name": "Bramley-More Gls Pls",
        "event_total": 64,
        "has_played": true,
        "id": 41841856,
        "last_rank": 21949,
        "player_name": "Dan Watkinson",
        "rank": 17283,
        "rank_sort": 17389,
        "total": 2384
      },
      {
        "club_badge_src": null,
        "entry": 5524155,
        "entry_name": "Skjevik United",
        "event_total": 63,
        "has_played": true,
        "id": 43078798,
        "last_rank": 21159,
        "player_name": "Espen Skjevik",
        "rank": 17283,
        "rank_sort": 17390,
        "total": 2384
      },
      {
        "club_badge_src": null,
        "entry": 5594155,
        "entry_name": "LET'S BE FRANK",
        "event_total": 55,
        "has_played": true,
        "id": 43706221,
        "last_rank": 15694,
        "player_name": "Eddie Mills",
        "rank": 17283,
        "rank_sort": 17391,
        "total": 2384
      },
      {
        "club_badge_src": null,
        "entry": 5655817,
        "entry_name": "Real Maydrid",
        "event_total": 66,
        "has_played": true,
        "id": 44246423,
        "last_rank": 23341,
        "player_name": "Alexander May",
        "rank": 17283,
        "rank_sort": 17392,
        "total": 2384
      },
      {
        "club_badge_src": null,
        "entry": 5746530,
        "entry_name": "Trevalona",
        "event_total": 75,
        "has_played": true,
        "id": 45036727,
        "last_rank": 27644,
        "player_name": "Trevor Hannant",
        "rank": 17283,
        "rank_sort": 17393,
        "total": 2384
      },
      {
        "club_badge_src": null,
        "entry": 5822887,
        "entry_name": "Gunners08",
        "event_total": 61,
        "has_played": true,
        "id": 45697497,
        "last_rank": 19721,
        "player_name": "Anshuman Walke",
        "rank": 17283,
        "rank_sort": 17394,
        "total": 2384
      },
      {
        "club_badge_src": "https://fantasy.premierleague.com/gcs/plfpl-production-adobe-approved/plfpl-production/5869512/1aa39459-b90f-4f1a-b030-355734c7d9eb.png",
        "entry": 5869512,
        "entry_name": "Hvolpasveitin",
        "event_total": 73,
        "has_played": true,
        "id": 46101186,
        "last_rank": 29578,
        "player_name": "Ragnhildur Ingvarsd\u00f3ttir",
        "rank": 17283,
        "rank_sort": 17395,
        "total": 2384
      },
      {
        "club_badge_src": null,
        "entry": 5915403,
        "entry_name": "Abradubravka",
        "event_total": 43,
        "has_played": true,
        "id": 46488656,
        "last_rank": 9536,
        "player_name": "Kevin Blackett",
        "rank": 17283,
        "rank_sort": 17396,
        "total": 2384
      },
      {
        "club_badge_src": null,
        "entry": 6075614,
        "entry_name": "Smash",
        "event_total": 69,
        "has_played": true,
        "id": 47963589,
        "last_rank": 26088,
        "player_name": "Michael McCaughey",
        "rank": 17283,
        "rank_sort": 17397,
        "total": 2384
      },
      {
        "club_badge_src": null,
        "entry": 6224656,
        "entry_name": "SouthernHill Comfort",
        "event_total": 60,
        "has_played": true,
        "id": 49256064,
        "last_rank": 18985,
        "player_name": "Torstein S\u00f8rhaug",
        "rank": 17283,
        "rank_sort": 17398,
        "total": 2384
      },
      {
        "club_badge_src": null,
        "entry": 6328344,
        "entry_name": "Uncleyui",
        "event_total": 58,
        "has_played": true,
        "id": 50283219,
        "last_rank": 17585,
        "player_name": "Natthaphol Sapdee",
        "rank": 17283,
        "rank_sort": 17399,
        "total": 2384
      },
      {
        "club_badge_src": null,
        "entry": 7080107,
        "entry_name": "Drawda",
        "event_total": 58,
        "has_played": true,
        "id": 56986313,
        "last_rank": 17585,
        "player_name": "Sean Clarke",
        "rank": 17283,
        "rank_sort": 17400,
        "total": 2384
      }
    ]
  }
}