{
  "last_updated_data": "2026-05-24T23:28:17Z",
  "league": {
    "admin_entry": null,
    "closed": false,
    "code_privacy": "p",
    "created": "2025-07-20T23:14:33.933835Z",
    "cup_league": 2815434,
    "has_cup": true,
    "id": 314,
    "league_type": "s",
    "max_entries": null,
    "name": "Overall",
    "rank": null,
    "scoring": "c",
    "start_event": 1
  },
  "new_entries": {
    "has_next": false,
    "page": 1,
    "results": []
  },
  "standings": {
    "has_next": true,
    "page": 465,
    "results": [
      {
        "club_badge_src": null,
        "entry": 1144989,
        "entry_name": "FC Sauerkraut",
        "event_total": 53,
        "has_played": true,
        "id": 7937438,
        "last_rank": 19904,
        "player_name": "Richard Gatt",
        "rank": 23151,
        "rank_sort": 23201,
        "total": 2376
      },
      {
        "club_badge_src": null,
        "entry": 1148618,
        "entry_name": "Dynamo Chicken Kiev",
        "event_total": 66,
        "has_played": true,
        "id": 7963968,
        "last_rank": 27020,
        "player_name": "Steven Bolger",
        "rank": 23151,
        "rank_sort": 23202,
        "total": 2376
      },
      {
        "club_badge_src": null,
        "entry": 1215167,
        "entry_name": "Nice",
        "event_total": 68,
        "has_played": true,
        "id": 8434451,
        "last_rank": 28906,
        "player_name": "Aaron Lad",
        "rank": 23151,
        "rank_sort": 23203,
        "total": 2376
      },
      {
        "club_badge_src": "https://fantasy.premierleague.com/gcs/plfpl-production-adobe-approved/plfpl-production/1262313/4fd4d81f-6f5f-4f86-9e95-055c55a07d48.png",
        "entry": 1262313,
        "entry_name": "Saudi Boys",
        "event_total": 62,
        "has_played": true,
        "id": 8769560,
        "last_rank": 20280,
        "player_name": "Gary Hobson",
        "rank": 23151,
        "rank_sort": 23204,
        "total": 2376
      },
      {
        "club_badge_src": null,
        "entry": 1388523,
        "entry_name": "H\u00e4lsborren FC",
        "event_total": 56,
        "has_played": true,
        "id": 9658397,
        "last_rank": 22064,
        "player_name": "Sebastian Kling",
        "rank": 23151,
        "rank_sort": 23205,
        "total": 2376
      },
      {
        "club_badge_src": null,
        "entry": 1429172,
        "entry_name": "Gunner 20",
        "event_total": 50,
        "has_played": true,
        "id": 9958480,
        "last_rank": 17802,
        "player_name": "abdelrahman gaber",
        "rank": 23151,
        "rank_sort": 23206,
        "total": 2376
      },
      {
        "club_badge_src": null,
        "entry": 1526539,
        "entry_name": "Black Pearl",
        "event_total": 63,
        "has_played": true,
        "id": 10647238,
        "last_rank": 28150,
        "player_name": "John Cena",
        "rank": 23151,
        "rank_sort": 23207,
        "total": 2376
      },
      {
        "club_badge_src": null,
        "entry": 1808747,
        "entry_name": "Hayat veegt je op",
        "event_total": 58,
        "has_played": true,
        "id": 12716430,
        "last_rank": 23748,
        "player_name": "Wouter Spaans",
        "rank": 23151,
        "rank_sort": 23208,
        "total": 2376
      },
      {
        "club_badge_src": null,
        "entry": 1852077,
        "entry_name": "MMXXV",
        "event_total": 58,
        "has_played": true,
        "id": 13032679,
        "last_rank": 23656,
        "player_name": "Justin Blugh",
        "rank": 23151,
        "rank_sort": 23209,
        "total": 2376
      },
      {
        "club_badge_src": null,
        "entry": 1857110,
        "entry_name": "Myrmidon",
        "event_total": 51,
        "has_played": true,
        "id": 13069563,
        "last_rank": 18377,
        "player_name": "Grzegorz Galik",
        "rank": 23151,
        "rank_sort": 23210,
        "total": 2376
      },
      {
        "club_badge_src": "https://fantasy.premierleague.com/gcs/plfpl-production-adobe-approved/plfpl-production/1939125/ed0ac128-be1b-4a7a-b091-1ddad1c02932.png",
        "entry": 1939125,
        "entry_name": "Bangkok Potters",
        "event_total": 52,
        "has_played": true,
        "id": 13677603,
        "last_rank": 19103,
        "player_name": "Jamie Blanchard",
        "rank": 23151,
        "rank_sort": 23211,
        "total": 2376
      },
      {
        "club_badge_src": null,
        "entry": 1951874,
        "entry_name": "Androla Gunners",
        "event_total": 64,
        "has_played": true,
        "id": 13768845,
        "last_rank": 28906,
        "player_name": "Andrew Olawale",
        "rank": 23151,
        "rank_sort": 23212,
        "total": 2376
      },
      {
        "club_badge_src": null,
        "entry": 2020604,
        "entry_name": "Kinder Mbeumo\ufffd",
        "event_total": 67,
        "has_played": true,
        "id": 14297760,
        "last_rank": 27976,
        "player_name": "mohamed abdo",
        "rank": 23151,
        "rank_sort": 23213,
        "total": 2376
      },
      {
        "club_badge_src": null,
        "entry": 2321416,
        "entry_name": "MZ Rama",
        "event_total": 57,
        "has_played": true,
        "id": 16560415,
        "last_rank": 22830,
        "player_name": "Antonio Reher",
        "rank": 23151,
        "rank_sort": 23214,
        "total": 2376
      },
      {
        "club_badge_src": null,
        "entry": 2400655,
        "entry_name": "JolleFC",
        "event_total": 64,
        "has_played": true,
        "id": 17157811,
        "last_rank": 28906,
        "player_name": "Fredrik Gj\u00f8dalstuen",
        "rank": 23151,
        "rank_sort": 23215,
        "total": 2376
      },
      {
        "club_badge_src": null,
        "entry": 2412571,
        "entry_name": "Jos\u00e9 Moore-inho",
        "event_total": 78,
        "has_played": true,
        "id": 17246070,
        "last_rank": 45252,
        "player_name": "Jason Moore",
        "rank": 23151,
        "rank_sort": 23216,
        "total": 2376
      },
      {
        "club_badge_src": null,
        "entry": 2482797,
        "entry_name": "Rosies Rebels",
        "event_total": 66,
        "has_played": true,
        "id": 17766023,
        "last_rank": 31236,
        "player_name": "Richard Rosewell",
        "rank": 23151,
        "rank_sort": 23217,
        "total": 2376
      },
      {
        "club_badge_src": null,
        "entry": 2545025,
        "entry_name": "No MBinano",
        "event_total": 53,
        "has_played": true,
        "id": 18241705,
        "last_rank": 16807,
        "player_name": "Carlo Diano",
        "rank": 23151,
        "rank_sort": 23218,
        "total": 2376
      },
      {
        "club_badge_src": null,
        "entry": 3007241,
        "entry_name": "Parkys penpushers",
        "event_total": 68,
        "has_played": true,
        "id": 22121784,
        "last_rank": 33332,
        "player_name": "Jacob Thorburn",
        "rank": 23151,
        "rank_sort": 23219,
        "total": 2376
      },
      {
        "club_badge_src": null,
        "entry": 3142870,
        "entry_name": "Bussemenn",
        "event_total": 61,
        "has_played": true,
        "id": 23203691,
        "last_rank": 26088,
        "player_name": "Trym Woldstad",
        "rank": 23151,
        "rank_sort": 23220,
        "total": 2376
      },
      {
        "club_badge_src": null,
        "entry": 3279066,
        "entry_name": "Caladan",
        "event_total": 58,
        "has_played": true,
        "id": 24270250,
        "last_rank": 23656,
        "player_name": "Caladan Ornstein",
        "rank": 23151,
        "rank_sort": 23221,
        "total": 2376
      },
      {
        "club_badge_src": null,
        "entry": 3316340,
        "entry_name": "idaman50",
        "event_total": 61,
        "has_played": true,
        "id": 24572817,
        "last_rank": 26230,
        "player_name": "Anthony Gerrard",
        "rank": 23151,
        "rank_sort": 23222,
        "total": 2376
      },
      {
        "club_badge_src": null,
        "entry": 3356133,
        "entry_name": "Nk Pujtobe",
        "event_total": 62,
        "has_played": true,
        "id": 24899539,
        "last_rank": 27020,
        "player_name": "Kristijan Br\u010di\u0107",
        "rank": 23151,
        "rank_sort": 23223,
        "total": 2376
      },
      {
        "club_badge_src": null,
        "entry": 3356438,
        "entry_name": "Swiss Clock United",
        "event_total": 40,
        "has_played": true,
        "id": 24901791,
        "last_rank": 11901,
        "player_name": "Andr\u00e9 Oliveira",
        "rank": 23151,
        "rank_sort": 23224,
        "total": 2376
      },
      {
        "club_badge_src": null,
        "entry": 3360648,
        "entry_name": "ha cunha matata",
        "event_total": 69,
        "has_played": true,
        "id": 24935581,
        "last_rank": 34293,
        "player_name": "Sai Lithin",
        "rank": 23151,
        "rank_sort": 23225,
        "total": 2376
      },
      {
        "club_badge_src": null,
        "entry": 3382717,
        "entry_name": "Team name",
        "event_total": 62,
        "has_played": true,
        "id": 25110181,
        "last_rank": 27203,
        "player_name": "Ivar Stokkereit",
        "rank": 23151,
        "rank_sort": 23226,
        "total": 2376
      },
      {
        "club_badge_src": null,
        "entry": 3403250,
        "entry_name": "Tur i marka",
        "event_total": 69,
        "has_played": true,
        "id": 25269539,
        "last_rank": 34458,
        "player_name": "Alexander Aass",
        "rank": 23151,
        "rank_sort": 23227,
        "total": 2376
      },
      {
        "club_badge_src": null,
        "entry": 3456911,
        "entry_name": "The Usual Sus-Pique",
        "event_total": 56,
        "has_played": true,
        "id": 25693585,
        "last_rank": 18985,
        "player_name": "Junaed Ayon",
        "rank": 23151,
        "rank_sort": 23228,
        "total": 2376
      },
      {
        "club_badge_src": null,
        "entry": 3514981,
        "entry_name": "Tseba's team",
        "event_total": 55,
        "has_played": true,
        "id": 26155732,
        "last_rank": 21301,
        "player_name": "\u0411\u043e\u043b\u0434\u0431\u0430\u0430\u0442\u0430\u0440 \u0426\u044d\u0440\u044d\u043d\u0431\u0430\u0430\u0442\u0430\u0440",
        "rank": 23151,
        "rank_sort": 23229,
        "total": 2376
      },
      {
        "club_badge_src": "https://fantasy.premierleague.com/gcs/plfpl-production-adobe-approved/plfpl-production/3622001/80fe4cbc-5928-49bc-aff4-81ad15b51ed1.png",
        "entry": 3622001,
        "entry_name": "FC Erdinger",
        "event_total": 54,
        "has_played": true,
        "id": 26986316,
        "last_rank": 20538,
        "player_name": "Erdinc Erten",
        "rank": 23151,
        "rank_sort": 23230,
        "total": 2376
      },
      {
        "club_badge_src": null,
        "entry": 3789098,
        "entry_name": "Bottoms Up",
        "event_total": 60,
        "has_played": true,
        "id": 28309797,
        "last_rank": 25330,
        "player_name": "Diane Swarbrick",
        "rank": 23151,
        "rank_sort": 23231,
        "total": 2376
      },
      {
        "club_badge_src": null,
        "entry": 3875588,
        "entry_name": "Rashycomehome743",
        "event_total": 72,
        "has_played": true,
        "id": 29110872,
        "last_rank": 37822,
        "player_name": "Braeden Andrews",
        "rank": 23151,
        "rank_sort": 23232,
        "total": 2376
      },
      {
        "club_badge_src": null,
        "entry": 3915875,
        "entry_name": "Sayed Nabeel",
        "event_total": 61,
        "has_played": true,
        "id": 29444223,
        "last_rank": 26230,
        "player_name": "SAYED NABEEL SAEED",
        "rank": 23151,
        "rank_sort": 23233,
        "total": 2376
      },
      {
        "club_badge_src": null,
        "entry": 3948669,
        "entry_name": "Perfidious Albion",
        "event_total": 28,
        "has_played": true,
        "id": 29705327,
        "last_rank": 7193,
        "player_name": "David Bridgman",
        "rank": 23151,
        "rank_sort": 23234,
        "total": 2376
      },
      {
        "club_badge_src": null,
        "entry": 3969933,
        "entry_name": "Drev",
        "event_total": 63,
        "has_played": true,
        "id": 29874576,
        "last_rank": 24330,
        "player_name": "Ole Martin Drevland",
        "rank": 23151,
        "rank_sort": 23235,
        "total": 2376
      },
      {
        "club_badge_src": null,
        "entry": 4045274,
        "entry_name": "Hill\u2019s Angels",
        "event_total": 67,
        "has_played": true,
        "id": 30510423,
        "last_rank": 31995,
        "player_name": "Jonathan Hill",
        "rank": 23151,
        "rank_sort": 23236,
        "total": 2376
      },
      {
        "club_badge_src": null,
        "entry": 4052097,
        "entry_name": "A Team Has No Name",
        "event_total": 61,
        "has_played": true,
        "id": 30566343,
        "last_rank": 26230,
        "player_name": "Vanessa Betancourt",
        "rank": 23151,
        "rank_sort": 23237,
        "total": 2376
      },
      {
        "club_badge_src": null,
        "entry": 4159607,
        "entry_name": "Hillas Skillas",
        "event_total": 66,
        "has_played": true,
        "id": 31445897,
        "last_rank": 27020,
        "player_name": "Markus Hilleren",
        "rank": 23151,
        "rank_sort": 23238,
        "total": 2376
      },
      {
        "club_badge_src": "https://fantasy.premierleague.com/gcs/plfpl-production-adobe-approved/plfpl-production/4196465/e92596b6-98ae-43c7-8b47-71f445ceedc0.png",
        "entry": 4196465,
        "entry_name": "Chamartin",
        "event_total": 71,
        "has_played": true,
        "id": 31761841,
        "last_rank": 31747,
        "player_name": "Salih Gecu",
        "rank": 23151,
        "rank_sort": 23239,
        "total": 2376
      },
      {
        "club_badge_src": null,
        "entry": 4421899,
        "entry_name": "underdogs",
        "event_total": 52,
        "has_played": true,
        "id": 33644769,
        "last_rank": 16320,
        "player_name": "james robertson",
        "rank": 23151,
        "rank_sort": 23240,
        "total": 2376
      },
      {
        "club_badge_src": null,
        "entry": 4465461,
        "entry_name": "Life Of Bryan",
        "event_total": 49,
        "has_played": true,
        "id": 34024863,
        "last_rank": 17078,
        "player_name": "Matt Savedra",
        "rank": 23151,
        "rank_sort": 23241,
        "total": 2376
      },
      {
        "club_badge_src": null,
        "entry": 4643445,
        "entry_name": "BQ BK",
        "event_total": 53,
        "has_played": true,
        "id": 35518270,
        "last_rank": 16807,
        "player_name": "William Bergqvist",
        "rank": 23151,
        "rank_sort": 23242,
        "total": 2376
      },
      {
        "club_badge_src": null,
        "entry": 4778004,
        "entry_name": "Lewangoalski",
        "event_total": 50,
        "has_played": true,
        "id": 36780310,
        "last_rank": 17718,
        "player_name": "otto winiecki",
        "rank": 23151,
        "rank_sort": 23243,
        "total": 2376
      },
      {
        "club_badge_src": null,
        "entry": 4803477,
        "entry_name": "Ben White is Popa",
        "event_total": 62,
        "has_played": true,
        "id": 36984639,
        "last_rank": 27203,
        "player_name": "Alex Cauchi",
        "rank": 23151,
        "rank_sort": 23244,
        "total": 2376
      },
      {
        "club_badge_src": null,
        "entry": 4843664,
        "entry_name": "FC Copenbadly",
        "event_total": 63,
        "has_played": true,
        "id": 37313526,
        "last_rank": 24039,
        "player_name": "Richard Gregson",
        "rank": 23151,
        "rank_sort": 23245,
        "total": 2376
      },
      {
        "club_badge_src": null,
        "entry": 4843953,
        "entry_name": "Banner Boys",
        "event_total": 68,
        "has_played": true,
        "id": 37315889,
        "last_rank": 33332,
        "player_name": "Brian Mooney",
        "rank": 23151,
        "rank_sort": 23246,
        "total": 2376
      },
      {
        "club_badge_src": null,
        "entry": 5188487,
        "entry_name": "Cunha godt t\u00e6nk mig",
        "event_total": 71,
        "has_played": true,
        "id": 40166399,
        "last_rank": 36831,
        "player_name": "Magnus Christiansen",
        "rank": 23151,
        "rank_sort": 23247,
        "total": 2376
      },
      {
        "club_badge_src": null,
        "entry": 5197298,
        "entry_name": "Slot Machine",
        "event_total": 56,
        "has_played": true,
        "id": 40241928,
        "last_rank": 18985,
        "player_name": "Dylan Bramall",
        "rank": 23151,
        "rank_sort": 23248,
        "total": 2376
      },
      {
        "club_badge_src": null,
        "entry": 5292234,
        "entry_name": "MinMax CF",
        "event_total": 72,
        "has_played": true,
        "id": 41021939,
        "last_rank": 37435,
        "player_name": "Jaleel Green",
        "rank": 23151,
        "rank_sort": 23249,
        "total": 2376
      },
      {
        "club_badge_src": null,
        "entry": 5333730,
        "entry_name": "Didier Deschampiones",
        "event_total": 65,
        "has_played": true,
        "id": 41350492,
        "last_rank": 26088,
        "player_name": "Thomas Lacavalerie",
        "rank": 23151,
        "rank_sort": 23250,
        "total": 2376
      }
    ]
  }
}