{
  "last_updated_data": "2026-05-24T23:28:17Z",
  "league": {
    "admin_entry": null,
    "closed": false,
    "code_privacy": "p",
    "created": "2025-07-20T23:14:33.933835Z",
    "cup_league": 2815434,
    "has_cup": true,
    "id": 314,
    "league_type": "s",
    "max_entries": null,
    "name": "Overall",
    "rank": null,
    "scoring": "c",
    "start_event": 1
  },
  "new_entries": {
    "has_next": false,
    "page": 1,
    "results": []
  },
  "standings": {
    "has_next": true,
    "page": 799,
    "results": [
      {
        "club_badge_src": null,
        "entry": 522250,
        "entry_name": "Ekitike-Taka",
        "event_total": 60,
        "has_played": true,
        "id": 3507510,
        "last_rank": 44048,
        "player_name": "Niklas B\u00fchler",
        "rank": 39837,
        "rank_sort": 39901,
        "total": 2359
      },
      {
        "club_badge_src": null,
        "entry": 564424,
        "entry_name": "Ribbit Werza Kofeo",
        "event_total": 51,
        "has_played": true,
        "id": 3799148,
        "last_rank": 32879,
        "player_name": "\u0141ukasz Dunajski",
        "rank": 39837,
        "rank_sort": 39902,
        "total": 2359
      },
      {
        "club_badge_src": null,
        "entry": 566675,
        "entry_name": "Hacunha Mateta",
        "event_total": 58,
        "has_played": true,
        "id": 3814028,
        "last_rank": 41324,
        "player_name": "Aaron Cran",
        "rank": 39837,
        "rank_sort": 39903,
        "total": 2359
      },
      {
        "club_badge_src": null,
        "entry": 570832,
        "entry_name": "Szczuny z Landu",
        "event_total": 65,
        "has_played": true,
        "id": 3841786,
        "last_rank": 51220,
        "player_name": "Mateusz Tomczak",
        "rank": 39837,
        "rank_sort": 39904,
        "total": 2359
      },
      {
        "club_badge_src": null,
        "entry": 603362,
        "entry_name": "Eat the rice!!!",
        "event_total": 66,
        "has_played": true,
        "id": 4072480,
        "last_rank": 53023,
        "player_name": "Michael Tong",
        "rank": 39837,
        "rank_sort": 39905,
        "total": 2359
      },
      {
        "club_badge_src": null,
        "entry": 630316,
        "entry_name": "Garnett",
        "event_total": 62,
        "has_played": true,
        "id": 4259321,
        "last_rank": 46660,
        "player_name": "Jon Cook",
        "rank": 39837,
        "rank_sort": 39906,
        "total": 2359
      },
      {
        "club_badge_src": null,
        "entry": 633558,
        "entry_name": "Netflix and Chilwell",
        "event_total": 34,
        "has_played": true,
        "id": 4281346,
        "last_rank": 18113,
        "player_name": "Noah Cornwell",
        "rank": 39837,
        "rank_sort": 39907,
        "total": 2359
      },
      {
        "club_badge_src": "https://fantasy.premierleague.com/gcs/plfpl-production-adobe-approved/plfpl-production/651460/4b841155-ac7a-4c83-aaf9-6f7363e84e89.png",
        "entry": 651460,
        "entry_name": "A Team Has No Luck",
        "event_total": 51,
        "has_played": true,
        "id": 4402634,
        "last_rank": 32751,
        "player_name": "Tshepo Chimidza",
        "rank": 39837,
        "rank_sort": 39908,
        "total": 2359
      },
      {
        "club_badge_src": null,
        "entry": 653076,
        "entry_name": "Romeo and Lavia",
        "event_total": 66,
        "has_played": true,
        "id": 4413520,
        "last_rank": 52853,
        "player_name": "Alvar Sahin",
        "rank": 39837,
        "rank_sort": 39909,
        "total": 2359
      },
      {
        "club_badge_src": null,
        "entry": 669669,
        "entry_name": "Club Cribari",
        "event_total": 72,
        "has_played": true,
        "id": 4529016,
        "last_rank": 63201,
        "player_name": "David Holbrook",
        "rank": 39837,
        "rank_sort": 39910,
        "total": 2359
      },
      {
        "club_badge_src": null,
        "entry": 679464,
        "entry_name": "Big Al X1",
        "event_total": 60,
        "has_played": true,
        "id": 4597853,
        "last_rank": 44048,
        "player_name": "Alex Pruthi",
        "rank": 39837,
        "rank_sort": 39911,
        "total": 2359
      },
      {
        "club_badge_src": null,
        "entry": 686859,
        "entry_name": "FC Moemfie",
        "event_total": 57,
        "has_played": true,
        "id": 4649866,
        "last_rank": 40036,
        "player_name": "Sonja Renaud",
        "rank": 39837,
        "rank_sort": 39912,
        "total": 2359
      },
      {
        "club_badge_src": null,
        "entry": 702777,
        "entry_name": "echipa c\u00e2\u0219tig\u0103toare",
        "event_total": 42,
        "has_played": true,
        "id": 4762074,
        "last_rank": 24330,
        "player_name": "Oliwer Haldin",
        "rank": 39837,
        "rank_sort": 39913,
        "total": 2359
      },
      {
        "club_badge_src": null,
        "entry": 716799,
        "entry_name": "NottinghamForrest***",
        "event_total": 59,
        "has_played": true,
        "id": 4863577,
        "last_rank": 42506,
        "player_name": "Tom Forrest",
        "rank": 39837,
        "rank_sort": 39914,
        "total": 2359
      },
      {
        "club_badge_src": null,
        "entry": 718863,
        "entry_name": "Dinamo F\u00f8rde",
        "event_total": 65,
        "has_played": true,
        "id": 4878681,
        "last_rank": 51403,
        "player_name": "Johan Pettersen",
        "rank": 39837,
        "rank_sort": 39915,
        "total": 2359
      },
      {
        "club_badge_src": null,
        "entry": 720826,
        "entry_name": "LJ UNITED",
        "event_total": 54,
        "has_played": true,
        "id": 4894187,
        "last_rank": 36200,
        "player_name": "Luke Johnson",
        "rank": 39837,
        "rank_sort": 39916,
        "total": 2359
      },
      {
        "club_badge_src": null,
        "entry": 727861,
        "entry_name": "West Bristol Albion",
        "event_total": 59,
        "has_played": true,
        "id": 4945059,
        "last_rank": 42648,
        "player_name": "Mike Beard",
        "rank": 39837,
        "rank_sort": 39917,
        "total": 2359
      },
      {
        "club_badge_src": null,
        "entry": 769712,
        "entry_name": "Flying Scotsmen",
        "event_total": 78,
        "has_played": true,
        "id": 5250701,
        "last_rank": 74741,
        "player_name": "Daryl Cook",
        "rank": 39837,
        "rank_sort": 39918,
        "total": 2359
      },
      {
        "club_badge_src": null,
        "entry": 773122,
        "entry_name": "block_blaster",
        "event_total": 60,
        "has_played": true,
        "id": 5274546,
        "last_rank": 43849,
        "player_name": "Knut Bakkemyr",
        "rank": 39837,
        "rank_sort": 39919,
        "total": 2359
      },
      {
        "club_badge_src": "https://fantasy.premierleague.com/gcs/plfpl-production-adobe-approved/plfpl-production/773360/2bf6d312-435e-4c10-8f98-82e16f37c117.png",
        "entry": 773360,
        "entry_name": "Silence of the Lahms",
        "event_total": 69,
        "has_played": true,
        "id": 5276257,
        "last_rank": 57723,
        "player_name": "Michael Cunningham",
        "rank": 39837,
        "rank_sort": 39920,
        "total": 2359
      },
      {
        "club_badge_src": null,
        "entry": 779894,
        "entry_name": "muckfourinho",
        "event_total": 51,
        "has_played": true,
        "id": 5324445,
        "last_rank": 28609,
        "player_name": "Anders Videb\u00e6k",
        "rank": 39837,
        "rank_sort": 39921,
        "total": 2359
      },
      {
        "club_badge_src": null,
        "entry": 798724,
        "entry_name": "Class on Grass",
        "event_total": 39,
        "has_played": true,
        "id": 5466906,
        "last_rank": 21677,
        "player_name": "Henry Welsh",
        "rank": 39837,
        "rank_sort": 39922,
        "total": 2359
      },
      {
        "club_badge_src": "https://fantasy.premierleague.com/gcs/plfpl-production-adobe-approved/plfpl-production/818248/50a76b08-53b3-4ab2-983f-3bd552e4d7d3.png",
        "entry": 818248,
        "entry_name": "Sukayo Blaka",
        "event_total": 52,
        "has_played": true,
        "id": 5603670,
        "last_rank": 34051,
        "player_name": "Kayden Mustafa",
        "rank": 39837,
        "rank_sort": 39923,
        "total": 2359
      },
      {
        "club_badge_src": null,
        "entry": 819303,
        "entry_name": "Out on Bale",
        "event_total": 57,
        "has_played": true,
        "id": 5611036,
        "last_rank": 40036,
        "player_name": "Ieuan Ashman",
        "rank": 39837,
        "rank_sort": 39924,
        "total": 2359
      },
      {
        "club_badge_src": null,
        "entry": 830605,
        "entry_name": "team dardy",
        "event_total": 56,
        "has_played": true,
        "id": 5689255,
        "last_rank": 38774,
        "player_name": "Mitchell Williamson",
        "rank": 39837,
        "rank_sort": 39925,
        "total": 2359
      },
      {
        "club_badge_src": null,
        "entry": 834214,
        "entry_name": "Its to Eze",
        "event_total": 68,
        "has_played": true,
        "id": 5714232,
        "last_rank": 56180,
        "player_name": "Toby Hunt",
        "rank": 39837,
        "rank_sort": 39926,
        "total": 2359
      },
      {
        "club_badge_src": null,
        "entry": 849141,
        "entry_name": "Cunha Tel Armstrong?",
        "event_total": 62,
        "has_played": true,
        "id": 5820197,
        "last_rank": 46591,
        "player_name": "Daniel Barker",
        "rank": 39837,
        "rank_sort": 39927,
        "total": 2359
      },
      {
        "club_badge_src": "https://fantasy.premierleague.com/gcs/plfpl-production-adobe-approved/plfpl-production/857229/3711073f-d324-4f60-9367-8f26a067f1c5.png",
        "entry": 857229,
        "entry_name": "O for Awesome",
        "event_total": 62,
        "has_played": true,
        "id": 5876001,
        "last_rank": 46839,
        "player_name": "antonio ARNAIZ",
        "rank": 39837,
        "rank_sort": 39928,
        "total": 2359
      },
      {
        "club_badge_src": null,
        "entry": 918310,
        "entry_name": "Timmons FC",
        "event_total": 68,
        "has_played": true,
        "id": 6315126,
        "last_rank": 56099,
        "player_name": "Andrew Timmons",
        "rank": 39837,
        "rank_sort": 39929,
        "total": 2359
      },
      {
        "club_badge_src": null,
        "entry": 932993,
        "entry_name": "Hopeful FC",
        "event_total": 71,
        "has_played": true,
        "id": 6420061,
        "last_rank": 61950,
        "player_name": "Barry Curtis",
        "rank": 39837,
        "rank_sort": 39930,
        "total": 2359
      },
      {
        "club_badge_src": null,
        "entry": 945327,
        "entry_name": "no logo on the foam",
        "event_total": 70,
        "has_played": true,
        "id": 6511118,
        "last_rank": 59813,
        "player_name": "super hans",
        "rank": 39837,
        "rank_sort": 39931,
        "total": 2359
      },
      {
        "club_badge_src": null,
        "entry": 948608,
        "entry_name": "Kleppaza FC",
        "event_total": 62,
        "has_played": true,
        "id": 6534377,
        "last_rank": 46839,
        "player_name": "Morten Kleppa",
        "rank": 39837,
        "rank_sort": 39932,
        "total": 2359
      },
      {
        "club_badge_src": null,
        "entry": 995099,
        "entry_name": "\u062d\u0641\u064a\u062f \u0627\u0644\u0633\u064a\u062f \u0627\u0644\u0628\u062f\u0648\u064a",
        "event_total": 58,
        "has_played": true,
        "id": 6867470,
        "last_rank": 41324,
        "player_name": "Zyad Ismail",
        "rank": 39837,
        "rank_sort": 39933,
        "total": 2359
      },
      {
        "club_badge_src": null,
        "entry": 1003141,
        "entry_name": "Cunha Pasta Bake",
        "event_total": 66,
        "has_played": true,
        "id": 6934305,
        "last_rank": 52853,
        "player_name": "Daniel Shields",
        "rank": 39837,
        "rank_sort": 39934,
        "total": 2359
      },
      {
        "club_badge_src": null,
        "entry": 1023706,
        "entry_name": "noodles",
        "event_total": 53,
        "has_played": true,
        "id": 7082575,
        "last_rank": 35034,
        "player_name": "Jordan Van Hoesel",
        "rank": 39837,
        "rank_sort": 39935,
        "total": 2359
      },
      {
        "club_badge_src": "https://fantasy.premierleague.com/gcs/plfpl-production-adobe-approved/plfpl-production/1024407/3c55e852-a07c-4431-9e95-1068e26ad70c.png",
        "entry": 1024407,
        "entry_name": "Kiyser Chiefs",
        "event_total": 63,
        "has_played": true,
        "id": 7087376,
        "last_rank": 48363,
        "player_name": "Richard Kiy",
        "rank": 39837,
        "rank_sort": 39936,
        "total": 2359
      },
      {
        "club_badge_src": "https://fantasy.premierleague.com/gcs/plfpl-production-adobe-approved/plfpl-production/1029127/be777de4-a24e-4886-821e-b890a6d83bd3.png",
        "entry": 1029127,
        "entry_name": "Petr Cech Yourself",
        "event_total": 51,
        "has_played": true,
        "id": 7120324,
        "last_rank": 32751,
        "player_name": "Henry Lai",
        "rank": 39837,
        "rank_sort": 39937,
        "total": 2359
      },
      {
        "club_badge_src": "https://fantasy.premierleague.com/gcs/plfpl-production-adobe-approved/plfpl-production/1031444/31e133e2-1fcb-4f7a-83bb-2817d4ec5497.png",
        "entry": 1031444,
        "entry_name": "mac 10",
        "event_total": 59,
        "has_played": true,
        "id": 7136316,
        "last_rank": 42648,
        "player_name": "Robert Coric",
        "rank": 39837,
        "rank_sort": 39938,
        "total": 2359
      },
      {
        "club_badge_src": null,
        "entry": 1055122,
        "entry_name": "Vikingos FC",
        "event_total": 58,
        "has_played": true,
        "id": 7302151,
        "last_rank": 41324,
        "player_name": "Angel Paredes",
        "rank": 39837,
        "rank_sort": 39939,
        "total": 2359
      },
      {
        "club_badge_src": null,
        "entry": 1082464,
        "entry_name": "lonczar",
        "event_total": 56,
        "has_played": true,
        "id": 7495239,
        "last_rank": 38774,
        "player_name": "Michal Kolodziejski",
        "rank": 39837,
        "rank_sort": 39940,
        "total": 2359
      },
      {
        "club_badge_src": null,
        "entry": 1082625,
        "entry_name": "Guinnny's Lilywhites",
        "event_total": 55,
        "has_played": true,
        "id": 7496393,
        "last_rank": 37589,
        "player_name": "Aidan McGuinness",
        "rank": 39837,
        "rank_sort": 39941,
        "total": 2359
      },
      {
        "club_badge_src": null,
        "entry": 1085834,
        "entry_name": "Oy Vey",
        "event_total": 65,
        "has_played": true,
        "id": 7519768,
        "last_rank": 51220,
        "player_name": "Harry Ruffy",
        "rank": 39837,
        "rank_sort": 39942,
        "total": 2359
      },
      {
        "club_badge_src": null,
        "entry": 1102060,
        "entry_name": "Med GRISSA",
        "event_total": 54,
        "has_played": true,
        "id": 7633696,
        "last_rank": 36348,
        "player_name": "grissa mohamed",
        "rank": 39837,
        "rank_sort": 39943,
        "total": 2359
      },
      {
        "club_badge_src": "https://fantasy.premierleague.com/gcs/plfpl-production-adobe-approved/plfpl-production/1120822/bdfae813-03d7-4812-bf53-cdeb619521d4.png",
        "entry": 1120822,
        "entry_name": "\u672c\u753a .",
        "event_total": 56,
        "has_played": true,
        "id": 7764912,
        "last_rank": 38774,
        "player_name": "Honcho Nifasent",
        "rank": 39837,
        "rank_sort": 39944,
        "total": 2359
      },
      {
        "club_badge_src": null,
        "entry": 1124050,
        "entry_name": "Josh still Playing ?",
        "event_total": 51,
        "has_played": true,
        "id": 7789715,
        "last_rank": 32751,
        "player_name": "Dean Boland",
        "rank": 39837,
        "rank_sort": 39945,
        "total": 2359
      },
      {
        "club_badge_src": null,
        "entry": 1125979,
        "entry_name": "Kick07",
        "event_total": 64,
        "has_played": true,
        "id": 7803456,
        "last_rank": 49880,
        "player_name": "Pranav Arora",
        "rank": 39837,
        "rank_sort": 39946,
        "total": 2359
      },
      {
        "club_badge_src": null,
        "entry": 1141080,
        "entry_name": "Haaland Trembles",
        "event_total": 56,
        "has_played": true,
        "id": 7909689,
        "last_rank": 38774,
        "player_name": "Mike Vincent",
        "rank": 39837,
        "rank_sort": 39947,
        "total": 2359
      },
      {
        "club_badge_src": null,
        "entry": 1157656,
        "entry_name": "latte'n'mocha",
        "event_total": 51,
        "has_played": true,
        "id": 8027406,
        "last_rank": 32879,
        "player_name": "Jo Kim",
        "rank": 39837,
        "rank_sort": 39948,
        "total": 2359
      },
      {
        "club_badge_src": "https://fantasy.premierleague.com/gcs/plfpl-production-adobe-approved/plfpl-production/1166696/400a833c-953c-4166-8c60-516fb1629078.png",
        "entry": 1166696,
        "entry_name": "Ducklan Rice \ufffd",
        "event_total": 57,
        "has_played": true,
        "id": 8093270,
        "last_rank": 40036,
        "player_name": "Diogo Camilo",
        "rank": 39837,
        "rank_sort": 39949,
        "total": 2359
      },
      {
        "club_badge_src": null,
        "entry": 1208296,
        "entry_name": "Boro Boyos",
        "event_total": 49,
        "has_played": true,
        "id": 8385381,
        "last_rank": 30957,
        "player_name": "Chris Thorne",
        "rank": 39837,
        "rank_sort": 39950,
        "total": 2359
      }
    ]
  }
}