{
  "last_updated_data": "2026-05-24T23:28:17Z",
  "league": {
    "admin_entry": null,
    "closed": false,
    "code_privacy": "p",
    "created": "2025-07-20T23:14:33.933835Z",
    "cup_league": 2815434,
    "has_cup": true,
    "id": 314,
    "league_type": "s",
    "max_entries": null,
    "name": "Overall",
    "rank": null,
    "scoring": "c",
    "start_event": 1
  },
  "new_entries": {
    "has_next": false,
    "page": 1,
    "results": []
  },
  "standings": {
    "has_next": true,
    "page": 1489,
    "results": [
      {
        "club_badge_src": null,
        "entry": 1048165,
        "entry_name": "6 cards",
        "event_total": 46,
        "has_played": true,
        "id": 7253846,
        "last_rank": 55311,
        "player_name": "Chi Wei Chan",
        "rank": 74308,
        "rank_sort": 74401,
        "total": 2338
      },
      {
        "club_badge_src": null,
        "entry": 1067440,
        "entry_name": "EL BOQA",
        "event_total": 52,
        "has_played": true,
        "id": 7389670,
        "last_rank": 65796,
        "player_name": "Aziz Boqa",
        "rank": 74308,
        "rank_sort": 74402,
        "total": 2338
      },
      {
        "club_badge_src": null,
        "entry": 1092600,
        "entry_name": "spurs",
        "event_total": 65,
        "has_played": true,
        "id": 7567236,
        "last_rank": 84360,
        "player_name": "Mohamed Mahmoud Abo Ali",
        "rank": 74308,
        "rank_sort": 74403,
        "total": 2338
      },
      {
        "club_badge_src": null,
        "entry": 1107414,
        "entry_name": "Real Rickomberga",
        "event_total": 34,
        "has_played": true,
        "id": 7670646,
        "last_rank": 38016,
        "player_name": "Alexander Reinius",
        "rank": 74308,
        "rank_sort": 74404,
        "total": 2338
      },
      {
        "club_badge_src": null,
        "entry": 1155373,
        "entry_name": "QuickBoys",
        "event_total": 34,
        "has_played": true,
        "id": 8011708,
        "last_rank": 38016,
        "player_name": "Lasse Loettgen",
        "rank": 74308,
        "rank_sort": 74405,
        "total": 2338
      },
      {
        "club_badge_src": null,
        "entry": 1238584,
        "entry_name": "Hildedal Hotshots",
        "event_total": 68,
        "has_played": true,
        "id": 8601203,
        "last_rank": 100700,
        "player_name": "Robert Olsson",
        "rank": 74308,
        "rank_sort": 74406,
        "total": 2338
      },
      {
        "club_badge_src": null,
        "entry": 1253734,
        "entry_name": "RICEonthesticcs",
        "event_total": 61,
        "has_played": true,
        "id": 8707735,
        "last_rank": 84731,
        "player_name": "Jordan Amany",
        "rank": 74308,
        "rank_sort": 74407,
        "total": 2338
      },
      {
        "club_badge_src": "https://fantasy.premierleague.com/gcs/plfpl-production-adobe-approved/plfpl-production/1263738/7ab3f0b7-698e-4254-a2bb-bb8143073abc.png",
        "entry": 1263738,
        "entry_name": "Lete\u0107i magarci",
        "event_total": 63,
        "has_played": true,
        "id": 8780429,
        "last_rank": 88594,
        "player_name": "Milan Djukic",
        "rank": 74308,
        "rank_sort": 74408,
        "total": 2338
      },
      {
        "club_badge_src": null,
        "entry": 1388070,
        "entry_name": "FC SOCKS",
        "event_total": 61,
        "has_played": true,
        "id": 9655233,
        "last_rank": 84360,
        "player_name": "Krystian Szymocha",
        "rank": 74308,
        "rank_sort": 74409,
        "total": 2338
      },
      {
        "club_badge_src": null,
        "entry": 1402339,
        "entry_name": "hama kurdy",
        "event_total": 45,
        "has_played": true,
        "id": 9757105,
        "last_rank": 41324,
        "player_name": "Mhamad Warakaune",
        "rank": 74308,
        "rank_sort": 74410,
        "total": 2338
      },
      {
        "club_badge_src": null,
        "entry": 1416150,
        "entry_name": "Agenten",
        "event_total": 40,
        "has_played": true,
        "id": 9859747,
        "last_rank": 45927,
        "player_name": "Noah Manderhjelm",
        "rank": 74308,
        "rank_sort": 74411,
        "total": 2338
      },
      {
        "club_badge_src": null,
        "entry": 1476488,
        "entry_name": "Untouchables",
        "event_total": 49,
        "has_played": true,
        "id": 10292870,
        "last_rank": 53345,
        "player_name": "Atif Raza",
        "rank": 74308,
        "rank_sort": 74412,
        "total": 2338
      },
      {
        "club_badge_src": null,
        "entry": 1496102,
        "entry_name": "Papaya Devils",
        "event_total": 59,
        "has_played": true,
        "id": 10433278,
        "last_rank": 71386,
        "player_name": "Jesper Sj\u00f6gren",
        "rank": 74308,
        "rank_sort": 74413,
        "total": 2338
      },
      {
        "club_badge_src": null,
        "entry": 1546049,
        "entry_name": "Fergie Time",
        "event_total": 63,
        "has_played": true,
        "id": 10793816,
        "last_rank": 88594,
        "player_name": "David Shan",
        "rank": 74308,
        "rank_sort": 74414,
        "total": 2338
      },
      {
        "club_badge_src": null,
        "entry": 1568567,
        "entry_name": "Paddy Power",
        "event_total": 64,
        "has_played": true,
        "id": 10957734,
        "last_rank": 91835,
        "player_name": "Patrick Williams",
        "rank": 74308,
        "rank_sort": 74415,
        "total": 2338
      },
      {
        "club_badge_src": "https://fantasy.premierleague.com/gcs/plfpl-production-adobe-approved/plfpl-production/1593517/5c5d1ebe-e4aa-4314-a301-64646c98e097.png",
        "entry": 1593517,
        "entry_name": "Wharton Earth",
        "event_total": 77,
        "has_played": true,
        "id": 11144888,
        "last_rank": 127384,
        "player_name": "Charlie Lawrence",
        "rank": 74308,
        "rank_sort": 74416,
        "total": 2338
      },
      {
        "club_badge_src": null,
        "entry": 1626236,
        "entry_name": "EA & SKY\u2019s No1 Hater",
        "event_total": 73,
        "has_played": true,
        "id": 11382514,
        "last_rank": 103978,
        "player_name": "Shakir Ndiaye",
        "rank": 74308,
        "rank_sort": 74417,
        "total": 2338
      },
      {
        "club_badge_src": null,
        "entry": 1656547,
        "entry_name": "VH",
        "event_total": 68,
        "has_played": true,
        "id": 11597686,
        "last_rank": 101818,
        "player_name": "Viktoria Hynynen",
        "rank": 74308,
        "rank_sort": 74418,
        "total": 2338
      },
      {
        "club_badge_src": null,
        "entry": 1669042,
        "entry_name": "Toby Macmane",
        "event_total": 67,
        "has_played": true,
        "id": 11685724,
        "last_rank": 89055,
        "player_name": "Shegun Laiyemo",
        "rank": 74308,
        "rank_sort": 74419,
        "total": 2338
      },
      {
        "club_badge_src": null,
        "entry": 1709356,
        "entry_name": "\u0623\u0646\u0627 1 \u0648 \u0623\u0641\u0631\u0632\u0648 \u0631\u0648\u0627\u062d\u0643\u0645",
        "event_total": 67,
        "has_played": true,
        "id": 11976473,
        "last_rank": 99296,
        "player_name": "\u0627\u0644\u0634\u064a\u062e \u0627\u0644\u062a\u0648\u0647\u0627\u0645\u064a",
        "rank": 74308,
        "rank_sort": 74420,
        "total": 2338
      },
      {
        "club_badge_src": null,
        "entry": 1829543,
        "entry_name": "FC Ozon City",
        "event_total": 67,
        "has_played": true,
        "id": 12868959,
        "last_rank": 98896,
        "player_name": "Kosta Tabakovi\u0107",
        "rank": 74308,
        "rank_sort": 74421,
        "total": 2338
      },
      {
        "club_badge_src": null,
        "entry": 1830345,
        "entry_name": "Frank out Igor in",
        "event_total": 60,
        "has_played": true,
        "id": 12874753,
        "last_rank": 82398,
        "player_name": "Kostas Kombostiotis",
        "rank": 74308,
        "rank_sort": 74422,
        "total": 2338
      },
      {
        "club_badge_src": null,
        "entry": 1901933,
        "entry_name": "SalaHaland",
        "event_total": 54,
        "has_played": true,
        "id": 13407500,
        "last_rank": 69641,
        "player_name": "Ivica Zivkusic",
        "rank": 74308,
        "rank_sort": 74423,
        "total": 2338
      },
      {
        "club_badge_src": null,
        "entry": 1910753,
        "entry_name": "Backstreet Moyes",
        "event_total": 44,
        "has_played": true,
        "id": 13471206,
        "last_rank": 51984,
        "player_name": "Ricky Sharp",
        "rank": 74308,
        "rank_sort": 74424,
        "total": 2338
      },
      {
        "club_badge_src": null,
        "entry": 1983587,
        "entry_name": "Jarrod Owing",
        "event_total": 51,
        "has_played": true,
        "id": 14010845,
        "last_rank": 64190,
        "player_name": "John O'Sullivan",
        "rank": 74308,
        "rank_sort": 74425,
        "total": 2338
      },
      {
        "club_badge_src": null,
        "entry": 2027604,
        "entry_name": "abcd",
        "event_total": 51,
        "has_played": true,
        "id": 14353587,
        "last_rank": 64005,
        "player_name": "Davor Martinovi\u0107",
        "rank": 74308,
        "rank_sort": 74426,
        "total": 2338
      },
      {
        "club_badge_src": null,
        "entry": 2034209,
        "entry_name": "Yoro Wizard Harry",
        "event_total": 34,
        "has_played": true,
        "id": 14402619,
        "last_rank": 38016,
        "player_name": "Adam Gallagher",
        "rank": 74308,
        "rank_sort": 74427,
        "total": 2338
      },
      {
        "club_badge_src": null,
        "entry": 2035561,
        "entry_name": "\u0627\u0644\u0645\u0631\u0639\u0628 \u0627\u0648\u064a",
        "event_total": 56,
        "has_played": true,
        "id": 14412727,
        "last_rank": 73423,
        "player_name": "Seif Alnazer",
        "rank": 74308,
        "rank_sort": 74428,
        "total": 2338
      },
      {
        "club_badge_src": null,
        "entry": 2128217,
        "entry_name": "lLong Live Riff Raff",
        "event_total": 44,
        "has_played": true,
        "id": 15122130,
        "last_rank": 51984,
        "player_name": "John o sullivan",
        "rank": 74308,
        "rank_sort": 74429,
        "total": 2338
      },
      {
        "club_badge_src": null,
        "entry": 2139691,
        "entry_name": "Barry's Allstars",
        "event_total": 44,
        "has_played": true,
        "id": 15206706,
        "last_rank": 51984,
        "player_name": "Barry Jenner",
        "rank": 74308,
        "rank_sort": 74430,
        "total": 2338
      },
      {
        "club_badge_src": "https://fantasy.premierleague.com/gcs/plfpl-production-adobe-approved/plfpl-production/2181450/b69111f4-1e53-4af6-b656-3820f73a1b51.png",
        "entry": 2181450,
        "entry_name": "Joao Pedro Pascal",
        "event_total": 58,
        "has_played": true,
        "id": 15515528,
        "last_rank": 77999,
        "player_name": "Toby Case",
        "rank": 74308,
        "rank_sort": 74431,
        "total": 2338
      },
      {
        "club_badge_src": "https://fantasy.premierleague.com/gcs/plfpl-production-adobe-approved/plfpl-production/2182254/7ef3c64e-233e-4b37-8ccf-a4900c829c6d.png",
        "entry": 2182254,
        "entry_name": "BABA-YAGA",
        "event_total": 59,
        "has_played": true,
        "id": 15521793,
        "last_rank": 80194,
        "player_name": "Veegee- 55",
        "rank": 74308,
        "rank_sort": 74432,
        "total": 2338
      },
      {
        "club_badge_src": null,
        "entry": 2189481,
        "entry_name": "Grucersy",
        "event_total": 63,
        "has_played": true,
        "id": 15576433,
        "last_rank": 89055,
        "player_name": "Tomasz Gruca",
        "rank": 74308,
        "rank_sort": 74433,
        "total": 2338
      },
      {
        "club_badge_src": "https://fantasy.premierleague.com/gcs/plfpl-production-adobe-approved/plfpl-production/2245168/cd815726-f897-4b73-a126-728db9625b47.png",
        "entry": 2245168,
        "entry_name": "BestTeamintheLeague",
        "event_total": 49,
        "has_played": true,
        "id": 15996370,
        "last_rank": 60168,
        "player_name": "Robin Newnham",
        "rank": 74308,
        "rank_sort": 74434,
        "total": 2338
      },
      {
        "club_badge_src": null,
        "entry": 2271440,
        "entry_name": "Zico Professionals",
        "event_total": 59,
        "has_played": true,
        "id": 16196507,
        "last_rank": 80194,
        "player_name": "Fred Agyiri",
        "rank": 74308,
        "rank_sort": 74435,
        "total": 2338
      },
      {
        "club_badge_src": null,
        "entry": 2339953,
        "entry_name": "Eze Goal",
        "event_total": 63,
        "has_played": true,
        "id": 16696096,
        "last_rank": 79817,
        "player_name": "Doron David",
        "rank": 74308,
        "rank_sort": 74436,
        "total": 2338
      },
      {
        "club_badge_src": "https://fantasy.premierleague.com/gcs/plfpl-production-adobe-approved/plfpl-production/2344832/df35d88b-0004-4b2f-b93c-4d868098ffcb.png",
        "entry": 2344832,
        "entry_name": "Lampard's Legends",
        "event_total": 59,
        "has_played": true,
        "id": 16731273,
        "last_rank": 80194,
        "player_name": "Duncan Shaw",
        "rank": 74308,
        "rank_sort": 74437,
        "total": 2338
      },
      {
        "club_badge_src": "https://fantasy.premierleague.com/gcs/plfpl-production-adobe-approved/plfpl-production/2358704/8cb12ba1-1fcf-40ba-9f1a-5327723b41d0.png",
        "entry": 2358704,
        "entry_name": "Adeta.",
        "event_total": 54,
        "has_played": true,
        "id": 16832802,
        "last_rank": 69641,
        "player_name": "Miftah Hibatullah",
        "rank": 74308,
        "rank_sort": 74438,
        "total": 2338
      },
      {
        "club_badge_src": null,
        "entry": 2367791,
        "entry_name": "Heroic",
        "event_total": 46,
        "has_played": true,
        "id": 16901638,
        "last_rank": 55514,
        "player_name": "Weravit Ratanasrivijit",
        "rank": 74308,
        "rank_sort": 74439,
        "total": 2338
      },
      {
        "club_badge_src": "https://fantasy.premierleague.com/gcs/plfpl-production-adobe-approved/plfpl-production/2391337/a905727f-09f9-4552-a9e5-85c8fbb77559.png",
        "entry": 2391337,
        "entry_name": "Qdeen FC",
        "event_total": 54,
        "has_played": true,
        "id": 17082058,
        "last_rank": 61950,
        "player_name": "Qamaldeen S",
        "rank": 74308,
        "rank_sort": 74440,
        "total": 2338
      },
      {
        "club_badge_src": null,
        "entry": 2432831,
        "entry_name": "pensioners united",
        "event_total": 62,
        "has_played": true,
        "id": 17396642,
        "last_rank": 86735,
        "player_name": "david zimmerman",
        "rank": 74308,
        "rank_sort": 74441,
        "total": 2338
      },
      {
        "club_badge_src": "https://fantasy.premierleague.com/gcs/plfpl-production-adobe-approved/plfpl-production/2456193/8425d708-f363-4db3-9440-a53faec876c2.png",
        "entry": 2456193,
        "entry_name": "Bad to the Bowen",
        "event_total": 44,
        "has_played": true,
        "id": 17568169,
        "last_rank": 51720,
        "player_name": "Adam Griffiths",
        "rank": 74308,
        "rank_sort": 74442,
        "total": 2338
      },
      {
        "club_badge_src": null,
        "entry": 2469350,
        "entry_name": "Aly's at the wheel",
        "event_total": 58,
        "has_played": true,
        "id": 17664979,
        "last_rank": 77258,
        "player_name": "Aly Gabr",
        "rank": 74308,
        "rank_sort": 74443,
        "total": 2338
      },
      {
        "club_badge_src": null,
        "entry": 2672460,
        "entry_name": "GyokOnMaKok",
        "event_total": 76,
        "has_played": true,
        "id": 19214644,
        "last_rank": 123908,
        "player_name": "Christopher McLeod",
        "rank": 74308,
        "rank_sort": 74444,
        "total": 2338
      },
      {
        "club_badge_src": "https://fantasy.premierleague.com/gcs/plfpl-production-adobe-approved/plfpl-production/2734724/823b9b0e-d10e-4fa2-b9d5-dc3be8bcce4d.png",
        "entry": 2734724,
        "entry_name": "FC REMONTADA",
        "event_total": 64,
        "has_played": true,
        "id": 19679851,
        "last_rank": 91466,
        "player_name": "Tarek Reda",
        "rank": 74308,
        "rank_sort": 74445,
        "total": 2338
      },
      {
        "club_badge_src": null,
        "entry": 2738859,
        "entry_name": "Chilmark Football",
        "event_total": 65,
        "has_played": true,
        "id": 19735264,
        "last_rank": 94255,
        "player_name": "Bryant Hosler",
        "rank": 74308,
        "rank_sort": 74446,
        "total": 2338
      },
      {
        "club_badge_src": "https://fantasy.premierleague.com/gcs/plfpl-production-adobe-approved/plfpl-production/2754107/2d13d0cd-f5ee-4308-af4d-94068ce7eaa1.png",
        "entry": 2754107,
        "entry_name": "Inter",
        "event_total": 48,
        "has_played": true,
        "id": 20044038,
        "last_rank": 58688,
        "player_name": "Osama Atieh",
        "rank": 74308,
        "rank_sort": 74447,
        "total": 2338
      },
      {
        "club_badge_src": "https://fantasy.premierleague.com/gcs/plfpl-production-adobe-approved/plfpl-production/2768624/dad1677b-a365-4368-b9f8-805c99171393.png",
        "entry": 2768624,
        "entry_name": "Young G - Awakening",
        "event_total": 67,
        "has_played": true,
        "id": 20200219,
        "last_rank": 98896,
        "player_name": "Candra parapat",
        "rank": 74308,
        "rank_sort": 74448,
        "total": 2338
      },
      {
        "club_badge_src": "https://fantasy.premierleague.com/gcs/plfpl-production-adobe-approved/plfpl-production/2774227/cb9a8c9c-ff16-4857-83bb-4a90080aa8be.png",
        "entry": 2774227,
        "entry_name": "Jimbo squad",
        "event_total": 61,
        "has_played": true,
        "id": 20245114,
        "last_rank": 74898,
        "player_name": "Ievgenii Skosar",
        "rank": 74308,
        "rank_sort": 74449,
        "total": 2338
      },
      {
        "club_badge_src": null,
        "entry": 2794838,
        "entry_name": "UFADEVILS",
        "event_total": 62,
        "has_played": true,
        "id": 20406898,
        "last_rank": 87074,
        "player_name": "aaron durham",
        "rank": 74308,
        "rank_sort": 74450,
        "total": 2338
      }
    ]
  }
}