{
  "last_updated_data": "2026-05-24T23:28:17Z",
  "league": {
    "admin_entry": null,
    "closed": false,
    "code_privacy": "p",
    "created": "2025-07-20T23:14:33.933835Z",
    "cup_league": 2815434,
    "has_cup": true,
    "id": 314,
    "league_type": "s",
    "max_entries": null,
    "name": "Overall",
    "rank": null,
    "scoring": "c",
    "start_event": 1
  },
  "new_entries": {
    "has_next": false,
    "page": 1,
    "results": []
  },
  "standings": {
    "has_next": true,
    "page": 1540,
    "results": [
      {
        "club_badge_src": null,
        "entry": 2591834,
        "entry_name": "Grefsen Glory",
        "event_total": 56,
        "has_played": true,
        "id": 18608688,
        "last_rank": 67926,
        "player_name": "Eirik Skjolden",
        "rank": 76861,
        "rank_sort": 76951,
        "total": 2337
      },
      {
        "club_badge_src": null,
        "entry": 2703820,
        "entry_name": "Hossam Badawy",
        "event_total": 55,
        "has_played": true,
        "id": 19451594,
        "last_rank": 66057,
        "player_name": "--Hossam Badawy--",
        "rank": 76861,
        "rank_sort": 76952,
        "total": 2337
      },
      {
        "club_badge_src": null,
        "entry": 2771450,
        "entry_name": "Ben FC",
        "event_total": 62,
        "has_played": true,
        "id": 20221647,
        "last_rank": 89897,
        "player_name": "Benjamin Springett",
        "rank": 76861,
        "rank_sort": 76953,
        "total": 2337
      },
      {
        "club_badge_src": null,
        "entry": 2772278,
        "entry_name": "Leeds by Example",
        "event_total": 66,
        "has_played": true,
        "id": 20228056,
        "last_rank": 99596,
        "player_name": "Chris Watson",
        "rank": 76861,
        "rank_sort": 76954,
        "total": 2337
      },
      {
        "club_badge_src": null,
        "entry": 2798831,
        "entry_name": "Todd's Leap of Faith",
        "event_total": 53,
        "has_played": true,
        "id": 20437580,
        "last_rank": 55311,
        "player_name": "Kris Todd",
        "rank": 76861,
        "rank_sort": 76955,
        "total": 2337
      },
      {
        "club_badge_src": null,
        "entry": 2808028,
        "entry_name": "Ugarte Party",
        "event_total": 57,
        "has_played": true,
        "id": 20508363,
        "last_rank": 78244,
        "player_name": "Steven Crook",
        "rank": 76861,
        "rank_sort": 76956,
        "total": 2337
      },
      {
        "club_badge_src": null,
        "entry": 2990369,
        "entry_name": "ReluctaNT Genius",
        "event_total": 53,
        "has_played": true,
        "id": 21992558,
        "last_rank": 69641,
        "player_name": "Thomas Knight",
        "rank": 76861,
        "rank_sort": 76957,
        "total": 2337
      },
      {
        "club_badge_src": null,
        "entry": 3057019,
        "entry_name": "Sch\u00e4r you serious",
        "event_total": 56,
        "has_played": true,
        "id": 22506516,
        "last_rank": 76128,
        "player_name": "Dan Marriage",
        "rank": 76861,
        "rank_sort": 76958,
        "total": 2337
      },
      {
        "club_badge_src": "https://fantasy.premierleague.com/gcs/plfpl-production-adobe-approved/plfpl-production/3156674/f1e9a76d-4615-462c-9649-8170653272b8.png",
        "entry": 3156674,
        "entry_name": "FPL Hack!",
        "event_total": 63,
        "has_played": true,
        "id": 23316173,
        "last_rank": 92332,
        "player_name": "Prithviraj Satav",
        "rank": 76861,
        "rank_sort": 76959,
        "total": 2337
      },
      {
        "club_badge_src": null,
        "entry": 3165401,
        "entry_name": "Scouser80",
        "event_total": 56,
        "has_played": true,
        "id": 23385044,
        "last_rank": 76330,
        "player_name": "Evan Ng",
        "rank": 76861,
        "rank_sort": 76960,
        "total": 2337
      },
      {
        "club_badge_src": null,
        "entry": 3319533,
        "entry_name": "Tears and Pain FC",
        "event_total": 68,
        "has_played": true,
        "id": 24601539,
        "last_rank": 104941,
        "player_name": "William Skaaden",
        "rank": 76861,
        "rank_sort": 76961,
        "total": 2337
      },
      {
        "club_badge_src": "https://fantasy.premierleague.com/gcs/plfpl-production-adobe-approved/plfpl-production/3408805/86c633bb-2980-41cb-bf3b-c76bb819cc85.png",
        "entry": 3408805,
        "entry_name": "DozoCopleto1",
        "event_total": 57,
        "has_played": true,
        "id": 25314989,
        "last_rank": 78575,
        "player_name": "Ahmad Auwal",
        "rank": 76861,
        "rank_sort": 76962,
        "total": 2337
      },
      {
        "club_badge_src": null,
        "entry": 3417723,
        "entry_name": "AAlshaikh27",
        "event_total": 66,
        "has_played": true,
        "id": 25385891,
        "last_rank": 99806,
        "player_name": "Abdulaziz Alshaikh",
        "rank": 76861,
        "rank_sort": 76963,
        "total": 2337
      },
      {
        "club_badge_src": null,
        "entry": 3458910,
        "entry_name": "BlaiseC",
        "event_total": 64,
        "has_played": true,
        "id": 25709587,
        "last_rank": 94778,
        "player_name": "Pascal Bambil",
        "rank": 76861,
        "rank_sort": 76964,
        "total": 2337
      },
      {
        "club_badge_src": null,
        "entry": 3588273,
        "entry_name": "Hassan",
        "event_total": 68,
        "has_played": true,
        "id": 26723024,
        "last_rank": 94537,
        "player_name": "Hassan Hadi",
        "rank": 76861,
        "rank_sort": 76965,
        "total": 2337
      },
      {
        "club_badge_src": "https://fantasy.premierleague.com/gcs/plfpl-production-adobe-approved/plfpl-production/3666288/9a60b1de-f5c8-48e6-b134-37cc2c8381c9.png",
        "entry": 3666288,
        "entry_name": "Man from N.K.U.N.K.U",
        "event_total": 61,
        "has_played": true,
        "id": 27342234,
        "last_rank": 87541,
        "player_name": "Brad Bradford",
        "rank": 76861,
        "rank_sort": 76966,
        "total": 2337
      },
      {
        "club_badge_src": null,
        "entry": 3692918,
        "entry_name": "GG",
        "event_total": 68,
        "has_played": true,
        "id": 27550397,
        "last_rank": 104941,
        "player_name": "Glenn May",
        "rank": 76861,
        "rank_sort": 76967,
        "total": 2337
      },
      {
        "club_badge_src": null,
        "entry": 3725664,
        "entry_name": "4-4-Sue",
        "event_total": 57,
        "has_played": true,
        "id": 27807180,
        "last_rank": 69907,
        "player_name": "Susan Mark",
        "rank": 76861,
        "rank_sort": 76968,
        "total": 2337
      },
      {
        "club_badge_src": null,
        "entry": 3796111,
        "entry_name": "Bought the League",
        "event_total": 41,
        "has_played": true,
        "id": 28374130,
        "last_rank": 49207,
        "player_name": "Makia Elliott",
        "rank": 76861,
        "rank_sort": 76969,
        "total": 2337
      },
      {
        "club_badge_src": null,
        "entry": 3836329,
        "entry_name": "Bend It Like Dec",
        "event_total": 61,
        "has_played": true,
        "id": 28710326,
        "last_rank": 78244,
        "player_name": "Jules Tessler",
        "rank": 76861,
        "rank_sort": 76970,
        "total": 2337
      },
      {
        "club_badge_src": "https://fantasy.premierleague.com/gcs/plfpl-production-adobe-approved/plfpl-production/3924326/d7e4a492-23b5-419f-b353-f5bbc0737ae4.png",
        "entry": 3924326,
        "entry_name": "Granit Expectations",
        "event_total": 52,
        "has_played": true,
        "id": 29511873,
        "last_rank": 68107,
        "player_name": "Charlie Bertuello",
        "rank": 76861,
        "rank_sort": 76971,
        "total": 2337
      },
      {
        "club_badge_src": "https://fantasy.premierleague.com/gcs/plfpl-production-adobe-approved/plfpl-production/3966072/a53a77cd-d6be-44fb-b2ad-bf4c79359ad5.png",
        "entry": 3966072,
        "entry_name": "BIG DEAL",
        "event_total": 64,
        "has_played": true,
        "id": 29843217,
        "last_rank": 94537,
        "player_name": "Ananta Diva",
        "rank": 76861,
        "rank_sort": 76972,
        "total": 2337
      },
      {
        "club_badge_src": null,
        "entry": 4043359,
        "entry_name": "Fetchdeballs Rovers",
        "event_total": 68,
        "has_played": true,
        "id": 30494572,
        "last_rank": 94255,
        "player_name": "Alan O-Loughlin",
        "rank": 76861,
        "rank_sort": 76973,
        "total": 2337
      },
      {
        "club_badge_src": null,
        "entry": 4173890,
        "entry_name": "Ricko Ball FC",
        "event_total": 38,
        "has_played": true,
        "id": 31569670,
        "last_rank": 44804,
        "player_name": "Benn Florance",
        "rank": 76861,
        "rank_sort": 76974,
        "total": 2337
      },
      {
        "club_badge_src": null,
        "entry": 4212972,
        "entry_name": "Jorginio Armani",
        "event_total": 67,
        "has_played": true,
        "id": 31899739,
        "last_rank": 92126,
        "player_name": "Jordan Cooper",
        "rank": 76861,
        "rank_sort": 76975,
        "total": 2337
      },
      {
        "club_badge_src": null,
        "entry": 4313124,
        "entry_name": "Saka & Rice, No Stew",
        "event_total": 56,
        "has_played": true,
        "id": 32729018,
        "last_rank": 76330,
        "player_name": "No Name",
        "rank": 76861,
        "rank_sort": 76976,
        "total": 2337
      },
      {
        "club_badge_src": "https://fantasy.premierleague.com/gcs/plfpl-production-adobe-approved/plfpl-production/4340734/db6fba63-d366-47d8-8a5d-d5ce374e0edb.png",
        "entry": 4340734,
        "entry_name": "KARMOSTAJI",
        "event_total": 56,
        "has_played": true,
        "id": 32957615,
        "last_rank": 67926,
        "player_name": "Mohammad Kowsari",
        "rank": 76861,
        "rank_sort": 76977,
        "total": 2337
      },
      {
        "club_badge_src": null,
        "entry": 4423995,
        "entry_name": "Nie FC",
        "event_total": 51,
        "has_played": true,
        "id": 33664630,
        "last_rank": 66200,
        "player_name": "Nigel Mundodzi",
        "rank": 76861,
        "rank_sort": 76978,
        "total": 2337
      },
      {
        "club_badge_src": null,
        "entry": 4543643,
        "entry_name": "Kes\u00e4heila",
        "event_total": 32,
        "has_played": true,
        "id": 34664852,
        "last_rank": 36963,
        "player_name": "Aleksi Vahteristo",
        "rank": 76861,
        "rank_sort": 76979,
        "total": 2337
      },
      {
        "club_badge_src": null,
        "entry": 4717461,
        "entry_name": "Octopus",
        "event_total": 58,
        "has_played": true,
        "id": 36226496,
        "last_rank": 71956,
        "player_name": "Khalid Al Sudairy",
        "rank": 76861,
        "rank_sort": 76980,
        "total": 2337
      },
      {
        "club_badge_src": null,
        "entry": 5075332,
        "entry_name": "bma",
        "event_total": 56,
        "has_played": true,
        "id": 39224138,
        "last_rank": 76330,
        "player_name": "Badsi Mohammed Ali",
        "rank": 76861,
        "rank_sort": 76981,
        "total": 2337
      },
      {
        "club_badge_src": "https://fantasy.premierleague.com/gcs/plfpl-production-adobe-approved/plfpl-production/5089105/e5d4dddd-14b5-4d17-b52a-b5a89d44c925.png",
        "entry": 5089105,
        "entry_name": "HANBAOBAO",
        "event_total": 72,
        "has_played": true,
        "id": 39333883,
        "last_rank": 115421,
        "player_name": "Azan Salahuddin",
        "rank": 76861,
        "rank_sort": 76982,
        "total": 2337
      },
      {
        "club_badge_src": null,
        "entry": 5296486,
        "entry_name": "Leckeys losers",
        "event_total": 57,
        "has_played": true,
        "id": 41055444,
        "last_rank": 78440,
        "player_name": "Phil Leckey",
        "rank": 76861,
        "rank_sort": 76983,
        "total": 2337
      },
      {
        "club_badge_src": null,
        "entry": 5658548,
        "entry_name": "Gunners",
        "event_total": 58,
        "has_played": true,
        "id": 44269907,
        "last_rank": 71956,
        "player_name": "Ahmed Elaraby",
        "rank": 76861,
        "rank_sort": 76984,
        "total": 2337
      },
      {
        "club_badge_src": null,
        "entry": 5689609,
        "entry_name": "8848FC",
        "event_total": 60,
        "has_played": true,
        "id": 44538783,
        "last_rank": 76128,
        "player_name": "Souraj Khadka",
        "rank": 76861,
        "rank_sort": 76985,
        "total": 2337
      },
      {
        "club_badge_src": null,
        "entry": 5808485,
        "entry_name": "Lads, It\u2019s Tottenham",
        "event_total": 55,
        "has_played": true,
        "id": 45573528,
        "last_rank": 74317,
        "player_name": "Charlie Lowe",
        "rank": 76861,
        "rank_sort": 76986,
        "total": 2337
      },
      {
        "club_badge_src": null,
        "entry": 5810128,
        "entry_name": "GnontopOfTheLeague",
        "event_total": 50,
        "has_played": true,
        "id": 45587320,
        "last_rank": 64190,
        "player_name": "Hezer Hussain",
        "rank": 76861,
        "rank_sort": 76987,
        "total": 2337
      },
      {
        "club_badge_src": null,
        "entry": 5934979,
        "entry_name": "GUNNA B GREAT",
        "event_total": 50,
        "has_played": true,
        "id": 46662907,
        "last_rank": 64319,
        "player_name": "Keedz Cee",
        "rank": 76861,
        "rank_sort": 76988,
        "total": 2337
      },
      {
        "club_badge_src": null,
        "entry": 6238228,
        "entry_name": "Vestre Spone",
        "event_total": 57,
        "has_played": true,
        "id": 49373456,
        "last_rank": 78244,
        "player_name": "Kjetil Andersen",
        "rank": 76861,
        "rank_sort": 76989,
        "total": 2337
      },
      {
        "club_badge_src": null,
        "entry": 6261878,
        "entry_name": "Abo 7anafy",
        "event_total": 61,
        "has_played": true,
        "id": 49579018,
        "last_rank": 78244,
        "player_name": "Mahmoud Mohammed",
        "rank": 76861,
        "rank_sort": 76990,
        "total": 2337
      },
      {
        "club_badge_src": null,
        "entry": 6408225,
        "entry_name": "cheesybeanochip",
        "event_total": 36,
        "has_played": true,
        "id": 50991921,
        "last_rank": 41824,
        "player_name": "Daimin Campbell",
        "rank": 76861,
        "rank_sort": 76991,
        "total": 2337
      },
      {
        "club_badge_src": "https://fantasy.premierleague.com/gcs/plfpl-production-adobe-approved/plfpl-production/6539367/368ab697-a093-438c-949e-ff41f56170ba.png",
        "entry": 6539367,
        "entry_name": "BlUe ElepHANT",
        "event_total": 61,
        "has_played": true,
        "id": 52171755,
        "last_rank": 87541,
        "player_name": "Ali Tamer",
        "rank": 76861,
        "rank_sort": 76992,
        "total": 2337
      },
      {
        "club_badge_src": "https://fantasy.premierleague.com/gcs/plfpl-production-adobe-approved/plfpl-production/6953904/9094b4a4-0e96-429f-8c13-722e140056f6.png",
        "entry": 6953904,
        "entry_name": "East District United",
        "event_total": 75,
        "has_played": true,
        "id": 55761313,
        "last_rank": 124961,
        "player_name": "Lisa Andres",
        "rank": 76861,
        "rank_sort": 76993,
        "total": 2337
      },
      {
        "club_badge_src": null,
        "entry": 6966373,
        "entry_name": "@zumo",
        "event_total": 46,
        "has_played": true,
        "id": 55874364,
        "last_rank": 57358,
        "player_name": "Netflix 140years",
        "rank": 76861,
        "rank_sort": 76994,
        "total": 2337
      },
      {
        "club_badge_src": "https://fantasy.premierleague.com/gcs/plfpl-production-adobe-approved/plfpl-production/7170181/23c7a573-e18d-4df1-839f-2f78dc9c63b7.png",
        "entry": 7170181,
        "entry_name": "Ben's Men",
        "event_total": 50,
        "has_played": true,
        "id": 57854614,
        "last_rank": 64422,
        "player_name": "Leon Loubser",
        "rank": 76861,
        "rank_sort": 76995,
        "total": 2337
      },
      {
        "club_badge_src": null,
        "entry": 7186263,
        "entry_name": "Flocol FC",
        "event_total": 59,
        "has_played": true,
        "id": 58005121,
        "last_rank": 82873,
        "player_name": "Florent Colling",
        "rank": 76861,
        "rank_sort": 76996,
        "total": 2337
      },
      {
        "club_badge_src": "https://fantasy.premierleague.com/gcs/plfpl-production-adobe-approved/plfpl-production/7224450/af44229b-bbec-4414-a989-0072899a15af.png",
        "entry": 7224450,
        "entry_name": "BigJ's Winning Squad",
        "event_total": 61,
        "has_played": true,
        "id": 58363716,
        "last_rank": 87541,
        "player_name": "Jaan Ross",
        "rank": 76861,
        "rank_sort": 76997,
        "total": 2337
      },
      {
        "club_badge_src": "https://fantasy.premierleague.com/gcs/plfpl-production-adobe-approved/plfpl-production/7234754/e2707d50-130d-40a2-b79d-bc259831d1e7.png",
        "entry": 7234754,
        "entry_name": "NAGA BARA",
        "event_total": 58,
        "has_played": true,
        "id": 58459482,
        "last_rank": 80651,
        "player_name": "Aza Sarif",
        "rank": 76861,
        "rank_sort": 76998,
        "total": 2337
      },
      {
        "club_badge_src": null,
        "entry": 7383692,
        "entry_name": "marwan",
        "event_total": 45,
        "has_played": true,
        "id": 59860586,
        "last_rank": 55659,
        "player_name": "Marwan Alqadi",
        "rank": 76861,
        "rank_sort": 76999,
        "total": 2337
      },
      {
        "club_badge_src": null,
        "entry": 7754636,
        "entry_name": "Here's Johnny!",
        "event_total": 68,
        "has_played": true,
        "id": 63663963,
        "last_rank": 104712,
        "player_name": "John Porter",
        "rank": 76861,
        "rank_sort": 77000,
        "total": 2337
      }
    ]
  }
}