{
  "last_updated_data": "2026-05-24T23:28:17Z",
  "league": {
    "admin_entry": null,
    "closed": false,
    "code_privacy": "p",
    "created": "2025-07-20T23:14:33.933835Z",
    "cup_league": 2815434,
    "has_cup": true,
    "id": 314,
    "league_type": "s",
    "max_entries": null,
    "name": "Overall",
    "rank": null,
    "scoring": "c",
    "start_event": 1
  },
  "new_entries": {
    "has_next": false,
    "page": 1,
    "results": []
  },
  "standings": {
    "has_next": true,
    "page": 1510,
    "results": [
      {
        "club_badge_src": null,
        "entry": 1205965,
        "entry_name": "Snoop Udogie Dogg",
        "event_total": 49,
        "has_played": true,
        "id": 8369150,
        "last_rank": 61315,
        "player_name": "Jake Meredith",
        "rank": 75441,
        "rank_sort": 75451,
        "total": 2337
      },
      {
        "club_badge_src": null,
        "entry": 1704859,
        "entry_name": "Game of Stones",
        "event_total": 56,
        "has_played": true,
        "id": 11943170,
        "last_rank": 74787,
        "player_name": "Nick Alcock",
        "rank": 75441,
        "rank_sort": 75452,
        "total": 2337
      },
      {
        "club_badge_src": null,
        "entry": 1745636,
        "entry_name": "\ufffd The Warrior",
        "event_total": 58,
        "has_played": true,
        "id": 12249220,
        "last_rank": 79190,
        "player_name": "Altayeb Cool",
        "rank": 75441,
        "rank_sort": 75453,
        "total": 2337
      },
      {
        "club_badge_src": null,
        "entry": 2020766,
        "entry_name": "Kinder Mbeumo",
        "event_total": 51,
        "has_played": true,
        "id": 14298991,
        "last_rank": 64777,
        "player_name": "Ethan Childs",
        "rank": 75441,
        "rank_sort": 75454,
        "total": 2337
      },
      {
        "club_badge_src": null,
        "entry": 2106646,
        "entry_name": "Gnier AS",
        "event_total": 56,
        "has_played": true,
        "id": 14950623,
        "last_rank": 74787,
        "player_name": "Kristoffer Yksn\u00f8y",
        "rank": 75441,
        "rank_sort": 75455,
        "total": 2337
      },
      {
        "club_badge_src": null,
        "entry": 2316628,
        "entry_name": "Peaky Reijnders",
        "event_total": 67,
        "has_played": true,
        "id": 16525784,
        "last_rank": 100700,
        "player_name": "Sam Keaveney",
        "rank": 75441,
        "rank_sort": 75456,
        "total": 2337
      },
      {
        "club_badge_src": null,
        "entry": 2410344,
        "entry_name": "kasa and thw wolves",
        "event_total": 42,
        "has_played": true,
        "id": 17229300,
        "last_rank": 49691,
        "player_name": "Or Ksantini",
        "rank": 75441,
        "rank_sort": 75457,
        "total": 2337
      },
      {
        "club_badge_src": null,
        "entry": 2631587,
        "entry_name": "Slotting It In",
        "event_total": 48,
        "has_played": true,
        "id": 18912486,
        "last_rank": 59632,
        "player_name": "Martin Donnelly",
        "rank": 75441,
        "rank_sort": 75458,
        "total": 2337
      },
      {
        "club_badge_src": null,
        "entry": 2782641,
        "entry_name": "DingDongAvonCalling",
        "event_total": 41,
        "has_played": true,
        "id": 20311642,
        "last_rank": 48197,
        "player_name": "Alex Abraham",
        "rank": 75441,
        "rank_sort": 75459,
        "total": 2337
      },
      {
        "club_badge_src": null,
        "entry": 3038636,
        "entry_name": "Next",
        "event_total": 59,
        "has_played": true,
        "id": 22364846,
        "last_rank": 81420,
        "player_name": "Bz Bee",
        "rank": 75441,
        "rank_sort": 75460,
        "total": 2337
      },
      {
        "club_badge_src": null,
        "entry": 3040173,
        "entry_name": "Botfrag",
        "event_total": 76,
        "has_played": true,
        "id": 22376871,
        "last_rank": 125869,
        "player_name": "Nurheri Susanto",
        "rank": 75441,
        "rank_sort": 75461,
        "total": 2337
      },
      {
        "club_badge_src": null,
        "entry": 3088586,
        "entry_name": "\u00c5mberg FC",
        "event_total": 61,
        "has_played": true,
        "id": 22758470,
        "last_rank": 85870,
        "player_name": "Jan Hedstr\u00f6m",
        "rank": 75441,
        "rank_sort": 75462,
        "total": 2337
      },
      {
        "club_badge_src": null,
        "entry": 3153124,
        "entry_name": "Mohamed_aldikheel",
        "event_total": 58,
        "has_played": true,
        "id": 23286857,
        "last_rank": 79190,
        "player_name": "Mohamed- Aldikheel",
        "rank": 75441,
        "rank_sort": 75463,
        "total": 2337
      },
      {
        "club_badge_src": "https://fantasy.premierleague.com/gcs/plfpl-production-adobe-approved/plfpl-production/3809285/0ced16de-6dda-40b2-9788-e323dff37e65.png",
        "entry": 3809285,
        "entry_name": "Retail Sociedad",
        "event_total": 52,
        "has_played": true,
        "id": 28481807,
        "last_rank": 66848,
        "player_name": "Nuno daCosta",
        "rank": 75441,
        "rank_sort": 75464,
        "total": 2337
      },
      {
        "club_badge_src": null,
        "entry": 3931032,
        "entry_name": "chido obi wan kanobi",
        "event_total": 58,
        "has_played": true,
        "id": 29565258,
        "last_rank": 79027,
        "player_name": "Harrison Holloway",
        "rank": 75441,
        "rank_sort": 75465,
        "total": 2337
      },
      {
        "club_badge_src": "https://fantasy.premierleague.com/gcs/plfpl-production-adobe-approved/plfpl-production/3954871/62ef123b-7679-4584-905d-30d172ed0ab9.png",
        "entry": 3954871,
        "entry_name": "Sparkle Sundae",
        "event_total": 54,
        "has_played": true,
        "id": 29753753,
        "last_rank": 70757,
        "player_name": "Madelyn Weeks",
        "rank": 75441,
        "rank_sort": 75466,
        "total": 2337
      },
      {
        "club_badge_src": null,
        "entry": 4035881,
        "entry_name": "Kneale Advocates",
        "event_total": 68,
        "has_played": true,
        "id": 30431538,
        "last_rank": 103254,
        "player_name": "Ashley Kneale",
        "rank": 75441,
        "rank_sort": 75467,
        "total": 2337
      },
      {
        "club_badge_src": null,
        "entry": 4254176,
        "entry_name": "Dzem & Krem",
        "event_total": 51,
        "has_played": true,
        "id": 32250960,
        "last_rank": 64943,
        "player_name": "Igor Stefanovic",
        "rank": 75441,
        "rank_sort": 75468,
        "total": 2337
      },
      {
        "club_badge_src": null,
        "entry": 4391965,
        "entry_name": "Wirtz Case Scenario",
        "event_total": 45,
        "has_played": true,
        "id": 33388662,
        "last_rank": 54494,
        "player_name": "Craig Thomas",
        "rank": 75441,
        "rank_sort": 75469,
        "total": 2337
      },
      {
        "club_badge_src": null,
        "entry": 4395749,
        "entry_name": "Real Bara",
        "event_total": 87,
        "has_played": true,
        "id": 33424200,
        "last_rank": 163377,
        "player_name": "Kristian Gustafsson",
        "rank": 75441,
        "rank_sort": 75470,
        "total": 2337
      },
      {
        "club_badge_src": null,
        "entry": 4477395,
        "entry_name": "Cassive Munt",
        "event_total": 62,
        "has_played": true,
        "id": 34122059,
        "last_rank": 88348,
        "player_name": "Adam Morris",
        "rank": 75441,
        "rank_sort": 75471,
        "total": 2337
      },
      {
        "club_badge_src": null,
        "entry": 4786146,
        "entry_name": "On Amad One",
        "event_total": 59,
        "has_played": true,
        "id": 36845228,
        "last_rank": 81244,
        "player_name": "Adam Byrne",
        "rank": 75441,
        "rank_sort": 75472,
        "total": 2337
      },
      {
        "club_badge_src": null,
        "entry": 4804641,
        "entry_name": "BackOfTheNeto",
        "event_total": 63,
        "has_played": true,
        "id": 36993873,
        "last_rank": 90524,
        "player_name": "Andy McClure",
        "rank": 75441,
        "rank_sort": 75473,
        "total": 2337
      },
      {
        "club_badge_src": null,
        "entry": 4913350,
        "entry_name": "The Almost Heroes",
        "event_total": 66,
        "has_played": true,
        "id": 37892147,
        "last_rank": 98011,
        "player_name": "Lisa Lawrence",
        "rank": 75441,
        "rank_sort": 75474,
        "total": 2337
      },
      {
        "club_badge_src": null,
        "entry": 5508049,
        "entry_name": "JP FC",
        "event_total": 65,
        "has_played": true,
        "id": 42929880,
        "last_rank": 95464,
        "player_name": "James Partington",
        "rank": 75441,
        "rank_sort": 75475,
        "total": 2337
      },
      {
        "club_badge_src": null,
        "entry": 5509739,
        "entry_name": "Beto Call Saul",
        "event_total": 34,
        "has_played": true,
        "id": 42944734,
        "last_rank": 38644,
        "player_name": "Douglas Scott",
        "rank": 75441,
        "rank_sort": 75476,
        "total": 2337
      },
      {
        "club_badge_src": null,
        "entry": 5756479,
        "entry_name": "Zulu Warriors",
        "event_total": 58,
        "has_played": true,
        "id": 45122622,
        "last_rank": 79027,
        "player_name": "Jacob Zulu",
        "rank": 75441,
        "rank_sort": 75477,
        "total": 2337
      },
      {
        "club_badge_src": null,
        "entry": 5957830,
        "entry_name": "Bobb's your uncle",
        "event_total": 38,
        "has_played": true,
        "id": 46868716,
        "last_rank": 43849,
        "player_name": "Britt Hatton",
        "rank": 75441,
        "rank_sort": 75478,
        "total": 2337
      },
      {
        "club_badge_src": null,
        "entry": 6169773,
        "entry_name": "Ashkonola",
        "event_total": 64,
        "has_played": true,
        "id": 48783969,
        "last_rank": 92973,
        "player_name": "Ash Camyab",
        "rank": 75441,
        "rank_sort": 75479,
        "total": 2337
      },
      {
        "club_badge_src": null,
        "entry": 6325663,
        "entry_name": "Fc ali",
        "event_total": 52,
        "has_played": true,
        "id": 50251623,
        "last_rank": 66738,
        "player_name": "Ali Mohamad",
        "rank": 75441,
        "rank_sort": 75480,
        "total": 2337
      },
      {
        "club_badge_src": null,
        "entry": 6476790,
        "entry_name": "Mind De Lap",
        "event_total": 64,
        "has_played": true,
        "id": 51613737,
        "last_rank": 93052,
        "player_name": "Tim W",
        "rank": 75441,
        "rank_sort": 75481,
        "total": 2337
      },
      {
        "club_badge_src": null,
        "entry": 6521908,
        "entry_name": "Broccoliboys",
        "event_total": 60,
        "has_played": true,
        "id": 52016782,
        "last_rank": 83498,
        "player_name": "Christoffer Stenerud",
        "rank": 75441,
        "rank_sort": 75482,
        "total": 2337
      },
      {
        "club_badge_src": null,
        "entry": 6702293,
        "entry_name": "7nkh team",
        "event_total": 54,
        "has_played": true,
        "id": 53628553,
        "last_rank": 70566,
        "player_name": "Muhaned Khalid",
        "rank": 75441,
        "rank_sort": 75483,
        "total": 2337
      },
      {
        "club_badge_src": null,
        "entry": 6750175,
        "entry_name": "Now I'm a Baleba",
        "event_total": 38,
        "has_played": true,
        "id": 54038854,
        "last_rank": 43849,
        "player_name": "Lewis Evans",
        "rank": 75441,
        "rank_sort": 75484,
        "total": 2337
      },
      {
        "club_badge_src": null,
        "entry": 7183716,
        "entry_name": "Los Merengues",
        "event_total": 62,
        "has_played": true,
        "id": 57980777,
        "last_rank": 88249,
        "player_name": "Leo Vulic",
        "rank": 75441,
        "rank_sort": 75485,
        "total": 2337
      },
      {
        "club_badge_src": null,
        "entry": 7462605,
        "entry_name": "Rice Rice Baby",
        "event_total": 81,
        "has_played": true,
        "id": 60799604,
        "last_rank": 142439,
        "player_name": "Joe Fitzpatrick",
        "rank": 75441,
        "rank_sort": 75486,
        "total": 2337
      },
      {
        "club_badge_src": null,
        "entry": 7480034,
        "entry_name": "TYPS",
        "event_total": 52,
        "has_played": true,
        "id": 61023254,
        "last_rank": 66848,
        "player_name": "Ty Pham-Swann",
        "rank": 75441,
        "rank_sort": 75487,
        "total": 2337
      },
      {
        "club_badge_src": null,
        "entry": 7973013,
        "entry_name": "hamza`s team",
        "event_total": 75,
        "has_played": true,
        "id": 65645021,
        "last_rank": 123120,
        "player_name": "Hamza El",
        "rank": 75441,
        "rank_sort": 75488,
        "total": 2337
      },
      {
        "club_badge_src": null,
        "entry": 8160312,
        "entry_name": "Limpan56",
        "event_total": 48,
        "has_played": true,
        "id": 67364448,
        "last_rank": 59475,
        "player_name": "Linus Widmark",
        "rank": 75441,
        "rank_sort": 75489,
        "total": 2337
      },
      {
        "club_badge_src": null,
        "entry": 8499806,
        "entry_name": "the cranberries pp",
        "event_total": 31,
        "has_played": true,
        "id": 70635628,
        "last_rank": 35034,
        "player_name": "May Day",
        "rank": 75441,
        "rank_sort": 75490,
        "total": 2337
      },
      {
        "club_badge_src": null,
        "entry": 8644291,
        "entry_name": "uh oh",
        "event_total": 71,
        "has_played": true,
        "id": 72029281,
        "last_rank": 111169,
        "player_name": "Campbell Porter",
        "rank": 75441,
        "rank_sort": 75491,
        "total": 2337
      },
      {
        "club_badge_src": null,
        "entry": 8709357,
        "entry_name": "The Tallis Men",
        "event_total": 64,
        "has_played": true,
        "id": 72669531,
        "last_rank": 93052,
        "player_name": "Richard Bullen",
        "rank": 75441,
        "rank_sort": 75492,
        "total": 2337
      },
      {
        "club_badge_src": null,
        "entry": 9038716,
        "entry_name": "17th again ole ole",
        "event_total": 67,
        "has_played": true,
        "id": 75854749,
        "last_rank": 100527,
        "player_name": "Dave Smillie",
        "rank": 75441,
        "rank_sort": 75493,
        "total": 2337
      },
      {
        "club_badge_src": null,
        "entry": 15522,
        "entry_name": "Poulavone's Finest",
        "event_total": 54,
        "has_played": true,
        "id": 95304,
        "last_rank": 70651,
        "player_name": "Karol Coleman",
        "rank": 75494,
        "rank_sort": 75494,
        "total": 2337
      },
      {
        "club_badge_src": null,
        "entry": 18483,
        "entry_name": "Salahlujah",
        "event_total": 62,
        "has_played": true,
        "id": 114986,
        "last_rank": 88348,
        "player_name": "Lucas Davidson",
        "rank": 75494,
        "rank_sort": 75495,
        "total": 2337
      },
      {
        "club_badge_src": "https://fantasy.premierleague.com/gcs/plfpl-production-adobe-approved/plfpl-production/25144/0b21cae4-fd84-4e6b-9abb-2a885b2df9d9.png",
        "entry": 25144,
        "entry_name": "ObliviousFC",
        "event_total": 61,
        "has_played": true,
        "id": 159011,
        "last_rank": 85932,
        "player_name": "Andreas Johansson",
        "rank": 75494,
        "rank_sort": 75496,
        "total": 2337
      },
      {
        "club_badge_src": null,
        "entry": 41123,
        "entry_name": "Makkaraperunat",
        "event_total": 30,
        "has_played": true,
        "id": 263535,
        "last_rank": 34051,
        "player_name": "Antti Kuru",
        "rank": 75494,
        "rank_sort": 75497,
        "total": 2337
      },
      {
        "club_badge_src": null,
        "entry": 41242,
        "entry_name": "11 Angry Men",
        "event_total": 56,
        "has_played": true,
        "id": 264260,
        "last_rank": 75139,
        "player_name": "Chintan Pasad",
        "rank": 75494,
        "rank_sort": 75498,
        "total": 2337
      },
      {
        "club_badge_src": null,
        "entry": 46463,
        "entry_name": "First the Wirtz",
        "event_total": 59,
        "has_played": true,
        "id": 297885,
        "last_rank": 81312,
        "player_name": "Ryan Gallagher",
        "rank": 75494,
        "rank_sort": 75499,
        "total": 2337
      },
      {
        "club_badge_src": null,
        "entry": 122228,
        "entry_name": "La Masia",
        "event_total": 58,
        "has_played": true,
        "id": 797444,
        "last_rank": 79431,
        "player_name": "Orea Karagueuzian",
        "rank": 75494,
        "rank_sort": 75500,
        "total": 2337
      }
    ]
  }
}