{
  "last_updated_data": "2026-05-24T23:28:17Z",
  "league": {
    "admin_entry": null,
    "closed": false,
    "code_privacy": "p",
    "created": "2025-07-20T23:14:33.933835Z",
    "cup_league": 2815434,
    "has_cup": true,
    "id": 314,
    "league_type": "s",
    "max_entries": null,
    "name": "Overall",
    "rank": null,
    "scoring": "c",
    "start_event": 1
  },
  "new_entries": {
    "has_next": false,
    "page": 1,
    "results": []
  },
  "standings": {
    "has_next": true,
    "page": 50,
    "results": [
      {
        "club_badge_src": null,
        "entry": 1179784,
        "entry_name": "Merseyside",
        "event_total": 49,
        "has_played": true,
        "id": 8185796,
        "last_rank": 1438,
        "player_name": "Davy Busk Hansen",
        "rank": 2442,
        "rank_sort": 2451,
        "total": 2430
      },
      {
        "club_badge_src": "https://fantasy.premierleague.com/gcs/plfpl-production-adobe-approved/plfpl-production/1557440/93d6d444-d305-4170-ac88-8ec0675cca6b.png",
        "entry": 1557440,
        "entry_name": "Isau 23Lane",
        "event_total": 67,
        "has_played": true,
        "id": 10875974,
        "last_rank": 3627,
        "player_name": "Shukor Hamid",
        "rank": 2442,
        "rank_sort": 2452,
        "total": 2430
      },
      {
        "club_badge_src": "https://fantasy.premierleague.com/gcs/plfpl-production-adobe-approved/plfpl-production/2305785/7ce34d4c-c487-4159-bb48-5469e0f0a7b6.png",
        "entry": 2305785,
        "entry_name": "Haaland Returns",
        "event_total": 59,
        "has_played": true,
        "id": 16446524,
        "last_rank": 2448,
        "player_name": "Emil Wahlberg",
        "rank": 2442,
        "rank_sort": 2453,
        "total": 2430
      },
      {
        "club_badge_src": null,
        "entry": 4472079,
        "entry_name": "Glockeres FC",
        "event_total": 59,
        "has_played": true,
        "id": 34079322,
        "last_rank": 2448,
        "player_name": "Mohammad Saleh Zubairi",
        "rank": 2442,
        "rank_sort": 2454,
        "total": 2430
      },
      {
        "club_badge_src": "https://fantasy.premierleague.com/gcs/plfpl-production-adobe-approved/plfpl-production/4811034/1885fe34-fa67-4a1c-bc3d-1e113231e74f.png",
        "entry": 4811034,
        "entry_name": "Steel City FC",
        "event_total": 58,
        "has_played": true,
        "id": 37044509,
        "last_rank": 2300,
        "player_name": "Joseph Meagher",
        "rank": 2442,
        "rank_sort": 2455,
        "total": 2430
      },
      {
        "club_badge_src": null,
        "entry": 4965034,
        "entry_name": "Samford Bridge",
        "event_total": 72,
        "has_played": true,
        "id": 38315872,
        "last_rank": 3699,
        "player_name": "Sam Singleton",
        "rank": 2442,
        "rank_sort": 2456,
        "total": 2430
      },
      {
        "club_badge_src": null,
        "entry": 4975538,
        "entry_name": "Redge FC",
        "event_total": 70,
        "has_played": true,
        "id": 38406033,
        "last_rank": 4099,
        "player_name": "Ethan Redshaw",
        "rank": 2442,
        "rank_sort": 2457,
        "total": 2430
      },
      {
        "club_badge_src": null,
        "entry": 5161536,
        "entry_name": "Hardly Athletic FC",
        "event_total": 45,
        "has_played": true,
        "id": 39942122,
        "last_rank": 1203,
        "player_name": "Jordan Edwards",
        "rank": 2442,
        "rank_sort": 2458,
        "total": 2430
      },
      {
        "club_badge_src": "https://fantasy.premierleague.com/gcs/plfpl-production-adobe-approved/plfpl-production/5515228/a57ed7fb-b2b2-4761-9b41-4ba0c2fdac00.png",
        "entry": 5515228,
        "entry_name": "Black Sox 1919",
        "event_total": 52,
        "has_played": true,
        "id": 42996426,
        "last_rank": 1712,
        "player_name": "Geir Modum",
        "rank": 2442,
        "rank_sort": 2459,
        "total": 2430
      },
      {
        "club_badge_src": null,
        "entry": 6193676,
        "entry_name": "Bakers Dozen",
        "event_total": 50,
        "has_played": true,
        "id": 48990953,
        "last_rank": 1563,
        "player_name": "Conor Johnson",
        "rank": 2442,
        "rank_sort": 2460,
        "total": 2430
      },
      {
        "club_badge_src": "https://fantasy.premierleague.com/gcs/plfpl-production-adobe-approved/plfpl-production/6554283/25d0f93d-90cd-40a7-a349-578944ef23d3.png",
        "entry": 6554283,
        "entry_name": "haaland fc",
        "event_total": 61,
        "has_played": true,
        "id": 52305204,
        "last_rank": 2189,
        "player_name": "Jake Holmes",
        "rank": 2442,
        "rank_sort": 2461,
        "total": 2430
      },
      {
        "club_badge_src": "https://fantasy.premierleague.com/gcs/plfpl-production-adobe-approved/plfpl-production/7000029/464cd15e-994b-4199-b053-2c857f1e8bdb.png",
        "entry": 7000029,
        "entry_name": "OneLastScore",
        "event_total": 66,
        "has_played": true,
        "id": 56203583,
        "last_rank": 3442,
        "player_name": "Paul Stewart",
        "rank": 2442,
        "rank_sort": 2462,
        "total": 2430
      },
      {
        "club_badge_src": null,
        "entry": 7327934,
        "entry_name": "FPL_X",
        "event_total": 65,
        "has_played": true,
        "id": 59338872,
        "last_rank": 2685,
        "player_name": "Jack Healey",
        "rank": 2442,
        "rank_sort": 2463,
        "total": 2430
      },
      {
        "club_badge_src": null,
        "entry": 7727233,
        "entry_name": "Vaaland Dampbakeri",
        "event_total": 64,
        "has_played": true,
        "id": 63416478,
        "last_rank": 3150,
        "player_name": "Marius Samuelsen",
        "rank": 2442,
        "rank_sort": 2464,
        "total": 2430
      },
      {
        "club_badge_src": null,
        "entry": 7975569,
        "entry_name": "Alexander EyeSack",
        "event_total": 58,
        "has_played": true,
        "id": 65667876,
        "last_rank": 1880,
        "player_name": "Niggesh Whotriedtoplayfool",
        "rank": 2442,
        "rank_sort": 2465,
        "total": 2430
      },
      {
        "club_badge_src": null,
        "entry": 19695,
        "entry_name": "Standard Of Work",
        "event_total": 65,
        "has_played": true,
        "id": 122561,
        "last_rank": 3331,
        "player_name": "Ronan Hughes",
        "rank": 2466,
        "rank_sort": 2466,
        "total": 2430
      },
      {
        "club_badge_src": null,
        "entry": 25927,
        "entry_name": "FC Krnjevo",
        "event_total": 58,
        "has_played": true,
        "id": 163954,
        "last_rank": 2328,
        "player_name": "Leo \u017darkovi\u0107",
        "rank": 2466,
        "rank_sort": 2467,
        "total": 2430
      },
      {
        "club_badge_src": "https://fantasy.premierleague.com/gcs/plfpl-production-adobe-approved/plfpl-production/32761/4f1d4374-bd02-48d1-9ce0-90d294cba945.png",
        "entry": 32761,
        "entry_name": "Jorgens66",
        "event_total": 60,
        "has_played": true,
        "id": 208557,
        "last_rank": 2611,
        "player_name": "J\u00f8rgen Michalsen",
        "rank": 2466,
        "rank_sort": 2468,
        "total": 2430
      },
      {
        "club_badge_src": null,
        "entry": 37805,
        "entry_name": "Ivory Toast",
        "event_total": 64,
        "has_played": true,
        "id": 242241,
        "last_rank": 2553,
        "player_name": "Charlie Dickson",
        "rank": 2466,
        "rank_sort": 2469,
        "total": 2430
      },
      {
        "club_badge_src": null,
        "entry": 66309,
        "entry_name": "Zidhana_Zidane",
        "event_total": 64,
        "has_played": true,
        "id": 428616,
        "last_rank": 2588,
        "player_name": "Dhana Khurnia",
        "rank": 2466,
        "rank_sort": 2470,
        "total": 2430
      },
      {
        "club_badge_src": "https://fantasy.premierleague.com/gcs/plfpl-production-adobe-approved/plfpl-production/242770/7e5447b6-21cf-4402-acf6-15f5289f0d72.png",
        "entry": 242770,
        "entry_name": "Los Guapos",
        "event_total": 38,
        "has_played": true,
        "id": 1616428,
        "last_rank": 842,
        "player_name": "Yerko Fischer",
        "rank": 2466,
        "rank_sort": 2471,
        "total": 2430
      },
      {
        "club_badge_src": null,
        "entry": 439546,
        "entry_name": "49 undefeated",
        "event_total": 67,
        "has_played": true,
        "id": 2947414,
        "last_rank": 3627,
        "player_name": "Josip Munitic",
        "rank": 2466,
        "rank_sort": 2472,
        "total": 2430
      },
      {
        "club_badge_src": null,
        "entry": 561475,
        "entry_name": "Malinmore United",
        "event_total": 63,
        "has_played": true,
        "id": 3779382,
        "last_rank": 2448,
        "player_name": "Darragh Cunningham",
        "rank": 2466,
        "rank_sort": 2473,
        "total": 2430
      },
      {
        "club_badge_src": null,
        "entry": 904496,
        "entry_name": "Fantasy XI",
        "event_total": 70,
        "has_played": true,
        "id": 6215153,
        "last_rank": 4186,
        "player_name": "Richie.N. Kharbuli",
        "rank": 2466,
        "rank_sort": 2474,
        "total": 2430
      },
      {
        "club_badge_src": null,
        "entry": 932189,
        "entry_name": "Botman and Robin",
        "event_total": 55,
        "has_played": true,
        "id": 6414435,
        "last_rank": 2027,
        "player_name": "Jamie Davison",
        "rank": 2466,
        "rank_sort": 2475,
        "total": 2430
      },
      {
        "club_badge_src": null,
        "entry": 1800153,
        "entry_name": "Crveni vragovi",
        "event_total": 53,
        "has_played": true,
        "id": 12651857,
        "last_rank": 1816,
        "player_name": "Eugen Da\u0161evci",
        "rank": 2466,
        "rank_sort": 2476,
        "total": 2430
      },
      {
        "club_badge_src": null,
        "entry": 2132815,
        "entry_name": "Omar.mufc",
        "event_total": 61,
        "has_played": true,
        "id": 15156445,
        "last_rank": 2215,
        "player_name": "Omar Alshaya",
        "rank": 2466,
        "rank_sort": 2477,
        "total": 2430
      },
      {
        "club_badge_src": null,
        "entry": 2791861,
        "entry_name": "Shaw to win Dalot",
        "event_total": 59,
        "has_played": true,
        "id": 20383408,
        "last_rank": 2448,
        "player_name": "Uzair Hussain",
        "rank": 2466,
        "rank_sort": 2478,
        "total": 2430
      },
      {
        "club_badge_src": null,
        "entry": 6534790,
        "entry_name": "RED DEVILS",
        "event_total": 52,
        "has_played": true,
        "id": 52131647,
        "last_rank": 1712,
        "player_name": "\u0639\u0628\u062f\u0627\u0644\u0645\u062c\u064a\u062f \u0641\u0647\u062f",
        "rank": 2466,
        "rank_sort": 2479,
        "total": 2430
      },
      {
        "club_badge_src": null,
        "entry": 9365668,
        "entry_name": "Shankland Redemption",
        "event_total": 65,
        "has_played": true,
        "id": 79038525,
        "last_rank": 3257,
        "player_name": "Harry Hood",
        "rank": 2466,
        "rank_sort": 2480,
        "total": 2430
      },
      {
        "club_badge_src": null,
        "entry": 102020,
        "entry_name": "Toon v the six",
        "event_total": 59,
        "has_played": true,
        "id": 665623,
        "last_rank": 2482,
        "player_name": "john purvis",
        "rank": 2481,
        "rank_sort": 2481,
        "total": 2430
      },
      {
        "club_badge_src": "https://fantasy.premierleague.com/gcs/plfpl-production-adobe-approved/plfpl-production/323993/e8ac5f81-4050-43e4-8a05-aa121f6dd4aa.png",
        "entry": 323993,
        "entry_name": "oceanpick",
        "event_total": 54,
        "has_played": true,
        "id": 2171097,
        "last_rank": 1938,
        "player_name": "Ewan Baker",
        "rank": 2481,
        "rank_sort": 2482,
        "total": 2430
      },
      {
        "club_badge_src": "https://fantasy.premierleague.com/gcs/plfpl-production-adobe-approved/plfpl-production/605128/b5a0d41e-2b85-48ee-b01a-c26171e448e7.png",
        "entry": 605128,
        "entry_name": "Podo F.C.",
        "event_total": 61,
        "has_played": true,
        "id": 4085393,
        "last_rank": 2235,
        "player_name": "JUNGSUN PARK",
        "rank": 2481,
        "rank_sort": 2483,
        "total": 2430
      },
      {
        "club_badge_src": null,
        "entry": 3681544,
        "entry_name": "Yoro for a hostel",
        "event_total": 70,
        "has_played": true,
        "id": 27460450,
        "last_rank": 4223,
        "player_name": "Fionn Lynch",
        "rank": 2481,
        "rank_sort": 2484,
        "total": 2430
      },
      {
        "club_badge_src": null,
        "entry": 4882738,
        "entry_name": "\u0627\u0644\u0642\u0627\u062f\u0645\u0648\u0646 \u0645\u0646 \u0627\u0644\u062e\u0644\u0641",
        "event_total": 44,
        "has_played": true,
        "id": 37641622,
        "last_rank": 1171,
        "player_name": "Sherif Ahmed",
        "rank": 2481,
        "rank_sort": 2485,
        "total": 2430
      },
      {
        "club_badge_src": null,
        "entry": 9651,
        "entry_name": "Los Colchoneros",
        "event_total": 52,
        "has_played": true,
        "id": 56809,
        "last_rank": 1394,
        "player_name": "Cameron Bates",
        "rank": 2486,
        "rank_sort": 2486,
        "total": 2430
      },
      {
        "club_badge_src": null,
        "entry": 637038,
        "entry_name": "Kinder Mbeumo",
        "event_total": 53,
        "has_played": true,
        "id": 4305368,
        "last_rank": 1486,
        "player_name": "Brad Ward",
        "rank": 2486,
        "rank_sort": 2487,
        "total": 2430
      },
      {
        "club_badge_src": null,
        "entry": 1268557,
        "entry_name": "Nawaf77",
        "event_total": 71,
        "has_played": true,
        "id": 8814060,
        "last_rank": 3648,
        "player_name": "I Nawaf",
        "rank": 2486,
        "rank_sort": 2488,
        "total": 2430
      },
      {
        "club_badge_src": "https://fantasy.premierleague.com/gcs/plfpl-production-adobe-approved/plfpl-production/15708/16cda8d1-fef3-4a49-866e-bf2a895d6a89.png",
        "entry": 15708,
        "entry_name": "American Eagle",
        "event_total": 57,
        "has_played": true,
        "id": 96638,
        "last_rank": 1832,
        "player_name": "Vicki Davis",
        "rank": 2489,
        "rank_sort": 2489,
        "total": 2430
      },
      {
        "club_badge_src": null,
        "entry": 71771,
        "entry_name": "Pep Guardiola FC",
        "event_total": 68,
        "has_played": true,
        "id": 466221,
        "last_rank": 3202,
        "player_name": "Muhammad Hafiz Othman 1027",
        "rank": 2489,
        "rank_sort": 2490,
        "total": 2430
      },
      {
        "club_badge_src": null,
        "entry": 501421,
        "entry_name": "JOB\u00d8X fc",
        "event_total": 75,
        "has_played": true,
        "id": 3365017,
        "last_rank": 4431,
        "player_name": "Y\u00f8usif Amir",
        "rank": 2489,
        "rank_sort": 2491,
        "total": 2430
      },
      {
        "club_badge_src": null,
        "entry": 657357,
        "entry_name": "Ameobi-Wan Kenobi",
        "event_total": 80,
        "has_played": true,
        "id": 4442384,
        "last_rank": 6614,
        "player_name": "Mikal Dale",
        "rank": 2489,
        "rank_sort": 2492,
        "total": 2430
      },
      {
        "club_badge_src": null,
        "entry": 795971,
        "entry_name": "Abouzaid FC",
        "event_total": 74,
        "has_played": true,
        "id": 5447488,
        "last_rank": 5092,
        "player_name": "Ahmed Amr Ali",
        "rank": 2489,
        "rank_sort": 2493,
        "total": 2430
      },
      {
        "club_badge_src": null,
        "entry": 5031495,
        "entry_name": "saif",
        "event_total": 52,
        "has_played": true,
        "id": 38861596,
        "last_rank": 1744,
        "player_name": "saif 8",
        "rank": 2489,
        "rank_sort": 2494,
        "total": 2430
      },
      {
        "club_badge_src": null,
        "entry": 1094799,
        "entry_name": "Joao soon is now?",
        "event_total": 59,
        "has_played": true,
        "id": 7582648,
        "last_rank": 2045,
        "player_name": "Roy Greig",
        "rank": 2495,
        "rank_sort": 2495,
        "total": 2430
      },
      {
        "club_badge_src": null,
        "entry": 5191086,
        "entry_name": "JC'S 11",
        "event_total": 59,
        "has_played": true,
        "id": 40188838,
        "last_rank": 2045,
        "player_name": "Alameen Jc",
        "rank": 2495,
        "rank_sort": 2496,
        "total": 2430
      },
      {
        "club_badge_src": null,
        "entry": 875250,
        "entry_name": "Lalasia Azaro",
        "event_total": 67,
        "has_played": true,
        "id": 6000665,
        "last_rank": 3676,
        "player_name": "Lalas Abubakar",
        "rank": 2497,
        "rank_sort": 2497,
        "total": 2430
      },
      {
        "club_badge_src": "https://fantasy.premierleague.com/gcs/plfpl-production-adobe-approved/plfpl-production/5754666/b4098b3b-f8a9-440e-9d7e-812018d27ed0.png",
        "entry": 5754666,
        "entry_name": "Cheesy Blicky",
        "event_total": 66,
        "has_played": true,
        "id": 45107546,
        "last_rank": 3502,
        "player_name": "Rodrigo Quezada",
        "rank": 2497,
        "rank_sort": 2498,
        "total": 2430
      },
      {
        "club_badge_src": null,
        "entry": 4185142,
        "entry_name": "Woke Nonisense",
        "event_total": 56,
        "has_played": true,
        "id": 31665706,
        "last_rank": 2161,
        "player_name": "G C",
        "rank": 2499,
        "rank_sort": 2499,
        "total": 2430
      },
      {
        "club_badge_src": null,
        "entry": 807205,
        "entry_name": "AMORIM-DEVILS",
        "event_total": 65,
        "has_played": true,
        "id": 5526130,
        "last_rank": 3372,
        "player_name": "Wojciech Mazur",
        "rank": 2500,
        "rank_sort": 2500,
        "total": 2430
      }
    ]
  }
}