{
  "last_updated_data": "2026-05-24T23:28:17Z",
  "league": {
    "admin_entry": null,
    "closed": false,
    "code_privacy": "p",
    "created": "2025-07-20T23:14:33.933835Z",
    "cup_league": 2815434,
    "has_cup": true,
    "id": 314,
    "league_type": "s",
    "max_entries": null,
    "name": "Overall",
    "rank": null,
    "scoring": "c",
    "start_event": 1
  },
  "new_entries": {
    "has_next": false,
    "page": 1,
    "results": []
  },
  "standings": {
    "has_next": true,
    "page": 370,
    "results": [
      {
        "club_badge_src": null,
        "entry": 156014,
        "entry_name": "Marseille Roulette",
        "event_total": 65,
        "has_played": true,
        "id": 1025791,
        "last_rank": 24143,
        "player_name": "Ryan Tang",
        "rank": 18428,
        "rank_sort": 18451,
        "total": 2382
      },
      {
        "club_badge_src": "https://fantasy.premierleague.com/gcs/plfpl-production-adobe-approved/plfpl-production/163285/6e9118cc-1188-4dcc-b297-07f7c04d9bba.png",
        "entry": 163285,
        "entry_name": "BenJumpin Sesko",
        "event_total": 49,
        "has_played": true,
        "id": 1076883,
        "last_rank": 13257,
        "player_name": "Akash V Bhat",
        "rank": 18428,
        "rank_sort": 18452,
        "total": 2382
      },
      {
        "club_badge_src": null,
        "entry": 220877,
        "entry_name": "Reid's Rockets",
        "event_total": 60,
        "has_played": true,
        "id": 1469037,
        "last_rank": 20280,
        "player_name": "Simon Reid",
        "rank": 18428,
        "rank_sort": 18453,
        "total": 2382
      },
      {
        "club_badge_src": null,
        "entry": 222970,
        "entry_name": "Amad It Again",
        "event_total": 36,
        "has_played": true,
        "id": 1483189,
        "last_rank": 6409,
        "player_name": "William Drummond",
        "rank": 18428,
        "rank_sort": 18454,
        "total": 2382
      },
      {
        "club_badge_src": null,
        "entry": 235838,
        "entry_name": "Loki \ufffd",
        "event_total": 52,
        "has_played": true,
        "id": 1569241,
        "last_rank": 15063,
        "player_name": "Jaber Mohamed",
        "rank": 18428,
        "rank_sort": 18455,
        "total": 2382
      },
      {
        "club_badge_src": "https://fantasy.premierleague.com/gcs/plfpl-production-adobe-approved/plfpl-production/235924/bdd61f0f-0cf2-43b8-b90e-c15b34a1624f.png",
        "entry": 235924,
        "entry_name": "hong snook",
        "event_total": 58,
        "has_played": true,
        "id": 1569806,
        "last_rank": 18790,
        "player_name": "Ethan O Brien",
        "rank": 18428,
        "rank_sort": 18456,
        "total": 2382
      },
      {
        "club_badge_src": null,
        "entry": 253785,
        "entry_name": "Ac Me Rollin",
        "event_total": 61,
        "has_played": true,
        "id": 1688126,
        "last_rank": 20888,
        "player_name": "Hubert C",
        "rank": 18428,
        "rank_sort": 18457,
        "total": 2382
      },
      {
        "club_badge_src": "https://fantasy.premierleague.com/gcs/plfpl-production-adobe-approved/plfpl-production/260173/63c07df6-a5fb-49ae-888b-83c006d5d226.png",
        "entry": 260173,
        "entry_name": "Royal Blue Mersey",
        "event_total": 36,
        "has_played": true,
        "id": 1729678,
        "last_rank": 7676,
        "player_name": "Liam Cullen",
        "rank": 18428,
        "rank_sort": 18458,
        "total": 2382
      },
      {
        "club_badge_src": null,
        "entry": 291837,
        "entry_name": "My Tips Don't Lie",
        "event_total": 58,
        "has_played": true,
        "id": 1946851,
        "last_rank": 18790,
        "player_name": "Kyle Gilbertson",
        "rank": 18428,
        "rank_sort": 18459,
        "total": 2382
      },
      {
        "club_badge_src": "https://fantasy.premierleague.com/gcs/plfpl-production-adobe-approved/plfpl-production/311699/fbd9c727-12b3-4001-b76a-04c0506a674e.png",
        "entry": 311699,
        "entry_name": "Brown&Bad",
        "event_total": 72,
        "has_played": true,
        "id": 2088235,
        "last_rank": 30600,
        "player_name": "Angel Mainali",
        "rank": 18428,
        "rank_sort": 18460,
        "total": 2382
      },
      {
        "club_badge_src": null,
        "entry": 376048,
        "entry_name": "Unagi Warriors",
        "event_total": 68,
        "has_played": true,
        "id": 2518154,
        "last_rank": 26710,
        "player_name": "Ross Mcalpine",
        "rank": 18428,
        "rank_sort": 18461,
        "total": 2382
      },
      {
        "club_badge_src": null,
        "entry": 409160,
        "entry_name": "This is the Wirtz",
        "event_total": 66,
        "has_played": true,
        "id": 2743738,
        "last_rank": 24897,
        "player_name": "Chris Fry",
        "rank": 18428,
        "rank_sort": 18462,
        "total": 2382
      },
      {
        "club_badge_src": "https://fantasy.premierleague.com/gcs/plfpl-production-adobe-approved/plfpl-production/411870/ce9d415a-3ec1-4ee1-8bde-291d79fcb718.png",
        "entry": 411870,
        "entry_name": "Seagull Rock A.F.C.",
        "event_total": 63,
        "has_played": true,
        "id": 2761592,
        "last_rank": 22534,
        "player_name": "Alexander Whitehead",
        "rank": 18428,
        "rank_sort": 18463,
        "total": 2382
      },
      {
        "club_badge_src": "https://fantasy.premierleague.com/gcs/plfpl-production-adobe-approved/plfpl-production/436007/7004077d-5190-460e-b3bd-a61243dd6612.png",
        "entry": 436007,
        "entry_name": "Panic! at the Villa",
        "event_total": 60,
        "has_played": true,
        "id": 2923700,
        "last_rank": 20280,
        "player_name": "Gabriel Bueno",
        "rank": 18428,
        "rank_sort": 18464,
        "total": 2382
      },
      {
        "club_badge_src": null,
        "entry": 458953,
        "entry_name": "Tuchel For School",
        "event_total": 59,
        "has_played": true,
        "id": 3078956,
        "last_rank": 19721,
        "player_name": "Sam Whale",
        "rank": 18428,
        "rank_sort": 18465,
        "total": 2382
      },
      {
        "club_badge_src": null,
        "entry": 461996,
        "entry_name": "Rutter Woke Nonsense",
        "event_total": 42,
        "has_played": true,
        "id": 3099063,
        "last_rank": 9942,
        "player_name": "Liam Biddle",
        "rank": 18428,
        "rank_sort": 18466,
        "total": 2382
      },
      {
        "club_badge_src": null,
        "entry": 476347,
        "entry_name": "Me, Myself, Ndiaye",
        "event_total": 58,
        "has_played": true,
        "id": 3197545,
        "last_rank": 18691,
        "player_name": "Mark Goulding",
        "rank": 18428,
        "rank_sort": 18467,
        "total": 2382
      },
      {
        "club_badge_src": null,
        "entry": 557459,
        "entry_name": "snow pea in repose",
        "event_total": 66,
        "has_played": true,
        "id": 3751658,
        "last_rank": 24897,
        "player_name": "Pete Viso II",
        "rank": 18428,
        "rank_sort": 18468,
        "total": 2382
      },
      {
        "club_badge_src": null,
        "entry": 568266,
        "entry_name": "here we go again",
        "event_total": 71,
        "has_played": true,
        "id": 3824791,
        "last_rank": 29522,
        "player_name": "Matthew Richards",
        "rank": 18428,
        "rank_sort": 18469,
        "total": 2382
      },
      {
        "club_badge_src": null,
        "entry": 609861,
        "entry_name": "Saka Potatoes",
        "event_total": 68,
        "has_played": true,
        "id": 4119907,
        "last_rank": 23188,
        "player_name": "George Marson",
        "rank": 18428,
        "rank_sort": 18470,
        "total": 2382
      },
      {
        "club_badge_src": "https://fantasy.premierleague.com/gcs/plfpl-production-adobe-approved/plfpl-production/615714/8b82efa4-fefa-48f8-bc92-da370d479c76.png",
        "entry": 615714,
        "entry_name": "Jukeronnie",
        "event_total": 65,
        "has_played": true,
        "id": 4160352,
        "last_rank": 24039,
        "player_name": "Ronald Lai",
        "rank": 18428,
        "rank_sort": 18471,
        "total": 2382
      },
      {
        "club_badge_src": null,
        "entry": 623381,
        "entry_name": "TheDarkPariah!",
        "event_total": 73,
        "has_played": true,
        "id": 4212787,
        "last_rank": 31620,
        "player_name": "scott ellis",
        "rank": 18428,
        "rank_sort": 18472,
        "total": 2382
      },
      {
        "club_badge_src": null,
        "entry": 627313,
        "entry_name": "Joga United",
        "event_total": 56,
        "has_played": true,
        "id": 4239112,
        "last_rank": 17437,
        "player_name": "Piotr Zi\u00f3\u0142kowski",
        "rank": 18428,
        "rank_sort": 18473,
        "total": 2382
      },
      {
        "club_badge_src": null,
        "entry": 630741,
        "entry_name": "BK Bl\u00e5b\u00e4r",
        "event_total": 40,
        "has_played": true,
        "id": 4262112,
        "last_rank": 9089,
        "player_name": "Emil Jakobsson",
        "rank": 18428,
        "rank_sort": 18474,
        "total": 2382
      },
      {
        "club_badge_src": null,
        "entry": 642169,
        "entry_name": "Peaky Reijnders",
        "event_total": 56,
        "has_played": true,
        "id": 4340050,
        "last_rank": 17437,
        "player_name": "Karl Klockare",
        "rank": 18428,
        "rank_sort": 18475,
        "total": 2382
      },
      {
        "club_badge_src": null,
        "entry": 682256,
        "entry_name": "icedcookie",
        "event_total": 67,
        "has_played": true,
        "id": 4617387,
        "last_rank": 25709,
        "player_name": "Jack Kinsella",
        "rank": 18428,
        "rank_sort": 18476,
        "total": 2382
      },
      {
        "club_badge_src": null,
        "entry": 684949,
        "entry_name": "Team #54603",
        "event_total": 60,
        "has_played": true,
        "id": 4636220,
        "last_rank": 20179,
        "player_name": "Chris Fowler",
        "rank": 18428,
        "rank_sort": 18477,
        "total": 2382
      },
      {
        "club_badge_src": null,
        "entry": 688925,
        "entry_name": "I Am Roy Hodgson",
        "event_total": 60,
        "has_played": true,
        "id": 4664446,
        "last_rank": 20280,
        "player_name": "Brendan O'Driscoll",
        "rank": 18428,
        "rank_sort": 18478,
        "total": 2382
      },
      {
        "club_badge_src": null,
        "entry": 695362,
        "entry_name": "Goals Aloud",
        "event_total": 52,
        "has_played": true,
        "id": 4709693,
        "last_rank": 14857,
        "player_name": "Kyle Marshall",
        "rank": 18428,
        "rank_sort": 18479,
        "total": 2382
      },
      {
        "club_badge_src": null,
        "entry": 705747,
        "entry_name": "Sallah Dweller",
        "event_total": 59,
        "has_played": true,
        "id": 4782878,
        "last_rank": 19544,
        "player_name": "Kerry Outtrim",
        "rank": 18428,
        "rank_sort": 18480,
        "total": 2382
      },
      {
        "club_badge_src": null,
        "entry": 723546,
        "entry_name": "Athletic GE",
        "event_total": 53,
        "has_played": true,
        "id": 4914115,
        "last_rank": 15550,
        "player_name": "Lee Thomas",
        "rank": 18428,
        "rank_sort": 18481,
        "total": 2382
      },
      {
        "club_badge_src": null,
        "entry": 739739,
        "entry_name": "Lads on Toure",
        "event_total": 54,
        "has_played": true,
        "id": 5029683,
        "last_rank": 16163,
        "player_name": "Sam Weatherell",
        "rank": 18428,
        "rank_sort": 18482,
        "total": 2382
      },
      {
        "club_badge_src": "https://fantasy.premierleague.com/gcs/plfpl-production-adobe-approved/plfpl-production/745604/82db23f0-3eab-4d99-b72c-b5cf808f7178.png",
        "entry": 745604,
        "entry_name": "8-Year Contracts FC",
        "event_total": 38,
        "has_played": true,
        "id": 5072112,
        "last_rank": 8382,
        "player_name": "Mossiah Griffith",
        "rank": 18428,
        "rank_sort": 18483,
        "total": 2382
      },
      {
        "club_badge_src": null,
        "entry": 770880,
        "entry_name": "Brainrot",
        "event_total": 56,
        "has_played": true,
        "id": 5258784,
        "last_rank": 17585,
        "player_name": "Thomas Hulatt",
        "rank": 18428,
        "rank_sort": 18484,
        "total": 2382
      },
      {
        "club_badge_src": null,
        "entry": 782506,
        "entry_name": "The Invisibles",
        "event_total": 69,
        "has_played": true,
        "id": 5342490,
        "last_rank": 23990,
        "player_name": "Torstein Haland",
        "rank": 18428,
        "rank_sort": 18485,
        "total": 2382
      },
      {
        "club_badge_src": null,
        "entry": 808858,
        "entry_name": "Lews lads",
        "event_total": 57,
        "has_played": true,
        "id": 5537670,
        "last_rank": 18113,
        "player_name": "lewis woodbridge",
        "rank": 18428,
        "rank_sort": 18486,
        "total": 2382
      },
      {
        "club_badge_src": null,
        "entry": 816762,
        "entry_name": "Old Trafford Rejects",
        "event_total": 65,
        "has_played": true,
        "id": 5593303,
        "last_rank": 24039,
        "player_name": "Aritra Saha",
        "rank": 18428,
        "rank_sort": 18487,
        "total": 2382
      },
      {
        "club_badge_src": null,
        "entry": 828172,
        "entry_name": "Baggio's Ballers",
        "event_total": 68,
        "has_played": true,
        "id": 5672277,
        "last_rank": 26710,
        "player_name": "Dom Pep",
        "rank": 18428,
        "rank_sort": 18488,
        "total": 2382
      },
      {
        "club_badge_src": null,
        "entry": 936817,
        "entry_name": "Velebyte",
        "event_total": 56,
        "has_played": true,
        "id": 6447093,
        "last_rank": 17358,
        "player_name": "Mladen Korica",
        "rank": 18428,
        "rank_sort": 18489,
        "total": 2382
      },
      {
        "club_badge_src": null,
        "entry": 967211,
        "entry_name": "Ivan the Great",
        "event_total": 68,
        "has_played": true,
        "id": 6666238,
        "last_rank": 26710,
        "player_name": "Ivan Petkovi\u0107",
        "rank": 18428,
        "rank_sort": 18490,
        "total": 2382
      },
      {
        "club_badge_src": null,
        "entry": 972290,
        "entry_name": "Argos FC",
        "event_total": 64,
        "has_played": true,
        "id": 6702384,
        "last_rank": 23341,
        "player_name": "Dimitris Kalotheou",
        "rank": 18428,
        "rank_sort": 18491,
        "total": 2382
      },
      {
        "club_badge_src": null,
        "entry": 986820,
        "entry_name": "Fotballaget",
        "event_total": 60,
        "has_played": true,
        "id": 6804121,
        "last_rank": 20280,
        "player_name": "Nina Jensen",
        "rank": 18428,
        "rank_sort": 18492,
        "total": 2382
      },
      {
        "club_badge_src": "https://fantasy.premierleague.com/gcs/plfpl-production-adobe-approved/plfpl-production/1023248/4a8f9728-a087-4e80-a15e-ef16a15c54fb.png",
        "entry": 1023248,
        "entry_name": "It's poached!",
        "event_total": 58,
        "has_played": true,
        "id": 7079374,
        "last_rank": 18691,
        "player_name": "Elliot Raccio",
        "rank": 18428,
        "rank_sort": 18493,
        "total": 2382
      },
      {
        "club_badge_src": null,
        "entry": 1109908,
        "entry_name": "Beef Cherki",
        "event_total": 60,
        "has_played": true,
        "id": 7688135,
        "last_rank": 20280,
        "player_name": "Trevor To",
        "rank": 18428,
        "rank_sort": 18494,
        "total": 2382
      },
      {
        "club_badge_src": null,
        "entry": 1113641,
        "entry_name": "Fighter 1926",
        "event_total": 55,
        "has_played": true,
        "id": 7714053,
        "last_rank": 16729,
        "player_name": "Marko Beg",
        "rank": 18428,
        "rank_sort": 18495,
        "total": 2382
      },
      {
        "club_badge_src": "https://fantasy.premierleague.com/gcs/plfpl-production-adobe-approved/plfpl-production/1117974/7dcaeffd-9a76-4caa-bcb0-b605932c95fb.png",
        "entry": 1117974,
        "entry_name": "HAN United",
        "event_total": 60,
        "has_played": true,
        "id": 7744016,
        "last_rank": 20179,
        "player_name": "Hany Fouad",
        "rank": 18428,
        "rank_sort": 18496,
        "total": 2382
      },
      {
        "club_badge_src": "https://fantasy.premierleague.com/gcs/plfpl-production-adobe-approved/plfpl-production/1154047/80f1ac94-0024-4094-9de3-fc53ed6c2f39.png",
        "entry": 1154047,
        "entry_name": "Eba and Flowa",
        "event_total": 59,
        "has_played": true,
        "id": 8002402,
        "last_rank": 19432,
        "player_name": "Abishek Manian",
        "rank": 18428,
        "rank_sort": 18497,
        "total": 2382
      },
      {
        "club_badge_src": null,
        "entry": 1180132,
        "entry_name": "Buckingham Blues",
        "event_total": 49,
        "has_played": true,
        "id": 8188199,
        "last_rank": 13257,
        "player_name": "Simon Powles",
        "rank": 18428,
        "rank_sort": 18498,
        "total": 2382
      },
      {
        "club_badge_src": null,
        "entry": 1191796,
        "entry_name": "MuNsiF FC",
        "event_total": 53,
        "has_played": true,
        "id": 8269207,
        "last_rank": 15550,
        "player_name": "Munsif Shameem",
        "rank": 18428,
        "rank_sort": 18499,
        "total": 2382
      },
      {
        "club_badge_src": "https://fantasy.premierleague.com/gcs/plfpl-production-adobe-approved/plfpl-production/1198170/3cbe0596-1079-4c97-9149-b83112ff2fb6.png",
        "entry": 1198170,
        "entry_name": "No Money on def",
        "event_total": 47,
        "has_played": true,
        "id": 8314604,
        "last_rank": 12200,
        "player_name": "King Rialto",
        "rank": 18428,
        "rank_sort": 18500,
        "total": 2382
      }
    ]
  }
}