{
  "last_updated_data": "2026-05-24T23:28:17Z",
  "league": {
    "admin_entry": null,
    "closed": false,
    "code_privacy": "p",
    "created": "2025-07-20T23:14:33.933835Z",
    "cup_league": 2815434,
    "has_cup": true,
    "id": 314,
    "league_type": "s",
    "max_entries": null,
    "name": "Overall",
    "rank": null,
    "scoring": "c",
    "start_event": 1
  },
  "new_entries": {
    "has_next": false,
    "page": 1,
    "results": []
  },
  "standings": {
    "has_next": true,
    "page": 1447,
    "results": [
      {
        "club_badge_src": null,
        "entry": 7361238,
        "entry_name": "Nitted\u00f8l",
        "event_total": 60,
        "has_played": true,
        "id": 59653562,
        "last_rank": 79817,
        "player_name": "Siavash Sangtarash",
        "rank": 72012,
        "rank_sort": 72301,
        "total": 2339
      },
      {
        "club_badge_src": null,
        "entry": 7364477,
        "entry_name": "Punjabi MC",
        "event_total": 52,
        "has_played": true,
        "id": 59683392,
        "last_rank": 64005,
        "player_name": "Freddie Coode",
        "rank": 72012,
        "rank_sort": 72302,
        "total": 2339
      },
      {
        "club_badge_src": null,
        "entry": 7544585,
        "entry_name": "Other Side",
        "event_total": 76,
        "has_played": true,
        "id": 61762747,
        "last_rank": 120941,
        "player_name": "Other Side",
        "rank": 72012,
        "rank_sort": 72303,
        "total": 2339
      },
      {
        "club_badge_src": null,
        "entry": 7555696,
        "entry_name": "Pindinho's Pirates",
        "event_total": 55,
        "has_played": true,
        "id": 61863538,
        "last_rank": 69641,
        "player_name": "James Pinder",
        "rank": 72012,
        "rank_sort": 72304,
        "total": 2339
      },
      {
        "club_badge_src": null,
        "entry": 7572167,
        "entry_name": "Wirtz Nightmare",
        "event_total": 62,
        "has_played": true,
        "id": 62012053,
        "last_rank": 84360,
        "player_name": "Mohammed Abaas",
        "rank": 72012,
        "rank_sort": 72305,
        "total": 2339
      },
      {
        "club_badge_src": "https://fantasy.premierleague.com/gcs/plfpl-production-adobe-approved/plfpl-production/7635743/f7d2f33c-ab13-4ae3-b991-d39c98b5a564.png",
        "entry": 7635743,
        "entry_name": "Oily Rags",
        "event_total": 63,
        "has_played": true,
        "id": 62587479,
        "last_rank": 86735,
        "player_name": "alan carter",
        "rank": 72012,
        "rank_sort": 72306,
        "total": 2339
      },
      {
        "club_badge_src": "https://fantasy.premierleague.com/gcs/plfpl-production-adobe-approved/plfpl-production/7662627/b6f2b032-efac-4ba8-8076-5e47fa257e4f.png",
        "entry": 7662627,
        "entry_name": "El Grassico",
        "event_total": 64,
        "has_played": true,
        "id": 62831464,
        "last_rank": 89055,
        "player_name": "Ryan Grasso",
        "rank": 72012,
        "rank_sort": 72307,
        "total": 2339
      },
      {
        "club_badge_src": null,
        "entry": 7771208,
        "entry_name": "RED DEVILed Eggs",
        "event_total": 59,
        "has_played": true,
        "id": 63814007,
        "last_rank": 77676,
        "player_name": "Joseph PerrellaAhearn",
        "rank": 72012,
        "rank_sort": 72308,
        "total": 2339
      },
      {
        "club_badge_src": null,
        "entry": 7803220,
        "entry_name": "Adletico",
        "event_total": 87,
        "has_played": true,
        "id": 64102244,
        "last_rank": 156582,
        "player_name": "Adam Simpkin",
        "rank": 72012,
        "rank_sort": 72309,
        "total": 2339
      },
      {
        "club_badge_src": null,
        "entry": 7884612,
        "entry_name": "Drews-Warriors",
        "event_total": 52,
        "has_played": true,
        "id": 64845867,
        "last_rank": 64005,
        "player_name": "Andrews Odeyenuma",
        "rank": 72012,
        "rank_sort": 72310,
        "total": 2339
      },
      {
        "club_badge_src": null,
        "entry": 7905591,
        "entry_name": "PinkPussPotter",
        "event_total": 80,
        "has_played": true,
        "id": 65037677,
        "last_rank": 132427,
        "player_name": "Mitchell Farrelly",
        "rank": 72012,
        "rank_sort": 72311,
        "total": 2339
      },
      {
        "club_badge_src": null,
        "entry": 8072537,
        "entry_name": "Zed FC",
        "event_total": 66,
        "has_played": true,
        "id": 66545296,
        "last_rank": 93883,
        "player_name": "Aleksandar Zaturoski",
        "rank": 72012,
        "rank_sort": 72312,
        "total": 2339
      },
      {
        "club_badge_src": null,
        "entry": 8210226,
        "entry_name": "0 pointer",
        "event_total": 32,
        "has_played": true,
        "id": 67838242,
        "last_rank": 33936,
        "player_name": "Amsyar Tamami",
        "rank": 72012,
        "rank_sort": 72313,
        "total": 2339
      },
      {
        "club_badge_src": null,
        "entry": 8612079,
        "entry_name": "Dream XI",
        "event_total": 30,
        "has_played": true,
        "id": 71714361,
        "last_rank": 32190,
        "player_name": "ATUL SAHU",
        "rank": 72012,
        "rank_sort": 72314,
        "total": 2339
      },
      {
        "club_badge_src": null,
        "entry": 8735600,
        "entry_name": "mightyGs",
        "event_total": 32,
        "has_played": true,
        "id": 72925101,
        "last_rank": 33936,
        "player_name": "David Robert",
        "rank": 72012,
        "rank_sort": 72315,
        "total": 2339
      },
      {
        "club_badge_src": null,
        "entry": 8790098,
        "entry_name": "SK Spartak Chodov",
        "event_total": 70,
        "has_played": true,
        "id": 73449302,
        "last_rank": 103254,
        "player_name": "Luk\u00e1\u0161 Vlas\u00e1k",
        "rank": 72012,
        "rank_sort": 72316,
        "total": 2339
      },
      {
        "club_badge_src": null,
        "entry": 8910418,
        "entry_name": "KelvinIL",
        "event_total": 58,
        "has_played": true,
        "id": 74610835,
        "last_rank": 75537,
        "player_name": "\u00d8rjan Lunde",
        "rank": 72012,
        "rank_sort": 72317,
        "total": 2339
      },
      {
        "club_badge_src": null,
        "entry": 8961407,
        "entry_name": "Hangover FC",
        "event_total": 68,
        "has_played": true,
        "id": 75109502,
        "last_rank": 88594,
        "player_name": "Zak Day",
        "rank": 72012,
        "rank_sort": 72318,
        "total": 2339
      },
      {
        "club_badge_src": null,
        "entry": 9265851,
        "entry_name": "Arsenal Red Sox",
        "event_total": 58,
        "has_played": true,
        "id": 78077593,
        "last_rank": 66848,
        "player_name": "Prasanna Sangaralingam",
        "rank": 72012,
        "rank_sort": 72319,
        "total": 2339
      },
      {
        "club_badge_src": null,
        "entry": 9441285,
        "entry_name": "Kglgnzjs",
        "event_total": 32,
        "has_played": true,
        "id": 79767329,
        "last_rank": 34051,
        "player_name": "Eirik L\u00f8hre",
        "rank": 72012,
        "rank_sort": 72320,
        "total": 2339
      },
      {
        "club_badge_src": null,
        "entry": 313,
        "entry_name": "Wirtz Case Scenario",
        "event_total": 68,
        "has_played": true,
        "id": 1726,
        "last_rank": 98896,
        "player_name": "Conrad Dragan",
        "rank": 72321,
        "rank_sort": 72321,
        "total": 2339
      },
      {
        "club_badge_src": "https://fantasy.premierleague.com/gcs/plfpl-production-adobe-approved/plfpl-production/4270/b7f12caa-3454-4a85-99dd-27bd1ef3a0c6.png",
        "entry": 4270,
        "entry_name": "Udogie-Dogg World 11",
        "event_total": 69,
        "has_played": true,
        "id": 24252,
        "last_rank": 101419,
        "player_name": "Thomas Bright",
        "rank": 72321,
        "rank_sort": 72322,
        "total": 2339
      },
      {
        "club_badge_src": null,
        "entry": 4558,
        "entry_name": "David Luiz FC",
        "event_total": 61,
        "has_played": true,
        "id": 25929,
        "last_rank": 73423,
        "player_name": "Bartek Chaci\u0144ski",
        "rank": 72321,
        "rank_sort": 72323,
        "total": 2339
      },
      {
        "club_badge_src": null,
        "entry": 4935,
        "entry_name": "Rostah",
        "event_total": 64,
        "has_played": true,
        "id": 28088,
        "last_rank": 89426,
        "player_name": "Ross Herlihy",
        "rank": 72321,
        "rank_sort": 72324,
        "total": 2339
      },
      {
        "club_badge_src": null,
        "entry": 8567,
        "entry_name": "Kinder Mbeumo",
        "event_total": 59,
        "has_played": true,
        "id": 49890,
        "last_rank": 69323,
        "player_name": "Nikhil Bhaiya",
        "rank": 72321,
        "rank_sort": 72325,
        "total": 2339
      },
      {
        "club_badge_src": null,
        "entry": 9011,
        "entry_name": "Magnifico",
        "event_total": 53,
        "has_played": true,
        "id": 52722,
        "last_rank": 58388,
        "player_name": "Matin Asadi",
        "rank": 72321,
        "rank_sort": 72326,
        "total": 2339
      },
      {
        "club_badge_src": null,
        "entry": 9122,
        "entry_name": "Mag-ficient",
        "event_total": 62,
        "has_played": true,
        "id": 53470,
        "last_rank": 83934,
        "player_name": "Zhiwei Chua",
        "rank": 72321,
        "rank_sort": 72327,
        "total": 2339
      },
      {
        "club_badge_src": null,
        "entry": 10028,
        "entry_name": "Wildcard Woolley",
        "event_total": 66,
        "has_played": true,
        "id": 59185,
        "last_rank": 84360,
        "player_name": "Ricky Woolley",
        "rank": 72321,
        "rank_sort": 72328,
        "total": 2339
      },
      {
        "club_badge_src": null,
        "entry": 12116,
        "entry_name": "Wirtz team ever",
        "event_total": 58,
        "has_played": true,
        "id": 72294,
        "last_rank": 67422,
        "player_name": "Papa Jon",
        "rank": 72321,
        "rank_sort": 72329,
        "total": 2339
      },
      {
        "club_badge_src": null,
        "entry": 17121,
        "entry_name": "Big Dawgs",
        "event_total": 58,
        "has_played": true,
        "id": 106092,
        "last_rank": 67063,
        "player_name": "Suyash Tharad",
        "rank": 72321,
        "rank_sort": 72330,
        "total": 2339
      },
      {
        "club_badge_src": null,
        "entry": 17276,
        "entry_name": "FPL Nacho",
        "event_total": 57,
        "has_played": true,
        "id": 107133,
        "last_rank": 65163,
        "player_name": "Callum Dummelow",
        "rank": 72321,
        "rank_sort": 72331,
        "total": 2339
      },
      {
        "club_badge_src": null,
        "entry": 17283,
        "entry_name": "Basil Brush 1st 11",
        "event_total": 61,
        "has_played": true,
        "id": 107184,
        "last_rank": 73423,
        "player_name": "andrew hulcoop",
        "rank": 72321,
        "rank_sort": 72332,
        "total": 2339
      },
      {
        "club_badge_src": null,
        "entry": 18358,
        "entry_name": "Calafiori Gurls",
        "event_total": 79,
        "has_played": true,
        "id": 114190,
        "last_rank": 130073,
        "player_name": "Luke Saunders",
        "rank": 72321,
        "rank_sort": 72333,
        "total": 2339
      },
      {
        "club_badge_src": null,
        "entry": 20750,
        "entry_name": "Wahrman FC",
        "event_total": 59,
        "has_played": true,
        "id": 129775,
        "last_rank": 77999,
        "player_name": "jesus wahrman",
        "rank": 72321,
        "rank_sort": 72334,
        "total": 2339
      },
      {
        "club_badge_src": null,
        "entry": 20957,
        "entry_name": "wirtz o'the wisp",
        "event_total": 63,
        "has_played": true,
        "id": 131244,
        "last_rank": 77258,
        "player_name": "Lawrence Walker",
        "rank": 72321,
        "rank_sort": 72335,
        "total": 2339
      },
      {
        "club_badge_src": null,
        "entry": 24555,
        "entry_name": "MARESCAd Development",
        "event_total": 66,
        "has_played": true,
        "id": 155025,
        "last_rank": 93443,
        "player_name": "Greg van Kerckhoven",
        "rank": 72321,
        "rank_sort": 72336,
        "total": 2339
      },
      {
        "club_badge_src": null,
        "entry": 26674,
        "entry_name": "Endo's disipler",
        "event_total": 69,
        "has_played": true,
        "id": 168670,
        "last_rank": 100949,
        "player_name": "Stian Lorentzen",
        "rank": 72321,
        "rank_sort": 72337,
        "total": 2339
      },
      {
        "club_badge_src": "https://fantasy.premierleague.com/gcs/plfpl-production-adobe-approved/plfpl-production/35412/0cc62267-a2db-43f5-84f4-2890824e3121.png",
        "entry": 35412,
        "entry_name": "FPL ZYGA",
        "event_total": 54,
        "has_played": true,
        "id": 226610,
        "last_rank": 60168,
        "player_name": "Fedi GUIZANI",
        "rank": 72321,
        "rank_sort": 72338,
        "total": 2339
      },
      {
        "club_badge_src": "https://fantasy.premierleague.com/gcs/plfpl-production-adobe-approved/plfpl-production/36349/313de472-14fb-46a6-b83e-fc4b76271c51.png",
        "entry": 36349,
        "entry_name": "Best_11",
        "event_total": 65,
        "has_played": true,
        "id": 232662,
        "last_rank": 92126,
        "player_name": "Ryan Mullan",
        "rank": 72321,
        "rank_sort": 72339,
        "total": 2339
      },
      {
        "club_badge_src": "https://fantasy.premierleague.com/gcs/plfpl-production-adobe-approved/plfpl-production/39206/f052600d-61bb-4de0-84ee-d44eb85acc01.png",
        "entry": 39206,
        "entry_name": "Amanstoppable XI",
        "event_total": 69,
        "has_played": true,
        "id": 251260,
        "last_rank": 101818,
        "player_name": "Don AZ",
        "rank": 72321,
        "rank_sort": 72340,
        "total": 2339
      },
      {
        "club_badge_src": "https://fantasy.premierleague.com/gcs/plfpl-production-adobe-approved/plfpl-production/46068/fb6adc08-969e-4ca9-af45-1f7f663c6aa7.png",
        "entry": 46068,
        "entry_name": "Royally Winging It",
        "event_total": 60,
        "has_played": true,
        "id": 295439,
        "last_rank": 71386,
        "player_name": "Matt Troth",
        "rank": 72321,
        "rank_sort": 72341,
        "total": 2339
      },
      {
        "club_badge_src": null,
        "entry": 50620,
        "entry_name": "Saka Potatoes",
        "event_total": 49,
        "has_played": true,
        "id": 325601,
        "last_rank": 51720,
        "player_name": "Matt Hennefer",
        "rank": 72321,
        "rank_sort": 72342,
        "total": 2339
      },
      {
        "club_badge_src": null,
        "entry": 61069,
        "entry_name": "Sergio Jorginho",
        "event_total": 52,
        "has_played": true,
        "id": 393223,
        "last_rank": 56708,
        "player_name": "Jack Roberts",
        "rank": 72321,
        "rank_sort": 72343,
        "total": 2339
      },
      {
        "club_badge_src": "https://fantasy.premierleague.com/gcs/plfpl-production-adobe-approved/plfpl-production/62663/ffc82f5c-a0f3-4ce3-b089-bd3dc563df20.png",
        "entry": 62663,
        "entry_name": "RPK",
        "event_total": 49,
        "has_played": true,
        "id": 404043,
        "last_rank": 58688,
        "player_name": "Praveen Kumar",
        "rank": 72321,
        "rank_sort": 72344,
        "total": 2339
      },
      {
        "club_badge_src": "https://fantasy.premierleague.com/gcs/plfpl-production-adobe-approved/plfpl-production/63928/141a2efc-14a0-463b-b058-ca18b2f6f328.png",
        "entry": 63928,
        "entry_name": "Pinball Wizard",
        "event_total": 60,
        "has_played": true,
        "id": 412530,
        "last_rank": 80194,
        "player_name": "Zak T",
        "rank": 72321,
        "rank_sort": 72345,
        "total": 2339
      },
      {
        "club_badge_src": null,
        "entry": 63989,
        "entry_name": "sipapaeko \u26a1",
        "event_total": 54,
        "has_played": true,
        "id": 412922,
        "last_rank": 59813,
        "player_name": "Eko Puji Purwanto \ud83c\uddee\ud83c\udde9",
        "rank": 72321,
        "rank_sort": 72346,
        "total": 2339
      },
      {
        "club_badge_src": null,
        "entry": 65837,
        "entry_name": "Nesta milan",
        "event_total": 58,
        "has_played": true,
        "id": 425268,
        "last_rank": 67063,
        "player_name": "Nesta Milan",
        "rank": 72321,
        "rank_sort": 72347,
        "total": 2339
      },
      {
        "club_badge_src": null,
        "entry": 68129,
        "entry_name": "Kinder mbeumo",
        "event_total": 62,
        "has_played": true,
        "id": 441319,
        "last_rank": 75537,
        "player_name": "Ned Overbury",
        "rank": 72321,
        "rank_sort": 72348,
        "total": 2339
      },
      {
        "club_badge_src": "https://fantasy.premierleague.com/gcs/plfpl-production-adobe-approved/plfpl-production/73113/13947f0f-2eb2-4812-ad5e-cc6812baee53.png",
        "entry": 73113,
        "entry_name": "Reece Lightning",
        "event_total": 73,
        "has_played": true,
        "id": 475221,
        "last_rank": 112169,
        "player_name": "Sam Sheridan",
        "rank": 72321,
        "rank_sort": 72349,
        "total": 2339
      },
      {
        "club_badge_src": "https://fantasy.premierleague.com/gcs/plfpl-production-adobe-approved/plfpl-production/84235/406c2cb7-f779-4768-8dae-483b2f907bd5.png",
        "entry": 84235,
        "entry_name": "MM",
        "event_total": 64,
        "has_played": true,
        "id": 548386,
        "last_rank": 79817,
        "player_name": "Mohamed Maher",
        "rank": 72321,
        "rank_sort": 72350,
        "total": 2339
      }
    ]
  }
}