{
  "last_updated_data": "2026-05-24T23:28:17Z",
  "league": {
    "admin_entry": null,
    "closed": false,
    "code_privacy": "p",
    "created": "2025-07-20T23:14:33.933835Z",
    "cup_league": 2815434,
    "has_cup": true,
    "id": 314,
    "league_type": "s",
    "max_entries": null,
    "name": "Overall",
    "rank": null,
    "scoring": "c",
    "start_event": 1
  },
  "new_entries": {
    "has_next": false,
    "page": 1,
    "results": []
  },
  "standings": {
    "has_next": true,
    "page": 156,
    "results": [
      {
        "club_badge_src": null,
        "entry": 4001606,
        "entry_name": "FC Pashley 1988",
        "event_total": 59,
        "has_played": true,
        "id": 30140285,
        "last_rank": 6667,
        "player_name": "Dan Booker",
        "rank": 7751,
        "rank_sort": 7751,
        "total": 2405
      },
      {
        "club_badge_src": "https://fantasy.premierleague.com/gcs/plfpl-production-adobe-approved/plfpl-production/46158/dc4dbc48-98d8-4312-a9c4-5184388813ee.png",
        "entry": 46158,
        "entry_name": "The Monks Of Cool",
        "event_total": 58,
        "has_played": true,
        "id": 295985,
        "last_rank": 7585,
        "player_name": "David Murphy",
        "rank": 7752,
        "rank_sort": 7752,
        "total": 2405
      },
      {
        "club_badge_src": null,
        "entry": 597208,
        "entry_name": "Eternal legacy",
        "event_total": 71,
        "has_played": true,
        "id": 4027135,
        "last_rank": 11131,
        "player_name": "Mohamed Saeed",
        "rank": 7753,
        "rank_sort": 7753,
        "total": 2405
      },
      {
        "club_badge_src": null,
        "entry": 770486,
        "entry_name": "AA",
        "event_total": 80,
        "has_played": true,
        "id": 5256040,
        "last_rank": 13693,
        "player_name": "Bryan Daffern",
        "rank": 7754,
        "rank_sort": 7754,
        "total": 2405
      },
      {
        "club_badge_src": null,
        "entry": 8472155,
        "entry_name": "ThomasTheFrankEngine",
        "event_total": 61,
        "has_played": true,
        "id": 70365379,
        "last_rank": 8670,
        "player_name": "Elliot Cohen",
        "rank": 7755,
        "rank_sort": 7755,
        "total": 2404
      },
      {
        "club_badge_src": null,
        "entry": 636042,
        "entry_name": "TheOwls",
        "event_total": 62,
        "has_played": true,
        "id": 4298559,
        "last_rank": 9062,
        "player_name": "Amr Khyal",
        "rank": 7756,
        "rank_sort": 7756,
        "total": 2404
      },
      {
        "club_badge_src": null,
        "entry": 2718819,
        "entry_name": "Cunha believe it?",
        "event_total": 45,
        "has_played": true,
        "id": 19563615,
        "last_rank": 4248,
        "player_name": "Hassan Saj",
        "rank": 7756,
        "rank_sort": 7757,
        "total": 2404
      },
      {
        "club_badge_src": null,
        "entry": 806007,
        "entry_name": "Sakaspudbros",
        "event_total": 41,
        "has_played": true,
        "id": 5517515,
        "last_rank": 3514,
        "player_name": "Jacob Billington",
        "rank": 7758,
        "rank_sort": 7758,
        "total": 2404
      },
      {
        "club_badge_src": null,
        "entry": 83361,
        "entry_name": "Monkey D. ive",
        "event_total": 72,
        "has_played": true,
        "id": 542530,
        "last_rank": 13702,
        "player_name": "Kittithat Dantrakul",
        "rank": 7759,
        "rank_sort": 7759,
        "total": 2404
      },
      {
        "club_badge_src": null,
        "entry": 406841,
        "entry_name": "Top top top",
        "event_total": 51,
        "has_played": true,
        "id": 2727971,
        "last_rank": 5622,
        "player_name": "Michael Gallagher",
        "rank": 7759,
        "rank_sort": 7760,
        "total": 2404
      },
      {
        "club_badge_src": null,
        "entry": 2834146,
        "entry_name": "De_Fantasy FC",
        "event_total": 39,
        "has_played": true,
        "id": 20710520,
        "last_rank": 3227,
        "player_name": "Ben Havercroft",
        "rank": 7759,
        "rank_sort": 7761,
        "total": 2404
      },
      {
        "club_badge_src": null,
        "entry": 7271477,
        "entry_name": "Fenjerasi10",
        "event_total": 58,
        "has_played": true,
        "id": 58806706,
        "last_rank": 7588,
        "player_name": "Slavko Perendija",
        "rank": 7759,
        "rank_sort": 7762,
        "total": 2404
      },
      {
        "club_badge_src": null,
        "entry": 6189401,
        "entry_name": "Monbohs",
        "event_total": 50,
        "has_played": true,
        "id": 48953583,
        "last_rank": 5386,
        "player_name": "Noah Reape",
        "rank": 7763,
        "rank_sort": 7763,
        "total": 2404
      },
      {
        "club_badge_src": null,
        "entry": 7117800,
        "entry_name": "Tennants Aleven",
        "event_total": 59,
        "has_played": true,
        "id": 57345687,
        "last_rank": 7979,
        "player_name": "Daniel Tennant",
        "rank": 7763,
        "rank_sort": 7764,
        "total": 2404
      },
      {
        "club_badge_src": null,
        "entry": 8619802,
        "entry_name": "Ol\u00eduskipi\u00f0",
        "event_total": 67,
        "has_played": true,
        "id": 71790600,
        "last_rank": 11175,
        "player_name": "Kristj\u00e1n J\u00fal\u00edan Krist\u00ednarson",
        "rank": 7763,
        "rank_sort": 7765,
        "total": 2404
      },
      {
        "club_badge_src": null,
        "entry": 16055,
        "entry_name": "Me Myself Ndiaye",
        "event_total": 57,
        "has_played": true,
        "id": 98958,
        "last_rank": 7375,
        "player_name": "William Lee",
        "rank": 7766,
        "rank_sort": 7766,
        "total": 2404
      },
      {
        "club_badge_src": "https://fantasy.premierleague.com/gcs/plfpl-production-adobe-approved/plfpl-production/104607/ef5a1380-9581-46ba-9a27-5efd8ccdaf8f.png",
        "entry": 104607,
        "entry_name": "Enter Shaqiri",
        "event_total": 52,
        "has_played": true,
        "id": 682365,
        "last_rank": 5904,
        "player_name": "Troy Gagg",
        "rank": 7766,
        "rank_sort": 7767,
        "total": 2404
      },
      {
        "club_badge_src": null,
        "entry": 143275,
        "entry_name": "Haalandglobetrotters",
        "event_total": 59,
        "has_played": true,
        "id": 937343,
        "last_rank": 7979,
        "player_name": "Matthew Knapp",
        "rank": 7766,
        "rank_sort": 7768,
        "total": 2404
      },
      {
        "club_badge_src": null,
        "entry": 173543,
        "entry_name": "Cancelo culture",
        "event_total": 61,
        "has_played": true,
        "id": 1146097,
        "last_rank": 8687,
        "player_name": "Harry Penn",
        "rank": 7766,
        "rank_sort": 7769,
        "total": 2404
      },
      {
        "club_badge_src": null,
        "entry": 187325,
        "entry_name": "Mo Kudus Mo Money",
        "event_total": 42,
        "has_played": true,
        "id": 1238518,
        "last_rank": 3721,
        "player_name": "Haime Mishaan",
        "rank": 7766,
        "rank_sort": 7770,
        "total": 2404
      },
      {
        "club_badge_src": null,
        "entry": 370712,
        "entry_name": "Los Benimos",
        "event_total": 46,
        "has_played": true,
        "id": 2480640,
        "last_rank": 4515,
        "player_name": "Aram Hawas",
        "rank": 7766,
        "rank_sort": 7771,
        "total": 2404
      },
      {
        "club_badge_src": null,
        "entry": 476864,
        "entry_name": "KANYUN FC",
        "event_total": 52,
        "has_played": true,
        "id": 3200916,
        "last_rank": 5904,
        "player_name": "Kanyun Dutton",
        "rank": 7766,
        "rank_sort": 7772,
        "total": 2404
      },
      {
        "club_badge_src": null,
        "entry": 516499,
        "entry_name": "Hall Cunha Mateta",
        "event_total": 74,
        "has_played": true,
        "id": 3467631,
        "last_rank": 14817,
        "player_name": "Oscar Wester",
        "rank": 7766,
        "rank_sort": 7773,
        "total": 2404
      },
      {
        "club_badge_src": null,
        "entry": 1398353,
        "entry_name": "Andrelaget",
        "event_total": 61,
        "has_played": true,
        "id": 9728585,
        "last_rank": 8687,
        "player_name": "Sondre R\u00f8yne Valle",
        "rank": 7766,
        "rank_sort": 7774,
        "total": 2404
      },
      {
        "club_badge_src": null,
        "entry": 1534604,
        "entry_name": "Lionesses",
        "event_total": 54,
        "has_played": true,
        "id": 10709368,
        "last_rank": 6409,
        "player_name": "Rachel Von Hossle",
        "rank": 7766,
        "rank_sort": 7775,
        "total": 2404
      },
      {
        "club_badge_src": null,
        "entry": 2272943,
        "entry_name": "Younes MAZ",
        "event_total": 55,
        "has_played": true,
        "id": 16207367,
        "last_rank": 6752,
        "player_name": "Younes Mazari",
        "rank": 7766,
        "rank_sort": 7776,
        "total": 2404
      },
      {
        "club_badge_src": "https://fantasy.premierleague.com/gcs/plfpl-production-adobe-approved/plfpl-production/2338493/449dd735-8ce7-4335-a797-8fc2f293d6a0.png",
        "entry": 2338493,
        "entry_name": "Formlezz Federation",
        "event_total": 68,
        "has_played": true,
        "id": 16685592,
        "last_rank": 11608,
        "player_name": "Andhika Nasution",
        "rank": 7766,
        "rank_sort": 7777,
        "total": 2404
      },
      {
        "club_badge_src": null,
        "entry": 2576598,
        "entry_name": "FOFANA FC",
        "event_total": 56,
        "has_played": true,
        "id": 18491465,
        "last_rank": 7059,
        "player_name": "\u039d\u03b1\u03b8\u03b1\u03bd\u03b1\u03b7\u03bb \u0399\u03c9\u03b1\u03bd\u03bd\u03bf\u03c5",
        "rank": 7766,
        "rank_sort": 7778,
        "total": 2404
      },
      {
        "club_badge_src": null,
        "entry": 2592376,
        "entry_name": "Ca Sent Le Yoro",
        "event_total": 65,
        "has_played": true,
        "id": 18612889,
        "last_rank": 10263,
        "player_name": "Maxence Berli",
        "rank": 7766,
        "rank_sort": 7779,
        "total": 2404
      },
      {
        "club_badge_src": null,
        "entry": 3346569,
        "entry_name": "Pathetico Madrid",
        "event_total": 50,
        "has_played": true,
        "id": 24824875,
        "last_rank": 5400,
        "player_name": "TC Hull",
        "rank": 7766,
        "rank_sort": 7780,
        "total": 2404
      },
      {
        "club_badge_src": "https://fantasy.premierleague.com/gcs/plfpl-production-adobe-approved/plfpl-production/3842261/47fec473-adb3-4e25-b76f-b41d150a3f23.png",
        "entry": 3842261,
        "entry_name": "Jussy's Giants",
        "event_total": 52,
        "has_played": true,
        "id": 28784218,
        "last_rank": 5904,
        "player_name": "justin caldwell",
        "rank": 7766,
        "rank_sort": 7781,
        "total": 2404
      },
      {
        "club_badge_src": null,
        "entry": 4024370,
        "entry_name": "Goals 'R' Us",
        "event_total": 75,
        "has_played": true,
        "id": 30333900,
        "last_rank": 15396,
        "player_name": "James Reynolds",
        "rank": 7766,
        "rank_sort": 7782,
        "total": 2404
      },
      {
        "club_badge_src": null,
        "entry": 4180178,
        "entry_name": "kindermbeumo",
        "event_total": 62,
        "has_played": true,
        "id": 31622796,
        "last_rank": 9072,
        "player_name": "Sze Zhen Loo",
        "rank": 7766,
        "rank_sort": 7783,
        "total": 2404
      },
      {
        "club_badge_src": null,
        "entry": 4684236,
        "entry_name": "The Bad Seeds",
        "event_total": 80,
        "has_played": true,
        "id": 35896358,
        "last_rank": 18790,
        "player_name": "Simon Alton",
        "rank": 7766,
        "rank_sort": 7784,
        "total": 2404
      },
      {
        "club_badge_src": null,
        "entry": 4706462,
        "entry_name": "Indergaard FC",
        "event_total": 67,
        "has_played": true,
        "id": 36089944,
        "last_rank": 11175,
        "player_name": "Ruari Jespersen",
        "rank": 7766,
        "rank_sort": 7785,
        "total": 2404
      },
      {
        "club_badge_src": "https://fantasy.premierleague.com/gcs/plfpl-production-adobe-approved/plfpl-production/5596658/7675c5c9-8523-4bbc-a5d8-13639fae8d11.png",
        "entry": 5596658,
        "entry_name": "Olympiacos",
        "event_total": 68,
        "has_played": true,
        "id": 43727358,
        "last_rank": 11642,
        "player_name": "Nikos Kalfas",
        "rank": 7766,
        "rank_sort": 7786,
        "total": 2404
      },
      {
        "club_badge_src": null,
        "entry": 5788511,
        "entry_name": "Tike Dirty to me",
        "event_total": 38,
        "has_played": true,
        "id": 45395767,
        "last_rank": 3103,
        "player_name": "Shane Gleeson",
        "rank": 7766,
        "rank_sort": 7787,
        "total": 2404
      },
      {
        "club_badge_src": null,
        "entry": 6271185,
        "entry_name": "Silly Sausages",
        "event_total": 61,
        "has_played": true,
        "id": 49658663,
        "last_rank": 8676,
        "player_name": "Sebastian Jones",
        "rank": 7766,
        "rank_sort": 7788,
        "total": 2404
      },
      {
        "club_badge_src": null,
        "entry": 7081314,
        "entry_name": "Paqueta 8 my hamster",
        "event_total": 69,
        "has_played": true,
        "id": 56998625,
        "last_rank": 12109,
        "player_name": "nathan jordan",
        "rank": 7766,
        "rank_sort": 7789,
        "total": 2404
      },
      {
        "club_badge_src": null,
        "entry": 7715981,
        "entry_name": "Cobra Kai Havertz",
        "event_total": 57,
        "has_played": true,
        "id": 63314708,
        "last_rank": 7375,
        "player_name": "Niall McKenna",
        "rank": 7766,
        "rank_sort": 7790,
        "total": 2404
      },
      {
        "club_badge_src": null,
        "entry": 7755417,
        "entry_name": "Albino Albion",
        "event_total": 64,
        "has_played": true,
        "id": 63671537,
        "last_rank": 9853,
        "player_name": "Richard Callow",
        "rank": 7766,
        "rank_sort": 7791,
        "total": 2404
      },
      {
        "club_badge_src": null,
        "entry": 781,
        "entry_name": "i will win",
        "event_total": 70,
        "has_played": true,
        "id": 4318,
        "last_rank": 12608,
        "player_name": "Abdullah aljasser",
        "rank": 7792,
        "rank_sort": 7792,
        "total": 2404
      },
      {
        "club_badge_src": "https://fantasy.premierleague.com/gcs/plfpl-production-adobe-approved/plfpl-production/4537/31c1f68e-14b0-4a8f-aa53-30158a5fc596.png",
        "entry": 4537,
        "entry_name": "Boehlywood FC",
        "event_total": 65,
        "has_played": true,
        "id": 25799,
        "last_rank": 10346,
        "player_name": "Jack B",
        "rank": 7792,
        "rank_sort": 7793,
        "total": 2404
      },
      {
        "club_badge_src": null,
        "entry": 5365,
        "entry_name": "DeLap Dance",
        "event_total": 64,
        "has_played": true,
        "id": 30579,
        "last_rank": 9885,
        "player_name": "Niranjan Balachandar",
        "rank": 7792,
        "rank_sort": 7794,
        "total": 2404
      },
      {
        "club_badge_src": null,
        "entry": 15704,
        "entry_name": "Time will Tel",
        "event_total": 67,
        "has_played": true,
        "id": 96607,
        "last_rank": 11175,
        "player_name": "Nic Harris",
        "rank": 7792,
        "rank_sort": 7795,
        "total": 2404
      },
      {
        "club_badge_src": null,
        "entry": 38054,
        "entry_name": "Borgemesteren FC",
        "event_total": 53,
        "has_played": true,
        "id": 243858,
        "last_rank": 6166,
        "player_name": "Andreas Borge",
        "rank": 7792,
        "rank_sort": 7796,
        "total": 2404
      },
      {
        "club_badge_src": null,
        "entry": 44193,
        "entry_name": "ElangaWinningStreak",
        "event_total": 56,
        "has_played": true,
        "id": 283197,
        "last_rank": 6994,
        "player_name": "Mark Christopher",
        "rank": 7792,
        "rank_sort": 7797,
        "total": 2404
      },
      {
        "club_badge_src": null,
        "entry": 48098,
        "entry_name": "Gotta2Get3Points",
        "event_total": 68,
        "has_played": true,
        "id": 308740,
        "last_rank": 11642,
        "player_name": "Luke Fisher",
        "rank": 7792,
        "rank_sort": 7798,
        "total": 2404
      },
      {
        "club_badge_src": null,
        "entry": 53648,
        "entry_name": "The Wirtz of Wall St",
        "event_total": 60,
        "has_played": true,
        "id": 345192,
        "last_rank": 7014,
        "player_name": "Nakul Parasrampuria",
        "rank": 7792,
        "rank_sort": 7799,
        "total": 2404
      },
      {
        "club_badge_src": null,
        "entry": 93159,
        "entry_name": "Change Name",
        "event_total": 52,
        "has_played": true,
        "id": 608801,
        "last_rank": 5940,
        "player_name": "Maxwell Cattermole",
        "rank": 7792,
        "rank_sort": 7800,
        "total": 2404
      }
    ]
  }
}