{
  "last_updated_data": "2026-05-24T23:28:17Z",
  "league": {
    "admin_entry": null,
    "closed": false,
    "code_privacy": "p",
    "created": "2025-07-20T23:14:33.933835Z",
    "cup_league": 2815434,
    "has_cup": true,
    "id": 314,
    "league_type": "s",
    "max_entries": null,
    "name": "Overall",
    "rank": null,
    "scoring": "c",
    "start_event": 1
  },
  "new_entries": {
    "has_next": false,
    "page": 1,
    "results": []
  },
  "standings": {
    "has_next": true,
    "page": 918,
    "results": [
      {
        "club_badge_src": null,
        "entry": 1185582,
        "entry_name": "Donald is king",
        "event_total": 43,
        "has_played": true,
        "id": 8225900,
        "last_rank": 29199,
        "player_name": "Jarrod Robinson",
        "rank": 45787,
        "rank_sort": 45851,
        "total": 2355
      },
      {
        "club_badge_src": "https://fantasy.premierleague.com/gcs/plfpl-production-adobe-approved/plfpl-production/1204859/c95f2e21-bd8c-4552-9496-0c56b90b493f.png",
        "entry": 1204859,
        "entry_name": "Tikka MoSalah",
        "event_total": 72,
        "has_played": true,
        "id": 8361418,
        "last_rank": 63724,
        "player_name": "Andr\u00e9 Lino",
        "rank": 45787,
        "rank_sort": 45852,
        "total": 2355
      },
      {
        "club_badge_src": null,
        "entry": 1220130,
        "entry_name": "Maeda Metal",
        "event_total": 61,
        "has_played": true,
        "id": 8471045,
        "last_rank": 51720,
        "player_name": "REECE KELLY",
        "rank": 45787,
        "rank_sort": 45853,
        "total": 2355
      },
      {
        "club_badge_src": null,
        "entry": 1250010,
        "entry_name": "Madfa3ji DZ",
        "event_total": 58,
        "has_played": true,
        "id": 8681568,
        "last_rank": 47596,
        "player_name": "Sahra Dz",
        "rank": 45787,
        "rank_sort": 45854,
        "total": 2355
      },
      {
        "club_badge_src": null,
        "entry": 1273372,
        "entry_name": "Kerrs Kickers",
        "event_total": 61,
        "has_played": true,
        "id": 8847961,
        "last_rank": 52205,
        "player_name": "Andrew Kerr",
        "rank": 45787,
        "rank_sort": 45855,
        "total": 2355
      },
      {
        "club_badge_src": null,
        "entry": 1462261,
        "entry_name": "McTomination",
        "event_total": 72,
        "has_played": true,
        "id": 10192651,
        "last_rank": 71713,
        "player_name": "Rob Kinnear",
        "rank": 45787,
        "rank_sort": 45856,
        "total": 2355
      },
      {
        "club_badge_src": null,
        "entry": 1514527,
        "entry_name": "Golden boy \ufffd",
        "event_total": 39,
        "has_played": true,
        "id": 10563313,
        "last_rank": 25330,
        "player_name": "Med Amir",
        "rank": 45787,
        "rank_sort": 45857,
        "total": 2355
      },
      {
        "club_badge_src": "https://fantasy.premierleague.com/gcs/plfpl-production-adobe-approved/plfpl-production/1585591/c4a50faa-3f69-4109-b1ef-790019200357.png",
        "entry": 1585591,
        "entry_name": "Schadefryd",
        "event_total": 56,
        "has_played": true,
        "id": 11084599,
        "last_rank": 39246,
        "player_name": "Martin Holtskog",
        "rank": 45787,
        "rank_sort": 45858,
        "total": 2355
      },
      {
        "club_badge_src": null,
        "entry": 1612144,
        "entry_name": "Marwo FC",
        "event_total": 54,
        "has_played": true,
        "id": 11279626,
        "last_rank": 41967,
        "player_name": "Marwan Bin Aden",
        "rank": 45787,
        "rank_sort": 45859,
        "total": 2355
      },
      {
        "club_badge_src": null,
        "entry": 1756033,
        "entry_name": "The Lionesses",
        "event_total": 50,
        "has_played": true,
        "id": 12328332,
        "last_rank": 36963,
        "player_name": "GaRuth Southgate",
        "rank": 45787,
        "rank_sort": 45860,
        "total": 2355
      },
      {
        "club_badge_src": "https://fantasy.premierleague.com/gcs/plfpl-production-adobe-approved/plfpl-production/1787022/1753ba74-2d2e-47f2-8e6f-de18933aaff1.png",
        "entry": 1787022,
        "entry_name": "Cufc",
        "event_total": 74,
        "has_played": true,
        "id": 12556224,
        "last_rank": 75874,
        "player_name": "Derek Pearson",
        "rank": 45787,
        "rank_sort": 45861,
        "total": 2355
      },
      {
        "club_badge_src": null,
        "entry": 1792493,
        "entry_name": "baxter",
        "event_total": 62,
        "has_played": true,
        "id": 12595629,
        "last_rank": 53837,
        "player_name": "Oliver Baxter",
        "rank": 45787,
        "rank_sort": 45862,
        "total": 2355
      },
      {
        "club_badge_src": null,
        "entry": 1796551,
        "entry_name": "the A company",
        "event_total": 70,
        "has_played": true,
        "id": 12625081,
        "last_rank": 60462,
        "player_name": "Ahmed Aliraqi",
        "rank": 45787,
        "rank_sort": 45863,
        "total": 2355
      },
      {
        "club_badge_src": "https://fantasy.premierleague.com/gcs/plfpl-production-adobe-approved/plfpl-production/1805461/191363d3-d346-4e3b-99c7-584e8f77c797.png",
        "entry": 1805461,
        "entry_name": "Rice Rice Baby",
        "event_total": 53,
        "has_played": true,
        "id": 12692697,
        "last_rank": 35619,
        "player_name": "\u017dan Humar",
        "rank": 45787,
        "rank_sort": 45864,
        "total": 2355
      },
      {
        "club_badge_src": null,
        "entry": 1960485,
        "entry_name": "X11",
        "event_total": 73,
        "has_played": true,
        "id": 13831653,
        "last_rank": 73720,
        "player_name": "Charlie Smith",
        "rank": 45787,
        "rank_sort": 45865,
        "total": 2355
      },
      {
        "club_badge_src": null,
        "entry": 2062625,
        "entry_name": "When skies are Grey!",
        "event_total": 67,
        "has_played": true,
        "id": 14615149,
        "last_rank": 54667,
        "player_name": "Niall Finnegan",
        "rank": 45787,
        "rank_sort": 45866,
        "total": 2355
      },
      {
        "club_badge_src": null,
        "entry": 2078685,
        "entry_name": "7@boub",
        "event_total": 44,
        "has_played": true,
        "id": 14738996,
        "last_rank": 30276,
        "player_name": "Mohamed Habib Fahem",
        "rank": 45787,
        "rank_sort": 45867,
        "total": 2355
      },
      {
        "club_badge_src": null,
        "entry": 2129960,
        "entry_name": "RS2002",
        "event_total": 57,
        "has_played": true,
        "id": 15135525,
        "last_rank": 45927,
        "player_name": "Reece Scott",
        "rank": 45787,
        "rank_sort": 45868,
        "total": 2355
      },
      {
        "club_badge_src": null,
        "entry": 2137742,
        "entry_name": "Magsy Fc",
        "event_total": 56,
        "has_played": true,
        "id": 15192714,
        "last_rank": 44672,
        "player_name": "Mark Maguire",
        "rank": 45787,
        "rank_sort": 45869,
        "total": 2355
      },
      {
        "club_badge_src": null,
        "entry": 2204571,
        "entry_name": "Wizards of Foz IV",
        "event_total": 64,
        "has_played": true,
        "id": 15691211,
        "last_rank": 44303,
        "player_name": "Thomas Foster",
        "rank": 45787,
        "rank_sort": 45870,
        "total": 2355
      },
      {
        "club_badge_src": null,
        "entry": 2255521,
        "entry_name": "Wenger mama",
        "event_total": 64,
        "has_played": true,
        "id": 16077936,
        "last_rank": 38774,
        "player_name": "S A",
        "rank": 45787,
        "rank_sort": 45871,
        "total": 2355
      },
      {
        "club_badge_src": null,
        "entry": 2318578,
        "entry_name": "Bossman Bridgss",
        "event_total": 55,
        "has_played": true,
        "id": 16540030,
        "last_rank": 43168,
        "player_name": "Ben Bridges",
        "rank": 45787,
        "rank_sort": 45872,
        "total": 2355
      },
      {
        "club_badge_src": null,
        "entry": 2365166,
        "entry_name": "Mataopok",
        "event_total": 47,
        "has_played": true,
        "id": 16882137,
        "last_rank": 29071,
        "player_name": "Paul Ma",
        "rank": 45787,
        "rank_sort": 45873,
        "total": 2355
      },
      {
        "club_badge_src": null,
        "entry": 2396056,
        "entry_name": "DanJonesUTFR",
        "event_total": 68,
        "has_played": true,
        "id": 17117125,
        "last_rank": 57001,
        "player_name": "Daniel Jones",
        "rank": 45787,
        "rank_sort": 45874,
        "total": 2355
      },
      {
        "club_badge_src": "https://fantasy.premierleague.com/gcs/plfpl-production-adobe-approved/plfpl-production/2415061/1ed412fc-67fe-4a27-9ed4-0663e57c335d.png",
        "entry": 2415061,
        "entry_name": "Ryan",
        "event_total": 65,
        "has_played": true,
        "id": 17264015,
        "last_rank": 58911,
        "player_name": "ryan pereira",
        "rank": 45787,
        "rank_sort": 45875,
        "total": 2355
      },
      {
        "club_badge_src": null,
        "entry": 2462337,
        "entry_name": "The Gallant Pioneers",
        "event_total": 59,
        "has_played": true,
        "id": 17613163,
        "last_rank": 49078,
        "player_name": "andrew paterson",
        "rank": 45787,
        "rank_sort": 45876,
        "total": 2355
      },
      {
        "club_badge_src": null,
        "entry": 2479816,
        "entry_name": "Pole Calmer",
        "event_total": 52,
        "has_played": true,
        "id": 17743537,
        "last_rank": 39403,
        "player_name": "S\u0142awek Kaczmarczyk",
        "rank": 45787,
        "rank_sort": 45877,
        "total": 2355
      },
      {
        "club_badge_src": null,
        "entry": 2510207,
        "entry_name": "frik",
        "event_total": 55,
        "has_played": true,
        "id": 17981908,
        "last_rank": 38016,
        "player_name": "Miro Toma",
        "rank": 45787,
        "rank_sort": 45878,
        "total": 2355
      },
      {
        "club_badge_src": null,
        "entry": 2511624,
        "entry_name": "Back with a Bang",
        "event_total": 63,
        "has_played": true,
        "id": 17993241,
        "last_rank": 55514,
        "player_name": "Rajeev Parmar",
        "rank": 45787,
        "rank_sort": 45879,
        "total": 2355
      },
      {
        "club_badge_src": null,
        "entry": 2573922,
        "entry_name": "Thosai Telur",
        "event_total": 57,
        "has_played": true,
        "id": 18470413,
        "last_rank": 40503,
        "player_name": "Shaheen Balagopal",
        "rank": 45787,
        "rank_sort": 45880,
        "total": 2355
      },
      {
        "club_badge_src": "https://fantasy.premierleague.com/gcs/plfpl-production-adobe-approved/plfpl-production/2707141/8c48232c-55f1-4790-b83f-ca22313ce4d4.png",
        "entry": 2707141,
        "entry_name": "Kopite",
        "event_total": 61,
        "has_played": true,
        "id": 19476616,
        "last_rank": 40297,
        "player_name": "Naveen Supramaniam",
        "rank": 45787,
        "rank_sort": 45881,
        "total": 2355
      },
      {
        "club_badge_src": null,
        "entry": 2784999,
        "entry_name": "Redeemed Devils",
        "event_total": 51,
        "has_played": true,
        "id": 20331304,
        "last_rank": 38163,
        "player_name": "Hayden September",
        "rank": 45787,
        "rank_sort": 45882,
        "total": 2355
      },
      {
        "club_badge_src": "https://fantasy.premierleague.com/gcs/plfpl-production-adobe-approved/plfpl-production/2793635/730a2afa-cf12-4c2d-b56a-33c2a9654522.png",
        "entry": 2793635,
        "entry_name": "Pain in D'ias",
        "event_total": 64,
        "has_played": true,
        "id": 20397381,
        "last_rank": 57200,
        "player_name": "Sean Eustace",
        "rank": 45787,
        "rank_sort": 45883,
        "total": 2355
      },
      {
        "club_badge_src": null,
        "entry": 2797616,
        "entry_name": "Bhakunde Bhoot",
        "event_total": 67,
        "has_played": true,
        "id": 20428356,
        "last_rank": 61950,
        "player_name": "Prabesh Karki",
        "rank": 45787,
        "rank_sort": 45884,
        "total": 2355
      },
      {
        "club_badge_src": null,
        "entry": 2841242,
        "entry_name": "DJFC",
        "event_total": 60,
        "has_played": true,
        "id": 20766393,
        "last_rank": 50635,
        "player_name": "Dylan Carroll",
        "rank": 45787,
        "rank_sort": 45885,
        "total": 2355
      },
      {
        "club_badge_src": null,
        "entry": 2896532,
        "entry_name": "Jethro T",
        "event_total": 55,
        "has_played": true,
        "id": 21222807,
        "last_rank": 38016,
        "player_name": "James Taylor",
        "rank": 45787,
        "rank_sort": 45886,
        "total": 2355
      },
      {
        "club_badge_src": null,
        "entry": 2933283,
        "entry_name": "hkc_11",
        "event_total": 61,
        "has_played": true,
        "id": 21515935,
        "last_rank": 45927,
        "player_name": "Harshavardhan Chavan",
        "rank": 45787,
        "rank_sort": 45887,
        "total": 2355
      },
      {
        "club_badge_src": null,
        "entry": 2962831,
        "entry_name": "HK Dragons",
        "event_total": 80,
        "has_played": true,
        "id": 21765193,
        "last_rank": 89055,
        "player_name": "Ishan Harishankar",
        "rank": 45787,
        "rank_sort": 45888,
        "total": 2355
      },
      {
        "club_badge_src": null,
        "entry": 3014631,
        "entry_name": "Hector Bellerina",
        "event_total": 54,
        "has_played": true,
        "id": 22178428,
        "last_rank": 36624,
        "player_name": "Verdi Choo",
        "rank": 45787,
        "rank_sort": 45889,
        "total": 2355
      },
      {
        "club_badge_src": null,
        "entry": 3042781,
        "entry_name": "Blue Lock",
        "event_total": 70,
        "has_played": true,
        "id": 22396777,
        "last_rank": 53023,
        "player_name": "Ahmed Ibrahim",
        "rank": 45787,
        "rank_sort": 45890,
        "total": 2355
      },
      {
        "club_badge_src": null,
        "entry": 3210438,
        "entry_name": "\u5496\u5561\u56e0\u6765\u81ea\u5496\u5561\u679c",
        "event_total": 58,
        "has_played": true,
        "id": 23735547,
        "last_rank": 47596,
        "player_name": "Ueu 909",
        "rank": 45787,
        "rank_sort": 45891,
        "total": 2355
      },
      {
        "club_badge_src": null,
        "entry": 3220451,
        "entry_name": "Who Let The Dorg Out",
        "event_total": 60,
        "has_played": true,
        "id": 23814541,
        "last_rank": 50635,
        "player_name": "Kyle Jones",
        "rank": 45787,
        "rank_sort": 45892,
        "total": 2355
      },
      {
        "club_badge_src": null,
        "entry": 3262067,
        "entry_name": "Omar fc",
        "event_total": 50,
        "has_played": true,
        "id": 24137563,
        "last_rank": 36831,
        "player_name": "Omar Edrees",
        "rank": 45787,
        "rank_sort": 45893,
        "total": 2355
      },
      {
        "club_badge_src": null,
        "entry": 3307222,
        "entry_name": "BooyaSaka",
        "event_total": 57,
        "has_played": true,
        "id": 24498337,
        "last_rank": 46106,
        "player_name": "Aran Seira",
        "rank": 45787,
        "rank_sort": 45894,
        "total": 2355
      },
      {
        "club_badge_src": null,
        "entry": 3331143,
        "entry_name": "Scotty Salmons",
        "event_total": 60,
        "has_played": true,
        "id": 24698555,
        "last_rank": 44525,
        "player_name": "Scott Hayward",
        "rank": 45787,
        "rank_sort": 45895,
        "total": 2355
      },
      {
        "club_badge_src": null,
        "entry": 3407512,
        "entry_name": "El Mazareeta FC",
        "event_total": 71,
        "has_played": true,
        "id": 25305164,
        "last_rank": 61950,
        "player_name": "Waleed Darwish",
        "rank": 45787,
        "rank_sort": 45896,
        "total": 2355
      },
      {
        "club_badge_src": null,
        "entry": 3468917,
        "entry_name": "MMM88",
        "event_total": 56,
        "has_played": true,
        "id": 25788518,
        "last_rank": 44672,
        "player_name": "Aukrit Sukonniyom",
        "rank": 45787,
        "rank_sort": 45897,
        "total": 2355
      },
      {
        "club_badge_src": null,
        "entry": 3498261,
        "entry_name": "FC Bremsespor",
        "event_total": 62,
        "has_played": true,
        "id": 26021347,
        "last_rank": 53837,
        "player_name": "Andreas Mahle",
        "rank": 45787,
        "rank_sort": 45898,
        "total": 2355
      },
      {
        "club_badge_src": "https://fantasy.premierleague.com/gcs/plfpl-production-adobe-approved/plfpl-production/3509020/2c529ac2-a24a-409f-8fbe-57b27c1243d5.png",
        "entry": 3509020,
        "entry_name": "Giraffes.com FC",
        "event_total": 59,
        "has_played": true,
        "id": 26109106,
        "last_rank": 42940,
        "player_name": "Gurtej Dhillon",
        "rank": 45787,
        "rank_sort": 45899,
        "total": 2355
      },
      {
        "club_badge_src": "https://fantasy.premierleague.com/gcs/plfpl-production-adobe-approved/plfpl-production/3635555/78983a53-0985-42e6-8ec2-88e3154307ea.png",
        "entry": 3635555,
        "entry_name": "Roger's",
        "event_total": 58,
        "has_played": true,
        "id": 27092792,
        "last_rank": 36624,
        "player_name": "Roger Lee",
        "rank": 45787,
        "rank_sort": 45900,
        "total": 2355
      }
    ]
  }
}