{
  "last_updated_data": "2026-05-24T23:28:17Z",
  "league": {
    "admin_entry": null,
    "closed": false,
    "code_privacy": "p",
    "created": "2025-07-20T23:14:33.933835Z",
    "cup_league": 2815434,
    "has_cup": true,
    "id": 314,
    "league_type": "s",
    "max_entries": null,
    "name": "Overall",
    "rank": null,
    "scoring": "c",
    "start_event": 1
  },
  "new_entries": {
    "has_next": false,
    "page": 1,
    "results": []
  },
  "standings": {
    "has_next": true,
    "page": 144,
    "results": [
      {
        "club_badge_src": null,
        "entry": 22794,
        "entry_name": "Hawk-Tuanzebe",
        "event_total": 54,
        "has_played": true,
        "id": 143296,
        "last_rank": 5904,
        "player_name": "Leon Louis",
        "rank": 7149,
        "rank_sort": 7151,
        "total": 2406
      },
      {
        "club_badge_src": null,
        "entry": 237036,
        "entry_name": "Kobbie and Paste",
        "event_total": 57,
        "has_played": true,
        "id": 1577056,
        "last_rank": 6752,
        "player_name": "Sam Williams",
        "rank": 7149,
        "rank_sort": 7152,
        "total": 2406
      },
      {
        "club_badge_src": null,
        "entry": 1021553,
        "entry_name": "Damien Duff i drag",
        "event_total": 56,
        "has_played": true,
        "id": 7067696,
        "last_rank": 6448,
        "player_name": "Eirik U Hansen",
        "rank": 7149,
        "rank_sort": 7153,
        "total": 2406
      },
      {
        "club_badge_src": "https://fantasy.premierleague.com/gcs/plfpl-production-adobe-approved/plfpl-production/1579045/c4149c8c-73f9-4078-90a8-5d07894caca3.png",
        "entry": 1579045,
        "entry_name": "Bruno dos tres",
        "event_total": 56,
        "has_played": true,
        "id": 11033946,
        "last_rank": 6386,
        "player_name": "Brett Clifford",
        "rank": 7149,
        "rank_sort": 7154,
        "total": 2406
      },
      {
        "club_badge_src": null,
        "entry": 2069476,
        "entry_name": "Kings of the Kippax",
        "event_total": 48,
        "has_played": true,
        "id": 14669721,
        "last_rank": 4515,
        "player_name": "Ned Taylor",
        "rank": 7149,
        "rank_sort": 7155,
        "total": 2406
      },
      {
        "club_badge_src": null,
        "entry": 2227309,
        "entry_name": "kristalna palata",
        "event_total": 48,
        "has_played": true,
        "id": 15865509,
        "last_rank": 4488,
        "player_name": "\u041c\u0430\u0440\u043a\u043e \u041a\u043e\u0458\u0438\u045b",
        "rank": 7149,
        "rank_sort": 7156,
        "total": 2406
      },
      {
        "club_badge_src": "https://fantasy.premierleague.com/gcs/plfpl-production-adobe-approved/plfpl-production/2858984/b4d94d7b-cd9a-469a-8e54-0739ec182efd.png",
        "entry": 2858984,
        "entry_name": "KINGMAKS FC",
        "event_total": 68,
        "has_played": true,
        "id": 20907062,
        "last_rank": 10720,
        "player_name": "Olumide Makinde",
        "rank": 7149,
        "rank_sort": 7157,
        "total": 2406
      },
      {
        "club_badge_src": null,
        "entry": 3799595,
        "entry_name": "H\u00e4rligheterna",
        "event_total": 60,
        "has_played": true,
        "id": 28402601,
        "last_rank": 7625,
        "player_name": "Carl Alnebo",
        "rank": 7149,
        "rank_sort": 7158,
        "total": 2406
      },
      {
        "club_badge_src": null,
        "entry": 3920763,
        "entry_name": "No more Mr Rice Kai",
        "event_total": 53,
        "has_played": true,
        "id": 29482818,
        "last_rank": 5688,
        "player_name": "Martin Freeman",
        "rank": 7149,
        "rank_sort": 7159,
        "total": 2406
      },
      {
        "club_badge_src": null,
        "entry": 4343601,
        "entry_name": "Chloe Kelly FC",
        "event_total": 71,
        "has_played": true,
        "id": 32981217,
        "last_rank": 12087,
        "player_name": "Benjamin Glazer",
        "rank": 7149,
        "rank_sort": 7160,
        "total": 2406
      },
      {
        "club_badge_src": null,
        "entry": 5164070,
        "entry_name": "Feckin 11",
        "event_total": 75,
        "has_played": true,
        "id": 39963398,
        "last_rank": 14251,
        "player_name": "Sean Hodgins",
        "rank": 7149,
        "rank_sort": 7161,
        "total": 2406
      },
      {
        "club_badge_src": null,
        "entry": 5483106,
        "entry_name": "RazzleDazzle",
        "event_total": 72,
        "has_played": true,
        "id": 42693603,
        "last_rank": 12608,
        "player_name": "Rasmus \u00c1rting",
        "rank": 7149,
        "rank_sort": 7162,
        "total": 2406
      },
      {
        "club_badge_src": null,
        "entry": 5839972,
        "entry_name": "Blues",
        "event_total": 68,
        "has_played": true,
        "id": 45842543,
        "last_rank": 10748,
        "player_name": "Mohammad Alrashed",
        "rank": 7149,
        "rank_sort": 7163,
        "total": 2406
      },
      {
        "club_badge_src": "https://fantasy.premierleague.com/gcs/plfpl-production-adobe-approved/plfpl-production/6238520/77767501-6902-4459-903f-83510828095f.png",
        "entry": 6238520,
        "entry_name": "Bowen737",
        "event_total": 74,
        "has_played": true,
        "id": 49375941,
        "last_rank": 13710,
        "player_name": "Isaac Hawksworth",
        "rank": 7149,
        "rank_sort": 7164,
        "total": 2406
      },
      {
        "club_badge_src": null,
        "entry": 6276033,
        "entry_name": "Me, Myself, Ndiaye",
        "event_total": 73,
        "has_played": true,
        "id": 49699813,
        "last_rank": 13123,
        "player_name": "Jake Hilber",
        "rank": 7149,
        "rank_sort": 7165,
        "total": 2406
      },
      {
        "club_badge_src": null,
        "entry": 6293558,
        "entry_name": "Too \u0160e\u0161ko for You",
        "event_total": 68,
        "has_played": true,
        "id": 49872923,
        "last_rank": 10711,
        "player_name": "Beshoy Yacoub",
        "rank": 7149,
        "rank_sort": 7166,
        "total": 2406
      },
      {
        "club_badge_src": null,
        "entry": 8581428,
        "entry_name": "Change Name",
        "event_total": 63,
        "has_played": true,
        "id": 71419403,
        "last_rank": 8687,
        "player_name": "Peter Hick",
        "rank": 7149,
        "rank_sort": 7167,
        "total": 2406
      },
      {
        "club_badge_src": "https://fantasy.premierleague.com/gcs/plfpl-production-adobe-approved/plfpl-production/8861034/d5050323-6d0e-4bfb-8fd1-7cdf3908942d.png",
        "entry": 8861034,
        "entry_name": "Slab Heads Lads",
        "event_total": 73,
        "has_played": true,
        "id": 74133502,
        "last_rank": 13257,
        "player_name": "Zadanian Coleridge",
        "rank": 7149,
        "rank_sort": 7168,
        "total": 2406
      },
      {
        "club_badge_src": null,
        "entry": 1125,
        "entry_name": "CBDan",
        "event_total": 51,
        "has_played": true,
        "id": 6253,
        "last_rank": 5173,
        "player_name": "Dan Hibell",
        "rank": 7169,
        "rank_sort": 7169,
        "total": 2406
      },
      {
        "club_badge_src": "https://fantasy.premierleague.com/gcs/plfpl-production-adobe-approved/plfpl-production/2689/e1f56aac-965f-43e1-87c1-a9c6ec427081.png",
        "entry": 2689,
        "entry_name": "Richie Rovers",
        "event_total": 64,
        "has_played": true,
        "id": 15061,
        "last_rank": 9142,
        "player_name": "Richard Carle",
        "rank": 7169,
        "rank_sort": 7170,
        "total": 2406
      },
      {
        "club_badge_src": null,
        "entry": 5022,
        "entry_name": "WHF Woodchucks",
        "event_total": 52,
        "has_played": true,
        "id": 28598,
        "last_rank": 5448,
        "player_name": "Darren Miller",
        "rank": 7169,
        "rank_sort": 7171,
        "total": 2406
      },
      {
        "club_badge_src": null,
        "entry": 8034,
        "entry_name": "Youssef",
        "event_total": 63,
        "has_played": true,
        "id": 46486,
        "last_rank": 8718,
        "player_name": "Youssef King",
        "rank": 7169,
        "rank_sort": 7172,
        "total": 2406
      },
      {
        "club_badge_src": null,
        "entry": 12335,
        "entry_name": "Pinky and De Bruyne",
        "event_total": 69,
        "has_played": true,
        "id": 73710,
        "last_rank": 11237,
        "player_name": "Stefan Harbron",
        "rank": 7169,
        "rank_sort": 7173,
        "total": 2406
      },
      {
        "club_badge_src": null,
        "entry": 16927,
        "entry_name": "Aiden MUTD for life",
        "event_total": 66,
        "has_played": true,
        "id": 104801,
        "last_rank": 9885,
        "player_name": "aidin salehzadeh",
        "rank": 7169,
        "rank_sort": 7174,
        "total": 2406
      },
      {
        "club_badge_src": null,
        "entry": 49679,
        "entry_name": "Phil's Horspurs",
        "event_total": 60,
        "has_played": true,
        "id": 319353,
        "last_rank": 7676,
        "player_name": "Phil Fox",
        "rank": 7169,
        "rank_sort": 7175,
        "total": 2406
      },
      {
        "club_badge_src": null,
        "entry": 62296,
        "entry_name": "Trance Party",
        "event_total": 59,
        "has_played": true,
        "id": 401456,
        "last_rank": 7375,
        "player_name": "Konstantinos Xanthakis",
        "rank": 7169,
        "rank_sort": 7176,
        "total": 2406
      },
      {
        "club_badge_src": null,
        "entry": 63623,
        "entry_name": "Pique Blinders",
        "event_total": 59,
        "has_played": true,
        "id": 410537,
        "last_rank": 7375,
        "player_name": "dave mchugh",
        "rank": 7169,
        "rank_sort": 7177,
        "total": 2406
      },
      {
        "club_badge_src": null,
        "entry": 98266,
        "entry_name": "Chris Harris",
        "event_total": 41,
        "has_played": true,
        "id": 641741,
        "last_rank": 3257,
        "player_name": "Philip Winchester",
        "rank": 7169,
        "rank_sort": 7178,
        "total": 2406
      },
      {
        "club_badge_src": null,
        "entry": 165192,
        "entry_name": "Monkey Spankers",
        "event_total": 30,
        "has_played": true,
        "id": 1090545,
        "last_rank": 1856,
        "player_name": "Mark Birch",
        "rank": 7169,
        "rank_sort": 7179,
        "total": 2406
      },
      {
        "club_badge_src": null,
        "entry": 170838,
        "entry_name": "Pumpalica",
        "event_total": 47,
        "has_played": true,
        "id": 1128662,
        "last_rank": 4270,
        "player_name": "Aleksa Aleksa",
        "rank": 7169,
        "rank_sort": 7180,
        "total": 2406
      },
      {
        "club_badge_src": null,
        "entry": 180249,
        "entry_name": "Ballack Ops",
        "event_total": 44,
        "has_played": true,
        "id": 1189505,
        "last_rank": 3721,
        "player_name": "Sam Bodinham",
        "rank": 7169,
        "rank_sort": 7181,
        "total": 2406
      },
      {
        "club_badge_src": null,
        "entry": 185133,
        "entry_name": "Miles & Miles Ahead",
        "event_total": 69,
        "has_played": true,
        "id": 1222765,
        "last_rank": 11237,
        "player_name": "Nick Miles",
        "rank": 7169,
        "rank_sort": 7182,
        "total": 2406
      },
      {
        "club_badge_src": null,
        "entry": 203679,
        "entry_name": "Fanatics 2025",
        "event_total": 64,
        "has_played": true,
        "id": 1353317,
        "last_rank": 9089,
        "player_name": "Ron Chetty",
        "rank": 7169,
        "rank_sort": 7183,
        "total": 2406
      },
      {
        "club_badge_src": null,
        "entry": 231378,
        "entry_name": "BringBackFergie",
        "event_total": 67,
        "has_played": true,
        "id": 1539386,
        "last_rank": 10288,
        "player_name": "Luke Windak",
        "rank": 7169,
        "rank_sort": 7184,
        "total": 2406
      },
      {
        "club_badge_src": "https://fantasy.premierleague.com/gcs/plfpl-production-adobe-approved/plfpl-production/238799/17df52a4-9fe0-4175-a4d8-71bca940aa58.png",
        "entry": 238799,
        "entry_name": "Football Club F.C.",
        "event_total": 62,
        "has_played": true,
        "id": 1588871,
        "last_rank": 8339,
        "player_name": "Jake Broad",
        "rank": 7169,
        "rank_sort": 7185,
        "total": 2406
      },
      {
        "club_badge_src": null,
        "entry": 240033,
        "entry_name": "1+3+3=7",
        "event_total": 67,
        "has_played": true,
        "id": 1597411,
        "last_rank": 10288,
        "player_name": "Alex McQueen",
        "rank": 7169,
        "rank_sort": 7186,
        "total": 2406
      },
      {
        "club_badge_src": null,
        "entry": 275482,
        "entry_name": "Gert Lush",
        "event_total": 53,
        "has_played": true,
        "id": 1833403,
        "last_rank": 5688,
        "player_name": "Bobby Treweek",
        "rank": 7169,
        "rank_sort": 7187,
        "total": 2406
      },
      {
        "club_badge_src": null,
        "entry": 289827,
        "entry_name": "Project Gy\u00f6keres",
        "event_total": 69,
        "has_played": true,
        "id": 1932188,
        "last_rank": 11142,
        "player_name": "Rafik Al Dahhan",
        "rank": 7169,
        "rank_sort": 7188,
        "total": 2406
      },
      {
        "club_badge_src": null,
        "entry": 321205,
        "entry_name": "Party",
        "event_total": 68,
        "has_played": true,
        "id": 2152720,
        "last_rank": 10748,
        "player_name": "Michael Downs",
        "rank": 7169,
        "rank_sort": 7189,
        "total": 2406
      },
      {
        "club_badge_src": "https://fantasy.premierleague.com/gcs/plfpl-production-adobe-approved/plfpl-production/418572/0a72aabb-3de7-497e-adf9-6dee752522ba.png",
        "entry": 418572,
        "entry_name": "Utah Saints",
        "event_total": 56,
        "has_played": true,
        "id": 2805523,
        "last_rank": 6448,
        "player_name": "James Howard",
        "rank": 7169,
        "rank_sort": 7190,
        "total": 2406
      },
      {
        "club_badge_src": "https://fantasy.premierleague.com/gcs/plfpl-production-adobe-approved/plfpl-production/469172/f54a8e4d-0b21-4982-888d-c8cc986ff527.png",
        "entry": 469172,
        "entry_name": "Bob Olinger",
        "event_total": 53,
        "has_played": true,
        "id": 3149023,
        "last_rank": 5646,
        "player_name": "Pete W",
        "rank": 7169,
        "rank_sort": 7191,
        "total": 2406
      },
      {
        "club_badge_src": null,
        "entry": 488605,
        "entry_name": "howe's the bacon",
        "event_total": 43,
        "has_played": true,
        "id": 3280041,
        "last_rank": 3528,
        "player_name": "Josh Mains",
        "rank": 7169,
        "rank_sort": 7192,
        "total": 2406
      },
      {
        "club_badge_src": "https://fantasy.premierleague.com/gcs/plfpl-production-adobe-approved/plfpl-production/494053/c8505a50-bfc6-4e6a-b2cb-43b3b05e4f77.png",
        "entry": 494053,
        "entry_name": "Mariovlad",
        "event_total": 69,
        "has_played": true,
        "id": 3316251,
        "last_rank": 11237,
        "player_name": "Mario Vladimirov",
        "rank": 7169,
        "rank_sort": 7193,
        "total": 2406
      },
      {
        "club_badge_src": null,
        "entry": 519182,
        "entry_name": "shandorma",
        "event_total": 66,
        "has_played": true,
        "id": 3486015,
        "last_rank": 9885,
        "player_name": "Yaqdhan Rawahi",
        "rank": 7169,
        "rank_sort": 7194,
        "total": 2406
      },
      {
        "club_badge_src": null,
        "entry": 880562,
        "entry_name": "Change Name",
        "event_total": 59,
        "has_played": true,
        "id": 6038590,
        "last_rank": 7375,
        "player_name": "John Kirkwood",
        "rank": 7169,
        "rank_sort": 7195,
        "total": 2406
      },
      {
        "club_badge_src": null,
        "entry": 913079,
        "entry_name": "Beto Baleba it",
        "event_total": 60,
        "has_played": true,
        "id": 6278381,
        "last_rank": 7604,
        "player_name": "Ben Vere",
        "rank": 7169,
        "rank_sort": 7196,
        "total": 2406
      },
      {
        "club_badge_src": null,
        "entry": 1033852,
        "entry_name": "MKS M\u0119tna",
        "event_total": 71,
        "has_played": true,
        "id": 7153961,
        "last_rank": 12322,
        "player_name": "Igor Buchowiec",
        "rank": 7169,
        "rank_sort": 7197,
        "total": 2406
      },
      {
        "club_badge_src": null,
        "entry": 1104724,
        "entry_name": "fc kantelen",
        "event_total": 57,
        "has_played": true,
        "id": 7652163,
        "last_rank": 6839,
        "player_name": "Joe Van der Kamp",
        "rank": 7169,
        "rank_sort": 7198,
        "total": 2406
      },
      {
        "club_badge_src": null,
        "entry": 1332644,
        "entry_name": "Paulie pants",
        "event_total": 60,
        "has_played": true,
        "id": 9262702,
        "last_rank": 7625,
        "player_name": "Paul O'Leary",
        "rank": 7169,
        "rank_sort": 7199,
        "total": 2406
      },
      {
        "club_badge_src": null,
        "entry": 1396899,
        "entry_name": "Godknall fc",
        "event_total": 69,
        "has_played": true,
        "id": 9718287,
        "last_rank": 11237,
        "player_name": "Daniel Dybvik",
        "rank": 7169,
        "rank_sort": 7200,
        "total": 2406
      }
    ]
  }
}