{
  "last_updated_data": "2026-05-24T23:28:17Z",
  "league": {
    "admin_entry": null,
    "closed": false,
    "code_privacy": "p",
    "created": "2025-07-20T23:14:33.933835Z",
    "cup_league": 2815434,
    "has_cup": true,
    "id": 314,
    "league_type": "s",
    "max_entries": null,
    "name": "Overall",
    "rank": null,
    "scoring": "c",
    "start_event": 1
  },
  "new_entries": {
    "has_next": false,
    "page": 1,
    "results": []
  },
  "standings": {
    "has_next": true,
    "page": 1638,
    "results": [
      {
        "club_badge_src": null,
        "entry": 133303,
        "entry_name": "Michaels XI",
        "event_total": 63,
        "has_played": true,
        "id": 868271,
        "last_rank": 98011,
        "player_name": "Michael Nichol",
        "rank": 81843,
        "rank_sort": 81851,
        "total": 2334
      },
      {
        "club_badge_src": null,
        "entry": 161294,
        "entry_name": "The Goonies",
        "event_total": 64,
        "has_played": true,
        "id": 1062542,
        "last_rank": 100700,
        "player_name": "Joe Hart",
        "rank": 81843,
        "rank_sort": 81852,
        "total": 2334
      },
      {
        "club_badge_src": null,
        "entry": 175987,
        "entry_name": "Tolley Gunnar",
        "event_total": 67,
        "has_played": true,
        "id": 1161794,
        "last_rank": 108689,
        "player_name": "Steve Tolley",
        "rank": 81843,
        "rank_sort": 81853,
        "total": 2334
      },
      {
        "club_badge_src": null,
        "entry": 188594,
        "entry_name": "Thomas' Frank engine",
        "event_total": 50,
        "has_played": true,
        "id": 1247801,
        "last_rank": 68748,
        "player_name": "Ryan Davison",
        "rank": 81843,
        "rank_sort": 81854,
        "total": 2334
      },
      {
        "club_badge_src": null,
        "entry": 286784,
        "entry_name": "50 Shades O\u2019Shea",
        "event_total": 58,
        "has_played": true,
        "id": 1910817,
        "last_rank": 86054,
        "player_name": "Adam Herd",
        "rank": 81843,
        "rank_sort": 81855,
        "total": 2334
      },
      {
        "club_badge_src": null,
        "entry": 366892,
        "entry_name": "Lost for Wirtz",
        "event_total": 68,
        "has_played": true,
        "id": 2455334,
        "last_rank": 111270,
        "player_name": "Alex Bruce",
        "rank": 81843,
        "rank_sort": 81856,
        "total": 2334
      },
      {
        "club_badge_src": null,
        "entry": 434175,
        "entry_name": "fsbaia",
        "event_total": 40,
        "has_played": true,
        "id": 2911645,
        "last_rank": 51403,
        "player_name": "yassin ismael",
        "rank": 81843,
        "rank_sort": 81857,
        "total": 2334
      },
      {
        "club_badge_src": null,
        "entry": 438913,
        "entry_name": "Knock-off Bamford FC",
        "event_total": 69,
        "has_played": true,
        "id": 2943203,
        "last_rank": 114095,
        "player_name": "Ed Tunnacliffe",
        "rank": 81843,
        "rank_sort": 81858,
        "total": 2334
      },
      {
        "club_badge_src": null,
        "entry": 459594,
        "entry_name": "Hacunha Matata",
        "event_total": 57,
        "has_played": true,
        "id": 3083166,
        "last_rank": 83698,
        "player_name": "Sam Ward",
        "rank": 81843,
        "rank_sort": 81859,
        "total": 2334
      },
      {
        "club_badge_src": null,
        "entry": 466467,
        "entry_name": "Sesko Clubcard",
        "event_total": 57,
        "has_played": true,
        "id": 3129720,
        "last_rank": 83934,
        "player_name": "Luke Craggs",
        "rank": 81843,
        "rank_sort": 81860,
        "total": 2334
      },
      {
        "club_badge_src": null,
        "entry": 471759,
        "entry_name": "ild",
        "event_total": 52,
        "has_played": true,
        "id": 3167286,
        "last_rank": 72702,
        "player_name": "Jeppe Jensen",
        "rank": 81843,
        "rank_sort": 81861,
        "total": 2334
      },
      {
        "club_badge_src": null,
        "entry": 484613,
        "entry_name": "Tommy Tifo",
        "event_total": 59,
        "has_played": true,
        "id": 3252865,
        "last_rank": 88249,
        "player_name": "Tommy Tran",
        "rank": 81843,
        "rank_sort": 81862,
        "total": 2334
      },
      {
        "club_badge_src": null,
        "entry": 583166,
        "entry_name": "Egodeath",
        "event_total": 59,
        "has_played": true,
        "id": 3924541,
        "last_rank": 88594,
        "player_name": "Boris Juri\u0107",
        "rank": 81843,
        "rank_sort": 81863,
        "total": 2334
      },
      {
        "club_badge_src": "https://fantasy.premierleague.com/gcs/plfpl-production-adobe-approved/plfpl-production/613788/ebf5d7b6-48df-49d9-8b1c-121d604ad463.png",
        "entry": 613788,
        "entry_name": "The Dead Turtles",
        "event_total": 30,
        "has_played": true,
        "id": 4147412,
        "last_rank": 37589,
        "player_name": "Shane O Neill",
        "rank": 81843,
        "rank_sort": 81864,
        "total": 2334
      },
      {
        "club_badge_src": null,
        "entry": 614846,
        "entry_name": "COYG",
        "event_total": 61,
        "has_played": true,
        "id": 4154501,
        "last_rank": 93052,
        "player_name": "Nathan Dillon",
        "rank": 81843,
        "rank_sort": 81865,
        "total": 2334
      },
      {
        "club_badge_src": null,
        "entry": 621017,
        "entry_name": "The Special Ones",
        "event_total": 58,
        "has_played": true,
        "id": 4196783,
        "last_rank": 85836,
        "player_name": "Tarjei Strand",
        "rank": 81843,
        "rank_sort": 81866,
        "total": 2334
      },
      {
        "club_badge_src": null,
        "entry": 628216,
        "entry_name": "Sesko Meal Deal",
        "event_total": 65,
        "has_played": true,
        "id": 4245111,
        "last_rank": 103526,
        "player_name": "Joe Procter",
        "rank": 81843,
        "rank_sort": 81867,
        "total": 2334
      },
      {
        "club_badge_src": null,
        "entry": 659944,
        "entry_name": "Bruno dos tres",
        "event_total": 72,
        "has_played": true,
        "id": 4460182,
        "last_rank": 123120,
        "player_name": "David Mitchell",
        "rank": 81843,
        "rank_sort": 81868,
        "total": 2334
      },
      {
        "club_badge_src": null,
        "entry": 711043,
        "entry_name": "The Mallard",
        "event_total": 75,
        "has_played": true,
        "id": 4822529,
        "last_rank": 132198,
        "player_name": "markus coombs",
        "rank": 81843,
        "rank_sort": 81869,
        "total": 2334
      },
      {
        "club_badge_src": "https://fantasy.premierleague.com/gcs/plfpl-production-adobe-approved/plfpl-production/872815/463565e7-6bb8-4da4-bb88-99063f0f35f1.png",
        "entry": 872815,
        "entry_name": "G Train",
        "event_total": 54,
        "has_played": true,
        "id": 5983847,
        "last_rank": 77050,
        "player_name": "Gary Davis",
        "rank": 81843,
        "rank_sort": 81870,
        "total": 2334
      },
      {
        "club_badge_src": null,
        "entry": 979651,
        "entry_name": "Garra Charrua",
        "event_total": 57,
        "has_played": true,
        "id": 6753700,
        "last_rank": 83584,
        "player_name": "Andrea Piu",
        "rank": 81843,
        "rank_sort": 81871,
        "total": 2334
      },
      {
        "club_badge_src": "https://fantasy.premierleague.com/gcs/plfpl-production-adobe-approved/plfpl-production/1010995/3bf9fd61-8699-402d-9361-22e69165b748.png",
        "entry": 1010995,
        "entry_name": "Last. For Now",
        "event_total": 40,
        "has_played": true,
        "id": 6992539,
        "last_rank": 51403,
        "player_name": "Manar Hassan",
        "rank": 81843,
        "rank_sort": 81872,
        "total": 2334
      },
      {
        "club_badge_src": "https://fantasy.premierleague.com/gcs/plfpl-production-adobe-approved/plfpl-production/1047294/8a32f206-0a8d-44fe-8fd8-4866cd630945.png",
        "entry": 1047294,
        "entry_name": "itchy ball isak",
        "event_total": 70,
        "has_played": true,
        "id": 7247951,
        "last_rank": 117112,
        "player_name": "Paul Mcalindon",
        "rank": 81843,
        "rank_sort": 81873,
        "total": 2334
      },
      {
        "club_badge_src": null,
        "entry": 1081871,
        "entry_name": "Tuna Kanu",
        "event_total": 65,
        "has_played": true,
        "id": 7491062,
        "last_rank": 103526,
        "player_name": "gary babington",
        "rank": 81843,
        "rank_sort": 81874,
        "total": 2334
      },
      {
        "club_badge_src": null,
        "entry": 1142086,
        "entry_name": "put it in the neto",
        "event_total": 51,
        "has_played": true,
        "id": 7916844,
        "last_rank": 70757,
        "player_name": "Emilis Baltrusaitis",
        "rank": 81843,
        "rank_sort": 81875,
        "total": 2334
      },
      {
        "club_badge_src": null,
        "entry": 1149028,
        "entry_name": "Zubi Dubi Do",
        "event_total": 49,
        "has_played": true,
        "id": 7966790,
        "last_rank": 67063,
        "player_name": "Aaron Campbell",
        "rank": 81843,
        "rank_sort": 81876,
        "total": 2334
      },
      {
        "club_badge_src": null,
        "entry": 1205614,
        "entry_name": "Mudryk Took PEDs",
        "event_total": 65,
        "has_played": true,
        "id": 8366673,
        "last_rank": 103054,
        "player_name": "Jake Wise",
        "rank": 81843,
        "rank_sort": 81877,
        "total": 2334
      },
      {
        "club_badge_src": "https://fantasy.premierleague.com/gcs/plfpl-production-adobe-approved/plfpl-production/1213217/23727f08-f400-49e6-bd44-c0f5a05068fb.png",
        "entry": 1213217,
        "entry_name": "\u2664Yoro Wizard Harry\u2664",
        "event_total": 68,
        "has_played": true,
        "id": 8420973,
        "last_rank": 111203,
        "player_name": "Tyrique Naidoo",
        "rank": 81843,
        "rank_sort": 81878,
        "total": 2334
      },
      {
        "club_badge_src": null,
        "entry": 1236073,
        "entry_name": "Killerz",
        "event_total": 76,
        "has_played": true,
        "id": 8583473,
        "last_rank": 135491,
        "player_name": "Mfundo Skhosana",
        "rank": 81843,
        "rank_sort": 81879,
        "total": 2334
      },
      {
        "club_badge_src": null,
        "entry": 1255720,
        "entry_name": "yaya",
        "event_total": 71,
        "has_played": true,
        "id": 8721987,
        "last_rank": 97982,
        "player_name": "Markus Kylstad",
        "rank": 81843,
        "rank_sort": 81880,
        "total": 2334
      },
      {
        "club_badge_src": null,
        "entry": 1258276,
        "entry_name": "Kinder Mbeumo",
        "event_total": 67,
        "has_played": true,
        "id": 8740270,
        "last_rank": 108689,
        "player_name": "Levi Bass",
        "rank": 81843,
        "rank_sort": 81881,
        "total": 2334
      },
      {
        "club_badge_src": null,
        "entry": 1391719,
        "entry_name": "Retorno",
        "event_total": 69,
        "has_played": true,
        "id": 9682033,
        "last_rank": 114169,
        "player_name": "Manuel Filipe",
        "rank": 81843,
        "rank_sort": 81882,
        "total": 2334
      },
      {
        "club_badge_src": null,
        "entry": 1425417,
        "entry_name": "Zubi or not Zubi*",
        "event_total": 50,
        "has_played": true,
        "id": 9931671,
        "last_rank": 68957,
        "player_name": "Paddy Green",
        "rank": 81843,
        "rank_sort": 81883,
        "total": 2334
      },
      {
        "club_badge_src": "https://fantasy.premierleague.com/gcs/plfpl-production-adobe-approved/plfpl-production/1486355/70a450c1-9e54-4582-9d34-04aad4bdb257.png",
        "entry": 1486355,
        "entry_name": "GoldenGrowlithe(?)ft",
        "event_total": 60,
        "has_played": true,
        "id": 10365055,
        "last_rank": 90746,
        "player_name": "Josh Bielski",
        "rank": 81843,
        "rank_sort": 81884,
        "total": 2334
      },
      {
        "club_badge_src": null,
        "entry": 1607789,
        "entry_name": "Livin' Saliba Loca",
        "event_total": 50,
        "has_played": true,
        "id": 11248917,
        "last_rank": 68624,
        "player_name": "James Cunningham",
        "rank": 81843,
        "rank_sort": 81885,
        "total": 2334
      },
      {
        "club_badge_src": null,
        "entry": 1630782,
        "entry_name": "Top of the Slots",
        "event_total": 77,
        "has_played": true,
        "id": 11414433,
        "last_rank": 138767,
        "player_name": "Liam Sharp",
        "rank": 81843,
        "rank_sort": 81886,
        "total": 2334
      },
      {
        "club_badge_src": null,
        "entry": 1641875,
        "entry_name": "Expected Toulouse FC",
        "event_total": 65,
        "has_played": true,
        "id": 11493328,
        "last_rank": 103054,
        "player_name": "James McCann",
        "rank": 81843,
        "rank_sort": 81887,
        "total": 2334
      },
      {
        "club_badge_src": null,
        "entry": 1657520,
        "entry_name": "Gunners",
        "event_total": 41,
        "has_played": true,
        "id": 11604502,
        "last_rank": 53023,
        "player_name": "Tshering Samdup",
        "rank": 81843,
        "rank_sort": 81888,
        "total": 2334
      },
      {
        "club_badge_src": null,
        "entry": 1709232,
        "entry_name": "SimplyTryby",
        "event_total": 70,
        "has_played": true,
        "id": 11975518,
        "last_rank": 116953,
        "player_name": "Arkadiusz Boruch",
        "rank": 81843,
        "rank_sort": 81889,
        "total": 2334
      },
      {
        "club_badge_src": null,
        "entry": 1837829,
        "entry_name": "BK Brunk",
        "event_total": 70,
        "has_played": true,
        "id": 12929277,
        "last_rank": 117423,
        "player_name": "Adam Str\u00f6mberg",
        "rank": 81843,
        "rank_sort": 81890,
        "total": 2334
      },
      {
        "club_badge_src": null,
        "entry": 1875275,
        "entry_name": "k!NG G@M@L",
        "event_total": 68,
        "has_played": true,
        "id": 13202889,
        "last_rank": 111405,
        "player_name": "Free Palestine \ud83c\uddf5\ud83c\uddf8",
        "rank": 81843,
        "rank_sort": 81891,
        "total": 2334
      },
      {
        "club_badge_src": null,
        "entry": 1906775,
        "entry_name": "Eze O Sarrrrrrrrr",
        "event_total": 49,
        "has_played": true,
        "id": 13442389,
        "last_rank": 59535,
        "player_name": "Alex Collins",
        "rank": 81843,
        "rank_sort": 81892,
        "total": 2334
      },
      {
        "club_badge_src": null,
        "entry": 2022555,
        "entry_name": "Yawn",
        "event_total": 83,
        "has_played": true,
        "id": 14312191,
        "last_rank": 159574,
        "player_name": "Scott Lipnick",
        "rank": 81843,
        "rank_sort": 81893,
        "total": 2334
      },
      {
        "club_badge_src": null,
        "entry": 2036688,
        "entry_name": "Spam Fritter",
        "event_total": 66,
        "has_played": true,
        "id": 14421197,
        "last_rank": 105963,
        "player_name": "Philip Thomson",
        "rank": 81843,
        "rank_sort": 81894,
        "total": 2334
      },
      {
        "club_badge_src": null,
        "entry": 2136326,
        "entry_name": "DropItLikeIt'sSlot",
        "event_total": 60,
        "has_played": true,
        "id": 15182544,
        "last_rank": 90625,
        "player_name": "Mark Llewellyn",
        "rank": 81843,
        "rank_sort": 81895,
        "total": 2334
      },
      {
        "club_badge_src": "https://fantasy.premierleague.com/gcs/plfpl-production-adobe-approved/plfpl-production/2183011/db458f5a-651c-4c4c-9937-bb69fc0e8ca6.png",
        "entry": 2183011,
        "entry_name": "Oscar Alho",
        "event_total": 58,
        "has_played": true,
        "id": 15527794,
        "last_rank": 86304,
        "player_name": "Filipe Lopes",
        "rank": 81843,
        "rank_sort": 81896,
        "total": 2334
      },
      {
        "club_badge_src": null,
        "entry": 2216290,
        "entry_name": "Morrissey's Men",
        "event_total": 49,
        "has_played": true,
        "id": 15783867,
        "last_rank": 66848,
        "player_name": "Cillian Morrissey",
        "rank": 81843,
        "rank_sort": 81897,
        "total": 2334
      },
      {
        "club_badge_src": null,
        "entry": 2231829,
        "entry_name": "Nobbysstyle",
        "event_total": 56,
        "has_played": true,
        "id": 15899494,
        "last_rank": 81420,
        "player_name": "Paul Clifford",
        "rank": 81843,
        "rank_sort": 81898,
        "total": 2334
      },
      {
        "club_badge_src": null,
        "entry": 2267543,
        "entry_name": "Pi\u0142karzyki z B klasy",
        "event_total": 69,
        "has_played": true,
        "id": 16168314,
        "last_rank": 114574,
        "player_name": "Szymon Urban",
        "rank": 81843,
        "rank_sort": 81899,
        "total": 2334
      },
      {
        "club_badge_src": "https://fantasy.premierleague.com/gcs/plfpl-production-adobe-approved/plfpl-production/2515528/6fa2e801-ca6e-4689-a759-5c554048c6e3.png",
        "entry": 2515528,
        "entry_name": "Bruno Dos Tres",
        "event_total": 48,
        "has_played": true,
        "id": 18022187,
        "last_rank": 64943,
        "player_name": "Craig Jones",
        "rank": 81843,
        "rank_sort": 81900,
        "total": 2334
      }
    ]
  }
}