{
  "last_updated_data": "2026-05-24T23:28:17Z",
  "league": {
    "admin_entry": null,
    "closed": false,
    "code_privacy": "p",
    "created": "2025-07-20T23:14:33.933835Z",
    "cup_league": 2815434,
    "has_cup": true,
    "id": 314,
    "league_type": "s",
    "max_entries": null,
    "name": "Overall",
    "rank": null,
    "scoring": "c",
    "start_event": 1
  },
  "new_entries": {
    "has_next": false,
    "page": 1,
    "results": []
  },
  "standings": {
    "has_next": true,
    "page": 682,
    "results": [
      {
        "club_badge_src": null,
        "entry": 273336,
        "entry_name": "JOAO PEDRO",
        "event_total": 40,
        "has_played": true,
        "id": 1818750,
        "last_rank": 18790,
        "player_name": "Mashudur Rahman",
        "rank": 34016,
        "rank_sort": 34051,
        "total": 2364
      },
      {
        "club_badge_src": null,
        "entry": 276888,
        "entry_name": "The Grand Ayatollahs",
        "event_total": 57,
        "has_played": true,
        "id": 1842957,
        "last_rank": 33936,
        "player_name": "Brett Schneider",
        "rank": 34016,
        "rank_sort": 34052,
        "total": 2364
      },
      {
        "club_badge_src": null,
        "entry": 279429,
        "entry_name": "The Power Reijnders",
        "event_total": 58,
        "has_played": true,
        "id": 1859686,
        "last_rank": 35034,
        "player_name": "Will Stone",
        "rank": 34016,
        "rank_sort": 34053,
        "total": 2364
      },
      {
        "club_badge_src": null,
        "entry": 297294,
        "entry_name": "Loves To Suck Them",
        "event_total": 56,
        "has_played": true,
        "id": 1986902,
        "last_rank": 28609,
        "player_name": "Mitchell Turner",
        "rank": 34016,
        "rank_sort": 34054,
        "total": 2364
      },
      {
        "club_badge_src": "https://fantasy.premierleague.com/gcs/plfpl-production-adobe-approved/plfpl-production/301732/c9186b6c-3569-4884-a5ba-d064a4191bb7.png",
        "entry": 301732,
        "entry_name": "Haytham FPL",
        "event_total": 75,
        "has_played": true,
        "id": 2018901,
        "last_rank": 59632,
        "player_name": "Haytham Al-Saidi",
        "rank": 34016,
        "rank_sort": 34055,
        "total": 2364
      },
      {
        "club_badge_src": "https://fantasy.premierleague.com/gcs/plfpl-production-adobe-approved/plfpl-production/320480/29f4cae2-54cb-428f-a6cb-efe9a146e4fb.png",
        "entry": 320480,
        "entry_name": "Brilliantz",
        "event_total": 68,
        "has_played": true,
        "id": 2147980,
        "last_rank": 48363,
        "player_name": "Eldrich Rangel",
        "rank": 34016,
        "rank_sort": 34056,
        "total": 2364
      },
      {
        "club_badge_src": null,
        "entry": 330108,
        "entry_name": "Angel DeLigt",
        "event_total": 67,
        "has_played": true,
        "id": 2211223,
        "last_rank": 46839,
        "player_name": "MARK GLADWIN",
        "rank": 34016,
        "rank_sort": 34057,
        "total": 2364
      },
      {
        "club_badge_src": null,
        "entry": 331591,
        "entry_name": "Bowen's on Fire",
        "event_total": 67,
        "has_played": true,
        "id": 2220958,
        "last_rank": 46547,
        "player_name": "Will Argent",
        "rank": 34016,
        "rank_sort": 34058,
        "total": 2364
      },
      {
        "club_badge_src": "https://fantasy.premierleague.com/gcs/plfpl-production-adobe-approved/plfpl-production/344815/608ef656-8953-4018-b11d-e313ed1074ce.png",
        "entry": 344815,
        "entry_name": "Clays Crabs",
        "event_total": 70,
        "has_played": true,
        "id": 2308041,
        "last_rank": 51220,
        "player_name": "Clayton Noris",
        "rank": 34016,
        "rank_sort": 34059,
        "total": 2364
      },
      {
        "club_badge_src": null,
        "entry": 348615,
        "entry_name": "Sivapool",
        "event_total": 59,
        "has_played": true,
        "id": 2333471,
        "last_rank": 36348,
        "player_name": "Dan Siva",
        "rank": 34016,
        "rank_sort": 34060,
        "total": 2364
      },
      {
        "club_badge_src": null,
        "entry": 357295,
        "entry_name": "RegisLeBlitz",
        "event_total": 63,
        "has_played": true,
        "id": 2391071,
        "last_rank": 41162,
        "player_name": "Stephen Mckenzie",
        "rank": 34016,
        "rank_sort": 34061,
        "total": 2364
      },
      {
        "club_badge_src": "https://fantasy.premierleague.com/gcs/plfpl-production-adobe-approved/plfpl-production/366067/7fd49854-f5a4-40b5-8328-b4d7542d87df.png",
        "entry": 366067,
        "entry_name": "Buffalo Soldiers",
        "event_total": 56,
        "has_played": true,
        "id": 2449677,
        "last_rank": 28609,
        "player_name": "Fawad Dhundware",
        "rank": 34016,
        "rank_sort": 34062,
        "total": 2364
      },
      {
        "club_badge_src": null,
        "entry": 374006,
        "entry_name": "Rozovite Panteri",
        "event_total": 66,
        "has_played": true,
        "id": 2502559,
        "last_rank": 45252,
        "player_name": "Konstantin Koychev",
        "rank": 34016,
        "rank_sort": 34063,
        "total": 2364
      },
      {
        "club_badge_src": null,
        "entry": 378003,
        "entry_name": "Real United",
        "event_total": 56,
        "has_played": true,
        "id": 2532339,
        "last_rank": 32879,
        "player_name": "Chris Wilson",
        "rank": 34016,
        "rank_sort": 34064,
        "total": 2364
      },
      {
        "club_badge_src": null,
        "entry": 421024,
        "entry_name": "\u00d8-\u00d6",
        "event_total": 71,
        "has_played": true,
        "id": 2821558,
        "last_rank": 52759,
        "player_name": "Truls Tr\u00e6en",
        "rank": 34016,
        "rank_sort": 34065,
        "total": 2364
      },
      {
        "club_badge_src": "https://fantasy.premierleague.com/gcs/plfpl-production-adobe-approved/plfpl-production/421935/a9e5c597-95e2-4ec8-9748-67d9ffc0cf2b.png",
        "entry": 421935,
        "entry_name": "van de Ven Diagram",
        "event_total": 73,
        "has_played": true,
        "id": 2827629,
        "last_rank": 56180,
        "player_name": "Regan Gishen",
        "rank": 34016,
        "rank_sort": 34066,
        "total": 2364
      },
      {
        "club_badge_src": null,
        "entry": 428647,
        "entry_name": "Cold Talmer",
        "event_total": 67,
        "has_played": true,
        "id": 2875004,
        "last_rank": 46839,
        "player_name": "Tal Ben Hamo",
        "rank": 34016,
        "rank_sort": 34067,
        "total": 2364
      },
      {
        "club_badge_src": null,
        "entry": 472378,
        "entry_name": "Gismo United",
        "event_total": 41,
        "has_played": true,
        "id": 3171479,
        "last_rank": 19432,
        "player_name": "Steve Fowkes",
        "rank": 34016,
        "rank_sort": 34068,
        "total": 2364
      },
      {
        "club_badge_src": "https://fantasy.premierleague.com/gcs/plfpl-production-adobe-approved/plfpl-production/474056/a4293288-4afd-43f4-a592-5f58616c256d.png",
        "entry": 474056,
        "entry_name": "Tubular_Balls",
        "event_total": 49,
        "has_played": true,
        "id": 3182625,
        "last_rank": 26088,
        "player_name": "Damian Chaleyssin",
        "rank": 34016,
        "rank_sort": 34069,
        "total": 2364
      },
      {
        "club_badge_src": null,
        "entry": 481362,
        "entry_name": "Seize The Ball",
        "event_total": 42,
        "has_played": true,
        "id": 3231619,
        "last_rank": 20179,
        "player_name": "Cameron Rich",
        "rank": 34016,
        "rank_sort": 34070,
        "total": 2364
      },
      {
        "club_badge_src": null,
        "entry": 492322,
        "entry_name": "tads",
        "event_total": 43,
        "has_played": true,
        "id": 3304751,
        "last_rank": 20983,
        "player_name": "Tom Adsett",
        "rank": 34016,
        "rank_sort": 34071,
        "total": 2364
      },
      {
        "club_badge_src": null,
        "entry": 529374,
        "entry_name": "Onana what\u2019s my name",
        "event_total": 59,
        "has_played": true,
        "id": 3559714,
        "last_rank": 36348,
        "player_name": "Cameron Clark",
        "rank": 34016,
        "rank_sort": 34072,
        "total": 2364
      },
      {
        "club_badge_src": null,
        "entry": 563218,
        "entry_name": "Astonishing",
        "event_total": 60,
        "has_played": true,
        "id": 3790935,
        "last_rank": 37376,
        "player_name": "Leart 49",
        "rank": 34016,
        "rank_sort": 34073,
        "total": 2364
      },
      {
        "club_badge_src": null,
        "entry": 566450,
        "entry_name": "Matz Sels Sea Shells",
        "event_total": 50,
        "has_played": true,
        "id": 3812523,
        "last_rank": 26827,
        "player_name": "Niall Lees",
        "rank": 34016,
        "rank_sort": 34074,
        "total": 2364
      },
      {
        "club_badge_src": "https://fantasy.premierleague.com/gcs/plfpl-production-adobe-approved/plfpl-production/592061/dd7c2f86-2ac6-43fe-8176-4786fb10d430.png",
        "entry": 592061,
        "entry_name": "Solmyr",
        "event_total": 63,
        "has_played": true,
        "id": 3989200,
        "last_rank": 41324,
        "player_name": "Martin Tofteberg",
        "rank": 34016,
        "rank_sort": 34075,
        "total": 2364
      },
      {
        "club_badge_src": null,
        "entry": 615642,
        "entry_name": "MABchester United",
        "event_total": 59,
        "has_played": true,
        "id": 4159838,
        "last_rank": 36348,
        "player_name": "Ruthvik Mabbu",
        "rank": 34016,
        "rank_sort": 34076,
        "total": 2364
      },
      {
        "club_badge_src": null,
        "entry": 643906,
        "entry_name": "DJ Campbell",
        "event_total": 59,
        "has_played": true,
        "id": 4351626,
        "last_rank": 36200,
        "player_name": "Matt Davies",
        "rank": 34016,
        "rank_sort": 34077,
        "total": 2364
      },
      {
        "club_badge_src": null,
        "entry": 648068,
        "entry_name": "Ben10cur",
        "event_total": 52,
        "has_played": true,
        "id": 4379810,
        "last_rank": 28726,
        "player_name": "Jamie Norwood",
        "rank": 34016,
        "rank_sort": 34078,
        "total": 2364
      },
      {
        "club_badge_src": null,
        "entry": 648297,
        "entry_name": "Sundets P\u00e4rla",
        "event_total": 62,
        "has_played": true,
        "id": 4381384,
        "last_rank": 40036,
        "player_name": "Victor l\u00e4nje",
        "rank": 34016,
        "rank_sort": 34079,
        "total": 2364
      },
      {
        "club_badge_src": null,
        "entry": 678755,
        "entry_name": "Living Saliba Loca",
        "event_total": 70,
        "has_played": true,
        "id": 4592852,
        "last_rank": 51220,
        "player_name": "Iggy Troy",
        "rank": 34016,
        "rank_sort": 34080,
        "total": 2364
      },
      {
        "club_badge_src": "https://fantasy.premierleague.com/gcs/plfpl-production-adobe-approved/plfpl-production/700951/daaadb00-b7f4-4cb9-8771-e46bcc9497da.png",
        "entry": 700951,
        "entry_name": "Monday Blues",
        "event_total": 61,
        "has_played": true,
        "id": 4749250,
        "last_rank": 38774,
        "player_name": "Nigel Hough",
        "rank": 34016,
        "rank_sort": 34081,
        "total": 2364
      },
      {
        "club_badge_src": null,
        "entry": 704787,
        "entry_name": "Tea&Busquets",
        "event_total": 66,
        "has_played": true,
        "id": 4776094,
        "last_rank": 45252,
        "player_name": "Ross Gibney",
        "rank": 34016,
        "rank_sort": 34082,
        "total": 2364
      },
      {
        "club_badge_src": null,
        "entry": 704942,
        "entry_name": "Terry Anderson FC",
        "event_total": 63,
        "has_played": true,
        "id": 4777168,
        "last_rank": 41324,
        "player_name": "jack landers",
        "rank": 34016,
        "rank_sort": 34083,
        "total": 2364
      },
      {
        "club_badge_src": null,
        "entry": 712550,
        "entry_name": "The Auld Slappers",
        "event_total": 31,
        "has_played": true,
        "id": 4833776,
        "last_rank": 13401,
        "player_name": "Tim Bergman",
        "rank": 34016,
        "rank_sort": 34084,
        "total": 2364
      },
      {
        "club_badge_src": null,
        "entry": 775569,
        "entry_name": "Midgardsormn",
        "event_total": 43,
        "has_played": true,
        "id": 5291746,
        "last_rank": 20983,
        "player_name": "Vetle Bredeli",
        "rank": 34016,
        "rank_sort": 34085,
        "total": 2364
      },
      {
        "club_badge_src": null,
        "entry": 778408,
        "entry_name": "GoGoSSK",
        "event_total": 50,
        "has_played": true,
        "id": 5311868,
        "last_rank": 26827,
        "player_name": "Peter Olsson",
        "rank": 34016,
        "rank_sort": 34086,
        "total": 2364
      },
      {
        "club_badge_src": null,
        "entry": 780061,
        "entry_name": "CopaKings",
        "event_total": 59,
        "has_played": true,
        "id": 5325545,
        "last_rank": 36348,
        "player_name": "Emiliano Allemand-Bopp",
        "rank": 34016,
        "rank_sort": 34087,
        "total": 2364
      },
      {
        "club_badge_src": null,
        "entry": 780378,
        "entry_name": "Tackle berries KFC",
        "event_total": 72,
        "has_played": true,
        "id": 5327764,
        "last_rank": 54667,
        "player_name": "John Peel",
        "rank": 34016,
        "rank_sort": 34088,
        "total": 2364
      },
      {
        "club_badge_src": null,
        "entry": 787629,
        "entry_name": "Dont LookBack Elanga",
        "event_total": 71,
        "has_played": true,
        "id": 5385081,
        "last_rank": 52759,
        "player_name": "FAS Hussy",
        "rank": 34016,
        "rank_sort": 34089,
        "total": 2364
      },
      {
        "club_badge_src": null,
        "entry": 855581,
        "entry_name": "Malaka FC",
        "event_total": 65,
        "has_played": true,
        "id": 5864609,
        "last_rank": 44048,
        "player_name": "George Mitrakas",
        "rank": 34016,
        "rank_sort": 34090,
        "total": 2364
      },
      {
        "club_badge_src": "https://fantasy.premierleague.com/gcs/plfpl-production-adobe-approved/plfpl-production/865729/1df9a965-6dd3-400f-9010-6a20fbca46ea.png",
        "entry": 865729,
        "entry_name": "OUTLAWS",
        "event_total": 49,
        "has_played": true,
        "id": 5934985,
        "last_rank": 25902,
        "player_name": "Vadel Efriza",
        "rank": 34016,
        "rank_sort": 34091,
        "total": 2364
      },
      {
        "club_badge_src": null,
        "entry": 877869,
        "entry_name": "Merca Porro y Virgil",
        "event_total": 61,
        "has_played": true,
        "id": 6018763,
        "last_rank": 38774,
        "player_name": "Maximo Seizer",
        "rank": 34016,
        "rank_sort": 34092,
        "total": 2364
      },
      {
        "club_badge_src": null,
        "entry": 886355,
        "entry_name": "Sell Sell Sell",
        "event_total": 58,
        "has_played": true,
        "id": 6079321,
        "last_rank": 35166,
        "player_name": "Ervin Yap",
        "rank": 34016,
        "rank_sort": 34093,
        "total": 2364
      },
      {
        "club_badge_src": null,
        "entry": 890900,
        "entry_name": "NickVAllstars",
        "event_total": 51,
        "has_played": true,
        "id": 6112785,
        "last_rank": 27770,
        "player_name": "nick cadwallader",
        "rank": 34016,
        "rank_sort": 34094,
        "total": 2364
      },
      {
        "club_badge_src": null,
        "entry": 916004,
        "entry_name": "Four Cousins",
        "event_total": 61,
        "has_played": true,
        "id": 6298881,
        "last_rank": 38774,
        "player_name": "Mucho Mizinduko",
        "rank": 34016,
        "rank_sort": 34095,
        "total": 2364
      },
      {
        "club_badge_src": "https://fantasy.premierleague.com/gcs/plfpl-production-adobe-approved/plfpl-production/952839/2342bf1d-b223-4502-b99c-dfe9ee3e0940.png",
        "entry": 952839,
        "entry_name": "Making Emile Of It",
        "event_total": 45,
        "has_played": true,
        "id": 6564920,
        "last_rank": 22534,
        "player_name": "Sam Weston",
        "rank": 34016,
        "rank_sort": 34096,
        "total": 2364
      },
      {
        "club_badge_src": null,
        "entry": 959540,
        "entry_name": "FF OSRS 99",
        "event_total": 64,
        "has_played": true,
        "id": 6612174,
        "last_rank": 42648,
        "player_name": "Tommy Granroth",
        "rank": 34016,
        "rank_sort": 34097,
        "total": 2364
      },
      {
        "club_badge_src": "https://fantasy.premierleague.com/gcs/plfpl-production-adobe-approved/plfpl-production/961984/1162dee1-b188-4114-9571-d764277120fa.png",
        "entry": 961984,
        "entry_name": "Kinder Mbeumo",
        "event_total": 78,
        "has_played": true,
        "id": 6629321,
        "last_rank": 64777,
        "player_name": "Jack Bancroft",
        "rank": 34016,
        "rank_sort": 34098,
        "total": 2364
      },
      {
        "club_badge_src": null,
        "entry": 976874,
        "entry_name": "points and pints",
        "event_total": 55,
        "has_played": true,
        "id": 6734544,
        "last_rank": 31747,
        "player_name": "Mark Daniel",
        "rank": 34016,
        "rank_sort": 34099,
        "total": 2364
      },
      {
        "club_badge_src": null,
        "entry": 987277,
        "entry_name": "Wirtz of the Month",
        "event_total": 67,
        "has_played": true,
        "id": 6807373,
        "last_rank": 46839,
        "player_name": "Eetu Anttila",
        "rank": 34016,
        "rank_sort": 34100,
        "total": 2364
      }
    ]
  }
}