{
  "last_updated_data": "2026-05-24T23:28:17Z",
  "league": {
    "admin_entry": null,
    "closed": false,
    "code_privacy": "p",
    "created": "2025-07-20T23:14:33.933835Z",
    "cup_league": 2815434,
    "has_cup": true,
    "id": 314,
    "league_type": "s",
    "max_entries": null,
    "name": "Overall",
    "rank": null,
    "scoring": "c",
    "start_event": 1
  },
  "new_entries": {
    "has_next": false,
    "page": 1,
    "results": []
  },
  "standings": {
    "has_next": true,
    "page": 315,
    "results": [
      {
        "club_badge_src": null,
        "entry": 2610148,
        "entry_name": "The Pirates",
        "event_total": 65,
        "has_played": true,
        "id": 18752241,
        "last_rank": 20624,
        "player_name": "mads junker",
        "rank": 15669,
        "rank_sort": 15701,
        "total": 2387
      },
      {
        "club_badge_src": null,
        "entry": 2848928,
        "entry_name": "Schaderstr\u00f6ms Gubbar",
        "event_total": 67,
        "has_played": true,
        "id": 20828996,
        "last_rank": 21949,
        "player_name": "Jacob Schagerstr\u00f6m",
        "rank": 15669,
        "rank_sort": 15702,
        "total": 2387
      },
      {
        "club_badge_src": null,
        "entry": 2897809,
        "entry_name": "Waterloo ATX",
        "event_total": 62,
        "has_played": true,
        "id": 21233680,
        "last_rank": 13401,
        "player_name": "Scott Hentschel",
        "rank": 15669,
        "rank_sort": 15703,
        "total": 2387
      },
      {
        "club_badge_src": null,
        "entry": 3234010,
        "entry_name": "Mostafa Naguib",
        "event_total": 57,
        "has_played": true,
        "id": 23919170,
        "last_rank": 15164,
        "player_name": "Mostafa Ahmed",
        "rank": 15669,
        "rank_sort": 15704,
        "total": 2387
      },
      {
        "club_badge_src": "https://fantasy.premierleague.com/gcs/plfpl-production-adobe-approved/plfpl-production/3327077/83aa0866-b7fb-4d86-a810-752819d8d68e.png",
        "entry": 3327077,
        "entry_name": "CTRL ALT DE LIGT",
        "event_total": 66,
        "has_played": true,
        "id": 24666626,
        "last_rank": 18270,
        "player_name": "Barath Premraj",
        "rank": 15669,
        "rank_sort": 15705,
        "total": 2387
      },
      {
        "club_badge_src": null,
        "entry": 3551416,
        "entry_name": "tancy",
        "event_total": 67,
        "has_played": true,
        "id": 26439605,
        "last_rank": 22154,
        "player_name": "Kavita Tangkeow",
        "rank": 15669,
        "rank_sort": 15706,
        "total": 2387
      },
      {
        "club_badge_src": null,
        "entry": 3645020,
        "entry_name": "Baba Marmoush",
        "event_total": 74,
        "has_played": true,
        "id": 27166169,
        "last_rank": 28273,
        "player_name": "Magnus Oppenheimer",
        "rank": 15669,
        "rank_sort": 15707,
        "total": 2387
      },
      {
        "club_badge_src": null,
        "entry": 3750773,
        "entry_name": "Who's that girl?",
        "event_total": 72,
        "has_played": true,
        "id": 28002919,
        "last_rank": 26230,
        "player_name": "Sandy Mkandawire",
        "rank": 15669,
        "rank_sort": 15708,
        "total": 2387
      },
      {
        "club_badge_src": null,
        "entry": 3840527,
        "entry_name": "Cuhna Dig It, Sucka!",
        "event_total": 69,
        "has_played": true,
        "id": 28762777,
        "last_rank": 23748,
        "player_name": "Jude Sharma",
        "rank": 15669,
        "rank_sort": 15709,
        "total": 2387
      },
      {
        "club_badge_src": null,
        "entry": 3984639,
        "entry_name": "Slotty Too Hotty",
        "event_total": 60,
        "has_played": true,
        "id": 29998475,
        "last_rank": 17078,
        "player_name": "Colm O'Brien",
        "rank": 15669,
        "rank_sort": 15710,
        "total": 2387
      },
      {
        "club_badge_src": null,
        "entry": 4021237,
        "entry_name": "VikyTheBarber",
        "event_total": 71,
        "has_played": true,
        "id": 30307800,
        "last_rank": 25436,
        "player_name": "Viktor Vlas\u00e1k",
        "rank": 15669,
        "rank_sort": 15711,
        "total": 2387
      },
      {
        "club_badge_src": "https://fantasy.premierleague.com/gcs/plfpl-production-adobe-approved/plfpl-production/4146274/418e8865-5071-489a-987d-6f8822474fe7.png",
        "entry": 4146274,
        "entry_name": "TeeFPL",
        "event_total": 59,
        "has_played": true,
        "id": 31338180,
        "last_rank": 16512,
        "player_name": "Theresa Kaiser",
        "rank": 15669,
        "rank_sort": 15712,
        "total": 2387
      },
      {
        "club_badge_src": "https://fantasy.premierleague.com/gcs/plfpl-production-adobe-approved/plfpl-production/4622189/f741a2e7-a218-422c-845f-73baa2116144.png",
        "entry": 4622189,
        "entry_name": "CarChem Detailing",
        "event_total": 77,
        "has_played": true,
        "id": 35332252,
        "last_rank": 27203,
        "player_name": "Mihael Topalu\u0161i\u0107",
        "rank": 15669,
        "rank_sort": 15713,
        "total": 2387
      },
      {
        "club_badge_src": null,
        "entry": 5142107,
        "entry_name": "FC Juve-Cieszyn",
        "event_total": 62,
        "has_played": true,
        "id": 39777889,
        "last_rank": 18475,
        "player_name": "Step ByStep",
        "rank": 15669,
        "rank_sort": 15714,
        "total": 2387
      },
      {
        "club_badge_src": null,
        "entry": 5523114,
        "entry_name": "The BCCI",
        "event_total": 41,
        "has_played": true,
        "id": 43069565,
        "last_rank": 4515,
        "player_name": "The President Ansar Mahmood",
        "rank": 15669,
        "rank_sort": 15715,
        "total": 2387
      },
      {
        "club_badge_src": null,
        "entry": 5978010,
        "entry_name": "Zubi-Dubi-Doo",
        "event_total": 52,
        "has_played": true,
        "id": 47063522,
        "last_rank": 8854,
        "player_name": "Naldo Marques",
        "rank": 15669,
        "rank_sort": 15716,
        "total": 2387
      },
      {
        "club_badge_src": null,
        "entry": 7160649,
        "entry_name": "Macmagamac",
        "event_total": 72,
        "has_played": true,
        "id": 57759843,
        "last_rank": 22830,
        "player_name": "Magnus Johnson",
        "rank": 15669,
        "rank_sort": 15717,
        "total": 2387
      },
      {
        "club_badge_src": null,
        "entry": 7218311,
        "entry_name": "LFCZRC",
        "event_total": 64,
        "has_played": true,
        "id": 58306494,
        "last_rank": 19904,
        "player_name": "Zachary Cohen",
        "rank": 15669,
        "rank_sort": 15718,
        "total": 2387
      },
      {
        "club_badge_src": null,
        "entry": 7301260,
        "entry_name": "Pink Panther",
        "event_total": 70,
        "has_played": true,
        "id": 59088071,
        "last_rank": 21159,
        "player_name": "Leander Hantho",
        "rank": 15669,
        "rank_sort": 15719,
        "total": 2387
      },
      {
        "club_badge_src": null,
        "entry": 7469715,
        "entry_name": "nice to michu",
        "event_total": 71,
        "has_played": true,
        "id": 60891627,
        "last_rank": 25436,
        "player_name": "Dorian Bale",
        "rank": 15669,
        "rank_sort": 15720,
        "total": 2387
      },
      {
        "club_badge_src": null,
        "entry": 7482723,
        "entry_name": "Chedder FC",
        "event_total": 42,
        "has_played": true,
        "id": 61058352,
        "last_rank": 8234,
        "player_name": "Sean Capaldi",
        "rank": 15669,
        "rank_sort": 15721,
        "total": 2387
      },
      {
        "club_badge_src": "https://fantasy.premierleague.com/gcs/plfpl-production-adobe-approved/plfpl-production/7605047/cd3ecc76-cce8-4b40-9bf6-f523d34c5eec.png",
        "entry": 7605047,
        "entry_name": "Yannick Pagabo",
        "event_total": 52,
        "has_played": true,
        "id": 62309950,
        "last_rank": 10462,
        "player_name": "Matt Skelton",
        "rank": 15669,
        "rank_sort": 15722,
        "total": 2387
      },
      {
        "club_badge_src": null,
        "entry": 7699591,
        "entry_name": "raouf Liverpool",
        "event_total": 44,
        "has_played": true,
        "id": 63167487,
        "last_rank": 8977,
        "player_name": "Raouf Mouhamed",
        "rank": 15669,
        "rank_sort": 15723,
        "total": 2387
      },
      {
        "club_badge_src": "https://fantasy.premierleague.com/gcs/plfpl-production-adobe-approved/plfpl-production/7845676/9e325605-026d-45e3-94d4-2013d3eba724.png",
        "entry": 7845676,
        "entry_name": "Joga Bonito",
        "event_total": 67,
        "has_played": true,
        "id": 64491751,
        "last_rank": 22064,
        "player_name": "Michael Johnson",
        "rank": 15669,
        "rank_sort": 15724,
        "total": 2387
      },
      {
        "club_badge_src": null,
        "entry": 9086223,
        "entry_name": "McGinn and tonic",
        "event_total": 48,
        "has_played": true,
        "id": 76316658,
        "last_rank": 10600,
        "player_name": "Sian Parry",
        "rank": 15669,
        "rank_sort": 15725,
        "total": 2387
      },
      {
        "club_badge_src": null,
        "entry": 19096,
        "entry_name": "RedDevilsXI",
        "event_total": 71,
        "has_played": true,
        "id": 118840,
        "last_rank": 25436,
        "player_name": "Rahul Mishra",
        "rank": 15726,
        "rank_sort": 15726,
        "total": 2387
      },
      {
        "club_badge_src": "https://fantasy.premierleague.com/gcs/plfpl-production-adobe-approved/plfpl-production/21625/3877945c-a745-4978-b847-30973bd2ff89.png",
        "entry": 21625,
        "entry_name": "\u5f53\u4ee3\u4e01\u87f9",
        "event_total": 69,
        "has_played": true,
        "id": 135641,
        "last_rank": 20624,
        "player_name": "Zaku Gaku",
        "rank": 15726,
        "rank_sort": 15727,
        "total": 2387
      },
      {
        "club_badge_src": null,
        "entry": 48559,
        "entry_name": "AK FC",
        "event_total": 61,
        "has_played": true,
        "id": 311897,
        "last_rank": 17802,
        "player_name": "Azrul N. Kamarul",
        "rank": 15726,
        "rank_sort": 15728,
        "total": 2387
      },
      {
        "club_badge_src": null,
        "entry": 143106,
        "entry_name": "Midnight Poutine",
        "event_total": 64,
        "has_played": true,
        "id": 936150,
        "last_rank": 17150,
        "player_name": "Dylan Lawson",
        "rank": 15726,
        "rank_sort": 15729,
        "total": 2387
      },
      {
        "club_badge_src": null,
        "entry": 214882,
        "entry_name": "Cold Trickle",
        "event_total": 52,
        "has_played": true,
        "id": 1429348,
        "last_rank": 12470,
        "player_name": "Paul Tangney",
        "rank": 15726,
        "rank_sort": 15730,
        "total": 2387
      },
      {
        "club_badge_src": null,
        "entry": 238736,
        "entry_name": "Ole",
        "event_total": 63,
        "has_played": true,
        "id": 1588427,
        "last_rank": 19237,
        "player_name": "Javier Navarro",
        "rank": 15726,
        "rank_sort": 15731,
        "total": 2387
      },
      {
        "club_badge_src": null,
        "entry": 283209,
        "entry_name": "M. Smedberg Beyonce",
        "event_total": 65,
        "has_played": true,
        "id": 1885350,
        "last_rank": 20678,
        "player_name": "Oskar P\u00e5lsson",
        "rank": 15726,
        "rank_sort": 15732,
        "total": 2387
      },
      {
        "club_badge_src": null,
        "entry": 364244,
        "entry_name": "TerrorSquad",
        "event_total": 69,
        "has_played": true,
        "id": 2437379,
        "last_rank": 15063,
        "player_name": "Dan Rizica",
        "rank": 15726,
        "rank_sort": 15733,
        "total": 2387
      },
      {
        "club_badge_src": null,
        "entry": 399792,
        "entry_name": "Wow Pedro",
        "event_total": 44,
        "has_played": true,
        "id": 2680754,
        "last_rank": 8999,
        "player_name": "Gary Croake",
        "rank": 15726,
        "rank_sort": 15734,
        "total": 2387
      },
      {
        "club_badge_src": null,
        "entry": 1325979,
        "entry_name": "Omda",
        "event_total": 64,
        "has_played": true,
        "id": 9216902,
        "last_rank": 19966,
        "player_name": "Omda Roshdy",
        "rank": 15726,
        "rank_sort": 15735,
        "total": 2387
      },
      {
        "club_badge_src": null,
        "entry": 1334330,
        "entry_name": "Reece's Set Pieces",
        "event_total": 50,
        "has_played": true,
        "id": 9274869,
        "last_rank": 11516,
        "player_name": "marcus o'byrne",
        "rank": 15726,
        "rank_sort": 15736,
        "total": 2387
      },
      {
        "club_badge_src": "https://fantasy.premierleague.com/gcs/plfpl-production-adobe-approved/plfpl-production/1395645/8d8d1399-d9b6-4821-894c-6e860ee0f19e.png",
        "entry": 1395645,
        "entry_name": "Ben Dlamini's Sasko",
        "event_total": 64,
        "has_played": true,
        "id": 9709339,
        "last_rank": 19966,
        "player_name": "Njongo Mnyani",
        "rank": 15726,
        "rank_sort": 15737,
        "total": 2387
      },
      {
        "club_badge_src": null,
        "entry": 1503847,
        "entry_name": "Dargavel Blues",
        "event_total": 57,
        "has_played": true,
        "id": 10487988,
        "last_rank": 15280,
        "player_name": "Marc Dyce",
        "rank": 15726,
        "rank_sort": 15738,
        "total": 2387
      },
      {
        "club_badge_src": "https://fantasy.premierleague.com/gcs/plfpl-production-adobe-approved/plfpl-production/1763747/fd37ff1c-1445-4c52-bf74-acd7102d3c04.png",
        "entry": 1763747,
        "entry_name": "Not Last?",
        "event_total": 51,
        "has_played": true,
        "id": 12385129,
        "last_rank": 11999,
        "player_name": "Erick Venegas  Quijada",
        "rank": 15726,
        "rank_sort": 15739,
        "total": 2387
      },
      {
        "club_badge_src": null,
        "entry": 1874007,
        "entry_name": "Ak147",
        "event_total": 75,
        "has_played": true,
        "id": 13193721,
        "last_rank": 29279,
        "player_name": "Abdulkarim mulla",
        "rank": 15726,
        "rank_sort": 15740,
        "total": 2387
      },
      {
        "club_badge_src": "https://fantasy.premierleague.com/gcs/plfpl-production-adobe-approved/plfpl-production/2055763/9989cd2a-92e1-4569-b763-66db6b87ebe0.png",
        "entry": 2055763,
        "entry_name": "hot bread",
        "event_total": 67,
        "has_played": true,
        "id": 14562881,
        "last_rank": 19176,
        "player_name": "Muhammad Aayan",
        "rank": 15726,
        "rank_sort": 15741,
        "total": 2387
      },
      {
        "club_badge_src": null,
        "entry": 2449357,
        "entry_name": "Mamurluk City",
        "event_total": 49,
        "has_played": true,
        "id": 17518336,
        "last_rank": 9350,
        "player_name": "Djordje Stokic",
        "rank": 15726,
        "rank_sort": 15742,
        "total": 2387
      },
      {
        "club_badge_src": null,
        "entry": 2453914,
        "entry_name": "Cech Mate",
        "event_total": 70,
        "has_played": true,
        "id": 17551681,
        "last_rank": 24636,
        "player_name": "Liam 22",
        "rank": 15726,
        "rank_sort": 15743,
        "total": 2387
      },
      {
        "club_badge_src": null,
        "entry": 2499317,
        "entry_name": "Livin Saliba Loca",
        "event_total": 55,
        "has_played": true,
        "id": 17894846,
        "last_rank": 14148,
        "player_name": "Ashley Dipple",
        "rank": 15726,
        "rank_sort": 15744,
        "total": 2387
      },
      {
        "club_badge_src": null,
        "entry": 2688221,
        "entry_name": "Athletico Bulldog FC",
        "event_total": 86,
        "has_played": true,
        "id": 19335100,
        "last_rank": 36624,
        "player_name": "Liam Deery",
        "rank": 15726,
        "rank_sort": 15745,
        "total": 2387
      },
      {
        "club_badge_src": null,
        "entry": 2926137,
        "entry_name": "PullOutFC",
        "event_total": 74,
        "has_played": true,
        "id": 21451840,
        "last_rank": 28273,
        "player_name": "Vilte Blaziunaite",
        "rank": 15726,
        "rank_sort": 15746,
        "total": 2387
      },
      {
        "club_badge_src": null,
        "entry": 3019793,
        "entry_name": "BB City",
        "event_total": 57,
        "has_played": true,
        "id": 22217975,
        "last_rank": 15226,
        "player_name": "Boris Bozic",
        "rank": 15726,
        "rank_sort": 15747,
        "total": 2387
      },
      {
        "club_badge_src": null,
        "entry": 3054555,
        "entry_name": "Raya Sunshine FC",
        "event_total": 56,
        "has_played": true,
        "id": 22488007,
        "last_rank": 14668,
        "player_name": "huzefa ishaki",
        "rank": 15726,
        "rank_sort": 15748,
        "total": 2387
      },
      {
        "club_badge_src": null,
        "entry": 3166690,
        "entry_name": "White army",
        "event_total": 77,
        "has_played": true,
        "id": 23395247,
        "last_rank": 30957,
        "player_name": "Charlie Cruickshanks",
        "rank": 15726,
        "rank_sort": 15749,
        "total": 2387
      },
      {
        "club_badge_src": null,
        "entry": 3463209,
        "entry_name": "What Isaklly Wirtz..",
        "event_total": 60,
        "has_played": true,
        "id": 25743722,
        "last_rank": 17194,
        "player_name": "ROBERT MCDERMID",
        "rank": 15726,
        "rank_sort": 15750,
        "total": 2387
      }
    ]
  }
}