{
  "last_updated_data": "2026-05-24T23:28:17Z",
  "league": {
    "admin_entry": null,
    "closed": false,
    "code_privacy": "p",
    "created": "2025-07-20T23:14:33.933835Z",
    "cup_league": 2815434,
    "has_cup": true,
    "id": 314,
    "league_type": "s",
    "max_entries": null,
    "name": "Overall",
    "rank": null,
    "scoring": "c",
    "start_event": 1
  },
  "new_entries": {
    "has_next": false,
    "page": 1,
    "results": []
  },
  "standings": {
    "has_next": true,
    "page": 697,
    "results": [
      {
        "club_badge_src": null,
        "entry": 23024,
        "entry_name": "Lineas V4.1 \ufffd \ufffd",
        "event_total": 46,
        "has_played": true,
        "id": 144836,
        "last_rank": 20624,
        "player_name": "Linos Alexandrou",
        "rank": 34799,
        "rank_sort": 34801,
        "total": 2364
      },
      {
        "club_badge_src": null,
        "entry": 35267,
        "entry_name": "Slim Schade",
        "event_total": 64,
        "has_played": true,
        "id": 225645,
        "last_rank": 43444,
        "player_name": "Sean Rodwell",
        "rank": 34799,
        "rank_sort": 34802,
        "total": 2364
      },
      {
        "club_badge_src": null,
        "entry": 35534,
        "entry_name": "Stephen Bradbury's",
        "event_total": 68,
        "has_played": true,
        "id": 227410,
        "last_rank": 43444,
        "player_name": "Arnaldo Santos",
        "rank": 34799,
        "rank_sort": 34803,
        "total": 2364
      },
      {
        "club_badge_src": null,
        "entry": 47635,
        "entry_name": "Learning to FPL",
        "event_total": 46,
        "has_played": true,
        "id": 305619,
        "last_rank": 23820,
        "player_name": "Saikat Nandy",
        "rank": 34799,
        "rank_sort": 34804,
        "total": 2364
      },
      {
        "club_badge_src": null,
        "entry": 92074,
        "entry_name": "Catchmeifyoucan!!",
        "event_total": 66,
        "has_played": true,
        "id": 601568,
        "last_rank": 46236,
        "player_name": "damian whyte",
        "rank": 34799,
        "rank_sort": 34805,
        "total": 2364
      },
      {
        "club_badge_src": null,
        "entry": 99306,
        "entry_name": "M O",
        "event_total": 44,
        "has_played": true,
        "id": 648286,
        "last_rank": 19237,
        "player_name": "Mo Amir",
        "rank": 34799,
        "rank_sort": 34806,
        "total": 2364
      },
      {
        "club_badge_src": null,
        "entry": 127612,
        "entry_name": "Irish Goodbye",
        "event_total": 74,
        "has_played": true,
        "id": 831885,
        "last_rank": 46106,
        "player_name": "Richard McQueen",
        "rank": 34799,
        "rank_sort": 34807,
        "total": 2364
      },
      {
        "club_badge_src": null,
        "entry": 137368,
        "entry_name": "Peringa Pub Club",
        "event_total": 58,
        "has_played": true,
        "id": 895401,
        "last_rank": 31309,
        "player_name": "Adam Sanderson",
        "rank": 34799,
        "rank_sort": 34808,
        "total": 2364
      },
      {
        "club_badge_src": null,
        "entry": 196378,
        "entry_name": "NDIAYE-DISCO",
        "event_total": 66,
        "has_played": true,
        "id": 1302622,
        "last_rank": 40770,
        "player_name": "Dave Bennett",
        "rank": 34799,
        "rank_sort": 34809,
        "total": 2364
      },
      {
        "club_badge_src": "https://fantasy.premierleague.com/gcs/plfpl-production-adobe-approved/plfpl-production/236678/c78cfea5-7e94-4dbc-89b6-f5863401783f.png",
        "entry": 236678,
        "entry_name": "Musavi trulex",
        "event_total": 65,
        "has_played": true,
        "id": 1574700,
        "last_rank": 39510,
        "player_name": "Stefan Kosavic",
        "rank": 34799,
        "rank_sort": 34810,
        "total": 2364
      },
      {
        "club_badge_src": null,
        "entry": 248496,
        "entry_name": "Yaunited Fc",
        "event_total": 60,
        "has_played": true,
        "id": 1653881,
        "last_rank": 38267,
        "player_name": "Michael France",
        "rank": 34799,
        "rank_sort": 34811,
        "total": 2364
      },
      {
        "club_badge_src": null,
        "entry": 250229,
        "entry_name": "Abcdefghijklmnopqrst",
        "event_total": 55,
        "has_played": true,
        "id": 1664915,
        "last_rank": 32491,
        "player_name": "David Widger",
        "rank": 34799,
        "rank_sort": 34812,
        "total": 2364
      },
      {
        "club_badge_src": null,
        "entry": 304105,
        "entry_name": "Middys Men",
        "event_total": 54,
        "has_played": true,
        "id": 2035942,
        "last_rank": 27364,
        "player_name": "Kev Middlecote",
        "rank": 34799,
        "rank_sort": 34813,
        "total": 2364
      },
      {
        "club_badge_src": "https://fantasy.premierleague.com/gcs/plfpl-production-adobe-approved/plfpl-production/361594/ec62ab1d-9a21-4c71-8260-97e833e5e3e1.png",
        "entry": 361594,
        "entry_name": "Bluejoy",
        "event_total": 67,
        "has_played": true,
        "id": 2419512,
        "last_rank": 47812,
        "player_name": "Joydeep Ghosh",
        "rank": 34799,
        "rank_sort": 34814,
        "total": 2364
      },
      {
        "club_badge_src": null,
        "entry": 450916,
        "entry_name": "#not2shabby",
        "event_total": 70,
        "has_played": true,
        "id": 3025241,
        "last_rank": 46236,
        "player_name": "Gary Clawson",
        "rank": 34799,
        "rank_sort": 34815,
        "total": 2364
      },
      {
        "club_badge_src": null,
        "entry": 530645,
        "entry_name": "HaCunha Matata",
        "event_total": 51,
        "has_played": true,
        "id": 3568718,
        "last_rank": 28388,
        "player_name": "Billy Heard",
        "rank": 34799,
        "rank_sort": 34816,
        "total": 2364
      },
      {
        "club_badge_src": null,
        "entry": 583139,
        "entry_name": "Fc Bartelona",
        "event_total": 61,
        "has_played": true,
        "id": 3924370,
        "last_rank": 39585,
        "player_name": "Bart Vaerewijck",
        "rank": 34799,
        "rank_sort": 34817,
        "total": 2364
      },
      {
        "club_badge_src": null,
        "entry": 588318,
        "entry_name": "Star Platinum",
        "event_total": 56,
        "has_played": true,
        "id": 3961504,
        "last_rank": 33695,
        "player_name": "Tobi .",
        "rank": 34799,
        "rank_sort": 34818,
        "total": 2364
      },
      {
        "club_badge_src": null,
        "entry": 685471,
        "entry_name": "Maverick FC",
        "event_total": 56,
        "has_played": true,
        "id": 4639888,
        "last_rank": 25436,
        "player_name": "Ashley Thomas",
        "rank": 34799,
        "rank_sort": 34819,
        "total": 2364
      },
      {
        "club_badge_src": null,
        "entry": 876936,
        "entry_name": "Kid Era United",
        "event_total": 75,
        "has_played": true,
        "id": 6012242,
        "last_rank": 53837,
        "player_name": "Zainudin Zeid",
        "rank": 34799,
        "rank_sort": 34820,
        "total": 2364
      },
      {
        "club_badge_src": null,
        "entry": 958161,
        "entry_name": "Catch-11",
        "event_total": 37,
        "has_played": true,
        "id": 6602316,
        "last_rank": 17233,
        "player_name": "Olav Sandnes",
        "rank": 34799,
        "rank_sort": 34821,
        "total": 2364
      },
      {
        "club_badge_src": null,
        "entry": 967004,
        "entry_name": "Ballysax blueballers",
        "event_total": 49,
        "has_played": true,
        "id": 6664787,
        "last_rank": 26512,
        "player_name": "Stephen Fullam",
        "rank": 34799,
        "rank_sort": 34822,
        "total": 2364
      },
      {
        "club_badge_src": null,
        "entry": 1055080,
        "entry_name": "What the Skelly",
        "event_total": 61,
        "has_played": true,
        "id": 7301860,
        "last_rank": 30191,
        "player_name": "Dan Beddoes",
        "rank": 34799,
        "rank_sort": 34823,
        "total": 2364
      },
      {
        "club_badge_src": null,
        "entry": 1432289,
        "entry_name": "Wormtongue Wanderers",
        "event_total": 55,
        "has_played": true,
        "id": 9980288,
        "last_rank": 32437,
        "player_name": "Nathan Evans",
        "rank": 34799,
        "rank_sort": 34824,
        "total": 2364
      },
      {
        "club_badge_src": null,
        "entry": 1846730,
        "entry_name": "top 3",
        "event_total": 67,
        "has_played": true,
        "id": 12994094,
        "last_rank": 32190,
        "player_name": "Yonis Yuusuf",
        "rank": 34799,
        "rank_sort": 34825,
        "total": 2364
      },
      {
        "club_badge_src": null,
        "entry": 1859089,
        "entry_name": "WaWa United",
        "event_total": 58,
        "has_played": true,
        "id": 13084310,
        "last_rank": 35926,
        "player_name": "WaWa Ruangnaparut",
        "rank": 34799,
        "rank_sort": 34826,
        "total": 2364
      },
      {
        "club_badge_src": null,
        "entry": 1996624,
        "entry_name": "Kinder Mbeumo",
        "event_total": 67,
        "has_played": true,
        "id": 14109354,
        "last_rank": 47722,
        "player_name": "Reece Gorman",
        "rank": 34799,
        "rank_sort": 34827,
        "total": 2364
      },
      {
        "club_badge_src": null,
        "entry": 2042808,
        "entry_name": "Inter Row Z",
        "event_total": 44,
        "has_played": true,
        "id": 14466893,
        "last_rank": 22263,
        "player_name": "Alastair Jackson",
        "rank": 34799,
        "rank_sort": 34828,
        "total": 2364
      },
      {
        "club_badge_src": null,
        "entry": 2065060,
        "entry_name": "Trequartistas",
        "event_total": 68,
        "has_played": true,
        "id": 14635669,
        "last_rank": 43444,
        "player_name": "Thor Dagfinn Pedersen",
        "rank": 34799,
        "rank_sort": 34829,
        "total": 2364
      },
      {
        "club_badge_src": "https://fantasy.premierleague.com/gcs/plfpl-production-adobe-approved/plfpl-production/2106928/402dd083-2bf0-4e11-84d9-e843f532623e.png",
        "entry": 2106928,
        "entry_name": "Take It Easy",
        "event_total": 53,
        "has_played": true,
        "id": 14952714,
        "last_rank": 30325,
        "player_name": "Yoong Hwee See",
        "rank": 34799,
        "rank_sort": 34830,
        "total": 2364
      },
      {
        "club_badge_src": null,
        "entry": 2507112,
        "entry_name": "Rocafella",
        "event_total": 67,
        "has_played": true,
        "id": 17954436,
        "last_rank": 42081,
        "player_name": "Bryan Halpin",
        "rank": 34799,
        "rank_sort": 34831,
        "total": 2364
      },
      {
        "club_badge_src": null,
        "entry": 2681973,
        "entry_name": "Filliciis Finest",
        "event_total": 71,
        "has_played": true,
        "id": 19289101,
        "last_rank": 54065,
        "player_name": "Filip Wikstr\u00f6m",
        "rank": 34799,
        "rank_sort": 34832,
        "total": 2364
      },
      {
        "club_badge_src": null,
        "entry": 2932997,
        "entry_name": "Don\u2019tLookBackElanga",
        "event_total": 56,
        "has_played": true,
        "id": 21510537,
        "last_rank": 25436,
        "player_name": "Tom Pincher",
        "rank": 34799,
        "rank_sort": 34833,
        "total": 2364
      },
      {
        "club_badge_src": null,
        "entry": 3243666,
        "entry_name": "The 5kidmarks",
        "event_total": 57,
        "has_played": true,
        "id": 23994530,
        "last_rank": 22830,
        "player_name": "Luke Hatfield",
        "rank": 34799,
        "rank_sort": 34834,
        "total": 2364
      },
      {
        "club_badge_src": null,
        "entry": 4340252,
        "entry_name": "I Violini",
        "event_total": 63,
        "has_played": true,
        "id": 32953114,
        "last_rank": 41967,
        "player_name": "Nathan Holland",
        "rank": 34799,
        "rank_sort": 34835,
        "total": 2364
      },
      {
        "club_badge_src": null,
        "entry": 4591057,
        "entry_name": "Dolund Tariff FC",
        "event_total": 58,
        "has_played": true,
        "id": 35058094,
        "last_rank": 35926,
        "player_name": "Keerthan B S",
        "rank": 34799,
        "rank_sort": 34836,
        "total": 2364
      },
      {
        "club_badge_src": null,
        "entry": 4728406,
        "entry_name": "ippy dippy eggs",
        "event_total": 57,
        "has_played": true,
        "id": 36359743,
        "last_rank": 26345,
        "player_name": "Oliver Ip",
        "rank": 34799,
        "rank_sort": 34837,
        "total": 2364
      },
      {
        "club_badge_src": null,
        "entry": 4754439,
        "entry_name": "carlgards",
        "event_total": 33,
        "has_played": true,
        "id": 36586493,
        "last_rank": 14761,
        "player_name": "Carl gardner.",
        "rank": 34799,
        "rank_sort": 34838,
        "total": 2364
      },
      {
        "club_badge_src": null,
        "entry": 5104649,
        "entry_name": "A.Adel\u2728\ufe0f",
        "event_total": 53,
        "has_played": true,
        "id": 39458038,
        "last_rank": 30191,
        "player_name": "abo adel",
        "rank": 34799,
        "rank_sort": 34839,
        "total": 2364
      },
      {
        "club_badge_src": null,
        "entry": 5199111,
        "entry_name": "SS Team",
        "event_total": 47,
        "has_played": true,
        "id": 40260590,
        "last_rank": 21450,
        "player_name": "Shan Sirajuddin",
        "rank": 34799,
        "rank_sort": 34840,
        "total": 2364
      },
      {
        "club_badge_src": "https://fantasy.premierleague.com/gcs/plfpl-production-adobe-approved/plfpl-production/5528479/767c495a-5860-4f4d-8af0-937663aee101.png",
        "entry": 5528479,
        "entry_name": "A Touch Far Vetched",
        "event_total": 54,
        "has_played": true,
        "id": 43120134,
        "last_rank": 31371,
        "player_name": "Dan Evans",
        "rank": 34799,
        "rank_sort": 34841,
        "total": 2364
      },
      {
        "club_badge_src": "https://fantasy.premierleague.com/gcs/plfpl-production-adobe-approved/plfpl-production/5637367/e508f1d2-e7cb-4e08-a3f3-3bdfe9ab29d0.png",
        "entry": 5637367,
        "entry_name": "FC Portinatx",
        "event_total": 71,
        "has_played": true,
        "id": 44081631,
        "last_rank": 41967,
        "player_name": "Mark Kennedy",
        "rank": 34799,
        "rank_sort": 34842,
        "total": 2364
      },
      {
        "club_badge_src": null,
        "entry": 5639712,
        "entry_name": "Volante 94",
        "event_total": 45,
        "has_played": true,
        "id": 44102622,
        "last_rank": 23039,
        "player_name": "Paul Rowley",
        "rank": 34799,
        "rank_sort": 34843,
        "total": 2364
      },
      {
        "club_badge_src": "https://fantasy.premierleague.com/gcs/plfpl-production-adobe-approved/plfpl-production/5855638/9be3f82c-3b07-4b06-87e4-078bfd4e8fc6.png",
        "entry": 5855638,
        "entry_name": "Wide eyed & winless",
        "event_total": 65,
        "has_played": true,
        "id": 45977625,
        "last_rank": 44804,
        "player_name": "Jeff Weinrich",
        "rank": 34799,
        "rank_sort": 34844,
        "total": 2364
      },
      {
        "club_badge_src": null,
        "entry": 6110196,
        "entry_name": "aelmonem",
        "event_total": 55,
        "has_played": true,
        "id": 48265203,
        "last_rank": 32491,
        "player_name": "Amr Elmonem",
        "rank": 34799,
        "rank_sort": 34845,
        "total": 2364
      },
      {
        "club_badge_src": null,
        "entry": 7316987,
        "entry_name": "Cowbell United",
        "event_total": 82,
        "has_played": true,
        "id": 59235777,
        "last_rank": 73975,
        "player_name": "Chris Beach",
        "rank": 34799,
        "rank_sort": 34846,
        "total": 2364
      },
      {
        "club_badge_src": null,
        "entry": 7579576,
        "entry_name": "JZ4",
        "event_total": 53,
        "has_played": true,
        "id": 62079713,
        "last_rank": 26425,
        "player_name": "Abadi BA",
        "rank": 34799,
        "rank_sort": 34847,
        "total": 2364
      },
      {
        "club_badge_src": null,
        "entry": 7887224,
        "entry_name": "Database",
        "event_total": 62,
        "has_played": true,
        "id": 64869263,
        "last_rank": 40647,
        "player_name": "Ciprian Barbu",
        "rank": 34799,
        "rank_sort": 34848,
        "total": 2364
      },
      {
        "club_badge_src": null,
        "entry": 8308919,
        "entry_name": "Nijjer Please!",
        "event_total": 45,
        "has_played": true,
        "id": 68804027,
        "last_rank": 23071,
        "player_name": "Jag Nijjer",
        "rank": 34799,
        "rank_sort": 34849,
        "total": 2364
      },
      {
        "club_badge_src": null,
        "entry": 8564351,
        "entry_name": "Jos\u00e9 S\u00e1othar Saoil",
        "event_total": 65,
        "has_played": true,
        "id": 71256715,
        "last_rank": 44804,
        "player_name": "Eoin Harmon",
        "rank": 34799,
        "rank_sort": 34850,
        "total": 2364
      }
    ]
  }
}