{
  "last_updated_data": "2026-05-24T23:28:17Z",
  "league": {
    "admin_entry": null,
    "closed": false,
    "code_privacy": "p",
    "created": "2025-07-20T23:14:33.933835Z",
    "cup_league": 2815434,
    "has_cup": true,
    "id": 314,
    "league_type": "s",
    "max_entries": null,
    "name": "Overall",
    "rank": null,
    "scoring": "c",
    "start_event": 1
  },
  "new_entries": {
    "has_next": false,
    "page": 1,
    "results": []
  },
  "standings": {
    "has_next": true,
    "page": 517,
    "results": [
      {
        "club_badge_src": null,
        "entry": 332468,
        "entry_name": "Caesar \u2b50",
        "event_total": 65,
        "has_played": true,
        "id": 2226726,
        "last_rank": 29071,
        "player_name": "Sunny Sharma",
        "rank": 25782,
        "rank_sort": 25801,
        "total": 2373
      },
      {
        "club_badge_src": null,
        "entry": 448792,
        "entry_name": "Declan Risotto",
        "event_total": 65,
        "has_played": true,
        "id": 3010857,
        "last_rank": 33483,
        "player_name": "Daan Verbeeck",
        "rank": 25782,
        "rank_sort": 25802,
        "total": 2373
      },
      {
        "club_badge_src": null,
        "entry": 482581,
        "entry_name": "The Floor is Lavia",
        "event_total": 56,
        "has_played": true,
        "id": 3239593,
        "last_rank": 24330,
        "player_name": "Owen Spiers",
        "rank": 25782,
        "rank_sort": 25803,
        "total": 2373
      },
      {
        "club_badge_src": "https://fantasy.premierleague.com/gcs/plfpl-production-adobe-approved/plfpl-production/508321/409ebd79-87d2-4028-a5fc-1123fa8b0e5a.png",
        "entry": 508321,
        "entry_name": "Go On Ya Cunha",
        "event_total": 62,
        "has_played": true,
        "id": 3412063,
        "last_rank": 26230,
        "player_name": "Norman White",
        "rank": 25782,
        "rank_sort": 25804,
        "total": 2373
      },
      {
        "club_badge_src": null,
        "entry": 548899,
        "entry_name": "Kinder Mbeumo",
        "event_total": 55,
        "has_played": true,
        "id": 3693979,
        "last_rank": 23748,
        "player_name": "Jordan Slater",
        "rank": 25782,
        "rank_sort": 25805,
        "total": 2373
      },
      {
        "club_badge_src": null,
        "entry": 578761,
        "entry_name": "FC Stenh\u00f6gpress",
        "event_total": 56,
        "has_played": true,
        "id": 3894252,
        "last_rank": 21301,
        "player_name": "Kristoffer Sundin",
        "rank": 25782,
        "rank_sort": 25806,
        "total": 2373
      },
      {
        "club_badge_src": null,
        "entry": 614636,
        "entry_name": "rosance",
        "event_total": 56,
        "has_played": true,
        "id": 4153132,
        "last_rank": 24330,
        "player_name": "ged sandeman",
        "rank": 25782,
        "rank_sort": 25807,
        "total": 2373
      },
      {
        "club_badge_src": null,
        "entry": 643510,
        "entry_name": "The Special Ones",
        "event_total": 58,
        "has_played": true,
        "id": 4348984,
        "last_rank": 22685,
        "player_name": "Joe O'Brien",
        "rank": 25782,
        "rank_sort": 25808,
        "total": 2373
      },
      {
        "club_badge_src": null,
        "entry": 682611,
        "entry_name": "Zm\u0119czeni sezonem",
        "event_total": 64,
        "has_played": true,
        "id": 4619810,
        "last_rank": 27976,
        "player_name": "Kacper Siwka",
        "rank": 25782,
        "rank_sort": 25809,
        "total": 2373
      },
      {
        "club_badge_src": "https://fantasy.premierleague.com/gcs/plfpl-production-adobe-approved/plfpl-production/725413/059a377c-5f15-4c8a-85e9-31b568999d52.png",
        "entry": 725413,
        "entry_name": "Xabi Dabba Doo",
        "event_total": 60,
        "has_played": true,
        "id": 4927258,
        "last_rank": 28273,
        "player_name": "Tudor Birlea",
        "rank": 25782,
        "rank_sort": 25810,
        "total": 2373
      },
      {
        "club_badge_src": null,
        "entry": 726774,
        "entry_name": "nmecha in da summer",
        "event_total": 48,
        "has_played": true,
        "id": 4937140,
        "last_rank": 18270,
        "player_name": "Tyler Gayle",
        "rank": 25782,
        "rank_sort": 25811,
        "total": 2373
      },
      {
        "club_badge_src": "https://fantasy.premierleague.com/gcs/plfpl-production-adobe-approved/plfpl-production/745094/04f64249-b0c1-4e9c-8f3d-d68f6dc288fc.png",
        "entry": 745094,
        "entry_name": "LiftItFC",
        "event_total": 31,
        "has_played": true,
        "id": 5068596,
        "last_rank": 9350,
        "player_name": "Louis Bourke",
        "rank": 25782,
        "rank_sort": 25812,
        "total": 2373
      },
      {
        "club_badge_src": null,
        "entry": 791271,
        "entry_name": "RascalFC",
        "event_total": 75,
        "has_played": true,
        "id": 5414680,
        "last_rank": 40503,
        "player_name": "JR L",
        "rank": 25782,
        "rank_sort": 25813,
        "total": 2373
      },
      {
        "club_badge_src": null,
        "entry": 954239,
        "entry_name": "L'inter",
        "event_total": 68,
        "has_played": true,
        "id": 6574709,
        "last_rank": 36831,
        "player_name": "Aziz Bouraoui",
        "rank": 25782,
        "rank_sort": 25814,
        "total": 2373
      },
      {
        "club_badge_src": null,
        "entry": 1005205,
        "entry_name": "Eze Peze Lemon Sqeze",
        "event_total": 54,
        "has_played": true,
        "id": 6948834,
        "last_rank": 19835,
        "player_name": "David McQuillan",
        "rank": 25782,
        "rank_sort": 25815,
        "total": 2373
      },
      {
        "club_badge_src": null,
        "entry": 1035942,
        "entry_name": "GrantsXI",
        "event_total": 51,
        "has_played": true,
        "id": 7168809,
        "last_rank": 17718,
        "player_name": "Joshua Grant",
        "rank": 25782,
        "rank_sort": 25816,
        "total": 2373
      },
      {
        "club_badge_src": null,
        "entry": 1276140,
        "entry_name": "World Cup Warm Ups",
        "event_total": 53,
        "has_played": true,
        "id": 8867546,
        "last_rank": 22154,
        "player_name": "Ed Poulton",
        "rank": 25782,
        "rank_sort": 25817,
        "total": 2373
      },
      {
        "club_badge_src": null,
        "entry": 1454622,
        "entry_name": "Conan \u540d\u63a2\u5075\u30b3\u30ca\u30f3_ FC",
        "event_total": 51,
        "has_played": true,
        "id": 10135847,
        "last_rank": 20678,
        "player_name": "wanchana hankit",
        "rank": 25782,
        "rank_sort": 25818,
        "total": 2373
      },
      {
        "club_badge_src": null,
        "entry": 1611074,
        "entry_name": "DjCampbell 4 England",
        "event_total": 64,
        "has_played": true,
        "id": 11272148,
        "last_rank": 28150,
        "player_name": "adil rasul",
        "rank": 25782,
        "rank_sort": 25819,
        "total": 2373
      },
      {
        "club_badge_src": "https://fantasy.premierleague.com/gcs/plfpl-production-adobe-approved/plfpl-production/1729107/3adf76cc-dd36-48a7-bc5c-66e61fdc26d7.png",
        "entry": 1729107,
        "entry_name": "Keffiyah Kings FC",
        "event_total": 70,
        "has_played": true,
        "id": 12127242,
        "last_rank": 39246,
        "player_name": "Ighsaan Ismail",
        "rank": 25782,
        "rank_sort": 25820,
        "total": 2373
      },
      {
        "club_badge_src": null,
        "entry": 1776738,
        "entry_name": "\u00d8deparfum",
        "event_total": 58,
        "has_played": true,
        "id": 12481968,
        "last_rank": 26230,
        "player_name": "Thomas Broens",
        "rank": 25782,
        "rank_sort": 25821,
        "total": 2373
      },
      {
        "club_badge_src": null,
        "entry": 1881609,
        "entry_name": "Blake Fc",
        "event_total": 59,
        "has_played": true,
        "id": 13257758,
        "last_rank": 27203,
        "player_name": "Blake Meredith",
        "rank": 25782,
        "rank_sort": 25822,
        "total": 2373
      },
      {
        "club_badge_src": null,
        "entry": 2020289,
        "entry_name": "\u00d0ile",
        "event_total": 58,
        "has_played": true,
        "id": 14295476,
        "last_rank": 26345,
        "player_name": "\u0110ile Be\u0107irovi\u0107",
        "rank": 25782,
        "rank_sort": 25823,
        "total": 2373
      },
      {
        "club_badge_src": "https://fantasy.premierleague.com/gcs/plfpl-production-adobe-approved/plfpl-production/2043887/8820dca9-675a-4b20-be45-cb67f1622e9d.png",
        "entry": 2043887,
        "entry_name": "curse broken",
        "event_total": 58,
        "has_played": true,
        "id": 14474698,
        "last_rank": 26425,
        "player_name": "Adarsh Vezzu",
        "rank": 25782,
        "rank_sort": 25824,
        "total": 2373
      },
      {
        "club_badge_src": null,
        "entry": 2265185,
        "entry_name": "Amatettibears",
        "event_total": 66,
        "has_played": true,
        "id": 16150722,
        "last_rank": 30060,
        "player_name": "Ian Amatetti",
        "rank": 25782,
        "rank_sort": 25825,
        "total": 2373
      },
      {
        "club_badge_src": null,
        "entry": 2288806,
        "entry_name": "Major League Saka",
        "event_total": 67,
        "has_played": true,
        "id": 16323288,
        "last_rank": 27020,
        "player_name": "Tom Price",
        "rank": 25782,
        "rank_sort": 25826,
        "total": 2373
      },
      {
        "club_badge_src": null,
        "entry": 2289018,
        "entry_name": "VK",
        "event_total": 82,
        "has_played": true,
        "id": 16324789,
        "last_rank": 56708,
        "player_name": "Shahril Ahmad",
        "rank": 25782,
        "rank_sort": 25827,
        "total": 2373
      },
      {
        "club_badge_src": null,
        "entry": 2416065,
        "entry_name": "CuomoCadabra^",
        "event_total": 55,
        "has_played": true,
        "id": 17271415,
        "last_rank": 20538,
        "player_name": "Simone Cuomo",
        "rank": 25782,
        "rank_sort": 25828,
        "total": 2373
      },
      {
        "club_badge_src": null,
        "entry": 2430544,
        "entry_name": "Kremen",
        "event_total": 57,
        "has_played": true,
        "id": 17379896,
        "last_rank": 25330,
        "player_name": "Vegard Hogsrud",
        "rank": 25782,
        "rank_sort": 25829,
        "total": 2373
      },
      {
        "club_badge_src": "https://fantasy.premierleague.com/gcs/plfpl-production-adobe-approved/plfpl-production/2456282/d404a9df-7b34-476f-91b1-226f4e3d5ac3.png",
        "entry": 2456282,
        "entry_name": "Richarlithong FC",
        "event_total": 46,
        "has_played": true,
        "id": 17568817,
        "last_rank": 17150,
        "player_name": "George Linsell",
        "rank": 25782,
        "rank_sort": 25830,
        "total": 2373
      },
      {
        "club_badge_src": null,
        "entry": 2905611,
        "entry_name": "AhmadoVV",
        "event_total": 53,
        "has_played": true,
        "id": 21294167,
        "last_rank": 22064,
        "player_name": "Ahmad Shahhoud",
        "rank": 25782,
        "rank_sort": 25831,
        "total": 2373
      },
      {
        "club_badge_src": null,
        "entry": 3098137,
        "entry_name": "LADS ON TOUR\u00c9",
        "event_total": 75,
        "has_played": true,
        "id": 22835460,
        "last_rank": 46106,
        "player_name": "Connor Nixon",
        "rank": 25782,
        "rank_sort": 25832,
        "total": 2373
      },
      {
        "club_badge_src": null,
        "entry": 3104569,
        "entry_name": "The Special Ones",
        "event_total": 52,
        "has_played": true,
        "id": 22889934,
        "last_rank": 21392,
        "player_name": "Jason Foley-Train",
        "rank": 25782,
        "rank_sort": 25833,
        "total": 2373
      },
      {
        "club_badge_src": null,
        "entry": 3107284,
        "entry_name": "Gooner or Later",
        "event_total": 71,
        "has_played": true,
        "id": 22914966,
        "last_rank": 40647,
        "player_name": "Mark Tyler",
        "rank": 25782,
        "rank_sort": 25834,
        "total": 2373
      },
      {
        "club_badge_src": null,
        "entry": 3391285,
        "entry_name": "The Mask of Porro",
        "event_total": 61,
        "has_played": true,
        "id": 25176700,
        "last_rank": 28726,
        "player_name": "Ian Blake",
        "rank": 25782,
        "rank_sort": 25835,
        "total": 2373
      },
      {
        "club_badge_src": null,
        "entry": 3454950,
        "entry_name": "attackhelicopter",
        "event_total": 65,
        "has_played": true,
        "id": 25677461,
        "last_rank": 29071,
        "player_name": "Anthony Hadfield",
        "rank": 25782,
        "rank_sort": 25836,
        "total": 2373
      },
      {
        "club_badge_src": null,
        "entry": 3545569,
        "entry_name": "ReDzZ",
        "event_total": 60,
        "has_played": true,
        "id": 26393806,
        "last_rank": 24475,
        "player_name": "Hossam Adel",
        "rank": 25782,
        "rank_sort": 25837,
        "total": 2373
      },
      {
        "club_badge_src": null,
        "entry": 3901101,
        "entry_name": "ZirkzeeAndIKnowIt",
        "event_total": 55,
        "has_played": true,
        "id": 29325643,
        "last_rank": 23820,
        "player_name": "Leo Sumner",
        "rank": 25782,
        "rank_sort": 25838,
        "total": 2373
      },
      {
        "club_badge_src": null,
        "entry": 4110546,
        "entry_name": "Ha-Cunha Mateta",
        "event_total": 51,
        "has_played": true,
        "id": 31043465,
        "last_rank": 20538,
        "player_name": "Ryan Johnson",
        "rank": 25782,
        "rank_sort": 25839,
        "total": 2373
      },
      {
        "club_badge_src": null,
        "entry": 4454014,
        "entry_name": "V\u1ecbtiano Donaldo",
        "event_total": 68,
        "has_played": true,
        "id": 33927661,
        "last_rank": 36624,
        "player_name": "Cris Phan",
        "rank": 25782,
        "rank_sort": 25840,
        "total": 2373
      },
      {
        "club_badge_src": "https://fantasy.premierleague.com/gcs/plfpl-production-adobe-approved/plfpl-production/4612023/da37a0f6-b808-4652-a015-169ace78074f.png",
        "entry": 4612023,
        "entry_name": "FIGRALCI FT",
        "event_total": 70,
        "has_played": true,
        "id": 35242767,
        "last_rank": 39246,
        "player_name": "Serizan Vinsmoke",
        "rank": 25782,
        "rank_sort": 25841,
        "total": 2373
      },
      {
        "club_badge_src": null,
        "entry": 5002332,
        "entry_name": "chelseaAreBack",
        "event_total": 70,
        "has_played": true,
        "id": 38626016,
        "last_rank": 39403,
        "player_name": "Ajay Gupta",
        "rank": 25782,
        "rank_sort": 25842,
        "total": 2373
      },
      {
        "club_badge_src": null,
        "entry": 5210387,
        "entry_name": "Ready Steady Cooke",
        "event_total": 69,
        "has_played": true,
        "id": 40358338,
        "last_rank": 38016,
        "player_name": "Benjamin Cooke",
        "rank": 25782,
        "rank_sort": 25843,
        "total": 2373
      },
      {
        "club_badge_src": null,
        "entry": 5341302,
        "entry_name": "Can't Farke there",
        "event_total": 65,
        "has_played": true,
        "id": 41426161,
        "last_rank": 33332,
        "player_name": "Max Neal",
        "rank": 25782,
        "rank_sort": 25844,
        "total": 2373
      },
      {
        "club_badge_src": null,
        "entry": 5532936,
        "entry_name": "KC Glass Recycling",
        "event_total": 60,
        "has_played": true,
        "id": 43165588,
        "last_rank": 24475,
        "player_name": "Eoin Murphy",
        "rank": 25782,
        "rank_sort": 25845,
        "total": 2373
      },
      {
        "club_badge_src": null,
        "entry": 5629382,
        "entry_name": "Stamford Lions",
        "event_total": 49,
        "has_played": true,
        "id": 44012145,
        "last_rank": 19176,
        "player_name": "Uran Mavraj",
        "rank": 25782,
        "rank_sort": 25846,
        "total": 2373
      },
      {
        "club_badge_src": null,
        "entry": 5853292,
        "entry_name": "FC  Madrid",
        "event_total": 53,
        "has_played": true,
        "id": 45956743,
        "last_rank": 22216,
        "player_name": "Abdulrahman Bukamal",
        "rank": 25782,
        "rank_sort": 25847,
        "total": 2373
      },
      {
        "club_badge_src": "https://fantasy.premierleague.com/gcs/plfpl-production-adobe-approved/plfpl-production/6045028/38efbc4b-048f-4bab-b702-1da615dd3933.png",
        "entry": 6045028,
        "entry_name": "Cucurella De Vil",
        "event_total": 66,
        "has_played": true,
        "id": 47696640,
        "last_rank": 34578,
        "player_name": "Lu\u00eds Pereira",
        "rank": 25782,
        "rank_sort": 25848,
        "total": 2373
      },
      {
        "club_badge_src": null,
        "entry": 6142035,
        "entry_name": "Oishi Gy\u00f6za Desu",
        "event_total": 61,
        "has_played": true,
        "id": 48543506,
        "last_rank": 29199,
        "player_name": "BigD Yap",
        "rank": 25782,
        "rank_sort": 25849,
        "total": 2373
      },
      {
        "club_badge_src": null,
        "entry": 6177536,
        "entry_name": "DOLA",
        "event_total": 71,
        "has_played": true,
        "id": 48851069,
        "last_rank": 35619,
        "player_name": "Mohamed Adel",
        "rank": 25782,
        "rank_sort": 25850,
        "total": 2373
      }
    ]
  }
}