{
  "last_updated_data": "2026-05-24T23:28:17Z",
  "league": {
    "admin_entry": null,
    "closed": false,
    "code_privacy": "p",
    "created": "2025-07-20T23:14:33.933835Z",
    "cup_league": 2815434,
    "has_cup": true,
    "id": 314,
    "league_type": "s",
    "max_entries": null,
    "name": "Overall",
    "rank": null,
    "scoring": "c",
    "start_event": 1
  },
  "new_entries": {
    "has_next": false,
    "page": 1,
    "results": []
  },
  "standings": {
    "has_next": true,
    "page": 1129,
    "results": [
      {
        "club_badge_src": null,
        "entry": 3868289,
        "entry_name": "FPL injection",
        "event_total": 70,
        "has_played": true,
        "id": 29011666,
        "last_rank": 82398,
        "player_name": "FARES BF",
        "rank": 56235,
        "rank_sort": 56401,
        "total": 2348
      },
      {
        "club_badge_src": null,
        "entry": 4067253,
        "entry_name": "All or Nothing",
        "event_total": 60,
        "has_played": true,
        "id": 30696359,
        "last_rank": 54667,
        "player_name": "Cameron Jenkins",
        "rank": 56235,
        "rank_sort": 56402,
        "total": 2348
      },
      {
        "club_badge_src": null,
        "entry": 4161817,
        "entry_name": "Klementinkartellet",
        "event_total": 67,
        "has_played": true,
        "id": 31466299,
        "last_rank": 75537,
        "player_name": "Jon H",
        "rank": 56235,
        "rank_sort": 56403,
        "total": 2348
      },
      {
        "club_badge_src": null,
        "entry": 4164840,
        "entry_name": "Dark Twisted Fantasy",
        "event_total": 52,
        "has_played": true,
        "id": 31494421,
        "last_rank": 48898,
        "player_name": "Tom Kirk",
        "rank": 56235,
        "rank_sort": 56404,
        "total": 2348
      },
      {
        "club_badge_src": null,
        "entry": 4213130,
        "entry_name": "The Fab Few",
        "event_total": 72,
        "has_played": true,
        "id": 31901043,
        "last_rank": 77676,
        "player_name": "Michael Few",
        "rank": 56235,
        "rank_sort": 56405,
        "total": 2348
      },
      {
        "club_badge_src": null,
        "entry": 4274028,
        "entry_name": "Mulligans BK",
        "event_total": 61,
        "has_played": true,
        "id": 32412411,
        "last_rank": 63724,
        "player_name": "Mattias Nordenadler",
        "rank": 56235,
        "rank_sort": 56406,
        "total": 2348
      },
      {
        "club_badge_src": null,
        "entry": 4332787,
        "entry_name": "Bowen for Gold",
        "event_total": 67,
        "has_played": true,
        "id": 32890652,
        "last_rank": 67063,
        "player_name": "Daniel Ellul",
        "rank": 56235,
        "rank_sort": 56407,
        "total": 2348
      },
      {
        "club_badge_src": null,
        "entry": 4409996,
        "entry_name": "Funny Pun",
        "event_total": 81,
        "has_played": true,
        "id": 33546341,
        "last_rank": 109454,
        "player_name": "Joe Connolly",
        "rank": 56235,
        "rank_sort": 56408,
        "total": 2348
      },
      {
        "club_badge_src": "https://fantasy.premierleague.com/gcs/plfpl-production-adobe-approved/plfpl-production/4643922/ca8167ba-41b3-44bc-b778-e7171bfd46dd.png",
        "entry": 4643922,
        "entry_name": "Fantastic Gbombosoro",
        "event_total": 63,
        "has_played": true,
        "id": 35522396,
        "last_rank": 60168,
        "player_name": "Bajirie Sheriff",
        "rank": 56235,
        "rank_sort": 56409,
        "total": 2348
      },
      {
        "club_badge_src": null,
        "entry": 4758730,
        "entry_name": "Change Name",
        "event_total": 74,
        "has_played": true,
        "id": 36621592,
        "last_rank": 82069,
        "player_name": "Garrett Craft",
        "rank": 56235,
        "rank_sort": 56410,
        "total": 2348
      },
      {
        "club_badge_src": "https://fantasy.premierleague.com/gcs/plfpl-production-adobe-approved/plfpl-production/4799708/b9601176-5645-40c4-8b1d-c704083435dd.png",
        "entry": 4799708,
        "entry_name": "War Boys",
        "event_total": 50,
        "has_played": true,
        "id": 36954535,
        "last_rank": 45927,
        "player_name": "Branko Labovic",
        "rank": 56235,
        "rank_sort": 56411,
        "total": 2348
      },
      {
        "club_badge_src": null,
        "entry": 4833322,
        "entry_name": "Chippy Chips",
        "event_total": 62,
        "has_played": true,
        "id": 37228027,
        "last_rank": 65796,
        "player_name": "Ross Murdoch",
        "rank": 56235,
        "rank_sort": 56412,
        "total": 2348
      },
      {
        "club_badge_src": null,
        "entry": 4837897,
        "entry_name": "Clean Sheet XI",
        "event_total": 68,
        "has_played": true,
        "id": 37266105,
        "last_rank": 77999,
        "player_name": "Akshay Wadhwani",
        "rank": 56235,
        "rank_sort": 56413,
        "total": 2348
      },
      {
        "club_badge_src": null,
        "entry": 4841902,
        "entry_name": "Only way is up",
        "event_total": 51,
        "has_played": true,
        "id": 37298961,
        "last_rank": 47417,
        "player_name": "Gary Grover",
        "rank": 56235,
        "rank_sort": 56414,
        "total": 2348
      },
      {
        "club_badge_src": null,
        "entry": 4871705,
        "entry_name": "VAR-fetched Dreams",
        "event_total": 69,
        "has_played": true,
        "id": 37551241,
        "last_rank": 70757,
        "player_name": "Kumail Alqatari",
        "rank": 56235,
        "rank_sort": 56415,
        "total": 2348
      },
      {
        "club_badge_src": "https://fantasy.premierleague.com/gcs/plfpl-production-adobe-approved/plfpl-production/4881771/7a71b389-700a-4435-badb-f44ac11d0d99.png",
        "entry": 4881771,
        "entry_name": "Kpop demonhunters \ufffd",
        "event_total": 71,
        "has_played": true,
        "id": 37633055,
        "last_rank": 84731,
        "player_name": "Jerad Solomon",
        "rank": 56235,
        "rank_sort": 56416,
        "total": 2348
      },
      {
        "club_badge_src": null,
        "entry": 4912076,
        "entry_name": "Westchester Ligers",
        "event_total": 76,
        "has_played": true,
        "id": 37881277,
        "last_rank": 95890,
        "player_name": "Richard McCarthy",
        "rank": 56235,
        "rank_sort": 56417,
        "total": 2348
      },
      {
        "club_badge_src": null,
        "entry": 4977997,
        "entry_name": "Bruno's Boys",
        "event_total": 56,
        "has_played": true,
        "id": 38425814,
        "last_rank": 55311,
        "player_name": "Louie Haigh",
        "rank": 56235,
        "rank_sort": 56418,
        "total": 2348
      },
      {
        "club_badge_src": "https://fantasy.premierleague.com/gcs/plfpl-production-adobe-approved/plfpl-production/5020262/f407e488-ba89-48fe-9126-075e6422b77b.png",
        "entry": 5020262,
        "entry_name": "Gabzchester United",
        "event_total": 52,
        "has_played": true,
        "id": 38770416,
        "last_rank": 48898,
        "player_name": "Gabriel Mejia",
        "rank": 56235,
        "rank_sort": 56419,
        "total": 2348
      },
      {
        "club_badge_src": null,
        "entry": 5027808,
        "entry_name": "smg0rhaha",
        "event_total": 49,
        "has_played": true,
        "id": 38831703,
        "last_rank": 44303,
        "player_name": "Tsz Kai Mok",
        "rank": 56235,
        "rank_sort": 56420,
        "total": 2348
      },
      {
        "club_badge_src": null,
        "entry": 5070206,
        "entry_name": "Winning",
        "event_total": 58,
        "has_played": true,
        "id": 39182100,
        "last_rank": 58911,
        "player_name": "Pareen Pandya",
        "rank": 56235,
        "rank_sort": 56421,
        "total": 2348
      },
      {
        "club_badge_src": "https://fantasy.premierleague.com/gcs/plfpl-production-adobe-approved/plfpl-production/5076462/a936f1a8-ac32-4c83-a991-aca336e19afb.png",
        "entry": 5076462,
        "entry_name": "armanj12z",
        "event_total": 45,
        "has_played": true,
        "id": 39233323,
        "last_rank": 39403,
        "player_name": "Armanj 12Z",
        "rank": 56235,
        "rank_sort": 56422,
        "total": 2348
      },
      {
        "club_badge_src": null,
        "entry": 5152184,
        "entry_name": "Barduvia FC",
        "event_total": 54,
        "has_played": true,
        "id": 39861517,
        "last_rank": 51984,
        "player_name": "Per Barstad",
        "rank": 56235,
        "rank_sort": 56423,
        "total": 2348
      },
      {
        "club_badge_src": null,
        "entry": 5271475,
        "entry_name": "Afternoon De Ligt",
        "event_total": 51,
        "has_played": true,
        "id": 40857239,
        "last_rank": 47163,
        "player_name": "Max Green",
        "rank": 56235,
        "rank_sort": 56424,
        "total": 2348
      },
      {
        "club_badge_src": null,
        "entry": 5425123,
        "entry_name": "Mulkerrin XI",
        "event_total": 51,
        "has_played": true,
        "id": 42196190,
        "last_rank": 41617,
        "player_name": "Jack Mulkerrin",
        "rank": 56235,
        "rank_sort": 56425,
        "total": 2348
      },
      {
        "club_badge_src": null,
        "entry": 5512959,
        "entry_name": "Takavasara",
        "event_total": 40,
        "has_played": true,
        "id": 42975612,
        "last_rank": 33147,
        "player_name": "Lauri Rauhala",
        "rank": 56235,
        "rank_sort": 56426,
        "total": 2348
      },
      {
        "club_badge_src": null,
        "entry": 5556564,
        "entry_name": "The Mighty Wednesday",
        "event_total": 44,
        "has_played": true,
        "id": 43373450,
        "last_rank": 37822,
        "player_name": "James Faulkner",
        "rank": 56235,
        "rank_sort": 56427,
        "total": 2348
      },
      {
        "club_badge_src": "https://fantasy.premierleague.com/gcs/plfpl-production-adobe-approved/plfpl-production/5570598/4eb77e36-6979-41f5-be6b-b2bfef593221.png",
        "entry": 5570598,
        "entry_name": "Victorious Secret XI",
        "event_total": 51,
        "has_played": true,
        "id": 43498881,
        "last_rank": 47417,
        "player_name": "Abhinav Anand",
        "rank": 56235,
        "rank_sort": 56428,
        "total": 2348
      },
      {
        "club_badge_src": null,
        "entry": 5642001,
        "entry_name": "Presbyteri-WIN",
        "event_total": 63,
        "has_played": true,
        "id": 44123813,
        "last_rank": 67422,
        "player_name": "Barry Walker",
        "rank": 56235,
        "rank_sort": 56429,
        "total": 2348
      },
      {
        "club_badge_src": null,
        "entry": 5712670,
        "entry_name": "Middelshavsfarer",
        "event_total": 63,
        "has_played": true,
        "id": 44737147,
        "last_rank": 67063,
        "player_name": "Petter Solland",
        "rank": 56235,
        "rank_sort": 56430,
        "total": 2348
      },
      {
        "club_badge_src": null,
        "entry": 5842149,
        "entry_name": "Son Perignon",
        "event_total": 69,
        "has_played": true,
        "id": 45861011,
        "last_rank": 79431,
        "player_name": "Ollie P-B",
        "rank": 56235,
        "rank_sort": 56431,
        "total": 2348
      },
      {
        "club_badge_src": null,
        "entry": 5920648,
        "entry_name": "Glass Half Fullkrug",
        "event_total": 64,
        "has_played": true,
        "id": 46535735,
        "last_rank": 69641,
        "player_name": "Mark McLachlan",
        "rank": 56235,
        "rank_sort": 56432,
        "total": 2348
      },
      {
        "club_badge_src": null,
        "entry": 5920996,
        "entry_name": "The Ballers",
        "event_total": 54,
        "has_played": true,
        "id": 46538814,
        "last_rank": 51984,
        "player_name": "Adam Thornton-Brown",
        "rank": 56235,
        "rank_sort": 56433,
        "total": 2348
      },
      {
        "club_badge_src": null,
        "entry": 5925462,
        "entry_name": "Throwing Schade",
        "event_total": 58,
        "has_played": true,
        "id": 46577616,
        "last_rank": 58688,
        "player_name": "Matt Needham",
        "rank": 56235,
        "rank_sort": 56434,
        "total": 2348
      },
      {
        "club_badge_src": null,
        "entry": 5932062,
        "entry_name": "MoSalah Palace",
        "event_total": 54,
        "has_played": true,
        "id": 46636809,
        "last_rank": 51984,
        "player_name": "Simen Trolsrud",
        "rank": 56235,
        "rank_sort": 56435,
        "total": 2348
      },
      {
        "club_badge_src": null,
        "entry": 5968921,
        "entry_name": "Estewow",
        "event_total": 66,
        "has_played": true,
        "id": 46965561,
        "last_rank": 73720,
        "player_name": "Tonko Tomi\u010di\u0107",
        "rank": 56235,
        "rank_sort": 56436,
        "total": 2348
      },
      {
        "club_badge_src": null,
        "entry": 5992646,
        "entry_name": "Guyson",
        "event_total": 55,
        "has_played": true,
        "id": 47224021,
        "last_rank": 47163,
        "player_name": "Guy Touko",
        "rank": 56235,
        "rank_sort": 56437,
        "total": 2348
      },
      {
        "club_badge_src": null,
        "entry": 6051384,
        "entry_name": "Josh's Unbeatable 11",
        "event_total": 55,
        "has_played": true,
        "id": 47752047,
        "last_rank": 47163,
        "player_name": "Josh Dubber",
        "rank": 56235,
        "rank_sort": 56438,
        "total": 2348
      },
      {
        "club_badge_src": null,
        "entry": 6065520,
        "entry_name": "Theatre of Screams",
        "event_total": 64,
        "has_played": true,
        "id": 47873925,
        "last_rank": 69907,
        "player_name": "Adam Wills",
        "rank": 56235,
        "rank_sort": 56439,
        "total": 2348
      },
      {
        "club_badge_src": null,
        "entry": 6356656,
        "entry_name": "Chris_P_Bacon",
        "event_total": 60,
        "has_played": true,
        "id": 50537603,
        "last_rank": 62223,
        "player_name": "Chris G",
        "rank": 56235,
        "rank_sort": 56440,
        "total": 2348
      },
      {
        "club_badge_src": "https://fantasy.premierleague.com/gcs/plfpl-production-adobe-approved/plfpl-production/6381079/f209552c-1ada-42a1-aa35-4691294cf602.png",
        "entry": 6381079,
        "entry_name": "DJ-YOUCEF",
        "event_total": 63,
        "has_played": true,
        "id": 50751757,
        "last_rank": 67695,
        "player_name": "Nour FPL",
        "rank": 56235,
        "rank_sort": 56441,
        "total": 2348
      },
      {
        "club_badge_src": null,
        "entry": 6503032,
        "entry_name": "Anfield118",
        "event_total": 79,
        "has_played": true,
        "id": 51848921,
        "last_rank": 103978,
        "player_name": "Mishan Shrestha",
        "rank": 56235,
        "rank_sort": 56442,
        "total": 2348
      },
      {
        "club_badge_src": null,
        "entry": 6545018,
        "entry_name": "Kodnamn: Gy\u00f6ken",
        "event_total": 52,
        "has_played": true,
        "id": 52223002,
        "last_rank": 49078,
        "player_name": "Johan Algelid",
        "rank": 56235,
        "rank_sort": 56443,
        "total": 2348
      },
      {
        "club_badge_src": null,
        "entry": 6632530,
        "entry_name": "HaCunha Mateta",
        "event_total": 69,
        "has_played": true,
        "id": 53009751,
        "last_rank": 79817,
        "player_name": "Victor Demeillers",
        "rank": 56235,
        "rank_sort": 56444,
        "total": 2348
      },
      {
        "club_badge_src": null,
        "entry": 6642338,
        "entry_name": "Robben your man\u00e9",
        "event_total": 46,
        "has_played": true,
        "id": 53096466,
        "last_rank": 40503,
        "player_name": "Daniel Sullivan",
        "rank": 56235,
        "rank_sort": 56445,
        "total": 2348
      },
      {
        "club_badge_src": null,
        "entry": 6786230,
        "entry_name": "Comeback season 2",
        "event_total": 58,
        "has_played": true,
        "id": 54342252,
        "last_rank": 51720,
        "player_name": "Taryn Seidle",
        "rank": 56235,
        "rank_sort": 56446,
        "total": 2348
      },
      {
        "club_badge_src": null,
        "entry": 6933235,
        "entry_name": "Viktory",
        "event_total": 64,
        "has_played": true,
        "id": 55582811,
        "last_rank": 61950,
        "player_name": "Black Foot",
        "rank": 56235,
        "rank_sort": 56447,
        "total": 2348
      },
      {
        "club_badge_src": null,
        "entry": 7052401,
        "entry_name": "haythem ben dhiab",
        "event_total": 82,
        "has_played": true,
        "id": 56720732,
        "last_rank": 112169,
        "player_name": "king of the north",
        "rank": 56235,
        "rank_sort": 56448,
        "total": 2348
      },
      {
        "club_badge_src": null,
        "entry": 7157042,
        "entry_name": "Fc OleOle",
        "event_total": 46,
        "has_played": true,
        "id": 57723491,
        "last_rank": 35424,
        "player_name": "Kalle Godenhjelm",
        "rank": 56235,
        "rank_sort": 56449,
        "total": 2348
      },
      {
        "club_badge_src": null,
        "entry": 7523461,
        "entry_name": "Gray beats white!",
        "event_total": 70,
        "has_played": true,
        "id": 61562579,
        "last_rank": 82398,
        "player_name": "Sebastian Aalbu Lindland",
        "rank": 56235,
        "rank_sort": 56450,
        "total": 2348
      }
    ]
  }
}