{
  "last_updated_data": "2026-05-24T23:28:17Z",
  "league": {
    "admin_entry": null,
    "closed": false,
    "code_privacy": "p",
    "created": "2025-07-20T23:14:33.933835Z",
    "cup_league": 2815434,
    "has_cup": true,
    "id": 314,
    "league_type": "s",
    "max_entries": null,
    "name": "Overall",
    "rank": null,
    "scoring": "c",
    "start_event": 1
  },
  "new_entries": {
    "has_next": false,
    "page": 1,
    "results": []
  },
  "standings": {
    "has_next": true,
    "page": 1520,
    "results": [
      {
        "club_badge_src": null,
        "entry": 6333696,
        "entry_name": "Kinder Mbeumo",
        "event_total": 74,
        "has_played": true,
        "id": 50337826,
        "last_rank": 120103,
        "player_name": "Nishita Shah",
        "rank": 75615,
        "rank_sort": 75951,
        "total": 2337
      },
      {
        "club_badge_src": null,
        "entry": 6371821,
        "entry_name": "RAMPI",
        "event_total": 56,
        "has_played": true,
        "id": 50670130,
        "last_rank": 75139,
        "player_name": "Ariq Rachmananda",
        "rank": 75615,
        "rank_sort": 75952,
        "total": 2337
      },
      {
        "club_badge_src": null,
        "entry": 6457658,
        "entry_name": "Yoro Wizard Harry",
        "event_total": 62,
        "has_played": true,
        "id": 51434673,
        "last_rank": 88594,
        "player_name": "Bryan Masterson",
        "rank": 75615,
        "rank_sort": 75953,
        "total": 2337
      },
      {
        "club_badge_src": null,
        "entry": 6483594,
        "entry_name": "Bawaaa eleven",
        "event_total": 52,
        "has_played": true,
        "id": 51677406,
        "last_rank": 67422,
        "player_name": "Haris Farhan",
        "rank": 75615,
        "rank_sort": 75954,
        "total": 2337
      },
      {
        "club_badge_src": null,
        "entry": 6487659,
        "entry_name": "Notreve CF",
        "event_total": 59,
        "has_played": true,
        "id": 51713061,
        "last_rank": 81646,
        "player_name": "Jens Lindberg",
        "rank": 75615,
        "rank_sort": 75955,
        "total": 2337
      },
      {
        "club_badge_src": null,
        "entry": 6559658,
        "entry_name": "Palmer Violets",
        "event_total": 52,
        "has_played": true,
        "id": 52353032,
        "last_rank": 67422,
        "player_name": "Samantha Lloyd",
        "rank": 75615,
        "rank_sort": 75956,
        "total": 2337
      },
      {
        "club_badge_src": null,
        "entry": 6562038,
        "entry_name": "Dream Come True",
        "event_total": 58,
        "has_played": true,
        "id": 52374198,
        "last_rank": 70757,
        "player_name": "Charlie Whittaker",
        "rank": 75615,
        "rank_sort": 75957,
        "total": 2337
      },
      {
        "club_badge_src": null,
        "entry": 6585192,
        "entry_name": "Wirtz Case Scenario",
        "event_total": 68,
        "has_played": true,
        "id": 52589531,
        "last_rank": 93052,
        "player_name": "Tom Coleman",
        "rank": 75615,
        "rank_sort": 75958,
        "total": 2337
      },
      {
        "club_badge_src": "https://fantasy.premierleague.com/gcs/plfpl-production-adobe-approved/plfpl-production/6658435/bf7f7542-4f0c-46a6-867b-a2ab6e4b1794.png",
        "entry": 6658435,
        "entry_name": "Theatre of Dreams XI",
        "event_total": 67,
        "has_played": true,
        "id": 53240470,
        "last_rank": 101419,
        "player_name": "Hitesh kumar",
        "rank": 75615,
        "rank_sort": 75959,
        "total": 2337
      },
      {
        "club_badge_src": null,
        "entry": 6679862,
        "entry_name": "Jesus loves Wood",
        "event_total": 48,
        "has_played": true,
        "id": 53431490,
        "last_rank": 59813,
        "player_name": "Blair Bryant",
        "rank": 75615,
        "rank_sort": 75960,
        "total": 2337
      },
      {
        "club_badge_src": null,
        "entry": 6779088,
        "entry_name": "Tin Can Dribblers",
        "event_total": 72,
        "has_played": true,
        "id": 54282565,
        "last_rank": 115057,
        "player_name": "Keith Bishop",
        "rank": 75615,
        "rank_sort": 75961,
        "total": 2337
      },
      {
        "club_badge_src": null,
        "entry": 6816377,
        "entry_name": "Ugarte Be Kidding Me",
        "event_total": 61,
        "has_played": true,
        "id": 54592006,
        "last_rank": 86304,
        "player_name": "Ryan Cornett",
        "rank": 75615,
        "rank_sort": 75962,
        "total": 2337
      },
      {
        "club_badge_src": "https://fantasy.premierleague.com/gcs/plfpl-production-adobe-approved/plfpl-production/6857081/67e6bbb4-e999-430f-bb2f-f0d80836e595.png",
        "entry": 6857081,
        "entry_name": "Goatz",
        "event_total": 54,
        "has_played": true,
        "id": 54939995,
        "last_rank": 70985,
        "player_name": "Henri de Canecaude",
        "rank": 75615,
        "rank_sort": 75963,
        "total": 2337
      },
      {
        "club_badge_src": null,
        "entry": 6897849,
        "entry_name": "money affi mek",
        "event_total": 55,
        "has_played": true,
        "id": 55286547,
        "last_rank": 73423,
        "player_name": "Jack Burgess",
        "rank": 75615,
        "rank_sort": 75964,
        "total": 2337
      },
      {
        "club_badge_src": null,
        "entry": 6909364,
        "entry_name": "It's Palmover",
        "event_total": 69,
        "has_played": true,
        "id": 55382695,
        "last_rank": 105818,
        "player_name": "Darren Scanlon",
        "rank": 75615,
        "rank_sort": 75965,
        "total": 2337
      },
      {
        "club_badge_src": "https://fantasy.premierleague.com/gcs/plfpl-production-adobe-approved/plfpl-production/6932939/f0ee96e4-a1dc-4285-ad2e-484a550a1abb.png",
        "entry": 6932939,
        "entry_name": "Fully Chuffed",
        "event_total": 67,
        "has_played": true,
        "id": 55580411,
        "last_rank": 100700,
        "player_name": "Kevin Harrington",
        "rank": 75615,
        "rank_sort": 75966,
        "total": 2337
      },
      {
        "club_badge_src": null,
        "entry": 6935212,
        "entry_name": "Hugo Etomike",
        "event_total": 72,
        "has_played": true,
        "id": 55599518,
        "last_rank": 115057,
        "player_name": "Kamsi Eneh",
        "rank": 75615,
        "rank_sort": 75967,
        "total": 2337
      },
      {
        "club_badge_src": null,
        "entry": 6997660,
        "entry_name": "The Gopher Squad",
        "event_total": 65,
        "has_played": true,
        "id": 56180175,
        "last_rank": 95640,
        "player_name": "Michele Harmer",
        "rank": 75615,
        "rank_sort": 75968,
        "total": 2337
      },
      {
        "club_badge_src": null,
        "entry": 7085165,
        "entry_name": "YaYaKoLo",
        "event_total": 61,
        "has_played": true,
        "id": 57035633,
        "last_rank": 86054,
        "player_name": "Matheesh Abeyratne",
        "rank": 75615,
        "rank_sort": 75969,
        "total": 2337
      },
      {
        "club_badge_src": null,
        "entry": 7087986,
        "entry_name": "FCIBK",
        "event_total": 62,
        "has_played": true,
        "id": 57062384,
        "last_rank": 88594,
        "player_name": "Ibukunoluwa Fabunmi",
        "rank": 75615,
        "rank_sort": 75970,
        "total": 2337
      },
      {
        "club_badge_src": "https://fantasy.premierleague.com/gcs/plfpl-production-adobe-approved/plfpl-production/7096439/5a7fcdca-e3a1-4ada-9d15-f0e1f509bf2b.png",
        "entry": 7096439,
        "entry_name": "Toyota Haalander!",
        "event_total": 61,
        "has_played": true,
        "id": 57141980,
        "last_rank": 86304,
        "player_name": "BM Wazza",
        "rank": 75615,
        "rank_sort": 75971,
        "total": 2337
      },
      {
        "club_badge_src": null,
        "entry": 7109087,
        "entry_name": "Shocker Galaxy",
        "event_total": 50,
        "has_played": true,
        "id": 57263467,
        "last_rank": 63390,
        "player_name": "Neil Collins",
        "rank": 75615,
        "rank_sort": 75972,
        "total": 2337
      },
      {
        "club_badge_src": null,
        "entry": 7121982,
        "entry_name": "Gy\u00f6kamolie",
        "event_total": 52,
        "has_played": true,
        "id": 57384811,
        "last_rank": 66848,
        "player_name": "Cassidy G",
        "rank": 75615,
        "rank_sort": 75973,
        "total": 2337
      },
      {
        "club_badge_src": null,
        "entry": 7124050,
        "entry_name": "iaaaan's aaaallstars",
        "event_total": 55,
        "has_played": true,
        "id": 57404244,
        "last_rank": 72815,
        "player_name": "Iaaan Lane",
        "rank": 75615,
        "rank_sort": 75974,
        "total": 2337
      },
      {
        "club_badge_src": null,
        "entry": 7130573,
        "entry_name": "Delap dance",
        "event_total": 46,
        "has_played": true,
        "id": 57465555,
        "last_rank": 56099,
        "player_name": "Mats Duys",
        "rank": 75615,
        "rank_sort": 75975,
        "total": 2337
      },
      {
        "club_badge_src": null,
        "entry": 7171596,
        "entry_name": "Odegaard's Wizards",
        "event_total": 56,
        "has_played": true,
        "id": 57867950,
        "last_rank": 74898,
        "player_name": "Jake Rawnsley",
        "rank": 75615,
        "rank_sort": 75976,
        "total": 2337
      },
      {
        "club_badge_src": null,
        "entry": 7171701,
        "entry_name": "Wirtz in a name",
        "event_total": 52,
        "has_played": true,
        "id": 57868929,
        "last_rank": 67063,
        "player_name": "Jigar Thakkar",
        "rank": 75615,
        "rank_sort": 75977,
        "total": 2337
      },
      {
        "club_badge_src": null,
        "entry": 7184411,
        "entry_name": "BYD Comin' Thru :)",
        "event_total": 47,
        "has_played": true,
        "id": 57987420,
        "last_rank": 58071,
        "player_name": "Tian Wang Ling",
        "rank": 75615,
        "rank_sort": 75978,
        "total": 2337
      },
      {
        "club_badge_src": null,
        "entry": 7192077,
        "entry_name": "I'm\u0160e\u0161koandiknowit",
        "event_total": 50,
        "has_played": true,
        "id": 58059216,
        "last_rank": 63390,
        "player_name": "Callum Seamark",
        "rank": 75615,
        "rank_sort": 75979,
        "total": 2337
      },
      {
        "club_badge_src": null,
        "entry": 7211568,
        "entry_name": "Alemakou FC",
        "event_total": 68,
        "has_played": true,
        "id": 58243117,
        "last_rank": 103254,
        "player_name": "Alex Christofi",
        "rank": 75615,
        "rank_sort": 75980,
        "total": 2337
      },
      {
        "club_badge_src": null,
        "entry": 7215568,
        "entry_name": "DinnaeJist Hoofit",
        "event_total": 58,
        "has_played": true,
        "id": 58280855,
        "last_rank": 79431,
        "player_name": "Thomas Hart",
        "rank": 75615,
        "rank_sort": 75981,
        "total": 2337
      },
      {
        "club_badge_src": "https://fantasy.premierleague.com/gcs/plfpl-production-adobe-approved/plfpl-production/7231160/715dc761-c985-4890-86b9-ac33bd3c7a25.png",
        "entry": 7231160,
        "entry_name": "Mbeumo Boys",
        "event_total": 78,
        "has_played": true,
        "id": 58425805,
        "last_rank": 132281,
        "player_name": "Jimmy Mumo",
        "rank": 75615,
        "rank_sort": 75982,
        "total": 2337
      },
      {
        "club_badge_src": null,
        "entry": 7257329,
        "entry_name": "The Soccer Team",
        "event_total": 62,
        "has_played": true,
        "id": 58675254,
        "last_rank": 88594,
        "player_name": "Joshua Cooper",
        "rank": 75615,
        "rank_sort": 75983,
        "total": 2337
      },
      {
        "club_badge_src": null,
        "entry": 7273060,
        "entry_name": "Saka Spuds",
        "event_total": 41,
        "has_played": true,
        "id": 58821200,
        "last_rank": 48363,
        "player_name": "Philip Epps",
        "rank": 75615,
        "rank_sort": 75984,
        "total": 2337
      },
      {
        "club_badge_src": null,
        "entry": 7276636,
        "entry_name": "Chelski",
        "event_total": 31,
        "has_played": true,
        "id": 58855501,
        "last_rank": 34969,
        "player_name": "Leigh Holford",
        "rank": 75615,
        "rank_sort": 75985,
        "total": 2337
      },
      {
        "club_badge_src": null,
        "entry": 7347452,
        "entry_name": "Black Cats r back",
        "event_total": 47,
        "has_played": true,
        "id": 59521872,
        "last_rank": 57857,
        "player_name": "Alec Hutcheon",
        "rank": 75615,
        "rank_sort": 75986,
        "total": 2337
      },
      {
        "club_badge_src": null,
        "entry": 7350990,
        "entry_name": "chippy chips",
        "event_total": 54,
        "has_played": true,
        "id": 59555124,
        "last_rank": 70985,
        "player_name": "Travis Lim",
        "rank": 75615,
        "rank_sort": 75987,
        "total": 2337
      },
      {
        "club_badge_src": null,
        "entry": 7403622,
        "entry_name": "EKITIKETAKA",
        "event_total": 46,
        "has_played": true,
        "id": 60047953,
        "last_rank": 56708,
        "player_name": "Adem Tursoy",
        "rank": 75615,
        "rank_sort": 75988,
        "total": 2337
      },
      {
        "club_badge_src": null,
        "entry": 7479717,
        "entry_name": "Sharpe Decline",
        "event_total": 62,
        "has_played": true,
        "id": 61019126,
        "last_rank": 88348,
        "player_name": "Greg Burns",
        "rank": 75615,
        "rank_sort": 75989,
        "total": 2337
      },
      {
        "club_badge_src": null,
        "entry": 7489033,
        "entry_name": "Inter Mullingar",
        "event_total": 67,
        "has_played": true,
        "id": 61140521,
        "last_rank": 100949,
        "player_name": "Sean Cunningham",
        "rank": 75615,
        "rank_sort": 75990,
        "total": 2337
      },
      {
        "club_badge_src": null,
        "entry": 7525656,
        "entry_name": "It's coming home",
        "event_total": 46,
        "has_played": true,
        "id": 61588280,
        "last_rank": 56708,
        "player_name": "Jeff Major",
        "rank": 75615,
        "rank_sort": 75991,
        "total": 2337
      },
      {
        "club_badge_src": null,
        "entry": 7646874,
        "entry_name": "Wirtz nightmare",
        "event_total": 69,
        "has_played": true,
        "id": 62688319,
        "last_rank": 106259,
        "player_name": "Dominic Wills",
        "rank": 75615,
        "rank_sort": 75992,
        "total": 2337
      },
      {
        "club_badge_src": null,
        "entry": 7673630,
        "entry_name": "Cole as Ice",
        "event_total": 77,
        "has_played": true,
        "id": 62934162,
        "last_rank": 129506,
        "player_name": "Chris Castaldi",
        "rank": 75615,
        "rank_sort": 75993,
        "total": 2337
      },
      {
        "club_badge_src": null,
        "entry": 7688243,
        "entry_name": "Pharaohs",
        "event_total": 51,
        "has_played": true,
        "id": 63065744,
        "last_rank": 64830,
        "player_name": "Mohammed Sami",
        "rank": 75615,
        "rank_sort": 75994,
        "total": 2337
      },
      {
        "club_badge_src": null,
        "entry": 7729948,
        "entry_name": "Housewife's Choice",
        "event_total": 56,
        "has_played": true,
        "id": 63440649,
        "last_rank": 74787,
        "player_name": "Heather Johnson",
        "rank": 75615,
        "rank_sort": 75995,
        "total": 2337
      },
      {
        "club_badge_src": null,
        "entry": 7814124,
        "entry_name": "HuttonDressedAsLahm",
        "event_total": 57,
        "has_played": true,
        "id": 64200972,
        "last_rank": 77050,
        "player_name": "Greg Moore",
        "rank": 75615,
        "rank_sort": 75996,
        "total": 2337
      },
      {
        "club_badge_src": null,
        "entry": 7967121,
        "entry_name": "SlotMatipinTheDijk",
        "event_total": 63,
        "has_played": true,
        "id": 65593013,
        "last_rank": 91006,
        "player_name": "Ryan Tadrisi",
        "rank": 75615,
        "rank_sort": 75997,
        "total": 2337
      },
      {
        "club_badge_src": null,
        "entry": 8053382,
        "entry_name": "Yawbillions",
        "event_total": 64,
        "has_played": true,
        "id": 66368160,
        "last_rank": 93883,
        "player_name": "Leslie Abbam",
        "rank": 75615,
        "rank_sort": 75998,
        "total": 2337
      },
      {
        "club_badge_src": "https://fantasy.premierleague.com/gcs/plfpl-production-adobe-approved/plfpl-production/8081079/a1912db8-b937-485e-993e-4803cdadcb8c.png",
        "entry": 8081079,
        "entry_name": "F. alaa",
        "event_total": 63,
        "has_played": true,
        "id": 66625228,
        "last_rank": 90746,
        "player_name": "F A",
        "rank": 75615,
        "rank_sort": 75999,
        "total": 2337
      },
      {
        "club_badge_src": null,
        "entry": 8115158,
        "entry_name": "Crank our bits FC",
        "event_total": 69,
        "has_played": true,
        "id": 66942351,
        "last_rank": 95527,
        "player_name": "Rick Norbutas",
        "rank": 75615,
        "rank_sort": 76000,
        "total": 2337
      }
    ]
  }
}