{
  "last_updated_data": "2026-05-24T23:28:17Z",
  "league": {
    "admin_entry": null,
    "closed": false,
    "code_privacy": "p",
    "created": "2025-07-20T23:14:33.933835Z",
    "cup_league": 2815434,
    "has_cup": true,
    "id": 314,
    "league_type": "s",
    "max_entries": null,
    "name": "Overall",
    "rank": null,
    "scoring": "c",
    "start_event": 1
  },
  "new_entries": {
    "has_next": false,
    "page": 1,
    "results": []
  },
  "standings": {
    "has_next": true,
    "page": 1033,
    "results": [
      {
        "club_badge_src": null,
        "entry": 452044,
        "entry_name": "Snoop Udogie Dogg",
        "event_total": 58,
        "has_played": true,
        "id": 3032595,
        "last_rank": 46839,
        "player_name": "Derek Hogan",
        "rank": 51550,
        "rank_sort": 51601,
        "total": 2351
      },
      {
        "club_badge_src": null,
        "entry": 452529,
        "entry_name": "Cubbies Hammers",
        "event_total": 55,
        "has_played": true,
        "id": 3035765,
        "last_rank": 48642,
        "player_name": "John McKinley",
        "rank": 51550,
        "rank_sort": 51602,
        "total": 2351
      },
      {
        "club_badge_src": "https://fantasy.premierleague.com/gcs/plfpl-production-adobe-approved/plfpl-production/513554/1b1af91a-1a3a-454f-b7d5-6fd9340dd3aa.png",
        "entry": 513554,
        "entry_name": "Reds24Lbj",
        "event_total": 68,
        "has_played": true,
        "id": 3448354,
        "last_rank": 71713,
        "player_name": "iQdan Tahallal",
        "rank": 51550,
        "rank_sort": 51603,
        "total": 2351
      },
      {
        "club_badge_src": "https://fantasy.premierleague.com/gcs/plfpl-production-adobe-approved/plfpl-production/567921/d23e5c09-f13d-4295-9179-329082f16b29.png",
        "entry": 567921,
        "entry_name": "Fear the Wirtz",
        "event_total": 53,
        "has_played": true,
        "id": 3822421,
        "last_rank": 45927,
        "player_name": "Nigel Bates",
        "rank": 51550,
        "rank_sort": 51604,
        "total": 2351
      },
      {
        "club_badge_src": "https://fantasy.premierleague.com/gcs/plfpl-production-adobe-approved/plfpl-production/583813/0da6047d-8cc7-400b-b5b9-d1004be21621.png",
        "entry": 583813,
        "entry_name": "Bridge Too Far",
        "event_total": 64,
        "has_played": true,
        "id": 3928951,
        "last_rank": 56708,
        "player_name": "Ian Gould",
        "rank": 51550,
        "rank_sort": 51605,
        "total": 2351
      },
      {
        "club_badge_src": null,
        "entry": 602638,
        "entry_name": "man utd",
        "event_total": 34,
        "has_played": true,
        "id": 4067099,
        "last_rank": 24570,
        "player_name": "Sreejith K",
        "rank": 51550,
        "rank_sort": 51606,
        "total": 2351
      },
      {
        "club_badge_src": null,
        "entry": 623264,
        "entry_name": "Uno Petit Coin",
        "event_total": 51,
        "has_played": true,
        "id": 4211998,
        "last_rank": 43168,
        "player_name": "Lars Scheper",
        "rank": 51550,
        "rank_sort": 51607,
        "total": 2351
      },
      {
        "club_badge_src": "https://fantasy.premierleague.com/gcs/plfpl-production-adobe-approved/plfpl-production/652323/fc27cd34-9459-4e2a-a7b9-01149f8b5060.png",
        "entry": 652323,
        "entry_name": "Emi lokan",
        "event_total": 63,
        "has_played": true,
        "id": 4408450,
        "last_rank": 62223,
        "player_name": "Emmanuel Offor",
        "rank": 51550,
        "rank_sort": 51608,
        "total": 2351
      },
      {
        "club_badge_src": null,
        "entry": 662489,
        "entry_name": "Change Name",
        "event_total": 68,
        "has_played": true,
        "id": 4478352,
        "last_rank": 63724,
        "player_name": "Ricky Raja",
        "rank": 51550,
        "rank_sort": 51609,
        "total": 2351
      },
      {
        "club_badge_src": null,
        "entry": 713941,
        "entry_name": "Talk To Each Other",
        "event_total": 67,
        "has_played": true,
        "id": 4843559,
        "last_rank": 61606,
        "player_name": "Jack Morris",
        "rank": 51550,
        "rank_sort": 51610,
        "total": 2351
      },
      {
        "club_badge_src": null,
        "entry": 736324,
        "entry_name": "BEATLESHOW",
        "event_total": 55,
        "has_played": true,
        "id": 5005624,
        "last_rank": 48363,
        "player_name": "Liam Beazley",
        "rank": 51550,
        "rank_sort": 51611,
        "total": 2351
      },
      {
        "club_badge_src": "https://fantasy.premierleague.com/gcs/plfpl-production-adobe-approved/plfpl-production/742966/ef538648-0c27-435b-99ac-bfd71cb826f2.png",
        "entry": 742966,
        "entry_name": "REDS",
        "event_total": 68,
        "has_played": true,
        "id": 5053696,
        "last_rank": 71386,
        "player_name": "Sarvesh Pandit",
        "rank": 51550,
        "rank_sort": 51612,
        "total": 2351
      },
      {
        "club_badge_src": "https://fantasy.premierleague.com/gcs/plfpl-production-adobe-approved/plfpl-production/810023/598acb08-4688-4ca9-9bfb-0a0d454a7d91.png",
        "entry": 810023,
        "entry_name": "BOSH",
        "event_total": 59,
        "has_played": true,
        "id": 5545964,
        "last_rank": 55311,
        "player_name": "Tom Vincent",
        "rank": 51550,
        "rank_sort": 51613,
        "total": 2351
      },
      {
        "club_badge_src": null,
        "entry": 822426,
        "entry_name": "Samuelson FC",
        "event_total": 63,
        "has_played": true,
        "id": 5632607,
        "last_rank": 55014,
        "player_name": "Tom S",
        "rank": 51550,
        "rank_sort": 51614,
        "total": 2351
      },
      {
        "club_badge_src": null,
        "entry": 870001,
        "entry_name": "Wirtz of Wisdom",
        "event_total": 64,
        "has_played": true,
        "id": 5964532,
        "last_rank": 56708,
        "player_name": "Gary Tuohy",
        "rank": 51550,
        "rank_sort": 51615,
        "total": 2351
      },
      {
        "club_badge_src": null,
        "entry": 873851,
        "entry_name": "Calafiori Dreaming",
        "event_total": 52,
        "has_played": true,
        "id": 5990935,
        "last_rank": 44303,
        "player_name": "Jon Haney",
        "rank": 51550,
        "rank_sort": 51616,
        "total": 2351
      },
      {
        "club_badge_src": null,
        "entry": 877532,
        "entry_name": "Rosey's Rejects",
        "event_total": 57,
        "has_played": true,
        "id": 6016325,
        "last_rank": 51984,
        "player_name": "Nathan Rose",
        "rank": 51550,
        "rank_sort": 51617,
        "total": 2351
      },
      {
        "club_badge_src": null,
        "entry": 893208,
        "entry_name": "Tuku FC",
        "event_total": 46,
        "has_played": true,
        "id": 6135421,
        "last_rank": 36624,
        "player_name": "Yonten Jamtsho",
        "rank": 51550,
        "rank_sort": 51618,
        "total": 2351
      },
      {
        "club_badge_src": null,
        "entry": 929354,
        "entry_name": "wilhelmsen",
        "event_total": 53,
        "has_played": true,
        "id": 6394451,
        "last_rank": 45927,
        "player_name": "Kim j\u00f8ran Wilhelmsen",
        "rank": 51550,
        "rank_sort": 51619,
        "total": 2351
      },
      {
        "club_badge_src": null,
        "entry": 930994,
        "entry_name": "wirtz case scenario",
        "event_total": 60,
        "has_played": true,
        "id": 6406032,
        "last_rank": 57001,
        "player_name": "Jason Rushe",
        "rank": 51550,
        "rank_sort": 51620,
        "total": 2351
      },
      {
        "club_badge_src": "https://fantasy.premierleague.com/gcs/plfpl-production-adobe-approved/plfpl-production/959352/2ead0c46-b89f-4dd3-9300-55ad360947f4.png",
        "entry": 959352,
        "entry_name": "J80TLK",
        "event_total": 66,
        "has_played": true,
        "id": 6610847,
        "last_rank": 60168,
        "player_name": "Jack Osborne",
        "rank": 51550,
        "rank_sort": 51621,
        "total": 2351
      },
      {
        "club_badge_src": "https://fantasy.premierleague.com/gcs/plfpl-production-adobe-approved/plfpl-production/1003766/8f212c69-e4bc-411f-9068-19d8f474a71a.png",
        "entry": 1003766,
        "entry_name": "Flying Ducks",
        "event_total": 61,
        "has_played": true,
        "id": 6938627,
        "last_rank": 58071,
        "player_name": "Andi Apriyanto",
        "rank": 51550,
        "rank_sort": 51622,
        "total": 2351
      },
      {
        "club_badge_src": null,
        "entry": 1005054,
        "entry_name": "Artekkers FC",
        "event_total": 55,
        "has_played": true,
        "id": 6947786,
        "last_rank": 48898,
        "player_name": "Harry O-Callaghan",
        "rank": 51550,
        "rank_sort": 51623,
        "total": 2351
      },
      {
        "club_badge_src": "https://fantasy.premierleague.com/gcs/plfpl-production-adobe-approved/plfpl-production/1012557/8a1dd634-aec4-4eb7-9f9b-9c9dd99f67fb.png",
        "entry": 1012557,
        "entry_name": "Dorset Devils",
        "event_total": 65,
        "has_played": true,
        "id": 7004586,
        "last_rank": 58388,
        "player_name": "Conrad Buck",
        "rank": 51550,
        "rank_sort": 51624,
        "total": 2351
      },
      {
        "club_badge_src": null,
        "entry": 1046448,
        "entry_name": "Colonel Wirtz",
        "event_total": 71,
        "has_played": true,
        "id": 7242161,
        "last_rank": 77999,
        "player_name": "Chris Brien",
        "rank": 51550,
        "rank_sort": 51625,
        "total": 2351
      },
      {
        "club_badge_src": "https://fantasy.premierleague.com/gcs/plfpl-production-adobe-approved/plfpl-production/1054037/23adf383-f320-41b8-8008-e8b70f1a6efc.png",
        "entry": 1054037,
        "entry_name": "Holm FC",
        "event_total": 75,
        "has_played": true,
        "id": 7294646,
        "last_rank": 87074,
        "player_name": "William Holm",
        "rank": 51550,
        "rank_sort": 51626,
        "total": 2351
      },
      {
        "club_badge_src": null,
        "entry": 1081068,
        "entry_name": "Ekitike Mo Salah",
        "event_total": 47,
        "has_played": true,
        "id": 7485418,
        "last_rank": 32879,
        "player_name": "Mark Thistlethwaite",
        "rank": 51550,
        "rank_sort": 51627,
        "total": 2351
      },
      {
        "club_badge_src": "https://fantasy.premierleague.com/gcs/plfpl-production-adobe-approved/plfpl-production/1090922/e70cd71d-4d9c-4bdb-bc58-7a0fae01411b.png",
        "entry": 1090922,
        "entry_name": "ThomastheFrankEngine",
        "event_total": 63,
        "has_played": true,
        "id": 7555439,
        "last_rank": 62223,
        "player_name": "Keith Warbis",
        "rank": 51550,
        "rank_sort": 51628,
        "total": 2351
      },
      {
        "club_badge_src": null,
        "entry": 1154354,
        "entry_name": "Papa Coach",
        "event_total": 41,
        "has_played": true,
        "id": 8004738,
        "last_rank": 30957,
        "player_name": "David Rola",
        "rank": 51550,
        "rank_sort": 51629,
        "total": 2351
      },
      {
        "club_badge_src": null,
        "entry": 1203712,
        "entry_name": "Gosis\u0142aw_Team_Go",
        "event_total": 64,
        "has_played": true,
        "id": 8353290,
        "last_rank": 64005,
        "player_name": "Ma\u0142gorzata Szcz\u0119sna",
        "rank": 51550,
        "rank_sort": 51630,
        "total": 2351
      },
      {
        "club_badge_src": null,
        "entry": 1207552,
        "entry_name": "Gyok Tuah",
        "event_total": 67,
        "has_played": true,
        "id": 8380200,
        "last_rank": 61950,
        "player_name": "Jacques Bouvery",
        "rank": 51550,
        "rank_sort": 51631,
        "total": 2351
      },
      {
        "club_badge_src": null,
        "entry": 1233913,
        "entry_name": "wirtz of wisdom",
        "event_total": 44,
        "has_played": true,
        "id": 8568535,
        "last_rank": 34458,
        "player_name": "arthur faithfull",
        "rank": 51550,
        "rank_sort": 51632,
        "total": 2351
      },
      {
        "club_badge_src": null,
        "entry": 1234075,
        "entry_name": "Tom's Red Devils",
        "event_total": 59,
        "has_played": true,
        "id": 8569633,
        "last_rank": 55014,
        "player_name": "Ram Shalev",
        "rank": 51550,
        "rank_sort": 51633,
        "total": 2351
      },
      {
        "club_badge_src": null,
        "entry": 1242007,
        "entry_name": "S7S",
        "event_total": 67,
        "has_played": true,
        "id": 8625598,
        "last_rank": 54667,
        "player_name": "Mostafa Hussien",
        "rank": 51550,
        "rank_sort": 51634,
        "total": 2351
      },
      {
        "club_badge_src": null,
        "entry": 1260738,
        "entry_name": "TakeabowSon",
        "event_total": 58,
        "has_played": true,
        "id": 8757575,
        "last_rank": 47163,
        "player_name": "Diluka Karunaratne",
        "rank": 51550,
        "rank_sort": 51635,
        "total": 2351
      },
      {
        "club_badge_src": "https://fantasy.premierleague.com/gcs/plfpl-production-adobe-approved/plfpl-production/1262960/cc9f67e5-fdfa-4240-a740-3351bc4165cb.png",
        "entry": 1262960,
        "entry_name": "Gyokere's Wild FC",
        "event_total": 68,
        "has_played": true,
        "id": 8774932,
        "last_rank": 63724,
        "player_name": "Boris Pluskowski",
        "rank": 51550,
        "rank_sort": 51636,
        "total": 2351
      },
      {
        "club_badge_src": null,
        "entry": 1267195,
        "entry_name": "Wirtz Case Scenario",
        "event_total": 60,
        "has_played": true,
        "id": 8804660,
        "last_rank": 57001,
        "player_name": "Jake Pawson",
        "rank": 51550,
        "rank_sort": 51637,
        "total": 2351
      },
      {
        "club_badge_src": null,
        "entry": 1277565,
        "entry_name": "Top team",
        "event_total": 68,
        "has_played": true,
        "id": 8877470,
        "last_rank": 56369,
        "player_name": "Khaled Elsedfi",
        "rank": 51550,
        "rank_sort": 51638,
        "total": 2351
      },
      {
        "club_badge_src": null,
        "entry": 1295286,
        "entry_name": "DEFCON 5",
        "event_total": 49,
        "has_played": true,
        "id": 9001987,
        "last_rank": 40503,
        "player_name": "Dominic Egan",
        "rank": 51550,
        "rank_sort": 51639,
        "total": 2351
      },
      {
        "club_badge_src": null,
        "entry": 1384094,
        "entry_name": "The Elite",
        "event_total": 59,
        "has_played": true,
        "id": 9626517,
        "last_rank": 48642,
        "player_name": "Stoyan Barakov",
        "rank": 51550,
        "rank_sort": 51640,
        "total": 2351
      },
      {
        "club_badge_src": null,
        "entry": 1397416,
        "entry_name": "Arsenal Fan",
        "event_total": 57,
        "has_played": true,
        "id": 9721924,
        "last_rank": 51984,
        "player_name": "Mahyar Razavian",
        "rank": 51550,
        "rank_sort": 51641,
        "total": 2351
      },
      {
        "club_badge_src": null,
        "entry": 1398129,
        "entry_name": "Pompompurin Club",
        "event_total": 53,
        "has_played": true,
        "id": 9727025,
        "last_rank": 45927,
        "player_name": "Ka Ian Wong",
        "rank": 51550,
        "rank_sort": 51642,
        "total": 2351
      },
      {
        "club_badge_src": null,
        "entry": 1428110,
        "entry_name": "TwoLeftFeetFC",
        "event_total": 68,
        "has_played": true,
        "id": 9950774,
        "last_rank": 63724,
        "player_name": "Al Chester",
        "rank": 51550,
        "rank_sort": 51643,
        "total": 2351
      },
      {
        "club_badge_src": null,
        "entry": 1451793,
        "entry_name": "honorable men",
        "event_total": 59,
        "has_played": true,
        "id": 10116051,
        "last_rank": 55311,
        "player_name": "Peter Da Silva",
        "rank": 51550,
        "rank_sort": 51644,
        "total": 2351
      },
      {
        "club_badge_src": null,
        "entry": 1463465,
        "entry_name": "Gimme One More Day",
        "event_total": 57,
        "has_played": true,
        "id": 10200955,
        "last_rank": 51984,
        "player_name": "Aaron Uppal",
        "rank": 51550,
        "rank_sort": 51645,
        "total": 2351
      },
      {
        "club_badge_src": null,
        "entry": 1546724,
        "entry_name": "KS Mokre Zoki",
        "event_total": 63,
        "has_played": true,
        "id": 10798530,
        "last_rank": 61950,
        "player_name": "Adam Potyka",
        "rank": 51550,
        "rank_sort": 51646,
        "total": 2351
      },
      {
        "club_badge_src": null,
        "entry": 1617549,
        "entry_name": "The emptyheads",
        "event_total": 51,
        "has_played": true,
        "id": 11318787,
        "last_rank": 43168,
        "player_name": "Michael Bergin",
        "rank": 51550,
        "rank_sort": 51647,
        "total": 2351
      },
      {
        "club_badge_src": null,
        "entry": 1617611,
        "entry_name": "London is Red",
        "event_total": 71,
        "has_played": true,
        "id": 11319252,
        "last_rank": 77999,
        "player_name": "Anthony Yip",
        "rank": 51550,
        "rank_sort": 51648,
        "total": 2351
      },
      {
        "club_badge_src": "https://fantasy.premierleague.com/gcs/plfpl-production-adobe-approved/plfpl-production/1624575/8a051af8-4b0c-4150-81f3-34091fc83429.png",
        "entry": 1624575,
        "entry_name": "The Mighty Reds",
        "event_total": 56,
        "has_played": true,
        "id": 11370675,
        "last_rank": 44303,
        "player_name": "Craig Miller",
        "rank": 51550,
        "rank_sort": 51649,
        "total": 2351
      },
      {
        "club_badge_src": null,
        "entry": 1655517,
        "entry_name": "United Red Chiefs",
        "event_total": 55,
        "has_played": true,
        "id": 11590496,
        "last_rank": 48898,
        "player_name": "Mark wimpenny",
        "rank": 51550,
        "rank_sort": 51650,
        "total": 2351
      }
    ]
  }
}