{
  "last_updated_data": "2026-05-24T23:28:17Z",
  "league": {
    "admin_entry": null,
    "closed": false,
    "code_privacy": "p",
    "created": "2025-07-20T23:14:33.933835Z",
    "cup_league": 2815434,
    "has_cup": true,
    "id": 314,
    "league_type": "s",
    "max_entries": null,
    "name": "Overall",
    "rank": null,
    "scoring": "c",
    "start_event": 1
  },
  "new_entries": {
    "has_next": false,
    "page": 1,
    "results": []
  },
  "standings": {
    "has_next": true,
    "page": 482,
    "results": [
      {
        "club_badge_src": null,
        "entry": 3103820,
        "entry_name": "Michael Blaque",
        "event_total": 66,
        "has_played": true,
        "id": 22884302,
        "last_rank": 32190,
        "player_name": "Michael Blaque",
        "rank": 23977,
        "rank_sort": 24051,
        "total": 2375
      },
      {
        "club_badge_src": null,
        "entry": 3349626,
        "entry_name": "CrtlAltDeLigt",
        "event_total": 60,
        "has_played": true,
        "id": 24848776,
        "last_rank": 22685,
        "player_name": "Rik Van de Graaf",
        "rank": 23977,
        "rank_sort": 24052,
        "total": 2375
      },
      {
        "club_badge_src": null,
        "entry": 3352426,
        "entry_name": "Up the Villa",
        "event_total": 71,
        "has_played": true,
        "id": 24870706,
        "last_rank": 37822,
        "player_name": "Chris Blackler",
        "rank": 23977,
        "rank_sort": 24053,
        "total": 2375
      },
      {
        "club_badge_src": null,
        "entry": 3375856,
        "entry_name": "WeWonTheFACup FC",
        "event_total": 69,
        "has_played": true,
        "id": 25056492,
        "last_rank": 35768,
        "player_name": "Dale Whitehouse",
        "rank": 23977,
        "rank_sort": 24054,
        "total": 2375
      },
      {
        "club_badge_src": null,
        "entry": 3655818,
        "entry_name": "goran kh sport",
        "event_total": 53,
        "has_played": true,
        "id": 27257797,
        "last_rank": 20538,
        "player_name": "goran khurshid",
        "rank": 23977,
        "rank_sort": 24055,
        "total": 2375
      },
      {
        "club_badge_src": null,
        "entry": 3685255,
        "entry_name": "Alisson Wonderland",
        "event_total": 62,
        "has_played": true,
        "id": 27490976,
        "last_rank": 28150,
        "player_name": "Kurtis Poole",
        "rank": 23977,
        "rank_sort": 24056,
        "total": 2375
      },
      {
        "club_badge_src": null,
        "entry": 3717430,
        "entry_name": "Abdullah Almutairi",
        "event_total": 74,
        "has_played": true,
        "id": 27740858,
        "last_rank": 36200,
        "player_name": "Abdullah Almutairi",
        "rank": 23977,
        "rank_sort": 24057,
        "total": 2375
      },
      {
        "club_badge_src": null,
        "entry": 3847412,
        "entry_name": "Madridista in FPL",
        "event_total": 59,
        "has_played": true,
        "id": 28838640,
        "last_rank": 21949,
        "player_name": "Mark Abi Khalil",
        "rank": 23977,
        "rank_sort": 24058,
        "total": 2375
      },
      {
        "club_badge_src": null,
        "entry": 3905048,
        "entry_name": "T n M",
        "event_total": 65,
        "has_played": true,
        "id": 29357421,
        "last_rank": 30727,
        "player_name": "SF N-Valentine",
        "rank": 23977,
        "rank_sort": 24059,
        "total": 2375
      },
      {
        "club_badge_src": null,
        "entry": 3955618,
        "entry_name": "Flyman",
        "event_total": 69,
        "has_played": true,
        "id": 29760039,
        "last_rank": 35424,
        "player_name": "Tel Williams",
        "rank": 23977,
        "rank_sort": 24060,
        "total": 2375
      },
      {
        "club_badge_src": "https://fantasy.premierleague.com/gcs/plfpl-production-adobe-approved/plfpl-production/4001792/601bf4fb-a97d-4c3e-86e3-59ca2ef3c9c0.png",
        "entry": 4001792,
        "entry_name": "JOHN BUCHANS XI",
        "event_total": 54,
        "has_played": true,
        "id": 30141860,
        "last_rank": 21301,
        "player_name": "Michael Cardno",
        "rank": 23977,
        "rank_sort": 24061,
        "total": 2375
      },
      {
        "club_badge_src": null,
        "entry": 4023613,
        "entry_name": "thsemu fc",
        "event_total": 61,
        "has_played": true,
        "id": 30327788,
        "last_rank": 27203,
        "player_name": "Umesh Thapa",
        "rank": 23977,
        "rank_sort": 24062,
        "total": 2375
      },
      {
        "club_badge_src": "https://fantasy.premierleague.com/gcs/plfpl-production-adobe-approved/plfpl-production/4065840/0d538fd5-659a-41e6-ba12-c86a7a0ab0fc.png",
        "entry": 4065840,
        "entry_name": "Procrustes",
        "event_total": 75,
        "has_played": true,
        "id": 30684768,
        "last_rank": 37589,
        "player_name": "Georgios Brianis",
        "rank": 23977,
        "rank_sort": 24063,
        "total": 2375
      },
      {
        "club_badge_src": "https://fantasy.premierleague.com/gcs/plfpl-production-adobe-approved/plfpl-production/4188060/decd8fe0-00c9-49f6-8d60-c2f46c91679c.png",
        "entry": 4188060,
        "entry_name": "Hayz Outdoors",
        "event_total": 70,
        "has_played": true,
        "id": 31689548,
        "last_rank": 31995,
        "player_name": "Andreas Holmroos",
        "rank": 23977,
        "rank_sort": 24064,
        "total": 2375
      },
      {
        "club_badge_src": null,
        "entry": 4201634,
        "entry_name": "McGinn it to win it",
        "event_total": 49,
        "has_played": true,
        "id": 31805452,
        "last_rank": 17718,
        "player_name": "Tom Allsopp",
        "rank": 23977,
        "rank_sort": 24065,
        "total": 2375
      },
      {
        "club_badge_src": null,
        "entry": 4211879,
        "entry_name": "Cole\u2019d Blooded",
        "event_total": 76,
        "has_played": true,
        "id": 31890762,
        "last_rank": 44303,
        "player_name": "Richard Cole",
        "rank": 23977,
        "rank_sort": 24066,
        "total": 2375
      },
      {
        "club_badge_src": "https://fantasy.premierleague.com/gcs/plfpl-production-adobe-approved/plfpl-production/4419988/4b3170f1-a864-44a1-a84d-3615baeba0e0.png",
        "entry": 4419988,
        "entry_name": "Odd fellowship FC",
        "event_total": 60,
        "has_played": true,
        "id": 33628911,
        "last_rank": 22685,
        "player_name": "Martin Fogelberg",
        "rank": 23977,
        "rank_sort": 24067,
        "total": 2375
      },
      {
        "club_badge_src": null,
        "entry": 4433226,
        "entry_name": "Rhys's Pieces",
        "event_total": 54,
        "has_played": true,
        "id": 33752601,
        "last_rank": 21301,
        "player_name": "Rhys Davies",
        "rank": 23977,
        "rank_sort": 24068,
        "total": 2375
      },
      {
        "club_badge_src": null,
        "entry": 4476119,
        "entry_name": "FC DIRKINSTOCK",
        "event_total": 66,
        "has_played": true,
        "id": 34111883,
        "last_rank": 32190,
        "player_name": "Michael Prime",
        "rank": 23977,
        "rank_sort": 24069,
        "total": 2375
      },
      {
        "club_badge_src": null,
        "entry": 4599542,
        "entry_name": "Alisson Wonderland",
        "event_total": 63,
        "has_played": true,
        "id": 35132047,
        "last_rank": 28906,
        "player_name": "Gavin Hill",
        "rank": 23977,
        "rank_sort": 24070,
        "total": 2375
      },
      {
        "club_badge_src": null,
        "entry": 4630751,
        "entry_name": "El Tino's Locos",
        "event_total": 63,
        "has_played": true,
        "id": 35407964,
        "last_rank": 29071,
        "player_name": "Steve Long",
        "rank": 23977,
        "rank_sort": 24071,
        "total": 2375
      },
      {
        "club_badge_src": null,
        "entry": 4638952,
        "entry_name": "FC bolltroll",
        "event_total": 65,
        "has_played": true,
        "id": 35477393,
        "last_rank": 30727,
        "player_name": "Anton Gustafsson",
        "rank": 23977,
        "rank_sort": 24072,
        "total": 2375
      },
      {
        "club_badge_src": null,
        "entry": 4888319,
        "entry_name": "I'm still a Baleba!",
        "event_total": 51,
        "has_played": true,
        "id": 37688184,
        "last_rank": 16163,
        "player_name": "DAVID SENIOR",
        "rank": 23977,
        "rank_sort": 24073,
        "total": 2375
      },
      {
        "club_badge_src": null,
        "entry": 5181089,
        "entry_name": "Patched Up Side",
        "event_total": 57,
        "has_played": true,
        "id": 40103981,
        "last_rank": 23522,
        "player_name": "Patrick Taylor",
        "rank": 23977,
        "rank_sort": 24074,
        "total": 2375
      },
      {
        "club_badge_src": null,
        "entry": 5293427,
        "entry_name": "Yoro wizard Harry",
        "event_total": 68,
        "has_played": true,
        "id": 41031136,
        "last_rank": 34293,
        "player_name": "Patryk Utecki",
        "rank": 23977,
        "rank_sort": 24075,
        "total": 2375
      },
      {
        "club_badge_src": null,
        "entry": 5345647,
        "entry_name": "Bastek",
        "event_total": 78,
        "has_played": true,
        "id": 41475949,
        "last_rank": 47596,
        "player_name": "Sebastian Krok",
        "rank": 23977,
        "rank_sort": 24076,
        "total": 2375
      },
      {
        "club_badge_src": "https://fantasy.premierleague.com/gcs/plfpl-production-adobe-approved/plfpl-production/5633652/8195d1a9-b88c-4c06-bb70-38d217e6d8bd.png",
        "entry": 5633652,
        "entry_name": "Real Ale Madrid",
        "event_total": 75,
        "has_played": true,
        "id": 44049316,
        "last_rank": 37822,
        "player_name": "Karl Rose",
        "rank": 23977,
        "rank_sort": 24077,
        "total": 2375
      },
      {
        "club_badge_src": "https://fantasy.premierleague.com/gcs/plfpl-production-adobe-approved/plfpl-production/5762788/e46b6486-9801-42e5-8c65-774d9bae21aa.png",
        "entry": 5762788,
        "entry_name": "A Jet2 Mbuemo play",
        "event_total": 66,
        "has_played": true,
        "id": 45176309,
        "last_rank": 31995,
        "player_name": "Ole-Jacob W. Knudsen",
        "rank": 23977,
        "rank_sort": 24078,
        "total": 2375
      },
      {
        "club_badge_src": null,
        "entry": 5968215,
        "entry_name": "Lallana's in Pyjamas",
        "event_total": 45,
        "has_played": true,
        "id": 46959245,
        "last_rank": 15164,
        "player_name": "Jaskaran brahach",
        "rank": 23977,
        "rank_sort": 24079,
        "total": 2375
      },
      {
        "club_badge_src": null,
        "entry": 6059560,
        "entry_name": "Garys Duds!",
        "event_total": 56,
        "has_played": true,
        "id": 47822270,
        "last_rank": 22685,
        "player_name": "Gary Darlow",
        "rank": 23977,
        "rank_sort": 24080,
        "total": 2375
      },
      {
        "club_badge_src": null,
        "entry": 6297859,
        "entry_name": "bayern oatcake",
        "event_total": 61,
        "has_played": true,
        "id": 49919222,
        "last_rank": 23522,
        "player_name": "Alex Stirling",
        "rank": 23977,
        "rank_sort": 24081,
        "total": 2375
      },
      {
        "club_badge_src": null,
        "entry": 6556812,
        "entry_name": "A-Cunha Matata",
        "event_total": 63,
        "has_played": true,
        "id": 52327517,
        "last_rank": 29071,
        "player_name": "matthew daly",
        "rank": 23977,
        "rank_sort": 24082,
        "total": 2375
      },
      {
        "club_badge_src": null,
        "entry": 6627633,
        "entry_name": "759 fc 2.0",
        "event_total": 60,
        "has_played": true,
        "id": 52966179,
        "last_rank": 22685,
        "player_name": "Nor Ni",
        "rank": 23977,
        "rank_sort": 24083,
        "total": 2375
      },
      {
        "club_badge_src": null,
        "entry": 6780111,
        "entry_name": "JonesXI",
        "event_total": 62,
        "has_played": true,
        "id": 54291026,
        "last_rank": 24143,
        "player_name": "Corinne Jones",
        "rank": 23977,
        "rank_sort": 24084,
        "total": 2375
      },
      {
        "club_badge_src": null,
        "entry": 6794673,
        "entry_name": "Lord of the Ings",
        "event_total": 56,
        "has_played": true,
        "id": 54412818,
        "last_rank": 19721,
        "player_name": "Harry Webster",
        "rank": 23977,
        "rank_sort": 24085,
        "total": 2375
      },
      {
        "club_badge_src": null,
        "entry": 6911098,
        "entry_name": "The Bavarian",
        "event_total": 59,
        "has_played": true,
        "id": 55397154,
        "last_rank": 25436,
        "player_name": "Karim Youssef",
        "rank": 23977,
        "rank_sort": 24086,
        "total": 2375
      },
      {
        "club_badge_src": null,
        "entry": 7101569,
        "entry_name": "Kudus be magic now",
        "event_total": 56,
        "has_played": true,
        "id": 57190518,
        "last_rank": 22830,
        "player_name": "Brian Mullens",
        "rank": 23977,
        "rank_sort": 24087,
        "total": 2375
      },
      {
        "club_badge_src": null,
        "entry": 7119556,
        "entry_name": "Pa-Modou Kahppucino",
        "event_total": 49,
        "has_played": true,
        "id": 57361927,
        "last_rank": 17718,
        "player_name": "Eirik Ranneberg",
        "rank": 23977,
        "rank_sort": 24088,
        "total": 2375
      },
      {
        "club_badge_src": null,
        "entry": 7125975,
        "entry_name": "eggmen",
        "event_total": 39,
        "has_played": true,
        "id": 57422405,
        "last_rank": 11901,
        "player_name": "Morgan Love",
        "rank": 23977,
        "rank_sort": 24089,
        "total": 2375
      },
      {
        "club_badge_src": null,
        "entry": 7280499,
        "entry_name": "Game of throw-ins",
        "event_total": 58,
        "has_played": true,
        "id": 58894011,
        "last_rank": 24475,
        "player_name": "Ray Senior",
        "rank": 23977,
        "rank_sort": 24090,
        "total": 2375
      },
      {
        "club_badge_src": null,
        "entry": 7285266,
        "entry_name": "walyJr",
        "event_total": 57,
        "has_played": true,
        "id": 58938824,
        "last_rank": 23522,
        "player_name": "Karim Elwaly",
        "rank": 23977,
        "rank_sort": 24091,
        "total": 2375
      },
      {
        "club_badge_src": null,
        "entry": 7546436,
        "entry_name": "FC Mabes",
        "event_total": 70,
        "has_played": true,
        "id": 61780104,
        "last_rank": 36624,
        "player_name": "Jemma Jenson",
        "rank": 23977,
        "rank_sort": 24092,
        "total": 2375
      },
      {
        "club_badge_src": null,
        "entry": 7726278,
        "entry_name": "Let's be havin' You!",
        "event_total": 67,
        "has_played": true,
        "id": 63407513,
        "last_rank": 33332,
        "player_name": "Nicola Corbett",
        "rank": 23977,
        "rank_sort": 24093,
        "total": 2375
      },
      {
        "club_badge_src": null,
        "entry": 7841663,
        "entry_name": "The streak",
        "event_total": 39,
        "has_played": true,
        "id": 64456110,
        "last_rank": 8339,
        "player_name": "MO RAD",
        "rank": 23977,
        "rank_sort": 24094,
        "total": 2375
      },
      {
        "club_badge_src": null,
        "entry": 8233044,
        "entry_name": "Teal Team 4",
        "event_total": 62,
        "has_played": true,
        "id": 68056367,
        "last_rank": 24330,
        "player_name": "Emily Rogers",
        "rank": 23977,
        "rank_sort": 24095,
        "total": 2375
      },
      {
        "club_badge_src": null,
        "entry": 9119742,
        "entry_name": "Ekitika Mo Salah",
        "event_total": 71,
        "has_played": true,
        "id": 76644804,
        "last_rank": 37822,
        "player_name": "Debopam Dey Sarkar",
        "rank": 23977,
        "rank_sort": 24096,
        "total": 2375
      },
      {
        "club_badge_src": null,
        "entry": 9219810,
        "entry_name": "UTB",
        "event_total": 52,
        "has_played": true,
        "id": 77628618,
        "last_rank": 16959,
        "player_name": "Liam Muir",
        "rank": 23977,
        "rank_sort": 24097,
        "total": 2375
      },
      {
        "club_badge_src": null,
        "entry": 5024,
        "entry_name": "Rice Rice Baby",
        "event_total": 67,
        "has_played": true,
        "id": 28612,
        "last_rank": 29071,
        "player_name": "Kris Mohan",
        "rank": 24098,
        "rank_sort": 24098,
        "total": 2375
      },
      {
        "club_badge_src": null,
        "entry": 8699,
        "entry_name": "FAA Project",
        "event_total": 67,
        "has_played": true,
        "id": 50724,
        "last_rank": 29071,
        "player_name": "Fatih Azka Adinugraha",
        "rank": 24098,
        "rank_sort": 24099,
        "total": 2375
      },
      {
        "club_badge_src": "https://fantasy.premierleague.com/gcs/plfpl-production-adobe-approved/plfpl-production/27947/85944037-b5d7-4de5-aa48-b98f7e315523.png",
        "entry": 27947,
        "entry_name": "511",
        "event_total": 63,
        "has_played": true,
        "id": 176736,
        "last_rank": 29199,
        "player_name": "H Shi",
        "rank": 24098,
        "rank_sort": 24100,
        "total": 2375
      }
    ]
  }
}