{
  "last_updated_data": "2026-05-24T23:28:17Z",
  "league": {
    "admin_entry": null,
    "closed": false,
    "code_privacy": "p",
    "created": "2025-07-20T23:14:33.933835Z",
    "cup_league": 2815434,
    "has_cup": true,
    "id": 314,
    "league_type": "s",
    "max_entries": null,
    "name": "Overall",
    "rank": null,
    "scoring": "c",
    "start_event": 1
  },
  "new_entries": {
    "has_next": false,
    "page": 1,
    "results": []
  },
  "standings": {
    "has_next": true,
    "page": 1642,
    "results": [
      {
        "club_badge_src": null,
        "entry": 412521,
        "entry_name": "RB H\u00f8vik",
        "event_total": 51,
        "has_played": true,
        "id": 2765800,
        "last_rank": 70757,
        "player_name": "Christian Shepherd Hovde",
        "rank": 81984,
        "rank_sort": 82051,
        "total": 2334
      },
      {
        "club_badge_src": "https://fantasy.premierleague.com/gcs/plfpl-production-adobe-approved/plfpl-production/428958/eb093f72-32f6-4b88-be93-8f9289d9759b.png",
        "entry": 428958,
        "entry_name": "Dream Team",
        "event_total": 55,
        "has_played": true,
        "id": 2877125,
        "last_rank": 79190,
        "player_name": "Yusuf Ohio",
        "rank": 81984,
        "rank_sort": 82052,
        "total": 2334
      },
      {
        "club_badge_src": null,
        "entry": 433750,
        "entry_name": "Franks Boys FC",
        "event_total": 41,
        "has_played": true,
        "id": 2908905,
        "last_rank": 53345,
        "player_name": "Corey Wildman",
        "rank": 81984,
        "rank_sort": 82053,
        "total": 2334
      },
      {
        "club_badge_src": null,
        "entry": 436775,
        "entry_name": "Tea and Obiscuits",
        "event_total": 46,
        "has_played": true,
        "id": 2928969,
        "last_rank": 61606,
        "player_name": "Jordan Crabb",
        "rank": 81984,
        "rank_sort": 82054,
        "total": 2334
      },
      {
        "club_badge_src": null,
        "entry": 437206,
        "entry_name": "Shakanorbs",
        "event_total": 68,
        "has_played": true,
        "id": 2931852,
        "last_rank": 111669,
        "player_name": "Norbert Schuldes",
        "rank": 81984,
        "rank_sort": 82055,
        "total": 2334
      },
      {
        "club_badge_src": null,
        "entry": 451686,
        "entry_name": "King Kai",
        "event_total": 45,
        "has_played": true,
        "id": 3030267,
        "last_rank": 59813,
        "player_name": "Albin S\u00e4f",
        "rank": 81984,
        "rank_sort": 82056,
        "total": 2334
      },
      {
        "club_badge_src": "https://fantasy.premierleague.com/gcs/plfpl-production-adobe-approved/plfpl-production/453903/23e17b50-a916-4118-87fc-27bd0a098764.png",
        "entry": 453903,
        "entry_name": "Rong",
        "event_total": 67,
        "has_played": true,
        "id": 3044792,
        "last_rank": 108689,
        "player_name": "rong tan",
        "rank": 81984,
        "rank_sort": 82057,
        "total": 2334
      },
      {
        "club_badge_src": null,
        "entry": 474694,
        "entry_name": "lonely at the top",
        "event_total": 79,
        "has_played": true,
        "id": 3186755,
        "last_rank": 146686,
        "player_name": "Hari Pal",
        "rank": 81984,
        "rank_sort": 82058,
        "total": 2334
      },
      {
        "club_badge_src": null,
        "entry": 484415,
        "entry_name": "Hani",
        "event_total": 58,
        "has_played": true,
        "id": 3251548,
        "last_rank": 86054,
        "player_name": "Hani Fahad",
        "rank": 81984,
        "rank_sort": 82059,
        "total": 2334
      },
      {
        "club_badge_src": "https://fantasy.premierleague.com/gcs/plfpl-production-adobe-approved/plfpl-production/489126/257f4871-15b4-4def-9c4c-a13f63d14cfb.png",
        "entry": 489126,
        "entry_name": "FPL Shanks",
        "event_total": 50,
        "has_played": true,
        "id": 3283620,
        "last_rank": 68957,
        "player_name": "Billy Howard",
        "rank": 81984,
        "rank_sort": 82060,
        "total": 2334
      },
      {
        "club_badge_src": null,
        "entry": 497875,
        "entry_name": "KBeumo",
        "event_total": 55,
        "has_played": true,
        "id": 3341682,
        "last_rank": 79431,
        "player_name": "Krongboon Wanitchayapong",
        "rank": 81984,
        "rank_sort": 82061,
        "total": 2334
      },
      {
        "club_badge_src": null,
        "entry": 500451,
        "entry_name": "Boom Xhakalaka\ufffd \ufffd \ufffd",
        "event_total": 67,
        "has_played": true,
        "id": 3358615,
        "last_rank": 108959,
        "player_name": "John-san Fornah",
        "rank": 81984,
        "rank_sort": 82062,
        "total": 2334
      },
      {
        "club_badge_src": null,
        "entry": 500813,
        "entry_name": "Yes Eustace Can",
        "event_total": 50,
        "has_played": true,
        "id": 3361003,
        "last_rank": 68957,
        "player_name": "Joel Orme",
        "rank": 81984,
        "rank_sort": 82063,
        "total": 2334
      },
      {
        "club_badge_src": null,
        "entry": 502191,
        "entry_name": "Foxes",
        "event_total": 53,
        "has_played": true,
        "id": 3370702,
        "last_rank": 75139,
        "player_name": "MICHA\u0141 BARAN",
        "rank": 81984,
        "rank_sort": 82064,
        "total": 2334
      },
      {
        "club_badge_src": null,
        "entry": 527952,
        "entry_name": "Amorim I'm all in",
        "event_total": 60,
        "has_played": true,
        "id": 3549319,
        "last_rank": 91006,
        "player_name": "Ivan Tong",
        "rank": 81984,
        "rank_sort": 82065,
        "total": 2334
      },
      {
        "club_badge_src": null,
        "entry": 540257,
        "entry_name": "Derry City FC",
        "event_total": 67,
        "has_played": true,
        "id": 3636402,
        "last_rank": 108567,
        "player_name": "Ryan Derry",
        "rank": 81984,
        "rank_sort": 82066,
        "total": 2334
      },
      {
        "club_badge_src": null,
        "entry": 564593,
        "entry_name": "Coleplay Kiss Cam",
        "event_total": 46,
        "has_played": true,
        "id": 3800280,
        "last_rank": 61411,
        "player_name": "Rick Clemons",
        "rank": 81984,
        "rank_sort": 82067,
        "total": 2334
      },
      {
        "club_badge_src": null,
        "entry": 568108,
        "entry_name": "FrankTheTank",
        "event_total": 66,
        "has_played": true,
        "id": 3823697,
        "last_rank": 105818,
        "player_name": "Charles Oliver",
        "rank": 81984,
        "rank_sort": 82068,
        "total": 2334
      },
      {
        "club_badge_src": null,
        "entry": 600406,
        "entry_name": "Livancic",
        "event_total": 51,
        "has_played": true,
        "id": 4050898,
        "last_rank": 70985,
        "player_name": "Ljubomir Ivan\u010di\u0107",
        "rank": 81984,
        "rank_sort": 82069,
        "total": 2334
      },
      {
        "club_badge_src": "https://fantasy.premierleague.com/gcs/plfpl-production-adobe-approved/plfpl-production/610596/6fbb0e87-96e9-49b8-b864-d87a546f6553.png",
        "entry": 610596,
        "entry_name": "Free Palestine",
        "event_total": 47,
        "has_played": true,
        "id": 4125255,
        "last_rank": 63390,
        "player_name": "Bejaoui Ayman ----",
        "rank": 81984,
        "rank_sort": 82070,
        "total": 2334
      },
      {
        "club_badge_src": "https://fantasy.premierleague.com/gcs/plfpl-production-adobe-approved/plfpl-production/625461/233627a1-2816-40aa-b75a-3b414f1c2a28.png",
        "entry": 625461,
        "entry_name": "Undisputed FC",
        "event_total": 65,
        "has_played": true,
        "id": 4226655,
        "last_rank": 103017,
        "player_name": "Joshua Philips",
        "rank": 81984,
        "rank_sort": 82071,
        "total": 2334
      },
      {
        "club_badge_src": "https://fantasy.premierleague.com/gcs/plfpl-production-adobe-approved/plfpl-production/660613/64518d23-b033-43ec-a86a-2d677ce4248b.png",
        "entry": 660613,
        "entry_name": "WirtzUp",
        "event_total": 77,
        "has_played": true,
        "id": 4464744,
        "last_rank": 125939,
        "player_name": "Dalwinder Singh",
        "rank": 81984,
        "rank_sort": 82072,
        "total": 2334
      },
      {
        "club_badge_src": null,
        "entry": 675638,
        "entry_name": "HWANG TUUAAH!",
        "event_total": 67,
        "has_played": true,
        "id": 4571022,
        "last_rank": 108689,
        "player_name": "Jamie Douglas",
        "rank": 81984,
        "rank_sort": 82073,
        "total": 2334
      },
      {
        "club_badge_src": "https://fantasy.premierleague.com/gcs/plfpl-production-adobe-approved/plfpl-production/678141/7292b51c-f568-45d2-9ee2-a71214bc84c6.png",
        "entry": 678141,
        "entry_name": "SwiftFc_Reloaded",
        "event_total": 51,
        "has_played": true,
        "id": 4588514,
        "last_rank": 70757,
        "player_name": "Henry Dade",
        "rank": 81984,
        "rank_sort": 82074,
        "total": 2334
      },
      {
        "club_badge_src": "https://fantasy.premierleague.com/gcs/plfpl-production-adobe-approved/plfpl-production/680060/1eec754f-4009-4fe0-9540-9344ddda3a2b.png",
        "entry": 680060,
        "entry_name": "B\u0430ck F\u0456v\u0435s M\u0430tt\u0435r",
        "event_total": 50,
        "has_played": true,
        "id": 4601969,
        "last_rank": 69323,
        "player_name": "Zameer Y",
        "rank": 81984,
        "rank_sort": 82075,
        "total": 2334
      },
      {
        "club_badge_src": "https://fantasy.premierleague.com/gcs/plfpl-production-adobe-approved/plfpl-production/703179/482c03fe-c1bc-4105-92a7-9429b44fc653.png",
        "entry": 703179,
        "entry_name": "Hakuna Mateta",
        "event_total": 56,
        "has_played": true,
        "id": 4764885,
        "last_rank": 81420,
        "player_name": "Stephen Hughes",
        "rank": 81984,
        "rank_sort": 82076,
        "total": 2334
      },
      {
        "club_badge_src": null,
        "entry": 703941,
        "entry_name": "Esketit",
        "event_total": 63,
        "has_played": true,
        "id": 4770140,
        "last_rank": 98183,
        "player_name": "Magnus Sandum",
        "rank": 81984,
        "rank_sort": 82077,
        "total": 2334
      },
      {
        "club_badge_src": null,
        "entry": 708435,
        "entry_name": "Kirkers FC",
        "event_total": 72,
        "has_played": true,
        "id": 4801528,
        "last_rank": 122988,
        "player_name": "Devin Kirk",
        "rank": 81984,
        "rank_sort": 82078,
        "total": 2334
      },
      {
        "club_badge_src": null,
        "entry": 714708,
        "entry_name": "Joaokers",
        "event_total": 31,
        "has_played": true,
        "id": 4848919,
        "last_rank": 38774,
        "player_name": "Nikhil Kuplish",
        "rank": 81984,
        "rank_sort": 82079,
        "total": 2334
      },
      {
        "club_badge_src": null,
        "entry": 716509,
        "entry_name": "Abuelizz FC",
        "event_total": 39,
        "has_played": true,
        "id": 4861520,
        "last_rank": 50199,
        "player_name": "Mohamed Abualizz",
        "rank": 81984,
        "rank_sort": 82080,
        "total": 2334
      },
      {
        "club_badge_src": null,
        "entry": 747255,
        "entry_name": "Saliba me Timbers",
        "event_total": 69,
        "has_played": true,
        "id": 5083689,
        "last_rank": 114292,
        "player_name": "Felix Francisco Granell",
        "rank": 81984,
        "rank_sort": 82081,
        "total": 2334
      },
      {
        "club_badge_src": null,
        "entry": 748355,
        "entry_name": "Arteta's creed III",
        "event_total": 57,
        "has_played": true,
        "id": 5091411,
        "last_rank": 83698,
        "player_name": "marvin nnyombi",
        "rank": 81984,
        "rank_sort": 82082,
        "total": 2334
      },
      {
        "club_badge_src": null,
        "entry": 751569,
        "entry_name": "Sushi Rice",
        "event_total": 55,
        "has_played": true,
        "id": 5114066,
        "last_rank": 79079,
        "player_name": "Nicholas Episkopou",
        "rank": 81984,
        "rank_sort": 82083,
        "total": 2334
      },
      {
        "club_badge_src": null,
        "entry": 755948,
        "entry_name": "RATTOPOJAT",
        "event_total": 50,
        "has_played": true,
        "id": 5146595,
        "last_rank": 61411,
        "player_name": "Jalmari Holopainen",
        "rank": 81984,
        "rank_sort": 82084,
        "total": 2334
      },
      {
        "club_badge_src": "https://fantasy.premierleague.com/gcs/plfpl-production-adobe-approved/plfpl-production/763497/79389ec6-458b-4f36-ba91-cf237f4fa41b.png",
        "entry": 763497,
        "entry_name": "GtiUtd",
        "event_total": 64,
        "has_played": true,
        "id": 5206984,
        "last_rank": 100700,
        "player_name": "Gauti \u00c1st\u00fe\u00f3rsson",
        "rank": 81984,
        "rank_sort": 82085,
        "total": 2334
      },
      {
        "club_badge_src": null,
        "entry": 778593,
        "entry_name": "Madeleine's Milan",
        "event_total": 60,
        "has_played": true,
        "id": 5313447,
        "last_rank": 91006,
        "player_name": "Jack Tammaro",
        "rank": 81984,
        "rank_sort": 82086,
        "total": 2334
      },
      {
        "club_badge_src": null,
        "entry": 780697,
        "entry_name": "who cares",
        "event_total": 74,
        "has_played": true,
        "id": 5330006,
        "last_rank": 129043,
        "player_name": "John Dannemiller",
        "rank": 81984,
        "rank_sort": 82087,
        "total": 2334
      },
      {
        "club_badge_src": "https://fantasy.premierleague.com/gcs/plfpl-production-adobe-approved/plfpl-production/782652/106d25e6-b128-4889-8bfa-4708f0a12e99.png",
        "entry": 782652,
        "entry_name": "Kante Putin Dias",
        "event_total": 67,
        "has_played": true,
        "id": 5343655,
        "last_rank": 108689,
        "player_name": "Jaman Schwager",
        "rank": 81984,
        "rank_sort": 82088,
        "total": 2334
      },
      {
        "club_badge_src": null,
        "entry": 792766,
        "entry_name": "50 Shades of O'Shea",
        "event_total": 64,
        "has_played": true,
        "id": 5425238,
        "last_rank": 100700,
        "player_name": "Courtney rowe",
        "rank": 81984,
        "rank_sort": 82089,
        "total": 2334
      },
      {
        "club_badge_src": null,
        "entry": 818640,
        "entry_name": "Kempston Dons",
        "event_total": 66,
        "has_played": true,
        "id": 5606468,
        "last_rank": 106259,
        "player_name": "Richard Treadaway",
        "rank": 81984,
        "rank_sort": 82090,
        "total": 2334
      },
      {
        "club_badge_src": null,
        "entry": 823402,
        "entry_name": "Doctor Manhattan",
        "event_total": 58,
        "has_played": true,
        "id": 5639347,
        "last_rank": 86304,
        "player_name": "Joshua Reichert",
        "rank": 81984,
        "rank_sort": 82091,
        "total": 2334
      },
      {
        "club_badge_src": null,
        "entry": 827999,
        "entry_name": "AZ Lamb",
        "event_total": 66,
        "has_played": true,
        "id": 5671094,
        "last_rank": 106259,
        "player_name": "Mitch Ridgway",
        "rank": 81984,
        "rank_sort": 82092,
        "total": 2334
      },
      {
        "club_badge_src": null,
        "entry": 842213,
        "entry_name": "Team T\u00f8ge",
        "event_total": 51,
        "has_played": true,
        "id": 5770596,
        "last_rank": 70985,
        "player_name": "Arild Toge",
        "rank": 81984,
        "rank_sort": 82093,
        "total": 2334
      },
      {
        "club_badge_src": "https://fantasy.premierleague.com/gcs/plfpl-production-adobe-approved/plfpl-production/849924/b5cc1656-5981-4bc5-b8ac-d56a6c54d763.png",
        "entry": 849924,
        "entry_name": "WhartonEarthEzeUp2",
        "event_total": 58,
        "has_played": true,
        "id": 5825509,
        "last_rank": 86054,
        "player_name": "Matt Scott",
        "rank": 81984,
        "rank_sort": 82094,
        "total": 2334
      },
      {
        "club_badge_src": null,
        "entry": 861794,
        "entry_name": "\u2022\u20b3\u2022 79 \u0111\u1ed9",
        "event_total": 50,
        "has_played": true,
        "id": 5907898,
        "last_rank": 68957,
        "player_name": "Phi Lam",
        "rank": 81984,
        "rank_sort": 82095,
        "total": 2334
      },
      {
        "club_badge_src": null,
        "entry": 863454,
        "entry_name": "It can",
        "event_total": 52,
        "has_played": true,
        "id": 5919351,
        "last_rank": 73038,
        "player_name": "Jim RIce",
        "rank": 81984,
        "rank_sort": 82096,
        "total": 2334
      },
      {
        "club_badge_src": null,
        "entry": 869921,
        "entry_name": "Tunaparties",
        "event_total": 59,
        "has_played": true,
        "id": 5963968,
        "last_rank": 88594,
        "player_name": "Kantapon Rangsikosai",
        "rank": 81984,
        "rank_sort": 82097,
        "total": 2334
      },
      {
        "club_badge_src": "https://fantasy.premierleague.com/gcs/plfpl-production-adobe-approved/plfpl-production/879846/8da9f565-4862-47e0-8806-7655380b5737.png",
        "entry": 879846,
        "entry_name": "ZAMALEK UNITED",
        "event_total": 58,
        "has_played": true,
        "id": 6033498,
        "last_rank": 86054,
        "player_name": "Moneim Aziz",
        "rank": 81984,
        "rank_sort": 82098,
        "total": 2334
      },
      {
        "club_badge_src": null,
        "entry": 884528,
        "entry_name": "Jordans XI",
        "event_total": 55,
        "has_played": true,
        "id": 6066266,
        "last_rank": 79190,
        "player_name": "Jordan Hoey",
        "rank": 81984,
        "rank_sort": 82099,
        "total": 2334
      },
      {
        "club_badge_src": "https://fantasy.premierleague.com/gcs/plfpl-production-adobe-approved/plfpl-production/886309/8af9cfbf-b12d-4030-ab9a-4270690d2409.png",
        "entry": 886309,
        "entry_name": "27 Thorsrud",
        "event_total": 59,
        "has_played": true,
        "id": 6078922,
        "last_rank": 88249,
        "player_name": "Thomas Thorsrud",
        "rank": 81984,
        "rank_sort": 82100,
        "total": 2334
      }
    ]
  }
}