{
  "last_updated_data": "2026-05-24T23:28:17Z",
  "league": {
    "admin_entry": null,
    "closed": false,
    "code_privacy": "p",
    "created": "2025-07-20T23:14:33.933835Z",
    "cup_league": 2815434,
    "has_cup": true,
    "id": 314,
    "league_type": "s",
    "max_entries": null,
    "name": "Overall",
    "rank": null,
    "scoring": "c",
    "start_event": 1
  },
  "new_entries": {
    "has_next": false,
    "page": 1,
    "results": []
  },
  "standings": {
    "has_next": true,
    "page": 516,
    "results": [
      {
        "club_badge_src": null,
        "entry": 3343654,
        "entry_name": "HQH9",
        "event_total": 41,
        "has_played": true,
        "id": 24802042,
        "last_rank": 14040,
        "player_name": "Hassan Qassem",
        "rank": 25669,
        "rank_sort": 25751,
        "total": 2373
      },
      {
        "club_badge_src": null,
        "entry": 3434013,
        "entry_name": "Salju Di Danau Menyu",
        "event_total": 65,
        "has_played": true,
        "id": 25510737,
        "last_rank": 33147,
        "player_name": "Diogo Kalot 257",
        "rank": 25669,
        "rank_sort": 25752,
        "total": 2373
      },
      {
        "club_badge_src": null,
        "entry": 3438195,
        "entry_name": "Sorry Nic Jackson",
        "event_total": 29,
        "has_played": true,
        "id": 25542527,
        "last_rank": 8552,
        "player_name": "Emeka Skerritt",
        "rank": 25669,
        "rank_sort": 25753,
        "total": 2373
      },
      {
        "club_badge_src": null,
        "entry": 3486507,
        "entry_name": "The Av8rs",
        "event_total": 61,
        "has_played": true,
        "id": 25927891,
        "last_rank": 28906,
        "player_name": "Nimish Gulla",
        "rank": 25669,
        "rank_sort": 25754,
        "total": 2373
      },
      {
        "club_badge_src": null,
        "entry": 3646231,
        "entry_name": "Natus Vincere",
        "event_total": 56,
        "has_played": true,
        "id": 27175809,
        "last_rank": 24475,
        "player_name": "Dimitrije Markovic",
        "rank": 25669,
        "rank_sort": 25755,
        "total": 2373
      },
      {
        "club_badge_src": null,
        "entry": 3839010,
        "entry_name": "Bebe Reijnders",
        "event_total": 66,
        "has_played": true,
        "id": 28743515,
        "last_rank": 34458,
        "player_name": "Nicholas Hackett",
        "rank": 25669,
        "rank_sort": 25756,
        "total": 2373
      },
      {
        "club_badge_src": null,
        "entry": 4218139,
        "entry_name": "Mo with the Flo",
        "event_total": 66,
        "has_played": true,
        "id": 31947285,
        "last_rank": 25776,
        "player_name": "Huw Jones",
        "rank": 25669,
        "rank_sort": 25757,
        "total": 2373
      },
      {
        "club_badge_src": "https://fantasy.premierleague.com/gcs/plfpl-production-adobe-approved/plfpl-production/4375812/dbd29710-5469-4800-8a12-7f7c50258c5c.png",
        "entry": 4375812,
        "entry_name": "Calafiori Calamari",
        "event_total": 70,
        "has_played": true,
        "id": 33248847,
        "last_rank": 34293,
        "player_name": "Ibi Oksuzoglu",
        "rank": 25669,
        "rank_sort": 25758,
        "total": 2373
      },
      {
        "club_badge_src": null,
        "entry": 4409844,
        "entry_name": "Shaq Of All Trades",
        "event_total": 30,
        "has_played": true,
        "id": 33545020,
        "last_rank": 8925,
        "player_name": "Shakeel Moosa",
        "rank": 25669,
        "rank_sort": 25759,
        "total": 2373
      },
      {
        "club_badge_src": null,
        "entry": 4763493,
        "entry_name": "Change Name",
        "event_total": 69,
        "has_played": true,
        "id": 36660818,
        "last_rank": 32879,
        "player_name": "Dom Breen",
        "rank": 25669,
        "rank_sort": 25760,
        "total": 2373
      },
      {
        "club_badge_src": null,
        "entry": 4805869,
        "entry_name": "Nagateam",
        "event_total": 67,
        "has_played": true,
        "id": 37003593,
        "last_rank": 30957,
        "player_name": "Mohamed Nagaty",
        "rank": 25669,
        "rank_sort": 25761,
        "total": 2373
      },
      {
        "club_badge_src": null,
        "entry": 4872545,
        "entry_name": "SELMA City FC",
        "event_total": 64,
        "has_played": true,
        "id": 37558330,
        "last_rank": 27976,
        "player_name": "James Turner",
        "rank": 25669,
        "rank_sort": 25762,
        "total": 2373
      },
      {
        "club_badge_src": null,
        "entry": 5262191,
        "entry_name": "Whole Potter Love",
        "event_total": 69,
        "has_played": true,
        "id": 40784533,
        "last_rank": 38016,
        "player_name": "Tom Parker",
        "rank": 25669,
        "rank_sort": 25763,
        "total": 2373
      },
      {
        "club_badge_src": null,
        "entry": 5342747,
        "entry_name": "Arsenwengeral",
        "event_total": 48,
        "has_played": true,
        "id": 41442360,
        "last_rank": 18377,
        "player_name": "kristoffer engen",
        "rank": 25669,
        "rank_sort": 25764,
        "total": 2373
      },
      {
        "club_badge_src": "https://fantasy.premierleague.com/gcs/plfpl-production-adobe-approved/plfpl-production/5727960/b0267a47-7df3-4cf5-9897-32b33fbb6dc3.png",
        "entry": 5727960,
        "entry_name": "Kelvinator \u26bd\ufe0f",
        "event_total": 69,
        "has_played": true,
        "id": 44871057,
        "last_rank": 37822,
        "player_name": "Kelvin Atuchukwu",
        "rank": 25669,
        "rank_sort": 25765,
        "total": 2373
      },
      {
        "club_badge_src": null,
        "entry": 5798368,
        "entry_name": "Licha Libre",
        "event_total": 67,
        "has_played": true,
        "id": 45484305,
        "last_rank": 35424,
        "player_name": "Craig Cantore-Norris",
        "rank": 25669,
        "rank_sort": 25766,
        "total": 2373
      },
      {
        "club_badge_src": null,
        "entry": 5876521,
        "entry_name": "How Dalot Can I Go?",
        "event_total": 59,
        "has_played": true,
        "id": 46159058,
        "last_rank": 27203,
        "player_name": "Elizabeth Nutt",
        "rank": 25669,
        "rank_sort": 25767,
        "total": 2373
      },
      {
        "club_badge_src": null,
        "entry": 6065848,
        "entry_name": "Spaff's XI",
        "event_total": 59,
        "has_played": true,
        "id": 47877056,
        "last_rank": 27203,
        "player_name": "Kieran Spaff",
        "rank": 25669,
        "rank_sort": 25768,
        "total": 2373
      },
      {
        "club_badge_src": "https://fantasy.premierleague.com/gcs/plfpl-production-adobe-approved/plfpl-production/6139333/af314c11-da7d-45b0-95be-43edb883649e.png",
        "entry": 6139333,
        "entry_name": "Truffert mewn Tafarn",
        "event_total": 72,
        "has_played": true,
        "id": 48519988,
        "last_rank": 41824,
        "player_name": "Gwil Lovgreen",
        "rank": 25669,
        "rank_sort": 25769,
        "total": 2373
      },
      {
        "club_badge_src": null,
        "entry": 6207129,
        "entry_name": "bubbles",
        "event_total": 56,
        "has_played": true,
        "id": 49107023,
        "last_rank": 21159,
        "player_name": "Paul Barnes",
        "rank": 25669,
        "rank_sort": 25770,
        "total": 2373
      },
      {
        "club_badge_src": null,
        "entry": 6262577,
        "entry_name": "ImaBaleba",
        "event_total": 62,
        "has_played": true,
        "id": 49585362,
        "last_rank": 30060,
        "player_name": "Graham Uzell",
        "rank": 25669,
        "rank_sort": 25771,
        "total": 2373
      },
      {
        "club_badge_src": null,
        "entry": 6314083,
        "entry_name": "RedDevilsReboot",
        "event_total": 62,
        "has_played": true,
        "id": 50103368,
        "last_rank": 26088,
        "player_name": "Sehej Singh",
        "rank": 25669,
        "rank_sort": 25772,
        "total": 2373
      },
      {
        "club_badge_src": null,
        "entry": 7017447,
        "entry_name": "T. J. Cloutier",
        "event_total": 61,
        "has_played": true,
        "id": 56364107,
        "last_rank": 25172,
        "player_name": "Torgeir J\u00f8ssang",
        "rank": 25669,
        "rank_sort": 25773,
        "total": 2373
      },
      {
        "club_badge_src": null,
        "entry": 7246978,
        "entry_name": "Bize Her Yer Data",
        "event_total": 49,
        "has_played": true,
        "id": 58574698,
        "last_rank": 18985,
        "player_name": "Izzy Tepekoylu",
        "rank": 25669,
        "rank_sort": 25774,
        "total": 2373
      },
      {
        "club_badge_src": null,
        "entry": 7389334,
        "entry_name": "Markkrypers",
        "event_total": 76,
        "has_played": true,
        "id": 59913687,
        "last_rank": 41324,
        "player_name": "Anders Johannessen",
        "rank": 25669,
        "rank_sort": 25775,
        "total": 2373
      },
      {
        "club_badge_src": null,
        "entry": 7502989,
        "entry_name": "Obama yo Mama",
        "event_total": 38,
        "has_played": true,
        "id": 61314505,
        "last_rank": 12420,
        "player_name": "Pritesh Mistry",
        "rank": 25669,
        "rank_sort": 25776,
        "total": 2373
      },
      {
        "club_badge_src": "https://fantasy.premierleague.com/gcs/plfpl-production-adobe-approved/plfpl-production/7510470/aaf8dfa4-15a2-43e5-a415-4db335363742.png",
        "entry": 7510470,
        "entry_name": "Akhalz Entourage",
        "event_total": 66,
        "has_played": true,
        "id": 61403259,
        "last_rank": 29904,
        "player_name": "Ahmed Akhalz",
        "rank": 25669,
        "rank_sort": 25777,
        "total": 2373
      },
      {
        "club_badge_src": "https://fantasy.premierleague.com/gcs/plfpl-production-adobe-approved/plfpl-production/7663450/b31ad418-8159-4e71-b33d-1dc99a9df2e8.png",
        "entry": 7663450,
        "entry_name": "Doesnt Work Pedersen",
        "event_total": 52,
        "has_played": true,
        "id": 62839084,
        "last_rank": 21301,
        "player_name": "Fred Pedersen",
        "rank": 25669,
        "rank_sort": 25778,
        "total": 2373
      },
      {
        "club_badge_src": null,
        "entry": 7689365,
        "entry_name": "Hala Madrid",
        "event_total": 76,
        "has_played": true,
        "id": 63075890,
        "last_rank": 47163,
        "player_name": "Basel Alsayed",
        "rank": 25669,
        "rank_sort": 25779,
        "total": 2373
      },
      {
        "club_badge_src": null,
        "entry": 8059749,
        "entry_name": "Forbes Utd",
        "event_total": 46,
        "has_played": true,
        "id": 66425763,
        "last_rank": 16959,
        "player_name": "Gregor Forbes",
        "rank": 25669,
        "rank_sort": 25780,
        "total": 2373
      },
      {
        "club_badge_src": null,
        "entry": 8327079,
        "entry_name": "lallana del ray",
        "event_total": 59,
        "has_played": true,
        "id": 68986669,
        "last_rank": 26827,
        "player_name": "Spencer Moffat",
        "rank": 25669,
        "rank_sort": 25781,
        "total": 2373
      },
      {
        "club_badge_src": null,
        "entry": 7015,
        "entry_name": "KombajnLazy",
        "event_total": 59,
        "has_played": true,
        "id": 40388,
        "last_rank": 27203,
        "player_name": "Filip Rydzik",
        "rank": 25782,
        "rank_sort": 25782,
        "total": 2373
      },
      {
        "club_badge_src": null,
        "entry": 24126,
        "entry_name": "Dashing Dreams",
        "event_total": 65,
        "has_played": true,
        "id": 152215,
        "last_rank": 33332,
        "player_name": "Dan Ashby",
        "rank": 25782,
        "rank_sort": 25783,
        "total": 2373
      },
      {
        "club_badge_src": null,
        "entry": 29359,
        "entry_name": "Change Name",
        "event_total": 54,
        "has_played": true,
        "id": 185618,
        "last_rank": 22685,
        "player_name": "Sam Pearce",
        "rank": 25782,
        "rank_sort": 25784,
        "total": 2373
      },
      {
        "club_badge_src": null,
        "entry": 43377,
        "entry_name": "Ivy/wynters army",
        "event_total": 52,
        "has_played": true,
        "id": 277783,
        "last_rank": 21392,
        "player_name": "luke magee",
        "rank": 25782,
        "rank_sort": 25785,
        "total": 2373
      },
      {
        "club_badge_src": null,
        "entry": 51183,
        "entry_name": "Cullen Me Softly",
        "event_total": 42,
        "has_played": true,
        "id": 329182,
        "last_rank": 14668,
        "player_name": "Will Slipper",
        "rank": 25782,
        "rank_sort": 25786,
        "total": 2373
      },
      {
        "club_badge_src": null,
        "entry": 60040,
        "entry_name": "senior citizens",
        "event_total": 69,
        "has_played": true,
        "id": 386616,
        "last_rank": 33332,
        "player_name": "Antony Senior",
        "rank": 25782,
        "rank_sort": 25787,
        "total": 2373
      },
      {
        "club_badge_src": null,
        "entry": 61574,
        "entry_name": "Haalandaise Sauce",
        "event_total": 63,
        "has_played": true,
        "id": 396614,
        "last_rank": 31236,
        "player_name": "Grant Dalgleish",
        "rank": 25782,
        "rank_sort": 25788,
        "total": 2373
      },
      {
        "club_badge_src": null,
        "entry": 71646,
        "entry_name": "Kurgen Jlopp",
        "event_total": 58,
        "has_played": true,
        "id": 465388,
        "last_rank": 26345,
        "player_name": "Danila Goryachev",
        "rank": 25782,
        "rank_sort": 25789,
        "total": 2373
      },
      {
        "club_badge_src": null,
        "entry": 71918,
        "entry_name": "HampodeCampo",
        "event_total": 60,
        "has_played": true,
        "id": 467250,
        "last_rank": 24475,
        "player_name": "Harry Hampson",
        "rank": 25782,
        "rank_sort": 25790,
        "total": 2373
      },
      {
        "club_badge_src": null,
        "entry": 96114,
        "entry_name": "Pep team",
        "event_total": 66,
        "has_played": true,
        "id": 627892,
        "last_rank": 26088,
        "player_name": "Leo Abdullah",
        "rank": 25782,
        "rank_sort": 25791,
        "total": 2373
      },
      {
        "club_badge_src": null,
        "entry": 131312,
        "entry_name": "Slot Gear",
        "event_total": 64,
        "has_played": true,
        "id": 855502,
        "last_rank": 32335,
        "player_name": "James Smith",
        "rank": 25782,
        "rank_sort": 25792,
        "total": 2373
      },
      {
        "club_badge_src": null,
        "entry": 174087,
        "entry_name": "Only time will Tel",
        "event_total": 42,
        "has_played": true,
        "id": 1149620,
        "last_rank": 12420,
        "player_name": "Harry Kane",
        "rank": 25782,
        "rank_sort": 25793,
        "total": 2373
      },
      {
        "club_badge_src": null,
        "entry": 183731,
        "entry_name": "Bigmaxxx",
        "event_total": 66,
        "has_played": true,
        "id": 1213036,
        "last_rank": 34578,
        "player_name": "Markus Karlich",
        "rank": 25782,
        "rank_sort": 25794,
        "total": 2373
      },
      {
        "club_badge_src": null,
        "entry": 195202,
        "entry_name": "Fuzzy Dunlops",
        "event_total": 66,
        "has_played": true,
        "id": 1294385,
        "last_rank": 29904,
        "player_name": "Iain Bown",
        "rank": 25782,
        "rank_sort": 25795,
        "total": 2373
      },
      {
        "club_badge_src": null,
        "entry": 201574,
        "entry_name": "D-Bag's Boys",
        "event_total": 62,
        "has_played": true,
        "id": 1338453,
        "last_rank": 26230,
        "player_name": "Danny Baggott",
        "rank": 25782,
        "rank_sort": 25796,
        "total": 2373
      },
      {
        "club_badge_src": null,
        "entry": 210107,
        "entry_name": "Cunha believe it",
        "event_total": 64,
        "has_played": true,
        "id": 1397278,
        "last_rank": 32335,
        "player_name": "Rob Tuite",
        "rank": 25782,
        "rank_sort": 25797,
        "total": 2373
      },
      {
        "club_badge_src": null,
        "entry": 241760,
        "entry_name": "Manos",
        "event_total": 60,
        "has_played": true,
        "id": 1609199,
        "last_rank": 28273,
        "player_name": "Oliver Lind",
        "rank": 25782,
        "rank_sort": 25798,
        "total": 2373
      },
      {
        "club_badge_src": null,
        "entry": 253607,
        "entry_name": "\u0645\u0627\u0634\u0649 \u0628\u0646\u0648\u0631 \u0627\u0644\u0644\u0647",
        "event_total": 40,
        "has_played": true,
        "id": 1686844,
        "last_rank": 11419,
        "player_name": "\u0627\u062d\u0645\u062f \u0645\u062d\u0645\u0648\u062f",
        "rank": 25782,
        "rank_sort": 25799,
        "total": 2373
      },
      {
        "club_badge_src": "https://fantasy.premierleague.com/gcs/plfpl-production-adobe-approved/plfpl-production/309027/753e9035-12a3-4740-b320-96ae4e1e3dba.png",
        "entry": 309027,
        "entry_name": "W  Gaming",
        "event_total": 77,
        "has_played": true,
        "id": 2069966,
        "last_rank": 43168,
        "player_name": "Swapnil Dey",
        "rank": 25782,
        "rank_sort": 25800,
        "total": 2373
      }
    ]
  }
}