{
  "last_updated_data": "2026-05-24T23:28:17Z",
  "league": {
    "admin_entry": null,
    "closed": false,
    "code_privacy": "p",
    "created": "2025-07-20T23:14:33.933835Z",
    "cup_league": 2815434,
    "has_cup": true,
    "id": 314,
    "league_type": "s",
    "max_entries": null,
    "name": "Overall",
    "rank": null,
    "scoring": "c",
    "start_event": 1
  },
  "new_entries": {
    "has_next": false,
    "page": 1,
    "results": []
  },
  "standings": {
    "has_next": true,
    "page": 1411,
    "results": [
      {
        "club_badge_src": null,
        "entry": 1652799,
        "entry_name": "Hallandaise",
        "event_total": 42,
        "has_played": true,
        "id": 11571346,
        "last_rank": 46106,
        "player_name": "Zachary White",
        "rank": 70365,
        "rank_sort": 70501,
        "total": 2340
      },
      {
        "club_badge_src": null,
        "entry": 1671522,
        "entry_name": "Amion The Bench?",
        "event_total": 73,
        "has_played": true,
        "id": 11702808,
        "last_rank": 109454,
        "player_name": "Ralph Amion",
        "rank": 70365,
        "rank_sort": 70502,
        "total": 2340
      },
      {
        "club_badge_src": null,
        "entry": 1701279,
        "entry_name": "Jumeirah fc",
        "event_total": 57,
        "has_played": true,
        "id": 11917152,
        "last_rank": 71713,
        "player_name": "Mohammad Ibrahim",
        "rank": 70365,
        "rank_sort": 70503,
        "total": 2340
      },
      {
        "club_badge_src": null,
        "entry": 1723750,
        "entry_name": "Team Fagerholt",
        "event_total": 59,
        "has_played": true,
        "id": 12086824,
        "last_rank": 75874,
        "player_name": "Leif Rune Johannessen",
        "rank": 70365,
        "rank_sort": 70504,
        "total": 2340
      },
      {
        "club_badge_src": null,
        "entry": 1740400,
        "entry_name": "Fred's 11",
        "event_total": 50,
        "has_played": true,
        "id": 12210854,
        "last_rank": 51720,
        "player_name": "Christopher Latella",
        "rank": 70365,
        "rank_sort": 70505,
        "total": 2340
      },
      {
        "club_badge_src": null,
        "entry": 1800359,
        "entry_name": "No Moral Fibre FC",
        "event_total": 58,
        "has_played": true,
        "id": 12653780,
        "last_rank": 73720,
        "player_name": "david phillips",
        "rank": 70365,
        "rank_sort": 70506,
        "total": 2340
      },
      {
        "club_badge_src": null,
        "entry": 1836526,
        "entry_name": "Ankkalinna",
        "event_total": 54,
        "has_played": true,
        "id": 12919773,
        "last_rank": 65796,
        "player_name": "Timo Lahti",
        "rank": 70365,
        "rank_sort": 70507,
        "total": 2340
      },
      {
        "club_badge_src": null,
        "entry": 1918546,
        "entry_name": "Maradona Kebab",
        "event_total": 50,
        "has_played": true,
        "id": 13528271,
        "last_rank": 58688,
        "player_name": "Jude Abrahams",
        "rank": 70365,
        "rank_sort": 70508,
        "total": 2340
      },
      {
        "club_badge_src": "https://fantasy.premierleague.com/gcs/plfpl-production-adobe-approved/plfpl-production/1975283/431b5a91-15aa-48fb-b36c-b27579e18f1e.png",
        "entry": 1975283,
        "entry_name": "Iancu Robil\u0103",
        "event_total": 65,
        "has_played": true,
        "id": 13942760,
        "last_rank": 89055,
        "player_name": "Alexandru Ardelean",
        "rank": 70365,
        "rank_sort": 70509,
        "total": 2340
      },
      {
        "club_badge_src": null,
        "entry": 1984101,
        "entry_name": "Cancelo culture",
        "event_total": 61,
        "has_played": true,
        "id": 14014704,
        "last_rank": 80194,
        "player_name": "Andreas Ravneberg",
        "rank": 70365,
        "rank_sort": 70510,
        "total": 2340
      },
      {
        "club_badge_src": null,
        "entry": 1994270,
        "entry_name": "Raeber01",
        "event_total": 54,
        "has_played": true,
        "id": 14091266,
        "last_rank": 65796,
        "player_name": "Robin Berli",
        "rank": 70365,
        "rank_sort": 70511,
        "total": 2340
      },
      {
        "club_badge_src": null,
        "entry": 2000201,
        "entry_name": "All New Originals",
        "event_total": 78,
        "has_played": true,
        "id": 14139942,
        "last_rank": 123908,
        "player_name": "matt gosset",
        "rank": 70365,
        "rank_sort": 70512,
        "total": 2340
      },
      {
        "club_badge_src": null,
        "entry": 2012541,
        "entry_name": "Hany Edany",
        "event_total": 53,
        "has_played": true,
        "id": 14231356,
        "last_rank": 56708,
        "player_name": "Ahmed Hany",
        "rank": 70365,
        "rank_sort": 70513,
        "total": 2340
      },
      {
        "club_badge_src": null,
        "entry": 2015532,
        "entry_name": "Killa Milla FC",
        "event_total": 73,
        "has_played": true,
        "id": 14258475,
        "last_rank": 108689,
        "player_name": "Mark Millar",
        "rank": 70365,
        "rank_sort": 70514,
        "total": 2340
      },
      {
        "club_badge_src": null,
        "entry": 2022452,
        "entry_name": "old Havertz Kai hard",
        "event_total": 66,
        "has_played": true,
        "id": 14311425,
        "last_rank": 91466,
        "player_name": "muazzam mm",
        "rank": 70365,
        "rank_sort": 70515,
        "total": 2340
      },
      {
        "club_badge_src": null,
        "entry": 2063792,
        "entry_name": "Gellato",
        "event_total": 61,
        "has_played": true,
        "id": 14623896,
        "last_rank": 79431,
        "player_name": "Mario Dotto",
        "rank": 70365,
        "rank_sort": 70516,
        "total": 2340
      },
      {
        "club_badge_src": null,
        "entry": 2121710,
        "entry_name": "\u0627\u0644\u0645\u0633\u0644\u0645\u064a\u0646",
        "event_total": 67,
        "has_played": true,
        "id": 15071651,
        "last_rank": 93883,
        "player_name": "ABIBI Oualid",
        "rank": 70365,
        "rank_sort": 70517,
        "total": 2340
      },
      {
        "club_badge_src": null,
        "entry": 2229456,
        "entry_name": "mabololo",
        "event_total": 54,
        "has_played": true,
        "id": 15882313,
        "last_rank": 65796,
        "player_name": "Ali Hussein",
        "rank": 70365,
        "rank_sort": 70518,
        "total": 2340
      },
      {
        "club_badge_src": null,
        "entry": 2285974,
        "entry_name": "Chezaaaaa",
        "event_total": 69,
        "has_played": true,
        "id": 16302549,
        "last_rank": 98896,
        "player_name": "Cheryl Smith",
        "rank": 70365,
        "rank_sort": 70519,
        "total": 2340
      },
      {
        "club_badge_src": null,
        "entry": 2306910,
        "entry_name": "3peat, Here We Go",
        "event_total": 59,
        "has_played": true,
        "id": 16454794,
        "last_rank": 75139,
        "player_name": "Rakan Alahmadi",
        "rank": 70365,
        "rank_sort": 70520,
        "total": 2340
      },
      {
        "club_badge_src": null,
        "entry": 2349359,
        "entry_name": "Meazy",
        "event_total": 67,
        "has_played": true,
        "id": 16763246,
        "last_rank": 84360,
        "player_name": "Mahir Hamid",
        "rank": 70365,
        "rank_sort": 70521,
        "total": 2340
      },
      {
        "club_badge_src": null,
        "entry": 2362376,
        "entry_name": "The Slot Stopper",
        "event_total": 55,
        "has_played": true,
        "id": 16860008,
        "last_rank": 67063,
        "player_name": "Joel Albert",
        "rank": 70365,
        "rank_sort": 70522,
        "total": 2340
      },
      {
        "club_badge_src": null,
        "entry": 2382801,
        "entry_name": "Bailey's Boys",
        "event_total": 78,
        "has_played": true,
        "id": 17015469,
        "last_rank": 123908,
        "player_name": "Matt Bailey",
        "rank": 70365,
        "rank_sort": 70523,
        "total": 2340
      },
      {
        "club_badge_src": null,
        "entry": 2498356,
        "entry_name": "Peaky Reijnders",
        "event_total": 52,
        "has_played": true,
        "id": 17887794,
        "last_rank": 62223,
        "player_name": "Tenessee Adams",
        "rank": 70365,
        "rank_sort": 70524,
        "total": 2340
      },
      {
        "club_badge_src": null,
        "entry": 2517618,
        "entry_name": "Dunder Mifflin FC",
        "event_total": 54,
        "has_played": true,
        "id": 18038237,
        "last_rank": 51403,
        "player_name": "Andrew Woods",
        "rank": 70365,
        "rank_sort": 70525,
        "total": 2340
      },
      {
        "club_badge_src": null,
        "entry": 2554082,
        "entry_name": "Regal Madrid",
        "event_total": 53,
        "has_played": true,
        "id": 18313574,
        "last_rank": 56708,
        "player_name": "Jacob Mundin",
        "rank": 70365,
        "rank_sort": 70526,
        "total": 2340
      },
      {
        "club_badge_src": null,
        "entry": 2578812,
        "entry_name": "Ekitike taka",
        "event_total": 77,
        "has_played": true,
        "id": 18508549,
        "last_rank": 121383,
        "player_name": "Adam Pugh",
        "rank": 70365,
        "rank_sort": 70527,
        "total": 2340
      },
      {
        "club_badge_src": null,
        "entry": 2597421,
        "entry_name": "Shut Your Lips FC",
        "event_total": 54,
        "has_played": true,
        "id": 18653114,
        "last_rank": 65475,
        "player_name": "Jamie Neill",
        "rank": 70365,
        "rank_sort": 70528,
        "total": 2340
      },
      {
        "club_badge_src": null,
        "entry": 2622709,
        "entry_name": "Ch\u0142opki Roztropki",
        "event_total": 58,
        "has_played": true,
        "id": 18845512,
        "last_rank": 73720,
        "player_name": "Przemys\u0142aw Kohyt",
        "rank": 70365,
        "rank_sort": 70529,
        "total": 2340
      },
      {
        "club_badge_src": null,
        "entry": 2631153,
        "entry_name": "Legends United",
        "event_total": 63,
        "has_played": true,
        "id": 18909241,
        "last_rank": 75537,
        "player_name": "Jackie Ye",
        "rank": 70365,
        "rank_sort": 70530,
        "total": 2340
      },
      {
        "club_badge_src": null,
        "entry": 2631287,
        "entry_name": "Mainoo Cant Be Moved",
        "event_total": 46,
        "has_played": true,
        "id": 18910201,
        "last_rank": 51720,
        "player_name": "Finbarr O'Connor",
        "rank": 70365,
        "rank_sort": 70531,
        "total": 2340
      },
      {
        "club_badge_src": null,
        "entry": 2691926,
        "entry_name": "Svenneby Tigers",
        "event_total": 69,
        "has_played": true,
        "id": 19362832,
        "last_rank": 98896,
        "player_name": "Per Larsson",
        "rank": 70365,
        "rank_sort": 70532,
        "total": 2340
      },
      {
        "club_badge_src": null,
        "entry": 2729431,
        "entry_name": "BDSMUFC",
        "event_total": 53,
        "has_played": true,
        "id": 19641425,
        "last_rank": 64005,
        "player_name": "Joe Casella",
        "rank": 70365,
        "rank_sort": 70533,
        "total": 2340
      },
      {
        "club_badge_src": null,
        "entry": 2771923,
        "entry_name": "Rorbua Ballklubb",
        "event_total": 49,
        "has_played": true,
        "id": 20225267,
        "last_rank": 57001,
        "player_name": "Robin Adolfsen",
        "rank": 70365,
        "rank_sort": 70534,
        "total": 2340
      },
      {
        "club_badge_src": "https://fantasy.premierleague.com/gcs/plfpl-production-adobe-approved/plfpl-production/2802854/4d27e6f3-451b-47d4-8961-adfcf0f4620c.png",
        "entry": 2802854,
        "entry_name": "FC Za To\u010dnou",
        "event_total": 53,
        "has_played": true,
        "id": 20467845,
        "last_rank": 63724,
        "player_name": "Tom\u00e1\u0161 R\u016f\u017ei\u010dka",
        "rank": 70365,
        "rank_sort": 70535,
        "total": 2340
      },
      {
        "club_badge_src": "https://fantasy.premierleague.com/gcs/plfpl-production-adobe-approved/plfpl-production/2802908/06db3848-d801-41a8-9b58-b14be58f6578.png",
        "entry": 2802908,
        "entry_name": "Brojan hevonen",
        "event_total": 55,
        "has_played": true,
        "id": 20468285,
        "last_rank": 60168,
        "player_name": "Sauli Laakso",
        "rank": 70365,
        "rank_sort": 70536,
        "total": 2340
      },
      {
        "club_badge_src": null,
        "entry": 2832048,
        "entry_name": "CSKA PamPam",
        "event_total": 63,
        "has_played": true,
        "id": 20694643,
        "last_rank": 75537,
        "player_name": "pepyn schellaars",
        "rank": 70365,
        "rank_sort": 70537,
        "total": 2340
      },
      {
        "club_badge_src": null,
        "entry": 3042712,
        "entry_name": "Overtheline",
        "event_total": 63,
        "has_played": true,
        "id": 22396260,
        "last_rank": 83698,
        "player_name": "Garry Nicholson",
        "rank": 70365,
        "rank_sort": 70538,
        "total": 2340
      },
      {
        "club_badge_src": null,
        "entry": 3089099,
        "entry_name": "Hato do it to em",
        "event_total": 36,
        "has_played": true,
        "id": 22764173,
        "last_rank": 38016,
        "player_name": "Charl Le Roux",
        "rank": 70365,
        "rank_sort": 70539,
        "total": 2340
      },
      {
        "club_badge_src": null,
        "entry": 3191469,
        "entry_name": "Ich Hasse Backe",
        "event_total": 50,
        "has_played": true,
        "id": 23586676,
        "last_rank": 58688,
        "player_name": "Patrik Schneider",
        "rank": 70365,
        "rank_sort": 70540,
        "total": 2340
      },
      {
        "club_badge_src": null,
        "entry": 3252274,
        "entry_name": "Top of the ROC",
        "event_total": 84,
        "has_played": true,
        "id": 24062671,
        "last_rank": 143322,
        "player_name": "George Smith",
        "rank": 70365,
        "rank_sort": 70541,
        "total": 2340
      },
      {
        "club_badge_src": null,
        "entry": 3286125,
        "entry_name": "FC Bantchester 1942",
        "event_total": 57,
        "has_played": true,
        "id": 24326231,
        "last_rank": 71956,
        "player_name": "Onefuwa Okomayin",
        "rank": 70365,
        "rank_sort": 70542,
        "total": 2340
      },
      {
        "club_badge_src": null,
        "entry": 3290512,
        "entry_name": "ibra gnm",
        "event_total": 66,
        "has_played": true,
        "id": 24362533,
        "last_rank": 91835,
        "player_name": "Ibrahem gnm",
        "rank": 70365,
        "rank_sort": 70543,
        "total": 2340
      },
      {
        "club_badge_src": null,
        "entry": 3293327,
        "entry_name": "Icy Stars",
        "event_total": 67,
        "has_played": true,
        "id": 24385662,
        "last_rank": 93883,
        "player_name": "Iyce Delly",
        "rank": 70365,
        "rank_sort": 70544,
        "total": 2340
      },
      {
        "club_badge_src": null,
        "entry": 3324047,
        "entry_name": "Bruno dos tres",
        "event_total": 66,
        "has_played": true,
        "id": 24642718,
        "last_rank": 91835,
        "player_name": "Zihad Majid",
        "rank": 70365,
        "rank_sort": 70545,
        "total": 2340
      },
      {
        "club_badge_src": "https://fantasy.premierleague.com/gcs/plfpl-production-adobe-approved/plfpl-production/3452036/912ecb30-4ab5-4189-a37b-7a6108f5cebd.png",
        "entry": 3452036,
        "entry_name": "Vintage FC",
        "event_total": 59,
        "has_played": true,
        "id": 25653710,
        "last_rank": 67422,
        "player_name": "Ashish Panigrahi",
        "rank": 70365,
        "rank_sort": 70546,
        "total": 2340
      },
      {
        "club_badge_src": null,
        "entry": 3458023,
        "entry_name": "You Got Megged!",
        "event_total": 59,
        "has_played": true,
        "id": 25702681,
        "last_rank": 75537,
        "player_name": "Megan Reilly",
        "rank": 70365,
        "rank_sort": 70547,
        "total": 2340
      },
      {
        "club_badge_src": null,
        "entry": 3470977,
        "entry_name": "siri, pick my team",
        "event_total": 73,
        "has_played": true,
        "id": 25804566,
        "last_rank": 110187,
        "player_name": "Ben Gajny",
        "rank": 70365,
        "rank_sort": 70548,
        "total": 2340
      },
      {
        "club_badge_src": null,
        "entry": 3511801,
        "entry_name": "Ultimate Team",
        "event_total": 55,
        "has_played": true,
        "id": 26130935,
        "last_rank": 67926,
        "player_name": "Abdalmalik Ragab",
        "rank": 70365,
        "rank_sort": 70549,
        "total": 2340
      },
      {
        "club_badge_src": null,
        "entry": 3559426,
        "entry_name": "BAMM FC",
        "event_total": 64,
        "has_played": true,
        "id": 26501504,
        "last_rank": 87074,
        "player_name": "Marin Bonev",
        "rank": 70365,
        "rank_sort": 70550,
        "total": 2340
      }
    ]
  }
}