{
  "last_updated_data": "2026-05-24T23:28:17Z",
  "league": {
    "admin_entry": null,
    "closed": false,
    "code_privacy": "p",
    "created": "2025-07-20T23:14:33.933835Z",
    "cup_league": 2815434,
    "has_cup": true,
    "id": 314,
    "league_type": "s",
    "max_entries": null,
    "name": "Overall",
    "rank": null,
    "scoring": "c",
    "start_event": 1
  },
  "new_entries": {
    "has_next": false,
    "page": 1,
    "results": []
  },
  "standings": {
    "has_next": true,
    "page": 364,
    "results": [
      {
        "club_badge_src": null,
        "entry": 1366300,
        "entry_name": "Stergosaurus",
        "event_total": 53,
        "has_played": true,
        "id": 9497977,
        "last_rank": 15226,
        "player_name": "Michael Stergiotis",
        "rank": 18122,
        "rank_sort": 18151,
        "total": 2383
      },
      {
        "club_badge_src": null,
        "entry": 1438644,
        "entry_name": "CampeoniCampeoniSiuu",
        "event_total": 63,
        "has_played": true,
        "id": 10024581,
        "last_rank": 21949,
        "player_name": "Marcos Hansen",
        "rank": 18122,
        "rank_sort": 18152,
        "total": 2383
      },
      {
        "club_badge_src": null,
        "entry": 1630250,
        "entry_name": "Bouka Fc",
        "event_total": 54,
        "has_played": true,
        "id": 11410653,
        "last_rank": 13401,
        "player_name": "Talel Boukadida",
        "rank": 18122,
        "rank_sort": 18153,
        "total": 2383
      },
      {
        "club_badge_src": null,
        "entry": 1636052,
        "entry_name": "The Scouse Supremacy",
        "event_total": 53,
        "has_played": true,
        "id": 11451698,
        "last_rank": 15280,
        "player_name": "Brendan Schoonbaert",
        "rank": 18122,
        "rank_sort": 18154,
        "total": 2383
      },
      {
        "club_badge_src": "https://fantasy.premierleague.com/gcs/plfpl-production-adobe-approved/plfpl-production/1659286/56fd54aa-aa72-490d-8476-508161bf5232.png",
        "entry": 1659286,
        "entry_name": "Earth Wind & Maguire",
        "event_total": 71,
        "has_played": true,
        "id": 11617015,
        "last_rank": 25172,
        "player_name": "Ruben Tuverud",
        "rank": 18122,
        "rank_sort": 18155,
        "total": 2383
      },
      {
        "club_badge_src": null,
        "entry": 1707858,
        "entry_name": "Cojeen",
        "event_total": 67,
        "has_played": true,
        "id": 11965220,
        "last_rank": 25436,
        "player_name": "Matthew cojeen",
        "rank": 18122,
        "rank_sort": 18156,
        "total": 2383
      },
      {
        "club_badge_src": null,
        "entry": 1783777,
        "entry_name": "Fetal Tissues",
        "event_total": 67,
        "has_played": true,
        "id": 12532700,
        "last_rank": 21949,
        "player_name": "Chris Watorowski",
        "rank": 18122,
        "rank_sort": 18157,
        "total": 2383
      },
      {
        "club_badge_src": null,
        "entry": 1842072,
        "entry_name": "Aimless Wanderers",
        "event_total": 63,
        "has_played": true,
        "id": 12959863,
        "last_rank": 22216,
        "player_name": "Tim Bradley",
        "rank": 18122,
        "rank_sort": 18158,
        "total": 2383
      },
      {
        "club_badge_src": null,
        "entry": 2051847,
        "entry_name": "ChatGPTFC",
        "event_total": 54,
        "has_played": true,
        "id": 14533733,
        "last_rank": 15876,
        "player_name": "James Hudson",
        "rank": 18122,
        "rank_sort": 18159,
        "total": 2383
      },
      {
        "club_badge_src": null,
        "entry": 2273385,
        "entry_name": "Saints-champions",
        "event_total": 73,
        "has_played": true,
        "id": 16210513,
        "last_rank": 27203,
        "player_name": "Georgi Simeonov",
        "rank": 18122,
        "rank_sort": 18160,
        "total": 2383
      },
      {
        "club_badge_src": null,
        "entry": 2273443,
        "entry_name": "Murray\u2019s Marvels",
        "event_total": 83,
        "has_played": true,
        "id": 16210964,
        "last_rank": 37435,
        "player_name": "Vincent Murray",
        "rank": 18122,
        "rank_sort": 18161,
        "total": 2383
      },
      {
        "club_badge_src": "https://fantasy.premierleague.com/gcs/plfpl-production-adobe-approved/plfpl-production/2360857/0a0316ab-b6eb-425c-8156-d16a6a5c2fc2.png",
        "entry": 2360857,
        "entry_name": "Maigrot United",
        "event_total": 41,
        "has_played": true,
        "id": 16848777,
        "last_rank": 9350,
        "player_name": "Olivier Maigrot",
        "rank": 18122,
        "rank_sort": 18162,
        "total": 2383
      },
      {
        "club_badge_src": null,
        "entry": 2559345,
        "entry_name": "Sky Blue Ballers",
        "event_total": 75,
        "has_played": true,
        "id": 18354664,
        "last_rank": 29071,
        "player_name": "Andr\u00e9 Olsson",
        "rank": 18122,
        "rank_sort": 18163,
        "total": 2383
      },
      {
        "club_badge_src": null,
        "entry": 2669119,
        "entry_name": "Your Wife's Athletic",
        "event_total": 64,
        "has_played": true,
        "id": 19189666,
        "last_rank": 22830,
        "player_name": "John Fahy",
        "rank": 18122,
        "rank_sort": 18164,
        "total": 2383
      },
      {
        "club_badge_src": null,
        "entry": 2757503,
        "entry_name": "Madlax25",
        "event_total": 68,
        "has_played": true,
        "id": 20101352,
        "last_rank": 26345,
        "player_name": "Lakshay Gensapa",
        "rank": 18122,
        "rank_sort": 18165,
        "total": 2383
      },
      {
        "club_badge_src": null,
        "entry": 2773903,
        "entry_name": "wiggys",
        "event_total": 74,
        "has_played": true,
        "id": 20242667,
        "last_rank": 32190,
        "player_name": "Nick Wigston",
        "rank": 18122,
        "rank_sort": 18166,
        "total": 2383
      },
      {
        "club_badge_src": "https://fantasy.premierleague.com/gcs/plfpl-production-adobe-approved/plfpl-production/2799225/9cc5eead-81ba-4b01-a207-6065a6638451.png",
        "entry": 2799225,
        "entry_name": "mctominay fan club",
        "event_total": 70,
        "has_played": true,
        "id": 20440590,
        "last_rank": 27770,
        "player_name": "Jesper Meyer",
        "rank": 18122,
        "rank_sort": 18167,
        "total": 2383
      },
      {
        "club_badge_src": null,
        "entry": 2995216,
        "entry_name": "Cunha believe it",
        "event_total": 66,
        "has_played": true,
        "id": 22029622,
        "last_rank": 24570,
        "player_name": "James Scriven",
        "rank": 18122,
        "rank_sort": 18168,
        "total": 2383
      },
      {
        "club_badge_src": null,
        "entry": 3091188,
        "entry_name": "3bsiiii",
        "event_total": 75,
        "has_played": true,
        "id": 22781727,
        "last_rank": 33332,
        "player_name": "A Abdullah",
        "rank": 18122,
        "rank_sort": 18169,
        "total": 2383
      },
      {
        "club_badge_src": null,
        "entry": 3136770,
        "entry_name": "Mo'salad",
        "event_total": 51,
        "has_played": true,
        "id": 23155293,
        "last_rank": 11821,
        "player_name": "Leon Jones",
        "rank": 18122,
        "rank_sort": 18170,
        "total": 2383
      },
      {
        "club_badge_src": null,
        "entry": 3219225,
        "entry_name": "Snatch82",
        "event_total": 64,
        "has_played": true,
        "id": 23805139,
        "last_rank": 22996,
        "player_name": "Michael Brady",
        "rank": 18122,
        "rank_sort": 18171,
        "total": 2383
      },
      {
        "club_badge_src": null,
        "entry": 3305712,
        "entry_name": "Top of the Slots",
        "event_total": 61,
        "has_played": true,
        "id": 24486134,
        "last_rank": 20678,
        "player_name": "Jack Rudgeley",
        "rank": 18122,
        "rank_sort": 18172,
        "total": 2383
      },
      {
        "club_badge_src": null,
        "entry": 3875365,
        "entry_name": "God\u00f8/Glimt",
        "event_total": 61,
        "has_played": true,
        "id": 29107812,
        "last_rank": 20624,
        "player_name": "\u00d8yvind God\u00f8",
        "rank": 18122,
        "rank_sort": 18173,
        "total": 2383
      },
      {
        "club_badge_src": null,
        "entry": 3879810,
        "entry_name": "Skilli",
        "event_total": 56,
        "has_played": true,
        "id": 29151686,
        "last_rank": 17150,
        "player_name": "Steven Dempsey",
        "rank": 18122,
        "rank_sort": 18174,
        "total": 2383
      },
      {
        "club_badge_src": "https://fantasy.premierleague.com/gcs/plfpl-production-adobe-approved/plfpl-production/3992033/a81ab55f-e8cd-4aef-bb4d-b702648b24fb.png",
        "entry": 3992033,
        "entry_name": "Matrix Magicians",
        "event_total": 72,
        "has_played": true,
        "id": 30060299,
        "last_rank": 26230,
        "player_name": "Bien Benrahma",
        "rank": 18122,
        "rank_sort": 18175,
        "total": 2383
      },
      {
        "club_badge_src": null,
        "entry": 4093216,
        "entry_name": "Amorim Fati",
        "event_total": 63,
        "has_played": true,
        "id": 30905377,
        "last_rank": 18985,
        "player_name": "Jaewon Lee",
        "rank": 18122,
        "rank_sort": 18176,
        "total": 2383
      },
      {
        "club_badge_src": null,
        "entry": 4805898,
        "entry_name": "Death of a Selsman",
        "event_total": 68,
        "has_played": true,
        "id": 37003793,
        "last_rank": 26230,
        "player_name": "Niall Wilson",
        "rank": 18122,
        "rank_sort": 18177,
        "total": 2383
      },
      {
        "club_badge_src": null,
        "entry": 5178243,
        "entry_name": "Gresskrigerne",
        "event_total": 66,
        "has_played": true,
        "id": 40080398,
        "last_rank": 21301,
        "player_name": "Edvard Moen N\u00e6s",
        "rank": 18122,
        "rank_sort": 18178,
        "total": 2383
      },
      {
        "club_badge_src": null,
        "entry": 5277389,
        "entry_name": "COYB",
        "event_total": 59,
        "has_played": true,
        "id": 40904624,
        "last_rank": 19103,
        "player_name": "Rohan Malik",
        "rank": 18122,
        "rank_sort": 18179,
        "total": 2383
      },
      {
        "club_badge_src": null,
        "entry": 5351102,
        "entry_name": "Santers Lil Helpers",
        "event_total": 67,
        "has_played": true,
        "id": 41536309,
        "last_rank": 25436,
        "player_name": "Gary Santer",
        "rank": 18122,
        "rank_sort": 18180,
        "total": 2383
      },
      {
        "club_badge_src": null,
        "entry": 5428980,
        "entry_name": "Harrison\u2019s Gorillaz",
        "event_total": 69,
        "has_played": true,
        "id": 42228026,
        "last_rank": 27304,
        "player_name": "Paul Harrison",
        "rank": 18122,
        "rank_sort": 18181,
        "total": 2383
      },
      {
        "club_badge_src": null,
        "entry": 5604134,
        "entry_name": "Sarutobi",
        "event_total": 73,
        "has_played": true,
        "id": 43792273,
        "last_rank": 30957,
        "player_name": "Toby Powell",
        "rank": 18122,
        "rank_sort": 18182,
        "total": 2383
      },
      {
        "club_badge_src": "https://fantasy.premierleague.com/gcs/plfpl-production-adobe-approved/plfpl-production/6050302/7d694360-fed7-4466-9acc-9c6743d4c44a.png",
        "entry": 6050302,
        "entry_name": "Wirtz is yet to come",
        "event_total": 66,
        "has_played": true,
        "id": 47742372,
        "last_rank": 24570,
        "player_name": "Elle Bryant",
        "rank": 18122,
        "rank_sort": 18183,
        "total": 2383
      },
      {
        "club_badge_src": "https://fantasy.premierleague.com/gcs/plfpl-production-adobe-approved/plfpl-production/6600194/cd5acd42-86eb-4765-9a60-614761015d23.png",
        "entry": 6600194,
        "entry_name": "Mays Fc",
        "event_total": 59,
        "has_played": true,
        "id": 52722341,
        "last_rank": 19176,
        "player_name": "Danny Mays",
        "rank": 18122,
        "rank_sort": 18184,
        "total": 2383
      },
      {
        "club_badge_src": null,
        "entry": 6737175,
        "entry_name": "\u9673\u540c\u4f73",
        "event_total": 56,
        "has_played": true,
        "id": 53928097,
        "last_rank": 17150,
        "player_name": "\u540c\u4f73 \u9673",
        "rank": 18122,
        "rank_sort": 18185,
        "total": 2383
      },
      {
        "club_badge_src": "https://fantasy.premierleague.com/gcs/plfpl-production-adobe-approved/plfpl-production/6838240/8a736bef-afa7-4a6f-89bd-09489d45aaa1.png",
        "entry": 6838240,
        "entry_name": "Artetas BHiscutt Tin",
        "event_total": 57,
        "has_played": true,
        "id": 54778604,
        "last_rank": 17718,
        "player_name": "John Wotherspoon",
        "rank": 18122,
        "rank_sort": 18186,
        "total": 2383
      },
      {
        "club_badge_src": null,
        "entry": 7835790,
        "entry_name": "Change Name",
        "event_total": 75,
        "has_played": true,
        "id": 64401094,
        "last_rank": 33332,
        "player_name": "Benjamin Greenhalgh",
        "rank": 18122,
        "rank_sort": 18187,
        "total": 2383
      },
      {
        "club_badge_src": null,
        "entry": 7867697,
        "entry_name": "Xhaka all trades",
        "event_total": 56,
        "has_played": true,
        "id": 64692943,
        "last_rank": 14604,
        "player_name": "Rohin K",
        "rank": 18122,
        "rank_sort": 18188,
        "total": 2383
      },
      {
        "club_badge_src": null,
        "entry": 8204488,
        "entry_name": "Laura's on fire",
        "event_total": 62,
        "has_played": true,
        "id": 67782744,
        "last_rank": 21450,
        "player_name": "Laura Bryant",
        "rank": 18122,
        "rank_sort": 18189,
        "total": 2383
      },
      {
        "club_badge_src": null,
        "entry": 8439257,
        "entry_name": "Sinantidepressants",
        "event_total": 30,
        "has_played": true,
        "id": 70052609,
        "last_rank": 5792,
        "player_name": "Sinan Kinch",
        "rank": 18122,
        "rank_sort": 18190,
        "total": 2383
      },
      {
        "club_badge_src": null,
        "entry": 8808902,
        "entry_name": "\u0160e\u0161ko Airlines",
        "event_total": 65,
        "has_played": true,
        "id": 73630910,
        "last_rank": 20538,
        "player_name": "Emil Flottorp",
        "rank": 18122,
        "rank_sort": 18191,
        "total": 2383
      },
      {
        "club_badge_src": null,
        "entry": 8935336,
        "entry_name": "Vaskebj\u00f8rnFC",
        "event_total": 52,
        "has_played": true,
        "id": 74855778,
        "last_rank": 14604,
        "player_name": "Alicia Lov",
        "rank": 18122,
        "rank_sort": 18192,
        "total": 2383
      },
      {
        "club_badge_src": null,
        "entry": 5789,
        "entry_name": "Special Ezzat",
        "event_total": 70,
        "has_played": true,
        "id": 33076,
        "last_rank": 24570,
        "player_name": "Mostafa Ezzat",
        "rank": 18193,
        "rank_sort": 18193,
        "total": 2383
      },
      {
        "club_badge_src": null,
        "entry": 51047,
        "entry_name": "Empty Slot",
        "event_total": 68,
        "has_played": true,
        "id": 328332,
        "last_rank": 22921,
        "player_name": "Tony Needham",
        "rank": 18193,
        "rank_sort": 18194,
        "total": 2383
      },
      {
        "club_badge_src": null,
        "entry": 52204,
        "entry_name": "Dunvullen FC",
        "event_total": 73,
        "has_played": true,
        "id": 335714,
        "last_rank": 31125,
        "player_name": "Paraic Wixted",
        "rank": 18193,
        "rank_sort": 18195,
        "total": 2383
      },
      {
        "club_badge_src": null,
        "entry": 81309,
        "entry_name": "Memes",
        "event_total": 56,
        "has_played": true,
        "id": 528965,
        "last_rank": 17150,
        "player_name": "Anthony Derim",
        "rank": 18193,
        "rank_sort": 18196,
        "total": 2383
      },
      {
        "club_badge_src": null,
        "entry": 82894,
        "entry_name": "Forza Garibaldi",
        "event_total": 46,
        "has_played": true,
        "id": 539473,
        "last_rank": 11482,
        "player_name": "Aidan Thornhill",
        "rank": 18193,
        "rank_sort": 18197,
        "total": 2383
      },
      {
        "club_badge_src": null,
        "entry": 103236,
        "entry_name": "Bendtner's Greats",
        "event_total": 71,
        "has_played": true,
        "id": 673682,
        "last_rank": 25436,
        "player_name": "Aaron Dunne",
        "rank": 18193,
        "rank_sort": 18198,
        "total": 2383
      },
      {
        "club_badge_src": null,
        "entry": 132393,
        "entry_name": "GameVik39",
        "event_total": 68,
        "has_played": true,
        "id": 862415,
        "last_rank": 22921,
        "player_name": "Thomas Vik",
        "rank": 18193,
        "rank_sort": 18199,
        "total": 2383
      },
      {
        "club_badge_src": null,
        "entry": 137714,
        "entry_name": "Shadwell",
        "event_total": 66,
        "has_played": true,
        "id": 897899,
        "last_rank": 24330,
        "player_name": "Simon Hickson",
        "rank": 18193,
        "rank_sort": 18200,
        "total": 2383
      }
    ]
  }
}