{
  "last_updated_data": "2026-05-24T23:28:17Z",
  "league": {
    "admin_entry": null,
    "closed": false,
    "code_privacy": "p",
    "created": "2025-07-20T23:14:33.933835Z",
    "cup_league": 2815434,
    "has_cup": true,
    "id": 314,
    "league_type": "s",
    "max_entries": null,
    "name": "Overall",
    "rank": null,
    "scoring": "c",
    "start_event": 1
  },
  "new_entries": {
    "has_next": false,
    "page": 1,
    "results": []
  },
  "standings": {
    "has_next": true,
    "page": 351,
    "results": [
      {
        "club_badge_src": null,
        "entry": 7475515,
        "entry_name": "Pollestad Powerhouse",
        "event_total": 63,
        "has_played": true,
        "id": 60965353,
        "last_rank": 18270,
        "player_name": "Stian Pollestad",
        "rank": 17413,
        "rank_sort": 17501,
        "total": 2384
      },
      {
        "club_badge_src": null,
        "entry": 7591827,
        "entry_name": "Wallazio",
        "event_total": 58,
        "has_played": true,
        "id": 62191143,
        "last_rank": 17718,
        "player_name": "Andrew Wallace",
        "rank": 17413,
        "rank_sort": 17502,
        "total": 2384
      },
      {
        "club_badge_src": null,
        "entry": 7806145,
        "entry_name": "Kynog United",
        "event_total": 55,
        "has_played": true,
        "id": 64128518,
        "last_rank": 15797,
        "player_name": "Daragh Rainer",
        "rank": 17413,
        "rank_sort": 17503,
        "total": 2384
      },
      {
        "club_badge_src": null,
        "entry": 8110787,
        "entry_name": "Soddy",
        "event_total": 72,
        "has_played": true,
        "id": 66901365,
        "last_rank": 28906,
        "player_name": "Shane O'Donnell",
        "rank": 17413,
        "rank_sort": 17504,
        "total": 2384
      },
      {
        "club_badge_src": null,
        "entry": 8580391,
        "entry_name": "Bijol and End All",
        "event_total": 57,
        "has_played": true,
        "id": 71409623,
        "last_rank": 14496,
        "player_name": "Will Topper",
        "rank": 17413,
        "rank_sort": 17505,
        "total": 2384
      },
      {
        "club_badge_src": "https://fantasy.premierleague.com/gcs/plfpl-production-adobe-approved/plfpl-production/6899/474cb31d-65bb-40ab-8da5-333819660282.png",
        "entry": 6899,
        "entry_name": "Sadiq Team 01",
        "event_total": 66,
        "has_played": true,
        "id": 39698,
        "last_rank": 20538,
        "player_name": "Sadiq Saadi",
        "rank": 17506,
        "rank_sort": 17506,
        "total": 2384
      },
      {
        "club_badge_src": "https://fantasy.premierleague.com/gcs/plfpl-production-adobe-approved/plfpl-production/21232/f06c4857-a48b-44ec-a3c1-3ccff0dc2434.png",
        "entry": 21232,
        "entry_name": "Magic Zico",
        "event_total": 49,
        "has_played": true,
        "id": 133096,
        "last_rank": 12470,
        "player_name": "Chris Himawan",
        "rank": 17506,
        "rank_sort": 17507,
        "total": 2384
      },
      {
        "club_badge_src": null,
        "entry": 66763,
        "entry_name": "HaalandGlobetrotters",
        "event_total": 49,
        "has_played": true,
        "id": 431868,
        "last_rank": 12470,
        "player_name": "Wayne Kerr",
        "rank": 17506,
        "rank_sort": 17508,
        "total": 2384
      },
      {
        "club_badge_src": "https://fantasy.premierleague.com/gcs/plfpl-production-adobe-approved/plfpl-production/107316/a95541c0-e9f4-4f10-9b70-3e80bc726e7f.png",
        "entry": 107316,
        "entry_name": "Cold Feet",
        "event_total": 64,
        "has_played": true,
        "id": 699572,
        "last_rank": 19103,
        "player_name": "\u00d8yvind Pedersen",
        "rank": 17506,
        "rank_sort": 17509,
        "total": 2384
      },
      {
        "club_badge_src": null,
        "entry": 116395,
        "entry_name": "Granquist Allstars",
        "event_total": 75,
        "has_played": true,
        "id": 759879,
        "last_rank": 32190,
        "player_name": "Morten Lund-Andresen",
        "rank": 17506,
        "rank_sort": 17510,
        "total": 2384
      },
      {
        "club_badge_src": "https://fantasy.premierleague.com/gcs/plfpl-production-adobe-approved/plfpl-production/138594/9eaf06a2-b7e3-45fb-ae45-af07159f096c.png",
        "entry": 138594,
        "entry_name": "\u041b\u0430\u043c\u044f\u0442\u0430 \u0421\u043f\u0430\u0441\u043a\u0430",
        "event_total": 66,
        "has_played": true,
        "id": 904199,
        "last_rank": 23748,
        "player_name": "Krasimir Cholakov",
        "rank": 17506,
        "rank_sort": 17511,
        "total": 2384
      },
      {
        "club_badge_src": null,
        "entry": 156403,
        "entry_name": "KLFC",
        "event_total": 50,
        "has_played": true,
        "id": 1028536,
        "last_rank": 12940,
        "player_name": "Kim Unwin",
        "rank": 17506,
        "rank_sort": 17512,
        "total": 2384
      },
      {
        "club_badge_src": "https://fantasy.premierleague.com/gcs/plfpl-production-adobe-approved/plfpl-production/320829/dc6a3c3f-45a6-40d8-9a5e-d39d9c6b9f5e.png",
        "entry": 320829,
        "entry_name": "Aggressive FC",
        "event_total": 72,
        "has_played": true,
        "id": 2150266,
        "last_rank": 29199,
        "player_name": "Ewan O'connell",
        "rank": 17506,
        "rank_sort": 17513,
        "total": 2384
      },
      {
        "club_badge_src": "https://fantasy.premierleague.com/gcs/plfpl-production-adobe-approved/plfpl-production/461684/f29e4de3-2e28-4545-9825-d3a04fc42e78.png",
        "entry": 461684,
        "entry_name": "kinder Mbeumo",
        "event_total": 70,
        "has_played": true,
        "id": 3097017,
        "last_rank": 26827,
        "player_name": "Abdullah Al Rahbi",
        "rank": 17506,
        "rank_sort": 17514,
        "total": 2384
      },
      {
        "club_badge_src": "https://fantasy.premierleague.com/gcs/plfpl-production-adobe-approved/plfpl-production/719750/1a325335-5d24-4b4c-9e8f-d99bc05c1839.png",
        "entry": 719750,
        "entry_name": "\u15ab\u212d\u044f\u03b1\u0178\u0f12\u20ad\u0268ll\u01dd\u211e\u15ad RDS",
        "event_total": 42,
        "has_played": true,
        "id": 4885708,
        "last_rank": 9382,
        "player_name": "\u00c3M\u00cf\u00d1\u00cb D\u00c4R\u00f5\u00f9\u00e2\u00e2ss \ud83c\uddfb\ud83c\uddee\ud83c\ude01",
        "rank": 17506,
        "rank_sort": 17515,
        "total": 2384
      },
      {
        "club_badge_src": null,
        "entry": 743573,
        "entry_name": "Red Nose Reijnders",
        "event_total": 59,
        "has_played": true,
        "id": 5057968,
        "last_rank": 15797,
        "player_name": "Constantinos Photiou",
        "rank": 17506,
        "rank_sort": 17516,
        "total": 2384
      },
      {
        "club_badge_src": null,
        "entry": 796677,
        "entry_name": "pfkbgd",
        "event_total": 76,
        "has_played": true,
        "id": 5452516,
        "last_rank": 29071,
        "player_name": "Vuk Vidakovic",
        "rank": 17506,
        "rank_sort": 17517,
        "total": 2384
      },
      {
        "club_badge_src": null,
        "entry": 892827,
        "entry_name": "JX United",
        "event_total": 63,
        "has_played": true,
        "id": 6132790,
        "last_rank": 21392,
        "player_name": "JX Yap",
        "rank": 17506,
        "rank_sort": 17518,
        "total": 2384
      },
      {
        "club_badge_src": "https://fantasy.premierleague.com/gcs/plfpl-production-adobe-approved/plfpl-production/961702/f75b4f80-0d02-4421-ba4d-913b4b890b64.png",
        "entry": 961702,
        "entry_name": "Cucucinderella",
        "event_total": 57,
        "has_played": true,
        "id": 6627286,
        "last_rank": 17150,
        "player_name": "Chippy Chips",
        "rank": 17506,
        "rank_sort": 17519,
        "total": 2384
      },
      {
        "club_badge_src": null,
        "entry": 1002902,
        "entry_name": "Lonely At The Top",
        "event_total": 54,
        "has_played": true,
        "id": 6932645,
        "last_rank": 12940,
        "player_name": "Elliot Wahlstr\u00f6m",
        "rank": 17506,
        "rank_sort": 17520,
        "total": 2384
      },
      {
        "club_badge_src": null,
        "entry": 1107982,
        "entry_name": "4T",
        "event_total": 66,
        "has_played": true,
        "id": 7674589,
        "last_rank": 20538,
        "player_name": "Luke Mostert",
        "rank": 17506,
        "rank_sort": 17521,
        "total": 2384
      },
      {
        "club_badge_src": null,
        "entry": 1116531,
        "entry_name": "Carps legends",
        "event_total": 60,
        "has_played": true,
        "id": 7734081,
        "last_rank": 16441,
        "player_name": "josh Carpenter",
        "rank": 17506,
        "rank_sort": 17522,
        "total": 2384
      },
      {
        "club_badge_src": "https://fantasy.premierleague.com/gcs/plfpl-production-adobe-approved/plfpl-production/1163874/4fb9eb1e-762f-45af-9949-8a707fedd442.png",
        "entry": 1163874,
        "entry_name": "Lily's Legends",
        "event_total": 64,
        "has_played": true,
        "id": 8073889,
        "last_rank": 22154,
        "player_name": "Dan Mitchell",
        "rank": 17506,
        "rank_sort": 17523,
        "total": 2384
      },
      {
        "club_badge_src": null,
        "entry": 1260080,
        "entry_name": "football girlie utd",
        "event_total": 41,
        "has_played": true,
        "id": 8753043,
        "last_rank": 7450,
        "player_name": "Kerrie Truong",
        "rank": 17506,
        "rank_sort": 17524,
        "total": 2384
      },
      {
        "club_badge_src": null,
        "entry": 1606751,
        "entry_name": "Ctrl+C Streamer #404",
        "event_total": 69,
        "has_played": true,
        "id": 11241590,
        "last_rank": 26345,
        "player_name": "Georgi Milanov",
        "rank": 17506,
        "rank_sort": 17525,
        "total": 2384
      },
      {
        "club_badge_src": null,
        "entry": 1787282,
        "entry_name": "SomeMothersDoHavertz",
        "event_total": 66,
        "has_played": true,
        "id": 12558127,
        "last_rank": 20538,
        "player_name": "Alex Huxley",
        "rank": 17506,
        "rank_sort": 17526,
        "total": 2384
      },
      {
        "club_badge_src": null,
        "entry": 1874142,
        "entry_name": "Morning Glory",
        "event_total": 39,
        "has_played": true,
        "id": 13194829,
        "last_rank": 8234,
        "player_name": "Christian van der Heijden",
        "rank": 17506,
        "rank_sort": 17527,
        "total": 2384
      },
      {
        "club_badge_src": null,
        "entry": 1941252,
        "entry_name": "diton fc",
        "event_total": 34,
        "has_played": true,
        "id": 13692736,
        "last_rank": 6614,
        "player_name": "Yassine Baddane",
        "rank": 17506,
        "rank_sort": 17528,
        "total": 2384
      },
      {
        "club_badge_src": null,
        "entry": 2477148,
        "entry_name": "Perth Scorchers",
        "event_total": 58,
        "has_played": true,
        "id": 17723536,
        "last_rank": 17718,
        "player_name": "Peter MacKerracher",
        "rank": 17506,
        "rank_sort": 17529,
        "total": 2384
      },
      {
        "club_badge_src": null,
        "entry": 2526694,
        "entry_name": "Shlaggy Burger",
        "event_total": 57,
        "has_played": true,
        "id": 18105185,
        "last_rank": 14604,
        "player_name": "Corey Denneen",
        "rank": 17506,
        "rank_sort": 17530,
        "total": 2384
      },
      {
        "club_badge_src": null,
        "entry": 2909706,
        "entry_name": "FC Sucharki",
        "event_total": 54,
        "has_played": true,
        "id": 21325655,
        "last_rank": 12940,
        "player_name": "\u0141ukasz G\u0142odek",
        "rank": 17506,
        "rank_sort": 17531,
        "total": 2384
      },
      {
        "club_badge_src": null,
        "entry": 3230705,
        "entry_name": "Fluteheads",
        "event_total": 48,
        "has_played": true,
        "id": 23893691,
        "last_rank": 11957,
        "player_name": "Jordan Towell",
        "rank": 17506,
        "rank_sort": 17532,
        "total": 2384
      },
      {
        "club_badge_src": null,
        "entry": 3615884,
        "entry_name": "Faatte DC16",
        "event_total": 72,
        "has_played": true,
        "id": 26938018,
        "last_rank": 25330,
        "player_name": "Faaris Ibrahim",
        "rank": 17506,
        "rank_sort": 17533,
        "total": 2384
      },
      {
        "club_badge_src": "https://fantasy.premierleague.com/gcs/plfpl-production-adobe-approved/plfpl-production/3664498/a84f748d-3369-495a-9127-92b809edf7cd.png",
        "entry": 3664498,
        "entry_name": "Guts",
        "event_total": 52,
        "has_played": true,
        "id": 27328224,
        "last_rank": 14148,
        "player_name": "Ashrak Shohas",
        "rank": 17506,
        "rank_sort": 17534,
        "total": 2384
      },
      {
        "club_badge_src": null,
        "entry": 3904624,
        "entry_name": "Mounting the ranks",
        "event_total": 53,
        "has_played": true,
        "id": 29353854,
        "last_rank": 14668,
        "player_name": "Arudra Sen Gupta",
        "rank": 17506,
        "rank_sort": 17535,
        "total": 2384
      },
      {
        "club_badge_src": null,
        "entry": 4265488,
        "entry_name": "Mid-table Dream",
        "event_total": 65,
        "has_played": true,
        "id": 32343230,
        "last_rank": 19835,
        "player_name": "Tony Pate",
        "rank": 17506,
        "rank_sort": 17536,
        "total": 2384
      },
      {
        "club_badge_src": null,
        "entry": 4536421,
        "entry_name": "Liams Lollipops",
        "event_total": 52,
        "has_played": true,
        "id": 34606273,
        "last_rank": 14040,
        "player_name": "Liam Brenock",
        "rank": 17506,
        "rank_sort": 17537,
        "total": 2384
      },
      {
        "club_badge_src": null,
        "entry": 5027974,
        "entry_name": "Backstreet Moyes",
        "event_total": 43,
        "has_played": true,
        "id": 38833041,
        "last_rank": 9644,
        "player_name": "Curtis Harrison",
        "rank": 17506,
        "rank_sort": 17538,
        "total": 2384
      },
      {
        "club_badge_src": "https://fantasy.premierleague.com/gcs/plfpl-production-adobe-approved/plfpl-production/5402457/06e38e6e-51d2-40c8-a856-4cec49311e6b.png",
        "entry": 5402457,
        "entry_name": "Maguire on the wing",
        "event_total": 68,
        "has_played": true,
        "id": 42007060,
        "last_rank": 25330,
        "player_name": "Kristen Brenne Ringdal",
        "rank": 17506,
        "rank_sort": 17539,
        "total": 2384
      },
      {
        "club_badge_src": null,
        "entry": 5592307,
        "entry_name": "not bad",
        "event_total": 85,
        "has_played": true,
        "id": 43690134,
        "last_rank": 44525,
        "player_name": "momen yousif",
        "rank": 17506,
        "rank_sort": 17540,
        "total": 2384
      },
      {
        "club_badge_src": "https://fantasy.premierleague.com/gcs/plfpl-production-adobe-approved/plfpl-production/5702017/3cbba258-f4cf-4dfe-af1f-5df6da7a1a34.png",
        "entry": 5702017,
        "entry_name": "Krul Intentions",
        "event_total": 65,
        "has_played": true,
        "id": 44645031,
        "last_rank": 19721,
        "player_name": "Aksel Knuhtsen",
        "rank": 17506,
        "rank_sort": 17541,
        "total": 2384
      },
      {
        "club_badge_src": null,
        "entry": 5768040,
        "entry_name": "Hala Shehatas",
        "event_total": 60,
        "has_played": true,
        "id": 45220765,
        "last_rank": 16441,
        "player_name": "Ahmed Shehata",
        "rank": 17506,
        "rank_sort": 17542,
        "total": 2384
      },
      {
        "club_badge_src": null,
        "entry": 5819997,
        "entry_name": "benteke taka",
        "event_total": 59,
        "has_played": true,
        "id": 45672626,
        "last_rank": 15797,
        "player_name": "Jamie Fuller",
        "rank": 17506,
        "rank_sort": 17543,
        "total": 2384
      },
      {
        "club_badge_src": null,
        "entry": 6850221,
        "entry_name": "Baddest Uders",
        "event_total": 58,
        "has_played": true,
        "id": 54880973,
        "last_rank": 15164,
        "player_name": "Cameron Cresswell",
        "rank": 17506,
        "rank_sort": 17544,
        "total": 2384
      },
      {
        "club_badge_src": null,
        "entry": 7041941,
        "entry_name": "Icecold",
        "event_total": 54,
        "has_played": true,
        "id": 56617028,
        "last_rank": 15226,
        "player_name": "Edidi Tobi",
        "rank": 17506,
        "rank_sort": 17545,
        "total": 2384
      },
      {
        "club_badge_src": null,
        "entry": 7160748,
        "entry_name": "Zubidubidu",
        "event_total": 66,
        "has_played": true,
        "id": 57760840,
        "last_rank": 20416,
        "player_name": "Ashrul Muhd",
        "rank": 17506,
        "rank_sort": 17546,
        "total": 2384
      },
      {
        "club_badge_src": null,
        "entry": 9086525,
        "entry_name": "5 for 2",
        "event_total": 65,
        "has_played": true,
        "id": 76319539,
        "last_rank": 19721,
        "player_name": "Marian Buckley",
        "rank": 17506,
        "rank_sort": 17547,
        "total": 2384
      },
      {
        "club_badge_src": "https://fantasy.premierleague.com/gcs/plfpl-production-adobe-approved/plfpl-production/4667/038030fa-c092-4f32-b19e-13a19f33c399.png",
        "entry": 4667,
        "entry_name": "GUNNERS \ufffd",
        "event_total": 62,
        "has_played": true,
        "id": 26548,
        "last_rank": 17802,
        "player_name": "Mohammed AlOtaibi",
        "rank": 17548,
        "rank_sort": 17548,
        "total": 2384
      },
      {
        "club_badge_src": null,
        "entry": 22324,
        "entry_name": "Jur\u00e1sek Park",
        "event_total": 56,
        "has_played": true,
        "id": 140160,
        "last_rank": 14102,
        "player_name": "Matt Harvey",
        "rank": 17548,
        "rank_sort": 17549,
        "total": 2384
      },
      {
        "club_badge_src": null,
        "entry": 60125,
        "entry_name": "8 Myles",
        "event_total": 55,
        "has_played": true,
        "id": 387122,
        "last_rank": 13558,
        "player_name": "Ian Chung",
        "rank": 17548,
        "rank_sort": 17550,
        "total": 2384
      }
    ]
  }
}