{
  "last_updated_data": "2026-05-24T23:28:17Z",
  "league": {
    "admin_entry": null,
    "closed": false,
    "code_privacy": "p",
    "created": "2025-07-20T23:14:33.933835Z",
    "cup_league": 2815434,
    "has_cup": true,
    "id": 314,
    "league_type": "s",
    "max_entries": null,
    "name": "Overall",
    "rank": null,
    "scoring": "c",
    "start_event": 1
  },
  "new_entries": {
    "has_next": false,
    "page": 1,
    "results": []
  },
  "standings": {
    "has_next": true,
    "page": 167,
    "results": [
      {
        "club_badge_src": null,
        "entry": 76105,
        "entry_name": "AL FAISALY",
        "event_total": 59,
        "has_played": true,
        "id": 494760,
        "last_rank": 7141,
        "player_name": "Mohammed Faisal",
        "rank": 8296,
        "rank_sort": 8301,
        "total": 2403
      },
      {
        "club_badge_src": null,
        "entry": 96715,
        "entry_name": "TopFloorBoss",
        "event_total": 60,
        "has_played": true,
        "id": 631785,
        "last_rank": 7450,
        "player_name": "Kunle Elerewe",
        "rank": 8296,
        "rank_sort": 8302,
        "total": 2403
      },
      {
        "club_badge_src": null,
        "entry": 144522,
        "entry_name": "BeASt Fc",
        "event_total": 66,
        "has_played": true,
        "id": 946052,
        "last_rank": 9644,
        "player_name": "Asidi LawrenceJp",
        "rank": 8296,
        "rank_sort": 8303,
        "total": 2403
      },
      {
        "club_badge_src": null,
        "entry": 152023,
        "entry_name": "dingo",
        "event_total": 59,
        "has_played": true,
        "id": 997598,
        "last_rank": 8484,
        "player_name": "Christoffer Mellbin",
        "rank": 8296,
        "rank_sort": 8304,
        "total": 2403
      },
      {
        "club_badge_src": null,
        "entry": 181482,
        "entry_name": "Dark Lord Woltemade",
        "event_total": 55,
        "has_played": true,
        "id": 1197636,
        "last_rank": 6011,
        "player_name": "Oli Rowett",
        "rank": 8296,
        "rank_sort": 8305,
        "total": 2403
      },
      {
        "club_badge_src": "https://fantasy.premierleague.com/gcs/plfpl-production-adobe-approved/plfpl-production/181720/7a9ae021-d66e-4586-9bc2-a872f66db0fe.png",
        "entry": 181720,
        "entry_name": "Cntr Alt DeLigt",
        "event_total": 65,
        "has_played": true,
        "id": 1199152,
        "last_rank": 10920,
        "player_name": "Ewan Rowson",
        "rank": 8296,
        "rank_sort": 8306,
        "total": 2403
      },
      {
        "club_badge_src": null,
        "entry": 231143,
        "entry_name": "Ws Daily FC",
        "event_total": 52,
        "has_played": true,
        "id": 1537792,
        "last_rank": 5241,
        "player_name": "Zeeshaan Khan",
        "rank": 8296,
        "rank_sort": 8307,
        "total": 2403
      },
      {
        "club_badge_src": null,
        "entry": 302106,
        "entry_name": "Rouge FC",
        "event_total": 52,
        "has_played": true,
        "id": 2021616,
        "last_rank": 5241,
        "player_name": "Rob Smith",
        "rank": 8296,
        "rank_sort": 8308,
        "total": 2403
      },
      {
        "club_badge_src": null,
        "entry": 333807,
        "entry_name": "Juventus FPL",
        "event_total": 67,
        "has_played": true,
        "id": 2235474,
        "last_rank": 11901,
        "player_name": "Robert Jukic",
        "rank": 8296,
        "rank_sort": 8309,
        "total": 2403
      },
      {
        "club_badge_src": null,
        "entry": 380261,
        "entry_name": "Dalot to Handle",
        "event_total": 65,
        "has_played": true,
        "id": 2548352,
        "last_rank": 10920,
        "player_name": "Trent Tootell",
        "rank": 8296,
        "rank_sort": 8310,
        "total": 2403
      },
      {
        "club_badge_src": null,
        "entry": 481421,
        "entry_name": "NJ United",
        "event_total": 55,
        "has_played": true,
        "id": 3232009,
        "last_rank": 5940,
        "player_name": "Joe Laurentino",
        "rank": 8296,
        "rank_sort": 8311,
        "total": 2403
      },
      {
        "club_badge_src": "https://fantasy.premierleague.com/gcs/plfpl-production-adobe-approved/plfpl-production/490656/40e2f938-c680-4ff3-8c94-a2ddb5ad8bf9.png",
        "entry": 490656,
        "entry_name": "Differentials",
        "event_total": 64,
        "has_played": true,
        "id": 3293618,
        "last_rank": 10556,
        "player_name": "Brett Berman",
        "rank": 8296,
        "rank_sort": 8312,
        "total": 2403
      },
      {
        "club_badge_src": null,
        "entry": 530623,
        "entry_name": "CharlieHorse",
        "event_total": 55,
        "has_played": true,
        "id": 3568558,
        "last_rank": 7141,
        "player_name": "Markus Nordman",
        "rank": 8296,
        "rank_sort": 8313,
        "total": 2403
      },
      {
        "club_badge_src": null,
        "entry": 710518,
        "entry_name": "MurderOnZidanesFloor",
        "event_total": 60,
        "has_played": true,
        "id": 4818546,
        "last_rank": 8925,
        "player_name": "Tom Brown",
        "rank": 8296,
        "rank_sort": 8314,
        "total": 2403
      },
      {
        "club_badge_src": "https://fantasy.premierleague.com/gcs/plfpl-production-adobe-approved/plfpl-production/810681/a60f59a0-548c-4586-9a2d-eb23b8360437.png",
        "entry": 810681,
        "entry_name": "Irwin Hamburger XVII",
        "event_total": 55,
        "has_played": true,
        "id": 5550584,
        "last_rank": 6011,
        "player_name": "Ben Haigh",
        "rank": 8296,
        "rank_sort": 8315,
        "total": 2403
      },
      {
        "club_badge_src": "https://fantasy.premierleague.com/gcs/plfpl-production-adobe-approved/plfpl-production/1014061/04599373-0451-42b7-befb-a0dc974a96ac.png",
        "entry": 1014061,
        "entry_name": "ptocxv",
        "event_total": 60,
        "has_played": true,
        "id": 7015062,
        "last_rank": 8925,
        "player_name": "Maverick To",
        "rank": 8296,
        "rank_sort": 8316,
        "total": 2403
      },
      {
        "club_badge_src": "https://fantasy.premierleague.com/gcs/plfpl-production-adobe-approved/plfpl-production/1439323/d3602113-49ed-4594-8bf4-23e908a281c4.png",
        "entry": 1439323,
        "entry_name": "Me myself Ndiaye",
        "event_total": 56,
        "has_played": true,
        "id": 10029522,
        "last_rank": 7501,
        "player_name": "Douglas Dahlstrom",
        "rank": 8296,
        "rank_sort": 8317,
        "total": 2403
      },
      {
        "club_badge_src": null,
        "entry": 1653587,
        "entry_name": "Vidic15 FC",
        "event_total": 74,
        "has_played": true,
        "id": 11576954,
        "last_rank": 15694,
        "player_name": "Zaine Isaacs",
        "rank": 8296,
        "rank_sort": 8318,
        "total": 2403
      },
      {
        "club_badge_src": null,
        "entry": 1689104,
        "entry_name": "AC Me Gran",
        "event_total": 42,
        "has_played": true,
        "id": 11824592,
        "last_rank": 3302,
        "player_name": "Mark Leach",
        "rank": 8296,
        "rank_sort": 8319,
        "total": 2403
      },
      {
        "club_badge_src": null,
        "entry": 1965249,
        "entry_name": "Frimpong Ping Pong",
        "event_total": 65,
        "has_played": true,
        "id": 13866784,
        "last_rank": 10920,
        "player_name": "Mark Sullivan",
        "rank": 8296,
        "rank_sort": 8320,
        "total": 2403
      },
      {
        "club_badge_src": null,
        "entry": 1980943,
        "entry_name": "Chern\u00f8byl 4.0",
        "event_total": 65,
        "has_played": true,
        "id": 13990207,
        "last_rank": 10920,
        "player_name": "Edward Orji",
        "rank": 8296,
        "rank_sort": 8321,
        "total": 2403
      },
      {
        "club_badge_src": "https://fantasy.premierleague.com/gcs/plfpl-production-adobe-approved/plfpl-production/2135901/ed1b7629-b200-482b-a627-7c09bc52e156.png",
        "entry": 2135901,
        "entry_name": "KarthigzTeam",
        "event_total": 53,
        "has_played": true,
        "id": 15179485,
        "last_rank": 6579,
        "player_name": "Theepan Karthigesan",
        "rank": 8296,
        "rank_sort": 8322,
        "total": 2403
      },
      {
        "club_badge_src": "https://fantasy.premierleague.com/gcs/plfpl-production-adobe-approved/plfpl-production/2177967/6f29a376-e308-4c29-805a-28ac146eeed1.png",
        "entry": 2177967,
        "entry_name": "TEAM MXD'",
        "event_total": 62,
        "has_played": true,
        "id": 15488909,
        "last_rank": 8138,
        "player_name": "Thomas Gabr1eL",
        "rank": 8296,
        "rank_sort": 8323,
        "total": 2403
      },
      {
        "club_badge_src": null,
        "entry": 2207592,
        "entry_name": "Chilly FC",
        "event_total": 70,
        "has_played": true,
        "id": 15718969,
        "last_rank": 11345,
        "player_name": "Kennedy Mutembei",
        "rank": 8296,
        "rank_sort": 8324,
        "total": 2403
      },
      {
        "club_badge_src": null,
        "entry": 2239376,
        "entry_name": "Mart UTD",
        "event_total": 62,
        "has_played": true,
        "id": 15953565,
        "last_rank": 9711,
        "player_name": "Chaipat Chongdiloet",
        "rank": 8296,
        "rank_sort": 8325,
        "total": 2403
      },
      {
        "club_badge_src": null,
        "entry": 2587911,
        "entry_name": "Turbo Team",
        "event_total": 65,
        "has_played": true,
        "id": 18578598,
        "last_rank": 10992,
        "player_name": "Sam Hoy",
        "rank": 8296,
        "rank_sort": 8326,
        "total": 2403
      },
      {
        "club_badge_src": null,
        "entry": 3044806,
        "entry_name": "Tin Tin Rovers",
        "event_total": 64,
        "has_played": true,
        "id": 22412907,
        "last_rank": 10556,
        "player_name": "Rob Harding",
        "rank": 8296,
        "rank_sort": 8327,
        "total": 2403
      },
      {
        "club_badge_src": null,
        "entry": 3155530,
        "entry_name": "Magank United",
        "event_total": 63,
        "has_played": true,
        "id": 23306655,
        "last_rank": 8484,
        "player_name": "Magnus Anker-Olsen",
        "rank": 8296,
        "rank_sort": 8328,
        "total": 2403
      },
      {
        "club_badge_src": null,
        "entry": 3769768,
        "entry_name": "Express",
        "event_total": 68,
        "has_played": true,
        "id": 28147357,
        "last_rank": 10462,
        "player_name": "Sam Pinner",
        "rank": 8296,
        "rank_sort": 8329,
        "total": 2403
      },
      {
        "club_badge_src": null,
        "entry": 3820297,
        "entry_name": "Huncho Squad",
        "event_total": 68,
        "has_played": true,
        "id": 28572455,
        "last_rank": 10462,
        "player_name": "Oladimeji Alabi",
        "rank": 8296,
        "rank_sort": 8330,
        "total": 2403
      },
      {
        "club_badge_src": null,
        "entry": 4035980,
        "entry_name": "Baddican",
        "event_total": 74,
        "has_played": true,
        "id": 30432361,
        "last_rank": 15416,
        "player_name": "Brooke Atkinson",
        "rank": 8296,
        "rank_sort": 8331,
        "total": 2403
      },
      {
        "club_badge_src": null,
        "entry": 5412565,
        "entry_name": "Wirtz Case Scenario",
        "event_total": 73,
        "has_played": true,
        "id": 42091086,
        "last_rank": 12846,
        "player_name": "Mehul Oza",
        "rank": 8296,
        "rank_sort": 8332,
        "total": 2403
      },
      {
        "club_badge_src": null,
        "entry": 5442029,
        "entry_name": "you wolves",
        "event_total": 49,
        "has_played": true,
        "id": 42341153,
        "last_rank": 5528,
        "player_name": "NJ Matt",
        "rank": 8296,
        "rank_sort": 8333,
        "total": 2403
      },
      {
        "club_badge_src": null,
        "entry": 5649594,
        "entry_name": "Yamanita",
        "event_total": 69,
        "has_played": true,
        "id": 44193844,
        "last_rank": 12705,
        "player_name": "Ahmed Elyamany",
        "rank": 8296,
        "rank_sort": 8334,
        "total": 2403
      },
      {
        "club_badge_src": null,
        "entry": 6119406,
        "entry_name": "ChangeNameLater",
        "event_total": 62,
        "has_played": true,
        "id": 48345371,
        "last_rank": 9536,
        "player_name": "Isaac Graves",
        "rank": 8296,
        "rank_sort": 8335,
        "total": 2403
      },
      {
        "club_badge_src": "https://fantasy.premierleague.com/gcs/plfpl-production-adobe-approved/plfpl-production/6298261/1762a2ce-42dd-4b37-926e-52566057891b.png",
        "entry": 6298261,
        "entry_name": "Humphamania",
        "event_total": 48,
        "has_played": true,
        "id": 49923625,
        "last_rank": 5281,
        "player_name": "Michael Humphrey",
        "rank": 8296,
        "rank_sort": 8336,
        "total": 2403
      },
      {
        "club_badge_src": null,
        "entry": 6651671,
        "entry_name": "szyszka",
        "event_total": 53,
        "has_played": true,
        "id": 53177075,
        "last_rank": 5498,
        "player_name": "szyszka szyszka",
        "rank": 8296,
        "rank_sort": 8337,
        "total": 2403
      },
      {
        "club_badge_src": null,
        "entry": 8043962,
        "entry_name": "It\u2019s coming home",
        "event_total": 60,
        "has_played": true,
        "id": 66282676,
        "last_rank": 8925,
        "player_name": "Thomas Brooke-Hollidge",
        "rank": 8296,
        "rank_sort": 8338,
        "total": 2403
      },
      {
        "club_badge_src": null,
        "entry": 8331988,
        "entry_name": "Amir's XI",
        "event_total": 65,
        "has_played": true,
        "id": 69033790,
        "last_rank": 10992,
        "player_name": "Amir Uddin",
        "rank": 8296,
        "rank_sort": 8339,
        "total": 2403
      },
      {
        "club_badge_src": null,
        "entry": 40241,
        "entry_name": "Red star caveman",
        "event_total": 62,
        "has_played": true,
        "id": 257987,
        "last_rank": 9711,
        "player_name": "Gary Aston",
        "rank": 8340,
        "rank_sort": 8340,
        "total": 2403
      },
      {
        "club_badge_src": "https://fantasy.premierleague.com/gcs/plfpl-production-adobe-approved/plfpl-production/139625/1fb94baf-a576-4f00-bc11-d133ea77f982.png",
        "entry": 139625,
        "entry_name": "Check-Mate!",
        "event_total": 50,
        "has_played": true,
        "id": 911417,
        "last_rank": 4839,
        "player_name": "Micha\u0142 Markiewicz",
        "rank": 8340,
        "rank_sort": 8341,
        "total": 2403
      },
      {
        "club_badge_src": null,
        "entry": 152408,
        "entry_name": "Maestro",
        "event_total": 59,
        "has_played": true,
        "id": 1000280,
        "last_rank": 7193,
        "player_name": "Haitham Alzamzamy",
        "rank": 8340,
        "rank_sort": 8342,
        "total": 2403
      },
      {
        "club_badge_src": null,
        "entry": 157472,
        "entry_name": "Kinder Mbeumo",
        "event_total": 60,
        "has_played": true,
        "id": 1035948,
        "last_rank": 7501,
        "player_name": "Matthew Le",
        "rank": 8340,
        "rank_sort": 8343,
        "total": 2403
      },
      {
        "club_badge_src": "https://fantasy.premierleague.com/gcs/plfpl-production-adobe-approved/plfpl-production/256183/da43e250-a66a-415d-826f-00f300428c57.png",
        "entry": 256183,
        "entry_name": "Bandabanda",
        "event_total": 58,
        "has_played": true,
        "id": 1703858,
        "last_rank": 5646,
        "player_name": "Andr\u00e1s Sebesty\u00e9n-Saszet",
        "rank": 8340,
        "rank_sort": 8344,
        "total": 2403
      },
      {
        "club_badge_src": null,
        "entry": 328441,
        "entry_name": "KARIMTEAM.LB",
        "event_total": 62,
        "has_played": true,
        "id": 2200304,
        "last_rank": 9751,
        "player_name": "Karim El Mohtar",
        "rank": 8340,
        "rank_sort": 8345,
        "total": 2403
      },
      {
        "club_badge_src": null,
        "entry": 383384,
        "entry_name": "New Yoro Yankees",
        "event_total": 76,
        "has_played": true,
        "id": 2571129,
        "last_rank": 16959,
        "player_name": "Nicolai R\u00f8svik",
        "rank": 8340,
        "rank_sort": 8346,
        "total": 2403
      },
      {
        "club_badge_src": null,
        "entry": 493276,
        "entry_name": "Protput",
        "event_total": 56,
        "has_played": true,
        "id": 3311214,
        "last_rank": 5241,
        "player_name": "Alain Van Roost",
        "rank": 8340,
        "rank_sort": 8347,
        "total": 2403
      },
      {
        "club_badge_src": null,
        "entry": 546029,
        "entry_name": "The Macateers",
        "event_total": 75,
        "has_played": true,
        "id": 3674742,
        "last_rank": 14040,
        "player_name": "Pete McMillan",
        "rank": 8340,
        "rank_sort": 8348,
        "total": 2403
      },
      {
        "club_badge_src": null,
        "entry": 613052,
        "entry_name": "\u0627\u062d\u0645\u062f \u0627\u0628\u0648\u0642\u0645\u064a\u062d\u0647",
        "event_total": 61,
        "has_played": true,
        "id": 4142328,
        "last_rank": 9350,
        "player_name": "\u0627\u062d\u0645\u062f \u0627\u0628\u0648\u0642\u0645\u064a\u062d\u0647",
        "rank": 8340,
        "rank_sort": 8349,
        "total": 2403
      },
      {
        "club_badge_src": null,
        "entry": 689514,
        "entry_name": "Dilly FC",
        "event_total": 56,
        "has_played": true,
        "id": 4668588,
        "last_rank": 6305,
        "player_name": "Lucas Jones",
        "rank": 8340,
        "rank_sort": 8350,
        "total": 2403
      }
    ]
  }
}