{
  "last_updated_data": "2026-05-24T23:28:17Z",
  "league": {
    "admin_entry": null,
    "closed": false,
    "code_privacy": "p",
    "created": "2025-07-20T23:14:33.933835Z",
    "cup_league": 2815434,
    "has_cup": true,
    "id": 314,
    "league_type": "s",
    "max_entries": null,
    "name": "Overall",
    "rank": null,
    "scoring": "c",
    "start_event": 1
  },
  "new_entries": {
    "has_next": false,
    "page": 1,
    "results": []
  },
  "standings": {
    "has_next": true,
    "page": 106,
    "results": [
      {
        "club_badge_src": null,
        "entry": 3838889,
        "entry_name": "Alisson Wonderland",
        "event_total": 64,
        "has_played": true,
        "id": 28741939,
        "last_rank": 6647,
        "player_name": "Matthew Wigelsworth",
        "rank": 5248,
        "rank_sort": 5251,
        "total": 2414
      },
      {
        "club_badge_src": null,
        "entry": 4487918,
        "entry_name": "Herminator's 11",
        "event_total": 60,
        "has_played": true,
        "id": 34207621,
        "last_rank": 5591,
        "player_name": "Hermaan Kohli",
        "rank": 5248,
        "rank_sort": 5252,
        "total": 2414
      },
      {
        "club_badge_src": "https://fantasy.premierleague.com/gcs/plfpl-production-adobe-approved/plfpl-production/4569737/a30fb368-fdfa-430c-8a57-beae3417a0aa.png",
        "entry": 4569737,
        "entry_name": "Massive Vibes",
        "event_total": 71,
        "has_played": true,
        "id": 34874447,
        "last_rank": 9015,
        "player_name": "Mike Shen",
        "rank": 5248,
        "rank_sort": 5253,
        "total": 2414
      },
      {
        "club_badge_src": null,
        "entry": 6137738,
        "entry_name": "Khaled Mohamed",
        "event_total": 60,
        "has_played": true,
        "id": 48506031,
        "last_rank": 5591,
        "player_name": "Khaled Mohamed",
        "rank": 5248,
        "rank_sort": 5254,
        "total": 2414
      },
      {
        "club_badge_src": null,
        "entry": 323018,
        "entry_name": "RememberUs",
        "event_total": 57,
        "has_played": true,
        "id": 2164689,
        "last_rank": 4899,
        "player_name": "Barry Greenlee",
        "rank": 5255,
        "rank_sort": 5255,
        "total": 2414
      },
      {
        "club_badge_src": "https://fantasy.premierleague.com/gcs/plfpl-production-adobe-approved/plfpl-production/3437920/e75f8e3c-2eae-4ce5-b26d-3e39f6993249.png",
        "entry": 3437920,
        "entry_name": "MTA",
        "event_total": 67,
        "has_played": true,
        "id": 25540372,
        "last_rank": 5348,
        "player_name": "Mohamed Tarek",
        "rank": 5255,
        "rank_sort": 5256,
        "total": 2414
      },
      {
        "club_badge_src": null,
        "entry": 466597,
        "entry_name": "Paolo di Canio",
        "event_total": 56,
        "has_played": true,
        "id": 3130631,
        "last_rank": 4676,
        "player_name": "David McFall",
        "rank": 5257,
        "rank_sort": 5257,
        "total": 2414
      },
      {
        "club_badge_src": null,
        "entry": 4046214,
        "entry_name": "Norfolk & Chance",
        "event_total": 57,
        "has_played": true,
        "id": 30518133,
        "last_rank": 4026,
        "player_name": "Martin Vance",
        "rank": 5257,
        "rank_sort": 5258,
        "total": 2414
      },
      {
        "club_badge_src": "https://fantasy.premierleague.com/gcs/plfpl-production-adobe-approved/plfpl-production/3314962/a540a0ed-32a7-4edd-a17c-6d232e684a5a.png",
        "entry": 3314962,
        "entry_name": "Munchkin",
        "event_total": 55,
        "has_played": true,
        "id": 24561960,
        "last_rank": 4457,
        "player_name": "Blair Eddyson",
        "rank": 5259,
        "rank_sort": 5259,
        "total": 2414
      },
      {
        "club_badge_src": "https://fantasy.premierleague.com/gcs/plfpl-production-adobe-approved/plfpl-production/7675424/87f7e0cd-847c-46c5-9359-854b159b3b03.png",
        "entry": 7675424,
        "entry_name": "Thudd 2.0",
        "event_total": 57,
        "has_played": true,
        "id": 62950311,
        "last_rank": 4903,
        "player_name": "ben williams",
        "rank": 5259,
        "rank_sort": 5260,
        "total": 2414
      },
      {
        "club_badge_src": null,
        "entry": 796962,
        "entry_name": "Fabre",
        "event_total": 56,
        "has_played": true,
        "id": 5454602,
        "last_rank": 4676,
        "player_name": "Hussien Ibrahim",
        "rank": 5261,
        "rank_sort": 5261,
        "total": 2414
      },
      {
        "club_badge_src": null,
        "entry": 5798808,
        "entry_name": "Kinder Mbuemo",
        "event_total": 63,
        "has_played": true,
        "id": 45487929,
        "last_rank": 5370,
        "player_name": "Yordan Yordanov",
        "rank": 5261,
        "rank_sort": 5262,
        "total": 2414
      },
      {
        "club_badge_src": "https://fantasy.premierleague.com/gcs/plfpl-production-adobe-approved/plfpl-production/4178934/f9830a63-32d4-4f0d-bc4d-d5917ad91eff.png",
        "entry": 4178934,
        "entry_name": "Shook Ones Pt XVI",
        "event_total": 66,
        "has_played": true,
        "id": 31612073,
        "last_rank": 6135,
        "player_name": "Seamus Kennedy",
        "rank": 5263,
        "rank_sort": 5263,
        "total": 2414
      },
      {
        "club_badge_src": null,
        "entry": 579556,
        "entry_name": "Bully Taothong  Fc",
        "event_total": 56,
        "has_played": true,
        "id": 3899551,
        "last_rank": 3218,
        "player_name": "Sanit Taothong",
        "rank": 5264,
        "rank_sort": 5264,
        "total": 2414
      },
      {
        "club_badge_src": null,
        "entry": 2692658,
        "entry_name": "Ants fantasy",
        "event_total": 65,
        "has_played": true,
        "id": 19368320,
        "last_rank": 5875,
        "player_name": "anthony elkan",
        "rank": 5265,
        "rank_sort": 5265,
        "total": 2414
      },
      {
        "club_badge_src": null,
        "entry": 237986,
        "entry_name": "Yoro melt",
        "event_total": 53,
        "has_played": true,
        "id": 1583317,
        "last_rank": 4040,
        "player_name": "Madhav Basu",
        "rank": 5266,
        "rank_sort": 5266,
        "total": 2413
      },
      {
        "club_badge_src": null,
        "entry": 7848145,
        "entry_name": "McNeil Deal",
        "event_total": 55,
        "has_played": true,
        "id": 64514783,
        "last_rank": 3685,
        "player_name": "Iwan Jerman",
        "rank": 5266,
        "rank_sort": 5267,
        "total": 2413
      },
      {
        "club_badge_src": null,
        "entry": 8310420,
        "entry_name": "ABCDEFC",
        "event_total": 59,
        "has_played": true,
        "id": 68819705,
        "last_rank": 5378,
        "player_name": "Andy H",
        "rank": 5266,
        "rank_sort": 5268,
        "total": 2413
      },
      {
        "club_badge_src": null,
        "entry": 451095,
        "entry_name": "Le\u0161ko mBOOMo",
        "event_total": 54,
        "has_played": true,
        "id": 3026458,
        "last_rank": 4257,
        "player_name": "Shivan Anthony Sunny",
        "rank": 5269,
        "rank_sort": 5269,
        "total": 2413
      },
      {
        "club_badge_src": null,
        "entry": 608049,
        "entry_name": "Change Name",
        "event_total": 56,
        "has_played": true,
        "id": 4106708,
        "last_rank": 4684,
        "player_name": "Haroon Ahmed",
        "rank": 5269,
        "rank_sort": 5270,
        "total": 2413
      },
      {
        "club_badge_src": null,
        "entry": 8960158,
        "entry_name": "cross my hart",
        "event_total": 37,
        "has_played": true,
        "id": 75097343,
        "last_rank": 1853,
        "player_name": "John Hart",
        "rank": 5269,
        "rank_sort": 5271,
        "total": 2413
      },
      {
        "club_badge_src": null,
        "entry": 256182,
        "entry_name": "The goonies",
        "event_total": 57,
        "has_played": true,
        "id": 1703865,
        "last_rank": 4930,
        "player_name": "Robin Lanai",
        "rank": 5272,
        "rank_sort": 5272,
        "total": 2413
      },
      {
        "club_badge_src": "https://fantasy.premierleague.com/gcs/plfpl-production-adobe-approved/plfpl-production/292393/1edbad3f-5872-45d3-af5d-574ec57b0475.png",
        "entry": 292393,
        "entry_name": "Baby I\u2019m Wirtz It",
        "event_total": 54,
        "has_played": true,
        "id": 1950981,
        "last_rank": 4270,
        "player_name": "Shaik Azeem Hussain",
        "rank": 5272,
        "rank_sort": 5273,
        "total": 2413
      },
      {
        "club_badge_src": null,
        "entry": 847322,
        "entry_name": "Magpies4ever",
        "event_total": 58,
        "has_played": true,
        "id": 5806807,
        "last_rank": 5135,
        "player_name": "James Suggett",
        "rank": 5272,
        "rank_sort": 5274,
        "total": 2413
      },
      {
        "club_badge_src": null,
        "entry": 3090636,
        "entry_name": "ML The Boss",
        "event_total": 52,
        "has_played": true,
        "id": 22777491,
        "last_rank": 3866,
        "player_name": "Malte Lundh",
        "rank": 5272,
        "rank_sort": 5275,
        "total": 2413
      },
      {
        "club_badge_src": null,
        "entry": 4322736,
        "entry_name": "OverDelaping",
        "event_total": 47,
        "has_played": true,
        "id": 32806846,
        "last_rank": 3066,
        "player_name": "Adam Conduit",
        "rank": 5272,
        "rank_sort": 5276,
        "total": 2413
      },
      {
        "club_badge_src": null,
        "entry": 5186313,
        "entry_name": "Gooners To Glory",
        "event_total": 65,
        "has_played": true,
        "id": 40147904,
        "last_rank": 6994,
        "player_name": "Lewis Johnson",
        "rank": 5272,
        "rank_sort": 5277,
        "total": 2413
      },
      {
        "club_badge_src": null,
        "entry": 7138729,
        "entry_name": "Colmers nightmare",
        "event_total": 58,
        "has_played": true,
        "id": 57543238,
        "last_rank": 5135,
        "player_name": "Jack Sardena",
        "rank": 5272,
        "rank_sort": 5278,
        "total": 2413
      },
      {
        "club_badge_src": null,
        "entry": 7502508,
        "entry_name": "trollsteinenga fc",
        "event_total": 51,
        "has_played": true,
        "id": 61308894,
        "last_rank": 3691,
        "player_name": "Per Folde",
        "rank": 5272,
        "rank_sort": 5279,
        "total": 2413
      },
      {
        "club_badge_src": null,
        "entry": 33826,
        "entry_name": "#bwfc_03",
        "event_total": 74,
        "has_played": true,
        "id": 215932,
        "last_rank": 10247,
        "player_name": "CJ White",
        "rank": 5280,
        "rank_sort": 5280,
        "total": 2413
      },
      {
        "club_badge_src": null,
        "entry": 1418196,
        "entry_name": "Cunha believe it",
        "event_total": 80,
        "has_played": true,
        "id": 9874271,
        "last_rank": 13132,
        "player_name": "James Pitcher",
        "rank": 5280,
        "rank_sort": 5281,
        "total": 2413
      },
      {
        "club_badge_src": null,
        "entry": 2062934,
        "entry_name": "CheekyNinjas",
        "event_total": 67,
        "has_played": true,
        "id": 14617424,
        "last_rank": 7588,
        "player_name": "Kristian K",
        "rank": 5280,
        "rank_sort": 5282,
        "total": 2413
      },
      {
        "club_badge_src": null,
        "entry": 3136699,
        "entry_name": "VARbus A320",
        "event_total": 54,
        "has_played": true,
        "id": 23154746,
        "last_rank": 4303,
        "player_name": "Bradley Maybury",
        "rank": 5280,
        "rank_sort": 5283,
        "total": 2413
      },
      {
        "club_badge_src": null,
        "entry": 4160641,
        "entry_name": "InterSpitalfields",
        "event_total": 33,
        "has_played": true,
        "id": 31455977,
        "last_rank": 1523,
        "player_name": "Simon Algie",
        "rank": 5280,
        "rank_sort": 5284,
        "total": 2413
      },
      {
        "club_badge_src": null,
        "entry": 4811903,
        "entry_name": "Chicken Tikka MoSala",
        "event_total": 37,
        "has_played": true,
        "id": 37051414,
        "last_rank": 1880,
        "player_name": "Siddhant Meshram",
        "rank": 5280,
        "rank_sort": 5285,
        "total": 2413
      },
      {
        "club_badge_src": null,
        "entry": 5789833,
        "entry_name": "Los Mattadors",
        "event_total": 63,
        "has_played": true,
        "id": 45407486,
        "last_rank": 6386,
        "player_name": "Matt Davis",
        "rank": 5280,
        "rank_sort": 5286,
        "total": 2413
      },
      {
        "club_badge_src": null,
        "entry": 7560540,
        "entry_name": "Zero Wasters",
        "event_total": 62,
        "has_played": true,
        "id": 61906797,
        "last_rank": 6166,
        "player_name": "Paul Cooke",
        "rank": 5280,
        "rank_sort": 5287,
        "total": 2413
      },
      {
        "club_badge_src": null,
        "entry": 7563108,
        "entry_name": "MassiveClub",
        "event_total": 63,
        "has_played": true,
        "id": 61929751,
        "last_rank": 6448,
        "player_name": "Adam Lomax",
        "rank": 5280,
        "rank_sort": 5288,
        "total": 2413
      },
      {
        "club_badge_src": null,
        "entry": 8369652,
        "entry_name": "Remember1919",
        "event_total": 67,
        "has_played": true,
        "id": 69391498,
        "last_rank": 7592,
        "player_name": "Stefaan Corthals",
        "rank": 5280,
        "rank_sort": 5289,
        "total": 2413
      },
      {
        "club_badge_src": "https://fantasy.premierleague.com/gcs/plfpl-production-adobe-approved/plfpl-production/1074/435bd8c1-fa46-47ea-a74c-2b6ae29a3b8b.png",
        "entry": 1074,
        "entry_name": "Not this again",
        "event_total": 56,
        "has_played": true,
        "id": 5959,
        "last_rank": 4704,
        "player_name": "Rob Matthews",
        "rank": 5290,
        "rank_sort": 5290,
        "total": 2413
      },
      {
        "club_badge_src": null,
        "entry": 1518,
        "entry_name": "BaD InTeNsiOnS",
        "event_total": 66,
        "has_played": true,
        "id": 8445,
        "last_rank": 7310,
        "player_name": "Antony Kavin",
        "rank": 5290,
        "rank_sort": 5291,
        "total": 2413
      },
      {
        "club_badge_src": "https://fantasy.premierleague.com/gcs/plfpl-production-adobe-approved/plfpl-production/2832/822a78cf-2e47-40d1-bafe-a288280f32f6.png",
        "entry": 2832,
        "entry_name": "Marco Pantani's Ears",
        "event_total": 56,
        "has_played": true,
        "id": 15926,
        "last_rank": 4704,
        "player_name": "Patrick Winterbottom",
        "rank": 5290,
        "rank_sort": 5292,
        "total": 2413
      },
      {
        "club_badge_src": null,
        "entry": 7934,
        "entry_name": "Wirtz case scenario",
        "event_total": 69,
        "has_played": true,
        "id": 45859,
        "last_rank": 8382,
        "player_name": "Henrik Bugsett",
        "rank": 5290,
        "rank_sort": 5293,
        "total": 2413
      },
      {
        "club_badge_src": "https://fantasy.premierleague.com/gcs/plfpl-production-adobe-approved/plfpl-production/8117/6f1be077-f2f0-47ca-80da-193e8072a4fb.png",
        "entry": 8117,
        "entry_name": "FPL Growth Mindset",
        "event_total": 57,
        "has_played": true,
        "id": 47013,
        "last_rank": 4954,
        "player_name": "Chedsada Netkhaem",
        "rank": 5290,
        "rank_sort": 5294,
        "total": 2413
      },
      {
        "club_badge_src": null,
        "entry": 9147,
        "entry_name": "Midnight Snakes",
        "event_total": 67,
        "has_played": true,
        "id": 53633,
        "last_rank": 7625,
        "player_name": "Will Clark",
        "rank": 5290,
        "rank_sort": 5295,
        "total": 2413
      },
      {
        "club_badge_src": null,
        "entry": 11921,
        "entry_name": "Relegation XI",
        "event_total": 65,
        "has_played": true,
        "id": 71106,
        "last_rank": 7014,
        "player_name": "Ruben Byman",
        "rank": 5290,
        "rank_sort": 5296,
        "total": 2413
      },
      {
        "club_badge_src": "https://fantasy.premierleague.com/gcs/plfpl-production-adobe-approved/plfpl-production/17058/eabb2005-509a-4053-a95a-54b938568108.png",
        "entry": 17058,
        "entry_name": "AndIMizMyLover",
        "event_total": 68,
        "has_played": true,
        "id": 105681,
        "last_rank": 8032,
        "player_name": "Daniel Clark",
        "rank": 5290,
        "rank_sort": 5297,
        "total": 2413
      },
      {
        "club_badge_src": null,
        "entry": 53549,
        "entry_name": "aypapi",
        "event_total": 68,
        "has_played": true,
        "id": 344539,
        "last_rank": 7979,
        "player_name": "Da\u00f0i Steinn",
        "rank": 5290,
        "rank_sort": 5298,
        "total": 2413
      },
      {
        "club_badge_src": null,
        "entry": 65097,
        "entry_name": "SquadGoals",
        "event_total": 65,
        "has_played": true,
        "id": 420186,
        "last_rank": 7059,
        "player_name": "Benjamin Dokken",
        "rank": 5290,
        "rank_sort": 5299,
        "total": 2413
      },
      {
        "club_badge_src": "https://fantasy.premierleague.com/gcs/plfpl-production-adobe-approved/plfpl-production/81465/ba4b51b2-a66e-457f-ab3d-6d6550815729.png",
        "entry": 81465,
        "entry_name": "Artekkers",
        "event_total": 55,
        "has_played": true,
        "id": 529965,
        "last_rank": 4515,
        "player_name": "Michael Lawson",
        "rank": 5290,
        "rank_sort": 5300,
        "total": 2413
      }
    ]
  }
}