{
  "last_updated_data": "2026-05-24T23:28:17Z",
  "league": {
    "admin_entry": null,
    "closed": false,
    "code_privacy": "p",
    "created": "2025-07-20T23:14:33.933835Z",
    "cup_league": 2815434,
    "has_cup": true,
    "id": 314,
    "league_type": "s",
    "max_entries": null,
    "name": "Overall",
    "rank": null,
    "scoring": "c",
    "start_event": 1
  },
  "new_entries": {
    "has_next": false,
    "page": 1,
    "results": []
  },
  "standings": {
    "has_next": true,
    "page": 1362,
    "results": [
      {
        "club_badge_src": null,
        "entry": 3865749,
        "entry_name": "Wirtz Class FC",
        "event_total": 54,
        "has_played": true,
        "id": 28986725,
        "last_rank": 63117,
        "player_name": "Luke Gluszynski",
        "rank": 67829,
        "rank_sort": 68051,
        "total": 2341
      },
      {
        "club_badge_src": null,
        "entry": 3873584,
        "entry_name": "Tom tom tom",
        "event_total": 65,
        "has_played": true,
        "id": 29080914,
        "last_rank": 86054,
        "player_name": "Adam Schwalm",
        "rank": 67829,
        "rank_sort": 68052,
        "total": 2341
      },
      {
        "club_badge_src": null,
        "entry": 3883999,
        "entry_name": "Clare's Bears",
        "event_total": 63,
        "has_played": true,
        "id": 29184698,
        "last_rank": 81646,
        "player_name": "Clare Lanchbery",
        "rank": 67829,
        "rank_sort": 68053,
        "total": 2341
      },
      {
        "club_badge_src": null,
        "entry": 3907840,
        "entry_name": "Nurlan5478",
        "event_total": 60,
        "has_played": true,
        "id": 29379947,
        "last_rank": 75139,
        "player_name": "Nurlan Baghirov",
        "rank": 67829,
        "rank_sort": 68054,
        "total": 2341
      },
      {
        "club_badge_src": null,
        "entry": 3912423,
        "entry_name": "Vegas 11",
        "event_total": 39,
        "has_played": true,
        "id": 29416176,
        "last_rank": 40036,
        "player_name": "Ben Gulliford",
        "rank": 67829,
        "rank_sort": 68055,
        "total": 2341
      },
      {
        "club_badge_src": null,
        "entry": 3924263,
        "entry_name": "Genesis",
        "event_total": 62,
        "has_played": true,
        "id": 29511393,
        "last_rank": 79431,
        "player_name": "Antonius Rafael",
        "rank": 67829,
        "rank_sort": 68056,
        "total": 2341
      },
      {
        "club_badge_src": null,
        "entry": 3930933,
        "entry_name": "YSAJ",
        "event_total": 74,
        "has_played": true,
        "id": 29564375,
        "last_rank": 108567,
        "player_name": "Yazeed Alajaji",
        "rank": 67829,
        "rank_sort": 68057,
        "total": 2341
      },
      {
        "club_badge_src": null,
        "entry": 3935761,
        "entry_name": "Template FC",
        "event_total": 64,
        "has_played": true,
        "id": 29604562,
        "last_rank": 83698,
        "player_name": "Daniel Rogan",
        "rank": 67829,
        "rank_sort": 68058,
        "total": 2341
      },
      {
        "club_badge_src": null,
        "entry": 3987963,
        "entry_name": "Dodgy's Dodgers",
        "event_total": 62,
        "has_played": true,
        "id": 30025842,
        "last_rank": 79431,
        "player_name": "Daljit Dulai",
        "rank": 67829,
        "rank_sort": 68059,
        "total": 2341
      },
      {
        "club_badge_src": null,
        "entry": 4003275,
        "entry_name": "Bringing Sesko back",
        "event_total": 64,
        "has_played": true,
        "id": 30154231,
        "last_rank": 83934,
        "player_name": "David Peat",
        "rank": 67829,
        "rank_sort": 68060,
        "total": 2341
      },
      {
        "club_badge_src": null,
        "entry": 4034230,
        "entry_name": "borabubFc",
        "event_total": 69,
        "has_played": true,
        "id": 30417971,
        "last_rank": 95640,
        "player_name": "Rca chhakchhuak",
        "rank": 67829,
        "rank_sort": 68061,
        "total": 2341
      },
      {
        "club_badge_src": null,
        "entry": 4073715,
        "entry_name": "dukes of hazard",
        "event_total": 61,
        "has_played": true,
        "id": 30749396,
        "last_rank": 77050,
        "player_name": "joanne gomersall",
        "rank": 67829,
        "rank_sort": 68062,
        "total": 2341
      },
      {
        "club_badge_src": "https://fantasy.premierleague.com/gcs/plfpl-production-adobe-approved/plfpl-production/4111368/cd675370-34bd-4b16-92ac-7e1b2790c43e.png",
        "entry": 4111368,
        "entry_name": "Pharhaz Turan",
        "event_total": 50,
        "has_played": true,
        "id": 31050193,
        "last_rank": 56369,
        "player_name": "Pharhaz Pharah",
        "rank": 67829,
        "rank_sort": 68063,
        "total": 2341
      },
      {
        "club_badge_src": null,
        "entry": 4120901,
        "entry_name": "Cobra Kai Havertz",
        "event_total": 66,
        "has_played": true,
        "id": 31132685,
        "last_rank": 88348,
        "player_name": "Ilian DeCorte",
        "rank": 67829,
        "rank_sort": 68064,
        "total": 2341
      },
      {
        "club_badge_src": null,
        "entry": 4121337,
        "entry_name": "Frozenbergers",
        "event_total": 49,
        "has_played": true,
        "id": 31136215,
        "last_rank": 55014,
        "player_name": "Matthew Rosenberg",
        "rank": 67829,
        "rank_sort": 68065,
        "total": 2341
      },
      {
        "club_badge_src": null,
        "entry": 4138411,
        "entry_name": "BaileyFC",
        "event_total": 59,
        "has_played": true,
        "id": 31275908,
        "last_rank": 73038,
        "player_name": "Kyrri Ellefsen",
        "rank": 67829,
        "rank_sort": 68066,
        "total": 2341
      },
      {
        "club_badge_src": "https://fantasy.premierleague.com/gcs/plfpl-production-adobe-approved/plfpl-production/4169674/c1dba6e6-caf7-4f69-bd6c-8c1dbe6b7d6d.png",
        "entry": 4169674,
        "entry_name": "IF Perstad Fotboll",
        "event_total": 62,
        "has_played": true,
        "id": 31534198,
        "last_rank": 79431,
        "player_name": "Per Bergsman",
        "rank": 67829,
        "rank_sort": 68067,
        "total": 2341
      },
      {
        "club_badge_src": null,
        "entry": 4221476,
        "entry_name": "Palmer Again",
        "event_total": 52,
        "has_played": true,
        "id": 31978371,
        "last_rank": 59632,
        "player_name": "Jake Theo",
        "rank": 67829,
        "rank_sort": 68068,
        "total": 2341
      },
      {
        "club_badge_src": "https://fantasy.premierleague.com/gcs/plfpl-production-adobe-approved/plfpl-production/4279439/76802602-ab9b-4a3b-b382-fff883191db9.png",
        "entry": 4279439,
        "entry_name": "zeni-ball",
        "event_total": 63,
        "has_played": true,
        "id": 32455311,
        "last_rank": 81646,
        "player_name": "Maximilian Asor",
        "rank": 67829,
        "rank_sort": 68069,
        "total": 2341
      },
      {
        "club_badge_src": null,
        "entry": 4302502,
        "entry_name": "CatchMeeIfUHwang",
        "event_total": 50,
        "has_played": true,
        "id": 32642284,
        "last_rank": 56180,
        "player_name": "Alexander Wheeler",
        "rank": 67829,
        "rank_sort": 68070,
        "total": 2341
      },
      {
        "club_badge_src": "https://fantasy.premierleague.com/gcs/plfpl-production-adobe-approved/plfpl-production/4388076/96369be1-8606-44ac-974b-a6f3ec59642c.png",
        "entry": 4388076,
        "entry_name": "ALISMADIFC",
        "event_total": 57,
        "has_played": true,
        "id": 33355865,
        "last_rank": 68957,
        "player_name": "Ali Alsmadi",
        "rank": 67829,
        "rank_sort": 68071,
        "total": 2341
      },
      {
        "club_badge_src": null,
        "entry": 4396862,
        "entry_name": "KudusToYou!",
        "event_total": 64,
        "has_played": true,
        "id": 33433893,
        "last_rank": 83934,
        "player_name": "Monsieur Sniper",
        "rank": 67829,
        "rank_sort": 68072,
        "total": 2341
      },
      {
        "club_badge_src": null,
        "entry": 4408244,
        "entry_name": "Jordan Ayew Ready?",
        "event_total": 70,
        "has_played": true,
        "id": 33531574,
        "last_rank": 98073,
        "player_name": "Matthew Glazebrook",
        "rank": 67829,
        "rank_sort": 68073,
        "total": 2341
      },
      {
        "club_badge_src": null,
        "entry": 4457912,
        "entry_name": "Cold Palmer",
        "event_total": 66,
        "has_played": true,
        "id": 33960334,
        "last_rank": 89055,
        "player_name": "max wakeford",
        "rank": 67829,
        "rank_sort": 68074,
        "total": 2341
      },
      {
        "club_badge_src": null,
        "entry": 4494728,
        "entry_name": "Shoulda Woulda Kudus",
        "event_total": 67,
        "has_played": true,
        "id": 34263399,
        "last_rank": 91006,
        "player_name": "Nick Fitzgerald",
        "rank": 67829,
        "rank_sort": 68075,
        "total": 2341
      },
      {
        "club_badge_src": null,
        "entry": 4498530,
        "entry_name": "Morrishamed Salah",
        "event_total": 40,
        "has_played": true,
        "id": 34294193,
        "last_rank": 41617,
        "player_name": "Roisin Morrish",
        "rank": 67829,
        "rank_sort": 68076,
        "total": 2341
      },
      {
        "club_badge_src": null,
        "entry": 4519319,
        "entry_name": "Tel me Kudus",
        "event_total": 75,
        "has_played": true,
        "id": 34464951,
        "last_rank": 111270,
        "player_name": "Alex Flood",
        "rank": 67829,
        "rank_sort": 68077,
        "total": 2341
      },
      {
        "club_badge_src": null,
        "entry": 4576885,
        "entry_name": "Stone Cold Sesko",
        "event_total": 53,
        "has_played": true,
        "id": 34936209,
        "last_rank": 61315,
        "player_name": "Alex Korajczyk",
        "rank": 67829,
        "rank_sort": 68078,
        "total": 2341
      },
      {
        "club_badge_src": null,
        "entry": 4593717,
        "entry_name": "Beto-tiful Brunk",
        "event_total": 75,
        "has_played": true,
        "id": 35080987,
        "last_rank": 111405,
        "player_name": "Sebastian Stenberg",
        "rank": 67829,
        "rank_sort": 68079,
        "total": 2341
      },
      {
        "club_badge_src": null,
        "entry": 4595260,
        "entry_name": "Tierney Henry",
        "event_total": 37,
        "has_played": true,
        "id": 35094627,
        "last_rank": 37589,
        "player_name": "Gustav Burman",
        "rank": 67829,
        "rank_sort": 68080,
        "total": 2341
      },
      {
        "club_badge_src": null,
        "entry": 4599215,
        "entry_name": "7123",
        "event_total": 75,
        "has_played": true,
        "id": 35129140,
        "last_rank": 111203,
        "player_name": "SC Wong",
        "rank": 67829,
        "rank_sort": 68081,
        "total": 2341
      },
      {
        "club_badge_src": "https://fantasy.premierleague.com/gcs/plfpl-production-adobe-approved/plfpl-production/4683534/db70cfd0-3ec3-456c-a3df-5a705088dd62.png",
        "entry": 4683534,
        "entry_name": "Zoe",
        "event_total": 60,
        "has_played": true,
        "id": 35890336,
        "last_rank": 74898,
        "player_name": "Onyebuchi Opiti",
        "rank": 67829,
        "rank_sort": 68082,
        "total": 2341
      },
      {
        "club_badge_src": null,
        "entry": 4736555,
        "entry_name": "Banished to Riyadh",
        "event_total": 65,
        "has_played": true,
        "id": 36442669,
        "last_rank": 86304,
        "player_name": "Chris .",
        "rank": 67829,
        "rank_sort": 68083,
        "total": 2341
      },
      {
        "club_badge_src": null,
        "entry": 4831603,
        "entry_name": "Sesko In The City",
        "event_total": 50,
        "has_played": true,
        "id": 37213657,
        "last_rank": 56369,
        "player_name": "Greg Conlon",
        "rank": 67829,
        "rank_sort": 68084,
        "total": 2341
      },
      {
        "club_badge_src": null,
        "entry": 4870662,
        "entry_name": "Silva Surfer",
        "event_total": 55,
        "has_played": true,
        "id": 37542508,
        "last_rank": 64943,
        "player_name": "Prem kc",
        "rank": 67829,
        "rank_sort": 68085,
        "total": 2341
      },
      {
        "club_badge_src": null,
        "entry": 4877336,
        "entry_name": "Wirtz Partey Ever",
        "event_total": 73,
        "has_played": true,
        "id": 37597155,
        "last_rank": 105963,
        "player_name": "Tom White de Groote",
        "rank": 67829,
        "rank_sort": 68086,
        "total": 2341
      },
      {
        "club_badge_src": null,
        "entry": 5086365,
        "entry_name": "\u0647\u0646\u062a\u0631 \u0647\u0646\u062a\u0631 \u0664",
        "event_total": 66,
        "has_played": true,
        "id": 39312119,
        "last_rank": 88594,
        "player_name": "Abdel dafee lbrahim -",
        "rank": 67829,
        "rank_sort": 68087,
        "total": 2341
      },
      {
        "club_badge_src": null,
        "entry": 5089573,
        "entry_name": "Change Name",
        "event_total": 57,
        "has_played": true,
        "id": 39337551,
        "last_rank": 68957,
        "player_name": "Colt Ratchford",
        "rank": 67829,
        "rank_sort": 68088,
        "total": 2341
      },
      {
        "club_badge_src": null,
        "entry": 5144660,
        "entry_name": "iDuB x Woody",
        "event_total": 68,
        "has_played": true,
        "id": 39798936,
        "last_rank": 93186,
        "player_name": "Harry Murphy",
        "rank": 67829,
        "rank_sort": 68089,
        "total": 2341
      },
      {
        "club_badge_src": "https://fantasy.premierleague.com/gcs/plfpl-production-adobe-approved/plfpl-production/5162110/9daafda9-e19a-4422-94b2-f07f0b7ea58a.png",
        "entry": 5162110,
        "entry_name": "Livin' Saliba Loca",
        "event_total": 53,
        "has_played": true,
        "id": 39946939,
        "last_rank": 61606,
        "player_name": "Mike Messenger",
        "rank": 67829,
        "rank_sort": 68090,
        "total": 2341
      },
      {
        "club_badge_src": null,
        "entry": 5201044,
        "entry_name": "Ettifaq",
        "event_total": 53,
        "has_played": true,
        "id": 40279960,
        "last_rank": 61411,
        "player_name": "mohamett liibaan",
        "rank": 67829,
        "rank_sort": 68091,
        "total": 2341
      },
      {
        "club_badge_src": null,
        "entry": 5238878,
        "entry_name": "Tarven FC",
        "event_total": 59,
        "has_played": true,
        "id": 40599050,
        "last_rank": 73038,
        "player_name": "H\u00e5kon \u00d8vstedal",
        "rank": 67829,
        "rank_sort": 68092,
        "total": 2341
      },
      {
        "club_badge_src": null,
        "entry": 5243227,
        "entry_name": "Kum FC",
        "event_total": 64,
        "has_played": true,
        "id": 40634245,
        "last_rank": 84360,
        "player_name": "Ek An",
        "rank": 67829,
        "rank_sort": 68093,
        "total": 2341
      },
      {
        "club_badge_src": null,
        "entry": 5266107,
        "entry_name": "To De Gea bar",
        "event_total": 62,
        "has_played": true,
        "id": 40815725,
        "last_rank": 79817,
        "player_name": "Paul McGea",
        "rank": 67829,
        "rank_sort": 68094,
        "total": 2341
      },
      {
        "club_badge_src": null,
        "entry": 5332766,
        "entry_name": "Parsa",
        "event_total": 52,
        "has_played": true,
        "id": 41342701,
        "last_rank": 60168,
        "player_name": "Onni Domisch",
        "rank": 67829,
        "rank_sort": 68095,
        "total": 2341
      },
      {
        "club_badge_src": null,
        "entry": 5371306,
        "entry_name": "AFC",
        "event_total": 49,
        "has_played": true,
        "id": 41737334,
        "last_rank": 54667,
        "player_name": "Isahaq A",
        "rank": 67829,
        "rank_sort": 68096,
        "total": 2341
      },
      {
        "club_badge_src": null,
        "entry": 5402584,
        "entry_name": "Bellah\u00f8j Classic",
        "event_total": 62,
        "has_played": true,
        "id": 42008183,
        "last_rank": 79190,
        "player_name": "Karma Tamang",
        "rank": 67829,
        "rank_sort": 68097,
        "total": 2341
      },
      {
        "club_badge_src": null,
        "entry": 5428062,
        "entry_name": "Kinder Mbeumo",
        "event_total": 52,
        "has_played": true,
        "id": 42220527,
        "last_rank": 59813,
        "player_name": "Ben Perry",
        "rank": 67829,
        "rank_sort": 68098,
        "total": 2341
      },
      {
        "club_badge_src": null,
        "entry": 5482137,
        "entry_name": "I.C.F UTD",
        "event_total": 70,
        "has_played": true,
        "id": 42684597,
        "last_rank": 98436,
        "player_name": "Connor M",
        "rank": 67829,
        "rank_sort": 68099,
        "total": 2341
      },
      {
        "club_badge_src": null,
        "entry": 5503375,
        "entry_name": "Elysian Fields",
        "event_total": 79,
        "has_played": true,
        "id": 42883783,
        "last_rank": 111203,
        "player_name": "Andy Nevin",
        "rank": 67829,
        "rank_sort": 68100,
        "total": 2341
      }
    ]
  }
}