{
  "last_updated_data": "2026-05-24T23:28:17Z",
  "league": {
    "admin_entry": null,
    "closed": false,
    "code_privacy": "p",
    "created": "2025-07-20T23:14:33.933835Z",
    "cup_league": 2815434,
    "has_cup": true,
    "id": 314,
    "league_type": "s",
    "max_entries": null,
    "name": "Overall",
    "rank": null,
    "scoring": "c",
    "start_event": 1
  },
  "new_entries": {
    "has_next": false,
    "page": 1,
    "results": []
  },
  "standings": {
    "has_next": true,
    "page": 675,
    "results": [
      {
        "club_badge_src": null,
        "entry": 5487564,
        "entry_name": "Sevilla Depression",
        "event_total": 55,
        "has_played": true,
        "id": 42735728,
        "last_rank": 27304,
        "player_name": "Rory Watt",
        "rank": 33640,
        "rank_sort": 33701,
        "total": 2365
      },
      {
        "club_badge_src": "https://fantasy.premierleague.com/gcs/plfpl-production-adobe-approved/plfpl-production/5593961/45fac9ec-f20b-4f5c-b9bd-459b63faec92.png",
        "entry": 5593961,
        "entry_name": "Palace Tyne & Sud-An",
        "event_total": 44,
        "has_played": true,
        "id": 43704531,
        "last_rank": 21392,
        "player_name": "Irshaad Kathrada",
        "rank": 33640,
        "rank_sort": 33702,
        "total": 2365
      },
      {
        "club_badge_src": null,
        "entry": 5767363,
        "entry_name": "BluHog",
        "event_total": 41,
        "has_played": true,
        "id": 45215065,
        "last_rank": 19103,
        "player_name": "Ronak Patel",
        "rank": 33640,
        "rank_sort": 33703,
        "total": 2365
      },
      {
        "club_badge_src": null,
        "entry": 5771351,
        "entry_name": "Harman FC",
        "event_total": 70,
        "has_played": true,
        "id": 45248721,
        "last_rank": 39246,
        "player_name": "Harman Sood",
        "rank": 33640,
        "rank_sort": 33704,
        "total": 2365
      },
      {
        "club_badge_src": null,
        "entry": 5988994,
        "entry_name": "BK Bonkers",
        "event_total": 68,
        "has_played": true,
        "id": 47185018,
        "last_rank": 47417,
        "player_name": "Calle Thoren",
        "rank": 33640,
        "rank_sort": 33705,
        "total": 2365
      },
      {
        "club_badge_src": null,
        "entry": 6575066,
        "entry_name": "Blue Moon Rising",
        "event_total": 36,
        "has_played": true,
        "id": 52495016,
        "last_rank": 15920,
        "player_name": "Angelo Christopher",
        "rank": 33640,
        "rank_sort": 33706,
        "total": 2365
      },
      {
        "club_badge_src": null,
        "entry": 7717995,
        "entry_name": "Title Holders",
        "event_total": 64,
        "has_played": true,
        "id": 63332713,
        "last_rank": 32190,
        "player_name": "Jonathan Ross",
        "rank": 33640,
        "rank_sort": 33707,
        "total": 2365
      },
      {
        "club_badge_src": "https://fantasy.premierleague.com/gcs/plfpl-production-adobe-approved/plfpl-production/7755518/29ee955e-6092-4594-ba1e-555e050854b2.png",
        "entry": 7755518,
        "entry_name": "Take a punt",
        "event_total": 72,
        "has_played": true,
        "id": 63672455,
        "last_rank": 47163,
        "player_name": "Orr Sella",
        "rank": 33640,
        "rank_sort": 33708,
        "total": 2365
      },
      {
        "club_badge_src": "https://fantasy.premierleague.com/gcs/plfpl-production-adobe-approved/plfpl-production/8883676/0f685788-e59d-47b4-b4d6-d39e75db4ee3.png",
        "entry": 8883676,
        "entry_name": "siti705",
        "event_total": 65,
        "has_played": true,
        "id": 74349844,
        "last_rank": 43342,
        "player_name": "Siti Balqis Abdul Khalil",
        "rank": 33640,
        "rank_sort": 33709,
        "total": 2365
      },
      {
        "club_badge_src": null,
        "entry": 9168990,
        "entry_name": "Beginner\u2019s Luck",
        "event_total": 52,
        "has_played": true,
        "id": 77127126,
        "last_rank": 21301,
        "player_name": "Tamsin Hayward",
        "rank": 33640,
        "rank_sort": 33710,
        "total": 2365
      },
      {
        "club_badge_src": "https://fantasy.premierleague.com/gcs/plfpl-production-adobe-approved/plfpl-production/9234061/83b687fc-50ca-4032-9979-762a803bd417.png",
        "entry": 9234061,
        "entry_name": "Bayern Munich",
        "event_total": 63,
        "has_played": true,
        "id": 77767756,
        "last_rank": 35619,
        "player_name": "Mohammed A",
        "rank": 33640,
        "rank_sort": 33711,
        "total": 2365
      },
      {
        "club_badge_src": null,
        "entry": 21640,
        "entry_name": "Red Army",
        "event_total": 46,
        "has_played": true,
        "id": 135734,
        "last_rank": 19966,
        "player_name": "Youssef AbdelKhalek",
        "rank": 33712,
        "rank_sort": 33712,
        "total": 2365
      },
      {
        "club_badge_src": null,
        "entry": 36433,
        "entry_name": "Femi's Constants",
        "event_total": 73,
        "has_played": true,
        "id": 233245,
        "last_rank": 49207,
        "player_name": "Femi Soetan",
        "rank": 33712,
        "rank_sort": 33713,
        "total": 2365
      },
      {
        "club_badge_src": null,
        "entry": 62108,
        "entry_name": "ReVolted FC",
        "event_total": 60,
        "has_played": true,
        "id": 400204,
        "last_rank": 32437,
        "player_name": "Bartosz Kowalczyk",
        "rank": 33712,
        "rank_sort": 33714,
        "total": 2365
      },
      {
        "club_badge_src": null,
        "entry": 104902,
        "entry_name": "Bo Nabil",
        "event_total": 42,
        "has_played": true,
        "id": 684245,
        "last_rank": 20038,
        "player_name": "Abdullatif Alnaim",
        "rank": 33712,
        "rank_sort": 33715,
        "total": 2365
      },
      {
        "club_badge_src": "https://fantasy.premierleague.com/gcs/plfpl-production-adobe-approved/plfpl-production/105279/dfe1a5b9-c042-4a18-8ce3-87465df6c1d4.png",
        "entry": 105279,
        "entry_name": "\u0627\u0644\u0633\u0644\u0637\u0627\u0646",
        "event_total": 68,
        "has_played": true,
        "id": 686668,
        "last_rank": 47722,
        "player_name": "Husam Sa",
        "rank": 33712,
        "rank_sort": 33716,
        "total": 2365
      },
      {
        "club_badge_src": null,
        "entry": 105530,
        "entry_name": "Geordie Boot Boys",
        "event_total": 67,
        "has_played": true,
        "id": 688281,
        "last_rank": 46236,
        "player_name": "Gary Chan",
        "rank": 33712,
        "rank_sort": 33717,
        "total": 2365
      },
      {
        "club_badge_src": "https://fantasy.premierleague.com/gcs/plfpl-production-adobe-approved/plfpl-production/159796/1cb01dbd-930e-4c9f-918f-a627c79e3e25.png",
        "entry": 159796,
        "entry_name": "RoyAL",
        "event_total": 57,
        "has_played": true,
        "id": 1051934,
        "last_rank": 29279,
        "player_name": "Roy Lund",
        "rank": 33712,
        "rank_sort": 33718,
        "total": 2365
      },
      {
        "club_badge_src": "https://fantasy.premierleague.com/gcs/plfpl-production-adobe-approved/plfpl-production/169385/26d336f9-6a2b-463e-8cea-4803bbbca569.png",
        "entry": 169385,
        "entry_name": "Soccerdoodledoo",
        "event_total": 62,
        "has_played": true,
        "id": 1119372,
        "last_rank": 39585,
        "player_name": "Andy McHaffie",
        "rank": 33712,
        "rank_sort": 33719,
        "total": 2365
      },
      {
        "club_badge_src": null,
        "entry": 253285,
        "entry_name": "Tidelaget",
        "event_total": 49,
        "has_played": true,
        "id": 1684638,
        "last_rank": 25564,
        "player_name": "Jon Eriksson",
        "rank": 33712,
        "rank_sort": 33720,
        "total": 2365
      },
      {
        "club_badge_src": null,
        "entry": 261838,
        "entry_name": "Rice Rice Bailey",
        "event_total": 68,
        "has_played": true,
        "id": 1740643,
        "last_rank": 42081,
        "player_name": "Daniel Zeinstra",
        "rank": 33712,
        "rank_sort": 33721,
        "total": 2365
      },
      {
        "club_badge_src": null,
        "entry": 311371,
        "entry_name": "Livin' Saliba Loca",
        "event_total": 74,
        "has_played": true,
        "id": 2086039,
        "last_rank": 50635,
        "player_name": "Nicholas Scherer",
        "rank": 33712,
        "rank_sort": 33722,
        "total": 2365
      },
      {
        "club_badge_src": null,
        "entry": 357384,
        "entry_name": "Wirtz Case Scenario",
        "event_total": 66,
        "has_played": true,
        "id": 2391637,
        "last_rank": 44882,
        "player_name": "Aaron Glover",
        "rank": 33712,
        "rank_sort": 33723,
        "total": 2365
      },
      {
        "club_badge_src": null,
        "entry": 414977,
        "entry_name": "\u6d77\u9038\u98de\u9e70\u3010\u9e70\u5c14\u897f\u3011",
        "event_total": 66,
        "has_played": true,
        "id": 2781851,
        "last_rank": 44525,
        "player_name": "Jack Li",
        "rank": 33712,
        "rank_sort": 33724,
        "total": 2365
      },
      {
        "club_badge_src": null,
        "entry": 463320,
        "entry_name": "Backstreet Moyes",
        "event_total": 74,
        "has_played": true,
        "id": 3107825,
        "last_rank": 57451,
        "player_name": "Darren Blair",
        "rank": 33712,
        "rank_sort": 33725,
        "total": 2365
      },
      {
        "club_badge_src": null,
        "entry": 484918,
        "entry_name": "Fjellhysa",
        "event_total": 56,
        "has_played": true,
        "id": 3254862,
        "last_rank": 32531,
        "player_name": "Andreas Gamst",
        "rank": 33712,
        "rank_sort": 33726,
        "total": 2365
      },
      {
        "club_badge_src": null,
        "entry": 539653,
        "entry_name": "Kinder Mbeumo",
        "event_total": 66,
        "has_played": true,
        "id": 3632449,
        "last_rank": 39510,
        "player_name": "Josh Buxton",
        "rank": 33712,
        "rank_sort": 33727,
        "total": 2365
      },
      {
        "club_badge_src": null,
        "entry": 625695,
        "entry_name": "your papa",
        "event_total": 67,
        "has_played": true,
        "id": 4228231,
        "last_rank": 46313,
        "player_name": "John wick",
        "rank": 33712,
        "rank_sort": 33728,
        "total": 2365
      },
      {
        "club_badge_src": null,
        "entry": 863555,
        "entry_name": "Walks' United",
        "event_total": 76,
        "has_played": true,
        "id": 5920032,
        "last_rank": 60827,
        "player_name": "Paul Walker",
        "rank": 33712,
        "rank_sort": 33729,
        "total": 2365
      },
      {
        "club_badge_src": null,
        "entry": 978374,
        "entry_name": "Magic With Me",
        "event_total": 56,
        "has_played": true,
        "id": 6744817,
        "last_rank": 32437,
        "player_name": "Adam Najeedh",
        "rank": 33712,
        "rank_sort": 33730,
        "total": 2365
      },
      {
        "club_badge_src": null,
        "entry": 1023697,
        "entry_name": "Jair Cunha Mateta",
        "event_total": 68,
        "has_played": true,
        "id": 7082503,
        "last_rank": 36963,
        "player_name": "Jack Bell",
        "rank": 33712,
        "rank_sort": 33731,
        "total": 2365
      },
      {
        "club_badge_src": null,
        "entry": 1158617,
        "entry_name": "He Shoots, He Scores",
        "event_total": 53,
        "has_played": true,
        "id": 8035053,
        "last_rank": 29333,
        "player_name": "Charlie Hillman",
        "rank": 33712,
        "rank_sort": 33732,
        "total": 2365
      },
      {
        "club_badge_src": null,
        "entry": 1178292,
        "entry_name": "Khairy \ufffd",
        "event_total": 61,
        "has_played": true,
        "id": 8175497,
        "last_rank": 25330,
        "player_name": "ahmed khairy",
        "rank": 33712,
        "rank_sort": 33733,
        "total": 2365
      },
      {
        "club_badge_src": null,
        "entry": 1609131,
        "entry_name": "Ha la land",
        "event_total": 59,
        "has_played": true,
        "id": 11258296,
        "last_rank": 35867,
        "player_name": "ignas vasiliauskas",
        "rank": 33712,
        "rank_sort": 33734,
        "total": 2365
      },
      {
        "club_badge_src": null,
        "entry": 1688120,
        "entry_name": "Seven Nation Army",
        "event_total": 67,
        "has_played": true,
        "id": 11817269,
        "last_rank": 40647,
        "player_name": "Rowen D'souza",
        "rank": 33712,
        "rank_sort": 33735,
        "total": 2365
      },
      {
        "club_badge_src": null,
        "entry": 2110850,
        "entry_name": "yacine's team",
        "event_total": 48,
        "has_played": true,
        "id": 14982630,
        "last_rank": 24680,
        "player_name": "ya cine",
        "rank": 33712,
        "rank_sort": 33736,
        "total": 2365
      },
      {
        "club_badge_src": null,
        "entry": 2188640,
        "entry_name": "T-Rex Tacklers",
        "event_total": 53,
        "has_played": true,
        "id": 15570201,
        "last_rank": 25517,
        "player_name": "Brooks Ellwood",
        "rank": 33712,
        "rank_sort": 33737,
        "total": 2365
      },
      {
        "club_badge_src": null,
        "entry": 2355049,
        "entry_name": "Zizu",
        "event_total": 53,
        "has_played": true,
        "id": 16804092,
        "last_rank": 29369,
        "player_name": "Mohamed Ehab",
        "rank": 33712,
        "rank_sort": 33738,
        "total": 2365
      },
      {
        "club_badge_src": null,
        "entry": 2586390,
        "entry_name": "Kick the Ball",
        "event_total": 57,
        "has_played": true,
        "id": 18566817,
        "last_rank": 25436,
        "player_name": "Stuart Gallagher",
        "rank": 33712,
        "rank_sort": 33739,
        "total": 2365
      },
      {
        "club_badge_src": null,
        "entry": 2607012,
        "entry_name": "El Loco",
        "event_total": 49,
        "has_played": true,
        "id": 18727345,
        "last_rank": 25564,
        "player_name": "Simon Bates",
        "rank": 33712,
        "rank_sort": 33740,
        "total": 2365
      },
      {
        "club_badge_src": null,
        "entry": 3120501,
        "entry_name": "Sharky FC",
        "event_total": 59,
        "has_played": true,
        "id": 23028178,
        "last_rank": 31309,
        "player_name": "Mark Lanham",
        "rank": 33712,
        "rank_sort": 33741,
        "total": 2365
      },
      {
        "club_badge_src": "https://fantasy.premierleague.com/gcs/plfpl-production-adobe-approved/plfpl-production/3563230/63c6f4e5-173c-496d-af77-ef459e1a4c53.png",
        "entry": 3563230,
        "entry_name": "yazew's mvp",
        "event_total": 53,
        "has_played": true,
        "id": 26530748,
        "last_rank": 25517,
        "player_name": "Coach Yazachew",
        "rank": 33712,
        "rank_sort": 33742,
        "total": 2365
      },
      {
        "club_badge_src": null,
        "entry": 3637738,
        "entry_name": "yoro wizard harry",
        "event_total": 79,
        "has_played": true,
        "id": 27109843,
        "last_rank": 66296,
        "player_name": "Joe LP",
        "rank": 33712,
        "rank_sort": 33743,
        "total": 2365
      },
      {
        "club_badge_src": null,
        "entry": 3911253,
        "entry_name": "Amad world",
        "event_total": 42,
        "has_played": true,
        "id": 29406979,
        "last_rank": 20008,
        "player_name": "Mick Lindsay",
        "rank": 33712,
        "rank_sort": 33744,
        "total": 2365
      },
      {
        "club_badge_src": null,
        "entry": 4397685,
        "entry_name": "Pep Roulette FC",
        "event_total": 71,
        "has_played": true,
        "id": 33440844,
        "last_rank": 52205,
        "player_name": "Tyreese Thomas",
        "rank": 33712,
        "rank_sort": 33745,
        "total": 2365
      },
      {
        "club_badge_src": null,
        "entry": 4486242,
        "entry_name": "Neptune Villa",
        "event_total": 67,
        "has_played": true,
        "id": 34194281,
        "last_rank": 40770,
        "player_name": "Keith Burnett",
        "rank": 33712,
        "rank_sort": 33746,
        "total": 2365
      },
      {
        "club_badge_src": null,
        "entry": 5039452,
        "entry_name": "Sesko mental!",
        "event_total": 55,
        "has_played": true,
        "id": 38925841,
        "last_rank": 31371,
        "player_name": "Ray Roche",
        "rank": 33712,
        "rank_sort": 33747,
        "total": 2365
      },
      {
        "club_badge_src": null,
        "entry": 5051272,
        "entry_name": "Winflation",
        "event_total": 60,
        "has_played": true,
        "id": 39027706,
        "last_rank": 37058,
        "player_name": "Auta Mandi",
        "rank": 33712,
        "rank_sort": 33748,
        "total": 2365
      },
      {
        "club_badge_src": "https://fantasy.premierleague.com/gcs/plfpl-production-adobe-approved/plfpl-production/5094265/30cfbce8-6f3a-42b1-9a62-feb7f577e2c6.png",
        "entry": 5094265,
        "entry_name": "Schar Some iDiaz",
        "event_total": 53,
        "has_played": true,
        "id": 39374274,
        "last_rank": 29333,
        "player_name": "Adam Goodwin",
        "rank": 33712,
        "rank_sort": 33749,
        "total": 2365
      },
      {
        "club_badge_src": null,
        "entry": 5180358,
        "entry_name": "8-)",
        "event_total": 51,
        "has_played": true,
        "id": 40097931,
        "last_rank": 27402,
        "player_name": "Jordan Arbuthnot",
        "rank": 33712,
        "rank_sort": 33750,
        "total": 2365
      }
    ]
  }
}