{
  "last_updated_data": "2026-05-24T23:28:17Z",
  "league": {
    "admin_entry": null,
    "closed": false,
    "code_privacy": "p",
    "created": "2025-07-20T23:14:33.933835Z",
    "cup_league": 2815434,
    "has_cup": true,
    "id": 314,
    "league_type": "s",
    "max_entries": null,
    "name": "Overall",
    "rank": null,
    "scoring": "c",
    "start_event": 1
  },
  "new_entries": {
    "has_next": false,
    "page": 1,
    "results": []
  },
  "standings": {
    "has_next": true,
    "page": 192,
    "results": [
      {
        "club_badge_src": null,
        "entry": 122638,
        "entry_name": "Gordon4s or Gordon1s",
        "event_total": 53,
        "has_played": true,
        "id": 800048,
        "last_rank": 7676,
        "player_name": "Joe Cottrill",
        "rank": 9548,
        "rank_sort": 9551,
        "total": 2399
      },
      {
        "club_badge_src": null,
        "entry": 201380,
        "entry_name": "FC Bailey",
        "event_total": 66,
        "has_played": true,
        "id": 1337095,
        "last_rank": 13184,
        "player_name": "Sam Bailey",
        "rank": 9548,
        "rank_sort": 9552,
        "total": 2399
      },
      {
        "club_badge_src": null,
        "entry": 509061,
        "entry_name": "\u0e19\u0e32\u0e22\u0e42\u0e1a\u0e4a\u0e17",
        "event_total": 32,
        "has_played": true,
        "id": 3417658,
        "last_rank": 2952,
        "player_name": "\u0e10\u0e34\u0e15\u0e34\u0e1e\u0e07\u0e28\u0e4c \u0e27\u0e07\u0e28\u0e4c\u0e2d\u0e31\u0e04\u0e23\u0e27\u0e31\u0e15",
        "rank": 9548,
        "rank_sort": 9553,
        "total": 2399
      },
      {
        "club_badge_src": null,
        "entry": 512719,
        "entry_name": "In the Air Tonali",
        "event_total": 51,
        "has_played": true,
        "id": 3442769,
        "last_rank": 7059,
        "player_name": "Dave Moffett",
        "rank": 9548,
        "rank_sort": 9554,
        "total": 2399
      },
      {
        "club_badge_src": null,
        "entry": 661722,
        "entry_name": "\u00a1Hala Madrid!",
        "event_total": 79,
        "has_played": true,
        "id": 4472631,
        "last_rank": 21609,
        "player_name": "JA Lim",
        "rank": 9548,
        "rank_sort": 9555,
        "total": 2399
      },
      {
        "club_badge_src": null,
        "entry": 1238458,
        "entry_name": "Corn on the Kobbie",
        "event_total": 69,
        "has_played": true,
        "id": 8600130,
        "last_rank": 14809,
        "player_name": "Rob Davies",
        "rank": 9548,
        "rank_sort": 9556,
        "total": 2399
      },
      {
        "club_badge_src": null,
        "entry": 1245491,
        "entry_name": "The Musketeers",
        "event_total": 72,
        "has_played": true,
        "id": 8650017,
        "last_rank": 16675,
        "player_name": "Diane Lord",
        "rank": 9548,
        "rank_sort": 9557,
        "total": 2399
      },
      {
        "club_badge_src": null,
        "entry": 1518823,
        "entry_name": "Don Carletto",
        "event_total": 52,
        "has_played": true,
        "id": 10593432,
        "last_rank": 7333,
        "player_name": "Neil Mooney",
        "rank": 9548,
        "rank_sort": 9558,
        "total": 2399
      },
      {
        "club_badge_src": null,
        "entry": 1903894,
        "entry_name": "Lil Uzi Writz",
        "event_total": 74,
        "has_played": true,
        "id": 13421637,
        "last_rank": 17965,
        "player_name": "Carwyn Jones",
        "rank": 9548,
        "rank_sort": 9559,
        "total": 2399
      },
      {
        "club_badge_src": null,
        "entry": 2010223,
        "entry_name": "Riklee92",
        "event_total": 58,
        "has_played": true,
        "id": 14214214,
        "last_rank": 9536,
        "player_name": "Rik Wiersema",
        "rank": 9548,
        "rank_sort": 9560,
        "total": 2399
      },
      {
        "club_badge_src": null,
        "entry": 2779717,
        "entry_name": "Casa de Caicedo",
        "event_total": 73,
        "has_played": true,
        "id": 20287554,
        "last_rank": 17304,
        "player_name": "Prathamesh Bhosale",
        "rank": 9548,
        "rank_sort": 9561,
        "total": 2399
      },
      {
        "club_badge_src": null,
        "entry": 3079568,
        "entry_name": "JikkeJuiner_1816",
        "event_total": 50,
        "has_played": true,
        "id": 22687523,
        "last_rank": 6687,
        "player_name": "Olivier Moonen",
        "rank": 9548,
        "rank_sort": 9562,
        "total": 2399
      },
      {
        "club_badge_src": null,
        "entry": 4508841,
        "entry_name": "AC Spettacolo",
        "event_total": 50,
        "has_played": true,
        "id": 34379213,
        "last_rank": 6703,
        "player_name": "Oscar Eriksson",
        "rank": 9548,
        "rank_sort": 9563,
        "total": 2399
      },
      {
        "club_badge_src": null,
        "entry": 4962685,
        "entry_name": "Dalston Rovers",
        "event_total": 67,
        "has_played": true,
        "id": 38297064,
        "last_rank": 13720,
        "player_name": "alex mchugh",
        "rank": 9548,
        "rank_sort": 9564,
        "total": 2399
      },
      {
        "club_badge_src": null,
        "entry": 5035662,
        "entry_name": "Thumb'Ming'It In",
        "event_total": 66,
        "has_played": true,
        "id": 38895260,
        "last_rank": 13184,
        "player_name": "Russell Ingram",
        "rank": 9548,
        "rank_sort": 9565,
        "total": 2399
      },
      {
        "club_badge_src": null,
        "entry": 5498331,
        "entry_name": "Warra Trophy",
        "event_total": 68,
        "has_played": true,
        "id": 42838908,
        "last_rank": 12099,
        "player_name": "Talal Algharaballi",
        "rank": 9548,
        "rank_sort": 9566,
        "total": 2399
      },
      {
        "club_badge_src": null,
        "entry": 6587411,
        "entry_name": "the bosh 11",
        "event_total": 53,
        "has_played": true,
        "id": 52608886,
        "last_rank": 7676,
        "player_name": "Craig Toward",
        "rank": 9548,
        "rank_sort": 9567,
        "total": 2399
      },
      {
        "club_badge_src": null,
        "entry": 6630694,
        "entry_name": "Help",
        "event_total": 69,
        "has_played": true,
        "id": 52993721,
        "last_rank": 14926,
        "player_name": "N8 J",
        "rank": 9548,
        "rank_sort": 9568,
        "total": 2399
      },
      {
        "club_badge_src": null,
        "entry": 6856268,
        "entry_name": "15 Wounded Lions",
        "event_total": 60,
        "has_played": true,
        "id": 54932969,
        "last_rank": 10263,
        "player_name": "Ibrahim K Marrah",
        "rank": 9548,
        "rank_sort": 9569,
        "total": 2399
      },
      {
        "club_badge_src": null,
        "entry": 6896912,
        "entry_name": "Manchunster",
        "event_total": 77,
        "has_played": true,
        "id": 55278592,
        "last_rank": 20116,
        "player_name": "Kelvin Lai",
        "rank": 9548,
        "rank_sort": 9570,
        "total": 2399
      },
      {
        "club_badge_src": null,
        "entry": 7041728,
        "entry_name": "Cunha Dig It",
        "event_total": 70,
        "has_played": true,
        "id": 56615008,
        "last_rank": 15396,
        "player_name": "Aaron Mani",
        "rank": 9548,
        "rank_sort": 9571,
        "total": 2399
      },
      {
        "club_badge_src": "https://fantasy.premierleague.com/gcs/plfpl-production-adobe-approved/plfpl-production/7733279/07e63c8a-7cd5-4bec-bb8d-67fe33210f70.png",
        "entry": 7733279,
        "entry_name": "MARAGA THE 6TH",
        "event_total": 38,
        "has_played": true,
        "id": 63470679,
        "last_rank": 3866,
        "player_name": "Lazima Ipay",
        "rank": 9548,
        "rank_sort": 9572,
        "total": 2399
      },
      {
        "club_badge_src": null,
        "entry": 7858630,
        "entry_name": "\u00d8deargod",
        "event_total": 52,
        "has_played": true,
        "id": 64610600,
        "last_rank": 7375,
        "player_name": "Zak F",
        "rank": 9548,
        "rank_sort": 9573,
        "total": 2399
      },
      {
        "club_badge_src": null,
        "entry": 8376990,
        "entry_name": "Frimpong's Gaels",
        "event_total": 69,
        "has_played": true,
        "id": 69462252,
        "last_rank": 14857,
        "player_name": "Cashel McGrath",
        "rank": 9548,
        "rank_sort": 9574,
        "total": 2399
      },
      {
        "club_badge_src": "https://fantasy.premierleague.com/gcs/plfpl-production-adobe-approved/plfpl-production/204/f46ef3fc-25f5-4d3a-8220-f2307a00c843.png",
        "entry": 204,
        "entry_name": "KudusToMee",
        "event_total": 60,
        "has_played": true,
        "id": 1131,
        "last_rank": 10346,
        "player_name": "Jordi Fray",
        "rank": 9575,
        "rank_sort": 9575,
        "total": 2399
      },
      {
        "club_badge_src": "https://fantasy.premierleague.com/gcs/plfpl-production-adobe-approved/plfpl-production/674/f169584b-dea4-4050-b70f-6882b834db42.png",
        "entry": 674,
        "entry_name": "Palmer Hits The Neto",
        "event_total": 68,
        "has_played": true,
        "id": 3720,
        "last_rank": 14370,
        "player_name": "Abdullah Mohammed",
        "rank": 9575,
        "rank_sort": 9576,
        "total": 2399
      },
      {
        "club_badge_src": null,
        "entry": 1574,
        "entry_name": "Gibbo FC",
        "event_total": 60,
        "has_played": true,
        "id": 8764,
        "last_rank": 10288,
        "player_name": "Ethan Gibbs",
        "rank": 9575,
        "rank_sort": 9577,
        "total": 2399
      },
      {
        "club_badge_src": null,
        "entry": 3494,
        "entry_name": "SRJ XI",
        "event_total": 60,
        "has_played": true,
        "id": 19802,
        "last_rank": 8687,
        "player_name": "Stian R\u00f8rvik Johansen",
        "rank": 9575,
        "rank_sort": 9578,
        "total": 2399
      },
      {
        "club_badge_src": "https://fantasy.premierleague.com/gcs/plfpl-production-adobe-approved/plfpl-production/3825/cdc1c5c2-9705-4ca7-b3fe-d14156db1439.png",
        "entry": 3825,
        "entry_name": "Real English CF",
        "event_total": 61,
        "has_played": true,
        "id": 21690,
        "last_rank": 10805,
        "player_name": "Adam English",
        "rank": 9575,
        "rank_sort": 9579,
        "total": 2399
      },
      {
        "club_badge_src": "https://fantasy.premierleague.com/gcs/plfpl-production-adobe-approved/plfpl-production/16860/358aece0-0ff5-4447-96ce-003e47e71a09.png",
        "entry": 16860,
        "entry_name": "FC Brody",
        "event_total": 59,
        "has_played": true,
        "id": 104368,
        "last_rank": 9942,
        "player_name": "George Riley",
        "rank": 9575,
        "rank_sort": 9580,
        "total": 2399
      },
      {
        "club_badge_src": null,
        "entry": 23939,
        "entry_name": "big dawggg fc",
        "event_total": 64,
        "has_played": true,
        "id": 150979,
        "last_rank": 12200,
        "player_name": "Reece Goves",
        "rank": 9575,
        "rank_sort": 9581,
        "total": 2399
      },
      {
        "club_badge_src": "https://fantasy.premierleague.com/gcs/plfpl-production-adobe-approved/plfpl-production/25483/9ee70b7c-a9b1-496a-bbd1-450c0cac7d36.png",
        "entry": 25483,
        "entry_name": "Change Name",
        "event_total": 74,
        "has_played": true,
        "id": 161165,
        "last_rank": 17989,
        "player_name": "Dylan Mascarenhas",
        "rank": 9575,
        "rank_sort": 9582,
        "total": 2399
      },
      {
        "club_badge_src": "https://fantasy.premierleague.com/gcs/plfpl-production-adobe-approved/plfpl-production/27591/4259cecf-5b33-4f5f-9456-ec44a16e11b7.png",
        "entry": 27591,
        "entry_name": "Javorov\u00e9 st\u00edha\u010dky FC",
        "event_total": 60,
        "has_played": true,
        "id": 174439,
        "last_rank": 10346,
        "player_name": "Vlastimil Neo Farka\u0161ovsk\u00fd",
        "rank": 9575,
        "rank_sort": 9583,
        "total": 2399
      },
      {
        "club_badge_src": null,
        "entry": 28984,
        "entry_name": "Cunha Believe It?!",
        "event_total": 69,
        "has_played": true,
        "id": 183246,
        "last_rank": 14857,
        "player_name": "Will Palmer",
        "rank": 9575,
        "rank_sort": 9584,
        "total": 2399
      },
      {
        "club_badge_src": "https://fantasy.premierleague.com/gcs/plfpl-production-adobe-approved/plfpl-production/31829/cae8994b-b1d2-484a-a28e-57d390f4ba1d.png",
        "entry": 31829,
        "entry_name": "Rutter Woke Nonsense",
        "event_total": 64,
        "has_played": true,
        "id": 202043,
        "last_rank": 12109,
        "player_name": "Luke Chapman",
        "rank": 9575,
        "rank_sort": 9585,
        "total": 2399
      },
      {
        "club_badge_src": null,
        "entry": 34989,
        "entry_name": "Four-Bissaka",
        "event_total": 52,
        "has_played": true,
        "id": 223745,
        "last_rank": 7375,
        "player_name": "Liam Grewal",
        "rank": 9575,
        "rank_sort": 9586,
        "total": 2399
      },
      {
        "club_badge_src": null,
        "entry": 35183,
        "entry_name": "extrasensory",
        "event_total": 60,
        "has_played": true,
        "id": 225069,
        "last_rank": 10346,
        "player_name": "H\u01b0ng L\u00e2n",
        "rank": 9575,
        "rank_sort": 9587,
        "total": 2399
      },
      {
        "club_badge_src": "https://fantasy.premierleague.com/gcs/plfpl-production-adobe-approved/plfpl-production/36796/4309ddfa-63a9-499a-ab94-0547c33b11d7.png",
        "entry": 36796,
        "entry_name": "Barca UCL winner 202",
        "event_total": 61,
        "has_played": true,
        "id": 235624,
        "last_rank": 10748,
        "player_name": "Milan Friesen",
        "rank": 9575,
        "rank_sort": 9588,
        "total": 2399
      },
      {
        "club_badge_src": "https://fantasy.premierleague.com/gcs/plfpl-production-adobe-approved/plfpl-production/39210/05077225-38b9-4e7a-ae2d-11f6f8ea3908.png",
        "entry": 39210,
        "entry_name": "Ginger 25",
        "event_total": 70,
        "has_played": true,
        "id": 251289,
        "last_rank": 15452,
        "player_name": "Bruno Spisic",
        "rank": 9575,
        "rank_sort": 9589,
        "total": 2399
      },
      {
        "club_badge_src": "https://fantasy.premierleague.com/gcs/plfpl-production-adobe-approved/plfpl-production/39874/f3236d0d-5af9-4076-b13a-3d5673396b1d.png",
        "entry": 39874,
        "entry_name": "Snipers FC",
        "event_total": 45,
        "has_played": true,
        "id": 255581,
        "last_rank": 5448,
        "player_name": "Habib Liman",
        "rank": 9575,
        "rank_sort": 9590,
        "total": 2399
      },
      {
        "club_badge_src": null,
        "entry": 45701,
        "entry_name": "UEFA Mafia",
        "event_total": 69,
        "has_played": true,
        "id": 293152,
        "last_rank": 14857,
        "player_name": "Reuben Bernal",
        "rank": 9575,
        "rank_sort": 9591,
        "total": 2399
      },
      {
        "club_badge_src": null,
        "entry": 55101,
        "entry_name": "Takin Le Bris",
        "event_total": 69,
        "has_played": true,
        "id": 354635,
        "last_rank": 14857,
        "player_name": "Ben Longstaff",
        "rank": 9575,
        "rank_sort": 9592,
        "total": 2399
      },
      {
        "club_badge_src": null,
        "entry": 65817,
        "entry_name": "Myles Ahead",
        "event_total": 56,
        "has_played": true,
        "id": 425130,
        "last_rank": 8758,
        "player_name": "Louis Porter",
        "rank": 9575,
        "rank_sort": 9593,
        "total": 2399
      },
      {
        "club_badge_src": "https://fantasy.premierleague.com/gcs/plfpl-production-adobe-approved/plfpl-production/74815/9f780d9b-7485-4c49-b7f7-50a6a3db1e30.png",
        "entry": 74815,
        "entry_name": "Ogilvie Overlords",
        "event_total": 50,
        "has_played": true,
        "id": 486348,
        "last_rank": 6703,
        "player_name": "Joe Brown",
        "rank": 9575,
        "rank_sort": 9594,
        "total": 2399
      },
      {
        "club_badge_src": "https://fantasy.premierleague.com/gcs/plfpl-production-adobe-approved/plfpl-production/78989/0747e98a-7221-4eed-8542-411ed54a9e69.png",
        "entry": 78989,
        "entry_name": "Bruno Dos Tres",
        "event_total": 62,
        "has_played": true,
        "id": 513602,
        "last_rank": 11150,
        "player_name": "Nicky Chan",
        "rank": 9575,
        "rank_sort": 9595,
        "total": 2399
      },
      {
        "club_badge_src": null,
        "entry": 90073,
        "entry_name": "The Whippets",
        "event_total": 69,
        "has_played": true,
        "id": 588007,
        "last_rank": 14926,
        "player_name": "Daragh McKenna",
        "rank": 9575,
        "rank_sort": 9596,
        "total": 2399
      },
      {
        "club_badge_src": null,
        "entry": 104581,
        "entry_name": "Bamadueke",
        "event_total": 66,
        "has_played": true,
        "id": 682197,
        "last_rank": 13257,
        "player_name": "Max Terry",
        "rank": 9575,
        "rank_sort": 9597,
        "total": 2399
      },
      {
        "club_badge_src": null,
        "entry": 151633,
        "entry_name": "FPL Fo",
        "event_total": 71,
        "has_played": true,
        "id": 994875,
        "last_rank": 16062,
        "player_name": "Dan Konrad",
        "rank": 9575,
        "rank_sort": 9598,
        "total": 2399
      },
      {
        "club_badge_src": null,
        "entry": 151796,
        "entry_name": "Red&White Nusantara",
        "event_total": 37,
        "has_played": true,
        "id": 996015,
        "last_rank": 3721,
        "player_name": "William Tanggara",
        "rank": 9575,
        "rank_sort": 9599,
        "total": 2399
      },
      {
        "club_badge_src": null,
        "entry": 153325,
        "entry_name": "ole ole",
        "event_total": 69,
        "has_played": true,
        "id": 1006813,
        "last_rank": 14926,
        "player_name": "Lee Moss",
        "rank": 9575,
        "rank_sort": 9600,
        "total": 2399
      }
    ]
  }
}