{
  "last_updated_data": "2026-05-24T23:28:17Z",
  "league": {
    "admin_entry": null,
    "closed": false,
    "code_privacy": "p",
    "created": "2025-07-20T23:14:33.933835Z",
    "cup_league": 2815434,
    "has_cup": true,
    "id": 314,
    "league_type": "s",
    "max_entries": null,
    "name": "Overall",
    "rank": null,
    "scoring": "c",
    "start_event": 1
  },
  "new_entries": {
    "has_next": false,
    "page": 1,
    "results": []
  },
  "standings": {
    "has_next": true,
    "page": 206,
    "results": [
      {
        "club_badge_src": null,
        "entry": 4605499,
        "entry_name": "Throwing Schade",
        "event_total": 66,
        "has_played": true,
        "id": 35186639,
        "last_rank": 14102,
        "player_name": "Tahmid Ahnaf",
        "rank": 10222,
        "rank_sort": 10251,
        "total": 2398
      },
      {
        "club_badge_src": null,
        "entry": 4656545,
        "entry_name": "FullerXI",
        "event_total": 68,
        "has_played": true,
        "id": 35640866,
        "last_rank": 15226,
        "player_name": "Nathan Fuller",
        "rank": 10222,
        "rank_sort": 10252,
        "total": 2398
      },
      {
        "club_badge_src": null,
        "entry": 5563989,
        "entry_name": "Change Name",
        "event_total": 68,
        "has_played": true,
        "id": 43440234,
        "last_rank": 15226,
        "player_name": "Milos Ogarevic",
        "rank": 10222,
        "rank_sort": 10253,
        "total": 2398
      },
      {
        "club_badge_src": null,
        "entry": 5621640,
        "entry_name": "Aston's Army",
        "event_total": 60,
        "has_played": true,
        "id": 43944615,
        "last_rank": 10992,
        "player_name": "Dan Aston",
        "rank": 10222,
        "rank_sort": 10254,
        "total": 2398
      },
      {
        "club_badge_src": null,
        "entry": 5689443,
        "entry_name": "Gy\u00f6kboet",
        "event_total": 71,
        "has_played": true,
        "id": 44537343,
        "last_rank": 16959,
        "player_name": "Pontus Kling",
        "rank": 10222,
        "rank_sort": 10255,
        "total": 2398
      },
      {
        "club_badge_src": null,
        "entry": 5789839,
        "entry_name": "DELAPidated",
        "event_total": 46,
        "has_played": true,
        "id": 45407579,
        "last_rank": 6094,
        "player_name": "Siddharth Kadel",
        "rank": 10222,
        "rank_sort": 10256,
        "total": 2398
      },
      {
        "club_badge_src": null,
        "entry": 5916069,
        "entry_name": "Game of S",
        "event_total": 53,
        "has_played": true,
        "id": 46494346,
        "last_rank": 8234,
        "player_name": "Sart Satap",
        "rank": 10222,
        "rank_sort": 10257,
        "total": 2398
      },
      {
        "club_badge_src": null,
        "entry": 6275236,
        "entry_name": "Rice, Rice, Baby",
        "event_total": 49,
        "has_played": true,
        "id": 49692944,
        "last_rank": 6949,
        "player_name": "Nik Amin",
        "rank": 10222,
        "rank_sort": 10258,
        "total": 2398
      },
      {
        "club_badge_src": null,
        "entry": 6821043,
        "entry_name": "Mac City",
        "event_total": 64,
        "has_played": true,
        "id": 54633015,
        "last_rank": 12995,
        "player_name": "Tom Macintosh",
        "rank": 10222,
        "rank_sort": 10259,
        "total": 2398
      },
      {
        "club_badge_src": null,
        "entry": 8211495,
        "entry_name": "Viktor-y",
        "event_total": 65,
        "has_played": true,
        "id": 67850236,
        "last_rank": 13601,
        "player_name": "Jay Shinh",
        "rank": 10222,
        "rank_sort": 10260,
        "total": 2398
      },
      {
        "club_badge_src": null,
        "entry": 8557300,
        "entry_name": "Rick",
        "event_total": 48,
        "has_played": true,
        "id": 71189584,
        "last_rank": 6579,
        "player_name": "Rickie Healy",
        "rank": 10222,
        "rank_sort": 10261,
        "total": 2398
      },
      {
        "club_badge_src": null,
        "entry": 8776980,
        "entry_name": "The Biscuit",
        "event_total": 57,
        "has_played": true,
        "id": 73322271,
        "last_rank": 9711,
        "player_name": "John Byrne",
        "rank": 10222,
        "rank_sort": 10262,
        "total": 2398
      },
      {
        "club_badge_src": null,
        "entry": 9462124,
        "entry_name": "GTD",
        "event_total": 85,
        "has_played": true,
        "id": 79960588,
        "last_rank": 28150,
        "player_name": "Greg Draper",
        "rank": 10222,
        "rank_sort": 10263,
        "total": 2398
      },
      {
        "club_badge_src": "https://fantasy.premierleague.com/gcs/plfpl-production-adobe-approved/plfpl-production/10688/a87ccd31-7c84-4ddd-89fd-20e9fb583b15.png",
        "entry": 10688,
        "entry_name": "don'tlookback elanga",
        "event_total": 54,
        "has_played": true,
        "id": 63288,
        "last_rank": 7237,
        "player_name": "David Buncall",
        "rank": 10264,
        "rank_sort": 10264,
        "total": 2398
      },
      {
        "club_badge_src": "https://fantasy.premierleague.com/gcs/plfpl-production-adobe-approved/plfpl-production/10945/ae025b9c-8302-49fc-8f86-cda3c4c1683d.png",
        "entry": 10945,
        "entry_name": "\u0643\u0627\u0628\u062a\u0646 \u0647\u0627\u0644\u0627\u0646\u062f \u0648\u0627\u0646\u0633\u0627\u0647",
        "event_total": 53,
        "has_played": true,
        "id": 64864,
        "last_rank": 6927,
        "player_name": "Karim Mohamed",
        "rank": 10264,
        "rank_sort": 10265,
        "total": 2398
      },
      {
        "club_badge_src": "https://fantasy.premierleague.com/gcs/plfpl-production-adobe-approved/plfpl-production/12160/b1115a9e-a85a-41f8-bf35-9e60196828d7.png",
        "entry": 12160,
        "entry_name": "Sr Jims Cost Cutters",
        "event_total": 65,
        "has_played": true,
        "id": 72566,
        "last_rank": 13601,
        "player_name": "Joe Young",
        "rank": 10264,
        "rank_sort": 10266,
        "total": 2398
      },
      {
        "club_badge_src": "https://fantasy.premierleague.com/gcs/plfpl-production-adobe-approved/plfpl-production/12387/048d9f02-81e1-4079-9af0-94832a006a78.png",
        "entry": 12387,
        "entry_name": "DDB Eindhoven",
        "event_total": 52,
        "has_played": true,
        "id": 74067,
        "last_rank": 7891,
        "player_name": "Dan DB",
        "rank": 10264,
        "rank_sort": 10267,
        "total": 2398
      },
      {
        "club_badge_src": null,
        "entry": 14806,
        "entry_name": "Hjertstedt FC",
        "event_total": 61,
        "has_played": true,
        "id": 90298,
        "last_rank": 9751,
        "player_name": "Lucas Hjertstedt",
        "rank": 10264,
        "rank_sort": 10268,
        "total": 2398
      },
      {
        "club_badge_src": "https://fantasy.premierleague.com/gcs/plfpl-production-adobe-approved/plfpl-production/179791/79d90180-e8d1-4c8c-a40c-07af49426120.png",
        "entry": 179791,
        "entry_name": "Dex11",
        "event_total": 69,
        "has_played": true,
        "id": 1186411,
        "last_rank": 15920,
        "player_name": "Akram DeX",
        "rank": 10264,
        "rank_sort": 10269,
        "total": 2398
      },
      {
        "club_badge_src": null,
        "entry": 464556,
        "entry_name": "MayYouLive100Yrs",
        "event_total": 63,
        "has_played": true,
        "id": 3116089,
        "last_rank": 10600,
        "player_name": "Wojciech Le\u015bniowski",
        "rank": 10264,
        "rank_sort": 10270,
        "total": 2398
      },
      {
        "club_badge_src": null,
        "entry": 592354,
        "entry_name": "Rutter Woke Nonsense",
        "event_total": 60,
        "has_played": true,
        "id": 3991352,
        "last_rank": 9350,
        "player_name": "Adam Mclarnon",
        "rank": 10264,
        "rank_sort": 10271,
        "total": 2398
      },
      {
        "club_badge_src": "https://fantasy.premierleague.com/gcs/plfpl-production-adobe-approved/plfpl-production/622097/01ee9307-f0fd-48f0-bbcb-3d283b0293f9.png",
        "entry": 622097,
        "entry_name": "Baby Reijnders",
        "event_total": 58,
        "has_played": true,
        "id": 4204033,
        "last_rank": 8591,
        "player_name": "Chris Hanrahan",
        "rank": 10264,
        "rank_sort": 10272,
        "total": 2398
      },
      {
        "club_badge_src": null,
        "entry": 669150,
        "entry_name": "Septics",
        "event_total": 75,
        "has_played": true,
        "id": 4525318,
        "last_rank": 19904,
        "player_name": "Ole Henrik Vangen",
        "rank": 10264,
        "rank_sort": 10273,
        "total": 2398
      },
      {
        "club_badge_src": null,
        "entry": 702149,
        "entry_name": "Aasgaarden Rossoneri",
        "event_total": 64,
        "has_played": true,
        "id": 4757612,
        "last_rank": 12995,
        "player_name": "Ronald Karlsson",
        "rank": 10264,
        "rank_sort": 10274,
        "total": 2398
      },
      {
        "club_badge_src": null,
        "entry": 729654,
        "entry_name": "Burt FC",
        "event_total": 76,
        "has_played": true,
        "id": 4957749,
        "last_rank": 20624,
        "player_name": "Tom Burt",
        "rank": 10264,
        "rank_sort": 10275,
        "total": 2398
      },
      {
        "club_badge_src": "https://fantasy.premierleague.com/gcs/plfpl-production-adobe-approved/plfpl-production/915912/071e8a1a-fa20-4bce-a482-2594b32dda7d.png",
        "entry": 915912,
        "entry_name": "40 year old Virgil",
        "event_total": 59,
        "has_played": true,
        "id": 6298248,
        "last_rank": 10629,
        "player_name": "Ryan Littler",
        "rank": 10264,
        "rank_sort": 10276,
        "total": 2398
      },
      {
        "club_badge_src": null,
        "entry": 934448,
        "entry_name": "Godzilla Bread",
        "event_total": 67,
        "has_played": true,
        "id": 6430417,
        "last_rank": 12470,
        "player_name": "Dharmeswar Daimari",
        "rank": 10264,
        "rank_sort": 10277,
        "total": 2398
      },
      {
        "club_badge_src": "https://fantasy.premierleague.com/gcs/plfpl-production-adobe-approved/plfpl-production/1175469/52345cf4-6854-43e9-864f-a488f93ada5e.png",
        "entry": 1175469,
        "entry_name": "Blue Lock",
        "event_total": 67,
        "has_played": true,
        "id": 8155810,
        "last_rank": 14712,
        "player_name": "Keeran Sivanantham",
        "rank": 10264,
        "rank_sort": 10278,
        "total": 2398
      },
      {
        "club_badge_src": "https://fantasy.premierleague.com/gcs/plfpl-production-adobe-approved/plfpl-production/1573497/8208fe9e-0769-4ee6-9823-623b6ee6833c.png",
        "entry": 1573497,
        "entry_name": "Trust the process",
        "event_total": 65,
        "has_played": true,
        "id": 10994812,
        "last_rank": 11482,
        "player_name": "Ally Howard",
        "rank": 10264,
        "rank_sort": 10279,
        "total": 2398
      },
      {
        "club_badge_src": "https://fantasy.premierleague.com/gcs/plfpl-production-adobe-approved/plfpl-production/1645481/fef4d7c2-a2b6-497d-a23f-a5c06ffd0ed0.png",
        "entry": 1645481,
        "entry_name": "Tjomee",
        "event_total": 58,
        "has_played": true,
        "id": 11518526,
        "last_rank": 10173,
        "player_name": "Milos Gajic",
        "rank": 10264,
        "rank_sort": 10280,
        "total": 2398
      },
      {
        "club_badge_src": null,
        "entry": 2085142,
        "entry_name": "\u0141KS 1908",
        "event_total": 50,
        "has_played": true,
        "id": 14792039,
        "last_rank": 7257,
        "player_name": "Krzysztof Wojda",
        "rank": 10264,
        "rank_sort": 10281,
        "total": 2398
      },
      {
        "club_badge_src": null,
        "entry": 2150539,
        "entry_name": "Hala Madrid",
        "event_total": 64,
        "has_played": true,
        "id": 15285990,
        "last_rank": 11034,
        "player_name": "Amr Khaled",
        "rank": 10264,
        "rank_sort": 10282,
        "total": 2398
      },
      {
        "club_badge_src": null,
        "entry": 2264309,
        "entry_name": "Manny United",
        "event_total": 49,
        "has_played": true,
        "id": 16144461,
        "last_rank": 6949,
        "player_name": "Mohammad Mamaniat",
        "rank": 10264,
        "rank_sort": 10283,
        "total": 2398
      },
      {
        "club_badge_src": null,
        "entry": 3149370,
        "entry_name": "EDDIE's",
        "event_total": 67,
        "has_played": true,
        "id": 23255298,
        "last_rank": 12322,
        "player_name": "Eduard K",
        "rank": 10264,
        "rank_sort": 10284,
        "total": 2398
      },
      {
        "club_badge_src": null,
        "entry": 3919111,
        "entry_name": "J-Ro",
        "event_total": 64,
        "has_played": true,
        "id": 29469574,
        "last_rank": 12995,
        "player_name": "Jayne Roper",
        "rank": 10264,
        "rank_sort": 10285,
        "total": 2398
      },
      {
        "club_badge_src": null,
        "entry": 3959800,
        "entry_name": "The Reds 2.0",
        "event_total": 66,
        "has_played": true,
        "id": 29792656,
        "last_rank": 11957,
        "player_name": "James Panui",
        "rank": 10264,
        "rank_sort": 10286,
        "total": 2398
      },
      {
        "club_badge_src": null,
        "entry": 4456295,
        "entry_name": "T-Total United",
        "event_total": 68,
        "has_played": true,
        "id": 33946744,
        "last_rank": 12995,
        "player_name": "Donal Stack",
        "rank": 10264,
        "rank_sort": 10287,
        "total": 2398
      },
      {
        "club_badge_src": null,
        "entry": 4506039,
        "entry_name": "Shaw ate Dalot",
        "event_total": 54,
        "has_played": true,
        "id": 34355847,
        "last_rank": 7237,
        "player_name": "Robbie McMurdo",
        "rank": 10264,
        "rank_sort": 10288,
        "total": 2398
      },
      {
        "club_badge_src": null,
        "entry": 5115794,
        "entry_name": "RMAN UTD",
        "event_total": 53,
        "has_played": true,
        "id": 39551591,
        "last_rank": 8260,
        "player_name": "ARMAN PT",
        "rank": 10264,
        "rank_sort": 10289,
        "total": 2398
      },
      {
        "club_badge_src": null,
        "entry": 9039065,
        "entry_name": "manopl",
        "event_total": 62,
        "has_played": true,
        "id": 75858022,
        "last_rank": 11999,
        "player_name": "the goat",
        "rank": 10264,
        "rank_sort": 10290,
        "total": 2398
      },
      {
        "club_badge_src": "https://fantasy.premierleague.com/gcs/plfpl-production-adobe-approved/plfpl-production/15191/b80c25fa-56d0-4c96-8a75-a779e5cb7eed.png",
        "entry": 15191,
        "entry_name": "Tangled Up In Blue",
        "event_total": 64,
        "has_played": true,
        "id": 92988,
        "last_rank": 11058,
        "player_name": "Ishaan Ganguly",
        "rank": 10291,
        "rank_sort": 10291,
        "total": 2398
      },
      {
        "club_badge_src": null,
        "entry": 115143,
        "entry_name": "FC Felki",
        "event_total": 59,
        "has_played": true,
        "id": 751368,
        "last_rank": 8999,
        "player_name": "Krzysztof Czaja",
        "rank": 10291,
        "rank_sort": 10292,
        "total": 2398
      },
      {
        "club_badge_src": null,
        "entry": 498330,
        "entry_name": "Botman McGinns",
        "event_total": 47,
        "has_played": true,
        "id": 3344658,
        "last_rank": 6347,
        "player_name": "Angus Chow",
        "rank": 10291,
        "rank_sort": 10293,
        "total": 2398
      },
      {
        "club_badge_src": null,
        "entry": 520089,
        "entry_name": "YABEDABEDU fc",
        "event_total": 62,
        "has_played": true,
        "id": 3492440,
        "last_rank": 12027,
        "player_name": "Fazli Hassan",
        "rank": 10291,
        "rank_sort": 10294,
        "total": 2398
      },
      {
        "club_badge_src": null,
        "entry": 533926,
        "entry_name": "Squidwirtz",
        "event_total": 64,
        "has_played": true,
        "id": 3592904,
        "last_rank": 13060,
        "player_name": "Ethan Phillips",
        "rank": 10291,
        "rank_sort": 10295,
        "total": 2398
      },
      {
        "club_badge_src": null,
        "entry": 987371,
        "entry_name": "Thorpy FC",
        "event_total": 81,
        "has_played": true,
        "id": 6808002,
        "last_rank": 24570,
        "player_name": "Ben Thorpe",
        "rank": 10291,
        "rank_sort": 10296,
        "total": 2398
      },
      {
        "club_badge_src": null,
        "entry": 1149453,
        "entry_name": "Zubi Dooby Doo",
        "event_total": 62,
        "has_played": true,
        "id": 7969790,
        "last_rank": 10173,
        "player_name": "Suraj Mehta",
        "rank": 10291,
        "rank_sort": 10297,
        "total": 2398
      },
      {
        "club_badge_src": null,
        "entry": 1335861,
        "entry_name": "mouuuuux",
        "event_total": 64,
        "has_played": true,
        "id": 9285585,
        "last_rank": 11034,
        "player_name": "Mounir Diaa Eddine",
        "rank": 10291,
        "rank_sort": 10298,
        "total": 2398
      },
      {
        "club_badge_src": null,
        "entry": 1563609,
        "entry_name": "Wirtz Case Scenario",
        "event_total": 72,
        "has_played": true,
        "id": 10922096,
        "last_rank": 15280,
        "player_name": "Mike Jago",
        "rank": 10291,
        "rank_sort": 10299,
        "total": 2398
      },
      {
        "club_badge_src": null,
        "entry": 2620633,
        "entry_name": "Cajuste Do It",
        "event_total": 64,
        "has_played": true,
        "id": 18830346,
        "last_rank": 13033,
        "player_name": "Zak Wilson",
        "rank": 10291,
        "rank_sort": 10300,
        "total": 2398
      }
    ]
  }
}