{
  "last_updated_data": "2026-05-24T23:28:17Z",
  "league": {
    "admin_entry": null,
    "closed": false,
    "code_privacy": "p",
    "created": "2025-07-20T23:14:33.933835Z",
    "cup_league": 2815434,
    "has_cup": true,
    "id": 314,
    "league_type": "s",
    "max_entries": null,
    "name": "Overall",
    "rank": null,
    "scoring": "c",
    "start_event": 1
  },
  "new_entries": {
    "has_next": false,
    "page": 1,
    "results": []
  },
  "standings": {
    "has_next": true,
    "page": 1067,
    "results": [
      {
        "club_badge_src": null,
        "entry": 334934,
        "entry_name": "SFS GRock",
        "event_total": 55,
        "has_played": true,
        "id": 2242717,
        "last_rank": 50635,
        "player_name": "Flavius Simionescu",
        "rank": 53264,
        "rank_sort": 53301,
        "total": 2350
      },
      {
        "club_badge_src": "https://fantasy.premierleague.com/gcs/plfpl-production-adobe-approved/plfpl-production/356851/27d56344-d411-4928-8437-382239bf1ab1.png",
        "entry": 356851,
        "entry_name": "was Once Elite FC",
        "event_total": 57,
        "has_played": true,
        "id": 2388026,
        "last_rank": 47417,
        "player_name": "TheTribal King",
        "rank": 53264,
        "rank_sort": 53302,
        "total": 2350
      },
      {
        "club_badge_src": null,
        "entry": 395578,
        "entry_name": "ThomastheFrankEngine",
        "event_total": 49,
        "has_played": true,
        "id": 2652816,
        "last_rank": 41967,
        "player_name": "Lucas Cornall",
        "rank": 53264,
        "rank_sort": 53303,
        "total": 2350
      },
      {
        "club_badge_src": null,
        "entry": 411012,
        "entry_name": "Wahab 3bduljader",
        "event_total": 59,
        "has_played": true,
        "id": 2755871,
        "last_rank": 50468,
        "player_name": "Abdulwahab AlAbduljader",
        "rank": 53264,
        "rank_sort": 53304,
        "total": 2350
      },
      {
        "club_badge_src": null,
        "entry": 433625,
        "entry_name": "FC Stens\u00f6 Ultras",
        "event_total": 52,
        "has_played": true,
        "id": 2908040,
        "last_rank": 46106,
        "player_name": "August Nyblom",
        "rank": 53264,
        "rank_sort": 53305,
        "total": 2350
      },
      {
        "club_badge_src": null,
        "entry": 461880,
        "entry_name": "Crusty Crock",
        "event_total": 41,
        "has_played": true,
        "id": 3098331,
        "last_rank": 32190,
        "player_name": "Russell Edwards",
        "rank": 53264,
        "rank_sort": 53306,
        "total": 2350
      },
      {
        "club_badge_src": null,
        "entry": 511900,
        "entry_name": "FPL Bagpuss",
        "event_total": 66,
        "has_played": true,
        "id": 3437335,
        "last_rank": 55014,
        "player_name": "FPL Bagpuss",
        "rank": 53264,
        "rank_sort": 53307,
        "total": 2350
      },
      {
        "club_badge_src": null,
        "entry": 563939,
        "entry_name": "AbraDubravka",
        "event_total": 72,
        "has_played": true,
        "id": 3795824,
        "last_rank": 82664,
        "player_name": "Lewis McGarry",
        "rank": 53264,
        "rank_sort": 53308,
        "total": 2350
      },
      {
        "club_badge_src": null,
        "entry": 576677,
        "entry_name": "SilesiaKSG",
        "event_total": 54,
        "has_played": true,
        "id": 3880490,
        "last_rank": 48898,
        "player_name": "Jarek T",
        "rank": 53264,
        "rank_sort": 53309,
        "total": 2350
      },
      {
        "club_badge_src": null,
        "entry": 586725,
        "entry_name": "Tibl team",
        "event_total": 67,
        "has_played": true,
        "id": 3948918,
        "last_rank": 71713,
        "player_name": "houssam haddachi",
        "rank": 53264,
        "rank_sort": 53310,
        "total": 2350
      },
      {
        "club_badge_src": null,
        "entry": 591229,
        "entry_name": "Vasco da Placeholder",
        "event_total": 35,
        "has_played": true,
        "id": 3983229,
        "last_rank": 26345,
        "player_name": "Pete Hellyer",
        "rank": 53264,
        "rank_sort": 53311,
        "total": 2350
      },
      {
        "club_badge_src": null,
        "entry": 629265,
        "entry_name": "BBB Pre\u010dko United",
        "event_total": 81,
        "has_played": true,
        "id": 4252259,
        "last_rank": 104388,
        "player_name": "Marin Filipovi\u0107",
        "rank": 53264,
        "rank_sort": 53312,
        "total": 2350
      },
      {
        "club_badge_src": null,
        "entry": 687645,
        "entry_name": "Gibbers FC",
        "event_total": 69,
        "has_played": true,
        "id": 4655302,
        "last_rank": 67695,
        "player_name": "Simon Johnsson",
        "rank": 53264,
        "rank_sort": 53313,
        "total": 2350
      },
      {
        "club_badge_src": null,
        "entry": 739945,
        "entry_name": "Peaky Reijnders",
        "event_total": 49,
        "has_played": true,
        "id": 5031153,
        "last_rank": 36831,
        "player_name": "Fred Mansfield",
        "rank": 53264,
        "rank_sort": 53314,
        "total": 2350
      },
      {
        "club_badge_src": null,
        "entry": 755858,
        "entry_name": "MHS",
        "event_total": 73,
        "has_played": true,
        "id": 5145941,
        "last_rank": 84360,
        "player_name": "Mohamed Hesham",
        "rank": 53264,
        "rank_sort": 53315,
        "total": 2350
      },
      {
        "club_badge_src": "https://fantasy.premierleague.com/gcs/plfpl-production-adobe-approved/plfpl-production/830249/f6a22234-6bf2-43ab-8358-6f04adb37c89.png",
        "entry": 830249,
        "entry_name": "Free Palestine",
        "event_total": 61,
        "has_played": true,
        "id": 5686764,
        "last_rank": 60462,
        "player_name": "Ahmed Hegazy",
        "rank": 53264,
        "rank_sort": 53316,
        "total": 2350
      },
      {
        "club_badge_src": null,
        "entry": 847513,
        "entry_name": "Mo's Suicide Squad",
        "event_total": 69,
        "has_played": true,
        "id": 5808546,
        "last_rank": 67695,
        "player_name": "MO'men Abo Elseoud",
        "rank": 53264,
        "rank_sort": 53317,
        "total": 2350
      },
      {
        "club_badge_src": "https://fantasy.premierleague.com/gcs/plfpl-production-adobe-approved/plfpl-production/862413/97ffb2b6-9962-486d-ad31-a1b14e74abaf.png",
        "entry": 862413,
        "entry_name": "Cole Me Mother",
        "event_total": 66,
        "has_played": true,
        "id": 5912090,
        "last_rank": 69641,
        "player_name": "Rebecca Hodge",
        "rank": 53264,
        "rank_sort": 53318,
        "total": 2350
      },
      {
        "club_badge_src": null,
        "entry": 907600,
        "entry_name": "Millwall",
        "event_total": 62,
        "has_played": true,
        "id": 6238863,
        "last_rank": 48642,
        "player_name": "Nikola Stratijev",
        "rank": 53264,
        "rank_sort": 53319,
        "total": 2350
      },
      {
        "club_badge_src": "https://fantasy.premierleague.com/gcs/plfpl-production-adobe-approved/plfpl-production/979692/0eafe09a-53db-43c0-9822-b5f7a611acc8.png",
        "entry": 979692,
        "entry_name": "dirty dancers",
        "event_total": 58,
        "has_played": true,
        "id": 6754005,
        "last_rank": 42940,
        "player_name": "VILLE JUVONEN",
        "rank": 53264,
        "rank_sort": 53320,
        "total": 2350
      },
      {
        "club_badge_src": "https://fantasy.premierleague.com/gcs/plfpl-production-adobe-approved/plfpl-production/1019660/e7e14d55-890e-4a1c-838a-be318f497803.png",
        "entry": 1019660,
        "entry_name": "Mick's Men",
        "event_total": 63,
        "has_played": true,
        "id": 7054448,
        "last_rank": 57001,
        "player_name": "Michael Atkin",
        "rank": 53264,
        "rank_sort": 53321,
        "total": 2350
      },
      {
        "club_badge_src": "https://fantasy.premierleague.com/gcs/plfpl-production-adobe-approved/plfpl-production/1065662/051a287b-ff7c-4600-a506-4188f27e685a.png",
        "entry": 1065662,
        "entry_name": "ABSOLUTE PHILTH",
        "event_total": 72,
        "has_played": true,
        "id": 7377324,
        "last_rank": 82664,
        "player_name": "Cooper Jones",
        "rank": 53264,
        "rank_sort": 53322,
        "total": 2350
      },
      {
        "club_badge_src": null,
        "entry": 1176533,
        "entry_name": "Al Mulk \u261d",
        "event_total": 41,
        "has_played": true,
        "id": 8163418,
        "last_rank": 32437,
        "player_name": "Faiz Latif",
        "rank": 53264,
        "rank_sort": 53323,
        "total": 2350
      },
      {
        "club_badge_src": null,
        "entry": 1208795,
        "entry_name": "Fernandinho's",
        "event_total": 56,
        "has_played": true,
        "id": 8389615,
        "last_rank": 45416,
        "player_name": "Ferdinand Lilletvedt",
        "rank": 53264,
        "rank_sort": 53324,
        "total": 2350
      },
      {
        "club_badge_src": "https://fantasy.premierleague.com/gcs/plfpl-production-adobe-approved/plfpl-production/1211879/0c3bdd32-00ee-4d92-8813-67e437ff51cf.png",
        "entry": 1211879,
        "entry_name": "Viicon",
        "event_total": 86,
        "has_played": true,
        "id": 8411620,
        "last_rank": 107162,
        "player_name": "Victory Obosi",
        "rank": 53264,
        "rank_sort": 53325,
        "total": 2350
      },
      {
        "club_badge_src": null,
        "entry": 1257517,
        "entry_name": "Beto the house on it",
        "event_total": 66,
        "has_played": true,
        "id": 8735100,
        "last_rank": 69907,
        "player_name": "Kerr Milne",
        "rank": 53264,
        "rank_sort": 53326,
        "total": 2350
      },
      {
        "club_badge_src": null,
        "entry": 1280024,
        "entry_name": "Quins Park RanGiants",
        "event_total": 65,
        "has_played": true,
        "id": 8894591,
        "last_rank": 60168,
        "player_name": "Garry Francis",
        "rank": 53264,
        "rank_sort": 53327,
        "total": 2350
      },
      {
        "club_badge_src": null,
        "entry": 1285419,
        "entry_name": "Flamin Hot Chidos",
        "event_total": 62,
        "has_played": true,
        "id": 8931970,
        "last_rank": 55311,
        "player_name": "Jack Tiley",
        "rank": 53264,
        "rank_sort": 53328,
        "total": 2350
      },
      {
        "club_badge_src": "https://fantasy.premierleague.com/gcs/plfpl-production-adobe-approved/plfpl-production/1325712/80302bc0-5820-4f7c-8626-384ce4808867.png",
        "entry": 1325712,
        "entry_name": "Le Saux Solid Crew",
        "event_total": 56,
        "has_played": true,
        "id": 9215058,
        "last_rank": 45714,
        "player_name": "Faziri Amako",
        "rank": 53264,
        "rank_sort": 53329,
        "total": 2350
      },
      {
        "club_badge_src": null,
        "entry": 1335527,
        "entry_name": "Nepali Honi",
        "event_total": 65,
        "has_played": true,
        "id": 9283260,
        "last_rank": 60462,
        "player_name": "Saugat Baral",
        "rank": 53264,
        "rank_sort": 53330,
        "total": 2350
      },
      {
        "club_badge_src": null,
        "entry": 1337193,
        "entry_name": "BruceysCreamyBeamies",
        "event_total": 69,
        "has_played": true,
        "id": 9296144,
        "last_rank": 75874,
        "player_name": "Conor Buckley",
        "rank": 53264,
        "rank_sort": 53331,
        "total": 2350
      },
      {
        "club_badge_src": null,
        "entry": 1368027,
        "entry_name": "Eighty Sevenzz",
        "event_total": 64,
        "has_played": true,
        "id": 9509905,
        "last_rank": 51720,
        "player_name": "Davian Ashman",
        "rank": 53264,
        "rank_sort": 53332,
        "total": 2350
      },
      {
        "club_badge_src": null,
        "entry": 1369432,
        "entry_name": "bonk",
        "event_total": 60,
        "has_played": true,
        "id": 9519383,
        "last_rank": 51984,
        "player_name": "Kai Rui Tan",
        "rank": 53264,
        "rank_sort": 53333,
        "total": 2350
      },
      {
        "club_badge_src": "https://fantasy.premierleague.com/gcs/plfpl-production-adobe-approved/plfpl-production/1375263/ba5345e3-f6b0-44d1-92e0-f67da15d2618.png",
        "entry": 1375263,
        "entry_name": "hazem sh",
        "event_total": 66,
        "has_played": true,
        "id": 9559988,
        "last_rank": 62223,
        "player_name": "Hazem Shatnawi",
        "rank": 53264,
        "rank_sort": 53334,
        "total": 2350
      },
      {
        "club_badge_src": null,
        "entry": 1378289,
        "entry_name": "Departed News",
        "event_total": 31,
        "has_played": true,
        "id": 9580916,
        "last_rank": 22921,
        "player_name": "Peder Wenstad",
        "rank": 53264,
        "rank_sort": 53335,
        "total": 2350
      },
      {
        "club_badge_src": null,
        "entry": 1439565,
        "entry_name": "beasts 21",
        "event_total": 68,
        "has_played": true,
        "id": 10031123,
        "last_rank": 65796,
        "player_name": "Ayoub Zakrani",
        "rank": 53264,
        "rank_sort": 53336,
        "total": 2350
      },
      {
        "club_badge_src": null,
        "entry": 1504636,
        "entry_name": "Barkola",
        "event_total": 67,
        "has_played": true,
        "id": 10493508,
        "last_rank": 71956,
        "player_name": "Alex Barker",
        "rank": 53264,
        "rank_sort": 53337,
        "total": 2350
      },
      {
        "club_badge_src": null,
        "entry": 1524059,
        "entry_name": "ACMLN",
        "event_total": 70,
        "has_played": true,
        "id": 10629815,
        "last_rank": 69323,
        "player_name": "Junior Adu",
        "rank": 53264,
        "rank_sort": 53338,
        "total": 2350
      },
      {
        "club_badge_src": "https://fantasy.premierleague.com/gcs/plfpl-production-adobe-approved/plfpl-production/1639282/64e8d236-6e94-4649-b6bd-ff80c51ac005.png",
        "entry": 1639282,
        "entry_name": "Eze's coming home",
        "event_total": 35,
        "has_played": true,
        "id": 11474677,
        "last_rank": 26345,
        "player_name": "J\u00e9r\u00e9mie Guay",
        "rank": 53264,
        "rank_sort": 53339,
        "total": 2350
      },
      {
        "club_badge_src": null,
        "entry": 1670297,
        "entry_name": "Ahmed",
        "event_total": 66,
        "has_played": true,
        "id": 11694350,
        "last_rank": 69641,
        "player_name": "Ahmed Almuslih",
        "rank": 53264,
        "rank_sort": 53340,
        "total": 2350
      },
      {
        "club_badge_src": null,
        "entry": 1671468,
        "entry_name": "How's This Wood",
        "event_total": 66,
        "has_played": true,
        "id": 11702435,
        "last_rank": 69641,
        "player_name": "Fraser Forsey",
        "rank": 53264,
        "rank_sort": 53341,
        "total": 2350
      },
      {
        "club_badge_src": "https://fantasy.premierleague.com/gcs/plfpl-production-adobe-approved/plfpl-production/1715839/147e1925-c6c5-47d3-8f80-b535435706e7.png",
        "entry": 1715839,
        "entry_name": "WeST_SiDE Utd",
        "event_total": 60,
        "has_played": true,
        "id": 12023869,
        "last_rank": 58911,
        "player_name": "Marko Milovi\u0107",
        "rank": 53264,
        "rank_sort": 53342,
        "total": 2350
      },
      {
        "club_badge_src": null,
        "entry": 1720625,
        "entry_name": "G&D",
        "event_total": 78,
        "has_played": true,
        "id": 12059511,
        "last_rank": 86735,
        "player_name": "Sourav Datta",
        "rank": 53264,
        "rank_sort": 53343,
        "total": 2350
      },
      {
        "club_badge_src": null,
        "entry": 1873929,
        "entry_name": "No Chance",
        "event_total": 67,
        "has_played": true,
        "id": 13193176,
        "last_rank": 64005,
        "player_name": "Andrew McKay",
        "rank": 53264,
        "rank_sort": 53344,
        "total": 2350
      },
      {
        "club_badge_src": null,
        "entry": 1873943,
        "entry_name": "old dosser",
        "event_total": 67,
        "has_played": true,
        "id": 13193273,
        "last_rank": 71956,
        "player_name": "John Wignall",
        "rank": 53264,
        "rank_sort": 53345,
        "total": 2350
      },
      {
        "club_badge_src": null,
        "entry": 1953503,
        "entry_name": "Wear the Foxhat",
        "event_total": 71,
        "has_played": true,
        "id": 13780654,
        "last_rank": 79431,
        "player_name": "Matthew Fox",
        "rank": 53264,
        "rank_sort": 53346,
        "total": 2350
      },
      {
        "club_badge_src": "https://fantasy.premierleague.com/gcs/plfpl-production-adobe-approved/plfpl-production/1996699/4ad75ba0-b7ef-4269-8009-b2dbba1a6651.png",
        "entry": 1996699,
        "entry_name": "Suns_n_roses39",
        "event_total": 60,
        "has_played": true,
        "id": 14109917,
        "last_rank": 51984,
        "player_name": "Sun Satayanukul",
        "rank": 53264,
        "rank_sort": 53347,
        "total": 2350
      },
      {
        "club_badge_src": null,
        "entry": 2103878,
        "entry_name": "JelfolK",
        "event_total": 61,
        "has_played": true,
        "id": 14930096,
        "last_rank": 53621,
        "player_name": "The Feels",
        "rank": 53264,
        "rank_sort": 53348,
        "total": 2350
      },
      {
        "club_badge_src": null,
        "entry": 2106650,
        "entry_name": "Zamalek FC",
        "event_total": 68,
        "has_played": true,
        "id": 14950650,
        "last_rank": 73975,
        "player_name": "Zia uddin Bablu",
        "rank": 53264,
        "rank_sort": 53349,
        "total": 2350
      },
      {
        "club_badge_src": null,
        "entry": 2109709,
        "entry_name": "Smorly's Bubbles",
        "event_total": 50,
        "has_played": true,
        "id": 14974462,
        "last_rank": 43342,
        "player_name": "Kevin Morl",
        "rank": 53264,
        "rank_sort": 53350,
        "total": 2350
      }
    ]
  }
}