{
  "last_updated_data": "2026-05-24T23:28:17Z",
  "league": {
    "admin_entry": null,
    "closed": false,
    "code_privacy": "p",
    "created": "2025-07-20T23:14:33.933835Z",
    "cup_league": 2815434,
    "has_cup": true,
    "id": 314,
    "league_type": "s",
    "max_entries": null,
    "name": "Overall",
    "rank": null,
    "scoring": "c",
    "start_event": 1
  },
  "new_entries": {
    "has_next": false,
    "page": 1,
    "results": []
  },
  "standings": {
    "has_next": true,
    "page": 996,
    "results": [
      {
        "club_badge_src": null,
        "entry": 45278,
        "entry_name": "Gangsters Allardyce",
        "event_total": 56,
        "has_played": true,
        "id": 290425,
        "last_rank": 42506,
        "player_name": "Will Meadows",
        "rank": 49730,
        "rank_sort": 49751,
        "total": 2352
      },
      {
        "club_badge_src": null,
        "entry": 53186,
        "entry_name": "Tony Brigstack",
        "event_total": 58,
        "has_played": true,
        "id": 342115,
        "last_rank": 51720,
        "player_name": "Derek Woodstone",
        "rank": 49730,
        "rank_sort": 49752,
        "total": 2352
      },
      {
        "club_badge_src": null,
        "entry": 53539,
        "entry_name": "Persiju Sijunjung",
        "event_total": 57,
        "has_played": true,
        "id": 344472,
        "last_rank": 50199,
        "player_name": "Rahganda Chaniago",
        "rank": 49730,
        "rank_sort": 49753,
        "total": 2352
      },
      {
        "club_badge_src": null,
        "entry": 59654,
        "entry_name": "One Tchouameni",
        "event_total": 49,
        "has_played": true,
        "id": 384142,
        "last_rank": 39023,
        "player_name": "Bryan Bonici",
        "rank": 49730,
        "rank_sort": 49754,
        "total": 2352
      },
      {
        "club_badge_src": null,
        "entry": 64934,
        "entry_name": "Sabotage FC",
        "event_total": 62,
        "has_played": true,
        "id": 419166,
        "last_rank": 58388,
        "player_name": "Andreas B",
        "rank": 49730,
        "rank_sort": 49755,
        "total": 2352
      },
      {
        "club_badge_src": null,
        "entry": 66961,
        "entry_name": "MickeyReus23",
        "event_total": 49,
        "has_played": true,
        "id": 433341,
        "last_rank": 38644,
        "player_name": "Metasit Fakchan",
        "rank": 49730,
        "rank_sort": 49756,
        "total": 2352
      },
      {
        "club_badge_src": "https://fantasy.premierleague.com/gcs/plfpl-production-adobe-approved/plfpl-production/77722/2d8dc033-d255-4c22-be5b-4bc57f49e415.png",
        "entry": 77722,
        "entry_name": "iras fantasy",
        "event_total": 57,
        "has_played": true,
        "id": 505207,
        "last_rank": 50199,
        "player_name": "Iras Imran",
        "rank": 49730,
        "rank_sort": 49757,
        "total": 2352
      },
      {
        "club_badge_src": null,
        "entry": 79751,
        "entry_name": "Mikels son",
        "event_total": 70,
        "has_played": true,
        "id": 518823,
        "last_rank": 65163,
        "player_name": "Jake Hoare",
        "rank": 49730,
        "rank_sort": 49758,
        "total": 2352
      },
      {
        "club_badge_src": null,
        "entry": 84505,
        "entry_name": "FC Ucrane",
        "event_total": 72,
        "has_played": true,
        "id": 550235,
        "last_rank": 77258,
        "player_name": "Lucas Kraan",
        "rank": 49730,
        "rank_sort": 49759,
        "total": 2352
      },
      {
        "club_badge_src": "https://fantasy.premierleague.com/gcs/plfpl-production-adobe-approved/plfpl-production/90879/fdc42e5a-2b64-4197-91c6-940da7f8682d.png",
        "entry": 90879,
        "entry_name": "Baronnation \u2664\u2667",
        "event_total": 54,
        "has_played": true,
        "id": 593482,
        "last_rank": 40036,
        "player_name": "Emmanuel Edokpolo",
        "rank": 49730,
        "rank_sort": 49760,
        "total": 2352
      },
      {
        "club_badge_src": "https://fantasy.premierleague.com/gcs/plfpl-production-adobe-approved/plfpl-production/96516/a5e0692b-362e-4068-a1eb-4c48d470870d.png",
        "entry": 96516,
        "entry_name": "Toni Kroos",
        "event_total": 69,
        "has_played": true,
        "id": 630528,
        "last_rank": 70985,
        "player_name": "Toni Kroos",
        "rank": 49730,
        "rank_sort": 49761,
        "total": 2352
      },
      {
        "club_badge_src": null,
        "entry": 98777,
        "entry_name": "Stranger Mings\ufffd",
        "event_total": 45,
        "has_played": true,
        "id": 644911,
        "last_rank": 34293,
        "player_name": "Mohamed Ashraf",
        "rank": 49730,
        "rank_sort": 49762,
        "total": 2352
      },
      {
        "club_badge_src": null,
        "entry": 101969,
        "entry_name": "Sk\u00e5neland",
        "event_total": 56,
        "has_played": true,
        "id": 665308,
        "last_rank": 48642,
        "player_name": "Christoffer J\u00f6nsson",
        "rank": 49730,
        "rank_sort": 49763,
        "total": 2352
      },
      {
        "club_badge_src": null,
        "entry": 102433,
        "entry_name": "Blink 1 E\u2019too",
        "event_total": 61,
        "has_played": true,
        "id": 668358,
        "last_rank": 56708,
        "player_name": "Brad Tinsley",
        "rank": 49730,
        "rank_sort": 49764,
        "total": 2352
      },
      {
        "club_badge_src": "https://fantasy.premierleague.com/gcs/plfpl-production-adobe-approved/plfpl-production/111481/3fb8529c-acdd-4dfe-acd4-e3ea5a0edc17.png",
        "entry": 111481,
        "entry_name": "AstonTinCanDribblers",
        "event_total": 55,
        "has_played": true,
        "id": 726902,
        "last_rank": 46839,
        "player_name": "chris beasley",
        "rank": 49730,
        "rank_sort": 49765,
        "total": 2352
      },
      {
        "club_badge_src": "https://fantasy.premierleague.com/gcs/plfpl-production-adobe-approved/plfpl-production/118286/e0fe9e52-717a-4710-93e1-8b1ec5854627.png",
        "entry": 118286,
        "entry_name": "The Moyesiah",
        "event_total": 54,
        "has_played": true,
        "id": 772005,
        "last_rank": 45416,
        "player_name": "Harry Shepherd",
        "rank": 49730,
        "rank_sort": 49766,
        "total": 2352
      },
      {
        "club_badge_src": null,
        "entry": 126102,
        "entry_name": "Lavia and Leave You",
        "event_total": 69,
        "has_played": true,
        "id": 822297,
        "last_rank": 70985,
        "player_name": "Thomas Epple",
        "rank": 49730,
        "rank_sort": 49767,
        "total": 2352
      },
      {
        "club_badge_src": null,
        "entry": 127642,
        "entry_name": "Dynamo Dave",
        "event_total": 51,
        "has_played": true,
        "id": 832077,
        "last_rank": 36200,
        "player_name": "David Gibson",
        "rank": 49730,
        "rank_sort": 49768,
        "total": 2352
      },
      {
        "club_badge_src": "https://fantasy.premierleague.com/gcs/plfpl-production-adobe-approved/plfpl-production/136217/09434ef5-aa62-4bbb-8e2b-42896dade272.png",
        "entry": 136217,
        "entry_name": "Mounjaro AKN",
        "event_total": 58,
        "has_played": true,
        "id": 887300,
        "last_rank": 51720,
        "player_name": "Anawin Bunyuen",
        "rank": 49730,
        "rank_sort": 49769,
        "total": 2352
      },
      {
        "club_badge_src": null,
        "entry": 150993,
        "entry_name": "Finding Timo",
        "event_total": 64,
        "has_played": true,
        "id": 990450,
        "last_rank": 61950,
        "player_name": "Calum Phillips",
        "rank": 49730,
        "rank_sort": 49770,
        "total": 2352
      },
      {
        "club_badge_src": "https://fantasy.premierleague.com/gcs/plfpl-production-adobe-approved/plfpl-production/157623/a4dcf5b5-644f-4f4c-9730-f5ba24447408.png",
        "entry": 157623,
        "entry_name": "Under My Cucu_rella",
        "event_total": 58,
        "has_played": true,
        "id": 1037027,
        "last_rank": 51220,
        "player_name": "Tribal Chief",
        "rank": 49730,
        "rank_sort": 49771,
        "total": 2352
      },
      {
        "club_badge_src": null,
        "entry": 162744,
        "entry_name": "Bowendinho",
        "event_total": 59,
        "has_played": true,
        "id": 1072973,
        "last_rank": 53345,
        "player_name": "Brad Woodcock",
        "rank": 49730,
        "rank_sort": 49772,
        "total": 2352
      },
      {
        "club_badge_src": null,
        "entry": 166679,
        "entry_name": "Only Time Will Tel",
        "event_total": 71,
        "has_played": true,
        "id": 1101326,
        "last_rank": 66738,
        "player_name": "Freddie Hiscock",
        "rank": 49730,
        "rank_sort": 49773,
        "total": 2352
      },
      {
        "club_badge_src": "https://fantasy.premierleague.com/gcs/plfpl-production-adobe-approved/plfpl-production/181212/063f0751-ca39-4289-b4eb-77fd1ec76a39.png",
        "entry": 181212,
        "entry_name": "Celta Ljungo",
        "event_total": 57,
        "has_played": true,
        "id": 1195832,
        "last_rank": 50468,
        "player_name": "Anton Ljung",
        "rank": 49730,
        "rank_sort": 49774,
        "total": 2352
      },
      {
        "club_badge_src": "https://fantasy.premierleague.com/gcs/plfpl-production-adobe-approved/plfpl-production/185194/c293c836-877c-4a35-b25a-4ee108dc079a.png",
        "entry": 185194,
        "entry_name": "Yousef Man Utd",
        "event_total": 50,
        "has_played": true,
        "id": 1223199,
        "last_rank": 40036,
        "player_name": "Yousef Bassam",
        "rank": 49730,
        "rank_sort": 49775,
        "total": 2352
      },
      {
        "club_badge_src": null,
        "entry": 188418,
        "entry_name": "Tuhnu",
        "event_total": 60,
        "has_played": true,
        "id": 1246566,
        "last_rank": 54667,
        "player_name": "Rasmus Riihim\u00e4ki",
        "rank": 49730,
        "rank_sort": 49776,
        "total": 2352
      },
      {
        "club_badge_src": "https://fantasy.premierleague.com/gcs/plfpl-production-adobe-approved/plfpl-production/190735/36a7bb3b-ba25-4d24-92b8-05242ab42526.png",
        "entry": 190735,
        "entry_name": "Clapham Cheeks",
        "event_total": 79,
        "has_played": true,
        "id": 1263156,
        "last_rank": 93883,
        "player_name": "James Melia",
        "rank": 49730,
        "rank_sort": 49777,
        "total": 2352
      },
      {
        "club_badge_src": null,
        "entry": 195871,
        "entry_name": "Gyok Tuah",
        "event_total": 68,
        "has_played": true,
        "id": 1299118,
        "last_rank": 69323,
        "player_name": "Rahil Sharma",
        "rank": 49730,
        "rank_sort": 49778,
        "total": 2352
      },
      {
        "club_badge_src": null,
        "entry": 201356,
        "entry_name": "Ceiling Fan Milan",
        "event_total": 51,
        "has_played": true,
        "id": 1336935,
        "last_rank": 41617,
        "player_name": "Leonard .",
        "rank": 49730,
        "rank_sort": 49779,
        "total": 2352
      },
      {
        "club_badge_src": null,
        "entry": 201470,
        "entry_name": "Eze Balagan",
        "event_total": 65,
        "has_played": true,
        "id": 1337704,
        "last_rank": 56369,
        "player_name": "Shimon Edri",
        "rank": 49730,
        "rank_sort": 49780,
        "total": 2352
      },
      {
        "club_badge_src": null,
        "entry": 206175,
        "entry_name": "Leap of faith",
        "event_total": 42,
        "has_played": true,
        "id": 1370388,
        "last_rank": 31125,
        "player_name": "Jim Wessel Johansen",
        "rank": 49730,
        "rank_sort": 49781,
        "total": 2352
      },
      {
        "club_badge_src": null,
        "entry": 209258,
        "entry_name": "Tattoussia Dortmund",
        "event_total": 60,
        "has_played": true,
        "id": 1391538,
        "last_rank": 55014,
        "player_name": "Michael Tattoo",
        "rank": 49730,
        "rank_sort": 49782,
        "total": 2352
      },
      {
        "club_badge_src": null,
        "entry": 211463,
        "entry_name": "Alan Gilzean",
        "event_total": 68,
        "has_played": true,
        "id": 1406501,
        "last_rank": 68957,
        "player_name": "Andrew Slater",
        "rank": 49730,
        "rank_sort": 49783,
        "total": 2352
      },
      {
        "club_badge_src": null,
        "entry": 213898,
        "entry_name": "Cole as Ice",
        "event_total": 67,
        "has_played": true,
        "id": 1422948,
        "last_rank": 67422,
        "player_name": "Craig Taylor",
        "rank": 49730,
        "rank_sort": 49784,
        "total": 2352
      },
      {
        "club_badge_src": null,
        "entry": 228724,
        "entry_name": "Cold Palmer Fc",
        "event_total": 65,
        "has_played": true,
        "id": 1521678,
        "last_rank": 56180,
        "player_name": "Jamie Tierney",
        "rank": 49730,
        "rank_sort": 49785,
        "total": 2352
      },
      {
        "club_badge_src": null,
        "entry": 241518,
        "entry_name": "Sicaholic",
        "event_total": 46,
        "has_played": true,
        "id": 1607574,
        "last_rank": 35034,
        "player_name": "Ernest Lee",
        "rank": 49730,
        "rank_sort": 49786,
        "total": 2352
      },
      {
        "club_badge_src": "https://fantasy.premierleague.com/gcs/plfpl-production-adobe-approved/plfpl-production/250996/f6d575e5-ed2c-40c6-b40c-be844ae55b6b.png",
        "entry": 250996,
        "entry_name": "Yoro Wizard Harry",
        "event_total": 67,
        "has_played": true,
        "id": 1669891,
        "last_rank": 67063,
        "player_name": "Daniel Finn",
        "rank": 49730,
        "rank_sort": 49787,
        "total": 2352
      },
      {
        "club_badge_src": null,
        "entry": 262907,
        "entry_name": "Adabi",
        "event_total": 68,
        "has_played": true,
        "id": 1747969,
        "last_rank": 68624,
        "player_name": "Arman Shaveshyan",
        "rank": 49730,
        "rank_sort": 49788,
        "total": 2352
      },
      {
        "club_badge_src": null,
        "entry": 285567,
        "entry_name": "Mo Salad & dumFries",
        "event_total": 78,
        "has_played": true,
        "id": 1902055,
        "last_rank": 91466,
        "player_name": "Salah Ali",
        "rank": 49730,
        "rank_sort": 49789,
        "total": 2352
      },
      {
        "club_badge_src": null,
        "entry": 292850,
        "entry_name": "CanSalahKarius",
        "event_total": 64,
        "has_played": true,
        "id": 1954423,
        "last_rank": 54667,
        "player_name": "Daniel Garrity",
        "rank": 49730,
        "rank_sort": 49790,
        "total": 2352
      },
      {
        "club_badge_src": null,
        "entry": 307046,
        "entry_name": "Slumdog Mignolet",
        "event_total": 57,
        "has_played": true,
        "id": 2056346,
        "last_rank": 50199,
        "player_name": "Amrick Kaler",
        "rank": 49730,
        "rank_sort": 49791,
        "total": 2352
      },
      {
        "club_badge_src": "https://fantasy.premierleague.com/gcs/plfpl-production-adobe-approved/plfpl-production/318955/019be59b-8b73-476b-9c2f-2a1f0e393923.png",
        "entry": 318955,
        "entry_name": "Zola la Land",
        "event_total": 68,
        "has_played": true,
        "id": 2138021,
        "last_rank": 61606,
        "player_name": "Severin Kiefer",
        "rank": 49730,
        "rank_sort": 49792,
        "total": 2352
      },
      {
        "club_badge_src": null,
        "entry": 321457,
        "entry_name": "Yajne's XI",
        "event_total": 57,
        "has_played": true,
        "id": 2154326,
        "last_rank": 50199,
        "player_name": "Veerta Singh",
        "rank": 49730,
        "rank_sort": 49793,
        "total": 2352
      },
      {
        "club_badge_src": null,
        "entry": 327098,
        "entry_name": "Campbell's Cuties",
        "event_total": 63,
        "has_played": true,
        "id": 2191536,
        "last_rank": 59632,
        "player_name": "Aaron Campbell",
        "rank": 49730,
        "rank_sort": 49794,
        "total": 2352
      },
      {
        "club_badge_src": "https://fantasy.premierleague.com/gcs/plfpl-production-adobe-approved/plfpl-production/358896/7e55c079-6341-472f-96cc-9253c6a076b0.png",
        "entry": 358896,
        "entry_name": "Dayenoord",
        "event_total": 59,
        "has_played": true,
        "id": 2401686,
        "last_rank": 52759,
        "player_name": "Simon Day",
        "rank": 49730,
        "rank_sort": 49795,
        "total": 2352
      },
      {
        "club_badge_src": null,
        "entry": 381454,
        "entry_name": "toast fc",
        "event_total": 66,
        "has_played": true,
        "id": 2557178,
        "last_rank": 57857,
        "player_name": "Ismaeel Zabir",
        "rank": 49730,
        "rank_sort": 49796,
        "total": 2352
      },
      {
        "club_badge_src": "https://fantasy.premierleague.com/gcs/plfpl-production-adobe-approved/plfpl-production/393966/9e9fb882-a7aa-41f4-90c6-2712fbcba649.png",
        "entry": 393966,
        "entry_name": "Isak but you Saka Mo",
        "event_total": 59,
        "has_played": true,
        "id": 2642149,
        "last_rank": 46660,
        "player_name": "Ali The Ansari",
        "rank": 49730,
        "rank_sort": 49797,
        "total": 2352
      },
      {
        "club_badge_src": null,
        "entry": 413123,
        "entry_name": "Klass",
        "event_total": 62,
        "has_played": true,
        "id": 2769732,
        "last_rank": 58071,
        "player_name": "Mathias Meltzer",
        "rank": 49730,
        "rank_sort": 49798,
        "total": 2352
      },
      {
        "club_badge_src": "https://fantasy.premierleague.com/gcs/plfpl-production-adobe-approved/plfpl-production/414764/6ddabbe2-596a-4ef8-8484-bec09b1384be.png",
        "entry": 414764,
        "entry_name": "M A F I A",
        "event_total": 70,
        "has_played": true,
        "id": 2780439,
        "last_rank": 73423,
        "player_name": "Abdelrahman Mohamed G",
        "rank": 49730,
        "rank_sort": 49799,
        "total": 2352
      },
      {
        "club_badge_src": null,
        "entry": 425467,
        "entry_name": "Bulky FC",
        "event_total": 68,
        "has_played": true,
        "id": 2851925,
        "last_rank": 68957,
        "player_name": "Muthu Venkatachalam",
        "rank": 49730,
        "rank_sort": 49800,
        "total": 2352
      }
    ]
  }
}