{
  "last_updated_data": "2026-05-24T23:28:17Z",
  "league": {
    "admin_entry": null,
    "closed": false,
    "code_privacy": "p",
    "created": "2025-07-20T23:14:33.933835Z",
    "cup_league": 2815434,
    "has_cup": true,
    "id": 314,
    "league_type": "s",
    "max_entries": null,
    "name": "Overall",
    "rank": null,
    "scoring": "c",
    "start_event": 1
  },
  "new_entries": {
    "has_next": false,
    "page": 1,
    "results": []
  },
  "standings": {
    "has_next": true,
    "page": 1009,
    "results": [
      {
        "club_badge_src": null,
        "entry": 284347,
        "entry_name": "ChickenTikkaMoSalah",
        "event_total": 58,
        "has_played": true,
        "id": 1893332,
        "last_rank": 46106,
        "player_name": "billy brown",
        "rank": 50372,
        "rank_sort": 50401,
        "total": 2352
      },
      {
        "club_badge_src": null,
        "entry": 294471,
        "entry_name": "malaysia under 7",
        "event_total": 70,
        "has_played": true,
        "id": 1966205,
        "last_rank": 66057,
        "player_name": "Rashidi Baharuddin",
        "rank": 50372,
        "rank_sort": 50402,
        "total": 2352
      },
      {
        "club_badge_src": null,
        "entry": 325407,
        "entry_name": "WishMeLuck",
        "event_total": 74,
        "has_played": true,
        "id": 2180388,
        "last_rank": 73975,
        "player_name": "\u0410\u043b\u0435\u043a\u0441\u0430\u043d\u0434\u0430\u0440 \u0420\u0430\u043d\u043a\u043e\u0432\u0438\u045b",
        "rank": 50372,
        "rank_sort": 50403,
        "total": 2352
      },
      {
        "club_badge_src": null,
        "entry": 336959,
        "entry_name": "Ji-Sung Park the Bus",
        "event_total": 70,
        "has_played": true,
        "id": 2255876,
        "last_rank": 74166,
        "player_name": "Arun Olivelle",
        "rank": 50372,
        "rank_sort": 50404,
        "total": 2352
      },
      {
        "club_badge_src": null,
        "entry": 341604,
        "entry_name": "MADAGASCAR",
        "event_total": 67,
        "has_played": true,
        "id": 2286504,
        "last_rank": 68107,
        "player_name": "Suriyan Pongpaew",
        "rank": 50372,
        "rank_sort": 50405,
        "total": 2352
      },
      {
        "club_badge_src": null,
        "entry": 381462,
        "entry_name": "iloveninka",
        "event_total": 62,
        "has_played": true,
        "id": 2557247,
        "last_rank": 58911,
        "player_name": "Michal Krchlik",
        "rank": 50372,
        "rank_sort": 50406,
        "total": 2352
      },
      {
        "club_badge_src": null,
        "entry": 465022,
        "entry_name": "I\u2019m N\u00f8r Gy\u00f6king",
        "event_total": 56,
        "has_played": true,
        "id": 3119587,
        "last_rank": 49078,
        "player_name": "Alex Cook",
        "rank": 50372,
        "rank_sort": 50407,
        "total": 2352
      },
      {
        "club_badge_src": null,
        "entry": 494414,
        "entry_name": "Change Name",
        "event_total": 62,
        "has_played": true,
        "id": 3318629,
        "last_rank": 59077,
        "player_name": "Joshua Cummings",
        "rank": 50372,
        "rank_sort": 50408,
        "total": 2352
      },
      {
        "club_badge_src": "https://fantasy.premierleague.com/gcs/plfpl-production-adobe-approved/plfpl-production/572757/bb90209d-3129-4dfa-a601-98f71c7d30d0.png",
        "entry": 572757,
        "entry_name": "FC Pongolo",
        "event_total": 63,
        "has_played": true,
        "id": 3854685,
        "last_rank": 53837,
        "player_name": "Joey R",
        "rank": 50372,
        "rank_sort": 50409,
        "total": 2352
      },
      {
        "club_badge_src": null,
        "entry": 593365,
        "entry_name": "the butcher",
        "event_total": 56,
        "has_played": true,
        "id": 3998677,
        "last_rank": 43342,
        "player_name": "Joachim Sundf\u00f8r",
        "rank": 50372,
        "rank_sort": 50410,
        "total": 2352
      },
      {
        "club_badge_src": null,
        "entry": 633438,
        "entry_name": "KJD'S TEAM",
        "event_total": 79,
        "has_played": true,
        "id": 4280485,
        "last_rank": 84731,
        "player_name": "Kevin doyle",
        "rank": 50372,
        "rank_sort": 50411,
        "total": 2352
      },
      {
        "club_badge_src": null,
        "entry": 691596,
        "entry_name": "Chumbawamba",
        "event_total": 70,
        "has_played": true,
        "id": 4683489,
        "last_rank": 65796,
        "player_name": "Clifford Faller",
        "rank": 50372,
        "rank_sort": 50412,
        "total": 2352
      },
      {
        "club_badge_src": null,
        "entry": 726619,
        "entry_name": "UNITEDZULAL",
        "event_total": 53,
        "has_played": true,
        "id": 4936004,
        "last_rank": 39403,
        "player_name": "Daniel Zulal",
        "rank": 50372,
        "rank_sort": 50413,
        "total": 2352
      },
      {
        "club_badge_src": null,
        "entry": 746898,
        "entry_name": "It's a Krul World",
        "event_total": 53,
        "has_played": true,
        "id": 5081221,
        "last_rank": 44804,
        "player_name": "Angus Rowell",
        "rank": 50372,
        "rank_sort": 50414,
        "total": 2352
      },
      {
        "club_badge_src": "https://fantasy.premierleague.com/gcs/plfpl-production-adobe-approved/plfpl-production/865068/a739d292-5dda-4a4b-b733-a8a7fe0d2675.png",
        "entry": 865068,
        "entry_name": "Pakuwon Ranger",
        "event_total": 73,
        "has_played": true,
        "id": 5930416,
        "last_rank": 80651,
        "player_name": "Muhamad Ibnu Fauzi",
        "rank": 50372,
        "rank_sort": 50415,
        "total": 2352
      },
      {
        "club_badge_src": null,
        "entry": 885410,
        "entry_name": "Skelly1zee_FC",
        "event_total": 66,
        "has_played": true,
        "id": 6072433,
        "last_rank": 66200,
        "player_name": "Bernard Shardow",
        "rank": 50372,
        "rank_sort": 50416,
        "total": 2352
      },
      {
        "club_badge_src": null,
        "entry": 911741,
        "entry_name": "Blood!",
        "event_total": 53,
        "has_played": true,
        "id": 6268988,
        "last_rank": 39403,
        "player_name": "Abdo Mohamed",
        "rank": 50372,
        "rank_sort": 50417,
        "total": 2352
      },
      {
        "club_badge_src": null,
        "entry": 924711,
        "entry_name": "MMF",
        "event_total": 62,
        "has_played": true,
        "id": 6361170,
        "last_rank": 52205,
        "player_name": "Jaros\u0142aw \u0141\u0105czka",
        "rank": 50372,
        "rank_sort": 50418,
        "total": 2352
      },
      {
        "club_badge_src": "https://fantasy.premierleague.com/gcs/plfpl-production-adobe-approved/plfpl-production/1043244/c3a16cd4-c923-4383-8e2f-f8102adc5f65.png",
        "entry": 1043244,
        "entry_name": "Mineru Oravita",
        "event_total": 25,
        "has_played": true,
        "id": 7219548,
        "last_rank": 17194,
        "player_name": "Savian Boroanca",
        "rank": 50372,
        "rank_sort": 50419,
        "total": 2352
      },
      {
        "club_badge_src": null,
        "entry": 1090457,
        "entry_name": "Alesha 2nd place",
        "event_total": 61,
        "has_played": true,
        "id": 7552182,
        "last_rank": 57358,
        "player_name": "Alesha illarionov",
        "rank": 50372,
        "rank_sort": 50420,
        "total": 2352
      },
      {
        "club_badge_src": null,
        "entry": 1107817,
        "entry_name": "JA",
        "event_total": 56,
        "has_played": true,
        "id": 7673458,
        "last_rank": 49207,
        "player_name": "Jafar Ahmed",
        "rank": 50372,
        "rank_sort": 50421,
        "total": 2352
      },
      {
        "club_badge_src": null,
        "entry": 1122006,
        "entry_name": "For Beto or Wirtz",
        "event_total": 65,
        "has_played": true,
        "id": 7773339,
        "last_rank": 57200,
        "player_name": "Caleb Campion",
        "rank": 50372,
        "rank_sort": 50422,
        "total": 2352
      },
      {
        "club_badge_src": null,
        "entry": 1170927,
        "entry_name": "United FC",
        "event_total": 91,
        "has_played": true,
        "id": 8123246,
        "last_rank": 115421,
        "player_name": "Shreyas Srikanth",
        "rank": 50372,
        "rank_sort": 50423,
        "total": 2352
      },
      {
        "club_badge_src": null,
        "entry": 1268577,
        "entry_name": "Ketton Keith",
        "event_total": 65,
        "has_played": true,
        "id": 8814200,
        "last_rank": 64190,
        "player_name": "Daniel Harber",
        "rank": 50372,
        "rank_sort": 50424,
        "total": 2352
      },
      {
        "club_badge_src": null,
        "entry": 1273925,
        "entry_name": "Maresca's Magic",
        "event_total": 68,
        "has_played": true,
        "id": 8851859,
        "last_rank": 62429,
        "player_name": "Adam Hall",
        "rank": 50372,
        "rank_sort": 50425,
        "total": 2352
      },
      {
        "club_badge_src": "https://fantasy.premierleague.com/gcs/plfpl-production-adobe-approved/plfpl-production/1307307/3dacb426-cabd-42c0-9b07-58a0cc77efb6.png",
        "entry": 1307307,
        "entry_name": "Relegation dogs",
        "event_total": 58,
        "has_played": true,
        "id": 9086644,
        "last_rank": 52357,
        "player_name": "Robin Andersen",
        "rank": 50372,
        "rank_sort": 50426,
        "total": 2352
      },
      {
        "club_badge_src": null,
        "entry": 1313244,
        "entry_name": "Bane FC",
        "event_total": 47,
        "has_played": true,
        "id": 9128019,
        "last_rank": 37058,
        "player_name": "Star Boy",
        "rank": 50372,
        "rank_sort": 50427,
        "total": 2352
      },
      {
        "club_badge_src": null,
        "entry": 1328283,
        "entry_name": "KingKai FC",
        "event_total": 64,
        "has_played": true,
        "id": 9232685,
        "last_rank": 55514,
        "player_name": "Kai Mahindru",
        "rank": 50372,
        "rank_sort": 50428,
        "total": 2352
      },
      {
        "club_badge_src": null,
        "entry": 1427595,
        "entry_name": "Lanterne Rouge FC",
        "event_total": 51,
        "has_played": true,
        "id": 9947136,
        "last_rank": 42081,
        "player_name": "Stian Mj\u00e5sund",
        "rank": 50372,
        "rank_sort": 50429,
        "total": 2352
      },
      {
        "club_badge_src": null,
        "entry": 1487264,
        "entry_name": "Stranger Mings",
        "event_total": 64,
        "has_played": true,
        "id": 10371387,
        "last_rank": 62617,
        "player_name": "Kian Bennett",
        "rank": 50372,
        "rank_sort": 50430,
        "total": 2352
      },
      {
        "club_badge_src": null,
        "entry": 1623134,
        "entry_name": "Thame Israelites",
        "event_total": 64,
        "has_played": true,
        "id": 11360262,
        "last_rank": 62617,
        "player_name": "David Sproat",
        "rank": 50372,
        "rank_sort": 50431,
        "total": 2352
      },
      {
        "club_badge_src": null,
        "entry": 1693074,
        "entry_name": "U'11 NEVER WALK AL1",
        "event_total": 60,
        "has_played": true,
        "id": 11857877,
        "last_rank": 55514,
        "player_name": "Nishan Shrestha",
        "rank": 50372,
        "rank_sort": 50432,
        "total": 2352
      },
      {
        "club_badge_src": null,
        "entry": 1760419,
        "entry_name": "Bowen 737",
        "event_total": 58,
        "has_played": true,
        "id": 12360021,
        "last_rank": 46106,
        "player_name": "Khacher Khoroz",
        "rank": 50372,
        "rank_sort": 50433,
        "total": 2352
      },
      {
        "club_badge_src": null,
        "entry": 1798446,
        "entry_name": "wissam(313)alanbari",
        "event_total": 55,
        "has_played": true,
        "id": 12639021,
        "last_rank": 47722,
        "player_name": "Wissam Alanbari -IQ---",
        "rank": 50372,
        "rank_sort": 50434,
        "total": 2352
      },
      {
        "club_badge_src": null,
        "entry": 1848837,
        "entry_name": "The Normal Eleven",
        "event_total": 69,
        "has_played": true,
        "id": 13009348,
        "last_rank": 71956,
        "player_name": "Omar Bernab\u00e9",
        "rank": 50372,
        "rank_sort": 50435,
        "total": 2352
      },
      {
        "club_badge_src": "https://fantasy.premierleague.com/gcs/plfpl-production-adobe-approved/plfpl-production/1852601/0dfbd337-5cdc-411f-838c-ffcdfcb550c1.png",
        "entry": 1852601,
        "entry_name": "Lark FC",
        "event_total": 80,
        "has_played": true,
        "id": 13036578,
        "last_rank": 96777,
        "player_name": "Terence Tan",
        "rank": 50372,
        "rank_sort": 50436,
        "total": 2352
      },
      {
        "club_badge_src": null,
        "entry": 1857943,
        "entry_name": "PandAmorium",
        "event_total": 49,
        "has_played": true,
        "id": 13075803,
        "last_rank": 34578,
        "player_name": "Pranay Rajiv",
        "rank": 50372,
        "rank_sort": 50437,
        "total": 2352
      },
      {
        "club_badge_src": null,
        "entry": 1932606,
        "entry_name": "No Mbuemo, No Bueno",
        "event_total": 68,
        "has_played": true,
        "id": 13630425,
        "last_rank": 62223,
        "player_name": "Clint Carpenter",
        "rank": 50372,
        "rank_sort": 50438,
        "total": 2352
      },
      {
        "club_badge_src": null,
        "entry": 1935079,
        "entry_name": "Lil Uzi Wirtz",
        "event_total": 59,
        "has_played": true,
        "id": 13648265,
        "last_rank": 53952,
        "player_name": "Vishnu Nair",
        "rank": 50372,
        "rank_sort": 50439,
        "total": 2352
      },
      {
        "club_badge_src": null,
        "entry": 1964281,
        "entry_name": "Waleed team",
        "event_total": 65,
        "has_played": true,
        "id": 13859580,
        "last_rank": 57200,
        "player_name": "Waleed Saidahmed",
        "rank": 50372,
        "rank_sort": 50440,
        "total": 2352
      },
      {
        "club_badge_src": null,
        "entry": 2097119,
        "entry_name": "10s",
        "event_total": 40,
        "has_played": true,
        "id": 14879547,
        "last_rank": 29279,
        "player_name": "Supamongkol Anantana",
        "rank": 50372,
        "rank_sort": 50441,
        "total": 2352
      },
      {
        "club_badge_src": null,
        "entry": 2166304,
        "entry_name": "Erik Ten Hacks",
        "event_total": 64,
        "has_played": true,
        "id": 15400544,
        "last_rank": 62429,
        "player_name": "Sam Yeung",
        "rank": 50372,
        "rank_sort": 50442,
        "total": 2352
      },
      {
        "club_badge_src": null,
        "entry": 2202351,
        "entry_name": "Go Eze on me",
        "event_total": 65,
        "has_played": true,
        "id": 15673162,
        "last_rank": 64319,
        "player_name": "Jason Greene",
        "rank": 50372,
        "rank_sort": 50443,
        "total": 2352
      },
      {
        "club_badge_src": null,
        "entry": 2235836,
        "entry_name": "\u064a\u062d\u064a\u0627 \u0627\u0644\u0633\u0646\u0648\u0627\u0631",
        "event_total": 51,
        "has_played": true,
        "id": 15928085,
        "last_rank": 32190,
        "player_name": "Mo Ahmed",
        "rank": 50372,
        "rank_sort": 50444,
        "total": 2352
      },
      {
        "club_badge_src": null,
        "entry": 2279282,
        "entry_name": "Abbati FC",
        "event_total": 60,
        "has_played": true,
        "id": 16253623,
        "last_rank": 55514,
        "player_name": "Mohammed Bukar Ibrahim",
        "rank": 50372,
        "rank_sort": 50445,
        "total": 2352
      },
      {
        "club_badge_src": null,
        "entry": 2321143,
        "entry_name": "Slemaniyakam",
        "event_total": 66,
        "has_played": true,
        "id": 16558370,
        "last_rank": 58911,
        "player_name": "Aram Naje",
        "rank": 50372,
        "rank_sort": 50446,
        "total": 2352
      },
      {
        "club_badge_src": "https://fantasy.premierleague.com/gcs/plfpl-production-adobe-approved/plfpl-production/2365492/903c5db7-5319-4cf4-813e-2c5d4d07da4c.png",
        "entry": 2365492,
        "entry_name": "KobSheaRer",
        "event_total": 65,
        "has_played": true,
        "id": 16884597,
        "last_rank": 64319,
        "player_name": "Wachira Pongpradit",
        "rank": 50372,
        "rank_sort": 50447,
        "total": 2352
      },
      {
        "club_badge_src": "https://fantasy.premierleague.com/gcs/plfpl-production-adobe-approved/plfpl-production/2430470/8cb47b43-190a-4433-aeac-bb714daceca6.png",
        "entry": 2430470,
        "entry_name": "Glider's FPL Team",
        "event_total": 56,
        "has_played": true,
        "id": 17379333,
        "last_rank": 49207,
        "player_name": "Paul Williams",
        "rank": 50372,
        "rank_sort": 50448,
        "total": 2352
      },
      {
        "club_badge_src": null,
        "entry": 2515616,
        "entry_name": "Shortages FC",
        "event_total": 45,
        "has_played": true,
        "id": 18022863,
        "last_rank": 34682,
        "player_name": "Alex Linton",
        "rank": 50372,
        "rank_sort": 50449,
        "total": 2352
      },
      {
        "club_badge_src": null,
        "entry": 2555672,
        "entry_name": "0121doone",
        "event_total": 63,
        "has_played": true,
        "id": 18325799,
        "last_rank": 60827,
        "player_name": "Jack Dart",
        "rank": 50372,
        "rank_sort": 50450,
        "total": 2352
      }
    ]
  }
}