{
  "last_updated_data": "2026-05-24T23:28:17Z",
  "league": {
    "admin_entry": null,
    "closed": false,
    "code_privacy": "p",
    "created": "2025-07-20T23:14:33.933835Z",
    "cup_league": 2815434,
    "has_cup": true,
    "id": 314,
    "league_type": "s",
    "max_entries": null,
    "name": "Overall",
    "rank": null,
    "scoring": "c",
    "start_event": 1
  },
  "new_entries": {
    "has_next": false,
    "page": 1,
    "results": []
  },
  "standings": {
    "has_next": true,
    "page": 1350,
    "results": [
      {
        "club_badge_src": null,
        "entry": 6369210,
        "entry_name": "Pick your team name",
        "event_total": 39,
        "has_played": true,
        "id": 50647545,
        "last_rank": 39673,
        "player_name": "Cameron Hetherington",
        "rank": 67397,
        "rank_sort": 67451,
        "total": 2342
      },
      {
        "club_badge_src": null,
        "entry": 7044768,
        "entry_name": "Bedney United",
        "event_total": 69,
        "has_played": true,
        "id": 56644926,
        "last_rank": 95147,
        "player_name": "Kasz\u00e1s Beni",
        "rank": 67397,
        "rank_sort": 67452,
        "total": 2342
      },
      {
        "club_badge_src": null,
        "entry": 7140411,
        "entry_name": "Uzumaki FC",
        "event_total": 87,
        "has_played": true,
        "id": 57558601,
        "last_rank": 121991,
        "player_name": "Leye Oladipo",
        "rank": 67397,
        "rank_sort": 67453,
        "total": 2342
      },
      {
        "club_badge_src": null,
        "entry": 7388478,
        "entry_name": "KLEPTO",
        "event_total": 64,
        "has_played": true,
        "id": 59905571,
        "last_rank": 74395,
        "player_name": "Quinton Motende",
        "rank": 67397,
        "rank_sort": 67454,
        "total": 2342
      },
      {
        "club_badge_src": null,
        "entry": 33363,
        "entry_name": "Neville Wears Prada",
        "event_total": 57,
        "has_played": true,
        "id": 212740,
        "last_rank": 68395,
        "player_name": "Ben Linsdell",
        "rank": 67455,
        "rank_sort": 67455,
        "total": 2342
      },
      {
        "club_badge_src": null,
        "entry": 106257,
        "entry_name": "Bookies Favourite",
        "event_total": 76,
        "has_played": true,
        "id": 692899,
        "last_rank": 92471,
        "player_name": "Nick Donaldson",
        "rank": 67455,
        "rank_sort": 67456,
        "total": 2342
      },
      {
        "club_badge_src": null,
        "entry": 132150,
        "entry_name": "11 bullets",
        "event_total": 60,
        "has_played": true,
        "id": 860888,
        "last_rank": 59249,
        "player_name": "Beckham M.",
        "rank": 67455,
        "rank_sort": 67457,
        "total": 2342
      },
      {
        "club_badge_src": "https://fantasy.premierleague.com/gcs/plfpl-production-adobe-approved/plfpl-production/156789/0ccb3d5d-319d-487e-9e9a-316f12063cb0.png",
        "entry": 156789,
        "entry_name": "Hegazy's 25",
        "event_total": 58,
        "has_played": true,
        "id": 1031194,
        "last_rank": 70414,
        "player_name": "Mohamed Hegazy",
        "rank": 67455,
        "rank_sort": 67458,
        "total": 2342
      },
      {
        "club_badge_src": "https://fantasy.premierleague.com/gcs/plfpl-production-adobe-approved/plfpl-production/227822/bc86ab4c-f333-4042-b5de-1edf89091bc6.png",
        "entry": 227822,
        "entry_name": "Oga",
        "event_total": 65,
        "has_played": true,
        "id": 1515440,
        "last_rank": 85624,
        "player_name": "Mike Madhuro",
        "rank": 67455,
        "rank_sort": 67459,
        "total": 2342
      },
      {
        "club_badge_src": "https://fantasy.premierleague.com/gcs/plfpl-production-adobe-approved/plfpl-production/306341/553934d9-4a56-48ea-ac45-1654db74b1a0.png",
        "entry": 306341,
        "entry_name": "Joy Boy",
        "event_total": 70,
        "has_played": true,
        "id": 2051544,
        "last_rank": 87885,
        "player_name": "Karim El Mouddane",
        "rank": 67455,
        "rank_sort": 67460,
        "total": 2342
      },
      {
        "club_badge_src": null,
        "entry": 589822,
        "entry_name": "Spurs and glory",
        "event_total": 58,
        "has_played": true,
        "id": 3972871,
        "last_rank": 70414,
        "player_name": "Arthur Andre Soedermann",
        "rank": 67455,
        "rank_sort": 67461,
        "total": 2342
      },
      {
        "club_badge_src": null,
        "entry": 590142,
        "entry_name": "K\u00e5ta Brudars V\u00e4nner",
        "event_total": 62,
        "has_played": true,
        "id": 3975236,
        "last_rank": 78782,
        "player_name": "Oliver Kronberg",
        "rank": 67455,
        "rank_sort": 67462,
        "total": 2342
      },
      {
        "club_badge_src": null,
        "entry": 1116388,
        "entry_name": "Diwani",
        "event_total": 64,
        "has_played": true,
        "id": 7733083,
        "last_rank": 83127,
        "player_name": "\ud83c\uddf9\ud83c\uddf3 Aymen Rahmouni \ud83c\uddf9\ud83c\uddf3",
        "rank": 67455,
        "rank_sort": 67463,
        "total": 2342
      },
      {
        "club_badge_src": null,
        "entry": 1559322,
        "entry_name": "game of stones",
        "event_total": 40,
        "has_played": true,
        "id": 10889685,
        "last_rank": 40923,
        "player_name": "Steven Lowe",
        "rank": 67455,
        "rank_sort": 67464,
        "total": 2342
      },
      {
        "club_badge_src": "https://fantasy.premierleague.com/gcs/plfpl-production-adobe-approved/plfpl-production/2180376/07379444-d803-4482-8d26-9217cd070dcf.png",
        "entry": 2180376,
        "entry_name": "MADEVUNATION FC",
        "event_total": 57,
        "has_played": true,
        "id": 15507312,
        "last_rank": 68395,
        "player_name": "wappi Mbeumo",
        "rank": 67455,
        "rank_sort": 67465,
        "total": 2342
      },
      {
        "club_badge_src": "https://fantasy.premierleague.com/gcs/plfpl-production-adobe-approved/plfpl-production/2219811/7534c33a-4f29-4c08-8160-3b4de007611a.png",
        "entry": 2219811,
        "entry_name": "\u0627\u0644\u062d\u0627\u062c \u0645\u062d\u0645\u062f \u0627\u0644\u062c\u0646\u062f\u0649",
        "event_total": 54,
        "has_played": true,
        "id": 15809953,
        "last_rank": 55865,
        "player_name": "Mohamed Elgendy",
        "rank": 67455,
        "rank_sort": 67466,
        "total": 2342
      },
      {
        "club_badge_src": "https://fantasy.premierleague.com/gcs/plfpl-production-adobe-approved/plfpl-production/2786232/43cbf425-87f1-4809-ad9e-0671f1ef1293.png",
        "entry": 2786232,
        "entry_name": "Botman and Reuben",
        "event_total": 55,
        "has_played": true,
        "id": 20340838,
        "last_rank": 57515,
        "player_name": "Aiden Tisdale",
        "rank": 67455,
        "rank_sort": 67467,
        "total": 2342
      },
      {
        "club_badge_src": "https://fantasy.premierleague.com/gcs/plfpl-production-adobe-approved/plfpl-production/3086251/baa4dacf-8c26-4cac-aa97-e61f4ec5fd6a.png",
        "entry": 3086251,
        "entry_name": "\u0628\u0646\u064a\u0627\u0646\u064a\u0643 \u0634\u064a\u0634\u0643\u0648",
        "event_total": 57,
        "has_played": true,
        "id": 22738979,
        "last_rank": 54134,
        "player_name": "YACIN Mohamed",
        "rank": 67455,
        "rank_sort": 67468,
        "total": 2342
      },
      {
        "club_badge_src": null,
        "entry": 3231886,
        "entry_name": "\u0627\u0644\u0645\u0627\u064a\u0633\u062a\u0631\u0648",
        "event_total": 70,
        "has_played": true,
        "id": 23902549,
        "last_rank": 87885,
        "player_name": "OMAR AL-KUBAISI",
        "rank": 67455,
        "rank_sort": 67469,
        "total": 2342
      },
      {
        "club_badge_src": null,
        "entry": 3237224,
        "entry_name": "No more mr Rice guy",
        "event_total": 63,
        "has_played": true,
        "id": 23943766,
        "last_rank": 72407,
        "player_name": "Matt Manley",
        "rank": 67455,
        "rank_sort": 67470,
        "total": 2342
      },
      {
        "club_badge_src": null,
        "entry": 3325609,
        "entry_name": "7XI",
        "event_total": 69,
        "has_played": true,
        "id": 24655120,
        "last_rank": 85487,
        "player_name": "Mike Hooper",
        "rank": 67455,
        "rank_sort": 67471,
        "total": 2342
      },
      {
        "club_badge_src": "https://fantasy.premierleague.com/gcs/plfpl-production-adobe-approved/plfpl-production/3477312/aa214cf0-3985-41ca-838f-170c437b1994.png",
        "entry": 3477312,
        "entry_name": "Piphotshotsll",
        "event_total": 50,
        "has_played": true,
        "id": 25855596,
        "last_rank": 55932,
        "player_name": "Phil Barker",
        "rank": 67455,
        "rank_sort": 67472,
        "total": 2342
      },
      {
        "club_badge_src": null,
        "entry": 3802344,
        "entry_name": "k.piriya united",
        "event_total": 43,
        "has_played": true,
        "id": 28425102,
        "last_rank": 45007,
        "player_name": "Piriya Kongroj",
        "rank": 67455,
        "rank_sort": 67473,
        "total": 2342
      },
      {
        "club_badge_src": null,
        "entry": 3947299,
        "entry_name": "Champions of Europe",
        "event_total": 58,
        "has_played": true,
        "id": 29694511,
        "last_rank": 62874,
        "player_name": "Kenan Veli",
        "rank": 67455,
        "rank_sort": 67474,
        "total": 2342
      },
      {
        "club_badge_src": null,
        "entry": 4520925,
        "entry_name": "haridy",
        "event_total": 69,
        "has_played": true,
        "id": 34478475,
        "last_rank": 85565,
        "player_name": "Ahmed Hamid",
        "rank": 67455,
        "rank_sort": 67475,
        "total": 2342
      },
      {
        "club_badge_src": null,
        "entry": 5522159,
        "entry_name": "Bilal",
        "event_total": 45,
        "has_played": true,
        "id": 43061293,
        "last_rank": 42263,
        "player_name": "Sully G",
        "rank": 67455,
        "rank_sort": 67476,
        "total": 2342
      },
      {
        "club_badge_src": null,
        "entry": 5929927,
        "entry_name": "Magill FC",
        "event_total": 53,
        "has_played": true,
        "id": 46617812,
        "last_rank": 54181,
        "player_name": "chris magill",
        "rank": 67455,
        "rank_sort": 67477,
        "total": 2342
      },
      {
        "club_badge_src": null,
        "entry": 6291614,
        "entry_name": "W TEAM",
        "event_total": 62,
        "has_played": true,
        "id": 49852714,
        "last_rank": 78782,
        "player_name": "Sensei Waley",
        "rank": 67455,
        "rank_sort": 67478,
        "total": 2342
      },
      {
        "club_badge_src": null,
        "entry": 6758133,
        "entry_name": "The Boyos",
        "event_total": 60,
        "has_played": true,
        "id": 54107505,
        "last_rank": 66447,
        "player_name": "Thomas Senior",
        "rank": 67455,
        "rank_sort": 67479,
        "total": 2342
      },
      {
        "club_badge_src": null,
        "entry": 7542281,
        "entry_name": "PAIN",
        "event_total": 64,
        "has_played": true,
        "id": 61741718,
        "last_rank": 66380,
        "player_name": "Rombout Amorison",
        "rank": 67455,
        "rank_sort": 67480,
        "total": 2342
      },
      {
        "club_badge_src": null,
        "entry": 7800962,
        "entry_name": "technical value",
        "event_total": 49,
        "has_played": true,
        "id": 64081956,
        "last_rank": 47920,
        "player_name": "Abdelrahman Ahmed",
        "rank": 67455,
        "rank_sort": 67481,
        "total": 2342
      },
      {
        "club_badge_src": "https://fantasy.premierleague.com/gcs/plfpl-production-adobe-approved/plfpl-production/8245085/ccd5b252-0d33-40c8-adae-51ce281443a2.png",
        "entry": 8245085,
        "entry_name": "Sydney Fc",
        "event_total": 62,
        "has_played": true,
        "id": 68176432,
        "last_rank": 78782,
        "player_name": "Sydney Sydo",
        "rank": 67455,
        "rank_sort": 67482,
        "total": 2342
      },
      {
        "club_badge_src": null,
        "entry": 8818435,
        "entry_name": "\u0420\u0435\u043d\u0435\u0441\u0430\u043d\u0441\u0430",
        "event_total": 68,
        "has_played": true,
        "id": 73721371,
        "last_rank": 92602,
        "player_name": "Dimitrije Stepanovic",
        "rank": 67455,
        "rank_sort": 67483,
        "total": 2342
      },
      {
        "club_badge_src": "https://fantasy.premierleague.com/gcs/plfpl-production-adobe-approved/plfpl-production/9406846/9e52c850-940f-4a7e-be9f-dfa8e86000ee.png",
        "entry": 9406846,
        "entry_name": "SuperSus",
        "event_total": 59,
        "has_played": true,
        "id": 79438511,
        "last_rank": 72346,
        "player_name": "Susanne Fernandez",
        "rank": 67455,
        "rank_sort": 67484,
        "total": 2342
      },
      {
        "club_badge_src": null,
        "entry": 10973,
        "entry_name": "Palmer & Chipy Chips",
        "event_total": 70,
        "has_played": true,
        "id": 65027,
        "last_rank": 97750,
        "player_name": "Matthew Rekruciak",
        "rank": 67485,
        "rank_sort": 67485,
        "total": 2342
      },
      {
        "club_badge_src": null,
        "entry": 17037,
        "entry_name": "Dream Team",
        "event_total": 63,
        "has_played": true,
        "id": 105549,
        "last_rank": 72454,
        "player_name": "Serhii Knyr",
        "rank": 67485,
        "rank_sort": 67486,
        "total": 2342
      },
      {
        "club_badge_src": null,
        "entry": 20403,
        "entry_name": "Wissastential Threat",
        "event_total": 52,
        "has_played": true,
        "id": 127205,
        "last_rank": 46406,
        "player_name": "Nikita Gubankov",
        "rank": 67485,
        "rank_sort": 67487,
        "total": 2342
      },
      {
        "club_badge_src": "https://fantasy.premierleague.com/gcs/plfpl-production-adobe-approved/plfpl-production/34717/fb7179f3-2a88-4e18-8d81-1982fc76c31d.png",
        "entry": 34717,
        "entry_name": "Fergie Time",
        "event_total": 68,
        "has_played": true,
        "id": 221911,
        "last_rank": 83216,
        "player_name": "Sean Murphy",
        "rank": 67485,
        "rank_sort": 67488,
        "total": 2342
      },
      {
        "club_badge_src": "https://fantasy.premierleague.com/gcs/plfpl-production-adobe-approved/plfpl-production/266017/acaad367-b9b9-42b9-84e6-7b12ff34be12.png",
        "entry": 266017,
        "entry_name": "Ammar alomari",
        "event_total": 68,
        "has_played": true,
        "id": 1769500,
        "last_rank": 74474,
        "player_name": "Ammar Alomari",
        "rank": 67485,
        "rank_sort": 67489,
        "total": 2342
      },
      {
        "club_badge_src": null,
        "entry": 309957,
        "entry_name": "2 in a row?",
        "event_total": 61,
        "has_played": true,
        "id": 2076268,
        "last_rank": 61045,
        "player_name": "Conall Campbell",
        "rank": 67485,
        "rank_sort": 67490,
        "total": 2342
      },
      {
        "club_badge_src": "https://fantasy.premierleague.com/gcs/plfpl-production-adobe-approved/plfpl-production/454512/4856e412-6ecb-4345-a6ab-c00b2259ebfe.png",
        "entry": 454512,
        "entry_name": "Bourgeoisieses",
        "event_total": 68,
        "has_played": true,
        "id": 3049143,
        "last_rank": 92780,
        "player_name": "Isaac Odongo",
        "rank": 67485,
        "rank_sort": 67491,
        "total": 2342
      },
      {
        "club_badge_src": "https://fantasy.premierleague.com/gcs/plfpl-production-adobe-approved/plfpl-production/522567/5f7a176e-7eb7-4c47-aabf-44d7cde2fb12.png",
        "entry": 522567,
        "entry_name": "HereWeGo United",
        "event_total": 65,
        "has_played": true,
        "id": 3509749,
        "last_rank": 76693,
        "player_name": "Mouadh Derwich",
        "rank": 67485,
        "rank_sort": 67492,
        "total": 2342
      },
      {
        "club_badge_src": "https://fantasy.premierleague.com/gcs/plfpl-production-adobe-approved/plfpl-production/676143/e8e33481-9e14-4775-8fb2-c70d5b5e7fc8.png",
        "entry": 676143,
        "entry_name": "Ctrl Alt De Ligt",
        "event_total": 64,
        "has_played": true,
        "id": 4574411,
        "last_rank": 74524,
        "player_name": "Evan Dyrhol Aamb\u00f8",
        "rank": 67485,
        "rank_sort": 67493,
        "total": 2342
      },
      {
        "club_badge_src": null,
        "entry": 732196,
        "entry_name": "Hendogg XI",
        "event_total": 68,
        "has_played": true,
        "id": 4975512,
        "last_rank": 74395,
        "player_name": "Javayne Henry",
        "rank": 67485,
        "rank_sort": 67494,
        "total": 2342
      },
      {
        "club_badge_src": null,
        "entry": 858533,
        "entry_name": "Die Mannschaft",
        "event_total": 62,
        "has_played": true,
        "id": 5885271,
        "last_rank": 78730,
        "player_name": "Robert Kyei",
        "rank": 67485,
        "rank_sort": 67495,
        "total": 2342
      },
      {
        "club_badge_src": "https://fantasy.premierleague.com/gcs/plfpl-production-adobe-approved/plfpl-production/1148371/6b1d6aaa-f8b8-4e2a-aa95-c7d1127ac639.png",
        "entry": 1148371,
        "entry_name": "Chad F.C.",
        "event_total": 62,
        "has_played": true,
        "id": 7962282,
        "last_rank": 70355,
        "player_name": "James Chady",
        "rank": 67485,
        "rank_sort": 67496,
        "total": 2342
      },
      {
        "club_badge_src": "https://fantasy.premierleague.com/gcs/plfpl-production-adobe-approved/plfpl-production/1223804/8650dcbc-7fea-4f0a-be38-e8a1812f2773.png",
        "entry": 1223804,
        "entry_name": "Zara FC",
        "event_total": 47,
        "has_played": true,
        "id": 8496734,
        "last_rank": 51013,
        "player_name": "ajdin cehajic",
        "rank": 67485,
        "rank_sort": 67497,
        "total": 2342
      },
      {
        "club_badge_src": null,
        "entry": 1316836,
        "entry_name": "bawan",
        "event_total": 48,
        "has_played": true,
        "id": 9152859,
        "last_rank": 52632,
        "player_name": "Bawan Wsw",
        "rank": 67485,
        "rank_sort": 67498,
        "total": 2342
      },
      {
        "club_badge_src": "https://fantasy.premierleague.com/gcs/plfpl-production-adobe-approved/plfpl-production/1378204/487f3d7f-04c3-4ecf-b19e-6131cee3b14d.png",
        "entry": 1378204,
        "entry_name": "Red Devils",
        "event_total": 67,
        "has_played": true,
        "id": 9580297,
        "last_rank": 80965,
        "player_name": "Tran Giang Son",
        "rank": 67485,
        "rank_sort": 67499,
        "total": 2342
      },
      {
        "club_badge_src": "https://fantasy.premierleague.com/gcs/plfpl-production-adobe-approved/plfpl-production/1551750/755384ea-c718-4410-bf78-fa1e0f0db50e.png",
        "entry": 1551750,
        "entry_name": "Dirty Russian \ufffd",
        "event_total": 58,
        "has_played": true,
        "id": 10834459,
        "last_rank": 70446,
        "player_name": "Damian Mcclean",
        "rank": 67485,
        "rank_sort": 67500,
        "total": 2342
      }
    ]
  }
}