{
  "last_updated_data": "2026-05-24T23:28:17Z",
  "league": {
    "admin_entry": null,
    "closed": false,
    "code_privacy": "p",
    "created": "2025-07-20T23:14:33.933835Z",
    "cup_league": 2815434,
    "has_cup": true,
    "id": 314,
    "league_type": "s",
    "max_entries": null,
    "name": "Overall",
    "rank": null,
    "scoring": "c",
    "start_event": 1
  },
  "new_entries": {
    "has_next": false,
    "page": 1,
    "results": []
  },
  "standings": {
    "has_next": true,
    "page": 1026,
    "results": [
      {
        "club_badge_src": null,
        "entry": 8002697,
        "entry_name": "Hotel Kalimuendo",
        "event_total": 63,
        "has_played": true,
        "id": 65908538,
        "last_rank": 61411,
        "player_name": "Simon Bennett",
        "rank": 51004,
        "rank_sort": 51251,
        "total": 2351
      },
      {
        "club_badge_src": null,
        "entry": 8009012,
        "entry_name": "\u7d30\u888b\u570d\u5974",
        "event_total": 59,
        "has_played": true,
        "id": 65964949,
        "last_rank": 54667,
        "player_name": "Samuel Yeung",
        "rank": 51004,
        "rank_sort": 51252,
        "total": 2351
      },
      {
        "club_badge_src": null,
        "entry": 8054898,
        "entry_name": "Saibaba FC",
        "event_total": 57,
        "has_played": true,
        "id": 66381816,
        "last_rank": 51403,
        "player_name": "Saheer Singh",
        "rank": 51004,
        "rank_sort": 51253,
        "total": 2351
      },
      {
        "club_badge_src": "https://fantasy.premierleague.com/gcs/plfpl-production-adobe-approved/plfpl-production/8063919/c476aee8-aa57-4837-b98e-c1ff527ba6e1.png",
        "entry": 8063919,
        "entry_name": "Big Bertha's Boys",
        "event_total": 52,
        "has_played": true,
        "id": 66464720,
        "last_rank": 44048,
        "player_name": "Will Thorp",
        "rank": 51004,
        "rank_sort": 51254,
        "total": 2351
      },
      {
        "club_badge_src": null,
        "entry": 8091472,
        "entry_name": "Cherry Break Well",
        "event_total": 38,
        "has_played": true,
        "id": 66721399,
        "last_rank": 27770,
        "player_name": "Dan Pester",
        "rank": 51004,
        "rank_sort": 51255,
        "total": 2351
      },
      {
        "club_badge_src": null,
        "entry": 8138685,
        "entry_name": "Maccarone Cheese",
        "event_total": 67,
        "has_played": true,
        "id": 67162253,
        "last_rank": 68957,
        "player_name": "James Hare",
        "rank": 51004,
        "rank_sort": 51256,
        "total": 2351
      },
      {
        "club_badge_src": null,
        "entry": 8148899,
        "entry_name": "\ufffd",
        "event_total": 53,
        "has_played": true,
        "id": 67258658,
        "last_rank": 45252,
        "player_name": "Conor Quin",
        "rank": 51004,
        "rank_sort": 51257,
        "total": 2351
      },
      {
        "club_badge_src": null,
        "entry": 8154617,
        "entry_name": "Sts_Fc",
        "event_total": 63,
        "has_played": true,
        "id": 67311747,
        "last_rank": 61606,
        "player_name": "Md Za",
        "rank": 51004,
        "rank_sort": 51258,
        "total": 2351
      },
      {
        "club_badge_src": null,
        "entry": 8167454,
        "entry_name": "Cunha Dig It Sucka",
        "event_total": 77,
        "has_played": true,
        "id": 67430771,
        "last_rank": 91006,
        "player_name": "Liam Kline",
        "rank": 51004,
        "rank_sort": 51259,
        "total": 2351
      },
      {
        "club_badge_src": null,
        "entry": 8169089,
        "entry_name": "Kaos",
        "event_total": 63,
        "has_played": true,
        "id": 67446077,
        "last_rank": 61606,
        "player_name": "Kyaw Lwin Thet",
        "rank": 51004,
        "rank_sort": 51260,
        "total": 2351
      },
      {
        "club_badge_src": null,
        "entry": 8182749,
        "entry_name": "Enter Name Here",
        "event_total": 50,
        "has_played": true,
        "id": 67577175,
        "last_rank": 41162,
        "player_name": "Jacob Priess Christoffersen",
        "rank": 51004,
        "rank_sort": 51261,
        "total": 2351
      },
      {
        "club_badge_src": null,
        "entry": 8475355,
        "entry_name": "Me, myself Ndiaye",
        "event_total": 62,
        "has_played": true,
        "id": 70395978,
        "last_rank": 59813,
        "player_name": "Christopher Lipscomb",
        "rank": 51004,
        "rank_sort": 51262,
        "total": 2351
      },
      {
        "club_badge_src": null,
        "entry": 8479690,
        "entry_name": "super bullet",
        "event_total": 79,
        "has_played": true,
        "id": 70437105,
        "last_rank": 95890,
        "player_name": "Kajoba William",
        "rank": 51004,
        "rank_sort": 51263,
        "total": 2351
      },
      {
        "club_badge_src": null,
        "entry": 8484973,
        "entry_name": "shazza",
        "event_total": 66,
        "has_played": true,
        "id": 70489461,
        "last_rank": 66848,
        "player_name": "Sharon Young",
        "rank": 51004,
        "rank_sort": 51264,
        "total": 2351
      },
      {
        "club_badge_src": null,
        "entry": 8500308,
        "entry_name": "PSG Pati",
        "event_total": 63,
        "has_played": true,
        "id": 70640593,
        "last_rank": 61606,
        "player_name": "Bry -",
        "rank": 51004,
        "rank_sort": 51265,
        "total": 2351
      },
      {
        "club_badge_src": null,
        "entry": 8589638,
        "entry_name": "Winnie's Wanderers",
        "event_total": 60,
        "has_played": true,
        "id": 71498274,
        "last_rank": 56180,
        "player_name": "Kate Jowsey",
        "rank": 51004,
        "rank_sort": 51266,
        "total": 2351
      },
      {
        "club_badge_src": null,
        "entry": 8604958,
        "entry_name": "Hot Tea FC",
        "event_total": 62,
        "has_played": true,
        "id": 71645589,
        "last_rank": 59632,
        "player_name": "Alison Johnstone",
        "rank": 51004,
        "rank_sort": 51267,
        "total": 2351
      },
      {
        "club_badge_src": null,
        "entry": 8614490,
        "entry_name": "IAmGroot",
        "event_total": 68,
        "has_played": true,
        "id": 71737887,
        "last_rank": 70757,
        "player_name": "Hasan Shahriar",
        "rank": 51004,
        "rank_sort": 51268,
        "total": 2351
      },
      {
        "club_badge_src": null,
        "entry": 8768081,
        "entry_name": "SquidWirtz",
        "event_total": 62,
        "has_played": true,
        "id": 73236489,
        "last_rank": 59813,
        "player_name": "Cal Worth",
        "rank": 51004,
        "rank_sort": 51269,
        "total": 2351
      },
      {
        "club_badge_src": null,
        "entry": 8788303,
        "entry_name": "Life Is Peachy",
        "event_total": 64,
        "has_played": true,
        "id": 73431554,
        "last_rank": 63201,
        "player_name": "Andy Broa",
        "rank": 51004,
        "rank_sort": 51270,
        "total": 2351
      },
      {
        "club_badge_src": null,
        "entry": 8803106,
        "entry_name": "Daydream Baleba",
        "event_total": 84,
        "has_played": true,
        "id": 73574663,
        "last_rank": 108959,
        "player_name": "Evan Goldman",
        "rank": 51004,
        "rank_sort": 51271,
        "total": 2351
      },
      {
        "club_badge_src": null,
        "entry": 8936585,
        "entry_name": "Lionel Pessi FC",
        "event_total": 59,
        "has_played": true,
        "id": 74868451,
        "last_rank": 54494,
        "player_name": "Ayder Useinov",
        "rank": 51004,
        "rank_sort": 51272,
        "total": 2351
      },
      {
        "club_badge_src": null,
        "entry": 8953053,
        "entry_name": "myles ahead of you",
        "event_total": 77,
        "has_played": true,
        "id": 75029279,
        "last_rank": 90625,
        "player_name": "Luke James",
        "rank": 51004,
        "rank_sort": 51273,
        "total": 2351
      },
      {
        "club_badge_src": null,
        "entry": 8965542,
        "entry_name": "115 and Counting",
        "event_total": 32,
        "has_played": true,
        "id": 75149001,
        "last_rank": 22534,
        "player_name": "David Murchie",
        "rank": 51004,
        "rank_sort": 51274,
        "total": 2351
      },
      {
        "club_badge_src": null,
        "entry": 9052791,
        "entry_name": "Eggy FC",
        "event_total": 63,
        "has_played": true,
        "id": 75992628,
        "last_rank": 61606,
        "player_name": "Angus Archibald",
        "rank": 51004,
        "rank_sort": 51275,
        "total": 2351
      },
      {
        "club_badge_src": "https://fantasy.premierleague.com/gcs/plfpl-production-adobe-approved/plfpl-production/9060127/4735a652-a571-4b15-8990-1386a3d1b0d2.png",
        "entry": 9060127,
        "entry_name": "Wengers lads",
        "event_total": 33,
        "has_played": true,
        "id": 76063342,
        "last_rank": 23341,
        "player_name": "Dan Pacurar",
        "rank": 51004,
        "rank_sort": 51276,
        "total": 2351
      },
      {
        "club_badge_src": null,
        "entry": 9079501,
        "entry_name": "Change Name",
        "event_total": 48,
        "has_played": true,
        "id": 76251112,
        "last_rank": 38571,
        "player_name": "Ed Lloyd",
        "rank": 51004,
        "rank_sort": 51277,
        "total": 2351
      },
      {
        "club_badge_src": "https://fantasy.premierleague.com/gcs/plfpl-production-adobe-approved/plfpl-production/2894/265534e1-122d-4c0f-93bc-75778f975b11.png",
        "entry": 2894,
        "entry_name": "The Roefs Is On Fire",
        "event_total": 56,
        "has_played": true,
        "id": 16288,
        "last_rank": 43849,
        "player_name": "Thomas Zwagerman",
        "rank": 51278,
        "rank_sort": 51278,
        "total": 2351
      },
      {
        "club_badge_src": null,
        "entry": 3013,
        "entry_name": "JET LAG WANDERERS FC",
        "event_total": 69,
        "has_played": true,
        "id": 16990,
        "last_rank": 73423,
        "player_name": "T Y",
        "rank": 51278,
        "rank_sort": 51279,
        "total": 2351
      },
      {
        "club_badge_src": null,
        "entry": 3641,
        "entry_name": "stroitel",
        "event_total": 68,
        "has_played": true,
        "id": 20645,
        "last_rank": 70757,
        "player_name": "Alexey Knyazev",
        "rank": 51278,
        "rank_sort": 51280,
        "total": 2351
      },
      {
        "club_badge_src": "https://fantasy.premierleague.com/gcs/plfpl-production-adobe-approved/plfpl-production/3749/a0aa112c-79f1-45b6-b93a-428239da1110.png",
        "entry": 3749,
        "entry_name": "Wesburn Whitecaps",
        "event_total": 54,
        "has_played": true,
        "id": 21253,
        "last_rank": 47163,
        "player_name": "Jamie Fletcher",
        "rank": 51278,
        "rank_sort": 51281,
        "total": 2351
      },
      {
        "club_badge_src": null,
        "entry": 4076,
        "entry_name": "59\u00b0N",
        "event_total": 58,
        "has_played": true,
        "id": 23128,
        "last_rank": 46839,
        "player_name": "Geir Faremo",
        "rank": 51278,
        "rank_sort": 51282,
        "total": 2351
      },
      {
        "club_badge_src": null,
        "entry": 4261,
        "entry_name": "Corinaldis",
        "event_total": 63,
        "has_played": true,
        "id": 24196,
        "last_rank": 54667,
        "player_name": "Tome Corinaldi",
        "rank": 51278,
        "rank_sort": 51283,
        "total": 2351
      },
      {
        "club_badge_src": null,
        "entry": 5640,
        "entry_name": "E United",
        "event_total": 59,
        "has_played": true,
        "id": 32174,
        "last_rank": 48363,
        "player_name": "Esam Abdel Rhman",
        "rank": 51278,
        "rank_sort": 51284,
        "total": 2351
      },
      {
        "club_badge_src": null,
        "entry": 8049,
        "entry_name": "Yam FC",
        "event_total": 50,
        "has_played": true,
        "id": 46577,
        "last_rank": 41617,
        "player_name": "Jamie Hewitt",
        "rank": 51278,
        "rank_sort": 51285,
        "total": 2351
      },
      {
        "club_badge_src": null,
        "entry": 8191,
        "entry_name": "Class On Grass",
        "event_total": 50,
        "has_played": true,
        "id": 47478,
        "last_rank": 41617,
        "player_name": "Lewis Turner",
        "rank": 51278,
        "rank_sort": 51286,
        "total": 2351
      },
      {
        "club_badge_src": "https://fantasy.premierleague.com/gcs/plfpl-production-adobe-approved/plfpl-production/11195/6131d435-bf77-4804-aa9a-1ab8b25b21a2.png",
        "entry": 11195,
        "entry_name": "Rutter Woke Nonsense",
        "event_total": 65,
        "has_played": true,
        "id": 66457,
        "last_rank": 65163,
        "player_name": "David Armstrong",
        "rank": 51278,
        "rank_sort": 51287,
        "total": 2351
      },
      {
        "club_badge_src": "https://fantasy.premierleague.com/gcs/plfpl-production-adobe-approved/plfpl-production/12290/a1f2a838-0b14-4b2a-908b-cce97b562a42.png",
        "entry": 12290,
        "entry_name": "Defoenitly maybe",
        "event_total": 43,
        "has_played": true,
        "id": 73387,
        "last_rank": 33147,
        "player_name": "Matt Woodger",
        "rank": 51278,
        "rank_sort": 51288,
        "total": 2351
      },
      {
        "club_badge_src": null,
        "entry": 12432,
        "entry_name": "Always Last",
        "event_total": 59,
        "has_played": true,
        "id": 74401,
        "last_rank": 48363,
        "player_name": "John O Boyle",
        "rank": 51278,
        "rank_sort": 51289,
        "total": 2351
      },
      {
        "club_badge_src": null,
        "entry": 16611,
        "entry_name": "J\u00fcrgenRodgers",
        "event_total": 53,
        "has_played": true,
        "id": 102696,
        "last_rank": 45714,
        "player_name": "joseph prenter",
        "rank": 51278,
        "rank_sort": 51290,
        "total": 2351
      },
      {
        "club_badge_src": null,
        "entry": 17281,
        "entry_name": "Big Bassey Splash",
        "event_total": 56,
        "has_played": true,
        "id": 107167,
        "last_rank": 49691,
        "player_name": "Oli Loveland",
        "rank": 51278,
        "rank_sort": 51291,
        "total": 2351
      },
      {
        "club_badge_src": null,
        "entry": 17997,
        "entry_name": "Planet of the Yates",
        "event_total": 52,
        "has_played": true,
        "id": 111819,
        "last_rank": 38774,
        "player_name": "Ashley Hallam",
        "rank": 51278,
        "rank_sort": 51292,
        "total": 2351
      },
      {
        "club_badge_src": "https://fantasy.premierleague.com/gcs/plfpl-production-adobe-approved/plfpl-production/18085/0cff2977-5ef4-4faf-91d1-fbbf6587cfa6.png",
        "entry": 18085,
        "entry_name": "\u835e\u835e\u5c0f\u53f8\u4ee4",
        "event_total": 67,
        "has_played": true,
        "id": 112409,
        "last_rank": 68748,
        "player_name": "\u6771 \u5065\u592a\u90ce",
        "rank": 51278,
        "rank_sort": 51293,
        "total": 2351
      },
      {
        "club_badge_src": null,
        "entry": 20579,
        "entry_name": "Waltz for Slot",
        "event_total": 68,
        "has_played": true,
        "id": 128526,
        "last_rank": 71386,
        "player_name": "Frank Pike",
        "rank": 51278,
        "rank_sort": 51294,
        "total": 2351
      },
      {
        "club_badge_src": null,
        "entry": 20654,
        "entry_name": "RAN Forest RAN",
        "event_total": 65,
        "has_played": true,
        "id": 129095,
        "last_rank": 65163,
        "player_name": "Ode Heiska",
        "rank": 51278,
        "rank_sort": 51295,
        "total": 2351
      },
      {
        "club_badge_src": null,
        "entry": 26819,
        "entry_name": "Nothing Changes If\u2026",
        "event_total": 67,
        "has_played": true,
        "id": 169572,
        "last_rank": 68748,
        "player_name": "Lee Murfet",
        "rank": 51278,
        "rank_sort": 51296,
        "total": 2351
      },
      {
        "club_badge_src": null,
        "entry": 29233,
        "entry_name": "Angloslovaks",
        "event_total": 57,
        "has_played": true,
        "id": 184816,
        "last_rank": 51720,
        "player_name": "Richard Slaven",
        "rank": 51278,
        "rank_sort": 51297,
        "total": 2351
      },
      {
        "club_badge_src": null,
        "entry": 31600,
        "entry_name": "Echo Party",
        "event_total": 61,
        "has_played": true,
        "id": 200445,
        "last_rank": 51220,
        "player_name": "Toby Davies",
        "rank": 51278,
        "rank_sort": 51298,
        "total": 2351
      },
      {
        "club_badge_src": null,
        "entry": 32915,
        "entry_name": "Cheeseburger",
        "event_total": 63,
        "has_played": true,
        "id": 209640,
        "last_rank": 61950,
        "player_name": "Danusorn Tunk",
        "rank": 51278,
        "rank_sort": 51299,
        "total": 2351
      },
      {
        "club_badge_src": "https://fantasy.premierleague.com/gcs/plfpl-production-adobe-approved/plfpl-production/34112/f7846a58-6494-4362-84e7-64abd6b2301d.png",
        "entry": 34112,
        "entry_name": "Ferry FC",
        "event_total": 64,
        "has_played": true,
        "id": 217830,
        "last_rank": 56369,
        "player_name": "John Ferry",
        "rank": 51278,
        "rank_sort": 51300,
        "total": 2351
      }
    ]
  }
}