{
  "last_updated_data": "2026-05-24T23:28:17Z",
  "league": {
    "admin_entry": null,
    "closed": false,
    "code_privacy": "p",
    "created": "2025-07-20T23:14:33.933835Z",
    "cup_league": 2815434,
    "has_cup": true,
    "id": 314,
    "league_type": "s",
    "max_entries": null,
    "name": "Overall",
    "rank": null,
    "scoring": "c",
    "start_event": 1
  },
  "new_entries": {
    "has_next": false,
    "page": 1,
    "results": []
  },
  "standings": {
    "has_next": true,
    "page": 1598,
    "results": [
      {
        "club_badge_src": null,
        "entry": 15314,
        "entry_name": "FC Alex***",
        "event_total": 54,
        "has_played": true,
        "id": 93878,
        "last_rank": 74898,
        "player_name": "Alex Amery",
        "rank": 79844,
        "rank_sort": 79851,
        "total": 2335
      },
      {
        "club_badge_src": null,
        "entry": 15538,
        "entry_name": "Iceman Cometh",
        "event_total": 65,
        "has_played": true,
        "id": 95428,
        "last_rank": 100700,
        "player_name": "Sahil Khanna",
        "rank": 79844,
        "rank_sort": 79852,
        "total": 2335
      },
      {
        "club_badge_src": null,
        "entry": 19876,
        "entry_name": "Imanprv",
        "event_total": 69,
        "has_played": true,
        "id": 123721,
        "last_rank": 111669,
        "player_name": "iman parvin",
        "rank": 79844,
        "rank_sort": 79853,
        "total": 2335
      },
      {
        "club_badge_src": null,
        "entry": 24699,
        "entry_name": "Dont look bak Elanga",
        "event_total": 54,
        "has_played": true,
        "id": 155950,
        "last_rank": 75139,
        "player_name": "Howard Rein",
        "rank": 79844,
        "rank_sort": 79854,
        "total": 2335
      },
      {
        "club_badge_src": null,
        "entry": 25601,
        "entry_name": "ImSorryNicJackson",
        "event_total": 68,
        "has_played": true,
        "id": 161944,
        "last_rank": 108689,
        "player_name": "u Sheikh",
        "rank": 79844,
        "rank_sort": 79855,
        "total": 2335
      },
      {
        "club_badge_src": null,
        "entry": 26561,
        "entry_name": "Adler Salvius",
        "event_total": 53,
        "has_played": true,
        "id": 167925,
        "last_rank": 73423,
        "player_name": "Patrik Sinerius",
        "rank": 79844,
        "rank_sort": 79856,
        "total": 2335
      },
      {
        "club_badge_src": "https://fantasy.premierleague.com/gcs/plfpl-production-adobe-approved/plfpl-production/28368/aa666eac-709d-444e-b4be-23362adad893.png",
        "entry": 28368,
        "entry_name": "Mr Clover's XI",
        "event_total": 42,
        "has_played": true,
        "id": 179377,
        "last_rank": 52759,
        "player_name": "Sam Clover",
        "rank": 79844,
        "rank_sort": 79857,
        "total": 2335
      },
      {
        "club_badge_src": null,
        "entry": 31907,
        "entry_name": "Sweet Goudmijn",
        "event_total": 60,
        "has_played": true,
        "id": 202617,
        "last_rank": 88594,
        "player_name": "Andy Gibbins",
        "rank": 79844,
        "rank_sort": 79858,
        "total": 2335
      },
      {
        "club_badge_src": "https://fantasy.premierleague.com/gcs/plfpl-production-adobe-approved/plfpl-production/32202/8c929370-ba73-41f0-87fd-c6656b5b0a85.png",
        "entry": 32202,
        "entry_name": "Don\u2019tLookBackElanga",
        "event_total": 67,
        "has_played": true,
        "id": 204697,
        "last_rank": 105963,
        "player_name": "Charlie Barnett",
        "rank": 79844,
        "rank_sort": 79859,
        "total": 2335
      },
      {
        "club_badge_src": null,
        "entry": 33257,
        "entry_name": "Mob Rules Athletic",
        "event_total": 76,
        "has_played": true,
        "id": 212031,
        "last_rank": 132281,
        "player_name": "David Valentine",
        "rank": 79844,
        "rank_sort": 79860,
        "total": 2335
      },
      {
        "club_badge_src": "https://fantasy.premierleague.com/gcs/plfpl-production-adobe-approved/plfpl-production/35565/849c1d66-444b-40e7-aa30-657ffe4cd9a6.png",
        "entry": 35565,
        "entry_name": "FPL Boombox",
        "event_total": 73,
        "has_played": true,
        "id": 227618,
        "last_rank": 123120,
        "player_name": "Siddharth Sharma",
        "rank": 79844,
        "rank_sort": 79861,
        "total": 2335
      },
      {
        "club_badge_src": null,
        "entry": 45683,
        "entry_name": "Ottingham Forest",
        "event_total": 52,
        "has_played": true,
        "id": 293033,
        "last_rank": 70985,
        "player_name": "Jesse Otten",
        "rank": 79844,
        "rank_sort": 79862,
        "total": 2335
      },
      {
        "club_badge_src": null,
        "entry": 47789,
        "entry_name": "FPL Beery FC",
        "event_total": 62,
        "has_played": true,
        "id": 306671,
        "last_rank": 93443,
        "player_name": "Spencer Barrowman",
        "rank": 79844,
        "rank_sort": 79863,
        "total": 2335
      },
      {
        "club_badge_src": null,
        "entry": 48516,
        "entry_name": "GunnerZ",
        "event_total": 66,
        "has_played": true,
        "id": 311615,
        "last_rank": 103254,
        "player_name": "Mohamed El-Araby",
        "rank": 79844,
        "rank_sort": 79864,
        "total": 2335
      },
      {
        "club_badge_src": null,
        "entry": 49869,
        "entry_name": "Change Name",
        "event_total": 67,
        "has_played": true,
        "id": 320597,
        "last_rank": 105818,
        "player_name": "Henry Coates",
        "rank": 79844,
        "rank_sort": 79865,
        "total": 2335
      },
      {
        "club_badge_src": null,
        "entry": 56739,
        "entry_name": "Placalove",
        "event_total": 51,
        "has_played": true,
        "id": 365493,
        "last_rank": 68748,
        "player_name": "Jiri Kohoutek",
        "rank": 79844,
        "rank_sort": 79866,
        "total": 2335
      },
      {
        "club_badge_src": "https://fantasy.premierleague.com/gcs/plfpl-production-adobe-approved/plfpl-production/57747/b7d548e8-573d-4c32-ac7c-8f3c93ff6a1c.png",
        "entry": 57747,
        "entry_name": "Hellteamdz",
        "event_total": 64,
        "has_played": true,
        "id": 372020,
        "last_rank": 98436,
        "player_name": "wadie zm",
        "rank": 79844,
        "rank_sort": 79867,
        "total": 2335
      },
      {
        "club_badge_src": null,
        "entry": 59474,
        "entry_name": "Not Isakly Sure",
        "event_total": 55,
        "has_played": true,
        "id": 382998,
        "last_rank": 77676,
        "player_name": "Fraser Clare",
        "rank": 79844,
        "rank_sort": 79868,
        "total": 2335
      },
      {
        "club_badge_src": "https://fantasy.premierleague.com/gcs/plfpl-production-adobe-approved/plfpl-production/72754/967788e1-97c7-4549-b51e-a32a8f813663.png",
        "entry": 72754,
        "entry_name": "Teachin you a Larsen",
        "event_total": 62,
        "has_played": true,
        "id": 472831,
        "last_rank": 93186,
        "player_name": "Olly Shelley",
        "rank": 79844,
        "rank_sort": 79869,
        "total": 2335
      },
      {
        "club_badge_src": null,
        "entry": 74208,
        "entry_name": "Kinder Mbeumo",
        "event_total": 56,
        "has_played": true,
        "id": 482367,
        "last_rank": 79431,
        "player_name": "Mateusz Banaszak",
        "rank": 79844,
        "rank_sort": 79870,
        "total": 2335
      },
      {
        "club_badge_src": null,
        "entry": 76477,
        "entry_name": "FC JOEY",
        "event_total": 62,
        "has_played": true,
        "id": 497138,
        "last_rank": 93186,
        "player_name": "J\u00f3hann Einar \u00cdsaksson",
        "rank": 79844,
        "rank_sort": 79871,
        "total": 2335
      },
      {
        "club_badge_src": null,
        "entry": 85024,
        "entry_name": "Celtinha",
        "event_total": 53,
        "has_played": true,
        "id": 553642,
        "last_rank": 72815,
        "player_name": "Alberto Mendonca",
        "rank": 79844,
        "rank_sort": 79872,
        "total": 2335
      },
      {
        "club_badge_src": null,
        "entry": 85240,
        "entry_name": "Lolz",
        "event_total": 51,
        "has_played": true,
        "id": 555048,
        "last_rank": 68957,
        "player_name": "Bombiie Lolz",
        "rank": 79844,
        "rank_sort": 79873,
        "total": 2335
      },
      {
        "club_badge_src": "https://fantasy.premierleague.com/gcs/plfpl-production-adobe-approved/plfpl-production/91745/0278eed3-90c7-4f70-af15-fcd78b5d4a75.png",
        "entry": 91745,
        "entry_name": "AFC Bridge 1900",
        "event_total": 63,
        "has_played": true,
        "id": 599377,
        "last_rank": 95890,
        "player_name": "Carl Allen",
        "rank": 79844,
        "rank_sort": 79874,
        "total": 2335
      },
      {
        "club_badge_src": null,
        "entry": 93941,
        "entry_name": "Wirtz Nightmare",
        "event_total": 53,
        "has_played": true,
        "id": 613901,
        "last_rank": 73038,
        "player_name": "Jordan Gallagher",
        "rank": 79844,
        "rank_sort": 79875,
        "total": 2335
      },
      {
        "club_badge_src": "https://fantasy.premierleague.com/gcs/plfpl-production-adobe-approved/plfpl-production/96924/14a35c71-162a-4a50-bfd9-c4a55f9a3491.png",
        "entry": 96924,
        "entry_name": "Cunha believe it?",
        "event_total": 42,
        "has_played": true,
        "id": 633108,
        "last_rank": 53023,
        "player_name": "Abenezer Asamenew",
        "rank": 79844,
        "rank_sort": 79876,
        "total": 2335
      },
      {
        "club_badge_src": null,
        "entry": 98840,
        "entry_name": "Big Back Clocks",
        "event_total": 64,
        "has_played": true,
        "id": 645301,
        "last_rank": 98436,
        "player_name": "Simen Haugen",
        "rank": 79844,
        "rank_sort": 79877,
        "total": 2335
      },
      {
        "club_badge_src": "https://fantasy.premierleague.com/gcs/plfpl-production-adobe-approved/plfpl-production/99845/dbe28f2a-49de-485f-9f83-442943f9853d.png",
        "entry": 99845,
        "entry_name": "legend111",
        "event_total": 55,
        "has_played": true,
        "id": 651701,
        "last_rank": 76947,
        "player_name": "Stephen Watkins",
        "rank": 79844,
        "rank_sort": 79878,
        "total": 2335
      },
      {
        "club_badge_src": null,
        "entry": 101036,
        "entry_name": "Fantasypl_cham",
        "event_total": 44,
        "has_played": true,
        "id": 659319,
        "last_rank": 56708,
        "player_name": "Fantasypl_cham FPL",
        "rank": 79844,
        "rank_sort": 79879,
        "total": 2335
      },
      {
        "club_badge_src": null,
        "entry": 110357,
        "entry_name": "Possession Mafia",
        "event_total": 60,
        "has_played": true,
        "id": 719728,
        "last_rank": 88348,
        "player_name": "Ali Alkaabi",
        "rank": 79844,
        "rank_sort": 79880,
        "total": 2335
      },
      {
        "club_badge_src": null,
        "entry": 115084,
        "entry_name": "Onana Whats My Name",
        "event_total": 52,
        "has_played": true,
        "id": 750938,
        "last_rank": 70757,
        "player_name": "Jesper Johansson",
        "rank": 79844,
        "rank_sort": 79881,
        "total": 2335
      },
      {
        "club_badge_src": null,
        "entry": 128514,
        "entry_name": "Kj\u00f8pmann",
        "event_total": 66,
        "has_played": true,
        "id": 837723,
        "last_rank": 103526,
        "player_name": "Kjetil Aakvik",
        "rank": 79844,
        "rank_sort": 79882,
        "total": 2335
      },
      {
        "club_badge_src": null,
        "entry": 133506,
        "entry_name": "Helt sjukehus",
        "event_total": 64,
        "has_played": true,
        "id": 869575,
        "last_rank": 98073,
        "player_name": "Eirik Theie \u00d8degaard",
        "rank": 79844,
        "rank_sort": 79883,
        "total": 2335
      },
      {
        "club_badge_src": null,
        "entry": 134491,
        "entry_name": "Fountalona",
        "event_total": 54,
        "has_played": true,
        "id": 875895,
        "last_rank": 75139,
        "player_name": "\u0394\u03b9\u03bf\u03bd\u03cd\u03c3\u03b7\u03c2 \u03a6\u03bf\u03cd\u03bd\u03c4\u03b1\u03c2",
        "rank": 79844,
        "rank_sort": 79884,
        "total": 2335
      },
      {
        "club_badge_src": null,
        "entry": 136669,
        "entry_name": "Wenger Boys",
        "event_total": 52,
        "has_played": true,
        "id": 890403,
        "last_rank": 70985,
        "player_name": "Rob Webb",
        "rank": 79844,
        "rank_sort": 79885,
        "total": 2335
      },
      {
        "club_badge_src": null,
        "entry": 151359,
        "entry_name": "Malaysia Tigers",
        "event_total": 59,
        "has_played": true,
        "id": 992979,
        "last_rank": 85836,
        "player_name": "Andrew Cross",
        "rank": 79844,
        "rank_sort": 79886,
        "total": 2335
      },
      {
        "club_badge_src": null,
        "entry": 153045,
        "entry_name": "Paqueta Crisps",
        "event_total": 46,
        "has_played": true,
        "id": 1004890,
        "last_rank": 59632,
        "player_name": "Tom Climpson",
        "rank": 79844,
        "rank_sort": 79887,
        "total": 2335
      },
      {
        "club_badge_src": null,
        "entry": 162570,
        "entry_name": "The Wirtz of Times",
        "event_total": 48,
        "has_played": true,
        "id": 1071719,
        "last_rank": 63201,
        "player_name": "Drew Weir",
        "rank": 79844,
        "rank_sort": 79888,
        "total": 2335
      },
      {
        "club_badge_src": null,
        "entry": 175357,
        "entry_name": "Weekend Warriors",
        "event_total": 61,
        "has_played": true,
        "id": 1157774,
        "last_rank": 91006,
        "player_name": "Martins Cingulis",
        "rank": 79844,
        "rank_sort": 79889,
        "total": 2335
      },
      {
        "club_badge_src": null,
        "entry": 185728,
        "entry_name": "AL AHLY FC \ufffd\u2665",
        "event_total": 49,
        "has_played": true,
        "id": 1227032,
        "last_rank": 65475,
        "player_name": "Zizo.Ash.moh Fekry\ud83c\uddf5\ud83c\uddf8\u2665",
        "rank": 79844,
        "rank_sort": 79890,
        "total": 2335
      },
      {
        "club_badge_src": null,
        "entry": 188630,
        "entry_name": "Reamjob",
        "event_total": 60,
        "has_played": true,
        "id": 1248064,
        "last_rank": 88594,
        "player_name": "Max Benda",
        "rank": 79844,
        "rank_sort": 79891,
        "total": 2335
      },
      {
        "club_badge_src": null,
        "entry": 190444,
        "entry_name": "G\u00e5rda BoIS",
        "event_total": 67,
        "has_played": true,
        "id": 1261127,
        "last_rank": 105818,
        "player_name": "Lukas G\u00e5rdestig",
        "rank": 79844,
        "rank_sort": 79892,
        "total": 2335
      },
      {
        "club_badge_src": null,
        "entry": 194495,
        "entry_name": "18Horus",
        "event_total": 60,
        "has_played": true,
        "id": 1289485,
        "last_rank": 88594,
        "player_name": "Youssef Shaker",
        "rank": 79844,
        "rank_sort": 79893,
        "total": 2335
      },
      {
        "club_badge_src": null,
        "entry": 195400,
        "entry_name": "HuttonDressedAsLahm",
        "event_total": 61,
        "has_played": true,
        "id": 1295767,
        "last_rank": 90746,
        "player_name": "Neil Robertson",
        "rank": 79844,
        "rank_sort": 79894,
        "total": 2335
      },
      {
        "club_badge_src": "https://fantasy.premierleague.com/gcs/plfpl-production-adobe-approved/plfpl-production/203304/71eefd84-8448-4455-b73b-3aff2df9dcfb.png",
        "entry": 203304,
        "entry_name": "A Wing & a Pereira",
        "event_total": 73,
        "has_played": true,
        "id": 1350611,
        "last_rank": 123120,
        "player_name": "Matt Harris",
        "rank": 79844,
        "rank_sort": 79895,
        "total": 2335
      },
      {
        "club_badge_src": null,
        "entry": 221100,
        "entry_name": "Brown Swamp FC",
        "event_total": 62,
        "has_played": true,
        "id": 1470518,
        "last_rank": 93186,
        "player_name": "Juho Hirvi",
        "rank": 79844,
        "rank_sort": 79896,
        "total": 2335
      },
      {
        "club_badge_src": null,
        "entry": 224926,
        "entry_name": "Old Gold Army",
        "event_total": 60,
        "has_played": true,
        "id": 1496256,
        "last_rank": 88594,
        "player_name": "Jak Main",
        "rank": 79844,
        "rank_sort": 79897,
        "total": 2335
      },
      {
        "club_badge_src": null,
        "entry": 252311,
        "entry_name": "Kalma",
        "event_total": 52,
        "has_played": true,
        "id": 1678301,
        "last_rank": 70985,
        "player_name": "Kevin Martin",
        "rank": 79844,
        "rank_sort": 79898,
        "total": 2335
      },
      {
        "club_badge_src": "https://fantasy.premierleague.com/gcs/plfpl-production-adobe-approved/plfpl-production/253293/f71a3ad0-eac8-454f-9c5f-49bdae440462.png",
        "entry": 253293,
        "entry_name": "Ugey FC",
        "event_total": 44,
        "has_played": true,
        "id": 1684688,
        "last_rank": 56369,
        "player_name": "Leo Hambrook",
        "rank": 79844,
        "rank_sort": 79899,
        "total": 2335
      },
      {
        "club_badge_src": null,
        "entry": 262650,
        "entry_name": "LEGRILL FC",
        "event_total": 37,
        "has_played": true,
        "id": 1746157,
        "last_rank": 45416,
        "player_name": "Mario Zurek",
        "rank": 79844,
        "rank_sort": 79900,
        "total": 2335
      }
    ]
  }
}