{
  "last_updated_data": "2026-05-24T23:28:17Z",
  "league": {
    "admin_entry": null,
    "closed": false,
    "code_privacy": "p",
    "created": "2025-07-20T23:14:33.933835Z",
    "cup_league": 2815434,
    "has_cup": true,
    "id": 314,
    "league_type": "s",
    "max_entries": null,
    "name": "Overall",
    "rank": null,
    "scoring": "c",
    "start_event": 1
  },
  "new_entries": {
    "has_next": false,
    "page": 1,
    "results": []
  },
  "standings": {
    "has_next": true,
    "page": 373,
    "results": [
      {
        "club_badge_src": null,
        "entry": 9139001,
        "entry_name": "Van De Ven Me Over",
        "event_total": 60,
        "has_played": true,
        "id": 76833991,
        "last_rank": 20179,
        "player_name": "Eimi Smith",
        "rank": 18428,
        "rank_sort": 18601,
        "total": 2382
      },
      {
        "club_badge_src": null,
        "entry": 9359220,
        "entry_name": "FLEXFC",
        "event_total": 50,
        "has_played": true,
        "id": 78975595,
        "last_rank": 13821,
        "player_name": "Soumyadeep Bhattacharya",
        "rank": 18428,
        "rank_sort": 18602,
        "total": 2382
      },
      {
        "club_badge_src": null,
        "entry": 9396788,
        "entry_name": "Peles",
        "event_total": 61,
        "has_played": true,
        "id": 79342825,
        "last_rank": 20888,
        "player_name": "Adam Peles",
        "rank": 18428,
        "rank_sort": 18603,
        "total": 2382
      },
      {
        "club_badge_src": "https://fantasy.premierleague.com/gcs/plfpl-production-adobe-approved/plfpl-production/374/20563ec1-fef2-4f86-8545-fa1ee344a191.png",
        "entry": 374,
        "entry_name": "FPL Demba",
        "event_total": 65,
        "has_played": true,
        "id": 2067,
        "last_rank": 20983,
        "player_name": "James Moseley",
        "rank": 18604,
        "rank_sort": 18604,
        "total": 2382
      },
      {
        "club_badge_src": null,
        "entry": 1029,
        "entry_name": "Good Ebening",
        "event_total": 71,
        "has_played": true,
        "id": 5708,
        "last_rank": 29578,
        "player_name": "Aston Gobetti",
        "rank": 18604,
        "rank_sort": 18605,
        "total": 2382
      },
      {
        "club_badge_src": null,
        "entry": 3836,
        "entry_name": "Caesar Salah",
        "event_total": 61,
        "has_played": true,
        "id": 21754,
        "last_rank": 20983,
        "player_name": "Craig Veltri",
        "rank": 18604,
        "rank_sort": 18606,
        "total": 2382
      },
      {
        "club_badge_src": null,
        "entry": 7875,
        "entry_name": "Bony & Clyne",
        "event_total": 66,
        "has_played": true,
        "id": 45472,
        "last_rank": 21775,
        "player_name": "Sujanth Puthi",
        "rank": 18604,
        "rank_sort": 18607,
        "total": 2382
      },
      {
        "club_badge_src": null,
        "entry": 8461,
        "entry_name": "Low fat Greek Ugarte",
        "event_total": 53,
        "has_played": true,
        "id": 49206,
        "last_rank": 15694,
        "player_name": "Sam Whinney",
        "rank": 18604,
        "rank_sort": 18608,
        "total": 2382
      },
      {
        "club_badge_src": "https://fantasy.premierleague.com/gcs/plfpl-production-adobe-approved/plfpl-production/14837/4d4d642c-19b2-4031-bbcc-08e69c23f239.png",
        "entry": 14837,
        "entry_name": "NumbersOnTheBoard",
        "event_total": 59,
        "has_played": true,
        "id": 90526,
        "last_rank": 16807,
        "player_name": "Luke Galway",
        "rank": 18604,
        "rank_sort": 18609,
        "total": 2382
      },
      {
        "club_badge_src": null,
        "entry": 16475,
        "entry_name": "Sarr Seat Headrest",
        "event_total": 63,
        "has_played": true,
        "id": 101784,
        "last_rank": 22534,
        "player_name": "Toby Waterton",
        "rank": 18604,
        "rank_sort": 18610,
        "total": 2382
      },
      {
        "club_badge_src": null,
        "entry": 21546,
        "entry_name": "Wissa al Gaib",
        "event_total": 55,
        "has_played": true,
        "id": 135108,
        "last_rank": 16959,
        "player_name": "Bailey Godolphin",
        "rank": 18604,
        "rank_sort": 18611,
        "total": 2382
      },
      {
        "club_badge_src": null,
        "entry": 24375,
        "entry_name": "Jezivo",
        "event_total": 66,
        "has_played": true,
        "id": 153857,
        "last_rank": 21775,
        "player_name": "Nikola Barjaktarevic",
        "rank": 18604,
        "rank_sort": 18612,
        "total": 2382
      },
      {
        "club_badge_src": null,
        "entry": 42242,
        "entry_name": "whiteflag waved",
        "event_total": 65,
        "has_played": true,
        "id": 270696,
        "last_rank": 24143,
        "player_name": "Toby Wallace",
        "rank": 18604,
        "rank_sort": 18613,
        "total": 2382
      },
      {
        "club_badge_src": null,
        "entry": 42814,
        "entry_name": "ine fc",
        "event_total": 54,
        "has_played": true,
        "id": 274238,
        "last_rank": 16163,
        "player_name": "luca devige",
        "rank": 18604,
        "rank_sort": 18614,
        "total": 2382
      },
      {
        "club_badge_src": null,
        "entry": 45389,
        "entry_name": "ToEllandBack",
        "event_total": 52,
        "has_played": true,
        "id": 291164,
        "last_rank": 14926,
        "player_name": "Adam Finney",
        "rank": 18604,
        "rank_sort": 18615,
        "total": 2382
      },
      {
        "club_badge_src": null,
        "entry": 90466,
        "entry_name": "Marvellous McFlurry",
        "event_total": 55,
        "has_played": true,
        "id": 590654,
        "last_rank": 16959,
        "player_name": "Watcharaphon Thipphakitchanaphat",
        "rank": 18604,
        "rank_sort": 18616,
        "total": 2382
      },
      {
        "club_badge_src": null,
        "entry": 93664,
        "entry_name": "Tnmaypgaude",
        "event_total": 68,
        "has_played": true,
        "id": 612090,
        "last_rank": 26827,
        "player_name": "Tnmay P Gaude",
        "rank": 18604,
        "rank_sort": 18617,
        "total": 2382
      },
      {
        "club_badge_src": null,
        "entry": 121902,
        "entry_name": "Four Tet-a",
        "event_total": 68,
        "has_played": true,
        "id": 795333,
        "last_rank": 26827,
        "player_name": "Matt Dawson",
        "rank": 18604,
        "rank_sort": 18618,
        "total": 2382
      },
      {
        "club_badge_src": null,
        "entry": 126519,
        "entry_name": "JustTooGoodForYou",
        "event_total": 56,
        "has_played": true,
        "id": 824897,
        "last_rank": 17585,
        "player_name": "chris cook",
        "rank": 18604,
        "rank_sort": 18619,
        "total": 2382
      },
      {
        "club_badge_src": null,
        "entry": 139046,
        "entry_name": "ABLegend FC",
        "event_total": 56,
        "has_played": true,
        "id": 907339,
        "last_rank": 17437,
        "player_name": "Eitan A B",
        "rank": 18604,
        "rank_sort": 18620,
        "total": 2382
      },
      {
        "club_badge_src": null,
        "entry": 140657,
        "entry_name": "DJavoljaNogica",
        "event_total": 75,
        "has_played": true,
        "id": 918566,
        "last_rank": 33936,
        "player_name": "Aleksandar Jovanovi\u0107",
        "rank": 18604,
        "rank_sort": 18621,
        "total": 2382
      },
      {
        "club_badge_src": null,
        "entry": 169053,
        "entry_name": "Henry's Spirit",
        "event_total": 61,
        "has_played": true,
        "id": 1117222,
        "last_rank": 20983,
        "player_name": "Hadrien Thine",
        "rank": 18604,
        "rank_sort": 18622,
        "total": 2382
      },
      {
        "club_badge_src": "https://fantasy.premierleague.com/gcs/plfpl-production-adobe-approved/plfpl-production/170906/8ab3c3fa-57f0-4e43-ac33-36102775e44f.png",
        "entry": 170906,
        "entry_name": "Kinder Mbeumo",
        "event_total": 58,
        "has_played": true,
        "id": 1129100,
        "last_rank": 16062,
        "player_name": "Andreas Vik\u00f8ren",
        "rank": 18604,
        "rank_sort": 18623,
        "total": 2382
      },
      {
        "club_badge_src": null,
        "entry": 184501,
        "entry_name": "YaMomsMom",
        "event_total": 62,
        "has_played": true,
        "id": 1218349,
        "last_rank": 21949,
        "player_name": "Christian Montalvo",
        "rank": 18604,
        "rank_sort": 18624,
        "total": 2382
      },
      {
        "club_badge_src": null,
        "entry": 185062,
        "entry_name": "URawFul2",
        "event_total": 58,
        "has_played": true,
        "id": 1222257,
        "last_rank": 18985,
        "player_name": "Robert Fulton",
        "rank": 18604,
        "rank_sort": 18625,
        "total": 2382
      },
      {
        "club_badge_src": null,
        "entry": 187352,
        "entry_name": "Yoro for the bus",
        "event_total": 61,
        "has_played": true,
        "id": 1238719,
        "last_rank": 21159,
        "player_name": "Jack Murphy",
        "rank": 18604,
        "rank_sort": 18626,
        "total": 2382
      },
      {
        "club_badge_src": null,
        "entry": 212628,
        "entry_name": "Make Mine A Double",
        "event_total": 66,
        "has_played": true,
        "id": 1414463,
        "last_rank": 25002,
        "player_name": "Angus Gibson",
        "rank": 18604,
        "rank_sort": 18627,
        "total": 2382
      },
      {
        "club_badge_src": null,
        "entry": 213037,
        "entry_name": "R\u00a5@N$ XI",
        "event_total": 65,
        "has_played": true,
        "id": 1417150,
        "last_rank": 24330,
        "player_name": "Ryan Thompson",
        "rank": 18604,
        "rank_sort": 18628,
        "total": 2382
      },
      {
        "club_badge_src": null,
        "entry": 217143,
        "entry_name": "Old Trafford Rejects",
        "event_total": 66,
        "has_played": true,
        "id": 1444163,
        "last_rank": 21677,
        "player_name": "Arun Bulani",
        "rank": 18604,
        "rank_sort": 18629,
        "total": 2382
      },
      {
        "club_badge_src": "https://fantasy.premierleague.com/gcs/plfpl-production-adobe-approved/plfpl-production/219432/4f5707c5-6842-4768-ad83-47ab5e4b279b.png",
        "entry": 219432,
        "entry_name": "Cunha Believe It",
        "event_total": 66,
        "has_played": true,
        "id": 1459276,
        "last_rank": 25172,
        "player_name": "Dhaneswara Mandrasa",
        "rank": 18604,
        "rank_sort": 18630,
        "total": 2382
      },
      {
        "club_badge_src": null,
        "entry": 227155,
        "entry_name": "$$comeOnAmorim$$",
        "event_total": 66,
        "has_played": true,
        "id": 1511043,
        "last_rank": 25002,
        "player_name": "Jayson Lim",
        "rank": 18604,
        "rank_sort": 18631,
        "total": 2382
      },
      {
        "club_badge_src": null,
        "entry": 235024,
        "entry_name": "CU yau win",
        "event_total": 53,
        "has_played": true,
        "id": 1563820,
        "last_rank": 15694,
        "player_name": "Marco Chan",
        "rank": 18604,
        "rank_sort": 18632,
        "total": 2382
      },
      {
        "club_badge_src": null,
        "entry": 238884,
        "entry_name": "Lovely Jubbly Jay's",
        "event_total": 74,
        "has_played": true,
        "id": 1589476,
        "last_rank": 33332,
        "player_name": "Joakim Johansson",
        "rank": 18604,
        "rank_sort": 18633,
        "total": 2382
      },
      {
        "club_badge_src": null,
        "entry": 257120,
        "entry_name": "Kinder Mbeumo",
        "event_total": 56,
        "has_played": true,
        "id": 1710011,
        "last_rank": 17585,
        "player_name": "Rhys Naylon",
        "rank": 18604,
        "rank_sort": 18634,
        "total": 2382
      },
      {
        "club_badge_src": null,
        "entry": 286931,
        "entry_name": "The Block Captain",
        "event_total": 63,
        "has_played": true,
        "id": 1911886,
        "last_rank": 22685,
        "player_name": "Ameer Freeman",
        "rank": 18604,
        "rank_sort": 18635,
        "total": 2382
      },
      {
        "club_badge_src": null,
        "entry": 310189,
        "entry_name": "Tooeasydarty",
        "event_total": 72,
        "has_played": true,
        "id": 2077884,
        "last_rank": 30957,
        "player_name": "Lee Dart",
        "rank": 18604,
        "rank_sort": 18636,
        "total": 2382
      },
      {
        "club_badge_src": "https://fantasy.premierleague.com/gcs/plfpl-production-adobe-approved/plfpl-production/336931/f41004c0-229a-4132-8c7e-a7f192021cba.png",
        "entry": 336931,
        "entry_name": "O.Dango Daikazoku",
        "event_total": 58,
        "has_played": true,
        "id": 2255699,
        "last_rank": 18985,
        "player_name": "Moxie Magica",
        "rank": 18604,
        "rank_sort": 18637,
        "total": 2382
      },
      {
        "club_badge_src": null,
        "entry": 344329,
        "entry_name": "Ace of Clubs",
        "event_total": 43,
        "has_played": true,
        "id": 2304669,
        "last_rank": 10346,
        "player_name": "Linda Parkes",
        "rank": 18604,
        "rank_sort": 18638,
        "total": 2382
      },
      {
        "club_badge_src": null,
        "entry": 453188,
        "entry_name": "Lassin Lampaat",
        "event_total": 41,
        "has_played": true,
        "id": 3040017,
        "last_rank": 9644,
        "player_name": "Lassi J\u00e4rvenp\u00e4\u00e4",
        "rank": 18604,
        "rank_sort": 18639,
        "total": 2382
      },
      {
        "club_badge_src": null,
        "entry": 460864,
        "entry_name": "RidickystickyickyFC",
        "event_total": 51,
        "has_played": true,
        "id": 3091521,
        "last_rank": 14496,
        "player_name": "Steven Price",
        "rank": 18604,
        "rank_sort": 18640,
        "total": 2382
      },
      {
        "club_badge_src": null,
        "entry": 500683,
        "entry_name": "Wesley Wanderers",
        "event_total": 66,
        "has_played": true,
        "id": 3360116,
        "last_rank": 25172,
        "player_name": "Sam Weissler",
        "rank": 18604,
        "rank_sort": 18641,
        "total": 2382
      },
      {
        "club_badge_src": null,
        "entry": 508837,
        "entry_name": "The American Dream",
        "event_total": 71,
        "has_played": true,
        "id": 3416001,
        "last_rank": 29904,
        "player_name": "Parker Williams",
        "rank": 18604,
        "rank_sort": 18642,
        "total": 2382
      },
      {
        "club_badge_src": null,
        "entry": 532887,
        "entry_name": "things not mmm bueno",
        "event_total": 61,
        "has_played": true,
        "id": 3585117,
        "last_rank": 20983,
        "player_name": "Dillon Gonderman",
        "rank": 18604,
        "rank_sort": 18643,
        "total": 2382
      },
      {
        "club_badge_src": null,
        "entry": 544808,
        "entry_name": "Forever Blowin Bowen",
        "event_total": 58,
        "has_played": true,
        "id": 3666605,
        "last_rank": 18790,
        "player_name": "Scott Kingman",
        "rank": 18604,
        "rank_sort": 18644,
        "total": 2382
      },
      {
        "club_badge_src": null,
        "entry": 553121,
        "entry_name": "Winterfell utd",
        "event_total": 59,
        "has_played": true,
        "id": 3722907,
        "last_rank": 19721,
        "player_name": "Ehsan Aganji",
        "rank": 18604,
        "rank_sort": 18645,
        "total": 2382
      },
      {
        "club_badge_src": null,
        "entry": 578683,
        "entry_name": "Real Invincibles",
        "event_total": 66,
        "has_played": true,
        "id": 3893717,
        "last_rank": 21775,
        "player_name": "Rob Essien",
        "rank": 18604,
        "rank_sort": 18646,
        "total": 2382
      },
      {
        "club_badge_src": null,
        "entry": 592505,
        "entry_name": "Beyer Necessities",
        "event_total": 66,
        "has_played": true,
        "id": 3992454,
        "last_rank": 21775,
        "player_name": "Luke Pye",
        "rank": 18604,
        "rank_sort": 18647,
        "total": 2382
      },
      {
        "club_badge_src": null,
        "entry": 682754,
        "entry_name": "CunhaPassTheKetchup?",
        "event_total": 53,
        "has_played": true,
        "id": 4620826,
        "last_rank": 13184,
        "player_name": "Jake Humphries",
        "rank": 18604,
        "rank_sort": 18648,
        "total": 2382
      },
      {
        "club_badge_src": "https://fantasy.premierleague.com/gcs/plfpl-production-adobe-approved/plfpl-production/699283/64448fdf-587d-432c-87d8-fc16c9098ab5.png",
        "entry": 699283,
        "entry_name": "kitson nightmares",
        "event_total": 77,
        "has_played": true,
        "id": 4737211,
        "last_rank": 36348,
        "player_name": "Jim Kirkpatrick - - -",
        "rank": 18604,
        "rank_sort": 18649,
        "total": 2382
      },
      {
        "club_badge_src": "https://fantasy.premierleague.com/gcs/plfpl-production-adobe-approved/plfpl-production/756435/2393a775-2464-4ee9-a645-d5a973a8fd1a.png",
        "entry": 756435,
        "entry_name": "Beef Cherki",
        "event_total": 55,
        "has_played": true,
        "id": 5149990,
        "last_rank": 16959,
        "player_name": "Jack Herring",
        "rank": 18604,
        "rank_sort": 18650,
        "total": 2382
      }
    ]
  }
}