{
  "last_updated_data": "2026-05-24T23:28:17Z",
  "league": {
    "admin_entry": null,
    "closed": false,
    "code_privacy": "p",
    "created": "2025-07-20T23:14:33.933835Z",
    "cup_league": 2815434,
    "has_cup": true,
    "id": 314,
    "league_type": "s",
    "max_entries": null,
    "name": "Overall",
    "rank": null,
    "scoring": "c",
    "start_event": 1
  },
  "new_entries": {
    "has_next": false,
    "page": 1,
    "results": []
  },
  "standings": {
    "has_next": true,
    "page": 575,
    "results": [
      {
        "club_badge_src": null,
        "entry": 545262,
        "entry_name": "Point 001",
        "event_total": 73,
        "has_played": true,
        "id": 3669616,
        "last_rank": 42225,
        "player_name": "Moses Robert",
        "rank": 28697,
        "rank_sort": 28701,
        "total": 2370
      },
      {
        "club_badge_src": null,
        "entry": 1675750,
        "entry_name": "Galal",
        "event_total": 59,
        "has_played": true,
        "id": 11731952,
        "last_rank": 26512,
        "player_name": "amr Galal",
        "rank": 28697,
        "rank_sort": 28702,
        "total": 2370
      },
      {
        "club_badge_src": "https://fantasy.premierleague.com/gcs/plfpl-production-adobe-approved/plfpl-production/1782070/a328bba9-c883-409b-87d8-f9a09e209445.png",
        "entry": 1782070,
        "entry_name": "The Seasiders",
        "event_total": 30,
        "has_played": true,
        "id": 12520579,
        "last_rank": 10221,
        "player_name": "Jacob Perrin",
        "rank": 28697,
        "rank_sort": 28703,
        "total": 2370
      },
      {
        "club_badge_src": null,
        "entry": 2232175,
        "entry_name": "It's Chico Time!",
        "event_total": 61,
        "has_played": true,
        "id": 15902012,
        "last_rank": 32552,
        "player_name": "Darren O Brien",
        "rank": 28697,
        "rank_sort": 28704,
        "total": 2370
      },
      {
        "club_badge_src": "https://fantasy.premierleague.com/gcs/plfpl-production-adobe-approved/plfpl-production/2921571/41271248-30d5-4f3f-83ea-967f7fdf4d59.png",
        "entry": 2921571,
        "entry_name": "Franks Heta Sporrar",
        "event_total": 60,
        "has_played": true,
        "id": 21417159,
        "last_rank": 31404,
        "player_name": "Anders Axelsson",
        "rank": 28697,
        "rank_sort": 28705,
        "total": 2370
      },
      {
        "club_badge_src": null,
        "entry": 3012315,
        "entry_name": "Bruce Lee FC",
        "event_total": 48,
        "has_played": true,
        "id": 22160518,
        "last_rank": 20775,
        "player_name": "Matthew Harvey",
        "rank": 28697,
        "rank_sort": 28706,
        "total": 2370
      },
      {
        "club_badge_src": null,
        "entry": 3055218,
        "entry_name": "Hassan Labrach",
        "event_total": 56,
        "has_played": true,
        "id": 22492969,
        "last_rank": 27438,
        "player_name": "The Ghost",
        "rank": 28697,
        "rank_sort": 28707,
        "total": 2370
      },
      {
        "club_badge_src": null,
        "entry": 3888053,
        "entry_name": "Belligoal\u261d",
        "event_total": 72,
        "has_played": true,
        "id": 29216400,
        "last_rank": 35867,
        "player_name": "Michael Albert",
        "rank": 28697,
        "rank_sort": 28708,
        "total": 2370
      },
      {
        "club_badge_src": null,
        "entry": 3967173,
        "entry_name": "ThomasCHOOCHOO",
        "event_total": 51,
        "has_played": true,
        "id": 29852187,
        "last_rank": 20038,
        "player_name": "Mickey Pipatanantakurn",
        "rank": 28697,
        "rank_sort": 28709,
        "total": 2370
      },
      {
        "club_badge_src": null,
        "entry": 4578033,
        "entry_name": "Cobra Kai Havertz",
        "event_total": 52,
        "has_played": true,
        "id": 34945863,
        "last_rank": 23881,
        "player_name": "Daniel Boni",
        "rank": 28697,
        "rank_sort": 28710,
        "total": 2370
      },
      {
        "club_badge_src": null,
        "entry": 5738767,
        "entry_name": "alfie's army",
        "event_total": 66,
        "has_played": true,
        "id": 44965512,
        "last_rank": 38425,
        "player_name": "Danny Radford",
        "rank": 28697,
        "rank_sort": 28711,
        "total": 2370
      },
      {
        "club_badge_src": null,
        "entry": 5818757,
        "entry_name": "Howe's Mags!",
        "event_total": 73,
        "has_played": true,
        "id": 45661032,
        "last_rank": 42225,
        "player_name": "Paul Senior",
        "rank": 28697,
        "rank_sort": 28712,
        "total": 2370
      },
      {
        "club_badge_src": null,
        "entry": 7435466,
        "entry_name": "Barta",
        "event_total": 62,
        "has_played": true,
        "id": 60442470,
        "last_rank": 33729,
        "player_name": "Andrey Bartashuk",
        "rank": 28697,
        "rank_sort": 28713,
        "total": 2370
      },
      {
        "club_badge_src": null,
        "entry": 7881160,
        "entry_name": "Captain Pugwash FC",
        "event_total": 44,
        "has_played": true,
        "id": 64814647,
        "last_rank": 15336,
        "player_name": "JOHN KERR",
        "rank": 28697,
        "rank_sort": 28714,
        "total": 2370
      },
      {
        "club_badge_src": "https://fantasy.premierleague.com/gcs/plfpl-production-adobe-approved/plfpl-production/9307700/362e3e02-96a9-41be-b314-d3d30dc45cc6.png",
        "entry": 9307700,
        "entry_name": "Aldous Allstars",
        "event_total": 67,
        "has_played": true,
        "id": 78482977,
        "last_rank": 39650,
        "player_name": "Thomas Aldous",
        "rank": 28697,
        "rank_sort": 28715,
        "total": 2370
      },
      {
        "club_badge_src": "https://fantasy.premierleague.com/gcs/plfpl-production-adobe-approved/plfpl-production/13528/87f0127b-3e0f-4499-b58d-5d9530c4904e.png",
        "entry": 13528,
        "entry_name": "\u26bd\ufe0fWINALOT\u26bd\ufe0f",
        "event_total": 52,
        "has_played": true,
        "id": 81787,
        "last_rank": 23904,
        "player_name": "MATTY PRICE",
        "rank": 28716,
        "rank_sort": 28716,
        "total": 2370
      },
      {
        "club_badge_src": "https://fantasy.premierleague.com/gcs/plfpl-production-adobe-approved/plfpl-production/350329/5900de48-71f6-40d7-963e-046585f16f91.png",
        "entry": 350329,
        "entry_name": "Antween",
        "event_total": 62,
        "has_played": true,
        "id": 2344961,
        "last_rank": 29393,
        "player_name": "Anthony Lovell",
        "rank": 28716,
        "rank_sort": 28717,
        "total": 2370
      },
      {
        "club_badge_src": null,
        "entry": 449371,
        "entry_name": "Pathum Boy Soi 4",
        "event_total": 58,
        "has_played": true,
        "id": 3014889,
        "last_rank": 25613,
        "player_name": "Chanwit Jintagosolwit",
        "rank": 28716,
        "rank_sort": 28718,
        "total": 2370
      },
      {
        "club_badge_src": null,
        "entry": 471430,
        "entry_name": "1.07",
        "event_total": 45,
        "has_played": true,
        "id": 3164949,
        "last_rank": 18602,
        "player_name": "Mirza Koristovic",
        "rank": 28716,
        "rank_sort": 28719,
        "total": 2370
      },
      {
        "club_badge_src": null,
        "entry": 581225,
        "entry_name": "Brea Banditos",
        "event_total": 64,
        "has_played": true,
        "id": 3911311,
        "last_rank": 27438,
        "player_name": "Tim Jones",
        "rank": 28716,
        "rank_sort": 28720,
        "total": 2370
      },
      {
        "club_badge_src": "https://fantasy.premierleague.com/gcs/plfpl-production-adobe-approved/plfpl-production/1453942/166bcc8a-562e-4665-a5a7-e89021f91e1a.png",
        "entry": 1453942,
        "entry_name": "Old Gold Rush",
        "event_total": 61,
        "has_played": true,
        "id": 10131052,
        "last_rank": 32576,
        "player_name": "Alex Yates",
        "rank": 28716,
        "rank_sort": 28721,
        "total": 2370
      },
      {
        "club_badge_src": null,
        "entry": 2318710,
        "entry_name": "Basem  boriek",
        "event_total": 33,
        "has_played": true,
        "id": 16540925,
        "last_rank": 11565,
        "player_name": "Basem Boriek",
        "rank": 28716,
        "rank_sort": 28722,
        "total": 2370
      },
      {
        "club_badge_src": null,
        "entry": 2648708,
        "entry_name": "yacineebn",
        "event_total": 49,
        "has_played": true,
        "id": 19038174,
        "last_rank": 21545,
        "player_name": "yacine ben abdelkader",
        "rank": 28716,
        "rank_sort": 28723,
        "total": 2370
      },
      {
        "club_badge_src": null,
        "entry": 6177548,
        "entry_name": "Livin Saliba Loca",
        "event_total": 54,
        "has_played": true,
        "id": 48851173,
        "last_rank": 25653,
        "player_name": "Jamie Bridges",
        "rank": 28716,
        "rank_sort": 28724,
        "total": 2370
      },
      {
        "club_badge_src": null,
        "entry": 6563385,
        "entry_name": "MoVlogs29",
        "event_total": 63,
        "has_played": true,
        "id": 52386282,
        "last_rank": 34849,
        "player_name": "Danial Mohammed",
        "rank": 28716,
        "rank_sort": 28725,
        "total": 2370
      },
      {
        "club_badge_src": null,
        "entry": 6705827,
        "entry_name": "manutd20",
        "event_total": 31,
        "has_played": true,
        "id": 53660568,
        "last_rank": 10676,
        "player_name": "Esayas Yemane",
        "rank": 28716,
        "rank_sort": 28726,
        "total": 2370
      },
      {
        "club_badge_src": "https://fantasy.premierleague.com/gcs/plfpl-production-adobe-approved/plfpl-production/7020185/b1971aba-61bc-446d-9d13-af555a8bbf18.png",
        "entry": 7020185,
        "entry_name": "Sprint Kings",
        "event_total": 53,
        "has_played": true,
        "id": 56389195,
        "last_rank": 24757,
        "player_name": "Hans Kristian Fjeld",
        "rank": 28716,
        "rank_sort": 28727,
        "total": 2370
      },
      {
        "club_badge_src": null,
        "entry": 9105731,
        "entry_name": "LFC",
        "event_total": 78,
        "has_played": true,
        "id": 76508054,
        "last_rank": 55902,
        "player_name": "Alisher Sabirov",
        "rank": 28716,
        "rank_sort": 28728,
        "total": 2370
      },
      {
        "club_badge_src": null,
        "entry": 40262,
        "entry_name": "Chamax FC",
        "event_total": 65,
        "has_played": true,
        "id": 258118,
        "last_rank": 32576,
        "player_name": "Chamika Thenuwara",
        "rank": 28729,
        "rank_sort": 28729,
        "total": 2370
      },
      {
        "club_badge_src": null,
        "entry": 69878,
        "entry_name": "Fazzat Insh Allah \u00a9",
        "event_total": 44,
        "has_played": true,
        "id": 453519,
        "last_rank": 17927,
        "player_name": "John Holen",
        "rank": 28729,
        "rank_sort": 28730,
        "total": 2370
      },
      {
        "club_badge_src": null,
        "entry": 101072,
        "entry_name": "bowen 747",
        "event_total": 58,
        "has_played": true,
        "id": 659547,
        "last_rank": 25633,
        "player_name": "Nik Patel",
        "rank": 28729,
        "rank_sort": 28731,
        "total": 2370
      },
      {
        "club_badge_src": null,
        "entry": 762732,
        "entry_name": "Sch\u00e4rdew Valley",
        "event_total": 66,
        "has_played": true,
        "id": 5201601,
        "last_rank": 29393,
        "player_name": "Ethan Wardle",
        "rank": 28729,
        "rank_sort": 28732,
        "total": 2370
      },
      {
        "club_badge_src": null,
        "entry": 1057209,
        "entry_name": "Eirikkameratene",
        "event_total": 55,
        "has_played": true,
        "id": 7316468,
        "last_rank": 26567,
        "player_name": "Eirik Steinum",
        "rank": 28729,
        "rank_sort": 28733,
        "total": 2370
      },
      {
        "club_badge_src": null,
        "entry": 1513126,
        "entry_name": "Salah\u2019d Fingers",
        "event_total": 69,
        "has_played": true,
        "id": 10553435,
        "last_rank": 42293,
        "player_name": "Tyler Telfer",
        "rank": 28729,
        "rank_sort": 28734,
        "total": 2370
      },
      {
        "club_badge_src": null,
        "entry": 3954390,
        "entry_name": "N.D",
        "event_total": 54,
        "has_played": true,
        "id": 29750004,
        "last_rank": 25633,
        "player_name": "nirmal dev",
        "rank": 28729,
        "rank_sort": 28735,
        "total": 2370
      },
      {
        "club_badge_src": null,
        "entry": 4404210,
        "entry_name": "Forever 20",
        "event_total": 67,
        "has_played": true,
        "id": 33497750,
        "last_rank": 30395,
        "player_name": "Arpit Patel",
        "rank": 28729,
        "rank_sort": 28736,
        "total": 2370
      },
      {
        "club_badge_src": null,
        "entry": 6073410,
        "entry_name": "Czaplinkski's lads",
        "event_total": 72,
        "has_played": true,
        "id": 47944142,
        "last_rank": 46468,
        "player_name": "John Gould",
        "rank": 28729,
        "rank_sort": 28737,
        "total": 2370
      },
      {
        "club_badge_src": null,
        "entry": 6719619,
        "entry_name": "\u0633\u064a\u062f\u0646\u064a \u0633\u0648\u064a\u0646\u064a \u0641\u0627\u0646\u0632\u0643\u0644\u0648\u0628",
        "event_total": 54,
        "has_played": true,
        "id": 53778495,
        "last_rank": 22309,
        "player_name": "abdulazez mustafa",
        "rank": 28729,
        "rank_sort": 28738,
        "total": 2370
      },
      {
        "club_badge_src": null,
        "entry": 6947718,
        "entry_name": "Goal Diggers",
        "event_total": 60,
        "has_played": true,
        "id": 55708086,
        "last_rank": 31459,
        "player_name": "Peter Agida",
        "rank": 28729,
        "rank_sort": 28739,
        "total": 2370
      },
      {
        "club_badge_src": null,
        "entry": 389904,
        "entry_name": "sakasaka eheh",
        "event_total": 59,
        "has_played": true,
        "id": 2615509,
        "last_rank": 30443,
        "player_name": "Koh Le Bon",
        "rank": 28740,
        "rank_sort": 28740,
        "total": 2370
      },
      {
        "club_badge_src": null,
        "entry": 895780,
        "entry_name": "\u00d8de my gaard",
        "event_total": 51,
        "has_played": true,
        "id": 6153663,
        "last_rank": 17265,
        "player_name": "Lee Cherry",
        "rank": 28740,
        "rank_sort": 28741,
        "total": 2370
      },
      {
        "club_badge_src": null,
        "entry": 1252544,
        "entry_name": "Hino FC",
        "event_total": 54,
        "has_played": true,
        "id": 8699377,
        "last_rank": 25653,
        "player_name": "Marty Hoyne",
        "rank": 28740,
        "rank_sort": 28742,
        "total": 2370
      },
      {
        "club_badge_src": "https://fantasy.premierleague.com/gcs/plfpl-production-adobe-approved/plfpl-production/3361472/360e5b22-6d91-4e2e-a3ae-9478bd16bfc7.png",
        "entry": 3361472,
        "entry_name": "Here We Go Again",
        "event_total": 65,
        "has_played": true,
        "id": 24942001,
        "last_rank": 37264,
        "player_name": "Anurag Sharma",
        "rank": 28740,
        "rank_sort": 28743,
        "total": 2370
      },
      {
        "club_badge_src": null,
        "entry": 3990024,
        "entry_name": "My Big Fat Gy\u00f6k",
        "event_total": 62,
        "has_played": true,
        "id": 30043129,
        "last_rank": 29419,
        "player_name": "CJ PALMER",
        "rank": 28740,
        "rank_sort": 28744,
        "total": 2370
      },
      {
        "club_badge_src": null,
        "entry": 8482577,
        "entry_name": "Birmaaniya",
        "event_total": 58,
        "has_played": true,
        "id": 70465342,
        "last_rank": 25653,
        "player_name": "Gaish Mohamed",
        "rank": 28740,
        "rank_sort": 28745,
        "total": 2370
      },
      {
        "club_badge_src": null,
        "entry": 9177514,
        "entry_name": "ABU_WATAN",
        "event_total": 72,
        "has_played": true,
        "id": 77211513,
        "last_rank": 36015,
        "player_name": "KAkA SALAH",
        "rank": 28740,
        "rank_sort": 28746,
        "total": 2370
      },
      {
        "club_badge_src": null,
        "entry": 126354,
        "entry_name": "Ganz FC",
        "event_total": 29,
        "has_played": true,
        "id": 823894,
        "last_rank": 9830,
        "player_name": "Mohamed Elganz",
        "rank": 28747,
        "rank_sort": 28747,
        "total": 2370
      },
      {
        "club_badge_src": null,
        "entry": 502723,
        "entry_name": "Dove Tees",
        "event_total": 57,
        "has_played": true,
        "id": 3374338,
        "last_rank": 28485,
        "player_name": "Stephen Doe",
        "rank": 28747,
        "rank_sort": 28748,
        "total": 2370
      },
      {
        "club_badge_src": null,
        "entry": 927085,
        "entry_name": "Gutt\u00e6ne",
        "event_total": 51,
        "has_played": true,
        "id": 6378066,
        "last_rank": 14780,
        "player_name": "Marcus Weider",
        "rank": 28747,
        "rank_sort": 28749,
        "total": 2370
      },
      {
        "club_badge_src": null,
        "entry": 1964299,
        "entry_name": "Al Reds\u26a1",
        "event_total": 51,
        "has_played": true,
        "id": 13859707,
        "last_rank": 17275,
        "player_name": "Ali Mahdi",
        "rank": 28747,
        "rank_sort": 28750,
        "total": 2370
      }
    ]
  }
}