{
  "last_updated_data": "2026-05-24T23:28:17Z",
  "league": {
    "admin_entry": null,
    "closed": false,
    "code_privacy": "p",
    "created": "2025-07-20T23:14:33.933835Z",
    "cup_league": 2815434,
    "has_cup": true,
    "id": 314,
    "league_type": "s",
    "max_entries": null,
    "name": "Overall",
    "rank": null,
    "scoring": "c",
    "start_event": 1
  },
  "new_entries": {
    "has_next": false,
    "page": 1,
    "results": []
  },
  "standings": {
    "has_next": true,
    "page": 119,
    "results": [
      {
        "club_badge_src": null,
        "entry": 3792385,
        "entry_name": "Chicken-dinners",
        "event_total": 51,
        "has_played": true,
        "id": 28342957,
        "last_rank": 4155,
        "player_name": "Rob Fowler",
        "rank": 5859,
        "rank_sort": 5901,
        "total": 2411
      },
      {
        "club_badge_src": null,
        "entry": 3870699,
        "entry_name": "Reggan FC",
        "event_total": 56,
        "has_played": true,
        "id": 29040201,
        "last_rank": 5241,
        "player_name": "Tomas Regnander",
        "rank": 5859,
        "rank_sort": 5902,
        "total": 2411
      },
      {
        "club_badge_src": null,
        "entry": 4045637,
        "entry_name": "Stormin' Norman",
        "event_total": 67,
        "has_played": true,
        "id": 30513431,
        "last_rank": 8484,
        "player_name": "Jake Norman",
        "rank": 5859,
        "rank_sort": 5903,
        "total": 2411
      },
      {
        "club_badge_src": null,
        "entry": 4592411,
        "entry_name": "Ctrl Alt De Ligt",
        "event_total": 69,
        "has_played": true,
        "id": 35070038,
        "last_rank": 9089,
        "player_name": "Jamie Dunkley",
        "rank": 5859,
        "rank_sort": 5904,
        "total": 2411
      },
      {
        "club_badge_src": null,
        "entry": 4861110,
        "entry_name": "BuyYourLiverCousin",
        "event_total": 52,
        "has_played": true,
        "id": 37461487,
        "last_rank": 4270,
        "player_name": "Andrew Gregory",
        "rank": 5859,
        "rank_sort": 5905,
        "total": 2411
      },
      {
        "club_badge_src": null,
        "entry": 5556948,
        "entry_name": "JointFacebookProfile",
        "event_total": 60,
        "has_played": true,
        "id": 43376781,
        "last_rank": 6166,
        "player_name": "Andrew Leigh",
        "rank": 5859,
        "rank_sort": 5906,
        "total": 2411
      },
      {
        "club_badge_src": null,
        "entry": 6159850,
        "entry_name": "Hajduk Stolpfisk",
        "event_total": 63,
        "has_played": true,
        "id": 48697593,
        "last_rank": 5940,
        "player_name": "Bawer Calli",
        "rank": 5859,
        "rank_sort": 5907,
        "total": 2411
      },
      {
        "club_badge_src": null,
        "entry": 6300080,
        "entry_name": "Enzo MautKiska",
        "event_total": 76,
        "has_played": true,
        "id": 49944642,
        "last_rank": 12141,
        "player_name": "Akhil Ramchandani",
        "rank": 5859,
        "rank_sort": 5908,
        "total": 2411
      },
      {
        "club_badge_src": "https://fantasy.premierleague.com/gcs/plfpl-production-adobe-approved/plfpl-production/7110762/c262cc3b-8f48-4810-b3ac-c92c7f568208.png",
        "entry": 7110762,
        "entry_name": "Tour de FPL",
        "event_total": 65,
        "has_played": true,
        "id": 57279218,
        "last_rank": 6448,
        "player_name": "Alexandre Prost",
        "rank": 5859,
        "rank_sort": 5909,
        "total": 2411
      },
      {
        "club_badge_src": null,
        "entry": 7136085,
        "entry_name": "Swedish Howe's Mafia",
        "event_total": 53,
        "has_played": true,
        "id": 57519056,
        "last_rank": 4515,
        "player_name": "Stephen Bolton",
        "rank": 5859,
        "rank_sort": 5910,
        "total": 2411
      },
      {
        "club_badge_src": null,
        "entry": 7296920,
        "entry_name": "il pi\u00f9 grande",
        "event_total": 45,
        "has_played": true,
        "id": 59047495,
        "last_rank": 3103,
        "player_name": "Ahmed Elshabrawi",
        "rank": 5859,
        "rank_sort": 5911,
        "total": 2411
      },
      {
        "club_badge_src": null,
        "entry": 8069431,
        "entry_name": "Wallop!",
        "event_total": 55,
        "has_played": true,
        "id": 66516678,
        "last_rank": 4930,
        "player_name": "James Mirzai",
        "rank": 5859,
        "rank_sort": 5912,
        "total": 2411
      },
      {
        "club_badge_src": null,
        "entry": 8762776,
        "entry_name": "Boehly Fans",
        "event_total": 56,
        "has_played": true,
        "id": 73184852,
        "last_rank": 5241,
        "player_name": "Eldo John",
        "rank": 5859,
        "rank_sort": 5913,
        "total": 2411
      },
      {
        "club_badge_src": null,
        "entry": 9129566,
        "entry_name": "Mugiwara",
        "event_total": 67,
        "has_played": true,
        "id": 76742235,
        "last_rank": 8382,
        "player_name": "Ou\u00e9draogo D. Aaz",
        "rank": 5859,
        "rank_sort": 5914,
        "total": 2411
      },
      {
        "club_badge_src": null,
        "entry": 1713,
        "entry_name": "Eze Peasy",
        "event_total": 57,
        "has_played": true,
        "id": 9532,
        "last_rank": 5560,
        "player_name": "Lewis Bell",
        "rank": 5915,
        "rank_sort": 5915,
        "total": 2411
      },
      {
        "club_badge_src": null,
        "entry": 9642,
        "entry_name": "It\u2019s coming home",
        "event_total": 60,
        "has_played": true,
        "id": 56739,
        "last_rank": 5173,
        "player_name": "\u00c5dne \u00d8vereng",
        "rank": 5915,
        "rank_sort": 5916,
        "total": 2411
      },
      {
        "club_badge_src": "https://fantasy.premierleague.com/gcs/plfpl-production-adobe-approved/plfpl-production/29682/21c17bc6-cfce-4491-8eea-320db2732763.png",
        "entry": 29682,
        "entry_name": "Wirtz Team Ever",
        "event_total": 59,
        "has_played": true,
        "id": 187765,
        "last_rank": 4954,
        "player_name": "Bobby Gallacher",
        "rank": 5915,
        "rank_sort": 5917,
        "total": 2411
      },
      {
        "club_badge_src": null,
        "entry": 38386,
        "entry_name": "AllStars",
        "event_total": 70,
        "has_played": true,
        "id": 246013,
        "last_rank": 8032,
        "player_name": "Sam Mac-",
        "rank": 5915,
        "rank_sort": 5918,
        "total": 2411
      },
      {
        "club_badge_src": "https://fantasy.premierleague.com/gcs/plfpl-production-adobe-approved/plfpl-production/90019/4e3e154d-97e2-43cb-808a-aff48414c0fc.png",
        "entry": 90019,
        "entry_name": "Hideous Kinsky",
        "event_total": 55,
        "has_played": true,
        "id": 587636,
        "last_rank": 4155,
        "player_name": "Mike Ward",
        "rank": 5915,
        "rank_sort": 5919,
        "total": 2411
      },
      {
        "club_badge_src": "https://fantasy.premierleague.com/gcs/plfpl-production-adobe-approved/plfpl-production/100516/3235eb60-fa6e-4ce6-b8f8-3982f1949333.png",
        "entry": 100516,
        "entry_name": "Genting Haaland",
        "event_total": 60,
        "has_played": true,
        "id": 655940,
        "last_rank": 6265,
        "player_name": "Divyang Hong",
        "rank": 5915,
        "rank_sort": 5920,
        "total": 2411
      },
      {
        "club_badge_src": null,
        "entry": 180206,
        "entry_name": "Bashambauer 2000",
        "event_total": 79,
        "has_played": true,
        "id": 1189210,
        "last_rank": 11699,
        "player_name": "Peter Griffiths",
        "rank": 5915,
        "rank_sort": 5921,
        "total": 2411
      },
      {
        "club_badge_src": null,
        "entry": 195496,
        "entry_name": "Gro\u00df Mi\u00dfconduct",
        "event_total": 66,
        "has_played": true,
        "id": 1296435,
        "last_rank": 8198,
        "player_name": "Graham Shone",
        "rank": 5915,
        "rank_sort": 5922,
        "total": 2411
      },
      {
        "club_badge_src": null,
        "entry": 206121,
        "entry_name": "Harry Kane",
        "event_total": 61,
        "has_played": true,
        "id": 1370021,
        "last_rank": 5498,
        "player_name": "Dan Rean",
        "rank": 5915,
        "rank_sort": 5923,
        "total": 2411
      },
      {
        "club_badge_src": "https://fantasy.premierleague.com/gcs/plfpl-production-adobe-approved/plfpl-production/304846/9f380c13-9b18-42c2-b6da-016e9aa939b0.png",
        "entry": 304846,
        "entry_name": "The big tarkowski",
        "event_total": 42,
        "has_played": true,
        "id": 2041250,
        "last_rank": 2749,
        "player_name": "Russell sellings",
        "rank": 5915,
        "rank_sort": 5924,
        "total": 2411
      },
      {
        "club_badge_src": null,
        "entry": 310141,
        "entry_name": "Tekinec",
        "event_total": 59,
        "has_played": true,
        "id": 2077546,
        "last_rank": 5011,
        "player_name": "Filip Trajanoski",
        "rank": 5915,
        "rank_sort": 5925,
        "total": 2411
      },
      {
        "club_badge_src": null,
        "entry": 324863,
        "entry_name": "The Match Fixers FC",
        "event_total": 70,
        "has_played": true,
        "id": 2176848,
        "last_rank": 8032,
        "player_name": "Prashaanthan Thilagar",
        "rank": 5915,
        "rank_sort": 5926,
        "total": 2411
      },
      {
        "club_badge_src": null,
        "entry": 559334,
        "entry_name": "Littlewood's Lions",
        "event_total": 67,
        "has_played": true,
        "id": 3764183,
        "last_rank": 5940,
        "player_name": "Ollie Littlewood",
        "rank": 5915,
        "rank_sort": 5927,
        "total": 2411
      },
      {
        "club_badge_src": "https://fantasy.premierleague.com/gcs/plfpl-production-adobe-approved/plfpl-production/563293/3f813db8-903c-4d85-b19c-1eb42cda92f2.png",
        "entry": 563293,
        "entry_name": "The Record Breaker",
        "event_total": 72,
        "has_played": true,
        "id": 3791447,
        "last_rank": 8854,
        "player_name": "jonathan murray",
        "rank": 5915,
        "rank_sort": 5928,
        "total": 2411
      },
      {
        "club_badge_src": null,
        "entry": 578598,
        "entry_name": "Forest Forever",
        "event_total": 56,
        "has_played": true,
        "id": 3893160,
        "last_rank": 5281,
        "player_name": "Robert Wheeler",
        "rank": 5915,
        "rank_sort": 5929,
        "total": 2411
      },
      {
        "club_badge_src": "https://fantasy.premierleague.com/gcs/plfpl-production-adobe-approved/plfpl-production/665796/3452d498-cc70-4cb1-a5f9-82edce8051d6.png",
        "entry": 665796,
        "entry_name": "Vengerovi Svedoci",
        "event_total": 59,
        "has_played": true,
        "id": 4501448,
        "last_rank": 6061,
        "player_name": "Stefan Nikic",
        "rank": 5915,
        "rank_sort": 5930,
        "total": 2411
      },
      {
        "club_badge_src": null,
        "entry": 666848,
        "entry_name": "#GlazersOut",
        "event_total": 59,
        "has_played": true,
        "id": 4508809,
        "last_rank": 6061,
        "player_name": "Fafa Sid",
        "rank": 5915,
        "rank_sort": 5931,
        "total": 2411
      },
      {
        "club_badge_src": null,
        "entry": 898028,
        "entry_name": "Follow the Ekitike",
        "event_total": 55,
        "has_played": true,
        "id": 6170033,
        "last_rank": 4099,
        "player_name": "Petri Kalliola",
        "rank": 5915,
        "rank_sort": 5932,
        "total": 2411
      },
      {
        "club_badge_src": null,
        "entry": 1094266,
        "entry_name": "Team Posten",
        "event_total": 59,
        "has_played": true,
        "id": 7578958,
        "last_rank": 6061,
        "player_name": "Sebastian Bergstr\u00f8m",
        "rank": 5915,
        "rank_sort": 5933,
        "total": 2411
      },
      {
        "club_badge_src": null,
        "entry": 1103743,
        "entry_name": "DrChefff's XI",
        "event_total": 65,
        "has_played": true,
        "id": 7645276,
        "last_rank": 6528,
        "player_name": "Abdulsalam Ajani-Lawal",
        "rank": 5915,
        "rank_sort": 5934,
        "total": 2411
      },
      {
        "club_badge_src": "https://fantasy.premierleague.com/gcs/plfpl-production-adobe-approved/plfpl-production/1293459/9c3b78b5-7f6f-41dc-8a07-c95dc4a0565e.png",
        "entry": 1293459,
        "entry_name": "Setford and Regret",
        "event_total": 67,
        "has_played": true,
        "id": 8988443,
        "last_rank": 8552,
        "player_name": "Gabe O",
        "rank": 5915,
        "rank_sort": 5935,
        "total": 2411
      },
      {
        "club_badge_src": null,
        "entry": 2264633,
        "entry_name": "Kempes 1978",
        "event_total": 51,
        "has_played": true,
        "id": 16146784,
        "last_rank": 4186,
        "player_name": "M\u00e1rio Kov\u00e1\u010dik",
        "rank": 5915,
        "rank_sort": 5936,
        "total": 2411
      },
      {
        "club_badge_src": null,
        "entry": 2292189,
        "entry_name": "Dwight fc",
        "event_total": 59,
        "has_played": true,
        "id": 16347905,
        "last_rank": 5011,
        "player_name": "Preben Hovde",
        "rank": 5915,
        "rank_sort": 5937,
        "total": 2411
      },
      {
        "club_badge_src": null,
        "entry": 2347905,
        "entry_name": "Saka da Gy\u00f6keres",
        "event_total": 68,
        "has_played": true,
        "id": 16753043,
        "last_rank": 8925,
        "player_name": "Izu Jerry",
        "rank": 5915,
        "rank_sort": 5938,
        "total": 2411
      },
      {
        "club_badge_src": null,
        "entry": 2573635,
        "entry_name": "Parempi joukkue",
        "event_total": 60,
        "has_played": true,
        "id": 18468263,
        "last_rank": 6305,
        "player_name": "Johannes Lassila",
        "rank": 5915,
        "rank_sort": 5939,
        "total": 2411
      },
      {
        "club_badge_src": null,
        "entry": 3612797,
        "entry_name": "Lamb United",
        "event_total": 81,
        "has_played": true,
        "id": 26914076,
        "last_rank": 14926,
        "player_name": "George Lamb",
        "rank": 5915,
        "rank_sort": 5940,
        "total": 2411
      },
      {
        "club_badge_src": null,
        "entry": 3985433,
        "entry_name": "MacAwoniyi Cheese",
        "event_total": 67,
        "has_played": true,
        "id": 30005214,
        "last_rank": 8552,
        "player_name": "Tom Greensmith",
        "rank": 5915,
        "rank_sort": 5941,
        "total": 2411
      },
      {
        "club_badge_src": null,
        "entry": 4860949,
        "entry_name": "GOLDUTD{@owendenavi}",
        "event_total": 66,
        "has_played": true,
        "id": 37460203,
        "last_rank": 6839,
        "player_name": "Owens Denavigator",
        "rank": 5915,
        "rank_sort": 5942,
        "total": 2411
      },
      {
        "club_badge_src": null,
        "entry": 5016957,
        "entry_name": "Senior De governor",
        "event_total": 61,
        "has_played": true,
        "id": 38744104,
        "last_rank": 6528,
        "player_name": "Senior De Governor",
        "rank": 5915,
        "rank_sort": 5943,
        "total": 2411
      },
      {
        "club_badge_src": null,
        "entry": 5081269,
        "entry_name": "Lallana Del Rey",
        "event_total": 61,
        "has_played": true,
        "id": 39271563,
        "last_rank": 5498,
        "player_name": "Chirag Sachdeva",
        "rank": 5915,
        "rank_sort": 5944,
        "total": 2411
      },
      {
        "club_badge_src": null,
        "entry": 5493628,
        "entry_name": "BC11",
        "event_total": 53,
        "has_played": true,
        "id": 42789578,
        "last_rank": 4515,
        "player_name": "Vinod Varsani",
        "rank": 5915,
        "rank_sort": 5945,
        "total": 2411
      },
      {
        "club_badge_src": "https://fantasy.premierleague.com/gcs/plfpl-production-adobe-approved/plfpl-production/5692824/866d5e30-049e-40e1-832c-084d52c757f1.png",
        "entry": 5692824,
        "entry_name": "Mr Hat Trick\u2b50\ufe0f\u2b50\ufe0f\u2b50\ufe0f",
        "event_total": 69,
        "has_played": true,
        "id": 44565968,
        "last_rank": 9142,
        "player_name": "Meron G\ud83c\uddea\ud83c\uddf7\ud83e\udd81",
        "rank": 5915,
        "rank_sort": 5946,
        "total": 2411
      },
      {
        "club_badge_src": "https://fantasy.premierleague.com/gcs/plfpl-production-adobe-approved/plfpl-production/5720254/4f9e70f2-fbbd-46c1-b9b7-8f7a5c0eae90.png",
        "entry": 5720254,
        "entry_name": "Heroes!",
        "event_total": 22,
        "has_played": true,
        "id": 44805153,
        "last_rank": 1005,
        "player_name": "Abraham Assim Ita",
        "rank": 5915,
        "rank_sort": 5947,
        "total": 2411
      },
      {
        "club_badge_src": null,
        "entry": 6345390,
        "entry_name": "License to Slot",
        "event_total": 66,
        "has_played": true,
        "id": 50437638,
        "last_rank": 8138,
        "player_name": "Tom Corbin",
        "rank": 5915,
        "rank_sort": 5948,
        "total": 2411
      },
      {
        "club_badge_src": "https://fantasy.premierleague.com/gcs/plfpl-production-adobe-approved/plfpl-production/7093495/f24c7534-0eb6-46fc-8dc6-c18ab72c8555.png",
        "entry": 7093495,
        "entry_name": "FC Balzak",
        "event_total": 66,
        "has_played": true,
        "id": 57114128,
        "last_rank": 8198,
        "player_name": "Lieven Dumon",
        "rank": 5915,
        "rank_sort": 5949,
        "total": 2411
      },
      {
        "club_badge_src": null,
        "entry": 7812902,
        "entry_name": "Cunha Get Me Points",
        "event_total": 56,
        "has_played": true,
        "id": 64189855,
        "last_rank": 3562,
        "player_name": "Jodie Shaw",
        "rank": 5915,
        "rank_sort": 5950,
        "total": 2411
      }
    ]
  }
}