{
  "last_updated_data": "2026-05-24T23:28:17Z",
  "league": {
    "admin_entry": null,
    "closed": false,
    "code_privacy": "p",
    "created": "2025-07-20T23:14:33.933835Z",
    "cup_league": 2815434,
    "has_cup": true,
    "id": 314,
    "league_type": "s",
    "max_entries": null,
    "name": "Overall",
    "rank": null,
    "scoring": "c",
    "start_event": 1
  },
  "new_entries": {
    "has_next": false,
    "page": 1,
    "results": []
  },
  "standings": {
    "has_next": true,
    "page": 176,
    "results": [
      {
        "club_badge_src": null,
        "entry": 1594952,
        "entry_name": "s7s",
        "event_total": 67,
        "has_played": true,
        "id": 11156206,
        "last_rank": 8999,
        "player_name": "hussein Salameh",
        "rank": 8749,
        "rank_sort": 8751,
        "total": 2402
      },
      {
        "club_badge_src": null,
        "entry": 1930517,
        "entry_name": "CunhaV\u00f8nnePL",
        "event_total": 70,
        "has_played": true,
        "id": 13615573,
        "last_rank": 14171,
        "player_name": "Fredrik Christensen",
        "rank": 8749,
        "rank_sort": 8752,
        "total": 2402
      },
      {
        "club_badge_src": null,
        "entry": 3200665,
        "entry_name": "Jujutsu Kai-sen",
        "event_total": 67,
        "has_played": true,
        "id": 23659549,
        "last_rank": 12547,
        "player_name": "Dele Ayilara",
        "rank": 8749,
        "rank_sort": 8753,
        "total": 2402
      },
      {
        "club_badge_src": null,
        "entry": 6018107,
        "entry_name": "NiftyFiftyFive",
        "event_total": 54,
        "has_played": true,
        "id": 47459573,
        "last_rank": 7280,
        "player_name": "Joanne Philpot",
        "rank": 8749,
        "rank_sort": 8754,
        "total": 2402
      },
      {
        "club_badge_src": null,
        "entry": 6225647,
        "entry_name": "Smiths Pppickers",
        "event_total": 67,
        "has_played": true,
        "id": 49264664,
        "last_rank": 10651,
        "player_name": "F Smith",
        "rank": 8749,
        "rank_sort": 8755,
        "total": 2402
      },
      {
        "club_badge_src": "https://fantasy.premierleague.com/gcs/plfpl-production-adobe-approved/plfpl-production/224726/c2c978ae-95f2-4425-87f7-c7a769df7805.png",
        "entry": 224726,
        "entry_name": "Reece\u2019s Set Pieces",
        "event_total": 59,
        "has_played": true,
        "id": 1494931,
        "last_rank": 9028,
        "player_name": "Craig Shakespeare",
        "rank": 8756,
        "rank_sort": 8756,
        "total": 2402
      },
      {
        "club_badge_src": null,
        "entry": 1045785,
        "entry_name": "Unreal Madrid",
        "event_total": 60,
        "has_played": true,
        "id": 7237509,
        "last_rank": 7920,
        "player_name": "Daniel Murray",
        "rank": 8756,
        "rank_sort": 8757,
        "total": 2402
      },
      {
        "club_badge_src": null,
        "entry": 1481922,
        "entry_name": "united fc",
        "event_total": 73,
        "has_played": true,
        "id": 10333760,
        "last_rank": 11536,
        "player_name": "Djaabir khan kureembokus",
        "rank": 8756,
        "rank_sort": 8758,
        "total": 2402
      },
      {
        "club_badge_src": null,
        "entry": 2791549,
        "entry_name": "Stamila",
        "event_total": 65,
        "has_played": true,
        "id": 20381063,
        "last_rank": 11551,
        "player_name": "Henry Tawari",
        "rank": 8756,
        "rank_sort": 8759,
        "total": 2402
      },
      {
        "club_badge_src": null,
        "entry": 163023,
        "entry_name": "Corn on the Kobbie",
        "event_total": 83,
        "has_played": true,
        "id": 1074924,
        "last_rank": 20008,
        "player_name": "Dallas Higgins",
        "rank": 8760,
        "rank_sort": 8760,
        "total": 2402
      },
      {
        "club_badge_src": null,
        "entry": 6014934,
        "entry_name": "Classique-ace FC",
        "event_total": 63,
        "has_played": true,
        "id": 47430486,
        "last_rank": 10686,
        "player_name": "Stephen ogbonna",
        "rank": 8760,
        "rank_sort": 8761,
        "total": 2402
      },
      {
        "club_badge_src": "https://fantasy.premierleague.com/gcs/plfpl-production-adobe-approved/plfpl-production/41876/271d38c9-589d-4cc1-8ebc-7b393bb3452b.png",
        "entry": 41876,
        "entry_name": "CrniLabud",
        "event_total": 60,
        "has_played": true,
        "id": 268321,
        "last_rank": 9435,
        "player_name": "Matic Hudovernik",
        "rank": 8762,
        "rank_sort": 8762,
        "total": 2402
      },
      {
        "club_badge_src": "https://fantasy.premierleague.com/gcs/plfpl-production-adobe-approved/plfpl-production/44440/c7cf6777-87b6-48b8-a4a8-51f1a0c78abb.png",
        "entry": 44440,
        "entry_name": "MY BACK 2 BACK CHAMP",
        "event_total": 50,
        "has_played": true,
        "id": 284802,
        "last_rank": 5115,
        "player_name": "Olumide Joseph",
        "rank": 8762,
        "rank_sort": 8763,
        "total": 2402
      },
      {
        "club_badge_src": null,
        "entry": 5477351,
        "entry_name": "Cheroh fc",
        "event_total": 65,
        "has_played": true,
        "id": 42641747,
        "last_rank": 9823,
        "player_name": "iz-one ...",
        "rank": 8762,
        "rank_sort": 8764,
        "total": 2402
      },
      {
        "club_badge_src": null,
        "entry": 1592661,
        "entry_name": "\u062d\u062c\u0648\u062c",
        "event_total": 48,
        "has_played": true,
        "id": 11137154,
        "last_rank": 4679,
        "player_name": "\u062d\u062c\u0648\u062c \u0661",
        "rank": 8765,
        "rank_sort": 8765,
        "total": 2402
      },
      {
        "club_badge_src": "https://fantasy.premierleague.com/gcs/plfpl-production-adobe-approved/plfpl-production/2743387/196e297c-1d5a-4291-b484-131a30b70766.png",
        "entry": 2743387,
        "entry_name": "Trust the Process FC",
        "event_total": 65,
        "has_played": true,
        "id": 19823126,
        "last_rank": 9823,
        "player_name": "Mohammad Alsalem",
        "rank": 8765,
        "rank_sort": 8766,
        "total": 2402
      },
      {
        "club_badge_src": null,
        "entry": 5511779,
        "entry_name": "\u0639\u0628\u0648\u062f",
        "event_total": 63,
        "has_played": true,
        "id": 42963379,
        "last_rank": 7580,
        "player_name": "\u0639\u0628\u0648\u062f \u0633\u064a\u062a\u064a\u0632\u0646",
        "rank": 8765,
        "rank_sort": 8767,
        "total": 2402
      },
      {
        "club_badge_src": null,
        "entry": 5568064,
        "entry_name": "Browning Braves",
        "event_total": 53,
        "has_played": true,
        "id": 43476882,
        "last_rank": 6986,
        "player_name": "John Stevens",
        "rank": 8765,
        "rank_sort": 8768,
        "total": 2402
      },
      {
        "club_badge_src": null,
        "entry": 2953899,
        "entry_name": "hammernes",
        "event_total": 76,
        "has_played": true,
        "id": 21695154,
        "last_rank": 15366,
        "player_name": "Bj\u00f8rn Viggo Hammernes",
        "rank": 8769,
        "rank_sort": 8769,
        "total": 2402
      },
      {
        "club_badge_src": null,
        "entry": 4165823,
        "entry_name": "Liam Delap Dancer",
        "event_total": 62,
        "has_played": true,
        "id": 31502362,
        "last_rank": 10232,
        "player_name": "Luke Bridgwater",
        "rank": 8769,
        "rank_sort": 8770,
        "total": 2402
      },
      {
        "club_badge_src": null,
        "entry": 59675,
        "entry_name": "@Errrxi",
        "event_total": 49,
        "has_played": true,
        "id": 384273,
        "last_rank": 4030,
        "player_name": "Errrxi .",
        "rank": 8771,
        "rank_sort": 8771,
        "total": 2402
      },
      {
        "club_badge_src": null,
        "entry": 856491,
        "entry_name": "Theboon",
        "event_total": 76,
        "has_played": true,
        "id": 5870850,
        "last_rank": 15373,
        "player_name": "Nirut Sangthong",
        "rank": 8771,
        "rank_sort": 8772,
        "total": 2402
      },
      {
        "club_badge_src": null,
        "entry": 7883008,
        "entry_name": "Yournited",
        "event_total": 75,
        "has_played": true,
        "id": 64831333,
        "last_rank": 10700,
        "player_name": "Hector Bumble Bee",
        "rank": 8773,
        "rank_sort": 8773,
        "total": 2402
      },
      {
        "club_badge_src": null,
        "entry": 3670075,
        "entry_name": "Mazza",
        "event_total": 58,
        "has_played": true,
        "id": 27371323,
        "last_rank": 8670,
        "player_name": "Maris Garrett",
        "rank": 8774,
        "rank_sort": 8774,
        "total": 2401
      },
      {
        "club_badge_src": null,
        "entry": 4034869,
        "entry_name": "Bottlers",
        "event_total": 62,
        "has_played": true,
        "id": 30423029,
        "last_rank": 10245,
        "player_name": "Hassaan Ali",
        "rank": 8775,
        "rank_sort": 8775,
        "total": 2401
      },
      {
        "club_badge_src": null,
        "entry": 6900799,
        "entry_name": "Gunners",
        "event_total": 68,
        "has_played": true,
        "id": 55310717,
        "last_rank": 13119,
        "player_name": "Hans Carlson",
        "rank": 8776,
        "rank_sort": 8776,
        "total": 2401
      },
      {
        "club_badge_src": null,
        "entry": 7581214,
        "entry_name": "D7 FC",
        "event_total": 86,
        "has_played": true,
        "id": 62094483,
        "last_rank": 25694,
        "player_name": "abdulrhman abdullah",
        "rank": 8776,
        "rank_sort": 8777,
        "total": 2401
      },
      {
        "club_badge_src": null,
        "entry": 8356761,
        "entry_name": "Botman Begins",
        "event_total": 70,
        "has_played": true,
        "id": 69266684,
        "last_rank": 14234,
        "player_name": "Rhys Hodge",
        "rank": 8778,
        "rank_sort": 8778,
        "total": 2401
      },
      {
        "club_badge_src": null,
        "entry": 138859,
        "entry_name": "Nice2Michu",
        "event_total": 55,
        "has_played": true,
        "id": 906039,
        "last_rank": 7604,
        "player_name": "Gianluca Rabaiotti",
        "rank": 8779,
        "rank_sort": 8779,
        "total": 2401
      },
      {
        "club_badge_src": null,
        "entry": 369754,
        "entry_name": ".",
        "event_total": 65,
        "has_played": true,
        "id": 2474187,
        "last_rank": 11599,
        "player_name": "Maureen Shalala",
        "rank": 8779,
        "rank_sort": 8780,
        "total": 2401
      },
      {
        "club_badge_src": null,
        "entry": 2677972,
        "entry_name": "berthel",
        "event_total": 52,
        "has_played": true,
        "id": 19258882,
        "last_rank": 6687,
        "player_name": "Berthel R\u00f8mer Andersen",
        "rank": 8779,
        "rank_sort": 8781,
        "total": 2401
      },
      {
        "club_badge_src": "https://fantasy.premierleague.com/gcs/plfpl-production-adobe-approved/plfpl-production/3348747/e56c9c81-f598-4056-887a-01e744e24677.png",
        "entry": 3348747,
        "entry_name": "War Pigs",
        "event_total": 63,
        "has_played": true,
        "id": 24841989,
        "last_rank": 10711,
        "player_name": "Paul Evans",
        "rank": 8779,
        "rank_sort": 8782,
        "total": 2401
      },
      {
        "club_badge_src": null,
        "entry": 4023636,
        "entry_name": "Erics Reds",
        "event_total": 49,
        "has_played": true,
        "id": 30327980,
        "last_rank": 5894,
        "player_name": "Christopher Mahady",
        "rank": 8779,
        "rank_sort": 8783,
        "total": 2401
      },
      {
        "club_badge_src": "https://fantasy.premierleague.com/gcs/plfpl-production-adobe-approved/plfpl-production/4966737/a0d5ab33-4124-465f-9a0f-740a74b159d1.png",
        "entry": 4966737,
        "entry_name": "Kaleva United",
        "event_total": 67,
        "has_played": true,
        "id": 38329765,
        "last_rank": 12591,
        "player_name": "Kalle Falck",
        "rank": 8779,
        "rank_sort": 8784,
        "total": 2401
      },
      {
        "club_badge_src": null,
        "entry": 5539176,
        "entry_name": "TGB",
        "event_total": 35,
        "has_played": true,
        "id": 43220167,
        "last_rank": 3079,
        "player_name": "Bogdan Mutulescu",
        "rank": 8779,
        "rank_sort": 8785,
        "total": 2401
      },
      {
        "club_badge_src": null,
        "entry": 9051689,
        "entry_name": "Zarya Lugansk",
        "event_total": 70,
        "has_played": true,
        "id": 75981635,
        "last_rank": 14234,
        "player_name": "Hrihorii Taranov",
        "rank": 8779,
        "rank_sort": 8786,
        "total": 2401
      },
      {
        "club_badge_src": null,
        "entry": 71284,
        "entry_name": "Beltin' Wanderers",
        "event_total": 76,
        "has_played": true,
        "id": 462976,
        "last_rank": 17989,
        "player_name": "Jack Brown",
        "rank": 8787,
        "rank_sort": 8787,
        "total": 2401
      },
      {
        "club_badge_src": null,
        "entry": 243105,
        "entry_name": "Its football nt Saka",
        "event_total": 72,
        "has_played": true,
        "id": 1618860,
        "last_rank": 13123,
        "player_name": "Kate Naylor Husbands",
        "rank": 8787,
        "rank_sort": 8788,
        "total": 2401
      },
      {
        "club_badge_src": null,
        "entry": 626766,
        "entry_name": "Tikka Mo Salah",
        "event_total": 53,
        "has_played": true,
        "id": 4235447,
        "last_rank": 7014,
        "player_name": "Bryony Dunn",
        "rank": 8787,
        "rank_sort": 8789,
        "total": 2401
      },
      {
        "club_badge_src": null,
        "entry": 811882,
        "entry_name": "Enter Team Name",
        "event_total": 62,
        "has_played": true,
        "id": 5558945,
        "last_rank": 10253,
        "player_name": "Jack Stapleton",
        "rank": 8787,
        "rank_sort": 8790,
        "total": 2401
      },
      {
        "club_badge_src": null,
        "entry": 1496698,
        "entry_name": "Danegaard",
        "event_total": 77,
        "has_played": true,
        "id": 10437545,
        "last_rank": 18790,
        "player_name": "Daniel Kri\u017eov",
        "rank": 8787,
        "rank_sort": 8791,
        "total": 2401
      },
      {
        "club_badge_src": null,
        "entry": 1591652,
        "entry_name": "Wagner's Winners",
        "event_total": 66,
        "has_played": true,
        "id": 11129326,
        "last_rank": 12109,
        "player_name": "Tom Wadelin",
        "rank": 8787,
        "rank_sort": 8792,
        "total": 2401
      },
      {
        "club_badge_src": null,
        "entry": 1733033,
        "entry_name": "Kinder Mbuemo",
        "event_total": 62,
        "has_played": true,
        "id": 12156474,
        "last_rank": 10288,
        "player_name": "Mohsin Hussain",
        "rank": 8787,
        "rank_sort": 8793,
        "total": 2401
      },
      {
        "club_badge_src": null,
        "entry": 1945382,
        "entry_name": "SUUUHEL",
        "event_total": 64,
        "has_played": true,
        "id": 13722494,
        "last_rank": 11150,
        "player_name": "Shuhel Miah",
        "rank": 8787,
        "rank_sort": 8794,
        "total": 2401
      },
      {
        "club_badge_src": null,
        "entry": 2653703,
        "entry_name": "Dija's FC",
        "event_total": 51,
        "has_played": true,
        "id": 19074914,
        "last_rank": 6448,
        "player_name": "Islam Abushal",
        "rank": 8787,
        "rank_sort": 8795,
        "total": 2401
      },
      {
        "club_badge_src": "https://fantasy.premierleague.com/gcs/plfpl-production-adobe-approved/plfpl-production/2730280/f52a982d-444d-4181-b46a-1e7b55142490.png",
        "entry": 2730280,
        "entry_name": "TOON AND A HALF MEN",
        "event_total": 67,
        "has_played": true,
        "id": 19647615,
        "last_rank": 12608,
        "player_name": "Luke Peronace",
        "rank": 8787,
        "rank_sort": 8796,
        "total": 2401
      },
      {
        "club_badge_src": null,
        "entry": 2904534,
        "entry_name": "The Elgyptian King",
        "event_total": 61,
        "has_played": true,
        "id": 21285944,
        "last_rank": 9853,
        "player_name": "Elliot Moore",
        "rank": 8787,
        "rank_sort": 8797,
        "total": 2401
      },
      {
        "club_badge_src": null,
        "entry": 3180224,
        "entry_name": "Deez Nutmegs",
        "event_total": 69,
        "has_played": true,
        "id": 23500025,
        "last_rank": 13821,
        "player_name": "Justin Shearer",
        "rank": 8787,
        "rank_sort": 8798,
        "total": 2401
      },
      {
        "club_badge_src": null,
        "entry": 3552494,
        "entry_name": "Boom Xhakalaka",
        "event_total": 32,
        "has_played": true,
        "id": 26447921,
        "last_rank": 2651,
        "player_name": "Cole Floyd",
        "rank": 8787,
        "rank_sort": 8799,
        "total": 2401
      },
      {
        "club_badge_src": null,
        "entry": 3798118,
        "entry_name": "Tark the Bus",
        "event_total": 57,
        "has_played": true,
        "id": 28390520,
        "last_rank": 8320,
        "player_name": "Lucas Halewood",
        "rank": 8787,
        "rank_sort": 8800,
        "total": 2401
      }
    ]
  }
}