{
  "last_updated_data": "2026-05-24T23:28:17Z",
  "league": {
    "admin_entry": null,
    "closed": false,
    "code_privacy": "p",
    "created": "2025-07-20T23:14:33.933835Z",
    "cup_league": 2815434,
    "has_cup": true,
    "id": 314,
    "league_type": "s",
    "max_entries": null,
    "name": "Overall",
    "rank": null,
    "scoring": "c",
    "start_event": 1
  },
  "new_entries": {
    "has_next": false,
    "page": 1,
    "results": []
  },
  "standings": {
    "has_next": true,
    "page": 1426,
    "results": [
      {
        "club_badge_src": null,
        "entry": 2856243,
        "entry_name": "Pakanaka FC",
        "event_total": 65,
        "has_played": true,
        "id": 20885897,
        "last_rank": 90300,
        "player_name": "Baba Kuku",
        "rank": 71225,
        "rank_sort": 71251,
        "total": 2340
      },
      {
        "club_badge_src": "https://fantasy.premierleague.com/gcs/plfpl-production-adobe-approved/plfpl-production/2908804/e11b658a-66f5-469f-a5da-967a74d504e7.png",
        "entry": 2908804,
        "entry_name": "Your Nightmare",
        "event_total": 69,
        "has_played": true,
        "id": 21318647,
        "last_rank": 100177,
        "player_name": "Mohamed Yasser",
        "rank": 71225,
        "rank_sort": 71252,
        "total": 2340
      },
      {
        "club_badge_src": null,
        "entry": 3609189,
        "entry_name": "Hand On The Gyok",
        "event_total": 70,
        "has_played": true,
        "id": 26885167,
        "last_rank": 102700,
        "player_name": "Jonathan Kerr",
        "rank": 71225,
        "rank_sort": 71253,
        "total": 2340
      },
      {
        "club_badge_src": null,
        "entry": 4123312,
        "entry_name": "Bowen 747",
        "event_total": 71,
        "has_played": true,
        "id": 31152412,
        "last_rank": 105430,
        "player_name": "Oliver Pease",
        "rank": 71225,
        "rank_sort": 71254,
        "total": 2340
      },
      {
        "club_badge_src": null,
        "entry": 4271601,
        "entry_name": "Happy Hammers",
        "event_total": 62,
        "has_played": true,
        "id": 32392455,
        "last_rank": 83267,
        "player_name": "andy farmer",
        "rank": 71225,
        "rank_sort": 71255,
        "total": 2340
      },
      {
        "club_badge_src": null,
        "entry": 4306149,
        "entry_name": "A Cunha Matata",
        "event_total": 57,
        "has_played": true,
        "id": 32671418,
        "last_rank": 72454,
        "player_name": "Kalle Arbin",
        "rank": 71225,
        "rank_sort": 71256,
        "total": 2340
      },
      {
        "club_badge_src": "https://fantasy.premierleague.com/gcs/plfpl-production-adobe-approved/plfpl-production/4730281/8ab12eff-f2f1-4238-9979-390ffb767610.png",
        "entry": 4730281,
        "entry_name": "Remontada",
        "event_total": 72,
        "has_played": true,
        "id": 36382191,
        "last_rank": 97687,
        "player_name": "Mido Yassen",
        "rank": 71225,
        "rank_sort": 71257,
        "total": 2340
      },
      {
        "club_badge_src": null,
        "entry": 5150608,
        "entry_name": "f@ntasy team",
        "event_total": 45,
        "has_played": true,
        "id": 39848249,
        "last_rank": 44982,
        "player_name": "Orestis Angelakis",
        "rank": 71225,
        "rank_sort": 71258,
        "total": 2340
      },
      {
        "club_badge_src": null,
        "entry": 5228743,
        "entry_name": "Nemesis",
        "event_total": 56,
        "has_played": true,
        "id": 40516667,
        "last_rank": 55812,
        "player_name": "Thusyanthan Mohanathas",
        "rank": 71225,
        "rank_sort": 71259,
        "total": 2340
      },
      {
        "club_badge_src": null,
        "entry": 5384600,
        "entry_name": "Reet Pettitt XV",
        "event_total": 66,
        "has_played": true,
        "id": 41859329,
        "last_rank": 83127,
        "player_name": "King Jackson",
        "rank": 71225,
        "rank_sort": 71260,
        "total": 2340
      },
      {
        "club_badge_src": null,
        "entry": 5950955,
        "entry_name": "Allo",
        "event_total": 55,
        "has_played": true,
        "id": 46807626,
        "last_rank": 61045,
        "player_name": "Stevan Bajac",
        "rank": 71225,
        "rank_sort": 71261,
        "total": 2340
      },
      {
        "club_badge_src": null,
        "entry": 6173670,
        "entry_name": "Pickleball",
        "event_total": 57,
        "has_played": true,
        "id": 48817810,
        "last_rank": 72454,
        "player_name": "Jake Joyous",
        "rank": 71225,
        "rank_sort": 71262,
        "total": 2340
      },
      {
        "club_badge_src": null,
        "entry": 6543237,
        "entry_name": "Celestial Guardians",
        "event_total": 68,
        "has_played": true,
        "id": 52207268,
        "last_rank": 97687,
        "player_name": "Ayushma Kasaju",
        "rank": 71225,
        "rank_sort": 71263,
        "total": 2340
      },
      {
        "club_badge_src": null,
        "entry": 6730053,
        "entry_name": "The humble genius",
        "event_total": 67,
        "has_played": true,
        "id": 53867507,
        "last_rank": 95213,
        "player_name": "Jimmy Robinson",
        "rank": 71225,
        "rank_sort": 71264,
        "total": 2340
      },
      {
        "club_badge_src": null,
        "entry": 152077,
        "entry_name": "Angielskie Byczki",
        "event_total": 60,
        "has_played": true,
        "id": 997966,
        "last_rank": 62874,
        "player_name": "Dawid Pe\u0142ka",
        "rank": 71265,
        "rank_sort": 71265,
        "total": 2340
      },
      {
        "club_badge_src": null,
        "entry": 463111,
        "entry_name": "Give me some Schade",
        "event_total": 48,
        "has_played": true,
        "id": 3106471,
        "last_rank": 55932,
        "player_name": "Jeremiah Nsofu",
        "rank": 71265,
        "rank_sort": 71266,
        "total": 2340
      },
      {
        "club_badge_src": null,
        "entry": 512785,
        "entry_name": "Mateta Spaghetta",
        "event_total": 62,
        "has_played": true,
        "id": 3443202,
        "last_rank": 74474,
        "player_name": "Will Kirby",
        "rank": 71265,
        "rank_sort": 71267,
        "total": 2340
      },
      {
        "club_badge_src": "https://fantasy.premierleague.com/gcs/plfpl-production-adobe-approved/plfpl-production/573269/3c29e393-a69e-43fd-9e29-531c94c9da93.png",
        "entry": 573269,
        "entry_name": "Sab moh maya hai",
        "event_total": 59,
        "has_played": true,
        "id": 3858062,
        "last_rank": 76730,
        "player_name": "Aditya Singh",
        "rank": 71265,
        "rank_sort": 71268,
        "total": 2340
      },
      {
        "club_badge_src": null,
        "entry": 715364,
        "entry_name": "PANDA",
        "event_total": 64,
        "has_played": true,
        "id": 4853445,
        "last_rank": 78782,
        "player_name": "Adham waleed",
        "rank": 71265,
        "rank_sort": 71269,
        "total": 2340
      },
      {
        "club_badge_src": null,
        "entry": 927068,
        "entry_name": "Hotel Calafiori",
        "event_total": 56,
        "has_played": true,
        "id": 6377953,
        "last_rank": 70414,
        "player_name": "Nat Beattie",
        "rank": 71265,
        "rank_sort": 71270,
        "total": 2340
      },
      {
        "club_badge_src": null,
        "entry": 1024568,
        "entry_name": "It's Coming Home",
        "event_total": 57,
        "has_played": true,
        "id": 7088509,
        "last_rank": 64603,
        "player_name": "Mo Osama",
        "rank": 71265,
        "rank_sort": 71271,
        "total": 2340
      },
      {
        "club_badge_src": null,
        "entry": 1062880,
        "entry_name": "daves eagles",
        "event_total": 56,
        "has_played": true,
        "id": 7357925,
        "last_rank": 62917,
        "player_name": "david may",
        "rank": 71265,
        "rank_sort": 71272,
        "total": 2340
      },
      {
        "club_badge_src": null,
        "entry": 1601937,
        "entry_name": "Could be Wirtz",
        "event_total": 57,
        "has_played": true,
        "id": 11206599,
        "last_rank": 72454,
        "player_name": "Vinnie Gilman",
        "rank": 71265,
        "rank_sort": 71273,
        "total": 2340
      },
      {
        "club_badge_src": "https://fantasy.premierleague.com/gcs/plfpl-production-adobe-approved/plfpl-production/1994763/d69339cf-5f2e-4e62-9284-71ccc358fcb6.png",
        "entry": 1994763,
        "entry_name": "\u0627\u0644\u0632\u0631\u0627\u0632\u064a\u0631",
        "event_total": 59,
        "has_played": true,
        "id": 14095015,
        "last_rank": 76730,
        "player_name": "Ahmed Fawzy",
        "rank": 71265,
        "rank_sort": 71274,
        "total": 2340
      },
      {
        "club_badge_src": null,
        "entry": 2425906,
        "entry_name": "AL Ahly",
        "event_total": 52,
        "has_played": true,
        "id": 17345828,
        "last_rank": 62939,
        "player_name": "Mina Mansour",
        "rank": 71265,
        "rank_sort": 71275,
        "total": 2340
      },
      {
        "club_badge_src": null,
        "entry": 2720186,
        "entry_name": "Heald Green Hornets",
        "event_total": 51,
        "has_played": true,
        "id": 19573583,
        "last_rank": 54218,
        "player_name": "Gordon Stirling",
        "rank": 71265,
        "rank_sort": 71276,
        "total": 2340
      },
      {
        "club_badge_src": "https://fantasy.premierleague.com/gcs/plfpl-production-adobe-approved/plfpl-production/2868232/62963b22-c7ca-4b0c-b5ef-de4afab17a39.png",
        "entry": 2868232,
        "entry_name": "Never say die Royals",
        "event_total": 54,
        "has_played": true,
        "id": 20978506,
        "last_rank": 66518,
        "player_name": "Richard Ford",
        "rank": 71265,
        "rank_sort": 71277,
        "total": 2340
      },
      {
        "club_badge_src": null,
        "entry": 2869186,
        "entry_name": "Taiomy 5",
        "event_total": 49,
        "has_played": true,
        "id": 20986653,
        "last_rank": 50984,
        "player_name": "Taiomy Taiomy",
        "rank": 71265,
        "rank_sort": 71278,
        "total": 2340
      },
      {
        "club_badge_src": null,
        "entry": 2873758,
        "entry_name": "Bowen 747",
        "event_total": 52,
        "has_played": true,
        "id": 21028421,
        "last_rank": 55902,
        "player_name": "Ben Lunt",
        "rank": 71265,
        "rank_sort": 71279,
        "total": 2340
      },
      {
        "club_badge_src": null,
        "entry": 3224924,
        "entry_name": "team",
        "event_total": 49,
        "has_played": true,
        "id": 23849044,
        "last_rank": 57619,
        "player_name": "Blake McFarlane",
        "rank": 71265,
        "rank_sort": 71280,
        "total": 2340
      },
      {
        "club_badge_src": null,
        "entry": 3444767,
        "entry_name": "SimplyTheBest",
        "event_total": 65,
        "has_played": true,
        "id": 25594188,
        "last_rank": 90359,
        "player_name": "John Douglas",
        "rank": 71265,
        "rank_sort": 71281,
        "total": 2340
      },
      {
        "club_badge_src": null,
        "entry": 3864037,
        "entry_name": "Anas",
        "event_total": 68,
        "has_played": true,
        "id": 28973079,
        "last_rank": 97814,
        "player_name": "ANAS Elsamman",
        "rank": 71265,
        "rank_sort": 71282,
        "total": 2340
      },
      {
        "club_badge_src": null,
        "entry": 4173050,
        "entry_name": "Unchained GOAT",
        "event_total": 92,
        "has_played": true,
        "id": 31562598,
        "last_rank": 174060,
        "player_name": "Lana Gent",
        "rank": 71265,
        "rank_sort": 71283,
        "total": 2340
      },
      {
        "club_badge_src": "https://fantasy.premierleague.com/gcs/plfpl-production-adobe-approved/plfpl-production/4250557/75c7b3a9-f315-40f8-926e-588a9478eff0.png",
        "entry": 4250557,
        "entry_name": "amzee",
        "event_total": 74,
        "has_played": true,
        "id": 32221200,
        "last_rank": 113835,
        "player_name": "Amzah Roqeeb",
        "rank": 71265,
        "rank_sort": 71284,
        "total": 2340
      },
      {
        "club_badge_src": "https://fantasy.premierleague.com/gcs/plfpl-production-adobe-approved/plfpl-production/4875160/f21ddf03-2f36-4c49-8f79-7388280f85a8.png",
        "entry": 4875160,
        "entry_name": "eldawly.n.1\u261d\ufe0f",
        "event_total": 72,
        "has_played": true,
        "id": 37579343,
        "last_rank": 108264,
        "player_name": "Elrasam elmasry",
        "rank": 71265,
        "rank_sort": 71285,
        "total": 2340
      },
      {
        "club_badge_src": null,
        "entry": 5085604,
        "entry_name": "BUGAGA FC",
        "event_total": 50,
        "has_played": true,
        "id": 39306048,
        "last_rank": 40878,
        "player_name": "muhammad umar",
        "rank": 71265,
        "rank_sort": 71286,
        "total": 2340
      },
      {
        "club_badge_src": "https://fantasy.premierleague.com/gcs/plfpl-production-adobe-approved/plfpl-production/6291734/f5989397-8df0-4cbf-8064-a52b7e5b5ea4.png",
        "entry": 6291734,
        "entry_name": "i'm Jose MOURINHO\u2620\ufe0f\u2620",
        "event_total": 55,
        "has_played": true,
        "id": 49853981,
        "last_rank": 54181,
        "player_name": "Ibrahem El Zanaty",
        "rank": 71265,
        "rank_sort": 71287,
        "total": 2340
      },
      {
        "club_badge_src": "https://fantasy.premierleague.com/gcs/plfpl-production-adobe-approved/plfpl-production/6369005/16f930a6-d4eb-4367-ac53-2d3be7f00f06.png",
        "entry": 6369005,
        "entry_name": "Nesto_FC",
        "event_total": 61,
        "has_played": true,
        "id": 50645746,
        "last_rank": 72454,
        "player_name": "Ernest M'mame",
        "rank": 71265,
        "rank_sort": 71288,
        "total": 2340
      },
      {
        "club_badge_src": "https://fantasy.premierleague.com/gcs/plfpl-production-adobe-approved/plfpl-production/7442734/97f87cb2-f678-4d25-ad0b-02bc67df7549.png",
        "entry": 7442734,
        "entry_name": "Censored ALAW",
        "event_total": 41,
        "has_played": true,
        "id": 60538951,
        "last_rank": 45050,
        "player_name": "Nick Todd",
        "rank": 71265,
        "rank_sort": 71289,
        "total": 2340
      },
      {
        "club_badge_src": null,
        "entry": 8119371,
        "entry_name": "Kitsilano FC",
        "event_total": 42,
        "has_played": true,
        "id": 66982249,
        "last_rank": 46454,
        "player_name": "Carter Gill",
        "rank": 71265,
        "rank_sort": 71290,
        "total": 2340
      },
      {
        "club_badge_src": null,
        "entry": 8853285,
        "entry_name": "PEKKA",
        "event_total": 64,
        "has_played": true,
        "id": 74057840,
        "last_rank": 87976,
        "player_name": "Jens Henrik Pedersen",
        "rank": 71265,
        "rank_sort": 71291,
        "total": 2340
      },
      {
        "club_badge_src": null,
        "entry": 9482471,
        "entry_name": "LA BOCA",
        "event_total": 66,
        "has_played": true,
        "id": 80139469,
        "last_rank": 74474,
        "player_name": "Yasser Adri",
        "rank": 71265,
        "rank_sort": 71292,
        "total": 2340
      },
      {
        "club_badge_src": null,
        "entry": 18784,
        "entry_name": "Real Madri FC",
        "event_total": 45,
        "has_played": true,
        "id": 116911,
        "last_rank": 51047,
        "player_name": "Ian Sills",
        "rank": 71293,
        "rank_sort": 71293,
        "total": 2340
      },
      {
        "club_badge_src": "https://fantasy.premierleague.com/gcs/plfpl-production-adobe-approved/plfpl-production/71198/24801050-bb5b-4621-ab20-889bbb481b9d.png",
        "entry": 71198,
        "entry_name": "Tea for the Tieleman",
        "event_total": 56,
        "has_played": true,
        "id": 462394,
        "last_rank": 70471,
        "player_name": "Jack Pass",
        "rank": 71293,
        "rank_sort": 71294,
        "total": 2340
      },
      {
        "club_badge_src": null,
        "entry": 331514,
        "entry_name": "Toxicity",
        "event_total": 53,
        "has_played": true,
        "id": 2220476,
        "last_rank": 64656,
        "player_name": "Kabir Shrestha",
        "rank": 71293,
        "rank_sort": 71295,
        "total": 2340
      },
      {
        "club_badge_src": null,
        "entry": 475563,
        "entry_name": "People = Schmid",
        "event_total": 51,
        "has_played": true,
        "id": 3192518,
        "last_rank": 47950,
        "player_name": "Reece Warren",
        "rank": 71293,
        "rank_sort": 71296,
        "total": 2340
      },
      {
        "club_badge_src": null,
        "entry": 1186687,
        "entry_name": "Siu FC",
        "event_total": 62,
        "has_played": true,
        "id": 8233631,
        "last_rank": 83311,
        "player_name": "Siu FC",
        "rank": 71293,
        "rank_sort": 71297,
        "total": 2340
      },
      {
        "club_badge_src": "https://fantasy.premierleague.com/gcs/plfpl-production-adobe-approved/plfpl-production/1315573/cae64952-d065-4572-8f05-fbb4fb6f50da.png",
        "entry": 1315573,
        "entry_name": "shahino",
        "event_total": 67,
        "has_played": true,
        "id": 9143884,
        "last_rank": 85672,
        "player_name": "mohamed shahin",
        "rank": 71293,
        "rank_sort": 71298,
        "total": 2340
      },
      {
        "club_badge_src": null,
        "entry": 1681602,
        "entry_name": "NO Nana",
        "event_total": 52,
        "has_played": true,
        "id": 11771967,
        "last_rank": 55932,
        "player_name": "David Lloyd",
        "rank": 71293,
        "rank_sort": 71299,
        "total": 2340
      },
      {
        "club_badge_src": null,
        "entry": 1938293,
        "entry_name": "Westis gubbar",
        "event_total": 62,
        "has_played": true,
        "id": 13671443,
        "last_rank": 83311,
        "player_name": "Anton Westerberg",
        "rank": 71293,
        "rank_sort": 71300,
        "total": 2340
      }
    ]
  }
}