{
  "last_updated_data": "2026-05-24T23:28:17Z",
  "league": {
    "admin_entry": null,
    "closed": false,
    "code_privacy": "p",
    "created": "2025-07-20T23:14:33.933835Z",
    "cup_league": 2815434,
    "has_cup": true,
    "id": 314,
    "league_type": "s",
    "max_entries": null,
    "name": "Overall",
    "rank": null,
    "scoring": "c",
    "start_event": 1
  },
  "new_entries": {
    "has_next": false,
    "page": 1,
    "results": []
  },
  "standings": {
    "has_next": true,
    "page": 311,
    "results": [
      {
        "club_badge_src": null,
        "entry": 700332,
        "entry_name": "LAFC",
        "event_total": 49,
        "has_played": true,
        "id": 4744758,
        "last_rank": 10920,
        "player_name": "James Davis",
        "rank": 15462,
        "rank_sort": 15501,
        "total": 2387
      },
      {
        "club_badge_src": null,
        "entry": 716587,
        "entry_name": "Had One Tchouameni",
        "event_total": 55,
        "has_played": true,
        "id": 4862080,
        "last_rank": 13947,
        "player_name": "Chris Bell",
        "rank": 15462,
        "rank_sort": 15502,
        "total": 2387
      },
      {
        "club_badge_src": null,
        "entry": 716997,
        "entry_name": "Cucu Puffs",
        "event_total": 68,
        "has_played": true,
        "id": 4864991,
        "last_rank": 22534,
        "player_name": "Rory Davies",
        "rank": 15462,
        "rank_sort": 15503,
        "total": 2387
      },
      {
        "club_badge_src": null,
        "entry": 739499,
        "entry_name": "waudy's 11",
        "event_total": 43,
        "has_played": true,
        "id": 5027970,
        "last_rank": 8552,
        "player_name": "Jack Waud",
        "rank": 15462,
        "rank_sort": 15504,
        "total": 2387
      },
      {
        "club_badge_src": "https://fantasy.premierleague.com/gcs/plfpl-production-adobe-approved/plfpl-production/747780/f0505c12-0b07-453c-8185-bbdd78bfaf3f.png",
        "entry": 747780,
        "entry_name": "@ziko007",
        "event_total": 60,
        "has_played": true,
        "id": 5087352,
        "last_rank": 16959,
        "player_name": "zaki albeladi",
        "rank": 15462,
        "rank_sort": 15505,
        "total": 2387
      },
      {
        "club_badge_src": null,
        "entry": 809185,
        "entry_name": "Khone FC",
        "event_total": 65,
        "has_played": true,
        "id": 5539953,
        "last_rank": 20416,
        "player_name": "Ryan Stepp",
        "rank": 15462,
        "rank_sort": 15506,
        "total": 2387
      },
      {
        "club_badge_src": null,
        "entry": 837892,
        "entry_name": "bANGEchod XI",
        "event_total": 55,
        "has_played": true,
        "id": 5740220,
        "last_rank": 13821,
        "player_name": "Julian Viret",
        "rank": 15462,
        "rank_sort": 15507,
        "total": 2387
      },
      {
        "club_badge_src": "https://fantasy.premierleague.com/gcs/plfpl-production-adobe-approved/plfpl-production/852837/03641990-d1a2-40a0-8f1b-9eec64c0ae9c.png",
        "entry": 852837,
        "entry_name": "The Inflated Egos",
        "event_total": 41,
        "has_played": true,
        "id": 5845660,
        "last_rank": 7761,
        "player_name": "Dan Astill-Frew",
        "rank": 15462,
        "rank_sort": 15508,
        "total": 2387
      },
      {
        "club_badge_src": null,
        "entry": 860858,
        "entry_name": "barcaloner",
        "event_total": 66,
        "has_played": true,
        "id": 5901326,
        "last_rank": 18029,
        "player_name": "Andy Gilfoyle",
        "rank": 15462,
        "rank_sort": 15509,
        "total": 2387
      },
      {
        "club_badge_src": "https://fantasy.premierleague.com/gcs/plfpl-production-adobe-approved/plfpl-production/962646/bbfe40f9-036f-4abe-aaaf-f1d499992933.png",
        "entry": 962646,
        "entry_name": "Invincibles",
        "event_total": 57,
        "has_played": true,
        "id": 6633909,
        "last_rank": 15063,
        "player_name": "Gbemi Fuwape",
        "rank": 15462,
        "rank_sort": 15510,
        "total": 2387
      },
      {
        "club_badge_src": null,
        "entry": 965561,
        "entry_name": "Reece's Setpieces",
        "event_total": 79,
        "has_played": true,
        "id": 6654559,
        "last_rank": 32688,
        "player_name": "Ralph De Luca",
        "rank": 15462,
        "rank_sort": 15511,
        "total": 2387
      },
      {
        "club_badge_src": null,
        "entry": 993001,
        "entry_name": "GLONG XI",
        "event_total": 67,
        "has_played": true,
        "id": 6849086,
        "last_rank": 21775,
        "player_name": "George Long",
        "rank": 15462,
        "rank_sort": 15512,
        "total": 2387
      },
      {
        "club_badge_src": null,
        "entry": 1020495,
        "entry_name": "Gittens Kittens",
        "event_total": 38,
        "has_played": true,
        "id": 7060259,
        "last_rank": 6839,
        "player_name": "Daniel Iball",
        "rank": 15462,
        "rank_sort": 15513,
        "total": 2387
      },
      {
        "club_badge_src": null,
        "entry": 1037910,
        "entry_name": "STRETFORD END",
        "event_total": 66,
        "has_played": true,
        "id": 7182453,
        "last_rank": 21159,
        "player_name": "Samiul islam Samrat",
        "rank": 15462,
        "rank_sort": 15514,
        "total": 2387
      },
      {
        "club_badge_src": null,
        "entry": 1051328,
        "entry_name": "Daley Quint",
        "event_total": 55,
        "has_played": true,
        "id": 7275818,
        "last_rank": 14040,
        "player_name": "Quint de Zeeuw",
        "rank": 15462,
        "rank_sort": 15515,
        "total": 2387
      },
      {
        "club_badge_src": null,
        "entry": 1051412,
        "entry_name": "Bottlers FC",
        "event_total": 62,
        "has_played": true,
        "id": 7276421,
        "last_rank": 18113,
        "player_name": "Lucas Pouis",
        "rank": 15462,
        "rank_sort": 15516,
        "total": 2387
      },
      {
        "club_badge_src": null,
        "entry": 1052536,
        "entry_name": "The Reddevils",
        "event_total": 61,
        "has_played": true,
        "id": 7284194,
        "last_rank": 17585,
        "player_name": "GARY BARKWILL",
        "rank": 15462,
        "rank_sort": 15517,
        "total": 2387
      },
      {
        "club_badge_src": null,
        "entry": 1057586,
        "entry_name": "Beto Call Saul",
        "event_total": 60,
        "has_played": true,
        "id": 7319066,
        "last_rank": 14370,
        "player_name": "Ben Tambling",
        "rank": 15462,
        "rank_sort": 15518,
        "total": 2387
      },
      {
        "club_badge_src": null,
        "entry": 1105077,
        "entry_name": "The Blues",
        "event_total": 48,
        "has_played": true,
        "id": 7654541,
        "last_rank": 10462,
        "player_name": "John Paget",
        "rank": 15462,
        "rank_sort": 15519,
        "total": 2387
      },
      {
        "club_badge_src": null,
        "entry": 1171270,
        "entry_name": "Chief LeGris Village",
        "event_total": 56,
        "has_played": true,
        "id": 8125632,
        "last_rank": 14496,
        "player_name": "Rick Hunteman",
        "rank": 15462,
        "rank_sort": 15520,
        "total": 2387
      },
      {
        "club_badge_src": null,
        "entry": 1270926,
        "entry_name": "Absolutely Fabregas",
        "event_total": 48,
        "has_played": true,
        "id": 8830532,
        "last_rank": 10346,
        "player_name": "Sophie Lopez",
        "rank": 15462,
        "rank_sort": 15521,
        "total": 2387
      },
      {
        "club_badge_src": null,
        "entry": 1394418,
        "entry_name": "Red Hair Pirates",
        "event_total": 66,
        "has_played": true,
        "id": 9700706,
        "last_rank": 20983,
        "player_name": "Ernest Afonso",
        "rank": 15462,
        "rank_sort": 15522,
        "total": 2387
      },
      {
        "club_badge_src": null,
        "entry": 1417463,
        "entry_name": "-_-",
        "event_total": 68,
        "has_played": true,
        "id": 9869033,
        "last_rank": 22685,
        "player_name": "Adam Camilleri",
        "rank": 15462,
        "rank_sort": 15523,
        "total": 2387
      },
      {
        "club_badge_src": "https://fantasy.premierleague.com/gcs/plfpl-production-adobe-approved/plfpl-production/1480659/db8ed22f-775f-4a8e-8176-b41783f0f912.png",
        "entry": 1480659,
        "entry_name": "HomeLess",
        "event_total": 54,
        "has_played": true,
        "id": 10324149,
        "last_rank": 13401,
        "player_name": "Artem Pirozhkov",
        "rank": 15462,
        "rank_sort": 15524,
        "total": 2387
      },
      {
        "club_badge_src": null,
        "entry": 1695534,
        "entry_name": "Bryan MBeno",
        "event_total": 43,
        "has_played": true,
        "id": 11875462,
        "last_rank": 8552,
        "player_name": "Benjamin McKenna",
        "rank": 15462,
        "rank_sort": 15525,
        "total": 2387
      },
      {
        "club_badge_src": null,
        "entry": 1819064,
        "entry_name": "Wirtz Case Scenario",
        "event_total": 69,
        "has_played": true,
        "id": 12792609,
        "last_rank": 23341,
        "player_name": "Chris Jackson",
        "rank": 15462,
        "rank_sort": 15526,
        "total": 2387
      },
      {
        "club_badge_src": null,
        "entry": 1832835,
        "entry_name": "Amadou on fire",
        "event_total": 55,
        "has_played": true,
        "id": 12892819,
        "last_rank": 11699,
        "player_name": "Ahmed Shamel",
        "rank": 15462,
        "rank_sort": 15527,
        "total": 2387
      },
      {
        "club_badge_src": null,
        "entry": 1862634,
        "entry_name": "The Blues FC",
        "event_total": 44,
        "has_played": true,
        "id": 13110150,
        "last_rank": 8854,
        "player_name": "Don NoHair xGenius",
        "rank": 15462,
        "rank_sort": 15528,
        "total": 2387
      },
      {
        "club_badge_src": "https://fantasy.premierleague.com/gcs/plfpl-production-adobe-approved/plfpl-production/1929903/fcc63b2c-e33e-4e65-b614-1ddfe49e78fa.png",
        "entry": 1929903,
        "entry_name": "VKH Rangers",
        "event_total": 56,
        "has_played": true,
        "id": 13611263,
        "last_rank": 14496,
        "player_name": "Wim De Schoenmaeker",
        "rank": 15462,
        "rank_sort": 15529,
        "total": 2387
      },
      {
        "club_badge_src": null,
        "entry": 1972566,
        "entry_name": "M@r$hal FC",
        "event_total": 58,
        "has_played": true,
        "id": 13922797,
        "last_rank": 15550,
        "player_name": "Bibek Shrestha",
        "rank": 15462,
        "rank_sort": 15530,
        "total": 2387
      },
      {
        "club_badge_src": null,
        "entry": 2415903,
        "entry_name": "LetGodSortEmOut",
        "event_total": 62,
        "has_played": true,
        "id": 17270151,
        "last_rank": 18270,
        "player_name": "vassa reys",
        "rank": 15462,
        "rank_sort": 15531,
        "total": 2387
      },
      {
        "club_badge_src": null,
        "entry": 2675789,
        "entry_name": "Grimsby Boys",
        "event_total": 68,
        "has_played": true,
        "id": 19238959,
        "last_rank": 22534,
        "player_name": "Will Lepley",
        "rank": 15462,
        "rank_sort": 15532,
        "total": 2387
      },
      {
        "club_badge_src": null,
        "entry": 2771653,
        "entry_name": "Change Name",
        "event_total": 83,
        "has_played": true,
        "id": 20223092,
        "last_rank": 32751,
        "player_name": "Liam O-Reilly",
        "rank": 15462,
        "rank_sort": 15533,
        "total": 2387
      },
      {
        "club_badge_src": null,
        "entry": 3056300,
        "entry_name": "Ace 11",
        "event_total": 53,
        "has_played": true,
        "id": 22501207,
        "last_rank": 12846,
        "player_name": "Adnan Arif",
        "rank": 15462,
        "rank_sort": 15534,
        "total": 2387
      },
      {
        "club_badge_src": "https://fantasy.premierleague.com/gcs/plfpl-production-adobe-approved/plfpl-production/3109992/d4f0380f-2b5e-474b-a821-a28407c666bd.png",
        "entry": 3109992,
        "entry_name": "Zahd",
        "event_total": 59,
        "has_played": true,
        "id": 22949631,
        "last_rank": 16320,
        "player_name": "Zahd Yahya",
        "rank": 15462,
        "rank_sort": 15535,
        "total": 2387
      },
      {
        "club_badge_src": "https://fantasy.premierleague.com/gcs/plfpl-production-adobe-approved/plfpl-production/3208468/fdb5bdb5-d23a-4f0b-91e7-1736698d3346.png",
        "entry": 3208468,
        "entry_name": "Magnum's Eleven",
        "event_total": 68,
        "has_played": true,
        "id": 23720306,
        "last_rank": 22534,
        "player_name": "Magnus Brunzell",
        "rank": 15462,
        "rank_sort": 15536,
        "total": 2387
      },
      {
        "club_badge_src": null,
        "entry": 3272479,
        "entry_name": "juntha f",
        "event_total": 54,
        "has_played": true,
        "id": 24218087,
        "last_rank": 13401,
        "player_name": "Rahul Brambha",
        "rank": 15462,
        "rank_sort": 15537,
        "total": 2387
      },
      {
        "club_badge_src": null,
        "entry": 3387949,
        "entry_name": "Maguire",
        "event_total": 68,
        "has_played": true,
        "id": 25150879,
        "last_rank": 22534,
        "player_name": "Abdulrahman Alasfour",
        "rank": 15462,
        "rank_sort": 15538,
        "total": 2387
      },
      {
        "club_badge_src": null,
        "entry": 3394231,
        "entry_name": "The Leather Cap",
        "event_total": 40,
        "has_played": true,
        "id": 25199677,
        "last_rank": 7450,
        "player_name": "brian delany",
        "rank": 15462,
        "rank_sort": 15539,
        "total": 2387
      },
      {
        "club_badge_src": null,
        "entry": 3448024,
        "entry_name": "K1",
        "event_total": 66,
        "has_played": true,
        "id": 25620135,
        "last_rank": 18113,
        "player_name": "K.S Bin Khuzaim",
        "rank": 15462,
        "rank_sort": 15540,
        "total": 2387
      },
      {
        "club_badge_src": null,
        "entry": 3656548,
        "entry_name": "Peaky Reijnders",
        "event_total": 77,
        "has_played": true,
        "id": 27266038,
        "last_rank": 30727,
        "player_name": "Jonathan Davison",
        "rank": 15462,
        "rank_sort": 15541,
        "total": 2387
      },
      {
        "club_badge_src": null,
        "entry": 3730150,
        "entry_name": "Me, Myself, Ndiaye",
        "event_total": 69,
        "has_played": true,
        "id": 27841725,
        "last_rank": 23522,
        "player_name": "Rebecca Wilson",
        "rank": 15462,
        "rank_sort": 15542,
        "total": 2387
      },
      {
        "club_badge_src": null,
        "entry": 3792558,
        "entry_name": "LapisLazuli",
        "event_total": 68,
        "has_played": true,
        "id": 28344366,
        "last_rank": 22685,
        "player_name": "Lapis Lazulli",
        "rank": 15462,
        "rank_sort": 15543,
        "total": 2387
      },
      {
        "club_badge_src": "https://fantasy.premierleague.com/gcs/plfpl-production-adobe-approved/plfpl-production/3809446/68b9fa6a-0d43-49b6-af0a-f3b3830d2bb7.png",
        "entry": 3809446,
        "entry_name": "When We Talk , We Do",
        "event_total": 55,
        "has_played": true,
        "id": 28483231,
        "last_rank": 11699,
        "player_name": "Raed Baaqeel",
        "rank": 15462,
        "rank_sort": 15544,
        "total": 2387
      },
      {
        "club_badge_src": null,
        "entry": 3909569,
        "entry_name": "Peaky Reijnders",
        "event_total": 46,
        "has_played": true,
        "id": 29393426,
        "last_rank": 9644,
        "player_name": "Samuel William",
        "rank": 15462,
        "rank_sort": 15545,
        "total": 2387
      },
      {
        "club_badge_src": "https://fantasy.premierleague.com/gcs/plfpl-production-adobe-approved/plfpl-production/3910330/78cf7e37-6fb4-42a2-bb5e-3f9a57ad36ca.png",
        "entry": 3910330,
        "entry_name": "N-team",
        "event_total": 59,
        "has_played": true,
        "id": 29399506,
        "last_rank": 16163,
        "player_name": "Nazarii Kovalchuk",
        "rank": 15462,
        "rank_sort": 15546,
        "total": 2387
      },
      {
        "club_badge_src": "https://fantasy.premierleague.com/gcs/plfpl-production-adobe-approved/plfpl-production/3966708/bfe7f33b-7639-45fe-afa5-cd957180886f.png",
        "entry": 3966708,
        "entry_name": "Flamengo",
        "event_total": 57,
        "has_played": true,
        "id": 29848402,
        "last_rank": 12705,
        "player_name": "AbdelRahman Rowaizak",
        "rank": 15462,
        "rank_sort": 15547,
        "total": 2387
      },
      {
        "club_badge_src": null,
        "entry": 3999644,
        "entry_name": "Tore Team",
        "event_total": 80,
        "has_played": true,
        "id": 30123942,
        "last_rank": 34051,
        "player_name": "Aqtore Qani",
        "rank": 15462,
        "rank_sort": 15548,
        "total": 2387
      },
      {
        "club_badge_src": null,
        "entry": 4158129,
        "entry_name": "Mo",
        "event_total": 53,
        "has_played": true,
        "id": 31433581,
        "last_rank": 12846,
        "player_name": "Morgan Libert",
        "rank": 15462,
        "rank_sort": 15549,
        "total": 2387
      },
      {
        "club_badge_src": null,
        "entry": 4182937,
        "entry_name": "Magnifique Belgique",
        "event_total": 53,
        "has_played": true,
        "id": 31647306,
        "last_rank": 10805,
        "player_name": "Liam Robberechts",
        "rank": 15462,
        "rank_sort": 15550,
        "total": 2387
      }
    ]
  }
}