{
  "last_updated_data": "2026-05-24T23:28:17Z",
  "league": {
    "admin_entry": null,
    "closed": false,
    "code_privacy": "p",
    "created": "2025-07-20T23:14:33.933835Z",
    "cup_league": 2815434,
    "has_cup": true,
    "id": 314,
    "league_type": "s",
    "max_entries": null,
    "name": "Overall",
    "rank": null,
    "scoring": "c",
    "start_event": 1
  },
  "new_entries": {
    "has_next": false,
    "page": 1,
    "results": []
  },
  "standings": {
    "has_next": true,
    "page": 950,
    "results": [
      {
        "club_badge_src": null,
        "entry": 1668147,
        "entry_name": "Elasdekaa fc",
        "event_total": 56,
        "has_played": true,
        "id": 11679168,
        "last_rank": 40770,
        "player_name": "Eljo Ker",
        "rank": 47421,
        "rank_sort": 47451,
        "total": 2354
      },
      {
        "club_badge_src": null,
        "entry": 1726593,
        "entry_name": "Eze come Eze go",
        "event_total": 41,
        "has_played": true,
        "id": 12108071,
        "last_rank": 28388,
        "player_name": "Ketan Patel",
        "rank": 47421,
        "rank_sort": 47452,
        "total": 2354
      },
      {
        "club_badge_src": "https://fantasy.premierleague.com/gcs/plfpl-production-adobe-approved/plfpl-production/1811432/ab7e4cac-b249-4f60-b202-2582b756794f.png",
        "entry": 1811432,
        "entry_name": "BG Rockstarz",
        "event_total": 55,
        "has_played": true,
        "id": 12736335,
        "last_rank": 44882,
        "player_name": "Hristo Ginchev",
        "rank": 47421,
        "rank_sort": 47453,
        "total": 2354
      },
      {
        "club_badge_src": null,
        "entry": 1897047,
        "entry_name": "Beklageligt p\u00e5 Bones",
        "event_total": 73,
        "has_played": true,
        "id": 13371704,
        "last_rank": 68107,
        "player_name": "Sofus K\u00f8ningsberg",
        "rank": 47421,
        "rank_sort": 47454,
        "total": 2354
      },
      {
        "club_badge_src": null,
        "entry": 1908674,
        "entry_name": "Filadelfija",
        "event_total": 60,
        "has_played": true,
        "id": 13456199,
        "last_rank": 52461,
        "player_name": "Rade Bogdanovic",
        "rank": 47421,
        "rank_sort": 47455,
        "total": 2354
      },
      {
        "club_badge_src": null,
        "entry": 1991345,
        "entry_name": "Outsiders",
        "event_total": 70,
        "has_played": true,
        "id": 14069315,
        "last_rank": 70183,
        "player_name": "Raz Mann",
        "rank": 47421,
        "rank_sort": 47456,
        "total": 2354
      },
      {
        "club_badge_src": null,
        "entry": 2005572,
        "entry_name": "App united",
        "event_total": 55,
        "has_played": true,
        "id": 14179614,
        "last_rank": 44882,
        "player_name": "Thamrong Ch",
        "rank": 47421,
        "rank_sort": 47457,
        "total": 2354
      },
      {
        "club_badge_src": null,
        "entry": 2270288,
        "entry_name": "\u0627\u0644\u0643\u0648\u062a\u0634 \u0646\u0642\u0644",
        "event_total": 60,
        "has_played": true,
        "id": 16188218,
        "last_rank": 52357,
        "player_name": "samer nuqul",
        "rank": 47421,
        "rank_sort": 47458,
        "total": 2354
      },
      {
        "club_badge_src": null,
        "entry": 2358388,
        "entry_name": "COYG",
        "event_total": 58,
        "has_played": true,
        "id": 16828556,
        "last_rank": 49078,
        "player_name": "Ahmed Hussein",
        "rank": 47421,
        "rank_sort": 47459,
        "total": 2354
      },
      {
        "club_badge_src": null,
        "entry": 3077169,
        "entry_name": "Ayew shaw?",
        "event_total": 59,
        "has_played": true,
        "id": 22669216,
        "last_rank": 50848,
        "player_name": "Aarav Duggal",
        "rank": 47421,
        "rank_sort": 47460,
        "total": 2354
      },
      {
        "club_badge_src": null,
        "entry": 3146704,
        "entry_name": "REGAN FC",
        "event_total": 57,
        "has_played": true,
        "id": 23234316,
        "last_rank": 47722,
        "player_name": "Jake Regan",
        "rank": 47421,
        "rank_sort": 47461,
        "total": 2354
      },
      {
        "club_badge_src": null,
        "entry": 3622439,
        "entry_name": "Lou's Lily Whites",
        "event_total": 39,
        "has_played": true,
        "id": 26989698,
        "last_rank": 26512,
        "player_name": "Louie Iles",
        "rank": 47421,
        "rank_sort": 47462,
        "total": 2354
      },
      {
        "club_badge_src": null,
        "entry": 3770009,
        "entry_name": "Zcs",
        "event_total": 68,
        "has_played": true,
        "id": 28149294,
        "last_rank": 66380,
        "player_name": "curva sud",
        "rank": 47421,
        "rank_sort": 47463,
        "total": 2354
      },
      {
        "club_badge_src": null,
        "entry": 3892903,
        "entry_name": "Assaf Alon",
        "event_total": 61,
        "has_played": true,
        "id": 29256321,
        "last_rank": 47722,
        "player_name": "Assaf Alon",
        "rank": 47421,
        "rank_sort": 47464,
        "total": 2354
      },
      {
        "club_badge_src": null,
        "entry": 3967792,
        "entry_name": "Ol\u00e9 Eldars",
        "event_total": 60,
        "has_played": true,
        "id": 29857142,
        "last_rank": 46236,
        "player_name": "Eldar Garibzadeh",
        "rank": 47421,
        "rank_sort": 47465,
        "total": 2354
      },
      {
        "club_badge_src": null,
        "entry": 4495730,
        "entry_name": "New beginning",
        "event_total": 71,
        "has_played": true,
        "id": 34271542,
        "last_rank": 64319,
        "player_name": "ola onagoruwa",
        "rank": 47421,
        "rank_sort": 47466,
        "total": 2354
      },
      {
        "club_badge_src": null,
        "entry": 4659179,
        "entry_name": "elhampoli",
        "event_total": 75,
        "has_played": true,
        "id": 35670374,
        "last_rank": 72145,
        "player_name": "Omar Adel",
        "rank": 47421,
        "rank_sort": 47467,
        "total": 2354
      },
      {
        "club_badge_src": null,
        "entry": 4672204,
        "entry_name": "Borussia Teeth",
        "event_total": 52,
        "has_played": true,
        "id": 35789713,
        "last_rank": 40832,
        "player_name": "Daanyaal Choudhury",
        "rank": 47421,
        "rank_sort": 47468,
        "total": 2354
      },
      {
        "club_badge_src": null,
        "entry": 4755962,
        "entry_name": "Man U",
        "event_total": 54,
        "has_played": true,
        "id": 36598698,
        "last_rank": 38267,
        "player_name": "- ALY MEKAWY",
        "rank": 47421,
        "rank_sort": 47469,
        "total": 2354
      },
      {
        "club_badge_src": "https://fantasy.premierleague.com/gcs/plfpl-production-adobe-approved/plfpl-production/4774163/227b965f-04d7-41d2-b896-18f996ff70ba.png",
        "entry": 4774163,
        "entry_name": "Red Card",
        "event_total": 65,
        "has_played": true,
        "id": 36749043,
        "last_rank": 60933,
        "player_name": "Max Fax",
        "rank": 47421,
        "rank_sort": 47470,
        "total": 2354
      },
      {
        "club_badge_src": null,
        "entry": 5244333,
        "entry_name": "Gangsta's Allardyce",
        "event_total": 50,
        "has_played": true,
        "id": 40643084,
        "last_rank": 38340,
        "player_name": "Ian Snowsill",
        "rank": 47421,
        "rank_sort": 47471,
        "total": 2354
      },
      {
        "club_badge_src": "https://fantasy.premierleague.com/gcs/plfpl-production-adobe-approved/plfpl-production/5256767/658e498f-90d6-4376-b558-4c857e63d1b4.png",
        "entry": 5256767,
        "entry_name": "save europe",
        "event_total": 62,
        "has_played": true,
        "id": 40742065,
        "last_rank": 49207,
        "player_name": "Martin Ro\u017eka",
        "rank": 47421,
        "rank_sort": 47472,
        "total": 2354
      },
      {
        "club_badge_src": null,
        "entry": 5337321,
        "entry_name": "Team Sejr",
        "event_total": 46,
        "has_played": true,
        "id": 41382419,
        "last_rank": 33651,
        "player_name": "S\u00f8ren Kraglund",
        "rank": 47421,
        "rank_sort": 47473,
        "total": 2354
      },
      {
        "club_badge_src": null,
        "entry": 5404846,
        "entry_name": "lefoot",
        "event_total": 78,
        "has_played": true,
        "id": 42026743,
        "last_rank": 54667,
        "player_name": "Ussama Mus",
        "rank": 47421,
        "rank_sort": 47474,
        "total": 2354
      },
      {
        "club_badge_src": null,
        "entry": 5548990,
        "entry_name": "Red Devils \u2b50\u2b50",
        "event_total": 56,
        "has_played": true,
        "id": 43306296,
        "last_rank": 46313,
        "player_name": "Jf Lee",
        "rank": 47421,
        "rank_sort": 47475,
        "total": 2354
      },
      {
        "club_badge_src": "https://fantasy.premierleague.com/gcs/plfpl-production-adobe-approved/plfpl-production/5650064/4c52314b-e1a2-4c3d-a43b-6a4e20beb3f9.png",
        "entry": 5650064,
        "entry_name": "Box Scranners United",
        "event_total": 57,
        "has_played": true,
        "id": 44197916,
        "last_rank": 47868,
        "player_name": "Louis Archer",
        "rank": 47421,
        "rank_sort": 47476,
        "total": 2354
      },
      {
        "club_badge_src": null,
        "entry": 5696661,
        "entry_name": "RS07",
        "event_total": 55,
        "has_played": true,
        "id": 44599526,
        "last_rank": 44882,
        "player_name": "Rishi Shamlal",
        "rank": 47421,
        "rank_sort": 47477,
        "total": 2354
      },
      {
        "club_badge_src": null,
        "entry": 6185754,
        "entry_name": "\u0424\u041a \u0422\u0438\u043d\u0430 \u0422\u0438\u043d\u0430\u0440\u0430",
        "event_total": 56,
        "has_played": true,
        "id": 48921875,
        "last_rank": 31125,
        "player_name": "Bojan Cikic",
        "rank": 47421,
        "rank_sort": 47478,
        "total": 2354
      },
      {
        "club_badge_src": "https://fantasy.premierleague.com/gcs/plfpl-production-adobe-approved/plfpl-production/6305128/2c922b84-8e88-4564-af49-27a5545f2173.png",
        "entry": 6305128,
        "entry_name": "Radyculous",
        "event_total": 63,
        "has_played": true,
        "id": 50002106,
        "last_rank": 50772,
        "player_name": "Rady Miz",
        "rank": 47421,
        "rank_sort": 47479,
        "total": 2354
      },
      {
        "club_badge_src": null,
        "entry": 6307599,
        "entry_name": "Alan she/her",
        "event_total": 70,
        "has_played": true,
        "id": 50030585,
        "last_rank": 62617,
        "player_name": "Eoin Gorrell",
        "rank": 47421,
        "rank_sort": 47480,
        "total": 2354
      },
      {
        "club_badge_src": null,
        "entry": 6994604,
        "entry_name": "Hamma FC",
        "event_total": 37,
        "has_played": true,
        "id": 56152675,
        "last_rank": 24636,
        "player_name": "Iqbal Triputra",
        "rank": 47421,
        "rank_sort": 47481,
        "total": 2354
      },
      {
        "club_badge_src": "https://fantasy.premierleague.com/gcs/plfpl-production-adobe-approved/plfpl-production/7191033/735167b1-0139-487c-91ce-8be34ee6de7a.png",
        "entry": 7191033,
        "entry_name": "Casual Stingrayz",
        "event_total": 68,
        "has_played": true,
        "id": 58049418,
        "last_rank": 66200,
        "player_name": "Micky Lopez",
        "rank": 47421,
        "rank_sort": 47482,
        "total": 2354
      },
      {
        "club_badge_src": "https://fantasy.premierleague.com/gcs/plfpl-production-adobe-approved/plfpl-production/7687052/3776d235-a5b1-4d88-8d8b-4232bd5d9ac6.png",
        "entry": 7687052,
        "entry_name": "Rodri Jr.",
        "event_total": 51,
        "has_played": true,
        "id": 63054859,
        "last_rank": 39585,
        "player_name": "kareem shaker",
        "rank": 47421,
        "rank_sort": 47483,
        "total": 2354
      },
      {
        "club_badge_src": null,
        "entry": 8288259,
        "entry_name": "Salahbration FC",
        "event_total": 54,
        "has_played": true,
        "id": 68587455,
        "last_rank": 43512,
        "player_name": "Albin Jakobsson",
        "rank": 47421,
        "rank_sort": 47484,
        "total": 2354
      },
      {
        "club_badge_src": null,
        "entry": 8911810,
        "entry_name": "Luckypool",
        "event_total": 62,
        "has_played": true,
        "id": 74624291,
        "last_rank": 49207,
        "player_name": "ahmed arrozi",
        "rank": 47421,
        "rank_sort": 47485,
        "total": 2354
      },
      {
        "club_badge_src": null,
        "entry": 9430989,
        "entry_name": "FootballsComingHome",
        "event_total": 72,
        "has_played": true,
        "id": 79669568,
        "last_rank": 73975,
        "player_name": "Mike Richardson",
        "rank": 47421,
        "rank_sort": 47486,
        "total": 2354
      },
      {
        "club_badge_src": null,
        "entry": 5211,
        "entry_name": "Red Scorpions",
        "event_total": 64,
        "has_played": true,
        "id": 29698,
        "last_rank": 52357,
        "player_name": "Sam Ataei",
        "rank": 47487,
        "rank_sort": 47487,
        "total": 2354
      },
      {
        "club_badge_src": null,
        "entry": 17123,
        "entry_name": "Le Bris knees",
        "event_total": 78,
        "has_played": true,
        "id": 106107,
        "last_rank": 78440,
        "player_name": "James Proctor",
        "rank": 47487,
        "rank_sort": 47488,
        "total": 2354
      },
      {
        "club_badge_src": null,
        "entry": 21760,
        "entry_name": "Eze Man\u00e9",
        "event_total": 45,
        "has_played": true,
        "id": 136484,
        "last_rank": 28388,
        "player_name": "Sar N",
        "rank": 47487,
        "rank_sort": 47489,
        "total": 2354
      },
      {
        "club_badge_src": null,
        "entry": 27967,
        "entry_name": "Los Puyol Hermanos",
        "event_total": 51,
        "has_played": true,
        "id": 176864,
        "last_rank": 34749,
        "player_name": "David Benbow",
        "rank": 47487,
        "rank_sort": 47490,
        "total": 2354
      },
      {
        "club_badge_src": null,
        "entry": 35208,
        "entry_name": "McfcOK",
        "event_total": 51,
        "has_played": true,
        "id": 225232,
        "last_rank": 39650,
        "player_name": "Atul Bikram Thapa",
        "rank": 47487,
        "rank_sort": 47491,
        "total": 2354
      },
      {
        "club_badge_src": null,
        "entry": 53676,
        "entry_name": "GALACTICOS",
        "event_total": 60,
        "has_played": true,
        "id": 345374,
        "last_rank": 46313,
        "player_name": "Ahmed Kamal",
        "rank": 47487,
        "rank_sort": 47492,
        "total": 2354
      },
      {
        "club_badge_src": "https://fantasy.premierleague.com/gcs/plfpl-production-adobe-approved/plfpl-production/55635/f8cddae8-9cd8-4484-a80e-445f73e07611.png",
        "entry": 55635,
        "entry_name": "*Ice Presso*",
        "event_total": 69,
        "has_played": true,
        "id": 358218,
        "last_rank": 68294,
        "player_name": "Tran Quan",
        "rank": 47487,
        "rank_sort": 47493,
        "total": 2354
      },
      {
        "club_badge_src": null,
        "entry": 74769,
        "entry_name": "Beast Mode",
        "event_total": 54,
        "has_played": true,
        "id": 486024,
        "last_rank": 43570,
        "player_name": "Robert Purse",
        "rank": 47487,
        "rank_sort": 47494,
        "total": 2354
      },
      {
        "club_badge_src": null,
        "entry": 136051,
        "entry_name": "Nutmeg Ninjas",
        "event_total": 59,
        "has_played": true,
        "id": 886122,
        "last_rank": 44882,
        "player_name": "Spencer Traver",
        "rank": 47487,
        "rank_sort": 47495,
        "total": 2354
      },
      {
        "club_badge_src": null,
        "entry": 146142,
        "entry_name": "Ajax Trees Down",
        "event_total": 45,
        "has_played": true,
        "id": 957303,
        "last_rank": 28388,
        "player_name": "Ian Lillford",
        "rank": 47487,
        "rank_sort": 47496,
        "total": 2354
      },
      {
        "club_badge_src": null,
        "entry": 164505,
        "entry_name": "Oszo\u0142oMY",
        "event_total": 51,
        "has_played": true,
        "id": 1085648,
        "last_rank": 39673,
        "player_name": "Szymon Pa\u0142ka",
        "rank": 47487,
        "rank_sort": 47497,
        "total": 2354
      },
      {
        "club_badge_src": "https://fantasy.premierleague.com/gcs/plfpl-production-adobe-approved/plfpl-production/187854/ee9a8768-4d9c-44a9-8ede-5f905894696d.png",
        "entry": 187854,
        "entry_name": "Sesko Clubcard",
        "event_total": 62,
        "has_played": true,
        "id": 1242410,
        "last_rank": 49301,
        "player_name": "Ollie Parkin",
        "rank": 47487,
        "rank_sort": 47498,
        "total": 2354
      },
      {
        "club_badge_src": "https://fantasy.premierleague.com/gcs/plfpl-production-adobe-approved/plfpl-production/219874/5c9d9d61-88b6-4006-a1ff-5506e0024cf7.png",
        "entry": 219874,
        "entry_name": "Stolen Rabbits",
        "event_total": 57,
        "has_played": true,
        "id": 1462308,
        "last_rank": 47868,
        "player_name": "Miguel Coelho",
        "rank": 47487,
        "rank_sort": 47499,
        "total": 2354
      },
      {
        "club_badge_src": null,
        "entry": 228263,
        "entry_name": "Decent Kompany",
        "event_total": 53,
        "has_played": true,
        "id": 1518430,
        "last_rank": 42152,
        "player_name": "Munya Mashaya",
        "rank": 47487,
        "rank_sort": 47500,
        "total": 2354
      }
    ]
  }
}