{
  "last_updated_data": "2026-05-24T23:28:17Z",
  "league": {
    "admin_entry": null,
    "closed": false,
    "code_privacy": "p",
    "created": "2025-07-20T23:14:33.933835Z",
    "cup_league": 2815434,
    "has_cup": true,
    "id": 314,
    "league_type": "s",
    "max_entries": null,
    "name": "Overall",
    "rank": null,
    "scoring": "c",
    "start_event": 1
  },
  "new_entries": {
    "has_next": false,
    "page": 1,
    "results": []
  },
  "standings": {
    "has_next": true,
    "page": 756,
    "results": [
      {
        "club_badge_src": null,
        "entry": 976574,
        "entry_name": "Yanited",
        "event_total": 67,
        "has_played": true,
        "id": 6732430,
        "last_rank": 51720,
        "player_name": "James Bowman",
        "rank": 37683,
        "rank_sort": 37751,
        "total": 2361
      },
      {
        "club_badge_src": null,
        "entry": 989458,
        "entry_name": "Sesko Value",
        "event_total": 49,
        "has_played": true,
        "id": 6822497,
        "last_rank": 28906,
        "player_name": "Ildar Kelly",
        "rank": 37683,
        "rank_sort": 37752,
        "total": 2361
      },
      {
        "club_badge_src": "https://fantasy.premierleague.com/gcs/plfpl-production-adobe-approved/plfpl-production/1001870/2f64c879-15b0-4a54-9e66-df76e40488fc.png",
        "entry": 1001870,
        "entry_name": "Bijol and End All",
        "event_total": 45,
        "has_played": true,
        "id": 6925563,
        "last_rank": 25172,
        "player_name": "Alex Howieson",
        "rank": 37683,
        "rank_sort": 37753,
        "total": 2361
      },
      {
        "club_badge_src": null,
        "entry": 1012137,
        "entry_name": "Abdura",
        "event_total": 69,
        "has_played": true,
        "id": 7001692,
        "last_rank": 48197,
        "player_name": "Abdulrahman Omar",
        "rank": 37683,
        "rank_sort": 37754,
        "total": 2361
      },
      {
        "club_badge_src": null,
        "entry": 1050289,
        "entry_name": "PaHBoN 2025",
        "event_total": 76,
        "has_played": true,
        "id": 7268612,
        "last_rank": 67695,
        "player_name": "PaHBoN Chai",
        "rank": 37683,
        "rank_sort": 37755,
        "total": 2361
      },
      {
        "club_badge_src": null,
        "entry": 1075085,
        "entry_name": "karam",
        "event_total": 59,
        "has_played": true,
        "id": 7442863,
        "last_rank": 40036,
        "player_name": "Karam Al Mouhamad Alhassan",
        "rank": 37683,
        "rank_sort": 37756,
        "total": 2361
      },
      {
        "club_badge_src": "https://fantasy.premierleague.com/gcs/plfpl-production-adobe-approved/plfpl-production/1096399/9dbdad75-6718-452d-b15c-f5eb5352397a.png",
        "entry": 1096399,
        "entry_name": "Metties Mandates",
        "event_total": 56,
        "has_played": true,
        "id": 7594086,
        "last_rank": 36624,
        "player_name": "Chris MR",
        "rank": 37683,
        "rank_sort": 37757,
        "total": 2361
      },
      {
        "club_badge_src": null,
        "entry": 1159595,
        "entry_name": "Lil Uzi Wirtz",
        "event_total": 54,
        "has_played": true,
        "id": 8043484,
        "last_rank": 34051,
        "player_name": "Jordan Pavey",
        "rank": 37683,
        "rank_sort": 37758,
        "total": 2361
      },
      {
        "club_badge_src": "https://fantasy.premierleague.com/gcs/plfpl-production-adobe-approved/plfpl-production/1207149/092cfe82-753a-4aa3-ae30-0de2e69be6d0.png",
        "entry": 1207149,
        "entry_name": "The Foodbowl Earls",
        "event_total": 62,
        "has_played": true,
        "id": 8377498,
        "last_rank": 38774,
        "player_name": "George Marinov",
        "rank": 37683,
        "rank_sort": 37759,
        "total": 2361
      },
      {
        "club_badge_src": null,
        "entry": 1265023,
        "entry_name": "JD's XI",
        "event_total": 55,
        "has_played": true,
        "id": 8789443,
        "last_rank": 30727,
        "player_name": "Jordan Dwyer",
        "rank": 37683,
        "rank_sort": 37760,
        "total": 2361
      },
      {
        "club_badge_src": null,
        "entry": 1331030,
        "entry_name": "Rutter Woke Nonsense",
        "event_total": 52,
        "has_played": true,
        "id": 9251708,
        "last_rank": 31995,
        "player_name": "Karl Shipley",
        "rank": 37683,
        "rank_sort": 37761,
        "total": 2361
      },
      {
        "club_badge_src": null,
        "entry": 1351565,
        "entry_name": "5CHHOYY",
        "event_total": 63,
        "has_played": true,
        "id": 9395886,
        "last_rank": 45714,
        "player_name": "A Ng",
        "rank": 37683,
        "rank_sort": 37762,
        "total": 2361
      },
      {
        "club_badge_src": null,
        "entry": 1371474,
        "entry_name": "Fc Frost",
        "event_total": 41,
        "has_played": true,
        "id": 9533609,
        "last_rank": 21949,
        "player_name": "Yeshurun Melese",
        "rank": 37683,
        "rank_sort": 37763,
        "total": 2361
      },
      {
        "club_badge_src": null,
        "entry": 1384644,
        "entry_name": "We\u2019ll Have A Lookman",
        "event_total": 54,
        "has_played": true,
        "id": 9630409,
        "last_rank": 34293,
        "player_name": "James Lloyd",
        "rank": 37683,
        "rank_sort": 37764,
        "total": 2361
      },
      {
        "club_badge_src": null,
        "entry": 1407196,
        "entry_name": "Xhaka Laka",
        "event_total": 64,
        "has_played": true,
        "id": 9791312,
        "last_rank": 46839,
        "player_name": "Leo Korneck",
        "rank": 37683,
        "rank_sort": 37765,
        "total": 2361
      },
      {
        "club_badge_src": null,
        "entry": 1409887,
        "entry_name": "David Raya's Beard",
        "event_total": 65,
        "has_played": true,
        "id": 9810356,
        "last_rank": 48363,
        "player_name": "Billy Horwood",
        "rank": 37683,
        "rank_sort": 37766,
        "total": 2361
      },
      {
        "club_badge_src": null,
        "entry": 1422426,
        "entry_name": "A1 United",
        "event_total": 53,
        "has_played": true,
        "id": 9904496,
        "last_rank": 33147,
        "player_name": "Jia Yong Tan",
        "rank": 37683,
        "rank_sort": 37767,
        "total": 2361
      },
      {
        "club_badge_src": null,
        "entry": 1428936,
        "entry_name": "Herewegoagain Fc",
        "event_total": 61,
        "has_played": true,
        "id": 9956802,
        "last_rank": 42940,
        "player_name": "Mike Bulmer",
        "rank": 37683,
        "rank_sort": 37768,
        "total": 2361
      },
      {
        "club_badge_src": null,
        "entry": 1513771,
        "entry_name": "Hubris",
        "event_total": 58,
        "has_played": true,
        "id": 10557947,
        "last_rank": 34051,
        "player_name": "Henrik Sj\u00f6berg",
        "rank": 37683,
        "rank_sort": 37769,
        "total": 2361
      },
      {
        "club_badge_src": null,
        "entry": 1515777,
        "entry_name": "F*C* Cancelo Culture",
        "event_total": 66,
        "has_played": true,
        "id": 10572252,
        "last_rank": 50199,
        "player_name": "Amanjit Bassi",
        "rank": 37683,
        "rank_sort": 37770,
        "total": 2361
      },
      {
        "club_badge_src": null,
        "entry": 1547804,
        "entry_name": "Won it all",
        "event_total": 54,
        "has_played": true,
        "id": 10806201,
        "last_rank": 29688,
        "player_name": "Tony Philip",
        "rank": 37683,
        "rank_sort": 37771,
        "total": 2361
      },
      {
        "club_badge_src": null,
        "entry": 1549402,
        "entry_name": "The AJ Dynasty",
        "event_total": 60,
        "has_played": true,
        "id": 10817736,
        "last_rank": 41824,
        "player_name": "Jimmy the Coach",
        "rank": 37683,
        "rank_sort": 37772,
        "total": 2361
      },
      {
        "club_badge_src": null,
        "entry": 1562437,
        "entry_name": "captain 7alawany",
        "event_total": 51,
        "has_played": true,
        "id": 10913669,
        "last_rank": 30727,
        "player_name": "Ahmed Anwar",
        "rank": 37683,
        "rank_sort": 37773,
        "total": 2361
      },
      {
        "club_badge_src": null,
        "entry": 1606184,
        "entry_name": "BK Slarvhult",
        "event_total": 53,
        "has_played": true,
        "id": 11237590,
        "last_rank": 33147,
        "player_name": "Ivar Johansson",
        "rank": 37683,
        "rank_sort": 37774,
        "total": 2361
      },
      {
        "club_badge_src": null,
        "entry": 1660556,
        "entry_name": "Team Kambasius",
        "event_total": 62,
        "has_played": true,
        "id": 11625974,
        "last_rank": 43849,
        "player_name": "Hugo Tobiasson",
        "rank": 37683,
        "rank_sort": 37775,
        "total": 2361
      },
      {
        "club_badge_src": null,
        "entry": 1669290,
        "entry_name": "Tiki Daka",
        "event_total": 78,
        "has_played": true,
        "id": 11687423,
        "last_rank": 63390,
        "player_name": "James Court",
        "rank": 37683,
        "rank_sort": 37776,
        "total": 2361
      },
      {
        "club_badge_src": null,
        "entry": 1671684,
        "entry_name": "fpldecisionmodel",
        "event_total": 64,
        "has_played": true,
        "id": 11703935,
        "last_rank": 47163,
        "player_name": "A Rad",
        "rank": 37683,
        "rank_sort": 37777,
        "total": 2361
      },
      {
        "club_badge_src": null,
        "entry": 1697329,
        "entry_name": "Manchester Brighty",
        "event_total": 41,
        "has_played": true,
        "id": 11888475,
        "last_rank": 18691,
        "player_name": "Kongpob Suputtipong",
        "rank": 37683,
        "rank_sort": 37778,
        "total": 2361
      },
      {
        "club_badge_src": null,
        "entry": 1724020,
        "entry_name": "Simply Shambolic",
        "event_total": 86,
        "has_played": true,
        "id": 12089248,
        "last_rank": 89055,
        "player_name": "Anthony Cope",
        "rank": 37683,
        "rank_sort": 37779,
        "total": 2361
      },
      {
        "club_badge_src": null,
        "entry": 1812010,
        "entry_name": "\u0627\u0628\u0646 \u0641\u0644\u0633\u0637\u064a\u0646 {PLE  FC}",
        "event_total": 63,
        "has_played": true,
        "id": 12740972,
        "last_rank": 45714,
        "player_name": "\u0623\u0628\u0646 \u0641\u0644\u0633\u0637\u064a\u0646",
        "rank": 37683,
        "rank_sort": 37780,
        "total": 2361
      },
      {
        "club_badge_src": null,
        "entry": 1865201,
        "entry_name": "Carpe Diem",
        "event_total": 77,
        "has_played": true,
        "id": 13128638,
        "last_rank": 61606,
        "player_name": "Masrur Sabir Nafee",
        "rank": 37683,
        "rank_sort": 37781,
        "total": 2361
      },
      {
        "club_badge_src": null,
        "entry": 1891820,
        "entry_name": "OX18",
        "event_total": 49,
        "has_played": true,
        "id": 13333728,
        "last_rank": 28906,
        "player_name": "Barney Robinson",
        "rank": 37683,
        "rank_sort": 37782,
        "total": 2361
      },
      {
        "club_badge_src": "https://fantasy.premierleague.com/gcs/plfpl-production-adobe-approved/plfpl-production/1892583/5514bae0-4921-41ef-9580-b43a43ff9b60.png",
        "entry": 1892583,
        "entry_name": "YouKnightEd",
        "event_total": 62,
        "has_played": true,
        "id": 13339112,
        "last_rank": 44303,
        "player_name": "Ed Knight",
        "rank": 37683,
        "rank_sort": 37783,
        "total": 2361
      },
      {
        "club_badge_src": null,
        "entry": 1989525,
        "entry_name": "Mido elarapy",
        "event_total": 55,
        "has_played": true,
        "id": 14055579,
        "last_rank": 35424,
        "player_name": "Mido Elaraby",
        "rank": 37683,
        "rank_sort": 37784,
        "total": 2361
      },
      {
        "club_badge_src": "https://fantasy.premierleague.com/gcs/plfpl-production-adobe-approved/plfpl-production/2007219/f33ba769-041f-49ff-b8c6-b6e71ae0e86a.png",
        "entry": 2007219,
        "entry_name": "Basen W\u0105trobiany FC",
        "event_total": 72,
        "has_played": true,
        "id": 14191773,
        "last_rank": 59813,
        "player_name": "Hubert Sarbi\u0144ski",
        "rank": 37683,
        "rank_sort": 37785,
        "total": 2361
      },
      {
        "club_badge_src": null,
        "entry": 2021113,
        "entry_name": "Under my Cucurella",
        "event_total": 69,
        "has_played": true,
        "id": 14301570,
        "last_rank": 55014,
        "player_name": "Barry Hannon",
        "rank": 37683,
        "rank_sort": 37786,
        "total": 2361
      },
      {
        "club_badge_src": null,
        "entry": 2035935,
        "entry_name": "Oaddo",
        "event_total": 63,
        "has_played": true,
        "id": 14415411,
        "last_rank": 45714,
        "player_name": "Krairoek Nadtha",
        "rank": 37683,
        "rank_sort": 37787,
        "total": 2361
      },
      {
        "club_badge_src": null,
        "entry": 2115607,
        "entry_name": "S\u00e4len United",
        "event_total": 52,
        "has_played": true,
        "id": 15023025,
        "last_rank": 27770,
        "player_name": "Kim Selberg",
        "rank": 37683,
        "rank_sort": 37788,
        "total": 2361
      },
      {
        "club_badge_src": null,
        "entry": 2148135,
        "entry_name": "Mohammed Al Slman",
        "event_total": 69,
        "has_played": true,
        "id": 15268667,
        "last_rank": 55014,
        "player_name": "\u0645\u062d\u0645\u062f \u0639\u0644\u064a",
        "rank": 37683,
        "rank_sort": 37789,
        "total": 2361
      },
      {
        "club_badge_src": null,
        "entry": 2151386,
        "entry_name": "Fpl Adem",
        "event_total": 47,
        "has_played": true,
        "id": 15292113,
        "last_rank": 23341,
        "player_name": "adam skr",
        "rank": 37683,
        "rank_sort": 37790,
        "total": 2361
      },
      {
        "club_badge_src": null,
        "entry": 2176175,
        "entry_name": "haCunha mateta",
        "event_total": 62,
        "has_played": true,
        "id": 15474541,
        "last_rank": 44303,
        "player_name": "Nicklas Mortensen",
        "rank": 37683,
        "rank_sort": 37791,
        "total": 2361
      },
      {
        "club_badge_src": null,
        "entry": 2186864,
        "entry_name": "C OB",
        "event_total": 53,
        "has_played": true,
        "id": 15556996,
        "last_rank": 32879,
        "player_name": "Conor OBrien",
        "rank": 37683,
        "rank_sort": 37792,
        "total": 2361
      },
      {
        "club_badge_src": null,
        "entry": 2201736,
        "entry_name": "Lord of the Blanks",
        "event_total": 48,
        "has_played": true,
        "id": 15668699,
        "last_rank": 27976,
        "player_name": "James Pearson",
        "rank": 37683,
        "rank_sort": 37793,
        "total": 2361
      },
      {
        "club_badge_src": null,
        "entry": 2253666,
        "entry_name": "Bald Eagle",
        "event_total": 60,
        "has_played": true,
        "id": 16064400,
        "last_rank": 41324,
        "player_name": "Pat Burns",
        "rank": 37683,
        "rank_sort": 37794,
        "total": 2361
      },
      {
        "club_badge_src": null,
        "entry": 2275635,
        "entry_name": "One Season Wonder",
        "event_total": 60,
        "has_played": true,
        "id": 16227067,
        "last_rank": 41617,
        "player_name": "Banmanlang Warr Lyndem",
        "rank": 37683,
        "rank_sort": 37795,
        "total": 2361
      },
      {
        "club_badge_src": null,
        "entry": 2386604,
        "entry_name": "Moises Kai Cenat",
        "event_total": 60,
        "has_played": true,
        "id": 17046446,
        "last_rank": 41162,
        "player_name": "Muhammad Radya Mahaswara",
        "rank": 37683,
        "rank_sort": 37796,
        "total": 2361
      },
      {
        "club_badge_src": null,
        "entry": 2589087,
        "entry_name": "Kinder Mbeumo",
        "event_total": 61,
        "has_played": true,
        "id": 18587659,
        "last_rank": 42940,
        "player_name": "Joe Irving",
        "rank": 37683,
        "rank_sort": 37797,
        "total": 2361
      },
      {
        "club_badge_src": null,
        "entry": 2611416,
        "entry_name": "Pastel de Saudade",
        "event_total": 59,
        "has_played": true,
        "id": 18761924,
        "last_rank": 40036,
        "player_name": "Jack Hoi",
        "rank": 37683,
        "rank_sort": 37798,
        "total": 2361
      },
      {
        "club_badge_src": null,
        "entry": 2613144,
        "entry_name": "Chelsea Warsaw",
        "event_total": 59,
        "has_played": true,
        "id": 18775198,
        "last_rank": 40297,
        "player_name": "Kuba Nahorny",
        "rank": 37683,
        "rank_sort": 37799,
        "total": 2361
      },
      {
        "club_badge_src": null,
        "entry": 2710619,
        "entry_name": "FPLGBTQ",
        "event_total": 58,
        "has_played": true,
        "id": 19502389,
        "last_rank": 39246,
        "player_name": "Hamza Deheina",
        "rank": 37683,
        "rank_sort": 37800,
        "total": 2361
      }
    ]
  }
}