{
  "last_updated_data": "2026-05-24T23:28:17Z",
  "league": {
    "admin_entry": null,
    "closed": false,
    "code_privacy": "p",
    "created": "2025-07-20T23:14:33.933835Z",
    "cup_league": 2815434,
    "has_cup": true,
    "id": 314,
    "league_type": "s",
    "max_entries": null,
    "name": "Overall",
    "rank": null,
    "scoring": "c",
    "start_event": 1
  },
  "new_entries": {
    "has_next": false,
    "page": 1,
    "results": []
  },
  "standings": {
    "has_next": true,
    "page": 1083,
    "results": [
      {
        "club_badge_src": null,
        "entry": 923132,
        "entry_name": "Seaciders",
        "event_total": 52,
        "has_played": true,
        "id": 6349251,
        "last_rank": 46839,
        "player_name": "Tom Mylroie",
        "rank": 54011,
        "rank_sort": 54101,
        "total": 2349
      },
      {
        "club_badge_src": "https://fantasy.premierleague.com/gcs/plfpl-production-adobe-approved/plfpl-production/947607/da5ed182-4aa8-46df-b587-2d8e05e8de8a.png",
        "entry": 947607,
        "entry_name": "Chippy Chips FC",
        "event_total": 59,
        "has_played": true,
        "id": 6527224,
        "last_rank": 58071,
        "player_name": "J Dargo",
        "rank": 54011,
        "rank_sort": 54102,
        "total": 2349
      },
      {
        "club_badge_src": null,
        "entry": 956169,
        "entry_name": "It's Just a Game",
        "event_total": 57,
        "has_played": true,
        "id": 6588216,
        "last_rank": 54667,
        "player_name": "Ian Jones",
        "rank": 54011,
        "rank_sort": 54103,
        "total": 2349
      },
      {
        "club_badge_src": null,
        "entry": 983950,
        "entry_name": "FC DANI",
        "event_total": 52,
        "has_played": true,
        "id": 6783928,
        "last_rank": 46660,
        "player_name": "Udani Pettersson",
        "rank": 54011,
        "rank_sort": 54104,
        "total": 2349
      },
      {
        "club_badge_src": null,
        "entry": 986667,
        "entry_name": "ille intactum",
        "event_total": 65,
        "has_played": true,
        "id": 6803021,
        "last_rank": 68957,
        "player_name": "Jason Fowler",
        "rank": 54011,
        "rank_sort": 54105,
        "total": 2349
      },
      {
        "club_badge_src": "https://fantasy.premierleague.com/gcs/plfpl-production-adobe-approved/plfpl-production/988533/6f7ea178-ed9c-4218-a858-ba91772b72d1.png",
        "entry": 988533,
        "entry_name": "Los Porros Hermanos",
        "event_total": 48,
        "has_played": true,
        "id": 6816167,
        "last_rank": 41324,
        "player_name": "Victor Kusnitzoff",
        "rank": 54011,
        "rank_sort": 54106,
        "total": 2349
      },
      {
        "club_badge_src": "https://fantasy.premierleague.com/gcs/plfpl-production-adobe-approved/plfpl-production/1004172/a923137a-0785-43f7-8b21-12206b218644.png",
        "entry": 1004172,
        "entry_name": "Cheesy Weazers",
        "event_total": 70,
        "has_played": true,
        "id": 6941547,
        "last_rank": 79431,
        "player_name": "Alex King",
        "rank": 54011,
        "rank_sort": 54107,
        "total": 2349
      },
      {
        "club_badge_src": null,
        "entry": 1024547,
        "entry_name": "Miami Rice",
        "event_total": 52,
        "has_played": true,
        "id": 7088363,
        "last_rank": 46839,
        "player_name": "James Greenhill",
        "rank": 54011,
        "rank_sort": 54108,
        "total": 2349
      },
      {
        "club_badge_src": "https://fantasy.premierleague.com/gcs/plfpl-production-adobe-approved/plfpl-production/1033526/135e5029-9c98-4779-8601-ed510924a5bb.png",
        "entry": 1033526,
        "entry_name": "Luka Dontmiss",
        "event_total": 50,
        "has_played": true,
        "id": 7151525,
        "last_rank": 43786,
        "player_name": "Dom Sgoura",
        "rank": 54011,
        "rank_sort": 54109,
        "total": 2349
      },
      {
        "club_badge_src": null,
        "entry": 1039238,
        "entry_name": "Wirtzual Reality",
        "event_total": 47,
        "has_played": true,
        "id": 7191782,
        "last_rank": 40036,
        "player_name": "Jonathan Famb\u00e4ck",
        "rank": 54011,
        "rank_sort": 54110,
        "total": 2349
      },
      {
        "club_badge_src": null,
        "entry": 1048324,
        "entry_name": "Backstreet boys",
        "event_total": 48,
        "has_played": true,
        "id": 7254994,
        "last_rank": 41324,
        "player_name": "Jack Hourican",
        "rank": 54011,
        "rank_sort": 54111,
        "total": 2349
      },
      {
        "club_badge_src": "https://fantasy.premierleague.com/gcs/plfpl-production-adobe-approved/plfpl-production/1057831/41ac4da5-40b6-435f-92d8-290aa443631f.png",
        "entry": 1057831,
        "entry_name": "Deadly Cherries",
        "event_total": 49,
        "has_played": true,
        "id": 7320803,
        "last_rank": 42648,
        "player_name": "Dave Thomas",
        "rank": 54011,
        "rank_sort": 54112,
        "total": 2349
      },
      {
        "club_badge_src": null,
        "entry": 1078359,
        "entry_name": "Odegaarda Sioch\u00e0na",
        "event_total": 57,
        "has_played": true,
        "id": 7466622,
        "last_rank": 54494,
        "player_name": "Cian Brennan",
        "rank": 54011,
        "rank_sort": 54113,
        "total": 2349
      },
      {
        "club_badge_src": "https://fantasy.premierleague.com/gcs/plfpl-production-adobe-approved/plfpl-production/1165510/11ce3d9f-f938-430e-829d-b0a257c13f70.png",
        "entry": 1165510,
        "entry_name": "Giallo Nero FC \u2122\ufe0f",
        "event_total": 38,
        "has_played": true,
        "id": 8085055,
        "last_rank": 29688,
        "player_name": "Mohamed Amine Belaidi",
        "rank": 54011,
        "rank_sort": 54114,
        "total": 2349
      },
      {
        "club_badge_src": null,
        "entry": 1212888,
        "entry_name": "braginho",
        "event_total": 56,
        "has_played": true,
        "id": 8418766,
        "last_rank": 53345,
        "player_name": "Brage Vassbotten",
        "rank": 54011,
        "rank_sort": 54115,
        "total": 2349
      },
      {
        "club_badge_src": "https://fantasy.premierleague.com/gcs/plfpl-production-adobe-approved/plfpl-production/1218953/86c596bc-e546-4d30-98a0-9f094d4c5a3a.png",
        "entry": 1218953,
        "entry_name": "Ununpentium",
        "event_total": 78,
        "has_played": true,
        "id": 8462333,
        "last_rank": 98011,
        "player_name": "Scott Mungavin",
        "rank": 54011,
        "rank_sort": 54116,
        "total": 2349
      },
      {
        "club_badge_src": null,
        "entry": 1219396,
        "entry_name": "Brandini",
        "event_total": 60,
        "has_played": true,
        "id": 8465896,
        "last_rank": 59813,
        "player_name": "Marcus Brandin-Fimreite",
        "rank": 54011,
        "rank_sort": 54117,
        "total": 2349
      },
      {
        "club_badge_src": null,
        "entry": 1255590,
        "entry_name": "Enter name here",
        "event_total": 45,
        "has_played": true,
        "id": 8720906,
        "last_rank": 37435,
        "player_name": "Martin Tennyson",
        "rank": 54011,
        "rank_sort": 54118,
        "total": 2349
      },
      {
        "club_badge_src": "https://fantasy.premierleague.com/gcs/plfpl-production-adobe-approved/plfpl-production/1275186/b7631152-bb51-4688-9ea0-322bb7ab3aca.png",
        "entry": 1275186,
        "entry_name": "Minteh's Right Boot",
        "event_total": 53,
        "has_played": true,
        "id": 8860768,
        "last_rank": 48363,
        "player_name": "Richard Townsley",
        "rank": 54011,
        "rank_sort": 54119,
        "total": 2349
      },
      {
        "club_badge_src": null,
        "entry": 1277799,
        "entry_name": "Slinky FC",
        "event_total": 53,
        "has_played": true,
        "id": 8879057,
        "last_rank": 42506,
        "player_name": "Liam Slaney",
        "rank": 54011,
        "rank_sort": 54120,
        "total": 2349
      },
      {
        "club_badge_src": null,
        "entry": 1283492,
        "entry_name": "JLFC",
        "event_total": 45,
        "has_played": true,
        "id": 8918654,
        "last_rank": 37435,
        "player_name": "Jerram Lindsay",
        "rank": 54011,
        "rank_sort": 54121,
        "total": 2349
      },
      {
        "club_badge_src": null,
        "entry": 1299209,
        "entry_name": "Childish Firmino",
        "event_total": 59,
        "has_played": true,
        "id": 9029431,
        "last_rank": 58071,
        "player_name": "Ahmad Subhi",
        "rank": 54011,
        "rank_sort": 54122,
        "total": 2349
      },
      {
        "club_badge_src": "https://fantasy.premierleague.com/gcs/plfpl-production-adobe-approved/plfpl-production/1380942/327a61c7-7088-4705-ab4e-c5f544d1baaa.png",
        "entry": 1380942,
        "entry_name": "\u96e8\u540e\u9633\u5149",
        "event_total": 54,
        "has_played": true,
        "id": 9602992,
        "last_rank": 49880,
        "player_name": "Allen Xie",
        "rank": 54011,
        "rank_sort": 54123,
        "total": 2349
      },
      {
        "club_badge_src": null,
        "entry": 1392943,
        "entry_name": "Sam's 11",
        "event_total": 60,
        "has_played": true,
        "id": 9690480,
        "last_rank": 59813,
        "player_name": "Samjhana Pokhrel",
        "rank": 54011,
        "rank_sort": 54124,
        "total": 2349
      },
      {
        "club_badge_src": "https://fantasy.premierleague.com/gcs/plfpl-production-adobe-approved/plfpl-production/1415456/47f56225-62b3-43d8-9097-2a865ffc5bf6.png",
        "entry": 1415456,
        "entry_name": "St. Appleby's Park",
        "event_total": 64,
        "has_played": true,
        "id": 9853181,
        "last_rank": 67063,
        "player_name": "Michael APPLEBY",
        "rank": 54011,
        "rank_sort": 54125,
        "total": 2349
      },
      {
        "club_badge_src": null,
        "entry": 1469402,
        "entry_name": "Wills Got Hopers",
        "event_total": 60,
        "has_played": true,
        "id": 10242170,
        "last_rank": 59813,
        "player_name": "Adam Williams",
        "rank": 54011,
        "rank_sort": 54126,
        "total": 2349
      },
      {
        "club_badge_src": "https://fantasy.premierleague.com/gcs/plfpl-production-adobe-approved/plfpl-production/1514802/8675e58c-7f4c-4a9e-bfc8-7eaa94083ba5.png",
        "entry": 1514802,
        "entry_name": "Escape From Alcaraz",
        "event_total": 70,
        "has_played": true,
        "id": 10565250,
        "last_rank": 79431,
        "player_name": "Calum Millar",
        "rank": 54011,
        "rank_sort": 54127,
        "total": 2349
      },
      {
        "club_badge_src": null,
        "entry": 1556038,
        "entry_name": "HSGG",
        "event_total": 63,
        "has_played": true,
        "id": 10864962,
        "last_rank": 64943,
        "player_name": "Edward koh",
        "rank": 54011,
        "rank_sort": 54128,
        "total": 2349
      },
      {
        "club_badge_src": null,
        "entry": 1579139,
        "entry_name": "\u2744\ufe0f Night king \u2744\ufe0f",
        "event_total": 74,
        "has_played": true,
        "id": 11034583,
        "last_rank": 88594,
        "player_name": "Aymen Nazar",
        "rank": 54011,
        "rank_sort": 54129,
        "total": 2349
      },
      {
        "club_badge_src": null,
        "entry": 1583515,
        "entry_name": "Clever pun FC",
        "event_total": 81,
        "has_played": true,
        "id": 11066867,
        "last_rank": 106259,
        "player_name": "Paul Easterbrook",
        "rank": 54011,
        "rank_sort": 54130,
        "total": 2349
      },
      {
        "club_badge_src": "https://fantasy.premierleague.com/gcs/plfpl-production-adobe-approved/plfpl-production/1601750/80ea37e1-3bc8-412a-96d8-728bfc9d2415.png",
        "entry": 1601750,
        "entry_name": "Potvs Cale",
        "event_total": 63,
        "has_played": true,
        "id": 11205267,
        "last_rank": 64943,
        "player_name": "S\u00e9rgio Pinto",
        "rank": 54011,
        "rank_sort": 54131,
        "total": 2349
      },
      {
        "club_badge_src": null,
        "entry": 1613618,
        "entry_name": "Glukk-Glukkeres",
        "event_total": 60,
        "has_played": true,
        "id": 11290728,
        "last_rank": 59535,
        "player_name": "Robert Rust",
        "rank": 54011,
        "rank_sort": 54132,
        "total": 2349
      },
      {
        "club_badge_src": null,
        "entry": 1615203,
        "entry_name": "Huichi FC",
        "event_total": 70,
        "has_played": true,
        "id": 11301823,
        "last_rank": 79817,
        "player_name": "Luis MV",
        "rank": 54011,
        "rank_sort": 54133,
        "total": 2349
      },
      {
        "club_badge_src": null,
        "entry": 1628573,
        "entry_name": "Gangsters Allardyce",
        "event_total": 56,
        "has_played": true,
        "id": 11399013,
        "last_rank": 53023,
        "player_name": "Harry Ward",
        "rank": 54011,
        "rank_sort": 54134,
        "total": 2349
      },
      {
        "club_badge_src": null,
        "entry": 1646870,
        "entry_name": "Eze Lover",
        "event_total": 70,
        "has_played": true,
        "id": 11528406,
        "last_rank": 79817,
        "player_name": "James Kober",
        "rank": 54011,
        "rank_sort": 54135,
        "total": 2349
      },
      {
        "club_badge_src": null,
        "entry": 1692985,
        "entry_name": "\ufffd \u062e\u0631\u0628\u0632",
        "event_total": 76,
        "has_played": true,
        "id": 11857248,
        "last_rank": 93186,
        "player_name": "Aziz AlSowailem",
        "rank": 54011,
        "rank_sort": 54136,
        "total": 2349
      },
      {
        "club_badge_src": null,
        "entry": 1731871,
        "entry_name": "Bayer neverlosin",
        "event_total": 67,
        "has_played": true,
        "id": 12147629,
        "last_rank": 72702,
        "player_name": "Kevin Clohessy",
        "rank": 54011,
        "rank_sort": 54137,
        "total": 2349
      },
      {
        "club_badge_src": null,
        "entry": 1770293,
        "entry_name": "kirby",
        "event_total": 58,
        "has_played": true,
        "id": 12435885,
        "last_rank": 56369,
        "player_name": "Kirby Myhill",
        "rank": 54011,
        "rank_sort": 54138,
        "total": 2349
      },
      {
        "club_badge_src": "https://fantasy.premierleague.com/gcs/plfpl-production-adobe-approved/plfpl-production/1778926/c0e998c7-288a-48c3-b323-245e99a1213f.png",
        "entry": 1778926,
        "entry_name": "Yurdatapan FC",
        "event_total": 59,
        "has_played": true,
        "id": 12497822,
        "last_rank": 57857,
        "player_name": "Enis Erdem Yurdatapan",
        "rank": 54011,
        "rank_sort": 54139,
        "total": 2349
      },
      {
        "club_badge_src": null,
        "entry": 1786732,
        "entry_name": "REMONDATA XI",
        "event_total": 53,
        "has_played": true,
        "id": 12554151,
        "last_rank": 48642,
        "player_name": "mohammed kalang",
        "rank": 54011,
        "rank_sort": 54140,
        "total": 2349
      },
      {
        "club_badge_src": null,
        "entry": 1837227,
        "entry_name": "Edens hage",
        "event_total": 54,
        "has_played": true,
        "id": 12924959,
        "last_rank": 49691,
        "player_name": "Mohamed araye",
        "rank": 54011,
        "rank_sort": 54141,
        "total": 2349
      },
      {
        "club_badge_src": "https://fantasy.premierleague.com/gcs/plfpl-production-adobe-approved/plfpl-production/1845356/7bc70d41-e00a-4e3a-b83c-f691f3e7fb2e.png",
        "entry": 1845356,
        "entry_name": "CHERRY FC",
        "event_total": 54,
        "has_played": true,
        "id": 12984075,
        "last_rank": 49691,
        "player_name": "CHERNOR NALAH BAH",
        "rank": 54011,
        "rank_sort": 54142,
        "total": 2349
      },
      {
        "club_badge_src": null,
        "entry": 1915324,
        "entry_name": "Ctrl Alt De Bruyne",
        "event_total": 69,
        "has_played": true,
        "id": 13504329,
        "last_rank": 77258,
        "player_name": "Guillaume Sager",
        "rank": 54011,
        "rank_sort": 54143,
        "total": 2349
      },
      {
        "club_badge_src": null,
        "entry": 1929967,
        "entry_name": "Midnight Cravens",
        "event_total": 65,
        "has_played": true,
        "id": 13611698,
        "last_rank": 68957,
        "player_name": "Cosmo Haskard",
        "rank": 54011,
        "rank_sort": 54144,
        "total": 2349
      },
      {
        "club_badge_src": null,
        "entry": 1999968,
        "entry_name": "My sad captains",
        "event_total": 65,
        "has_played": true,
        "id": 14138217,
        "last_rank": 68748,
        "player_name": "Steve Hurst",
        "rank": 54011,
        "rank_sort": 54145,
        "total": 2349
      },
      {
        "club_badge_src": null,
        "entry": 2052191,
        "entry_name": "5000/1",
        "event_total": 49,
        "has_played": true,
        "id": 14536262,
        "last_rank": 42434,
        "player_name": "Alex Tipping",
        "rank": 54011,
        "rank_sort": 54146,
        "total": 2349
      },
      {
        "club_badge_src": null,
        "entry": 2053448,
        "entry_name": "Lyskestrekk IL",
        "event_total": 52,
        "has_played": true,
        "id": 14545753,
        "last_rank": 46839,
        "player_name": "H\u00e5vard Langeland",
        "rank": 54011,
        "rank_sort": 54147,
        "total": 2349
      },
      {
        "club_badge_src": null,
        "entry": 2125662,
        "entry_name": "Corn on the Kobbie",
        "event_total": 55,
        "has_played": true,
        "id": 15103138,
        "last_rank": 51403,
        "player_name": "Jak Frain",
        "rank": 54011,
        "rank_sort": 54148,
        "total": 2349
      },
      {
        "club_badge_src": null,
        "entry": 2143713,
        "entry_name": "Fiorentina Turner",
        "event_total": 38,
        "has_played": true,
        "id": 15236388,
        "last_rank": 29688,
        "player_name": "Liam Turner",
        "rank": 54011,
        "rank_sort": 54149,
        "total": 2349
      },
      {
        "club_badge_src": "https://fantasy.premierleague.com/gcs/plfpl-production-adobe-approved/plfpl-production/2225994/66224fb3-b476-4754-890f-5db30efe04ba.png",
        "entry": 2225994,
        "entry_name": "Ms. Rachel Rovers",
        "event_total": 57,
        "has_played": true,
        "id": 15856051,
        "last_rank": 54667,
        "player_name": "Adam H",
        "rank": 54011,
        "rank_sort": 54150,
        "total": 2349
      }
    ]
  }
}