{
  "last_updated_data": "2026-05-24T23:28:17Z",
  "league": {
    "admin_entry": null,
    "closed": false,
    "code_privacy": "p",
    "created": "2025-07-20T23:14:33.933835Z",
    "cup_league": 2815434,
    "has_cup": true,
    "id": 314,
    "league_type": "s",
    "max_entries": null,
    "name": "Overall",
    "rank": null,
    "scoring": "c",
    "start_event": 1
  },
  "new_entries": {
    "has_next": false,
    "page": 1,
    "results": []
  },
  "standings": {
    "has_next": true,
    "page": 827,
    "results": [
      {
        "club_badge_src": null,
        "entry": 6042698,
        "entry_name": "Bayern Motnich",
        "event_total": 63,
        "has_played": true,
        "id": 47676067,
        "last_rank": 49607,
        "player_name": "Nicholas Peters",
        "rank": 41056,
        "rank_sort": 41301,
        "total": 2358
      },
      {
        "club_badge_src": null,
        "entry": 6046175,
        "entry_name": "Not too Xabi",
        "event_total": 58,
        "has_played": true,
        "id": 47706308,
        "last_rank": 42648,
        "player_name": "Kane Pearce",
        "rank": 41056,
        "rank_sort": 41302,
        "total": 2358
      },
      {
        "club_badge_src": null,
        "entry": 6077242,
        "entry_name": "FC Callum M\u00fcnchen",
        "event_total": 57,
        "has_played": true,
        "id": 47978145,
        "last_rank": 41060,
        "player_name": "Callum Mitchell",
        "rank": 41056,
        "rank_sort": 41303,
        "total": 2358
      },
      {
        "club_badge_src": null,
        "entry": 6114092,
        "entry_name": "Pinky and De Bruyne",
        "event_total": 40,
        "has_played": true,
        "id": 48299058,
        "last_rank": 23522,
        "player_name": "Dan Mclean",
        "rank": 41056,
        "rank_sort": 41304,
        "total": 2358
      },
      {
        "club_badge_src": null,
        "entry": 6118012,
        "entry_name": "Rutter Woke Nonsense",
        "event_total": 63,
        "has_played": true,
        "id": 48332631,
        "last_rank": 49880,
        "player_name": "Lewis Lawson",
        "rank": 41056,
        "rank_sort": 41305,
        "total": 2358
      },
      {
        "club_badge_src": null,
        "entry": 6209820,
        "entry_name": "Potato",
        "event_total": 58,
        "has_played": true,
        "id": 49130022,
        "last_rank": 42648,
        "player_name": "Jakub Namniestnik",
        "rank": 41056,
        "rank_sort": 41306,
        "total": 2358
      },
      {
        "club_badge_src": "https://fantasy.premierleague.com/gcs/plfpl-production-adobe-approved/plfpl-production/6215835/5af64281-a723-437a-a117-622c264306a3.png",
        "entry": 6215835,
        "entry_name": "Yaa ikaa celinaayo",
        "event_total": 52,
        "has_played": true,
        "id": 49180888,
        "last_rank": 35424,
        "player_name": "Ahmed Nyanya",
        "rank": 41056,
        "rank_sort": 41307,
        "total": 2358
      },
      {
        "club_badge_src": "https://fantasy.premierleague.com/gcs/plfpl-production-adobe-approved/plfpl-production/6379414/2762caf1-3d53-447b-bb90-adb70457a2cc.png",
        "entry": 6379414,
        "entry_name": "Norwich Vipers",
        "event_total": 58,
        "has_played": true,
        "id": 50736635,
        "last_rank": 42506,
        "player_name": "Rhys Williams",
        "rank": 41056,
        "rank_sort": 41308,
        "total": 2358
      },
      {
        "club_badge_src": null,
        "entry": 6457962,
        "entry_name": "BOSS FC",
        "event_total": 69,
        "has_played": true,
        "id": 51437829,
        "last_rank": 59632,
        "player_name": "Iheanyichukwu Progress",
        "rank": 41056,
        "rank_sort": 41309,
        "total": 2358
      },
      {
        "club_badge_src": null,
        "entry": 6520920,
        "entry_name": "Harlem Bulldogs",
        "event_total": 82,
        "has_played": true,
        "id": 52008008,
        "last_rank": 85932,
        "player_name": "Oskari Vikman",
        "rank": 41056,
        "rank_sort": 41310,
        "total": 2358
      },
      {
        "club_badge_src": null,
        "entry": 6711643,
        "entry_name": "Ctrl Alt de Ligt",
        "event_total": 53,
        "has_played": true,
        "id": 53711464,
        "last_rank": 36348,
        "player_name": "Tom\u00e1s Furtado",
        "rank": 41056,
        "rank_sort": 41311,
        "total": 2358
      },
      {
        "club_badge_src": null,
        "entry": 6732051,
        "entry_name": "SetAndForget FC",
        "event_total": 62,
        "has_played": true,
        "id": 53884208,
        "last_rank": 48119,
        "player_name": "Kedar Huprikar",
        "rank": 41056,
        "rank_sort": 41312,
        "total": 2358
      },
      {
        "club_badge_src": null,
        "entry": 6778064,
        "entry_name": "Joe Rodon Podcast",
        "event_total": 60,
        "has_played": true,
        "id": 54273889,
        "last_rank": 45252,
        "player_name": "Ralph Morris",
        "rank": 41056,
        "rank_sort": 41313,
        "total": 2358
      },
      {
        "club_badge_src": null,
        "entry": 6945524,
        "entry_name": "sims fc",
        "event_total": 65,
        "has_played": true,
        "id": 55688247,
        "last_rank": 53023,
        "player_name": "Marcus Simmons",
        "rank": 41056,
        "rank_sort": 41314,
        "total": 2358
      },
      {
        "club_badge_src": null,
        "entry": 7016121,
        "entry_name": "Blackheath Ballers",
        "event_total": 59,
        "has_played": true,
        "id": 56351600,
        "last_rank": 44048,
        "player_name": "Jett Ellis-George",
        "rank": 41056,
        "rank_sort": 41315,
        "total": 2358
      },
      {
        "club_badge_src": null,
        "entry": 7027537,
        "entry_name": "Iamtheonewhoknocks",
        "event_total": 66,
        "has_played": true,
        "id": 56464599,
        "last_rank": 54667,
        "player_name": "Julien Friquin",
        "rank": 41056,
        "rank_sort": 41316,
        "total": 2358
      },
      {
        "club_badge_src": null,
        "entry": 7073922,
        "entry_name": "Cunha dig it SAKAAAA",
        "event_total": 50,
        "has_played": true,
        "id": 56926400,
        "last_rank": 32879,
        "player_name": "The Lagfather",
        "rank": 41056,
        "rank_sort": 41317,
        "total": 2358
      },
      {
        "club_badge_src": null,
        "entry": 7077983,
        "entry_name": "Sign of the Times FC",
        "event_total": 32,
        "has_played": true,
        "id": 56965200,
        "last_rank": 17437,
        "player_name": "Emma Ratcliffe",
        "rank": 41056,
        "rank_sort": 41318,
        "total": 2358
      },
      {
        "club_badge_src": null,
        "entry": 7153609,
        "entry_name": "Team Giggs",
        "event_total": 59,
        "has_played": true,
        "id": 57689561,
        "last_rank": 43849,
        "player_name": "Nina Gerhardsen Korbi",
        "rank": 41056,
        "rank_sort": 41319,
        "total": 2358
      },
      {
        "club_badge_src": null,
        "entry": 7169085,
        "entry_name": "WirtzYourProblem",
        "event_total": 53,
        "has_played": true,
        "id": 57844404,
        "last_rank": 36348,
        "player_name": "Shane Concannon",
        "rank": 41056,
        "rank_sort": 41320,
        "total": 2358
      },
      {
        "club_badge_src": null,
        "entry": 7177217,
        "entry_name": "Ydmyke Vinnere",
        "event_total": 69,
        "has_played": true,
        "id": 57919959,
        "last_rank": 59632,
        "player_name": "Brage Morgan \u00d8vre\u00e5s",
        "rank": 41056,
        "rank_sort": 41321,
        "total": 2358
      },
      {
        "club_badge_src": null,
        "entry": 7284095,
        "entry_name": "Aggans",
        "event_total": 56,
        "has_played": true,
        "id": 58927798,
        "last_rank": 40036,
        "player_name": "Andreas Olsson",
        "rank": 41056,
        "rank_sort": 41322,
        "total": 2358
      },
      {
        "club_badge_src": null,
        "entry": 7425030,
        "entry_name": "muttern",
        "event_total": 58,
        "has_played": true,
        "id": 60304621,
        "last_rank": 42648,
        "player_name": "Ann-Mari Martinsen",
        "rank": 41056,
        "rank_sort": 41323,
        "total": 2358
      },
      {
        "club_badge_src": null,
        "entry": 7507836,
        "entry_name": "FantasyFoosball",
        "event_total": 65,
        "has_played": true,
        "id": 61371889,
        "last_rank": 52759,
        "player_name": "Ashley Booth",
        "rank": 41056,
        "rank_sort": 41324,
        "total": 2358
      },
      {
        "club_badge_src": "https://fantasy.premierleague.com/gcs/plfpl-production-adobe-approved/plfpl-production/7759872/2ee4d440-e872-40ec-8d6e-e161ade6aef3.png",
        "entry": 7759872,
        "entry_name": "\ufffdD\u2019s United",
        "event_total": 52,
        "has_played": true,
        "id": 63712202,
        "last_rank": 35166,
        "player_name": "Darren Bayles",
        "rank": 41056,
        "rank_sort": 41325,
        "total": 2358
      },
      {
        "club_badge_src": null,
        "entry": 8106266,
        "entry_name": "Deluxe FC",
        "event_total": 72,
        "has_played": true,
        "id": 66859146,
        "last_rank": 65163,
        "player_name": "Ade Basket",
        "rank": 41056,
        "rank_sort": 41326,
        "total": 2358
      },
      {
        "club_badge_src": null,
        "entry": 8109667,
        "entry_name": "Walkers Winners",
        "event_total": 55,
        "has_played": true,
        "id": 66891016,
        "last_rank": 39023,
        "player_name": "Matthew Walker",
        "rank": 41056,
        "rank_sort": 41327,
        "total": 2358
      },
      {
        "club_badge_src": null,
        "entry": 8168087,
        "entry_name": "ChickenTikkaMoSalah",
        "event_total": 69,
        "has_played": true,
        "id": 67436621,
        "last_rank": 59535,
        "player_name": "Pooja Patel",
        "rank": 41056,
        "rank_sort": 41328,
        "total": 2358
      },
      {
        "club_badge_src": null,
        "entry": 8208379,
        "entry_name": "Lost For Wirtz",
        "event_total": 62,
        "has_played": true,
        "id": 67819975,
        "last_rank": 48363,
        "player_name": "Azhar Sheik Oosman",
        "rank": 41056,
        "rank_sort": 41329,
        "total": 2358
      },
      {
        "club_badge_src": null,
        "entry": 8232770,
        "entry_name": "Sesko evry ltl helps",
        "event_total": 53,
        "has_played": true,
        "id": 68053655,
        "last_rank": 36348,
        "player_name": "Mark Beaumont",
        "rank": 41056,
        "rank_sort": 41330,
        "total": 2358
      },
      {
        "club_badge_src": "https://fantasy.premierleague.com/gcs/plfpl-production-adobe-approved/plfpl-production/8359250/eb166d70-e152-4d97-9f7e-6894d443d53a.png",
        "entry": 8359250,
        "entry_name": "Clean Sheet Cartel",
        "event_total": 59,
        "has_played": true,
        "id": 69290920,
        "last_rank": 44048,
        "player_name": "Matt Aldinho",
        "rank": 41056,
        "rank_sort": 41331,
        "total": 2358
      },
      {
        "club_badge_src": null,
        "entry": 8743398,
        "entry_name": "bayt yaffa Fc",
        "event_total": 61,
        "has_played": true,
        "id": 73000690,
        "last_rank": 46591,
        "player_name": "Mohammad Alkhateeb",
        "rank": 41056,
        "rank_sort": 41332,
        "total": 2358
      },
      {
        "club_badge_src": null,
        "entry": 8840163,
        "entry_name": "Class on Grass",
        "event_total": 54,
        "has_played": true,
        "id": 73931028,
        "last_rank": 37589,
        "player_name": "Matt Ansah",
        "rank": 41056,
        "rank_sort": 41333,
        "total": 2358
      },
      {
        "club_badge_src": null,
        "entry": 9066408,
        "entry_name": "Hassan Mohamed",
        "event_total": 52,
        "has_played": true,
        "id": 76123668,
        "last_rank": 35034,
        "player_name": "Hassan Mohamed",
        "rank": 41056,
        "rank_sort": 41334,
        "total": 2358
      },
      {
        "club_badge_src": null,
        "entry": 9077061,
        "entry_name": "GoalDiggers",
        "event_total": 69,
        "has_played": true,
        "id": 76227235,
        "last_rank": 59813,
        "player_name": "Ratnadip Karmakar",
        "rank": 41056,
        "rank_sort": 41335,
        "total": 2358
      },
      {
        "club_badge_src": "https://fantasy.premierleague.com/gcs/plfpl-production-adobe-approved/plfpl-production/9219559/7b8f18b8-c54a-4898-91b1-9a6ab295d8b3.png",
        "entry": 9219559,
        "entry_name": "Real Vybz Kartel",
        "event_total": 40,
        "has_played": true,
        "id": 77626205,
        "last_rank": 23522,
        "player_name": "Mensah Anderson",
        "rank": 41056,
        "rank_sort": 41336,
        "total": 2358
      },
      {
        "club_badge_src": null,
        "entry": 9348544,
        "entry_name": "Rice Rice Baby",
        "event_total": 53,
        "has_played": true,
        "id": 78873609,
        "last_rank": 36348,
        "player_name": "Sean Brady",
        "rank": 41056,
        "rank_sort": 41337,
        "total": 2358
      },
      {
        "club_badge_src": null,
        "entry": 9468336,
        "entry_name": "AI Legends",
        "event_total": 69,
        "has_played": true,
        "id": 80016766,
        "last_rank": 59632,
        "player_name": "Dan Hickman",
        "rank": 41056,
        "rank_sort": 41338,
        "total": 2358
      },
      {
        "club_badge_src": null,
        "entry": 1978,
        "entry_name": "Los Invincibles",
        "event_total": 72,
        "has_played": true,
        "id": 11028,
        "last_rank": 65163,
        "player_name": "Subham Sushobhit",
        "rank": 41339,
        "rank_sort": 41339,
        "total": 2358
      },
      {
        "club_badge_src": null,
        "entry": 3596,
        "entry_name": "Ben's Ben",
        "event_total": 59,
        "has_played": true,
        "id": 20388,
        "last_rank": 44048,
        "player_name": "Ben Moriarty",
        "rank": 41339,
        "rank_sort": 41340,
        "total": 2358
      },
      {
        "club_badge_src": "https://fantasy.premierleague.com/gcs/plfpl-production-adobe-approved/plfpl-production/3598/ac397123-9341-4142-8de9-fa3eaba43c66.png",
        "entry": 3598,
        "entry_name": "Svart & Vit",
        "event_total": 72,
        "has_played": true,
        "id": 20400,
        "last_rank": 64943,
        "player_name": "Niklas Selander",
        "rank": 41339,
        "rank_sort": 41341,
        "total": 2358
      },
      {
        "club_badge_src": "https://fantasy.premierleague.com/gcs/plfpl-production-adobe-approved/plfpl-production/4447/4f307978-24b8-4f69-891a-efc04c985bd7.png",
        "entry": 4447,
        "entry_name": "Warzy's Chickens",
        "event_total": 51,
        "has_played": true,
        "id": 25286,
        "last_rank": 29688,
        "player_name": "The Grim Reaper",
        "rank": 41339,
        "rank_sort": 41342,
        "total": 2358
      },
      {
        "club_badge_src": null,
        "entry": 4771,
        "entry_name": "DBSK",
        "event_total": 50,
        "has_played": true,
        "id": 27162,
        "last_rank": 33147,
        "player_name": "Mat\u011bj Falta",
        "rank": 41339,
        "rank_sort": 41343,
        "total": 2358
      },
      {
        "club_badge_src": "https://fantasy.premierleague.com/gcs/plfpl-production-adobe-approved/plfpl-production/9736/c1c5c228-2eef-491c-927e-2913bb0f8957.png",
        "entry": 9736,
        "entry_name": "Myles Lewis-Belly",
        "event_total": 52,
        "has_played": true,
        "id": 57330,
        "last_rank": 35034,
        "player_name": "Ryan Salmon",
        "rank": 41339,
        "rank_sort": 41344,
        "total": 2358
      },
      {
        "club_badge_src": "https://fantasy.premierleague.com/gcs/plfpl-production-adobe-approved/plfpl-production/10027/dc440bc5-e2d1-485b-a06d-787aabeab2af.png",
        "entry": 10027,
        "entry_name": "I'm Negan",
        "event_total": 28,
        "has_played": true,
        "id": 59179,
        "last_rank": 15164,
        "player_name": "Yousif Salah",
        "rank": 41339,
        "rank_sort": 41345,
        "total": 2358
      },
      {
        "club_badge_src": null,
        "entry": 10097,
        "entry_name": "Parsalj23",
        "event_total": 66,
        "has_played": true,
        "id": 59611,
        "last_rank": 48363,
        "player_name": "Parsa Ebrahimi",
        "rank": 41339,
        "rank_sort": 41346,
        "total": 2358
      },
      {
        "club_badge_src": "https://fantasy.premierleague.com/gcs/plfpl-production-adobe-approved/plfpl-production/11747/64a4a3be-1871-4e11-bc88-51aa6ec559b9.png",
        "entry": 11747,
        "entry_name": "FC Gryffindor",
        "event_total": 66,
        "has_played": true,
        "id": 69948,
        "last_rank": 48363,
        "player_name": "Ivan Stvori\u0107",
        "rank": 41339,
        "rank_sort": 41347,
        "total": 2358
      },
      {
        "club_badge_src": null,
        "entry": 12415,
        "entry_name": "Gangsta\u2019s Allardyce",
        "event_total": 69,
        "has_played": true,
        "id": 74277,
        "last_rank": 60168,
        "player_name": "Tom Sykes",
        "rank": 41339,
        "rank_sort": 41348,
        "total": 2358
      },
      {
        "club_badge_src": "https://fantasy.premierleague.com/gcs/plfpl-production-adobe-approved/plfpl-production/15733/b8c95953-b240-4e9d-a56e-b4705f8d5af3.png",
        "entry": 15733,
        "entry_name": "Obi-Wan Kenobi Nil",
        "event_total": 62,
        "has_played": true,
        "id": 96807,
        "last_rank": 42648,
        "player_name": "Daniel Francis",
        "rank": 41339,
        "rank_sort": 41349,
        "total": 2358
      },
      {
        "club_badge_src": null,
        "entry": 17851,
        "entry_name": "Barneskirenn",
        "event_total": 58,
        "has_played": true,
        "id": 110863,
        "last_rank": 42940,
        "player_name": "Mikkel Bakke",
        "rank": 41339,
        "rank_sort": 41350,
        "total": 2358
      }
    ]
  }
}