{
  "last_updated_data": "2026-05-24T23:28:17Z",
  "league": {
    "admin_entry": null,
    "closed": false,
    "code_privacy": "p",
    "created": "2025-07-20T23:14:33.933835Z",
    "cup_league": 2815434,
    "has_cup": true,
    "id": 314,
    "league_type": "s",
    "max_entries": null,
    "name": "Overall",
    "rank": null,
    "scoring": "c",
    "start_event": 1
  },
  "new_entries": {
    "has_next": false,
    "page": 1,
    "results": []
  },
  "standings": {
    "has_next": true,
    "page": 170,
    "results": [
      {
        "club_badge_src": null,
        "entry": 2991845,
        "entry_name": "AL SABR FC",
        "event_total": 59,
        "has_played": true,
        "id": 22003757,
        "last_rank": 8718,
        "player_name": "Abdulai Bah",
        "rank": 8438,
        "rank_sort": 8451,
        "total": 2402
      },
      {
        "club_badge_src": null,
        "entry": 3077156,
        "entry_name": "madridy",
        "event_total": 61,
        "has_played": true,
        "id": 22669122,
        "last_rank": 9445,
        "player_name": "Omar Adel",
        "rank": 8438,
        "rank_sort": 8452,
        "total": 2402
      },
      {
        "club_badge_src": null,
        "entry": 3478425,
        "entry_name": "FC Owl City",
        "event_total": 50,
        "has_played": true,
        "id": 25864306,
        "last_rank": 5894,
        "player_name": "Alina Popescu",
        "rank": 8438,
        "rank_sort": 8453,
        "total": 2402
      },
      {
        "club_badge_src": null,
        "entry": 3539831,
        "entry_name": "Stakkvik IL",
        "event_total": 41,
        "has_played": true,
        "id": 26349034,
        "last_rank": 3866,
        "player_name": "Thomas Fjellstad",
        "rank": 8438,
        "rank_sort": 8454,
        "total": 2402
      },
      {
        "club_badge_src": null,
        "entry": 3815601,
        "entry_name": "GATOR",
        "event_total": 66,
        "has_played": true,
        "id": 28533643,
        "last_rank": 11699,
        "player_name": "Shaun Mills",
        "rank": 8438,
        "rank_sort": 8455,
        "total": 2402
      },
      {
        "club_badge_src": null,
        "entry": 4019754,
        "entry_name": "\u0627\u0644\u0641\u064a\u0644\u0633\u0648\u0641",
        "event_total": 73,
        "has_played": true,
        "id": 30295745,
        "last_rank": 15396,
        "player_name": "Abdalla Elbroof",
        "rank": 8438,
        "rank_sort": 8456,
        "total": 2402
      },
      {
        "club_badge_src": null,
        "entry": 4112863,
        "entry_name": "Reece Lightning",
        "event_total": 59,
        "has_played": true,
        "id": 31061902,
        "last_rank": 8758,
        "player_name": "Craig Skelly",
        "rank": 8438,
        "rank_sort": 8457,
        "total": 2402
      },
      {
        "club_badge_src": null,
        "entry": 4298152,
        "entry_name": "WirtzNeekIsDo",
        "event_total": 41,
        "has_played": true,
        "id": 32607476,
        "last_rank": 3902,
        "player_name": "Gerda Aasland Vattoy Riise",
        "rank": 8438,
        "rank_sort": 8458,
        "total": 2402
      },
      {
        "club_badge_src": null,
        "entry": 4427527,
        "entry_name": "The Entertainers",
        "event_total": 48,
        "has_played": true,
        "id": 33700900,
        "last_rank": 5400,
        "player_name": "Sandip Desai",
        "rank": 8438,
        "rank_sort": 8459,
        "total": 2402
      },
      {
        "club_badge_src": null,
        "entry": 4604081,
        "entry_name": "kudus where it's due",
        "event_total": 45,
        "has_played": true,
        "id": 35174216,
        "last_rank": 4742,
        "player_name": "Simeon Lapworth",
        "rank": 8438,
        "rank_sort": 8460,
        "total": 2402
      },
      {
        "club_badge_src": null,
        "entry": 4671667,
        "entry_name": "Villaunrreal",
        "event_total": 51,
        "has_played": true,
        "id": 35785281,
        "last_rank": 6154,
        "player_name": "Neil Smith",
        "rank": 8438,
        "rank_sort": 8461,
        "total": 2402
      },
      {
        "club_badge_src": null,
        "entry": 5301669,
        "entry_name": "TheFootballsLeftHim",
        "event_total": 69,
        "has_played": true,
        "id": 41096095,
        "last_rank": 13132,
        "player_name": "Tom Burns",
        "rank": 8438,
        "rank_sort": 8462,
        "total": 2402
      },
      {
        "club_badge_src": null,
        "entry": 5332734,
        "entry_name": "Ekitike Tac Toe",
        "event_total": 66,
        "has_played": true,
        "id": 41342453,
        "last_rank": 11608,
        "player_name": "Michael McHugh",
        "rank": 8438,
        "rank_sort": 8463,
        "total": 2402
      },
      {
        "club_badge_src": "https://fantasy.premierleague.com/gcs/plfpl-production-adobe-approved/plfpl-production/5354276/4252b49f-e62b-47ba-bbfd-a860e24cc8a1.png",
        "entry": 5354276,
        "entry_name": "Loserpool",
        "event_total": 56,
        "has_played": true,
        "id": 41571563,
        "last_rank": 7625,
        "player_name": "Isac Larsson",
        "rank": 8438,
        "rank_sort": 8464,
        "total": 2402
      },
      {
        "club_badge_src": "https://fantasy.premierleague.com/gcs/plfpl-production-adobe-approved/plfpl-production/5502470/2cdd90d2-8e4e-4f15-b63a-83c932bbab76.png",
        "entry": 5502470,
        "entry_name": "Hidden Rain",
        "event_total": 44,
        "has_played": true,
        "id": 42875969,
        "last_rank": 4488,
        "player_name": "Mada Amigo",
        "rank": 8438,
        "rank_sort": 8465,
        "total": 2402
      },
      {
        "club_badge_src": null,
        "entry": 6390767,
        "entry_name": "Botpark FC",
        "event_total": 70,
        "has_played": true,
        "id": 50836300,
        "last_rank": 13821,
        "player_name": "Ethan Karpuk",
        "rank": 8438,
        "rank_sort": 8466,
        "total": 2402
      },
      {
        "club_badge_src": null,
        "entry": 6744053,
        "entry_name": "JedynyUczciwy",
        "event_total": 69,
        "has_played": true,
        "id": 53986632,
        "last_rank": 13153,
        "player_name": "Kocik Kocik",
        "rank": 8438,
        "rank_sort": 8467,
        "total": 2402
      },
      {
        "club_badge_src": null,
        "entry": 7079110,
        "entry_name": "Fear The Wirtz",
        "event_total": 52,
        "has_played": true,
        "id": 56977099,
        "last_rank": 6392,
        "player_name": "George Sellers",
        "rank": 8438,
        "rank_sort": 8468,
        "total": 2402
      },
      {
        "club_badge_src": null,
        "entry": 7723292,
        "entry_name": "elle",
        "event_total": 52,
        "has_played": true,
        "id": 63380571,
        "last_rank": 6448,
        "player_name": "elle williamson",
        "rank": 8438,
        "rank_sort": 8469,
        "total": 2402
      },
      {
        "club_badge_src": null,
        "entry": 7998669,
        "entry_name": "basanta's bhai",
        "event_total": 48,
        "has_played": true,
        "id": 65871099,
        "last_rank": 5448,
        "player_name": "Saugat Karki",
        "rank": 8438,
        "rank_sort": 8470,
        "total": 2402
      },
      {
        "club_badge_src": null,
        "entry": 8124937,
        "entry_name": "Squidwirtz",
        "event_total": 59,
        "has_played": true,
        "id": 67034516,
        "last_rank": 8676,
        "player_name": "Kirsty Kennedy",
        "rank": 8438,
        "rank_sort": 8471,
        "total": 2402
      },
      {
        "club_badge_src": null,
        "entry": 2968,
        "entry_name": "Stunited",
        "event_total": 57,
        "has_played": true,
        "id": 16722,
        "last_rank": 8032,
        "player_name": "Stuart Swan",
        "rank": 8472,
        "rank_sort": 8472,
        "total": 2402
      },
      {
        "club_badge_src": null,
        "entry": 5631,
        "entry_name": "Slim Schadey",
        "event_total": 57,
        "has_played": true,
        "id": 32124,
        "last_rank": 7979,
        "player_name": "Cillian Burns",
        "rank": 8472,
        "rank_sort": 8473,
        "total": 2402
      },
      {
        "club_badge_src": "https://fantasy.premierleague.com/gcs/plfpl-production-adobe-approved/plfpl-production/6010/92da0374-d805-4327-a0a6-c6812a3b8daa.png",
        "entry": 6010,
        "entry_name": "Charli xGx",
        "event_total": 56,
        "has_played": true,
        "id": 34387,
        "last_rank": 7676,
        "player_name": "Eoin Keeley",
        "rank": 8472,
        "rank_sort": 8474,
        "total": 2402
      },
      {
        "club_badge_src": null,
        "entry": 9926,
        "entry_name": "Lil Uzi Wirtz",
        "event_total": 53,
        "has_played": true,
        "id": 58543,
        "last_rank": 6752,
        "player_name": "Jacob May",
        "rank": 8472,
        "rank_sort": 8475,
        "total": 2402
      },
      {
        "club_badge_src": null,
        "entry": 10273,
        "entry_name": "Evergreen Old Boys",
        "event_total": 62,
        "has_played": true,
        "id": 60682,
        "last_rank": 9942,
        "player_name": "Derrick Ko",
        "rank": 8472,
        "rank_sort": 8476,
        "total": 2402
      },
      {
        "club_badge_src": null,
        "entry": 22722,
        "entry_name": "Coppola Balebas",
        "event_total": 67,
        "has_played": true,
        "id": 142799,
        "last_rank": 12200,
        "player_name": "Ross Morey",
        "rank": 8472,
        "rank_sort": 8477,
        "total": 2402
      },
      {
        "club_badge_src": "https://fantasy.premierleague.com/gcs/plfpl-production-adobe-approved/plfpl-production/22737/f48c5f23-5c3f-472d-a02f-69edc26fce72.png",
        "entry": 22737,
        "entry_name": "sukamelon",
        "event_total": 46,
        "has_played": true,
        "id": 142895,
        "last_rank": 4954,
        "player_name": "Ahmed Azfeen",
        "rank": 8472,
        "rank_sort": 8478,
        "total": 2402
      },
      {
        "club_badge_src": null,
        "entry": 33562,
        "entry_name": "Murphy's Law",
        "event_total": 68,
        "has_played": true,
        "id": 214087,
        "last_rank": 12705,
        "player_name": "Paavo Eerola",
        "rank": 8472,
        "rank_sort": 8479,
        "total": 2402
      },
      {
        "club_badge_src": null,
        "entry": 33831,
        "entry_name": "Ha\u013cava4theWin",
        "event_total": 68,
        "has_played": true,
        "id": 215954,
        "last_rank": 12705,
        "player_name": "Kaspars Grinbergs",
        "rank": 8472,
        "rank_sort": 8480,
        "total": 2402
      },
      {
        "club_badge_src": null,
        "entry": 40049,
        "entry_name": "Beb\u00e9 Reijnders",
        "event_total": 73,
        "has_played": true,
        "id": 256704,
        "last_rank": 13184,
        "player_name": "Trond Einar Eriksen",
        "rank": 8472,
        "rank_sort": 8481,
        "total": 2402
      },
      {
        "club_badge_src": "https://fantasy.premierleague.com/gcs/plfpl-production-adobe-approved/plfpl-production/40344/40b01167-4810-4038-ae39-c0bf2b65038e.png",
        "entry": 40344,
        "entry_name": "FC Full Sprut",
        "event_total": 71,
        "has_played": true,
        "id": 258651,
        "last_rank": 14370,
        "player_name": "J\u00f8rgen Haugli Johansen",
        "rank": 8472,
        "rank_sort": 8482,
        "total": 2402
      },
      {
        "club_badge_src": null,
        "entry": 57770,
        "entry_name": "Naga Thali FC 7",
        "event_total": 59,
        "has_played": true,
        "id": 372182,
        "last_rank": 8758,
        "player_name": "Apus Mao Naga",
        "rank": 8472,
        "rank_sort": 8483,
        "total": 2402
      },
      {
        "club_badge_src": null,
        "entry": 76795,
        "entry_name": "Zirkzee Me Rolling",
        "event_total": 67,
        "has_played": true,
        "id": 499195,
        "last_rank": 12200,
        "player_name": "Nathan Robson",
        "rank": 8472,
        "rank_sort": 8484,
        "total": 2402
      },
      {
        "club_badge_src": "https://fantasy.premierleague.com/gcs/plfpl-production-adobe-approved/plfpl-production/79865/9b340d83-2016-44a5-be17-e702fd13fb88.png",
        "entry": 79865,
        "entry_name": "Plunderstorm fc",
        "event_total": 59,
        "has_played": true,
        "id": 519602,
        "last_rank": 8758,
        "player_name": "Alex Tofts",
        "rank": 8472,
        "rank_sort": 8485,
        "total": 2402
      },
      {
        "club_badge_src": null,
        "entry": 83190,
        "entry_name": "Little Horse Glue FC",
        "event_total": 74,
        "has_played": true,
        "id": 541394,
        "last_rank": 16163,
        "player_name": "Tom MM",
        "rank": 8472,
        "rank_sort": 8486,
        "total": 2402
      },
      {
        "club_badge_src": null,
        "entry": 87882,
        "entry_name": "Top Of The Klopp",
        "event_total": 53,
        "has_played": true,
        "id": 573267,
        "last_rank": 6703,
        "player_name": "Alfie Baker",
        "rank": 8472,
        "rank_sort": 8487,
        "total": 2402
      },
      {
        "club_badge_src": null,
        "entry": 90691,
        "entry_name": "Big456",
        "event_total": 68,
        "has_played": true,
        "id": 592162,
        "last_rank": 12645,
        "player_name": "Big789 Chelsea",
        "rank": 8472,
        "rank_sort": 8488,
        "total": 2402
      },
      {
        "club_badge_src": null,
        "entry": 114999,
        "entry_name": "Saggy's Sexton",
        "event_total": 78,
        "has_played": true,
        "id": 750361,
        "last_rank": 18691,
        "player_name": "Treshan Muraliedharan",
        "rank": 8472,
        "rank_sort": 8489,
        "total": 2402
      },
      {
        "club_badge_src": null,
        "entry": 132609,
        "entry_name": "Team?",
        "event_total": 65,
        "has_played": true,
        "id": 863799,
        "last_rank": 11175,
        "player_name": "Geir Magne Flyum",
        "rank": 8472,
        "rank_sort": 8490,
        "total": 2402
      },
      {
        "club_badge_src": null,
        "entry": 135135,
        "entry_name": "HOLLOWAY",
        "event_total": 54,
        "has_played": true,
        "id": 879969,
        "last_rank": 7059,
        "player_name": "Joe Adams",
        "rank": 8472,
        "rank_sort": 8491,
        "total": 2402
      },
      {
        "club_badge_src": null,
        "entry": 150546,
        "entry_name": "Neve Amal FC",
        "event_total": 45,
        "has_played": true,
        "id": 987391,
        "last_rank": 4742,
        "player_name": "Ido Lerer",
        "rank": 8472,
        "rank_sort": 8492,
        "total": 2402
      },
      {
        "club_badge_src": "https://fantasy.premierleague.com/gcs/plfpl-production-adobe-approved/plfpl-production/158558/42c89dcf-7984-4b10-b6c2-b25554ce28ef.png",
        "entry": 158558,
        "entry_name": "Bini",
        "event_total": 62,
        "has_played": true,
        "id": 1043416,
        "last_rank": 9885,
        "player_name": "Biniam Beyene",
        "rank": 8472,
        "rank_sort": 8493,
        "total": 2402
      },
      {
        "club_badge_src": null,
        "entry": 183995,
        "entry_name": "Rea$un",
        "event_total": 68,
        "has_played": true,
        "id": 1214833,
        "last_rank": 12705,
        "player_name": "Nutthaphol Kongngernngam",
        "rank": 8472,
        "rank_sort": 8494,
        "total": 2402
      },
      {
        "club_badge_src": null,
        "entry": 237411,
        "entry_name": "Ekitikka Mosalah",
        "event_total": 53,
        "has_played": true,
        "id": 1579527,
        "last_rank": 6752,
        "player_name": "P\u00e5l Gunnar Kveum",
        "rank": 8472,
        "rank_sort": 8495,
        "total": 2402
      },
      {
        "club_badge_src": null,
        "entry": 252737,
        "entry_name": "Fc Jallah",
        "event_total": 61,
        "has_played": true,
        "id": 1681020,
        "last_rank": 9536,
        "player_name": "Justus Van der Wal",
        "rank": 8472,
        "rank_sort": 8496,
        "total": 2402
      },
      {
        "club_badge_src": null,
        "entry": 272136,
        "entry_name": "The Konate Kid",
        "event_total": 65,
        "has_played": true,
        "id": 1810567,
        "last_rank": 11150,
        "player_name": "Lurendrin Naidoo",
        "rank": 8472,
        "rank_sort": 8497,
        "total": 2402
      },
      {
        "club_badge_src": null,
        "entry": 315171,
        "entry_name": "FC Norbal",
        "event_total": 68,
        "has_played": true,
        "id": 2112180,
        "last_rank": 12705,
        "player_name": "Norbert Oryga",
        "rank": 8472,
        "rank_sort": 8498,
        "total": 2402
      },
      {
        "club_badge_src": null,
        "entry": 322715,
        "entry_name": "Lamp Frankard",
        "event_total": 67,
        "has_played": true,
        "id": 2162562,
        "last_rank": 12200,
        "player_name": "Matty Brown",
        "rank": 8472,
        "rank_sort": 8499,
        "total": 2402
      },
      {
        "club_badge_src": null,
        "entry": 382762,
        "entry_name": "Zoe's Bullets",
        "event_total": 59,
        "has_played": true,
        "id": 2566674,
        "last_rank": 7333,
        "player_name": "Ashton Rollitt",
        "rank": 8472,
        "rank_sort": 8500,
        "total": 2402
      }
    ]
  }
}