{
  "last_updated_data": "2026-05-24T23:28:17Z",
  "league": {
    "admin_entry": null,
    "closed": false,
    "code_privacy": "p",
    "created": "2025-07-20T23:14:33.933835Z",
    "cup_league": 2815434,
    "has_cup": true,
    "id": 314,
    "league_type": "s",
    "max_entries": null,
    "name": "Overall",
    "rank": null,
    "scoring": "c",
    "start_event": 1
  },
  "new_entries": {
    "has_next": false,
    "page": 1,
    "results": []
  },
  "standings": {
    "has_next": true,
    "page": 137,
    "results": [
      {
        "club_badge_src": null,
        "entry": 4970015,
        "entry_name": "Nchuti FC",
        "event_total": 51,
        "has_played": true,
        "id": 38356451,
        "last_rank": 4880,
        "player_name": "karabo malatjie",
        "rank": 6781,
        "rank_sort": 6801,
        "total": 2408
      },
      {
        "club_badge_src": null,
        "entry": 5557010,
        "entry_name": "Eddie Maguire",
        "event_total": 54,
        "has_played": true,
        "id": 43377306,
        "last_rank": 4615,
        "player_name": "Edward Sandberg",
        "rank": 6781,
        "rank_sort": 6802,
        "total": 2408
      },
      {
        "club_badge_src": null,
        "entry": 5672650,
        "entry_name": "ChickenTikka MoSalah",
        "event_total": 28,
        "has_played": true,
        "id": 44391704,
        "last_rank": 1272,
        "player_name": "Lizzie Crawford-Dean",
        "rank": 6781,
        "rank_sort": 6803,
        "total": 2408
      },
      {
        "club_badge_src": null,
        "entry": 5983727,
        "entry_name": "Chellini Con Carne",
        "event_total": 60,
        "has_played": true,
        "id": 47124263,
        "last_rank": 7237,
        "player_name": "Alex Turnbull",
        "rank": 6781,
        "rank_sort": 6804,
        "total": 2408
      },
      {
        "club_badge_src": null,
        "entry": 6051639,
        "entry_name": "FootballTeam",
        "event_total": 41,
        "has_played": true,
        "id": 47754180,
        "last_rank": 3035,
        "player_name": "Sam Lucas",
        "rank": 6781,
        "rank_sort": 6805,
        "total": 2408
      },
      {
        "club_badge_src": null,
        "entry": 7468334,
        "entry_name": "Marteta",
        "event_total": 68,
        "has_played": true,
        "id": 60873632,
        "last_rank": 8552,
        "player_name": "Bruno Bartolec",
        "rank": 6781,
        "rank_sort": 6806,
        "total": 2408
      },
      {
        "club_badge_src": null,
        "entry": 6650,
        "entry_name": "Motbakkeeiet IL",
        "event_total": 50,
        "has_played": true,
        "id": 38202,
        "last_rank": 3813,
        "player_name": "Steinar Bakkeeiet",
        "rank": 6807,
        "rank_sort": 6807,
        "total": 2408
      },
      {
        "club_badge_src": null,
        "entry": 105805,
        "entry_name": "Pelican Bay",
        "event_total": 58,
        "has_played": true,
        "id": 690008,
        "last_rank": 5560,
        "player_name": "Nick Bandoo",
        "rank": 6807,
        "rank_sort": 6808,
        "total": 2408
      },
      {
        "club_badge_src": null,
        "entry": 216537,
        "entry_name": "Cooky's Monsters VII",
        "event_total": 58,
        "has_played": true,
        "id": 1440271,
        "last_rank": 5560,
        "player_name": "Richard Cookson",
        "rank": 6807,
        "rank_sort": 6809,
        "total": 2408
      },
      {
        "club_badge_src": null,
        "entry": 279136,
        "entry_name": "Awesome Sauce FC",
        "event_total": 69,
        "has_played": true,
        "id": 1857715,
        "last_rank": 8977,
        "player_name": "Daniel Copeman",
        "rank": 6807,
        "rank_sort": 6810,
        "total": 2408
      },
      {
        "club_badge_src": "https://fantasy.premierleague.com/gcs/plfpl-production-adobe-approved/plfpl-production/363750/180e88cc-ac12-4fc7-8c35-eb83d9adf2d6.png",
        "entry": 363750,
        "entry_name": "\u2b50\ufe0f \u0635\u0642\u0631 \u0627\u0644\u0623\u0631\u0637\u0627\u0648\u064a\u0629",
        "event_total": 58,
        "has_played": true,
        "id": 2434131,
        "last_rank": 6614,
        "player_name": "Mohammed Almaymuni",
        "rank": 6807,
        "rank_sort": 6811,
        "total": 2408
      },
      {
        "club_badge_src": null,
        "entry": 391425,
        "entry_name": "Salahvation Army FC",
        "event_total": 73,
        "has_played": true,
        "id": 2625539,
        "last_rank": 10600,
        "player_name": "H\u00e5vard \u00d8steb\u00f8",
        "rank": 6807,
        "rank_sort": 6812,
        "total": 2408
      },
      {
        "club_badge_src": "https://fantasy.premierleague.com/gcs/plfpl-production-adobe-approved/plfpl-production/398619/22012c9a-397c-4c09-adf6-f95f3cda304b.png",
        "entry": 398619,
        "entry_name": "@SNIXIPER",
        "event_total": 88,
        "has_played": true,
        "id": 2673128,
        "last_rank": 19176,
        "player_name": "SNIXIPER 17 -",
        "rank": 6807,
        "rank_sort": 6813,
        "total": 2408
      },
      {
        "club_badge_src": "https://fantasy.premierleague.com/gcs/plfpl-production-adobe-approved/plfpl-production/710916/3c25a59a-e98d-4d72-8b04-907b1e697407.png",
        "entry": 710916,
        "entry_name": "Vandalvs FC",
        "event_total": 68,
        "has_played": true,
        "id": 4821579,
        "last_rank": 10173,
        "player_name": "Eid Dab\u00f6",
        "rank": 6807,
        "rank_sort": 6814,
        "total": 2408
      },
      {
        "club_badge_src": null,
        "entry": 796445,
        "entry_name": "BEALINHO",
        "event_total": 56,
        "has_played": true,
        "id": 5450730,
        "last_rank": 6094,
        "player_name": "Chris Beal",
        "rank": 6807,
        "rank_sort": 6815,
        "total": 2408
      },
      {
        "club_badge_src": null,
        "entry": 1155729,
        "entry_name": "Wieffer Vendetta",
        "event_total": 50,
        "has_played": true,
        "id": 8014198,
        "last_rank": 4644,
        "player_name": "MICHAEL MCLAUGHLIN",
        "rank": 6807,
        "rank_sort": 6816,
        "total": 2408
      },
      {
        "club_badge_src": null,
        "entry": 3135087,
        "entry_name": "Chuckys Angels",
        "event_total": 43,
        "has_played": true,
        "id": 23141992,
        "last_rank": 3350,
        "player_name": "Charles Hirst",
        "rank": 6807,
        "rank_sort": 6817,
        "total": 2408
      },
      {
        "club_badge_src": null,
        "entry": 3461623,
        "entry_name": "(write pun here) FC",
        "event_total": 62,
        "has_played": true,
        "id": 25731210,
        "last_rank": 7822,
        "player_name": "Sanj Chohan",
        "rank": 6807,
        "rank_sort": 6818,
        "total": 2408
      },
      {
        "club_badge_src": "https://fantasy.premierleague.com/gcs/plfpl-production-adobe-approved/plfpl-production/5461585/fa922048-3ba6-47df-9a89-c3b22d72e7b8.png",
        "entry": 5461585,
        "entry_name": "GoldenBoots",
        "event_total": 67,
        "has_played": true,
        "id": 42504731,
        "last_rank": 9751,
        "player_name": "James Price",
        "rank": 6807,
        "rank_sort": 6819,
        "total": 2408
      },
      {
        "club_badge_src": null,
        "entry": 6424969,
        "entry_name": "OPG",
        "event_total": 67,
        "has_played": true,
        "id": 51141294,
        "last_rank": 9711,
        "player_name": "Ole-Petter Garborg",
        "rank": 6807,
        "rank_sort": 6820,
        "total": 2408
      },
      {
        "club_badge_src": null,
        "entry": 6427213,
        "entry_name": "Mooselakers",
        "event_total": 52,
        "has_played": true,
        "id": 51161172,
        "last_rank": 4205,
        "player_name": "Marko Hirvij\u00e4rvi",
        "rank": 6807,
        "rank_sort": 6821,
        "total": 2408
      },
      {
        "club_badge_src": "https://fantasy.premierleague.com/gcs/plfpl-production-adobe-approved/plfpl-production/45400/5a3881e6-bd9a-468e-84a5-76078f6b1654.png",
        "entry": 45400,
        "entry_name": "Taking the Mikel",
        "event_total": 68,
        "has_played": true,
        "id": 291242,
        "last_rank": 10151,
        "player_name": "Sam Windley",
        "rank": 6822,
        "rank_sort": 6822,
        "total": 2408
      },
      {
        "club_badge_src": "https://fantasy.premierleague.com/gcs/plfpl-production-adobe-approved/plfpl-production/64543/c486a0b9-5c88-4bf0-9fc0-1e757c6dc368.png",
        "entry": 64543,
        "entry_name": "MARZUKI MADI FC",
        "event_total": 51,
        "has_played": true,
        "id": 416583,
        "last_rank": 4889,
        "player_name": "MARZUKI ISS MADI-EM-",
        "rank": 6822,
        "rank_sort": 6823,
        "total": 2408
      },
      {
        "club_badge_src": "https://fantasy.premierleague.com/gcs/plfpl-production-adobe-approved/plfpl-production/69558/86d9f519-01e2-4bd4-b28a-cba3d62387f3.png",
        "entry": 69558,
        "entry_name": "MAJIN BUU FC",
        "event_total": 59,
        "has_played": true,
        "id": 451270,
        "last_rank": 5845,
        "player_name": "MATT KIE",
        "rank": 6822,
        "rank_sort": 6824,
        "total": 2408
      },
      {
        "club_badge_src": null,
        "entry": 292746,
        "entry_name": "ferjenii",
        "event_total": 65,
        "has_played": true,
        "id": 1953616,
        "last_rank": 7547,
        "player_name": "ahmed ferjeni",
        "rank": 6822,
        "rank_sort": 6825,
        "total": 2408
      },
      {
        "club_badge_src": "https://fantasy.premierleague.com/gcs/plfpl-production-adobe-approved/plfpl-production/629734/4718695b-7d6f-4e7c-8788-2515fbac511f.png",
        "entry": 629734,
        "entry_name": "Short_timers",
        "event_total": 64,
        "has_played": true,
        "id": 4255390,
        "last_rank": 7237,
        "player_name": "Alan Norman",
        "rank": 6822,
        "rank_sort": 6826,
        "total": 2408
      },
      {
        "club_badge_src": "https://fantasy.premierleague.com/gcs/plfpl-production-adobe-approved/plfpl-production/1195868/95a13288-cca8-4490-a422-e269645a2677.png",
        "entry": 1195868,
        "entry_name": "Legends25",
        "event_total": 68,
        "has_played": true,
        "id": 8297747,
        "last_rank": 8617,
        "player_name": "Alan Thompson",
        "rank": 6822,
        "rank_sort": 6827,
        "total": 2408
      },
      {
        "club_badge_src": "https://fantasy.premierleague.com/gcs/plfpl-production-adobe-approved/plfpl-production/1487588/7c92ae4c-e128-494d-890c-2faa14b2b783.png",
        "entry": 1487588,
        "entry_name": "Le Gwini",
        "event_total": 48,
        "has_played": true,
        "id": 10373612,
        "last_rank": 4236,
        "player_name": "Stijn Michielsen",
        "rank": 6822,
        "rank_sort": 6828,
        "total": 2408
      },
      {
        "club_badge_src": null,
        "entry": 3889688,
        "entry_name": "The Lane",
        "event_total": 63,
        "has_played": true,
        "id": 29229213,
        "last_rank": 6927,
        "player_name": "Stein Rakner",
        "rank": 6822,
        "rank_sort": 6829,
        "total": 2408
      },
      {
        "club_badge_src": null,
        "entry": 7763488,
        "entry_name": "Ready for risk ?",
        "event_total": 59,
        "has_played": true,
        "id": 63744651,
        "last_rank": 5845,
        "player_name": "\u0642\u0645 \u0643\u0631\u0633 \u062c\u0647\u062f\u0643 \u0645\u0639 \u0627\u0644\u0631\u062c\u0627\u0644 \u0644\u0627 \u064a\u063a\u0644\u0628\u0648\u0646\u0643",
        "rank": 6822,
        "rank_sort": 6830,
        "total": 2408
      },
      {
        "club_badge_src": null,
        "entry": 8007508,
        "entry_name": "4.0 Club (2.0)",
        "event_total": 61,
        "has_played": true,
        "id": 65951352,
        "last_rank": 6333,
        "player_name": "ruiyang koh",
        "rank": 6822,
        "rank_sort": 6831,
        "total": 2408
      },
      {
        "club_badge_src": null,
        "entry": 8361077,
        "entry_name": "Yeaaa course",
        "event_total": 56,
        "has_played": true,
        "id": 69308633,
        "last_rank": 5092,
        "player_name": "Shiraz Sheikh",
        "rank": 6822,
        "rank_sort": 6832,
        "total": 2408
      },
      {
        "club_badge_src": "https://fantasy.premierleague.com/gcs/plfpl-production-adobe-approved/plfpl-production/281223/c9581202-a747-4211-b972-1bca28cc171f.png",
        "entry": 281223,
        "entry_name": "Shouldawoodacouda",
        "event_total": 58,
        "has_played": true,
        "id": 1871369,
        "last_rank": 4657,
        "player_name": "Alan Kilbey",
        "rank": 6833,
        "rank_sort": 6833,
        "total": 2408
      },
      {
        "club_badge_src": null,
        "entry": 485992,
        "entry_name": "Fc j\u00e4ttimunat",
        "event_total": 53,
        "has_played": true,
        "id": 3262504,
        "last_rank": 5356,
        "player_name": "Miska Moila",
        "rank": 6833,
        "rank_sort": 6834,
        "total": 2408
      },
      {
        "club_badge_src": null,
        "entry": 517698,
        "entry_name": "The Konate Kid",
        "event_total": 53,
        "has_played": true,
        "id": 3475768,
        "last_rank": 4442,
        "player_name": "Damien Mason",
        "rank": 6833,
        "rank_sort": 6835,
        "total": 2408
      },
      {
        "club_badge_src": null,
        "entry": 631604,
        "entry_name": "The Slugs",
        "event_total": 60,
        "has_played": true,
        "id": 4267825,
        "last_rank": 6119,
        "player_name": "Sandy Stewart",
        "rank": 6833,
        "rank_sort": 6836,
        "total": 2408
      },
      {
        "club_badge_src": null,
        "entry": 1120555,
        "entry_name": "Marty",
        "event_total": 61,
        "has_played": true,
        "id": 7763103,
        "last_rank": 7573,
        "player_name": "Visaruth Taveeruchana",
        "rank": 6833,
        "rank_sort": 6837,
        "total": 2408
      },
      {
        "club_badge_src": null,
        "entry": 1765420,
        "entry_name": "Ldo mms 667",
        "event_total": 54,
        "has_played": true,
        "id": 12400129,
        "last_rank": 5597,
        "player_name": "Noureddine Lachgar",
        "rank": 6833,
        "rank_sort": 6838,
        "total": 2408
      },
      {
        "club_badge_src": null,
        "entry": 8022865,
        "entry_name": "Whaterverton FC",
        "event_total": 48,
        "has_played": true,
        "id": 66090993,
        "last_rank": 4240,
        "player_name": "Ryan Machado",
        "rank": 6833,
        "rank_sort": 6839,
        "total": 2408
      },
      {
        "club_badge_src": null,
        "entry": 8399971,
        "entry_name": "Free Palestine",
        "event_total": 64,
        "has_played": true,
        "id": 69677570,
        "last_rank": 7274,
        "player_name": "Free Palestine",
        "rank": 6833,
        "rank_sort": 6840,
        "total": 2408
      },
      {
        "club_badge_src": null,
        "entry": 6895191,
        "entry_name": "Bader Maher",
        "event_total": 61,
        "has_played": true,
        "id": 55264130,
        "last_rank": 5335,
        "player_name": "Bader Maher",
        "rank": 6841,
        "rank_sort": 6841,
        "total": 2408
      },
      {
        "club_badge_src": "https://fantasy.premierleague.com/gcs/plfpl-production-adobe-approved/plfpl-production/9065/7faccde2-1d5b-434d-a8dd-a52a8b65484a.png",
        "entry": 9065,
        "entry_name": "Dziady",
        "event_total": 61,
        "has_played": true,
        "id": 53083,
        "last_rank": 6372,
        "player_name": "\u0141ukasz Kwa\u015bniewski",
        "rank": 6842,
        "rank_sort": 6842,
        "total": 2408
      },
      {
        "club_badge_src": null,
        "entry": 2308846,
        "entry_name": "NickyMac Allstars",
        "event_total": 57,
        "has_played": true,
        "id": 16468813,
        "last_rank": 5362,
        "player_name": "Nicholas Mcmahon",
        "rank": 6842,
        "rank_sort": 6843,
        "total": 2408
      },
      {
        "club_badge_src": null,
        "entry": 4823097,
        "entry_name": "we are united",
        "event_total": 57,
        "has_played": true,
        "id": 37143986,
        "last_rank": 6374,
        "player_name": "William Dunn",
        "rank": 6842,
        "rank_sort": 6844,
        "total": 2408
      },
      {
        "club_badge_src": null,
        "entry": 362648,
        "entry_name": "Slott Machine Fc",
        "event_total": 64,
        "has_played": true,
        "id": 2426483,
        "last_rank": 7290,
        "player_name": "Neil Geddes",
        "rank": 6845,
        "rank_sort": 6845,
        "total": 2408
      },
      {
        "club_badge_src": null,
        "entry": 6652746,
        "entry_name": "HSS02",
        "event_total": 76,
        "has_played": true,
        "id": 53187479,
        "last_rank": 14197,
        "player_name": "H.B. Singsit",
        "rank": 6845,
        "rank_sort": 6846,
        "total": 2408
      },
      {
        "club_badge_src": null,
        "entry": 963370,
        "entry_name": "Eastwich",
        "event_total": 71,
        "has_played": true,
        "id": 6639060,
        "last_rank": 8295,
        "player_name": "Ante Komi\u0107",
        "rank": 6847,
        "rank_sort": 6847,
        "total": 2408
      },
      {
        "club_badge_src": null,
        "entry": 1084619,
        "entry_name": "FC Saint Liebherr",
        "event_total": 67,
        "has_played": true,
        "id": 7510800,
        "last_rank": 8300,
        "player_name": "Adam Webb",
        "rank": 6847,
        "rank_sort": 6848,
        "total": 2408
      },
      {
        "club_badge_src": null,
        "entry": 5514770,
        "entry_name": "Brick Top's Henchmen",
        "event_total": 65,
        "has_played": true,
        "id": 42992298,
        "last_rank": 9051,
        "player_name": "Muzarazu Muzarazu",
        "rank": 6847,
        "rank_sort": 6849,
        "total": 2408
      },
      {
        "club_badge_src": null,
        "entry": 9359697,
        "entry_name": "NAFH PIRANI",
        "event_total": 76,
        "has_played": true,
        "id": 78980177,
        "last_rank": 14215,
        "player_name": "Nafh Pirani",
        "rank": 6850,
        "rank_sort": 6850,
        "total": 2408
      }
    ]
  }
}