{
  "last_updated_data": "2026-05-24T23:28:17Z",
  "league": {
    "admin_entry": null,
    "closed": false,
    "code_privacy": "p",
    "created": "2025-07-20T23:14:33.933835Z",
    "cup_league": 2815434,
    "has_cup": true,
    "id": 314,
    "league_type": "s",
    "max_entries": null,
    "name": "Overall",
    "rank": null,
    "scoring": "c",
    "start_event": 1
  },
  "new_entries": {
    "has_next": false,
    "page": 1,
    "results": []
  },
  "standings": {
    "has_next": true,
    "page": 1197,
    "results": [
      {
        "club_badge_src": null,
        "entry": 8201907,
        "entry_name": "zizo",
        "event_total": 66,
        "has_played": true,
        "id": 67758524,
        "last_rank": 77999,
        "player_name": "emad mahmoud",
        "rank": 59580,
        "rank_sort": 59801,
        "total": 2346
      },
      {
        "club_badge_src": null,
        "entry": 8331932,
        "entry_name": "Winds of change",
        "event_total": 66,
        "has_played": true,
        "id": 69033277,
        "last_rank": 77258,
        "player_name": "Gareth King",
        "rank": 59580,
        "rank_sort": 59802,
        "total": 2346
      },
      {
        "club_badge_src": null,
        "entry": 8473554,
        "entry_name": "AboZeer",
        "event_total": 74,
        "has_played": true,
        "id": 70378641,
        "last_rank": 86304,
        "player_name": "Abdullah Alzeer",
        "rank": 59580,
        "rank_sort": 59803,
        "total": 2346
      },
      {
        "club_badge_src": null,
        "entry": 8503038,
        "entry_name": "Nuno Eid",
        "event_total": 81,
        "has_played": true,
        "id": 70667066,
        "last_rank": 93443,
        "player_name": "Ahmed Eid",
        "rank": 59580,
        "rank_sort": 59804,
        "total": 2346
      },
      {
        "club_badge_src": null,
        "entry": 8580786,
        "entry_name": "Gooner than Later",
        "event_total": 59,
        "has_played": true,
        "id": 71413306,
        "last_rank": 63724,
        "player_name": "Chris Claxton",
        "rank": 59580,
        "rank_sort": 59805,
        "total": 2346
      },
      {
        "club_badge_src": null,
        "entry": 8696482,
        "entry_name": "Gaz",
        "event_total": 31,
        "has_played": true,
        "id": 72545000,
        "last_rank": 26345,
        "player_name": "Gary Finley",
        "rank": 59580,
        "rank_sort": 59806,
        "total": 2346
      },
      {
        "club_badge_src": null,
        "entry": 8744809,
        "entry_name": "bradders bangers",
        "event_total": 66,
        "has_played": true,
        "id": 73014291,
        "last_rank": 77999,
        "player_name": "brad ford",
        "rank": 59580,
        "rank_sort": 59807,
        "total": 2346
      },
      {
        "club_badge_src": null,
        "entry": 9051827,
        "entry_name": "Change Name",
        "event_total": 53,
        "has_played": true,
        "id": 75982995,
        "last_rank": 47163,
        "player_name": "Josh Ellison",
        "rank": 59580,
        "rank_sort": 59808,
        "total": 2346
      },
      {
        "club_badge_src": null,
        "entry": 9190176,
        "entry_name": "Gallachertasaray",
        "event_total": 57,
        "has_played": true,
        "id": 77337257,
        "last_rank": 60462,
        "player_name": "James Gallacher",
        "rank": 59580,
        "rank_sort": 59809,
        "total": 2346
      },
      {
        "club_badge_src": null,
        "entry": 9227018,
        "entry_name": "Jellyshot 11",
        "event_total": 80,
        "has_played": true,
        "id": 77698835,
        "last_rank": 112960,
        "player_name": "Matt Clemence",
        "rank": 59580,
        "rank_sort": 59810,
        "total": 2346
      },
      {
        "club_badge_src": null,
        "entry": 9362639,
        "entry_name": "ex.CLS",
        "event_total": 40,
        "has_played": true,
        "id": 79008774,
        "last_rank": 35768,
        "player_name": "Mk Nk",
        "rank": 59580,
        "rank_sort": 59811,
        "total": 2346
      },
      {
        "club_badge_src": "https://fantasy.premierleague.com/gcs/plfpl-production-adobe-approved/plfpl-production/1591/30448a84-61a8-445e-91fd-f249233fd040.png",
        "entry": 1591,
        "entry_name": "Too Eze",
        "event_total": 69,
        "has_played": true,
        "id": 8858,
        "last_rank": 84980,
        "player_name": "Ryan H",
        "rank": 59812,
        "rank_sort": 59812,
        "total": 2346
      },
      {
        "club_badge_src": null,
        "entry": 3048,
        "entry_name": "Always tinkering FC",
        "event_total": 59,
        "has_played": true,
        "id": 17190,
        "last_rank": 64190,
        "player_name": "Espen J\u00f8rgensen",
        "rank": 59812,
        "rank_sort": 59813,
        "total": 2346
      },
      {
        "club_badge_src": "https://fantasy.premierleague.com/gcs/plfpl-production-adobe-approved/plfpl-production/11695/d5bc41a6-2c4c-48f9-8b28-4a6a9009386f.png",
        "entry": 11695,
        "entry_name": "\u0648\u064a\u0633\u0643\u064a \u0627\u0644\u0635\u0627\u0644\u062d\u064a\u0646",
        "event_total": 37,
        "has_played": true,
        "id": 69608,
        "last_rank": 27976,
        "player_name": "Omar elgebeily",
        "rank": 59812,
        "rank_sort": 59814,
        "total": 2346
      },
      {
        "club_badge_src": null,
        "entry": 12490,
        "entry_name": "Flo State",
        "event_total": 69,
        "has_played": true,
        "id": 74813,
        "last_rank": 75874,
        "player_name": "Nikhil Patel",
        "rank": 59812,
        "rank_sort": 59815,
        "total": 2346
      },
      {
        "club_badge_src": "https://fantasy.premierleague.com/gcs/plfpl-production-adobe-approved/plfpl-production/13100/1e858f7e-3fb6-4327-974b-acba9b5676d2.png",
        "entry": 13100,
        "entry_name": "Fron Flaks&Flyt",
        "event_total": 61,
        "has_played": true,
        "id": 78947,
        "last_rank": 60462,
        "player_name": "Jo-Ivar Holten",
        "rank": 59812,
        "rank_sort": 59816,
        "total": 2346
      },
      {
        "club_badge_src": null,
        "entry": 15737,
        "entry_name": "Sideshow Bobb",
        "event_total": 69,
        "has_played": true,
        "id": 96839,
        "last_rank": 84731,
        "player_name": "Lewis Clarke",
        "rank": 59812,
        "rank_sort": 59817,
        "total": 2346
      },
      {
        "club_badge_src": null,
        "entry": 17938,
        "entry_name": "KAKI BUKIT FC",
        "event_total": 59,
        "has_played": true,
        "id": 111427,
        "last_rank": 57001,
        "player_name": "Khairi Ibrahim",
        "rank": 59812,
        "rank_sort": 59818,
        "total": 2346
      },
      {
        "club_badge_src": "https://fantasy.premierleague.com/gcs/plfpl-production-adobe-approved/plfpl-production/21220/b535f58b-0cf1-422f-92ad-35df2da2b9a9.png",
        "entry": 21220,
        "entry_name": "BeTTer CaLL RaWaZ",
        "event_total": 53,
        "has_played": true,
        "id": 133015,
        "last_rank": 47163,
        "player_name": "RAWAZ -- KURD -------",
        "rank": 59812,
        "rank_sort": 59819,
        "total": 2346
      },
      {
        "club_badge_src": null,
        "entry": 25558,
        "entry_name": "Brmbote City Thunder",
        "event_total": 54,
        "has_played": true,
        "id": 161675,
        "last_rank": 48898,
        "player_name": "Jovan Don\u010devski",
        "rank": 59812,
        "rank_sort": 59820,
        "total": 2346
      },
      {
        "club_badge_src": null,
        "entry": 28503,
        "entry_name": "Carefree XI",
        "event_total": 35,
        "has_played": true,
        "id": 180231,
        "last_rank": 30276,
        "player_name": "Callum Marson",
        "rank": 59812,
        "rank_sort": 59821,
        "total": 2346
      },
      {
        "club_badge_src": "https://fantasy.premierleague.com/gcs/plfpl-production-adobe-approved/plfpl-production/30098/bb5d5c62-090c-41a6-ad38-00f70c23a4c3.png",
        "entry": 30098,
        "entry_name": "Simply the Best",
        "event_total": 77,
        "has_played": true,
        "id": 190439,
        "last_rank": 93883,
        "player_name": "Kennedy Liu",
        "rank": 59812,
        "rank_sort": 59822,
        "total": 2346
      },
      {
        "club_badge_src": "https://fantasy.premierleague.com/gcs/plfpl-production-adobe-approved/plfpl-production/36317/9d86f85e-8ddc-4eb3-8775-2a90678f2584.png",
        "entry": 36317,
        "entry_name": "Unexpected Goals",
        "event_total": 60,
        "has_played": true,
        "id": 232460,
        "last_rank": 58688,
        "player_name": "Christoffer Borge Johansen",
        "rank": 59812,
        "rank_sort": 59823,
        "total": 2346
      },
      {
        "club_badge_src": null,
        "entry": 38823,
        "entry_name": "Onmyway FC",
        "event_total": 53,
        "has_played": true,
        "id": 248874,
        "last_rank": 47417,
        "player_name": "Chatuphon Phanphai",
        "rank": 59812,
        "rank_sort": 59824,
        "total": 2346
      },
      {
        "club_badge_src": null,
        "entry": 38926,
        "entry_name": "KR7",
        "event_total": 64,
        "has_played": true,
        "id": 249522,
        "last_rank": 73975,
        "player_name": "Kevin Reilly",
        "rank": 59812,
        "rank_sort": 59825,
        "total": 2346
      },
      {
        "club_badge_src": null,
        "entry": 43440,
        "entry_name": "Neville Wears Prada",
        "event_total": 63,
        "has_played": true,
        "id": 278198,
        "last_rank": 71956,
        "player_name": "Louis Moore",
        "rank": 59812,
        "rank_sort": 59826,
        "total": 2346
      },
      {
        "club_badge_src": null,
        "entry": 52489,
        "entry_name": "Beum Isak Daka Saka",
        "event_total": 71,
        "has_played": true,
        "id": 337524,
        "last_rank": 80194,
        "player_name": "Tate Spiteri",
        "rank": 59812,
        "rank_sort": 59827,
        "total": 2346
      },
      {
        "club_badge_src": null,
        "entry": 53221,
        "entry_name": "Chido-Obi Wan Kenobi",
        "event_total": 54,
        "has_played": true,
        "id": 342351,
        "last_rank": 55514,
        "player_name": "Louie Day",
        "rank": 59812,
        "rank_sort": 59828,
        "total": 2346
      },
      {
        "club_badge_src": null,
        "entry": 53422,
        "entry_name": "Dunk and disorderly",
        "event_total": 64,
        "has_played": true,
        "id": 343699,
        "last_rank": 73975,
        "player_name": "Ashton Rowley",
        "rank": 59812,
        "rank_sort": 59829,
        "total": 2346
      },
      {
        "club_badge_src": null,
        "entry": 62340,
        "entry_name": "Jokers",
        "event_total": 57,
        "has_played": true,
        "id": 401763,
        "last_rank": 47163,
        "player_name": "Mohamed Mattar",
        "rank": 59812,
        "rank_sort": 59830,
        "total": 2346
      },
      {
        "club_badge_src": null,
        "entry": 65439,
        "entry_name": "Omer FCB99",
        "event_total": 67,
        "has_played": true,
        "id": 422459,
        "last_rank": 80465,
        "player_name": "Omer Mahdi",
        "rank": 59812,
        "rank_sort": 59831,
        "total": 2346
      },
      {
        "club_badge_src": null,
        "entry": 79991,
        "entry_name": "Ake Is English",
        "event_total": 68,
        "has_played": true,
        "id": 520470,
        "last_rank": 82664,
        "player_name": "Simon Hubble",
        "rank": 59812,
        "rank_sort": 59832,
        "total": 2346
      },
      {
        "club_badge_src": "https://fantasy.premierleague.com/gcs/plfpl-production-adobe-approved/plfpl-production/82867/91072868-1985-4ded-b19d-8bd115213e2a.png",
        "entry": 82867,
        "entry_name": "Sesko Clubcard",
        "event_total": 69,
        "has_played": true,
        "id": 539286,
        "last_rank": 67422,
        "player_name": "Brandon Smith",
        "rank": 59812,
        "rank_sort": 59833,
        "total": 2346
      },
      {
        "club_badge_src": null,
        "entry": 83991,
        "entry_name": "Swedish Scouse Mafia",
        "event_total": 60,
        "has_played": true,
        "id": 546759,
        "last_rank": 58688,
        "player_name": "Adam Vestman",
        "rank": 59812,
        "rank_sort": 59834,
        "total": 2346
      },
      {
        "club_badge_src": null,
        "entry": 87665,
        "entry_name": "UG05",
        "event_total": 53,
        "has_played": true,
        "id": 571774,
        "last_rank": 53837,
        "player_name": "Rasmus Larsson",
        "rank": 59812,
        "rank_sort": 59835,
        "total": 2346
      },
      {
        "club_badge_src": null,
        "entry": 92850,
        "entry_name": "They fly so high",
        "event_total": 46,
        "has_played": true,
        "id": 606764,
        "last_rank": 43342,
        "player_name": "Steve Graham",
        "rank": 59812,
        "rank_sort": 59836,
        "total": 2346
      },
      {
        "club_badge_src": "https://fantasy.premierleague.com/gcs/plfpl-production-adobe-approved/plfpl-production/101529/e93f8230-4f6f-4a3e-9e35-fb6caa088a0c.png",
        "entry": 101529,
        "entry_name": "Zabec",
        "event_total": 58,
        "has_played": true,
        "id": 662433,
        "last_rank": 62429,
        "player_name": "jernej virant",
        "rank": 59812,
        "rank_sort": 59837,
        "total": 2346
      },
      {
        "club_badge_src": null,
        "entry": 108341,
        "entry_name": "Hacunha Mateta",
        "event_total": 57,
        "has_played": true,
        "id": 706364,
        "last_rank": 60462,
        "player_name": "Si Williams",
        "rank": 59812,
        "rank_sort": 59838,
        "total": 2346
      },
      {
        "club_badge_src": null,
        "entry": 124265,
        "entry_name": "Hillards Hotshots",
        "event_total": 68,
        "has_played": true,
        "id": 810520,
        "last_rank": 73720,
        "player_name": "Jon Hillard",
        "rank": 59812,
        "rank_sort": 59839,
        "total": 2346
      },
      {
        "club_badge_src": null,
        "entry": 132231,
        "entry_name": "SwanTom Bomb",
        "event_total": 69,
        "has_played": true,
        "id": 861400,
        "last_rank": 75537,
        "player_name": "Thomas Reading",
        "rank": 59812,
        "rank_sort": 59840,
        "total": 2346
      },
      {
        "club_badge_src": null,
        "entry": 138492,
        "entry_name": "Jose Mourinho Era",
        "event_total": 68,
        "has_played": true,
        "id": 903478,
        "last_rank": 73720,
        "player_name": "Alwaleed Alotaibi",
        "rank": 59812,
        "rank_sort": 59841,
        "total": 2346
      },
      {
        "club_badge_src": null,
        "entry": 145438,
        "entry_name": "jsulli team",
        "event_total": 65,
        "has_played": true,
        "id": 952478,
        "last_rank": 75874,
        "player_name": "Jenson Sullivan",
        "rank": 59812,
        "rank_sort": 59842,
        "total": 2346
      },
      {
        "club_badge_src": null,
        "entry": 154342,
        "entry_name": "Kroos Control",
        "event_total": 61,
        "has_played": true,
        "id": 1013888,
        "last_rank": 53345,
        "player_name": "Andy Browne",
        "rank": 59812,
        "rank_sort": 59843,
        "total": 2346
      },
      {
        "club_badge_src": null,
        "entry": 166934,
        "entry_name": "ThomasTheFrankEngine",
        "event_total": 56,
        "has_played": true,
        "id": 1103221,
        "last_rank": 51984,
        "player_name": "Tom Sellers",
        "rank": 59812,
        "rank_sort": 59844,
        "total": 2346
      },
      {
        "club_badge_src": "https://fantasy.premierleague.com/gcs/plfpl-production-adobe-approved/plfpl-production/181631/27889868-4e5f-4ad6-91c7-942100ec1414.png",
        "entry": 181631,
        "entry_name": "Take Me To DeGea Bar",
        "event_total": 49,
        "has_played": true,
        "id": 1198581,
        "last_rank": 47596,
        "player_name": "Rhodri Williams",
        "rank": 59812,
        "rank_sort": 59845,
        "total": 2346
      },
      {
        "club_badge_src": "https://fantasy.premierleague.com/gcs/plfpl-production-adobe-approved/plfpl-production/248255/46fe633a-abab-4c6f-a466-5cc5e6e7a937.png",
        "entry": 248255,
        "entry_name": "AL Ahly SC",
        "event_total": 45,
        "has_played": true,
        "id": 1652334,
        "last_rank": 41967,
        "player_name": "Taha Sakran",
        "rank": 59812,
        "rank_sort": 59846,
        "total": 2346
      },
      {
        "club_badge_src": null,
        "entry": 252061,
        "entry_name": "Jonesy\u2019s Dream Team",
        "event_total": 59,
        "has_played": true,
        "id": 1676723,
        "last_rank": 57001,
        "player_name": "Alex Jones",
        "rank": 59812,
        "rank_sort": 59847,
        "total": 2346
      },
      {
        "club_badge_src": null,
        "entry": 256685,
        "entry_name": "Kinder Mbeumo",
        "event_total": 65,
        "has_played": true,
        "id": 1707187,
        "last_rank": 75537,
        "player_name": "Alex Hallsor",
        "rank": 59812,
        "rank_sort": 59848,
        "total": 2346
      },
      {
        "club_badge_src": null,
        "entry": 261784,
        "entry_name": "Only Way is Chelsea",
        "event_total": 52,
        "has_played": true,
        "id": 1740263,
        "last_rank": 52205,
        "player_name": "Warren Brandon",
        "rank": 59812,
        "rank_sort": 59849,
        "total": 2346
      },
      {
        "club_badge_src": "https://fantasy.premierleague.com/gcs/plfpl-production-adobe-approved/plfpl-production/273805/0689604e-0fc0-4f6e-be11-1b085de99c0c.png",
        "entry": 273805,
        "entry_name": "FPL Cobra Kai",
        "event_total": 61,
        "has_played": true,
        "id": 1821945,
        "last_rank": 60168,
        "player_name": "Adam Razack",
        "rank": 59812,
        "rank_sort": 59850,
        "total": 2346
      }
    ]
  }
}