{
  "last_updated_data": "2026-05-24T23:28:17Z",
  "league": {
    "admin_entry": null,
    "closed": false,
    "code_privacy": "p",
    "created": "2025-07-20T23:14:33.933835Z",
    "cup_league": 2815434,
    "has_cup": true,
    "id": 314,
    "league_type": "s",
    "max_entries": null,
    "name": "Overall",
    "rank": null,
    "scoring": "c",
    "start_event": 1
  },
  "new_entries": {
    "has_next": false,
    "page": 1,
    "results": []
  },
  "standings": {
    "has_next": true,
    "page": 578,
    "results": [
      {
        "club_badge_src": null,
        "entry": 1681462,
        "entry_name": "Ronel -11",
        "event_total": 63,
        "has_played": true,
        "id": 11771006,
        "last_rank": 34937,
        "player_name": "Roney Frimpong Duah",
        "rank": 28829,
        "rank_sort": 28851,
        "total": 2369
      },
      {
        "club_badge_src": null,
        "entry": 1708273,
        "entry_name": "One Pound Fifty FC",
        "event_total": 40,
        "has_played": true,
        "id": 11968476,
        "last_rank": 15550,
        "player_name": "Farai Myezwa",
        "rank": 28829,
        "rank_sort": 28852,
        "total": 2369
      },
      {
        "club_badge_src": null,
        "entry": 1808667,
        "entry_name": "Kick His Ass Seabass",
        "event_total": 60,
        "has_played": true,
        "id": 12715834,
        "last_rank": 31620,
        "player_name": "Carl Lawrence",
        "rank": 28829,
        "rank_sort": 28853,
        "total": 2369
      },
      {
        "club_badge_src": null,
        "entry": 1809171,
        "entry_name": "\u0160e\u0161ko Extra",
        "event_total": 57,
        "has_played": true,
        "id": 12719477,
        "last_rank": 28546,
        "player_name": "David Proudlock",
        "rank": 28829,
        "rank_sort": 28854,
        "total": 2369
      },
      {
        "club_badge_src": null,
        "entry": 1978067,
        "entry_name": "Wissa You Were Here",
        "event_total": 45,
        "has_played": true,
        "id": 13964343,
        "last_rank": 18655,
        "player_name": "Dan Martin",
        "rank": 28829,
        "rank_sort": 28855,
        "total": 2369
      },
      {
        "club_badge_src": null,
        "entry": 2219231,
        "entry_name": "Mephibosheth",
        "event_total": 64,
        "has_played": true,
        "id": 15805745,
        "last_rank": 36142,
        "player_name": "Jonny Libby",
        "rank": 28829,
        "rank_sort": 28856,
        "total": 2369
      },
      {
        "club_badge_src": null,
        "entry": 2276120,
        "entry_name": "Cunha Believe It",
        "event_total": 56,
        "has_played": true,
        "id": 16230702,
        "last_rank": 27644,
        "player_name": "Wayne Hodges",
        "rank": 28829,
        "rank_sort": 28857,
        "total": 2369
      },
      {
        "club_badge_src": "https://fantasy.premierleague.com/gcs/plfpl-production-adobe-approved/plfpl-production/2530474/1685fb97-968b-4feb-b1c5-051524b0caf9.png",
        "entry": 2530474,
        "entry_name": "Blackking-[ANT]",
        "event_total": 56,
        "has_played": true,
        "id": 18132618,
        "last_rank": 27644,
        "player_name": "ABDENNOUR BARAZOUK",
        "rank": 28829,
        "rank_sort": 28858,
        "total": 2369
      },
      {
        "club_badge_src": null,
        "entry": 2858686,
        "entry_name": "FC Caesar Salah",
        "event_total": 38,
        "has_played": true,
        "id": 20904776,
        "last_rank": 14292,
        "player_name": "Thomas Van den Bossche",
        "rank": 28829,
        "rank_sort": 28859,
        "total": 2369
      },
      {
        "club_badge_src": null,
        "entry": 3864516,
        "entry_name": "Wavos FC",
        "event_total": 69,
        "has_played": true,
        "id": 28976871,
        "last_rank": 42648,
        "player_name": "David Trenkel",
        "rank": 28829,
        "rank_sort": 28860,
        "total": 2369
      },
      {
        "club_badge_src": null,
        "entry": 3913033,
        "entry_name": "Fetch The Medi\u010b",
        "event_total": 53,
        "has_played": true,
        "id": 29421120,
        "last_rank": 24832,
        "player_name": "Ian Marsh",
        "rank": 28829,
        "rank_sort": 28861,
        "total": 2369
      },
      {
        "club_badge_src": null,
        "entry": 3941255,
        "entry_name": "affe",
        "event_total": 45,
        "has_played": true,
        "id": 29647743,
        "last_rank": 18790,
        "player_name": "Alfons bood",
        "rank": 28829,
        "rank_sort": 28862,
        "total": 2369
      },
      {
        "club_badge_src": null,
        "entry": 4444520,
        "entry_name": "Boldklubbennn",
        "event_total": 69,
        "has_played": true,
        "id": 33846773,
        "last_rank": 42506,
        "player_name": "\u00d3lafur M.",
        "rank": 28829,
        "rank_sort": 28863,
        "total": 2369
      },
      {
        "club_badge_src": null,
        "entry": 4622219,
        "entry_name": "Bruno Dos Tres",
        "event_total": 57,
        "has_played": true,
        "id": 35332570,
        "last_rank": 28609,
        "player_name": "M T",
        "rank": 28829,
        "rank_sort": 28864,
        "total": 2369
      },
      {
        "club_badge_src": "https://fantasy.premierleague.com/gcs/plfpl-production-adobe-approved/plfpl-production/5287515/68c8da5a-f2f2-4db3-a857-911400707a89.png",
        "entry": 5287515,
        "entry_name": "LEVTZI",
        "event_total": 76,
        "has_played": true,
        "id": 40985015,
        "last_rank": 52759,
        "player_name": "Ido Lebzelter",
        "rank": 28829,
        "rank_sort": 28865,
        "total": 2369
      },
      {
        "club_badge_src": null,
        "entry": 5436777,
        "entry_name": "MEDHAT",
        "event_total": 45,
        "has_played": true,
        "id": 42294905,
        "last_rank": 18790,
        "player_name": "Muhamed Medhat",
        "rank": 28829,
        "rank_sort": 28866,
        "total": 2369
      },
      {
        "club_badge_src": null,
        "entry": 5778797,
        "entry_name": "Hatrick Kluivert",
        "event_total": 87,
        "has_played": true,
        "id": 45313481,
        "last_rank": 72622,
        "player_name": "Calum Scrimgeour",
        "rank": 28829,
        "rank_sort": 28867,
        "total": 2369
      },
      {
        "club_badge_src": null,
        "entry": 5806998,
        "entry_name": "\u0262\ufffd\u00f6k\u0262\ufffd\u00f6k 3000",
        "event_total": 47,
        "has_played": true,
        "id": 45560831,
        "last_rank": 20280,
        "player_name": "Stefan Rahl\u00e9n",
        "rank": 28829,
        "rank_sort": 28868,
        "total": 2369
      },
      {
        "club_badge_src": null,
        "entry": 6044018,
        "entry_name": "whoatealldepays",
        "event_total": 48,
        "has_played": true,
        "id": 47687700,
        "last_rank": 20983,
        "player_name": "Max Lea-Wilson",
        "rank": 28829,
        "rank_sort": 28869,
        "total": 2369
      },
      {
        "club_badge_src": null,
        "entry": 6268372,
        "entry_name": "Bentekkers FC",
        "event_total": 63,
        "has_played": true,
        "id": 49635191,
        "last_rank": 34969,
        "player_name": "Dante Gouveia",
        "rank": 28829,
        "rank_sort": 28870,
        "total": 2369
      },
      {
        "club_badge_src": null,
        "entry": 6617425,
        "entry_name": "Chillow & Chaldrey",
        "event_total": 51,
        "has_played": true,
        "id": 52877662,
        "last_rank": 23341,
        "player_name": "Danny Molyneux",
        "rank": 28829,
        "rank_sort": 28871,
        "total": 2369
      },
      {
        "club_badge_src": null,
        "entry": 6801996,
        "entry_name": "Dunk and Disorderly",
        "event_total": 79,
        "has_played": true,
        "id": 54473296,
        "last_rank": 57723,
        "player_name": "Chloe Smith",
        "rank": 28829,
        "rank_sort": 28872,
        "total": 2369
      },
      {
        "club_badge_src": null,
        "entry": 7038121,
        "entry_name": "AD Dons",
        "event_total": 56,
        "has_played": true,
        "id": 56579364,
        "last_rank": 27770,
        "player_name": "Anthony Donato",
        "rank": 28829,
        "rank_sort": 28873,
        "total": 2369
      },
      {
        "club_badge_src": null,
        "entry": 7620345,
        "entry_name": "Red Nose Reijndeer",
        "event_total": 69,
        "has_played": true,
        "id": 62449993,
        "last_rank": 42434,
        "player_name": "Zachary Wu",
        "rank": 28829,
        "rank_sort": 28874,
        "total": 2369
      },
      {
        "club_badge_src": null,
        "entry": 7717274,
        "entry_name": "Change Name",
        "event_total": 46,
        "has_played": true,
        "id": 63326378,
        "last_rank": 19392,
        "player_name": "Lars \u00c5ge Borgen",
        "rank": 28829,
        "rank_sort": 28875,
        "total": 2369
      },
      {
        "club_badge_src": null,
        "entry": 7730875,
        "entry_name": "Brantford FC",
        "event_total": 47,
        "has_played": true,
        "id": 63449058,
        "last_rank": 20147,
        "player_name": "Sam Brant",
        "rank": 28829,
        "rank_sort": 28876,
        "total": 2369
      },
      {
        "club_badge_src": null,
        "entry": 7875002,
        "entry_name": "FC Goaldust",
        "event_total": 72,
        "has_played": true,
        "id": 64758805,
        "last_rank": 46591,
        "player_name": "Mike Leyland",
        "rank": 28829,
        "rank_sort": 28877,
        "total": 2369
      },
      {
        "club_badge_src": null,
        "entry": 7983301,
        "entry_name": "Maguire's Misfits",
        "event_total": 57,
        "has_played": true,
        "id": 65736306,
        "last_rank": 28609,
        "player_name": "AbhinabJung Rana",
        "rank": 28829,
        "rank_sort": 28878,
        "total": 2369
      },
      {
        "club_badge_src": null,
        "entry": 8061032,
        "entry_name": "Change Name",
        "event_total": 71,
        "has_played": true,
        "id": 66437617,
        "last_rank": 45182,
        "player_name": "fanny dondych",
        "rank": 28829,
        "rank_sort": 28879,
        "total": 2369
      },
      {
        "club_badge_src": null,
        "entry": 8463160,
        "entry_name": "Carnage",
        "event_total": 66,
        "has_played": true,
        "id": 70279771,
        "last_rank": 38644,
        "player_name": "DHOM AZ",
        "rank": 28829,
        "rank_sort": 28880,
        "total": 2369
      },
      {
        "club_badge_src": null,
        "entry": 8478406,
        "entry_name": "Boody's Eleven",
        "event_total": 62,
        "has_played": true,
        "id": 70424961,
        "last_rank": 33845,
        "player_name": "Abdelrahman Ali",
        "rank": 28829,
        "rank_sort": 28881,
        "total": 2369
      },
      {
        "club_badge_src": null,
        "entry": 8652463,
        "entry_name": "Est\u00eaWOW",
        "event_total": 58,
        "has_played": true,
        "id": 72112117,
        "last_rank": 25700,
        "player_name": "Parth Dalal",
        "rank": 28829,
        "rank_sort": 28882,
        "total": 2369
      },
      {
        "club_badge_src": null,
        "entry": 8757576,
        "entry_name": "Piques 11",
        "event_total": 49,
        "has_played": true,
        "id": 73135138,
        "last_rank": 21775,
        "player_name": "Pauric Kirwan",
        "rank": 28829,
        "rank_sort": 28883,
        "total": 2369
      },
      {
        "club_badge_src": null,
        "entry": 8900937,
        "entry_name": "Mangio Pasta",
        "event_total": 59,
        "has_played": true,
        "id": 74518578,
        "last_rank": 30503,
        "player_name": "Djordje Jovanovic",
        "rank": 28829,
        "rank_sort": 28884,
        "total": 2369
      },
      {
        "club_badge_src": null,
        "entry": 541,
        "entry_name": "Jota's Slotters",
        "event_total": 58,
        "has_played": true,
        "id": 2981,
        "last_rank": 29522,
        "player_name": "Joseph Houghton",
        "rank": 28885,
        "rank_sort": 28885,
        "total": 2369
      },
      {
        "club_badge_src": null,
        "entry": 1107,
        "entry_name": "Jimmy\u2019s team",
        "event_total": 47,
        "has_played": true,
        "id": 6148,
        "last_rank": 20147,
        "player_name": "Jimmy Thomas",
        "rank": 28885,
        "rank_sort": 28886,
        "total": 2369
      },
      {
        "club_badge_src": "https://fantasy.premierleague.com/gcs/plfpl-production-adobe-approved/plfpl-production/1278/bdac8197-b978-4634-a543-dd1cf9c0914b.png",
        "entry": 1278,
        "entry_name": "Taste of Cherry",
        "event_total": 59,
        "has_played": true,
        "id": 7101,
        "last_rank": 30727,
        "player_name": "Ra\u00efsh Ganpat",
        "rank": 28885,
        "rank_sort": 28887,
        "total": 2369
      },
      {
        "club_badge_src": null,
        "entry": 3250,
        "entry_name": "Szczury Szkudlara",
        "event_total": 61,
        "has_played": true,
        "id": 18361,
        "last_rank": 32879,
        "player_name": "Szymon Kudelski",
        "rank": 28885,
        "rank_sort": 28888,
        "total": 2369
      },
      {
        "club_badge_src": null,
        "entry": 3385,
        "entry_name": "Liverpool>>>>>",
        "event_total": 66,
        "has_played": true,
        "id": 19171,
        "last_rank": 38774,
        "player_name": "Rian Rayani",
        "rank": 28885,
        "rank_sort": 28889,
        "total": 2369
      },
      {
        "club_badge_src": "https://fantasy.premierleague.com/gcs/plfpl-production-adobe-approved/plfpl-production/13740/a5de4994-356f-474e-b6d4-699e33a8516c.png",
        "entry": 13740,
        "entry_name": "Walk the Talk FC",
        "event_total": 66,
        "has_played": true,
        "id": 83143,
        "last_rank": 38774,
        "player_name": "Freddy Sadeghi",
        "rank": 28885,
        "rank_sort": 28890,
        "total": 2369
      },
      {
        "club_badge_src": null,
        "entry": 14105,
        "entry_name": "Long Range Toddy's",
        "event_total": 55,
        "has_played": true,
        "id": 85488,
        "last_rank": 26827,
        "player_name": "Todd Byerly",
        "rank": 28885,
        "rank_sort": 28891,
        "total": 2369
      },
      {
        "club_badge_src": null,
        "entry": 29092,
        "entry_name": "SNSP  XI",
        "event_total": 77,
        "has_played": true,
        "id": 183947,
        "last_rank": 54416,
        "player_name": "Naganand Yadati",
        "rank": 28885,
        "rank_sort": 28892,
        "total": 2369
      },
      {
        "club_badge_src": null,
        "entry": 29243,
        "entry_name": "GZU",
        "event_total": 62,
        "has_played": true,
        "id": 184882,
        "last_rank": 34051,
        "player_name": "MAK LI",
        "rank": 28885,
        "rank_sort": 28893,
        "total": 2369
      },
      {
        "club_badge_src": "https://fantasy.premierleague.com/gcs/plfpl-production-adobe-approved/plfpl-production/30406/2105c9e0-fbdc-4cf4-8366-08b747914d1e.png",
        "entry": 30406,
        "entry_name": "Tesco Mcneil Deal",
        "event_total": 47,
        "has_played": true,
        "id": 192423,
        "last_rank": 20179,
        "player_name": "George Bickle",
        "rank": 28885,
        "rank_sort": 28894,
        "total": 2369
      },
      {
        "club_badge_src": null,
        "entry": 34095,
        "entry_name": "Rolling Stones",
        "event_total": 73,
        "has_played": true,
        "id": 217732,
        "last_rank": 48197,
        "player_name": "Nasir Shu'aib",
        "rank": 28885,
        "rank_sort": 28895,
        "total": 2369
      },
      {
        "club_badge_src": null,
        "entry": 39090,
        "entry_name": "The Dood United",
        "event_total": 60,
        "has_played": true,
        "id": 250559,
        "last_rank": 31747,
        "player_name": "Mark Lim",
        "rank": 28885,
        "rank_sort": 28896,
        "total": 2369
      },
      {
        "club_badge_src": null,
        "entry": 41596,
        "entry_name": "Sicilian Nights",
        "event_total": 78,
        "has_played": true,
        "id": 266514,
        "last_rank": 56047,
        "player_name": "Don Corleone",
        "rank": 28885,
        "rank_sort": 28897,
        "total": 2369
      },
      {
        "club_badge_src": null,
        "entry": 42582,
        "entry_name": "Linder\u00f6dssvinen",
        "event_total": 48,
        "has_played": true,
        "id": 272809,
        "last_rank": 20983,
        "player_name": "Oskar Fondell",
        "rank": 28885,
        "rank_sort": 28898,
        "total": 2369
      },
      {
        "club_badge_src": null,
        "entry": 51322,
        "entry_name": "2!qu@n\u2019s e1eV@n",
        "event_total": 67,
        "has_played": true,
        "id": 330068,
        "last_rank": 39816,
        "player_name": "Ziquan Long",
        "rank": 28885,
        "rank_sort": 28899,
        "total": 2369
      },
      {
        "club_badge_src": null,
        "entry": 54154,
        "entry_name": "I'm'Eric GOATcia",
        "event_total": 65,
        "has_played": true,
        "id": 348523,
        "last_rank": 37344,
        "player_name": "Archis M",
        "rank": 28885,
        "rank_sort": 28900,
        "total": 2369
      }
    ]
  }
}