{
  "last_updated_data": "2026-05-24T23:28:17Z",
  "league": {
    "admin_entry": null,
    "closed": false,
    "code_privacy": "p",
    "created": "2025-07-20T23:14:33.933835Z",
    "cup_league": 2815434,
    "has_cup": true,
    "id": 314,
    "league_type": "s",
    "max_entries": null,
    "name": "Overall",
    "rank": null,
    "scoring": "c",
    "start_event": 1
  },
  "new_entries": {
    "has_next": false,
    "page": 1,
    "results": []
  },
  "standings": {
    "has_next": true,
    "page": 498,
    "results": [
      {
        "club_badge_src": null,
        "entry": 1198110,
        "entry_name": "First the Wirst",
        "event_total": 51,
        "has_played": true,
        "id": 8314194,
        "last_rank": 19721,
        "player_name": "Stuart Conibear",
        "rank": 24804,
        "rank_sort": 24851,
        "total": 2374
      },
      {
        "club_badge_src": null,
        "entry": 1202669,
        "entry_name": "Shaw to Win",
        "event_total": 60,
        "has_played": true,
        "id": 8345944,
        "last_rank": 27203,
        "player_name": "Gurps Singh",
        "rank": 24804,
        "rank_sort": 24852,
        "total": 2374
      },
      {
        "club_badge_src": null,
        "entry": 1264144,
        "entry_name": "Vardy Bum",
        "event_total": 59,
        "has_played": true,
        "id": 8783312,
        "last_rank": 26230,
        "player_name": "Evan Rhys",
        "rank": 24804,
        "rank_sort": 24853,
        "total": 2374
      },
      {
        "club_badge_src": "https://fantasy.premierleague.com/gcs/plfpl-production-adobe-approved/plfpl-production/1288080/d7bcf4f2-aafd-4b23-964d-a992821308ec.png",
        "entry": 1288080,
        "entry_name": "Vibes FC",
        "event_total": 66,
        "has_played": true,
        "id": 8950598,
        "last_rank": 28906,
        "player_name": "Michael Watson",
        "rank": 24804,
        "rank_sort": 24854,
        "total": 2374
      },
      {
        "club_badge_src": null,
        "entry": 1322225,
        "entry_name": "The Wee Donkeys",
        "event_total": 57,
        "has_played": true,
        "id": 9190747,
        "last_rank": 21159,
        "player_name": "Colm Barrett",
        "rank": 24804,
        "rank_sort": 24855,
        "total": 2374
      },
      {
        "club_badge_src": null,
        "entry": 1355770,
        "entry_name": "Solent FC",
        "event_total": 70,
        "has_played": true,
        "id": 9424375,
        "last_rank": 37589,
        "player_name": "Alex Warry",
        "rank": 24804,
        "rank_sort": 24856,
        "total": 2374
      },
      {
        "club_badge_src": null,
        "entry": 1385223,
        "entry_name": "bowen to be wild",
        "event_total": 70,
        "has_played": true,
        "id": 9634508,
        "last_rank": 37822,
        "player_name": "mitchell cuttell",
        "rank": 24804,
        "rank_sort": 24857,
        "total": 2374
      },
      {
        "club_badge_src": null,
        "entry": 1398658,
        "entry_name": "Nabard ali",
        "event_total": 70,
        "has_played": true,
        "id": 9730702,
        "last_rank": 38016,
        "player_name": "Nabard Ali",
        "rank": 24804,
        "rank_sort": 24858,
        "total": 2374
      },
      {
        "club_badge_src": null,
        "entry": 1526626,
        "entry_name": "Semenyo Later",
        "event_total": 67,
        "has_played": true,
        "id": 10647868,
        "last_rank": 34578,
        "player_name": "Bryn Morgan",
        "rank": 24804,
        "rank_sort": 24859,
        "total": 2374
      },
      {
        "club_badge_src": null,
        "entry": 1550412,
        "entry_name": "Lickityspits",
        "event_total": 55,
        "has_played": true,
        "id": 10824811,
        "last_rank": 22685,
        "player_name": "Jamie Brits",
        "rank": 24804,
        "rank_sort": 24860,
        "total": 2374
      },
      {
        "club_badge_src": null,
        "entry": 1560277,
        "entry_name": "Balotelli-Tubbies",
        "event_total": 68,
        "has_played": true,
        "id": 10896485,
        "last_rank": 35166,
        "player_name": "Sam Spring",
        "rank": 24804,
        "rank_sort": 24861,
        "total": 2374
      },
      {
        "club_badge_src": null,
        "entry": 1568700,
        "entry_name": "PR7",
        "event_total": 60,
        "has_played": true,
        "id": 10958673,
        "last_rank": 27020,
        "player_name": "Peter Ruggiero",
        "rank": 24804,
        "rank_sort": 24862,
        "total": 2374
      },
      {
        "club_badge_src": null,
        "entry": 1605305,
        "entry_name": "Match Of The Way",
        "event_total": 68,
        "has_played": true,
        "id": 11230991,
        "last_rank": 30727,
        "player_name": "Matthew Way",
        "rank": 24804,
        "rank_sort": 24863,
        "total": 2374
      },
      {
        "club_badge_src": null,
        "entry": 1681719,
        "entry_name": "Alisson Wonderland",
        "event_total": 54,
        "has_played": true,
        "id": 11772792,
        "last_rank": 21775,
        "player_name": "Brent Sharpe",
        "rank": 24804,
        "rank_sort": 24864,
        "total": 2374
      },
      {
        "club_badge_src": null,
        "entry": 1793335,
        "entry_name": "Future Kings",
        "event_total": 63,
        "has_played": true,
        "id": 12601673,
        "last_rank": 30060,
        "player_name": "David Kond\u00e9",
        "rank": 24804,
        "rank_sort": 24865,
        "total": 2374
      },
      {
        "club_badge_src": "https://fantasy.premierleague.com/gcs/plfpl-production-adobe-approved/plfpl-production/1852388/a82456ae-80d5-47a4-b079-a18525a9cce4.png",
        "entry": 1852388,
        "entry_name": "Adnan Sensei (\u5148\u751f)",
        "event_total": 68,
        "has_played": true,
        "id": 13034970,
        "last_rank": 35619,
        "player_name": "Adnan Akram",
        "rank": 24804,
        "rank_sort": 24866,
        "total": 2374
      },
      {
        "club_badge_src": "https://fantasy.premierleague.com/gcs/plfpl-production-adobe-approved/plfpl-production/1897169/c334e949-e53f-4993-a256-babcfad32511.png",
        "entry": 1897169,
        "entry_name": "beef cherki",
        "event_total": 46,
        "has_played": true,
        "id": 13372554,
        "last_rank": 16441,
        "player_name": "Josh Stable",
        "rank": 24804,
        "rank_sort": 24867,
        "total": 2374
      },
      {
        "club_badge_src": null,
        "entry": 1914012,
        "entry_name": "La Haa Land",
        "event_total": 49,
        "has_played": true,
        "id": 13494766,
        "last_rank": 18377,
        "player_name": "James Belshaw",
        "rank": 24804,
        "rank_sort": 24868,
        "total": 2374
      },
      {
        "club_badge_src": null,
        "entry": 1988962,
        "entry_name": "M.B",
        "event_total": 52,
        "has_played": true,
        "id": 14051507,
        "last_rank": 20538,
        "player_name": "Morten Breivik",
        "rank": 24804,
        "rank_sort": 24869,
        "total": 2374
      },
      {
        "club_badge_src": null,
        "entry": 2120750,
        "entry_name": "Ascot United",
        "event_total": 50,
        "has_played": true,
        "id": 15064468,
        "last_rank": 19103,
        "player_name": "Rob Jones",
        "rank": 24804,
        "rank_sort": 24870,
        "total": 2374
      },
      {
        "club_badge_src": "https://fantasy.premierleague.com/gcs/plfpl-production-adobe-approved/plfpl-production/2295058/a2ac46fc-8ba5-43de-94e6-bde5f39750a2.png",
        "entry": 2295058,
        "entry_name": "Glock Nine",
        "event_total": 65,
        "has_played": true,
        "id": 16368424,
        "last_rank": 27976,
        "player_name": "Godwin Oloruntola",
        "rank": 24804,
        "rank_sort": 24871,
        "total": 2374
      },
      {
        "club_badge_src": null,
        "entry": 2369779,
        "entry_name": "Deshambles",
        "event_total": 78,
        "has_played": true,
        "id": 16916506,
        "last_rank": 48642,
        "player_name": "Oliver Cook",
        "rank": 24804,
        "rank_sort": 24872,
        "total": 2374
      },
      {
        "club_badge_src": null,
        "entry": 2392999,
        "entry_name": "Aier United",
        "event_total": 38,
        "has_played": true,
        "id": 17094366,
        "last_rank": 11901,
        "player_name": "Nungsang Aier",
        "rank": 24804,
        "rank_sort": 24873,
        "total": 2374
      },
      {
        "club_badge_src": null,
        "entry": 2408034,
        "entry_name": "Morgdavi Utd",
        "event_total": 58,
        "has_played": true,
        "id": 17212280,
        "last_rank": 25330,
        "player_name": "David Morgan",
        "rank": 24804,
        "rank_sort": 24874,
        "total": 2374
      },
      {
        "club_badge_src": null,
        "entry": 2420355,
        "entry_name": "Captain Purdseye",
        "event_total": 59,
        "has_played": true,
        "id": 17303626,
        "last_rank": 22685,
        "player_name": "Jack Purdy",
        "rank": 24804,
        "rank_sort": 24875,
        "total": 2374
      },
      {
        "club_badge_src": null,
        "entry": 2481991,
        "entry_name": "Mebarca Fc",
        "event_total": 43,
        "has_played": true,
        "id": 17759773,
        "last_rank": 14496,
        "player_name": "Abdurrahman Gana",
        "rank": 24804,
        "rank_sort": 24876,
        "total": 2374
      },
      {
        "club_badge_src": "https://fantasy.premierleague.com/gcs/plfpl-production-adobe-approved/plfpl-production/2501079/5ba2b04f-ff27-41d1-bf3c-9cb4783812d8.png",
        "entry": 2501079,
        "entry_name": "B|@ck Ho|3",
        "event_total": 52,
        "has_played": true,
        "id": 17908731,
        "last_rank": 20538,
        "player_name": "Ravi Balan",
        "rank": 24804,
        "rank_sort": 24877,
        "total": 2374
      },
      {
        "club_badge_src": null,
        "entry": 2557276,
        "entry_name": "Legit'z",
        "event_total": 77,
        "has_played": true,
        "id": 18338314,
        "last_rank": 41324,
        "player_name": "David Muguna",
        "rank": 24804,
        "rank_sort": 24878,
        "total": 2374
      },
      {
        "club_badge_src": null,
        "entry": 2641591,
        "entry_name": "Expected Toulouse",
        "event_total": 36,
        "has_played": true,
        "id": 18985834,
        "last_rank": 11034,
        "player_name": "Alex De Souza",
        "rank": 24804,
        "rank_sort": 24879,
        "total": 2374
      },
      {
        "club_badge_src": null,
        "entry": 2717533,
        "entry_name": "Everybody Wirtz",
        "event_total": 68,
        "has_played": true,
        "id": 19553478,
        "last_rank": 35619,
        "player_name": "Cian Mulligan",
        "rank": 24804,
        "rank_sort": 24880,
        "total": 2374
      },
      {
        "club_badge_src": null,
        "entry": 2848684,
        "entry_name": "Tea & Busquets",
        "event_total": 49,
        "has_played": true,
        "id": 20827099,
        "last_rank": 18377,
        "player_name": "Jim Quigley",
        "rank": 24804,
        "rank_sort": 24881,
        "total": 2374
      },
      {
        "club_badge_src": null,
        "entry": 2999187,
        "entry_name": "Charli xGx",
        "event_total": 65,
        "has_played": true,
        "id": 22059949,
        "last_rank": 31747,
        "player_name": "Evan Jenkins",
        "rank": 24804,
        "rank_sort": 24882,
        "total": 2374
      },
      {
        "club_badge_src": null,
        "entry": 3056146,
        "entry_name": "\u0392\u03b1\u03b3\u03b9\u03b1\u03b4\u03bf\u03bb\u03b9\u03b9\u03b9\u03b9\u03b9\u03b9\u03b9\u03b9\u03b9\u03b9\u03b9\u03b4",
        "event_total": 69,
        "has_played": true,
        "id": 22500092,
        "last_rank": 36624,
        "player_name": "Makis Smaragdis",
        "rank": 24804,
        "rank_sort": 24883,
        "total": 2374
      },
      {
        "club_badge_src": null,
        "entry": 3102750,
        "entry_name": "Hmmm",
        "event_total": 76,
        "has_played": true,
        "id": 22876307,
        "last_rank": 40297,
        "player_name": "Ian Gibson",
        "rank": 24804,
        "rank_sort": 24884,
        "total": 2374
      },
      {
        "club_badge_src": null,
        "entry": 3109696,
        "entry_name": "chain gang",
        "event_total": 69,
        "has_played": true,
        "id": 22947478,
        "last_rank": 36831,
        "player_name": "vibhor agarwal",
        "rank": 24804,
        "rank_sort": 24885,
        "total": 2374
      },
      {
        "club_badge_src": null,
        "entry": 3136771,
        "entry_name": "s0 xI",
        "event_total": 71,
        "has_played": true,
        "id": 23155301,
        "last_rank": 39246,
        "player_name": "Scott Wallace",
        "rank": 24804,
        "rank_sort": 24886,
        "total": 2374
      },
      {
        "club_badge_src": null,
        "entry": 3201547,
        "entry_name": "Tchiiiiiz",
        "event_total": 53,
        "has_played": true,
        "id": 23666334,
        "last_rank": 21392,
        "player_name": "Ilyes SAADI",
        "rank": 24804,
        "rank_sort": 24887,
        "total": 2374
      },
      {
        "club_badge_src": null,
        "entry": 3302545,
        "entry_name": "Oyuok Fresh Mart",
        "event_total": 71,
        "has_played": true,
        "id": 24460980,
        "last_rank": 38644,
        "player_name": "Amelko Kiko",
        "rank": 24804,
        "rank_sort": 24888,
        "total": 2374
      },
      {
        "club_badge_src": null,
        "entry": 3521314,
        "entry_name": "MILI ROVERS",
        "event_total": 80,
        "has_played": true,
        "id": 26205603,
        "last_rank": 52205,
        "player_name": "Om J",
        "rank": 24804,
        "rank_sort": 24889,
        "total": 2374
      },
      {
        "club_badge_src": null,
        "entry": 3651613,
        "entry_name": "Team of Glory",
        "event_total": 63,
        "has_played": true,
        "id": 27219036,
        "last_rank": 29904,
        "player_name": "Juha Wahasilta",
        "rank": 24804,
        "rank_sort": 24890,
        "total": 2374
      },
      {
        "club_badge_src": null,
        "entry": 3693117,
        "entry_name": "Zer0 5huks Given",
        "event_total": 70,
        "has_played": true,
        "id": 27551895,
        "last_rank": 33147,
        "player_name": "Stephen Higgins",
        "rank": 24804,
        "rank_sort": 24891,
        "total": 2374
      },
      {
        "club_badge_src": null,
        "entry": 3765752,
        "entry_name": "How I met your Mata",
        "event_total": 65,
        "has_played": true,
        "id": 28117181,
        "last_rank": 27976,
        "player_name": "Connor Gallagher",
        "rank": 24804,
        "rank_sort": 24892,
        "total": 2374
      },
      {
        "club_badge_src": null,
        "entry": 3799527,
        "entry_name": "Rice Rice baby",
        "event_total": 62,
        "has_played": true,
        "id": 28402043,
        "last_rank": 25172,
        "player_name": "Pierre Dutton",
        "rank": 24804,
        "rank_sort": 24893,
        "total": 2374
      },
      {
        "club_badge_src": null,
        "entry": 3977496,
        "entry_name": "Huba Buba",
        "event_total": 73,
        "has_played": true,
        "id": 29938499,
        "last_rank": 36624,
        "player_name": "Viktor Georgiev",
        "rank": 24804,
        "rank_sort": 24894,
        "total": 2374
      },
      {
        "club_badge_src": null,
        "entry": 4130255,
        "entry_name": "Nobby Nuts",
        "event_total": 69,
        "has_played": true,
        "id": 31211205,
        "last_rank": 36831,
        "player_name": "Paul Maxwell",
        "rank": 24804,
        "rank_sort": 24895,
        "total": 2374
      },
      {
        "club_badge_src": null,
        "entry": 4193613,
        "entry_name": "Centre Ampadu",
        "event_total": 56,
        "has_played": true,
        "id": 31738503,
        "last_rank": 23656,
        "player_name": "Liam Ware",
        "rank": 24804,
        "rank_sort": 24896,
        "total": 2374
      },
      {
        "club_badge_src": null,
        "entry": 4347331,
        "entry_name": "NorthBrunswickRovers",
        "event_total": 78,
        "has_played": true,
        "id": 33010627,
        "last_rank": 48898,
        "player_name": "Jim Paviolitis",
        "rank": 24804,
        "rank_sort": 24897,
        "total": 2374
      },
      {
        "club_badge_src": null,
        "entry": 4378492,
        "entry_name": "Don't Hato player",
        "event_total": 61,
        "has_played": true,
        "id": 33271659,
        "last_rank": 28150,
        "player_name": "Aaron Nicholas",
        "rank": 24804,
        "rank_sort": 24898,
        "total": 2374
      },
      {
        "club_badge_src": null,
        "entry": 4464934,
        "entry_name": "Over Land And Sea",
        "event_total": 70,
        "has_played": true,
        "id": 34019244,
        "last_rank": 38163,
        "player_name": "Dave Rodney",
        "rank": 24804,
        "rank_sort": 24899,
        "total": 2374
      },
      {
        "club_badge_src": null,
        "entry": 4494037,
        "entry_name": "Gazza Strip Club",
        "event_total": 56,
        "has_played": true,
        "id": 34257635,
        "last_rank": 23522,
        "player_name": "Steven King",
        "rank": 24804,
        "rank_sort": 24900,
        "total": 2374
      }
    ]
  }
}