{
  "last_updated_data": "2026-05-24T23:28:17Z",
  "league": {
    "admin_entry": null,
    "closed": false,
    "code_privacy": "p",
    "created": "2025-07-20T23:14:33.933835Z",
    "cup_league": 2815434,
    "has_cup": true,
    "id": 314,
    "league_type": "s",
    "max_entries": null,
    "name": "Overall",
    "rank": null,
    "scoring": "c",
    "start_event": 1
  },
  "new_entries": {
    "has_next": false,
    "page": 1,
    "results": []
  },
  "standings": {
    "has_next": true,
    "page": 21,
    "results": [
      {
        "club_badge_src": null,
        "entry": 5420857,
        "entry_name": "Zu bi or not Zu bi",
        "event_total": 63,
        "has_played": true,
        "id": 42160587,
        "last_rank": 1231,
        "player_name": "Jacob Lees",
        "rank": 999,
        "rank_sort": 1001,
        "total": 2447
      },
      {
        "club_badge_src": null,
        "entry": 6836807,
        "entry_name": "Peps Shiny bald head",
        "event_total": 56,
        "has_played": true,
        "id": 54766413,
        "last_rank": 870,
        "player_name": "Peps Shiny Bald Head Mo",
        "rank": 999,
        "rank_sort": 1002,
        "total": 2447
      },
      {
        "club_badge_src": "https://fantasy.premierleague.com/gcs/plfpl-production-adobe-approved/plfpl-production/15115/887e72f9-ca95-4b1b-a4b0-969dd1be9f35.png",
        "entry": 15115,
        "entry_name": "Titta vi flyger!",
        "event_total": 64,
        "has_played": true,
        "id": 92460,
        "last_rank": 1302,
        "player_name": "Kenny Liljeblad",
        "rank": 1003,
        "rank_sort": 1003,
        "total": 2447
      },
      {
        "club_badge_src": null,
        "entry": 19310,
        "entry_name": "My Rash Is Gone",
        "event_total": 67,
        "has_played": true,
        "id": 120164,
        "last_rank": 1523,
        "player_name": "James Law",
        "rank": 1003,
        "rank_sort": 1004,
        "total": 2447
      },
      {
        "club_badge_src": "https://fantasy.premierleague.com/gcs/plfpl-production-adobe-approved/plfpl-production/39646/10ef0e8e-c560-49ba-9f21-99fd0565e07c.png",
        "entry": 39646,
        "entry_name": "Haraldsby Wranglers",
        "event_total": 68,
        "has_played": true,
        "id": 254051,
        "last_rank": 1609,
        "player_name": "Mathias Johansson",
        "rank": 1003,
        "rank_sort": 1005,
        "total": 2447
      },
      {
        "club_badge_src": "https://fantasy.premierleague.com/gcs/plfpl-production-adobe-approved/plfpl-production/73409/b9027491-ba9c-4460-9598-0c09fbd6f885.png",
        "entry": 73409,
        "entry_name": "Change Name",
        "event_total": 52,
        "has_played": true,
        "id": 477153,
        "last_rank": 704,
        "player_name": "Filip Horvat",
        "rank": 1003,
        "rank_sort": 1006,
        "total": 2447
      },
      {
        "club_badge_src": "https://fantasy.premierleague.com/gcs/plfpl-production-adobe-approved/plfpl-production/108909/0633713e-446e-491b-ac0d-740011e30fab.png",
        "entry": 108909,
        "entry_name": "Team KAT",
        "event_total": 60,
        "has_played": true,
        "id": 710010,
        "last_rank": 1064,
        "player_name": "Katrine Dunseth",
        "rank": 1003,
        "rank_sort": 1007,
        "total": 2447
      },
      {
        "club_badge_src": null,
        "entry": 193136,
        "entry_name": "Sissel Gran",
        "event_total": 77,
        "has_played": true,
        "id": 1279989,
        "last_rank": 2526,
        "player_name": "Sivert Berg",
        "rank": 1003,
        "rank_sort": 1008,
        "total": 2447
      },
      {
        "club_badge_src": null,
        "entry": 239422,
        "entry_name": "49'ers",
        "event_total": 55,
        "has_played": true,
        "id": 1593182,
        "last_rank": 825,
        "player_name": "Bekoshvili ..",
        "rank": 1003,
        "rank_sort": 1009,
        "total": 2447
      },
      {
        "club_badge_src": null,
        "entry": 275209,
        "entry_name": "Season 3",
        "event_total": 64,
        "has_played": true,
        "id": 1831533,
        "last_rank": 1302,
        "player_name": "Steve Mitchell",
        "rank": 1003,
        "rank_sort": 1010,
        "total": 2447
      },
      {
        "club_badge_src": null,
        "entry": 290593,
        "entry_name": "iFlying Devils",
        "event_total": 56,
        "has_played": true,
        "id": 1937800,
        "last_rank": 867,
        "player_name": "Sarthak Bharara",
        "rank": 1003,
        "rank_sort": 1011,
        "total": 2447
      },
      {
        "club_badge_src": "https://fantasy.premierleague.com/gcs/plfpl-production-adobe-approved/plfpl-production/330482/5047bee8-c126-4bf5-9f1a-2cb7b8936eaf.png",
        "entry": 330482,
        "entry_name": "Boehlys Boys",
        "event_total": 54,
        "has_played": true,
        "id": 2213627,
        "last_rank": 782,
        "player_name": "Robert Jones",
        "rank": 1003,
        "rank_sort": 1012,
        "total": 2447
      },
      {
        "club_badge_src": "https://fantasy.premierleague.com/gcs/plfpl-production-adobe-approved/plfpl-production/346829/7726aa3c-4020-4dcc-9ec9-3e782ec8b2af.png",
        "entry": 346829,
        "entry_name": "Bamford and Sons",
        "event_total": 54,
        "has_played": true,
        "id": 2321525,
        "last_rank": 791,
        "player_name": "Footy Canuck",
        "rank": 1003,
        "rank_sort": 1013,
        "total": 2447
      },
      {
        "club_badge_src": null,
        "entry": 1846544,
        "entry_name": "Het Broodzak",
        "event_total": 58,
        "has_played": true,
        "id": 12992713,
        "last_rank": 973,
        "player_name": "Sebastian De Vuyst",
        "rank": 1003,
        "rank_sort": 1014,
        "total": 2447
      },
      {
        "club_badge_src": null,
        "entry": 2616828,
        "entry_name": "SaturdayNight Faivre",
        "event_total": 58,
        "has_played": true,
        "id": 18802616,
        "last_rank": 973,
        "player_name": "Loukas Faivre",
        "rank": 1003,
        "rank_sort": 1015,
        "total": 2447
      },
      {
        "club_badge_src": null,
        "entry": 2673043,
        "entry_name": "Sanners Kamrater",
        "event_total": 61,
        "has_played": true,
        "id": 19218870,
        "last_rank": 1130,
        "player_name": "Ludvig Sanner",
        "rank": 1003,
        "rank_sort": 1016,
        "total": 2447
      },
      {
        "club_badge_src": null,
        "entry": 2689628,
        "entry_name": "MurderonZidanesFloor",
        "event_total": 72,
        "has_played": true,
        "id": 19345616,
        "last_rank": 1961,
        "player_name": "John Gregory",
        "rank": 1003,
        "rank_sort": 1017,
        "total": 2447
      },
      {
        "club_badge_src": null,
        "entry": 2776071,
        "entry_name": "TeamMBJ",
        "event_total": 52,
        "has_played": true,
        "id": 20259181,
        "last_rank": 710,
        "player_name": "Martin Brede Johansen",
        "rank": 1003,
        "rank_sort": 1018,
        "total": 2447
      },
      {
        "club_badge_src": null,
        "entry": 2974588,
        "entry_name": "The Legend of Yoro \u2b50",
        "event_total": 81,
        "has_played": true,
        "id": 21857929,
        "last_rank": 3066,
        "player_name": "Ryan Smith",
        "rank": 1003,
        "rank_sort": 1019,
        "total": 2447
      },
      {
        "club_badge_src": null,
        "entry": 4225242,
        "entry_name": "Erling Braut 5aaland",
        "event_total": 65,
        "has_played": true,
        "id": 32009215,
        "last_rank": 1358,
        "player_name": "Akaber Bd",
        "rank": 1003,
        "rank_sort": 1020,
        "total": 2447
      },
      {
        "club_badge_src": null,
        "entry": 5129804,
        "entry_name": "FPL Thorsen",
        "event_total": 66,
        "has_played": true,
        "id": 39673024,
        "last_rank": 1438,
        "player_name": "\u00d8rjan Thorsen",
        "rank": 1003,
        "rank_sort": 1021,
        "total": 2447
      },
      {
        "club_badge_src": null,
        "entry": 7131823,
        "entry_name": "Globo Gym Cobras",
        "event_total": 67,
        "has_played": true,
        "id": 57477178,
        "last_rank": 1523,
        "player_name": "Jack Thornton",
        "rank": 1003,
        "rank_sort": 1022,
        "total": 2447
      },
      {
        "club_badge_src": null,
        "entry": 7310364,
        "entry_name": "MUFC",
        "event_total": 67,
        "has_played": true,
        "id": 59173986,
        "last_rank": 1504,
        "player_name": "Abdallah Alfalah",
        "rank": 1003,
        "rank_sort": 1023,
        "total": 2447
      },
      {
        "club_badge_src": null,
        "entry": 7739305,
        "entry_name": "Best of the Wirtz",
        "event_total": 61,
        "has_played": true,
        "id": 63524605,
        "last_rank": 1121,
        "player_name": "Jack Bradley",
        "rank": 1003,
        "rank_sort": 1024,
        "total": 2447
      },
      {
        "club_badge_src": null,
        "entry": 10349659,
        "entry_name": "Equipish",
        "event_total": 48,
        "has_played": true,
        "id": 87605596,
        "last_rank": 456,
        "player_name": "Daniel Pinzon",
        "rank": 1003,
        "rank_sort": 1025,
        "total": 2447
      },
      {
        "club_badge_src": null,
        "entry": 40263,
        "entry_name": "Holy Boehly",
        "event_total": 65,
        "has_played": true,
        "id": 258130,
        "last_rank": 1130,
        "player_name": "Leon Croitoru",
        "rank": 1026,
        "rank_sort": 1026,
        "total": 2447
      },
      {
        "club_badge_src": "https://fantasy.premierleague.com/gcs/plfpl-production-adobe-approved/plfpl-production/63083/0c01f6f4-f81f-42bf-8db5-00564cd01f94.png",
        "entry": 63083,
        "entry_name": "Ha Cunha Mateta",
        "event_total": 40,
        "has_played": true,
        "id": 406895,
        "last_rank": 376,
        "player_name": "Andreas Eriksen",
        "rank": 1026,
        "rank_sort": 1027,
        "total": 2447
      },
      {
        "club_badge_src": "https://fantasy.premierleague.com/gcs/plfpl-production-adobe-approved/plfpl-production/1709006/32c0dc1d-a752-418a-afd4-c4ca9f5ad560.png",
        "entry": 1709006,
        "entry_name": "Glock9",
        "event_total": 69,
        "has_played": true,
        "id": 11973916,
        "last_rank": 1372,
        "player_name": "Divinesh Singh",
        "rank": 1026,
        "rank_sort": 1028,
        "total": 2447
      },
      {
        "club_badge_src": null,
        "entry": 3014794,
        "entry_name": "Nice to Michu",
        "event_total": 63,
        "has_played": true,
        "id": 22179718,
        "last_rank": 1263,
        "player_name": "Tom Henwood",
        "rank": 1026,
        "rank_sort": 1029,
        "total": 2447
      },
      {
        "club_badge_src": null,
        "entry": 4065153,
        "entry_name": "Vokes 4 Ballon d'Or",
        "event_total": 65,
        "has_played": true,
        "id": 30679247,
        "last_rank": 1130,
        "player_name": "Joseph Heath",
        "rank": 1026,
        "rank_sort": 1030,
        "total": 2447
      },
      {
        "club_badge_src": null,
        "entry": 4824848,
        "entry_name": "Red Devils year",
        "event_total": 63,
        "has_played": true,
        "id": 37158302,
        "last_rank": 1240,
        "player_name": "Simon \u00d8rpetvedt Nilsen",
        "rank": 1026,
        "rank_sort": 1031,
        "total": 2447
      },
      {
        "club_badge_src": null,
        "entry": 5074879,
        "entry_name": "Champion's XI",
        "event_total": 60,
        "has_played": true,
        "id": 39220458,
        "last_rank": 1079,
        "player_name": "George Colvin",
        "rank": 1026,
        "rank_sort": 1032,
        "total": 2447
      },
      {
        "club_badge_src": null,
        "entry": 5412691,
        "entry_name": "Acunha Mateta",
        "event_total": 69,
        "has_played": true,
        "id": 42092191,
        "last_rank": 1689,
        "player_name": "Ryan Pogue",
        "rank": 1026,
        "rank_sort": 1033,
        "total": 2447
      },
      {
        "club_badge_src": "https://fantasy.premierleague.com/gcs/plfpl-production-adobe-approved/plfpl-production/5429537/01c9a3c8-e7dc-4b09-bfb6-b809b7d520a7.png",
        "entry": 5429537,
        "entry_name": "Oboz D Boss",
        "event_total": 74,
        "has_played": true,
        "id": 42232631,
        "last_rank": 2215,
        "player_name": "Akeem Arisekola",
        "rank": 1026,
        "rank_sort": 1034,
        "total": 2447
      },
      {
        "club_badge_src": "https://fantasy.premierleague.com/gcs/plfpl-production-adobe-approved/plfpl-production/6636104/1a2351b6-9e35-4366-a53e-2d34d7e9958a.png",
        "entry": 6636104,
        "entry_name": "SunCity \u2600\ufe0f",
        "event_total": 66,
        "has_played": true,
        "id": 53041978,
        "last_rank": 1190,
        "player_name": "Mostafa Shams",
        "rank": 1026,
        "rank_sort": 1035,
        "total": 2447
      },
      {
        "club_badge_src": null,
        "entry": 42901,
        "entry_name": "Roger Rogers",
        "event_total": 67,
        "has_played": true,
        "id": 274800,
        "last_rank": 1563,
        "player_name": "Brandon H",
        "rank": 1036,
        "rank_sort": 1036,
        "total": 2447
      },
      {
        "club_badge_src": null,
        "entry": 95688,
        "entry_name": "No Salah No Party",
        "event_total": 54,
        "has_played": true,
        "id": 625160,
        "last_rank": 496,
        "player_name": "Sim\u00e3o Ferreira",
        "rank": 1036,
        "rank_sort": 1037,
        "total": 2447
      },
      {
        "club_badge_src": null,
        "entry": 547938,
        "entry_name": "GoWithTheFlo",
        "event_total": 46,
        "has_played": true,
        "id": 3687581,
        "last_rank": 519,
        "player_name": "Matthew Bowen",
        "rank": 1036,
        "rank_sort": 1038,
        "total": 2447
      },
      {
        "club_badge_src": null,
        "entry": 1634716,
        "entry_name": "PER\u0141A WIEPRZ",
        "event_total": 49,
        "has_played": true,
        "id": 11442264,
        "last_rank": 609,
        "player_name": "Norbert Kulisz",
        "rank": 1036,
        "rank_sort": 1039,
        "total": 2447
      },
      {
        "club_badge_src": null,
        "entry": 5214557,
        "entry_name": "Karim the Dream",
        "event_total": 71,
        "has_played": true,
        "id": 40392976,
        "last_rank": 1551,
        "player_name": "Hei\u00f0ar Logi Jonsson",
        "rank": 1036,
        "rank_sort": 1040,
        "total": 2447
      },
      {
        "club_badge_src": null,
        "entry": 646336,
        "entry_name": "Mark Fahmy",
        "event_total": 61,
        "has_played": true,
        "id": 4367895,
        "last_rank": 951,
        "player_name": "Mr Mark",
        "rank": 1041,
        "rank_sort": 1041,
        "total": 2447
      },
      {
        "club_badge_src": "https://fantasy.premierleague.com/gcs/plfpl-production-adobe-approved/plfpl-production/1309752/f6ff80ba-065d-4dee-839d-8c313a2d3876.png",
        "entry": 1309752,
        "entry_name": "Deportivo Gr\u00f6ns\u00e5pa",
        "event_total": 56,
        "has_played": true,
        "id": 9103942,
        "last_rank": 727,
        "player_name": "Olle Th\u00f6rn",
        "rank": 1041,
        "rank_sort": 1042,
        "total": 2447
      },
      {
        "club_badge_src": null,
        "entry": 8272238,
        "entry_name": "Cold Parmar",
        "event_total": 62,
        "has_played": true,
        "id": 68435500,
        "last_rank": 1005,
        "player_name": "Hursh Parmar",
        "rank": 1041,
        "rank_sort": 1043,
        "total": 2447
      },
      {
        "club_badge_src": "https://fantasy.premierleague.com/gcs/plfpl-production-adobe-approved/plfpl-production/9407/b6e30c23-6859-498c-a093-685b69780914.png",
        "entry": 9407,
        "entry_name": "Rafa the Gaffa",
        "event_total": 57,
        "has_played": true,
        "id": 55286,
        "last_rank": 769,
        "player_name": "Rafat Hamdouk",
        "rank": 1044,
        "rank_sort": 1044,
        "total": 2447
      },
      {
        "club_badge_src": null,
        "entry": 5060721,
        "entry_name": "TC XI",
        "event_total": 79,
        "has_played": true,
        "id": 39105744,
        "last_rank": 2926,
        "player_name": "Stuart Woodroff-Turner",
        "rank": 1044,
        "rank_sort": 1045,
        "total": 2447
      },
      {
        "club_badge_src": null,
        "entry": 4069554,
        "entry_name": "Salah",
        "event_total": 72,
        "has_played": true,
        "id": 30715031,
        "last_rank": 1657,
        "player_name": "Salah Ramadan",
        "rank": 1046,
        "rank_sort": 1046,
        "total": 2447
      },
      {
        "club_badge_src": null,
        "entry": 6597141,
        "entry_name": "FC Twente Benson",
        "event_total": 63,
        "has_played": true,
        "id": 52695131,
        "last_rank": 1282,
        "player_name": "Jordan Downes",
        "rank": 1046,
        "rank_sort": 1047,
        "total": 2447
      },
      {
        "club_badge_src": "https://fantasy.premierleague.com/gcs/plfpl-production-adobe-approved/plfpl-production/747671/014b310a-a27a-484f-b635-bb0151d95505.png",
        "entry": 747671,
        "entry_name": "Amadness",
        "event_total": 76,
        "has_played": true,
        "id": 5086635,
        "last_rank": 2042,
        "player_name": "Adam OD",
        "rank": 1048,
        "rank_sort": 1048,
        "total": 2447
      },
      {
        "club_badge_src": null,
        "entry": 3787528,
        "entry_name": "Tax Xl",
        "event_total": 53,
        "has_played": true,
        "id": 28296845,
        "last_rank": 776,
        "player_name": "Abdur Rob Tanvir",
        "rank": 1048,
        "rank_sort": 1049,
        "total": 2447
      },
      {
        "club_badge_src": null,
        "entry": 5972678,
        "entry_name": "Mr Carpe diem",
        "event_total": 64,
        "has_played": true,
        "id": 47006013,
        "last_rank": 1350,
        "player_name": "Oliwer Hellstrm",
        "rank": 1050,
        "rank_sort": 1050,
        "total": 2446
      }
    ]
  }
}