{
  "last_updated_data": "2026-05-24T23:28:17Z",
  "league": {
    "admin_entry": null,
    "closed": false,
    "code_privacy": "p",
    "created": "2025-07-20T23:14:33.933835Z",
    "cup_league": 2815434,
    "has_cup": true,
    "id": 314,
    "league_type": "s",
    "max_entries": null,
    "name": "Overall",
    "rank": null,
    "scoring": "c",
    "start_event": 1
  },
  "new_entries": {
    "has_next": false,
    "page": 1,
    "results": []
  },
  "standings": {
    "has_next": true,
    "page": 1439,
    "results": [
      {
        "club_badge_src": null,
        "entry": 4543377,
        "entry_name": "Krul Sommer",
        "event_total": 45,
        "has_played": true,
        "id": 34662832,
        "last_rank": 51403,
        "player_name": "Mikey Fowler",
        "rank": 71654,
        "rank_sort": 71901,
        "total": 2339
      },
      {
        "club_badge_src": null,
        "entry": 4589962,
        "entry_name": "Wakey's Wanderers",
        "event_total": 56,
        "has_played": true,
        "id": 35048517,
        "last_rank": 70600,
        "player_name": "Ryan Wakefield",
        "rank": 71654,
        "rank_sort": 71902,
        "total": 2339
      },
      {
        "club_badge_src": "https://fantasy.premierleague.com/gcs/plfpl-production-adobe-approved/plfpl-production/4598325/fa0fa852-a600-4fae-8bf7-e0fd3bfeaf9c.png",
        "entry": 4598325,
        "entry_name": "Delicate_Viking",
        "event_total": 61,
        "has_played": true,
        "id": 35121778,
        "last_rank": 81420,
        "player_name": "Anshul Vashisht",
        "rank": 71654,
        "rank_sort": 71903,
        "total": 2339
      },
      {
        "club_badge_src": null,
        "entry": 4643357,
        "entry_name": "mid tabler",
        "event_total": 70,
        "has_played": true,
        "id": 35517552,
        "last_rank": 103526,
        "player_name": "Sondre Kallhovd",
        "rank": 71654,
        "rank_sort": 71904,
        "total": 2339
      },
      {
        "club_badge_src": null,
        "entry": 4675258,
        "entry_name": "The Slot Machines",
        "event_total": 65,
        "has_played": true,
        "id": 35815158,
        "last_rank": 72702,
        "player_name": "Adam Reay",
        "rank": 71654,
        "rank_sort": 71905,
        "total": 2339
      },
      {
        "club_badge_src": null,
        "entry": 4676798,
        "entry_name": "Team Tappers",
        "event_total": 54,
        "has_played": true,
        "id": 35828977,
        "last_rank": 66848,
        "player_name": "Andrew Taplin",
        "rank": 71654,
        "rank_sort": 71906,
        "total": 2339
      },
      {
        "club_badge_src": null,
        "entry": 4746461,
        "entry_name": "Howe's She Cuttin'",
        "event_total": 55,
        "has_played": true,
        "id": 36521936,
        "last_rank": 68957,
        "player_name": "Alan Coss",
        "rank": 71654,
        "rank_sort": 71907,
        "total": 2339
      },
      {
        "club_badge_src": "https://fantasy.premierleague.com/gcs/plfpl-production-adobe-approved/plfpl-production/4833578/c8687d57-2971-4833-96b9-a4f14cf09df6.png",
        "entry": 4833578,
        "entry_name": "Reimaneitors",
        "event_total": 56,
        "has_played": true,
        "id": 37230010,
        "last_rank": 70985,
        "player_name": "Cristobal Reimann",
        "rank": 71654,
        "rank_sort": 71908,
        "total": 2339
      },
      {
        "club_badge_src": null,
        "entry": 4880240,
        "entry_name": "No Palmer No Party",
        "event_total": 49,
        "has_played": true,
        "id": 37620575,
        "last_rank": 57857,
        "player_name": "William Chenery",
        "rank": 71654,
        "rank_sort": 71909,
        "total": 2339
      },
      {
        "club_badge_src": null,
        "entry": 4883570,
        "entry_name": "Sjamson",
        "event_total": 66,
        "has_played": true,
        "id": 37648967,
        "last_rank": 93186,
        "player_name": "Sam Crowther",
        "rank": 71654,
        "rank_sort": 71910,
        "total": 2339
      },
      {
        "club_badge_src": null,
        "entry": 4920656,
        "entry_name": "Quieffer Moore",
        "event_total": 78,
        "has_played": true,
        "id": 37954064,
        "last_rank": 126088,
        "player_name": "Luke Caldecott",
        "rank": 71654,
        "rank_sort": 71911,
        "total": 2339
      },
      {
        "club_badge_src": null,
        "entry": 4955154,
        "entry_name": "Exellent Tekkers",
        "event_total": 83,
        "has_played": true,
        "id": 38236716,
        "last_rank": 142194,
        "player_name": "Lauren Exell",
        "rank": 71654,
        "rank_sort": 71912,
        "total": 2339
      },
      {
        "club_badge_src": null,
        "entry": 5023968,
        "entry_name": "Boswall Boys",
        "event_total": 40,
        "has_played": true,
        "id": 38800654,
        "last_rank": 43849,
        "player_name": "Fraser Moir",
        "rank": 71654,
        "rank_sort": 71913,
        "total": 2339
      },
      {
        "club_badge_src": null,
        "entry": 5038221,
        "entry_name": "Wirtz going on?",
        "event_total": 34,
        "has_played": true,
        "id": 38915846,
        "last_rank": 36348,
        "player_name": "Jeremy Clifton",
        "rank": 71654,
        "rank_sort": 71914,
        "total": 2339
      },
      {
        "club_badge_src": null,
        "entry": 5056352,
        "entry_name": "Akalenje",
        "event_total": 59,
        "has_played": true,
        "id": 39069457,
        "last_rank": 77050,
        "player_name": "Martin Akal",
        "rank": 71654,
        "rank_sort": 71915,
        "total": 2339
      },
      {
        "club_badge_src": "https://fantasy.premierleague.com/gcs/plfpl-production-adobe-approved/plfpl-production/5085127/277c1ceb-b88d-4e5a-ad2f-9125ac6ba020.png",
        "entry": 5085127,
        "entry_name": "LanniSTARZ",
        "event_total": 49,
        "has_played": true,
        "id": 39302178,
        "last_rank": 58071,
        "player_name": "Nnamdi Nwachukwu",
        "rank": 71654,
        "rank_sort": 71916,
        "total": 2339
      },
      {
        "club_badge_src": null,
        "entry": 5144788,
        "entry_name": "AP Allstars",
        "event_total": 49,
        "has_played": true,
        "id": 39800004,
        "last_rank": 57857,
        "player_name": "Ankit Patel",
        "rank": 71654,
        "rank_sort": 71917,
        "total": 2339
      },
      {
        "club_badge_src": null,
        "entry": 5160700,
        "entry_name": "Giuseppe",
        "event_total": 68,
        "has_played": true,
        "id": 39934305,
        "last_rank": 98183,
        "player_name": "Giuseppe Cassinelli",
        "rank": 71654,
        "rank_sort": 71918,
        "total": 2339
      },
      {
        "club_badge_src": null,
        "entry": 5194316,
        "entry_name": "Freddie's XI",
        "event_total": 63,
        "has_played": true,
        "id": 40215926,
        "last_rank": 86304,
        "player_name": "Freddie Lewendon",
        "rank": 71654,
        "rank_sort": 71919,
        "total": 2339
      },
      {
        "club_badge_src": null,
        "entry": 5206148,
        "entry_name": "Henrik's Heroes",
        "event_total": 54,
        "has_played": true,
        "id": 40322658,
        "last_rank": 67063,
        "player_name": "Connor Kerr",
        "rank": 71654,
        "rank_sort": 71920,
        "total": 2339
      },
      {
        "club_badge_src": null,
        "entry": 5213125,
        "entry_name": "Mo' Goals",
        "event_total": 63,
        "has_played": true,
        "id": 40381178,
        "last_rank": 86304,
        "player_name": "Jenny and Sophie Cunliffe",
        "rank": 71654,
        "rank_sort": 71921,
        "total": 2339
      },
      {
        "club_badge_src": null,
        "entry": 5264097,
        "entry_name": "Slot Machine",
        "event_total": 64,
        "has_played": true,
        "id": 40800203,
        "last_rank": 88594,
        "player_name": "Einar Kals\u00e6g",
        "rank": 71654,
        "rank_sort": 71922,
        "total": 2339
      },
      {
        "club_badge_src": null,
        "entry": 5271253,
        "entry_name": "Bayer Neverlusen",
        "event_total": 73,
        "has_played": true,
        "id": 40855574,
        "last_rank": 111669,
        "player_name": "Steven Black",
        "rank": 71654,
        "rank_sort": 71923,
        "total": 2339
      },
      {
        "club_badge_src": null,
        "entry": 5329617,
        "entry_name": "Szoboszlai4aWhiteGuy",
        "event_total": 70,
        "has_played": true,
        "id": 41317332,
        "last_rank": 103054,
        "player_name": "Ben Hodgson",
        "rank": 71654,
        "rank_sort": 71924,
        "total": 2339
      },
      {
        "club_badge_src": null,
        "entry": 5339453,
        "entry_name": "B FC",
        "event_total": 51,
        "has_played": true,
        "id": 41405511,
        "last_rank": 61606,
        "player_name": "Betty Idemudia",
        "rank": 71654,
        "rank_sort": 71925,
        "total": 2339
      },
      {
        "club_badge_src": null,
        "entry": 5340398,
        "entry_name": "Spook squad surfers",
        "event_total": 50,
        "has_played": true,
        "id": 41415951,
        "last_rank": 59535,
        "player_name": "C M",
        "rank": 71654,
        "rank_sort": 71926,
        "total": 2339
      },
      {
        "club_badge_src": null,
        "entry": 5350707,
        "entry_name": "A.K",
        "event_total": 31,
        "has_played": true,
        "id": 41532067,
        "last_rank": 32879,
        "player_name": "Al-amin Kabir",
        "rank": 71654,
        "rank_sort": 71927,
        "total": 2339
      },
      {
        "club_badge_src": null,
        "entry": 5413480,
        "entry_name": "Kiwi Destroyers",
        "event_total": 71,
        "has_played": true,
        "id": 42098955,
        "last_rank": 105963,
        "player_name": "Andre Mitchell",
        "rank": 71654,
        "rank_sort": 71928,
        "total": 2339
      },
      {
        "club_badge_src": null,
        "entry": 5624545,
        "entry_name": "SirJimWillFixIt",
        "event_total": 62,
        "has_played": true,
        "id": 43969676,
        "last_rank": 83698,
        "player_name": "Stan N",
        "rank": 71654,
        "rank_sort": 71929,
        "total": 2339
      },
      {
        "club_badge_src": null,
        "entry": 5648136,
        "entry_name": "Flo Salah",
        "event_total": 28,
        "has_played": true,
        "id": 44181205,
        "last_rank": 29904,
        "player_name": "William Garrett",
        "rank": 71654,
        "rank_sort": 71930,
        "total": 2339
      },
      {
        "club_badge_src": null,
        "entry": 5656740,
        "entry_name": "Adnan's Fantasy flop",
        "event_total": 53,
        "has_played": true,
        "id": 44254152,
        "last_rank": 65475,
        "player_name": "Adnan Abdulle",
        "rank": 71654,
        "rank_sort": 71931,
        "total": 2339
      },
      {
        "club_badge_src": "https://fantasy.premierleague.com/gcs/plfpl-production-adobe-approved/plfpl-production/5708235/0031b345-e73a-4768-9965-4ade777ffb32.png",
        "entry": 5708235,
        "entry_name": "Hernkrantz FC",
        "event_total": 53,
        "has_played": true,
        "id": 44698813,
        "last_rank": 64943,
        "player_name": "Emil Hernkrantz",
        "rank": 71654,
        "rank_sort": 71932,
        "total": 2339
      },
      {
        "club_badge_src": null,
        "entry": 5714282,
        "entry_name": "Ueland FC",
        "event_total": 43,
        "has_played": true,
        "id": 44751674,
        "last_rank": 48363,
        "player_name": "Martin Ueland",
        "rank": 71654,
        "rank_sort": 71933,
        "total": 2339
      },
      {
        "club_badge_src": null,
        "entry": 5746431,
        "entry_name": "Slot machine",
        "event_total": 58,
        "has_played": true,
        "id": 45035898,
        "last_rank": 74898,
        "player_name": "Frank Richards",
        "rank": 71654,
        "rank_sort": 71934,
        "total": 2339
      },
      {
        "club_badge_src": "https://fantasy.premierleague.com/gcs/plfpl-production-adobe-approved/plfpl-production/5751605/eb0bede8-fcb9-4f71-ac5a-408b5ab92af5.png",
        "entry": 5751605,
        "entry_name": "FC Hekla",
        "event_total": 68,
        "has_played": true,
        "id": 45079794,
        "last_rank": 98183,
        "player_name": "Helle Andreassen",
        "rank": 71654,
        "rank_sort": 71935,
        "total": 2339
      },
      {
        "club_badge_src": null,
        "entry": 5775846,
        "entry_name": "FC Klostermarken",
        "event_total": 52,
        "has_played": true,
        "id": 45287353,
        "last_rank": 63390,
        "player_name": "Julie Lundgaard",
        "rank": 71654,
        "rank_sort": 71936,
        "total": 2339
      },
      {
        "club_badge_src": null,
        "entry": 5806550,
        "entry_name": "Kriokeris FC",
        "event_total": 43,
        "has_played": true,
        "id": 45557070,
        "last_rank": 48363,
        "player_name": "\u017dygimantas Kerza",
        "rank": 71654,
        "rank_sort": 71937,
        "total": 2339
      },
      {
        "club_badge_src": null,
        "entry": 5837024,
        "entry_name": "Artoota FC",
        "event_total": 44,
        "has_played": true,
        "id": 45817567,
        "last_rank": 49880,
        "player_name": "Dan Green",
        "rank": 71654,
        "rank_sort": 71938,
        "total": 2339
      },
      {
        "club_badge_src": "https://fantasy.premierleague.com/gcs/plfpl-production-adobe-approved/plfpl-production/5968050/50339daf-8a66-42a6-93f8-7431a91f7e0e.png",
        "entry": 5968050,
        "entry_name": "MY UNCLE TEAM",
        "event_total": 57,
        "has_played": true,
        "id": 46957928,
        "last_rank": 73038,
        "player_name": "abdulaziz Alqurashi",
        "rank": 71654,
        "rank_sort": 71939,
        "total": 2339
      },
      {
        "club_badge_src": null,
        "entry": 6044259,
        "entry_name": "Tino Tonali",
        "event_total": 68,
        "has_played": true,
        "id": 47689740,
        "last_rank": 98436,
        "player_name": "Sam Joyner",
        "rank": 71654,
        "rank_sort": 71940,
        "total": 2339
      },
      {
        "club_badge_src": null,
        "entry": 6083848,
        "entry_name": "Rick FC",
        "event_total": 75,
        "has_played": true,
        "id": 48035639,
        "last_rank": 117915,
        "player_name": "Richard Creagh",
        "rank": 71654,
        "rank_sort": 71941,
        "total": 2339
      },
      {
        "club_badge_src": null,
        "entry": 6088480,
        "entry_name": "Ben's 11",
        "event_total": 65,
        "has_played": true,
        "id": 48076596,
        "last_rank": 91006,
        "player_name": "Ben Armstrong",
        "rank": 71654,
        "rank_sort": 71942,
        "total": 2339
      },
      {
        "club_badge_src": null,
        "entry": 6099615,
        "entry_name": "Narcos Old Boys",
        "event_total": 44,
        "has_played": true,
        "id": 48172551,
        "last_rank": 49880,
        "player_name": "Giovanni Li Voti",
        "rank": 71654,
        "rank_sort": 71943,
        "total": 2339
      },
      {
        "club_badge_src": null,
        "entry": 6110076,
        "entry_name": "Chicken Palmer",
        "event_total": 63,
        "has_played": true,
        "id": 48264149,
        "last_rank": 86304,
        "player_name": "Steven Rollis",
        "rank": 71654,
        "rank_sort": 71944,
        "total": 2339
      },
      {
        "club_badge_src": null,
        "entry": 6149960,
        "entry_name": "CunhaStopMbeumo-tion",
        "event_total": 57,
        "has_played": true,
        "id": 48613030,
        "last_rank": 73423,
        "player_name": "Jay Mershdd",
        "rank": 71654,
        "rank_sort": 71945,
        "total": 2339
      },
      {
        "club_badge_src": null,
        "entry": 6301424,
        "entry_name": "awaken",
        "event_total": 75,
        "has_played": true,
        "id": 49959668,
        "last_rank": 116953,
        "player_name": "Heng Heng",
        "rank": 71654,
        "rank_sort": 71946,
        "total": 2339
      },
      {
        "club_badge_src": "https://fantasy.premierleague.com/gcs/plfpl-production-adobe-approved/plfpl-production/6331200/b12c0a9f-17f8-4358-a59d-0d463caa0c6d.png",
        "entry": 6331200,
        "entry_name": "Gabstars",
        "event_total": 64,
        "has_played": true,
        "id": 50314929,
        "last_rank": 88594,
        "player_name": "Gabby Ward",
        "rank": 71654,
        "rank_sort": 71947,
        "total": 2339
      },
      {
        "club_badge_src": null,
        "entry": 6397586,
        "entry_name": "Macdaddios",
        "event_total": 52,
        "has_played": true,
        "id": 50898550,
        "last_rank": 63201,
        "player_name": "James Mcmonagle",
        "rank": 71654,
        "rank_sort": 71948,
        "total": 2339
      },
      {
        "club_badge_src": null,
        "entry": 6450644,
        "entry_name": "RAD",
        "event_total": 85,
        "has_played": true,
        "id": 51368146,
        "last_rank": 150077,
        "player_name": "rory dunn",
        "rank": 71654,
        "rank_sort": 71949,
        "total": 2339
      },
      {
        "club_badge_src": null,
        "entry": 6481723,
        "entry_name": "Stranger mings",
        "event_total": 63,
        "has_played": true,
        "id": 51660943,
        "last_rank": 85932,
        "player_name": "Conan Loughran",
        "rank": 71654,
        "rank_sort": 71950,
        "total": 2339
      }
    ]
  }
}