{
  "last_updated_data": "2026-05-24T23:28:17Z",
  "league": {
    "admin_entry": null,
    "closed": false,
    "code_privacy": "p",
    "created": "2025-07-20T23:14:33.933835Z",
    "cup_league": 2815434,
    "has_cup": true,
    "id": 314,
    "league_type": "s",
    "max_entries": null,
    "name": "Overall",
    "rank": null,
    "scoring": "c",
    "start_event": 1
  },
  "new_entries": {
    "has_next": false,
    "page": 1,
    "results": []
  },
  "standings": {
    "has_next": true,
    "page": 1290,
    "results": [
      {
        "club_badge_src": null,
        "entry": 5221774,
        "entry_name": "Rice Rice Baby",
        "event_total": 54,
        "has_played": true,
        "id": 40459281,
        "last_rank": 59813,
        "player_name": "Christian Tracey",
        "rank": 64222,
        "rank_sort": 64451,
        "total": 2343
      },
      {
        "club_badge_src": null,
        "entry": 5235692,
        "entry_name": "Gy\u00f6keres to glory",
        "event_total": 53,
        "has_played": true,
        "id": 40573217,
        "last_rank": 57857,
        "player_name": "Fahim Haque",
        "rank": 64222,
        "rank_sort": 64452,
        "total": 2343
      },
      {
        "club_badge_src": null,
        "entry": 5343912,
        "entry_name": "\u0627\u0644\u062d\u0638 \u064a\u064f\u0635\u0646\u0639",
        "event_total": 57,
        "has_played": true,
        "id": 41456773,
        "last_rank": 65163,
        "player_name": "\u00c2hmad \u00c2. Ch\u00e2ch\u00e2n",
        "rank": 64222,
        "rank_sort": 64453,
        "total": 2343
      },
      {
        "club_badge_src": null,
        "entry": 5492687,
        "entry_name": "Yanited",
        "event_total": 47,
        "has_played": true,
        "id": 42781232,
        "last_rank": 48363,
        "player_name": "Nada Eissa",
        "rank": 64222,
        "rank_sort": 64454,
        "total": 2343
      },
      {
        "club_badge_src": null,
        "entry": 5526931,
        "entry_name": "Pedro Porridge",
        "event_total": 47,
        "has_played": true,
        "id": 43103529,
        "last_rank": 48197,
        "player_name": "Graeme Walton",
        "rank": 64222,
        "rank_sort": 64455,
        "total": 2343
      },
      {
        "club_badge_src": "https://fantasy.premierleague.com/gcs/plfpl-production-adobe-approved/plfpl-production/5544974/5984cefe-d367-4f61-97b9-76340fad8092.png",
        "entry": 5544974,
        "entry_name": "Real Slimshadey",
        "event_total": 66,
        "has_played": true,
        "id": 43270897,
        "last_rank": 83934,
        "player_name": "Steve Adey",
        "rank": 64222,
        "rank_sort": 64456,
        "total": 2343
      },
      {
        "club_badge_src": null,
        "entry": 5559250,
        "entry_name": "SantiSamba",
        "event_total": 67,
        "has_played": true,
        "id": 43398261,
        "last_rank": 85870,
        "player_name": "Enok Gartvall",
        "rank": 64222,
        "rank_sort": 64457,
        "total": 2343
      },
      {
        "club_badge_src": null,
        "entry": 5566328,
        "entry_name": "Kinder Mbeumo",
        "event_total": 32,
        "has_played": true,
        "id": 43461761,
        "last_rank": 29904,
        "player_name": "Kawsigan Gunalinkam",
        "rank": 64222,
        "rank_sort": 64458,
        "total": 2343
      },
      {
        "club_badge_src": null,
        "entry": 5615474,
        "entry_name": "Forbes & Furious",
        "event_total": 60,
        "has_played": true,
        "id": 43890974,
        "last_rank": 70985,
        "player_name": "Darius Forbes",
        "rank": 64222,
        "rank_sort": 64459,
        "total": 2343
      },
      {
        "club_badge_src": null,
        "entry": 5632973,
        "entry_name": "Ali FC \u203c\ufe0f",
        "event_total": 56,
        "has_played": true,
        "id": 44043444,
        "last_rank": 63724,
        "player_name": "Tareeq Ali",
        "rank": 64222,
        "rank_sort": 64460,
        "total": 2343
      },
      {
        "club_badge_src": null,
        "entry": 5639999,
        "entry_name": "\u00d6lverton FC",
        "event_total": 67,
        "has_played": true,
        "id": 44105143,
        "last_rank": 86054,
        "player_name": "Filip Owen",
        "rank": 64222,
        "rank_sort": 64461,
        "total": 2343
      },
      {
        "club_badge_src": null,
        "entry": 5703146,
        "entry_name": "modricvazquezkross",
        "event_total": 58,
        "has_played": true,
        "id": 44654552,
        "last_rank": 67063,
        "player_name": "Michal Gala",
        "rank": 64222,
        "rank_sort": 64462,
        "total": 2343
      },
      {
        "club_badge_src": null,
        "entry": 5738779,
        "entry_name": "Space Cowboys",
        "event_total": 61,
        "has_played": true,
        "id": 44965628,
        "last_rank": 72815,
        "player_name": "James Cross",
        "rank": 64222,
        "rank_sort": 64463,
        "total": 2343
      },
      {
        "club_badge_src": null,
        "entry": 5767664,
        "entry_name": "KFC",
        "event_total": 68,
        "has_played": true,
        "id": 45217607,
        "last_rank": 88594,
        "player_name": "Kian Kaas",
        "rank": 64222,
        "rank_sort": 64464,
        "total": 2343
      },
      {
        "club_badge_src": null,
        "entry": 5788717,
        "entry_name": "Team of Mikey Breens",
        "event_total": 53,
        "has_played": true,
        "id": 45397529,
        "last_rank": 57857,
        "player_name": "Michael Kerwick",
        "rank": 64222,
        "rank_sort": 64465,
        "total": 2343
      },
      {
        "club_badge_src": null,
        "entry": 5845331,
        "entry_name": "Park the RusBus",
        "event_total": 63,
        "has_played": true,
        "id": 45888765,
        "last_rank": 68624,
        "player_name": "Russell YL",
        "rank": 64222,
        "rank_sort": 64466,
        "total": 2343
      },
      {
        "club_badge_src": null,
        "entry": 5879641,
        "entry_name": "Idrees",
        "event_total": 59,
        "has_played": true,
        "id": 46184201,
        "last_rank": 68957,
        "player_name": "Idris Faris",
        "rank": 64222,
        "rank_sort": 64467,
        "total": 2343
      },
      {
        "club_badge_src": null,
        "entry": 5891787,
        "entry_name": "Freethekitman",
        "event_total": 45,
        "has_played": true,
        "id": 46283378,
        "last_rank": 45714,
        "player_name": "Aslam Patel",
        "rank": 64222,
        "rank_sort": 64468,
        "total": 2343
      },
      {
        "club_badge_src": null,
        "entry": 5941148,
        "entry_name": "Rino",
        "event_total": 58,
        "has_played": true,
        "id": 46718750,
        "last_rank": 66848,
        "player_name": "Mathias Smith",
        "rank": 64222,
        "rank_sort": 64469,
        "total": 2343
      },
      {
        "club_badge_src": null,
        "entry": 5951218,
        "entry_name": "Change Name",
        "event_total": 54,
        "has_played": true,
        "id": 46809873,
        "last_rank": 59813,
        "player_name": "Luke Ross",
        "rank": 64222,
        "rank_sort": 64470,
        "total": 2343
      },
      {
        "club_badge_src": null,
        "entry": 5960197,
        "entry_name": "Apokalipsa",
        "event_total": 59,
        "has_played": true,
        "id": 46889255,
        "last_rank": 68748,
        "player_name": "Mirel Catovic",
        "rank": 64222,
        "rank_sort": 64471,
        "total": 2343
      },
      {
        "club_badge_src": null,
        "entry": 6016083,
        "entry_name": "Red nosed Reijnder",
        "event_total": 65,
        "has_played": true,
        "id": 47440739,
        "last_rank": 81646,
        "player_name": "Josh Littlewood",
        "rank": 64222,
        "rank_sort": 64472,
        "total": 2343
      },
      {
        "club_badge_src": "https://fantasy.premierleague.com/gcs/plfpl-production-adobe-approved/plfpl-production/6040373/a55a960c-7c08-4da9-8f9c-3a448cf89f50.png",
        "entry": 6040373,
        "entry_name": "Trio CFC",
        "event_total": 62,
        "has_played": true,
        "id": 47655976,
        "last_rank": 75139,
        "player_name": "Tharo Mech",
        "rank": 64222,
        "rank_sort": 64473,
        "total": 2343
      },
      {
        "club_badge_src": null,
        "entry": 6106281,
        "entry_name": "saka spuds",
        "event_total": 66,
        "has_played": true,
        "id": 48231239,
        "last_rank": 83698,
        "player_name": "Manus Mullan",
        "rank": 64222,
        "rank_sort": 64474,
        "total": 2343
      },
      {
        "club_badge_src": null,
        "entry": 6257862,
        "entry_name": "ChelCFC",
        "event_total": 62,
        "has_played": true,
        "id": 49543179,
        "last_rank": 75139,
        "player_name": "Aryan Towfiq",
        "rank": 64222,
        "rank_sort": 64475,
        "total": 2343
      },
      {
        "club_badge_src": null,
        "entry": 6259221,
        "entry_name": "Major League Saka",
        "event_total": 58,
        "has_played": true,
        "id": 49555121,
        "last_rank": 67063,
        "player_name": "Philippe Blouin",
        "rank": 64222,
        "rank_sort": 64476,
        "total": 2343
      },
      {
        "club_badge_src": null,
        "entry": 6270735,
        "entry_name": "Jazz Daleks",
        "event_total": 44,
        "has_played": true,
        "id": 49655022,
        "last_rank": 44303,
        "player_name": "Bohdan Begley",
        "rank": 64222,
        "rank_sort": 64477,
        "total": 2343
      },
      {
        "club_badge_src": null,
        "entry": 6290871,
        "entry_name": "Change Name",
        "event_total": 52,
        "has_played": true,
        "id": 49844600,
        "last_rank": 56708,
        "player_name": "Jack Buckley",
        "rank": 64222,
        "rank_sort": 64478,
        "total": 2343
      },
      {
        "club_badge_src": null,
        "entry": 6383522,
        "entry_name": "Livin Lavia Loca",
        "event_total": 75,
        "has_played": true,
        "id": 50774145,
        "last_rank": 105748,
        "player_name": "Aimee Stagg",
        "rank": 64222,
        "rank_sort": 64479,
        "total": 2343
      },
      {
        "club_badge_src": null,
        "entry": 6391486,
        "entry_name": "Zile on fire?",
        "event_total": 65,
        "has_played": true,
        "id": 50842329,
        "last_rank": 81312,
        "player_name": "zile on fire?",
        "rank": 64222,
        "rank_sort": 64480,
        "total": 2343
      },
      {
        "club_badge_src": null,
        "entry": 6393999,
        "entry_name": "Wille",
        "event_total": 53,
        "has_played": true,
        "id": 50866211,
        "last_rank": 57743,
        "player_name": "William Hall",
        "rank": 64222,
        "rank_sort": 64481,
        "total": 2343
      },
      {
        "club_badge_src": "https://fantasy.premierleague.com/gcs/plfpl-production-adobe-approved/plfpl-production/6397244/47fe7aba-94e9-45d5-ae39-531038bc987e.png",
        "entry": 6397244,
        "entry_name": "MONTBLANC",
        "event_total": 60,
        "has_played": true,
        "id": 50895398,
        "last_rank": 71386,
        "player_name": "Abdullah Alghunaim",
        "rank": 64222,
        "rank_sort": 64482,
        "total": 2343
      },
      {
        "club_badge_src": null,
        "entry": 6481793,
        "entry_name": "Joao sexy thing",
        "event_total": 53,
        "has_played": true,
        "id": 51661589,
        "last_rank": 58071,
        "player_name": "Tom Walker",
        "rank": 64222,
        "rank_sort": 64483,
        "total": 2343
      },
      {
        "club_badge_src": null,
        "entry": 6665688,
        "entry_name": "Mrs Browns Boys",
        "event_total": 61,
        "has_played": true,
        "id": 53307707,
        "last_rank": 72815,
        "player_name": "Barbara Brown",
        "rank": 64222,
        "rank_sort": 64484,
        "total": 2343
      },
      {
        "club_badge_src": null,
        "entry": 6677135,
        "entry_name": "Saka Potatoes",
        "event_total": 60,
        "has_played": true,
        "id": 53407973,
        "last_rank": 70985,
        "player_name": "Melissa Ramsamy",
        "rank": 64222,
        "rank_sort": 64485,
        "total": 2343
      },
      {
        "club_badge_src": null,
        "entry": 6700600,
        "entry_name": "#WYB",
        "event_total": 54,
        "has_played": true,
        "id": 53613856,
        "last_rank": 59813,
        "player_name": "BiRd Sinchai",
        "rank": 64222,
        "rank_sort": 64486,
        "total": 2343
      },
      {
        "club_badge_src": "https://fantasy.premierleague.com/gcs/plfpl-production-adobe-approved/plfpl-production/6812444/21b40c5a-7c16-49e1-96d5-4a5a2314017c.png",
        "entry": 6812444,
        "entry_name": "Wirtz nightmare !",
        "event_total": 61,
        "has_played": true,
        "id": 54559162,
        "last_rank": 64943,
        "player_name": "Charlie Kavanagh",
        "rank": 64222,
        "rank_sort": 64487,
        "total": 2343
      },
      {
        "club_badge_src": null,
        "entry": 6836373,
        "entry_name": "black khabib",
        "event_total": 50,
        "has_played": true,
        "id": 54762679,
        "last_rank": 53023,
        "player_name": "Hakim Hamed",
        "rank": 64222,
        "rank_sort": 64488,
        "total": 2343
      },
      {
        "club_badge_src": null,
        "entry": 6907057,
        "entry_name": "Amorteam",
        "event_total": 47,
        "has_played": true,
        "id": 55363146,
        "last_rank": 48642,
        "player_name": "Imran Rusli",
        "rank": 64222,
        "rank_sort": 64489,
        "total": 2343
      },
      {
        "club_badge_src": "https://fantasy.premierleague.com/gcs/plfpl-production-adobe-approved/plfpl-production/6982333/18a181c0-473d-4a82-9f48-952660da16c8.png",
        "entry": 6982333,
        "entry_name": "Bayern Bru",
        "event_total": 66,
        "has_played": true,
        "id": 56040407,
        "last_rank": 83698,
        "player_name": "Sean Brogan",
        "rank": 64222,
        "rank_sort": 64490,
        "total": 2343
      },
      {
        "club_badge_src": null,
        "entry": 6988821,
        "entry_name": "Porell Polarbears",
        "event_total": 59,
        "has_played": true,
        "id": 56099725,
        "last_rank": 68957,
        "player_name": "Simen Renden",
        "rank": 64222,
        "rank_sort": 64491,
        "total": 2343
      },
      {
        "club_badge_src": "https://fantasy.premierleague.com/gcs/plfpl-production-adobe-approved/plfpl-production/7010630/d28ecf41-9e97-4a32-bbce-a8a956504c26.png",
        "entry": 7010630,
        "entry_name": "Red Madristas",
        "event_total": 82,
        "has_played": true,
        "id": 56300829,
        "last_rank": 125869,
        "player_name": "Goutham Ala",
        "rank": 64222,
        "rank_sort": 64492,
        "total": 2343
      },
      {
        "club_badge_src": null,
        "entry": 7035796,
        "entry_name": "The Moyesiah",
        "event_total": 72,
        "has_played": true,
        "id": 56555193,
        "last_rank": 98183,
        "player_name": "Robbie Bennett",
        "rank": 64222,
        "rank_sort": 64493,
        "total": 2343
      },
      {
        "club_badge_src": null,
        "entry": 7039462,
        "entry_name": "K",
        "event_total": 41,
        "has_played": true,
        "id": 56593702,
        "last_rank": 39816,
        "player_name": "Ahmed Cash",
        "rank": 64222,
        "rank_sort": 64494,
        "total": 2343
      },
      {
        "club_badge_src": null,
        "entry": 7048773,
        "entry_name": "Ali & Fola",
        "event_total": 42,
        "has_played": true,
        "id": 56686260,
        "last_rank": 41324,
        "player_name": "Ali & Fola",
        "rank": 64222,
        "rank_sort": 64495,
        "total": 2343
      },
      {
        "club_badge_src": null,
        "entry": 7054916,
        "entry_name": "abo 3adel",
        "event_total": 68,
        "has_played": true,
        "id": 56744737,
        "last_rank": 89055,
        "player_name": "mohamed adel",
        "rank": 64222,
        "rank_sort": 64496,
        "total": 2343
      },
      {
        "club_badge_src": null,
        "entry": 7068840,
        "entry_name": "sygt",
        "event_total": 55,
        "has_played": true,
        "id": 56878404,
        "last_rank": 61606,
        "player_name": "Carl Thuesen G\u00fcsmer",
        "rank": 64222,
        "rank_sort": 64497,
        "total": 2343
      },
      {
        "club_badge_src": null,
        "entry": 7155182,
        "entry_name": "Simply The Best",
        "event_total": 66,
        "has_played": true,
        "id": 57705076,
        "last_rank": 83934,
        "player_name": "lorraine lovegrove",
        "rank": 64222,
        "rank_sort": 64498,
        "total": 2343
      },
      {
        "club_badge_src": null,
        "entry": 7190328,
        "entry_name": "Swedish Howe Mafia",
        "event_total": 51,
        "has_played": true,
        "id": 58042829,
        "last_rank": 55014,
        "player_name": "Craig Elliott",
        "rank": 64222,
        "rank_sort": 64499,
        "total": 2343
      },
      {
        "club_badge_src": null,
        "entry": 7225299,
        "entry_name": "You Plonker Rodri",
        "event_total": 51,
        "has_played": true,
        "id": 58371787,
        "last_rank": 54667,
        "player_name": "Dan Graves",
        "rank": 64222,
        "rank_sort": 64500,
        "total": 2343
      }
    ]
  }
}