{
  "last_updated_data": "2026-05-24T23:28:17Z",
  "league": {
    "admin_entry": null,
    "closed": false,
    "code_privacy": "p",
    "created": "2025-07-20T23:14:33.933835Z",
    "cup_league": 2815434,
    "has_cup": true,
    "id": 314,
    "league_type": "s",
    "max_entries": null,
    "name": "Overall",
    "rank": null,
    "scoring": "c",
    "start_event": 1
  },
  "new_entries": {
    "has_next": false,
    "page": 1,
    "results": []
  },
  "standings": {
    "has_next": true,
    "page": 1547,
    "results": [
      {
        "club_badge_src": null,
        "entry": 3473986,
        "entry_name": "Team XYZ",
        "event_total": 54,
        "has_played": true,
        "id": 25828510,
        "last_rank": 72454,
        "player_name": "David T",
        "rank": 77276,
        "rank_sort": 77301,
        "total": 2337
      },
      {
        "club_badge_src": null,
        "entry": 3882776,
        "entry_name": "Top eze",
        "event_total": 54,
        "has_played": true,
        "id": 29175101,
        "last_rank": 64508,
        "player_name": "Joar J\u00f6nsson",
        "rank": 77276,
        "rank_sort": 77302,
        "total": 2337
      },
      {
        "club_badge_src": "https://fantasy.premierleague.com/gcs/plfpl-production-adobe-approved/plfpl-production/3902624/63c50203-a1fd-4554-933c-f4d15c6aaa99.png",
        "entry": 3902624,
        "entry_name": "LowScoringFC (LSFC)",
        "event_total": 65,
        "has_played": true,
        "id": 29337835,
        "last_rank": 87885,
        "player_name": "Riyasat Azim",
        "rank": 77276,
        "rank_sort": 77303,
        "total": 2337
      },
      {
        "club_badge_src": null,
        "entry": 4139688,
        "entry_name": "bq27",
        "event_total": 47,
        "has_played": true,
        "id": 31285709,
        "last_rank": 52561,
        "player_name": "Bader Alqattan",
        "rank": 77276,
        "rank_sort": 77304,
        "total": 2337
      },
      {
        "club_badge_src": null,
        "entry": 5224505,
        "entry_name": "Dianella Invincibles",
        "event_total": 60,
        "has_played": true,
        "id": 40481931,
        "last_rank": 76638,
        "player_name": "Ian Wilson",
        "rank": 77276,
        "rank_sort": 77305,
        "total": 2337
      },
      {
        "club_badge_src": null,
        "entry": 6070087,
        "entry_name": "kinder mbuemo",
        "event_total": 40,
        "has_played": true,
        "id": 47915455,
        "last_rank": 32491,
        "player_name": "Denis Mao'Mahad",
        "rank": 77276,
        "rank_sort": 77306,
        "total": 2337
      },
      {
        "club_badge_src": null,
        "entry": 6627020,
        "entry_name": "Vector City FC",
        "event_total": 64,
        "has_played": true,
        "id": 52960970,
        "last_rank": 95213,
        "player_name": "Tashi Gyeltshen",
        "rank": 77276,
        "rank_sort": 77307,
        "total": 2337
      },
      {
        "club_badge_src": null,
        "entry": 7040842,
        "entry_name": "Liam Delap dancer",
        "event_total": 53,
        "has_played": true,
        "id": 56606794,
        "last_rank": 70446,
        "player_name": "daniel Kunrunmi",
        "rank": 77276,
        "rank_sort": 77308,
        "total": 2337
      },
      {
        "club_badge_src": null,
        "entry": 7131192,
        "entry_name": "K'Ogirlo",
        "event_total": 47,
        "has_played": true,
        "id": 57471233,
        "last_rank": 59335,
        "player_name": "Paul Otieno",
        "rank": 77276,
        "rank_sort": 77309,
        "total": 2337
      },
      {
        "club_badge_src": null,
        "entry": 8053448,
        "entry_name": "ItsSakaNotHockey",
        "event_total": 47,
        "has_played": true,
        "id": 66368715,
        "last_rank": 59335,
        "player_name": "Chris Wright",
        "rank": 77276,
        "rank_sort": 77310,
        "total": 2337
      },
      {
        "club_badge_src": null,
        "entry": 9073781,
        "entry_name": "Sarr Wars",
        "event_total": 55,
        "has_played": true,
        "id": 76195119,
        "last_rank": 74524,
        "player_name": "Stuart Hutchison",
        "rank": 77276,
        "rank_sort": 77311,
        "total": 2337
      },
      {
        "club_badge_src": null,
        "entry": 34940,
        "entry_name": "Shaws Mangled Leg",
        "event_total": 57,
        "has_played": true,
        "id": 223418,
        "last_rank": 78830,
        "player_name": "Ryan Leitch",
        "rank": 77312,
        "rank_sort": 77312,
        "total": 2337
      },
      {
        "club_badge_src": null,
        "entry": 65843,
        "entry_name": "FC Dup",
        "event_total": 61,
        "has_played": true,
        "id": 425316,
        "last_rank": 70355,
        "player_name": "bas dubbeldam",
        "rank": 77312,
        "rank_sort": 77313,
        "total": 2337
      },
      {
        "club_badge_src": null,
        "entry": 197822,
        "entry_name": "Top\u2605Gun",
        "event_total": 71,
        "has_played": true,
        "id": 1312684,
        "last_rank": 92685,
        "player_name": "Arben Lubach",
        "rank": 77312,
        "rank_sort": 77314,
        "total": 2337
      },
      {
        "club_badge_src": null,
        "entry": 348784,
        "entry_name": "Slender men",
        "event_total": 74,
        "has_played": true,
        "id": 2334563,
        "last_rank": 100092,
        "player_name": "Paddy Stephens",
        "rank": 77312,
        "rank_sort": 77315,
        "total": 2337
      },
      {
        "club_badge_src": null,
        "entry": 452095,
        "entry_name": "Kobbie Wan Kenobi",
        "event_total": 49,
        "has_played": true,
        "id": 3032920,
        "last_rank": 55902,
        "player_name": "Matt Callaghan",
        "rank": 77312,
        "rank_sort": 77316,
        "total": 2337
      },
      {
        "club_badge_src": null,
        "entry": 580584,
        "entry_name": "The jefis",
        "event_total": 58,
        "has_played": true,
        "id": 3906996,
        "last_rank": 81010,
        "player_name": "Jorgen Ervik Fiskaa",
        "rank": 77312,
        "rank_sort": 77317,
        "total": 2337
      },
      {
        "club_badge_src": null,
        "entry": 663841,
        "entry_name": "EL\u201dDEZEL\u261d",
        "event_total": 62,
        "has_played": true,
        "id": 4487952,
        "last_rank": 72407,
        "player_name": "mohamed sedky",
        "rank": 77312,
        "rank_sort": 77318,
        "total": 2337
      },
      {
        "club_badge_src": null,
        "entry": 686455,
        "entry_name": "HugoIsBoss",
        "event_total": 83,
        "has_played": true,
        "id": 4646847,
        "last_rank": 152132,
        "player_name": "Craig Farrell",
        "rank": 77312,
        "rank_sort": 77319,
        "total": 2337
      },
      {
        "club_badge_src": null,
        "entry": 769612,
        "entry_name": "Hazem",
        "event_total": 65,
        "has_played": true,
        "id": 5249963,
        "last_rank": 97786,
        "player_name": "Hazem Sameh",
        "rank": 77312,
        "rank_sort": 77320,
        "total": 2337
      },
      {
        "club_badge_src": null,
        "entry": 814757,
        "entry_name": "arg\u26bd\u26bdn",
        "event_total": 64,
        "has_played": true,
        "id": 5579227,
        "last_rank": 85624,
        "player_name": "ahmed argon",
        "rank": 77312,
        "rank_sort": 77321,
        "total": 2337
      },
      {
        "club_badge_src": null,
        "entry": 935023,
        "entry_name": "Fergies Mufflings",
        "event_total": 62,
        "has_played": true,
        "id": 6434457,
        "last_rank": 81010,
        "player_name": "Simon Muff Ostenfeld Enevoldsen",
        "rank": 77312,
        "rank_sort": 77322,
        "total": 2337
      },
      {
        "club_badge_src": null,
        "entry": 1248831,
        "entry_name": "AbiSolo_Global",
        "event_total": 54,
        "has_played": true,
        "id": 8673130,
        "last_rank": 64603,
        "player_name": "onlyGodknows \ud83d\ude4f\ud83c\udffd",
        "rank": 77312,
        "rank_sort": 77323,
        "total": 2337
      },
      {
        "club_badge_src": null,
        "entry": 1370913,
        "entry_name": "ToRiN7YuP",
        "event_total": 53,
        "has_played": true,
        "id": 9529590,
        "last_rank": 70414,
        "player_name": "Parintorn Madsiri",
        "rank": 77312,
        "rank_sort": 77324,
        "total": 2337
      },
      {
        "club_badge_src": null,
        "entry": 1602566,
        "entry_name": "Team Metz 25/26",
        "event_total": 54,
        "has_played": true,
        "id": 11211021,
        "last_rank": 57557,
        "player_name": "James Mettam",
        "rank": 77312,
        "rank_sort": 77325,
        "total": 2337
      },
      {
        "club_badge_src": null,
        "entry": 1608047,
        "entry_name": "Audere est Facere",
        "event_total": 44,
        "has_played": true,
        "id": 11250711,
        "last_rank": 47950,
        "player_name": "Maryn Roelof",
        "rank": 77312,
        "rank_sort": 77326,
        "total": 2337
      },
      {
        "club_badge_src": null,
        "entry": 1700225,
        "entry_name": "M.N.Syazwan",
        "event_total": 60,
        "has_played": true,
        "id": 11909555,
        "last_rank": 85672,
        "player_name": "Wan Ngah",
        "rank": 77312,
        "rank_sort": 77327,
        "total": 2337
      },
      {
        "club_badge_src": null,
        "entry": 1852045,
        "entry_name": "Team Salah",
        "event_total": 71,
        "has_played": true,
        "id": 13032436,
        "last_rank": 83127,
        "player_name": "Islam m. Abdelhamied",
        "rank": 77312,
        "rank_sort": 77328,
        "total": 2337
      },
      {
        "club_badge_src": null,
        "entry": 1909755,
        "entry_name": "Obi wan iwobi",
        "event_total": 56,
        "has_played": true,
        "id": 13464031,
        "last_rank": 68395,
        "player_name": "noel mcilwaine",
        "rank": 77312,
        "rank_sort": 77329,
        "total": 2337
      },
      {
        "club_badge_src": null,
        "entry": 2315679,
        "entry_name": "\u0634\u0645\u0644\u0648\u0644",
        "event_total": 52,
        "has_played": true,
        "id": 16518875,
        "last_rank": 68437,
        "player_name": "\u0645\u0627\u0632\u0646 \u0633\u0648\u064a\u0639\u062f \u0627\u0644\u062d\u0631\u0628\u064a \u0627\u0644\u062d\u0631\u0628\u064a",
        "rank": 77312,
        "rank_sort": 77330,
        "total": 2337
      },
      {
        "club_badge_src": "https://fantasy.premierleague.com/gcs/plfpl-production-adobe-approved/plfpl-production/2419206/9a459d90-f6e6-47fd-84de-c39acf3fab2d.png",
        "entry": 2419206,
        "entry_name": "Klopps and Robbers",
        "event_total": 46,
        "has_played": true,
        "id": 17294709,
        "last_rank": 57619,
        "player_name": "Osian Edwards",
        "rank": 77312,
        "rank_sort": 77331,
        "total": 2337
      },
      {
        "club_badge_src": null,
        "entry": 2603273,
        "entry_name": "Sawahlebar FC",
        "event_total": 66,
        "has_played": true,
        "id": 18698830,
        "last_rank": 100241,
        "player_name": "D'kun Sembilan Enam",
        "rank": 77312,
        "rank_sort": 77332,
        "total": 2337
      },
      {
        "club_badge_src": null,
        "entry": 3090546,
        "entry_name": "Cherki Girlz x",
        "event_total": 62,
        "has_played": true,
        "id": 22776818,
        "last_rank": 90359,
        "player_name": "Johnny Valentine",
        "rank": 77312,
        "rank_sort": 77333,
        "total": 2337
      },
      {
        "club_badge_src": null,
        "entry": 3339864,
        "entry_name": "Onanas in Pajamas",
        "event_total": 49,
        "has_played": true,
        "id": 24771802,
        "last_rank": 62939,
        "player_name": "Stefan Self",
        "rank": 77312,
        "rank_sort": 77334,
        "total": 2337
      },
      {
        "club_badge_src": null,
        "entry": 3406420,
        "entry_name": "Wimbledon't worry",
        "event_total": 63,
        "has_played": true,
        "id": 25296428,
        "last_rank": 92780,
        "player_name": "Sturla Sponberg",
        "rank": 77312,
        "rank_sort": 77335,
        "total": 2337
      },
      {
        "club_badge_src": null,
        "entry": 3599047,
        "entry_name": "Morinto",
        "event_total": 45,
        "has_played": true,
        "id": 26805110,
        "last_rank": 55932,
        "player_name": "waveman tsang",
        "rank": 77312,
        "rank_sort": 77336,
        "total": 2337
      },
      {
        "club_badge_src": null,
        "entry": 3953093,
        "entry_name": "Ontohod",
        "event_total": 49,
        "has_played": true,
        "id": 29740152,
        "last_rank": 62917,
        "player_name": "Yudha Andika",
        "rank": 77312,
        "rank_sort": 77337,
        "total": 2337
      },
      {
        "club_badge_src": "https://fantasy.premierleague.com/gcs/plfpl-production-adobe-approved/plfpl-production/4619807/1cd49124-880d-4f2e-8285-56a278137c1d.png",
        "entry": 4619807,
        "entry_name": "pogback fc",
        "event_total": 66,
        "has_played": true,
        "id": 35311729,
        "last_rank": 90300,
        "player_name": "Gareth Fraenkel",
        "rank": 77312,
        "rank_sort": 77338,
        "total": 2337
      },
      {
        "club_badge_src": null,
        "entry": 5378338,
        "entry_name": "Defi",
        "event_total": 86,
        "has_played": true,
        "id": 41805110,
        "last_rank": 162755,
        "player_name": "DEFI RAJA",
        "rank": 77312,
        "rank_sort": 77339,
        "total": 2337
      },
      {
        "club_badge_src": null,
        "entry": 5881342,
        "entry_name": "Son-derland",
        "event_total": 64,
        "has_played": true,
        "id": 46198070,
        "last_rank": 85624,
        "player_name": "Paco Yuen",
        "rank": 77312,
        "rank_sort": 77340,
        "total": 2337
      },
      {
        "club_badge_src": null,
        "entry": 6429236,
        "entry_name": "AboMohamed",
        "event_total": 73,
        "has_played": true,
        "id": 51178609,
        "last_rank": 119572,
        "player_name": "Abd Elhamied Salman",
        "rank": 77312,
        "rank_sort": 77341,
        "total": 2337
      },
      {
        "club_badge_src": null,
        "entry": 6447680,
        "entry_name": "Artekkers",
        "event_total": 66,
        "has_played": true,
        "id": 51342099,
        "last_rank": 90229,
        "player_name": "Japheth Ariyibi",
        "rank": 77312,
        "rank_sort": 77342,
        "total": 2337
      },
      {
        "club_badge_src": null,
        "entry": 6690387,
        "entry_name": "RayanMUFC23",
        "event_total": 52,
        "has_played": true,
        "id": 53524421,
        "last_rank": 61087,
        "player_name": "Rayan Mourad",
        "rank": 77312,
        "rank_sort": 77343,
        "total": 2337
      },
      {
        "club_badge_src": null,
        "entry": 6893317,
        "entry_name": "nino",
        "event_total": 70,
        "has_played": true,
        "id": 55247968,
        "last_rank": 100241,
        "player_name": "Nino Torres",
        "rank": 77312,
        "rank_sort": 77344,
        "total": 2337
      },
      {
        "club_badge_src": null,
        "entry": 6985501,
        "entry_name": "Hercules Pirate",
        "event_total": 55,
        "has_played": true,
        "id": 56069174,
        "last_rank": 66487,
        "player_name": "Liam Docherty",
        "rank": 77312,
        "rank_sort": 77345,
        "total": 2337
      },
      {
        "club_badge_src": null,
        "entry": 7457908,
        "entry_name": "Fpl Solidstar",
        "event_total": 72,
        "has_played": true,
        "id": 60738250,
        "last_rank": 95147,
        "player_name": "Jo Yap",
        "rank": 77312,
        "rank_sort": 77346,
        "total": 2337
      },
      {
        "club_badge_src": null,
        "entry": 7543752,
        "entry_name": "Buraak Foaad",
        "event_total": 59,
        "has_played": true,
        "id": 61755189,
        "last_rank": 83340,
        "player_name": "Buraak Foaad",
        "rank": 77312,
        "rank_sort": 77347,
        "total": 2337
      },
      {
        "club_badge_src": null,
        "entry": 7645767,
        "entry_name": "Obafunto",
        "event_total": 61,
        "has_played": true,
        "id": 62677696,
        "last_rank": 88005,
        "player_name": "Habibllah Ayodele",
        "rank": 77312,
        "rank_sort": 77348,
        "total": 2337
      },
      {
        "club_badge_src": null,
        "entry": 8552494,
        "entry_name": "Goneacho United",
        "event_total": 69,
        "has_played": true,
        "id": 71142654,
        "last_rank": 108086,
        "player_name": "Tim Gears",
        "rank": 77312,
        "rank_sort": 77349,
        "total": 2337
      },
      {
        "club_badge_src": null,
        "entry": 8723225,
        "entry_name": "KGE",
        "event_total": 69,
        "has_played": true,
        "id": 72805474,
        "last_rank": 108172,
        "player_name": "Kevin Edwicker",
        "rank": 77312,
        "rank_sort": 77350,
        "total": 2337
      }
    ]
  }
}