{
  "last_updated_data": "2026-05-24T23:28:17Z",
  "league": {
    "admin_entry": null,
    "closed": false,
    "code_privacy": "p",
    "created": "2025-07-20T23:14:33.933835Z",
    "cup_league": 2815434,
    "has_cup": true,
    "id": 314,
    "league_type": "s",
    "max_entries": null,
    "name": "Overall",
    "rank": null,
    "scoring": "c",
    "start_event": 1
  },
  "new_entries": {
    "has_next": false,
    "page": 1,
    "results": []
  },
  "standings": {
    "has_next": true,
    "page": 1137,
    "results": [
      {
        "club_badge_src": null,
        "entry": 4455262,
        "entry_name": "Leeds All Stars",
        "event_total": 55,
        "has_played": true,
        "id": 33937886,
        "last_rank": 54065,
        "player_name": "Martin Deeks",
        "rank": 56748,
        "rank_sort": 56801,
        "total": 2348
      },
      {
        "club_badge_src": "https://fantasy.premierleague.com/gcs/plfpl-production-adobe-approved/plfpl-production/4465720/e10db13c-76b1-43f6-bfe7-474d611adb67.png",
        "entry": 4465720,
        "entry_name": "Picapiedra FC",
        "event_total": 62,
        "has_played": true,
        "id": 34027557,
        "last_rank": 59077,
        "player_name": "Juani Fraga",
        "rank": 56748,
        "rank_sort": 56802,
        "total": 2348
      },
      {
        "club_badge_src": null,
        "entry": 4473647,
        "entry_name": "Adamski140",
        "event_total": 56,
        "has_played": true,
        "id": 34091922,
        "last_rank": 55812,
        "player_name": "Adam Weir",
        "rank": 56748,
        "rank_sort": 56803,
        "total": 2348
      },
      {
        "club_badge_src": null,
        "entry": 4748647,
        "entry_name": "Sakaa",
        "event_total": 72,
        "has_played": true,
        "id": 36540012,
        "last_rank": 69907,
        "player_name": "oussama Ghali",
        "rank": 56748,
        "rank_sort": 56804,
        "total": 2348
      },
      {
        "club_badge_src": null,
        "entry": 4846672,
        "entry_name": "Peaky Blinders FC",
        "event_total": 67,
        "has_played": true,
        "id": 37338508,
        "last_rank": 68107,
        "player_name": "takunda nhubu",
        "rank": 56748,
        "rank_sort": 56805,
        "total": 2348
      },
      {
        "club_badge_src": null,
        "entry": 4885208,
        "entry_name": "Sesko Clubcard",
        "event_total": 50,
        "has_played": true,
        "id": 37662400,
        "last_rank": 40770,
        "player_name": "Ciaran Walsh",
        "rank": 56748,
        "rank_sort": 56806,
        "total": 2348
      },
      {
        "club_badge_src": null,
        "entry": 5472667,
        "entry_name": "MitreDelta",
        "event_total": 68,
        "has_played": true,
        "id": 42601001,
        "last_rank": 77999,
        "player_name": "Stephen Gordon",
        "rank": 56748,
        "rank_sort": 56807,
        "total": 2348
      },
      {
        "club_badge_src": null,
        "entry": 5931926,
        "entry_name": "H H High Quality H20",
        "event_total": 48,
        "has_played": true,
        "id": 46635584,
        "last_rank": 43512,
        "player_name": "Chris Langman",
        "rank": 56748,
        "rank_sort": 56808,
        "total": 2348
      },
      {
        "club_badge_src": null,
        "entry": 5952674,
        "entry_name": "Net Six and Chill",
        "event_total": 68,
        "has_played": true,
        "id": 46822815,
        "last_rank": 77999,
        "player_name": "Jamie Charles",
        "rank": 56748,
        "rank_sort": 56809,
        "total": 2348
      },
      {
        "club_badge_src": null,
        "entry": 6333786,
        "entry_name": "\u062a\u0634\u0643\u064a\u0644\u0647 \u0647\u0627\u0631\u064a",
        "event_total": 57,
        "has_played": true,
        "id": 50338641,
        "last_rank": 50772,
        "player_name": "Hashem esmael",
        "rank": 56748,
        "rank_sort": 56810,
        "total": 2348
      },
      {
        "club_badge_src": null,
        "entry": 6994956,
        "entry_name": "Carletto's Eyebrow",
        "event_total": 60,
        "has_played": true,
        "id": 56155794,
        "last_rank": 62617,
        "player_name": "Carletto Diez",
        "rank": 56748,
        "rank_sort": 56811,
        "total": 2348
      },
      {
        "club_badge_src": "https://fantasy.premierleague.com/gcs/plfpl-production-adobe-approved/plfpl-production/7466537/a6ee6443-e3b9-4125-9009-5b97c3bffb6c.png",
        "entry": 7466537,
        "entry_name": "GSE",
        "event_total": 56,
        "has_played": true,
        "id": 60850339,
        "last_rank": 55747,
        "player_name": "Jeff Lopes",
        "rank": 56748,
        "rank_sort": 56812,
        "total": 2348
      },
      {
        "club_badge_src": null,
        "entry": 7529815,
        "entry_name": "Champs or Bust",
        "event_total": 58,
        "has_played": true,
        "id": 61627246,
        "last_rank": 46106,
        "player_name": "Andy Summers",
        "rank": 56748,
        "rank_sort": 56813,
        "total": 2348
      },
      {
        "club_badge_src": null,
        "entry": 8392323,
        "entry_name": "Majakodoldappi FC",
        "event_total": 61,
        "has_played": true,
        "id": 69607623,
        "last_rank": 64319,
        "player_name": "AQILAN CHANDRAN",
        "rank": 56748,
        "rank_sort": 56814,
        "total": 2348
      },
      {
        "club_badge_src": null,
        "entry": 9329239,
        "entry_name": "World Champions",
        "event_total": 54,
        "has_played": true,
        "id": 78689669,
        "last_rank": 40297,
        "player_name": "Brahim Zghonda",
        "rank": 56748,
        "rank_sort": 56815,
        "total": 2348
      },
      {
        "club_badge_src": null,
        "entry": 7126,
        "entry_name": "Still THE GOAT",
        "event_total": 69,
        "has_played": true,
        "id": 41040,
        "last_rank": 80781,
        "player_name": "Mohammed Elamine",
        "rank": 56816,
        "rank_sort": 56816,
        "total": 2348
      },
      {
        "club_badge_src": null,
        "entry": 15866,
        "entry_name": "dukie",
        "event_total": 58,
        "has_played": true,
        "id": 97700,
        "last_rank": 52461,
        "player_name": "Duc Pham",
        "rank": 56816,
        "rank_sort": 56817,
        "total": 2348
      },
      {
        "club_badge_src": null,
        "entry": 27587,
        "entry_name": "If you know you know",
        "event_total": 36,
        "has_played": true,
        "id": 174392,
        "last_rank": 29369,
        "player_name": "Ahmad Aldehani",
        "rank": 56816,
        "rank_sort": 56818,
        "total": 2348
      },
      {
        "club_badge_src": null,
        "entry": 30277,
        "entry_name": "Boats and Jos\u00e9",
        "event_total": 49,
        "has_played": true,
        "id": 191615,
        "last_rank": 34682,
        "player_name": "Mathew Brigham",
        "rank": 56816,
        "rank_sort": 56819,
        "total": 2348
      },
      {
        "club_badge_src": null,
        "entry": 66998,
        "entry_name": "Ctrl-Alt-DeLigt",
        "event_total": 62,
        "has_played": true,
        "id": 433615,
        "last_rank": 66380,
        "player_name": "Sean McMahon",
        "rank": 56816,
        "rank_sort": 56820,
        "total": 2348
      },
      {
        "club_badge_src": null,
        "entry": 104016,
        "entry_name": "Dorby County",
        "event_total": 59,
        "has_played": true,
        "id": 678608,
        "last_rank": 47722,
        "player_name": "Paul Dorby",
        "rank": 56816,
        "rank_sort": 56821,
        "total": 2348
      },
      {
        "club_badge_src": "https://fantasy.premierleague.com/gcs/plfpl-production-adobe-approved/plfpl-production/108103/5332993d-bb50-4f8b-8438-bffd40a21e1d.png",
        "entry": 108103,
        "entry_name": "#GlazersOut",
        "event_total": 71,
        "has_played": true,
        "id": 704800,
        "last_rank": 60462,
        "player_name": "Daniel Inglot",
        "rank": 56816,
        "rank_sort": 56822,
        "total": 2348
      },
      {
        "club_badge_src": null,
        "entry": 119947,
        "entry_name": "Srfccalla",
        "event_total": 78,
        "has_played": true,
        "id": 782583,
        "last_rank": 102501,
        "player_name": "Callum Mc Partlan",
        "rank": 56816,
        "rank_sort": 56823,
        "total": 2348
      },
      {
        "club_badge_src": "https://fantasy.premierleague.com/gcs/plfpl-production-adobe-approved/plfpl-production/150762/64f10b3c-368b-42da-b344-f2693ee4519d.png",
        "entry": 150762,
        "entry_name": "FC Shabba",
        "event_total": 50,
        "has_played": true,
        "id": 988880,
        "last_rank": 35867,
        "player_name": "Steven Follows",
        "rank": 56816,
        "rank_sort": 56824,
        "total": 2348
      },
      {
        "club_badge_src": null,
        "entry": 156101,
        "entry_name": "Saka Cack",
        "event_total": 60,
        "has_played": true,
        "id": 1026421,
        "last_rank": 55747,
        "player_name": "David Harmstone",
        "rank": 56816,
        "rank_sort": 56825,
        "total": 2348
      },
      {
        "club_badge_src": null,
        "entry": 164642,
        "entry_name": "Kalleb\u00e4ck City FC",
        "event_total": 69,
        "has_played": true,
        "id": 1086656,
        "last_rank": 72145,
        "player_name": "Edvin Lingmerth",
        "rank": 56816,
        "rank_sort": 56826,
        "total": 2348
      },
      {
        "club_badge_src": null,
        "entry": 186853,
        "entry_name": "man u mini",
        "event_total": 64,
        "has_played": true,
        "id": 1235099,
        "last_rank": 70183,
        "player_name": "Wissarut Phakakrong",
        "rank": 56816,
        "rank_sort": 56827,
        "total": 2348
      },
      {
        "club_badge_src": "https://fantasy.premierleague.com/gcs/plfpl-production-adobe-approved/plfpl-production/233264/a13429f2-9206-427b-bf37-86cef4fab0a3.png",
        "entry": 233264,
        "entry_name": "\ufffdTactical\ufffd",
        "event_total": 65,
        "has_played": true,
        "id": 1552008,
        "last_rank": 72346,
        "player_name": "fahad Alotaibi",
        "rank": 56816,
        "rank_sort": 56828,
        "total": 2348
      },
      {
        "club_badge_src": null,
        "entry": 247688,
        "entry_name": "taperlaget",
        "event_total": 60,
        "has_played": true,
        "id": 1648655,
        "last_rank": 55747,
        "player_name": "Mats Daniel Sandslett Lang\u00e5ker",
        "rank": 56816,
        "rank_sort": 56829,
        "total": 2348
      },
      {
        "club_badge_src": null,
        "entry": 301161,
        "entry_name": "hassan803",
        "event_total": 75,
        "has_played": true,
        "id": 2014709,
        "last_rank": 94933,
        "player_name": "Hassan 803",
        "rank": 56816,
        "rank_sort": 56830,
        "total": 2348
      },
      {
        "club_badge_src": null,
        "entry": 336686,
        "entry_name": "Abu Fares",
        "event_total": 70,
        "has_played": true,
        "id": 2254086,
        "last_rank": 82873,
        "player_name": "Kamel Mansour",
        "rank": 56816,
        "rank_sort": 56831,
        "total": 2348
      },
      {
        "club_badge_src": "https://fantasy.premierleague.com/gcs/plfpl-production-adobe-approved/plfpl-production/405054/7af3e212-c5ed-4cc1-af4d-20806f2ee378.png",
        "entry": 405054,
        "entry_name": "FC Loot Lee",
        "event_total": 59,
        "has_played": true,
        "id": 2715810,
        "last_rank": 54065,
        "player_name": "Jeffrey Zhou",
        "rank": 56816,
        "rank_sort": 56832,
        "total": 2348
      },
      {
        "club_badge_src": null,
        "entry": 417488,
        "entry_name": "Chicken Kiev",
        "event_total": 60,
        "has_played": true,
        "id": 2798582,
        "last_rank": 62812,
        "player_name": "Rich Kemp",
        "rank": 56816,
        "rank_sort": 56833,
        "total": 2348
      },
      {
        "club_badge_src": "https://fantasy.premierleague.com/gcs/plfpl-production-adobe-approved/plfpl-production/433853/430aa90f-588d-4b27-8c97-f433d85f93e4.png",
        "entry": 433853,
        "entry_name": "Las Palmers",
        "event_total": 60,
        "has_played": true,
        "id": 2909569,
        "last_rank": 62724,
        "player_name": "Kweku Berkoh",
        "rank": 56816,
        "rank_sort": 56834,
        "total": 2348
      },
      {
        "club_badge_src": "https://fantasy.premierleague.com/gcs/plfpl-production-adobe-approved/plfpl-production/593428/8b4a80d2-d182-40cd-9f0c-0d9f3a1f3a55.png",
        "entry": 593428,
        "entry_name": "Metro Produce",
        "event_total": 58,
        "has_played": true,
        "id": 3999155,
        "last_rank": 59291,
        "player_name": "Jonathan Stellino",
        "rank": 56816,
        "rank_sort": 56835,
        "total": 2348
      },
      {
        "club_badge_src": null,
        "entry": 629583,
        "entry_name": "VanDeVengersAssemble",
        "event_total": 64,
        "has_played": true,
        "id": 4254351,
        "last_rank": 62724,
        "player_name": "Tom Miller",
        "rank": 56816,
        "rank_sort": 56836,
        "total": 2348
      },
      {
        "club_badge_src": null,
        "entry": 768533,
        "entry_name": "ShawOfTheDead",
        "event_total": 53,
        "has_played": true,
        "id": 5241870,
        "last_rank": 50905,
        "player_name": "Bror August Knutsen H\u00f8dneb\u00f8",
        "rank": 56816,
        "rank_sort": 56837,
        "total": 2348
      },
      {
        "club_badge_src": null,
        "entry": 847981,
        "entry_name": "Shiver Me Timber",
        "event_total": 59,
        "has_played": true,
        "id": 5811779,
        "last_rank": 54065,
        "player_name": "George Edmondson MBE",
        "rank": 56816,
        "rank_sort": 56838,
        "total": 2348
      },
      {
        "club_badge_src": "https://fantasy.premierleague.com/gcs/plfpl-production-adobe-approved/plfpl-production/875040/08c4e0a4-487a-45fc-aee3-35cae83d79e2.png",
        "entry": 875040,
        "entry_name": "GHOST",
        "event_total": 51,
        "has_played": true,
        "id": 5999198,
        "last_rank": 42152,
        "player_name": "matthew Asemota",
        "rank": 56816,
        "rank_sort": 56839,
        "total": 2348
      },
      {
        "club_badge_src": "https://fantasy.premierleague.com/gcs/plfpl-production-adobe-approved/plfpl-production/1103607/5da219df-9618-4924-b653-85bf6f234411.png",
        "entry": 1103607,
        "entry_name": "Real Cumbria",
        "event_total": 64,
        "has_played": true,
        "id": 7644361,
        "last_rank": 70276,
        "player_name": "Andrew Smith",
        "rank": 56816,
        "rank_sort": 56840,
        "total": 2348
      },
      {
        "club_badge_src": null,
        "entry": 1141719,
        "entry_name": "Hee-Chans Hwang",
        "event_total": 55,
        "has_played": true,
        "id": 7914257,
        "last_rank": 54134,
        "player_name": "Tom Monk",
        "rank": 56816,
        "rank_sort": 56841,
        "total": 2348
      },
      {
        "club_badge_src": null,
        "entry": 1407429,
        "entry_name": "Blues FC",
        "event_total": 60,
        "has_played": true,
        "id": 9793004,
        "last_rank": 55747,
        "player_name": "JW Sia",
        "rank": 56816,
        "rank_sort": 56842,
        "total": 2348
      },
      {
        "club_badge_src": null,
        "entry": 1455025,
        "entry_name": "Corn on the Kobbie",
        "event_total": 88,
        "has_played": true,
        "id": 10138618,
        "last_rank": 118946,
        "player_name": "Eilish Harlock",
        "rank": 56816,
        "rank_sort": 56843,
        "total": 2348
      },
      {
        "club_badge_src": null,
        "entry": 1691937,
        "entry_name": "TELOI KANAN FC",
        "event_total": 45,
        "has_played": true,
        "id": 11849520,
        "last_rank": 34749,
        "player_name": "Syafirol Anuar",
        "rank": 56816,
        "rank_sort": 56844,
        "total": 2348
      },
      {
        "club_badge_src": null,
        "entry": 1692482,
        "entry_name": "Hunter hunter",
        "event_total": 59,
        "has_played": true,
        "id": 11853473,
        "last_rank": 61004,
        "player_name": "Abdelrhman Ahmed",
        "rank": 56816,
        "rank_sort": 56845,
        "total": 2348
      },
      {
        "club_badge_src": "https://fantasy.premierleague.com/gcs/plfpl-production-adobe-approved/plfpl-production/1948184/c4ab0cc3-5574-4e73-84fe-cbbd012f23df.png",
        "entry": 1948184,
        "entry_name": "HAMA BSB",
        "event_total": 59,
        "has_played": true,
        "id": 13742348,
        "last_rank": 54065,
        "player_name": "HAMA BSB",
        "rank": 56816,
        "rank_sort": 56846,
        "total": 2348
      },
      {
        "club_badge_src": null,
        "entry": 1966060,
        "entry_name": "\u1270\u130b\u12f3\u120b\u12ed",
        "event_total": 67,
        "has_played": true,
        "id": 13874084,
        "last_rank": 76574,
        "player_name": "Natnael Hailemichael",
        "rank": 56816,
        "rank_sort": 56847,
        "total": 2348
      },
      {
        "club_badge_src": null,
        "entry": 2034405,
        "entry_name": "Wharton Hears a Who!",
        "event_total": 50,
        "has_played": true,
        "id": 14404035,
        "last_rank": 46364,
        "player_name": "Mike Johansson",
        "rank": 56816,
        "rank_sort": 56848,
        "total": 2348
      },
      {
        "club_badge_src": null,
        "entry": 2222673,
        "entry_name": "Kinder Mbeumo",
        "event_total": 70,
        "has_played": true,
        "id": 15830652,
        "last_rank": 74317,
        "player_name": "Jacob Bentley-York",
        "rank": 56816,
        "rank_sort": 56849,
        "total": 2348
      },
      {
        "club_badge_src": null,
        "entry": 2509379,
        "entry_name": "DROPITLIKEITS SLOT\ufffd",
        "event_total": 53,
        "has_played": true,
        "id": 17972030,
        "last_rank": 50905,
        "player_name": "shahzaib khan",
        "rank": 56816,
        "rank_sort": 56850,
        "total": 2348
      }
    ]
  }
}