{
  "last_updated_data": "2026-05-24T23:28:17Z",
  "league": {
    "admin_entry": null,
    "closed": false,
    "code_privacy": "p",
    "created": "2025-07-20T23:14:33.933835Z",
    "cup_league": 2815434,
    "has_cup": true,
    "id": 314,
    "league_type": "s",
    "max_entries": null,
    "name": "Overall",
    "rank": null,
    "scoring": "c",
    "start_event": 1
  },
  "new_entries": {
    "has_next": false,
    "page": 1,
    "results": []
  },
  "standings": {
    "has_next": true,
    "page": 714,
    "results": [
      {
        "club_badge_src": null,
        "entry": 1519833,
        "entry_name": "Chelsea FC",
        "event_total": 48,
        "has_played": true,
        "id": 10600437,
        "last_rank": 22534,
        "player_name": "Micha\u0142 Gawlas",
        "rank": 35583,
        "rank_sort": 35651,
        "total": 2363
      },
      {
        "club_badge_src": null,
        "entry": 1578548,
        "entry_name": "Frank da Tanks Men",
        "event_total": 57,
        "has_played": true,
        "id": 11030520,
        "last_rank": 35619,
        "player_name": "Cameron Byrne",
        "rank": 35583,
        "rank_sort": 35652,
        "total": 2363
      },
      {
        "club_badge_src": "https://fantasy.premierleague.com/gcs/plfpl-production-adobe-approved/plfpl-production/1614483/5732d072-d93f-497e-bd28-9358e8e1d09b.png",
        "entry": 1614483,
        "entry_name": "comunicado oficial",
        "event_total": 59,
        "has_played": true,
        "id": 11296842,
        "last_rank": 38016,
        "player_name": "Andreas Salomonsen",
        "rank": 35583,
        "rank_sort": 35653,
        "total": 2363
      },
      {
        "club_badge_src": null,
        "entry": 1617672,
        "entry_name": "Mawa64",
        "event_total": 53,
        "has_played": true,
        "id": 11319685,
        "last_rank": 30957,
        "player_name": "Mats Wallander",
        "rank": 35583,
        "rank_sort": 35654,
        "total": 2363
      },
      {
        "club_badge_src": null,
        "entry": 1654715,
        "entry_name": "I\u2019m Amad Man",
        "event_total": 73,
        "has_played": true,
        "id": 11584950,
        "last_rank": 51720,
        "player_name": "Josh Johnson",
        "rank": 35583,
        "rank_sort": 35655,
        "total": 2363
      },
      {
        "club_badge_src": null,
        "entry": 1672105,
        "entry_name": "Inter Henderson",
        "event_total": 58,
        "has_played": true,
        "id": 11706732,
        "last_rank": 36624,
        "player_name": "Jack TS",
        "rank": 35583,
        "rank_sort": 35656,
        "total": 2363
      },
      {
        "club_badge_src": null,
        "entry": 1712395,
        "entry_name": "My Little Toney",
        "event_total": 65,
        "has_played": true,
        "id": 11998640,
        "last_rank": 45714,
        "player_name": "Charlie Caunt",
        "rank": 35583,
        "rank_sort": 35657,
        "total": 2363
      },
      {
        "club_badge_src": null,
        "entry": 1749791,
        "entry_name": "Champagne SuperKova",
        "event_total": 57,
        "has_played": true,
        "id": 12279483,
        "last_rank": 35619,
        "player_name": "Gareth Torkington",
        "rank": 35583,
        "rank_sort": 35658,
        "total": 2363
      },
      {
        "club_badge_src": null,
        "entry": 1826510,
        "entry_name": "To je to",
        "event_total": 49,
        "has_played": true,
        "id": 12847196,
        "last_rank": 27020,
        "player_name": "Duje Piric",
        "rank": 35583,
        "rank_sort": 35659,
        "total": 2363
      },
      {
        "club_badge_src": null,
        "entry": 1834261,
        "entry_name": "TNT",
        "event_total": 64,
        "has_played": true,
        "id": 12903225,
        "last_rank": 44303,
        "player_name": "Tarek AO",
        "rank": 35583,
        "rank_sort": 35660,
        "total": 2363
      },
      {
        "club_badge_src": null,
        "entry": 1853749,
        "entry_name": "One man Arne",
        "event_total": 45,
        "has_played": true,
        "id": 13044836,
        "last_rank": 23522,
        "player_name": "Sam Stocks",
        "rank": 35583,
        "rank_sort": 35661,
        "total": 2363
      },
      {
        "club_badge_src": null,
        "entry": 1874919,
        "entry_name": "Floor is Lavia",
        "event_total": 54,
        "has_played": true,
        "id": 13200342,
        "last_rank": 32190,
        "player_name": "Jacob Gillanders",
        "rank": 35583,
        "rank_sort": 35662,
        "total": 2363
      },
      {
        "club_badge_src": "https://fantasy.premierleague.com/gcs/plfpl-production-adobe-approved/plfpl-production/1965357/a28f6c61-74d8-412f-80b0-23f9e576f21c.png",
        "entry": 1965357,
        "entry_name": "WHITE CITY RANGERS",
        "event_total": 68,
        "has_played": true,
        "id": 13867575,
        "last_rank": 50468,
        "player_name": "Barry Smith",
        "rank": 35583,
        "rank_sort": 35663,
        "total": 2363
      },
      {
        "club_badge_src": null,
        "entry": 1996632,
        "entry_name": "Bank of Boehly",
        "event_total": 60,
        "has_played": true,
        "id": 14109430,
        "last_rank": 33936,
        "player_name": "Phin Lacey",
        "rank": 35583,
        "rank_sort": 35664,
        "total": 2363
      },
      {
        "club_badge_src": null,
        "entry": 2009916,
        "entry_name": "FOMOSalah",
        "event_total": 60,
        "has_played": true,
        "id": 14211865,
        "last_rank": 34051,
        "player_name": "WingYew Wong",
        "rank": 35583,
        "rank_sort": 35665,
        "total": 2363
      },
      {
        "club_badge_src": null,
        "entry": 2034014,
        "entry_name": "Cheese FC",
        "event_total": 48,
        "has_played": true,
        "id": 14401182,
        "last_rank": 26230,
        "player_name": "Mark Bowey",
        "rank": 35583,
        "rank_sort": 35666,
        "total": 2363
      },
      {
        "club_badge_src": null,
        "entry": 2054780,
        "entry_name": "Wirtz Case Scenario",
        "event_total": 48,
        "has_played": true,
        "id": 14555542,
        "last_rank": 26088,
        "player_name": "Gowthan Jeyakumar",
        "rank": 35583,
        "rank_sort": 35667,
        "total": 2363
      },
      {
        "club_badge_src": null,
        "entry": 2099618,
        "entry_name": "Moyes will be Moyes",
        "event_total": 66,
        "has_played": true,
        "id": 14897676,
        "last_rank": 47163,
        "player_name": "Luke Dennison",
        "rank": 35583,
        "rank_sort": 35668,
        "total": 2363
      },
      {
        "club_badge_src": "https://fantasy.premierleague.com/gcs/plfpl-production-adobe-approved/plfpl-production/2108590/fe2f76aa-88b4-4185-af91-0391c791330a.png",
        "entry": 2108590,
        "entry_name": "The TrollWall !",
        "event_total": 59,
        "has_played": true,
        "id": 14965214,
        "last_rank": 38016,
        "player_name": "Torgeir Lie",
        "rank": 35583,
        "rank_sort": 35669,
        "total": 2363
      },
      {
        "club_badge_src": null,
        "entry": 2152142,
        "entry_name": "Eze Does It",
        "event_total": 56,
        "has_played": true,
        "id": 15297516,
        "last_rank": 34293,
        "player_name": "Ravi Vinda",
        "rank": 35583,
        "rank_sort": 35670,
        "total": 2363
      },
      {
        "club_badge_src": null,
        "entry": 2180089,
        "entry_name": "Floor is Lavia",
        "event_total": 54,
        "has_played": true,
        "id": 15505150,
        "last_rank": 32190,
        "player_name": "Phil Sanday",
        "rank": 35583,
        "rank_sort": 35671,
        "total": 2363
      },
      {
        "club_badge_src": null,
        "entry": 2191930,
        "entry_name": "Hakuna Tatata FC",
        "event_total": 81,
        "has_played": true,
        "id": 15594797,
        "last_rank": 58071,
        "player_name": "Heygone Chibz",
        "rank": 35583,
        "rank_sort": 35672,
        "total": 2363
      },
      {
        "club_badge_src": null,
        "entry": 2245744,
        "entry_name": "Cairo FC",
        "event_total": 54,
        "has_played": true,
        "id": 16000479,
        "last_rank": 32190,
        "player_name": "Omar El Rakaiby",
        "rank": 35583,
        "rank_sort": 35673,
        "total": 2363
      },
      {
        "club_badge_src": null,
        "entry": 2333947,
        "entry_name": "LUCKY TEAM",
        "event_total": 58,
        "has_played": true,
        "id": 16652939,
        "last_rank": 36831,
        "player_name": "Dusan Lakic",
        "rank": 35583,
        "rank_sort": 35674,
        "total": 2363
      },
      {
        "club_badge_src": null,
        "entry": 2361318,
        "entry_name": "Vengance",
        "event_total": 68,
        "has_played": true,
        "id": 16852154,
        "last_rank": 50199,
        "player_name": "Free palestine",
        "rank": 35583,
        "rank_sort": 35675,
        "total": 2363
      },
      {
        "club_badge_src": null,
        "entry": 2375711,
        "entry_name": "Lukina Stars",
        "event_total": 59,
        "has_played": true,
        "id": 16960616,
        "last_rank": 38016,
        "player_name": "Fabio Crispiniano",
        "rank": 35583,
        "rank_sort": 35676,
        "total": 2363
      },
      {
        "club_badge_src": null,
        "entry": 2550066,
        "entry_name": "Pratima",
        "event_total": 64,
        "has_played": true,
        "id": 18280915,
        "last_rank": 39023,
        "player_name": "Pratima Bajracharya",
        "rank": 35583,
        "rank_sort": 35677,
        "total": 2363
      },
      {
        "club_badge_src": null,
        "entry": 2602392,
        "entry_name": "Iraola Ball",
        "event_total": 46,
        "has_played": true,
        "id": 18691560,
        "last_rank": 24570,
        "player_name": "Liam Franek",
        "rank": 35583,
        "rank_sort": 35678,
        "total": 2363
      },
      {
        "club_badge_src": null,
        "entry": 2678617,
        "entry_name": "Zimmerbeasts",
        "event_total": 59,
        "has_played": true,
        "id": 19264405,
        "last_rank": 37822,
        "player_name": "Brandon Zimmerly",
        "rank": 35583,
        "rank_sort": 35679,
        "total": 2363
      },
      {
        "club_badge_src": "https://fantasy.premierleague.com/gcs/plfpl-production-adobe-approved/plfpl-production/2953782/031e02eb-d659-450d-ba74-1d6a42e8e54a.png",
        "entry": 2953782,
        "entry_name": "RIP Totnum 1882-2026",
        "event_total": 62,
        "has_played": true,
        "id": 21694247,
        "last_rank": 41617,
        "player_name": "Adam Millar Lumer",
        "rank": 35583,
        "rank_sort": 35680,
        "total": 2363
      },
      {
        "club_badge_src": null,
        "entry": 2998676,
        "entry_name": "Meltslow",
        "event_total": 63,
        "has_played": true,
        "id": 22056069,
        "last_rank": 43168,
        "player_name": "Tom Wells",
        "rank": 35583,
        "rank_sort": 35681,
        "total": 2363
      },
      {
        "club_badge_src": null,
        "entry": 3081566,
        "entry_name": "Dawn of Old Trafford",
        "event_total": 66,
        "has_played": true,
        "id": 22702666,
        "last_rank": 41617,
        "player_name": "Zero One",
        "rank": 35583,
        "rank_sort": 35682,
        "total": 2363
      },
      {
        "club_badge_src": null,
        "entry": 3150965,
        "entry_name": "Saka Potatoes",
        "event_total": 58,
        "has_played": true,
        "id": 23268830,
        "last_rank": 36831,
        "player_name": "Paul White",
        "rank": 35583,
        "rank_sort": 35683,
        "total": 2363
      },
      {
        "club_badge_src": null,
        "entry": 3177304,
        "entry_name": "Perfecto",
        "event_total": 51,
        "has_played": true,
        "id": 23477619,
        "last_rank": 29071,
        "player_name": "Rehmat Singh",
        "rank": 35583,
        "rank_sort": 35684,
        "total": 2363
      },
      {
        "club_badge_src": null,
        "entry": 3243393,
        "entry_name": "Willie'sInTheBumper",
        "event_total": 43,
        "has_played": true,
        "id": 23991965,
        "last_rank": 22064,
        "player_name": "Jamie Elsworth",
        "rank": 35583,
        "rank_sort": 35685,
        "total": 2363
      },
      {
        "club_badge_src": null,
        "entry": 3290846,
        "entry_name": "Papuga's Eagles",
        "event_total": 65,
        "has_played": true,
        "id": 24365164,
        "last_rank": 45927,
        "player_name": "Marcin Shadoww",
        "rank": 35583,
        "rank_sort": 35686,
        "total": 2363
      },
      {
        "club_badge_src": null,
        "entry": 3321207,
        "entry_name": "fc bahoz",
        "event_total": 47,
        "has_played": true,
        "id": 24619145,
        "last_rank": 21949,
        "player_name": "Barzan Osman",
        "rank": 35583,
        "rank_sort": 35687,
        "total": 2363
      },
      {
        "club_badge_src": null,
        "entry": 3354441,
        "entry_name": "McTerminators",
        "event_total": 59,
        "has_played": true,
        "id": 24886359,
        "last_rank": 37822,
        "player_name": "Alex Hesslin",
        "rank": 35583,
        "rank_sort": 35688,
        "total": 2363
      },
      {
        "club_badge_src": null,
        "entry": 3506772,
        "entry_name": "Calafiori gurls",
        "event_total": 58,
        "has_played": true,
        "id": 26088099,
        "last_rank": 31995,
        "player_name": "Tom Rowley",
        "rank": 35583,
        "rank_sort": 35689,
        "total": 2363
      },
      {
        "club_badge_src": null,
        "entry": 3558969,
        "entry_name": "Finn Harps",
        "event_total": 65,
        "has_played": true,
        "id": 26498004,
        "last_rank": 45927,
        "player_name": "Kevin Sloan",
        "rank": 35583,
        "rank_sort": 35690,
        "total": 2363
      },
      {
        "club_badge_src": null,
        "entry": 3699954,
        "entry_name": "Uncertain_XI",
        "event_total": 67,
        "has_played": true,
        "id": 27605437,
        "last_rank": 48898,
        "player_name": "Nahid Hasan Raju",
        "rank": 35583,
        "rank_sort": 35691,
        "total": 2363
      },
      {
        "club_badge_src": null,
        "entry": 3896284,
        "entry_name": "Vesterbro Allstars",
        "event_total": 53,
        "has_played": true,
        "id": 29284282,
        "last_rank": 31125,
        "player_name": "Oliver Andersen",
        "rank": 35583,
        "rank_sort": 35692,
        "total": 2363
      },
      {
        "club_badge_src": null,
        "entry": 4056605,
        "entry_name": "BAAG",
        "event_total": 59,
        "has_played": true,
        "id": 30608964,
        "last_rank": 32879,
        "player_name": "Binay Dhakal",
        "rank": 35583,
        "rank_sort": 35693,
        "total": 2363
      },
      {
        "club_badge_src": "https://fantasy.premierleague.com/gcs/plfpl-production-adobe-approved/plfpl-production/4072353/a153760c-e11a-496e-95a5-17dfb799c308.png",
        "entry": 4072353,
        "entry_name": "Szoboszlai og Is",
        "event_total": 60,
        "has_played": true,
        "id": 30738015,
        "last_rank": 39246,
        "player_name": "Johan Jespersen",
        "rank": 35583,
        "rank_sort": 35694,
        "total": 2363
      },
      {
        "club_badge_src": null,
        "entry": 4094639,
        "entry_name": "West Sam United",
        "event_total": 56,
        "has_played": true,
        "id": 30916518,
        "last_rank": 34578,
        "player_name": "Sam Johnson",
        "rank": 35583,
        "rank_sort": 35695,
        "total": 2363
      },
      {
        "club_badge_src": null,
        "entry": 4180797,
        "entry_name": "Bruno, Dos, Tres",
        "event_total": 67,
        "has_played": true,
        "id": 31628647,
        "last_rank": 48642,
        "player_name": "Matt Brown",
        "rank": 35583,
        "rank_sort": 35696,
        "total": 2363
      },
      {
        "club_badge_src": null,
        "entry": 4244265,
        "entry_name": "The Champion",
        "event_total": 60,
        "has_played": true,
        "id": 32168888,
        "last_rank": 39246,
        "player_name": "Mariam Alobeidli",
        "rank": 35583,
        "rank_sort": 35697,
        "total": 2363
      },
      {
        "club_badge_src": null,
        "entry": 4255392,
        "entry_name": "Egg and Bacon Mbappe",
        "event_total": 47,
        "has_played": true,
        "id": 32260779,
        "last_rank": 25436,
        "player_name": "Michael Brown",
        "rank": 35583,
        "rank_sort": 35698,
        "total": 2363
      },
      {
        "club_badge_src": "https://fantasy.premierleague.com/gcs/plfpl-production-adobe-approved/plfpl-production/4348472/1184d9d3-6b5b-4110-9d77-0f8e5967d8c5.png",
        "entry": 4348472,
        "entry_name": "Heung-min Gone",
        "event_total": 54,
        "has_played": true,
        "id": 33019652,
        "last_rank": 31995,
        "player_name": "Kian Chan",
        "rank": 35583,
        "rank_sort": 35699,
        "total": 2363
      },
      {
        "club_badge_src": "https://fantasy.premierleague.com/gcs/plfpl-production-adobe-approved/plfpl-production/4351069/49b5fb51-eb3c-4aa1-b496-ed4ba8d3fd48.png",
        "entry": 4351069,
        "entry_name": "Pink PWNIES",
        "event_total": 60,
        "has_played": true,
        "id": 33040762,
        "last_rank": 39246,
        "player_name": "Derek Mallia",
        "rank": 35583,
        "rank_sort": 35700,
        "total": 2363
      }
    ]
  }
}