{
  "last_updated_data": "2026-05-24T23:28:17Z",
  "league": {
    "admin_entry": null,
    "closed": false,
    "code_privacy": "p",
    "created": "2025-07-20T23:14:33.933835Z",
    "cup_league": 2815434,
    "has_cup": true,
    "id": 314,
    "league_type": "s",
    "max_entries": null,
    "name": "Overall",
    "rank": null,
    "scoring": "c",
    "start_event": 1
  },
  "new_entries": {
    "has_next": false,
    "page": 1,
    "results": []
  },
  "standings": {
    "has_next": true,
    "page": 1617,
    "results": [
      {
        "club_badge_src": null,
        "entry": 3502628,
        "entry_name": "AMIROVISH",
        "event_total": 67,
        "has_played": true,
        "id": 26055928,
        "last_rank": 107485,
        "player_name": "Amir Yosry",
        "rank": 80609,
        "rank_sort": 80801,
        "total": 2335
      },
      {
        "club_badge_src": null,
        "entry": 3556332,
        "entry_name": "Onana what's my name",
        "event_total": 72,
        "has_played": true,
        "id": 26478129,
        "last_rank": 121383,
        "player_name": "Jessica Hargreaves",
        "rank": 80609,
        "rank_sort": 80802,
        "total": 2335
      },
      {
        "club_badge_src": null,
        "entry": 3596122,
        "entry_name": "Lam11",
        "event_total": 63,
        "has_played": true,
        "id": 26782747,
        "last_rank": 96374,
        "player_name": "Ben Lammy",
        "rank": 80609,
        "rank_sort": 80803,
        "total": 2335
      },
      {
        "club_badge_src": null,
        "entry": 3627348,
        "entry_name": "Femkebol****",
        "event_total": 64,
        "has_played": true,
        "id": 27028606,
        "last_rank": 98896,
        "player_name": "Tom Shaw",
        "rank": 80609,
        "rank_sort": 80804,
        "total": 2335
      },
      {
        "club_badge_src": null,
        "entry": 3646585,
        "entry_name": "Back 5\u2019s Matter",
        "event_total": 59,
        "has_played": true,
        "id": 27179682,
        "last_rank": 77676,
        "player_name": "Hiren Mistry",
        "rank": 80609,
        "rank_sort": 80805,
        "total": 2335
      },
      {
        "club_badge_src": null,
        "entry": 3659713,
        "entry_name": "Hakuna Mateta",
        "event_total": 39,
        "has_played": true,
        "id": 27290339,
        "last_rank": 37589,
        "player_name": "Daire McGilloway",
        "rank": 80609,
        "rank_sort": 80806,
        "total": 2335
      },
      {
        "club_badge_src": null,
        "entry": 3660535,
        "entry_name": "FK KjeVil 25",
        "event_total": 46,
        "has_played": true,
        "id": 27296661,
        "last_rank": 60462,
        "player_name": "Kjetil Gulbrands\u00f8y",
        "rank": 80609,
        "rank_sort": 80807,
        "total": 2335
      },
      {
        "club_badge_src": null,
        "entry": 3676917,
        "entry_name": "Rom-Rosin",
        "event_total": 48,
        "has_played": true,
        "id": 27424375,
        "last_rank": 64005,
        "player_name": "Jostein Drange",
        "rank": 80609,
        "rank_sort": 80808,
        "total": 2335
      },
      {
        "club_badge_src": null,
        "entry": 3720478,
        "entry_name": "Obiwon Kobbie",
        "event_total": 47,
        "has_played": true,
        "id": 27764986,
        "last_rank": 61950,
        "player_name": "Aayush Dasmahapatra",
        "rank": 80609,
        "rank_sort": 80809,
        "total": 2335
      },
      {
        "club_badge_src": null,
        "entry": 3745326,
        "entry_name": "PadLad's BadLads",
        "event_total": 48,
        "has_played": true,
        "id": 27959336,
        "last_rank": 64005,
        "player_name": "Patrick McCrudden",
        "rank": 80609,
        "rank_sort": 80810,
        "total": 2335
      },
      {
        "club_badge_src": "https://fantasy.premierleague.com/gcs/plfpl-production-adobe-approved/plfpl-production/3778671/1e94cbc4-2e00-4741-87b5-ddb52ba9edea.png",
        "entry": 3778671,
        "entry_name": "Kick Peler",
        "event_total": 43,
        "has_played": true,
        "id": 28215141,
        "last_rank": 55514,
        "player_name": "Muhammad Irfan",
        "rank": 80609,
        "rank_sort": 80811,
        "total": 2335
      },
      {
        "club_badge_src": null,
        "entry": 3781571,
        "entry_name": "Limbu010",
        "event_total": 61,
        "has_played": true,
        "id": 28238020,
        "last_rank": 82069,
        "player_name": "limbu Sanjog",
        "rank": 80609,
        "rank_sort": 80812,
        "total": 2335
      },
      {
        "club_badge_src": null,
        "entry": 3788169,
        "entry_name": "Boring George.",
        "event_total": 65,
        "has_played": true,
        "id": 28302084,
        "last_rank": 101818,
        "player_name": "George Gooch",
        "rank": 80609,
        "rank_sort": 80813,
        "total": 2335
      },
      {
        "club_badge_src": "https://fantasy.premierleague.com/gcs/plfpl-production-adobe-approved/plfpl-production/3797739/9e3d5a81-8af5-4af9-81d3-21f4123921cf.png",
        "entry": 3797739,
        "entry_name": "Athletico Mince",
        "event_total": 60,
        "has_played": true,
        "id": 28387521,
        "last_rank": 79817,
        "player_name": "Andrew Thomas",
        "rank": 80609,
        "rank_sort": 80814,
        "total": 2335
      },
      {
        "club_badge_src": null,
        "entry": 3797942,
        "entry_name": "Ellora Talent",
        "event_total": 58,
        "has_played": true,
        "id": 28389101,
        "last_rank": 83934,
        "player_name": "Matthew Smith",
        "rank": 80609,
        "rank_sort": 80815,
        "total": 2335
      },
      {
        "club_badge_src": null,
        "entry": 3807593,
        "entry_name": "Firm in L\u00f3pez",
        "event_total": 59,
        "has_played": true,
        "id": 28468132,
        "last_rank": 77676,
        "player_name": "Johannes Nostell",
        "rank": 80609,
        "rank_sort": 80816,
        "total": 2335
      },
      {
        "club_badge_src": null,
        "entry": 3811466,
        "entry_name": "Deportivo La Klevar",
        "event_total": 60,
        "has_played": true,
        "id": 28499902,
        "last_rank": 89426,
        "player_name": "Markus Matland",
        "rank": 80609,
        "rank_sort": 80817,
        "total": 2335
      },
      {
        "club_badge_src": null,
        "entry": 3846006,
        "entry_name": "Pixies FC",
        "event_total": 62,
        "has_played": true,
        "id": 28827148,
        "last_rank": 94255,
        "player_name": "Ruth Pickering",
        "rank": 80609,
        "rank_sort": 80818,
        "total": 2335
      },
      {
        "club_badge_src": null,
        "entry": 3848853,
        "entry_name": "Thomas selby Maffia",
        "event_total": 60,
        "has_played": true,
        "id": 28850406,
        "last_rank": 89426,
        "player_name": "Antonio Matloub",
        "rank": 80609,
        "rank_sort": 80819,
        "total": 2335
      },
      {
        "club_badge_src": null,
        "entry": 3849980,
        "entry_name": "Martial Law",
        "event_total": 60,
        "has_played": true,
        "id": 28859473,
        "last_rank": 89706,
        "player_name": "Jayden Dabral",
        "rank": 80609,
        "rank_sort": 80820,
        "total": 2335
      },
      {
        "club_badge_src": null,
        "entry": 3880888,
        "entry_name": "Kinder Mbeumo",
        "event_total": 55,
        "has_played": true,
        "id": 29160244,
        "last_rank": 77999,
        "player_name": "Chris Masters",
        "rank": 80609,
        "rank_sort": 80821,
        "total": 2335
      },
      {
        "club_badge_src": null,
        "entry": 3986246,
        "entry_name": "Hall'OWeertz",
        "event_total": 76,
        "has_played": true,
        "id": 30011930,
        "last_rank": 133328,
        "player_name": "Nikhil Gupta",
        "rank": 80609,
        "rank_sort": 80822,
        "total": 2335
      },
      {
        "club_badge_src": null,
        "entry": 3990359,
        "entry_name": "Fivechope FC",
        "event_total": 50,
        "has_played": true,
        "id": 30046115,
        "last_rank": 60168,
        "player_name": "David Elias",
        "rank": 80609,
        "rank_sort": 80823,
        "total": 2335
      },
      {
        "club_badge_src": "https://fantasy.premierleague.com/gcs/plfpl-production-adobe-approved/plfpl-production/3999140/b7bc1f19-42c3-4996-a890-83ccfc0c029a.png",
        "entry": 3999140,
        "entry_name": "Silver Statues",
        "event_total": 66,
        "has_played": true,
        "id": 30119128,
        "last_rank": 104388,
        "player_name": "Ryan Napier",
        "rank": 80609,
        "rank_sort": 80824,
        "total": 2335
      },
      {
        "club_badge_src": null,
        "entry": 4018453,
        "entry_name": "Pani Krocankova",
        "event_total": 60,
        "has_played": true,
        "id": 30284624,
        "last_rank": 89055,
        "player_name": "Tereza Krobov\u00e1",
        "rank": 80609,
        "rank_sort": 80825,
        "total": 2335
      },
      {
        "club_badge_src": null,
        "entry": 4091628,
        "entry_name": "It'sUdogieDogWorld",
        "event_total": 47,
        "has_played": true,
        "id": 30892525,
        "last_rank": 61950,
        "player_name": "Marco Fowler",
        "rank": 80609,
        "rank_sort": 80826,
        "total": 2335
      },
      {
        "club_badge_src": null,
        "entry": 4150385,
        "entry_name": "How Dalot can you go",
        "event_total": 75,
        "has_played": true,
        "id": 31370007,
        "last_rank": 117915,
        "player_name": "Keshev Rathour",
        "rank": 80609,
        "rank_sort": 80827,
        "total": 2335
      },
      {
        "club_badge_src": null,
        "entry": 4226618,
        "entry_name": "Spur Me On",
        "event_total": 64,
        "has_played": true,
        "id": 32021737,
        "last_rank": 99296,
        "player_name": "Karen Haywood",
        "rank": 80609,
        "rank_sort": 80828,
        "total": 2335
      },
      {
        "club_badge_src": null,
        "entry": 4230648,
        "entry_name": "Palmer & Estewow FC",
        "event_total": 50,
        "has_played": true,
        "id": 32054785,
        "last_rank": 60168,
        "player_name": "Ali Qasim",
        "rank": 80609,
        "rank_sort": 80829,
        "total": 2335
      },
      {
        "club_badge_src": null,
        "entry": 4368944,
        "entry_name": "Ahmad Owida",
        "event_total": 64,
        "has_played": true,
        "id": 33190091,
        "last_rank": 79431,
        "player_name": "Ahmad Owida",
        "rank": 80609,
        "rank_sort": 80830,
        "total": 2335
      },
      {
        "club_badge_src": null,
        "entry": 4396053,
        "entry_name": "Los Lokos",
        "event_total": 49,
        "has_played": true,
        "id": 33426946,
        "last_rank": 65796,
        "player_name": "Eric Loke",
        "rank": 80609,
        "rank_sort": 80831,
        "total": 2335
      },
      {
        "club_badge_src": null,
        "entry": 4458596,
        "entry_name": "Lavia Las Vegas",
        "event_total": 42,
        "has_played": true,
        "id": 33965831,
        "last_rank": 47163,
        "player_name": "Timmy Allen",
        "rank": 80609,
        "rank_sort": 80832,
        "total": 2335
      },
      {
        "club_badge_src": "https://fantasy.premierleague.com/gcs/plfpl-production-adobe-approved/plfpl-production/4468090/8368d3d7-8260-4336-86cb-e486b8d41f5e.png",
        "entry": 4468090,
        "entry_name": "Sunrisers Hyderabad",
        "event_total": 80,
        "has_played": true,
        "id": 34046740,
        "last_rank": 133328,
        "player_name": "Prem Ammineni",
        "rank": 80609,
        "rank_sort": 80833,
        "total": 2335
      },
      {
        "club_badge_src": null,
        "entry": 4523123,
        "entry_name": "Don't go (a)",
        "event_total": 59,
        "has_played": true,
        "id": 34496407,
        "last_rank": 87074,
        "player_name": "Jack Baldry",
        "rank": 80609,
        "rank_sort": 80834,
        "total": 2335
      },
      {
        "club_badge_src": null,
        "entry": 4604331,
        "entry_name": "Let me be Frank",
        "event_total": 50,
        "has_played": true,
        "id": 35176370,
        "last_rank": 67926,
        "player_name": "Alan Dean",
        "rank": 80609,
        "rank_sort": 80835,
        "total": 2335
      },
      {
        "club_badge_src": null,
        "entry": 4636488,
        "entry_name": "Dave Hedgehog",
        "event_total": 53,
        "has_played": true,
        "id": 35456587,
        "last_rank": 73975,
        "player_name": "Ian Mosedale",
        "rank": 80609,
        "rank_sort": 80836,
        "total": 2335
      },
      {
        "club_badge_src": null,
        "entry": 4643359,
        "entry_name": "Sh\u00e3mb\u00f5l\u00ec\u00e7 Sh\u00e1rks",
        "event_total": 34,
        "has_played": true,
        "id": 35517571,
        "last_rank": 41967,
        "player_name": "Phil M",
        "rank": 80609,
        "rank_sort": 80837,
        "total": 2335
      },
      {
        "club_badge_src": null,
        "entry": 4675402,
        "entry_name": "Saka spuds",
        "event_total": 68,
        "has_played": true,
        "id": 35816278,
        "last_rank": 98896,
        "player_name": "Owen Dawson",
        "rank": 80609,
        "rank_sort": 80838,
        "total": 2335
      },
      {
        "club_badge_src": null,
        "entry": 4723704,
        "entry_name": "Cole as Ice",
        "event_total": 65,
        "has_played": true,
        "id": 36301859,
        "last_rank": 101818,
        "player_name": "Thomas Breistrand",
        "rank": 80609,
        "rank_sort": 80839,
        "total": 2335
      },
      {
        "club_badge_src": null,
        "entry": 4768515,
        "entry_name": "Wirtz team ever",
        "event_total": 62,
        "has_played": true,
        "id": 36700801,
        "last_rank": 94255,
        "player_name": "James Cleaver",
        "rank": 80609,
        "rank_sort": 80840,
        "total": 2335
      },
      {
        "club_badge_src": null,
        "entry": 4792509,
        "entry_name": "Ekitike It Easy",
        "event_total": 41,
        "has_played": true,
        "id": 36896504,
        "last_rank": 51984,
        "player_name": "Matthew Gaut",
        "rank": 80609,
        "rank_sort": 80841,
        "total": 2335
      },
      {
        "club_badge_src": null,
        "entry": 4800352,
        "entry_name": "Lacroixssant",
        "event_total": 57,
        "has_played": true,
        "id": 36959445,
        "last_rank": 82069,
        "player_name": "Ciaran Kinnear",
        "rank": 80609,
        "rank_sort": 80842,
        "total": 2335
      },
      {
        "club_badge_src": null,
        "entry": 4803291,
        "entry_name": "Keym",
        "event_total": 53,
        "has_played": true,
        "id": 36983193,
        "last_rank": 73720,
        "player_name": "Keym Shabani",
        "rank": 80609,
        "rank_sort": 80843,
        "total": 2335
      },
      {
        "club_badge_src": null,
        "entry": 4814358,
        "entry_name": "Tenz",
        "event_total": 49,
        "has_played": true,
        "id": 37071302,
        "last_rank": 65796,
        "player_name": "Rob Li",
        "rank": 80609,
        "rank_sort": 80844,
        "total": 2335
      },
      {
        "club_badge_src": null,
        "entry": 4829555,
        "entry_name": "abra dubravka",
        "event_total": 81,
        "has_played": true,
        "id": 37196739,
        "last_rank": 136624,
        "player_name": "Jack Brooks",
        "rank": 80609,
        "rank_sort": 80845,
        "total": 2335
      },
      {
        "club_badge_src": null,
        "entry": 4838848,
        "entry_name": "kara \u26bd\ufe0f\ufffd",
        "event_total": 53,
        "has_played": true,
        "id": 37274015,
        "last_rank": 73975,
        "player_name": "Kara Tollworthy",
        "rank": 80609,
        "rank_sort": 80846,
        "total": 2335
      },
      {
        "club_badge_src": null,
        "entry": 4886635,
        "entry_name": "yongyong",
        "event_total": 65,
        "has_played": true,
        "id": 37674542,
        "last_rank": 91466,
        "player_name": "John Hou Saeter",
        "rank": 80609,
        "rank_sort": 80847,
        "total": 2335
      },
      {
        "club_badge_src": null,
        "entry": 4894146,
        "entry_name": "Yoro shall not pass",
        "event_total": 44,
        "has_played": true,
        "id": 37735786,
        "last_rank": 57001,
        "player_name": "Aleksander Digre Holten",
        "rank": 80609,
        "rank_sort": 80848,
        "total": 2335
      },
      {
        "club_badge_src": null,
        "entry": 4917682,
        "entry_name": "road to 1m",
        "event_total": 37,
        "has_played": true,
        "id": 37929626,
        "last_rank": 45927,
        "player_name": "Jakub G\u0105bka",
        "rank": 80609,
        "rank_sort": 80849,
        "total": 2335
      },
      {
        "club_badge_src": null,
        "entry": 4923454,
        "entry_name": "442",
        "event_total": 68,
        "has_played": true,
        "id": 37976189,
        "last_rank": 98436,
        "player_name": "Kjetil Heggen",
        "rank": 80609,
        "rank_sort": 80850,
        "total": 2335
      }
    ]
  }
}