{
  "last_updated_data": "2026-05-24T23:28:17Z",
  "league": {
    "admin_entry": null,
    "closed": false,
    "code_privacy": "p",
    "created": "2025-07-20T23:14:33.933835Z",
    "cup_league": 2815434,
    "has_cup": true,
    "id": 314,
    "league_type": "s",
    "max_entries": null,
    "name": "Overall",
    "rank": null,
    "scoring": "c",
    "start_event": 1
  },
  "new_entries": {
    "has_next": false,
    "page": 1,
    "results": []
  },
  "standings": {
    "has_next": true,
    "page": 1088,
    "results": [
      {
        "club_badge_src": null,
        "entry": 116750,
        "entry_name": "Shelby Company Ltd",
        "event_total": 60,
        "has_played": true,
        "id": 762173,
        "last_rank": 53023,
        "player_name": "Brendan Mullooly",
        "rank": 54315,
        "rank_sort": 54351,
        "total": 2349
      },
      {
        "club_badge_src": null,
        "entry": 118130,
        "entry_name": "Patthecat",
        "event_total": 56,
        "has_played": true,
        "id": 770966,
        "last_rank": 46839,
        "player_name": "Patrick Cleary",
        "rank": 54315,
        "rank_sort": 54352,
        "total": 2349
      },
      {
        "club_badge_src": null,
        "entry": 124686,
        "entry_name": "Selection DiLerma",
        "event_total": 44,
        "has_played": true,
        "id": 813257,
        "last_rank": 36624,
        "player_name": "Giancarlo Fiesco",
        "rank": 54315,
        "rank_sort": 54353,
        "total": 2349
      },
      {
        "club_badge_src": null,
        "entry": 125262,
        "entry_name": "45Balotelli",
        "event_total": 52,
        "has_played": true,
        "id": 816938,
        "last_rank": 41324,
        "player_name": "Jacob Meincke",
        "rank": 54315,
        "rank_sort": 54354,
        "total": 2349
      },
      {
        "club_badge_src": null,
        "entry": 134495,
        "entry_name": "Martinellicopter",
        "event_total": 61,
        "has_played": true,
        "id": 875917,
        "last_rank": 61950,
        "player_name": "Will Tidy",
        "rank": 54315,
        "rank_sort": 54355,
        "total": 2349
      },
      {
        "club_badge_src": "https://fantasy.premierleague.com/gcs/plfpl-production-adobe-approved/plfpl-production/138163/e7b2eedc-54ce-44b0-b168-864f1766b63f.png",
        "entry": 138163,
        "entry_name": "Assisting Wood",
        "event_total": 56,
        "has_played": true,
        "id": 901118,
        "last_rank": 53023,
        "player_name": "Michael Symons",
        "rank": 54315,
        "rank_sort": 54356,
        "total": 2349
      },
      {
        "club_badge_src": null,
        "entry": 144503,
        "entry_name": "You Cunha be Serious",
        "event_total": 56,
        "has_played": true,
        "id": 945925,
        "last_rank": 53345,
        "player_name": "Mohammed Arshad",
        "rank": 54315,
        "rank_sort": 54357,
        "total": 2349
      },
      {
        "club_badge_src": null,
        "entry": 148508,
        "entry_name": "Living Saliba Loca",
        "event_total": 64,
        "has_played": true,
        "id": 973493,
        "last_rank": 67063,
        "player_name": "Sam Stanger",
        "rank": 54315,
        "rank_sort": 54358,
        "total": 2349
      },
      {
        "club_badge_src": null,
        "entry": 178490,
        "entry_name": "Saka Potatoes",
        "event_total": 43,
        "has_played": true,
        "id": 1178023,
        "last_rank": 35166,
        "player_name": "Chris Hopkins",
        "rank": 54315,
        "rank_sort": 54359,
        "total": 2349
      },
      {
        "club_badge_src": null,
        "entry": 182321,
        "entry_name": "Luke Shawarma",
        "event_total": 57,
        "has_played": true,
        "id": 1203156,
        "last_rank": 48197,
        "player_name": "Joel Irving",
        "rank": 54315,
        "rank_sort": 54360,
        "total": 2349
      },
      {
        "club_badge_src": "https://fantasy.premierleague.com/gcs/plfpl-production-adobe-approved/plfpl-production/187495/e10fe7e0-d61e-40de-9d0f-c65ecff87f88.png",
        "entry": 187495,
        "entry_name": "Cunha Starts",
        "event_total": 64,
        "has_played": true,
        "id": 1239757,
        "last_rank": 59632,
        "player_name": "Alvoh 09",
        "rank": 54315,
        "rank_sort": 54361,
        "total": 2349
      },
      {
        "club_badge_src": null,
        "entry": 209531,
        "entry_name": "kingkong Arneball",
        "event_total": 60,
        "has_played": true,
        "id": 1393425,
        "last_rank": 53023,
        "player_name": "GlennMarius S\u00f8rg\u00e5rd",
        "rank": 54315,
        "rank_sort": 54362,
        "total": 2349
      },
      {
        "club_badge_src": null,
        "entry": 218542,
        "entry_name": "Staines Massive",
        "event_total": 38,
        "has_played": true,
        "id": 1453345,
        "last_rank": 29688,
        "player_name": "raphy wolf",
        "rank": 54315,
        "rank_sort": 54363,
        "total": 2349
      },
      {
        "club_badge_src": null,
        "entry": 238099,
        "entry_name": "Tesco McNeil Deal",
        "event_total": 67,
        "has_played": true,
        "id": 1584051,
        "last_rank": 73423,
        "player_name": "Charlie Revell",
        "rank": 54315,
        "rank_sort": 54364,
        "total": 2349
      },
      {
        "club_badge_src": null,
        "entry": 261922,
        "entry_name": "Cheeky Nandos",
        "event_total": 59,
        "has_played": true,
        "id": 1741235,
        "last_rank": 51403,
        "player_name": "Mark Caballero",
        "rank": 54315,
        "rank_sort": 54365,
        "total": 2349
      },
      {
        "club_badge_src": null,
        "entry": 282379,
        "entry_name": "Uncle BHOJ",
        "event_total": 64,
        "has_played": true,
        "id": 1879546,
        "last_rank": 67422,
        "player_name": "Josh O'Connor",
        "rank": 54315,
        "rank_sort": 54366,
        "total": 2349
      },
      {
        "club_badge_src": null,
        "entry": 290016,
        "entry_name": "KHALED",
        "event_total": 53,
        "has_played": true,
        "id": 1933557,
        "last_rank": 48197,
        "player_name": "Khalid Abu ALhajj",
        "rank": 54315,
        "rank_sort": 54367,
        "total": 2349
      },
      {
        "club_badge_src": null,
        "entry": 291301,
        "entry_name": "StraightUpCherkinIt",
        "event_total": 71,
        "has_played": true,
        "id": 1942979,
        "last_rank": 81244,
        "player_name": "Saul Magner",
        "rank": 54315,
        "rank_sort": 54368,
        "total": 2349
      },
      {
        "club_badge_src": "https://fantasy.premierleague.com/gcs/plfpl-production-adobe-approved/plfpl-production/305848/caf62928-8d6a-4372-9688-271d019ce153.png",
        "entry": 305848,
        "entry_name": "Boca Jochyms",
        "event_total": 48,
        "has_played": true,
        "id": 2048218,
        "last_rank": 41617,
        "player_name": "Tomasz Jochymski",
        "rank": 54315,
        "rank_sort": 54369,
        "total": 2349
      },
      {
        "club_badge_src": null,
        "entry": 315583,
        "entry_name": "DeHavana",
        "event_total": 62,
        "has_played": true,
        "id": 2115070,
        "last_rank": 63724,
        "player_name": "ken cheah",
        "rank": 54315,
        "rank_sort": 54370,
        "total": 2349
      },
      {
        "club_badge_src": null,
        "entry": 321791,
        "entry_name": "le_fantacia",
        "event_total": 60,
        "has_played": true,
        "id": 2156582,
        "last_rank": 53023,
        "player_name": "rene rocha",
        "rank": 54315,
        "rank_sort": 54371,
        "total": 2349
      },
      {
        "club_badge_src": null,
        "entry": 324726,
        "entry_name": "Dondinho",
        "event_total": 67,
        "has_played": true,
        "id": 2175961,
        "last_rank": 65163,
        "player_name": "Tom Blenkinsop",
        "rank": 54315,
        "rank_sort": 54372,
        "total": 2349
      },
      {
        "club_badge_src": null,
        "entry": 334786,
        "entry_name": "Pain in Dias",
        "event_total": 52,
        "has_played": true,
        "id": 2241767,
        "last_rank": 46839,
        "player_name": "Mike Burton",
        "rank": 54315,
        "rank_sort": 54373,
        "total": 2349
      },
      {
        "club_badge_src": "https://fantasy.premierleague.com/gcs/plfpl-production-adobe-approved/plfpl-production/336699/4f26f828-4112-4420-9b7f-54e4ff6d75e0.png",
        "entry": 336699,
        "entry_name": "VFL Chapel End",
        "event_total": 52,
        "has_played": true,
        "id": 2254166,
        "last_rank": 41324,
        "player_name": "Andy Howarth",
        "rank": 54315,
        "rank_sort": 54374,
        "total": 2349
      },
      {
        "club_badge_src": null,
        "entry": 351016,
        "entry_name": "Corn on the Kobbie",
        "event_total": 50,
        "has_played": true,
        "id": 2349683,
        "last_rank": 44525,
        "player_name": "Daniel Sedgwick",
        "rank": 54315,
        "rank_sort": 54375,
        "total": 2349
      },
      {
        "club_badge_src": "https://fantasy.premierleague.com/gcs/plfpl-production-adobe-approved/plfpl-production/354765/82cf0a9e-762a-4df3-9d5e-8129ebed0e85.png",
        "entry": 354765,
        "entry_name": "PookGoriilaZ",
        "event_total": 60,
        "has_played": true,
        "id": 2374237,
        "last_rank": 60168,
        "player_name": "PookAttapol Phanchet",
        "rank": 54315,
        "rank_sort": 54376,
        "total": 2349
      },
      {
        "club_badge_src": null,
        "entry": 361297,
        "entry_name": "RGB FC",
        "event_total": 58,
        "has_played": true,
        "id": 2417521,
        "last_rank": 56369,
        "player_name": "IBRAHIM KHALID",
        "rank": 54315,
        "rank_sort": 54377,
        "total": 2349
      },
      {
        "club_badge_src": "https://fantasy.premierleague.com/gcs/plfpl-production-adobe-approved/plfpl-production/368243/b14b3f50-ccef-4d03-a4a1-84e8082fa287.png",
        "entry": 368243,
        "entry_name": "Team Sesil\u00e5mi",
        "event_total": 69,
        "has_played": true,
        "id": 2464274,
        "last_rank": 77258,
        "player_name": "Simon Madland",
        "rank": 54315,
        "rank_sort": 54378,
        "total": 2349
      },
      {
        "club_badge_src": null,
        "entry": 381294,
        "entry_name": "Gyok Tuah",
        "event_total": 63,
        "has_played": true,
        "id": 2556010,
        "last_rank": 65163,
        "player_name": "Rory Harrison",
        "rank": 54315,
        "rank_sort": 54379,
        "total": 2349
      },
      {
        "club_badge_src": null,
        "entry": 382832,
        "entry_name": "Old Havertz Kai Hard",
        "event_total": 67,
        "has_played": true,
        "id": 2567183,
        "last_rank": 72702,
        "player_name": "Smj Kolam",
        "rank": 54315,
        "rank_sort": 54380,
        "total": 2349
      },
      {
        "club_badge_src": null,
        "entry": 401379,
        "entry_name": "Eze Game, Eze Life",
        "event_total": 52,
        "has_played": true,
        "id": 2691437,
        "last_rank": 47163,
        "player_name": "Pedro Almeida",
        "rank": 54315,
        "rank_sort": 54381,
        "total": 2349
      },
      {
        "club_badge_src": null,
        "entry": 415303,
        "entry_name": "Krul Summer",
        "event_total": 55,
        "has_played": true,
        "id": 2784047,
        "last_rank": 45252,
        "player_name": "Lee Maguire",
        "rank": 54315,
        "rank_sort": 54382,
        "total": 2349
      },
      {
        "club_badge_src": null,
        "entry": 418693,
        "entry_name": "Fram\u00e5t stolta AIK!",
        "event_total": 50,
        "has_played": true,
        "id": 2806337,
        "last_rank": 44303,
        "player_name": "Amir Pour Heydari",
        "rank": 54315,
        "rank_sort": 54383,
        "total": 2349
      },
      {
        "club_badge_src": null,
        "entry": 422870,
        "entry_name": "PONG PURIN",
        "event_total": 63,
        "has_played": true,
        "id": 2833773,
        "last_rank": 65475,
        "player_name": "Purin Suteerapinyo",
        "rank": 54315,
        "rank_sort": 54384,
        "total": 2349
      },
      {
        "club_badge_src": null,
        "entry": 437488,
        "entry_name": "Ampadu du du",
        "event_total": 59,
        "has_played": true,
        "id": 2933713,
        "last_rank": 51403,
        "player_name": "Edward Coles",
        "rank": 54315,
        "rank_sort": 54385,
        "total": 2349
      },
      {
        "club_badge_src": null,
        "entry": 479895,
        "entry_name": "Child's Play",
        "event_total": 56,
        "has_played": true,
        "id": 3221884,
        "last_rank": 53023,
        "player_name": "Miguil Abib",
        "rank": 54315,
        "rank_sort": 54386,
        "total": 2349
      },
      {
        "club_badge_src": null,
        "entry": 504593,
        "entry_name": "Kene's 11",
        "event_total": 61,
        "has_played": true,
        "id": 3387020,
        "last_rank": 61950,
        "player_name": "Kene Clinton",
        "rank": 54315,
        "rank_sort": 54387,
        "total": 2349
      },
      {
        "club_badge_src": null,
        "entry": 531075,
        "entry_name": "Poggers FC",
        "event_total": 58,
        "has_played": true,
        "id": 3571735,
        "last_rank": 56369,
        "player_name": "Julian Pace",
        "rank": 54315,
        "rank_sort": 54388,
        "total": 2349
      },
      {
        "club_badge_src": "https://fantasy.premierleague.com/gcs/plfpl-production-adobe-approved/plfpl-production/542504/7b55239b-fb21-49b3-809b-9a17b3052ae4.png",
        "entry": 542504,
        "entry_name": "TH8",
        "event_total": 62,
        "has_played": true,
        "id": 3651265,
        "last_rank": 63390,
        "player_name": "Thibaut Henry",
        "rank": 54315,
        "rank_sort": 54389,
        "total": 2349
      },
      {
        "club_badge_src": null,
        "entry": 543930,
        "entry_name": "Stoke-on-Toast",
        "event_total": 60,
        "has_played": true,
        "id": 3660683,
        "last_rank": 53023,
        "player_name": "Jack Pettitt",
        "rank": 54315,
        "rank_sort": 54390,
        "total": 2349
      },
      {
        "club_badge_src": null,
        "entry": 545862,
        "entry_name": "Wirtz case scenario",
        "event_total": 62,
        "has_played": true,
        "id": 3673653,
        "last_rank": 63724,
        "player_name": "Coral Baxendale",
        "rank": 54315,
        "rank_sort": 54391,
        "total": 2349
      },
      {
        "club_badge_src": "https://fantasy.premierleague.com/gcs/plfpl-production-adobe-approved/plfpl-production/548071/be631b56-fd5b-4ace-9c0b-4556a56e070e.png",
        "entry": 548071,
        "entry_name": "Cigarros Por Favor",
        "event_total": 40,
        "has_played": true,
        "id": 3688536,
        "last_rank": 31747,
        "player_name": "Jack Harris",
        "rank": 54315,
        "rank_sort": 54392,
        "total": 2349
      },
      {
        "club_badge_src": null,
        "entry": 555603,
        "entry_name": "RiceRiceBaby",
        "event_total": 49,
        "has_played": true,
        "id": 3739341,
        "last_rank": 42940,
        "player_name": "Eddie Proctor",
        "rank": 54315,
        "rank_sort": 54393,
        "total": 2349
      },
      {
        "club_badge_src": null,
        "entry": 561685,
        "entry_name": "Defoekingbest",
        "event_total": 35,
        "has_played": true,
        "id": 3780779,
        "last_rank": 27020,
        "player_name": "Martin Winter",
        "rank": 54315,
        "rank_sort": 54394,
        "total": 2349
      },
      {
        "club_badge_src": null,
        "entry": 595693,
        "entry_name": "Bolha",
        "event_total": 65,
        "has_played": true,
        "id": 4015977,
        "last_rank": 69323,
        "player_name": "Helder Gomes",
        "rank": 54315,
        "rank_sort": 54395,
        "total": 2349
      },
      {
        "club_badge_src": null,
        "entry": 601885,
        "entry_name": "Arsenal Kwidzyn",
        "event_total": 42,
        "has_played": true,
        "id": 4061579,
        "last_rank": 34458,
        "player_name": "Micha\u0142 Samp",
        "rank": 54315,
        "rank_sort": 54396,
        "total": 2349
      },
      {
        "club_badge_src": "https://fantasy.premierleague.com/gcs/plfpl-production-adobe-approved/plfpl-production/617108/81c379ed-1fd5-4966-9f3f-a737f739bae7.png",
        "entry": 617108,
        "entry_name": "\u0160e\u0161ko and the city \u26bd",
        "event_total": 58,
        "has_played": true,
        "id": 4169580,
        "last_rank": 56708,
        "player_name": "Karan Ghadge",
        "rank": 54315,
        "rank_sort": 54397,
        "total": 2349
      },
      {
        "club_badge_src": null,
        "entry": 635227,
        "entry_name": "daydreaminmelonhead",
        "event_total": 49,
        "has_played": true,
        "id": 4293032,
        "last_rank": 42940,
        "player_name": "matthew bowen",
        "rank": 54315,
        "rank_sort": 54398,
        "total": 2349
      },
      {
        "club_badge_src": null,
        "entry": 637229,
        "entry_name": "HaCunhaMateta",
        "event_total": 49,
        "has_played": true,
        "id": 4306712,
        "last_rank": 42940,
        "player_name": "jack Gregory",
        "rank": 54315,
        "rank_sort": 54399,
        "total": 2349
      },
      {
        "club_badge_src": null,
        "entry": 643867,
        "entry_name": "CampoLead FC",
        "event_total": 42,
        "has_played": true,
        "id": 4351386,
        "last_rank": 34293,
        "player_name": "Jo\u00e3o Cabo",
        "rank": 54315,
        "rank_sort": 54400,
        "total": 2349
      }
    ]
  }
}