{
  "last_updated_data": "2026-05-24T23:28:17Z",
  "league": {
    "admin_entry": null,
    "closed": false,
    "code_privacy": "p",
    "created": "2025-07-20T23:14:33.933835Z",
    "cup_league": 2815434,
    "has_cup": true,
    "id": 314,
    "league_type": "s",
    "max_entries": null,
    "name": "Overall",
    "rank": null,
    "scoring": "c",
    "start_event": 1
  },
  "new_entries": {
    "has_next": false,
    "page": 1,
    "results": []
  },
  "standings": {
    "has_next": true,
    "page": 1238,
    "results": [
      {
        "club_badge_src": null,
        "entry": 8872636,
        "entry_name": "Blue_Wyry",
        "event_total": 65,
        "has_played": true,
        "id": 74243756,
        "last_rank": 78440,
        "player_name": "Marcin Konieczny",
        "rank": 61708,
        "rank_sort": 61851,
        "total": 2345
      },
      {
        "club_badge_src": "https://fantasy.premierleague.com/gcs/plfpl-production-adobe-approved/plfpl-production/8899597/ec925cce-11c2-4ae2-a3f0-189f61aeefe1.png",
        "entry": 8899597,
        "entry_name": "rash decisions only",
        "event_total": 75,
        "has_played": true,
        "id": 74505046,
        "last_rank": 82069,
        "player_name": "Amaan Shaikh",
        "rank": 61708,
        "rank_sort": 61852,
        "total": 2345
      },
      {
        "club_badge_src": "https://fantasy.premierleague.com/gcs/plfpl-production-adobe-approved/plfpl-production/3574/77a27983-730e-4841-a3d5-834efb0e88d4.png",
        "entry": 3574,
        "entry_name": "DJ4ever20",
        "event_total": 58,
        "has_played": true,
        "id": 20264,
        "last_rank": 57200,
        "player_name": "Henning Odden",
        "rank": 61853,
        "rank_sort": 61853,
        "total": 2345
      },
      {
        "club_badge_src": null,
        "entry": 5596,
        "entry_name": "Champ Champ",
        "event_total": 48,
        "has_played": true,
        "id": 31918,
        "last_rank": 42081,
        "player_name": "Keston Lines",
        "rank": 61853,
        "rank_sort": 61854,
        "total": 2345
      },
      {
        "club_badge_src": null,
        "entry": 5967,
        "entry_name": "Saka Potatoes",
        "event_total": 74,
        "has_played": true,
        "id": 34139,
        "last_rank": 89897,
        "player_name": "Mark Pattenden",
        "rank": 61853,
        "rank_sort": 61855,
        "total": 2345
      },
      {
        "club_badge_src": null,
        "entry": 18533,
        "entry_name": "Oh his name is Diogo",
        "event_total": 55,
        "has_played": true,
        "id": 115311,
        "last_rank": 52357,
        "player_name": "Mick Matthews",
        "rank": 61853,
        "rank_sort": 61856,
        "total": 2345
      },
      {
        "club_badge_src": "https://fantasy.premierleague.com/gcs/plfpl-production-adobe-approved/plfpl-production/27955/1dfb33f3-8b99-4ffa-b057-646281c2c226.png",
        "entry": 27955,
        "entry_name": "The1andOnly \ufffd",
        "event_total": 63,
        "has_played": true,
        "id": 176786,
        "last_rank": 66200,
        "player_name": "Abdelrahman Zaki",
        "rank": 61853,
        "rank_sort": 61857,
        "total": 2345
      },
      {
        "club_badge_src": "https://fantasy.premierleague.com/gcs/plfpl-production-adobe-approved/plfpl-production/49875/9d3e6d78-d60e-4ca4-aaa7-0c7e3d81399d.png",
        "entry": 49875,
        "entry_name": "Trixietrace Ravens",
        "event_total": 57,
        "has_played": true,
        "id": 320644,
        "last_rank": 55659,
        "player_name": "Tracy Haupt",
        "rank": 61853,
        "rank_sort": 61858,
        "total": 2345
      },
      {
        "club_badge_src": null,
        "entry": 76370,
        "entry_name": "Cunha believe it?",
        "event_total": 59,
        "has_played": true,
        "id": 496443,
        "last_rank": 52205,
        "player_name": "Dylan Brown",
        "rank": 61853,
        "rank_sort": 61859,
        "total": 2345
      },
      {
        "club_badge_src": null,
        "entry": 77123,
        "entry_name": "ManUtdForever",
        "event_total": 61,
        "has_played": true,
        "id": 501295,
        "last_rank": 70072,
        "player_name": "Rodion Dmitrijev",
        "rank": 61853,
        "rank_sort": 61860,
        "total": 2345
      },
      {
        "club_badge_src": null,
        "entry": 89553,
        "entry_name": "Penske material",
        "event_total": 64,
        "has_played": true,
        "id": 584580,
        "last_rank": 76330,
        "player_name": "Niklas Tysander",
        "rank": 61853,
        "rank_sort": 61861,
        "total": 2345
      },
      {
        "club_badge_src": null,
        "entry": 96101,
        "entry_name": "jj United",
        "event_total": 61,
        "has_played": true,
        "id": 627803,
        "last_rank": 55311,
        "player_name": "Anuchat Sangmanee",
        "rank": 61853,
        "rank_sort": 61862,
        "total": 2345
      },
      {
        "club_badge_src": null,
        "entry": 192384,
        "entry_name": "Ektike Taka",
        "event_total": 57,
        "has_played": true,
        "id": 1274685,
        "last_rank": 62617,
        "player_name": "Charlie English",
        "rank": 61853,
        "rank_sort": 61863,
        "total": 2345
      },
      {
        "club_badge_src": null,
        "entry": 211621,
        "entry_name": "GE10",
        "event_total": 63,
        "has_played": true,
        "id": 1407586,
        "last_rank": 66200,
        "player_name": "George.E .Benyamin",
        "rank": 61853,
        "rank_sort": 61864,
        "total": 2345
      },
      {
        "club_badge_src": null,
        "entry": 221319,
        "entry_name": "Zubivuvuzela",
        "event_total": 70,
        "has_played": true,
        "id": 1471974,
        "last_rank": 80651,
        "player_name": "Giresse Kadima Mpoyi",
        "rank": 61853,
        "rank_sort": 61865,
        "total": 2345
      },
      {
        "club_badge_src": null,
        "entry": 226294,
        "entry_name": "J K",
        "event_total": 38,
        "has_played": true,
        "id": 1505356,
        "last_rank": 34749,
        "player_name": "Junaid Khan",
        "rank": 61853,
        "rank_sort": 61866,
        "total": 2345
      },
      {
        "club_badge_src": null,
        "entry": 264220,
        "entry_name": "Bryan Mbombaclaat",
        "event_total": 52,
        "has_played": true,
        "id": 1756974,
        "last_rank": 54065,
        "player_name": "Viktor Bertfelt Alfredsson",
        "rank": 61853,
        "rank_sort": 61867,
        "total": 2345
      },
      {
        "club_badge_src": "https://fantasy.premierleague.com/gcs/plfpl-production-adobe-approved/plfpl-production/405765/25061e6f-2dbb-4645-a942-c55e0540a6e3.png",
        "entry": 405765,
        "entry_name": "GlokeresFc",
        "event_total": 62,
        "has_played": true,
        "id": 2720532,
        "last_rank": 57200,
        "player_name": "Osama Babur",
        "rank": 61853,
        "rank_sort": 61868,
        "total": 2345
      },
      {
        "club_badge_src": null,
        "entry": 414115,
        "entry_name": "Diet PepSiuuuu",
        "event_total": 72,
        "has_played": true,
        "id": 2776221,
        "last_rank": 76128,
        "player_name": "Faisal Alrashed",
        "rank": 61853,
        "rank_sort": 61869,
        "total": 2345
      },
      {
        "club_badge_src": null,
        "entry": 429623,
        "entry_name": "Dip Your Tosin",
        "event_total": 48,
        "has_played": true,
        "id": 2881501,
        "last_rank": 47812,
        "player_name": "George Mower",
        "rank": 61853,
        "rank_sort": 61870,
        "total": 2345
      },
      {
        "club_badge_src": null,
        "entry": 483837,
        "entry_name": "He doesn't Dezerb it",
        "event_total": 69,
        "has_played": true,
        "id": 3247791,
        "last_rank": 69641,
        "player_name": "lee gaskin",
        "rank": 61853,
        "rank_sort": 61871,
        "total": 2345
      },
      {
        "club_badge_src": null,
        "entry": 514342,
        "entry_name": "sting81",
        "event_total": 71,
        "has_played": true,
        "id": 3453490,
        "last_rank": 92602,
        "player_name": "Mohamad Marahli",
        "rank": 61853,
        "rank_sort": 61872,
        "total": 2345
      },
      {
        "club_badge_src": null,
        "entry": 599611,
        "entry_name": "FcPotkupallo",
        "event_total": 62,
        "has_played": true,
        "id": 4044773,
        "last_rank": 72265,
        "player_name": "Teemu Lehtonen",
        "rank": 61853,
        "rank_sort": 61873,
        "total": 2345
      },
      {
        "club_badge_src": null,
        "entry": 600961,
        "entry_name": "Tanked Up & Wasted",
        "event_total": 44,
        "has_played": true,
        "id": 4054918,
        "last_rank": 37058,
        "player_name": "Jason Andrews",
        "rank": 61853,
        "rank_sort": 61874,
        "total": 2345
      },
      {
        "club_badge_src": "https://fantasy.premierleague.com/gcs/plfpl-production-adobe-approved/plfpl-production/700285/89b2005a-8061-4f84-9b2c-fba843809254.png",
        "entry": 700285,
        "entry_name": "Three-Eyed Raven",
        "event_total": 55,
        "has_played": true,
        "id": 4744393,
        "last_rank": 52357,
        "player_name": "Bolarinwa Razaq Babatunde",
        "rank": 61853,
        "rank_sort": 61875,
        "total": 2345
      },
      {
        "club_badge_src": null,
        "entry": 720045,
        "entry_name": "Stickyscousers",
        "event_total": 65,
        "has_played": true,
        "id": 4888124,
        "last_rank": 70072,
        "player_name": "John Poole",
        "rank": 61853,
        "rank_sort": 61876,
        "total": 2345
      },
      {
        "club_badge_src": null,
        "entry": 721087,
        "entry_name": "MONSEF__7",
        "event_total": 63,
        "has_played": true,
        "id": 4896216,
        "last_rank": 74166,
        "player_name": "monsef adjadji",
        "rank": 61853,
        "rank_sort": 61877,
        "total": 2345
      },
      {
        "club_badge_src": null,
        "entry": 740664,
        "entry_name": "Snoop Udogie Dogg",
        "event_total": 67,
        "has_played": true,
        "id": 5036371,
        "last_rank": 82873,
        "player_name": "Kieran Kasim",
        "rank": 61853,
        "rank_sort": 61878,
        "total": 2345
      },
      {
        "club_badge_src": null,
        "entry": 744013,
        "entry_name": "MartyParty",
        "event_total": 59,
        "has_played": true,
        "id": 5061041,
        "last_rank": 52205,
        "player_name": "Martin Lietaart peerbolte",
        "rank": 61853,
        "rank_sort": 61879,
        "total": 2345
      },
      {
        "club_badge_src": null,
        "entry": 770422,
        "entry_name": "Future Is Bright(on)",
        "event_total": 66,
        "has_played": true,
        "id": 5255588,
        "last_rank": 80651,
        "player_name": "Teo Karmaos",
        "rank": 61853,
        "rank_sort": 61880,
        "total": 2345
      },
      {
        "club_badge_src": null,
        "entry": 791462,
        "entry_name": "The Last Shaman",
        "event_total": 65,
        "has_played": true,
        "id": 5416032,
        "last_rank": 69907,
        "player_name": "Onua Obas",
        "rank": 61853,
        "rank_sort": 61881,
        "total": 2345
      },
      {
        "club_badge_src": null,
        "entry": 813895,
        "entry_name": "Guns N 'Kerkez",
        "event_total": 59,
        "has_played": true,
        "id": 5573266,
        "last_rank": 66296,
        "player_name": "Marley Streete",
        "rank": 61853,
        "rank_sort": 61882,
        "total": 2345
      },
      {
        "club_badge_src": null,
        "entry": 954146,
        "entry_name": "Strak DevilZzZ",
        "event_total": 67,
        "has_played": true,
        "id": 6574088,
        "last_rank": 83018,
        "player_name": "Nedelcho Nedelchev",
        "rank": 61853,
        "rank_sort": 61883,
        "total": 2345
      },
      {
        "club_badge_src": null,
        "entry": 974472,
        "entry_name": "NoGame",
        "event_total": 62,
        "has_played": true,
        "id": 6717480,
        "last_rank": 64319,
        "player_name": "Philip Lura",
        "rank": 61853,
        "rank_sort": 61884,
        "total": 2345
      },
      {
        "club_badge_src": null,
        "entry": 1010940,
        "entry_name": "Get Mayendaway",
        "event_total": 61,
        "has_played": true,
        "id": 6992098,
        "last_rank": 48898,
        "player_name": "Michael Brunning",
        "rank": 61853,
        "rank_sort": 61885,
        "total": 2345
      },
      {
        "club_badge_src": null,
        "entry": 1021845,
        "entry_name": "The Sleepy Lions",
        "event_total": 71,
        "has_played": true,
        "id": 7069750,
        "last_rank": 73975,
        "player_name": "Roisin Finnegan",
        "rank": 61853,
        "rank_sort": 61886,
        "total": 2345
      },
      {
        "club_badge_src": "https://fantasy.premierleague.com/gcs/plfpl-production-adobe-approved/plfpl-production/1066244/e946bf46-ca90-4627-a93a-b158fd800887.png",
        "entry": 1066244,
        "entry_name": "Soomro's All Stars",
        "event_total": 63,
        "has_played": true,
        "id": 7381301,
        "last_rank": 66200,
        "player_name": "Imran Soomro",
        "rank": 61853,
        "rank_sort": 61887,
        "total": 2345
      },
      {
        "club_badge_src": null,
        "entry": 1066364,
        "entry_name": "FudbalJeNa\u0161aKruha",
        "event_total": 61,
        "has_played": true,
        "id": 7382186,
        "last_rank": 62617,
        "player_name": "Tine Ilersic",
        "rank": 61853,
        "rank_sort": 61888,
        "total": 2345
      },
      {
        "club_badge_src": null,
        "entry": 1092194,
        "entry_name": "ledoo",
        "event_total": 56,
        "has_played": true,
        "id": 7564326,
        "last_rank": 60933,
        "player_name": "ahmed hany",
        "rank": 61853,
        "rank_sort": 61889,
        "total": 2345
      },
      {
        "club_badge_src": null,
        "entry": 1259965,
        "entry_name": "Hodepine",
        "event_total": 58,
        "has_played": true,
        "id": 8752205,
        "last_rank": 64319,
        "player_name": "Johannes Korsgaarden",
        "rank": 61853,
        "rank_sort": 61890,
        "total": 2345
      },
      {
        "club_badge_src": null,
        "entry": 1264568,
        "entry_name": "Arne's Slot Machine",
        "event_total": 66,
        "has_played": true,
        "id": 8786284,
        "last_rank": 80781,
        "player_name": "Lewis Appleton",
        "rank": 61853,
        "rank_sort": 61891,
        "total": 2345
      },
      {
        "club_badge_src": null,
        "entry": 1270031,
        "entry_name": "KinderMbeumo",
        "event_total": 60,
        "has_played": true,
        "id": 8824206,
        "last_rank": 68216,
        "player_name": "Xenia Georgiou",
        "rank": 61853,
        "rank_sort": 61892,
        "total": 2345
      },
      {
        "club_badge_src": null,
        "entry": 1271684,
        "entry_name": "ForZaMiLaN",
        "event_total": 48,
        "has_played": true,
        "id": 8836076,
        "last_rank": 47812,
        "player_name": "Forza -\ufe0f MILAN-",
        "rank": 61853,
        "rank_sort": 61893,
        "total": 2345
      },
      {
        "club_badge_src": "https://fantasy.premierleague.com/gcs/plfpl-production-adobe-approved/plfpl-production/1311934/53efb678-f537-4e03-8dc1-d39312d44a48.png",
        "entry": 1311934,
        "entry_name": "All Ears",
        "event_total": 66,
        "has_played": true,
        "id": 9119053,
        "last_rank": 80781,
        "player_name": "Tim Bartlett Parker",
        "rank": 61853,
        "rank_sort": 61894,
        "total": 2345
      },
      {
        "club_badge_src": null,
        "entry": 1399086,
        "entry_name": "Turn and Dan Burn",
        "event_total": 63,
        "has_played": true,
        "id": 9733716,
        "last_rank": 66200,
        "player_name": "jacob payling",
        "rank": 61853,
        "rank_sort": 61895,
        "total": 2345
      },
      {
        "club_badge_src": "https://fantasy.premierleague.com/gcs/plfpl-production-adobe-approved/plfpl-production/1402632/e6291025-c39a-4c2f-a7b4-88815ac2b4b9.png",
        "entry": 1402632,
        "entry_name": "MadFox XI",
        "event_total": 55,
        "has_played": true,
        "id": 9759149,
        "last_rank": 59170,
        "player_name": "Terry Dowe",
        "rank": 61853,
        "rank_sort": 61896,
        "total": 2345
      },
      {
        "club_badge_src": "https://fantasy.premierleague.com/gcs/plfpl-production-adobe-approved/plfpl-production/1558919/18eba3fc-0b91-4f3b-a7a1-aeb33b3dea1f.png",
        "entry": 1558919,
        "entry_name": "undertakeTHEMALL",
        "event_total": 54,
        "has_played": true,
        "id": 10886844,
        "last_rank": 50772,
        "player_name": "Nikola Markovic",
        "rank": 61853,
        "rank_sort": 61897,
        "total": 2345
      },
      {
        "club_badge_src": null,
        "entry": 1605315,
        "entry_name": "Vamos Madrid",
        "event_total": 62,
        "has_played": true,
        "id": 11231056,
        "last_rank": 72265,
        "player_name": "Mathias Kr\u00f8yer Petersen",
        "rank": 61853,
        "rank_sort": 61898,
        "total": 2345
      },
      {
        "club_badge_src": null,
        "entry": 1688593,
        "entry_name": "\u9e7f\u540c\u5b78deerest",
        "event_total": 65,
        "has_played": true,
        "id": 11820637,
        "last_rank": 70072,
        "player_name": "\u9e7f \u540c\u5b78",
        "rank": 61853,
        "rank_sort": 61899,
        "total": 2345
      },
      {
        "club_badge_src": null,
        "entry": 1689032,
        "entry_name": "W's down under",
        "event_total": 66,
        "has_played": true,
        "id": 11824086,
        "last_rank": 80781,
        "player_name": "Ben Thomas",
        "rank": 61853,
        "rank_sort": 61900,
        "total": 2345
      }
    ]
  }
}