{
  "last_updated_data": "2026-05-24T23:28:17Z",
  "league": {
    "admin_entry": null,
    "closed": false,
    "code_privacy": "p",
    "created": "2025-07-20T23:14:33.933835Z",
    "cup_league": 2815434,
    "has_cup": true,
    "id": 314,
    "league_type": "s",
    "max_entries": null,
    "name": "Overall",
    "rank": null,
    "scoring": "c",
    "start_event": 1
  },
  "new_entries": {
    "has_next": false,
    "page": 1,
    "results": []
  },
  "standings": {
    "has_next": true,
    "page": 223,
    "results": [
      {
        "club_badge_src": null,
        "entry": 1965611,
        "entry_name": "Leach First XI",
        "event_total": 64,
        "has_played": true,
        "id": 13869448,
        "last_rank": 14102,
        "player_name": "Craig Leach",
        "rank": 11075,
        "rank_sort": 11101,
        "total": 2396
      },
      {
        "club_badge_src": null,
        "entry": 2093222,
        "entry_name": "Lydia Nalen2",
        "event_total": 57,
        "has_played": true,
        "id": 14851413,
        "last_rank": 10600,
        "player_name": "christer kristoffersen",
        "rank": 11075,
        "rank_sort": 11102,
        "total": 2396
      },
      {
        "club_badge_src": null,
        "entry": 2125234,
        "entry_name": "Sausage & Mash",
        "event_total": 59,
        "has_played": true,
        "id": 15100021,
        "last_rank": 11482,
        "player_name": "Ross Adams",
        "rank": 11075,
        "rank_sort": 11103,
        "total": 2396
      },
      {
        "club_badge_src": null,
        "entry": 2138386,
        "entry_name": "Machine Gun Skelly",
        "event_total": 67,
        "has_played": true,
        "id": 15197263,
        "last_rank": 13500,
        "player_name": "axel dalen",
        "rank": 11075,
        "rank_sort": 11104,
        "total": 2396
      },
      {
        "club_badge_src": null,
        "entry": 2179312,
        "entry_name": "DK - Abdul",
        "event_total": 52,
        "has_played": true,
        "id": 15498909,
        "last_rank": 7193,
        "player_name": "Abdul Salam Kamal",
        "rank": 11075,
        "rank_sort": 11105,
        "total": 2396
      },
      {
        "club_badge_src": null,
        "entry": 2298014,
        "entry_name": "Bombes",
        "event_total": 59,
        "has_played": true,
        "id": 16390031,
        "last_rank": 11482,
        "player_name": "Abdalla Khaled",
        "rank": 11075,
        "rank_sort": 11106,
        "total": 2396
      },
      {
        "club_badge_src": null,
        "entry": 2797149,
        "entry_name": "Rock and roll Sarr",
        "event_total": 63,
        "has_played": true,
        "id": 20424720,
        "last_rank": 11419,
        "player_name": "Luke Donnellan",
        "rank": 11075,
        "rank_sort": 11107,
        "total": 2396
      },
      {
        "club_badge_src": null,
        "entry": 3195522,
        "entry_name": "UIRTZ",
        "event_total": 57,
        "has_played": true,
        "id": 23619461,
        "last_rank": 10600,
        "player_name": "Dito Gigu",
        "rank": 11075,
        "rank_sort": 11108,
        "total": 2396
      },
      {
        "club_badge_src": null,
        "entry": 3364492,
        "entry_name": "Emile & the Donkeys*",
        "event_total": 49,
        "has_played": true,
        "id": 24965735,
        "last_rank": 5241,
        "player_name": "Tom Burton",
        "rank": 11075,
        "rank_sort": 11109,
        "total": 2396
      },
      {
        "club_badge_src": null,
        "entry": 3594794,
        "entry_name": "mills mermaids",
        "event_total": 63,
        "has_played": true,
        "id": 26772768,
        "last_rank": 13500,
        "player_name": "Kain Ander",
        "rank": 11075,
        "rank_sort": 11110,
        "total": 2396
      },
      {
        "club_badge_src": null,
        "entry": 3645750,
        "entry_name": "Hold my xG",
        "event_total": 71,
        "has_played": true,
        "id": 27171956,
        "last_rank": 15797,
        "player_name": "Sagar Rughani",
        "rank": 11075,
        "rank_sort": 11111,
        "total": 2396
      },
      {
        "club_badge_src": "https://fantasy.premierleague.com/gcs/plfpl-production-adobe-approved/plfpl-production/4014413/bc5f4bcd-f545-45b7-afa4-057c896c7b09.png",
        "entry": 4014413,
        "entry_name": "Guttebassene",
        "event_total": 68,
        "has_played": true,
        "id": 30251328,
        "last_rank": 16441,
        "player_name": "Nicolai Trondal",
        "rank": 11075,
        "rank_sort": 11112,
        "total": 2396
      },
      {
        "club_badge_src": null,
        "entry": 4258487,
        "entry_name": "Old Haverts Kai Hard",
        "event_total": 50,
        "has_played": true,
        "id": 32286154,
        "last_rank": 7863,
        "player_name": "James Tiley",
        "rank": 11075,
        "rank_sort": 11113,
        "total": 2396
      },
      {
        "club_badge_src": null,
        "entry": 4854333,
        "entry_name": "Enter Hazard",
        "event_total": 66,
        "has_played": true,
        "id": 37403097,
        "last_rank": 12940,
        "player_name": "Sam E",
        "rank": 11075,
        "rank_sort": 11114,
        "total": 2396
      },
      {
        "club_badge_src": null,
        "entry": 5602274,
        "entry_name": "Bastian United",
        "event_total": 60,
        "has_played": true,
        "id": 43776004,
        "last_rank": 10102,
        "player_name": "Christian Skisaker Liane",
        "rank": 11075,
        "rank_sort": 11115,
        "total": 2396
      },
      {
        "club_badge_src": "https://fantasy.premierleague.com/gcs/plfpl-production-adobe-approved/plfpl-production/6272853/c96936a1-ad44-4428-85ec-c278e58641b3.png",
        "entry": 6272853,
        "entry_name": "Hotspur Heroes",
        "event_total": 62,
        "has_played": true,
        "id": 49672554,
        "last_rank": 12940,
        "player_name": "Oliver Kristensen",
        "rank": 11075,
        "rank_sort": 11116,
        "total": 2396
      },
      {
        "club_badge_src": null,
        "entry": 6470477,
        "entry_name": "roska",
        "event_total": 63,
        "has_played": true,
        "id": 51554368,
        "last_rank": 9644,
        "player_name": "roska me",
        "rank": 11075,
        "rank_sort": 11117,
        "total": 2396
      },
      {
        "club_badge_src": "https://fantasy.premierleague.com/gcs/plfpl-production-adobe-approved/plfpl-production/274783/2d6a74e8-74a3-45c8-b24d-8f6a83606d46.png",
        "entry": 274783,
        "entry_name": "Destined Toulouse",
        "event_total": 71,
        "has_played": true,
        "id": 1828483,
        "last_rank": 18520,
        "player_name": "George Newton",
        "rank": 11118,
        "rank_sort": 11118,
        "total": 2396
      },
      {
        "club_badge_src": null,
        "entry": 336687,
        "entry_name": "Wirtz team ever",
        "event_total": 59,
        "has_played": true,
        "id": 2254094,
        "last_rank": 11516,
        "player_name": "Mads Bj\u00f8rkly",
        "rank": 11118,
        "rank_sort": 11119,
        "total": 2396
      },
      {
        "club_badge_src": "https://fantasy.premierleague.com/gcs/plfpl-production-adobe-approved/plfpl-production/375216/f6319c61-1e5d-4cea-98f4-fd16e2e6fc55.png",
        "entry": 375216,
        "entry_name": "3loom",
        "event_total": 79,
        "has_played": true,
        "id": 2511869,
        "last_rank": 18377,
        "player_name": "Alam Mohamed",
        "rank": 11118,
        "rank_sort": 11120,
        "total": 2396
      },
      {
        "club_badge_src": null,
        "entry": 486340,
        "entry_name": "Rollxer FC",
        "event_total": 58,
        "has_played": true,
        "id": 3265043,
        "last_rank": 9350,
        "player_name": "Ditsarin Seangchand",
        "rank": 11118,
        "rank_sort": 11121,
        "total": 2396
      },
      {
        "club_badge_src": "https://fantasy.premierleague.com/gcs/plfpl-production-adobe-approved/plfpl-production/508885/e722e064-6e57-4c6b-9a47-2d5928a883b6.png",
        "entry": 508885,
        "entry_name": "Gyok Tuah",
        "event_total": 78,
        "has_played": true,
        "id": 3416362,
        "last_rank": 20624,
        "player_name": "Elliot Gibbs",
        "rank": 11118,
        "rank_sort": 11122,
        "total": 2396
      },
      {
        "club_badge_src": null,
        "entry": 738014,
        "entry_name": "Change Name",
        "event_total": 44,
        "has_played": true,
        "id": 5017471,
        "last_rank": 6106,
        "player_name": "James Birtwistle",
        "rank": 11118,
        "rank_sort": 11123,
        "total": 2396
      },
      {
        "club_badge_src": null,
        "entry": 852006,
        "entry_name": "Benchwarmers FC",
        "event_total": 69,
        "has_played": true,
        "id": 5839988,
        "last_rank": 17078,
        "player_name": "Ethan Chambers",
        "rank": 11118,
        "rank_sort": 11124,
        "total": 2396
      },
      {
        "club_badge_src": "https://fantasy.premierleague.com/gcs/plfpl-production-adobe-approved/plfpl-production/1122063/4083c195-3593-4e34-9b66-5b65fa71a2c9.png",
        "entry": 1122063,
        "entry_name": "Obi Wan Kenobi Nil",
        "event_total": 62,
        "has_played": true,
        "id": 7773801,
        "last_rank": 13033,
        "player_name": "Jamie Craib",
        "rank": 11118,
        "rank_sort": 11125,
        "total": 2396
      },
      {
        "club_badge_src": null,
        "entry": 1267347,
        "entry_name": "BenjaFlynn Sesko FC",
        "event_total": 74,
        "has_played": true,
        "id": 8805701,
        "last_rank": 17802,
        "player_name": "Paul Flynn",
        "rank": 11118,
        "rank_sort": 11126,
        "total": 2396
      },
      {
        "club_badge_src": "https://fantasy.premierleague.com/gcs/plfpl-production-adobe-approved/plfpl-production/1526900/68d27f8c-00cd-4832-ad2c-aa7f729c9979.png",
        "entry": 1526900,
        "entry_name": "Lalulast FC",
        "event_total": 68,
        "has_played": true,
        "id": 10649770,
        "last_rank": 11821,
        "player_name": "Izzul Zaker",
        "rank": 11118,
        "rank_sort": 11127,
        "total": 2396
      },
      {
        "club_badge_src": null,
        "entry": 1654799,
        "entry_name": "Taking Le Bris",
        "event_total": 71,
        "has_played": true,
        "id": 11585544,
        "last_rank": 18377,
        "player_name": "Jake Bays",
        "rank": 11118,
        "rank_sort": 11128,
        "total": 2396
      },
      {
        "club_badge_src": null,
        "entry": 1764321,
        "entry_name": "\u0645\u0628\u0639\u062a\u0645\u062f\u0634 \u0623\u0633\u0627\u0645\u0649Number1",
        "event_total": 52,
        "has_played": true,
        "id": 12390528,
        "last_rank": 6061,
        "player_name": "Hady Elsharawy",
        "rank": 11118,
        "rank_sort": 11129,
        "total": 2396
      },
      {
        "club_badge_src": null,
        "entry": 2140295,
        "entry_name": "Trini_Sammy FC",
        "event_total": 72,
        "has_played": true,
        "id": 15211110,
        "last_rank": 16512,
        "player_name": "Ashton Samuel",
        "rank": 11118,
        "rank_sort": 11130,
        "total": 2396
      },
      {
        "club_badge_src": null,
        "entry": 2401421,
        "entry_name": "(C)old Palmer",
        "event_total": 67,
        "has_played": true,
        "id": 17163636,
        "last_rank": 13558,
        "player_name": "Leo Mcginley",
        "rank": 11118,
        "rank_sort": 11131,
        "total": 2396
      },
      {
        "club_badge_src": null,
        "entry": 2510390,
        "entry_name": "DEXTER",
        "event_total": 65,
        "has_played": true,
        "id": 17983963,
        "last_rank": 14712,
        "player_name": "youness Chamroune",
        "rank": 11118,
        "rank_sort": 11132,
        "total": 2396
      },
      {
        "club_badge_src": "https://fantasy.premierleague.com/gcs/plfpl-production-adobe-approved/plfpl-production/2537069/898e6c7e-6cd0-4306-a8cb-35dfcdae76ad.png",
        "entry": 2537069,
        "entry_name": "ELGANADOR",
        "event_total": 60,
        "has_played": true,
        "id": 18182006,
        "last_rank": 11999,
        "player_name": "Winner Ganador",
        "rank": 11118,
        "rank_sort": 11133,
        "total": 2396
      },
      {
        "club_badge_src": null,
        "entry": 2635486,
        "entry_name": "Kudus for scoring",
        "event_total": 49,
        "has_played": true,
        "id": 18941131,
        "last_rank": 7547,
        "player_name": "Gaute Granheim",
        "rank": 11118,
        "rank_sort": 11134,
        "total": 2396
      },
      {
        "club_badge_src": null,
        "entry": 2730779,
        "entry_name": "SH 10",
        "event_total": 63,
        "has_played": true,
        "id": 19651232,
        "last_rank": 13558,
        "player_name": "Shaha Fantasy",
        "rank": 11118,
        "rank_sort": 11135,
        "total": 2396
      },
      {
        "club_badge_src": null,
        "entry": 2806862,
        "entry_name": "Missi\u00e9 Moustasse",
        "event_total": 69,
        "has_played": true,
        "id": 20498711,
        "last_rank": 17194,
        "player_name": "Yash Sooroojebally",
        "rank": 11118,
        "rank_sort": 11136,
        "total": 2396
      },
      {
        "club_badge_src": null,
        "entry": 3466646,
        "entry_name": "LAD Utd",
        "event_total": 66,
        "has_played": true,
        "id": 25770705,
        "last_rank": 15280,
        "player_name": "Lee Dennis",
        "rank": 11118,
        "rank_sort": 11137,
        "total": 2396
      },
      {
        "club_badge_src": "https://fantasy.premierleague.com/gcs/plfpl-production-adobe-approved/plfpl-production/3552474/10dc955f-75a9-420b-afb8-cb36f53215ea.png",
        "entry": 3552474,
        "entry_name": "Jammie Rogers",
        "event_total": 49,
        "has_played": true,
        "id": 26447781,
        "last_rank": 7547,
        "player_name": "Zayaan Aziz",
        "rank": 11118,
        "rank_sort": 11138,
        "total": 2396
      },
      {
        "club_badge_src": null,
        "entry": 4153980,
        "entry_name": "Fc Langz",
        "event_total": 69,
        "has_played": true,
        "id": 31398504,
        "last_rank": 14668,
        "player_name": "Ungad Bhate",
        "rank": 11118,
        "rank_sort": 11139,
        "total": 2396
      },
      {
        "club_badge_src": null,
        "entry": 6794719,
        "entry_name": "Caf\u00e9jentene",
        "event_total": 61,
        "has_played": true,
        "id": 54413212,
        "last_rank": 12420,
        "player_name": "Jesper Barth",
        "rank": 11118,
        "rank_sort": 11140,
        "total": 2396
      },
      {
        "club_badge_src": null,
        "entry": 8123100,
        "entry_name": "Kroos Control XI",
        "event_total": 68,
        "has_played": true,
        "id": 67017222,
        "last_rank": 14040,
        "player_name": "Kuda Kadyamadare",
        "rank": 11118,
        "rank_sort": 11141,
        "total": 2396
      },
      {
        "club_badge_src": "https://fantasy.premierleague.com/gcs/plfpl-production-adobe-approved/plfpl-production/9106938/424436ea-52ba-4a85-8ce1-6b5fed2ec3dc.png",
        "entry": 9106938,
        "entry_name": "Nasi Lemak Telur 2",
        "event_total": 58,
        "has_played": true,
        "id": 76519652,
        "last_rank": 11058,
        "player_name": "Livendran Nair",
        "rank": 11118,
        "rank_sort": 11142,
        "total": 2396
      },
      {
        "club_badge_src": null,
        "entry": 9148963,
        "entry_name": "GargajiyaUtd",
        "event_total": 57,
        "has_played": true,
        "id": 76930628,
        "last_rank": 10651,
        "player_name": "Sadiq Sani Muhammad",
        "rank": 11118,
        "rank_sort": 11143,
        "total": 2396
      },
      {
        "club_badge_src": null,
        "entry": 34111,
        "entry_name": "Patrick Samford",
        "event_total": 52,
        "has_played": true,
        "id": 217837,
        "last_rank": 7257,
        "player_name": "Sam Tanner",
        "rank": 11144,
        "rank_sort": 11144,
        "total": 2396
      },
      {
        "club_badge_src": null,
        "entry": 265786,
        "entry_name": "\u0627\u0644\u062d\u062c \u0639\u0628\u062f\u0647",
        "event_total": 72,
        "has_played": true,
        "id": 1767923,
        "last_rank": 16512,
        "player_name": "Abdallah Abdelnaby",
        "rank": 11144,
        "rank_sort": 11145,
        "total": 2396
      },
      {
        "club_badge_src": null,
        "entry": 1427154,
        "entry_name": "RAMY 2025",
        "event_total": 59,
        "has_played": true,
        "id": 9943825,
        "last_rank": 5752,
        "player_name": "Ramy Hussein",
        "rank": 11144,
        "rank_sort": 11146,
        "total": 2396
      },
      {
        "club_badge_src": null,
        "entry": 1453861,
        "entry_name": "Strabandystripes",
        "event_total": 56,
        "has_played": true,
        "id": 10130483,
        "last_rank": 10195,
        "player_name": "Andrew Gallagher",
        "rank": 11144,
        "rank_sort": 11147,
        "total": 2396
      },
      {
        "club_badge_src": null,
        "entry": 2181999,
        "entry_name": "Sunket",
        "event_total": 58,
        "has_played": true,
        "id": 15519871,
        "last_rank": 11080,
        "player_name": "Niclas Prytz",
        "rank": 11144,
        "rank_sort": 11148,
        "total": 2396
      },
      {
        "club_badge_src": null,
        "entry": 3083619,
        "entry_name": "Tinnsoldatene",
        "event_total": 55,
        "has_played": true,
        "id": 22718438,
        "last_rank": 9792,
        "player_name": "Joachim R",
        "rank": 11144,
        "rank_sort": 11149,
        "total": 2396
      },
      {
        "club_badge_src": "https://fantasy.premierleague.com/gcs/plfpl-production-adobe-approved/plfpl-production/4080309/cfc8d31b-6d24-406b-833d-f0144581cb6e.png",
        "entry": 4080309,
        "entry_name": "Skurva North End",
        "event_total": 68,
        "has_played": true,
        "id": 30802104,
        "last_rank": 14148,
        "player_name": "Kjetil Finsrud",
        "rank": 11144,
        "rank_sort": 11150,
        "total": 2396
      }
    ]
  }
}