{
  "last_updated_data": "2026-05-24T23:28:17Z",
  "league": {
    "admin_entry": null,
    "closed": false,
    "code_privacy": "p",
    "created": "2025-07-20T23:14:33.933835Z",
    "cup_league": 2815434,
    "has_cup": true,
    "id": 314,
    "league_type": "s",
    "max_entries": null,
    "name": "Overall",
    "rank": null,
    "scoring": "c",
    "start_event": 1
  },
  "new_entries": {
    "has_next": false,
    "page": 1,
    "results": []
  },
  "standings": {
    "has_next": true,
    "page": 1518,
    "results": [
      {
        "club_badge_src": null,
        "entry": 3281206,
        "entry_name": "skips united fc",
        "event_total": 67,
        "has_played": true,
        "id": 24286814,
        "last_rank": 100949,
        "player_name": "Jordan Gaffney",
        "rank": 75615,
        "rank_sort": 75851,
        "total": 2337
      },
      {
        "club_badge_src": "https://fantasy.premierleague.com/gcs/plfpl-production-adobe-approved/plfpl-production/3332229/940b2e68-8b7e-40f2-9fe3-f11465f229db.png",
        "entry": 3332229,
        "entry_name": "Slot Machine",
        "event_total": 60,
        "has_played": true,
        "id": 24707110,
        "last_rank": 83934,
        "player_name": "Tony Corscadden",
        "rank": 75615,
        "rank_sort": 75852,
        "total": 2337
      },
      {
        "club_badge_src": "https://fantasy.premierleague.com/gcs/plfpl-production-adobe-approved/plfpl-production/3339365/141b69d5-cc95-4e62-95e8-853b557171d3.png",
        "entry": 3339365,
        "entry_name": "Buys & Sels",
        "event_total": 49,
        "has_played": true,
        "id": 24767634,
        "last_rank": 61606,
        "player_name": "Philip Griffiths",
        "rank": 75615,
        "rank_sort": 75853,
        "total": 2337
      },
      {
        "club_badge_src": null,
        "entry": 3418423,
        "entry_name": "Notorious F.I.G",
        "event_total": 38,
        "has_played": true,
        "id": 25391294,
        "last_rank": 44048,
        "player_name": "Angelica Fry",
        "rank": 75615,
        "rank_sort": 75854,
        "total": 2337
      },
      {
        "club_badge_src": null,
        "entry": 3477967,
        "entry_name": "Rhone Ranger",
        "event_total": 74,
        "has_played": true,
        "id": 25860766,
        "last_rank": 119948,
        "player_name": "Ian Walker",
        "rank": 75615,
        "rank_sort": 75855,
        "total": 2337
      },
      {
        "club_badge_src": null,
        "entry": 3490809,
        "entry_name": "Cherryberry",
        "event_total": 75,
        "has_played": true,
        "id": 25960995,
        "last_rank": 123120,
        "player_name": "Sherif Hussein",
        "rank": 75615,
        "rank_sort": 75856,
        "total": 2337
      },
      {
        "club_badge_src": null,
        "entry": 3528302,
        "entry_name": "Toney 2012",
        "event_total": 75,
        "has_played": true,
        "id": 26259219,
        "last_rank": 122897,
        "player_name": "Albert Hughes",
        "rank": 75615,
        "rank_sort": 75857,
        "total": 2337
      },
      {
        "club_badge_src": null,
        "entry": 3541369,
        "entry_name": "Giroud  Sandstorm",
        "event_total": 68,
        "has_played": true,
        "id": 26360742,
        "last_rank": 103254,
        "player_name": "Gareth Clarke",
        "rank": 75615,
        "rank_sort": 75858,
        "total": 2337
      },
      {
        "club_badge_src": null,
        "entry": 3542580,
        "entry_name": "Kinder Mbeumo",
        "event_total": 78,
        "has_played": true,
        "id": 26370257,
        "last_rank": 132758,
        "player_name": "shaun thomas",
        "rank": 75615,
        "rank_sort": 75859,
        "total": 2337
      },
      {
        "club_badge_src": null,
        "entry": 3552024,
        "entry_name": "Inter Row Z",
        "event_total": 45,
        "has_played": true,
        "id": 26444377,
        "last_rank": 54667,
        "player_name": "Ollie Hindry",
        "rank": 75615,
        "rank_sort": 75860,
        "total": 2337
      },
      {
        "club_badge_src": null,
        "entry": 3578187,
        "entry_name": "lads",
        "event_total": 64,
        "has_played": true,
        "id": 26645112,
        "last_rank": 93186,
        "player_name": "Toms Du\u0161elis",
        "rank": 75615,
        "rank_sort": 75861,
        "total": 2337
      },
      {
        "club_badge_src": null,
        "entry": 3605072,
        "entry_name": "Megz",
        "event_total": 86,
        "has_played": true,
        "id": 26852370,
        "last_rank": 159495,
        "player_name": "Mohamed Magdy",
        "rank": 75615,
        "rank_sort": 75862,
        "total": 2337
      },
      {
        "club_badge_src": null,
        "entry": 3625280,
        "entry_name": "FowlPlay",
        "event_total": 42,
        "has_played": true,
        "id": 27012499,
        "last_rank": 49880,
        "player_name": "Jacob Fowler",
        "rank": 75615,
        "rank_sort": 75863,
        "total": 2337
      },
      {
        "club_badge_src": null,
        "entry": 3637751,
        "entry_name": "BIG-BAD-BRAD",
        "event_total": 67,
        "has_played": true,
        "id": 27109938,
        "last_rank": 100700,
        "player_name": "Bradlee Longley",
        "rank": 75615,
        "rank_sort": 75864,
        "total": 2337
      },
      {
        "club_badge_src": null,
        "entry": 3731913,
        "entry_name": "Lucky Losers FC",
        "event_total": 66,
        "has_played": true,
        "id": 27855295,
        "last_rank": 98436,
        "player_name": "Polina Zak",
        "rank": 75615,
        "rank_sort": 75865,
        "total": 2337
      },
      {
        "club_badge_src": null,
        "entry": 3740293,
        "entry_name": "Sun Garden Piwko",
        "event_total": 40,
        "has_played": true,
        "id": 27920457,
        "last_rank": 47163,
        "player_name": "Martin McMahon",
        "rank": 75615,
        "rank_sort": 75866,
        "total": 2337
      },
      {
        "club_badge_src": null,
        "entry": 3749643,
        "entry_name": "Casserole",
        "event_total": 47,
        "has_played": true,
        "id": 27994227,
        "last_rank": 58071,
        "player_name": "Ross Cassells",
        "rank": 75615,
        "rank_sort": 75867,
        "total": 2337
      },
      {
        "club_badge_src": null,
        "entry": 3780318,
        "entry_name": "KaysarChiefs",
        "event_total": 61,
        "has_played": true,
        "id": 28228166,
        "last_rank": 86304,
        "player_name": "Kaysar Alim",
        "rank": 75615,
        "rank_sort": 75868,
        "total": 2337
      },
      {
        "club_badge_src": null,
        "entry": 3781566,
        "entry_name": "Reyt On",
        "event_total": 71,
        "has_played": true,
        "id": 28237985,
        "last_rank": 111405,
        "player_name": "Jen Woodcock",
        "rank": 75615,
        "rank_sort": 75869,
        "total": 2337
      },
      {
        "club_badge_src": null,
        "entry": 3868336,
        "entry_name": "Head Wreck FC",
        "event_total": 54,
        "has_played": true,
        "id": 29012311,
        "last_rank": 70757,
        "player_name": "David Nolan",
        "rank": 75615,
        "rank_sort": 75870,
        "total": 2337
      },
      {
        "club_badge_src": null,
        "entry": 3886528,
        "entry_name": "Frisseonfire",
        "event_total": 55,
        "has_played": true,
        "id": 29204506,
        "last_rank": 64943,
        "player_name": "Tobias Frisell",
        "rank": 75615,
        "rank_sort": 75871,
        "total": 2337
      },
      {
        "club_badge_src": null,
        "entry": 3897879,
        "entry_name": "Cunha Emil",
        "event_total": 47,
        "has_played": true,
        "id": 29297047,
        "last_rank": 58071,
        "player_name": "Mads Emil Kvalvik",
        "rank": 75615,
        "rank_sort": 75872,
        "total": 2337
      },
      {
        "club_badge_src": null,
        "entry": 3978130,
        "entry_name": "Bruno, Dos, Tres",
        "event_total": 41,
        "has_played": true,
        "id": 29943705,
        "last_rank": 48642,
        "player_name": "Jesper Solberg",
        "rank": 75615,
        "rank_sort": 75873,
        "total": 2337
      },
      {
        "club_badge_src": null,
        "entry": 3990719,
        "entry_name": "Champions",
        "event_total": 42,
        "has_played": true,
        "id": 30049083,
        "last_rank": 50199,
        "player_name": "Elliott Lilley",
        "rank": 75615,
        "rank_sort": 75874,
        "total": 2337
      },
      {
        "club_badge_src": null,
        "entry": 3992185,
        "entry_name": "Not so Athletic",
        "event_total": 79,
        "has_played": true,
        "id": 30061657,
        "last_rank": 135737,
        "player_name": "Callum Goolden",
        "rank": 75615,
        "rank_sort": 75875,
        "total": 2337
      },
      {
        "club_badge_src": null,
        "entry": 3996978,
        "entry_name": "BatoM5",
        "event_total": 59,
        "has_played": true,
        "id": 30101527,
        "last_rank": 81312,
        "player_name": "\u0421\u0442\u0435\u0444\u0430\u043d \u0426\u0432\u0435\u0442\u043a\u043e\u0432",
        "rank": 75615,
        "rank_sort": 75876,
        "total": 2337
      },
      {
        "club_badge_src": null,
        "entry": 4022210,
        "entry_name": "Irons",
        "event_total": 88,
        "has_played": true,
        "id": 30315951,
        "last_rank": 167453,
        "player_name": "Lee Cartledge",
        "rank": 75615,
        "rank_sort": 75877,
        "total": 2337
      },
      {
        "club_badge_src": null,
        "entry": 4023321,
        "entry_name": "Greying FC",
        "event_total": 77,
        "has_played": true,
        "id": 30325355,
        "last_rank": 130073,
        "player_name": "M Strawson",
        "rank": 75615,
        "rank_sort": 75878,
        "total": 2337
      },
      {
        "club_badge_src": "https://fantasy.premierleague.com/gcs/plfpl-production-adobe-approved/plfpl-production/4058246/6e08a59e-c044-44d0-9b2f-a7d28c6e1ee7.png",
        "entry": 4058246,
        "entry_name": "Curl Up Ndiaye",
        "event_total": 70,
        "has_played": true,
        "id": 30622790,
        "last_rank": 109454,
        "player_name": "Chris Spence",
        "rank": 75615,
        "rank_sort": 75879,
        "total": 2337
      },
      {
        "club_badge_src": null,
        "entry": 4129136,
        "entry_name": "Keir Palmer",
        "event_total": 48,
        "has_played": true,
        "id": 31201965,
        "last_rank": 59632,
        "player_name": "Faheem Saddiq",
        "rank": 75615,
        "rank_sort": 75880,
        "total": 2337
      },
      {
        "club_badge_src": null,
        "entry": 4175201,
        "entry_name": "C Bog Dog",
        "event_total": 63,
        "has_played": true,
        "id": 31580554,
        "last_rank": 90625,
        "player_name": "Chris Christodoulou",
        "rank": 75615,
        "rank_sort": 75881,
        "total": 2337
      },
      {
        "club_badge_src": null,
        "entry": 4181471,
        "entry_name": "Fettj i pann\u00e6",
        "event_total": 39,
        "has_played": true,
        "id": 31634611,
        "last_rank": 45714,
        "player_name": "Andre \u00c5ker\u00f8y",
        "rank": 75615,
        "rank_sort": 75882,
        "total": 2337
      },
      {
        "club_badge_src": "https://fantasy.premierleague.com/gcs/plfpl-production-adobe-approved/plfpl-production/4184390/87c93ecf-77b6-4697-9cd1-1fa82b86fc48.png",
        "entry": 4184390,
        "entry_name": "Shortstars Allstars",
        "event_total": 51,
        "has_played": true,
        "id": 31659386,
        "last_rank": 65163,
        "player_name": "Kaylem Short",
        "rank": 75615,
        "rank_sort": 75883,
        "total": 2337
      },
      {
        "club_badge_src": null,
        "entry": 4185559,
        "entry_name": "saucepot93",
        "event_total": 61,
        "has_played": true,
        "id": 31669137,
        "last_rank": 86054,
        "player_name": "Joe Matthews",
        "rank": 75615,
        "rank_sort": 75884,
        "total": 2337
      },
      {
        "club_badge_src": null,
        "entry": 4197696,
        "entry_name": "Trust the process",
        "event_total": 68,
        "has_played": true,
        "id": 31772803,
        "last_rank": 103526,
        "player_name": "Matt Johnson",
        "rank": 75615,
        "rank_sort": 75885,
        "total": 2337
      },
      {
        "club_badge_src": null,
        "entry": 4202429,
        "entry_name": "xOVA P90 United",
        "event_total": 51,
        "has_played": true,
        "id": 31812062,
        "last_rank": 65163,
        "player_name": "Jamie McBride",
        "rank": 75615,
        "rank_sort": 75886,
        "total": 2337
      },
      {
        "club_badge_src": null,
        "entry": 4212906,
        "entry_name": "Paulbag",
        "event_total": 70,
        "has_played": true,
        "id": 31899205,
        "last_rank": 108689,
        "player_name": "Paul Burns",
        "rank": 75615,
        "rank_sort": 75887,
        "total": 2337
      },
      {
        "club_badge_src": null,
        "entry": 4217080,
        "entry_name": "B\u00e4nk i Trean",
        "event_total": 60,
        "has_played": true,
        "id": 31937401,
        "last_rank": 83698,
        "player_name": "Karl Aspholm",
        "rank": 75615,
        "rank_sort": 75888,
        "total": 2337
      },
      {
        "club_badge_src": null,
        "entry": 4220784,
        "entry_name": "Obi 1 Kenobi 0",
        "event_total": 52,
        "has_played": true,
        "id": 31971875,
        "last_rank": 67063,
        "player_name": "James Clayton",
        "rank": 75615,
        "rank_sort": 75889,
        "total": 2337
      },
      {
        "club_badge_src": null,
        "entry": 4280118,
        "entry_name": "Avengers Endogame",
        "event_total": 72,
        "has_played": true,
        "id": 32461006,
        "last_rank": 114169,
        "player_name": "Leo Linder",
        "rank": 75615,
        "rank_sort": 75890,
        "total": 2337
      },
      {
        "club_badge_src": null,
        "entry": 4291785,
        "entry_name": "Floreat Patopia",
        "event_total": 62,
        "has_played": true,
        "id": 32555319,
        "last_rank": 88348,
        "player_name": "Patryk Oszczepalski",
        "rank": 75615,
        "rank_sort": 75891,
        "total": 2337
      },
      {
        "club_badge_src": null,
        "entry": 4329638,
        "entry_name": "Mee Myself Ndiaye",
        "event_total": 54,
        "has_played": true,
        "id": 32864025,
        "last_rank": 70757,
        "player_name": "Russell Elliott",
        "rank": 75615,
        "rank_sort": 75892,
        "total": 2337
      },
      {
        "club_badge_src": null,
        "entry": 4347533,
        "entry_name": "Jabba da slots",
        "event_total": 63,
        "has_played": true,
        "id": 33012225,
        "last_rank": 90746,
        "player_name": "shane connell",
        "rank": 75615,
        "rank_sort": 75893,
        "total": 2337
      },
      {
        "club_badge_src": null,
        "entry": 4390141,
        "entry_name": "Klich and Collect",
        "event_total": 56,
        "has_played": true,
        "id": 33373016,
        "last_rank": 74898,
        "player_name": "Alfie Huxtable",
        "rank": 75615,
        "rank_sort": 75894,
        "total": 2337
      },
      {
        "club_badge_src": null,
        "entry": 4408888,
        "entry_name": "Visca Barca",
        "event_total": 61,
        "has_played": true,
        "id": 33537035,
        "last_rank": 86735,
        "player_name": "Bishal Tamang",
        "rank": 75615,
        "rank_sort": 75895,
        "total": 2337
      },
      {
        "club_badge_src": null,
        "entry": 4426419,
        "entry_name": "The VARgins",
        "event_total": 60,
        "has_played": true,
        "id": 33691711,
        "last_rank": 83934,
        "player_name": "Ben Greenstreet",
        "rank": 75615,
        "rank_sort": 75896,
        "total": 2337
      },
      {
        "club_badge_src": null,
        "entry": 4452538,
        "entry_name": "Do ur Wirtz",
        "event_total": 47,
        "has_played": true,
        "id": 33914589,
        "last_rank": 58071,
        "player_name": "Frazer Adamson",
        "rank": 75615,
        "rank_sort": 75897,
        "total": 2337
      },
      {
        "club_badge_src": null,
        "entry": 4465145,
        "entry_name": "NETO Alliance",
        "event_total": 49,
        "has_played": true,
        "id": 34021454,
        "last_rank": 61606,
        "player_name": "Morgan Ingenthron",
        "rank": 75615,
        "rank_sort": 75898,
        "total": 2337
      },
      {
        "club_badge_src": null,
        "entry": 4497630,
        "entry_name": "Eze does it",
        "event_total": 69,
        "has_played": true,
        "id": 34286901,
        "last_rank": 105963,
        "player_name": "Joseph O'Neill",
        "rank": 75615,
        "rank_sort": 75899,
        "total": 2337
      },
      {
        "club_badge_src": null,
        "entry": 4534111,
        "entry_name": "The Garden Of Eden",
        "event_total": 54,
        "has_played": true,
        "id": 34587281,
        "last_rank": 70757,
        "player_name": "Dikran Vartan",
        "rank": 75615,
        "rank_sort": 75900,
        "total": 2337
      }
    ]
  }
}