{
  "last_updated_data": "2026-05-24T23:28:17Z",
  "league": {
    "admin_entry": null,
    "closed": false,
    "code_privacy": "p",
    "created": "2025-07-20T23:14:33.933835Z",
    "cup_league": 2815434,
    "has_cup": true,
    "id": 314,
    "league_type": "s",
    "max_entries": null,
    "name": "Overall",
    "rank": null,
    "scoring": "c",
    "start_event": 1
  },
  "new_entries": {
    "has_next": false,
    "page": 1,
    "results": []
  },
  "standings": {
    "has_next": true,
    "page": 1260,
    "results": [
      {
        "club_badge_src": null,
        "entry": 2591666,
        "entry_name": "heywoods 11",
        "event_total": 60,
        "has_played": true,
        "id": 18607435,
        "last_rank": 68957,
        "player_name": "jack heywood",
        "rank": 62778,
        "rank_sort": 62951,
        "total": 2344
      },
      {
        "club_badge_src": null,
        "entry": 2596533,
        "entry_name": "Rock City 25/26",
        "event_total": 50,
        "has_played": true,
        "id": 18645904,
        "last_rank": 51984,
        "player_name": "Roky Wira",
        "rank": 62778,
        "rank_sort": 62952,
        "total": 2344
      },
      {
        "club_badge_src": null,
        "entry": 2660436,
        "entry_name": "Tikka Mo Salah",
        "event_total": 58,
        "has_played": true,
        "id": 19124328,
        "last_rank": 65475,
        "player_name": "Adam Weston",
        "rank": 62778,
        "rank_sort": 62953,
        "total": 2344
      },
      {
        "club_badge_src": null,
        "entry": 2709148,
        "entry_name": "Aston Villabate",
        "event_total": 51,
        "has_played": true,
        "id": 19491427,
        "last_rank": 53345,
        "player_name": "Giorgio Trentacoste",
        "rank": 62778,
        "rank_sort": 62954,
        "total": 2344
      },
      {
        "club_badge_src": null,
        "entry": 2759417,
        "entry_name": "Peacocks Platoon",
        "event_total": 61,
        "has_played": true,
        "id": 20129307,
        "last_rank": 71713,
        "player_name": "Paul Millard",
        "rank": 62778,
        "rank_sort": 62955,
        "total": 2344
      },
      {
        "club_badge_src": null,
        "entry": 2842580,
        "entry_name": "Plogen",
        "event_total": 49,
        "has_played": true,
        "id": 20776601,
        "last_rank": 50199,
        "player_name": "Terje Lunde",
        "rank": 62778,
        "rank_sort": 62956,
        "total": 2344
      },
      {
        "club_badge_src": null,
        "entry": 2870474,
        "entry_name": "Niklas gubbar",
        "event_total": 62,
        "has_played": true,
        "id": 20999949,
        "last_rank": 73423,
        "player_name": "Niklas Forssell",
        "rank": 62778,
        "rank_sort": 62957,
        "total": 2344
      },
      {
        "club_badge_src": null,
        "entry": 2901029,
        "entry_name": "Veka FC",
        "event_total": 50,
        "has_played": true,
        "id": 21259066,
        "last_rank": 51720,
        "player_name": "Otto Andersson",
        "rank": 62778,
        "rank_sort": 62958,
        "total": 2344
      },
      {
        "club_badge_src": null,
        "entry": 2936104,
        "entry_name": "Diallo Wears Prada",
        "event_total": 52,
        "has_played": true,
        "id": 21544349,
        "last_rank": 55311,
        "player_name": "Brett Whitehead",
        "rank": 62778,
        "rank_sort": 62959,
        "total": 2344
      },
      {
        "club_badge_src": null,
        "entry": 2948538,
        "entry_name": "Gy\u00f6k Tuah",
        "event_total": 52,
        "has_played": true,
        "id": 21654340,
        "last_rank": 55014,
        "player_name": "Max Connolly",
        "rank": 62778,
        "rank_sort": 62960,
        "total": 2344
      },
      {
        "club_badge_src": null,
        "entry": 2964273,
        "entry_name": "Mall Blart Paul Cop",
        "event_total": 68,
        "has_played": true,
        "id": 21776316,
        "last_rank": 86735,
        "player_name": "Jordan Jarvis",
        "rank": 62778,
        "rank_sort": 62961,
        "total": 2344
      },
      {
        "club_badge_src": null,
        "entry": 3001351,
        "entry_name": "HaCunha Mateta",
        "event_total": 64,
        "has_played": true,
        "id": 22076343,
        "last_rank": 77999,
        "player_name": "Johan Hultin",
        "rank": 62778,
        "rank_sort": 62962,
        "total": 2344
      },
      {
        "club_badge_src": null,
        "entry": 3048310,
        "entry_name": "Ascent FC",
        "event_total": 56,
        "has_played": true,
        "id": 22440160,
        "last_rank": 61950,
        "player_name": "Graeme Wright",
        "rank": 62778,
        "rank_sort": 62963,
        "total": 2344
      },
      {
        "club_badge_src": null,
        "entry": 3058768,
        "entry_name": "reijnders keepers",
        "event_total": 65,
        "has_played": true,
        "id": 22519736,
        "last_rank": 79431,
        "player_name": "Oliver Groves",
        "rank": 62778,
        "rank_sort": 62964,
        "total": 2344
      },
      {
        "club_badge_src": "https://fantasy.premierleague.com/gcs/plfpl-production-adobe-approved/plfpl-production/3112188/24140544-fae6-4018-afb5-199b8d350487.png",
        "entry": 3112188,
        "entry_name": "zeof fc",
        "event_total": 67,
        "has_played": true,
        "id": 22965852,
        "last_rank": 84360,
        "player_name": "aimanutd zeof",
        "rank": 62778,
        "rank_sort": 62965,
        "total": 2344
      },
      {
        "club_badge_src": null,
        "entry": 3238392,
        "entry_name": "BK Stretet",
        "event_total": 62,
        "has_played": true,
        "id": 23952943,
        "last_rank": 73038,
        "player_name": "Philip H\u00e4llgren",
        "rank": 62778,
        "rank_sort": 62966,
        "total": 2344
      },
      {
        "club_badge_src": null,
        "entry": 3325586,
        "entry_name": "WaterMalen",
        "event_total": 69,
        "has_played": true,
        "id": 24654927,
        "last_rank": 89426,
        "player_name": "Nic Lee",
        "rank": 62778,
        "rank_sort": 62967,
        "total": 2344
      },
      {
        "club_badge_src": null,
        "entry": 3373800,
        "entry_name": "Al Magd",
        "event_total": 48,
        "has_played": true,
        "id": 25040178,
        "last_rank": 42648,
        "player_name": "karam abdel naby",
        "rank": 62778,
        "rank_sort": 62968,
        "total": 2344
      },
      {
        "club_badge_src": null,
        "entry": 3384289,
        "entry_name": "B",
        "event_total": 54,
        "has_played": true,
        "id": 25122314,
        "last_rank": 58388,
        "player_name": "Watcharapong Thawiphatphuthanadon",
        "rank": 62778,
        "rank_sort": 62969,
        "total": 2344
      },
      {
        "club_badge_src": null,
        "entry": 3413554,
        "entry_name": "Sa Cunha Mateta",
        "event_total": 59,
        "has_played": true,
        "id": 25352906,
        "last_rank": 67422,
        "player_name": "John Stenstrom",
        "rank": 62778,
        "rank_sort": 62970,
        "total": 2344
      },
      {
        "club_badge_src": null,
        "entry": 3434158,
        "entry_name": "Eze Money",
        "event_total": 62,
        "has_played": true,
        "id": 25511823,
        "last_rank": 73038,
        "player_name": "Rhys Blackwood",
        "rank": 62778,
        "rank_sort": 62971,
        "total": 2344
      },
      {
        "club_badge_src": null,
        "entry": 3434516,
        "entry_name": "clee casuals",
        "event_total": 67,
        "has_played": true,
        "id": 25514558,
        "last_rank": 84360,
        "player_name": "Mick Carter",
        "rank": 62778,
        "rank_sort": 62972,
        "total": 2344
      },
      {
        "club_badge_src": null,
        "entry": 3483835,
        "entry_name": "HiBobb",
        "event_total": 53,
        "has_played": true,
        "id": 25905848,
        "last_rank": 49880,
        "player_name": "Courtney Grant",
        "rank": 62778,
        "rank_sort": 62973,
        "total": 2344
      },
      {
        "club_badge_src": null,
        "entry": 3515969,
        "entry_name": "Israel XII",
        "event_total": 44,
        "has_played": true,
        "id": 26163371,
        "last_rank": 42940,
        "player_name": "Yaw Folly",
        "rank": 62778,
        "rank_sort": 62974,
        "total": 2344
      },
      {
        "club_badge_src": null,
        "entry": 3545191,
        "entry_name": "Ctrl+Alt+DeLigt",
        "event_total": 58,
        "has_played": true,
        "id": 26390835,
        "last_rank": 65475,
        "player_name": "Andrew Ferguson",
        "rank": 62778,
        "rank_sort": 62975,
        "total": 2344
      },
      {
        "club_badge_src": "https://fantasy.premierleague.com/gcs/plfpl-production-adobe-approved/plfpl-production/3547829/7575bf1d-2965-4d18-a4d0-7ed5b92a3f82.png",
        "entry": 3547829,
        "entry_name": "Change Name",
        "event_total": 60,
        "has_played": true,
        "id": 26411587,
        "last_rank": 69323,
        "player_name": "Jiten Patel",
        "rank": 62778,
        "rank_sort": 62976,
        "total": 2344
      },
      {
        "club_badge_src": null,
        "entry": 3555007,
        "entry_name": "Kinder Mbeumo",
        "event_total": 47,
        "has_played": true,
        "id": 26467385,
        "last_rank": 47163,
        "player_name": "Josiah Schut",
        "rank": 62778,
        "rank_sort": 62977,
        "total": 2344
      },
      {
        "club_badge_src": null,
        "entry": 3564987,
        "entry_name": "Hessy's heroes",
        "event_total": 46,
        "has_played": true,
        "id": 26544486,
        "last_rank": 45714,
        "player_name": "Mark Hess",
        "rank": 62778,
        "rank_sort": 62978,
        "total": 2344
      },
      {
        "club_badge_src": null,
        "entry": 3621481,
        "entry_name": "Not the flids!",
        "event_total": 63,
        "has_played": true,
        "id": 26982167,
        "last_rank": 75537,
        "player_name": "Chris tunks",
        "rank": 62778,
        "rank_sort": 62979,
        "total": 2344
      },
      {
        "club_badge_src": null,
        "entry": 3627125,
        "entry_name": "Storis\u00f8n",
        "event_total": 65,
        "has_played": true,
        "id": 27026848,
        "last_rank": 79431,
        "player_name": "Michael Storey",
        "rank": 62778,
        "rank_sort": 62980,
        "total": 2344
      },
      {
        "club_badge_src": null,
        "entry": 3639595,
        "entry_name": "Son of a Gunner",
        "event_total": 68,
        "has_played": true,
        "id": 27124171,
        "last_rank": 86735,
        "player_name": "Richard Pike",
        "rank": 62778,
        "rank_sort": 62981,
        "total": 2344
      },
      {
        "club_badge_src": null,
        "entry": 3685703,
        "entry_name": "KFC",
        "event_total": 52,
        "has_played": true,
        "id": 27494390,
        "last_rank": 55014,
        "player_name": "King Kay",
        "rank": 62778,
        "rank_sort": 62982,
        "total": 2344
      },
      {
        "club_badge_src": null,
        "entry": 3753369,
        "entry_name": "The Spugsters",
        "event_total": 51,
        "has_played": true,
        "id": 28022854,
        "last_rank": 53345,
        "player_name": "Sarah Fineberg",
        "rank": 62778,
        "rank_sort": 62983,
        "total": 2344
      },
      {
        "club_badge_src": null,
        "entry": 3755705,
        "entry_name": "The Choseon Ones",
        "event_total": 51,
        "has_played": true,
        "id": 28040317,
        "last_rank": 53345,
        "player_name": "Tae Hee Jung",
        "rank": 62778,
        "rank_sort": 62984,
        "total": 2344
      },
      {
        "club_badge_src": null,
        "entry": 3782051,
        "entry_name": "The Invincibles",
        "event_total": 74,
        "has_played": true,
        "id": 28241702,
        "last_rank": 101419,
        "player_name": "Mohammed Darugar",
        "rank": 62778,
        "rank_sort": 62985,
        "total": 2344
      },
      {
        "club_badge_src": null,
        "entry": 3801334,
        "entry_name": "Fiorengini ACF",
        "event_total": 45,
        "has_played": true,
        "id": 28416927,
        "last_rank": 38644,
        "player_name": "Jack Gianella",
        "rank": 62778,
        "rank_sort": 62986,
        "total": 2344
      },
      {
        "club_badge_src": null,
        "entry": 3808163,
        "entry_name": "Air France One",
        "event_total": 67,
        "has_played": true,
        "id": 28472723,
        "last_rank": 83934,
        "player_name": "Barry Murphy",
        "rank": 62778,
        "rank_sort": 62987,
        "total": 2344
      },
      {
        "club_badge_src": null,
        "entry": 3810011,
        "entry_name": "Bruno Dos Tres",
        "event_total": 60,
        "has_played": true,
        "id": 28488135,
        "last_rank": 69323,
        "player_name": "Josh Clarke",
        "rank": 62778,
        "rank_sort": 62988,
        "total": 2344
      },
      {
        "club_badge_src": null,
        "entry": 3812616,
        "entry_name": "\u0160e\u0161ko Forkin Mental",
        "event_total": 74,
        "has_played": true,
        "id": 28509360,
        "last_rank": 101419,
        "player_name": "Alex Turner",
        "rank": 62778,
        "rank_sort": 62989,
        "total": 2344
      },
      {
        "club_badge_src": null,
        "entry": 3898812,
        "entry_name": "baller.Djee",
        "event_total": 63,
        "has_played": true,
        "id": 29304365,
        "last_rank": 75537,
        "player_name": "Djilali Blh",
        "rank": 62778,
        "rank_sort": 62990,
        "total": 2344
      },
      {
        "club_badge_src": "https://fantasy.premierleague.com/gcs/plfpl-production-adobe-approved/plfpl-production/3946265/d31d9700-55ae-40d2-9d51-bfb10612257c.png",
        "entry": 3946265,
        "entry_name": "Don'tLookBackElanga",
        "event_total": 58,
        "has_played": true,
        "id": 29686544,
        "last_rank": 65475,
        "player_name": "Benjy Harta",
        "rank": 62778,
        "rank_sort": 62991,
        "total": 2344
      },
      {
        "club_badge_src": null,
        "entry": 3970040,
        "entry_name": "Wirtz Nightmare",
        "event_total": 50,
        "has_played": true,
        "id": 29875764,
        "last_rank": 51984,
        "player_name": "Alex Davies",
        "rank": 62778,
        "rank_sort": 62992,
        "total": 2344
      },
      {
        "club_badge_src": null,
        "entry": 4019531,
        "entry_name": "Enter Team Name",
        "event_total": 68,
        "has_played": true,
        "id": 30293945,
        "last_rank": 77258,
        "player_name": "Steven Norman",
        "rank": 62778,
        "rank_sort": 62993,
        "total": 2344
      },
      {
        "club_badge_src": null,
        "entry": 4033456,
        "entry_name": "Hernan Crespo",
        "event_total": 51,
        "has_played": true,
        "id": 30410808,
        "last_rank": 53345,
        "player_name": "Shaun Chrisp",
        "rank": 62778,
        "rank_sort": 62994,
        "total": 2344
      },
      {
        "club_badge_src": null,
        "entry": 4041971,
        "entry_name": "Wataru thinking",
        "event_total": 65,
        "has_played": true,
        "id": 30483140,
        "last_rank": 79079,
        "player_name": "Oscar Morris",
        "rank": 62778,
        "rank_sort": 62995,
        "total": 2344
      },
      {
        "club_badge_src": "https://fantasy.premierleague.com/gcs/plfpl-production-adobe-approved/plfpl-production/4067010/21259ffb-9c12-4ce4-9fe0-2383e1c3ed2b.png",
        "entry": 4067010,
        "entry_name": "Gy\u00f6k Tuah (C)",
        "event_total": 44,
        "has_played": true,
        "id": 30694444,
        "last_rank": 42940,
        "player_name": "Shaq McGeachy",
        "rank": 62778,
        "rank_sort": 62996,
        "total": 2344
      },
      {
        "club_badge_src": "https://fantasy.premierleague.com/gcs/plfpl-production-adobe-approved/plfpl-production/4072625/2f35fb74-9073-416a-9d37-4eeee4cbaf35.png",
        "entry": 4072625,
        "entry_name": "Sm\u00e1rinn FC.",
        "event_total": 55,
        "has_played": true,
        "id": 30740184,
        "last_rank": 60168,
        "player_name": "Halld\u00f3r Malmberg",
        "rank": 62778,
        "rank_sort": 62997,
        "total": 2344
      },
      {
        "club_badge_src": null,
        "entry": 4316469,
        "entry_name": "Boom Boom Pau!",
        "event_total": 53,
        "has_played": true,
        "id": 32755770,
        "last_rank": 56708,
        "player_name": "Chris Haines",
        "rank": 62778,
        "rank_sort": 62998,
        "total": 2344
      },
      {
        "club_badge_src": null,
        "entry": 4407095,
        "entry_name": "Bruno Dos Tres",
        "event_total": 51,
        "has_played": true,
        "id": 33522050,
        "last_rank": 53023,
        "player_name": "Llion Jones",
        "rank": 62778,
        "rank_sort": 62999,
        "total": 2344
      },
      {
        "club_badge_src": "https://fantasy.premierleague.com/gcs/plfpl-production-adobe-approved/plfpl-production/4499246/057c78f1-8ca8-4c2c-8468-e4f5ef9fe5c5.png",
        "entry": 4499246,
        "entry_name": "Mayoyo FC",
        "event_total": 67,
        "has_played": true,
        "id": 34300097,
        "last_rank": 83698,
        "player_name": "Eric Mayoyo",
        "rank": 62778,
        "rank_sort": 63000,
        "total": 2344
      }
    ]
  }
}