{
  "last_updated_data": "2026-05-24T23:28:17Z",
  "league": {
    "admin_entry": null,
    "closed": false,
    "code_privacy": "p",
    "created": "2025-07-20T23:14:33.933835Z",
    "cup_league": 2815434,
    "has_cup": true,
    "id": 314,
    "league_type": "s",
    "max_entries": null,
    "name": "Overall",
    "rank": null,
    "scoring": "c",
    "start_event": 1
  },
  "new_entries": {
    "has_next": false,
    "page": 1,
    "results": []
  },
  "standings": {
    "has_next": true,
    "page": 800,
    "results": [
      {
        "club_badge_src": null,
        "entry": 1231274,
        "entry_name": "Pukka Fc",
        "event_total": 63,
        "has_played": true,
        "id": 8549814,
        "last_rank": 48363,
        "player_name": "Lewis Picknell",
        "rank": 39837,
        "rank_sort": 39951,
        "total": 2359
      },
      {
        "club_badge_src": "https://fantasy.premierleague.com/gcs/plfpl-production-adobe-approved/plfpl-production/1264302/c7b448d6-a1dd-4621-9380-d6cc9aff3bfb.png",
        "entry": 1264302,
        "entry_name": "Lightning Bolts",
        "event_total": 56,
        "has_played": true,
        "id": 8784449,
        "last_rank": 38644,
        "player_name": "Elliot Bolt",
        "rank": 39837,
        "rank_sort": 39952,
        "total": 2359
      },
      {
        "club_badge_src": null,
        "entry": 1269630,
        "entry_name": "Saka Potatoes",
        "event_total": 61,
        "has_played": true,
        "id": 8821411,
        "last_rank": 45182,
        "player_name": "Adam Brownlees",
        "rank": 39837,
        "rank_sort": 39953,
        "total": 2359
      },
      {
        "club_badge_src": null,
        "entry": 1276936,
        "entry_name": "HaCunha Matata",
        "event_total": 62,
        "has_played": true,
        "id": 8873007,
        "last_rank": 46839,
        "player_name": "Alfons Luc Persson",
        "rank": 39837,
        "rank_sort": 39954,
        "total": 2359
      },
      {
        "club_badge_src": null,
        "entry": 1344048,
        "entry_name": "The Jackalope",
        "event_total": 49,
        "has_played": true,
        "id": 9344507,
        "last_rank": 30727,
        "player_name": "Jason Loo",
        "rank": 39837,
        "rank_sort": 39955,
        "total": 2359
      },
      {
        "club_badge_src": null,
        "entry": 1346372,
        "entry_name": "Mohamed Mostafa",
        "event_total": 71,
        "has_played": true,
        "id": 9360497,
        "last_rank": 61606,
        "player_name": "Mohamed Mostafa",
        "rank": 39837,
        "rank_sort": 39956,
        "total": 2359
      },
      {
        "club_badge_src": null,
        "entry": 1348295,
        "entry_name": "\u0627\u0644\u0627\u0633\u0637\u0649",
        "event_total": 56,
        "has_played": true,
        "id": 9373669,
        "last_rank": 38774,
        "player_name": "\u0627\u0644\u0627\u0633\u0637\u0649 \u0639\u0628\u062f\u0647 \u0627\u0644\u0628\u0644\u0641",
        "rank": 39837,
        "rank_sort": 39957,
        "total": 2359
      },
      {
        "club_badge_src": null,
        "entry": 1392616,
        "entry_name": "Once were winning",
        "event_total": 84,
        "has_played": true,
        "id": 9688201,
        "last_rank": 88249,
        "player_name": "Giles Boundy",
        "rank": 39837,
        "rank_sort": 39958,
        "total": 2359
      },
      {
        "club_badge_src": null,
        "entry": 1393469,
        "entry_name": "Kameel Pita FC",
        "event_total": 57,
        "has_played": true,
        "id": 9694190,
        "last_rank": 40036,
        "player_name": "Kameel Pita",
        "rank": 39837,
        "rank_sort": 39959,
        "total": 2359
      },
      {
        "club_badge_src": null,
        "entry": 1458678,
        "entry_name": "T  @  B",
        "event_total": 58,
        "has_played": true,
        "id": 10166389,
        "last_rank": 41162,
        "player_name": "Ahmed Bashir",
        "rank": 39837,
        "rank_sort": 39960,
        "total": 2359
      },
      {
        "club_badge_src": null,
        "entry": 1545654,
        "entry_name": "FC Slabheads",
        "event_total": 77,
        "has_played": true,
        "id": 10790774,
        "last_rank": 72702,
        "player_name": "H\u00e5kon Kolderup",
        "rank": 39837,
        "rank_sort": 39961,
        "total": 2359
      },
      {
        "club_badge_src": null,
        "entry": 1547136,
        "entry_name": "Real Sociable",
        "event_total": 72,
        "has_played": true,
        "id": 10801418,
        "last_rank": 63117,
        "player_name": "Rubin Saji",
        "rank": 39837,
        "rank_sort": 39962,
        "total": 2359
      },
      {
        "club_badge_src": null,
        "entry": 1572414,
        "entry_name": "Hilde&co BK",
        "event_total": 60,
        "has_played": true,
        "id": 10987160,
        "last_rank": 44048,
        "player_name": "Hilde Lindberget",
        "rank": 39837,
        "rank_sort": 39963,
        "total": 2359
      },
      {
        "club_badge_src": null,
        "entry": 1576849,
        "entry_name": "GoGo Rabbit",
        "event_total": 68,
        "has_played": true,
        "id": 11018561,
        "last_rank": 56099,
        "player_name": "Alan Cornish",
        "rank": 39837,
        "rank_sort": 39964,
        "total": 2359
      },
      {
        "club_badge_src": null,
        "entry": 1698656,
        "entry_name": "Me, Myself Ndiaye",
        "event_total": 57,
        "has_played": true,
        "id": 11897865,
        "last_rank": 40297,
        "player_name": "Mrunal Shah",
        "rank": 39837,
        "rank_sort": 39965,
        "total": 2359
      },
      {
        "club_badge_src": null,
        "entry": 1732893,
        "entry_name": "Anis l3alamiya",
        "event_total": 74,
        "has_played": true,
        "id": 12155475,
        "last_rank": 67422,
        "player_name": "Anis Lati",
        "rank": 39837,
        "rank_sort": 39966,
        "total": 2359
      },
      {
        "club_badge_src": null,
        "entry": 1762610,
        "entry_name": "Expected Toulouse",
        "event_total": 64,
        "has_played": true,
        "id": 12376817,
        "last_rank": 49691,
        "player_name": "Jake Morgan",
        "rank": 39837,
        "rank_sort": 39967,
        "total": 2359
      },
      {
        "club_badge_src": null,
        "entry": 1843763,
        "entry_name": "Djed 2 holiday",
        "event_total": 61,
        "has_played": true,
        "id": 12972309,
        "last_rank": 45252,
        "player_name": "Louis Dawe",
        "rank": 39837,
        "rank_sort": 39968,
        "total": 2359
      },
      {
        "club_badge_src": "https://fantasy.premierleague.com/gcs/plfpl-production-adobe-approved/plfpl-production/1853725/ed2d1479-c8f8-4318-806f-1be513fef53b.png",
        "entry": 1853725,
        "entry_name": "Pyrovolakis Premgun",
        "event_total": 75,
        "has_played": true,
        "id": 13044665,
        "last_rank": 68624,
        "player_name": "\u03a7\u03c1\u03ae\u03c3\u03c4\u03bf\u03c2 \u03a0\u03c5\u03c1\u03bf\u03b2\u03bf\u03bb\u03ac\u03ba\u03b7\u03c2",
        "rank": 39837,
        "rank_sort": 39969,
        "total": 2359
      },
      {
        "club_badge_src": null,
        "entry": 1883213,
        "entry_name": "Paul's Pirates",
        "event_total": 75,
        "has_played": true,
        "id": 13269323,
        "last_rank": 68957,
        "player_name": "Paul NILSEN",
        "rank": 39837,
        "rank_sort": 39970,
        "total": 2359
      },
      {
        "club_badge_src": null,
        "entry": 1884652,
        "entry_name": "Top of the Slots",
        "event_total": 58,
        "has_played": true,
        "id": 13280082,
        "last_rank": 36200,
        "player_name": "Stewart Sanders",
        "rank": 39837,
        "rank_sort": 39971,
        "total": 2359
      },
      {
        "club_badge_src": "https://fantasy.premierleague.com/gcs/plfpl-production-adobe-approved/plfpl-production/1907840/6459f330-2128-4a98-81ad-242ba389f5df.png",
        "entry": 1907840,
        "entry_name": "Dobbinator",
        "event_total": 57,
        "has_played": true,
        "id": 13450106,
        "last_rank": 40036,
        "player_name": "Josh Dobson",
        "rank": 39837,
        "rank_sort": 39972,
        "total": 2359
      },
      {
        "club_badge_src": null,
        "entry": 1941373,
        "entry_name": "COULSON\u2019S CHAMPIONS",
        "event_total": 33,
        "has_played": true,
        "id": 13693555,
        "last_rank": 17437,
        "player_name": "Neil Coulson",
        "rank": 39837,
        "rank_sort": 39973,
        "total": 2359
      },
      {
        "club_badge_src": null,
        "entry": 1967850,
        "entry_name": "Fingers Crossed Utd",
        "event_total": 69,
        "has_played": true,
        "id": 13887532,
        "last_rank": 57857,
        "player_name": "John Reader",
        "rank": 39837,
        "rank_sort": 39974,
        "total": 2359
      },
      {
        "club_badge_src": null,
        "entry": 2036108,
        "entry_name": "Miktzoiim FC",
        "event_total": 71,
        "has_played": true,
        "id": 14416664,
        "last_rank": 61606,
        "player_name": "Mesay Dego",
        "rank": 39837,
        "rank_sort": 39975,
        "total": 2359
      },
      {
        "club_badge_src": null,
        "entry": 2085046,
        "entry_name": "Sayanred",
        "event_total": 72,
        "has_played": true,
        "id": 14791334,
        "last_rank": 63201,
        "player_name": "The Empty",
        "rank": 39837,
        "rank_sort": 39976,
        "total": 2359
      },
      {
        "club_badge_src": null,
        "entry": 2110448,
        "entry_name": "Expect the Wirtz",
        "event_total": 73,
        "has_played": true,
        "id": 14979734,
        "last_rank": 65163,
        "player_name": "Kevin Barkworth",
        "rank": 39837,
        "rank_sort": 39977,
        "total": 2359
      },
      {
        "club_badge_src": null,
        "entry": 2227761,
        "entry_name": "Cheesy Oatcake",
        "event_total": 54,
        "has_played": true,
        "id": 15868974,
        "last_rank": 36348,
        "player_name": "James Lear",
        "rank": 39837,
        "rank_sort": 39978,
        "total": 2359
      },
      {
        "club_badge_src": "https://fantasy.premierleague.com/gcs/plfpl-production-adobe-approved/plfpl-production/2260138/5ab4405a-103c-4949-9f02-f1c49e68f8df.png",
        "entry": 2260138,
        "entry_name": "FC FADI",
        "event_total": 61,
        "has_played": true,
        "id": 16113254,
        "last_rank": 45252,
        "player_name": "Fa Di",
        "rank": 39837,
        "rank_sort": 39979,
        "total": 2359
      },
      {
        "club_badge_src": null,
        "entry": 2309345,
        "entry_name": "League of My Own",
        "event_total": 68,
        "has_played": true,
        "id": 16472438,
        "last_rank": 56180,
        "player_name": "Jessica O'Loughlin",
        "rank": 39837,
        "rank_sort": 39980,
        "total": 2359
      },
      {
        "club_badge_src": "https://fantasy.premierleague.com/gcs/plfpl-production-adobe-approved/plfpl-production/2353832/72898fcd-9502-4485-a8b5-4c23fc5dbf8e.png",
        "entry": 2353832,
        "entry_name": "Slot-ting In Ryan",
        "event_total": 48,
        "has_played": true,
        "id": 16795489,
        "last_rank": 29688,
        "player_name": "Narayan Iyer",
        "rank": 39837,
        "rank_sort": 39981,
        "total": 2359
      },
      {
        "club_badge_src": null,
        "entry": 2361314,
        "entry_name": "Tutumrak",
        "event_total": 63,
        "has_played": true,
        "id": 16852127,
        "last_rank": 48197,
        "player_name": "Uros Ugrinovic",
        "rank": 39837,
        "rank_sort": 39982,
        "total": 2359
      },
      {
        "club_badge_src": null,
        "entry": 2363824,
        "entry_name": "Gobbiez",
        "event_total": 64,
        "has_played": true,
        "id": 16872003,
        "last_rank": 49691,
        "player_name": "Vutthipong Patirop",
        "rank": 39837,
        "rank_sort": 39983,
        "total": 2359
      },
      {
        "club_badge_src": null,
        "entry": 2403256,
        "entry_name": "Khaled 7agi",
        "event_total": 60,
        "has_played": true,
        "id": 17177334,
        "last_rank": 44048,
        "player_name": "khaled 7agi",
        "rank": 39837,
        "rank_sort": 39984,
        "total": 2359
      },
      {
        "club_badge_src": null,
        "entry": 2410370,
        "entry_name": "Badgers FC",
        "event_total": 56,
        "has_played": true,
        "id": 17229492,
        "last_rank": 38774,
        "player_name": "Alan Slater",
        "rank": 39837,
        "rank_sort": 39985,
        "total": 2359
      },
      {
        "club_badge_src": null,
        "entry": 2424334,
        "entry_name": "Eze Come, Eze Go",
        "event_total": 64,
        "has_played": true,
        "id": 17334104,
        "last_rank": 49607,
        "player_name": "Lunga Mdletshe",
        "rank": 39837,
        "rank_sort": 39986,
        "total": 2359
      },
      {
        "club_badge_src": null,
        "entry": 2462995,
        "entry_name": "VADER FC",
        "event_total": 71,
        "has_played": true,
        "id": 17617893,
        "last_rank": 61606,
        "player_name": "Stuart Caicedo25",
        "rank": 39837,
        "rank_sort": 39987,
        "total": 2359
      },
      {
        "club_badge_src": null,
        "entry": 2463116,
        "entry_name": "Xabi Alonso",
        "event_total": 54,
        "has_played": true,
        "id": 17618745,
        "last_rank": 36200,
        "player_name": "Hassan Almulla",
        "rank": 39837,
        "rank_sort": 39988,
        "total": 2359
      },
      {
        "club_badge_src": null,
        "entry": 2475044,
        "entry_name": "Pablo Marescabar",
        "event_total": 55,
        "has_played": true,
        "id": 17707844,
        "last_rank": 37589,
        "player_name": "Will Ingham",
        "rank": 39837,
        "rank_sort": 39989,
        "total": 2359
      },
      {
        "club_badge_src": null,
        "entry": 2513046,
        "entry_name": "Son on the Pitch",
        "event_total": 61,
        "has_played": true,
        "id": 18003728,
        "last_rank": 45416,
        "player_name": "Anna Nelsey",
        "rank": 39837,
        "rank_sort": 39990,
        "total": 2359
      },
      {
        "club_badge_src": "https://fantasy.premierleague.com/gcs/plfpl-production-adobe-approved/plfpl-production/2520406/f6054242-8073-4502-a55c-6fc98d4dcfeb.png",
        "entry": 2520406,
        "entry_name": "Bowen Bubbles",
        "event_total": 78,
        "has_played": true,
        "id": 18059020,
        "last_rank": 75139,
        "player_name": "Callum Jones",
        "rank": 39837,
        "rank_sort": 39991,
        "total": 2359
      },
      {
        "club_badge_src": null,
        "entry": 2560809,
        "entry_name": "FC Mainz",
        "event_total": 57,
        "has_played": true,
        "id": 18365861,
        "last_rank": 40036,
        "player_name": "Jonathan Mainz",
        "rank": 39837,
        "rank_sort": 39992,
        "total": 2359
      },
      {
        "club_badge_src": "https://fantasy.premierleague.com/gcs/plfpl-production-adobe-approved/plfpl-production/2745906/8b4c7cc4-e684-4586-982e-c13d92542310.png",
        "entry": 2745906,
        "entry_name": "Domo FC",
        "event_total": 58,
        "has_played": true,
        "id": 19879445,
        "last_rank": 41324,
        "player_name": "Dominick Fitzgerald",
        "rank": 39837,
        "rank_sort": 39993,
        "total": 2359
      },
      {
        "club_badge_src": null,
        "entry": 2872955,
        "entry_name": "Baker's Dozen + 2",
        "event_total": 59,
        "has_played": true,
        "id": 21022221,
        "last_rank": 42506,
        "player_name": "Nat Baker",
        "rank": 39837,
        "rank_sort": 39994,
        "total": 2359
      },
      {
        "club_badge_src": null,
        "entry": 2920283,
        "entry_name": "Sesko Clubcard",
        "event_total": 55,
        "has_played": true,
        "id": 21407391,
        "last_rank": 37435,
        "player_name": "Matt Parker",
        "rank": 39837,
        "rank_sort": 39995,
        "total": 2359
      },
      {
        "club_badge_src": null,
        "entry": 3019744,
        "entry_name": "Eberechi Goode",
        "event_total": 65,
        "has_played": true,
        "id": 22217571,
        "last_rank": 51403,
        "player_name": "David Thomas",
        "rank": 39837,
        "rank_sort": 39996,
        "total": 2359
      },
      {
        "club_badge_src": null,
        "entry": 3024991,
        "entry_name": "Toon",
        "event_total": 56,
        "has_played": true,
        "id": 22257545,
        "last_rank": 38774,
        "player_name": "Kjetil Vangli",
        "rank": 39837,
        "rank_sort": 39997,
        "total": 2359
      },
      {
        "club_badge_src": null,
        "entry": 3078648,
        "entry_name": "Boogies Ballers",
        "event_total": 70,
        "has_played": true,
        "id": 22680525,
        "last_rank": 59813,
        "player_name": "Callum Davis",
        "rank": 39837,
        "rank_sort": 39998,
        "total": 2359
      },
      {
        "club_badge_src": "https://fantasy.premierleague.com/gcs/plfpl-production-adobe-approved/plfpl-production/3173647/f12374d6-c1db-4269-89b7-3c00f98bef3d.png",
        "entry": 3173647,
        "entry_name": "Reem Team",
        "event_total": 38,
        "has_played": true,
        "id": 23449167,
        "last_rank": 20983,
        "player_name": "Dan Gotobed",
        "rank": 39837,
        "rank_sort": 39999,
        "total": 2359
      },
      {
        "club_badge_src": null,
        "entry": 3225585,
        "entry_name": "Come Digne with Mee",
        "event_total": 59,
        "has_played": true,
        "id": 23854019,
        "last_rank": 42506,
        "player_name": "Jake Beasley",
        "rank": 39837,
        "rank_sort": 40000,
        "total": 2359
      }
    ]
  }
}