{
  "last_updated_data": "2026-05-24T23:28:17Z",
  "league": {
    "admin_entry": null,
    "closed": false,
    "code_privacy": "p",
    "created": "2025-07-20T23:14:33.933835Z",
    "cup_league": 2815434,
    "has_cup": true,
    "id": 314,
    "league_type": "s",
    "max_entries": null,
    "name": "Overall",
    "rank": null,
    "scoring": "c",
    "start_event": 1
  },
  "new_entries": {
    "has_next": false,
    "page": 1,
    "results": []
  },
  "standings": {
    "has_next": true,
    "page": 269,
    "results": [
      {
        "club_badge_src": null,
        "entry": 322184,
        "entry_name": "Abo Selia",
        "event_total": 53,
        "has_played": true,
        "id": 2159105,
        "last_rank": 10992,
        "player_name": "Aman El-Kashef",
        "rank": 13385,
        "rank_sort": 13401,
        "total": 2391
      },
      {
        "club_badge_src": null,
        "entry": 343490,
        "entry_name": "Mr. Interessen",
        "event_total": 65,
        "has_played": true,
        "id": 2298890,
        "last_rank": 17585,
        "player_name": "Simen Fodstad",
        "rank": 13385,
        "rank_sort": 13402,
        "total": 2391
      },
      {
        "club_badge_src": null,
        "entry": 462328,
        "entry_name": "Royal AM",
        "event_total": 61,
        "has_played": true,
        "id": 3101234,
        "last_rank": 12705,
        "player_name": "Shaakier Abrahams",
        "rank": 13385,
        "rank_sort": 13403,
        "total": 2391
      },
      {
        "club_badge_src": null,
        "entry": 467948,
        "entry_name": "SudeepGtm",
        "event_total": 46,
        "has_played": true,
        "id": 3140333,
        "last_rank": 8138,
        "player_name": "Sudeep Gautam",
        "rank": 13385,
        "rank_sort": 13404,
        "total": 2391
      },
      {
        "club_badge_src": "https://fantasy.premierleague.com/gcs/plfpl-production-adobe-approved/plfpl-production/504058/2e2675cb-2c31-4622-86f3-d1c18361ab90.png",
        "entry": 504058,
        "entry_name": "Eze come Eze go",
        "event_total": 47,
        "has_played": true,
        "id": 3383455,
        "last_rank": 8552,
        "player_name": "Tony skinner",
        "rank": 13385,
        "rank_sort": 13405,
        "total": 2391
      },
      {
        "club_badge_src": "https://fantasy.premierleague.com/gcs/plfpl-production-adobe-approved/plfpl-production/614374/704c2058-216d-4f10-a886-bbace04eec3f.png",
        "entry": 614374,
        "entry_name": "Dedoling Around",
        "event_total": 37,
        "has_played": true,
        "id": 4151342,
        "last_rank": 5560,
        "player_name": "Eyad Hamada",
        "rank": 13385,
        "rank_sort": 13406,
        "total": 2391
      },
      {
        "club_badge_src": null,
        "entry": 648149,
        "entry_name": "Adama Dozen",
        "event_total": 56,
        "has_played": true,
        "id": 4380372,
        "last_rank": 12420,
        "player_name": "Nick Mastrini",
        "rank": 13385,
        "rank_sort": 13407,
        "total": 2391
      },
      {
        "club_badge_src": "https://fantasy.premierleague.com/gcs/plfpl-production-adobe-approved/plfpl-production/678762/0af77cfe-67a8-455d-b3bf-4f03c0886b7d.png",
        "entry": 678762,
        "entry_name": "De Cuyper Belt",
        "event_total": 68,
        "has_played": true,
        "id": 4592917,
        "last_rank": 19721,
        "player_name": "Matt Hew",
        "rank": 13385,
        "rank_sort": 13408,
        "total": 2391
      },
      {
        "club_badge_src": null,
        "entry": 718256,
        "entry_name": "Bruno Dos Tres",
        "event_total": 67,
        "has_played": true,
        "id": 4874078,
        "last_rank": 18985,
        "player_name": "Veselin Denev",
        "rank": 13385,
        "rank_sort": 13409,
        "total": 2391
      },
      {
        "club_badge_src": null,
        "entry": 724917,
        "entry_name": "The way to Amurillo",
        "event_total": 65,
        "has_played": true,
        "id": 4923744,
        "last_rank": 15063,
        "player_name": "ossian willan-hughes",
        "rank": 13385,
        "rank_sort": 13410,
        "total": 2391
      },
      {
        "club_badge_src": null,
        "entry": 753780,
        "entry_name": "SK Land\u00e5s",
        "event_total": 66,
        "has_played": true,
        "id": 5130236,
        "last_rank": 18270,
        "player_name": "Robert Hatland",
        "rank": 13385,
        "rank_sort": 13411,
        "total": 2391
      },
      {
        "club_badge_src": null,
        "entry": 765427,
        "entry_name": "FC Haaken",
        "event_total": 69,
        "has_played": true,
        "id": 5220487,
        "last_rank": 20538,
        "player_name": "Andreas Haakonsen",
        "rank": 13385,
        "rank_sort": 13412,
        "total": 2391
      },
      {
        "club_badge_src": null,
        "entry": 825735,
        "entry_name": "\u5927\u732b\u4e0e\u706b\u70ae",
        "event_total": 55,
        "has_played": true,
        "id": 5655423,
        "last_rank": 10031,
        "player_name": "TJ Gunners",
        "rank": 13385,
        "rank_sort": 13413,
        "total": 2391
      },
      {
        "club_badge_src": null,
        "entry": 859944,
        "entry_name": "The Only Way Is Up",
        "event_total": 57,
        "has_played": true,
        "id": 5894989,
        "last_rank": 12846,
        "player_name": "Craig Smallbone",
        "rank": 13385,
        "rank_sort": 13414,
        "total": 2391
      },
      {
        "club_badge_src": null,
        "entry": 881488,
        "entry_name": "SHOLLYLAD FC",
        "event_total": 60,
        "has_played": true,
        "id": 6045053,
        "last_rank": 12141,
        "player_name": "Adekanmbi Shola",
        "rank": 13385,
        "rank_sort": 13415,
        "total": 2391
      },
      {
        "club_badge_src": null,
        "entry": 884861,
        "entry_name": "Red Devils",
        "event_total": 74,
        "has_played": true,
        "id": 6068561,
        "last_rank": 21159,
        "player_name": "Dondraper 1",
        "rank": 13385,
        "rank_sort": 13416,
        "total": 2391
      },
      {
        "club_badge_src": null,
        "entry": 897306,
        "entry_name": "El-hawi",
        "event_total": 68,
        "has_played": true,
        "id": 6164947,
        "last_rank": 16959,
        "player_name": "Ahmed Hassan Shamardan",
        "rank": 13385,
        "rank_sort": 13417,
        "total": 2391
      },
      {
        "club_badge_src": null,
        "entry": 941926,
        "entry_name": "Kauno Burundukai",
        "event_total": 60,
        "has_played": true,
        "id": 6485902,
        "last_rank": 14604,
        "player_name": "Darius Dambrauskas",
        "rank": 13385,
        "rank_sort": 13418,
        "total": 2391
      },
      {
        "club_badge_src": null,
        "entry": 981849,
        "entry_name": "kinder mbeumo",
        "event_total": 64,
        "has_played": true,
        "id": 6769010,
        "last_rank": 17150,
        "player_name": "Samuel Flynn",
        "rank": 13385,
        "rank_sort": 13419,
        "total": 2391
      },
      {
        "club_badge_src": null,
        "entry": 1019434,
        "entry_name": "Browich",
        "event_total": 56,
        "has_played": true,
        "id": 7052868,
        "last_rank": 12420,
        "player_name": "Bror Andersson",
        "rank": 13385,
        "rank_sort": 13420,
        "total": 2391
      },
      {
        "club_badge_src": null,
        "entry": 1146803,
        "entry_name": "Snoopy FC",
        "event_total": 72,
        "has_played": true,
        "id": 7951318,
        "last_rank": 22830,
        "player_name": "Dr. Sonam Bhutia",
        "rank": 13385,
        "rank_sort": 13421,
        "total": 2391
      },
      {
        "club_badge_src": null,
        "entry": 1190450,
        "entry_name": "FC Bj\u00f6rnen",
        "event_total": 64,
        "has_played": true,
        "id": 8260000,
        "last_rank": 17078,
        "player_name": "Jimmy Svenblad",
        "rank": 13385,
        "rank_sort": 13422,
        "total": 2391
      },
      {
        "club_badge_src": null,
        "entry": 1236829,
        "entry_name": "Charr",
        "event_total": 59,
        "has_played": true,
        "id": 8588697,
        "last_rank": 13947,
        "player_name": "Souguir Ghassen",
        "rank": 13385,
        "rank_sort": 13423,
        "total": 2391
      },
      {
        "club_badge_src": null,
        "entry": 1303309,
        "entry_name": "Todds trollgubbar",
        "event_total": 63,
        "has_played": true,
        "id": 9058060,
        "last_rank": 16320,
        "player_name": "Viktor Madell",
        "rank": 13385,
        "rank_sort": 13424,
        "total": 2391
      },
      {
        "club_badge_src": null,
        "entry": 1393007,
        "entry_name": "Parma",
        "event_total": 65,
        "has_played": true,
        "id": 9690965,
        "last_rank": 17802,
        "player_name": "Roy Fung",
        "rank": 13385,
        "rank_sort": 13425,
        "total": 2391
      },
      {
        "club_badge_src": null,
        "entry": 1404292,
        "entry_name": "AFC Richmond",
        "event_total": 60,
        "has_played": true,
        "id": 9770856,
        "last_rank": 14370,
        "player_name": "Jack Richmond",
        "rank": 13385,
        "rank_sort": 13426,
        "total": 2391
      },
      {
        "club_badge_src": null,
        "entry": 1435536,
        "entry_name": "Vodka Penne FC",
        "event_total": 66,
        "has_played": true,
        "id": 10002834,
        "last_rank": 18270,
        "player_name": "Leo Vasilisson",
        "rank": 13385,
        "rank_sort": 13427,
        "total": 2391
      },
      {
        "club_badge_src": null,
        "entry": 1557362,
        "entry_name": "Cunha Get Any Wirtz",
        "event_total": 66,
        "has_played": true,
        "id": 10875427,
        "last_rank": 15550,
        "player_name": "Kasim Nawaz",
        "rank": 13385,
        "rank_sort": 13428,
        "total": 2391
      },
      {
        "club_badge_src": null,
        "entry": 1622838,
        "entry_name": "Mypa",
        "event_total": 59,
        "has_played": true,
        "id": 11358124,
        "last_rank": 13947,
        "player_name": "Mikael Ermala",
        "rank": 13385,
        "rank_sort": 13429,
        "total": 2391
      },
      {
        "club_badge_src": null,
        "entry": 1875805,
        "entry_name": "Wirtz your problem",
        "event_total": 78,
        "has_played": true,
        "id": 13207021,
        "last_rank": 27976,
        "player_name": "Oli Lawrence",
        "rank": 13385,
        "rank_sort": 13430,
        "total": 2391
      },
      {
        "club_badge_src": null,
        "entry": 1949480,
        "entry_name": "ZaaNzLaaa",
        "event_total": 65,
        "has_played": true,
        "id": 13751576,
        "last_rank": 17718,
        "player_name": "Redouane Mokhtari",
        "rank": 13385,
        "rank_sort": 13431,
        "total": 2391
      },
      {
        "club_badge_src": "https://fantasy.premierleague.com/gcs/plfpl-production-adobe-approved/plfpl-production/1961507/eab6cdd6-fc78-454f-b69e-04b12673e3fa.png",
        "entry": 1961507,
        "entry_name": "Snus & Tacklingar",
        "event_total": 55,
        "has_played": true,
        "id": 13839181,
        "last_rank": 11821,
        "player_name": "Adam Bjork",
        "rank": 13385,
        "rank_sort": 13432,
        "total": 2391
      },
      {
        "club_badge_src": null,
        "entry": 2083294,
        "entry_name": "EndoThailandFC",
        "event_total": 62,
        "has_played": true,
        "id": 14778520,
        "last_rank": 15694,
        "player_name": "Parn M",
        "rank": 13385,
        "rank_sort": 13433,
        "total": 2391
      },
      {
        "club_badge_src": null,
        "entry": 2140091,
        "entry_name": "Kinder Mbeumo",
        "event_total": 87,
        "has_played": true,
        "id": 15209605,
        "last_rank": 38016,
        "player_name": "Sharon Cogan",
        "rank": 13385,
        "rank_sort": 13434,
        "total": 2391
      },
      {
        "club_badge_src": "https://fantasy.premierleague.com/gcs/plfpl-production-adobe-approved/plfpl-production/2347412/5ca69ebb-8505-4644-a5ee-2f99a54b683f.png",
        "entry": 2347412,
        "entry_name": "Zirkzee & I know it",
        "event_total": 41,
        "has_played": true,
        "id": 16749578,
        "last_rank": 6579,
        "player_name": "Ganesh Madikeri Ramesh",
        "rank": 13385,
        "rank_sort": 13435,
        "total": 2391
      },
      {
        "club_badge_src": null,
        "entry": 2915363,
        "entry_name": "NoEzeMane",
        "event_total": 58,
        "has_played": true,
        "id": 21369036,
        "last_rank": 9536,
        "player_name": "Peter F",
        "rank": 13385,
        "rank_sort": 13436,
        "total": 2391
      },
      {
        "club_badge_src": null,
        "entry": 3092863,
        "entry_name": "bruno dos tres",
        "event_total": 62,
        "has_played": true,
        "id": 22794314,
        "last_rank": 11175,
        "player_name": "Olav Nikolai Sorensen",
        "rank": 13385,
        "rank_sort": 13437,
        "total": 2391
      },
      {
        "club_badge_src": null,
        "entry": 3353498,
        "entry_name": "\u0645\u0642\u062a\u062f\u0649 \u0633\u0639\u062f",
        "event_total": 64,
        "has_played": true,
        "id": 24879031,
        "last_rank": 16959,
        "player_name": "Muqtada Fernandes",
        "rank": 13385,
        "rank_sort": 13438,
        "total": 2391
      },
      {
        "club_badge_src": null,
        "entry": 3445423,
        "entry_name": "Minteh fresh",
        "event_total": 59,
        "has_played": true,
        "id": 25599434,
        "last_rank": 13947,
        "player_name": "chris wagner",
        "rank": 13385,
        "rank_sort": 13439,
        "total": 2391
      },
      {
        "club_badge_src": null,
        "entry": 3528331,
        "entry_name": "Per\u00e4kammarinPojat",
        "event_total": 49,
        "has_played": true,
        "id": 26259422,
        "last_rank": 9311,
        "player_name": "Jani Alatalo",
        "rank": 13385,
        "rank_sort": 13440,
        "total": 2391
      },
      {
        "club_badge_src": null,
        "entry": 3821463,
        "entry_name": "Goa Gobbar",
        "event_total": 52,
        "has_played": true,
        "id": 28581664,
        "last_rank": 8854,
        "player_name": "ludvig helgesson",
        "rank": 13385,
        "rank_sort": 13441,
        "total": 2391
      },
      {
        "club_badge_src": null,
        "entry": 4173706,
        "entry_name": "redemption",
        "event_total": 80,
        "has_played": true,
        "id": 31568163,
        "last_rank": 30060,
        "player_name": "Prakhar Jain",
        "rank": 13385,
        "rank_sort": 13442,
        "total": 2391
      },
      {
        "club_badge_src": null,
        "entry": 4714827,
        "entry_name": "Cottagers",
        "event_total": 39,
        "has_played": true,
        "id": 36192607,
        "last_rank": 6061,
        "player_name": "Paul Griffin",
        "rank": 13385,
        "rank_sort": 13443,
        "total": 2391
      },
      {
        "club_badge_src": null,
        "entry": 5260519,
        "entry_name": "salibaba",
        "event_total": 52,
        "has_played": true,
        "id": 40771558,
        "last_rank": 10556,
        "player_name": "George Howard",
        "rank": 13385,
        "rank_sort": 13444,
        "total": 2391
      },
      {
        "club_badge_src": null,
        "entry": 5280727,
        "entry_name": "Parker Allstars",
        "event_total": 67,
        "has_played": true,
        "id": 40931001,
        "last_rank": 16320,
        "player_name": "Matthew Parker",
        "rank": 13385,
        "rank_sort": 13445,
        "total": 2391
      },
      {
        "club_badge_src": "https://fantasy.premierleague.com/gcs/plfpl-production-adobe-approved/plfpl-production/5486357/fcfa19a8-a7e9-45dd-848a-3df04f5853f5.png",
        "entry": 5486357,
        "entry_name": "David Moyes' Caicedo",
        "event_total": 65,
        "has_played": true,
        "id": 42725110,
        "last_rank": 17718,
        "player_name": "Liam Coveney",
        "rank": 13385,
        "rank_sort": 13446,
        "total": 2391
      },
      {
        "club_badge_src": null,
        "entry": 5672446,
        "entry_name": "Nice n' Eze",
        "event_total": 63,
        "has_played": true,
        "id": 44389933,
        "last_rank": 16441,
        "player_name": "Louise Buckingham",
        "rank": 13385,
        "rank_sort": 13447,
        "total": 2391
      },
      {
        "club_badge_src": null,
        "entry": 5952836,
        "entry_name": "de7k bas",
        "event_total": 58,
        "has_played": true,
        "id": 46824216,
        "last_rank": 11345,
        "player_name": "Amro Shamel",
        "rank": 13385,
        "rank_sort": 13448,
        "total": 2391
      },
      {
        "club_badge_src": null,
        "entry": 6128084,
        "entry_name": "logboo",
        "event_total": 69,
        "has_played": true,
        "id": 48420975,
        "last_rank": 20416,
        "player_name": "Marcus Holt",
        "rank": 13385,
        "rank_sort": 13449,
        "total": 2391
      },
      {
        "club_badge_src": null,
        "entry": 6332910,
        "entry_name": "Richhill AFC",
        "event_total": 67,
        "has_played": true,
        "id": 50330893,
        "last_rank": 19103,
        "player_name": "James Ballantine",
        "rank": 13385,
        "rank_sort": 13450,
        "total": 2391
      }
    ]
  }
}