{
  "last_updated_data": "2026-05-24T23:28:17Z",
  "league": {
    "admin_entry": null,
    "closed": false,
    "code_privacy": "p",
    "created": "2025-07-20T23:14:33.933835Z",
    "cup_league": 2815434,
    "has_cup": true,
    "id": 314,
    "league_type": "s",
    "max_entries": null,
    "name": "Overall",
    "rank": null,
    "scoring": "c",
    "start_event": 1
  },
  "new_entries": {
    "has_next": false,
    "page": 1,
    "results": []
  },
  "standings": {
    "has_next": true,
    "page": 843,
    "results": [
      {
        "club_badge_src": null,
        "entry": 6538343,
        "entry_name": "CHELSEAAAAA",
        "event_total": 60,
        "has_played": true,
        "id": 52162966,
        "last_rank": 40878,
        "player_name": "Mahin 007",
        "rank": 42074,
        "rank_sort": 42101,
        "total": 2358
      },
      {
        "club_badge_src": null,
        "entry": 6680859,
        "entry_name": "Reiduns  r\u00e5nere",
        "event_total": 44,
        "has_played": true,
        "id": 53440066,
        "last_rank": 27464,
        "player_name": "Knut Jarle Kleven",
        "rank": 42074,
        "rank_sort": 42102,
        "total": 2358
      },
      {
        "club_badge_src": null,
        "entry": 6764282,
        "entry_name": "GoonerWinThis",
        "event_total": 52,
        "has_played": true,
        "id": 54159726,
        "last_rank": 35998,
        "player_name": "Ethan Quinn",
        "rank": 42074,
        "rank_sort": 42103,
        "total": 2358
      },
      {
        "club_badge_src": null,
        "entry": 8065778,
        "entry_name": "Us3ful FC",
        "event_total": 72,
        "has_played": true,
        "id": 66482069,
        "last_rank": 66296,
        "player_name": "Akinjide Akinola",
        "rank": 42074,
        "rank_sort": 42104,
        "total": 2358
      },
      {
        "club_badge_src": null,
        "entry": 8199047,
        "entry_name": "Hamilton FC",
        "event_total": 74,
        "has_played": true,
        "id": 67731740,
        "last_rank": 70355,
        "player_name": "Dana O'Brian",
        "rank": 42074,
        "rank_sort": 42105,
        "total": 2358
      },
      {
        "club_badge_src": "https://fantasy.premierleague.com/gcs/plfpl-production-adobe-approved/plfpl-production/12740/3bbf21e9-a235-4cde-a86e-d6cbba83348c.png",
        "entry": 12740,
        "entry_name": "Gnoto's Spaghetti",
        "event_total": 62,
        "has_played": true,
        "id": 76554,
        "last_rank": 43607,
        "player_name": "James Moody",
        "rank": 42106,
        "rank_sort": 42106,
        "total": 2358
      },
      {
        "club_badge_src": null,
        "entry": 13049,
        "entry_name": "WASSWA CF",
        "event_total": 58,
        "has_played": true,
        "id": 78624,
        "last_rank": 43637,
        "player_name": "wasswa john",
        "rank": 42106,
        "rank_sort": 42107,
        "total": 2358
      },
      {
        "club_badge_src": "https://fantasy.premierleague.com/gcs/plfpl-production-adobe-approved/plfpl-production/76101/ee8836fd-1a7b-4d77-ac6b-a29280738e16.png",
        "entry": 76101,
        "entry_name": "Your Wirtz Nightmare",
        "event_total": 59,
        "has_played": true,
        "id": 494733,
        "last_rank": 45007,
        "player_name": "Jahn Oscar Staff",
        "rank": 42106,
        "rank_sort": 42108,
        "total": 2358
      },
      {
        "club_badge_src": null,
        "entry": 109311,
        "entry_name": "Can'tFindMcConkeys",
        "event_total": 65,
        "has_played": true,
        "id": 712707,
        "last_rank": 54181,
        "player_name": "Bradley Lawson",
        "rank": 42106,
        "rank_sort": 42109,
        "total": 2358
      },
      {
        "club_badge_src": "https://fantasy.premierleague.com/gcs/plfpl-production-adobe-approved/plfpl-production/276961/7f2a6799-09b5-40ef-86b3-d1d539999f54.png",
        "entry": 276961,
        "entry_name": "Starsenal",
        "event_total": 42,
        "has_played": true,
        "id": 1843457,
        "last_rank": 19302,
        "player_name": "Andy Mardle",
        "rank": 42106,
        "rank_sort": 42110,
        "total": 2358
      },
      {
        "club_badge_src": "https://fantasy.premierleague.com/gcs/plfpl-production-adobe-approved/plfpl-production/341611/c57f9869-ade1-41c0-9563-2c4b7684fb13.png",
        "entry": 341611,
        "entry_name": "Lets do Unal",
        "event_total": 77,
        "has_played": true,
        "id": 2286559,
        "last_rank": 76693,
        "player_name": "Aaron Piercy",
        "rank": 42106,
        "rank_sort": 42111,
        "total": 2358
      },
      {
        "club_badge_src": null,
        "entry": 392777,
        "entry_name": "gbszn",
        "event_total": 60,
        "has_played": true,
        "id": 2634470,
        "last_rank": 46432,
        "player_name": "gabriel wood",
        "rank": 42106,
        "rank_sort": 42112,
        "total": 2358
      },
      {
        "club_badge_src": null,
        "entry": 402318,
        "entry_name": "FPL Sembos",
        "event_total": 66,
        "has_played": true,
        "id": 2697658,
        "last_rank": 49407,
        "player_name": "Sembos .",
        "rank": 42106,
        "rank_sort": 42113,
        "total": 2358
      },
      {
        "club_badge_src": null,
        "entry": 508615,
        "entry_name": "B Moment",
        "event_total": 78,
        "has_played": true,
        "id": 3414308,
        "last_rank": 78782,
        "player_name": "K Lowton",
        "rank": 42106,
        "rank_sort": 42114,
        "total": 2358
      },
      {
        "club_badge_src": null,
        "entry": 614317,
        "entry_name": "HowsElangaManagement",
        "event_total": 58,
        "has_played": true,
        "id": 4150932,
        "last_rank": 43637,
        "player_name": "Simon Sharples",
        "rank": 42106,
        "rank_sort": 42115,
        "total": 2358
      },
      {
        "club_badge_src": null,
        "entry": 675552,
        "entry_name": "Soufiane team",
        "event_total": 75,
        "has_played": true,
        "id": 4570397,
        "last_rank": 50848,
        "player_name": "Soufiane Boulkenafet",
        "rank": 42106,
        "rank_sort": 42116,
        "total": 2358
      },
      {
        "club_badge_src": null,
        "entry": 1054864,
        "entry_name": "Avengers \ufffd",
        "event_total": 45,
        "has_played": true,
        "id": 7300369,
        "last_rank": 28449,
        "player_name": "Ahmed Bakry",
        "rank": 42106,
        "rank_sort": 42117,
        "total": 2358
      },
      {
        "club_badge_src": null,
        "entry": 1191050,
        "entry_name": "Abi Medina CF",
        "event_total": 68,
        "has_played": true,
        "id": 8263979,
        "last_rank": 59291,
        "player_name": "Mohamad Azahar",
        "rank": 42106,
        "rank_sort": 42118,
        "total": 2358
      },
      {
        "club_badge_src": null,
        "entry": 1638223,
        "entry_name": "innit2winit",
        "event_total": 78,
        "has_played": true,
        "id": 11467037,
        "last_rank": 62812,
        "player_name": "leon whine",
        "rank": 42106,
        "rank_sort": 42119,
        "total": 2358
      },
      {
        "club_badge_src": null,
        "entry": 2821457,
        "entry_name": "IM SORRY NIC JACKSON",
        "event_total": 73,
        "has_played": true,
        "id": 20612786,
        "last_rank": 68395,
        "player_name": "James McKnight",
        "rank": 42106,
        "rank_sort": 42120,
        "total": 2358
      },
      {
        "club_badge_src": null,
        "entry": 2912743,
        "entry_name": "11 Disciples",
        "event_total": 64,
        "has_played": true,
        "id": 21349220,
        "last_rank": 46406,
        "player_name": "Matt Yendell",
        "rank": 42106,
        "rank_sort": 42121,
        "total": 2358
      },
      {
        "club_badge_src": null,
        "entry": 3484372,
        "entry_name": "Mamo",
        "event_total": 40,
        "has_played": true,
        "id": 25910028,
        "last_rank": 23930,
        "player_name": "Emam Magdy",
        "rank": 42106,
        "rank_sort": 42122,
        "total": 2358
      },
      {
        "club_badge_src": null,
        "entry": 3541539,
        "entry_name": "Onanas in Pyjamas",
        "event_total": 66,
        "has_played": true,
        "id": 26362081,
        "last_rank": 49407,
        "player_name": "Craig Jones",
        "rank": 42106,
        "rank_sort": 42123,
        "total": 2358
      },
      {
        "club_badge_src": null,
        "entry": 4643201,
        "entry_name": "Knock knock Hurzeler",
        "event_total": 66,
        "has_played": true,
        "id": 35516287,
        "last_rank": 49407,
        "player_name": "Aaron Richmond",
        "rank": 42106,
        "rank_sort": 42124,
        "total": 2358
      },
      {
        "club_badge_src": null,
        "entry": 4854267,
        "entry_name": "Baronski",
        "event_total": 66,
        "has_played": true,
        "id": 37402501,
        "last_rank": 55865,
        "player_name": "Andreas Bolstad Hesjedal",
        "rank": 42106,
        "rank_sort": 42125,
        "total": 2358
      },
      {
        "club_badge_src": null,
        "entry": 5291702,
        "entry_name": "WiseMenSay",
        "event_total": 49,
        "has_played": true,
        "id": 41017891,
        "last_rank": 32576,
        "player_name": "John Gawen",
        "rank": 42106,
        "rank_sort": 42126,
        "total": 2358
      },
      {
        "club_badge_src": null,
        "entry": 5942139,
        "entry_name": "Lalala",
        "event_total": 65,
        "has_played": true,
        "id": 46728253,
        "last_rank": 54181,
        "player_name": "Sean Xu",
        "rank": 42106,
        "rank_sort": 42127,
        "total": 2358
      },
      {
        "club_badge_src": null,
        "entry": 6349234,
        "entry_name": "Big Man Gyokkie Chan",
        "event_total": 58,
        "has_played": true,
        "id": 50471543,
        "last_rank": 43637,
        "player_name": "Jacob Cannon",
        "rank": 42106,
        "rank_sort": 42128,
        "total": 2358
      },
      {
        "club_badge_src": null,
        "entry": 6774993,
        "entry_name": "DeLigt me Bellingham",
        "event_total": 65,
        "has_played": true,
        "id": 54248383,
        "last_rank": 47920,
        "player_name": "Seb Benton",
        "rank": 42106,
        "rank_sort": 42129,
        "total": 2358
      },
      {
        "club_badge_src": null,
        "entry": 7224554,
        "entry_name": "Gangsters Allardyce",
        "event_total": 50,
        "has_played": true,
        "id": 58364661,
        "last_rank": 29393,
        "player_name": "Sam McKenna",
        "rank": 42106,
        "rank_sort": 42130,
        "total": 2358
      },
      {
        "club_badge_src": null,
        "entry": 7701331,
        "entry_name": "Ac milan",
        "event_total": 59,
        "has_played": true,
        "id": 63182769,
        "last_rank": 44982,
        "player_name": "Ahmed Khalil",
        "rank": 42106,
        "rank_sort": 42131,
        "total": 2358
      },
      {
        "club_badge_src": "https://fantasy.premierleague.com/gcs/plfpl-production-adobe-approved/plfpl-production/29722/2a13b281-4dff-40c5-acc3-d2e3b549805d.png",
        "entry": 29722,
        "entry_name": "The Lamb & Flag FC",
        "event_total": 66,
        "has_played": true,
        "id": 188007,
        "last_rank": 49442,
        "player_name": "Jimmeh B",
        "rank": 42132,
        "rank_sort": 42132,
        "total": 2358
      },
      {
        "club_badge_src": null,
        "entry": 321524,
        "entry_name": "212121",
        "event_total": 67,
        "has_played": true,
        "id": 2154780,
        "last_rank": 57619,
        "player_name": "Duncan Hodges",
        "rank": 42132,
        "rank_sort": 42133,
        "total": 2358
      },
      {
        "club_badge_src": null,
        "entry": 559901,
        "entry_name": "Ravishing Royals",
        "event_total": 67,
        "has_played": true,
        "id": 3768432,
        "last_rank": 50984,
        "player_name": "David Wilsher",
        "rank": 42132,
        "rank_sort": 42134,
        "total": 2358
      },
      {
        "club_badge_src": null,
        "entry": 1129327,
        "entry_name": "The Mighty Saffa",
        "event_total": 61,
        "has_played": true,
        "id": 7827053,
        "last_rank": 47982,
        "player_name": "Shaun Edwards",
        "rank": 42132,
        "rank_sort": 42135,
        "total": 2358
      },
      {
        "club_badge_src": null,
        "entry": 1317096,
        "entry_name": "Ali Alsaleh",
        "event_total": 61,
        "has_played": true,
        "id": 9154700,
        "last_rank": 42293,
        "player_name": "Luka Lukita",
        "rank": 42132,
        "rank_sort": 42136,
        "total": 2358
      },
      {
        "club_badge_src": null,
        "entry": 1398420,
        "entry_name": "WengersBadBoys",
        "event_total": 58,
        "has_played": true,
        "id": 9729028,
        "last_rank": 43657,
        "player_name": "Tony Br\u00e4ndstr\u00f6m",
        "rank": 42132,
        "rank_sort": 42137,
        "total": 2358
      },
      {
        "club_badge_src": null,
        "entry": 1457563,
        "entry_name": "Saints are coming !",
        "event_total": 61,
        "has_played": true,
        "id": 10157161,
        "last_rank": 47982,
        "player_name": "Nigel Lee",
        "rank": 42132,
        "rank_sort": 42138,
        "total": 2358
      },
      {
        "club_badge_src": null,
        "entry": 1656978,
        "entry_name": "Team Bruno",
        "event_total": 70,
        "has_played": true,
        "id": 11600718,
        "last_rank": 62939,
        "player_name": "Benjamin Royale",
        "rank": 42132,
        "rank_sort": 42139,
        "total": 2358
      },
      {
        "club_badge_src": null,
        "entry": 1961717,
        "entry_name": "Moschester City",
        "event_total": 65,
        "has_played": true,
        "id": 13840725,
        "last_rank": 54218,
        "player_name": "Moschael Carrick",
        "rank": 42132,
        "rank_sort": 42140,
        "total": 2358
      },
      {
        "club_badge_src": null,
        "entry": 2361395,
        "entry_name": "Tips Nation",
        "event_total": 67,
        "has_played": true,
        "id": 16852748,
        "last_rank": 50984,
        "player_name": "Chukwuma Victor",
        "rank": 42132,
        "rank_sort": 42141,
        "total": 2358
      },
      {
        "club_badge_src": null,
        "entry": 2404083,
        "entry_name": "Gyok Tuah",
        "event_total": 61,
        "has_played": true,
        "id": 17183419,
        "last_rank": 37211,
        "player_name": "Rhys Elliott",
        "rank": 42132,
        "rank_sort": 42142,
        "total": 2358
      },
      {
        "club_badge_src": null,
        "entry": 3159760,
        "entry_name": "Tabomya FC",
        "event_total": 67,
        "has_played": true,
        "id": 23341246,
        "last_rank": 57636,
        "player_name": "Edgar Anabo",
        "rank": 42132,
        "rank_sort": 42143,
        "total": 2358
      },
      {
        "club_badge_src": null,
        "entry": 4024208,
        "entry_name": "AyeReadyWATP",
        "event_total": 70,
        "has_played": true,
        "id": 30332534,
        "last_rank": 62917,
        "player_name": "jas c",
        "rank": 42132,
        "rank_sort": 42144,
        "total": 2358
      },
      {
        "club_badge_src": null,
        "entry": 4402338,
        "entry_name": "Iloveliamsabs",
        "event_total": 58,
        "has_played": true,
        "id": 33482307,
        "last_rank": 38448,
        "player_name": "darren holliday",
        "rank": 42132,
        "rank_sort": 42145,
        "total": 2358
      },
      {
        "club_badge_src": null,
        "entry": 6168853,
        "entry_name": "Radwan",
        "event_total": 57,
        "has_played": true,
        "id": 48775819,
        "last_rank": 32552,
        "player_name": "radwan elhaggar",
        "rank": 42132,
        "rank_sort": 42146,
        "total": 2358
      },
      {
        "club_badge_src": "https://fantasy.premierleague.com/gcs/plfpl-production-adobe-approved/plfpl-production/7296080/10cb53e4-e5b1-46c6-895f-5e93e5c3dd8d.png",
        "entry": 7296080,
        "entry_name": "FortunesAlwaysHiding",
        "event_total": 50,
        "has_played": true,
        "id": 59039660,
        "last_rank": 29411,
        "player_name": "Alec Keeler",
        "rank": 42132,
        "rank_sort": 42147,
        "total": 2358
      },
      {
        "club_badge_src": null,
        "entry": 7424181,
        "entry_name": "Howe Toon is now?",
        "event_total": 68,
        "has_played": true,
        "id": 60293966,
        "last_rank": 59291,
        "player_name": "David Scott-batey",
        "rank": 42132,
        "rank_sort": 42148,
        "total": 2358
      },
      {
        "club_badge_src": null,
        "entry": 9135,
        "entry_name": "Seven Nation Arne",
        "event_total": 57,
        "has_played": true,
        "id": 53570,
        "last_rank": 42327,
        "player_name": "Sam Blake",
        "rank": 42149,
        "rank_sort": 42149,
        "total": 2358
      },
      {
        "club_badge_src": "https://fantasy.premierleague.com/gcs/plfpl-production-adobe-approved/plfpl-production/19281/8754c467-f200-4981-9a9c-738e5d26a4e4.png",
        "entry": 19281,
        "entry_name": "ABCDE FC",
        "event_total": 60,
        "has_played": true,
        "id": 119994,
        "last_rank": 36015,
        "player_name": "LEE MARTIN",
        "rank": 42149,
        "rank_sort": 42150,
        "total": 2358
      }
    ]
  }
}