{
  "last_updated_data": "2026-05-24T23:28:17Z",
  "league": {
    "admin_entry": null,
    "closed": false,
    "code_privacy": "p",
    "created": "2025-07-20T23:14:33.933835Z",
    "cup_league": 2815434,
    "has_cup": true,
    "id": 314,
    "league_type": "s",
    "max_entries": null,
    "name": "Overall",
    "rank": null,
    "scoring": "c",
    "start_event": 1
  },
  "new_entries": {
    "has_next": false,
    "page": 1,
    "results": []
  },
  "standings": {
    "has_next": true,
    "page": 489,
    "results": [
      {
        "club_badge_src": null,
        "entry": 5916379,
        "entry_name": "Bean Fc",
        "event_total": 39,
        "has_played": true,
        "id": 46497731,
        "last_rank": 12141,
        "player_name": "Leo Chavez",
        "rank": 24386,
        "rank_sort": 24401,
        "total": 2374
      },
      {
        "club_badge_src": null,
        "entry": 7930624,
        "entry_name": "Xhaka? Saka Laka!",
        "event_total": 62,
        "has_played": true,
        "id": 65265560,
        "last_rank": 28546,
        "player_name": "Jae Joung",
        "rank": 24386,
        "rank_sort": 24402,
        "total": 2374
      },
      {
        "club_badge_src": null,
        "entry": 9627585,
        "entry_name": "Underdogs",
        "event_total": 50,
        "has_played": true,
        "id": 81615161,
        "last_rank": 18655,
        "player_name": "John Leedsson",
        "rank": 24386,
        "rank_sort": 24403,
        "total": 2374
      },
      {
        "club_badge_src": null,
        "entry": 21,
        "entry_name": "Forever 20",
        "event_total": 73,
        "has_played": true,
        "id": 115,
        "last_rank": 41073,
        "player_name": "David Prescott",
        "rank": 24404,
        "rank_sort": 24404,
        "total": 2374
      },
      {
        "club_badge_src": null,
        "entry": 24530,
        "entry_name": "House Martins",
        "event_total": 66,
        "has_played": true,
        "id": 154864,
        "last_rank": 32879,
        "player_name": "Ben Warburton",
        "rank": 24404,
        "rank_sort": 24405,
        "total": 2374
      },
      {
        "club_badge_src": null,
        "entry": 32450,
        "entry_name": "Bruno Dos Tres",
        "event_total": 45,
        "has_played": true,
        "id": 206451,
        "last_rank": 15416,
        "player_name": "Sid Vale",
        "rank": 24404,
        "rank_sort": 24406,
        "total": 2374
      },
      {
        "club_badge_src": null,
        "entry": 71373,
        "entry_name": "pharmacy",
        "event_total": 59,
        "has_played": true,
        "id": 463569,
        "last_rank": 25902,
        "player_name": "ahmed esmail",
        "rank": 24404,
        "rank_sort": 24407,
        "total": 2374
      },
      {
        "club_badge_src": "https://fantasy.premierleague.com/gcs/plfpl-production-adobe-approved/plfpl-production/111616/e452bc6f-f4f6-4233-afaf-6ce82bbef291.png",
        "entry": 111616,
        "entry_name": "Flackers FC",
        "event_total": 83,
        "has_played": true,
        "id": 727791,
        "last_rank": 56041,
        "player_name": "Joel Wood",
        "rank": 24404,
        "rank_sort": 24408,
        "total": 2374
      },
      {
        "club_badge_src": null,
        "entry": 141827,
        "entry_name": "Gateshead Sapipa",
        "event_total": 39,
        "has_played": true,
        "id": 926808,
        "last_rank": 12200,
        "player_name": "Joe Hornsby",
        "rank": 24404,
        "rank_sort": 24409,
        "total": 2374
      },
      {
        "club_badge_src": null,
        "entry": 169758,
        "entry_name": "Chaos is a Ladro",
        "event_total": 66,
        "has_played": true,
        "id": 1121757,
        "last_rank": 32661,
        "player_name": "Quinlan McDonnell",
        "rank": 24404,
        "rank_sort": 24410,
        "total": 2374
      },
      {
        "club_badge_src": null,
        "entry": 195250,
        "entry_name": "D.J20",
        "event_total": 49,
        "has_played": true,
        "id": 1294720,
        "last_rank": 18113,
        "player_name": "\u062c\u0645\u0639\u0629 \u0627\u0628\u0648\u062a\u0644\u0627\u062a",
        "rank": 24404,
        "rank_sort": 24411,
        "total": 2374
      },
      {
        "club_badge_src": null,
        "entry": 364608,
        "entry_name": "Long Live Bielsa",
        "event_total": 69,
        "has_played": true,
        "id": 2439889,
        "last_rank": 36200,
        "player_name": "James Kearney",
        "rank": 24404,
        "rank_sort": 24412,
        "total": 2374
      },
      {
        "club_badge_src": "https://fantasy.premierleague.com/gcs/plfpl-production-adobe-approved/plfpl-production/374288/31f10943-13f7-44ca-a7fe-ba4bc30ec007.png",
        "entry": 374288,
        "entry_name": "Pereroche",
        "event_total": 65,
        "has_played": true,
        "id": 2504720,
        "last_rank": 31534,
        "player_name": "Sean Perera",
        "rank": 24404,
        "rank_sort": 24413,
        "total": 2374
      },
      {
        "club_badge_src": null,
        "entry": 399156,
        "entry_name": "Mount Doom",
        "event_total": 59,
        "has_played": true,
        "id": 2676636,
        "last_rank": 25902,
        "player_name": "Ben Lewandowski",
        "rank": 24404,
        "rank_sort": 24414,
        "total": 2374
      },
      {
        "club_badge_src": "https://fantasy.premierleague.com/gcs/plfpl-production-adobe-approved/plfpl-production/454922/20cf3e58-7a88-4529-bdca-d1823253d85a.png",
        "entry": 454922,
        "entry_name": "Al Pacino",
        "event_total": 61,
        "has_played": true,
        "id": 3051888,
        "last_rank": 27644,
        "player_name": "Alfredo Pacino",
        "rank": 24404,
        "rank_sort": 24415,
        "total": 2374
      },
      {
        "club_badge_src": null,
        "entry": 621500,
        "entry_name": "Partey like its 1999",
        "event_total": 65,
        "has_played": true,
        "id": 4200055,
        "last_rank": 31556,
        "player_name": "Alex Lucken",
        "rank": 24404,
        "rank_sort": 24416,
        "total": 2374
      },
      {
        "club_badge_src": null,
        "entry": 633450,
        "entry_name": "buzzcut bree",
        "event_total": 62,
        "has_played": true,
        "id": 4280567,
        "last_rank": 28726,
        "player_name": "Charlie Standfield",
        "rank": 24404,
        "rank_sort": 24417,
        "total": 2374
      },
      {
        "club_badge_src": null,
        "entry": 691828,
        "entry_name": "WhiteRice Fc",
        "event_total": 61,
        "has_played": true,
        "id": 4685098,
        "last_rank": 27644,
        "player_name": "Oscar Schumann",
        "rank": 24404,
        "rank_sort": 24418,
        "total": 2374
      },
      {
        "club_badge_src": "https://fantasy.premierleague.com/gcs/plfpl-production-adobe-approved/plfpl-production/1032189/f783c79c-d1a7-4a44-ab36-31c0b2d3fb43.png",
        "entry": 1032189,
        "entry_name": "KDBeez Nuts",
        "event_total": 69,
        "has_played": true,
        "id": 7141479,
        "last_rank": 36348,
        "player_name": "Muhammad Rassool",
        "rank": 24404,
        "rank_sort": 24419,
        "total": 2374
      },
      {
        "club_badge_src": null,
        "entry": 1126018,
        "entry_name": "Class on Grass",
        "event_total": 61,
        "has_played": true,
        "id": 7803727,
        "last_rank": 27644,
        "player_name": "DAN ISPIR",
        "rank": 24404,
        "rank_sort": 24420,
        "total": 2374
      },
      {
        "club_badge_src": null,
        "entry": 1291175,
        "entry_name": "garga",
        "event_total": 55,
        "has_played": true,
        "id": 8972168,
        "last_rank": 22534,
        "player_name": "Ruben Vorland",
        "rank": 24404,
        "rank_sort": 24421,
        "total": 2374
      },
      {
        "club_badge_src": null,
        "entry": 1467441,
        "entry_name": "Kinder Mbuemo",
        "event_total": 62,
        "has_played": true,
        "id": 10228702,
        "last_rank": 28546,
        "player_name": "James Allender",
        "rank": 24404,
        "rank_sort": 24422,
        "total": 2374
      },
      {
        "club_badge_src": null,
        "entry": 1592387,
        "entry_name": "Liverpool TV",
        "event_total": 56,
        "has_played": true,
        "id": 11134501,
        "last_rank": 20147,
        "player_name": "Tom Vidar Larsen",
        "rank": 24404,
        "rank_sort": 24423,
        "total": 2374
      },
      {
        "club_badge_src": null,
        "entry": 1762828,
        "entry_name": "Shad0ws",
        "event_total": 68,
        "has_played": true,
        "id": 12378349,
        "last_rank": 35034,
        "player_name": "Yaroslav Kotenko",
        "rank": 24404,
        "rank_sort": 24424,
        "total": 2374
      },
      {
        "club_badge_src": null,
        "entry": 1785747,
        "entry_name": "Tj Jawa Dawe",
        "event_total": 65,
        "has_played": true,
        "id": 12547056,
        "last_rank": 31620,
        "player_name": "David Komenda",
        "rank": 24404,
        "rank_sort": 24425,
        "total": 2374
      },
      {
        "club_badge_src": null,
        "entry": 1903451,
        "entry_name": "Speedy Gonzales 3",
        "event_total": 60,
        "has_played": true,
        "id": 13418407,
        "last_rank": 26710,
        "player_name": "Alex Valavanis",
        "rank": 24404,
        "rank_sort": 24426,
        "total": 2374
      },
      {
        "club_badge_src": null,
        "entry": 2313212,
        "entry_name": "Less is Moura",
        "event_total": 58,
        "has_played": true,
        "id": 16500989,
        "last_rank": 24897,
        "player_name": "Paul Wardle",
        "rank": 24404,
        "rank_sort": 24427,
        "total": 2374
      },
      {
        "club_badge_src": null,
        "entry": 2411522,
        "entry_name": "Bruce Leeds",
        "event_total": 48,
        "has_played": true,
        "id": 17238423,
        "last_rank": 17437,
        "player_name": "Mathias Kindmark",
        "rank": 24404,
        "rank_sort": 24428,
        "total": 2374
      },
      {
        "club_badge_src": null,
        "entry": 2597118,
        "entry_name": "sky21blue",
        "event_total": 54,
        "has_played": true,
        "id": 18650627,
        "last_rank": 21628,
        "player_name": "Kushal Shrestha",
        "rank": 24404,
        "rank_sort": 24429,
        "total": 2374
      },
      {
        "club_badge_src": null,
        "entry": 2890117,
        "entry_name": "Tht Destroyers",
        "event_total": 72,
        "has_played": true,
        "id": 21161274,
        "last_rank": 39784,
        "player_name": "mostafa ibrahim",
        "rank": 24404,
        "rank_sort": 24430,
        "total": 2374
      },
      {
        "club_badge_src": null,
        "entry": 3154731,
        "entry_name": "What\u2019s Rob Holding ?",
        "event_total": 57,
        "has_played": true,
        "id": 23299574,
        "last_rank": 24039,
        "player_name": "Dean Willis",
        "rank": 24404,
        "rank_sort": 24431,
        "total": 2374
      },
      {
        "club_badge_src": null,
        "entry": 3308776,
        "entry_name": "Change Name",
        "event_total": 36,
        "has_played": true,
        "id": 24512391,
        "last_rank": 10805,
        "player_name": "Harvey Hewson",
        "rank": 24404,
        "rank_sort": 24432,
        "total": 2374
      },
      {
        "club_badge_src": null,
        "entry": 3324777,
        "entry_name": "scccfc",
        "event_total": 51,
        "has_played": true,
        "id": 24648336,
        "last_rank": 19432,
        "player_name": "Stuart Cook",
        "rank": 24404,
        "rank_sort": 24433,
        "total": 2374
      },
      {
        "club_badge_src": null,
        "entry": 3513611,
        "entry_name": "Real McCoy Soy Boys",
        "event_total": 41,
        "has_played": true,
        "id": 26145094,
        "last_rank": 13257,
        "player_name": "Kyle Wallace",
        "rank": 24404,
        "rank_sort": 24434,
        "total": 2374
      },
      {
        "club_badge_src": null,
        "entry": 3906058,
        "entry_name": "SofiBoo",
        "event_total": 60,
        "has_played": true,
        "id": 29365505,
        "last_rank": 26710,
        "player_name": "Sofia Mav",
        "rank": 24404,
        "rank_sort": 24435,
        "total": 2374
      },
      {
        "club_badge_src": null,
        "entry": 4026319,
        "entry_name": "Mahmood Unsullied",
        "event_total": 60,
        "has_played": true,
        "id": 30349855,
        "last_rank": 26656,
        "player_name": "Osama Mahmood",
        "rank": 24404,
        "rank_sort": 24436,
        "total": 2374
      },
      {
        "club_badge_src": null,
        "entry": 4535200,
        "entry_name": "Liquidator",
        "event_total": 75,
        "has_played": true,
        "id": 34596423,
        "last_rank": 43757,
        "player_name": "Croeger .",
        "rank": 24404,
        "rank_sort": 24437,
        "total": 2374
      },
      {
        "club_badge_src": null,
        "entry": 4711932,
        "entry_name": "Tim's Hoofers",
        "event_total": 58,
        "has_played": true,
        "id": 36156985,
        "last_rank": 24897,
        "player_name": "Tim Parry",
        "rank": 24404,
        "rank_sort": 24438,
        "total": 2374
      },
      {
        "club_badge_src": null,
        "entry": 5203438,
        "entry_name": "Balotelli Tubbies",
        "event_total": 44,
        "has_played": true,
        "id": 40299585,
        "last_rank": 14857,
        "player_name": "Tom Bradley",
        "rank": 24404,
        "rank_sort": 24439,
        "total": 2374
      },
      {
        "club_badge_src": null,
        "entry": 5284948,
        "entry_name": "Bratwurscht FC",
        "event_total": 54,
        "has_played": true,
        "id": 40964332,
        "last_rank": 21677,
        "player_name": "Simon Otto",
        "rank": 24404,
        "rank_sort": 24440,
        "total": 2374
      },
      {
        "club_badge_src": null,
        "entry": 5848863,
        "entry_name": "Kaleza",
        "event_total": 53,
        "has_played": true,
        "id": 45918477,
        "last_rank": 20888,
        "player_name": "omar ramadan",
        "rank": 24404,
        "rank_sort": 24441,
        "total": 2374
      },
      {
        "club_badge_src": null,
        "entry": 6080764,
        "entry_name": "Peps Barber",
        "event_total": 52,
        "has_played": true,
        "id": 48008617,
        "last_rank": 20179,
        "player_name": "Eli Wachs",
        "rank": 24404,
        "rank_sort": 24442,
        "total": 2374
      },
      {
        "club_badge_src": null,
        "entry": 6165453,
        "entry_name": "Snow Lion Tibet",
        "event_total": 59,
        "has_played": true,
        "id": 48746024,
        "last_rank": 25729,
        "player_name": "Tenzin Jeshong",
        "rank": 24404,
        "rank_sort": 24443,
        "total": 2374
      },
      {
        "club_badge_src": null,
        "entry": 6273782,
        "entry_name": "Unai-ted",
        "event_total": 69,
        "has_played": true,
        "id": 49680594,
        "last_rank": 36110,
        "player_name": "Tommy Wilson-Bond",
        "rank": 24404,
        "rank_sort": 24444,
        "total": 2374
      },
      {
        "club_badge_src": null,
        "entry": 6796904,
        "entry_name": "swizzness",
        "event_total": 58,
        "has_played": true,
        "id": 54431087,
        "last_rank": 24897,
        "player_name": "ARI D",
        "rank": 24404,
        "rank_sort": 24445,
        "total": 2374
      },
      {
        "club_badge_src": null,
        "entry": 7576775,
        "entry_name": "Poodle",
        "event_total": 53,
        "has_played": true,
        "id": 62054489,
        "last_rank": 20888,
        "player_name": "Adam Lock",
        "rank": 24404,
        "rank_sort": 24446,
        "total": 2374
      },
      {
        "club_badge_src": null,
        "entry": 7847104,
        "entry_name": "Saka Potatoes",
        "event_total": 70,
        "has_played": true,
        "id": 64504594,
        "last_rank": 37376,
        "player_name": "Kelsi Beaver",
        "rank": 24404,
        "rank_sort": 24447,
        "total": 2374
      },
      {
        "club_badge_src": null,
        "entry": 8292620,
        "entry_name": "The Amorimites",
        "event_total": 68,
        "has_played": true,
        "id": 68632686,
        "last_rank": 34969,
        "player_name": "Stuart Dale",
        "rank": 24404,
        "rank_sort": 24448,
        "total": 2374
      },
      {
        "club_badge_src": null,
        "entry": 8390625,
        "entry_name": "COYB",
        "event_total": 55,
        "has_played": true,
        "id": 69591891,
        "last_rank": 22534,
        "player_name": "Bart Gie",
        "rank": 24404,
        "rank_sort": 24449,
        "total": 2374
      },
      {
        "club_badge_src": null,
        "entry": 9011244,
        "entry_name": "Bayern Brooks",
        "event_total": 62,
        "has_played": true,
        "id": 75588675,
        "last_rank": 28546,
        "player_name": "Chris Brooks",
        "rank": 24404,
        "rank_sort": 24450,
        "total": 2374
      }
    ]
  }
}