{
  "last_updated_data": "2026-05-24T23:28:17Z",
  "league": {
    "admin_entry": null,
    "closed": false,
    "code_privacy": "p",
    "created": "2025-07-20T23:14:33.933835Z",
    "cup_league": 2815434,
    "has_cup": true,
    "id": 314,
    "league_type": "s",
    "max_entries": null,
    "name": "Overall",
    "rank": null,
    "scoring": "c",
    "start_event": 1
  },
  "new_entries": {
    "has_next": false,
    "page": 1,
    "results": []
  },
  "standings": {
    "has_next": true,
    "page": 117,
    "results": [
      {
        "club_badge_src": null,
        "entry": 146986,
        "entry_name": "Demerdash FC",
        "event_total": 65,
        "has_played": true,
        "id": 963066,
        "last_rank": 7625,
        "player_name": "Ashraf Eldemerdash",
        "rank": 5788,
        "rank_sort": 5801,
        "total": 2411
      },
      {
        "club_badge_src": "https://fantasy.premierleague.com/gcs/plfpl-production-adobe-approved/plfpl-production/159414/c6923103-8a87-4e8d-971c-ef67c29ad841.png",
        "entry": 159414,
        "entry_name": "Lionel BestSi 10",
        "event_total": 64,
        "has_played": true,
        "id": 1049293,
        "last_rank": 7375,
        "player_name": "Chanon Cherdwongsuk",
        "rank": 5788,
        "rank_sort": 5802,
        "total": 2411
      },
      {
        "club_badge_src": null,
        "entry": 162889,
        "entry_name": "everTonhon",
        "event_total": 53,
        "has_played": true,
        "id": 1073992,
        "last_rank": 4515,
        "player_name": "tonhon akak",
        "rank": 5788,
        "rank_sort": 5803,
        "total": 2411
      },
      {
        "club_badge_src": null,
        "entry": 196455,
        "entry_name": "Crystal Pellis",
        "event_total": 61,
        "has_played": true,
        "id": 1303156,
        "last_rank": 6409,
        "player_name": "Pat Ellis",
        "rank": 5788,
        "rank_sort": 5804,
        "total": 2411
      },
      {
        "club_badge_src": null,
        "entry": 213605,
        "entry_name": "HaalandGlobetrotters",
        "event_total": 68,
        "has_played": true,
        "id": 1420957,
        "last_rank": 8758,
        "player_name": "Avjind Hayer",
        "rank": 5788,
        "rank_sort": 5805,
        "total": 2411
      },
      {
        "club_badge_src": null,
        "entry": 261576,
        "entry_name": "Cunha Get Any Worse",
        "event_total": 55,
        "has_played": true,
        "id": 1738898,
        "last_rank": 4954,
        "player_name": "Jordan Robertson",
        "rank": 5788,
        "rank_sort": 5806,
        "total": 2411
      },
      {
        "club_badge_src": null,
        "entry": 285543,
        "entry_name": "Baudoushow",
        "event_total": 53,
        "has_played": true,
        "id": 1901882,
        "last_rank": 4488,
        "player_name": "Mattias Baudou",
        "rank": 5788,
        "rank_sort": 5807,
        "total": 2411
      },
      {
        "club_badge_src": null,
        "entry": 417415,
        "entry_name": "Mr Bluesky",
        "event_total": 58,
        "has_played": true,
        "id": 2798113,
        "last_rank": 5688,
        "player_name": "Ray Birch",
        "rank": 5788,
        "rank_sort": 5808,
        "total": 2411
      },
      {
        "club_badge_src": null,
        "entry": 443221,
        "entry_name": "Mansherry",
        "event_total": 47,
        "has_played": true,
        "id": 2971634,
        "last_rank": 3408,
        "player_name": "Looktarn Pattorn",
        "rank": 5788,
        "rank_sort": 5809,
        "total": 2411
      },
      {
        "club_badge_src": null,
        "entry": 468601,
        "entry_name": "Siii Utd",
        "event_total": 62,
        "has_played": true,
        "id": 3144953,
        "last_rank": 6752,
        "player_name": "Hugo Jorge",
        "rank": 5788,
        "rank_sort": 5810,
        "total": 2411
      },
      {
        "club_badge_src": "https://fantasy.premierleague.com/gcs/plfpl-production-adobe-approved/plfpl-production/472289/1e61c271-fb9d-4cf0-98a7-13f17718bb4f.png",
        "entry": 472289,
        "entry_name": "Bowen 747",
        "event_total": 54,
        "has_played": true,
        "id": 3170906,
        "last_rank": 4742,
        "player_name": "James Sutton",
        "rank": 5788,
        "rank_sort": 5811,
        "total": 2411
      },
      {
        "club_badge_src": "https://fantasy.premierleague.com/gcs/plfpl-production-adobe-approved/plfpl-production/552897/de5718ac-b74a-46ef-bc39-26c5d7ac740b.png",
        "entry": 552897,
        "entry_name": "Doubt Us Now",
        "event_total": 66,
        "has_played": true,
        "id": 3721440,
        "last_rank": 8032,
        "player_name": "Martin Ne\u0161\u0165\u00e1k",
        "rank": 5788,
        "rank_sort": 5812,
        "total": 2411
      },
      {
        "club_badge_src": null,
        "entry": 615381,
        "entry_name": "GPT's X1",
        "event_total": 54,
        "has_played": true,
        "id": 4158082,
        "last_rank": 4742,
        "player_name": "Jithesh Raj J P",
        "rank": 5788,
        "rank_sort": 5813,
        "total": 2411
      },
      {
        "club_badge_src": null,
        "entry": 655965,
        "entry_name": "Team Foss",
        "event_total": 43,
        "has_played": true,
        "id": 4433049,
        "last_rank": 2824,
        "player_name": "Kenneth Foss",
        "rank": 5788,
        "rank_sort": 5814,
        "total": 2411
      },
      {
        "club_badge_src": null,
        "entry": 757720,
        "entry_name": "Pennywell Rovers",
        "event_total": 57,
        "has_played": true,
        "id": 5161020,
        "last_rank": 4488,
        "player_name": "Shane O'Brien",
        "rank": 5788,
        "rank_sort": 5815,
        "total": 2411
      },
      {
        "club_badge_src": null,
        "entry": 779683,
        "entry_name": "Coopers Troopers",
        "event_total": 68,
        "has_played": true,
        "id": 5322661,
        "last_rank": 8676,
        "player_name": "Nick Cooper",
        "rank": 5788,
        "rank_sort": 5816,
        "total": 2411
      },
      {
        "club_badge_src": "https://fantasy.premierleague.com/gcs/plfpl-production-adobe-approved/plfpl-production/924878/e6dd5127-62a1-400e-999d-39fd707cd8dd.png",
        "entry": 924878,
        "entry_name": "Stay humble",
        "event_total": 69,
        "has_played": true,
        "id": 6362457,
        "last_rank": 9142,
        "player_name": "Rob Vijverberg",
        "rank": 5788,
        "rank_sort": 5817,
        "total": 2411
      },
      {
        "club_badge_src": null,
        "entry": 942104,
        "entry_name": "Gdynia United",
        "event_total": 54,
        "has_played": true,
        "id": 6487469,
        "last_rank": 4704,
        "player_name": "Adrian Samulak",
        "rank": 5788,
        "rank_sort": 5818,
        "total": 2411
      },
      {
        "club_badge_src": null,
        "entry": 1106025,
        "entry_name": "Areola Grande",
        "event_total": 56,
        "has_played": true,
        "id": 7661102,
        "last_rank": 5173,
        "player_name": "Jed Pleckinger",
        "rank": 5788,
        "rank_sort": 5819,
        "total": 2411
      },
      {
        "club_badge_src": null,
        "entry": 1136657,
        "entry_name": "HUA86",
        "event_total": 72,
        "has_played": true,
        "id": 7878993,
        "last_rank": 10288,
        "player_name": "HUA 86",
        "rank": 5788,
        "rank_sort": 5820,
        "total": 2411
      },
      {
        "club_badge_src": null,
        "entry": 1434544,
        "entry_name": "IDKFC",
        "event_total": 71,
        "has_played": true,
        "id": 9995927,
        "last_rank": 9838,
        "player_name": "Tom Bell",
        "rank": 5788,
        "rank_sort": 5821,
        "total": 2411
      },
      {
        "club_badge_src": null,
        "entry": 1667320,
        "entry_name": "Dewsbury Dachshunds",
        "event_total": 55,
        "has_played": true,
        "id": 11673502,
        "last_rank": 4930,
        "player_name": "George Tregidgo",
        "rank": 5788,
        "rank_sort": 5822,
        "total": 2411
      },
      {
        "club_badge_src": null,
        "entry": 1783774,
        "entry_name": "huelebicho",
        "event_total": 45,
        "has_played": true,
        "id": 12532680,
        "last_rank": 3103,
        "player_name": "Alejandro Rodriguez Alzate",
        "rank": 5788,
        "rank_sort": 5823,
        "total": 2411
      },
      {
        "club_badge_src": null,
        "entry": 1825057,
        "entry_name": "Priza's 11",
        "event_total": 48,
        "has_played": true,
        "id": 12836452,
        "last_rank": 3562,
        "player_name": "Jack Corcoran",
        "rank": 5788,
        "rank_sort": 5824,
        "total": 2411
      },
      {
        "club_badge_src": null,
        "entry": 1896218,
        "entry_name": "Boca Seniors",
        "event_total": 61,
        "has_played": true,
        "id": 13365638,
        "last_rank": 6448,
        "player_name": "Andrew Senior",
        "rank": 5788,
        "rank_sort": 5825,
        "total": 2411
      },
      {
        "club_badge_src": null,
        "entry": 2062782,
        "entry_name": "Amaberethe 6.0",
        "event_total": 69,
        "has_played": true,
        "id": 14616301,
        "last_rank": 9142,
        "player_name": "Paul Sekete",
        "rank": 5788,
        "rank_sort": 5826,
        "total": 2411
      },
      {
        "club_badge_src": "https://fantasy.premierleague.com/gcs/plfpl-production-adobe-approved/plfpl-production/2340296/5aa35587-934a-46f0-8cee-5197455fa52d.png",
        "entry": 2340296,
        "entry_name": "Arsenal Lads",
        "event_total": 73,
        "has_played": true,
        "id": 16698678,
        "last_rank": 10805,
        "player_name": "John Haniver",
        "rank": 5788,
        "rank_sort": 5827,
        "total": 2411
      },
      {
        "club_badge_src": "https://fantasy.premierleague.com/gcs/plfpl-production-adobe-approved/plfpl-production/2388718/af377464-62c8-4da1-9230-686c7c420994.png",
        "entry": 2388718,
        "entry_name": "Free Palestine",
        "event_total": 63,
        "has_played": true,
        "id": 17061968,
        "last_rank": 7014,
        "player_name": "ahmed yehia",
        "rank": 5788,
        "rank_sort": 5828,
        "total": 2411
      },
      {
        "club_badge_src": null,
        "entry": 2906404,
        "entry_name": "fantasy winner",
        "event_total": 67,
        "has_played": true,
        "id": 21300187,
        "last_rank": 8382,
        "player_name": "Andy Howell",
        "rank": 5788,
        "rank_sort": 5829,
        "total": 2411
      },
      {
        "club_badge_src": null,
        "entry": 2989295,
        "entry_name": "Atletico Adriano",
        "event_total": 65,
        "has_played": true,
        "id": 21984071,
        "last_rank": 7604,
        "player_name": "Adrian Refsnes",
        "rank": 5788,
        "rank_sort": 5830,
        "total": 2411
      },
      {
        "club_badge_src": null,
        "entry": 3028704,
        "entry_name": "legend of yoro",
        "event_total": 66,
        "has_played": true,
        "id": 22285638,
        "last_rank": 8032,
        "player_name": "james swailes",
        "rank": 5788,
        "rank_sort": 5831,
        "total": 2411
      },
      {
        "club_badge_src": "https://fantasy.premierleague.com/gcs/plfpl-production-adobe-approved/plfpl-production/3602884/881f7ce9-218a-4ea9-9108-ac300be3c27d.png",
        "entry": 3602884,
        "entry_name": "\u0db8\u0dd0\u0db1\u0dca\u0da0\u0dd9\u0dc3\u0dca\u0da7\u0dbb\u0dca \u0d91\u0d9a\u0dca\u0dc3\u0dad\u0dca",
        "event_total": 69,
        "has_played": true,
        "id": 26834643,
        "last_rank": 9089,
        "player_name": "Naveen Peiris",
        "rank": 5788,
        "rank_sort": 5832,
        "total": 2411
      },
      {
        "club_badge_src": null,
        "entry": 3808543,
        "entry_name": "Delap dance",
        "event_total": 58,
        "has_played": true,
        "id": 28475725,
        "last_rank": 5752,
        "player_name": "Noah Jeacock",
        "rank": 5788,
        "rank_sort": 5833,
        "total": 2411
      },
      {
        "club_badge_src": null,
        "entry": 3894566,
        "entry_name": "Misunderstanding",
        "event_total": 62,
        "has_played": true,
        "id": 29269693,
        "last_rank": 6752,
        "player_name": "Peter Standing",
        "rank": 5788,
        "rank_sort": 5834,
        "total": 2411
      },
      {
        "club_badge_src": null,
        "entry": 3908620,
        "entry_name": "Sesh Fabregas",
        "event_total": 50,
        "has_played": true,
        "id": 29386029,
        "last_rank": 3902,
        "player_name": "Jonathan Stoop",
        "rank": 5788,
        "rank_sort": 5835,
        "total": 2411
      },
      {
        "club_badge_src": null,
        "entry": 4087070,
        "entry_name": "Shrute farm",
        "event_total": 39,
        "has_played": true,
        "id": 30856589,
        "last_rank": 2300,
        "player_name": "Danny Hodgson",
        "rank": 5788,
        "rank_sort": 5836,
        "total": 2411
      },
      {
        "club_badge_src": null,
        "entry": 4444051,
        "entry_name": "FCBOND",
        "event_total": 70,
        "has_played": true,
        "id": 33842924,
        "last_rank": 9536,
        "player_name": "Siggi Bond",
        "rank": 5788,
        "rank_sort": 5837,
        "total": 2411
      },
      {
        "club_badge_src": null,
        "entry": 4650446,
        "entry_name": "Fathallov",
        "event_total": 74,
        "has_played": true,
        "id": 35578905,
        "last_rank": 11345,
        "player_name": "Elie Fathallah",
        "rank": 5788,
        "rank_sort": 5838,
        "total": 2411
      },
      {
        "club_badge_src": null,
        "entry": 4876502,
        "entry_name": "Here we go again",
        "event_total": 60,
        "has_played": true,
        "id": 37590379,
        "last_rank": 6194,
        "player_name": "Jonathon Theobald",
        "rank": 5788,
        "rank_sort": 5839,
        "total": 2411
      },
      {
        "club_badge_src": null,
        "entry": 4941159,
        "entry_name": "babananamaleaw",
        "event_total": 54,
        "has_played": true,
        "id": 38123693,
        "last_rank": 4704,
        "player_name": "Baitong Apinya",
        "rank": 5788,
        "rank_sort": 5840,
        "total": 2411
      },
      {
        "club_badge_src": null,
        "entry": 5035433,
        "entry_name": "Mainoo York RedBulls",
        "event_total": 65,
        "has_played": true,
        "id": 38893183,
        "last_rank": 7676,
        "player_name": "Mikey Partington",
        "rank": 5788,
        "rank_sort": 5841,
        "total": 2411
      },
      {
        "club_badge_src": null,
        "entry": 5076491,
        "entry_name": "Defcon Utd",
        "event_total": 53,
        "has_played": true,
        "id": 39233556,
        "last_rank": 4570,
        "player_name": "Goose Murphy",
        "rank": 5788,
        "rank_sort": 5842,
        "total": 2411
      },
      {
        "club_badge_src": null,
        "entry": 5342736,
        "entry_name": "Calafiorication",
        "event_total": 45,
        "has_played": true,
        "id": 41442194,
        "last_rank": 3103,
        "player_name": "Sean Halpin",
        "rank": 5788,
        "rank_sort": 5843,
        "total": 2411
      },
      {
        "club_badge_src": null,
        "entry": 5444105,
        "entry_name": "plaz",
        "event_total": 47,
        "has_played": true,
        "id": 42357946,
        "last_rank": 3408,
        "player_name": "Trausti Jonsson",
        "rank": 5788,
        "rank_sort": 5844,
        "total": 2411
      },
      {
        "club_badge_src": null,
        "entry": 5705597,
        "entry_name": "Bong de Jong",
        "event_total": 59,
        "has_played": true,
        "id": 44675653,
        "last_rank": 5940,
        "player_name": "Andreas Jensen",
        "rank": 5788,
        "rank_sort": 5845,
        "total": 2411
      },
      {
        "club_badge_src": null,
        "entry": 5812577,
        "entry_name": "Mile High Club",
        "event_total": 65,
        "has_played": true,
        "id": 45609012,
        "last_rank": 7625,
        "player_name": "Ebenezer Morley",
        "rank": 5788,
        "rank_sort": 5846,
        "total": 2411
      },
      {
        "club_badge_src": null,
        "entry": 5831399,
        "entry_name": "SK23",
        "event_total": 49,
        "has_played": true,
        "id": 45770501,
        "last_rank": 3721,
        "player_name": "Sohail Kumar",
        "rank": 5788,
        "rank_sort": 5847,
        "total": 2411
      },
      {
        "club_badge_src": "https://fantasy.premierleague.com/gcs/plfpl-production-adobe-approved/plfpl-production/5909014/d97e552e-8921-4e2a-b343-4682e2132b49.png",
        "entry": 5909014,
        "entry_name": "Bad to the Not Bowen",
        "event_total": 69,
        "has_played": true,
        "id": 46433299,
        "last_rank": 9142,
        "player_name": "Lance Amato",
        "rank": 5788,
        "rank_sort": 5848,
        "total": 2411
      },
      {
        "club_badge_src": "https://fantasy.premierleague.com/gcs/plfpl-production-adobe-approved/plfpl-production/5959085/7317cc2f-065f-4903-a43b-0c7d8eff066b.png",
        "entry": 5959085,
        "entry_name": "MO FC",
        "event_total": 61,
        "has_played": true,
        "id": 46879542,
        "last_rank": 6409,
        "player_name": "Tlhabologang Kenalemang",
        "rank": 5788,
        "rank_sort": 5849,
        "total": 2411
      },
      {
        "club_badge_src": null,
        "entry": 6006182,
        "entry_name": "Fc LTBC+",
        "event_total": 51,
        "has_played": true,
        "id": 47352909,
        "last_rank": 4062,
        "player_name": "Rasmus Rostad",
        "rank": 5788,
        "rank_sort": 5850,
        "total": 2411
      }
    ]
  }
}