{
  "last_updated_data": "2026-05-24T23:28:17Z",
  "league": {
    "admin_entry": null,
    "closed": false,
    "code_privacy": "p",
    "created": "2025-07-20T23:14:33.933835Z",
    "cup_league": 2815434,
    "has_cup": true,
    "id": 314,
    "league_type": "s",
    "max_entries": null,
    "name": "Overall",
    "rank": null,
    "scoring": "c",
    "start_event": 1
  },
  "new_entries": {
    "has_next": false,
    "page": 1,
    "results": []
  },
  "standings": {
    "has_next": true,
    "page": 270,
    "results": [
      {
        "club_badge_src": null,
        "entry": 6731193,
        "entry_name": "Mac's Men",
        "event_total": 52,
        "has_played": true,
        "id": 53876906,
        "last_rank": 8854,
        "player_name": "Ryan MacKenzie",
        "rank": 13385,
        "rank_sort": 13451,
        "total": 2391
      },
      {
        "club_badge_src": null,
        "entry": 7062148,
        "entry_name": "SHAK United FC",
        "event_total": 52,
        "has_played": true,
        "id": 56815999,
        "last_rank": 10556,
        "player_name": "Haider Ali Kazmi",
        "rank": 13385,
        "rank_sort": 13452,
        "total": 2391
      },
      {
        "club_badge_src": null,
        "entry": 7134647,
        "entry_name": "Worst 11",
        "event_total": 53,
        "has_played": true,
        "id": 57505452,
        "last_rank": 7625,
        "player_name": "arun balasubramanian",
        "rank": 13385,
        "rank_sort": 13453,
        "total": 2391
      },
      {
        "club_badge_src": null,
        "entry": 7188846,
        "entry_name": "Set Piece FC",
        "event_total": 49,
        "has_played": true,
        "id": 58029266,
        "last_rank": 9311,
        "player_name": "Beau Prendergast",
        "rank": 13385,
        "rank_sort": 13454,
        "total": 2391
      },
      {
        "club_badge_src": null,
        "entry": 8067408,
        "entry_name": "Taken for Granite",
        "event_total": 45,
        "has_played": true,
        "id": 66497442,
        "last_rank": 7822,
        "player_name": "Richard Keogh",
        "rank": 13385,
        "rank_sort": 13455,
        "total": 2391
      },
      {
        "club_badge_src": null,
        "entry": 8247652,
        "entry_name": "Peaky Reijnders",
        "event_total": 64,
        "has_played": true,
        "id": 68201681,
        "last_rank": 14370,
        "player_name": "Marko \u0160alamun",
        "rank": 13385,
        "rank_sort": 13456,
        "total": 2391
      },
      {
        "club_badge_src": null,
        "entry": 8585854,
        "entry_name": "Fc luse",
        "event_total": 66,
        "has_played": true,
        "id": 71461739,
        "last_rank": 18377,
        "player_name": "Luukas Kosunen",
        "rank": 13385,
        "rank_sort": 13457,
        "total": 2391
      },
      {
        "club_badge_src": null,
        "entry": 8913733,
        "entry_name": "Gyok Tuah",
        "event_total": 90,
        "has_played": true,
        "id": 74642529,
        "last_rank": 41617,
        "player_name": "Temi Ademakinwa",
        "rank": 13385,
        "rank_sort": 13458,
        "total": 2391
      },
      {
        "club_badge_src": "https://fantasy.premierleague.com/gcs/plfpl-production-adobe-approved/plfpl-production/28356/3a064847-7a2a-4c59-94f8-3f67de791a0f.png",
        "entry": 28356,
        "entry_name": "Borrusia Teeth",
        "event_total": 65,
        "has_played": true,
        "id": 179302,
        "last_rank": 15063,
        "player_name": "Paul Smith",
        "rank": 13459,
        "rank_sort": 13459,
        "total": 2391
      },
      {
        "club_badge_src": null,
        "entry": 48632,
        "entry_name": "CR",
        "event_total": 71,
        "has_played": true,
        "id": 312396,
        "last_rank": 21949,
        "player_name": "C R",
        "rank": 13459,
        "rank_sort": 13460,
        "total": 2391
      },
      {
        "club_badge_src": null,
        "entry": 70916,
        "entry_name": "Edziory",
        "event_total": 78,
        "has_played": true,
        "id": 460542,
        "last_rank": 28150,
        "player_name": "Lukasz Zawistowski",
        "rank": 13459,
        "rank_sort": 13461,
        "total": 2391
      },
      {
        "club_badge_src": null,
        "entry": 87098,
        "entry_name": "tO ThE maN iN SpACe",
        "event_total": 57,
        "has_played": true,
        "id": 567871,
        "last_rank": 10992,
        "player_name": "Dejan Neskovic",
        "rank": 13459,
        "rank_sort": 13462,
        "total": 2391
      },
      {
        "club_badge_src": "https://fantasy.premierleague.com/gcs/plfpl-production-adobe-approved/plfpl-production/100861/dbc9f71e-f8b8-4e0b-8e04-cd1002ce0c2e.png",
        "entry": 100861,
        "entry_name": "Pony on Liverpool",
        "event_total": 51,
        "has_played": true,
        "id": 658198,
        "last_rank": 10173,
        "player_name": "Craig Bonham",
        "rank": 13459,
        "rank_sort": 13463,
        "total": 2391
      },
      {
        "club_badge_src": null,
        "entry": 107690,
        "entry_name": "Inter on fire",
        "event_total": 55,
        "has_played": true,
        "id": 702074,
        "last_rank": 10031,
        "player_name": "Krzysztof Ptak",
        "rank": 13459,
        "rank_sort": 13464,
        "total": 2391
      },
      {
        "club_badge_src": "https://fantasy.premierleague.com/gcs/plfpl-production-adobe-approved/plfpl-production/146944/344d4e28-d8ad-4a26-8bca-baef520264f0.png",
        "entry": 146944,
        "entry_name": "Milan army",
        "event_total": 54,
        "has_played": true,
        "id": 962777,
        "last_rank": 8138,
        "player_name": "mohamed milan",
        "rank": 13459,
        "rank_sort": 13465,
        "total": 2391
      },
      {
        "club_badge_src": null,
        "entry": 187900,
        "entry_name": "MAJD",
        "event_total": 68,
        "has_played": true,
        "id": 1242735,
        "last_rank": 14496,
        "player_name": "Majd Khalaf",
        "rank": 13459,
        "rank_sort": 13466,
        "total": 2391
      },
      {
        "club_badge_src": null,
        "entry": 211097,
        "entry_name": "Riaz FC",
        "event_total": 63,
        "has_played": true,
        "id": 1404037,
        "last_rank": 14040,
        "player_name": "Riaz Kermally",
        "rank": 13459,
        "rank_sort": 13467,
        "total": 2391
      },
      {
        "club_badge_src": null,
        "entry": 354801,
        "entry_name": "The Goat's Whiskers",
        "event_total": 64,
        "has_played": true,
        "id": 2374464,
        "last_rank": 17078,
        "player_name": "David Webb",
        "rank": 13459,
        "rank_sort": 13468,
        "total": 2391
      },
      {
        "club_badge_src": null,
        "entry": 369917,
        "entry_name": "FC Batsbak",
        "event_total": 61,
        "has_played": true,
        "id": 2475324,
        "last_rank": 15226,
        "player_name": "Brent Lemmens",
        "rank": 13459,
        "rank_sort": 13469,
        "total": 2391
      },
      {
        "club_badge_src": null,
        "entry": 376453,
        "entry_name": "Joe",
        "event_total": 78,
        "has_played": true,
        "id": 2521209,
        "last_rank": 24475,
        "player_name": "youssef Ashraf",
        "rank": 13459,
        "rank_sort": 13470,
        "total": 2391
      },
      {
        "club_badge_src": null,
        "entry": 384353,
        "entry_name": "Bairros FC",
        "event_total": 57,
        "has_played": true,
        "id": 2577815,
        "last_rank": 12995,
        "player_name": "Jo\u00e3o Aguiar",
        "rank": 13459,
        "rank_sort": 13471,
        "total": 2391
      },
      {
        "club_badge_src": null,
        "entry": 466118,
        "entry_name": "Let the Games McGinn",
        "event_total": 61,
        "has_played": true,
        "id": 3127283,
        "last_rank": 12846,
        "player_name": "Josh Moxon",
        "rank": 13459,
        "rank_sort": 13472,
        "total": 2391
      },
      {
        "club_badge_src": null,
        "entry": 697640,
        "entry_name": "MT United",
        "event_total": 70,
        "has_played": true,
        "id": 4725665,
        "last_rank": 18270,
        "player_name": "Merita T\u00f8mmervik",
        "rank": 13459,
        "rank_sort": 13473,
        "total": 2391
      },
      {
        "club_badge_src": null,
        "entry": 737595,
        "entry_name": "WALE WALE",
        "event_total": 58,
        "has_played": true,
        "id": 5014480,
        "last_rank": 13558,
        "player_name": "Paul Maliachi",
        "rank": 13459,
        "rank_sort": 13474,
        "total": 2391
      },
      {
        "club_badge_src": null,
        "entry": 986598,
        "entry_name": "VigoKroes",
        "event_total": 60,
        "has_played": true,
        "id": 6802536,
        "last_rank": 14604,
        "player_name": "Vigo Kroes",
        "rank": 13459,
        "rank_sort": 13475,
        "total": 2391
      },
      {
        "club_badge_src": null,
        "entry": 1027933,
        "entry_name": "Yoro Wissa Harry",
        "event_total": 48,
        "has_played": true,
        "id": 7112009,
        "last_rank": 8977,
        "player_name": "Sander Tverborgvik",
        "rank": 13459,
        "rank_sort": 13476,
        "total": 2391
      },
      {
        "club_badge_src": "https://fantasy.premierleague.com/gcs/plfpl-production-adobe-approved/plfpl-production/1153238/4fd16d42-36f2-41d6-8d3c-f6ee35f37c8d.png",
        "entry": 1153238,
        "entry_name": "One - Neill",
        "event_total": 61,
        "has_played": true,
        "id": 7996645,
        "last_rank": 15226,
        "player_name": "Neill Kehoe",
        "rank": 13459,
        "rank_sort": 13477,
        "total": 2391
      },
      {
        "club_badge_src": null,
        "entry": 1265073,
        "entry_name": "FK Peru\u0107ac",
        "event_total": 72,
        "has_played": true,
        "id": 8789797,
        "last_rank": 22830,
        "player_name": "Nikola Novakovic",
        "rank": 13459,
        "rank_sort": 13478,
        "total": 2391
      },
      {
        "club_badge_src": null,
        "entry": 1405053,
        "entry_name": "Wirtz The Matter?",
        "event_total": 66,
        "has_played": true,
        "id": 9776290,
        "last_rank": 18377,
        "player_name": "Cory Ward",
        "rank": 13459,
        "rank_sort": 13479,
        "total": 2391
      },
      {
        "club_badge_src": null,
        "entry": 1408732,
        "entry_name": "Pain in Diaz",
        "event_total": 65,
        "has_played": true,
        "id": 9802283,
        "last_rank": 17802,
        "player_name": "kevin van dartel",
        "rank": 13459,
        "rank_sort": 13480,
        "total": 2391
      },
      {
        "club_badge_src": null,
        "entry": 1489912,
        "entry_name": "WorldCup Winners CFC",
        "event_total": 57,
        "has_played": true,
        "id": 10389908,
        "last_rank": 12995,
        "player_name": "Ian Parslow",
        "rank": 13459,
        "rank_sort": 13481,
        "total": 2391
      },
      {
        "club_badge_src": null,
        "entry": 1525640,
        "entry_name": "You're A Wissa,Harry",
        "event_total": 65,
        "has_played": true,
        "id": 10640935,
        "last_rank": 15164,
        "player_name": "Calum French",
        "rank": 13459,
        "rank_sort": 13482,
        "total": 2391
      },
      {
        "club_badge_src": null,
        "entry": 1660075,
        "entry_name": "\u2764\ufe0fFCB\u2764\ufe0f\u0627\u0644\u062c\u0645\u0639\u064a\u0629\u2764\ufe0f",
        "event_total": 55,
        "has_played": true,
        "id": 11622515,
        "last_rank": 11957,
        "player_name": "Mnassri Ramzi",
        "rank": 13459,
        "rank_sort": 13483,
        "total": 2391
      },
      {
        "club_badge_src": null,
        "entry": 1698403,
        "entry_name": "man blue \ufffd",
        "event_total": 58,
        "has_played": true,
        "id": 11896072,
        "last_rank": 13558,
        "player_name": "Citizens Fc",
        "rank": 13459,
        "rank_sort": 13484,
        "total": 2391
      },
      {
        "club_badge_src": null,
        "entry": 1852340,
        "entry_name": "Soviet Union",
        "event_total": 60,
        "has_played": true,
        "id": 13034620,
        "last_rank": 14496,
        "player_name": "T\u00e2n Ph\u1ea1m",
        "rank": 13459,
        "rank_sort": 13485,
        "total": 2391
      },
      {
        "club_badge_src": null,
        "entry": 2000282,
        "entry_name": "Koeniko FC",
        "event_total": 67,
        "has_played": true,
        "id": 14140557,
        "last_rank": 16441,
        "player_name": "Olivier Koenig",
        "rank": 13459,
        "rank_sort": 13486,
        "total": 2391
      },
      {
        "club_badge_src": null,
        "entry": 2458947,
        "entry_name": "CHANGE NAME",
        "event_total": 68,
        "has_played": true,
        "id": 17588386,
        "last_rank": 19835,
        "player_name": "Michael Monan",
        "rank": 13459,
        "rank_sort": 13487,
        "total": 2391
      },
      {
        "club_badge_src": null,
        "entry": 2498001,
        "entry_name": "Espalha Brasas",
        "event_total": 53,
        "has_played": true,
        "id": 17885060,
        "last_rank": 7761,
        "player_name": "Diogo Teixeira",
        "rank": 13459,
        "rank_sort": 13488,
        "total": 2391
      },
      {
        "club_badge_src": null,
        "entry": 2670958,
        "entry_name": "Goal Diggers",
        "event_total": 54,
        "has_played": true,
        "id": 19203504,
        "last_rank": 11482,
        "player_name": "Hilmi Alam",
        "rank": 13459,
        "rank_sort": 13489,
        "total": 2391
      },
      {
        "club_badge_src": "https://fantasy.premierleague.com/gcs/plfpl-production-adobe-approved/plfpl-production/3458406/2d202269-c82d-484b-a481-8df0e1c21235.png",
        "entry": 3458406,
        "entry_name": "Mind Over Mata",
        "event_total": 66,
        "has_played": true,
        "id": 25705678,
        "last_rank": 18270,
        "player_name": "Isaac Herbert",
        "rank": 13459,
        "rank_sort": 13490,
        "total": 2391
      },
      {
        "club_badge_src": null,
        "entry": 3559368,
        "entry_name": "Saka la Vista, Baby",
        "event_total": 75,
        "has_played": true,
        "id": 26501060,
        "last_rank": 25002,
        "player_name": "Filip Horvat",
        "rank": 13459,
        "rank_sort": 13491,
        "total": 2391
      },
      {
        "club_badge_src": null,
        "entry": 3739440,
        "entry_name": "chachacha",
        "event_total": 68,
        "has_played": true,
        "id": 27913874,
        "last_rank": 16959,
        "player_name": "Tom Bishop",
        "rank": 13459,
        "rank_sort": 13492,
        "total": 2391
      },
      {
        "club_badge_src": null,
        "entry": 3878931,
        "entry_name": "Richie\u2019s Raiders",
        "event_total": 52,
        "has_played": true,
        "id": 29144925,
        "last_rank": 10600,
        "player_name": "Richard Sutcliffe",
        "rank": 13459,
        "rank_sort": 13493,
        "total": 2391
      },
      {
        "club_badge_src": null,
        "entry": 4042116,
        "entry_name": "Gy\u00f6ker in the pack",
        "event_total": 52,
        "has_played": true,
        "id": 30484383,
        "last_rank": 10600,
        "player_name": "Alex Bunker",
        "rank": 13459,
        "rank_sort": 13494,
        "total": 2391
      },
      {
        "club_badge_src": null,
        "entry": 4656132,
        "entry_name": "Lunkens grabbar",
        "event_total": 48,
        "has_played": true,
        "id": 35636221,
        "last_rank": 8977,
        "player_name": "Jesper Ekelund",
        "rank": 13459,
        "rank_sort": 13495,
        "total": 2391
      },
      {
        "club_badge_src": null,
        "entry": 5267654,
        "entry_name": "FREDZ",
        "event_total": 65,
        "has_played": true,
        "id": 40827633,
        "last_rank": 15164,
        "player_name": "Freddie Ellis",
        "rank": 13459,
        "rank_sort": 13496,
        "total": 2391
      },
      {
        "club_badge_src": null,
        "entry": 5271400,
        "entry_name": "Slammy Ameobi FC",
        "event_total": 41,
        "has_played": true,
        "id": 40856631,
        "last_rank": 6614,
        "player_name": "Jacob Board",
        "rank": 13459,
        "rank_sort": 13497,
        "total": 2391
      },
      {
        "club_badge_src": null,
        "entry": 5594479,
        "entry_name": "FC TeikirEze",
        "event_total": 67,
        "has_played": true,
        "id": 43708956,
        "last_rank": 18790,
        "player_name": "Jos\u00e9 Miguel Caldeira",
        "rank": 13459,
        "rank_sort": 13498,
        "total": 2391
      },
      {
        "club_badge_src": null,
        "entry": 6949696,
        "entry_name": "KB9",
        "event_total": 64,
        "has_played": true,
        "id": 55725287,
        "last_rank": 17194,
        "player_name": "LasT KB9",
        "rank": 13459,
        "rank_sort": 13499,
        "total": 2391
      },
      {
        "club_badge_src": null,
        "entry": 7097915,
        "entry_name": "Weh8codheadsUTI",
        "event_total": 51,
        "has_played": true,
        "id": 57155747,
        "last_rank": 10151,
        "player_name": "Daniel Davies",
        "rank": 13459,
        "rank_sort": 13500,
        "total": 2391
      }
    ]
  }
}