{
  "last_updated_data": "2026-05-24T23:28:17Z",
  "league": {
    "admin_entry": null,
    "closed": false,
    "code_privacy": "p",
    "created": "2025-07-20T23:14:33.933835Z",
    "cup_league": 2815434,
    "has_cup": true,
    "id": 314,
    "league_type": "s",
    "max_entries": null,
    "name": "Overall",
    "rank": null,
    "scoring": "c",
    "start_event": 1
  },
  "new_entries": {
    "has_next": false,
    "page": 1,
    "results": []
  },
  "standings": {
    "has_next": true,
    "page": 1430,
    "results": [
      {
        "club_badge_src": null,
        "entry": 4819968,
        "entry_name": "Change Name",
        "event_total": 49,
        "has_played": true,
        "id": 37116689,
        "last_rank": 57743,
        "player_name": "Shiv Karnani",
        "rank": 71438,
        "rank_sort": 71451,
        "total": 2339
      },
      {
        "club_badge_src": null,
        "entry": 5196990,
        "entry_name": "Dip your Tosin",
        "event_total": 35,
        "has_played": true,
        "id": 40239118,
        "last_rank": 37344,
        "player_name": "Chester Hawkins",
        "rank": 71438,
        "rank_sort": 71452,
        "total": 2339
      },
      {
        "club_badge_src": null,
        "entry": 5293095,
        "entry_name": "Balloffire",
        "event_total": 40,
        "has_played": true,
        "id": 41028576,
        "last_rank": 43757,
        "player_name": "Dennis Roomes",
        "rank": 71438,
        "rank_sort": 71453,
        "total": 2339
      },
      {
        "club_badge_src": null,
        "entry": 5359992,
        "entry_name": "MooneyMooneyMooneyyy",
        "event_total": 56,
        "has_played": true,
        "id": 41627656,
        "last_rank": 70651,
        "player_name": "Tristian Mooney",
        "rank": 71438,
        "rank_sort": 71454,
        "total": 2339
      },
      {
        "club_badge_src": null,
        "entry": 5567455,
        "entry_name": "Daddy Chill",
        "event_total": 60,
        "has_played": true,
        "id": 43471530,
        "last_rank": 78964,
        "player_name": "Corey Blake",
        "rank": 71438,
        "rank_sort": 71455,
        "total": 2339
      },
      {
        "club_badge_src": null,
        "entry": 6537370,
        "entry_name": "Eriksen FC",
        "event_total": 49,
        "has_played": true,
        "id": 52154360,
        "last_rank": 57776,
        "player_name": "Alexander Eriksen",
        "rank": 71438,
        "rank_sort": 71456,
        "total": 2339
      },
      {
        "club_badge_src": null,
        "entry": 7135698,
        "entry_name": "LA TRICOLOR",
        "event_total": 44,
        "has_played": true,
        "id": 57515381,
        "last_rank": 49572,
        "player_name": "Felix Schriefl",
        "rank": 71438,
        "rank_sort": 71457,
        "total": 2339
      },
      {
        "club_badge_src": null,
        "entry": 7488985,
        "entry_name": "AJ",
        "event_total": 61,
        "has_played": true,
        "id": 61139960,
        "last_rank": 81244,
        "player_name": "Ahmed Janahi",
        "rank": 71438,
        "rank_sort": 71458,
        "total": 2339
      },
      {
        "club_badge_src": null,
        "entry": 7531684,
        "entry_name": "Mask Snorkel Cam",
        "event_total": 48,
        "has_played": true,
        "id": 61644034,
        "last_rank": 56069,
        "player_name": "Cam Rudd",
        "rank": 71438,
        "rank_sort": 71459,
        "total": 2339
      },
      {
        "club_badge_src": null,
        "entry": 7760307,
        "entry_name": "Blanking Bad",
        "event_total": 51,
        "has_played": true,
        "id": 63716280,
        "last_rank": 61258,
        "player_name": "David Martinek",
        "rank": 71438,
        "rank_sort": 71460,
        "total": 2339
      },
      {
        "club_badge_src": null,
        "entry": 8047586,
        "entry_name": "Change Name",
        "event_total": 61,
        "has_played": true,
        "id": 66315477,
        "last_rank": 72638,
        "player_name": "Siddharth Mohapatra",
        "rank": 71438,
        "rank_sort": 71461,
        "total": 2339
      },
      {
        "club_badge_src": "https://fantasy.premierleague.com/gcs/plfpl-production-adobe-approved/plfpl-production/8247968/f65447b3-2bc8-40f3-a374-ba18e47bfd14.png",
        "entry": 8247968,
        "entry_name": "Hayni'sBagOfBallers",
        "event_total": 54,
        "has_played": true,
        "id": 68204872,
        "last_rank": 66658,
        "player_name": "Hayyaan Mussa",
        "rank": 71438,
        "rank_sort": 71462,
        "total": 2339
      },
      {
        "club_badge_src": null,
        "entry": 8252719,
        "entry_name": "Team name",
        "event_total": 59,
        "has_played": true,
        "id": 68249920,
        "last_rank": 76947,
        "player_name": "Martin Enges\u00e6t",
        "rank": 71438,
        "rank_sort": 71463,
        "total": 2339
      },
      {
        "club_badge_src": null,
        "entry": 8326620,
        "entry_name": "Jock the Glock",
        "event_total": 54,
        "has_played": true,
        "id": 68982382,
        "last_rank": 66658,
        "player_name": "Alistair Cummings",
        "rank": 71438,
        "rank_sort": 71464,
        "total": 2339
      },
      {
        "club_badge_src": null,
        "entry": 8333103,
        "entry_name": "Washed FC",
        "event_total": 60,
        "has_played": true,
        "id": 69044217,
        "last_rank": 79027,
        "player_name": "Faiz Mamnun",
        "rank": 71438,
        "rank_sort": 71465,
        "total": 2339
      },
      {
        "club_badge_src": null,
        "entry": 8799555,
        "entry_name": "ka\u0107a",
        "event_total": 55,
        "has_played": true,
        "id": 73540729,
        "last_rank": 68585,
        "player_name": "Katarina Arapovi\u0107",
        "rank": 71438,
        "rank_sort": 71466,
        "total": 2339
      },
      {
        "club_badge_src": null,
        "entry": 9343823,
        "entry_name": "PhilGalacticos",
        "event_total": 67,
        "has_played": true,
        "id": 78828883,
        "last_rank": 95464,
        "player_name": "Phil Galazka",
        "rank": 71438,
        "rank_sort": 71467,
        "total": 2339
      },
      {
        "club_badge_src": null,
        "entry": 21055,
        "entry_name": "Change Name",
        "event_total": 57,
        "has_played": true,
        "id": 131935,
        "last_rank": 72702,
        "player_name": "Ethan Vojinov",
        "rank": 71468,
        "rank_sort": 71468,
        "total": 2339
      },
      {
        "club_badge_src": null,
        "entry": 105763,
        "entry_name": "Sollentuna Sobbers",
        "event_total": 54,
        "has_played": true,
        "id": 689762,
        "last_rank": 66738,
        "player_name": "Josef Smedjeb\u00e4ck",
        "rank": 71468,
        "rank_sort": 71469,
        "total": 2339
      },
      {
        "club_badge_src": null,
        "entry": 119323,
        "entry_name": "Top Prospect Theory",
        "event_total": 64,
        "has_played": true,
        "id": 778563,
        "last_rank": 88249,
        "player_name": "Lal Chadeesingh",
        "rank": 71468,
        "rank_sort": 71470,
        "total": 2339
      },
      {
        "club_badge_src": "https://fantasy.premierleague.com/gcs/plfpl-production-adobe-approved/plfpl-production/253465/8a899306-263e-4d0a-bc47-c7d0966c40ee.png",
        "entry": 253465,
        "entry_name": "The Side of Damage",
        "event_total": 88,
        "has_played": true,
        "id": 1685900,
        "last_rank": 159449,
        "player_name": "G Dug",
        "rank": 71468,
        "rank_sort": 71471,
        "total": 2339
      },
      {
        "club_badge_src": null,
        "entry": 338584,
        "entry_name": "Bobby Dazzlers",
        "event_total": 40,
        "has_played": true,
        "id": 2266723,
        "last_rank": 43849,
        "player_name": "Robert Round",
        "rank": 71468,
        "rank_sort": 71472,
        "total": 2339
      },
      {
        "club_badge_src": null,
        "entry": 417050,
        "entry_name": "Tony Tony Chopper",
        "event_total": 36,
        "has_played": true,
        "id": 2795681,
        "last_rank": 38644,
        "player_name": "Samir Buza",
        "rank": 71468,
        "rank_sort": 71473,
        "total": 2339
      },
      {
        "club_badge_src": null,
        "entry": 578200,
        "entry_name": "Change Name",
        "event_total": 50,
        "has_played": true,
        "id": 3890550,
        "last_rank": 59632,
        "player_name": "Jonathan Raj",
        "rank": 71468,
        "rank_sort": 71474,
        "total": 2339
      },
      {
        "club_badge_src": null,
        "entry": 600121,
        "entry_name": "sanaldo",
        "event_total": 75,
        "has_played": true,
        "id": 4048773,
        "last_rank": 117112,
        "player_name": "Saad Rehman",
        "rank": 71468,
        "rank_sort": 71475,
        "total": 2339
      },
      {
        "club_badge_src": null,
        "entry": 985289,
        "entry_name": "DeanItInTheHuijsen",
        "event_total": 78,
        "has_played": true,
        "id": 6793314,
        "last_rank": 126088,
        "player_name": "Louis Green",
        "rank": 71468,
        "rank_sort": 71476,
        "total": 2339
      },
      {
        "club_badge_src": null,
        "entry": 1023764,
        "entry_name": "Calafiornication",
        "event_total": 82,
        "has_played": true,
        "id": 7082994,
        "last_rank": 139016,
        "player_name": "Max Martin",
        "rank": 71468,
        "rank_sort": 71477,
        "total": 2339
      },
      {
        "club_badge_src": null,
        "entry": 1217326,
        "entry_name": "Hakuna Mateta",
        "event_total": 82,
        "has_played": true,
        "id": 8449842,
        "last_rank": 139016,
        "player_name": "David Kirby",
        "rank": 71468,
        "rank_sort": 71478,
        "total": 2339
      },
      {
        "club_badge_src": null,
        "entry": 1637314,
        "entry_name": "Surreal Madrid",
        "event_total": 53,
        "has_played": true,
        "id": 11460522,
        "last_rank": 64943,
        "player_name": "Owen Peet",
        "rank": 71468,
        "rank_sort": 71479,
        "total": 2339
      },
      {
        "club_badge_src": "https://fantasy.premierleague.com/gcs/plfpl-production-adobe-approved/plfpl-production/1675008/42e4d13c-a6af-4c26-b6d6-7e5e642b5d55.png",
        "entry": 1675008,
        "entry_name": "M4r1 FC",
        "event_total": 65,
        "has_played": true,
        "id": 11726847,
        "last_rank": 90625,
        "player_name": "Zulfadli Hadi",
        "rank": 71468,
        "rank_sort": 71480,
        "total": 2339
      },
      {
        "club_badge_src": null,
        "entry": 2629672,
        "entry_name": "Macers Acers",
        "event_total": 57,
        "has_played": true,
        "id": 18897908,
        "last_rank": 72662,
        "player_name": "Pauline Macer",
        "rank": 71468,
        "rank_sort": 71481,
        "total": 2339
      },
      {
        "club_badge_src": null,
        "entry": 2814630,
        "entry_name": "Haskell FC",
        "event_total": 61,
        "has_played": true,
        "id": 20558150,
        "last_rank": 81420,
        "player_name": "James Crabbe",
        "rank": 71468,
        "rank_sort": 71482,
        "total": 2339
      },
      {
        "club_badge_src": null,
        "entry": 3210447,
        "entry_name": "strobelights",
        "event_total": 61,
        "has_played": true,
        "id": 23735622,
        "last_rank": 81244,
        "player_name": "Aidan Stoj",
        "rank": 71468,
        "rank_sort": 71483,
        "total": 2339
      },
      {
        "club_badge_src": "https://fantasy.premierleague.com/gcs/plfpl-production-adobe-approved/plfpl-production/3211332/d6169b4b-126c-404d-bfd8-dbaebfb43e5c.png",
        "entry": 3211332,
        "entry_name": "Angaar",
        "event_total": 49,
        "has_played": true,
        "id": 23742356,
        "last_rank": 57857,
        "player_name": "Omer Salman",
        "rank": 71468,
        "rank_sort": 71484,
        "total": 2339
      },
      {
        "club_badge_src": "https://fantasy.premierleague.com/gcs/plfpl-production-adobe-approved/plfpl-production/4001522/26d2b62f-04f1-4be2-867d-a90b2735000f.png",
        "entry": 4001522,
        "entry_name": "ohhhh amorimmmm ya",
        "event_total": 58,
        "has_played": true,
        "id": 30139567,
        "last_rank": 74898,
        "player_name": "Tom Brennan",
        "rank": 71468,
        "rank_sort": 71485,
        "total": 2339
      },
      {
        "club_badge_src": null,
        "entry": 4382072,
        "entry_name": "FC Premium",
        "event_total": 73,
        "has_played": true,
        "id": 33303181,
        "last_rank": 111405,
        "player_name": "Martin Rahkema",
        "rank": 71468,
        "rank_sort": 71486,
        "total": 2339
      },
      {
        "club_badge_src": null,
        "entry": 4389377,
        "entry_name": "Amphippo FC",
        "event_total": 75,
        "has_played": true,
        "id": 33366622,
        "last_rank": 116890,
        "player_name": "Philip Houghton",
        "rank": 71468,
        "rank_sort": 71487,
        "total": 2339
      },
      {
        "club_badge_src": null,
        "entry": 4390711,
        "entry_name": "PolarNation FC",
        "event_total": 50,
        "has_played": true,
        "id": 33377841,
        "last_rank": 59535,
        "player_name": "Neoza Polar",
        "rank": 71468,
        "rank_sort": 71488,
        "total": 2339
      },
      {
        "club_badge_src": null,
        "entry": 4660096,
        "entry_name": "50 Shades of Rice",
        "event_total": 84,
        "has_played": true,
        "id": 35680929,
        "last_rank": 145455,
        "player_name": "Rune Bach",
        "rank": 71468,
        "rank_sort": 71489,
        "total": 2339
      },
      {
        "club_badge_src": "https://fantasy.premierleague.com/gcs/plfpl-production-adobe-approved/plfpl-production/4668564/149b421f-817f-43e2-8239-9336a98eb488.png",
        "entry": 4668564,
        "entry_name": "Chef Curry",
        "event_total": 38,
        "has_played": true,
        "id": 35759720,
        "last_rank": 41162,
        "player_name": "Mito S30",
        "rank": 71468,
        "rank_sort": 71490,
        "total": 2339
      },
      {
        "club_badge_src": null,
        "entry": 4684575,
        "entry_name": "VAR Wars",
        "event_total": 46,
        "has_played": true,
        "id": 35899174,
        "last_rank": 52759,
        "player_name": "Jiten Gami",
        "rank": 71468,
        "rank_sort": 71491,
        "total": 2339
      },
      {
        "club_badge_src": null,
        "entry": 4687124,
        "entry_name": "Allez Jacky!",
        "event_total": 45,
        "has_played": true,
        "id": 35921130,
        "last_rank": 51220,
        "player_name": "Jacob Iversen",
        "rank": 71468,
        "rank_sort": 71492,
        "total": 2339
      },
      {
        "club_badge_src": null,
        "entry": 4836162,
        "entry_name": "Pep Guardthecola",
        "event_total": 63,
        "has_played": true,
        "id": 37251664,
        "last_rank": 86054,
        "player_name": "George Javadi",
        "rank": 71468,
        "rank_sort": 71493,
        "total": 2339
      },
      {
        "club_badge_src": null,
        "entry": 5509107,
        "entry_name": "Ska me Shaw",
        "event_total": 49,
        "has_played": true,
        "id": 42939197,
        "last_rank": 57857,
        "player_name": "Andreas Bj\u00f8rsvik",
        "rank": 71468,
        "rank_sort": 71494,
        "total": 2339
      },
      {
        "club_badge_src": null,
        "entry": 5523979,
        "entry_name": "N\u00f8jeren godt hold",
        "event_total": 64,
        "has_played": true,
        "id": 43077274,
        "last_rank": 88154,
        "player_name": "Frederik Bermann",
        "rank": 71468,
        "rank_sort": 71495,
        "total": 2339
      },
      {
        "club_badge_src": null,
        "entry": 5537682,
        "entry_name": "What the Skelly",
        "event_total": 58,
        "has_played": true,
        "id": 43207228,
        "last_rank": 74898,
        "player_name": "Archie Copeland",
        "rank": 71468,
        "rank_sort": 71496,
        "total": 2339
      },
      {
        "club_badge_src": null,
        "entry": 5723073,
        "entry_name": "Eddyhandsome",
        "event_total": 55,
        "has_played": true,
        "id": 44829481,
        "last_rank": 68748,
        "player_name": "KITTIPONG MANMUAN",
        "rank": 71468,
        "rank_sort": 71497,
        "total": 2339
      },
      {
        "club_badge_src": null,
        "entry": 5806902,
        "entry_name": "Radahn",
        "event_total": 53,
        "has_played": true,
        "id": 45560044,
        "last_rank": 64943,
        "player_name": "Khaled Elkhouja",
        "rank": 71468,
        "rank_sort": 71498,
        "total": 2339
      },
      {
        "club_badge_src": null,
        "entry": 5897137,
        "entry_name": "HollyMolly",
        "event_total": 56,
        "has_played": true,
        "id": 46329448,
        "last_rank": 70757,
        "player_name": "Muhammad Rifqi",
        "rank": 71468,
        "rank_sort": 71499,
        "total": 2339
      },
      {
        "club_badge_src": null,
        "entry": 6352342,
        "entry_name": "Sultan's XI",
        "event_total": 66,
        "has_played": true,
        "id": 50500169,
        "last_rank": 93186,
        "player_name": "Scott Bruni",
        "rank": 71468,
        "rank_sort": 71500,
        "total": 2339
      }
    ]
  }
}