{
  "last_updated_data": "2026-05-24T23:28:17Z",
  "league": {
    "admin_entry": null,
    "closed": false,
    "code_privacy": "p",
    "created": "2025-07-20T23:14:33.933835Z",
    "cup_league": 2815434,
    "has_cup": true,
    "id": 314,
    "league_type": "s",
    "max_entries": null,
    "name": "Overall",
    "rank": null,
    "scoring": "c",
    "start_event": 1
  },
  "new_entries": {
    "has_next": false,
    "page": 1,
    "results": []
  },
  "standings": {
    "has_next": true,
    "page": 1590,
    "results": [
      {
        "club_badge_src": null,
        "entry": 1244535,
        "entry_name": "Under My Cucurella",
        "event_total": 53,
        "has_played": true,
        "id": 8643283,
        "last_rank": 57557,
        "player_name": "Josh Crowther",
        "rank": 79439,
        "rank_sort": 79451,
        "total": 2336
      },
      {
        "club_badge_src": null,
        "entry": 1432053,
        "entry_name": "\u0627\u0644\u0631\u062c\u0627\u0644\u0647 \u0648\u0627\u062d\u0645\u062f \u062c\u0644\u0647\u0648\u0645",
        "event_total": 81,
        "has_played": true,
        "id": 9978673,
        "last_rank": 110573,
        "player_name": "Mahmoud Elsayed",
        "rank": 79439,
        "rank_sort": 79452,
        "total": 2336
      },
      {
        "club_badge_src": null,
        "entry": 1496321,
        "entry_name": "Elshaarawy team",
        "event_total": 49,
        "has_played": true,
        "id": 10434808,
        "last_rank": 57596,
        "player_name": "Ahmed Elshaarawy",
        "rank": 79439,
        "rank_sort": 79453,
        "total": 2336
      },
      {
        "club_badge_src": null,
        "entry": 2605045,
        "entry_name": "Fothers Wednesday FC",
        "event_total": 72,
        "has_played": true,
        "id": 18712369,
        "last_rank": 108172,
        "player_name": "Carl Fothergill",
        "rank": 79439,
        "rank_sort": 79454,
        "total": 2336
      },
      {
        "club_badge_src": "https://fantasy.premierleague.com/gcs/plfpl-production-adobe-approved/plfpl-production/2660344/d73d49b3-ec15-4554-a2fa-a7cf3bce23c7.png",
        "entry": 2660344,
        "entry_name": "paulmadscot",
        "event_total": 59,
        "has_played": true,
        "id": 19123661,
        "last_rank": 85707,
        "player_name": "Paul McConnachie",
        "rank": 79439,
        "rank_sort": 79455,
        "total": 2336
      },
      {
        "club_badge_src": "https://fantasy.premierleague.com/gcs/plfpl-production-adobe-approved/plfpl-production/2722345/8a694cee-4fec-450a-9af0-5ec04a32eeb2.png",
        "entry": 2722345,
        "entry_name": "Watto's hopeful 11",
        "event_total": 65,
        "has_played": true,
        "id": 19589352,
        "last_rank": 90229,
        "player_name": "Steve Watson",
        "rank": 79439,
        "rank_sort": 79456,
        "total": 2336
      },
      {
        "club_badge_src": null,
        "entry": 3160386,
        "entry_name": "Magpie Rangers",
        "event_total": 35,
        "has_played": true,
        "id": 23346183,
        "last_rank": 42314,
        "player_name": "Craig Pringle",
        "rank": 79439,
        "rank_sort": 79457,
        "total": 2336
      },
      {
        "club_badge_src": null,
        "entry": 3906859,
        "entry_name": "FE002CF",
        "event_total": 77,
        "has_played": true,
        "id": 29371936,
        "last_rank": 135085,
        "player_name": "Felix Otieno",
        "rank": 79439,
        "rank_sort": 79458,
        "total": 2336
      },
      {
        "club_badge_src": null,
        "entry": 4132871,
        "entry_name": "Bounce Game Bebetos",
        "event_total": 56,
        "has_played": true,
        "id": 31231847,
        "last_rank": 62874,
        "player_name": "Martin McGuinness",
        "rank": 79439,
        "rank_sort": 79459,
        "total": 2336
      },
      {
        "club_badge_src": null,
        "entry": 4647627,
        "entry_name": "Special One",
        "event_total": 54,
        "has_played": true,
        "id": 35554285,
        "last_rank": 66447,
        "player_name": "Eyad Ahmed",
        "rank": 79439,
        "rank_sort": 79460,
        "total": 2336
      },
      {
        "club_badge_src": "https://fantasy.premierleague.com/gcs/plfpl-production-adobe-approved/plfpl-production/4718261/a72a2c89-082c-4040-83ef-26e8e55aaf05.png",
        "entry": 4718261,
        "entry_name": "\u0641\u0644\u064a\u0643\u064a \u0641\u0644\u0627\u0643\u0627",
        "event_total": 60,
        "has_played": true,
        "id": 36236076,
        "last_rank": 87976,
        "player_name": "Mostafa Kandel",
        "rank": 79439,
        "rank_sort": 79461,
        "total": 2336
      },
      {
        "club_badge_src": null,
        "entry": 4916754,
        "entry_name": "Club Bruise",
        "event_total": 60,
        "has_played": true,
        "id": 37921958,
        "last_rank": 87976,
        "player_name": "Hugh Rodger",
        "rank": 79439,
        "rank_sort": 79462,
        "total": 2336
      },
      {
        "club_badge_src": null,
        "entry": 5198137,
        "entry_name": "Kinder Mbeumo",
        "event_total": 78,
        "has_played": true,
        "id": 40250789,
        "last_rank": 102622,
        "player_name": "Darren Pini",
        "rank": 79439,
        "rank_sort": 79463,
        "total": 2336
      },
      {
        "club_badge_src": null,
        "entry": 5416722,
        "entry_name": "Khaled_utd",
        "event_total": 58,
        "has_played": true,
        "id": 42126126,
        "last_rank": 66447,
        "player_name": "khaled mahrous",
        "rank": 79439,
        "rank_sort": 79464,
        "total": 2336
      },
      {
        "club_badge_src": null,
        "entry": 5534788,
        "entry_name": "Scotty Screamers",
        "event_total": 45,
        "has_played": true,
        "id": 43181912,
        "last_rank": 57596,
        "player_name": "Dave Scott",
        "rank": 79439,
        "rank_sort": 79465,
        "total": 2336
      },
      {
        "club_badge_src": null,
        "entry": 5590187,
        "entry_name": "Frimping pong",
        "event_total": 58,
        "has_played": true,
        "id": 43671599,
        "last_rank": 74524,
        "player_name": "P\u00e9ter Magyar",
        "rank": 79439,
        "rank_sort": 79466,
        "total": 2336
      },
      {
        "club_badge_src": null,
        "entry": 5606858,
        "entry_name": "BluezCHELS",
        "event_total": 59,
        "has_played": true,
        "id": 43815683,
        "last_rank": 85672,
        "player_name": "Amer Wathifi",
        "rank": 79439,
        "rank_sort": 79467,
        "total": 2336
      },
      {
        "club_badge_src": null,
        "entry": 6295710,
        "entry_name": "CescInTheCity",
        "event_total": 37,
        "has_played": true,
        "id": 49895828,
        "last_rank": 45050,
        "player_name": "Kurt Avergonzado",
        "rank": 79439,
        "rank_sort": 79468,
        "total": 2336
      },
      {
        "club_badge_src": null,
        "entry": 6316068,
        "entry_name": "Omar Coming",
        "event_total": 41,
        "has_played": true,
        "id": 50125627,
        "last_rank": 45007,
        "player_name": "Obas Baba",
        "rank": 79439,
        "rank_sort": 79469,
        "total": 2336
      },
      {
        "club_badge_src": null,
        "entry": 6413296,
        "entry_name": "WirtzTeamInTheLeague",
        "event_total": 44,
        "has_played": true,
        "id": 51038113,
        "last_rank": 55932,
        "player_name": "Martin McLeod",
        "rank": 79439,
        "rank_sort": 79470,
        "total": 2336
      },
      {
        "club_badge_src": "https://fantasy.premierleague.com/gcs/plfpl-production-adobe-approved/plfpl-production/7435901/22b81bb4-32d8-420e-a346-37c9018ba453.png",
        "entry": 7435901,
        "entry_name": "Glass cutter",
        "event_total": 63,
        "has_played": true,
        "id": 60448340,
        "last_rank": 95213,
        "player_name": "Mash muriuki",
        "rank": 79439,
        "rank_sort": 79471,
        "total": 2336
      },
      {
        "club_badge_src": null,
        "entry": 7555539,
        "entry_name": "Freelance Scientists",
        "event_total": 47,
        "has_played": true,
        "id": 61862172,
        "last_rank": 54218,
        "player_name": "Steve Wild",
        "rank": 79439,
        "rank_sort": 79472,
        "total": 2336
      },
      {
        "club_badge_src": null,
        "entry": 7641358,
        "entry_name": "Furry Fiend",
        "event_total": 79,
        "has_played": true,
        "id": 62637949,
        "last_rank": 141808,
        "player_name": "Peter Roche",
        "rank": 79439,
        "rank_sort": 79473,
        "total": 2336
      },
      {
        "club_badge_src": null,
        "entry": 8871191,
        "entry_name": "OM",
        "event_total": 57,
        "has_played": true,
        "id": 74230213,
        "last_rank": 81073,
        "player_name": "Alexis Sauteur",
        "rank": 79439,
        "rank_sort": 79474,
        "total": 2336
      },
      {
        "club_badge_src": "https://fantasy.premierleague.com/gcs/plfpl-production-adobe-approved/plfpl-production/9408935/e6dd7423-e228-4444-b5a3-5e3459d44faa.png",
        "entry": 9408935,
        "entry_name": "Tia Toomnali",
        "event_total": 61,
        "has_played": true,
        "id": 79458616,
        "last_rank": 81010,
        "player_name": "Jade Wilson",
        "rank": 79439,
        "rank_sort": 79475,
        "total": 2336
      },
      {
        "club_badge_src": "https://fantasy.premierleague.com/gcs/plfpl-production-adobe-approved/plfpl-production/36259/7ae498f0-6cbb-4549-80dd-fb4a251ed420.png",
        "entry": 36259,
        "entry_name": "Ortshi",
        "event_total": 53,
        "has_played": true,
        "id": 232080,
        "last_rank": 64634,
        "player_name": "Mohamed Ortshi",
        "rank": 79476,
        "rank_sort": 79476,
        "total": 2336
      },
      {
        "club_badge_src": null,
        "entry": 191046,
        "entry_name": "A7mad al",
        "event_total": 43,
        "has_played": true,
        "id": 1265271,
        "last_rank": 54268,
        "player_name": "Ahmed Al",
        "rank": 79476,
        "rank_sort": 79477,
        "total": 2336
      },
      {
        "club_badge_src": null,
        "entry": 910752,
        "entry_name": "chientd",
        "event_total": 62,
        "has_played": true,
        "id": 6262121,
        "last_rank": 92820,
        "player_name": "Chien Tran",
        "rank": 79476,
        "rank_sort": 79478,
        "total": 2336
      },
      {
        "club_badge_src": null,
        "entry": 982353,
        "entry_name": "RangersFC",
        "event_total": 60,
        "has_played": true,
        "id": 6772632,
        "last_rank": 70414,
        "player_name": "Andrew Craig",
        "rank": 79476,
        "rank_sort": 79479,
        "total": 2336
      },
      {
        "club_badge_src": null,
        "entry": 1058079,
        "entry_name": "Gunners",
        "event_total": 61,
        "has_played": true,
        "id": 7322519,
        "last_rank": 57515,
        "player_name": "Daniel Pedro",
        "rank": 79476,
        "rank_sort": 79480,
        "total": 2336
      },
      {
        "club_badge_src": null,
        "entry": 1315139,
        "entry_name": "WhitneyBaby1MoreTime",
        "event_total": 58,
        "has_played": true,
        "id": 9140958,
        "last_rank": 83340,
        "player_name": "Niall Whitney",
        "rank": 79476,
        "rank_sort": 79481,
        "total": 2336
      },
      {
        "club_badge_src": null,
        "entry": 1729954,
        "entry_name": "OS",
        "event_total": 55,
        "has_played": true,
        "id": 12133526,
        "last_rank": 68437,
        "player_name": "OS AS",
        "rank": 79476,
        "rank_sort": 79482,
        "total": 2336
      },
      {
        "club_badge_src": null,
        "entry": 1813875,
        "entry_name": "Ayew Joking",
        "event_total": 56,
        "has_played": true,
        "id": 12754601,
        "last_rank": 62917,
        "player_name": "Ahmad Amjad",
        "rank": 79476,
        "rank_sort": 79483,
        "total": 2336
      },
      {
        "club_badge_src": null,
        "entry": 2072757,
        "entry_name": "\ufffd\u2764\ufe0fBaRCa\ufffd\u2764\ufe0f",
        "event_total": 46,
        "has_played": true,
        "id": 14695457,
        "last_rank": 59386,
        "player_name": "Wajdi Al Wazani",
        "rank": 79476,
        "rank_sort": 79484,
        "total": 2336
      },
      {
        "club_badge_src": "https://fantasy.premierleague.com/gcs/plfpl-production-adobe-approved/plfpl-production/2387368/179ef883-099c-4863-952e-5a1773261f9f.png",
        "entry": 2387368,
        "entry_name": "Ratcliffehanger",
        "event_total": 65,
        "has_played": true,
        "id": 17052059,
        "last_rank": 100329,
        "player_name": "Dan Woolley",
        "rank": 79476,
        "rank_sort": 79485,
        "total": 2336
      },
      {
        "club_badge_src": null,
        "entry": 3280760,
        "entry_name": "Darkshad\u26bd\ufe0fs",
        "event_total": 63,
        "has_played": true,
        "id": 24283284,
        "last_rank": 95281,
        "player_name": "Anirudh Puli",
        "rank": 79476,
        "rank_sort": 79486,
        "total": 2336
      },
      {
        "club_badge_src": null,
        "entry": 3327573,
        "entry_name": "YOUNES THE BOSS",
        "event_total": 56,
        "has_played": true,
        "id": 24670712,
        "last_rank": 62917,
        "player_name": "MOHAMED KHAMIS",
        "rank": 79476,
        "rank_sort": 79487,
        "total": 2336
      },
      {
        "club_badge_src": null,
        "entry": 3493095,
        "entry_name": "Lenny Yeoooro",
        "event_total": 70,
        "has_played": true,
        "id": 25981355,
        "last_rank": 113835,
        "player_name": "Barry mckillop",
        "rank": 79476,
        "rank_sort": 79488,
        "total": 2336
      },
      {
        "club_badge_src": null,
        "entry": 4036037,
        "entry_name": "Scuffed FC",
        "event_total": 77,
        "has_played": true,
        "id": 30432850,
        "last_rank": 110890,
        "player_name": "Selwyn Chin",
        "rank": 79476,
        "rank_sort": 79489,
        "total": 2336
      },
      {
        "club_badge_src": "https://fantasy.premierleague.com/gcs/plfpl-production-adobe-approved/plfpl-production/4058588/415b5f94-a640-4dc1-93ba-e9d761298d8b.png",
        "entry": 4058588,
        "entry_name": "EnglandisRedandWhite",
        "event_total": 50,
        "has_played": true,
        "id": 30625593,
        "last_rank": 59370,
        "player_name": "Ben Booth",
        "rank": 79476,
        "rank_sort": 79490,
        "total": 2336
      },
      {
        "club_badge_src": null,
        "entry": 4077860,
        "entry_name": "FATUSH AND FRIENDS",
        "event_total": 59,
        "has_played": true,
        "id": 30782568,
        "last_rank": 61045,
        "player_name": "Along Longchar",
        "rank": 79476,
        "rank_sort": 79491,
        "total": 2336
      },
      {
        "club_badge_src": null,
        "entry": 4318187,
        "entry_name": "Muustafa74",
        "event_total": 78,
        "has_played": true,
        "id": 32769690,
        "last_rank": 125556,
        "player_name": "Mohamed Mustafa",
        "rank": 79476,
        "rank_sort": 79492,
        "total": 2336
      },
      {
        "club_badge_src": null,
        "entry": 4677990,
        "entry_name": "Wirtz Nightmare",
        "event_total": 72,
        "has_played": true,
        "id": 35839907,
        "last_rank": 119620,
        "player_name": "Vishy Nagalingam",
        "rank": 79476,
        "rank_sort": 79493,
        "total": 2336
      },
      {
        "club_badge_src": null,
        "entry": 5037617,
        "entry_name": "Zog the Dragon",
        "event_total": 75,
        "has_played": true,
        "id": 38910977,
        "last_rank": 128691,
        "player_name": "John Diegano",
        "rank": 79476,
        "rank_sort": 79494,
        "total": 2336
      },
      {
        "club_badge_src": null,
        "entry": 5989973,
        "entry_name": "V60",
        "event_total": 68,
        "has_played": true,
        "id": 47195346,
        "last_rank": 78730,
        "player_name": "Bandr Alshahrani",
        "rank": 79476,
        "rank_sort": 79495,
        "total": 2336
      },
      {
        "club_badge_src": "https://fantasy.premierleague.com/gcs/plfpl-production-adobe-approved/plfpl-production/70704/afe133d4-93e8-4b10-93ad-a1af4d2c277e.png",
        "entry": 70704,
        "entry_name": "Escapist FC",
        "event_total": 50,
        "has_played": true,
        "id": 459151,
        "last_rank": 66559,
        "player_name": "Tom Bourne",
        "rank": 79496,
        "rank_sort": 79496,
        "total": 2336
      },
      {
        "club_badge_src": "https://fantasy.premierleague.com/gcs/plfpl-production-adobe-approved/plfpl-production/153511/978affa5-e66e-4689-9b0b-5300e77edc30.png",
        "entry": 153511,
        "entry_name": "Mercury",
        "event_total": 60,
        "has_played": true,
        "id": 1008118,
        "last_rank": 78852,
        "player_name": "Suman Maharjan",
        "rank": 79496,
        "rank_sort": 79497,
        "total": 2336
      },
      {
        "club_badge_src": null,
        "entry": 183566,
        "entry_name": "Y\u0131lanzinho",
        "event_total": 58,
        "has_played": true,
        "id": 1211857,
        "last_rank": 83364,
        "player_name": "yusuf emrah albayrak",
        "rank": 79496,
        "rank_sort": 79498,
        "total": 2336
      },
      {
        "club_badge_src": null,
        "entry": 202383,
        "entry_name": "khaled said",
        "event_total": 61,
        "has_played": true,
        "id": 1344013,
        "last_rank": 81073,
        "player_name": "khaled -- said",
        "rank": 79496,
        "rank_sort": 79499,
        "total": 2336
      },
      {
        "club_badge_src": null,
        "entry": 540344,
        "entry_name": "Show me the Mane!",
        "event_total": 53,
        "has_played": true,
        "id": 3636961,
        "last_rank": 64656,
        "player_name": "Shaun Darby",
        "rank": 79496,
        "rank_sort": 79500,
        "total": 2336
      }
    ]
  }
}