{
  "last_updated_data": "2026-05-24T23:28:17Z",
  "league": {
    "admin_entry": null,
    "closed": false,
    "code_privacy": "p",
    "created": "2025-07-20T23:14:33.933835Z",
    "cup_league": 2815434,
    "has_cup": true,
    "id": 314,
    "league_type": "s",
    "max_entries": null,
    "name": "Overall",
    "rank": null,
    "scoring": "c",
    "start_event": 1
  },
  "new_entries": {
    "has_next": false,
    "page": 1,
    "results": []
  },
  "standings": {
    "has_next": true,
    "page": 1152,
    "results": [
      {
        "club_badge_src": null,
        "entry": 8342317,
        "entry_name": "AI Agressive Team",
        "event_total": 64,
        "has_played": true,
        "id": 69130285,
        "last_rank": 70985,
        "player_name": "Fantasy Football Hub",
        "rank": 57227,
        "rank_sort": 57551,
        "total": 2347
      },
      {
        "club_badge_src": null,
        "entry": 8432630,
        "entry_name": "Harce team",
        "event_total": 59,
        "has_played": true,
        "id": 69990694,
        "last_rank": 61606,
        "player_name": "Harce Harce",
        "rank": 57227,
        "rank_sort": 57552,
        "total": 2347
      },
      {
        "club_badge_src": null,
        "entry": 8531750,
        "entry_name": "FPLWils",
        "event_total": 77,
        "has_played": true,
        "id": 70943783,
        "last_rank": 100700,
        "player_name": "Zak Wilson",
        "rank": 57227,
        "rank_sort": 57553,
        "total": 2347
      },
      {
        "club_badge_src": null,
        "entry": 8565022,
        "entry_name": "Fez United",
        "event_total": 58,
        "has_played": true,
        "id": 71263204,
        "last_rank": 59632,
        "player_name": "Fez Munene",
        "rank": 57227,
        "rank_sort": 57554,
        "total": 2347
      },
      {
        "club_badge_src": null,
        "entry": 8657375,
        "entry_name": "Unbelievable Jeff!",
        "event_total": 52,
        "has_played": true,
        "id": 72162383,
        "last_rank": 49880,
        "player_name": "Jeff McNeill",
        "rank": 57227,
        "rank_sort": 57555,
        "total": 2347
      },
      {
        "club_badge_src": null,
        "entry": 8677497,
        "entry_name": "The Special Ones",
        "event_total": 60,
        "has_played": true,
        "id": 72360137,
        "last_rank": 63390,
        "player_name": "Spiro Pappas",
        "rank": 57227,
        "rank_sort": 57556,
        "total": 2347
      },
      {
        "club_badge_src": null,
        "entry": 8712525,
        "entry_name": "Toda La Vidal",
        "event_total": 59,
        "has_played": true,
        "id": 72700393,
        "last_rank": 61411,
        "player_name": "Cory Chamberlain",
        "rank": 57227,
        "rank_sort": 57557,
        "total": 2347
      },
      {
        "club_badge_src": null,
        "entry": 8757681,
        "entry_name": "Yoro a Wissa, Harry",
        "event_total": 71,
        "has_played": true,
        "id": 73136121,
        "last_rank": 86054,
        "player_name": "Sam Jones",
        "rank": 57227,
        "rank_sort": 57558,
        "total": 2347
      },
      {
        "club_badge_src": null,
        "entry": 8816426,
        "entry_name": "Mountain",
        "event_total": 63,
        "has_played": true,
        "id": 73702199,
        "last_rank": 68624,
        "player_name": "Link Ji",
        "rank": 57227,
        "rank_sort": 57559,
        "total": 2347
      },
      {
        "club_badge_src": null,
        "entry": 8832285,
        "entry_name": "EAint No Mercy",
        "event_total": 65,
        "has_played": true,
        "id": 73855192,
        "last_rank": 72662,
        "player_name": "Eaint -",
        "rank": 57227,
        "rank_sort": 57560,
        "total": 2347
      },
      {
        "club_badge_src": null,
        "entry": 8937789,
        "entry_name": "kladiv\u00e1\u0159i",
        "event_total": 57,
        "has_played": true,
        "id": 74880241,
        "last_rank": 58071,
        "player_name": "David Drozd",
        "rank": 57227,
        "rank_sort": 57561,
        "total": 2347
      },
      {
        "club_badge_src": null,
        "entry": 9147436,
        "entry_name": "STORM FC",
        "event_total": 58,
        "has_played": true,
        "id": 76915441,
        "last_rank": 59632,
        "player_name": "Ties Goris",
        "rank": 57227,
        "rank_sort": 57562,
        "total": 2347
      },
      {
        "club_badge_src": null,
        "entry": 9196823,
        "entry_name": "funny fpl team name",
        "event_total": 54,
        "has_played": true,
        "id": 77402562,
        "last_rank": 46591,
        "player_name": "Joel Kelab",
        "rank": 57227,
        "rank_sort": 57563,
        "total": 2347
      },
      {
        "club_badge_src": null,
        "entry": 9328028,
        "entry_name": "PepRoulette",
        "event_total": 58,
        "has_played": true,
        "id": 78678070,
        "last_rank": 59632,
        "player_name": "Jayanth Ramani",
        "rank": 57227,
        "rank_sort": 57564,
        "total": 2347
      },
      {
        "club_badge_src": null,
        "entry": 10061371,
        "entry_name": "naT niraT",
        "event_total": 55,
        "has_played": true,
        "id": 85314727,
        "last_rank": 54416,
        "player_name": "niraT naT",
        "rank": 57227,
        "rank_sort": 57565,
        "total": 2347
      },
      {
        "club_badge_src": null,
        "entry": 3622,
        "entry_name": "FPL nerd",
        "event_total": 65,
        "has_played": true,
        "id": 20536,
        "last_rank": 73038,
        "player_name": "Nuj Lael",
        "rank": 57566,
        "rank_sort": 57566,
        "total": 2347
      },
      {
        "club_badge_src": null,
        "entry": 4102,
        "entry_name": "Torvastad Tigers",
        "event_total": 59,
        "has_played": true,
        "id": 23281,
        "last_rank": 61950,
        "player_name": "Svein Are Pedersen",
        "rank": 57566,
        "rank_sort": 57567,
        "total": 2347
      },
      {
        "club_badge_src": "https://fantasy.premierleague.com/gcs/plfpl-production-adobe-approved/plfpl-production/8937/4a68b9d5-bf57-4546-b96b-ee4568e30253.png",
        "entry": 8937,
        "entry_name": "Boom Xhaka Laca",
        "event_total": 54,
        "has_played": true,
        "id": 52226,
        "last_rank": 53345,
        "player_name": "Orhan Batuhan Akdeniz",
        "rank": 57566,
        "rank_sort": 57568,
        "total": 2347
      },
      {
        "club_badge_src": null,
        "entry": 11781,
        "entry_name": "Wises FC",
        "event_total": 67,
        "has_played": true,
        "id": 70183,
        "last_rank": 77258,
        "player_name": "Wises Na Nagara",
        "rank": 57566,
        "rank_sort": 57569,
        "total": 2347
      },
      {
        "club_badge_src": null,
        "entry": 12921,
        "entry_name": "Montes FC",
        "event_total": 67,
        "has_played": true,
        "id": 77786,
        "last_rank": 77676,
        "player_name": "Andreia Silva",
        "rank": 57566,
        "rank_sort": 57570,
        "total": 2347
      },
      {
        "club_badge_src": "https://fantasy.premierleague.com/gcs/plfpl-production-adobe-approved/plfpl-production/17169/c702cedf-f04b-4dfe-97f8-2553f4512033.png",
        "entry": 17169,
        "entry_name": "justice for mudryk",
        "event_total": 61,
        "has_played": true,
        "id": 106431,
        "last_rank": 65163,
        "player_name": "Lewis Gault",
        "rank": 57566,
        "rank_sort": 57571,
        "total": 2347
      },
      {
        "club_badge_src": null,
        "entry": 18139,
        "entry_name": "Raya Orton",
        "event_total": 60,
        "has_played": true,
        "id": 112759,
        "last_rank": 63390,
        "player_name": "Akira Rai",
        "rank": 57566,
        "rank_sort": 57572,
        "total": 2347
      },
      {
        "club_badge_src": "https://fantasy.premierleague.com/gcs/plfpl-production-adobe-approved/plfpl-production/21083/eca5944d-f4da-4d43-a0d9-ca896df277a3.png",
        "entry": 21083,
        "entry_name": "Knights FC",
        "event_total": 60,
        "has_played": true,
        "id": 132131,
        "last_rank": 63390,
        "player_name": "Kenny Au-Yeung",
        "rank": 57566,
        "rank_sort": 57573,
        "total": 2347
      },
      {
        "club_badge_src": null,
        "entry": 25078,
        "entry_name": "robel",
        "event_total": 60,
        "has_played": true,
        "id": 158543,
        "last_rank": 63201,
        "player_name": "Robel Stark",
        "rank": 57566,
        "rank_sort": 57574,
        "total": 2347
      },
      {
        "club_badge_src": null,
        "entry": 30629,
        "entry_name": "ShaunWrightPhillips",
        "event_total": 53,
        "has_played": true,
        "id": 193842,
        "last_rank": 39874,
        "player_name": "Nenad Petrovic",
        "rank": 57566,
        "rank_sort": 57575,
        "total": 2347
      },
      {
        "club_badge_src": null,
        "entry": 35154,
        "entry_name": "Ismail",
        "event_total": 59,
        "has_played": true,
        "id": 224864,
        "last_rank": 61606,
        "player_name": "Ismail Hmaida \ud83c\uddf5\ud83c\uddf8",
        "rank": 57566,
        "rank_sort": 57576,
        "total": 2347
      },
      {
        "club_badge_src": null,
        "entry": 35435,
        "entry_name": "Bray Wanderers",
        "event_total": 63,
        "has_played": true,
        "id": 226766,
        "last_rank": 69323,
        "player_name": "Jonny Bray",
        "rank": 57566,
        "rank_sort": 57577,
        "total": 2347
      },
      {
        "club_badge_src": null,
        "entry": 38869,
        "entry_name": "joes team",
        "event_total": 40,
        "has_played": true,
        "id": 249164,
        "last_rank": 34458,
        "player_name": "Joseph McLean",
        "rank": 57566,
        "rank_sort": 57578,
        "total": 2347
      },
      {
        "club_badge_src": null,
        "entry": 42843,
        "entry_name": "what's Rob Holding",
        "event_total": 73,
        "has_played": true,
        "id": 274423,
        "last_rank": 81646,
        "player_name": "Nathan Mann",
        "rank": 57566,
        "rank_sort": 57579,
        "total": 2347
      },
      {
        "club_badge_src": null,
        "entry": 47897,
        "entry_name": "TANJONG KARANG FC",
        "event_total": 66,
        "has_played": true,
        "id": 307411,
        "last_rank": 74787,
        "player_name": "NURUL IMAN",
        "rank": 57566,
        "rank_sort": 57580,
        "total": 2347
      },
      {
        "club_badge_src": "https://fantasy.premierleague.com/gcs/plfpl-production-adobe-approved/plfpl-production/54281/d1e380c6-0229-4537-a27e-7a581fe71ac2.png",
        "entry": 54281,
        "entry_name": "Lokomotiv Vinger",
        "event_total": 55,
        "has_played": true,
        "id": 349378,
        "last_rank": 55014,
        "player_name": "Audun Lien",
        "rank": 57566,
        "rank_sort": 57581,
        "total": 2347
      },
      {
        "club_badge_src": null,
        "entry": 60209,
        "entry_name": "Benteke-taka",
        "event_total": 60,
        "has_played": true,
        "id": 387671,
        "last_rank": 63390,
        "player_name": "Pan Lee",
        "rank": 57566,
        "rank_sort": 57582,
        "total": 2347
      },
      {
        "club_badge_src": null,
        "entry": 66255,
        "entry_name": "It'sMaguiresWorld",
        "event_total": 50,
        "has_played": true,
        "id": 428213,
        "last_rank": 46839,
        "player_name": "george goater",
        "rank": 57566,
        "rank_sort": 57583,
        "total": 2347
      },
      {
        "club_badge_src": null,
        "entry": 72740,
        "entry_name": "dylster850fc",
        "event_total": 82,
        "has_played": true,
        "id": 472744,
        "last_rank": 114095,
        "player_name": "Dylan Newton",
        "rank": 57566,
        "rank_sort": 57584,
        "total": 2347
      },
      {
        "club_badge_src": null,
        "entry": 73813,
        "entry_name": "YASSIR\u2019S ALL STARS",
        "event_total": 54,
        "has_played": true,
        "id": 479843,
        "last_rank": 46660,
        "player_name": "Yassir Salim",
        "rank": 57566,
        "rank_sort": 57585,
        "total": 2347
      },
      {
        "club_badge_src": null,
        "entry": 90223,
        "entry_name": "geag",
        "event_total": 61,
        "has_played": true,
        "id": 588997,
        "last_rank": 64943,
        "player_name": "Marius Rossholt",
        "rank": 57566,
        "rank_sort": 57586,
        "total": 2347
      },
      {
        "club_badge_src": null,
        "entry": 91543,
        "entry_name": "Baines on Toast",
        "event_total": 64,
        "has_played": true,
        "id": 597966,
        "last_rank": 71386,
        "player_name": "Dan Mears",
        "rank": 57566,
        "rank_sort": 57587,
        "total": 2347
      },
      {
        "club_badge_src": null,
        "entry": 111208,
        "entry_name": "Jota's Boys #20",
        "event_total": 58,
        "has_played": true,
        "id": 725170,
        "last_rank": 53023,
        "player_name": "Mathew Town",
        "rank": 57566,
        "rank_sort": 57588,
        "total": 2347
      },
      {
        "club_badge_src": null,
        "entry": 113592,
        "entry_name": "V\u00f4 T\u00ecnh",
        "event_total": 62,
        "has_played": true,
        "id": 740861,
        "last_rank": 66848,
        "player_name": "Tran Minh Thai",
        "rank": 57566,
        "rank_sort": 57589,
        "total": 2347
      },
      {
        "club_badge_src": null,
        "entry": 115503,
        "entry_name": "1FlewOverNkunkusNest",
        "event_total": 49,
        "has_played": true,
        "id": 753822,
        "last_rank": 45714,
        "player_name": "William Leatherby",
        "rank": 57566,
        "rank_sort": 57590,
        "total": 2347
      },
      {
        "club_badge_src": null,
        "entry": 124206,
        "entry_name": "SpencerFC",
        "event_total": 76,
        "has_played": true,
        "id": 810114,
        "last_rank": 98436,
        "player_name": "Keith Spencer",
        "rank": 57566,
        "rank_sort": 57591,
        "total": 2347
      },
      {
        "club_badge_src": null,
        "entry": 124404,
        "entry_name": "Robert Mugabe FC",
        "event_total": 59,
        "has_played": true,
        "id": 811432,
        "last_rank": 61950,
        "player_name": "Ois\u00edn O'Shea Kelly",
        "rank": 57566,
        "rank_sort": 57592,
        "total": 2347
      },
      {
        "club_badge_src": null,
        "entry": 129072,
        "entry_name": "World Champions",
        "event_total": 70,
        "has_played": true,
        "id": 841290,
        "last_rank": 74898,
        "player_name": "Mike Pullinger",
        "rank": 57566,
        "rank_sort": 57593,
        "total": 2347
      },
      {
        "club_badge_src": "https://fantasy.premierleague.com/gcs/plfpl-production-adobe-approved/plfpl-production/130146/7d8724e4-8859-4741-a1ef-80fe762fa88b.png",
        "entry": 130146,
        "entry_name": "Vikar for Fergie",
        "event_total": 60,
        "has_played": true,
        "id": 848087,
        "last_rank": 56180,
        "player_name": "Sebastian Gunnerud",
        "rank": 57566,
        "rank_sort": 57594,
        "total": 2347
      },
      {
        "club_badge_src": null,
        "entry": 135475,
        "entry_name": "White Rice",
        "event_total": 67,
        "has_played": true,
        "id": 882165,
        "last_rank": 77676,
        "player_name": "Mizanur Rahman",
        "rank": 57566,
        "rank_sort": 57595,
        "total": 2347
      },
      {
        "club_badge_src": null,
        "entry": 158805,
        "entry_name": "le Gyo-Gunner Gambit",
        "event_total": 45,
        "has_played": true,
        "id": 1045041,
        "last_rank": 40297,
        "player_name": "Bart Fock",
        "rank": 57566,
        "rank_sort": 57596,
        "total": 2347
      },
      {
        "club_badge_src": null,
        "entry": 160846,
        "entry_name": "MILLS FC",
        "event_total": 58,
        "has_played": true,
        "id": 1059372,
        "last_rank": 52853,
        "player_name": "Ryan Mills",
        "rank": 57566,
        "rank_sort": 57597,
        "total": 2347
      },
      {
        "club_badge_src": null,
        "entry": 166098,
        "entry_name": "@rp@n",
        "event_total": 67,
        "has_played": true,
        "id": 1097188,
        "last_rank": 77050,
        "player_name": "Arpan Nepal",
        "rank": 57566,
        "rank_sort": 57598,
        "total": 2347
      },
      {
        "club_badge_src": null,
        "entry": 170120,
        "entry_name": "Florentino Perez",
        "event_total": 59,
        "has_played": true,
        "id": 1124011,
        "last_rank": 61950,
        "player_name": "Akzhol Zhanabayev",
        "rank": 57566,
        "rank_sort": 57599,
        "total": 2347
      },
      {
        "club_badge_src": null,
        "entry": 176059,
        "entry_name": "Cucu's hairline",
        "event_total": 63,
        "has_played": true,
        "id": 1162255,
        "last_rank": 68748,
        "player_name": "Romain Armon",
        "rank": 57566,
        "rank_sort": 57600,
        "total": 2347
      }
    ]
  }
}