{
  "last_updated_data": "2026-05-24T23:28:17Z",
  "league": {
    "admin_entry": null,
    "closed": false,
    "code_privacy": "p",
    "created": "2025-07-20T23:14:33.933835Z",
    "cup_league": 2815434,
    "has_cup": true,
    "id": 314,
    "league_type": "s",
    "max_entries": null,
    "name": "Overall",
    "rank": null,
    "scoring": "c",
    "start_event": 1
  },
  "new_entries": {
    "has_next": false,
    "page": 1,
    "results": []
  },
  "standings": {
    "has_next": true,
    "page": 955,
    "results": [
      {
        "club_badge_src": null,
        "entry": 2066801,
        "entry_name": "Carrick\u2019s Cause",
        "event_total": 43,
        "has_played": true,
        "id": 14650263,
        "last_rank": 30503,
        "player_name": "Dylan Carroll",
        "rank": 47695,
        "rank_sort": 47701,
        "total": 2353
      },
      {
        "club_badge_src": null,
        "entry": 2318833,
        "entry_name": "Kinder Mbuemo",
        "event_total": 39,
        "has_played": true,
        "id": 16541770,
        "last_rank": 26631,
        "player_name": "Ed Thornton",
        "rank": 47695,
        "rank_sort": 47702,
        "total": 2353
      },
      {
        "club_badge_src": "https://fantasy.premierleague.com/gcs/plfpl-production-adobe-approved/plfpl-production/2489350/75171958-c5bc-4b2a-a5b4-76d996076958.png",
        "entry": 2489350,
        "entry_name": "Barberini",
        "event_total": 42,
        "has_played": true,
        "id": 17820881,
        "last_rank": 29495,
        "player_name": "Alex Stetsenko",
        "rank": 47695,
        "rank_sort": 47703,
        "total": 2353
      },
      {
        "club_badge_src": null,
        "entry": 2560354,
        "entry_name": "Rathsach Rovers",
        "event_total": 61,
        "has_played": true,
        "id": 18362335,
        "last_rank": 54380,
        "player_name": "Mikkel Rathsach",
        "rank": 47695,
        "rank_sort": 47704,
        "total": 2353
      },
      {
        "club_badge_src": null,
        "entry": 3501104,
        "entry_name": "Hakuna Mbeumo",
        "event_total": 60,
        "has_played": true,
        "id": 26044077,
        "last_rank": 52738,
        "player_name": "Janni Kalafatis",
        "rank": 47695,
        "rank_sort": 47705,
        "total": 2353
      },
      {
        "club_badge_src": null,
        "entry": 5408492,
        "entry_name": "Farke's dream team",
        "event_total": 56,
        "has_played": true,
        "id": 42056872,
        "last_rank": 46526,
        "player_name": "Mike Leaver",
        "rank": 47695,
        "rank_sort": 47706,
        "total": 2353
      },
      {
        "club_badge_src": "https://fantasy.premierleague.com/gcs/plfpl-production-adobe-approved/plfpl-production/6059999/93454463-7552-449d-ab1c-5835281f97dd.png",
        "entry": 6059999,
        "entry_name": "Shawawa FC",
        "event_total": 65,
        "has_played": true,
        "id": 47826116,
        "last_rank": 61239,
        "player_name": "Hussein Sharara",
        "rank": 47695,
        "rank_sort": 47707,
        "total": 2353
      },
      {
        "club_badge_src": null,
        "entry": 6681298,
        "entry_name": "bolckbruise",
        "event_total": 84,
        "has_played": true,
        "id": 53443777,
        "last_rank": 103054,
        "player_name": "Chris Frape",
        "rank": 47695,
        "rank_sort": 47708,
        "total": 2353
      },
      {
        "club_badge_src": null,
        "entry": 8020993,
        "entry_name": "Samiro",
        "event_total": 39,
        "has_played": true,
        "id": 66074118,
        "last_rank": 26631,
        "player_name": "Samir Awad",
        "rank": 47695,
        "rank_sort": 47709,
        "total": 2353
      },
      {
        "club_badge_src": null,
        "entry": 8545993,
        "entry_name": "All Things AI",
        "event_total": 38,
        "has_played": true,
        "id": 71079718,
        "last_rank": 25709,
        "player_name": "GSK AI",
        "rank": 47695,
        "rank_sort": 47710,
        "total": 2353
      },
      {
        "club_badge_src": null,
        "entry": 36296,
        "entry_name": "Kawerkee",
        "event_total": 46,
        "has_played": true,
        "id": 232313,
        "last_rank": 33869,
        "player_name": "Karim Naim",
        "rank": 47711,
        "rank_sort": 47711,
        "total": 2353
      },
      {
        "club_badge_src": null,
        "entry": 158306,
        "entry_name": "Bunch of Geebags",
        "event_total": 39,
        "has_played": true,
        "id": 1041711,
        "last_rank": 26656,
        "player_name": "Kieron Redmond",
        "rank": 47711,
        "rank_sort": 47712,
        "total": 2353
      },
      {
        "club_badge_src": null,
        "entry": 413381,
        "entry_name": "One Game A Week FC",
        "event_total": 74,
        "has_played": true,
        "id": 2771420,
        "last_rank": 78971,
        "player_name": "Stefan Nwandu-Vincent",
        "rank": 47711,
        "rank_sort": 47713,
        "total": 2353
      },
      {
        "club_badge_src": null,
        "entry": 652047,
        "entry_name": "Gap Celtic",
        "event_total": 58,
        "has_played": true,
        "id": 4406567,
        "last_rank": 49552,
        "player_name": "Ian Devlin",
        "rank": 47711,
        "rank_sort": 47714,
        "total": 2353
      },
      {
        "club_badge_src": null,
        "entry": 833979,
        "entry_name": "The Sudkurve",
        "event_total": 52,
        "has_played": true,
        "id": 5712629,
        "last_rank": 41073,
        "player_name": "Sebastian Ferrer",
        "rank": 47711,
        "rank_sort": 47715,
        "total": 2353
      },
      {
        "club_badge_src": null,
        "entry": 1237030,
        "entry_name": "BlueRed",
        "event_total": 65,
        "has_played": true,
        "id": 8590104,
        "last_rank": 61258,
        "player_name": "Anastasios Mauroudis",
        "rank": 47711,
        "rank_sort": 47716,
        "total": 2353
      },
      {
        "club_badge_src": null,
        "entry": 1543183,
        "entry_name": "So good It Wirtz",
        "event_total": 57,
        "has_played": true,
        "id": 10771298,
        "last_rank": 48052,
        "player_name": "Robert McCluskey",
        "rank": 47711,
        "rank_sort": 47717,
        "total": 2353
      },
      {
        "club_badge_src": null,
        "entry": 2403560,
        "entry_name": "Bayer Levenshulme",
        "event_total": 49,
        "has_played": true,
        "id": 17179543,
        "last_rank": 37376,
        "player_name": "David Sheffield",
        "rank": 47711,
        "rank_sort": 47718,
        "total": 2353
      },
      {
        "club_badge_src": null,
        "entry": 2982769,
        "entry_name": "Yoro Wizard Harry",
        "event_total": 65,
        "has_played": true,
        "id": 21931077,
        "last_rank": 61227,
        "player_name": "Mark Williams",
        "rank": 47711,
        "rank_sort": 47719,
        "total": 2353
      },
      {
        "club_badge_src": null,
        "entry": 3175049,
        "entry_name": "saka attack",
        "event_total": 69,
        "has_played": true,
        "id": 23460218,
        "last_rank": 68624,
        "player_name": "Michaela Homewood",
        "rank": 47711,
        "rank_sort": 47720,
        "total": 2353
      },
      {
        "club_badge_src": null,
        "entry": 3722828,
        "entry_name": "haCunha Mateta",
        "event_total": 68,
        "has_played": true,
        "id": 27783350,
        "last_rank": 66658,
        "player_name": "Muhammed Mundol",
        "rank": 47711,
        "rank_sort": 47721,
        "total": 2353
      },
      {
        "club_badge_src": null,
        "entry": 3872315,
        "entry_name": "Amad It Again",
        "event_total": 91,
        "has_played": true,
        "id": 29062610,
        "last_rank": 122988,
        "player_name": "Rameez Mussa",
        "rank": 47711,
        "rank_sort": 47722,
        "total": 2353
      },
      {
        "club_badge_src": null,
        "entry": 3874010,
        "entry_name": "I'll do Udogie",
        "event_total": 47,
        "has_played": true,
        "id": 29087359,
        "last_rank": 34915,
        "player_name": "Rupert Broadhead",
        "rank": 47711,
        "rank_sort": 47723,
        "total": 2353
      },
      {
        "club_badge_src": null,
        "entry": 4186006,
        "entry_name": "Change Name",
        "event_total": 50,
        "has_played": true,
        "id": 31672694,
        "last_rank": 38528,
        "player_name": "Brian O leary",
        "rank": 47711,
        "rank_sort": 47724,
        "total": 2353
      },
      {
        "club_badge_src": null,
        "entry": 4664173,
        "entry_name": "Summerville of '69",
        "event_total": 72,
        "has_played": true,
        "id": 35723413,
        "last_rank": 74787,
        "player_name": "Max Morris-Edwards",
        "rank": 47711,
        "rank_sort": 47725,
        "total": 2353
      },
      {
        "club_badge_src": null,
        "entry": 4672379,
        "entry_name": "BrunoPlsClapMyCheeks",
        "event_total": 64,
        "has_played": true,
        "id": 35791210,
        "last_rank": 59535,
        "player_name": "Oliver Caddy",
        "rank": 47711,
        "rank_sort": 47726,
        "total": 2353
      },
      {
        "club_badge_src": null,
        "entry": 6318501,
        "entry_name": "Team Rayted",
        "event_total": 46,
        "has_played": true,
        "id": 50155665,
        "last_rank": 33869,
        "player_name": "Rayted Official",
        "rank": 47711,
        "rank_sort": 47727,
        "total": 2353
      },
      {
        "club_badge_src": null,
        "entry": 11223,
        "entry_name": "Aesthetics XI",
        "event_total": 66,
        "has_played": true,
        "id": 66645,
        "last_rank": 63117,
        "player_name": "Jaideep Wasu",
        "rank": 47728,
        "rank_sort": 47728,
        "total": 2353
      },
      {
        "club_badge_src": "https://fantasy.premierleague.com/gcs/plfpl-production-adobe-approved/plfpl-production/256461/529e2e14-c355-4bc1-a849-749a44e11632.png",
        "entry": 256461,
        "entry_name": "Le F\u00e9e fi fo fum",
        "event_total": 73,
        "has_played": true,
        "id": 1705688,
        "last_rank": 76947,
        "player_name": "Lewis Bryce",
        "rank": 47728,
        "rank_sort": 47729,
        "total": 2353
      },
      {
        "club_badge_src": null,
        "entry": 339758,
        "entry_name": "any old irons \u2692\ufe0f",
        "event_total": 46,
        "has_played": true,
        "id": 2274387,
        "last_rank": 33869,
        "player_name": "Mark Bulbrook",
        "rank": 47728,
        "rank_sort": 47730,
        "total": 2353
      },
      {
        "club_badge_src": null,
        "entry": 502592,
        "entry_name": "Finest Selection XI",
        "event_total": 58,
        "has_played": true,
        "id": 3373485,
        "last_rank": 49572,
        "player_name": "Daryl Owusu",
        "rank": 47728,
        "rank_sort": 47731,
        "total": 2353
      },
      {
        "club_badge_src": null,
        "entry": 525277,
        "entry_name": "AFC Maplewood",
        "event_total": 51,
        "has_played": true,
        "id": 3530125,
        "last_rank": 39816,
        "player_name": "Paul Wilkinson",
        "rank": 47728,
        "rank_sort": 47732,
        "total": 2353
      },
      {
        "club_badge_src": "https://fantasy.premierleague.com/gcs/plfpl-production-adobe-approved/plfpl-production/634768/e3c007b3-41aa-4718-ba2e-a6302963c477.png",
        "entry": 634768,
        "entry_name": "Palmer Violets",
        "event_total": 28,
        "has_played": true,
        "id": 4289926,
        "last_rank": 17970,
        "player_name": "Callum Oulds",
        "rank": 47728,
        "rank_sort": 47733,
        "total": 2353
      },
      {
        "club_badge_src": null,
        "entry": 638133,
        "entry_name": "Crackington Stanley",
        "event_total": 58,
        "has_played": true,
        "id": 4312834,
        "last_rank": 49552,
        "player_name": "Andrew Stone",
        "rank": 47728,
        "rank_sort": 47734,
        "total": 2353
      },
      {
        "club_badge_src": null,
        "entry": 678747,
        "entry_name": "Sakasoft",
        "event_total": 67,
        "has_played": true,
        "id": 4592784,
        "last_rank": 57723,
        "player_name": "paul obrien",
        "rank": 47728,
        "rank_sort": 47735,
        "total": 2353
      },
      {
        "club_badge_src": null,
        "entry": 759524,
        "entry_name": "Boo Boo Rovers",
        "event_total": 36,
        "has_played": true,
        "id": 5175972,
        "last_rank": 24039,
        "player_name": "Liz Green",
        "rank": 47728,
        "rank_sort": 47736,
        "total": 2353
      },
      {
        "club_badge_src": null,
        "entry": 787715,
        "entry_name": "Wirtz Case Scenario",
        "event_total": 66,
        "has_played": true,
        "id": 5385827,
        "last_rank": 63201,
        "player_name": "Nuhur Mohammad",
        "rank": 47728,
        "rank_sort": 47737,
        "total": 2353
      },
      {
        "club_badge_src": null,
        "entry": 909420,
        "entry_name": "FC United",
        "event_total": 60,
        "has_played": true,
        "id": 6251937,
        "last_rank": 52759,
        "player_name": "Jonathan Kinson",
        "rank": 47728,
        "rank_sort": 47738,
        "total": 2353
      },
      {
        "club_badge_src": null,
        "entry": 979072,
        "entry_name": "Balls of Steele",
        "event_total": 62,
        "has_played": true,
        "id": 6749666,
        "last_rank": 56180,
        "player_name": "Joshua Halliday",
        "rank": 47728,
        "rank_sort": 47739,
        "total": 2353
      },
      {
        "club_badge_src": null,
        "entry": 1144432,
        "entry_name": "Sauceless Dons",
        "event_total": 68,
        "has_played": true,
        "id": 7932921,
        "last_rank": 66848,
        "player_name": "John Bissett",
        "rank": 47728,
        "rank_sort": 47740,
        "total": 2353
      },
      {
        "club_badge_src": null,
        "entry": 1509362,
        "entry_name": "Paqueta crisps",
        "event_total": 32,
        "has_played": true,
        "id": 10526789,
        "last_rank": 20888,
        "player_name": "Frankie Mckenna",
        "rank": 47728,
        "rank_sort": 47741,
        "total": 2353
      },
      {
        "club_badge_src": null,
        "entry": 1532868,
        "entry_name": "McGinniesta",
        "event_total": 56,
        "has_played": true,
        "id": 10697029,
        "last_rank": 46660,
        "player_name": "Laurence Campanile",
        "rank": 47728,
        "rank_sort": 47742,
        "total": 2353
      },
      {
        "club_badge_src": null,
        "entry": 1704886,
        "entry_name": "Brian Fog",
        "event_total": 61,
        "has_played": true,
        "id": 11943359,
        "last_rank": 54416,
        "player_name": "Habib Khan",
        "rank": 47728,
        "rank_sort": 47743,
        "total": 2353
      },
      {
        "club_badge_src": "https://fantasy.premierleague.com/gcs/plfpl-production-adobe-approved/plfpl-production/1872691/b9ebb775-3942-45be-9fef-9e98a3311c32.png",
        "entry": 1872691,
        "entry_name": "tycoon united",
        "event_total": 49,
        "has_played": true,
        "id": 13184124,
        "last_rank": 37435,
        "player_name": "isaac Elijah",
        "rank": 47728,
        "rank_sort": 47744,
        "total": 2353
      },
      {
        "club_badge_src": "https://fantasy.premierleague.com/gcs/plfpl-production-adobe-approved/plfpl-production/1874607/5f059bce-b485-40bb-8c9d-663f6ee00c95.png",
        "entry": 1874607,
        "entry_name": "Mohamm Koodush",
        "event_total": 47,
        "has_played": true,
        "id": 13198151,
        "last_rank": 34937,
        "player_name": "Kristian Slaby",
        "rank": 47728,
        "rank_sort": 47745,
        "total": 2353
      },
      {
        "club_badge_src": null,
        "entry": 2495536,
        "entry_name": "Oogwayne FC",
        "event_total": 51,
        "has_played": true,
        "id": 17866669,
        "last_rank": 39874,
        "player_name": "Wayne Chen",
        "rank": 47728,
        "rank_sort": 47746,
        "total": 2353
      },
      {
        "club_badge_src": "https://fantasy.premierleague.com/gcs/plfpl-production-adobe-approved/plfpl-production/2833747/a11da72e-e7f6-48a6-8e4b-81cf6c2706a2.png",
        "entry": 2833747,
        "entry_name": "Younaaited",
        "event_total": 80,
        "has_played": true,
        "id": 20707524,
        "last_rank": 92958,
        "player_name": "Avril Gardiner",
        "rank": 47728,
        "rank_sort": 47747,
        "total": 2353
      },
      {
        "club_badge_src": null,
        "entry": 3907754,
        "entry_name": "Hemmo's Hackers",
        "event_total": 58,
        "has_played": true,
        "id": 29379198,
        "last_rank": 49572,
        "player_name": "Jacqueline Hemmings",
        "rank": 47728,
        "rank_sort": 47748,
        "total": 2353
      },
      {
        "club_badge_src": null,
        "entry": 4083855,
        "entry_name": "Alisson Wonderland",
        "event_total": 40,
        "has_played": true,
        "id": 30830853,
        "last_rank": 27585,
        "player_name": "Prasha Xing",
        "rank": 47728,
        "rank_sort": 47749,
        "total": 2353
      },
      {
        "club_badge_src": null,
        "entry": 4185764,
        "entry_name": "Sesko's Finest",
        "event_total": 56,
        "has_played": true,
        "id": 31670764,
        "last_rank": 46660,
        "player_name": "Alex Russell",
        "rank": 47728,
        "rank_sort": 47750,
        "total": 2353
      }
    ]
  }
}