{
  "last_updated_data": "2026-05-24T23:28:17Z",
  "league": {
    "admin_entry": null,
    "closed": false,
    "code_privacy": "p",
    "created": "2025-07-20T23:14:33.933835Z",
    "cup_league": 2815434,
    "has_cup": true,
    "id": 314,
    "league_type": "s",
    "max_entries": null,
    "name": "Overall",
    "rank": null,
    "scoring": "c",
    "start_event": 1
  },
  "new_entries": {
    "has_next": false,
    "page": 1,
    "results": []
  },
  "standings": {
    "has_next": true,
    "page": 789,
    "results": [
      {
        "club_badge_src": null,
        "entry": 22087,
        "entry_name": "JBetter",
        "event_total": 56,
        "has_played": true,
        "id": 138651,
        "last_rank": 38267,
        "player_name": "Jan Bajorek",
        "rank": 39399,
        "rank_sort": 39401,
        "total": 2360
      },
      {
        "club_badge_src": null,
        "entry": 52123,
        "entry_name": "Thezone fc",
        "event_total": 72,
        "has_played": true,
        "id": 335209,
        "last_rank": 55514,
        "player_name": "Hjalmar Thorgerzon",
        "rank": 39399,
        "rank_sort": 39402,
        "total": 2360
      },
      {
        "club_badge_src": "https://fantasy.premierleague.com/gcs/plfpl-production-adobe-approved/plfpl-production/57006/fadb7024-b3c8-4f40-98e9-6dd95086b717.png",
        "entry": 57006,
        "entry_name": "BABA YAGA",
        "event_total": 67,
        "has_played": true,
        "id": 367191,
        "last_rank": 53952,
        "player_name": "MAZIN HEMIDA",
        "rank": 39399,
        "rank_sort": 39403,
        "total": 2360
      },
      {
        "club_badge_src": "https://fantasy.premierleague.com/gcs/plfpl-production-adobe-approved/plfpl-production/60437/e51b231e-3555-4529-a448-ffe96aa0a2a2.png",
        "entry": 60437,
        "entry_name": "LibanoMilan",
        "event_total": 67,
        "has_played": true,
        "id": 389125,
        "last_rank": 47417,
        "player_name": "Rami Keserwany",
        "rank": 39399,
        "rank_sort": 39404,
        "total": 2360
      },
      {
        "club_badge_src": "https://fantasy.premierleague.com/gcs/plfpl-production-adobe-approved/plfpl-production/65336/c719b34b-5236-4188-9c3c-ef6fadca7899.png",
        "entry": 65336,
        "entry_name": "Aouar We",
        "event_total": 60,
        "has_played": true,
        "id": 421760,
        "last_rank": 43444,
        "player_name": "Jimmy O-Riordan",
        "rank": 39399,
        "rank_sort": 39405,
        "total": 2360
      },
      {
        "club_badge_src": "https://fantasy.premierleague.com/gcs/plfpl-production-adobe-approved/plfpl-production/87110/6ed3caed-c7f7-4346-8eab-59b326ab18f4.png",
        "entry": 87110,
        "entry_name": "Yoro Wissa Harry",
        "event_total": 38,
        "has_played": true,
        "id": 567962,
        "last_rank": 20727,
        "player_name": "Conor Small",
        "rank": 39399,
        "rank_sort": 39406,
        "total": 2360
      },
      {
        "club_badge_src": null,
        "entry": 94411,
        "entry_name": "7ers 11er",
        "event_total": 56,
        "has_played": true,
        "id": 616854,
        "last_rank": 38340,
        "player_name": "Syver K",
        "rank": 39399,
        "rank_sort": 39407,
        "total": 2360
      },
      {
        "club_badge_src": null,
        "entry": 123360,
        "entry_name": "HavocFC",
        "event_total": 65,
        "has_played": true,
        "id": 804660,
        "last_rank": 39246,
        "player_name": "Bobby Havoc",
        "rank": 39399,
        "rank_sort": 39408,
        "total": 2360
      },
      {
        "club_badge_src": null,
        "entry": 124721,
        "entry_name": "Liam's Lads",
        "event_total": 59,
        "has_played": true,
        "id": 813479,
        "last_rank": 32190,
        "player_name": "Liam Eyre",
        "rank": 39399,
        "rank_sort": 39409,
        "total": 2360
      },
      {
        "club_badge_src": "https://fantasy.premierleague.com/gcs/plfpl-production-adobe-approved/plfpl-production/126088/3b20befd-a9ea-4fb0-b57e-3a4a952c5ffc.png",
        "entry": 126088,
        "entry_name": "Josh",
        "event_total": 77,
        "has_played": true,
        "id": 822200,
        "last_rank": 71713,
        "player_name": "Josh .....",
        "rank": 39399,
        "rank_sort": 39410,
        "total": 2360
      },
      {
        "club_badge_src": null,
        "entry": 155232,
        "entry_name": "Rabbit Rangers",
        "event_total": 61,
        "has_played": true,
        "id": 1020096,
        "last_rank": 39403,
        "player_name": "\u00d8yvin Kulseng",
        "rank": 39399,
        "rank_sort": 39411,
        "total": 2360
      },
      {
        "club_badge_src": "https://fantasy.premierleague.com/gcs/plfpl-production-adobe-approved/plfpl-production/219902/bdf4c7e5-b76d-4a7f-b88d-717378fd2740.png",
        "entry": 219902,
        "entry_name": "Tiki Daka",
        "event_total": 55,
        "has_played": true,
        "id": 1462500,
        "last_rank": 32190,
        "player_name": "Lewis Howard",
        "rank": 39399,
        "rank_sort": 39412,
        "total": 2360
      },
      {
        "club_badge_src": "https://fantasy.premierleague.com/gcs/plfpl-production-adobe-approved/plfpl-production/274539/9ec318b0-c8ca-4df5-b446-c6b9647b4640.png",
        "entry": 274539,
        "entry_name": "Crowns Park Rangers",
        "event_total": 45,
        "has_played": true,
        "id": 1826811,
        "last_rank": 26345,
        "player_name": "J\u00f6rgen Bjerkesj\u00f6",
        "rank": 39399,
        "rank_sort": 39413,
        "total": 2360
      },
      {
        "club_badge_src": null,
        "entry": 339876,
        "entry_name": "Kinder Mbeumo",
        "event_total": 62,
        "has_played": true,
        "id": 2275138,
        "last_rank": 46106,
        "player_name": "Will Hargreaves",
        "rank": 39399,
        "rank_sort": 39414,
        "total": 2360
      },
      {
        "club_badge_src": null,
        "entry": 357805,
        "entry_name": "hengz utd",
        "event_total": 64,
        "has_played": true,
        "id": 2394467,
        "last_rank": 49207,
        "player_name": "Liheng Foo",
        "rank": 39399,
        "rank_sort": 39415,
        "total": 2360
      },
      {
        "club_badge_src": "https://fantasy.premierleague.com/gcs/plfpl-production-adobe-approved/plfpl-production/494798/c3d4a1f7-f973-411a-be3c-1b07ac267c15.png",
        "entry": 494798,
        "entry_name": "For Cov Sake",
        "event_total": 67,
        "has_played": true,
        "id": 3321250,
        "last_rank": 47417,
        "player_name": "Richard Anderson",
        "rank": 39399,
        "rank_sort": 39416,
        "total": 2360
      },
      {
        "club_badge_src": null,
        "entry": 497582,
        "entry_name": "Guinea Pigs",
        "event_total": 51,
        "has_played": true,
        "id": 3339748,
        "last_rank": 32437,
        "player_name": "Mateusz Michalak",
        "rank": 39399,
        "rank_sort": 39417,
        "total": 2360
      },
      {
        "club_badge_src": null,
        "entry": 502425,
        "entry_name": "Jordans XI",
        "event_total": 56,
        "has_played": true,
        "id": 3372390,
        "last_rank": 38267,
        "player_name": "Jordan Lymbery",
        "rank": 39399,
        "rank_sort": 39418,
        "total": 2360
      },
      {
        "club_badge_src": "https://fantasy.premierleague.com/gcs/plfpl-production-adobe-approved/plfpl-production/507680/3b7132bc-1727-4458-8520-a0a862975f63.png",
        "entry": 507680,
        "entry_name": "Barci\u010dka",
        "event_total": 49,
        "has_played": true,
        "id": 3407540,
        "last_rank": 22830,
        "player_name": "Pavel Petrik",
        "rank": 39399,
        "rank_sort": 39419,
        "total": 2360
      },
      {
        "club_badge_src": "https://fantasy.premierleague.com/gcs/plfpl-production-adobe-approved/plfpl-production/517939/bf1623fc-f23a-4fee-9632-f64d8ca1986e.png",
        "entry": 517939,
        "entry_name": "Blinde h\u00f8ner",
        "event_total": 71,
        "has_played": true,
        "id": 3477375,
        "last_rank": 60462,
        "player_name": "Tor-Espen Mork",
        "rank": 39399,
        "rank_sort": 39420,
        "total": 2360
      },
      {
        "club_badge_src": null,
        "entry": 595056,
        "entry_name": "moo shaban",
        "event_total": 62,
        "has_played": true,
        "id": 4011300,
        "last_rank": 46236,
        "player_name": "Mohamed Shaban",
        "rank": 39399,
        "rank_sort": 39421,
        "total": 2360
      },
      {
        "club_badge_src": null,
        "entry": 623029,
        "entry_name": "The Hamburglars",
        "event_total": 41,
        "has_played": true,
        "id": 4210421,
        "last_rank": 22921,
        "player_name": "Ryan Smith",
        "rank": 39399,
        "rank_sort": 39422,
        "total": 2360
      },
      {
        "club_badge_src": null,
        "entry": 639091,
        "entry_name": "Kinder Mbeumo",
        "event_total": 65,
        "has_played": true,
        "id": 4319223,
        "last_rank": 50772,
        "player_name": "Luke Inman",
        "rank": 39399,
        "rank_sort": 39423,
        "total": 2360
      },
      {
        "club_badge_src": null,
        "entry": 685696,
        "entry_name": "Nontando",
        "event_total": 70,
        "has_played": true,
        "id": 4641383,
        "last_rank": 59077,
        "player_name": "Gary Stern",
        "rank": 39399,
        "rank_sort": 39424,
        "total": 2360
      },
      {
        "club_badge_src": null,
        "entry": 715086,
        "entry_name": "Braziliant",
        "event_total": 62,
        "has_played": true,
        "id": 4851518,
        "last_rank": 30957,
        "player_name": "Craig Ryan",
        "rank": 39399,
        "rank_sort": 39425,
        "total": 2360
      },
      {
        "club_badge_src": null,
        "entry": 730351,
        "entry_name": "Krul Sommer",
        "event_total": 64,
        "has_played": true,
        "id": 4962610,
        "last_rank": 49207,
        "player_name": "Ryan Self",
        "rank": 39399,
        "rank_sort": 39426,
        "total": 2360
      },
      {
        "club_badge_src": null,
        "entry": 758050,
        "entry_name": "No time to Ndiaye",
        "event_total": 59,
        "has_played": true,
        "id": 5163438,
        "last_rank": 41967,
        "player_name": "William Unsworth",
        "rank": 39399,
        "rank_sort": 39427,
        "total": 2360
      },
      {
        "club_badge_src": "https://fantasy.premierleague.com/gcs/plfpl-production-adobe-approved/plfpl-production/798253/8efa2c08-b0eb-4e63-bb6d-51fe9959fdde.png",
        "entry": 798253,
        "entry_name": "Bill Howarth Tips FC",
        "event_total": 56,
        "has_played": true,
        "id": 5463678,
        "last_rank": 38267,
        "player_name": "Bill Howarth",
        "rank": 39399,
        "rank_sort": 39428,
        "total": 2360
      },
      {
        "club_badge_src": null,
        "entry": 944506,
        "entry_name": "Victor Moses Lawn",
        "event_total": 57,
        "has_played": true,
        "id": 6505324,
        "last_rank": 39510,
        "player_name": "Cormac Neilan",
        "rank": 39399,
        "rank_sort": 39429,
        "total": 2360
      },
      {
        "club_badge_src": null,
        "entry": 1191816,
        "entry_name": "The UnderDogs",
        "event_total": 59,
        "has_played": true,
        "id": 8269355,
        "last_rank": 36963,
        "player_name": "Wurry Barry",
        "rank": 39399,
        "rank_sort": 39430,
        "total": 2360
      },
      {
        "club_badge_src": null,
        "entry": 1224848,
        "entry_name": "Zubi Wan Iwobi",
        "event_total": 52,
        "has_played": true,
        "id": 8504545,
        "last_rank": 29199,
        "player_name": "Anand Mantri",
        "rank": 39399,
        "rank_sort": 39431,
        "total": 2360
      },
      {
        "club_badge_src": null,
        "entry": 1409275,
        "entry_name": "Kinder Mbeumo",
        "event_total": 61,
        "has_played": true,
        "id": 9806094,
        "last_rank": 39403,
        "player_name": "Reece Duffy",
        "rank": 39399,
        "rank_sort": 39432,
        "total": 2360
      },
      {
        "club_badge_src": null,
        "entry": 1415586,
        "entry_name": "okasha22",
        "event_total": 77,
        "has_played": true,
        "id": 9854323,
        "last_rank": 71386,
        "player_name": "ABDALRHMAN OKASHA",
        "rank": 39399,
        "rank_sort": 39433,
        "total": 2360
      },
      {
        "club_badge_src": null,
        "entry": 1456549,
        "entry_name": "Emery Little Helps",
        "event_total": 68,
        "has_played": true,
        "id": 10149493,
        "last_rank": 43168,
        "player_name": "Lorcan Garrad",
        "rank": 39399,
        "rank_sort": 39434,
        "total": 2360
      },
      {
        "club_badge_src": "https://fantasy.premierleague.com/gcs/plfpl-production-adobe-approved/plfpl-production/1646260/9cf377be-6ef8-49a1-ac36-84750eb06e27.png",
        "entry": 1646260,
        "entry_name": "Free Palestine 58 \ufffd",
        "event_total": 55,
        "has_played": true,
        "id": 11524058,
        "last_rank": 37058,
        "player_name": "Hashem Allal",
        "rank": 39399,
        "rank_sort": 39435,
        "total": 2360
      },
      {
        "club_badge_src": null,
        "entry": 1676279,
        "entry_name": "Smeg Champion",
        "event_total": 43,
        "has_played": true,
        "id": 11735580,
        "last_rank": 24475,
        "player_name": "Lachlan Howell",
        "rank": 39399,
        "rank_sort": 39436,
        "total": 2360
      },
      {
        "club_badge_src": "https://fantasy.premierleague.com/gcs/plfpl-production-adobe-approved/plfpl-production/1705150/bcd0623e-bd3c-469e-9239-1ce2ca904504.png",
        "entry": 1705150,
        "entry_name": "HardRockSmoothBallet",
        "event_total": 75,
        "has_played": true,
        "id": 11945292,
        "last_rank": 68216,
        "player_name": "Stanimir Stoyanov",
        "rank": 39399,
        "rank_sort": 39437,
        "total": 2360
      },
      {
        "club_badge_src": "https://fantasy.premierleague.com/gcs/plfpl-production-adobe-approved/plfpl-production/1781669/562af4be-3f12-425b-b40a-031320fa9e47.png",
        "entry": 1781669,
        "entry_name": "Foxy Racoons",
        "event_total": 52,
        "has_played": true,
        "id": 12517675,
        "last_rank": 29199,
        "player_name": "Bronislav P\u011b\u010dek",
        "rank": 39399,
        "rank_sort": 39438,
        "total": 2360
      },
      {
        "club_badge_src": null,
        "entry": 2207374,
        "entry_name": "Cooking With Gazza",
        "event_total": 70,
        "has_played": true,
        "id": 15717304,
        "last_rank": 58911,
        "player_name": "Josh Dunn",
        "rank": 39399,
        "rank_sort": 39439,
        "total": 2360
      },
      {
        "club_badge_src": null,
        "entry": 2559071,
        "entry_name": "Inchy Town",
        "event_total": 66,
        "has_played": true,
        "id": 18352523,
        "last_rank": 52357,
        "player_name": "Paul Telling",
        "rank": 39399,
        "rank_sort": 39440,
        "total": 2360
      },
      {
        "club_badge_src": null,
        "entry": 2655746,
        "entry_name": "Rock Klidje",
        "event_total": 42,
        "has_played": true,
        "id": 19090081,
        "last_rank": 23748,
        "player_name": "Ronan Rowell",
        "rank": 39399,
        "rank_sort": 39441,
        "total": 2360
      },
      {
        "club_badge_src": null,
        "entry": 2664494,
        "entry_name": "Monsieur Blancley",
        "event_total": 56,
        "has_played": true,
        "id": 19154369,
        "last_rank": 38267,
        "player_name": "Tom Whiteley",
        "rank": 39399,
        "rank_sort": 39442,
        "total": 2360
      },
      {
        "club_badge_src": "https://fantasy.premierleague.com/gcs/plfpl-production-adobe-approved/plfpl-production/2676129/4df16a25-f6a0-437a-8e6e-da4480231357.png",
        "entry": 2676129,
        "entry_name": "u like mainoo shoes?",
        "event_total": 57,
        "has_played": true,
        "id": 19242265,
        "last_rank": 34458,
        "player_name": "Daniel Cuddy",
        "rank": 39399,
        "rank_sort": 39443,
        "total": 2360
      },
      {
        "club_badge_src": null,
        "entry": 2785050,
        "entry_name": "Saka Ma Rice",
        "event_total": 66,
        "has_played": true,
        "id": 20331739,
        "last_rank": 46106,
        "player_name": "Austin Caleb Govender",
        "rank": 39399,
        "rank_sort": 39444,
        "total": 2360
      },
      {
        "club_badge_src": null,
        "entry": 3077533,
        "entry_name": "Brimington Owls",
        "event_total": 62,
        "has_played": true,
        "id": 22671969,
        "last_rank": 40503,
        "player_name": "Ben Ridley",
        "rank": 39399,
        "rank_sort": 39445,
        "total": 2360
      },
      {
        "club_badge_src": null,
        "entry": 3127444,
        "entry_name": "Broadway Juniors",
        "event_total": 70,
        "has_played": true,
        "id": 23081464,
        "last_rank": 52205,
        "player_name": "Kim Hughes",
        "rank": 39399,
        "rank_sort": 39446,
        "total": 2360
      },
      {
        "club_badge_src": null,
        "entry": 3795089,
        "entry_name": "The Will of Saliba",
        "event_total": 65,
        "has_played": true,
        "id": 28365666,
        "last_rank": 44303,
        "player_name": "Kiran Ananth",
        "rank": 39399,
        "rank_sort": 39447,
        "total": 2360
      },
      {
        "club_badge_src": "https://fantasy.premierleague.com/gcs/plfpl-production-adobe-approved/plfpl-production/4266964/4fc403c0-3e83-4a3f-a8a9-39b41c5b0153.png",
        "entry": 4266964,
        "entry_name": "VEEZY BOYZ FC",
        "event_total": 50,
        "has_played": true,
        "id": 32355162,
        "last_rank": 31309,
        "player_name": "Kash TrenchMade",
        "rank": 39399,
        "rank_sort": 39448,
        "total": 2360
      },
      {
        "club_badge_src": null,
        "entry": 4472066,
        "entry_name": "Champagne Superovers",
        "event_total": 68,
        "has_played": true,
        "id": 34079217,
        "last_rank": 48898,
        "player_name": "Rob Lamb",
        "rank": 39399,
        "rank_sort": 39449,
        "total": 2360
      },
      {
        "club_badge_src": null,
        "entry": 4703175,
        "entry_name": "\u062c\u0632\u0627\u0631 \u0627\u0644\u0645\u0639\u064a\u0632",
        "event_total": 57,
        "has_played": true,
        "id": 36056494,
        "last_rank": 34578,
        "player_name": "abaza a",
        "rank": 39399,
        "rank_sort": 39450,
        "total": 2360
      }
    ]
  }
}