{
  "last_updated_data": "2026-05-24T23:28:17Z",
  "league": {
    "admin_entry": null,
    "closed": false,
    "code_privacy": "p",
    "created": "2025-07-20T23:14:33.933835Z",
    "cup_league": 2815434,
    "has_cup": true,
    "id": 314,
    "league_type": "s",
    "max_entries": null,
    "name": "Overall",
    "rank": null,
    "scoring": "c",
    "start_event": 1
  },
  "new_entries": {
    "has_next": false,
    "page": 1,
    "results": []
  },
  "standings": {
    "has_next": true,
    "page": 776,
    "results": [
      {
        "club_badge_src": null,
        "entry": 1646933,
        "entry_name": "The Winning Team II",
        "event_total": 84,
        "has_played": true,
        "id": 11528848,
        "last_rank": 86054,
        "player_name": "Abdullahi Eni",
        "rank": 38615,
        "rank_sort": 38751,
        "total": 2360
      },
      {
        "club_badge_src": null,
        "entry": 1649853,
        "entry_name": "Red Rebels",
        "event_total": 49,
        "has_played": true,
        "id": 11550576,
        "last_rank": 29904,
        "player_name": "Richard Love",
        "rank": 38615,
        "rank_sort": 38752,
        "total": 2360
      },
      {
        "club_badge_src": null,
        "entry": 1684699,
        "entry_name": "VinittoVinit",
        "event_total": 65,
        "has_played": true,
        "id": 11793174,
        "last_rank": 49607,
        "player_name": "Alvin Low",
        "rank": 38615,
        "rank_sort": 38753,
        "total": 2360
      },
      {
        "club_badge_src": null,
        "entry": 1704163,
        "entry_name": "Change Name",
        "event_total": 65,
        "has_played": true,
        "id": 11938043,
        "last_rank": 49691,
        "player_name": "Hamza Imam",
        "rank": 38615,
        "rank_sort": 38754,
        "total": 2360
      },
      {
        "club_badge_src": null,
        "entry": 1705291,
        "entry_name": "Plavi mravi",
        "event_total": 62,
        "has_played": true,
        "id": 11946307,
        "last_rank": 45416,
        "player_name": "Damir Filipovic",
        "rank": 38615,
        "rank_sort": 38755,
        "total": 2360
      },
      {
        "club_badge_src": null,
        "entry": 1706536,
        "entry_name": "Furious Pete",
        "event_total": 66,
        "has_played": true,
        "id": 11955479,
        "last_rank": 51403,
        "player_name": "Peter Romme",
        "rank": 38615,
        "rank_sort": 38756,
        "total": 2360
      },
      {
        "club_badge_src": null,
        "entry": 1718776,
        "entry_name": "Mee MatzSels Ndiaye",
        "event_total": 67,
        "has_played": true,
        "id": 12045695,
        "last_rank": 53023,
        "player_name": "Jay Santos",
        "rank": 38615,
        "rank_sort": 38757,
        "total": 2360
      },
      {
        "club_badge_src": "https://fantasy.premierleague.com/gcs/plfpl-production-adobe-approved/plfpl-production/1728658/ff7f735f-db1a-405d-a8be-98f083e40fde.png",
        "entry": 1728658,
        "entry_name": "Chorizo FC",
        "event_total": 75,
        "has_played": true,
        "id": 12123878,
        "last_rank": 66848,
        "player_name": "Juca Leonardo",
        "rank": 38615,
        "rank_sort": 38758,
        "total": 2360
      },
      {
        "club_badge_src": "https://fantasy.premierleague.com/gcs/plfpl-production-adobe-approved/plfpl-production/1754803/d9afbba6-7842-4054-bbd1-c7123a15c456.png",
        "entry": 1754803,
        "entry_name": "Nice to Michu",
        "event_total": 63,
        "has_played": true,
        "id": 12319399,
        "last_rank": 46839,
        "player_name": "Jeremy Perera",
        "rank": 38615,
        "rank_sort": 38759,
        "total": 2360
      },
      {
        "club_badge_src": null,
        "entry": 1780006,
        "entry_name": "Vipers",
        "event_total": 75,
        "has_played": true,
        "id": 12505660,
        "last_rank": 67422,
        "player_name": "Wayne Mupunwa",
        "rank": 38615,
        "rank_sort": 38760,
        "total": 2360
      },
      {
        "club_badge_src": null,
        "entry": 1789990,
        "entry_name": "Kyziridiculous 11",
        "event_total": 66,
        "has_played": true,
        "id": 12577681,
        "last_rank": 51220,
        "player_name": "Alan Rafferty",
        "rank": 38615,
        "rank_sort": 38761,
        "total": 2360
      },
      {
        "club_badge_src": null,
        "entry": 1837091,
        "entry_name": "Flying OverMars",
        "event_total": 65,
        "has_played": true,
        "id": 12923986,
        "last_rank": 49880,
        "player_name": "Marc Jansen",
        "rank": 38615,
        "rank_sort": 38762,
        "total": 2360
      },
      {
        "club_badge_src": null,
        "entry": 1986036,
        "entry_name": "Power Reijnders",
        "event_total": 55,
        "has_played": true,
        "id": 14029110,
        "last_rank": 36142,
        "player_name": "Sean Howard",
        "rank": 38615,
        "rank_sort": 38763,
        "total": 2360
      },
      {
        "club_badge_src": null,
        "entry": 2097012,
        "entry_name": "Team Ipin",
        "event_total": 54,
        "has_played": true,
        "id": 14878785,
        "last_rank": 34926,
        "player_name": "Aqil Farhan",
        "rank": 38615,
        "rank_sort": 38764,
        "total": 2360
      },
      {
        "club_badge_src": "https://fantasy.premierleague.com/gcs/plfpl-production-adobe-approved/plfpl-production/2112233/1f5ac63c-e7df-4e6d-9450-7d0ed9bdde4f.png",
        "entry": 2112233,
        "entry_name": "SteRickettsLovesMUFC",
        "event_total": 59,
        "has_played": true,
        "id": 14992719,
        "last_rank": 41162,
        "player_name": "Dale Fannon",
        "rank": 38615,
        "rank_sort": 38765,
        "total": 2360
      },
      {
        "club_badge_src": "https://fantasy.premierleague.com/gcs/plfpl-production-adobe-approved/plfpl-production/2126379/f9377899-c548-410d-880e-62a9d725f1d9.png",
        "entry": 2126379,
        "entry_name": "Glock 14",
        "event_total": 55,
        "has_played": true,
        "id": 15108576,
        "last_rank": 36624,
        "player_name": "Keon Scarlett",
        "rank": 38615,
        "rank_sort": 38766,
        "total": 2360
      },
      {
        "club_badge_src": null,
        "entry": 2148188,
        "entry_name": "slcook54",
        "event_total": 44,
        "has_played": true,
        "id": 15269041,
        "last_rank": 25002,
        "player_name": "Steven Cook",
        "rank": 38615,
        "rank_sort": 38767,
        "total": 2360
      },
      {
        "club_badge_src": null,
        "entry": 2199003,
        "entry_name": "Palmer Violets",
        "event_total": 65,
        "has_played": true,
        "id": 15647724,
        "last_rank": 49880,
        "player_name": "Jonny Flynn",
        "rank": 38615,
        "rank_sort": 38768,
        "total": 2360
      },
      {
        "club_badge_src": null,
        "entry": 2293469,
        "entry_name": "Starkowski-eyed",
        "event_total": 43,
        "has_played": true,
        "id": 16357026,
        "last_rank": 24330,
        "player_name": "Rebecca Howarth",
        "rank": 38615,
        "rank_sort": 38769,
        "total": 2360
      },
      {
        "club_badge_src": "https://fantasy.premierleague.com/gcs/plfpl-production-adobe-approved/plfpl-production/2298002/5c8db68b-ae5e-4185-a850-7fd1357b7ae2.png",
        "entry": 2298002,
        "entry_name": "Rags2RichesResurrect",
        "event_total": 66,
        "has_played": true,
        "id": 16389937,
        "last_rank": 51403,
        "player_name": "Raghav Ramakrishnan",
        "rank": 38615,
        "rank_sort": 38770,
        "total": 2360
      },
      {
        "club_badge_src": null,
        "entry": 2375648,
        "entry_name": "So near yet so VAR",
        "event_total": 61,
        "has_played": true,
        "id": 16960033,
        "last_rank": 44048,
        "player_name": "John Blissett",
        "rank": 38615,
        "rank_sort": 38771,
        "total": 2360
      },
      {
        "club_badge_src": null,
        "entry": 2440828,
        "entry_name": "ruben di-asss",
        "event_total": 51,
        "has_played": true,
        "id": 17455983,
        "last_rank": 31747,
        "player_name": "Rong Xuan Lee",
        "rank": 38615,
        "rank_sort": 38772,
        "total": 2360
      },
      {
        "club_badge_src": null,
        "entry": 2482742,
        "entry_name": "Smith-Rowe your boat",
        "event_total": 48,
        "has_played": true,
        "id": 17765636,
        "last_rank": 28609,
        "player_name": "Alfie Foot",
        "rank": 38615,
        "rank_sort": 38773,
        "total": 2360
      },
      {
        "club_badge_src": null,
        "entry": 2487727,
        "entry_name": "gy\u00f6keres ballon d'or",
        "event_total": 62,
        "has_played": true,
        "id": 17808656,
        "last_rank": 45182,
        "player_name": "Adrian Lundborg Silva",
        "rank": 38615,
        "rank_sort": 38774,
        "total": 2360
      },
      {
        "club_badge_src": null,
        "entry": 2500150,
        "entry_name": "X A V I",
        "event_total": 37,
        "has_played": true,
        "id": 17901695,
        "last_rank": 19544,
        "player_name": "Mustafa EL-Feky",
        "rank": 38615,
        "rank_sort": 38775,
        "total": 2360
      },
      {
        "club_badge_src": null,
        "entry": 2562119,
        "entry_name": "Eze come Eze go",
        "event_total": 52,
        "has_played": true,
        "id": 18376250,
        "last_rank": 32879,
        "player_name": "Josh White",
        "rank": 38615,
        "rank_sort": 38776,
        "total": 2360
      },
      {
        "club_badge_src": null,
        "entry": 2569233,
        "entry_name": "Baines on Toast",
        "event_total": 45,
        "has_played": true,
        "id": 18432645,
        "last_rank": 25902,
        "player_name": "Rhys Warner",
        "rank": 38615,
        "rank_sort": 38777,
        "total": 2360
      },
      {
        "club_badge_src": null,
        "entry": 2701824,
        "entry_name": "Jimmy",
        "event_total": 70,
        "has_played": true,
        "id": 19436448,
        "last_rank": 57857,
        "player_name": "Ahmed Gama\u0142",
        "rank": 38615,
        "rank_sort": 38778,
        "total": 2360
      },
      {
        "club_badge_src": null,
        "entry": 2715914,
        "entry_name": "Mylee's Men",
        "event_total": 70,
        "has_played": true,
        "id": 19541635,
        "last_rank": 58388,
        "player_name": "Mylee Craig",
        "rank": 38615,
        "rank_sort": 38779,
        "total": 2360
      },
      {
        "club_badge_src": null,
        "entry": 2724210,
        "entry_name": "UnitedChampions",
        "event_total": 76,
        "has_played": true,
        "id": 19603087,
        "last_rank": 68748,
        "player_name": "Matthew Gauvain",
        "rank": 38615,
        "rank_sort": 38780,
        "total": 2360
      },
      {
        "club_badge_src": null,
        "entry": 2730515,
        "entry_name": "Charli xGx",
        "event_total": 64,
        "has_played": true,
        "id": 19649315,
        "last_rank": 48119,
        "player_name": "Sam Timmins",
        "rank": 38615,
        "rank_sort": 38781,
        "total": 2360
      },
      {
        "club_badge_src": null,
        "entry": 2736681,
        "entry_name": "County Coogee",
        "event_total": 66,
        "has_played": true,
        "id": 19697394,
        "last_rank": 51220,
        "player_name": "Daniel O Sullivan",
        "rank": 38615,
        "rank_sort": 38782,
        "total": 2360
      },
      {
        "club_badge_src": "https://fantasy.premierleague.com/gcs/plfpl-production-adobe-approved/plfpl-production/2795768/9498e4e4-7279-4bde-a586-a2c7c44514dd.png",
        "entry": 2795768,
        "entry_name": "Mbengue Pride",
        "event_total": 55,
        "has_played": true,
        "id": 20413999,
        "last_rank": 36348,
        "player_name": "Dan Beatty",
        "rank": 38615,
        "rank_sort": 38783,
        "total": 2360
      },
      {
        "club_badge_src": null,
        "entry": 2859202,
        "entry_name": "Dreamteam",
        "event_total": 75,
        "has_played": true,
        "id": 20908687,
        "last_rank": 67422,
        "player_name": "Sonja Scherffenberg",
        "rank": 38615,
        "rank_sort": 38784,
        "total": 2360
      },
      {
        "club_badge_src": null,
        "entry": 2943157,
        "entry_name": "Kraven\u2019s Krue FC",
        "event_total": 59,
        "has_played": true,
        "id": 21596265,
        "last_rank": 41324,
        "player_name": "Azrin Zabri",
        "rank": 38615,
        "rank_sort": 38785,
        "total": 2360
      },
      {
        "club_badge_src": null,
        "entry": 2954866,
        "entry_name": "Obi-Wan Cannoli",
        "event_total": 65,
        "has_played": true,
        "id": 21702771,
        "last_rank": 49691,
        "player_name": "Jordan Furlan",
        "rank": 38615,
        "rank_sort": 38786,
        "total": 2360
      },
      {
        "club_badge_src": null,
        "entry": 3003014,
        "entry_name": "From bad to Wirtz",
        "event_total": 65,
        "has_played": true,
        "id": 22088958,
        "last_rank": 49880,
        "player_name": "Luke Tandy",
        "rank": 38615,
        "rank_sort": 38787,
        "total": 2360
      },
      {
        "club_badge_src": "https://fantasy.premierleague.com/gcs/plfpl-production-adobe-approved/plfpl-production/3050655/2022f135-ba2d-410c-a2ba-df0fe11f603a.png",
        "entry": 3050655,
        "entry_name": "Amadness",
        "event_total": 65,
        "has_played": true,
        "id": 22458167,
        "last_rank": 49880,
        "player_name": "Dhairya Mehta",
        "rank": 38615,
        "rank_sort": 38788,
        "total": 2360
      },
      {
        "club_badge_src": null,
        "entry": 3062745,
        "entry_name": "Jungle boys",
        "event_total": 62,
        "has_played": true,
        "id": 22549641,
        "last_rank": 45252,
        "player_name": "Maksymilian Kolasinski",
        "rank": 38615,
        "rank_sort": 38789,
        "total": 2360
      },
      {
        "club_badge_src": null,
        "entry": 3076893,
        "entry_name": "Oliver's Army",
        "event_total": 58,
        "has_played": true,
        "id": 22667078,
        "last_rank": 40036,
        "player_name": "Jacqueline Franklin",
        "rank": 38615,
        "rank_sort": 38790,
        "total": 2360
      },
      {
        "club_badge_src": null,
        "entry": 3144291,
        "entry_name": "Brexit Geezer's",
        "event_total": 68,
        "has_played": true,
        "id": 23215291,
        "last_rank": 54416,
        "player_name": "Kaspian Arvilommi",
        "rank": 38615,
        "rank_sort": 38791,
        "total": 2360
      },
      {
        "club_badge_src": null,
        "entry": 3247176,
        "entry_name": "Killie Gunners",
        "event_total": 64,
        "has_played": true,
        "id": 24022762,
        "last_rank": 48363,
        "player_name": "Stuart Wotherspoon",
        "rank": 38615,
        "rank_sort": 38792,
        "total": 2360
      },
      {
        "club_badge_src": null,
        "entry": 3397799,
        "entry_name": "G\u0127ar Qawqla Seagulls",
        "event_total": 78,
        "has_played": true,
        "id": 25227185,
        "last_rank": 72702,
        "player_name": "Susan De Maria",
        "rank": 38615,
        "rank_sort": 38793,
        "total": 2360
      },
      {
        "club_badge_src": null,
        "entry": 3491204,
        "entry_name": "Breaking B_ad badly",
        "event_total": 61,
        "has_played": true,
        "id": 25964036,
        "last_rank": 44048,
        "player_name": "Brad Utteridge",
        "rank": 38615,
        "rank_sort": 38794,
        "total": 2360
      },
      {
        "club_badge_src": null,
        "entry": 3499474,
        "entry_name": "Wirtz of Wisdom",
        "event_total": 65,
        "has_played": true,
        "id": 26031192,
        "last_rank": 49691,
        "player_name": "Edward Lee",
        "rank": 38615,
        "rank_sort": 38795,
        "total": 2360
      },
      {
        "club_badge_src": null,
        "entry": 3508519,
        "entry_name": "BlueVeinedHooligans",
        "event_total": 51,
        "has_played": true,
        "id": 26102861,
        "last_rank": 31620,
        "player_name": "Pierre Woussen",
        "rank": 38615,
        "rank_sort": 38796,
        "total": 2360
      },
      {
        "club_badge_src": null,
        "entry": 3526183,
        "entry_name": "Udogie in the window",
        "event_total": 72,
        "has_played": true,
        "id": 26242788,
        "last_rank": 61411,
        "player_name": "Cider King",
        "rank": 38615,
        "rank_sort": 38797,
        "total": 2360
      },
      {
        "club_badge_src": null,
        "entry": 3548282,
        "entry_name": "Overthewall United",
        "event_total": 52,
        "has_played": true,
        "id": 26415216,
        "last_rank": 32879,
        "player_name": "Jack Stanley",
        "rank": 38615,
        "rank_sort": 38798,
        "total": 2360
      },
      {
        "club_badge_src": "https://fantasy.premierleague.com/gcs/plfpl-production-adobe-approved/plfpl-production/3555583/9bb190bb-aa6d-48aa-b267-addcbc56e444.png",
        "entry": 3555583,
        "entry_name": "Hampden Hackers",
        "event_total": 58,
        "has_played": true,
        "id": 26472285,
        "last_rank": 40036,
        "player_name": "Mark Green",
        "rank": 38615,
        "rank_sort": 38799,
        "total": 2360
      },
      {
        "club_badge_src": "https://fantasy.premierleague.com/gcs/plfpl-production-adobe-approved/plfpl-production/3850567/9e82c087-3832-47cc-8a7b-2bcb0cee6d15.png",
        "entry": 3850567,
        "entry_name": "FC Masterchief",
        "event_total": 65,
        "has_played": true,
        "id": 28864265,
        "last_rank": 49691,
        "player_name": "Eseohi Asikhia",
        "rank": 38615,
        "rank_sort": 38800,
        "total": 2360
      }
    ]
  }
}