{
  "last_updated_data": "2026-05-24T23:28:17Z",
  "league": {
    "admin_entry": null,
    "closed": false,
    "code_privacy": "p",
    "created": "2025-07-20T23:14:33.933835Z",
    "cup_league": 2815434,
    "has_cup": true,
    "id": 314,
    "league_type": "s",
    "max_entries": null,
    "name": "Overall",
    "rank": null,
    "scoring": "c",
    "start_event": 1
  },
  "new_entries": {
    "has_next": false,
    "page": 1,
    "results": []
  },
  "standings": {
    "has_next": true,
    "page": 620,
    "results": [
      {
        "club_badge_src": null,
        "entry": 2995030,
        "entry_name": "Pain in Dias",
        "event_total": 45,
        "has_played": true,
        "id": 22028178,
        "last_rank": 20280,
        "player_name": "Brad Horne",
        "rank": 30820,
        "rank_sort": 30951,
        "total": 2367
      },
      {
        "club_badge_src": null,
        "entry": 3000763,
        "entry_name": "Not the Wirtz",
        "event_total": 55,
        "has_played": true,
        "id": 22071879,
        "last_rank": 28546,
        "player_name": "Luke Goaley",
        "rank": 30820,
        "rank_sort": 30952,
        "total": 2367
      },
      {
        "club_badge_src": null,
        "entry": 3023998,
        "entry_name": "Le bris XI",
        "event_total": 58,
        "has_played": true,
        "id": 22249920,
        "last_rank": 31747,
        "player_name": "Toby Rutherford",
        "rank": 30820,
        "rank_sort": 30953,
        "total": 2367
      },
      {
        "club_badge_src": null,
        "entry": 3025215,
        "entry_name": "World Champions",
        "event_total": 76,
        "has_played": true,
        "id": 22259209,
        "last_rank": 56047,
        "player_name": "Osei Nkansah Isaac",
        "rank": 30820,
        "rank_sort": 30954,
        "total": 2367
      },
      {
        "club_badge_src": null,
        "entry": 3061580,
        "entry_name": "Winner~*",
        "event_total": 55,
        "has_played": true,
        "id": 22540924,
        "last_rank": 28726,
        "player_name": "Nat Amornkitja",
        "rank": 30820,
        "rank_sort": 30955,
        "total": 2367
      },
      {
        "club_badge_src": "https://fantasy.premierleague.com/gcs/plfpl-production-adobe-approved/plfpl-production/3216784/8fe0068f-3c05-4cf2-adbe-f59a8b3a0c22.png",
        "entry": 3216784,
        "entry_name": "The one man wolfpack",
        "event_total": 60,
        "has_played": true,
        "id": 23783876,
        "last_rank": 33936,
        "player_name": "Markus Lie-Nordsj\u00f8",
        "rank": 30820,
        "rank_sort": 30956,
        "total": 2367
      },
      {
        "club_badge_src": null,
        "entry": 3237100,
        "entry_name": "Shaw Meee De Mane FC",
        "event_total": 60,
        "has_played": true,
        "id": 23942786,
        "last_rank": 34051,
        "player_name": "Dotty .",
        "rank": 30820,
        "rank_sort": 30957,
        "total": 2367
      },
      {
        "club_badge_src": null,
        "entry": 3248715,
        "entry_name": "Calafiori Dreamin",
        "event_total": 44,
        "has_played": true,
        "id": 24035073,
        "last_rank": 19544,
        "player_name": "Chris George",
        "rank": 30820,
        "rank_sort": 30958,
        "total": 2367
      },
      {
        "club_badge_src": null,
        "entry": 3255415,
        "entry_name": "Flying Without Ings",
        "event_total": 41,
        "has_played": true,
        "id": 24086935,
        "last_rank": 17585,
        "player_name": "Lloyd Offord",
        "rank": 30820,
        "rank_sort": 30959,
        "total": 2367
      },
      {
        "club_badge_src": null,
        "entry": 3277020,
        "entry_name": "checkvar",
        "event_total": 55,
        "has_played": true,
        "id": 24254121,
        "last_rank": 28726,
        "player_name": "Samuel Lim",
        "rank": 30820,
        "rank_sort": 30960,
        "total": 2367
      },
      {
        "club_badge_src": null,
        "entry": 3295188,
        "entry_name": "Hotrod fc",
        "event_total": 66,
        "has_played": true,
        "id": 24401357,
        "last_rank": 41324,
        "player_name": "Laurence Pownall",
        "rank": 30820,
        "rank_sort": 30961,
        "total": 2367
      },
      {
        "club_badge_src": null,
        "entry": 3323284,
        "entry_name": "ctrl+alt+de ligt",
        "event_total": 48,
        "has_played": true,
        "id": 24635775,
        "last_rank": 22534,
        "player_name": "John Carroll",
        "rank": 30820,
        "rank_sort": 30962,
        "total": 2367
      },
      {
        "club_badge_src": null,
        "entry": 3367678,
        "entry_name": "Wirtz Case Scenario",
        "event_total": 59,
        "has_played": true,
        "id": 24990521,
        "last_rank": 32879,
        "player_name": "Daniel Williams",
        "rank": 30820,
        "rank_sort": 30963,
        "total": 2367
      },
      {
        "club_badge_src": null,
        "entry": 3376477,
        "entry_name": "bigrichtown",
        "event_total": 61,
        "has_played": true,
        "id": 25061349,
        "last_rank": 35166,
        "player_name": "Jacob Wreathall-May",
        "rank": 30820,
        "rank_sort": 30964,
        "total": 2367
      },
      {
        "club_badge_src": "https://fantasy.premierleague.com/gcs/plfpl-production-adobe-approved/plfpl-production/3408766/e1b5ea3f-ce99-4fd6-adb1-4dec4bb6ffee.png",
        "entry": 3408766,
        "entry_name": "Yuen Long Ballball",
        "event_total": 74,
        "has_played": true,
        "id": 25314694,
        "last_rank": 52722,
        "player_name": "Leon Tai",
        "rank": 30820,
        "rank_sort": 30965,
        "total": 2367
      },
      {
        "club_badge_src": "https://fantasy.premierleague.com/gcs/plfpl-production-adobe-approved/plfpl-production/3419346/610b5371-f558-4f12-9f78-1cf085404d31.png",
        "entry": 3419346,
        "entry_name": "TeamSkeet",
        "event_total": 57,
        "has_played": true,
        "id": 25398348,
        "last_rank": 30957,
        "player_name": "Robert Keating",
        "rank": 30820,
        "rank_sort": 30966,
        "total": 2367
      },
      {
        "club_badge_src": null,
        "entry": 3464599,
        "entry_name": "Kohal11",
        "event_total": 67,
        "has_played": true,
        "id": 25754623,
        "last_rank": 42506,
        "player_name": "Rahul Kohal",
        "rank": 30820,
        "rank_sort": 30967,
        "total": 2367
      },
      {
        "club_badge_src": "https://fantasy.premierleague.com/gcs/plfpl-production-adobe-approved/plfpl-production/3472076/e3178d71-aeda-4d57-bfbe-632e533588ef.png",
        "entry": 3472076,
        "entry_name": "Playground FC",
        "event_total": 63,
        "has_played": true,
        "id": 25813452,
        "last_rank": 37822,
        "player_name": "Wilson Mac",
        "rank": 30820,
        "rank_sort": 30968,
        "total": 2367
      },
      {
        "club_badge_src": null,
        "entry": 3516617,
        "entry_name": "Liveforeverpool FC",
        "event_total": 59,
        "has_played": true,
        "id": 26168605,
        "last_rank": 33147,
        "player_name": "Nasif Mahmood",
        "rank": 30820,
        "rank_sort": 30969,
        "total": 2367
      },
      {
        "club_badge_src": null,
        "entry": 3571679,
        "entry_name": "Legs Eleven",
        "event_total": 62,
        "has_played": true,
        "id": 26595246,
        "last_rank": 36348,
        "player_name": "Thomas Wheeler",
        "rank": 30820,
        "rank_sort": 30970,
        "total": 2367
      },
      {
        "club_badge_src": null,
        "entry": 3614787,
        "entry_name": "The Partey List",
        "event_total": 38,
        "has_played": true,
        "id": 26929622,
        "last_rank": 15550,
        "player_name": "Pranav Raj",
        "rank": 30820,
        "rank_sort": 30971,
        "total": 2367
      },
      {
        "club_badge_src": null,
        "entry": 3635352,
        "entry_name": "Keremier League",
        "event_total": 59,
        "has_played": true,
        "id": 27091277,
        "last_rank": 32879,
        "player_name": "Kerem Buyuk",
        "rank": 30820,
        "rank_sort": 30972,
        "total": 2367
      },
      {
        "club_badge_src": "https://fantasy.premierleague.com/gcs/plfpl-production-adobe-approved/plfpl-production/3635883/9214a873-5fc9-4c35-8031-2cfc4efca418.png",
        "entry": 3635883,
        "entry_name": "Saka Potatoes",
        "event_total": 38,
        "has_played": true,
        "id": 27095468,
        "last_rank": 15550,
        "player_name": "Emma Bird",
        "rank": 30820,
        "rank_sort": 30973,
        "total": 2367
      },
      {
        "club_badge_src": null,
        "entry": 3749511,
        "entry_name": "virg of a vindaloo",
        "event_total": 58,
        "has_played": true,
        "id": 27993242,
        "last_rank": 31620,
        "player_name": "Gordon Ferguson",
        "rank": 30820,
        "rank_sort": 30974,
        "total": 2367
      },
      {
        "club_badge_src": null,
        "entry": 3768613,
        "entry_name": "The carvery",
        "event_total": 48,
        "has_played": true,
        "id": 28138701,
        "last_rank": 22685,
        "player_name": "Sonny Mandair",
        "rank": 30820,
        "rank_sort": 30975,
        "total": 2367
      },
      {
        "club_badge_src": null,
        "entry": 3786869,
        "entry_name": "penu",
        "event_total": 62,
        "has_played": true,
        "id": 28288892,
        "last_rank": 36200,
        "player_name": "Praneeth Penuganti",
        "rank": 30820,
        "rank_sort": 30976,
        "total": 2367
      },
      {
        "club_badge_src": null,
        "entry": 3891374,
        "entry_name": "\u00d6rtag\u00e5rden",
        "event_total": 79,
        "has_played": true,
        "id": 29243196,
        "last_rank": 61411,
        "player_name": "Jonathan Venetjoki",
        "rank": 30820,
        "rank_sort": 30977,
        "total": 2367
      },
      {
        "club_badge_src": null,
        "entry": 3908034,
        "entry_name": "H league",
        "event_total": 66,
        "has_played": true,
        "id": 29381495,
        "last_rank": 41324,
        "player_name": "Hossam Zaki",
        "rank": 30820,
        "rank_sort": 30978,
        "total": 2367
      },
      {
        "club_badge_src": null,
        "entry": 3993127,
        "entry_name": "Lord of the Ings",
        "event_total": 54,
        "has_played": true,
        "id": 30069370,
        "last_rank": 27770,
        "player_name": "Robert Lyle",
        "rank": 30820,
        "rank_sort": 30979,
        "total": 2367
      },
      {
        "club_badge_src": null,
        "entry": 3996311,
        "entry_name": "Gulliver's Travers",
        "event_total": 46,
        "has_played": true,
        "id": 30095954,
        "last_rank": 20983,
        "player_name": "Noah Dean",
        "rank": 30820,
        "rank_sort": 30980,
        "total": 2367
      },
      {
        "club_badge_src": null,
        "entry": 4029708,
        "entry_name": "SKT",
        "event_total": 59,
        "has_played": true,
        "id": 30378485,
        "last_rank": 32688,
        "player_name": "Jonas Lill",
        "rank": 30820,
        "rank_sort": 30981,
        "total": 2367
      },
      {
        "club_badge_src": null,
        "entry": 4081674,
        "entry_name": "Bruno Dos Tres",
        "event_total": 60,
        "has_played": true,
        "id": 30812991,
        "last_rank": 34051,
        "player_name": "Gary Tonge",
        "rank": 30820,
        "rank_sort": 30982,
        "total": 2367
      },
      {
        "club_badge_src": null,
        "entry": 4131138,
        "entry_name": "Kiddo",
        "event_total": 76,
        "has_played": true,
        "id": 31218077,
        "last_rank": 56369,
        "player_name": "BRIAN MUTAI",
        "rank": 30820,
        "rank_sort": 30983,
        "total": 2367
      },
      {
        "club_badge_src": null,
        "entry": 4370141,
        "entry_name": "40 year old Virgil",
        "event_total": 57,
        "has_played": true,
        "id": 33200208,
        "last_rank": 30600,
        "player_name": "Jaz Dhindsa",
        "rank": 30820,
        "rank_sort": 30984,
        "total": 2367
      },
      {
        "club_badge_src": null,
        "entry": 4398805,
        "entry_name": "glory united",
        "event_total": 85,
        "has_played": true,
        "id": 33450211,
        "last_rank": 72662,
        "player_name": "Aleksander Rognmo",
        "rank": 30820,
        "rank_sort": 30985,
        "total": 2367
      },
      {
        "club_badge_src": null,
        "entry": 4403225,
        "entry_name": "The Colossal Titan",
        "event_total": 65,
        "has_played": true,
        "id": 33489522,
        "last_rank": 40036,
        "player_name": "Abdessamad Karbal",
        "rank": 30820,
        "rank_sort": 30986,
        "total": 2367
      },
      {
        "club_badge_src": null,
        "entry": 4482359,
        "entry_name": "Utd\u2019s Dinner Ladies",
        "event_total": 62,
        "has_played": true,
        "id": 34162497,
        "last_rank": 36348,
        "player_name": "Ashley Larkcom",
        "rank": 30820,
        "rank_sort": 30987,
        "total": 2367
      },
      {
        "club_badge_src": null,
        "entry": 4573000,
        "entry_name": "ThomasTheFrankEngine",
        "event_total": 69,
        "has_played": true,
        "id": 34902899,
        "last_rank": 45252,
        "player_name": "Billy Morris",
        "rank": 30820,
        "rank_sort": 30988,
        "total": 2367
      },
      {
        "club_badge_src": null,
        "entry": 4575989,
        "entry_name": "slots machines",
        "event_total": 73,
        "has_played": true,
        "id": 34927584,
        "last_rank": 51403,
        "player_name": "Christopher Monahan",
        "rank": 30820,
        "rank_sort": 30989,
        "total": 2367
      },
      {
        "club_badge_src": null,
        "entry": 4600107,
        "entry_name": "No Partey, Just Time",
        "event_total": 59,
        "has_played": true,
        "id": 35139301,
        "last_rank": 32661,
        "player_name": "Rajat Sharma",
        "rank": 30820,
        "rank_sort": 30990,
        "total": 2367
      },
      {
        "club_badge_src": null,
        "entry": 4610603,
        "entry_name": "Pope Smoke",
        "event_total": 50,
        "has_played": true,
        "id": 35230561,
        "last_rank": 24143,
        "player_name": "Alan Gulabakh",
        "rank": 30820,
        "rank_sort": 30991,
        "total": 2367
      },
      {
        "club_badge_src": null,
        "entry": 4613951,
        "entry_name": "6/10 Burke",
        "event_total": 38,
        "has_played": true,
        "id": 35260698,
        "last_rank": 15694,
        "player_name": "Niall Burke",
        "rank": 30820,
        "rank_sort": 30992,
        "total": 2367
      },
      {
        "club_badge_src": null,
        "entry": 4643209,
        "entry_name": "When Will It End",
        "event_total": 39,
        "has_played": true,
        "id": 35516353,
        "last_rank": 16163,
        "player_name": "Anton Newell",
        "rank": 30820,
        "rank_sort": 30993,
        "total": 2367
      },
      {
        "club_badge_src": null,
        "entry": 4658375,
        "entry_name": "The Wirtz Locker",
        "event_total": 61,
        "has_played": true,
        "id": 35661269,
        "last_rank": 35034,
        "player_name": "Brett Hessing",
        "rank": 30820,
        "rank_sort": 30994,
        "total": 2367
      },
      {
        "club_badge_src": null,
        "entry": 4734541,
        "entry_name": "FC Baker",
        "event_total": 73,
        "has_played": true,
        "id": 36426422,
        "last_rank": 51137,
        "player_name": "Shaun Baker",
        "rank": 30820,
        "rank_sort": 30995,
        "total": 2367
      },
      {
        "club_badge_src": null,
        "entry": 4745332,
        "entry_name": "Calafiaura FC",
        "event_total": 54,
        "has_played": true,
        "id": 36513039,
        "last_rank": 27770,
        "player_name": "Philippe van Laar",
        "rank": 30820,
        "rank_sort": 30996,
        "total": 2367
      },
      {
        "club_badge_src": null,
        "entry": 4752126,
        "entry_name": "HE84AT",
        "event_total": 47,
        "has_played": true,
        "id": 36568024,
        "last_rank": 21949,
        "player_name": "Ioannis Varnava",
        "rank": 30820,
        "rank_sort": 30997,
        "total": 2367
      },
      {
        "club_badge_src": null,
        "entry": 4764090,
        "entry_name": "Eric Blair",
        "event_total": 51,
        "has_played": true,
        "id": 36665518,
        "last_rank": 25002,
        "player_name": "Terry Orwell",
        "rank": 30820,
        "rank_sort": 30998,
        "total": 2367
      },
      {
        "club_badge_src": null,
        "entry": 4767538,
        "entry_name": "Rachel FC",
        "event_total": 54,
        "has_played": true,
        "id": 36693060,
        "last_rank": 27770,
        "player_name": "Rachel Lyle",
        "rank": 30820,
        "rank_sort": 30999,
        "total": 2367
      },
      {
        "club_badge_src": null,
        "entry": 4827960,
        "entry_name": "Players Club",
        "event_total": 60,
        "has_played": true,
        "id": 37183425,
        "last_rank": 34051,
        "player_name": "Nav Lehl",
        "rank": 30820,
        "rank_sort": 31000,
        "total": 2367
      }
    ]
  }
}