{
  "last_updated_data": "2026-05-24T23:28:17Z",
  "league": {
    "admin_entry": null,
    "closed": false,
    "code_privacy": "p",
    "created": "2025-07-20T23:14:33.933835Z",
    "cup_league": 2815434,
    "has_cup": true,
    "id": 314,
    "league_type": "s",
    "max_entries": null,
    "name": "Overall",
    "rank": null,
    "scoring": "c",
    "start_event": 1
  },
  "new_entries": {
    "has_next": false,
    "page": 1,
    "results": []
  },
  "standings": {
    "has_next": true,
    "page": 260,
    "results": [
      {
        "club_badge_src": null,
        "entry": 3280527,
        "entry_name": "Letzbe Avenus",
        "event_total": 52,
        "has_played": true,
        "id": 24281553,
        "last_rank": 8484,
        "player_name": "Damian Duffy",
        "rank": 12920,
        "rank_sort": 12951,
        "total": 2392
      },
      {
        "club_badge_src": null,
        "entry": 3314343,
        "entry_name": "4rest Dogs",
        "event_total": 70,
        "has_played": true,
        "id": 24556778,
        "last_rank": 17718,
        "player_name": "Tomek Jader",
        "rank": 12920,
        "rank_sort": 12952,
        "total": 2392
      },
      {
        "club_badge_src": null,
        "entry": 3519603,
        "entry_name": "Rolls Rice",
        "event_total": 59,
        "has_played": true,
        "id": 26192191,
        "last_rank": 13601,
        "player_name": "Stel Kyriakou",
        "rank": 12920,
        "rank_sort": 12953,
        "total": 2392
      },
      {
        "club_badge_src": null,
        "entry": 3718206,
        "entry_name": "Eze does it",
        "event_total": 71,
        "has_played": true,
        "id": 27746941,
        "last_rank": 21392,
        "player_name": "Peter Middleton",
        "rank": 12920,
        "rank_sort": 12954,
        "total": 2392
      },
      {
        "club_badge_src": "https://fantasy.premierleague.com/gcs/plfpl-production-adobe-approved/plfpl-production/4062491/5e33ee3d-4f27-471f-ba7f-34118d073558.png",
        "entry": 4062491,
        "entry_name": "Reggae Boys \ufffd",
        "event_total": 65,
        "has_played": true,
        "id": 30657339,
        "last_rank": 17078,
        "player_name": "Ameyaw Edmund",
        "rank": 12920,
        "rank_sort": 12955,
        "total": 2392
      },
      {
        "club_badge_src": null,
        "entry": 4086255,
        "entry_name": "Padlusy FC",
        "event_total": 61,
        "has_played": true,
        "id": 30850176,
        "last_rank": 14668,
        "player_name": "Mateusz Jankowski",
        "rank": 12920,
        "rank_sort": 12956,
        "total": 2392
      },
      {
        "club_badge_src": null,
        "entry": 4193448,
        "entry_name": "The Slatt Pack",
        "event_total": 73,
        "has_played": true,
        "id": 31737188,
        "last_rank": 22830,
        "player_name": "John Slattery",
        "rank": 12920,
        "rank_sort": 12957,
        "total": 2392
      },
      {
        "club_badge_src": null,
        "entry": 4330182,
        "entry_name": "Saka Taka FC",
        "event_total": 57,
        "has_played": true,
        "id": 32868270,
        "last_rank": 10462,
        "player_name": "Albin Adolfsson",
        "rank": 12920,
        "rank_sort": 12958,
        "total": 2392
      },
      {
        "club_badge_src": null,
        "entry": 4601836,
        "entry_name": "gezela",
        "event_total": 48,
        "has_played": true,
        "id": 35154923,
        "last_rank": 8552,
        "player_name": "Anton Sj\u00f6dahl",
        "rank": 12920,
        "rank_sort": 12959,
        "total": 2392
      },
      {
        "club_badge_src": null,
        "entry": 4837777,
        "entry_name": "Aint No Half Steppin",
        "event_total": 60,
        "has_played": true,
        "id": 37265119,
        "last_rank": 14102,
        "player_name": "Sean Green",
        "rank": 12920,
        "rank_sort": 12960,
        "total": 2392
      },
      {
        "club_badge_src": null,
        "entry": 5126495,
        "entry_name": "sootinahikootryana!!",
        "event_total": 75,
        "has_played": true,
        "id": 39644179,
        "last_rank": 18270,
        "player_name": "Amit Kode",
        "rank": 12920,
        "rank_sort": 12961,
        "total": 2392
      },
      {
        "club_badge_src": null,
        "entry": 5341070,
        "entry_name": "Kurd team",
        "event_total": 68,
        "has_played": true,
        "id": 41423645,
        "last_rank": 19237,
        "player_name": "Kurdish Boy",
        "rank": 12920,
        "rank_sort": 12962,
        "total": 2392
      },
      {
        "club_badge_src": null,
        "entry": 5556336,
        "entry_name": "Potters XI",
        "event_total": 64,
        "has_played": true,
        "id": 43371502,
        "last_rank": 16512,
        "player_name": "Paul Arrowsmith",
        "rank": 12920,
        "rank_sort": 12963,
        "total": 2392
      },
      {
        "club_badge_src": "https://fantasy.premierleague.com/gcs/plfpl-production-adobe-approved/plfpl-production/6390699/e5d450dc-d6fb-40e0-8fa1-de0cca81d62f.png",
        "entry": 6390699,
        "entry_name": "Saka Potatoes",
        "event_total": 67,
        "has_played": true,
        "id": 50835744,
        "last_rank": 15797,
        "player_name": "Cory Edwards",
        "rank": 12920,
        "rank_sort": 12964,
        "total": 2392
      },
      {
        "club_badge_src": null,
        "entry": 6580884,
        "entry_name": "Gunnerbehappy",
        "event_total": 39,
        "has_played": true,
        "id": 52551302,
        "last_rank": 5820,
        "player_name": "Derek McNamara",
        "rank": 12920,
        "rank_sort": 12965,
        "total": 2392
      },
      {
        "club_badge_src": null,
        "entry": 6824070,
        "entry_name": "Manalito Utd",
        "event_total": 74,
        "has_played": true,
        "id": 54658680,
        "last_rank": 23820,
        "player_name": "Dawn Mann",
        "rank": 12920,
        "rank_sort": 12966,
        "total": 2392
      },
      {
        "club_badge_src": null,
        "entry": 7895323,
        "entry_name": "Michael Royappan fc",
        "event_total": 61,
        "has_played": true,
        "id": 64945337,
        "last_rank": 12420,
        "player_name": "Naresh Dev",
        "rank": 12920,
        "rank_sort": 12967,
        "total": 2392
      },
      {
        "club_badge_src": null,
        "entry": 8750395,
        "entry_name": "Heo",
        "event_total": 64,
        "has_played": true,
        "id": 73067321,
        "last_rank": 16441,
        "player_name": "Mans FPL",
        "rank": 12920,
        "rank_sort": 12968,
        "total": 2392
      },
      {
        "club_badge_src": null,
        "entry": 32227,
        "entry_name": "BUFC",
        "event_total": 63,
        "has_played": true,
        "id": 204892,
        "last_rank": 15920,
        "player_name": "Steven Henderson",
        "rank": 12969,
        "rank_sort": 12969,
        "total": 2392
      },
      {
        "club_badge_src": "https://fantasy.premierleague.com/gcs/plfpl-production-adobe-approved/plfpl-production/70880/4da28aa5-ea06-4f6e-94fc-91843b3275f7.png",
        "entry": 70880,
        "entry_name": "Amro74_FC",
        "event_total": 66,
        "has_played": true,
        "id": 460311,
        "last_rank": 12846,
        "player_name": "amro muhamed",
        "rank": 12969,
        "rank_sort": 12970,
        "total": 2392
      },
      {
        "club_badge_src": "https://fantasy.premierleague.com/gcs/plfpl-production-adobe-approved/plfpl-production/79547/61a5b1fd-5579-49da-85ca-a6be8bef0cdb.png",
        "entry": 79547,
        "entry_name": "IFK United",
        "event_total": 54,
        "has_played": true,
        "id": 517403,
        "last_rank": 11034,
        "player_name": "Filip Meklin",
        "rank": 12969,
        "rank_sort": 12971,
        "total": 2392
      },
      {
        "club_badge_src": null,
        "entry": 125137,
        "entry_name": "United",
        "event_total": 60,
        "has_played": true,
        "id": 816156,
        "last_rank": 14102,
        "player_name": "Hadi Khalil",
        "rank": 12969,
        "rank_sort": 12972,
        "total": 2392
      },
      {
        "club_badge_src": "https://fantasy.premierleague.com/gcs/plfpl-production-adobe-approved/plfpl-production/185581/b1acdf07-0dbe-49d0-bb41-a0bacc1490aa.png",
        "entry": 185581,
        "entry_name": "Lallana\u2018s in Pyjamas",
        "event_total": 59,
        "has_played": true,
        "id": 1225995,
        "last_rank": 11482,
        "player_name": "Joe Whittingham",
        "rank": 12969,
        "rank_sort": 12973,
        "total": 2392
      },
      {
        "club_badge_src": "https://fantasy.premierleague.com/gcs/plfpl-production-adobe-approved/plfpl-production/225989/db235a61-cc22-47b6-9176-0d42095d7c52.png",
        "entry": 225989,
        "entry_name": "Ballon D'orgu",
        "event_total": 59,
        "has_played": true,
        "id": 1503372,
        "last_rank": 9644,
        "player_name": "Ian Bishop",
        "rank": 12969,
        "rank_sort": 12974,
        "total": 2392
      },
      {
        "club_badge_src": "https://fantasy.premierleague.com/gcs/plfpl-production-adobe-approved/plfpl-production/256185/26a3c6ec-8ad1-4967-827d-157a3fffe2e7.png",
        "entry": 256185,
        "entry_name": "Kinder Mbeumo",
        "event_total": 74,
        "has_played": true,
        "id": 1703876,
        "last_rank": 23748,
        "player_name": "Mark Miruzzi",
        "rank": 12969,
        "rank_sort": 12975,
        "total": 2392
      },
      {
        "club_badge_src": null,
        "entry": 293209,
        "entry_name": "Glory Glory Man Utd",
        "event_total": 44,
        "has_played": true,
        "id": 1957092,
        "last_rank": 7257,
        "player_name": "Reda Ryan",
        "rank": 12969,
        "rank_sort": 12976,
        "total": 2392
      },
      {
        "club_badge_src": null,
        "entry": 344535,
        "entry_name": "Bobble",
        "event_total": 63,
        "has_played": true,
        "id": 2306172,
        "last_rank": 15920,
        "player_name": "Clement McIntyre",
        "rank": 12969,
        "rank_sort": 12977,
        "total": 2392
      },
      {
        "club_badge_src": null,
        "entry": 522462,
        "entry_name": "Elgoker Dm",
        "event_total": 55,
        "has_played": true,
        "id": 3509008,
        "last_rank": 9751,
        "player_name": "Mohamed Elgoker",
        "rank": 12969,
        "rank_sort": 12978,
        "total": 2392
      },
      {
        "club_badge_src": null,
        "entry": 529631,
        "entry_name": "Me, myself, Ndiaye",
        "event_total": 59,
        "has_played": true,
        "id": 3561536,
        "last_rank": 13601,
        "player_name": "Ben Eakin",
        "rank": 12969,
        "rank_sort": 12979,
        "total": 2392
      },
      {
        "club_badge_src": null,
        "entry": 546615,
        "entry_name": "Victor Moses Lawn",
        "event_total": 57,
        "has_played": true,
        "id": 3678695,
        "last_rank": 12512,
        "player_name": "Greg Mort",
        "rank": 12969,
        "rank_sort": 12980,
        "total": 2392
      },
      {
        "club_badge_src": null,
        "entry": 1092351,
        "entry_name": "saka white rice",
        "event_total": 61,
        "has_played": true,
        "id": 7565486,
        "last_rank": 14668,
        "player_name": "Ryan Kelly-Gordon",
        "rank": 12969,
        "rank_sort": 12981,
        "total": 2392
      },
      {
        "club_badge_src": null,
        "entry": 1200742,
        "entry_name": "Mohamed",
        "event_total": 62,
        "has_played": true,
        "id": 8332558,
        "last_rank": 15226,
        "player_name": "Mohamed Essam",
        "rank": 12969,
        "rank_sort": 12982,
        "total": 2392
      },
      {
        "club_badge_src": null,
        "entry": 1202172,
        "entry_name": "Sibley's11",
        "event_total": 64,
        "has_played": true,
        "id": 8342508,
        "last_rank": 16567,
        "player_name": "Matt Sibley",
        "rank": 12969,
        "rank_sort": 12983,
        "total": 2392
      },
      {
        "club_badge_src": null,
        "entry": 1365107,
        "entry_name": "Classerundberg\u2b50\ufe0f",
        "event_total": 66,
        "has_played": true,
        "id": 9489692,
        "last_rank": 15226,
        "player_name": "Andreas Rundberg",
        "rank": 12969,
        "rank_sort": 12984,
        "total": 2392
      },
      {
        "club_badge_src": null,
        "entry": 1449663,
        "entry_name": "Lil Eze Vert",
        "event_total": 72,
        "has_played": true,
        "id": 10101408,
        "last_rank": 19176,
        "player_name": "Naveen Perera",
        "rank": 12969,
        "rank_sort": 12985,
        "total": 2392
      },
      {
        "club_badge_src": null,
        "entry": 1681271,
        "entry_name": "Norfolk Enchance",
        "event_total": 70,
        "has_played": true,
        "id": 11769724,
        "last_rank": 20678,
        "player_name": "Andy Taylor",
        "rank": 12969,
        "rank_sort": 12986,
        "total": 2392
      },
      {
        "club_badge_src": null,
        "entry": 1708052,
        "entry_name": "A Kick up the Rs",
        "event_total": 59,
        "has_played": true,
        "id": 11966812,
        "last_rank": 13558,
        "player_name": "Daniel Raggett",
        "rank": 12969,
        "rank_sort": 12987,
        "total": 2392
      },
      {
        "club_badge_src": null,
        "entry": 2060273,
        "entry_name": "Gyok Tuah",
        "event_total": 70,
        "has_played": true,
        "id": 14597133,
        "last_rank": 12846,
        "player_name": "Pratik Kapoor",
        "rank": 12969,
        "rank_sort": 12988,
        "total": 2392
      },
      {
        "club_badge_src": null,
        "entry": 2216901,
        "entry_name": "Oakley xi",
        "event_total": 64,
        "has_played": true,
        "id": 15788385,
        "last_rank": 16567,
        "player_name": "Rick Oakley",
        "rank": 12969,
        "rank_sort": 12989,
        "total": 2392
      },
      {
        "club_badge_src": "https://fantasy.premierleague.com/gcs/plfpl-production-adobe-approved/plfpl-production/2465665/1ae56e00-bf86-4b0b-9c29-60b2c9d4446d.png",
        "entry": 2465665,
        "entry_name": "AYOUB BmN",
        "event_total": 69,
        "has_played": true,
        "id": 17637321,
        "last_rank": 19966,
        "player_name": "Ayoub boumni",
        "rank": 12969,
        "rank_sort": 12990,
        "total": 2392
      },
      {
        "club_badge_src": null,
        "entry": 2708365,
        "entry_name": "Mehrez",
        "event_total": 55,
        "has_played": true,
        "id": 19485642,
        "last_rank": 11516,
        "player_name": "Ali Mehrez",
        "rank": 12969,
        "rank_sort": 12991,
        "total": 2392
      },
      {
        "club_badge_src": null,
        "entry": 2769654,
        "entry_name": "Fc Iggy",
        "event_total": 54,
        "has_played": true,
        "id": 20207966,
        "last_rank": 11080,
        "player_name": "Maciej Zapolski",
        "rank": 12969,
        "rank_sort": 12992,
        "total": 2392
      },
      {
        "club_badge_src": null,
        "entry": 3030308,
        "entry_name": "Paul Podba",
        "event_total": 67,
        "has_played": true,
        "id": 22298240,
        "last_rank": 18475,
        "player_name": "Andrew Byrne",
        "rank": 12969,
        "rank_sort": 12993,
        "total": 2392
      },
      {
        "club_badge_src": "https://fantasy.premierleague.com/gcs/plfpl-production-adobe-approved/plfpl-production/4846526/0ba63eef-15d9-469f-96c4-3780d9de5fa2.png",
        "entry": 4846526,
        "entry_name": "Nice one James",
        "event_total": 57,
        "has_played": true,
        "id": 37337326,
        "last_rank": 12322,
        "player_name": "James Kerton",
        "rank": 12969,
        "rank_sort": 12994,
        "total": 2392
      },
      {
        "club_badge_src": null,
        "entry": 5618189,
        "entry_name": "AS GTAFF",
        "event_total": 60,
        "has_played": true,
        "id": 43915110,
        "last_rank": 14148,
        "player_name": "Ganza Axel",
        "rank": 12969,
        "rank_sort": 12995,
        "total": 2392
      },
      {
        "club_badge_src": null,
        "entry": 5646647,
        "entry_name": "Palmer-la Handerson",
        "event_total": 57,
        "has_played": true,
        "id": 44168402,
        "last_rank": 12512,
        "player_name": "Daniel Gyi",
        "rank": 12969,
        "rank_sort": 12996,
        "total": 2392
      },
      {
        "club_badge_src": null,
        "entry": 6567042,
        "entry_name": "Stand street fc",
        "event_total": 72,
        "has_played": true,
        "id": 52418683,
        "last_rank": 22216,
        "player_name": "aidan murphy",
        "rank": 12969,
        "rank_sort": 12997,
        "total": 2392
      },
      {
        "club_badge_src": null,
        "entry": 6633476,
        "entry_name": "sarchaw bashi",
        "event_total": 75,
        "has_played": true,
        "id": 53017946,
        "last_rank": 21301,
        "player_name": "Rahand Ali",
        "rank": 12969,
        "rank_sort": 12998,
        "total": 2392
      },
      {
        "club_badge_src": null,
        "entry": 37846,
        "entry_name": "BeJarrudeNotTo",
        "event_total": 69,
        "has_played": true,
        "id": 242499,
        "last_rank": 19966,
        "player_name": "Adam Bidder",
        "rank": 12999,
        "rank_sort": 12999,
        "total": 2392
      },
      {
        "club_badge_src": null,
        "entry": 58329,
        "entry_name": "neville wears prada",
        "event_total": 36,
        "has_played": true,
        "id": 375735,
        "last_rank": 5092,
        "player_name": "zak raymen",
        "rank": 12999,
        "rank_sort": 13000,
        "total": 2392
      }
    ]
  }
}