{
  "last_updated_data": "2026-05-24T23:28:17Z",
  "league": {
    "admin_entry": null,
    "closed": false,
    "code_privacy": "p",
    "created": "2025-07-20T23:14:33.933835Z",
    "cup_league": 2815434,
    "has_cup": true,
    "id": 314,
    "league_type": "s",
    "max_entries": null,
    "name": "Overall",
    "rank": null,
    "scoring": "c",
    "start_event": 1
  },
  "new_entries": {
    "has_next": false,
    "page": 1,
    "results": []
  },
  "standings": {
    "has_next": true,
    "page": 210,
    "results": [
      {
        "club_badge_src": null,
        "entry": 2500759,
        "entry_name": "Stoke Pity",
        "event_total": 60,
        "has_played": true,
        "id": 17906279,
        "last_rank": 11175,
        "player_name": "Tom Oakes",
        "rank": 10388,
        "rank_sort": 10451,
        "total": 2397
      },
      {
        "club_badge_src": null,
        "entry": 2924159,
        "entry_name": "Panchoda FC",
        "event_total": 45,
        "has_played": true,
        "id": 21436546,
        "last_rank": 5940,
        "player_name": "Akshaye Khambh",
        "rank": 10388,
        "rank_sort": 10452,
        "total": 2397
      },
      {
        "club_badge_src": null,
        "entry": 2988907,
        "entry_name": "FC JayNova_Shdw",
        "event_total": 67,
        "has_played": true,
        "id": 21980915,
        "last_rank": 14857,
        "player_name": "Joseph Nsonde",
        "rank": 10388,
        "rank_sort": 10453,
        "total": 2397
      },
      {
        "club_badge_src": null,
        "entry": 3032956,
        "entry_name": "Orpheus Don't Look",
        "event_total": 59,
        "has_played": true,
        "id": 22319510,
        "last_rank": 10805,
        "player_name": "Emma Almond",
        "rank": 10388,
        "rank_sort": 10454,
        "total": 2397
      },
      {
        "club_badge_src": null,
        "entry": 3107761,
        "entry_name": "Shenanigator XI",
        "event_total": 51,
        "has_played": true,
        "id": 22922404,
        "last_rank": 7676,
        "player_name": "Niall Cunnigham",
        "rank": 10388,
        "rank_sort": 10455,
        "total": 2397
      },
      {
        "club_badge_src": null,
        "entry": 3226835,
        "entry_name": "Joe FC",
        "event_total": 48,
        "has_played": true,
        "id": 23863639,
        "last_rank": 6752,
        "player_name": "Mina Joseph",
        "rank": 10388,
        "rank_sort": 10456,
        "total": 2397
      },
      {
        "club_badge_src": null,
        "entry": 3243288,
        "entry_name": "Ashen-faced supremo",
        "event_total": 68,
        "has_played": true,
        "id": 23991217,
        "last_rank": 15550,
        "player_name": "Justin Hughes",
        "rank": 10388,
        "rank_sort": 10457,
        "total": 2397
      },
      {
        "club_badge_src": null,
        "entry": 3476395,
        "entry_name": "Rapid Decline",
        "event_total": 62,
        "has_played": true,
        "id": 25848330,
        "last_rank": 12109,
        "player_name": "Joe Dearsley",
        "rank": 10388,
        "rank_sort": 10458,
        "total": 2397
      },
      {
        "club_badge_src": null,
        "entry": 3505665,
        "entry_name": "CKP FC",
        "event_total": 53,
        "has_played": true,
        "id": 26079447,
        "last_rank": 8382,
        "player_name": "Christian Klitgaard Pedersen",
        "rank": 10388,
        "rank_sort": 10459,
        "total": 2397
      },
      {
        "club_badge_src": null,
        "entry": 3978374,
        "entry_name": "Change Name",
        "event_total": 58,
        "has_played": true,
        "id": 29945732,
        "last_rank": 10288,
        "player_name": "Andrew Curran",
        "rank": 10388,
        "rank_sort": 10460,
        "total": 2397
      },
      {
        "club_badge_src": "https://fantasy.premierleague.com/gcs/plfpl-production-adobe-approved/plfpl-production/3985405/04ac5017-e255-4ae2-94f6-6adf0e8579dc.png",
        "entry": 3985405,
        "entry_name": "Haalandslaget",
        "event_total": 58,
        "has_played": true,
        "id": 30004991,
        "last_rank": 10346,
        "player_name": "Alexander Hermansen",
        "rank": 10388,
        "rank_sort": 10461,
        "total": 2397
      },
      {
        "club_badge_src": null,
        "entry": 3986498,
        "entry_name": "Bradway Blades",
        "event_total": 56,
        "has_played": true,
        "id": 30013998,
        "last_rank": 9536,
        "player_name": "John Rawson",
        "rank": 10388,
        "rank_sort": 10462,
        "total": 2397
      },
      {
        "club_badge_src": "https://fantasy.premierleague.com/gcs/plfpl-production-adobe-approved/plfpl-production/4015426/829c222a-431f-4d21-b2dc-dd6fc448982d.png",
        "entry": 4015426,
        "entry_name": "Waboba FC",
        "event_total": 72,
        "has_played": true,
        "id": 30259390,
        "last_rank": 18029,
        "player_name": "Isaac Rothwell",
        "rank": 10388,
        "rank_sort": 10463,
        "total": 2397
      },
      {
        "club_badge_src": null,
        "entry": 4028234,
        "entry_name": "Earth Wind & Maguire",
        "event_total": 78,
        "has_played": true,
        "id": 30366058,
        "last_rank": 22426,
        "player_name": "Jason Maindonald",
        "rank": 10388,
        "rank_sort": 10464,
        "total": 2397
      },
      {
        "club_badge_src": "https://fantasy.premierleague.com/gcs/plfpl-production-adobe-approved/plfpl-production/4108593/e27308cb-84a4-497a-974d-08ce1f845367.png",
        "entry": 4108593,
        "entry_name": "Red Nevilles",
        "event_total": 57,
        "has_played": true,
        "id": 31028086,
        "last_rank": 8339,
        "player_name": "James Bruce",
        "rank": 10388,
        "rank_sort": 10465,
        "total": 2397
      },
      {
        "club_badge_src": "https://fantasy.premierleague.com/gcs/plfpl-production-adobe-approved/plfpl-production/4231643/7e217a10-d785-4e15-b55b-f0bb435dcdf0.png",
        "entry": 4231643,
        "entry_name": "Bananchester United",
        "event_total": 60,
        "has_played": true,
        "id": 32063001,
        "last_rank": 11237,
        "player_name": "Harald Faeste",
        "rank": 10388,
        "rank_sort": 10466,
        "total": 2397
      },
      {
        "club_badge_src": "https://fantasy.premierleague.com/gcs/plfpl-production-adobe-approved/plfpl-production/4260191/d07a6335-7992-4c80-adba-3979a396566c.png",
        "entry": 4260191,
        "entry_name": "SnoopUdogieDog",
        "event_total": 56,
        "has_played": true,
        "id": 32300433,
        "last_rank": 9536,
        "player_name": "Thanassis Mavrogiannis",
        "rank": 10388,
        "rank_sort": 10467,
        "total": 2397
      },
      {
        "club_badge_src": null,
        "entry": 4374173,
        "entry_name": "Mlta3_HFC",
        "event_total": 36,
        "has_played": true,
        "id": 33235203,
        "last_rank": 3866,
        "player_name": "Abdulaziz Al-Mahmoud",
        "rank": 10388,
        "rank_sort": 10468,
        "total": 2397
      },
      {
        "club_badge_src": null,
        "entry": 4508356,
        "entry_name": "Change Name",
        "event_total": 75,
        "has_played": true,
        "id": 34375234,
        "last_rank": 20131,
        "player_name": "Luke Pearce",
        "rank": 10388,
        "rank_sort": 10469,
        "total": 2397
      },
      {
        "club_badge_src": null,
        "entry": 4615219,
        "entry_name": "Sportimus Prime",
        "event_total": 67,
        "has_played": true,
        "id": 35272239,
        "last_rank": 14857,
        "player_name": "Arjun Radia",
        "rank": 10388,
        "rank_sort": 10470,
        "total": 2397
      },
      {
        "club_badge_src": null,
        "entry": 4644897,
        "entry_name": "For Better or Wirtz",
        "event_total": 51,
        "has_played": true,
        "id": 35530798,
        "last_rank": 7761,
        "player_name": "Adam Alexander Neill",
        "rank": 10388,
        "rank_sort": 10471,
        "total": 2397
      },
      {
        "club_badge_src": null,
        "entry": 4783657,
        "entry_name": "Lincoln City",
        "event_total": 67,
        "has_played": true,
        "id": 36825585,
        "last_rank": 14857,
        "player_name": "Scott Lincoln",
        "rank": 10388,
        "rank_sort": 10472,
        "total": 2397
      },
      {
        "club_badge_src": "https://fantasy.premierleague.com/gcs/plfpl-production-adobe-approved/plfpl-production/4949946/3e6118b3-4323-4eaf-86f2-213f1b01174e.png",
        "entry": 4949946,
        "entry_name": "Lasc FC",
        "event_total": 61,
        "has_played": true,
        "id": 38194629,
        "last_rank": 11699,
        "player_name": "Abioro Olamide",
        "rank": 10388,
        "rank_sort": 10473,
        "total": 2397
      },
      {
        "club_badge_src": null,
        "entry": 5561426,
        "entry_name": "Gyok Tuah",
        "event_total": 66,
        "has_played": true,
        "id": 43417508,
        "last_rank": 14370,
        "player_name": "harry mohammed",
        "rank": 10388,
        "rank_sort": 10474,
        "total": 2397
      },
      {
        "club_badge_src": null,
        "entry": 5644691,
        "entry_name": "\u0160e\u0161ko Yanited",
        "event_total": 64,
        "has_played": true,
        "id": 44149574,
        "last_rank": 13257,
        "player_name": "Patrik Mertik",
        "rank": 10388,
        "rank_sort": 10475,
        "total": 2397
      },
      {
        "club_badge_src": null,
        "entry": 5656871,
        "entry_name": "sweatygooners fc",
        "event_total": 49,
        "has_played": true,
        "id": 44255300,
        "last_rank": 7059,
        "player_name": "Thomas Kneller",
        "rank": 10388,
        "rank_sort": 10476,
        "total": 2397
      },
      {
        "club_badge_src": null,
        "entry": 5709107,
        "entry_name": "HaCunha Matata",
        "event_total": 60,
        "has_played": true,
        "id": 44706271,
        "last_rank": 11175,
        "player_name": "Tariq Rajwani",
        "rank": 10388,
        "rank_sort": 10477,
        "total": 2397
      },
      {
        "club_badge_src": null,
        "entry": 5773516,
        "entry_name": "WirtzTheStory?!",
        "event_total": 57,
        "has_played": true,
        "id": 45266681,
        "last_rank": 9885,
        "player_name": "Callum Lawson-Gallagher",
        "rank": 10388,
        "rank_sort": 10478,
        "total": 2397
      },
      {
        "club_badge_src": null,
        "entry": 5826770,
        "entry_name": "jordanedwards",
        "event_total": 62,
        "has_played": true,
        "id": 45730207,
        "last_rank": 12200,
        "player_name": "Jordan Edwards",
        "rank": 10388,
        "rank_sort": 10479,
        "total": 2397
      },
      {
        "club_badge_src": null,
        "entry": 5970523,
        "entry_name": "Wayne's World",
        "event_total": 69,
        "has_played": true,
        "id": 46982614,
        "last_rank": 16029,
        "player_name": "Tony Vandenburg",
        "rank": 10388,
        "rank_sort": 10480,
        "total": 2397
      },
      {
        "club_badge_src": null,
        "entry": 5977395,
        "entry_name": "FC Beans on Toast",
        "event_total": 60,
        "has_played": true,
        "id": 47057066,
        "last_rank": 11237,
        "player_name": "Amanda Barcock",
        "rank": 10388,
        "rank_sort": 10481,
        "total": 2397
      },
      {
        "club_badge_src": null,
        "entry": 6376128,
        "entry_name": "Glenroy Trackside FC",
        "event_total": 52,
        "has_played": true,
        "id": 50708197,
        "last_rank": 7979,
        "player_name": "Tom Biltoft",
        "rank": 10388,
        "rank_sort": 10482,
        "total": 2397
      },
      {
        "club_badge_src": null,
        "entry": 6589786,
        "entry_name": "Frostasy",
        "event_total": 67,
        "has_played": true,
        "id": 52629432,
        "last_rank": 14926,
        "player_name": "Frosina Stamenkovska",
        "rank": 10388,
        "rank_sort": 10483,
        "total": 2397
      },
      {
        "club_badge_src": null,
        "entry": 6664266,
        "entry_name": "Tyrolias_trusler",
        "event_total": 58,
        "has_played": true,
        "id": 53295607,
        "last_rank": 10263,
        "player_name": "Marius Kiersgaared",
        "rank": 10388,
        "rank_sort": 10484,
        "total": 2397
      },
      {
        "club_badge_src": null,
        "entry": 6735523,
        "entry_name": "Sakayo Buka",
        "event_total": 62,
        "has_played": true,
        "id": 53913783,
        "last_rank": 12109,
        "player_name": "Candace Lo",
        "rank": 10388,
        "rank_sort": 10485,
        "total": 2397
      },
      {
        "club_badge_src": null,
        "entry": 6820463,
        "entry_name": "Wirtz Nightmare",
        "event_total": 64,
        "has_played": true,
        "id": 54627998,
        "last_rank": 13257,
        "player_name": "Barry Rose",
        "rank": 10388,
        "rank_sort": 10486,
        "total": 2397
      },
      {
        "club_badge_src": null,
        "entry": 6866626,
        "entry_name": "\u0641\u0631\u064a\u0642 \u0627\u0644\u0635\u0642\u0648\u0631",
        "event_total": 61,
        "has_played": true,
        "id": 55021673,
        "last_rank": 11699,
        "player_name": "Abderrahim Yahia Cherif",
        "rank": 10388,
        "rank_sort": 10487,
        "total": 2397
      },
      {
        "club_badge_src": null,
        "entry": 7015174,
        "entry_name": "El11",
        "event_total": 57,
        "has_played": true,
        "id": 56342847,
        "last_rank": 9885,
        "player_name": "Anto Paul",
        "rank": 10388,
        "rank_sort": 10488,
        "total": 2397
      },
      {
        "club_badge_src": null,
        "entry": 7050190,
        "entry_name": "Kyrkheddinges Herdar",
        "event_total": 73,
        "has_played": true,
        "id": 56699316,
        "last_rank": 18691,
        "player_name": "Johannes Tillman",
        "rank": 10388,
        "rank_sort": 10489,
        "total": 2397
      },
      {
        "club_badge_src": null,
        "entry": 7259542,
        "entry_name": "ANAS MH",
        "event_total": 42,
        "has_played": true,
        "id": 58695780,
        "last_rank": 5173,
        "player_name": "Anas Muhanna",
        "rank": 10388,
        "rank_sort": 10490,
        "total": 2397
      },
      {
        "club_badge_src": null,
        "entry": 7287248,
        "entry_name": "Jimmy's Legends",
        "event_total": 65,
        "has_played": true,
        "id": 58957322,
        "last_rank": 13754,
        "player_name": "james hale",
        "rank": 10388,
        "rank_sort": 10491,
        "total": 2397
      },
      {
        "club_badge_src": null,
        "entry": 7482770,
        "entry_name": "Ant Utd",
        "event_total": 68,
        "has_played": true,
        "id": 61058991,
        "last_rank": 15452,
        "player_name": "Antti Rokka",
        "rank": 10388,
        "rank_sort": 10492,
        "total": 2397
      },
      {
        "club_badge_src": null,
        "entry": 7746345,
        "entry_name": "Winging It",
        "event_total": 57,
        "has_played": true,
        "id": 63588083,
        "last_rank": 9942,
        "player_name": "Daniel Hall",
        "rank": 10388,
        "rank_sort": 10493,
        "total": 2397
      },
      {
        "club_badge_src": null,
        "entry": 7833682,
        "entry_name": "Johnleslie FC",
        "event_total": 61,
        "has_played": true,
        "id": 64379600,
        "last_rank": 11699,
        "player_name": "Leslie John",
        "rank": 10388,
        "rank_sort": 10494,
        "total": 2397
      },
      {
        "club_badge_src": null,
        "entry": 7943621,
        "entry_name": "Olosho FC",
        "event_total": 78,
        "has_played": true,
        "id": 65382688,
        "last_rank": 22534,
        "player_name": "Jimmi Ani",
        "rank": 10388,
        "rank_sort": 10495,
        "total": 2397
      },
      {
        "club_badge_src": null,
        "entry": 8104592,
        "entry_name": "Victorious Secrets",
        "event_total": 62,
        "has_played": true,
        "id": 66843600,
        "last_rank": 12141,
        "player_name": "Mohit Dutta",
        "rank": 10388,
        "rank_sort": 10496,
        "total": 2397
      },
      {
        "club_badge_src": "https://fantasy.premierleague.com/gcs/plfpl-production-adobe-approved/plfpl-production/8133653/955fefcc-5c48-4ce3-836d-36aea75dacf8.png",
        "entry": 8133653,
        "entry_name": "LK Bulls",
        "event_total": 61,
        "has_played": true,
        "id": 67115704,
        "last_rank": 11699,
        "player_name": "Zoltan Jarai",
        "rank": 10388,
        "rank_sort": 10497,
        "total": 2397
      },
      {
        "club_badge_src": null,
        "entry": 9040666,
        "entry_name": "Red Star Old Age",
        "event_total": 61,
        "has_played": true,
        "id": 75873870,
        "last_rank": 11699,
        "player_name": "Kevin Hamilton-Smith",
        "rank": 10388,
        "rank_sort": 10498,
        "total": 2397
      },
      {
        "club_badge_src": null,
        "entry": 9105099,
        "entry_name": "Sheep Game 11",
        "event_total": 53,
        "has_played": true,
        "id": 76502016,
        "last_rank": 8339,
        "player_name": "Ruairi Winston",
        "rank": 10388,
        "rank_sort": 10499,
        "total": 2397
      },
      {
        "club_badge_src": null,
        "entry": 9152785,
        "entry_name": "Houtie Group Limited",
        "event_total": 71,
        "has_played": true,
        "id": 76967997,
        "last_rank": 17437,
        "player_name": "Liam Conradie",
        "rank": 10388,
        "rank_sort": 10500,
        "total": 2397
      }
    ]
  }
}