{
  "last_updated_data": "2026-05-24T23:28:17Z",
  "league": {
    "admin_entry": null,
    "closed": false,
    "code_privacy": "p",
    "created": "2025-07-20T23:14:33.933835Z",
    "cup_league": 2815434,
    "has_cup": true,
    "id": 314,
    "league_type": "s",
    "max_entries": null,
    "name": "Overall",
    "rank": null,
    "scoring": "c",
    "start_event": 1
  },
  "new_entries": {
    "has_next": false,
    "page": 1,
    "results": []
  },
  "standings": {
    "has_next": true,
    "page": 179,
    "results": [
      {
        "club_badge_src": null,
        "entry": 6355206,
        "entry_name": "Acunha Matata",
        "event_total": 72,
        "has_played": true,
        "id": 50524768,
        "last_rank": 15550,
        "player_name": "Andrew Gofton",
        "rank": 8819,
        "rank_sort": 8901,
        "total": 2401
      },
      {
        "club_badge_src": null,
        "entry": 6503838,
        "entry_name": "RobLeeDixonEtuhu",
        "event_total": 53,
        "has_played": true,
        "id": 51856021,
        "last_rank": 7059,
        "player_name": "Ari Knap",
        "rank": 8819,
        "rank_sort": 8902,
        "total": 2401
      },
      {
        "club_badge_src": null,
        "entry": 6616650,
        "entry_name": "Mohammed",
        "event_total": 40,
        "has_played": true,
        "id": 52871000,
        "last_rank": 3951,
        "player_name": "Mohammed Spurs",
        "rank": 8819,
        "rank_sort": 8903,
        "total": 2401
      },
      {
        "club_badge_src": null,
        "entry": 6685396,
        "entry_name": "Doesn't Mata",
        "event_total": 61,
        "has_played": true,
        "id": 53479645,
        "last_rank": 9942,
        "player_name": "Abdullah Alhasan",
        "rank": 8819,
        "rank_sort": 8904,
        "total": 2401
      },
      {
        "club_badge_src": null,
        "entry": 6763457,
        "entry_name": "StephSmithSquad",
        "event_total": 79,
        "has_played": true,
        "id": 54152742,
        "last_rank": 20147,
        "player_name": "Stephanie Smith",
        "rank": 8819,
        "rank_sort": 8905,
        "total": 2401
      },
      {
        "club_badge_src": null,
        "entry": 6794009,
        "entry_name": "Bj\u00f8rneboys United",
        "event_total": 66,
        "has_played": true,
        "id": 54407291,
        "last_rank": 12200,
        "player_name": "Fredrik Bj\u00f8rn\u00f8y",
        "rank": 8819,
        "rank_sort": 8906,
        "total": 2401
      },
      {
        "club_badge_src": null,
        "entry": 6994936,
        "entry_name": "KC",
        "event_total": 62,
        "has_played": true,
        "id": 56155627,
        "last_rank": 10288,
        "player_name": "Kit Corrigan",
        "rank": 8819,
        "rank_sort": 8907,
        "total": 2401
      },
      {
        "club_badge_src": null,
        "entry": 7069229,
        "entry_name": "Back of the Neto",
        "event_total": 62,
        "has_played": true,
        "id": 56882059,
        "last_rank": 10346,
        "player_name": "Ben Gordon",
        "rank": 8819,
        "rank_sort": 8908,
        "total": 2401
      },
      {
        "club_badge_src": null,
        "entry": 7710602,
        "entry_name": "The Wenger boys",
        "event_total": 54,
        "has_played": true,
        "id": 63265957,
        "last_rank": 7375,
        "player_name": "Ondra \u0160auer",
        "rank": 8819,
        "rank_sort": 8909,
        "total": 2401
      },
      {
        "club_badge_src": null,
        "entry": 7834196,
        "entry_name": "abdo talmate",
        "event_total": 70,
        "has_played": true,
        "id": 64384856,
        "last_rank": 14370,
        "player_name": "abderahim talmate",
        "rank": 8819,
        "rank_sort": 8910,
        "total": 2401
      },
      {
        "club_badge_src": null,
        "entry": 8012815,
        "entry_name": "\u0928\u0940\u0932\u0935\u0940\u0930\u094d\u092f",
        "event_total": 51,
        "has_played": true,
        "id": 65999849,
        "last_rank": 5400,
        "player_name": "SOUMYADEEP BHOWAL",
        "rank": 8819,
        "rank_sort": 8911,
        "total": 2401
      },
      {
        "club_badge_src": null,
        "entry": 8888888,
        "entry_name": "L\u00e5venFC",
        "event_total": 67,
        "has_played": true,
        "id": 74400770,
        "last_rank": 12645,
        "player_name": "Gilbert Hove",
        "rank": 8819,
        "rank_sort": 8912,
        "total": 2401
      },
      {
        "club_badge_src": null,
        "entry": 8943661,
        "entry_name": "AS",
        "event_total": 60,
        "has_played": true,
        "id": 74936881,
        "last_rank": 9484,
        "player_name": "Astri Skjesol",
        "rank": 8819,
        "rank_sort": 8913,
        "total": 2401
      },
      {
        "club_badge_src": null,
        "entry": 9244020,
        "entry_name": "Swifties United",
        "event_total": 55,
        "has_played": true,
        "id": 77864279,
        "last_rank": 7625,
        "player_name": "Marilen J\u00f8rgensen",
        "rank": 8819,
        "rank_sort": 8914,
        "total": 2401
      },
      {
        "club_badge_src": null,
        "entry": 9417815,
        "entry_name": "Shorten Sweet",
        "event_total": 67,
        "has_played": true,
        "id": 79545122,
        "last_rank": 12705,
        "player_name": "Donagh Shorten",
        "rank": 8819,
        "rank_sort": 8915,
        "total": 2401
      },
      {
        "club_badge_src": null,
        "entry": 1369,
        "entry_name": "SharpShooters",
        "event_total": 59,
        "has_played": true,
        "id": 7615,
        "last_rank": 7676,
        "player_name": "Jason Brunning",
        "rank": 8916,
        "rank_sort": 8916,
        "total": 2401
      },
      {
        "club_badge_src": null,
        "entry": 5955,
        "entry_name": "Behind Emery Lines",
        "event_total": 63,
        "has_played": true,
        "id": 34071,
        "last_rank": 9142,
        "player_name": "Sam Young",
        "rank": 8916,
        "rank_sort": 8917,
        "total": 2401
      },
      {
        "club_badge_src": null,
        "entry": 9208,
        "entry_name": "Can\u2019t Get Any Wirtz",
        "event_total": 66,
        "has_played": true,
        "id": 54041,
        "last_rank": 10346,
        "player_name": "Justin Zhao",
        "rank": 8916,
        "rank_sort": 8918,
        "total": 2401
      },
      {
        "club_badge_src": null,
        "entry": 14060,
        "entry_name": "Haaland",
        "event_total": 61,
        "has_played": true,
        "id": 85188,
        "last_rank": 8382,
        "player_name": "Konstantinos Vlahos",
        "rank": 8916,
        "rank_sort": 8919,
        "total": 2401
      },
      {
        "club_badge_src": "https://fantasy.premierleague.com/gcs/plfpl-production-adobe-approved/plfpl-production/27045/7fe9ec19-adee-44f7-a446-3515f0b2d3fc.png",
        "entry": 27045,
        "entry_name": "Dak",
        "event_total": 62,
        "has_played": true,
        "id": 170987,
        "last_rank": 10346,
        "player_name": "Daniil Karsaev",
        "rank": 8916,
        "rank_sort": 8920,
        "total": 2401
      },
      {
        "club_badge_src": null,
        "entry": 30158,
        "entry_name": "The Nai",
        "event_total": 56,
        "has_played": true,
        "id": 190841,
        "last_rank": 8032,
        "player_name": "Tanai Kattinanon",
        "rank": 8916,
        "rank_sort": 8921,
        "total": 2401
      },
      {
        "club_badge_src": null,
        "entry": 36051,
        "entry_name": "FC Special Ones",
        "event_total": 65,
        "has_played": true,
        "id": 230714,
        "last_rank": 9942,
        "player_name": "Darek Guzik",
        "rank": 8916,
        "rank_sort": 8922,
        "total": 2401
      },
      {
        "club_badge_src": null,
        "entry": 40860,
        "entry_name": "rammsteind",
        "event_total": 65,
        "has_played": true,
        "id": 261906,
        "last_rank": 9942,
        "player_name": "Syed Nazri",
        "rank": 8916,
        "rank_sort": 8923,
        "total": 2401
      },
      {
        "club_badge_src": "https://fantasy.premierleague.com/gcs/plfpl-production-adobe-approved/plfpl-production/42455/44d226e9-7fbb-4acb-bea3-23a0a43460fb.png",
        "entry": 42455,
        "entry_name": "Pippo Inzaghi",
        "event_total": 55,
        "has_played": true,
        "id": 272015,
        "last_rank": 7676,
        "player_name": "Milos Zvekic",
        "rank": 8916,
        "rank_sort": 8924,
        "total": 2401
      },
      {
        "club_badge_src": null,
        "entry": 50407,
        "entry_name": "Tassen spiller FPL",
        "event_total": 66,
        "has_played": true,
        "id": 324213,
        "last_rank": 10346,
        "player_name": "Edvard Bergaust",
        "rank": 8916,
        "rank_sort": 8925,
        "total": 2401
      },
      {
        "club_badge_src": null,
        "entry": 63595,
        "entry_name": "Kinder Mbeumo",
        "event_total": 63,
        "has_played": true,
        "id": 410371,
        "last_rank": 9089,
        "player_name": "Joe Jermy",
        "rank": 8916,
        "rank_sort": 8926,
        "total": 2401
      },
      {
        "club_badge_src": null,
        "entry": 64894,
        "entry_name": "Rutter Woke Nonsense",
        "event_total": 66,
        "has_played": true,
        "id": 418894,
        "last_rank": 12322,
        "player_name": "Mitchell Taylor",
        "rank": 8916,
        "rank_sort": 8927,
        "total": 2401
      },
      {
        "club_badge_src": null,
        "entry": 130314,
        "entry_name": "DontLookBackInAgger",
        "event_total": 66,
        "has_played": true,
        "id": 849183,
        "last_rank": 12322,
        "player_name": "Mikaeel Rahman",
        "rank": 8916,
        "rank_sort": 8928,
        "total": 2401
      },
      {
        "club_badge_src": "https://fantasy.premierleague.com/gcs/plfpl-production-adobe-approved/plfpl-production/151234/d7346e12-a0f8-4a1e-88e8-1071f909ee9a.png",
        "entry": 151234,
        "entry_name": "Le Fee C'est Chic",
        "event_total": 66,
        "has_played": true,
        "id": 992119,
        "last_rank": 10346,
        "player_name": "Jak Fletcher",
        "rank": 8916,
        "rank_sort": 8929,
        "total": 2401
      },
      {
        "club_badge_src": null,
        "entry": 171494,
        "entry_name": "PSJ UTD",
        "event_total": 64,
        "has_played": true,
        "id": 1132905,
        "last_rank": 11237,
        "player_name": "P.S. Jin",
        "rank": 8916,
        "rank_sort": 8930,
        "total": 2401
      },
      {
        "club_badge_src": "https://fantasy.premierleague.com/gcs/plfpl-production-adobe-approved/plfpl-production/223099/4f1b4cfd-3647-4c48-87bb-66352e759790.png",
        "entry": 223099,
        "entry_name": "\u731c\u6f84\u5c0b",
        "event_total": 52,
        "has_played": true,
        "id": 1484072,
        "last_rank": 6703,
        "player_name": "Ryan Kwok",
        "rank": 8916,
        "rank_sort": 8931,
        "total": 2401
      },
      {
        "club_badge_src": "https://fantasy.premierleague.com/gcs/plfpl-production-adobe-approved/plfpl-production/242522/ca7d351e-9578-43bc-873f-017b3df8fe0c.png",
        "entry": 242522,
        "entry_name": "Viktory Road",
        "event_total": 61,
        "has_played": true,
        "id": 1614589,
        "last_rank": 10031,
        "player_name": "Dean Slade",
        "rank": 8916,
        "rank_sort": 8932,
        "total": 2401
      },
      {
        "club_badge_src": null,
        "entry": 262746,
        "entry_name": "b2b2b2b",
        "event_total": 55,
        "has_played": true,
        "id": 1746844,
        "last_rank": 7761,
        "player_name": "Ajay Chada",
        "rank": 8916,
        "rank_sort": 8933,
        "total": 2401
      },
      {
        "club_badge_src": null,
        "entry": 319055,
        "entry_name": "Team Meat",
        "event_total": 58,
        "has_played": true,
        "id": 2138733,
        "last_rank": 7375,
        "player_name": "Amit Tailor",
        "rank": 8916,
        "rank_sort": 8934,
        "total": 2401
      },
      {
        "club_badge_src": "https://fantasy.premierleague.com/gcs/plfpl-production-adobe-approved/plfpl-production/394533/11552fab-bce4-4276-a5d7-a8951c7dc286.png",
        "entry": 394533,
        "entry_name": "Win Panupon",
        "event_total": 66,
        "has_played": true,
        "id": 2645853,
        "last_rank": 10346,
        "player_name": "Win Panupon",
        "rank": 8916,
        "rank_sort": 8935,
        "total": 2401
      },
      {
        "club_badge_src": null,
        "entry": 414241,
        "entry_name": "cyfrowecwaniaki",
        "event_total": 67,
        "has_played": true,
        "id": 2777098,
        "last_rank": 12846,
        "player_name": "Karol Wajs",
        "rank": 8916,
        "rank_sort": 8936,
        "total": 2401
      },
      {
        "club_badge_src": null,
        "entry": 493457,
        "entry_name": "Flaker Biot",
        "event_total": 69,
        "has_played": true,
        "id": 3312403,
        "last_rank": 13754,
        "player_name": "Flaker Biot",
        "rank": 8916,
        "rank_sort": 8937,
        "total": 2401
      },
      {
        "club_badge_src": null,
        "entry": 542826,
        "entry_name": "The Gunners",
        "event_total": 65,
        "has_played": true,
        "id": 3653436,
        "last_rank": 9885,
        "player_name": "Homoud AlRasheed",
        "rank": 8916,
        "rank_sort": 8938,
        "total": 2401
      },
      {
        "club_badge_src": null,
        "entry": 548198,
        "entry_name": "Flying Without Ings",
        "event_total": 60,
        "has_played": true,
        "id": 3689381,
        "last_rank": 9484,
        "player_name": "Ryan Jenkins",
        "rank": 8916,
        "rank_sort": 8939,
        "total": 2401
      },
      {
        "club_badge_src": null,
        "entry": 568688,
        "entry_name": "Woyzeck Warriors*",
        "event_total": 64,
        "has_played": true,
        "id": 3827608,
        "last_rank": 11237,
        "player_name": "Webko Wuite",
        "rank": 8916,
        "rank_sort": 8940,
        "total": 2401
      },
      {
        "club_badge_src": "https://fantasy.premierleague.com/gcs/plfpl-production-adobe-approved/plfpl-production/569443/45aa2ae6-d8e4-47e7-a1d1-96d67aecd1f7.png",
        "entry": 569443,
        "entry_name": "PSV HANGOVER",
        "event_total": 57,
        "has_played": true,
        "id": 3832633,
        "last_rank": 7059,
        "player_name": "Oliver Dean",
        "rank": 8916,
        "rank_sort": 8941,
        "total": 2401
      },
      {
        "club_badge_src": null,
        "entry": 571756,
        "entry_name": "Sparrows Birds",
        "event_total": 54,
        "has_played": true,
        "id": 3847902,
        "last_rank": 7310,
        "player_name": "Harry Sparrow",
        "rank": 8916,
        "rank_sort": 8942,
        "total": 2401
      },
      {
        "club_badge_src": "https://fantasy.premierleague.com/gcs/plfpl-production-adobe-approved/plfpl-production/576669/2e06e298-37b8-4a88-b323-0194e3ae8026.png",
        "entry": 576669,
        "entry_name": "Arteta Hairlines Ltd",
        "event_total": 59,
        "has_played": true,
        "id": 3880437,
        "last_rank": 7625,
        "player_name": "David R",
        "rank": 8916,
        "rank_sort": 8943,
        "total": 2401
      },
      {
        "club_badge_src": null,
        "entry": 577472,
        "entry_name": "Wirtz of wisdom",
        "event_total": 74,
        "has_played": true,
        "id": 3885753,
        "last_rank": 14370,
        "player_name": "Joshua Keveren",
        "rank": 8916,
        "rank_sort": 8944,
        "total": 2401
      },
      {
        "club_badge_src": null,
        "entry": 638375,
        "entry_name": "Eze come, Eze go",
        "event_total": 60,
        "has_played": true,
        "id": 4314438,
        "last_rank": 9536,
        "player_name": "Ben Holt",
        "rank": 8916,
        "rank_sort": 8945,
        "total": 2401
      },
      {
        "club_badge_src": null,
        "entry": 672359,
        "entry_name": "Sunny Side",
        "event_total": 54,
        "has_played": true,
        "id": 4547926,
        "last_rank": 7450,
        "player_name": "Morten Grongstad",
        "rank": 8916,
        "rank_sort": 8946,
        "total": 2401
      },
      {
        "club_badge_src": "https://fantasy.premierleague.com/gcs/plfpl-production-adobe-approved/plfpl-production/737584/3a8fa735-9dbb-4746-9283-53725984a4a9.png",
        "entry": 737584,
        "entry_name": "FC Disaster",
        "event_total": 72,
        "has_played": true,
        "id": 5014398,
        "last_rank": 15694,
        "player_name": "Martin Jonsson",
        "rank": 8916,
        "rank_sort": 8947,
        "total": 2401
      },
      {
        "club_badge_src": "https://fantasy.premierleague.com/gcs/plfpl-production-adobe-approved/plfpl-production/740787/21c74d1b-d1f0-4206-94fd-8aedbc1a723c.png",
        "entry": 740787,
        "entry_name": "KUNlegend",
        "event_total": 67,
        "has_played": true,
        "id": 5037329,
        "last_rank": 12705,
        "player_name": "Rushil Matta",
        "rank": 8916,
        "rank_sort": 8948,
        "total": 2401
      },
      {
        "club_badge_src": null,
        "entry": 889652,
        "entry_name": "Elvis Lives",
        "event_total": 72,
        "has_played": true,
        "id": 6102407,
        "last_rank": 15550,
        "player_name": "Eddy Whatt",
        "rank": 8916,
        "rank_sort": 8949,
        "total": 2401
      },
      {
        "club_badge_src": null,
        "entry": 903817,
        "entry_name": "Slots Guld",
        "event_total": 45,
        "has_played": true,
        "id": 6210365,
        "last_rank": 5011,
        "player_name": "Karl Strig\u00e9n",
        "rank": 8916,
        "rank_sort": 8950,
        "total": 2401
      }
    ]
  }
}