{
  "last_updated_data": "2026-05-24T23:28:17Z",
  "league": {
    "admin_entry": null,
    "closed": false,
    "code_privacy": "p",
    "created": "2025-07-20T23:14:33.933835Z",
    "cup_league": 2815434,
    "has_cup": true,
    "id": 314,
    "league_type": "s",
    "max_entries": null,
    "name": "Overall",
    "rank": null,
    "scoring": "c",
    "start_event": 1
  },
  "new_entries": {
    "has_next": false,
    "page": 1,
    "results": []
  },
  "standings": {
    "has_next": true,
    "page": 1059,
    "results": [
      {
        "club_badge_src": null,
        "entry": 2060846,
        "entry_name": "Net Six & Chill",
        "event_total": 62,
        "has_played": true,
        "id": 14601326,
        "last_rank": 61606,
        "player_name": "Henry Jones",
        "rank": 52759,
        "rank_sort": 52901,
        "total": 2350
      },
      {
        "club_badge_src": null,
        "entry": 2088982,
        "entry_name": "GingerSnaps2025",
        "event_total": 61,
        "has_played": true,
        "id": 14820724,
        "last_rank": 60168,
        "player_name": "Sherry Webster",
        "rank": 52759,
        "rank_sort": 52902,
        "total": 2350
      },
      {
        "club_badge_src": null,
        "entry": 2099557,
        "entry_name": "odazct",
        "event_total": 58,
        "has_played": true,
        "id": 14897219,
        "last_rank": 54667,
        "player_name": "Vee Obey",
        "rank": 52759,
        "rank_sort": 52903,
        "total": 2350
      },
      {
        "club_badge_src": null,
        "entry": 2151155,
        "entry_name": "Norfolk n' good",
        "event_total": 68,
        "has_played": true,
        "id": 15290388,
        "last_rank": 73038,
        "player_name": "David Murphy",
        "rank": 52759,
        "rank_sort": 52904,
        "total": 2350
      },
      {
        "club_badge_src": null,
        "entry": 2163218,
        "entry_name": "Diamond Team",
        "event_total": 62,
        "has_played": true,
        "id": 15377930,
        "last_rank": 54667,
        "player_name": "Eng Loon Lim",
        "rank": 52759,
        "rank_sort": 52905,
        "total": 2350
      },
      {
        "club_badge_src": null,
        "entry": 2167366,
        "entry_name": "Bathclub",
        "event_total": 51,
        "has_played": true,
        "id": 15409415,
        "last_rank": 44048,
        "player_name": "Axl Hu",
        "rank": 52759,
        "rank_sort": 52906,
        "total": 2350
      },
      {
        "club_badge_src": null,
        "entry": 2190568,
        "entry_name": "Bowen Arrow 2.0 *",
        "event_total": 72,
        "has_played": true,
        "id": 15584790,
        "last_rank": 81312,
        "player_name": "Keelan Stanton",
        "rank": 52759,
        "rank_sort": 52907,
        "total": 2350
      },
      {
        "club_badge_src": null,
        "entry": 2212333,
        "entry_name": "FC BDB",
        "event_total": 39,
        "has_played": true,
        "id": 15754484,
        "last_rank": 29904,
        "player_name": "Brecht De Baer",
        "rank": 52759,
        "rank_sort": 52908,
        "total": 2350
      },
      {
        "club_badge_src": "https://fantasy.premierleague.com/gcs/plfpl-production-adobe-approved/plfpl-production/2237730/323406b6-1e67-4d33-9edf-c037a941cf5a.png",
        "entry": 2237730,
        "entry_name": "Souma1",
        "event_total": 60,
        "has_played": true,
        "id": 15941696,
        "last_rank": 51403,
        "player_name": "soulayman Harbi",
        "rank": 52759,
        "rank_sort": 52909,
        "total": 2350
      },
      {
        "club_badge_src": null,
        "entry": 2245235,
        "entry_name": "Wallybanters Junkbox",
        "event_total": 75,
        "has_played": true,
        "id": 15996851,
        "last_rank": 89055,
        "player_name": "Nicky Pear",
        "rank": 52759,
        "rank_sort": 52910,
        "total": 2350
      },
      {
        "club_badge_src": null,
        "entry": 2320742,
        "entry_name": "Shampions United",
        "event_total": 65,
        "has_played": true,
        "id": 16555517,
        "last_rank": 67063,
        "player_name": "Shamendran Pillay",
        "rank": 52759,
        "rank_sort": 52911,
        "total": 2350
      },
      {
        "club_badge_src": null,
        "entry": 2374729,
        "entry_name": "leeds city slickers",
        "event_total": 65,
        "has_played": true,
        "id": 16953102,
        "last_rank": 66848,
        "player_name": "Alex Winfield",
        "rank": 52759,
        "rank_sort": 52912,
        "total": 2350
      },
      {
        "club_badge_src": "https://fantasy.premierleague.com/gcs/plfpl-production-adobe-approved/plfpl-production/2375568/daeacf1b-2451-46cb-91ea-1dc7e1b78f0b.png",
        "entry": 2375568,
        "entry_name": "United in Sorrow",
        "event_total": 59,
        "has_played": true,
        "id": 16959427,
        "last_rank": 56708,
        "player_name": "Taras S",
        "rank": 52759,
        "rank_sort": 52913,
        "total": 2350
      },
      {
        "club_badge_src": null,
        "entry": 2465761,
        "entry_name": "3mk",
        "event_total": 65,
        "has_played": true,
        "id": 17638028,
        "last_rank": 67422,
        "player_name": "Ashraf Khaled",
        "rank": 52759,
        "rank_sort": 52914,
        "total": 2350
      },
      {
        "club_badge_src": null,
        "entry": 2478842,
        "entry_name": "NAVI FC",
        "event_total": 70,
        "has_played": true,
        "id": 17736210,
        "last_rank": 77258,
        "player_name": "Navaneeth Km",
        "rank": 52759,
        "rank_sort": 52915,
        "total": 2350
      },
      {
        "club_badge_src": null,
        "entry": 2497325,
        "entry_name": "Lax\u00e5 FF",
        "event_total": 55,
        "has_played": true,
        "id": 17879805,
        "last_rank": 50199,
        "player_name": "Robin Laakso",
        "rank": 52759,
        "rank_sort": 52916,
        "total": 2350
      },
      {
        "club_badge_src": null,
        "entry": 2510368,
        "entry_name": "Memento Amorim",
        "event_total": 61,
        "has_played": true,
        "id": 17983712,
        "last_rank": 59632,
        "player_name": "Tobias Dubland Nilsen",
        "rank": 52759,
        "rank_sort": 52917,
        "total": 2350
      },
      {
        "club_badge_src": null,
        "entry": 2515015,
        "entry_name": "Chuk FC",
        "event_total": 62,
        "has_played": true,
        "id": 18018354,
        "last_rank": 61606,
        "player_name": "brian lau",
        "rank": 52759,
        "rank_sort": 52918,
        "total": 2350
      },
      {
        "club_badge_src": null,
        "entry": 2539811,
        "entry_name": "Atletico Nacional",
        "event_total": 44,
        "has_played": true,
        "id": 18202174,
        "last_rank": 35166,
        "player_name": "Esteban Castillo",
        "rank": 52759,
        "rank_sort": 52919,
        "total": 2350
      },
      {
        "club_badge_src": null,
        "entry": 2584358,
        "entry_name": "Better Call Salech",
        "event_total": 59,
        "has_played": true,
        "id": 18551345,
        "last_rank": 56708,
        "player_name": "Harri Williams",
        "rank": 52759,
        "rank_sort": 52920,
        "total": 2350
      },
      {
        "club_badge_src": null,
        "entry": 2716250,
        "entry_name": "En gy\u00f6k som sa cocu",
        "event_total": 66,
        "has_played": true,
        "id": 19544089,
        "last_rank": 68957,
        "player_name": "Derek Bj\u00f8lgerud",
        "rank": 52759,
        "rank_sort": 52921,
        "total": 2350
      },
      {
        "club_badge_src": null,
        "entry": 2760612,
        "entry_name": "\u884c\u53bb\u9ea5\u7576\u52de\u52a0\u5165\u89aa\u5b50\u6703",
        "event_total": 61,
        "has_played": true,
        "id": 20139506,
        "last_rank": 60168,
        "player_name": "Roy Sun",
        "rank": 52759,
        "rank_sort": 52922,
        "total": 2350
      },
      {
        "club_badge_src": "https://fantasy.premierleague.com/gcs/plfpl-production-adobe-approved/plfpl-production/2806371/e64233b6-5588-4e7d-999f-a95bbef6f452.png",
        "entry": 2806371,
        "entry_name": "Kinder Mbuemo",
        "event_total": 70,
        "has_played": true,
        "id": 20494668,
        "last_rank": 77258,
        "player_name": "Olav Bober",
        "rank": 52759,
        "rank_sort": 52923,
        "total": 2350
      },
      {
        "club_badge_src": null,
        "entry": 2853904,
        "entry_name": "KeithKani",
        "event_total": 72,
        "has_played": true,
        "id": 20867731,
        "last_rank": 81312,
        "player_name": "Krisada Kanivichaporn",
        "rank": 52759,
        "rank_sort": 52924,
        "total": 2350
      },
      {
        "club_badge_src": null,
        "entry": 2877390,
        "entry_name": "Kreka",
        "event_total": 62,
        "has_played": true,
        "id": 21062676,
        "last_rank": 61950,
        "player_name": "Milan Jovanov",
        "rank": 52759,
        "rank_sort": 52925,
        "total": 2350
      },
      {
        "club_badge_src": null,
        "entry": 2882282,
        "entry_name": "Cunha Matata",
        "event_total": 57,
        "has_played": true,
        "id": 21099960,
        "last_rank": 53345,
        "player_name": "Rob Hall",
        "rank": 52759,
        "rank_sort": 52926,
        "total": 2350
      },
      {
        "club_badge_src": null,
        "entry": 2991745,
        "entry_name": "Wazza United Rebuild",
        "event_total": 65,
        "has_played": true,
        "id": 22002982,
        "last_rank": 67063,
        "player_name": "Warren Petersen",
        "rank": 52759,
        "rank_sort": 52927,
        "total": 2350
      },
      {
        "club_badge_src": "https://fantasy.premierleague.com/gcs/plfpl-production-adobe-approved/plfpl-production/3057219/d70f8d94-d9d6-481c-bbde-75363cd93f7a.png",
        "entry": 3057219,
        "entry_name": "Ctrl Alt De Laet",
        "event_total": 73,
        "has_played": true,
        "id": 22508010,
        "last_rank": 83934,
        "player_name": "Ollie Duff",
        "rank": 52759,
        "rank_sort": 52928,
        "total": 2350
      },
      {
        "club_badge_src": null,
        "entry": 3151908,
        "entry_name": "under mi senesi",
        "event_total": 60,
        "has_played": true,
        "id": 23277239,
        "last_rank": 58388,
        "player_name": "Theo Wolf",
        "rank": 52759,
        "rank_sort": 52929,
        "total": 2350
      },
      {
        "club_badge_src": null,
        "entry": 3170614,
        "entry_name": "Mags Fc",
        "event_total": 56,
        "has_played": true,
        "id": 23425612,
        "last_rank": 51720,
        "player_name": "Andrew White",
        "rank": 52759,
        "rank_sort": 52930,
        "total": 2350
      },
      {
        "club_badge_src": null,
        "entry": 3171284,
        "entry_name": "Fearsome Fozzies",
        "event_total": 58,
        "has_played": true,
        "id": 23430810,
        "last_rank": 54667,
        "player_name": "Anita Briddon",
        "rank": 52759,
        "rank_sort": 52931,
        "total": 2350
      },
      {
        "club_badge_src": null,
        "entry": 3172212,
        "entry_name": "Backpost Brennan",
        "event_total": 61,
        "has_played": true,
        "id": 23437881,
        "last_rank": 60168,
        "player_name": "damien mccaul",
        "rank": 52759,
        "rank_sort": 52932,
        "total": 2350
      },
      {
        "club_badge_src": null,
        "entry": 3232772,
        "entry_name": "#scouts",
        "event_total": 68,
        "has_played": true,
        "id": 23909507,
        "last_rank": 73720,
        "player_name": "Alex Jundi",
        "rank": 52759,
        "rank_sort": 52933,
        "total": 2350
      },
      {
        "club_badge_src": null,
        "entry": 3319167,
        "entry_name": "Kendos Kings",
        "event_total": 46,
        "has_played": true,
        "id": 24597537,
        "last_rank": 38016,
        "player_name": "Kenny Ritchie",
        "rank": 52759,
        "rank_sort": 52934,
        "total": 2350
      },
      {
        "club_badge_src": null,
        "entry": 3328097,
        "entry_name": "man u",
        "event_total": 52,
        "has_played": true,
        "id": 24674738,
        "last_rank": 45714,
        "player_name": "Hadi Man U\ud83e\udd12",
        "rank": 52759,
        "rank_sort": 52935,
        "total": 2350
      },
      {
        "club_badge_src": null,
        "entry": 3389892,
        "entry_name": "Unstoppable force",
        "event_total": 71,
        "has_played": true,
        "id": 25165999,
        "last_rank": 79817,
        "player_name": "Kgoale Sekhukhune",
        "rank": 52759,
        "rank_sort": 52936,
        "total": 2350
      },
      {
        "club_badge_src": null,
        "entry": 3401838,
        "entry_name": "Now I'm A Baleba",
        "event_total": 64,
        "has_played": true,
        "id": 25258736,
        "last_rank": 65475,
        "player_name": "Lee Heron",
        "rank": 52759,
        "rank_sort": 52937,
        "total": 2350
      },
      {
        "club_badge_src": null,
        "entry": 3416918,
        "entry_name": "KingGyok",
        "event_total": 50,
        "has_played": true,
        "id": 25379613,
        "last_rank": 42940,
        "player_name": "Pedro Norte",
        "rank": 52759,
        "rank_sort": 52938,
        "total": 2350
      },
      {
        "club_badge_src": null,
        "entry": 3428211,
        "entry_name": "Majd_Aljamly",
        "event_total": 55,
        "has_played": true,
        "id": 25466404,
        "last_rank": 50199,
        "player_name": "Majd Aljamly",
        "rank": 52759,
        "rank_sort": 52939,
        "total": 2350
      },
      {
        "club_badge_src": null,
        "entry": 3441292,
        "entry_name": "Eng-Mohamed",
        "event_total": 54,
        "has_played": true,
        "id": 25566672,
        "last_rank": 48642,
        "player_name": "Eng Mohamed",
        "rank": 52759,
        "rank_sort": 52940,
        "total": 2350
      },
      {
        "club_badge_src": null,
        "entry": 3469689,
        "entry_name": "Klopps & Robbers",
        "event_total": 50,
        "has_played": true,
        "id": 25794592,
        "last_rank": 42648,
        "player_name": "Amartej Singh",
        "rank": 52759,
        "rank_sort": 52941,
        "total": 2350
      },
      {
        "club_badge_src": null,
        "entry": 3478989,
        "entry_name": "Hand Badger Forum",
        "event_total": 42,
        "has_played": true,
        "id": 25868686,
        "last_rank": 33147,
        "player_name": "K C",
        "rank": 52759,
        "rank_sort": 52942,
        "total": 2350
      },
      {
        "club_badge_src": null,
        "entry": 3509014,
        "entry_name": "Eki-tike-taka",
        "event_total": 65,
        "has_played": true,
        "id": 26109059,
        "last_rank": 67063,
        "player_name": "Andreas Larsson st\u00e5hl",
        "rank": 52759,
        "rank_sort": 52943,
        "total": 2350
      },
      {
        "club_badge_src": null,
        "entry": 3624777,
        "entry_name": "Nothing But Eaves",
        "event_total": 60,
        "has_played": true,
        "id": 27008474,
        "last_rank": 58388,
        "player_name": "Brad McKenzie",
        "rank": 52759,
        "rank_sort": 52944,
        "total": 2350
      },
      {
        "club_badge_src": null,
        "entry": 3646612,
        "entry_name": "CJ's Allstars",
        "event_total": 54,
        "has_played": true,
        "id": 27180024,
        "last_rank": 48642,
        "player_name": "Chris Johnston",
        "rank": 52759,
        "rank_sort": 52945,
        "total": 2350
      },
      {
        "club_badge_src": null,
        "entry": 3690565,
        "entry_name": "Awooga Fc",
        "event_total": 60,
        "has_played": true,
        "id": 27531937,
        "last_rank": 58388,
        "player_name": "Gary Boland",
        "rank": 52759,
        "rank_sort": 52946,
        "total": 2350
      },
      {
        "club_badge_src": "https://fantasy.premierleague.com/gcs/plfpl-production-adobe-approved/plfpl-production/3757151/fd2cc184-91b1-4852-824d-1e2b36777da2.png",
        "entry": 3757151,
        "entry_name": "Let's Be 'Avin You!",
        "event_total": 51,
        "has_played": true,
        "id": 28051518,
        "last_rank": 44303,
        "player_name": "Aaron Rodgers",
        "rank": 52759,
        "rank_sort": 52947,
        "total": 2350
      },
      {
        "club_badge_src": null,
        "entry": 3777958,
        "entry_name": "Bayer N liverpoosen",
        "event_total": 66,
        "has_played": true,
        "id": 28209641,
        "last_rank": 69323,
        "player_name": "Florence Weird",
        "rank": 52759,
        "rank_sort": 52948,
        "total": 2350
      },
      {
        "club_badge_src": null,
        "entry": 3878981,
        "entry_name": "Wirtz Case Scenario!",
        "event_total": 62,
        "has_played": true,
        "id": 29145292,
        "last_rank": 61411,
        "player_name": "Robert Clancy",
        "rank": 52759,
        "rank_sort": 52949,
        "total": 2350
      },
      {
        "club_badge_src": null,
        "entry": 3904163,
        "entry_name": "Multisuli\u0146a",
        "event_total": 66,
        "has_played": true,
        "id": 29350214,
        "last_rank": 69323,
        "player_name": "Martins Jaunzems",
        "rank": 52759,
        "rank_sort": 52950,
        "total": 2350
      }
    ]
  }
}