{
  "last_updated_data": "2026-05-24T23:28:17Z",
  "league": {
    "admin_entry": null,
    "closed": false,
    "code_privacy": "p",
    "created": "2025-07-20T23:14:33.933835Z",
    "cup_league": 2815434,
    "has_cup": true,
    "id": 314,
    "league_type": "s",
    "max_entries": null,
    "name": "Overall",
    "rank": null,
    "scoring": "c",
    "start_event": 1
  },
  "new_entries": {
    "has_next": false,
    "page": 1,
    "results": []
  },
  "standings": {
    "has_next": true,
    "page": 1541,
    "results": [
      {
        "club_badge_src": null,
        "entry": 7913802,
        "entry_name": "Beef Cherki",
        "event_total": 61,
        "has_played": true,
        "id": 65112826,
        "last_rank": 87350,
        "player_name": "Gio Prati",
        "rank": 76861,
        "rank_sort": 77001,
        "total": 2337
      },
      {
        "club_badge_src": null,
        "entry": 7967994,
        "entry_name": "El 7arefa",
        "event_total": 70,
        "has_played": true,
        "id": 65601001,
        "last_rank": 110416,
        "player_name": "Ahmed Elsharkawey",
        "rank": 76861,
        "rank_sort": 77002,
        "total": 2337
      },
      {
        "club_badge_src": null,
        "entry": 8034574,
        "entry_name": "Onana what's my name",
        "event_total": 65,
        "has_played": true,
        "id": 66196741,
        "last_rank": 97305,
        "player_name": "Max Drakeley",
        "rank": 76861,
        "rank_sort": 77003,
        "total": 2337
      },
      {
        "club_badge_src": null,
        "entry": 8255159,
        "entry_name": "Not MikeDean Forever",
        "event_total": 45,
        "has_played": true,
        "id": 68273578,
        "last_rank": 49078,
        "player_name": "Dominic Evans",
        "rank": 76861,
        "rank_sort": 77004,
        "total": 2337
      },
      {
        "club_badge_src": null,
        "entry": 8338375,
        "entry_name": "Hegeer5er",
        "event_total": 60,
        "has_played": true,
        "id": 69093332,
        "last_rank": 75874,
        "player_name": "Mats Renolen",
        "rank": 76861,
        "rank_sort": 77005,
        "total": 2337
      },
      {
        "club_badge_src": null,
        "entry": 8514318,
        "entry_name": "Noz",
        "event_total": 38,
        "has_played": true,
        "id": 70776467,
        "last_rank": 44804,
        "player_name": "Noah Fleming",
        "rank": 76861,
        "rank_sort": 77006,
        "total": 2337
      },
      {
        "club_badge_src": null,
        "entry": 8597207,
        "entry_name": "Sallelujah",
        "event_total": 66,
        "has_played": true,
        "id": 71571049,
        "last_rank": 99806,
        "player_name": "Andrew Chainey",
        "rank": 76861,
        "rank_sort": 77007,
        "total": 2337
      },
      {
        "club_badge_src": null,
        "entry": 8749331,
        "entry_name": "I Prefer NotTo Speak",
        "event_total": 62,
        "has_played": true,
        "id": 73057128,
        "last_rank": 63724,
        "player_name": "Parvaaz Ahmed",
        "rank": 76861,
        "rank_sort": 77008,
        "total": 2337
      },
      {
        "club_badge_src": null,
        "entry": 8792216,
        "entry_name": "Matinho",
        "event_total": 62,
        "has_played": true,
        "id": 73469327,
        "last_rank": 89706,
        "player_name": "Mathias Severinsen",
        "rank": 76861,
        "rank_sort": 77009,
        "total": 2337
      },
      {
        "club_badge_src": null,
        "entry": 8903745,
        "entry_name": "RAZZISTA",
        "event_total": 65,
        "has_played": true,
        "id": 74545807,
        "last_rank": 87350,
        "player_name": "Cheriet Mohamed",
        "rank": 76861,
        "rank_sort": 77010,
        "total": 2337
      },
      {
        "club_badge_src": null,
        "entry": 9018939,
        "entry_name": "bum slot",
        "event_total": 58,
        "has_played": true,
        "id": 75661933,
        "last_rank": 71956,
        "player_name": "Luke Savva",
        "rank": 76861,
        "rank_sort": 77011,
        "total": 2337
      },
      {
        "club_badge_src": null,
        "entry": 9123719,
        "entry_name": "Ga3foor",
        "event_total": 39,
        "has_played": true,
        "id": 76684708,
        "last_rank": 46313,
        "player_name": "Free Palastine",
        "rank": 76861,
        "rank_sort": 77012,
        "total": 2337
      },
      {
        "club_badge_src": null,
        "entry": 9125173,
        "entry_name": "\u54f2\u51ef\u54f2\u51ef",
        "event_total": 53,
        "has_played": true,
        "id": 76699098,
        "last_rank": 62429,
        "player_name": "Huang Enwei",
        "rank": 76861,
        "rank_sort": 77013,
        "total": 2337
      },
      {
        "club_badge_src": null,
        "entry": 10284257,
        "entry_name": "3zeez",
        "event_total": 56,
        "has_played": true,
        "id": 87091772,
        "last_rank": 76474,
        "player_name": "Abdulaziz Alshammari",
        "rank": 76861,
        "rank_sort": 77014,
        "total": 2337
      },
      {
        "club_badge_src": null,
        "entry": 9416,
        "entry_name": "Kudu think u r",
        "event_total": 48,
        "has_played": true,
        "id": 55351,
        "last_rank": 60933,
        "player_name": "Alex McPherson",
        "rank": 77015,
        "rank_sort": 77015,
        "total": 2337
      },
      {
        "club_badge_src": null,
        "entry": 13896,
        "entry_name": "Heckie Rovers",
        "event_total": 59,
        "has_played": true,
        "id": 84146,
        "last_rank": 74166,
        "player_name": "Steven Mayfield",
        "rank": 77015,
        "rank_sort": 77016,
        "total": 2337
      },
      {
        "club_badge_src": null,
        "entry": 38908,
        "entry_name": "Wataru going to do",
        "event_total": 55,
        "has_played": true,
        "id": 249404,
        "last_rank": 66200,
        "player_name": "Lewis Armstrong",
        "rank": 77015,
        "rank_sort": 77017,
        "total": 2337
      },
      {
        "club_badge_src": null,
        "entry": 47052,
        "entry_name": "Ljmaylya",
        "event_total": 53,
        "has_played": true,
        "id": 301710,
        "last_rank": 70183,
        "player_name": "amr assidi",
        "rank": 77015,
        "rank_sort": 77018,
        "total": 2337
      },
      {
        "club_badge_src": null,
        "entry": 53571,
        "entry_name": "Corky Thatcher's XI",
        "event_total": 61,
        "has_played": true,
        "id": 344674,
        "last_rank": 78244,
        "player_name": "Declan Lee",
        "rank": 77015,
        "rank_sort": 77019,
        "total": 2337
      },
      {
        "club_badge_src": null,
        "entry": 60326,
        "entry_name": "The Phantom XVI",
        "event_total": 52,
        "has_played": true,
        "id": 388414,
        "last_rank": 60827,
        "player_name": "G Raza",
        "rank": 77015,
        "rank_sort": 77020,
        "total": 2337
      },
      {
        "club_badge_src": "https://fantasy.premierleague.com/gcs/plfpl-production-adobe-approved/plfpl-production/60425/c63a6d6d-5550-48b7-a278-abf357ed10e6.png",
        "entry": 60425,
        "entry_name": "Bowen Arrow",
        "event_total": 57,
        "has_played": true,
        "id": 389041,
        "last_rank": 62429,
        "player_name": "Nathan King",
        "rank": 77015,
        "rank_sort": 77021,
        "total": 2337
      },
      {
        "club_badge_src": null,
        "entry": 63148,
        "entry_name": "Al Ahly Fc",
        "event_total": 65,
        "has_played": true,
        "id": 407333,
        "last_rank": 87350,
        "player_name": "Phelopater Mekhael",
        "rank": 77015,
        "rank_sort": 77022,
        "total": 2337
      },
      {
        "club_badge_src": null,
        "entry": 70231,
        "entry_name": "Arie's Trotters",
        "event_total": 55,
        "has_played": true,
        "id": 455913,
        "last_rank": 74317,
        "player_name": "Arie van Dolderen",
        "rank": 77015,
        "rank_sort": 77023,
        "total": 2337
      },
      {
        "club_badge_src": null,
        "entry": 71497,
        "entry_name": "High Hopes",
        "event_total": 66,
        "has_played": true,
        "id": 464416,
        "last_rank": 80465,
        "player_name": "Brad Szalachowski",
        "rank": 77015,
        "rank_sort": 77024,
        "total": 2337
      },
      {
        "club_badge_src": "https://fantasy.premierleague.com/gcs/plfpl-production-adobe-approved/plfpl-production/73883/532de351-b633-481b-992d-f1d4b5d2b63c.png",
        "entry": 73883,
        "entry_name": "11 players win",
        "event_total": 51,
        "has_played": true,
        "id": 480291,
        "last_rank": 66296,
        "player_name": "Ziwa Liu",
        "rank": 77015,
        "rank_sort": 77025,
        "total": 2337
      },
      {
        "club_badge_src": null,
        "entry": 86573,
        "entry_name": "KTF 1956 II",
        "event_total": 59,
        "has_played": true,
        "id": 564246,
        "last_rank": 74166,
        "player_name": "Stephen Phillips",
        "rank": 77015,
        "rank_sort": 77026,
        "total": 2337
      },
      {
        "club_badge_src": null,
        "entry": 88816,
        "entry_name": "Champagne Khusanova",
        "event_total": 72,
        "has_played": true,
        "id": 579695,
        "last_rank": 116216,
        "player_name": "Jonathan Connelly",
        "rank": 77015,
        "rank_sort": 77027,
        "total": 2337
      },
      {
        "club_badge_src": null,
        "entry": 96547,
        "entry_name": "\u015awiderki",
        "event_total": 70,
        "has_played": true,
        "id": 630716,
        "last_rank": 99596,
        "player_name": "Konrad \u015awider",
        "rank": 77015,
        "rank_sort": 77028,
        "total": 2337
      },
      {
        "club_badge_src": null,
        "entry": 99001,
        "entry_name": "M7",
        "event_total": 66,
        "has_played": true,
        "id": 646367,
        "last_rank": 99959,
        "player_name": "mohamed alketbi",
        "rank": 77015,
        "rank_sort": 77029,
        "total": 2337
      },
      {
        "club_badge_src": null,
        "entry": 100491,
        "entry_name": "King Quadsembang",
        "event_total": 51,
        "has_played": true,
        "id": 655787,
        "last_rank": 66296,
        "player_name": "Pakcik Bola",
        "rank": 77015,
        "rank_sort": 77030,
        "total": 2337
      },
      {
        "club_badge_src": "https://fantasy.premierleague.com/gcs/plfpl-production-adobe-approved/plfpl-production/110612/fc7a7c3d-0ca1-49c5-9e9b-0a1ab3cb9c6d.png",
        "entry": 110612,
        "entry_name": "Don\u2019tLookBackElanga",
        "event_total": 50,
        "has_played": true,
        "id": 721414,
        "last_rank": 64422,
        "player_name": "Jamie Benzine",
        "rank": 77015,
        "rank_sort": 77031,
        "total": 2337
      },
      {
        "club_badge_src": "https://fantasy.premierleague.com/gcs/plfpl-production-adobe-approved/plfpl-production/132980/1a3e8d6f-4d49-467b-b8a8-fb05bbc41436.png",
        "entry": 132980,
        "entry_name": "Yoro Poes",
        "event_total": 61,
        "has_played": true,
        "id": 866187,
        "last_rank": 78440,
        "player_name": "Liam Anderson",
        "rank": 77015,
        "rank_sort": 77032,
        "total": 2337
      },
      {
        "club_badge_src": null,
        "entry": 172746,
        "entry_name": "Fc Gunsnstones",
        "event_total": 66,
        "has_played": true,
        "id": 1140936,
        "last_rank": 80465,
        "player_name": "Hampus Levau",
        "rank": 77015,
        "rank_sort": 77033,
        "total": 2337
      },
      {
        "club_badge_src": null,
        "entry": 173419,
        "entry_name": "E\u0489z\u0489e\u0489 \u0489G\u0489o\u0489o\u0489d\u0489",
        "event_total": 65,
        "has_played": true,
        "id": 1145331,
        "last_rank": 97470,
        "player_name": "Karl Randall",
        "rank": 77015,
        "rank_sort": 77034,
        "total": 2337
      },
      {
        "club_badge_src": null,
        "entry": 178926,
        "entry_name": "Bayern-Bru",
        "event_total": 49,
        "has_played": true,
        "id": 1180812,
        "last_rank": 62724,
        "player_name": "Callum Collins",
        "rank": 77015,
        "rank_sort": 77035,
        "total": 2337
      },
      {
        "club_badge_src": null,
        "entry": 288532,
        "entry_name": "Fpl Lad",
        "event_total": 67,
        "has_played": true,
        "id": 1923180,
        "last_rank": 92126,
        "player_name": "Yi Hong",
        "rank": 77015,
        "rank_sort": 77036,
        "total": 2337
      },
      {
        "club_badge_src": null,
        "entry": 296384,
        "entry_name": "Crisis? What Crisis?",
        "event_total": 72,
        "has_played": true,
        "id": 1980241,
        "last_rank": 104941,
        "player_name": "MARK THOMAS",
        "rank": 77015,
        "rank_sort": 77037,
        "total": 2337
      },
      {
        "club_badge_src": null,
        "entry": 301264,
        "entry_name": "ICONIC",
        "event_total": 66,
        "has_played": true,
        "id": 2015484,
        "last_rank": 99806,
        "player_name": "Zishan Ahmed",
        "rank": 77015,
        "rank_sort": 77038,
        "total": 2337
      },
      {
        "club_badge_src": null,
        "entry": 308023,
        "entry_name": "Sch\u00e4rface",
        "event_total": 62,
        "has_played": true,
        "id": 2063101,
        "last_rank": 80651,
        "player_name": "Craig Grant",
        "rank": 77015,
        "rank_sort": 77039,
        "total": 2337
      },
      {
        "club_badge_src": null,
        "entry": 329665,
        "entry_name": "Kathmandu Hotspur",
        "event_total": 71,
        "has_played": true,
        "id": 2208320,
        "last_rank": 102343,
        "player_name": "Atit Humagain",
        "rank": 77015,
        "rank_sort": 77040,
        "total": 2337
      },
      {
        "club_badge_src": null,
        "entry": 339970,
        "entry_name": "HaCunha Mateta",
        "event_total": 70,
        "has_played": true,
        "id": 2275750,
        "last_rank": 110416,
        "player_name": "Michael Rumbaugh",
        "rank": 77015,
        "rank_sort": 77041,
        "total": 2337
      },
      {
        "club_badge_src": null,
        "entry": 351102,
        "entry_name": "Squidwirtz",
        "event_total": 59,
        "has_played": true,
        "id": 2350243,
        "last_rank": 83018,
        "player_name": "Chris Cox",
        "rank": 77015,
        "rank_sort": 77042,
        "total": 2337
      },
      {
        "club_badge_src": null,
        "entry": 396820,
        "entry_name": "Champions2025",
        "event_total": 60,
        "has_played": true,
        "id": 2661001,
        "last_rank": 76330,
        "player_name": "Vpiff- Keyz",
        "rank": 77015,
        "rank_sort": 77043,
        "total": 2337
      },
      {
        "club_badge_src": null,
        "entry": 444732,
        "entry_name": "Wirtz Case Scenario",
        "event_total": 75,
        "has_played": true,
        "id": 2982237,
        "last_rank": 113223,
        "player_name": "Craig Harding",
        "rank": 77015,
        "rank_sort": 77044,
        "total": 2337
      },
      {
        "club_badge_src": null,
        "entry": 485729,
        "entry_name": "BEEF CHERKI",
        "event_total": 50,
        "has_played": true,
        "id": 3260566,
        "last_rank": 50635,
        "player_name": "Liam Kilmartin",
        "rank": 77015,
        "rank_sort": 77045,
        "total": 2337
      },
      {
        "club_badge_src": "https://fantasy.premierleague.com/gcs/plfpl-production-adobe-approved/plfpl-production/498750/a96856f6-1730-4caa-8e5e-eaef09fce1e6.png",
        "entry": 498750,
        "entry_name": "Silkz Utd",
        "event_total": 65,
        "has_played": true,
        "id": 3347417,
        "last_rank": 97470,
        "player_name": "Steve Richards",
        "rank": 77015,
        "rank_sort": 77046,
        "total": 2337
      },
      {
        "club_badge_src": null,
        "entry": 515310,
        "entry_name": "Slotboys",
        "event_total": 58,
        "has_played": true,
        "id": 3459847,
        "last_rank": 72145,
        "player_name": "Frederik Harries",
        "rank": 77015,
        "rank_sort": 77047,
        "total": 2337
      },
      {
        "club_badge_src": null,
        "entry": 532172,
        "entry_name": "Heavy Hitters",
        "event_total": 57,
        "has_played": true,
        "id": 3579651,
        "last_rank": 78440,
        "player_name": "Nikhil Krishnadas",
        "rank": 77015,
        "rank_sort": 77048,
        "total": 2337
      },
      {
        "club_badge_src": null,
        "entry": 546055,
        "entry_name": "Til the end",
        "event_total": 62,
        "has_played": true,
        "id": 3674916,
        "last_rank": 80465,
        "player_name": "Terry Henderson",
        "rank": 77015,
        "rank_sort": 77049,
        "total": 2337
      },
      {
        "club_badge_src": null,
        "entry": 580461,
        "entry_name": "The Wirtz FPL Team",
        "event_total": 61,
        "has_played": true,
        "id": 3906139,
        "last_rank": 78440,
        "player_name": "Tom Hacking",
        "rank": 77015,
        "rank_sort": 77050,
        "total": 2337
      }
    ]
  }
}