{
  "last_updated_data": "2026-05-24T23:28:17Z",
  "league": {
    "admin_entry": null,
    "closed": false,
    "code_privacy": "p",
    "created": "2025-07-20T23:14:33.933835Z",
    "cup_league": 2815434,
    "has_cup": true,
    "id": 314,
    "league_type": "s",
    "max_entries": null,
    "name": "Overall",
    "rank": null,
    "scoring": "c",
    "start_event": 1
  },
  "new_entries": {
    "has_next": false,
    "page": 1,
    "results": []
  },
  "standings": {
    "has_next": true,
    "page": 1509,
    "results": [
      {
        "club_badge_src": null,
        "entry": 2121447,
        "entry_name": "Hakuna Mata",
        "event_total": 44,
        "has_played": true,
        "id": 15069697,
        "last_rank": 52738,
        "player_name": "Harsh T",
        "rank": 75395,
        "rank_sort": 75401,
        "total": 2337
      },
      {
        "club_badge_src": null,
        "entry": 2223442,
        "entry_name": "Amadness",
        "event_total": 55,
        "has_played": true,
        "id": 15836797,
        "last_rank": 72662,
        "player_name": "Vegard Kleven",
        "rank": 75395,
        "rank_sort": 75402,
        "total": 2337
      },
      {
        "club_badge_src": null,
        "entry": 3359644,
        "entry_name": "No Salah",
        "event_total": 46,
        "has_played": true,
        "id": 24927284,
        "last_rank": 56047,
        "player_name": "James Ward",
        "rank": 75395,
        "rank_sort": 75403,
        "total": 2337
      },
      {
        "club_badge_src": null,
        "entry": 3976617,
        "entry_name": "Better Call Joao",
        "event_total": 67,
        "has_played": true,
        "id": 29931287,
        "last_rank": 100527,
        "player_name": "Will Kidd",
        "rank": 75395,
        "rank_sort": 75404,
        "total": 2337
      },
      {
        "club_badge_src": null,
        "entry": 4805410,
        "entry_name": "CunhattingInMyPants",
        "event_total": 62,
        "has_played": true,
        "id": 36999994,
        "last_rank": 88154,
        "player_name": "Matthew Romero",
        "rank": 75395,
        "rank_sort": 75405,
        "total": 2337
      },
      {
        "club_badge_src": "https://fantasy.premierleague.com/gcs/plfpl-production-adobe-approved/plfpl-production/4830777/86b90305-cb41-4731-8a16-abcbf83bd24e.png",
        "entry": 4830777,
        "entry_name": "King of Fantasy",
        "event_total": 59,
        "has_played": true,
        "id": 37206490,
        "last_rank": 81195,
        "player_name": "Celal Yesildal",
        "rank": 75395,
        "rank_sort": 75406,
        "total": 2337
      },
      {
        "club_badge_src": null,
        "entry": 6271484,
        "entry_name": "RKID XI",
        "event_total": 55,
        "has_played": true,
        "id": 49661116,
        "last_rank": 72638,
        "player_name": "Piers Kitson",
        "rank": 75395,
        "rank_sort": 75407,
        "total": 2337
      },
      {
        "club_badge_src": null,
        "entry": 9947,
        "entry_name": "Gmen",
        "event_total": 72,
        "has_played": true,
        "id": 58679,
        "last_rank": 114011,
        "player_name": "Luke Gallagher",
        "rank": 75408,
        "rank_sort": 75408,
        "total": 2337
      },
      {
        "club_badge_src": null,
        "entry": 77733,
        "entry_name": "Bento",
        "event_total": 60,
        "has_played": true,
        "id": 505278,
        "last_rank": 83584,
        "player_name": "Hussein Al-ibrahimi",
        "rank": 75408,
        "rank_sort": 75409,
        "total": 2337
      },
      {
        "club_badge_src": null,
        "entry": 104811,
        "entry_name": "Ronniefiredoors",
        "event_total": 70,
        "has_played": true,
        "id": 683664,
        "last_rank": 108408,
        "player_name": "Ronnie Ratcliffe",
        "rank": 75408,
        "rank_sort": 75410,
        "total": 2337
      },
      {
        "club_badge_src": null,
        "entry": 113744,
        "entry_name": "Amex Platinum",
        "event_total": 63,
        "has_played": true,
        "id": 741942,
        "last_rank": 90625,
        "player_name": "Jason Foulad",
        "rank": 75408,
        "rank_sort": 75411,
        "total": 2337
      },
      {
        "club_badge_src": null,
        "entry": 215831,
        "entry_name": "FC Blackbirds",
        "event_total": 57,
        "has_played": true,
        "id": 1435469,
        "last_rank": 76947,
        "player_name": "Shahriar Islam Shoumik",
        "rank": 75408,
        "rank_sort": 75412,
        "total": 2337
      },
      {
        "club_badge_src": null,
        "entry": 229223,
        "entry_name": "Josh XI",
        "event_total": 68,
        "has_played": true,
        "id": 1525034,
        "last_rank": 102990,
        "player_name": "Joshua Kelly",
        "rank": 75408,
        "rank_sort": 75413,
        "total": 2337
      },
      {
        "club_badge_src": "https://fantasy.premierleague.com/gcs/plfpl-production-adobe-approved/plfpl-production/361891/a984b96a-8d5a-42e6-8912-ac36489167b4.png",
        "entry": 361891,
        "entry_name": "Shaw Abiding Citizen",
        "event_total": 58,
        "has_played": true,
        "id": 2421539,
        "last_rank": 78979,
        "player_name": "Charlie Birkin",
        "rank": 75408,
        "rank_sort": 75414,
        "total": 2337
      },
      {
        "club_badge_src": null,
        "entry": 402581,
        "entry_name": "Shapes",
        "event_total": 53,
        "has_played": true,
        "id": 2699353,
        "last_rank": 68585,
        "player_name": "Alex Sharples",
        "rank": 75408,
        "rank_sort": 75415,
        "total": 2337
      },
      {
        "club_badge_src": null,
        "entry": 537479,
        "entry_name": "Fantasy1984",
        "event_total": 74,
        "has_played": true,
        "id": 3618118,
        "last_rank": 119893,
        "player_name": "Tamara Pesic Miletic",
        "rank": 75408,
        "rank_sort": 75416,
        "total": 2337
      },
      {
        "club_badge_src": null,
        "entry": 593743,
        "entry_name": "Palmer FC",
        "event_total": 70,
        "has_played": true,
        "id": 4001548,
        "last_rank": 108567,
        "player_name": "Jonathan Sola",
        "rank": 75408,
        "rank_sort": 75417,
        "total": 2337
      },
      {
        "club_badge_src": null,
        "entry": 912508,
        "entry_name": "Captain \u00d8depants",
        "event_total": 58,
        "has_played": true,
        "id": 6274420,
        "last_rank": 79079,
        "player_name": "Callum March",
        "rank": 75408,
        "rank_sort": 75418,
        "total": 2337
      },
      {
        "club_badge_src": null,
        "entry": 1143841,
        "entry_name": "RalphSquad",
        "event_total": 41,
        "has_played": true,
        "id": 7928869,
        "last_rank": 48119,
        "player_name": "Riley Oughtred",
        "rank": 75408,
        "rank_sort": 75419,
        "total": 2337
      },
      {
        "club_badge_src": "https://fantasy.premierleague.com/gcs/plfpl-production-adobe-approved/plfpl-production/1163198/0889b4c2-7c13-420c-b0ec-5804915f5cd0.png",
        "entry": 1163198,
        "entry_name": "Falcon",
        "event_total": 50,
        "has_played": true,
        "id": 8069094,
        "last_rank": 63080,
        "player_name": "Naif Mohamed",
        "rank": 75408,
        "rank_sort": 75420,
        "total": 2337
      },
      {
        "club_badge_src": null,
        "entry": 1455015,
        "entry_name": "sCOttYS N17",
        "event_total": 45,
        "has_played": true,
        "id": 10138559,
        "last_rank": 54362,
        "player_name": "Scotty Ebsary",
        "rank": 75408,
        "rank_sort": 75421,
        "total": 2337
      },
      {
        "club_badge_src": null,
        "entry": 1689651,
        "entry_name": "Straw Hats",
        "event_total": 73,
        "has_played": true,
        "id": 11828356,
        "last_rank": 116852,
        "player_name": "Lakshya Mishra",
        "rank": 75408,
        "rank_sort": 75422,
        "total": 2337
      },
      {
        "club_badge_src": null,
        "entry": 1695687,
        "entry_name": "Jazzwork",
        "event_total": 59,
        "has_played": true,
        "id": 11876469,
        "last_rank": 81312,
        "player_name": "James Nkabinde",
        "rank": 75408,
        "rank_sort": 75423,
        "total": 2337
      },
      {
        "club_badge_src": null,
        "entry": 2014948,
        "entry_name": "Bayer Neverlosen",
        "event_total": 61,
        "has_played": true,
        "id": 14254258,
        "last_rank": 85932,
        "player_name": "John Bonazinga",
        "rank": 75408,
        "rank_sort": 75424,
        "total": 2337
      },
      {
        "club_badge_src": null,
        "entry": 2296661,
        "entry_name": "your wirtz nightmare",
        "event_total": 47,
        "has_played": true,
        "id": 16380068,
        "last_rank": 57776,
        "player_name": "Isla Ladds",
        "rank": 75408,
        "rank_sort": 75425,
        "total": 2337
      },
      {
        "club_badge_src": null,
        "entry": 3024495,
        "entry_name": "Netflix and Chilwell",
        "event_total": 81,
        "has_played": true,
        "id": 22253791,
        "last_rank": 142113,
        "player_name": "Al Capone----\ufe0f-",
        "rank": 75408,
        "rank_sort": 75426,
        "total": 2337
      },
      {
        "club_badge_src": null,
        "entry": 3041006,
        "entry_name": "AM",
        "event_total": 60,
        "has_played": true,
        "id": 22383274,
        "last_rank": 83534,
        "player_name": "Abdulaziz ALKUWARI",
        "rank": 75408,
        "rank_sort": 75427,
        "total": 2337
      },
      {
        "club_badge_src": null,
        "entry": 3521687,
        "entry_name": "ugate be kidding me",
        "event_total": 67,
        "has_played": true,
        "id": 26208479,
        "last_rank": 100572,
        "player_name": "Zia Gaibie",
        "rank": 75408,
        "rank_sort": 75428,
        "total": 2337
      },
      {
        "club_badge_src": null,
        "entry": 3952851,
        "entry_name": "Change Name",
        "event_total": 64,
        "has_played": true,
        "id": 29738239,
        "last_rank": 93052,
        "player_name": "Piaras Mc caffery",
        "rank": 75408,
        "rank_sort": 75429,
        "total": 2337
      },
      {
        "club_badge_src": null,
        "entry": 4439960,
        "entry_name": "Nesi",
        "event_total": 67,
        "has_played": true,
        "id": 33808589,
        "last_rank": 100572,
        "player_name": "Hannes geirsson",
        "rank": 75408,
        "rank_sort": 75430,
        "total": 2337
      },
      {
        "club_badge_src": null,
        "entry": 4799139,
        "entry_name": "YouPetrCechYourself",
        "event_total": 47,
        "has_played": true,
        "id": 36950030,
        "last_rank": 57776,
        "player_name": "Suhail Zantout",
        "rank": 75408,
        "rank_sort": 75431,
        "total": 2337
      },
      {
        "club_badge_src": null,
        "entry": 4903761,
        "entry_name": "KTB FC",
        "event_total": 77,
        "has_played": true,
        "id": 37814875,
        "last_rank": 129043,
        "player_name": "Lewis Khatibi",
        "rank": 75408,
        "rank_sort": 75432,
        "total": 2337
      },
      {
        "club_badge_src": "https://fantasy.premierleague.com/gcs/plfpl-production-adobe-approved/plfpl-production/5555043/ac427184-94d3-42c0-baf8-01e3f1d8bfcc.png",
        "entry": 5555043,
        "entry_name": "Class on Grass",
        "event_total": 74,
        "has_played": true,
        "id": 43360067,
        "last_rank": 119846,
        "player_name": "Adrian Lee",
        "rank": 75408,
        "rank_sort": 75433,
        "total": 2337
      },
      {
        "club_badge_src": null,
        "entry": 5599107,
        "entry_name": "Ayew Serious",
        "event_total": 42,
        "has_played": true,
        "id": 43748760,
        "last_rank": 49607,
        "player_name": "Petter Danev",
        "rank": 75408,
        "rank_sort": 75434,
        "total": 2337
      },
      {
        "club_badge_src": null,
        "entry": 5847846,
        "entry_name": "Avwe",
        "event_total": 68,
        "has_played": true,
        "id": 45909802,
        "last_rank": 103130,
        "player_name": "Avwenagha Michael",
        "rank": 75408,
        "rank_sort": 75435,
        "total": 2337
      },
      {
        "club_badge_src": null,
        "entry": 5948248,
        "entry_name": "amps",
        "event_total": 44,
        "has_played": true,
        "id": 46783589,
        "last_rank": 52722,
        "player_name": "Amush Subba",
        "rank": 75408,
        "rank_sort": 75436,
        "total": 2337
      },
      {
        "club_badge_src": null,
        "entry": 6050608,
        "entry_name": "FC N\u00f3ra",
        "event_total": 44,
        "has_played": true,
        "id": 47745022,
        "last_rank": 52759,
        "player_name": "Vaka Georgs",
        "rank": 75408,
        "rank_sort": 75437,
        "total": 2337
      },
      {
        "club_badge_src": null,
        "entry": 6819877,
        "entry_name": "Absolutely Babbulous",
        "event_total": 54,
        "has_played": true,
        "id": 54623040,
        "last_rank": 70651,
        "player_name": "Nick Dainty",
        "rank": 75408,
        "rank_sort": 75438,
        "total": 2337
      },
      {
        "club_badge_src": null,
        "entry": 7160259,
        "entry_name": "Corn on jacob",
        "event_total": 73,
        "has_played": true,
        "id": 57755942,
        "last_rank": 116826,
        "player_name": "Idrees A",
        "rank": 75408,
        "rank_sort": 75439,
        "total": 2337
      },
      {
        "club_badge_src": "https://fantasy.premierleague.com/gcs/plfpl-production-adobe-approved/plfpl-production/7463257/468e164e-d151-411d-b2d8-16e5c2580e7c.png",
        "entry": 7463257,
        "entry_name": "NH LYR",
        "event_total": 65,
        "has_played": true,
        "id": 60808065,
        "last_rank": 95420,
        "player_name": "Andr\u00e9 Dostel",
        "rank": 75408,
        "rank_sort": 75440,
        "total": 2337
      },
      {
        "club_badge_src": null,
        "entry": 7161,
        "entry_name": "Talonted",
        "event_total": 52,
        "has_played": true,
        "id": 41250,
        "last_rank": 66848,
        "player_name": "Talon Larkin",
        "rank": 75441,
        "rank_sort": 75441,
        "total": 2337
      },
      {
        "club_badge_src": null,
        "entry": 11954,
        "entry_name": "Good Aznou",
        "event_total": 39,
        "has_played": true,
        "id": 71313,
        "last_rank": 45252,
        "player_name": "David Edgar",
        "rank": 75441,
        "rank_sort": 75442,
        "total": 2337
      },
      {
        "club_badge_src": null,
        "entry": 12343,
        "entry_name": "Netsix and Chill",
        "event_total": 48,
        "has_played": true,
        "id": 73769,
        "last_rank": 59496,
        "player_name": "oakley hanger",
        "rank": 75441,
        "rank_sort": 75443,
        "total": 2337
      },
      {
        "club_badge_src": null,
        "entry": 191377,
        "entry_name": "Bacuna Mateta",
        "event_total": 80,
        "has_played": true,
        "id": 1267565,
        "last_rank": 139016,
        "player_name": "Daniel Tong",
        "rank": 75441,
        "rank_sort": 75444,
        "total": 2337
      },
      {
        "club_badge_src": null,
        "entry": 311566,
        "entry_name": "Change Name",
        "event_total": 34,
        "has_played": true,
        "id": 2087353,
        "last_rank": 38571,
        "player_name": "Niall Stringer",
        "rank": 75441,
        "rank_sort": 75445,
        "total": 2337
      },
      {
        "club_badge_src": null,
        "entry": 598796,
        "entry_name": "Rush Fc",
        "event_total": 65,
        "has_played": true,
        "id": 4038737,
        "last_rank": 95436,
        "player_name": "George Rush",
        "rank": 75441,
        "rank_sort": 75446,
        "total": 2337
      },
      {
        "club_badge_src": null,
        "entry": 737238,
        "entry_name": "Fredinski FC",
        "event_total": 56,
        "has_played": true,
        "id": 5012001,
        "last_rank": 74898,
        "player_name": "Daniel Fredin",
        "rank": 75441,
        "rank_sort": 75447,
        "total": 2337
      },
      {
        "club_badge_src": null,
        "entry": 918397,
        "entry_name": "Paul's Happy Hammers",
        "event_total": 69,
        "has_played": true,
        "id": 6315730,
        "last_rank": 105748,
        "player_name": "Paul Turner",
        "rank": 75441,
        "rank_sort": 75448,
        "total": 2337
      },
      {
        "club_badge_src": null,
        "entry": 1092244,
        "entry_name": "Full Nelson FC",
        "event_total": 53,
        "has_played": true,
        "id": 7564683,
        "last_rank": 68624,
        "player_name": "Tristan Finbow",
        "rank": 75441,
        "rank_sort": 75449,
        "total": 2337
      },
      {
        "club_badge_src": null,
        "entry": 1161667,
        "entry_name": "Arne Slot Machine",
        "event_total": 79,
        "has_played": true,
        "id": 8058295,
        "last_rank": 135457,
        "player_name": "Adam Gordon",
        "rank": 75441,
        "rank_sort": 75450,
        "total": 2337
      }
    ]
  }
}