{
  "last_updated_data": "2026-05-24T23:28:17Z",
  "league": {
    "admin_entry": null,
    "closed": false,
    "code_privacy": "p",
    "created": "2025-07-20T23:14:33.933835Z",
    "cup_league": 2815434,
    "has_cup": true,
    "id": 314,
    "league_type": "s",
    "max_entries": null,
    "name": "Overall",
    "rank": null,
    "scoring": "c",
    "start_event": 1
  },
  "new_entries": {
    "has_next": false,
    "page": 1,
    "results": []
  },
  "standings": {
    "has_next": true,
    "page": 160,
    "results": [
      {
        "club_badge_src": null,
        "entry": 328310,
        "entry_name": "Hoof harted",
        "event_total": 52,
        "has_played": true,
        "id": 2199459,
        "last_rank": 6061,
        "player_name": "Chris Kenny",
        "rank": 7939,
        "rank_sort": 7951,
        "total": 2404
      },
      {
        "club_badge_src": "https://fantasy.premierleague.com/gcs/plfpl-production-adobe-approved/plfpl-production/405578/360bf325-3961-4935-9b22-297997d20cb2.png",
        "entry": 405578,
        "entry_name": "IOnlyCarabaoWinnin'",
        "event_total": 59,
        "has_played": true,
        "id": 2719231,
        "last_rank": 6752,
        "player_name": "Andrei Zsok",
        "rank": 7939,
        "rank_sort": 7952,
        "total": 2404
      },
      {
        "club_badge_src": null,
        "entry": 533588,
        "entry_name": "Taking le Tiz",
        "event_total": 68,
        "has_played": true,
        "id": 3590403,
        "last_rank": 9942,
        "player_name": "Paul Tizard",
        "rank": 7939,
        "rank_sort": 7953,
        "total": 2404
      },
      {
        "club_badge_src": null,
        "entry": 546743,
        "entry_name": "Starboy",
        "event_total": 67,
        "has_played": true,
        "id": 3679541,
        "last_rank": 11345,
        "player_name": "Wesley Parker",
        "rank": 7939,
        "rank_sort": 7954,
        "total": 2404
      },
      {
        "club_badge_src": null,
        "entry": 680107,
        "entry_name": "\u0627\u0644\u0623\u0633\u0637\u0648\u0631\u0629\ufffd",
        "event_total": 54,
        "has_played": true,
        "id": 4602327,
        "last_rank": 6528,
        "player_name": "Salah Sherif",
        "rank": 7939,
        "rank_sort": 7955,
        "total": 2404
      },
      {
        "club_badge_src": null,
        "entry": 913773,
        "entry_name": "Bluemooners",
        "event_total": 56,
        "has_played": true,
        "id": 6283308,
        "last_rank": 7193,
        "player_name": "Glyn Morgan",
        "rank": 7939,
        "rank_sort": 7956,
        "total": 2404
      },
      {
        "club_badge_src": null,
        "entry": 947725,
        "entry_name": "Benched Bartlett",
        "event_total": 45,
        "has_played": true,
        "id": 6528037,
        "last_rank": 4394,
        "player_name": "Ben Bartlett",
        "rank": 7939,
        "rank_sort": 7957,
        "total": 2404
      },
      {
        "club_badge_src": null,
        "entry": 1061228,
        "entry_name": "BK Mariaplan",
        "event_total": 80,
        "has_played": true,
        "id": 7346285,
        "last_rank": 16163,
        "player_name": "Gustav Eriksson",
        "rank": 7939,
        "rank_sort": 7958,
        "total": 2404
      },
      {
        "club_badge_src": null,
        "entry": 1107223,
        "entry_name": "Alisson Wonderland",
        "event_total": 60,
        "has_played": true,
        "id": 7669383,
        "last_rank": 7141,
        "player_name": "Dave Allen",
        "rank": 7939,
        "rank_sort": 7959,
        "total": 2404
      },
      {
        "club_badge_src": null,
        "entry": 1485177,
        "entry_name": "ballsup",
        "event_total": 67,
        "has_played": true,
        "id": 10356764,
        "last_rank": 11345,
        "player_name": "Aman T",
        "rank": 7939,
        "rank_sort": 7960,
        "total": 2404
      },
      {
        "club_badge_src": null,
        "entry": 1564759,
        "entry_name": "Tee FC",
        "event_total": 62,
        "has_played": true,
        "id": 10930671,
        "last_rank": 9248,
        "player_name": "Muritala Aroyehun",
        "rank": 7939,
        "rank_sort": 7961,
        "total": 2404
      },
      {
        "club_badge_src": null,
        "entry": 1578199,
        "entry_name": "Power Reijnders",
        "event_total": 78,
        "has_played": true,
        "id": 11028063,
        "last_rank": 17585,
        "player_name": "Jack Gallagher",
        "rank": 7939,
        "rank_sort": 7962,
        "total": 2404
      },
      {
        "club_badge_src": null,
        "entry": 1613139,
        "entry_name": "The dark Ronny",
        "event_total": 71,
        "has_played": true,
        "id": 11287348,
        "last_rank": 13500,
        "player_name": "Victor Roxenrot",
        "rank": 7939,
        "rank_sort": 7963,
        "total": 2404
      },
      {
        "club_badge_src": null,
        "entry": 1654514,
        "entry_name": "Enarmy!",
        "event_total": 65,
        "has_played": true,
        "id": 11583427,
        "last_rank": 8854,
        "player_name": "Sneh Patel",
        "rank": 7939,
        "rank_sort": 7964,
        "total": 2404
      },
      {
        "club_badge_src": null,
        "entry": 1739889,
        "entry_name": "GoaT",
        "event_total": 59,
        "has_played": true,
        "id": 12207161,
        "last_rank": 8198,
        "player_name": "chaib khaled",
        "rank": 7939,
        "rank_sort": 7965,
        "total": 2404
      },
      {
        "club_badge_src": "https://fantasy.premierleague.com/gcs/plfpl-production-adobe-approved/plfpl-production/1780224/44129caa-15e9-48b4-8e2c-2b06fed6a519.png",
        "entry": 1780224,
        "entry_name": "KloppSlot's Machine",
        "event_total": 50,
        "has_played": true,
        "id": 12507274,
        "last_rank": 5528,
        "player_name": "Avgerinos Menelaou",
        "rank": 7939,
        "rank_sort": 7966,
        "total": 2404
      },
      {
        "club_badge_src": null,
        "entry": 1812059,
        "entry_name": "I like Cheese",
        "event_total": 64,
        "has_played": true,
        "id": 12741331,
        "last_rank": 10031,
        "player_name": "Than Manning",
        "rank": 7939,
        "rank_sort": 7967,
        "total": 2404
      },
      {
        "club_badge_src": null,
        "entry": 1862471,
        "entry_name": "Gyok Tuah",
        "event_total": 63,
        "has_played": true,
        "id": 13108990,
        "last_rank": 9484,
        "player_name": "Jorden French",
        "rank": 7939,
        "rank_sort": 7968,
        "total": 2404
      },
      {
        "club_badge_src": null,
        "entry": 3198291,
        "entry_name": "Tonys11",
        "event_total": 66,
        "has_played": true,
        "id": 23640893,
        "last_rank": 9248,
        "player_name": "Anthony Grace",
        "rank": 7939,
        "rank_sort": 7969,
        "total": 2404
      },
      {
        "club_badge_src": null,
        "entry": 3436564,
        "entry_name": "ChickenDinner",
        "event_total": 84,
        "has_played": true,
        "id": 25530045,
        "last_rank": 16163,
        "player_name": "Mason Duffy",
        "rank": 7939,
        "rank_sort": 7970,
        "total": 2404
      },
      {
        "club_badge_src": "https://fantasy.premierleague.com/gcs/plfpl-production-adobe-approved/plfpl-production/3697785/7d981770-fb4e-4dc0-8236-a927cc120366.png",
        "entry": 3697785,
        "entry_name": "Blink 1 Eto'o",
        "event_total": 73,
        "has_played": true,
        "id": 27588656,
        "last_rank": 10346,
        "player_name": "Ashley Mauro",
        "rank": 7939,
        "rank_sort": 7971,
        "total": 2404
      },
      {
        "club_badge_src": null,
        "entry": 3711129,
        "entry_name": "Wrotkowskie Ancymony",
        "event_total": 59,
        "has_played": true,
        "id": 27691866,
        "last_rank": 8138,
        "player_name": "Tomasz Banaszak",
        "rank": 7939,
        "rank_sort": 7972,
        "total": 2404
      },
      {
        "club_badge_src": null,
        "entry": 3772372,
        "entry_name": "Change Name",
        "event_total": 58,
        "has_played": true,
        "id": 28167005,
        "last_rank": 6448,
        "player_name": "Dejan Dimitrijevic",
        "rank": 7939,
        "rank_sort": 7973,
        "total": 2404
      },
      {
        "club_badge_src": null,
        "entry": 3824740,
        "entry_name": "Can't Get Any Wirtz",
        "event_total": 65,
        "has_played": true,
        "id": 28607829,
        "last_rank": 8854,
        "player_name": "Daniel Cleghorn",
        "rank": 7939,
        "rank_sort": 7974,
        "total": 2404
      },
      {
        "club_badge_src": null,
        "entry": 4390383,
        "entry_name": "Goal In One",
        "event_total": 47,
        "has_played": true,
        "id": 33375035,
        "last_rank": 4839,
        "player_name": "JP Casey",
        "rank": 7939,
        "rank_sort": 7975,
        "total": 2404
      },
      {
        "club_badge_src": null,
        "entry": 4499823,
        "entry_name": "Leeds i CL",
        "event_total": 55,
        "has_played": true,
        "id": 34304838,
        "last_rank": 6927,
        "player_name": "Jeppe Heltbech",
        "rank": 7939,
        "rank_sort": 7976,
        "total": 2404
      },
      {
        "club_badge_src": null,
        "entry": 4674612,
        "entry_name": "Dubai Donkeys",
        "event_total": 49,
        "has_played": true,
        "id": 35809659,
        "last_rank": 4358,
        "player_name": "PAUL DUNN",
        "rank": 7939,
        "rank_sort": 7977,
        "total": 2404
      },
      {
        "club_badge_src": null,
        "entry": 4679464,
        "entry_name": "Dont lookback Elanga",
        "event_total": 65,
        "has_played": true,
        "id": 35852088,
        "last_rank": 10556,
        "player_name": "STEVE COOPER",
        "rank": 7939,
        "rank_sort": 7978,
        "total": 2404
      },
      {
        "club_badge_src": null,
        "entry": 4855133,
        "entry_name": "Raya Sunshine",
        "event_total": 68,
        "has_played": true,
        "id": 37409624,
        "last_rank": 9942,
        "player_name": "Claire Kilmartin",
        "rank": 7939,
        "rank_sort": 7979,
        "total": 2404
      },
      {
        "club_badge_src": null,
        "entry": 5254843,
        "entry_name": "Silly Gittens",
        "event_total": 62,
        "has_played": true,
        "id": 40727027,
        "last_rank": 7761,
        "player_name": "James Hartwell",
        "rank": 7939,
        "rank_sort": 7980,
        "total": 2404
      },
      {
        "club_badge_src": null,
        "entry": 5552332,
        "entry_name": "Democracy Manifest",
        "event_total": 70,
        "has_played": true,
        "id": 43336129,
        "last_rank": 12940,
        "player_name": "Neil McMillan",
        "rank": 7939,
        "rank_sort": 7981,
        "total": 2404
      },
      {
        "club_badge_src": null,
        "entry": 6502854,
        "entry_name": "The Walking Maguire",
        "event_total": 53,
        "has_played": true,
        "id": 51847418,
        "last_rank": 6333,
        "player_name": "Bryan Garcia",
        "rank": 7939,
        "rank_sort": 7982,
        "total": 2404
      },
      {
        "club_badge_src": null,
        "entry": 6507310,
        "entry_name": "Cesc and the city",
        "event_total": 63,
        "has_played": true,
        "id": 51886865,
        "last_rank": 8138,
        "player_name": "Sonya Lau",
        "rank": 7939,
        "rank_sort": 7983,
        "total": 2404
      },
      {
        "club_badge_src": null,
        "entry": 6630619,
        "entry_name": "Seskond Coming",
        "event_total": 58,
        "has_played": true,
        "id": 52993057,
        "last_rank": 7822,
        "player_name": "Arian Xhemajli",
        "rank": 7939,
        "rank_sort": 7984,
        "total": 2404
      },
      {
        "club_badge_src": null,
        "entry": 8582044,
        "entry_name": "Tenacity FC",
        "event_total": 70,
        "has_played": true,
        "id": 71425191,
        "last_rank": 12846,
        "player_name": "Melusi Tsabedze",
        "rank": 7939,
        "rank_sort": 7985,
        "total": 2404
      },
      {
        "club_badge_src": null,
        "entry": 8613530,
        "entry_name": "Betsy All Stars",
        "event_total": 53,
        "has_played": true,
        "id": 71728346,
        "last_rank": 6265,
        "player_name": "James Madsen",
        "rank": 7939,
        "rank_sort": 7986,
        "total": 2404
      },
      {
        "club_badge_src": null,
        "entry": 32570,
        "entry_name": "Jorr+ FC",
        "event_total": 51,
        "has_played": true,
        "id": 207234,
        "last_rank": 5820,
        "player_name": "Panitsara Sakulthanasombat",
        "rank": 7987,
        "rank_sort": 7987,
        "total": 2404
      },
      {
        "club_badge_src": null,
        "entry": 39112,
        "entry_name": "Chillout Familja",
        "event_total": 57,
        "has_played": true,
        "id": 250698,
        "last_rank": 7501,
        "player_name": "Wojciech Ga\u0142\u0119ziewski",
        "rank": 7987,
        "rank_sort": 7988,
        "total": 2404
      },
      {
        "club_badge_src": null,
        "entry": 74672,
        "entry_name": "Red Daniela",
        "event_total": 73,
        "has_played": true,
        "id": 485381,
        "last_rank": 12420,
        "player_name": "Yoav Sivan",
        "rank": 7987,
        "rank_sort": 7989,
        "total": 2404
      },
      {
        "club_badge_src": "https://fantasy.premierleague.com/gcs/plfpl-production-adobe-approved/plfpl-production/114806/33ee8c35-1bd6-4e58-9055-a584ba9716a2.png",
        "entry": 114806,
        "entry_name": "ChickenTikkaNoSalah",
        "event_total": 67,
        "has_played": true,
        "id": 749002,
        "last_rank": 11419,
        "player_name": "Mark Eshelby",
        "rank": 7987,
        "rank_sort": 7990,
        "total": 2404
      },
      {
        "club_badge_src": null,
        "entry": 123091,
        "entry_name": "me myself Ndiaye",
        "event_total": 50,
        "has_played": true,
        "id": 802900,
        "last_rank": 5560,
        "player_name": "Sander Pedersen",
        "rank": 7987,
        "rank_sort": 7991,
        "total": 2404
      },
      {
        "club_badge_src": null,
        "entry": 142711,
        "entry_name": "Saka potatoes",
        "event_total": 68,
        "has_played": true,
        "id": 933288,
        "last_rank": 10102,
        "player_name": "Andrew McCaffrey",
        "rank": 7987,
        "rank_sort": 7992,
        "total": 2404
      },
      {
        "club_badge_src": "https://fantasy.premierleague.com/gcs/plfpl-production-adobe-approved/plfpl-production/170798/1f92a53b-0c1f-4d6c-8b1a-f17ea5a5baf7.png",
        "entry": 170798,
        "entry_name": "Real Riordrid",
        "event_total": 66,
        "has_played": true,
        "id": 1128423,
        "last_rank": 10992,
        "player_name": "Dave Riordan",
        "rank": 7987,
        "rank_sort": 7993,
        "total": 2404
      },
      {
        "club_badge_src": "https://fantasy.premierleague.com/gcs/plfpl-production-adobe-approved/plfpl-production/206730/a2cef523-1d48-437c-8acf-8b1d0904f136.png",
        "entry": 206730,
        "entry_name": "Rossies Redeemers",
        "event_total": 62,
        "has_played": true,
        "id": 1374056,
        "last_rank": 9350,
        "player_name": "Jonathan Gibbons",
        "rank": 7987,
        "rank_sort": 7994,
        "total": 2404
      },
      {
        "club_badge_src": null,
        "entry": 216605,
        "entry_name": "Hotel? Thiago.",
        "event_total": 69,
        "has_played": true,
        "id": 1440702,
        "last_rank": 12420,
        "player_name": "Sam Redman",
        "rank": 7987,
        "rank_sort": 7995,
        "total": 2404
      },
      {
        "club_badge_src": null,
        "entry": 255494,
        "entry_name": "G\u14aa\u15e9\u15eaI\u15e9TO\u1587",
        "event_total": 56,
        "has_played": true,
        "id": 1699422,
        "last_rank": 7237,
        "player_name": "Perfect Mind",
        "rank": 7987,
        "rank_sort": 7996,
        "total": 2404
      },
      {
        "club_badge_src": null,
        "entry": 273596,
        "entry_name": "THE UNITED",
        "event_total": 61,
        "has_played": true,
        "id": 1820519,
        "last_rank": 8977,
        "player_name": "Biswas Rai",
        "rank": 7987,
        "rank_sort": 7997,
        "total": 2404
      },
      {
        "club_badge_src": "https://fantasy.premierleague.com/gcs/plfpl-production-adobe-approved/plfpl-production/429474/e792bcaf-80c1-4ff1-bbf2-89c3459414a1.png",
        "entry": 429474,
        "entry_name": "Delap Dancer\u015f",
        "event_total": 64,
        "has_played": true,
        "id": 2880531,
        "last_rank": 8552,
        "player_name": "Will Smallshaw",
        "rank": 7987,
        "rank_sort": 7998,
        "total": 2404
      },
      {
        "club_badge_src": null,
        "entry": 747155,
        "entry_name": "SBG bobler og babbos",
        "event_total": 47,
        "has_played": true,
        "id": 5082990,
        "last_rank": 4866,
        "player_name": "Leo Mathias Brenden",
        "rank": 7987,
        "rank_sort": 7999,
        "total": 2404
      },
      {
        "club_badge_src": null,
        "entry": 810839,
        "entry_name": "Ayew Pjanicking",
        "event_total": 81,
        "has_played": true,
        "id": 5551681,
        "last_rank": 19544,
        "player_name": "Krishna Rajesh",
        "rank": 7987,
        "rank_sort": 8000,
        "total": 2404
      }
    ]
  }
}