{
  "last_updated_data": "2026-05-24T23:28:17Z",
  "league": {
    "admin_entry": null,
    "closed": false,
    "code_privacy": "p",
    "created": "2025-07-20T23:14:33.933835Z",
    "cup_league": 2815434,
    "has_cup": true,
    "id": 314,
    "league_type": "s",
    "max_entries": null,
    "name": "Overall",
    "rank": null,
    "scoring": "c",
    "start_event": 1
  },
  "new_entries": {
    "has_next": false,
    "page": 1,
    "results": []
  },
  "standings": {
    "has_next": true,
    "page": 205,
    "results": [
      {
        "club_badge_src": null,
        "entry": 3968834,
        "entry_name": "ERIK HELVETE 666",
        "event_total": 70,
        "has_played": true,
        "id": 29865555,
        "last_rank": 16163,
        "player_name": "Erik Sund",
        "rank": 10157,
        "rank_sort": 10201,
        "total": 2398
      },
      {
        "club_badge_src": "https://fantasy.premierleague.com/gcs/plfpl-production-adobe-approved/plfpl-production/4074337/21d9dbe9-5d99-4a64-a5c2-371e94022a6d.png",
        "entry": 4074337,
        "entry_name": "Aeolian XI",
        "event_total": 58,
        "has_played": true,
        "id": 30754374,
        "last_rank": 8484,
        "player_name": "Midhir Rana",
        "rank": 10157,
        "rank_sort": 10202,
        "total": 2398
      },
      {
        "club_badge_src": null,
        "entry": 4152641,
        "entry_name": "YNWA",
        "event_total": 70,
        "has_played": true,
        "id": 31387491,
        "last_rank": 16320,
        "player_name": "Pradeep Shrestha",
        "rank": 10157,
        "rank_sort": 10203,
        "total": 2398
      },
      {
        "club_badge_src": null,
        "entry": 4298760,
        "entry_name": "Victor Moses Lawn",
        "event_total": 60,
        "has_played": true,
        "id": 32612267,
        "last_rank": 10920,
        "player_name": "Ollie Lewinski",
        "rank": 10157,
        "rank_sort": 10204,
        "total": 2398
      },
      {
        "club_badge_src": null,
        "entry": 4766437,
        "entry_name": "Gentle Kenneth",
        "event_total": 64,
        "has_played": true,
        "id": 36684100,
        "last_rank": 12940,
        "player_name": "Paul Walker",
        "rank": 10157,
        "rank_sort": 10205,
        "total": 2398
      },
      {
        "club_badge_src": null,
        "entry": 5363969,
        "entry_name": "RagzRevenge",
        "event_total": 60,
        "has_played": true,
        "id": 41666490,
        "last_rank": 10992,
        "player_name": "zico antonio",
        "rank": 10157,
        "rank_sort": 10206,
        "total": 2398
      },
      {
        "club_badge_src": null,
        "entry": 5497223,
        "entry_name": "Vitas United",
        "event_total": 56,
        "has_played": true,
        "id": 42827874,
        "last_rank": 9350,
        "player_name": "Vitas van Driessche",
        "rank": 10157,
        "rank_sort": 10207,
        "total": 2398
      },
      {
        "club_badge_src": null,
        "entry": 5642014,
        "entry_name": "Kroos Control",
        "event_total": 63,
        "has_played": true,
        "id": 44123930,
        "last_rank": 10462,
        "player_name": "Oliver Cros",
        "rank": 10157,
        "rank_sort": 10208,
        "total": 2398
      },
      {
        "club_badge_src": "https://fantasy.premierleague.com/gcs/plfpl-production-adobe-approved/plfpl-production/5935501/3438b28b-9d5e-4eb6-a419-46542d0ad916.png",
        "entry": 5935501,
        "entry_name": "Dynamo Lambo",
        "event_total": 55,
        "has_played": true,
        "id": 46667674,
        "last_rank": 8925,
        "player_name": "Anton Wedin",
        "rank": 10157,
        "rank_sort": 10209,
        "total": 2398
      },
      {
        "club_badge_src": null,
        "entry": 6211472,
        "entry_name": "Gyo-get it FC",
        "event_total": 58,
        "has_played": true,
        "id": 49144134,
        "last_rank": 10102,
        "player_name": "Dennis Maara",
        "rank": 10157,
        "rank_sort": 10210,
        "total": 2398
      },
      {
        "club_badge_src": null,
        "entry": 6274775,
        "entry_name": "Kinder Mbeumo",
        "event_total": 66,
        "has_played": true,
        "id": 49689036,
        "last_rank": 14040,
        "player_name": "Tommy O Gorman",
        "rank": 10157,
        "rank_sort": 10211,
        "total": 2398
      },
      {
        "club_badge_src": null,
        "entry": 6320062,
        "entry_name": "Jadon",
        "event_total": 65,
        "has_played": true,
        "id": 50181031,
        "last_rank": 13401,
        "player_name": "Jadon Williams",
        "rank": 10157,
        "rank_sort": 10212,
        "total": 2398
      },
      {
        "club_badge_src": null,
        "entry": 6320232,
        "entry_name": "LEMESHIS",
        "event_total": 69,
        "has_played": true,
        "id": 50183804,
        "last_rank": 15797,
        "player_name": "Marios Lemeshis",
        "rank": 10157,
        "rank_sort": 10213,
        "total": 2398
      },
      {
        "club_badge_src": "https://fantasy.premierleague.com/gcs/plfpl-production-adobe-approved/plfpl-production/6669664/9cd2a9bc-8822-469f-9b7d-4cd825704770.png",
        "entry": 6669664,
        "entry_name": "Free Gaza 1st",
        "event_total": 51,
        "has_played": true,
        "id": 53341844,
        "last_rank": 6265,
        "player_name": "Mahmoud A Abu Jamous",
        "rank": 10157,
        "rank_sort": 10214,
        "total": 2398
      },
      {
        "club_badge_src": null,
        "entry": 6820488,
        "entry_name": "Unknown_11\u2753",
        "event_total": 65,
        "has_played": true,
        "id": 54628218,
        "last_rank": 11345,
        "player_name": "Zaakir- -",
        "rank": 10157,
        "rank_sort": 10215,
        "total": 2398
      },
      {
        "club_badge_src": null,
        "entry": 6977457,
        "entry_name": "llBboommll",
        "event_total": 62,
        "has_played": true,
        "id": 55988987,
        "last_rank": 11901,
        "player_name": "paninthorn puengsiricharoen",
        "rank": 10157,
        "rank_sort": 10216,
        "total": 2398
      },
      {
        "club_badge_src": null,
        "entry": 7018264,
        "entry_name": "XXXL",
        "event_total": 42,
        "has_played": true,
        "id": 56371602,
        "last_rank": 5011,
        "player_name": "Roman Magloth",
        "rank": 10157,
        "rank_sort": 10217,
        "total": 2398
      },
      {
        "club_badge_src": null,
        "entry": 7033959,
        "entry_name": "Hammers",
        "event_total": 55,
        "has_played": true,
        "id": 56537412,
        "last_rank": 8854,
        "player_name": "Johannes Robstad",
        "rank": 10157,
        "rank_sort": 10218,
        "total": 2398
      },
      {
        "club_badge_src": null,
        "entry": 7098190,
        "entry_name": "Yase FC",
        "event_total": 63,
        "has_played": true,
        "id": 57158287,
        "last_rank": 10462,
        "player_name": "Jason Jiang",
        "rank": 10157,
        "rank_sort": 10219,
        "total": 2398
      },
      {
        "club_badge_src": null,
        "entry": 8103662,
        "entry_name": "MA Lakers",
        "event_total": 65,
        "has_played": true,
        "id": 66835133,
        "last_rank": 13500,
        "player_name": "Andrew Giannou",
        "rank": 10157,
        "rank_sort": 10220,
        "total": 2398
      },
      {
        "club_badge_src": null,
        "entry": 8426043,
        "entry_name": "aMUFC",
        "event_total": 55,
        "has_played": true,
        "id": 69927338,
        "last_rank": 7450,
        "player_name": "Mansour ll",
        "rank": 10157,
        "rank_sort": 10221,
        "total": 2398
      },
      {
        "club_badge_src": "https://fantasy.premierleague.com/gcs/plfpl-production-adobe-approved/plfpl-production/4666/8a447010-3fd6-4434-8d45-44561dced6b4.png",
        "entry": 4666,
        "entry_name": "Enzootopia",
        "event_total": 65,
        "has_played": true,
        "id": 26543,
        "last_rank": 13558,
        "player_name": "Rasib Afridi",
        "rank": 10222,
        "rank_sort": 10222,
        "total": 2398
      },
      {
        "club_badge_src": null,
        "entry": 13237,
        "entry_name": "Z-Fighters",
        "event_total": 73,
        "has_played": true,
        "id": 79832,
        "last_rank": 18475,
        "player_name": "Jason Dawson",
        "rank": 10222,
        "rank_sort": 10223,
        "total": 2398
      },
      {
        "club_badge_src": null,
        "entry": 38307,
        "entry_name": "Darlings",
        "event_total": 50,
        "has_played": true,
        "id": 245501,
        "last_rank": 6061,
        "player_name": "Robin Libr\u00e5ten",
        "rank": 10222,
        "rank_sort": 10224,
        "total": 2398
      },
      {
        "club_badge_src": "https://fantasy.premierleague.com/gcs/plfpl-production-adobe-approved/plfpl-production/38351/520d09aa-f079-40bc-8cb3-7750454c923a.png",
        "entry": 38351,
        "entry_name": "SeskoEvryLittleHelps",
        "event_total": 63,
        "has_played": true,
        "id": 245783,
        "last_rank": 12470,
        "player_name": "Brandon Atkinson",
        "rank": 10222,
        "rank_sort": 10225,
        "total": 2398
      },
      {
        "club_badge_src": null,
        "entry": 85215,
        "entry_name": "Cambons Picks",
        "event_total": 62,
        "has_played": true,
        "id": 554889,
        "last_rank": 10102,
        "player_name": "Tom Campbell",
        "rank": 10222,
        "rank_sort": 10226,
        "total": 2398
      },
      {
        "club_badge_src": "https://fantasy.premierleague.com/gcs/plfpl-production-adobe-approved/plfpl-production/117606/b137bbe7-8b57-4ec1-b9b8-a30f767402e2.png",
        "entry": 117606,
        "entry_name": "RedNoseReijnders",
        "event_total": 63,
        "has_played": true,
        "id": 767609,
        "last_rank": 10556,
        "player_name": "Patryk Nowotka",
        "rank": 10222,
        "rank_sort": 10227,
        "total": 2398
      },
      {
        "club_badge_src": "https://fantasy.premierleague.com/gcs/plfpl-production-adobe-approved/plfpl-production/219636/8660b8d6-2400-49f8-9f71-a038a2059abb.png",
        "entry": 219636,
        "entry_name": "FreddiePL",
        "event_total": 46,
        "has_played": true,
        "id": 1460637,
        "last_rank": 6094,
        "player_name": "Jake Parsons",
        "rank": 10222,
        "rank_sort": 10228,
        "total": 2398
      },
      {
        "club_badge_src": null,
        "entry": 229496,
        "entry_name": "Memo 1.0",
        "event_total": 71,
        "has_played": true,
        "id": 1526868,
        "last_rank": 14604,
        "player_name": "Yankho Takilima",
        "rank": 10222,
        "rank_sort": 10229,
        "total": 2398
      },
      {
        "club_badge_src": null,
        "entry": 254169,
        "entry_name": "FC ULANI",
        "event_total": 58,
        "has_played": true,
        "id": 1690755,
        "last_rank": 10151,
        "player_name": "Dominik Januszczak",
        "rank": 10222,
        "rank_sort": 10230,
        "total": 2398
      },
      {
        "club_badge_src": "https://fantasy.premierleague.com/gcs/plfpl-production-adobe-approved/plfpl-production/389746/62510f5f-531a-41ef-92d9-c3d8730383a9.png",
        "entry": 389746,
        "entry_name": "Haukivuoren Pallo",
        "event_total": 65,
        "has_played": true,
        "id": 2614464,
        "last_rank": 11419,
        "player_name": "Matti K\u00e4\u00e4ri\u00e4inen",
        "rank": 10222,
        "rank_sort": 10231,
        "total": 2398
      },
      {
        "club_badge_src": null,
        "entry": 474355,
        "entry_name": "YEO",
        "event_total": 59,
        "has_played": true,
        "id": 3184544,
        "last_rank": 10556,
        "player_name": "Nitish Babu",
        "rank": 10222,
        "rank_sort": 10232,
        "total": 2398
      },
      {
        "club_badge_src": null,
        "entry": 559656,
        "entry_name": "Turkish De Ligt",
        "event_total": 47,
        "has_played": true,
        "id": 3766546,
        "last_rank": 6305,
        "player_name": "Louis Meyer",
        "rank": 10222,
        "rank_sort": 10233,
        "total": 2398
      },
      {
        "club_badge_src": null,
        "entry": 650703,
        "entry_name": "Legends XI",
        "event_total": 52,
        "has_played": true,
        "id": 4397618,
        "last_rank": 7863,
        "player_name": "Phil Naylor",
        "rank": 10222,
        "rank_sort": 10234,
        "total": 2398
      },
      {
        "club_badge_src": null,
        "entry": 1487433,
        "entry_name": "Robins kanoner",
        "event_total": 64,
        "has_played": true,
        "id": 10372521,
        "last_rank": 9248,
        "player_name": "Robin Ejdeholm",
        "rank": 10222,
        "rank_sort": 10235,
        "total": 2398
      },
      {
        "club_badge_src": "https://fantasy.premierleague.com/gcs/plfpl-production-adobe-approved/plfpl-production/1528307/b38541ec-2521-48c9-b81b-e71ea3a3bc3a.png",
        "entry": 1528307,
        "entry_name": "Mean Machine",
        "event_total": 61,
        "has_played": true,
        "id": 10661126,
        "last_rank": 11482,
        "player_name": "Andr\u00e9 Gon\u00e7alves",
        "rank": 10222,
        "rank_sort": 10236,
        "total": 2398
      },
      {
        "club_badge_src": null,
        "entry": 1615528,
        "entry_name": "Cheese\u2019s Biscuits",
        "event_total": 70,
        "has_played": true,
        "id": 11304219,
        "last_rank": 16512,
        "player_name": "Luke Stacey",
        "rank": 10222,
        "rank_sort": 10237,
        "total": 2398
      },
      {
        "club_badge_src": null,
        "entry": 1618602,
        "entry_name": "Arteta's Arse",
        "event_total": 57,
        "has_played": true,
        "id": 11326518,
        "last_rank": 9711,
        "player_name": "Jack Isherwood",
        "rank": 10222,
        "rank_sort": 10238,
        "total": 2398
      },
      {
        "club_badge_src": null,
        "entry": 1622165,
        "entry_name": "Pep Gvardiola's 15",
        "event_total": 57,
        "has_played": true,
        "id": 11352939,
        "last_rank": 9751,
        "player_name": "Ali Alshebil",
        "rank": 10222,
        "rank_sort": 10239,
        "total": 2398
      },
      {
        "club_badge_src": null,
        "entry": 1696022,
        "entry_name": "Give Spurs sum Kudus",
        "event_total": 64,
        "has_played": true,
        "id": 11878894,
        "last_rank": 9248,
        "player_name": "Jon Wright",
        "rank": 10222,
        "rank_sort": 10240,
        "total": 2398
      },
      {
        "club_badge_src": null,
        "entry": 1801795,
        "entry_name": "Stay humble eh",
        "event_total": 69,
        "has_played": true,
        "id": 12666251,
        "last_rank": 15876,
        "player_name": "Max Olsson",
        "rank": 10222,
        "rank_sort": 10241,
        "total": 2398
      },
      {
        "club_badge_src": null,
        "entry": 2002064,
        "entry_name": "Charlinho",
        "event_total": 63,
        "has_played": true,
        "id": 14153931,
        "last_rank": 12420,
        "player_name": "Charlie Mitchell",
        "rank": 10222,
        "rank_sort": 10242,
        "total": 2398
      },
      {
        "club_badge_src": null,
        "entry": 2089899,
        "entry_name": "JJJ",
        "event_total": 61,
        "has_played": true,
        "id": 14827358,
        "last_rank": 9711,
        "player_name": "Jeffrey Chan",
        "rank": 10222,
        "rank_sort": 10243,
        "total": 2398
      },
      {
        "club_badge_src": null,
        "entry": 2201584,
        "entry_name": "EZE come EZE go fc",
        "event_total": 68,
        "has_played": true,
        "id": 15667563,
        "last_rank": 15226,
        "player_name": "David Hudson",
        "rank": 10222,
        "rank_sort": 10244,
        "total": 2398
      },
      {
        "club_badge_src": null,
        "entry": 2264559,
        "entry_name": "loda fc",
        "event_total": 69,
        "has_played": true,
        "id": 16146274,
        "last_rank": 13500,
        "player_name": "Khaled Lodafc",
        "rank": 10222,
        "rank_sort": 10245,
        "total": 2398
      },
      {
        "club_badge_src": null,
        "entry": 2560733,
        "entry_name": "Howes the Bacon \ufffd",
        "event_total": 62,
        "has_played": true,
        "id": 18365281,
        "last_rank": 11901,
        "player_name": "Tom Vaughan",
        "rank": 10222,
        "rank_sort": 10246,
        "total": 2398
      },
      {
        "club_badge_src": null,
        "entry": 2697981,
        "entry_name": "Ru-Fi-Oooo",
        "event_total": 66,
        "has_played": true,
        "id": 19407765,
        "last_rank": 11821,
        "player_name": "Bradley Rufus",
        "rank": 10222,
        "rank_sort": 10247,
        "total": 2398
      },
      {
        "club_badge_src": null,
        "entry": 2963059,
        "entry_name": "Baches1",
        "event_total": 57,
        "has_played": true,
        "id": 21766909,
        "last_rank": 9751,
        "player_name": "Luke Bache",
        "rank": 10222,
        "rank_sort": 10248,
        "total": 2398
      },
      {
        "club_badge_src": null,
        "entry": 3308407,
        "entry_name": "Snowball",
        "event_total": 49,
        "has_played": true,
        "id": 24509334,
        "last_rank": 6927,
        "player_name": "Ed Lee",
        "rank": 10222,
        "rank_sort": 10249,
        "total": 2398
      },
      {
        "club_badge_src": null,
        "entry": 3797061,
        "entry_name": "Matt's Wynners",
        "event_total": 58,
        "has_played": true,
        "id": 28381869,
        "last_rank": 10151,
        "player_name": "Matthew Wynn",
        "rank": 10222,
        "rank_sort": 10250,
        "total": 2398
      }
    ]
  }
}