{
  "last_updated_data": "2026-05-24T23:28:17Z",
  "league": {
    "admin_entry": null,
    "closed": false,
    "code_privacy": "p",
    "created": "2025-07-20T23:14:33.933835Z",
    "cup_league": 2815434,
    "has_cup": true,
    "id": 314,
    "league_type": "s",
    "max_entries": null,
    "name": "Overall",
    "rank": null,
    "scoring": "c",
    "start_event": 1
  },
  "new_entries": {
    "has_next": false,
    "page": 1,
    "results": []
  },
  "standings": {
    "has_next": true,
    "page": 1047,
    "results": [
      {
        "club_badge_src": null,
        "entry": 292108,
        "entry_name": "Hieroja",
        "event_total": 74,
        "has_played": true,
        "id": 1948843,
        "last_rank": 85836,
        "player_name": "Veeti Heiskanen",
        "rank": 52298,
        "rank_sort": 52301,
        "total": 2350
      },
      {
        "club_badge_src": null,
        "entry": 298122,
        "entry_name": "Unreal Madrid",
        "event_total": 39,
        "has_played": true,
        "id": 1992966,
        "last_rank": 29522,
        "player_name": "Liam O'Dwyer",
        "rank": 52298,
        "rank_sort": 52302,
        "total": 2350
      },
      {
        "club_badge_src": null,
        "entry": 477907,
        "entry_name": "Beef Cherki",
        "event_total": 52,
        "has_played": true,
        "id": 3208363,
        "last_rank": 45126,
        "player_name": "Toby Wilson",
        "rank": 52298,
        "rank_sort": 52303,
        "total": 2350
      },
      {
        "club_badge_src": null,
        "entry": 693213,
        "entry_name": "KD XI",
        "event_total": 65,
        "has_played": true,
        "id": 4694761,
        "last_rank": 66693,
        "player_name": "Kofi Danquah",
        "rank": 52298,
        "rank_sort": 52304,
        "total": 2350
      },
      {
        "club_badge_src": null,
        "entry": 1011289,
        "entry_name": "ItKanteGoOnLikeThis",
        "event_total": 39,
        "has_played": true,
        "id": 6994926,
        "last_rank": 29522,
        "player_name": "Jacob Ballard",
        "rank": 52298,
        "rank_sort": 52305,
        "total": 2350
      },
      {
        "club_badge_src": null,
        "entry": 1029506,
        "entry_name": "Carrville Crew",
        "event_total": 63,
        "has_played": true,
        "id": 7122918,
        "last_rank": 63063,
        "player_name": "Joe Handley",
        "rank": 52298,
        "rank_sort": 52306,
        "total": 2350
      },
      {
        "club_badge_src": "https://fantasy.premierleague.com/gcs/plfpl-production-adobe-approved/plfpl-production/1348088/9837921f-e945-4a24-aab1-d4a76e62962b.png",
        "entry": 1348088,
        "entry_name": "Coutinho Money",
        "event_total": 61,
        "has_played": true,
        "id": 9372256,
        "last_rank": 59475,
        "player_name": "Brandon Tait",
        "rank": 52298,
        "rank_sort": 52307,
        "total": 2350
      },
      {
        "club_badge_src": "https://fantasy.premierleague.com/gcs/plfpl-production-adobe-approved/plfpl-production/1601304/eb723a9b-8768-487f-82a8-e9b226f99eb7.png",
        "entry": 1601304,
        "entry_name": "CHUGO Porro FC",
        "event_total": 48,
        "has_played": true,
        "id": 11202068,
        "last_rank": 39816,
        "player_name": "Chris Boyle",
        "rank": 52298,
        "rank_sort": 52308,
        "total": 2350
      },
      {
        "club_badge_src": null,
        "entry": 3563701,
        "entry_name": "Yoro the hero",
        "event_total": 35,
        "has_played": true,
        "id": 26534603,
        "last_rank": 25729,
        "player_name": "Emil Niklasson",
        "rank": 52298,
        "rank_sort": 52309,
        "total": 2350
      },
      {
        "club_badge_src": null,
        "entry": 4023755,
        "entry_name": "Yves Bissouma Ehehea",
        "event_total": 63,
        "has_played": true,
        "id": 30328899,
        "last_rank": 63117,
        "player_name": "Saad El Mohajir",
        "rank": 52298,
        "rank_sort": 52310,
        "total": 2350
      },
      {
        "club_badge_src": null,
        "entry": 4202683,
        "entry_name": "Remontada",
        "event_total": 84,
        "has_played": true,
        "id": 31814055,
        "last_rank": 111270,
        "player_name": "Sindri Bergmann",
        "rank": 52298,
        "rank_sort": 52311,
        "total": 2350
      },
      {
        "club_badge_src": null,
        "entry": 4616836,
        "entry_name": "Bruno Dos Tres",
        "event_total": 53,
        "has_played": true,
        "id": 35286225,
        "last_rank": 46591,
        "player_name": "Nathan Fennell",
        "rank": 52298,
        "rank_sort": 52312,
        "total": 2350
      },
      {
        "club_badge_src": null,
        "entry": 5069626,
        "entry_name": "London lions",
        "event_total": 35,
        "has_played": true,
        "id": 39177421,
        "last_rank": 25709,
        "player_name": "Denis Chanjwok",
        "rank": 52298,
        "rank_sort": 52313,
        "total": 2350
      },
      {
        "club_badge_src": null,
        "entry": 5185008,
        "entry_name": "No1",
        "event_total": 76,
        "has_played": true,
        "id": 40136473,
        "last_rank": 90625,
        "player_name": "William Liu",
        "rank": 52298,
        "rank_sort": 52314,
        "total": 2350
      },
      {
        "club_badge_src": null,
        "entry": 5402335,
        "entry_name": "Ctrl Alt De Ligt",
        "event_total": 68,
        "has_played": true,
        "id": 42005886,
        "last_rank": 72638,
        "player_name": "Gavin Dias",
        "rank": 52298,
        "rank_sort": 52315,
        "total": 2350
      },
      {
        "club_badge_src": null,
        "entry": 6434955,
        "entry_name": "\u0e2d\u0e22\u0e48\u0e32\u0e1b\u0e23\u0e30\u0e21\u0e32\u0e17 \u0e22\u0e39\u0e44\u0e19\u0e40\u0e15\u0e47\u0e14",
        "event_total": 65,
        "has_played": true,
        "id": 51228631,
        "last_rank": 66644,
        "player_name": "Chumsai Hemaratchata",
        "rank": 52298,
        "rank_sort": 52316,
        "total": 2350
      },
      {
        "club_badge_src": null,
        "entry": 7081032,
        "entry_name": "My own Wirtz enemy",
        "event_total": 72,
        "has_played": true,
        "id": 56995596,
        "last_rank": 81312,
        "player_name": "Alex Coglan",
        "rank": 52298,
        "rank_sort": 52317,
        "total": 2350
      },
      {
        "club_badge_src": null,
        "entry": 7798225,
        "entry_name": "Thai's R Us",
        "event_total": 51,
        "has_played": true,
        "id": 64057221,
        "last_rank": 43786,
        "player_name": "Amar-Kaash Gandecha",
        "rank": 52298,
        "rank_sort": 52318,
        "total": 2350
      },
      {
        "club_badge_src": null,
        "entry": 8250072,
        "entry_name": "Hit to De Bruyne",
        "event_total": 52,
        "has_played": true,
        "id": 68224822,
        "last_rank": 45182,
        "player_name": "Adeel Qureshi",
        "rank": 52298,
        "rank_sort": 52319,
        "total": 2350
      },
      {
        "club_badge_src": null,
        "entry": 8527517,
        "entry_name": "MuggingsFC",
        "event_total": 74,
        "has_played": true,
        "id": 70903148,
        "last_rank": 85811,
        "player_name": "Archie Thorne",
        "rank": 52298,
        "rank_sort": 52320,
        "total": 2350
      },
      {
        "club_badge_src": "https://fantasy.premierleague.com/gcs/plfpl-production-adobe-approved/plfpl-production/8684101/a08d1310-b71a-420d-87af-118c21288c6b.png",
        "entry": 8684101,
        "entry_name": "Easy Dub",
        "event_total": 66,
        "has_played": true,
        "id": 72425035,
        "last_rank": 68572,
        "player_name": "Lodewijk Lemmens",
        "rank": 52298,
        "rank_sort": 52321,
        "total": 2350
      },
      {
        "club_badge_src": null,
        "entry": 9166864,
        "entry_name": "MasafiAG",
        "event_total": 44,
        "has_played": true,
        "id": 77106030,
        "last_rank": 34937,
        "player_name": "Mansoor AG",
        "rank": 52298,
        "rank_sort": 52322,
        "total": 2350
      },
      {
        "club_badge_src": null,
        "entry": 115337,
        "entry_name": "\u30e9\u30f3\u30c9 \u30b0\u30eb\u30e1",
        "event_total": 55,
        "has_played": true,
        "id": 752726,
        "last_rank": 49691,
        "player_name": "Marcin B\u0105kowski",
        "rank": 52323,
        "rank_sort": 52323,
        "total": 2350
      },
      {
        "club_badge_src": "https://fantasy.premierleague.com/gcs/plfpl-production-adobe-approved/plfpl-production/197102/694afc3f-c96b-439c-b980-b4b3cb29ea3b.png",
        "entry": 197102,
        "entry_name": "Back in Blood",
        "event_total": 45,
        "has_played": true,
        "id": 1307711,
        "last_rank": 36110,
        "player_name": "Kevin Boustedt",
        "rank": 52323,
        "rank_sort": 52324,
        "total": 2350
      },
      {
        "club_badge_src": null,
        "entry": 389949,
        "entry_name": "Rady FC",
        "event_total": 56,
        "has_played": true,
        "id": 2615798,
        "last_rank": 51112,
        "player_name": "Ahmed Rady",
        "rank": 52323,
        "rank_sort": 52325,
        "total": 2350
      },
      {
        "club_badge_src": null,
        "entry": 497090,
        "entry_name": "Don\u2019tLookBackElanga",
        "event_total": 67,
        "has_played": true,
        "id": 3336437,
        "last_rank": 70600,
        "player_name": "Kate Barnett",
        "rank": 52323,
        "rank_sort": 52326,
        "total": 2350
      },
      {
        "club_badge_src": null,
        "entry": 562313,
        "entry_name": "Cech Yo Self",
        "event_total": 51,
        "has_played": true,
        "id": 3785020,
        "last_rank": 43757,
        "player_name": "Drew Cook",
        "rank": 52323,
        "rank_sort": 52327,
        "total": 2350
      },
      {
        "club_badge_src": null,
        "entry": 588978,
        "entry_name": "Smash",
        "event_total": 64,
        "has_played": true,
        "id": 3966522,
        "last_rank": 64830,
        "player_name": "Michael McGrail",
        "rank": 52323,
        "rank_sort": 52328,
        "total": 2350
      },
      {
        "club_badge_src": null,
        "entry": 795228,
        "entry_name": "Noble peace prize",
        "event_total": 60,
        "has_played": true,
        "id": 5442419,
        "last_rank": 57857,
        "player_name": "Joseph Markham",
        "rank": 52323,
        "rank_sort": 52329,
        "total": 2350
      },
      {
        "club_badge_src": null,
        "entry": 859511,
        "entry_name": "Opel Ascona",
        "event_total": 60,
        "has_played": true,
        "id": 5892012,
        "last_rank": 57743,
        "player_name": "Tiago Filipe",
        "rank": 52323,
        "rank_sort": 52330,
        "total": 2350
      },
      {
        "club_badge_src": null,
        "entry": 929585,
        "entry_name": "there we land",
        "event_total": 57,
        "has_played": true,
        "id": 6396065,
        "last_rank": 52722,
        "player_name": "Yan Xiu",
        "rank": 52323,
        "rank_sort": 52331,
        "total": 2350
      },
      {
        "club_badge_src": null,
        "entry": 937232,
        "entry_name": "what could go wirtz?",
        "event_total": 48,
        "has_played": true,
        "id": 6450349,
        "last_rank": 39874,
        "player_name": "jake edwards",
        "rank": 52323,
        "rank_sort": 52332,
        "total": 2350
      },
      {
        "club_badge_src": null,
        "entry": 1082527,
        "entry_name": "CantGetAnyWirtzCanIt",
        "event_total": 39,
        "has_played": true,
        "id": 7495673,
        "last_rank": 29578,
        "player_name": "Sam Schofield",
        "rank": 52323,
        "rank_sort": 52333,
        "total": 2350
      },
      {
        "club_badge_src": "https://fantasy.premierleague.com/gcs/plfpl-production-adobe-approved/plfpl-production/1674637/e01e96ac-359f-4bd8-9f59-078fe6e0f8cd.png",
        "entry": 1674637,
        "entry_name": "Flint United",
        "event_total": 65,
        "has_played": true,
        "id": 11724290,
        "last_rank": 66658,
        "player_name": "Oliver Macgregor",
        "rank": 52323,
        "rank_sort": 52334,
        "total": 2350
      },
      {
        "club_badge_src": null,
        "entry": 1843490,
        "entry_name": "The Sly Fox",
        "event_total": 72,
        "has_played": true,
        "id": 12970288,
        "last_rank": 81244,
        "player_name": "Greg Watts",
        "rank": 52323,
        "rank_sort": 52335,
        "total": 2350
      },
      {
        "club_badge_src": "https://fantasy.premierleague.com/gcs/plfpl-production-adobe-approved/plfpl-production/1970948/9ba64686-abcc-4a9a-8499-7e5d350d38d0.png",
        "entry": 1970948,
        "entry_name": "Krul Summer",
        "event_total": 55,
        "has_played": true,
        "id": 13910854,
        "last_rank": 49607,
        "player_name": "Emily Johnson",
        "rank": 52323,
        "rank_sort": 52336,
        "total": 2350
      },
      {
        "club_badge_src": null,
        "entry": 2033090,
        "entry_name": "Howe got Is-Hacked",
        "event_total": 67,
        "has_played": true,
        "id": 14394363,
        "last_rank": 70600,
        "player_name": "Akshay Ramachandran",
        "rank": 52323,
        "rank_sort": 52337,
        "total": 2350
      },
      {
        "club_badge_src": null,
        "entry": 2142672,
        "entry_name": "Nethernetherland",
        "event_total": 61,
        "has_played": true,
        "id": 15228503,
        "last_rank": 59475,
        "player_name": "Ben Elger",
        "rank": 52323,
        "rank_sort": 52338,
        "total": 2350
      },
      {
        "club_badge_src": null,
        "entry": 2241738,
        "entry_name": "The big 1-0 girl",
        "event_total": 64,
        "has_played": true,
        "id": 15970803,
        "last_rank": 64943,
        "player_name": "Mehnaz Ahmed",
        "rank": 52323,
        "rank_sort": 52339,
        "total": 2350
      },
      {
        "club_badge_src": null,
        "entry": 2305413,
        "entry_name": "tandoori",
        "event_total": 62,
        "has_played": true,
        "id": 16443915,
        "last_rank": 61239,
        "player_name": "Hamza Attiq",
        "rank": 52323,
        "rank_sort": 52340,
        "total": 2350
      },
      {
        "club_badge_src": null,
        "entry": 2376259,
        "entry_name": "Just Gimme De Ligt",
        "event_total": 34,
        "has_played": true,
        "id": 16965136,
        "last_rank": 24897,
        "player_name": "Jem Akpinar",
        "rank": 52323,
        "rank_sort": 52341,
        "total": 2350
      },
      {
        "club_badge_src": "https://fantasy.premierleague.com/gcs/plfpl-production-adobe-approved/plfpl-production/2933998/43b2a9f3-b8b9-4982-a6de-da7be5744e7e.png",
        "entry": 2933998,
        "entry_name": "Milhas",
        "event_total": 60,
        "has_played": true,
        "id": 21526397,
        "last_rank": 57723,
        "player_name": "Pedro Milharadas",
        "rank": 52323,
        "rank_sort": 52342,
        "total": 2350
      },
      {
        "club_badge_src": null,
        "entry": 3003967,
        "entry_name": ".",
        "event_total": 55,
        "has_played": true,
        "id": 22096290,
        "last_rank": 49572,
        "player_name": "Erling Haaland",
        "rank": 52323,
        "rank_sort": 52343,
        "total": 2350
      },
      {
        "club_badge_src": null,
        "entry": 3704224,
        "entry_name": "The Legend",
        "event_total": 65,
        "has_played": true,
        "id": 27638290,
        "last_rank": 66658,
        "player_name": "Razek Bendriss",
        "rank": 52323,
        "rank_sort": 52344,
        "total": 2350
      },
      {
        "club_badge_src": null,
        "entry": 3795892,
        "entry_name": "Stubbed Mitoma",
        "event_total": 42,
        "has_played": true,
        "id": 28372271,
        "last_rank": 32661,
        "player_name": "Ethan Rolf Stirmey",
        "rank": 52323,
        "rank_sort": 52345,
        "total": 2350
      },
      {
        "club_badge_src": null,
        "entry": 3841089,
        "entry_name": "ance$tor",
        "event_total": 66,
        "has_played": true,
        "id": 28769613,
        "last_rank": 68585,
        "player_name": "Ojo Ayomide",
        "rank": 52323,
        "rank_sort": 52346,
        "total": 2350
      },
      {
        "club_badge_src": null,
        "entry": 4007894,
        "entry_name": "Chippy Chips",
        "event_total": 75,
        "has_played": true,
        "id": 30192489,
        "last_rank": 88348,
        "player_name": "Kayvan Mavahebi",
        "rank": 52323,
        "rank_sort": 52347,
        "total": 2350
      },
      {
        "club_badge_src": null,
        "entry": 4059296,
        "entry_name": "I\u2019m Gana Be",
        "event_total": 80,
        "has_played": true,
        "id": 30631251,
        "last_rank": 100527,
        "player_name": "Noah Whincup",
        "rank": 52323,
        "rank_sort": 52348,
        "total": 2350
      },
      {
        "club_badge_src": null,
        "entry": 4071230,
        "entry_name": "Beef Cherki",
        "event_total": 70,
        "has_played": true,
        "id": 30728774,
        "last_rank": 76908,
        "player_name": "Harry Brown",
        "rank": 52323,
        "rank_sort": 52349,
        "total": 2350
      },
      {
        "club_badge_src": null,
        "entry": 4928307,
        "entry_name": "Kezza FC",
        "event_total": 62,
        "has_played": true,
        "id": 38015200,
        "last_rank": 54380,
        "player_name": "Kerry Simpson",
        "rank": 52323,
        "rank_sort": 52350,
        "total": 2350
      }
    ]
  }
}