{
  "last_updated_data": "2026-05-24T23:28:17Z",
  "league": {
    "admin_entry": null,
    "closed": false,
    "code_privacy": "p",
    "created": "2025-07-20T23:14:33.933835Z",
    "cup_league": 2815434,
    "has_cup": true,
    "id": 314,
    "league_type": "s",
    "max_entries": null,
    "name": "Overall",
    "rank": null,
    "scoring": "c",
    "start_event": 1
  },
  "new_entries": {
    "has_next": false,
    "page": 1,
    "results": []
  },
  "standings": {
    "has_next": true,
    "page": 361,
    "results": [
      {
        "club_badge_src": null,
        "entry": 5957243,
        "entry_name": "Wirtz the Matter ?",
        "event_total": 66,
        "has_played": true,
        "id": 46863476,
        "last_rank": 20983,
        "player_name": "Nishant Bhide",
        "rank": 17890,
        "rank_sort": 18001,
        "total": 2383
      },
      {
        "club_badge_src": null,
        "entry": 5959907,
        "entry_name": "Comeback kids",
        "event_total": 62,
        "has_played": true,
        "id": 46886687,
        "last_rank": 18113,
        "player_name": "P\u00e5l Eidsv\u00e5g",
        "rank": 17890,
        "rank_sort": 18002,
        "total": 2383
      },
      {
        "club_badge_src": null,
        "entry": 6150469,
        "entry_name": "Hopefulls on paper",
        "event_total": 65,
        "has_played": true,
        "id": 48617274,
        "last_rank": 23522,
        "player_name": "Paul Sugden",
        "rank": 17890,
        "rank_sort": 18003,
        "total": 2383
      },
      {
        "club_badge_src": null,
        "entry": 6213999,
        "entry_name": "best11",
        "event_total": 64,
        "has_played": true,
        "id": 49165470,
        "last_rank": 19432,
        "player_name": "Zed Ahmed",
        "rank": 17890,
        "rank_sort": 18004,
        "total": 2383
      },
      {
        "club_badge_src": null,
        "entry": 6326452,
        "entry_name": "Howe's the bacon",
        "event_total": 63,
        "has_played": true,
        "id": 50261062,
        "last_rank": 21949,
        "player_name": "Daryl Manging",
        "rank": 17890,
        "rank_sort": 18005,
        "total": 2383
      },
      {
        "club_badge_src": null,
        "entry": 6465232,
        "entry_name": "Saka Boom",
        "event_total": 65,
        "has_played": true,
        "id": 51508930,
        "last_rank": 23341,
        "player_name": "Al-Shafeeq Poordil",
        "rank": 17890,
        "rank_sort": 18006,
        "total": 2383
      },
      {
        "club_badge_src": null,
        "entry": 6518524,
        "entry_name": "Off the Woodwork",
        "event_total": 65,
        "has_played": true,
        "id": 51987086,
        "last_rank": 23341,
        "player_name": "Steve Dunn",
        "rank": 17890,
        "rank_sort": 18007,
        "total": 2383
      },
      {
        "club_badge_src": null,
        "entry": 6736258,
        "entry_name": "khalifa",
        "event_total": 64,
        "has_played": true,
        "id": 53920014,
        "last_rank": 22534,
        "player_name": "Khalifa Hamad",
        "rank": 17890,
        "rank_sort": 18008,
        "total": 2383
      },
      {
        "club_badge_src": null,
        "entry": 6831291,
        "entry_name": "Inter Nicki",
        "event_total": 52,
        "has_played": true,
        "id": 54719314,
        "last_rank": 14496,
        "player_name": "Ethan Wilkie",
        "rank": 17890,
        "rank_sort": 18009,
        "total": 2383
      },
      {
        "club_badge_src": null,
        "entry": 6894492,
        "entry_name": "ThomasTheFrankEngine",
        "event_total": 63,
        "has_played": true,
        "id": 55257867,
        "last_rank": 21775,
        "player_name": "Anthony Billet",
        "rank": 17890,
        "rank_sort": 18010,
        "total": 2383
      },
      {
        "club_badge_src": null,
        "entry": 6991001,
        "entry_name": "Winner",
        "event_total": 82,
        "has_played": true,
        "id": 56120021,
        "last_rank": 41162,
        "player_name": "Pero Tancev",
        "rank": 17890,
        "rank_sort": 18011,
        "total": 2383
      },
      {
        "club_badge_src": null,
        "entry": 7104968,
        "entry_name": "\u0641\u0624\u0627\u062f \u0627\u0644\u064a\u0627\u0641\u0639\u064a",
        "event_total": 34,
        "has_played": true,
        "id": 57222936,
        "last_rank": 6887,
        "player_name": "Fuad Alyafei",
        "rank": 17890,
        "rank_sort": 18012,
        "total": 2383
      },
      {
        "club_badge_src": null,
        "entry": 7133293,
        "entry_name": "tim kecil",
        "event_total": 32,
        "has_played": true,
        "id": 57491358,
        "last_rank": 6265,
        "player_name": "Novian Haris",
        "rank": 17890,
        "rank_sort": 18013,
        "total": 2383
      },
      {
        "club_badge_src": null,
        "entry": 7387502,
        "entry_name": "123456",
        "event_total": 68,
        "has_played": true,
        "id": 59896012,
        "last_rank": 22426,
        "player_name": "Shahid Ali",
        "rank": 17890,
        "rank_sort": 18014,
        "total": 2383
      },
      {
        "club_badge_src": null,
        "entry": 7633955,
        "entry_name": "Ammerud Stars",
        "event_total": 67,
        "has_played": true,
        "id": 62571265,
        "last_rank": 25172,
        "player_name": "Julie Bakken",
        "rank": 17890,
        "rank_sort": 18015,
        "total": 2383
      },
      {
        "club_badge_src": null,
        "entry": 7776176,
        "entry_name": "Arsene Is My Dad",
        "event_total": 56,
        "has_played": true,
        "id": 63858565,
        "last_rank": 16729,
        "player_name": "Ollie Rhodes",
        "rank": 17890,
        "rank_sort": 18016,
        "total": 2383
      },
      {
        "club_badge_src": null,
        "entry": 7805625,
        "entry_name": "Crystal-Palace",
        "event_total": 64,
        "has_played": true,
        "id": 64123768,
        "last_rank": 19544,
        "player_name": "Mr Fullalove",
        "rank": 17890,
        "rank_sort": 18017,
        "total": 2383
      },
      {
        "club_badge_src": "https://fantasy.premierleague.com/gcs/plfpl-production-adobe-approved/plfpl-production/8079637/910c26af-1c15-4ea2-8688-f7c206be1268.png",
        "entry": 8079637,
        "entry_name": "Grumbl Garbage Truck",
        "event_total": 72,
        "has_played": true,
        "id": 66611720,
        "last_rank": 29688,
        "player_name": "Veda Gowrishankar",
        "rank": 17890,
        "rank_sort": 18018,
        "total": 2383
      },
      {
        "club_badge_src": null,
        "entry": 8377593,
        "entry_name": "Skartax",
        "event_total": 52,
        "has_played": true,
        "id": 69468082,
        "last_rank": 14292,
        "player_name": "Jkeey Tate",
        "rank": 17890,
        "rank_sort": 18019,
        "total": 2383
      },
      {
        "club_badge_src": null,
        "entry": 8413722,
        "entry_name": "Vibes FC",
        "event_total": 59,
        "has_played": true,
        "id": 69806289,
        "last_rank": 18985,
        "player_name": "Matthew Cheung",
        "rank": 17890,
        "rank_sort": 18020,
        "total": 2383
      },
      {
        "club_badge_src": null,
        "entry": 8546509,
        "entry_name": "Billy Boy",
        "event_total": 53,
        "has_played": true,
        "id": 71084777,
        "last_rank": 12645,
        "player_name": "Billy Morris",
        "rank": 17890,
        "rank_sort": 18021,
        "total": 2383
      },
      {
        "club_badge_src": null,
        "entry": 9104544,
        "entry_name": "Why Always Me?",
        "event_total": 54,
        "has_played": true,
        "id": 76496684,
        "last_rank": 15694,
        "player_name": "Gary McSwisher",
        "rank": 17890,
        "rank_sort": 18022,
        "total": 2383
      },
      {
        "club_badge_src": null,
        "entry": 9173733,
        "entry_name": "Tuohy's 11",
        "event_total": 58,
        "has_played": true,
        "id": 77174263,
        "last_rank": 18270,
        "player_name": "Tadhg Tuohy",
        "rank": 17890,
        "rank_sort": 18023,
        "total": 2383
      },
      {
        "club_badge_src": "https://fantasy.premierleague.com/gcs/plfpl-production-adobe-approved/plfpl-production/9437329/ff4e656b-81dc-49f6-b95b-6e52f09820c6.png",
        "entry": 9437329,
        "entry_name": "Elland Rodon",
        "event_total": 86,
        "has_played": true,
        "id": 79729651,
        "last_rank": 46547,
        "player_name": "Allan Lancaster",
        "rank": 17890,
        "rank_sort": 18024,
        "total": 2383
      },
      {
        "club_badge_src": "https://fantasy.premierleague.com/gcs/plfpl-production-adobe-approved/plfpl-production/5317/8c5d4997-4ca4-4ba6-a039-eea4df9db877.png",
        "entry": 5317,
        "entry_name": "G\u00f8y med GW38 d\u00e5",
        "event_total": 52,
        "has_played": true,
        "id": 30299,
        "last_rank": 12200,
        "player_name": "\u00d8yvind Sunde",
        "rank": 18025,
        "rank_sort": 18025,
        "total": 2383
      },
      {
        "club_badge_src": null,
        "entry": 6756,
        "entry_name": ".",
        "event_total": 60,
        "has_played": true,
        "id": 38845,
        "last_rank": 16959,
        "player_name": "Stephen Newbold",
        "rank": 18025,
        "rank_sort": 18026,
        "total": 2383
      },
      {
        "club_badge_src": null,
        "entry": 11301,
        "entry_name": "Saka Potatoes",
        "event_total": 60,
        "has_played": true,
        "id": 67121,
        "last_rank": 16959,
        "player_name": "Matthew Samuel",
        "rank": 18025,
        "rank_sort": 18027,
        "total": 2383
      },
      {
        "club_badge_src": null,
        "entry": 23197,
        "entry_name": "Long live the Boleyn",
        "event_total": 60,
        "has_played": true,
        "id": 145998,
        "last_rank": 16959,
        "player_name": "George Roffey",
        "rank": 18025,
        "rank_sort": 18028,
        "total": 2383
      },
      {
        "club_badge_src": null,
        "entry": 36383,
        "entry_name": "Salahaeyo",
        "event_total": 63,
        "has_played": true,
        "id": 232903,
        "last_rank": 22064,
        "player_name": "KW Chik",
        "rank": 18025,
        "rank_sort": 18029,
        "total": 2383
      },
      {
        "club_badge_src": null,
        "entry": 46186,
        "entry_name": "The Anfield Avengers",
        "event_total": 57,
        "has_played": true,
        "id": 296159,
        "last_rank": 17437,
        "player_name": "Stylianos Agathokleous",
        "rank": 18025,
        "rank_sort": 18030,
        "total": 2383
      },
      {
        "club_badge_src": null,
        "entry": 47395,
        "entry_name": "HereWeCOYS!",
        "event_total": 61,
        "has_played": true,
        "id": 303978,
        "last_rank": 14926,
        "player_name": "Andreas Woxen",
        "rank": 18025,
        "rank_sort": 18031,
        "total": 2383
      },
      {
        "club_badge_src": null,
        "entry": 50593,
        "entry_name": "T\u0119cza 34 P\u0142o\u0144sk",
        "event_total": 63,
        "has_played": true,
        "id": 325431,
        "last_rank": 22064,
        "player_name": "Mateusz Strza\u0142kowski",
        "rank": 18025,
        "rank_sort": 18032,
        "total": 2383
      },
      {
        "club_badge_src": null,
        "entry": 63023,
        "entry_name": "Knightmare",
        "event_total": 66,
        "has_played": true,
        "id": 406518,
        "last_rank": 21159,
        "player_name": "Shreepesh Mathema",
        "rank": 18025,
        "rank_sort": 18033,
        "total": 2383
      },
      {
        "club_badge_src": null,
        "entry": 71651,
        "entry_name": "Rosies Rockets",
        "event_total": 80,
        "has_played": true,
        "id": 465426,
        "last_rank": 39403,
        "player_name": "Stuart Parkinson",
        "rank": 18025,
        "rank_sort": 18034,
        "total": 2383
      },
      {
        "club_badge_src": null,
        "entry": 71825,
        "entry_name": "Jaggistallions",
        "event_total": 69,
        "has_played": true,
        "id": 466604,
        "last_rank": 23522,
        "player_name": "Rahul Jaggi",
        "rank": 18025,
        "rank_sort": 18035,
        "total": 2383
      },
      {
        "club_badge_src": null,
        "entry": 79998,
        "entry_name": "Kidus G",
        "event_total": 68,
        "has_played": true,
        "id": 520516,
        "last_rank": 22685,
        "player_name": "No Mercy KG",
        "rank": 18025,
        "rank_sort": 18036,
        "total": 2383
      },
      {
        "club_badge_src": null,
        "entry": 95020,
        "entry_name": "Sturm und Drang",
        "event_total": 67,
        "has_played": true,
        "id": 620923,
        "last_rank": 21775,
        "player_name": "Gabriel Sand\u00e9n",
        "rank": 18025,
        "rank_sort": 18037,
        "total": 2383
      },
      {
        "club_badge_src": null,
        "entry": 100933,
        "entry_name": "Different Gravy",
        "event_total": 41,
        "has_played": true,
        "id": 658668,
        "last_rank": 9248,
        "player_name": "Mohanad El Zahaby",
        "rank": 18025,
        "rank_sort": 18038,
        "total": 2383
      },
      {
        "club_badge_src": "https://fantasy.premierleague.com/gcs/plfpl-production-adobe-approved/plfpl-production/105587/7048a549-20b7-4d08-874f-4a263b6f8ab9.png",
        "entry": 105587,
        "entry_name": "Lukas FC",
        "event_total": 57,
        "has_played": true,
        "id": 688650,
        "last_rank": 17718,
        "player_name": "Hieu Bui",
        "rank": 18025,
        "rank_sort": 18039,
        "total": 2383
      },
      {
        "club_badge_src": "https://fantasy.premierleague.com/gcs/plfpl-production-adobe-approved/plfpl-production/109185/ae5489bc-d8b6-4816-ad74-dd988c81f064.png",
        "entry": 109185,
        "entry_name": "Donkey Sanctuary",
        "event_total": 69,
        "has_played": true,
        "id": 711845,
        "last_rank": 27020,
        "player_name": "Mike Hamilton",
        "rank": 18025,
        "rank_sort": 18040,
        "total": 2383
      },
      {
        "club_badge_src": null,
        "entry": 110066,
        "entry_name": "HuviOnMiksMitte",
        "event_total": 61,
        "has_played": true,
        "id": 717764,
        "last_rank": 20280,
        "player_name": "Allan Sieger",
        "rank": 18025,
        "rank_sort": 18041,
        "total": 2383
      },
      {
        "club_badge_src": null,
        "entry": 125182,
        "entry_name": "Hakuna Mateta",
        "event_total": 61,
        "has_played": true,
        "id": 816439,
        "last_rank": 20538,
        "player_name": "Jack Austin",
        "rank": 18025,
        "rank_sort": 18042,
        "total": 2383
      },
      {
        "club_badge_src": "https://fantasy.premierleague.com/gcs/plfpl-production-adobe-approved/plfpl-production/244022/592333cd-8db2-4e5a-b000-7e9d9bd3205a.png",
        "entry": 244022,
        "entry_name": "Scary Hours",
        "event_total": 58,
        "has_played": true,
        "id": 1624727,
        "last_rank": 15694,
        "player_name": "Mohammed K",
        "rank": 18025,
        "rank_sort": 18043,
        "total": 2383
      },
      {
        "club_badge_src": "https://fantasy.premierleague.com/gcs/plfpl-production-adobe-approved/plfpl-production/245765/a3618f59-1eb1-47ba-b151-cf5c9e33601f.png",
        "entry": 245765,
        "entry_name": "oscars",
        "event_total": 89,
        "has_played": true,
        "id": 1636277,
        "last_rank": 45252,
        "player_name": "Oscar Malmstr\u00f6m",
        "rank": 18025,
        "rank_sort": 18044,
        "total": 2383
      },
      {
        "club_badge_src": null,
        "entry": 247246,
        "entry_name": "QFS",
        "event_total": 48,
        "has_played": true,
        "id": 1645799,
        "last_rank": 12420,
        "player_name": "Lee Harding",
        "rank": 18025,
        "rank_sort": 18045,
        "total": 2383
      },
      {
        "club_badge_src": "https://fantasy.premierleague.com/gcs/plfpl-production-adobe-approved/plfpl-production/254134/942d1fc2-5a89-4474-b14b-2e4df5c8b32a.png",
        "entry": 254134,
        "entry_name": "Petar Jovanovic BG",
        "event_total": 73,
        "has_played": true,
        "id": 1690536,
        "last_rank": 27020,
        "player_name": "04.12. 1992",
        "rank": 18025,
        "rank_sort": 18046,
        "total": 2383
      },
      {
        "club_badge_src": null,
        "entry": 291069,
        "entry_name": "Topcider",
        "event_total": 66,
        "has_played": true,
        "id": 1941269,
        "last_rank": 24143,
        "player_name": "Nenad Babi\u0107",
        "rank": 18025,
        "rank_sort": 18047,
        "total": 2383
      },
      {
        "club_badge_src": null,
        "entry": 355761,
        "entry_name": "Athletic Billsboa",
        "event_total": 59,
        "has_played": true,
        "id": 2380860,
        "last_rank": 19103,
        "player_name": "David Pickstock",
        "rank": 18025,
        "rank_sort": 18048,
        "total": 2383
      },
      {
        "club_badge_src": null,
        "entry": 397842,
        "entry_name": "Lamb Cunha with Rice",
        "event_total": 66,
        "has_played": true,
        "id": 2667752,
        "last_rank": 24330,
        "player_name": "Gregory Pearce",
        "rank": 18025,
        "rank_sort": 18049,
        "total": 2383
      },
      {
        "club_badge_src": null,
        "entry": 536240,
        "entry_name": "The Bluez",
        "event_total": 56,
        "has_played": true,
        "id": 3609106,
        "last_rank": 16959,
        "player_name": "Feisal Abdulaziz",
        "rank": 18025,
        "rank_sort": 18050,
        "total": 2383
      }
    ]
  }
}