{
  "last_updated_data": "2026-05-24T23:28:17Z",
  "league": {
    "admin_entry": null,
    "closed": false,
    "code_privacy": "p",
    "created": "2025-07-20T23:14:33.933835Z",
    "cup_league": 2815434,
    "has_cup": true,
    "id": 314,
    "league_type": "s",
    "max_entries": null,
    "name": "Overall",
    "rank": null,
    "scoring": "c",
    "start_event": 1
  },
  "new_entries": {
    "has_next": false,
    "page": 1,
    "results": []
  },
  "standings": {
    "has_next": true,
    "page": 1512,
    "results": [
      {
        "club_badge_src": null,
        "entry": 2866746,
        "entry_name": "Jo\u00e3o Me the Money",
        "event_total": 35,
        "has_played": true,
        "id": 20967095,
        "last_rank": 40036,
        "player_name": "Shikhar Bhargava",
        "rank": 75494,
        "rank_sort": 75551,
        "total": 2337
      },
      {
        "club_badge_src": null,
        "entry": 3085556,
        "entry_name": "Wots the Mata",
        "event_total": 57,
        "has_played": true,
        "id": 22733714,
        "last_rank": 77050,
        "player_name": "Andrew Golder",
        "rank": 75494,
        "rank_sort": 75552,
        "total": 2337
      },
      {
        "club_badge_src": null,
        "entry": 3090920,
        "entry_name": "Diop It Like Its Hot",
        "event_total": 55,
        "has_played": true,
        "id": 22779678,
        "last_rank": 72662,
        "player_name": "Josh Reid",
        "rank": 75494,
        "rank_sort": 75553,
        "total": 2337
      },
      {
        "club_badge_src": null,
        "entry": 3146751,
        "entry_name": "Pain In Dias",
        "event_total": 54,
        "has_played": true,
        "id": 23234762,
        "last_rank": 70600,
        "player_name": "Jayden Nguyen",
        "rank": 75494,
        "rank_sort": 75554,
        "total": 2337
      },
      {
        "club_badge_src": null,
        "entry": 3235813,
        "entry_name": "40 Year Old Virgil",
        "event_total": 65,
        "has_played": true,
        "id": 23933162,
        "last_rank": 95640,
        "player_name": "Ben Collins",
        "rank": 75494,
        "rank_sort": 75555,
        "total": 2337
      },
      {
        "club_badge_src": null,
        "entry": 3336184,
        "entry_name": "Ha Cunha Matata",
        "event_total": 65,
        "has_played": true,
        "id": 24741643,
        "last_rank": 95640,
        "player_name": "Matthew Stanbrook",
        "rank": 75494,
        "rank_sort": 75556,
        "total": 2337
      },
      {
        "club_badge_src": null,
        "entry": 3345738,
        "entry_name": "Samer Jabour",
        "event_total": 54,
        "has_played": true,
        "id": 24818226,
        "last_rank": 70757,
        "player_name": "samer jebor",
        "rank": 75494,
        "rank_sort": 75557,
        "total": 2337
      },
      {
        "club_badge_src": null,
        "entry": 3372754,
        "entry_name": "The Vicar of Dibling",
        "event_total": 39,
        "has_played": true,
        "id": 25030547,
        "last_rank": 45252,
        "player_name": "Dan Lawrence",
        "rank": 75494,
        "rank_sort": 75558,
        "total": 2337
      },
      {
        "club_badge_src": null,
        "entry": 3703269,
        "entry_name": "sehbaan's team",
        "event_total": 41,
        "has_played": true,
        "id": 27630963,
        "last_rank": 48363,
        "player_name": "Sehbaan Ali",
        "rank": 75494,
        "rank_sort": 75559,
        "total": 2337
      },
      {
        "club_badge_src": null,
        "entry": 3704010,
        "entry_name": "FCPJBALL",
        "event_total": 37,
        "has_played": true,
        "id": 27636645,
        "last_rank": 42434,
        "player_name": "Pieter Van maarschalkerwaard",
        "rank": 75494,
        "rank_sort": 75560,
        "total": 2337
      },
      {
        "club_badge_src": "https://fantasy.premierleague.com/gcs/plfpl-production-adobe-approved/plfpl-production/3720297/67e4061a-16de-4d72-9b23-48095f5e4879.png",
        "entry": 3720297,
        "entry_name": "Horse it into ya",
        "event_total": 43,
        "has_played": true,
        "id": 27763500,
        "last_rank": 51137,
        "player_name": "Paul Forde",
        "rank": 75494,
        "rank_sort": 75561,
        "total": 2337
      },
      {
        "club_badge_src": null,
        "entry": 3865265,
        "entry_name": "shadowgunners",
        "event_total": 55,
        "has_played": true,
        "id": 28982865,
        "last_rank": 72702,
        "player_name": "Dhairya Modi",
        "rank": 75494,
        "rank_sort": 75562,
        "total": 2337
      },
      {
        "club_badge_src": null,
        "entry": 3883241,
        "entry_name": "Ratoath Harps",
        "event_total": 55,
        "has_played": true,
        "id": 29178640,
        "last_rank": 72815,
        "player_name": "Paul Phillips",
        "rank": 75494,
        "rank_sort": 75563,
        "total": 2337
      },
      {
        "club_badge_src": null,
        "entry": 3901049,
        "entry_name": "jhawtho1998",
        "event_total": 61,
        "has_played": true,
        "id": 29325237,
        "last_rank": 86054,
        "player_name": "Jackson Hawthorne",
        "rank": 75494,
        "rank_sort": 75564,
        "total": 2337
      },
      {
        "club_badge_src": null,
        "entry": 4023088,
        "entry_name": "WAYNE ROONEY UNITED",
        "event_total": 61,
        "has_played": true,
        "id": 30323325,
        "last_rank": 85932,
        "player_name": "Birkir Gretarsson",
        "rank": 75494,
        "rank_sort": 75565,
        "total": 2337
      },
      {
        "club_badge_src": null,
        "entry": 4067733,
        "entry_name": "Overpaid Primadonnas",
        "event_total": 63,
        "has_played": true,
        "id": 30700249,
        "last_rank": 90565,
        "player_name": "Gwyn Griffiths",
        "rank": 75494,
        "rank_sort": 75566,
        "total": 2337
      },
      {
        "club_badge_src": null,
        "entry": 4210713,
        "entry_name": "Placeholder XI",
        "event_total": 66,
        "has_played": true,
        "id": 31880600,
        "last_rank": 98011,
        "player_name": "Iddo Goldfarb",
        "rank": 75494,
        "rank_sort": 75567,
        "total": 2337
      },
      {
        "club_badge_src": null,
        "entry": 4240969,
        "entry_name": "Labean Yamal",
        "event_total": 39,
        "has_played": true,
        "id": 32142099,
        "last_rank": 45416,
        "player_name": "Joe Fettis",
        "rank": 75494,
        "rank_sort": 75568,
        "total": 2337
      },
      {
        "club_badge_src": null,
        "entry": 4397983,
        "entry_name": "Tommy's Tackle",
        "event_total": 90,
        "has_played": true,
        "id": 33443326,
        "last_rank": 175156,
        "player_name": "Richard Holland",
        "rank": 75494,
        "rank_sort": 75569,
        "total": 2337
      },
      {
        "club_badge_src": null,
        "entry": 4587806,
        "entry_name": "Shanghai Surprise",
        "event_total": 53,
        "has_played": true,
        "id": 35030105,
        "last_rank": 68748,
        "player_name": "Martin Murphy",
        "rank": 75494,
        "rank_sort": 75570,
        "total": 2337
      },
      {
        "club_badge_src": null,
        "entry": 4624169,
        "entry_name": "Kinder Mbeumo",
        "event_total": 60,
        "has_played": true,
        "id": 35351472,
        "last_rank": 83698,
        "player_name": "Cian O'Malley",
        "rank": 75494,
        "rank_sort": 75571,
        "total": 2337
      },
      {
        "club_badge_src": "https://fantasy.premierleague.com/gcs/plfpl-production-adobe-approved/plfpl-production/4637442/0110c47d-fb2a-428e-ac68-97864b24ee91.png",
        "entry": 4637442,
        "entry_name": "London is Red",
        "event_total": 50,
        "has_played": true,
        "id": 35464717,
        "last_rank": 63117,
        "player_name": "Vincent Skipper",
        "rank": 75494,
        "rank_sort": 75572,
        "total": 2337
      },
      {
        "club_badge_src": null,
        "entry": 4771884,
        "entry_name": "detarferenc",
        "event_total": 56,
        "has_played": true,
        "id": 36730708,
        "last_rank": 74741,
        "player_name": "Balas Balint",
        "rank": 75494,
        "rank_sort": 75573,
        "total": 2337
      },
      {
        "club_badge_src": "https://fantasy.premierleague.com/gcs/plfpl-production-adobe-approved/plfpl-production/5081248/ce0f19d9-230f-43d3-b626-540ee1b87339.png",
        "entry": 5081248,
        "entry_name": "Belmont Celtics",
        "event_total": 66,
        "has_played": true,
        "id": 39271391,
        "last_rank": 98436,
        "player_name": "Graham Cordingley",
        "rank": 75494,
        "rank_sort": 75574,
        "total": 2337
      },
      {
        "club_badge_src": null,
        "entry": 5162327,
        "entry_name": "Moysey's Babes",
        "event_total": 46,
        "has_played": true,
        "id": 39948691,
        "last_rank": 56369,
        "player_name": "Alfie Davies",
        "rank": 75494,
        "rank_sort": 75575,
        "total": 2337
      },
      {
        "club_badge_src": "https://fantasy.premierleague.com/gcs/plfpl-production-adobe-approved/plfpl-production/5192850/846f2405-8095-4209-be93-ec906f6210a5.png",
        "entry": 5192850,
        "entry_name": "Jurri\u00ebnOverYourHead",
        "event_total": 46,
        "has_played": true,
        "id": 40203951,
        "last_rank": 56180,
        "player_name": "Matt Jones",
        "rank": 75494,
        "rank_sort": 75576,
        "total": 2337
      },
      {
        "club_badge_src": null,
        "entry": 5224619,
        "entry_name": "Rice, Rice, Baby",
        "event_total": 60,
        "has_played": true,
        "id": 40482867,
        "last_rank": 83534,
        "player_name": "Robin Riise",
        "rank": 75494,
        "rank_sort": 75577,
        "total": 2337
      },
      {
        "club_badge_src": "https://fantasy.premierleague.com/gcs/plfpl-production-adobe-approved/plfpl-production/5306715/a142aefd-9362-44a4-8de5-8c470af8ce16.png",
        "entry": 5306715,
        "entry_name": "Carrick & Pray",
        "event_total": 68,
        "has_played": true,
        "id": 41135552,
        "last_rank": 103130,
        "player_name": "Jason Bogg",
        "rank": 75494,
        "rank_sort": 75578,
        "total": 2337
      },
      {
        "club_badge_src": null,
        "entry": 5310443,
        "entry_name": "Los Dingos",
        "event_total": 55,
        "has_played": true,
        "id": 41164654,
        "last_rank": 72815,
        "player_name": "Jakob Nilsson",
        "rank": 75494,
        "rank_sort": 75579,
        "total": 2337
      },
      {
        "club_badge_src": null,
        "entry": 5317039,
        "entry_name": "Offside Runners",
        "event_total": 68,
        "has_played": true,
        "id": 41217068,
        "last_rank": 103054,
        "player_name": "chirag sharma",
        "rank": 75494,
        "rank_sort": 75580,
        "total": 2337
      },
      {
        "club_badge_src": null,
        "entry": 5668727,
        "entry_name": "Name",
        "event_total": 49,
        "has_played": true,
        "id": 44357208,
        "last_rank": 61411,
        "player_name": "Jake Moys",
        "rank": 75494,
        "rank_sort": 75581,
        "total": 2337
      },
      {
        "club_badge_src": "https://fantasy.premierleague.com/gcs/plfpl-production-adobe-approved/plfpl-production/5680074/d7a82d51-b998-4833-b963-435bbb685ad8.png",
        "entry": 5680074,
        "entry_name": "Abu Rock",
        "event_total": 52,
        "has_played": true,
        "id": 44455809,
        "last_rank": 67063,
        "player_name": "Rami Joukhadar",
        "rank": 75494,
        "rank_sort": 75582,
        "total": 2337
      },
      {
        "club_badge_src": null,
        "entry": 5702385,
        "entry_name": "IK Brage",
        "event_total": 52,
        "has_played": true,
        "id": 44648177,
        "last_rank": 66848,
        "player_name": "Patrik Jarmens",
        "rank": 75494,
        "rank_sort": 75583,
        "total": 2337
      },
      {
        "club_badge_src": null,
        "entry": 5837700,
        "entry_name": "FC Bald Fraud",
        "event_total": 41,
        "has_played": true,
        "id": 45823430,
        "last_rank": 48363,
        "player_name": "Cian McEniff",
        "rank": 75494,
        "rank_sort": 75584,
        "total": 2337
      },
      {
        "club_badge_src": null,
        "entry": 5992005,
        "entry_name": "HaCunha Matata",
        "event_total": 61,
        "has_played": true,
        "id": 47217053,
        "last_rank": 86304,
        "player_name": "Joe Bersey",
        "rank": 75494,
        "rank_sort": 75585,
        "total": 2337
      },
      {
        "club_badge_src": null,
        "entry": 6005010,
        "entry_name": "Jack in the Fox",
        "event_total": 55,
        "has_played": true,
        "id": 47342787,
        "last_rank": 73038,
        "player_name": "Jack Marvin",
        "rank": 75494,
        "rank_sort": 75586,
        "total": 2337
      },
      {
        "club_badge_src": null,
        "entry": 6067489,
        "entry_name": "Pinky & DeBruyne",
        "event_total": 37,
        "has_played": true,
        "id": 47891676,
        "last_rank": 42506,
        "player_name": "Ian Pinnington",
        "rank": 75494,
        "rank_sort": 75587,
        "total": 2337
      },
      {
        "club_badge_src": null,
        "entry": 6142691,
        "entry_name": "Skrubbs\u00e5r FC",
        "event_total": 56,
        "has_played": true,
        "id": 48549211,
        "last_rank": 75139,
        "player_name": "Inge Skotte",
        "rank": 75494,
        "rank_sort": 75588,
        "total": 2337
      },
      {
        "club_badge_src": null,
        "entry": 6278025,
        "entry_name": "Okaaay \u0160e\u0161ko",
        "event_total": 51,
        "has_played": true,
        "id": 49717882,
        "last_rank": 64943,
        "player_name": "Rieve Wishart",
        "rank": 75494,
        "rank_sort": 75589,
        "total": 2337
      },
      {
        "club_badge_src": "https://fantasy.premierleague.com/gcs/plfpl-production-adobe-approved/plfpl-production/6362776/7e624b47-1c3e-4bb6-a4a8-4b38046e55f5.png",
        "entry": 6362776,
        "entry_name": "Elanga & S\u00f6hne",
        "event_total": 70,
        "has_played": true,
        "id": 50591878,
        "last_rank": 108567,
        "player_name": "Tyler McCowliff",
        "rank": 75494,
        "rank_sort": 75590,
        "total": 2337
      },
      {
        "club_badge_src": "https://fantasy.premierleague.com/gcs/plfpl-production-adobe-approved/plfpl-production/6518097/91694ff8-b008-4da1-9de6-b428628ec5a1.png",
        "entry": 6518097,
        "entry_name": "Won and Done",
        "event_total": 60,
        "has_played": true,
        "id": 51983279,
        "last_rank": 83934,
        "player_name": "TJ Sheridan",
        "rank": 75494,
        "rank_sort": 75591,
        "total": 2337
      },
      {
        "club_badge_src": null,
        "entry": 6750784,
        "entry_name": "papadubi_cvarkov",
        "event_total": 68,
        "has_played": true,
        "id": 54043901,
        "last_rank": 103130,
        "player_name": "\u0418\u0432\u0430\u043d \u0421\u0440\u0435\u045b\u043a\u043e\u0432\u0438\u045b",
        "rank": 75494,
        "rank_sort": 75592,
        "total": 2337
      },
      {
        "club_badge_src": null,
        "entry": 6846445,
        "entry_name": "It's Coming Home",
        "event_total": 83,
        "has_played": true,
        "id": 54848579,
        "last_rank": 149530,
        "player_name": "Lewis Tyler",
        "rank": 75494,
        "rank_sort": 75593,
        "total": 2337
      },
      {
        "club_badge_src": null,
        "entry": 6903057,
        "entry_name": "Change Name",
        "event_total": 75,
        "has_played": true,
        "id": 55329777,
        "last_rank": 123120,
        "player_name": "Official Wan J \u2705",
        "rank": 75494,
        "rank_sort": 75594,
        "total": 2337
      },
      {
        "club_badge_src": null,
        "entry": 6928690,
        "entry_name": "AJAW",
        "event_total": 47,
        "has_played": true,
        "id": 55543883,
        "last_rank": 58071,
        "player_name": "Alex Wall",
        "rank": 75494,
        "rank_sort": 75595,
        "total": 2337
      },
      {
        "club_badge_src": null,
        "entry": 7038062,
        "entry_name": "Jeg gir meg aldri",
        "event_total": 41,
        "has_played": true,
        "id": 56578693,
        "last_rank": 48084,
        "player_name": "Tone Cecilie Nyberg",
        "rank": 75494,
        "rank_sort": 75596,
        "total": 2337
      },
      {
        "club_badge_src": null,
        "entry": 7284082,
        "entry_name": "al",
        "event_total": 64,
        "has_played": true,
        "id": 58927691,
        "last_rank": 93052,
        "player_name": "Alex Wilkinson",
        "rank": 75494,
        "rank_sort": 75597,
        "total": 2337
      },
      {
        "club_badge_src": null,
        "entry": 7386567,
        "entry_name": "........",
        "event_total": 57,
        "has_played": true,
        "id": 59886981,
        "last_rank": 77050,
        "player_name": "Mital Patel",
        "rank": 75494,
        "rank_sort": 75598,
        "total": 2337
      },
      {
        "club_badge_src": null,
        "entry": 7775258,
        "entry_name": "We go again",
        "event_total": 52,
        "has_played": true,
        "id": 63850093,
        "last_rank": 66738,
        "player_name": "David O Sullivan",
        "rank": 75494,
        "rank_sort": 75599,
        "total": 2337
      },
      {
        "club_badge_src": null,
        "entry": 7776188,
        "entry_name": "Back to Back",
        "event_total": 49,
        "has_played": true,
        "id": 63858671,
        "last_rank": 61411,
        "player_name": "Rick Curry",
        "rank": 75494,
        "rank_sort": 75600,
        "total": 2337
      }
    ]
  }
}