{
  "last_updated_data": "2026-05-24T23:28:17Z",
  "league": {
    "admin_entry": null,
    "closed": false,
    "code_privacy": "p",
    "created": "2025-07-20T23:14:33.933835Z",
    "cup_league": 2815434,
    "has_cup": true,
    "id": 314,
    "league_type": "s",
    "max_entries": null,
    "name": "Overall",
    "rank": null,
    "scoring": "c",
    "start_event": 1
  },
  "new_entries": {
    "has_next": false,
    "page": 1,
    "results": []
  },
  "standings": {
    "has_next": true,
    "page": 28,
    "results": [
      {
        "club_badge_src": null,
        "entry": 373906,
        "entry_name": "Al-Maeda",
        "event_total": 55,
        "has_played": true,
        "id": 2501844,
        "last_rank": 1065,
        "player_name": "Tom Lipton",
        "rank": 1342,
        "rank_sort": 1351,
        "total": 2442
      },
      {
        "club_badge_src": null,
        "entry": 460392,
        "entry_name": "Chexbrester United",
        "event_total": 64,
        "has_played": true,
        "id": 3088421,
        "last_rank": 1372,
        "player_name": "Ga\u00ebtan Favre",
        "rank": 1342,
        "rank_sort": 1352,
        "total": 2442
      },
      {
        "club_badge_src": null,
        "entry": 659588,
        "entry_name": "eggs2",
        "event_total": 55,
        "has_played": true,
        "id": 4457634,
        "last_rank": 1096,
        "player_name": "Corb K",
        "rank": 1342,
        "rank_sort": 1353,
        "total": 2442
      },
      {
        "club_badge_src": null,
        "entry": 670488,
        "entry_name": "Shanklin rovers",
        "event_total": 69,
        "has_played": true,
        "id": 4534820,
        "last_rank": 2189,
        "player_name": "Desmond Webb",
        "rank": 1342,
        "rank_sort": 1354,
        "total": 2442
      },
      {
        "club_badge_src": null,
        "entry": 1540394,
        "entry_name": "Diamond hands",
        "event_total": 64,
        "has_played": true,
        "id": 10750922,
        "last_rank": 1689,
        "player_name": "Peter Mok",
        "rank": 1342,
        "rank_sort": 1355,
        "total": 2442
      },
      {
        "club_badge_src": null,
        "entry": 1964554,
        "entry_name": "Jun-HoBaeyernM\u00fcnchen",
        "event_total": 58,
        "has_played": true,
        "id": 13861619,
        "last_rank": 1263,
        "player_name": "Martin Jones",
        "rank": 1342,
        "rank_sort": 1356,
        "total": 2442
      },
      {
        "club_badge_src": null,
        "entry": 2044448,
        "entry_name": "Cunha Believe It?",
        "event_total": 54,
        "has_played": true,
        "id": 14478858,
        "last_rank": 1031,
        "player_name": "Isaac Johnstone",
        "rank": 1342,
        "rank_sort": 1357,
        "total": 2442
      },
      {
        "club_badge_src": null,
        "entry": 2722114,
        "entry_name": "Trust the Process FC",
        "event_total": 57,
        "has_played": true,
        "id": 19587607,
        "last_rank": 1203,
        "player_name": "Ben Hastings",
        "rank": 1342,
        "rank_sort": 1358,
        "total": 2442
      },
      {
        "club_badge_src": null,
        "entry": 4128601,
        "entry_name": "FarkeBall",
        "event_total": 70,
        "has_played": true,
        "id": 31197755,
        "last_rank": 2328,
        "player_name": "Marin\u00f3 Helgason",
        "rank": 1342,
        "rank_sort": 1359,
        "total": 2442
      },
      {
        "club_badge_src": null,
        "entry": 4518167,
        "entry_name": "Bruno Dos Tres",
        "event_total": 58,
        "has_played": true,
        "id": 34455601,
        "last_rank": 1240,
        "player_name": "Oz Fernandes",
        "rank": 1342,
        "rank_sort": 1360,
        "total": 2442
      },
      {
        "club_badge_src": null,
        "entry": 4645196,
        "entry_name": "The DAK",
        "event_total": 53,
        "has_played": true,
        "id": 35533282,
        "last_rank": 999,
        "player_name": "Daniel Knox",
        "rank": 1342,
        "rank_sort": 1361,
        "total": 2442
      },
      {
        "club_badge_src": null,
        "entry": 5837262,
        "entry_name": "Ctrl + Alt + De Ligt",
        "event_total": 64,
        "has_played": true,
        "id": 45819617,
        "last_rank": 1372,
        "player_name": "Gari Jones",
        "rank": 1342,
        "rank_sort": 1362,
        "total": 2442
      },
      {
        "club_badge_src": null,
        "entry": 5979748,
        "entry_name": "Schrub United",
        "event_total": 62,
        "has_played": true,
        "id": 47082142,
        "last_rank": 1551,
        "player_name": "Touchanont Bussadeegarn",
        "rank": 1342,
        "rank_sort": 1363,
        "total": 2442
      },
      {
        "club_badge_src": "https://fantasy.premierleague.com/gcs/plfpl-production-adobe-approved/plfpl-production/6817400/bc2582f6-8d67-446d-a489-57447cc2a839.png",
        "entry": 6817400,
        "entry_name": "Stretford End",
        "event_total": 63,
        "has_played": true,
        "id": 54601127,
        "last_rank": 1633,
        "player_name": "Brighton Lema",
        "rank": 1342,
        "rank_sort": 1364,
        "total": 2442
      },
      {
        "club_badge_src": null,
        "entry": 7030140,
        "entry_name": "Change Name",
        "event_total": 51,
        "has_played": true,
        "id": 56495591,
        "last_rank": 896,
        "player_name": "Glenn Marsh",
        "rank": 1342,
        "rank_sort": 1365,
        "total": 2442
      },
      {
        "club_badge_src": null,
        "entry": 8147924,
        "entry_name": "Backstreet Moyes",
        "event_total": 55,
        "has_played": true,
        "id": 67249332,
        "last_rank": 1096,
        "player_name": "Stav Zangoulos",
        "rank": 1342,
        "rank_sort": 1366,
        "total": 2442
      },
      {
        "club_badge_src": null,
        "entry": 838,
        "entry_name": "Koffinho\u00b4s Warrios",
        "event_total": 56,
        "has_played": true,
        "id": 4627,
        "last_rank": 1152,
        "player_name": "Kristoffer Lindfors",
        "rank": 1367,
        "rank_sort": 1367,
        "total": 2442
      },
      {
        "club_badge_src": null,
        "entry": 100575,
        "entry_name": "Eze Come, Eze Go",
        "event_total": 72,
        "has_played": true,
        "id": 656355,
        "last_rank": 2553,
        "player_name": "Ketan Hari",
        "rank": 1367,
        "rank_sort": 1368,
        "total": 2442
      },
      {
        "club_badge_src": "https://fantasy.premierleague.com/gcs/plfpl-production-adobe-approved/plfpl-production/587202/aa432a6c-3295-4fff-a950-734d2f1bbb4a.png",
        "entry": 587202,
        "entry_name": "Jolley's Jewels",
        "event_total": 49,
        "has_played": true,
        "id": 3952441,
        "last_rank": 806,
        "player_name": "Paul Jolley",
        "rank": 1367,
        "rank_sort": 1369,
        "total": 2442
      },
      {
        "club_badge_src": null,
        "entry": 663860,
        "entry_name": "Rogers Rockets",
        "event_total": 65,
        "has_played": true,
        "id": 4488094,
        "last_rank": 1797,
        "player_name": "Dafydd Rogers",
        "rank": 1367,
        "rank_sort": 1370,
        "total": 2442
      },
      {
        "club_badge_src": null,
        "entry": 693046,
        "entry_name": "BEACHY XI",
        "event_total": 61,
        "has_played": true,
        "id": 4693655,
        "last_rank": 1478,
        "player_name": "Luke Beacham",
        "rank": 1367,
        "rank_sort": 1371,
        "total": 2442
      },
      {
        "club_badge_src": "https://fantasy.premierleague.com/gcs/plfpl-production-adobe-approved/plfpl-production/1380520/4c285159-9266-475d-85de-aae446f8bf0b.png",
        "entry": 1380520,
        "entry_name": "DevTeam",
        "event_total": 47,
        "has_played": true,
        "id": 9597874,
        "last_rank": 727,
        "player_name": "\u041d\u0443\u0440\u0441\u0443\u043b\u0442\u0430\u043d \u0428\u0430\u043d\u0442\u0430\u0435\u0432",
        "rank": 1367,
        "rank_sort": 1372,
        "total": 2442
      },
      {
        "club_badge_src": null,
        "entry": 1614788,
        "entry_name": "Tesco McNeil Deal",
        "event_total": 69,
        "has_played": true,
        "id": 11298948,
        "last_rank": 1797,
        "player_name": "Rob Davies",
        "rank": 1367,
        "rank_sort": 1373,
        "total": 2442
      },
      {
        "club_badge_src": null,
        "entry": 1968644,
        "entry_name": "Dango the Mango",
        "event_total": 71,
        "has_played": true,
        "id": 13893518,
        "last_rank": 2468,
        "player_name": "Jamie Hoyle",
        "rank": 1367,
        "rank_sort": 1374,
        "total": 2442
      },
      {
        "club_badge_src": "https://fantasy.premierleague.com/gcs/plfpl-production-adobe-approved/plfpl-production/4393078/e4c2c010-37b9-4936-ac95-d1960b824c47.png",
        "entry": 4393078,
        "entry_name": "Cole runnings",
        "event_total": 63,
        "has_played": true,
        "id": 33398019,
        "last_rank": 1321,
        "player_name": "Dj Mckeever",
        "rank": 1367,
        "rank_sort": 1375,
        "total": 2442
      },
      {
        "club_badge_src": null,
        "entry": 4971073,
        "entry_name": "We dont have to sell",
        "event_total": 71,
        "has_played": true,
        "id": 38367853,
        "last_rank": 2468,
        "player_name": "Cameron Wallace",
        "rank": 1367,
        "rank_sort": 1376,
        "total": 2442
      },
      {
        "club_badge_src": null,
        "entry": 5066778,
        "entry_name": "MoneyMount FC",
        "event_total": 67,
        "has_played": true,
        "id": 39154729,
        "last_rank": 1609,
        "player_name": "Haris Alvi",
        "rank": 1367,
        "rank_sort": 1377,
        "total": 2442
      },
      {
        "club_badge_src": null,
        "entry": 5999850,
        "entry_name": "Shredz90",
        "event_total": 50,
        "has_played": true,
        "id": 47297177,
        "last_rank": 535,
        "player_name": "Stefan Garrett",
        "rank": 1367,
        "rank_sort": 1378,
        "total": 2442
      },
      {
        "club_badge_src": null,
        "entry": 91014,
        "entry_name": "Tribute to del Piero",
        "event_total": 59,
        "has_played": true,
        "id": 594390,
        "last_rank": 1338,
        "player_name": "Nordin del Piero",
        "rank": 1379,
        "rank_sort": 1379,
        "total": 2442
      },
      {
        "club_badge_src": null,
        "entry": 923629,
        "entry_name": "Twista",
        "event_total": 68,
        "has_played": true,
        "id": 6353528,
        "last_rank": 2141,
        "player_name": "Mustafa Mohammed",
        "rank": 1379,
        "rank_sort": 1380,
        "total": 2442
      },
      {
        "club_badge_src": null,
        "entry": 1417465,
        "entry_name": "Eze Come Eze Go",
        "event_total": 64,
        "has_played": true,
        "id": 9869047,
        "last_rank": 1734,
        "player_name": "Connor Buckler",
        "rank": 1379,
        "rank_sort": 1381,
        "total": 2442
      },
      {
        "club_badge_src": null,
        "entry": 1042323,
        "entry_name": "Szoboslai So Fly",
        "event_total": 59,
        "has_played": true,
        "id": 7213134,
        "last_rank": 1342,
        "player_name": "Preben Young",
        "rank": 1382,
        "rank_sort": 1382,
        "total": 2442
      },
      {
        "club_badge_src": null,
        "entry": 1982905,
        "entry_name": "asam keping",
        "event_total": 74,
        "has_played": true,
        "id": 14005729,
        "last_rank": 2920,
        "player_name": "Ayaq Panaih",
        "rank": 1382,
        "rank_sort": 1383,
        "total": 2442
      },
      {
        "club_badge_src": null,
        "entry": 7165811,
        "entry_name": "A Cunha Mateta",
        "event_total": 67,
        "has_played": true,
        "id": 57813602,
        "last_rank": 2009,
        "player_name": "Alex Maxwell",
        "rank": 1382,
        "rank_sort": 1384,
        "total": 2442
      },
      {
        "club_badge_src": null,
        "entry": 7934091,
        "entry_name": "Winning XI",
        "event_total": 56,
        "has_played": true,
        "id": 65298043,
        "last_rank": 768,
        "player_name": "Mike Kiddell",
        "rank": 1382,
        "rank_sort": 1385,
        "total": 2442
      },
      {
        "club_badge_src": null,
        "entry": 891799,
        "entry_name": "PREM DESTROYERS RAHH",
        "event_total": 53,
        "has_played": true,
        "id": 6122049,
        "last_rank": 808,
        "player_name": "Raghav Srivastava",
        "rank": 1386,
        "rank_sort": 1386,
        "total": 2442
      },
      {
        "club_badge_src": null,
        "entry": 4422852,
        "entry_name": "Alberts demoner",
        "event_total": 68,
        "has_played": true,
        "id": 33652696,
        "last_rank": 2151,
        "player_name": "Albin Jakobsson",
        "rank": 1386,
        "rank_sort": 1387,
        "total": 2442
      },
      {
        "club_badge_src": null,
        "entry": 7487714,
        "entry_name": "Final Fantasy",
        "event_total": 74,
        "has_played": true,
        "id": 61123451,
        "last_rank": 2377,
        "player_name": "Rinoa Heartilly",
        "rank": 1388,
        "rank_sort": 1388,
        "total": 2442
      },
      {
        "club_badge_src": null,
        "entry": 9612423,
        "entry_name": "gvura",
        "event_total": 59,
        "has_played": true,
        "id": 81460583,
        "last_rank": 1348,
        "player_name": "Or Gvura",
        "rank": 1389,
        "rank_sort": 1389,
        "total": 2442
      },
      {
        "club_badge_src": null,
        "entry": 1221862,
        "entry_name": "Europa Rejects",
        "event_total": 60,
        "has_played": true,
        "id": 8483111,
        "last_rank": 1174,
        "player_name": "Luke Lonsdale",
        "rank": 1390,
        "rank_sort": 1390,
        "total": 2442
      },
      {
        "club_badge_src": null,
        "entry": 3531985,
        "entry_name": "haryB9",
        "event_total": 54,
        "has_played": true,
        "id": 26287674,
        "last_rank": 1061,
        "player_name": "Mohammed Kirkuk",
        "rank": 1391,
        "rank_sort": 1391,
        "total": 2442
      },
      {
        "club_badge_src": null,
        "entry": 5420312,
        "entry_name": "FC Flairey",
        "event_total": 66,
        "has_played": true,
        "id": 42156111,
        "last_rank": 1953,
        "player_name": "Alfie Airey",
        "rank": 1392,
        "rank_sort": 1392,
        "total": 2441
      },
      {
        "club_badge_src": null,
        "entry": 4127,
        "entry_name": "MassUTD",
        "event_total": 37,
        "has_played": true,
        "id": 23428,
        "last_rank": 426,
        "player_name": "Massimo De Luca",
        "rank": 1393,
        "rank_sort": 1393,
        "total": 2441
      },
      {
        "club_badge_src": null,
        "entry": 6573835,
        "entry_name": "Skal det g\u00e5 i \u00e5r?",
        "event_total": 64,
        "has_played": true,
        "id": 52482942,
        "last_rank": 1751,
        "player_name": "Sverre Saugstad",
        "rank": 1394,
        "rank_sort": 1394,
        "total": 2441
      },
      {
        "club_badge_src": null,
        "entry": 2493,
        "entry_name": "adfaf",
        "event_total": 62,
        "has_played": true,
        "id": 13907,
        "last_rank": 1595,
        "player_name": "Jarl Ekremsvik Nartey",
        "rank": 1395,
        "rank_sort": 1395,
        "total": 2441
      },
      {
        "club_badge_src": "https://fantasy.premierleague.com/gcs/plfpl-production-adobe-approved/plfpl-production/6546/9229f6d5-3644-4be3-8fa7-852c605786b2.png",
        "entry": 6546,
        "entry_name": "Yoro Wizard Harry",
        "event_total": 84,
        "has_played": true,
        "id": 37588,
        "last_rank": 4693,
        "player_name": "Talon Baker",
        "rank": 1395,
        "rank_sort": 1396,
        "total": 2441
      },
      {
        "club_badge_src": null,
        "entry": 20098,
        "entry_name": "Espresso Martinelli",
        "event_total": 78,
        "has_played": true,
        "id": 125135,
        "last_rank": 3562,
        "player_name": "Max Jarman",
        "rank": 1395,
        "rank_sort": 1397,
        "total": 2441
      },
      {
        "club_badge_src": null,
        "entry": 1443798,
        "entry_name": "Bald Rooneys",
        "event_total": 66,
        "has_played": true,
        "id": 10060627,
        "last_rank": 1956,
        "player_name": "Ian McDermott",
        "rank": 1395,
        "rank_sort": 1398,
        "total": 2441
      },
      {
        "club_badge_src": null,
        "entry": 7445131,
        "entry_name": "Rallerelegation FC",
        "event_total": 61,
        "has_played": true,
        "id": 60570384,
        "last_rank": 1506,
        "player_name": "Rasmus Back",
        "rank": 1395,
        "rank_sort": 1399,
        "total": 2441
      },
      {
        "club_badge_src": null,
        "entry": 9259565,
        "entry_name": "Oops we did it again",
        "event_total": 66,
        "has_played": true,
        "id": 78015755,
        "last_rank": 1961,
        "player_name": "Hassan Jhetam",
        "rank": 1395,
        "rank_sort": 1400,
        "total": 2441
      }
    ]
  }
}