{
  "last_updated_data": "2026-05-24T23:28:17Z",
  "league": {
    "admin_entry": null,
    "closed": false,
    "code_privacy": "p",
    "created": "2025-07-20T23:14:33.933835Z",
    "cup_league": 2815434,
    "has_cup": true,
    "id": 314,
    "league_type": "s",
    "max_entries": null,
    "name": "Overall",
    "rank": null,
    "scoring": "c",
    "start_event": 1
  },
  "new_entries": {
    "has_next": false,
    "page": 1,
    "results": []
  },
  "standings": {
    "has_next": true,
    "page": 1481,
    "results": [
      {
        "club_badge_src": null,
        "entry": 48372,
        "entry_name": "Lonkyo United",
        "event_total": 79,
        "has_played": true,
        "id": 310610,
        "last_rank": 119948,
        "player_name": "Takuya Tsunekawa",
        "rank": 73983,
        "rank_sort": 74001,
        "total": 2338
      },
      {
        "club_badge_src": null,
        "entry": 51592,
        "entry_name": "Slot Machine",
        "event_total": 35,
        "has_played": true,
        "id": 331777,
        "last_rank": 39246,
        "player_name": "Zayd Razzaq",
        "rank": 73983,
        "rank_sort": 74002,
        "total": 2338
      },
      {
        "club_badge_src": null,
        "entry": 53328,
        "entry_name": "Williams Wanderers",
        "event_total": 70,
        "has_played": true,
        "id": 343067,
        "last_rank": 105963,
        "player_name": "Cam Williams",
        "rank": 73983,
        "rank_sort": 74003,
        "total": 2338
      },
      {
        "club_badge_src": "https://fantasy.premierleague.com/gcs/plfpl-production-adobe-approved/plfpl-production/56055/f38671a9-63a7-4b0a-8e97-d0136cbdc5b5.png",
        "entry": 56055,
        "entry_name": "Moaa city",
        "event_total": 41,
        "has_played": true,
        "id": 361025,
        "last_rank": 47417,
        "player_name": "ahmed Elwan",
        "rank": 73983,
        "rank_sort": 74004,
        "total": 2338
      },
      {
        "club_badge_src": null,
        "entry": 67260,
        "entry_name": "Str\u00f8mpetape",
        "event_total": 66,
        "has_played": true,
        "id": 435439,
        "last_rank": 86304,
        "player_name": "Henrik J\u00f8ssund Karlsen",
        "rank": 73983,
        "rank_sort": 74005,
        "total": 2338
      },
      {
        "club_badge_src": null,
        "entry": 67629,
        "entry_name": "brodgeball 2.0",
        "event_total": 53,
        "has_played": true,
        "id": 437902,
        "last_rank": 59813,
        "player_name": "James Guckian",
        "rank": 73983,
        "rank_sort": 74006,
        "total": 2338
      },
      {
        "club_badge_src": null,
        "entry": 69475,
        "entry_name": "Beale or No Beale",
        "event_total": 59,
        "has_played": true,
        "id": 450682,
        "last_rank": 79190,
        "player_name": "Dave Moloney",
        "rank": 73983,
        "rank_sort": 74007,
        "total": 2338
      },
      {
        "club_badge_src": null,
        "entry": 70783,
        "entry_name": "Shuuuu",
        "event_total": 64,
        "has_played": true,
        "id": 459652,
        "last_rank": 91006,
        "player_name": "Kazaf Chan",
        "rank": 73983,
        "rank_sort": 74008,
        "total": 2338
      },
      {
        "club_badge_src": "https://fantasy.premierleague.com/gcs/plfpl-production-adobe-approved/plfpl-production/80423/b5632ec6-2284-4550-b931-569e7891329d.png",
        "entry": 80423,
        "entry_name": "Forever 20",
        "event_total": 67,
        "has_played": true,
        "id": 523245,
        "last_rank": 98896,
        "player_name": "Steven Bowron",
        "rank": 73983,
        "rank_sort": 74009,
        "total": 2338
      },
      {
        "club_badge_src": null,
        "entry": 84257,
        "entry_name": "champagne 11",
        "event_total": 65,
        "has_played": true,
        "id": 548534,
        "last_rank": 83698,
        "player_name": "Malik Jalloh",
        "rank": 73983,
        "rank_sort": 74010,
        "total": 2338
      },
      {
        "club_badge_src": null,
        "entry": 85645,
        "entry_name": "Team Method",
        "event_total": 61,
        "has_played": true,
        "id": 557892,
        "last_rank": 75139,
        "player_name": "Kojo Method",
        "rank": 73983,
        "rank_sort": 74011,
        "total": 2338
      },
      {
        "club_badge_src": null,
        "entry": 87501,
        "entry_name": "Laluuu",
        "event_total": 51,
        "has_played": true,
        "id": 570656,
        "last_rank": 63724,
        "player_name": "Daud Asghar",
        "rank": 73983,
        "rank_sort": 74012,
        "total": 2338
      },
      {
        "club_badge_src": null,
        "entry": 87709,
        "entry_name": "Peaky Reijnders",
        "event_total": 51,
        "has_played": true,
        "id": 572062,
        "last_rank": 63724,
        "player_name": "Phil Mark",
        "rank": 73983,
        "rank_sort": 74013,
        "total": 2338
      },
      {
        "club_badge_src": null,
        "entry": 93886,
        "entry_name": "Paqueta Crisps",
        "event_total": 51,
        "has_played": true,
        "id": 613540,
        "last_rank": 63390,
        "player_name": "Finlay Macaulay",
        "rank": 73983,
        "rank_sort": 74014,
        "total": 2338
      },
      {
        "club_badge_src": null,
        "entry": 97146,
        "entry_name": "Antonsworld",
        "event_total": 67,
        "has_played": true,
        "id": 634522,
        "last_rank": 98896,
        "player_name": "Anton Agrest",
        "rank": 73983,
        "rank_sort": 74015,
        "total": 2338
      },
      {
        "club_badge_src": "https://fantasy.premierleague.com/gcs/plfpl-production-adobe-approved/plfpl-production/100571/79b73ffa-29dc-4c8d-8258-2607515a672f.png",
        "entry": 100571,
        "entry_name": "Wirtz Case Scenario",
        "event_total": 54,
        "has_played": true,
        "id": 656326,
        "last_rank": 61411,
        "player_name": "Rob Reid",
        "rank": 73983,
        "rank_sort": 74016,
        "total": 2338
      },
      {
        "club_badge_src": "https://fantasy.premierleague.com/gcs/plfpl-production-adobe-approved/plfpl-production/109091/9ed3744b-8864-4421-a08c-dbfc30cb937a.png",
        "entry": 109091,
        "entry_name": "For Beto for Wirtz",
        "event_total": 54,
        "has_played": true,
        "id": 711219,
        "last_rank": 68957,
        "player_name": "Carl Meade",
        "rank": 73983,
        "rank_sort": 74017,
        "total": 2338
      },
      {
        "club_badge_src": null,
        "entry": 117875,
        "entry_name": "FintasyPremierLeague",
        "event_total": 51,
        "has_played": true,
        "id": 769325,
        "last_rank": 56369,
        "player_name": "Finlay Horn",
        "rank": 73983,
        "rank_sort": 74018,
        "total": 2338
      },
      {
        "club_badge_src": null,
        "entry": 118702,
        "entry_name": "Power Reijnders",
        "event_total": 52,
        "has_played": true,
        "id": 774636,
        "last_rank": 65475,
        "player_name": "Wesley Lennarts",
        "rank": 73983,
        "rank_sort": 74019,
        "total": 2338
      },
      {
        "club_badge_src": null,
        "entry": 120597,
        "entry_name": "Jcc",
        "event_total": 60,
        "has_played": true,
        "id": 786868,
        "last_rank": 81646,
        "player_name": "John Chin",
        "rank": 73983,
        "rank_sort": 74020,
        "total": 2338
      },
      {
        "club_badge_src": null,
        "entry": 125883,
        "entry_name": "Bucky Lastards",
        "event_total": 48,
        "has_played": true,
        "id": 820937,
        "last_rank": 58071,
        "player_name": "Max Bungay",
        "rank": 73983,
        "rank_sort": 74021,
        "total": 2338
      },
      {
        "club_badge_src": "https://fantasy.premierleague.com/gcs/plfpl-production-adobe-approved/plfpl-production/137683/17683d94-8e53-4ad3-9786-4189379bb8f8.png",
        "entry": 137683,
        "entry_name": "Poni Brate Nicko",
        "event_total": 54,
        "has_played": true,
        "id": 897656,
        "last_rank": 69323,
        "player_name": "Ivan Cakalj",
        "rank": 73983,
        "rank_sort": 74022,
        "total": 2338
      },
      {
        "club_badge_src": null,
        "entry": 148703,
        "entry_name": "CC",
        "event_total": 59,
        "has_played": true,
        "id": 974828,
        "last_rank": 79817,
        "player_name": "Jake Holden",
        "rank": 73983,
        "rank_sort": 74023,
        "total": 2338
      },
      {
        "club_badge_src": "https://fantasy.premierleague.com/gcs/plfpl-production-adobe-approved/plfpl-production/151371/3b87a62e-a074-47b6-b5ab-017c420e67e6.png",
        "entry": 151371,
        "entry_name": "LIVER POOL",
        "event_total": 49,
        "has_played": true,
        "id": 993065,
        "last_rank": 60168,
        "player_name": "Haytham Mohamed",
        "rank": 73983,
        "rank_sort": 74024,
        "total": 2338
      },
      {
        "club_badge_src": null,
        "entry": 153220,
        "entry_name": "Giroud Sandstorm fc",
        "event_total": 63,
        "has_played": true,
        "id": 1006087,
        "last_rank": 89055,
        "player_name": "William Kennedy",
        "rank": 73983,
        "rank_sort": 74025,
        "total": 2338
      },
      {
        "club_badge_src": null,
        "entry": 155885,
        "entry_name": "Giz Leny Yoro number",
        "event_total": 66,
        "has_played": true,
        "id": 1024857,
        "last_rank": 86054,
        "player_name": "Gary Maguire",
        "rank": 73983,
        "rank_sort": 74026,
        "total": 2338
      },
      {
        "club_badge_src": null,
        "entry": 158061,
        "entry_name": "Lamoooona",
        "event_total": 62,
        "has_played": true,
        "id": 1040019,
        "last_rank": 77258,
        "player_name": "Yamen Ahmed",
        "rank": 73983,
        "rank_sort": 74027,
        "total": 2338
      },
      {
        "club_badge_src": null,
        "entry": 159877,
        "entry_name": "Saka Potatoes",
        "event_total": 63,
        "has_played": true,
        "id": 1052546,
        "last_rank": 89055,
        "player_name": "Mark Thomson",
        "rank": 73983,
        "rank_sort": 74028,
        "total": 2338
      },
      {
        "club_badge_src": null,
        "entry": 170510,
        "entry_name": "Wirtz Nightmare",
        "event_total": 65,
        "has_played": true,
        "id": 1126538,
        "last_rank": 83934,
        "player_name": "Joseph Camber",
        "rank": 73983,
        "rank_sort": 74029,
        "total": 2338
      },
      {
        "club_badge_src": null,
        "entry": 177884,
        "entry_name": "Zubi Zubi Zuuuu",
        "event_total": 51,
        "has_played": true,
        "id": 1174038,
        "last_rank": 63724,
        "player_name": "Pravin Thapa",
        "rank": 73983,
        "rank_sort": 74030,
        "total": 2338
      },
      {
        "club_badge_src": null,
        "entry": 180558,
        "entry_name": "Captain Big Dog",
        "event_total": 58,
        "has_played": true,
        "id": 1191553,
        "last_rank": 77676,
        "player_name": "Stephan Lessig",
        "rank": 73983,
        "rank_sort": 74031,
        "total": 2338
      },
      {
        "club_badge_src": null,
        "entry": 182152,
        "entry_name": "Eobo\u2019s Flobos",
        "event_total": 46,
        "has_played": true,
        "id": 1202014,
        "last_rank": 48363,
        "player_name": "Eoin O'Connor",
        "rank": 73983,
        "rank_sort": 74032,
        "total": 2338
      },
      {
        "club_badge_src": null,
        "entry": 183855,
        "entry_name": "Ekitike Taka",
        "event_total": 31,
        "has_played": true,
        "id": 1213849,
        "last_rank": 34293,
        "player_name": "Nick Walters",
        "rank": 73983,
        "rank_sort": 74033,
        "total": 2338
      },
      {
        "club_badge_src": null,
        "entry": 184485,
        "entry_name": "Disen Divers",
        "event_total": 42,
        "has_played": true,
        "id": 1218238,
        "last_rank": 42648,
        "player_name": "Mattias Undlien",
        "rank": 73983,
        "rank_sort": 74034,
        "total": 2338
      },
      {
        "club_badge_src": null,
        "entry": 190288,
        "entry_name": "Team Steve",
        "event_total": 65,
        "has_played": true,
        "id": 1260014,
        "last_rank": 93186,
        "player_name": "Stephen Hay",
        "rank": 73983,
        "rank_sort": 74035,
        "total": 2338
      },
      {
        "club_badge_src": null,
        "entry": 215918,
        "entry_name": "Gunners",
        "event_total": 61,
        "has_played": true,
        "id": 1436029,
        "last_rank": 84360,
        "player_name": "Shahryar Vaziri",
        "rank": 73983,
        "rank_sort": 74036,
        "total": 2338
      },
      {
        "club_badge_src": null,
        "entry": 223489,
        "entry_name": "HaalandGlobetrotters",
        "event_total": 43,
        "has_played": true,
        "id": 1486660,
        "last_rank": 50199,
        "player_name": "Paul Wiltshire",
        "rank": 73983,
        "rank_sort": 74037,
        "total": 2338
      },
      {
        "club_badge_src": "https://fantasy.premierleague.com/gcs/plfpl-production-adobe-approved/plfpl-production/226155/a1441e18-912b-41c3-a4a5-7ec48724a2e0.png",
        "entry": 226155,
        "entry_name": "Me,Myself Ndiaye",
        "event_total": 60,
        "has_played": true,
        "id": 1504447,
        "last_rank": 81646,
        "player_name": "Darragh Hickey",
        "rank": 73983,
        "rank_sort": 74038,
        "total": 2338
      },
      {
        "club_badge_src": null,
        "entry": 255132,
        "entry_name": "Akshay's Team",
        "event_total": 65,
        "has_played": true,
        "id": 1697096,
        "last_rank": 93443,
        "player_name": "Akshay Gupta",
        "rank": 73983,
        "rank_sort": 74039,
        "total": 2338
      },
      {
        "club_badge_src": null,
        "entry": 264643,
        "entry_name": "Piktor Lockeres",
        "event_total": 57,
        "has_played": true,
        "id": 1759934,
        "last_rank": 74898,
        "player_name": "Junior Blinco",
        "rank": 73983,
        "rank_sort": 74040,
        "total": 2338
      },
      {
        "club_badge_src": null,
        "entry": 270576,
        "entry_name": "AinsleyMaitlandNils",
        "event_total": 69,
        "has_played": true,
        "id": 1800054,
        "last_rank": 103254,
        "player_name": "Nils van der Landen",
        "rank": 73983,
        "rank_sort": 74041,
        "total": 2338
      },
      {
        "club_badge_src": "https://fantasy.premierleague.com/gcs/plfpl-production-adobe-approved/plfpl-production/271273/9f6893cb-9de3-4874-972d-d75f2f4abcab.png",
        "entry": 271273,
        "entry_name": "Elanga La La Long",
        "event_total": 40,
        "has_played": true,
        "id": 1804692,
        "last_rank": 45416,
        "player_name": "Shakir Shakir",
        "rank": 73983,
        "rank_sort": 74042,
        "total": 2338
      },
      {
        "club_badge_src": null,
        "entry": 273023,
        "entry_name": "Yoro Wissard Harry",
        "event_total": 52,
        "has_played": true,
        "id": 1816620,
        "last_rank": 65475,
        "player_name": "Harry Dove",
        "rank": 73983,
        "rank_sort": 74043,
        "total": 2338
      },
      {
        "club_badge_src": null,
        "entry": 273286,
        "entry_name": "FC Hich",
        "event_total": 44,
        "has_played": true,
        "id": 1818385,
        "last_rank": 51403,
        "player_name": "Hichem BENDRAOUA",
        "rank": 73983,
        "rank_sort": 74044,
        "total": 2338
      },
      {
        "club_badge_src": null,
        "entry": 282395,
        "entry_name": "NizzoPraj",
        "event_total": 61,
        "has_played": true,
        "id": 1879664,
        "last_rank": 83934,
        "player_name": "Nirav Prajapati",
        "rank": 73983,
        "rank_sort": 74045,
        "total": 2338
      },
      {
        "club_badge_src": null,
        "entry": 299578,
        "entry_name": "Miggy Stardust",
        "event_total": 68,
        "has_played": true,
        "id": 2003416,
        "last_rank": 90746,
        "player_name": "Lester Curley",
        "rank": 73983,
        "rank_sort": 74046,
        "total": 2338
      },
      {
        "club_badge_src": null,
        "entry": 307609,
        "entry_name": "Absolutely Fabregas",
        "event_total": 70,
        "has_played": true,
        "id": 2060285,
        "last_rank": 106259,
        "player_name": "Matthew Kendler",
        "rank": 73983,
        "rank_sort": 74047,
        "total": 2338
      },
      {
        "club_badge_src": null,
        "entry": 320997,
        "entry_name": "Roninz",
        "event_total": 54,
        "has_played": true,
        "id": 2151373,
        "last_rank": 69323,
        "player_name": "Chris Chen",
        "rank": 73983,
        "rank_sort": 74048,
        "total": 2338
      },
      {
        "club_badge_src": null,
        "entry": 328430,
        "entry_name": "Golden Boot",
        "event_total": 40,
        "has_played": true,
        "id": 2200232,
        "last_rank": 45714,
        "player_name": "Mo Obe",
        "rank": 73983,
        "rank_sort": 74049,
        "total": 2338
      },
      {
        "club_badge_src": null,
        "entry": 329666,
        "entry_name": "The Bijol & End All",
        "event_total": 58,
        "has_played": true,
        "id": 2208333,
        "last_rank": 77676,
        "player_name": "Daniel Aldred",
        "rank": 73983,
        "rank_sort": 74050,
        "total": 2338
      }
    ]
  }
}