{
  "last_updated_data": "2026-05-24T23:28:17Z",
  "league": {
    "admin_entry": null,
    "closed": false,
    "code_privacy": "p",
    "created": "2025-07-20T23:14:33.933835Z",
    "cup_league": 2815434,
    "has_cup": true,
    "id": 314,
    "league_type": "s",
    "max_entries": null,
    "name": "Overall",
    "rank": null,
    "scoring": "c",
    "start_event": 1
  },
  "new_entries": {
    "has_next": false,
    "page": 1,
    "results": []
  },
  "standings": {
    "has_next": true,
    "page": 577,
    "results": [
      {
        "club_badge_src": null,
        "entry": 704014,
        "entry_name": "Lingardium Leviosa",
        "event_total": 61,
        "has_played": true,
        "id": 4770632,
        "last_rank": 28532,
        "player_name": "Jake Hatt",
        "rank": 28797,
        "rank_sort": 28801,
        "total": 2369
      },
      {
        "club_badge_src": null,
        "entry": 863331,
        "entry_name": "Soccer FC",
        "event_total": 63,
        "has_played": true,
        "id": 5918524,
        "last_rank": 35034,
        "player_name": "Christopher Spiteri",
        "rank": 28797,
        "rank_sort": 28802,
        "total": 2369
      },
      {
        "club_badge_src": null,
        "entry": 1021997,
        "entry_name": "Junnie",
        "event_total": 41,
        "has_played": true,
        "id": 7070790,
        "last_rank": 16062,
        "player_name": "Hei Chun Ban",
        "rank": 28797,
        "rank_sort": 28803,
        "total": 2369
      },
      {
        "club_badge_src": null,
        "entry": 1304945,
        "entry_name": "Frimpong Ping Pong",
        "event_total": 48,
        "has_played": true,
        "id": 9069845,
        "last_rank": 20888,
        "player_name": "Jack Leeds",
        "rank": 28797,
        "rank_sort": 28804,
        "total": 2369
      },
      {
        "club_badge_src": null,
        "entry": 1430109,
        "entry_name": "herewegoagain",
        "event_total": 65,
        "has_played": true,
        "id": 9964951,
        "last_rank": 37435,
        "player_name": "Shane Leavy",
        "rank": 28797,
        "rank_sort": 28805,
        "total": 2369
      },
      {
        "club_badge_src": null,
        "entry": 2003323,
        "entry_name": "Legendary Reserves",
        "event_total": 38,
        "has_played": true,
        "id": 14163264,
        "last_rank": 14292,
        "player_name": "Mani Gee",
        "rank": 28797,
        "rank_sort": 28806,
        "total": 2369
      },
      {
        "club_badge_src": null,
        "entry": 3046686,
        "entry_name": "DarreFC",
        "event_total": 58,
        "has_played": true,
        "id": 22427797,
        "last_rank": 29578,
        "player_name": "David Andersson",
        "rank": 28797,
        "rank_sort": 28807,
        "total": 2369
      },
      {
        "club_badge_src": null,
        "entry": 3053286,
        "entry_name": "Miamiboy\ufffd",
        "event_total": 67,
        "has_played": true,
        "id": 22478162,
        "last_rank": 39874,
        "player_name": "T\u00f6rr\u00ebz T\u00f6rr\u00ebz",
        "rank": 28797,
        "rank_sort": 28808,
        "total": 2369
      },
      {
        "club_badge_src": null,
        "entry": 3194962,
        "entry_name": "DontLookBackElanga",
        "event_total": 57,
        "has_played": true,
        "id": 23615058,
        "last_rank": 28609,
        "player_name": "Luis Zambrano",
        "rank": 28797,
        "rank_sort": 28809,
        "total": 2369
      },
      {
        "club_badge_src": null,
        "entry": 3426927,
        "entry_name": "ISPOD FRU\u0160KE GORE",
        "event_total": 57,
        "has_played": true,
        "id": 25456974,
        "last_rank": 28609,
        "player_name": "Miroslav \u0160esti\u0107",
        "rank": 28797,
        "rank_sort": 28810,
        "total": 2369
      },
      {
        "club_badge_src": null,
        "entry": 4036031,
        "entry_name": "Stockport0",
        "event_total": 51,
        "has_played": true,
        "id": 30432798,
        "last_rank": 23164,
        "player_name": "Dominic Potts",
        "rank": 28797,
        "rank_sort": 28811,
        "total": 2369
      },
      {
        "club_badge_src": null,
        "entry": 4252954,
        "entry_name": "Copa Mundial",
        "event_total": 62,
        "has_played": true,
        "id": 32241010,
        "last_rank": 33845,
        "player_name": "Hannu Kuikka",
        "rank": 28797,
        "rank_sort": 28812,
        "total": 2369
      },
      {
        "club_badge_src": null,
        "entry": 4317344,
        "entry_name": "Saka Potatoes",
        "event_total": 65,
        "has_played": true,
        "id": 32762784,
        "last_rank": 37435,
        "player_name": "Darren McCluskey",
        "rank": 28797,
        "rank_sort": 28813,
        "total": 2369
      },
      {
        "club_badge_src": null,
        "entry": 4437859,
        "entry_name": "Holy Boehly",
        "event_total": 56,
        "has_played": true,
        "id": 33791198,
        "last_rank": 27557,
        "player_name": "Sam Childerley",
        "rank": 28797,
        "rank_sort": 28814,
        "total": 2369
      },
      {
        "club_badge_src": null,
        "entry": 4843079,
        "entry_name": "Hunty F.C",
        "event_total": 62,
        "has_played": true,
        "id": 37308501,
        "last_rank": 33845,
        "player_name": "scott hunt",
        "rank": 28797,
        "rank_sort": 28815,
        "total": 2369
      },
      {
        "club_badge_src": null,
        "entry": 5160183,
        "entry_name": "Cags Wags",
        "event_total": 61,
        "has_played": true,
        "id": 39929943,
        "last_rank": 32688,
        "player_name": "Carol Bartlett",
        "rank": 28797,
        "rank_sort": 28816,
        "total": 2369
      },
      {
        "club_badge_src": null,
        "entry": 5920279,
        "entry_name": "Yoro Wissa Harry",
        "event_total": 43,
        "has_played": true,
        "id": 46532371,
        "last_rank": 17327,
        "player_name": "Abdallah Abdallah",
        "rank": 28797,
        "rank_sort": 28817,
        "total": 2369
      },
      {
        "club_badge_src": null,
        "entry": 6181352,
        "entry_name": "Badutt Springers",
        "event_total": 63,
        "has_played": true,
        "id": 48884224,
        "last_rank": 34926,
        "player_name": "Atle Antonsen",
        "rank": 28797,
        "rank_sort": 28818,
        "total": 2369
      },
      {
        "club_badge_src": null,
        "entry": 6277354,
        "entry_name": "Im a Baleba",
        "event_total": 70,
        "has_played": true,
        "id": 49711715,
        "last_rank": 43757,
        "player_name": "HECTOR WYNTER",
        "rank": 28797,
        "rank_sort": 28819,
        "total": 2369
      },
      {
        "club_badge_src": null,
        "entry": 6387994,
        "entry_name": "Vinland Saka",
        "event_total": 44,
        "has_played": true,
        "id": 50812214,
        "last_rank": 18029,
        "player_name": "Avela Tom",
        "rank": 28797,
        "rank_sort": 28820,
        "total": 2369
      },
      {
        "club_badge_src": null,
        "entry": 6808936,
        "entry_name": "Slot The Difference",
        "event_total": 51,
        "has_played": true,
        "id": 54530671,
        "last_rank": 23188,
        "player_name": "Elliot Lloyd",
        "rank": 28797,
        "rank_sort": 28821,
        "total": 2369
      },
      {
        "club_badge_src": "https://fantasy.premierleague.com/gcs/plfpl-production-adobe-approved/plfpl-production/7059394/9e1a6da7-2722-4360-a116-4a1d33a9a1e2.png",
        "entry": 7059394,
        "entry_name": "The Baba Yaga",
        "event_total": 37,
        "has_played": true,
        "id": 56788965,
        "last_rank": 13754,
        "player_name": "The Boogie Man",
        "rank": 28797,
        "rank_sort": 28822,
        "total": 2369
      },
      {
        "club_badge_src": null,
        "entry": 7588229,
        "entry_name": "Bruno Dos Tres",
        "event_total": 81,
        "has_played": true,
        "id": 62158933,
        "last_rank": 61315,
        "player_name": "Mohammed Mahdi",
        "rank": 28797,
        "rank_sort": 28823,
        "total": 2369
      },
      {
        "club_badge_src": null,
        "entry": 7607889,
        "entry_name": "Baby Reijnders",
        "event_total": 58,
        "has_played": true,
        "id": 62335671,
        "last_rank": 29482,
        "player_name": "Keziah Perks",
        "rank": 28797,
        "rank_sort": 28824,
        "total": 2369
      },
      {
        "club_badge_src": null,
        "entry": 7766427,
        "entry_name": "00",
        "event_total": 64,
        "has_played": true,
        "id": 63770753,
        "last_rank": 36200,
        "player_name": "Alll Alll",
        "rank": 28797,
        "rank_sort": 28825,
        "total": 2369
      },
      {
        "club_badge_src": null,
        "entry": 9101763,
        "entry_name": "big duff",
        "event_total": 53,
        "has_played": true,
        "id": 76469372,
        "last_rank": 24857,
        "player_name": "Colin Mcbrien",
        "rank": 28797,
        "rank_sort": 28826,
        "total": 2369
      },
      {
        "club_badge_src": null,
        "entry": 9285444,
        "entry_name": "Enter Name Here",
        "event_total": 64,
        "has_played": true,
        "id": 78268998,
        "last_rank": 36110,
        "player_name": "Rafhaan Shah",
        "rank": 28797,
        "rank_sort": 28827,
        "total": 2369
      },
      {
        "club_badge_src": null,
        "entry": 9343903,
        "entry_name": "goalkick United FC",
        "event_total": 70,
        "has_played": true,
        "id": 78829639,
        "last_rank": 43786,
        "player_name": "Alexis Lewis",
        "rank": 28797,
        "rank_sort": 28828,
        "total": 2369
      },
      {
        "club_badge_src": "https://fantasy.premierleague.com/gcs/plfpl-production-adobe-approved/plfpl-production/1245/893c5d9e-743f-4bd3-826b-b5c1c8ef39f2.png",
        "entry": 1245,
        "entry_name": "Regenstok \u2b05\ufe0f",
        "event_total": 58,
        "has_played": true,
        "id": 6914,
        "last_rank": 29495,
        "player_name": "Wout Klinck",
        "rank": 28829,
        "rank_sort": 28829,
        "total": 2369
      },
      {
        "club_badge_src": null,
        "entry": 11791,
        "entry_name": "DieToGet3Points",
        "event_total": 44,
        "has_played": true,
        "id": 70259,
        "last_rank": 18113,
        "player_name": "Jake Beeton",
        "rank": 28829,
        "rank_sort": 28830,
        "total": 2369
      },
      {
        "club_badge_src": null,
        "entry": 60981,
        "entry_name": "Hakuna Juan Mata",
        "event_total": 61,
        "has_played": true,
        "id": 392655,
        "last_rank": 32879,
        "player_name": "Mikkel Slettbakken",
        "rank": 28829,
        "rank_sort": 28831,
        "total": 2369
      },
      {
        "club_badge_src": null,
        "entry": 93550,
        "entry_name": "Hall Cunha Mateta",
        "event_total": 56,
        "has_played": true,
        "id": 611327,
        "last_rank": 27585,
        "player_name": "Jonny Norton",
        "rank": 28829,
        "rank_sort": 28832,
        "total": 2369
      },
      {
        "club_badge_src": "https://fantasy.premierleague.com/gcs/plfpl-production-adobe-approved/plfpl-production/126544/5fbcd50b-5c36-4173-a8b3-87969389b76f.png",
        "entry": 126544,
        "entry_name": "Melv's",
        "event_total": 68,
        "has_played": true,
        "id": 825053,
        "last_rank": 41162,
        "player_name": "Dan Melville",
        "rank": 28829,
        "rank_sort": 28833,
        "total": 2369
      },
      {
        "club_badge_src": null,
        "entry": 153778,
        "entry_name": "BruNosferatu",
        "event_total": 44,
        "has_played": true,
        "id": 1009985,
        "last_rank": 18029,
        "player_name": "Cathal Burke",
        "rank": 28829,
        "rank_sort": 28834,
        "total": 2369
      },
      {
        "club_badge_src": "https://fantasy.premierleague.com/gcs/plfpl-production-adobe-approved/plfpl-production/265777/e53effd3-fb3d-4b8e-a30c-f3f9f3202277.png",
        "entry": 265777,
        "entry_name": "Menios FC",
        "event_total": 75,
        "has_played": true,
        "id": 1767848,
        "last_rank": 51220,
        "player_name": "Ricardo Garcia de Quevedo",
        "rank": 28829,
        "rank_sort": 28835,
        "total": 2369
      },
      {
        "club_badge_src": null,
        "entry": 316341,
        "entry_name": "Eze dubs",
        "event_total": 59,
        "has_played": true,
        "id": 2120281,
        "last_rank": 30600,
        "player_name": "Luke Haysham",
        "rank": 28829,
        "rank_sort": 28836,
        "total": 2369
      },
      {
        "club_badge_src": null,
        "entry": 387815,
        "entry_name": "FC Chanaldo",
        "event_total": 61,
        "has_played": true,
        "id": 2601692,
        "last_rank": 32751,
        "player_name": "Jason Chan",
        "rank": 28829,
        "rank_sort": 28837,
        "total": 2369
      },
      {
        "club_badge_src": "https://fantasy.premierleague.com/gcs/plfpl-production-adobe-approved/plfpl-production/417858/44ae8f5c-8c7c-4985-97de-455a0de22288.png",
        "entry": 417858,
        "entry_name": "To Dare Is To Kudus",
        "event_total": 57,
        "has_played": true,
        "id": 2800938,
        "last_rank": 28726,
        "player_name": "Asa Cardiff",
        "rank": 28829,
        "rank_sort": 28838,
        "total": 2369
      },
      {
        "club_badge_src": "https://fantasy.premierleague.com/gcs/plfpl-production-adobe-approved/plfpl-production/733183/899a6326-9bed-498c-90b1-95c4b4be8395.png",
        "entry": 733183,
        "entry_name": "kurvolqcite",
        "event_total": 47,
        "has_played": true,
        "id": 4982442,
        "last_rank": 20280,
        "player_name": "Alexander Donkov",
        "rank": 28829,
        "rank_sort": 28839,
        "total": 2369
      },
      {
        "club_badge_src": null,
        "entry": 749633,
        "entry_name": "footBallSaka",
        "event_total": 71,
        "has_played": true,
        "id": 5100305,
        "last_rank": 45126,
        "player_name": "Callum Kennedy",
        "rank": 28829,
        "rank_sort": 28840,
        "total": 2369
      },
      {
        "club_badge_src": null,
        "entry": 782310,
        "entry_name": "Cheeky Cherki",
        "event_total": 42,
        "has_played": true,
        "id": 5341128,
        "last_rank": 16729,
        "player_name": "James Viner",
        "rank": 28829,
        "rank_sort": 28841,
        "total": 2369
      },
      {
        "club_badge_src": null,
        "entry": 801217,
        "entry_name": "Ballotellitubbies",
        "event_total": 47,
        "has_played": true,
        "id": 5484488,
        "last_rank": 20280,
        "player_name": "john devenney",
        "rank": 28829,
        "rank_sort": 28842,
        "total": 2369
      },
      {
        "club_badge_src": "https://fantasy.premierleague.com/gcs/plfpl-production-adobe-approved/plfpl-production/898771/be65a0bd-4df5-44d8-aa97-e339185a9f3b.png",
        "entry": 898771,
        "entry_name": "Riot Squad",
        "event_total": 26,
        "has_played": true,
        "id": 6175233,
        "last_rank": 8676,
        "player_name": "Anthony Lowes",
        "rank": 28829,
        "rank_sort": 28843,
        "total": 2369
      },
      {
        "club_badge_src": null,
        "entry": 909977,
        "entry_name": "ShowMeTheMoneyAgain",
        "event_total": 69,
        "has_played": true,
        "id": 6255970,
        "last_rank": 42648,
        "player_name": "Neil Rutherford",
        "rank": 28829,
        "rank_sort": 28844,
        "total": 2369
      },
      {
        "club_badge_src": "https://fantasy.premierleague.com/gcs/plfpl-production-adobe-approved/plfpl-production/912169/8d74d127-bc5e-4d3c-8713-4d37a7f53693.png",
        "entry": 912169,
        "entry_name": "TeaBag & Tackle",
        "event_total": 85,
        "has_played": true,
        "id": 6272084,
        "last_rank": 68748,
        "player_name": "Jamie Brown",
        "rank": 28829,
        "rank_sort": 28845,
        "total": 2369
      },
      {
        "club_badge_src": null,
        "entry": 927426,
        "entry_name": "Thomas Myhr United",
        "event_total": 51,
        "has_played": true,
        "id": 6380439,
        "last_rank": 23230,
        "player_name": "Thomas Myhr",
        "rank": 28829,
        "rank_sort": 28846,
        "total": 2369
      },
      {
        "club_badge_src": null,
        "entry": 934536,
        "entry_name": "Sakable Offence",
        "event_total": 66,
        "has_played": true,
        "id": 6431046,
        "last_rank": 38571,
        "player_name": "Elliot Tiffin",
        "rank": 28829,
        "rank_sort": 28847,
        "total": 2369
      },
      {
        "club_badge_src": null,
        "entry": 1075216,
        "entry_name": "Egg Fried Reus",
        "event_total": 60,
        "has_played": true,
        "id": 7443945,
        "last_rank": 27585,
        "player_name": "Joe Pickerill",
        "rank": 28829,
        "rank_sort": 28848,
        "total": 2369
      },
      {
        "club_badge_src": null,
        "entry": 1417501,
        "entry_name": "Meisters M\u00e6nd",
        "event_total": 36,
        "has_played": true,
        "id": 9869307,
        "last_rank": 13153,
        "player_name": "Victor Ellegaard",
        "rank": 28829,
        "rank_sort": 28849,
        "total": 2369
      },
      {
        "club_badge_src": "https://fantasy.premierleague.com/gcs/plfpl-production-adobe-approved/plfpl-production/1449752/e6723b8e-e3d3-40b2-9b0f-88c0b692f541.png",
        "entry": 1449752,
        "entry_name": "Jerry Maguire FC",
        "event_total": 41,
        "has_played": true,
        "id": 10102027,
        "last_rank": 16062,
        "player_name": "Jeremiah Ogunyemi",
        "rank": 28829,
        "rank_sort": 28850,
        "total": 2369
      }
    ]
  }
}