{
  "last_updated_data": "2026-05-24T23:28:17Z",
  "league": {
    "admin_entry": null,
    "closed": false,
    "code_privacy": "p",
    "created": "2025-07-20T23:14:33.933835Z",
    "cup_league": 2815434,
    "has_cup": true,
    "id": 314,
    "league_type": "s",
    "max_entries": null,
    "name": "Overall",
    "rank": null,
    "scoring": "c",
    "start_event": 1
  },
  "new_entries": {
    "has_next": false,
    "page": 1,
    "results": []
  },
  "standings": {
    "has_next": true,
    "page": 1050,
    "results": [
      {
        "club_badge_src": null,
        "entry": 6957838,
        "entry_name": "Some Team",
        "event_total": 42,
        "has_played": true,
        "id": 55797072,
        "last_rank": 32879,
        "player_name": "Tim Haines",
        "rank": 52364,
        "rank_sort": 52451,
        "total": 2350
      },
      {
        "club_badge_src": null,
        "entry": 7033692,
        "entry_name": "G-TEAM",
        "event_total": 63,
        "has_played": true,
        "id": 56534519,
        "last_rank": 63201,
        "player_name": "Shahizie Sahal",
        "rank": 52364,
        "rank_sort": 52452,
        "total": 2350
      },
      {
        "club_badge_src": null,
        "entry": 7070312,
        "entry_name": "Kick",
        "event_total": 52,
        "has_played": true,
        "id": 56892173,
        "last_rank": 45416,
        "player_name": "Prabin Maharjan",
        "rank": 52364,
        "rank_sort": 52453,
        "total": 2350
      },
      {
        "club_badge_src": null,
        "entry": 7426231,
        "entry_name": "Shooter",
        "event_total": 60,
        "has_played": true,
        "id": 60320606,
        "last_rank": 57857,
        "player_name": "Shoo ter",
        "rank": 52364,
        "rank_sort": 52454,
        "total": 2350
      },
      {
        "club_badge_src": null,
        "entry": 7604539,
        "entry_name": "casemiro o casamigos",
        "event_total": 74,
        "has_played": true,
        "id": 62305484,
        "last_rank": 86304,
        "player_name": "Kass K",
        "rank": 52364,
        "rank_sort": 52455,
        "total": 2350
      },
      {
        "club_badge_src": "https://fantasy.premierleague.com/gcs/plfpl-production-adobe-approved/plfpl-production/7648874/82b0c9a1-8456-42b5-820c-34bb3327f65d.png",
        "entry": 7648874,
        "entry_name": "Ha Cunha Matata",
        "event_total": 57,
        "has_played": true,
        "id": 62706792,
        "last_rank": 53023,
        "player_name": "Finlay Richardson",
        "rank": 52364,
        "rank_sort": 52456,
        "total": 2350
      },
      {
        "club_badge_src": null,
        "entry": 7812400,
        "entry_name": "maymz fc",
        "event_total": 51,
        "has_played": true,
        "id": 64185463,
        "last_rank": 43757,
        "player_name": "Mahima Badhwar",
        "rank": 52364,
        "rank_sort": 52457,
        "total": 2350
      },
      {
        "club_badge_src": null,
        "entry": 7847418,
        "entry_name": "Believe In xGyokeres",
        "event_total": 64,
        "has_played": true,
        "id": 64507815,
        "last_rank": 64777,
        "player_name": "Leijeigh Williams",
        "rank": 52364,
        "rank_sort": 52458,
        "total": 2350
      },
      {
        "club_badge_src": null,
        "entry": 7899882,
        "entry_name": "Romanivka",
        "event_total": 52,
        "has_played": true,
        "id": 64987014,
        "last_rank": 45252,
        "player_name": "\u0410\u043d\u0434\u0440\u0456\u0439 \u0424\u0430\u0440\u0438\u043d\u0430",
        "rank": 52364,
        "rank_sort": 52459,
        "total": 2350
      },
      {
        "club_badge_src": null,
        "entry": 7931111,
        "entry_name": "iloveMyPsg",
        "event_total": 71,
        "has_played": true,
        "id": 65270456,
        "last_rank": 79190,
        "player_name": "Nuh Ahmed Nuh",
        "rank": 52364,
        "rank_sort": 52460,
        "total": 2350
      },
      {
        "club_badge_src": null,
        "entry": 8156683,
        "entry_name": "turbohenry",
        "event_total": 61,
        "has_played": true,
        "id": 67330851,
        "last_rank": 59632,
        "player_name": "Henry Doe",
        "rank": 52364,
        "rank_sort": 52461,
        "total": 2350
      },
      {
        "club_badge_src": null,
        "entry": 8572693,
        "entry_name": "Magangge FC",
        "event_total": 50,
        "has_played": true,
        "id": 71336048,
        "last_rank": 42648,
        "player_name": "Ernesto Kuhanga",
        "rank": 52364,
        "rank_sort": 52462,
        "total": 2350
      },
      {
        "club_badge_src": null,
        "entry": 8607577,
        "entry_name": "Saka Blyat",
        "event_total": 61,
        "has_played": true,
        "id": 71671099,
        "last_rank": 59535,
        "player_name": "Kristoffer Kolstad",
        "rank": 52364,
        "rank_sort": 52463,
        "total": 2350
      },
      {
        "club_badge_src": "https://fantasy.premierleague.com/gcs/plfpl-production-adobe-approved/plfpl-production/8759905/f5513352-fc44-427a-b35d-6c44eed1da11.png",
        "entry": 8759905,
        "entry_name": "Borussia Barry",
        "event_total": 56,
        "has_played": true,
        "id": 73157609,
        "last_rank": 51220,
        "player_name": "Barry Peters",
        "rank": 52364,
        "rank_sort": 52464,
        "total": 2350
      },
      {
        "club_badge_src": null,
        "entry": 8856234,
        "entry_name": "Nats All Stars",
        "event_total": 59,
        "has_played": true,
        "id": 74086696,
        "last_rank": 56180,
        "player_name": "Natalie Rowe",
        "rank": 52364,
        "rank_sort": 52465,
        "total": 2350
      },
      {
        "club_badge_src": null,
        "entry": 8984422,
        "entry_name": "Sweet Caroline",
        "event_total": 71,
        "has_played": true,
        "id": 75331903,
        "last_rank": 79027,
        "player_name": "Ragnhild Rogstad",
        "rank": 52364,
        "rank_sort": 52466,
        "total": 2350
      },
      {
        "club_badge_src": null,
        "entry": 9035328,
        "entry_name": "FPL Mohamed",
        "event_total": 68,
        "has_played": true,
        "id": 75821629,
        "last_rank": 72702,
        "player_name": "Mohamed Amr",
        "rank": 52364,
        "rank_sort": 52467,
        "total": 2350
      },
      {
        "club_badge_src": null,
        "entry": 9059112,
        "entry_name": "SIIIUUUUU FC",
        "event_total": 61,
        "has_played": true,
        "id": 76053591,
        "last_rank": 59475,
        "player_name": "Simen Hagen Kristoffersen",
        "rank": 52364,
        "rank_sort": 52468,
        "total": 2350
      },
      {
        "club_badge_src": null,
        "entry": 9206532,
        "entry_name": "Fc Hinthaara",
        "event_total": 46,
        "has_played": true,
        "id": 77499203,
        "last_rank": 37589,
        "player_name": "Ohto Kittil\u00e4",
        "rank": 52364,
        "rank_sort": 52469,
        "total": 2350
      },
      {
        "club_badge_src": null,
        "entry": 127,
        "entry_name": "Andersen Paq",
        "event_total": 65,
        "has_played": true,
        "id": 701,
        "last_rank": 67063,
        "player_name": "Lorcan OC",
        "rank": 52470,
        "rank_sort": 52470,
        "total": 2350
      },
      {
        "club_badge_src": "https://fantasy.premierleague.com/gcs/plfpl-production-adobe-approved/plfpl-production/331/9d0856b7-ff31-45bf-8bfb-2146f2b299f5.png",
        "entry": 331,
        "entry_name": "Raadi Anfield",
        "event_total": 67,
        "has_played": true,
        "id": 1827,
        "last_rank": 70985,
        "player_name": "Kristjan Kirs",
        "rank": 52470,
        "rank_sort": 52471,
        "total": 2350
      },
      {
        "club_badge_src": null,
        "entry": 5438,
        "entry_name": "The Mavericks",
        "event_total": 59,
        "has_played": true,
        "id": 30996,
        "last_rank": 56369,
        "player_name": "Marius L\u00f8ver Vestli",
        "rank": 52470,
        "rank_sort": 52472,
        "total": 2350
      },
      {
        "club_badge_src": null,
        "entry": 6424,
        "entry_name": "Minutes Monsters",
        "event_total": 58,
        "has_played": true,
        "id": 36859,
        "last_rank": 55014,
        "player_name": "Pete Wilkins",
        "rank": 52470,
        "rank_sort": 52473,
        "total": 2350
      },
      {
        "club_badge_src": "https://fantasy.premierleague.com/gcs/plfpl-production-adobe-approved/plfpl-production/8764/ac168034-dbfe-459f-88db-85410e09d446.png",
        "entry": 8764,
        "entry_name": "REDFC",
        "event_total": 53,
        "has_played": true,
        "id": 51137,
        "last_rank": 46660,
        "player_name": "Neville Cilia",
        "rank": 52470,
        "rank_sort": 52474,
        "total": 2350
      },
      {
        "club_badge_src": "https://fantasy.premierleague.com/gcs/plfpl-production-adobe-approved/plfpl-production/12412/1c5831db-b37f-4e24-a88c-8b64309da941.png",
        "entry": 12412,
        "entry_name": "Under My Cucurella",
        "event_total": 55,
        "has_played": true,
        "id": 74257,
        "last_rank": 49880,
        "player_name": "Michael Roberts",
        "rank": 52470,
        "rank_sort": 52475,
        "total": 2350
      },
      {
        "club_badge_src": null,
        "entry": 19772,
        "entry_name": "Florian & TheMachine",
        "event_total": 55,
        "has_played": true,
        "id": 123054,
        "last_rank": 50199,
        "player_name": "Ricardo Brito",
        "rank": 52470,
        "rank_sort": 52476,
        "total": 2350
      },
      {
        "club_badge_src": null,
        "entry": 22279,
        "entry_name": "Cederlund FC",
        "event_total": 69,
        "has_played": true,
        "id": 139878,
        "last_rank": 74741,
        "player_name": "Jakob Cederlund",
        "rank": 52470,
        "rank_sort": 52477,
        "total": 2350
      },
      {
        "club_badge_src": null,
        "entry": 26432,
        "entry_name": "Kyrkbyns \u00d6hrnar",
        "event_total": 66,
        "has_played": true,
        "id": 167130,
        "last_rank": 68748,
        "player_name": "Andreas \u00d6hrn",
        "rank": 52470,
        "rank_sort": 52478,
        "total": 2350
      },
      {
        "club_badge_src": "https://fantasy.premierleague.com/gcs/plfpl-production-adobe-approved/plfpl-production/30505/2835c705-9b04-466b-8770-0aa375570678.png",
        "entry": 30505,
        "entry_name": "Castille Palace",
        "event_total": 67,
        "has_played": true,
        "id": 193067,
        "last_rank": 70985,
        "player_name": "Aidan Castille",
        "rank": 52470,
        "rank_sort": 52479,
        "total": 2350
      },
      {
        "club_badge_src": "https://fantasy.premierleague.com/gcs/plfpl-production-adobe-approved/plfpl-production/33428/50432bc6-41bc-4460-922e-eb810f116e6a.png",
        "entry": 33428,
        "entry_name": "Lallanas In Pyjamas",
        "event_total": 87,
        "has_played": true,
        "id": 213174,
        "last_rank": 119893,
        "player_name": "Matt smith",
        "rank": 52470,
        "rank_sort": 52480,
        "total": 2350
      },
      {
        "club_badge_src": null,
        "entry": 33496,
        "entry_name": "Medo_Hariz",
        "event_total": 64,
        "has_played": true,
        "id": 213648,
        "last_rank": 65163,
        "player_name": "Mohammed Bin Hariz",
        "rank": 52470,
        "rank_sort": 52481,
        "total": 2350
      },
      {
        "club_badge_src": null,
        "entry": 41555,
        "entry_name": "The Will To Win",
        "event_total": 51,
        "has_played": true,
        "id": 266255,
        "last_rank": 43849,
        "player_name": "Will Mawson",
        "rank": 52470,
        "rank_sort": 52482,
        "total": 2350
      },
      {
        "club_badge_src": null,
        "entry": 52546,
        "entry_name": "Caked up, got G\u00e2teau",
        "event_total": 54,
        "has_played": true,
        "id": 337876,
        "last_rank": 48197,
        "player_name": "Matthew Garrett",
        "rank": 52470,
        "rank_sort": 52483,
        "total": 2350
      },
      {
        "club_badge_src": null,
        "entry": 58254,
        "entry_name": "Nygaard United",
        "event_total": 71,
        "has_played": true,
        "id": 375260,
        "last_rank": 79190,
        "player_name": "Jacob Nygaard",
        "rank": 52470,
        "rank_sort": 52484,
        "total": 2350
      },
      {
        "club_badge_src": null,
        "entry": 84133,
        "entry_name": "Jauretinho FC",
        "event_total": 56,
        "has_played": true,
        "id": 547698,
        "last_rank": 51403,
        "player_name": "Alexander Persson",
        "rank": 52470,
        "rank_sort": 52485,
        "total": 2350
      },
      {
        "club_badge_src": null,
        "entry": 85855,
        "entry_name": "happy brad",
        "event_total": 76,
        "has_played": true,
        "id": 559318,
        "last_rank": 90746,
        "player_name": "Sam Studd",
        "rank": 52470,
        "rank_sort": 52486,
        "total": 2350
      },
      {
        "club_badge_src": null,
        "entry": 89772,
        "entry_name": "Poor Leno",
        "event_total": 65,
        "has_played": true,
        "id": 586006,
        "last_rank": 67063,
        "player_name": "Renate B\u00f8e Norum",
        "rank": 52470,
        "rank_sort": 52487,
        "total": 2350
      },
      {
        "club_badge_src": null,
        "entry": 104609,
        "entry_name": "BP",
        "event_total": 68,
        "has_played": true,
        "id": 682385,
        "last_rank": 72815,
        "player_name": "Blair Paterson",
        "rank": 52470,
        "rank_sort": 52488,
        "total": 2350
      },
      {
        "club_badge_src": null,
        "entry": 117138,
        "entry_name": "Arne\u2019s Slotmachine",
        "event_total": 66,
        "has_played": true,
        "id": 764638,
        "last_rank": 61315,
        "player_name": "Bram van Zijl",
        "rank": 52470,
        "rank_sort": 52489,
        "total": 2350
      },
      {
        "club_badge_src": null,
        "entry": 120233,
        "entry_name": "Kaintucky FC",
        "event_total": 70,
        "has_played": true,
        "id": 784473,
        "last_rank": 77676,
        "player_name": "Scott Kain",
        "rank": 52470,
        "rank_sort": 52490,
        "total": 2350
      },
      {
        "club_badge_src": null,
        "entry": 120326,
        "entry_name": "Troeba FC",
        "event_total": 50,
        "has_played": true,
        "id": 785082,
        "last_rank": 42506,
        "player_name": "Koen Van Thielen",
        "rank": 52470,
        "rank_sort": 52491,
        "total": 2350
      },
      {
        "club_badge_src": "https://fantasy.premierleague.com/gcs/plfpl-production-adobe-approved/plfpl-production/133711/1f65fcdc-f9ea-4a76-b105-f7bff202e6df.png",
        "entry": 133711,
        "entry_name": "Dynamo D Mo",
        "event_total": 71,
        "has_played": true,
        "id": 870867,
        "last_rank": 79431,
        "player_name": "Danny Morgan",
        "rank": 52470,
        "rank_sort": 52492,
        "total": 2350
      },
      {
        "club_badge_src": null,
        "entry": 133924,
        "entry_name": "Coach Ram FC",
        "event_total": 62,
        "has_played": true,
        "id": 872245,
        "last_rank": 61411,
        "player_name": "Coach Ram",
        "rank": 52470,
        "rank_sort": 52493,
        "total": 2350
      },
      {
        "club_badge_src": null,
        "entry": 134481,
        "entry_name": "Back 2 back",
        "event_total": 54,
        "has_played": true,
        "id": 875834,
        "last_rank": 48197,
        "player_name": "Cooper Goulding",
        "rank": 52470,
        "rank_sort": 52494,
        "total": 2350
      },
      {
        "club_badge_src": null,
        "entry": 136062,
        "entry_name": "Flan City",
        "event_total": 68,
        "has_played": true,
        "id": 886199,
        "last_rank": 72815,
        "player_name": "Cian Flanagan",
        "rank": 52470,
        "rank_sort": 52495,
        "total": 2350
      },
      {
        "club_badge_src": "https://fantasy.premierleague.com/gcs/plfpl-production-adobe-approved/plfpl-production/158869/f83b4091-1657-4e21-975c-e25a9192b9f7.png",
        "entry": 158869,
        "entry_name": "OlaZen FC",
        "event_total": 63,
        "has_played": true,
        "id": 1045473,
        "last_rank": 63201,
        "player_name": "ola-oluwa osidele",
        "rank": 52470,
        "rank_sort": 52496,
        "total": 2350
      },
      {
        "club_badge_src": "https://fantasy.premierleague.com/gcs/plfpl-production-adobe-approved/plfpl-production/159238/ccb96d6f-c77a-412d-8df8-6dbd193869a5.png",
        "entry": 159238,
        "entry_name": "Mjolsnes Management",
        "event_total": 65,
        "has_played": true,
        "id": 1048038,
        "last_rank": 67063,
        "player_name": "Magnus Mj\u00f8lsnes",
        "rank": 52470,
        "rank_sort": 52497,
        "total": 2350
      },
      {
        "club_badge_src": "https://fantasy.premierleague.com/gcs/plfpl-production-adobe-approved/plfpl-production/161464/b7a8e1e3-10b0-4ea2-8533-6e9b8b3accb0.png",
        "entry": 161464,
        "entry_name": "Rutter woke nonsense",
        "event_total": 69,
        "has_played": true,
        "id": 1063800,
        "last_rank": 74898,
        "player_name": "Nils Zarske",
        "rank": 52470,
        "rank_sort": 52498,
        "total": 2350
      },
      {
        "club_badge_src": null,
        "entry": 164842,
        "entry_name": "dens destroyers",
        "event_total": 52,
        "has_played": true,
        "id": 1088048,
        "last_rank": 45416,
        "player_name": "Denis Cairnduff",
        "rank": 52470,
        "rank_sort": 52499,
        "total": 2350
      },
      {
        "club_badge_src": null,
        "entry": 168864,
        "entry_name": "TH Club",
        "event_total": 51,
        "has_played": true,
        "id": 1116003,
        "last_rank": 44048,
        "player_name": "Franz Assisi",
        "rank": 52470,
        "rank_sort": 52500,
        "total": 2350
      }
    ]
  }
}