{
  "last_updated_data": "2026-05-24T23:28:17Z",
  "league": {
    "admin_entry": null,
    "closed": false,
    "code_privacy": "p",
    "created": "2025-07-20T23:14:33.933835Z",
    "cup_league": 2815434,
    "has_cup": true,
    "id": 314,
    "league_type": "s",
    "max_entries": null,
    "name": "Overall",
    "rank": null,
    "scoring": "c",
    "start_event": 1
  },
  "new_entries": {
    "has_next": false,
    "page": 1,
    "results": []
  },
  "standings": {
    "has_next": true,
    "page": 1010,
    "results": [
      {
        "club_badge_src": null,
        "entry": 2571658,
        "entry_name": "MediocreFC",
        "event_total": 60,
        "has_played": true,
        "id": 18452887,
        "last_rank": 49078,
        "player_name": "Adam Spyrou",
        "rank": 50372,
        "rank_sort": 50451,
        "total": 2352
      },
      {
        "club_badge_src": null,
        "entry": 2580196,
        "entry_name": "Mido",
        "event_total": 59,
        "has_played": true,
        "id": 18519231,
        "last_rank": 53952,
        "player_name": "mohammed abd elatty",
        "rank": 50372,
        "rank_sort": 50452,
        "total": 2352
      },
      {
        "club_badge_src": "https://fantasy.premierleague.com/gcs/plfpl-production-adobe-approved/plfpl-production/2591681/e85bf2ce-fe99-42a4-95a0-66144f4430f1.png",
        "entry": 2591681,
        "entry_name": "Turnbull AC",
        "event_total": 72,
        "has_played": true,
        "id": 18607542,
        "last_rank": 62223,
        "player_name": "Hannu Koski",
        "rank": 50372,
        "rank_sort": 50453,
        "total": 2352
      },
      {
        "club_badge_src": null,
        "entry": 2735756,
        "entry_name": "Dahls",
        "event_total": 65,
        "has_played": true,
        "id": 19687168,
        "last_rank": 64319,
        "player_name": "Martin Sevaldsen",
        "rank": 50372,
        "rank_sort": 50454,
        "total": 2352
      },
      {
        "club_badge_src": null,
        "entry": 2908672,
        "entry_name": "Utstakilo",
        "event_total": 36,
        "has_played": true,
        "id": 21317645,
        "last_rank": 22154,
        "player_name": "Trond Torvanger Dybvik",
        "rank": 50372,
        "rank_sort": 50455,
        "total": 2352
      },
      {
        "club_badge_src": null,
        "entry": 2933499,
        "entry_name": "VintageVerra",
        "event_total": 44,
        "has_played": true,
        "id": 21519115,
        "last_rank": 33483,
        "player_name": "Matt Verrinder",
        "rank": 50372,
        "rank_sort": 50456,
        "total": 2352
      },
      {
        "club_badge_src": null,
        "entry": 2949573,
        "entry_name": "Bottlejobs",
        "event_total": 51,
        "has_played": true,
        "id": 21662082,
        "last_rank": 36831,
        "player_name": "Nile Portal",
        "rank": 50372,
        "rank_sort": 50457,
        "total": 2352
      },
      {
        "club_badge_src": null,
        "entry": 3020931,
        "entry_name": "Inter Row Z",
        "event_total": 59,
        "has_played": true,
        "id": 22226548,
        "last_rank": 53621,
        "player_name": "James Stevens",
        "rank": 50372,
        "rank_sort": 50458,
        "total": 2352
      },
      {
        "club_badge_src": null,
        "entry": 3083596,
        "entry_name": "Badjedeanu lunttat",
        "event_total": 43,
        "has_played": true,
        "id": 22718264,
        "last_rank": 32437,
        "player_name": "Jovnna Henriksen",
        "rank": 50372,
        "rank_sort": 50459,
        "total": 2352
      },
      {
        "club_badge_src": null,
        "entry": 3310053,
        "entry_name": "Mighty Morphin",
        "event_total": 58,
        "has_played": true,
        "id": 24523102,
        "last_rank": 46106,
        "player_name": "Fantasy Guru",
        "rank": 50372,
        "rank_sort": 50460,
        "total": 2352
      },
      {
        "club_badge_src": null,
        "entry": 3313930,
        "entry_name": "Change Name",
        "event_total": 71,
        "has_played": true,
        "id": 24553506,
        "last_rank": 76128,
        "player_name": "Yehia Hady",
        "rank": 50372,
        "rank_sort": 50461,
        "total": 2352
      },
      {
        "club_badge_src": null,
        "entry": 3344890,
        "entry_name": "El loco",
        "event_total": 60,
        "has_played": true,
        "id": 24811468,
        "last_rank": 55659,
        "player_name": "Julien Panis",
        "rank": 50372,
        "rank_sort": 50462,
        "total": 2352
      },
      {
        "club_badge_src": null,
        "entry": 3432537,
        "entry_name": "mesqueunclub",
        "event_total": 50,
        "has_played": true,
        "id": 25499247,
        "last_rank": 40832,
        "player_name": "fai a",
        "rank": 50372,
        "rank_sort": 50463,
        "total": 2352
      },
      {
        "club_badge_src": null,
        "entry": 3557749,
        "entry_name": "Change name Shush",
        "event_total": 68,
        "has_played": true,
        "id": 26488830,
        "last_rank": 62429,
        "player_name": "Tommy Gregson",
        "rank": 50372,
        "rank_sort": 50464,
        "total": 2352
      },
      {
        "club_badge_src": "https://fantasy.premierleague.com/gcs/plfpl-production-adobe-approved/plfpl-production/3590874/c09371ad-074d-4817-9470-14cf874cb305.png",
        "entry": 3590874,
        "entry_name": "Killer Ninjas",
        "event_total": 64,
        "has_played": true,
        "id": 26743087,
        "last_rank": 62429,
        "player_name": "Adin Tan",
        "rank": 50372,
        "rank_sort": 50465,
        "total": 2352
      },
      {
        "club_badge_src": null,
        "entry": 3763270,
        "entry_name": "The Shola System",
        "event_total": 67,
        "has_played": true,
        "id": 28098571,
        "last_rank": 67422,
        "player_name": "Josh Barnaby",
        "rank": 50372,
        "rank_sort": 50466,
        "total": 2352
      },
      {
        "club_badge_src": null,
        "entry": 3787647,
        "entry_name": "Debeli",
        "event_total": 63,
        "has_played": true,
        "id": 28297754,
        "last_rank": 53837,
        "player_name": "Nikola Simic",
        "rank": 50372,
        "rank_sort": 50467,
        "total": 2352
      },
      {
        "club_badge_src": null,
        "entry": 3852639,
        "entry_name": "IAMABALEBA",
        "event_total": 64,
        "has_played": true,
        "id": 28881160,
        "last_rank": 55311,
        "player_name": "Dee Suave",
        "rank": 50372,
        "rank_sort": 50468,
        "total": 2352
      },
      {
        "club_badge_src": null,
        "entry": 3927249,
        "entry_name": "T Rex FC",
        "event_total": 47,
        "has_played": true,
        "id": 29535188,
        "last_rank": 37058,
        "player_name": "Ricardo Cucalon",
        "rank": 50372,
        "rank_sort": 50469,
        "total": 2352
      },
      {
        "club_badge_src": "https://fantasy.premierleague.com/gcs/plfpl-production-adobe-approved/plfpl-production/3963981/9d0bd99b-8a09-43f1-8b8a-b25a5d50f853.png",
        "entry": 3963981,
        "entry_name": "Southpaw Reformist**",
        "event_total": 53,
        "has_played": true,
        "id": 29826433,
        "last_rank": 44804,
        "player_name": "Martin Spurrier",
        "rank": 50372,
        "rank_sort": 50470,
        "total": 2352
      },
      {
        "club_badge_src": null,
        "entry": 4041560,
        "entry_name": "Avengers",
        "event_total": 65,
        "has_played": true,
        "id": 30479673,
        "last_rank": 64319,
        "player_name": "Rafa\u0142 Popis",
        "rank": 50372,
        "rank_sort": 50471,
        "total": 2352
      },
      {
        "club_badge_src": null,
        "entry": 4090768,
        "entry_name": "Salman alhumali",
        "event_total": 58,
        "has_played": true,
        "id": 30885723,
        "last_rank": 46106,
        "player_name": "Salman Alhumali",
        "rank": 50372,
        "rank_sort": 50472,
        "total": 2352
      },
      {
        "club_badge_src": null,
        "entry": 4174839,
        "entry_name": "Sikk Team FC",
        "event_total": 63,
        "has_played": true,
        "id": 31577467,
        "last_rank": 60827,
        "player_name": "Sikk R\u00f3bert",
        "rank": 50372,
        "rank_sort": 50473,
        "total": 2352
      },
      {
        "club_badge_src": "https://fantasy.premierleague.com/gcs/plfpl-production-adobe-approved/plfpl-production/4177902/def09221-c58d-44df-815a-2ceedc4c7a85.png",
        "entry": 4177902,
        "entry_name": "Sultans15",
        "event_total": 73,
        "has_played": true,
        "id": 31603378,
        "last_rank": 71956,
        "player_name": "Sultan Saad",
        "rank": 50372,
        "rank_sort": 50474,
        "total": 2352
      },
      {
        "club_badge_src": null,
        "entry": 4231551,
        "entry_name": "Hector Salah-Manca",
        "event_total": 54,
        "has_played": true,
        "id": 32062211,
        "last_rank": 46236,
        "player_name": "Myles Berners",
        "rank": 50372,
        "rank_sort": 50475,
        "total": 2352
      },
      {
        "club_badge_src": null,
        "entry": 4250909,
        "entry_name": "razer",
        "event_total": 51,
        "has_played": true,
        "id": 32223944,
        "last_rank": 42081,
        "player_name": "Mohamed Thasleem",
        "rank": 50372,
        "rank_sort": 50476,
        "total": 2352
      },
      {
        "club_badge_src": null,
        "entry": 4486766,
        "entry_name": "\u0639\u0645\u0648\u0631\u064a",
        "event_total": 67,
        "has_played": true,
        "id": 34198412,
        "last_rank": 68107,
        "player_name": "omar alfarouk",
        "rank": 50372,
        "rank_sort": 50477,
        "total": 2352
      },
      {
        "club_badge_src": null,
        "entry": 4544482,
        "entry_name": "TRXFC",
        "event_total": 50,
        "has_played": true,
        "id": 34671502,
        "last_rank": 35768,
        "player_name": "Jamal A",
        "rank": 50372,
        "rank_sort": 50478,
        "total": 2352
      },
      {
        "club_badge_src": null,
        "entry": 4563664,
        "entry_name": "Tuff Ducks FC",
        "event_total": 57,
        "has_played": true,
        "id": 34825113,
        "last_rank": 44672,
        "player_name": "Rafael Juillet",
        "rank": 50372,
        "rank_sort": 50479,
        "total": 2352
      },
      {
        "club_badge_src": null,
        "entry": 4621957,
        "entry_name": "The Cannaries",
        "event_total": 58,
        "has_played": true,
        "id": 35329662,
        "last_rank": 52357,
        "player_name": "Ollie Cann",
        "rank": 50372,
        "rank_sort": 50480,
        "total": 2352
      },
      {
        "club_badge_src": null,
        "entry": 4724781,
        "entry_name": "Bato FC",
        "event_total": 62,
        "has_played": true,
        "id": 36315267,
        "last_rank": 59077,
        "player_name": "Ali Qasim",
        "rank": 50372,
        "rank_sort": 50481,
        "total": 2352
      },
      {
        "club_badge_src": null,
        "entry": 4848944,
        "entry_name": "Saka Potatoes",
        "event_total": 70,
        "has_played": true,
        "id": 37357797,
        "last_rank": 65796,
        "player_name": "George Austin",
        "rank": 50372,
        "rank_sort": 50482,
        "total": 2352
      },
      {
        "club_badge_src": null,
        "entry": 4851769,
        "entry_name": "CouldbeWirtz",
        "event_total": 71,
        "has_played": true,
        "id": 37381482,
        "last_rank": 75874,
        "player_name": "Ashok Tumu",
        "rank": 50372,
        "rank_sort": 50483,
        "total": 2352
      },
      {
        "club_badge_src": null,
        "entry": 5086150,
        "entry_name": "Ole_FPL",
        "event_total": 68,
        "has_played": true,
        "id": 39310454,
        "last_rank": 62223,
        "player_name": "ADEL ALMARZOOQI",
        "rank": 50372,
        "rank_sort": 50484,
        "total": 2352
      },
      {
        "club_badge_src": null,
        "entry": 5153153,
        "entry_name": "Air Sesko",
        "event_total": 60,
        "has_played": true,
        "id": 39869399,
        "last_rank": 55659,
        "player_name": "Mohammed Sibda",
        "rank": 50372,
        "rank_sort": 50485,
        "total": 2352
      },
      {
        "club_badge_src": "https://fantasy.premierleague.com/gcs/plfpl-production-adobe-approved/plfpl-production/5236936/1103b60e-149a-4f41-b0c3-26acb7af997b.png",
        "entry": 5236936,
        "entry_name": "Viva Boca !",
        "event_total": 65,
        "has_played": true,
        "id": 40583276,
        "last_rank": 57001,
        "player_name": "Matias Remus",
        "rank": 50372,
        "rank_sort": 50486,
        "total": 2352
      },
      {
        "club_badge_src": null,
        "entry": 5250458,
        "entry_name": "Finiesta",
        "event_total": 68,
        "has_played": true,
        "id": 40692143,
        "last_rank": 62223,
        "player_name": "Finley Johnson",
        "rank": 50372,
        "rank_sort": 50487,
        "total": 2352
      },
      {
        "club_badge_src": null,
        "entry": 5289329,
        "entry_name": "Ks Ba\u0142agan",
        "event_total": 49,
        "has_played": true,
        "id": 40999427,
        "last_rank": 34578,
        "player_name": "Micha\u0142 Bie\u0144kowski",
        "rank": 50372,
        "rank_sort": 50488,
        "total": 2352
      },
      {
        "club_badge_src": null,
        "entry": 5422180,
        "entry_name": "El Tigres",
        "event_total": 33,
        "has_played": true,
        "id": 42171551,
        "last_rank": 23039,
        "player_name": "Freddie Clark",
        "rank": 50372,
        "rank_sort": 50489,
        "total": 2352
      },
      {
        "club_badge_src": null,
        "entry": 5685038,
        "entry_name": "lolsliyaaktrikixable",
        "event_total": 67,
        "has_played": true,
        "id": 44500040,
        "last_rank": 67926,
        "player_name": "firozkhanks .",
        "rank": 50372,
        "rank_sort": 50490,
        "total": 2352
      },
      {
        "club_badge_src": null,
        "entry": 5824302,
        "entry_name": "Yoro Wizard Harry",
        "event_total": 54,
        "has_played": true,
        "id": 45709500,
        "last_rank": 46106,
        "player_name": "James Lenehan",
        "rank": 50372,
        "rank_sort": 50491,
        "total": 2352
      },
      {
        "club_badge_src": null,
        "entry": 5892460,
        "entry_name": "Myboysesko",
        "event_total": 67,
        "has_played": true,
        "id": 46288697,
        "last_rank": 67926,
        "player_name": "Aaron Tan",
        "rank": 50372,
        "rank_sort": 50492,
        "total": 2352
      },
      {
        "club_badge_src": null,
        "entry": 5900776,
        "entry_name": "STARS",
        "event_total": 50,
        "has_played": true,
        "id": 46360308,
        "last_rank": 35768,
        "player_name": "Mohamed Abdullah",
        "rank": 50372,
        "rank_sort": 50493,
        "total": 2352
      },
      {
        "club_badge_src": null,
        "entry": 5937462,
        "entry_name": "Keenan & Kelleher",
        "event_total": 48,
        "has_played": true,
        "id": 46685957,
        "last_rank": 29071,
        "player_name": "Adam Hancock",
        "rank": 50372,
        "rank_sort": 50494,
        "total": 2352
      },
      {
        "club_badge_src": null,
        "entry": 6279309,
        "entry_name": "50 Shades of Gu\u00e9hi",
        "event_total": 65,
        "has_played": true,
        "id": 49729624,
        "last_rank": 57200,
        "player_name": "Daniel Acheson",
        "rank": 50372,
        "rank_sort": 50495,
        "total": 2352
      },
      {
        "club_badge_src": "https://fantasy.premierleague.com/gcs/plfpl-production-adobe-approved/plfpl-production/6783501/977bf1f8-cc70-443d-994d-3c9cc0a1f752.png",
        "entry": 6783501,
        "entry_name": "LBR",
        "event_total": 48,
        "has_played": true,
        "id": 54319477,
        "last_rank": 38163,
        "player_name": "Lothar Braeken",
        "rank": 50372,
        "rank_sort": 50496,
        "total": 2352
      },
      {
        "club_badge_src": null,
        "entry": 7166878,
        "entry_name": "kinder mbuemo",
        "event_total": 50,
        "has_played": true,
        "id": 57824235,
        "last_rank": 40832,
        "player_name": "Mason Ashby",
        "rank": 50372,
        "rank_sort": 50497,
        "total": 2352
      },
      {
        "club_badge_src": null,
        "entry": 7410537,
        "entry_name": "Chilli con Palmer",
        "event_total": 62,
        "has_played": true,
        "id": 60123587,
        "last_rank": 59077,
        "player_name": "Michael Clark",
        "rank": 50372,
        "rank_sort": 50498,
        "total": 2352
      },
      {
        "club_badge_src": null,
        "entry": 7473947,
        "entry_name": "Alamaks!",
        "event_total": 61,
        "has_played": true,
        "id": 60946199,
        "last_rank": 57358,
        "player_name": "Shazlan Saphian",
        "rank": 50372,
        "rank_sort": 50499,
        "total": 2352
      },
      {
        "club_badge_src": "https://fantasy.premierleague.com/gcs/plfpl-production-adobe-approved/plfpl-production/7493525/a37143e7-4317-401d-b690-9aa59e1ffbd6.png",
        "entry": 7493525,
        "entry_name": "Tunna's Tigers",
        "event_total": 71,
        "has_played": true,
        "id": 61198393,
        "last_rank": 76330,
        "player_name": "NIGEL TUNNA",
        "rank": 50372,
        "rank_sort": 50500,
        "total": 2352
      }
    ]
  }
}