{
  "last_updated_data": "2026-05-24T23:28:17Z",
  "league": {
    "admin_entry": null,
    "closed": false,
    "code_privacy": "p",
    "created": "2025-07-20T23:14:33.933835Z",
    "cup_league": 2815434,
    "has_cup": true,
    "id": 314,
    "league_type": "s",
    "max_entries": null,
    "name": "Overall",
    "rank": null,
    "scoring": "c",
    "start_event": 1
  },
  "new_entries": {
    "has_next": false,
    "page": 1,
    "results": []
  },
  "standings": {
    "has_next": true,
    "page": 689,
    "results": [
      {
        "club_badge_src": null,
        "entry": 4575917,
        "entry_name": "squidwirtz",
        "event_total": 49,
        "has_played": true,
        "id": 34926939,
        "last_rank": 25902,
        "player_name": "ahmed saeed",
        "rank": 34242,
        "rank_sort": 34401,
        "total": 2364
      },
      {
        "club_badge_src": null,
        "entry": 4584870,
        "entry_name": "ManChestHair X",
        "event_total": 69,
        "has_played": true,
        "id": 35004463,
        "last_rank": 43849,
        "player_name": "Steve Pompey",
        "rank": 34242,
        "rank_sort": 34402,
        "total": 2364
      },
      {
        "club_badge_src": null,
        "entry": 4600018,
        "entry_name": "Bloomin' Shanktastic",
        "event_total": 61,
        "has_played": true,
        "id": 35138330,
        "last_rank": 39023,
        "player_name": "Gavin Thomson",
        "rank": 34242,
        "rank_sort": 34403,
        "total": 2364
      },
      {
        "club_badge_src": null,
        "entry": 4756996,
        "entry_name": "Savage Odegaarden",
        "event_total": 67,
        "has_played": true,
        "id": 36606890,
        "last_rank": 47163,
        "player_name": "Brian Gallagher",
        "rank": 34242,
        "rank_sort": 34404,
        "total": 2364
      },
      {
        "club_badge_src": null,
        "entry": 4765529,
        "entry_name": "TreadStone",
        "event_total": 62,
        "has_played": true,
        "id": 36676675,
        "last_rank": 40297,
        "player_name": "Aniket Patkar",
        "rank": 34242,
        "rank_sort": 34405,
        "total": 2364
      },
      {
        "club_badge_src": null,
        "entry": 4774285,
        "entry_name": "It Can",
        "event_total": 68,
        "has_played": true,
        "id": 36750004,
        "last_rank": 42648,
        "player_name": "Kieran Bennett",
        "rank": 34242,
        "rank_sort": 34406,
        "total": 2364
      },
      {
        "club_badge_src": null,
        "entry": 4945435,
        "entry_name": "@Ak19",
        "event_total": 75,
        "has_played": true,
        "id": 38158668,
        "last_rank": 59813,
        "player_name": "mukunya collines",
        "rank": 34242,
        "rank_sort": 34407,
        "total": 2364
      },
      {
        "club_badge_src": null,
        "entry": 5241380,
        "entry_name": "K FC",
        "event_total": 46,
        "has_played": true,
        "id": 40619488,
        "last_rank": 23522,
        "player_name": "Yusuf Ebrahim",
        "rank": 34242,
        "rank_sort": 34408,
        "total": 2364
      },
      {
        "club_badge_src": null,
        "entry": 5281134,
        "entry_name": "McGinn It To Win It",
        "event_total": 65,
        "has_played": true,
        "id": 40934121,
        "last_rank": 38774,
        "player_name": "Ed Welch",
        "rank": 34242,
        "rank_sort": 34409,
        "total": 2364
      },
      {
        "club_badge_src": null,
        "entry": 5290533,
        "entry_name": "Kai of the tiger",
        "event_total": 68,
        "has_played": true,
        "id": 41008599,
        "last_rank": 48363,
        "player_name": "Liam Shutt",
        "rank": 34242,
        "rank_sort": 34410,
        "total": 2364
      },
      {
        "club_badge_src": null,
        "entry": 5401450,
        "entry_name": "Yoro Wissa Harry",
        "event_total": 59,
        "has_played": true,
        "id": 41998461,
        "last_rank": 31620,
        "player_name": "Jacob Cart",
        "rank": 34242,
        "rank_sort": 34411,
        "total": 2364
      },
      {
        "club_badge_src": null,
        "entry": 5421857,
        "entry_name": "AAG",
        "event_total": 80,
        "has_played": true,
        "id": 42168777,
        "last_rank": 68585,
        "player_name": "Ali Al Gharabi",
        "rank": 34242,
        "rank_sort": 34412,
        "total": 2364
      },
      {
        "club_badge_src": null,
        "entry": 5517867,
        "entry_name": "Ghurta Boys",
        "event_total": 49,
        "has_played": true,
        "id": 43022474,
        "last_rank": 26088,
        "player_name": "Gustaf Nygren",
        "rank": 34242,
        "rank_sort": 34413,
        "total": 2364
      },
      {
        "club_badge_src": null,
        "entry": 5574034,
        "entry_name": "Check Raise Utd",
        "event_total": 65,
        "has_played": true,
        "id": 43528810,
        "last_rank": 44048,
        "player_name": "Alice Rodrigues",
        "rank": 34242,
        "rank_sort": 34414,
        "total": 2364
      },
      {
        "club_badge_src": null,
        "entry": 5699893,
        "entry_name": "countdoku",
        "event_total": 60,
        "has_played": true,
        "id": 44626911,
        "last_rank": 32879,
        "player_name": "Angela Masson",
        "rank": 34242,
        "rank_sort": 34415,
        "total": 2364
      },
      {
        "club_badge_src": null,
        "entry": 5799065,
        "entry_name": "Jack Army",
        "event_total": 69,
        "has_played": true,
        "id": 45490060,
        "last_rank": 49880,
        "player_name": "Domenico Reda",
        "rank": 34242,
        "rank_sort": 34416,
        "total": 2364
      },
      {
        "club_badge_src": null,
        "entry": 5817661,
        "entry_name": "T\u00e4htisikerm\u00e4",
        "event_total": 63,
        "has_played": true,
        "id": 45651831,
        "last_rank": 41324,
        "player_name": "Chak-Fung Tsang",
        "rank": 34242,
        "rank_sort": 34417,
        "total": 2364
      },
      {
        "club_badge_src": null,
        "entry": 5849066,
        "entry_name": "Take it Eze XI",
        "event_total": 58,
        "has_played": true,
        "id": 45920095,
        "last_rank": 35619,
        "player_name": "Ahmad Hijazie",
        "rank": 34242,
        "rank_sort": 34418,
        "total": 2364
      },
      {
        "club_badge_src": null,
        "entry": 5912919,
        "entry_name": "John Boy Juniors",
        "event_total": 60,
        "has_played": true,
        "id": 46466338,
        "last_rank": 37822,
        "player_name": "Gareth John",
        "rank": 34242,
        "rank_sort": 34419,
        "total": 2364
      },
      {
        "club_badge_src": null,
        "entry": 5983990,
        "entry_name": "Artekkers",
        "event_total": 39,
        "has_played": true,
        "id": 47127058,
        "last_rank": 18377,
        "player_name": "josh blackman",
        "rank": 34242,
        "rank_sort": 34420,
        "total": 2364
      },
      {
        "club_badge_src": "https://fantasy.premierleague.com/gcs/plfpl-production-adobe-approved/plfpl-production/6007958/71d4226e-ce64-49ff-81a3-bc0d07a3e735.png",
        "entry": 6007958,
        "entry_name": "e'Swazini United",
        "event_total": 69,
        "has_played": true,
        "id": 47368544,
        "last_rank": 49880,
        "player_name": "Dumisani Kadango",
        "rank": 34242,
        "rank_sort": 34421,
        "total": 2364
      },
      {
        "club_badge_src": null,
        "entry": 6154522,
        "entry_name": "MSOFC1",
        "event_total": 55,
        "has_played": true,
        "id": 48651970,
        "last_rank": 31995,
        "player_name": "Jim Allen",
        "rank": 34242,
        "rank_sort": 34422,
        "total": 2364
      },
      {
        "club_badge_src": null,
        "entry": 6156769,
        "entry_name": "Vigrabataljonen",
        "event_total": 65,
        "has_played": true,
        "id": 48671475,
        "last_rank": 44303,
        "player_name": "Martin Roaldsnes",
        "rank": 34242,
        "rank_sort": 34423,
        "total": 2364
      },
      {
        "club_badge_src": null,
        "entry": 6267992,
        "entry_name": "Howay the lads",
        "event_total": 63,
        "has_played": true,
        "id": 49632024,
        "last_rank": 41324,
        "player_name": "Morten Torn\u00f8e",
        "rank": 34242,
        "rank_sort": 34424,
        "total": 2364
      },
      {
        "club_badge_src": "https://fantasy.premierleague.com/gcs/plfpl-production-adobe-approved/plfpl-production/6304362/25f1fec1-5c03-4db4-8dcb-31411017d0e4.png",
        "entry": 6304362,
        "entry_name": "FPL Augustine Jr",
        "event_total": 63,
        "has_played": true,
        "id": 49992908,
        "last_rank": 41617,
        "player_name": "Abhay Augustine",
        "rank": 34242,
        "rank_sort": 34425,
        "total": 2364
      },
      {
        "club_badge_src": null,
        "entry": 6316802,
        "entry_name": "Laura's Lads",
        "event_total": 66,
        "has_played": true,
        "id": 50133907,
        "last_rank": 45714,
        "player_name": "Laura Clancy",
        "rank": 34242,
        "rank_sort": 34426,
        "total": 2364
      },
      {
        "club_badge_src": null,
        "entry": 6336399,
        "entry_name": "Power Reijnders",
        "event_total": 58,
        "has_played": true,
        "id": 50360720,
        "last_rank": 35424,
        "player_name": "Martin Batin",
        "rank": 34242,
        "rank_sort": 34427,
        "total": 2364
      },
      {
        "club_badge_src": null,
        "entry": 6414747,
        "entry_name": "Shaws Specials",
        "event_total": 50,
        "has_played": true,
        "id": 51050752,
        "last_rank": 26827,
        "player_name": "Ryan Shaw",
        "rank": 34242,
        "rank_sort": 34428,
        "total": 2364
      },
      {
        "club_badge_src": null,
        "entry": 6596590,
        "entry_name": "The Browndawgs",
        "event_total": 50,
        "has_played": true,
        "id": 52690178,
        "last_rank": 27020,
        "player_name": "James Brown",
        "rank": 34242,
        "rank_sort": 34429,
        "total": 2364
      },
      {
        "club_badge_src": null,
        "entry": 6617765,
        "entry_name": "\"Vote for Pedro\"",
        "event_total": 63,
        "has_played": true,
        "id": 52880487,
        "last_rank": 36348,
        "player_name": "Tariq Desai",
        "rank": 34242,
        "rank_sort": 34430,
        "total": 2364
      },
      {
        "club_badge_src": "https://fantasy.premierleague.com/gcs/plfpl-production-adobe-approved/plfpl-production/6726626/c4a22406-e6dc-4594-89bf-67066a24d4a6.png",
        "entry": 6726626,
        "entry_name": "Busquets and Cream",
        "event_total": 53,
        "has_played": true,
        "id": 53837694,
        "last_rank": 30060,
        "player_name": "Bupe Mwenechanya",
        "rank": 34242,
        "rank_sort": 34431,
        "total": 2364
      },
      {
        "club_badge_src": null,
        "entry": 6749421,
        "entry_name": "AC ALAN MILAN",
        "event_total": 45,
        "has_played": true,
        "id": 54032605,
        "last_rank": 22685,
        "player_name": "Alan Dillane",
        "rank": 34242,
        "rank_sort": 34432,
        "total": 2364
      },
      {
        "club_badge_src": null,
        "entry": 6834998,
        "entry_name": "Kinder Mbeumo",
        "event_total": 43,
        "has_played": true,
        "id": 54751359,
        "last_rank": 21159,
        "player_name": "Christophe Stevens",
        "rank": 34242,
        "rank_sort": 34433,
        "total": 2364
      },
      {
        "club_badge_src": null,
        "entry": 6892019,
        "entry_name": "lol",
        "event_total": 75,
        "has_played": true,
        "id": 55237265,
        "last_rank": 60168,
        "player_name": "Alvv elsvyed",
        "rank": 34242,
        "rank_sort": 34434,
        "total": 2364
      },
      {
        "club_badge_src": null,
        "entry": 6999582,
        "entry_name": "KehndiHundiSi",
        "event_total": 76,
        "has_played": true,
        "id": 56199419,
        "last_rank": 61315,
        "player_name": "Rudy Kotra",
        "rank": 34242,
        "rank_sort": 34435,
        "total": 2364
      },
      {
        "club_badge_src": null,
        "entry": 7050550,
        "entry_name": "Virg Hard Play Hard",
        "event_total": 67,
        "has_played": true,
        "id": 56702841,
        "last_rank": 46839,
        "player_name": "Daniel Krooswijk",
        "rank": 34242,
        "rank_sort": 34436,
        "total": 2364
      },
      {
        "club_badge_src": null,
        "entry": 7070881,
        "entry_name": "Giggs United",
        "event_total": 49,
        "has_played": true,
        "id": 56897554,
        "last_rank": 22534,
        "player_name": "Jan Egil Andresen",
        "rank": 34242,
        "rank_sort": 34437,
        "total": 2364
      },
      {
        "club_badge_src": null,
        "entry": 7078035,
        "entry_name": "Abushi FC",
        "event_total": 45,
        "has_played": true,
        "id": 56965791,
        "last_rank": 22685,
        "player_name": "Adel Abushi",
        "rank": 34242,
        "rank_sort": 34438,
        "total": 2364
      },
      {
        "club_badge_src": null,
        "entry": 7165544,
        "entry_name": "George Best",
        "event_total": 58,
        "has_played": true,
        "id": 57810958,
        "last_rank": 35424,
        "player_name": "Joan Rutherford",
        "rank": 34242,
        "rank_sort": 34439,
        "total": 2364
      },
      {
        "club_badge_src": null,
        "entry": 7240703,
        "entry_name": "vlado ball",
        "event_total": 67,
        "has_played": true,
        "id": 58514949,
        "last_rank": 46839,
        "player_name": "valdemar egemar",
        "rank": 34242,
        "rank_sort": 34440,
        "total": 2364
      },
      {
        "club_badge_src": null,
        "entry": 7299181,
        "entry_name": "liveforugo",
        "event_total": 55,
        "has_played": true,
        "id": 59068735,
        "last_rank": 27644,
        "player_name": "Okaro One",
        "rank": 34242,
        "rank_sort": 34441,
        "total": 2364
      },
      {
        "club_badge_src": null,
        "entry": 7398974,
        "entry_name": "Yeos Keos",
        "event_total": 60,
        "has_played": true,
        "id": 60004702,
        "last_rank": 37822,
        "player_name": "Joule DCM",
        "rank": 34242,
        "rank_sort": 34442,
        "total": 2364
      },
      {
        "club_badge_src": null,
        "entry": 7627064,
        "entry_name": "A Cunha Mateta",
        "event_total": 87,
        "has_played": true,
        "id": 62509676,
        "last_rank": 84731,
        "player_name": "Christian Adams",
        "rank": 34242,
        "rank_sort": 34443,
        "total": 2364
      },
      {
        "club_badge_src": null,
        "entry": 7685560,
        "entry_name": "Shujaaz",
        "event_total": 58,
        "has_played": true,
        "id": 63041655,
        "last_rank": 35166,
        "player_name": "Alex Muthua",
        "rank": 34242,
        "rank_sort": 34444,
        "total": 2364
      },
      {
        "club_badge_src": null,
        "entry": 8139751,
        "entry_name": "Ats Purje",
        "event_total": 64,
        "has_played": true,
        "id": 67172617,
        "last_rank": 42940,
        "player_name": "Henry Hunt",
        "rank": 34242,
        "rank_sort": 34445,
        "total": 2364
      },
      {
        "club_badge_src": "https://fantasy.premierleague.com/gcs/plfpl-production-adobe-approved/plfpl-production/8223002/cd1ae304-d177-4a65-9a39-4426203def09.png",
        "entry": 8223002,
        "entry_name": "FC Revenge",
        "event_total": 65,
        "has_played": true,
        "id": 67958684,
        "last_rank": 44048,
        "player_name": "Marcin \u0141ukasiewicz",
        "rank": 34242,
        "rank_sort": 34446,
        "total": 2364
      },
      {
        "club_badge_src": null,
        "entry": 8223020,
        "entry_name": "hakuna mateta",
        "event_total": 69,
        "has_played": true,
        "id": 67958831,
        "last_rank": 44048,
        "player_name": "Dan Hawkins",
        "rank": 34242,
        "rank_sort": 34447,
        "total": 2364
      },
      {
        "club_badge_src": "https://fantasy.premierleague.com/gcs/plfpl-production-adobe-approved/plfpl-production/8382964/103a3dcb-1122-4412-b54f-39cdb16ef59c.png",
        "entry": 8382964,
        "entry_name": "EGEDIGG",
        "event_total": 56,
        "has_played": true,
        "id": 69519031,
        "last_rank": 28726,
        "player_name": "Petter Hansen",
        "rank": 34242,
        "rank_sort": 34448,
        "total": 2364
      },
      {
        "club_badge_src": null,
        "entry": 8507504,
        "entry_name": "Out On Bale",
        "event_total": 66,
        "has_played": true,
        "id": 70710216,
        "last_rank": 45252,
        "player_name": "Sean Price",
        "rank": 34242,
        "rank_sort": 34449,
        "total": 2364
      },
      {
        "club_badge_src": null,
        "entry": 8673950,
        "entry_name": "Wayne's World",
        "event_total": 75,
        "has_played": true,
        "id": 72325076,
        "last_rank": 59632,
        "player_name": "Scott Rogers",
        "rank": 34242,
        "rank_sort": 34450,
        "total": 2364
      }
    ]
  }
}