{
  "last_updated_data": "2026-05-24T23:28:17Z",
  "league": {
    "admin_entry": null,
    "closed": false,
    "code_privacy": "p",
    "created": "2025-07-20T23:14:33.933835Z",
    "cup_league": 2815434,
    "has_cup": true,
    "id": 314,
    "league_type": "s",
    "max_entries": null,
    "name": "Overall",
    "rank": null,
    "scoring": "c",
    "start_event": 1
  },
  "new_entries": {
    "has_next": false,
    "page": 1,
    "results": []
  },
  "standings": {
    "has_next": true,
    "page": 773,
    "results": [
      {
        "club_badge_src": null,
        "entry": 5454622,
        "entry_name": "MK",
        "event_total": 62,
        "has_played": true,
        "id": 42446967,
        "last_rank": 45416,
        "player_name": "Mbanwei Kelvin Tezeh",
        "rank": 38530,
        "rank_sort": 38601,
        "total": 2360
      },
      {
        "club_badge_src": null,
        "entry": 5578380,
        "entry_name": "Bowen Begins",
        "event_total": 61,
        "has_played": true,
        "id": 43566146,
        "last_rank": 43786,
        "player_name": "Matt Heester",
        "rank": 38530,
        "rank_sort": 38602,
        "total": 2360
      },
      {
        "club_badge_src": null,
        "entry": 5680949,
        "entry_name": "Sheeshko",
        "event_total": 58,
        "has_played": true,
        "id": 44463160,
        "last_rank": 39874,
        "player_name": "Abdullah Hamoud",
        "rank": 38530,
        "rank_sort": 38603,
        "total": 2360
      },
      {
        "club_badge_src": null,
        "entry": 5708304,
        "entry_name": "Fernilee Fumblers",
        "event_total": 56,
        "has_played": true,
        "id": 44699403,
        "last_rank": 32688,
        "player_name": "Jeffrey Cooper",
        "rank": 38530,
        "rank_sort": 38604,
        "total": 2360
      },
      {
        "club_badge_src": null,
        "entry": 5947862,
        "entry_name": "Alfbjarne FC",
        "event_total": 83,
        "has_played": true,
        "id": 46780003,
        "last_rank": 83534,
        "player_name": "Morten Solbakken",
        "rank": 38530,
        "rank_sort": 38605,
        "total": 2360
      },
      {
        "club_badge_src": null,
        "entry": 6093234,
        "entry_name": "Ulfrir's Tainted",
        "event_total": 71,
        "has_played": true,
        "id": 48117834,
        "last_rank": 59535,
        "player_name": "Michael Roberts",
        "rank": 38530,
        "rank_sort": 38606,
        "total": 2360
      },
      {
        "club_badge_src": null,
        "entry": 6288079,
        "entry_name": "ThinEducator",
        "event_total": 65,
        "has_played": true,
        "id": 49815138,
        "last_rank": 49880,
        "player_name": "Aditya Narvekar",
        "rank": 38530,
        "rank_sort": 38607,
        "total": 2360
      },
      {
        "club_badge_src": null,
        "entry": 6436952,
        "entry_name": "Bellewnited",
        "event_total": 39,
        "has_played": true,
        "id": 51246359,
        "last_rank": 20983,
        "player_name": "William Bellew",
        "rank": 38530,
        "rank_sort": 38608,
        "total": 2360
      },
      {
        "club_badge_src": null,
        "entry": 6474051,
        "entry_name": "SAKA MEE COOK",
        "event_total": 80,
        "has_played": true,
        "id": 51587774,
        "last_rank": 77050,
        "player_name": "Amir Hanna",
        "rank": 38530,
        "rank_sort": 38609,
        "total": 2360
      },
      {
        "club_badge_src": null,
        "entry": 6490156,
        "entry_name": "That's So Craven",
        "event_total": 71,
        "has_played": true,
        "id": 51734955,
        "last_rank": 52759,
        "player_name": "George Tresnan",
        "rank": 38530,
        "rank_sort": 38610,
        "total": 2360
      },
      {
        "club_badge_src": "https://fantasy.premierleague.com/gcs/plfpl-production-adobe-approved/plfpl-production/7297546/c0630e07-3d3e-4e35-a21b-88d841d608ff.png",
        "entry": 7297546,
        "entry_name": "Inter Samlan",
        "event_total": 52,
        "has_played": true,
        "id": 59053335,
        "last_rank": 32751,
        "player_name": "Sam Taylor",
        "rank": 38530,
        "rank_sort": 38611,
        "total": 2360
      },
      {
        "club_badge_src": null,
        "entry": 8451802,
        "entry_name": "\u660e\u6708\u6e05\u98ce",
        "event_total": 62,
        "has_played": true,
        "id": 70171981,
        "last_rank": 45252,
        "player_name": "Henry Xiu",
        "rank": 38530,
        "rank_sort": 38612,
        "total": 2360
      },
      {
        "club_badge_src": null,
        "entry": 8542992,
        "entry_name": "Ole's at the wheel",
        "event_total": 70,
        "has_played": true,
        "id": 71050662,
        "last_rank": 57857,
        "player_name": "Dylan Ottey-Lewis",
        "rank": 38530,
        "rank_sort": 38613,
        "total": 2360
      },
      {
        "club_badge_src": null,
        "entry": 8651930,
        "entry_name": "Birbirita",
        "event_total": 53,
        "has_played": true,
        "id": 72106417,
        "last_rank": 33869,
        "player_name": "Aleksandra Dumitrescu",
        "rank": 38530,
        "rank_sort": 38614,
        "total": 2360
      },
      {
        "club_badge_src": null,
        "entry": 175,
        "entry_name": "Band of Outsiders",
        "event_total": 66,
        "has_played": true,
        "id": 958,
        "last_rank": 51403,
        "player_name": "Christian Hayes",
        "rank": 38615,
        "rank_sort": 38615,
        "total": 2360
      },
      {
        "club_badge_src": null,
        "entry": 227,
        "entry_name": "Sporting Stochastic",
        "event_total": 65,
        "has_played": true,
        "id": 1256,
        "last_rank": 49880,
        "player_name": "Andy W",
        "rank": 38615,
        "rank_sort": 38616,
        "total": 2360
      },
      {
        "club_badge_src": null,
        "entry": 1228,
        "entry_name": "Wardy\u2019s XI",
        "event_total": 64,
        "has_played": true,
        "id": 6823,
        "last_rank": 48363,
        "player_name": "Dan Ward",
        "rank": 38615,
        "rank_sort": 38617,
        "total": 2360
      },
      {
        "club_badge_src": null,
        "entry": 2133,
        "entry_name": "SquidWirtz",
        "event_total": 68,
        "has_played": true,
        "id": 11897,
        "last_rank": 54494,
        "player_name": "Chris Day",
        "rank": 38615,
        "rank_sort": 38618,
        "total": 2360
      },
      {
        "club_badge_src": null,
        "entry": 2165,
        "entry_name": "Jet2 Holiday FC",
        "event_total": 51,
        "has_played": true,
        "id": 12071,
        "last_rank": 31556,
        "player_name": "Wayne Chan",
        "rank": 38615,
        "rank_sort": 38619,
        "total": 2360
      },
      {
        "club_badge_src": "https://fantasy.premierleague.com/gcs/plfpl-production-adobe-approved/plfpl-production/4325/38defcbd-afe6-4e57-8b3f-782612a34288.png",
        "entry": 4325,
        "entry_name": "Ogglington FC",
        "event_total": 59,
        "has_played": true,
        "id": 24579,
        "last_rank": 41162,
        "player_name": "Ryan Ogg",
        "rank": 38615,
        "rank_sort": 38620,
        "total": 2360
      },
      {
        "club_badge_src": "https://fantasy.premierleague.com/gcs/plfpl-production-adobe-approved/plfpl-production/6341/b10bbde3-3c33-4521-b8f5-6a72c2d49d92.png",
        "entry": 6341,
        "entry_name": "Can't Get Any Wirtz",
        "event_total": 69,
        "has_played": true,
        "id": 36361,
        "last_rank": 56369,
        "player_name": "Chris Connor",
        "rank": 38615,
        "rank_sort": 38621,
        "total": 2360
      },
      {
        "club_badge_src": null,
        "entry": 7248,
        "entry_name": "Bayer Neverlusen",
        "event_total": 58,
        "has_played": true,
        "id": 41768,
        "last_rank": 39874,
        "player_name": "Joe Fitzgerald",
        "rank": 38615,
        "rank_sort": 38622,
        "total": 2360
      },
      {
        "club_badge_src": null,
        "entry": 7334,
        "entry_name": "Win",
        "event_total": 43,
        "has_played": true,
        "id": 42257,
        "last_rank": 24143,
        "player_name": "Dillon Brown",
        "rank": 38615,
        "rank_sort": 38623,
        "total": 2360
      },
      {
        "club_badge_src": null,
        "entry": 13332,
        "entry_name": "Obi One Kenobi Nil",
        "event_total": 57,
        "has_played": true,
        "id": 80471,
        "last_rank": 38774,
        "player_name": "Ben Carreyett",
        "rank": 38615,
        "rank_sort": 38624,
        "total": 2360
      },
      {
        "club_badge_src": null,
        "entry": 18461,
        "entry_name": "Tesco McNeil deal",
        "event_total": 52,
        "has_played": true,
        "id": 114848,
        "last_rank": 32688,
        "player_name": "omer pitamina",
        "rank": 38615,
        "rank_sort": 38625,
        "total": 2360
      },
      {
        "club_badge_src": "https://fantasy.premierleague.com/gcs/plfpl-production-adobe-approved/plfpl-production/21224/0d477494-d278-4ff9-bb48-891f4f4124ff.png",
        "entry": 21224,
        "entry_name": "beeewd",
        "event_total": 54,
        "has_played": true,
        "id": 133040,
        "last_rank": 35424,
        "player_name": "Ali Serdar Ozadam",
        "rank": 38615,
        "rank_sort": 38626,
        "total": 2360
      },
      {
        "club_badge_src": null,
        "entry": 27493,
        "entry_name": "Red Nose Reijnders",
        "event_total": 73,
        "has_played": true,
        "id": 173806,
        "last_rank": 63063,
        "player_name": "Jade Penn",
        "rank": 38615,
        "rank_sort": 38627,
        "total": 2360
      },
      {
        "club_badge_src": null,
        "entry": 28478,
        "entry_name": "Joelintoon",
        "event_total": 51,
        "has_played": true,
        "id": 180065,
        "last_rank": 31747,
        "player_name": "Fred Wilkinson",
        "rank": 38615,
        "rank_sort": 38628,
        "total": 2360
      },
      {
        "club_badge_src": null,
        "entry": 29124,
        "entry_name": "K\u00f6nnin Klubi",
        "event_total": 71,
        "has_played": true,
        "id": 184133,
        "last_rank": 59632,
        "player_name": "Eetu K\u00f6n\u00f6nen",
        "rank": 38615,
        "rank_sort": 38629,
        "total": 2360
      },
      {
        "club_badge_src": "https://fantasy.premierleague.com/gcs/plfpl-production-adobe-approved/plfpl-production/32365/9707488d-2106-42d1-981f-369aed7a1049.png",
        "entry": 32365,
        "entry_name": "LPrempeh stars",
        "event_total": 71,
        "has_played": true,
        "id": 205884,
        "last_rank": 59535,
        "player_name": "M Lee Prempeh",
        "rank": 38615,
        "rank_sort": 38630,
        "total": 2360
      },
      {
        "club_badge_src": null,
        "entry": 38689,
        "entry_name": "Enoch Kuan",
        "event_total": 59,
        "has_played": true,
        "id": 248043,
        "last_rank": 41324,
        "player_name": "Martin Noe-Nordberg",
        "rank": 38615,
        "rank_sort": 38631,
        "total": 2360
      },
      {
        "club_badge_src": "https://fantasy.premierleague.com/gcs/plfpl-production-adobe-approved/plfpl-production/49027/e57925c3-4181-4e13-9f1f-32008b97f731.png",
        "entry": 49027,
        "entry_name": "Heaven & Earthy",
        "event_total": 65,
        "has_played": true,
        "id": 315042,
        "last_rank": 49880,
        "player_name": "David Carter",
        "rank": 38615,
        "rank_sort": 38632,
        "total": 2360
      },
      {
        "club_badge_src": null,
        "entry": 63446,
        "entry_name": "Aouar We?",
        "event_total": 44,
        "has_played": true,
        "id": 409377,
        "last_rank": 25002,
        "player_name": "Oran Mc Kenna",
        "rank": 38615,
        "rank_sort": 38633,
        "total": 2360
      },
      {
        "club_badge_src": null,
        "entry": 65533,
        "entry_name": "Mekk Mester United",
        "event_total": 61,
        "has_played": true,
        "id": 423139,
        "last_rank": 44048,
        "player_name": "Tamas Graf",
        "rank": 38615,
        "rank_sort": 38634,
        "total": 2360
      },
      {
        "club_badge_src": null,
        "entry": 69270,
        "entry_name": "Alisson Chains",
        "event_total": 68,
        "has_played": true,
        "id": 449189,
        "last_rank": 48197,
        "player_name": "Mirza Muzur",
        "rank": 38615,
        "rank_sort": 38635,
        "total": 2360
      },
      {
        "club_badge_src": null,
        "entry": 76812,
        "entry_name": "Ur Wirtz Nightmare",
        "event_total": 69,
        "has_played": true,
        "id": 499306,
        "last_rank": 43786,
        "player_name": "Cj Roberts",
        "rank": 38615,
        "rank_sort": 38636,
        "total": 2360
      },
      {
        "club_badge_src": null,
        "entry": 80508,
        "entry_name": "Project X",
        "event_total": 60,
        "has_played": true,
        "id": 523779,
        "last_rank": 42506,
        "player_name": "Danny da Silva",
        "rank": 38615,
        "rank_sort": 38637,
        "total": 2360
      },
      {
        "club_badge_src": null,
        "entry": 80987,
        "entry_name": "YerMansSon",
        "event_total": 65,
        "has_played": true,
        "id": 526920,
        "last_rank": 49691,
        "player_name": "Norman Sinclair",
        "rank": 38615,
        "rank_sort": 38638,
        "total": 2360
      },
      {
        "club_badge_src": null,
        "entry": 83050,
        "entry_name": "Vecna Slakt",
        "event_total": 73,
        "has_played": true,
        "id": 540479,
        "last_rank": 63201,
        "player_name": "Dennis \u00c5berg",
        "rank": 38615,
        "rank_sort": 38639,
        "total": 2360
      },
      {
        "club_badge_src": "https://fantasy.premierleague.com/gcs/plfpl-production-adobe-approved/plfpl-production/83429/739372ec-50b8-47fd-bbbb-25d663bba789.png",
        "entry": 83429,
        "entry_name": "halaszle88",
        "event_total": 48,
        "has_played": true,
        "id": 543010,
        "last_rank": 28726,
        "player_name": "Tam\u00e1s Wolfram",
        "rank": 38615,
        "rank_sort": 38640,
        "total": 2360
      },
      {
        "club_badge_src": "https://fantasy.premierleague.com/gcs/plfpl-production-adobe-approved/plfpl-production/88674/0e1bdce9-68a3-4b56-bf3c-ee828bf51d2c.png",
        "entry": 88674,
        "entry_name": "Chanainut",
        "event_total": 69,
        "has_played": true,
        "id": 578703,
        "last_rank": 56180,
        "player_name": "\u0e0a\u0e19\u0e31\u0e22\u0e13\u0e31\u0e10 \u0e27\u0e34\u0e2b\u0e01\u0e40\u0e2b\u0e34\u0e23",
        "rank": 38615,
        "rank_sort": 38641,
        "total": 2360
      },
      {
        "club_badge_src": "https://fantasy.premierleague.com/gcs/plfpl-production-adobe-approved/plfpl-production/95264/de842e1a-fd22-41fc-8347-96a7190620eb.png",
        "entry": 95264,
        "entry_name": "Just A Coppola Lads",
        "event_total": 62,
        "has_played": true,
        "id": 622495,
        "last_rank": 45144,
        "player_name": "Martin O'Rourke",
        "rank": 38615,
        "rank_sort": 38642,
        "total": 2360
      },
      {
        "club_badge_src": null,
        "entry": 97693,
        "entry_name": "Sic Parvis Magna",
        "event_total": 49,
        "has_played": true,
        "id": 638034,
        "last_rank": 29578,
        "player_name": "Alex Karaolias",
        "rank": 38615,
        "rank_sort": 38643,
        "total": 2360
      },
      {
        "club_badge_src": "https://fantasy.premierleague.com/gcs/plfpl-production-adobe-approved/plfpl-production/101895/458c9338-7264-4f14-af8a-c71df6561354.png",
        "entry": 101895,
        "entry_name": "Beelzebuby",
        "event_total": 62,
        "has_played": true,
        "id": 664817,
        "last_rank": 45416,
        "player_name": "Daniel Cyperski",
        "rank": 38615,
        "rank_sort": 38644,
        "total": 2360
      },
      {
        "club_badge_src": null,
        "entry": 105908,
        "entry_name": "Boom Saka Laka",
        "event_total": 52,
        "has_played": true,
        "id": 690653,
        "last_rank": 32751,
        "player_name": "Jake Hancock",
        "rank": 38615,
        "rank_sort": 38645,
        "total": 2360
      },
      {
        "club_badge_src": null,
        "entry": 111861,
        "entry_name": "Fortuna",
        "event_total": 48,
        "has_played": true,
        "id": 729334,
        "last_rank": 28609,
        "player_name": "Helge Gruettke",
        "rank": 38615,
        "rank_sort": 38646,
        "total": 2360
      },
      {
        "club_badge_src": null,
        "entry": 116845,
        "entry_name": "lil chilli rice",
        "event_total": 61,
        "has_played": true,
        "id": 762780,
        "last_rank": 43742,
        "player_name": "David Garcia",
        "rank": 38615,
        "rank_sort": 38647,
        "total": 2360
      },
      {
        "club_badge_src": null,
        "entry": 118899,
        "entry_name": "bowen 747",
        "event_total": 49,
        "has_played": true,
        "id": 775879,
        "last_rank": 29688,
        "player_name": "Michal Kowalczyk",
        "rank": 38615,
        "rank_sort": 38648,
        "total": 2360
      },
      {
        "club_badge_src": "https://fantasy.premierleague.com/gcs/plfpl-production-adobe-approved/plfpl-production/134450/9f96731e-6a61-427b-b055-b0b5f85af2e7.png",
        "entry": 134450,
        "entry_name": "Blitz! Boyz!",
        "event_total": 51,
        "has_played": true,
        "id": 875648,
        "last_rank": 31747,
        "player_name": "Greg Wright",
        "rank": 38615,
        "rank_sort": 38649,
        "total": 2360
      },
      {
        "club_badge_src": "https://fantasy.premierleague.com/gcs/plfpl-production-adobe-approved/plfpl-production/134810/bb53407a-0dd7-40c4-bfd3-265a5e54dd0f.png",
        "entry": 134810,
        "entry_name": "Bruno Dos Tres",
        "event_total": 55,
        "has_played": true,
        "id": 877964,
        "last_rank": 36348,
        "player_name": "Ethan Dickson",
        "rank": 38615,
        "rank_sort": 38650,
        "total": 2360
      }
    ]
  }
}