{
  "last_updated_data": "2026-05-24T23:28:17Z",
  "league": {
    "admin_entry": null,
    "closed": false,
    "code_privacy": "p",
    "created": "2025-07-20T23:14:33.933835Z",
    "cup_league": 2815434,
    "has_cup": true,
    "id": 314,
    "league_type": "s",
    "max_entries": null,
    "name": "Overall",
    "rank": null,
    "scoring": "c",
    "start_event": 1
  },
  "new_entries": {
    "has_next": false,
    "page": 1,
    "results": []
  },
  "standings": {
    "has_next": true,
    "page": 1619,
    "results": [
      {
        "club_badge_src": null,
        "entry": 7888666,
        "entry_name": "kherrou7",
        "event_total": 64,
        "has_played": true,
        "id": 64882083,
        "last_rank": 89055,
        "player_name": "Hamza Kherrou",
        "rank": 80609,
        "rank_sort": 80901,
        "total": 2335
      },
      {
        "club_badge_src": "https://fantasy.premierleague.com/gcs/plfpl-production-adobe-approved/plfpl-production/7916622/4f6a2b91-8fc5-4b98-9be7-99f123072fe5.png",
        "entry": 7916622,
        "entry_name": "The Gang \ufffd",
        "event_total": 56,
        "has_played": true,
        "id": 65138697,
        "last_rank": 80194,
        "player_name": "rafeek figo \u0633\u064a\u0628\u0647\u0627 \u0628\u0638\u0631\u0648\u0641\u0647\u0627",
        "rank": 80609,
        "rank_sort": 80902,
        "total": 2335
      },
      {
        "club_badge_src": null,
        "entry": 8030455,
        "entry_name": "Tiny Tim Foolery",
        "event_total": 71,
        "has_played": true,
        "id": 66159530,
        "last_rank": 117112,
        "player_name": "Nate Spencer",
        "rank": 80609,
        "rank_sort": 80903,
        "total": 2335
      },
      {
        "club_badge_src": null,
        "entry": 8208638,
        "entry_name": "European Seagulls",
        "event_total": 56,
        "has_played": true,
        "id": 67822588,
        "last_rank": 80194,
        "player_name": "Steve Scott",
        "rank": 80609,
        "rank_sort": 80904,
        "total": 2335
      },
      {
        "club_badge_src": null,
        "entry": 8372089,
        "entry_name": "Club O\u2019 War",
        "event_total": 59,
        "has_played": true,
        "id": 69414666,
        "last_rank": 86735,
        "player_name": "Jamie Browning",
        "rank": 80609,
        "rank_sort": 80905,
        "total": 2335
      },
      {
        "club_badge_src": null,
        "entry": 8400055,
        "entry_name": "Made Inside 5 Guys",
        "event_total": 72,
        "has_played": true,
        "id": 69678253,
        "last_rank": 120941,
        "player_name": "Lewis Marriner",
        "rank": 80609,
        "rank_sort": 80906,
        "total": 2335
      },
      {
        "club_badge_src": "https://fantasy.premierleague.com/gcs/plfpl-production-adobe-approved/plfpl-production/8420276/9eea14cc-99b5-46fe-a5ec-36edd810e684.png",
        "entry": 8420276,
        "entry_name": "Mali saint germains",
        "event_total": 44,
        "has_played": true,
        "id": 69870236,
        "last_rank": 57001,
        "player_name": "Kamel.ashh Ashhab",
        "rank": 80609,
        "rank_sort": 80907,
        "total": 2335
      },
      {
        "club_badge_src": null,
        "entry": 8566765,
        "entry_name": "3skR FC",
        "event_total": 72,
        "has_played": true,
        "id": 71280201,
        "last_rank": 120438,
        "player_name": "Saeed Almheiri",
        "rank": 80609,
        "rank_sort": 80908,
        "total": 2335
      },
      {
        "club_badge_src": null,
        "entry": 8643827,
        "entry_name": "JogaBonito",
        "event_total": 53,
        "has_played": true,
        "id": 72024813,
        "last_rank": 73720,
        "player_name": "Clement Simon",
        "rank": 80609,
        "rank_sort": 80909,
        "total": 2335
      },
      {
        "club_badge_src": null,
        "entry": 8772987,
        "entry_name": "Wirtz Case Scenario",
        "event_total": 64,
        "has_played": true,
        "id": 73283526,
        "last_rank": 88594,
        "player_name": "Vikesh Patel",
        "rank": 80609,
        "rank_sort": 80910,
        "total": 2335
      },
      {
        "club_badge_src": null,
        "entry": 9100092,
        "entry_name": "Finding Tino",
        "event_total": 55,
        "has_played": true,
        "id": 76452882,
        "last_rank": 77999,
        "player_name": "Mike Hopkins",
        "rank": 80609,
        "rank_sort": 80911,
        "total": 2335
      },
      {
        "club_badge_src": null,
        "entry": 9329517,
        "entry_name": "hamdy elshewehy",
        "event_total": 45,
        "has_played": true,
        "id": 78692278,
        "last_rank": 58911,
        "player_name": "Hamdy Elshewehy",
        "rank": 80609,
        "rank_sort": 80912,
        "total": 2335
      },
      {
        "club_badge_src": "https://fantasy.premierleague.com/gcs/plfpl-production-adobe-approved/plfpl-production/19/7b9225f4-d0bb-4dc0-9491-18dce80bdf3b.png",
        "entry": 19,
        "entry_name": "Assiotis fc",
        "event_total": 60,
        "has_played": true,
        "id": 102,
        "last_rank": 80194,
        "player_name": "Alexandros Assiotis",
        "rank": 80913,
        "rank_sort": 80913,
        "total": 2335
      },
      {
        "club_badge_src": null,
        "entry": 3917,
        "entry_name": "ItsWayne enterprises",
        "event_total": 57,
        "has_played": true,
        "id": 22212,
        "last_rank": 65475,
        "player_name": "Olly Burgess",
        "rank": 80913,
        "rank_sort": 80914,
        "total": 2335
      },
      {
        "club_badge_src": null,
        "entry": 5539,
        "entry_name": "Team Antonsen",
        "event_total": 60,
        "has_played": true,
        "id": 31578,
        "last_rank": 89706,
        "player_name": "Arne Martin Antonsen",
        "rank": 80913,
        "rank_sort": 80915,
        "total": 2335
      },
      {
        "club_badge_src": null,
        "entry": 18608,
        "entry_name": "Alisson wonderland",
        "event_total": 45,
        "has_played": true,
        "id": 115781,
        "last_rank": 45714,
        "player_name": "james begley",
        "rank": 80913,
        "rank_sort": 80916,
        "total": 2335
      },
      {
        "club_badge_src": null,
        "entry": 39694,
        "entry_name": "Power Reijnders",
        "event_total": 65,
        "has_played": true,
        "id": 254380,
        "last_rank": 91835,
        "player_name": "Masen Gideon",
        "rank": 80913,
        "rank_sort": 80917,
        "total": 2335
      },
      {
        "club_badge_src": null,
        "entry": 42524,
        "entry_name": "Me Myself Ndiaye",
        "event_total": 65,
        "has_played": true,
        "id": 272460,
        "last_rank": 101419,
        "player_name": "Xuan Ming Tan",
        "rank": 80913,
        "rank_sort": 80918,
        "total": 2335
      },
      {
        "club_badge_src": null,
        "entry": 56576,
        "entry_name": "Matummai",
        "event_total": 60,
        "has_played": true,
        "id": 364391,
        "last_rank": 89426,
        "player_name": "Jerawats Chetsing",
        "rank": 80913,
        "rank_sort": 80919,
        "total": 2335
      },
      {
        "club_badge_src": null,
        "entry": 58188,
        "entry_name": "ToonThePaper",
        "event_total": 68,
        "has_played": true,
        "id": 374855,
        "last_rank": 109863,
        "player_name": "Toon Mana",
        "rank": 80913,
        "rank_sort": 80920,
        "total": 2335
      },
      {
        "club_badge_src": null,
        "entry": 70808,
        "entry_name": "Artetas playmohair",
        "event_total": 59,
        "has_played": true,
        "id": 459816,
        "last_rank": 69323,
        "player_name": "Svein S\u00f8rlie",
        "rank": 80913,
        "rank_sort": 80921,
        "total": 2335
      },
      {
        "club_badge_src": null,
        "entry": 73042,
        "entry_name": "Klits tropper",
        "event_total": 60,
        "has_played": true,
        "id": 474743,
        "last_rank": 89426,
        "player_name": "Kasper Klit",
        "rank": 80913,
        "rank_sort": 80922,
        "total": 2335
      },
      {
        "club_badge_src": "https://fantasy.premierleague.com/gcs/plfpl-production-adobe-approved/plfpl-production/75510/6aafb050-841f-4da0-af67-33dbf94c67a3.png",
        "entry": 75510,
        "entry_name": "Phil Farden",
        "event_total": 60,
        "has_played": true,
        "id": 490928,
        "last_rank": 80194,
        "player_name": "Baxter H.",
        "rank": 80913,
        "rank_sort": 80923,
        "total": 2335
      },
      {
        "club_badge_src": null,
        "entry": 75939,
        "entry_name": "Fr\u00e6na FK",
        "event_total": 63,
        "has_played": true,
        "id": 493703,
        "last_rank": 86735,
        "player_name": "Vegard M",
        "rank": 80913,
        "rank_sort": 80924,
        "total": 2335
      },
      {
        "club_badge_src": null,
        "entry": 78703,
        "entry_name": "Coogee Sung Park",
        "event_total": 69,
        "has_played": true,
        "id": 511722,
        "last_rank": 101818,
        "player_name": "Leigh Kierans",
        "rank": 80913,
        "rank_sort": 80925,
        "total": 2335
      },
      {
        "club_badge_src": "https://fantasy.premierleague.com/gcs/plfpl-production-adobe-approved/plfpl-production/94006/d598a00e-5f3b-4b6f-bf43-9398bfab9f3f.png",
        "entry": 94006,
        "entry_name": "Tikka Mo Salahh",
        "event_total": 61,
        "has_played": true,
        "id": 614315,
        "last_rank": 91835,
        "player_name": "Max Richards",
        "rank": 80913,
        "rank_sort": 80926,
        "total": 2335
      },
      {
        "club_badge_src": "https://fantasy.premierleague.com/gcs/plfpl-production-adobe-approved/plfpl-production/94015/2b6bc27c-d1d8-4a8a-8e4d-bb65e2857f17.png",
        "entry": 94015,
        "entry_name": "Cunha Believe It?",
        "event_total": 69,
        "has_played": true,
        "id": 614381,
        "last_rank": 112591,
        "player_name": "stiaan pieters",
        "rank": 80913,
        "rank_sort": 80927,
        "total": 2335
      },
      {
        "club_badge_src": null,
        "entry": 99426,
        "entry_name": "Eyresy",
        "event_total": 66,
        "has_played": true,
        "id": 649045,
        "last_rank": 104712,
        "player_name": "Andrew Eyres",
        "rank": 80913,
        "rank_sort": 80928,
        "total": 2335
      },
      {
        "club_badge_src": null,
        "entry": 102650,
        "entry_name": "Saka Spuds",
        "event_total": 64,
        "has_played": true,
        "id": 669767,
        "last_rank": 89426,
        "player_name": "Adam Kennedy",
        "rank": 80913,
        "rank_sort": 80929,
        "total": 2335
      },
      {
        "club_badge_src": "https://fantasy.premierleague.com/gcs/plfpl-production-adobe-approved/plfpl-production/102737/65161efc-7b0a-442e-9162-7b935debc5ac.png",
        "entry": 102737,
        "entry_name": "Yamal and 7 Dwarves",
        "event_total": 44,
        "has_played": true,
        "id": 670355,
        "last_rank": 57200,
        "player_name": "Vance Tay",
        "rank": 80913,
        "rank_sort": 80930,
        "total": 2335
      },
      {
        "club_badge_src": null,
        "entry": 111245,
        "entry_name": "Too Cold Palmer",
        "event_total": 52,
        "has_played": true,
        "id": 725401,
        "last_rank": 71956,
        "player_name": "Jarne Leys",
        "rank": 80913,
        "rank_sort": 80931,
        "total": 2335
      },
      {
        "club_badge_src": null,
        "entry": 121620,
        "entry_name": "kk",
        "event_total": 55,
        "has_played": true,
        "id": 793532,
        "last_rank": 78244,
        "player_name": "K K",
        "rank": 80913,
        "rank_sort": 80932,
        "total": 2335
      },
      {
        "club_badge_src": null,
        "entry": 124149,
        "entry_name": "Munem. FC",
        "event_total": 63,
        "has_played": true,
        "id": 809753,
        "last_rank": 96777,
        "player_name": "\u0645\u0646\u0639\u0645 \u0627\u0644\u062e\u0632\u0631\u062c\u064a",
        "rank": 80913,
        "rank_sort": 80933,
        "total": 2335
      },
      {
        "club_badge_src": null,
        "entry": 125893,
        "entry_name": "Golden Minnium  FC",
        "event_total": 57,
        "has_played": true,
        "id": 820996,
        "last_rank": 73720,
        "player_name": "Tom Wilson",
        "rank": 80913,
        "rank_sort": 80934,
        "total": 2335
      },
      {
        "club_badge_src": null,
        "entry": 139102,
        "entry_name": "Shooting Stars",
        "event_total": 47,
        "has_played": true,
        "id": 907740,
        "last_rank": 62429,
        "player_name": "Kevin Wisely",
        "rank": 80913,
        "rank_sort": 80935,
        "total": 2335
      },
      {
        "club_badge_src": null,
        "entry": 140931,
        "entry_name": "The Nounou's",
        "event_total": 53,
        "has_played": true,
        "id": 920531,
        "last_rank": 73720,
        "player_name": "Abdelmoniem Nounou",
        "rank": 80913,
        "rank_sort": 80936,
        "total": 2335
      },
      {
        "club_badge_src": null,
        "entry": 157704,
        "entry_name": "Mbeumomentum",
        "event_total": 44,
        "has_played": true,
        "id": 1037582,
        "last_rank": 50468,
        "player_name": "Jonathan Gracey",
        "rank": 80913,
        "rank_sort": 80937,
        "total": 2335
      },
      {
        "club_badge_src": null,
        "entry": 180121,
        "entry_name": "Dude, Where\u2019s Micah?",
        "event_total": 58,
        "has_played": true,
        "id": 1188665,
        "last_rank": 75874,
        "player_name": "Andy S",
        "rank": 80913,
        "rank_sort": 80938,
        "total": 2335
      },
      {
        "club_badge_src": "https://fantasy.premierleague.com/gcs/plfpl-production-adobe-approved/plfpl-production/184030/165a840c-5bca-400c-83c2-953f94eafbde.png",
        "entry": 184030,
        "entry_name": "Real Sosobad",
        "event_total": 69,
        "has_played": true,
        "id": 1215088,
        "last_rank": 91466,
        "player_name": "Martin Monsen Hundstad",
        "rank": 80913,
        "rank_sort": 80939,
        "total": 2335
      },
      {
        "club_badge_src": "https://fantasy.premierleague.com/gcs/plfpl-production-adobe-approved/plfpl-production/188092/368b9f1c-349a-4ffe-8457-c5d0da1b5928.png",
        "entry": 188092,
        "entry_name": "Cole World",
        "event_total": 67,
        "has_played": true,
        "id": 1244147,
        "last_rank": 96374,
        "player_name": "Zakariya Mahmood",
        "rank": 80913,
        "rank_sort": 80940,
        "total": 2335
      },
      {
        "club_badge_src": null,
        "entry": 190659,
        "entry_name": "Iron Bubbles",
        "event_total": 61,
        "has_played": true,
        "id": 1262657,
        "last_rank": 92126,
        "player_name": "Ray Gilburt",
        "rank": 80913,
        "rank_sort": 80941,
        "total": 2335
      },
      {
        "club_badge_src": "https://fantasy.premierleague.com/gcs/plfpl-production-adobe-approved/plfpl-production/198830/b975a8ac-15bf-409a-97d5-32e2846db77f.png",
        "entry": 198830,
        "entry_name": "F.C Galacticos",
        "event_total": 61,
        "has_played": true,
        "id": 1319524,
        "last_rank": 73423,
        "player_name": "Mateo \u0160kegro",
        "rank": 80913,
        "rank_sort": 80942,
        "total": 2335
      },
      {
        "club_badge_src": null,
        "entry": 212225,
        "entry_name": "Eze, Noni to worry",
        "event_total": 60,
        "has_played": true,
        "id": 1411799,
        "last_rank": 89706,
        "player_name": "Vince Y",
        "rank": 80913,
        "rank_sort": 80943,
        "total": 2335
      },
      {
        "club_badge_src": null,
        "entry": 214468,
        "entry_name": "Show me the Man\u00e9",
        "event_total": 60,
        "has_played": true,
        "id": 1426693,
        "last_rank": 80194,
        "player_name": "Logan Murray",
        "rank": 80913,
        "rank_sort": 80944,
        "total": 2335
      },
      {
        "club_badge_src": null,
        "entry": 224960,
        "entry_name": "Hustle Hard Poland",
        "event_total": 74,
        "has_played": true,
        "id": 1496476,
        "last_rank": 127749,
        "player_name": "Miko\u0142aj Musia\u0142",
        "rank": 80913,
        "rank_sort": 80945,
        "total": 2335
      },
      {
        "club_badge_src": "https://fantasy.premierleague.com/gcs/plfpl-production-adobe-approved/plfpl-production/241211/e83470ba-11b0-46b0-9361-b7f5379874e7.png",
        "entry": 241211,
        "entry_name": "Snowy's Giants",
        "event_total": 58,
        "has_played": true,
        "id": 1605482,
        "last_rank": 84731,
        "player_name": "Tim Flanigan",
        "rank": 80913,
        "rank_sort": 80946,
        "total": 2335
      },
      {
        "club_badge_src": null,
        "entry": 248485,
        "entry_name": "Potato eaters",
        "event_total": 64,
        "has_played": true,
        "id": 1653813,
        "last_rank": 99596,
        "player_name": "James Finn",
        "rank": 80913,
        "rank_sort": 80947,
        "total": 2335
      },
      {
        "club_badge_src": "https://fantasy.premierleague.com/gcs/plfpl-production-adobe-approved/plfpl-production/250762/a82963d8-4fc6-4b7a-a534-5daefc4b7988.png",
        "entry": 250762,
        "entry_name": "ALS7S",
        "event_total": 59,
        "has_played": true,
        "id": 1668348,
        "last_rank": 87350,
        "player_name": "Alhussein Abdelmohsin",
        "rank": 80913,
        "rank_sort": 80948,
        "total": 2335
      },
      {
        "club_badge_src": null,
        "entry": 253393,
        "entry_name": "No More Mr Rice Kai",
        "event_total": 65,
        "has_played": true,
        "id": 1685371,
        "last_rank": 91835,
        "player_name": "jake Redfearn",
        "rank": 80913,
        "rank_sort": 80949,
        "total": 2335
      },
      {
        "club_badge_src": null,
        "entry": 253889,
        "entry_name": "Net six and chill",
        "event_total": 59,
        "has_played": true,
        "id": 1688860,
        "last_rank": 87350,
        "player_name": "Martin Rolseth \u00d8ygarden",
        "rank": 80913,
        "rank_sort": 80950,
        "total": 2335
      }
    ]
  }
}