{
  "last_updated_data": "2026-05-24T23:28:17Z",
  "league": {
    "admin_entry": null,
    "closed": false,
    "code_privacy": "p",
    "created": "2025-07-20T23:14:33.933835Z",
    "cup_league": 2815434,
    "has_cup": true,
    "id": 314,
    "league_type": "s",
    "max_entries": null,
    "name": "Overall",
    "rank": null,
    "scoring": "c",
    "start_event": 1
  },
  "new_entries": {
    "has_next": false,
    "page": 1,
    "results": []
  },
  "standings": {
    "has_next": true,
    "page": 183,
    "results": [
      {
        "club_badge_src": null,
        "entry": 2468181,
        "entry_name": "Avyagra",
        "event_total": 74,
        "has_played": true,
        "id": 17656123,
        "last_rank": 14712,
        "player_name": "Amol Dangol",
        "rank": 9091,
        "rank_sort": 9101,
        "total": 2401
      },
      {
        "club_badge_src": null,
        "entry": 2506197,
        "entry_name": "Sham United FC",
        "event_total": 79,
        "has_played": true,
        "id": 17947624,
        "last_rank": 20747,
        "player_name": "Shamas Qumar",
        "rank": 9091,
        "rank_sort": 9102,
        "total": 2401
      },
      {
        "club_badge_src": null,
        "entry": 2854550,
        "entry_name": "JeDo",
        "event_total": 44,
        "has_played": true,
        "id": 20872818,
        "last_rank": 4895,
        "player_name": "Je Do",
        "rank": 9091,
        "rank_sort": 9103,
        "total": 2401
      },
      {
        "club_badge_src": null,
        "entry": 2914032,
        "entry_name": "Khaled Abdalaziz",
        "event_total": 43,
        "has_played": true,
        "id": 21359001,
        "last_rank": 3813,
        "player_name": "khaled abdalaziz",
        "rank": 9091,
        "rank_sort": 9104,
        "total": 2401
      },
      {
        "club_badge_src": null,
        "entry": 4315938,
        "entry_name": "Hubal Grind Team",
        "event_total": 66,
        "has_played": true,
        "id": 32751395,
        "last_rank": 12537,
        "player_name": "Bartosz Hubicki",
        "rank": 9091,
        "rank_sort": 9105,
        "total": 2401
      },
      {
        "club_badge_src": "https://fantasy.premierleague.com/gcs/plfpl-production-adobe-approved/plfpl-production/5075133/6f87dcc9-8738-4d0b-8757-6a23c28d5740.png",
        "entry": 5075133,
        "entry_name": "Now im a Baleba",
        "event_total": 41,
        "has_played": true,
        "id": 39222521,
        "last_rank": 4236,
        "player_name": "Marty Smith",
        "rank": 9091,
        "rank_sort": 9106,
        "total": 2401
      },
      {
        "club_badge_src": null,
        "entry": 100922,
        "entry_name": "T\u00ea\u00e4m \u00d0\u01d0\u0142\u01d0\u011f\u1ebd\u00f1\u0165 \ufffd",
        "event_total": 37,
        "has_played": true,
        "id": 658579,
        "last_rank": 3502,
        "player_name": "Dominique Ackon",
        "rank": 9107,
        "rank_sort": 9107,
        "total": 2401
      },
      {
        "club_badge_src": null,
        "entry": 385457,
        "entry_name": "F O C U S I U M \ufffd",
        "event_total": 66,
        "has_played": true,
        "id": 2585659,
        "last_rank": 10651,
        "player_name": "--Zakaria BARD --",
        "rank": 9107,
        "rank_sort": 9108,
        "total": 2401
      },
      {
        "club_badge_src": "https://fantasy.premierleague.com/gcs/plfpl-production-adobe-approved/plfpl-production/934452/31f98993-ed54-46be-ba73-d9a1562dd68f.png",
        "entry": 934452,
        "entry_name": "chikubon",
        "event_total": 66,
        "has_played": true,
        "id": 6430450,
        "last_rank": 12537,
        "player_name": "Hadyan El Aufar",
        "rank": 9107,
        "rank_sort": 9109,
        "total": 2401
      },
      {
        "club_badge_src": null,
        "entry": 965253,
        "entry_name": "meerkatsFc",
        "event_total": 77,
        "has_played": true,
        "id": 6652405,
        "last_rank": 11957,
        "player_name": "Jerry Osullivan",
        "rank": 9107,
        "rank_sort": 9110,
        "total": 2401
      },
      {
        "club_badge_src": null,
        "entry": 1252619,
        "entry_name": "I like cake",
        "event_total": 70,
        "has_played": true,
        "id": 8699908,
        "last_rank": 12537,
        "player_name": "Shane O'Neill",
        "rank": 9107,
        "rank_sort": 9111,
        "total": 2401
      },
      {
        "club_badge_src": null,
        "entry": 1280932,
        "entry_name": "abdo el shahat",
        "event_total": 79,
        "has_played": true,
        "id": 8900840,
        "last_rank": 20727,
        "player_name": "Free Palestine",
        "rank": 9107,
        "rank_sort": 9112,
        "total": 2401
      },
      {
        "club_badge_src": null,
        "entry": 1865817,
        "entry_name": "FC RuSJ",
        "event_total": 48,
        "has_played": true,
        "id": 13133125,
        "last_rank": 5865,
        "player_name": "Rune Schaug Jacobsen",
        "rank": 9107,
        "rank_sort": 9113,
        "total": 2401
      },
      {
        "club_badge_src": "https://fantasy.premierleague.com/gcs/plfpl-production-adobe-approved/plfpl-production/2055241/bc71f1de-d313-45f9-b627-e9716275af77.png",
        "entry": 2055241,
        "entry_name": "Keeper's team",
        "event_total": 60,
        "has_played": true,
        "id": 14558960,
        "last_rank": 9792,
        "player_name": "Diogo Oliveira",
        "rank": 9107,
        "rank_sort": 9114,
        "total": 2401
      },
      {
        "club_badge_src": null,
        "entry": 3568355,
        "entry_name": "Extra Carrickular",
        "event_total": 42,
        "has_played": true,
        "id": 26570009,
        "last_rank": 4445,
        "player_name": "Tony Attwell",
        "rank": 9107,
        "rank_sort": 9115,
        "total": 2401
      },
      {
        "club_badge_src": null,
        "entry": 5279850,
        "entry_name": "Yes I Can",
        "event_total": 52,
        "has_played": true,
        "id": 40923813,
        "last_rank": 5860,
        "player_name": "Ibrahem Hagag",
        "rank": 9107,
        "rank_sort": 9116,
        "total": 2401
      },
      {
        "club_badge_src": null,
        "entry": 352734,
        "entry_name": "Free palestine",
        "event_total": 59,
        "has_played": true,
        "id": 2360832,
        "last_rank": 7920,
        "player_name": "Maher klabi",
        "rank": 9117,
        "rank_sort": 9117,
        "total": 2401
      },
      {
        "club_badge_src": null,
        "entry": 829681,
        "entry_name": "Hammertime",
        "event_total": 66,
        "has_played": true,
        "id": 5682842,
        "last_rank": 9015,
        "player_name": "Noel Roberts",
        "rank": 9117,
        "rank_sort": 9118,
        "total": 2401
      },
      {
        "club_badge_src": null,
        "entry": 9421782,
        "entry_name": "Saka Spuds",
        "event_total": 61,
        "has_played": true,
        "id": 79582841,
        "last_rank": 8638,
        "player_name": "Jack Boland",
        "rank": 9117,
        "rank_sort": 9119,
        "total": 2401
      },
      {
        "club_badge_src": "https://fantasy.premierleague.com/gcs/plfpl-production-adobe-approved/plfpl-production/193559/b36f5c69-aa8c-41b2-908d-d0ea218e7ebb.png",
        "entry": 193559,
        "entry_name": "Diogo20 ForEverRed",
        "event_total": 63,
        "has_played": true,
        "id": 1282983,
        "last_rank": 9402,
        "player_name": "J D Henry",
        "rank": 9120,
        "rank_sort": 9120,
        "total": 2401
      },
      {
        "club_badge_src": null,
        "entry": 240954,
        "entry_name": "IngsCanOnlyGetBetter",
        "event_total": 60,
        "has_played": true,
        "id": 1603758,
        "last_rank": 6970,
        "player_name": "Ben Armstrong",
        "rank": 9120,
        "rank_sort": 9121,
        "total": 2401
      },
      {
        "club_badge_src": null,
        "entry": 1160845,
        "entry_name": "Daves Team 25/26****",
        "event_total": 63,
        "has_played": true,
        "id": 8052645,
        "last_rank": 11112,
        "player_name": "David Brown",
        "rank": 9120,
        "rank_sort": 9122,
        "total": 2401
      },
      {
        "club_badge_src": null,
        "entry": 3594683,
        "entry_name": "abdu Man united",
        "event_total": 72,
        "has_played": true,
        "id": 26771868,
        "last_rank": 13662,
        "player_name": "Abdulsalam Kazzaz",
        "rank": 9120,
        "rank_sort": 9123,
        "total": 2401
      },
      {
        "club_badge_src": "https://fantasy.premierleague.com/gcs/plfpl-production-adobe-approved/plfpl-production/7327107/439b7f07-bd60-4bdb-9bc1-b67a3fd1a2d3.png",
        "entry": 7327107,
        "entry_name": "MSD2",
        "event_total": 57,
        "has_played": true,
        "id": 59330999,
        "last_rank": 8645,
        "player_name": "Mhmd Saeed",
        "rank": 9120,
        "rank_sort": 9124,
        "total": 2401
      },
      {
        "club_badge_src": "https://fantasy.premierleague.com/gcs/plfpl-production-adobe-approved/plfpl-production/763984/94d79858-c881-4077-b20c-a7c2f956c6ee.png",
        "entry": 763984,
        "entry_name": "Egyptian nightmare",
        "event_total": 64,
        "has_played": true,
        "id": 5210346,
        "last_rank": 8274,
        "player_name": "Hady wael",
        "rank": 9125,
        "rank_sort": 9125,
        "total": 2401
      },
      {
        "club_badge_src": null,
        "entry": 797247,
        "entry_name": "Rossineri",
        "event_total": 43,
        "has_played": true,
        "id": 5456651,
        "last_rank": 3839,
        "player_name": "Ian Ross",
        "rank": 9125,
        "rank_sort": 9126,
        "total": 2401
      },
      {
        "club_badge_src": null,
        "entry": 6287607,
        "entry_name": "Manita \ufffd",
        "event_total": 49,
        "has_played": true,
        "id": 49810782,
        "last_rank": 6133,
        "player_name": "Manita --",
        "rank": 9125,
        "rank_sort": 9127,
        "total": 2401
      },
      {
        "club_badge_src": null,
        "entry": 542525,
        "entry_name": "Can'tgetanyWirtz",
        "event_total": 61,
        "has_played": true,
        "id": 3651413,
        "last_rank": 5109,
        "player_name": "Will Lester",
        "rank": 9128,
        "rank_sort": 9128,
        "total": 2401
      },
      {
        "club_badge_src": null,
        "entry": 6367053,
        "entry_name": "ITCHISAK",
        "event_total": 54,
        "has_played": true,
        "id": 50628890,
        "last_rank": 7582,
        "player_name": "Taylor Bradeley",
        "rank": 9128,
        "rank_sort": 9129,
        "total": 2401
      },
      {
        "club_badge_src": null,
        "entry": 1818248,
        "entry_name": "Cold feko",
        "event_total": 50,
        "has_played": true,
        "id": 12786763,
        "last_rank": 4457,
        "player_name": "Ahmed Fabiano",
        "rank": 9130,
        "rank_sort": 9130,
        "total": 2401
      },
      {
        "club_badge_src": null,
        "entry": 749099,
        "entry_name": "Islam Ali",
        "event_total": 54,
        "has_played": true,
        "id": 5096545,
        "last_rank": 6378,
        "player_name": "Islam Ali",
        "rank": 9131,
        "rank_sort": 9131,
        "total": 2401
      },
      {
        "club_badge_src": null,
        "entry": 1113389,
        "entry_name": "BashAR",
        "event_total": 56,
        "has_played": true,
        "id": 7712282,
        "last_rank": 8305,
        "player_name": "Adekanmbi Bolaji",
        "rank": 9131,
        "rank_sort": 9132,
        "total": 2401
      },
      {
        "club_badge_src": null,
        "entry": 629076,
        "entry_name": "gamuto barnes",
        "event_total": 53,
        "has_played": true,
        "id": 4250984,
        "last_rank": 6138,
        "player_name": "Gianni Bouzoukis",
        "rank": 9133,
        "rank_sort": 9133,
        "total": 2401
      },
      {
        "club_badge_src": null,
        "entry": 2570651,
        "entry_name": "Vicar of Dibling",
        "event_total": 61,
        "has_played": true,
        "id": 18444926,
        "last_rank": 8662,
        "player_name": "Charlie Mercer",
        "rank": 9133,
        "rank_sort": 9134,
        "total": 2401
      },
      {
        "club_badge_src": null,
        "entry": 5838295,
        "entry_name": "Blainroe Rovers",
        "event_total": 67,
        "has_played": true,
        "id": 45828349,
        "last_rank": 11128,
        "player_name": "Pierce Gavin",
        "rank": 9133,
        "rank_sort": 9135,
        "total": 2401
      },
      {
        "club_badge_src": null,
        "entry": 6277630,
        "entry_name": "\u0100B24",
        "event_total": 73,
        "has_played": true,
        "id": 49714202,
        "last_rank": 14217,
        "player_name": "Abdulla Alshajjar",
        "rank": 9136,
        "rank_sort": 9136,
        "total": 2401
      },
      {
        "club_badge_src": null,
        "entry": 203787,
        "entry_name": "\u0639\u064a\u0633\u0649 \u0627\u0644\u0641\u0631\u062c\u0627\u0646\u064a",
        "event_total": 73,
        "has_played": true,
        "id": 1354112,
        "last_rank": 14219,
        "player_name": "essah essah",
        "rank": 9137,
        "rank_sort": 9137,
        "total": 2401
      },
      {
        "club_badge_src": "https://fantasy.premierleague.com/gcs/plfpl-production-adobe-approved/plfpl-production/183931/9772fd01-629c-43ab-89df-ff71e4b2eae6.png",
        "entry": 183931,
        "entry_name": "CuCuMberShots",
        "event_total": 64,
        "has_played": true,
        "id": 1214372,
        "last_rank": 11578,
        "player_name": "Hakan Jonasson",
        "rank": 9138,
        "rank_sort": 9138,
        "total": 2401
      },
      {
        "club_badge_src": null,
        "entry": 5380778,
        "entry_name": "Come on top three",
        "event_total": 70,
        "has_played": true,
        "id": 41827873,
        "last_rank": 14799,
        "player_name": "james vaughan",
        "rank": 9139,
        "rank_sort": 9139,
        "total": 2400
      },
      {
        "club_badge_src": "https://fantasy.premierleague.com/gcs/plfpl-production-adobe-approved/plfpl-production/8799568/4dad2454-723a-4370-9213-d84f6c88599a.png",
        "entry": 8799568,
        "entry_name": "pulsuhundur",
        "event_total": 51,
        "has_played": true,
        "id": 73540913,
        "last_rank": 6671,
        "player_name": "H\u00f3lmfr\u00ed\u00f0ur Kjartansd\u00f3ttir",
        "rank": 9139,
        "rank_sort": 9140,
        "total": 2400
      },
      {
        "club_badge_src": "https://fantasy.premierleague.com/gcs/plfpl-production-adobe-approved/plfpl-production/139710/5e469365-6c70-445c-ac70-2f95f0fb9883.png",
        "entry": 139710,
        "entry_name": "Man U",
        "event_total": 65,
        "has_played": true,
        "id": 912020,
        "last_rank": 12084,
        "player_name": "Akram Bettahar",
        "rank": 9141,
        "rank_sort": 9141,
        "total": 2400
      },
      {
        "club_badge_src": "https://fantasy.premierleague.com/gcs/plfpl-production-adobe-approved/plfpl-production/6704854/11823916-46de-493f-b733-9a704e4b7ebe.png",
        "entry": 6704854,
        "entry_name": "Picken XI",
        "event_total": 64,
        "has_played": true,
        "id": 53651050,
        "last_rank": 11583,
        "player_name": "Jack Picken",
        "rank": 9141,
        "rank_sort": 9142,
        "total": 2400
      },
      {
        "club_badge_src": null,
        "entry": 336988,
        "entry_name": "Abdullah F.",
        "event_total": 43,
        "has_played": true,
        "id": 2256054,
        "last_rank": 4684,
        "player_name": "Abdullah F.",
        "rank": 9143,
        "rank_sort": 9143,
        "total": 2400
      },
      {
        "club_badge_src": "https://fantasy.premierleague.com/gcs/plfpl-production-adobe-approved/plfpl-production/320465/0f62ac40-c3c7-4c46-9548-193c4dfac180.png",
        "entry": 320465,
        "entry_name": "Escape from Alcaraz",
        "event_total": 63,
        "has_played": true,
        "id": 2147880,
        "last_rank": 11138,
        "player_name": "James Blaize-Smith",
        "rank": 9144,
        "rank_sort": 9144,
        "total": 2400
      },
      {
        "club_badge_src": null,
        "entry": 8532085,
        "entry_name": "6ft only",
        "event_total": 70,
        "has_played": true,
        "id": 70946924,
        "last_rank": 14806,
        "player_name": "Rafit Mahim",
        "rank": 9144,
        "rank_sort": 9145,
        "total": 2400
      },
      {
        "club_badge_src": null,
        "entry": 715231,
        "entry_name": "Ralle Hotspur",
        "event_total": 40,
        "has_played": true,
        "id": 4852502,
        "last_rank": 4047,
        "player_name": "Rasmus Hemstr\u00f6m",
        "rank": 9146,
        "rank_sort": 9146,
        "total": 2400
      },
      {
        "club_badge_src": null,
        "entry": 2009097,
        "entry_name": "A-Cunha Matata",
        "event_total": 70,
        "has_played": true,
        "id": 14205916,
        "last_rank": 14806,
        "player_name": "Jack Kirkby",
        "rank": 9146,
        "rank_sort": 9147,
        "total": 2400
      },
      {
        "club_badge_src": null,
        "entry": 4165024,
        "entry_name": "Emmyz",
        "event_total": 76,
        "has_played": true,
        "id": 31495930,
        "last_rank": 18640,
        "player_name": "Emmanuel Maforikan",
        "rank": 9146,
        "rank_sort": 9148,
        "total": 2400
      },
      {
        "club_badge_src": null,
        "entry": 5426656,
        "entry_name": "Botman Returns",
        "event_total": 60,
        "has_played": true,
        "id": 42208813,
        "last_rank": 9845,
        "player_name": "conor gundry",
        "rank": 9146,
        "rank_sort": 9149,
        "total": 2400
      },
      {
        "club_badge_src": null,
        "entry": 522056,
        "entry_name": "Gate7",
        "event_total": 67,
        "has_played": true,
        "id": 3506185,
        "last_rank": 13132,
        "player_name": "Dimitrios Petridis",
        "rank": 9150,
        "rank_sort": 9150,
        "total": 2400
      }
    ]
  }
}