{
  "last_updated_data": "2026-05-24T23:28:17Z",
  "league": {
    "admin_entry": null,
    "closed": false,
    "code_privacy": "p",
    "created": "2025-07-20T23:14:33.933835Z",
    "cup_league": 2815434,
    "has_cup": true,
    "id": 314,
    "league_type": "s",
    "max_entries": null,
    "name": "Overall",
    "rank": null,
    "scoring": "c",
    "start_event": 1
  },
  "new_entries": {
    "has_next": false,
    "page": 1,
    "results": []
  },
  "standings": {
    "has_next": true,
    "page": 1566,
    "results": [
      {
        "club_badge_src": null,
        "entry": 774377,
        "entry_name": "Mo7_Alkh",
        "event_total": 56,
        "has_played": true,
        "id": 5283456,
        "last_rank": 77676,
        "player_name": "Moh Alkh93",
        "rank": 78139,
        "rank_sort": 78251,
        "total": 2336
      },
      {
        "club_badge_src": null,
        "entry": 774790,
        "entry_name": "It can!",
        "event_total": 60,
        "has_played": true,
        "id": 5286391,
        "last_rank": 77258,
        "player_name": "Aaron Rutherford",
        "rank": 78139,
        "rank_sort": 78252,
        "total": 2336
      },
      {
        "club_badge_src": null,
        "entry": 780318,
        "entry_name": "The DataSquad",
        "event_total": 59,
        "has_played": true,
        "id": 5327354,
        "last_rank": 75139,
        "player_name": "paddy foy",
        "rank": 78139,
        "rank_sort": 78253,
        "total": 2336
      },
      {
        "club_badge_src": null,
        "entry": 783120,
        "entry_name": "Data Slot!",
        "event_total": 58,
        "has_played": true,
        "id": 5347648,
        "last_rank": 73038,
        "player_name": "Dhiran Nagji",
        "rank": 78139,
        "rank_sort": 78254,
        "total": 2336
      },
      {
        "club_badge_src": null,
        "entry": 785976,
        "entry_name": "Le Fee Fi Fo Fum",
        "event_total": 72,
        "has_played": true,
        "id": 5371431,
        "last_rank": 117915,
        "player_name": "Liam Foster",
        "rank": 78139,
        "rank_sort": 78255,
        "total": 2336
      },
      {
        "club_badge_src": null,
        "entry": 823570,
        "entry_name": "Berba-Q United",
        "event_total": 72,
        "has_played": true,
        "id": 5640474,
        "last_rank": 105963,
        "player_name": "Kushank Mishra",
        "rank": 78139,
        "rank_sort": 78256,
        "total": 2336
      },
      {
        "club_badge_src": null,
        "entry": 845587,
        "entry_name": "Gunners",
        "event_total": 69,
        "has_played": true,
        "id": 5793739,
        "last_rank": 108959,
        "player_name": "Paul Collins",
        "rank": 78139,
        "rank_sort": 78257,
        "total": 2336
      },
      {
        "club_badge_src": null,
        "entry": 856433,
        "entry_name": "Steve is never top 4",
        "event_total": 66,
        "has_played": true,
        "id": 5870459,
        "last_rank": 101419,
        "player_name": "Peter Taylor",
        "rank": 78139,
        "rank_sort": 78258,
        "total": 2336
      },
      {
        "club_badge_src": null,
        "entry": 895215,
        "entry_name": "Kuku's nest",
        "event_total": 73,
        "has_played": true,
        "id": 6149706,
        "last_rank": 120438,
        "player_name": "Giacobo Vulganini",
        "rank": 78139,
        "rank_sort": 78259,
        "total": 2336
      },
      {
        "club_badge_src": null,
        "entry": 907757,
        "entry_name": "The B Team",
        "event_total": 68,
        "has_played": true,
        "id": 6239975,
        "last_rank": 106763,
        "player_name": "Samuel Stradling",
        "rank": 78139,
        "rank_sort": 78260,
        "total": 2336
      },
      {
        "club_badge_src": null,
        "entry": 908059,
        "entry_name": "Ww",
        "event_total": 62,
        "has_played": true,
        "id": 6242136,
        "last_rank": 91006,
        "player_name": "Christopher Ng",
        "rank": 78139,
        "rank_sort": 78261,
        "total": 2336
      },
      {
        "club_badge_src": null,
        "entry": 909975,
        "entry_name": "Enter Name Here",
        "event_total": 43,
        "has_played": true,
        "id": 6255956,
        "last_rank": 53345,
        "player_name": "Layla Omalley",
        "rank": 78139,
        "rank_sort": 78262,
        "total": 2336
      },
      {
        "club_badge_src": null,
        "entry": 911482,
        "entry_name": "Real Taco FC",
        "event_total": 52,
        "has_played": true,
        "id": 6267183,
        "last_rank": 61606,
        "player_name": "Ellie Tack",
        "rank": 78139,
        "rank_sort": 78263,
        "total": 2336
      },
      {
        "club_badge_src": "https://fantasy.premierleague.com/gcs/plfpl-production-adobe-approved/plfpl-production/913588/3bd3e2fc-6557-4579-a796-5184ced40ee8.png",
        "entry": 913588,
        "entry_name": "Ewok Wanderers",
        "event_total": 48,
        "has_played": true,
        "id": 6281997,
        "last_rank": 61950,
        "player_name": "Jonas Steiner",
        "rank": 78139,
        "rank_sort": 78264,
        "total": 2336
      },
      {
        "club_badge_src": null,
        "entry": 914835,
        "entry_name": "Bowen bubbles",
        "event_total": 73,
        "has_played": true,
        "id": 6290755,
        "last_rank": 120941,
        "player_name": "Tyler Penny",
        "rank": 78139,
        "rank_sort": 78265,
        "total": 2336
      },
      {
        "club_badge_src": null,
        "entry": 921535,
        "entry_name": "Ars7X",
        "event_total": 59,
        "has_played": true,
        "id": 6337698,
        "last_rank": 84360,
        "player_name": "Ars7X Young",
        "rank": 78139,
        "rank_sort": 78266,
        "total": 2336
      },
      {
        "club_badge_src": null,
        "entry": 963667,
        "entry_name": "Ctrl Alt Delete",
        "event_total": 61,
        "has_played": true,
        "id": 6641234,
        "last_rank": 79431,
        "player_name": "karma Rigzin",
        "rank": 78139,
        "rank_sort": 78267,
        "total": 2336
      },
      {
        "club_badge_src": null,
        "entry": 983677,
        "entry_name": "Oceanic",
        "event_total": 66,
        "has_played": true,
        "id": 6782027,
        "last_rank": 101419,
        "player_name": "Oceanic GG",
        "rank": 78139,
        "rank_sort": 78268,
        "total": 2336
      },
      {
        "club_badge_src": "https://fantasy.premierleague.com/gcs/plfpl-production-adobe-approved/plfpl-production/1018684/5ea380b6-2d15-40c7-9bdf-7d7a39f83a16.png",
        "entry": 1018684,
        "entry_name": "Change Name",
        "event_total": 61,
        "has_played": true,
        "id": 7047582,
        "last_rank": 88249,
        "player_name": "Jordan Bailey",
        "rank": 78139,
        "rank_sort": 78269,
        "total": 2336
      },
      {
        "club_badge_src": "https://fantasy.premierleague.com/gcs/plfpl-production-adobe-approved/plfpl-production/1063788/82c4e145-f23c-42d1-a35b-34067d2a4263.png",
        "entry": 1063788,
        "entry_name": "Catherakas",
        "event_total": 42,
        "has_played": true,
        "id": 7364253,
        "last_rank": 51720,
        "player_name": "Stephen Catherall",
        "rank": 78139,
        "rank_sort": 78270,
        "total": 2336
      },
      {
        "club_badge_src": null,
        "entry": 1112419,
        "entry_name": "Blue Ballers",
        "event_total": 60,
        "has_played": true,
        "id": 7705611,
        "last_rank": 86735,
        "player_name": "Patrick Wojcik",
        "rank": 78139,
        "rank_sort": 78271,
        "total": 2336
      },
      {
        "club_badge_src": null,
        "entry": 1122004,
        "entry_name": "What's Rob Holding?",
        "event_total": 68,
        "has_played": true,
        "id": 7773324,
        "last_rank": 95890,
        "player_name": "Harry Yeoman",
        "rank": 78139,
        "rank_sort": 78272,
        "total": 2336
      },
      {
        "club_badge_src": null,
        "entry": 1141532,
        "entry_name": "FC Markt",
        "event_total": 46,
        "has_played": true,
        "id": 7912961,
        "last_rank": 58388,
        "player_name": "Elias Amon",
        "rank": 78139,
        "rank_sort": 78273,
        "total": 2336
      },
      {
        "club_badge_src": null,
        "entry": 1165472,
        "entry_name": "KHC8.0",
        "event_total": 69,
        "has_played": true,
        "id": 8084791,
        "last_rank": 108689,
        "player_name": "itamar varon",
        "rank": 78139,
        "rank_sort": 78274,
        "total": 2336
      },
      {
        "club_badge_src": null,
        "entry": 1194596,
        "entry_name": "Fina bladl\u00f6ss",
        "event_total": 58,
        "has_played": true,
        "id": 8288441,
        "last_rank": 73038,
        "player_name": "Jason Larsson",
        "rank": 78139,
        "rank_sort": 78275,
        "total": 2336
      },
      {
        "club_badge_src": null,
        "entry": 1204518,
        "entry_name": "good kid, Man City",
        "event_total": 70,
        "has_played": true,
        "id": 8358965,
        "last_rank": 100949,
        "player_name": "Faisal Barghouthi",
        "rank": 78139,
        "rank_sort": 78276,
        "total": 2336
      },
      {
        "club_badge_src": null,
        "entry": 1219194,
        "entry_name": "L'asilo di Enzo",
        "event_total": 60,
        "has_played": true,
        "id": 8464283,
        "last_rank": 86304,
        "player_name": "Villads Engman",
        "rank": 78139,
        "rank_sort": 78277,
        "total": 2336
      },
      {
        "club_badge_src": null,
        "entry": 1267624,
        "entry_name": "Back of the Neto",
        "event_total": 60,
        "has_played": true,
        "id": 8807584,
        "last_rank": 86304,
        "player_name": "Kieran Wiggs",
        "rank": 78139,
        "rank_sort": 78278,
        "total": 2336
      },
      {
        "club_badge_src": null,
        "entry": 1285488,
        "entry_name": "FPEL",
        "event_total": 52,
        "has_played": true,
        "id": 8932465,
        "last_rank": 69323,
        "player_name": "Morgan Johns",
        "rank": 78139,
        "rank_sort": 78279,
        "total": 2336
      },
      {
        "club_badge_src": null,
        "entry": 1294236,
        "entry_name": "Amadpiano",
        "event_total": 53,
        "has_played": true,
        "id": 8994758,
        "last_rank": 71386,
        "player_name": "Mikhail Desai",
        "rank": 78139,
        "rank_sort": 78280,
        "total": 2336
      },
      {
        "club_badge_src": null,
        "entry": 1316170,
        "entry_name": "Lou's 11",
        "event_total": 60,
        "has_played": true,
        "id": 9148081,
        "last_rank": 86735,
        "player_name": "Lou Easton",
        "rank": 78139,
        "rank_sort": 78281,
        "total": 2336
      },
      {
        "club_badge_src": null,
        "entry": 1325227,
        "entry_name": "El Khetm Fel Dorgu",
        "event_total": 70,
        "has_played": true,
        "id": 9211467,
        "last_rank": 111405,
        "player_name": "Omar El Abassiry",
        "rank": 78139,
        "rank_sort": 78282,
        "total": 2336
      },
      {
        "club_badge_src": null,
        "entry": 1363133,
        "entry_name": "The Naked Squad(TNS)",
        "event_total": 58,
        "has_played": true,
        "id": 9476277,
        "last_rank": 73038,
        "player_name": "suraj timilsina",
        "rank": 78139,
        "rank_sort": 78283,
        "total": 2336
      },
      {
        "club_badge_src": null,
        "entry": 1380294,
        "entry_name": "Stras stars",
        "event_total": 65,
        "has_played": true,
        "id": 9594976,
        "last_rank": 98896,
        "player_name": "Oliver Strasburger",
        "rank": 78139,
        "rank_sort": 78284,
        "total": 2336
      },
      {
        "club_badge_src": null,
        "entry": 1391487,
        "entry_name": "Zubi or Not Zubi",
        "event_total": 47,
        "has_played": true,
        "id": 9680435,
        "last_rank": 53023,
        "player_name": "Sagar Solaraj",
        "rank": 78139,
        "rank_sort": 78285,
        "total": 2336
      },
      {
        "club_badge_src": "https://fantasy.premierleague.com/gcs/plfpl-production-adobe-approved/plfpl-production/1413816/680c823a-16e3-48b4-81fa-6cdb6868df53.png",
        "entry": 1413816,
        "entry_name": "ZM Team",
        "event_total": 39,
        "has_played": true,
        "id": 9838980,
        "last_rank": 47417,
        "player_name": "Azzam Mansor",
        "rank": 78139,
        "rank_sort": 78286,
        "total": 2336
      },
      {
        "club_badge_src": null,
        "entry": 1418918,
        "entry_name": "Vinnsy",
        "event_total": 54,
        "has_played": true,
        "id": 9879406,
        "last_rank": 73038,
        "player_name": "Linn Synn\u00f8ve Cederstr\u00f8m",
        "rank": 78139,
        "rank_sort": 78287,
        "total": 2336
      },
      {
        "club_badge_src": "https://fantasy.premierleague.com/gcs/plfpl-production-adobe-approved/plfpl-production/1438406/0acabab7-df77-477b-b1a4-620a753b1d3d.png",
        "entry": 1438406,
        "entry_name": "Triplechampions eiei",
        "event_total": 58,
        "has_played": true,
        "id": 10022930,
        "last_rank": 81646,
        "player_name": "taoson n",
        "rank": 78139,
        "rank_sort": 78288,
        "total": 2336
      },
      {
        "club_badge_src": null,
        "entry": 1475960,
        "entry_name": "Frimpong and Prosper",
        "event_total": 42,
        "has_played": true,
        "id": 10288654,
        "last_rank": 51720,
        "player_name": "Harry Franklin",
        "rank": 78139,
        "rank_sort": 78289,
        "total": 2336
      },
      {
        "club_badge_src": null,
        "entry": 1564197,
        "entry_name": "Klassic",
        "event_total": 62,
        "has_played": true,
        "id": 10926689,
        "last_rank": 91006,
        "player_name": "Peace Peter",
        "rank": 78139,
        "rank_sort": 78290,
        "total": 2336
      },
      {
        "club_badge_src": null,
        "entry": 1567404,
        "entry_name": "Dream Team\u26bd\ufe0f",
        "event_total": 52,
        "has_played": true,
        "id": 10949499,
        "last_rank": 61606,
        "player_name": "Dean Maguire",
        "rank": 78139,
        "rank_sort": 78291,
        "total": 2336
      },
      {
        "club_badge_src": null,
        "entry": 1622180,
        "entry_name": "\u0643\u0648\u0634\u0645\u0627\u0631",
        "event_total": 52,
        "has_played": true,
        "id": 11353036,
        "last_rank": 69323,
        "player_name": "med simox",
        "rank": 78139,
        "rank_sort": 78292,
        "total": 2336
      },
      {
        "club_badge_src": null,
        "entry": 1673225,
        "entry_name": "Darra\u00f0adansararnir",
        "event_total": 49,
        "has_played": true,
        "id": 11714467,
        "last_rank": 63390,
        "player_name": "Viktor Gislason",
        "rank": 78139,
        "rank_sort": 78293,
        "total": 2336
      },
      {
        "club_badge_src": null,
        "entry": 1678561,
        "entry_name": "Cunha Mateta",
        "event_total": 64,
        "has_played": true,
        "id": 11751233,
        "last_rank": 96374,
        "player_name": "Conal McCallion",
        "rank": 78139,
        "rank_sort": 78294,
        "total": 2336
      },
      {
        "club_badge_src": null,
        "entry": 1707853,
        "entry_name": "Cole Parmigiana",
        "event_total": 59,
        "has_played": true,
        "id": 11965188,
        "last_rank": 84731,
        "player_name": "Lachy Austin",
        "rank": 78139,
        "rank_sort": 78295,
        "total": 2336
      },
      {
        "club_badge_src": "https://fantasy.premierleague.com/gcs/plfpl-production-adobe-approved/plfpl-production/1713252/2bc2e30b-02cd-4b71-a6f4-176bcb0b4685.png",
        "entry": 1713252,
        "entry_name": "Rocky Brocky",
        "event_total": 48,
        "has_played": true,
        "id": 12004800,
        "last_rank": 61950,
        "player_name": "Hayden Brokate",
        "rank": 78139,
        "rank_sort": 78296,
        "total": 2336
      },
      {
        "club_badge_src": "https://fantasy.premierleague.com/gcs/plfpl-production-adobe-approved/plfpl-production/1787114/9c3d08b6-0022-4e74-9a60-d2d2269a9d26.png",
        "entry": 1787114,
        "entry_name": "Up",
        "event_total": 62,
        "has_played": true,
        "id": 12556882,
        "last_rank": 91466,
        "player_name": "Kukhmister Marian",
        "rank": 78139,
        "rank_sort": 78297,
        "total": 2336
      },
      {
        "club_badge_src": "https://fantasy.premierleague.com/gcs/plfpl-production-adobe-approved/plfpl-production/1799678/0d1ee158-e1ad-4fda-ac54-3d38b88c70e3.png",
        "entry": 1799678,
        "entry_name": "Aztec FC",
        "event_total": 63,
        "has_played": true,
        "id": 12648003,
        "last_rank": 93883,
        "player_name": "muklesh muke",
        "rank": 78139,
        "rank_sort": 78298,
        "total": 2336
      },
      {
        "club_badge_src": null,
        "entry": 1853921,
        "entry_name": "Champagne Khusanova",
        "event_total": 46,
        "has_played": true,
        "id": 13046029,
        "last_rank": 58688,
        "player_name": "Leo Gibson",
        "rank": 78139,
        "rank_sort": 78299,
        "total": 2336
      },
      {
        "club_badge_src": null,
        "entry": 1884852,
        "entry_name": "FrimPingPong",
        "event_total": 77,
        "has_played": true,
        "id": 13281499,
        "last_rank": 132427,
        "player_name": "John Sonntag",
        "rank": 78139,
        "rank_sort": 78300,
        "total": 2336
      }
    ]
  }
}