{
  "last_updated_data": "2026-05-24T23:28:17Z",
  "league": {
    "admin_entry": null,
    "closed": false,
    "code_privacy": "p",
    "created": "2025-07-20T23:14:33.933835Z",
    "cup_league": 2815434,
    "has_cup": true,
    "id": 314,
    "league_type": "s",
    "max_entries": null,
    "name": "Overall",
    "rank": null,
    "scoring": "c",
    "start_event": 1
  },
  "new_entries": {
    "has_next": false,
    "page": 1,
    "results": []
  },
  "standings": {
    "has_next": true,
    "page": 1028,
    "results": [
      {
        "club_badge_src": null,
        "entry": 332210,
        "entry_name": "Kinder Mbeumo",
        "event_total": 71,
        "has_played": true,
        "id": 2225030,
        "last_rank": 77258,
        "player_name": "Piotr Szczesniak",
        "rank": 51278,
        "rank_sort": 51351,
        "total": 2351
      },
      {
        "club_badge_src": "https://fantasy.premierleague.com/gcs/plfpl-production-adobe-approved/plfpl-production/335840/a5057e9b-8d81-468c-a69a-424e3abba7d3.png",
        "entry": 335840,
        "entry_name": "Baugst\u00fcber",
        "event_total": 59,
        "has_played": true,
        "id": 2248658,
        "last_rank": 54667,
        "player_name": "Magnus Baugst\u00f8",
        "rank": 51278,
        "rank_sort": 51352,
        "total": 2351
      },
      {
        "club_badge_src": null,
        "entry": 344250,
        "entry_name": "Can't get any Wirtz",
        "event_total": 58,
        "has_played": true,
        "id": 2304090,
        "last_rank": 53345,
        "player_name": "George Chapman",
        "rank": 51278,
        "rank_sort": 51353,
        "total": 2351
      },
      {
        "club_badge_src": null,
        "entry": 360150,
        "entry_name": "It's A Cold World",
        "event_total": 59,
        "has_played": true,
        "id": 2409939,
        "last_rank": 54667,
        "player_name": "Michael Ade-Conde",
        "rank": 51278,
        "rank_sort": 51354,
        "total": 2351
      },
      {
        "club_badge_src": null,
        "entry": 380403,
        "entry_name": "Goth Mommys",
        "event_total": 53,
        "has_played": true,
        "id": 2549396,
        "last_rank": 45714,
        "player_name": "Ewan Colligan",
        "rank": 51278,
        "rank_sort": 51355,
        "total": 2351
      },
      {
        "club_badge_src": null,
        "entry": 389458,
        "entry_name": "Obi Won Iwobi",
        "event_total": 51,
        "has_played": true,
        "id": 2612503,
        "last_rank": 42940,
        "player_name": "Frankie Foster",
        "rank": 51278,
        "rank_sort": 51356,
        "total": 2351
      },
      {
        "club_badge_src": null,
        "entry": 393707,
        "entry_name": "SatNavSaturdaze",
        "event_total": 72,
        "has_played": true,
        "id": 2640460,
        "last_rank": 70985,
        "player_name": "Jonas Hammer",
        "rank": 51278,
        "rank_sort": 51357,
        "total": 2351
      },
      {
        "club_badge_src": "https://fantasy.premierleague.com/gcs/plfpl-production-adobe-approved/plfpl-production/393720/b064b52b-17fa-4274-afe9-bd988cacda1a.png",
        "entry": 393720,
        "entry_name": "iSak uSak weSak",
        "event_total": 54,
        "has_played": true,
        "id": 2640546,
        "last_rank": 46660,
        "player_name": "Rory Turner-Soukeras",
        "rank": 51278,
        "rank_sort": 51358,
        "total": 2351
      },
      {
        "club_badge_src": "https://fantasy.premierleague.com/gcs/plfpl-production-adobe-approved/plfpl-production/395985/3e13a3a0-7238-4dee-8c24-4b621bb63280.png",
        "entry": 395985,
        "entry_name": "GoGoPowerReijnders",
        "event_total": 58,
        "has_played": true,
        "id": 2655555,
        "last_rank": 53345,
        "player_name": "Finlay McQuistan",
        "rank": 51278,
        "rank_sort": 51359,
        "total": 2351
      },
      {
        "club_badge_src": null,
        "entry": 399205,
        "entry_name": "uwem the jackal",
        "event_total": 54,
        "has_played": true,
        "id": 2676970,
        "last_rank": 47163,
        "player_name": "Uwem Udoh",
        "rank": 51278,
        "rank_sort": 51360,
        "total": 2351
      },
      {
        "club_badge_src": null,
        "entry": 404343,
        "entry_name": "willix wanderers",
        "event_total": 50,
        "has_played": true,
        "id": 2711208,
        "last_rank": 41324,
        "player_name": "David Willix",
        "rank": 51278,
        "rank_sort": 51361,
        "total": 2351
      },
      {
        "club_badge_src": null,
        "entry": 410209,
        "entry_name": "Soupy is cool",
        "event_total": 66,
        "has_played": true,
        "id": 2750586,
        "last_rank": 59813,
        "player_name": "Andy Mason",
        "rank": 51278,
        "rank_sort": 51362,
        "total": 2351
      },
      {
        "club_badge_src": null,
        "entry": 432379,
        "entry_name": "Cry Me A River Plate",
        "event_total": 65,
        "has_played": true,
        "id": 2899790,
        "last_rank": 65163,
        "player_name": "Jordan Murray",
        "rank": 51278,
        "rank_sort": 51363,
        "total": 2351
      },
      {
        "club_badge_src": null,
        "entry": 437236,
        "entry_name": "FrasAyr United",
        "event_total": 37,
        "has_played": true,
        "id": 2932063,
        "last_rank": 23341,
        "player_name": "Fraser McLellan",
        "rank": 51278,
        "rank_sort": 51364,
        "total": 2351
      },
      {
        "club_badge_src": null,
        "entry": 444760,
        "entry_name": "Drei Trocaderos",
        "event_total": 65,
        "has_played": true,
        "id": 2982437,
        "last_rank": 65475,
        "player_name": "Elias M\u00f6rk",
        "rank": 51278,
        "rank_sort": 51365,
        "total": 2351
      },
      {
        "club_badge_src": null,
        "entry": 460554,
        "entry_name": "Wirtz of Wisdom",
        "event_total": 60,
        "has_played": true,
        "id": 3089461,
        "last_rank": 56369,
        "player_name": "Jordan Carr",
        "rank": 51278,
        "rank_sort": 51366,
        "total": 2351
      },
      {
        "club_badge_src": null,
        "entry": 470873,
        "entry_name": "Saka Potatoes",
        "event_total": 53,
        "has_played": true,
        "id": 3161093,
        "last_rank": 45714,
        "player_name": "Dimitris Vou",
        "rank": 51278,
        "rank_sort": 51367,
        "total": 2351
      },
      {
        "club_badge_src": "https://fantasy.premierleague.com/gcs/plfpl-production-adobe-approved/plfpl-production/485686/eae0ed3f-8f07-4490-92f2-f66e6fcfabf7.png",
        "entry": 485686,
        "entry_name": "Woke Nonsense FC",
        "event_total": 61,
        "has_played": true,
        "id": 3260248,
        "last_rank": 51403,
        "player_name": "James McManus",
        "rank": 51278,
        "rank_sort": 51368,
        "total": 2351
      },
      {
        "club_badge_src": null,
        "entry": 515485,
        "entry_name": "Cole,d BloodedKiller",
        "event_total": 56,
        "has_played": true,
        "id": 3460982,
        "last_rank": 49607,
        "player_name": "Oscar Whittall",
        "rank": 51278,
        "rank_sort": 51369,
        "total": 2351
      },
      {
        "club_badge_src": null,
        "entry": 532801,
        "entry_name": "Good As Nunez",
        "event_total": 59,
        "has_played": true,
        "id": 3584438,
        "last_rank": 48363,
        "player_name": "Mads Fabian R\u00f8ine",
        "rank": 51278,
        "rank_sort": 51370,
        "total": 2351
      },
      {
        "club_badge_src": null,
        "entry": 551894,
        "entry_name": "Tasty Tek",
        "event_total": 65,
        "has_played": true,
        "id": 3714728,
        "last_rank": 65163,
        "player_name": "Alex Light",
        "rank": 51278,
        "rank_sort": 51371,
        "total": 2351
      },
      {
        "club_badge_src": "https://fantasy.premierleague.com/gcs/plfpl-production-adobe-approved/plfpl-production/553617/c53261de-386e-4a95-bd20-e5b7a644adff.png",
        "entry": 553617,
        "entry_name": "Benkesliterne",
        "event_total": 65,
        "has_played": true,
        "id": 3726202,
        "last_rank": 65475,
        "player_name": "Atle Oftedal",
        "rank": 51278,
        "rank_sort": 51372,
        "total": 2351
      },
      {
        "club_badge_src": null,
        "entry": 569046,
        "entry_name": "Solanke Bowser",
        "event_total": 62,
        "has_played": true,
        "id": 3830033,
        "last_rank": 59632,
        "player_name": "Kristoffer Olsen",
        "rank": 51278,
        "rank_sort": 51373,
        "total": 2351
      },
      {
        "club_badge_src": null,
        "entry": 609077,
        "entry_name": "Mbeumo United",
        "event_total": 71,
        "has_played": true,
        "id": 4114164,
        "last_rank": 77258,
        "player_name": "Stig Bekkelund",
        "rank": 51278,
        "rank_sort": 51374,
        "total": 2351
      },
      {
        "club_badge_src": null,
        "entry": 619459,
        "entry_name": "Invincibles",
        "event_total": 51,
        "has_played": true,
        "id": 4185993,
        "last_rank": 42940,
        "player_name": "Luan Nguyen",
        "rank": 51278,
        "rank_sort": 51375,
        "total": 2351
      },
      {
        "club_badge_src": null,
        "entry": 632298,
        "entry_name": "Yoro Heavenly DeLigt",
        "event_total": 59,
        "has_played": true,
        "id": 4272468,
        "last_rank": 55014,
        "player_name": "Ian Emsley",
        "rank": 51278,
        "rank_sort": 51376,
        "total": 2351
      },
      {
        "club_badge_src": "https://fantasy.premierleague.com/gcs/plfpl-production-adobe-approved/plfpl-production/634596/07cfe8fc-6c1d-4080-b5a3-4ba240df935a.png",
        "entry": 634596,
        "entry_name": "FC Old Gold",
        "event_total": 59,
        "has_played": true,
        "id": 4288818,
        "last_rank": 55014,
        "player_name": "Andy Jackson",
        "rank": 51278,
        "rank_sort": 51377,
        "total": 2351
      },
      {
        "club_badge_src": "https://fantasy.premierleague.com/gcs/plfpl-production-adobe-approved/plfpl-production/650598/310e1b9d-21d3-49d6-b089-2c379d9a082c.png",
        "entry": 650598,
        "entry_name": "Yugoslavia",
        "event_total": 68,
        "has_played": true,
        "id": 4396879,
        "last_rank": 70985,
        "player_name": "Predrag Krtolica",
        "rank": 51278,
        "rank_sort": 51378,
        "total": 2351
      },
      {
        "club_badge_src": null,
        "entry": 679704,
        "entry_name": "Zookeeper",
        "event_total": 60,
        "has_played": true,
        "id": 4599484,
        "last_rank": 56708,
        "player_name": "Alae Es-saki",
        "rank": 51278,
        "rank_sort": 51379,
        "total": 2351
      },
      {
        "club_badge_src": null,
        "entry": 683629,
        "entry_name": "Johnny'sJokers",
        "event_total": 67,
        "has_played": true,
        "id": 4627037,
        "last_rank": 69323,
        "player_name": "John Burton",
        "rank": 51278,
        "rank_sort": 51380,
        "total": 2351
      },
      {
        "club_badge_src": "https://fantasy.premierleague.com/gcs/plfpl-production-adobe-approved/plfpl-production/694783/bea8c8c1-2470-4548-b414-09b6cd87184b.png",
        "entry": 694783,
        "entry_name": "No Mo Problems",
        "event_total": 49,
        "has_played": true,
        "id": 4705689,
        "last_rank": 40297,
        "player_name": "Tim Friman",
        "rank": 51278,
        "rank_sort": 51381,
        "total": 2351
      },
      {
        "club_badge_src": null,
        "entry": 695813,
        "entry_name": "ABCDE FC",
        "event_total": 46,
        "has_played": true,
        "id": 4712826,
        "last_rank": 36624,
        "player_name": "Oscar Ekeberg",
        "rank": 51278,
        "rank_sort": 51382,
        "total": 2351
      },
      {
        "club_badge_src": "https://fantasy.premierleague.com/gcs/plfpl-production-adobe-approved/plfpl-production/698702/0305558f-cdfc-4c57-a248-37db984a807f.png",
        "entry": 698702,
        "entry_name": "Gala Supreme",
        "event_total": 59,
        "has_played": true,
        "id": 4733116,
        "last_rank": 55014,
        "player_name": "Alp \u00dclgenalp",
        "rank": 51278,
        "rank_sort": 51383,
        "total": 2351
      },
      {
        "club_badge_src": null,
        "entry": 699526,
        "entry_name": "Cheadle Third XI",
        "event_total": 39,
        "has_played": true,
        "id": 4738900,
        "last_rank": 28906,
        "player_name": "Andy Fellowes",
        "rank": 51278,
        "rank_sort": 51384,
        "total": 2351
      },
      {
        "club_badge_src": null,
        "entry": 705227,
        "entry_name": "Coldcutt County",
        "event_total": 68,
        "has_played": true,
        "id": 4779152,
        "last_rank": 63390,
        "player_name": "Stanley McDonald",
        "rank": 51278,
        "rank_sort": 51385,
        "total": 2351
      },
      {
        "club_badge_src": null,
        "entry": 712298,
        "entry_name": "Moyes in Da Hood",
        "event_total": 67,
        "has_played": true,
        "id": 4832074,
        "last_rank": 68957,
        "player_name": "Charlie Stern",
        "rank": 51278,
        "rank_sort": 51386,
        "total": 2351
      },
      {
        "club_badge_src": null,
        "entry": 717374,
        "entry_name": "Snoop Udogie Dogg",
        "event_total": 55,
        "has_played": true,
        "id": 4867609,
        "last_rank": 48197,
        "player_name": "James Kay",
        "rank": 51278,
        "rank_sort": 51387,
        "total": 2351
      },
      {
        "club_badge_src": null,
        "entry": 743613,
        "entry_name": "The Be Sharps",
        "event_total": 56,
        "has_played": true,
        "id": 5058245,
        "last_rank": 49691,
        "player_name": "John Orban",
        "rank": 51278,
        "rank_sort": 51388,
        "total": 2351
      },
      {
        "club_badge_src": "https://fantasy.premierleague.com/gcs/plfpl-production-adobe-approved/plfpl-production/752548/3becc76d-55b9-4252-918a-0e8fe19cad7c.png",
        "entry": 752548,
        "entry_name": "Ndovu FC",
        "event_total": 61,
        "has_played": true,
        "id": 5120935,
        "last_rank": 51403,
        "player_name": "Murithi Murungi",
        "rank": 51278,
        "rank_sort": 51389,
        "total": 2351
      },
      {
        "club_badge_src": null,
        "entry": 768084,
        "entry_name": "WNP SKS \u0141AGISZA",
        "event_total": 62,
        "has_played": true,
        "id": 5238804,
        "last_rank": 59813,
        "player_name": "Kamil Fajkowski",
        "rank": 51278,
        "rank_sort": 51390,
        "total": 2351
      },
      {
        "club_badge_src": null,
        "entry": 774318,
        "entry_name": "Cricklewood Casuals",
        "event_total": 48,
        "has_played": true,
        "id": 5283024,
        "last_rank": 34051,
        "player_name": "Andrew Brown",
        "rank": 51278,
        "rank_sort": 51391,
        "total": 2351
      },
      {
        "club_badge_src": null,
        "entry": 822376,
        "entry_name": "Viktorious Secret",
        "event_total": 53,
        "has_played": true,
        "id": 5632264,
        "last_rank": 45714,
        "player_name": "Barik BK",
        "rank": 51278,
        "rank_sort": 51392,
        "total": 2351
      },
      {
        "club_badge_src": null,
        "entry": 824141,
        "entry_name": "FK RAD",
        "event_total": 46,
        "has_played": true,
        "id": 5644430,
        "last_rank": 36624,
        "player_name": "Rob Green",
        "rank": 51278,
        "rank_sort": 51393,
        "total": 2351
      },
      {
        "club_badge_src": null,
        "entry": 834667,
        "entry_name": "Kebabregas",
        "event_total": 66,
        "has_played": true,
        "id": 5717472,
        "last_rank": 67422,
        "player_name": "Lieberherr Silvan",
        "rank": 51278,
        "rank_sort": 51394,
        "total": 2351
      },
      {
        "club_badge_src": null,
        "entry": 893507,
        "entry_name": "Zing",
        "event_total": 75,
        "has_played": true,
        "id": 6137490,
        "last_rank": 86054,
        "player_name": "Zheng Ing Wong",
        "rank": 51278,
        "rank_sort": 51395,
        "total": 2351
      },
      {
        "club_badge_src": null,
        "entry": 926527,
        "entry_name": "Eivens Disipler",
        "event_total": 70,
        "has_played": true,
        "id": 6374114,
        "last_rank": 67063,
        "player_name": "Eiven Solberg",
        "rank": 51278,
        "rank_sort": 51396,
        "total": 2351
      },
      {
        "club_badge_src": null,
        "entry": 932584,
        "entry_name": "ThomasTheFrankEngine",
        "event_total": 60,
        "has_played": true,
        "id": 6417217,
        "last_rank": 49691,
        "player_name": "Luc Valentine",
        "rank": 51278,
        "rank_sort": 51397,
        "total": 2351
      },
      {
        "club_badge_src": null,
        "entry": 935338,
        "entry_name": "Non Baleba FC",
        "event_total": 41,
        "has_played": true,
        "id": 6436700,
        "last_rank": 30727,
        "player_name": "T Naidoo",
        "rank": 51278,
        "rank_sort": 51398,
        "total": 2351
      },
      {
        "club_badge_src": null,
        "entry": 940876,
        "entry_name": "Top Pred FC",
        "event_total": 57,
        "has_played": true,
        "id": 6477014,
        "last_rank": 51720,
        "player_name": "Samantha Iliffe",
        "rank": 51278,
        "rank_sort": 51399,
        "total": 2351
      },
      {
        "club_badge_src": null,
        "entry": 960360,
        "entry_name": "GunnerBeInItToWinIt",
        "event_total": 85,
        "has_played": true,
        "id": 6617913,
        "last_rank": 111669,
        "player_name": "Peter Lewenz",
        "rank": 51278,
        "rank_sort": 51400,
        "total": 2351
      }
    ]
  }
}