{
  "last_updated_data": "2026-05-24T23:28:17Z",
  "league": {
    "admin_entry": null,
    "closed": false,
    "code_privacy": "p",
    "created": "2025-07-20T23:14:33.933835Z",
    "cup_league": 2815434,
    "has_cup": true,
    "id": 314,
    "league_type": "s",
    "max_entries": null,
    "name": "Overall",
    "rank": null,
    "scoring": "c",
    "start_event": 1
  },
  "new_entries": {
    "has_next": false,
    "page": 1,
    "results": []
  },
  "standings": {
    "has_next": true,
    "page": 1212,
    "results": [
      {
        "club_badge_src": null,
        "entry": 7885625,
        "entry_name": "Eze cash",
        "event_total": 54,
        "has_played": true,
        "id": 64855032,
        "last_rank": 49572,
        "player_name": "Rachel Rice",
        "rank": 60515,
        "rank_sort": 60551,
        "total": 2345
      },
      {
        "club_badge_src": null,
        "entry": 7924810,
        "entry_name": "D7",
        "event_total": 54,
        "has_played": true,
        "id": 65211345,
        "last_rank": 56099,
        "player_name": "\u0639\u0628\u062f\u0627\u0644\u0631\u062d\u0645\u0646 \u0627\u0644\u0635\u0628\u062d\u064a",
        "rank": 60515,
        "rank_sort": 60552,
        "total": 2345
      },
      {
        "club_badge_src": null,
        "entry": 8095044,
        "entry_name": "Palmer League",
        "event_total": 72,
        "has_played": true,
        "id": 66754789,
        "last_rank": 92973,
        "player_name": "Vlad Vita",
        "rank": 60515,
        "rank_sort": 60553,
        "total": 2345
      },
      {
        "club_badge_src": null,
        "entry": 8233899,
        "entry_name": "Spurs4fun",
        "event_total": 45,
        "has_played": true,
        "id": 68064993,
        "last_rank": 42401,
        "player_name": "Einar Skjellerudsveen",
        "rank": 60515,
        "rank_sort": 60554,
        "total": 2345
      },
      {
        "club_badge_src": "https://fantasy.premierleague.com/gcs/plfpl-production-adobe-approved/plfpl-production/8672159/830336a2-8e85-446c-a637-e7edd7e2b1a4.png",
        "entry": 8672159,
        "entry_name": "Change Name",
        "event_total": 48,
        "has_played": true,
        "id": 72308118,
        "last_rank": 46660,
        "player_name": "bishwot Kharel",
        "rank": 60515,
        "rank_sort": 60555,
        "total": 2345
      },
      {
        "club_badge_src": null,
        "entry": 10576,
        "entry_name": "Red Devils",
        "event_total": 34,
        "has_played": true,
        "id": 62579,
        "last_rank": 29688,
        "player_name": "\u0639\u0628\u0627\u0633 \u0639\u062f\u0646\u0627\u0646",
        "rank": 60556,
        "rank_sort": 60556,
        "total": 2345
      },
      {
        "club_badge_src": null,
        "entry": 10647,
        "entry_name": "gro\u00df misconduct",
        "event_total": 47,
        "has_played": true,
        "id": 63035,
        "last_rank": 45416,
        "player_name": "Lawrence Pilgrim",
        "rank": 60556,
        "rank_sort": 60557,
        "total": 2345
      },
      {
        "club_badge_src": null,
        "entry": 33427,
        "entry_name": "Eddie\u2019s Samba Mags",
        "event_total": 38,
        "has_played": true,
        "id": 213169,
        "last_rank": 34051,
        "player_name": "Adam Hepple",
        "rank": 60556,
        "rank_sort": 60558,
        "total": 2345
      },
      {
        "club_badge_src": null,
        "entry": 78791,
        "entry_name": "Target",
        "event_total": 65,
        "has_played": true,
        "id": 512271,
        "last_rank": 77258,
        "player_name": "erkin shybani",
        "rank": 60556,
        "rank_sort": 60559,
        "total": 2345
      },
      {
        "club_badge_src": null,
        "entry": 92810,
        "entry_name": "More Than Wirtz",
        "event_total": 67,
        "has_played": true,
        "id": 606482,
        "last_rank": 81420,
        "player_name": "Matthew Dray",
        "rank": 60556,
        "rank_sort": 60560,
        "total": 2345
      },
      {
        "club_badge_src": null,
        "entry": 129299,
        "entry_name": "No Fear For Beer",
        "event_total": 49,
        "has_played": true,
        "id": 842749,
        "last_rank": 48197,
        "player_name": "Aritra Saha",
        "rank": 60556,
        "rank_sort": 60561,
        "total": 2345
      },
      {
        "club_badge_src": null,
        "entry": 201377,
        "entry_name": "Showtime Blues",
        "event_total": 62,
        "has_played": true,
        "id": 1337074,
        "last_rank": 70600,
        "player_name": "Kieran Ryan",
        "rank": 60556,
        "rank_sort": 60562,
        "total": 2345
      },
      {
        "club_badge_src": null,
        "entry": 241731,
        "entry_name": "Nederlaget",
        "event_total": 44,
        "has_played": true,
        "id": 1608999,
        "last_rank": 41162,
        "player_name": "Thomas Johansen",
        "rank": 60556,
        "rank_sort": 60563,
        "total": 2345
      },
      {
        "club_badge_src": null,
        "entry": 336014,
        "entry_name": "SuperCoach",
        "event_total": 61,
        "has_played": true,
        "id": 2249761,
        "last_rank": 68624,
        "player_name": "Kelvin Wang",
        "rank": 60556,
        "rank_sort": 60564,
        "total": 2345
      },
      {
        "club_badge_src": null,
        "entry": 526976,
        "entry_name": "Lads On Tour\u00e9",
        "event_total": 61,
        "has_played": true,
        "id": 3542483,
        "last_rank": 68957,
        "player_name": "Jake Ayrey",
        "rank": 60556,
        "rank_sort": 60565,
        "total": 2345
      },
      {
        "club_badge_src": null,
        "entry": 571185,
        "entry_name": "Noni your buisness",
        "event_total": 48,
        "has_played": true,
        "id": 3844146,
        "last_rank": 46591,
        "player_name": "Tom Sweeting",
        "rank": 60556,
        "rank_sort": 60566,
        "total": 2345
      },
      {
        "club_badge_src": null,
        "entry": 693216,
        "entry_name": "Andreas Fc",
        "event_total": 49,
        "has_played": true,
        "id": 4694785,
        "last_rank": 48084,
        "player_name": "\u0391\u03bd\u03c4\u03c1\u03b5\u03b1\u03c2 \u03a0\u03b1\u03c0\u03b1\u03c3\u03c4\u03b1\u03b8\u03bf\u03c0\u03bf\u03c5\u03bb\u03bf\u03c2",
        "rank": 60556,
        "rank_sort": 60567,
        "total": 2345
      },
      {
        "club_badge_src": null,
        "entry": 750603,
        "entry_name": "Fantasycraft",
        "event_total": 56,
        "has_played": true,
        "id": 5107155,
        "last_rank": 59632,
        "player_name": "Gordon McManus",
        "rank": 60556,
        "rank_sort": 60568,
        "total": 2345
      },
      {
        "club_badge_src": null,
        "entry": 782597,
        "entry_name": "Kinder Mbeumo",
        "event_total": 53,
        "has_played": true,
        "id": 5343192,
        "last_rank": 54667,
        "player_name": "Vikash Mistry",
        "rank": 60556,
        "rank_sort": 60569,
        "total": 2345
      },
      {
        "club_badge_src": null,
        "entry": 786995,
        "entry_name": "Wads FC",
        "event_total": 44,
        "has_played": true,
        "id": 5379876,
        "last_rank": 41324,
        "player_name": "Matthew Wadsworth",
        "rank": 60556,
        "rank_sort": 60570,
        "total": 2345
      },
      {
        "club_badge_src": null,
        "entry": 787187,
        "entry_name": "Slot Fuzz",
        "event_total": 75,
        "has_played": true,
        "id": 5381419,
        "last_rank": 100572,
        "player_name": "Tom McInally",
        "rank": 60556,
        "rank_sort": 60571,
        "total": 2345
      },
      {
        "club_badge_src": null,
        "entry": 911919,
        "entry_name": "ColdPalmer",
        "event_total": 63,
        "has_played": true,
        "id": 6270362,
        "last_rank": 72815,
        "player_name": "Pontus Karlsson",
        "rank": 60556,
        "rank_sort": 60572,
        "total": 2345
      },
      {
        "club_badge_src": null,
        "entry": 978579,
        "entry_name": "Real Stokiopath",
        "event_total": 80,
        "has_played": true,
        "id": 6746259,
        "last_rank": 114169,
        "player_name": "James Simpson",
        "rank": 60556,
        "rank_sort": 60573,
        "total": 2345
      },
      {
        "club_badge_src": "https://fantasy.premierleague.com/gcs/plfpl-production-adobe-approved/plfpl-production/1200746/fd3a53a7-24a1-4e15-923c-8406fe15a7ad.png",
        "entry": 1200746,
        "entry_name": "MadWekesSkeletonCrew",
        "event_total": 70,
        "has_played": true,
        "id": 8332583,
        "last_rank": 88185,
        "player_name": "Rog F",
        "rank": 60556,
        "rank_sort": 60574,
        "total": 2345
      },
      {
        "club_badge_src": null,
        "entry": 1300055,
        "entry_name": "Cheese & Cookie",
        "event_total": 41,
        "has_played": true,
        "id": 9035250,
        "last_rank": 37376,
        "player_name": "Oleksandr Serpychenko",
        "rank": 60556,
        "rank_sort": 60575,
        "total": 2345
      },
      {
        "club_badge_src": null,
        "entry": 1312521,
        "entry_name": "Fav Wirtz Nightmare",
        "event_total": 60,
        "has_played": true,
        "id": 9123050,
        "last_rank": 66848,
        "player_name": "Robert Innes",
        "rank": 60556,
        "rank_sort": 60576,
        "total": 2345
      },
      {
        "club_badge_src": "https://fantasy.premierleague.com/gcs/plfpl-production-adobe-approved/plfpl-production/1416813/07a37e3c-eabe-4683-b921-919ba5b631f1.png",
        "entry": 1416813,
        "entry_name": "Heisenberg FC",
        "event_total": 83,
        "has_played": true,
        "id": 9864475,
        "last_rank": 122897,
        "player_name": "Ala Trabelsi",
        "rank": 60556,
        "rank_sort": 60577,
        "total": 2345
      },
      {
        "club_badge_src": "https://fantasy.premierleague.com/gcs/plfpl-production-adobe-approved/plfpl-production/1426220/087b7c48-ef73-4d0d-817e-57ac2cc6d9a1.png",
        "entry": 1426220,
        "entry_name": "Yoro Wissa Harry",
        "event_total": 68,
        "has_played": true,
        "id": 9937202,
        "last_rank": 83934,
        "player_name": "Rob Usher",
        "rank": 60556,
        "rank_sort": 60578,
        "total": 2345
      },
      {
        "club_badge_src": null,
        "entry": 1442435,
        "entry_name": "ThomastheFrankengine",
        "event_total": 41,
        "has_played": true,
        "id": 10051222,
        "last_rank": 37589,
        "player_name": "Hamish Morrison",
        "rank": 60556,
        "rank_sort": 60579,
        "total": 2345
      },
      {
        "club_badge_src": null,
        "entry": 1507703,
        "entry_name": "Pro Evolution Saka",
        "event_total": 45,
        "has_played": true,
        "id": 10515335,
        "last_rank": 42434,
        "player_name": "Evan Dungay",
        "rank": 60556,
        "rank_sort": 60580,
        "total": 2345
      },
      {
        "club_badge_src": "https://fantasy.premierleague.com/gcs/plfpl-production-adobe-approved/plfpl-production/1512550/a307c670-1588-465f-b6c0-f575c0198499.png",
        "entry": 1512550,
        "entry_name": "Dahl's 11'er",
        "event_total": 74,
        "has_played": true,
        "id": 10549163,
        "last_rank": 97982,
        "player_name": "Elias Dahl",
        "rank": 60556,
        "rank_sort": 60581,
        "total": 2345
      },
      {
        "club_badge_src": null,
        "entry": 1611226,
        "entry_name": "Gally FC",
        "event_total": 57,
        "has_played": true,
        "id": 11273174,
        "last_rank": 61411,
        "player_name": "Coilin Murphy",
        "rank": 60556,
        "rank_sort": 60582,
        "total": 2345
      },
      {
        "club_badge_src": null,
        "entry": 1637971,
        "entry_name": "Fernetasy Football",
        "event_total": 74,
        "has_played": true,
        "id": 11465176,
        "last_rank": 97982,
        "player_name": "David Adderley",
        "rank": 60556,
        "rank_sort": 60583,
        "total": 2345
      },
      {
        "club_badge_src": null,
        "entry": 1755156,
        "entry_name": "\u0627\u0644\u0634\u064a\u0627\u0637\u064a\u0646 \u0627\u0644\u062d\u064f\u0645\u0631",
        "event_total": 52,
        "has_played": true,
        "id": 12321958,
        "last_rank": 53023,
        "player_name": "\u062a\u0623\u0628\u0637 \u0634\u0631\u0627\u064b",
        "rank": 60556,
        "rank_sort": 60584,
        "total": 2345
      },
      {
        "club_badge_src": null,
        "entry": 1915465,
        "entry_name": "Kante keep up",
        "event_total": 43,
        "has_played": true,
        "id": 13505347,
        "last_rank": 40036,
        "player_name": "Finlay Gardiner",
        "rank": 60556,
        "rank_sort": 60585,
        "total": 2345
      },
      {
        "club_badge_src": null,
        "entry": 2022839,
        "entry_name": "\u2663\ufe0fHissoka\u2660\ufe0f",
        "event_total": 46,
        "has_played": true,
        "id": 14314305,
        "last_rank": 43849,
        "player_name": "Mohammed Ridha",
        "rank": 60556,
        "rank_sort": 60586,
        "total": 2345
      },
      {
        "club_badge_src": null,
        "entry": 2071157,
        "entry_name": "Blodstrupmoens",
        "event_total": 33,
        "has_played": true,
        "id": 14683837,
        "last_rank": 28609,
        "player_name": "Leo Thoresen",
        "rank": 60556,
        "rank_sort": 60587,
        "total": 2345
      },
      {
        "club_badge_src": null,
        "entry": 2118488,
        "entry_name": "LucasOcampost",
        "event_total": 44,
        "has_played": true,
        "id": 15047740,
        "last_rank": 41324,
        "player_name": "Lucas Santos",
        "rank": 60556,
        "rank_sort": 60588,
        "total": 2345
      },
      {
        "club_badge_src": null,
        "entry": 2128996,
        "entry_name": "Malegohun FC",
        "event_total": 77,
        "has_played": true,
        "id": 15127965,
        "last_rank": 105818,
        "player_name": "Mukeh Senesie Mayah",
        "rank": 60556,
        "rank_sort": 60589,
        "total": 2345
      },
      {
        "club_badge_src": "https://fantasy.premierleague.com/gcs/plfpl-production-adobe-approved/plfpl-production/2187476/00c1afbc-1827-41c1-ab9b-168ef24cab1e.png",
        "entry": 2187476,
        "entry_name": "Terrys Army",
        "event_total": 46,
        "has_played": true,
        "id": 15561589,
        "last_rank": 44048,
        "player_name": "Terence foley",
        "rank": 60556,
        "rank_sort": 60590,
        "total": 2345
      },
      {
        "club_badge_src": "https://fantasy.premierleague.com/gcs/plfpl-production-adobe-approved/plfpl-production/2194931/a23b94af-41e9-47b4-8fc0-49ef4741407e.png",
        "entry": 2194931,
        "entry_name": "JballFC",
        "event_total": 69,
        "has_played": true,
        "id": 15617224,
        "last_rank": 85836,
        "player_name": "Justin Arnold",
        "rank": 60556,
        "rank_sort": 60591,
        "total": 2345
      },
      {
        "club_badge_src": null,
        "entry": 2363430,
        "entry_name": "Wirtz the matter?",
        "event_total": 64,
        "has_played": true,
        "id": 16868988,
        "last_rank": 74787,
        "player_name": "Luke Shermer",
        "rank": 60556,
        "rank_sort": 60592,
        "total": 2345
      },
      {
        "club_badge_src": null,
        "entry": 2514458,
        "entry_name": "FCB",
        "event_total": 71,
        "has_played": true,
        "id": 18014308,
        "last_rank": 91006,
        "player_name": "Hamidatou Abderraouf",
        "rank": 60556,
        "rank_sort": 60593,
        "total": 2345
      },
      {
        "club_badge_src": null,
        "entry": 2568782,
        "entry_name": "vollos magicos",
        "event_total": 51,
        "has_played": true,
        "id": 18429109,
        "last_rank": 51137,
        "player_name": "Vilhelm von Sydow",
        "rank": 60556,
        "rank_sort": 60594,
        "total": 2345
      },
      {
        "club_badge_src": null,
        "entry": 2646730,
        "entry_name": "LuxyFC",
        "event_total": 34,
        "has_played": true,
        "id": 19023501,
        "last_rank": 29578,
        "player_name": "Jamie Luxton",
        "rank": 60556,
        "rank_sort": 60595,
        "total": 2345
      },
      {
        "club_badge_src": null,
        "entry": 2679944,
        "entry_name": "Fantasy team",
        "event_total": 67,
        "has_played": true,
        "id": 19274116,
        "last_rank": 81420,
        "player_name": "Adrian Ciszek",
        "rank": 60556,
        "rank_sort": 60596,
        "total": 2345
      },
      {
        "club_badge_src": "https://fantasy.premierleague.com/gcs/plfpl-production-adobe-approved/plfpl-production/2714195/bb0e9907-6ace-4062-ae89-609879068d33.png",
        "entry": 2714195,
        "entry_name": "Sir Republic",
        "event_total": 70,
        "has_played": true,
        "id": 19528866,
        "last_rank": 88348,
        "player_name": "Omoniyi Ayomide",
        "rank": 60556,
        "rank_sort": 60597,
        "total": 2345
      },
      {
        "club_badge_src": null,
        "entry": 2798248,
        "entry_name": "Baked Ostrich",
        "event_total": 58,
        "has_played": true,
        "id": 20433216,
        "last_rank": 63390,
        "player_name": "Leon Collins Nagle",
        "rank": 60556,
        "rank_sort": 60598,
        "total": 2345
      },
      {
        "club_badge_src": null,
        "entry": 2880137,
        "entry_name": "Burridge Ball",
        "event_total": 62,
        "has_played": true,
        "id": 21083664,
        "last_rank": 70757,
        "player_name": "Henry Burridge",
        "rank": 60556,
        "rank_sort": 60599,
        "total": 2345
      },
      {
        "club_badge_src": null,
        "entry": 2972525,
        "entry_name": "Jimmy",
        "event_total": 63,
        "has_played": true,
        "id": 21840899,
        "last_rank": 72815,
        "player_name": "James Nigh",
        "rank": 60556,
        "rank_sort": 60600,
        "total": 2345
      }
    ]
  }
}