{
  "last_updated_data": "2026-05-24T23:28:17Z",
  "league": {
    "admin_entry": null,
    "closed": false,
    "code_privacy": "p",
    "created": "2025-07-20T23:14:33.933835Z",
    "cup_league": 2815434,
    "has_cup": true,
    "id": 314,
    "league_type": "s",
    "max_entries": null,
    "name": "Overall",
    "rank": null,
    "scoring": "c",
    "start_event": 1
  },
  "new_entries": {
    "has_next": false,
    "page": 1,
    "results": []
  },
  "standings": {
    "has_next": true,
    "page": 185,
    "results": [
      {
        "club_badge_src": null,
        "entry": 38835,
        "entry_name": "Ange Bappstecoglou",
        "event_total": 66,
        "has_played": true,
        "id": 248953,
        "last_rank": 12846,
        "player_name": "Jon Cook",
        "rank": 9192,
        "rank_sort": 9201,
        "total": 2400
      },
      {
        "club_badge_src": null,
        "entry": 70629,
        "entry_name": "WMP Team",
        "event_total": 49,
        "has_played": true,
        "id": 458648,
        "last_rank": 6166,
        "player_name": "Micha\u0142 Pietrzak",
        "rank": 9192,
        "rank_sort": 9202,
        "total": 2400
      },
      {
        "club_badge_src": null,
        "entry": 112850,
        "entry_name": "The Famous",
        "event_total": 68,
        "has_played": true,
        "id": 735910,
        "last_rank": 13710,
        "player_name": "Alastair Lawrie",
        "rank": 9192,
        "rank_sort": 9203,
        "total": 2400
      },
      {
        "club_badge_src": null,
        "entry": 145240,
        "entry_name": "Erop in Hacke",
        "event_total": 55,
        "has_played": true,
        "id": 951088,
        "last_rank": 7959,
        "player_name": "Louis Hacke",
        "rank": 9192,
        "rank_sort": 9204,
        "total": 2400
      },
      {
        "club_badge_src": null,
        "entry": 169854,
        "entry_name": "indian",
        "event_total": 46,
        "has_played": true,
        "id": 1122365,
        "last_rank": 5379,
        "player_name": "Jithin Thomas",
        "rank": 9192,
        "rank_sort": 9205,
        "total": 2400
      },
      {
        "club_badge_src": "https://fantasy.premierleague.com/gcs/plfpl-production-adobe-approved/plfpl-production/169968/fabe626f-3a86-4502-b1af-0986b4a601cc.png",
        "entry": 169968,
        "entry_name": "Daado United",
        "event_total": 71,
        "has_played": true,
        "id": 1123102,
        "last_rank": 15550,
        "player_name": "George McDonald",
        "rank": 9192,
        "rank_sort": 9206,
        "total": 2400
      },
      {
        "club_badge_src": null,
        "entry": 234749,
        "entry_name": "Red Machine",
        "event_total": 63,
        "has_played": true,
        "id": 1562018,
        "last_rank": 11237,
        "player_name": "Knom Doughnut",
        "rank": 9192,
        "rank_sort": 9207,
        "total": 2400
      },
      {
        "club_badge_src": null,
        "entry": 237774,
        "entry_name": "Emmerson Joyce",
        "event_total": 74,
        "has_played": true,
        "id": 1581941,
        "last_rank": 17358,
        "player_name": "Sam Joyce",
        "rank": 9192,
        "rank_sort": 9208,
        "total": 2400
      },
      {
        "club_badge_src": null,
        "entry": 239899,
        "entry_name": "North London Forever",
        "event_total": 63,
        "has_played": true,
        "id": 1596507,
        "last_rank": 11237,
        "player_name": "Tony Daisley",
        "rank": 9192,
        "rank_sort": 9209,
        "total": 2400
      },
      {
        "club_badge_src": null,
        "entry": 247999,
        "entry_name": "Talented Souls",
        "event_total": 66,
        "has_played": true,
        "id": 1650678,
        "last_rank": 12705,
        "player_name": "Eoin Cashen",
        "rank": 9192,
        "rank_sort": 9210,
        "total": 2400
      },
      {
        "club_badge_src": "https://fantasy.premierleague.com/gcs/plfpl-production-adobe-approved/plfpl-production/302674/8651524b-b88a-45e3-954c-a9b38c3b9f88.png",
        "entry": 302674,
        "entry_name": "Brighton Up, Francis",
        "event_total": 59,
        "has_played": true,
        "id": 2025663,
        "last_rank": 9536,
        "player_name": "Kristopher Wood",
        "rank": 9192,
        "rank_sort": 9211,
        "total": 2400
      },
      {
        "club_badge_src": null,
        "entry": 330366,
        "entry_name": "The Lonely One",
        "event_total": 69,
        "has_played": true,
        "id": 2212878,
        "last_rank": 14251,
        "player_name": "Graham Dickens",
        "rank": 9192,
        "rank_sort": 9212,
        "total": 2400
      },
      {
        "club_badge_src": null,
        "entry": 376834,
        "entry_name": "Olympique Connollais",
        "event_total": 57,
        "has_played": true,
        "id": 2524062,
        "last_rank": 7333,
        "player_name": "Michael Connolly",
        "rank": 9192,
        "rank_sort": 9213,
        "total": 2400
      },
      {
        "club_badge_src": "https://fantasy.premierleague.com/gcs/plfpl-production-adobe-approved/plfpl-production/381837/ede2c50a-83ac-487c-b281-4f753fa2f217.png",
        "entry": 381837,
        "entry_name": "Pjani\u0107 at the Isco",
        "event_total": 60,
        "has_played": true,
        "id": 2560144,
        "last_rank": 9942,
        "player_name": "Shane O'Donnell",
        "rank": 9192,
        "rank_sort": 9214,
        "total": 2400
      },
      {
        "club_badge_src": null,
        "entry": 384568,
        "entry_name": "\u0635\u0627\u062f\u0642 \u0631\u0633\u0648\u0644",
        "event_total": 74,
        "has_played": true,
        "id": 2579368,
        "last_rank": 17437,
        "player_name": "\u0635\u0627\u062f\u0642 \u0631\u0633\u0648\u0644",
        "rank": 9192,
        "rank_sort": 9215,
        "total": 2400
      },
      {
        "club_badge_src": null,
        "entry": 422171,
        "entry_name": "hayden fc",
        "event_total": 47,
        "has_played": true,
        "id": 2829223,
        "last_rank": 5688,
        "player_name": "Hayden Acott",
        "rank": 9192,
        "rank_sort": 9216,
        "total": 2400
      },
      {
        "club_badge_src": "https://fantasy.premierleague.com/gcs/plfpl-production-adobe-approved/plfpl-production/498926/0528068d-267c-4e38-b8e2-849829384035.png",
        "entry": 498926,
        "entry_name": "nee matnajmounich",
        "event_total": 73,
        "has_played": true,
        "id": 3348552,
        "last_rank": 16702,
        "player_name": "malek rabaaoui",
        "rank": 9192,
        "rank_sort": 9217,
        "total": 2400
      },
      {
        "club_badge_src": null,
        "entry": 592418,
        "entry_name": "Giorno del giudizio",
        "event_total": 46,
        "has_played": true,
        "id": 3991827,
        "last_rank": 4488,
        "player_name": "Gabriel Bystr\u00f6m",
        "rank": 9192,
        "rank_sort": 9218,
        "total": 2400
      },
      {
        "club_badge_src": null,
        "entry": 635774,
        "entry_name": "Baines on toast",
        "event_total": 58,
        "has_played": true,
        "id": 4296756,
        "last_rank": 9142,
        "player_name": "Dominic Howarth",
        "rank": 9192,
        "rank_sort": 9219,
        "total": 2400
      },
      {
        "club_badge_src": "https://fantasy.premierleague.com/gcs/plfpl-production-adobe-approved/plfpl-production/647436/679131a2-54ab-4a4a-8189-d4639b4798b0.png",
        "entry": 647436,
        "entry_name": "FC AkuEero",
        "event_total": 53,
        "has_played": true,
        "id": 4375548,
        "last_rank": 7375,
        "player_name": "Waltteri Vehmanen",
        "rank": 9192,
        "rank_sort": 9220,
        "total": 2400
      },
      {
        "club_badge_src": null,
        "entry": 792468,
        "entry_name": "OTC Piscopo",
        "event_total": 52,
        "has_played": true,
        "id": 5423112,
        "last_rank": 7059,
        "player_name": "emerson piscopo",
        "rank": 9192,
        "rank_sort": 9221,
        "total": 2400
      },
      {
        "club_badge_src": null,
        "entry": 907806,
        "entry_name": "Becstelen Brigantyk",
        "event_total": 61,
        "has_played": true,
        "id": 6240329,
        "last_rank": 10346,
        "player_name": "Elek Zsigmond",
        "rank": 9192,
        "rank_sort": 9222,
        "total": 2400
      },
      {
        "club_badge_src": null,
        "entry": 984419,
        "entry_name": "Lag-Kam",
        "event_total": 61,
        "has_played": true,
        "id": 6787102,
        "last_rank": 10288,
        "player_name": "Kristoffer Korsnes",
        "rank": 9192,
        "rank_sort": 9223,
        "total": 2400
      },
      {
        "club_badge_src": "https://fantasy.premierleague.com/gcs/plfpl-production-adobe-approved/plfpl-production/1137467/f9dbcd40-1e80-45b6-9232-4997cbcf016b.png",
        "entry": 1137467,
        "entry_name": "Cresposcular",
        "event_total": 60,
        "has_played": true,
        "id": 7884618,
        "last_rank": 9853,
        "player_name": "Victor Schmidt",
        "rank": 9192,
        "rank_sort": 9224,
        "total": 2400
      },
      {
        "club_badge_src": null,
        "entry": 1202278,
        "entry_name": "utp",
        "event_total": 68,
        "has_played": true,
        "id": 8343240,
        "last_rank": 13947,
        "player_name": "rick cooper",
        "rank": 9192,
        "rank_sort": 9225,
        "total": 2400
      },
      {
        "club_badge_src": "https://fantasy.premierleague.com/gcs/plfpl-production-adobe-approved/plfpl-production/1233450/173d1c8c-c860-4d46-9c3b-0147700ed2cd.png",
        "entry": 1233450,
        "entry_name": "mil's at the wheel",
        "event_total": 66,
        "has_played": true,
        "id": 8565302,
        "last_rank": 12645,
        "player_name": "Millie Riley",
        "rank": 9192,
        "rank_sort": 9226,
        "total": 2400
      },
      {
        "club_badge_src": null,
        "entry": 1543589,
        "entry_name": "OverensFC",
        "event_total": 56,
        "has_played": true,
        "id": 10774305,
        "last_rank": 8382,
        "player_name": "Richard Overens",
        "rank": 9192,
        "rank_sort": 9227,
        "total": 2400
      },
      {
        "club_badge_src": null,
        "entry": 1668572,
        "entry_name": "FC PAK J",
        "event_total": 56,
        "has_played": true,
        "id": 11682135,
        "last_rank": 8382,
        "player_name": "jeewan paudel",
        "rank": 9192,
        "rank_sort": 9228,
        "total": 2400
      },
      {
        "club_badge_src": "https://fantasy.premierleague.com/gcs/plfpl-production-adobe-approved/plfpl-production/1735584/4d3b2c1a-438f-4bb5-a1e3-211b514adea2.png",
        "entry": 1735584,
        "entry_name": "Raya Sunshine",
        "event_total": 74,
        "has_played": true,
        "id": 12175701,
        "last_rank": 17437,
        "player_name": "Georgia Howell",
        "rank": 9192,
        "rank_sort": 9229,
        "total": 2400
      },
      {
        "club_badge_src": null,
        "entry": 1788271,
        "entry_name": "Oliva Yellow",
        "event_total": 64,
        "has_played": true,
        "id": 12565204,
        "last_rank": 11608,
        "player_name": "Mark Fairley",
        "rank": 9192,
        "rank_sort": 9230,
        "total": 2400
      },
      {
        "club_badge_src": null,
        "entry": 1828005,
        "entry_name": "Invincibles",
        "event_total": 54,
        "has_played": true,
        "id": 12858011,
        "last_rank": 7625,
        "player_name": "Raul Gonzalez",
        "rank": 9192,
        "rank_sort": 9231,
        "total": 2400
      },
      {
        "club_badge_src": null,
        "entry": 2039221,
        "entry_name": "Desboro superstars",
        "event_total": 50,
        "has_played": true,
        "id": 14440455,
        "last_rank": 6448,
        "player_name": "martyn burgess",
        "rank": 9192,
        "rank_sort": 9232,
        "total": 2400
      },
      {
        "club_badge_src": null,
        "entry": 2046064,
        "entry_name": "Tarek mostafa",
        "event_total": 30,
        "has_played": true,
        "id": 14490743,
        "last_rank": 2553,
        "player_name": "Tarek Mostafa",
        "rank": 9192,
        "rank_sort": 9233,
        "total": 2400
      },
      {
        "club_badge_src": null,
        "entry": 2184342,
        "entry_name": "CunhaLingus",
        "event_total": 48,
        "has_played": true,
        "id": 15537481,
        "last_rank": 6011,
        "player_name": "S\u00e9 O'Loughlin",
        "rank": 9192,
        "rank_sort": 9234,
        "total": 2400
      },
      {
        "club_badge_src": null,
        "entry": 2191583,
        "entry_name": "Rather be Swimming",
        "event_total": 68,
        "has_played": true,
        "id": 15592234,
        "last_rank": 13821,
        "player_name": "Hayley Burrows",
        "rank": 9192,
        "rank_sort": 9235,
        "total": 2400
      },
      {
        "club_badge_src": null,
        "entry": 2295939,
        "entry_name": "Player 1",
        "event_total": 65,
        "has_played": true,
        "id": 16374819,
        "last_rank": 12200,
        "player_name": "Benjamin Cheshire",
        "rank": 9192,
        "rank_sort": 9236,
        "total": 2400
      },
      {
        "club_badge_src": null,
        "entry": 2314183,
        "entry_name": "Cunha dig it?! Saka!",
        "event_total": 62,
        "has_played": true,
        "id": 16508098,
        "last_rank": 9089,
        "player_name": "john brooke",
        "rank": 9192,
        "rank_sort": 9237,
        "total": 2400
      },
      {
        "club_badge_src": null,
        "entry": 2456764,
        "entry_name": "Spartak Costco",
        "event_total": 65,
        "has_played": true,
        "id": 17572299,
        "last_rank": 10288,
        "player_name": "Alex Taylor",
        "rank": 9192,
        "rank_sort": 9238,
        "total": 2400
      },
      {
        "club_badge_src": null,
        "entry": 2530384,
        "entry_name": "Boom Xhaka Laka",
        "event_total": 44,
        "has_played": true,
        "id": 18131974,
        "last_rank": 4954,
        "player_name": "Craig L.",
        "rank": 9192,
        "rank_sort": 9239,
        "total": 2400
      },
      {
        "club_badge_src": null,
        "entry": 2559812,
        "entry_name": "MPPB",
        "event_total": 67,
        "has_played": true,
        "id": 18358153,
        "last_rank": 11175,
        "player_name": "Dan Ruben Aadland",
        "rank": 9192,
        "rank_sort": 9240,
        "total": 2400
      },
      {
        "club_badge_src": null,
        "entry": 2781386,
        "entry_name": "Mo Salah Dosa",
        "event_total": 59,
        "has_played": true,
        "id": 20302189,
        "last_rank": 9536,
        "player_name": "Michael Lott",
        "rank": 9192,
        "rank_sort": 9241,
        "total": 2400
      },
      {
        "club_badge_src": null,
        "entry": 3057620,
        "entry_name": "Los Boquerones",
        "event_total": 66,
        "has_played": true,
        "id": 22511131,
        "last_rank": 12705,
        "player_name": "Daniel Phillips",
        "rank": 9192,
        "rank_sort": 9242,
        "total": 2400
      },
      {
        "club_badge_src": null,
        "entry": 3060049,
        "entry_name": "Touching Cloth",
        "event_total": 65,
        "has_played": true,
        "id": 22529334,
        "last_rank": 12200,
        "player_name": "Liam Sambrook",
        "rank": 9192,
        "rank_sort": 9243,
        "total": 2400
      },
      {
        "club_badge_src": null,
        "entry": 3296470,
        "entry_name": "Los_Pavos_Royales",
        "event_total": 66,
        "has_played": true,
        "id": 24411494,
        "last_rank": 12645,
        "player_name": "Thomas Geiger",
        "rank": 9192,
        "rank_sort": 9244,
        "total": 2400
      },
      {
        "club_badge_src": null,
        "entry": 3620028,
        "entry_name": "Charli xGx",
        "event_total": 64,
        "has_played": true,
        "id": 26970505,
        "last_rank": 11608,
        "player_name": "Agam Singh Bhatia",
        "rank": 9192,
        "rank_sort": 9245,
        "total": 2400
      },
      {
        "club_badge_src": "https://fantasy.premierleague.com/gcs/plfpl-production-adobe-approved/plfpl-production/3662566/2a010bed-6cfc-4cea-9b2f-2b9a0bbc9886.png",
        "entry": 3662566,
        "entry_name": "Sushi is tasty",
        "event_total": 71,
        "has_played": true,
        "id": 27312959,
        "last_rank": 15452,
        "player_name": "Isaac Odeniyi",
        "rank": 9192,
        "rank_sort": 9246,
        "total": 2400
      },
      {
        "club_badge_src": null,
        "entry": 3773861,
        "entry_name": "GabBiGenGreg",
        "event_total": 67,
        "has_played": true,
        "id": 28178043,
        "last_rank": 13184,
        "player_name": "Gabriel Tan",
        "rank": 9192,
        "rank_sort": 9247,
        "total": 2400
      },
      {
        "club_badge_src": null,
        "entry": 3872014,
        "entry_name": "Gulgast FC",
        "event_total": 61,
        "has_played": true,
        "id": 29058050,
        "last_rank": 10263,
        "player_name": "Thorkell Helgason",
        "rank": 9192,
        "rank_sort": 9248,
        "total": 2400
      },
      {
        "club_badge_src": null,
        "entry": 3959696,
        "entry_name": "Zestyman United",
        "event_total": 71,
        "has_played": true,
        "id": 29791852,
        "last_rank": 15452,
        "player_name": "Adam Marte",
        "rank": 9192,
        "rank_sort": 9249,
        "total": 2400
      },
      {
        "club_badge_src": null,
        "entry": 4259326,
        "entry_name": "Stay Humble",
        "event_total": 58,
        "has_played": true,
        "id": 32293092,
        "last_rank": 9142,
        "player_name": "Joel Chan",
        "rank": 9192,
        "rank_sort": 9250,
        "total": 2400
      }
    ]
  }
}