{
  "last_updated_data": "2026-05-24T23:28:17Z",
  "league": {
    "admin_entry": null,
    "closed": false,
    "code_privacy": "p",
    "created": "2025-07-20T23:14:33.933835Z",
    "cup_league": 2815434,
    "has_cup": true,
    "id": 314,
    "league_type": "s",
    "max_entries": null,
    "name": "Overall",
    "rank": null,
    "scoring": "c",
    "start_event": 1
  },
  "new_entries": {
    "has_next": false,
    "page": 1,
    "results": []
  },
  "standings": {
    "has_next": true,
    "page": 545,
    "results": [
      {
        "club_badge_src": null,
        "entry": 5022010,
        "entry_name": "Glory Grinders",
        "event_total": 47,
        "has_played": true,
        "id": 38784693,
        "last_rank": 18790,
        "player_name": "Tony Ptaszynski",
        "rank": 27056,
        "rank_sort": 27201,
        "total": 2371
      },
      {
        "club_badge_src": null,
        "entry": 5031387,
        "entry_name": "AC dead people",
        "event_total": 52,
        "has_played": true,
        "id": 38860739,
        "last_rank": 22534,
        "player_name": "Peter Rafferty",
        "rank": 27056,
        "rank_sort": 27202,
        "total": 2371
      },
      {
        "club_badge_src": null,
        "entry": 5178292,
        "entry_name": "Lets go Sesko",
        "event_total": 40,
        "has_played": true,
        "id": 40080812,
        "last_rank": 14292,
        "player_name": "Gareth Walker",
        "rank": 27056,
        "rank_sort": 27203,
        "total": 2371
      },
      {
        "club_badge_src": null,
        "entry": 5209383,
        "entry_name": "Milkies",
        "event_total": 67,
        "has_played": true,
        "id": 40349435,
        "last_rank": 37589,
        "player_name": "Luc Mansell",
        "rank": 27056,
        "rank_sort": 27204,
        "total": 2371
      },
      {
        "club_badge_src": null,
        "entry": 5217445,
        "entry_name": "Snow Wolf",
        "event_total": 55,
        "has_played": true,
        "id": 40422402,
        "last_rank": 25002,
        "player_name": "Baby Wolf",
        "rank": 27056,
        "rank_sort": 27205,
        "total": 2371
      },
      {
        "club_badge_src": null,
        "entry": 5296557,
        "entry_name": "Rubber Digne Rapids",
        "event_total": 58,
        "has_played": true,
        "id": 41056024,
        "last_rank": 27770,
        "player_name": "Dan Heald",
        "rank": 27056,
        "rank_sort": 27206,
        "total": 2371
      },
      {
        "club_badge_src": null,
        "entry": 5467477,
        "entry_name": "mid table mediocrity",
        "event_total": 55,
        "has_played": true,
        "id": 42553435,
        "last_rank": 25002,
        "player_name": "Ian Woolley",
        "rank": 27056,
        "rank_sort": 27207,
        "total": 2371
      },
      {
        "club_badge_src": null,
        "entry": 5531284,
        "entry_name": "Marshmallow Marmoush",
        "event_total": 57,
        "has_played": true,
        "id": 43151023,
        "last_rank": 26710,
        "player_name": "H Potts",
        "rank": 27056,
        "rank_sort": 27208,
        "total": 2371
      },
      {
        "club_badge_src": null,
        "entry": 5606356,
        "entry_name": "Alisson Wonderland",
        "event_total": 76,
        "has_played": true,
        "id": 43811355,
        "last_rank": 49691,
        "player_name": "Daniel L",
        "rank": 27056,
        "rank_sort": 27209,
        "total": 2371
      },
      {
        "club_badge_src": null,
        "entry": 5612929,
        "entry_name": "Beef Cherki",
        "event_total": 70,
        "has_played": true,
        "id": 43868770,
        "last_rank": 41101,
        "player_name": "Jonny Hynes",
        "rank": 27056,
        "rank_sort": 27210,
        "total": 2371
      },
      {
        "club_badge_src": null,
        "entry": 5845112,
        "entry_name": "Caruso's Crusaders",
        "event_total": 42,
        "has_played": true,
        "id": 45887002,
        "last_rank": 15550,
        "player_name": "Rick Caruso",
        "rank": 27056,
        "rank_sort": 27211,
        "total": 2371
      },
      {
        "club_badge_src": "https://fantasy.premierleague.com/gcs/plfpl-production-adobe-approved/plfpl-production/6038857/2d501eeb-9af7-4e11-a6ee-3acefe6747d4.png",
        "entry": 6038857,
        "entry_name": "The Bloodnofsky III",
        "event_total": 47,
        "has_played": true,
        "id": 47643070,
        "last_rank": 18790,
        "player_name": "Michael Eze",
        "rank": 27056,
        "rank_sort": 27212,
        "total": 2371
      },
      {
        "club_badge_src": null,
        "entry": 6111403,
        "entry_name": "Blazerman Wannabe",
        "event_total": 68,
        "has_played": true,
        "id": 48275642,
        "last_rank": 38774,
        "player_name": "John Turley",
        "rank": 27056,
        "rank_sort": 27213,
        "total": 2371
      },
      {
        "club_badge_src": null,
        "entry": 6137277,
        "entry_name": "Kingdom of Lifuonia",
        "event_total": 66,
        "has_played": true,
        "id": 48501910,
        "last_rank": 36348,
        "player_name": "Julius Degutis",
        "rank": 27056,
        "rank_sort": 27214,
        "total": 2371
      },
      {
        "club_badge_src": null,
        "entry": 6196466,
        "entry_name": "Goalless AET",
        "event_total": 66,
        "has_played": true,
        "id": 49014798,
        "last_rank": 36200,
        "player_name": "Lakhbir Mahal",
        "rank": 27056,
        "rank_sort": 27215,
        "total": 2371
      },
      {
        "club_badge_src": null,
        "entry": 6279053,
        "entry_name": "JJW",
        "event_total": 51,
        "has_played": true,
        "id": 49727295,
        "last_rank": 21775,
        "player_name": "Jess Stratton",
        "rank": 27056,
        "rank_sort": 27216,
        "total": 2371
      },
      {
        "club_badge_src": "https://fantasy.premierleague.com/gcs/plfpl-production-adobe-approved/plfpl-production/6299166/98690c87-c6d9-4500-abda-dc2267a83211.png",
        "entry": 6299166,
        "entry_name": "Lord Of The Game",
        "event_total": 47,
        "has_played": true,
        "id": 49934065,
        "last_rank": 18790,
        "player_name": "Kesavan 7",
        "rank": 27056,
        "rank_sort": 27217,
        "total": 2371
      },
      {
        "club_badge_src": null,
        "entry": 6454048,
        "entry_name": "CarlBaun",
        "event_total": 51,
        "has_played": true,
        "id": 51397602,
        "last_rank": 21775,
        "player_name": "Carl Baun",
        "rank": 27056,
        "rank_sort": 27218,
        "total": 2371
      },
      {
        "club_badge_src": null,
        "entry": 6459258,
        "entry_name": "Andys XI",
        "event_total": 73,
        "has_played": true,
        "id": 51451746,
        "last_rank": 45416,
        "player_name": "Tom Andrews",
        "rank": 27056,
        "rank_sort": 27219,
        "total": 2371
      },
      {
        "club_badge_src": null,
        "entry": 6519631,
        "entry_name": "NO FARHAN, NO PARTY",
        "event_total": 73,
        "has_played": true,
        "id": 51996674,
        "last_rank": 45416,
        "player_name": "Jayden Greene",
        "rank": 27056,
        "rank_sort": 27220,
        "total": 2371
      },
      {
        "club_badge_src": null,
        "entry": 6562815,
        "entry_name": "feinschmeckers",
        "event_total": 57,
        "has_played": true,
        "id": 52381348,
        "last_rank": 26710,
        "player_name": "Torbj\u00f8rn Knudsen",
        "rank": 27056,
        "rank_sort": 27221,
        "total": 2371
      },
      {
        "club_badge_src": null,
        "entry": 6763918,
        "entry_name": "Wanstead Winners",
        "event_total": 69,
        "has_played": true,
        "id": 54156660,
        "last_rank": 40036,
        "player_name": "Chris n Ben Sabine",
        "rank": 27056,
        "rank_sort": 27222,
        "total": 2371
      },
      {
        "club_badge_src": null,
        "entry": 6801833,
        "entry_name": "3amek",
        "event_total": 49,
        "has_played": true,
        "id": 54471772,
        "last_rank": 20280,
        "player_name": "zakaria Lahmiry",
        "rank": 27056,
        "rank_sort": 27223,
        "total": 2371
      },
      {
        "club_badge_src": null,
        "entry": 6812404,
        "entry_name": "Man Utd",
        "event_total": 52,
        "has_played": true,
        "id": 54558855,
        "last_rank": 22391,
        "player_name": "Daniel Weien",
        "rank": 27056,
        "rank_sort": 27224,
        "total": 2371
      },
      {
        "club_badge_src": null,
        "entry": 6898474,
        "entry_name": "Arne's Angels",
        "event_total": 72,
        "has_played": true,
        "id": 55291663,
        "last_rank": 43849,
        "player_name": "Nathan C-S",
        "rank": 27056,
        "rank_sort": 27225,
        "total": 2371
      },
      {
        "club_badge_src": null,
        "entry": 7064187,
        "entry_name": "Tom's XI",
        "event_total": 64,
        "has_played": true,
        "id": 56834655,
        "last_rank": 33936,
        "player_name": "Jordon Mahon",
        "rank": 27056,
        "rank_sort": 27226,
        "total": 2371
      },
      {
        "club_badge_src": "https://fantasy.premierleague.com/gcs/plfpl-production-adobe-approved/plfpl-production/7162074/b5e0ee0b-9987-4649-bfaa-95c845bbc4be.png",
        "entry": 7162074,
        "entry_name": "Gyok and the Boyz",
        "event_total": 70,
        "has_played": true,
        "id": 57774131,
        "last_rank": 41324,
        "player_name": "Adam Lamont",
        "rank": 27056,
        "rank_sort": 27227,
        "total": 2371
      },
      {
        "club_badge_src": null,
        "entry": 7220877,
        "entry_name": "CD Ville",
        "event_total": 67,
        "has_played": true,
        "id": 58330324,
        "last_rank": 37435,
        "player_name": "Ville Laukkanen",
        "rank": 27056,
        "rank_sort": 27228,
        "total": 2371
      },
      {
        "club_badge_src": null,
        "entry": 7361800,
        "entry_name": "Kinder Mbeumo",
        "event_total": 62,
        "has_played": true,
        "id": 59658776,
        "last_rank": 31747,
        "player_name": "Felix Gutestam",
        "rank": 27056,
        "rank_sort": 27229,
        "total": 2371
      },
      {
        "club_badge_src": null,
        "entry": 7453460,
        "entry_name": "Kudu \ufffd",
        "event_total": 70,
        "has_played": true,
        "id": 60679807,
        "last_rank": 41162,
        "player_name": "Thanos Kountourgiotis",
        "rank": 27056,
        "rank_sort": 27230,
        "total": 2371
      },
      {
        "club_badge_src": null,
        "entry": 7515023,
        "entry_name": "Cav",
        "event_total": 63,
        "has_played": true,
        "id": 61459586,
        "last_rank": 32688,
        "player_name": "Cavin Allen",
        "rank": 27056,
        "rank_sort": 27231,
        "total": 2371
      },
      {
        "club_badge_src": null,
        "entry": 7647884,
        "entry_name": "Zubi Dooby Doo",
        "event_total": 63,
        "has_played": true,
        "id": 62697657,
        "last_rank": 32879,
        "player_name": "James Lock",
        "rank": 27056,
        "rank_sort": 27232,
        "total": 2371
      },
      {
        "club_badge_src": "https://fantasy.premierleague.com/gcs/plfpl-production-adobe-approved/plfpl-production/7726040/7bf9c37e-0c49-4d06-b811-5ed0dfae3326.png",
        "entry": 7726040,
        "entry_name": "Kewell Bananas",
        "event_total": 44,
        "has_played": true,
        "id": 63405291,
        "last_rank": 16807,
        "player_name": "Dave Edwardz",
        "rank": 27056,
        "rank_sort": 27233,
        "total": 2371
      },
      {
        "club_badge_src": null,
        "entry": 7741518,
        "entry_name": "Cherki Dinosaurs",
        "event_total": 64,
        "has_played": true,
        "id": 63544696,
        "last_rank": 34293,
        "player_name": "Neil Fiddes",
        "rank": 27056,
        "rank_sort": 27234,
        "total": 2371
      },
      {
        "club_badge_src": null,
        "entry": 7997665,
        "entry_name": "4 Beto or Wirtz",
        "event_total": 58,
        "has_played": true,
        "id": 65862327,
        "last_rank": 27644,
        "player_name": "Paige Ferrell",
        "rank": 27056,
        "rank_sort": 27235,
        "total": 2371
      },
      {
        "club_badge_src": null,
        "entry": 8355071,
        "entry_name": "Studs & Sorcery",
        "event_total": 57,
        "has_played": true,
        "id": 69250293,
        "last_rank": 26710,
        "player_name": "Claudius -",
        "rank": 27056,
        "rank_sort": 27236,
        "total": 2371
      },
      {
        "club_badge_src": null,
        "entry": 8416350,
        "entry_name": "Nilssons Kalsonger",
        "event_total": 56,
        "has_played": true,
        "id": 69831782,
        "last_rank": 25902,
        "player_name": "Mathias Nilsson",
        "rank": 27056,
        "rank_sort": 27237,
        "total": 2371
      },
      {
        "club_badge_src": "https://fantasy.premierleague.com/gcs/plfpl-production-adobe-approved/plfpl-production/8536076/5ccc2828-bb79-4b87-bb03-f71ae2f73391.png",
        "entry": 8536076,
        "entry_name": "1.21 GigaWirtz",
        "event_total": 39,
        "has_played": true,
        "id": 70984906,
        "last_rank": 13821,
        "player_name": "Ben Lodge",
        "rank": 27056,
        "rank_sort": 27238,
        "total": 2371
      },
      {
        "club_badge_src": null,
        "entry": 8576100,
        "entry_name": "\u00a9ABDALLAH",
        "event_total": 64,
        "has_played": true,
        "id": 71368800,
        "last_rank": 34051,
        "player_name": "ABDALLAH Reda",
        "rank": 27056,
        "rank_sort": 27239,
        "total": 2371
      },
      {
        "club_badge_src": null,
        "entry": 8616978,
        "entry_name": "Brynnis se og l\u00e6r",
        "event_total": 61,
        "has_played": true,
        "id": 71762377,
        "last_rank": 30600,
        "player_name": "Elias Juvik",
        "rank": 27056,
        "rank_sort": 27240,
        "total": 2371
      },
      {
        "club_badge_src": null,
        "entry": 8912142,
        "entry_name": "TBC",
        "event_total": 58,
        "has_played": true,
        "id": 74627448,
        "last_rank": 27770,
        "player_name": "Mathew Donnelly",
        "rank": 27056,
        "rank_sort": 27241,
        "total": 2371
      },
      {
        "club_badge_src": null,
        "entry": 8986685,
        "entry_name": "Obi-Wan Iwobi",
        "event_total": 63,
        "has_played": true,
        "id": 75353479,
        "last_rank": 32879,
        "player_name": "Keelan Williams",
        "rank": 27056,
        "rank_sort": 27242,
        "total": 2371
      },
      {
        "club_badge_src": "https://fantasy.premierleague.com/gcs/plfpl-production-adobe-approved/plfpl-production/9019315/e36b4221-6422-42fa-bc4b-d62052b32ef8.png",
        "entry": 9019315,
        "entry_name": "TFC129",
        "event_total": 50,
        "has_played": true,
        "id": 75665499,
        "last_rank": 20888,
        "player_name": "Yuki Inomata",
        "rank": 27056,
        "rank_sort": 27243,
        "total": 2371
      },
      {
        "club_badge_src": null,
        "entry": 9264665,
        "entry_name": "Cunhamatata",
        "event_total": 69,
        "has_played": true,
        "id": 78066071,
        "last_rank": 39874,
        "player_name": "Aaron BS",
        "rank": 27056,
        "rank_sort": 27244,
        "total": 2371
      },
      {
        "club_badge_src": null,
        "entry": 9451145,
        "entry_name": "Up the Chels",
        "event_total": 48,
        "has_played": true,
        "id": 79858744,
        "last_rank": 19721,
        "player_name": "Artin Joshua",
        "rank": 27056,
        "rank_sort": 27245,
        "total": 2371
      },
      {
        "club_badge_src": "https://fantasy.premierleague.com/gcs/plfpl-production-adobe-approved/plfpl-production/3398/69e8734e-9901-439d-8bef-4c0263a62b52.png",
        "entry": 3398,
        "entry_name": "Infinity Inc",
        "event_total": 68,
        "has_played": true,
        "id": 19246,
        "last_rank": 39023,
        "player_name": "Maanas Gupta",
        "rank": 27246,
        "rank_sort": 27246,
        "total": 2371
      },
      {
        "club_badge_src": null,
        "entry": 8283,
        "entry_name": "Wan Trick Pony",
        "event_total": 66,
        "has_played": true,
        "id": 48063,
        "last_rank": 31747,
        "player_name": "Sai Mun Wan",
        "rank": 27246,
        "rank_sort": 27247,
        "total": 2371
      },
      {
        "club_badge_src": "https://fantasy.premierleague.com/gcs/plfpl-production-adobe-approved/plfpl-production/9222/0d9f5ce7-778d-41d5-91d9-5d097daf305c.png",
        "entry": 9222,
        "entry_name": "Rock N Roll Baah",
        "event_total": 55,
        "has_played": true,
        "id": 54124,
        "last_rank": 21677,
        "player_name": "James Underwood",
        "rank": 27246,
        "rank_sort": 27248,
        "total": 2371
      },
      {
        "club_badge_src": null,
        "entry": 11731,
        "entry_name": "CSKA MOZZA",
        "event_total": 65,
        "has_played": true,
        "id": 69847,
        "last_rank": 30727,
        "player_name": "Euan Morris",
        "rank": 27246,
        "rank_sort": 27249,
        "total": 2371
      },
      {
        "club_badge_src": "https://fantasy.premierleague.com/gcs/plfpl-production-adobe-approved/plfpl-production/12198/dc0e1f6c-15ef-4677-b6ae-9c805ade38b2.png",
        "entry": 12198,
        "entry_name": "FrimPingPong",
        "event_total": 59,
        "has_played": true,
        "id": 72793,
        "last_rank": 28546,
        "player_name": "Darren Churchill",
        "rank": 27246,
        "rank_sort": 27250,
        "total": 2371
      }
    ]
  }
}