{
  "last_updated_data": "2026-05-24T23:28:17Z",
  "league": {
    "admin_entry": null,
    "closed": false,
    "code_privacy": "p",
    "created": "2025-07-20T23:14:33.933835Z",
    "cup_league": 2815434,
    "has_cup": true,
    "id": 314,
    "league_type": "s",
    "max_entries": null,
    "name": "Overall",
    "rank": null,
    "scoring": "c",
    "start_event": 1
  },
  "new_entries": {
    "has_next": false,
    "page": 1,
    "results": []
  },
  "standings": {
    "has_next": true,
    "page": 1353,
    "results": [
      {
        "club_badge_src": null,
        "entry": 107543,
        "entry_name": "Crouch Potatoes",
        "event_total": 27,
        "has_played": true,
        "id": 701070,
        "last_rank": 26605,
        "player_name": "James Lambon",
        "rank": 67601,
        "rank_sort": 67601,
        "total": 2341
      },
      {
        "club_badge_src": null,
        "entry": 2055627,
        "entry_name": "Kudus to you",
        "event_total": 108,
        "has_played": true,
        "id": 14561884,
        "last_rank": 234039,
        "player_name": "laurens van keirsbilck",
        "rank": 67602,
        "rank_sort": 67602,
        "total": 2341
      },
      {
        "club_badge_src": null,
        "entry": 2888239,
        "entry_name": "Baby Reijnders",
        "event_total": 62,
        "has_played": true,
        "id": 21146505,
        "last_rank": 78964,
        "player_name": "Shaun Cripps",
        "rank": 67602,
        "rank_sort": 67603,
        "total": 2341
      },
      {
        "club_badge_src": null,
        "entry": 5653069,
        "entry_name": "Bowen 787",
        "event_total": 50,
        "has_played": true,
        "id": 44223233,
        "last_rank": 56030,
        "player_name": "Aaron Booker",
        "rank": 67602,
        "rank_sort": 67604,
        "total": 2341
      },
      {
        "club_badge_src": null,
        "entry": 7702927,
        "entry_name": "Mallow United",
        "event_total": 63,
        "has_played": true,
        "id": 63197394,
        "last_rank": 81180,
        "player_name": "Ellie Smith",
        "rank": 67602,
        "rank_sort": 67605,
        "total": 2341
      },
      {
        "club_badge_src": null,
        "entry": 617325,
        "entry_name": "Nathan XI",
        "event_total": 68,
        "has_played": true,
        "id": 4170980,
        "last_rank": 92939,
        "player_name": "Nathan Pennington",
        "rank": 67606,
        "rank_sort": 67606,
        "total": 2341
      },
      {
        "club_badge_src": null,
        "entry": 3815212,
        "entry_name": "Tis I Lacroix",
        "event_total": 71,
        "has_played": true,
        "id": 28530452,
        "last_rank": 100469,
        "player_name": "Tim Seabourne",
        "rank": 67607,
        "rank_sort": 67607,
        "total": 2341
      },
      {
        "club_badge_src": null,
        "entry": 4645584,
        "entry_name": "Ned's Army",
        "event_total": 69,
        "has_played": true,
        "id": 35536442,
        "last_rank": 95399,
        "player_name": "Alex Pike",
        "rank": 67607,
        "rank_sort": 67608,
        "total": 2341
      },
      {
        "club_badge_src": null,
        "entry": 4745621,
        "entry_name": "Restored",
        "event_total": 57,
        "has_played": true,
        "id": 36515288,
        "last_rank": 68556,
        "player_name": "Restored Player",
        "rank": 67607,
        "rank_sort": 67609,
        "total": 2341
      },
      {
        "club_badge_src": null,
        "entry": 5072456,
        "entry_name": "Stationary Stores",
        "event_total": 72,
        "has_played": true,
        "id": 39200448,
        "last_rank": 103001,
        "player_name": "Kitan Olayinka",
        "rank": 67607,
        "rank_sort": 67610,
        "total": 2341
      },
      {
        "club_badge_src": null,
        "entry": 5730784,
        "entry_name": "Soucek Yourself",
        "event_total": 56,
        "has_played": true,
        "id": 44895097,
        "last_rank": 66627,
        "player_name": "Simon Stears",
        "rank": 67607,
        "rank_sort": 67611,
        "total": 2341
      },
      {
        "club_badge_src": null,
        "entry": 7612956,
        "entry_name": "E-van a Nightmare",
        "event_total": 48,
        "has_played": true,
        "id": 62381947,
        "last_rank": 52713,
        "player_name": "Evan Blowfield",
        "rank": 67607,
        "rank_sort": 67612,
        "total": 2341
      },
      {
        "club_badge_src": "https://fantasy.premierleague.com/gcs/plfpl-production-adobe-approved/plfpl-production/869185/99177949-180a-441f-a519-6bb2abadbe47.png",
        "entry": 869185,
        "entry_name": "115",
        "event_total": 71,
        "has_played": true,
        "id": 5958955,
        "last_rank": 100488,
        "player_name": "Moey Hage",
        "rank": 67613,
        "rank_sort": 67613,
        "total": 2341
      },
      {
        "club_badge_src": null,
        "entry": 1473205,
        "entry_name": "Saka Potatoes",
        "event_total": 70,
        "has_played": true,
        "id": 10269159,
        "last_rank": 97982,
        "player_name": "Chris Fensom",
        "rank": 67613,
        "rank_sort": 67614,
        "total": 2341
      },
      {
        "club_badge_src": null,
        "entry": 1823901,
        "entry_name": "Chelsea\u2019s Return",
        "event_total": 65,
        "has_played": true,
        "id": 12828121,
        "last_rank": 85836,
        "player_name": "Chris Barker",
        "rank": 67613,
        "rank_sort": 67615,
        "total": 2341
      },
      {
        "club_badge_src": null,
        "entry": 1931763,
        "entry_name": "Rage 3.0",
        "event_total": 56,
        "has_played": true,
        "id": 13624547,
        "last_rank": 66658,
        "player_name": "Khalid Hamza",
        "rank": 67613,
        "rank_sort": 67616,
        "total": 2341
      },
      {
        "club_badge_src": null,
        "entry": 2219480,
        "entry_name": "MattGPT",
        "event_total": 49,
        "has_played": true,
        "id": 15807618,
        "last_rank": 54344,
        "player_name": "Matthew Sutton",
        "rank": 67613,
        "rank_sort": 67617,
        "total": 2341
      },
      {
        "club_badge_src": null,
        "entry": 2381076,
        "entry_name": "Saliba-d Me Softly",
        "event_total": 50,
        "has_played": true,
        "id": 17002574,
        "last_rank": 56035,
        "player_name": "Jake Sweet",
        "rank": 67613,
        "rank_sort": 67618,
        "total": 2341
      },
      {
        "club_badge_src": null,
        "entry": 3752187,
        "entry_name": "Ratcliffehanger",
        "event_total": 69,
        "has_played": true,
        "id": 28013894,
        "last_rank": 95406,
        "player_name": "Indy Hayre",
        "rank": 67613,
        "rank_sort": 67619,
        "total": 2341
      },
      {
        "club_badge_src": null,
        "entry": 6026478,
        "entry_name": "HaramBall",
        "event_total": 62,
        "has_played": true,
        "id": 47534442,
        "last_rank": 78958,
        "player_name": "Faris Chew",
        "rank": 67613,
        "rank_sort": 67620,
        "total": 2341
      },
      {
        "club_badge_src": null,
        "entry": 6634793,
        "entry_name": "Hurricane",
        "event_total": 57,
        "has_played": true,
        "id": 53029667,
        "last_rank": 68572,
        "player_name": "Darko Gajic",
        "rank": 67613,
        "rank_sort": 67621,
        "total": 2341
      },
      {
        "club_badge_src": null,
        "entry": 8546051,
        "entry_name": "QPR TLW",
        "event_total": 43,
        "has_played": true,
        "id": 71080377,
        "last_rank": 45126,
        "player_name": "Gavin Jones",
        "rank": 67613,
        "rank_sort": 67622,
        "total": 2341
      },
      {
        "club_badge_src": null,
        "entry": 9154987,
        "entry_name": "FC Cartagena",
        "event_total": 40,
        "has_played": true,
        "id": 76989401,
        "last_rank": 41060,
        "player_name": "Dominic Parkhill",
        "rank": 67613,
        "rank_sort": 67623,
        "total": 2341
      },
      {
        "club_badge_src": null,
        "entry": 381961,
        "entry_name": "Thweeeeee FC",
        "event_total": 57,
        "has_played": true,
        "id": 2560999,
        "last_rank": 68585,
        "player_name": "harry samuels",
        "rank": 67624,
        "rank_sort": 67624,
        "total": 2341
      },
      {
        "club_badge_src": null,
        "entry": 729711,
        "entry_name": "bim bam",
        "event_total": 57,
        "has_played": true,
        "id": 4958152,
        "last_rank": 68544,
        "player_name": "Rohan Sahasrabudhe",
        "rank": 67624,
        "rank_sort": 67625,
        "total": 2341
      },
      {
        "club_badge_src": "https://fantasy.premierleague.com/gcs/plfpl-production-adobe-approved/plfpl-production/1315499/ff12042d-0dc1-4bb3-a8a5-58380b517cd5.png",
        "entry": 1315499,
        "entry_name": "Marmushkaka",
        "event_total": 59,
        "has_played": true,
        "id": 9143385,
        "last_rank": 72662,
        "player_name": "Hayden Buston",
        "rank": 67624,
        "rank_sort": 67626,
        "total": 2341
      },
      {
        "club_badge_src": null,
        "entry": 1373832,
        "entry_name": "NickolasJacksonPratt",
        "event_total": 40,
        "has_played": true,
        "id": 9549943,
        "last_rank": 41041,
        "player_name": "Timothy Pratt",
        "rank": 67624,
        "rank_sort": 67627,
        "total": 2341
      },
      {
        "club_badge_src": null,
        "entry": 1541372,
        "entry_name": "Kinder mbuemo",
        "event_total": 51,
        "has_played": true,
        "id": 10757813,
        "last_rank": 57723,
        "player_name": "Will Blight",
        "rank": 67624,
        "rank_sort": 67628,
        "total": 2341
      },
      {
        "club_badge_src": null,
        "entry": 2498172,
        "entry_name": "Daves X1",
        "event_total": 35,
        "has_played": true,
        "id": 17886341,
        "last_rank": 34937,
        "player_name": "David Martin",
        "rank": 67624,
        "rank_sort": 67629,
        "total": 2341
      },
      {
        "club_badge_src": null,
        "entry": 3122855,
        "entry_name": "Cobra Kai",
        "event_total": 47,
        "has_played": true,
        "id": 23046050,
        "last_rank": 51112,
        "player_name": "David Lawson",
        "rank": 67624,
        "rank_sort": 67630,
        "total": 2341
      },
      {
        "club_badge_src": null,
        "entry": 3319305,
        "entry_name": "ThomasTheFrankEngine",
        "event_total": 63,
        "has_played": true,
        "id": 24598876,
        "last_rank": 81244,
        "player_name": "Callum Jackson",
        "rank": 67624,
        "rank_sort": 67631,
        "total": 2341
      },
      {
        "club_badge_src": null,
        "entry": 5420288,
        "entry_name": "Diogo Slota",
        "event_total": 37,
        "has_played": true,
        "id": 42155926,
        "last_rank": 37344,
        "player_name": "Nathan Laughlin",
        "rank": 67624,
        "rank_sort": 67632,
        "total": 2341
      },
      {
        "club_badge_src": null,
        "entry": 5905955,
        "entry_name": "Wazza XI - 2",
        "event_total": 69,
        "has_played": true,
        "id": 46404699,
        "last_rank": 95412,
        "player_name": "Stephen Thorley",
        "rank": 67624,
        "rank_sort": 67633,
        "total": 2341
      },
      {
        "club_badge_src": null,
        "entry": 5907054,
        "entry_name": "Wazza XI - 3",
        "event_total": 69,
        "has_played": true,
        "id": 46416365,
        "last_rank": 95412,
        "player_name": "Steve Thorley",
        "rank": 67624,
        "rank_sort": 67634,
        "total": 2341
      },
      {
        "club_badge_src": null,
        "entry": 6565642,
        "entry_name": "Going up",
        "event_total": 63,
        "has_played": true,
        "id": 52406356,
        "last_rank": 81244,
        "player_name": "Paul Mason",
        "rank": 67624,
        "rank_sort": 67635,
        "total": 2341
      },
      {
        "club_badge_src": null,
        "entry": 9266752,
        "entry_name": "On the Beach",
        "event_total": 55,
        "has_played": true,
        "id": 78086156,
        "last_rank": 64751,
        "player_name": "E Hartspar",
        "rank": 67624,
        "rank_sort": 67636,
        "total": 2341
      },
      {
        "club_badge_src": null,
        "entry": 20940,
        "entry_name": "Calafiori Dreamin",
        "event_total": 57,
        "has_played": true,
        "id": 131130,
        "last_rank": 68624,
        "player_name": "Elias Neubauer",
        "rank": 67637,
        "rank_sort": 67637,
        "total": 2341
      },
      {
        "club_badge_src": null,
        "entry": 414177,
        "entry_name": "WERDERBRENNAN",
        "event_total": 62,
        "has_played": true,
        "id": 2776650,
        "last_rank": 79027,
        "player_name": "Gary Brennan",
        "rank": 67637,
        "rank_sort": 67638,
        "total": 2341
      },
      {
        "club_badge_src": "https://fantasy.premierleague.com/gcs/plfpl-production-adobe-approved/plfpl-production/416348/21a2f2fc-bbf7-4061-882a-8f6e24a6b9c9.png",
        "entry": 416348,
        "entry_name": "LiveLaughLoveramento",
        "event_total": 65,
        "has_played": true,
        "id": 2791016,
        "last_rank": 85836,
        "player_name": "Liam Forrest",
        "rank": 67637,
        "rank_sort": 67639,
        "total": 2341
      },
      {
        "club_badge_src": null,
        "entry": 505752,
        "entry_name": "Darwizzy ki Dulhania",
        "event_total": 47,
        "has_played": true,
        "id": 3394580,
        "last_rank": 51137,
        "player_name": "Tanush Bhushan",
        "rank": 67637,
        "rank_sort": 67640,
        "total": 2341
      },
      {
        "club_badge_src": null,
        "entry": 897633,
        "entry_name": "You Must Be Gy\u00f6king",
        "event_total": 67,
        "has_played": true,
        "id": 6167255,
        "last_rank": 90524,
        "player_name": "Tommie Arpin",
        "rank": 67637,
        "rank_sort": 67641,
        "total": 2341
      },
      {
        "club_badge_src": null,
        "entry": 1339008,
        "entry_name": "deepcar jetsetters",
        "event_total": 49,
        "has_played": true,
        "id": 9309626,
        "last_rank": 54380,
        "player_name": "Kevan Key",
        "rank": 67637,
        "rank_sort": 67642,
        "total": 2341
      },
      {
        "club_badge_src": null,
        "entry": 1460257,
        "entry_name": "General John Stones",
        "event_total": 56,
        "has_played": true,
        "id": 10178704,
        "last_rank": 66693,
        "player_name": "Adam Gray",
        "rank": 67637,
        "rank_sort": 67643,
        "total": 2341
      },
      {
        "club_badge_src": null,
        "entry": 2678850,
        "entry_name": "Norgren Boys2.0",
        "event_total": 55,
        "has_played": true,
        "id": 19266210,
        "last_rank": 64830,
        "player_name": "Axel Norgren",
        "rank": 67637,
        "rank_sort": 67644,
        "total": 2341
      },
      {
        "club_badge_src": null,
        "entry": 4090271,
        "entry_name": "Subbuteo Allstars",
        "event_total": 65,
        "has_played": true,
        "id": 30881810,
        "last_rank": 85932,
        "player_name": "Dave Harrison",
        "rank": 67637,
        "rank_sort": 67645,
        "total": 2341
      },
      {
        "club_badge_src": null,
        "entry": 4092774,
        "entry_name": "sma\u017e\u00e1k v housce",
        "event_total": 52,
        "has_played": true,
        "id": 30901749,
        "last_rank": 59535,
        "player_name": "Filip Bobok",
        "rank": 67637,
        "rank_sort": 67646,
        "total": 2341
      },
      {
        "club_badge_src": null,
        "entry": 4341486,
        "entry_name": "PayPal for points",
        "event_total": 42,
        "has_played": true,
        "id": 32964115,
        "last_rank": 43786,
        "player_name": "Jared Jackson",
        "rank": 67637,
        "rank_sort": 67647,
        "total": 2341
      },
      {
        "club_badge_src": null,
        "entry": 4370233,
        "entry_name": "EarthWind&Maguire",
        "event_total": 50,
        "has_played": true,
        "id": 33200937,
        "last_rank": 56099,
        "player_name": "Reece Allman",
        "rank": 67637,
        "rank_sort": 67648,
        "total": 2341
      },
      {
        "club_badge_src": null,
        "entry": 4386829,
        "entry_name": "RED Gladiators",
        "event_total": 61,
        "has_played": true,
        "id": 33345477,
        "last_rank": 76947,
        "player_name": "Sai Aashish",
        "rank": 67637,
        "rank_sort": 67649,
        "total": 2341
      },
      {
        "club_badge_src": null,
        "entry": 4411280,
        "entry_name": "Kudus to you my Son",
        "event_total": 56,
        "has_played": true,
        "id": 33557012,
        "last_rank": 66658,
        "player_name": "Kev Whitta",
        "rank": 67637,
        "rank_sort": 67650,
        "total": 2341
      }
    ]
  }
}