{
  "last_updated_data": "2026-05-24T23:28:17Z",
  "league": {
    "admin_entry": null,
    "closed": false,
    "code_privacy": "p",
    "created": "2025-07-20T23:14:33.933835Z",
    "cup_league": 2815434,
    "has_cup": true,
    "id": 314,
    "league_type": "s",
    "max_entries": null,
    "name": "Overall",
    "rank": null,
    "scoring": "c",
    "start_event": 1
  },
  "new_entries": {
    "has_next": false,
    "page": 1,
    "results": []
  },
  "standings": {
    "has_next": true,
    "page": 113,
    "results": [
      {
        "club_badge_src": null,
        "entry": 9276527,
        "entry_name": "BlackSheep",
        "event_total": 73,
        "has_played": true,
        "id": 78182330,
        "last_rank": 10253,
        "player_name": "Ahad Karim",
        "rank": 5530,
        "rank_sort": 5601,
        "total": 2412
      },
      {
        "club_badge_src": "https://fantasy.premierleague.com/gcs/plfpl-production-adobe-approved/plfpl-production/9456975/f39b92fe-796a-4b16-8d54-137c561c315f.png",
        "entry": 9456975,
        "entry_name": "HIFYR FC",
        "event_total": 60,
        "has_played": true,
        "id": 79913288,
        "last_rank": 5904,
        "player_name": "Jo\u00e3o Costa",
        "rank": 5530,
        "rank_sort": 5602,
        "total": 2412
      },
      {
        "club_badge_src": null,
        "entry": 5047,
        "entry_name": "Joe",
        "event_total": 66,
        "has_played": true,
        "id": 28745,
        "last_rank": 6448,
        "player_name": "Youssef Hesham",
        "rank": 5603,
        "rank_sort": 5603,
        "total": 2412
      },
      {
        "club_badge_src": "https://fantasy.premierleague.com/gcs/plfpl-production-adobe-approved/plfpl-production/6703/34dd3ec6-6609-4d63-8d0d-11621b5ed531.png",
        "entry": 6703,
        "entry_name": "El Salesagya",
        "event_total": 66,
        "has_played": true,
        "id": 38523,
        "last_rank": 7676,
        "player_name": "Beshoy Adeeb Zaitoun",
        "rank": 5603,
        "rank_sort": 5604,
        "total": 2412
      },
      {
        "club_badge_src": null,
        "entry": 9201,
        "entry_name": "mentosibo",
        "event_total": 59,
        "has_played": true,
        "id": 53992,
        "last_rank": 4742,
        "player_name": "ibrahim Tosyal\u0131",
        "rank": 5603,
        "rank_sort": 5605,
        "total": 2412
      },
      {
        "club_badge_src": null,
        "entry": 11309,
        "entry_name": "Fimbu FC",
        "event_total": 67,
        "has_played": true,
        "id": 67170,
        "last_rank": 8032,
        "player_name": "The Boys",
        "rank": 5603,
        "rank_sort": 5606,
        "total": 2412
      },
      {
        "club_badge_src": null,
        "entry": 14385,
        "entry_name": "CF LODEM",
        "event_total": 55,
        "has_played": true,
        "id": 87338,
        "last_rank": 3902,
        "player_name": "Mansanhame Laloo",
        "rank": 5603,
        "rank_sort": 5607,
        "total": 2412
      },
      {
        "club_badge_src": null,
        "entry": 34881,
        "entry_name": "To the Viktor",
        "event_total": 28,
        "has_played": true,
        "id": 223041,
        "last_rank": 1240,
        "player_name": "John Bruce",
        "rank": 5603,
        "rank_sort": 5608,
        "total": 2412
      },
      {
        "club_badge_src": null,
        "entry": 59384,
        "entry_name": "lallana Rhodes",
        "event_total": 56,
        "has_played": true,
        "id": 382442,
        "last_rank": 5053,
        "player_name": "Omar Yakub",
        "rank": 5603,
        "rank_sort": 5609,
        "total": 2412
      },
      {
        "club_badge_src": null,
        "entry": 70125,
        "entry_name": "magnificent nelli",
        "event_total": 80,
        "has_played": true,
        "id": 455205,
        "last_rank": 13720,
        "player_name": "Louis butler",
        "rank": 5603,
        "rank_sort": 5610,
        "total": 2412
      },
      {
        "club_badge_src": null,
        "entry": 81561,
        "entry_name": "Sonny007",
        "event_total": 51,
        "has_played": true,
        "id": 530593,
        "last_rank": 3902,
        "player_name": "Natchanon Chalermthanachaikul",
        "rank": 5603,
        "rank_sort": 5611,
        "total": 2412
      },
      {
        "club_badge_src": null,
        "entry": 85703,
        "entry_name": "Jota Forever",
        "event_total": 48,
        "has_played": true,
        "id": 558277,
        "last_rank": 3382,
        "player_name": "Sharan Sudharshan",
        "rank": 5603,
        "rank_sort": 5612,
        "total": 2412
      },
      {
        "club_badge_src": null,
        "entry": 127641,
        "entry_name": "\u041c\u0423\u0422\u0420\u0418\u041d\u041e",
        "event_total": 52,
        "has_played": true,
        "id": 832071,
        "last_rank": 4099,
        "player_name": "\u0426\u0432\u0435\u0442\u043e\u0441\u043b\u0430\u0432 \u041d\u0438\u043a\u043e\u043b\u043e\u0432",
        "rank": 5603,
        "rank_sort": 5613,
        "total": 2412
      },
      {
        "club_badge_src": null,
        "entry": 129381,
        "entry_name": "TruthWirtzOliseWorse",
        "event_total": 57,
        "has_played": true,
        "id": 843280,
        "last_rank": 5241,
        "player_name": "Tom Summerbell",
        "rank": 5603,
        "rank_sort": 5614,
        "total": 2412
      },
      {
        "club_badge_src": null,
        "entry": 132623,
        "entry_name": "Hammer Time",
        "event_total": 56,
        "has_played": true,
        "id": 863886,
        "last_rank": 4099,
        "player_name": "Aaron Vistr\u00f6m",
        "rank": 5603,
        "rank_sort": 5615,
        "total": 2412
      },
      {
        "club_badge_src": null,
        "entry": 171248,
        "entry_name": "Renegades of Dunk",
        "event_total": 67,
        "has_played": true,
        "id": 1131333,
        "last_rank": 8032,
        "player_name": "- -",
        "rank": 5603,
        "rank_sort": 5616,
        "total": 2412
      },
      {
        "club_badge_src": null,
        "entry": 191115,
        "entry_name": "DEFCON FUBAR",
        "event_total": 52,
        "has_played": true,
        "id": 1265753,
        "last_rank": 4062,
        "player_name": "Mark Welberry",
        "rank": 5603,
        "rank_sort": 5617,
        "total": 2412
      },
      {
        "club_badge_src": "https://fantasy.premierleague.com/gcs/plfpl-production-adobe-approved/plfpl-production/207641/25b0bb2a-02d9-4157-9e1f-cb8849abf2ba.png",
        "entry": 207641,
        "entry_name": "Insidious",
        "event_total": 66,
        "has_played": true,
        "id": 1380242,
        "last_rank": 7761,
        "player_name": "Okeke Kenechukwu",
        "rank": 5603,
        "rank_sort": 5618,
        "total": 2412
      },
      {
        "club_badge_src": null,
        "entry": 242613,
        "entry_name": "Al-Liverpool FC",
        "event_total": 75,
        "has_played": true,
        "id": 1615274,
        "last_rank": 11237,
        "player_name": "BpluS Bou",
        "rank": 5603,
        "rank_sort": 5619,
        "total": 2412
      },
      {
        "club_badge_src": null,
        "entry": 260312,
        "entry_name": "MCH London FC",
        "event_total": 68,
        "has_played": true,
        "id": 1730554,
        "last_rank": 8484,
        "player_name": "Mark Howarth",
        "rank": 5603,
        "rank_sort": 5620,
        "total": 2412
      },
      {
        "club_badge_src": null,
        "entry": 369779,
        "entry_name": "Justgivemedeligt",
        "event_total": 60,
        "has_played": true,
        "id": 2474355,
        "last_rank": 6011,
        "player_name": "Corey Wade",
        "rank": 5603,
        "rank_sort": 5621,
        "total": 2412
      },
      {
        "club_badge_src": null,
        "entry": 477900,
        "entry_name": "Kinder Mbeumo",
        "event_total": 55,
        "has_played": true,
        "id": 3208317,
        "last_rank": 4839,
        "player_name": "Charlie Gillett",
        "rank": 5603,
        "rank_sort": 5622,
        "total": 2412
      },
      {
        "club_badge_src": null,
        "entry": 488387,
        "entry_name": "FIGC Italia",
        "event_total": 71,
        "has_played": true,
        "id": 3278595,
        "last_rank": 8032,
        "player_name": "Fabio Finetti",
        "rank": 5603,
        "rank_sort": 5623,
        "total": 2412
      },
      {
        "club_badge_src": null,
        "entry": 810303,
        "entry_name": "Fc Barcelona",
        "event_total": 79,
        "has_played": true,
        "id": 5547926,
        "last_rank": 13257,
        "player_name": "Isselmou Prince",
        "rank": 5603,
        "rank_sort": 5624,
        "total": 2412
      },
      {
        "club_badge_src": null,
        "entry": 1266172,
        "entry_name": "Change Name",
        "event_total": 51,
        "has_played": true,
        "id": 8797566,
        "last_rank": 3951,
        "player_name": "Joe Wilson",
        "rank": 5603,
        "rank_sort": 5625,
        "total": 2412
      },
      {
        "club_badge_src": null,
        "entry": 1289015,
        "entry_name": "Struijk of Genius",
        "event_total": 50,
        "has_played": true,
        "id": 8957084,
        "last_rank": 3765,
        "player_name": "James Janney",
        "rank": 5603,
        "rank_sort": 5626,
        "total": 2412
      },
      {
        "club_badge_src": null,
        "entry": 1298356,
        "entry_name": "Merthyr Casuals",
        "event_total": 67,
        "has_played": true,
        "id": 9023613,
        "last_rank": 8032,
        "player_name": "David Long",
        "rank": 5603,
        "rank_sort": 5627,
        "total": 2412
      },
      {
        "club_badge_src": null,
        "entry": 1336796,
        "entry_name": "BBBBBOWLING",
        "event_total": 68,
        "has_played": true,
        "id": 9292175,
        "last_rank": 7059,
        "player_name": "Niel Vanden Berghe",
        "rank": 5603,
        "rank_sort": 5628,
        "total": 2412
      },
      {
        "club_badge_src": null,
        "entry": 1372119,
        "entry_name": "Palmergeddon",
        "event_total": 74,
        "has_played": true,
        "id": 9538186,
        "last_rank": 10748,
        "player_name": "Carlo Pruscino",
        "rank": 5603,
        "rank_sort": 5629,
        "total": 2412
      },
      {
        "club_badge_src": null,
        "entry": 1396371,
        "entry_name": "Rulz Fc",
        "event_total": 50,
        "has_played": true,
        "id": 9714544,
        "last_rank": 3796,
        "player_name": "Ruhul Alom",
        "rank": 5603,
        "rank_sort": 5630,
        "total": 2412
      },
      {
        "club_badge_src": null,
        "entry": 1397238,
        "entry_name": "AGENCIJA \u017dAKULA",
        "event_total": 64,
        "has_played": true,
        "id": 9720650,
        "last_rank": 7059,
        "player_name": "Oleg \u017dakula",
        "rank": 5603,
        "rank_sort": 5631,
        "total": 2412
      },
      {
        "club_badge_src": null,
        "entry": 1502621,
        "entry_name": "Team Tard",
        "event_total": 62,
        "has_played": true,
        "id": 10479220,
        "last_rank": 5448,
        "player_name": "Mads Smith Hansen",
        "rank": 5603,
        "rank_sort": 5632,
        "total": 2412
      },
      {
        "club_badge_src": null,
        "entry": 1521455,
        "entry_name": "AllWhites",
        "event_total": 56,
        "has_played": true,
        "id": 10611753,
        "last_rank": 4099,
        "player_name": "Paul Brosnan",
        "rank": 5603,
        "rank_sort": 5633,
        "total": 2412
      },
      {
        "club_badge_src": null,
        "entry": 1899321,
        "entry_name": "DLBIA",
        "event_total": 53,
        "has_played": true,
        "id": 13388455,
        "last_rank": 4358,
        "player_name": "Aaron Bruce",
        "rank": 5603,
        "rank_sort": 5634,
        "total": 2412
      },
      {
        "club_badge_src": null,
        "entry": 2107156,
        "entry_name": "Hillmans Heroes CC",
        "event_total": 73,
        "has_played": true,
        "id": 14954387,
        "last_rank": 10462,
        "player_name": "William Hillman",
        "rank": 5603,
        "rank_sort": 5635,
        "total": 2412
      },
      {
        "club_badge_src": null,
        "entry": 2241991,
        "entry_name": "We're Simply Da Best",
        "event_total": 64,
        "has_played": true,
        "id": 15972629,
        "last_rank": 7059,
        "player_name": "Kuhle Matela",
        "rank": 5603,
        "rank_sort": 5636,
        "total": 2412
      },
      {
        "club_badge_src": null,
        "entry": 2246918,
        "entry_name": "Rubber Digne Rapids",
        "event_total": 48,
        "has_played": true,
        "id": 16008774,
        "last_rank": 3442,
        "player_name": "Graeme Smith",
        "rank": 5603,
        "rank_sort": 5637,
        "total": 2412
      },
      {
        "club_badge_src": null,
        "entry": 2437542,
        "entry_name": "Zryw Krasna FC",
        "event_total": 70,
        "has_played": true,
        "id": 17431599,
        "last_rank": 9142,
        "player_name": "Mateusz Ceglarz",
        "rank": 5603,
        "rank_sort": 5638,
        "total": 2412
      },
      {
        "club_badge_src": null,
        "entry": 3311988,
        "entry_name": "FPL HARYAD",
        "event_total": 62,
        "has_played": true,
        "id": 24538358,
        "last_rank": 5448,
        "player_name": "Haryad Kamaran",
        "rank": 5603,
        "rank_sort": 5639,
        "total": 2412
      },
      {
        "club_badge_src": null,
        "entry": 3329808,
        "entry_name": "Braids",
        "event_total": 56,
        "has_played": true,
        "id": 24687980,
        "last_rank": 5053,
        "player_name": "Bradon Williams",
        "rank": 5603,
        "rank_sort": 5640,
        "total": 2412
      },
      {
        "club_badge_src": null,
        "entry": 3340175,
        "entry_name": "Silent Killer",
        "event_total": 75,
        "has_played": true,
        "id": 24774217,
        "last_rank": 9484,
        "player_name": "Silent Killer",
        "rank": 5603,
        "rank_sort": 5641,
        "total": 2412
      },
      {
        "club_badge_src": null,
        "entry": 3581009,
        "entry_name": "Machine Gun Skelly",
        "event_total": 62,
        "has_played": true,
        "id": 26667054,
        "last_rank": 6579,
        "player_name": "Michael Reekie",
        "rank": 5603,
        "rank_sort": 5642,
        "total": 2412
      },
      {
        "club_badge_src": null,
        "entry": 4257895,
        "entry_name": "Pep Roulette",
        "event_total": 63,
        "has_played": true,
        "id": 32281278,
        "last_rank": 6839,
        "player_name": "Neil G",
        "rank": 5603,
        "rank_sort": 5643,
        "total": 2412
      },
      {
        "club_badge_src": null,
        "entry": 4392689,
        "entry_name": "Mo Salah Mo Points",
        "event_total": 67,
        "has_played": true,
        "id": 33394804,
        "last_rank": 8138,
        "player_name": "Taufiq Nazri",
        "rank": 5603,
        "rank_sort": 5644,
        "total": 2412
      },
      {
        "club_badge_src": null,
        "entry": 5216429,
        "entry_name": "Yoro wizard Harry",
        "event_total": 55,
        "has_played": true,
        "id": 40413573,
        "last_rank": 4804,
        "player_name": "Ahmad Heiba",
        "rank": 5603,
        "rank_sort": 5645,
        "total": 2412
      },
      {
        "club_badge_src": null,
        "entry": 5541129,
        "entry_name": "WakeMeUpBeforeKyogo",
        "event_total": 40,
        "has_played": true,
        "id": 43237289,
        "last_rank": 2328,
        "player_name": "Christian McArdle",
        "rank": 5603,
        "rank_sort": 5646,
        "total": 2412
      },
      {
        "club_badge_src": null,
        "entry": 5548987,
        "entry_name": "Lee FC",
        "event_total": 72,
        "has_played": true,
        "id": 43306266,
        "last_rank": 9885,
        "player_name": "Leenane Makurumure",
        "rank": 5603,
        "rank_sort": 5647,
        "total": 2412
      },
      {
        "club_badge_src": null,
        "entry": 5704834,
        "entry_name": "Hemingway FC",
        "event_total": 49,
        "has_played": true,
        "id": 44669023,
        "last_rank": 3528,
        "player_name": "Melvin Hemmingsson",
        "rank": 5603,
        "rank_sort": 5648,
        "total": 2412
      },
      {
        "club_badge_src": null,
        "entry": 6192442,
        "entry_name": "Balsam Boys",
        "event_total": 65,
        "has_played": true,
        "id": 48980271,
        "last_rank": 7375,
        "player_name": "Oskar du Rietz",
        "rank": 5603,
        "rank_sort": 5649,
        "total": 2412
      },
      {
        "club_badge_src": null,
        "entry": 6868131,
        "entry_name": "Big Fellas",
        "event_total": 62,
        "has_played": true,
        "id": 55034273,
        "last_rank": 6448,
        "player_name": "Hiren Patel",
        "rank": 5603,
        "rank_sort": 5650,
        "total": 2412
      }
    ]
  }
}