{
  "last_updated_data": "2026-05-24T23:28:17Z",
  "league": {
    "admin_entry": null,
    "closed": false,
    "code_privacy": "p",
    "created": "2025-07-20T23:14:33.933835Z",
    "cup_league": 2815434,
    "has_cup": true,
    "id": 314,
    "league_type": "s",
    "max_entries": null,
    "name": "Overall",
    "rank": null,
    "scoring": "c",
    "start_event": 1
  },
  "new_entries": {
    "has_next": false,
    "page": 1,
    "results": []
  },
  "standings": {
    "has_next": true,
    "page": 437,
    "results": [
      {
        "club_badge_src": null,
        "entry": 7138242,
        "entry_name": "Lallana Del Rey",
        "event_total": 62,
        "has_played": true,
        "id": 57538800,
        "last_rank": 25172,
        "player_name": "Luke Vella",
        "rank": 21739,
        "rank_sort": 21801,
        "total": 2378
      },
      {
        "club_badge_src": null,
        "entry": 9183,
        "entry_name": "Rigobert's Thong",
        "event_total": 66,
        "has_played": true,
        "id": 53889,
        "last_rank": 29279,
        "player_name": "James Allard",
        "rank": 21802,
        "rank_sort": 21802,
        "total": 2378
      },
      {
        "club_badge_src": "https://fantasy.premierleague.com/gcs/plfpl-production-adobe-approved/plfpl-production/21335/0eee33a5-5b47-4675-a702-d3f80a32ede9.png",
        "entry": 21335,
        "entry_name": "Never in Doughty",
        "event_total": 52,
        "has_played": true,
        "id": 133752,
        "last_rank": 15226,
        "player_name": "Jake Higgins",
        "rank": 21802,
        "rank_sort": 21803,
        "total": 2378
      },
      {
        "club_badge_src": null,
        "entry": 24944,
        "entry_name": "Pathetico Madrid",
        "event_total": 56,
        "has_played": true,
        "id": 157621,
        "last_rank": 17718,
        "player_name": "Tom Knapp",
        "rank": 21802,
        "rank_sort": 21804,
        "total": 2378
      },
      {
        "club_badge_src": null,
        "entry": 31732,
        "entry_name": "Sheed Squad",
        "event_total": 59,
        "has_played": true,
        "id": 201349,
        "last_rank": 22996,
        "player_name": "Stevan Veljkovic",
        "rank": 21802,
        "rank_sort": 21805,
        "total": 2378
      },
      {
        "club_badge_src": null,
        "entry": 39052,
        "entry_name": "CoronaExtra",
        "event_total": 41,
        "has_played": true,
        "id": 250317,
        "last_rank": 8198,
        "player_name": "Ivan Larkin",
        "rank": 21802,
        "rank_sort": 21806,
        "total": 2378
      },
      {
        "club_badge_src": "https://fantasy.premierleague.com/gcs/plfpl-production-adobe-approved/plfpl-production/54346/4da1c7ea-df19-4ae9-bf07-e8e279efd29a.png",
        "entry": 54346,
        "entry_name": "Mind The Gap",
        "event_total": 67,
        "has_played": true,
        "id": 349782,
        "last_rank": 26345,
        "player_name": "Thahmid Ahmed",
        "rank": 21802,
        "rank_sort": 21807,
        "total": 2378
      },
      {
        "club_badge_src": "https://fantasy.premierleague.com/gcs/plfpl-production-adobe-approved/plfpl-production/60985/f9efbc88-7acc-48a0-b4fb-37aed58d6bb7.png",
        "entry": 60985,
        "entry_name": "GoGo Power Reijnders",
        "event_total": 57,
        "has_played": true,
        "id": 392679,
        "last_rank": 21392,
        "player_name": "Gavin Smith",
        "rank": 21802,
        "rank_sort": 21808,
        "total": 2378
      },
      {
        "club_badge_src": null,
        "entry": 73261,
        "entry_name": "De Zoontjes",
        "event_total": 61,
        "has_played": true,
        "id": 476187,
        "last_rank": 21392,
        "player_name": "Rafael Stoffels",
        "rank": 21802,
        "rank_sort": 21809,
        "total": 2378
      },
      {
        "club_badge_src": "https://fantasy.premierleague.com/gcs/plfpl-production-adobe-approved/plfpl-production/104289/4d7e5691-239b-4505-af50-43042bb9c1f5.png",
        "entry": 104289,
        "entry_name": "oqposite",
        "event_total": 60,
        "has_played": true,
        "id": 680358,
        "last_rank": 23748,
        "player_name": "sml sanya",
        "rank": 21802,
        "rank_sort": 21810,
        "total": 2378
      },
      {
        "club_badge_src": null,
        "entry": 106827,
        "entry_name": "Millsy",
        "event_total": 50,
        "has_played": true,
        "id": 696506,
        "last_rank": 16567,
        "player_name": "Brian Mills",
        "rank": 21802,
        "rank_sort": 21811,
        "total": 2378
      },
      {
        "club_badge_src": "https://fantasy.premierleague.com/gcs/plfpl-production-adobe-approved/plfpl-production/163853/f438ee4b-07bb-4178-91bc-385951394088.png",
        "entry": 163853,
        "entry_name": "Stranger Things 5",
        "event_total": 80,
        "has_played": true,
        "id": 1081014,
        "last_rank": 46106,
        "player_name": "Firmansyah Firmansyah",
        "rank": 21802,
        "rank_sort": 21812,
        "total": 2378
      },
      {
        "club_badge_src": null,
        "entry": 184821,
        "entry_name": "Kai Hard 2",
        "event_total": 68,
        "has_played": true,
        "id": 1220570,
        "last_rank": 31236,
        "player_name": "Mark Mitton",
        "rank": 21802,
        "rank_sort": 21813,
        "total": 2378
      },
      {
        "club_badge_src": null,
        "entry": 227448,
        "entry_name": "The Neville You Know",
        "event_total": 61,
        "has_played": true,
        "id": 1512939,
        "last_rank": 24570,
        "player_name": "Dan Cockram",
        "rank": 21802,
        "rank_sort": 21814,
        "total": 2378
      },
      {
        "club_badge_src": null,
        "entry": 317197,
        "entry_name": "qwerty123456",
        "event_total": 65,
        "has_played": true,
        "id": 2126144,
        "last_rank": 24475,
        "player_name": "Milo\u0161 Delevi\u0107",
        "rank": 21802,
        "rank_sort": 21815,
        "total": 2378
      },
      {
        "club_badge_src": null,
        "entry": 440199,
        "entry_name": "Yakroo _OZ",
        "event_total": 48,
        "has_played": true,
        "id": 2951645,
        "last_rank": 15280,
        "player_name": "Tenzing Gurung",
        "rank": 21802,
        "rank_sort": 21816,
        "total": 2378
      },
      {
        "club_badge_src": null,
        "entry": 519581,
        "entry_name": "Big Mac-guire",
        "event_total": 64,
        "has_played": true,
        "id": 3488790,
        "last_rank": 20538,
        "player_name": "Linus Prelog",
        "rank": 21802,
        "rank_sort": 21817,
        "total": 2378
      },
      {
        "club_badge_src": "https://fantasy.premierleague.com/gcs/plfpl-production-adobe-approved/plfpl-production/564655/f8099a08-46e9-49b5-8f91-33b7b0c096fb.png",
        "entry": 564655,
        "entry_name": "Jeb strike back UTD",
        "event_total": 60,
        "has_played": true,
        "id": 3800709,
        "last_rank": 23748,
        "player_name": "Pongsakorn Rungchamrussopa",
        "rank": 21802,
        "rank_sort": 21818,
        "total": 2378
      },
      {
        "club_badge_src": null,
        "entry": 577186,
        "entry_name": "Ctrl Alt DeLigt",
        "event_total": 67,
        "has_played": true,
        "id": 3883822,
        "last_rank": 22830,
        "player_name": "Dylan Costello",
        "rank": 21802,
        "rank_sort": 21819,
        "total": 2378
      },
      {
        "club_badge_src": "https://fantasy.premierleague.com/gcs/plfpl-production-adobe-approved/plfpl-production/616097/37ce0b3f-d8eb-41c7-ae28-82b3188a52c3.png",
        "entry": 616097,
        "entry_name": "Rycerze Ortalionu",
        "event_total": 56,
        "has_played": true,
        "id": 4162906,
        "last_rank": 20678,
        "player_name": "Marcin Ferek",
        "rank": 21802,
        "rank_sort": 21820,
        "total": 2378
      },
      {
        "club_badge_src": null,
        "entry": 699011,
        "entry_name": "Lucky FC",
        "event_total": 76,
        "has_played": true,
        "id": 4735351,
        "last_rank": 31125,
        "player_name": "Ibrahim Yusuf",
        "rank": 21802,
        "rank_sort": 21821,
        "total": 2378
      },
      {
        "club_badge_src": null,
        "entry": 718708,
        "entry_name": "CRUSADERS",
        "event_total": 71,
        "has_played": true,
        "id": 4877520,
        "last_rank": 30191,
        "player_name": "Tony Filipczak",
        "rank": 21802,
        "rank_sort": 21822,
        "total": 2378
      },
      {
        "club_badge_src": null,
        "entry": 839050,
        "entry_name": "Choyboyz",
        "event_total": 68,
        "has_played": true,
        "id": 5748715,
        "last_rank": 31236,
        "player_name": "Peter Choy",
        "rank": 21802,
        "rank_sort": 21823,
        "total": 2378
      },
      {
        "club_badge_src": null,
        "entry": 992331,
        "entry_name": "Mohamed eid",
        "event_total": 64,
        "has_played": true,
        "id": 6843696,
        "last_rank": 23748,
        "player_name": "Mohameed Eid",
        "rank": 21802,
        "rank_sort": 21824,
        "total": 2378
      },
      {
        "club_badge_src": "https://fantasy.premierleague.com/gcs/plfpl-production-adobe-approved/plfpl-production/1019421/085ade30-d579-459e-8dd7-c62d87161fa1.png",
        "entry": 1019421,
        "entry_name": "\u0645\u064f\u0647\u0646\u062f\u0633",
        "event_total": 52,
        "has_played": true,
        "id": 7052783,
        "last_rank": 17878,
        "player_name": "Eng Shreefmostafa",
        "rank": 21802,
        "rank_sort": 21825,
        "total": 2378
      },
      {
        "club_badge_src": null,
        "entry": 1103785,
        "entry_name": "Rice Rice Baby",
        "event_total": 65,
        "has_played": true,
        "id": 7645573,
        "last_rank": 24570,
        "player_name": "Tim Palmer",
        "rank": 21802,
        "rank_sort": 21826,
        "total": 2378
      },
      {
        "club_badge_src": null,
        "entry": 1638878,
        "entry_name": "Fitzys 15",
        "event_total": 54,
        "has_played": true,
        "id": 11471737,
        "last_rank": 19237,
        "player_name": "Ian Fitzgerald",
        "rank": 21802,
        "rank_sort": 21827,
        "total": 2378
      },
      {
        "club_badge_src": "https://fantasy.premierleague.com/gcs/plfpl-production-adobe-approved/plfpl-production/1737995/65139de9-4d74-40d4-8fe2-da8b7d626a48.png",
        "entry": 1737995,
        "entry_name": "Wirtz Case Scenario",
        "event_total": 73,
        "has_played": true,
        "id": 12193201,
        "last_rank": 32335,
        "player_name": "Keith MacLennan",
        "rank": 21802,
        "rank_sort": 21828,
        "total": 2378
      },
      {
        "club_badge_src": null,
        "entry": 1935317,
        "entry_name": "hathlol",
        "event_total": 56,
        "has_played": true,
        "id": 13649959,
        "last_rank": 20678,
        "player_name": "Hathelool Alhathelool",
        "rank": 21802,
        "rank_sort": 21829,
        "total": 2378
      },
      {
        "club_badge_src": null,
        "entry": 2387414,
        "entry_name": "mole",
        "event_total": 63,
        "has_played": true,
        "id": 17052369,
        "last_rank": 22921,
        "player_name": "Tom Roberts",
        "rank": 21802,
        "rank_sort": 21830,
        "total": 2378
      },
      {
        "club_badge_src": null,
        "entry": 2456475,
        "entry_name": "Sky Blues",
        "event_total": 67,
        "has_played": true,
        "id": 17570255,
        "last_rank": 26345,
        "player_name": "Mario Paunov",
        "rank": 21802,
        "rank_sort": 21831,
        "total": 2378
      },
      {
        "club_badge_src": null,
        "entry": 2471230,
        "entry_name": "SpecialOnes",
        "event_total": 65,
        "has_played": true,
        "id": 17678952,
        "last_rank": 24475,
        "player_name": "Joao Quaresma",
        "rank": 21802,
        "rank_sort": 21832,
        "total": 2378
      },
      {
        "club_badge_src": null,
        "entry": 2807580,
        "entry_name": "Laukaku IL",
        "event_total": 69,
        "has_played": true,
        "id": 20505065,
        "last_rank": 32335,
        "player_name": "tor h\u00e5kon sveen",
        "rank": 21802,
        "rank_sort": 21833,
        "total": 2378
      },
      {
        "club_badge_src": "https://fantasy.premierleague.com/gcs/plfpl-production-adobe-approved/plfpl-production/2889974/2c857f61-b2e6-429b-8ce9-860fefd3c075.png",
        "entry": 2889974,
        "entry_name": "Jay's Dream Team",
        "event_total": 56,
        "has_played": true,
        "id": 21160225,
        "last_rank": 20624,
        "player_name": "jay byrne",
        "rank": 21802,
        "rank_sort": 21834,
        "total": 2378
      },
      {
        "club_badge_src": null,
        "entry": 2980080,
        "entry_name": "Valley Pinx",
        "event_total": 48,
        "has_played": true,
        "id": 21910290,
        "last_rank": 15280,
        "player_name": "Gregory Warran",
        "rank": 21802,
        "rank_sort": 21835,
        "total": 2378
      },
      {
        "club_badge_src": null,
        "entry": 3247411,
        "entry_name": "Cunha Dig It?",
        "event_total": 53,
        "has_played": true,
        "id": 24024638,
        "last_rank": 15876,
        "player_name": "Harry Steane",
        "rank": 21802,
        "rank_sort": 21836,
        "total": 2378
      },
      {
        "club_badge_src": null,
        "entry": 3578039,
        "entry_name": "Dobre Ch\u0142opaki",
        "event_total": 71,
        "has_played": true,
        "id": 26644026,
        "last_rank": 30060,
        "player_name": "Lukasz Kwiatkowski",
        "rank": 21802,
        "rank_sort": 21837,
        "total": 2378
      },
      {
        "club_badge_src": "https://fantasy.premierleague.com/gcs/plfpl-production-adobe-approved/plfpl-production/3890890/022e71cf-7723-4965-9c97-8556fdc45f8a.png",
        "entry": 3890890,
        "entry_name": "Sheikh|Shak|de|room!",
        "event_total": 70,
        "has_played": true,
        "id": 29239245,
        "last_rank": 33483,
        "player_name": "Shakeel Rashid",
        "rank": 21802,
        "rank_sort": 21838,
        "total": 2378
      },
      {
        "club_badge_src": null,
        "entry": 4559974,
        "entry_name": "Pardew",
        "event_total": 68,
        "has_played": true,
        "id": 34795635,
        "last_rank": 27304,
        "player_name": "Kritin Thapar",
        "rank": 21802,
        "rank_sort": 21839,
        "total": 2378
      },
      {
        "club_badge_src": null,
        "entry": 4565715,
        "entry_name": "thecrom",
        "event_total": 64,
        "has_played": true,
        "id": 34841618,
        "last_rank": 27364,
        "player_name": "Kein Chai",
        "rank": 21802,
        "rank_sort": 21840,
        "total": 2378
      },
      {
        "club_badge_src": null,
        "entry": 4653118,
        "entry_name": "Oor Wullie Wanderers",
        "event_total": 67,
        "has_played": true,
        "id": 35602929,
        "last_rank": 30276,
        "player_name": "Al Cowie",
        "rank": 21802,
        "rank_sort": 21841,
        "total": 2378
      },
      {
        "club_badge_src": "https://fantasy.premierleague.com/gcs/plfpl-production-adobe-approved/plfpl-production/5810191/bb031469-bf1c-4763-9529-9961eb558ba8.png",
        "entry": 5810191,
        "entry_name": "Mean Machine",
        "event_total": 51,
        "has_played": true,
        "id": 45587935,
        "last_rank": 17194,
        "player_name": "Jonathan Y",
        "rank": 21802,
        "rank_sort": 21842,
        "total": 2378
      },
      {
        "club_badge_src": null,
        "entry": 5856029,
        "entry_name": "Mr. Alibaba",
        "event_total": 72,
        "has_played": true,
        "id": 45981018,
        "last_rank": 35619,
        "player_name": "Alex Porto",
        "rank": 21802,
        "rank_sort": 21843,
        "total": 2378
      },
      {
        "club_badge_src": null,
        "entry": 5960347,
        "entry_name": "Axel F",
        "event_total": 64,
        "has_played": true,
        "id": 46890664,
        "last_rank": 27364,
        "player_name": "Manoj Jadeja",
        "rank": 21802,
        "rank_sort": 21844,
        "total": 2378
      },
      {
        "club_badge_src": null,
        "entry": 6062767,
        "entry_name": "It Wirtz when I pee",
        "event_total": 46,
        "has_played": true,
        "id": 47850386,
        "last_rank": 14171,
        "player_name": "Will Green",
        "rank": 21802,
        "rank_sort": 21845,
        "total": 2378
      },
      {
        "club_badge_src": null,
        "entry": 6236829,
        "entry_name": "Livin' Saliba Loca",
        "event_total": 69,
        "has_played": true,
        "id": 49361770,
        "last_rank": 32335,
        "player_name": "Euan Munford",
        "rank": 21802,
        "rank_sort": 21846,
        "total": 2378
      },
      {
        "club_badge_src": null,
        "entry": 6989881,
        "entry_name": "My Team",
        "event_total": 65,
        "has_played": true,
        "id": 56109587,
        "last_rank": 24570,
        "player_name": "Michal Rygielski",
        "rank": 21802,
        "rank_sort": 21847,
        "total": 2378
      },
      {
        "club_badge_src": null,
        "entry": 7309485,
        "entry_name": "Mustafunte",
        "event_total": 57,
        "has_played": true,
        "id": 59165920,
        "last_rank": 18475,
        "player_name": "Per Egil Sk\u00e5rland",
        "rank": 21802,
        "rank_sort": 21848,
        "total": 2378
      },
      {
        "club_badge_src": null,
        "entry": 7310262,
        "entry_name": "Lukouhub",
        "event_total": 59,
        "has_played": true,
        "id": 59173050,
        "last_rank": 19904,
        "player_name": "Chris Ong",
        "rank": 21802,
        "rank_sort": 21849,
        "total": 2378
      },
      {
        "club_badge_src": null,
        "entry": 7346071,
        "entry_name": "Saga FC",
        "event_total": 44,
        "has_played": true,
        "id": 59508581,
        "last_rank": 13033,
        "player_name": "Petter Saga Andersen",
        "rank": 21802,
        "rank_sort": 21850,
        "total": 2378
      }
    ]
  }
}