{
  "last_updated_data": "2026-05-24T23:28:17Z",
  "league": {
    "admin_entry": null,
    "closed": false,
    "code_privacy": "p",
    "created": "2025-07-20T23:14:33.933835Z",
    "cup_league": 2815434,
    "has_cup": true,
    "id": 314,
    "league_type": "s",
    "max_entries": null,
    "name": "Overall",
    "rank": null,
    "scoring": "c",
    "start_event": 1
  },
  "new_entries": {
    "has_next": false,
    "page": 1,
    "results": []
  },
  "standings": {
    "has_next": true,
    "page": 1110,
    "results": [
      {
        "club_badge_src": null,
        "entry": 2146123,
        "entry_name": "19 milan",
        "event_total": 37,
        "has_played": true,
        "id": 15254088,
        "last_rank": 29475,
        "player_name": "Allen Fong",
        "rank": 55446,
        "rank_sort": 55451,
        "total": 2348
      },
      {
        "club_badge_src": null,
        "entry": 2563674,
        "entry_name": "Livin' Saliba Loca",
        "event_total": 57,
        "has_played": true,
        "id": 18388367,
        "last_rank": 56035,
        "player_name": "Ed Damas",
        "rank": 55446,
        "rank_sort": 55452,
        "total": 2348
      },
      {
        "club_badge_src": null,
        "entry": 2709368,
        "entry_name": "Edr\u00fa-li\u00f0i\u00f0",
        "event_total": 75,
        "has_played": true,
        "id": 19493088,
        "last_rank": 92958,
        "player_name": "Siggi Tomm",
        "rank": 55446,
        "rank_sort": 55453,
        "total": 2348
      },
      {
        "club_badge_src": null,
        "entry": 3025600,
        "entry_name": "Itchen balls",
        "event_total": 64,
        "has_played": true,
        "id": 22262069,
        "last_rank": 68585,
        "player_name": "Fin Mac",
        "rank": 55446,
        "rank_sort": 55454,
        "total": 2348
      },
      {
        "club_badge_src": null,
        "entry": 3484863,
        "entry_name": "Swedish Howe's Mafia",
        "event_total": 52,
        "has_played": true,
        "id": 25913959,
        "last_rank": 48084,
        "player_name": "Jacob Clayton",
        "rank": 55446,
        "rank_sort": 55455,
        "total": 2348
      },
      {
        "club_badge_src": null,
        "entry": 4963972,
        "entry_name": "Tony's Ponies",
        "event_total": 34,
        "has_played": true,
        "id": 38307427,
        "last_rank": 26631,
        "player_name": "Toby Scarborough",
        "rank": 55446,
        "rank_sort": 55456,
        "total": 2348
      },
      {
        "club_badge_src": null,
        "entry": 6839740,
        "entry_name": "DnD (DonebyDecember)",
        "event_total": 74,
        "has_played": true,
        "id": 54791279,
        "last_rank": 90565,
        "player_name": "\u00d6ye Iwariso",
        "rank": 55446,
        "rank_sort": 55457,
        "total": 2348
      },
      {
        "club_badge_src": null,
        "entry": 7974364,
        "entry_name": "ASH Utd",
        "event_total": 44,
        "has_played": true,
        "id": 65657325,
        "last_rank": 37344,
        "player_name": "Ashish Anand",
        "rank": 55446,
        "rank_sort": 55458,
        "total": 2348
      },
      {
        "club_badge_src": null,
        "entry": 9431583,
        "entry_name": "class on grass",
        "event_total": 48,
        "has_played": true,
        "id": 79675283,
        "last_rank": 42386,
        "player_name": "Owen Roberts",
        "rank": 55446,
        "rank_sort": 55459,
        "total": 2348
      },
      {
        "club_badge_src": null,
        "entry": 201957,
        "entry_name": "McCaul XI",
        "event_total": 57,
        "has_played": true,
        "id": 1341083,
        "last_rank": 56099,
        "player_name": "Conor McCaul",
        "rank": 55460,
        "rank_sort": 55460,
        "total": 2348
      },
      {
        "club_badge_src": null,
        "entry": 355176,
        "entry_name": "Schiffer me Timber",
        "event_total": 62,
        "has_played": true,
        "id": 2377008,
        "last_rank": 57723,
        "player_name": "Talhah Malik",
        "rank": 55460,
        "rank_sort": 55461,
        "total": 2348
      },
      {
        "club_badge_src": "https://fantasy.premierleague.com/gcs/plfpl-production-adobe-approved/plfpl-production/556916/5311633b-6b5d-4e09-8ad1-d45540d2f938.png",
        "entry": 556916,
        "entry_name": "Blackrock",
        "event_total": 55,
        "has_played": true,
        "id": 3748103,
        "last_rank": 52710,
        "player_name": "F\u00e1bio Fernandes",
        "rank": 55460,
        "rank_sort": 55462,
        "total": 2348
      },
      {
        "club_badge_src": null,
        "entry": 1067356,
        "entry_name": "Baby Reijnders",
        "event_total": 70,
        "has_played": true,
        "id": 7389058,
        "last_rank": 81312,
        "player_name": "Scott Turner",
        "rank": 55460,
        "rank_sort": 55463,
        "total": 2348
      },
      {
        "club_badge_src": null,
        "entry": 1750133,
        "entry_name": "AHHHH",
        "event_total": 39,
        "has_played": true,
        "id": 12281981,
        "last_rank": 31556,
        "player_name": "Max Cunningham",
        "rank": 55460,
        "rank_sort": 55464,
        "total": 2348
      },
      {
        "club_badge_src": null,
        "entry": 2121740,
        "entry_name": "Hellstr\u00f6mlag",
        "event_total": 60,
        "has_played": true,
        "id": 15071873,
        "last_rank": 61315,
        "player_name": "Emil Hellstr\u00f6m",
        "rank": 55460,
        "rank_sort": 55465,
        "total": 2348
      },
      {
        "club_badge_src": "https://fantasy.premierleague.com/gcs/plfpl-production-adobe-approved/plfpl-production/2610443/75a20483-aeaf-44c6-8bcc-7db378eb69a2.png",
        "entry": 2610443,
        "entry_name": "Atd\u00e9cico Madrid",
        "event_total": 58,
        "has_played": true,
        "id": 18754563,
        "last_rank": 57723,
        "player_name": "Declan Haswell",
        "rank": 55460,
        "rank_sort": 55466,
        "total": 2348
      },
      {
        "club_badge_src": null,
        "entry": 2710206,
        "entry_name": "Buckfast Monks",
        "event_total": 56,
        "has_played": true,
        "id": 19499346,
        "last_rank": 54416,
        "player_name": "Carl McDonagh",
        "rank": 55460,
        "rank_sort": 55467,
        "total": 2348
      },
      {
        "club_badge_src": null,
        "entry": 2755014,
        "entry_name": "Annaballs",
        "event_total": 49,
        "has_played": true,
        "id": 20060014,
        "last_rank": 43786,
        "player_name": "Ian Marchant",
        "rank": 55460,
        "rank_sort": 55468,
        "total": 2348
      },
      {
        "club_badge_src": null,
        "entry": 3450350,
        "entry_name": "Burros Duros",
        "event_total": 46,
        "has_played": true,
        "id": 25640444,
        "last_rank": 39770,
        "player_name": "Dylan Rugman",
        "rank": 55460,
        "rank_sort": 55469,
        "total": 2348
      },
      {
        "club_badge_src": null,
        "entry": 3961083,
        "entry_name": "VAKUNDO FC",
        "event_total": 50,
        "has_played": true,
        "id": 29802859,
        "last_rank": 45144,
        "player_name": "Bibek Neupane",
        "rank": 55460,
        "rank_sort": 55470,
        "total": 2348
      },
      {
        "club_badge_src": null,
        "entry": 4231379,
        "entry_name": "Dinners Divas",
        "event_total": 60,
        "has_played": true,
        "id": 32060820,
        "last_rank": 61227,
        "player_name": "Patrick Dinan",
        "rank": 55460,
        "rank_sort": 55471,
        "total": 2348
      },
      {
        "club_badge_src": null,
        "entry": 4752648,
        "entry_name": "Panic at the sesko",
        "event_total": 59,
        "has_played": true,
        "id": 36572163,
        "last_rank": 59535,
        "player_name": "Patrick Treacy",
        "rank": 55460,
        "rank_sort": 55472,
        "total": 2348
      },
      {
        "club_badge_src": null,
        "entry": 4859047,
        "entry_name": "Kaywizzy FC",
        "event_total": 59,
        "has_played": true,
        "id": 37443206,
        "last_rank": 59535,
        "player_name": "Ogunremi Oluwakayode",
        "rank": 55460,
        "rank_sort": 55473,
        "total": 2348
      },
      {
        "club_badge_src": null,
        "entry": 5256756,
        "entry_name": "Douglas XI",
        "event_total": 70,
        "has_played": true,
        "id": 40741989,
        "last_rank": 81211,
        "player_name": "Douglas Johansson",
        "rank": 55460,
        "rank_sort": 55474,
        "total": 2348
      },
      {
        "club_badge_src": null,
        "entry": 5553488,
        "entry_name": "2025_2026_Fantasy",
        "event_total": 56,
        "has_played": true,
        "id": 43346546,
        "last_rank": 54416,
        "player_name": "Jai Louis",
        "rank": 55460,
        "rank_sort": 55475,
        "total": 2348
      },
      {
        "club_badge_src": null,
        "entry": 5651945,
        "entry_name": "lil tasty",
        "event_total": 86,
        "has_played": true,
        "id": 44213638,
        "last_rank": 122860,
        "player_name": "Allison West",
        "rank": 55460,
        "rank_sort": 55476,
        "total": 2348
      },
      {
        "club_badge_src": null,
        "entry": 6330304,
        "entry_name": "Embrace my FACE",
        "event_total": 58,
        "has_played": true,
        "id": 50305194,
        "last_rank": 57776,
        "player_name": "Jesper Bj\u00e4r\u00e4ng",
        "rank": 55460,
        "rank_sort": 55477,
        "total": 2348
      },
      {
        "club_badge_src": null,
        "entry": 6719096,
        "entry_name": "Ruddy Rovers",
        "event_total": 54,
        "has_played": true,
        "id": 53774205,
        "last_rank": 51137,
        "player_name": "Charlotte Ruddy",
        "rank": 55460,
        "rank_sort": 55478,
        "total": 2348
      },
      {
        "club_badge_src": null,
        "entry": 9086875,
        "entry_name": "Wythenshawe Rovers",
        "event_total": 60,
        "has_played": true,
        "id": 76322922,
        "last_rank": 61227,
        "player_name": "Brendan Carolan",
        "rank": 55460,
        "rank_sort": 55479,
        "total": 2348
      },
      {
        "club_badge_src": null,
        "entry": 10716784,
        "entry_name": "Erling Szpalaand FC",
        "event_total": 65,
        "has_played": true,
        "id": 90526639,
        "last_rank": 70600,
        "player_name": "Gabriella Szpala",
        "rank": 55460,
        "rank_sort": 55480,
        "total": 2348
      },
      {
        "club_badge_src": null,
        "entry": 19211,
        "entry_name": "house wicunhe\ufffd",
        "event_total": 74,
        "has_played": true,
        "id": 119548,
        "last_rank": 90494,
        "player_name": "wikunia \u0e05(^\u25d5\u1d25\u25d5^)\u0e05",
        "rank": 55481,
        "rank_sort": 55481,
        "total": 2348
      },
      {
        "club_badge_src": null,
        "entry": 23362,
        "entry_name": "Hafsa Team",
        "event_total": 55,
        "has_played": true,
        "id": 147088,
        "last_rank": 52853,
        "player_name": "hafsa ismail",
        "rank": 55481,
        "rank_sort": 55482,
        "total": 2348
      },
      {
        "club_badge_src": null,
        "entry": 52481,
        "entry_name": "FPL HUNZ",
        "event_total": 39,
        "has_played": true,
        "id": 337469,
        "last_rank": 31620,
        "player_name": "Isy Hinchliffe",
        "rank": 55481,
        "rank_sort": 55483,
        "total": 2348
      },
      {
        "club_badge_src": null,
        "entry": 77092,
        "entry_name": "Ross's Rangers",
        "event_total": 60,
        "has_played": true,
        "id": 501085,
        "last_rank": 61227,
        "player_name": "Ross Glover",
        "rank": 55481,
        "rank_sort": 55484,
        "total": 2348
      },
      {
        "club_badge_src": null,
        "entry": 165304,
        "entry_name": "SeventeenGoing\u00dcnder",
        "event_total": 43,
        "has_played": true,
        "id": 1091321,
        "last_rank": 36200,
        "player_name": "Noah Harrison",
        "rank": 55481,
        "rank_sort": 55485,
        "total": 2348
      },
      {
        "club_badge_src": "https://fantasy.premierleague.com/gcs/plfpl-production-adobe-approved/plfpl-production/537145/f5ac39be-a6d7-4358-bc31-4e4c9bfb1958.png",
        "entry": 537145,
        "entry_name": "Esptein FC (U18s)",
        "event_total": 66,
        "has_played": true,
        "id": 3615727,
        "last_rank": 72815,
        "player_name": "Quentin Hall",
        "rank": 55481,
        "rank_sort": 55486,
        "total": 2348
      },
      {
        "club_badge_src": "https://fantasy.premierleague.com/gcs/plfpl-production-adobe-approved/plfpl-production/614532/7d0f8c33-99cb-4c68-9ce7-33a57d56b37f.png",
        "entry": 614532,
        "entry_name": "Wirtzside of Mersey",
        "event_total": 50,
        "has_played": true,
        "id": 4152374,
        "last_rank": 39784,
        "player_name": "Farouk Abdelmalek",
        "rank": 55481,
        "rank_sort": 55487,
        "total": 2348
      },
      {
        "club_badge_src": null,
        "entry": 851390,
        "entry_name": "FC Wasatch Reds",
        "event_total": 57,
        "has_played": true,
        "id": 5835633,
        "last_rank": 56099,
        "player_name": "Renjith K J",
        "rank": 55481,
        "rank_sort": 55488,
        "total": 2348
      },
      {
        "club_badge_src": null,
        "entry": 874487,
        "entry_name": "10 Pieces of Wood",
        "event_total": 39,
        "has_played": true,
        "id": 5995364,
        "last_rank": 31620,
        "player_name": "Andrew Diment",
        "rank": 55481,
        "rank_sort": 55489,
        "total": 2348
      },
      {
        "club_badge_src": null,
        "entry": 1017642,
        "entry_name": "Cherki Mate",
        "event_total": 42,
        "has_played": true,
        "id": 7040240,
        "last_rank": 35034,
        "player_name": "Axel Skare Orgeret",
        "rank": 55481,
        "rank_sort": 55490,
        "total": 2348
      },
      {
        "club_badge_src": "https://fantasy.premierleague.com/gcs/plfpl-production-adobe-approved/plfpl-production/1083473/c8a3bfaf-86c9-481c-879d-d4e512ae123e.png",
        "entry": 1083473,
        "entry_name": "Parched",
        "event_total": 62,
        "has_played": true,
        "id": 7502189,
        "last_rank": 64830,
        "player_name": "Al Rayner",
        "rank": 55481,
        "rank_sort": 55491,
        "total": 2348
      },
      {
        "club_badge_src": null,
        "entry": 1279030,
        "entry_name": "UNITED",
        "event_total": 56,
        "has_played": true,
        "id": 8887735,
        "last_rank": 54380,
        "player_name": "Mervyn CHAN",
        "rank": 55481,
        "rank_sort": 55492,
        "total": 2348
      },
      {
        "club_badge_src": "https://fantasy.premierleague.com/gcs/plfpl-production-adobe-approved/plfpl-production/1394935/7a24c6f8-0568-4583-abec-cc7179e5a89e.png",
        "entry": 1394935,
        "entry_name": "Sonny side up",
        "event_total": 74,
        "has_played": true,
        "id": 9704254,
        "last_rank": 90746,
        "player_name": "OhhhKevindeBruyne FC",
        "rank": 55481,
        "rank_sort": 55493,
        "total": 2348
      },
      {
        "club_badge_src": null,
        "entry": 1995771,
        "entry_name": "Lastt",
        "event_total": 52,
        "has_played": true,
        "id": 14102667,
        "last_rank": 48119,
        "player_name": "N.L Team",
        "rank": 55481,
        "rank_sort": 55494,
        "total": 2348
      },
      {
        "club_badge_src": null,
        "entry": 2248453,
        "entry_name": "Me, Myself, Ndiaye",
        "event_total": 67,
        "has_played": true,
        "id": 16021616,
        "last_rank": 74723,
        "player_name": "Jamie Phenna",
        "rank": 55481,
        "rank_sort": 55495,
        "total": 2348
      },
      {
        "club_badge_src": null,
        "entry": 2387765,
        "entry_name": "KLUBIRUNKKARIT",
        "event_total": 47,
        "has_played": true,
        "id": 17054954,
        "last_rank": 41073,
        "player_name": "Jose Morri",
        "rank": 55481,
        "rank_sort": 55496,
        "total": 2348
      },
      {
        "club_badge_src": null,
        "entry": 2445620,
        "entry_name": "Real Ale Madrid",
        "event_total": 56,
        "has_played": true,
        "id": 17491201,
        "last_rank": 54380,
        "player_name": "Ben Price",
        "rank": 55481,
        "rank_sort": 55497,
        "total": 2348
      },
      {
        "club_badge_src": null,
        "entry": 2456681,
        "entry_name": "Vossi Klopp",
        "event_total": 62,
        "has_played": true,
        "id": 17571717,
        "last_rank": 64777,
        "player_name": "Sam Kelly",
        "rank": 55481,
        "rank_sort": 55498,
        "total": 2348
      },
      {
        "club_badge_src": null,
        "entry": 2884809,
        "entry_name": "Kongs Villa",
        "event_total": 50,
        "has_played": true,
        "id": 21119605,
        "last_rank": 45252,
        "player_name": "Rory Maguire",
        "rank": 55481,
        "rank_sort": 55499,
        "total": 2348
      },
      {
        "club_badge_src": null,
        "entry": 2988756,
        "entry_name": "Bollenusa",
        "event_total": 43,
        "has_played": true,
        "id": 21979655,
        "last_rank": 36200,
        "player_name": "Martin Skaar",
        "rank": 55481,
        "rank_sort": 55500,
        "total": 2348
      }
    ]
  }
}