{
  "last_updated_data": "2026-05-24T23:28:17Z",
  "league": {
    "admin_entry": null,
    "closed": false,
    "code_privacy": "p",
    "created": "2025-07-20T23:14:33.933835Z",
    "cup_league": 2815434,
    "has_cup": true,
    "id": 314,
    "league_type": "s",
    "max_entries": null,
    "name": "Overall",
    "rank": null,
    "scoring": "c",
    "start_event": 1
  },
  "new_entries": {
    "has_next": false,
    "page": 1,
    "results": []
  },
  "standings": {
    "has_next": true,
    "page": 178,
    "results": [
      {
        "club_badge_src": null,
        "entry": 946858,
        "entry_name": "Get it India",
        "event_total": 64,
        "has_played": true,
        "id": 6521715,
        "last_rank": 11175,
        "player_name": "Sean Christopher Cuskern",
        "rank": 8819,
        "rank_sort": 8851,
        "total": 2401
      },
      {
        "club_badge_src": "https://fantasy.premierleague.com/gcs/plfpl-production-adobe-approved/plfpl-production/1116334/68209905-28c1-4d93-a660-6bd2d5d8785e.png",
        "entry": 1116334,
        "entry_name": "Shoot Bird FC",
        "event_total": 69,
        "has_played": true,
        "id": 7732712,
        "last_rank": 13754,
        "player_name": "KW Yeo",
        "rank": 8819,
        "rank_sort": 8852,
        "total": 2401
      },
      {
        "club_badge_src": null,
        "entry": 1232202,
        "entry_name": "Can I Bring My Yates",
        "event_total": 66,
        "has_played": true,
        "id": 8556362,
        "last_rank": 12200,
        "player_name": "Ben Elliott",
        "rank": 8819,
        "rank_sort": 8853,
        "total": 2401
      },
      {
        "club_badge_src": "https://fantasy.premierleague.com/gcs/plfpl-production-adobe-approved/plfpl-production/1297949/5032d7f3-a870-442a-978e-ed292c8195dc.png",
        "entry": 1297949,
        "entry_name": "Hosny",
        "event_total": 60,
        "has_played": true,
        "id": 9020799,
        "last_rank": 9484,
        "player_name": "Ahmed Hosny",
        "rank": 8819,
        "rank_sort": 8854,
        "total": 2401
      },
      {
        "club_badge_src": null,
        "entry": 1299383,
        "entry_name": "Greyjoy",
        "event_total": 62,
        "has_played": true,
        "id": 9030661,
        "last_rank": 10288,
        "player_name": "Chris Grey",
        "rank": 8819,
        "rank_sort": 8855,
        "total": 2401
      },
      {
        "club_badge_src": "https://fantasy.premierleague.com/gcs/plfpl-production-adobe-approved/plfpl-production/1315090/a531b509-a107-4782-9a6e-beda8c73353f.png",
        "entry": 1315090,
        "entry_name": "FC Icemen",
        "event_total": 67,
        "has_played": true,
        "id": 9140608,
        "last_rank": 12645,
        "player_name": "Paulius Sestakauskas",
        "rank": 8819,
        "rank_sort": 8856,
        "total": 2401
      },
      {
        "club_badge_src": "https://fantasy.premierleague.com/gcs/plfpl-production-adobe-approved/plfpl-production/1434024/c7c005e3-8ce0-459d-847b-27bfb4405193.png",
        "entry": 1434024,
        "entry_name": "Chiellini Con Carney",
        "event_total": 51,
        "has_played": true,
        "id": 9992286,
        "last_rank": 6448,
        "player_name": "Ryan Carney",
        "rank": 8819,
        "rank_sort": 8857,
        "total": 2401
      },
      {
        "club_badge_src": null,
        "entry": 1616552,
        "entry_name": "Pathetico Madrid",
        "event_total": 68,
        "has_played": true,
        "id": 11311498,
        "last_rank": 13184,
        "player_name": "Niall Newberry",
        "rank": 8819,
        "rank_sort": 8858,
        "total": 2401
      },
      {
        "club_badge_src": "https://fantasy.premierleague.com/gcs/plfpl-production-adobe-approved/plfpl-production/1635091/0bf22d50-0d21-4d22-add1-c48a246329f2.png",
        "entry": 1635091,
        "entry_name": "Stop. Haller-Time!",
        "event_total": 52,
        "has_played": true,
        "id": 11444951,
        "last_rank": 6703,
        "player_name": "Rocky Lorusso",
        "rank": 8819,
        "rank_sort": 8859,
        "total": 2401
      },
      {
        "club_badge_src": "https://fantasy.premierleague.com/gcs/plfpl-production-adobe-approved/plfpl-production/1732383/4e56435a-7acb-4f57-ac14-c0d461f3fbdd.png",
        "entry": 1732383,
        "entry_name": "Tucuru\u00ed",
        "event_total": 68,
        "has_played": true,
        "id": 12151569,
        "last_rank": 13184,
        "player_name": "Stephen Carlyn",
        "rank": 8819,
        "rank_sort": 8860,
        "total": 2401
      },
      {
        "club_badge_src": null,
        "entry": 1769740,
        "entry_name": "Old McDonald\u2019s Farm",
        "event_total": 40,
        "has_played": true,
        "id": 12431929,
        "last_rank": 3866,
        "player_name": "Christopher Jones",
        "rank": 8819,
        "rank_sort": 8861,
        "total": 2401
      },
      {
        "club_badge_src": null,
        "entry": 1849806,
        "entry_name": "Eggtuck on toast",
        "event_total": 55,
        "has_played": true,
        "id": 13016454,
        "last_rank": 7676,
        "player_name": "GARY LINNEN",
        "rank": 8819,
        "rank_sort": 8862,
        "total": 2401
      },
      {
        "club_badge_src": null,
        "entry": 1931748,
        "entry_name": "Dream 11",
        "event_total": 67,
        "has_played": true,
        "id": 13624440,
        "last_rank": 12705,
        "player_name": "Matty Vincent",
        "rank": 8819,
        "rank_sort": 8863,
        "total": 2401
      },
      {
        "club_badge_src": null,
        "entry": 2095979,
        "entry_name": "$ons of Pitches",
        "event_total": 63,
        "has_played": true,
        "id": 14871350,
        "last_rank": 10805,
        "player_name": "Devon Sims",
        "rank": 8819,
        "rank_sort": 8864,
        "total": 2401
      },
      {
        "club_badge_src": null,
        "entry": 2146031,
        "entry_name": "Charlie XGA",
        "event_total": 67,
        "has_played": true,
        "id": 15253434,
        "last_rank": 12705,
        "player_name": "Bradley Grim",
        "rank": 8819,
        "rank_sort": 8865,
        "total": 2401
      },
      {
        "club_badge_src": null,
        "entry": 2211815,
        "entry_name": "No Kane no gain",
        "event_total": 66,
        "has_played": true,
        "id": 15750704,
        "last_rank": 12200,
        "player_name": "Ernest Kwik",
        "rank": 8819,
        "rank_sort": 8866,
        "total": 2401
      },
      {
        "club_badge_src": "https://fantasy.premierleague.com/gcs/plfpl-production-adobe-approved/plfpl-production/2225292/88e8eb9e-a791-4652-8a52-8016e06e51b1.png",
        "entry": 2225292,
        "entry_name": "NK Blato Ljuti Dolac",
        "event_total": 51,
        "has_played": true,
        "id": 15851059,
        "last_rank": 6448,
        "player_name": "Ivan \u010cobanovi\u0107",
        "rank": 8819,
        "rank_sort": 8867,
        "total": 2401
      },
      {
        "club_badge_src": null,
        "entry": 2278946,
        "entry_name": "Old Havertz Kai Hard",
        "event_total": 62,
        "has_played": true,
        "id": 16251122,
        "last_rank": 10346,
        "player_name": "Alex Wolfenden",
        "rank": 8819,
        "rank_sort": 8868,
        "total": 2401
      },
      {
        "club_badge_src": null,
        "entry": 2312186,
        "entry_name": "Barry can Win FC",
        "event_total": 50,
        "has_played": true,
        "id": 16493371,
        "last_rank": 6194,
        "player_name": "James Bennett",
        "rank": 8819,
        "rank_sort": 8869,
        "total": 2401
      },
      {
        "club_badge_src": null,
        "entry": 2327543,
        "entry_name": "Nulli Secundus",
        "event_total": 45,
        "has_played": true,
        "id": 16606008,
        "last_rank": 4954,
        "player_name": "Phil Cable",
        "rank": 8819,
        "rank_sort": 8870,
        "total": 2401
      },
      {
        "club_badge_src": null,
        "entry": 2565936,
        "entry_name": "2 IL",
        "event_total": 73,
        "has_played": true,
        "id": 18406356,
        "last_rank": 16039,
        "player_name": "Tormod Tho",
        "rank": 8819,
        "rank_sort": 8871,
        "total": 2401
      },
      {
        "club_badge_src": null,
        "entry": 2696549,
        "entry_name": "bhoys are back",
        "event_total": 38,
        "has_played": true,
        "id": 19397247,
        "last_rank": 3562,
        "player_name": "Brian Gillan",
        "rank": 8819,
        "rank_sort": 8872,
        "total": 2401
      },
      {
        "club_badge_src": null,
        "entry": 2700378,
        "entry_name": "Comeback Club",
        "event_total": 66,
        "has_played": true,
        "id": 19425475,
        "last_rank": 12141,
        "player_name": "Bhavuk Dheer",
        "rank": 8819,
        "rank_sort": 8873,
        "total": 2401
      },
      {
        "club_badge_src": null,
        "entry": 2787287,
        "entry_name": "JuventinoSempre",
        "event_total": 87,
        "has_played": true,
        "id": 20348723,
        "last_rank": 26620,
        "player_name": "Simon Kolev",
        "rank": 8819,
        "rank_sort": 8874,
        "total": 2401
      },
      {
        "club_badge_src": null,
        "entry": 2976102,
        "entry_name": "McLovins Minions",
        "event_total": 49,
        "has_played": true,
        "id": 21869756,
        "last_rank": 5940,
        "player_name": "Will Thompson",
        "rank": 8819,
        "rank_sort": 8875,
        "total": 2401
      },
      {
        "club_badge_src": null,
        "entry": 3131224,
        "entry_name": "Beef Cherki",
        "event_total": 104,
        "has_played": true,
        "id": 23111620,
        "last_rank": 47163,
        "player_name": "Zaki Raja",
        "rank": 8819,
        "rank_sort": 8876,
        "total": 2401
      },
      {
        "club_badge_src": null,
        "entry": 3299310,
        "entry_name": "WHU-Tang Clan",
        "event_total": 62,
        "has_played": true,
        "id": 24434572,
        "last_rank": 10346,
        "player_name": "Steve Hackett",
        "rank": 8819,
        "rank_sort": 8877,
        "total": 2401
      },
      {
        "club_badge_src": null,
        "entry": 3315084,
        "entry_name": "Solomon\u2019s Manor",
        "event_total": 63,
        "has_played": true,
        "id": 24562931,
        "last_rank": 10748,
        "player_name": "Carl Solomon",
        "rank": 8819,
        "rank_sort": 8878,
        "total": 2401
      },
      {
        "club_badge_src": null,
        "entry": 3452991,
        "entry_name": "LA Lakers",
        "event_total": 54,
        "has_played": true,
        "id": 25661515,
        "last_rank": 7375,
        "player_name": "Nadir Mohamed",
        "rank": 8819,
        "rank_sort": 8879,
        "total": 2401
      },
      {
        "club_badge_src": null,
        "entry": 3688653,
        "entry_name": "GMN FC",
        "event_total": 53,
        "has_played": true,
        "id": 27517280,
        "last_rank": 7059,
        "player_name": "OiilZky Ph",
        "rank": 8819,
        "rank_sort": 8880,
        "total": 2401
      },
      {
        "club_badge_src": null,
        "entry": 3788037,
        "entry_name": "Gunners 11",
        "event_total": 67,
        "has_played": true,
        "id": 28300996,
        "last_rank": 12645,
        "player_name": "Vivek S",
        "rank": 8819,
        "rank_sort": 8881,
        "total": 2401
      },
      {
        "club_badge_src": null,
        "entry": 3967707,
        "entry_name": "Johnventry",
        "event_total": 68,
        "has_played": true,
        "id": 29856401,
        "last_rank": 13132,
        "player_name": "Chalermchok Termwatanangkul",
        "rank": 8819,
        "rank_sort": 8882,
        "total": 2401
      },
      {
        "club_badge_src": "https://fantasy.premierleague.com/gcs/plfpl-production-adobe-approved/plfpl-production/3978408/a7b2adf4-25fc-42ae-8a7b-3712b38d87d5.png",
        "entry": 3978408,
        "entry_name": "Lamine Bonmati",
        "event_total": 79,
        "has_played": true,
        "id": 29946041,
        "last_rank": 20147,
        "player_name": "Leo Pol",
        "rank": 8819,
        "rank_sort": 8883,
        "total": 2401
      },
      {
        "club_badge_src": null,
        "entry": 4208034,
        "entry_name": "Kiwijord",
        "event_total": 57,
        "has_played": true,
        "id": 31858558,
        "last_rank": 8382,
        "player_name": "Leo Vetaas",
        "rank": 8819,
        "rank_sort": 8884,
        "total": 2401
      },
      {
        "club_badge_src": "https://fantasy.premierleague.com/gcs/plfpl-production-adobe-approved/plfpl-production/4536884/b477182f-1452-453b-80dc-871d233184b4.png",
        "entry": 4536884,
        "entry_name": "Kilkea United",
        "event_total": 83,
        "has_played": true,
        "id": 34610032,
        "last_rank": 23164,
        "player_name": "Sean Broderick",
        "rank": 8819,
        "rank_sort": 8885,
        "total": 2401
      },
      {
        "club_badge_src": null,
        "entry": 4538227,
        "entry_name": "Ake Breaky Heart",
        "event_total": 65,
        "has_played": true,
        "id": 34621251,
        "last_rank": 11642,
        "player_name": "Niall O'Sullivan",
        "rank": 8819,
        "rank_sort": 8886,
        "total": 2401
      },
      {
        "club_badge_src": null,
        "entry": 4616908,
        "entry_name": "We'll Have A Look",
        "event_total": 62,
        "has_played": true,
        "id": 35286885,
        "last_rank": 10346,
        "player_name": "Tom Harrison",
        "rank": 8819,
        "rank_sort": 8887,
        "total": 2401
      },
      {
        "club_badge_src": null,
        "entry": 4782135,
        "entry_name": "noway!",
        "event_total": 71,
        "has_played": true,
        "id": 36813628,
        "last_rank": 14817,
        "player_name": "Charlie Ripley",
        "rank": 8819,
        "rank_sort": 8888,
        "total": 2401
      },
      {
        "club_badge_src": null,
        "entry": 4862557,
        "entry_name": "Ben'chwarmers",
        "event_total": 65,
        "has_played": true,
        "id": 37473622,
        "last_rank": 11699,
        "player_name": "Ben Hankin",
        "rank": 8819,
        "rank_sort": 8889,
        "total": 2401
      },
      {
        "club_badge_src": null,
        "entry": 4887156,
        "entry_name": "Slot Machine",
        "event_total": 65,
        "has_played": true,
        "id": 37678868,
        "last_rank": 11699,
        "player_name": "Ken Hartley",
        "rank": 8819,
        "rank_sort": 8890,
        "total": 2401
      },
      {
        "club_badge_src": null,
        "entry": 4956526,
        "entry_name": "Connors Dons",
        "event_total": 79,
        "has_played": true,
        "id": 38247628,
        "last_rank": 20179,
        "player_name": "Connor Wooldridge",
        "rank": 8819,
        "rank_sort": 8891,
        "total": 2401
      },
      {
        "club_badge_src": "https://fantasy.premierleague.com/gcs/plfpl-production-adobe-approved/plfpl-production/5016833/2dd9ebb2-4a77-4594-9934-ffde3ed7da11.png",
        "entry": 5016833,
        "entry_name": "Salibra Kadabra",
        "event_total": 60,
        "has_played": true,
        "id": 38743186,
        "last_rank": 9536,
        "player_name": "Ibrahim O-O",
        "rank": 8819,
        "rank_sort": 8892,
        "total": 2401
      },
      {
        "club_badge_src": null,
        "entry": 5388900,
        "entry_name": "Raya Sunshine",
        "event_total": 64,
        "has_played": true,
        "id": 41895012,
        "last_rank": 11142,
        "player_name": "James Hornby",
        "rank": 8819,
        "rank_sort": 8893,
        "total": 2401
      },
      {
        "club_badge_src": null,
        "entry": 5501047,
        "entry_name": "PS FC",
        "event_total": 64,
        "has_played": true,
        "id": 42863242,
        "last_rank": 11175,
        "player_name": "Philip Simkins",
        "rank": 8819,
        "rank_sort": 8894,
        "total": 2401
      },
      {
        "club_badge_src": "https://fantasy.premierleague.com/gcs/plfpl-production-adobe-approved/plfpl-production/5530404/f3b89a22-1514-4cb4-8675-25c26325f64d.png",
        "entry": 5530404,
        "entry_name": "Ha! Gu\u00e9hi",
        "event_total": 51,
        "has_played": true,
        "id": 43141104,
        "last_rank": 6448,
        "player_name": "Matthew Murgatroyd",
        "rank": 8819,
        "rank_sort": 8895,
        "total": 2401
      },
      {
        "club_badge_src": null,
        "entry": 5604140,
        "entry_name": "under my cucurella",
        "event_total": 65,
        "has_played": true,
        "id": 43792328,
        "last_rank": 11699,
        "player_name": "Nawaf Banaja",
        "rank": 8819,
        "rank_sort": 8896,
        "total": 2401
      },
      {
        "club_badge_src": null,
        "entry": 5610485,
        "entry_name": "Crouchy's Nachos",
        "event_total": 66,
        "has_played": true,
        "id": 43847408,
        "last_rank": 12200,
        "player_name": "Aaron Murray",
        "rank": 8819,
        "rank_sort": 8897,
        "total": 2401
      },
      {
        "club_badge_src": null,
        "entry": 5688452,
        "entry_name": "Groove Kamada",
        "event_total": 67,
        "has_played": true,
        "id": 44528752,
        "last_rank": 12645,
        "player_name": "Josh Rufus",
        "rank": 8819,
        "rank_sort": 8898,
        "total": 2401
      },
      {
        "club_badge_src": null,
        "entry": 6126804,
        "entry_name": "Pedro Porros a pint",
        "event_total": 64,
        "has_played": true,
        "id": 48410340,
        "last_rank": 11237,
        "player_name": "Zack Hughes",
        "rank": 8819,
        "rank_sort": 8899,
        "total": 2401
      },
      {
        "club_badge_src": null,
        "entry": 6174456,
        "entry_name": "Red Devils",
        "event_total": 56,
        "has_played": true,
        "id": 48824503,
        "last_rank": 7979,
        "player_name": "Jacob John",
        "rank": 8819,
        "rank_sort": 8900,
        "total": 2401
      }
    ]
  }
}