{
  "last_updated_data": "2026-05-24T23:28:17Z",
  "league": {
    "admin_entry": null,
    "closed": false,
    "code_privacy": "p",
    "created": "2025-07-20T23:14:33.933835Z",
    "cup_league": 2815434,
    "has_cup": true,
    "id": 314,
    "league_type": "s",
    "max_entries": null,
    "name": "Overall",
    "rank": null,
    "scoring": "c",
    "start_event": 1
  },
  "new_entries": {
    "has_next": false,
    "page": 1,
    "results": []
  },
  "standings": {
    "has_next": true,
    "page": 678,
    "results": [
      {
        "club_badge_src": null,
        "entry": 1180661,
        "entry_name": "Free Palestine",
        "event_total": 67,
        "has_played": true,
        "id": 8191762,
        "last_rank": 46454,
        "player_name": "Taher Abdelaziz",
        "rank": 33849,
        "rank_sort": 33851,
        "total": 2365
      },
      {
        "club_badge_src": "https://fantasy.premierleague.com/gcs/plfpl-production-adobe-approved/plfpl-production/1246292/a32d1e7f-6504-4b62-815d-5ef678a21606.png",
        "entry": 1246292,
        "entry_name": "raiyanshishir",
        "event_total": 64,
        "has_played": true,
        "id": 8655617,
        "last_rank": 42314,
        "player_name": "Raiyan Bin Mohsin",
        "rank": 33849,
        "rank_sort": 33852,
        "total": 2365
      },
      {
        "club_badge_src": null,
        "entry": 1374695,
        "entry_name": "United",
        "event_total": 64,
        "has_played": true,
        "id": 9556027,
        "last_rank": 42293,
        "player_name": "Deen Sherdel",
        "rank": 33849,
        "rank_sort": 33853,
        "total": 2365
      },
      {
        "club_badge_src": null,
        "entry": 5587,
        "entry_name": "Bruno Dos Tres",
        "event_total": 40,
        "has_played": true,
        "id": 31866,
        "last_rank": 15999,
        "player_name": "Danyal Hussain",
        "rank": 33854,
        "rank_sort": 33854,
        "total": 2365
      },
      {
        "club_badge_src": null,
        "entry": 11550,
        "entry_name": "Cunha Matata",
        "event_total": 77,
        "has_played": true,
        "id": 68698,
        "last_rank": 43607,
        "player_name": "Gary Fox",
        "rank": 33854,
        "rank_sort": 33855,
        "total": 2365
      },
      {
        "club_badge_src": null,
        "entry": 127166,
        "entry_name": "\u0627\u0644\u062f\u0631\u0633",
        "event_total": 60,
        "has_played": true,
        "id": 829084,
        "last_rank": 24735,
        "player_name": "Mostafa Abdelfattah",
        "rank": 33854,
        "rank_sort": 33856,
        "total": 2365
      },
      {
        "club_badge_src": null,
        "entry": 602171,
        "entry_name": "Rodallega Bombs",
        "event_total": 67,
        "has_played": true,
        "id": 4063727,
        "last_rank": 40976,
        "player_name": "Adam Peilow",
        "rank": 33854,
        "rank_sort": 33857,
        "total": 2365
      },
      {
        "club_badge_src": null,
        "entry": 1879609,
        "entry_name": "Kattegat",
        "event_total": 49,
        "has_played": true,
        "id": 13242857,
        "last_rank": 25666,
        "player_name": "Aba murtii",
        "rank": 33854,
        "rank_sort": 33858,
        "total": 2365
      },
      {
        "club_badge_src": null,
        "entry": 3073337,
        "entry_name": "Watch Howitts Done",
        "event_total": 41,
        "has_played": true,
        "id": 22631095,
        "last_rank": 19339,
        "player_name": "Nick Howitt",
        "rank": 33854,
        "rank_sort": 33859,
        "total": 2365
      },
      {
        "club_badge_src": null,
        "entry": 4397217,
        "entry_name": "HotDog FC",
        "event_total": 55,
        "has_played": true,
        "id": 33436813,
        "last_rank": 31471,
        "player_name": "Fran Favarulo",
        "rank": 33854,
        "rank_sort": 33860,
        "total": 2365
      },
      {
        "club_badge_src": null,
        "entry": 5266237,
        "entry_name": "Kante Forever",
        "event_total": 77,
        "has_played": true,
        "id": 40816710,
        "last_rank": 55932,
        "player_name": "Sophie Templeton",
        "rank": 33854,
        "rank_sort": 33861,
        "total": 2365
      },
      {
        "club_badge_src": null,
        "entry": 5274712,
        "entry_name": "GMonaco",
        "event_total": 76,
        "has_played": true,
        "id": 40883177,
        "last_rank": 54244,
        "player_name": "Gary Monaghan",
        "rank": 33854,
        "rank_sort": 33862,
        "total": 2365
      },
      {
        "club_badge_src": null,
        "entry": 6413319,
        "entry_name": "Flick Hassan",
        "event_total": 39,
        "has_played": true,
        "id": 51038327,
        "last_rank": 17930,
        "player_name": "Hassan Alfarraj",
        "rank": 33854,
        "rank_sort": 33863,
        "total": 2365
      },
      {
        "club_badge_src": null,
        "entry": 8169025,
        "entry_name": "[FUTW]-FC",
        "event_total": 69,
        "has_played": true,
        "id": 67445459,
        "last_rank": 43657,
        "player_name": "Manu Horsangchai",
        "rank": 33854,
        "rank_sort": 33864,
        "total": 2365
      },
      {
        "club_badge_src": null,
        "entry": 124730,
        "entry_name": "MariaeSayFPL",
        "event_total": 59,
        "has_played": true,
        "id": 813534,
        "last_rank": 36052,
        "player_name": "Mariae SayHi",
        "rank": 33865,
        "rank_sort": 33865,
        "total": 2365
      },
      {
        "club_badge_src": null,
        "entry": 248333,
        "entry_name": "The Marescalators",
        "event_total": 58,
        "has_played": true,
        "id": 1652845,
        "last_rank": 26567,
        "player_name": "Vegard Sines Petersen",
        "rank": 33865,
        "rank_sort": 33866,
        "total": 2365
      },
      {
        "club_badge_src": null,
        "entry": 1262841,
        "entry_name": "Bee - one",
        "event_total": 69,
        "has_played": true,
        "id": 8773942,
        "last_rank": 33751,
        "player_name": "Larkham Stephen",
        "rank": 33865,
        "rank_sort": 33867,
        "total": 2365
      },
      {
        "club_badge_src": null,
        "entry": 9343582,
        "entry_name": "KIA THE GOAT",
        "event_total": 50,
        "has_played": true,
        "id": 78826485,
        "last_rank": 26587,
        "player_name": "Kianaz Karimiha",
        "rank": 33865,
        "rank_sort": 33868,
        "total": 2365
      },
      {
        "club_badge_src": "https://fantasy.premierleague.com/gcs/plfpl-production-adobe-approved/plfpl-production/10907/d9cd2f49-8102-4095-ad6a-05c78fbcffc2.png",
        "entry": 10907,
        "entry_name": "DeadStarComing",
        "event_total": 62,
        "has_played": true,
        "id": 64623,
        "last_rank": 34885,
        "player_name": "Andrew Ballantyne",
        "rank": 33869,
        "rank_sort": 33869,
        "total": 2365
      },
      {
        "club_badge_src": "https://fantasy.premierleague.com/gcs/plfpl-production-adobe-approved/plfpl-production/29386/592fa5e7-ec2d-4057-b5b1-80189ce4663a.png",
        "entry": 29386,
        "entry_name": "\u0639\u0627\u0628\u062f \u0627\u0628\u0631\u0627\u0647\u064a\u0645",
        "event_total": 62,
        "has_played": true,
        "id": 185803,
        "last_rank": 34885,
        "player_name": "abed ibrahim",
        "rank": 33869,
        "rank_sort": 33870,
        "total": 2365
      },
      {
        "club_badge_src": "https://fantasy.premierleague.com/gcs/plfpl-production-adobe-approved/plfpl-production/471600/91b1fc2e-1456-4476-b28f-e8fe039d03ed.png",
        "entry": 471600,
        "entry_name": "AFC Blunder",
        "event_total": 63,
        "has_played": true,
        "id": 3166179,
        "last_rank": 31459,
        "player_name": "Simon Cooper",
        "rank": 33869,
        "rank_sort": 33871,
        "total": 2365
      },
      {
        "club_badge_src": null,
        "entry": 554402,
        "entry_name": "Bookhouse Boys",
        "event_total": 66,
        "has_played": true,
        "id": 3731411,
        "last_rank": 39731,
        "player_name": "Stig Mandal",
        "rank": 33869,
        "rank_sort": 33872,
        "total": 2365
      },
      {
        "club_badge_src": "https://fantasy.premierleague.com/gcs/plfpl-production-adobe-approved/plfpl-production/628725/b7f82e87-7fb2-4c7e-ae17-81f7be06c830.png",
        "entry": 628725,
        "entry_name": "SKY",
        "event_total": 67,
        "has_played": true,
        "id": 4248632,
        "last_rank": 46490,
        "player_name": "Yousef Husham",
        "rank": 33869,
        "rank_sort": 33873,
        "total": 2365
      },
      {
        "club_badge_src": null,
        "entry": 3312855,
        "entry_name": "Chigley Allstars",
        "event_total": 56,
        "has_played": true,
        "id": 24545250,
        "last_rank": 24778,
        "player_name": "Steven appleby",
        "rank": 33869,
        "rank_sort": 33874,
        "total": 2365
      },
      {
        "club_badge_src": null,
        "entry": 5157317,
        "entry_name": "DirtyMike & The Boys",
        "event_total": 67,
        "has_played": true,
        "id": 39905283,
        "last_rank": 46487,
        "player_name": "Mike Shannon",
        "rank": 33869,
        "rank_sort": 33875,
        "total": 2365
      },
      {
        "club_badge_src": null,
        "entry": 5410700,
        "entry_name": "Albiceleste Fc",
        "event_total": 61,
        "has_played": true,
        "id": 42075627,
        "last_rank": 38484,
        "player_name": "jaisal m",
        "rank": 33869,
        "rank_sort": 33876,
        "total": 2365
      },
      {
        "club_badge_src": "https://fantasy.premierleague.com/gcs/plfpl-production-adobe-approved/plfpl-production/3244786/2869dffc-cf0a-4da3-bc81-4a46ddb3e213.png",
        "entry": 3244786,
        "entry_name": "Malware FC",
        "event_total": 50,
        "has_played": true,
        "id": 24003516,
        "last_rank": 23128,
        "player_name": "Ravi Mal",
        "rank": 33877,
        "rank_sort": 33877,
        "total": 2365
      },
      {
        "club_badge_src": null,
        "entry": 9425979,
        "entry_name": "Frikadel FC",
        "event_total": 62,
        "has_played": true,
        "id": 79622688,
        "last_rank": 39744,
        "player_name": "Abel Diandra",
        "rank": 33877,
        "rank_sort": 33878,
        "total": 2365
      },
      {
        "club_badge_src": null,
        "entry": 553148,
        "entry_name": "Far Wide",
        "event_total": 65,
        "has_played": true,
        "id": 3723093,
        "last_rank": 19338,
        "player_name": "Adam Baki",
        "rank": 33879,
        "rank_sort": 33879,
        "total": 2365
      },
      {
        "club_badge_src": null,
        "entry": 1403431,
        "entry_name": "Bane rise2viktory",
        "event_total": 70,
        "has_played": true,
        "id": 9764868,
        "last_rank": 45090,
        "player_name": "hayden pietersen",
        "rank": 33879,
        "rank_sort": 33880,
        "total": 2365
      },
      {
        "club_badge_src": "https://fantasy.premierleague.com/gcs/plfpl-production-adobe-approved/plfpl-production/87844/c9632a57-e5da-4485-b8fd-ee902f98c2c6.png",
        "entry": 87844,
        "entry_name": "Cunhardly Remembeumo",
        "event_total": 73,
        "has_played": true,
        "id": 573000,
        "last_rank": 38491,
        "player_name": "Matthew Hold",
        "rank": 33881,
        "rank_sort": 33881,
        "total": 2365
      },
      {
        "club_badge_src": "https://fantasy.premierleague.com/gcs/plfpl-production-adobe-approved/plfpl-production/1240869/09fd3074-0351-4904-a01e-d972634c2061.png",
        "entry": 1240869,
        "entry_name": "Sami City",
        "event_total": 58,
        "has_played": true,
        "id": 8617836,
        "last_rank": 34898,
        "player_name": "Sami City-",
        "rank": 33881,
        "rank_sort": 33882,
        "total": 2365
      },
      {
        "club_badge_src": null,
        "entry": 2900457,
        "entry_name": "\u062d\u0627\u0645\u0644 \u0627\u0644\u0644\u0642\u0628 \u0627\u0644\u0627\u0635\u0644\u064a",
        "event_total": 58,
        "has_played": true,
        "id": 21254638,
        "last_rank": 26599,
        "player_name": "Ahmed Rasheed",
        "rank": 33881,
        "rank_sort": 33883,
        "total": 2365
      },
      {
        "club_badge_src": "https://fantasy.premierleague.com/gcs/plfpl-production-adobe-approved/plfpl-production/99865/95cce943-c277-4ae2-9cec-44ffb30fe763.png",
        "entry": 99865,
        "entry_name": "MartinSteelix08",
        "event_total": 59,
        "has_played": true,
        "id": 651828,
        "last_rank": 36076,
        "player_name": "Martin Nilsen",
        "rank": 33884,
        "rank_sort": 33884,
        "total": 2365
      },
      {
        "club_badge_src": null,
        "entry": 6878999,
        "entry_name": "WebStars XI",
        "event_total": 45,
        "has_played": true,
        "id": 55126920,
        "last_rank": 22352,
        "player_name": "Steven Webster",
        "rank": 33885,
        "rank_sort": 33885,
        "total": 2365
      },
      {
        "club_badge_src": null,
        "entry": 2791893,
        "entry_name": "\u0627\u0628\u0648 \u062d\u0644\u0627\u0648\u0629",
        "event_total": 48,
        "has_played": true,
        "id": 20383633,
        "last_rank": 24800,
        "player_name": "Mohamed Ali",
        "rank": 33886,
        "rank_sort": 33886,
        "total": 2365
      },
      {
        "club_badge_src": "https://fantasy.premierleague.com/gcs/plfpl-production-adobe-approved/plfpl-production/1399945/a7714ad1-5816-46e8-8a07-1a00810ab618.png",
        "entry": 1399945,
        "entry_name": "YuneroFC",
        "event_total": 73,
        "has_played": true,
        "id": 9739933,
        "last_rank": 43714,
        "player_name": "Azman Zain",
        "rank": 33887,
        "rank_sort": 33887,
        "total": 2365
      },
      {
        "club_badge_src": null,
        "entry": 1260090,
        "entry_name": "Golden Dust CF",
        "event_total": 73,
        "has_played": true,
        "id": 8753107,
        "last_rank": 49523,
        "player_name": "Erwin Jones Buwoh",
        "rank": 33888,
        "rank_sort": 33888,
        "total": 2365
      },
      {
        "club_badge_src": null,
        "entry": 4916383,
        "entry_name": "Nothing else Madders",
        "event_total": 56,
        "has_played": true,
        "id": 37919011,
        "last_rank": 21581,
        "player_name": "Kenneth Kristiansen",
        "rank": 33889,
        "rank_sort": 33889,
        "total": 2365
      },
      {
        "club_badge_src": null,
        "entry": 2468840,
        "entry_name": "St Domingos FC",
        "event_total": 72,
        "has_played": true,
        "id": 17661191,
        "last_rank": 54338,
        "player_name": "Mike Jones",
        "rank": 33890,
        "rank_sort": 33890,
        "total": 2364
      },
      {
        "club_badge_src": null,
        "entry": 3132094,
        "entry_name": "Can'tBeAsked",
        "event_total": 66,
        "has_played": true,
        "id": 23118494,
        "last_rank": 45105,
        "player_name": "Mathias Olsen",
        "rank": 33891,
        "rank_sort": 33891,
        "total": 2364
      },
      {
        "club_badge_src": null,
        "entry": 8568341,
        "entry_name": "mustafa",
        "event_total": 47,
        "has_played": true,
        "id": 71295180,
        "last_rank": 23953,
        "player_name": "Mustafa Yousif",
        "rank": 33891,
        "rank_sort": 33892,
        "total": 2364
      },
      {
        "club_badge_src": null,
        "entry": 1769716,
        "entry_name": "WAKYAGAMI",
        "event_total": 56,
        "has_played": true,
        "id": 12431757,
        "last_rank": 32628,
        "player_name": "Abdul Qahar Zaini",
        "rank": 33893,
        "rank_sort": 33893,
        "total": 2364
      },
      {
        "club_badge_src": null,
        "entry": 6394668,
        "entry_name": "Bruno dos tres",
        "event_total": 52,
        "has_played": true,
        "id": 50872410,
        "last_rank": 28502,
        "player_name": "Lewis Watkins",
        "rank": 33893,
        "rank_sort": 33894,
        "total": 2364
      },
      {
        "club_badge_src": null,
        "entry": 9202740,
        "entry_name": "Gnimoc era mascerw",
        "event_total": 56,
        "has_played": true,
        "id": 77461143,
        "last_rank": 32628,
        "player_name": "Chris Holmes",
        "rank": 33893,
        "rank_sort": 33895,
        "total": 2364
      },
      {
        "club_badge_src": null,
        "entry": 2203321,
        "entry_name": "Burhood FC",
        "event_total": 38,
        "has_played": true,
        "id": 15680267,
        "last_rank": 17296,
        "player_name": "Benji Morgan",
        "rank": 33896,
        "rank_sort": 33896,
        "total": 2364
      },
      {
        "club_badge_src": null,
        "entry": 1894946,
        "entry_name": "Bowen Arrow",
        "event_total": 61,
        "has_played": true,
        "id": 13356372,
        "last_rank": 38516,
        "player_name": "Joshua Harris",
        "rank": 33897,
        "rank_sort": 33897,
        "total": 2364
      },
      {
        "club_badge_src": null,
        "entry": 4175084,
        "entry_name": "\u0627\u0644\u0641\u064a\u0644",
        "event_total": 66,
        "has_played": true,
        "id": 31579551,
        "last_rank": 45109,
        "player_name": "Hassan Alfakhri",
        "rank": 33897,
        "rank_sort": 33898,
        "total": 2364
      },
      {
        "club_badge_src": null,
        "entry": 4239550,
        "entry_name": "7TEENZERO7",
        "event_total": 46,
        "has_played": true,
        "id": 32130045,
        "last_rank": 23145,
        "player_name": "Kalai 17",
        "rank": 33899,
        "rank_sort": 33899,
        "total": 2364
      },
      {
        "club_badge_src": null,
        "entry": 4675684,
        "entry_name": "MUSTAFA KHALID FC",
        "event_total": 69,
        "has_played": true,
        "id": 35818568,
        "last_rank": 49542,
        "player_name": "Mustafa Khalid",
        "rank": 33900,
        "rank_sort": 33900,
        "total": 2364
      }
    ]
  }
}