{
  "last_updated_data": "2026-05-24T23:28:17Z",
  "league": {
    "admin_entry": null,
    "closed": false,
    "code_privacy": "p",
    "created": "2025-07-20T23:14:33.933835Z",
    "cup_league": 2815434,
    "has_cup": true,
    "id": 314,
    "league_type": "s",
    "max_entries": null,
    "name": "Overall",
    "rank": null,
    "scoring": "c",
    "start_event": 1
  },
  "new_entries": {
    "has_next": false,
    "page": 1,
    "results": []
  },
  "standings": {
    "has_next": true,
    "page": 923,
    "results": [
      {
        "club_badge_src": null,
        "entry": 4592560,
        "entry_name": "Gatelaget",
        "event_total": 65,
        "has_played": true,
        "id": 35071303,
        "last_rank": 52357,
        "player_name": "Mats Alexander Kilmork",
        "rank": 46039,
        "rank_sort": 46101,
        "total": 2355
      },
      {
        "club_badge_src": null,
        "entry": 4682477,
        "entry_name": "Groovy Tony",
        "event_total": 57,
        "has_played": true,
        "id": 35881102,
        "last_rank": 35768,
        "player_name": "Luke Aikenhead",
        "rank": 46039,
        "rank_sort": 46102,
        "total": 2355
      },
      {
        "club_badge_src": "https://fantasy.premierleague.com/gcs/plfpl-production-adobe-approved/plfpl-production/4952515/79d9347e-87d5-4df6-8fa7-7b41ac6c1c6a.png",
        "entry": 4952515,
        "entry_name": "Classical FC",
        "event_total": 66,
        "has_played": true,
        "id": 38215704,
        "last_rank": 53952,
        "player_name": "Lateef Adewuyi",
        "rank": 46039,
        "rank_sort": 46103,
        "total": 2355
      },
      {
        "club_badge_src": null,
        "entry": 5020539,
        "entry_name": "Change Name",
        "event_total": 66,
        "has_played": true,
        "id": 38772604,
        "last_rank": 53952,
        "player_name": "Oliver Hunt",
        "rank": 46039,
        "rank_sort": 46104,
        "total": 2355
      },
      {
        "club_badge_src": null,
        "entry": 5072124,
        "entry_name": "omonoia fc",
        "event_total": 64,
        "has_played": true,
        "id": 39197825,
        "last_rank": 57358,
        "player_name": "Chris Kartambis",
        "rank": 46039,
        "rank_sort": 46105,
        "total": 2355
      },
      {
        "club_badge_src": null,
        "entry": 5078697,
        "entry_name": "Tashmarunishta",
        "event_total": 63,
        "has_played": true,
        "id": 39251274,
        "last_rank": 49207,
        "player_name": "Martin Taseski",
        "rank": 46039,
        "rank_sort": 46106,
        "total": 2355
      },
      {
        "club_badge_src": null,
        "entry": 5324803,
        "entry_name": "Les D\u00e9tenteurs",
        "event_total": 77,
        "has_played": true,
        "id": 41278807,
        "last_rank": 82873,
        "player_name": "Henry Hall",
        "rank": 46039,
        "rank_sort": 46107,
        "total": 2355
      },
      {
        "club_badge_src": null,
        "entry": 5389012,
        "entry_name": "Solanke Panky",
        "event_total": 59,
        "has_played": true,
        "id": 41895878,
        "last_rank": 49207,
        "player_name": "Mohammed Abubakar",
        "rank": 46039,
        "rank_sort": 46108,
        "total": 2355
      },
      {
        "club_badge_src": "https://fantasy.premierleague.com/gcs/plfpl-production-adobe-approved/plfpl-production/5511960/0a44d26a-fee2-4676-898f-a443a1d4fc11.png",
        "entry": 5511960,
        "entry_name": "Ud-daa Punjab",
        "event_total": 61,
        "has_played": true,
        "id": 42964953,
        "last_rank": 40503,
        "player_name": "Parth Aggarwal",
        "rank": 46039,
        "rank_sort": 46109,
        "total": 2355
      },
      {
        "club_badge_src": null,
        "entry": 5548071,
        "entry_name": "Isak Knight Rises",
        "event_total": 62,
        "has_played": true,
        "id": 43297900,
        "last_rank": 54065,
        "player_name": "Martin Weiger",
        "rank": 46039,
        "rank_sort": 46110,
        "total": 2355
      },
      {
        "club_badge_src": null,
        "entry": 5859566,
        "entry_name": "Silva Service",
        "event_total": 50,
        "has_played": true,
        "id": 46009882,
        "last_rank": 37058,
        "player_name": "William Burkitt",
        "rank": 46039,
        "rank_sort": 46111,
        "total": 2355
      },
      {
        "club_badge_src": null,
        "entry": 6075943,
        "entry_name": "Sesko on the Beach",
        "event_total": 63,
        "has_played": true,
        "id": 47966641,
        "last_rank": 49207,
        "player_name": "sean cafferkey",
        "rank": 46039,
        "rank_sort": 46112,
        "total": 2355
      },
      {
        "club_badge_src": null,
        "entry": 6434109,
        "entry_name": "Real Baddies",
        "event_total": 69,
        "has_played": true,
        "id": 51221275,
        "last_rank": 58911,
        "player_name": "Matt B",
        "rank": 46039,
        "rank_sort": 46113,
        "total": 2355
      },
      {
        "club_badge_src": "https://fantasy.premierleague.com/gcs/plfpl-production-adobe-approved/plfpl-production/6544427/732b00c7-3e1e-4097-8e0c-109dd825d103.png",
        "entry": 6544427,
        "entry_name": "NothingReallyMadders",
        "event_total": 69,
        "has_played": true,
        "id": 52217543,
        "last_rank": 66296,
        "player_name": "Rob Greenfield",
        "rank": 46039,
        "rank_sort": 46114,
        "total": 2355
      },
      {
        "club_badge_src": null,
        "entry": 7052802,
        "entry_name": "Relyod united",
        "event_total": 48,
        "has_played": true,
        "id": 56724416,
        "last_rank": 34682,
        "player_name": "Zane Doyler",
        "rank": 46039,
        "rank_sort": 46115,
        "total": 2355
      },
      {
        "club_badge_src": null,
        "entry": 7627420,
        "entry_name": "The 33 Foxes.",
        "event_total": 69,
        "has_played": true,
        "id": 62512797,
        "last_rank": 66296,
        "player_name": "Amy Fox",
        "rank": 46039,
        "rank_sort": 46116,
        "total": 2355
      },
      {
        "club_badge_src": null,
        "entry": 7709608,
        "entry_name": "BettySwollocksUTD",
        "event_total": 58,
        "has_played": true,
        "id": 63257406,
        "last_rank": 47812,
        "player_name": "Josh Bradbury",
        "rank": 46039,
        "rank_sort": 46117,
        "total": 2355
      },
      {
        "club_badge_src": null,
        "entry": 9091546,
        "entry_name": "Man Utd",
        "event_total": 62,
        "has_played": true,
        "id": 76368303,
        "last_rank": 47722,
        "player_name": "Muhammad Ali Qazi",
        "rank": 46039,
        "rank_sort": 46118,
        "total": 2355
      },
      {
        "club_badge_src": null,
        "entry": 9211525,
        "entry_name": "Slaney Rovers",
        "event_total": 48,
        "has_played": true,
        "id": 77548070,
        "last_rank": 34749,
        "player_name": "Laura Edwards",
        "rank": 46039,
        "rank_sort": 46119,
        "total": 2355
      },
      {
        "club_badge_src": null,
        "entry": 21427,
        "entry_name": "Pavo Allstars \u2728",
        "event_total": 73,
        "has_played": true,
        "id": 134335,
        "last_rank": 74395,
        "player_name": "Carl Pavitt",
        "rank": 46120,
        "rank_sort": 46120,
        "total": 2355
      },
      {
        "club_badge_src": null,
        "entry": 25487,
        "entry_name": "Mavericks",
        "event_total": 56,
        "has_played": true,
        "id": 161195,
        "last_rank": 44950,
        "player_name": "Zak Loonat",
        "rank": 46120,
        "rank_sort": 46121,
        "total": 2355
      },
      {
        "club_badge_src": null,
        "entry": 154447,
        "entry_name": "Slot Machine",
        "event_total": 48,
        "has_played": true,
        "id": 1014607,
        "last_rank": 34796,
        "player_name": "K Morgan",
        "rank": 46120,
        "rank_sort": 46122,
        "total": 2355
      },
      {
        "club_badge_src": "https://fantasy.premierleague.com/gcs/plfpl-production-adobe-approved/plfpl-production/255317/d9922e40-2630-45ad-99bb-4dc7a8b60d90.png",
        "entry": 255317,
        "entry_name": "FCB",
        "event_total": 68,
        "has_played": true,
        "id": 1698278,
        "last_rank": 64422,
        "player_name": "Mostafa Yousif",
        "rank": 46120,
        "rank_sort": 46123,
        "total": 2355
      },
      {
        "club_badge_src": null,
        "entry": 488053,
        "entry_name": "MD7",
        "event_total": 66,
        "has_played": true,
        "id": 3276444,
        "last_rank": 54065,
        "player_name": "Mohammad Ali",
        "rank": 46120,
        "rank_sort": 46124,
        "total": 2355
      },
      {
        "club_badge_src": "https://fantasy.premierleague.com/gcs/plfpl-production-adobe-approved/plfpl-production/648481/e9d5dfdb-b37f-45ec-9307-48825f033565.png",
        "entry": 648481,
        "entry_name": "Slow Emotion Camels",
        "event_total": 40,
        "has_played": true,
        "id": 4382615,
        "last_rank": 23039,
        "player_name": "Nick Carter",
        "rank": 46120,
        "rank_sort": 46125,
        "total": 2355
      },
      {
        "club_badge_src": null,
        "entry": 666276,
        "entry_name": "CHICHOU BARCA",
        "event_total": 53,
        "has_played": true,
        "id": 4504798,
        "last_rank": 31309,
        "player_name": "salaheddine boufenara",
        "rank": 46120,
        "rank_sort": 46126,
        "total": 2355
      },
      {
        "club_badge_src": null,
        "entry": 693066,
        "entry_name": "Potion",
        "event_total": 60,
        "has_played": true,
        "id": 4693786,
        "last_rank": 50905,
        "player_name": "Jamie McDaid",
        "rank": 46120,
        "rank_sort": 46127,
        "total": 2355
      },
      {
        "club_badge_src": null,
        "entry": 702050,
        "entry_name": "maddogsandenglishmen",
        "event_total": 61,
        "has_played": true,
        "id": 4756953,
        "last_rank": 40770,
        "player_name": "Matt Cunningham",
        "rank": 46120,
        "rank_sort": 46128,
        "total": 2355
      },
      {
        "club_badge_src": "https://fantasy.premierleague.com/gcs/plfpl-production-adobe-approved/plfpl-production/715996/cd80b3c5-33e5-4c9a-bc87-bcf74bd2fe47.png",
        "entry": 715996,
        "entry_name": "Aymanator",
        "event_total": 63,
        "has_played": true,
        "id": 4857888,
        "last_rank": 43444,
        "player_name": "Ayman Eppo",
        "rank": 46120,
        "rank_sort": 46129,
        "total": 2355
      },
      {
        "club_badge_src": null,
        "entry": 717289,
        "entry_name": "TPAlloko",
        "event_total": 50,
        "has_played": true,
        "id": 4866985,
        "last_rank": 37189,
        "player_name": "Alloko Amonou Innocent KOFFI",
        "rank": 46120,
        "rank_sort": 46130,
        "total": 2355
      },
      {
        "club_badge_src": "https://fantasy.premierleague.com/gcs/plfpl-production-adobe-approved/plfpl-production/859896/7d3b9c2b-f683-4fcb-9da3-1828ae72f0f4.png",
        "entry": 859896,
        "entry_name": "BSK Dreieck",
        "event_total": 79,
        "has_played": true,
        "id": 5894615,
        "last_rank": 69907,
        "player_name": "Gabriel Baltodano",
        "rank": 46120,
        "rank_sort": 46131,
        "total": 2355
      },
      {
        "club_badge_src": null,
        "entry": 871881,
        "entry_name": "21 Dreamers",
        "event_total": 64,
        "has_played": true,
        "id": 5977529,
        "last_rank": 57451,
        "player_name": "Joseph Audino",
        "rank": 46120,
        "rank_sort": 46132,
        "total": 2355
      },
      {
        "club_badge_src": null,
        "entry": 896953,
        "entry_name": "Reggie\u2019s Boys",
        "event_total": 57,
        "has_played": true,
        "id": 6161952,
        "last_rank": 46364,
        "player_name": "Reg Vernon",
        "rank": 46120,
        "rank_sort": 46133,
        "total": 2355
      },
      {
        "club_badge_src": null,
        "entry": 912741,
        "entry_name": "Nasser Awad",
        "event_total": 51,
        "has_played": true,
        "id": 6275992,
        "last_rank": 33651,
        "player_name": "\u0646\u0627\u0635\u0631 \u0639\u0648\u0636",
        "rank": 46120,
        "rank_sort": 46134,
        "total": 2355
      },
      {
        "club_badge_src": null,
        "entry": 1038126,
        "entry_name": "Peaky Reijnders",
        "event_total": 64,
        "has_played": true,
        "id": 7183985,
        "last_rank": 50848,
        "player_name": "Zack Cross",
        "rank": 46120,
        "rank_sort": 46135,
        "total": 2355
      },
      {
        "club_badge_src": null,
        "entry": 1698964,
        "entry_name": "gonnerz_nep",
        "event_total": 53,
        "has_played": true,
        "id": 11900163,
        "last_rank": 40878,
        "player_name": "Padam Raj Bhatta",
        "rank": 46120,
        "rank_sort": 46136,
        "total": 2355
      },
      {
        "club_badge_src": null,
        "entry": 1927645,
        "entry_name": "moreeno fc",
        "event_total": 62,
        "has_played": true,
        "id": 13595014,
        "last_rank": 54134,
        "player_name": "mohamed bares",
        "rank": 46120,
        "rank_sort": 46137,
        "total": 2355
      },
      {
        "club_badge_src": "https://fantasy.premierleague.com/gcs/plfpl-production-adobe-approved/plfpl-production/2373909/e907c0a1-19ff-42b5-a914-57755f9d494f.png",
        "entry": 2373909,
        "entry_name": "SITO United",
        "event_total": 62,
        "has_played": true,
        "id": 16947039,
        "last_rank": 54065,
        "player_name": "Francis Kawesha",
        "rank": 46120,
        "rank_sort": 46138,
        "total": 2355
      },
      {
        "club_badge_src": null,
        "entry": 2969457,
        "entry_name": "Meri Kismat Jaggi",
        "event_total": 63,
        "has_played": true,
        "id": 21817184,
        "last_rank": 55812,
        "player_name": "R-hul K-poor",
        "rank": 46120,
        "rank_sort": 46139,
        "total": 2355
      },
      {
        "club_badge_src": null,
        "entry": 3145337,
        "entry_name": "Ralla FC",
        "event_total": 65,
        "has_played": true,
        "id": 23223659,
        "last_rank": 52461,
        "player_name": "Ali Rashid",
        "rank": 46120,
        "rank_sort": 46140,
        "total": 2355
      },
      {
        "club_badge_src": null,
        "entry": 3269324,
        "entry_name": "Haitham",
        "event_total": 66,
        "has_played": true,
        "id": 24193873,
        "last_rank": 61004,
        "player_name": "Haitham Hameed",
        "rank": 46120,
        "rank_sort": 46141,
        "total": 2355
      },
      {
        "club_badge_src": null,
        "entry": 3402410,
        "entry_name": "JP MUNOZ EZE GOAL",
        "event_total": 63,
        "has_played": true,
        "id": 25263113,
        "last_rank": 55865,
        "player_name": "DJ Dog",
        "rank": 46120,
        "rank_sort": 46142,
        "total": 2355
      },
      {
        "club_badge_src": null,
        "entry": 3486946,
        "entry_name": "Top Until March",
        "event_total": 64,
        "has_played": true,
        "id": 25931430,
        "last_rank": 57451,
        "player_name": "Stephen Tulba",
        "rank": 46120,
        "rank_sort": 46143,
        "total": 2355
      },
      {
        "club_badge_src": null,
        "entry": 3568922,
        "entry_name": "Abdallah M.Khedry",
        "event_total": 64,
        "has_played": true,
        "id": 26574300,
        "last_rank": 44804,
        "player_name": "abdallah mohamed Khidry",
        "rank": 46120,
        "rank_sort": 46144,
        "total": 2355
      },
      {
        "club_badge_src": "https://fantasy.premierleague.com/gcs/plfpl-production-adobe-approved/plfpl-production/3593240/11d1aaa4-4271-40ab-9f39-97e88e539482.png",
        "entry": 3593240,
        "entry_name": "AimnakarB",
        "event_total": 86,
        "has_played": true,
        "id": 26761198,
        "last_rank": 94537,
        "player_name": "nattapat aimaims",
        "rank": 46120,
        "rank_sort": 46145,
        "total": 2355
      },
      {
        "club_badge_src": null,
        "entry": 4023921,
        "entry_name": "Gunnerbegood",
        "event_total": 52,
        "has_played": true,
        "id": 30330207,
        "last_rank": 39510,
        "player_name": "Paul Byrne",
        "rank": 46120,
        "rank_sort": 46146,
        "total": 2355
      },
      {
        "club_badge_src": null,
        "entry": 4632166,
        "entry_name": "CHICHOU",
        "event_total": 52,
        "has_played": true,
        "id": 35419913,
        "last_rank": 30276,
        "player_name": "Shayth Bouf",
        "rank": 46120,
        "rank_sort": 46147,
        "total": 2355
      },
      {
        "club_badge_src": null,
        "entry": 4990648,
        "entry_name": "\u0160ari Mata\u0160ari",
        "event_total": 80,
        "has_played": true,
        "id": 38529267,
        "last_rank": 89706,
        "player_name": "Marko Grgi\u0107",
        "rank": 46120,
        "rank_sort": 46148,
        "total": 2355
      },
      {
        "club_badge_src": null,
        "entry": 5081789,
        "entry_name": "Legge's Eleven",
        "event_total": 78,
        "has_played": true,
        "id": 39275862,
        "last_rank": 68107,
        "player_name": "Mike Stanhope",
        "rank": 46120,
        "rank_sort": 46149,
        "total": 2355
      },
      {
        "club_badge_src": null,
        "entry": 5511237,
        "entry_name": "Akatsuki Fc",
        "event_total": 49,
        "has_played": true,
        "id": 42958536,
        "last_rank": 35969,
        "player_name": "the kobe",
        "rank": 46120,
        "rank_sort": 46150,
        "total": 2355
      }
    ]
  }
}