{
  "last_updated_data": "2026-05-24T23:28:17Z",
  "league": {
    "admin_entry": null,
    "closed": false,
    "code_privacy": "p",
    "created": "2025-07-20T23:14:33.933835Z",
    "cup_league": 2815434,
    "has_cup": true,
    "id": 314,
    "league_type": "s",
    "max_entries": null,
    "name": "Overall",
    "rank": null,
    "scoring": "c",
    "start_event": 1
  },
  "new_entries": {
    "has_next": false,
    "page": 1,
    "results": []
  },
  "standings": {
    "has_next": true,
    "page": 207,
    "results": [
      {
        "club_badge_src": null,
        "entry": 3057386,
        "entry_name": "Kinda Mbeumo",
        "event_total": 59,
        "has_played": true,
        "id": 22509321,
        "last_rank": 7535,
        "player_name": "aaron stubbs",
        "rank": 10291,
        "rank_sort": 10301,
        "total": 2398
      },
      {
        "club_badge_src": null,
        "entry": 3137620,
        "entry_name": "No Villa No Party",
        "event_total": 70,
        "has_played": true,
        "id": 23161921,
        "last_rank": 16441,
        "player_name": "Richard Acock",
        "rank": 10291,
        "rank_sort": 10302,
        "total": 2398
      },
      {
        "club_badge_src": null,
        "entry": 3460275,
        "entry_name": "Attritional FC",
        "event_total": 59,
        "has_played": true,
        "id": 25720689,
        "last_rank": 10651,
        "player_name": "Rajeev Vadgama",
        "rank": 10291,
        "rank_sort": 10303,
        "total": 2398
      },
      {
        "club_badge_src": "https://fantasy.premierleague.com/gcs/plfpl-production-adobe-approved/plfpl-production/3639646/299fc74b-d92f-489a-b10a-3ba1cc6af3ed.png",
        "entry": 3639646,
        "entry_name": "Kamatisenpai",
        "event_total": 68,
        "has_played": true,
        "id": 27124607,
        "last_rank": 15319,
        "player_name": "Ali Kmati",
        "rank": 10291,
        "rank_sort": 10304,
        "total": 2398
      },
      {
        "club_badge_src": null,
        "entry": 6177512,
        "entry_name": "Legia Uli",
        "event_total": 56,
        "has_played": true,
        "id": 48850868,
        "last_rank": 9402,
        "player_name": "Ula Ja\u0144czak",
        "rank": 10291,
        "rank_sort": 10305,
        "total": 2398
      },
      {
        "club_badge_src": null,
        "entry": 7926113,
        "entry_name": "\ufffd\u0627\u0644\u0631\u0627\u062c\u0644",
        "event_total": 73,
        "has_played": true,
        "id": 65223836,
        "last_rank": 18520,
        "player_name": "Abdo Altag",
        "rank": 10291,
        "rank_sort": 10306,
        "total": 2398
      },
      {
        "club_badge_src": null,
        "entry": 8564236,
        "entry_name": "It Gets Wirtz",
        "event_total": 66,
        "has_played": true,
        "id": 71255592,
        "last_rank": 11999,
        "player_name": "Corey Allen",
        "rank": 10291,
        "rank_sort": 10307,
        "total": 2398
      },
      {
        "club_badge_src": null,
        "entry": 34839,
        "entry_name": "Kudus \u0639\u0644\u0649 \u0637\u0631\u064a\u0642 \u0627\u0644",
        "event_total": 65,
        "has_played": true,
        "id": 222745,
        "last_rank": 9775,
        "player_name": "Mohamed El Zein",
        "rank": 10308,
        "rank_sort": 10308,
        "total": 2398
      },
      {
        "club_badge_src": null,
        "entry": 86361,
        "entry_name": "FC PORKY PORTS",
        "event_total": 44,
        "has_played": true,
        "id": 562770,
        "last_rank": 5597,
        "player_name": "Tom Porter",
        "rank": 10308,
        "rank_sort": 10309,
        "total": 2398
      },
      {
        "club_badge_src": null,
        "entry": 353449,
        "entry_name": "Miracles 4th Season",
        "event_total": 72,
        "has_played": true,
        "id": 2365539,
        "last_rank": 15280,
        "player_name": "Grzegorz Wach",
        "rank": 10308,
        "rank_sort": 10310,
        "total": 2398
      },
      {
        "club_badge_src": null,
        "entry": 607060,
        "entry_name": "My Team of WINNERS",
        "event_total": 79,
        "has_played": true,
        "id": 4099525,
        "last_rank": 20008,
        "player_name": "Nick Cawley",
        "rank": 10308,
        "rank_sort": 10311,
        "total": 2398
      },
      {
        "club_badge_src": null,
        "entry": 765812,
        "entry_name": "Le Professeur XI",
        "event_total": 57,
        "has_played": true,
        "id": 5223165,
        "last_rank": 9806,
        "player_name": "Adam Wood",
        "rank": 10308,
        "rank_sort": 10312,
        "total": 2398
      },
      {
        "club_badge_src": null,
        "entry": 1251091,
        "entry_name": "ChickenTikka Mosalah",
        "event_total": 73,
        "has_played": true,
        "id": 8689279,
        "last_rank": 18520,
        "player_name": "Max Wilson",
        "rank": 10308,
        "rank_sort": 10313,
        "total": 2398
      },
      {
        "club_badge_src": null,
        "entry": 1605455,
        "entry_name": "FC Mitch",
        "event_total": 54,
        "has_played": true,
        "id": 11232018,
        "last_rank": 7274,
        "player_name": "Mitchell Gray",
        "rank": 10308,
        "rank_sort": 10314,
        "total": 2398
      },
      {
        "club_badge_src": "https://fantasy.premierleague.com/gcs/plfpl-production-adobe-approved/plfpl-production/1815119/68f0d0ac-7f5a-4002-a591-3e6a7d742300.png",
        "entry": 1815119,
        "entry_name": "WISSA",
        "event_total": 53,
        "has_played": true,
        "id": 12763936,
        "last_rank": 8274,
        "player_name": "Wissa Mohareb",
        "rank": 10308,
        "rank_sort": 10315,
        "total": 2398
      },
      {
        "club_badge_src": null,
        "entry": 6445738,
        "entry_name": "Ballykiss Angels",
        "event_total": 59,
        "has_played": true,
        "id": 51324642,
        "last_rank": 9015,
        "player_name": "mike b",
        "rank": 10308,
        "rank_sort": 10316,
        "total": 2398
      },
      {
        "club_badge_src": null,
        "entry": 24277,
        "entry_name": "Oberschlesien Squad",
        "event_total": 64,
        "has_played": true,
        "id": 153192,
        "last_rank": 11098,
        "player_name": "Oskar Hetma\u0144czyk",
        "rank": 10317,
        "rank_sort": 10317,
        "total": 2398
      },
      {
        "club_badge_src": null,
        "entry": 1662909,
        "entry_name": "Delberto Clarkos",
        "event_total": 63,
        "has_played": true,
        "id": 11642639,
        "last_rank": 10651,
        "player_name": "Dale Clarke",
        "rank": 10317,
        "rank_sort": 10318,
        "total": 2398
      },
      {
        "club_badge_src": null,
        "entry": 1737086,
        "entry_name": "We'reJustNormalMen",
        "event_total": 62,
        "has_played": true,
        "id": 12186622,
        "last_rank": 10209,
        "player_name": "Daniel Chalmers",
        "rank": 10317,
        "rank_sort": 10319,
        "total": 2398
      },
      {
        "club_badge_src": null,
        "entry": 32100,
        "entry_name": "Hauls of fame",
        "event_total": 64,
        "has_played": true,
        "id": 203965,
        "last_rank": 11104,
        "player_name": "Sam Driver",
        "rank": 10320,
        "rank_sort": 10320,
        "total": 2398
      },
      {
        "club_badge_src": null,
        "entry": 322670,
        "entry_name": "Hakuna Mateta",
        "event_total": 60,
        "has_played": true,
        "id": 2162258,
        "last_rank": 9428,
        "player_name": "Jack Nolan",
        "rank": 10320,
        "rank_sort": 10321,
        "total": 2398
      },
      {
        "club_badge_src": null,
        "entry": 2836192,
        "entry_name": "Noah",
        "event_total": 62,
        "has_played": true,
        "id": 20726955,
        "last_rank": 12056,
        "player_name": "Noah Finstad",
        "rank": 10320,
        "rank_sort": 10322,
        "total": 2398
      },
      {
        "club_badge_src": null,
        "entry": 4482514,
        "entry_name": "rmfc2",
        "event_total": 70,
        "has_played": true,
        "id": 34163752,
        "last_rank": 16639,
        "player_name": "Ryan Mulholland",
        "rank": 10320,
        "rank_sort": 10323,
        "total": 2398
      },
      {
        "club_badge_src": null,
        "entry": 4493690,
        "entry_name": "w@ wd BryanMbeumo do",
        "event_total": 59,
        "has_played": true,
        "id": 34254796,
        "last_rank": 10686,
        "player_name": "DAIRE O'DUBHTHAIGH",
        "rank": 10320,
        "rank_sort": 10324,
        "total": 2398
      },
      {
        "club_badge_src": null,
        "entry": 5982134,
        "entry_name": "NonJaJan",
        "event_total": 54,
        "has_played": true,
        "id": 47107325,
        "last_rank": 8652,
        "player_name": "NoNylol Jaaa",
        "rank": 10320,
        "rank_sort": 10325,
        "total": 2398
      },
      {
        "club_badge_src": null,
        "entry": 7590956,
        "entry_name": "\u0645\u062f\u064a\u0646\u0629 \u0633\u064a\u062a\u064a",
        "event_total": 66,
        "has_played": true,
        "id": 62183490,
        "last_rank": 14200,
        "player_name": "Lamine Benkrane",
        "rank": 10326,
        "rank_sort": 10326,
        "total": 2398
      },
      {
        "club_badge_src": "https://fantasy.premierleague.com/gcs/plfpl-production-adobe-approved/plfpl-production/8025867/c4d588c0-9a8b-4e25-b97a-935d3c3870c3.png",
        "entry": 8025867,
        "entry_name": "3 Six 9 Twelve",
        "event_total": 55,
        "has_played": true,
        "id": 66118030,
        "last_rank": 5356,
        "player_name": "Shiva Ram",
        "rank": 10326,
        "rank_sort": 10327,
        "total": 2398
      },
      {
        "club_badge_src": "https://fantasy.premierleague.com/gcs/plfpl-production-adobe-approved/plfpl-production/164305/b805f0e9-74e5-480d-82d8-a04e5d7fec15.png",
        "entry": 164305,
        "entry_name": "Akhi Milaan!",
        "event_total": 68,
        "has_played": true,
        "id": 1084225,
        "last_rank": 13101,
        "player_name": "Abu Zaynab Wa Nusaybah Wa Mus'ab",
        "rank": 10328,
        "rank_sort": 10328,
        "total": 2398
      },
      {
        "club_badge_src": null,
        "entry": 2100461,
        "entry_name": "Palmer Violets",
        "event_total": 59,
        "has_played": true,
        "id": 14903707,
        "last_rank": 10693,
        "player_name": "Scott Maroti",
        "rank": 10328,
        "rank_sort": 10329,
        "total": 2398
      },
      {
        "club_badge_src": null,
        "entry": 5581029,
        "entry_name": "Tanathinaikos",
        "event_total": 64,
        "has_played": true,
        "id": 43589520,
        "last_rank": 13101,
        "player_name": "Taneli Okkonen",
        "rank": 10328,
        "rank_sort": 10330,
        "total": 2398
      },
      {
        "club_badge_src": null,
        "entry": 911207,
        "entry_name": "No Defense!",
        "event_total": 61,
        "has_played": true,
        "id": 6265289,
        "last_rank": 8300,
        "player_name": "Ahmed Hossam",
        "rank": 10331,
        "rank_sort": 10331,
        "total": 2398
      },
      {
        "club_badge_src": null,
        "entry": 1170590,
        "entry_name": "Anfield F.C.",
        "event_total": 72,
        "has_played": true,
        "id": 8120884,
        "last_rank": 17930,
        "player_name": "Tomas Sanchez",
        "rank": 10332,
        "rank_sort": 10332,
        "total": 2398
      },
      {
        "club_badge_src": "https://fantasy.premierleague.com/gcs/plfpl-production-adobe-approved/plfpl-production/3911739/4db0d6b0-9a87-4ee7-9446-9626ddc03a3b.png",
        "entry": 3911739,
        "entry_name": "\u0443\u03c3\u03c5\u044f \u0455\u0454\u0438\u03c1\u03b1\u03b9",
        "event_total": 46,
        "has_played": true,
        "id": 29410752,
        "last_rank": 6142,
        "player_name": "Bassem Yasser",
        "rank": 10333,
        "rank_sort": 10333,
        "total": 2398
      },
      {
        "club_badge_src": null,
        "entry": 1901304,
        "entry_name": "Supra",
        "event_total": 72,
        "has_played": true,
        "id": 13402944,
        "last_rank": 13114,
        "player_name": "Yah Hoo",
        "rank": 10334,
        "rank_sort": 10334,
        "total": 2398
      },
      {
        "club_badge_src": null,
        "entry": 6813745,
        "entry_name": "The Ant Hill Mobb",
        "event_total": 69,
        "has_played": true,
        "id": 54569525,
        "last_rank": 13694,
        "player_name": "Shak Mo",
        "rank": 10335,
        "rank_sort": 10335,
        "total": 2398
      },
      {
        "club_badge_src": null,
        "entry": 1283090,
        "entry_name": "Miggy Stardust",
        "event_total": 72,
        "has_played": true,
        "id": 8915786,
        "last_rank": 17953,
        "player_name": "Ashley Weddle",
        "rank": 10336,
        "rank_sort": 10336,
        "total": 2397
      },
      {
        "club_badge_src": null,
        "entry": 2237793,
        "entry_name": "Chelsky FC",
        "event_total": 65,
        "has_played": true,
        "id": 15942140,
        "last_rank": 13697,
        "player_name": "Rifal Alfian",
        "rank": 10337,
        "rank_sort": 10337,
        "total": 2397
      },
      {
        "club_badge_src": null,
        "entry": 2687842,
        "entry_name": "Cheerki FC",
        "event_total": 92,
        "has_played": true,
        "id": 19332337,
        "last_rank": 36091,
        "player_name": "Allen Karazian",
        "rank": 10338,
        "rank_sort": 10338,
        "total": 2397
      },
      {
        "club_badge_src": null,
        "entry": 7213964,
        "entry_name": "N17",
        "event_total": 52,
        "has_played": true,
        "id": 58265544,
        "last_rank": 7944,
        "player_name": "Joel Lambert",
        "rank": 10338,
        "rank_sort": 10339,
        "total": 2397
      },
      {
        "club_badge_src": null,
        "entry": 1161213,
        "entry_name": "Slot Machine FC",
        "event_total": 69,
        "has_played": true,
        "id": 8055211,
        "last_rank": 16023,
        "player_name": "Jannis Vrenegor",
        "rank": 10340,
        "rank_sort": 10340,
        "total": 2397
      },
      {
        "club_badge_src": "https://fantasy.premierleague.com/gcs/plfpl-production-adobe-approved/plfpl-production/29572/fe76a22e-f458-4614-b6e7-90178ab90471.png",
        "entry": 29572,
        "entry_name": "\u0e40\u0e17\u0e1e\u0e15\u0e2d\u0e07",
        "event_total": 51,
        "has_played": true,
        "id": 187053,
        "last_rank": 7592,
        "player_name": "Rachchakarun Khankhang",
        "rank": 10341,
        "rank_sort": 10341,
        "total": 2397
      },
      {
        "club_badge_src": null,
        "entry": 2393616,
        "entry_name": "Hecke's Angels",
        "event_total": 48,
        "has_played": true,
        "id": 17099216,
        "last_rank": 6673,
        "player_name": "Samuel Bristow",
        "rank": 10341,
        "rank_sort": 10342,
        "total": 2397
      },
      {
        "club_badge_src": null,
        "entry": 783136,
        "entry_name": "Jo\u00e3o You Doin\u2019?",
        "event_total": 50,
        "has_played": true,
        "id": 5347767,
        "last_rank": 7310,
        "player_name": "Campbell MacEwan",
        "rank": 10343,
        "rank_sort": 10343,
        "total": 2397
      },
      {
        "club_badge_src": null,
        "entry": 1244204,
        "entry_name": "Flowery Warts",
        "event_total": 56,
        "has_played": true,
        "id": 8641003,
        "last_rank": 9459,
        "player_name": "Tom Marsh",
        "rank": 10343,
        "rank_sort": 10344,
        "total": 2397
      },
      {
        "club_badge_src": null,
        "entry": 3458628,
        "entry_name": "Ganusi FC",
        "event_total": 76,
        "has_played": true,
        "id": 25707399,
        "last_rank": 20826,
        "player_name": "Olajide Ayeola",
        "rank": 10343,
        "rank_sort": 10345,
        "total": 2397
      },
      {
        "club_badge_src": null,
        "entry": 4357169,
        "entry_name": "Dukes of M Hazard",
        "event_total": 69,
        "has_played": true,
        "id": 33090985,
        "last_rank": 16026,
        "player_name": "Mark Hazard",
        "rank": 10343,
        "rank_sort": 10346,
        "total": 2397
      },
      {
        "club_badge_src": null,
        "entry": 5707742,
        "entry_name": "Cold Palmer",
        "event_total": 52,
        "has_played": true,
        "id": 44694592,
        "last_rank": 7959,
        "player_name": "Alan Healy",
        "rank": 10343,
        "rank_sort": 10347,
        "total": 2397
      },
      {
        "club_badge_src": null,
        "entry": 235212,
        "entry_name": "Son Ting Wong",
        "event_total": 52,
        "has_played": true,
        "id": 1565080,
        "last_rank": 7949,
        "player_name": "Leo Feng Zhao",
        "rank": 10348,
        "rank_sort": 10348,
        "total": 2397
      },
      {
        "club_badge_src": null,
        "entry": 290564,
        "entry_name": "G Kell Warriors",
        "event_total": 57,
        "has_played": true,
        "id": 1937595,
        "last_rank": 9853,
        "player_name": "Lance Lewis",
        "rank": 10348,
        "rank_sort": 10349,
        "total": 2397
      },
      {
        "club_badge_src": null,
        "entry": 955627,
        "entry_name": "#MidtableGoals",
        "event_total": 44,
        "has_played": true,
        "id": 6584405,
        "last_rank": 5646,
        "player_name": "Darryl King",
        "rank": 10348,
        "rank_sort": 10350,
        "total": 2397
      }
    ]
  }
}