{
  "last_updated_data": "2026-05-24T23:28:17Z",
  "league": {
    "admin_entry": null,
    "closed": false,
    "code_privacy": "p",
    "created": "2025-07-20T23:14:33.933835Z",
    "cup_league": 2815434,
    "has_cup": true,
    "id": 314,
    "league_type": "s",
    "max_entries": null,
    "name": "Overall",
    "rank": null,
    "scoring": "c",
    "start_event": 1
  },
  "new_entries": {
    "has_next": false,
    "page": 1,
    "results": []
  },
  "standings": {
    "has_next": true,
    "page": 647,
    "results": [
      {
        "club_badge_src": null,
        "entry": 24156,
        "entry_name": "Dargistan",
        "event_total": 49,
        "has_played": true,
        "id": 152409,
        "last_rank": 21159,
        "player_name": "Michael Darg",
        "rank": 32289,
        "rank_sort": 32301,
        "total": 2366
      },
      {
        "club_badge_src": null,
        "entry": 25428,
        "entry_name": "USS Mac Allister",
        "event_total": 65,
        "has_played": true,
        "id": 160811,
        "last_rank": 36624,
        "player_name": "Ben Houghton",
        "rank": 32289,
        "rank_sort": 32302,
        "total": 2366
      },
      {
        "club_badge_src": null,
        "entry": 27284,
        "entry_name": "Ajax Treesdown",
        "event_total": 53,
        "has_played": true,
        "id": 172462,
        "last_rank": 27770,
        "player_name": "Chris Irwin",
        "rank": 32289,
        "rank_sort": 32303,
        "total": 2366
      },
      {
        "club_badge_src": null,
        "entry": 39535,
        "entry_name": "ACS Champions",
        "event_total": 67,
        "has_played": true,
        "id": 253321,
        "last_rank": 44525,
        "player_name": "Miroslav Sip",
        "rank": 32289,
        "rank_sort": 32304,
        "total": 2366
      },
      {
        "club_badge_src": null,
        "entry": 50687,
        "entry_name": "KAPIT FC",
        "event_total": 65,
        "has_played": true,
        "id": 326015,
        "last_rank": 36624,
        "player_name": "SYED NAZRI 1",
        "rank": 32289,
        "rank_sort": 32305,
        "total": 2366
      },
      {
        "club_badge_src": null,
        "entry": 58912,
        "entry_name": "Don\u2019tLookBackElanga",
        "event_total": 48,
        "has_played": true,
        "id": 379420,
        "last_rank": 23656,
        "player_name": "Luke Dance",
        "rank": 32289,
        "rank_sort": 32306,
        "total": 2366
      },
      {
        "club_badge_src": null,
        "entry": 59311,
        "entry_name": "Corn On The Kobbie",
        "event_total": 53,
        "has_played": true,
        "id": 381989,
        "last_rank": 27976,
        "player_name": "Lewis Cullen",
        "rank": 32289,
        "rank_sort": 32307,
        "total": 2366
      },
      {
        "club_badge_src": null,
        "entry": 60842,
        "entry_name": "Dylano FC",
        "event_total": 70,
        "has_played": true,
        "id": 391743,
        "last_rank": 42940,
        "player_name": "Dylan Ryan",
        "rank": 32289,
        "rank_sort": 32308,
        "total": 2366
      },
      {
        "club_badge_src": "https://fantasy.premierleague.com/gcs/plfpl-production-adobe-approved/plfpl-production/63820/ee0a6c25-0f8a-49f9-a791-554e91c1bec6.png",
        "entry": 63820,
        "entry_name": "Bruno Dos Tres",
        "event_total": 75,
        "has_played": true,
        "id": 411835,
        "last_rank": 43849,
        "player_name": "Paul Eric Seedell",
        "rank": 32289,
        "rank_sort": 32309,
        "total": 2366
      },
      {
        "club_badge_src": null,
        "entry": 70377,
        "entry_name": "Baaa",
        "event_total": 66,
        "has_played": true,
        "id": 456978,
        "last_rank": 32879,
        "player_name": "Andrew Green",
        "rank": 32289,
        "rank_sort": 32310,
        "total": 2366
      },
      {
        "club_badge_src": null,
        "entry": 86827,
        "entry_name": "Moss FC",
        "event_total": 62,
        "has_played": true,
        "id": 565955,
        "last_rank": 37589,
        "player_name": "Aleksandr Mossman",
        "rank": 32289,
        "rank_sort": 32311,
        "total": 2366
      },
      {
        "club_badge_src": "https://fantasy.premierleague.com/gcs/plfpl-production-adobe-approved/plfpl-production/106113/2f4b9e3d-b1fe-46ea-b1b2-43e285e66a02.png",
        "entry": 106113,
        "entry_name": "Fossum",
        "event_total": 81,
        "has_played": true,
        "id": 691966,
        "last_rank": 67422,
        "player_name": "Niklas Jernberg",
        "rank": 32289,
        "rank_sort": 32312,
        "total": 2366
      },
      {
        "club_badge_src": "https://fantasy.premierleague.com/gcs/plfpl-production-adobe-approved/plfpl-production/119720/51cdbae3-9824-416f-9c38-6b7fda11a0f1.png",
        "entry": 119720,
        "entry_name": "NOVA",
        "event_total": 65,
        "has_played": true,
        "id": 781092,
        "last_rank": 41824,
        "player_name": "Nowruz Ki\u00e7igulow",
        "rank": 32289,
        "rank_sort": 32313,
        "total": 2366
      },
      {
        "club_badge_src": null,
        "entry": 127600,
        "entry_name": "Blue Unicorn",
        "event_total": 71,
        "has_played": true,
        "id": 831811,
        "last_rank": 50199,
        "player_name": "Gab Fong",
        "rank": 32289,
        "rank_sort": 32314,
        "total": 2366
      },
      {
        "club_badge_src": null,
        "entry": 141756,
        "entry_name": "Coles",
        "event_total": 58,
        "has_played": true,
        "id": 926311,
        "last_rank": 33147,
        "player_name": "Ben Coles",
        "rank": 32289,
        "rank_sort": 32315,
        "total": 2366
      },
      {
        "club_badge_src": null,
        "entry": 150491,
        "entry_name": "*TIGERS ALLSTARS*",
        "event_total": 59,
        "has_played": true,
        "id": 987015,
        "last_rank": 34458,
        "player_name": "Christian Mulvihill",
        "rank": 32289,
        "rank_sort": 32316,
        "total": 2366
      },
      {
        "club_badge_src": null,
        "entry": 152615,
        "entry_name": "Shylass @ the finish",
        "event_total": 74,
        "has_played": true,
        "id": 1001761,
        "last_rank": 48363,
        "player_name": "Nigel Rowe",
        "rank": 32289,
        "rank_sort": 32317,
        "total": 2366
      },
      {
        "club_badge_src": null,
        "entry": 155967,
        "entry_name": "Flying Without Mings",
        "event_total": 67,
        "has_played": true,
        "id": 1025460,
        "last_rank": 44303,
        "player_name": "Sean Tuckley",
        "rank": 32289,
        "rank_sort": 32318,
        "total": 2366
      },
      {
        "club_badge_src": null,
        "entry": 160115,
        "entry_name": "Fergus on Fire",
        "event_total": 52,
        "has_played": true,
        "id": 1054213,
        "last_rank": 27304,
        "player_name": "Ruairi Farrell",
        "rank": 32289,
        "rank_sort": 32319,
        "total": 2366
      },
      {
        "club_badge_src": null,
        "entry": 163253,
        "entry_name": "Chairman Mount",
        "event_total": 57,
        "has_played": true,
        "id": 1076642,
        "last_rank": 27976,
        "player_name": "James Hickson",
        "rank": 32289,
        "rank_sort": 32320,
        "total": 2366
      },
      {
        "club_badge_src": null,
        "entry": 187118,
        "entry_name": "Mass Dz",
        "event_total": 52,
        "has_played": true,
        "id": 1237010,
        "last_rank": 23522,
        "player_name": "Massi Ouall",
        "rank": 32289,
        "rank_sort": 32321,
        "total": 2366
      },
      {
        "club_badge_src": null,
        "entry": 191696,
        "entry_name": "sunny innit?",
        "event_total": 61,
        "has_played": true,
        "id": 1269811,
        "last_rank": 36831,
        "player_name": "Jordan H",
        "rank": 32289,
        "rank_sort": 32322,
        "total": 2366
      },
      {
        "club_badge_src": "https://fantasy.premierleague.com/gcs/plfpl-production-adobe-approved/plfpl-production/193642/dbecd955-e510-4d82-8a67-7dbbb806f105.png",
        "entry": 193642,
        "entry_name": "TALK TO FRANK",
        "event_total": 60,
        "has_played": true,
        "id": 1283586,
        "last_rank": 35619,
        "player_name": "pj mccarron",
        "rank": 32289,
        "rank_sort": 32323,
        "total": 2366
      },
      {
        "club_badge_src": null,
        "entry": 207233,
        "entry_name": "Can't get any Wirtz",
        "event_total": 59,
        "has_played": true,
        "id": 1377403,
        "last_rank": 34458,
        "player_name": "Scott Greenwood",
        "rank": 32289,
        "rank_sort": 32324,
        "total": 2366
      },
      {
        "club_badge_src": null,
        "entry": 211503,
        "entry_name": "Grey Goose",
        "event_total": 63,
        "has_played": true,
        "id": 1406781,
        "last_rank": 38774,
        "player_name": "Patryk Wikarski",
        "rank": 32289,
        "rank_sort": 32325,
        "total": 2366
      },
      {
        "club_badge_src": "https://fantasy.premierleague.com/gcs/plfpl-production-adobe-approved/plfpl-production/216702/d1defa3d-22da-4b0c-93e0-b97344eb0e21.png",
        "entry": 216702,
        "entry_name": "Dirty Martinez",
        "event_total": 58,
        "has_played": true,
        "id": 1441339,
        "last_rank": 33332,
        "player_name": "Mark Hunt",
        "rank": 32289,
        "rank_sort": 32326,
        "total": 2366
      },
      {
        "club_badge_src": null,
        "entry": 229520,
        "entry_name": "Ryrox",
        "event_total": 61,
        "has_played": true,
        "id": 1527035,
        "last_rank": 36831,
        "player_name": "Ryan Dempsey",
        "rank": 32289,
        "rank_sort": 32327,
        "total": 2366
      },
      {
        "club_badge_src": "https://fantasy.premierleague.com/gcs/plfpl-production-adobe-approved/plfpl-production/247662/8c498502-5df6-4cd2-99b0-0d5a44173558.png",
        "entry": 247662,
        "entry_name": "yasser 1",
        "event_total": 54,
        "has_played": true,
        "id": 1648480,
        "last_rank": 29071,
        "player_name": "yasser eissa",
        "rank": 32289,
        "rank_sort": 32328,
        "total": 2366
      },
      {
        "club_badge_src": null,
        "entry": 249898,
        "entry_name": "Balls of Steele",
        "event_total": 59,
        "has_played": true,
        "id": 1662817,
        "last_rank": 34293,
        "player_name": "Tom Auchterlonie",
        "rank": 32289,
        "rank_sort": 32329,
        "total": 2366
      },
      {
        "club_badge_src": null,
        "entry": 278766,
        "entry_name": "Sticky toffees",
        "event_total": 51,
        "has_played": true,
        "id": 1855328,
        "last_rank": 26230,
        "player_name": "Steven Holmes",
        "rank": 32289,
        "rank_sort": 32330,
        "total": 2366
      },
      {
        "club_badge_src": null,
        "entry": 283980,
        "entry_name": "Kung Fu Minanda",
        "event_total": 52,
        "has_played": true,
        "id": 1890757,
        "last_rank": 27203,
        "player_name": "Patrick Nourish",
        "rank": 32289,
        "rank_sort": 32331,
        "total": 2366
      },
      {
        "club_badge_src": null,
        "entry": 301768,
        "entry_name": "Henkeguden",
        "event_total": 61,
        "has_played": true,
        "id": 2019169,
        "last_rank": 31995,
        "player_name": "Henrik Kaspersen",
        "rank": 32289,
        "rank_sort": 32332,
        "total": 2366
      },
      {
        "club_badge_src": null,
        "entry": 338178,
        "entry_name": "Kosmos Lichen",
        "event_total": 66,
        "has_played": true,
        "id": 2264017,
        "last_rank": 42940,
        "player_name": "Jakub Spilnyk",
        "rank": 32289,
        "rank_sort": 32333,
        "total": 2366
      },
      {
        "club_badge_src": null,
        "entry": 388397,
        "entry_name": "London is white",
        "event_total": 60,
        "has_played": true,
        "id": 2605531,
        "last_rank": 35424,
        "player_name": "Filip \u010cech",
        "rank": 32289,
        "rank_sort": 32334,
        "total": 2366
      },
      {
        "club_badge_src": null,
        "entry": 437019,
        "entry_name": "At.\u015e\u00e4m\u012b",
        "event_total": 64,
        "has_played": true,
        "id": 2930591,
        "last_rank": 40503,
        "player_name": "Samii mechbal",
        "rank": 32289,
        "rank_sort": 32335,
        "total": 2366
      },
      {
        "club_badge_src": null,
        "entry": 445959,
        "entry_name": "tea & busquets",
        "event_total": 48,
        "has_played": true,
        "id": 2991039,
        "last_rank": 23656,
        "player_name": "Bobby Whitby",
        "rank": 32289,
        "rank_sort": 32336,
        "total": 2366
      },
      {
        "club_badge_src": null,
        "entry": 511798,
        "entry_name": "Boys from SE25",
        "event_total": 68,
        "has_played": true,
        "id": 3436692,
        "last_rank": 45714,
        "player_name": "George Brake",
        "rank": 32289,
        "rank_sort": 32337,
        "total": 2366
      },
      {
        "club_badge_src": null,
        "entry": 539308,
        "entry_name": "EZWIN",
        "event_total": 69,
        "has_played": true,
        "id": 3630139,
        "last_rank": 41617,
        "player_name": "Lewis Barclay",
        "rank": 32289,
        "rank_sort": 32338,
        "total": 2366
      },
      {
        "club_badge_src": null,
        "entry": 553095,
        "entry_name": "Alisson wonderland",
        "event_total": 50,
        "has_played": true,
        "id": 3722748,
        "last_rank": 25330,
        "player_name": "Matthew Bell",
        "rank": 32289,
        "rank_sort": 32339,
        "total": 2366
      },
      {
        "club_badge_src": null,
        "entry": 579017,
        "entry_name": "\ua731\u1d07\u1d07 \u028f\u1d0f\u1d1c \ua731\u1d00\u1d0b\u1d00",
        "event_total": 40,
        "has_played": true,
        "id": 3895964,
        "last_rank": 17718,
        "player_name": "Kishen VK",
        "rank": 32289,
        "rank_sort": 32340,
        "total": 2366
      },
      {
        "club_badge_src": null,
        "entry": 605776,
        "entry_name": "Die Mannschaft",
        "event_total": 46,
        "has_played": true,
        "id": 4090216,
        "last_rank": 22064,
        "player_name": "Victor Jansson",
        "rank": 32289,
        "rank_sort": 32341,
        "total": 2366
      },
      {
        "club_badge_src": null,
        "entry": 606467,
        "entry_name": "York p\u00e5 benken",
        "event_total": 60,
        "has_played": true,
        "id": 4095196,
        "last_rank": 35619,
        "player_name": "Michael York",
        "rank": 32289,
        "rank_sort": 32342,
        "total": 2366
      },
      {
        "club_badge_src": "https://fantasy.premierleague.com/gcs/plfpl-production-adobe-approved/plfpl-production/649326/0c2aa081-286b-4878-bfec-07d1c1effbf4.png",
        "entry": 649326,
        "entry_name": "Fitz F.C.",
        "event_total": 57,
        "has_played": true,
        "id": 4388305,
        "last_rank": 27976,
        "player_name": "Ryan Fitzpatrick",
        "rank": 32289,
        "rank_sort": 32343,
        "total": 2366
      },
      {
        "club_badge_src": null,
        "entry": 658497,
        "entry_name": "Luigirules",
        "event_total": 68,
        "has_played": true,
        "id": 4449949,
        "last_rank": 45927,
        "player_name": "\u0141ukasz Samojlik",
        "rank": 32289,
        "rank_sort": 32344,
        "total": 2366
      },
      {
        "club_badge_src": "https://fantasy.premierleague.com/gcs/plfpl-production-adobe-approved/plfpl-production/671192/a2ba3ea0-89bd-4689-8461-2a6e784806dd.png",
        "entry": 671192,
        "entry_name": "Alpinista HD",
        "event_total": 85,
        "has_played": true,
        "id": 4539783,
        "last_rank": 76128,
        "player_name": "Andrew Hulse",
        "rank": 32289,
        "rank_sort": 32345,
        "total": 2366
      },
      {
        "club_badge_src": null,
        "entry": 708607,
        "entry_name": "A Team",
        "event_total": 64,
        "has_played": true,
        "id": 4802737,
        "last_rank": 35424,
        "player_name": "Ammar Hussain",
        "rank": 32289,
        "rank_sort": 32346,
        "total": 2366
      },
      {
        "club_badge_src": null,
        "entry": 713579,
        "entry_name": "Oh my Jo\u00e3o",
        "event_total": 54,
        "has_played": true,
        "id": 4841007,
        "last_rank": 28906,
        "player_name": "Rosie Stone",
        "rank": 32289,
        "rank_sort": 32347,
        "total": 2366
      },
      {
        "club_badge_src": null,
        "entry": 719920,
        "entry_name": "Why Ayew Running",
        "event_total": 77,
        "has_played": true,
        "id": 4887214,
        "last_rank": 60671,
        "player_name": "Vincenzo Pozzuto",
        "rank": 32289,
        "rank_sort": 32348,
        "total": 2366
      },
      {
        "club_badge_src": null,
        "entry": 820131,
        "entry_name": "el_padrino",
        "event_total": 64,
        "has_played": true,
        "id": 5616879,
        "last_rank": 40036,
        "player_name": "Demosthenis Charalambous",
        "rank": 32289,
        "rank_sort": 32349,
        "total": 2366
      },
      {
        "club_badge_src": "https://fantasy.premierleague.com/gcs/plfpl-production-adobe-approved/plfpl-production/823158/4c9a5fc5-afcb-46d9-8bd5-eaed285c7451.png",
        "entry": 823158,
        "entry_name": "Porto Horizonte",
        "event_total": 68,
        "has_played": true,
        "id": 5637617,
        "last_rank": 45927,
        "player_name": "Goran Simonoski",
        "rank": 32289,
        "rank_sort": 32350,
        "total": 2366
      }
    ]
  }
}