{
  "last_updated_data": "2026-05-24T23:28:17Z",
  "league": {
    "admin_entry": null,
    "closed": false,
    "code_privacy": "p",
    "created": "2025-07-20T23:14:33.933835Z",
    "cup_league": 2815434,
    "has_cup": true,
    "id": 314,
    "league_type": "s",
    "max_entries": null,
    "name": "Overall",
    "rank": null,
    "scoring": "c",
    "start_event": 1
  },
  "new_entries": {
    "has_next": false,
    "page": 1,
    "results": []
  },
  "standings": {
    "has_next": true,
    "page": 1289,
    "results": [
      {
        "club_badge_src": null,
        "entry": 3313696,
        "entry_name": "Rabbit out of a Hato",
        "event_total": 51,
        "has_played": true,
        "id": 24551660,
        "last_rank": 54667,
        "player_name": "Matthew Fowler",
        "rank": 64222,
        "rank_sort": 64401,
        "total": 2343
      },
      {
        "club_badge_src": null,
        "entry": 3317952,
        "entry_name": "Wenlock Warriors",
        "event_total": 53,
        "has_played": true,
        "id": 24586460,
        "last_rank": 58071,
        "player_name": "Paul Butler",
        "rank": 64222,
        "rank_sort": 64402,
        "total": 2343
      },
      {
        "club_badge_src": null,
        "entry": 3340017,
        "entry_name": "KTBFFH FC",
        "event_total": 52,
        "has_played": true,
        "id": 24772954,
        "last_rank": 56708,
        "player_name": "Anish Badwe",
        "rank": 64222,
        "rank_sort": 64403,
        "total": 2343
      },
      {
        "club_badge_src": null,
        "entry": 3375515,
        "entry_name": "Hameid FC",
        "event_total": 65,
        "has_played": true,
        "id": 25053872,
        "last_rank": 81420,
        "player_name": "Mostafa Hameid -",
        "rank": 64222,
        "rank_sort": 64404,
        "total": 2343
      },
      {
        "club_badge_src": "https://fantasy.premierleague.com/gcs/plfpl-production-adobe-approved/plfpl-production/3403835/99a2ea9f-df64-4dc7-af62-fccb10fb2aab.png",
        "entry": 3403835,
        "entry_name": "Kyivlliano-Dynamo",
        "event_total": 63,
        "has_played": true,
        "id": 25273905,
        "last_rank": 68748,
        "player_name": "Yarrick Nick",
        "rank": 64222,
        "rank_sort": 64405,
        "total": 2343
      },
      {
        "club_badge_src": null,
        "entry": 3452889,
        "entry_name": "No wood no forest",
        "event_total": 60,
        "has_played": true,
        "id": 25660750,
        "last_rank": 70985,
        "player_name": "Navaj Nandwani",
        "rank": 64222,
        "rank_sort": 64406,
        "total": 2343
      },
      {
        "club_badge_src": null,
        "entry": 3505361,
        "entry_name": "Easy",
        "event_total": 69,
        "has_played": true,
        "id": 26077101,
        "last_rank": 90746,
        "player_name": "Abdulla khalifa",
        "rank": 64222,
        "rank_sort": 64407,
        "total": 2343
      },
      {
        "club_badge_src": null,
        "entry": 3519826,
        "entry_name": "BENDAOUD FC",
        "event_total": 60,
        "has_played": true,
        "id": 26193913,
        "last_rank": 70985,
        "player_name": "Yahya Bendaoud",
        "rank": 64222,
        "rank_sort": 64408,
        "total": 2343
      },
      {
        "club_badge_src": null,
        "entry": 3537817,
        "entry_name": "Juninho FC",
        "event_total": 71,
        "has_played": true,
        "id": 26333495,
        "last_rank": 95640,
        "player_name": "Sylvanus Emezie",
        "rank": 64222,
        "rank_sort": 64409,
        "total": 2343
      },
      {
        "club_badge_src": null,
        "entry": 3687670,
        "entry_name": "Yogi XI",
        "event_total": 46,
        "has_played": true,
        "id": 27509786,
        "last_rank": 47163,
        "player_name": "Matt Jones",
        "rank": 64222,
        "rank_sort": 64410,
        "total": 2343
      },
      {
        "club_badge_src": null,
        "entry": 3693344,
        "entry_name": "Corn on the Kobbie",
        "event_total": 54,
        "has_played": true,
        "id": 27553636,
        "last_rank": 59632,
        "player_name": "Alexander Fulton",
        "rank": 64222,
        "rank_sort": 64411,
        "total": 2343
      },
      {
        "club_badge_src": null,
        "entry": 3734633,
        "entry_name": "lemonadejimmy",
        "event_total": 52,
        "has_played": true,
        "id": 27876416,
        "last_rank": 56369,
        "player_name": "Dimitar Dimoski",
        "rank": 64222,
        "rank_sort": 64412,
        "total": 2343
      },
      {
        "club_badge_src": null,
        "entry": 3795145,
        "entry_name": "Big Chew",
        "event_total": 52,
        "has_played": true,
        "id": 28366227,
        "last_rank": 56369,
        "player_name": "Chris Hewitt",
        "rank": 64222,
        "rank_sort": 64413,
        "total": 2343
      },
      {
        "club_badge_src": null,
        "entry": 3801732,
        "entry_name": "The Red Men",
        "event_total": 62,
        "has_played": true,
        "id": 28420212,
        "last_rank": 75139,
        "player_name": "Jason Morgan",
        "rank": 64222,
        "rank_sort": 64414,
        "total": 2343
      },
      {
        "club_badge_src": null,
        "entry": 3826671,
        "entry_name": "SCFC",
        "event_total": 45,
        "has_played": true,
        "id": 28623692,
        "last_rank": 45252,
        "player_name": "Sophie Carran",
        "rank": 64222,
        "rank_sort": 64415,
        "total": 2343
      },
      {
        "club_badge_src": null,
        "entry": 3828555,
        "entry_name": "Clermiston Rovers",
        "event_total": 46,
        "has_played": true,
        "id": 28638811,
        "last_rank": 46660,
        "player_name": "Richard Cornwell",
        "rank": 64222,
        "rank_sort": 64416,
        "total": 2343
      },
      {
        "club_badge_src": null,
        "entry": 3843742,
        "entry_name": "Werners \u00c6gte",
        "event_total": 62,
        "has_played": true,
        "id": 28803543,
        "last_rank": 75139,
        "player_name": "Jesper Nissen",
        "rank": 64222,
        "rank_sort": 64417,
        "total": 2343
      },
      {
        "club_badge_src": null,
        "entry": 3857769,
        "entry_name": "stealth_duru17",
        "event_total": 70,
        "has_played": true,
        "id": 28922882,
        "last_rank": 93186,
        "player_name": "Duru Emmanuel",
        "rank": 64222,
        "rank_sort": 64418,
        "total": 2343
      },
      {
        "club_badge_src": null,
        "entry": 3858165,
        "entry_name": "Piratiko",
        "event_total": 45,
        "has_played": true,
        "id": 28926238,
        "last_rank": 45252,
        "player_name": "Vardis Prokopakis",
        "rank": 64222,
        "rank_sort": 64419,
        "total": 2343
      },
      {
        "club_badge_src": "https://fantasy.premierleague.com/gcs/plfpl-production-adobe-approved/plfpl-production/3892650/f63615a7-ec44-435c-90c8-7429a6e109c8.png",
        "entry": 3892650,
        "entry_name": "Beemont",
        "event_total": 69,
        "has_played": true,
        "id": 29254281,
        "last_rank": 90746,
        "player_name": "Marcus Fernandes",
        "rank": 64222,
        "rank_sort": 64420,
        "total": 2343
      },
      {
        "club_badge_src": null,
        "entry": 3945931,
        "entry_name": "Sensational Spurs",
        "event_total": 51,
        "has_played": true,
        "id": 29683949,
        "last_rank": 54667,
        "player_name": "Jackson Launt",
        "rank": 64222,
        "rank_sort": 64421,
        "total": 2343
      },
      {
        "club_badge_src": null,
        "entry": 4002164,
        "entry_name": "Gyokerass",
        "event_total": 70,
        "has_played": true,
        "id": 30145164,
        "last_rank": 93443,
        "player_name": "Aiden Tan",
        "rank": 64222,
        "rank_sort": 64422,
        "total": 2343
      },
      {
        "club_badge_src": null,
        "entry": 4021708,
        "entry_name": "Don'tlookbackElanga",
        "event_total": 55,
        "has_played": true,
        "id": 30311873,
        "last_rank": 61606,
        "player_name": "Finn Hamilton",
        "rank": 64222,
        "rank_sort": 64423,
        "total": 2343
      },
      {
        "club_badge_src": "https://fantasy.premierleague.com/gcs/plfpl-production-adobe-approved/plfpl-production/4031969/99d21946-26a8-46a1-8d83-9750b7f8ddba.png",
        "entry": 4031969,
        "entry_name": "Network Railblazers",
        "event_total": 65,
        "has_played": true,
        "id": 30397018,
        "last_rank": 81646,
        "player_name": "Will Holbrook",
        "rank": 64222,
        "rank_sort": 64424,
        "total": 2343
      },
      {
        "club_badge_src": null,
        "entry": 4124795,
        "entry_name": "Trajkov FC",
        "event_total": 70,
        "has_played": true,
        "id": 31164566,
        "last_rank": 93052,
        "player_name": "Dule Trajkov",
        "rank": 64222,
        "rank_sort": 64425,
        "total": 2343
      },
      {
        "club_badge_src": null,
        "entry": 4126795,
        "entry_name": "Ebiowei Too Good",
        "event_total": 52,
        "has_played": true,
        "id": 31183013,
        "last_rank": 56369,
        "player_name": "Max Wiggans",
        "rank": 64222,
        "rank_sort": 64426,
        "total": 2343
      },
      {
        "club_badge_src": null,
        "entry": 4165981,
        "entry_name": "West Ham(pstead)",
        "event_total": 37,
        "has_played": true,
        "id": 31503624,
        "last_rank": 35034,
        "player_name": "Josh Lloyd",
        "rank": 64222,
        "rank_sort": 64427,
        "total": 2343
      },
      {
        "club_badge_src": null,
        "entry": 4192912,
        "entry_name": "Team management load",
        "event_total": 62,
        "has_played": true,
        "id": 31732786,
        "last_rank": 75139,
        "player_name": "Kristjan Bercko",
        "rank": 64222,
        "rank_sort": 64428,
        "total": 2343
      },
      {
        "club_badge_src": null,
        "entry": 4201695,
        "entry_name": "United we stand",
        "event_total": 66,
        "has_played": true,
        "id": 31805973,
        "last_rank": 83698,
        "player_name": "Bernard Goves",
        "rank": 64222,
        "rank_sort": 64429,
        "total": 2343
      },
      {
        "club_badge_src": "https://fantasy.premierleague.com/gcs/plfpl-production-adobe-approved/plfpl-production/4229014/b24cac0f-1e65-4fb7-86d6-50ca0c1c8777.png",
        "entry": 4229014,
        "entry_name": "EKITIKITAKA",
        "event_total": 67,
        "has_played": true,
        "id": 32041461,
        "last_rank": 85836,
        "player_name": "Anshul Shriwatri",
        "rank": 64222,
        "rank_sort": 64430,
        "total": 2343
      },
      {
        "club_badge_src": null,
        "entry": 4256179,
        "entry_name": "Lewis WingWing Hello",
        "event_total": 63,
        "has_played": true,
        "id": 32267299,
        "last_rank": 77258,
        "player_name": "Jim Tatum",
        "rank": 64222,
        "rank_sort": 64431,
        "total": 2343
      },
      {
        "club_badge_src": null,
        "entry": 4395172,
        "entry_name": "Backstreet Moyes",
        "event_total": 48,
        "has_played": true,
        "id": 33419404,
        "last_rank": 49880,
        "player_name": "Bertie Kindersley",
        "rank": 64222,
        "rank_sort": 64432,
        "total": 2343
      },
      {
        "club_badge_src": null,
        "entry": 4412647,
        "entry_name": "MaximumBrubaker",
        "event_total": 67,
        "has_played": true,
        "id": 33568277,
        "last_rank": 86735,
        "player_name": "Dr Bones",
        "rank": 64222,
        "rank_sort": 64433,
        "total": 2343
      },
      {
        "club_badge_src": null,
        "entry": 4457574,
        "entry_name": "Hardly Athletic",
        "event_total": 48,
        "has_played": true,
        "id": 33957619,
        "last_rank": 50199,
        "player_name": "Oliver Grimas",
        "rank": 64222,
        "rank_sort": 64434,
        "total": 2343
      },
      {
        "club_badge_src": null,
        "entry": 4549622,
        "entry_name": "Do-Re-Mi-Mo-Sa-Lah",
        "event_total": 66,
        "has_played": true,
        "id": 34712450,
        "last_rank": 83934,
        "player_name": "Matt Turley",
        "rank": 64222,
        "rank_sort": 64435,
        "total": 2343
      },
      {
        "club_badge_src": null,
        "entry": 4600866,
        "entry_name": "Kun Anden Halvleg",
        "event_total": 53,
        "has_played": true,
        "id": 35146566,
        "last_rank": 58071,
        "player_name": "Christoffer Christiansen",
        "rank": 64222,
        "rank_sort": 64436,
        "total": 2343
      },
      {
        "club_badge_src": null,
        "entry": 4604269,
        "entry_name": "XI",
        "event_total": 63,
        "has_played": true,
        "id": 35175806,
        "last_rank": 68748,
        "player_name": "Huw Ward",
        "rank": 64222,
        "rank_sort": 64437,
        "total": 2343
      },
      {
        "club_badge_src": null,
        "entry": 4683519,
        "entry_name": "Moa'mn",
        "event_total": 75,
        "has_played": true,
        "id": 35890222,
        "last_rank": 95464,
        "player_name": "Moamn Moaaa",
        "rank": 64222,
        "rank_sort": 64438,
        "total": 2343
      },
      {
        "club_badge_src": null,
        "entry": 4708800,
        "entry_name": "must try harder",
        "event_total": 48,
        "has_played": true,
        "id": 36114508,
        "last_rank": 49880,
        "player_name": "Bob Lamb",
        "rank": 64222,
        "rank_sort": 64439,
        "total": 2343
      },
      {
        "club_badge_src": null,
        "entry": 4720138,
        "entry_name": "Dude Writz My Car",
        "event_total": 60,
        "has_played": true,
        "id": 36257979,
        "last_rank": 63117,
        "player_name": "Lynton Lewis",
        "rank": 64222,
        "rank_sort": 64440,
        "total": 2343
      },
      {
        "club_badge_src": "https://fantasy.premierleague.com/gcs/plfpl-production-adobe-approved/plfpl-production/4805290/5f6add36-1355-4366-be2f-f2dc7842adc2.png",
        "entry": 4805290,
        "entry_name": "Arteta OUT",
        "event_total": 65,
        "has_played": true,
        "id": 36999070,
        "last_rank": 81646,
        "player_name": "Tyler Russell",
        "rank": 64222,
        "rank_sort": 64441,
        "total": 2343
      },
      {
        "club_badge_src": null,
        "entry": 4834201,
        "entry_name": "Abdulrahman",
        "event_total": 76,
        "has_played": true,
        "id": 37235459,
        "last_rank": 98183,
        "player_name": "Abdulrahman Al-abri",
        "rank": 64222,
        "rank_sort": 64442,
        "total": 2343
      },
      {
        "club_badge_src": null,
        "entry": 4868787,
        "entry_name": "Lebron's Labubus",
        "event_total": 53,
        "has_played": true,
        "id": 37526888,
        "last_rank": 58071,
        "player_name": "Marcus Fong",
        "rank": 64222,
        "rank_sort": 64443,
        "total": 2343
      },
      {
        "club_badge_src": null,
        "entry": 4900825,
        "entry_name": "FlowRyanWeirds",
        "event_total": 67,
        "has_played": true,
        "id": 37791025,
        "last_rank": 86054,
        "player_name": "Achim Lacler",
        "rank": 64222,
        "rank_sort": 64444,
        "total": 2343
      },
      {
        "club_badge_src": null,
        "entry": 4904783,
        "entry_name": "Mcginn and tonic",
        "event_total": 71,
        "has_played": true,
        "id": 37823019,
        "last_rank": 95640,
        "player_name": "Declan Hickford",
        "rank": 64222,
        "rank_sort": 64445,
        "total": 2343
      },
      {
        "club_badge_src": null,
        "entry": 4950514,
        "entry_name": "Slot One Inn",
        "event_total": 64,
        "has_played": true,
        "id": 38199097,
        "last_rank": 79190,
        "player_name": "Sebastian Paynter",
        "rank": 64222,
        "rank_sort": 64446,
        "total": 2343
      },
      {
        "club_badge_src": "https://fantasy.premierleague.com/gcs/plfpl-production-adobe-approved/plfpl-production/4956850/927c5ba9-a343-45d3-97a8-ba28371a615d.png",
        "entry": 4956850,
        "entry_name": "Mr greedy united",
        "event_total": 57,
        "has_played": true,
        "id": 38250163,
        "last_rank": 65163,
        "player_name": "Asaph Ferber",
        "rank": 64222,
        "rank_sort": 64447,
        "total": 2343
      },
      {
        "club_badge_src": null,
        "entry": 5011901,
        "entry_name": "ManC Boyz",
        "event_total": 54,
        "has_played": true,
        "id": 38702973,
        "last_rank": 59813,
        "player_name": "Aarnav Nair",
        "rank": 64222,
        "rank_sort": 64448,
        "total": 2343
      },
      {
        "club_badge_src": null,
        "entry": 5122867,
        "entry_name": "Moh_hawal",
        "event_total": 61,
        "has_played": true,
        "id": 39614273,
        "last_rank": 72815,
        "player_name": "Aliyu Lawal",
        "rank": 64222,
        "rank_sort": 64449,
        "total": 2343
      },
      {
        "club_badge_src": null,
        "entry": 5195166,
        "entry_name": "Altior",
        "event_total": 31,
        "has_played": true,
        "id": 40223774,
        "last_rank": 28726,
        "player_name": "Mark Smith",
        "rank": 64222,
        "rank_sort": 64450,
        "total": 2343
      }
    ]
  }
}