{
  "last_updated_data": "2026-05-24T23:28:17Z",
  "league": {
    "admin_entry": null,
    "closed": false,
    "code_privacy": "p",
    "created": "2025-07-20T23:14:33.933835Z",
    "cup_league": 2815434,
    "has_cup": true,
    "id": 314,
    "league_type": "s",
    "max_entries": null,
    "name": "Overall",
    "rank": null,
    "scoring": "c",
    "start_event": 1
  },
  "new_entries": {
    "has_next": false,
    "page": 1,
    "results": []
  },
  "standings": {
    "has_next": true,
    "page": 792,
    "results": [
      {
        "club_badge_src": null,
        "entry": 6282545,
        "entry_name": "We Go AGAIN!",
        "event_total": 82,
        "has_played": true,
        "id": 49760636,
        "last_rank": 83127,
        "player_name": "Phillip O'Callaghan",
        "rank": 39522,
        "rank_sort": 39551,
        "total": 2360
      },
      {
        "club_badge_src": null,
        "entry": 7966769,
        "entry_name": "Bring me Gyokeres",
        "event_total": 62,
        "has_played": true,
        "id": 65589929,
        "last_rank": 46364,
        "player_name": "Colin Crichlow",
        "rank": 39522,
        "rank_sort": 39552,
        "total": 2360
      },
      {
        "club_badge_src": null,
        "entry": 8067205,
        "entry_name": "English Tea",
        "event_total": 74,
        "has_played": true,
        "id": 66495539,
        "last_rank": 66057,
        "player_name": "\u00c9ver Banega - 10",
        "rank": 39522,
        "rank_sort": 39553,
        "total": 2360
      },
      {
        "club_badge_src": null,
        "entry": 8197511,
        "entry_name": "TellMeWhy",
        "event_total": 65,
        "has_played": true,
        "id": 67717195,
        "last_rank": 44882,
        "player_name": "Alman Souri",
        "rank": 39522,
        "rank_sort": 39554,
        "total": 2360
      },
      {
        "club_badge_src": null,
        "entry": 8316924,
        "entry_name": "Liverbirds",
        "event_total": 65,
        "has_played": true,
        "id": 68888515,
        "last_rank": 44672,
        "player_name": "Thor-Eirik Gundersen",
        "rank": 39522,
        "rank_sort": 39555,
        "total": 2360
      },
      {
        "club_badge_src": "https://fantasy.premierleague.com/gcs/plfpl-production-adobe-approved/plfpl-production/8642368/4b5960a5-3fa2-4314-9a89-cf238a98673a.png",
        "entry": 8642368,
        "entry_name": "Peaky Reijnders",
        "event_total": 71,
        "has_played": true,
        "id": 72010326,
        "last_rank": 61004,
        "player_name": "Himanshu Wadhavankar",
        "rank": 39522,
        "rank_sort": 39556,
        "total": 2360
      },
      {
        "club_badge_src": null,
        "entry": 8917445,
        "entry_name": "GodsWearingRed",
        "event_total": 68,
        "has_played": true,
        "id": 74678098,
        "last_rank": 43444,
        "player_name": "John Barry",
        "rank": 39522,
        "rank_sort": 39557,
        "total": 2360
      },
      {
        "club_badge_src": "https://fantasy.premierleague.com/gcs/plfpl-production-adobe-approved/plfpl-production/9264556/ee803ece-2378-43e8-9b9a-00295ede2754.png",
        "entry": 9264556,
        "entry_name": "Betel United",
        "event_total": 49,
        "has_played": true,
        "id": 78065020,
        "last_rank": 30361,
        "player_name": "Asitha Bulathsinghala",
        "rank": 39522,
        "rank_sort": 39558,
        "total": 2360
      },
      {
        "club_badge_src": null,
        "entry": 9371445,
        "entry_name": "oussama",
        "event_total": 68,
        "has_played": true,
        "id": 79095184,
        "last_rank": 55812,
        "player_name": "Hamilton Oussama",
        "rank": 39522,
        "rank_sort": 39559,
        "total": 2360
      },
      {
        "club_badge_src": "https://fantasy.premierleague.com/gcs/plfpl-production-adobe-approved/plfpl-production/869/23bf9814-f6f1-4eed-aeeb-693a0f06a1f0.png",
        "entry": 869,
        "entry_name": "baloch gladiators",
        "event_total": 50,
        "has_played": true,
        "id": 4801,
        "last_rank": 23857,
        "player_name": "Asad Noor",
        "rank": 39560,
        "rank_sort": 39560,
        "total": 2360
      },
      {
        "club_badge_src": "https://fantasy.premierleague.com/gcs/plfpl-production-adobe-approved/plfpl-production/9009/97593987-0d06-4385-ab42-29b7c7dc7d45.png",
        "entry": 9009,
        "entry_name": "Per_Wirtz Utd",
        "event_total": 61,
        "has_played": true,
        "id": 52711,
        "last_rank": 39650,
        "player_name": "Andy Corfield",
        "rank": 39560,
        "rank_sort": 39561,
        "total": 2360
      },
      {
        "club_badge_src": null,
        "entry": 22788,
        "entry_name": "TendoXI",
        "event_total": 57,
        "has_played": true,
        "id": 143252,
        "last_rank": 34796,
        "player_name": "Alan Tenn",
        "rank": 39560,
        "rank_sort": 39562,
        "total": 2360
      },
      {
        "club_badge_src": null,
        "entry": 28289,
        "entry_name": "Satdee Afternooners",
        "event_total": 77,
        "has_played": true,
        "id": 178861,
        "last_rank": 64422,
        "player_name": "Jag Chahal",
        "rank": 39560,
        "rank_sort": 39563,
        "total": 2360
      },
      {
        "club_badge_src": null,
        "entry": 48767,
        "entry_name": "Norsken",
        "event_total": 63,
        "has_played": true,
        "id": 313316,
        "last_rank": 42225,
        "player_name": "Daniel Swan",
        "rank": 39560,
        "rank_sort": 39564,
        "total": 2360
      },
      {
        "club_badge_src": null,
        "entry": 54645,
        "entry_name": "\" \u0164\u014d\u0165t\u00ee \"",
        "event_total": 52,
        "has_played": true,
        "id": 351707,
        "last_rank": 29369,
        "player_name": "Omar Totti",
        "rank": 39560,
        "rank_sort": 39565,
        "total": 2360
      },
      {
        "club_badge_src": "https://fantasy.premierleague.com/gcs/plfpl-production-adobe-approved/plfpl-production/80967/172c1793-b054-4416-9d43-3d1a280a6da6.png",
        "entry": 80967,
        "entry_name": "Di Bwoy Dem",
        "event_total": 60,
        "has_played": true,
        "id": 526778,
        "last_rank": 38391,
        "player_name": "Macauley Davies",
        "rank": 39560,
        "rank_sort": 39566,
        "total": 2360
      },
      {
        "club_badge_src": null,
        "entry": 116301,
        "entry_name": "\uc810\uc218 \ub9ce\uc544 \uc9c4\uc9dc",
        "event_total": 65,
        "has_played": true,
        "id": 759245,
        "last_rank": 44950,
        "player_name": "J Somerville",
        "rank": 39560,
        "rank_sort": 39567,
        "total": 2360
      },
      {
        "club_badge_src": null,
        "entry": 274531,
        "entry_name": "marshman",
        "event_total": 65,
        "has_played": true,
        "id": 1826753,
        "last_rank": 44950,
        "player_name": "Michael Goldstaub",
        "rank": 39560,
        "rank_sort": 39568,
        "total": 2360
      },
      {
        "club_badge_src": "https://fantasy.premierleague.com/gcs/plfpl-production-adobe-approved/plfpl-production/326918/f7a23966-0c88-4043-a606-c947ca7469d3.png",
        "entry": 326918,
        "entry_name": "MYM's XI",
        "event_total": 65,
        "has_played": true,
        "id": 2190373,
        "last_rank": 39585,
        "player_name": "Mohammed Almasabi",
        "rank": 39560,
        "rank_sort": 39569,
        "total": 2360
      },
      {
        "club_badge_src": "https://fantasy.premierleague.com/gcs/plfpl-production-adobe-approved/plfpl-production/576144/264ab588-664c-4833-b327-ec51ffb7f30e.png",
        "entry": 576144,
        "entry_name": "Rakti Kalejo",
        "event_total": 60,
        "has_played": true,
        "id": 3876999,
        "last_rank": 43607,
        "player_name": "Dharendra Thapa",
        "rank": 39560,
        "rank_sort": 39570,
        "total": 2360
      },
      {
        "club_badge_src": null,
        "entry": 690254,
        "entry_name": "Le Cheval Sportif",
        "event_total": 53,
        "has_played": true,
        "id": 4673818,
        "last_rank": 30361,
        "player_name": "Jonas Magnusson",
        "rank": 39560,
        "rank_sort": 39571,
        "total": 2360
      },
      {
        "club_badge_src": null,
        "entry": 796181,
        "entry_name": "Sit in Delap",
        "event_total": 65,
        "has_played": true,
        "id": 5448911,
        "last_rank": 50956,
        "player_name": "Fion\u00e1n Daly",
        "rank": 39560,
        "rank_sort": 39572,
        "total": 2360
      },
      {
        "club_badge_src": null,
        "entry": 930750,
        "entry_name": "RADOMIAK RADOM",
        "event_total": 68,
        "has_played": true,
        "id": 6404316,
        "last_rank": 55865,
        "player_name": "Artur Fokt",
        "rank": 39560,
        "rank_sort": 39573,
        "total": 2360
      },
      {
        "club_badge_src": null,
        "entry": 971643,
        "entry_name": "Comcast",
        "event_total": 74,
        "has_played": true,
        "id": 6697879,
        "last_rank": 52357,
        "player_name": "--Abdlmoniem Alaa--",
        "rank": 39560,
        "rank_sort": 39574,
        "total": 2360
      },
      {
        "club_badge_src": null,
        "entry": 1022780,
        "entry_name": "Back of the Neto",
        "event_total": 48,
        "has_played": true,
        "id": 7076160,
        "last_rank": 29393,
        "player_name": "James Barton-Thwaites",
        "rank": 39560,
        "rank_sort": 39575,
        "total": 2360
      },
      {
        "club_badge_src": "https://fantasy.premierleague.com/gcs/plfpl-production-adobe-approved/plfpl-production/1318468/34751d60-4265-4442-978e-3677a3c7cac0.png",
        "entry": 1318468,
        "entry_name": "Shedheads",
        "event_total": 61,
        "has_played": true,
        "id": 9164093,
        "last_rank": 39650,
        "player_name": "\u00d8yvin Eng",
        "rank": 39560,
        "rank_sort": 39576,
        "total": 2360
      },
      {
        "club_badge_src": null,
        "entry": 1364298,
        "entry_name": "Sancho XI",
        "event_total": 56,
        "has_played": true,
        "id": 9484233,
        "last_rank": 38425,
        "player_name": "Will Maher",
        "rank": 39560,
        "rank_sort": 39577,
        "total": 2360
      },
      {
        "club_badge_src": null,
        "entry": 1595031,
        "entry_name": "abo ghaliaa",
        "event_total": 52,
        "has_played": true,
        "id": 11156751,
        "last_rank": 29369,
        "player_name": "Omar Foda",
        "rank": 39560,
        "rank_sort": 39578,
        "total": 2360
      },
      {
        "club_badge_src": null,
        "entry": 1777527,
        "entry_name": "grevs blues",
        "event_total": 48,
        "has_played": true,
        "id": 12487525,
        "last_rank": 25595,
        "player_name": "Leslie Graham",
        "rank": 39560,
        "rank_sort": 39579,
        "total": 2360
      },
      {
        "club_badge_src": null,
        "entry": 2028871,
        "entry_name": "ajax",
        "event_total": 57,
        "has_played": true,
        "id": 14363372,
        "last_rank": 39673,
        "player_name": "saddam ajax",
        "rank": 39560,
        "rank_sort": 39580,
        "total": 2360
      },
      {
        "club_badge_src": null,
        "entry": 2220380,
        "entry_name": "Steppa",
        "event_total": 64,
        "has_played": true,
        "id": 15814125,
        "last_rank": 49078,
        "player_name": "Pedro nimo",
        "rank": 39560,
        "rank_sort": 39581,
        "total": 2360
      },
      {
        "club_badge_src": "https://fantasy.premierleague.com/gcs/plfpl-production-adobe-approved/plfpl-production/2233405/0d599bb7-c48f-4013-acee-7e5ef3c001f9.png",
        "entry": 2233405,
        "entry_name": "Jadda FC",
        "event_total": 52,
        "has_played": true,
        "id": 15910859,
        "last_rank": 33729,
        "player_name": "Thomas Arnesen",
        "rank": 39560,
        "rank_sort": 39582,
        "total": 2360
      },
      {
        "club_badge_src": null,
        "entry": 2282743,
        "entry_name": "AIBA FC",
        "event_total": 56,
        "has_played": true,
        "id": 16278955,
        "last_rank": 33695,
        "player_name": "Tanatpong Chomsangjun",
        "rank": 39560,
        "rank_sort": 39583,
        "total": 2360
      },
      {
        "club_badge_src": null,
        "entry": 2641712,
        "entry_name": "Seigmannskapet",
        "event_total": 39,
        "has_played": true,
        "id": 18986703,
        "last_rank": 21530,
        "player_name": "Atle Kvamvold",
        "rank": 39560,
        "rank_sort": 39584,
        "total": 2360
      },
      {
        "club_badge_src": "https://fantasy.premierleague.com/gcs/plfpl-production-adobe-approved/plfpl-production/3620614/804560db-4d0c-4d73-a9c6-20b5f102c375.png",
        "entry": 3620614,
        "entry_name": "JayTinks FC",
        "event_total": 59,
        "has_played": true,
        "id": 26975167,
        "last_rank": 37134,
        "player_name": "John Tenkorang",
        "rank": 39560,
        "rank_sort": 39585,
        "total": 2360
      },
      {
        "club_badge_src": null,
        "entry": 3751668,
        "entry_name": "YamAno",
        "event_total": 57,
        "has_played": true,
        "id": 28010050,
        "last_rank": 39673,
        "player_name": "Muhammad Ahmed",
        "rank": 39560,
        "rank_sort": 39586,
        "total": 2360
      },
      {
        "club_badge_src": null,
        "entry": 4270906,
        "entry_name": "HaCunhaMatata",
        "event_total": 60,
        "has_played": true,
        "id": 32387012,
        "last_rank": 38391,
        "player_name": "Espen Fossehagen",
        "rank": 39560,
        "rank_sort": 39587,
        "total": 2360
      },
      {
        "club_badge_src": null,
        "entry": 4440407,
        "entry_name": "Zemun Ole",
        "event_total": 49,
        "has_played": true,
        "id": 33812317,
        "last_rank": 30361,
        "player_name": "David Me\u0161i\u0107",
        "rank": 39560,
        "rank_sort": 39588,
        "total": 2360
      },
      {
        "club_badge_src": null,
        "entry": 4757613,
        "entry_name": "\u13b7\u13a7\u13d2\u13d7",
        "event_total": 53,
        "has_played": true,
        "id": 36612084,
        "last_rank": 34849,
        "player_name": "Ammar.M Mahmoud",
        "rank": 39560,
        "rank_sort": 39589,
        "total": 2360
      },
      {
        "club_badge_src": null,
        "entry": 4920151,
        "entry_name": "Iron Awe",
        "event_total": 54,
        "has_played": true,
        "id": 37950083,
        "last_rank": 31404,
        "player_name": "Mark Stapleton",
        "rank": 39560,
        "rank_sort": 39590,
        "total": 2360
      },
      {
        "club_badge_src": null,
        "entry": 5556206,
        "entry_name": "Is your Motherwell?",
        "event_total": 63,
        "has_played": true,
        "id": 43370386,
        "last_rank": 47868,
        "player_name": "Darragh McCann",
        "rank": 39560,
        "rank_sort": 39591,
        "total": 2360
      },
      {
        "club_badge_src": null,
        "entry": 6855049,
        "entry_name": "Elshamy \ufffd\ufe0f\ufffd",
        "event_total": 68,
        "has_played": true,
        "id": 54922396,
        "last_rank": 49368,
        "player_name": "Mohamed Elshamy",
        "rank": 39560,
        "rank_sort": 39592,
        "total": 2360
      },
      {
        "club_badge_src": null,
        "entry": 9174452,
        "entry_name": "LUCIFER",
        "event_total": 59,
        "has_played": true,
        "id": 77181299,
        "last_rank": 42263,
        "player_name": "Ahmed Waled",
        "rank": 39560,
        "rank_sort": 39593,
        "total": 2360
      },
      {
        "club_badge_src": null,
        "entry": 44094,
        "entry_name": "Caesar FC",
        "event_total": 65,
        "has_played": true,
        "id": 282536,
        "last_rank": 44982,
        "player_name": "Nicholas Head",
        "rank": 39594,
        "rank_sort": 39594,
        "total": 2360
      },
      {
        "club_badge_src": "https://fantasy.premierleague.com/gcs/plfpl-production-adobe-approved/plfpl-production/96296/4eca75d1-dc05-4f75-a76a-82c6531c20b5.png",
        "entry": 96296,
        "entry_name": "F.C. Sirag",
        "event_total": 64,
        "has_played": true,
        "id": 629110,
        "last_rank": 43607,
        "player_name": "Ahmed Sirag",
        "rank": 39594,
        "rank_sort": 39595,
        "total": 2360
      },
      {
        "club_badge_src": null,
        "entry": 101169,
        "entry_name": "Mo Salah",
        "event_total": 53,
        "has_played": true,
        "id": 660150,
        "last_rank": 30395,
        "player_name": "Hosam 94",
        "rank": 39594,
        "rank_sort": 39596,
        "total": 2360
      },
      {
        "club_badge_src": null,
        "entry": 116661,
        "entry_name": "Barcas Rashford",
        "event_total": 49,
        "has_played": true,
        "id": 761614,
        "last_rank": 26541,
        "player_name": "Tsau Muza",
        "rank": 39594,
        "rank_sort": 39597,
        "total": 2360
      },
      {
        "club_badge_src": "https://fantasy.premierleague.com/gcs/plfpl-production-adobe-approved/plfpl-production/181861/8bf5f1fa-1512-4aec-8a18-d83c14f44f41.png",
        "entry": 181861,
        "entry_name": "Gyat Sniffer 67",
        "event_total": 53,
        "has_played": true,
        "id": 1200110,
        "last_rank": 34849,
        "player_name": "Charlie McKenzie",
        "rank": 39594,
        "rank_sort": 39598,
        "total": 2360
      },
      {
        "club_badge_src": null,
        "entry": 412876,
        "entry_name": "EchampionS",
        "event_total": 44,
        "has_played": true,
        "id": 2768097,
        "last_rank": 22309,
        "player_name": "Hesham Adel",
        "rank": 39594,
        "rank_sort": 39599,
        "total": 2360
      },
      {
        "club_badge_src": null,
        "entry": 578128,
        "entry_name": "Muze bejt",
        "event_total": 67,
        "has_played": true,
        "id": 3890048,
        "last_rank": 47920,
        "player_name": "Daniel Vaclav",
        "rank": 39594,
        "rank_sort": 39600,
        "total": 2360
      }
    ]
  }
}