{
  "last_updated_data": "2026-05-24T23:28:17Z",
  "league": {
    "admin_entry": null,
    "closed": false,
    "code_privacy": "p",
    "created": "2025-07-20T23:14:33.933835Z",
    "cup_league": 2815434,
    "has_cup": true,
    "id": 314,
    "league_type": "s",
    "max_entries": null,
    "name": "Overall",
    "rank": null,
    "scoring": "c",
    "start_event": 1
  },
  "new_entries": {
    "has_next": false,
    "page": 1,
    "results": []
  },
  "standings": {
    "has_next": true,
    "page": 536,
    "results": [
      {
        "club_badge_src": null,
        "entry": 211468,
        "entry_name": "eeks",
        "event_total": 62,
        "has_played": true,
        "id": 1406534,
        "last_rank": 31236,
        "player_name": "Ee Kwee Koh",
        "rank": 26743,
        "rank_sort": 26751,
        "total": 2372
      },
      {
        "club_badge_src": null,
        "entry": 259360,
        "entry_name": "Macdavi",
        "event_total": 66,
        "has_played": true,
        "id": 1724405,
        "last_rank": 35867,
        "player_name": "Sam Mahdavi",
        "rank": 26743,
        "rank_sort": 26752,
        "total": 2372
      },
      {
        "club_badge_src": "https://fantasy.premierleague.com/gcs/plfpl-production-adobe-approved/plfpl-production/275362/7426ae43-3d55-493f-84ba-a499d0163365.png",
        "entry": 275362,
        "entry_name": "Bielsa Magic",
        "event_total": 61,
        "has_played": true,
        "id": 1832579,
        "last_rank": 26345,
        "player_name": "David Rule",
        "rank": 26743,
        "rank_sort": 26753,
        "total": 2372
      },
      {
        "club_badge_src": "https://fantasy.premierleague.com/gcs/plfpl-production-adobe-approved/plfpl-production/300991/d7dd6355-fb1f-4da2-a895-fc2ccd33c5c1.png",
        "entry": 300991,
        "entry_name": "Kinder Mbeumo",
        "event_total": 68,
        "has_played": true,
        "id": 2013499,
        "last_rank": 33147,
        "player_name": "Cameron Ganesh",
        "rank": 26743,
        "rank_sort": 26754,
        "total": 2372
      },
      {
        "club_badge_src": null,
        "entry": 385478,
        "entry_name": "WonItAll",
        "event_total": 58,
        "has_played": true,
        "id": 2585814,
        "last_rank": 23748,
        "player_name": "YouWhat .",
        "rank": 26743,
        "rank_sort": 26755,
        "total": 2372
      },
      {
        "club_badge_src": null,
        "entry": 469362,
        "entry_name": "Dartman FC",
        "event_total": 48,
        "has_played": true,
        "id": 3150483,
        "last_rank": 19237,
        "player_name": "Dan Hartman",
        "rank": 26743,
        "rank_sort": 26756,
        "total": 2372
      },
      {
        "club_badge_src": null,
        "entry": 551537,
        "entry_name": "FC Saka Potatoes",
        "event_total": 71,
        "has_played": true,
        "id": 3712321,
        "last_rank": 36963,
        "player_name": "Karri Hosainov",
        "rank": 26743,
        "rank_sort": 26757,
        "total": 2372
      },
      {
        "club_badge_src": "https://fantasy.premierleague.com/gcs/plfpl-production-adobe-approved/plfpl-production/643345/ed0a107f-b893-44db-b614-30c74d6539b6.png",
        "entry": 643345,
        "entry_name": "Wee Kathy Athleti",
        "event_total": 66,
        "has_played": true,
        "id": 4347895,
        "last_rank": 35867,
        "player_name": "Ryan Bram",
        "rank": 26743,
        "rank_sort": 26758,
        "total": 2372
      },
      {
        "club_badge_src": null,
        "entry": 656284,
        "entry_name": "Don men",
        "event_total": 73,
        "has_played": true,
        "id": 4435183,
        "last_rank": 44804,
        "player_name": "Will Donegani",
        "rank": 26743,
        "rank_sort": 26759,
        "total": 2372
      },
      {
        "club_badge_src": null,
        "entry": 728671,
        "entry_name": "Empire Struijks Back",
        "event_total": 45,
        "has_played": true,
        "id": 4950676,
        "last_rank": 17194,
        "player_name": "Robert Pattison",
        "rank": 26743,
        "rank_sort": 26760,
        "total": 2372
      },
      {
        "club_badge_src": null,
        "entry": 792466,
        "entry_name": "ChefCurry",
        "event_total": 59,
        "has_played": true,
        "id": 5423100,
        "last_rank": 28348,
        "player_name": "Danilo Kljajevic",
        "rank": 26743,
        "rank_sort": 26761,
        "total": 2372
      },
      {
        "club_badge_src": null,
        "entry": 796355,
        "entry_name": "NIGERIA",
        "event_total": 51,
        "has_played": true,
        "id": 5450122,
        "last_rank": 15797,
        "player_name": "Milos Munizaba",
        "rank": 26743,
        "rank_sort": 26762,
        "total": 2372
      },
      {
        "club_badge_src": null,
        "entry": 799204,
        "entry_name": "SGFC",
        "event_total": 52,
        "has_played": true,
        "id": 5470274,
        "last_rank": 22216,
        "player_name": "Se\u00e1n Galvin",
        "rank": 26743,
        "rank_sort": 26763,
        "total": 2372
      },
      {
        "club_badge_src": null,
        "entry": 826481,
        "entry_name": "Wingardium Leviosa",
        "event_total": 60,
        "has_played": true,
        "id": 5660661,
        "last_rank": 25436,
        "player_name": "Martin Samuel Yonnie",
        "rank": 26743,
        "rank_sort": 26764,
        "total": 2372
      },
      {
        "club_badge_src": null,
        "entry": 882933,
        "entry_name": "FC Miner",
        "event_total": 80,
        "has_played": true,
        "id": 6055146,
        "last_rank": 55747,
        "player_name": "Andriy Grygoryk",
        "rank": 26743,
        "rank_sort": 26765,
        "total": 2372
      },
      {
        "club_badge_src": null,
        "entry": 884875,
        "entry_name": "Reshvan Prime FC",
        "event_total": 60,
        "has_played": true,
        "id": 6068660,
        "last_rank": 29199,
        "player_name": "Reshvan Dev Druv",
        "rank": 26743,
        "rank_sort": 26766,
        "total": 2372
      },
      {
        "club_badge_src": "https://fantasy.premierleague.com/gcs/plfpl-production-adobe-approved/plfpl-production/890891/5ddecd40-c2df-4ad9-98bc-2789ddda1a8b.png",
        "entry": 890891,
        "entry_name": "Starfish Stomp FC",
        "event_total": 53,
        "has_played": true,
        "id": 6112673,
        "last_rank": 22830,
        "player_name": "Anders Fagerlund",
        "rank": 26743,
        "rank_sort": 26767,
        "total": 2372
      },
      {
        "club_badge_src": null,
        "entry": 916022,
        "entry_name": "Wirtz Nightmare",
        "event_total": 53,
        "has_played": true,
        "id": 6299020,
        "last_rank": 22921,
        "player_name": "Stephen O Driscoll",
        "rank": 26743,
        "rank_sort": 26768,
        "total": 2372
      },
      {
        "club_badge_src": null,
        "entry": 980378,
        "entry_name": "Going Toulouse",
        "event_total": 53,
        "has_played": true,
        "id": 6758777,
        "last_rank": 22996,
        "player_name": "Joe Humphries",
        "rank": 26743,
        "rank_sort": 26769,
        "total": 2372
      },
      {
        "club_badge_src": null,
        "entry": 1130328,
        "entry_name": "Boca Seniors",
        "event_total": 61,
        "has_played": true,
        "id": 7834418,
        "last_rank": 26345,
        "player_name": "Alec Spensley",
        "rank": 26743,
        "rank_sort": 26770,
        "total": 2372
      },
      {
        "club_badge_src": null,
        "entry": 1255675,
        "entry_name": "\u0e2d\u0e32\u0e40\u0e09\u0e34\u0e19",
        "event_total": 68,
        "has_played": true,
        "id": 8721627,
        "last_rank": 33483,
        "player_name": "\u0e0a\u0e2d\u0e1a\u0e07\u0e31\u0e1a \u0e04\u0e38\u0e13",
        "rank": 26743,
        "rank_sort": 26771,
        "total": 2372
      },
      {
        "club_badge_src": "https://fantasy.premierleague.com/gcs/plfpl-production-adobe-approved/plfpl-production/1425507/6efd98f4-eaf0-4cff-904e-ca8f40d3845f.png",
        "entry": 1425507,
        "entry_name": "Death2TheIDF",
        "event_total": 54,
        "has_played": true,
        "id": 9932275,
        "last_rank": 23820,
        "player_name": "Fakhruddin Razi Norhalim",
        "rank": 26743,
        "rank_sort": 26772,
        "total": 2372
      },
      {
        "club_badge_src": null,
        "entry": 1440438,
        "entry_name": "zizou88",
        "event_total": 65,
        "has_played": true,
        "id": 10037328,
        "last_rank": 30191,
        "player_name": "Hussein Nabil Salim",
        "rank": 26743,
        "rank_sort": 26773,
        "total": 2372
      },
      {
        "club_badge_src": null,
        "entry": 1580586,
        "entry_name": "Bazzers ballers",
        "event_total": 56,
        "has_played": true,
        "id": 11044972,
        "last_rank": 25517,
        "player_name": "Sebastian Falk",
        "rank": 26743,
        "rank_sort": 26774,
        "total": 2372
      },
      {
        "club_badge_src": null,
        "entry": 1680356,
        "entry_name": "Peter 10",
        "event_total": 54,
        "has_played": true,
        "id": 11763320,
        "last_rank": 20624,
        "player_name": "Peter Roshdy",
        "rank": 26743,
        "rank_sort": 26775,
        "total": 2372
      },
      {
        "club_badge_src": null,
        "entry": 1808461,
        "entry_name": "@AbrahamlopezPL",
        "event_total": 61,
        "has_played": true,
        "id": 12714382,
        "last_rank": 30276,
        "player_name": "Abraham Lopez",
        "rank": 26743,
        "rank_sort": 26776,
        "total": 2372
      },
      {
        "club_badge_src": null,
        "entry": 1981827,
        "entry_name": "khedira pin drop",
        "event_total": 56,
        "has_played": true,
        "id": 13997524,
        "last_rank": 25517,
        "player_name": "Ryan Mackay",
        "rank": 26743,
        "rank_sort": 26777,
        "total": 2372
      },
      {
        "club_badge_src": "https://fantasy.premierleague.com/gcs/plfpl-production-adobe-approved/plfpl-production/2175698/c37c453e-9e49-49ab-8be5-19a9c1832370.png",
        "entry": 2175698,
        "entry_name": "Lady Marmoushade",
        "event_total": 83,
        "has_played": true,
        "id": 15471033,
        "last_rank": 47417,
        "player_name": "Sreeradh Pothera",
        "rank": 26743,
        "rank_sort": 26778,
        "total": 2372
      },
      {
        "club_badge_src": null,
        "entry": 2461205,
        "entry_name": "How Dalot Can You Go",
        "event_total": 52,
        "has_played": true,
        "id": 17604719,
        "last_rank": 22216,
        "player_name": "Chris Stimson-Binney",
        "rank": 26743,
        "rank_sort": 26779,
        "total": 2372
      },
      {
        "club_badge_src": null,
        "entry": 2557407,
        "entry_name": "MeZoOoO",
        "event_total": 52,
        "has_played": true,
        "id": 18339386,
        "last_rank": 22216,
        "player_name": "Moataz Ibrahim",
        "rank": 26743,
        "rank_sort": 26780,
        "total": 2372
      },
      {
        "club_badge_src": null,
        "entry": 2973708,
        "entry_name": "Game's Gone",
        "event_total": 53,
        "has_played": true,
        "id": 21851201,
        "last_rank": 19904,
        "player_name": "Opara Daniel",
        "rank": 26743,
        "rank_sort": 26781,
        "total": 2372
      },
      {
        "club_badge_src": null,
        "entry": 3246190,
        "entry_name": "Reece Lightning",
        "event_total": 71,
        "has_played": true,
        "id": 24014686,
        "last_rank": 41967,
        "player_name": "Nathan Maggs",
        "rank": 26743,
        "rank_sort": 26782,
        "total": 2372
      },
      {
        "club_badge_src": null,
        "entry": 3320195,
        "entry_name": "scholes 18",
        "event_total": 68,
        "has_played": true,
        "id": 24609756,
        "last_rank": 38340,
        "player_name": "Ameer Rahman",
        "rank": 26743,
        "rank_sort": 26783,
        "total": 2372
      },
      {
        "club_badge_src": null,
        "entry": 3810368,
        "entry_name": "Stagchester Utd",
        "event_total": 83,
        "has_played": true,
        "id": 28491033,
        "last_rank": 60462,
        "player_name": "Miles Ellis",
        "rank": 26743,
        "rank_sort": 26784,
        "total": 2372
      },
      {
        "club_badge_src": null,
        "entry": 3848947,
        "entry_name": "Lidderpool",
        "event_total": 53,
        "has_played": true,
        "id": 28851190,
        "last_rank": 22996,
        "player_name": "Tony Beech",
        "rank": 26743,
        "rank_sort": 26785,
        "total": 2372
      },
      {
        "club_badge_src": null,
        "entry": 4016855,
        "entry_name": "AbahKaw DevilFC",
        "event_total": 60,
        "has_played": true,
        "id": 30271376,
        "last_rank": 29279,
        "player_name": "Bill Norman",
        "rank": 26743,
        "rank_sort": 26786,
        "total": 2372
      },
      {
        "club_badge_src": null,
        "entry": 4032559,
        "entry_name": "Maurinho FC",
        "event_total": 63,
        "has_played": true,
        "id": 30401961,
        "last_rank": 28273,
        "player_name": "Mauricio kreisberg",
        "rank": 26743,
        "rank_sort": 26787,
        "total": 2372
      },
      {
        "club_badge_src": null,
        "entry": 4063776,
        "entry_name": "McNuggie",
        "event_total": 69,
        "has_played": true,
        "id": 30668331,
        "last_rank": 34458,
        "player_name": "Vernon Low",
        "rank": 26743,
        "rank_sort": 26788,
        "total": 2372
      },
      {
        "club_badge_src": null,
        "entry": 4253932,
        "entry_name": "Deacons Destroyers",
        "event_total": 51,
        "has_played": true,
        "id": 32248995,
        "last_rank": 21450,
        "player_name": "Richard Deacon",
        "rank": 26743,
        "rank_sort": 26789,
        "total": 2372
      },
      {
        "club_badge_src": null,
        "entry": 4703507,
        "entry_name": "prvi odozada",
        "event_total": 51,
        "has_played": true,
        "id": 36059303,
        "last_rank": 18377,
        "player_name": "Marko Koljaja",
        "rank": 26743,
        "rank_sort": 26790,
        "total": 2372
      },
      {
        "club_badge_src": null,
        "entry": 4890287,
        "entry_name": "Happy Gilscore",
        "event_total": 71,
        "has_played": true,
        "id": 37704119,
        "last_rank": 36963,
        "player_name": "Callum Bennett",
        "rank": 26743,
        "rank_sort": 26791,
        "total": 2372
      },
      {
        "club_badge_src": null,
        "entry": 5971514,
        "entry_name": "FC 350S",
        "event_total": 49,
        "has_played": true,
        "id": 46993483,
        "last_rank": 19966,
        "player_name": "Achraf A",
        "rank": 26743,
        "rank_sort": 26792,
        "total": 2372
      },
      {
        "club_badge_src": null,
        "entry": 6163774,
        "entry_name": "Pain in Dias",
        "event_total": 63,
        "has_played": true,
        "id": 48731545,
        "last_rank": 32491,
        "player_name": "Chirag Gosai",
        "rank": 26743,
        "rank_sort": 26793,
        "total": 2372
      },
      {
        "club_badge_src": null,
        "entry": 6706054,
        "entry_name": "McAtee antivirus",
        "event_total": 72,
        "has_played": true,
        "id": 53662739,
        "last_rank": 33332,
        "player_name": "MARTIN ERVIK",
        "rank": 26743,
        "rank_sort": 26794,
        "total": 2372
      },
      {
        "club_badge_src": null,
        "entry": 7982354,
        "entry_name": "I am \"JOS\u00c9 MOURINHO\"",
        "event_total": 54,
        "has_played": true,
        "id": 65728057,
        "last_rank": 20538,
        "player_name": "Mshare Alharbi",
        "rank": 26743,
        "rank_sort": 26795,
        "total": 2372
      },
      {
        "club_badge_src": null,
        "entry": 8263045,
        "entry_name": "Lil Uzi Wirtz",
        "event_total": 68,
        "has_played": true,
        "id": 68347968,
        "last_rank": 25172,
        "player_name": "David McGlynn",
        "rank": 26743,
        "rank_sort": 26796,
        "total": 2372
      },
      {
        "club_badge_src": null,
        "entry": 8510491,
        "entry_name": "Pielax Association",
        "event_total": 67,
        "has_played": true,
        "id": 70739050,
        "last_rank": 36348,
        "player_name": "Alex Korber",
        "rank": 26743,
        "rank_sort": 26797,
        "total": 2372
      },
      {
        "club_badge_src": null,
        "entry": 8578681,
        "entry_name": "Monica Gergis",
        "event_total": 66,
        "has_played": true,
        "id": 71393536,
        "last_rank": 31236,
        "player_name": "Monica Gergis",
        "rank": 26743,
        "rank_sort": 26798,
        "total": 2372
      },
      {
        "club_badge_src": null,
        "entry": 8899280,
        "entry_name": "butterflies visit",
        "event_total": 61,
        "has_played": true,
        "id": 74501979,
        "last_rank": 30276,
        "player_name": "pink black",
        "rank": 26743,
        "rank_sort": 26799,
        "total": 2372
      },
      {
        "club_badge_src": null,
        "entry": 9271927,
        "entry_name": "Midwest Princess",
        "event_total": 52,
        "has_played": true,
        "id": 78137405,
        "last_rank": 22216,
        "player_name": "Anna-Kate Bennington",
        "rank": 26743,
        "rank_sort": 26800,
        "total": 2372
      }
    ]
  }
}