{
  "last_updated_data": "2026-05-24T23:28:17Z",
  "league": {
    "admin_entry": null,
    "closed": false,
    "code_privacy": "p",
    "created": "2025-07-20T23:14:33.933835Z",
    "cup_league": 2815434,
    "has_cup": true,
    "id": 314,
    "league_type": "s",
    "max_entries": null,
    "name": "Overall",
    "rank": null,
    "scoring": "c",
    "start_event": 1
  },
  "new_entries": {
    "has_next": false,
    "page": 1,
    "results": []
  },
  "standings": {
    "has_next": true,
    "page": 994,
    "results": [
      {
        "club_badge_src": null,
        "entry": 5157848,
        "entry_name": "Won't play after GW6",
        "event_total": 57,
        "has_played": true,
        "id": 39909781,
        "last_rank": 49691,
        "player_name": "Lawrie Bacon",
        "rank": 49425,
        "rank_sort": 49651,
        "total": 2352
      },
      {
        "club_badge_src": null,
        "entry": 5171108,
        "entry_name": "KI Flaksvik",
        "event_total": 68,
        "has_played": true,
        "id": 40022003,
        "last_rank": 68748,
        "player_name": "H\u00e5kon Lj\u00f8en",
        "rank": 49425,
        "rank_sort": 49652,
        "total": 2352
      },
      {
        "club_badge_src": "https://fantasy.premierleague.com/gcs/plfpl-production-adobe-approved/plfpl-production/5183152/aa0c4da7-05c0-44ef-ae58-0ec35aaa1735.png",
        "entry": 5183152,
        "entry_name": "THAMBI UTD",
        "event_total": 69,
        "has_played": true,
        "id": 40120803,
        "last_rank": 70985,
        "player_name": "Vinod Kumar",
        "rank": 49425,
        "rank_sort": 49653,
        "total": 2352
      },
      {
        "club_badge_src": null,
        "entry": 5185132,
        "entry_name": "KUKA Team",
        "event_total": 64,
        "has_played": true,
        "id": 40137499,
        "last_rank": 61950,
        "player_name": "Khaled Kuka",
        "rank": 49425,
        "rank_sort": 49654,
        "total": 2352
      },
      {
        "club_badge_src": null,
        "entry": 5287763,
        "entry_name": "FPL Final Boss",
        "event_total": 58,
        "has_played": true,
        "id": 40986901,
        "last_rank": 51220,
        "player_name": "Don Howie",
        "rank": 49425,
        "rank_sort": 49655,
        "total": 2352
      },
      {
        "club_badge_src": "https://fantasy.premierleague.com/gcs/plfpl-production-adobe-approved/plfpl-production/5320470/97d55797-c894-480d-9696-82083624ffd7.png",
        "entry": 5320470,
        "entry_name": "Boolah",
        "event_total": 61,
        "has_played": true,
        "id": 41244389,
        "last_rank": 56369,
        "player_name": "Ihssan Mourouane",
        "rank": 49425,
        "rank_sort": 49656,
        "total": 2352
      },
      {
        "club_badge_src": null,
        "entry": 5494244,
        "entry_name": "ChatGPT processing",
        "event_total": 64,
        "has_played": true,
        "id": 42795332,
        "last_rank": 61411,
        "player_name": "Sachin Dabasia",
        "rank": 49425,
        "rank_sort": 49657,
        "total": 2352
      },
      {
        "club_badge_src": null,
        "entry": 5497457,
        "entry_name": "HaCunha Mateta",
        "event_total": 57,
        "has_played": true,
        "id": 42830869,
        "last_rank": 50199,
        "player_name": "Tom Connolly",
        "rank": 49425,
        "rank_sort": 49658,
        "total": 2352
      },
      {
        "club_badge_src": "https://fantasy.premierleague.com/gcs/plfpl-production-adobe-approved/plfpl-production/5501004/64db75fb-7060-4623-a1a0-b3cc61e4fdc3.png",
        "entry": 5501004,
        "entry_name": "Jamie's Anti Popes",
        "event_total": 57,
        "has_played": true,
        "id": 42862832,
        "last_rank": 49691,
        "player_name": "Jamie Daniells",
        "rank": 49425,
        "rank_sort": 49659,
        "total": 2352
      },
      {
        "club_badge_src": null,
        "entry": 5682257,
        "entry_name": "\u0160esko Extra",
        "event_total": 54,
        "has_played": true,
        "id": 44474120,
        "last_rank": 45416,
        "player_name": "Ben Robinson",
        "rank": 49425,
        "rank_sort": 49660,
        "total": 2352
      },
      {
        "club_badge_src": null,
        "entry": 5759912,
        "entry_name": "Thors Hammer",
        "event_total": 45,
        "has_played": true,
        "id": 45151571,
        "last_rank": 34051,
        "player_name": "Irma Thorsen",
        "rank": 49425,
        "rank_sort": 49661,
        "total": 2352
      },
      {
        "club_badge_src": null,
        "entry": 5781419,
        "entry_name": "Hugs",
        "event_total": 52,
        "has_played": true,
        "id": 45335777,
        "last_rank": 42648,
        "player_name": "Hugo Seaborne",
        "rank": 49425,
        "rank_sort": 49662,
        "total": 2352
      },
      {
        "club_badge_src": null,
        "entry": 5857519,
        "entry_name": "Loganbear91",
        "event_total": 68,
        "has_played": true,
        "id": 45993067,
        "last_rank": 68624,
        "player_name": "Alexander Filippidi",
        "rank": 49425,
        "rank_sort": 49663,
        "total": 2352
      },
      {
        "club_badge_src": "https://fantasy.premierleague.com/gcs/plfpl-production-adobe-approved/plfpl-production/5888915/0cec090a-ddf0-43db-add6-1e2620d075b6.png",
        "entry": 5888915,
        "entry_name": "Mui Chu 18",
        "event_total": 66,
        "has_played": true,
        "id": 46260072,
        "last_rank": 64943,
        "player_name": "Derrick Wong",
        "rank": 49425,
        "rank_sort": 49664,
        "total": 2352
      },
      {
        "club_badge_src": null,
        "entry": 5895118,
        "entry_name": "Momo Ayase",
        "event_total": 59,
        "has_played": true,
        "id": 46311813,
        "last_rank": 53023,
        "player_name": "Ahmad Firas",
        "rank": 49425,
        "rank_sort": 49665,
        "total": 2352
      },
      {
        "club_badge_src": null,
        "entry": 5897793,
        "entry_name": "\u0646\u0642\u0637\u0629",
        "event_total": 80,
        "has_played": true,
        "id": 46334809,
        "last_rank": 96374,
        "player_name": "Amin Guebai",
        "rank": 49425,
        "rank_sort": 49666,
        "total": 2352
      },
      {
        "club_badge_src": "https://fantasy.premierleague.com/gcs/plfpl-production-adobe-approved/plfpl-production/5914342/e30645e3-cc49-425f-a7d1-4d6e17dce173.png",
        "entry": 5914342,
        "entry_name": "ham.spp",
        "event_total": 70,
        "has_played": true,
        "id": 46479114,
        "last_rank": 72662,
        "player_name": "Puvanut Sukphanpim",
        "rank": 49425,
        "rank_sort": 49667,
        "total": 2352
      },
      {
        "club_badge_src": null,
        "entry": 5927002,
        "entry_name": "Bowen Bubbles",
        "event_total": 66,
        "has_played": true,
        "id": 46591452,
        "last_rank": 65163,
        "player_name": "Reece Benjamin",
        "rank": 49425,
        "rank_sort": 49668,
        "total": 2352
      },
      {
        "club_badge_src": "https://fantasy.premierleague.com/gcs/plfpl-production-adobe-approved/plfpl-production/6014980/69cefa55-398e-4c7f-9552-16cab98e6ff3.png",
        "entry": 6014980,
        "entry_name": "\u00f6 Block",
        "event_total": 70,
        "has_played": true,
        "id": 47430926,
        "last_rank": 72815,
        "player_name": "Anish Varma",
        "rank": 49425,
        "rank_sort": 49669,
        "total": 2352
      },
      {
        "club_badge_src": null,
        "entry": 6047143,
        "entry_name": "Beef Cherki",
        "event_total": 61,
        "has_played": true,
        "id": 47714702,
        "last_rank": 56708,
        "player_name": "Faiz Thakur",
        "rank": 49425,
        "rank_sort": 49670,
        "total": 2352
      },
      {
        "club_badge_src": null,
        "entry": 6084818,
        "entry_name": "BmAiNtDcIhT",
        "event_total": 60,
        "has_played": true,
        "id": 48044122,
        "last_rank": 54494,
        "player_name": "Jacob Dawson",
        "rank": 49425,
        "rank_sort": 49671,
        "total": 2352
      },
      {
        "club_badge_src": null,
        "entry": 6111871,
        "entry_name": "VISAL FC",
        "event_total": 54,
        "has_played": true,
        "id": 48279645,
        "last_rank": 45416,
        "player_name": "HUY Visal",
        "rank": 49425,
        "rank_sort": 49672,
        "total": 2352
      },
      {
        "club_badge_src": null,
        "entry": 6120566,
        "entry_name": "Calafiori Love",
        "event_total": 50,
        "has_played": true,
        "id": 48355032,
        "last_rank": 40036,
        "player_name": "Luke DAllessandro",
        "rank": 49425,
        "rank_sort": 49673,
        "total": 2352
      },
      {
        "club_badge_src": "https://fantasy.premierleague.com/gcs/plfpl-production-adobe-approved/plfpl-production/6146165/d7d91613-a030-40d8-bf3b-3794af9c76e9.png",
        "entry": 6146165,
        "entry_name": "Topick",
        "event_total": 67,
        "has_played": true,
        "id": 48579212,
        "last_rank": 66848,
        "player_name": "Gracie Xiao",
        "rank": 49425,
        "rank_sort": 49674,
        "total": 2352
      },
      {
        "club_badge_src": null,
        "entry": 6155057,
        "entry_name": "Abadi Husam",
        "event_total": 55,
        "has_played": true,
        "id": 48656479,
        "last_rank": 46660,
        "player_name": "Abadi Salloum",
        "rank": 49425,
        "rank_sort": 49675,
        "total": 2352
      },
      {
        "club_badge_src": null,
        "entry": 6158424,
        "entry_name": "Tim Champ",
        "event_total": 52,
        "has_played": true,
        "id": 48685603,
        "last_rank": 42940,
        "player_name": "Tim Au",
        "rank": 49425,
        "rank_sort": 49676,
        "total": 2352
      },
      {
        "club_badge_src": "https://fantasy.premierleague.com/gcs/plfpl-production-adobe-approved/plfpl-production/6195489/664d3069-0909-44f6-b752-533b253e83f5.png",
        "entry": 6195489,
        "entry_name": "VAHREZ",
        "event_total": 60,
        "has_played": true,
        "id": 49006446,
        "last_rank": 54667,
        "player_name": "Samuel G\u00e1ll",
        "rank": 49425,
        "rank_sort": 49677,
        "total": 2352
      },
      {
        "club_badge_src": null,
        "entry": 6273894,
        "entry_name": "Burts Babes",
        "event_total": 53,
        "has_played": true,
        "id": 49681520,
        "last_rank": 44303,
        "player_name": "Michael Ryan",
        "rank": 49425,
        "rank_sort": 49678,
        "total": 2352
      },
      {
        "club_badge_src": "https://fantasy.premierleague.com/gcs/plfpl-production-adobe-approved/plfpl-production/6379174/71dac47b-0d12-4a2c-a4af-d48c4a3cd91a.png",
        "entry": 6379174,
        "entry_name": "Sesko Meal Deal",
        "event_total": 71,
        "has_played": true,
        "id": 50734597,
        "last_rank": 74787,
        "player_name": "Adam Kilbride",
        "rank": 49425,
        "rank_sort": 49679,
        "total": 2352
      },
      {
        "club_badge_src": "https://fantasy.premierleague.com/gcs/plfpl-production-adobe-approved/plfpl-production/6379344/202c126d-56eb-44fe-a4c2-d09d067a6499.png",
        "entry": 6379344,
        "entry_name": "minor diversion",
        "event_total": 73,
        "has_played": true,
        "id": 50736064,
        "last_rank": 79079,
        "player_name": "chris campbell",
        "rank": 49425,
        "rank_sort": 49680,
        "total": 2352
      },
      {
        "club_badge_src": null,
        "entry": 6410811,
        "entry_name": "machononreal",
        "event_total": 57,
        "has_played": true,
        "id": 51015458,
        "last_rank": 49880,
        "player_name": "Ante Verovic",
        "rank": 49425,
        "rank_sort": 49681,
        "total": 2352
      },
      {
        "club_badge_src": null,
        "entry": 6519565,
        "entry_name": "kintsugi",
        "event_total": 51,
        "has_played": true,
        "id": 51996107,
        "last_rank": 41162,
        "player_name": "Andrew Purves",
        "rank": 49425,
        "rank_sort": 49682,
        "total": 2352
      },
      {
        "club_badge_src": null,
        "entry": 6586820,
        "entry_name": "\u694a\u4e16\u4e00",
        "event_total": 62,
        "has_played": true,
        "id": 52603745,
        "last_rank": 58071,
        "player_name": "John Yang",
        "rank": 49425,
        "rank_sort": 49683,
        "total": 2352
      },
      {
        "club_badge_src": null,
        "entry": 6599572,
        "entry_name": "Fc Tokaj T\u0155\u0148a",
        "event_total": 55,
        "has_played": true,
        "id": 52716762,
        "last_rank": 46839,
        "player_name": "Jozef Petrik",
        "rank": 49425,
        "rank_sort": 49684,
        "total": 2352
      },
      {
        "club_badge_src": null,
        "entry": 6697468,
        "entry_name": "Bergkamps FC",
        "event_total": 37,
        "has_played": true,
        "id": 53586778,
        "last_rank": 25902,
        "player_name": "Axel Sand",
        "rank": 49425,
        "rank_sort": 49685,
        "total": 2352
      },
      {
        "club_badge_src": null,
        "entry": 6729347,
        "entry_name": "Botman & Robin",
        "event_total": 60,
        "has_played": true,
        "id": 53861540,
        "last_rank": 54494,
        "player_name": "Tom Shea",
        "rank": 49425,
        "rank_sort": 49686,
        "total": 2352
      },
      {
        "club_badge_src": null,
        "entry": 6783026,
        "entry_name": "Vini, Vidi, Vici FC",
        "event_total": 72,
        "has_played": true,
        "id": 54315401,
        "last_rank": 77050,
        "player_name": "Braydon P",
        "rank": 49425,
        "rank_sort": 49687,
        "total": 2352
      },
      {
        "club_badge_src": null,
        "entry": 6859174,
        "entry_name": "Doctor Whom",
        "event_total": 65,
        "has_played": true,
        "id": 54957735,
        "last_rank": 63117,
        "player_name": "Aris Drossinos Sancho",
        "rank": 49425,
        "rank_sort": 49688,
        "total": 2352
      },
      {
        "club_badge_src": null,
        "entry": 6863351,
        "entry_name": "Rice Up Your Life",
        "event_total": 60,
        "has_played": true,
        "id": 54992990,
        "last_rank": 54494,
        "player_name": "Annabel Rackham",
        "rank": 49425,
        "rank_sort": 49689,
        "total": 2352
      },
      {
        "club_badge_src": null,
        "entry": 6929212,
        "entry_name": "ZULRADHI ROSLI",
        "event_total": 37,
        "has_played": true,
        "id": 55548239,
        "last_rank": 25902,
        "player_name": "Zulradhi Rosli",
        "rank": 49425,
        "rank_sort": 49690,
        "total": 2352
      },
      {
        "club_badge_src": null,
        "entry": 7096739,
        "entry_name": "JM United",
        "event_total": 57,
        "has_played": true,
        "id": 57144707,
        "last_rank": 49880,
        "player_name": "Johan Mansson",
        "rank": 49425,
        "rank_sort": 49691,
        "total": 2352
      },
      {
        "club_badge_src": null,
        "entry": 7104360,
        "entry_name": "Lille",
        "event_total": 68,
        "has_played": true,
        "id": 57216780,
        "last_rank": 68624,
        "player_name": "Szymon Osipiuk",
        "rank": 49425,
        "rank_sort": 49692,
        "total": 2352
      },
      {
        "club_badge_src": null,
        "entry": 7116265,
        "entry_name": "This Is Our Year",
        "event_total": 51,
        "has_played": true,
        "id": 57331533,
        "last_rank": 41324,
        "player_name": "Daniel Hussey",
        "rank": 49425,
        "rank_sort": 49693,
        "total": 2352
      },
      {
        "club_badge_src": null,
        "entry": 7219724,
        "entry_name": "Catch me if you can",
        "event_total": 62,
        "has_played": true,
        "id": 58319654,
        "last_rank": 58071,
        "player_name": "Shantanu Vithaldas",
        "rank": 49425,
        "rank_sort": 49694,
        "total": 2352
      },
      {
        "club_badge_src": null,
        "entry": 7293315,
        "entry_name": "We're going to do it",
        "event_total": 49,
        "has_played": true,
        "id": 59013698,
        "last_rank": 38571,
        "player_name": "Mike Clancy",
        "rank": 49425,
        "rank_sort": 49695,
        "total": 2352
      },
      {
        "club_badge_src": null,
        "entry": 7433492,
        "entry_name": "NNXI",
        "event_total": 69,
        "has_played": true,
        "id": 60416337,
        "last_rank": 70757,
        "player_name": "Niroshen Neminathan",
        "rank": 49425,
        "rank_sort": 49696,
        "total": 2352
      },
      {
        "club_badge_src": null,
        "entry": 7435635,
        "entry_name": "Derriaghy Dazzlers",
        "event_total": 57,
        "has_played": true,
        "id": 60444831,
        "last_rank": 49880,
        "player_name": "Patricia Glass",
        "rank": 49425,
        "rank_sort": 49697,
        "total": 2352
      },
      {
        "club_badge_src": null,
        "entry": 7479393,
        "entry_name": "Calafiorication",
        "event_total": 62,
        "has_played": true,
        "id": 61014847,
        "last_rank": 58071,
        "player_name": "william Coakley",
        "rank": 49425,
        "rank_sort": 49698,
        "total": 2352
      },
      {
        "club_badge_src": null,
        "entry": 7536293,
        "entry_name": "Rainer",
        "event_total": 76,
        "has_played": true,
        "id": 61685665,
        "last_rank": 76947,
        "player_name": "memo nemo",
        "rank": 49425,
        "rank_sort": 49699,
        "total": 2352
      },
      {
        "club_badge_src": null,
        "entry": 7564376,
        "entry_name": "Amar team",
        "event_total": 56,
        "has_played": true,
        "id": 61941187,
        "last_rank": 48197,
        "player_name": "AMAR MENNI",
        "rank": 49425,
        "rank_sort": 49700,
        "total": 2352
      }
    ]
  }
}