{
  "last_updated_data": "2026-05-24T23:28:17Z",
  "league": {
    "admin_entry": null,
    "closed": false,
    "code_privacy": "p",
    "created": "2025-07-20T23:14:33.933835Z",
    "cup_league": 2815434,
    "has_cup": true,
    "id": 314,
    "league_type": "s",
    "max_entries": null,
    "name": "Overall",
    "rank": null,
    "scoring": "c",
    "start_event": 1
  },
  "new_entries": {
    "has_next": false,
    "page": 1,
    "results": []
  },
  "standings": {
    "has_next": true,
    "page": 719,
    "results": [
      {
        "club_badge_src": null,
        "entry": 1014214,
        "entry_name": "Frasers Fledglings",
        "event_total": 66,
        "has_played": true,
        "id": 7016126,
        "last_rank": 47722,
        "player_name": "Wesley Fraser",
        "rank": 35868,
        "rank_sort": 35901,
        "total": 2363
      },
      {
        "club_badge_src": null,
        "entry": 1017708,
        "entry_name": "Pathetico Athletico",
        "event_total": 68,
        "has_played": true,
        "id": 7040802,
        "last_rank": 39246,
        "player_name": "Dwayne Owen",
        "rank": 35868,
        "rank_sort": 35902,
        "total": 2363
      },
      {
        "club_badge_src": null,
        "entry": 1137086,
        "entry_name": "Bamses Knattelag",
        "event_total": 62,
        "has_played": true,
        "id": 7881924,
        "last_rank": 41967,
        "player_name": "Viktor Lindholm",
        "rank": 35868,
        "rank_sort": 35903,
        "total": 2363
      },
      {
        "club_badge_src": "https://fantasy.premierleague.com/gcs/plfpl-production-adobe-approved/plfpl-production/1197986/b539cad7-3d96-45d4-a3a4-f0a299779da7.png",
        "entry": 1197986,
        "entry_name": "Neville Wears Prada",
        "event_total": 64,
        "has_played": true,
        "id": 8313268,
        "last_rank": 44804,
        "player_name": "Luke Noakes",
        "rank": 35868,
        "rank_sort": 35904,
        "total": 2363
      },
      {
        "club_badge_src": "https://fantasy.premierleague.com/gcs/plfpl-production-adobe-approved/plfpl-production/1267822/9a9fa152-a636-4b42-b27a-da2810081078.png",
        "entry": 1267822,
        "entry_name": "Noni Your Business",
        "event_total": 74,
        "has_played": true,
        "id": 8808961,
        "last_rank": 60671,
        "player_name": "Lucas Trickett",
        "rank": 35868,
        "rank_sort": 35905,
        "total": 2363
      },
      {
        "club_badge_src": null,
        "entry": 1290616,
        "entry_name": "Tel me Moore FC",
        "event_total": 67,
        "has_played": true,
        "id": 8968281,
        "last_rank": 42940,
        "player_name": "Kachinga Silumbe",
        "rank": 35868,
        "rank_sort": 35906,
        "total": 2363
      },
      {
        "club_badge_src": null,
        "entry": 1375795,
        "entry_name": "BOSH FC",
        "event_total": 60,
        "has_played": true,
        "id": 9563649,
        "last_rank": 34578,
        "player_name": "James Pearson",
        "rank": 35868,
        "rank_sort": 35907,
        "total": 2363
      },
      {
        "club_badge_src": null,
        "entry": 1466259,
        "entry_name": "Iwobi-Wan Kenobi",
        "event_total": 72,
        "has_played": true,
        "id": 10220464,
        "last_rank": 50635,
        "player_name": "Tristan Gall",
        "rank": 35868,
        "rank_sort": 35908,
        "total": 2363
      },
      {
        "club_badge_src": "https://fantasy.premierleague.com/gcs/plfpl-production-adobe-approved/plfpl-production/1475459/d9cb8101-f00c-4fe2-91be-c9264c17d26b.png",
        "entry": 1475459,
        "entry_name": "Wirtz That Smell?",
        "event_total": 56,
        "has_played": true,
        "id": 10285036,
        "last_rank": 30191,
        "player_name": "Michael Dowsett",
        "rank": 35868,
        "rank_sort": 35909,
        "total": 2363
      },
      {
        "club_badge_src": null,
        "entry": 1480021,
        "entry_name": "Hakuna Mateta",
        "event_total": 66,
        "has_played": true,
        "id": 10319721,
        "last_rank": 41967,
        "player_name": "Erlend S. Ueland",
        "rank": 35868,
        "rank_sort": 35910,
        "total": 2363
      },
      {
        "club_badge_src": null,
        "entry": 1525142,
        "entry_name": "Oliverpool",
        "event_total": 62,
        "has_played": true,
        "id": 10637482,
        "last_rank": 32190,
        "player_name": "Oliver Schafer",
        "rank": 35868,
        "rank_sort": 35911,
        "total": 2363
      },
      {
        "club_badge_src": null,
        "entry": 1560865,
        "entry_name": "nawaf_alyosef",
        "event_total": 37,
        "has_played": true,
        "id": 10901239,
        "last_rank": 17848,
        "player_name": "\u0646\u0648\u0627\u0641 \u0627\u0644\u064a\u0648\u0633\u0641",
        "rank": 35868,
        "rank_sort": 35912,
        "total": 2363
      },
      {
        "club_badge_src": null,
        "entry": 1717074,
        "entry_name": "special omar back",
        "event_total": 47,
        "has_played": true,
        "id": 12033266,
        "last_rank": 25517,
        "player_name": "Omar Eleas3y",
        "rank": 35868,
        "rank_sort": 35913,
        "total": 2363
      },
      {
        "club_badge_src": null,
        "entry": 1790659,
        "entry_name": "Consistent FC",
        "event_total": 65,
        "has_played": true,
        "id": 12582419,
        "last_rank": 40647,
        "player_name": "Ian McIntosh",
        "rank": 35868,
        "rank_sort": 35914,
        "total": 2363
      },
      {
        "club_badge_src": null,
        "entry": 1876345,
        "entry_name": "didudo",
        "event_total": 58,
        "has_played": true,
        "id": 13212210,
        "last_rank": 32335,
        "player_name": "anthony gold",
        "rank": 35868,
        "rank_sort": 35915,
        "total": 2363
      },
      {
        "club_badge_src": null,
        "entry": 1909762,
        "entry_name": "EggFreak",
        "event_total": 83,
        "has_played": true,
        "id": 13464076,
        "last_rank": 78440,
        "player_name": "Gavin Watt",
        "rank": 35868,
        "rank_sort": 35916,
        "total": 2363
      },
      {
        "club_badge_src": null,
        "entry": 2161452,
        "entry_name": "14",
        "event_total": 52,
        "has_played": true,
        "id": 15365364,
        "last_rank": 22685,
        "player_name": "Lord Fahad",
        "rank": 35868,
        "rank_sort": 35917,
        "total": 2363
      },
      {
        "club_badge_src": null,
        "entry": 2181171,
        "entry_name": "The Boyce Identity",
        "event_total": 62,
        "has_played": true,
        "id": 15513294,
        "last_rank": 42081,
        "player_name": "Dubois Elder",
        "rank": 35868,
        "rank_sort": 35918,
        "total": 2363
      },
      {
        "club_badge_src": null,
        "entry": 2311373,
        "entry_name": "Dev's dopes",
        "event_total": 69,
        "has_played": true,
        "id": 16487179,
        "last_rank": 46106,
        "player_name": "Devin Rowe",
        "rank": 35868,
        "rank_sort": 35919,
        "total": 2363
      },
      {
        "club_badge_src": null,
        "entry": 2531528,
        "entry_name": "vibes fc",
        "event_total": 55,
        "has_played": true,
        "id": 18140423,
        "last_rank": 33582,
        "player_name": "Mark Gitau",
        "rank": 35868,
        "rank_sort": 35920,
        "total": 2363
      },
      {
        "club_badge_src": null,
        "entry": 2568767,
        "entry_name": "Men with Van de Ven",
        "event_total": 74,
        "has_played": true,
        "id": 18428987,
        "last_rank": 53621,
        "player_name": "Alex Conroy",
        "rank": 35868,
        "rank_sort": 35921,
        "total": 2363
      },
      {
        "club_badge_src": null,
        "entry": 2679343,
        "entry_name": "Goal Diggers FC",
        "event_total": 54,
        "has_played": true,
        "id": 19269662,
        "last_rank": 32437,
        "player_name": "Kacper Bera",
        "rank": 35868,
        "rank_sort": 35922,
        "total": 2363
      },
      {
        "club_badge_src": null,
        "entry": 3041844,
        "entry_name": "Babsy XI",
        "event_total": 55,
        "has_played": true,
        "id": 22389674,
        "last_rank": 29199,
        "player_name": "Charlie Dear",
        "rank": 35868,
        "rank_sort": 35923,
        "total": 2363
      },
      {
        "club_badge_src": null,
        "entry": 3137847,
        "entry_name": "potfeed 2026",
        "event_total": 51,
        "has_played": true,
        "id": 23163751,
        "last_rank": 29279,
        "player_name": "mitul mehta",
        "rank": 35868,
        "rank_sort": 35924,
        "total": 2363
      },
      {
        "club_badge_src": null,
        "entry": 3345498,
        "entry_name": "FC Hurlsburg",
        "event_total": 46,
        "has_played": true,
        "id": 24816308,
        "last_rank": 24636,
        "player_name": "Brian Hurley",
        "rank": 35868,
        "rank_sort": 35925,
        "total": 2363
      },
      {
        "club_badge_src": "https://fantasy.premierleague.com/gcs/plfpl-production-adobe-approved/plfpl-production/3444410/9c753405-07ac-4009-bc21-88dc020f6f23.png",
        "entry": 3444410,
        "entry_name": "Jos\u00e9 Mo-urinho",
        "event_total": 47,
        "has_played": true,
        "id": 25591367,
        "last_rank": 19103,
        "player_name": "Mohammed Zekaria",
        "rank": 35868,
        "rank_sort": 35926,
        "total": 2363
      },
      {
        "club_badge_src": null,
        "entry": 3595095,
        "entry_name": "Doodhwaalas",
        "event_total": 73,
        "has_played": true,
        "id": 26775020,
        "last_rank": 59077,
        "player_name": "Shanda Paul",
        "rank": 35868,
        "rank_sort": 35927,
        "total": 2363
      },
      {
        "club_badge_src": null,
        "entry": 3719292,
        "entry_name": "HERE WE GO",
        "event_total": 62,
        "has_played": true,
        "id": 27755307,
        "last_rank": 42081,
        "player_name": "Abdulrahman Alsisi",
        "rank": 35868,
        "rank_sort": 35928,
        "total": 2363
      },
      {
        "club_badge_src": "https://fantasy.premierleague.com/gcs/plfpl-production-adobe-approved/plfpl-production/3785454/a4a64005-88c9-487d-91ca-fe6010e6b3cd.png",
        "entry": 3785454,
        "entry_name": "Foden's Mom",
        "event_total": 59,
        "has_played": true,
        "id": 28268388,
        "last_rank": 38267,
        "player_name": "Nevo Rapaport",
        "rank": 35868,
        "rank_sort": 35929,
        "total": 2363
      },
      {
        "club_badge_src": null,
        "entry": 4116525,
        "entry_name": "Sharry fc",
        "event_total": 60,
        "has_played": true,
        "id": 31097645,
        "last_rank": 39510,
        "player_name": "Anup Patny",
        "rank": 35868,
        "rank_sort": 35930,
        "total": 2363
      },
      {
        "club_badge_src": "https://fantasy.premierleague.com/gcs/plfpl-production-adobe-approved/plfpl-production/4234963/9a688305-069a-4818-8c8d-9a37b1eff65e.png",
        "entry": 4234963,
        "entry_name": "Zeus",
        "event_total": 70,
        "has_played": true,
        "id": 32090888,
        "last_rank": 53345,
        "player_name": "Michael Nwokocha",
        "rank": 35868,
        "rank_sort": 35931,
        "total": 2363
      },
      {
        "club_badge_src": null,
        "entry": 4334972,
        "entry_name": "\u0628\u0627\u0628\u0644\u064a\u062a\u0648 \u062c\u0627\u0641\u064a",
        "event_total": 65,
        "has_played": true,
        "id": 32910958,
        "last_rank": 40503,
        "player_name": "Ziad hanii",
        "rank": 35868,
        "rank_sort": 35932,
        "total": 2363
      },
      {
        "club_badge_src": null,
        "entry": 4411188,
        "entry_name": "A date with Destiny",
        "event_total": 58,
        "has_played": true,
        "id": 33556170,
        "last_rank": 37134,
        "player_name": "George Cornell",
        "rank": 35868,
        "rank_sort": 35933,
        "total": 2363
      },
      {
        "club_badge_src": null,
        "entry": 4430317,
        "entry_name": "Dunk Those Busquets",
        "event_total": 53,
        "has_played": true,
        "id": 33725767,
        "last_rank": 27304,
        "player_name": "Ryan Lipman",
        "rank": 35868,
        "rank_sort": 35934,
        "total": 2363
      },
      {
        "club_badge_src": null,
        "entry": 4761723,
        "entry_name": "Scouting for goals",
        "event_total": 68,
        "has_played": true,
        "id": 36646532,
        "last_rank": 50772,
        "player_name": "Simon Lamprell",
        "rank": 35868,
        "rank_sort": 35935,
        "total": 2363
      },
      {
        "club_badge_src": "https://fantasy.premierleague.com/gcs/plfpl-production-adobe-approved/plfpl-production/4834176/68299876-8da1-4072-bcd3-264b9e95baa5.png",
        "entry": 4834176,
        "entry_name": "Cunha Matata",
        "event_total": 47,
        "has_played": true,
        "id": 37235255,
        "last_rank": 25517,
        "player_name": "Richard Nelson",
        "rank": 35868,
        "rank_sort": 35936,
        "total": 2363
      },
      {
        "club_badge_src": null,
        "entry": 4993416,
        "entry_name": "Mangetout Rodri",
        "event_total": 52,
        "has_played": true,
        "id": 38551495,
        "last_rank": 30276,
        "player_name": "John Byrne",
        "rank": 35868,
        "rank_sort": 35937,
        "total": 2363
      },
      {
        "club_badge_src": null,
        "entry": 5051006,
        "entry_name": "SambaKicks",
        "event_total": 58,
        "has_played": true,
        "id": 39025453,
        "last_rank": 37058,
        "player_name": "Luis Meraz",
        "rank": 35868,
        "rank_sort": 35938,
        "total": 2363
      },
      {
        "club_badge_src": null,
        "entry": 5179706,
        "entry_name": "Mike & the Mo-canics",
        "event_total": 69,
        "has_played": true,
        "id": 40092745,
        "last_rank": 52357,
        "player_name": "Michael Fernando",
        "rank": 35868,
        "rank_sort": 35939,
        "total": 2363
      },
      {
        "club_badge_src": null,
        "entry": 5415500,
        "entry_name": "Not sure yet",
        "event_total": 67,
        "has_played": true,
        "id": 42116088,
        "last_rank": 33147,
        "player_name": "Eleanor Edge",
        "rank": 35868,
        "rank_sort": 35940,
        "total": 2363
      },
      {
        "club_badge_src": null,
        "entry": 5453823,
        "entry_name": "Burts Old Boys",
        "event_total": 72,
        "has_played": true,
        "id": 42440612,
        "last_rank": 50199,
        "player_name": "Jake Childs",
        "rank": 35868,
        "rank_sort": 35941,
        "total": 2363
      },
      {
        "club_badge_src": null,
        "entry": 5500672,
        "entry_name": "Stamsund FC",
        "event_total": 45,
        "has_played": true,
        "id": 42859810,
        "last_rank": 23820,
        "player_name": "Michael Pettersen",
        "rank": 35868,
        "rank_sort": 35942,
        "total": 2363
      },
      {
        "club_badge_src": null,
        "entry": 5699554,
        "entry_name": "Gurka",
        "event_total": 67,
        "has_played": true,
        "id": 44623998,
        "last_rank": 49207,
        "player_name": "Sushmita Kafle",
        "rank": 35868,
        "rank_sort": 35943,
        "total": 2363
      },
      {
        "club_badge_src": "https://fantasy.premierleague.com/gcs/plfpl-production-adobe-approved/plfpl-production/5921258/bd6db813-a947-42b5-9ca5-5b7a89a75640.png",
        "entry": 5921258,
        "entry_name": "No penalty No party",
        "event_total": 64,
        "has_played": true,
        "id": 46541091,
        "last_rank": 39403,
        "player_name": "mOHaMmEdAbBaS aUnAlI",
        "rank": 35868,
        "rank_sort": 35944,
        "total": 2363
      },
      {
        "club_badge_src": null,
        "entry": 6022204,
        "entry_name": "Meercats United",
        "event_total": 59,
        "has_played": true,
        "id": 47496960,
        "last_rank": 33332,
        "player_name": "hardeep kainth",
        "rank": 35868,
        "rank_sort": 35945,
        "total": 2363
      },
      {
        "club_badge_src": null,
        "entry": 6049983,
        "entry_name": "Minteh Fresh",
        "event_total": 67,
        "has_played": true,
        "id": 47739437,
        "last_rank": 49078,
        "player_name": "Andrew Southcott",
        "rank": 35868,
        "rank_sort": 35946,
        "total": 2363
      },
      {
        "club_badge_src": null,
        "entry": 6273787,
        "entry_name": "Myeyesdontlie V11",
        "event_total": 48,
        "has_played": true,
        "id": 49680644,
        "last_rank": 26425,
        "player_name": "fergal foran",
        "rank": 35868,
        "rank_sort": 35947,
        "total": 2363
      },
      {
        "club_badge_src": null,
        "entry": 6295771,
        "entry_name": "\u0e25\u0e38\u0e07\u0e40\u0e1a\u0e34\u0e49\u0e21",
        "event_total": 48,
        "has_played": true,
        "id": 49896477,
        "last_rank": 26425,
        "player_name": "ratchadapoln samapunt",
        "rank": 35868,
        "rank_sort": 35948,
        "total": 2363
      },
      {
        "club_badge_src": null,
        "entry": 6395696,
        "entry_name": "Malcolms In A Box",
        "event_total": 66,
        "has_played": true,
        "id": 50881827,
        "last_rank": 41967,
        "player_name": "Ben Deary",
        "rank": 35868,
        "rank_sort": 35949,
        "total": 2363
      },
      {
        "club_badge_src": "https://fantasy.premierleague.com/gcs/plfpl-production-adobe-approved/plfpl-production/6412541/b0b2e837-8071-46d3-9534-2047e38b66b3.png",
        "entry": 6412541,
        "entry_name": "Matheus Chin ya",
        "event_total": 52,
        "has_played": true,
        "id": 51031085,
        "last_rank": 30191,
        "player_name": "Clive Killick",
        "rank": 35868,
        "rank_sort": 35950,
        "total": 2363
      }
    ]
  }
}