{
  "last_updated_data": "2026-05-24T23:28:17Z",
  "league": {
    "admin_entry": null,
    "closed": false,
    "code_privacy": "p",
    "created": "2025-07-20T23:14:33.933835Z",
    "cup_league": 2815434,
    "has_cup": true,
    "id": 314,
    "league_type": "s",
    "max_entries": null,
    "name": "Overall",
    "rank": null,
    "scoring": "c",
    "start_event": 1
  },
  "new_entries": {
    "has_next": false,
    "page": 1,
    "results": []
  },
  "standings": {
    "has_next": true,
    "page": 519,
    "results": [
      {
        "club_badge_src": null,
        "entry": 6842027,
        "entry_name": "The Pedigree FC",
        "event_total": 43,
        "has_played": true,
        "id": 54810615,
        "last_rank": 15280,
        "player_name": "Aman Sanghera",
        "rank": 25857,
        "rank_sort": 25901,
        "total": 2373
      },
      {
        "club_badge_src": null,
        "entry": 7194202,
        "entry_name": "Random Kicks",
        "event_total": 58,
        "has_played": true,
        "id": 58079262,
        "last_rank": 26425,
        "player_name": "Daddyo Charnley",
        "rank": 25857,
        "rank_sort": 25902,
        "total": 2373
      },
      {
        "club_badge_src": "https://fantasy.premierleague.com/gcs/plfpl-production-adobe-approved/plfpl-production/7223723/f3749057-a314-4359-b93b-83c082a2aa49.png",
        "entry": 7223723,
        "entry_name": "Chak 217",
        "event_total": 44,
        "has_played": true,
        "id": 58357102,
        "last_rank": 13558,
        "player_name": "Omar Ali",
        "rank": 25857,
        "rank_sort": 25903,
        "total": 2373
      },
      {
        "club_badge_src": null,
        "entry": 8715920,
        "entry_name": "Arne Belindas",
        "event_total": 48,
        "has_played": true,
        "id": 72733909,
        "last_rank": 18520,
        "player_name": "Sloppy Kloppy",
        "rank": 25857,
        "rank_sort": 25904,
        "total": 2373
      },
      {
        "club_badge_src": "https://fantasy.premierleague.com/gcs/plfpl-production-adobe-approved/plfpl-production/8960115/b38b94a2-864a-4cd4-9bdf-3f41a71162ae.png",
        "entry": 8960115,
        "entry_name": "Arne\u2019s Slot Machine",
        "event_total": 64,
        "has_played": true,
        "id": 75096924,
        "last_rank": 28273,
        "player_name": "Danny Kelley",
        "rank": 25857,
        "rank_sort": 25905,
        "total": 2373
      },
      {
        "club_badge_src": null,
        "entry": 8972037,
        "entry_name": "Shehab\u2019s team",
        "event_total": 65,
        "has_played": true,
        "id": 75212022,
        "last_rank": 29199,
        "player_name": "Shehab Abdo",
        "rank": 25857,
        "rank_sort": 25906,
        "total": 2373
      },
      {
        "club_badge_src": null,
        "entry": 3564,
        "entry_name": "F1nnur",
        "event_total": 57,
        "has_played": true,
        "id": 20208,
        "last_rank": 25517,
        "player_name": "Emil Ringlund",
        "rank": 25907,
        "rank_sort": 25907,
        "total": 2373
      },
      {
        "club_badge_src": null,
        "entry": 22893,
        "entry_name": "Cunha Mateta",
        "event_total": 68,
        "has_played": true,
        "id": 143950,
        "last_rank": 37058,
        "player_name": "Toby Harding",
        "rank": 25907,
        "rank_sort": 25908,
        "total": 2373
      },
      {
        "club_badge_src": null,
        "entry": 27358,
        "entry_name": "Juice WRTZ",
        "event_total": 60,
        "has_played": true,
        "id": 172940,
        "last_rank": 28388,
        "player_name": "Dylan Gault",
        "rank": 25907,
        "rank_sort": 25909,
        "total": 2373
      },
      {
        "club_badge_src": null,
        "entry": 34682,
        "entry_name": "SpaceCadet",
        "event_total": 64,
        "has_played": true,
        "id": 221673,
        "last_rank": 32437,
        "player_name": "Pragun P",
        "rank": 25907,
        "rank_sort": 25910,
        "total": 2373
      },
      {
        "club_badge_src": null,
        "entry": 37003,
        "entry_name": "Yoro Wissa Harry",
        "event_total": 55,
        "has_played": true,
        "id": 236946,
        "last_rank": 20678,
        "player_name": "Fabio Rossetti",
        "rank": 25907,
        "rank_sort": 25911,
        "total": 2373
      },
      {
        "club_badge_src": null,
        "entry": 43215,
        "entry_name": "GuGu Eleven",
        "event_total": 67,
        "has_played": true,
        "id": 276725,
        "last_rank": 35768,
        "player_name": "Nattajak Klinkesorn",
        "rank": 25907,
        "rank_sort": 25912,
        "total": 2373
      },
      {
        "club_badge_src": null,
        "entry": 67277,
        "entry_name": "FPL RABBITS",
        "event_total": 64,
        "has_played": true,
        "id": 435555,
        "last_rank": 28348,
        "player_name": "Trent Macdonald",
        "rank": 25907,
        "rank_sort": 25913,
        "total": 2373
      },
      {
        "club_badge_src": "https://fantasy.premierleague.com/gcs/plfpl-production-adobe-approved/plfpl-production/70333/813abc99-2524-404b-811f-b7a0c096a6cf.png",
        "entry": 70333,
        "entry_name": "Bruno dos tres",
        "event_total": 67,
        "has_played": true,
        "id": 456636,
        "last_rank": 35926,
        "player_name": "Glynn Williams",
        "rank": 25907,
        "rank_sort": 25914,
        "total": 2373
      },
      {
        "club_badge_src": "https://fantasy.premierleague.com/gcs/plfpl-production-adobe-approved/plfpl-production/78632/e79556b1-cda2-4ab7-b8f5-a57c408a562b.png",
        "entry": 78632,
        "entry_name": "Thunderprats",
        "event_total": 56,
        "has_played": true,
        "id": 511252,
        "last_rank": 21450,
        "player_name": "Kevin Tarne",
        "rank": 25907,
        "rank_sort": 25915,
        "total": 2373
      },
      {
        "club_badge_src": "https://fantasy.premierleague.com/gcs/plfpl-production-adobe-approved/plfpl-production/360370/82df7faa-ba2d-4b14-9580-a993e595d184.png",
        "entry": 360370,
        "entry_name": "Gigantski Pingvini",
        "event_total": 69,
        "has_played": true,
        "id": 2411419,
        "last_rank": 38163,
        "player_name": "Trajche Belevski",
        "rank": 25907,
        "rank_sort": 25916,
        "total": 2373
      },
      {
        "club_badge_src": null,
        "entry": 422350,
        "entry_name": "The O'Dunniekens",
        "event_total": 58,
        "has_played": true,
        "id": 2830422,
        "last_rank": 26345,
        "player_name": "Nigel O'Donoghue",
        "rank": 25907,
        "rank_sort": 25917,
        "total": 2373
      },
      {
        "club_badge_src": null,
        "entry": 478487,
        "entry_name": "Kudos to Frank",
        "event_total": 65,
        "has_played": true,
        "id": 3212226,
        "last_rank": 29279,
        "player_name": "Morten Horne",
        "rank": 25907,
        "rank_sort": 25918,
        "total": 2373
      },
      {
        "club_badge_src": null,
        "entry": 542269,
        "entry_name": "Swiss",
        "event_total": 67,
        "has_played": true,
        "id": 3649661,
        "last_rank": 35926,
        "player_name": "Jason Kwan",
        "rank": 25907,
        "rank_sort": 25919,
        "total": 2373
      },
      {
        "club_badge_src": null,
        "entry": 601790,
        "entry_name": "3aw",
        "event_total": 53,
        "has_played": true,
        "id": 4060844,
        "last_rank": 19237,
        "player_name": "Omar 3aww",
        "rank": 25907,
        "rank_sort": 25920,
        "total": 2373
      },
      {
        "club_badge_src": "https://fantasy.premierleague.com/gcs/plfpl-production-adobe-approved/plfpl-production/667396/f8b7bf68-22b1-4937-87e7-39603be86858.png",
        "entry": 667396,
        "entry_name": "WinnersFailureWin FC",
        "event_total": 69,
        "has_played": true,
        "id": 4512605,
        "last_rank": 38340,
        "player_name": "kazeem odunlami",
        "rank": 25907,
        "rank_sort": 25921,
        "total": 2373
      },
      {
        "club_badge_src": null,
        "entry": 945617,
        "entry_name": "Gary's_Greats",
        "event_total": 67,
        "has_played": true,
        "id": 6513166,
        "last_rank": 31309,
        "player_name": "Gary MacPhee",
        "rank": 25907,
        "rank_sort": 25922,
        "total": 2373
      },
      {
        "club_badge_src": null,
        "entry": 991204,
        "entry_name": "Don Zimo",
        "event_total": 66,
        "has_played": true,
        "id": 6834603,
        "last_rank": 30276,
        "player_name": "Ahmed Abdelkefi",
        "rank": 25907,
        "rank_sort": 25923,
        "total": 2373
      },
      {
        "club_badge_src": null,
        "entry": 1050934,
        "entry_name": "\u0637\u0627\u0631\u0642 \u0627\u0644\u0628\u062f\u0631\u064a",
        "event_total": 64,
        "has_played": true,
        "id": 7273107,
        "last_rank": 32491,
        "player_name": "Mohamed Sayed",
        "rank": 25907,
        "rank_sort": 25924,
        "total": 2373
      },
      {
        "club_badge_src": null,
        "entry": 1389918,
        "entry_name": "EGR Rangers \u2b50\ufe0f\u2b50\ufe0f",
        "event_total": 64,
        "has_played": true,
        "id": 9668356,
        "last_rank": 28348,
        "player_name": "Steve Charnley",
        "rank": 25907,
        "rank_sort": 25925,
        "total": 2373
      },
      {
        "club_badge_src": "https://fantasy.premierleague.com/gcs/plfpl-production-adobe-approved/plfpl-production/2132799/9f550bbd-65d6-452f-9f25-14fc96b2fbad.png",
        "entry": 2132799,
        "entry_name": "Neville Wears Prada",
        "event_total": 62,
        "has_played": true,
        "id": 15156336,
        "last_rank": 26425,
        "player_name": "Doug Rolley",
        "rank": 25907,
        "rank_sort": 25926,
        "total": 2373
      },
      {
        "club_badge_src": null,
        "entry": 2146408,
        "entry_name": "Nutmeg Dribblers",
        "event_total": 62,
        "has_played": true,
        "id": 15256202,
        "last_rank": 26425,
        "player_name": "Martin Collett",
        "rank": 25907,
        "rank_sort": 25927,
        "total": 2373
      },
      {
        "club_badge_src": null,
        "entry": 2194507,
        "entry_name": "OH MY GOH!",
        "event_total": 62,
        "has_played": true,
        "id": 15614102,
        "last_rank": 26425,
        "player_name": "OakMai Goh",
        "rank": 25907,
        "rank_sort": 25928,
        "total": 2373
      },
      {
        "club_badge_src": "https://fantasy.premierleague.com/gcs/plfpl-production-adobe-approved/plfpl-production/2613580/6d1f15df-7962-48d0-807d-2ad6dd5842a9.png",
        "entry": 2613580,
        "entry_name": "Boys2Men",
        "event_total": 62,
        "has_played": true,
        "id": 18778479,
        "last_rank": 26425,
        "player_name": "vincent hallberg",
        "rank": 25907,
        "rank_sort": 25929,
        "total": 2373
      },
      {
        "club_badge_src": null,
        "entry": 2700333,
        "entry_name": "Abo nouh",
        "event_total": 46,
        "has_played": true,
        "id": 19425140,
        "last_rank": 17233,
        "player_name": "Ashraf Tantawy",
        "rank": 25907,
        "rank_sort": 25930,
        "total": 2373
      },
      {
        "club_badge_src": "https://fantasy.premierleague.com/gcs/plfpl-production-adobe-approved/plfpl-production/3299432/ac406c1e-b5ed-4364-88a2-74788cba5747.png",
        "entry": 3299432,
        "entry_name": "Hold the door",
        "event_total": 60,
        "has_played": true,
        "id": 24435586,
        "last_rank": 28348,
        "player_name": "Ahmed Taha",
        "rank": 25907,
        "rank_sort": 25931,
        "total": 2373
      },
      {
        "club_badge_src": "https://fantasy.premierleague.com/gcs/plfpl-production-adobe-approved/plfpl-production/4668013/e72ec864-ec65-4c88-983c-e1ec4dcfcc46.png",
        "entry": 4668013,
        "entry_name": "Time has come",
        "event_total": 74,
        "has_played": true,
        "id": 35755239,
        "last_rank": 44882,
        "player_name": "RUPESH GURUNG",
        "rank": 25907,
        "rank_sort": 25932,
        "total": 2373
      },
      {
        "club_badge_src": null,
        "entry": 4991758,
        "entry_name": "ACFC",
        "event_total": 64,
        "has_played": true,
        "id": 38538006,
        "last_rank": 28348,
        "player_name": "Andrew Constantinou",
        "rank": 25907,
        "rank_sort": 25933,
        "total": 2373
      },
      {
        "club_badge_src": null,
        "entry": 5019842,
        "entry_name": "Ping FrimPong",
        "event_total": 63,
        "has_played": true,
        "id": 38767120,
        "last_rank": 27304,
        "player_name": "Harsh Naik",
        "rank": 25907,
        "rank_sort": 25934,
        "total": 2373
      },
      {
        "club_badge_src": "https://fantasy.premierleague.com/gcs/plfpl-production-adobe-approved/plfpl-production/5083403/abd4ab88-5c94-43dc-b1e4-9d89e433d6ad.png",
        "entry": 5083403,
        "entry_name": "Cash Me If You Can",
        "event_total": 63,
        "has_played": true,
        "id": 39288584,
        "last_rank": 23656,
        "player_name": "Niyaj Shohid",
        "rank": 25907,
        "rank_sort": 25935,
        "total": 2373
      },
      {
        "club_badge_src": null,
        "entry": 5169276,
        "entry_name": "Fabio",
        "event_total": 71,
        "has_played": true,
        "id": 40006707,
        "last_rank": 40832,
        "player_name": "killian grant",
        "rank": 25907,
        "rank_sort": 25936,
        "total": 2373
      },
      {
        "club_badge_src": null,
        "entry": 5896582,
        "entry_name": "kroos control",
        "event_total": 41,
        "has_played": true,
        "id": 46324663,
        "last_rank": 14171,
        "player_name": "Adam Carter",
        "rank": 25907,
        "rank_sort": 25937,
        "total": 2373
      },
      {
        "club_badge_src": null,
        "entry": 6532306,
        "entry_name": "Project Has Gone",
        "event_total": 71,
        "has_played": true,
        "id": 52109813,
        "last_rank": 31125,
        "player_name": "Rajwant Kaur",
        "rank": 25907,
        "rank_sort": 25938,
        "total": 2373
      },
      {
        "club_badge_src": "https://fantasy.premierleague.com/gcs/plfpl-production-adobe-approved/plfpl-production/7621251/1ac985fb-4a73-4fe8-95f4-c8c3e7bd6379.png",
        "entry": 7621251,
        "entry_name": "lolzy team",
        "event_total": 40,
        "has_played": true,
        "id": 62458167,
        "last_rank": 13653,
        "player_name": "Loai Magdy",
        "rank": 25907,
        "rank_sort": 25939,
        "total": 2373
      },
      {
        "club_badge_src": null,
        "entry": 8608108,
        "entry_name": "Grillek Kowale",
        "event_total": 70,
        "has_played": true,
        "id": 71676263,
        "last_rank": 34682,
        "player_name": "Klaudiusz Filas",
        "rank": 25907,
        "rank_sort": 25940,
        "total": 2373
      },
      {
        "club_badge_src": null,
        "entry": 9466777,
        "entry_name": "Jerriano fc",
        "event_total": 69,
        "has_played": true,
        "id": 80002665,
        "last_rank": 38340,
        "player_name": "Jerry Awobusuyi",
        "rank": 25907,
        "rank_sort": 25941,
        "total": 2373
      },
      {
        "club_badge_src": null,
        "entry": 346,
        "entry_name": "Wataru doing?",
        "event_total": 57,
        "has_played": true,
        "id": 1913,
        "last_rank": 16512,
        "player_name": "James Chapman",
        "rank": 25942,
        "rank_sort": 25942,
        "total": 2373
      },
      {
        "club_badge_src": null,
        "entry": 27032,
        "entry_name": "Pinnock Butter",
        "event_total": 70,
        "has_played": true,
        "id": 170912,
        "last_rank": 34749,
        "player_name": "Connor Williams",
        "rank": 25942,
        "rank_sort": 25943,
        "total": 2373
      },
      {
        "club_badge_src": null,
        "entry": 69360,
        "entry_name": "Bruno Dos Tres",
        "event_total": 53,
        "has_played": true,
        "id": 449849,
        "last_rank": 19279,
        "player_name": "Mark Batey",
        "rank": 25942,
        "rank_sort": 25944,
        "total": 2373
      },
      {
        "club_badge_src": "https://fantasy.premierleague.com/gcs/plfpl-production-adobe-approved/plfpl-production/150621/edeb221a-da1b-4b2d-aa79-13d3f493f0d7.png",
        "entry": 150621,
        "entry_name": "Audere est Facere",
        "event_total": 65,
        "has_played": true,
        "id": 987907,
        "last_rank": 33695,
        "player_name": "Bob Johnston",
        "rank": 25942,
        "rank_sort": 25945,
        "total": 2373
      },
      {
        "club_badge_src": null,
        "entry": 167757,
        "entry_name": "Ahmed",
        "event_total": 56,
        "has_played": true,
        "id": 1108916,
        "last_rank": 21486,
        "player_name": "Ahmed Hesham",
        "rank": 25942,
        "rank_sort": 25946,
        "total": 2373
      },
      {
        "club_badge_src": "https://fantasy.premierleague.com/gcs/plfpl-production-adobe-approved/plfpl-production/233658/f8c3adb9-4fa2-4a0c-9927-ac1f7264a95e.png",
        "entry": 233658,
        "entry_name": "N'seleven",
        "event_total": 58,
        "has_played": true,
        "id": 1554712,
        "last_rank": 17150,
        "player_name": "Nour Ashraf",
        "rank": 25942,
        "rank_sort": 25947,
        "total": 2373
      },
      {
        "club_badge_src": null,
        "entry": 433667,
        "entry_name": "Sablo FC",
        "event_total": 57,
        "has_played": true,
        "id": 2908345,
        "last_rank": 19237,
        "player_name": "Feras Radhi",
        "rank": 25942,
        "rank_sort": 25948,
        "total": 2373
      },
      {
        "club_badge_src": null,
        "entry": 654655,
        "entry_name": "No Mercy",
        "event_total": 58,
        "has_played": true,
        "id": 4424181,
        "last_rank": 26475,
        "player_name": "Flemming Vetterstein",
        "rank": 25942,
        "rank_sort": 25949,
        "total": 2373
      },
      {
        "club_badge_src": null,
        "entry": 765708,
        "entry_name": "Aston vanilla",
        "event_total": 42,
        "has_played": true,
        "id": 5222456,
        "last_rank": 14761,
        "player_name": "Antony Dumbleton",
        "rank": 25942,
        "rank_sort": 25950,
        "total": 2373
      }
    ]
  }
}