{
  "last_updated_data": "2026-05-24T23:28:17Z",
  "league": {
    "admin_entry": null,
    "closed": false,
    "code_privacy": "p",
    "created": "2025-07-20T23:14:33.933835Z",
    "cup_league": 2815434,
    "has_cup": true,
    "id": 314,
    "league_type": "s",
    "max_entries": null,
    "name": "Overall",
    "rank": null,
    "scoring": "c",
    "start_event": 1
  },
  "new_entries": {
    "has_next": false,
    "page": 1,
    "results": []
  },
  "standings": {
    "has_next": true,
    "page": 1559,
    "results": [
      {
        "club_badge_src": null,
        "entry": 1387751,
        "entry_name": "Elangan In 60 Second",
        "event_total": 47,
        "has_played": true,
        "id": 9652827,
        "last_rank": 59813,
        "player_name": "Mats Eldh",
        "rank": 77757,
        "rank_sort": 77901,
        "total": 2336
      },
      {
        "club_badge_src": "https://fantasy.premierleague.com/gcs/plfpl-production-adobe-approved/plfpl-production/1397945/55a8793f-84d2-4d43-8e57-f0ac37a92655.png",
        "entry": 1397945,
        "entry_name": "KristoffersKamerater",
        "event_total": 64,
        "has_played": true,
        "id": 9725723,
        "last_rank": 95890,
        "player_name": "Kristoffer Strand",
        "rank": 77757,
        "rank_sort": 77902,
        "total": 2336
      },
      {
        "club_badge_src": "https://fantasy.premierleague.com/gcs/plfpl-production-adobe-approved/plfpl-production/1404520/e8d0df48-0b38-4692-8240-63709545978a.png",
        "entry": 1404520,
        "entry_name": "Bowen Chicka Wow Wow",
        "event_total": 76,
        "has_played": true,
        "id": 9772496,
        "last_rank": 129205,
        "player_name": "Jason Hodkinson",
        "rank": 77757,
        "rank_sort": 77903,
        "total": 2336
      },
      {
        "club_badge_src": null,
        "entry": 1424260,
        "entry_name": "kourin kopla",
        "event_total": 64,
        "has_played": true,
        "id": 9922019,
        "last_rank": 95890,
        "player_name": "Eemil Kouri",
        "rank": 77757,
        "rank_sort": 77904,
        "total": 2336
      },
      {
        "club_badge_src": null,
        "entry": 1426747,
        "entry_name": "The way to Amadiallo",
        "event_total": 58,
        "has_played": true,
        "id": 9940860,
        "last_rank": 81646,
        "player_name": "Callum Miley",
        "rank": 77757,
        "rank_sort": 77905,
        "total": 2336
      },
      {
        "club_badge_src": null,
        "entry": 1429641,
        "entry_name": "Kinder Mbeumo",
        "event_total": 53,
        "has_played": true,
        "id": 9961746,
        "last_rank": 71386,
        "player_name": "Jack Barlow",
        "rank": 77757,
        "rank_sort": 77906,
        "total": 2336
      },
      {
        "club_badge_src": null,
        "entry": 1453195,
        "entry_name": "DiepDriespizza",
        "event_total": 64,
        "has_played": true,
        "id": 10125877,
        "last_rank": 96374,
        "player_name": "Dries Vercruyce",
        "rank": 77757,
        "rank_sort": 77907,
        "total": 2336
      },
      {
        "club_badge_src": "https://fantasy.premierleague.com/gcs/plfpl-production-adobe-approved/plfpl-production/1495646/660677e0-bf26-4214-ad75-1bef09e32183.png",
        "entry": 1495646,
        "entry_name": "Human Made",
        "event_total": 52,
        "has_played": true,
        "id": 10430074,
        "last_rank": 68957,
        "player_name": "DRY ALLS",
        "rank": 77757,
        "rank_sort": 77908,
        "total": 2336
      },
      {
        "club_badge_src": null,
        "entry": 1534270,
        "entry_name": "Austin FC",
        "event_total": 53,
        "has_played": true,
        "id": 10706961,
        "last_rank": 70985,
        "player_name": "Austin Dyson",
        "rank": 77757,
        "rank_sort": 77909,
        "total": 2336
      },
      {
        "club_badge_src": null,
        "entry": 1575290,
        "entry_name": "balapaner",
        "event_total": 66,
        "has_played": true,
        "id": 11007600,
        "last_rank": 100949,
        "player_name": "Amangeldy Kuanyshbayev",
        "rank": 77757,
        "rank_sort": 77910,
        "total": 2336
      },
      {
        "club_badge_src": null,
        "entry": 1579847,
        "entry_name": "Scarlozslai",
        "event_total": 64,
        "has_played": true,
        "id": 11039744,
        "last_rank": 95640,
        "player_name": "Scarlett Sperling",
        "rank": 77757,
        "rank_sort": 77911,
        "total": 2336
      },
      {
        "club_badge_src": "https://fantasy.premierleague.com/gcs/plfpl-production-adobe-approved/plfpl-production/1597022/67e210e8-66ec-4a0d-9352-d746a93fa9d8.png",
        "entry": 1597022,
        "entry_name": "SmitHampton",
        "event_total": 61,
        "has_played": true,
        "id": 11171795,
        "last_rank": 88594,
        "player_name": "Kendell Francois",
        "rank": 77757,
        "rank_sort": 77912,
        "total": 2336
      },
      {
        "club_badge_src": null,
        "entry": 1599281,
        "entry_name": "HusesAnalytiskaP\u00e5gar",
        "event_total": 58,
        "has_played": true,
        "id": 11187929,
        "last_rank": 81646,
        "player_name": "Oscar Sk\u00f6ld",
        "rank": 77757,
        "rank_sort": 77913,
        "total": 2336
      },
      {
        "club_badge_src": "https://fantasy.premierleague.com/gcs/plfpl-production-adobe-approved/plfpl-production/1618092/131a8977-bb27-4d59-8bc0-3fb6c401a70e.png",
        "entry": 1618092,
        "entry_name": "WannaHoldYourHaaland",
        "event_total": 62,
        "has_played": true,
        "id": 11322754,
        "last_rank": 91006,
        "player_name": "Will Spicer",
        "rank": 77757,
        "rank_sort": 77914,
        "total": 2336
      },
      {
        "club_badge_src": null,
        "entry": 1635368,
        "entry_name": "Kinder Mbuemo",
        "event_total": 40,
        "has_played": true,
        "id": 11446892,
        "last_rank": 48363,
        "player_name": "Louie Hunkin",
        "rank": 77757,
        "rank_sort": 77915,
        "total": 2336
      },
      {
        "club_badge_src": null,
        "entry": 1688043,
        "entry_name": "Gomaax",
        "event_total": 64,
        "has_played": true,
        "id": 11816698,
        "last_rank": 96374,
        "player_name": "Ahmed Gomaa",
        "rank": 77757,
        "rank_sort": 77916,
        "total": 2336
      },
      {
        "club_badge_src": null,
        "entry": 1709385,
        "entry_name": "Blacked FC",
        "event_total": 77,
        "has_played": true,
        "id": 11976725,
        "last_rank": 132198,
        "player_name": "Storme Kapuya",
        "rank": 77757,
        "rank_sort": 77917,
        "total": 2336
      },
      {
        "club_badge_src": null,
        "entry": 1718729,
        "entry_name": "Dulwich Rejects",
        "event_total": 40,
        "has_played": true,
        "id": 12045359,
        "last_rank": 48642,
        "player_name": "Andrew Tucker",
        "rank": 77757,
        "rank_sort": 77918,
        "total": 2336
      },
      {
        "club_badge_src": null,
        "entry": 1719193,
        "entry_name": "TheRedTraktors",
        "event_total": 68,
        "has_played": true,
        "id": 12048853,
        "last_rank": 106259,
        "player_name": "Dimitar Dimitrov",
        "rank": 77757,
        "rank_sort": 77919,
        "total": 2336
      },
      {
        "club_badge_src": null,
        "entry": 1730442,
        "entry_name": "The Clangers",
        "event_total": 60,
        "has_played": true,
        "id": 12137128,
        "last_rank": 86304,
        "player_name": "michael laidlaw",
        "rank": 77757,
        "rank_sort": 77920,
        "total": 2336
      },
      {
        "club_badge_src": null,
        "entry": 1731759,
        "entry_name": "HoldDaOpHanErDygtig!",
        "event_total": 64,
        "has_played": true,
        "id": 12146875,
        "last_rank": 95640,
        "player_name": "Frej Thagaard Rosenb\u00e6k",
        "rank": 77757,
        "rank_sort": 77921,
        "total": 2336
      },
      {
        "club_badge_src": null,
        "entry": 1754586,
        "entry_name": "Zabacadabra",
        "event_total": 54,
        "has_played": true,
        "id": 12317910,
        "last_rank": 73038,
        "player_name": "Simon Trier",
        "rank": 77757,
        "rank_sort": 77922,
        "total": 2336
      },
      {
        "club_badge_src": null,
        "entry": 1789124,
        "entry_name": "Im Sorry Nic Jackson",
        "event_total": 66,
        "has_played": true,
        "id": 12571381,
        "last_rank": 100700,
        "player_name": "Jake Ellis",
        "rank": 77757,
        "rank_sort": 77923,
        "total": 2336
      },
      {
        "club_badge_src": null,
        "entry": 1821930,
        "entry_name": "Huragan",
        "event_total": 55,
        "has_played": true,
        "id": 12813569,
        "last_rank": 75139,
        "player_name": "Marcin Dawidczyk",
        "rank": 77757,
        "rank_sort": 77924,
        "total": 2336
      },
      {
        "club_badge_src": null,
        "entry": 1824197,
        "entry_name": "Lord of the Ings",
        "event_total": 66,
        "has_played": true,
        "id": 12830220,
        "last_rank": 100572,
        "player_name": "Luke Goldsmith",
        "rank": 77757,
        "rank_sort": 77925,
        "total": 2336
      },
      {
        "club_badge_src": null,
        "entry": 1857481,
        "entry_name": "Lotso United",
        "event_total": 50,
        "has_played": true,
        "id": 13072298,
        "last_rank": 64830,
        "player_name": "Athena Tang",
        "rank": 77757,
        "rank_sort": 77926,
        "total": 2336
      },
      {
        "club_badge_src": null,
        "entry": 1911830,
        "entry_name": "Saka the net",
        "event_total": 87,
        "has_played": true,
        "id": 13478911,
        "last_rank": 167130,
        "player_name": "Pat Keane",
        "rank": 77757,
        "rank_sort": 77927,
        "total": 2336
      },
      {
        "club_badge_src": null,
        "entry": 1923769,
        "entry_name": "Red Wings",
        "event_total": 61,
        "has_played": true,
        "id": 13567117,
        "last_rank": 88249,
        "player_name": "Davide Cellina",
        "rank": 77757,
        "rank_sort": 77928,
        "total": 2336
      },
      {
        "club_badge_src": null,
        "entry": 1942921,
        "entry_name": "Titus Shambles",
        "event_total": 58,
        "has_played": true,
        "id": 13705043,
        "last_rank": 81646,
        "player_name": "Aidan Clark",
        "rank": 77757,
        "rank_sort": 77929,
        "total": 2336
      },
      {
        "club_badge_src": null,
        "entry": 1951398,
        "entry_name": "AFC Little Hampden",
        "event_total": 60,
        "has_played": true,
        "id": 13765562,
        "last_rank": 86304,
        "player_name": "Joel Slagle",
        "rank": 77757,
        "rank_sort": 77930,
        "total": 2336
      },
      {
        "club_badge_src": null,
        "entry": 1971974,
        "entry_name": "West Slam United",
        "event_total": 58,
        "has_played": true,
        "id": 13918514,
        "last_rank": 81646,
        "player_name": "Stephanie Vanderhorst",
        "rank": 77757,
        "rank_sort": 77931,
        "total": 2336
      },
      {
        "club_badge_src": null,
        "entry": 1974271,
        "entry_name": "3 Falsteen",
        "event_total": 58,
        "has_played": true,
        "id": 13935305,
        "last_rank": 81646,
        "player_name": "Yusuf Gigani",
        "rank": 77757,
        "rank_sort": 77932,
        "total": 2336
      },
      {
        "club_badge_src": null,
        "entry": 2024413,
        "entry_name": "The Cosseys",
        "event_total": 78,
        "has_played": true,
        "id": 14326917,
        "last_rank": 135737,
        "player_name": "Ray Cossey",
        "rank": 77757,
        "rank_sort": 77933,
        "total": 2336
      },
      {
        "club_badge_src": null,
        "entry": 2082799,
        "entry_name": "WoolleyBacks United",
        "event_total": 54,
        "has_played": true,
        "id": 14774861,
        "last_rank": 73038,
        "player_name": "John Woolley",
        "rank": 77757,
        "rank_sort": 77934,
        "total": 2336
      },
      {
        "club_badge_src": null,
        "entry": 2170040,
        "entry_name": "Gurey FC",
        "event_total": 45,
        "has_played": true,
        "id": 15429104,
        "last_rank": 56708,
        "player_name": "Merozil Wajir",
        "rank": 77757,
        "rank_sort": 77935,
        "total": 2336
      },
      {
        "club_badge_src": null,
        "entry": 2187226,
        "entry_name": "FC ACL",
        "event_total": 53,
        "has_played": true,
        "id": 15559673,
        "last_rank": 70651,
        "player_name": "Czarek Dlutowski",
        "rank": 77757,
        "rank_sort": 77936,
        "total": 2336
      },
      {
        "club_badge_src": null,
        "entry": 2215287,
        "entry_name": "HANGZHOU RHILJAYS",
        "event_total": 51,
        "has_played": true,
        "id": 15776399,
        "last_rank": 67063,
        "player_name": "John Burton",
        "rank": 77757,
        "rank_sort": 77937,
        "total": 2336
      },
      {
        "club_badge_src": null,
        "entry": 2238514,
        "entry_name": "Kinder Mbeumo",
        "event_total": 48,
        "has_played": true,
        "id": 15947269,
        "last_rank": 61606,
        "player_name": "Jaden Ametson",
        "rank": 77757,
        "rank_sort": 77938,
        "total": 2336
      },
      {
        "club_badge_src": null,
        "entry": 2261358,
        "entry_name": "Sporting Swinton",
        "event_total": 48,
        "has_played": true,
        "id": 16122645,
        "last_rank": 61411,
        "player_name": "Steven Mccomb",
        "rank": 77757,
        "rank_sort": 77939,
        "total": 2336
      },
      {
        "club_badge_src": null,
        "entry": 2268597,
        "entry_name": "Kayode Ugly",
        "event_total": 64,
        "has_played": true,
        "id": 16176164,
        "last_rank": 95640,
        "player_name": "Ben McClure-Smith",
        "rank": 77757,
        "rank_sort": 77940,
        "total": 2336
      },
      {
        "club_badge_src": null,
        "entry": 2317067,
        "entry_name": "Nvar",
        "event_total": 48,
        "has_played": true,
        "id": 16528954,
        "last_rank": 61411,
        "player_name": "Nvar Fariq",
        "rank": 77757,
        "rank_sort": 77941,
        "total": 2336
      },
      {
        "club_badge_src": "https://fantasy.premierleague.com/gcs/plfpl-production-adobe-approved/plfpl-production/2325754/6ba3e79b-7733-466e-b6ab-179eb2336ddf.png",
        "entry": 2325754,
        "entry_name": "Zubi Zubi Doo",
        "event_total": 46,
        "has_played": true,
        "id": 16592822,
        "last_rank": 58388,
        "player_name": "Aodh Quinn",
        "rank": 77757,
        "rank_sort": 77942,
        "total": 2336
      },
      {
        "club_badge_src": "https://fantasy.premierleague.com/gcs/plfpl-production-adobe-approved/plfpl-production/2343465/67da1e62-f63b-40b7-9292-88bf13538fd5.png",
        "entry": 2343465,
        "entry_name": "Reijnders games",
        "event_total": 47,
        "has_played": true,
        "id": 16721416,
        "last_rank": 59632,
        "player_name": "Donald Bettler",
        "rank": 77757,
        "rank_sort": 77943,
        "total": 2336
      },
      {
        "club_badge_src": null,
        "entry": 2376192,
        "entry_name": "We Are So Back",
        "event_total": 63,
        "has_played": true,
        "id": 16964477,
        "last_rank": 93186,
        "player_name": "Greg Langridge",
        "rank": 77757,
        "rank_sort": 77944,
        "total": 2336
      },
      {
        "club_badge_src": null,
        "entry": 2392152,
        "entry_name": "\u0627\u0644\u0634\u0644\u0643\u0634",
        "event_total": 66,
        "has_played": true,
        "id": 17088136,
        "last_rank": 100700,
        "player_name": "Moustafa Mahmoud",
        "rank": 77757,
        "rank_sort": 77945,
        "total": 2336
      },
      {
        "club_badge_src": null,
        "entry": 2417386,
        "entry_name": "BG Winnerz",
        "event_total": 56,
        "has_played": true,
        "id": 17281078,
        "last_rank": 77258,
        "player_name": "Baskar Gandhi",
        "rank": 77757,
        "rank_sort": 77946,
        "total": 2336
      },
      {
        "club_badge_src": null,
        "entry": 2424900,
        "entry_name": "Lollipop Satay",
        "event_total": 32,
        "has_played": true,
        "id": 17338239,
        "last_rank": 37589,
        "player_name": "Wyman Cheong",
        "rank": 77757,
        "rank_sort": 77947,
        "total": 2336
      },
      {
        "club_badge_src": "https://fantasy.premierleague.com/gcs/plfpl-production-adobe-approved/plfpl-production/2426183/9118f6e2-5bb1-429e-ba77-824b753c8e10.png",
        "entry": 2426183,
        "entry_name": "Cityzen",
        "event_total": 68,
        "has_played": true,
        "id": 17347887,
        "last_rank": 106259,
        "player_name": "Denis Mutuku",
        "rank": 77757,
        "rank_sort": 77948,
        "total": 2336
      },
      {
        "club_badge_src": null,
        "entry": 2454929,
        "entry_name": "Eze Guys",
        "event_total": 63,
        "has_played": true,
        "id": 17559065,
        "last_rank": 93443,
        "player_name": "Mikolaj judson",
        "rank": 77757,
        "rank_sort": 77949,
        "total": 2336
      },
      {
        "club_badge_src": "https://fantasy.premierleague.com/gcs/plfpl-production-adobe-approved/plfpl-production/2459894/ed3deb35-894a-4856-b2e6-81bfd918efc9.png",
        "entry": 2459894,
        "entry_name": "McGinn o Tonic",
        "event_total": 58,
        "has_played": true,
        "id": 17595345,
        "last_rank": 81646,
        "player_name": "Jonathan Jems\u00f6 Magnusson",
        "rank": 77757,
        "rank_sort": 77950,
        "total": 2336
      }
    ]
  }
}