{
  "last_updated_data": "2026-05-24T23:28:17Z",
  "league": {
    "admin_entry": null,
    "closed": false,
    "code_privacy": "p",
    "created": "2025-07-20T23:14:33.933835Z",
    "cup_league": 2815434,
    "has_cup": true,
    "id": 314,
    "league_type": "s",
    "max_entries": null,
    "name": "Overall",
    "rank": null,
    "scoring": "c",
    "start_event": 1
  },
  "new_entries": {
    "has_next": false,
    "page": 1,
    "results": []
  },
  "standings": {
    "has_next": true,
    "page": 1372,
    "results": [
      {
        "club_badge_src": null,
        "entry": 348833,
        "entry_name": "New Wolves",
        "event_total": 59,
        "has_played": true,
        "id": 2334892,
        "last_rank": 65475,
        "player_name": "Balbir Bal",
        "rank": 68496,
        "rank_sort": 68551,
        "total": 2341
      },
      {
        "club_badge_src": null,
        "entry": 351079,
        "entry_name": "Gando FC",
        "event_total": 60,
        "has_played": true,
        "id": 2350101,
        "last_rank": 75874,
        "player_name": "Samir Ghandour",
        "rank": 68496,
        "rank_sort": 68552,
        "total": 2341
      },
      {
        "club_badge_src": null,
        "entry": 360067,
        "entry_name": "Jonald FC",
        "event_total": 60,
        "has_played": true,
        "id": 2409387,
        "last_rank": 67422,
        "player_name": "Jon Powell",
        "rank": 68496,
        "rank_sort": 68553,
        "total": 2341
      },
      {
        "club_badge_src": null,
        "entry": 362855,
        "entry_name": "thislandishaaland",
        "event_total": 66,
        "has_played": true,
        "id": 2427934,
        "last_rank": 88348,
        "player_name": "Ryan Khoo",
        "rank": 68496,
        "rank_sort": 68554,
        "total": 2341
      },
      {
        "club_badge_src": null,
        "entry": 371154,
        "entry_name": "No risk No fun",
        "event_total": 59,
        "has_played": true,
        "id": 2483544,
        "last_rank": 65475,
        "player_name": "Yousef SH",
        "rank": 68496,
        "rank_sort": 68555,
        "total": 2341
      },
      {
        "club_badge_src": null,
        "entry": 379275,
        "entry_name": "SuperLux",
        "event_total": 62,
        "has_played": true,
        "id": 2541267,
        "last_rank": 71386,
        "player_name": "Sergiu Sturzu",
        "rank": 68496,
        "rank_sort": 68556,
        "total": 2341
      },
      {
        "club_badge_src": null,
        "entry": 382181,
        "entry_name": "Noni your business",
        "event_total": 66,
        "has_played": true,
        "id": 2562518,
        "last_rank": 89055,
        "player_name": "Drew Wilkinson",
        "rank": 68496,
        "rank_sort": 68557,
        "total": 2341
      },
      {
        "club_badge_src": "https://fantasy.premierleague.com/gcs/plfpl-production-adobe-approved/plfpl-production/394720/f531c9d2-f377-45df-8dd3-57f1f99af015.png",
        "entry": 394720,
        "entry_name": "Real Bepis",
        "event_total": 75,
        "has_played": true,
        "id": 2647140,
        "last_rank": 100949,
        "player_name": "Daniel Laycock",
        "rank": 68496,
        "rank_sort": 68558,
        "total": 2341
      },
      {
        "club_badge_src": null,
        "entry": 396846,
        "entry_name": "HaCunha Matata",
        "event_total": 67,
        "has_played": true,
        "id": 2661168,
        "last_rank": 91466,
        "player_name": "Jack Tucker",
        "rank": 68496,
        "rank_sort": 68559,
        "total": 2341
      },
      {
        "club_badge_src": null,
        "entry": 400472,
        "entry_name": "Ctrl Alt de Ligt",
        "event_total": 56,
        "has_played": true,
        "id": 2685463,
        "last_rank": 67695,
        "player_name": "Dennis Ncube",
        "rank": 68496,
        "rank_sort": 68560,
        "total": 2341
      },
      {
        "club_badge_src": null,
        "entry": 411547,
        "entry_name": "Gardner's Boys",
        "event_total": 68,
        "has_played": true,
        "id": 2759425,
        "last_rank": 84360,
        "player_name": "Owen Gardner",
        "rank": 68496,
        "rank_sort": 68561,
        "total": 2341
      },
      {
        "club_badge_src": null,
        "entry": 441708,
        "entry_name": "Pensioners XI",
        "event_total": 70,
        "has_played": true,
        "id": 2961697,
        "last_rank": 99296,
        "player_name": "Meren Aoer",
        "rank": 68496,
        "rank_sort": 68562,
        "total": 2341
      },
      {
        "club_badge_src": null,
        "entry": 449294,
        "entry_name": "Eze come, Eze go",
        "event_total": 63,
        "has_played": true,
        "id": 3014356,
        "last_rank": 82398,
        "player_name": "James Dack",
        "rank": 68496,
        "rank_sort": 68563,
        "total": 2341
      },
      {
        "club_badge_src": null,
        "entry": 470590,
        "entry_name": "Salahzar Slytherin",
        "event_total": 55,
        "has_played": true,
        "id": 3159083,
        "last_rank": 65475,
        "player_name": "Nick Charman",
        "rank": 68496,
        "rank_sort": 68564,
        "total": 2341
      },
      {
        "club_badge_src": null,
        "entry": 487884,
        "entry_name": "Bowen 747",
        "event_total": 57,
        "has_played": true,
        "id": 3275326,
        "last_rank": 69641,
        "player_name": "Jack O-Hara",
        "rank": 68496,
        "rank_sort": 68565,
        "total": 2341
      },
      {
        "club_badge_src": null,
        "entry": 506452,
        "entry_name": "Moe FC",
        "event_total": 69,
        "has_played": true,
        "id": 3399307,
        "last_rank": 96374,
        "player_name": "Mohammed Al Rabban",
        "rank": 68496,
        "rank_sort": 68566,
        "total": 2341
      },
      {
        "club_badge_src": null,
        "entry": 507369,
        "entry_name": "Carefree Blues",
        "event_total": 60,
        "has_played": true,
        "id": 3405377,
        "last_rank": 75874,
        "player_name": "Hampus Angebrant",
        "rank": 68496,
        "rank_sort": 68567,
        "total": 2341
      },
      {
        "club_badge_src": null,
        "entry": 509270,
        "entry_name": "Trust the Process",
        "event_total": 62,
        "has_played": true,
        "id": 3419278,
        "last_rank": 79817,
        "player_name": "Matt B",
        "rank": 68496,
        "rank_sort": 68568,
        "total": 2341
      },
      {
        "club_badge_src": null,
        "entry": 516973,
        "entry_name": "Fergie time Reds",
        "event_total": 65,
        "has_played": true,
        "id": 3470786,
        "last_rank": 86735,
        "player_name": "Deep Choksi",
        "rank": 68496,
        "rank_sort": 68569,
        "total": 2341
      },
      {
        "club_badge_src": null,
        "entry": 520833,
        "entry_name": "ArcLynXI",
        "event_total": 47,
        "has_played": true,
        "id": 3497654,
        "last_rank": 51984,
        "player_name": "Archester Lyngdoh",
        "rank": 68496,
        "rank_sort": 68570,
        "total": 2341
      },
      {
        "club_badge_src": null,
        "entry": 521210,
        "entry_name": "Tchou Monei",
        "event_total": 47,
        "has_played": true,
        "id": 3500277,
        "last_rank": 51984,
        "player_name": "Ahmed Hassan",
        "rank": 68496,
        "rank_sort": 68571,
        "total": 2341
      },
      {
        "club_badge_src": null,
        "entry": 541491,
        "entry_name": "Kevolution",
        "event_total": 64,
        "has_played": true,
        "id": 3644479,
        "last_rank": 75537,
        "player_name": "Kevin O'Brien",
        "rank": 68496,
        "rank_sort": 68572,
        "total": 2341
      },
      {
        "club_badge_src": null,
        "entry": 558594,
        "entry_name": "Blackcat FC",
        "event_total": 61,
        "has_played": true,
        "id": 3759246,
        "last_rank": 77999,
        "player_name": "John Rodgerson",
        "rank": 68496,
        "rank_sort": 68573,
        "total": 2341
      },
      {
        "club_badge_src": null,
        "entry": 592891,
        "entry_name": "Jacob Again Ole Ole",
        "event_total": 55,
        "has_played": true,
        "id": 3995225,
        "last_rank": 65796,
        "player_name": "Jacob Marcus",
        "rank": 68496,
        "rank_sort": 68574,
        "total": 2341
      },
      {
        "club_badge_src": null,
        "entry": 600554,
        "entry_name": "Saka Potatoes",
        "event_total": 64,
        "has_played": true,
        "id": 4051991,
        "last_rank": 84731,
        "player_name": "Josh Mann",
        "rank": 68496,
        "rank_sort": 68575,
        "total": 2341
      },
      {
        "club_badge_src": null,
        "entry": 602221,
        "entry_name": "3D Metrology FC",
        "event_total": 57,
        "has_played": true,
        "id": 4064088,
        "last_rank": 54667,
        "player_name": "Pawel Roszkowski",
        "rank": 68496,
        "rank_sort": 68576,
        "total": 2341
      },
      {
        "club_badge_src": null,
        "entry": 613656,
        "entry_name": "comeonroary",
        "event_total": 62,
        "has_played": true,
        "id": 4146513,
        "last_rank": 79817,
        "player_name": "Mark Chopping",
        "rank": 68496,
        "rank_sort": 68577,
        "total": 2341
      },
      {
        "club_badge_src": null,
        "entry": 624792,
        "entry_name": "Sebbagh abderahmen",
        "event_total": 70,
        "has_played": true,
        "id": 4222158,
        "last_rank": 89055,
        "player_name": "Abderahmen sebbagh",
        "rank": 68496,
        "rank_sort": 68578,
        "total": 2341
      },
      {
        "club_badge_src": null,
        "entry": 653222,
        "entry_name": "Van De Vengers FC",
        "event_total": 54,
        "has_played": true,
        "id": 4414442,
        "last_rank": 56369,
        "player_name": "Jon Flood",
        "rank": 68496,
        "rank_sort": 68579,
        "total": 2341
      },
      {
        "club_badge_src": null,
        "entry": 658624,
        "entry_name": "Bassam",
        "event_total": 44,
        "has_played": true,
        "id": 4450814,
        "last_rank": 47417,
        "player_name": "Bassam Abdelrehim",
        "rank": 68496,
        "rank_sort": 68580,
        "total": 2341
      },
      {
        "club_badge_src": null,
        "entry": 660515,
        "entry_name": "Preston Nob End",
        "event_total": 57,
        "has_played": true,
        "id": 4464059,
        "last_rank": 69641,
        "player_name": "Simon Hopkinson",
        "rank": 68496,
        "rank_sort": 68581,
        "total": 2341
      },
      {
        "club_badge_src": "https://fantasy.premierleague.com/gcs/plfpl-production-adobe-approved/plfpl-production/697743/cd0c474b-c347-4e2c-8230-e822153107e0.png",
        "entry": 697743,
        "entry_name": "Ali CF",
        "event_total": 70,
        "has_played": true,
        "id": 4726374,
        "last_rank": 99596,
        "player_name": "Ali Kareem",
        "rank": 68496,
        "rank_sort": 68582,
        "total": 2341
      },
      {
        "club_badge_src": null,
        "entry": 699602,
        "entry_name": "BergaBallers",
        "event_total": 67,
        "has_played": true,
        "id": 4739435,
        "last_rank": 82069,
        "player_name": "Filip Bergsdorf",
        "rank": 68496,
        "rank_sort": 68583,
        "total": 2341
      },
      {
        "club_badge_src": null,
        "entry": 706523,
        "entry_name": "JoJo",
        "event_total": 33,
        "has_played": true,
        "id": 4788314,
        "last_rank": 33332,
        "player_name": "George Zacharias",
        "rank": 68496,
        "rank_sort": 68584,
        "total": 2341
      },
      {
        "club_badge_src": null,
        "entry": 708237,
        "entry_name": "Do8ryFC",
        "event_total": 60,
        "has_played": true,
        "id": 4800129,
        "last_rank": 75874,
        "player_name": "Mt3b Shelby",
        "rank": 68496,
        "rank_sort": 68585,
        "total": 2341
      },
      {
        "club_badge_src": null,
        "entry": 712524,
        "entry_name": "Fowlplay FC",
        "event_total": 63,
        "has_played": true,
        "id": 4833605,
        "last_rank": 82069,
        "player_name": "Vishram Parmasar",
        "rank": 68496,
        "rank_sort": 68586,
        "total": 2341
      },
      {
        "club_badge_src": null,
        "entry": 716060,
        "entry_name": "Superrr Super Frank!",
        "event_total": 44,
        "has_played": true,
        "id": 4858345,
        "last_rank": 47417,
        "player_name": "Daniel Bullock",
        "rank": 68496,
        "rank_sort": 68587,
        "total": 2341
      },
      {
        "club_badge_src": null,
        "entry": 723223,
        "entry_name": "For Beto or Wirtz",
        "event_total": 53,
        "has_played": true,
        "id": 4911927,
        "last_rank": 62223,
        "player_name": "Graham Yarrow",
        "rank": 68496,
        "rank_sort": 68588,
        "total": 2341
      },
      {
        "club_badge_src": null,
        "entry": 728547,
        "entry_name": "Mugiwara FC",
        "event_total": 63,
        "has_played": true,
        "id": 4949830,
        "last_rank": 73423,
        "player_name": "Luc Deeves",
        "rank": 68496,
        "rank_sort": 68589,
        "total": 2341
      },
      {
        "club_badge_src": null,
        "entry": 736706,
        "entry_name": "Kudus Me, Sir",
        "event_total": 47,
        "has_played": true,
        "id": 5008280,
        "last_rank": 51720,
        "player_name": "Gareth Jones",
        "rank": 68496,
        "rank_sort": 68590,
        "total": 2341
      },
      {
        "club_badge_src": "https://fantasy.premierleague.com/gcs/plfpl-production-adobe-approved/plfpl-production/755268/21d8dc9a-bfd3-4d30-bfcf-2e702630aded.png",
        "entry": 755268,
        "entry_name": "Blue Till I Die",
        "event_total": 68,
        "has_played": true,
        "id": 5141837,
        "last_rank": 93883,
        "player_name": "Momen Mohamed",
        "rank": 68496,
        "rank_sort": 68591,
        "total": 2341
      },
      {
        "club_badge_src": null,
        "entry": 757985,
        "entry_name": "Bowen 747",
        "event_total": 64,
        "has_played": true,
        "id": 5162995,
        "last_rank": 75537,
        "player_name": "Joseph Cloherty",
        "rank": 68496,
        "rank_sort": 68592,
        "total": 2341
      },
      {
        "club_badge_src": null,
        "entry": 762913,
        "entry_name": "Gubba Utd",
        "event_total": 66,
        "has_played": true,
        "id": 5202981,
        "last_rank": 89426,
        "player_name": "Paul Newman",
        "rank": 68496,
        "rank_sort": 68593,
        "total": 2341
      },
      {
        "club_badge_src": "https://fantasy.premierleague.com/gcs/plfpl-production-adobe-approved/plfpl-production/795377/3c3ede34-fc4d-49ba-a714-de0fa2514881.png",
        "entry": 795377,
        "entry_name": "HaCUNHA Mateta",
        "event_total": 65,
        "has_played": true,
        "id": 5443457,
        "last_rank": 87074,
        "player_name": "Dharav Sheth",
        "rank": 68496,
        "rank_sort": 68594,
        "total": 2341
      },
      {
        "club_badge_src": null,
        "entry": 814144,
        "entry_name": "Reilly Dream Team FC",
        "event_total": 68,
        "has_played": true,
        "id": 5575021,
        "last_rank": 93883,
        "player_name": "Daniel Reilly",
        "rank": 68496,
        "rank_sort": 68595,
        "total": 2341
      },
      {
        "club_badge_src": null,
        "entry": 822500,
        "entry_name": "wirtzplay",
        "event_total": 52,
        "has_played": true,
        "id": 5633101,
        "last_rank": 60462,
        "player_name": "Fredrick Soong",
        "rank": 68496,
        "rank_sort": 68596,
        "total": 2341
      },
      {
        "club_badge_src": "https://fantasy.premierleague.com/gcs/plfpl-production-adobe-approved/plfpl-production/832620/4c167a49-d3a0-4b77-90d0-470fe358c2a2.png",
        "entry": 832620,
        "entry_name": "\u0639\u0634\u0645\u0647 \u0648 \u0627\u062d\u0631\u0645\u0647",
        "event_total": 45,
        "has_played": true,
        "id": 5703035,
        "last_rank": 48898,
        "player_name": "Ahmad Desoky",
        "rank": 68496,
        "rank_sort": 68597,
        "total": 2341
      },
      {
        "club_badge_src": null,
        "entry": 852477,
        "entry_name": "NT6L",
        "event_total": 62,
        "has_played": true,
        "id": 5843176,
        "last_rank": 71386,
        "player_name": "Obinna Chris",
        "rank": 68496,
        "rank_sort": 68598,
        "total": 2341
      },
      {
        "club_badge_src": null,
        "entry": 865858,
        "entry_name": "the slot machine",
        "event_total": 70,
        "has_played": true,
        "id": 5935879,
        "last_rank": 89055,
        "player_name": "Susan Harston",
        "rank": 68496,
        "rank_sort": 68599,
        "total": 2341
      },
      {
        "club_badge_src": null,
        "entry": 884379,
        "entry_name": "Crumbling Empire",
        "event_total": 58,
        "has_played": true,
        "id": 6065254,
        "last_rank": 71713,
        "player_name": "Ben Ryding",
        "rank": 68496,
        "rank_sort": 68600,
        "total": 2341
      }
    ]
  }
}