{
  "last_updated_data": "2026-05-24T23:28:17Z",
  "league": {
    "admin_entry": null,
    "closed": false,
    "code_privacy": "p",
    "created": "2025-07-20T23:14:33.933835Z",
    "cup_league": 2815434,
    "has_cup": true,
    "id": 314,
    "league_type": "s",
    "max_entries": null,
    "name": "Overall",
    "rank": null,
    "scoring": "c",
    "start_event": 1
  },
  "new_entries": {
    "has_next": false,
    "page": 1,
    "results": []
  },
  "standings": {
    "has_next": true,
    "page": 1356,
    "results": [
      {
        "club_badge_src": null,
        "entry": 1388872,
        "entry_name": "lovesasecondplace",
        "event_total": 67,
        "has_played": true,
        "id": 9660826,
        "last_rank": 91006,
        "player_name": "Tom Sweetman",
        "rank": 67719,
        "rank_sort": 67751,
        "total": 2341
      },
      {
        "club_badge_src": null,
        "entry": 1490758,
        "entry_name": "Flatpack4",
        "event_total": 54,
        "has_played": true,
        "id": 10395790,
        "last_rank": 63201,
        "player_name": "Michael Brookham",
        "rank": 67719,
        "rank_sort": 67752,
        "total": 2341
      },
      {
        "club_badge_src": null,
        "entry": 1639261,
        "entry_name": "balls of steel",
        "event_total": 53,
        "has_played": true,
        "id": 11474534,
        "last_rank": 61411,
        "player_name": "Tommie Clark",
        "rank": 67719,
        "rank_sort": 67753,
        "total": 2341
      },
      {
        "club_badge_src": "https://fantasy.premierleague.com/gcs/plfpl-production-adobe-approved/plfpl-production/1889937/57ef53c2-4c07-490e-a722-d13cdfa43eda.png",
        "entry": 1889937,
        "entry_name": "Lees Goat FC",
        "event_total": 59,
        "has_played": true,
        "id": 13320102,
        "last_rank": 73038,
        "player_name": "David Thomas",
        "rank": 67719,
        "rank_sort": 67754,
        "total": 2341
      },
      {
        "club_badge_src": null,
        "entry": 1973502,
        "entry_name": "ShiraiXI",
        "event_total": 76,
        "has_played": true,
        "id": 13929601,
        "last_rank": 114574,
        "player_name": "B C",
        "rank": 67719,
        "rank_sort": 67755,
        "total": 2341
      },
      {
        "club_badge_src": null,
        "entry": 2024479,
        "entry_name": "FK Traktor Vele\u0148",
        "event_total": 43,
        "has_played": true,
        "id": 14327397,
        "last_rank": 45416,
        "player_name": "V\u00edt Karpa\u010d",
        "rank": 67719,
        "rank_sort": 67756,
        "total": 2341
      },
      {
        "club_badge_src": null,
        "entry": 2032416,
        "entry_name": "kolkolo",
        "event_total": 70,
        "has_played": true,
        "id": 14389400,
        "last_rank": 98011,
        "player_name": "Kolos K\u00e1sa",
        "rank": 67719,
        "rank_sort": 67757,
        "total": 2341
      },
      {
        "club_badge_src": null,
        "entry": 2050937,
        "entry_name": "Holy Boehly",
        "event_total": 52,
        "has_played": true,
        "id": 14527096,
        "last_rank": 59535,
        "player_name": "Luca Zammito",
        "rank": 67719,
        "rank_sort": 67758,
        "total": 2341
      },
      {
        "club_badge_src": null,
        "entry": 2067415,
        "entry_name": "PL MODERN",
        "event_total": 59,
        "has_played": true,
        "id": 14654659,
        "last_rank": 72815,
        "player_name": "Ibrahim Zawbaa",
        "rank": 67719,
        "rank_sort": 67759,
        "total": 2341
      },
      {
        "club_badge_src": null,
        "entry": 2226593,
        "entry_name": "Vince The prince",
        "event_total": 47,
        "has_played": true,
        "id": 15860400,
        "last_rank": 51403,
        "player_name": "Vincent Alm",
        "rank": 67719,
        "rank_sort": 67760,
        "total": 2341
      },
      {
        "club_badge_src": null,
        "entry": 2342225,
        "entry_name": "Winners",
        "event_total": 71,
        "has_played": true,
        "id": 16712514,
        "last_rank": 100700,
        "player_name": "samir avitrans",
        "rank": 67719,
        "rank_sort": 67761,
        "total": 2341
      },
      {
        "club_badge_src": null,
        "entry": 2586500,
        "entry_name": "Takapihan Fergie",
        "event_total": 63,
        "has_played": true,
        "id": 18567678,
        "last_rank": 81312,
        "player_name": "Jerry J",
        "rank": 67719,
        "rank_sort": 67762,
        "total": 2341
      },
      {
        "club_badge_src": null,
        "entry": 2844497,
        "entry_name": "Contym\u00f4r",
        "event_total": 72,
        "has_played": true,
        "id": 20794195,
        "last_rank": 93052,
        "player_name": "Calfyn McQuilling",
        "rank": 67719,
        "rank_sort": 67763,
        "total": 2341
      },
      {
        "club_badge_src": null,
        "entry": 2886261,
        "entry_name": "Kinder Mbeumo",
        "event_total": 51,
        "has_played": true,
        "id": 21130893,
        "last_rank": 57776,
        "player_name": "Botond Polgar",
        "rank": 67719,
        "rank_sort": 67764,
        "total": 2341
      },
      {
        "club_badge_src": null,
        "entry": 2970867,
        "entry_name": "Toon Allstars",
        "event_total": 73,
        "has_played": true,
        "id": 21828023,
        "last_rank": 105963,
        "player_name": "Nigel Vickers",
        "rank": 67719,
        "rank_sort": 67765,
        "total": 2341
      },
      {
        "club_badge_src": null,
        "entry": 3053548,
        "entry_name": "Joao Pedlo",
        "event_total": 58,
        "has_played": true,
        "id": 22480183,
        "last_rank": 70651,
        "player_name": "Jamie Lowe",
        "rank": 67719,
        "rank_sort": 67766,
        "total": 2341
      },
      {
        "club_badge_src": null,
        "entry": 3059838,
        "entry_name": "litafyo",
        "event_total": 56,
        "has_played": true,
        "id": 22527749,
        "last_rank": 66693,
        "player_name": "Justin Seow",
        "rank": 67719,
        "rank_sort": 67767,
        "total": 2341
      },
      {
        "club_badge_src": null,
        "entry": 3079673,
        "entry_name": "harleys barmy army",
        "event_total": 53,
        "has_played": true,
        "id": 22688308,
        "last_rank": 61606,
        "player_name": "Harley Edwards",
        "rank": 67719,
        "rank_sort": 67768,
        "total": 2341
      },
      {
        "club_badge_src": null,
        "entry": 3347546,
        "entry_name": "Balaji's XI",
        "event_total": 69,
        "has_played": true,
        "id": 24832697,
        "last_rank": 95890,
        "player_name": "Amit Bhundia",
        "rank": 67719,
        "rank_sort": 67769,
        "total": 2341
      },
      {
        "club_badge_src": null,
        "entry": 3543205,
        "entry_name": "Yesndidi",
        "event_total": 65,
        "has_played": true,
        "id": 26375168,
        "last_rank": 85932,
        "player_name": "michael brandt",
        "rank": 67719,
        "rank_sort": 67770,
        "total": 2341
      },
      {
        "club_badge_src": null,
        "entry": 3661997,
        "entry_name": "Who Ate All Depay",
        "event_total": 67,
        "has_played": true,
        "id": 27307911,
        "last_rank": 90625,
        "player_name": "Eddie Pisarello",
        "rank": 67719,
        "rank_sort": 67771,
        "total": 2341
      },
      {
        "club_badge_src": null,
        "entry": 3766158,
        "entry_name": "Free Palestine",
        "event_total": 40,
        "has_played": true,
        "id": 28120355,
        "last_rank": 41324,
        "player_name": "Osama Nabil",
        "rank": 67719,
        "rank_sort": 67772,
        "total": 2341
      },
      {
        "club_badge_src": null,
        "entry": 4245780,
        "entry_name": "John Scones",
        "event_total": 33,
        "has_played": true,
        "id": 32181468,
        "last_rank": 32751,
        "player_name": "Tiger Fawley",
        "rank": 67719,
        "rank_sort": 67773,
        "total": 2341
      },
      {
        "club_badge_src": null,
        "entry": 4252968,
        "entry_name": "Champagne  SuperKova",
        "event_total": 69,
        "has_played": true,
        "id": 32241118,
        "last_rank": 95640,
        "player_name": "James Sweet",
        "rank": 67719,
        "rank_sort": 67774,
        "total": 2341
      },
      {
        "club_badge_src": null,
        "entry": 4289371,
        "entry_name": "Bowen_747",
        "event_total": 45,
        "has_played": true,
        "id": 32536080,
        "last_rank": 48119,
        "player_name": "Luka Von\u010dina",
        "rank": 67719,
        "rank_sort": 67775,
        "total": 2341
      },
      {
        "club_badge_src": null,
        "entry": 4439080,
        "entry_name": "Balotellitubbies",
        "event_total": 32,
        "has_played": true,
        "id": 33801219,
        "last_rank": 31747,
        "player_name": "Alfie Lowe",
        "rank": 67719,
        "rank_sort": 67776,
        "total": 2341
      },
      {
        "club_badge_src": null,
        "entry": 4441381,
        "entry_name": "Harper FC",
        "event_total": 65,
        "has_played": true,
        "id": 33820240,
        "last_rank": 86054,
        "player_name": "James Munden",
        "rank": 67719,
        "rank_sort": 67777,
        "total": 2341
      },
      {
        "club_badge_src": null,
        "entry": 4559497,
        "entry_name": "pria anomali",
        "event_total": 68,
        "has_played": true,
        "id": 34791991,
        "last_rank": 93186,
        "player_name": "abdul karim",
        "rank": 67719,
        "rank_sort": 67778,
        "total": 2341
      },
      {
        "club_badge_src": "https://fantasy.premierleague.com/gcs/plfpl-production-adobe-approved/plfpl-production/4573490/bdb1c713-c26f-427c-a446-fef3090de80a.png",
        "entry": 4573490,
        "entry_name": "Fokki SL",
        "event_total": 45,
        "has_played": true,
        "id": 34906715,
        "last_rank": 48197,
        "player_name": "T\u00f3bi Istv\u00e1n",
        "rank": 67719,
        "rank_sort": 67779,
        "total": 2341
      },
      {
        "club_badge_src": null,
        "entry": 4683953,
        "entry_name": "Norfolk 'n' Chance",
        "event_total": 48,
        "has_played": true,
        "id": 35893903,
        "last_rank": 53023,
        "player_name": "Oaks Colby",
        "rank": 67719,
        "rank_sort": 67780,
        "total": 2341
      },
      {
        "club_badge_src": null,
        "entry": 4718672,
        "entry_name": "Absolutely Stach-ed",
        "event_total": 34,
        "has_played": true,
        "id": 36241126,
        "last_rank": 33819,
        "player_name": "Jordan Mortimer-Jones",
        "rank": 67719,
        "rank_sort": 67781,
        "total": 2341
      },
      {
        "club_badge_src": null,
        "entry": 4790879,
        "entry_name": "KroesControl",
        "event_total": 50,
        "has_played": true,
        "id": 36883417,
        "last_rank": 56180,
        "player_name": "Stephan M",
        "rank": 67719,
        "rank_sort": 67782,
        "total": 2341
      },
      {
        "club_badge_src": null,
        "entry": 5071831,
        "entry_name": "FC Smash",
        "event_total": 63,
        "has_played": true,
        "id": 39195583,
        "last_rank": 81646,
        "player_name": "Alexis James",
        "rank": 67719,
        "rank_sort": 67783,
        "total": 2341
      },
      {
        "club_badge_src": null,
        "entry": 5087721,
        "entry_name": "Cigarettes & Amorim",
        "event_total": 62,
        "has_played": true,
        "id": 39323081,
        "last_rank": 79190,
        "player_name": "Aled Hill",
        "rank": 67719,
        "rank_sort": 67784,
        "total": 2341
      },
      {
        "club_badge_src": null,
        "entry": 5300991,
        "entry_name": "Mill mill the Best",
        "event_total": 53,
        "has_played": true,
        "id": 41090572,
        "last_rank": 61411,
        "player_name": "Amelia Huckin",
        "rank": 67719,
        "rank_sort": 67785,
        "total": 2341
      },
      {
        "club_badge_src": null,
        "entry": 5375026,
        "entry_name": "Chelsea Kopites",
        "event_total": 70,
        "has_played": true,
        "id": 41773219,
        "last_rank": 98183,
        "player_name": "Christian Kelleher",
        "rank": 67719,
        "rank_sort": 67786,
        "total": 2341
      },
      {
        "club_badge_src": null,
        "entry": 5421019,
        "entry_name": "Bedminster Ballers",
        "event_total": 56,
        "has_played": true,
        "id": 42162025,
        "last_rank": 66848,
        "player_name": "Olivia Pointon",
        "rank": 67719,
        "rank_sort": 67787,
        "total": 2341
      },
      {
        "club_badge_src": null,
        "entry": 5553431,
        "entry_name": "Goomba's XI",
        "event_total": 53,
        "has_played": true,
        "id": 43345909,
        "last_rank": 61411,
        "player_name": "Felix Fagerstrom",
        "rank": 67719,
        "rank_sort": 67788,
        "total": 2341
      },
      {
        "club_badge_src": null,
        "entry": 5833427,
        "entry_name": "Glockeres 14",
        "event_total": 67,
        "has_played": true,
        "id": 45787392,
        "last_rank": 90625,
        "player_name": "Wayne Gilkes",
        "rank": 67719,
        "rank_sort": 67789,
        "total": 2341
      },
      {
        "club_badge_src": "https://fantasy.premierleague.com/gcs/plfpl-production-adobe-approved/plfpl-production/5865994/042b7e66-ee4f-4f30-80c1-0e8e37996726.png",
        "entry": 5865994,
        "entry_name": "Meme Lord \ufffd",
        "event_total": 49,
        "has_played": true,
        "id": 46072631,
        "last_rank": 54667,
        "player_name": "Aderoju Oladimeji",
        "rank": 67719,
        "rank_sort": 67790,
        "total": 2341
      },
      {
        "club_badge_src": null,
        "entry": 5895014,
        "entry_name": "Norton Park Rangers",
        "event_total": 20,
        "has_played": true,
        "id": 46310465,
        "last_rank": 20983,
        "player_name": "Brenton Vannisselroy",
        "rank": 67719,
        "rank_sort": 67791,
        "total": 2341
      },
      {
        "club_badge_src": null,
        "entry": 5942280,
        "entry_name": "Specs Stars",
        "event_total": 58,
        "has_played": true,
        "id": 46729530,
        "last_rank": 70757,
        "player_name": "Graham Lew",
        "rank": 67719,
        "rank_sort": 67792,
        "total": 2341
      },
      {
        "club_badge_src": null,
        "entry": 6052521,
        "entry_name": "Champagne Footeball",
        "event_total": 61,
        "has_played": true,
        "id": 47761562,
        "last_rank": 77050,
        "player_name": "Gary Foote",
        "rank": 67719,
        "rank_sort": 67793,
        "total": 2341
      },
      {
        "club_badge_src": null,
        "entry": 6244226,
        "entry_name": "Van De Vendetta",
        "event_total": 55,
        "has_played": true,
        "id": 49424993,
        "last_rank": 64943,
        "player_name": "Sidney Tovey",
        "rank": 67719,
        "rank_sort": 67794,
        "total": 2341
      },
      {
        "club_badge_src": null,
        "entry": 6258612,
        "entry_name": "Shaw & Order",
        "event_total": 53,
        "has_played": true,
        "id": 49549802,
        "last_rank": 61411,
        "player_name": "Georgia Greenbury",
        "rank": 67719,
        "rank_sort": 67795,
        "total": 2341
      },
      {
        "club_badge_src": null,
        "entry": 6340692,
        "entry_name": "Hepi FC",
        "event_total": 56,
        "has_played": true,
        "id": 50397968,
        "last_rank": 66848,
        "player_name": "Janos Hepp",
        "rank": 67719,
        "rank_sort": 67796,
        "total": 2341
      },
      {
        "club_badge_src": null,
        "entry": 6371894,
        "entry_name": "pyx fc",
        "event_total": 58,
        "has_played": true,
        "id": 50670790,
        "last_rank": 70757,
        "player_name": "B Bravoh",
        "rank": 67719,
        "rank_sort": 67797,
        "total": 2341
      },
      {
        "club_badge_src": null,
        "entry": 6443826,
        "entry_name": "Quitting before Xmas",
        "event_total": 59,
        "has_played": true,
        "id": 51307788,
        "last_rank": 72702,
        "player_name": "Amrit Dhami",
        "rank": 67719,
        "rank_sort": 67798,
        "total": 2341
      },
      {
        "club_badge_src": null,
        "entry": 6498802,
        "entry_name": "Palmer Violets",
        "event_total": 40,
        "has_played": true,
        "id": 51811001,
        "last_rank": 41162,
        "player_name": "Sophie Powell",
        "rank": 67719,
        "rank_sort": 67799,
        "total": 2341
      },
      {
        "club_badge_src": null,
        "entry": 6538129,
        "entry_name": "And Zeus makes 5",
        "event_total": 44,
        "has_played": true,
        "id": 52161094,
        "last_rank": 46591,
        "player_name": "Nigel Stiff",
        "rank": 67719,
        "rank_sort": 67800,
        "total": 2341
      }
    ]
  }
}