{
  "last_updated_data": "2026-05-24T23:28:17Z",
  "league": {
    "admin_entry": null,
    "closed": false,
    "code_privacy": "p",
    "created": "2025-07-20T23:14:33.933835Z",
    "cup_league": 2815434,
    "has_cup": true,
    "id": 314,
    "league_type": "s",
    "max_entries": null,
    "name": "Overall",
    "rank": null,
    "scoring": "c",
    "start_event": 1
  },
  "new_entries": {
    "has_next": false,
    "page": 1,
    "results": []
  },
  "standings": {
    "has_next": true,
    "page": 668,
    "results": [
      {
        "club_badge_src": null,
        "entry": 6367951,
        "entry_name": "2ezzzzylads",
        "event_total": 66,
        "has_played": true,
        "id": 50636426,
        "last_rank": 43849,
        "player_name": "Rob Hrstic",
        "rank": 33186,
        "rank_sort": 33351,
        "total": 2365
      },
      {
        "club_badge_src": null,
        "entry": 6461645,
        "entry_name": "Hound of Baskervile",
        "event_total": 53,
        "has_played": true,
        "id": 51476223,
        "last_rank": 24897,
        "player_name": "Joseph Prathista",
        "rank": 33186,
        "rank_sort": 33352,
        "total": 2365
      },
      {
        "club_badge_src": null,
        "entry": 6628916,
        "entry_name": "Letsbe Avenue",
        "event_total": 62,
        "has_played": true,
        "id": 52977587,
        "last_rank": 38774,
        "player_name": "Enda Curran",
        "rank": 33186,
        "rank_sort": 33353,
        "total": 2365
      },
      {
        "club_badge_src": null,
        "entry": 6659603,
        "entry_name": "Yoro wizard harry",
        "event_total": 54,
        "has_played": true,
        "id": 53251154,
        "last_rank": 29904,
        "player_name": "Callum Ayling",
        "rank": 33186,
        "rank_sort": 33354,
        "total": 2365
      },
      {
        "club_badge_src": null,
        "entry": 6662929,
        "entry_name": "Bl\u00e5 bla",
        "event_total": 41,
        "has_played": true,
        "id": 53283737,
        "last_rank": 18790,
        "player_name": "T Hedberg",
        "rank": 33186,
        "rank_sort": 33355,
        "total": 2365
      },
      {
        "club_badge_src": null,
        "entry": 6781725,
        "entry_name": "Nwaneri OutThe Other",
        "event_total": 63,
        "has_played": true,
        "id": 54304442,
        "last_rank": 40036,
        "player_name": "Brendan Price",
        "rank": 33186,
        "rank_sort": 33356,
        "total": 2365
      },
      {
        "club_badge_src": null,
        "entry": 6923704,
        "entry_name": "11 Homer Simpson\u2019s",
        "event_total": 53,
        "has_played": true,
        "id": 55502301,
        "last_rank": 28726,
        "player_name": "Tee Cee",
        "rank": 33186,
        "rank_sort": 33357,
        "total": 2365
      },
      {
        "club_badge_src": null,
        "entry": 6968466,
        "entry_name": "Swamp Donkey's",
        "event_total": 61,
        "has_played": true,
        "id": 55895034,
        "last_rank": 37589,
        "player_name": "Ross Turner",
        "rank": 33186,
        "rank_sort": 33358,
        "total": 2365
      },
      {
        "club_badge_src": null,
        "entry": 7036590,
        "entry_name": "InShallahUnited",
        "event_total": 67,
        "has_played": true,
        "id": 56563080,
        "last_rank": 45252,
        "player_name": "Jeremy Ow",
        "rank": 33186,
        "rank_sort": 33359,
        "total": 2365
      },
      {
        "club_badge_src": null,
        "entry": 7135639,
        "entry_name": "Black Pearl",
        "event_total": 68,
        "has_played": true,
        "id": 57514824,
        "last_rank": 46591,
        "player_name": "Law Mukwenha",
        "rank": 33186,
        "rank_sort": 33360,
        "total": 2365
      },
      {
        "club_badge_src": null,
        "entry": 7155896,
        "entry_name": "Cucurella\u2018s Estrella",
        "event_total": 67,
        "has_played": true,
        "id": 57712344,
        "last_rank": 40036,
        "player_name": "Nikita Fomin",
        "rank": 33186,
        "rank_sort": 33361,
        "total": 2365
      },
      {
        "club_badge_src": null,
        "entry": 7164932,
        "entry_name": "FC United FC",
        "event_total": 51,
        "has_played": true,
        "id": 57804862,
        "last_rank": 27020,
        "player_name": "Francesco Cauchi",
        "rank": 33186,
        "rank_sort": 33362,
        "total": 2365
      },
      {
        "club_badge_src": null,
        "entry": 7273985,
        "entry_name": "3000pts",
        "event_total": 60,
        "has_played": true,
        "id": 58830511,
        "last_rank": 36624,
        "player_name": "Jacek Brzezinski",
        "rank": 33186,
        "rank_sort": 33363,
        "total": 2365
      },
      {
        "club_badge_src": null,
        "entry": 7277989,
        "entry_name": "Whats the Mata",
        "event_total": 45,
        "has_played": true,
        "id": 58869175,
        "last_rank": 22064,
        "player_name": "Jak Cavers",
        "rank": 33186,
        "rank_sort": 33364,
        "total": 2365
      },
      {
        "club_badge_src": null,
        "entry": 7484834,
        "entry_name": "bowen arrow",
        "event_total": 61,
        "has_played": true,
        "id": 61084977,
        "last_rank": 37822,
        "player_name": "Steve Benton",
        "rank": 33186,
        "rank_sort": 33365,
        "total": 2365
      },
      {
        "club_badge_src": null,
        "entry": 7554499,
        "entry_name": "Buuni fc",
        "event_total": 36,
        "has_played": true,
        "id": 61852954,
        "last_rank": 15694,
        "player_name": "Abdiftah Ibrahim",
        "rank": 33186,
        "rank_sort": 33366,
        "total": 2365
      },
      {
        "club_badge_src": "https://fantasy.premierleague.com/gcs/plfpl-production-adobe-approved/plfpl-production/7653877/33fb8224-fb6d-4d9c-a6f0-b15dab6963ee.png",
        "entry": 7653877,
        "entry_name": "123 FC",
        "event_total": 65,
        "has_played": true,
        "id": 62751264,
        "last_rank": 42648,
        "player_name": "Felipe Camargo Quintanilla",
        "rank": 33186,
        "rank_sort": 33367,
        "total": 2365
      },
      {
        "club_badge_src": null,
        "entry": 7700306,
        "entry_name": "FC Abdallah",
        "event_total": 40,
        "has_played": true,
        "id": 63173733,
        "last_rank": 18270,
        "player_name": "Abdallah Nour El Din",
        "rank": 33186,
        "rank_sort": 33368,
        "total": 2365
      },
      {
        "club_badge_src": null,
        "entry": 7819624,
        "entry_name": "Pique Blinders",
        "event_total": 52,
        "has_played": true,
        "id": 64251267,
        "last_rank": 27976,
        "player_name": "Peter Shand",
        "rank": 33186,
        "rank_sort": 33369,
        "total": 2365
      },
      {
        "club_badge_src": null,
        "entry": 7841762,
        "entry_name": "Al-Winthis",
        "event_total": 42,
        "has_played": true,
        "id": 64456994,
        "last_rank": 19544,
        "player_name": "Alieu Harrod",
        "rank": 33186,
        "rank_sort": 33370,
        "total": 2365
      },
      {
        "club_badge_src": null,
        "entry": 7872567,
        "entry_name": "Saber FC",
        "event_total": 66,
        "has_played": true,
        "id": 64736924,
        "last_rank": 38774,
        "player_name": "Rafael Devin",
        "rank": 33186,
        "rank_sort": 33371,
        "total": 2365
      },
      {
        "club_badge_src": "https://fantasy.premierleague.com/gcs/plfpl-production-adobe-approved/plfpl-production/7882172/f34980ab-a0e3-4d41-827f-85a343b9d785.png",
        "entry": 7882172,
        "entry_name": "JT DETTA",
        "event_total": 75,
        "has_played": true,
        "id": 64823486,
        "last_rank": 58071,
        "player_name": "Jade Tulloch",
        "rank": 33186,
        "rank_sort": 33372,
        "total": 2365
      },
      {
        "club_badge_src": null,
        "entry": 7892942,
        "entry_name": "Yer dads A Slot",
        "event_total": 68,
        "has_played": true,
        "id": 64922010,
        "last_rank": 46547,
        "player_name": "Ellis Seamons",
        "rank": 33186,
        "rank_sort": 33373,
        "total": 2365
      },
      {
        "club_badge_src": null,
        "entry": 7893922,
        "entry_name": "Manar United",
        "event_total": 62,
        "has_played": true,
        "id": 64932185,
        "last_rank": 38774,
        "player_name": "Manar Alaradi",
        "rank": 33186,
        "rank_sort": 33374,
        "total": 2365
      },
      {
        "club_badge_src": null,
        "entry": 7944514,
        "entry_name": "iSatan",
        "event_total": 54,
        "has_played": true,
        "id": 65390571,
        "last_rank": 29904,
        "player_name": "Thawatchai Apdullo",
        "rank": 33186,
        "rank_sort": 33375,
        "total": 2365
      },
      {
        "club_badge_src": null,
        "entry": 8107937,
        "entry_name": "BB Brothers",
        "event_total": 59,
        "has_played": true,
        "id": 66874570,
        "last_rank": 30727,
        "player_name": "Rakthim Sen Bubba",
        "rank": 33186,
        "rank_sort": 33376,
        "total": 2365
      },
      {
        "club_badge_src": null,
        "entry": 8384671,
        "entry_name": "I Aznou Idea",
        "event_total": 67,
        "has_played": true,
        "id": 69535560,
        "last_rank": 39874,
        "player_name": "Blaine Sperring",
        "rank": 33186,
        "rank_sort": 33377,
        "total": 2365
      },
      {
        "club_badge_src": null,
        "entry": 8866920,
        "entry_name": "Abdelkader @2",
        "event_total": 70,
        "has_played": true,
        "id": 74189819,
        "last_rank": 49880,
        "player_name": "Abdelkader Boumana",
        "rank": 33186,
        "rank_sort": 33378,
        "total": 2365
      },
      {
        "club_badge_src": null,
        "entry": 8883916,
        "entry_name": "Bruno Dos Tres",
        "event_total": 58,
        "has_played": true,
        "id": 74352218,
        "last_rank": 34051,
        "player_name": "Conor O'Brien",
        "rank": 33186,
        "rank_sort": 33379,
        "total": 2365
      },
      {
        "club_badge_src": null,
        "entry": 8901094,
        "entry_name": "Sm17",
        "event_total": 47,
        "has_played": true,
        "id": 74520040,
        "last_rank": 23656,
        "player_name": "Salman Aburamia",
        "rank": 33186,
        "rank_sort": 33380,
        "total": 2365
      },
      {
        "club_badge_src": null,
        "entry": 9192513,
        "entry_name": "Fabregasss",
        "event_total": 66,
        "has_played": true,
        "id": 77360210,
        "last_rank": 44525,
        "player_name": "Patryk G\u00f3recki",
        "rank": 33186,
        "rank_sort": 33381,
        "total": 2365
      },
      {
        "club_badge_src": null,
        "entry": 9608,
        "entry_name": "Millseys Masters",
        "event_total": 65,
        "has_played": true,
        "id": 56540,
        "last_rank": 43168,
        "player_name": "James M",
        "rank": 33382,
        "rank_sort": 33382,
        "total": 2365
      },
      {
        "club_badge_src": null,
        "entry": 13338,
        "entry_name": "No Monkey business",
        "event_total": 43,
        "has_played": true,
        "id": 80503,
        "last_rank": 20416,
        "player_name": "Johnny Bravo (@NewtronGooner)",
        "rank": 33382,
        "rank_sort": 33383,
        "total": 2365
      },
      {
        "club_badge_src": "https://fantasy.premierleague.com/gcs/plfpl-production-adobe-approved/plfpl-production/14399/c9f1c3de-bbe5-433a-a02f-ad4b84798372.png",
        "entry": 14399,
        "entry_name": "CZUBY",
        "event_total": 67,
        "has_played": true,
        "id": 87429,
        "last_rank": 45927,
        "player_name": "Krystian Czub",
        "rank": 33382,
        "rank_sort": 33384,
        "total": 2365
      },
      {
        "club_badge_src": null,
        "entry": 23780,
        "entry_name": "Mo hossam 96",
        "event_total": 59,
        "has_played": true,
        "id": 149933,
        "last_rank": 30957,
        "player_name": "Mohamed Hossam",
        "rank": 33382,
        "rank_sort": 33385,
        "total": 2365
      },
      {
        "club_badge_src": "https://fantasy.premierleague.com/gcs/plfpl-production-adobe-approved/plfpl-production/25375/cc0ffd0d-f345-4e60-bf7a-dd091e8cdac4.png",
        "entry": 25375,
        "entry_name": "Hidden Halls Village",
        "event_total": 57,
        "has_played": true,
        "id": 160497,
        "last_rank": 33147,
        "player_name": "Scientist Prime",
        "rank": 33382,
        "rank_sort": 33386,
        "total": 2365
      },
      {
        "club_badge_src": null,
        "entry": 26510,
        "entry_name": "Captain Cook",
        "event_total": 60,
        "has_played": true,
        "id": 167621,
        "last_rank": 36831,
        "player_name": "Danny Olora",
        "rank": 33382,
        "rank_sort": 33387,
        "total": 2365
      },
      {
        "club_badge_src": "https://fantasy.premierleague.com/gcs/plfpl-production-adobe-approved/plfpl-production/29406/eeb107ed-a9df-479d-af8c-8a0ca8abd5ad.png",
        "entry": 29406,
        "entry_name": "BosnianLions",
        "event_total": 45,
        "has_played": true,
        "id": 185931,
        "last_rank": 18790,
        "player_name": "Madri Dista",
        "rank": 33382,
        "rank_sort": 33388,
        "total": 2365
      },
      {
        "club_badge_src": "https://fantasy.premierleague.com/gcs/plfpl-production-adobe-approved/plfpl-production/34952/18b006fc-8761-43d0-aaa2-495f9b12ebfe.png",
        "entry": 34952,
        "entry_name": "MCMII",
        "event_total": 57,
        "has_played": true,
        "id": 223502,
        "last_rank": 32879,
        "player_name": "Karol Za",
        "rank": 33382,
        "rank_sort": 33389,
        "total": 2365
      },
      {
        "club_badge_src": "https://fantasy.premierleague.com/gcs/plfpl-production-adobe-approved/plfpl-production/44729/da5efce4-5dc9-4822-8963-76e2e1277ecc.png",
        "entry": 44729,
        "entry_name": "ZBurg2025",
        "event_total": 65,
        "has_played": true,
        "id": 286750,
        "last_rank": 37589,
        "player_name": "Soumil Gadkar",
        "rank": 33382,
        "rank_sort": 33390,
        "total": 2365
      },
      {
        "club_badge_src": null,
        "entry": 51729,
        "entry_name": "Getafe My Lawn",
        "event_total": 68,
        "has_played": true,
        "id": 332652,
        "last_rank": 46839,
        "player_name": "Andy Waite",
        "rank": 33382,
        "rank_sort": 33391,
        "total": 2365
      },
      {
        "club_badge_src": "https://fantasy.premierleague.com/gcs/plfpl-production-adobe-approved/plfpl-production/57824/6cc2d5b0-8afd-40f7-abb9-7b694bce07a1.png",
        "entry": 57824,
        "entry_name": "Lo6o mi ee",
        "event_total": 61,
        "has_played": true,
        "id": 372516,
        "last_rank": 33147,
        "player_name": "Hristiyan Hristov",
        "rank": 33382,
        "rank_sort": 33392,
        "total": 2365
      },
      {
        "club_badge_src": "https://fantasy.premierleague.com/gcs/plfpl-production-adobe-approved/plfpl-production/70043/c05e6c4c-5a9d-4f21-bda6-f1b2348c77e7.png",
        "entry": 70043,
        "entry_name": "back stick, Isaaakkk",
        "event_total": 46,
        "has_played": true,
        "id": 454634,
        "last_rank": 19721,
        "player_name": "Robbie Tully",
        "rank": 33382,
        "rank_sort": 33393,
        "total": 2365
      },
      {
        "club_badge_src": "https://fantasy.premierleague.com/gcs/plfpl-production-adobe-approved/plfpl-production/83593/49228a86-e41f-4cb4-9225-ecd866765d12.png",
        "entry": 83593,
        "entry_name": "KCHELSEA",
        "event_total": 53,
        "has_played": true,
        "id": 544097,
        "last_rank": 29071,
        "player_name": "Baibhav KC",
        "rank": 33382,
        "rank_sort": 33394,
        "total": 2365
      },
      {
        "club_badge_src": null,
        "entry": 88192,
        "entry_name": "demonios",
        "event_total": 68,
        "has_played": true,
        "id": 575417,
        "last_rank": 47417,
        "player_name": "Vanya Kolyvanov",
        "rank": 33382,
        "rank_sort": 33395,
        "total": 2365
      },
      {
        "club_badge_src": "https://fantasy.premierleague.com/gcs/plfpl-production-adobe-approved/plfpl-production/96457/107c2b91-8994-49c1-9ef6-ad6ad19614f2.png",
        "entry": 96457,
        "entry_name": "HaCunha Mateta",
        "event_total": 46,
        "has_played": true,
        "id": 630160,
        "last_rank": 22830,
        "player_name": "Craig Dobson",
        "rank": 33382,
        "rank_sort": 33396,
        "total": 2365
      },
      {
        "club_badge_src": null,
        "entry": 115522,
        "entry_name": "Haaland Oates",
        "event_total": 80,
        "has_played": true,
        "id": 753937,
        "last_rank": 59632,
        "player_name": "Jack Sayer",
        "rank": 33382,
        "rank_sort": 33397,
        "total": 2365
      },
      {
        "club_badge_src": null,
        "entry": 119440,
        "entry_name": "MeMyselfNdiaye",
        "event_total": 48,
        "has_played": true,
        "id": 779312,
        "last_rank": 21159,
        "player_name": "Chris Simpson",
        "rank": 33382,
        "rank_sort": 33398,
        "total": 2365
      },
      {
        "club_badge_src": null,
        "entry": 124522,
        "entry_name": "H2H 26",
        "event_total": 59,
        "has_played": true,
        "id": 812183,
        "last_rank": 35619,
        "player_name": "Cahir McLaughlin",
        "rank": 33382,
        "rank_sort": 33399,
        "total": 2365
      },
      {
        "club_badge_src": "https://fantasy.premierleague.com/gcs/plfpl-production-adobe-approved/plfpl-production/132787/4f86ae9f-1ecf-4ad7-a809-dc15c0a1715a.png",
        "entry": 132787,
        "entry_name": "Hsn'",
        "event_total": 65,
        "has_played": true,
        "id": 864913,
        "last_rank": 43342,
        "player_name": "Hsn Altayeh",
        "rank": 33382,
        "rank_sort": 33400,
        "total": 2365
      }
    ]
  }
}