{
  "last_updated_data": "2026-05-24T23:28:17Z",
  "league": {
    "admin_entry": null,
    "closed": false,
    "code_privacy": "p",
    "created": "2025-07-20T23:14:33.933835Z",
    "cup_league": 2815434,
    "has_cup": true,
    "id": 314,
    "league_type": "s",
    "max_entries": null,
    "name": "Overall",
    "rank": null,
    "scoring": "c",
    "start_event": 1
  },
  "new_entries": {
    "has_next": false,
    "page": 1,
    "results": []
  },
  "standings": {
    "has_next": true,
    "page": 1519,
    "results": [
      {
        "club_badge_src": null,
        "entry": 4566946,
        "entry_name": "Artificial FC",
        "event_total": 60,
        "has_played": true,
        "id": 34851401,
        "last_rank": 83934,
        "player_name": "Abdo elrayee",
        "rank": 75615,
        "rank_sort": 75901,
        "total": 2337
      },
      {
        "club_badge_src": "https://fantasy.premierleague.com/gcs/plfpl-production-adobe-approved/plfpl-production/4572577/d4340f18-65a9-45e6-8d57-8c669ad22846.png",
        "entry": 4572577,
        "entry_name": "Rasmalai fc",
        "event_total": 73,
        "has_played": true,
        "id": 34899472,
        "last_rank": 117423,
        "player_name": "Vipul Seth",
        "rank": 75615,
        "rank_sort": 75902,
        "total": 2337
      },
      {
        "club_badge_src": null,
        "entry": 4621959,
        "entry_name": "Matty's Boys",
        "event_total": 66,
        "has_played": true,
        "id": 35329674,
        "last_rank": 98436,
        "player_name": "matte blac",
        "rank": 75615,
        "rank_sort": 75903,
        "total": 2337
      },
      {
        "club_badge_src": "https://fantasy.premierleague.com/gcs/plfpl-production-adobe-approved/plfpl-production/4657062/6bdd8ab8-15e2-412f-81c5-e559b7974381.png",
        "entry": 4657062,
        "entry_name": "FC Friet",
        "event_total": 50,
        "has_played": true,
        "id": 35646623,
        "last_rank": 63390,
        "player_name": "Sjimmie Vriethoff",
        "rank": 75615,
        "rank_sort": 75904,
        "total": 2337
      },
      {
        "club_badge_src": null,
        "entry": 4674681,
        "entry_name": "Arnetery Dissection",
        "event_total": 46,
        "has_played": true,
        "id": 35810367,
        "last_rank": 56369,
        "player_name": "Joe Whitehead",
        "rank": 75615,
        "rank_sort": 75905,
        "total": 2337
      },
      {
        "club_badge_src": null,
        "entry": 4684964,
        "entry_name": "Betflix united",
        "event_total": 48,
        "has_played": true,
        "id": 35902513,
        "last_rank": 59813,
        "player_name": "Exdi Xaris",
        "rank": 75615,
        "rank_sort": 75906,
        "total": 2337
      },
      {
        "club_badge_src": null,
        "entry": 4690488,
        "entry_name": "Rutter woke nonsense",
        "event_total": 56,
        "has_played": true,
        "id": 35950756,
        "last_rank": 74787,
        "player_name": "Ned Crittenden",
        "rank": 75615,
        "rank_sort": 75907,
        "total": 2337
      },
      {
        "club_badge_src": null,
        "entry": 4728037,
        "entry_name": "FPL First Ade",
        "event_total": 82,
        "has_played": true,
        "id": 36354290,
        "last_rank": 145455,
        "player_name": "Adrian Dutton",
        "rank": 75615,
        "rank_sort": 75908,
        "total": 2337
      },
      {
        "club_badge_src": null,
        "entry": 4782000,
        "entry_name": "Tosin and turning",
        "event_total": 60,
        "has_played": true,
        "id": 36812553,
        "last_rank": 83934,
        "player_name": "Luke McDermott",
        "rank": 75615,
        "rank_sort": 75909,
        "total": 2337
      },
      {
        "club_badge_src": null,
        "entry": 4809378,
        "entry_name": "Thomas Frankenstein",
        "event_total": 58,
        "has_played": true,
        "id": 37031443,
        "last_rank": 79190,
        "player_name": "Kevin Antunes",
        "rank": 75615,
        "rank_sort": 75910,
        "total": 2337
      },
      {
        "club_badge_src": null,
        "entry": 4847922,
        "entry_name": "Hadley",
        "event_total": 57,
        "has_played": true,
        "id": 37348775,
        "last_rank": 77258,
        "player_name": "Hadley Lister",
        "rank": 75615,
        "rank_sort": 75911,
        "total": 2337
      },
      {
        "club_badge_src": null,
        "entry": 4848089,
        "entry_name": "Doo's Minions",
        "event_total": 50,
        "has_played": true,
        "id": 37350144,
        "last_rank": 63201,
        "player_name": "Paul Clark",
        "rank": 75615,
        "rank_sort": 75912,
        "total": 2337
      },
      {
        "club_badge_src": null,
        "entry": 4853304,
        "entry_name": "Moves like Agger",
        "event_total": 49,
        "has_played": true,
        "id": 37394293,
        "last_rank": 54494,
        "player_name": "Alan Shaw",
        "rank": 75615,
        "rank_sort": 75913,
        "total": 2337
      },
      {
        "club_badge_src": null,
        "entry": 4991991,
        "entry_name": "Zub's Invincibles",
        "event_total": 54,
        "has_played": true,
        "id": 38539912,
        "last_rank": 70757,
        "player_name": "Zubin Patel",
        "rank": 75615,
        "rank_sort": 75914,
        "total": 2337
      },
      {
        "club_badge_src": null,
        "entry": 4996458,
        "entry_name": "Mayorzee FCM",
        "event_total": 53,
        "has_played": true,
        "id": 38579700,
        "last_rank": 69323,
        "player_name": "Mayorzee G.M",
        "rank": 75615,
        "rank_sort": 75915,
        "total": 2337
      },
      {
        "club_badge_src": null,
        "entry": 5054809,
        "entry_name": "Vidz",
        "event_total": 54,
        "has_played": true,
        "id": 39056891,
        "last_rank": 70985,
        "player_name": "Vidar Uglane",
        "rank": 75615,
        "rank_sort": 75916,
        "total": 2337
      },
      {
        "club_badge_src": null,
        "entry": 5064387,
        "entry_name": "Windsvillians XI",
        "event_total": 73,
        "has_played": true,
        "id": 39135310,
        "last_rank": 117112,
        "player_name": "Sam O'Shea",
        "rank": 75615,
        "rank_sort": 75917,
        "total": 2337
      },
      {
        "club_badge_src": null,
        "entry": 5156811,
        "entry_name": "Rice Rice Baby",
        "event_total": 62,
        "has_played": true,
        "id": 39900915,
        "last_rank": 88594,
        "player_name": "Tom Adkins",
        "rank": 75615,
        "rank_sort": 75918,
        "total": 2337
      },
      {
        "club_badge_src": "https://fantasy.premierleague.com/gcs/plfpl-production-adobe-approved/plfpl-production/5182091/1c908558-3496-44d7-9e35-4fd549035139.png",
        "entry": 5182091,
        "entry_name": "Mek",
        "event_total": 65,
        "has_played": true,
        "id": 40111933,
        "last_rank": 95890,
        "player_name": "Metapon Amorntirasan",
        "rank": 75615,
        "rank_sort": 75919,
        "total": 2337
      },
      {
        "club_badge_src": null,
        "entry": 5222907,
        "entry_name": "DFWInvincibles",
        "event_total": 54,
        "has_played": true,
        "id": 40468655,
        "last_rank": 70985,
        "player_name": "Abdul Hameed",
        "rank": 75615,
        "rank_sort": 75920,
        "total": 2337
      },
      {
        "club_badge_src": null,
        "entry": 5310041,
        "entry_name": "Edluuund BK",
        "event_total": 57,
        "has_played": true,
        "id": 41161466,
        "last_rank": 77676,
        "player_name": "Tony Edlund",
        "rank": 75615,
        "rank_sort": 75921,
        "total": 2337
      },
      {
        "club_badge_src": "https://fantasy.premierleague.com/gcs/plfpl-production-adobe-approved/plfpl-production/5330194/fd9f4f7c-4c10-493c-8cb2-b27362151906.png",
        "entry": 5330194,
        "entry_name": "Brentford",
        "event_total": 60,
        "has_played": true,
        "id": 41322006,
        "last_rank": 83934,
        "player_name": "brad cowan",
        "rank": 75615,
        "rank_sort": 75922,
        "total": 2337
      },
      {
        "club_badge_src": null,
        "entry": 5336282,
        "entry_name": "David Brentford",
        "event_total": 64,
        "has_played": true,
        "id": 41372659,
        "last_rank": 93186,
        "player_name": "Sean Phelan",
        "rank": 75615,
        "rank_sort": 75923,
        "total": 2337
      },
      {
        "club_badge_src": null,
        "entry": 5350123,
        "entry_name": "heiaChris",
        "event_total": 67,
        "has_played": true,
        "id": 41525182,
        "last_rank": 100700,
        "player_name": "Chris Kristensen",
        "rank": 75615,
        "rank_sort": 75924,
        "total": 2337
      },
      {
        "club_badge_src": null,
        "entry": 5375894,
        "entry_name": "Ney Ney",
        "event_total": 55,
        "has_played": true,
        "id": 41781362,
        "last_rank": 73038,
        "player_name": "Heather Provenzano",
        "rank": 75615,
        "rank_sort": 75925,
        "total": 2337
      },
      {
        "club_badge_src": null,
        "entry": 5390143,
        "entry_name": "fc matjazki",
        "event_total": 41,
        "has_played": true,
        "id": 41905032,
        "last_rank": 48363,
        "player_name": "Mateusz Mateusz",
        "rank": 75615,
        "rank_sort": 75926,
        "total": 2337
      },
      {
        "club_badge_src": null,
        "entry": 5440568,
        "entry_name": "Goat",
        "event_total": 32,
        "has_played": true,
        "id": 42329120,
        "last_rank": 36200,
        "player_name": "Philip Lee",
        "rank": 75615,
        "rank_sort": 75927,
        "total": 2337
      },
      {
        "club_badge_src": "https://fantasy.premierleague.com/gcs/plfpl-production-adobe-approved/plfpl-production/5474326/6bab6655-3304-4732-a45d-15003a9f2fef.png",
        "entry": 5474326,
        "entry_name": "QTH",
        "event_total": 46,
        "has_played": true,
        "id": 42615304,
        "last_rank": 56180,
        "player_name": "Tr\u1ecbnh Huy",
        "rank": 75615,
        "rank_sort": 75928,
        "total": 2337
      },
      {
        "club_badge_src": "https://fantasy.premierleague.com/gcs/plfpl-production-adobe-approved/plfpl-production/5548964/17642b8b-e8e0-4d30-a664-162542cb955c.png",
        "entry": 5548964,
        "entry_name": "A-Cuhna Matata",
        "event_total": 64,
        "has_played": true,
        "id": 43306102,
        "last_rank": 93186,
        "player_name": "Kerrie Ronayne",
        "rank": 75615,
        "rank_sort": 75929,
        "total": 2337
      },
      {
        "club_badge_src": null,
        "entry": 5593349,
        "entry_name": "FC Estrada",
        "event_total": 50,
        "has_played": true,
        "id": 43699131,
        "last_rank": 63117,
        "player_name": "Bo\u017eo Radi\u0107",
        "rank": 75615,
        "rank_sort": 75930,
        "total": 2337
      },
      {
        "club_badge_src": null,
        "entry": 5667313,
        "entry_name": "Cesc and the city",
        "event_total": 60,
        "has_played": true,
        "id": 44343684,
        "last_rank": 83934,
        "player_name": "Andrija Babic",
        "rank": 75615,
        "rank_sort": 75931,
        "total": 2337
      },
      {
        "club_badge_src": null,
        "entry": 5746142,
        "entry_name": "GAL\u00c1CTICOS",
        "event_total": 58,
        "has_played": true,
        "id": 45033406,
        "last_rank": 79431,
        "player_name": "G A",
        "rank": 75615,
        "rank_sort": 75932,
        "total": 2337
      },
      {
        "club_badge_src": null,
        "entry": 5780282,
        "entry_name": "I'm a Baleba",
        "event_total": 57,
        "has_played": true,
        "id": 45325981,
        "last_rank": 77258,
        "player_name": "Rhys Collett",
        "rank": 75615,
        "rank_sort": 75933,
        "total": 2337
      },
      {
        "club_badge_src": null,
        "entry": 5798888,
        "entry_name": "Nice to Nmecha",
        "event_total": 55,
        "has_played": true,
        "id": 45488577,
        "last_rank": 73038,
        "player_name": "Thomas Stobbart",
        "rank": 75615,
        "rank_sort": 75934,
        "total": 2337
      },
      {
        "club_badge_src": null,
        "entry": 5836345,
        "entry_name": "Arriaga II",
        "event_total": 53,
        "has_played": true,
        "id": 45812024,
        "last_rank": 68957,
        "player_name": "Jon Ryman",
        "rank": 75615,
        "rank_sort": 75935,
        "total": 2337
      },
      {
        "club_badge_src": null,
        "entry": 5840540,
        "entry_name": "Lavia la Vida Loca",
        "event_total": 62,
        "has_played": true,
        "id": 45847329,
        "last_rank": 88348,
        "player_name": "Matthew Sheehan",
        "rank": 75615,
        "rank_sort": 75936,
        "total": 2337
      },
      {
        "club_badge_src": null,
        "entry": 5870626,
        "entry_name": "Peaky Reijnders",
        "event_total": 52,
        "has_played": true,
        "id": 46110392,
        "last_rank": 67063,
        "player_name": "Mike Detzel",
        "rank": 75615,
        "rank_sort": 75937,
        "total": 2337
      },
      {
        "club_badge_src": null,
        "entry": 5931623,
        "entry_name": "Qing \u7ed9\u94b1",
        "event_total": 69,
        "has_played": true,
        "id": 46632849,
        "last_rank": 105818,
        "player_name": "qing T",
        "rank": 75615,
        "rank_sort": 75938,
        "total": 2337
      },
      {
        "club_badge_src": null,
        "entry": 5938227,
        "entry_name": "the Bahn Mees",
        "event_total": 73,
        "has_played": true,
        "id": 46693344,
        "last_rank": 105818,
        "player_name": "Colin Chadwick",
        "rank": 75615,
        "rank_sort": 75939,
        "total": 2337
      },
      {
        "club_badge_src": null,
        "entry": 5983406,
        "entry_name": "Gunners_SVK",
        "event_total": 63,
        "has_played": true,
        "id": 47120834,
        "last_rank": 90746,
        "player_name": "J\u00e1n Folenta",
        "rank": 75615,
        "rank_sort": 75940,
        "total": 2337
      },
      {
        "club_badge_src": "https://fantasy.premierleague.com/gcs/plfpl-production-adobe-approved/plfpl-production/5997887/4bf7f01e-58bc-4b35-80c7-6e75652152da.png",
        "entry": 5997887,
        "entry_name": "ThroughOnCole",
        "event_total": 64,
        "has_played": true,
        "id": 47278680,
        "last_rank": 93186,
        "player_name": "Jake Dyson",
        "rank": 75615,
        "rank_sort": 75941,
        "total": 2337
      },
      {
        "club_badge_src": null,
        "entry": 6011882,
        "entry_name": "BS21 Badboys",
        "event_total": 52,
        "has_played": true,
        "id": 47403108,
        "last_rank": 66848,
        "player_name": "Brent Manners",
        "rank": 75615,
        "rank_sort": 75942,
        "total": 2337
      },
      {
        "club_badge_src": null,
        "entry": 6167579,
        "entry_name": "Team City",
        "event_total": 58,
        "has_played": true,
        "id": 48764412,
        "last_rank": 79817,
        "player_name": "Arun Lama",
        "rank": 75615,
        "rank_sort": 75943,
        "total": 2337
      },
      {
        "club_badge_src": null,
        "entry": 6170921,
        "entry_name": "Mrs Shell's XI",
        "event_total": 57,
        "has_played": true,
        "id": 48793803,
        "last_rank": 77258,
        "player_name": "Michelle Wadsworth",
        "rank": 75615,
        "rank_sort": 75944,
        "total": 2337
      },
      {
        "club_badge_src": null,
        "entry": 6186388,
        "entry_name": "Darco's",
        "event_total": 56,
        "has_played": true,
        "id": 48927349,
        "last_rank": 74898,
        "player_name": "Darshana Shrestha",
        "rank": 75615,
        "rank_sort": 75945,
        "total": 2337
      },
      {
        "club_badge_src": null,
        "entry": 6194747,
        "entry_name": "CHANGE NAME",
        "event_total": 69,
        "has_played": true,
        "id": 49000029,
        "last_rank": 105748,
        "player_name": "Jack Poulter",
        "rank": 75615,
        "rank_sort": 75946,
        "total": 2337
      },
      {
        "club_badge_src": null,
        "entry": 6238236,
        "entry_name": "The Seagulls",
        "event_total": 65,
        "has_played": true,
        "id": 49373519,
        "last_rank": 95527,
        "player_name": "John Keenan",
        "rank": 75615,
        "rank_sort": 75947,
        "total": 2337
      },
      {
        "club_badge_src": null,
        "entry": 6263475,
        "entry_name": "jeffreys juniors",
        "event_total": 51,
        "has_played": true,
        "id": 49593176,
        "last_rank": 65163,
        "player_name": "Daniel Foley",
        "rank": 75615,
        "rank_sort": 75948,
        "total": 2337
      },
      {
        "club_badge_src": null,
        "entry": 6268396,
        "entry_name": "skin back legs",
        "event_total": 67,
        "has_played": true,
        "id": 49635404,
        "last_rank": 100949,
        "player_name": "Nick Offer",
        "rank": 75615,
        "rank_sort": 75949,
        "total": 2337
      },
      {
        "club_badge_src": null,
        "entry": 6277232,
        "entry_name": "Brentford4ever",
        "event_total": 66,
        "has_played": true,
        "id": 49710624,
        "last_rank": 98436,
        "player_name": "Tom Simonsen",
        "rank": 75615,
        "rank_sort": 75950,
        "total": 2337
      }
    ]
  }
}