{
  "last_updated_data": "2026-05-24T23:28:17Z",
  "league": {
    "admin_entry": null,
    "closed": false,
    "code_privacy": "p",
    "created": "2025-07-20T23:14:33.933835Z",
    "cup_league": 2815434,
    "has_cup": true,
    "id": 314,
    "league_type": "s",
    "max_entries": null,
    "name": "Overall",
    "rank": null,
    "scoring": "c",
    "start_event": 1
  },
  "new_entries": {
    "has_next": false,
    "page": 1,
    "results": []
  },
  "standings": {
    "has_next": true,
    "page": 759,
    "results": [
      {
        "club_badge_src": null,
        "entry": 12524,
        "entry_name": "\u0627\u0644\u062d\u0646\u064a\u0648\u0643",
        "event_total": 61,
        "has_played": true,
        "id": 75040,
        "last_rank": 42940,
        "player_name": "Amer Badawi",
        "rank": 37897,
        "rank_sort": 37901,
        "total": 2361
      },
      {
        "club_badge_src": null,
        "entry": 15488,
        "entry_name": "Gurry gru",
        "event_total": 72,
        "has_played": true,
        "id": 95089,
        "last_rank": 53023,
        "player_name": "Tim Lindblad",
        "rank": 37897,
        "rank_sort": 37902,
        "total": 2361
      },
      {
        "club_badge_src": null,
        "entry": 15621,
        "entry_name": "tjaaaaa",
        "event_total": 59,
        "has_played": true,
        "id": 96023,
        "last_rank": 40503,
        "player_name": "Eric W\u00e6rness",
        "rank": 37897,
        "rank_sort": 37903,
        "total": 2361
      },
      {
        "club_badge_src": "https://fantasy.premierleague.com/gcs/plfpl-production-adobe-approved/plfpl-production/16011/b4c979d8-d34f-4f54-af5f-52436f2c1297.png",
        "entry": 16011,
        "entry_name": "Peter Bonde Oldboys",
        "event_total": 51,
        "has_played": true,
        "id": 98679,
        "last_rank": 31125,
        "player_name": "Christian Daugaard",
        "rank": 37897,
        "rank_sort": 37904,
        "total": 2361
      },
      {
        "club_badge_src": null,
        "entry": 18195,
        "entry_name": "Prawy Arsenal",
        "event_total": 59,
        "has_played": true,
        "id": 113128,
        "last_rank": 40297,
        "player_name": "Przemys\u0142aw Adamczyk",
        "rank": 37897,
        "rank_sort": 37905,
        "total": 2361
      },
      {
        "club_badge_src": "https://fantasy.premierleague.com/gcs/plfpl-production-adobe-approved/plfpl-production/18502/db8df897-92c6-4ad7-9964-409da9cb99ae.png",
        "entry": 18502,
        "entry_name": "Serial Winner",
        "event_total": 67,
        "has_played": true,
        "id": 115114,
        "last_rank": 51220,
        "player_name": "Saras Karanjit",
        "rank": 37897,
        "rank_sort": 37906,
        "total": 2361
      },
      {
        "club_badge_src": "https://fantasy.premierleague.com/gcs/plfpl-production-adobe-approved/plfpl-production/31841/fbac3c29-d90f-41b8-a6b8-0c4be3921002.png",
        "entry": 31841,
        "entry_name": "Invincible",
        "event_total": 66,
        "has_played": true,
        "id": 202125,
        "last_rank": 44048,
        "player_name": "Pawan Sigdel",
        "rank": 37897,
        "rank_sort": 37907,
        "total": 2361
      },
      {
        "club_badge_src": "https://fantasy.premierleague.com/gcs/plfpl-production-adobe-approved/plfpl-production/37096/57074109-6dc6-40a5-856d-14dc4407e347.png",
        "entry": 37096,
        "entry_name": "J\u00fcrgen Guardiola",
        "event_total": 53,
        "has_played": true,
        "id": 237554,
        "last_rank": 33332,
        "player_name": "Christopher Chuka",
        "rank": 37897,
        "rank_sort": 37908,
        "total": 2361
      },
      {
        "club_badge_src": "https://fantasy.premierleague.com/gcs/plfpl-production-adobe-approved/plfpl-production/44387/c95e7830-d98e-4e4d-91bb-a61654421f30.png",
        "entry": 44387,
        "entry_name": "ThomasTheFrankEngine",
        "event_total": 72,
        "has_played": true,
        "id": 284463,
        "last_rank": 59813,
        "player_name": "James Ollig",
        "rank": 37897,
        "rank_sort": 37909,
        "total": 2361
      },
      {
        "club_badge_src": null,
        "entry": 47494,
        "entry_name": "Rodrigoat",
        "event_total": 46,
        "has_played": true,
        "id": 304675,
        "last_rank": 26230,
        "player_name": "Ally M",
        "rank": 37897,
        "rank_sort": 37910,
        "total": 2361
      },
      {
        "club_badge_src": null,
        "entry": 54221,
        "entry_name": "MarmoushkaMarmoushka",
        "event_total": 60,
        "has_played": true,
        "id": 349003,
        "last_rank": 36624,
        "player_name": "Scott Thomas",
        "rank": 37897,
        "rank_sort": 37911,
        "total": 2361
      },
      {
        "club_badge_src": null,
        "entry": 80120,
        "entry_name": "5a.m. club",
        "event_total": 48,
        "has_played": true,
        "id": 521310,
        "last_rank": 27976,
        "player_name": "sethawuth intra",
        "rank": 37897,
        "rank_sort": 37912,
        "total": 2361
      },
      {
        "club_badge_src": "https://fantasy.premierleague.com/gcs/plfpl-production-adobe-approved/plfpl-production/87199/39d7e24f-7590-41b0-9c98-3fa0b94e26a8.png",
        "entry": 87199,
        "entry_name": "Skjoldets vogter",
        "event_total": 67,
        "has_played": true,
        "id": 568575,
        "last_rank": 51720,
        "player_name": "Oliver Haumann",
        "rank": 37897,
        "rank_sort": 37913,
        "total": 2361
      },
      {
        "club_badge_src": "https://fantasy.premierleague.com/gcs/plfpl-production-adobe-approved/plfpl-production/108374/510b3c0b-cdb1-4436-952c-a6f7636c2ed4.png",
        "entry": 108374,
        "entry_name": "Drogba FC",
        "event_total": 55,
        "has_played": true,
        "id": 706582,
        "last_rank": 35424,
        "player_name": "paul bardsley",
        "rank": 37897,
        "rank_sort": 37914,
        "total": 2361
      },
      {
        "club_badge_src": null,
        "entry": 127064,
        "entry_name": "It's home finally",
        "event_total": 57,
        "has_played": true,
        "id": 828430,
        "last_rank": 33147,
        "player_name": "Damian Ifeoluwa",
        "rank": 37897,
        "rank_sort": 37915,
        "total": 2361
      },
      {
        "club_badge_src": null,
        "entry": 149237,
        "entry_name": "AC11",
        "event_total": 59,
        "has_played": true,
        "id": 978442,
        "last_rank": 40503,
        "player_name": "Andrew Cran",
        "rank": 37897,
        "rank_sort": 37916,
        "total": 2361
      },
      {
        "club_badge_src": "https://fantasy.premierleague.com/gcs/plfpl-production-adobe-approved/plfpl-production/171090/41214273-da5f-4750-a3f8-6eee2a3b1365.png",
        "entry": 171090,
        "entry_name": "Botnen Returns",
        "event_total": 64,
        "has_played": true,
        "id": 1130302,
        "last_rank": 47163,
        "player_name": "H\u00e5kon Botnen",
        "rank": 37897,
        "rank_sort": 37917,
        "total": 2361
      },
      {
        "club_badge_src": null,
        "entry": 193037,
        "entry_name": "Joey's XI",
        "event_total": 55,
        "has_played": true,
        "id": 1279326,
        "last_rank": 35619,
        "player_name": "Stuart Ballard",
        "rank": 37897,
        "rank_sort": 37918,
        "total": 2361
      },
      {
        "club_badge_src": null,
        "entry": 194633,
        "entry_name": "Guys",
        "event_total": 52,
        "has_played": true,
        "id": 1290458,
        "last_rank": 27976,
        "player_name": "Daniel Kloud",
        "rank": 37897,
        "rank_sort": 37919,
        "total": 2361
      },
      {
        "club_badge_src": "https://fantasy.premierleague.com/gcs/plfpl-production-adobe-approved/plfpl-production/201153/51cdb52b-1901-45f3-b9f5-06d86953dc67.png",
        "entry": 201153,
        "entry_name": "Coola(Golazo_)",
        "event_total": 70,
        "has_played": true,
        "id": 1335573,
        "last_rank": 49880,
        "player_name": "Golazo Cold",
        "rank": 37897,
        "rank_sort": 37920,
        "total": 2361
      },
      {
        "club_badge_src": null,
        "entry": 203674,
        "entry_name": "Kinder Mbeumo",
        "event_total": 60,
        "has_played": true,
        "id": 1353278,
        "last_rank": 41824,
        "player_name": "Callum Fearne",
        "rank": 37897,
        "rank_sort": 37921,
        "total": 2361
      },
      {
        "club_badge_src": null,
        "entry": 206681,
        "entry_name": "The Berry Best",
        "event_total": 41,
        "has_played": true,
        "id": 1373712,
        "last_rank": 22064,
        "player_name": "David Berry",
        "rank": 37897,
        "rank_sort": 37922,
        "total": 2361
      },
      {
        "club_badge_src": null,
        "entry": 213677,
        "entry_name": "Wirtz case scenario",
        "event_total": 70,
        "has_played": true,
        "id": 1421438,
        "last_rank": 56708,
        "player_name": "Sander Wen\u00f8e",
        "rank": 37897,
        "rank_sort": 37923,
        "total": 2361
      },
      {
        "club_badge_src": null,
        "entry": 228348,
        "entry_name": "Ugarte be kidding me",
        "event_total": 53,
        "has_played": true,
        "id": 1519020,
        "last_rank": 32879,
        "player_name": "David O'Brien",
        "rank": 37897,
        "rank_sort": 37924,
        "total": 2361
      },
      {
        "club_badge_src": "https://fantasy.premierleague.com/gcs/plfpl-production-adobe-approved/plfpl-production/234613/3ff00b3b-026e-47e6-b8b9-84ca1c13abd4.png",
        "entry": 234613,
        "entry_name": "Khal Palmer",
        "event_total": 57,
        "has_played": true,
        "id": 1561105,
        "last_rank": 38016,
        "player_name": "Chris Ly",
        "rank": 37897,
        "rank_sort": 37925,
        "total": 2361
      },
      {
        "club_badge_src": null,
        "entry": 238442,
        "entry_name": "Star Studded Strangs",
        "event_total": 47,
        "has_played": true,
        "id": 1586366,
        "last_rank": 27020,
        "player_name": "James Strang",
        "rank": 37897,
        "rank_sort": 37926,
        "total": 2361
      },
      {
        "club_badge_src": null,
        "entry": 273663,
        "entry_name": "pbhanssen",
        "event_total": 51,
        "has_played": true,
        "id": 1820973,
        "last_rank": 27020,
        "player_name": "P\u00e5l Bj\u00f8rge Hanssen",
        "rank": 37897,
        "rank_sort": 37927,
        "total": 2361
      },
      {
        "club_badge_src": null,
        "entry": 279343,
        "entry_name": "Roy Skeeen",
        "event_total": 59,
        "has_played": true,
        "id": 1859054,
        "last_rank": 40297,
        "player_name": "Brendon Osafo",
        "rank": 37897,
        "rank_sort": 37928,
        "total": 2361
      },
      {
        "club_badge_src": null,
        "entry": 287859,
        "entry_name": "TheManiacs87",
        "event_total": 60,
        "has_played": true,
        "id": 1918463,
        "last_rank": 41824,
        "player_name": "Edin Uzunovic",
        "rank": 37897,
        "rank_sort": 37929,
        "total": 2361
      },
      {
        "club_badge_src": "https://fantasy.premierleague.com/gcs/plfpl-production-adobe-approved/plfpl-production/296439/b3438788-b092-4f60-9a66-571cd45cd942.png",
        "entry": 296439,
        "entry_name": "harry potter",
        "event_total": 67,
        "has_played": true,
        "id": 1980667,
        "last_rank": 51984,
        "player_name": "Jacob Teixeira",
        "rank": 37897,
        "rank_sort": 37930,
        "total": 2361
      },
      {
        "club_badge_src": null,
        "entry": 297688,
        "entry_name": "Delap Dance",
        "event_total": 66,
        "has_played": true,
        "id": 1989845,
        "last_rank": 44303,
        "player_name": "josh mccrea",
        "rank": 37897,
        "rank_sort": 37931,
        "total": 2361
      },
      {
        "club_badge_src": null,
        "entry": 306634,
        "entry_name": "Fully charged FC",
        "event_total": 63,
        "has_played": true,
        "id": 2053563,
        "last_rank": 39874,
        "player_name": "Matt Beesley",
        "rank": 37897,
        "rank_sort": 37932,
        "total": 2361
      },
      {
        "club_badge_src": null,
        "entry": 324916,
        "entry_name": "Reijndersonthestorm",
        "event_total": 33,
        "has_played": true,
        "id": 2177203,
        "last_rank": 13947,
        "player_name": "Matt Lorkin",
        "rank": 37897,
        "rank_sort": 37933,
        "total": 2361
      },
      {
        "club_badge_src": null,
        "entry": 338404,
        "entry_name": "fahad saad",
        "event_total": 54,
        "has_played": true,
        "id": 2265547,
        "last_rank": 29904,
        "player_name": "-q8-89fahad Free Palestine \u0641\u0647\u062f \u0633\u0639\u062f",
        "rank": 37897,
        "rank_sort": 37934,
        "total": 2361
      },
      {
        "club_badge_src": null,
        "entry": 361064,
        "entry_name": "Keeney\u2019s Kickers",
        "event_total": 45,
        "has_played": true,
        "id": 2415968,
        "last_rank": 25330,
        "player_name": "Paul Keeney",
        "rank": 37897,
        "rank_sort": 37935,
        "total": 2361
      },
      {
        "club_badge_src": null,
        "entry": 364708,
        "entry_name": "chark united",
        "event_total": 53,
        "has_played": true,
        "id": 2440606,
        "last_rank": 33147,
        "player_name": "Andrew Manson",
        "rank": 37897,
        "rank_sort": 37936,
        "total": 2361
      },
      {
        "club_badge_src": null,
        "entry": 377225,
        "entry_name": "Stay Humble FC",
        "event_total": 51,
        "has_played": true,
        "id": 2526777,
        "last_rank": 23341,
        "player_name": "Billal Majid",
        "rank": 37897,
        "rank_sort": 37937,
        "total": 2361
      },
      {
        "club_badge_src": null,
        "entry": 385173,
        "entry_name": "London 0 Hull 4",
        "event_total": 68,
        "has_played": true,
        "id": 2583584,
        "last_rank": 53345,
        "player_name": "Trudy Parling",
        "rank": 37897,
        "rank_sort": 37938,
        "total": 2361
      },
      {
        "club_badge_src": null,
        "entry": 420455,
        "entry_name": "Tres pts chiche",
        "event_total": 49,
        "has_played": true,
        "id": 2817833,
        "last_rank": 29071,
        "player_name": "Elmer Lazo",
        "rank": 37897,
        "rank_sort": 37939,
        "total": 2361
      },
      {
        "club_badge_src": null,
        "entry": 444231,
        "entry_name": "Ekitike Taka",
        "event_total": 54,
        "has_played": true,
        "id": 2978776,
        "last_rank": 34458,
        "player_name": "Jacob Trigger",
        "rank": 37897,
        "rank_sort": 37940,
        "total": 2361
      },
      {
        "club_badge_src": null,
        "entry": 469813,
        "entry_name": "Fred\u2019s FPL Fellas",
        "event_total": 48,
        "has_played": true,
        "id": 3153621,
        "last_rank": 28150,
        "player_name": "Oscar McGowan",
        "rank": 37897,
        "rank_sort": 37941,
        "total": 2361
      },
      {
        "club_badge_src": null,
        "entry": 501547,
        "entry_name": "FC Barkerlona",
        "event_total": 64,
        "has_played": true,
        "id": 3365953,
        "last_rank": 47163,
        "player_name": "Sam Barker",
        "rank": 37897,
        "rank_sort": 37942,
        "total": 2361
      },
      {
        "club_badge_src": null,
        "entry": 547830,
        "entry_name": "Broons boys",
        "event_total": 50,
        "has_played": true,
        "id": 3686891,
        "last_rank": 30060,
        "player_name": "Kyle Brown",
        "rank": 37897,
        "rank_sort": 37943,
        "total": 2361
      },
      {
        "club_badge_src": null,
        "entry": 559905,
        "entry_name": "Wirtz Case Scenario",
        "event_total": 62,
        "has_played": true,
        "id": 3768474,
        "last_rank": 39023,
        "player_name": "Kjetil Dversnes",
        "rank": 37897,
        "rank_sort": 37944,
        "total": 2361
      },
      {
        "club_badge_src": null,
        "entry": 565096,
        "entry_name": "Lille T\u00f8yen FK",
        "event_total": 66,
        "has_played": true,
        "id": 3803575,
        "last_rank": 50468,
        "player_name": "H H",
        "rank": 37897,
        "rank_sort": 37945,
        "total": 2361
      },
      {
        "club_badge_src": null,
        "entry": 568033,
        "entry_name": "Ooh La La !",
        "event_total": 67,
        "has_played": true,
        "id": 3823192,
        "last_rank": 51984,
        "player_name": "Mark James",
        "rank": 37897,
        "rank_sort": 37946,
        "total": 2361
      },
      {
        "club_badge_src": null,
        "entry": 607965,
        "entry_name": "Old lady",
        "event_total": 64,
        "has_played": true,
        "id": 4106071,
        "last_rank": 47596,
        "player_name": "Thiago Motta",
        "rank": 37897,
        "rank_sort": 37947,
        "total": 2361
      },
      {
        "club_badge_src": null,
        "entry": 646022,
        "entry_name": "Shoe Trophy",
        "event_total": 68,
        "has_played": true,
        "id": 4365777,
        "last_rank": 53621,
        "player_name": "Lloyd Grassick",
        "rank": 37897,
        "rank_sort": 37948,
        "total": 2361
      },
      {
        "club_badge_src": "https://fantasy.premierleague.com/gcs/plfpl-production-adobe-approved/plfpl-production/666459/c50e7ae9-d6d3-44da-bb81-d646d34d1e87.png",
        "entry": 666459,
        "entry_name": "Dybalan D'Or",
        "event_total": 68,
        "has_played": true,
        "id": 4506063,
        "last_rank": 47163,
        "player_name": "Adib Khalid",
        "rank": 37897,
        "rank_sort": 37949,
        "total": 2361
      },
      {
        "club_badge_src": null,
        "entry": 726928,
        "entry_name": "CaliforniaGeordie",
        "event_total": 74,
        "has_played": true,
        "id": 4938430,
        "last_rank": 56708,
        "player_name": "Chris Brewis",
        "rank": 37897,
        "rank_sort": 37950,
        "total": 2361
      }
    ]
  }
}