{
  "last_updated_data": "2026-05-24T23:28:17Z",
  "league": {
    "admin_entry": null,
    "closed": false,
    "code_privacy": "p",
    "created": "2025-07-20T23:14:33.933835Z",
    "cup_league": 2815434,
    "has_cup": true,
    "id": 314,
    "league_type": "s",
    "max_entries": null,
    "name": "Overall",
    "rank": null,
    "scoring": "c",
    "start_event": 1
  },
  "new_entries": {
    "has_next": false,
    "page": 1,
    "results": []
  },
  "standings": {
    "has_next": true,
    "page": 959,
    "results": [
      {
        "club_badge_src": null,
        "entry": 118755,
        "entry_name": "Real Madras",
        "event_total": 48,
        "has_played": true,
        "id": 774979,
        "last_rank": 36200,
        "player_name": "Ste Akrigg",
        "rank": 47869,
        "rank_sort": 47901,
        "total": 2353
      },
      {
        "club_badge_src": "https://fantasy.premierleague.com/gcs/plfpl-production-adobe-approved/plfpl-production/126501/7073c358-c908-4057-ae9b-a3f36e8a623e.png",
        "entry": 126501,
        "entry_name": "Equinox FC",
        "event_total": 49,
        "has_played": true,
        "id": 824786,
        "last_rank": 37376,
        "player_name": "Deva Kumara",
        "rank": 47869,
        "rank_sort": 47902,
        "total": 2353
      },
      {
        "club_badge_src": null,
        "entry": 126927,
        "entry_name": "EC Szombierki",
        "event_total": 54,
        "has_played": true,
        "id": 827546,
        "last_rank": 43849,
        "player_name": "Pawel Szatka",
        "rank": 47869,
        "rank_sort": 47903,
        "total": 2353
      },
      {
        "club_badge_src": "https://fantasy.premierleague.com/gcs/plfpl-production-adobe-approved/plfpl-production/146876/0366bc1d-adce-4a41-b4b2-49bad3bc0700.png",
        "entry": 146876,
        "entry_name": "Ctrl Alt De Ligt",
        "event_total": 70,
        "has_played": true,
        "id": 962325,
        "last_rank": 70757,
        "player_name": "Sam Kenwright",
        "rank": 47869,
        "rank_sort": 47904,
        "total": 2353
      },
      {
        "club_badge_src": "https://fantasy.premierleague.com/gcs/plfpl-production-adobe-approved/plfpl-production/153152/ca2e3701-4d85-41cc-bc3a-dd1f38864975.png",
        "entry": 153152,
        "entry_name": "Bowen 747",
        "event_total": 65,
        "has_played": true,
        "id": 1005637,
        "last_rank": 61411,
        "player_name": "David Singleton",
        "rank": 47869,
        "rank_sort": 47905,
        "total": 2353
      },
      {
        "club_badge_src": null,
        "entry": 156252,
        "entry_name": "Kraby R\u00f8r & Motekl\u00e6r",
        "event_total": 53,
        "has_played": true,
        "id": 1027504,
        "last_rank": 42648,
        "player_name": "Henrik Langaas",
        "rank": 47869,
        "rank_sort": 47906,
        "total": 2353
      },
      {
        "club_badge_src": null,
        "entry": 157988,
        "entry_name": "Cancelo Culture",
        "event_total": 73,
        "has_played": true,
        "id": 1039526,
        "last_rank": 77258,
        "player_name": "John Enright",
        "rank": 47869,
        "rank_sort": 47907,
        "total": 2353
      },
      {
        "club_badge_src": null,
        "entry": 158626,
        "entry_name": "Slot FC",
        "event_total": 52,
        "has_played": true,
        "id": 1043865,
        "last_rank": 41324,
        "player_name": "Rodney Walker",
        "rank": 47869,
        "rank_sort": 47908,
        "total": 2353
      },
      {
        "club_badge_src": "https://fantasy.premierleague.com/gcs/plfpl-production-adobe-approved/plfpl-production/165750/ad2f31e2-ac75-44c7-ad28-dd720906fdd1.png",
        "entry": 165750,
        "entry_name": "MonsterZz",
        "event_total": 59,
        "has_played": true,
        "id": 1094600,
        "last_rank": 51220,
        "player_name": "Netitorn Phuangbangyang",
        "rank": 47869,
        "rank_sort": 47909,
        "total": 2353
      },
      {
        "club_badge_src": null,
        "entry": 173306,
        "entry_name": "Mulhaaland Drive",
        "event_total": 62,
        "has_played": true,
        "id": 1144598,
        "last_rank": 56369,
        "player_name": "Javen Turner",
        "rank": 47869,
        "rank_sort": 47910,
        "total": 2353
      },
      {
        "club_badge_src": null,
        "entry": 181683,
        "entry_name": "McGinn and Juice",
        "event_total": 78,
        "has_played": true,
        "id": 1198914,
        "last_rank": 88348,
        "player_name": "Gavin Shurvinton",
        "rank": 47869,
        "rank_sort": 47911,
        "total": 2353
      },
      {
        "club_badge_src": null,
        "entry": 182069,
        "entry_name": "Sch\u00e4ring is Caring",
        "event_total": 75,
        "has_played": true,
        "id": 1201467,
        "last_rank": 81420,
        "player_name": "Sam Hale",
        "rank": 47869,
        "rank_sort": 47912,
        "total": 2353
      },
      {
        "club_badge_src": null,
        "entry": 188716,
        "entry_name": "Wirtz Supremacy",
        "event_total": 54,
        "has_played": true,
        "id": 1248698,
        "last_rank": 44048,
        "player_name": "Lars-Erik Lang",
        "rank": 47869,
        "rank_sort": 47913,
        "total": 2353
      },
      {
        "club_badge_src": null,
        "entry": 202932,
        "entry_name": "Fortunes Hiding",
        "event_total": 47,
        "has_played": true,
        "id": 1347951,
        "last_rank": 35166,
        "player_name": "Ryan Searle",
        "rank": 47869,
        "rank_sort": 47914,
        "total": 2353
      },
      {
        "club_badge_src": null,
        "entry": 203541,
        "entry_name": "Tip my Hato",
        "event_total": 52,
        "has_played": true,
        "id": 1352337,
        "last_rank": 41101,
        "player_name": "Luke Walker",
        "rank": 47869,
        "rank_sort": 47915,
        "total": 2353
      },
      {
        "club_badge_src": null,
        "entry": 208590,
        "entry_name": "Palmer",
        "event_total": 64,
        "has_played": true,
        "id": 1386904,
        "last_rank": 59813,
        "player_name": "Hussain Alnasser",
        "rank": 47869,
        "rank_sort": 47916,
        "total": 2353
      },
      {
        "club_badge_src": null,
        "entry": 214533,
        "entry_name": "kure",
        "event_total": 32,
        "has_played": true,
        "id": 1427120,
        "last_rank": 20983,
        "player_name": "\u041c\u0438\u043b\u043e\u0448 \u041a\u0443\u0440\u0443\u0447\u0435\u0432",
        "rank": 47869,
        "rank_sort": 47917,
        "total": 2353
      },
      {
        "club_badge_src": null,
        "entry": 244983,
        "entry_name": "FPL_MAN_SEVEN",
        "event_total": 54,
        "has_played": true,
        "id": 1631087,
        "last_rank": 43849,
        "player_name": "Matthew Napier",
        "rank": 47869,
        "rank_sort": 47918,
        "total": 2353
      },
      {
        "club_badge_src": null,
        "entry": 246740,
        "entry_name": "Bomskudd IL",
        "event_total": 60,
        "has_played": true,
        "id": 1642599,
        "last_rank": 53023,
        "player_name": "- fplresearch",
        "rank": 47869,
        "rank_sort": 47919,
        "total": 2353
      },
      {
        "club_badge_src": "https://fantasy.premierleague.com/gcs/plfpl-production-adobe-approved/plfpl-production/286466/fe98ed52-603b-42c6-ab35-af16b35206f5.png",
        "entry": 286466,
        "entry_name": "MLS > EPL",
        "event_total": 61,
        "has_played": true,
        "id": 1908527,
        "last_rank": 54416,
        "player_name": "Jakob H.",
        "rank": 47869,
        "rank_sort": 47920,
        "total": 2353
      },
      {
        "club_badge_src": null,
        "entry": 289927,
        "entry_name": "Minted it",
        "event_total": 65,
        "has_played": true,
        "id": 1932910,
        "last_rank": 61411,
        "player_name": "Simon Minting",
        "rank": 47869,
        "rank_sort": 47921,
        "total": 2353
      },
      {
        "club_badge_src": null,
        "entry": 328868,
        "entry_name": "ThomasTheFrankEngine",
        "event_total": 68,
        "has_played": true,
        "id": 2203067,
        "last_rank": 67063,
        "player_name": "Mars Jacobson",
        "rank": 47869,
        "rank_sort": 47922,
        "total": 2353
      },
      {
        "club_badge_src": null,
        "entry": 329818,
        "entry_name": "The Masters",
        "event_total": 66,
        "has_played": true,
        "id": 2209317,
        "last_rank": 63390,
        "player_name": "Steve Clarke",
        "rank": 47869,
        "rank_sort": 47923,
        "total": 2353
      },
      {
        "club_badge_src": null,
        "entry": 329858,
        "entry_name": "MR X",
        "event_total": 69,
        "has_played": true,
        "id": 2209570,
        "last_rank": 68748,
        "player_name": "Rikard Furusten",
        "rank": 47869,
        "rank_sort": 47924,
        "total": 2353
      },
      {
        "club_badge_src": null,
        "entry": 335121,
        "entry_name": "\u2117\u00a5Z\u2107\u24c7 \u00a9\u210c\u24d8\u212e\u20a3\u20b7 \u270c\ufe0f",
        "event_total": 57,
        "has_played": true,
        "id": 2243943,
        "last_rank": 48363,
        "player_name": "Anthony Pye",
        "rank": 47869,
        "rank_sort": 47925,
        "total": 2353
      },
      {
        "club_badge_src": null,
        "entry": 338049,
        "entry_name": "Hope\ufffd",
        "event_total": 71,
        "has_played": true,
        "id": 2263167,
        "last_rank": 73423,
        "player_name": "Peter Kanyike",
        "rank": 47869,
        "rank_sort": 47926,
        "total": 2353
      },
      {
        "club_badge_src": null,
        "entry": 348170,
        "entry_name": "Have-rtz One on Me",
        "event_total": 48,
        "has_played": true,
        "id": 2330442,
        "last_rank": 36348,
        "player_name": "Ian Wang",
        "rank": 47869,
        "rank_sort": 47927,
        "total": 2353
      },
      {
        "club_badge_src": null,
        "entry": 372513,
        "entry_name": "Pigs Might Fly",
        "event_total": 49,
        "has_played": true,
        "id": 2492441,
        "last_rank": 37376,
        "player_name": "Chris Bacon",
        "rank": 47869,
        "rank_sort": 47928,
        "total": 2353
      },
      {
        "club_badge_src": null,
        "entry": 376956,
        "entry_name": "V\u00e4nstersl\u00e4ggans FF",
        "event_total": 76,
        "has_played": true,
        "id": 2524943,
        "last_rank": 83584,
        "player_name": "Niklas Sj\u00f6berg",
        "rank": 47869,
        "rank_sort": 47929,
        "total": 2353
      },
      {
        "club_badge_src": null,
        "entry": 401621,
        "entry_name": "ZiggyElla",
        "event_total": 44,
        "has_played": true,
        "id": 2693053,
        "last_rank": 31747,
        "player_name": "Sue Cross",
        "rank": 47869,
        "rank_sort": 47930,
        "total": 2353
      },
      {
        "club_badge_src": null,
        "entry": 401912,
        "entry_name": "Ekitike taka",
        "event_total": 55,
        "has_played": true,
        "id": 2694925,
        "last_rank": 39874,
        "player_name": "Harry Mallon",
        "rank": 47869,
        "rank_sort": 47931,
        "total": 2353
      },
      {
        "club_badge_src": null,
        "entry": 405332,
        "entry_name": "Wataru doing",
        "event_total": 64,
        "has_played": true,
        "id": 2717600,
        "last_rank": 59632,
        "player_name": "Brandon Hawksley",
        "rank": 47869,
        "rank_sort": 47932,
        "total": 2353
      },
      {
        "club_badge_src": "https://fantasy.premierleague.com/gcs/plfpl-production-adobe-approved/plfpl-production/411408/3bc38a56-e0e6-4540-97fd-d13bc254934c.png",
        "entry": 411408,
        "entry_name": "Frazerpool FC",
        "event_total": 62,
        "has_played": true,
        "id": 2758517,
        "last_rank": 56369,
        "player_name": "Frazer Simpson",
        "rank": 47869,
        "rank_sort": 47933,
        "total": 2353
      },
      {
        "club_badge_src": null,
        "entry": 413149,
        "entry_name": "Fried Gold",
        "event_total": 51,
        "has_played": true,
        "id": 2769905,
        "last_rank": 40036,
        "player_name": "Sam Eneas",
        "rank": 47869,
        "rank_sort": 47934,
        "total": 2353
      },
      {
        "club_badge_src": null,
        "entry": 428368,
        "entry_name": "bandar",
        "event_total": 63,
        "has_played": true,
        "id": 2873188,
        "last_rank": 58071,
        "player_name": "Bandar Alqahtani",
        "rank": 47869,
        "rank_sort": 47935,
        "total": 2353
      },
      {
        "club_badge_src": "https://fantasy.premierleague.com/gcs/plfpl-production-adobe-approved/plfpl-production/450975/bea531f2-660c-4684-9e01-b3ec899b8704.png",
        "entry": 450975,
        "entry_name": "It's cold Palmer",
        "event_total": 66,
        "has_played": true,
        "id": 3025621,
        "last_rank": 63117,
        "player_name": "Adebulu Matthew",
        "rank": 47869,
        "rank_sort": 47936,
        "total": 2353
      },
      {
        "club_badge_src": null,
        "entry": 453528,
        "entry_name": "Winner akfk 5",
        "event_total": 54,
        "has_played": true,
        "id": 3042275,
        "last_rank": 44048,
        "player_name": "sharia Account",
        "rank": 47869,
        "rank_sort": 47937,
        "total": 2353
      },
      {
        "club_badge_src": null,
        "entry": 464488,
        "entry_name": "360NoPope",
        "event_total": 52,
        "has_played": true,
        "id": 3115610,
        "last_rank": 41324,
        "player_name": "Mason Muckelberg",
        "rank": 47869,
        "rank_sort": 47938,
        "total": 2353
      },
      {
        "club_badge_src": null,
        "entry": 470760,
        "entry_name": "SEAGOS STUDS",
        "event_total": 32,
        "has_played": true,
        "id": 3160280,
        "last_rank": 20983,
        "player_name": "Will Seago",
        "rank": 47869,
        "rank_sort": 47939,
        "total": 2353
      },
      {
        "club_badge_src": null,
        "entry": 476390,
        "entry_name": "Steven Gerrard",
        "event_total": 43,
        "has_played": true,
        "id": 3197827,
        "last_rank": 30727,
        "player_name": "Josh Shokker",
        "rank": 47869,
        "rank_sort": 47940,
        "total": 2353
      },
      {
        "club_badge_src": "https://fantasy.premierleague.com/gcs/plfpl-production-adobe-approved/plfpl-production/499199/057b12fb-fa2d-47f3-a9b8-6045f12800bd.png",
        "entry": 499199,
        "entry_name": "Palmer Hardly Knower",
        "event_total": 51,
        "has_played": true,
        "id": 3350356,
        "last_rank": 39874,
        "player_name": "Matt Henry",
        "rank": 47869,
        "rank_sort": 47941,
        "total": 2353
      },
      {
        "club_badge_src": "https://fantasy.premierleague.com/gcs/plfpl-production-adobe-approved/plfpl-production/501441/9b8bd59a-ed0f-4dad-adc9-e325426586cf.png",
        "entry": 501441,
        "entry_name": "ThomasTheFrankEngine",
        "event_total": 46,
        "has_played": true,
        "id": 3365156,
        "last_rank": 34051,
        "player_name": "Tim Pond",
        "rank": 47869,
        "rank_sort": 47942,
        "total": 2353
      },
      {
        "club_badge_src": null,
        "entry": 502383,
        "entry_name": "Flo state",
        "event_total": 69,
        "has_played": true,
        "id": 3372093,
        "last_rank": 68957,
        "player_name": "G 10",
        "rank": 47869,
        "rank_sort": 47943,
        "total": 2353
      },
      {
        "club_badge_src": null,
        "entry": 506569,
        "entry_name": "Chido Obi-Wan Kenobi",
        "event_total": 59,
        "has_played": true,
        "id": 3400106,
        "last_rank": 51220,
        "player_name": "Dan King",
        "rank": 47869,
        "rank_sort": 47944,
        "total": 2353
      },
      {
        "club_badge_src": null,
        "entry": 510587,
        "entry_name": "Eintracht Weissler",
        "event_total": 70,
        "has_played": true,
        "id": 3428647,
        "last_rank": 70757,
        "player_name": "Richard Weissler",
        "rank": 47869,
        "rank_sort": 47945,
        "total": 2353
      },
      {
        "club_badge_src": null,
        "entry": 518702,
        "entry_name": "Talentoe",
        "event_total": 57,
        "has_played": true,
        "id": 3482655,
        "last_rank": 48119,
        "player_name": "Terence Toh",
        "rank": 47869,
        "rank_sort": 47946,
        "total": 2353
      },
      {
        "club_badge_src": "https://fantasy.premierleague.com/gcs/plfpl-production-adobe-approved/plfpl-production/537797/e04c14e4-decb-4360-8904-67c33bcef168.png",
        "entry": 537797,
        "entry_name": "Indica or Saliba",
        "event_total": 49,
        "has_played": true,
        "id": 3620270,
        "last_rank": 37376,
        "player_name": "Mason Foulkes",
        "rank": 47869,
        "rank_sort": 47947,
        "total": 2353
      },
      {
        "club_badge_src": "https://fantasy.premierleague.com/gcs/plfpl-production-adobe-approved/plfpl-production/562177/0c53ecee-fba3-4d40-8d3d-039712e045d7.png",
        "entry": 562177,
        "entry_name": "GOAT TEAM",
        "event_total": 75,
        "has_played": true,
        "id": 3784098,
        "last_rank": 82069,
        "player_name": "Jamal Eddine El Amrani",
        "rank": 47869,
        "rank_sort": 47948,
        "total": 2353
      },
      {
        "club_badge_src": null,
        "entry": 592736,
        "entry_name": "AFC Kotor",
        "event_total": 68,
        "has_played": true,
        "id": 3994094,
        "last_rank": 66848,
        "player_name": "Isaac Mallinson",
        "rank": 47869,
        "rank_sort": 47949,
        "total": 2353
      },
      {
        "club_badge_src": "https://fantasy.premierleague.com/gcs/plfpl-production-adobe-approved/plfpl-production/597983/e772c759-0992-4d39-b7f2-f4f316f5de10.png",
        "entry": 597983,
        "entry_name": "AmaroTime",
        "event_total": 63,
        "has_played": true,
        "id": 4032813,
        "last_rank": 57857,
        "player_name": "Kunjan Joshi",
        "rank": 47869,
        "rank_sort": 47950,
        "total": 2353
      }
    ]
  }
}