{
  "last_updated_data": "2026-05-24T23:28:17Z",
  "league": {
    "admin_entry": null,
    "closed": false,
    "code_privacy": "p",
    "created": "2025-07-20T23:14:33.933835Z",
    "cup_league": 2815434,
    "has_cup": true,
    "id": 314,
    "league_type": "s",
    "max_entries": null,
    "name": "Overall",
    "rank": null,
    "scoring": "c",
    "start_event": 1
  },
  "new_entries": {
    "has_next": false,
    "page": 1,
    "results": []
  },
  "standings": {
    "has_next": true,
    "page": 44,
    "results": [
      {
        "club_badge_src": null,
        "entry": 5563286,
        "entry_name": "Rycerze Ortalionu",
        "event_total": 59,
        "has_played": true,
        "id": 43434052,
        "last_rank": 1746,
        "player_name": "Damian Bia\u0142ob\u0142ocki",
        "rank": 2151,
        "rank_sort": 2151,
        "total": 2433
      },
      {
        "club_badge_src": null,
        "entry": 7031283,
        "entry_name": "Toastopp",
        "event_total": 65,
        "has_played": true,
        "id": 56508177,
        "last_rank": 2931,
        "player_name": "Elsa Weghammar",
        "rank": 2151,
        "rank_sort": 2152,
        "total": 2433
      },
      {
        "club_badge_src": null,
        "entry": 3016859,
        "entry_name": "VECNA",
        "event_total": 59,
        "has_played": true,
        "id": 22195540,
        "last_rank": 1749,
        "player_name": "Hossam Ezz",
        "rank": 2153,
        "rank_sort": 2153,
        "total": 2433
      },
      {
        "club_badge_src": "https://fantasy.premierleague.com/gcs/plfpl-production-adobe-approved/plfpl-production/7416321/19af4215-6d09-48a4-be46-01bc7e3d0e80.png",
        "entry": 7416321,
        "entry_name": "ALTINEK\u0130N SK",
        "event_total": 60,
        "has_played": true,
        "id": 60200404,
        "last_rank": 2270,
        "player_name": "Berke Serin",
        "rank": 2154,
        "rank_sort": 2154,
        "total": 2433
      },
      {
        "club_badge_src": "https://fantasy.premierleague.com/gcs/plfpl-production-adobe-approved/plfpl-production/1832784/b0a3fa5c-80b1-44b4-8fbf-52aa4e22dbfb.png",
        "entry": 1832784,
        "entry_name": "\u0160markn",
        "event_total": 49,
        "has_played": true,
        "id": 12892475,
        "last_rank": 1287,
        "player_name": "Matev\u017e Leno\u0161ek",
        "rank": 2155,
        "rank_sort": 2155,
        "total": 2432
      },
      {
        "club_badge_src": "https://fantasy.premierleague.com/gcs/plfpl-production-adobe-approved/plfpl-production/8867442/81e94923-10bd-44f4-baeb-897b78370b34.png",
        "entry": 8867442,
        "entry_name": "El Tomasso",
        "event_total": 68,
        "has_played": true,
        "id": 74194920,
        "last_rank": 3378,
        "player_name": "T\u00f3mas Karl Gu\u00f0steinsson",
        "rank": 2156,
        "rank_sort": 2156,
        "total": 2432
      },
      {
        "club_badge_src": null,
        "entry": 5469583,
        "entry_name": "KBFFH",
        "event_total": 74,
        "has_played": true,
        "id": 42571802,
        "last_rank": 4471,
        "player_name": "Yunfeng Shen",
        "rank": 2157,
        "rank_sort": 2157,
        "total": 2432
      },
      {
        "club_badge_src": null,
        "entry": 8533504,
        "entry_name": "no hopers",
        "event_total": 55,
        "has_played": true,
        "id": 70960499,
        "last_rank": 1758,
        "player_name": "Ian Herbert",
        "rank": 2158,
        "rank_sort": 2158,
        "total": 2432
      },
      {
        "club_badge_src": null,
        "entry": 753439,
        "entry_name": "Tesco McNeil Deal",
        "event_total": 59,
        "has_played": true,
        "id": 5127294,
        "last_rank": 2166,
        "player_name": "Finlay Walker",
        "rank": 2159,
        "rank_sort": 2159,
        "total": 2432
      },
      {
        "club_badge_src": "https://fantasy.premierleague.com/gcs/plfpl-production-adobe-approved/plfpl-production/3100215/537c22fe-c55b-4ae0-a2ef-4568fc239da6.png",
        "entry": 3100215,
        "entry_name": "World Var II",
        "event_total": 64,
        "has_played": true,
        "id": 22857312,
        "last_rank": 2802,
        "player_name": "Adam Dolniak",
        "rank": 2159,
        "rank_sort": 2160,
        "total": 2432
      },
      {
        "club_badge_src": null,
        "entry": 3693457,
        "entry_name": "Just Winging It",
        "event_total": 61,
        "has_played": true,
        "id": 27554473,
        "last_rank": 2409,
        "player_name": "Hannah Wlodarczyk",
        "rank": 2159,
        "rank_sort": 2161,
        "total": 2432
      },
      {
        "club_badge_src": null,
        "entry": 5516722,
        "entry_name": "Kajzerice",
        "event_total": 53,
        "has_played": true,
        "id": 43011764,
        "last_rank": 1595,
        "player_name": "Matev\u017e Poklukar",
        "rank": 2159,
        "rank_sort": 2162,
        "total": 2432
      },
      {
        "club_badge_src": "https://fantasy.premierleague.com/gcs/plfpl-production-adobe-approved/plfpl-production/1943/a7d7ff45-3347-498b-ad5b-542610df689a.png",
        "entry": 1943,
        "entry_name": "t",
        "event_total": 65,
        "has_played": true,
        "id": 10834,
        "last_rank": 2952,
        "player_name": "Luke Doherty",
        "rank": 2163,
        "rank_sort": 2163,
        "total": 2432
      },
      {
        "club_badge_src": null,
        "entry": 2706,
        "entry_name": "The Bushwackers",
        "event_total": 63,
        "has_played": true,
        "id": 15161,
        "last_rank": 2685,
        "player_name": "Liam Bushell",
        "rank": 2163,
        "rank_sort": 2164,
        "total": 2432
      },
      {
        "club_badge_src": null,
        "entry": 9511,
        "entry_name": "Batty FC",
        "event_total": 60,
        "has_played": true,
        "id": 55938,
        "last_rank": 2273,
        "player_name": "Jack Battersby",
        "rank": 2163,
        "rank_sort": 2165,
        "total": 2432
      },
      {
        "club_badge_src": null,
        "entry": 24416,
        "entry_name": "Sonset Blvd",
        "event_total": 57,
        "has_played": true,
        "id": 154126,
        "last_rank": 1961,
        "player_name": "Justin Hill",
        "rank": 2163,
        "rank_sort": 2166,
        "total": 2432
      },
      {
        "club_badge_src": null,
        "entry": 24776,
        "entry_name": "Greenaldo",
        "event_total": 57,
        "has_played": true,
        "id": 156465,
        "last_rank": 1978,
        "player_name": "Chris Green",
        "rank": 2163,
        "rank_sort": 2167,
        "total": 2432
      },
      {
        "club_badge_src": null,
        "entry": 38372,
        "entry_name": "Tea & Busquets",
        "event_total": 64,
        "has_played": true,
        "id": 245920,
        "last_rank": 2802,
        "player_name": "Imamul Mottakin Akib",
        "rank": 2163,
        "rank_sort": 2168,
        "total": 2432
      },
      {
        "club_badge_src": null,
        "entry": 39755,
        "entry_name": "Mohammed JaFF",
        "event_total": 73,
        "has_played": true,
        "id": 254802,
        "last_rank": 4270,
        "player_name": "mohammed Jaff",
        "rank": 2163,
        "rank_sort": 2169,
        "total": 2432
      },
      {
        "club_badge_src": null,
        "entry": 88471,
        "entry_name": "Woodstars fc",
        "event_total": 54,
        "has_played": true,
        "id": 577323,
        "last_rank": 1668,
        "player_name": "sam woodcock",
        "rank": 2163,
        "rank_sort": 2170,
        "total": 2432
      },
      {
        "club_badge_src": null,
        "entry": 129313,
        "entry_name": "Chicken Chow Mainoo",
        "event_total": 64,
        "has_played": true,
        "id": 842833,
        "last_rank": 2824,
        "player_name": "Cole MacRae",
        "rank": 2163,
        "rank_sort": 2171,
        "total": 2432
      },
      {
        "club_badge_src": null,
        "entry": 389064,
        "entry_name": "AFC Dons 26",
        "event_total": 64,
        "has_played": true,
        "id": 2609875,
        "last_rank": 2824,
        "player_name": "John Mousley",
        "rank": 2163,
        "rank_sort": 2172,
        "total": 2432
      },
      {
        "club_badge_src": null,
        "entry": 451926,
        "entry_name": "No Grape, No Partey",
        "event_total": 60,
        "has_played": true,
        "id": 3031816,
        "last_rank": 2280,
        "player_name": "Smeci Leci",
        "rank": 2163,
        "rank_sort": 2173,
        "total": 2432
      },
      {
        "club_badge_src": null,
        "entry": 459170,
        "entry_name": "Muppets FC",
        "event_total": 56,
        "has_played": true,
        "id": 3080352,
        "last_rank": 1880,
        "player_name": "Josh Williams",
        "rank": 2163,
        "rank_sort": 2174,
        "total": 2432
      },
      {
        "club_badge_src": null,
        "entry": 482486,
        "entry_name": "Kong Athletic",
        "event_total": 66,
        "has_played": true,
        "id": 3238949,
        "last_rank": 3103,
        "player_name": "Wai-mond Kong",
        "rank": 2163,
        "rank_sort": 2175,
        "total": 2432
      },
      {
        "club_badge_src": "https://fantasy.premierleague.com/gcs/plfpl-production-adobe-approved/plfpl-production/589320/72ba41d9-2f90-416e-ad06-a05eff5bda50.png",
        "entry": 589320,
        "entry_name": "Paso-Primero FC",
        "event_total": 51,
        "has_played": true,
        "id": 3969099,
        "last_rank": 1438,
        "player_name": "Thomas Holt",
        "rank": 2163,
        "rank_sort": 2176,
        "total": 2432
      },
      {
        "club_badge_src": null,
        "entry": 868636,
        "entry_name": "No Mbeumo",
        "event_total": 67,
        "has_played": true,
        "id": 5955171,
        "last_rank": 3257,
        "player_name": "George Vasek",
        "rank": 2163,
        "rank_sort": 2177,
        "total": 2432
      },
      {
        "club_badge_src": null,
        "entry": 1287584,
        "entry_name": "Sorry Nick Jackson",
        "event_total": 56,
        "has_played": true,
        "id": 8947145,
        "last_rank": 1880,
        "player_name": "Sean Carey",
        "rank": 2163,
        "rank_sort": 2178,
        "total": 2432
      },
      {
        "club_badge_src": null,
        "entry": 1298586,
        "entry_name": "xG Champs",
        "event_total": 61,
        "has_played": true,
        "id": 9025183,
        "last_rank": 2409,
        "player_name": "Chima Onyewuchi",
        "rank": 2163,
        "rank_sort": 2179,
        "total": 2432
      },
      {
        "club_badge_src": "https://fantasy.premierleague.com/gcs/plfpl-production-adobe-approved/plfpl-production/1334372/6a736c64-ba0f-42a4-9e05-27bf26618669.png",
        "entry": 1334372,
        "entry_name": "OM 4ever",
        "event_total": 60,
        "has_played": true,
        "id": 9275161,
        "last_rank": 2280,
        "player_name": "Fran\u00e7ois T",
        "rank": 2163,
        "rank_sort": 2180,
        "total": 2432
      },
      {
        "club_badge_src": "https://fantasy.premierleague.com/gcs/plfpl-production-adobe-approved/plfpl-production/1602160/4716bce2-fc22-46e9-bf75-81daa1c6274c.png",
        "entry": 1602160,
        "entry_name": "FPLISNOTFORTHEWEAK",
        "event_total": 60,
        "has_played": true,
        "id": 11208120,
        "last_rank": 2300,
        "player_name": "Muky Ali",
        "rank": 2163,
        "rank_sort": 2181,
        "total": 2432
      },
      {
        "club_badge_src": null,
        "entry": 1917508,
        "entry_name": "Titogracki_zvijuk081",
        "event_total": 66,
        "has_played": true,
        "id": 13520383,
        "last_rank": 3079,
        "player_name": "Nemanja Rakcevic",
        "rank": 2163,
        "rank_sort": 2182,
        "total": 2432
      },
      {
        "club_badge_src": "https://fantasy.premierleague.com/gcs/plfpl-production-adobe-approved/plfpl-production/2937756/04ec372a-db3d-4903-8232-d65cfba0e781.png",
        "entry": 2937756,
        "entry_name": "M-Ayden Heaven",
        "event_total": 76,
        "has_played": true,
        "id": 21556168,
        "last_rank": 4913,
        "player_name": "Trung Le",
        "rank": 2163,
        "rank_sort": 2183,
        "total": 2432
      },
      {
        "club_badge_src": null,
        "entry": 4022853,
        "entry_name": "Bruno Dos Tres",
        "event_total": 62,
        "has_played": true,
        "id": 30321453,
        "last_rank": 2553,
        "player_name": "Aaron Boag",
        "rank": 2163,
        "rank_sort": 2184,
        "total": 2432
      },
      {
        "club_badge_src": null,
        "entry": 4244496,
        "entry_name": "Everybody Wirtz",
        "event_total": 57,
        "has_played": true,
        "id": 32170780,
        "last_rank": 1978,
        "player_name": "Chris Napier",
        "rank": 2163,
        "rank_sort": 2185,
        "total": 2432
      },
      {
        "club_badge_src": null,
        "entry": 4368191,
        "entry_name": "The Wizard of \u00d6zil",
        "event_total": 79,
        "has_played": true,
        "id": 33183747,
        "last_rank": 5632,
        "player_name": "Thijs Buddingh",
        "rank": 2163,
        "rank_sort": 2186,
        "total": 2432
      },
      {
        "club_badge_src": "https://fantasy.premierleague.com/gcs/plfpl-production-adobe-approved/plfpl-production/5085028/9ba534df-0938-48ab-82a2-315857231ccf.png",
        "entry": 5085028,
        "entry_name": "ThomasTheFrankEngine",
        "event_total": 68,
        "has_played": true,
        "id": 39301441,
        "last_rank": 3391,
        "player_name": "Christian Mittelhauser",
        "rank": 2163,
        "rank_sort": 2187,
        "total": 2432
      },
      {
        "club_badge_src": null,
        "entry": 5796436,
        "entry_name": "Fantasy Life Balance",
        "event_total": 73,
        "has_played": true,
        "id": 45467754,
        "last_rank": 3528,
        "player_name": "Kacper Laskowski",
        "rank": 2163,
        "rank_sort": 2188,
        "total": 2432
      },
      {
        "club_badge_src": null,
        "entry": 6611476,
        "entry_name": "Change Name",
        "event_total": 58,
        "has_played": true,
        "id": 52824373,
        "last_rank": 2088,
        "player_name": "Prentis MacLean",
        "rank": 2163,
        "rank_sort": 2189,
        "total": 2432
      },
      {
        "club_badge_src": null,
        "entry": 6851829,
        "entry_name": "Im sorry Nic Jackson",
        "event_total": 59,
        "has_played": true,
        "id": 54894880,
        "last_rank": 2189,
        "player_name": "Ahmik Parackal",
        "rank": 2163,
        "rank_sort": 2190,
        "total": 2432
      },
      {
        "club_badge_src": null,
        "entry": 7292431,
        "entry_name": "Tiocfaidh Mo S\u00e1l\u00e1h",
        "event_total": 45,
        "has_played": true,
        "id": 59005715,
        "last_rank": 1079,
        "player_name": "Ryan Davison",
        "rank": 2163,
        "rank_sort": 2191,
        "total": 2432
      },
      {
        "club_badge_src": null,
        "entry": 7307131,
        "entry_name": "Where's Barry?",
        "event_total": 59,
        "has_played": true,
        "id": 59144234,
        "last_rank": 2189,
        "player_name": "Oliver Hopkins",
        "rank": 2163,
        "rank_sort": 2192,
        "total": 2432
      },
      {
        "club_badge_src": null,
        "entry": 7369989,
        "entry_name": "sColelaget",
        "event_total": 62,
        "has_played": true,
        "id": 59734482,
        "last_rank": 2518,
        "player_name": "B\u00f8rge Kristoffersen",
        "rank": 2163,
        "rank_sort": 2193,
        "total": 2432
      },
      {
        "club_badge_src": null,
        "entry": 7570163,
        "entry_name": "Yskas",
        "event_total": 55,
        "has_played": true,
        "id": 61993853,
        "last_rank": 1758,
        "player_name": "Chad Hing",
        "rank": 2163,
        "rank_sort": 2194,
        "total": 2432
      },
      {
        "club_badge_src": null,
        "entry": 7681036,
        "entry_name": "Vroom on a Motorbike",
        "event_total": 66,
        "has_played": true,
        "id": 63000505,
        "last_rank": 2518,
        "player_name": "Ricci Cloud",
        "rank": 2163,
        "rank_sort": 2195,
        "total": 2432
      },
      {
        "club_badge_src": null,
        "entry": 8031655,
        "entry_name": "Lord of the Ings",
        "event_total": 76,
        "has_played": true,
        "id": 66170635,
        "last_rank": 4918,
        "player_name": "Cory Kennedy",
        "rank": 2163,
        "rank_sort": 2196,
        "total": 2432
      },
      {
        "club_badge_src": "https://fantasy.premierleague.com/gcs/plfpl-production-adobe-approved/plfpl-production/8305379/3b0e14b6-d9b5-4d18-8089-8ebf658cf87d.png",
        "entry": 8305379,
        "entry_name": "YNWA Team",
        "event_total": 76,
        "has_played": true,
        "id": 68766562,
        "last_rank": 4047,
        "player_name": "Rony Hartawan",
        "rank": 2163,
        "rank_sort": 2197,
        "total": 2432
      },
      {
        "club_badge_src": "https://fantasy.premierleague.com/gcs/plfpl-production-adobe-approved/plfpl-production/8865693/2144fe9a-cc2d-4056-8333-f48b2ee79fe1.png",
        "entry": 8865693,
        "entry_name": "Rice, Rice Baby",
        "event_total": 66,
        "has_played": true,
        "id": 74178144,
        "last_rank": 3079,
        "player_name": "Albert Bach",
        "rank": 2163,
        "rank_sort": 2198,
        "total": 2432
      },
      {
        "club_badge_src": null,
        "entry": 15825,
        "entry_name": "Kinder Mbeumo",
        "event_total": 61,
        "has_played": true,
        "id": 97434,
        "last_rank": 1978,
        "player_name": "James Davis",
        "rank": 2199,
        "rank_sort": 2199,
        "total": 2432
      },
      {
        "club_badge_src": "https://fantasy.premierleague.com/gcs/plfpl-production-adobe-approved/plfpl-production/25165/92993012-c3a3-47c3-ae39-cc88b2775620.png",
        "entry": 25165,
        "entry_name": "Javid Shah",
        "event_total": 65,
        "has_played": true,
        "id": 159165,
        "last_rank": 2418,
        "player_name": "Amirali Vahedi",
        "rank": 2199,
        "rank_sort": 2200,
        "total": 2432
      }
    ]
  }
}