{
  "last_updated_data": "2026-05-24T23:28:17Z",
  "league": {
    "admin_entry": null,
    "closed": false,
    "code_privacy": "p",
    "created": "2025-07-20T23:14:33.933835Z",
    "cup_league": 2815434,
    "has_cup": true,
    "id": 314,
    "league_type": "s",
    "max_entries": null,
    "name": "Overall",
    "rank": null,
    "scoring": "c",
    "start_event": 1
  },
  "new_entries": {
    "has_next": false,
    "page": 1,
    "results": []
  },
  "standings": {
    "has_next": true,
    "page": 866,
    "results": [
      {
        "club_badge_src": null,
        "entry": 3420857,
        "entry_name": "FC HASSAN",
        "event_total": 69,
        "has_played": true,
        "id": 25409930,
        "last_rank": 55514,
        "player_name": "Hassan Ghalib",
        "rank": 43181,
        "rank_sort": 43251,
        "total": 2357
      },
      {
        "club_badge_src": null,
        "entry": 3444063,
        "entry_name": "In like an alligator",
        "event_total": 56,
        "has_played": true,
        "id": 25588566,
        "last_rank": 42081,
        "player_name": "Simon Bottery",
        "rank": 43181,
        "rank_sort": 43252,
        "total": 2357
      },
      {
        "club_badge_src": "https://fantasy.premierleague.com/gcs/plfpl-production-adobe-approved/plfpl-production/3476576/fdfab0a4-6b92-485c-b8e9-d46f4dcb751e.png",
        "entry": 3476576,
        "entry_name": "JoaoPedroGoldenBoots",
        "event_total": 66,
        "has_played": true,
        "id": 25849793,
        "last_rank": 50635,
        "player_name": "Thayud Praneetvatakul",
        "rank": 43181,
        "rank_sort": 43253,
        "total": 2357
      },
      {
        "club_badge_src": null,
        "entry": 4138704,
        "entry_name": "Big Ol Soccer Kick",
        "event_total": 66,
        "has_played": true,
        "id": 31278145,
        "last_rank": 57358,
        "player_name": "Matt Boullt",
        "rank": 43181,
        "rank_sort": 43254,
        "total": 2357
      },
      {
        "club_badge_src": null,
        "entry": 4172809,
        "entry_name": "Sta Pie",
        "event_total": 56,
        "has_played": true,
        "id": 31560607,
        "last_rank": 32190,
        "player_name": "Stavros Pieroulli",
        "rank": 43181,
        "rank_sort": 43255,
        "total": 2357
      },
      {
        "club_badge_src": null,
        "entry": 4233367,
        "entry_name": "kharelsquad",
        "event_total": 59,
        "has_played": true,
        "id": 32077902,
        "last_rank": 46313,
        "player_name": "Prashant Kharel",
        "rank": 43181,
        "rank_sort": 43256,
        "total": 2357
      },
      {
        "club_badge_src": null,
        "entry": 4294992,
        "entry_name": "The Greal\u2019 Deal",
        "event_total": 52,
        "has_played": true,
        "id": 32582111,
        "last_rank": 37058,
        "player_name": "Brendan Ryan",
        "rank": 43181,
        "rank_sort": 43257,
        "total": 2357
      },
      {
        "club_badge_src": null,
        "entry": 4696775,
        "entry_name": "Defensive Shortfalls",
        "event_total": 40,
        "has_played": true,
        "id": 36004039,
        "last_rank": 24570,
        "player_name": "Shoaib Mehmood",
        "rank": 43181,
        "rank_sort": 43258,
        "total": 2357
      },
      {
        "club_badge_src": null,
        "entry": 4709032,
        "entry_name": "KeepCalm&PalmerOn",
        "event_total": 66,
        "has_played": true,
        "id": 36117725,
        "last_rank": 57200,
        "player_name": "Benjamin Chamberlain",
        "rank": 43181,
        "rank_sort": 43259,
        "total": 2357
      },
      {
        "club_badge_src": null,
        "entry": 4813176,
        "entry_name": "The flying v",
        "event_total": 55,
        "has_played": true,
        "id": 37061610,
        "last_rank": 40770,
        "player_name": "Tom Evans",
        "rank": 43181,
        "rank_sort": 43260,
        "total": 2357
      },
      {
        "club_badge_src": null,
        "entry": 5050211,
        "entry_name": "Change Name",
        "event_total": 66,
        "has_played": true,
        "id": 39018966,
        "last_rank": 44525,
        "player_name": "Declan Mcmenamin",
        "rank": 43181,
        "rank_sort": 43261,
        "total": 2357
      },
      {
        "club_badge_src": null,
        "entry": 5151676,
        "entry_name": "COYG Seoul FC",
        "event_total": 50,
        "has_played": true,
        "id": 39857230,
        "last_rank": 34682,
        "player_name": "Darren Clark",
        "rank": 43181,
        "rank_sort": 43262,
        "total": 2357
      },
      {
        "club_badge_src": null,
        "entry": 5978923,
        "entry_name": "Now I'm A Baleba",
        "event_total": 62,
        "has_played": true,
        "id": 47073374,
        "last_rank": 50772,
        "player_name": "Louie Kennedy",
        "rank": 43181,
        "rank_sort": 43263,
        "total": 2357
      },
      {
        "club_badge_src": null,
        "entry": 6049631,
        "entry_name": "Yellows",
        "event_total": 63,
        "has_played": true,
        "id": 47736317,
        "last_rank": 52357,
        "player_name": "Sam kelly",
        "rank": 43181,
        "rank_sort": 43264,
        "total": 2357
      },
      {
        "club_badge_src": null,
        "entry": 6127913,
        "entry_name": "King Lira",
        "event_total": 45,
        "has_played": true,
        "id": 48419582,
        "last_rank": 29279,
        "player_name": "Seb Rohan",
        "rank": 43181,
        "rank_sort": 43265,
        "total": 2357
      },
      {
        "club_badge_src": null,
        "entry": 6146423,
        "entry_name": "Jz",
        "event_total": 58,
        "has_played": true,
        "id": 48581394,
        "last_rank": 39403,
        "player_name": "Jaz Ariffin",
        "rank": 43181,
        "rank_sort": 43266,
        "total": 2357
      },
      {
        "club_badge_src": "https://fantasy.premierleague.com/gcs/plfpl-production-adobe-approved/plfpl-production/6316916/1e2f62d0-f861-43d4-872f-e52ede541afd.png",
        "entry": 6316916,
        "entry_name": "USG F.C",
        "event_total": 59,
        "has_played": true,
        "id": 50135039,
        "last_rank": 46236,
        "player_name": "Soe Zaw Than",
        "rank": 43181,
        "rank_sort": 43267,
        "total": 2357
      },
      {
        "club_badge_src": null,
        "entry": 6362463,
        "entry_name": "Van de Vengeance",
        "event_total": 64,
        "has_played": true,
        "id": 50589079,
        "last_rank": 53952,
        "player_name": "Djamel Ravaton",
        "rank": 43181,
        "rank_sort": 43268,
        "total": 2357
      },
      {
        "club_badge_src": null,
        "entry": 6812493,
        "entry_name": "Het vijfde wiel",
        "event_total": 80,
        "has_played": true,
        "id": 54559575,
        "last_rank": 84731,
        "player_name": "Simon Huygen",
        "rank": 43181,
        "rank_sort": 43269,
        "total": 2357
      },
      {
        "club_badge_src": null,
        "entry": 7741546,
        "entry_name": "Muller11",
        "event_total": 47,
        "has_played": true,
        "id": 63544936,
        "last_rank": 31309,
        "player_name": "Tinotenda Pfidze",
        "rank": 43181,
        "rank_sort": 43270,
        "total": 2357
      },
      {
        "club_badge_src": null,
        "entry": 7757375,
        "entry_name": "Vlaget",
        "event_total": 59,
        "has_played": true,
        "id": 63689548,
        "last_rank": 46236,
        "player_name": "Dennis Vevang",
        "rank": 43181,
        "rank_sort": 43271,
        "total": 2357
      },
      {
        "club_badge_src": null,
        "entry": 8548833,
        "entry_name": "C.F MKE-ROOM",
        "event_total": 58,
        "has_played": true,
        "id": 71106942,
        "last_rank": 39403,
        "player_name": "Nathana\u00e9l Singh",
        "rank": 43181,
        "rank_sort": 43272,
        "total": 2357
      },
      {
        "club_badge_src": null,
        "entry": 9422388,
        "entry_name": "lacreta",
        "event_total": 58,
        "has_played": true,
        "id": 79588607,
        "last_rank": 34458,
        "player_name": "Juan Nu\u00f1ez",
        "rank": 43181,
        "rank_sort": 43273,
        "total": 2357
      },
      {
        "club_badge_src": "https://fantasy.premierleague.com/gcs/plfpl-production-adobe-approved/plfpl-production/1321/6897a69f-67f9-44a3-80dd-7b74f6003482.png",
        "entry": 1321,
        "entry_name": "MF Team",
        "event_total": 52,
        "has_played": true,
        "id": 7340,
        "last_rank": 32335,
        "player_name": "Mohammed Frastaoui",
        "rank": 43274,
        "rank_sort": 43274,
        "total": 2357
      },
      {
        "club_badge_src": null,
        "entry": 3423,
        "entry_name": "PakoraFC",
        "event_total": 63,
        "has_played": true,
        "id": 19390,
        "last_rank": 46236,
        "player_name": "Asad ali",
        "rank": 43274,
        "rank_sort": 43275,
        "total": 2357
      },
      {
        "club_badge_src": "https://fantasy.premierleague.com/gcs/plfpl-production-adobe-approved/plfpl-production/38264/9aa657e4-e265-4cd2-8555-2b6229d161bc.png",
        "entry": 38264,
        "entry_name": "Don do don",
        "event_total": 79,
        "has_played": true,
        "id": 245224,
        "last_rank": 74166,
        "player_name": "Don Freddie",
        "rank": 43274,
        "rank_sort": 43276,
        "total": 2357
      },
      {
        "club_badge_src": null,
        "entry": 43674,
        "entry_name": "LAMINE YAMAL 10",
        "event_total": 49,
        "has_played": true,
        "id": 279715,
        "last_rank": 29279,
        "player_name": "Eslam Amer",
        "rank": 43274,
        "rank_sort": 43277,
        "total": 2357
      },
      {
        "club_badge_src": null,
        "entry": 44842,
        "entry_name": "The Juggernaut",
        "event_total": 62,
        "has_played": true,
        "id": 287507,
        "last_rank": 44804,
        "player_name": "Bernard Simbarashe Juru",
        "rank": 43274,
        "rank_sort": 43278,
        "total": 2357
      },
      {
        "club_badge_src": null,
        "entry": 62965,
        "entry_name": "SRK LFC",
        "event_total": 61,
        "has_played": true,
        "id": 406114,
        "last_rank": 49301,
        "player_name": "Amir Srk",
        "rank": 43274,
        "rank_sort": 43279,
        "total": 2357
      },
      {
        "club_badge_src": "https://fantasy.premierleague.com/gcs/plfpl-production-adobe-approved/plfpl-production/110198/57fcbef2-0886-4afd-8058-7f95c458195a.png",
        "entry": 110198,
        "entry_name": "Liquid Gold FC",
        "event_total": 61,
        "has_played": true,
        "id": 718683,
        "last_rank": 49301,
        "player_name": "Farai Charakupa",
        "rank": 43274,
        "rank_sort": 43280,
        "total": 2357
      },
      {
        "club_badge_src": null,
        "entry": 111718,
        "entry_name": "Alisson Burgers",
        "event_total": 68,
        "has_played": true,
        "id": 728423,
        "last_rank": 53952,
        "player_name": "Michael Quinn",
        "rank": 43274,
        "rank_sort": 43281,
        "total": 2357
      },
      {
        "club_badge_src": null,
        "entry": 119715,
        "entry_name": "FPL Queen",
        "event_total": 70,
        "has_played": true,
        "id": 781048,
        "last_rank": 64319,
        "player_name": "Nzeagwu Kossy",
        "rank": 43274,
        "rank_sort": 43282,
        "total": 2357
      },
      {
        "club_badge_src": null,
        "entry": 188378,
        "entry_name": "Delap Dance",
        "event_total": 80,
        "has_played": true,
        "id": 1246259,
        "last_rank": 67926,
        "player_name": "Samuel Fraser",
        "rank": 43274,
        "rank_sort": 43283,
        "total": 2357
      },
      {
        "club_badge_src": null,
        "entry": 201407,
        "entry_name": "Ekitike-Taka",
        "event_total": 53,
        "has_played": true,
        "id": 1337268,
        "last_rank": 33582,
        "player_name": "Rowan Shaw",
        "rank": 43274,
        "rank_sort": 43284,
        "total": 2357
      },
      {
        "club_badge_src": null,
        "entry": 215714,
        "entry_name": "Rain Bowen in sky",
        "event_total": 63,
        "has_played": true,
        "id": 1434744,
        "last_rank": 52461,
        "player_name": "David Mas",
        "rank": 43274,
        "rank_sort": 43285,
        "total": 2357
      },
      {
        "club_badge_src": "https://fantasy.premierleague.com/gcs/plfpl-production-adobe-approved/plfpl-production/218648/4c4f7ee0-62d3-4d5e-9a11-75787e53445e.png",
        "entry": 218648,
        "entry_name": "Denis Healey",
        "event_total": 56,
        "has_played": true,
        "id": 1454043,
        "last_rank": 37058,
        "player_name": "Mathias Sundb\u00f8",
        "rank": 43274,
        "rank_sort": 43286,
        "total": 2357
      },
      {
        "club_badge_src": "https://fantasy.premierleague.com/gcs/plfpl-production-adobe-approved/plfpl-production/229968/75e756c5-a3c8-4361-97fd-d7d4bdbb949d.png",
        "entry": 229968,
        "entry_name": "Peaky Blinders",
        "event_total": 57,
        "has_played": true,
        "id": 1529966,
        "last_rank": 43512,
        "player_name": "Keron George",
        "rank": 43274,
        "rank_sort": 43287,
        "total": 2357
      },
      {
        "club_badge_src": null,
        "entry": 296339,
        "entry_name": "djaafer laggoun",
        "event_total": 52,
        "has_played": true,
        "id": 1979935,
        "last_rank": 37058,
        "player_name": "\u062c\u0639\u0641\u0631 \u0644\u0639\u0642\u0648\u0646",
        "rank": 43274,
        "rank_sort": 43288,
        "total": 2357
      },
      {
        "club_badge_src": null,
        "entry": 352269,
        "entry_name": "Bruno Dos Tres V2",
        "event_total": 73,
        "has_played": true,
        "id": 2357762,
        "last_rank": 55514,
        "player_name": "Matthew Ellison",
        "rank": 43274,
        "rank_sort": 43289,
        "total": 2357
      },
      {
        "club_badge_src": "https://fantasy.premierleague.com/gcs/plfpl-production-adobe-approved/plfpl-production/455612/b1b5468c-60bf-49f1-bfb1-857d729eeed2.png",
        "entry": 455612,
        "entry_name": "Jamie Pauls Peacocks",
        "event_total": 62,
        "has_played": true,
        "id": 3056620,
        "last_rank": 50848,
        "player_name": "Jim Phillpot",
        "rank": 43274,
        "rank_sort": 43290,
        "total": 2357
      },
      {
        "club_badge_src": null,
        "entry": 564259,
        "entry_name": "Damo FC",
        "event_total": 67,
        "has_played": true,
        "id": 3798028,
        "last_rank": 52357,
        "player_name": "Damian Sokolowski",
        "rank": 43274,
        "rank_sort": 43291,
        "total": 2357
      },
      {
        "club_badge_src": null,
        "entry": 595469,
        "entry_name": "FC Maglinators",
        "event_total": 64,
        "has_played": true,
        "id": 4014364,
        "last_rank": 47596,
        "player_name": "Magnus Bryn",
        "rank": 43274,
        "rank_sort": 43292,
        "total": 2357
      },
      {
        "club_badge_src": null,
        "entry": 652733,
        "entry_name": "Calckydinho",
        "event_total": 40,
        "has_played": true,
        "id": 4411235,
        "last_rank": 24713,
        "player_name": "Neil Calcutt",
        "rank": 43274,
        "rank_sort": 43293,
        "total": 2357
      },
      {
        "club_badge_src": null,
        "entry": 662474,
        "entry_name": "Drew's Dynamos",
        "event_total": 56,
        "has_played": true,
        "id": 4478245,
        "last_rank": 42225,
        "player_name": "Graham Cunningham",
        "rank": 43274,
        "rank_sort": 43294,
        "total": 2357
      },
      {
        "club_badge_src": null,
        "entry": 678245,
        "entry_name": "Pontus Lekekamerater",
        "event_total": 58,
        "has_played": true,
        "id": 4589350,
        "last_rank": 44672,
        "player_name": "Fredrik Berentsen",
        "rank": 43274,
        "rank_sort": 43295,
        "total": 2357
      },
      {
        "club_badge_src": null,
        "entry": 681462,
        "entry_name": "Entourage FC",
        "event_total": 62,
        "has_played": true,
        "id": 4611791,
        "last_rank": 44804,
        "player_name": "Joachim Osnes",
        "rank": 43274,
        "rank_sort": 43296,
        "total": 2357
      },
      {
        "club_badge_src": null,
        "entry": 750202,
        "entry_name": "Face Palmer",
        "event_total": 71,
        "has_played": true,
        "id": 5104366,
        "last_rank": 52205,
        "player_name": "Roy Manuell",
        "rank": 43274,
        "rank_sort": 43297,
        "total": 2357
      },
      {
        "club_badge_src": null,
        "entry": 758166,
        "entry_name": "The White Potus",
        "event_total": 64,
        "has_played": true,
        "id": 5164361,
        "last_rank": 53952,
        "player_name": "Sindre Paulsen Eide",
        "rank": 43274,
        "rank_sort": 43298,
        "total": 2357
      },
      {
        "club_badge_src": null,
        "entry": 928273,
        "entry_name": "Donegall or Nothing",
        "event_total": 73,
        "has_played": true,
        "id": 6386545,
        "last_rank": 62617,
        "player_name": "David Stuart",
        "rank": 43274,
        "rank_sort": 43299,
        "total": 2357
      },
      {
        "club_badge_src": null,
        "entry": 956487,
        "entry_name": "Gold Trafford",
        "event_total": 64,
        "has_played": true,
        "id": 6590396,
        "last_rank": 54065,
        "player_name": "Marcello Gold",
        "rank": 43274,
        "rank_sort": 43300,
        "total": 2357
      }
    ]
  }
}