{
  "last_updated_data": "2026-05-24T23:28:17Z",
  "league": {
    "admin_entry": null,
    "closed": false,
    "code_privacy": "p",
    "created": "2025-07-20T23:14:33.933835Z",
    "cup_league": 2815434,
    "has_cup": true,
    "id": 314,
    "league_type": "s",
    "max_entries": null,
    "name": "Overall",
    "rank": null,
    "scoring": "c",
    "start_event": 1
  },
  "new_entries": {
    "has_next": false,
    "page": 1,
    "results": []
  },
  "standings": {
    "has_next": true,
    "page": 1668,
    "results": [
      {
        "club_badge_src": null,
        "entry": 5217953,
        "entry_name": "I <3 CP",
        "event_total": 60,
        "has_played": true,
        "id": 40426770,
        "last_rank": 92126,
        "player_name": "Kamil R\u00f3\u017ca\u0144ski",
        "rank": 83231,
        "rank_sort": 83351,
        "total": 2334
      },
      {
        "club_badge_src": null,
        "entry": 5222557,
        "entry_name": "Yooi",
        "event_total": 56,
        "has_played": true,
        "id": 40465712,
        "last_rank": 82873,
        "player_name": "Aziq Danial",
        "rank": 83231,
        "rank_sort": 83352,
        "total": 2334
      },
      {
        "club_badge_src": null,
        "entry": 5256864,
        "entry_name": "Djed2holidays",
        "event_total": 44,
        "has_played": true,
        "id": 40742760,
        "last_rank": 51984,
        "player_name": "Tiara Wijaya",
        "rank": 83231,
        "rank_sort": 83353,
        "total": 2334
      },
      {
        "club_badge_src": null,
        "entry": 5264224,
        "entry_name": "AA",
        "event_total": 50,
        "has_played": true,
        "id": 40801132,
        "last_rank": 70072,
        "player_name": "Abdullah S",
        "rank": 83231,
        "rank_sort": 83354,
        "total": 2334
      },
      {
        "club_badge_src": null,
        "entry": 5270232,
        "entry_name": "Hakuna Metete",
        "event_total": 56,
        "has_played": true,
        "id": 40847591,
        "last_rank": 82873,
        "player_name": "Craig Finean",
        "rank": 83231,
        "rank_sort": 83355,
        "total": 2334
      },
      {
        "club_badge_src": "https://fantasy.premierleague.com/gcs/plfpl-production-adobe-approved/plfpl-production/5492691/20aee532-024a-45ab-b6e6-7b623e33e986.png",
        "entry": 5492691,
        "entry_name": "WORLD CHAMPIONS: CFC",
        "event_total": 70,
        "has_played": true,
        "id": 42781266,
        "last_rank": 118654,
        "player_name": "Carvey Sando",
        "rank": 83231,
        "rank_sort": 83356,
        "total": 2334
      },
      {
        "club_badge_src": "https://fantasy.premierleague.com/gcs/plfpl-production-adobe-approved/plfpl-production/5495183/936f32af-1fd6-4505-ab71-2da9f4d94ec3.png",
        "entry": 5495183,
        "entry_name": "Dawsons Creek",
        "event_total": 68,
        "has_played": true,
        "id": 42804005,
        "last_rank": 112591,
        "player_name": "Adrian Dawson",
        "rank": 83231,
        "rank_sort": 83357,
        "total": 2334
      },
      {
        "club_badge_src": null,
        "entry": 5573872,
        "entry_name": "KALLIO XI",
        "event_total": 61,
        "has_played": true,
        "id": 43527287,
        "last_rank": 94778,
        "player_name": "Juho Kallio",
        "rank": 83231,
        "rank_sort": 83358,
        "total": 2334
      },
      {
        "club_badge_src": null,
        "entry": 5854647,
        "entry_name": "Esperanza",
        "event_total": 60,
        "has_played": true,
        "id": 45968944,
        "last_rank": 82664,
        "player_name": "oussema Esperan",
        "rank": 83231,
        "rank_sort": 83359,
        "total": 2334
      },
      {
        "club_badge_src": null,
        "entry": 6082204,
        "entry_name": "steikje s\u00e5 goe",
        "event_total": 47,
        "has_played": true,
        "id": 48021173,
        "last_rank": 64319,
        "player_name": "Tor Gunnar Skarpenes",
        "rank": 83231,
        "rank_sort": 83360,
        "total": 2334
      },
      {
        "club_badge_src": null,
        "entry": 6091026,
        "entry_name": "The History",
        "event_total": 49,
        "has_played": true,
        "id": 48099067,
        "last_rank": 60671,
        "player_name": "mahmoud Mehanna",
        "rank": 83231,
        "rank_sort": 83361,
        "total": 2334
      },
      {
        "club_badge_src": null,
        "entry": 6107034,
        "entry_name": "\u00a5AnasFBL\u00a5",
        "event_total": 52,
        "has_played": true,
        "id": 48237555,
        "last_rank": 65475,
        "player_name": "Anas Ahmed",
        "rank": 83231,
        "rank_sort": 83362,
        "total": 2334
      },
      {
        "club_badge_src": "https://fantasy.premierleague.com/gcs/plfpl-production-adobe-approved/plfpl-production/6285139/6d76281a-8246-49fc-8284-d3b1c6cb68f6.png",
        "entry": 6285139,
        "entry_name": "Mar1",
        "event_total": 76,
        "has_played": true,
        "id": 49785443,
        "last_rank": 112591,
        "player_name": "Marwan Haider",
        "rank": 83231,
        "rank_sort": 83363,
        "total": 2334
      },
      {
        "club_badge_src": null,
        "entry": 6325113,
        "entry_name": "Blue Blood",
        "event_total": 54,
        "has_played": true,
        "id": 50245164,
        "last_rank": 78440,
        "player_name": "Abdulla Janahi",
        "rank": 83231,
        "rank_sort": 83364,
        "total": 2334
      },
      {
        "club_badge_src": null,
        "entry": 6392793,
        "entry_name": "Czarowniki",
        "event_total": 63,
        "has_played": true,
        "id": 50854827,
        "last_rank": 99596,
        "player_name": "Grzegorz Ros\u00f3\u0142",
        "rank": 83231,
        "rank_sort": 83365,
        "total": 2334
      },
      {
        "club_badge_src": "https://fantasy.premierleague.com/gcs/plfpl-production-adobe-approved/plfpl-production/6412251/f6158adb-6573-4879-9dee-1842e58eb4bf.png",
        "entry": 6412251,
        "entry_name": "Mils Nation",
        "event_total": 59,
        "has_played": true,
        "id": 51028362,
        "last_rank": 80465,
        "player_name": "damilare osilana",
        "rank": 83231,
        "rank_sort": 83366,
        "total": 2334
      },
      {
        "club_badge_src": null,
        "entry": 6723226,
        "entry_name": "TBA",
        "event_total": 44,
        "has_played": true,
        "id": 53809148,
        "last_rank": 59077,
        "player_name": "harry sheldrake",
        "rank": 83231,
        "rank_sort": 83367,
        "total": 2334
      },
      {
        "club_badge_src": null,
        "entry": 6809776,
        "entry_name": "Shola's Army",
        "event_total": 66,
        "has_played": true,
        "id": 54537524,
        "last_rank": 97096,
        "player_name": "Steve Guy",
        "rank": 83231,
        "rank_sort": 83368,
        "total": 2334
      },
      {
        "club_badge_src": null,
        "entry": 6876091,
        "entry_name": "Shush",
        "event_total": 58,
        "has_played": true,
        "id": 55102255,
        "last_rank": 87541,
        "player_name": "Harjas rai",
        "rank": 83231,
        "rank_sort": 83369,
        "total": 2334
      },
      {
        "club_badge_src": "https://fantasy.premierleague.com/gcs/plfpl-production-adobe-approved/plfpl-production/7014814/723fc874-dbbe-4014-a6f7-9b5e0dbc57e5.png",
        "entry": 7014814,
        "entry_name": "esquadr\u00e3o de ouro",
        "event_total": 66,
        "has_played": true,
        "id": 56339620,
        "last_rank": 107485,
        "player_name": "Letlhogonolo Manamela",
        "rank": 83231,
        "rank_sort": 83370,
        "total": 2334
      },
      {
        "club_badge_src": "https://fantasy.premierleague.com/gcs/plfpl-production-adobe-approved/plfpl-production/7110844/32b4d6eb-187d-4117-b4fd-b1fe09930589.png",
        "entry": 7110844,
        "entry_name": "boka juniors",
        "event_total": 65,
        "has_played": true,
        "id": 57279934,
        "last_rank": 104712,
        "player_name": "Pter Berger",
        "rank": 83231,
        "rank_sort": 83371,
        "total": 2334
      },
      {
        "club_badge_src": null,
        "entry": 7153060,
        "entry_name": "Diiddy Parteyy",
        "event_total": 55,
        "has_played": true,
        "id": 57684074,
        "last_rank": 71956,
        "player_name": "Chiraag Kerai",
        "rank": 83231,
        "rank_sort": 83372,
        "total": 2334
      },
      {
        "club_badge_src": "https://fantasy.premierleague.com/gcs/plfpl-production-adobe-approved/plfpl-production/7200713/ec175545-871f-4ad3-a480-a7a2a044bcf8.png",
        "entry": 7200713,
        "entry_name": "A Cunha Mateta",
        "event_total": 56,
        "has_played": true,
        "id": 58138723,
        "last_rank": 73975,
        "player_name": "Peter Cornelia",
        "rank": 83231,
        "rank_sort": 83373,
        "total": 2334
      },
      {
        "club_badge_src": "https://fantasy.premierleague.com/gcs/plfpl-production-adobe-approved/plfpl-production/7216712/8bc9c8fe-de6d-4bbb-8e96-35e1d4f6816a.png",
        "entry": 7216712,
        "entry_name": "SmudgerFC",
        "event_total": 56,
        "has_played": true,
        "id": 58291826,
        "last_rank": 73975,
        "player_name": "Aaron Smith",
        "rank": 83231,
        "rank_sort": 83374,
        "total": 2334
      },
      {
        "club_badge_src": null,
        "entry": 7286252,
        "entry_name": "Briefcase Bonza",
        "event_total": 70,
        "has_played": true,
        "id": 58947992,
        "last_rank": 118946,
        "player_name": "Danny Stead",
        "rank": 83231,
        "rank_sort": 83375,
        "total": 2334
      },
      {
        "club_badge_src": null,
        "entry": 7316392,
        "entry_name": "Boing Boing Baggies",
        "event_total": 68,
        "has_played": true,
        "id": 59230411,
        "last_rank": 102125,
        "player_name": "Nathan Ross",
        "rank": 83231,
        "rank_sort": 83376,
        "total": 2334
      },
      {
        "club_badge_src": null,
        "entry": 7342194,
        "entry_name": "FC Paddy",
        "event_total": 59,
        "has_played": true,
        "id": 59472513,
        "last_rank": 89897,
        "player_name": "Patryk Batka",
        "rank": 83231,
        "rank_sort": 83377,
        "total": 2334
      },
      {
        "club_badge_src": null,
        "entry": 7534098,
        "entry_name": "Morgan Todgers",
        "event_total": 57,
        "has_played": true,
        "id": 61665855,
        "last_rank": 85207,
        "player_name": "Jim Tyson",
        "rank": 83231,
        "rank_sort": 83378,
        "total": 2334
      },
      {
        "club_badge_src": null,
        "entry": 7732189,
        "entry_name": "Brown and Out",
        "event_total": 65,
        "has_played": true,
        "id": 63460848,
        "last_rank": 94537,
        "player_name": "Stuart Brown",
        "rank": 83231,
        "rank_sort": 83379,
        "total": 2334
      },
      {
        "club_badge_src": "https://fantasy.premierleague.com/gcs/plfpl-production-adobe-approved/plfpl-production/8140788/3fce5817-a63d-4bde-944b-c0377ef5cead.png",
        "entry": 8140788,
        "entry_name": "yozhykk95",
        "event_total": 49,
        "has_played": true,
        "id": 67182693,
        "last_rank": 68107,
        "player_name": "Yevhenii Mykhailov",
        "rank": 83231,
        "rank_sort": 83380,
        "total": 2334
      },
      {
        "club_badge_src": null,
        "entry": 8340792,
        "entry_name": "Mathys Tel Aviv",
        "event_total": 69,
        "has_played": true,
        "id": 69115725,
        "last_rank": 104388,
        "player_name": "Peter Fard",
        "rank": 83231,
        "rank_sort": 83381,
        "total": 2334
      },
      {
        "club_badge_src": null,
        "entry": 8396462,
        "entry_name": "Change Name",
        "event_total": 65,
        "has_played": true,
        "id": 69645787,
        "last_rank": 104712,
        "player_name": "Payam Heydari",
        "rank": 83231,
        "rank_sort": 83382,
        "total": 2334
      },
      {
        "club_badge_src": null,
        "entry": 8501272,
        "entry_name": "A-City Finest",
        "event_total": 55,
        "has_played": true,
        "id": 70649900,
        "last_rank": 80651,
        "player_name": "Mike Koch",
        "rank": 83231,
        "rank_sort": 83383,
        "total": 2334
      },
      {
        "club_badge_src": null,
        "entry": 8506294,
        "entry_name": "Geir Valen",
        "event_total": 75,
        "has_played": true,
        "id": 70698499,
        "last_rank": 134505,
        "player_name": "J\u00f8rgen Vestly",
        "rank": 83231,
        "rank_sort": 83384,
        "total": 2334
      },
      {
        "club_badge_src": null,
        "entry": 8522929,
        "entry_name": "Lindas",
        "event_total": 71,
        "has_played": true,
        "id": 70858620,
        "last_rank": 121991,
        "player_name": "Anton Lindahl",
        "rank": 83231,
        "rank_sort": 83385,
        "total": 2334
      },
      {
        "club_badge_src": "https://fantasy.premierleague.com/gcs/plfpl-production-adobe-approved/plfpl-production/8787864/9046eb51-e64b-406a-b6a9-834ac02bad88.png",
        "entry": 8787864,
        "entry_name": "\u0627\u0644\u0637\u0628\u064a\u0628",
        "event_total": 62,
        "has_played": true,
        "id": 73427325,
        "last_rank": 97305,
        "player_name": "Ahmed tarek",
        "rank": 83231,
        "rank_sort": 83386,
        "total": 2334
      },
      {
        "club_badge_src": "https://fantasy.premierleague.com/gcs/plfpl-production-adobe-approved/plfpl-production/8919719/c9976cfe-9484-4fa3-96f0-0f26ea315188.png",
        "entry": 8919719,
        "entry_name": "Charlies \u00e4nglar",
        "event_total": 68,
        "has_played": true,
        "id": 74700526,
        "last_rank": 101818,
        "player_name": "Charlie Andren",
        "rank": 83231,
        "rank_sort": 83387,
        "total": 2334
      },
      {
        "club_badge_src": null,
        "entry": 9016754,
        "entry_name": "Pro Evolution Saka",
        "event_total": 58,
        "has_played": true,
        "id": 75641409,
        "last_rank": 87541,
        "player_name": "Jordan Keeling",
        "rank": 83231,
        "rank_sort": 83388,
        "total": 2334
      },
      {
        "club_badge_src": "https://fantasy.premierleague.com/gcs/plfpl-production-adobe-approved/plfpl-production/9134448/1c28248f-35e1-481e-8211-276144678d6a.png",
        "entry": 9134448,
        "entry_name": "number 1",
        "event_total": 44,
        "has_played": true,
        "id": 76789612,
        "last_rank": 51984,
        "player_name": "etman tarek",
        "rank": 83231,
        "rank_sort": 83389,
        "total": 2334
      },
      {
        "club_badge_src": null,
        "entry": 9161920,
        "entry_name": "Outatime",
        "event_total": 60,
        "has_played": true,
        "id": 77057094,
        "last_rank": 92332,
        "player_name": "ersoy hur",
        "rank": 83231,
        "rank_sort": 83390,
        "total": 2334
      },
      {
        "club_badge_src": null,
        "entry": 9416013,
        "entry_name": "Lysine Contingency",
        "event_total": 45,
        "has_played": true,
        "id": 79527555,
        "last_rank": 60827,
        "player_name": "Callum McConchie",
        "rank": 83231,
        "rank_sort": 83391,
        "total": 2334
      },
      {
        "club_badge_src": null,
        "entry": 409,
        "entry_name": "Rutter Woke Nonsense",
        "event_total": 56,
        "has_played": true,
        "id": 2256,
        "last_rank": 82664,
        "player_name": "Dylan Hawe",
        "rank": 83392,
        "rank_sort": 83392,
        "total": 2334
      },
      {
        "club_badge_src": "https://fantasy.premierleague.com/gcs/plfpl-production-adobe-approved/plfpl-production/2827/662cd976-468a-4583-9ebd-2179ddaae814.png",
        "entry": 2827,
        "entry_name": "Emery Little Alps",
        "event_total": 72,
        "has_played": true,
        "id": 15890,
        "last_rank": 113223,
        "player_name": "Gerry McDonnell",
        "rank": 83392,
        "rank_sort": 83393,
        "total": 2334
      },
      {
        "club_badge_src": "https://fantasy.premierleague.com/gcs/plfpl-production-adobe-approved/plfpl-production/4737/aa94edce-c0ca-4c39-a6f0-981ce77f5da0.png",
        "entry": 4737,
        "entry_name": "Kai's Kingdom",
        "event_total": 61,
        "has_played": true,
        "id": 26950,
        "last_rank": 85207,
        "player_name": "paul reid",
        "rank": 83392,
        "rank_sort": 83394,
        "total": 2334
      },
      {
        "club_badge_src": "https://fantasy.premierleague.com/gcs/plfpl-production-adobe-approved/plfpl-production/11020/ec7a2cc3-ad13-4920-9df6-fcb8b5d1c483.png",
        "entry": 11020,
        "entry_name": "Coffee Football Club",
        "event_total": 56,
        "has_played": true,
        "id": 65330,
        "last_rank": 74166,
        "player_name": "Jonathan Martin @FPLCafee",
        "rank": 83392,
        "rank_sort": 83395,
        "total": 2334
      },
      {
        "club_badge_src": null,
        "entry": 74099,
        "entry_name": "Som3a",
        "event_total": 69,
        "has_played": true,
        "id": 481675,
        "last_rank": 94537,
        "player_name": "Mohamed Ismail",
        "rank": 83392,
        "rank_sort": 83396,
        "total": 2334
      },
      {
        "club_badge_src": null,
        "entry": 76417,
        "entry_name": "Spaghetti Moretti",
        "event_total": 41,
        "has_played": true,
        "id": 496739,
        "last_rank": 54065,
        "player_name": "Robert Papiernik",
        "rank": 83392,
        "rank_sort": 83397,
        "total": 2334
      },
      {
        "club_badge_src": "https://fantasy.premierleague.com/gcs/plfpl-production-adobe-approved/plfpl-production/77641/747ba8a2-b724-4570-a28d-70ac7f1843a9.png",
        "entry": 77641,
        "entry_name": "Faulty 9ers",
        "event_total": 43,
        "has_played": true,
        "id": 504665,
        "last_rank": 57451,
        "player_name": "Harry Lovell",
        "rank": 83392,
        "rank_sort": 83398,
        "total": 2334
      },
      {
        "club_badge_src": null,
        "entry": 100366,
        "entry_name": "Whats Rob Holding FC",
        "event_total": 73,
        "has_played": true,
        "id": 655010,
        "last_rank": 116017,
        "player_name": "Conor Taylor",
        "rank": 83392,
        "rank_sort": 83399,
        "total": 2334
      },
      {
        "club_badge_src": null,
        "entry": 114524,
        "entry_name": "FC Carpe Diem",
        "event_total": 66,
        "has_played": true,
        "id": 747085,
        "last_rank": 97096,
        "player_name": "Mark Godfrey",
        "rank": 83392,
        "rank_sort": 83400,
        "total": 2334
      }
    ]
  }
}