{
  "last_updated_data": "2026-05-24T23:28:17Z",
  "league": {
    "admin_entry": null,
    "closed": false,
    "code_privacy": "p",
    "created": "2025-07-20T23:14:33.933835Z",
    "cup_league": 2815434,
    "has_cup": true,
    "id": 314,
    "league_type": "s",
    "max_entries": null,
    "name": "Overall",
    "rank": null,
    "scoring": "c",
    "start_event": 1
  },
  "new_entries": {
    "has_next": false,
    "page": 1,
    "results": []
  },
  "standings": {
    "has_next": true,
    "page": 1576,
    "results": [
      {
        "club_badge_src": null,
        "entry": 8046218,
        "entry_name": "Cronulla FC",
        "event_total": 63,
        "has_played": true,
        "id": 66303025,
        "last_rank": 93883,
        "player_name": "Nathan Bollom",
        "rank": 78481,
        "rank_sort": 78751,
        "total": 2336
      },
      {
        "club_badge_src": null,
        "entry": 8213611,
        "entry_name": "Tierney Henry",
        "event_total": 37,
        "has_played": true,
        "id": 67870235,
        "last_rank": 44672,
        "player_name": "Hugo Svantesson",
        "rank": 78481,
        "rank_sort": 78752,
        "total": 2336
      },
      {
        "club_badge_src": null,
        "entry": 8402218,
        "entry_name": "Rice Rice Baby",
        "event_total": 76,
        "has_played": true,
        "id": 69698629,
        "last_rank": 130073,
        "player_name": "Finn Sheridan",
        "rank": 78481,
        "rank_sort": 78753,
        "total": 2336
      },
      {
        "club_badge_src": null,
        "entry": 8414663,
        "entry_name": "DeGr\u00f8nne\u00d8rne",
        "event_total": 77,
        "has_played": true,
        "id": 69815279,
        "last_rank": 132758,
        "player_name": "August Pilgaard",
        "rank": 78481,
        "rank_sort": 78754,
        "total": 2336
      },
      {
        "club_badge_src": null,
        "entry": 8575058,
        "entry_name": "Leedsleedsleeds",
        "event_total": 62,
        "has_played": true,
        "id": 71358821,
        "last_rank": 81646,
        "player_name": "Phil Spinks",
        "rank": 78481,
        "rank_sort": 78755,
        "total": 2336
      },
      {
        "club_badge_src": null,
        "entry": 8739274,
        "entry_name": "All Baah Myself",
        "event_total": 68,
        "has_played": true,
        "id": 72960812,
        "last_rank": 96374,
        "player_name": "Sam Mortimer",
        "rank": 78481,
        "rank_sort": 78756,
        "total": 2336
      },
      {
        "club_badge_src": null,
        "entry": 8916015,
        "entry_name": "Red Devils",
        "event_total": 67,
        "has_played": true,
        "id": 74664735,
        "last_rank": 103978,
        "player_name": "Anas Al-Munajed",
        "rank": 78481,
        "rank_sort": 78757,
        "total": 2336
      },
      {
        "club_badge_src": null,
        "entry": 8923105,
        "entry_name": "Kentut Berdarah",
        "event_total": 58,
        "has_played": true,
        "id": 74733717,
        "last_rank": 82398,
        "player_name": "Jason King",
        "rank": 78481,
        "rank_sort": 78758,
        "total": 2336
      },
      {
        "club_badge_src": null,
        "entry": 9009364,
        "entry_name": "ahmad",
        "event_total": 50,
        "has_played": true,
        "id": 75570635,
        "last_rank": 65475,
        "player_name": "Iort Gyuh",
        "rank": 78481,
        "rank_sort": 78759,
        "total": 2336
      },
      {
        "club_badge_src": null,
        "entry": 9066372,
        "entry_name": "Tboz",
        "event_total": 61,
        "has_played": true,
        "id": 76123337,
        "last_rank": 88594,
        "player_name": "Tboz Mwas",
        "rank": 78481,
        "rank_sort": 78760,
        "total": 2336
      },
      {
        "club_badge_src": "https://fantasy.premierleague.com/gcs/plfpl-production-adobe-approved/plfpl-production/9094032/1fe9c91d-642a-4ca5-b648-74e5c13124d2.png",
        "entry": 9094032,
        "entry_name": "Bigtime8 FC",
        "event_total": 75,
        "has_played": true,
        "id": 76392798,
        "last_rank": 126408,
        "player_name": "Jamie Dunsmuir",
        "rank": 78481,
        "rank_sort": 78761,
        "total": 2336
      },
      {
        "club_badge_src": null,
        "entry": 9107605,
        "entry_name": "Jos\u00e9 Mort-inho",
        "event_total": 37,
        "has_played": true,
        "id": 76526239,
        "last_rank": 44525,
        "player_name": "Morteza Sarkari",
        "rank": 78481,
        "rank_sort": 78762,
        "total": 2336
      },
      {
        "club_badge_src": null,
        "entry": 9305876,
        "entry_name": "Nikos 10",
        "event_total": 47,
        "has_played": true,
        "id": 78465373,
        "last_rank": 60462,
        "player_name": "Nikos Papazaxariou",
        "rank": 78481,
        "rank_sort": 78763,
        "total": 2336
      },
      {
        "club_badge_src": null,
        "entry": 9373663,
        "entry_name": "Tapos United",
        "event_total": 48,
        "has_played": true,
        "id": 79117262,
        "last_rank": 62223,
        "player_name": "Handika Prasetya D",
        "rank": 78481,
        "rank_sort": 78764,
        "total": 2336
      },
      {
        "club_badge_src": null,
        "entry": 1352,
        "entry_name": "Of Mizon and Men",
        "event_total": 64,
        "has_played": true,
        "id": 7510,
        "last_rank": 87074,
        "player_name": "Owen Mizon",
        "rank": 78765,
        "rank_sort": 78765,
        "total": 2336
      },
      {
        "club_badge_src": null,
        "entry": 2743,
        "entry_name": "Show me da mane",
        "event_total": 52,
        "has_played": true,
        "id": 15390,
        "last_rank": 61950,
        "player_name": "Veeka Vainio",
        "rank": 78765,
        "rank_sort": 78766,
        "total": 2336
      },
      {
        "club_badge_src": null,
        "entry": 6819,
        "entry_name": "king Solomon \ufffd",
        "event_total": 58,
        "has_played": true,
        "id": 39217,
        "last_rank": 82664,
        "player_name": "omer kedem",
        "rank": 78765,
        "rank_sort": 78767,
        "total": 2336
      },
      {
        "club_badge_src": "https://fantasy.premierleague.com/gcs/plfpl-production-adobe-approved/plfpl-production/10774/39cdec96-35df-4fd0-8edf-757112a07c0a.png",
        "entry": 10774,
        "entry_name": "Cherki Twizzlers",
        "event_total": 68,
        "has_played": true,
        "id": 63799,
        "last_rank": 106763,
        "player_name": "Darren Klein",
        "rank": 78765,
        "rank_sort": 78768,
        "total": 2336
      },
      {
        "club_badge_src": "https://fantasy.premierleague.com/gcs/plfpl-production-adobe-approved/plfpl-production/16976/d8e771d2-71be-49b7-a08d-6e9383b3f671.png",
        "entry": 16976,
        "entry_name": "Rational Exuberance",
        "event_total": 60,
        "has_played": true,
        "id": 105133,
        "last_rank": 69323,
        "player_name": "Gafar Alli",
        "rank": 78765,
        "rank_sort": 78769,
        "total": 2336
      },
      {
        "club_badge_src": "https://fantasy.premierleague.com/gcs/plfpl-production-adobe-approved/plfpl-production/19338/af56b823-c647-4e47-abc7-451773d5a9ce.png",
        "entry": 19338,
        "entry_name": "Big Boy Brooks",
        "event_total": 58,
        "has_played": true,
        "id": 120333,
        "last_rank": 82664,
        "player_name": "Brooklyn Robinson",
        "rank": 78765,
        "rank_sort": 78770,
        "total": 2336
      },
      {
        "club_badge_src": "https://fantasy.premierleague.com/gcs/plfpl-production-adobe-approved/plfpl-production/21334/6e475110-6810-4096-ab48-9e1665017510.png",
        "entry": 21334,
        "entry_name": "Fc Tonno",
        "event_total": 58,
        "has_played": true,
        "id": 133744,
        "last_rank": 82664,
        "player_name": "Krzysztof Ba\u0144czyk",
        "rank": 78765,
        "rank_sort": 78771,
        "total": 2336
      },
      {
        "club_badge_src": null,
        "entry": 23912,
        "entry_name": "Mohamed Abdo",
        "event_total": 68,
        "has_played": true,
        "id": 150805,
        "last_rank": 107485,
        "player_name": "Mohamed Abdo",
        "rank": 78765,
        "rank_sort": 78772,
        "total": 2336
      },
      {
        "club_badge_src": "https://fantasy.premierleague.com/gcs/plfpl-production-adobe-approved/plfpl-production/26086/db406a56-ac42-42f2-9d70-12c87e3d5c5a.png",
        "entry": 26086,
        "entry_name": "I Love Jota",
        "event_total": 68,
        "has_played": true,
        "id": 164949,
        "last_rank": 96777,
        "player_name": "Prithivi Dhakal",
        "rank": 78765,
        "rank_sort": 78773,
        "total": 2336
      },
      {
        "club_badge_src": null,
        "entry": 27460,
        "entry_name": "kh90",
        "event_total": 58,
        "has_played": true,
        "id": 173597,
        "last_rank": 65475,
        "player_name": "Khalid Almuhairi",
        "rank": 78765,
        "rank_sort": 78774,
        "total": 2336
      },
      {
        "club_badge_src": null,
        "entry": 31313,
        "entry_name": "King Cole FC",
        "event_total": 60,
        "has_played": true,
        "id": 198426,
        "last_rank": 77999,
        "player_name": "Ryan Coulson",
        "rank": 78765,
        "rank_sort": 78775,
        "total": 2336
      },
      {
        "club_badge_src": "https://fantasy.premierleague.com/gcs/plfpl-production-adobe-approved/plfpl-production/32597/961efcd0-a8ba-45d3-b2b2-3b2258399090.png",
        "entry": 32597,
        "entry_name": "ter",
        "event_total": 59,
        "has_played": true,
        "id": 207425,
        "last_rank": 84980,
        "player_name": "Terry Ng",
        "rank": 78765,
        "rank_sort": 78776,
        "total": 2336
      },
      {
        "club_badge_src": "https://fantasy.premierleague.com/gcs/plfpl-production-adobe-approved/plfpl-production/42672/e995379d-f59e-4677-bd51-65b0aefb74cb.png",
        "entry": 42672,
        "entry_name": "Gandus",
        "event_total": 68,
        "has_played": true,
        "id": 273368,
        "last_rank": 86735,
        "player_name": "Ayaan Bokhari",
        "rank": 78765,
        "rank_sort": 78777,
        "total": 2336
      },
      {
        "club_badge_src": null,
        "entry": 58212,
        "entry_name": "Pal\u010deva dru\u017eina",
        "event_total": 67,
        "has_played": true,
        "id": 375021,
        "last_rank": 103978,
        "player_name": "Luka Palac",
        "rank": 78765,
        "rank_sort": 78778,
        "total": 2336
      },
      {
        "club_badge_src": null,
        "entry": 60977,
        "entry_name": "Obi one kenobi nil",
        "event_total": 68,
        "has_played": true,
        "id": 392621,
        "last_rank": 107485,
        "player_name": "Roger Condliffe",
        "rank": 78765,
        "rank_sort": 78779,
        "total": 2336
      },
      {
        "club_badge_src": null,
        "entry": 61041,
        "entry_name": "ib.8",
        "event_total": 39,
        "has_played": true,
        "id": 393036,
        "last_rank": 47596,
        "player_name": "ib 10",
        "rank": 78765,
        "rank_sort": 78780,
        "total": 2336
      },
      {
        "club_badge_src": "https://fantasy.premierleague.com/gcs/plfpl-production-adobe-approved/plfpl-production/61942/80fa2768-ec9e-4506-b687-fe4151b9ba20.png",
        "entry": 61942,
        "entry_name": "Homelander",
        "event_total": 53,
        "has_played": true,
        "id": 399098,
        "last_rank": 64005,
        "player_name": "Hassan Mo",
        "rank": 78765,
        "rank_sort": 78781,
        "total": 2336
      },
      {
        "club_badge_src": null,
        "entry": 80926,
        "entry_name": "The Nephilim",
        "event_total": 64,
        "has_played": true,
        "id": 526501,
        "last_rank": 97096,
        "player_name": "Trevor Mcilree",
        "rank": 78765,
        "rank_sort": 78782,
        "total": 2336
      },
      {
        "club_badge_src": null,
        "entry": 81021,
        "entry_name": "Alta",
        "event_total": 62,
        "has_played": true,
        "id": 527131,
        "last_rank": 92126,
        "player_name": "Tom Spring",
        "rank": 78765,
        "rank_sort": 78783,
        "total": 2336
      },
      {
        "club_badge_src": null,
        "entry": 83120,
        "entry_name": "Springpond Leaks",
        "event_total": 46,
        "has_played": true,
        "id": 540946,
        "last_rank": 58911,
        "player_name": "Alasdair Nagle",
        "rank": 78765,
        "rank_sort": 78784,
        "total": 2336
      },
      {
        "club_badge_src": "https://fantasy.premierleague.com/gcs/plfpl-production-adobe-approved/plfpl-production/83722/f49170d0-769b-43f0-8f26-795f6615fef9.png",
        "entry": 83722,
        "entry_name": "BC United",
        "event_total": 70,
        "has_played": true,
        "id": 544979,
        "last_rank": 112591,
        "player_name": "Ben Chatterton",
        "rank": 78765,
        "rank_sort": 78785,
        "total": 2336
      },
      {
        "club_badge_src": null,
        "entry": 95964,
        "entry_name": "Rajans XI*",
        "event_total": 77,
        "has_played": true,
        "id": 626945,
        "last_rank": 121383,
        "player_name": "Rajan Bhatt",
        "rank": 78765,
        "rank_sort": 78786,
        "total": 2336
      },
      {
        "club_badge_src": null,
        "entry": 99509,
        "entry_name": "AllForNothing",
        "event_total": 37,
        "has_played": true,
        "id": 649582,
        "last_rank": 44804,
        "player_name": "Aashay Deshpande",
        "rank": 78765,
        "rank_sort": 78787,
        "total": 2336
      },
      {
        "club_badge_src": "https://fantasy.premierleague.com/gcs/plfpl-production-adobe-approved/plfpl-production/103822/a4b8e167-ea47-42b5-bd3a-7bd38b569671.png",
        "entry": 103822,
        "entry_name": "Smig59 \ufffdSmig59",
        "event_total": 60,
        "has_played": true,
        "id": 677383,
        "last_rank": 77676,
        "player_name": "mark smith",
        "rank": 78765,
        "rank_sort": 78788,
        "total": 2336
      },
      {
        "club_badge_src": null,
        "entry": 109187,
        "entry_name": "Christian Levante",
        "event_total": 46,
        "has_played": true,
        "id": 711863,
        "last_rank": 51984,
        "player_name": "Christian Le",
        "rank": 78765,
        "rank_sort": 78789,
        "total": 2336
      },
      {
        "club_badge_src": null,
        "entry": 120838,
        "entry_name": "william solidba",
        "event_total": 51,
        "has_played": true,
        "id": 788488,
        "last_rank": 67926,
        "player_name": "Fjord Troldborg",
        "rank": 78765,
        "rank_sort": 78790,
        "total": 2336
      },
      {
        "club_badge_src": null,
        "entry": 132116,
        "entry_name": "Mings & Roundabouts",
        "event_total": 61,
        "has_played": true,
        "id": 860661,
        "last_rank": 89706,
        "player_name": "Jacob Midson",
        "rank": 78765,
        "rank_sort": 78791,
        "total": 2336
      },
      {
        "club_badge_src": "https://fantasy.premierleague.com/gcs/plfpl-production-adobe-approved/plfpl-production/136582/f4caa12c-6583-4520-9a98-7c0a235eb6b8.png",
        "entry": 136582,
        "entry_name": "Ladbroke Hotspur",
        "event_total": 47,
        "has_played": true,
        "id": 889817,
        "last_rank": 60671,
        "player_name": "Trevor Cane",
        "rank": 78765,
        "rank_sort": 78792,
        "total": 2336
      },
      {
        "club_badge_src": null,
        "entry": 146989,
        "entry_name": "The Reds",
        "event_total": 56,
        "has_played": true,
        "id": 963092,
        "last_rank": 78244,
        "player_name": "Ayman Alkhateeb",
        "rank": 78765,
        "rank_sort": 78793,
        "total": 2336
      },
      {
        "club_badge_src": null,
        "entry": 152311,
        "entry_name": "Gurratellitubbies",
        "event_total": 65,
        "has_played": true,
        "id": 999636,
        "last_rank": 88594,
        "player_name": "Gustav Lasses",
        "rank": 78765,
        "rank_sort": 78794,
        "total": 2336
      },
      {
        "club_badge_src": null,
        "entry": 153084,
        "entry_name": "Wieffer Yendetta",
        "event_total": 58,
        "has_played": true,
        "id": 1005160,
        "last_rank": 65475,
        "player_name": "Gaz Fisk",
        "rank": 78765,
        "rank_sort": 78795,
        "total": 2336
      },
      {
        "club_badge_src": "https://fantasy.premierleague.com/gcs/plfpl-production-adobe-approved/plfpl-production/168045/45628b4b-7af5-4080-bf82-06bf6c21c99a.png",
        "entry": 168045,
        "entry_name": "alaa al3essa",
        "event_total": 48,
        "has_played": true,
        "id": 1110754,
        "last_rank": 55311,
        "player_name": "Alaa Akoo",
        "rank": 78765,
        "rank_sort": 78796,
        "total": 2336
      },
      {
        "club_badge_src": null,
        "entry": 177174,
        "entry_name": "De Utvalgte",
        "event_total": 76,
        "has_played": true,
        "id": 1169416,
        "last_rank": 117915,
        "player_name": "marius S\u00e6ther",
        "rank": 78765,
        "rank_sort": 78797,
        "total": 2336
      },
      {
        "club_badge_src": null,
        "entry": 185628,
        "entry_name": "Felix FC",
        "event_total": 70,
        "has_played": true,
        "id": 1226328,
        "last_rank": 112591,
        "player_name": "Eleazer Felix Kharkongor",
        "rank": 78765,
        "rank_sort": 78798,
        "total": 2336
      },
      {
        "club_badge_src": null,
        "entry": 192788,
        "entry_name": "Change Name",
        "event_total": 57,
        "has_played": true,
        "id": 1277600,
        "last_rank": 80194,
        "player_name": "Finlay Seers",
        "rank": 78765,
        "rank_sort": 78799,
        "total": 2336
      },
      {
        "club_badge_src": "https://fantasy.premierleague.com/gcs/plfpl-production-adobe-approved/plfpl-production/194249/05ffc7a1-2b0d-4ced-8ca9-cb2ae76781f3.png",
        "entry": 194249,
        "entry_name": "2nd is nowhere",
        "event_total": 40,
        "has_played": true,
        "id": 1287770,
        "last_rank": 49078,
        "player_name": "Andrew Bays",
        "rank": 78765,
        "rank_sort": 78800,
        "total": 2336
      }
    ]
  }
}