{
  "last_updated_data": "2026-05-24T23:28:17Z",
  "league": {
    "admin_entry": null,
    "closed": false,
    "code_privacy": "p",
    "created": "2025-07-20T23:14:33.933835Z",
    "cup_league": 2815434,
    "has_cup": true,
    "id": 314,
    "league_type": "s",
    "max_entries": null,
    "name": "Overall",
    "rank": null,
    "scoring": "c",
    "start_event": 1
  },
  "new_entries": {
    "has_next": false,
    "page": 1,
    "results": []
  },
  "standings": {
    "has_next": true,
    "page": 806,
    "results": [
      {
        "club_badge_src": null,
        "entry": 4376238,
        "entry_name": "Minkles Wrinkles",
        "event_total": 66,
        "has_played": true,
        "id": 33252409,
        "last_rank": 53023,
        "player_name": "Milo Keane",
        "rank": 40097,
        "rank_sort": 40251,
        "total": 2359
      },
      {
        "club_badge_src": "https://fantasy.premierleague.com/gcs/plfpl-production-adobe-approved/plfpl-production/4408697/6fc9ae93-0cc0-4f76-a153-9de2999f6b1b.png",
        "entry": 4408697,
        "entry_name": "Red devils",
        "event_total": 58,
        "has_played": true,
        "id": 33535352,
        "last_rank": 41617,
        "player_name": "ali almusawi",
        "rank": 40097,
        "rank_sort": 40252,
        "total": 2359
      },
      {
        "club_badge_src": null,
        "entry": 4409542,
        "entry_name": "Ndiaye & chips twice",
        "event_total": 59,
        "has_played": true,
        "id": 33542507,
        "last_rank": 42648,
        "player_name": "David Corkett",
        "rank": 40097,
        "rank_sort": 40253,
        "total": 2359
      },
      {
        "club_badge_src": null,
        "entry": 4530895,
        "entry_name": "Poke my Pope",
        "event_total": 64,
        "has_played": true,
        "id": 34560343,
        "last_rank": 44048,
        "player_name": "Odin Sundt",
        "rank": 40097,
        "rank_sort": 40254,
        "total": 2359
      },
      {
        "club_badge_src": "https://fantasy.premierleague.com/gcs/plfpl-production-adobe-approved/plfpl-production/4544079/b7f165fa-920a-4109-ba9a-297ee23a9ba1.png",
        "entry": 4544079,
        "entry_name": "Forever20\ufffd",
        "event_total": 62,
        "has_played": true,
        "id": 34668285,
        "last_rank": 41324,
        "player_name": "Dondi Hananto",
        "rank": 40097,
        "rank_sort": 40255,
        "total": 2359
      },
      {
        "club_badge_src": "https://fantasy.premierleague.com/gcs/plfpl-production-adobe-approved/plfpl-production/4584037/8778acdd-e4c6-4443-9150-823040d6d0f2.png",
        "entry": 4584037,
        "entry_name": "nayvay",
        "event_total": 48,
        "has_played": true,
        "id": 34997212,
        "last_rank": 29904,
        "player_name": "Ndaru Sandana",
        "rank": 40097,
        "rank_sort": 40256,
        "total": 2359
      },
      {
        "club_badge_src": null,
        "entry": 4605176,
        "entry_name": "Maccers Magicians",
        "event_total": 57,
        "has_played": true,
        "id": 35183905,
        "last_rank": 40036,
        "player_name": "Dylan Mac Mahon",
        "rank": 40097,
        "rank_sort": 40257,
        "total": 2359
      },
      {
        "club_badge_src": null,
        "entry": 4610165,
        "entry_name": "whosaymourinho",
        "event_total": 45,
        "has_played": true,
        "id": 35226848,
        "last_rank": 27203,
        "player_name": "David Whelan",
        "rank": 40097,
        "rank_sort": 40258,
        "total": 2359
      },
      {
        "club_badge_src": null,
        "entry": 4649619,
        "entry_name": "Folk\u00f6l",
        "event_total": 67,
        "has_played": true,
        "id": 35571859,
        "last_rank": 55014,
        "player_name": "Hampus Henriksson",
        "rank": 40097,
        "rank_sort": 40259,
        "total": 2359
      },
      {
        "club_badge_src": null,
        "entry": 4655396,
        "entry_name": "Amli Xl",
        "event_total": 61,
        "has_played": true,
        "id": 35628242,
        "last_rank": 40036,
        "player_name": "Kushaan Puri",
        "rank": 40097,
        "rank_sort": 40260,
        "total": 2359
      },
      {
        "club_badge_src": null,
        "entry": 4678191,
        "entry_name": "Albion in Your Mam",
        "event_total": 62,
        "has_played": true,
        "id": 35841531,
        "last_rank": 47163,
        "player_name": "Jacob O-Regan",
        "rank": 40097,
        "rank_sort": 40261,
        "total": 2359
      },
      {
        "club_badge_src": null,
        "entry": 4918570,
        "entry_name": "Halv Special BK",
        "event_total": 61,
        "has_played": true,
        "id": 37936848,
        "last_rank": 45714,
        "player_name": "Jacob Nilsson",
        "rank": 40097,
        "rank_sort": 40262,
        "total": 2359
      },
      {
        "club_badge_src": null,
        "entry": 4990680,
        "entry_name": "AlwaysBeScoring",
        "event_total": 50,
        "has_played": true,
        "id": 38529490,
        "last_rank": 31995,
        "player_name": "George Iorgulescu",
        "rank": 40097,
        "rank_sort": 40263,
        "total": 2359
      },
      {
        "club_badge_src": null,
        "entry": 5045842,
        "entry_name": "Slot's Machines",
        "event_total": 67,
        "has_played": true,
        "id": 38977198,
        "last_rank": 55014,
        "player_name": "Bendik L\u00f8ve",
        "rank": 40097,
        "rank_sort": 40264,
        "total": 2359
      },
      {
        "club_badge_src": null,
        "entry": 5104398,
        "entry_name": "ZUBIMAN",
        "event_total": 61,
        "has_played": true,
        "id": 39456002,
        "last_rank": 45416,
        "player_name": "kevin chia",
        "rank": 40097,
        "rank_sort": 40265,
        "total": 2359
      },
      {
        "club_badge_src": null,
        "entry": 5190024,
        "entry_name": "Galacticos Ostrava",
        "event_total": 60,
        "has_played": true,
        "id": 40179602,
        "last_rank": 38644,
        "player_name": "Roman Kri\u0161tof",
        "rank": 40097,
        "rank_sort": 40266,
        "total": 2359
      },
      {
        "club_badge_src": null,
        "entry": 5191942,
        "entry_name": "Goal Diggers",
        "event_total": 53,
        "has_played": true,
        "id": 40196303,
        "last_rank": 35166,
        "player_name": "Kariuki Njoroge",
        "rank": 40097,
        "rank_sort": 40267,
        "total": 2359
      },
      {
        "club_badge_src": "https://fantasy.premierleague.com/gcs/plfpl-production-adobe-approved/plfpl-production/5240988/ce92c436-48ec-453c-9785-cf47b48fd5d2.png",
        "entry": 5240988,
        "entry_name": "The equalisers",
        "event_total": 47,
        "has_played": true,
        "id": 40616330,
        "last_rank": 28906,
        "player_name": "Eoghan bergin",
        "rank": 40097,
        "rank_sort": 40268,
        "total": 2359
      },
      {
        "club_badge_src": null,
        "entry": 5259054,
        "entry_name": "Alisson Wonderland",
        "event_total": 54,
        "has_played": true,
        "id": 40759496,
        "last_rank": 31747,
        "player_name": "Liam McRay",
        "rank": 40097,
        "rank_sort": 40269,
        "total": 2359
      },
      {
        "club_badge_src": null,
        "entry": 5275469,
        "entry_name": "Tesco Mcneil Deal",
        "event_total": 69,
        "has_played": true,
        "id": 40889323,
        "last_rank": 58388,
        "player_name": "Jordan Wilson",
        "rank": 40097,
        "rank_sort": 40270,
        "total": 2359
      },
      {
        "club_badge_src": "https://fantasy.premierleague.com/gcs/plfpl-production-adobe-approved/plfpl-production/5276618/ace55390-a4b7-4179-be46-2e20daebbe9b.png",
        "entry": 5276618,
        "entry_name": "The El Loco Legion",
        "event_total": 64,
        "has_played": true,
        "id": 40898436,
        "last_rank": 50199,
        "player_name": "David Longbottom",
        "rank": 40097,
        "rank_sort": 40271,
        "total": 2359
      },
      {
        "club_badge_src": null,
        "entry": 5281560,
        "entry_name": "JERETHAN",
        "event_total": 50,
        "has_played": true,
        "id": 40937491,
        "last_rank": 31620,
        "player_name": "Jeremy Wong",
        "rank": 40097,
        "rank_sort": 40272,
        "total": 2359
      },
      {
        "club_badge_src": null,
        "entry": 5286257,
        "entry_name": "Belmont Spurs 25/26",
        "event_total": 53,
        "has_played": true,
        "id": 40974978,
        "last_rank": 35166,
        "player_name": "Sreeni Baratham",
        "rank": 40097,
        "rank_sort": 40273,
        "total": 2359
      },
      {
        "club_badge_src": "https://fantasy.premierleague.com/gcs/plfpl-production-adobe-approved/plfpl-production/5334870/48f7636c-0cd4-4753-83f1-dd2d036df326.png",
        "entry": 5334870,
        "entry_name": "CensoredCocoaCompany",
        "event_total": 59,
        "has_played": true,
        "id": 41359846,
        "last_rank": 42940,
        "player_name": "Eivind Kristoffersen",
        "rank": 40097,
        "rank_sort": 40274,
        "total": 2359
      },
      {
        "club_badge_src": null,
        "entry": 5408852,
        "entry_name": "HellInLacelles",
        "event_total": 55,
        "has_played": true,
        "id": 42060065,
        "last_rank": 37822,
        "player_name": "Chris Grainger",
        "rank": 40097,
        "rank_sort": 40275,
        "total": 2359
      },
      {
        "club_badge_src": null,
        "entry": 5466768,
        "entry_name": "amey23",
        "event_total": 63,
        "has_played": true,
        "id": 42547508,
        "last_rank": 48642,
        "player_name": "Amey Waghmode",
        "rank": 40097,
        "rank_sort": 40276,
        "total": 2359
      },
      {
        "club_badge_src": null,
        "entry": 5523071,
        "entry_name": "Hacunha matata",
        "event_total": 52,
        "has_played": true,
        "id": 43069225,
        "last_rank": 34293,
        "player_name": "Andy Hakes",
        "rank": 40097,
        "rank_sort": 40277,
        "total": 2359
      },
      {
        "club_badge_src": null,
        "entry": 5608567,
        "entry_name": "Bayer Neverlusen",
        "event_total": 44,
        "has_played": true,
        "id": 43830780,
        "last_rank": 25902,
        "player_name": "Gavin Blackhall",
        "rank": 40097,
        "rank_sort": 40278,
        "total": 2359
      },
      {
        "club_badge_src": "https://fantasy.premierleague.com/gcs/plfpl-production-adobe-approved/plfpl-production/5622804/6ce45066-9016-457c-b32c-29ae04b71783.png",
        "entry": 5622804,
        "entry_name": "Earth Wind & Maguire",
        "event_total": 44,
        "has_played": true,
        "id": 43954780,
        "last_rank": 25902,
        "player_name": "Julian Morrall",
        "rank": 40097,
        "rank_sort": 40279,
        "total": 2359
      },
      {
        "club_badge_src": null,
        "entry": 5625979,
        "entry_name": "No Kudus Given",
        "event_total": 51,
        "has_played": true,
        "id": 43982001,
        "last_rank": 33147,
        "player_name": "Ashley Foster",
        "rank": 40097,
        "rank_sort": 40280,
        "total": 2359
      },
      {
        "club_badge_src": null,
        "entry": 5759898,
        "entry_name": "Fc Rat",
        "event_total": 63,
        "has_played": true,
        "id": 45151461,
        "last_rank": 48642,
        "player_name": "Maxim Theeten",
        "rank": 40097,
        "rank_sort": 40281,
        "total": 2359
      },
      {
        "club_badge_src": "https://fantasy.premierleague.com/gcs/plfpl-production-adobe-approved/plfpl-production/5777363/13b58489-f80c-4160-bf1c-1f480bdc3445.png",
        "entry": 5777363,
        "entry_name": "Hakuna Mateta",
        "event_total": 55,
        "has_played": true,
        "id": 45300886,
        "last_rank": 37822,
        "player_name": "Raphael Baptiste",
        "rank": 40097,
        "rank_sort": 40282,
        "total": 2359
      },
      {
        "club_badge_src": "https://fantasy.premierleague.com/gcs/plfpl-production-adobe-approved/plfpl-production/5827310/47f2093c-b23d-4877-8b9d-c6508d3ebebc.png",
        "entry": 5827310,
        "entry_name": "TheGoodDaysAreComing",
        "event_total": 60,
        "has_played": true,
        "id": 45734703,
        "last_rank": 44048,
        "player_name": "Mark Collins",
        "rank": 40097,
        "rank_sort": 40283,
        "total": 2359
      },
      {
        "club_badge_src": null,
        "entry": 5843921,
        "entry_name": "Whateverton FC",
        "event_total": 56,
        "has_played": true,
        "id": 45876958,
        "last_rank": 39023,
        "player_name": "Jonathan Ulrich",
        "rank": 40097,
        "rank_sort": 40284,
        "total": 2359
      },
      {
        "club_badge_src": null,
        "entry": 5908485,
        "entry_name": "Wiktor Gyockeres",
        "event_total": 60,
        "has_played": true,
        "id": 46428717,
        "last_rank": 38774,
        "player_name": "Security Agent Yock",
        "rank": 40097,
        "rank_sort": 40285,
        "total": 2359
      },
      {
        "club_badge_src": null,
        "entry": 5953675,
        "entry_name": "SKY RAPTOR",
        "event_total": 54,
        "has_played": true,
        "id": 46831719,
        "last_rank": 36624,
        "player_name": "Sonam Tobgay",
        "rank": 40097,
        "rank_sort": 40286,
        "total": 2359
      },
      {
        "club_badge_src": null,
        "entry": 6101411,
        "entry_name": "Slasken",
        "event_total": 65,
        "has_played": true,
        "id": 48187906,
        "last_rank": 45416,
        "player_name": "Anton Smedberg",
        "rank": 40097,
        "rank_sort": 40287,
        "total": 2359
      },
      {
        "club_badge_src": null,
        "entry": 6163775,
        "entry_name": "Top Goon",
        "event_total": 59,
        "has_played": true,
        "id": 48731555,
        "last_rank": 37589,
        "player_name": "Ryosuke Ishii",
        "rank": 40097,
        "rank_sort": 40288,
        "total": 2359
      },
      {
        "club_badge_src": null,
        "entry": 6338867,
        "entry_name": "Zinck United",
        "event_total": 75,
        "has_played": true,
        "id": 50382320,
        "last_rank": 61411,
        "player_name": "David Zinck",
        "rank": 40097,
        "rank_sort": 40289,
        "total": 2359
      },
      {
        "club_badge_src": null,
        "entry": 6342016,
        "entry_name": "Pray For United",
        "event_total": 75,
        "has_played": true,
        "id": 50409264,
        "last_rank": 68624,
        "player_name": "Faisal Syed",
        "rank": 40097,
        "rank_sort": 40290,
        "total": 2359
      },
      {
        "club_badge_src": null,
        "entry": 6346033,
        "entry_name": "99Skillzz",
        "event_total": 66,
        "has_played": true,
        "id": 50443282,
        "last_rank": 53345,
        "player_name": "Leevi Toivanen",
        "rank": 40097,
        "rank_sort": 40291,
        "total": 2359
      },
      {
        "club_badge_src": null,
        "entry": 6353101,
        "entry_name": "Childwall Iron Works",
        "event_total": 51,
        "has_played": true,
        "id": 50506965,
        "last_rank": 33147,
        "player_name": "Les Law",
        "rank": 40097,
        "rank_sort": 40292,
        "total": 2359
      },
      {
        "club_badge_src": null,
        "entry": 6382687,
        "entry_name": "OrcasitasEleven",
        "event_total": 62,
        "has_played": true,
        "id": 50766773,
        "last_rank": 47163,
        "player_name": "Sonia Weeks",
        "rank": 40097,
        "rank_sort": 40293,
        "total": 2359
      },
      {
        "club_badge_src": "https://fantasy.premierleague.com/gcs/plfpl-production-adobe-approved/plfpl-production/6495248/14c982ad-786b-40c1-9abe-1cbcb6c6077f.png",
        "entry": 6495248,
        "entry_name": "BenFikus Calcio",
        "event_total": 58,
        "has_played": true,
        "id": 51779787,
        "last_rank": 41617,
        "player_name": "Matteo Franceschi",
        "rank": 40097,
        "rank_sort": 40294,
        "total": 2359
      },
      {
        "club_badge_src": null,
        "entry": 6534106,
        "entry_name": "Top4StillOn!",
        "event_total": 60,
        "has_played": true,
        "id": 52125602,
        "last_rank": 38774,
        "player_name": "Kurt G",
        "rank": 40097,
        "rank_sort": 40295,
        "total": 2359
      },
      {
        "club_badge_src": null,
        "entry": 6653051,
        "entry_name": "Hercule Piroe",
        "event_total": 63,
        "has_played": true,
        "id": 53190594,
        "last_rank": 48363,
        "player_name": "Susan Mackenzie",
        "rank": 40097,
        "rank_sort": 40296,
        "total": 2359
      },
      {
        "club_badge_src": null,
        "entry": 6684946,
        "entry_name": "Beeblebrox",
        "event_total": 40,
        "has_played": true,
        "id": 53475781,
        "last_rank": 22685,
        "player_name": "gavin brooker",
        "rank": 40097,
        "rank_sort": 40297,
        "total": 2359
      },
      {
        "club_badge_src": null,
        "entry": 6724477,
        "entry_name": "Baines on Toast",
        "event_total": 63,
        "has_played": true,
        "id": 53819967,
        "last_rank": 42648,
        "player_name": "Jack Hammond",
        "rank": 40097,
        "rank_sort": 40298,
        "total": 2359
      },
      {
        "club_badge_src": null,
        "entry": 6727210,
        "entry_name": "1stDaPtsThenDaPints",
        "event_total": 63,
        "has_played": true,
        "id": 53842643,
        "last_rank": 48898,
        "player_name": "Luke Kerrigan",
        "rank": 40097,
        "rank_sort": 40299,
        "total": 2359
      },
      {
        "club_badge_src": null,
        "entry": 6815379,
        "entry_name": "Spearmint FC",
        "event_total": 60,
        "has_played": true,
        "id": 54583348,
        "last_rank": 44048,
        "player_name": "Paul Helme",
        "rank": 40097,
        "rank_sort": 40300,
        "total": 2359
      }
    ]
  }
}