{
  "last_updated_data": "2026-05-24T23:28:17Z",
  "league": {
    "admin_entry": null,
    "closed": false,
    "code_privacy": "p",
    "created": "2025-07-20T23:14:33.933835Z",
    "cup_league": 2815434,
    "has_cup": true,
    "id": 314,
    "league_type": "s",
    "max_entries": null,
    "name": "Overall",
    "rank": null,
    "scoring": "c",
    "start_event": 1
  },
  "new_entries": {
    "has_next": false,
    "page": 1,
    "results": []
  },
  "standings": {
    "has_next": true,
    "page": 1264,
    "results": [
      {
        "club_badge_src": null,
        "entry": 793406,
        "entry_name": "truffert dare",
        "event_total": 72,
        "has_played": true,
        "id": 5429667,
        "last_rank": 86735,
        "player_name": "Jimmy Upward",
        "rank": 63076,
        "rank_sort": 63151,
        "total": 2344
      },
      {
        "club_badge_src": null,
        "entry": 835776,
        "entry_name": "Sisi sino fc",
        "event_total": 66,
        "has_played": true,
        "id": 5725298,
        "last_rank": 82069,
        "player_name": "Moses Frank",
        "rank": 63076,
        "rank_sort": 63152,
        "total": 2344
      },
      {
        "club_badge_src": "https://fantasy.premierleague.com/gcs/plfpl-production-adobe-approved/plfpl-production/852099/4e3dc193-ae08-4815-9fa4-3a2479dcf908.png",
        "entry": 852099,
        "entry_name": "SF Dundo United",
        "event_total": 62,
        "has_played": true,
        "id": 5840625,
        "last_rank": 73720,
        "player_name": "Jabari Jemmott",
        "rank": 63076,
        "rank_sort": 63153,
        "total": 2344
      },
      {
        "club_badge_src": null,
        "entry": 872270,
        "entry_name": "Alan got wrong bacon",
        "event_total": 39,
        "has_played": true,
        "id": 5980122,
        "last_rank": 36831,
        "player_name": "Richard McDonald",
        "rank": 63076,
        "rank_sort": 63154,
        "total": 2344
      },
      {
        "club_badge_src": null,
        "entry": 876510,
        "entry_name": "Time to Shine",
        "event_total": 74,
        "has_played": true,
        "id": 6009366,
        "last_rank": 101419,
        "player_name": "Lawrie Scott",
        "rank": 63076,
        "rank_sort": 63155,
        "total": 2344
      },
      {
        "club_badge_src": null,
        "entry": 886041,
        "entry_name": "Sandnes Dreamkillers",
        "event_total": 54,
        "has_played": true,
        "id": 6076887,
        "last_rank": 58688,
        "player_name": "Even Sandnes",
        "rank": 63076,
        "rank_sort": 63156,
        "total": 2344
      },
      {
        "club_badge_src": null,
        "entry": 900998,
        "entry_name": "Loaded Irons",
        "event_total": 79,
        "has_played": true,
        "id": 6190747,
        "last_rank": 115421,
        "player_name": "paul terry",
        "rank": 63076,
        "rank_sort": 63157,
        "total": 2344
      },
      {
        "club_badge_src": "https://fantasy.premierleague.com/gcs/plfpl-production-adobe-approved/plfpl-production/903217/61828be8-2e8a-4788-877a-2e9408c06ba5.png",
        "entry": 903217,
        "entry_name": "Salah or haaland FC",
        "event_total": 60,
        "has_played": true,
        "id": 6206200,
        "last_rank": 69323,
        "player_name": "steven allcock",
        "rank": 63076,
        "rank_sort": 63158,
        "total": 2344
      },
      {
        "club_badge_src": null,
        "entry": 917080,
        "entry_name": "Thms the Frnk Engine",
        "event_total": 45,
        "has_played": true,
        "id": 6306460,
        "last_rank": 44525,
        "player_name": "Gary Fleet",
        "rank": 63076,
        "rank_sort": 63159,
        "total": 2344
      },
      {
        "club_badge_src": null,
        "entry": 925399,
        "entry_name": "2025 class",
        "event_total": 60,
        "has_played": true,
        "id": 6366206,
        "last_rank": 61950,
        "player_name": "Kir Roll",
        "rank": 63076,
        "rank_sort": 63160,
        "total": 2344
      },
      {
        "club_badge_src": "https://fantasy.premierleague.com/gcs/plfpl-production-adobe-approved/plfpl-production/926473/553dca1c-0712-42c6-992e-f536e825a865.png",
        "entry": 926473,
        "entry_name": "Boatmurdered",
        "event_total": 65,
        "has_played": true,
        "id": 6373758,
        "last_rank": 71386,
        "player_name": "Chris Doyle",
        "rank": 63076,
        "rank_sort": 63161,
        "total": 2344
      },
      {
        "club_badge_src": null,
        "entry": 952153,
        "entry_name": "Slaninari",
        "event_total": 63,
        "has_played": true,
        "id": 6560018,
        "last_rank": 67422,
        "player_name": "Jovan Pjevac",
        "rank": 63076,
        "rank_sort": 63162,
        "total": 2344
      },
      {
        "club_badge_src": null,
        "entry": 966425,
        "entry_name": "Rob 5back Holding",
        "event_total": 60,
        "has_played": true,
        "id": 6660689,
        "last_rank": 68957,
        "player_name": "Adam Boqvist Thiel",
        "rank": 63076,
        "rank_sort": 63163,
        "total": 2344
      },
      {
        "club_badge_src": null,
        "entry": 975380,
        "entry_name": "\u2764\ufe0f\u2764\ufe0f\u2764\ufe0f",
        "event_total": 64,
        "has_played": true,
        "id": 6723744,
        "last_rank": 77676,
        "player_name": "Mike Love",
        "rank": 63076,
        "rank_sort": 63164,
        "total": 2344
      },
      {
        "club_badge_src": null,
        "entry": 977774,
        "entry_name": "kathys back!!!",
        "event_total": 59,
        "has_played": true,
        "id": 6740765,
        "last_rank": 67695,
        "player_name": "Kathy Stafford",
        "rank": 63076,
        "rank_sort": 63165,
        "total": 2344
      },
      {
        "club_badge_src": null,
        "entry": 985403,
        "entry_name": "nope",
        "event_total": 62,
        "has_played": true,
        "id": 6794052,
        "last_rank": 73720,
        "player_name": "Alex Komissarenko",
        "rank": 63076,
        "rank_sort": 63166,
        "total": 2344
      },
      {
        "club_badge_src": null,
        "entry": 1007741,
        "entry_name": "FC Bislett",
        "event_total": 64,
        "has_played": true,
        "id": 6967179,
        "last_rank": 69323,
        "player_name": "Magnus Langberg",
        "rank": 63076,
        "rank_sort": 63167,
        "total": 2344
      },
      {
        "club_badge_src": "https://fantasy.premierleague.com/gcs/plfpl-production-adobe-approved/plfpl-production/1015524/587114a0-b3dc-4839-9bbc-880d0729eb4f.png",
        "entry": 1015524,
        "entry_name": "L\u00e9o F.R.",
        "event_total": 69,
        "has_played": true,
        "id": 7025409,
        "last_rank": 79817,
        "player_name": "Leonardo Zacarin",
        "rank": 63076,
        "rank_sort": 63168,
        "total": 2344
      },
      {
        "club_badge_src": null,
        "entry": 1021162,
        "entry_name": "Charli xGx",
        "event_total": 53,
        "has_played": true,
        "id": 7065035,
        "last_rank": 57001,
        "player_name": "Aaron Twomey",
        "rank": 63076,
        "rank_sort": 63169,
        "total": 2344
      },
      {
        "club_badge_src": null,
        "entry": 1030296,
        "entry_name": "Martin Ohdeargod",
        "event_total": 53,
        "has_played": true,
        "id": 7128455,
        "last_rank": 50199,
        "player_name": "Matteo Gomez Vella",
        "rank": 63076,
        "rank_sort": 63170,
        "total": 2344
      },
      {
        "club_badge_src": null,
        "entry": 1056296,
        "entry_name": "Same Old Mostakes",
        "event_total": 46,
        "has_played": true,
        "id": 7310153,
        "last_rank": 45927,
        "player_name": "Steven Shipley",
        "rank": 63076,
        "rank_sort": 63171,
        "total": 2344
      },
      {
        "club_badge_src": null,
        "entry": 1059103,
        "entry_name": "Magsunited",
        "event_total": 56,
        "has_played": true,
        "id": 7329693,
        "last_rank": 62223,
        "player_name": "Magne Unnerud",
        "rank": 63076,
        "rank_sort": 63172,
        "total": 2344
      },
      {
        "club_badge_src": null,
        "entry": 1145524,
        "entry_name": "Kryddans Kamrater",
        "event_total": 58,
        "has_played": true,
        "id": 7941875,
        "last_rank": 65796,
        "player_name": "Calle Ryding",
        "rank": 63076,
        "rank_sort": 63173,
        "total": 2344
      },
      {
        "club_badge_src": null,
        "entry": 1147061,
        "entry_name": "Jamal City",
        "event_total": 62,
        "has_played": true,
        "id": 7953070,
        "last_rank": 73038,
        "player_name": "Mladen Alimpic",
        "rank": 63076,
        "rank_sort": 63174,
        "total": 2344
      },
      {
        "club_badge_src": null,
        "entry": 1150854,
        "entry_name": "Lisglennon army",
        "event_total": 59,
        "has_played": true,
        "id": 7979535,
        "last_rank": 60168,
        "player_name": "Joe Murray",
        "rank": 63076,
        "rank_sort": 63175,
        "total": 2344
      },
      {
        "club_badge_src": "https://fantasy.premierleague.com/gcs/plfpl-production-adobe-approved/plfpl-production/1159290/6640de0d-804f-4148-9c43-e14a75b30d29.png",
        "entry": 1159290,
        "entry_name": "JURU KUNCI",
        "event_total": 43,
        "has_played": true,
        "id": 8040867,
        "last_rank": 41824,
        "player_name": "M Ruliyanto",
        "rank": 63076,
        "rank_sort": 63176,
        "total": 2344
      },
      {
        "club_badge_src": null,
        "entry": 1187747,
        "entry_name": "Tarquins titans",
        "event_total": 70,
        "has_played": true,
        "id": 8241145,
        "last_rank": 91835,
        "player_name": "Reece Davison",
        "rank": 63076,
        "rank_sort": 63177,
        "total": 2344
      },
      {
        "club_badge_src": "https://fantasy.premierleague.com/gcs/plfpl-production-adobe-approved/plfpl-production/1191518/e9c8b7af-2481-4c43-b20c-9b1ea0b51c48.png",
        "entry": 1191518,
        "entry_name": "GOAT",
        "event_total": 43,
        "has_played": true,
        "id": 8267219,
        "last_rank": 41617,
        "player_name": "Waleed Elyamane",
        "rank": 63076,
        "rank_sort": 63178,
        "total": 2344
      },
      {
        "club_badge_src": null,
        "entry": 1191697,
        "entry_name": "Benfica UK*",
        "event_total": 51,
        "has_played": true,
        "id": 8268516,
        "last_rank": 53345,
        "player_name": "Josimar Costa",
        "rank": 63076,
        "rank_sort": 63179,
        "total": 2344
      },
      {
        "club_badge_src": null,
        "entry": 1247567,
        "entry_name": "The Irn Bru's",
        "event_total": 50,
        "has_played": true,
        "id": 8664478,
        "last_rank": 51984,
        "player_name": "Jordan V",
        "rank": 63076,
        "rank_sort": 63180,
        "total": 2344
      },
      {
        "club_badge_src": null,
        "entry": 1256540,
        "entry_name": "Dominic solanky",
        "event_total": 41,
        "has_played": true,
        "id": 8728322,
        "last_rank": 39023,
        "player_name": "Dominic Pearson",
        "rank": 63076,
        "rank_sort": 63181,
        "total": 2344
      },
      {
        "club_badge_src": null,
        "entry": 1273660,
        "entry_name": "ladosnuse",
        "event_total": 55,
        "has_played": true,
        "id": 8849997,
        "last_rank": 60462,
        "player_name": "Mads Danielsen",
        "rank": 63076,
        "rank_sort": 63182,
        "total": 2344
      },
      {
        "club_badge_src": null,
        "entry": 1316214,
        "entry_name": "Haalandaise Sauce",
        "event_total": 48,
        "has_played": true,
        "id": 9148440,
        "last_rank": 42940,
        "player_name": "Nick Saich",
        "rank": 63076,
        "rank_sort": 63183,
        "total": 2344
      },
      {
        "club_badge_src": null,
        "entry": 1332806,
        "entry_name": "Lewis\u2019 Club",
        "event_total": 79,
        "has_played": true,
        "id": 9263818,
        "last_rank": 115421,
        "player_name": "Lewis Williams",
        "rank": 63076,
        "rank_sort": 63184,
        "total": 2344
      },
      {
        "club_badge_src": null,
        "entry": 1369316,
        "entry_name": "Aces07",
        "event_total": 55,
        "has_played": true,
        "id": 9518618,
        "last_rank": 60168,
        "player_name": "Sagar Mehta",
        "rank": 63076,
        "rank_sort": 63185,
        "total": 2344
      },
      {
        "club_badge_src": "https://fantasy.premierleague.com/gcs/plfpl-production-adobe-approved/plfpl-production/1385115/b1b3cc1d-4bfb-461f-a70a-fa542989da7c.png",
        "entry": 1385115,
        "entry_name": "ProhaskasXI",
        "event_total": 56,
        "has_played": true,
        "id": 9633658,
        "last_rank": 62223,
        "player_name": "Nico Votava",
        "rank": 63076,
        "rank_sort": 63186,
        "total": 2344
      },
      {
        "club_badge_src": "https://fantasy.premierleague.com/gcs/plfpl-production-adobe-approved/plfpl-production/1387964/dc8ad17c-f36c-46d3-87d5-4b72d305d134.png",
        "entry": 1387964,
        "entry_name": "2290 sjotten",
        "event_total": 54,
        "has_played": true,
        "id": 9654457,
        "last_rank": 58388,
        "player_name": "Lode Vermeiren",
        "rank": 63076,
        "rank_sort": 63187,
        "total": 2344
      },
      {
        "club_badge_src": "https://fantasy.premierleague.com/gcs/plfpl-production-adobe-approved/plfpl-production/1403683/faa81701-76ee-401c-be56-c5e65b04f78e.png",
        "entry": 1403683,
        "entry_name": "TOM",
        "event_total": 61,
        "has_played": true,
        "id": 9766653,
        "last_rank": 71713,
        "player_name": "Tom Burrows",
        "rank": 63076,
        "rank_sort": 63188,
        "total": 2344
      },
      {
        "club_badge_src": "https://fantasy.premierleague.com/gcs/plfpl-production-adobe-approved/plfpl-production/1407514/78f48fcc-457e-4fcb-934d-a0f2443fcf1e.png",
        "entry": 1407514,
        "entry_name": "I love you Mum!",
        "event_total": 55,
        "has_played": true,
        "id": 9793598,
        "last_rank": 60168,
        "player_name": "Peter Brookman",
        "rank": 63076,
        "rank_sort": 63189,
        "total": 2344
      },
      {
        "club_badge_src": null,
        "entry": 1412577,
        "entry_name": "Holm FC",
        "event_total": 63,
        "has_played": true,
        "id": 9830205,
        "last_rank": 67422,
        "player_name": "William Holm",
        "rank": 63076,
        "rank_sort": 63190,
        "total": 2344
      },
      {
        "club_badge_src": null,
        "entry": 1462413,
        "entry_name": "Blaze97one",
        "event_total": 67,
        "has_played": true,
        "id": 10193666,
        "last_rank": 84360,
        "player_name": "Alex Blaze",
        "rank": 63076,
        "rank_sort": 63191,
        "total": 2344
      },
      {
        "club_badge_src": null,
        "entry": 1462742,
        "entry_name": "Pontypool United",
        "event_total": 68,
        "has_played": true,
        "id": 10195930,
        "last_rank": 86735,
        "player_name": "Ralph Regan",
        "rank": 63076,
        "rank_sort": 63192,
        "total": 2344
      },
      {
        "club_badge_src": null,
        "entry": 1524084,
        "entry_name": "Boston FC",
        "event_total": 65,
        "has_played": true,
        "id": 10629990,
        "last_rank": 70985,
        "player_name": "Bill Franklin",
        "rank": 63076,
        "rank_sort": 63193,
        "total": 2344
      },
      {
        "club_badge_src": null,
        "entry": 1595619,
        "entry_name": "TheRedKop",
        "event_total": 49,
        "has_played": true,
        "id": 11161808,
        "last_rank": 50199,
        "player_name": "Dennis Niittykoski",
        "rank": 63076,
        "rank_sort": 63194,
        "total": 2344
      },
      {
        "club_badge_src": null,
        "entry": 1651431,
        "entry_name": "Mergong FT",
        "event_total": 71,
        "has_played": true,
        "id": 11561783,
        "last_rank": 94537,
        "player_name": "Mohd Amirul Faiz",
        "rank": 63076,
        "rank_sort": 63195,
        "total": 2344
      },
      {
        "club_badge_src": null,
        "entry": 1652256,
        "entry_name": "Ilam Final Boss",
        "event_total": 39,
        "has_played": true,
        "id": 11567612,
        "last_rank": 36831,
        "player_name": "Todd Jack",
        "rank": 63076,
        "rank_sort": 63196,
        "total": 2344
      },
      {
        "club_badge_src": null,
        "entry": 1687984,
        "entry_name": "JBC",
        "event_total": 49,
        "has_played": true,
        "id": 11816306,
        "last_rank": 44303,
        "player_name": "Kacper \u015aliwi\u0144ski",
        "rank": 63076,
        "rank_sort": 63197,
        "total": 2344
      },
      {
        "club_badge_src": "https://fantasy.premierleague.com/gcs/plfpl-production-adobe-approved/plfpl-production/1731273/42e60e1e-892c-48a9-a71c-d7ea2512a36c.png",
        "entry": 1731273,
        "entry_name": "Lirarnas Lag 1887",
        "event_total": 64,
        "has_played": true,
        "id": 12143420,
        "last_rank": 68957,
        "player_name": "Carl Bengtstr\u00f6m",
        "rank": 63076,
        "rank_sort": 63198,
        "total": 2344
      },
      {
        "club_badge_src": null,
        "entry": 1734897,
        "entry_name": "Know nothings",
        "event_total": 35,
        "has_played": true,
        "id": 12170758,
        "last_rank": 32190,
        "player_name": "Tony Phelan",
        "rank": 63076,
        "rank_sort": 63199,
        "total": 2344
      },
      {
        "club_badge_src": "https://fantasy.premierleague.com/gcs/plfpl-production-adobe-approved/plfpl-production/1737017/4ca23429-1297-42e3-82d9-fbb00120bf4f.png",
        "entry": 1737017,
        "entry_name": "Red Panda FC",
        "event_total": 79,
        "has_played": true,
        "id": 12186154,
        "last_rank": 115760,
        "player_name": "Gyan Awal",
        "rank": 63076,
        "rank_sort": 63200,
        "total": 2344
      }
    ]
  }
}