{
  "last_updated_data": "2026-05-24T23:28:17Z",
  "league": {
    "admin_entry": null,
    "closed": false,
    "code_privacy": "p",
    "created": "2025-07-20T23:14:33.933835Z",
    "cup_league": 2815434,
    "has_cup": true,
    "id": 314,
    "league_type": "s",
    "max_entries": null,
    "name": "Overall",
    "rank": null,
    "scoring": "c",
    "start_event": 1
  },
  "new_entries": {
    "has_next": false,
    "page": 1,
    "results": []
  },
  "standings": {
    "has_next": true,
    "page": 900,
    "results": [
      {
        "club_badge_src": null,
        "entry": 4482576,
        "entry_name": "Fifa123",
        "event_total": 73,
        "has_played": true,
        "id": 34164222,
        "last_rank": 72638,
        "player_name": "Andrew E",
        "rank": 44929,
        "rank_sort": 44951,
        "total": 2355
      },
      {
        "club_badge_src": "https://fantasy.premierleague.com/gcs/plfpl-production-adobe-approved/plfpl-production/4544435/59016d66-4c21-4df6-879d-c3ccd018cfbf.png",
        "entry": 4544435,
        "entry_name": "Star",
        "event_total": 58,
        "has_played": true,
        "id": 34671136,
        "last_rank": 46591,
        "player_name": "Surya Chidri",
        "rank": 44929,
        "rank_sort": 44952,
        "total": 2355
      },
      {
        "club_badge_src": null,
        "entry": 4728250,
        "entry_name": "Colorado Rox",
        "event_total": 45,
        "has_played": true,
        "id": 36357294,
        "last_rank": 30536,
        "player_name": "Eric Peavy",
        "rank": 44929,
        "rank_sort": 44953,
        "total": 2355
      },
      {
        "club_badge_src": null,
        "entry": 4860984,
        "entry_name": "SakaGold",
        "event_total": 48,
        "has_played": true,
        "id": 37460486,
        "last_rank": 33936,
        "player_name": "Bill Gough",
        "rank": 44929,
        "rank_sort": 44954,
        "total": 2355
      },
      {
        "club_badge_src": null,
        "entry": 4960510,
        "entry_name": "\u09b9\u09be\u09b8\u09bf\u09ae\u09c1\u0996",
        "event_total": 42,
        "has_played": true,
        "id": 38279240,
        "last_rank": 27585,
        "player_name": "Forhadul Islam",
        "rank": 44929,
        "rank_sort": 44955,
        "total": 2355
      },
      {
        "club_badge_src": null,
        "entry": 5088176,
        "entry_name": "Haaland down under",
        "event_total": 69,
        "has_played": true,
        "id": 39326633,
        "last_rank": 57743,
        "player_name": "liam woods",
        "rank": 44929,
        "rank_sort": 44956,
        "total": 2355
      },
      {
        "club_badge_src": null,
        "entry": 5260080,
        "entry_name": "hmmm",
        "event_total": 56,
        "has_played": true,
        "id": 40768048,
        "last_rank": 43849,
        "player_name": "Muhammad Rabiu",
        "rank": 44929,
        "rank_sort": 44957,
        "total": 2355
      },
      {
        "club_badge_src": "https://fantasy.premierleague.com/gcs/plfpl-production-adobe-approved/plfpl-production/5325198/aa77b1ea-87f4-40cd-91aa-08351a670a80.png",
        "entry": 5325198,
        "entry_name": "Ghost Fc",
        "event_total": 61,
        "has_played": true,
        "id": 41282097,
        "last_rank": 51112,
        "player_name": "Kofi Annan",
        "rank": 44929,
        "rank_sort": 44958,
        "total": 2355
      },
      {
        "club_badge_src": null,
        "entry": 5397186,
        "entry_name": "Ratzerputz FC",
        "event_total": 37,
        "has_played": true,
        "id": 41963014,
        "last_rank": 23230,
        "player_name": "Henrik Pedersen",
        "rank": 44929,
        "rank_sort": 44959,
        "total": 2355
      },
      {
        "club_badge_src": null,
        "entry": 5406110,
        "entry_name": "Still not a clue",
        "event_total": 72,
        "has_played": true,
        "id": 42037169,
        "last_rank": 70757,
        "player_name": "Catherine Hamer",
        "rank": 44929,
        "rank_sort": 44960,
        "total": 2355
      },
      {
        "club_badge_src": null,
        "entry": 5459930,
        "entry_name": "Mexicats FC",
        "event_total": 60,
        "has_played": true,
        "id": 42491282,
        "last_rank": 49572,
        "player_name": "Roberto Palacios",
        "rank": 44929,
        "rank_sort": 44961,
        "total": 2355
      },
      {
        "club_badge_src": null,
        "entry": 5562879,
        "entry_name": "Joe DePesciMode",
        "event_total": 62,
        "has_played": true,
        "id": 43430609,
        "last_rank": 52853,
        "player_name": "Phil Dunn",
        "rank": 44929,
        "rank_sort": 44962,
        "total": 2355
      },
      {
        "club_badge_src": null,
        "entry": 5873666,
        "entry_name": "M",
        "event_total": 56,
        "has_played": true,
        "id": 46135890,
        "last_rank": 43849,
        "player_name": "Moss McCarthy Pellay",
        "rank": 44929,
        "rank_sort": 44963,
        "total": 2355
      },
      {
        "club_badge_src": "https://fantasy.premierleague.com/gcs/plfpl-production-adobe-approved/plfpl-production/6016492/2bb7799e-bc88-4b99-aab3-0ac27d3e6857.png",
        "entry": 6016492,
        "entry_name": "LingLongAcademy",
        "event_total": 55,
        "has_played": true,
        "id": 47444278,
        "last_rank": 42434,
        "player_name": "Lara Gutmann",
        "rank": 44929,
        "rank_sort": 44964,
        "total": 2355
      },
      {
        "club_badge_src": null,
        "entry": 6554862,
        "entry_name": "PK Blinders",
        "event_total": 58,
        "has_played": true,
        "id": 52310429,
        "last_rank": 46660,
        "player_name": "Phil Kemble",
        "rank": 44929,
        "rank_sort": 44965,
        "total": 2355
      },
      {
        "club_badge_src": null,
        "entry": 6724084,
        "entry_name": "Zed's Reds",
        "event_total": 53,
        "has_played": true,
        "id": 53816377,
        "last_rank": 39874,
        "player_name": "Serdar Osman",
        "rank": 44929,
        "rank_sort": 44966,
        "total": 2355
      },
      {
        "club_badge_src": null,
        "entry": 6737584,
        "entry_name": "Obi Wan Chidobi",
        "event_total": 56,
        "has_played": true,
        "id": 53931938,
        "last_rank": 43786,
        "player_name": "Sam Dunstan",
        "rank": 44929,
        "rank_sort": 44967,
        "total": 2355
      },
      {
        "club_badge_src": null,
        "entry": 7076691,
        "entry_name": "Mohammed Bassam",
        "event_total": 43,
        "has_played": true,
        "id": 56952443,
        "last_rank": 28609,
        "player_name": "Mohammed Bassam",
        "rank": 44929,
        "rank_sort": 44968,
        "total": 2355
      },
      {
        "club_badge_src": null,
        "entry": 7546991,
        "entry_name": "Onana What's My Name",
        "event_total": 45,
        "has_played": true,
        "id": 61785192,
        "last_rank": 30600,
        "player_name": "Oscar Mackenzie",
        "rank": 44929,
        "rank_sort": 44969,
        "total": 2355
      },
      {
        "club_badge_src": null,
        "entry": 7720847,
        "entry_name": "Rice Rice Baby",
        "event_total": 35,
        "has_played": true,
        "id": 63358782,
        "last_rank": 21628,
        "player_name": "Philippe McAdams",
        "rank": 44929,
        "rank_sort": 44970,
        "total": 2355
      },
      {
        "club_badge_src": null,
        "entry": 7849562,
        "entry_name": "JCASS ALBION",
        "event_total": 70,
        "has_played": true,
        "id": 64528355,
        "last_rank": 66848,
        "player_name": "Joshua Adjei",
        "rank": 44929,
        "rank_sort": 44971,
        "total": 2355
      },
      {
        "club_badge_src": null,
        "entry": 7971871,
        "entry_name": "kristony",
        "event_total": 84,
        "has_played": true,
        "id": 65634934,
        "last_rank": 97982,
        "player_name": "Kristony Adusah",
        "rank": 44929,
        "rank_sort": 44972,
        "total": 2355
      },
      {
        "club_badge_src": null,
        "entry": 8380946,
        "entry_name": "TK's Team",
        "event_total": 55,
        "has_played": true,
        "id": 69500125,
        "last_rank": 42401,
        "player_name": "Tom Knight",
        "rank": 44929,
        "rank_sort": 44973,
        "total": 2355
      },
      {
        "club_badge_src": null,
        "entry": 8822742,
        "entry_name": "King's Kakadu",
        "event_total": 60,
        "has_played": true,
        "id": 73762733,
        "last_rank": 49691,
        "player_name": "Garry Phillios Phillip Gara",
        "rank": 44929,
        "rank_sort": 44974,
        "total": 2355
      },
      {
        "club_badge_src": null,
        "entry": 8998828,
        "entry_name": "Scaramoush",
        "event_total": 67,
        "has_played": true,
        "id": 75469383,
        "last_rank": 61227,
        "player_name": "John Udeze",
        "rank": 44929,
        "rank_sort": 44975,
        "total": 2355
      },
      {
        "club_badge_src": null,
        "entry": 9214064,
        "entry_name": "Zachs Lads",
        "event_total": 46,
        "has_played": true,
        "id": 77573326,
        "last_rank": 31620,
        "player_name": "Zach Eastern",
        "rank": 44929,
        "rank_sort": 44976,
        "total": 2355
      },
      {
        "club_badge_src": "https://fantasy.premierleague.com/gcs/plfpl-production-adobe-approved/plfpl-production/9288986/0ed6d63f-8fea-4573-958d-c4f28a51388a.png",
        "entry": 9288986,
        "entry_name": "billy's drenge",
        "event_total": 32,
        "has_played": true,
        "id": 78303807,
        "last_rank": 19432,
        "player_name": "William Birger Kastrupsen",
        "rank": 44929,
        "rank_sort": 44977,
        "total": 2355
      },
      {
        "club_badge_src": "https://fantasy.premierleague.com/gcs/plfpl-production-adobe-approved/plfpl-production/10/e63eb698-c9cb-42c5-bf29-3bc4dc5a4b4d.png",
        "entry": 10,
        "entry_name": "SSP",
        "event_total": 63,
        "has_played": true,
        "id": 55,
        "last_rank": 54494,
        "player_name": "Sachin Patel",
        "rank": 44978,
        "rank_sort": 44978,
        "total": 2355
      },
      {
        "club_badge_src": null,
        "entry": 1777,
        "entry_name": "First Place",
        "event_total": 52,
        "has_played": true,
        "id": 9889,
        "last_rank": 38774,
        "player_name": "Metab Al Saaq",
        "rank": 44978,
        "rank_sort": 44979,
        "total": 2355
      },
      {
        "club_badge_src": null,
        "entry": 6446,
        "entry_name": "The Lark Risers",
        "event_total": 64,
        "has_played": true,
        "id": 36989,
        "last_rank": 56369,
        "player_name": "Helen Preskey",
        "rank": 44978,
        "rank_sort": 44980,
        "total": 2355
      },
      {
        "club_badge_src": null,
        "entry": 18990,
        "entry_name": "Kays Guns",
        "event_total": 63,
        "has_played": true,
        "id": 118190,
        "last_rank": 54362,
        "player_name": "Keyur Patel",
        "rank": 44978,
        "rank_sort": 44981,
        "total": 2355
      },
      {
        "club_badge_src": null,
        "entry": 30506,
        "entry_name": "The Piqu\u00e9 Blinders",
        "event_total": 63,
        "has_played": true,
        "id": 193073,
        "last_rank": 54416,
        "player_name": "Christian Mills",
        "rank": 44978,
        "rank_sort": 44982,
        "total": 2355
      },
      {
        "club_badge_src": null,
        "entry": 44046,
        "entry_name": "Washington Gooners",
        "event_total": 66,
        "has_played": true,
        "id": 282199,
        "last_rank": 59496,
        "player_name": "Ivan Ondr\u00e1\u0161",
        "rank": 44978,
        "rank_sort": 44983,
        "total": 2355
      },
      {
        "club_badge_src": null,
        "entry": 48468,
        "entry_name": "Tretheweys XI",
        "event_total": 66,
        "has_played": true,
        "id": 311270,
        "last_rank": 59535,
        "player_name": "Bailey Trethewey",
        "rank": 44978,
        "rank_sort": 44984,
        "total": 2355
      },
      {
        "club_badge_src": "https://fantasy.premierleague.com/gcs/plfpl-production-adobe-approved/plfpl-production/53895/7708b668-b553-44f3-b306-0caad4c8daad.png",
        "entry": 53895,
        "entry_name": "\u00d8defans",
        "event_total": 68,
        "has_played": true,
        "id": 346842,
        "last_rank": 63080,
        "player_name": "Rhys Davis",
        "rank": 44978,
        "rank_sort": 44985,
        "total": 2355
      },
      {
        "club_badge_src": null,
        "entry": 53907,
        "entry_name": "not bad tbf FC",
        "event_total": 64,
        "has_played": true,
        "id": 346907,
        "last_rank": 56099,
        "player_name": "Euan Cullen",
        "rank": 44978,
        "rank_sort": 44986,
        "total": 2355
      },
      {
        "club_badge_src": null,
        "entry": 58262,
        "entry_name": "King Razor 21",
        "event_total": 66,
        "has_played": true,
        "id": 375317,
        "last_rank": 59496,
        "player_name": "Mathew Essau Dom",
        "rank": 44978,
        "rank_sort": 44987,
        "total": 2355
      },
      {
        "club_badge_src": "https://fantasy.premierleague.com/gcs/plfpl-production-adobe-approved/plfpl-production/79558/c307c97b-b18f-41b8-a616-3867a39c0de2.png",
        "entry": 79558,
        "entry_name": "No boost FC",
        "event_total": 53,
        "has_played": true,
        "id": 517478,
        "last_rank": 39784,
        "player_name": "Jack Ward",
        "rank": 44978,
        "rank_sort": 44988,
        "total": 2355
      },
      {
        "club_badge_src": null,
        "entry": 81197,
        "entry_name": "van de Friends",
        "event_total": 75,
        "has_played": true,
        "id": 528259,
        "last_rank": 77050,
        "player_name": "Ulrik Olsen",
        "rank": 44978,
        "rank_sort": 44989,
        "total": 2355
      },
      {
        "club_badge_src": null,
        "entry": 131969,
        "entry_name": "Mohamed Bala",
        "event_total": 52,
        "has_played": true,
        "id": 859711,
        "last_rank": 38774,
        "player_name": "Iwan Jones",
        "rank": 44978,
        "rank_sort": 44990,
        "total": 2355
      },
      {
        "club_badge_src": null,
        "entry": 161806,
        "entry_name": "I M B A B O Y S",
        "event_total": 55,
        "has_played": true,
        "id": 1066217,
        "last_rank": 42506,
        "player_name": "Vincent Schau Arntsen",
        "rank": 44978,
        "rank_sort": 44991,
        "total": 2355
      },
      {
        "club_badge_src": null,
        "entry": 188309,
        "entry_name": "Wirtz like a charm",
        "event_total": 55,
        "has_played": true,
        "id": 1245727,
        "last_rank": 42434,
        "player_name": "Marco Bonandrini",
        "rank": 44978,
        "rank_sort": 44992,
        "total": 2355
      },
      {
        "club_badge_src": null,
        "entry": 329683,
        "entry_name": "4*Marty FC",
        "event_total": 68,
        "has_played": true,
        "id": 2208445,
        "last_rank": 63117,
        "player_name": "Martin Allan",
        "rank": 44978,
        "rank_sort": 44993,
        "total": 2355
      },
      {
        "club_badge_src": "https://fantasy.premierleague.com/gcs/plfpl-production-adobe-approved/plfpl-production/360190/8d5bff9e-7a55-49c1-80d1-56be3ffa289a.png",
        "entry": 360190,
        "entry_name": "Dyrstad Park Rangers",
        "event_total": 45,
        "has_played": true,
        "id": 2410205,
        "last_rank": 30727,
        "player_name": "Adrian Dyrstad",
        "rank": 44978,
        "rank_sort": 44994,
        "total": 2355
      },
      {
        "club_badge_src": "https://fantasy.premierleague.com/gcs/plfpl-production-adobe-approved/plfpl-production/486314/14869a21-73cd-4cd1-9210-48a09e1fa63e.png",
        "entry": 486314,
        "entry_name": "Pocketvalley Farmers",
        "event_total": 49,
        "has_played": true,
        "id": 3264862,
        "last_rank": 35166,
        "player_name": "Trygve M\u00f8rch Moen",
        "rank": 44978,
        "rank_sort": 44995,
        "total": 2355
      },
      {
        "club_badge_src": null,
        "entry": 544341,
        "entry_name": "CalaFleur",
        "event_total": 59,
        "has_played": true,
        "id": 3663379,
        "last_rank": 48197,
        "player_name": "Julia Huzarska",
        "rank": 44978,
        "rank_sort": 44996,
        "total": 2355
      },
      {
        "club_badge_src": null,
        "entry": 548233,
        "entry_name": "VolleyBallz",
        "event_total": 52,
        "has_played": true,
        "id": 3689624,
        "last_rank": 38571,
        "player_name": "Ali Mitchell",
        "rank": 44978,
        "rank_sort": 44997,
        "total": 2355
      },
      {
        "club_badge_src": null,
        "entry": 587657,
        "entry_name": "Buenos Dias",
        "event_total": 60,
        "has_played": true,
        "id": 3956174,
        "last_rank": 49572,
        "player_name": "Becky Harrison",
        "rank": 44978,
        "rank_sort": 44998,
        "total": 2355
      },
      {
        "club_badge_src": "https://fantasy.premierleague.com/gcs/plfpl-production-adobe-approved/plfpl-production/741781/83edd80c-b27b-4a08-8be5-6a3082fe4d79.png",
        "entry": 741781,
        "entry_name": "Szobozlight-year",
        "event_total": 44,
        "has_played": true,
        "id": 5045263,
        "last_rank": 29688,
        "player_name": "Dan Lowes",
        "rank": 44978,
        "rank_sort": 44999,
        "total": 2355
      },
      {
        "club_badge_src": null,
        "entry": 788105,
        "entry_name": "Mandaflorian",
        "event_total": 45,
        "has_played": true,
        "id": 5389088,
        "last_rank": 30600,
        "player_name": "Oliver Tam",
        "rank": 44978,
        "rank_sort": 45000,
        "total": 2355
      }
    ]
  }
}