{
  "last_updated_data": "2026-05-24T23:28:17Z",
  "league": {
    "admin_entry": null,
    "closed": false,
    "code_privacy": "p",
    "created": "2025-07-20T23:14:33.933835Z",
    "cup_league": 2815434,
    "has_cup": true,
    "id": 314,
    "league_type": "s",
    "max_entries": null,
    "name": "Overall",
    "rank": null,
    "scoring": "c",
    "start_event": 1
  },
  "new_entries": {
    "has_next": false,
    "page": 1,
    "results": []
  },
  "standings": {
    "has_next": true,
    "page": 155,
    "results": [
      {
        "club_badge_src": null,
        "entry": 42278,
        "entry_name": "Tikka no salah",
        "event_total": 67,
        "has_played": true,
        "id": 270901,
        "last_rank": 11034,
        "player_name": "Adrian garshol",
        "rank": 7701,
        "rank_sort": 7701,
        "total": 2405
      },
      {
        "club_badge_src": null,
        "entry": 157301,
        "entry_name": "Nik Pope Shall Dance",
        "event_total": 67,
        "has_played": true,
        "id": 1034795,
        "last_rank": 11058,
        "player_name": "Willie Baloyi",
        "rank": 7701,
        "rank_sort": 7702,
        "total": 2405
      },
      {
        "club_badge_src": null,
        "entry": 234646,
        "entry_name": "Bowling Googlies",
        "event_total": 58,
        "has_played": true,
        "id": 1561341,
        "last_rank": 7501,
        "player_name": "Ollie Oakley",
        "rank": 7701,
        "rank_sort": 7703,
        "total": 2405
      },
      {
        "club_badge_src": null,
        "entry": 610793,
        "entry_name": "Ashbourne Astros",
        "event_total": 58,
        "has_played": true,
        "id": 4126731,
        "last_rank": 7547,
        "player_name": "Damien McGuigan",
        "rank": 7701,
        "rank_sort": 7704,
        "total": 2405
      },
      {
        "club_badge_src": null,
        "entry": 744069,
        "entry_name": "CapkinFPL",
        "event_total": 51,
        "has_played": true,
        "id": 5061428,
        "last_rank": 4644,
        "player_name": "Capkin FPL",
        "rank": 7701,
        "rank_sort": 7705,
        "total": 2405
      },
      {
        "club_badge_src": null,
        "entry": 1142362,
        "entry_name": "FC Freedom",
        "event_total": 67,
        "has_played": true,
        "id": 7918677,
        "last_rank": 11058,
        "player_name": "Jan Busljeta",
        "rank": 7701,
        "rank_sort": 7706,
        "total": 2405
      },
      {
        "club_badge_src": null,
        "entry": 1367399,
        "entry_name": "Hano",
        "event_total": 62,
        "has_played": true,
        "id": 9505536,
        "last_rank": 7535,
        "player_name": "Muhannad Eldaly",
        "rank": 7701,
        "rank_sort": 7707,
        "total": 2405
      },
      {
        "club_badge_src": null,
        "entry": 2472885,
        "entry_name": "Prawn Sandwich 11",
        "event_total": 66,
        "has_played": true,
        "id": 17691579,
        "last_rank": 8925,
        "player_name": "Pat Gannon",
        "rank": 7701,
        "rank_sort": 7708,
        "total": 2405
      },
      {
        "club_badge_src": null,
        "entry": 4552352,
        "entry_name": "TeamHenko",
        "event_total": 56,
        "has_played": true,
        "id": 34735029,
        "last_rank": 6949,
        "player_name": "Victor Henningsson",
        "rank": 7701,
        "rank_sort": 7709,
        "total": 2405
      },
      {
        "club_badge_src": "https://fantasy.premierleague.com/gcs/plfpl-production-adobe-approved/plfpl-production/5310238/f04739d4-5f2c-4ede-a220-3e4103e5412b.png",
        "entry": 5310238,
        "entry_name": "Ashry",
        "event_total": 63,
        "has_played": true,
        "id": 41163006,
        "last_rank": 9382,
        "player_name": "Islam Ashry",
        "rank": 7701,
        "rank_sort": 7710,
        "total": 2405
      },
      {
        "club_badge_src": null,
        "entry": 6329177,
        "entry_name": "Gro\u00df Misconduct",
        "event_total": 71,
        "has_played": true,
        "id": 50292799,
        "last_rank": 11034,
        "player_name": "Liam OBrien",
        "rank": 7701,
        "rank_sort": 7711,
        "total": 2405
      },
      {
        "club_badge_src": null,
        "entry": 7174572,
        "entry_name": "The Glizzies",
        "event_total": 63,
        "has_played": true,
        "id": 57895744,
        "last_rank": 9382,
        "player_name": "Paul Collins",
        "rank": 7701,
        "rank_sort": 7712,
        "total": 2405
      },
      {
        "club_badge_src": "https://fantasy.premierleague.com/gcs/plfpl-production-adobe-approved/plfpl-production/2443/dbd04ed5-5704-4778-8fc3-dc01963186cf.png",
        "entry": 2443,
        "entry_name": "Cooler than Osula \u2744\ufe0f",
        "event_total": 56,
        "has_played": true,
        "id": 13622,
        "last_rank": 6964,
        "player_name": "Graham Ternent",
        "rank": 7713,
        "rank_sort": 7713,
        "total": 2405
      },
      {
        "club_badge_src": null,
        "entry": 7797,
        "entry_name": "T7 Eleven",
        "event_total": 59,
        "has_played": true,
        "id": 44998,
        "last_rank": 6637,
        "player_name": "Utku Toprakseven",
        "rank": 7713,
        "rank_sort": 7714,
        "total": 2405
      },
      {
        "club_badge_src": "https://fantasy.premierleague.com/gcs/plfpl-production-adobe-approved/plfpl-production/357157/934a0249-06b7-4a7b-a13c-1b36ef99232f.png",
        "entry": 357157,
        "entry_name": "BARBARIAN ATTACK \u2694\ufe0f",
        "event_total": 55,
        "has_played": true,
        "id": 2390132,
        "last_rank": 6647,
        "player_name": "Alex Mutua",
        "rank": 7713,
        "rank_sort": 7715,
        "total": 2405
      },
      {
        "club_badge_src": "https://fantasy.premierleague.com/gcs/plfpl-production-adobe-approved/plfpl-production/423835/2da4f386-1930-4722-83ac-b62cfdf16131.png",
        "entry": 423835,
        "entry_name": "RedDevils",
        "event_total": 70,
        "has_played": true,
        "id": 2840512,
        "last_rank": 12512,
        "player_name": "Sprincenat Daniel",
        "rank": 7713,
        "rank_sort": 7716,
        "total": 2405
      },
      {
        "club_badge_src": "https://fantasy.premierleague.com/gcs/plfpl-production-adobe-approved/plfpl-production/1073340/05648ea8-c592-4d7a-9854-d72699b3d43e.png",
        "entry": 1073340,
        "entry_name": "TrippinSwitches",
        "event_total": 48,
        "has_played": true,
        "id": 7430841,
        "last_rank": 4889,
        "player_name": "Eoghan Keenan",
        "rank": 7713,
        "rank_sort": 7717,
        "total": 2405
      },
      {
        "club_badge_src": null,
        "entry": 1166255,
        "entry_name": "ared mama",
        "event_total": 68,
        "has_played": true,
        "id": 8090252,
        "last_rank": 11536,
        "player_name": "mohammed waleed",
        "rank": 7713,
        "rank_sort": 7718,
        "total": 2405
      },
      {
        "club_badge_src": null,
        "entry": 1805375,
        "entry_name": "For Fun \u2665\ufe0f\u26bd",
        "event_total": 56,
        "has_played": true,
        "id": 12692095,
        "last_rank": 4866,
        "player_name": "Steven Essam",
        "rank": 7713,
        "rank_sort": 7719,
        "total": 2405
      },
      {
        "club_badge_src": null,
        "entry": 2649478,
        "entry_name": "Free Range Kitties",
        "event_total": 63,
        "has_played": true,
        "id": 19043945,
        "last_rank": 9382,
        "player_name": "Anthony Deslauriers",
        "rank": 7713,
        "rank_sort": 7720,
        "total": 2405
      },
      {
        "club_badge_src": null,
        "entry": 4592691,
        "entry_name": "jacks XI",
        "event_total": 78,
        "has_played": true,
        "id": 35072407,
        "last_rank": 17194,
        "player_name": "Jack Anderton",
        "rank": 7713,
        "rank_sort": 7721,
        "total": 2405
      },
      {
        "club_badge_src": null,
        "entry": 5817609,
        "entry_name": "CarryOnMyWaywardSon",
        "event_total": 51,
        "has_played": true,
        "id": 45651405,
        "last_rank": 5591,
        "player_name": "Justin Davies",
        "rank": 7713,
        "rank_sort": 7722,
        "total": 2405
      },
      {
        "club_badge_src": null,
        "entry": 5943545,
        "entry_name": "Oldman Arthritic",
        "event_total": 72,
        "has_played": true,
        "id": 46741110,
        "last_rank": 13629,
        "player_name": "Alexis Delevante",
        "rank": 7713,
        "rank_sort": 7723,
        "total": 2405
      },
      {
        "club_badge_src": null,
        "entry": 6619921,
        "entry_name": "A Cunha Mateta",
        "event_total": 77,
        "has_played": true,
        "id": 52899151,
        "last_rank": 14148,
        "player_name": "Matt Pearson",
        "rank": 7713,
        "rank_sort": 7724,
        "total": 2405
      },
      {
        "club_badge_src": null,
        "entry": 7057702,
        "entry_name": "Tip my hato you",
        "event_total": 76,
        "has_played": true,
        "id": 56771920,
        "last_rank": 15920,
        "player_name": "Will Galpin",
        "rank": 7713,
        "rank_sort": 7725,
        "total": 2405
      },
      {
        "club_badge_src": null,
        "entry": 9042798,
        "entry_name": "I\u2019m not a Baleba",
        "event_total": 72,
        "has_played": true,
        "id": 75894916,
        "last_rank": 11482,
        "player_name": "Ravi U",
        "rank": 7713,
        "rank_sort": 7726,
        "total": 2405
      },
      {
        "club_badge_src": null,
        "entry": 5188,
        "entry_name": "gamesgone",
        "event_total": 58,
        "has_played": true,
        "id": 29573,
        "last_rank": 6347,
        "player_name": "Suraj K",
        "rank": 7727,
        "rank_sort": 7727,
        "total": 2405
      },
      {
        "club_badge_src": "https://fantasy.premierleague.com/gcs/plfpl-production-adobe-approved/plfpl-production/138962/026129a3-8039-42d8-b726-e1e2d6613566.png",
        "entry": 138962,
        "entry_name": "Wissa Matter",
        "event_total": 66,
        "has_played": true,
        "id": 906769,
        "last_rank": 10676,
        "player_name": "Jack Stanners",
        "rank": 7727,
        "rank_sort": 7728,
        "total": 2405
      },
      {
        "club_badge_src": null,
        "entry": 368472,
        "entry_name": "Theatre of Dreams",
        "event_total": 58,
        "has_played": true,
        "id": 2465854,
        "last_rank": 7573,
        "player_name": "yousef ali",
        "rank": 7727,
        "rank_sort": 7729,
        "total": 2405
      },
      {
        "club_badge_src": null,
        "entry": 448925,
        "entry_name": "AN Others",
        "event_total": 58,
        "has_played": true,
        "id": 3011766,
        "last_rank": 6362,
        "player_name": "Brian Bell",
        "rank": 7727,
        "rank_sort": 7730,
        "total": 2405
      },
      {
        "club_badge_src": null,
        "entry": 589047,
        "entry_name": "Fraud FC",
        "event_total": 74,
        "has_played": true,
        "id": 3967045,
        "last_rank": 12537,
        "player_name": "Marshall Bush",
        "rank": 7727,
        "rank_sort": 7731,
        "total": 2405
      },
      {
        "club_badge_src": null,
        "entry": 4789240,
        "entry_name": "Kj\u00f8terne",
        "event_total": 46,
        "has_played": true,
        "id": 36869890,
        "last_rank": 4445,
        "player_name": "Trym Nagelstad",
        "rank": 7727,
        "rank_sort": 7732,
        "total": 2405
      },
      {
        "club_badge_src": null,
        "entry": 4858232,
        "entry_name": "Kankola FC",
        "event_total": 61,
        "has_played": true,
        "id": 37436623,
        "last_rank": 8638,
        "player_name": "Allu Koski",
        "rank": 7727,
        "rank_sort": 7733,
        "total": 2405
      },
      {
        "club_badge_src": null,
        "entry": 7932271,
        "entry_name": "Oday Al-hashmi",
        "event_total": 33,
        "has_played": true,
        "id": 65281317,
        "last_rank": 2382,
        "player_name": "Oday Alsyed",
        "rank": 7727,
        "rank_sort": 7734,
        "total": 2405
      },
      {
        "club_badge_src": "https://fantasy.premierleague.com/gcs/plfpl-production-adobe-approved/plfpl-production/8149140/c37bb32f-44e5-4e2f-bebb-d17da03466a9.png",
        "entry": 8149140,
        "entry_name": "Net six and chill",
        "event_total": 62,
        "has_played": true,
        "id": 67260798,
        "last_rank": 5313,
        "player_name": "Sara Haller",
        "rank": 7727,
        "rank_sort": 7735,
        "total": 2405
      },
      {
        "club_badge_src": null,
        "entry": 2765395,
        "entry_name": "\u6ca1\u6709\u5144\u5f1f\u4e5f\u80fd\u73a9",
        "event_total": 56,
        "has_played": true,
        "id": 20175771,
        "last_rank": 6970,
        "player_name": "Yifan Yang",
        "rank": 7736,
        "rank_sort": 7736,
        "total": 2405
      },
      {
        "club_badge_src": null,
        "entry": 7975421,
        "entry_name": "My knees gone",
        "event_total": 80,
        "has_played": true,
        "id": 65666648,
        "last_rank": 15952,
        "player_name": "Kale Holloway",
        "rank": 7736,
        "rank_sort": 7737,
        "total": 2405
      },
      {
        "club_badge_src": null,
        "entry": 8380,
        "entry_name": "Fried Rice FC",
        "event_total": 57,
        "has_played": true,
        "id": 48688,
        "last_rank": 5109,
        "player_name": "Otto Taube Rehnmark",
        "rank": 7738,
        "rank_sort": 7738,
        "total": 2405
      },
      {
        "club_badge_src": "https://fantasy.premierleague.com/gcs/plfpl-production-adobe-approved/plfpl-production/1178859/c868f12b-5c2b-4a73-bcbc-9e0af61d7fa1.png",
        "entry": 1178859,
        "entry_name": "Wirtz of Wisdom",
        "event_total": 56,
        "has_played": true,
        "id": 8179454,
        "last_rank": 5870,
        "player_name": "Luuk Rensink",
        "rank": 7738,
        "rank_sort": 7739,
        "total": 2405
      },
      {
        "club_badge_src": null,
        "entry": 1265331,
        "entry_name": "Bruno the dog",
        "event_total": 66,
        "has_played": true,
        "id": 8791669,
        "last_rank": 7573,
        "player_name": "Mathias Haave",
        "rank": 7738,
        "rank_sort": 7740,
        "total": 2405
      },
      {
        "club_badge_src": null,
        "entry": 2309291,
        "entry_name": "Springdale Utd",
        "event_total": 62,
        "has_played": true,
        "id": 16472023,
        "last_rank": 7579,
        "player_name": "Sacha Lamoureux",
        "rank": 7738,
        "rank_sort": 7741,
        "total": 2405
      },
      {
        "club_badge_src": null,
        "entry": 4011008,
        "entry_name": "Max and Maeve WWA",
        "event_total": 76,
        "has_played": true,
        "id": 30222050,
        "last_rank": 15993,
        "player_name": "Stuart Wright",
        "rank": 7738,
        "rank_sort": 7742,
        "total": 2405
      },
      {
        "club_badge_src": null,
        "entry": 553819,
        "entry_name": "Tarzan",
        "event_total": 67,
        "has_played": true,
        "id": 3727536,
        "last_rank": 11120,
        "player_name": "Mhmd Aboela",
        "rank": 7743,
        "rank_sort": 7743,
        "total": 2405
      },
      {
        "club_badge_src": "https://fantasy.premierleague.com/gcs/plfpl-production-adobe-approved/plfpl-production/2992355/a3ed58ee-9246-455f-b84d-2f35b73ae5c8.png",
        "entry": 2992355,
        "entry_name": "Terrors",
        "event_total": 64,
        "has_played": true,
        "id": 22007882,
        "last_rank": 6974,
        "player_name": "Christopher Ford",
        "rank": 7743,
        "rank_sort": 7744,
        "total": 2405
      },
      {
        "club_badge_src": null,
        "entry": 5081521,
        "entry_name": "M4nUnit3d",
        "event_total": 96,
        "has_played": true,
        "id": 39273706,
        "last_rank": 21510,
        "player_name": "Sabin Giri",
        "rank": 7743,
        "rank_sort": 7745,
        "total": 2405
      },
      {
        "club_badge_src": null,
        "entry": 855979,
        "entry_name": "mayenda \u0627\u0644\u062d\u064a\u0646\u0627\u0648\u064a",
        "event_total": 70,
        "has_played": true,
        "id": 5867297,
        "last_rank": 10690,
        "player_name": "Wajih Hachicha",
        "rank": 7746,
        "rank_sort": 7746,
        "total": 2405
      },
      {
        "club_badge_src": null,
        "entry": 1641592,
        "entry_name": "nepal united",
        "event_total": 60,
        "has_played": true,
        "id": 11491287,
        "last_rank": 6981,
        "player_name": "Aditya Poudel",
        "rank": 7746,
        "rank_sort": 7747,
        "total": 2405
      },
      {
        "club_badge_src": "https://fantasy.premierleague.com/gcs/plfpl-production-adobe-approved/plfpl-production/2419223/4805e0e3-552e-4587-80cc-86f3db9813f9.png",
        "entry": 2419223,
        "entry_name": "Rojiblancos",
        "event_total": 71,
        "has_played": true,
        "id": 17294831,
        "last_rank": 11120,
        "player_name": "Davit Keshelava",
        "rank": 7746,
        "rank_sort": 7748,
        "total": 2405
      },
      {
        "club_badge_src": null,
        "entry": 5012850,
        "entry_name": "PatchFC",
        "event_total": 53,
        "has_played": true,
        "id": 38710451,
        "last_rank": 6135,
        "player_name": "Joe Patching",
        "rank": 7746,
        "rank_sort": 7749,
        "total": 2405
      },
      {
        "club_badge_src": null,
        "entry": 58575,
        "entry_name": "GET IN",
        "event_total": 62,
        "has_played": true,
        "id": 377275,
        "last_rank": 7583,
        "player_name": "Casper Lundgren",
        "rank": 7750,
        "rank_sort": 7750,
        "total": 2405
      }
    ]
  }
}