{
  "last_updated_data": "2026-05-24T23:28:17Z",
  "league": {
    "admin_entry": null,
    "closed": false,
    "code_privacy": "p",
    "created": "2025-07-20T23:14:33.933835Z",
    "cup_league": 2815434,
    "has_cup": true,
    "id": 314,
    "league_type": "s",
    "max_entries": null,
    "name": "Overall",
    "rank": null,
    "scoring": "c",
    "start_event": 1
  },
  "new_entries": {
    "has_next": false,
    "page": 1,
    "results": []
  },
  "standings": {
    "has_next": true,
    "page": 977,
    "results": [
      {
        "club_badge_src": null,
        "entry": 6013115,
        "entry_name": "Whatsinaname",
        "event_total": 66,
        "has_played": true,
        "id": 47414400,
        "last_rank": 57001,
        "player_name": "George T Cherian",
        "rank": 48669,
        "rank_sort": 48801,
        "total": 2353
      },
      {
        "club_badge_src": null,
        "entry": 6107982,
        "entry_name": "Dying for Sels",
        "event_total": 41,
        "has_played": true,
        "id": 48245933,
        "last_rank": 29199,
        "player_name": "Chris O'Halloran",
        "rank": 48669,
        "rank_sort": 48802,
        "total": 2353
      },
      {
        "club_badge_src": null,
        "entry": 6168677,
        "entry_name": "Bad to the Bowen",
        "event_total": 73,
        "has_played": true,
        "id": 48774348,
        "last_rank": 78440,
        "player_name": "Nick Gillard",
        "rank": 48669,
        "rank_sort": 48803,
        "total": 2353
      },
      {
        "club_badge_src": null,
        "entry": 6267120,
        "entry_name": "Shaylaaa Land",
        "event_total": 66,
        "has_played": true,
        "id": 49624702,
        "last_rank": 57001,
        "player_name": "Lidya Sol",
        "rank": 48669,
        "rank_sort": 48804,
        "total": 2353
      },
      {
        "club_badge_src": null,
        "entry": 6652661,
        "entry_name": "The New Lion",
        "event_total": 69,
        "has_played": true,
        "id": 53186533,
        "last_rank": 69641,
        "player_name": "Andrew Hunter",
        "rank": 48669,
        "rank_sort": 48805,
        "total": 2353
      },
      {
        "club_badge_src": null,
        "entry": 6797284,
        "entry_name": "FC Neustadt",
        "event_total": 63,
        "has_played": true,
        "id": 54434175,
        "last_rank": 58911,
        "player_name": "Maciej Bacia",
        "rank": 48669,
        "rank_sort": 48806,
        "total": 2353
      },
      {
        "club_badge_src": null,
        "entry": 6895773,
        "entry_name": "bou3a",
        "event_total": 47,
        "has_played": true,
        "id": 55269039,
        "last_rank": 35768,
        "player_name": "Bouabdallah Abderrahmene",
        "rank": 48669,
        "rank_sort": 48807,
        "total": 2353
      },
      {
        "club_badge_src": null,
        "entry": 7060415,
        "entry_name": "El3alamy",
        "event_total": 55,
        "has_played": true,
        "id": 56799343,
        "last_rank": 40503,
        "player_name": "Mohamed Elalamy",
        "rank": 48669,
        "rank_sort": 48808,
        "total": 2353
      },
      {
        "club_badge_src": null,
        "entry": 7271311,
        "entry_name": "Baino Beauts",
        "event_total": 61,
        "has_played": true,
        "id": 58805025,
        "last_rank": 55659,
        "player_name": "Paul Bainbridge",
        "rank": 48669,
        "rank_sort": 48809,
        "total": 2353
      },
      {
        "club_badge_src": null,
        "entry": 7395832,
        "entry_name": "Red Devils",
        "event_total": 61,
        "has_played": true,
        "id": 59975557,
        "last_rank": 54667,
        "player_name": "Anton Makarov",
        "rank": 48669,
        "rank_sort": 48810,
        "total": 2353
      },
      {
        "club_badge_src": null,
        "entry": 7405192,
        "entry_name": "lawdoggs",
        "event_total": 55,
        "has_played": true,
        "id": 60062132,
        "last_rank": 45927,
        "player_name": "Ciaran Lawlor",
        "rank": 48669,
        "rank_sort": 48811,
        "total": 2353
      },
      {
        "club_badge_src": null,
        "entry": 7472358,
        "entry_name": "AI Unbeatables",
        "event_total": 66,
        "has_played": true,
        "id": 60926225,
        "last_rank": 56708,
        "player_name": "Rishi Bhatia",
        "rank": 48669,
        "rank_sort": 48812,
        "total": 2353
      },
      {
        "club_badge_src": null,
        "entry": 7561385,
        "entry_name": "The Donny Lockwoods",
        "event_total": 43,
        "has_played": true,
        "id": 61914312,
        "last_rank": 31309,
        "player_name": "Rory Donald",
        "rank": 48669,
        "rank_sort": 48813,
        "total": 2353
      },
      {
        "club_badge_src": null,
        "entry": 8100844,
        "entry_name": "sena FC",
        "event_total": 59,
        "has_played": true,
        "id": 66809078,
        "last_rank": 52205,
        "player_name": "Sena Bright",
        "rank": 48669,
        "rank_sort": 48814,
        "total": 2353
      },
      {
        "club_badge_src": null,
        "entry": 8504578,
        "entry_name": "FPLkaju",
        "event_total": 65,
        "has_played": true,
        "id": 70682026,
        "last_rank": 62223,
        "player_name": "vik guleria",
        "rank": 48669,
        "rank_sort": 48815,
        "total": 2353
      },
      {
        "club_badge_src": null,
        "entry": 8505954,
        "entry_name": "HawkingDanceSchool",
        "event_total": 57,
        "has_played": true,
        "id": 70695212,
        "last_rank": 49207,
        "player_name": "CallumLewis Collins",
        "rank": 48669,
        "rank_sort": 48816,
        "total": 2353
      },
      {
        "club_badge_src": null,
        "entry": 8512548,
        "entry_name": "We've won it all. \u2661",
        "event_total": 59,
        "has_played": true,
        "id": 70759362,
        "last_rank": 45927,
        "player_name": "Marijan Rado\u0161",
        "rank": 48669,
        "rank_sort": 48817,
        "total": 2353
      },
      {
        "club_badge_src": null,
        "entry": 8513029,
        "entry_name": "mirahmetjan",
        "event_total": 61,
        "has_played": true,
        "id": 70764048,
        "last_rank": 55311,
        "player_name": "Harrison Chandler",
        "rank": 48669,
        "rank_sort": 48818,
        "total": 2353
      },
      {
        "club_badge_src": null,
        "entry": 8952085,
        "entry_name": "JUBA",
        "event_total": 64,
        "has_played": true,
        "id": 75020032,
        "last_rank": 53621,
        "player_name": "Mohamed Hesham",
        "rank": 48669,
        "rank_sort": 48819,
        "total": 2353
      },
      {
        "club_badge_src": null,
        "entry": 9176752,
        "entry_name": "???",
        "event_total": 47,
        "has_played": true,
        "id": 77204079,
        "last_rank": 35768,
        "player_name": "Mathias Hetland",
        "rank": 48669,
        "rank_sort": 48820,
        "total": 2353
      },
      {
        "club_badge_src": null,
        "entry": 9345043,
        "entry_name": "Azmy",
        "event_total": 70,
        "has_played": true,
        "id": 78840330,
        "last_rank": 64005,
        "player_name": "Ahmed Azmy",
        "rank": 48669,
        "rank_sort": 48821,
        "total": 2353
      },
      {
        "club_badge_src": null,
        "entry": 21116,
        "entry_name": "Snoop Udogie",
        "event_total": 64,
        "has_played": true,
        "id": 132364,
        "last_rank": 53621,
        "player_name": "Dan West",
        "rank": 48822,
        "rank_sort": 48822,
        "total": 2353
      },
      {
        "club_badge_src": null,
        "entry": 26227,
        "entry_name": "RiceRiceBaby",
        "event_total": 64,
        "has_played": true,
        "id": 165816,
        "last_rank": 53621,
        "player_name": "Saud Alkatheeri",
        "rank": 48822,
        "rank_sort": 48823,
        "total": 2353
      },
      {
        "club_badge_src": "https://fantasy.premierleague.com/gcs/plfpl-production-adobe-approved/plfpl-production/30194/0ec2fcb2-15cc-4159-9f1b-ac58ed496017.png",
        "entry": 30194,
        "entry_name": "Addlestone Spartans",
        "event_total": 56,
        "has_played": true,
        "id": 191077,
        "last_rank": 47722,
        "player_name": "Gareth Adcock",
        "rank": 48822,
        "rank_sort": 48824,
        "total": 2353
      },
      {
        "club_badge_src": null,
        "entry": 33557,
        "entry_name": "Smikos",
        "event_total": 62,
        "has_played": true,
        "id": 214044,
        "last_rank": 50468,
        "player_name": "Daniel Ballan",
        "rank": 48822,
        "rank_sort": 48825,
        "total": 2353
      },
      {
        "club_badge_src": "https://fantasy.premierleague.com/gcs/plfpl-production-adobe-approved/plfpl-production/34904/94ff342b-75c7-41e3-ad7b-645eeed6ea0b.png",
        "entry": 34904,
        "entry_name": "Czarne Muchy",
        "event_total": 50,
        "has_played": true,
        "id": 223185,
        "last_rank": 39510,
        "player_name": "Krystian Leszcz",
        "rank": 48822,
        "rank_sort": 48826,
        "total": 2353
      },
      {
        "club_badge_src": null,
        "entry": 60433,
        "entry_name": "Careless Wissa",
        "event_total": 57,
        "has_played": true,
        "id": 389095,
        "last_rank": 49207,
        "player_name": "D Lunt",
        "rank": 48822,
        "rank_sort": 48827,
        "total": 2353
      },
      {
        "club_badge_src": null,
        "entry": 68480,
        "entry_name": "PhilipM\u00b4baku FFF",
        "event_total": 67,
        "has_played": true,
        "id": 443715,
        "last_rank": 58911,
        "player_name": "Philip Leal",
        "rank": 48822,
        "rank_sort": 48828,
        "total": 2353
      },
      {
        "club_badge_src": null,
        "entry": 85772,
        "entry_name": "Dresspakke fra Volt",
        "event_total": 70,
        "has_played": true,
        "id": 558761,
        "last_rank": 72145,
        "player_name": "Henrik Lende",
        "rank": 48822,
        "rank_sort": 48829,
        "total": 2353
      },
      {
        "club_badge_src": null,
        "entry": 91748,
        "entry_name": "David Granola",
        "event_total": 76,
        "has_played": true,
        "id": 599395,
        "last_rank": 76128,
        "player_name": "Tom Batchelor",
        "rank": 48822,
        "rank_sort": 48830,
        "total": 2353
      },
      {
        "club_badge_src": "https://fantasy.premierleague.com/gcs/plfpl-production-adobe-approved/plfpl-production/100152/986713d8-ae01-4060-b118-9029c4f6a230.png",
        "entry": 100152,
        "entry_name": "I6ra.Fz",
        "event_total": 53,
        "has_played": true,
        "id": 653634,
        "last_rank": 38163,
        "player_name": "IBRAHIM AL-FAZARI",
        "rank": 48822,
        "rank_sort": 48831,
        "total": 2353
      },
      {
        "club_badge_src": null,
        "entry": 117867,
        "entry_name": "FPLbuckeye",
        "event_total": 60,
        "has_played": true,
        "id": 769269,
        "last_rank": 47417,
        "player_name": "Anthony Roberts",
        "rank": 48822,
        "rank_sort": 48832,
        "total": 2353
      },
      {
        "club_badge_src": null,
        "entry": 119538,
        "entry_name": "Champagne De Cordova",
        "event_total": 75,
        "has_played": true,
        "id": 779942,
        "last_rank": 73975,
        "player_name": "Alfie Bond",
        "rank": 48822,
        "rank_sort": 48833,
        "total": 2353
      },
      {
        "club_badge_src": "https://fantasy.premierleague.com/gcs/plfpl-production-adobe-approved/plfpl-production/137433/71104472-fabd-4a57-a78e-a7130ad4ab3d.png",
        "entry": 137433,
        "entry_name": "Moka FC",
        "event_total": 69,
        "has_played": true,
        "id": 895859,
        "last_rank": 55311,
        "player_name": "Mohammed Kamel",
        "rank": 48822,
        "rank_sort": 48834,
        "total": 2353
      },
      {
        "club_badge_src": null,
        "entry": 156804,
        "entry_name": "Kinder Mbuemo",
        "event_total": 60,
        "has_played": true,
        "id": 1031312,
        "last_rank": 47417,
        "player_name": "Luke Branch",
        "rank": 48822,
        "rank_sort": 48835,
        "total": 2353
      },
      {
        "club_badge_src": null,
        "entry": 168287,
        "entry_name": "FC Barnesalona",
        "event_total": 55,
        "has_played": true,
        "id": 1112322,
        "last_rank": 46236,
        "player_name": "Jesse Herbert",
        "rank": 48822,
        "rank_sort": 48836,
        "total": 2353
      },
      {
        "club_badge_src": null,
        "entry": 173811,
        "entry_name": "MrWoody\u2019sKickAssXI",
        "event_total": 54,
        "has_played": true,
        "id": 1147844,
        "last_rank": 39403,
        "player_name": "Bex Wrench",
        "rank": 48822,
        "rank_sort": 48837,
        "total": 2353
      },
      {
        "club_badge_src": "https://fantasy.premierleague.com/gcs/plfpl-production-adobe-approved/plfpl-production/190897/130f803a-585d-4a55-b7a7-f774c06e1b9c.png",
        "entry": 190897,
        "entry_name": "El Rey Leon",
        "event_total": 66,
        "has_played": true,
        "id": 1264284,
        "last_rank": 57200,
        "player_name": "Aramik Tahmasian",
        "rank": 48822,
        "rank_sort": 48838,
        "total": 2353
      },
      {
        "club_badge_src": null,
        "entry": 223231,
        "entry_name": "wiinotfit",
        "event_total": 60,
        "has_played": true,
        "id": 1484948,
        "last_rank": 47596,
        "player_name": "Robert Bacon",
        "rank": 48822,
        "rank_sort": 48839,
        "total": 2353
      },
      {
        "club_badge_src": null,
        "entry": 230246,
        "entry_name": "Circle225",
        "event_total": 72,
        "has_played": true,
        "id": 1531783,
        "last_rank": 76330,
        "player_name": "H Lau",
        "rank": 48822,
        "rank_sort": 48840,
        "total": 2353
      },
      {
        "club_badge_src": null,
        "entry": 236651,
        "entry_name": "Areola Grande",
        "event_total": 65,
        "has_played": true,
        "id": 1574526,
        "last_rank": 55514,
        "player_name": "Nick Bailey",
        "rank": 48822,
        "rank_sort": 48841,
        "total": 2353
      },
      {
        "club_badge_src": null,
        "entry": 276792,
        "entry_name": "hacunha matata",
        "event_total": 52,
        "has_played": true,
        "id": 1842283,
        "last_rank": 42081,
        "player_name": "Jack Klein",
        "rank": 48822,
        "rank_sort": 48842,
        "total": 2353
      },
      {
        "club_badge_src": null,
        "entry": 284330,
        "entry_name": "The Magpies",
        "event_total": 69,
        "has_played": true,
        "id": 1893207,
        "last_rank": 62429,
        "player_name": "Bidur N Kunwar",
        "rank": 48822,
        "rank_sort": 48843,
        "total": 2353
      },
      {
        "club_badge_src": null,
        "entry": 284414,
        "entry_name": "Saka Potatoes",
        "event_total": 47,
        "has_played": true,
        "id": 1893817,
        "last_rank": 35867,
        "player_name": "Martin Rodger",
        "rank": 48822,
        "rank_sort": 48844,
        "total": 2353
      },
      {
        "club_badge_src": null,
        "entry": 406780,
        "entry_name": "steelbeamconkeldurrr",
        "event_total": 62,
        "has_played": true,
        "id": 2727503,
        "last_rank": 50468,
        "player_name": "Sparks Blade",
        "rank": 48822,
        "rank_sort": 48845,
        "total": 2353
      },
      {
        "club_badge_src": null,
        "entry": 413864,
        "entry_name": "RSN11",
        "event_total": 65,
        "has_played": true,
        "id": 2774562,
        "last_rank": 55514,
        "player_name": "Rourke Neal",
        "rank": 48822,
        "rank_sort": 48846,
        "total": 2353
      },
      {
        "club_badge_src": null,
        "entry": 414619,
        "entry_name": "The Flying Scotsmen",
        "event_total": 64,
        "has_played": true,
        "id": 2779505,
        "last_rank": 60671,
        "player_name": "Hamish Holmes",
        "rank": 48822,
        "rank_sort": 48847,
        "total": 2353
      },
      {
        "club_badge_src": null,
        "entry": 515634,
        "entry_name": "the criminals",
        "event_total": 53,
        "has_played": true,
        "id": 3461928,
        "last_rank": 38163,
        "player_name": "alisayed hassan",
        "rank": 48822,
        "rank_sort": 48848,
        "total": 2353
      },
      {
        "club_badge_src": "https://fantasy.premierleague.com/gcs/plfpl-production-adobe-approved/plfpl-production/526548/5b130975-bb28-4649-8003-979786907279.png",
        "entry": 526548,
        "entry_name": "Fruit Salah'd",
        "event_total": 62,
        "has_played": true,
        "id": 3539491,
        "last_rank": 57358,
        "player_name": "Shounak Bandyopadhyay",
        "rank": 48822,
        "rank_sort": 48849,
        "total": 2353
      },
      {
        "club_badge_src": null,
        "entry": 528305,
        "entry_name": "\u0627\u0644\u0639\u0648\u0627\u0637\u0644\u064a\u0629",
        "event_total": 52,
        "has_played": true,
        "id": 3551833,
        "last_rank": 36963,
        "player_name": "Mohamed Yosri Mansour",
        "rank": 48822,
        "rank_sort": 48850,
        "total": 2353
      }
    ]
  }
}