{
  "last_updated_data": "2026-05-24T23:28:17Z",
  "league": {
    "admin_entry": null,
    "closed": false,
    "code_privacy": "p",
    "created": "2025-07-20T23:14:33.933835Z",
    "cup_league": 2815434,
    "has_cup": true,
    "id": 314,
    "league_type": "s",
    "max_entries": null,
    "name": "Overall",
    "rank": null,
    "scoring": "c",
    "start_event": 1
  },
  "new_entries": {
    "has_next": false,
    "page": 1,
    "results": []
  },
  "standings": {
    "has_next": true,
    "page": 325,
    "results": [
      {
        "club_badge_src": null,
        "entry": 7301494,
        "entry_name": "Proper Doyle",
        "event_total": 44,
        "has_played": true,
        "id": 59090258,
        "last_rank": 9142,
        "player_name": "Adam Reed",
        "rank": 16086,
        "rank_sort": 16201,
        "total": 2386
      },
      {
        "club_badge_src": null,
        "entry": 7389983,
        "entry_name": "mladiceki",
        "event_total": 57,
        "has_played": true,
        "id": 59919640,
        "last_rank": 15550,
        "player_name": "Josip Cerina",
        "rank": 16086,
        "rank_sort": 16202,
        "total": 2386
      },
      {
        "club_badge_src": null,
        "entry": 7429020,
        "entry_name": "Ra\u00fal or Nothing",
        "event_total": 57,
        "has_played": true,
        "id": 60357541,
        "last_rank": 15694,
        "player_name": "Antoine S",
        "rank": 16086,
        "rank_sort": 16203,
        "total": 2386
      },
      {
        "club_badge_src": "https://fantasy.premierleague.com/gcs/plfpl-production-adobe-approved/plfpl-production/7580947/3c909084-885d-4950-ac28-bb7e5fc4ddc6.png",
        "entry": 7580947,
        "entry_name": "High Press FC",
        "event_total": 46,
        "has_played": true,
        "id": 62091972,
        "last_rank": 10031,
        "player_name": "Jamell Modeste",
        "rank": 16086,
        "rank_sort": 16204,
        "total": 2386
      },
      {
        "club_badge_src": null,
        "entry": 8169294,
        "entry_name": "kkXI",
        "event_total": 58,
        "has_played": true,
        "id": 67447883,
        "last_rank": 16320,
        "player_name": "ketan K",
        "rank": 16086,
        "rank_sort": 16205,
        "total": 2386
      },
      {
        "club_badge_src": null,
        "entry": 8518156,
        "entry_name": "EL Fenomeno",
        "event_total": 73,
        "has_played": true,
        "id": 70812642,
        "last_rank": 24039,
        "player_name": "Liam Smith",
        "rank": 16086,
        "rank_sort": 16206,
        "total": 2386
      },
      {
        "club_badge_src": null,
        "entry": 8584471,
        "entry_name": "Avocado",
        "event_total": 54,
        "has_played": true,
        "id": 71448409,
        "last_rank": 11699,
        "player_name": "Omar Fadl",
        "rank": 16086,
        "rank_sort": 16207,
        "total": 2386
      },
      {
        "club_badge_src": null,
        "entry": 8743346,
        "entry_name": "Danny",
        "event_total": 62,
        "has_played": true,
        "id": 73000157,
        "last_rank": 16062,
        "player_name": "Daniel Olugbewesa",
        "rank": 16086,
        "rank_sort": 16208,
        "total": 2386
      },
      {
        "club_badge_src": null,
        "entry": 8827201,
        "entry_name": "Fc Pallo-Iirot",
        "event_total": 63,
        "has_played": true,
        "id": 73805822,
        "last_rank": 16807,
        "player_name": "Tommi Ikonen",
        "rank": 16086,
        "rank_sort": 16209,
        "total": 2386
      },
      {
        "club_badge_src": null,
        "entry": 8831500,
        "entry_name": "Gempak Devil's FC",
        "event_total": 59,
        "has_played": true,
        "id": 73847344,
        "last_rank": 16959,
        "player_name": "ADRIAN SARRON",
        "rank": 16086,
        "rank_sort": 16210,
        "total": 2386
      },
      {
        "club_badge_src": null,
        "entry": 8951167,
        "entry_name": "Red London",
        "event_total": 74,
        "has_played": true,
        "id": 75010860,
        "last_rank": 28546,
        "player_name": "Json lim",
        "rank": 16086,
        "rank_sort": 16211,
        "total": 2386
      },
      {
        "club_badge_src": null,
        "entry": 9129295,
        "entry_name": "Erin\u2019s XI",
        "event_total": 58,
        "has_played": true,
        "id": 76739667,
        "last_rank": 13821,
        "player_name": "Erin Robinson",
        "rank": 16086,
        "rank_sort": 16212,
        "total": 2386
      },
      {
        "club_badge_src": null,
        "entry": 9466814,
        "entry_name": "jt",
        "event_total": 81,
        "has_played": true,
        "id": 80002972,
        "last_rank": 36348,
        "player_name": "Jacob Tvedt",
        "rank": 16086,
        "rank_sort": 16213,
        "total": 2386
      },
      {
        "club_badge_src": null,
        "entry": 10827,
        "entry_name": "SimplyAhead",
        "event_total": 58,
        "has_played": true,
        "id": 64143,
        "last_rank": 13947,
        "player_name": "Luke Lewis",
        "rank": 16214,
        "rank_sort": 16214,
        "total": 2386
      },
      {
        "club_badge_src": null,
        "entry": 14169,
        "entry_name": "Danny Side",
        "event_total": 60,
        "has_played": true,
        "id": 85908,
        "last_rank": 15063,
        "player_name": "Dan Bradford",
        "rank": 16214,
        "rank_sort": 16215,
        "total": 2386
      },
      {
        "club_badge_src": null,
        "entry": 14583,
        "entry_name": "Cold Palmer",
        "event_total": 53,
        "has_played": true,
        "id": 88629,
        "last_rank": 13500,
        "player_name": "Charlie Armstrong",
        "rank": 16214,
        "rank_sort": 16216,
        "total": 2386
      },
      {
        "club_badge_src": null,
        "entry": 26002,
        "entry_name": "rice to the occasion",
        "event_total": 50,
        "has_played": true,
        "id": 164406,
        "last_rank": 9942,
        "player_name": "Hugo Juliao",
        "rank": 16214,
        "rank_sort": 16217,
        "total": 2386
      },
      {
        "club_badge_src": null,
        "entry": 27008,
        "entry_name": "Sesko Meal Deal",
        "event_total": 74,
        "has_played": true,
        "id": 170760,
        "last_rank": 25002,
        "player_name": "Morgan Threlfall",
        "rank": 16214,
        "rank_sort": 16218,
        "total": 2386
      },
      {
        "club_badge_src": null,
        "entry": 29510,
        "entry_name": "Mr. No One",
        "event_total": 50,
        "has_played": true,
        "id": 186621,
        "last_rank": 11699,
        "player_name": "ISLAM MHANNA",
        "rank": 16214,
        "rank_sort": 16219,
        "total": 2386
      },
      {
        "club_badge_src": null,
        "entry": 105461,
        "entry_name": "The Vagaries of VAR",
        "event_total": 59,
        "has_played": true,
        "id": 687830,
        "last_rank": 16959,
        "player_name": "Evan Healy",
        "rank": 16214,
        "rank_sort": 16220,
        "total": 2386
      },
      {
        "club_badge_src": null,
        "entry": 105661,
        "entry_name": "Mpempides",
        "event_total": 60,
        "has_played": true,
        "id": 689107,
        "last_rank": 17718,
        "player_name": "Michalis Monioudis",
        "rank": 16214,
        "rank_sort": 16221,
        "total": 2386
      },
      {
        "club_badge_src": "https://fantasy.premierleague.com/gcs/plfpl-production-adobe-approved/plfpl-production/109436/82b8f923-a052-4b4a-a9f6-e612cd777e5f.png",
        "entry": 109436,
        "entry_name": "Larsa",
        "event_total": 65,
        "has_played": true,
        "id": 713528,
        "last_rank": 18270,
        "player_name": "Lars Narvhus",
        "rank": 16214,
        "rank_sort": 16222,
        "total": 2386
      },
      {
        "club_badge_src": null,
        "entry": 109563,
        "entry_name": "Goated FC",
        "event_total": 68,
        "has_played": true,
        "id": 714408,
        "last_rank": 23522,
        "player_name": "Jesper Meisland",
        "rank": 16214,
        "rank_sort": 16223,
        "total": 2386
      },
      {
        "club_badge_src": null,
        "entry": 119335,
        "entry_name": "Wirtz Behaviour",
        "event_total": 45,
        "has_played": true,
        "id": 778643,
        "last_rank": 9644,
        "player_name": "Harry Lewis",
        "rank": 16214,
        "rank_sort": 16224,
        "total": 2386
      },
      {
        "club_badge_src": null,
        "entry": 121733,
        "entry_name": "Diamond Dogs",
        "event_total": 58,
        "has_played": true,
        "id": 794238,
        "last_rank": 16320,
        "player_name": "Grgur Adamec",
        "rank": 16214,
        "rank_sort": 16225,
        "total": 2386
      },
      {
        "club_badge_src": "https://fantasy.premierleague.com/gcs/plfpl-production-adobe-approved/plfpl-production/161269/3717c593-8efe-4d79-b23f-f7bd5272cd3e.png",
        "entry": 161269,
        "entry_name": "Sub-Zerbi",
        "event_total": 57,
        "has_played": true,
        "id": 1062373,
        "last_rank": 15550,
        "player_name": "Alex Feraday",
        "rank": 16214,
        "rank_sort": 16226,
        "total": 2386
      },
      {
        "club_badge_src": null,
        "entry": 179880,
        "entry_name": "LONG PASIA FC",
        "event_total": 61,
        "has_played": true,
        "id": 1186979,
        "last_rank": 18377,
        "player_name": "AISHAH MOHD SHUKURI",
        "rank": 16214,
        "rank_sort": 16227,
        "total": 2386
      },
      {
        "club_badge_src": null,
        "entry": 210123,
        "entry_name": "Slip_In_United",
        "event_total": 62,
        "has_played": true,
        "id": 1397389,
        "last_rank": 19103,
        "player_name": "Mark Coughlan",
        "rank": 16214,
        "rank_sort": 16228,
        "total": 2386
      },
      {
        "club_badge_src": null,
        "entry": 218605,
        "entry_name": "Spicer FC **",
        "event_total": 66,
        "has_played": true,
        "id": 1453753,
        "last_rank": 18985,
        "player_name": "Harry Spicer",
        "rank": 16214,
        "rank_sort": 16229,
        "total": 2386
      },
      {
        "club_badge_src": "https://fantasy.premierleague.com/gcs/plfpl-production-adobe-approved/plfpl-production/247718/cc55ca93-e0b0-462d-9729-2d869bcb7492.png",
        "entry": 247718,
        "entry_name": "McGoogs",
        "event_total": 67,
        "has_played": true,
        "id": 1648829,
        "last_rank": 22534,
        "player_name": "Ruairi Whelan",
        "rank": 16214,
        "rank_sort": 16230,
        "total": 2386
      },
      {
        "club_badge_src": "https://fantasy.premierleague.com/gcs/plfpl-production-adobe-approved/plfpl-production/255976/6d91b13b-81cf-4c56-ab70-05347b8619d9.png",
        "entry": 255976,
        "entry_name": "Bak-a-yo Neck",
        "event_total": 74,
        "has_played": true,
        "id": 1702519,
        "last_rank": 25172,
        "player_name": "Voshon Ramcharan",
        "rank": 16214,
        "rank_sort": 16231,
        "total": 2386
      },
      {
        "club_badge_src": null,
        "entry": 269712,
        "entry_name": "Tok Mung FC",
        "event_total": 60,
        "has_played": true,
        "id": 1794319,
        "last_rank": 17437,
        "player_name": "Tok Mung Tuyu",
        "rank": 16214,
        "rank_sort": 16232,
        "total": 2386
      },
      {
        "club_badge_src": "https://fantasy.premierleague.com/gcs/plfpl-production-adobe-approved/plfpl-production/280982/c7de2a77-21c7-4cdc-94ba-ec9beebdd8e5.png",
        "entry": 280982,
        "entry_name": "KZA Fortuna",
        "event_total": 63,
        "has_played": true,
        "id": 1869802,
        "last_rank": 19835,
        "player_name": "Kieran Dignan",
        "rank": 16214,
        "rank_sort": 16233,
        "total": 2386
      },
      {
        "club_badge_src": null,
        "entry": 294479,
        "entry_name": "12 cm",
        "event_total": 61,
        "has_played": true,
        "id": 1966276,
        "last_rank": 18377,
        "player_name": "Pico Barrios",
        "rank": 16214,
        "rank_sort": 16234,
        "total": 2386
      },
      {
        "club_badge_src": null,
        "entry": 483581,
        "entry_name": "ZG_UNITED",
        "event_total": 57,
        "has_played": true,
        "id": 3246129,
        "last_rank": 15797,
        "player_name": "Zac Grimbos",
        "rank": 16214,
        "rank_sort": 16235,
        "total": 2386
      },
      {
        "club_badge_src": null,
        "entry": 598687,
        "entry_name": "Calafiori Dreamin'",
        "event_total": 51,
        "has_played": true,
        "id": 4037934,
        "last_rank": 12420,
        "player_name": "Glen Durrant",
        "rank": 16214,
        "rank_sort": 16236,
        "total": 2386
      },
      {
        "club_badge_src": null,
        "entry": 644945,
        "entry_name": "Wirtz than feared",
        "event_total": 43,
        "has_played": true,
        "id": 4358481,
        "last_rank": 8925,
        "player_name": "Mark Page",
        "rank": 16214,
        "rank_sort": 16237,
        "total": 2386
      },
      {
        "club_badge_src": null,
        "entry": 760092,
        "entry_name": "Los Porro Hermanos",
        "event_total": 65,
        "has_played": true,
        "id": 5180929,
        "last_rank": 21301,
        "player_name": "Marios Durmishaj",
        "rank": 16214,
        "rank_sort": 16238,
        "total": 2386
      },
      {
        "club_badge_src": null,
        "entry": 767561,
        "entry_name": "Abu Shuraim Team",
        "event_total": 60,
        "has_played": true,
        "id": 5235183,
        "last_rank": 15063,
        "player_name": "Sharmarke Abdurahman",
        "rank": 16214,
        "rank_sort": 16239,
        "total": 2386
      },
      {
        "club_badge_src": "https://fantasy.premierleague.com/gcs/plfpl-production-adobe-approved/plfpl-production/772989/a664877c-1c39-43fd-b340-7f97da876b5b.png",
        "entry": 772989,
        "entry_name": "Wirtz Nightmare",
        "event_total": 67,
        "has_played": true,
        "id": 5273543,
        "last_rank": 22685,
        "player_name": "Rory Sheehy",
        "rank": 16214,
        "rank_sort": 16240,
        "total": 2386
      },
      {
        "club_badge_src": null,
        "entry": 783066,
        "entry_name": "Bend It Like Bowen",
        "event_total": 62,
        "has_played": true,
        "id": 5347138,
        "last_rank": 19103,
        "player_name": "Jonathan Skelley",
        "rank": 16214,
        "rank_sort": 16241,
        "total": 2386
      },
      {
        "club_badge_src": "https://fantasy.premierleague.com/gcs/plfpl-production-adobe-approved/plfpl-production/801416/494d2aec-a14f-4acc-ae3c-ad9d086d4228.png",
        "entry": 801416,
        "entry_name": "Palmer Violets",
        "event_total": 49,
        "has_played": true,
        "id": 5485880,
        "last_rank": 11419,
        "player_name": "James Edwards",
        "rank": 16214,
        "rank_sort": 16242,
        "total": 2386
      },
      {
        "club_badge_src": null,
        "entry": 805275,
        "entry_name": "Iraolable",
        "event_total": 47,
        "has_played": true,
        "id": 5512469,
        "last_rank": 10556,
        "player_name": "George Harvey",
        "rank": 16214,
        "rank_sort": 16243,
        "total": 2386
      },
      {
        "club_badge_src": null,
        "entry": 893406,
        "entry_name": "Park City United",
        "event_total": 73,
        "has_played": true,
        "id": 6136762,
        "last_rank": 24143,
        "player_name": "James Parker",
        "rank": 16214,
        "rank_sort": 16244,
        "total": 2386
      },
      {
        "club_badge_src": null,
        "entry": 1011120,
        "entry_name": "Los Cobardes",
        "event_total": 57,
        "has_played": true,
        "id": 6993563,
        "last_rank": 15797,
        "player_name": "Francisco Almeida",
        "rank": 16214,
        "rank_sort": 16245,
        "total": 2386
      },
      {
        "club_badge_src": null,
        "entry": 1014218,
        "entry_name": "JGF",
        "event_total": 50,
        "has_played": true,
        "id": 7016155,
        "last_rank": 11901,
        "player_name": "J\u00f3n Fj\u00f3luson",
        "rank": 16214,
        "rank_sort": 16246,
        "total": 2386
      },
      {
        "club_badge_src": "https://fantasy.premierleague.com/gcs/plfpl-production-adobe-approved/plfpl-production/1043674/63aa7a28-fffe-4e4d-a0f5-7e8ec10be05c.png",
        "entry": 1043674,
        "entry_name": "Young-Dunn XI",
        "event_total": 63,
        "has_played": true,
        "id": 7222570,
        "last_rank": 19721,
        "player_name": "Triston Young-Dunn",
        "rank": 16214,
        "rank_sort": 16247,
        "total": 2386
      },
      {
        "club_badge_src": null,
        "entry": 1111798,
        "entry_name": "The Slot Machine",
        "event_total": 65,
        "has_played": true,
        "id": 7701305,
        "last_rank": 18270,
        "player_name": "Jordan Howard",
        "rank": 16214,
        "rank_sort": 16248,
        "total": 2386
      },
      {
        "club_badge_src": null,
        "entry": 1181689,
        "entry_name": "Ctrl Alt De Ligt",
        "event_total": 65,
        "has_played": true,
        "id": 8198847,
        "last_rank": 18270,
        "player_name": "Ibrahim -BooBoo- Gassama",
        "rank": 16214,
        "rank_sort": 16249,
        "total": 2386
      },
      {
        "club_badge_src": null,
        "entry": 1207015,
        "entry_name": "akord",
        "event_total": 51,
        "has_played": true,
        "id": 8376560,
        "last_rank": 10346,
        "player_name": "Ahmed Tabucija",
        "rank": 16214,
        "rank_sort": 16250,
        "total": 2386
      }
    ]
  }
}