{
  "last_updated_data": "2026-05-24T23:28:17Z",
  "league": {
    "admin_entry": null,
    "closed": false,
    "code_privacy": "p",
    "created": "2025-07-20T23:14:33.933835Z",
    "cup_league": 2815434,
    "has_cup": true,
    "id": 314,
    "league_type": "s",
    "max_entries": null,
    "name": "Overall",
    "rank": null,
    "scoring": "c",
    "start_event": 1
  },
  "new_entries": {
    "has_next": false,
    "page": 1,
    "results": []
  },
  "standings": {
    "has_next": true,
    "page": 613,
    "results": [
      {
        "club_badge_src": null,
        "entry": 6464981,
        "entry_name": "Frank Burrows Army",
        "event_total": 64,
        "has_played": true,
        "id": 51506555,
        "last_rank": 29279,
        "player_name": "Christopher Harris",
        "rank": 30579,
        "rank_sort": 30601,
        "total": 2368
      },
      {
        "club_badge_src": null,
        "entry": 6852189,
        "entry_name": "Farke the Bus",
        "event_total": 67,
        "has_played": true,
        "id": 54897931,
        "last_rank": 42225,
        "player_name": "Bobby Share",
        "rank": 30579,
        "rank_sort": 30602,
        "total": 2368
      },
      {
        "club_badge_src": null,
        "entry": 6889311,
        "entry_name": "Whisht Eugene",
        "event_total": 62,
        "has_played": true,
        "id": 55214633,
        "last_rank": 31371,
        "player_name": "Kevin Harkin",
        "rank": 30579,
        "rank_sort": 30603,
        "total": 2368
      },
      {
        "club_badge_src": null,
        "entry": 7255063,
        "entry_name": "Collar Up FC",
        "event_total": 64,
        "has_played": true,
        "id": 58654221,
        "last_rank": 33651,
        "player_name": "Sean Ronald",
        "rank": 30579,
        "rank_sort": 30604,
        "total": 2368
      },
      {
        "club_badge_src": null,
        "entry": 7581259,
        "entry_name": "2Girlz1Klopp",
        "event_total": 58,
        "has_played": true,
        "id": 62094872,
        "last_rank": 31404,
        "player_name": "Kiarash Bolouri",
        "rank": 30579,
        "rank_sort": 30605,
        "total": 2368
      },
      {
        "club_badge_src": null,
        "entry": 7847474,
        "entry_name": "Kicking 'n screaming",
        "event_total": 79,
        "has_played": true,
        "id": 64508408,
        "last_rank": 61004,
        "player_name": "Peter McFie",
        "rank": 30579,
        "rank_sort": 30606,
        "total": 2368
      },
      {
        "club_badge_src": "https://fantasy.premierleague.com/gcs/plfpl-production-adobe-approved/plfpl-production/8106806/4f9652a2-b4c2-4b93-b719-f9c26431900e.png",
        "entry": 8106806,
        "entry_name": "iDari FC",
        "event_total": 59,
        "has_played": true,
        "id": 66864048,
        "last_rank": 28388,
        "player_name": "Darian Edwards",
        "rank": 30579,
        "rank_sort": 30607,
        "total": 2368
      },
      {
        "club_badge_src": null,
        "entry": 9200383,
        "entry_name": "Twisted XTen",
        "event_total": 49,
        "has_played": true,
        "id": 77437734,
        "last_rank": 17194,
        "player_name": "Mithun Twisted XTen",
        "rank": 30579,
        "rank_sort": 30608,
        "total": 2368
      },
      {
        "club_badge_src": "https://fantasy.premierleague.com/gcs/plfpl-production-adobe-approved/plfpl-production/129/7b537bc2-6a7e-41d4-bd06-21bd14529b7d.png",
        "entry": 129,
        "entry_name": "Portsmouth Bubblejet",
        "event_total": 69,
        "has_played": true,
        "id": 718,
        "last_rank": 39510,
        "player_name": "David Sweetenham",
        "rank": 30609,
        "rank_sort": 30609,
        "total": 2368
      },
      {
        "club_badge_src": null,
        "entry": 13648,
        "entry_name": "Darkknight FC",
        "event_total": 66,
        "has_played": true,
        "id": 82561,
        "last_rank": 40878,
        "player_name": "Yashwanth Ln",
        "rank": 30609,
        "rank_sort": 30610,
        "total": 2368
      },
      {
        "club_badge_src": null,
        "entry": 52367,
        "entry_name": "Shivshenko SIUUU",
        "event_total": 73,
        "has_played": true,
        "id": 336738,
        "last_rank": 44950,
        "player_name": "Shiv Goberdhan",
        "rank": 30609,
        "rank_sort": 30611,
        "total": 2368
      },
      {
        "club_badge_src": "https://fantasy.premierleague.com/gcs/plfpl-production-adobe-approved/plfpl-production/69172/fa7b39fe-851f-4914-bd5e-80dab0d114a2.png",
        "entry": 69172,
        "entry_name": "Real Mayonnaise",
        "event_total": 72,
        "has_played": true,
        "id": 448507,
        "last_rank": 49407,
        "player_name": "Paul Chilton",
        "rank": 30609,
        "rank_sort": 30612,
        "total": 2368
      },
      {
        "club_badge_src": null,
        "entry": 125913,
        "entry_name": "BonesBandaleros",
        "event_total": 37,
        "has_played": true,
        "id": 821118,
        "last_rank": 12547,
        "player_name": "Bill Young",
        "rank": 30609,
        "rank_sort": 30613,
        "total": 2368
      },
      {
        "club_badge_src": null,
        "entry": 196606,
        "entry_name": "Kinder Mbuemo",
        "event_total": 77,
        "has_played": true,
        "id": 1304222,
        "last_rank": 44804,
        "player_name": "M B",
        "rank": 30609,
        "rank_sort": 30614,
        "total": 2368
      },
      {
        "club_badge_src": null,
        "entry": 224773,
        "entry_name": "Maguerrrrrrrroooo",
        "event_total": 74,
        "has_played": true,
        "id": 1495242,
        "last_rank": 40832,
        "player_name": "Austin Magaro",
        "rank": 30609,
        "rank_sort": 30615,
        "total": 2368
      },
      {
        "club_badge_src": "https://fantasy.premierleague.com/gcs/plfpl-production-adobe-approved/plfpl-production/373018/1364f4c3-2f5b-45a9-ad6a-b030c3e91c72.png",
        "entry": 373018,
        "entry_name": "Spartans FC",
        "event_total": 68,
        "has_played": true,
        "id": 2495751,
        "last_rank": 38340,
        "player_name": "niti kkl potitatkul",
        "rank": 30609,
        "rank_sort": 30616,
        "total": 2368
      },
      {
        "club_badge_src": null,
        "entry": 754923,
        "entry_name": "aloosh ali",
        "event_total": 57,
        "has_played": true,
        "id": 5139329,
        "last_rank": 26512,
        "player_name": "Ali Kzwene",
        "rank": 30609,
        "rank_sort": 30617,
        "total": 2368
      },
      {
        "club_badge_src": "https://fantasy.premierleague.com/gcs/plfpl-production-adobe-approved/plfpl-production/838877/c82c140d-13d0-4965-b90d-3ddf507892fe.png",
        "entry": 838877,
        "entry_name": "Fig Pluckers",
        "event_total": 71,
        "has_played": true,
        "id": 5747498,
        "last_rank": 32335,
        "player_name": "Doug Hardie",
        "rank": 30609,
        "rank_sort": 30618,
        "total": 2368
      },
      {
        "club_badge_src": null,
        "entry": 1479916,
        "entry_name": "Uffy FC",
        "event_total": 66,
        "has_played": true,
        "id": 10319015,
        "last_rank": 35969,
        "player_name": "uffy iseri",
        "rank": 30609,
        "rank_sort": 30619,
        "total": 2368
      },
      {
        "club_badge_src": null,
        "entry": 1772504,
        "entry_name": "Valchone",
        "event_total": 65,
        "has_played": true,
        "id": 12451542,
        "last_rank": 34796,
        "player_name": "VALENTIN DIMITROV",
        "rank": 30609,
        "rank_sort": 30620,
        "total": 2368
      },
      {
        "club_badge_src": null,
        "entry": 2009384,
        "entry_name": "On me Edson",
        "event_total": 76,
        "has_played": true,
        "id": 14208062,
        "last_rank": 55902,
        "player_name": "George Moore",
        "rank": 30609,
        "rank_sort": 30621,
        "total": 2368
      },
      {
        "club_badge_src": null,
        "entry": 2051331,
        "entry_name": "Wallers 11",
        "event_total": 77,
        "has_played": true,
        "id": 14529865,
        "last_rank": 50905,
        "player_name": "Eamon Wallace",
        "rank": 30609,
        "rank_sort": 30622,
        "total": 2368
      },
      {
        "club_badge_src": null,
        "entry": 2659166,
        "entry_name": "ela",
        "event_total": 72,
        "has_played": true,
        "id": 19115148,
        "last_rank": 43570,
        "player_name": "leo messi",
        "rank": 30609,
        "rank_sort": 30623,
        "total": 2368
      },
      {
        "club_badge_src": "https://fantasy.premierleague.com/gcs/plfpl-production-adobe-approved/plfpl-production/3054501/e19d6ddc-564a-45a5-b77a-76e67a86d77d.png",
        "entry": 3054501,
        "entry_name": "JahMarniaks CF",
        "event_total": 55,
        "has_played": true,
        "id": 22487592,
        "last_rank": 24680,
        "player_name": "Kimarn\u00e9 Henry",
        "rank": 30609,
        "rank_sort": 30624,
        "total": 2368
      },
      {
        "club_badge_src": null,
        "entry": 3084305,
        "entry_name": "Pox",
        "event_total": 79,
        "has_played": true,
        "id": 22724002,
        "last_rank": 54134,
        "player_name": "Eirik Vikingstad",
        "rank": 30609,
        "rank_sort": 30625,
        "total": 2368
      },
      {
        "club_badge_src": null,
        "entry": 3625853,
        "entry_name": "Abo Adam",
        "event_total": 51,
        "has_played": true,
        "id": 27016985,
        "last_rank": 24735,
        "player_name": "loay Alnasrallah",
        "rank": 30609,
        "rank_sort": 30626,
        "total": 2368
      },
      {
        "club_badge_src": "https://fantasy.premierleague.com/gcs/plfpl-production-adobe-approved/plfpl-production/4226491/4bf953c0-0d45-4650-8d57-05fcefdbf0b7.png",
        "entry": 4226491,
        "entry_name": "Pitch Nightmares",
        "event_total": 60,
        "has_played": true,
        "id": 32020759,
        "last_rank": 33695,
        "player_name": "Mohamed Gamal",
        "rank": 30609,
        "rank_sort": 30627,
        "total": 2368
      },
      {
        "club_badge_src": null,
        "entry": 4562079,
        "entry_name": "\u0627\u0644\u062a\u0643\u064a\u0641 \u0648\u0627\u0627\u0635\u0644\u0643",
        "event_total": 59,
        "has_played": true,
        "id": 34812450,
        "last_rank": 28425,
        "player_name": "Mohamed Esam",
        "rank": 30609,
        "rank_sort": 30628,
        "total": 2368
      },
      {
        "club_badge_src": "https://fantasy.premierleague.com/gcs/plfpl-production-adobe-approved/plfpl-production/4709159/284b3ea5-c3c2-4603-92b2-0214d8da2c25.png",
        "entry": 4709159,
        "entry_name": "Fyrg\u00e5rdens BK",
        "event_total": 73,
        "has_played": true,
        "id": 36119639,
        "last_rank": 39585,
        "player_name": "Serkan Basatan",
        "rank": 30609,
        "rank_sort": 30629,
        "total": 2368
      },
      {
        "club_badge_src": null,
        "entry": 5539418,
        "entry_name": "Anbaara FC",
        "event_total": 67,
        "has_played": true,
        "id": 43222247,
        "last_rank": 42263,
        "player_name": "Ahmed Shaahin",
        "rank": 30609,
        "rank_sort": 30630,
        "total": 2368
      },
      {
        "club_badge_src": null,
        "entry": 6962508,
        "entry_name": "HalaaaaaMadridSiuuuu",
        "event_total": 81,
        "has_played": true,
        "id": 55839165,
        "last_rank": 64603,
        "player_name": "Tareq Sirhan",
        "rank": 30609,
        "rank_sort": 30631,
        "total": 2368
      },
      {
        "club_badge_src": "https://fantasy.premierleague.com/gcs/plfpl-production-adobe-approved/plfpl-production/7981240/ad14bb3e-da9b-4d14-b2f6-3ad4ed9b986d.png",
        "entry": 7981240,
        "entry_name": "LILGOONERBOIS",
        "event_total": 53,
        "has_played": true,
        "id": 65718419,
        "last_rank": 26512,
        "player_name": "Connor Fritsch",
        "rank": 30609,
        "rank_sort": 30632,
        "total": 2368
      },
      {
        "club_badge_src": null,
        "entry": 8447658,
        "entry_name": "ahmadmobaideen",
        "event_total": 66,
        "has_played": true,
        "id": 70132507,
        "last_rank": 31371,
        "player_name": "Ahmad Mobaideen",
        "rank": 30609,
        "rank_sort": 30633,
        "total": 2368
      },
      {
        "club_badge_src": null,
        "entry": 47007,
        "entry_name": "Hayes Gully Boyz",
        "event_total": 59,
        "has_played": true,
        "id": 301414,
        "last_rank": 28449,
        "player_name": "Arv Mehta",
        "rank": 30634,
        "rank_sort": 30634,
        "total": 2368
      },
      {
        "club_badge_src": "https://fantasy.premierleague.com/gcs/plfpl-production-adobe-approved/plfpl-production/69418/29025440-1034-4b00-b19b-dc221e9aa1a3.png",
        "entry": 69418,
        "entry_name": "YNWA",
        "event_total": 64,
        "has_played": true,
        "id": 450254,
        "last_rank": 29369,
        "player_name": "Islam Gouda",
        "rank": 30634,
        "rank_sort": 30635,
        "total": 2368
      },
      {
        "club_badge_src": null,
        "entry": 130013,
        "entry_name": "Angel De Ligt",
        "event_total": 75,
        "has_played": true,
        "id": 847237,
        "last_rank": 37134,
        "player_name": "Ross Craigmyle",
        "rank": 30634,
        "rank_sort": 30636,
        "total": 2368
      },
      {
        "club_badge_src": null,
        "entry": 138279,
        "entry_name": "Copenhagen Hotspurs",
        "event_total": 62,
        "has_played": true,
        "id": 901948,
        "last_rank": 36015,
        "player_name": "Dave Pattison",
        "rank": 30634,
        "rank_sort": 30637,
        "total": 2368
      },
      {
        "club_badge_src": null,
        "entry": 218021,
        "entry_name": "FC Boing",
        "event_total": 50,
        "has_played": true,
        "id": 1449831,
        "last_rank": 23919,
        "player_name": "David Scott",
        "rank": 30634,
        "rank_sort": 30638,
        "total": 2368
      },
      {
        "club_badge_src": "https://fantasy.premierleague.com/gcs/plfpl-production-adobe-approved/plfpl-production/279083/1eedcdfd-ef6b-4e42-91a3-42ecf49d9a3b.png",
        "entry": 279083,
        "entry_name": "Kinder Mbeumo",
        "event_total": 51,
        "has_played": true,
        "id": 1857373,
        "last_rank": 21530,
        "player_name": "Charlie Dukes",
        "rank": 30634,
        "rank_sort": 30639,
        "total": 2368
      },
      {
        "club_badge_src": null,
        "entry": 323346,
        "entry_name": "Come Digne With Me",
        "event_total": 72,
        "has_played": true,
        "id": 2166853,
        "last_rank": 43570,
        "player_name": "David Robinson",
        "rank": 30634,
        "rank_sort": 30640,
        "total": 2368
      },
      {
        "club_badge_src": null,
        "entry": 340127,
        "entry_name": "KK11",
        "event_total": 58,
        "has_played": true,
        "id": 2276767,
        "last_rank": 31437,
        "player_name": "Shahed Fazal",
        "rank": 30634,
        "rank_sort": 30641,
        "total": 2368
      },
      {
        "club_badge_src": null,
        "entry": 403858,
        "entry_name": "Fire team",
        "event_total": 49,
        "has_played": true,
        "id": 2707911,
        "last_rank": 20058,
        "player_name": "Ahmed Ebriq",
        "rank": 30634,
        "rank_sort": 30642,
        "total": 2368
      },
      {
        "club_badge_src": null,
        "entry": 438840,
        "entry_name": "IvicaGrli\u0107Ma\u017eurani\u0107",
        "event_total": 70,
        "has_played": true,
        "id": 2942736,
        "last_rank": 40923,
        "player_name": "Demir Spahi\u0107",
        "rank": 30634,
        "rank_sort": 30643,
        "total": 2368
      },
      {
        "club_badge_src": "https://fantasy.premierleague.com/gcs/plfpl-production-adobe-approved/plfpl-production/916503/f7a0323f-3b14-45f9-9402-346412493ae8.png",
        "entry": 916503,
        "entry_name": "\u15b4\u14aa\u14aa\u15b4\u15b4\u14aa",
        "event_total": 52,
        "has_played": true,
        "id": 6302404,
        "last_rank": 25613,
        "player_name": "\u03b1\u043c\u03b9\u044f \u03b1\u0455\u0443\u044f\u03b1\u0192",
        "rank": 30634,
        "rank_sort": 30644,
        "total": 2368
      },
      {
        "club_badge_src": null,
        "entry": 1151347,
        "entry_name": "Jagshemesh",
        "event_total": 62,
        "has_played": true,
        "id": 7983033,
        "last_rank": 31404,
        "player_name": "Jag Atwal",
        "rank": 30634,
        "rank_sort": 30645,
        "total": 2368
      },
      {
        "club_badge_src": null,
        "entry": 1266720,
        "entry_name": "Mo-melodi Sundowns",
        "event_total": 56,
        "has_played": true,
        "id": 8801380,
        "last_rank": 22263,
        "player_name": "Luke Robertson",
        "rank": 30634,
        "rank_sort": 30646,
        "total": 2368
      },
      {
        "club_badge_src": null,
        "entry": 1878709,
        "entry_name": "Pizza & \u00d8l United",
        "event_total": 70,
        "has_played": true,
        "id": 13234578,
        "last_rank": 35969,
        "player_name": "Kristian Solem Krogstad",
        "rank": 30634,
        "rank_sort": 30647,
        "total": 2368
      },
      {
        "club_badge_src": null,
        "entry": 2268633,
        "entry_name": "\u00d8 The Guard",
        "event_total": 53,
        "has_played": true,
        "id": 16176422,
        "last_rank": 23089,
        "player_name": "Ajaypal Powar",
        "rank": 30634,
        "rank_sort": 30648,
        "total": 2368
      },
      {
        "club_badge_src": "https://fantasy.premierleague.com/gcs/plfpl-production-adobe-approved/plfpl-production/4578690/466daf54-62c9-44d4-8920-ace812e3d2f8.png",
        "entry": 4578690,
        "entry_name": "FC Danzo",
        "event_total": 65,
        "has_played": true,
        "id": 34951583,
        "last_rank": 30361,
        "player_name": "Ahmed Ramadan",
        "rank": 30634,
        "rank_sort": 30649,
        "total": 2368
      },
      {
        "club_badge_src": null,
        "entry": 4894702,
        "entry_name": "Numero uno",
        "event_total": 67,
        "has_played": true,
        "id": 37740683,
        "last_rank": 42293,
        "player_name": "Michael Mahfouz",
        "rank": 30634,
        "rank_sort": 30650,
        "total": 2368
      }
    ]
  }
}