{
  "last_updated_data": "2026-05-24T23:28:17Z",
  "league": {
    "admin_entry": null,
    "closed": false,
    "code_privacy": "p",
    "created": "2025-07-20T23:14:33.933835Z",
    "cup_league": 2815434,
    "has_cup": true,
    "id": 314,
    "league_type": "s",
    "max_entries": null,
    "name": "Overall",
    "rank": null,
    "scoring": "c",
    "start_event": 1
  },
  "new_entries": {
    "has_next": false,
    "page": 1,
    "results": []
  },
  "standings": {
    "has_next": true,
    "page": 1558,
    "results": [
      {
        "club_badge_src": null,
        "entry": 606757,
        "entry_name": "PayUpPalace",
        "event_total": 39,
        "has_played": true,
        "id": 4097292,
        "last_rank": 46660,
        "player_name": "Trystan Roberts",
        "rank": 77757,
        "rank_sort": 77851,
        "total": 2336
      },
      {
        "club_badge_src": null,
        "entry": 607946,
        "entry_name": "Do your Wirtz",
        "event_total": 49,
        "has_played": true,
        "id": 4105912,
        "last_rank": 63390,
        "player_name": "jon wood",
        "rank": 77757,
        "rank_sort": 77852,
        "total": 2336
      },
      {
        "club_badge_src": "https://fantasy.premierleague.com/gcs/plfpl-production-adobe-approved/plfpl-production/610253/673fdafa-9d6e-4760-93c2-b8d7e2fb7bfc.png",
        "entry": 610253,
        "entry_name": "Bruno Dos Tres",
        "event_total": 61,
        "has_played": true,
        "id": 4122768,
        "last_rank": 88348,
        "player_name": "Garry Rayment",
        "rank": 77757,
        "rank_sort": 77853,
        "total": 2336
      },
      {
        "club_badge_src": "https://fantasy.premierleague.com/gcs/plfpl-production-adobe-approved/plfpl-production/617962/af96b23e-e8b1-4566-8495-aa07c17434c2.png",
        "entry": 617962,
        "entry_name": "jay uno",
        "event_total": 62,
        "has_played": true,
        "id": 4175191,
        "last_rank": 91006,
        "player_name": "JTG FG",
        "rank": 77757,
        "rank_sort": 77854,
        "total": 2336
      },
      {
        "club_badge_src": null,
        "entry": 642725,
        "entry_name": "Scroll for Grice",
        "event_total": 64,
        "has_played": true,
        "id": 4343799,
        "last_rank": 96374,
        "player_name": "Darren Harmer",
        "rank": 77757,
        "rank_sort": 77855,
        "total": 2336
      },
      {
        "club_badge_src": null,
        "entry": 647486,
        "entry_name": "Sink or Swim Amorim",
        "event_total": 66,
        "has_played": true,
        "id": 4375880,
        "last_rank": 100949,
        "player_name": "Trond Stadsnes",
        "rank": 77757,
        "rank_sort": 77856,
        "total": 2336
      },
      {
        "club_badge_src": "https://fantasy.premierleague.com/gcs/plfpl-production-adobe-approved/plfpl-production/654266/9a137180-2411-4d21-a46a-99b9360a835b.png",
        "entry": 654266,
        "entry_name": "Saka Puu",
        "event_total": 43,
        "has_played": true,
        "id": 4421541,
        "last_rank": 53023,
        "player_name": "Martin Morton",
        "rank": 77757,
        "rank_sort": 77857,
        "total": 2336
      },
      {
        "club_badge_src": null,
        "entry": 655541,
        "entry_name": "Livin' Lavia Loca",
        "event_total": 74,
        "has_played": true,
        "id": 4430202,
        "last_rank": 122988,
        "player_name": "Jack Walsh",
        "rank": 77757,
        "rank_sort": 77858,
        "total": 2336
      },
      {
        "club_badge_src": null,
        "entry": 686693,
        "entry_name": "Get In The Bin",
        "event_total": 49,
        "has_played": true,
        "id": 4648621,
        "last_rank": 63390,
        "player_name": "Nick Wright",
        "rank": 77757,
        "rank_sort": 77859,
        "total": 2336
      },
      {
        "club_badge_src": null,
        "entry": 720446,
        "entry_name": "FC Sipponen",
        "event_total": 64,
        "has_played": true,
        "id": 4891354,
        "last_rank": 95890,
        "player_name": "Simon Ahlgren",
        "rank": 77757,
        "rank_sort": 77860,
        "total": 2336
      },
      {
        "club_badge_src": null,
        "entry": 727995,
        "entry_name": "Mealie Puddings",
        "event_total": 71,
        "has_played": true,
        "id": 4945993,
        "last_rank": 114169,
        "player_name": "Alec Mackay",
        "rank": 77757,
        "rank_sort": 77861,
        "total": 2336
      },
      {
        "club_badge_src": null,
        "entry": 732043,
        "entry_name": "Haribo Sch\u00e4rmix",
        "event_total": 30,
        "has_played": true,
        "id": 4974486,
        "last_rank": 35166,
        "player_name": "David T",
        "rank": 77757,
        "rank_sort": 77862,
        "total": 2336
      },
      {
        "club_badge_src": "https://fantasy.premierleague.com/gcs/plfpl-production-adobe-approved/plfpl-production/738815/992c8d7d-8272-4993-8806-a9da21aee094.png",
        "entry": 738815,
        "entry_name": "Stratford United",
        "event_total": 40,
        "has_played": true,
        "id": 5023143,
        "last_rank": 48197,
        "player_name": "Ian Highfield",
        "rank": 77757,
        "rank_sort": 77863,
        "total": 2336
      },
      {
        "club_badge_src": null,
        "entry": 744483,
        "entry_name": "Perdition's Flames",
        "event_total": 60,
        "has_played": true,
        "id": 5064362,
        "last_rank": 85932,
        "player_name": "Clive Woods",
        "rank": 77757,
        "rank_sort": 77864,
        "total": 2336
      },
      {
        "club_badge_src": null,
        "entry": 780877,
        "entry_name": "The Green Arrow",
        "event_total": 67,
        "has_played": true,
        "id": 5331227,
        "last_rank": 103254,
        "player_name": "Steve Green",
        "rank": 77757,
        "rank_sort": 77865,
        "total": 2336
      },
      {
        "club_badge_src": null,
        "entry": 790915,
        "entry_name": "TaysTouchlineTuggers",
        "event_total": 62,
        "has_played": true,
        "id": 5412133,
        "last_rank": 91006,
        "player_name": "Taylor Andrews",
        "rank": 77757,
        "rank_sort": 77866,
        "total": 2336
      },
      {
        "club_badge_src": "https://fantasy.premierleague.com/gcs/plfpl-production-adobe-approved/plfpl-production/802914/70b531d2-0e77-468c-9994-b242c073791d.png",
        "entry": 802914,
        "entry_name": "Shadows",
        "event_total": 60,
        "has_played": true,
        "id": 5496211,
        "last_rank": 86304,
        "player_name": "Younes xz",
        "rank": 77757,
        "rank_sort": 77867,
        "total": 2336
      },
      {
        "club_badge_src": null,
        "entry": 809580,
        "entry_name": "Headless PP",
        "event_total": 42,
        "has_played": true,
        "id": 5542828,
        "last_rank": 51403,
        "player_name": "Peter Loader",
        "rank": 77757,
        "rank_sort": 77868,
        "total": 2336
      },
      {
        "club_badge_src": null,
        "entry": 818820,
        "entry_name": "Kloppage Time*",
        "event_total": 58,
        "has_played": true,
        "id": 5607690,
        "last_rank": 81646,
        "player_name": "Evan Conroy",
        "rank": 77757,
        "rank_sort": 77869,
        "total": 2336
      },
      {
        "club_badge_src": "https://fantasy.premierleague.com/gcs/plfpl-production-adobe-approved/plfpl-production/831344/40a983f4-72c2-4916-9193-3e2aa726d074.png",
        "entry": 831344,
        "entry_name": "Had a meal fatcow",
        "event_total": 52,
        "has_played": true,
        "id": 5694274,
        "last_rank": 68957,
        "player_name": "Aasnayem Gazzali Chowdhury",
        "rank": 77757,
        "rank_sort": 77870,
        "total": 2336
      },
      {
        "club_badge_src": null,
        "entry": 842294,
        "entry_name": "Change Name",
        "event_total": 56,
        "has_played": true,
        "id": 5771170,
        "last_rank": 77258,
        "player_name": "Brandon Prince",
        "rank": 77757,
        "rank_sort": 77871,
        "total": 2336
      },
      {
        "club_badge_src": "https://fantasy.premierleague.com/gcs/plfpl-production-adobe-approved/plfpl-production/857930/6e73bbe7-bc39-47c8-95fe-0d3d217d48de.png",
        "entry": 857930,
        "entry_name": "Four-peat?!",
        "event_total": 62,
        "has_played": true,
        "id": 5881156,
        "last_rank": 91006,
        "player_name": "David Hall",
        "rank": 77757,
        "rank_sort": 77872,
        "total": 2336
      },
      {
        "club_badge_src": null,
        "entry": 881595,
        "entry_name": "Guanster",
        "event_total": 46,
        "has_played": true,
        "id": 6045783,
        "last_rank": 58071,
        "player_name": "Ah Guan",
        "rank": 77757,
        "rank_sort": 77873,
        "total": 2336
      },
      {
        "club_badge_src": null,
        "entry": 883079,
        "entry_name": "Crochect Dembele",
        "event_total": 61,
        "has_played": true,
        "id": 6056157,
        "last_rank": 88594,
        "player_name": "King Dembele",
        "rank": 77757,
        "rank_sort": 77874,
        "total": 2336
      },
      {
        "club_badge_src": "https://fantasy.premierleague.com/gcs/plfpl-production-adobe-approved/plfpl-production/888816/502bebff-2fc6-4bdb-9ded-6b3a013064ca.png",
        "entry": 888816,
        "entry_name": "theman",
        "event_total": 44,
        "has_played": true,
        "id": 6096440,
        "last_rank": 55014,
        "player_name": "nhat hoang",
        "rank": 77757,
        "rank_sort": 77875,
        "total": 2336
      },
      {
        "club_badge_src": null,
        "entry": 918490,
        "entry_name": "Going Concern XI",
        "event_total": 49,
        "has_played": true,
        "id": 6316360,
        "last_rank": 63117,
        "player_name": "Kevin Grant",
        "rank": 77757,
        "rank_sort": 77876,
        "total": 2336
      },
      {
        "club_badge_src": null,
        "entry": 919320,
        "entry_name": "Nankatsu SC",
        "event_total": 66,
        "has_played": true,
        "id": 6322134,
        "last_rank": 100949,
        "player_name": "Jean Ganter",
        "rank": 77757,
        "rank_sort": 77877,
        "total": 2336
      },
      {
        "club_badge_src": "https://fantasy.premierleague.com/gcs/plfpl-production-adobe-approved/plfpl-production/936933/0a28ac80-ee21-4080-a4c7-daedc539b77a.png",
        "entry": 936933,
        "entry_name": "OGCRYSTAL",
        "event_total": 48,
        "has_played": true,
        "id": 6447932,
        "last_rank": 61606,
        "player_name": "Jonathan Crystal",
        "rank": 77757,
        "rank_sort": 77878,
        "total": 2336
      },
      {
        "club_badge_src": null,
        "entry": 955940,
        "entry_name": "Feeling SlotSlotSlot",
        "event_total": 65,
        "has_played": true,
        "id": 6586571,
        "last_rank": 98073,
        "player_name": "Nathan Canty",
        "rank": 77757,
        "rank_sort": 77879,
        "total": 2336
      },
      {
        "club_badge_src": null,
        "entry": 958818,
        "entry_name": "RAMZI",
        "event_total": 41,
        "has_played": true,
        "id": 6607013,
        "last_rank": 49880,
        "player_name": "Ram Zi",
        "rank": 77757,
        "rank_sort": 77880,
        "total": 2336
      },
      {
        "club_badge_src": null,
        "entry": 962514,
        "entry_name": "Calafiori Dreaming",
        "event_total": 65,
        "has_played": true,
        "id": 6632982,
        "last_rank": 98436,
        "player_name": "Luke Lawrence",
        "rank": 77757,
        "rank_sort": 77881,
        "total": 2336
      },
      {
        "club_badge_src": null,
        "entry": 997156,
        "entry_name": "Ur favorite Hero\ufffd",
        "event_total": 60,
        "has_played": true,
        "id": 6887475,
        "last_rank": 86304,
        "player_name": "ANAS OSAMA",
        "rank": 77757,
        "rank_sort": 77882,
        "total": 2336
      },
      {
        "club_badge_src": "https://fantasy.premierleague.com/gcs/plfpl-production-adobe-approved/plfpl-production/999516/d3faf7fd-d8b8-4246-ace2-f2f3e812a470.png",
        "entry": 999516,
        "entry_name": "i kiss football",
        "event_total": 62,
        "has_played": true,
        "id": 6908864,
        "last_rank": 90746,
        "player_name": "Robert Preston",
        "rank": 77757,
        "rank_sort": 77883,
        "total": 2336
      },
      {
        "club_badge_src": null,
        "entry": 1008218,
        "entry_name": "Live and Let Ndiaye",
        "event_total": 50,
        "has_played": true,
        "id": 6970520,
        "last_rank": 65163,
        "player_name": "James Hume",
        "rank": 77757,
        "rank_sort": 77884,
        "total": 2336
      },
      {
        "club_badge_src": null,
        "entry": 1041638,
        "entry_name": "XyZ",
        "event_total": 47,
        "has_played": true,
        "id": 7208418,
        "last_rank": 60168,
        "player_name": "Nandhika Putra",
        "rank": 77757,
        "rank_sort": 77885,
        "total": 2336
      },
      {
        "club_badge_src": "https://fantasy.premierleague.com/gcs/plfpl-production-adobe-approved/plfpl-production/1052712/e6081613-82b8-49e8-ba19-3dd18f71b176.png",
        "entry": 1052712,
        "entry_name": "Congenital Optimist",
        "event_total": 61,
        "has_played": true,
        "id": 7285427,
        "last_rank": 79190,
        "player_name": "Roland Johnson",
        "rank": 77757,
        "rank_sort": 77886,
        "total": 2336
      },
      {
        "club_badge_src": null,
        "entry": 1071400,
        "entry_name": "Chicken Ekitike",
        "event_total": 61,
        "has_played": true,
        "id": 7417267,
        "last_rank": 88594,
        "player_name": "John Evans",
        "rank": 77757,
        "rank_sort": 77887,
        "total": 2336
      },
      {
        "club_badge_src": null,
        "entry": 1079648,
        "entry_name": "Saka Khan",
        "event_total": 51,
        "has_played": true,
        "id": 7475638,
        "last_rank": 67063,
        "player_name": "George Anderson",
        "rank": 77757,
        "rank_sort": 77888,
        "total": 2336
      },
      {
        "club_badge_src": null,
        "entry": 1084882,
        "entry_name": "ewfwe",
        "event_total": 59,
        "has_played": true,
        "id": 7512901,
        "last_rank": 83934,
        "player_name": "Dominik Marendic",
        "rank": 77757,
        "rank_sort": 77889,
        "total": 2336
      },
      {
        "club_badge_src": null,
        "entry": 1130577,
        "entry_name": "Flying Finn",
        "event_total": 61,
        "has_played": true,
        "id": 7836193,
        "last_rank": 88594,
        "player_name": "Hamish Hunter",
        "rank": 77757,
        "rank_sort": 77890,
        "total": 2336
      },
      {
        "club_badge_src": null,
        "entry": 1130693,
        "entry_name": "Robbie like Kobbie",
        "event_total": 45,
        "has_played": true,
        "id": 7837027,
        "last_rank": 56369,
        "player_name": "Rob Willcox",
        "rank": 77757,
        "rank_sort": 77891,
        "total": 2336
      },
      {
        "club_badge_src": null,
        "entry": 1165007,
        "entry_name": "Class on Grass",
        "event_total": 48,
        "has_played": true,
        "id": 8081541,
        "last_rank": 61411,
        "player_name": "Daniel Rickwood",
        "rank": 77757,
        "rank_sort": 77892,
        "total": 2336
      },
      {
        "club_badge_src": null,
        "entry": 1210839,
        "entry_name": "Dier Rear",
        "event_total": 71,
        "has_played": true,
        "id": 8404214,
        "last_rank": 114095,
        "player_name": "Jamie Fry",
        "rank": 77757,
        "rank_sort": 77893,
        "total": 2336
      },
      {
        "club_badge_src": "https://fantasy.premierleague.com/gcs/plfpl-production-adobe-approved/plfpl-production/1215514/6f2123b4-6e79-4037-95df-ca7948705bba.png",
        "entry": 1215514,
        "entry_name": "Katticeman FC",
        "event_total": 56,
        "has_played": true,
        "id": 8436903,
        "last_rank": 77258,
        "player_name": "Nicolas Kattimeris",
        "rank": 77757,
        "rank_sort": 77894,
        "total": 2336
      },
      {
        "club_badge_src": null,
        "entry": 1223459,
        "entry_name": "Count Doku",
        "event_total": 56,
        "has_played": true,
        "id": 8494050,
        "last_rank": 77050,
        "player_name": "Alistair Harrold",
        "rank": 77757,
        "rank_sort": 77895,
        "total": 2336
      },
      {
        "club_badge_src": "https://fantasy.premierleague.com/gcs/plfpl-production-adobe-approved/plfpl-production/1256093/f2bb472a-8a2a-42de-b378-d7c7bf654577.png",
        "entry": 1256093,
        "entry_name": "GilmourGirls",
        "event_total": 60,
        "has_played": true,
        "id": 8725114,
        "last_rank": 86054,
        "player_name": "Georgia Nicholas",
        "rank": 77757,
        "rank_sort": 77896,
        "total": 2336
      },
      {
        "club_badge_src": null,
        "entry": 1279089,
        "entry_name": "Hook, Line & Sinker",
        "event_total": 47,
        "has_played": true,
        "id": 8888158,
        "last_rank": 59813,
        "player_name": "George Hook",
        "rank": 77757,
        "rank_sort": 77897,
        "total": 2336
      },
      {
        "club_badge_src": null,
        "entry": 1298261,
        "entry_name": "Cunha Believe It?",
        "event_total": 56,
        "has_played": true,
        "id": 9022925,
        "last_rank": 77258,
        "player_name": "Garry Winthrop",
        "rank": 77757,
        "rank_sort": 77898,
        "total": 2336
      },
      {
        "club_badge_src": null,
        "entry": 1360981,
        "entry_name": "Old Havertz Kai Hard",
        "event_total": 53,
        "has_played": true,
        "id": 9459941,
        "last_rank": 70757,
        "player_name": "Johnny Tully",
        "rank": 77757,
        "rank_sort": 77899,
        "total": 2336
      },
      {
        "club_badge_src": null,
        "entry": 1382896,
        "entry_name": "Costa Franca",
        "event_total": 55,
        "has_played": true,
        "id": 9618179,
        "last_rank": 74787,
        "player_name": "Luke Madigan",
        "rank": 77757,
        "rank_sort": 77900,
        "total": 2336
      }
    ]
  }
}