{
  "last_updated_data": "2026-05-24T23:28:17Z",
  "league": {
    "admin_entry": null,
    "closed": false,
    "code_privacy": "p",
    "created": "2025-07-20T23:14:33.933835Z",
    "cup_league": 2815434,
    "has_cup": true,
    "id": 314,
    "league_type": "s",
    "max_entries": null,
    "name": "Overall",
    "rank": null,
    "scoring": "c",
    "start_event": 1
  },
  "new_entries": {
    "has_next": false,
    "page": 1,
    "results": []
  },
  "standings": {
    "has_next": true,
    "page": 287,
    "results": [
      {
        "club_badge_src": null,
        "entry": 3414778,
        "entry_name": "Ray Ray Rangers",
        "event_total": 41,
        "has_played": true,
        "id": 25362679,
        "last_rank": 7059,
        "player_name": "Rachel Williams",
        "rank": 14214,
        "rank_sort": 14301,
        "total": 2389
      },
      {
        "club_badge_src": null,
        "entry": 3801109,
        "entry_name": "Bijan Mustard",
        "event_total": 51,
        "has_played": true,
        "id": 28415174,
        "last_rank": 10805,
        "player_name": "Paulus Kiviranta",
        "rank": 14214,
        "rank_sort": 14302,
        "total": 2389
      },
      {
        "club_badge_src": null,
        "entry": 3928358,
        "entry_name": "kupamecano",
        "event_total": 52,
        "has_played": true,
        "id": 29543947,
        "last_rank": 11237,
        "player_name": "Fanni Nagy",
        "rank": 14214,
        "rank_sort": 14303,
        "total": 2389
      },
      {
        "club_badge_src": null,
        "entry": 3982546,
        "entry_name": "20Forever",
        "event_total": 60,
        "has_played": true,
        "id": 29980024,
        "last_rank": 13153,
        "player_name": "Elisabet Dale B\u00f8rve",
        "rank": 14214,
        "rank_sort": 14304,
        "total": 2389
      },
      {
        "club_badge_src": null,
        "entry": 4022122,
        "entry_name": "Tel a friend",
        "event_total": 47,
        "has_played": true,
        "id": 30315235,
        "last_rank": 9089,
        "player_name": "Oscar August S\u00f8rheim",
        "rank": 14214,
        "rank_sort": 14305,
        "total": 2389
      },
      {
        "club_badge_src": null,
        "entry": 4057513,
        "entry_name": "Elfbarcelona",
        "event_total": 64,
        "has_played": true,
        "id": 30616533,
        "last_rank": 17989,
        "player_name": "Aiden Mackay",
        "rank": 14214,
        "rank_sort": 14306,
        "total": 2389
      },
      {
        "club_badge_src": null,
        "entry": 4094263,
        "entry_name": "Khancede 5",
        "event_total": 63,
        "has_played": true,
        "id": 30913592,
        "last_rank": 17437,
        "player_name": "Kaif Khan",
        "rank": 14214,
        "rank_sort": 14307,
        "total": 2389
      },
      {
        "club_badge_src": null,
        "entry": 4127178,
        "entry_name": "Number20",
        "event_total": 52,
        "has_played": true,
        "id": 31186173,
        "last_rank": 11237,
        "player_name": "Bethany Braga",
        "rank": 14214,
        "rank_sort": 14308,
        "total": 2389
      },
      {
        "club_badge_src": null,
        "entry": 4202809,
        "entry_name": "Yoro wizard Harry",
        "event_total": 30,
        "has_played": true,
        "id": 31815051,
        "last_rank": 4358,
        "player_name": "Tom Doocey",
        "rank": 14214,
        "rank_sort": 14309,
        "total": 2389
      },
      {
        "club_badge_src": null,
        "entry": 4218679,
        "entry_name": "FC Gudbrandsrud",
        "event_total": 63,
        "has_played": true,
        "id": 31951706,
        "last_rank": 17437,
        "player_name": "Kristian Gudbrandsrud",
        "rank": 14214,
        "rank_sort": 14310,
        "total": 2389
      },
      {
        "club_badge_src": null,
        "entry": 4231541,
        "entry_name": "show me the mane",
        "event_total": 63,
        "has_played": true,
        "id": 32062117,
        "last_rank": 17327,
        "player_name": "Craig Smith",
        "rank": 14214,
        "rank_sort": 14311,
        "total": 2389
      },
      {
        "club_badge_src": null,
        "entry": 4331877,
        "entry_name": "Acunhamatata",
        "event_total": 71,
        "has_played": true,
        "id": 32882776,
        "last_rank": 23164,
        "player_name": "Jono Carroll",
        "rank": 14214,
        "rank_sort": 14312,
        "total": 2389
      },
      {
        "club_badge_src": null,
        "entry": 4437648,
        "entry_name": "Cold_Palmer",
        "event_total": 63,
        "has_played": true,
        "id": 33789491,
        "last_rank": 17358,
        "player_name": "Charith Goud",
        "rank": 14214,
        "rank_sort": 14313,
        "total": 2389
      },
      {
        "club_badge_src": null,
        "entry": 4520588,
        "entry_name": "Luigiii",
        "event_total": 74,
        "has_played": true,
        "id": 34475691,
        "last_rank": 25776,
        "player_name": "Sindre Johansen \u00d8ystese",
        "rank": 14214,
        "rank_sort": 14314,
        "total": 2389
      },
      {
        "club_badge_src": "https://fantasy.premierleague.com/gcs/plfpl-production-adobe-approved/plfpl-production/4552928/7af554d3-bd45-4a52-a8ee-4a79cfaa4359.png",
        "entry": 4552928,
        "entry_name": "Fotball",
        "event_total": 71,
        "has_played": true,
        "id": 34739686,
        "last_rank": 23188,
        "player_name": "Erlend Hansen",
        "rank": 14214,
        "rank_sort": 14315,
        "total": 2389
      },
      {
        "club_badge_src": null,
        "entry": 4622493,
        "entry_name": "Streakers",
        "event_total": 66,
        "has_played": true,
        "id": 35335784,
        "last_rank": 19432,
        "player_name": "Nick Robertshaw",
        "rank": 14214,
        "rank_sort": 14316,
        "total": 2389
      },
      {
        "club_badge_src": null,
        "entry": 4699700,
        "entry_name": "El Gouna FC",
        "event_total": 39,
        "has_played": true,
        "id": 36028001,
        "last_rank": 6448,
        "player_name": "Louise Shenouda",
        "rank": 14214,
        "rank_sort": 14317,
        "total": 2389
      },
      {
        "club_badge_src": null,
        "entry": 4797227,
        "entry_name": "TaylorWBA",
        "event_total": 81,
        "has_played": true,
        "id": 36934628,
        "last_rank": 32751,
        "player_name": "Taylor Legace",
        "rank": 14214,
        "rank_sort": 14318,
        "total": 2389
      },
      {
        "club_badge_src": null,
        "entry": 4801092,
        "entry_name": "Munro FC",
        "event_total": 44,
        "has_played": true,
        "id": 36965566,
        "last_rank": 8032,
        "player_name": "Farnie Munro",
        "rank": 14214,
        "rank_sort": 14319,
        "total": 2389
      },
      {
        "club_badge_src": null,
        "entry": 4915642,
        "entry_name": "Isak Newton",
        "event_total": 73,
        "has_played": true,
        "id": 37913104,
        "last_rank": 25002,
        "player_name": "Steven Wells",
        "rank": 14214,
        "rank_sort": 14320,
        "total": 2389
      },
      {
        "club_badge_src": null,
        "entry": 5038326,
        "entry_name": "CharmeLeon",
        "event_total": 49,
        "has_played": true,
        "id": 38916636,
        "last_rank": 9885,
        "player_name": "Leo Satchell",
        "rank": 14214,
        "rank_sort": 14321,
        "total": 2389
      },
      {
        "club_badge_src": "https://fantasy.premierleague.com/gcs/plfpl-production-adobe-approved/plfpl-production/5076164/37875135-6b07-4b0e-a0a4-cc053b720b78.png",
        "entry": 5076164,
        "entry_name": "Babayaga",
        "event_total": 58,
        "has_played": true,
        "id": 39230993,
        "last_rank": 14292,
        "player_name": "Babayaga Lee",
        "rank": 14214,
        "rank_sort": 14322,
        "total": 2389
      },
      {
        "club_badge_src": null,
        "entry": 5279749,
        "entry_name": "SmarakDif11",
        "event_total": 60,
        "has_played": true,
        "id": 40923068,
        "last_rank": 15550,
        "player_name": "smarak s Pradhan",
        "rank": 14214,
        "rank_sort": 14323,
        "total": 2389
      },
      {
        "club_badge_src": null,
        "entry": 5412973,
        "entry_name": "Joey's FC",
        "event_total": 46,
        "has_played": true,
        "id": 42094616,
        "last_rank": 8758,
        "player_name": "Joseph Ofoedu",
        "rank": 14214,
        "rank_sort": 14324,
        "total": 2389
      },
      {
        "club_badge_src": null,
        "entry": 5568332,
        "entry_name": "abo d7",
        "event_total": 78,
        "has_played": true,
        "id": 43479235,
        "last_rank": 29904,
        "player_name": "abdulrahman Alatawi",
        "rank": 14214,
        "rank_sort": 14325,
        "total": 2389
      },
      {
        "club_badge_src": "https://fantasy.premierleague.com/gcs/plfpl-production-adobe-approved/plfpl-production/5764915/1fe94d36-cf95-4420-b759-9e041f467423.png",
        "entry": 5764915,
        "entry_name": "Rice Saka Roll Baby",
        "event_total": 51,
        "has_played": true,
        "id": 45194108,
        "last_rank": 9089,
        "player_name": "Saadiah Shayan",
        "rank": 14214,
        "rank_sort": 14326,
        "total": 2389
      },
      {
        "club_badge_src": null,
        "entry": 5818394,
        "entry_name": "Underachievers",
        "event_total": 64,
        "has_played": true,
        "id": 45658092,
        "last_rank": 18113,
        "player_name": "Graham Greene",
        "rank": 14214,
        "rank_sort": 14327,
        "total": 2389
      },
      {
        "club_badge_src": null,
        "entry": 5934711,
        "entry_name": "Happyface",
        "event_total": 40,
        "has_played": true,
        "id": 46660586,
        "last_rank": 6752,
        "player_name": "Michael Irianto",
        "rank": 14214,
        "rank_sort": 14328,
        "total": 2389
      },
      {
        "club_badge_src": null,
        "entry": 6011307,
        "entry_name": "Team Guava",
        "event_total": 43,
        "has_played": true,
        "id": 47398148,
        "last_rank": 7676,
        "player_name": "Gaurav Lakhwani",
        "rank": 14214,
        "rank_sort": 14329,
        "total": 2389
      },
      {
        "club_badge_src": "https://fantasy.premierleague.com/gcs/plfpl-production-adobe-approved/plfpl-production/6015877/bc0d0ea9-d9fb-40c3-a109-6a976962ef5e.png",
        "entry": 6015877,
        "entry_name": "GFMU",
        "event_total": 64,
        "has_played": true,
        "id": 47439009,
        "last_rank": 17989,
        "player_name": "Nicholas Leung",
        "rank": 14214,
        "rank_sort": 14330,
        "total": 2389
      },
      {
        "club_badge_src": "https://fantasy.premierleague.com/gcs/plfpl-production-adobe-approved/plfpl-production/6059655/ed1dc0a5-c617-4ff0-884c-b2c92cc40208.png",
        "entry": 6059655,
        "entry_name": "A League Of Her Own",
        "event_total": 50,
        "has_played": true,
        "id": 47823035,
        "last_rank": 10288,
        "player_name": "Rachel Ryder",
        "rank": 14214,
        "rank_sort": 14331,
        "total": 2389
      },
      {
        "club_badge_src": null,
        "entry": 6135670,
        "entry_name": "Ha Lakhe",
        "event_total": 49,
        "has_played": true,
        "id": 48488161,
        "last_rank": 9885,
        "player_name": "Nikesh Maharjan",
        "rank": 14214,
        "rank_sort": 14332,
        "total": 2389
      },
      {
        "club_badge_src": null,
        "entry": 6184026,
        "entry_name": "Gyok Tuah",
        "event_total": 60,
        "has_played": true,
        "id": 48906973,
        "last_rank": 15452,
        "player_name": "Krishan Patel",
        "rank": 14214,
        "rank_sort": 14333,
        "total": 2389
      },
      {
        "club_badge_src": null,
        "entry": 6684988,
        "entry_name": "Matt's Barmy Army",
        "event_total": 53,
        "has_played": true,
        "id": 53476157,
        "last_rank": 11699,
        "player_name": "MATTHEW ROBERTS",
        "rank": 14214,
        "rank_sort": 14334,
        "total": 2389
      },
      {
        "club_badge_src": null,
        "entry": 6705264,
        "entry_name": "Bowen 747",
        "event_total": 56,
        "has_played": true,
        "id": 53655032,
        "last_rank": 13153,
        "player_name": "Ian Parslow",
        "rank": 14214,
        "rank_sort": 14335,
        "total": 2389
      },
      {
        "club_badge_src": null,
        "entry": 7007874,
        "entry_name": "Vilmos vyrukai",
        "event_total": 58,
        "has_played": true,
        "id": 56275737,
        "last_rank": 14234,
        "player_name": "Markas Jarumbauskas",
        "rank": 14214,
        "rank_sort": 14336,
        "total": 2389
      },
      {
        "club_badge_src": "https://fantasy.premierleague.com/gcs/plfpl-production-adobe-approved/plfpl-production/7015579/51c52d7d-11fb-4ced-883c-dcd49c9fb32c.png",
        "entry": 7015579,
        "entry_name": "NVD > VVD",
        "event_total": 63,
        "has_played": true,
        "id": 56346619,
        "last_rank": 17437,
        "player_name": "Nathan Verniers",
        "rank": 14214,
        "rank_sort": 14337,
        "total": 2389
      },
      {
        "club_badge_src": null,
        "entry": 7081999,
        "entry_name": "Cole Survivor",
        "event_total": 59,
        "has_played": true,
        "id": 57005664,
        "last_rank": 14926,
        "player_name": "Andrew Ellwood",
        "rank": 14214,
        "rank_sort": 14338,
        "total": 2389
      },
      {
        "club_badge_src": null,
        "entry": 7162617,
        "entry_name": "los bigboys",
        "event_total": 64,
        "has_played": true,
        "id": 57780008,
        "last_rank": 15452,
        "player_name": "J\u00f8rgen Larsen",
        "rank": 14214,
        "rank_sort": 14339,
        "total": 2389
      },
      {
        "club_badge_src": null,
        "entry": 7219437,
        "entry_name": "Real Mabrid",
        "event_total": 59,
        "has_played": true,
        "id": 58316983,
        "last_rank": 15063,
        "player_name": "Scott Stevens",
        "rank": 14214,
        "rank_sort": 14340,
        "total": 2389
      },
      {
        "club_badge_src": null,
        "entry": 7288896,
        "entry_name": "Waldemars Ballklubb",
        "event_total": 51,
        "has_played": true,
        "id": 58973045,
        "last_rank": 10805,
        "player_name": "Bastian Falk Systad",
        "rank": 14214,
        "rank_sort": 14341,
        "total": 2389
      },
      {
        "club_badge_src": null,
        "entry": 7841759,
        "entry_name": "phoopsinho",
        "event_total": 76,
        "has_played": true,
        "id": 64456969,
        "last_rank": 27585,
        "player_name": "Edmond Antaki",
        "rank": 14214,
        "rank_sort": 14342,
        "total": 2389
      },
      {
        "club_badge_src": null,
        "entry": 7846847,
        "entry_name": "Haalnd Before Time",
        "event_total": 76,
        "has_played": true,
        "id": 64502257,
        "last_rank": 27770,
        "player_name": "Brett Wallace",
        "rank": 14214,
        "rank_sort": 14343,
        "total": 2389
      },
      {
        "club_badge_src": null,
        "entry": 8135957,
        "entry_name": "Zubi Zubi Doo",
        "event_total": 72,
        "has_played": true,
        "id": 67136863,
        "last_rank": 23973,
        "player_name": "George Baker",
        "rank": 14214,
        "rank_sort": 14344,
        "total": 2389
      },
      {
        "club_badge_src": null,
        "entry": 8218990,
        "entry_name": "DOMINOS Kings",
        "event_total": 64,
        "has_played": true,
        "id": 67921049,
        "last_rank": 18029,
        "player_name": "Albert \u00c5den",
        "rank": 14214,
        "rank_sort": 14345,
        "total": 2389
      },
      {
        "club_badge_src": null,
        "entry": 8297957,
        "entry_name": "NeverRed",
        "event_total": 78,
        "has_played": true,
        "id": 68688333,
        "last_rank": 29578,
        "player_name": "Gjermund Einarsen",
        "rank": 14214,
        "rank_sort": 14346,
        "total": 2389
      },
      {
        "club_badge_src": null,
        "entry": 8329520,
        "entry_name": "Red Devils",
        "event_total": 54,
        "has_played": true,
        "id": 69010278,
        "last_rank": 12200,
        "player_name": "Agnelo Dias",
        "rank": 14214,
        "rank_sort": 14347,
        "total": 2389
      },
      {
        "club_badge_src": null,
        "entry": 8631829,
        "entry_name": "\u0623\u0628\u0648 \u0635\u0642\u0631",
        "event_total": 52,
        "has_played": true,
        "id": 71905507,
        "last_rank": 11345,
        "player_name": "Ali Al fify",
        "rank": 14214,
        "rank_sort": 14348,
        "total": 2389
      },
      {
        "club_badge_src": null,
        "entry": 8915354,
        "entry_name": "Cheezy's Chargers",
        "event_total": 52,
        "has_played": true,
        "id": 74658644,
        "last_rank": 11237,
        "player_name": "Jacques vanvelze.jacques-gmail.com",
        "rank": 14214,
        "rank_sort": 14349,
        "total": 2389
      },
      {
        "club_badge_src": "https://fantasy.premierleague.com/gcs/plfpl-production-adobe-approved/plfpl-production/9074555/3a0396a2-d36d-4ccb-a64c-87b23c801ae2.png",
        "entry": 9074555,
        "entry_name": "Bees",
        "event_total": 55,
        "has_played": true,
        "id": 76202547,
        "last_rank": 12705,
        "player_name": "Biancah Njeri",
        "rank": 14214,
        "rank_sort": 14350,
        "total": 2389
      }
    ]
  }
}