{
  "last_updated_data": "2026-05-24T23:28:17Z",
  "league": {
    "admin_entry": null,
    "closed": false,
    "code_privacy": "p",
    "created": "2025-07-20T23:14:33.933835Z",
    "cup_league": 2815434,
    "has_cup": true,
    "id": 314,
    "league_type": "s",
    "max_entries": null,
    "name": "Overall",
    "rank": null,
    "scoring": "c",
    "start_event": 1
  },
  "new_entries": {
    "has_next": false,
    "page": 1,
    "results": []
  },
  "standings": {
    "has_next": true,
    "page": 1080,
    "results": [
      {
        "club_badge_src": null,
        "entry": 1399778,
        "entry_name": "The Wirtz Team",
        "event_total": 33,
        "has_played": true,
        "id": 9738741,
        "last_rank": 24897,
        "player_name": "Stef An",
        "rank": 53919,
        "rank_sort": 53951,
        "total": 2349
      },
      {
        "club_badge_src": null,
        "entry": 1529354,
        "entry_name": "ThingSwing's LADS",
        "event_total": 46,
        "has_played": true,
        "id": 10671346,
        "last_rank": 38774,
        "player_name": "Emil Thinggaard Andersen",
        "rank": 53919,
        "rank_sort": 53952,
        "total": 2349
      },
      {
        "club_badge_src": null,
        "entry": 1563980,
        "entry_name": "Mcginn and tonic",
        "event_total": 68,
        "has_played": true,
        "id": 10925064,
        "last_rank": 74898,
        "player_name": "Ole Petter Torgerhagen",
        "rank": 53919,
        "rank_sort": 53953,
        "total": 2349
      },
      {
        "club_badge_src": null,
        "entry": 1622784,
        "entry_name": "Change Name",
        "event_total": 49,
        "has_played": true,
        "id": 11357711,
        "last_rank": 42648,
        "player_name": "David Power",
        "rank": 53919,
        "rank_sort": 53954,
        "total": 2349
      },
      {
        "club_badge_src": null,
        "entry": 1766446,
        "entry_name": "UTB",
        "event_total": 45,
        "has_played": true,
        "id": 12407588,
        "last_rank": 37435,
        "player_name": "Liam Smith",
        "rank": 53919,
        "rank_sort": 53955,
        "total": 2349
      },
      {
        "club_badge_src": "https://fantasy.premierleague.com/gcs/plfpl-production-adobe-approved/plfpl-production/1952534/4a02f35c-2ec8-423e-9b68-c9fb0bdda571.png",
        "entry": 1952534,
        "entry_name": "Maverick",
        "event_total": 66,
        "has_played": true,
        "id": 13773711,
        "last_rank": 70651,
        "player_name": "Rushil Jacob",
        "rank": 53919,
        "rank_sort": 53956,
        "total": 2349
      },
      {
        "club_badge_src": null,
        "entry": 1975205,
        "entry_name": "Sotira FC",
        "event_total": 49,
        "has_played": true,
        "id": 13942141,
        "last_rank": 42648,
        "player_name": "Alex Nicolaou",
        "rank": 53919,
        "rank_sort": 53957,
        "total": 2349
      },
      {
        "club_badge_src": null,
        "entry": 2181782,
        "entry_name": "AB",
        "event_total": 52,
        "has_played": true,
        "id": 15518324,
        "last_rank": 46839,
        "player_name": "Adam Brazier",
        "rank": 53919,
        "rank_sort": 53958,
        "total": 2349
      },
      {
        "club_badge_src": null,
        "entry": 2196908,
        "entry_name": "Vards party",
        "event_total": 59,
        "has_played": true,
        "id": 15632102,
        "last_rank": 58071,
        "player_name": "Felix Andersson",
        "rank": 53919,
        "rank_sort": 53959,
        "total": 2349
      },
      {
        "club_badge_src": null,
        "entry": 2489597,
        "entry_name": "You're a Wissa Harry",
        "event_total": 66,
        "has_played": true,
        "id": 17822648,
        "last_rank": 70651,
        "player_name": "Brendan Hutchinson",
        "rank": 53919,
        "rank_sort": 53960,
        "total": 2349
      },
      {
        "club_badge_src": null,
        "entry": 2489635,
        "entry_name": "abo abbas milan",
        "event_total": 49,
        "has_played": true,
        "id": 17822938,
        "last_rank": 42648,
        "player_name": "Mohannad Alrefaie",
        "rank": 53919,
        "rank_sort": 53961,
        "total": 2349
      },
      {
        "club_badge_src": null,
        "entry": 2497852,
        "entry_name": "Men at Wirtz",
        "event_total": 65,
        "has_played": true,
        "id": 17883906,
        "last_rank": 68748,
        "player_name": "Jon Breazeale",
        "rank": 53919,
        "rank_sort": 53962,
        "total": 2349
      },
      {
        "club_badge_src": "https://fantasy.premierleague.com/gcs/plfpl-production-adobe-approved/plfpl-production/2565775/d74b36fd-306d-43f0-9807-a03b3dd731be.png",
        "entry": 2565775,
        "entry_name": "Bangerinho",
        "event_total": 70,
        "has_played": true,
        "id": 18405196,
        "last_rank": 79190,
        "player_name": "Nico Fackelmayer",
        "rank": 53919,
        "rank_sort": 53963,
        "total": 2349
      },
      {
        "club_badge_src": null,
        "entry": 2577307,
        "entry_name": "axeboksensprang",
        "event_total": 48,
        "has_played": true,
        "id": 18496812,
        "last_rank": 41101,
        "player_name": "\u00d8ivind St\u00e5lesen Hansen",
        "rank": 53919,
        "rank_sort": 53964,
        "total": 2349
      },
      {
        "club_badge_src": "https://fantasy.premierleague.com/gcs/plfpl-production-adobe-approved/plfpl-production/2616030/f3134165-0077-4694-88f9-48c1ae8c3069.png",
        "entry": 2616030,
        "entry_name": "B@$ FC",
        "event_total": 47,
        "has_played": true,
        "id": 18796583,
        "last_rank": 40036,
        "player_name": "Bas Surasit",
        "rank": 53919,
        "rank_sort": 53965,
        "total": 2349
      },
      {
        "club_badge_src": "https://fantasy.premierleague.com/gcs/plfpl-production-adobe-approved/plfpl-production/2696016/8a5bcc6e-2847-4725-a629-e0efcc5c0810.png",
        "entry": 2696016,
        "entry_name": "TheG",
        "event_total": 93,
        "has_played": true,
        "id": 19393408,
        "last_rank": 142113,
        "player_name": "Lionel Gunn",
        "rank": 53919,
        "rank_sort": 53966,
        "total": 2349
      },
      {
        "club_badge_src": null,
        "entry": 2724610,
        "entry_name": "4th Place Trophy",
        "event_total": 58,
        "has_played": true,
        "id": 19606127,
        "last_rank": 56099,
        "player_name": "Jason Castro",
        "rank": 53919,
        "rank_sort": 53967,
        "total": 2349
      },
      {
        "club_badge_src": null,
        "entry": 3044915,
        "entry_name": "LiverLi",
        "event_total": 25,
        "has_played": true,
        "id": 22414142,
        "last_rank": 18691,
        "player_name": "Shady Osama",
        "rank": 53919,
        "rank_sort": 53968,
        "total": 2349
      },
      {
        "club_badge_src": null,
        "entry": 3225212,
        "entry_name": "RieversUnited",
        "event_total": 81,
        "has_played": true,
        "id": 23851150,
        "last_rank": 106259,
        "player_name": "Dave Pearson",
        "rank": 53919,
        "rank_sort": 53969,
        "total": 2349
      },
      {
        "club_badge_src": null,
        "entry": 3256020,
        "entry_name": "NdiayeWillAlwaysLuvU",
        "event_total": 69,
        "has_played": true,
        "id": 24091619,
        "last_rank": 77050,
        "player_name": "Will Baxter",
        "rank": 53919,
        "rank_sort": 53970,
        "total": 2349
      },
      {
        "club_badge_src": null,
        "entry": 3441343,
        "entry_name": "Fadhillah FC",
        "event_total": 50,
        "has_played": true,
        "id": 25567070,
        "last_rank": 43849,
        "player_name": "Muhammad Afif Fadhillah",
        "rank": 53919,
        "rank_sort": 53971,
        "total": 2349
      },
      {
        "club_badge_src": null,
        "entry": 3689690,
        "entry_name": "4 peat",
        "event_total": 60,
        "has_played": true,
        "id": 27525265,
        "last_rank": 59496,
        "player_name": "Ewan Rostron",
        "rank": 53919,
        "rank_sort": 53972,
        "total": 2349
      },
      {
        "club_badge_src": "https://fantasy.premierleague.com/gcs/plfpl-production-adobe-approved/plfpl-production/3856513/8c561d46-aa21-4b2a-b60c-6818d9917d4c.png",
        "entry": 3856513,
        "entry_name": "KongpattanaFC",
        "event_total": 65,
        "has_played": true,
        "id": 28912713,
        "last_rank": 68572,
        "player_name": "May Vee",
        "rank": 53919,
        "rank_sort": 53973,
        "total": 2349
      },
      {
        "club_badge_src": null,
        "entry": 3922240,
        "entry_name": "Omar FC",
        "event_total": 55,
        "has_played": true,
        "id": 29495234,
        "last_rank": 51403,
        "player_name": "Omar Attique",
        "rank": 53919,
        "rank_sort": 53974,
        "total": 2349
      },
      {
        "club_badge_src": null,
        "entry": 4227054,
        "entry_name": "Kinder Mbeumo",
        "event_total": 70,
        "has_played": true,
        "id": 32025244,
        "last_rank": 79079,
        "player_name": "Matty Humphreys",
        "rank": 53919,
        "rank_sort": 53975,
        "total": 2349
      },
      {
        "club_badge_src": "https://fantasy.premierleague.com/gcs/plfpl-production-adobe-approved/plfpl-production/4513589/a3f3836f-77b2-4553-923e-7867c98f0e82.png",
        "entry": 4513589,
        "entry_name": "Yoro wizard Harry",
        "event_total": 52,
        "has_played": true,
        "id": 34417935,
        "last_rank": 46591,
        "player_name": "Jeremy McCauley",
        "rank": 53919,
        "rank_sort": 53976,
        "total": 2349
      },
      {
        "club_badge_src": null,
        "entry": 4672058,
        "entry_name": "A Town Called Malice",
        "event_total": 49,
        "has_played": true,
        "id": 35788545,
        "last_rank": 42648,
        "player_name": "John McCole",
        "rank": 53919,
        "rank_sort": 53977,
        "total": 2349
      },
      {
        "club_badge_src": null,
        "entry": 4709884,
        "entry_name": "New Taker fc",
        "event_total": 60,
        "has_played": true,
        "id": 36130232,
        "last_rank": 59535,
        "player_name": "Yo ----\ufe0f",
        "rank": 53919,
        "rank_sort": 53978,
        "total": 2349
      },
      {
        "club_badge_src": null,
        "entry": 4879252,
        "entry_name": "moaq",
        "event_total": 38,
        "has_played": true,
        "id": 37612587,
        "last_rank": 29688,
        "player_name": "Anas Mohammad",
        "rank": 53919,
        "rank_sort": 53979,
        "total": 2349
      },
      {
        "club_badge_src": null,
        "entry": 4993569,
        "entry_name": "Savinho pvt Raya",
        "event_total": 60,
        "has_played": true,
        "id": 38552718,
        "last_rank": 59496,
        "player_name": "Robert Damant",
        "rank": 53919,
        "rank_sort": 53980,
        "total": 2349
      },
      {
        "club_badge_src": null,
        "entry": 5159147,
        "entry_name": "Lil govt \ufffd",
        "event_total": 63,
        "has_played": true,
        "id": 39921096,
        "last_rank": 65163,
        "player_name": "Lil Govt---\ufe0f",
        "rank": 53919,
        "rank_sort": 53981,
        "total": 2349
      },
      {
        "club_badge_src": null,
        "entry": 5219118,
        "entry_name": "Boehly bought my nan",
        "event_total": 40,
        "has_played": true,
        "id": 40437057,
        "last_rank": 31747,
        "player_name": "Seb Lear",
        "rank": 53919,
        "rank_sort": 53982,
        "total": 2349
      },
      {
        "club_badge_src": null,
        "entry": 5242669,
        "entry_name": "3s!",
        "event_total": 58,
        "has_played": true,
        "id": 40629752,
        "last_rank": 56180,
        "player_name": "dries costermans",
        "rank": 53919,
        "rank_sort": 53983,
        "total": 2349
      },
      {
        "club_badge_src": null,
        "entry": 5300929,
        "entry_name": "Saka Spuds",
        "event_total": 57,
        "has_played": true,
        "id": 41090119,
        "last_rank": 54416,
        "player_name": "Chris Tormey",
        "rank": 53919,
        "rank_sort": 53984,
        "total": 2349
      },
      {
        "club_badge_src": null,
        "entry": 5377738,
        "entry_name": "goodman",
        "event_total": 53,
        "has_played": true,
        "id": 41799097,
        "last_rank": 48197,
        "player_name": "ziad hossam",
        "rank": 53919,
        "rank_sort": 53985,
        "total": 2349
      },
      {
        "club_badge_src": null,
        "entry": 5494203,
        "entry_name": "Thomas Frank's diary",
        "event_total": 62,
        "has_played": true,
        "id": 42794969,
        "last_rank": 63117,
        "player_name": "Mathias K\u00f8tter Pedersen",
        "rank": 53919,
        "rank_sort": 53986,
        "total": 2349
      },
      {
        "club_badge_src": null,
        "entry": 5564064,
        "entry_name": "MoneyMase XI",
        "event_total": 56,
        "has_played": true,
        "id": 43440904,
        "last_rank": 52759,
        "player_name": "Jazzy .",
        "rank": 53919,
        "rank_sort": 53987,
        "total": 2349
      },
      {
        "club_badge_src": null,
        "entry": 5566036,
        "entry_name": "Don'tLookBackElanga",
        "event_total": 55,
        "has_played": true,
        "id": 43459055,
        "last_rank": 51403,
        "player_name": "Nick Spender",
        "rank": 53919,
        "rank_sort": 53988,
        "total": 2349
      },
      {
        "club_badge_src": null,
        "entry": 5708680,
        "entry_name": "Banko",
        "event_total": 67,
        "has_played": true,
        "id": 44702465,
        "last_rank": 72702,
        "player_name": "matt banks",
        "rank": 53919,
        "rank_sort": 53989,
        "total": 2349
      },
      {
        "club_badge_src": null,
        "entry": 6130888,
        "entry_name": "DecapitatedFC",
        "event_total": 82,
        "has_played": true,
        "id": 48445904,
        "last_rank": 108959,
        "player_name": "Oussama El Ouadie",
        "rank": 53919,
        "rank_sort": 53990,
        "total": 2349
      },
      {
        "club_badge_src": null,
        "entry": 6196095,
        "entry_name": "Cleggy Utd",
        "event_total": 62,
        "has_played": true,
        "id": 49011629,
        "last_rank": 63117,
        "player_name": "Clare Mason",
        "rank": 53919,
        "rank_sort": 53991,
        "total": 2349
      },
      {
        "club_badge_src": null,
        "entry": 6272484,
        "entry_name": "McGinn & Tonic",
        "event_total": 62,
        "has_played": true,
        "id": 49669543,
        "last_rank": 63117,
        "player_name": "Niall McGinn",
        "rank": 53919,
        "rank_sort": 53992,
        "total": 2349
      },
      {
        "club_badge_src": null,
        "entry": 6392267,
        "entry_name": "mDuomo \u26ea",
        "event_total": 63,
        "has_played": true,
        "id": 50849952,
        "last_rank": 64830,
        "player_name": "Jonah Froggatt",
        "rank": 53919,
        "rank_sort": 53993,
        "total": 2349
      },
      {
        "club_badge_src": null,
        "entry": 6502112,
        "entry_name": "Bor\u00f3wka lub \u015bmier\u0107",
        "event_total": 53,
        "has_played": true,
        "id": 51840694,
        "last_rank": 48197,
        "player_name": "Urszula Nowicka",
        "rank": 53919,
        "rank_sort": 53994,
        "total": 2349
      },
      {
        "club_badge_src": null,
        "entry": 6889975,
        "entry_name": "catchmeifucan",
        "event_total": 56,
        "has_played": true,
        "id": 55220180,
        "last_rank": 52853,
        "player_name": "Catherine Delaney",
        "rank": 53919,
        "rank_sort": 53995,
        "total": 2349
      },
      {
        "club_badge_src": null,
        "entry": 6985406,
        "entry_name": "skolmli",
        "event_total": 71,
        "has_played": true,
        "id": 56068305,
        "last_rank": 81312,
        "player_name": "Ingrid Berg Skolmli",
        "rank": 53919,
        "rank_sort": 53996,
        "total": 2349
      },
      {
        "club_badge_src": null,
        "entry": 7255787,
        "entry_name": "Rubin Me Softly",
        "event_total": 56,
        "has_played": true,
        "id": 58660943,
        "last_rank": 52738,
        "player_name": "Tom Chidley",
        "rank": 53919,
        "rank_sort": 53997,
        "total": 2349
      },
      {
        "club_badge_src": null,
        "entry": 7346059,
        "entry_name": "TeeKay Boyz",
        "event_total": 40,
        "has_played": true,
        "id": 59508471,
        "last_rank": 31620,
        "player_name": "Temitope Kumuyi",
        "rank": 53919,
        "rank_sort": 53998,
        "total": 2349
      },
      {
        "club_badge_src": null,
        "entry": 7530400,
        "entry_name": "Mo with the Flo",
        "event_total": 60,
        "has_played": true,
        "id": 61632668,
        "last_rank": 59496,
        "player_name": "Ross Whalley",
        "rank": 53919,
        "rank_sort": 53999,
        "total": 2349
      },
      {
        "club_badge_src": null,
        "entry": 7594250,
        "entry_name": "Hugoal Ekitike",
        "event_total": 68,
        "has_played": true,
        "id": 62213445,
        "last_rank": 74741,
        "player_name": "Alex Jaquiss",
        "rank": 53919,
        "rank_sort": 54000,
        "total": 2349
      }
    ]
  }
}