{
  "last_updated_data": "2026-05-24T23:28:17Z",
  "league": {
    "admin_entry": null,
    "closed": false,
    "code_privacy": "p",
    "created": "2025-07-20T23:14:33.933835Z",
    "cup_league": 2815434,
    "has_cup": true,
    "id": 314,
    "league_type": "s",
    "max_entries": null,
    "name": "Overall",
    "rank": null,
    "scoring": "c",
    "start_event": 1
  },
  "new_entries": {
    "has_next": false,
    "page": 1,
    "results": []
  },
  "standings": {
    "has_next": true,
    "page": 342,
    "results": [
      {
        "club_badge_src": null,
        "entry": 5509040,
        "entry_name": "ElHadji Malick Diouf",
        "event_total": 50,
        "has_played": true,
        "id": 42938542,
        "last_rank": 12583,
        "player_name": "Mosab Al Ali",
        "rank": 17050,
        "rank_sort": 17051,
        "total": 2385
      },
      {
        "club_badge_src": "https://fantasy.premierleague.com/gcs/plfpl-production-adobe-approved/plfpl-production/6286253/bd7ce8d5-a3ba-4e4f-93ce-307bececc42a.png",
        "entry": 6286253,
        "entry_name": "20 Times",
        "event_total": 47,
        "has_played": true,
        "id": 49795761,
        "last_rank": 11126,
        "player_name": "Khalifa Mahgoub",
        "rank": 17050,
        "rank_sort": 17052,
        "total": 2385
      },
      {
        "club_badge_src": null,
        "entry": 4455991,
        "entry_name": "White Walkers",
        "event_total": 59,
        "has_played": true,
        "id": 33944126,
        "last_rank": 15375,
        "player_name": "Yared Sol",
        "rank": 17053,
        "rank_sort": 17053,
        "total": 2385
      },
      {
        "club_badge_src": null,
        "entry": 5718977,
        "entry_name": "\u0628\u0637\u0644 \u0627\u0644\u062f\u0648\u0631\u0629",
        "event_total": 92,
        "has_played": true,
        "id": 44794284,
        "last_rank": 42347,
        "player_name": "Abdeslam Sennadj",
        "rank": 17054,
        "rank_sort": 17054,
        "total": 2385
      },
      {
        "club_badge_src": null,
        "entry": 6014953,
        "entry_name": "\u0645\u0646 \u0643\u0644 \u0627\u0644\u0646\u0648\u0627\u062d\u064a \u0633\u0639\u0627\u062f\u062a\u0643",
        "event_total": 70,
        "has_played": true,
        "id": 47430657,
        "last_rank": 23138,
        "player_name": "wd ahmed",
        "rank": 17055,
        "rank_sort": 17055,
        "total": 2385
      },
      {
        "club_badge_src": null,
        "entry": 1896831,
        "entry_name": "Viva La Shrimpettes",
        "event_total": 55,
        "has_played": true,
        "id": 13370093,
        "last_rank": 15385,
        "player_name": "George Hayter",
        "rank": 17056,
        "rank_sort": 17056,
        "total": 2384
      },
      {
        "club_badge_src": null,
        "entry": 7670233,
        "entry_name": "Gazza's Tigers",
        "event_total": 55,
        "has_played": true,
        "id": 62903271,
        "last_rank": 15386,
        "player_name": "Gary Whitelam",
        "rank": 17057,
        "rank_sort": 17057,
        "total": 2384
      },
      {
        "club_badge_src": "https://fantasy.premierleague.com/gcs/plfpl-production-adobe-approved/plfpl-production/7542361/39fafc2a-4b16-4e7b-a873-535af0c3c571.png",
        "entry": 7542361,
        "entry_name": "Maximo",
        "event_total": 49,
        "has_played": true,
        "id": 61742470,
        "last_rank": 12082,
        "player_name": "Martin Onsewa",
        "rank": 17058,
        "rank_sort": 17058,
        "total": 2384
      },
      {
        "club_badge_src": null,
        "entry": 5650905,
        "entry_name": "Lamb Cunha with Rice",
        "event_total": 46,
        "has_played": true,
        "id": 44204897,
        "last_rank": 10706,
        "player_name": "Tj Adebayo",
        "rank": 17059,
        "rank_sort": 17059,
        "total": 2384
      },
      {
        "club_badge_src": null,
        "entry": 9033681,
        "entry_name": "Yea Man Forsure",
        "event_total": 87,
        "has_played": true,
        "id": 75805503,
        "last_rank": 46515,
        "player_name": "Andrew L",
        "rank": 17059,
        "rank_sort": 17060,
        "total": 2384
      },
      {
        "club_badge_src": null,
        "entry": 63937,
        "entry_name": "Sydchez",
        "event_total": 61,
        "has_played": true,
        "id": 412571,
        "last_rank": 16668,
        "player_name": "Sydney Sanchez",
        "rank": 17061,
        "rank_sort": 17061,
        "total": 2384
      },
      {
        "club_badge_src": null,
        "entry": 138312,
        "entry_name": "RIPKDBabe",
        "event_total": 46,
        "has_played": true,
        "id": 902173,
        "last_rank": 10708,
        "player_name": "Johan Forsberg",
        "rank": 17061,
        "rank_sort": 17062,
        "total": 2384
      },
      {
        "club_badge_src": null,
        "entry": 2841085,
        "entry_name": "Stockport Iniesta",
        "event_total": 62,
        "has_played": true,
        "id": 20765159,
        "last_rank": 20131,
        "player_name": "William Zhao",
        "rank": 17061,
        "rank_sort": 17063,
        "total": 2384
      },
      {
        "club_badge_src": null,
        "entry": 3454269,
        "entry_name": "Maybey's Men",
        "event_total": 52,
        "has_played": true,
        "id": 25671987,
        "last_rank": 13702,
        "player_name": "Joe Mayeby",
        "rank": 17061,
        "rank_sort": 17064,
        "total": 2384
      },
      {
        "club_badge_src": null,
        "entry": 5751372,
        "entry_name": "\u0627\u0644\u0639\u0636\u0648 \u0627\u0644\u0645\u0646\u062a\u062f\u0628",
        "event_total": 37,
        "has_played": true,
        "id": 45077806,
        "last_rank": 7305,
        "player_name": "Mohamed Farouk",
        "rank": 17061,
        "rank_sort": 17065,
        "total": 2384
      },
      {
        "club_badge_src": null,
        "entry": 243617,
        "entry_name": "Snoopadelics",
        "event_total": 73,
        "has_played": true,
        "id": 1622153,
        "last_rank": 29482,
        "player_name": "Robin Seekatz",
        "rank": 17066,
        "rank_sort": 17066,
        "total": 2384
      },
      {
        "club_badge_src": null,
        "entry": 1095639,
        "entry_name": "Full Kit Bankers",
        "event_total": 75,
        "has_played": true,
        "id": 7588619,
        "last_rank": 31512,
        "player_name": "Grant Patience",
        "rank": 17066,
        "rank_sort": 17067,
        "total": 2384
      },
      {
        "club_badge_src": null,
        "entry": 1549414,
        "entry_name": "iante",
        "event_total": 59,
        "has_played": true,
        "id": 10817819,
        "last_rank": 17965,
        "player_name": "Ian Iante",
        "rank": 17066,
        "rank_sort": 17068,
        "total": 2384
      },
      {
        "club_badge_src": null,
        "entry": 2390311,
        "entry_name": "Kizz in my pants",
        "event_total": 39,
        "has_played": true,
        "id": 17074395,
        "last_rank": 7959,
        "player_name": "Keian Tavasoli",
        "rank": 17066,
        "rank_sort": 17069,
        "total": 2384
      },
      {
        "club_badge_src": null,
        "entry": 5723926,
        "entry_name": "Arne's Army",
        "event_total": 58,
        "has_played": true,
        "id": 44836688,
        "last_rank": 17311,
        "player_name": "Paul Byrne",
        "rank": 17066,
        "rank_sort": 17070,
        "total": 2384
      },
      {
        "club_badge_src": null,
        "entry": 6283259,
        "entry_name": "ShaunyPantzFC",
        "event_total": 53,
        "has_played": true,
        "id": 49767501,
        "last_rank": 14251,
        "player_name": "Shaun Wong",
        "rank": 17066,
        "rank_sort": 17071,
        "total": 2384
      },
      {
        "club_badge_src": null,
        "entry": 7381110,
        "entry_name": "11 Wonders",
        "event_total": 48,
        "has_played": true,
        "id": 59836905,
        "last_rank": 11591,
        "player_name": "\u017dilvinas Karlas",
        "rank": 17066,
        "rank_sort": 17072,
        "total": 2384
      },
      {
        "club_badge_src": "https://fantasy.premierleague.com/gcs/plfpl-production-adobe-approved/plfpl-production/9241126/d59eec2d-8c6d-460e-b05c-4fb920876968.png",
        "entry": 9241126,
        "entry_name": "Alanna's bananas",
        "event_total": 65,
        "has_played": true,
        "id": 77836661,
        "last_rank": 22391,
        "player_name": "Alanna Powell",
        "rank": 17066,
        "rank_sort": 17073,
        "total": 2384
      },
      {
        "club_badge_src": null,
        "entry": 15776,
        "entry_name": "Ginger on top",
        "event_total": 48,
        "has_played": true,
        "id": 97112,
        "last_rank": 11599,
        "player_name": "Beth Hayward",
        "rank": 17074,
        "rank_sort": 17074,
        "total": 2384
      },
      {
        "club_badge_src": "https://fantasy.premierleague.com/gcs/plfpl-production-adobe-approved/plfpl-production/132777/a0a39aa4-7f1c-4047-9fab-3db6eef8a988.png",
        "entry": 132777,
        "entry_name": "Dan FPL",
        "event_total": 71,
        "has_played": true,
        "id": 864838,
        "last_rank": 27564,
        "player_name": "Dan Casey",
        "rank": 17074,
        "rank_sort": 17075,
        "total": 2384
      },
      {
        "club_badge_src": "https://fantasy.premierleague.com/gcs/plfpl-production-adobe-approved/plfpl-production/389925/6935ab67-f299-47a5-ae7d-93631dc49ffd.png",
        "entry": 389925,
        "entry_name": "Kinder Mbeumo boys",
        "event_total": 65,
        "has_played": true,
        "id": 2615647,
        "last_rank": 22376,
        "player_name": "Jake Wigley",
        "rank": 17074,
        "rank_sort": 17076,
        "total": 2384
      },
      {
        "club_badge_src": "https://fantasy.premierleague.com/gcs/plfpl-production-adobe-approved/plfpl-production/868351/2b63b0d2-08bf-4669-84ee-f3957fab8f56.png",
        "entry": 868351,
        "entry_name": "TheBOLDMove",
        "event_total": 78,
        "has_played": true,
        "id": 5953209,
        "last_rank": 34937,
        "player_name": "Faizal Ode Putra",
        "rank": 17074,
        "rank_sort": 17077,
        "total": 2384
      },
      {
        "club_badge_src": null,
        "entry": 1442265,
        "entry_name": "Minteh Fresh",
        "event_total": 66,
        "has_played": true,
        "id": 10050054,
        "last_rank": 23188,
        "player_name": "Amy Wright",
        "rank": 17074,
        "rank_sort": 17078,
        "total": 2384
      },
      {
        "club_badge_src": "https://fantasy.premierleague.com/gcs/plfpl-production-adobe-approved/plfpl-production/1820683/93ac6343-ed12-4ea8-bc23-9ae564fef196.png",
        "entry": 1820683,
        "entry_name": "Tisdagsklubbens FF",
        "event_total": 50,
        "has_played": true,
        "id": 12804311,
        "last_rank": 12645,
        "player_name": "Andreas Sandstrom",
        "rank": 17074,
        "rank_sort": 17079,
        "total": 2384
      },
      {
        "club_badge_src": null,
        "entry": 2057047,
        "entry_name": "T-Wood City",
        "event_total": 68,
        "has_played": true,
        "id": 14572392,
        "last_rank": 24832,
        "player_name": "Kamiel Ceusters",
        "rank": 17074,
        "rank_sort": 17080,
        "total": 2384
      },
      {
        "club_badge_src": null,
        "entry": 2215223,
        "entry_name": "Is it over yet",
        "event_total": 74,
        "has_played": true,
        "id": 15775921,
        "last_rank": 30536,
        "player_name": "Joe Turley",
        "rank": 17074,
        "rank_sort": 17081,
        "total": 2384
      },
      {
        "club_badge_src": null,
        "entry": 2342393,
        "entry_name": "Make HEX 10k X again",
        "event_total": 68,
        "has_played": true,
        "id": 16713714,
        "last_rank": 24857,
        "player_name": "Grunde Ugelstad",
        "rank": 17074,
        "rank_sort": 17082,
        "total": 2384
      },
      {
        "club_badge_src": null,
        "entry": 3085551,
        "entry_name": "Licky Kicky",
        "event_total": 57,
        "has_played": true,
        "id": 22733671,
        "last_rank": 16675,
        "player_name": "Andrew White",
        "rank": 17074,
        "rank_sort": 17083,
        "total": 2384
      },
      {
        "club_badge_src": null,
        "entry": 3741591,
        "entry_name": "Browneys XI",
        "event_total": 67,
        "has_played": true,
        "id": 27930441,
        "last_rank": 23990,
        "player_name": "Joe Browne",
        "rank": 17074,
        "rank_sort": 17084,
        "total": 2384
      },
      {
        "club_badge_src": null,
        "entry": 3766126,
        "entry_name": "Tribu -Spartans",
        "event_total": 75,
        "has_played": true,
        "id": 28120114,
        "last_rank": 31556,
        "player_name": "Luis Lopez",
        "rank": 17074,
        "rank_sort": 17085,
        "total": 2384
      },
      {
        "club_badge_src": null,
        "entry": 3987441,
        "entry_name": "Sremski Karlovci",
        "event_total": 59,
        "has_played": true,
        "id": 30021533,
        "last_rank": 17989,
        "player_name": "Nikola Madonic",
        "rank": 17074,
        "rank_sort": 17086,
        "total": 2384
      },
      {
        "club_badge_src": null,
        "entry": 4657603,
        "entry_name": "under my cucurella",
        "event_total": 41,
        "has_played": true,
        "id": 35652694,
        "last_rank": 8718,
        "player_name": "sean stackpoole",
        "rank": 17074,
        "rank_sort": 17087,
        "total": 2384
      },
      {
        "club_badge_src": null,
        "entry": 5757985,
        "entry_name": "Liggeunderlaget",
        "event_total": 68,
        "has_played": true,
        "id": 45135080,
        "last_rank": 24857,
        "player_name": "Severin Sk\u00e5lnes",
        "rank": 17074,
        "rank_sort": 17088,
        "total": 2384
      },
      {
        "club_badge_src": null,
        "entry": 6912685,
        "entry_name": "M. mostafa",
        "event_total": 48,
        "has_played": true,
        "id": 55411234,
        "last_rank": 11642,
        "player_name": "Mohamed Mostafa",
        "rank": 17074,
        "rank_sort": 17089,
        "total": 2384
      },
      {
        "club_badge_src": null,
        "entry": 7256438,
        "entry_name": "Saka Potatoes",
        "event_total": 48,
        "has_played": true,
        "id": 58666860,
        "last_rank": 11608,
        "player_name": "Alexandra Lawrence",
        "rank": 17074,
        "rank_sort": 17090,
        "total": 2384
      },
      {
        "club_badge_src": null,
        "entry": 7416882,
        "entry_name": "Delicious Jr.",
        "event_total": 58,
        "has_played": true,
        "id": 60208067,
        "last_rank": 17358,
        "player_name": "Salim Adam",
        "rank": 17074,
        "rank_sort": 17091,
        "total": 2384
      },
      {
        "club_badge_src": "https://fantasy.premierleague.com/gcs/plfpl-production-adobe-approved/plfpl-production/368/905a81d2-7f1a-483c-821e-0dddb855e1b9.png",
        "entry": 368,
        "entry_name": "Storm Chasers",
        "event_total": 66,
        "has_played": true,
        "id": 2033,
        "last_rank": 23341,
        "player_name": "Percy Lynch",
        "rank": 17092,
        "rank_sort": 17092,
        "total": 2384
      },
      {
        "club_badge_src": null,
        "entry": 7292,
        "entry_name": "Kai is the Limit",
        "event_total": 74,
        "has_played": true,
        "id": 42020,
        "last_rank": 30536,
        "player_name": "Urva Patel Patel",
        "rank": 17092,
        "rank_sort": 17093,
        "total": 2384
      },
      {
        "club_badge_src": "https://fantasy.premierleague.com/gcs/plfpl-production-adobe-approved/plfpl-production/21626/d5c929ed-1296-4bab-89d8-359816b3b9f8.png",
        "entry": 21626,
        "entry_name": "DeafEarFC",
        "event_total": 64,
        "has_played": true,
        "id": 135646,
        "last_rank": 21628,
        "player_name": "Dan Parr",
        "rank": 17092,
        "rank_sort": 17094,
        "total": 2384
      },
      {
        "club_badge_src": null,
        "entry": 29378,
        "entry_name": "Hala Madrid",
        "event_total": 61,
        "has_played": true,
        "id": 185742,
        "last_rank": 19376,
        "player_name": "The Special One",
        "rank": 17092,
        "rank_sort": 17095,
        "total": 2384
      },
      {
        "club_badge_src": "https://fantasy.premierleague.com/gcs/plfpl-production-adobe-approved/plfpl-production/49614/29385940-3914-49b1-a169-5006e90d8161.png",
        "entry": 49614,
        "entry_name": "Champ Again Ole Ole",
        "event_total": 57,
        "has_played": true,
        "id": 318953,
        "last_rank": 16729,
        "player_name": "Michael Bate",
        "rank": 17092,
        "rank_sort": 17096,
        "total": 2384
      },
      {
        "club_badge_src": null,
        "entry": 97615,
        "entry_name": "Rutter Woke Nonsense",
        "event_total": 77,
        "has_played": true,
        "id": 637552,
        "last_rank": 33845,
        "player_name": "Darko Nikolovski",
        "rank": 17092,
        "rank_sort": 17097,
        "total": 2384
      },
      {
        "club_badge_src": null,
        "entry": 105043,
        "entry_name": "Rubber Digne Rapids",
        "event_total": 41,
        "has_played": true,
        "id": 685139,
        "last_rank": 8758,
        "player_name": "Vik Khela",
        "rank": 17092,
        "rank_sort": 17098,
        "total": 2384
      },
      {
        "club_badge_src": null,
        "entry": 145385,
        "entry_name": "Gordon_G",
        "event_total": 61,
        "has_played": true,
        "id": 952106,
        "last_rank": 19544,
        "player_name": "Gordon G",
        "rank": 17092,
        "rank_sort": 17099,
        "total": 2384
      },
      {
        "club_badge_src": null,
        "entry": 145443,
        "entry_name": "Manke",
        "event_total": 67,
        "has_played": true,
        "id": 952507,
        "last_rank": 23990,
        "player_name": "H\u00e5kon Carlsen",
        "rank": 17092,
        "rank_sort": 17100,
        "total": 2384
      }
    ]
  }
}