{
  "last_updated_data": "2026-05-24T23:28:17Z",
  "league": {
    "admin_entry": null,
    "closed": false,
    "code_privacy": "p",
    "created": "2025-07-20T23:14:33.933835Z",
    "cup_league": 2815434,
    "has_cup": true,
    "id": 314,
    "league_type": "s",
    "max_entries": null,
    "name": "Overall",
    "rank": null,
    "scoring": "c",
    "start_event": 1
  },
  "new_entries": {
    "has_next": false,
    "page": 1,
    "results": []
  },
  "standings": {
    "has_next": true,
    "page": 294,
    "results": [
      {
        "club_badge_src": null,
        "entry": 792324,
        "entry_name": "Only kupers&lignjas",
        "event_total": 41,
        "has_played": true,
        "id": 5422150,
        "last_rank": 7257,
        "player_name": "Nikola Rankovic",
        "rank": 14648,
        "rank_sort": 14651,
        "total": 2389
      },
      {
        "club_badge_src": null,
        "entry": 992418,
        "entry_name": "Manchester is Red",
        "event_total": 68,
        "has_played": true,
        "id": 6844392,
        "last_rank": 21486,
        "player_name": "AKHIL E S",
        "rank": 14648,
        "rank_sort": 14652,
        "total": 2389
      },
      {
        "club_badge_src": null,
        "entry": 1189816,
        "entry_name": "Visca Barca",
        "event_total": 65,
        "has_played": true,
        "id": 8255626,
        "last_rank": 14148,
        "player_name": "Ali Alshami",
        "rank": 14648,
        "rank_sort": 14653,
        "total": 2389
      },
      {
        "club_badge_src": null,
        "entry": 1461229,
        "entry_name": "LIGHT THE CANDLE",
        "event_total": 64,
        "has_played": true,
        "id": 10185585,
        "last_rank": 18555,
        "player_name": "Liam Hall",
        "rank": 14648,
        "rank_sort": 14654,
        "total": 2389
      },
      {
        "club_badge_src": null,
        "entry": 1522265,
        "entry_name": "Rowlands Elite F.C",
        "event_total": 66,
        "has_played": true,
        "id": 10617369,
        "last_rank": 12470,
        "player_name": "Andrew Rowlands",
        "rank": 14648,
        "rank_sort": 14655,
        "total": 2389
      },
      {
        "club_badge_src": null,
        "entry": 3345494,
        "entry_name": "VidukaHazzard",
        "event_total": 71,
        "has_played": true,
        "id": 24816280,
        "last_rank": 20727,
        "player_name": "James Ellis",
        "rank": 14648,
        "rank_sort": 14656,
        "total": 2389
      },
      {
        "club_badge_src": null,
        "entry": 4691827,
        "entry_name": "Meowntain FC",
        "event_total": 68,
        "has_played": true,
        "id": 35962234,
        "last_rank": 21392,
        "player_name": "T M",
        "rank": 14648,
        "rank_sort": 14657,
        "total": 2389
      },
      {
        "club_badge_src": null,
        "entry": 4994023,
        "entry_name": "Power Rangers",
        "event_total": 38,
        "has_played": true,
        "id": 38556605,
        "last_rank": 6365,
        "player_name": "Angad Bains",
        "rank": 14648,
        "rank_sort": 14658,
        "total": 2389
      },
      {
        "club_badge_src": null,
        "entry": 6063957,
        "entry_name": "FPL Bandit",
        "event_total": 61,
        "has_played": true,
        "id": 47860504,
        "last_rank": 16512,
        "player_name": "Nick Caprino",
        "rank": 14648,
        "rank_sort": 14659,
        "total": 2389
      },
      {
        "club_badge_src": null,
        "entry": 6682024,
        "entry_name": "Onana What\u2019s My Name",
        "event_total": 69,
        "has_played": true,
        "id": 53450125,
        "last_rank": 19237,
        "player_name": "Yasmin Scane",
        "rank": 14648,
        "rank_sort": 14660,
        "total": 2389
      },
      {
        "club_badge_src": null,
        "entry": 14971,
        "entry_name": "Fuego FC",
        "event_total": 76,
        "has_played": true,
        "id": 91463,
        "last_rank": 24680,
        "player_name": "Adebayo Shokunbi",
        "rank": 14661,
        "rank_sort": 14661,
        "total": 2389
      },
      {
        "club_badge_src": null,
        "entry": 43975,
        "entry_name": "I Love This Game",
        "event_total": 54,
        "has_played": true,
        "id": 281726,
        "last_rank": 7535,
        "player_name": "Yonas Abraham",
        "rank": 14661,
        "rank_sort": 14662,
        "total": 2389
      },
      {
        "club_badge_src": null,
        "entry": 68130,
        "entry_name": "Jota20",
        "event_total": 54,
        "has_played": true,
        "id": 441331,
        "last_rank": 9015,
        "player_name": "Fredrik Rikstad",
        "rank": 14661,
        "rank_sort": 14663,
        "total": 2389
      },
      {
        "club_badge_src": "https://fantasy.premierleague.com/gcs/plfpl-production-adobe-approved/plfpl-production/70862/2a2baab8-d1ea-4069-8f9c-26d75a9825a8.png",
        "entry": 70862,
        "entry_name": "Sir Alex AliAlwash",
        "event_total": 52,
        "has_played": true,
        "id": 460183,
        "last_rank": 9806,
        "player_name": "Sir Alex Ali Alwash",
        "rank": 14661,
        "rank_sort": 14664,
        "total": 2389
      },
      {
        "club_badge_src": null,
        "entry": 173785,
        "entry_name": "Under my Cucurella",
        "event_total": 53,
        "has_played": true,
        "id": 1147671,
        "last_rank": 12056,
        "player_name": "Cody Childress",
        "rank": 14661,
        "rank_sort": 14665,
        "total": 2389
      },
      {
        "club_badge_src": null,
        "entry": 682274,
        "entry_name": "Dachslaget",
        "event_total": 51,
        "has_played": true,
        "id": 4617503,
        "last_rank": 11104,
        "player_name": "Kristin Remnes",
        "rank": 14661,
        "rank_sort": 14666,
        "total": 2389
      },
      {
        "club_badge_src": null,
        "entry": 1825497,
        "entry_name": "JISOO `BLACKPINK FC\u2764",
        "event_total": 58,
        "has_played": true,
        "id": 12839664,
        "last_rank": 12547,
        "player_name": "Kitisak Mos",
        "rank": 14661,
        "rank_sort": 14667,
        "total": 2389
      },
      {
        "club_badge_src": null,
        "entry": 2632485,
        "entry_name": "\u00d8de Toilette",
        "event_total": 67,
        "has_played": true,
        "id": 18919085,
        "last_rank": 20678,
        "player_name": "David Saiz",
        "rank": 14661,
        "rank_sort": 14668,
        "total": 2389
      },
      {
        "club_badge_src": null,
        "entry": 2816478,
        "entry_name": "Iceman",
        "event_total": 63,
        "has_played": true,
        "id": 20572154,
        "last_rank": 17909,
        "player_name": "Sebastian Heggland",
        "rank": 14661,
        "rank_sort": 14669,
        "total": 2389
      },
      {
        "club_badge_src": null,
        "entry": 4869459,
        "entry_name": "Han & Den FC",
        "event_total": 53,
        "has_played": true,
        "id": 37532375,
        "last_rank": 12069,
        "player_name": "Hannah Walsh",
        "rank": 14661,
        "rank_sort": 14670,
        "total": 2389
      },
      {
        "club_badge_src": null,
        "entry": 112916,
        "entry_name": "MOHAFC",
        "event_total": 62,
        "has_played": true,
        "id": 736385,
        "last_rank": 14771,
        "player_name": "The MO",
        "rank": 14671,
        "rank_sort": 14671,
        "total": 2389
      },
      {
        "club_badge_src": null,
        "entry": 328526,
        "entry_name": "Flawless Viktor-y",
        "event_total": 66,
        "has_played": true,
        "id": 2200855,
        "last_rank": 14761,
        "player_name": "Jose Enriquez",
        "rank": 14671,
        "rank_sort": 14672,
        "total": 2389
      },
      {
        "club_badge_src": null,
        "entry": 450945,
        "entry_name": "Beef Cherki",
        "event_total": 58,
        "has_played": true,
        "id": 3025424,
        "last_rank": 14780,
        "player_name": "Gurv Singh",
        "rank": 14671,
        "rank_sort": 14673,
        "total": 2389
      },
      {
        "club_badge_src": null,
        "entry": 7465853,
        "entry_name": "Gunner be Fun",
        "event_total": 60,
        "has_played": true,
        "id": 60841110,
        "last_rank": 13662,
        "player_name": "Paul Smith",
        "rank": 14671,
        "rank_sort": 14674,
        "total": 2389
      },
      {
        "club_badge_src": null,
        "entry": 176773,
        "entry_name": "Akin&Prod",
        "event_total": 60,
        "has_played": true,
        "id": 1166878,
        "last_rank": 15999,
        "player_name": "Suvaporn Sangngam",
        "rank": 14675,
        "rank_sort": 14675,
        "total": 2389
      },
      {
        "club_badge_src": "https://fantasy.premierleague.com/gcs/plfpl-production-adobe-approved/plfpl-production/481219/97d1adcf-8541-4c61-9590-2be3b4d194ed.png",
        "entry": 481219,
        "entry_name": "Downey's Dingos",
        "event_total": 60,
        "has_played": true,
        "id": 3230690,
        "last_rank": 13674,
        "player_name": "Lewis Downey",
        "rank": 14675,
        "rank_sort": 14676,
        "total": 2389
      },
      {
        "club_badge_src": null,
        "entry": 1046793,
        "entry_name": "KAC 1938",
        "event_total": 44,
        "has_played": true,
        "id": 7244526,
        "last_rank": 6978,
        "player_name": "Mehdi FELLAQI",
        "rank": 14675,
        "rank_sort": 14677,
        "total": 2389
      },
      {
        "club_badge_src": null,
        "entry": 1428418,
        "entry_name": "Wits End Wanderers",
        "event_total": 60,
        "has_played": true,
        "id": 9953006,
        "last_rank": 9806,
        "player_name": "Johnnie Mac",
        "rank": 14675,
        "rank_sort": 14678,
        "total": 2389
      },
      {
        "club_badge_src": null,
        "entry": 1979364,
        "entry_name": "FarkeLife",
        "event_total": 57,
        "has_played": true,
        "id": 13974015,
        "last_rank": 10221,
        "player_name": "Nick Grayston",
        "rank": 14675,
        "rank_sort": 14679,
        "total": 2389
      },
      {
        "club_badge_src": null,
        "entry": 2365637,
        "entry_name": "Howell's Hellraisers",
        "event_total": 59,
        "has_played": true,
        "id": 16885643,
        "last_rank": 13098,
        "player_name": "Dan Howell",
        "rank": 14675,
        "rank_sort": 14680,
        "total": 2389
      },
      {
        "club_badge_src": "https://fantasy.premierleague.com/gcs/plfpl-production-adobe-approved/plfpl-production/2531696/86c410de-ced5-47aa-82c9-abdd986b457f.png",
        "entry": 2531696,
        "entry_name": "FC Strekk",
        "event_total": 72,
        "has_played": true,
        "id": 18141577,
        "last_rank": 18592,
        "player_name": "Terje Flaa",
        "rank": 14675,
        "rank_sort": 14681,
        "total": 2389
      },
      {
        "club_badge_src": "https://fantasy.premierleague.com/gcs/plfpl-production-adobe-approved/plfpl-production/5607566/bfadc2af-89b2-4c1f-b6fe-cafa2f37a586.png",
        "entry": 5607566,
        "entry_name": "Nutella Cucurella",
        "event_total": 54,
        "has_played": true,
        "id": 43822144,
        "last_rank": 12568,
        "player_name": "Ren\u0101rs R\u0113ders",
        "rank": 14675,
        "rank_sort": 14682,
        "total": 2389
      },
      {
        "club_badge_src": null,
        "entry": 542379,
        "entry_name": "Ravensy Flappers",
        "event_total": 68,
        "has_played": true,
        "id": 3650427,
        "last_rank": 15993,
        "player_name": "Clay Dyson",
        "rank": 14683,
        "rank_sort": 14683,
        "total": 2389
      },
      {
        "club_badge_src": "https://fantasy.premierleague.com/gcs/plfpl-production-adobe-approved/plfpl-production/1227888/f5066507-a1a3-4353-9304-c8d3109770b6.png",
        "entry": 1227888,
        "entry_name": "Cole Feet",
        "event_total": 59,
        "has_played": true,
        "id": 8526074,
        "last_rank": 13101,
        "player_name": "Dale Bell",
        "rank": 14683,
        "rank_sort": 14684,
        "total": 2389
      },
      {
        "club_badge_src": null,
        "entry": 6940368,
        "entry_name": "Uncle Kwabz",
        "event_total": 55,
        "has_played": true,
        "id": 55644164,
        "last_rank": 13107,
        "player_name": "Ernest Mensah",
        "rank": 14685,
        "rank_sort": 14685,
        "total": 2389
      },
      {
        "club_badge_src": null,
        "entry": 7799597,
        "entry_name": "Old Havertz Kai Hard",
        "event_total": 41,
        "has_played": true,
        "id": 64069594,
        "last_rank": 7293,
        "player_name": "James Ryan",
        "rank": 14685,
        "rank_sort": 14686,
        "total": 2389
      },
      {
        "club_badge_src": null,
        "entry": 2901741,
        "entry_name": "bowen 747",
        "event_total": 64,
        "has_played": true,
        "id": 21264435,
        "last_rank": 18618,
        "player_name": "A Singh",
        "rank": 14687,
        "rank_sort": 14687,
        "total": 2389
      },
      {
        "club_badge_src": null,
        "entry": 7671312,
        "entry_name": "Tashtastic_United",
        "event_total": 64,
        "has_played": true,
        "id": 62913205,
        "last_rank": 16014,
        "player_name": "Lisa Akers",
        "rank": 14688,
        "rank_sort": 14688,
        "total": 2389
      },
      {
        "club_badge_src": "https://fantasy.premierleague.com/gcs/plfpl-production-adobe-approved/plfpl-production/14458/d54e5235-af20-4a78-af88-9cb93e6925e9.png",
        "entry": 14458,
        "entry_name": "Arteta Breaky Heart",
        "event_total": 70,
        "has_played": true,
        "id": 87816,
        "last_rank": 20099,
        "player_name": "VICTOR OPOLOT",
        "rank": 14689,
        "rank_sort": 14689,
        "total": 2389
      },
      {
        "club_badge_src": "https://fantasy.premierleague.com/gcs/plfpl-production-adobe-approved/plfpl-production/34341/58f3ce4d-f594-485a-8c9e-af9f77ab4a3f.png",
        "entry": 34341,
        "entry_name": "United is back",
        "event_total": 80,
        "has_played": true,
        "id": 219341,
        "last_rank": 18612,
        "player_name": "DH MUFC",
        "rank": 14689,
        "rank_sort": 14690,
        "total": 2389
      },
      {
        "club_badge_src": null,
        "entry": 5358965,
        "entry_name": "Seagulls & Chips",
        "event_total": 61,
        "has_played": true,
        "id": 41617753,
        "last_rank": 16665,
        "player_name": "Richard Tween",
        "rank": 14691,
        "rank_sort": 14691,
        "total": 2388
      },
      {
        "club_badge_src": "https://fantasy.premierleague.com/gcs/plfpl-production-adobe-approved/plfpl-production/1440496/a04572da-bf7b-49e0-9aa0-42225e1aa8d6.png",
        "entry": 1440496,
        "entry_name": "Kattokassinen",
        "event_total": 52,
        "has_played": true,
        "id": 10037717,
        "last_rank": 11585,
        "player_name": "waltteri saraper\u00e4",
        "rank": 14692,
        "rank_sort": 14692,
        "total": 2388
      },
      {
        "club_badge_src": null,
        "entry": 7084434,
        "entry_name": "Peggt's pub team",
        "event_total": 63,
        "has_played": true,
        "id": 57028810,
        "last_rank": 17956,
        "player_name": "Richard Haigh",
        "rank": 14692,
        "rank_sort": 14693,
        "total": 2388
      },
      {
        "club_badge_src": null,
        "entry": 5636862,
        "entry_name": "gunners",
        "event_total": 68,
        "has_played": true,
        "id": 44077465,
        "last_rank": 21589,
        "player_name": "Howard Ha",
        "rank": 14694,
        "rank_sort": 14694,
        "total": 2388
      },
      {
        "club_badge_src": null,
        "entry": 8061636,
        "entry_name": "Goat Legs",
        "event_total": 53,
        "has_played": true,
        "id": 66443087,
        "last_rank": 12087,
        "player_name": "R S",
        "rank": 14695,
        "rank_sort": 14695,
        "total": 2388
      },
      {
        "club_badge_src": null,
        "entry": 1102160,
        "entry_name": "Big ol bratwirtz fc",
        "event_total": 70,
        "has_played": true,
        "id": 7634398,
        "last_rank": 20109,
        "player_name": "gavin mulroy",
        "rank": 14696,
        "rank_sort": 14696,
        "total": 2388
      },
      {
        "club_badge_src": null,
        "entry": 1425468,
        "entry_name": "just mo with the flo",
        "event_total": 69,
        "has_played": true,
        "id": 9932024,
        "last_rank": 22358,
        "player_name": "Sam Riordan",
        "rank": 14696,
        "rank_sort": 14697,
        "total": 2388
      },
      {
        "club_badge_src": null,
        "entry": 1620438,
        "entry_name": "legal yamal",
        "event_total": 70,
        "has_played": true,
        "id": 11340082,
        "last_rank": 20116,
        "player_name": "Mandeep Virdee",
        "rank": 14696,
        "rank_sort": 14698,
        "total": 2388
      },
      {
        "club_badge_src": null,
        "entry": 2882394,
        "entry_name": "Amadness",
        "event_total": 63,
        "has_played": true,
        "id": 21100804,
        "last_rank": 17970,
        "player_name": "Mikal Waag\u00f8",
        "rank": 14696,
        "rank_sort": 14699,
        "total": 2388
      },
      {
        "club_badge_src": null,
        "entry": 3328549,
        "entry_name": "Franskt F\u00f6rsvar FC",
        "event_total": 64,
        "has_played": true,
        "id": 24678241,
        "last_rank": 18637,
        "player_name": "Patrik Johansson",
        "rank": 14696,
        "rank_sort": 14700,
        "total": 2388
      }
    ]
  }
}