{
  "last_updated_data": "2026-05-24T23:28:17Z",
  "league": {
    "admin_entry": null,
    "closed": false,
    "code_privacy": "p",
    "created": "2025-07-20T23:14:33.933835Z",
    "cup_league": 2815434,
    "has_cup": true,
    "id": 314,
    "league_type": "s",
    "max_entries": null,
    "name": "Overall",
    "rank": null,
    "scoring": "c",
    "start_event": 1
  },
  "new_entries": {
    "has_next": false,
    "page": 1,
    "results": []
  },
  "standings": {
    "has_next": true,
    "page": 412,
    "results": [
      {
        "club_badge_src": null,
        "entry": 460611,
        "entry_name": "Joshua 11",
        "event_total": 48,
        "has_played": true,
        "id": 3089839,
        "last_rank": 14230,
        "player_name": "Josh Bell",
        "rank": 20542,
        "rank_sort": 20551,
        "total": 2379
      },
      {
        "club_badge_src": null,
        "entry": 474283,
        "entry_name": "Woolleys wanderers",
        "event_total": 55,
        "has_played": true,
        "id": 3184086,
        "last_rank": 18655,
        "player_name": "philip woolley",
        "rank": 20542,
        "rank_sort": 20552,
        "total": 2379
      },
      {
        "club_badge_src": null,
        "entry": 765040,
        "entry_name": "Jonji\u0107 City",
        "event_total": 70,
        "has_played": true,
        "id": 5217700,
        "last_rank": 31556,
        "player_name": "Marin Jonji\u0107",
        "rank": 20542,
        "rank_sort": 20553,
        "total": 2379
      },
      {
        "club_badge_src": null,
        "entry": 803987,
        "entry_name": "Zainfidel",
        "event_total": 64,
        "has_played": true,
        "id": 5503605,
        "last_rank": 25776,
        "player_name": "Tom Hunt",
        "rank": 20542,
        "rank_sort": 20554,
        "total": 2379
      },
      {
        "club_badge_src": null,
        "entry": 944613,
        "entry_name": "Release The VOID",
        "event_total": 73,
        "has_played": true,
        "id": 6506083,
        "last_rank": 35166,
        "player_name": "Oriakhi Emmanuel",
        "rank": 20542,
        "rank_sort": 20555,
        "total": 2379
      },
      {
        "club_badge_src": null,
        "entry": 951944,
        "entry_name": "Super Bockayo Saka",
        "event_total": 65,
        "has_played": true,
        "id": 6558530,
        "last_rank": 26656,
        "player_name": "Steve Bearpark",
        "rank": 20542,
        "rank_sort": 20556,
        "total": 2379
      },
      {
        "club_badge_src": "https://fantasy.premierleague.com/gcs/plfpl-production-adobe-approved/plfpl-production/1007553/20306f68-4bb2-4aa1-bf56-f1c61d2e50e1.png",
        "entry": 1007553,
        "entry_name": "Name Changed",
        "event_total": 58,
        "has_played": true,
        "id": 6965816,
        "last_rank": 20983,
        "player_name": "Ahmed Al-Jabri",
        "rank": 20542,
        "rank_sort": 20557,
        "total": 2379
      },
      {
        "club_badge_src": null,
        "entry": 1542326,
        "entry_name": "Mazen",
        "event_total": 67,
        "has_played": true,
        "id": 10765063,
        "last_rank": 28726,
        "player_name": "Mazen Mahmood",
        "rank": 20542,
        "rank_sort": 20558,
        "total": 2379
      },
      {
        "club_badge_src": null,
        "entry": 1869709,
        "entry_name": "DreamTeam",
        "event_total": 53,
        "has_played": true,
        "id": 13161476,
        "last_rank": 17437,
        "player_name": "Marcin Sikora",
        "rank": 20542,
        "rank_sort": 20559,
        "total": 2379
      },
      {
        "club_badge_src": null,
        "entry": 1920419,
        "entry_name": "G\u00e5mann",
        "event_total": 51,
        "has_played": true,
        "id": 13541872,
        "last_rank": 16163,
        "player_name": "Eivind Amofah",
        "rank": 20542,
        "rank_sort": 20560,
        "total": 2379
      },
      {
        "club_badge_src": null,
        "entry": 2042611,
        "entry_name": "cheldog",
        "event_total": 51,
        "has_played": true,
        "id": 14465414,
        "last_rank": 16163,
        "player_name": "Kelvin Chung",
        "rank": 20542,
        "rank_sort": 20561,
        "total": 2379
      },
      {
        "club_badge_src": null,
        "entry": 2141347,
        "entry_name": "Maya The Slayer FC",
        "event_total": 56,
        "has_played": true,
        "id": 15218789,
        "last_rank": 19544,
        "player_name": "David Lloyd",
        "rank": 20542,
        "rank_sort": 20562,
        "total": 2379
      },
      {
        "club_badge_src": "https://fantasy.premierleague.com/gcs/plfpl-production-adobe-approved/plfpl-production/2197244/be9a6069-fcaf-4c8e-b1fc-421584bb5cff.png",
        "entry": 2197244,
        "entry_name": "Alho e Azeite",
        "event_total": 37,
        "has_played": true,
        "id": 15634601,
        "last_rank": 9142,
        "player_name": "Ricardo Lopes Ferreira",
        "rank": 20542,
        "rank_sort": 20563,
        "total": 2379
      },
      {
        "club_badge_src": null,
        "entry": 2221369,
        "entry_name": "upsidechaser",
        "event_total": 39,
        "has_played": true,
        "id": 15821238,
        "last_rank": 9942,
        "player_name": "Shiva Kumar Dundi",
        "rank": 20542,
        "rank_sort": 20564,
        "total": 2379
      },
      {
        "club_badge_src": "https://fantasy.premierleague.com/gcs/plfpl-production-adobe-approved/plfpl-production/2271818/adcfc53a-80b3-464b-9c04-38e729706ba0.png",
        "entry": 2271818,
        "entry_name": "FC Wirtzatieinfektio",
        "event_total": 39,
        "has_played": true,
        "id": 16199277,
        "last_rank": 9885,
        "player_name": "Otto Sova",
        "rank": 20542,
        "rank_sort": 20565,
        "total": 2379
      },
      {
        "club_badge_src": null,
        "entry": 2408574,
        "entry_name": "Kinder Mbeumo",
        "event_total": 69,
        "has_played": true,
        "id": 17216272,
        "last_rank": 30600,
        "player_name": "Daniel Hall",
        "rank": 20542,
        "rank_sort": 20566,
        "total": 2379
      },
      {
        "club_badge_src": null,
        "entry": 2883813,
        "entry_name": "Carling City",
        "event_total": 79,
        "has_played": true,
        "id": 21111748,
        "last_rank": 42434,
        "player_name": "Darren Powell",
        "rank": 20542,
        "rank_sort": 20567,
        "total": 2379
      },
      {
        "club_badge_src": null,
        "entry": 3162089,
        "entry_name": "yaghort team",
        "event_total": 64,
        "has_played": true,
        "id": 23359543,
        "last_rank": 25729,
        "player_name": "Ali Salah",
        "rank": 20542,
        "rank_sort": 20568,
        "total": 2379
      },
      {
        "club_badge_src": "https://fantasy.premierleague.com/gcs/plfpl-production-adobe-approved/plfpl-production/3340038/16dcd136-2192-4f7f-a6e7-db680dcfe26a.png",
        "entry": 3340038,
        "entry_name": "Ymo O Hyd",
        "event_total": 62,
        "has_played": true,
        "id": 24773107,
        "last_rank": 24039,
        "player_name": "Richard Allen",
        "rank": 20542,
        "rank_sort": 20569,
        "total": 2379
      },
      {
        "club_badge_src": null,
        "entry": 3507292,
        "entry_name": "The red devils 21",
        "event_total": 46,
        "has_played": true,
        "id": 26092064,
        "last_rank": 13153,
        "player_name": "Ashik MR",
        "rank": 20542,
        "rank_sort": 20570,
        "total": 2379
      },
      {
        "club_badge_src": null,
        "entry": 3755600,
        "entry_name": "Neville Wears Prada",
        "event_total": 66,
        "has_played": true,
        "id": 28039507,
        "last_rank": 27585,
        "player_name": "Ben Kirby",
        "rank": 20542,
        "rank_sort": 20571,
        "total": 2379
      },
      {
        "club_badge_src": "https://fantasy.premierleague.com/gcs/plfpl-production-adobe-approved/plfpl-production/4171735/3e2e92bb-056e-4402-9d01-94fc01569c86.png",
        "entry": 4171735,
        "entry_name": "PaddyLaneVeryStrange",
        "event_total": 51,
        "has_played": true,
        "id": 31551639,
        "last_rank": 16062,
        "player_name": "Jonathan Davies",
        "rank": 20542,
        "rank_sort": 20572,
        "total": 2379
      },
      {
        "club_badge_src": null,
        "entry": 4577477,
        "entry_name": "THE PHENOMS",
        "event_total": 61,
        "has_played": true,
        "id": 34941212,
        "last_rank": 23230,
        "player_name": "The Oluwatimilehin",
        "rank": 20542,
        "rank_sort": 20573,
        "total": 2379
      },
      {
        "club_badge_src": null,
        "entry": 4604515,
        "entry_name": "Rice to the Occasion",
        "event_total": 66,
        "has_played": true,
        "id": 35177931,
        "last_rank": 27585,
        "player_name": "Mike Rice",
        "rank": 20542,
        "rank_sort": 20574,
        "total": 2379
      },
      {
        "club_badge_src": null,
        "entry": 4803884,
        "entry_name": "Atomic Havertz",
        "event_total": 55,
        "has_played": true,
        "id": 36987777,
        "last_rank": 18691,
        "player_name": "Regan McKiernan",
        "rank": 20542,
        "rank_sort": 20575,
        "total": 2379
      },
      {
        "club_badge_src": null,
        "entry": 5214852,
        "entry_name": "Kamagra Riders",
        "event_total": 62,
        "has_played": true,
        "id": 40395435,
        "last_rank": 23973,
        "player_name": "Kamil Wasielczyk",
        "rank": 20542,
        "rank_sort": 20576,
        "total": 2379
      },
      {
        "club_badge_src": null,
        "entry": 5255322,
        "entry_name": "Playah",
        "event_total": 37,
        "has_played": true,
        "id": 40730850,
        "last_rank": 9142,
        "player_name": "Damian Borek",
        "rank": 20542,
        "rank_sort": 20577,
        "total": 2379
      },
      {
        "club_badge_src": null,
        "entry": 5749224,
        "entry_name": "Dylbala Utd",
        "event_total": 56,
        "has_played": true,
        "id": 45059608,
        "last_rank": 19432,
        "player_name": "Dylan Arendse",
        "rank": 20542,
        "rank_sort": 20578,
        "total": 2379
      },
      {
        "club_badge_src": null,
        "entry": 5930156,
        "entry_name": "Trev the angry cat",
        "event_total": 60,
        "has_played": true,
        "id": 46619841,
        "last_rank": 22426,
        "player_name": "Paul Chapman",
        "rank": 20542,
        "rank_sort": 20579,
        "total": 2379
      },
      {
        "club_badge_src": null,
        "entry": 5939438,
        "entry_name": "Busy on Thursdays",
        "event_total": 68,
        "has_played": true,
        "id": 46703846,
        "last_rank": 29578,
        "player_name": "Jay Taylor",
        "rank": 20542,
        "rank_sort": 20580,
        "total": 2379
      },
      {
        "club_badge_src": null,
        "entry": 6380753,
        "entry_name": "bedroomaudio",
        "event_total": 50,
        "has_played": true,
        "id": 50749037,
        "last_rank": 15452,
        "player_name": "Bengtatt Chee",
        "rank": 20542,
        "rank_sort": 20581,
        "total": 2379
      },
      {
        "club_badge_src": null,
        "entry": 6397281,
        "entry_name": "Aston Villian",
        "event_total": 77,
        "has_played": true,
        "id": 50895754,
        "last_rank": 39816,
        "player_name": "Ian Farrell",
        "rank": 20542,
        "rank_sort": 20582,
        "total": 2379
      },
      {
        "club_badge_src": null,
        "entry": 6470866,
        "entry_name": "WrightSideOfHistory",
        "event_total": 54,
        "has_played": true,
        "id": 51557702,
        "last_rank": 18113,
        "player_name": "Harsh Kumar",
        "rank": 20542,
        "rank_sort": 20583,
        "total": 2379
      },
      {
        "club_badge_src": null,
        "entry": 6493131,
        "entry_name": "Derg Villa",
        "event_total": 55,
        "has_played": true,
        "id": 51761237,
        "last_rank": 18655,
        "player_name": "Eugene Lunney",
        "rank": 20542,
        "rank_sort": 20584,
        "total": 2379
      },
      {
        "club_badge_src": null,
        "entry": 6704969,
        "entry_name": "DaoUnited",
        "event_total": 65,
        "has_played": true,
        "id": 53652132,
        "last_rank": 26827,
        "player_name": "Dan Dao",
        "rank": 20542,
        "rank_sort": 20585,
        "total": 2379
      },
      {
        "club_badge_src": null,
        "entry": 6721078,
        "entry_name": "Palmer Violets",
        "event_total": 76,
        "has_played": true,
        "id": 53790975,
        "last_rank": 38571,
        "player_name": "Lindsay Hope",
        "rank": 20542,
        "rank_sort": 20586,
        "total": 2379
      },
      {
        "club_badge_src": "https://fantasy.premierleague.com/gcs/plfpl-production-adobe-approved/plfpl-production/6788522/52943192-eb3b-45df-8ef7-a20ea9f23768.png",
        "entry": 6788522,
        "entry_name": "GunnerLoseInterest",
        "event_total": 75,
        "has_played": true,
        "id": 54361531,
        "last_rank": 37435,
        "player_name": "Mike Brownlee",
        "rank": 20542,
        "rank_sort": 20587,
        "total": 2379
      },
      {
        "club_badge_src": null,
        "entry": 7086548,
        "entry_name": "Chicken Ekitikka",
        "event_total": 66,
        "has_played": true,
        "id": 57048658,
        "last_rank": 27564,
        "player_name": "Tomislav Novakovic",
        "rank": 20542,
        "rank_sort": 20588,
        "total": 2379
      },
      {
        "club_badge_src": null,
        "entry": 7264357,
        "entry_name": "FPL Dzony  squad II",
        "event_total": 55,
        "has_played": true,
        "id": 58740887,
        "last_rank": 18790,
        "player_name": "Nikola Radojcic",
        "rank": 20542,
        "rank_sort": 20589,
        "total": 2379
      },
      {
        "club_badge_src": null,
        "entry": 7596414,
        "entry_name": "Giroud Sandstorm",
        "event_total": 71,
        "has_played": true,
        "id": 62232759,
        "last_rank": 28546,
        "player_name": "Alex Hughes",
        "rank": 20542,
        "rank_sort": 20590,
        "total": 2379
      },
      {
        "club_badge_src": null,
        "entry": 7681000,
        "entry_name": "janinejanine",
        "event_total": 59,
        "has_played": true,
        "id": 63000187,
        "last_rank": 21677,
        "player_name": "Janine Freeman",
        "rank": 20542,
        "rank_sort": 20591,
        "total": 2379
      },
      {
        "club_badge_src": null,
        "entry": 7713725,
        "entry_name": "A\u00eft-Misbehavin'",
        "event_total": 75,
        "has_played": true,
        "id": 63294403,
        "last_rank": 37376,
        "player_name": "Dana McRae",
        "rank": 20542,
        "rank_sort": 20592,
        "total": 2379
      },
      {
        "club_badge_src": null,
        "entry": 7754529,
        "entry_name": "PULI PULI SIC SIC",
        "event_total": 54,
        "has_played": true,
        "id": 63662951,
        "last_rank": 18029,
        "player_name": "Slam K",
        "rank": 20542,
        "rank_sort": 20593,
        "total": 2379
      },
      {
        "club_badge_src": null,
        "entry": 7794871,
        "entry_name": "EllsAngels2",
        "event_total": 70,
        "has_played": true,
        "id": 64027264,
        "last_rank": 31556,
        "player_name": "Elaine Gready-Hubbard",
        "rank": 20542,
        "rank_sort": 20594,
        "total": 2379
      },
      {
        "club_badge_src": null,
        "entry": 7977114,
        "entry_name": "Top Scorers",
        "event_total": 59,
        "has_played": true,
        "id": 65681634,
        "last_rank": 21677,
        "player_name": "Momodou Jallow",
        "rank": 20542,
        "rank_sort": 20595,
        "total": 2379
      },
      {
        "club_badge_src": null,
        "entry": 8237229,
        "entry_name": "Needmorecash",
        "event_total": 58,
        "has_played": true,
        "id": 68097202,
        "last_rank": 20853,
        "player_name": "mal hargreaves",
        "rank": 20542,
        "rank_sort": 20596,
        "total": 2379
      },
      {
        "club_badge_src": null,
        "entry": 9036721,
        "entry_name": "Treble Winners",
        "event_total": 66,
        "has_played": true,
        "id": 75835187,
        "last_rank": 27585,
        "player_name": "Dominic Holden",
        "rank": 20542,
        "rank_sort": 20597,
        "total": 2379
      },
      {
        "club_badge_src": null,
        "entry": 1417,
        "entry_name": "Class on Grass",
        "event_total": 76,
        "has_played": true,
        "id": 7880,
        "last_rank": 38644,
        "player_name": "Sharan Sharabinth",
        "rank": 20598,
        "rank_sort": 20598,
        "total": 2379
      },
      {
        "club_badge_src": "https://fantasy.premierleague.com/gcs/plfpl-production-adobe-approved/plfpl-production/4234/91539539-6502-401f-b4ec-bf75471ff89d.png",
        "entry": 4234,
        "entry_name": "Ali FC",
        "event_total": 46,
        "has_played": true,
        "id": 24038,
        "last_rank": 13257,
        "player_name": "Ali Al-Kubaisi",
        "rank": 20598,
        "rank_sort": 20599,
        "total": 2379
      },
      {
        "club_badge_src": null,
        "entry": 9161,
        "entry_name": "WESH",
        "event_total": 66,
        "has_played": true,
        "id": 53738,
        "last_rank": 27644,
        "player_name": "Niall Gaffney",
        "rank": 20598,
        "rank_sort": 20600,
        "total": 2379
      }
    ]
  }
}