{
  "last_updated_data": "2026-05-24T23:28:17Z",
  "league": {
    "admin_entry": null,
    "closed": false,
    "code_privacy": "p",
    "created": "2025-07-20T23:14:33.933835Z",
    "cup_league": 2815434,
    "has_cup": true,
    "id": 314,
    "league_type": "s",
    "max_entries": null,
    "name": "Overall",
    "rank": null,
    "scoring": "c",
    "start_event": 1
  },
  "new_entries": {
    "has_next": false,
    "page": 1,
    "results": []
  },
  "standings": {
    "has_next": true,
    "page": 579,
    "results": [
      {
        "club_badge_src": null,
        "entry": 71403,
        "entry_name": "FPL OTO",
        "event_total": 60,
        "has_played": true,
        "id": 463783,
        "last_rank": 27644,
        "player_name": "Conor O Callaghan",
        "rank": 28885,
        "rank_sort": 28901,
        "total": 2369
      },
      {
        "club_badge_src": null,
        "entry": 71712,
        "entry_name": "Gruppo Anti",
        "event_total": 61,
        "has_played": true,
        "id": 465806,
        "last_rank": 32879,
        "player_name": "Martin Mikalsen",
        "rank": 28885,
        "rank_sort": 28902,
        "total": 2369
      },
      {
        "club_badge_src": null,
        "entry": 75207,
        "entry_name": "Rousseau FC",
        "event_total": 63,
        "has_played": true,
        "id": 488938,
        "last_rank": 30600,
        "player_name": "\u00c9tienne Rousseau",
        "rank": 28885,
        "rank_sort": 28903,
        "total": 2369
      },
      {
        "club_badge_src": null,
        "entry": 77758,
        "entry_name": "Boy Better Noble",
        "event_total": 47,
        "has_played": true,
        "id": 505446,
        "last_rank": 20280,
        "player_name": "Elliot Roberts",
        "rank": 28885,
        "rank_sort": 28904,
        "total": 2369
      },
      {
        "club_badge_src": null,
        "entry": 78693,
        "entry_name": "De La Gais",
        "event_total": 56,
        "has_played": true,
        "id": 511667,
        "last_rank": 27644,
        "player_name": "Fredrik Jacobzon",
        "rank": 28885,
        "rank_sort": 28905,
        "total": 2369
      },
      {
        "club_badge_src": null,
        "entry": 83919,
        "entry_name": "Lallana Del Rey",
        "event_total": 65,
        "has_played": true,
        "id": 546282,
        "last_rank": 37435,
        "player_name": "Peter Eriksson",
        "rank": 28885,
        "rank_sort": 28906,
        "total": 2369
      },
      {
        "club_badge_src": null,
        "entry": 88525,
        "entry_name": "Put a Dendonck on it",
        "event_total": 56,
        "has_played": true,
        "id": 577678,
        "last_rank": 27770,
        "player_name": "Jonathan Moon",
        "rank": 28885,
        "rank_sort": 28907,
        "total": 2369
      },
      {
        "club_badge_src": null,
        "entry": 92694,
        "entry_name": "oneofone",
        "event_total": 54,
        "has_played": true,
        "id": 605723,
        "last_rank": 25776,
        "player_name": "Argjend Nimanaj",
        "rank": 28885,
        "rank_sort": 28908,
        "total": 2369
      },
      {
        "club_badge_src": "https://fantasy.premierleague.com/gcs/plfpl-production-adobe-approved/plfpl-production/92728/06a2a69e-b625-4b61-b2dc-1010067fedb9.png",
        "entry": 92728,
        "entry_name": "runcible spoon",
        "event_total": 37,
        "has_played": true,
        "id": 605956,
        "last_rank": 13821,
        "player_name": "dave gregory",
        "rank": 28885,
        "rank_sort": 28909,
        "total": 2369
      },
      {
        "club_badge_src": null,
        "entry": 120734,
        "entry_name": "FREE PALASTINE",
        "event_total": 55,
        "has_played": true,
        "id": 787799,
        "last_rank": 26827,
        "player_name": "MOHAMED ELSHAMY",
        "rank": 28885,
        "rank_sort": 28910,
        "total": 2369
      },
      {
        "club_badge_src": null,
        "entry": 124523,
        "entry_name": "So Close Yet So VAR",
        "event_total": 68,
        "has_played": true,
        "id": 812191,
        "last_rank": 41617,
        "player_name": "Ben Baker",
        "rank": 28885,
        "rank_sort": 28911,
        "total": 2369
      },
      {
        "club_badge_src": "https://fantasy.premierleague.com/gcs/plfpl-production-adobe-approved/plfpl-production/152941/9e3ed369-8778-4bdf-ad9a-a6375e611ec5.png",
        "entry": 152941,
        "entry_name": "Two Time Tiki Taka",
        "event_total": 70,
        "has_played": true,
        "id": 1004133,
        "last_rank": 43849,
        "player_name": "Theo Daffurn",
        "rank": 28885,
        "rank_sort": 28912,
        "total": 2369
      },
      {
        "club_badge_src": "https://fantasy.premierleague.com/gcs/plfpl-production-adobe-approved/plfpl-production/168618/fb9615fa-4a4e-48ba-87fb-3ff742274d45.png",
        "entry": 168618,
        "entry_name": "Wijnaldum Levio-Sarr",
        "event_total": 63,
        "has_played": true,
        "id": 1114428,
        "last_rank": 34937,
        "player_name": "Joe Schofield",
        "rank": 28885,
        "rank_sort": 28913,
        "total": 2369
      },
      {
        "club_badge_src": null,
        "entry": 168997,
        "entry_name": "Noballknowledge Utd",
        "event_total": 55,
        "has_played": true,
        "id": 1116866,
        "last_rank": 26827,
        "player_name": "Elmo Kerosuo",
        "rank": 28885,
        "rank_sort": 28914,
        "total": 2369
      },
      {
        "club_badge_src": null,
        "entry": 170967,
        "entry_name": "Eze money",
        "event_total": 69,
        "has_played": true,
        "id": 1129506,
        "last_rank": 42386,
        "player_name": "Callum Henneberg",
        "rank": 28885,
        "rank_sort": 28915,
        "total": 2369
      },
      {
        "club_badge_src": null,
        "entry": 175596,
        "entry_name": "Mum get the Kamara",
        "event_total": 50,
        "has_played": true,
        "id": 1159309,
        "last_rank": 22534,
        "player_name": "Sean McCormack",
        "rank": 28885,
        "rank_sort": 28916,
        "total": 2369
      },
      {
        "club_badge_src": null,
        "entry": 193720,
        "entry_name": "AimHighNGoLowKant\u00e9",
        "event_total": 72,
        "has_played": true,
        "id": 1284141,
        "last_rank": 46591,
        "player_name": "Christian Shields",
        "rank": 28885,
        "rank_sort": 28917,
        "total": 2369
      },
      {
        "club_badge_src": null,
        "entry": 202459,
        "entry_name": "Slugs",
        "event_total": 41,
        "has_played": true,
        "id": 1344506,
        "last_rank": 16163,
        "player_name": "Connor Webb",
        "rank": 28885,
        "rank_sort": 28918,
        "total": 2369
      },
      {
        "club_badge_src": null,
        "entry": 210429,
        "entry_name": "Muhvmmed",
        "event_total": 75,
        "has_played": true,
        "id": 1399468,
        "last_rank": 51403,
        "player_name": "Mohammed S",
        "rank": 28885,
        "rank_sort": 28919,
        "total": 2369
      },
      {
        "club_badge_src": null,
        "entry": 237053,
        "entry_name": "Lovetime Loufers",
        "event_total": 77,
        "has_played": true,
        "id": 1577173,
        "last_rank": 54416,
        "player_name": "Matt Karkulowski",
        "rank": 28885,
        "rank_sort": 28920,
        "total": 2369
      },
      {
        "club_badge_src": null,
        "entry": 258046,
        "entry_name": "Saka for pain",
        "event_total": 60,
        "has_played": true,
        "id": 1715927,
        "last_rank": 31556,
        "player_name": "MT Nguyen",
        "rank": 28885,
        "rank_sort": 28921,
        "total": 2369
      },
      {
        "club_badge_src": null,
        "entry": 264562,
        "entry_name": "A$AP Gy\u00f6ky",
        "event_total": 62,
        "has_played": true,
        "id": 1759371,
        "last_rank": 34051,
        "player_name": "Rohit Manohar",
        "rank": 28885,
        "rank_sort": 28922,
        "total": 2369
      },
      {
        "club_badge_src": null,
        "entry": 277156,
        "entry_name": "Soz Town Rovers",
        "event_total": 49,
        "has_played": true,
        "id": 1844763,
        "last_rank": 21775,
        "player_name": "Connor Vernon",
        "rank": 28885,
        "rank_sort": 28923,
        "total": 2369
      },
      {
        "club_badge_src": null,
        "entry": 289156,
        "entry_name": "ChickenTikkaMo\u2019Salah",
        "event_total": 62,
        "has_played": true,
        "id": 1927443,
        "last_rank": 34051,
        "player_name": "Richard Hudson",
        "rank": 28885,
        "rank_sort": 28924,
        "total": 2369
      },
      {
        "club_badge_src": null,
        "entry": 299515,
        "entry_name": "Cole Runnings",
        "event_total": 56,
        "has_played": true,
        "id": 2003001,
        "last_rank": 27644,
        "player_name": "Charlie Stalker",
        "rank": 28885,
        "rank_sort": 28925,
        "total": 2369
      },
      {
        "club_badge_src": null,
        "entry": 324571,
        "entry_name": "Ensj\u00f8 Bingo",
        "event_total": 61,
        "has_played": true,
        "id": 2174937,
        "last_rank": 32879,
        "player_name": "Nils Olav Refsdal",
        "rank": 28885,
        "rank_sort": 28926,
        "total": 2369
      },
      {
        "club_badge_src": null,
        "entry": 344038,
        "entry_name": "SquidWirtz",
        "event_total": 84,
        "has_played": true,
        "id": 2302547,
        "last_rank": 66658,
        "player_name": "Liam Holland",
        "rank": 28885,
        "rank_sort": 28927,
        "total": 2369
      },
      {
        "club_badge_src": null,
        "entry": 345250,
        "entry_name": "DW FC",
        "event_total": 60,
        "has_played": true,
        "id": 2311025,
        "last_rank": 31747,
        "player_name": "Daniel Ward",
        "rank": 28885,
        "rank_sort": 28928,
        "total": 2369
      },
      {
        "club_badge_src": "https://fantasy.premierleague.com/gcs/plfpl-production-adobe-approved/plfpl-production/365214/f2b38230-2d16-443a-a820-ea8ec5ea6c6d.png",
        "entry": 365214,
        "entry_name": "Exploding Gittens",
        "event_total": 58,
        "has_played": true,
        "id": 2444167,
        "last_rank": 29688,
        "player_name": "Luke McNeil",
        "rank": 28885,
        "rank_sort": 28929,
        "total": 2369
      },
      {
        "club_badge_src": null,
        "entry": 366663,
        "entry_name": "Pangeran Kecil",
        "event_total": 61,
        "has_played": true,
        "id": 2453722,
        "last_rank": 32751,
        "player_name": "Sofyan Hadi",
        "rank": 28885,
        "rank_sort": 28930,
        "total": 2369
      },
      {
        "club_badge_src": null,
        "entry": 367280,
        "entry_name": "Adulyadude",
        "event_total": 72,
        "has_played": true,
        "id": 2458066,
        "last_rank": 46547,
        "player_name": "Baimai Phumipat",
        "rank": 28885,
        "rank_sort": 28931,
        "total": 2369
      },
      {
        "club_badge_src": "https://fantasy.premierleague.com/gcs/plfpl-production-adobe-approved/plfpl-production/373809/235f432f-5cf7-40e9-8a82-a3074d19aa06.png",
        "entry": 373809,
        "entry_name": "Saka Games FC",
        "event_total": 69,
        "has_played": true,
        "id": 2501179,
        "last_rank": 42506,
        "player_name": "Jai Singh",
        "rank": 28885,
        "rank_sort": 28932,
        "total": 2369
      },
      {
        "club_badge_src": "https://fantasy.premierleague.com/gcs/plfpl-production-adobe-approved/plfpl-production/402504/2b4b3ee6-2ab2-4cbb-805d-6324953aba64.png",
        "entry": 402504,
        "entry_name": "Oles Oldies",
        "event_total": 60,
        "has_played": true,
        "id": 2698848,
        "last_rank": 31747,
        "player_name": "Henrik Zacco",
        "rank": 28885,
        "rank_sort": 28933,
        "total": 2369
      },
      {
        "club_badge_src": null,
        "entry": 407460,
        "entry_name": "Just Dou\u00e9 It",
        "event_total": 67,
        "has_played": true,
        "id": 2732330,
        "last_rank": 39874,
        "player_name": "Daryl Ou\u00e9draogo",
        "rank": 28885,
        "rank_sort": 28934,
        "total": 2369
      },
      {
        "club_badge_src": null,
        "entry": 421528,
        "entry_name": "pain in dias",
        "event_total": 52,
        "has_played": true,
        "id": 2824915,
        "last_rank": 24143,
        "player_name": "Calum Bilney",
        "rank": 28885,
        "rank_sort": 28935,
        "total": 2369
      },
      {
        "club_badge_src": null,
        "entry": 450569,
        "entry_name": "Isaks Wirtz Season",
        "event_total": 74,
        "has_played": true,
        "id": 3022935,
        "last_rank": 49691,
        "player_name": "Isaac Thirsk",
        "rank": 28885,
        "rank_sort": 28936,
        "total": 2369
      },
      {
        "club_badge_src": "https://fantasy.premierleague.com/gcs/plfpl-production-adobe-approved/plfpl-production/461571/cd61b1a2-4fd2-4b68-acdf-9ef7d6981cbb.png",
        "entry": 461571,
        "entry_name": "stoutgableFC",
        "event_total": 49,
        "has_played": true,
        "id": 3096228,
        "last_rank": 21949,
        "player_name": "Stoutgable .",
        "rank": 28885,
        "rank_sort": 28937,
        "total": 2369
      },
      {
        "club_badge_src": null,
        "entry": 491295,
        "entry_name": "LowFlyingHawk",
        "event_total": 61,
        "has_played": true,
        "id": 3297832,
        "last_rank": 32751,
        "player_name": "Varma Pericharla",
        "rank": 28885,
        "rank_sort": 28938,
        "total": 2369
      },
      {
        "club_badge_src": null,
        "entry": 517906,
        "entry_name": "Slot Machine",
        "event_total": 62,
        "has_played": true,
        "id": 3477165,
        "last_rank": 33936,
        "player_name": "Moin Sher",
        "rank": 28885,
        "rank_sort": 28939,
        "total": 2369
      },
      {
        "club_badge_src": "https://fantasy.premierleague.com/gcs/plfpl-production-adobe-approved/plfpl-production/521037/fcd0898b-97dc-438e-b712-31029a19dc72.png",
        "entry": 521037,
        "entry_name": "PFC Royal TK",
        "event_total": 64,
        "has_played": true,
        "id": 3499069,
        "last_rank": 36200,
        "player_name": "Santiago Rebagliati",
        "rank": 28885,
        "rank_sort": 28940,
        "total": 2369
      },
      {
        "club_badge_src": null,
        "entry": 531807,
        "entry_name": "Game Of Stones",
        "event_total": 44,
        "has_played": true,
        "id": 3576951,
        "last_rank": 18029,
        "player_name": "Joe Mercer",
        "rank": 28885,
        "rank_sort": 28941,
        "total": 2369
      },
      {
        "club_badge_src": "https://fantasy.premierleague.com/gcs/plfpl-production-adobe-approved/plfpl-production/561632/ff53c754-ce21-491d-93b3-7f6e75d80e08.png",
        "entry": 561632,
        "entry_name": "thisdoesntmatcha",
        "event_total": 62,
        "has_played": true,
        "id": 3780416,
        "last_rank": 34051,
        "player_name": "Prithviraj Chavan",
        "rank": 28885,
        "rank_sort": 28942,
        "total": 2369
      },
      {
        "club_badge_src": null,
        "entry": 581463,
        "entry_name": "Danchester United",
        "event_total": 66,
        "has_played": true,
        "id": 3913071,
        "last_rank": 38774,
        "player_name": "Dan O'Gorman",
        "rank": 28885,
        "rank_sort": 28943,
        "total": 2369
      },
      {
        "club_badge_src": null,
        "entry": 583529,
        "entry_name": "To Elland back again",
        "event_total": 75,
        "has_played": true,
        "id": 3927002,
        "last_rank": 51137,
        "player_name": "David Balbi",
        "rank": 28885,
        "rank_sort": 28944,
        "total": 2369
      },
      {
        "club_badge_src": "https://fantasy.premierleague.com/gcs/plfpl-production-adobe-approved/plfpl-production/602930/2ad278f9-0de0-4cc7-be5b-2a611bb52534.png",
        "entry": 602930,
        "entry_name": "Big Time Charlies",
        "event_total": 46,
        "has_played": true,
        "id": 4069270,
        "last_rank": 19544,
        "player_name": "Ronan Bryan",
        "rank": 28885,
        "rank_sort": 28945,
        "total": 2369
      },
      {
        "club_badge_src": null,
        "entry": 611062,
        "entry_name": "Docs dynamos",
        "event_total": 55,
        "has_played": true,
        "id": 4128627,
        "last_rank": 26827,
        "player_name": "thomas docherty",
        "rank": 28885,
        "rank_sort": 28946,
        "total": 2369
      },
      {
        "club_badge_src": null,
        "entry": 629228,
        "entry_name": "Hacunha Matata",
        "event_total": 66,
        "has_played": true,
        "id": 4251998,
        "last_rank": 38571,
        "player_name": "Laurenz Rainer",
        "rank": 28885,
        "rank_sort": 28947,
        "total": 2369
      },
      {
        "club_badge_src": null,
        "entry": 634760,
        "entry_name": "Gabriel do Brasil",
        "event_total": 74,
        "has_played": true,
        "id": 4289874,
        "last_rank": 49607,
        "player_name": "Martin Reistad",
        "rank": 28885,
        "rank_sort": 28948,
        "total": 2369
      },
      {
        "club_badge_src": null,
        "entry": 648741,
        "entry_name": "Trip Chi 11",
        "event_total": 70,
        "has_played": true,
        "id": 4384446,
        "last_rank": 43849,
        "player_name": "Chinmay Kinjawadekar",
        "rank": 28885,
        "rank_sort": 28949,
        "total": 2369
      },
      {
        "club_badge_src": null,
        "entry": 669551,
        "entry_name": "DJ XI",
        "event_total": 56,
        "has_played": true,
        "id": 4528214,
        "last_rank": 27770,
        "player_name": "David Jones",
        "rank": 28885,
        "rank_sort": 28950,
        "total": 2369
      }
    ]
  }
}