{
  "last_updated_data": "2026-05-24T23:28:17Z",
  "league": {
    "admin_entry": null,
    "closed": false,
    "code_privacy": "p",
    "created": "2025-07-20T23:14:33.933835Z",
    "cup_league": 2815434,
    "has_cup": true,
    "id": 314,
    "league_type": "s",
    "max_entries": null,
    "name": "Overall",
    "rank": null,
    "scoring": "c",
    "start_event": 1
  },
  "new_entries": {
    "has_next": false,
    "page": 1,
    "results": []
  },
  "standings": {
    "has_next": true,
    "page": 158,
    "results": [
      {
        "club_badge_src": null,
        "entry": 4382708,
        "entry_name": "Catch me if you can",
        "event_total": 75,
        "has_played": true,
        "id": 33310751,
        "last_rank": 15452,
        "player_name": "Ian Earp",
        "rank": 7792,
        "rank_sort": 7851,
        "total": 2404
      },
      {
        "club_badge_src": "https://fantasy.premierleague.com/gcs/plfpl-production-adobe-approved/plfpl-production/4575026/64f0ae39-bfa8-44cd-b4ce-faeccb021ac1.png",
        "entry": 4575026,
        "entry_name": "STARKA WILJOR",
        "event_total": 65,
        "has_played": true,
        "id": 34919689,
        "last_rank": 10346,
        "player_name": "Simon Rytthammar",
        "rank": 7792,
        "rank_sort": 7852,
        "total": 2404
      },
      {
        "club_badge_src": null,
        "entry": 4853594,
        "entry_name": "Salah Land",
        "event_total": 64,
        "has_played": true,
        "id": 37396812,
        "last_rank": 9942,
        "player_name": "Chris Dunne",
        "rank": 7792,
        "rank_sort": 7853,
        "total": 2404
      },
      {
        "club_badge_src": null,
        "entry": 4933078,
        "entry_name": "Team-Theo",
        "event_total": 60,
        "has_played": true,
        "id": 38055823,
        "last_rank": 8339,
        "player_name": "Theodor Dokken",
        "rank": 7792,
        "rank_sort": 7854,
        "total": 2404
      },
      {
        "club_badge_src": "https://fantasy.premierleague.com/gcs/plfpl-production-adobe-approved/plfpl-production/4943128/a18f0f09-f157-4c28-b8e8-43656308a9f6.png",
        "entry": 4943128,
        "entry_name": "Backstreet Moyes",
        "event_total": 52,
        "has_played": true,
        "id": 38140127,
        "last_rank": 5940,
        "player_name": "Nicolai van Niekerk",
        "rank": 7792,
        "rank_sort": 7855,
        "total": 2404
      },
      {
        "club_badge_src": null,
        "entry": 4982195,
        "entry_name": "Son Min-Gone",
        "event_total": 63,
        "has_played": true,
        "id": 38459238,
        "last_rank": 9536,
        "player_name": "Amit Lavi",
        "rank": 7792,
        "rank_sort": 7856,
        "total": 2404
      },
      {
        "club_badge_src": "https://fantasy.premierleague.com/gcs/plfpl-production-adobe-approved/plfpl-production/5024803/c88c8bc2-0c0f-45e7-855e-f32e34c4dbb2.png",
        "entry": 5024803,
        "entry_name": "FPLOrav",
        "event_total": 44,
        "has_played": true,
        "id": 38807528,
        "last_rank": 4099,
        "player_name": "Andreas Orav",
        "rank": 7792,
        "rank_sort": 7857,
        "total": 2404
      },
      {
        "club_badge_src": null,
        "entry": 5227884,
        "entry_name": "Gy\u00f6kerinho FC",
        "event_total": 66,
        "has_played": true,
        "id": 40509693,
        "last_rank": 10805,
        "player_name": "Jakob Rydh",
        "rank": 7792,
        "rank_sort": 7858,
        "total": 2404
      },
      {
        "club_badge_src": null,
        "entry": 5346106,
        "entry_name": "X",
        "event_total": 63,
        "has_played": true,
        "id": 41481120,
        "last_rank": 9484,
        "player_name": "Spidey -",
        "rank": 7792,
        "rank_sort": 7859,
        "total": 2404
      },
      {
        "club_badge_src": "https://fantasy.premierleague.com/gcs/plfpl-production-adobe-approved/plfpl-production/5435585/1276c50e-3df3-479e-9e9c-c97e5bad51a5.png",
        "entry": 5435585,
        "entry_name": "Moyes in Dahoud",
        "event_total": 55,
        "has_played": true,
        "id": 42284441,
        "last_rank": 6752,
        "player_name": "Ross Hughes",
        "rank": 7792,
        "rank_sort": 7860,
        "total": 2404
      },
      {
        "club_badge_src": "https://fantasy.premierleague.com/gcs/plfpl-production-adobe-approved/plfpl-production/5620366/f45857b7-b7ff-41f1-819d-a6387299f9f7.png",
        "entry": 5620366,
        "entry_name": "Maroti VIIII",
        "event_total": 65,
        "has_played": true,
        "id": 43933948,
        "last_rank": 10288,
        "player_name": "Mohamed S",
        "rank": 7792,
        "rank_sort": 7861,
        "total": 2404
      },
      {
        "club_badge_src": "https://fantasy.premierleague.com/gcs/plfpl-production-adobe-approved/plfpl-production/5873318/ea3aeb92-4186-4147-91b0-a69093f3cb62.png",
        "entry": 5873318,
        "entry_name": "BiggersDeFoot",
        "event_total": 48,
        "has_played": true,
        "id": 46133107,
        "last_rank": 4954,
        "player_name": "Osman Patel",
        "rank": 7792,
        "rank_sort": 7862,
        "total": 2404
      },
      {
        "club_badge_src": null,
        "entry": 6132481,
        "entry_name": "Riyadh Orient",
        "event_total": 68,
        "has_played": true,
        "id": 48460394,
        "last_rank": 11642,
        "player_name": "Jeremy Newton",
        "rank": 7792,
        "rank_sort": 7863,
        "total": 2404
      },
      {
        "club_badge_src": null,
        "entry": 6382115,
        "entry_name": "Leagues above",
        "event_total": 61,
        "has_played": true,
        "id": 50761428,
        "last_rank": 8718,
        "player_name": "Nicholas Monstad",
        "rank": 7792,
        "rank_sort": 7864,
        "total": 2404
      },
      {
        "club_badge_src": "https://fantasy.premierleague.com/gcs/plfpl-production-adobe-approved/plfpl-production/6493286/6b240e3f-a8a9-484b-a463-8cad706bcfb5.png",
        "entry": 6493286,
        "entry_name": "Male's Monsters",
        "event_total": 67,
        "has_played": true,
        "id": 51762568,
        "last_rank": 11150,
        "player_name": "Alexander Male",
        "rank": 7792,
        "rank_sort": 7865,
        "total": 2404
      },
      {
        "club_badge_src": null,
        "entry": 6830743,
        "entry_name": "Zat is not my Dog",
        "event_total": 53,
        "has_played": true,
        "id": 54714460,
        "last_rank": 6194,
        "player_name": "Rupert Beak",
        "rank": 7792,
        "rank_sort": 7866,
        "total": 2404
      },
      {
        "club_badge_src": null,
        "entry": 7463511,
        "entry_name": "WonderWirtz",
        "event_total": 69,
        "has_played": true,
        "id": 60811229,
        "last_rank": 12109,
        "player_name": "DJ Watts",
        "rank": 7792,
        "rank_sort": 7867,
        "total": 2404
      },
      {
        "club_badge_src": null,
        "entry": 7873032,
        "entry_name": "FBover25",
        "event_total": 64,
        "has_played": true,
        "id": 64740998,
        "last_rank": 9885,
        "player_name": "Anais B",
        "rank": 7792,
        "rank_sort": 7868,
        "total": 2404
      },
      {
        "club_badge_src": null,
        "entry": 8875260,
        "entry_name": "WhatsRobHolding",
        "event_total": 67,
        "has_played": true,
        "id": 74269044,
        "last_rank": 11150,
        "player_name": "Aerian Kitchener",
        "rank": 7792,
        "rank_sort": 7869,
        "total": 2404
      },
      {
        "club_badge_src": "https://fantasy.premierleague.com/gcs/plfpl-production-adobe-approved/plfpl-production/699/2bc2d734-3a20-436f-9d89-7195c93232e1.png",
        "entry": 699,
        "entry_name": "Gy\u00f6k Evolution Saka",
        "event_total": 57,
        "has_played": true,
        "id": 3858,
        "last_rank": 7450,
        "player_name": "Ahmed Humaidh",
        "rank": 7870,
        "rank_sort": 7870,
        "total": 2404
      },
      {
        "club_badge_src": "https://fantasy.premierleague.com/gcs/plfpl-production-adobe-approved/plfpl-production/3911/bc89e76e-de05-4caf-b38d-f289fc2742ce.png",
        "entry": 3911,
        "entry_name": "Digitus Infamus",
        "event_total": 62,
        "has_played": true,
        "id": 22179,
        "last_rank": 9142,
        "player_name": "Szymon Szpakowski",
        "rank": 7870,
        "rank_sort": 7871,
        "total": 2404
      },
      {
        "club_badge_src": null,
        "entry": 6107,
        "entry_name": "Kinder Mbeumo",
        "event_total": 68,
        "has_played": true,
        "id": 34958,
        "last_rank": 9942,
        "player_name": "Thomas Borg",
        "rank": 7870,
        "rank_sort": 7872,
        "total": 2404
      },
      {
        "club_badge_src": null,
        "entry": 9869,
        "entry_name": "Kinder Mbuemo",
        "event_total": 77,
        "has_played": true,
        "id": 58194,
        "last_rank": 16729,
        "player_name": "Amit Ofeck",
        "rank": 7870,
        "rank_sort": 7873,
        "total": 2404
      },
      {
        "club_badge_src": null,
        "entry": 14106,
        "entry_name": "JBXI",
        "event_total": 60,
        "has_played": true,
        "id": 85495,
        "last_rank": 8484,
        "player_name": "Jackson Black",
        "rank": 7870,
        "rank_sort": 7874,
        "total": 2404
      },
      {
        "club_badge_src": null,
        "entry": 14546,
        "entry_name": "Chrisapoel",
        "event_total": 70,
        "has_played": true,
        "id": 88392,
        "last_rank": 10805,
        "player_name": "Chris Apoel",
        "rank": 7870,
        "rank_sort": 7875,
        "total": 2404
      },
      {
        "club_badge_src": null,
        "entry": 15309,
        "entry_name": "FC M\u00f6rss\u00e4rit",
        "event_total": 64,
        "has_played": true,
        "id": 93844,
        "last_rank": 8382,
        "player_name": "Juha M\u00f6nk\u00e4re",
        "rank": 7870,
        "rank_sort": 7876,
        "total": 2404
      },
      {
        "club_badge_src": null,
        "entry": 18644,
        "entry_name": "TBC",
        "event_total": 43,
        "has_played": true,
        "id": 116007,
        "last_rank": 3257,
        "player_name": "Tom Currie",
        "rank": 7870,
        "rank_sort": 7877,
        "total": 2404
      },
      {
        "club_badge_src": null,
        "entry": 19329,
        "entry_name": "moccojuice",
        "event_total": 66,
        "has_played": true,
        "id": 120284,
        "last_rank": 9142,
        "player_name": "Linus Jacobsson",
        "rank": 7870,
        "rank_sort": 7878,
        "total": 2404
      },
      {
        "club_badge_src": null,
        "entry": 32953,
        "entry_name": "WomenPower",
        "event_total": 66,
        "has_played": true,
        "id": 209898,
        "last_rank": 9142,
        "player_name": "Sharmishtaa Kumar",
        "rank": 7870,
        "rank_sort": 7879,
        "total": 2404
      },
      {
        "club_badge_src": null,
        "entry": 46077,
        "entry_name": "Wirtz Case Scenario",
        "event_total": 66,
        "has_played": true,
        "id": 295490,
        "last_rank": 9142,
        "player_name": "Thomas Toner",
        "rank": 7870,
        "rank_sort": 7880,
        "total": 2404
      },
      {
        "club_badge_src": null,
        "entry": 52798,
        "entry_name": "Jager Bombers",
        "event_total": 64,
        "has_played": true,
        "id": 339485,
        "last_rank": 10031,
        "player_name": "Stuart Fletcher",
        "rank": 7870,
        "rank_sort": 7881,
        "total": 2404
      },
      {
        "club_badge_src": null,
        "entry": 60721,
        "entry_name": "CFC MooN",
        "event_total": 67,
        "has_played": true,
        "id": 390938,
        "last_rank": 9536,
        "player_name": "Mary MooN",
        "rank": 7870,
        "rank_sort": 7882,
        "total": 2404
      },
      {
        "club_badge_src": null,
        "entry": 73099,
        "entry_name": "N\u00e4\u00e4t\u00e4m\u00f6_Oilers",
        "event_total": 80,
        "has_played": true,
        "id": 475127,
        "last_rank": 18790,
        "player_name": "Matias Norum",
        "rank": 7870,
        "rank_sort": 7883,
        "total": 2404
      },
      {
        "club_badge_src": null,
        "entry": 78226,
        "entry_name": "Vapaalan pallo",
        "event_total": 51,
        "has_played": true,
        "id": 508621,
        "last_rank": 5752,
        "player_name": "Mikko Muurinen",
        "rank": 7870,
        "rank_sort": 7884,
        "total": 2404
      },
      {
        "club_badge_src": "https://fantasy.premierleague.com/gcs/plfpl-production-adobe-approved/plfpl-production/81525/e1e8a916-6b2d-40ca-8ad5-b8ddf5248a9a.png",
        "entry": 81525,
        "entry_name": "Flying Donkeys",
        "event_total": 67,
        "has_played": true,
        "id": 530353,
        "last_rank": 9536,
        "player_name": "Dan Francis",
        "rank": 7870,
        "rank_sort": 7885,
        "total": 2404
      },
      {
        "club_badge_src": "https://fantasy.premierleague.com/gcs/plfpl-production-adobe-approved/plfpl-production/83624/b07504cb-8682-4dee-9b6f-0c61ffb87cd5.png",
        "entry": 83624,
        "entry_name": "Fraudulent FC",
        "event_total": 67,
        "has_played": true,
        "id": 544307,
        "last_rank": 9536,
        "player_name": "Jimmy Walrus",
        "rank": 7870,
        "rank_sort": 7886,
        "total": 2404
      },
      {
        "club_badge_src": null,
        "entry": 83848,
        "entry_name": "Death2theNannyState",
        "event_total": 62,
        "has_played": true,
        "id": 545805,
        "last_rank": 9142,
        "player_name": "Adam Webster",
        "rank": 7870,
        "rank_sort": 7887,
        "total": 2404
      },
      {
        "club_badge_src": null,
        "entry": 128009,
        "entry_name": "We\u2019ll Have A Look",
        "event_total": 67,
        "has_played": true,
        "id": 834409,
        "last_rank": 9536,
        "player_name": "Alex Crisp",
        "rank": 7870,
        "rank_sort": 7888,
        "total": 2404
      },
      {
        "club_badge_src": "https://fantasy.premierleague.com/gcs/plfpl-production-adobe-approved/plfpl-production/142573/c9f5ea01-5273-4a9f-9be6-ab7a1ae96dcc.png",
        "entry": 142573,
        "entry_name": "The Matildas",
        "event_total": 67,
        "has_played": true,
        "id": 932247,
        "last_rank": 11237,
        "player_name": "Danny Davey",
        "rank": 7870,
        "rank_sort": 7889,
        "total": 2404
      },
      {
        "club_badge_src": null,
        "entry": 144077,
        "entry_name": "Beef Cherki",
        "event_total": 61,
        "has_played": true,
        "id": 942872,
        "last_rank": 7375,
        "player_name": "Owen Hook",
        "rank": 7870,
        "rank_sort": 7890,
        "total": 2404
      },
      {
        "club_badge_src": "https://fantasy.premierleague.com/gcs/plfpl-production-adobe-approved/plfpl-production/146577/f61f5912-fac8-4203-b3cb-1a2eda7cb505.png",
        "entry": 146577,
        "entry_name": "USS PTL",
        "event_total": 76,
        "has_played": true,
        "id": 960370,
        "last_rank": 16163,
        "player_name": "Tim McConnell",
        "rank": 7870,
        "rank_sort": 7891,
        "total": 2404
      },
      {
        "club_badge_src": null,
        "entry": 191910,
        "entry_name": "Van der Shaart",
        "event_total": 67,
        "has_played": true,
        "id": 1271324,
        "last_rank": 11345,
        "player_name": "Josh Bakewell",
        "rank": 7870,
        "rank_sort": 7892,
        "total": 2404
      },
      {
        "club_badge_src": null,
        "entry": 261529,
        "entry_name": "Blues on the Rise",
        "event_total": 62,
        "has_played": true,
        "id": 1738564,
        "last_rank": 9089,
        "player_name": "Ste Jones",
        "rank": 7870,
        "rank_sort": 7893,
        "total": 2404
      },
      {
        "club_badge_src": null,
        "entry": 264628,
        "entry_name": "calafiorication",
        "event_total": 65,
        "has_played": true,
        "id": 1759824,
        "last_rank": 10462,
        "player_name": "Rajveer Singh",
        "rank": 7870,
        "rank_sort": 7894,
        "total": 2404
      },
      {
        "club_badge_src": null,
        "entry": 265182,
        "entry_name": "Deeney in a bottle",
        "event_total": 58,
        "has_played": true,
        "id": 1763695,
        "last_rank": 7761,
        "player_name": "Andy Ward",
        "rank": 7870,
        "rank_sort": 7895,
        "total": 2404
      },
      {
        "club_badge_src": null,
        "entry": 293913,
        "entry_name": "Sporting Milwaukee",
        "event_total": 60,
        "has_played": true,
        "id": 1962158,
        "last_rank": 7059,
        "player_name": "C.J. Krawczyk",
        "rank": 7870,
        "rank_sort": 7896,
        "total": 2404
      },
      {
        "club_badge_src": null,
        "entry": 350439,
        "entry_name": "Robocops",
        "event_total": 73,
        "has_played": true,
        "id": 2345738,
        "last_rank": 14370,
        "player_name": "Robin Sohr",
        "rank": 7870,
        "rank_sort": 7897,
        "total": 2404
      },
      {
        "club_badge_src": null,
        "entry": 354892,
        "entry_name": "Kinder Mbeumo",
        "event_total": 55,
        "has_played": true,
        "id": 2375092,
        "last_rank": 6752,
        "player_name": "Rhys Mcilroy",
        "rank": 7870,
        "rank_sort": 7898,
        "total": 2404
      },
      {
        "club_badge_src": null,
        "entry": 410114,
        "entry_name": "The Only Way Is Up",
        "event_total": 67,
        "has_played": true,
        "id": 2749971,
        "last_rank": 9484,
        "player_name": "Jonny Way",
        "rank": 7870,
        "rank_sort": 7899,
        "total": 2404
      },
      {
        "club_badge_src": null,
        "entry": 473008,
        "entry_name": "Yorking on sunshine",
        "event_total": 49,
        "has_played": true,
        "id": 3175594,
        "last_rank": 5241,
        "player_name": "Wendy Dawson",
        "rank": 7870,
        "rank_sort": 7900,
        "total": 2404
      }
    ]
  }
}