{
  "last_updated_data": "2026-05-24T23:28:17Z",
  "league": {
    "admin_entry": null,
    "closed": false,
    "code_privacy": "p",
    "created": "2025-07-20T23:14:33.933835Z",
    "cup_league": 2815434,
    "has_cup": true,
    "id": 314,
    "league_type": "s",
    "max_entries": null,
    "name": "Overall",
    "rank": null,
    "scoring": "c",
    "start_event": 1
  },
  "new_entries": {
    "has_next": false,
    "page": 1,
    "results": []
  },
  "standings": {
    "has_next": true,
    "page": 1061,
    "results": [
      {
        "club_badge_src": null,
        "entry": 6451568,
        "entry_name": "4 Farke\u2019s Sake",
        "event_total": 71,
        "has_played": true,
        "id": 51376120,
        "last_rank": 79817,
        "player_name": "Jordan Jenkins",
        "rank": 52759,
        "rank_sort": 53001,
        "total": 2350
      },
      {
        "club_badge_src": null,
        "entry": 6797000,
        "entry_name": "Da7rooG",
        "event_total": 70,
        "has_played": true,
        "id": 54431900,
        "last_rank": 77676,
        "player_name": "Ahmed Ghazi",
        "rank": 52759,
        "rank_sort": 53002,
        "total": 2350
      },
      {
        "club_badge_src": null,
        "entry": 6829183,
        "entry_name": "louai",
        "event_total": 64,
        "has_played": true,
        "id": 54701426,
        "last_rank": 64943,
        "player_name": "Louai hanino",
        "rank": 52759,
        "rank_sort": 53003,
        "total": 2350
      },
      {
        "club_badge_src": null,
        "entry": 6923620,
        "entry_name": "Stray FC",
        "event_total": 70,
        "has_played": true,
        "id": 55501585,
        "last_rank": 77258,
        "player_name": "Lade Ogunsanya",
        "rank": 52759,
        "rank_sort": 53004,
        "total": 2350
      },
      {
        "club_badge_src": null,
        "entry": 7031174,
        "entry_name": "BoroBoyz",
        "event_total": 61,
        "has_played": true,
        "id": 56507048,
        "last_rank": 60168,
        "player_name": "Ashley Dixon",
        "rank": 52759,
        "rank_sort": 53005,
        "total": 2350
      },
      {
        "club_badge_src": null,
        "entry": 7074861,
        "entry_name": "Las Zohranistas",
        "event_total": 63,
        "has_played": true,
        "id": 56935210,
        "last_rank": 56369,
        "player_name": "Steven Perez",
        "rank": 52759,
        "rank_sort": 53006,
        "total": 2350
      },
      {
        "club_badge_src": null,
        "entry": 7130628,
        "entry_name": "ASA FC",
        "event_total": 59,
        "has_played": true,
        "id": 57465974,
        "last_rank": 56369,
        "player_name": "Olu Asagba",
        "rank": 52759,
        "rank_sort": 53007,
        "total": 2350
      },
      {
        "club_badge_src": null,
        "entry": 7151856,
        "entry_name": "BaldPapi69",
        "event_total": 64,
        "has_played": true,
        "id": 57671893,
        "last_rank": 65475,
        "player_name": "Josh Himmons",
        "rank": 52759,
        "rank_sort": 53008,
        "total": 2350
      },
      {
        "club_badge_src": null,
        "entry": 7180377,
        "entry_name": "Chip Thrills",
        "event_total": 74,
        "has_played": true,
        "id": 57949727,
        "last_rank": 86735,
        "player_name": "Kennedy M",
        "rank": 52759,
        "rank_sort": 53009,
        "total": 2350
      },
      {
        "club_badge_src": null,
        "entry": 7238634,
        "entry_name": "Rhino's 11",
        "event_total": 72,
        "has_played": true,
        "id": 58495877,
        "last_rank": 81646,
        "player_name": "Kieron Hughes",
        "rank": 52759,
        "rank_sort": 53010,
        "total": 2350
      },
      {
        "club_badge_src": null,
        "entry": 7365195,
        "entry_name": "Divide by 2",
        "event_total": 63,
        "has_played": true,
        "id": 59689932,
        "last_rank": 63390,
        "player_name": "Rivan Moodley",
        "rank": 52759,
        "rank_sort": 53011,
        "total": 2350
      },
      {
        "club_badge_src": null,
        "entry": 7449420,
        "entry_name": "Ollie United",
        "event_total": 64,
        "has_played": true,
        "id": 60625929,
        "last_rank": 65163,
        "player_name": "Padraig Lowe",
        "rank": 52759,
        "rank_sort": 53012,
        "total": 2350
      },
      {
        "club_badge_src": null,
        "entry": 7480857,
        "entry_name": "Bryson FC",
        "event_total": 70,
        "has_played": true,
        "id": 61034094,
        "last_rank": 68957,
        "player_name": "Benjamin Enholm",
        "rank": 52759,
        "rank_sort": 53013,
        "total": 2350
      },
      {
        "club_badge_src": null,
        "entry": 7522548,
        "entry_name": "Destroy and Exit",
        "event_total": 68,
        "has_played": true,
        "id": 61552183,
        "last_rank": 73423,
        "player_name": "Adrian Campey",
        "rank": 52759,
        "rank_sort": 53014,
        "total": 2350
      },
      {
        "club_badge_src": null,
        "entry": 7582240,
        "entry_name": "ChickenTikka-MoSalah",
        "event_total": 65,
        "has_played": true,
        "id": 62103574,
        "last_rank": 66848,
        "player_name": "Erica Henderson",
        "rank": 52759,
        "rank_sort": 53015,
        "total": 2350
      },
      {
        "club_badge_src": null,
        "entry": 7642329,
        "entry_name": "Gunning for Glory",
        "event_total": 42,
        "has_played": true,
        "id": 62646370,
        "last_rank": 33147,
        "player_name": "Hasmukh Varsani",
        "rank": 52759,
        "rank_sort": 53016,
        "total": 2350
      },
      {
        "club_badge_src": null,
        "entry": 7863232,
        "entry_name": "The Damned United",
        "event_total": 49,
        "has_played": true,
        "id": 64652347,
        "last_rank": 41324,
        "player_name": "Andr\u00e9s Gordillo",
        "rank": 52759,
        "rank_sort": 53017,
        "total": 2350
      },
      {
        "club_badge_src": null,
        "entry": 8037491,
        "entry_name": "DELTA SQUAD",
        "event_total": 70,
        "has_played": true,
        "id": 66224137,
        "last_rank": 77258,
        "player_name": "Daniel Sandberg Jacobsen",
        "rank": 52759,
        "rank_sort": 53018,
        "total": 2350
      },
      {
        "club_badge_src": null,
        "entry": 8149388,
        "entry_name": "Tabaluga team",
        "event_total": 51,
        "has_played": true,
        "id": 67263170,
        "last_rank": 44048,
        "player_name": "Kacper Kowalik",
        "rank": 52759,
        "rank_sort": 53019,
        "total": 2350
      },
      {
        "club_badge_src": null,
        "entry": 8267611,
        "entry_name": "Aubamebloodclart",
        "event_total": 61,
        "has_played": true,
        "id": 68391536,
        "last_rank": 60168,
        "player_name": "Joe Evans",
        "rank": 52759,
        "rank_sort": 53020,
        "total": 2350
      },
      {
        "club_badge_src": null,
        "entry": 8280205,
        "entry_name": "Roman89",
        "event_total": 55,
        "has_played": true,
        "id": 68510850,
        "last_rank": 49880,
        "player_name": "Darren Talbot",
        "rank": 52759,
        "rank_sort": 53021,
        "total": 2350
      },
      {
        "club_badge_src": null,
        "entry": 8312681,
        "entry_name": "Worst Team Ever",
        "event_total": 51,
        "has_played": true,
        "id": 68843770,
        "last_rank": 38774,
        "player_name": "Sanchit Juneja",
        "rank": 52759,
        "rank_sort": 53022,
        "total": 2350
      },
      {
        "club_badge_src": null,
        "entry": 8318442,
        "entry_name": "Change Name",
        "event_total": 49,
        "has_played": true,
        "id": 68904066,
        "last_rank": 41824,
        "player_name": "Omar Elshehawy",
        "rank": 52759,
        "rank_sort": 53023,
        "total": 2350
      },
      {
        "club_badge_src": null,
        "entry": 8367214,
        "entry_name": "Spence 11",
        "event_total": 60,
        "has_played": true,
        "id": 69368202,
        "last_rank": 51403,
        "player_name": "Sam Spencer",
        "rank": 52759,
        "rank_sort": 53024,
        "total": 2350
      },
      {
        "club_badge_src": null,
        "entry": 8383740,
        "entry_name": "Tuomaksen veturit",
        "event_total": 58,
        "has_played": true,
        "id": 69526657,
        "last_rank": 54667,
        "player_name": "Tuomas Enkkil\u00e4",
        "rank": 52759,
        "rank_sort": 53025,
        "total": 2350
      },
      {
        "club_badge_src": null,
        "entry": 8512541,
        "entry_name": "Lil Uzi Vertonghen",
        "event_total": 60,
        "has_played": true,
        "id": 70759292,
        "last_rank": 58388,
        "player_name": "Dan Hollis",
        "rank": 52759,
        "rank_sort": 53026,
        "total": 2350
      },
      {
        "club_badge_src": null,
        "entry": 8671989,
        "entry_name": "The Plonkers",
        "event_total": 71,
        "has_played": true,
        "id": 72306475,
        "last_rank": 70985,
        "player_name": "matthew Guinchard",
        "rank": 52759,
        "rank_sort": 53027,
        "total": 2350
      },
      {
        "club_badge_src": null,
        "entry": 8747476,
        "entry_name": "To the treble\ufffd",
        "event_total": 68,
        "has_played": true,
        "id": 73039615,
        "last_rank": 65163,
        "player_name": "NAWAF MOHAMMED",
        "rank": 52759,
        "rank_sort": 53028,
        "total": 2350
      },
      {
        "club_badge_src": null,
        "entry": 8814273,
        "entry_name": "GG squad",
        "event_total": 69,
        "has_played": true,
        "id": 73682067,
        "last_rank": 74898,
        "player_name": "V A",
        "rank": 52759,
        "rank_sort": 53029,
        "total": 2350
      },
      {
        "club_badge_src": null,
        "entry": 9062221,
        "entry_name": "kinder mbeumo",
        "event_total": 64,
        "has_played": true,
        "id": 76083680,
        "last_rank": 65475,
        "player_name": "Kirk Steward",
        "rank": 52759,
        "rank_sort": 53030,
        "total": 2350
      },
      {
        "club_badge_src": null,
        "entry": 9071355,
        "entry_name": "Fole Gringos FC",
        "event_total": 80,
        "has_played": true,
        "id": 76170986,
        "last_rank": 101818,
        "player_name": "Arvid Norman",
        "rank": 52759,
        "rank_sort": 53031,
        "total": 2350
      },
      {
        "club_badge_src": null,
        "entry": 9197725,
        "entry_name": "Set and proly forget",
        "event_total": 68,
        "has_played": true,
        "id": 77411497,
        "last_rank": 73038,
        "player_name": "Kevin Br\u00f8ndum",
        "rank": 52759,
        "rank_sort": 53032,
        "total": 2350
      },
      {
        "club_badge_src": null,
        "entry": 9274349,
        "entry_name": "mamba mentality",
        "event_total": 64,
        "has_played": true,
        "id": 78161191,
        "last_rank": 57857,
        "player_name": "John Cho",
        "rank": 52759,
        "rank_sort": 53033,
        "total": 2350
      },
      {
        "club_badge_src": null,
        "entry": 9288999,
        "entry_name": "EstebanPavezDictador",
        "event_total": 68,
        "has_played": true,
        "id": 78303935,
        "last_rank": 73038,
        "player_name": "Jos\u00e9 Ignacio Arancibia",
        "rank": 52759,
        "rank_sort": 53034,
        "total": 2350
      },
      {
        "club_badge_src": null,
        "entry": 9399753,
        "entry_name": "Luke Shaw Ate Dalot",
        "event_total": 57,
        "has_played": true,
        "id": 79370927,
        "last_rank": 46839,
        "player_name": "Kirssanth Vilvarajah",
        "rank": 52759,
        "rank_sort": 53035,
        "total": 2350
      },
      {
        "club_badge_src": "https://fantasy.premierleague.com/gcs/plfpl-production-adobe-approved/plfpl-production/219/967c62f0-1b6c-4976-9827-d9110b0b47a1.png",
        "entry": 219,
        "entry_name": "It gets Wirtz\u2b50\u2b50\u2b50\u2b50\u2b50",
        "event_total": 48,
        "has_played": true,
        "id": 1209,
        "last_rank": 35424,
        "player_name": "Mitch Barker",
        "rank": 53036,
        "rank_sort": 53036,
        "total": 2350
      },
      {
        "club_badge_src": "https://fantasy.premierleague.com/gcs/plfpl-production-adobe-approved/plfpl-production/1185/2b88bc46-8821-4409-9798-df02b2c76bee.png",
        "entry": 1185,
        "entry_name": "JST FC",
        "event_total": 72,
        "has_played": true,
        "id": 6583,
        "last_rank": 73423,
        "player_name": "Jack Torr",
        "rank": 53036,
        "rank_sort": 53037,
        "total": 2350
      },
      {
        "club_badge_src": "https://fantasy.premierleague.com/gcs/plfpl-production-adobe-approved/plfpl-production/1926/5b8d3ba1-b699-481b-a337-2ffc0e23f5d4.png",
        "entry": 1926,
        "entry_name": "Flobowen FC",
        "event_total": 41,
        "has_played": true,
        "id": 10748,
        "last_rank": 32190,
        "player_name": "Ben Randall",
        "rank": 53036,
        "rank_sort": 53038,
        "total": 2350
      },
      {
        "club_badge_src": "https://fantasy.premierleague.com/gcs/plfpl-production-adobe-approved/plfpl-production/4566/efe0f038-7d8c-4717-9932-643766657b00.png",
        "entry": 4566,
        "entry_name": "MU tang Clan",
        "event_total": 50,
        "has_played": true,
        "id": 25969,
        "last_rank": 43342,
        "player_name": "Micha\u0142 Zomerski",
        "rank": 53036,
        "rank_sort": 53039,
        "total": 2350
      },
      {
        "club_badge_src": null,
        "entry": 4955,
        "entry_name": "Kaiser Permounkante",
        "event_total": 64,
        "has_played": true,
        "id": 28191,
        "last_rank": 51403,
        "player_name": "R\u1ed3ng L\u00f9i",
        "rank": 53036,
        "rank_sort": 53040,
        "total": 2350
      },
      {
        "club_badge_src": null,
        "entry": 7169,
        "entry_name": "Wirtz case scenario",
        "event_total": 36,
        "has_played": true,
        "id": 41295,
        "last_rank": 23522,
        "player_name": "Callum Costelloe",
        "rank": 53036,
        "rank_sort": 53041,
        "total": 2350
      },
      {
        "club_badge_src": "https://fantasy.premierleague.com/gcs/plfpl-production-adobe-approved/plfpl-production/13028/bd572815-fb32-40f2-9f2c-3b1c53b2eff6.png",
        "entry": 13028,
        "entry_name": "The Badgers",
        "event_total": 57,
        "has_played": true,
        "id": 78481,
        "last_rank": 46839,
        "player_name": "Daniel Furlong",
        "rank": 53036,
        "rank_sort": 53042,
        "total": 2350
      },
      {
        "club_badge_src": "https://fantasy.premierleague.com/gcs/plfpl-production-adobe-approved/plfpl-production/15540/4c985231-458a-4c43-9b7e-57f53a0ea7d2.png",
        "entry": 15540,
        "entry_name": "CURTAINS FOR ZOOSHA",
        "event_total": 39,
        "has_played": true,
        "id": 95442,
        "last_rank": 30060,
        "player_name": "Kieran Walsh",
        "rank": 53036,
        "rank_sort": 53043,
        "total": 2350
      },
      {
        "club_badge_src": null,
        "entry": 15819,
        "entry_name": "Kyrgyzstan_alga",
        "event_total": 53,
        "has_played": true,
        "id": 97394,
        "last_rank": 47163,
        "player_name": "Roman Busurmankulov",
        "rank": 53036,
        "rank_sort": 53044,
        "total": 2350
      },
      {
        "club_badge_src": null,
        "entry": 16276,
        "entry_name": "Real Sociable Dads",
        "event_total": 51,
        "has_played": true,
        "id": 100432,
        "last_rank": 44672,
        "player_name": "Daryl Horn",
        "rank": 53036,
        "rank_sort": 53045,
        "total": 2350
      },
      {
        "club_badge_src": null,
        "entry": 16701,
        "entry_name": "Bloemfontein Celtic",
        "event_total": 66,
        "has_played": true,
        "id": 103315,
        "last_rank": 61950,
        "player_name": "Sean Jackson",
        "rank": 53036,
        "rank_sort": 53046,
        "total": 2350
      },
      {
        "club_badge_src": "https://fantasy.premierleague.com/gcs/plfpl-production-adobe-approved/plfpl-production/17572/8a35f780-1294-407d-8a9c-445affc49b4c.png",
        "entry": 17572,
        "entry_name": "Mattise Karistajad",
        "event_total": 67,
        "has_played": true,
        "id": 109052,
        "last_rank": 63724,
        "player_name": "Andero Antsov",
        "rank": 53036,
        "rank_sort": 53047,
        "total": 2350
      },
      {
        "club_badge_src": "https://fantasy.premierleague.com/gcs/plfpl-production-adobe-approved/plfpl-production/17597/6ab57913-0e5a-44f2-ab28-427c073f7c1d.png",
        "entry": 17597,
        "entry_name": "The Slot Machine",
        "event_total": 67,
        "has_played": true,
        "id": 109214,
        "last_rank": 71386,
        "player_name": "Benjamin Matthews",
        "rank": 53036,
        "rank_sort": 53048,
        "total": 2350
      },
      {
        "club_badge_src": "https://fantasy.premierleague.com/gcs/plfpl-production-adobe-approved/plfpl-production/18157/b229be98-8d3c-466e-9953-4ca04dc83b5f.png",
        "entry": 18157,
        "entry_name": "Kalina Lulkowo",
        "event_total": 54,
        "has_played": true,
        "id": 112879,
        "last_rank": 42940,
        "player_name": "Micha\u0142 Le\u015bniczak",
        "rank": 53036,
        "rank_sort": 53049,
        "total": 2350
      },
      {
        "club_badge_src": "https://fantasy.premierleague.com/gcs/plfpl-production-adobe-approved/plfpl-production/23561/0d1b992b-a580-4222-99f8-63a683b3ceb4.png",
        "entry": 23561,
        "entry_name": "Lupa Tukar Captain",
        "event_total": 50,
        "has_played": true,
        "id": 148419,
        "last_rank": 32879,
        "player_name": "Akmal Nurmadzi",
        "rank": 53036,
        "rank_sort": 53050,
        "total": 2350
      }
    ]
  }
}