{
  "last_updated_data": "2026-05-24T23:28:17Z",
  "league": {
    "admin_entry": null,
    "closed": false,
    "code_privacy": "p",
    "created": "2025-07-20T23:14:33.933835Z",
    "cup_league": 2815434,
    "has_cup": true,
    "id": 314,
    "league_type": "s",
    "max_entries": null,
    "name": "Overall",
    "rank": null,
    "scoring": "c",
    "start_event": 1
  },
  "new_entries": {
    "has_next": false,
    "page": 1,
    "results": []
  },
  "standings": {
    "has_next": true,
    "page": 1661,
    "results": [
      {
        "club_badge_src": null,
        "entry": 8473164,
        "entry_name": "Game of Sons",
        "event_total": 37,
        "has_played": true,
        "id": 70374881,
        "last_rank": 47417,
        "player_name": "Jamie Norman",
        "rank": 82714,
        "rank_sort": 83001,
        "total": 2334
      },
      {
        "club_badge_src": null,
        "entry": 8491999,
        "entry_name": "HansaH Bernstein",
        "event_total": 52,
        "has_played": true,
        "id": 70559310,
        "last_rank": 73423,
        "player_name": "Hannah Bernstein",
        "rank": 82714,
        "rank_sort": 83002,
        "total": 2334
      },
      {
        "club_badge_src": null,
        "entry": 8709233,
        "entry_name": "Free0Palest1ne",
        "event_total": 59,
        "has_played": true,
        "id": 72668338,
        "last_rank": 89055,
        "player_name": "Tarek Fares",
        "rank": 82714,
        "rank_sort": 83003,
        "total": 2334
      },
      {
        "club_badge_src": null,
        "entry": 8808849,
        "entry_name": "Rylles Gubbar",
        "event_total": 75,
        "has_played": true,
        "id": 73630373,
        "last_rank": 133328,
        "player_name": "Anton Rylander",
        "rank": 82714,
        "rank_sort": 83004,
        "total": 2334
      },
      {
        "club_badge_src": null,
        "entry": 8890583,
        "entry_name": "Project Blue Lock",
        "event_total": 49,
        "has_played": true,
        "id": 74417266,
        "last_rank": 67422,
        "player_name": "Leslie ---\ufe0f",
        "rank": 82714,
        "rank_sort": 83005,
        "total": 2334
      },
      {
        "club_badge_src": null,
        "entry": 8950550,
        "entry_name": "The Celts",
        "event_total": 26,
        "has_played": true,
        "id": 75004724,
        "last_rank": 33332,
        "player_name": "Declan Clerkin",
        "rank": 82714,
        "rank_sort": 83006,
        "total": 2334
      },
      {
        "club_badge_src": "https://fantasy.premierleague.com/gcs/plfpl-production-adobe-approved/plfpl-production/9057306/8021e3d1-ec57-40a9-b30b-bc9e1bbf8323.png",
        "entry": 9057306,
        "entry_name": "namber one",
        "event_total": 60,
        "has_played": true,
        "id": 76035923,
        "last_rank": 92126,
        "player_name": "choman Hiwa saydani",
        "rank": 82714,
        "rank_sort": 83007,
        "total": 2334
      },
      {
        "club_badge_src": null,
        "entry": 5356,
        "entry_name": "Poohdini 59ers",
        "event_total": 51,
        "has_played": true,
        "id": 30525,
        "last_rank": 56708,
        "player_name": "Goktug Erce Gurel",
        "rank": 83008,
        "rank_sort": 83008,
        "total": 2334
      },
      {
        "club_badge_src": null,
        "entry": 7551,
        "entry_name": "Lowrider DDL",
        "event_total": 39,
        "has_played": true,
        "id": 43534,
        "last_rank": 44303,
        "player_name": "Piotr Maciocha",
        "rank": 83008,
        "rank_sort": 83009,
        "total": 2334
      },
      {
        "club_badge_src": "https://fantasy.premierleague.com/gcs/plfpl-production-adobe-approved/plfpl-production/12406/3558a076-0c66-4492-ab31-4ba79e21b6ee.png",
        "entry": 12406,
        "entry_name": "Tottenham Hackspur",
        "event_total": 58,
        "has_played": true,
        "id": 74196,
        "last_rank": 87350,
        "player_name": "Phil Hackett",
        "rank": 83008,
        "rank_sort": 83010,
        "total": 2334
      },
      {
        "club_badge_src": null,
        "entry": 14698,
        "entry_name": "Ctrl Alt De Ligt",
        "event_total": 70,
        "has_played": true,
        "id": 89457,
        "last_rank": 118343,
        "player_name": "Aleksandar Angelov",
        "rank": 83008,
        "rank_sort": 83011,
        "total": 2334
      },
      {
        "club_badge_src": "https://fantasy.premierleague.com/gcs/plfpl-production-adobe-approved/plfpl-production/17623/f35ed6b0-8df7-4591-9a16-5a85257c8740.png",
        "entry": 17623,
        "entry_name": "Deporto la Diaspora",
        "event_total": 62,
        "has_played": true,
        "id": 109386,
        "last_rank": 96777,
        "player_name": "Wristy Gymnast",
        "rank": 83008,
        "rank_sort": 83012,
        "total": 2334
      },
      {
        "club_badge_src": "https://fantasy.premierleague.com/gcs/plfpl-production-adobe-approved/plfpl-production/26083/6e3898a7-07d6-416d-9818-64b6d910e6c2.png",
        "entry": 26083,
        "entry_name": "Bucky's Beasts",
        "event_total": 68,
        "has_played": true,
        "id": 164927,
        "last_rank": 101818,
        "player_name": "Paul Bucknall",
        "rank": 83008,
        "rank_sort": 83013,
        "total": 2334
      },
      {
        "club_badge_src": "https://fantasy.premierleague.com/gcs/plfpl-production-adobe-approved/plfpl-production/27787/0957e334-0aef-44a1-a8a8-ade6e1044f83.png",
        "entry": 27787,
        "entry_name": "StoneColdStevePalmer",
        "event_total": 59,
        "has_played": true,
        "id": 175677,
        "last_rank": 80194,
        "player_name": "Ng Yee Meng",
        "rank": 83008,
        "rank_sort": 83014,
        "total": 2334
      },
      {
        "club_badge_src": null,
        "entry": 28696,
        "entry_name": "Shelby FC",
        "event_total": 68,
        "has_played": true,
        "id": 181414,
        "last_rank": 91006,
        "player_name": "Daniel Clarke",
        "rank": 83008,
        "rank_sort": 83015,
        "total": 2334
      },
      {
        "club_badge_src": "https://fantasy.premierleague.com/gcs/plfpl-production-adobe-approved/plfpl-production/30252/b91a2db0-2425-4d26-a3da-dcde3d282880.png",
        "entry": 30252,
        "entry_name": "The Kiiids",
        "event_total": 70,
        "has_played": true,
        "id": 191463,
        "last_rank": 107162,
        "player_name": "Craig Manuel",
        "rank": 83008,
        "rank_sort": 83016,
        "total": 2334
      },
      {
        "club_badge_src": null,
        "entry": 37180,
        "entry_name": "Kobbie and Paste",
        "event_total": 46,
        "has_played": true,
        "id": 238108,
        "last_rank": 62429,
        "player_name": "Jash Choraria",
        "rank": 83008,
        "rank_sort": 83017,
        "total": 2334
      },
      {
        "club_badge_src": null,
        "entry": 37305,
        "entry_name": "Wirtz of Wisdom",
        "event_total": 49,
        "has_played": true,
        "id": 238924,
        "last_rank": 67695,
        "player_name": "Owen Wright",
        "rank": 83008,
        "rank_sort": 83018,
        "total": 2334
      },
      {
        "club_badge_src": null,
        "entry": 37688,
        "entry_name": "Ajax trees down",
        "event_total": 70,
        "has_played": true,
        "id": 241470,
        "last_rank": 117915,
        "player_name": "Jack Hebden",
        "rank": 83008,
        "rank_sort": 83019,
        "total": 2334
      },
      {
        "club_badge_src": "https://fantasy.premierleague.com/gcs/plfpl-production-adobe-approved/plfpl-production/39005/cc057db3-4f80-4db4-a2f4-495a86d4612d.png",
        "entry": 39005,
        "entry_name": "Yoro Wizard Harry",
        "event_total": 61,
        "has_played": true,
        "id": 250020,
        "last_rank": 84731,
        "player_name": "Iain Coleman",
        "rank": 83008,
        "rank_sort": 83020,
        "total": 2334
      },
      {
        "club_badge_src": null,
        "entry": 42815,
        "entry_name": "Wharton earth is thi",
        "event_total": 45,
        "has_played": true,
        "id": 274250,
        "last_rank": 53621,
        "player_name": "Alex Piper",
        "rank": 83008,
        "rank_sort": 83021,
        "total": 2334
      },
      {
        "club_badge_src": null,
        "entry": 51321,
        "entry_name": "comfortably nump",
        "event_total": 39,
        "has_played": true,
        "id": 330051,
        "last_rank": 44525,
        "player_name": "Boules Akladius",
        "rank": 83008,
        "rank_sort": 83022,
        "total": 2334
      },
      {
        "club_badge_src": null,
        "entry": 54119,
        "entry_name": "The North Eagles",
        "event_total": 51,
        "has_played": true,
        "id": 348286,
        "last_rank": 71713,
        "player_name": "Konstantin Bervinov",
        "rank": 83008,
        "rank_sort": 83023,
        "total": 2334
      },
      {
        "club_badge_src": "https://fantasy.premierleague.com/gcs/plfpl-production-adobe-approved/plfpl-production/55192/9c7f470a-f254-402c-9ee1-a62b0b9f97ac.png",
        "entry": 55192,
        "entry_name": "Jurgen klot",
        "event_total": 49,
        "has_played": true,
        "id": 355251,
        "last_rank": 60462,
        "player_name": "Hazem Essam",
        "rank": 83008,
        "rank_sort": 83024,
        "total": 2334
      },
      {
        "club_badge_src": "https://fantasy.premierleague.com/gcs/plfpl-production-adobe-approved/plfpl-production/59306/f7fa224c-696c-41b7-9213-7fb747644096.png",
        "entry": 59306,
        "entry_name": "One Shade of Gray",
        "event_total": 57,
        "has_played": true,
        "id": 381951,
        "last_rank": 84980,
        "player_name": "Joshua Gray",
        "rank": 83008,
        "rank_sort": 83025,
        "total": 2334
      },
      {
        "club_badge_src": "https://fantasy.premierleague.com/gcs/plfpl-production-adobe-approved/plfpl-production/62568/1ce5d4a6-4f1b-4777-a713-56b02255aab8.png",
        "entry": 62568,
        "entry_name": "Fluffy Shinkickers",
        "event_total": 57,
        "has_played": true,
        "id": 403390,
        "last_rank": 85207,
        "player_name": "Mats Aubell",
        "rank": 83008,
        "rank_sort": 83026,
        "total": 2334
      },
      {
        "club_badge_src": "https://fantasy.premierleague.com/gcs/plfpl-production-adobe-approved/plfpl-production/63203/301876b2-9f43-4486-a83d-31c88e1d5a27.png",
        "entry": 63203,
        "entry_name": "GO74DZ",
        "event_total": 70,
        "has_played": true,
        "id": 407716,
        "last_rank": 106763,
        "player_name": "Mohamed Hesham",
        "rank": 83008,
        "rank_sort": 83027,
        "total": 2334
      },
      {
        "club_badge_src": null,
        "entry": 67619,
        "entry_name": "Woznee's Bees",
        "event_total": 69,
        "has_played": true,
        "id": 437837,
        "last_rank": 115421,
        "player_name": "David Warren",
        "rank": 83008,
        "rank_sort": 83028,
        "total": 2334
      },
      {
        "club_badge_src": null,
        "entry": 69128,
        "entry_name": "\u8607\u4fdd\u65af\u79ae\u591a\u4eba\u4e0d\u602a",
        "event_total": 49,
        "has_played": true,
        "id": 448192,
        "last_rank": 67695,
        "player_name": "cue gor",
        "rank": 83008,
        "rank_sort": 83029,
        "total": 2334
      },
      {
        "club_badge_src": "https://fantasy.premierleague.com/gcs/plfpl-production-adobe-approved/plfpl-production/70536/11b3cd60-6416-4132-9b83-4a67e2793ef9.png",
        "entry": 70536,
        "entry_name": "Capyborough",
        "event_total": 31,
        "has_played": true,
        "id": 458057,
        "last_rank": 39403,
        "player_name": "FPL Capybara",
        "rank": 83008,
        "rank_sort": 83030,
        "total": 2334
      },
      {
        "club_badge_src": null,
        "entry": 79410,
        "entry_name": "Paris St John man",
        "event_total": 78,
        "has_played": true,
        "id": 516464,
        "last_rank": 143804,
        "player_name": "Giles St John",
        "rank": 83008,
        "rank_sort": 83031,
        "total": 2334
      },
      {
        "club_badge_src": "https://fantasy.premierleague.com/gcs/plfpl-production-adobe-approved/plfpl-production/82094/8d9f03e3-7431-47d4-8f26-fca8a0c6beac.png",
        "entry": 82094,
        "entry_name": "Elanga Na Na Na",
        "event_total": 56,
        "has_played": true,
        "id": 534102,
        "last_rank": 82664,
        "player_name": "Callum Grieves",
        "rank": 83008,
        "rank_sort": 83032,
        "total": 2334
      },
      {
        "club_badge_src": null,
        "entry": 92716,
        "entry_name": "Rubber Digne Rapids",
        "event_total": 50,
        "has_played": true,
        "id": 605875,
        "last_rank": 69907,
        "player_name": "Dhevan Nijhar",
        "rank": 83008,
        "rank_sort": 83033,
        "total": 2334
      },
      {
        "club_badge_src": null,
        "entry": 99658,
        "entry_name": "Beast Formation",
        "event_total": 54,
        "has_played": true,
        "id": 650545,
        "last_rank": 78244,
        "player_name": "Nick Davis",
        "rank": 83008,
        "rank_sort": 83034,
        "total": 2334
      },
      {
        "club_badge_src": null,
        "entry": 140410,
        "entry_name": "Kroos Control",
        "event_total": 74,
        "has_played": true,
        "id": 916902,
        "last_rank": 118343,
        "player_name": "Eirik Gard Endal",
        "rank": 83008,
        "rank_sort": 83035,
        "total": 2334
      },
      {
        "club_badge_src": null,
        "entry": 149159,
        "entry_name": "FC Indian Harvest",
        "event_total": 55,
        "has_played": true,
        "id": 977899,
        "last_rank": 80465,
        "player_name": "Michael Dowd",
        "rank": 83008,
        "rank_sort": 83036,
        "total": 2334
      },
      {
        "club_badge_src": "https://fantasy.premierleague.com/gcs/plfpl-production-adobe-approved/plfpl-production/163068/b5318521-a908-4c28-a085-85eada55c3ec.png",
        "entry": 163068,
        "entry_name": "Ait-Nouri se duri",
        "event_total": 63,
        "has_played": true,
        "id": 1075263,
        "last_rank": 99296,
        "player_name": "Milan Ron\u010devi\u0107",
        "rank": 83008,
        "rank_sort": 83037,
        "total": 2334
      },
      {
        "club_badge_src": "https://fantasy.premierleague.com/gcs/plfpl-production-adobe-approved/plfpl-production/171306/61459ea0-9f4b-4159-9178-87f5cc86a9e7.png",
        "entry": 171306,
        "entry_name": "Macatios fc",
        "event_total": 72,
        "has_played": true,
        "id": 1131738,
        "last_rank": 124336,
        "player_name": "Aamir Atchia",
        "rank": 83008,
        "rank_sort": 83038,
        "total": 2334
      },
      {
        "club_badge_src": null,
        "entry": 173761,
        "entry_name": "Yoro wizard lenny",
        "event_total": 42,
        "has_played": true,
        "id": 1147513,
        "last_rank": 55311,
        "player_name": "Ellis Perkins",
        "rank": 83008,
        "rank_sort": 83039,
        "total": 2334
      },
      {
        "club_badge_src": null,
        "entry": 182672,
        "entry_name": "Lyckinho",
        "event_total": 64,
        "has_played": true,
        "id": 1205565,
        "last_rank": 101419,
        "player_name": "nikolai Lyckander",
        "rank": 83008,
        "rank_sort": 83040,
        "total": 2334
      },
      {
        "club_badge_src": null,
        "entry": 190274,
        "entry_name": "Shahrukhy",
        "event_total": 60,
        "has_played": true,
        "id": 1259914,
        "last_rank": 82398,
        "player_name": "Shahrukh Sheharyar",
        "rank": 83008,
        "rank_sort": 83041,
        "total": 2334
      },
      {
        "club_badge_src": null,
        "entry": 198431,
        "entry_name": "aa",
        "event_total": 52,
        "has_played": true,
        "id": 1316790,
        "last_rank": 51403,
        "player_name": "Ellan Vannin",
        "rank": 83008,
        "rank_sort": 83042,
        "total": 2334
      },
      {
        "club_badge_src": null,
        "entry": 205222,
        "entry_name": "Demon Angels",
        "event_total": 49,
        "has_played": true,
        "id": 1364066,
        "last_rank": 60462,
        "player_name": "B\u00f8rt Erik Skr\u00e6i",
        "rank": 83008,
        "rank_sort": 83043,
        "total": 2334
      },
      {
        "club_badge_src": null,
        "entry": 209702,
        "entry_name": "The Colonel",
        "event_total": 38,
        "has_played": true,
        "id": 1394594,
        "last_rank": 49078,
        "player_name": "Ashley Purnell",
        "rank": 83008,
        "rank_sort": 83044,
        "total": 2334
      },
      {
        "club_badge_src": "https://fantasy.premierleague.com/gcs/plfpl-production-adobe-approved/plfpl-production/224829/356d1f3d-7a0e-49aa-9564-33a5098edaf1.png",
        "entry": 224829,
        "entry_name": "Tunisian King",
        "event_total": 58,
        "has_played": true,
        "id": 1495597,
        "last_rank": 87350,
        "player_name": "Ahmed Essid",
        "rank": 83008,
        "rank_sort": 83045,
        "total": 2334
      },
      {
        "club_badge_src": null,
        "entry": 237552,
        "entry_name": "Fin FC",
        "event_total": 56,
        "has_played": true,
        "id": 1580491,
        "last_rank": 82664,
        "player_name": "Finbarr McCarthy",
        "rank": 83008,
        "rank_sort": 83046,
        "total": 2334
      },
      {
        "club_badge_src": "https://fantasy.premierleague.com/gcs/plfpl-production-adobe-approved/plfpl-production/240450/c4ab3fd2-3f5e-425f-82c6-679ba87381a3.png",
        "entry": 240450,
        "entry_name": "Sporting GBG",
        "event_total": 62,
        "has_played": true,
        "id": 1600251,
        "last_rank": 87074,
        "player_name": "Robin Simonsson",
        "rank": 83008,
        "rank_sort": 83047,
        "total": 2334
      },
      {
        "club_badge_src": null,
        "entry": 241340,
        "entry_name": "Akid",
        "event_total": 61,
        "has_played": true,
        "id": 1606369,
        "last_rank": 84731,
        "player_name": "Hassan Kassem",
        "rank": 83008,
        "rank_sort": 83048,
        "total": 2334
      },
      {
        "club_badge_src": null,
        "entry": 251345,
        "entry_name": "Slot Drop",
        "event_total": 59,
        "has_played": true,
        "id": 1672151,
        "last_rank": 89706,
        "player_name": "Will Naylor",
        "rank": 83008,
        "rank_sort": 83049,
        "total": 2334
      },
      {
        "club_badge_src": "https://fantasy.premierleague.com/gcs/plfpl-production-adobe-approved/plfpl-production/252715/61caa314-a5b7-4086-9c59-ddbdcdcf5fed.png",
        "entry": 252715,
        "entry_name": "NOTORIOUZZ",
        "event_total": 69,
        "has_played": true,
        "id": 1680892,
        "last_rank": 103978,
        "player_name": "Niko Di Bart",
        "rank": 83008,
        "rank_sort": 83050,
        "total": 2334
      }
    ]
  }
}