{
  "last_updated_data": "2026-05-24T23:28:17Z",
  "league": {
    "admin_entry": null,
    "closed": false,
    "code_privacy": "p",
    "created": "2025-07-20T23:14:33.933835Z",
    "cup_league": 2815434,
    "has_cup": true,
    "id": 314,
    "league_type": "s",
    "max_entries": null,
    "name": "Overall",
    "rank": null,
    "scoring": "c",
    "start_event": 1
  },
  "new_entries": {
    "has_next": false,
    "page": 1,
    "results": []
  },
  "standings": {
    "has_next": true,
    "page": 1484,
    "results": [
      {
        "club_badge_src": null,
        "entry": 2106296,
        "entry_name": "Tottenham Hodgespur",
        "event_total": 43,
        "has_played": true,
        "id": 14948029,
        "last_rank": 50199,
        "player_name": "Craig Hodgson",
        "rank": 73983,
        "rank_sort": 74151,
        "total": 2338
      },
      {
        "club_badge_src": null,
        "entry": 2171316,
        "entry_name": "Toffees r us",
        "event_total": 66,
        "has_played": true,
        "id": 15438772,
        "last_rank": 96374,
        "player_name": "Craig McDonald",
        "rank": 73983,
        "rank_sort": 74152,
        "total": 2338
      },
      {
        "club_badge_src": null,
        "entry": 2210800,
        "entry_name": "ugarte friend in me",
        "event_total": 85,
        "has_played": true,
        "id": 15742978,
        "last_rank": 153085,
        "player_name": "samuel tan",
        "rank": 73983,
        "rank_sort": 74153,
        "total": 2338
      },
      {
        "club_badge_src": null,
        "entry": 2215389,
        "entry_name": "Diarra Straits",
        "event_total": 53,
        "has_played": true,
        "id": 15777164,
        "last_rank": 67422,
        "player_name": "Mark Vincent",
        "rank": 73983,
        "rank_sort": 74154,
        "total": 2338
      },
      {
        "club_badge_src": null,
        "entry": 2279945,
        "entry_name": "Baller$ CF",
        "event_total": 71,
        "has_played": true,
        "id": 16258599,
        "last_rank": 108959,
        "player_name": "Jean- Paul Gilkes",
        "rank": 73983,
        "rank_sort": 74155,
        "total": 2338
      },
      {
        "club_badge_src": null,
        "entry": 2292730,
        "entry_name": "Wirtz-case scenario",
        "event_total": 57,
        "has_played": true,
        "id": 16351795,
        "last_rank": 67063,
        "player_name": "Gavin Lytton",
        "rank": 73983,
        "rank_sort": 74156,
        "total": 2338
      },
      {
        "club_badge_src": null,
        "entry": 2344008,
        "entry_name": "Objets d'Arteta",
        "event_total": 70,
        "has_played": true,
        "id": 16725303,
        "last_rank": 106763,
        "player_name": "Lee B.",
        "rank": 73983,
        "rank_sort": 74157,
        "total": 2338
      },
      {
        "club_badge_src": null,
        "entry": 2344341,
        "entry_name": "BoobleBooble",
        "event_total": 59,
        "has_played": true,
        "id": 16727632,
        "last_rank": 79817,
        "player_name": "Emanuel Berglund",
        "rank": 73983,
        "rank_sort": 74158,
        "total": 2338
      },
      {
        "club_badge_src": null,
        "entry": 2361846,
        "entry_name": "Team Bosskurr",
        "event_total": 49,
        "has_played": true,
        "id": 16856069,
        "last_rank": 60168,
        "player_name": "Agus Rianz",
        "rank": 73983,
        "rank_sort": 74159,
        "total": 2338
      },
      {
        "club_badge_src": null,
        "entry": 2386069,
        "entry_name": "Keep it Mainoo",
        "event_total": 63,
        "has_played": true,
        "id": 17042580,
        "last_rank": 79431,
        "player_name": "Dennis R\u00f6nnemark",
        "rank": 73983,
        "rank_sort": 74160,
        "total": 2338
      },
      {
        "club_badge_src": "https://fantasy.premierleague.com/gcs/plfpl-production-adobe-approved/plfpl-production/2401363/6264e1c3-7cd9-446b-8def-f2bf2323d156.png",
        "entry": 2401363,
        "entry_name": "FC Kukenberg City",
        "event_total": 55,
        "has_played": true,
        "id": 17163208,
        "last_rank": 71386,
        "player_name": "Denis \u017dnidari\u010d",
        "rank": 73983,
        "rank_sort": 74161,
        "total": 2338
      },
      {
        "club_badge_src": null,
        "entry": 2448873,
        "entry_name": "SSFC",
        "event_total": 61,
        "has_played": true,
        "id": 17514834,
        "last_rank": 83934,
        "player_name": "Simon Speer",
        "rank": 73983,
        "rank_sort": 74162,
        "total": 2338
      },
      {
        "club_badge_src": null,
        "entry": 2553700,
        "entry_name": "Dazzling Dynamos",
        "event_total": 54,
        "has_played": true,
        "id": 18310599,
        "last_rank": 61411,
        "player_name": "Darren Green",
        "rank": 73983,
        "rank_sort": 74163,
        "total": 2338
      },
      {
        "club_badge_src": null,
        "entry": 2561961,
        "entry_name": "taytays",
        "event_total": 59,
        "has_played": true,
        "id": 18375038,
        "last_rank": 70985,
        "player_name": "Rakel Andreassen",
        "rank": 73983,
        "rank_sort": 74164,
        "total": 2338
      },
      {
        "club_badge_src": "https://fantasy.premierleague.com/gcs/plfpl-production-adobe-approved/plfpl-production/2569019/4ff28430-c447-478b-88d2-4d7283a75a57.png",
        "entry": 2569019,
        "entry_name": "The Mo You Know",
        "event_total": 55,
        "has_played": true,
        "id": 18430854,
        "last_rank": 70985,
        "player_name": "Jesper Lindberg",
        "rank": 73983,
        "rank_sort": 74165,
        "total": 2338
      },
      {
        "club_badge_src": null,
        "entry": 2583797,
        "entry_name": "Amer.ali",
        "event_total": 57,
        "has_played": true,
        "id": 18546891,
        "last_rank": 75139,
        "player_name": "ameer ali",
        "rank": 73983,
        "rank_sort": 74166,
        "total": 2338
      },
      {
        "club_badge_src": null,
        "entry": 2623987,
        "entry_name": "The Cold Army",
        "event_total": 69,
        "has_played": true,
        "id": 18855285,
        "last_rank": 103526,
        "player_name": "Albin Hillsk\u00e4r",
        "rank": 73983,
        "rank_sort": 74167,
        "total": 2338
      },
      {
        "club_badge_src": null,
        "entry": 2675568,
        "entry_name": "Rayan",
        "event_total": 67,
        "has_played": true,
        "id": 19237378,
        "last_rank": 98896,
        "player_name": "Rayan Bader",
        "rank": 73983,
        "rank_sort": 74168,
        "total": 2338
      },
      {
        "club_badge_src": null,
        "entry": 2715114,
        "entry_name": "KFC Wimbledon",
        "event_total": 72,
        "has_played": true,
        "id": 19535621,
        "last_rank": 111669,
        "player_name": "David Strong",
        "rank": 73983,
        "rank_sort": 74169,
        "total": 2338
      },
      {
        "club_badge_src": "https://fantasy.premierleague.com/gcs/plfpl-production-adobe-approved/plfpl-production/2768487/9225e9b9-e2d9-4722-914e-990fc72c92a3.png",
        "entry": 2768487,
        "entry_name": "#KKP",
        "event_total": 50,
        "has_played": true,
        "id": 20199153,
        "last_rank": 54667,
        "player_name": "Mitar Bojic",
        "rank": 73983,
        "rank_sort": 74170,
        "total": 2338
      },
      {
        "club_badge_src": null,
        "entry": 2781103,
        "entry_name": "Henry the King",
        "event_total": 58,
        "has_played": true,
        "id": 20300113,
        "last_rank": 77050,
        "player_name": "Andy Wong",
        "rank": 73983,
        "rank_sort": 74171,
        "total": 2338
      },
      {
        "club_badge_src": "https://fantasy.premierleague.com/gcs/plfpl-production-adobe-approved/plfpl-production/2782366/52a6ab9c-051f-420c-99ec-cd0abb6cc20c.png",
        "entry": 2782366,
        "entry_name": "Kicky Foots",
        "event_total": 64,
        "has_played": true,
        "id": 20309609,
        "last_rank": 91006,
        "player_name": "Ross Macleod",
        "rank": 73983,
        "rank_sort": 74172,
        "total": 2338
      },
      {
        "club_badge_src": null,
        "entry": 2805985,
        "entry_name": "nisupulla Oy",
        "event_total": 61,
        "has_played": true,
        "id": 20491783,
        "last_rank": 84360,
        "player_name": "Aleksi Nissinen",
        "rank": 73983,
        "rank_sort": 74173,
        "total": 2338
      },
      {
        "club_badge_src": null,
        "entry": 2814069,
        "entry_name": "Turn the Lolume Up",
        "event_total": 57,
        "has_played": true,
        "id": 20553998,
        "last_rank": 75874,
        "player_name": "Haragam Paul",
        "rank": 73983,
        "rank_sort": 74174,
        "total": 2338
      },
      {
        "club_badge_src": null,
        "entry": 2835840,
        "entry_name": "Omar",
        "event_total": 55,
        "has_played": true,
        "id": 20724198,
        "last_rank": 70985,
        "player_name": "OMAR Mohamed",
        "rank": 73983,
        "rank_sort": 74175,
        "total": 2338
      },
      {
        "club_badge_src": null,
        "entry": 2840066,
        "entry_name": "Angulo FC",
        "event_total": 62,
        "has_played": true,
        "id": 20757490,
        "last_rank": 86735,
        "player_name": "Luis Angulo",
        "rank": 73983,
        "rank_sort": 74176,
        "total": 2338
      },
      {
        "club_badge_src": null,
        "entry": 2876890,
        "entry_name": "El Gallinero",
        "event_total": 39,
        "has_played": true,
        "id": 21058845,
        "last_rank": 44303,
        "player_name": "Micheal Boulis",
        "rank": 73983,
        "rank_sort": 74177,
        "total": 2338
      },
      {
        "club_badge_src": null,
        "entry": 2900316,
        "entry_name": "Goal Hole",
        "event_total": 59,
        "has_played": true,
        "id": 21253617,
        "last_rank": 79817,
        "player_name": "Ollie Lewis",
        "rank": 73983,
        "rank_sort": 74178,
        "total": 2338
      },
      {
        "club_badge_src": null,
        "entry": 2973476,
        "entry_name": "Red-nose Reijnders",
        "event_total": 50,
        "has_played": true,
        "id": 21848727,
        "last_rank": 61606,
        "player_name": "George Wilson",
        "rank": 73983,
        "rank_sort": 74179,
        "total": 2338
      },
      {
        "club_badge_src": null,
        "entry": 3009467,
        "entry_name": "1 Season Wonder Mads",
        "event_total": 62,
        "has_played": true,
        "id": 22138756,
        "last_rank": 77258,
        "player_name": "Henrik Christensen",
        "rank": 73983,
        "rank_sort": 74180,
        "total": 2338
      },
      {
        "club_badge_src": null,
        "entry": 3034809,
        "entry_name": "Weasek Utd",
        "event_total": 45,
        "has_played": true,
        "id": 22334329,
        "last_rank": 53345,
        "player_name": "Paul Walters",
        "rank": 73983,
        "rank_sort": 74181,
        "total": 2338
      },
      {
        "club_badge_src": "https://fantasy.premierleague.com/gcs/plfpl-production-adobe-approved/plfpl-production/3044075/a6eea930-3f2f-49f7-8c8b-527d8d771cd3.png",
        "entry": 3044075,
        "entry_name": "Modest FC",
        "event_total": 54,
        "has_played": true,
        "id": 22406781,
        "last_rank": 69323,
        "player_name": "Saiyid Hamid",
        "rank": 73983,
        "rank_sort": 74182,
        "total": 2338
      },
      {
        "club_badge_src": null,
        "entry": 3067173,
        "entry_name": "Palmer's Palace",
        "event_total": 72,
        "has_played": true,
        "id": 22583813,
        "last_rank": 111270,
        "player_name": "Ludwig Kerck",
        "rank": 73983,
        "rank_sort": 74183,
        "total": 2338
      },
      {
        "club_badge_src": null,
        "entry": 3076123,
        "entry_name": "man utd",
        "event_total": 53,
        "has_played": true,
        "id": 22661041,
        "last_rank": 67422,
        "player_name": "temika ruiters",
        "rank": 73983,
        "rank_sort": 74184,
        "total": 2338
      },
      {
        "club_badge_src": null,
        "entry": 3159801,
        "entry_name": "Bruised Banamas",
        "event_total": 70,
        "has_played": true,
        "id": 23341547,
        "last_rank": 95890,
        "player_name": "Warwick Moffat",
        "rank": 73983,
        "rank_sort": 74185,
        "total": 2338
      },
      {
        "club_badge_src": null,
        "entry": 3181823,
        "entry_name": "FC FLASH",
        "event_total": 70,
        "has_played": true,
        "id": 23512205,
        "last_rank": 106763,
        "player_name": "Bj\u00f8rn Thuestad",
        "rank": 73983,
        "rank_sort": 74186,
        "total": 2338
      },
      {
        "club_badge_src": null,
        "entry": 3226263,
        "entry_name": "Daniel8.0",
        "event_total": 76,
        "has_played": true,
        "id": 23859286,
        "last_rank": 123422,
        "player_name": "Ade Atayero",
        "rank": 73983,
        "rank_sort": 74187,
        "total": 2338
      },
      {
        "club_badge_src": null,
        "entry": 3244561,
        "entry_name": "Miatchas Biatchas",
        "event_total": 65,
        "has_played": true,
        "id": 24001692,
        "last_rank": 93186,
        "player_name": "Mike Ridling",
        "rank": 73983,
        "rank_sort": 74188,
        "total": 2338
      },
      {
        "club_badge_src": null,
        "entry": 3250720,
        "entry_name": "boom xhaka laka",
        "event_total": 67,
        "has_played": true,
        "id": 24050684,
        "last_rank": 98436,
        "player_name": "viktor H\u00e4rling",
        "rank": 73983,
        "rank_sort": 74189,
        "total": 2338
      },
      {
        "club_badge_src": null,
        "entry": 3363909,
        "entry_name": "Litleskare United",
        "event_total": 70,
        "has_played": true,
        "id": 24961197,
        "last_rank": 106763,
        "player_name": "Tommy Litleskare",
        "rank": 73983,
        "rank_sort": 74190,
        "total": 2338
      },
      {
        "club_badge_src": "https://fantasy.premierleague.com/gcs/plfpl-production-adobe-approved/plfpl-production/3364610/2075e6bf-fdde-42c8-857c-5b94153d01b3.png",
        "entry": 3364610,
        "entry_name": "Jack Corktuah",
        "event_total": 53,
        "has_played": true,
        "id": 24966627,
        "last_rank": 67422,
        "player_name": "Rhys Davidson",
        "rank": 73983,
        "rank_sort": 74191,
        "total": 2338
      },
      {
        "club_badge_src": null,
        "entry": 3377260,
        "entry_name": "Chezzy's Cheeks",
        "event_total": 59,
        "has_played": true,
        "id": 25067692,
        "last_rank": 79431,
        "player_name": "Cormac McCarthy",
        "rank": 73983,
        "rank_sort": 74192,
        "total": 2338
      },
      {
        "club_badge_src": null,
        "entry": 3421104,
        "entry_name": "Gy\u00f6k in 60 Sakas",
        "event_total": 67,
        "has_played": true,
        "id": 25411850,
        "last_rank": 98896,
        "player_name": "ian chan",
        "rank": 73983,
        "rank_sort": 74193,
        "total": 2338
      },
      {
        "club_badge_src": "https://fantasy.premierleague.com/gcs/plfpl-production-adobe-approved/plfpl-production/3447899/e4b69b77-3bb3-47e4-a364-c0f588df6d0a.png",
        "entry": 3447899,
        "entry_name": "Haegern BK",
        "event_total": 48,
        "has_played": true,
        "id": 25619134,
        "last_rank": 58388,
        "player_name": "Jakob Nisses",
        "rank": 73983,
        "rank_sort": 74194,
        "total": 2338
      },
      {
        "club_badge_src": null,
        "entry": 3448757,
        "entry_name": "YaWinYaLurn",
        "event_total": 53,
        "has_played": true,
        "id": 25627034,
        "last_rank": 67422,
        "player_name": "Saad Islam",
        "rank": 73983,
        "rank_sort": 74195,
        "total": 2338
      },
      {
        "club_badge_src": null,
        "entry": 3463037,
        "entry_name": "Putting on Timber",
        "event_total": 43,
        "has_played": true,
        "id": 25742409,
        "last_rank": 50199,
        "player_name": "Jamie Allen",
        "rank": 73983,
        "rank_sort": 74196,
        "total": 2338
      },
      {
        "club_badge_src": null,
        "entry": 3596623,
        "entry_name": "Barks and Brews FC",
        "event_total": 54,
        "has_played": true,
        "id": 26786401,
        "last_rank": 68957,
        "player_name": "Patrick Kelly",
        "rank": 73983,
        "rank_sort": 74197,
        "total": 2338
      },
      {
        "club_badge_src": "https://fantasy.premierleague.com/gcs/plfpl-production-adobe-approved/plfpl-production/3616547/1a8a2021-c146-4afa-bdb6-d0f5b031b030.png",
        "entry": 3616547,
        "entry_name": "Gone In 60 Ligaments",
        "event_total": 66,
        "has_played": true,
        "id": 26943371,
        "last_rank": 96374,
        "player_name": "matt fisher",
        "rank": 73983,
        "rank_sort": 74198,
        "total": 2338
      },
      {
        "club_badge_src": null,
        "entry": 3634774,
        "entry_name": "MyFatPants FC",
        "event_total": 61,
        "has_played": true,
        "id": 27086919,
        "last_rank": 83934,
        "player_name": "Stefan Barcelo",
        "rank": 73983,
        "rank_sort": 74199,
        "total": 2338
      },
      {
        "club_badge_src": null,
        "entry": 3647917,
        "entry_name": "Tazz Gang",
        "event_total": 82,
        "has_played": true,
        "id": 27190818,
        "last_rank": 142439,
        "player_name": "BACCARI MOOTEZ",
        "rank": 73983,
        "rank_sort": 74200,
        "total": 2338
      }
    ]
  }
}