{
  "last_updated_data": "2026-05-24T23:28:17Z",
  "league": {
    "admin_entry": null,
    "closed": false,
    "code_privacy": "p",
    "created": "2025-07-20T23:14:33.933835Z",
    "cup_league": 2815434,
    "has_cup": true,
    "id": 314,
    "league_type": "s",
    "max_entries": null,
    "name": "Overall",
    "rank": null,
    "scoring": "c",
    "start_event": 1
  },
  "new_entries": {
    "has_next": false,
    "page": 1,
    "results": []
  },
  "standings": {
    "has_next": true,
    "page": 1654,
    "results": [
      {
        "club_badge_src": null,
        "entry": 5771008,
        "entry_name": "Shoulda Woulda Cunha",
        "event_total": 59,
        "has_played": true,
        "id": 45245889,
        "last_rank": 88594,
        "player_name": "Marcus Hagman",
        "rank": 82364,
        "rank_sort": 82651,
        "total": 2334
      },
      {
        "club_badge_src": null,
        "entry": 5790285,
        "entry_name": "no name",
        "event_total": 56,
        "has_played": true,
        "id": 45411853,
        "last_rank": 82069,
        "player_name": "Rory Kilkenny",
        "rank": 82364,
        "rank_sort": 82652,
        "total": 2334
      },
      {
        "club_badge_src": "https://fantasy.premierleague.com/gcs/plfpl-production-adobe-approved/plfpl-production/5794168/46fdb98b-bd87-485b-bad5-ec1c3d172520.png",
        "entry": 5794168,
        "entry_name": "Chebubu",
        "event_total": 50,
        "has_played": true,
        "id": 45448514,
        "last_rank": 69323,
        "player_name": "Alex Chebat",
        "rank": 82364,
        "rank_sort": 82653,
        "total": 2334
      },
      {
        "club_badge_src": null,
        "entry": 5821325,
        "entry_name": "Mo with the Flo",
        "event_total": 68,
        "has_played": true,
        "id": 45684128,
        "last_rank": 100949,
        "player_name": "Peter Lieng",
        "rank": 82364,
        "rank_sort": 82654,
        "total": 2334
      },
      {
        "club_badge_src": null,
        "entry": 5830036,
        "entry_name": "Leonum Gelum",
        "event_total": 84,
        "has_played": true,
        "id": 45759090,
        "last_rank": 163117,
        "player_name": "J. Colby Van Horn",
        "rank": 82364,
        "rank_sort": 82655,
        "total": 2334
      },
      {
        "club_badge_src": null,
        "entry": 5872132,
        "entry_name": "KOURA FC",
        "event_total": 62,
        "has_played": true,
        "id": 46122974,
        "last_rank": 96374,
        "player_name": "abdelrahman koura",
        "rank": 82364,
        "rank_sort": 82656,
        "total": 2334
      },
      {
        "club_badge_src": null,
        "entry": 5879515,
        "entry_name": "Trials&Trebleations*",
        "event_total": 54,
        "has_played": true,
        "id": 46183111,
        "last_rank": 68748,
        "player_name": "Chris Manwaring",
        "rank": 82364,
        "rank_sort": 82657,
        "total": 2334
      },
      {
        "club_badge_src": null,
        "entry": 5919641,
        "entry_name": "Benchwarmers",
        "event_total": 59,
        "has_played": true,
        "id": 46526771,
        "last_rank": 89055,
        "player_name": "Igor Kalitka",
        "rank": 82364,
        "rank_sort": 82658,
        "total": 2334
      },
      {
        "club_badge_src": "https://fantasy.premierleague.com/gcs/plfpl-production-adobe-approved/plfpl-production/5977771/0f614bd4-260b-48cd-bb19-880a63ac31f7.png",
        "entry": 5977771,
        "entry_name": "Ctrl Alt De Ligt",
        "event_total": 62,
        "has_played": true,
        "id": 47060909,
        "last_rank": 95640,
        "player_name": "Mats Olsen",
        "rank": 82364,
        "rank_sort": 82659,
        "total": 2334
      },
      {
        "club_badge_src": "https://fantasy.premierleague.com/gcs/plfpl-production-adobe-approved/plfpl-production/6059739/9296bd7f-8ffb-4a2f-9dcd-9249d209a082.png",
        "entry": 6059739,
        "entry_name": "HereWeAreAgain",
        "event_total": 59,
        "has_played": true,
        "id": 47823709,
        "last_rank": 88594,
        "player_name": "Ashish Kumar Mohanty",
        "rank": 82364,
        "rank_sort": 82660,
        "total": 2334
      },
      {
        "club_badge_src": null,
        "entry": 6064987,
        "entry_name": "Frank Out!!",
        "event_total": 54,
        "has_played": true,
        "id": 47869308,
        "last_rank": 77676,
        "player_name": "Mitch M",
        "rank": 82364,
        "rank_sort": 82661,
        "total": 2334
      },
      {
        "club_badge_src": "https://fantasy.premierleague.com/gcs/plfpl-production-adobe-approved/plfpl-production/6095870/ee26ce04-1187-49b7-8358-a2d340e0dd39.png",
        "entry": 6095870,
        "entry_name": "Mitoma fc",
        "event_total": 43,
        "has_played": true,
        "id": 48140308,
        "last_rank": 56708,
        "player_name": "Ethan Lam",
        "rank": 82364,
        "rank_sort": 82662,
        "total": 2334
      },
      {
        "club_badge_src": null,
        "entry": 6156952,
        "entry_name": "No more Mr Rice Kai",
        "event_total": 26,
        "has_played": true,
        "id": 48673040,
        "last_rank": 32879,
        "player_name": "tammy brightley",
        "rank": 82364,
        "rank_sort": 82663,
        "total": 2334
      },
      {
        "club_badge_src": null,
        "entry": 6277241,
        "entry_name": "Murillo Kart",
        "event_total": 50,
        "has_played": true,
        "id": 49710696,
        "last_rank": 69641,
        "player_name": "Fraser Brunton",
        "rank": 82364,
        "rank_sort": 82664,
        "total": 2334
      },
      {
        "club_badge_src": null,
        "entry": 6284744,
        "entry_name": "Delap Dancers",
        "event_total": 60,
        "has_played": true,
        "id": 49781778,
        "last_rank": 91466,
        "player_name": "Ryan Berger",
        "rank": 82364,
        "rank_sort": 82665,
        "total": 2334
      },
      {
        "club_badge_src": null,
        "entry": 6298398,
        "entry_name": "Wolves Super Fan #1",
        "event_total": 46,
        "has_played": true,
        "id": 49925322,
        "last_rank": 61950,
        "player_name": "Alex Golland",
        "rank": 82364,
        "rank_sort": 82666,
        "total": 2334
      },
      {
        "club_badge_src": null,
        "entry": 6324682,
        "entry_name": "Mikel Arteta's No. 7",
        "event_total": 62,
        "has_played": true,
        "id": 50239869,
        "last_rank": 86304,
        "player_name": "Zac Pross",
        "rank": 82364,
        "rank_sort": 82667,
        "total": 2334
      },
      {
        "club_badge_src": null,
        "entry": 6348701,
        "entry_name": "Ding Dong Frimpong",
        "event_total": 67,
        "has_played": true,
        "id": 50466309,
        "last_rank": 98183,
        "player_name": "Simon Boland",
        "rank": 82364,
        "rank_sort": 82668,
        "total": 2334
      },
      {
        "club_badge_src": "https://fantasy.premierleague.com/gcs/plfpl-production-adobe-approved/plfpl-production/6351255/57e3aa92-711c-4e46-919e-5b899248f1db.png",
        "entry": 6351255,
        "entry_name": "FC Cojasca",
        "event_total": 63,
        "has_played": true,
        "id": 50491062,
        "last_rank": 88594,
        "player_name": "C\u0103t\u0103lin Rus",
        "rank": 82364,
        "rank_sort": 82669,
        "total": 2334
      },
      {
        "club_badge_src": null,
        "entry": 6361096,
        "entry_name": "Jahr Ballklubb",
        "event_total": 50,
        "has_played": true,
        "id": 50577036,
        "last_rank": 69641,
        "player_name": "Jonas Jahr",
        "rank": 82364,
        "rank_sort": 82670,
        "total": 2334
      },
      {
        "club_badge_src": null,
        "entry": 6398290,
        "entry_name": "Can't get any Wirtz",
        "event_total": 47,
        "has_played": true,
        "id": 50904854,
        "last_rank": 63724,
        "player_name": "Ben Roche",
        "rank": 82364,
        "rank_sort": 82671,
        "total": 2334
      },
      {
        "club_badge_src": null,
        "entry": 6465801,
        "entry_name": "Extreme Fod",
        "event_total": 59,
        "has_played": true,
        "id": 51513891,
        "last_rank": 88594,
        "player_name": "Fady22 Makram22",
        "rank": 82364,
        "rank_sort": 82672,
        "total": 2334
      },
      {
        "club_badge_src": null,
        "entry": 6551970,
        "entry_name": "Yttermora FC",
        "event_total": 63,
        "has_played": true,
        "id": 52285005,
        "last_rank": 88594,
        "player_name": "August Petersson",
        "rank": 82364,
        "rank_sort": 82673,
        "total": 2334
      },
      {
        "club_badge_src": null,
        "entry": 6616243,
        "entry_name": "Dangerous \ufffd",
        "event_total": 68,
        "has_played": true,
        "id": 52867468,
        "last_rank": 112591,
        "player_name": "Olanrewaju Olayinka",
        "rank": 82364,
        "rank_sort": 82674,
        "total": 2334
      },
      {
        "club_badge_src": "https://fantasy.premierleague.com/gcs/plfpl-production-adobe-approved/plfpl-production/6622550/913403c0-063b-4498-901b-8567007c1fef.png",
        "entry": 6622550,
        "entry_name": "Real Suciedad",
        "event_total": 76,
        "has_played": true,
        "id": 52921999,
        "last_rank": 136624,
        "player_name": "Matias Litewka",
        "rank": 82364,
        "rank_sort": 82675,
        "total": 2334
      },
      {
        "club_badge_src": null,
        "entry": 6641148,
        "entry_name": "Bayern Oatcake",
        "event_total": 56,
        "has_played": true,
        "id": 53086341,
        "last_rank": 82069,
        "player_name": "Chris Allen",
        "rank": 82364,
        "rank_sort": 82676,
        "total": 2334
      },
      {
        "club_badge_src": null,
        "entry": 6838450,
        "entry_name": "Expensive fc",
        "event_total": 48,
        "has_played": true,
        "id": 54780292,
        "last_rank": 65475,
        "player_name": "Olaniyan Niyi",
        "rank": 82364,
        "rank_sort": 82677,
        "total": 2334
      },
      {
        "club_badge_src": null,
        "entry": 6932720,
        "entry_name": "Double G",
        "event_total": 48,
        "has_played": true,
        "id": 55578668,
        "last_rank": 65796,
        "player_name": "Hamad G",
        "rank": 82364,
        "rank_sort": 82678,
        "total": 2334
      },
      {
        "club_badge_src": null,
        "entry": 6983444,
        "entry_name": "Ida",
        "event_total": 61,
        "has_played": true,
        "id": 56050145,
        "last_rank": 93883,
        "player_name": "Ida Str\u00f8m Hagen",
        "rank": 82364,
        "rank_sort": 82679,
        "total": 2334
      },
      {
        "club_badge_src": null,
        "entry": 7011001,
        "entry_name": "The invincibles",
        "event_total": 65,
        "has_played": true,
        "id": 56304167,
        "last_rank": 93186,
        "player_name": "David Sadie",
        "rank": 82364,
        "rank_sort": 82680,
        "total": 2334
      },
      {
        "club_badge_src": null,
        "entry": 7067065,
        "entry_name": "Bird Turglars",
        "event_total": 60,
        "has_played": true,
        "id": 56861650,
        "last_rank": 91006,
        "player_name": "lewis render",
        "rank": 82364,
        "rank_sort": 82681,
        "total": 2334
      },
      {
        "club_badge_src": null,
        "entry": 7120910,
        "entry_name": "HamezMcDD5",
        "event_total": 75,
        "has_played": true,
        "id": 57374537,
        "last_rank": 132281,
        "player_name": "James McDermott Walshe",
        "rank": 82364,
        "rank_sort": 82682,
        "total": 2334
      },
      {
        "club_badge_src": null,
        "entry": 7158614,
        "entry_name": "Obi 1 Kenobi 0",
        "event_total": 69,
        "has_played": true,
        "id": 57739381,
        "last_rank": 114574,
        "player_name": "Kez Sidhu",
        "rank": 82364,
        "rank_sort": 82683,
        "total": 2334
      },
      {
        "club_badge_src": null,
        "entry": 7162137,
        "entry_name": "Bowen For Soup",
        "event_total": 75,
        "has_played": true,
        "id": 57774792,
        "last_rank": 132427,
        "player_name": "Dave Poole",
        "rank": 82364,
        "rank_sort": 82684,
        "total": 2334
      },
      {
        "club_badge_src": null,
        "entry": 7202745,
        "entry_name": "Los Guerreros",
        "event_total": 57,
        "has_played": true,
        "id": 58157663,
        "last_rank": 75139,
        "player_name": "Abdel Jacob",
        "rank": 82364,
        "rank_sort": 82685,
        "total": 2334
      },
      {
        "club_badge_src": null,
        "entry": 7216430,
        "entry_name": "Mads Faithfull",
        "event_total": 57,
        "has_played": true,
        "id": 58289000,
        "last_rank": 84360,
        "player_name": "Glenn Madsen",
        "rank": 82364,
        "rank_sort": 82686,
        "total": 2334
      },
      {
        "club_badge_src": null,
        "entry": 7418198,
        "entry_name": "Bannsiders",
        "event_total": 43,
        "has_played": true,
        "id": 60225667,
        "last_rank": 56708,
        "player_name": "Jamie Rea",
        "rank": 82364,
        "rank_sort": 82687,
        "total": 2334
      },
      {
        "club_badge_src": null,
        "entry": 7430677,
        "entry_name": "MelFC2025/26",
        "event_total": 56,
        "has_played": true,
        "id": 60379463,
        "last_rank": 81646,
        "player_name": "Melvin Tay",
        "rank": 82364,
        "rank_sort": 82688,
        "total": 2334
      },
      {
        "club_badge_src": null,
        "entry": 7500824,
        "entry_name": "Walker Wanderers",
        "event_total": 58,
        "has_played": true,
        "id": 61288443,
        "last_rank": 87074,
        "player_name": "Joanne Walker",
        "rank": 82364,
        "rank_sort": 82689,
        "total": 2334
      },
      {
        "club_badge_src": null,
        "entry": 7537827,
        "entry_name": "Fazza FC",
        "event_total": 69,
        "has_played": true,
        "id": 61700093,
        "last_rank": 114574,
        "player_name": "Tom Farrant",
        "rank": 82364,
        "rank_sort": 82690,
        "total": 2334
      },
      {
        "club_badge_src": null,
        "entry": 7679617,
        "entry_name": "MurderOnZidanesFloor",
        "event_total": 49,
        "has_played": true,
        "id": 62987698,
        "last_rank": 67422,
        "player_name": "Callum Mullee",
        "rank": 82364,
        "rank_sort": 82691,
        "total": 2334
      },
      {
        "club_badge_src": null,
        "entry": 7683099,
        "entry_name": "el Gladiator",
        "event_total": 59,
        "has_played": true,
        "id": 63018982,
        "last_rank": 89055,
        "player_name": "Mohamed Nabiel",
        "rank": 82364,
        "rank_sort": 82692,
        "total": 2334
      },
      {
        "club_badge_src": null,
        "entry": 7729801,
        "entry_name": "YANITED",
        "event_total": 57,
        "has_played": true,
        "id": 63439192,
        "last_rank": 84360,
        "player_name": "Conor Davidson",
        "rank": 82364,
        "rank_sort": 82693,
        "total": 2334
      },
      {
        "club_badge_src": null,
        "entry": 7809896,
        "entry_name": "Fontaines F.C.",
        "event_total": 64,
        "has_played": true,
        "id": 64162695,
        "last_rank": 101818,
        "player_name": "Chrissy Hynds",
        "rank": 82364,
        "rank_sort": 82694,
        "total": 2334
      },
      {
        "club_badge_src": "https://fantasy.premierleague.com/gcs/plfpl-production-adobe-approved/plfpl-production/8020114/9f803ac5-a272-40be-8961-998914c476dd.png",
        "entry": 8020114,
        "entry_name": "MEDO14",
        "event_total": 66,
        "has_played": true,
        "id": 66066125,
        "last_rank": 106763,
        "player_name": "mohamed kamal",
        "rank": 82364,
        "rank_sort": 82695,
        "total": 2334
      },
      {
        "club_badge_src": null,
        "entry": 8044307,
        "entry_name": "Bakuru FC",
        "event_total": 52,
        "has_played": true,
        "id": 66285790,
        "last_rank": 73720,
        "player_name": "Zidhan Zareer",
        "rank": 82364,
        "rank_sort": 82696,
        "total": 2334
      },
      {
        "club_badge_src": null,
        "entry": 8056877,
        "entry_name": "CUNHA DIG IT, SOCCER",
        "event_total": 61,
        "has_played": true,
        "id": 66399566,
        "last_rank": 93443,
        "player_name": "Shane Curran",
        "rank": 82364,
        "rank_sort": 82697,
        "total": 2334
      },
      {
        "club_badge_src": null,
        "entry": 8238732,
        "entry_name": "Change Name",
        "event_total": 54,
        "has_played": true,
        "id": 68112132,
        "last_rank": 77676,
        "player_name": "Curren Kumar",
        "rank": 82364,
        "rank_sort": 82698,
        "total": 2334
      },
      {
        "club_badge_src": null,
        "entry": 8313038,
        "entry_name": "Dummett Down",
        "event_total": 56,
        "has_played": true,
        "id": 68847422,
        "last_rank": 82069,
        "player_name": "Frankie Jones",
        "rank": 82364,
        "rank_sort": 82699,
        "total": 2334
      },
      {
        "club_badge_src": null,
        "entry": 8362121,
        "entry_name": "HS10",
        "event_total": 60,
        "has_played": true,
        "id": 69319207,
        "last_rank": 91466,
        "player_name": "Hadi Siddiqui",
        "rank": 82364,
        "rank_sort": 82700,
        "total": 2334
      }
    ]
  }
}