{
  "last_updated_data": "2026-05-24T23:28:17Z",
  "league": {
    "admin_entry": null,
    "closed": false,
    "code_privacy": "p",
    "created": "2025-07-20T23:14:33.933835Z",
    "cup_league": 2815434,
    "has_cup": true,
    "id": 314,
    "league_type": "s",
    "max_entries": null,
    "name": "Overall",
    "rank": null,
    "scoring": "c",
    "start_event": 1
  },
  "new_entries": {
    "has_next": false,
    "page": 1,
    "results": []
  },
  "standings": {
    "has_next": true,
    "page": 1418,
    "results": [
      {
        "club_badge_src": null,
        "entry": 231890,
        "entry_name": "Life gives u lammens",
        "event_total": 64,
        "has_played": true,
        "id": 1542818,
        "last_rank": 87710,
        "player_name": "Ed Mitau",
        "rank": 70836,
        "rank_sort": 70851,
        "total": 2340
      },
      {
        "club_badge_src": null,
        "entry": 234783,
        "entry_name": "Spurs. The One",
        "event_total": 61,
        "has_played": true,
        "id": 1562247,
        "last_rank": 80651,
        "player_name": "Alexander Jacobo",
        "rank": 70836,
        "rank_sort": 70852,
        "total": 2340
      },
      {
        "club_badge_src": "https://fantasy.premierleague.com/gcs/plfpl-production-adobe-approved/plfpl-production/301524/7ce7f475-82a7-4dd7-9450-e2d87ea26f60.png",
        "entry": 301524,
        "entry_name": "Zoka FC",
        "event_total": 70,
        "has_played": true,
        "id": 2017398,
        "last_rank": 92126,
        "player_name": "Ahmed Zoka",
        "rank": 70836,
        "rank_sort": 70853,
        "total": 2340
      },
      {
        "club_badge_src": null,
        "entry": 310875,
        "entry_name": "Hacunha Mateta",
        "event_total": 51,
        "has_played": true,
        "id": 2082642,
        "last_rank": 60827,
        "player_name": "Sam Mckeown",
        "rank": 70836,
        "rank_sort": 70854,
        "total": 2340
      },
      {
        "club_badge_src": null,
        "entry": 317241,
        "entry_name": "____________________",
        "event_total": 46,
        "has_played": true,
        "id": 2126439,
        "last_rank": 46106,
        "player_name": "Nigel Christian",
        "rank": 70836,
        "rank_sort": 70855,
        "total": 2340
      },
      {
        "club_badge_src": "https://fantasy.premierleague.com/gcs/plfpl-production-adobe-approved/plfpl-production/334165/44d66b7b-95fd-4c77-8d11-96a1fc4c348a.png",
        "entry": 334165,
        "entry_name": "Change Name",
        "event_total": 52,
        "has_played": true,
        "id": 2237769,
        "last_rank": 62617,
        "player_name": "Simon Eriksson Bengtsson",
        "rank": 70836,
        "rank_sort": 70856,
        "total": 2340
      },
      {
        "club_badge_src": "https://fantasy.premierleague.com/gcs/plfpl-production-adobe-approved/plfpl-production/359808/e1272998-ebcf-4806-9281-db81c6db274e.png",
        "entry": 359808,
        "entry_name": "Defencistan",
        "event_total": 64,
        "has_played": true,
        "id": 2407703,
        "last_rank": 87541,
        "player_name": "Ramin Samii",
        "rank": 70836,
        "rank_sort": 70857,
        "total": 2340
      },
      {
        "club_badge_src": null,
        "entry": 403359,
        "entry_name": "Sv. Nediljica Vrana",
        "event_total": 74,
        "has_played": true,
        "id": 2704715,
        "last_rank": 112960,
        "player_name": "Pu\u0161o 12",
        "rank": 70836,
        "rank_sort": 70858,
        "total": 2340
      },
      {
        "club_badge_src": "https://fantasy.premierleague.com/gcs/plfpl-production-adobe-approved/plfpl-production/408535/532ac328-085e-4327-b246-38a6e6370af8.png",
        "entry": 408535,
        "entry_name": "KOBEELEVEN25/26",
        "event_total": 55,
        "has_played": true,
        "id": 2739621,
        "last_rank": 67926,
        "player_name": "David Kobr",
        "rank": 70836,
        "rank_sort": 70859,
        "total": 2340
      },
      {
        "club_badge_src": "https://fantasy.premierleague.com/gcs/plfpl-production-adobe-approved/plfpl-production/415665/aa4ff40a-c40b-4960-89ef-ebc2e30c287a.png",
        "entry": 415665,
        "entry_name": "X18 DSP",
        "event_total": 64,
        "has_played": true,
        "id": 2786545,
        "last_rank": 77676,
        "player_name": "Dan Panesar",
        "rank": 70836,
        "rank_sort": 70860,
        "total": 2340
      },
      {
        "club_badge_src": null,
        "entry": 456377,
        "entry_name": "georgefrance",
        "event_total": 65,
        "has_played": true,
        "id": 3061921,
        "last_rank": 89706,
        "player_name": "George France",
        "rank": 70836,
        "rank_sort": 70861,
        "total": 2340
      },
      {
        "club_badge_src": null,
        "entry": 457192,
        "entry_name": "YazeeD",
        "event_total": 61,
        "has_played": true,
        "id": 3067272,
        "last_rank": 71956,
        "player_name": "Yaz eeD",
        "rank": 70836,
        "rank_sort": 70862,
        "total": 2340
      },
      {
        "club_badge_src": "https://fantasy.premierleague.com/gcs/plfpl-production-adobe-approved/plfpl-production/458451/69408f5a-8ac7-4f64-ae6f-e49ecaa800c9.png",
        "entry": 458451,
        "entry_name": "Made of Jam",
        "event_total": 50,
        "has_played": true,
        "id": 3075554,
        "last_rank": 59077,
        "player_name": "Chris Cullen",
        "rank": 70836,
        "rank_sort": 70863,
        "total": 2340
      },
      {
        "club_badge_src": null,
        "entry": 529748,
        "entry_name": "RRR",
        "event_total": 52,
        "has_played": true,
        "id": 3562344,
        "last_rank": 55311,
        "player_name": "Katie R",
        "rank": 70836,
        "rank_sort": 70864,
        "total": 2340
      },
      {
        "club_badge_src": null,
        "entry": 582317,
        "entry_name": "Little boys club",
        "event_total": 65,
        "has_played": true,
        "id": 3918926,
        "last_rank": 80465,
        "player_name": "Shrivatsa Mudligiri",
        "rank": 70836,
        "rank_sort": 70865,
        "total": 2340
      },
      {
        "club_badge_src": null,
        "entry": 593991,
        "entry_name": "Da Highs and Dalots",
        "event_total": 55,
        "has_played": true,
        "id": 4003346,
        "last_rank": 68107,
        "player_name": "James Mcfarlane",
        "rank": 70836,
        "rank_sort": 70866,
        "total": 2340
      },
      {
        "club_badge_src": null,
        "entry": 604255,
        "entry_name": "Harhoo Fc",
        "event_total": 73,
        "has_played": true,
        "id": 4078993,
        "last_rank": 110416,
        "player_name": "Iain Scott",
        "rank": 70836,
        "rank_sort": 70867,
        "total": 2340
      },
      {
        "club_badge_src": null,
        "entry": 620930,
        "entry_name": "33EDT",
        "event_total": 84,
        "has_played": true,
        "id": 4196215,
        "last_rank": 144179,
        "player_name": "Mustafa Alderazi",
        "rank": 70836,
        "rank_sort": 70868,
        "total": 2340
      },
      {
        "club_badge_src": null,
        "entry": 669944,
        "entry_name": "Kinder Mbeumo",
        "event_total": 66,
        "has_played": true,
        "id": 4530941,
        "last_rank": 82664,
        "player_name": "Sofia Andonova",
        "rank": 70836,
        "rank_sort": 70869,
        "total": 2340
      },
      {
        "club_badge_src": "https://fantasy.premierleague.com/gcs/plfpl-production-adobe-approved/plfpl-production/713125/74543fcc-2c77-45be-8838-fe43766033b3.png",
        "entry": 713125,
        "entry_name": "\u3164",
        "event_total": 62,
        "has_played": true,
        "id": 4837800,
        "last_rank": 73975,
        "player_name": "\u3164\u3164 \u3164\u3164",
        "rank": 70836,
        "rank_sort": 70870,
        "total": 2340
      },
      {
        "club_badge_src": null,
        "entry": 740676,
        "entry_name": "Agbadou-dou-dou",
        "event_total": 59,
        "has_played": true,
        "id": 5036459,
        "last_rank": 76330,
        "player_name": "Ben Watkins",
        "rank": 70836,
        "rank_sort": 70871,
        "total": 2340
      },
      {
        "club_badge_src": null,
        "entry": 746498,
        "entry_name": "Volkswagen Moldovan",
        "event_total": 29,
        "has_played": true,
        "id": 5078450,
        "last_rank": 30276,
        "player_name": "Tom Wadsworth",
        "rank": 70836,
        "rank_sort": 70872,
        "total": 2340
      },
      {
        "club_badge_src": null,
        "entry": 820054,
        "entry_name": "Bowen's on fire",
        "event_total": 65,
        "has_played": true,
        "id": 5616307,
        "last_rank": 89897,
        "player_name": "Nathan Ward",
        "rank": 70836,
        "rank_sort": 70873,
        "total": 2340
      },
      {
        "club_badge_src": null,
        "entry": 821657,
        "entry_name": "Field XI",
        "event_total": 59,
        "has_played": true,
        "id": 5627278,
        "last_rank": 67695,
        "player_name": "Matthew Field",
        "rank": 70836,
        "rank_sort": 70874,
        "total": 2340
      },
      {
        "club_badge_src": null,
        "entry": 838531,
        "entry_name": "Pickled Oranje",
        "event_total": 51,
        "has_played": true,
        "id": 5745004,
        "last_rank": 60827,
        "player_name": "Mitchell B",
        "rank": 70836,
        "rank_sort": 70875,
        "total": 2340
      },
      {
        "club_badge_src": null,
        "entry": 842841,
        "entry_name": "gooner",
        "event_total": 70,
        "has_played": true,
        "id": 5774912,
        "last_rank": 102343,
        "player_name": "Karim Ashour",
        "rank": 70836,
        "rank_sort": 70876,
        "total": 2340
      },
      {
        "club_badge_src": null,
        "entry": 896119,
        "entry_name": "Heisenberg",
        "event_total": 68,
        "has_played": true,
        "id": 6156063,
        "last_rank": 87350,
        "player_name": "Akash Das",
        "rank": 70836,
        "rank_sort": 70877,
        "total": 2340
      },
      {
        "club_badge_src": null,
        "entry": 898350,
        "entry_name": "BackSpace",
        "event_total": 68,
        "has_played": true,
        "id": 6172281,
        "last_rank": 97096,
        "player_name": "Amino Acid",
        "rank": 70836,
        "rank_sort": 70878,
        "total": 2340
      },
      {
        "club_badge_src": null,
        "entry": 920006,
        "entry_name": "Tattenham Hotspur FC",
        "event_total": 73,
        "has_played": true,
        "id": 6327057,
        "last_rank": 109454,
        "player_name": "Anthony Tat",
        "rank": 70836,
        "rank_sort": 70879,
        "total": 2340
      },
      {
        "club_badge_src": null,
        "entry": 922802,
        "entry_name": "Bola Getah FC",
        "event_total": 42,
        "has_played": true,
        "id": 6346821,
        "last_rank": 46236,
        "player_name": "Valen R.Abell",
        "rank": 70836,
        "rank_sort": 70880,
        "total": 2340
      },
      {
        "club_badge_src": null,
        "entry": 1044743,
        "entry_name": "FRIENDY11",
        "event_total": 61,
        "has_played": true,
        "id": 7230250,
        "last_rank": 80651,
        "player_name": "Mitch Friend",
        "rank": 70836,
        "rank_sort": 70881,
        "total": 2340
      },
      {
        "club_badge_src": null,
        "entry": 1079239,
        "entry_name": "Yeagerist",
        "event_total": 66,
        "has_played": true,
        "id": 7472779,
        "last_rank": 82664,
        "player_name": "Sadman Sakib Mahi",
        "rank": 70836,
        "rank_sort": 70882,
        "total": 2340
      },
      {
        "club_badge_src": null,
        "entry": 1125871,
        "entry_name": "TheTightHamstrings",
        "event_total": 64,
        "has_played": true,
        "id": 7802695,
        "last_rank": 87350,
        "player_name": "Eirik Gulbrandsen",
        "rank": 70836,
        "rank_sort": 70883,
        "total": 2340
      },
      {
        "club_badge_src": null,
        "entry": 1127816,
        "entry_name": "Ole King Cole",
        "event_total": 55,
        "has_played": true,
        "id": 7816188,
        "last_rank": 53621,
        "player_name": "Jacob Duffell",
        "rank": 70836,
        "rank_sort": 70884,
        "total": 2340
      },
      {
        "club_badge_src": null,
        "entry": 1144177,
        "entry_name": "Lamay Enimal",
        "event_total": 70,
        "has_played": true,
        "id": 7931122,
        "last_rank": 92126,
        "player_name": "Asem Abou El Ezz",
        "rank": 70836,
        "rank_sort": 70885,
        "total": 2340
      },
      {
        "club_badge_src": null,
        "entry": 1149605,
        "entry_name": "F. C. Vautour",
        "event_total": 56,
        "has_played": true,
        "id": 7970862,
        "last_rank": 62429,
        "player_name": "Conal Prendergast",
        "rank": 70836,
        "rank_sort": 70886,
        "total": 2340
      },
      {
        "club_badge_src": null,
        "entry": 1210858,
        "entry_name": "Padda Allstars",
        "event_total": 63,
        "has_played": true,
        "id": 8404392,
        "last_rank": 85207,
        "player_name": "Amanbir Padda",
        "rank": 70836,
        "rank_sort": 70887,
        "total": 2340
      },
      {
        "club_badge_src": null,
        "entry": 1252129,
        "entry_name": "palestine fc",
        "event_total": 57,
        "has_played": true,
        "id": 8696484,
        "last_rank": 72145,
        "player_name": "H A",
        "rank": 70836,
        "rank_sort": 70888,
        "total": 2340
      },
      {
        "club_badge_src": null,
        "entry": 1309586,
        "entry_name": "BringMeThePremViktor",
        "event_total": 61,
        "has_played": true,
        "id": 9102808,
        "last_rank": 71956,
        "player_name": "Dan H\u00fd\u017ea",
        "rank": 70836,
        "rank_sort": 70889,
        "total": 2340
      },
      {
        "club_badge_src": null,
        "entry": 1362538,
        "entry_name": "Eze Come, Eze Go!",
        "event_total": 57,
        "has_played": true,
        "id": 9471049,
        "last_rank": 72145,
        "player_name": "Anish Patel",
        "rank": 70836,
        "rank_sort": 70890,
        "total": 2340
      },
      {
        "club_badge_src": null,
        "entry": 1381769,
        "entry_name": "Ghus",
        "event_total": 66,
        "has_played": true,
        "id": 9610191,
        "last_rank": 73720,
        "player_name": "Ghassan Hattab",
        "rank": 70836,
        "rank_sort": 70891,
        "total": 2340
      },
      {
        "club_badge_src": "https://fantasy.premierleague.com/gcs/plfpl-production-adobe-approved/plfpl-production/1384777/c43c3b24-7011-4925-9248-e8a3433774f0.png",
        "entry": 1384777,
        "entry_name": "AbdirisakAwes",
        "event_total": 73,
        "has_played": true,
        "id": 9631324,
        "last_rank": 110187,
        "player_name": "Abdirisak Duale",
        "rank": 70836,
        "rank_sort": 70892,
        "total": 2340
      },
      {
        "club_badge_src": null,
        "entry": 1413623,
        "entry_name": "MOES KASTEL",
        "event_total": 68,
        "has_played": true,
        "id": 9837629,
        "last_rank": 87350,
        "player_name": "Stef Cap",
        "rank": 70836,
        "rank_sort": 70893,
        "total": 2340
      },
      {
        "club_badge_src": null,
        "entry": 1419165,
        "entry_name": "Roman Army",
        "event_total": 49,
        "has_played": true,
        "id": 9881168,
        "last_rank": 57358,
        "player_name": "Josh Mumo",
        "rank": 70836,
        "rank_sort": 70894,
        "total": 2340
      },
      {
        "club_badge_src": null,
        "entry": 1456350,
        "entry_name": "Palmer de Mallorca",
        "event_total": 75,
        "has_played": true,
        "id": 10148087,
        "last_rank": 116017,
        "player_name": "Allen Lam",
        "rank": 70836,
        "rank_sort": 70895,
        "total": 2340
      },
      {
        "club_badge_src": "https://fantasy.premierleague.com/gcs/plfpl-production-adobe-approved/plfpl-production/1489474/967da9e7-9562-45b2-8b10-5ca804c5a22c.png",
        "entry": 1489474,
        "entry_name": "\ufffdmoha med",
        "event_total": 58,
        "has_played": true,
        "id": 10386761,
        "last_rank": 74166,
        "player_name": "Mohamed-- ABDELLAOUI",
        "rank": 70836,
        "rank_sort": 70896,
        "total": 2340
      },
      {
        "club_badge_src": null,
        "entry": 1540427,
        "entry_name": "Kinder Mbeumo",
        "event_total": 56,
        "has_played": true,
        "id": 10751155,
        "last_rank": 62429,
        "player_name": "Mathew Clarke",
        "rank": 70836,
        "rank_sort": 70897,
        "total": 2340
      },
      {
        "club_badge_src": null,
        "entry": 1577659,
        "entry_name": "Brian Munich",
        "event_total": 57,
        "has_played": true,
        "id": 11024263,
        "last_rank": 50199,
        "player_name": "Craig Gibson",
        "rank": 70836,
        "rank_sort": 70898,
        "total": 2340
      },
      {
        "club_badge_src": null,
        "entry": 1658186,
        "entry_name": "Kroos Control 8",
        "event_total": 60,
        "has_played": true,
        "id": 11609127,
        "last_rank": 78440,
        "player_name": "Alex Schmuck",
        "rank": 70836,
        "rank_sort": 70899,
        "total": 2340
      },
      {
        "club_badge_src": "https://fantasy.premierleague.com/gcs/plfpl-production-adobe-approved/plfpl-production/1689176/cec4b4e4-b8e0-4323-8979-b1496a0e59dc.png",
        "entry": 1689176,
        "entry_name": "Gon Freecss",
        "event_total": 50,
        "has_played": true,
        "id": 11825080,
        "last_rank": 59077,
        "player_name": "Shree K K",
        "rank": 70836,
        "rank_sort": 70900,
        "total": 2340
      }
    ]
  }
}