{
  "last_updated_data": "2026-05-24T23:28:17Z",
  "league": {
    "admin_entry": null,
    "closed": false,
    "code_privacy": "p",
    "created": "2025-07-20T23:14:33.933835Z",
    "cup_league": 2815434,
    "has_cup": true,
    "id": 314,
    "league_type": "s",
    "max_entries": null,
    "name": "Overall",
    "rank": null,
    "scoring": "c",
    "start_event": 1
  },
  "new_entries": {
    "has_next": false,
    "page": 1,
    "results": []
  },
  "standings": {
    "has_next": true,
    "page": 444,
    "results": [
      {
        "club_badge_src": null,
        "entry": 1720674,
        "entry_name": "Skydance FC",
        "event_total": 65,
        "has_played": true,
        "id": 12059855,
        "last_rank": 28609,
        "player_name": "Bethel sky Mugadza",
        "rank": 22063,
        "rank_sort": 22151,
        "total": 2377
      },
      {
        "club_badge_src": "https://fantasy.premierleague.com/gcs/plfpl-production-adobe-approved/plfpl-production/1851925/835fdc64-3789-4c24-af8e-247c2a2b0196.png",
        "entry": 1851925,
        "entry_name": "Swarfchester Rovers",
        "event_total": 44,
        "has_played": true,
        "id": 13031593,
        "last_rank": 13257,
        "player_name": "Andrew Athey",
        "rank": 22063,
        "rank_sort": 22152,
        "total": 2377
      },
      {
        "club_badge_src": "https://fantasy.premierleague.com/gcs/plfpl-production-adobe-approved/plfpl-production/1860380/e49d1094-5d35-48b0-a831-9007f9e9ed7e.png",
        "entry": 1860380,
        "entry_name": "Kopacze",
        "event_total": 67,
        "has_played": true,
        "id": 13093789,
        "last_rank": 30600,
        "player_name": "Michal W.",
        "rank": 22063,
        "rank_sort": 22153,
        "total": 2377
      },
      {
        "club_badge_src": null,
        "entry": 1929802,
        "entry_name": "Adebayo Akinwinwa",
        "event_total": 56,
        "has_played": true,
        "id": 13610584,
        "last_rank": 20983,
        "player_name": "Liam Pantling",
        "rank": 22063,
        "rank_sort": 22154,
        "total": 2377
      },
      {
        "club_badge_src": null,
        "entry": 2108005,
        "entry_name": "Bayer Lemonkusen",
        "event_total": 62,
        "has_played": true,
        "id": 14960870,
        "last_rank": 25776,
        "player_name": "Philip Lemon",
        "rank": 22063,
        "rank_sort": 22155,
        "total": 2377
      },
      {
        "club_badge_src": null,
        "entry": 2118020,
        "entry_name": "Bruno the best",
        "event_total": 61,
        "has_played": true,
        "id": 15044331,
        "last_rank": 24832,
        "player_name": "Vinu B",
        "rank": 22063,
        "rank_sort": 22156,
        "total": 2377
      },
      {
        "club_badge_src": null,
        "entry": 2141732,
        "entry_name": "ColdChippyChips",
        "event_total": 44,
        "has_played": true,
        "id": 15221582,
        "last_rank": 13257,
        "player_name": "Ciaran Joyce",
        "rank": 22063,
        "rank_sort": 22157,
        "total": 2377
      },
      {
        "club_badge_src": "https://fantasy.premierleague.com/gcs/plfpl-production-adobe-approved/plfpl-production/2166225/8d45d3b2-3f21-4b5d-8fa0-ac4cf547cd98.png",
        "entry": 2166225,
        "entry_name": "die Sieger",
        "event_total": 76,
        "has_played": true,
        "id": 15399995,
        "last_rank": 36142,
        "player_name": "HERR Layman",
        "rank": 22063,
        "rank_sort": 22158,
        "total": 2377
      },
      {
        "club_badge_src": null,
        "entry": 2186877,
        "entry_name": "Livin Saliba Loca",
        "event_total": 61,
        "has_played": true,
        "id": 15557100,
        "last_rank": 25172,
        "player_name": "Kristian Oliver",
        "rank": 22063,
        "rank_sort": 22159,
        "total": 2377
      },
      {
        "club_badge_src": null,
        "entry": 2206964,
        "entry_name": "Rojo el Diablo",
        "event_total": 57,
        "has_played": true,
        "id": 15714290,
        "last_rank": 21775,
        "player_name": "Ali Kerr",
        "rank": 22063,
        "rank_sort": 22160,
        "total": 2377
      },
      {
        "club_badge_src": null,
        "entry": 2207351,
        "entry_name": "Kinder Mbeumo",
        "event_total": 59,
        "has_played": true,
        "id": 15717125,
        "last_rank": 23341,
        "player_name": "Ryan O'Donnell",
        "rank": 22063,
        "rank_sort": 22161,
        "total": 2377
      },
      {
        "club_badge_src": null,
        "entry": 2242820,
        "entry_name": "Super Jan",
        "event_total": 68,
        "has_played": true,
        "id": 15978852,
        "last_rank": 31620,
        "player_name": "Thomas Ooms",
        "rank": 22063,
        "rank_sort": 22162,
        "total": 2377
      },
      {
        "club_badge_src": "https://fantasy.premierleague.com/gcs/plfpl-production-adobe-approved/plfpl-production/2322606/204789f8-ccf0-4907-868a-6cdef69e48a4.png",
        "entry": 2322606,
        "entry_name": "Callm Ziz",
        "event_total": 51,
        "has_played": true,
        "id": 16569026,
        "last_rank": 17437,
        "player_name": "Jean Paul Antoine Aziz Dieme",
        "rank": 22063,
        "rank_sort": 22163,
        "total": 2377
      },
      {
        "club_badge_src": null,
        "entry": 2376104,
        "entry_name": "COLWaYNe BAY",
        "event_total": 58,
        "has_played": true,
        "id": 16963813,
        "last_rank": 19392,
        "player_name": "Wayne Evans",
        "rank": 22063,
        "rank_sort": 22164,
        "total": 2377
      },
      {
        "club_badge_src": null,
        "entry": 2477466,
        "entry_name": "Northslotdefenders",
        "event_total": 64,
        "has_played": true,
        "id": 17725997,
        "last_rank": 27770,
        "player_name": "Emil Nordback",
        "rank": 22063,
        "rank_sort": 22165,
        "total": 2377
      },
      {
        "club_badge_src": null,
        "entry": 2574196,
        "entry_name": "Saka Potatoes",
        "event_total": 59,
        "has_played": true,
        "id": 18472471,
        "last_rank": 23341,
        "player_name": "Samuel Cole",
        "rank": 22063,
        "rank_sort": 22166,
        "total": 2377
      },
      {
        "club_badge_src": null,
        "entry": 2583966,
        "entry_name": "Ha Cunha Matata",
        "event_total": 63,
        "has_played": true,
        "id": 18548293,
        "last_rank": 26710,
        "player_name": "Harry Gunaseelan",
        "rank": 22063,
        "rank_sort": 22167,
        "total": 2377
      },
      {
        "club_badge_src": null,
        "entry": 2596449,
        "entry_name": "Hakuna Mateta",
        "event_total": 66,
        "has_played": true,
        "id": 18645236,
        "last_rank": 29688,
        "player_name": "Michael B\u00f8gelund",
        "rank": 22063,
        "rank_sort": 22168,
        "total": 2377
      },
      {
        "club_badge_src": "https://fantasy.premierleague.com/gcs/plfpl-production-adobe-approved/plfpl-production/2621217/8630cce9-f918-4664-bc47-4425ffc1753a.png",
        "entry": 2621217,
        "entry_name": "Wirtz Nightmare",
        "event_total": 39,
        "has_played": true,
        "id": 18834607,
        "last_rank": 10920,
        "player_name": "Jonny Oldham",
        "rank": 22063,
        "rank_sort": 22169,
        "total": 2377
      },
      {
        "club_badge_src": null,
        "entry": 2646427,
        "entry_name": "Cardinal Ballsey",
        "event_total": 81,
        "has_played": true,
        "id": 19021351,
        "last_rank": 48197,
        "player_name": "Darren RAYNSFORD",
        "rank": 22063,
        "rank_sort": 22170,
        "total": 2377
      },
      {
        "club_badge_src": null,
        "entry": 2779397,
        "entry_name": "Altogether United",
        "event_total": 66,
        "has_played": true,
        "id": 20284850,
        "last_rank": 29688,
        "player_name": "Aidan Mcguinness",
        "rank": 22063,
        "rank_sort": 22171,
        "total": 2377
      },
      {
        "club_badge_src": null,
        "entry": 2948712,
        "entry_name": "CancelMahrezervation",
        "event_total": 65,
        "has_played": true,
        "id": 21655622,
        "last_rank": 28609,
        "player_name": "Gustavo Yelamo",
        "rank": 22063,
        "rank_sort": 22172,
        "total": 2377
      },
      {
        "club_badge_src": null,
        "entry": 2968540,
        "entry_name": "Move in Silence FC",
        "event_total": 71,
        "has_played": true,
        "id": 21809921,
        "last_rank": 35424,
        "player_name": "Naomi Olatunde",
        "rank": 22063,
        "rank_sort": 22173,
        "total": 2377
      },
      {
        "club_badge_src": null,
        "entry": 3061647,
        "entry_name": "Tidenes Vildecard",
        "event_total": 60,
        "has_played": true,
        "id": 22541451,
        "last_rank": 24143,
        "player_name": "Vilde Engvik",
        "rank": 22063,
        "rank_sort": 22174,
        "total": 2377
      },
      {
        "club_badge_src": null,
        "entry": 3069558,
        "entry_name": "Rio Roo FC",
        "event_total": 59,
        "has_played": true,
        "id": 22602191,
        "last_rank": 23341,
        "player_name": "Joe Robinson",
        "rank": 22063,
        "rank_sort": 22175,
        "total": 2377
      },
      {
        "club_badge_src": null,
        "entry": 3103056,
        "entry_name": "FPL team",
        "event_total": 74,
        "has_played": true,
        "id": 22878546,
        "last_rank": 38571,
        "player_name": "Raj Popat",
        "rank": 22063,
        "rank_sort": 22176,
        "total": 2377
      },
      {
        "club_badge_src": null,
        "entry": 3135441,
        "entry_name": "SalvaFC",
        "event_total": 58,
        "has_played": true,
        "id": 23144751,
        "last_rank": 22534,
        "player_name": "Salvador Hernandez",
        "rank": 22063,
        "rank_sort": 22177,
        "total": 2377
      },
      {
        "club_badge_src": null,
        "entry": 3147282,
        "entry_name": "Kinder Mbeumo",
        "event_total": 48,
        "has_played": true,
        "id": 23238810,
        "last_rank": 15694,
        "player_name": "N K",
        "rank": 22063,
        "rank_sort": 22178,
        "total": 2377
      },
      {
        "club_badge_src": null,
        "entry": 3215030,
        "entry_name": "TheWayToMurillo",
        "event_total": 59,
        "has_played": true,
        "id": 23770561,
        "last_rank": 23230,
        "player_name": "Michael Henderson",
        "rank": 22063,
        "rank_sort": 22179,
        "total": 2377
      },
      {
        "club_badge_src": null,
        "entry": 3466943,
        "entry_name": "Moo York Red Bulls",
        "event_total": 64,
        "has_played": true,
        "id": 25772990,
        "last_rank": 27644,
        "player_name": "Jake Cowen",
        "rank": 22063,
        "rank_sort": 22180,
        "total": 2377
      },
      {
        "club_badge_src": null,
        "entry": 3467755,
        "entry_name": "BiTown",
        "event_total": 61,
        "has_played": true,
        "id": 25779502,
        "last_rank": 25172,
        "player_name": "Ivancho Jovanovski",
        "rank": 22063,
        "rank_sort": 22181,
        "total": 2377
      },
      {
        "club_badge_src": null,
        "entry": 3576316,
        "entry_name": "Holly Faye's Team",
        "event_total": 73,
        "has_played": true,
        "id": 26630704,
        "last_rank": 37376,
        "player_name": "Holly Morris",
        "rank": 22063,
        "rank_sort": 22182,
        "total": 2377
      },
      {
        "club_badge_src": "https://fantasy.premierleague.com/gcs/plfpl-production-adobe-approved/plfpl-production/3774712/ab2bd965-c190-4b9e-a030-61088fcd36cc.png",
        "entry": 3774712,
        "entry_name": "Infinite Tsukuyomi \u2620",
        "event_total": 64,
        "has_played": true,
        "id": 28184718,
        "last_rank": 27644,
        "player_name": "Bamidele Kpiasi",
        "rank": 22063,
        "rank_sort": 22183,
        "total": 2377
      },
      {
        "club_badge_src": null,
        "entry": 3777158,
        "entry_name": "YeezyPeezy",
        "event_total": 64,
        "has_played": true,
        "id": 28203312,
        "last_rank": 27770,
        "player_name": "Zhen Hui Toh",
        "rank": 22063,
        "rank_sort": 22184,
        "total": 2377
      },
      {
        "club_badge_src": null,
        "entry": 3810875,
        "entry_name": "Ekitike taka",
        "event_total": 67,
        "has_played": true,
        "id": 28495143,
        "last_rank": 30536,
        "player_name": "Jack O'Donoghue",
        "rank": 22063,
        "rank_sort": 22185,
        "total": 2377
      },
      {
        "club_badge_src": null,
        "entry": 3828574,
        "entry_name": "Alleycatz",
        "event_total": 38,
        "has_played": true,
        "id": 28638957,
        "last_rank": 10346,
        "player_name": "Stephen Holder",
        "rank": 22063,
        "rank_sort": 22186,
        "total": 2377
      },
      {
        "club_badge_src": null,
        "entry": 3851988,
        "entry_name": "Pie",
        "event_total": 63,
        "has_played": true,
        "id": 28875802,
        "last_rank": 26656,
        "player_name": "Matt Holmes",
        "rank": 22063,
        "rank_sort": 22187,
        "total": 2377
      },
      {
        "club_badge_src": null,
        "entry": 3985435,
        "entry_name": "CHELSEA4LYF",
        "event_total": 60,
        "has_played": true,
        "id": 30005240,
        "last_rank": 24143,
        "player_name": "Hamish Mackenzie",
        "rank": 22063,
        "rank_sort": 22188,
        "total": 2377
      },
      {
        "club_badge_src": null,
        "entry": 4001759,
        "entry_name": "Harbut FC",
        "event_total": 68,
        "has_played": true,
        "id": 30141548,
        "last_rank": 31747,
        "player_name": "Ben Pettit",
        "rank": 22063,
        "rank_sort": 22189,
        "total": 2377
      },
      {
        "club_badge_src": null,
        "entry": 4009097,
        "entry_name": "Fat Bird \ufffd",
        "event_total": 46,
        "has_played": true,
        "id": 30202356,
        "last_rank": 14370,
        "player_name": "Muireann Nic G R",
        "rank": 22063,
        "rank_sort": 22190,
        "total": 2377
      },
      {
        "club_badge_src": null,
        "entry": 4046399,
        "entry_name": "K. Hminga....\ufffd",
        "event_total": 68,
        "has_played": true,
        "id": 30519599,
        "last_rank": 31620,
        "player_name": "K Hminga",
        "rank": 22063,
        "rank_sort": 22191,
        "total": 2377
      },
      {
        "club_badge_src": null,
        "entry": 4048781,
        "entry_name": "Shedheads",
        "event_total": 60,
        "has_played": true,
        "id": 30539321,
        "last_rank": 24143,
        "player_name": "Stuart Mason",
        "rank": 22063,
        "rank_sort": 22192,
        "total": 2377
      },
      {
        "club_badge_src": null,
        "entry": 4052677,
        "entry_name": "It'sthecruciblelad",
        "event_total": 66,
        "has_played": true,
        "id": 30572450,
        "last_rank": 29688,
        "player_name": "Eric Ryan",
        "rank": 22063,
        "rank_sort": 22193,
        "total": 2377
      },
      {
        "club_badge_src": null,
        "entry": 4251773,
        "entry_name": "Puding Telor",
        "event_total": 73,
        "has_played": true,
        "id": 32230906,
        "last_rank": 37435,
        "player_name": "Tanto Tan",
        "rank": 22063,
        "rank_sort": 22194,
        "total": 2377
      },
      {
        "club_badge_src": "https://fantasy.premierleague.com/gcs/plfpl-production-adobe-approved/plfpl-production/4334394/7c3581bc-d90c-4cf2-9c7a-5d36ac1993ed.png",
        "entry": 4334394,
        "entry_name": "Mastermind fc",
        "event_total": 39,
        "has_played": true,
        "id": 32906366,
        "last_rank": 10748,
        "player_name": "Master mind",
        "rank": 22063,
        "rank_sort": 22195,
        "total": 2377
      },
      {
        "club_badge_src": "https://fantasy.premierleague.com/gcs/plfpl-production-adobe-approved/plfpl-production/4361733/72e845d3-bb02-4f0f-97c2-9421ad7d23e7.png",
        "entry": 4361733,
        "entry_name": "Ham Zy",
        "event_total": 80,
        "has_played": true,
        "id": 33128618,
        "last_rank": 46839,
        "player_name": "Rasaq Adekunle",
        "rank": 22063,
        "rank_sort": 22196,
        "total": 2377
      },
      {
        "club_badge_src": null,
        "entry": 4387798,
        "entry_name": "seanzyboy",
        "event_total": 52,
        "has_played": true,
        "id": 33353615,
        "last_rank": 18113,
        "player_name": "Sean Oxley",
        "rank": 22063,
        "rank_sort": 22197,
        "total": 2377
      },
      {
        "club_badge_src": null,
        "entry": 4436479,
        "entry_name": "Nice To Michu",
        "event_total": 66,
        "has_played": true,
        "id": 33779629,
        "last_rank": 29688,
        "player_name": "Olly Barton",
        "rank": 22063,
        "rank_sort": 22198,
        "total": 2377
      },
      {
        "club_badge_src": null,
        "entry": 4570305,
        "entry_name": "FC G\u00e5fotboll",
        "event_total": 52,
        "has_played": true,
        "id": 34878888,
        "last_rank": 18270,
        "player_name": "Magnus Gustavsson",
        "rank": 22063,
        "rank_sort": 22199,
        "total": 2377
      },
      {
        "club_badge_src": null,
        "entry": 4600304,
        "entry_name": "Ima i gorih",
        "event_total": 73,
        "has_played": true,
        "id": 35141410,
        "last_rank": 37435,
        "player_name": "Nenad Jasarevic",
        "rank": 22063,
        "rank_sort": 22200,
        "total": 2377
      }
    ]
  }
}