{
  "last_updated_data": "2026-05-24T23:28:17Z",
  "league": {
    "admin_entry": null,
    "closed": false,
    "code_privacy": "p",
    "created": "2025-07-20T23:14:33.933835Z",
    "cup_league": 2815434,
    "has_cup": true,
    "id": 314,
    "league_type": "s",
    "max_entries": null,
    "name": "Overall",
    "rank": null,
    "scoring": "c",
    "start_event": 1
  },
  "new_entries": {
    "has_next": false,
    "page": 1,
    "results": []
  },
  "standings": {
    "has_next": true,
    "page": 696,
    "results": [
      {
        "club_badge_src": null,
        "entry": 1652702,
        "entry_name": "Sheikers",
        "event_total": 58,
        "has_played": true,
        "id": 11570645,
        "last_rank": 35867,
        "player_name": "Roy English",
        "rank": 34716,
        "rank_sort": 34751,
        "total": 2364
      },
      {
        "club_badge_src": null,
        "entry": 1666313,
        "entry_name": "Ctrl Alt De Ligt",
        "event_total": 65,
        "has_played": true,
        "id": 11666383,
        "last_rank": 39403,
        "player_name": "Rob Lawlor",
        "rank": 34716,
        "rank_sort": 34752,
        "total": 2364
      },
      {
        "club_badge_src": null,
        "entry": 1734159,
        "entry_name": "W only",
        "event_total": 57,
        "has_played": true,
        "id": 12165084,
        "last_rank": 30191,
        "player_name": "\u00d3ttar Uni",
        "rank": 34716,
        "rank_sort": 34753,
        "total": 2364
      },
      {
        "club_badge_src": null,
        "entry": 1918562,
        "entry_name": "My Hero's",
        "event_total": 43,
        "has_played": true,
        "id": 13528381,
        "last_rank": 21450,
        "player_name": "John Guest",
        "rank": 34716,
        "rank_sort": 34754,
        "total": 2364
      },
      {
        "club_badge_src": null,
        "entry": 1934695,
        "entry_name": "omarista",
        "event_total": 65,
        "has_played": true,
        "id": 13645500,
        "last_rank": 44525,
        "player_name": "Omar Ezzeddin",
        "rank": 34716,
        "rank_sort": 34755,
        "total": 2364
      },
      {
        "club_badge_src": null,
        "entry": 1936144,
        "entry_name": "fc med",
        "event_total": 59,
        "has_played": true,
        "id": 13655864,
        "last_rank": 32335,
        "player_name": "Selme Med",
        "rank": 34716,
        "rank_sort": 34756,
        "total": 2364
      },
      {
        "club_badge_src": null,
        "entry": 2017935,
        "entry_name": "no goalo kante",
        "event_total": 53,
        "has_played": true,
        "id": 14276550,
        "last_rank": 30325,
        "player_name": "Anders Nystad",
        "rank": 34716,
        "rank_sort": 34757,
        "total": 2364
      },
      {
        "club_badge_src": null,
        "entry": 2061433,
        "entry_name": "\u062a\u0633\u0648\u0646\u0627\u0645\u064a \u0627\u0644\u0641\u0627\u0646\u062a\u0627\u0632\u064a",
        "event_total": 66,
        "has_played": true,
        "id": 14606377,
        "last_rank": 46236,
        "player_name": "Karar abd",
        "rank": 34716,
        "rank_sort": 34758,
        "total": 2364
      },
      {
        "club_badge_src": null,
        "entry": 2221455,
        "entry_name": "Aramtea FC",
        "event_total": 59,
        "has_played": true,
        "id": 15821848,
        "last_rank": 37058,
        "player_name": "Aramtea Chhakchhuak",
        "rank": 34716,
        "rank_sort": 34759,
        "total": 2364
      },
      {
        "club_badge_src": null,
        "entry": 2618706,
        "entry_name": "flick 3mk",
        "event_total": 61,
        "has_played": true,
        "id": 18816492,
        "last_rank": 39510,
        "player_name": "yacoub alkandari",
        "rank": 34716,
        "rank_sort": 34760,
        "total": 2364
      },
      {
        "club_badge_src": null,
        "entry": 2733858,
        "entry_name": "The Tinkerman",
        "event_total": 45,
        "has_played": true,
        "id": 19673339,
        "last_rank": 22996,
        "player_name": "Daniel McGowan",
        "rank": 34716,
        "rank_sort": 34761,
        "total": 2364
      },
      {
        "club_badge_src": null,
        "entry": 2758104,
        "entry_name": "FC Gin & St\u00e4nk",
        "event_total": 65,
        "has_played": true,
        "id": 20110439,
        "last_rank": 39403,
        "player_name": "Oscar Davidsson",
        "rank": 34716,
        "rank_sort": 34762,
        "total": 2364
      },
      {
        "club_badge_src": null,
        "entry": 2919415,
        "entry_name": "Have it!",
        "event_total": 51,
        "has_played": true,
        "id": 21399082,
        "last_rank": 28388,
        "player_name": "Dale Prescott",
        "rank": 34716,
        "rank_sort": 34763,
        "total": 2364
      },
      {
        "club_badge_src": null,
        "entry": 3000800,
        "entry_name": "RedDebils",
        "event_total": 68,
        "has_played": true,
        "id": 22072131,
        "last_rank": 49207,
        "player_name": "Filip Benedikty",
        "rank": 34716,
        "rank_sort": 34764,
        "total": 2364
      },
      {
        "club_badge_src": "https://fantasy.premierleague.com/gcs/plfpl-production-adobe-approved/plfpl-production/3001395/d0aec597-6833-4919-a9bc-24d05190db9c.png",
        "entry": 3001395,
        "entry_name": "Souvlaki Utd",
        "event_total": 45,
        "has_played": true,
        "id": 22076729,
        "last_rank": 19904,
        "player_name": "Antonis Kirmizis",
        "rank": 34716,
        "rank_sort": 34765,
        "total": 2364
      },
      {
        "club_badge_src": "https://fantasy.premierleague.com/gcs/plfpl-production-adobe-approved/plfpl-production/3016230/ce12304a-d922-47fd-a48d-687b01b49754.png",
        "entry": 3016230,
        "entry_name": "Kentucky FC",
        "event_total": 61,
        "has_played": true,
        "id": 22190807,
        "last_rank": 39403,
        "player_name": "George Pinkney",
        "rank": 34716,
        "rank_sort": 34766,
        "total": 2364
      },
      {
        "club_badge_src": null,
        "entry": 3246016,
        "entry_name": "Squadra Lasagna",
        "event_total": 51,
        "has_played": true,
        "id": 24013320,
        "last_rank": 28273,
        "player_name": "Thomas Herrklotz",
        "rank": 34716,
        "rank_sort": 34767,
        "total": 2364
      },
      {
        "club_badge_src": null,
        "entry": 3387969,
        "entry_name": "HalfTeamHalfAmazing",
        "event_total": 72,
        "has_played": true,
        "id": 25151033,
        "last_rank": 43168,
        "player_name": "Faris Muratovic",
        "rank": 34716,
        "rank_sort": 34768,
        "total": 2364
      },
      {
        "club_badge_src": null,
        "entry": 3587186,
        "entry_name": "Better Call Cole",
        "event_total": 66,
        "has_played": true,
        "id": 26714703,
        "last_rank": 40647,
        "player_name": "Matthew Hua",
        "rank": 34716,
        "rank_sort": 34769,
        "total": 2364
      },
      {
        "club_badge_src": null,
        "entry": 3635491,
        "entry_name": "Steinsvaag FC",
        "event_total": 69,
        "has_played": true,
        "id": 27092328,
        "last_rank": 50635,
        "player_name": "Per Martin Steinsvaag",
        "rank": 34716,
        "rank_sort": 34770,
        "total": 2364
      },
      {
        "club_badge_src": null,
        "entry": 3838166,
        "entry_name": "Lil Tunechi",
        "event_total": 66,
        "has_played": true,
        "id": 28733148,
        "last_rank": 46106,
        "player_name": "Brook Ayalew",
        "rank": 34716,
        "rank_sort": 34771,
        "total": 2364
      },
      {
        "club_badge_src": null,
        "entry": 4384523,
        "entry_name": "Salah La Land",
        "event_total": 60,
        "has_played": true,
        "id": 33326177,
        "last_rank": 38163,
        "player_name": "Shane W Brennan",
        "rank": 34716,
        "rank_sort": 34772,
        "total": 2364
      },
      {
        "club_badge_src": null,
        "entry": 4579382,
        "entry_name": "ElSaDaT F.C",
        "event_total": 52,
        "has_played": true,
        "id": 34957533,
        "last_rank": 29279,
        "player_name": "abdullah S. ElSadat",
        "rank": 34716,
        "rank_sort": 34773,
        "total": 2364
      },
      {
        "club_badge_src": "https://fantasy.premierleague.com/gcs/plfpl-production-adobe-approved/plfpl-production/4606696/ed69afeb-0d7a-4cb6-8774-9c01c773ff54.png",
        "entry": 4606696,
        "entry_name": "GyokThe9UpTopNews",
        "event_total": 62,
        "has_played": true,
        "id": 35196827,
        "last_rank": 35768,
        "player_name": "Tom Haywood",
        "rank": 34716,
        "rank_sort": 34774,
        "total": 2364
      },
      {
        "club_badge_src": null,
        "entry": 4747830,
        "entry_name": "Royaltoffee",
        "event_total": 52,
        "has_played": true,
        "id": 36533616,
        "last_rank": 25436,
        "player_name": "Declan Heavey",
        "rank": 34716,
        "rank_sort": 34775,
        "total": 2364
      },
      {
        "club_badge_src": null,
        "entry": 4788593,
        "entry_name": "Life of Bryan",
        "event_total": 74,
        "has_played": true,
        "id": 36864787,
        "last_rank": 59077,
        "player_name": "Dale Burgess",
        "rank": 34716,
        "rank_sort": 34776,
        "total": 2364
      },
      {
        "club_badge_src": null,
        "entry": 4820819,
        "entry_name": "Tun Army",
        "event_total": 69,
        "has_played": true,
        "id": 37123695,
        "last_rank": 44672,
        "player_name": "Thapanic Vattanapisit",
        "rank": 34716,
        "rank_sort": 34777,
        "total": 2364
      },
      {
        "club_badge_src": null,
        "entry": 4850185,
        "entry_name": "Nederst FC",
        "event_total": 59,
        "has_played": true,
        "id": 37368242,
        "last_rank": 36963,
        "player_name": "Chris Torkildsen",
        "rank": 34716,
        "rank_sort": 34778,
        "total": 2364
      },
      {
        "club_badge_src": null,
        "entry": 4934625,
        "entry_name": "Tsadin Kingit",
        "event_total": 53,
        "has_played": true,
        "id": 38068676,
        "last_rank": 30276,
        "player_name": "Pauli Wahlberg",
        "rank": 34716,
        "rank_sort": 34779,
        "total": 2364
      },
      {
        "club_badge_src": null,
        "entry": 5052045,
        "entry_name": "Simon Jordan",
        "event_total": 56,
        "has_played": true,
        "id": 39034027,
        "last_rank": 29199,
        "player_name": "Alex Bradish",
        "rank": 34716,
        "rank_sort": 34780,
        "total": 2364
      },
      {
        "club_badge_src": null,
        "entry": 5064946,
        "entry_name": "Andow Athletics",
        "event_total": 45,
        "has_played": true,
        "id": 39139762,
        "last_rank": 22921,
        "player_name": "Magnus Berg\u00f8y",
        "rank": 34716,
        "rank_sort": 34781,
        "total": 2364
      },
      {
        "club_badge_src": null,
        "entry": 5351245,
        "entry_name": "MaterialMisstatement",
        "event_total": 66,
        "has_played": true,
        "id": 41537913,
        "last_rank": 40647,
        "player_name": "Tatenda Jumbe",
        "rank": 34716,
        "rank_sort": 34782,
        "total": 2364
      },
      {
        "club_badge_src": null,
        "entry": 5414184,
        "entry_name": "Scouser\u2019s Nightmare",
        "event_total": 69,
        "has_played": true,
        "id": 42105084,
        "last_rank": 50772,
        "player_name": "Christopher Foster",
        "rank": 34716,
        "rank_sort": 34783,
        "total": 2364
      },
      {
        "club_badge_src": null,
        "entry": 5564568,
        "entry_name": "ZA 90",
        "event_total": 64,
        "has_played": true,
        "id": 43445458,
        "last_rank": 43342,
        "player_name": "Musonda Chilanga",
        "rank": 34716,
        "rank_sort": 34784,
        "total": 2364
      },
      {
        "club_badge_src": null,
        "entry": 5720612,
        "entry_name": "On Porro'd Time",
        "event_total": 64,
        "has_played": true,
        "id": 44808169,
        "last_rank": 38163,
        "player_name": "Callum Smith",
        "rank": 34716,
        "rank_sort": 34785,
        "total": 2364
      },
      {
        "club_badge_src": null,
        "entry": 5828635,
        "entry_name": "Tabby Cats United",
        "event_total": 88,
        "has_played": true,
        "id": 45746500,
        "last_rank": 78244,
        "player_name": "Hungry Cat",
        "rank": 34716,
        "rank_sort": 34786,
        "total": 2364
      },
      {
        "club_badge_src": "https://fantasy.premierleague.com/gcs/plfpl-production-adobe-approved/plfpl-production/5839592/d375ae05-54eb-45fb-8857-fe8e33478e6c.png",
        "entry": 5839592,
        "entry_name": "Tayeb_Ja3ba",
        "event_total": 67,
        "has_played": true,
        "id": 45839280,
        "last_rank": 47596,
        "player_name": "Ahmed Radhi Yacoub",
        "rank": 34716,
        "rank_sort": 34787,
        "total": 2364
      },
      {
        "club_badge_src": null,
        "entry": 6186968,
        "entry_name": "Elwnu",
        "event_total": 64,
        "has_played": true,
        "id": 48932569,
        "last_rank": 38163,
        "player_name": "Lukasz Wnukowski",
        "rank": 34716,
        "rank_sort": 34788,
        "total": 2364
      },
      {
        "club_badge_src": null,
        "entry": 6248220,
        "entry_name": "Big TASty FC",
        "event_total": 61,
        "has_played": true,
        "id": 49459753,
        "last_rank": 39510,
        "player_name": "Tehseen Zaffar",
        "rank": 34716,
        "rank_sort": 34789,
        "total": 2364
      },
      {
        "club_badge_src": null,
        "entry": 6286942,
        "entry_name": "Olivantus",
        "event_total": 55,
        "has_played": true,
        "id": 49802763,
        "last_rank": 32437,
        "player_name": "Oliver Yau",
        "rank": 34716,
        "rank_sort": 34790,
        "total": 2364
      },
      {
        "club_badge_src": null,
        "entry": 6493881,
        "entry_name": "A L  G O M B i",
        "event_total": 62,
        "has_played": true,
        "id": 51767738,
        "last_rank": 35768,
        "player_name": "Mohammed Babiker",
        "rank": 34716,
        "rank_sort": 34791,
        "total": 2364
      },
      {
        "club_badge_src": null,
        "entry": 6755940,
        "entry_name": "Haislunds Heroes",
        "event_total": 69,
        "has_played": true,
        "id": 54088680,
        "last_rank": 50635,
        "player_name": "Viggo Haislund",
        "rank": 34716,
        "rank_sort": 34792,
        "total": 2364
      },
      {
        "club_badge_src": null,
        "entry": 6964328,
        "entry_name": "FC JOKA",
        "event_total": 60,
        "has_played": true,
        "id": 55855536,
        "last_rank": 38163,
        "player_name": "Andrew Dalah",
        "rank": 34716,
        "rank_sort": 34793,
        "total": 2364
      },
      {
        "club_badge_src": "https://fantasy.premierleague.com/gcs/plfpl-production-adobe-approved/plfpl-production/7394093/415a3092-ef22-4b75-9d27-d505194275b9.png",
        "entry": 7394093,
        "entry_name": "TNI FC",
        "event_total": 61,
        "has_played": true,
        "id": 59958546,
        "last_rank": 34578,
        "player_name": "Teodor Iita",
        "rank": 34716,
        "rank_sort": 34794,
        "total": 2364
      },
      {
        "club_badge_src": null,
        "entry": 7500525,
        "entry_name": "I will not win",
        "event_total": 67,
        "has_played": true,
        "id": 61284807,
        "last_rank": 36831,
        "player_name": "Bobby Chennell",
        "rank": 34716,
        "rank_sort": 34795,
        "total": 2364
      },
      {
        "club_badge_src": null,
        "entry": 7844718,
        "entry_name": "Fadla",
        "event_total": 70,
        "has_played": true,
        "id": 64483185,
        "last_rank": 52357,
        "player_name": "Fadla Abdelhamid",
        "rank": 34716,
        "rank_sort": 34796,
        "total": 2364
      },
      {
        "club_badge_src": null,
        "entry": 8120214,
        "entry_name": "Al-Hiluni",
        "event_total": 69,
        "has_played": true,
        "id": 66989903,
        "last_rank": 44672,
        "player_name": "Abdullah Abood",
        "rank": 34716,
        "rank_sort": 34797,
        "total": 2364
      },
      {
        "club_badge_src": null,
        "entry": 8581237,
        "entry_name": "The Untouchables",
        "event_total": 68,
        "has_played": true,
        "id": 71417590,
        "last_rank": 49207,
        "player_name": "Ahmed Essam Seoudy",
        "rank": 34716,
        "rank_sort": 34798,
        "total": 2364
      },
      {
        "club_badge_src": null,
        "entry": 8438,
        "entry_name": "Enter Team Name",
        "event_total": 55,
        "has_played": true,
        "id": 49056,
        "last_rank": 32491,
        "player_name": "Sam Parker",
        "rank": 34799,
        "rank_sort": 34799,
        "total": 2364
      },
      {
        "club_badge_src": null,
        "entry": 10319,
        "entry_name": "Green Tigers",
        "event_total": 61,
        "has_played": true,
        "id": 60973,
        "last_rank": 39510,
        "player_name": "Keno Igoro",
        "rank": 34799,
        "rank_sort": 34800,
        "total": 2364
      }
    ]
  }
}