{
  "last_updated_data": "2026-05-24T23:28:17Z",
  "league": {
    "admin_entry": null,
    "closed": false,
    "code_privacy": "p",
    "created": "2025-07-20T23:14:33.933835Z",
    "cup_league": 2815434,
    "has_cup": true,
    "id": 314,
    "league_type": "s",
    "max_entries": null,
    "name": "Overall",
    "rank": null,
    "scoring": "c",
    "start_event": 1
  },
  "new_entries": {
    "has_next": false,
    "page": 1,
    "results": []
  },
  "standings": {
    "has_next": true,
    "page": 606,
    "results": [
      {
        "club_badge_src": null,
        "entry": 38069,
        "entry_name": "Junior\u00e1nne",
        "event_total": 76,
        "has_played": true,
        "id": 243975,
        "last_rank": 55014,
        "player_name": "P\u00e5l Hofset Skeide",
        "rank": 30244,
        "rank_sort": 30251,
        "total": 2368
      },
      {
        "club_badge_src": null,
        "entry": 39675,
        "entry_name": "McGinn & Tonic",
        "event_total": 65,
        "has_played": true,
        "id": 254256,
        "last_rank": 39246,
        "player_name": "Oliver Russell",
        "rank": 30244,
        "rank_sort": 30252,
        "total": 2368
      },
      {
        "club_badge_src": "https://fantasy.premierleague.com/gcs/plfpl-production-adobe-approved/plfpl-production/50837/aba8c3b9-5930-4673-bc3a-66fb80b4188f.png",
        "entry": 50837,
        "entry_name": "Bane FC",
        "event_total": 58,
        "has_played": true,
        "id": 327008,
        "last_rank": 31125,
        "player_name": "Mohamed Afthim",
        "rank": 30244,
        "rank_sort": 30253,
        "total": 2368
      },
      {
        "club_badge_src": null,
        "entry": 63606,
        "entry_name": "Kinder Mbeumo",
        "event_total": 49,
        "has_played": true,
        "id": 410447,
        "last_rank": 22830,
        "player_name": "Jamie Ramsay",
        "rank": 30244,
        "rank_sort": 30254,
        "total": 2368
      },
      {
        "club_badge_src": null,
        "entry": 83774,
        "entry_name": "HMS BWFC",
        "event_total": 61,
        "has_played": true,
        "id": 545310,
        "last_rank": 34578,
        "player_name": "Jason Walker",
        "rank": 30244,
        "rank_sort": 30255,
        "total": 2368
      },
      {
        "club_badge_src": null,
        "entry": 104658,
        "entry_name": "Silence of the Lahms",
        "event_total": 82,
        "has_played": true,
        "id": 682685,
        "last_rank": 65796,
        "player_name": "James Nally",
        "rank": 30244,
        "rank_sort": 30256,
        "total": 2368
      },
      {
        "club_badge_src": "https://fantasy.premierleague.com/gcs/plfpl-production-adobe-approved/plfpl-production/113026/7cc1e9a2-495e-4d32-ab22-60407159afe8.png",
        "entry": 113026,
        "entry_name": "\u2b50\u2b50\u2b50Chelsea F.C. \u2b50\u2b50\u2b50",
        "event_total": 59,
        "has_played": true,
        "id": 737133,
        "last_rank": 32190,
        "player_name": "Aleksandros Balliu",
        "rank": 30244,
        "rank_sort": 30257,
        "total": 2368
      },
      {
        "club_badge_src": null,
        "entry": 135750,
        "entry_name": "kilmore rec",
        "event_total": 71,
        "has_played": true,
        "id": 884071,
        "last_rank": 41324,
        "player_name": "Hugo Corrigan",
        "rank": 30244,
        "rank_sort": 30258,
        "total": 2368
      },
      {
        "club_badge_src": null,
        "entry": 160461,
        "entry_name": "Striking Reds!",
        "event_total": 61,
        "has_played": true,
        "id": 1056657,
        "last_rank": 29904,
        "player_name": "Anirudh Deepak",
        "rank": 30244,
        "rank_sort": 30259,
        "total": 2368
      },
      {
        "club_badge_src": null,
        "entry": 170404,
        "entry_name": "50 Shades of O'shea",
        "event_total": 72,
        "has_played": true,
        "id": 1125846,
        "last_rank": 48642,
        "player_name": "Leo Hunter",
        "rank": 30244,
        "rank_sort": 30260,
        "total": 2368
      },
      {
        "club_badge_src": null,
        "entry": 211723,
        "entry_name": "What's the Mata?",
        "event_total": 65,
        "has_played": true,
        "id": 1408289,
        "last_rank": 39023,
        "player_name": "Callum McCann",
        "rank": 30244,
        "rank_sort": 30261,
        "total": 2368
      },
      {
        "club_badge_src": null,
        "entry": 250118,
        "entry_name": "The Unai Bomber",
        "event_total": 49,
        "has_played": true,
        "id": 1664210,
        "last_rank": 22830,
        "player_name": "Thomas Clarke",
        "rank": 30244,
        "rank_sort": 30262,
        "total": 2368
      },
      {
        "club_badge_src": null,
        "entry": 260040,
        "entry_name": "Lewnited",
        "event_total": 55,
        "has_played": true,
        "id": 1728837,
        "last_rank": 24330,
        "player_name": "Lewis Vincent",
        "rank": 30244,
        "rank_sort": 30263,
        "total": 2368
      },
      {
        "club_badge_src": "https://fantasy.premierleague.com/gcs/plfpl-production-adobe-approved/plfpl-production/267461/a8739aaa-394e-4c42-aa8b-185f60ad419f.png",
        "entry": 267461,
        "entry_name": "Stephenage Boro F.C.",
        "event_total": 70,
        "has_played": true,
        "id": 1779279,
        "last_rank": 45927,
        "player_name": "Steve Penn",
        "rank": 30244,
        "rank_sort": 30264,
        "total": 2368
      },
      {
        "club_badge_src": null,
        "entry": 268854,
        "entry_name": "Tbilisi Red Devils",
        "event_total": 55,
        "has_played": true,
        "id": 1788551,
        "last_rank": 24330,
        "player_name": "Leif Michaelsen",
        "rank": 30244,
        "rank_sort": 30265,
        "total": 2368
      },
      {
        "club_badge_src": null,
        "entry": 280423,
        "entry_name": "S\u00e9kou Kon\u00e9",
        "event_total": 56,
        "has_played": true,
        "id": 1866176,
        "last_rank": 25172,
        "player_name": "Filip Jeppsson",
        "rank": 30244,
        "rank_sort": 30266,
        "total": 2368
      },
      {
        "club_badge_src": null,
        "entry": 298988,
        "entry_name": "CitiusAltiusFortius",
        "event_total": 78,
        "has_played": true,
        "id": 1999306,
        "last_rank": 51220,
        "player_name": "Philip Campbell",
        "rank": 30244,
        "rank_sort": 30267,
        "total": 2368
      },
      {
        "club_badge_src": null,
        "entry": 304980,
        "entry_name": "OFK Novoselac 1989",
        "event_total": 66,
        "has_played": true,
        "id": 2042195,
        "last_rank": 40297,
        "player_name": "Aleksandar Vukadinovic",
        "rank": 30244,
        "rank_sort": 30268,
        "total": 2368
      },
      {
        "club_badge_src": null,
        "entry": 315848,
        "entry_name": "FC Futtoboru",
        "event_total": 61,
        "has_played": true,
        "id": 2116844,
        "last_rank": 34458,
        "player_name": "Gordon Webster",
        "rank": 30244,
        "rank_sort": 30269,
        "total": 2368
      },
      {
        "club_badge_src": "https://fantasy.premierleague.com/gcs/plfpl-production-adobe-approved/plfpl-production/336341/d90cf412-46bd-44e7-9770-88d370f1d82b.png",
        "entry": 336341,
        "entry_name": "HifiAndMusicSource",
        "event_total": 71,
        "has_played": true,
        "id": 2251844,
        "last_rank": 41617,
        "player_name": "Simon Wilce",
        "rank": 30244,
        "rank_sort": 30270,
        "total": 2368
      },
      {
        "club_badge_src": null,
        "entry": 344266,
        "entry_name": "Joddy",
        "event_total": 68,
        "has_played": true,
        "id": 2304220,
        "last_rank": 42940,
        "player_name": "Jack Dunne",
        "rank": 30244,
        "rank_sort": 30271,
        "total": 2368
      },
      {
        "club_badge_src": "https://fantasy.premierleague.com/gcs/plfpl-production-adobe-approved/plfpl-production/354619/ecd165b9-debf-4622-a757-3077fd61c9f1.png",
        "entry": 354619,
        "entry_name": "Mainoo United",
        "event_total": 67,
        "has_played": true,
        "id": 2373280,
        "last_rank": 41967,
        "player_name": "Ben Hackeson",
        "rank": 30244,
        "rank_sort": 30272,
        "total": 2368
      },
      {
        "club_badge_src": "https://fantasy.premierleague.com/gcs/plfpl-production-adobe-approved/plfpl-production/386446/6588d45f-dbc6-4491-9c4d-436171a565cb.png",
        "entry": 386446,
        "entry_name": "BACK 2 BACK",
        "event_total": 59,
        "has_played": true,
        "id": 2592531,
        "last_rank": 31995,
        "player_name": "Matthew Hughes",
        "rank": 30244,
        "rank_sort": 30273,
        "total": 2368
      },
      {
        "club_badge_src": null,
        "entry": 462983,
        "entry_name": "The Clarets",
        "event_total": 64,
        "has_played": true,
        "id": 3105626,
        "last_rank": 37589,
        "player_name": "Jake Jarvis",
        "rank": 30244,
        "rank_sort": 30274,
        "total": 2368
      },
      {
        "club_badge_src": "https://fantasy.premierleague.com/gcs/plfpl-production-adobe-approved/plfpl-production/606859/313343cb-be7f-43fa-b8f1-2d70900ea79d.png",
        "entry": 606859,
        "entry_name": "FPL_KN",
        "event_total": 50,
        "has_played": true,
        "id": 4098024,
        "last_rank": 23522,
        "player_name": "KSHITIJ SHARMA",
        "rank": 30244,
        "rank_sort": 30275,
        "total": 2368
      },
      {
        "club_badge_src": null,
        "entry": 627361,
        "entry_name": "Atl\u00e9tico Wigan",
        "event_total": 57,
        "has_played": true,
        "id": 4239435,
        "last_rank": 30060,
        "player_name": "Adam Scrafton",
        "rank": 30244,
        "rank_sort": 30276,
        "total": 2368
      },
      {
        "club_badge_src": null,
        "entry": 630652,
        "entry_name": "The LT",
        "event_total": 64,
        "has_played": true,
        "id": 4261552,
        "last_rank": 28726,
        "player_name": "Louis Toomey",
        "rank": 30244,
        "rank_sort": 30277,
        "total": 2368
      },
      {
        "club_badge_src": null,
        "entry": 721369,
        "entry_name": "The Amadmen",
        "event_total": 55,
        "has_played": true,
        "id": 4898493,
        "last_rank": 28273,
        "player_name": "IGWE Tebarek",
        "rank": 30244,
        "rank_sort": 30278,
        "total": 2368
      },
      {
        "club_badge_src": null,
        "entry": 761816,
        "entry_name": "thanos_21",
        "event_total": 72,
        "has_played": true,
        "id": 5194923,
        "last_rank": 37589,
        "player_name": "\u062b\u0627\u0646\u0648\u0633 \u0627\u0644\u062c\u0644\u0627\u062f",
        "rank": 30244,
        "rank_sort": 30279,
        "total": 2368
      },
      {
        "club_badge_src": null,
        "entry": 888979,
        "entry_name": "Murder on Zidane's F",
        "event_total": 63,
        "has_played": true,
        "id": 6097610,
        "last_rank": 36624,
        "player_name": "Chris Livingstone",
        "rank": 30244,
        "rank_sort": 30280,
        "total": 2368
      },
      {
        "club_badge_src": "https://fantasy.premierleague.com/gcs/plfpl-production-adobe-approved/plfpl-production/896170/6212ac4b-cb71-476f-b506-f55f9823ca2b.png",
        "entry": 896170,
        "entry_name": "Dumb Lit",
        "event_total": 68,
        "has_played": true,
        "id": 6156427,
        "last_rank": 37822,
        "player_name": "Daniel Thomas Loebenstein",
        "rank": 30244,
        "rank_sort": 30281,
        "total": 2368
      },
      {
        "club_badge_src": null,
        "entry": 902619,
        "entry_name": "Soup - A - Stars",
        "event_total": 55,
        "has_played": true,
        "id": 6202026,
        "last_rank": 24330,
        "player_name": "Lewis Cooper",
        "rank": 30244,
        "rank_sort": 30282,
        "total": 2368
      },
      {
        "club_badge_src": null,
        "entry": 905585,
        "entry_name": "FC Hosalam",
        "event_total": 65,
        "has_played": true,
        "id": 6224205,
        "last_rank": 34293,
        "player_name": "Dan Moldovan",
        "rank": 30244,
        "rank_sort": 30283,
        "total": 2368
      },
      {
        "club_badge_src": null,
        "entry": 921021,
        "entry_name": "ShuttTheFACup",
        "event_total": 67,
        "has_played": true,
        "id": 6334100,
        "last_rank": 41617,
        "player_name": "Dan Hodge",
        "rank": 30244,
        "rank_sort": 30284,
        "total": 2368
      },
      {
        "club_badge_src": null,
        "entry": 942640,
        "entry_name": "rererestrazzzzzz",
        "event_total": 64,
        "has_played": true,
        "id": 6492059,
        "last_rank": 37822,
        "player_name": "Ed Koh",
        "rank": 30244,
        "rank_sort": 30285,
        "total": 2368
      },
      {
        "club_badge_src": null,
        "entry": 980634,
        "entry_name": "Brave Fc",
        "event_total": 62,
        "has_played": true,
        "id": 6760509,
        "last_rank": 35768,
        "player_name": "\ud835\udd6d\ud835\udd97\ud835\udd86\ud835\udd9b\ud835\udd8a \ud835\udd91\ud835\udd9a\ud835\udd8e\ud835\udd9d",
        "rank": 30244,
        "rank_sort": 30286,
        "total": 2368
      },
      {
        "club_badge_src": "https://fantasy.premierleague.com/gcs/plfpl-production-adobe-approved/plfpl-production/1009820/47cb7100-80b3-4124-b266-ddaacf7dec7e.png",
        "entry": 1009820,
        "entry_name": "The Kisarians",
        "event_total": 61,
        "has_played": true,
        "id": 6982525,
        "last_rank": 34458,
        "player_name": "Adnan Isakovic",
        "rank": 30244,
        "rank_sort": 30287,
        "total": 2368
      },
      {
        "club_badge_src": null,
        "entry": 1075485,
        "entry_name": "Joker FC",
        "event_total": 66,
        "has_played": true,
        "id": 7446121,
        "last_rank": 35424,
        "player_name": "Bicky Maharjan",
        "rank": 30244,
        "rank_sort": 30288,
        "total": 2368
      },
      {
        "club_badge_src": "https://fantasy.premierleague.com/gcs/plfpl-production-adobe-approved/plfpl-production/1093427/3d121c73-e39a-4eb6-b134-c984deb57623.png",
        "entry": 1093427,
        "entry_name": "Chlejmany FC",
        "event_total": 70,
        "has_played": true,
        "id": 7573002,
        "last_rank": 45927,
        "player_name": "Maciej Lehmann",
        "rank": 30244,
        "rank_sort": 30289,
        "total": 2368
      },
      {
        "club_badge_src": null,
        "entry": 1117187,
        "entry_name": "The Frank Engine",
        "event_total": 65,
        "has_played": true,
        "id": 7738643,
        "last_rank": 34293,
        "player_name": "Dan Dennehy",
        "rank": 30244,
        "rank_sort": 30290,
        "total": 2368
      },
      {
        "club_badge_src": null,
        "entry": 1120581,
        "entry_name": "Dogs of War",
        "event_total": 63,
        "has_played": true,
        "id": 7763292,
        "last_rank": 36831,
        "player_name": "martin searle",
        "rank": 30244,
        "rank_sort": 30291,
        "total": 2368
      },
      {
        "club_badge_src": null,
        "entry": 1219789,
        "entry_name": "\u0408\u0430\u043a\u0435 \u0415\u0433\u0437\u0438\u0431\u0438\u0446\u0438\u0458\u0435",
        "event_total": 69,
        "has_played": true,
        "id": 8468721,
        "last_rank": 44303,
        "player_name": "\u0421\u0442\u0435\u0444\u0430\u043d \u0408\u0430\u045a\u0438\u045b",
        "rank": 30244,
        "rank_sort": 30292,
        "total": 2368
      },
      {
        "club_badge_src": null,
        "entry": 1228669,
        "entry_name": "Kaz Utd",
        "event_total": 77,
        "has_played": true,
        "id": 8531430,
        "last_rank": 56708,
        "player_name": "Karen Nicol",
        "rank": 30244,
        "rank_sort": 30293,
        "total": 2368
      },
      {
        "club_badge_src": null,
        "entry": 1407456,
        "entry_name": "Trust The Process",
        "event_total": 77,
        "has_played": true,
        "id": 9793186,
        "last_rank": 56708,
        "player_name": "Alex Boanas",
        "rank": 30244,
        "rank_sort": 30294,
        "total": 2368
      },
      {
        "club_badge_src": null,
        "entry": 1456462,
        "entry_name": "Sir Alex FerguSnus",
        "event_total": 68,
        "has_played": true,
        "id": 10148871,
        "last_rank": 37589,
        "player_name": "Benji Mullarkey",
        "rank": 30244,
        "rank_sort": 30295,
        "total": 2368
      },
      {
        "club_badge_src": null,
        "entry": 1545064,
        "entry_name": "Souhil Nouri",
        "event_total": 59,
        "has_played": true,
        "id": 10785614,
        "last_rank": 32335,
        "player_name": "Nouri Souhil",
        "rank": 30244,
        "rank_sort": 30296,
        "total": 2368
      },
      {
        "club_badge_src": null,
        "entry": 1659817,
        "entry_name": "Mesbbah fc",
        "event_total": 65,
        "has_played": true,
        "id": 11620676,
        "last_rank": 34293,
        "player_name": "hamada gamal",
        "rank": 30244,
        "rank_sort": 30297,
        "total": 2368
      },
      {
        "club_badge_src": null,
        "entry": 1832481,
        "entry_name": "knatasub",
        "event_total": 60,
        "has_played": true,
        "id": 12890258,
        "last_rank": 33147,
        "player_name": "Kresna Natasubrata",
        "rank": 30244,
        "rank_sort": 30298,
        "total": 2368
      },
      {
        "club_badge_src": null,
        "entry": 1907500,
        "entry_name": "Profesor Balthazard",
        "event_total": 67,
        "has_played": true,
        "id": 13447634,
        "last_rank": 41617,
        "player_name": "Mark Pe\u010dek",
        "rank": 30244,
        "rank_sort": 30299,
        "total": 2368
      },
      {
        "club_badge_src": null,
        "entry": 1929717,
        "entry_name": "city",
        "event_total": 58,
        "has_played": true,
        "id": 13609985,
        "last_rank": 30957,
        "player_name": "Mohamed Samir",
        "rank": 30244,
        "rank_sort": 30300,
        "total": 2368
      }
    ]
  }
}