{
  "last_updated_data": "2026-05-24T23:28:17Z",
  "league": {
    "admin_entry": null,
    "closed": false,
    "code_privacy": "p",
    "created": "2025-07-20T23:14:33.933835Z",
    "cup_league": 2815434,
    "has_cup": true,
    "id": 314,
    "league_type": "s",
    "max_entries": null,
    "name": "Overall",
    "rank": null,
    "scoring": "c",
    "start_event": 1
  },
  "new_entries": {
    "has_next": false,
    "page": 1,
    "results": []
  },
  "standings": {
    "has_next": true,
    "page": 88,
    "results": [
      {
        "club_badge_src": null,
        "entry": 973845,
        "entry_name": "StoneColeStevePalmer",
        "event_total": 45,
        "has_played": true,
        "id": 6713096,
        "last_rank": 2215,
        "player_name": "Ollie Crewes",
        "rank": 4340,
        "rank_sort": 4351,
        "total": 2418
      },
      {
        "club_badge_src": null,
        "entry": 1225264,
        "entry_name": "Krin\u010dinas City",
        "event_total": 65,
        "has_played": true,
        "id": 8507444,
        "last_rank": 4804,
        "player_name": "Dovydas Vaitulionis",
        "rank": 4340,
        "rank_sort": 4352,
        "total": 2418
      },
      {
        "club_badge_src": null,
        "entry": 1686122,
        "entry_name": "dion dustbin",
        "event_total": 61,
        "has_played": true,
        "id": 11803115,
        "last_rank": 4839,
        "player_name": "asa smith",
        "rank": 4340,
        "rank_sort": 4353,
        "total": 2418
      },
      {
        "club_badge_src": null,
        "entry": 1912035,
        "entry_name": "My Big Fat Pep Team",
        "event_total": 50,
        "has_played": true,
        "id": 13480392,
        "last_rank": 2891,
        "player_name": "Christos Petridis",
        "rank": 4340,
        "rank_sort": 4354,
        "total": 2418
      },
      {
        "club_badge_src": null,
        "entry": 2293993,
        "entry_name": "hawkamania",
        "event_total": 64,
        "has_played": true,
        "id": 16360788,
        "last_rank": 4515,
        "player_name": "Danny hawkeswood",
        "rank": 4340,
        "rank_sort": 4355,
        "total": 2418
      },
      {
        "club_badge_src": null,
        "entry": 2895450,
        "entry_name": "Ake Breaky Heart",
        "event_total": 38,
        "has_played": true,
        "id": 21214728,
        "last_rank": 1031,
        "player_name": "Lisa Duwel",
        "rank": 4340,
        "rank_sort": 4356,
        "total": 2418
      },
      {
        "club_badge_src": null,
        "entry": 3149743,
        "entry_name": "Dovsters",
        "event_total": 47,
        "has_played": true,
        "id": 23258214,
        "last_rank": 2468,
        "player_name": "David Yach",
        "rank": 4340,
        "rank_sort": 4357,
        "total": 2418
      },
      {
        "club_badge_src": null,
        "entry": 3345880,
        "entry_name": "SomeWaySomeHowe",
        "event_total": 68,
        "has_played": true,
        "id": 24819313,
        "last_rank": 6528,
        "player_name": "Donal Dignam",
        "rank": 4340,
        "rank_sort": 4358,
        "total": 2418
      },
      {
        "club_badge_src": null,
        "entry": 3719777,
        "entry_name": "Nolebo BK",
        "event_total": 61,
        "has_played": true,
        "id": 27759066,
        "last_rank": 3951,
        "player_name": "Martin Karlsson",
        "rank": 4340,
        "rank_sort": 4359,
        "total": 2418
      },
      {
        "club_badge_src": null,
        "entry": 3818684,
        "entry_name": "Daskeland United",
        "event_total": 50,
        "has_played": true,
        "id": 28558723,
        "last_rank": 2891,
        "player_name": "Rolf D\u00f8skeland",
        "rank": 4340,
        "rank_sort": 4360,
        "total": 2418
      },
      {
        "club_badge_src": null,
        "entry": 4444241,
        "entry_name": "Yellow Army",
        "event_total": 62,
        "has_played": true,
        "id": 33844442,
        "last_rank": 5081,
        "player_name": "Martin Kent",
        "rank": 4340,
        "rank_sort": 4361,
        "total": 2418
      },
      {
        "club_badge_src": null,
        "entry": 4990461,
        "entry_name": "Klippity Slot",
        "event_total": 57,
        "has_played": true,
        "id": 38527795,
        "last_rank": 3302,
        "player_name": "Stephan McAlpine",
        "rank": 4340,
        "rank_sort": 4362,
        "total": 2418
      },
      {
        "club_badge_src": null,
        "entry": 5925998,
        "entry_name": "Parsons Penguins",
        "event_total": 63,
        "has_played": true,
        "id": 46582289,
        "last_rank": 5281,
        "player_name": "Andrew Parsons",
        "rank": 4340,
        "rank_sort": 4363,
        "total": 2418
      },
      {
        "club_badge_src": null,
        "entry": 7047298,
        "entry_name": "Real Sosobad",
        "event_total": 61,
        "has_played": true,
        "id": 56671020,
        "last_rank": 4804,
        "player_name": "Tom Eaton",
        "rank": 4340,
        "rank_sort": 4364,
        "total": 2418
      },
      {
        "club_badge_src": null,
        "entry": 7553049,
        "entry_name": "Dad's Rangers",
        "event_total": 73,
        "has_played": true,
        "id": 61839738,
        "last_rank": 8234,
        "player_name": "Richard Edwards",
        "rank": 4340,
        "rank_sort": 4365,
        "total": 2418
      },
      {
        "club_badge_src": null,
        "entry": 80559,
        "entry_name": "PRETHAB RAO FC",
        "event_total": 62,
        "has_played": true,
        "id": 524119,
        "last_rank": 5081,
        "player_name": "PRETHAB RAO",
        "rank": 4366,
        "rank_sort": 4366,
        "total": 2418
      },
      {
        "club_badge_src": null,
        "entry": 149544,
        "entry_name": "The Saints",
        "event_total": 56,
        "has_played": true,
        "id": 980544,
        "last_rank": 3175,
        "player_name": "Abdulaziz Al-Nejadah",
        "rank": 4366,
        "rank_sort": 4367,
        "total": 2418
      },
      {
        "club_badge_src": null,
        "entry": 238001,
        "entry_name": "Consistently 2nd",
        "event_total": 64,
        "has_played": true,
        "id": 1583410,
        "last_rank": 4570,
        "player_name": "George Robbins",
        "rank": 4366,
        "rank_sort": 4368,
        "total": 2418
      },
      {
        "club_badge_src": null,
        "entry": 449501,
        "entry_name": "3bdulla",
        "event_total": 30,
        "has_played": true,
        "id": 3015844,
        "last_rank": 1053,
        "player_name": "abdulla Alsahli",
        "rank": 4366,
        "rank_sort": 4369,
        "total": 2418
      },
      {
        "club_badge_src": null,
        "entry": 906180,
        "entry_name": "Change Name",
        "event_total": 58,
        "has_played": true,
        "id": 6228797,
        "last_rank": 4186,
        "player_name": "Ryan Bateman",
        "rank": 4366,
        "rank_sort": 4370,
        "total": 2418
      },
      {
        "club_badge_src": null,
        "entry": 1236057,
        "entry_name": "Murph",
        "event_total": 65,
        "has_played": true,
        "id": 8583341,
        "last_rank": 4839,
        "player_name": "Adam Murphy",
        "rank": 4366,
        "rank_sort": 4371,
        "total": 2418
      },
      {
        "club_badge_src": null,
        "entry": 1647077,
        "entry_name": "marmooooush",
        "event_total": 65,
        "has_played": true,
        "id": 11529829,
        "last_rank": 5820,
        "player_name": "Oliver Norvold",
        "rank": 4366,
        "rank_sort": 4372,
        "total": 2418
      },
      {
        "club_badge_src": null,
        "entry": 1924461,
        "entry_name": "Hartson FC",
        "event_total": 62,
        "has_played": true,
        "id": 13572170,
        "last_rank": 5081,
        "player_name": "Chris Baker",
        "rank": 4366,
        "rank_sort": 4373,
        "total": 2418
      },
      {
        "club_badge_src": null,
        "entry": 2271722,
        "entry_name": "Arsenal F.C",
        "event_total": 71,
        "has_played": true,
        "id": 16198568,
        "last_rank": 7535,
        "player_name": "Ahamed Bathavi",
        "rank": 4366,
        "rank_sort": 4374,
        "total": 2418
      },
      {
        "club_badge_src": null,
        "entry": 2510947,
        "entry_name": "Back of the neto",
        "event_total": 61,
        "has_played": true,
        "id": 17988209,
        "last_rank": 4866,
        "player_name": "Daniel Gale",
        "rank": 4366,
        "rank_sort": 4375,
        "total": 2418
      },
      {
        "club_badge_src": null,
        "entry": 3151620,
        "entry_name": "GOTHAM CITY BOYS",
        "event_total": 57,
        "has_played": true,
        "id": 23274867,
        "last_rank": 3331,
        "player_name": "Nwanya Peter",
        "rank": 4366,
        "rank_sort": 4376,
        "total": 2418
      },
      {
        "club_badge_src": null,
        "entry": 3366272,
        "entry_name": "@AlphaZero 3.0",
        "event_total": 58,
        "has_played": true,
        "id": 24979542,
        "last_rank": 4205,
        "player_name": "Chris Ravnaas",
        "rank": 4366,
        "rank_sort": 4377,
        "total": 2418
      },
      {
        "club_badge_src": null,
        "entry": 4196213,
        "entry_name": "Magnifico Undici",
        "event_total": 44,
        "has_played": true,
        "id": 31759916,
        "last_rank": 2141,
        "player_name": "Peter Jamieson",
        "rank": 4366,
        "rank_sort": 4378,
        "total": 2418
      },
      {
        "club_badge_src": null,
        "entry": 5566514,
        "entry_name": "Ekitike-taka",
        "event_total": 59,
        "has_played": true,
        "id": 43463418,
        "last_rank": 4413,
        "player_name": "Jonny Daly",
        "rank": 4366,
        "rank_sort": 4379,
        "total": 2418
      },
      {
        "club_badge_src": null,
        "entry": 5603520,
        "entry_name": "Bobo",
        "event_total": 64,
        "has_played": true,
        "id": 43786942,
        "last_rank": 4615,
        "player_name": "Jakob Eurenius",
        "rank": 4366,
        "rank_sort": 4380,
        "total": 2418
      },
      {
        "club_badge_src": null,
        "entry": 6880033,
        "entry_name": "Makwana's Picks",
        "event_total": 74,
        "has_played": true,
        "id": 55135762,
        "last_rank": 8591,
        "player_name": "Mukesh Makwana",
        "rank": 4366,
        "rank_sort": 4381,
        "total": 2418
      },
      {
        "club_badge_src": null,
        "entry": 6945827,
        "entry_name": "Kaung Lin Htike",
        "event_total": 50,
        "has_played": true,
        "id": 55690912,
        "last_rank": 2907,
        "player_name": "Kaung Lin Htike",
        "rank": 4366,
        "rank_sort": 4382,
        "total": 2418
      },
      {
        "club_badge_src": "https://fantasy.premierleague.com/gcs/plfpl-production-adobe-approved/plfpl-production/7098959/435b7e1a-9fe7-4318-8922-dd50aa08cb93.png",
        "entry": 7098959,
        "entry_name": "Ekitecakes",
        "event_total": 70,
        "has_played": true,
        "id": 57165576,
        "last_rank": 6061,
        "player_name": "Younus Alam",
        "rank": 4366,
        "rank_sort": 4383,
        "total": 2418
      },
      {
        "club_badge_src": null,
        "entry": 8384574,
        "entry_name": "Hair",
        "event_total": 60,
        "has_played": true,
        "id": 69534554,
        "last_rank": 4644,
        "player_name": "Glenn Pearce",
        "rank": 4366,
        "rank_sort": 4384,
        "total": 2418
      },
      {
        "club_badge_src": null,
        "entry": 31178,
        "entry_name": "Average Joe's",
        "event_total": 58,
        "has_played": true,
        "id": 197477,
        "last_rank": 4223,
        "player_name": "Joe Sheard",
        "rank": 4385,
        "rank_sort": 4385,
        "total": 2418
      },
      {
        "club_badge_src": "https://fantasy.premierleague.com/gcs/plfpl-production-adobe-approved/plfpl-production/143311/b5745bf4-d85d-43de-8098-b0c1fef2b707.png",
        "entry": 143311,
        "entry_name": "BBC XI",
        "event_total": 71,
        "has_played": true,
        "id": 937581,
        "last_rank": 7375,
        "player_name": "Kevin Destefano",
        "rank": 4385,
        "rank_sort": 4386,
        "total": 2418
      },
      {
        "club_badge_src": null,
        "entry": 401270,
        "entry_name": "Trap 4 Allstars",
        "event_total": 73,
        "has_played": true,
        "id": 2690721,
        "last_rank": 6927,
        "player_name": "Phil Cosgrove",
        "rank": 4385,
        "rank_sort": 4387,
        "total": 2418
      },
      {
        "club_badge_src": null,
        "entry": 627126,
        "entry_name": "eze does it",
        "event_total": 53,
        "has_played": true,
        "id": 4237826,
        "last_rank": 3350,
        "player_name": "Tim Gunter",
        "rank": 4385,
        "rank_sort": 4388,
        "total": 2418
      },
      {
        "club_badge_src": null,
        "entry": 629085,
        "entry_name": "Hakuna Mateta",
        "event_total": 71,
        "has_played": true,
        "id": 4251044,
        "last_rank": 7535,
        "player_name": "Nathan Woods",
        "rank": 4385,
        "rank_sort": 4389,
        "total": 2418
      },
      {
        "club_badge_src": null,
        "entry": 1119360,
        "entry_name": "BB",
        "event_total": 63,
        "has_played": true,
        "id": 7753682,
        "last_rank": 4413,
        "player_name": "Emil Andersson",
        "rank": 4385,
        "rank_sort": 4390,
        "total": 2418
      },
      {
        "club_badge_src": null,
        "entry": 2569065,
        "entry_name": "M\u00e5llaget",
        "event_total": 61,
        "has_played": true,
        "id": 18431247,
        "last_rank": 4007,
        "player_name": "Terje Skarb\u00f8",
        "rank": 4385,
        "rank_sort": 4391,
        "total": 2418
      },
      {
        "club_badge_src": null,
        "entry": 4784571,
        "entry_name": "SavierosFC",
        "event_total": 63,
        "has_played": true,
        "id": 36832741,
        "last_rank": 5335,
        "player_name": "Denis Savic",
        "rank": 4385,
        "rank_sort": 4392,
        "total": 2418
      },
      {
        "club_badge_src": null,
        "entry": 5544904,
        "entry_name": "goldengroup",
        "event_total": 57,
        "has_played": true,
        "id": 43270285,
        "last_rank": 4015,
        "player_name": "Aaron Yuan",
        "rank": 4385,
        "rank_sort": 4393,
        "total": 2418
      },
      {
        "club_badge_src": null,
        "entry": 5576900,
        "entry_name": "Pass the Zubi",
        "event_total": 54,
        "has_played": true,
        "id": 43553197,
        "last_rank": 3482,
        "player_name": "Ben Healey-Smith",
        "rank": 4385,
        "rank_sort": 4394,
        "total": 2418
      },
      {
        "club_badge_src": null,
        "entry": 7359646,
        "entry_name": "Jude\u2019s Team",
        "event_total": 56,
        "has_played": true,
        "id": 59638922,
        "last_rank": 3192,
        "player_name": "Beth Smith",
        "rank": 4385,
        "rank_sort": 4395,
        "total": 2418
      },
      {
        "club_badge_src": null,
        "entry": 9172403,
        "entry_name": "Not Isakly Sure",
        "event_total": 50,
        "has_played": true,
        "id": 77161115,
        "last_rank": 2907,
        "player_name": "Sohaib Rabani",
        "rank": 4385,
        "rank_sort": 4396,
        "total": 2418
      },
      {
        "club_badge_src": "https://fantasy.premierleague.com/gcs/plfpl-production-adobe-approved/plfpl-production/138992/b4451d8b-5386-457d-adb9-7c882d213e69.png",
        "entry": 138992,
        "entry_name": "Berocca Juniors",
        "event_total": 57,
        "has_played": true,
        "id": 906981,
        "last_rank": 3350,
        "player_name": "Mike Cox",
        "rank": 4397,
        "rank_sort": 4397,
        "total": 2418
      },
      {
        "club_badge_src": null,
        "entry": 2172977,
        "entry_name": "Shashwot FC",
        "event_total": 61,
        "has_played": true,
        "id": 15450968,
        "last_rank": 4889,
        "player_name": "Shashwot Niraula",
        "rank": 4397,
        "rank_sort": 4398,
        "total": 2418
      },
      {
        "club_badge_src": "https://fantasy.premierleague.com/gcs/plfpl-production-adobe-approved/plfpl-production/3534353/7c8fd7c1-c42c-4437-a011-d77b5ce541b2.png",
        "entry": 3534353,
        "entry_name": "Balding's Nibblers",
        "event_total": 59,
        "has_played": true,
        "id": 26306332,
        "last_rank": 4431,
        "player_name": "Jake Thompson",
        "rank": 4397,
        "rank_sort": 4399,
        "total": 2418
      },
      {
        "club_badge_src": "https://fantasy.premierleague.com/gcs/plfpl-production-adobe-approved/plfpl-production/8093147/355b9c06-d943-4448-908a-676d74137def.png",
        "entry": 8093147,
        "entry_name": "\u062f\u064a\u064a\u0632\u0644",
        "event_total": 73,
        "has_played": true,
        "id": 66737374,
        "last_rank": 6949,
        "player_name": "SAJAD Al-Moussawi",
        "rank": 4397,
        "rank_sort": 4400,
        "total": 2418
      }
    ]
  }
}