{
  "last_updated_data": "2026-05-24T23:28:17Z",
  "league": {
    "admin_entry": null,
    "closed": false,
    "code_privacy": "p",
    "created": "2025-07-20T23:14:33.933835Z",
    "cup_league": 2815434,
    "has_cup": true,
    "id": 314,
    "league_type": "s",
    "max_entries": null,
    "name": "Overall",
    "rank": null,
    "scoring": "c",
    "start_event": 1
  },
  "new_entries": {
    "has_next": false,
    "page": 1,
    "results": []
  },
  "standings": {
    "has_next": true,
    "page": 467,
    "results": [
      {
        "club_badge_src": null,
        "entry": 401999,
        "entry_name": "Rolls Reus",
        "event_total": 44,
        "has_played": true,
        "id": 2695512,
        "last_rank": 14102,
        "player_name": "Mark Stone",
        "rank": 23275,
        "rank_sort": 23301,
        "total": 2376
      },
      {
        "club_badge_src": null,
        "entry": 466095,
        "entry_name": "Muhammad",
        "event_total": 69,
        "has_played": true,
        "id": 3127131,
        "last_rank": 34578,
        "player_name": "Mhamad Ahmad",
        "rank": 23275,
        "rank_sort": 23302,
        "total": 2376
      },
      {
        "club_badge_src": null,
        "entry": 556585,
        "entry_name": "FC ViOn",
        "event_total": 50,
        "has_played": true,
        "id": 3745849,
        "last_rank": 17802,
        "player_name": "mark clarke",
        "rank": 23275,
        "rank_sort": 23303,
        "total": 2376
      },
      {
        "club_badge_src": "https://fantasy.premierleague.com/gcs/plfpl-production-adobe-approved/plfpl-production/638727/c1a1278c-d562-4cef-8d21-ae2bb784199c.png",
        "entry": 638727,
        "entry_name": "Thats what she S\u00e1 id",
        "event_total": 58,
        "has_played": true,
        "id": 4316747,
        "last_rank": 23656,
        "player_name": "Ben Stanley",
        "rank": 23275,
        "rank_sort": 23304,
        "total": 2376
      },
      {
        "club_badge_src": null,
        "entry": 656228,
        "entry_name": "ekitiki-taka",
        "event_total": 53,
        "has_played": true,
        "id": 4434823,
        "last_rank": 19904,
        "player_name": "Graham Patterson",
        "rank": 23275,
        "rank_sort": 23305,
        "total": 2376
      },
      {
        "club_badge_src": null,
        "entry": 691809,
        "entry_name": "tikamasala",
        "event_total": 56,
        "has_played": true,
        "id": 4684937,
        "last_rank": 22154,
        "player_name": "gurdip basra",
        "rank": 23275,
        "rank_sort": 23306,
        "total": 2376
      },
      {
        "club_badge_src": null,
        "entry": 701728,
        "entry_name": "El Tabib",
        "event_total": 45,
        "has_played": true,
        "id": 4754712,
        "last_rank": 12420,
        "player_name": "Ahmed Sakr",
        "rank": 23275,
        "rank_sort": 23307,
        "total": 2376
      },
      {
        "club_badge_src": "https://fantasy.premierleague.com/gcs/plfpl-production-adobe-approved/plfpl-production/824963/8b36560b-57b2-421e-975c-2e7d219a0464.png",
        "entry": 824963,
        "entry_name": "Nefti Hoppers XI \u2b50\ufe0f",
        "event_total": 69,
        "has_played": true,
        "id": 5650063,
        "last_rank": 26088,
        "player_name": "Mischi Meier",
        "rank": 23275,
        "rank_sort": 23308,
        "total": 2376
      },
      {
        "club_badge_src": "https://fantasy.premierleague.com/gcs/plfpl-production-adobe-approved/plfpl-production/878549/f476f02d-c367-455e-95ee-0be347723b2f.png",
        "entry": 878549,
        "entry_name": "PALMETTO",
        "event_total": 55,
        "has_played": true,
        "id": 6024194,
        "last_rank": 15694,
        "player_name": "Pongsapat Maunsudjai",
        "rank": 23275,
        "rank_sort": 23309,
        "total": 2376
      },
      {
        "club_badge_src": null,
        "entry": 899567,
        "entry_name": "AtaDanta BC",
        "event_total": 69,
        "has_played": true,
        "id": 6180862,
        "last_rank": 29904,
        "player_name": "Daniel McMinn",
        "rank": 23275,
        "rank_sort": 23310,
        "total": 2376
      },
      {
        "club_badge_src": null,
        "entry": 900128,
        "entry_name": "MoKuchKerkez",
        "event_total": 61,
        "has_played": true,
        "id": 6184739,
        "last_rank": 22685,
        "player_name": "Vaibhav Sharma",
        "rank": 23275,
        "rank_sort": 23311,
        "total": 2376
      },
      {
        "club_badge_src": "https://fantasy.premierleague.com/gcs/plfpl-production-adobe-approved/plfpl-production/1325665/85d03818-911c-4adc-a8c4-97bc373252b7.png",
        "entry": 1325665,
        "entry_name": "Gunners",
        "event_total": 33,
        "has_played": true,
        "id": 9214735,
        "last_rank": 8977,
        "player_name": "Ziad Kokhon",
        "rank": 23275,
        "rank_sort": 23312,
        "total": 2376
      },
      {
        "club_badge_src": null,
        "entry": 1699828,
        "entry_name": "GFC",
        "event_total": 59,
        "has_played": true,
        "id": 11906661,
        "last_rank": 21301,
        "player_name": "Jonas Reiers1",
        "rank": 23275,
        "rank_sort": 23313,
        "total": 2376
      },
      {
        "club_badge_src": null,
        "entry": 1737940,
        "entry_name": "\u0628\u0627 \u062f\u062f\u0651\u064a \u064a\u0627 \u064a\u0651\u0648\u0648",
        "event_total": 46,
        "has_played": true,
        "id": 12192807,
        "last_rank": 15280,
        "player_name": "Niddaa Hassan",
        "rank": 23275,
        "rank_sort": 23314,
        "total": 2376
      },
      {
        "club_badge_src": null,
        "entry": 1771050,
        "entry_name": "Livin Saliba Loca",
        "event_total": 57,
        "has_played": true,
        "id": 12441240,
        "last_rank": 19835,
        "player_name": "James Procter",
        "rank": 23275,
        "rank_sort": 23315,
        "total": 2376
      },
      {
        "club_badge_src": null,
        "entry": 1860556,
        "entry_name": "Mahmoud Elshabrawy",
        "event_total": 68,
        "has_played": true,
        "id": 13095091,
        "last_rank": 33483,
        "player_name": "Mahmoud Elshabrawy",
        "rank": 23275,
        "rank_sort": 23316,
        "total": 2376
      },
      {
        "club_badge_src": null,
        "entry": 1874811,
        "entry_name": "lotus",
        "event_total": 55,
        "has_played": true,
        "id": 13199571,
        "last_rank": 21392,
        "player_name": "Olivier Gilissen",
        "rank": 23275,
        "rank_sort": 23317,
        "total": 2376
      },
      {
        "club_badge_src": null,
        "entry": 1976286,
        "entry_name": "GOOD CHELSEA",
        "event_total": 51,
        "has_played": true,
        "id": 13950218,
        "last_rank": 18475,
        "player_name": "Ari A",
        "rank": 23275,
        "rank_sort": 23318,
        "total": 2376
      },
      {
        "club_badge_src": null,
        "entry": 2127257,
        "entry_name": "Worzels Turnips",
        "event_total": 37,
        "has_played": true,
        "id": 15115072,
        "last_rank": 10600,
        "player_name": "Kieran Smith",
        "rank": 23275,
        "rank_sort": 23319,
        "total": 2376
      },
      {
        "club_badge_src": "https://fantasy.premierleague.com/gcs/plfpl-production-adobe-approved/plfpl-production/2182247/89c44305-5c8d-450c-abd2-f9af902f18a7.png",
        "entry": 2182247,
        "entry_name": "Relur FC",
        "event_total": 67,
        "has_played": true,
        "id": 15521733,
        "last_rank": 28150,
        "player_name": "Terje Skaarud",
        "rank": 23275,
        "rank_sort": 23320,
        "total": 2376
      },
      {
        "club_badge_src": "https://fantasy.premierleague.com/gcs/plfpl-production-adobe-approved/plfpl-production/2252423/55fa3796-1ef7-4a11-915f-b79a85f6e123.png",
        "entry": 2252423,
        "entry_name": "Tigrovi Nedeli\u0161\u0107e",
        "event_total": 60,
        "has_played": true,
        "id": 16051817,
        "last_rank": 22064,
        "player_name": "Manuel Marcec",
        "rank": 23275,
        "rank_sort": 23321,
        "total": 2376
      },
      {
        "club_badge_src": null,
        "entry": 2347338,
        "entry_name": "34116",
        "event_total": 69,
        "has_played": true,
        "id": 16749065,
        "last_rank": 30060,
        "player_name": "Abo Fahad",
        "rank": 23275,
        "rank_sort": 23322,
        "total": 2376
      },
      {
        "club_badge_src": null,
        "entry": 2364729,
        "entry_name": "FC LASARON",
        "event_total": 68,
        "has_played": true,
        "id": 16878715,
        "last_rank": 28906,
        "player_name": "mads Klo Johnsen",
        "rank": 23275,
        "rank_sort": 23323,
        "total": 2376
      },
      {
        "club_badge_src": null,
        "entry": 2481281,
        "entry_name": "Emksejo",
        "event_total": 67,
        "has_played": true,
        "id": 17754440,
        "last_rank": 24330,
        "player_name": "TEMK Sejo",
        "rank": 23275,
        "rank_sort": 23324,
        "total": 2376
      },
      {
        "club_badge_src": null,
        "entry": 2574370,
        "entry_name": "Crouch Potato",
        "event_total": 61,
        "has_played": true,
        "id": 18474268,
        "last_rank": 26230,
        "player_name": "Rhys Lilly",
        "rank": 23275,
        "rank_sort": 23325,
        "total": 2376
      },
      {
        "club_badge_src": null,
        "entry": 2621478,
        "entry_name": "Sheeeeeeeeit",
        "event_total": 67,
        "has_played": true,
        "id": 18836474,
        "last_rank": 28150,
        "player_name": "Peder Holm",
        "rank": 23275,
        "rank_sort": 23326,
        "total": 2376
      },
      {
        "club_badge_src": null,
        "entry": 2730605,
        "entry_name": "Change Name",
        "event_total": 68,
        "has_played": true,
        "id": 19649962,
        "last_rank": 33483,
        "player_name": "Gasha ----dasa",
        "rank": 23275,
        "rank_sort": 23327,
        "total": 2376
      },
      {
        "club_badge_src": "https://fantasy.premierleague.com/gcs/plfpl-production-adobe-approved/plfpl-production/2778990/449224e3-fc82-4faa-8d0b-0ce6a93fb0c1.png",
        "entry": 2778990,
        "entry_name": "wirtz nightmare",
        "event_total": 68,
        "has_played": true,
        "id": 20281572,
        "last_rank": 33483,
        "player_name": "Inger Lise Toennesen",
        "rank": 23275,
        "rank_sort": 23328,
        "total": 2376
      },
      {
        "club_badge_src": "https://fantasy.premierleague.com/gcs/plfpl-production-adobe-approved/plfpl-production/2864897/0fef0026-09c4-499a-acd2-a099afef8af0.png",
        "entry": 2864897,
        "entry_name": "Behind the Mask",
        "event_total": 61,
        "has_played": true,
        "id": 20952810,
        "last_rank": 26345,
        "player_name": "Christopher Chuffart",
        "rank": 23275,
        "rank_sort": 23329,
        "total": 2376
      },
      {
        "club_badge_src": null,
        "entry": 3085409,
        "entry_name": "Jimbos Bullies",
        "event_total": 69,
        "has_played": true,
        "id": 22732609,
        "last_rank": 34578,
        "player_name": "James Maranzano",
        "rank": 23275,
        "rank_sort": 23330,
        "total": 2376
      },
      {
        "club_badge_src": null,
        "entry": 3132502,
        "entry_name": "Tonali Ramen",
        "event_total": 68,
        "has_played": true,
        "id": 23121684,
        "last_rank": 25172,
        "player_name": "Varun Baldev",
        "rank": 23275,
        "rank_sort": 23331,
        "total": 2376
      },
      {
        "club_badge_src": null,
        "entry": 3300789,
        "entry_name": "Leeds Athletic",
        "event_total": 74,
        "has_played": true,
        "id": 24446879,
        "last_rank": 40647,
        "player_name": "Kellyann Leeds",
        "rank": 23275,
        "rank_sort": 23332,
        "total": 2376
      },
      {
        "club_badge_src": "https://fantasy.premierleague.com/gcs/plfpl-production-adobe-approved/plfpl-production/3419517/e93b924d-2736-40fb-a45e-56bdffa00b4a.png",
        "entry": 3419517,
        "entry_name": "Parmageddon FC",
        "event_total": 67,
        "has_played": true,
        "id": 25399752,
        "last_rank": 31995,
        "player_name": "parmjit Chohan",
        "rank": 23275,
        "rank_sort": 23333,
        "total": 2376
      },
      {
        "club_badge_src": null,
        "entry": 3449479,
        "entry_name": "H2med-70",
        "event_total": 51,
        "has_played": true,
        "id": 25633419,
        "last_rank": 18475,
        "player_name": "H2med Alaisari",
        "rank": 23275,
        "rank_sort": 23334,
        "total": 2376
      },
      {
        "club_badge_src": null,
        "entry": 3515220,
        "entry_name": "FPL Clueless",
        "event_total": 68,
        "has_played": true,
        "id": 26157560,
        "last_rank": 29071,
        "player_name": "Earl Africa",
        "rank": 23275,
        "rank_sort": 23335,
        "total": 2376
      },
      {
        "club_badge_src": "https://fantasy.premierleague.com/gcs/plfpl-production-adobe-approved/plfpl-production/3887493/827571a9-ae27-4803-90e2-97d5407f7efc.png",
        "entry": 3887493,
        "entry_name": "Viktorious",
        "event_total": 67,
        "has_played": true,
        "id": 29212024,
        "last_rank": 32335,
        "player_name": "Beth Childs",
        "rank": 23275,
        "rank_sort": 23336,
        "total": 2376
      },
      {
        "club_badge_src": null,
        "entry": 4014874,
        "entry_name": "FC CHAMP",
        "event_total": 67,
        "has_played": true,
        "id": 30255097,
        "last_rank": 28150,
        "player_name": "Oscar Gustafsson",
        "rank": 23275,
        "rank_sort": 23337,
        "total": 2376
      },
      {
        "club_badge_src": null,
        "entry": 4021253,
        "entry_name": "slotface",
        "event_total": 54,
        "has_played": true,
        "id": 30307912,
        "last_rank": 20624,
        "player_name": "Per Valvatne",
        "rank": 23275,
        "rank_sort": 23338,
        "total": 2376
      },
      {
        "club_badge_src": null,
        "entry": 4055028,
        "entry_name": "Super John McGinn",
        "event_total": 68,
        "has_played": true,
        "id": 30595653,
        "last_rank": 33332,
        "player_name": "Louise Innes",
        "rank": 23275,
        "rank_sort": 23339,
        "total": 2376
      },
      {
        "club_badge_src": null,
        "entry": 4182237,
        "entry_name": "Arteta's Successor",
        "event_total": 58,
        "has_played": true,
        "id": 31641403,
        "last_rank": 23748,
        "player_name": "Hugh Clarke",
        "rank": 23275,
        "rank_sort": 23340,
        "total": 2376
      },
      {
        "club_badge_src": "https://fantasy.premierleague.com/gcs/plfpl-production-adobe-approved/plfpl-production/4191632/8d8fb52f-5013-463f-b2ab-9a5a09db6fd5.png",
        "entry": 4191632,
        "entry_name": "Saka Potatoes",
        "event_total": 82,
        "has_played": true,
        "id": 31720033,
        "last_rank": 45714,
        "player_name": "Ian Naidoo",
        "rank": 23275,
        "rank_sort": 23341,
        "total": 2376
      },
      {
        "club_badge_src": "https://fantasy.premierleague.com/gcs/plfpl-production-adobe-approved/plfpl-production/4325377/bbb1fc12-b6d2-4a9a-b88c-3db9ff56c85d.png",
        "entry": 4325377,
        "entry_name": "Charlies Angels",
        "event_total": 55,
        "has_played": true,
        "id": 32827815,
        "last_rank": 21301,
        "player_name": "Glenn Bowen",
        "rank": 23275,
        "rank_sort": 23342,
        "total": 2376
      },
      {
        "club_badge_src": null,
        "entry": 4556573,
        "entry_name": "Substandard Liege",
        "event_total": 72,
        "has_played": true,
        "id": 34768692,
        "last_rank": 38163,
        "player_name": "David Rowley",
        "rank": 23275,
        "rank_sort": 23343,
        "total": 2376
      },
      {
        "club_badge_src": null,
        "entry": 4586651,
        "entry_name": "Real Sosobad",
        "event_total": 61,
        "has_played": true,
        "id": 35020243,
        "last_rank": 26345,
        "player_name": "Kris Hemsworth",
        "rank": 23275,
        "rank_sort": 23344,
        "total": 2376
      },
      {
        "club_badge_src": null,
        "entry": 4832760,
        "entry_name": "Change Name",
        "event_total": 72,
        "has_played": true,
        "id": 37223455,
        "last_rank": 38016,
        "player_name": "Farhan Khan",
        "rank": 23275,
        "rank_sort": 23345,
        "total": 2376
      },
      {
        "club_badge_src": null,
        "entry": 4869699,
        "entry_name": "RICE RICE BABY",
        "event_total": 77,
        "has_played": true,
        "id": 37534283,
        "last_rank": 44672,
        "player_name": "Faisal Als",
        "rank": 23275,
        "rank_sort": 23346,
        "total": 2376
      },
      {
        "club_badge_src": null,
        "entry": 5096433,
        "entry_name": "EOR",
        "event_total": 62,
        "has_played": true,
        "id": 39391580,
        "last_rank": 27304,
        "player_name": "Eilis O Reilly",
        "rank": 23275,
        "rank_sort": 23347,
        "total": 2376
      },
      {
        "club_badge_src": null,
        "entry": 5257055,
        "entry_name": "Yoro wizard Harry",
        "event_total": 89,
        "has_played": true,
        "id": 40744235,
        "last_rank": 56708,
        "player_name": "Oscar Webb",
        "rank": 23275,
        "rank_sort": 23348,
        "total": 2376
      },
      {
        "club_badge_src": null,
        "entry": 6352410,
        "entry_name": "Nichols XI",
        "event_total": 55,
        "has_played": true,
        "id": 50500878,
        "last_rank": 21392,
        "player_name": "Lee Nichols",
        "rank": 23275,
        "rank_sort": 23349,
        "total": 2376
      },
      {
        "club_badge_src": null,
        "entry": 6432946,
        "entry_name": "Haa La Land",
        "event_total": 52,
        "has_played": true,
        "id": 51211186,
        "last_rank": 19103,
        "player_name": "Lewis Tang",
        "rank": 23275,
        "rank_sort": 23350,
        "total": 2376
      }
    ]
  }
}