{
  "last_updated_data": "2026-05-24T23:28:17Z",
  "league": {
    "admin_entry": null,
    "closed": false,
    "code_privacy": "p",
    "created": "2025-07-20T23:14:33.933835Z",
    "cup_league": 2815434,
    "has_cup": true,
    "id": 314,
    "league_type": "s",
    "max_entries": null,
    "name": "Overall",
    "rank": null,
    "scoring": "c",
    "start_event": 1
  },
  "new_entries": {
    "has_next": false,
    "page": 1,
    "results": []
  },
  "standings": {
    "has_next": true,
    "page": 1252,
    "results": [
      {
        "club_badge_src": null,
        "entry": 993065,
        "entry_name": "Longcountry FC",
        "event_total": 53,
        "has_played": true,
        "id": 6849556,
        "last_rank": 56369,
        "player_name": "Stian Rodriguez",
        "rank": 62426,
        "rank_sort": 62551,
        "total": 2344
      },
      {
        "club_badge_src": null,
        "entry": 997863,
        "entry_name": "Chansiri pls go FC",
        "event_total": 62,
        "has_played": true,
        "id": 6894077,
        "last_rank": 73038,
        "player_name": "Jack Shortland",
        "rank": 62426,
        "rank_sort": 62552,
        "total": 2344
      },
      {
        "club_badge_src": null,
        "entry": 1013065,
        "entry_name": "This is Eze",
        "event_total": 50,
        "has_played": true,
        "id": 7008076,
        "last_rank": 51720,
        "player_name": "Darcy Williams",
        "rank": 62426,
        "rank_sort": 62553,
        "total": 2344
      },
      {
        "club_badge_src": null,
        "entry": 1016807,
        "entry_name": "FC 127allesgeven",
        "event_total": 57,
        "has_played": true,
        "id": 7034373,
        "last_rank": 63724,
        "player_name": "Leander Hallaert",
        "rank": 62426,
        "rank_sort": 62554,
        "total": 2344
      },
      {
        "club_badge_src": null,
        "entry": 1032215,
        "entry_name": "Sekkhamana",
        "event_total": 43,
        "has_played": true,
        "id": 7141661,
        "last_rank": 41324,
        "player_name": "Chhourn Puthi Ratana",
        "rank": 62426,
        "rank_sort": 62555,
        "total": 2344
      },
      {
        "club_badge_src": null,
        "entry": 1035872,
        "entry_name": "Bonwa fc",
        "event_total": 62,
        "has_played": true,
        "id": 7168348,
        "last_rank": 73038,
        "player_name": "Boniface Gikonyo",
        "rank": 62426,
        "rank_sort": 62556,
        "total": 2344
      },
      {
        "club_badge_src": null,
        "entry": 1038067,
        "entry_name": "3del-Mostafa",
        "event_total": 61,
        "has_played": true,
        "id": 7183548,
        "last_rank": 70985,
        "player_name": "Adel Sleem",
        "rank": 62426,
        "rank_sort": 62557,
        "total": 2344
      },
      {
        "club_badge_src": null,
        "entry": 1061619,
        "entry_name": "Postolar Trippier",
        "event_total": 66,
        "has_played": true,
        "id": 7349041,
        "last_rank": 81646,
        "player_name": "Lovre Kosanovic",
        "rank": 62426,
        "rank_sort": 62558,
        "total": 2344
      },
      {
        "club_badge_src": null,
        "entry": 1063599,
        "entry_name": "boygunners",
        "event_total": 67,
        "has_played": true,
        "id": 7362938,
        "last_rank": 83934,
        "player_name": "Soranai Supanrattanarat",
        "rank": 62426,
        "rank_sort": 62559,
        "total": 2344
      },
      {
        "club_badge_src": "https://fantasy.premierleague.com/gcs/plfpl-production-adobe-approved/plfpl-production/1071058/8d415006-9073-43a5-9eb8-b4793c79db6a.png",
        "entry": 1071058,
        "entry_name": "SIMO ASKARY",
        "event_total": 73,
        "has_played": true,
        "id": 7414892,
        "last_rank": 98436,
        "player_name": "Simo Chahid",
        "rank": 62426,
        "rank_sort": 62560,
        "total": 2344
      },
      {
        "club_badge_src": null,
        "entry": 1072017,
        "entry_name": "Avestruzes",
        "event_total": 52,
        "has_played": true,
        "id": 7421538,
        "last_rank": 55014,
        "player_name": "Hugo Balonz",
        "rank": 62426,
        "rank_sort": 62561,
        "total": 2344
      },
      {
        "club_badge_src": null,
        "entry": 1081834,
        "entry_name": "Tiki Taco FC",
        "event_total": 61,
        "has_played": true,
        "id": 7490781,
        "last_rank": 70985,
        "player_name": "Nic Pua",
        "rank": 62426,
        "rank_sort": 62562,
        "total": 2344
      },
      {
        "club_badge_src": null,
        "entry": 1085419,
        "entry_name": "RVG FC",
        "event_total": 61,
        "has_played": true,
        "id": 7516897,
        "last_rank": 70757,
        "player_name": "Rich van Gelder",
        "rank": 62426,
        "rank_sort": 62563,
        "total": 2344
      },
      {
        "club_badge_src": null,
        "entry": 1103783,
        "entry_name": "Wirtz of Wall Street",
        "event_total": 67,
        "has_played": true,
        "id": 7645561,
        "last_rank": 83698,
        "player_name": "Pon Wong",
        "rank": 62426,
        "rank_sort": 62564,
        "total": 2344
      },
      {
        "club_badge_src": null,
        "entry": 1144574,
        "entry_name": "FPL and Inshallah",
        "event_total": 62,
        "has_played": true,
        "id": 7934099,
        "last_rank": 72702,
        "player_name": "Nishanta Baral",
        "rank": 62426,
        "rank_sort": 62565,
        "total": 2344
      },
      {
        "club_badge_src": null,
        "entry": 1147563,
        "entry_name": "KP United",
        "event_total": 65,
        "has_played": true,
        "id": 7956576,
        "last_rank": 79431,
        "player_name": "Sean Kirkpatrick",
        "rank": 62426,
        "rank_sort": 62566,
        "total": 2344
      },
      {
        "club_badge_src": null,
        "entry": 1150431,
        "entry_name": "\u00c1fram Kamrater",
        "event_total": 45,
        "has_played": true,
        "id": 7976650,
        "last_rank": 43849,
        "player_name": "Viktor Waernqvist",
        "rank": 62426,
        "rank_sort": 62567,
        "total": 2344
      },
      {
        "club_badge_src": null,
        "entry": 1153358,
        "entry_name": "Hope he's Wirtz it",
        "event_total": 40,
        "has_played": true,
        "id": 7997506,
        "last_rank": 37589,
        "player_name": "Stephen O Donovan",
        "rank": 62426,
        "rank_sort": 62568,
        "total": 2344
      },
      {
        "club_badge_src": null,
        "entry": 1162459,
        "entry_name": "BEFC",
        "event_total": 77,
        "has_played": true,
        "id": 8063874,
        "last_rank": 108689,
        "player_name": "Leon Le",
        "rank": 62426,
        "rank_sort": 62569,
        "total": 2344
      },
      {
        "club_badge_src": null,
        "entry": 1164229,
        "entry_name": "Sud4cris",
        "event_total": 75,
        "has_played": true,
        "id": 8076318,
        "last_rank": 103130,
        "player_name": "Stephen Sudac",
        "rank": 62426,
        "rank_sort": 62570,
        "total": 2344
      },
      {
        "club_badge_src": null,
        "entry": 1178888,
        "entry_name": "GxZ",
        "event_total": 62,
        "has_played": true,
        "id": 8179655,
        "last_rank": 73038,
        "player_name": "Matthew Mangelli",
        "rank": 62426,
        "rank_sort": 62571,
        "total": 2344
      },
      {
        "club_badge_src": null,
        "entry": 1179609,
        "entry_name": "Sportwash Athletic",
        "event_total": 52,
        "has_played": true,
        "id": 8184607,
        "last_rank": 54667,
        "player_name": "Magnus Jevne",
        "rank": 62426,
        "rank_sort": 62572,
        "total": 2344
      },
      {
        "club_badge_src": null,
        "entry": 1179762,
        "entry_name": "Sunshine FC",
        "event_total": 54,
        "has_played": true,
        "id": 8185645,
        "last_rank": 57857,
        "player_name": "Taneli Tahkola",
        "rank": 62426,
        "rank_sort": 62573,
        "total": 2344
      },
      {
        "club_badge_src": null,
        "entry": 1179825,
        "entry_name": "Temu Werner",
        "event_total": 62,
        "has_played": true,
        "id": 8186062,
        "last_rank": 64830,
        "player_name": "Chris Murphy",
        "rank": 62426,
        "rank_sort": 62574,
        "total": 2344
      },
      {
        "club_badge_src": null,
        "entry": 1265339,
        "entry_name": "Lisan al-Goat",
        "event_total": 60,
        "has_played": true,
        "id": 8791727,
        "last_rank": 68957,
        "player_name": "Aasim Ahmed",
        "rank": 62426,
        "rank_sort": 62575,
        "total": 2344
      },
      {
        "club_badge_src": null,
        "entry": 1272295,
        "entry_name": "lundhs FC",
        "event_total": 54,
        "has_played": true,
        "id": 8840394,
        "last_rank": 58071,
        "player_name": "Elmer Lundh",
        "rank": 62426,
        "rank_sort": 62576,
        "total": 2344
      },
      {
        "club_badge_src": null,
        "entry": 1281679,
        "entry_name": "Ravers Rovers",
        "event_total": 58,
        "has_played": true,
        "id": 8906008,
        "last_rank": 64830,
        "player_name": "Sean Ravenscroft",
        "rank": 62426,
        "rank_sort": 62577,
        "total": 2344
      },
      {
        "club_badge_src": null,
        "entry": 1306330,
        "entry_name": "Bimmels Boldspillere",
        "event_total": 64,
        "has_played": true,
        "id": 9079859,
        "last_rank": 76885,
        "player_name": "Thor Fennell",
        "rank": 62426,
        "rank_sort": 62578,
        "total": 2344
      },
      {
        "club_badge_src": "https://fantasy.premierleague.com/gcs/plfpl-production-adobe-approved/plfpl-production/1314680/a4ecc662-64e5-43d3-92de-8d2260fb3d2a.png",
        "entry": 1314680,
        "entry_name": "Salt 'N' Pep",
        "event_total": 60,
        "has_played": true,
        "id": 9137727,
        "last_rank": 68624,
        "player_name": "Dau Dau",
        "rank": 62426,
        "rank_sort": 62579,
        "total": 2344
      },
      {
        "club_badge_src": null,
        "entry": 1357856,
        "entry_name": "Awobba Bobb Bobb",
        "event_total": 62,
        "has_played": true,
        "id": 9438659,
        "last_rank": 72815,
        "player_name": "Freddie Moss",
        "rank": 62426,
        "rank_sort": 62580,
        "total": 2344
      },
      {
        "club_badge_src": null,
        "entry": 1369596,
        "entry_name": "RedPlanet XI",
        "event_total": 52,
        "has_played": true,
        "id": 9520435,
        "last_rank": 55014,
        "player_name": "Geoff Liddle",
        "rank": 62426,
        "rank_sort": 62581,
        "total": 2344
      },
      {
        "club_badge_src": null,
        "entry": 1414931,
        "entry_name": "Puppies & Gittens",
        "event_total": 57,
        "has_played": true,
        "id": 9848382,
        "last_rank": 63390,
        "player_name": "Jordan Doyle",
        "rank": 62426,
        "rank_sort": 62582,
        "total": 2344
      },
      {
        "club_badge_src": "https://fantasy.premierleague.com/gcs/plfpl-production-adobe-approved/plfpl-production/1437777/1c2c9b33-80e4-4b00-8991-c87c250ea035.png",
        "entry": 1437777,
        "entry_name": "UberrimaFides",
        "event_total": 39,
        "has_played": true,
        "id": 10018404,
        "last_rank": 36348,
        "player_name": "Bjorn Bauer",
        "rank": 62426,
        "rank_sort": 62583,
        "total": 2344
      },
      {
        "club_badge_src": null,
        "entry": 1443335,
        "entry_name": "Reijnders keepers",
        "event_total": 72,
        "has_played": true,
        "id": 10057383,
        "last_rank": 95890,
        "player_name": "Connor Lillywhite",
        "rank": 62426,
        "rank_sort": 62584,
        "total": 2344
      },
      {
        "club_badge_src": null,
        "entry": 1454502,
        "entry_name": "Galacticos",
        "event_total": 59,
        "has_played": true,
        "id": 10135012,
        "last_rank": 67063,
        "player_name": "Stephen Williams",
        "rank": 62426,
        "rank_sort": 62585,
        "total": 2344
      },
      {
        "club_badge_src": "https://fantasy.premierleague.com/gcs/plfpl-production-adobe-approved/plfpl-production/1455036/85019914-cbc7-4397-8cd0-8da825a14491.png",
        "entry": 1455036,
        "entry_name": "Shaw Ate Dalot",
        "event_total": 64,
        "has_played": true,
        "id": 10138696,
        "last_rank": 77050,
        "player_name": "Will McGovern",
        "rank": 62426,
        "rank_sort": 62586,
        "total": 2344
      },
      {
        "club_badge_src": null,
        "entry": 1470903,
        "entry_name": "Cars and Mane",
        "event_total": 48,
        "has_played": true,
        "id": 10252953,
        "last_rank": 48197,
        "player_name": "Jason Barlow",
        "rank": 62426,
        "rank_sort": 62587,
        "total": 2344
      },
      {
        "club_badge_src": null,
        "entry": 1473979,
        "entry_name": "Far Cunha'd",
        "event_total": 60,
        "has_played": true,
        "id": 10274493,
        "last_rank": 68624,
        "player_name": "Ryan Lumby",
        "rank": 62426,
        "rank_sort": 62588,
        "total": 2344
      },
      {
        "club_badge_src": null,
        "entry": 1475974,
        "entry_name": "MafulelaFC",
        "event_total": 57,
        "has_played": true,
        "id": 10288754,
        "last_rank": 56180,
        "player_name": "Ashley Mafulela",
        "rank": 62426,
        "rank_sort": 62589,
        "total": 2344
      },
      {
        "club_badge_src": null,
        "entry": 1484105,
        "entry_name": "David Rayaheitto",
        "event_total": 49,
        "has_played": true,
        "id": 10349180,
        "last_rank": 49880,
        "player_name": "Samppa Roimela",
        "rank": 62426,
        "rank_sort": 62590,
        "total": 2344
      },
      {
        "club_badge_src": "https://fantasy.premierleague.com/gcs/plfpl-production-adobe-approved/plfpl-production/1491370/dce28849-5086-4d76-9e12-0f571d65d705.png",
        "entry": 1491370,
        "entry_name": "okoloko",
        "event_total": 66,
        "has_played": true,
        "id": 10400014,
        "last_rank": 81312,
        "player_name": "Andrew DIMARCO",
        "rank": 62426,
        "rank_sort": 62591,
        "total": 2344
      },
      {
        "club_badge_src": null,
        "entry": 1549544,
        "entry_name": "AK Big Mackem",
        "event_total": 59,
        "has_played": true,
        "id": 10818737,
        "last_rank": 67063,
        "player_name": "Paul Saunders",
        "rank": 62426,
        "rank_sort": 62592,
        "total": 2344
      },
      {
        "club_badge_src": null,
        "entry": 1556942,
        "entry_name": "AI FC",
        "event_total": 65,
        "has_played": true,
        "id": 10871832,
        "last_rank": 79431,
        "player_name": "Leon Edmond",
        "rank": 62426,
        "rank_sort": 62593,
        "total": 2344
      },
      {
        "club_badge_src": null,
        "entry": 1620956,
        "entry_name": "Mazza Hotspurs",
        "event_total": 68,
        "has_played": true,
        "id": 11344036,
        "last_rank": 85932,
        "player_name": "Marius Alfredsen",
        "rank": 62426,
        "rank_sort": 62594,
        "total": 2344
      },
      {
        "club_badge_src": null,
        "entry": 1633853,
        "entry_name": "HowIMetYourMatta",
        "event_total": 54,
        "has_played": true,
        "id": 11436155,
        "last_rank": 57857,
        "player_name": "Matthew Weeder",
        "rank": 62426,
        "rank_sort": 62595,
        "total": 2344
      },
      {
        "club_badge_src": "https://fantasy.premierleague.com/gcs/plfpl-production-adobe-approved/plfpl-production/1695735/75adcb47-0d7a-4c98-9439-5e292c5e5417.png",
        "entry": 1695735,
        "entry_name": "SK Invincibles",
        "event_total": 40,
        "has_played": true,
        "id": 11876826,
        "last_rank": 37589,
        "player_name": "Bernt Olav \u00d8kland",
        "rank": 62426,
        "rank_sort": 62596,
        "total": 2344
      },
      {
        "club_badge_src": null,
        "entry": 1731975,
        "entry_name": "Bentley City",
        "event_total": 52,
        "has_played": true,
        "id": 12148410,
        "last_rank": 54667,
        "player_name": "Sandy Calvert",
        "rank": 62426,
        "rank_sort": 62597,
        "total": 2344
      },
      {
        "club_badge_src": "https://fantasy.premierleague.com/gcs/plfpl-production-adobe-approved/plfpl-production/1831770/a1ea234f-fff4-4dcf-9f7e-45c30b7ced9d.png",
        "entry": 1831770,
        "entry_name": "Trinh Sub",
        "event_total": 47,
        "has_played": true,
        "id": 12885044,
        "last_rank": 46839,
        "player_name": "Hoang Trinh VCB",
        "rank": 62426,
        "rank_sort": 62598,
        "total": 2344
      },
      {
        "club_badge_src": null,
        "entry": 1834077,
        "entry_name": "Cunhas a ta  tu",
        "event_total": 46,
        "has_played": true,
        "id": 12901913,
        "last_rank": 45416,
        "player_name": "Gary Daly",
        "rank": 62426,
        "rank_sort": 62599,
        "total": 2344
      },
      {
        "club_badge_src": null,
        "entry": 1840415,
        "entry_name": "Murillonaires",
        "event_total": 52,
        "has_played": true,
        "id": 12948120,
        "last_rank": 55014,
        "player_name": "Theo Lennhoff",
        "rank": 62426,
        "rank_sort": 62600,
        "total": 2344
      }
    ]
  }
}