{
  "last_updated_data": "2026-05-24T23:28:17Z",
  "league": {
    "admin_entry": null,
    "closed": false,
    "code_privacy": "p",
    "created": "2025-07-20T23:14:33.933835Z",
    "cup_league": 2815434,
    "has_cup": true,
    "id": 314,
    "league_type": "s",
    "max_entries": null,
    "name": "Overall",
    "rank": null,
    "scoring": "c",
    "start_event": 1
  },
  "new_entries": {
    "has_next": false,
    "page": 1,
    "results": []
  },
  "standings": {
    "has_next": true,
    "page": 123,
    "results": [
      {
        "club_badge_src": null,
        "entry": 1759201,
        "entry_name": "El hummers",
        "event_total": 63,
        "has_played": true,
        "id": 12351198,
        "last_rank": 7310,
        "player_name": "Begole Ibrahim",
        "rank": 6063,
        "rank_sort": 6101,
        "total": 2410
      },
      {
        "club_badge_src": null,
        "entry": 1787673,
        "entry_name": "JusMan",
        "event_total": 75,
        "has_played": true,
        "id": 12560910,
        "last_rank": 12099,
        "player_name": "James Baker",
        "rank": 6063,
        "rank_sort": 6102,
        "total": 2410
      },
      {
        "club_badge_src": null,
        "entry": 1840794,
        "entry_name": "Dilamo Zagreb",
        "event_total": 49,
        "has_played": true,
        "id": 12950801,
        "last_rank": 3951,
        "player_name": "Stjepan Nikolic",
        "rank": 6063,
        "rank_sort": 6103,
        "total": 2410
      },
      {
        "club_badge_src": null,
        "entry": 1886023,
        "entry_name": "Christo4 And0",
        "event_total": 45,
        "has_played": true,
        "id": 13290031,
        "last_rank": 3257,
        "player_name": "Christopher McArthur",
        "rank": 6063,
        "rank_sort": 6104,
        "total": 2410
      },
      {
        "club_badge_src": null,
        "entry": 2749851,
        "entry_name": "Sabun Popinjay FC",
        "event_total": 66,
        "has_played": true,
        "id": 19966189,
        "last_rank": 8339,
        "player_name": "Izzy Props",
        "rank": 6063,
        "rank_sort": 6105,
        "total": 2410
      },
      {
        "club_badge_src": null,
        "entry": 2775553,
        "entry_name": "Fc Suszy",
        "event_total": 68,
        "has_played": true,
        "id": 20255269,
        "last_rank": 9089,
        "player_name": "Kuba Borowiec",
        "rank": 6063,
        "rank_sort": 6106,
        "total": 2410
      },
      {
        "club_badge_src": null,
        "entry": 2815784,
        "entry_name": "Invincibles",
        "event_total": 57,
        "has_played": true,
        "id": 20566831,
        "last_rank": 5646,
        "player_name": "Lam Chak Wing",
        "rank": 6063,
        "rank_sort": 6107,
        "total": 2410
      },
      {
        "club_badge_src": "https://fantasy.premierleague.com/gcs/plfpl-production-adobe-approved/plfpl-production/2854032/a96874b5-3564-42bc-a958-9be4203ee44c.png",
        "entry": 2854032,
        "entry_name": "Itsy Bitsy Chiellini",
        "event_total": 59,
        "has_played": true,
        "id": 20868723,
        "last_rank": 6149,
        "player_name": "Declan Roberts",
        "rank": 6063,
        "rank_sort": 6108,
        "total": 2410
      },
      {
        "club_badge_src": null,
        "entry": 3018356,
        "entry_name": "Malibu & Milik",
        "event_total": 60,
        "has_played": true,
        "id": 22207097,
        "last_rank": 6409,
        "player_name": "Chris McDonald",
        "rank": 6063,
        "rank_sort": 6109,
        "total": 2410
      },
      {
        "club_badge_src": null,
        "entry": 3073457,
        "entry_name": "Cloud Envy",
        "event_total": 69,
        "has_played": true,
        "id": 22631972,
        "last_rank": 9536,
        "player_name": "Eyuel Girma",
        "rank": 6063,
        "rank_sort": 6110,
        "total": 2410
      },
      {
        "club_badge_src": null,
        "entry": 3177082,
        "entry_name": "FC Baby Lee",
        "event_total": 59,
        "has_played": true,
        "id": 23475832,
        "last_rank": 6166,
        "player_name": "Johanna Reinikainen",
        "rank": 6063,
        "rank_sort": 6111,
        "total": 2410
      },
      {
        "club_badge_src": null,
        "entry": 3240688,
        "entry_name": "MumsAWelder FC",
        "event_total": 64,
        "has_played": true,
        "id": 23970578,
        "last_rank": 7625,
        "player_name": "Callum Baker",
        "rank": 6063,
        "rank_sort": 6112,
        "total": 2410
      },
      {
        "club_badge_src": null,
        "entry": 3359387,
        "entry_name": "Cunha see me now",
        "event_total": 59,
        "has_played": true,
        "id": 24925327,
        "last_rank": 6194,
        "player_name": "Jack Kelly",
        "rank": 6063,
        "rank_sort": 6113,
        "total": 2410
      },
      {
        "club_badge_src": null,
        "entry": 3489570,
        "entry_name": "Dan Trendaal\u2019s Army",
        "event_total": 59,
        "has_played": true,
        "id": 25951281,
        "last_rank": 6166,
        "player_name": "Dan Trendall",
        "rank": 6063,
        "rank_sort": 6114,
        "total": 2410
      },
      {
        "club_badge_src": null,
        "entry": 3798978,
        "entry_name": "fpl geten",
        "event_total": 77,
        "has_played": true,
        "id": 28397555,
        "last_rank": 13153,
        "player_name": "Anton Engberg",
        "rank": 6063,
        "rank_sort": 6115,
        "total": 2410
      },
      {
        "club_badge_src": null,
        "entry": 4171750,
        "entry_name": "UK Rangers",
        "event_total": 62,
        "has_played": true,
        "id": 31551781,
        "last_rank": 7014,
        "player_name": "Jukka Vilkki",
        "rank": 6063,
        "rank_sort": 6116,
        "total": 2410
      },
      {
        "club_badge_src": null,
        "entry": 4451606,
        "entry_name": "B\u00fcchert FC",
        "event_total": 48,
        "has_played": true,
        "id": 33906666,
        "last_rank": 3721,
        "player_name": "Bertram B\u00fcchert",
        "rank": 6063,
        "rank_sort": 6117,
        "total": 2410
      },
      {
        "club_badge_src": null,
        "entry": 4518292,
        "entry_name": "keiths11",
        "event_total": 60,
        "has_played": true,
        "id": 34456632,
        "last_rank": 6409,
        "player_name": "adam price",
        "rank": 6063,
        "rank_sort": 6118,
        "total": 2410
      },
      {
        "club_badge_src": null,
        "entry": 4657060,
        "entry_name": "Data-Driven FC",
        "event_total": 74,
        "has_played": true,
        "id": 35646594,
        "last_rank": 11599,
        "player_name": "Mathias Slettholm",
        "rank": 6063,
        "rank_sort": 6119,
        "total": 2410
      },
      {
        "club_badge_src": "https://fantasy.premierleague.com/gcs/plfpl-production-adobe-approved/plfpl-production/4677395/183965b6-ed87-41b4-9b3c-aa939b14dc84.png",
        "entry": 4677395,
        "entry_name": "YNWA212",
        "event_total": 67,
        "has_played": true,
        "id": 35835081,
        "last_rank": 8687,
        "player_name": "Driss Belmadani",
        "rank": 6063,
        "rank_sort": 6120,
        "total": 2410
      },
      {
        "club_badge_src": null,
        "entry": 4747049,
        "entry_name": "Ayo FC",
        "event_total": 60,
        "has_played": true,
        "id": 36526605,
        "last_rank": 6448,
        "player_name": "Ayowole Lasisi",
        "rank": 6063,
        "rank_sort": 6121,
        "total": 2410
      },
      {
        "club_badge_src": null,
        "entry": 4853050,
        "entry_name": "Jonathen W Utd",
        "event_total": 66,
        "has_played": true,
        "id": 37392164,
        "last_rank": 8339,
        "player_name": "Jonathen Worrell",
        "rank": 6063,
        "rank_sort": 6122,
        "total": 2410
      },
      {
        "club_badge_src": null,
        "entry": 5065481,
        "entry_name": "Owls He Managed That",
        "event_total": 62,
        "has_played": true,
        "id": 39144124,
        "last_rank": 7059,
        "player_name": "Sam T",
        "rank": 6063,
        "rank_sort": 6123,
        "total": 2410
      },
      {
        "club_badge_src": "https://fantasy.premierleague.com/gcs/plfpl-production-adobe-approved/plfpl-production/5103781/b7d0634f-519d-46b0-8270-c60bb276c1eb.png",
        "entry": 5103781,
        "entry_name": "Bedford Badgers",
        "event_total": 53,
        "has_played": true,
        "id": 39450911,
        "last_rank": 3866,
        "player_name": "Dan Biggs",
        "rank": 6063,
        "rank_sort": 6124,
        "total": 2410
      },
      {
        "club_badge_src": null,
        "entry": 5110059,
        "entry_name": "GoalDiggers",
        "event_total": 58,
        "has_played": true,
        "id": 39502931,
        "last_rank": 5940,
        "player_name": "Shailendra Pratap Singh",
        "rank": 6063,
        "rank_sort": 6125,
        "total": 2410
      },
      {
        "club_badge_src": null,
        "entry": 5317442,
        "entry_name": "Init2Wynit",
        "event_total": 67,
        "has_played": true,
        "id": 41220232,
        "last_rank": 8687,
        "player_name": "Wyn Roberts",
        "rank": 6063,
        "rank_sort": 6126,
        "total": 2410
      },
      {
        "club_badge_src": null,
        "entry": 5378077,
        "entry_name": "Saka Potatoes",
        "event_total": 79,
        "has_played": true,
        "id": 41802497,
        "last_rank": 14251,
        "player_name": "Shahan Lake",
        "rank": 6063,
        "rank_sort": 6127,
        "total": 2410
      },
      {
        "club_badge_src": null,
        "entry": 5523574,
        "entry_name": "Ice Cold Palmer",
        "event_total": 58,
        "has_played": true,
        "id": 43073770,
        "last_rank": 5904,
        "player_name": "Robert Langford",
        "rank": 6063,
        "rank_sort": 6128,
        "total": 2410
      },
      {
        "club_badge_src": null,
        "entry": 5734391,
        "entry_name": "LivinSalibaLoca",
        "event_total": 69,
        "has_played": true,
        "id": 44925962,
        "last_rank": 9459,
        "player_name": "Reuben Gavrila",
        "rank": 6063,
        "rank_sort": 6129,
        "total": 2410
      },
      {
        "club_badge_src": null,
        "entry": 5751829,
        "entry_name": "Fairleys XI",
        "event_total": 61,
        "has_played": true,
        "id": 45081695,
        "last_rank": 6752,
        "player_name": "Adam Fairley",
        "rank": 6063,
        "rank_sort": 6130,
        "total": 2410
      },
      {
        "club_badge_src": null,
        "entry": 5984284,
        "entry_name": "It Wirtz a Slot FC",
        "event_total": 61,
        "has_played": true,
        "id": 47130089,
        "last_rank": 6752,
        "player_name": "jamie symons",
        "rank": 6063,
        "rank_sort": 6131,
        "total": 2410
      },
      {
        "club_badge_src": null,
        "entry": 6018057,
        "entry_name": "n\u00f6llararnir",
        "event_total": 69,
        "has_played": true,
        "id": 47459066,
        "last_rank": 9536,
        "player_name": "N\u00f6kkvi Sm\u00e1rason",
        "rank": 6063,
        "rank_sort": 6132,
        "total": 2410
      },
      {
        "club_badge_src": null,
        "entry": 6127276,
        "entry_name": "Daipers FC",
        "event_total": 75,
        "has_played": true,
        "id": 48414194,
        "last_rank": 12141,
        "player_name": "Santosh Vish",
        "rank": 6063,
        "rank_sort": 6133,
        "total": 2410
      },
      {
        "club_badge_src": "https://fantasy.premierleague.com/gcs/plfpl-production-adobe-approved/plfpl-production/6225084/41e82697-029f-4a4e-a94a-c80c59f38105.png",
        "entry": 6225084,
        "entry_name": "Iso Hevosen Kyp\u00e4r\u00e4",
        "event_total": 53,
        "has_played": true,
        "id": 49259703,
        "last_rank": 4742,
        "player_name": "Kalle K",
        "rank": 6063,
        "rank_sort": 6134,
        "total": 2410
      },
      {
        "club_badge_src": "https://fantasy.premierleague.com/gcs/plfpl-production-adobe-approved/plfpl-production/6459554/f9cbd878-e538-4b9e-9d68-ff76446d4d6c.png",
        "entry": 6459554,
        "entry_name": "Swagger DMV",
        "event_total": 62,
        "has_played": true,
        "id": 51454763,
        "last_rank": 7059,
        "player_name": "Sukairaju Muntari",
        "rank": 6063,
        "rank_sort": 6135,
        "total": 2410
      },
      {
        "club_badge_src": null,
        "entry": 6561077,
        "entry_name": "Pain in Dias",
        "event_total": 57,
        "has_played": true,
        "id": 52365703,
        "last_rank": 5688,
        "player_name": "Liam Firth",
        "rank": 6063,
        "rank_sort": 6136,
        "total": 2410
      },
      {
        "club_badge_src": null,
        "entry": 6800399,
        "entry_name": "Tricky Ricky FC",
        "event_total": 53,
        "has_played": true,
        "id": 54459582,
        "last_rank": 4742,
        "player_name": "Rocky Santos",
        "rank": 6063,
        "rank_sort": 6137,
        "total": 2410
      },
      {
        "club_badge_src": null,
        "entry": 6928824,
        "entry_name": "Hayden Seek",
        "event_total": 58,
        "has_played": true,
        "id": 55545023,
        "last_rank": 5940,
        "player_name": "Hayden Dunbar",
        "rank": 6063,
        "rank_sort": 6138,
        "total": 2410
      },
      {
        "club_badge_src": null,
        "entry": 7019470,
        "entry_name": "Steptoe No Son",
        "event_total": 35,
        "has_played": true,
        "id": 56382546,
        "last_rank": 1978,
        "player_name": "David Allen",
        "rank": 6063,
        "rank_sort": 6139,
        "total": 2410
      },
      {
        "club_badge_src": null,
        "entry": 7286394,
        "entry_name": "Lost Dragons",
        "event_total": 53,
        "has_played": true,
        "id": 58949277,
        "last_rank": 4742,
        "player_name": "Jack Jephcote",
        "rank": 6063,
        "rank_sort": 6140,
        "total": 2410
      },
      {
        "club_badge_src": null,
        "entry": 7303433,
        "entry_name": "Jimbo Mckracken",
        "event_total": 65,
        "has_played": true,
        "id": 59109132,
        "last_rank": 6703,
        "player_name": "jimbo mckraken",
        "rank": 6063,
        "rank_sort": 6141,
        "total": 2410
      },
      {
        "club_badge_src": null,
        "entry": 7995432,
        "entry_name": "ROOBEN-AMOREEM-15",
        "event_total": 78,
        "has_played": true,
        "id": 65842555,
        "last_rank": 13702,
        "player_name": "Dominic Tee",
        "rank": 6063,
        "rank_sort": 6142,
        "total": 2410
      },
      {
        "club_badge_src": null,
        "entry": 8028372,
        "entry_name": "TheBehmTeam",
        "event_total": 55,
        "has_played": true,
        "id": 66140714,
        "last_rank": 5173,
        "player_name": "Brendan Behm",
        "rank": 6063,
        "rank_sort": 6143,
        "total": 2410
      },
      {
        "club_badge_src": null,
        "entry": 8989181,
        "entry_name": "GM's United",
        "event_total": 68,
        "has_played": true,
        "id": 75377373,
        "last_rank": 9089,
        "player_name": "Gina Merethe Skogseid",
        "rank": 6063,
        "rank_sort": 6144,
        "total": 2410
      },
      {
        "club_badge_src": null,
        "entry": 9260365,
        "entry_name": "MU92",
        "event_total": 51,
        "has_played": true,
        "id": 78023774,
        "last_rank": 4303,
        "player_name": "Yoriko Setyawan",
        "rank": 6063,
        "rank_sort": 6145,
        "total": 2410
      },
      {
        "club_badge_src": null,
        "entry": 9476337,
        "entry_name": "The counsel",
        "event_total": 50,
        "has_played": true,
        "id": 80086785,
        "last_rank": 4099,
        "player_name": "Munyoki mutua",
        "rank": 6063,
        "rank_sort": 6146,
        "total": 2410
      },
      {
        "club_badge_src": "https://fantasy.premierleague.com/gcs/plfpl-production-adobe-approved/plfpl-production/195/273c8c03-61ca-4f2e-92d6-cdd34817e7f4.png",
        "entry": 195,
        "entry_name": "Livin' Lavia Loca",
        "event_total": 68,
        "has_played": true,
        "id": 1074,
        "last_rank": 9248,
        "player_name": "Emil Bj\u00f8rn",
        "rank": 6147,
        "rank_sort": 6147,
        "total": 2410
      },
      {
        "club_badge_src": "https://fantasy.premierleague.com/gcs/plfpl-production-adobe-approved/plfpl-production/1872/8e7986aa-d05f-4bdd-a4b0-395365afc7f5.png",
        "entry": 1872,
        "entry_name": "Erlang FC",
        "event_total": 57,
        "has_played": true,
        "id": 10433,
        "last_rank": 5646,
        "player_name": "Marc El-Khoury",
        "rank": 6147,
        "rank_sort": 6148,
        "total": 2410
      },
      {
        "club_badge_src": null,
        "entry": 3984,
        "entry_name": "My Hits Don\u2019t Lie",
        "event_total": 54,
        "has_played": true,
        "id": 22593,
        "last_rank": 4062,
        "player_name": "Quinten Snaaijer",
        "rank": 6147,
        "rank_sort": 6149,
        "total": 2410
      },
      {
        "club_badge_src": "https://fantasy.premierleague.com/gcs/plfpl-production-adobe-approved/plfpl-production/8719/dbdc0493-330d-4b99-bd3b-8a743659388c.png",
        "entry": 8719,
        "entry_name": "Lommedalen Kickers",
        "event_total": 65,
        "has_played": true,
        "id": 50847,
        "last_rank": 8032,
        "player_name": "Fredrik Eide",
        "rank": 6147,
        "rank_sort": 6150,
        "total": 2410
      }
    ]
  }
}