{
  "last_updated_data": "2026-05-24T23:28:17Z",
  "league": {
    "admin_entry": null,
    "closed": false,
    "code_privacy": "p",
    "created": "2025-07-20T23:14:33.933835Z",
    "cup_league": 2815434,
    "has_cup": true,
    "id": 314,
    "league_type": "s",
    "max_entries": null,
    "name": "Overall",
    "rank": null,
    "scoring": "c",
    "start_event": 1
  },
  "new_entries": {
    "has_next": false,
    "page": 1,
    "results": []
  },
  "standings": {
    "has_next": true,
    "page": 1311,
    "results": [
      {
        "club_badge_src": null,
        "entry": 2530262,
        "entry_name": "Huge biceps",
        "event_total": 65,
        "has_played": true,
        "id": 18131092,
        "last_rank": 83018,
        "player_name": "Kyle Millingham",
        "rank": 65458,
        "rank_sort": 65501,
        "total": 2343
      },
      {
        "club_badge_src": null,
        "entry": 2540450,
        "entry_name": "Tennis xixi",
        "event_total": 71,
        "has_played": true,
        "id": 18206856,
        "last_rank": 78244,
        "player_name": "ni ye",
        "rank": 65458,
        "rank_sort": 65502,
        "total": 2343
      },
      {
        "club_badge_src": null,
        "entry": 2548036,
        "entry_name": "Batmanchester United",
        "event_total": 60,
        "has_played": true,
        "id": 18265213,
        "last_rank": 72346,
        "player_name": "Matt Green",
        "rank": 65458,
        "rank_sort": 65503,
        "total": 2343
      },
      {
        "club_badge_src": null,
        "entry": 2788346,
        "entry_name": "Beans on toast",
        "event_total": 45,
        "has_played": true,
        "id": 20356738,
        "last_rank": 40832,
        "player_name": "Paul Sheehan",
        "rank": 65458,
        "rank_sort": 65504,
        "total": 2343
      },
      {
        "club_badge_src": null,
        "entry": 2847697,
        "entry_name": "AdiMutu",
        "event_total": 43,
        "has_played": true,
        "id": 20819315,
        "last_rank": 43570,
        "player_name": "Gabi Lupei",
        "rank": 65458,
        "rank_sort": 65505,
        "total": 2343
      },
      {
        "club_badge_src": null,
        "entry": 2863134,
        "entry_name": "Going Merry",
        "event_total": 63,
        "has_played": true,
        "id": 20938782,
        "last_rank": 78671,
        "player_name": "Dan Dodwell",
        "rank": 65458,
        "rank_sort": 65506,
        "total": 2343
      },
      {
        "club_badge_src": null,
        "entry": 2991047,
        "entry_name": "Zirkzee Me Rolling",
        "event_total": 72,
        "has_played": true,
        "id": 21997657,
        "last_rank": 89897,
        "player_name": "Connor Vallo",
        "rank": 65458,
        "rank_sort": 65507,
        "total": 2343
      },
      {
        "club_badge_src": null,
        "entry": 3026443,
        "entry_name": "\u0645\u062d\u0645\u062f \u062c\u0645\u0627\u0644",
        "event_total": 83,
        "has_played": true,
        "id": 22268752,
        "last_rank": 118946,
        "player_name": "mohammed jamal",
        "rank": 65458,
        "rank_sort": 65508,
        "total": 2343
      },
      {
        "club_badge_src": null,
        "entry": 3082406,
        "entry_name": "Bruno Dos Tres",
        "event_total": 53,
        "has_played": true,
        "id": 22709197,
        "last_rank": 59249,
        "player_name": "Tina Engelsgjerd",
        "rank": 65458,
        "rank_sort": 65509,
        "total": 2343
      },
      {
        "club_badge_src": "https://fantasy.premierleague.com/gcs/plfpl-production-adobe-approved/plfpl-production/3257790/d16ca844-09df-4ea8-a7de-9e4a6c9acff6.png",
        "entry": 3257790,
        "entry_name": "thegr8 FC",
        "event_total": 84,
        "has_played": true,
        "id": 24105145,
        "last_rank": 134505,
        "player_name": "Mike Odipo",
        "rank": 65458,
        "rank_sort": 65510,
        "total": 2343
      },
      {
        "club_badge_src": null,
        "entry": 3275464,
        "entry_name": "G-Force FC",
        "event_total": 63,
        "has_played": true,
        "id": 24241850,
        "last_rank": 70072,
        "player_name": "Atula Aery",
        "rank": 65458,
        "rank_sort": 65511,
        "total": 2343
      },
      {
        "club_badge_src": null,
        "entry": 3351091,
        "entry_name": "Abo OMAR",
        "event_total": 67,
        "has_played": true,
        "id": 24860423,
        "last_rank": 78575,
        "player_name": "Islam Fares",
        "rank": 65458,
        "rank_sort": 65512,
        "total": 2343
      },
      {
        "club_badge_src": null,
        "entry": 3521337,
        "entry_name": "Earth,Wind&Maguire",
        "event_total": 47,
        "has_played": true,
        "id": 26205751,
        "last_rank": 43512,
        "player_name": "Malte Nylander",
        "rank": 65458,
        "rank_sort": 65513,
        "total": 2343
      },
      {
        "club_badge_src": null,
        "entry": 3650668,
        "entry_name": "Rash Challenge",
        "event_total": 60,
        "has_played": true,
        "id": 27211727,
        "last_rank": 72265,
        "player_name": "Ralf Rashbrook",
        "rank": 65458,
        "rank_sort": 65514,
        "total": 2343
      },
      {
        "club_badge_src": null,
        "entry": 3820589,
        "entry_name": "Gy\u00f6ken \u00e4r l\u00f6s",
        "event_total": 51,
        "has_played": true,
        "id": 28574861,
        "last_rank": 55812,
        "player_name": "Denis Pokecz",
        "rank": 65458,
        "rank_sort": 65515,
        "total": 2343
      },
      {
        "club_badge_src": null,
        "entry": 3882457,
        "entry_name": "Wirtz your problem?",
        "event_total": 72,
        "has_played": true,
        "id": 29172693,
        "last_rank": 99806,
        "player_name": "Colin Shaw",
        "rank": 65458,
        "rank_sort": 65516,
        "total": 2343
      },
      {
        "club_badge_src": null,
        "entry": 3894592,
        "entry_name": "Your Bek Raasmus",
        "event_total": 69,
        "has_played": true,
        "id": 29269901,
        "last_rank": 92602,
        "player_name": "Leo Rainers",
        "rank": 65458,
        "rank_sort": 65517,
        "total": 2343
      },
      {
        "club_badge_src": null,
        "entry": 3969027,
        "entry_name": "20LEGEND",
        "event_total": 76,
        "has_played": true,
        "id": 29867046,
        "last_rank": 99959,
        "player_name": "Phil Smalley",
        "rank": 65458,
        "rank_sort": 65518,
        "total": 2343
      },
      {
        "club_badge_src": "https://fantasy.premierleague.com/gcs/plfpl-production-adobe-approved/plfpl-production/4006067/775c7956-a298-4b62-b21b-80e042ed9f3d.png",
        "entry": 4006067,
        "entry_name": "Cunha Dracula",
        "event_total": 55,
        "has_played": true,
        "id": 30177495,
        "last_rank": 55747,
        "player_name": "Ron Dlyan Jeffry",
        "rank": 65458,
        "rank_sort": 65519,
        "total": 2343
      },
      {
        "club_badge_src": "https://fantasy.premierleague.com/gcs/plfpl-production-adobe-approved/plfpl-production/4441564/a9d54776-eddd-4d8f-b591-da631f1ab739.png",
        "entry": 4441564,
        "entry_name": "Champagne Areola",
        "event_total": 52,
        "has_played": true,
        "id": 33821856,
        "last_rank": 57515,
        "player_name": "Gary Kybert",
        "rank": 65458,
        "rank_sort": 65520,
        "total": 2343
      },
      {
        "club_badge_src": null,
        "entry": 4445117,
        "entry_name": "Abbanhaneef65",
        "event_total": 65,
        "has_played": true,
        "id": 33851623,
        "last_rank": 83018,
        "player_name": "Rabiu Salisu",
        "rank": 65458,
        "rank_sort": 65521,
        "total": 2343
      },
      {
        "club_badge_src": "https://fantasy.premierleague.com/gcs/plfpl-production-adobe-approved/plfpl-production/4568081/243a86a8-cedf-4fbd-8f6f-d6e4944d9610.png",
        "entry": 4568081,
        "entry_name": "Natti FC",
        "event_total": 32,
        "has_played": true,
        "id": 34860656,
        "last_rank": 26475,
        "player_name": "Natt Vanderjagt",
        "rank": 65458,
        "rank_sort": 65522,
        "total": 2343
      },
      {
        "club_badge_src": null,
        "entry": 5129217,
        "entry_name": "Gary United",
        "event_total": 63,
        "has_played": true,
        "id": 39667426,
        "last_rank": 78575,
        "player_name": "Guy Davies",
        "rank": 65458,
        "rank_sort": 65523,
        "total": 2343
      },
      {
        "club_badge_src": null,
        "entry": 5465180,
        "entry_name": "Old Fashion\ufffd",
        "event_total": 69,
        "has_played": true,
        "id": 42534125,
        "last_rank": 92685,
        "player_name": "Andreas Bj\u00f8rklund",
        "rank": 65458,
        "rank_sort": 65524,
        "total": 2343
      },
      {
        "club_badge_src": "https://fantasy.premierleague.com/gcs/plfpl-production-adobe-approved/plfpl-production/5470138/806bb5c1-b52a-42ed-ab5a-62eb5641ef86.png",
        "entry": 5470138,
        "entry_name": "Natti FC",
        "event_total": 32,
        "has_played": true,
        "id": 42579193,
        "last_rank": 26475,
        "player_name": "Natt Vanderjagt",
        "rank": 65458,
        "rank_sort": 65525,
        "total": 2343
      },
      {
        "club_badge_src": null,
        "entry": 5560635,
        "entry_name": "Unani Cunha Cunha",
        "event_total": 64,
        "has_played": true,
        "id": 43410496,
        "last_rank": 80877,
        "player_name": "Mike Chege",
        "rank": 65458,
        "rank_sort": 65526,
        "total": 2343
      },
      {
        "club_badge_src": null,
        "entry": 5574768,
        "entry_name": "Loading...",
        "event_total": 78,
        "has_played": true,
        "id": 43535045,
        "last_rank": 116351,
        "player_name": "Jamie Clark",
        "rank": 65458,
        "rank_sort": 65527,
        "total": 2343
      },
      {
        "club_badge_src": null,
        "entry": 5655154,
        "entry_name": "areola grande",
        "event_total": 60,
        "has_played": true,
        "id": 44240846,
        "last_rank": 64422,
        "player_name": "Alfred Pimm",
        "rank": 65458,
        "rank_sort": 65528,
        "total": 2343
      },
      {
        "club_badge_src": null,
        "entry": 6057990,
        "entry_name": "Big T",
        "event_total": 58,
        "has_played": true,
        "id": 47808458,
        "last_rank": 60827,
        "player_name": "Terry MD",
        "rank": 65458,
        "rank_sort": 65529,
        "total": 2343
      },
      {
        "club_badge_src": null,
        "entry": 6071246,
        "entry_name": "Gunners",
        "event_total": 67,
        "has_played": true,
        "id": 47925236,
        "last_rank": 87808,
        "player_name": "Mohamed Fadl",
        "rank": 65458,
        "rank_sort": 65530,
        "total": 2343
      },
      {
        "club_badge_src": null,
        "entry": 6281695,
        "entry_name": "Kinder Mbuemo",
        "event_total": 66,
        "has_played": true,
        "id": 49752248,
        "last_rank": 85487,
        "player_name": "Bogdan Lescinschi",
        "rank": 65458,
        "rank_sort": 65531,
        "total": 2343
      },
      {
        "club_badge_src": null,
        "entry": 6489274,
        "entry_name": "SharpeShooters",
        "event_total": 73,
        "has_played": true,
        "id": 51727183,
        "last_rank": 82873,
        "player_name": "curtis sharpe",
        "rank": 65458,
        "rank_sort": 65532,
        "total": 2343
      },
      {
        "club_badge_src": null,
        "entry": 6557959,
        "entry_name": "Jamito Squad",
        "event_total": 66,
        "has_played": true,
        "id": 52337650,
        "last_rank": 67926,
        "player_name": "Jamito S",
        "rank": 65458,
        "rank_sort": 65533,
        "total": 2343
      },
      {
        "club_badge_src": null,
        "entry": 6662608,
        "entry_name": "Wirtz Team Ever",
        "event_total": 64,
        "has_played": true,
        "id": 53281056,
        "last_rank": 72265,
        "player_name": "Kieran Richardson",
        "rank": 65458,
        "rank_sort": 65534,
        "total": 2343
      },
      {
        "club_badge_src": null,
        "entry": 6851535,
        "entry_name": "Son Heung-max Points",
        "event_total": 52,
        "has_played": true,
        "id": 54892262,
        "last_rank": 57515,
        "player_name": "Troy Wey",
        "rank": 65458,
        "rank_sort": 65535,
        "total": 2343
      },
      {
        "club_badge_src": null,
        "entry": 6904328,
        "entry_name": "Cunha give me a Yoro",
        "event_total": 60,
        "has_played": true,
        "id": 55340481,
        "last_rank": 64422,
        "player_name": "Caolan Boyle",
        "rank": 65458,
        "rank_sort": 65536,
        "total": 2343
      },
      {
        "club_badge_src": null,
        "entry": 7103410,
        "entry_name": "Mamba Mentality",
        "event_total": 57,
        "has_played": true,
        "id": 57207545,
        "last_rank": 59170,
        "player_name": "John Chua",
        "rank": 65458,
        "rank_sort": 65537,
        "total": 2343
      },
      {
        "club_badge_src": null,
        "entry": 7431414,
        "entry_name": "DFWU",
        "event_total": 52,
        "has_played": true,
        "id": 60389349,
        "last_rank": 57515,
        "player_name": "Balogun Oluwasegun",
        "rank": 65458,
        "rank_sort": 65538,
        "total": 2343
      },
      {
        "club_badge_src": null,
        "entry": 7641664,
        "entry_name": "Rice Rice Baby",
        "event_total": 50,
        "has_played": true,
        "id": 62640593,
        "last_rank": 54134,
        "player_name": "Dario Ruocco",
        "rank": 65458,
        "rank_sort": 65539,
        "total": 2343
      },
      {
        "club_badge_src": null,
        "entry": 7745018,
        "entry_name": "4 KOLEJKI I KONIEC",
        "event_total": 63,
        "has_played": true,
        "id": 63576115,
        "last_rank": 62617,
        "player_name": "Patryk Nocu\u0144",
        "rank": 65458,
        "rank_sort": 65540,
        "total": 2343
      },
      {
        "club_badge_src": null,
        "entry": 8260995,
        "entry_name": "CarpeDiem",
        "event_total": 67,
        "has_played": true,
        "id": 68328991,
        "last_rank": 78575,
        "player_name": "J\u00f8rn-Erik Skogseth",
        "rank": 65458,
        "rank_sort": 65541,
        "total": 2343
      },
      {
        "club_badge_src": null,
        "entry": 8421950,
        "entry_name": "sir.salem",
        "event_total": 68,
        "has_played": true,
        "id": 69886276,
        "last_rank": 80651,
        "player_name": "Salem Alshammari",
        "rank": 65458,
        "rank_sort": 65542,
        "total": 2343
      },
      {
        "club_badge_src": "https://fantasy.premierleague.com/gcs/plfpl-production-adobe-approved/plfpl-production/8852824/3de734ee-8627-47b2-9310-0d4533f70bf2.png",
        "entry": 8852824,
        "entry_name": "Dsylexia Untied",
        "event_total": 43,
        "has_played": true,
        "id": 74053462,
        "last_rank": 38267,
        "player_name": "Ross Maclean",
        "rank": 65458,
        "rank_sort": 65543,
        "total": 2343
      },
      {
        "club_badge_src": null,
        "entry": 9233518,
        "entry_name": "Fraz XI",
        "event_total": 64,
        "has_played": true,
        "id": 77762485,
        "last_rank": 72265,
        "player_name": "Frazer Burnett",
        "rank": 65458,
        "rank_sort": 65544,
        "total": 2343
      },
      {
        "club_badge_src": null,
        "entry": 345,
        "entry_name": "Charli xGx",
        "event_total": 56,
        "has_played": true,
        "id": 1907,
        "last_rank": 64562,
        "player_name": "Scott Walker",
        "rank": 65545,
        "rank_sort": 65545,
        "total": 2343
      },
      {
        "club_badge_src": null,
        "entry": 12095,
        "entry_name": "Solb\u00e6rtoddy Rovers",
        "event_total": 67,
        "has_played": true,
        "id": 72166,
        "last_rank": 78671,
        "player_name": "Jon Markus M\u00f8ller",
        "rank": 65545,
        "rank_sort": 65546,
        "total": 2343
      },
      {
        "club_badge_src": null,
        "entry": 58569,
        "entry_name": "Malm\u0153",
        "event_total": 69,
        "has_played": true,
        "id": 377239,
        "last_rank": 83018,
        "player_name": "Luke Mal",
        "rank": 65545,
        "rank_sort": 65547,
        "total": 2343
      },
      {
        "club_badge_src": null,
        "entry": 63778,
        "entry_name": "Warzywozy",
        "event_total": 52,
        "has_played": true,
        "id": 411558,
        "last_rank": 57557,
        "player_name": "Kamil Socha",
        "rank": 65545,
        "rank_sort": 65548,
        "total": 2343
      },
      {
        "club_badge_src": null,
        "entry": 64501,
        "entry_name": "Rubening My XI",
        "event_total": 55,
        "has_played": true,
        "id": 416325,
        "last_rank": 55812,
        "player_name": "Charis Charalambous",
        "rank": 65545,
        "rank_sort": 65549,
        "total": 2343
      },
      {
        "club_badge_src": null,
        "entry": 100202,
        "entry_name": "Walaun",
        "event_total": 60,
        "has_played": true,
        "id": 653931,
        "last_rank": 72407,
        "player_name": "Eddie Marang",
        "rank": 65545,
        "rank_sort": 65550,
        "total": 2343
      }
    ]
  }
}