{
  "last_updated_data": "2026-05-24T23:28:17Z",
  "league": {
    "admin_entry": null,
    "closed": false,
    "code_privacy": "p",
    "created": "2025-07-20T23:14:33.933835Z",
    "cup_league": 2815434,
    "has_cup": true,
    "id": 314,
    "league_type": "s",
    "max_entries": null,
    "name": "Overall",
    "rank": null,
    "scoring": "c",
    "start_event": 1
  },
  "new_entries": {
    "has_next": false,
    "page": 1,
    "results": []
  },
  "standings": {
    "has_next": true,
    "page": 984,
    "results": [
      {
        "club_badge_src": null,
        "entry": 2570170,
        "entry_name": "Y.Zeiad",
        "event_total": 61,
        "has_played": true,
        "id": 18441220,
        "last_rank": 55932,
        "player_name": "Yaser Zeiad",
        "rank": 49145,
        "rank_sort": 49151,
        "total": 2353
      },
      {
        "club_badge_src": null,
        "entry": 3372811,
        "entry_name": "Saka Potatoes",
        "event_total": 52,
        "has_played": true,
        "id": 25030959,
        "last_rank": 42314,
        "player_name": "Ethan Schapira",
        "rank": 49145,
        "rank_sort": 49152,
        "total": 2353
      },
      {
        "club_badge_src": null,
        "entry": 3586946,
        "entry_name": "HaCUNHA Matata",
        "event_total": 63,
        "has_played": true,
        "id": 26712897,
        "last_rank": 59370,
        "player_name": "Shane Williams",
        "rank": 49145,
        "rank_sort": 49153,
        "total": 2353
      },
      {
        "club_badge_src": null,
        "entry": 3763659,
        "entry_name": "Walk of Life",
        "event_total": 70,
        "has_played": true,
        "id": 28101447,
        "last_rank": 64603,
        "player_name": "Anders \u00d8ygarden",
        "rank": 49145,
        "rank_sort": 49154,
        "total": 2353
      },
      {
        "club_badge_src": null,
        "entry": 3805383,
        "entry_name": "brunodostres",
        "event_total": 58,
        "has_played": true,
        "id": 28450303,
        "last_rank": 51013,
        "player_name": "Thomas Sheridan",
        "rank": 49145,
        "rank_sort": 49155,
        "total": 2353
      },
      {
        "club_badge_src": null,
        "entry": 3984922,
        "entry_name": "Blueballz FC",
        "event_total": 68,
        "has_played": true,
        "id": 30000807,
        "last_rank": 54181,
        "player_name": "Marius Elstad",
        "rank": 49145,
        "rank_sort": 49156,
        "total": 2353
      },
      {
        "club_badge_src": null,
        "entry": 4323045,
        "entry_name": "Bahroo FC",
        "event_total": 61,
        "has_played": true,
        "id": 32809226,
        "last_rank": 55932,
        "player_name": "Baher Saleh",
        "rank": 49145,
        "rank_sort": 49157,
        "total": 2353
      },
      {
        "club_badge_src": "https://fantasy.premierleague.com/gcs/plfpl-production-adobe-approved/plfpl-production/4581207/02b2a73e-8edd-47e7-b9b6-66f6dce5589a.png",
        "entry": 4581207,
        "entry_name": "Gold Coast FC",
        "event_total": 67,
        "has_played": true,
        "id": 34972941,
        "last_rank": 59335,
        "player_name": "Eamon McKay",
        "rank": 49145,
        "rank_sort": 49158,
        "total": 2353
      },
      {
        "club_badge_src": null,
        "entry": 5024318,
        "entry_name": "FC Truckertown",
        "event_total": 64,
        "has_played": true,
        "id": 38803556,
        "last_rank": 61118,
        "player_name": "Martin Kuzmanovski",
        "rank": 49145,
        "rank_sort": 49159,
        "total": 2353
      },
      {
        "club_badge_src": null,
        "entry": 5253676,
        "entry_name": "Lejonens IF",
        "event_total": 46,
        "has_played": true,
        "id": 40717693,
        "last_rank": 30418,
        "player_name": "Alfons Lundgren",
        "rank": 49145,
        "rank_sort": 49160,
        "total": 2353
      },
      {
        "club_badge_src": null,
        "entry": 7580342,
        "entry_name": "Repeat",
        "event_total": 60,
        "has_played": true,
        "id": 62086652,
        "last_rank": 47950,
        "player_name": "Ethan Price",
        "rank": 49145,
        "rank_sort": 49161,
        "total": 2353
      },
      {
        "club_badge_src": null,
        "entry": 7794234,
        "entry_name": "New attempt",
        "event_total": 63,
        "has_played": true,
        "id": 64021556,
        "last_rank": 40878,
        "player_name": "Hames Kamal",
        "rank": 49145,
        "rank_sort": 49162,
        "total": 2353
      },
      {
        "club_badge_src": "https://fantasy.premierleague.com/gcs/plfpl-production-adobe-approved/plfpl-production/22877/bf2fff42-86b1-43fe-b530-098c8769d22f.png",
        "entry": 22877,
        "entry_name": "BESTIA",
        "event_total": 58,
        "has_played": true,
        "id": 143849,
        "last_rank": 39703,
        "player_name": "Wiktor Pankiewicz",
        "rank": 49163,
        "rank_sort": 49163,
        "total": 2353
      },
      {
        "club_badge_src": "https://fantasy.premierleague.com/gcs/plfpl-production-adobe-approved/plfpl-production/67757/4b46cabd-029b-4fe5-b4f6-763e7a4164b8.png",
        "entry": 67757,
        "entry_name": "Zirkzee's Circus",
        "event_total": 66,
        "has_played": true,
        "id": 438770,
        "last_rank": 50984,
        "player_name": "Niklas Trones",
        "rank": 49163,
        "rank_sort": 49164,
        "total": 2353
      },
      {
        "club_badge_src": "https://fantasy.premierleague.com/gcs/plfpl-production-adobe-approved/plfpl-production/130253/0d718e4e-6b11-40fe-8cbc-868b9b7d02a7.png",
        "entry": 130253,
        "entry_name": "tonijnsters01",
        "event_total": 47,
        "has_played": true,
        "id": 848791,
        "last_rank": 36042,
        "player_name": "Teun Kalkman",
        "rank": 49163,
        "rank_sort": 49165,
        "total": 2353
      },
      {
        "club_badge_src": null,
        "entry": 149830,
        "entry_name": "\u0630\u0627 \u0645\u0627\u0633\u062a\u0631 \u0627\u0648\u0641 \u0635\u0627\u0635\u0628\u0646\u0635",
        "event_total": 63,
        "has_played": true,
        "id": 982447,
        "last_rank": 52632,
        "player_name": "belal ibrahim",
        "rank": 49163,
        "rank_sort": 49166,
        "total": 2353
      },
      {
        "club_badge_src": "https://fantasy.premierleague.com/gcs/plfpl-production-adobe-approved/plfpl-production/328527/77e26a4b-c449-47e8-92fd-1b46578c3c7e.png",
        "entry": 328527,
        "entry_name": "All Too Well-beck",
        "event_total": 49,
        "has_played": true,
        "id": 2200861,
        "last_rank": 38469,
        "player_name": "Nathan Bellis",
        "rank": 49163,
        "rank_sort": 49167,
        "total": 2353
      },
      {
        "club_badge_src": null,
        "entry": 350639,
        "entry_name": "Onana FC",
        "event_total": 55,
        "has_played": true,
        "id": 2347148,
        "last_rank": 40976,
        "player_name": "Nick Siradanai",
        "rank": 49163,
        "rank_sort": 49168,
        "total": 2353
      },
      {
        "club_badge_src": "https://fantasy.premierleague.com/gcs/plfpl-production-adobe-approved/plfpl-production/389668/1c3b362a-6fcf-4e6b-aa8c-0e58398533e2.png",
        "entry": 389668,
        "entry_name": "COACH *SAM* \u26bd\ufe0f\u26bd\ufe0f\u2728\ufe0f\u26a1\ufe0f",
        "event_total": 57,
        "has_played": true,
        "id": 2613942,
        "last_rank": 43657,
        "player_name": "Mokhtari Ismail",
        "rank": 49163,
        "rank_sort": 49169,
        "total": 2353
      },
      {
        "club_badge_src": "https://fantasy.premierleague.com/gcs/plfpl-production-adobe-approved/plfpl-production/391744/08b1211b-48df-4b0c-830f-4e85510b2db8.png",
        "entry": 391744,
        "entry_name": "Fabross",
        "event_total": 58,
        "has_played": true,
        "id": 2627576,
        "last_rank": 45034,
        "player_name": "Fabien Rossier",
        "rank": 49163,
        "rank_sort": 49170,
        "total": 2353
      },
      {
        "club_badge_src": "https://fantasy.premierleague.com/gcs/plfpl-production-adobe-approved/plfpl-production/405261/2221c908-5cde-40da-a7db-7fb85c39ee2a.png",
        "entry": 405261,
        "entry_name": "the weeders",
        "event_total": 85,
        "has_played": true,
        "id": 2717130,
        "last_rank": 70276,
        "player_name": "Ynal Hashish",
        "rank": 49163,
        "rank_sort": 49171,
        "total": 2353
      },
      {
        "club_badge_src": "https://fantasy.premierleague.com/gcs/plfpl-production-adobe-approved/plfpl-production/1118326/4af2564d-c072-4920-be68-c2fe7dd98283.png",
        "entry": 1118326,
        "entry_name": "Brian_@Tifaz07",
        "event_total": 60,
        "has_played": true,
        "id": 7746471,
        "last_rank": 54268,
        "player_name": "Brian Tafadzwa",
        "rank": 49163,
        "rank_sort": 49172,
        "total": 2353
      },
      {
        "club_badge_src": null,
        "entry": 1569333,
        "entry_name": "A3M",
        "event_total": 60,
        "has_played": true,
        "id": 10963115,
        "last_rank": 54244,
        "player_name": "Badr Salah",
        "rank": 49163,
        "rank_sort": 49173,
        "total": 2353
      },
      {
        "club_badge_src": null,
        "entry": 5254267,
        "entry_name": "jm coded",
        "event_total": 55,
        "has_played": true,
        "id": 40722531,
        "last_rank": 40976,
        "player_name": "Joe McCall",
        "rank": 49163,
        "rank_sort": 49174,
        "total": 2353
      },
      {
        "club_badge_src": null,
        "entry": 8488194,
        "entry_name": "Hipswitch FC",
        "event_total": 68,
        "has_played": true,
        "id": 70520829,
        "last_rank": 68460,
        "player_name": "Robert philpott",
        "rank": 49163,
        "rank_sort": 49175,
        "total": 2353
      },
      {
        "club_badge_src": "https://fantasy.premierleague.com/gcs/plfpl-production-adobe-approved/plfpl-production/709616/353955c6-0af3-48fe-9ada-d7da9ae86fd6.png",
        "entry": 709616,
        "entry_name": "HaCunhaMateta",
        "event_total": 63,
        "has_played": true,
        "id": 4811406,
        "last_rank": 59399,
        "player_name": "Liam dhillon",
        "rank": 49176,
        "rank_sort": 49176,
        "total": 2353
      },
      {
        "club_badge_src": null,
        "entry": 835012,
        "entry_name": "Forss of Nature",
        "event_total": 59,
        "has_played": true,
        "id": 5719875,
        "last_rank": 46468,
        "player_name": "Ethan Robins",
        "rank": 49176,
        "rank_sort": 49177,
        "total": 2353
      },
      {
        "club_badge_src": null,
        "entry": 860543,
        "entry_name": "Doha",
        "event_total": 59,
        "has_played": true,
        "id": 5899092,
        "last_rank": 46468,
        "player_name": "Do7a +90",
        "rank": 49176,
        "rank_sort": 49178,
        "total": 2353
      },
      {
        "club_badge_src": "https://fantasy.premierleague.com/gcs/plfpl-production-adobe-approved/plfpl-production/1388190/b3723301-1795-4aff-ae11-861dcd4b81d0.png",
        "entry": 1388190,
        "entry_name": "Haso Chao FC",
        "event_total": 64,
        "has_played": true,
        "id": 9656084,
        "last_rank": 54268,
        "player_name": "Hasan Seyhan",
        "rank": 49176,
        "rank_sort": 49179,
        "total": 2353
      },
      {
        "club_badge_src": null,
        "entry": 1915832,
        "entry_name": "AboNoRa",
        "event_total": 52,
        "has_played": true,
        "id": 13508017,
        "last_rank": 28466,
        "player_name": "fares alotaibi",
        "rank": 49176,
        "rank_sort": 49180,
        "total": 2353
      },
      {
        "club_badge_src": null,
        "entry": 1970352,
        "entry_name": "Messi Academy",
        "event_total": 56,
        "has_played": true,
        "id": 13906524,
        "last_rank": 48000,
        "player_name": "Rashed Almutairi",
        "rank": 49176,
        "rank_sort": 49181,
        "total": 2353
      },
      {
        "club_badge_src": null,
        "entry": 2086752,
        "entry_name": "How Greedy",
        "event_total": 68,
        "has_played": true,
        "id": 14804619,
        "last_rank": 68489,
        "player_name": "Sami Doublal",
        "rank": 49176,
        "rank_sort": 49182,
        "total": 2353
      },
      {
        "club_badge_src": null,
        "entry": 2768149,
        "entry_name": "Carricks in da house",
        "event_total": 74,
        "has_played": true,
        "id": 20196568,
        "last_rank": 81111,
        "player_name": "Eanna Scully",
        "rank": 49176,
        "rank_sort": 49183,
        "total": 2353
      },
      {
        "club_badge_src": null,
        "entry": 3885428,
        "entry_name": "Shaunie Mack",
        "event_total": 67,
        "has_played": true,
        "id": 29195926,
        "last_rank": 66559,
        "player_name": "Shaun Mccambridge",
        "rank": 49176,
        "rank_sort": 49184,
        "total": 2353
      },
      {
        "club_badge_src": null,
        "entry": 3968596,
        "entry_name": "Bowen 747",
        "event_total": 83,
        "has_played": true,
        "id": 29863701,
        "last_rank": 102813,
        "player_name": "Dave Aiano",
        "rank": 49176,
        "rank_sort": 49185,
        "total": 2353
      },
      {
        "club_badge_src": null,
        "entry": 4182061,
        "entry_name": "Yea Thanks Mate-ta",
        "event_total": 70,
        "has_played": true,
        "id": 31639833,
        "last_rank": 64656,
        "player_name": "Scott Archer",
        "rank": 49176,
        "rank_sort": 49186,
        "total": 2353
      },
      {
        "club_badge_src": null,
        "entry": 6270219,
        "entry_name": "Jambo Fantasy",
        "event_total": 69,
        "has_played": true,
        "id": 49650701,
        "last_rank": 70493,
        "player_name": "David Orr",
        "rank": 49176,
        "rank_sort": 49187,
        "total": 2353
      },
      {
        "club_badge_src": null,
        "entry": 48003,
        "entry_name": "BEST-of-the-BEST",
        "event_total": 73,
        "has_played": true,
        "id": 308102,
        "last_rank": 62958,
        "player_name": "Adam Hutchinson",
        "rank": 49188,
        "rank_sort": 49188,
        "total": 2353
      },
      {
        "club_badge_src": null,
        "entry": 220396,
        "entry_name": "\u539f\u4f86\u904e\u5f97\u5f88\u5feb\u6a02 \u53ea\u6709\u6c99\u62ff\u672a\u767c\u89ba",
        "event_total": 67,
        "has_played": true,
        "id": 1465847,
        "last_rank": 17585,
        "player_name": "Gakpo Chan",
        "rank": 49188,
        "rank_sort": 49189,
        "total": 2353
      },
      {
        "club_badge_src": null,
        "entry": 624266,
        "entry_name": "Ashyaynon",
        "event_total": 56,
        "has_played": true,
        "id": 4218675,
        "last_rank": 48018,
        "player_name": "Ashton ahahahaa",
        "rank": 49188,
        "rank_sort": 49190,
        "total": 2353
      },
      {
        "club_badge_src": "https://fantasy.premierleague.com/gcs/plfpl-production-adobe-approved/plfpl-production/2534633/fe641d61-7848-48c1-a753-4cdc2b4f4c99.png",
        "entry": 2534633,
        "entry_name": "Red Army",
        "event_total": 58,
        "has_played": true,
        "id": 18163947,
        "last_rank": 45065,
        "player_name": "Ahmad Abo Mazin",
        "rank": 49188,
        "rank_sort": 49191,
        "total": 2353
      },
      {
        "club_badge_src": null,
        "entry": 5936520,
        "entry_name": "Bowen Arrow",
        "event_total": 66,
        "has_played": true,
        "id": 46677004,
        "last_rank": 51013,
        "player_name": "harry hickford",
        "rank": 49188,
        "rank_sort": 49192,
        "total": 2353
      },
      {
        "club_badge_src": null,
        "entry": 7517632,
        "entry_name": "H11",
        "event_total": 53,
        "has_played": true,
        "id": 61492351,
        "last_rank": 29419,
        "player_name": "Hisham AlSheari",
        "rank": 49188,
        "rank_sort": 49193,
        "total": 2353
      },
      {
        "club_badge_src": "https://fantasy.premierleague.com/gcs/plfpl-production-adobe-approved/plfpl-production/211166/3189ff6c-2561-4e6e-b9db-22353c1e3b4b.png",
        "entry": 211166,
        "entry_name": "abo gad22",
        "event_total": 33,
        "has_played": true,
        "id": 1404501,
        "last_rank": 19346,
        "player_name": "Mohamed Ahmed",
        "rank": 49194,
        "rank_sort": 49194,
        "total": 2353
      },
      {
        "club_badge_src": null,
        "entry": 3337064,
        "entry_name": "don carlo",
        "event_total": 53,
        "has_played": true,
        "id": 24748525,
        "last_rank": 33782,
        "player_name": "Lahssan Iddaoud",
        "rank": 49194,
        "rank_sort": 49195,
        "total": 2353
      },
      {
        "club_badge_src": null,
        "entry": 4783525,
        "entry_name": "Fudge Bay Packers",
        "event_total": 63,
        "has_played": true,
        "id": 36824605,
        "last_rank": 52681,
        "player_name": "Henry Wagstaffe",
        "rank": 49194,
        "rank_sort": 49196,
        "total": 2353
      },
      {
        "club_badge_src": null,
        "entry": 26023,
        "entry_name": "Citizen<3",
        "event_total": 69,
        "has_played": true,
        "id": 164544,
        "last_rank": 62999,
        "player_name": "M Seif",
        "rank": 49197,
        "rank_sort": 49197,
        "total": 2353
      },
      {
        "club_badge_src": "https://fantasy.premierleague.com/gcs/plfpl-production-adobe-approved/plfpl-production/126448/9f1ad655-dc16-448c-9d0e-084d510bfc54.png",
        "entry": 126448,
        "entry_name": "Eino \u26f3\ufe0f",
        "event_total": 58,
        "has_played": true,
        "id": 824464,
        "last_rank": 45084,
        "player_name": "Mohamed Eino",
        "rank": 49197,
        "rank_sort": 49198,
        "total": 2353
      },
      {
        "club_badge_src": null,
        "entry": 172689,
        "entry_name": "\u09ad\u09c0\u09ae\u09b0\u09a4\u09bf",
        "event_total": 63,
        "has_played": true,
        "id": 1140574,
        "last_rank": 52686,
        "player_name": "Shamim Ahmed",
        "rank": 49197,
        "rank_sort": 49199,
        "total": 2353
      },
      {
        "club_badge_src": null,
        "entry": 1092676,
        "entry_name": "Bayern Bru",
        "event_total": 60,
        "has_played": true,
        "id": 7567775,
        "last_rank": 48018,
        "player_name": "Callum Michie",
        "rank": 49197,
        "rank_sort": 49200,
        "total": 2353
      }
    ]
  }
}