{
  "last_updated_data": "2026-05-24T23:28:17Z",
  "league": {
    "admin_entry": null,
    "closed": false,
    "code_privacy": "p",
    "created": "2025-07-20T23:14:33.933835Z",
    "cup_league": 2815434,
    "has_cup": true,
    "id": 314,
    "league_type": "s",
    "max_entries": null,
    "name": "Overall",
    "rank": null,
    "scoring": "c",
    "start_event": 1
  },
  "new_entries": {
    "has_next": false,
    "page": 1,
    "results": []
  },
  "standings": {
    "has_next": true,
    "page": 1281,
    "results": [
      {
        "club_badge_src": null,
        "entry": 9164658,
        "entry_name": "DreamTeam",
        "event_total": 72,
        "has_played": true,
        "id": 77084250,
        "last_rank": 78906,
        "player_name": "Veronika Barsky",
        "rank": 63995,
        "rank_sort": 64001,
        "total": 2344
      },
      {
        "club_badge_src": null,
        "entry": 5077542,
        "entry_name": "\u0627\u0644\u0634\u062d\u0627\u0637\ufffd",
        "event_total": 68,
        "has_played": true,
        "id": 39242096,
        "last_rank": 62999,
        "player_name": "laib ayoub",
        "rank": 64002,
        "rank_sort": 64002,
        "total": 2344
      },
      {
        "club_badge_src": "https://fantasy.premierleague.com/gcs/plfpl-production-adobe-approved/plfpl-production/55178/4420d76e-a700-467f-aa1a-4591cc9e92b8.png",
        "entry": 55178,
        "entry_name": "Ahmed Alhamzawy",
        "event_total": 69,
        "has_played": true,
        "id": 355153,
        "last_rank": 90462,
        "player_name": "Ahmed Alhamzawy",
        "rank": 64003,
        "rank_sort": 64003,
        "total": 2344
      },
      {
        "club_badge_src": null,
        "entry": 255624,
        "entry_name": "Tsunami United FC",
        "event_total": 81,
        "has_played": true,
        "id": 1700275,
        "last_rank": 111082,
        "player_name": "Fid I",
        "rank": 64003,
        "rank_sort": 64004,
        "total": 2344
      },
      {
        "club_badge_src": null,
        "entry": 649212,
        "entry_name": "The Losers Club",
        "event_total": 66,
        "has_played": true,
        "id": 4387573,
        "last_rank": 66604,
        "player_name": "Georgi Dimitrov",
        "rank": 64005,
        "rank_sort": 64005,
        "total": 2344
      },
      {
        "club_badge_src": null,
        "entry": 1927638,
        "entry_name": "Cool as Farke",
        "event_total": 56,
        "has_played": true,
        "id": 13594973,
        "last_rank": 63026,
        "player_name": "Mark Dighero",
        "rank": 64005,
        "rank_sort": 64006,
        "total": 2344
      },
      {
        "club_badge_src": "https://fantasy.premierleague.com/gcs/plfpl-production-adobe-approved/plfpl-production/1697968/3394aa51-26fc-4c39-bc21-f7fc0a528e28.png",
        "entry": 1697968,
        "entry_name": "Merseyside FC",
        "event_total": 66,
        "has_played": true,
        "id": 11892960,
        "last_rank": 83450,
        "player_name": "Logan Nair",
        "rank": 64007,
        "rank_sort": 64007,
        "total": 2344
      },
      {
        "club_badge_src": null,
        "entry": 1739855,
        "entry_name": "Bobby-Dazzlers.FC",
        "event_total": 42,
        "has_played": true,
        "id": 12206892,
        "last_rank": 31498,
        "player_name": "Darren McCarthy",
        "rank": 64007,
        "rank_sort": 64008,
        "total": 2344
      },
      {
        "club_badge_src": null,
        "entry": 3587049,
        "entry_name": "AKKesha",
        "event_total": 65,
        "has_played": true,
        "id": 26713681,
        "last_rank": 81162,
        "player_name": "Ahmed Kesha",
        "rank": 64009,
        "rank_sort": 64009,
        "total": 2344
      },
      {
        "club_badge_src": null,
        "entry": 6721683,
        "entry_name": "MyboyAmad",
        "event_total": 48,
        "has_played": true,
        "id": 53795977,
        "last_rank": 43721,
        "player_name": "Ishaq Ahmed",
        "rank": 64009,
        "rank_sort": 64010,
        "total": 2344
      },
      {
        "club_badge_src": null,
        "entry": 7858977,
        "entry_name": "fpl27",
        "event_total": 46,
        "has_played": true,
        "id": 64613709,
        "last_rank": 46509,
        "player_name": "reri juve27",
        "rank": 64011,
        "rank_sort": 64011,
        "total": 2344
      },
      {
        "club_badge_src": null,
        "entry": 2534628,
        "entry_name": "Adem\ufffdbaklouti",
        "event_total": 58,
        "has_played": true,
        "id": 18163918,
        "last_rank": 52699,
        "player_name": "adem baklouti",
        "rank": 64012,
        "rank_sort": 64012,
        "total": 2344
      },
      {
        "club_badge_src": null,
        "entry": 248298,
        "entry_name": "Alaa zayer",
        "event_total": 56,
        "has_played": true,
        "id": 1652622,
        "last_rank": 49524,
        "player_name": "\u0645\u0627\u0646 \u0633\u062a\u064a",
        "rank": 64013,
        "rank_sort": 64013,
        "total": 2344
      },
      {
        "club_badge_src": null,
        "entry": 4394265,
        "entry_name": "Yoro wizard harry",
        "event_total": 74,
        "has_played": true,
        "id": 33409198,
        "last_rank": 102966,
        "player_name": "Robbie O Donnell",
        "rank": 64014,
        "rank_sort": 64014,
        "total": 2343
      },
      {
        "club_badge_src": null,
        "entry": 2885222,
        "entry_name": "Oi Oi Canty",
        "event_total": 51,
        "has_played": true,
        "id": 21122736,
        "last_rank": 54334,
        "player_name": "John Lindsay",
        "rank": 64015,
        "rank_sort": 64015,
        "total": 2343
      },
      {
        "club_badge_src": null,
        "entry": 530733,
        "entry_name": "bratwirtz",
        "event_total": 38,
        "has_played": true,
        "id": 3569360,
        "last_rank": 36083,
        "player_name": "Matthew Gribbins",
        "rank": 64016,
        "rank_sort": 64016,
        "total": 2343
      },
      {
        "club_badge_src": null,
        "entry": 5768733,
        "entry_name": "Hudosfield",
        "event_total": 63,
        "has_played": true,
        "id": 45226741,
        "last_rank": 76856,
        "player_name": "David Hudson",
        "rank": 64016,
        "rank_sort": 64017,
        "total": 2343
      },
      {
        "club_badge_src": null,
        "entry": 6784137,
        "entry_name": "kashawy",
        "event_total": 48,
        "has_played": true,
        "id": 54324775,
        "last_rank": 49527,
        "player_name": "Bodi Elkshawy",
        "rank": 64016,
        "rank_sort": 64018,
        "total": 2343
      },
      {
        "club_badge_src": "https://fantasy.premierleague.com/gcs/plfpl-production-adobe-approved/plfpl-production/6596304/56d04eb4-be98-4801-81e1-18a2ecb4f00a.png",
        "entry": 6596304,
        "entry_name": "Handoyo United",
        "event_total": 57,
        "has_played": true,
        "id": 52687435,
        "last_rank": 64733,
        "player_name": "Kennico Handoyo",
        "rank": 64019,
        "rank_sort": 64019,
        "total": 2343
      },
      {
        "club_badge_src": null,
        "entry": 2052856,
        "entry_name": "SuperMarioG\u00f6tze",
        "event_total": 44,
        "has_played": true,
        "id": 14541293,
        "last_rank": 43728,
        "player_name": "Andy Robinson",
        "rank": 64020,
        "rank_sort": 64020,
        "total": 2343
      },
      {
        "club_badge_src": null,
        "entry": 3157293,
        "entry_name": "Game of stones",
        "event_total": 40,
        "has_played": true,
        "id": 23320918,
        "last_rank": 38515,
        "player_name": "finn willsteed",
        "rank": 64020,
        "rank_sort": 64021,
        "total": 2343
      },
      {
        "club_badge_src": null,
        "entry": 4470103,
        "entry_name": "SeskoMealDeal",
        "event_total": 81,
        "has_played": true,
        "id": 34062967,
        "last_rank": 122804,
        "player_name": "Charlie Fulton",
        "rank": 64020,
        "rank_sort": 64022,
        "total": 2343
      },
      {
        "club_badge_src": null,
        "entry": 863464,
        "entry_name": "The mighty Slovak!",
        "event_total": 57,
        "has_played": true,
        "id": 5919420,
        "last_rank": 64740,
        "player_name": "Richard Fratric",
        "rank": 64023,
        "rank_sort": 64023,
        "total": 2343
      },
      {
        "club_badge_src": null,
        "entry": 8127572,
        "entry_name": "Kramerbk",
        "event_total": 49,
        "has_played": true,
        "id": 67059207,
        "last_rank": 51085,
        "player_name": "M P",
        "rank": 64023,
        "rank_sort": 64024,
        "total": 2343
      },
      {
        "club_badge_src": null,
        "entry": 9426416,
        "entry_name": "Hard pillow",
        "event_total": 51,
        "has_played": true,
        "id": 79626607,
        "last_rank": 54343,
        "player_name": "Ritvars Skele",
        "rank": 64023,
        "rank_sort": 64025,
        "total": 2343
      },
      {
        "club_badge_src": null,
        "entry": 1051765,
        "entry_name": "Rutter woke nonsense",
        "event_total": 30,
        "has_played": true,
        "id": 7278811,
        "last_rank": 27543,
        "player_name": "Nathaniel Harding",
        "rank": 64026,
        "rank_sort": 64026,
        "total": 2343
      },
      {
        "club_badge_src": null,
        "entry": 2890653,
        "entry_name": "Livin Saliba Loca",
        "event_total": 44,
        "has_played": true,
        "id": 21165224,
        "last_rank": 43731,
        "player_name": "Matt Baker",
        "rank": 64026,
        "rank_sort": 64027,
        "total": 2343
      },
      {
        "club_badge_src": null,
        "entry": 2907675,
        "entry_name": "CPE",
        "event_total": 65,
        "has_played": true,
        "id": 21310196,
        "last_rank": 81174,
        "player_name": "Christian Petersen",
        "rank": 64026,
        "rank_sort": 64028,
        "total": 2343
      },
      {
        "club_badge_src": null,
        "entry": 3468920,
        "entry_name": "Ctrl & Alt & De Ligt",
        "event_total": 56,
        "has_played": true,
        "id": 25788539,
        "last_rank": 63039,
        "player_name": "Kenneth O- Connor",
        "rank": 64029,
        "rank_sort": 64029,
        "total": 2343
      },
      {
        "club_badge_src": null,
        "entry": 7780294,
        "entry_name": "Jonny Singh Car Fina",
        "event_total": 74,
        "has_played": true,
        "id": 63896484,
        "last_rank": 102990,
        "player_name": "Warren Singh",
        "rank": 64029,
        "rank_sort": 64030,
        "total": 2343
      },
      {
        "club_badge_src": "https://fantasy.premierleague.com/gcs/plfpl-production-adobe-approved/plfpl-production/223170/49ac085a-3beb-4c8f-8f31-b7a224ef882f.png",
        "entry": 223170,
        "entry_name": "FC Bottlers",
        "event_total": 37,
        "has_played": true,
        "id": 1484554,
        "last_rank": 34915,
        "player_name": "Sashreek Saha",
        "rank": 64031,
        "rank_sort": 64031,
        "total": 2343
      },
      {
        "club_badge_src": null,
        "entry": 1537412,
        "entry_name": "Av.devil187",
        "event_total": 52,
        "has_played": true,
        "id": 10729774,
        "last_rank": 56032,
        "player_name": "Avinaya Tripathi",
        "rank": 64031,
        "rank_sort": 64032,
        "total": 2343
      },
      {
        "club_badge_src": null,
        "entry": 3155360,
        "entry_name": "Cunha dig it??",
        "event_total": 73,
        "has_played": true,
        "id": 23304582,
        "last_rank": 100453,
        "player_name": "Joshua Tasevski",
        "rank": 64031,
        "rank_sort": 64033,
        "total": 2343
      },
      {
        "club_badge_src": "https://fantasy.premierleague.com/gcs/plfpl-production-adobe-approved/plfpl-production/5215533/40be4c09-3949-445e-8f68-fa60d4ec7705.png",
        "entry": 5215533,
        "entry_name": "baleba in yoroself",
        "event_total": 54,
        "has_played": true,
        "id": 40402895,
        "last_rank": 59464,
        "player_name": "Sagar Epili",
        "rank": 64031,
        "rank_sort": 64034,
        "total": 2343
      },
      {
        "club_badge_src": null,
        "entry": 5390054,
        "entry_name": "dont look back Onana",
        "event_total": 41,
        "has_played": true,
        "id": 41904310,
        "last_rank": 39755,
        "player_name": "John Baines",
        "rank": 64031,
        "rank_sort": 64035,
        "total": 2343
      },
      {
        "club_badge_src": null,
        "entry": 7313055,
        "entry_name": "Elanga Management",
        "event_total": 42,
        "has_played": true,
        "id": 59198895,
        "last_rank": 41048,
        "player_name": "Bob Reid",
        "rank": 64031,
        "rank_sort": 64036,
        "total": 2343
      },
      {
        "club_badge_src": null,
        "entry": 67471,
        "entry_name": "The Unsullied",
        "event_total": 56,
        "has_played": true,
        "id": 436855,
        "last_rank": 56035,
        "player_name": "Lovro Naglic",
        "rank": 64037,
        "rank_sort": 64037,
        "total": 2343
      },
      {
        "club_badge_src": null,
        "entry": 383676,
        "entry_name": "Sels Sells Seashells",
        "event_total": 55,
        "has_played": true,
        "id": 2573129,
        "last_rank": 61239,
        "player_name": "Tom Hague",
        "rank": 64037,
        "rank_sort": 64038,
        "total": 2343
      },
      {
        "club_badge_src": null,
        "entry": 1712233,
        "entry_name": "Feather Droppers",
        "event_total": 55,
        "has_played": true,
        "id": 11997399,
        "last_rank": 61220,
        "player_name": "Andy Cook",
        "rank": 64037,
        "rank_sort": 64039,
        "total": 2343
      },
      {
        "club_badge_src": null,
        "entry": 2707883,
        "entry_name": "Wirtz The Mateta",
        "event_total": 67,
        "has_played": true,
        "id": 19482223,
        "last_rank": 85811,
        "player_name": "Zach Fahy",
        "rank": 64037,
        "rank_sort": 64040,
        "total": 2343
      },
      {
        "club_badge_src": null,
        "entry": 4330966,
        "entry_name": "Matty Rangers",
        "event_total": 50,
        "has_played": true,
        "id": 32875506,
        "last_rank": 52722,
        "player_name": "matthew burn",
        "rank": 64037,
        "rank_sort": 64041,
        "total": 2343
      },
      {
        "club_badge_src": null,
        "entry": 6292891,
        "entry_name": "JTC",
        "event_total": 54,
        "has_played": true,
        "id": 49865873,
        "last_rank": 59454,
        "player_name": "Julian Chow",
        "rank": 64037,
        "rank_sort": 64042,
        "total": 2343
      },
      {
        "club_badge_src": null,
        "entry": 7078873,
        "entry_name": "Jamie Orrell Design",
        "event_total": 56,
        "has_played": true,
        "id": 56974746,
        "last_rank": 63051,
        "player_name": "Jamie Orrell",
        "rank": 64037,
        "rank_sort": 64043,
        "total": 2343
      },
      {
        "club_badge_src": null,
        "entry": 8537599,
        "entry_name": "Roxanne's Roster",
        "event_total": 56,
        "has_played": true,
        "id": 70999281,
        "last_rank": 63063,
        "player_name": "Roseanna Warnett",
        "rank": 64037,
        "rank_sort": 64044,
        "total": 2343
      },
      {
        "club_badge_src": null,
        "entry": 8569397,
        "entry_name": "Gomes^3",
        "event_total": 65,
        "has_played": true,
        "id": 71305064,
        "last_rank": 81211,
        "player_name": "Cameron Hill",
        "rank": 64037,
        "rank_sort": 64045,
        "total": 2343
      },
      {
        "club_badge_src": null,
        "entry": 9328736,
        "entry_name": "Johnson Again",
        "event_total": 56,
        "has_played": true,
        "id": 78684976,
        "last_rank": 63051,
        "player_name": "Rachel Oswin-Humbles",
        "rank": 64037,
        "rank_sort": 64046,
        "total": 2343
      },
      {
        "club_badge_src": null,
        "entry": 39654,
        "entry_name": "GET LUCKY",
        "event_total": 59,
        "has_played": true,
        "id": 254115,
        "last_rank": 68556,
        "player_name": "El Professor",
        "rank": 64047,
        "rank_sort": 64047,
        "total": 2343
      },
      {
        "club_badge_src": "https://fantasy.premierleague.com/gcs/plfpl-production-adobe-approved/plfpl-production/749216/c95df5c5-14ae-4251-908a-a6cd4d9770de.png",
        "entry": 749216,
        "entry_name": "Fc Magwi",
        "event_total": 38,
        "has_played": true,
        "id": 5097420,
        "last_rank": 36110,
        "player_name": "ahmed junior",
        "rank": 64047,
        "rank_sort": 64048,
        "total": 2343
      },
      {
        "club_badge_src": null,
        "entry": 876678,
        "entry_name": "Riley FC",
        "event_total": 55,
        "has_played": true,
        "id": 6010490,
        "last_rank": 61258,
        "player_name": "Riley Sherwin",
        "rank": 64047,
        "rank_sort": 64049,
        "total": 2343
      },
      {
        "club_badge_src": null,
        "entry": 2016753,
        "entry_name": "Oh football friends",
        "event_total": 47,
        "has_played": true,
        "id": 14267702,
        "last_rank": 48084,
        "player_name": "Isak Nor\u00e9n",
        "rank": 64047,
        "rank_sort": 64050,
        "total": 2343
      }
    ]
  }
}