{
  "last_updated_data": "2026-05-24T23:28:17Z",
  "league": {
    "admin_entry": null,
    "closed": false,
    "code_privacy": "p",
    "created": "2025-07-20T23:14:33.933835Z",
    "cup_league": 2815434,
    "has_cup": true,
    "id": 314,
    "league_type": "s",
    "max_entries": null,
    "name": "Overall",
    "rank": null,
    "scoring": "c",
    "start_event": 1
  },
  "new_entries": {
    "has_next": false,
    "page": 1,
    "results": []
  },
  "standings": {
    "has_next": true,
    "page": 705,
    "results": [
      {
        "club_badge_src": null,
        "entry": 1144352,
        "entry_name": "Sillastryparna",
        "event_total": 50,
        "has_played": true,
        "id": 7932352,
        "last_rank": 27770,
        "player_name": "Simon Isaksson",
        "rank": 35108,
        "rank_sort": 35201,
        "total": 2363
      },
      {
        "club_badge_src": null,
        "entry": 1147610,
        "entry_name": "Orange City Boy",
        "event_total": 49,
        "has_played": true,
        "id": 7956922,
        "last_rank": 26710,
        "player_name": "Jan G\u00f3recki",
        "rank": 35108,
        "rank_sort": 35202,
        "total": 2363
      },
      {
        "club_badge_src": null,
        "entry": 1182920,
        "entry_name": "Harry bale Wilson v2",
        "event_total": 53,
        "has_played": true,
        "id": 8207326,
        "last_rank": 30727,
        "player_name": "Asad Yasin",
        "rank": 35108,
        "rank_sort": 35203,
        "total": 2363
      },
      {
        "club_badge_src": null,
        "entry": 1201124,
        "entry_name": "Lillyman's Squad",
        "event_total": 81,
        "has_played": true,
        "id": 8335201,
        "last_rank": 72702,
        "player_name": "Craig Lillyman",
        "rank": 35108,
        "rank_sort": 35204,
        "total": 2363
      },
      {
        "club_badge_src": null,
        "entry": 1243397,
        "entry_name": "sahas11",
        "event_total": 71,
        "has_played": true,
        "id": 8635421,
        "last_rank": 55014,
        "player_name": "Sagar Karmacharya",
        "rank": 35108,
        "rank_sort": 35205,
        "total": 2363
      },
      {
        "club_badge_src": null,
        "entry": 1295224,
        "entry_name": "GyoZa",
        "event_total": 60,
        "has_played": true,
        "id": 9001562,
        "last_rank": 38644,
        "player_name": "Law Chew Sen",
        "rank": 35108,
        "rank_sort": 35206,
        "total": 2363
      },
      {
        "club_badge_src": null,
        "entry": 1295334,
        "entry_name": "No Fulham No Cry",
        "event_total": 66,
        "has_played": true,
        "id": 9002315,
        "last_rank": 46839,
        "player_name": "Adam HG",
        "rank": 35108,
        "rank_sort": 35207,
        "total": 2363
      },
      {
        "club_badge_src": null,
        "entry": 1335897,
        "entry_name": "Ekitike Taka",
        "event_total": 55,
        "has_played": true,
        "id": 9285838,
        "last_rank": 32751,
        "player_name": "Onurcan Arslan",
        "rank": 35108,
        "rank_sort": 35208,
        "total": 2363
      },
      {
        "club_badge_src": null,
        "entry": 1347840,
        "entry_name": "Change Name",
        "event_total": 52,
        "has_played": true,
        "id": 9370583,
        "last_rank": 29688,
        "player_name": "Joseph Gallagher",
        "rank": 35108,
        "rank_sort": 35209,
        "total": 2363
      },
      {
        "club_badge_src": null,
        "entry": 1420735,
        "entry_name": "Change Name",
        "event_total": 55,
        "has_played": true,
        "id": 9892460,
        "last_rank": 32879,
        "player_name": "Luke Manly",
        "rank": 35108,
        "rank_sort": 35210,
        "total": 2363
      },
      {
        "club_badge_src": null,
        "entry": 1430297,
        "entry_name": "Rooey FC",
        "event_total": 65,
        "has_played": true,
        "id": 9966387,
        "last_rank": 45182,
        "player_name": "Jack Rucioch",
        "rank": 35108,
        "rank_sort": 35211,
        "total": 2363
      },
      {
        "club_badge_src": null,
        "entry": 1499913,
        "entry_name": "Obi Wan-Bissaka",
        "event_total": 61,
        "has_played": true,
        "id": 10460145,
        "last_rank": 40036,
        "player_name": "Andy Bell",
        "rank": 35108,
        "rank_sort": 35212,
        "total": 2363
      },
      {
        "club_badge_src": null,
        "entry": 1503417,
        "entry_name": "Stretford Elite",
        "event_total": 71,
        "has_played": true,
        "id": 10484861,
        "last_rank": 54667,
        "player_name": "Martin Coetzee",
        "rank": 35108,
        "rank_sort": 35213,
        "total": 2363
      },
      {
        "club_badge_src": null,
        "entry": 1507622,
        "entry_name": "Pornosaurus Rex",
        "event_total": 63,
        "has_played": true,
        "id": 10514750,
        "last_rank": 42940,
        "player_name": "Joakim Grabbe",
        "rank": 35108,
        "rank_sort": 35214,
        "total": 2363
      },
      {
        "club_badge_src": null,
        "entry": 1508809,
        "entry_name": "KIO FC",
        "event_total": 59,
        "has_played": true,
        "id": 10523039,
        "last_rank": 37435,
        "player_name": "Joseph McKie",
        "rank": 35108,
        "rank_sort": 35215,
        "total": 2363
      },
      {
        "club_badge_src": null,
        "entry": 1534933,
        "entry_name": "Akunamata",
        "event_total": 66,
        "has_played": true,
        "id": 10711790,
        "last_rank": 46839,
        "player_name": "Edwin Ebeh",
        "rank": 35108,
        "rank_sort": 35216,
        "total": 2363
      },
      {
        "club_badge_src": null,
        "entry": 1556978,
        "entry_name": "Viktory is mine",
        "event_total": 49,
        "has_played": true,
        "id": 10872173,
        "last_rank": 26827,
        "player_name": "Joe Agho",
        "rank": 35108,
        "rank_sort": 35217,
        "total": 2363
      },
      {
        "club_badge_src": null,
        "entry": 1603537,
        "entry_name": "Twitchers United",
        "event_total": 58,
        "has_played": true,
        "id": 11218478,
        "last_rank": 36348,
        "player_name": "john adshead",
        "rank": 35108,
        "rank_sort": 35218,
        "total": 2363
      },
      {
        "club_badge_src": null,
        "entry": 1616074,
        "entry_name": "Abo Ali",
        "event_total": 49,
        "has_played": true,
        "id": 11308130,
        "last_rank": 27020,
        "player_name": "Ahmed Ali",
        "rank": 35108,
        "rank_sort": 35219,
        "total": 2363
      },
      {
        "club_badge_src": null,
        "entry": 1723771,
        "entry_name": "Stevie's boyz",
        "event_total": 35,
        "has_played": true,
        "id": 12087047,
        "last_rank": 16163,
        "player_name": "Stephen Frogley",
        "rank": 35108,
        "rank_sort": 35220,
        "total": 2363
      },
      {
        "club_badge_src": null,
        "entry": 1724605,
        "entry_name": "FC Pe\u0161\u010denica",
        "event_total": 68,
        "has_played": true,
        "id": 12093510,
        "last_rank": 49607,
        "player_name": "Filip \u0110urkovi\u0107",
        "rank": 35108,
        "rank_sort": 35221,
        "total": 2363
      },
      {
        "club_badge_src": null,
        "entry": 1735739,
        "entry_name": "cuti and the beast",
        "event_total": 76,
        "has_played": true,
        "id": 12176810,
        "last_rank": 63201,
        "player_name": "George Deluce",
        "rank": 35108,
        "rank_sort": 35222,
        "total": 2363
      },
      {
        "club_badge_src": null,
        "entry": 1815647,
        "entry_name": "Stach Attack",
        "event_total": 58,
        "has_played": true,
        "id": 12767824,
        "last_rank": 36200,
        "player_name": "Stephen Ellison",
        "rank": 35108,
        "rank_sort": 35223,
        "total": 2363
      },
      {
        "club_badge_src": "https://fantasy.premierleague.com/gcs/plfpl-production-adobe-approved/plfpl-production/1968099/95d3eccc-2ed5-4058-ae81-e3102364a269.png",
        "entry": 1968099,
        "entry_name": "Klapk\u00e1\u010di",
        "event_total": 63,
        "has_played": true,
        "id": 13889345,
        "last_rank": 42648,
        "player_name": "D\u00e1vid Mol\u010dan",
        "rank": 35108,
        "rank_sort": 35224,
        "total": 2363
      },
      {
        "club_badge_src": "https://fantasy.premierleague.com/gcs/plfpl-production-adobe-approved/plfpl-production/2017357/bdb8fc9b-2995-4a92-b342-ea90ececd3ec.png",
        "entry": 2017357,
        "entry_name": "HaCunha Matata Utd",
        "event_total": 55,
        "has_played": true,
        "id": 14272332,
        "last_rank": 32879,
        "player_name": "Katy Symonds",
        "rank": 35108,
        "rank_sort": 35225,
        "total": 2363
      },
      {
        "club_badge_src": null,
        "entry": 2026361,
        "entry_name": "Writz-Case Scenario",
        "event_total": 76,
        "has_played": true,
        "id": 14344518,
        "last_rank": 63201,
        "player_name": "Liam Kelly",
        "rank": 35108,
        "rank_sort": 35226,
        "total": 2363
      },
      {
        "club_badge_src": null,
        "entry": 2027760,
        "entry_name": "Under My Cucurella",
        "event_total": 60,
        "has_played": true,
        "id": 14354893,
        "last_rank": 39023,
        "player_name": "Karol Piwonski",
        "rank": 35108,
        "rank_sort": 35227,
        "total": 2363
      },
      {
        "club_badge_src": null,
        "entry": 2080886,
        "entry_name": "Formerly Chuck's",
        "event_total": 60,
        "has_played": true,
        "id": 14755576,
        "last_rank": 38774,
        "player_name": "Martin Speller",
        "rank": 35108,
        "rank_sort": 35228,
        "total": 2363
      },
      {
        "club_badge_src": null,
        "entry": 2107405,
        "entry_name": "C'est Le F\u00e9e",
        "event_total": 55,
        "has_played": true,
        "id": 14956297,
        "last_rank": 32879,
        "player_name": "William Pound",
        "rank": 35108,
        "rank_sort": 35229,
        "total": 2363
      },
      {
        "club_badge_src": null,
        "entry": 2114468,
        "entry_name": "Earth Wind & Maguire",
        "event_total": 61,
        "has_played": true,
        "id": 15012517,
        "last_rank": 39874,
        "player_name": "Philip Mellors",
        "rank": 35108,
        "rank_sort": 35230,
        "total": 2363
      },
      {
        "club_badge_src": null,
        "entry": 2130747,
        "entry_name": "liksies fc",
        "event_total": 72,
        "has_played": true,
        "id": 15141355,
        "last_rank": 56180,
        "player_name": "Kyriacos Theodosiou",
        "rank": 35108,
        "rank_sort": 35231,
        "total": 2363
      },
      {
        "club_badge_src": null,
        "entry": 2231143,
        "entry_name": "POP United",
        "event_total": 53,
        "has_played": true,
        "id": 15894451,
        "last_rank": 30727,
        "player_name": "Pop Nakthoug",
        "rank": 35108,
        "rank_sort": 35232,
        "total": 2363
      },
      {
        "club_badge_src": null,
        "entry": 2240679,
        "entry_name": "DeCodeLauncher",
        "event_total": 44,
        "has_played": true,
        "id": 15963112,
        "last_rank": 22534,
        "player_name": "Anuwat Vaew",
        "rank": 35108,
        "rank_sort": 35233,
        "total": 2363
      },
      {
        "club_badge_src": null,
        "entry": 2357929,
        "entry_name": "Under My Cucurella",
        "event_total": 56,
        "has_played": true,
        "id": 16825281,
        "last_rank": 34051,
        "player_name": "Denis Cicu",
        "rank": 35108,
        "rank_sort": 35234,
        "total": 2363
      },
      {
        "club_badge_src": null,
        "entry": 2387591,
        "entry_name": "FC Mwethee",
        "event_total": 75,
        "has_played": true,
        "id": 17053636,
        "last_rank": 61606,
        "player_name": "Denno Mwas",
        "rank": 35108,
        "rank_sort": 35235,
        "total": 2363
      },
      {
        "club_badge_src": null,
        "entry": 2524513,
        "entry_name": "nedb\u00f8r",
        "event_total": 57,
        "has_played": true,
        "id": 18089378,
        "last_rank": 35166,
        "player_name": "Mads Hesb\u00f8l",
        "rank": 35108,
        "rank_sort": 35236,
        "total": 2363
      },
      {
        "club_badge_src": null,
        "entry": 2651085,
        "entry_name": "Saka Potatoes",
        "event_total": 49,
        "has_played": true,
        "id": 19055627,
        "last_rank": 26710,
        "player_name": "Ben Dykins",
        "rank": 35108,
        "rank_sort": 35237,
        "total": 2363
      },
      {
        "club_badge_src": null,
        "entry": 2701157,
        "entry_name": "Honolulu",
        "event_total": 73,
        "has_played": true,
        "id": 19431539,
        "last_rank": 57857,
        "player_name": "Hassan Ali",
        "rank": 35108,
        "rank_sort": 35238,
        "total": 2363
      },
      {
        "club_badge_src": null,
        "entry": 2848250,
        "entry_name": "The Night Crawlers",
        "event_total": 66,
        "has_played": true,
        "id": 20823729,
        "last_rank": 46839,
        "player_name": "Lewis Myhill",
        "rank": 35108,
        "rank_sort": 35239,
        "total": 2363
      },
      {
        "club_badge_src": "https://fantasy.premierleague.com/gcs/plfpl-production-adobe-approved/plfpl-production/2901513/9cd6d65e-8c8e-427a-8497-54a0bb20a887.png",
        "entry": 2901513,
        "entry_name": "FC Asura",
        "event_total": 36,
        "has_played": true,
        "id": 21262741,
        "last_rank": 16959,
        "player_name": "Awais Suleman Rashid",
        "rank": 35108,
        "rank_sort": 35240,
        "total": 2363
      },
      {
        "club_badge_src": null,
        "entry": 2920998,
        "entry_name": "Bapenhuyzen",
        "event_total": 62,
        "has_played": true,
        "id": 21412831,
        "last_rank": 41324,
        "player_name": "Cathal Broderick",
        "rank": 35108,
        "rank_sort": 35241,
        "total": 2363
      },
      {
        "club_badge_src": "https://fantasy.premierleague.com/gcs/plfpl-production-adobe-approved/plfpl-production/2926320/80e07618-03a9-49c6-a98d-a4a6e6e6aeea.png",
        "entry": 2926320,
        "entry_name": "incognito FC",
        "event_total": 67,
        "has_played": true,
        "id": 21453245,
        "last_rank": 48197,
        "player_name": "Shw Sam",
        "rank": 35108,
        "rank_sort": 35242,
        "total": 2363
      },
      {
        "club_badge_src": null,
        "entry": 2949850,
        "entry_name": "That's Amorim",
        "event_total": 57,
        "has_played": true,
        "id": 21664104,
        "last_rank": 35166,
        "player_name": "Raz Raslan",
        "rank": 35108,
        "rank_sort": 35243,
        "total": 2363
      },
      {
        "club_badge_src": null,
        "entry": 3023866,
        "entry_name": "Ulvens utvalgte..",
        "event_total": 66,
        "has_played": true,
        "id": 22248909,
        "last_rank": 46839,
        "player_name": "Johnny Ulvseth",
        "rank": 35108,
        "rank_sort": 35244,
        "total": 2363
      },
      {
        "club_badge_src": null,
        "entry": 3119346,
        "entry_name": "Taipei 101 Goals",
        "event_total": 53,
        "has_played": true,
        "id": 23019510,
        "last_rank": 30727,
        "player_name": "Joe Embleton-Smith",
        "rank": 35108,
        "rank_sort": 35245,
        "total": 2363
      },
      {
        "club_badge_src": null,
        "entry": 3135730,
        "entry_name": "Big guns",
        "event_total": 64,
        "has_played": true,
        "id": 23146968,
        "last_rank": 44048,
        "player_name": "JJ Leeu",
        "rank": 35108,
        "rank_sort": 35246,
        "total": 2363
      },
      {
        "club_badge_src": null,
        "entry": 3139651,
        "entry_name": "Maestros",
        "event_total": 44,
        "has_played": true,
        "id": 23177898,
        "last_rank": 22685,
        "player_name": "Stian Solberg",
        "rank": 35108,
        "rank_sort": 35247,
        "total": 2363
      },
      {
        "club_badge_src": null,
        "entry": 3156398,
        "entry_name": "VAR is Ruining My Li",
        "event_total": 58,
        "has_played": true,
        "id": 23314004,
        "last_rank": 36624,
        "player_name": "Fakher Saidi",
        "rank": 35108,
        "rank_sort": 35248,
        "total": 2363
      },
      {
        "club_badge_src": null,
        "entry": 3225168,
        "entry_name": "ossie's dream \u2728\ufe0f",
        "event_total": 67,
        "has_played": true,
        "id": 23850810,
        "last_rank": 48363,
        "player_name": "Scott Tough",
        "rank": 35108,
        "rank_sort": 35249,
        "total": 2363
      },
      {
        "club_badge_src": null,
        "entry": 3310405,
        "entry_name": "apple",
        "event_total": 54,
        "has_played": true,
        "id": 24525842,
        "last_rank": 31747,
        "player_name": "Apple Le",
        "rank": 35108,
        "rank_sort": 35250,
        "total": 2363
      }
    ]
  }
}