{
  "last_updated_data": "2026-05-24T23:28:17Z",
  "league": {
    "admin_entry": null,
    "closed": false,
    "code_privacy": "p",
    "created": "2025-07-20T23:14:33.933835Z",
    "cup_league": 2815434,
    "has_cup": true,
    "id": 314,
    "league_type": "s",
    "max_entries": null,
    "name": "Overall",
    "rank": null,
    "scoring": "c",
    "start_event": 1
  },
  "new_entries": {
    "has_next": false,
    "page": 1,
    "results": []
  },
  "standings": {
    "has_next": true,
    "page": 1657,
    "results": [
      {
        "club_badge_src": null,
        "entry": 819717,
        "entry_name": "Selling Fresh Fruit",
        "event_total": 65,
        "has_played": true,
        "id": 5613989,
        "last_rank": 104388,
        "player_name": "Jake Daly",
        "rank": 82714,
        "rank_sort": 82801,
        "total": 2334
      },
      {
        "club_badge_src": "https://fantasy.premierleague.com/gcs/plfpl-production-adobe-approved/plfpl-production/853303/1afd265e-5cb4-43fc-b80b-41e00e53aceb.png",
        "entry": 853303,
        "entry_name": "The Maenads",
        "event_total": 70,
        "has_played": true,
        "id": 5848916,
        "last_rank": 106763,
        "player_name": "Janine Lowe",
        "rank": 82714,
        "rank_sort": 82802,
        "total": 2334
      },
      {
        "club_badge_src": null,
        "entry": 895816,
        "entry_name": "Captain Assaad",
        "event_total": 59,
        "has_played": true,
        "id": 6153924,
        "last_rank": 89426,
        "player_name": "Bill Assaad",
        "rank": 82714,
        "rank_sort": 82803,
        "total": 2334
      },
      {
        "club_badge_src": null,
        "entry": 905455,
        "entry_name": "Splashing the cash",
        "event_total": 67,
        "has_played": true,
        "id": 6223325,
        "last_rank": 109454,
        "player_name": "Nigel Rowley",
        "rank": 82714,
        "rank_sort": 82804,
        "total": 2334
      },
      {
        "club_badge_src": null,
        "entry": 915225,
        "entry_name": "Devils@westlondon",
        "event_total": 67,
        "has_played": true,
        "id": 6293498,
        "last_rank": 108959,
        "player_name": "Arun Jacob",
        "rank": 82714,
        "rank_sort": 82805,
        "total": 2334
      },
      {
        "club_badge_src": null,
        "entry": 921355,
        "entry_name": "Tjetlandsbanken",
        "event_total": 55,
        "has_played": true,
        "id": 6336451,
        "last_rank": 63390,
        "player_name": "Sigbj\u00f8rn Tjetland",
        "rank": 82714,
        "rank_sort": 82806,
        "total": 2334
      },
      {
        "club_badge_src": null,
        "entry": 928457,
        "entry_name": "Spirowiri Sables",
        "event_total": 51,
        "has_played": true,
        "id": 6388093,
        "last_rank": 71386,
        "player_name": "shirley foster",
        "rank": 82714,
        "rank_sort": 82807,
        "total": 2334
      },
      {
        "club_badge_src": null,
        "entry": 932263,
        "entry_name": "victorianos",
        "event_total": 56,
        "has_played": true,
        "id": 6414946,
        "last_rank": 82398,
        "player_name": "Wojciech Rakowski",
        "rank": 82714,
        "rank_sort": 82808,
        "total": 2334
      },
      {
        "club_badge_src": null,
        "entry": 936970,
        "entry_name": "The Amazing Tugay",
        "event_total": 66,
        "has_played": true,
        "id": 6448177,
        "last_rank": 106763,
        "player_name": "Lee Kenny",
        "rank": 82714,
        "rank_sort": 82809,
        "total": 2334
      },
      {
        "club_badge_src": null,
        "entry": 944395,
        "entry_name": "Team Skov",
        "event_total": 35,
        "has_played": true,
        "id": 6504564,
        "last_rank": 44525,
        "player_name": "Henrik Skov",
        "rank": 82714,
        "rank_sort": 82810,
        "total": 2334
      },
      {
        "club_badge_src": "https://fantasy.premierleague.com/gcs/plfpl-production-adobe-approved/plfpl-production/964685/c002fd49-3e96-4b31-a768-e4a0ad7eaadd.png",
        "entry": 964685,
        "entry_name": "Biohazard\u2623\ufe0f",
        "event_total": 48,
        "has_played": true,
        "id": 6648389,
        "last_rank": 65796,
        "player_name": "walid ben ammar",
        "rank": 82714,
        "rank_sort": 82811,
        "total": 2334
      },
      {
        "club_badge_src": null,
        "entry": 972603,
        "entry_name": "Haaland Globetrotter",
        "event_total": 64,
        "has_played": true,
        "id": 6704581,
        "last_rank": 91466,
        "player_name": "Matt Hesketh",
        "rank": 82714,
        "rank_sort": 82812,
        "total": 2334
      },
      {
        "club_badge_src": null,
        "entry": 973772,
        "entry_name": "Noni Your Business",
        "event_total": 72,
        "has_played": true,
        "id": 6712616,
        "last_rank": 124336,
        "player_name": "James Bell",
        "rank": 82714,
        "rank_sort": 82813,
        "total": 2334
      },
      {
        "club_badge_src": null,
        "entry": 975832,
        "entry_name": "New McGinnings",
        "event_total": 66,
        "has_played": true,
        "id": 6727074,
        "last_rank": 86304,
        "player_name": "Ben Piggott",
        "rank": 82714,
        "rank_sort": 82814,
        "total": 2334
      },
      {
        "club_badge_src": null,
        "entry": 992719,
        "entry_name": "KBR",
        "event_total": 65,
        "has_played": true,
        "id": 6846814,
        "last_rank": 104388,
        "player_name": "Kristoffer Bratt Rebne",
        "rank": 82714,
        "rank_sort": 82815,
        "total": 2334
      },
      {
        "club_badge_src": "https://fantasy.premierleague.com/gcs/plfpl-production-adobe-approved/plfpl-production/995820/157ab0ce-b299-4f6d-82bf-bf5a60930050.png",
        "entry": 995820,
        "entry_name": "Shabeab",
        "event_total": 42,
        "has_played": true,
        "id": 6874202,
        "last_rank": 55311,
        "player_name": "Ahmed Shabeab",
        "rank": 82714,
        "rank_sort": 82816,
        "total": 2334
      },
      {
        "club_badge_src": null,
        "entry": 1004739,
        "entry_name": "Hurrikane",
        "event_total": 43,
        "has_played": true,
        "id": 6945526,
        "last_rank": 57001,
        "player_name": "Mathias Gjestad",
        "rank": 82714,
        "rank_sort": 82817,
        "total": 2334
      },
      {
        "club_badge_src": null,
        "entry": 1009169,
        "entry_name": "Crud Chump United",
        "event_total": 44,
        "has_played": true,
        "id": 6977302,
        "last_rank": 58688,
        "player_name": "Richard Fletcher",
        "rank": 82714,
        "rank_sort": 82818,
        "total": 2334
      },
      {
        "club_badge_src": null,
        "entry": 1045030,
        "entry_name": "Yer Da Sells Avon",
        "event_total": 58,
        "has_played": true,
        "id": 7232270,
        "last_rank": 68748,
        "player_name": "Amir Kala",
        "rank": 82714,
        "rank_sort": 82819,
        "total": 2334
      },
      {
        "club_badge_src": null,
        "entry": 1052568,
        "entry_name": "The Ramz Nations",
        "event_total": 48,
        "has_played": true,
        "id": 7284427,
        "last_rank": 66057,
        "player_name": "Cameron Mckellar",
        "rank": 82714,
        "rank_sort": 82820,
        "total": 2334
      },
      {
        "club_badge_src": null,
        "entry": 1066233,
        "entry_name": "Delap Dance",
        "event_total": 63,
        "has_played": true,
        "id": 7381224,
        "last_rank": 89055,
        "player_name": "Luke Pyke",
        "rank": 82714,
        "rank_sort": 82821,
        "total": 2334
      },
      {
        "club_badge_src": null,
        "entry": 1077171,
        "entry_name": "Saints Fc",
        "event_total": 70,
        "has_played": true,
        "id": 7458324,
        "last_rank": 106763,
        "player_name": "Jimmy Bamgbose",
        "rank": 82714,
        "rank_sort": 82822,
        "total": 2334
      },
      {
        "club_badge_src": null,
        "entry": 1110609,
        "entry_name": "Velki lul\u010dki FC",
        "event_total": 66,
        "has_played": true,
        "id": 7693168,
        "last_rank": 96374,
        "player_name": "jurc horvat",
        "rank": 82714,
        "rank_sort": 82823,
        "total": 2334
      },
      {
        "club_badge_src": null,
        "entry": 1113565,
        "entry_name": "\u0627\u064a\u062f\u0643 \u064a\u0627 \u0627\u0645\u064a\u0646 \u062e\u0627\u0644\u062f",
        "event_total": 50,
        "has_played": true,
        "id": 7713546,
        "last_rank": 69641,
        "player_name": "Abdo Elbadry",
        "rank": 82714,
        "rank_sort": 82824,
        "total": 2334
      },
      {
        "club_badge_src": null,
        "entry": 1138486,
        "entry_name": "Kilamyra FC",
        "event_total": 54,
        "has_played": true,
        "id": 7891715,
        "last_rank": 77999,
        "player_name": "Gunnar Aamodt Andersen",
        "rank": 82714,
        "rank_sort": 82825,
        "total": 2334
      },
      {
        "club_badge_src": null,
        "entry": 1138663,
        "entry_name": "El Spicy \ufffd \ufffd",
        "event_total": 62,
        "has_played": true,
        "id": 7892981,
        "last_rank": 96777,
        "player_name": "El Spicy --",
        "rank": 82714,
        "rank_sort": 82826,
        "total": 2334
      },
      {
        "club_badge_src": null,
        "entry": 1176245,
        "entry_name": "SHARK XI",
        "event_total": 57,
        "has_played": true,
        "id": 8161355,
        "last_rank": 84980,
        "player_name": "Bharath Ravichandran",
        "rank": 82714,
        "rank_sort": 82827,
        "total": 2334
      },
      {
        "club_badge_src": null,
        "entry": 1233648,
        "entry_name": "Glory FC",
        "event_total": 71,
        "has_played": true,
        "id": 8566652,
        "last_rank": 120941,
        "player_name": "Rian Desai",
        "rank": 82714,
        "rank_sort": 82828,
        "total": 2334
      },
      {
        "club_badge_src": null,
        "entry": 1236215,
        "entry_name": "Holy Boehly",
        "event_total": 43,
        "has_played": true,
        "id": 8584495,
        "last_rank": 57001,
        "player_name": "Jack Palmer",
        "rank": 82714,
        "rank_sort": 82829,
        "total": 2334
      },
      {
        "club_badge_src": "https://fantasy.premierleague.com/gcs/plfpl-production-adobe-approved/plfpl-production/1236398/d9467cb0-21e6-438e-9fd5-e48c621557d9.png",
        "entry": 1236398,
        "entry_name": "Danmaliki",
        "event_total": 74,
        "has_played": true,
        "id": 8585752,
        "last_rank": 130566,
        "player_name": "Mubarak Danmaliki",
        "rank": 82714,
        "rank_sort": 82830,
        "total": 2334
      },
      {
        "club_badge_src": null,
        "entry": 1249060,
        "entry_name": "FK Jablan",
        "event_total": 42,
        "has_played": true,
        "id": 8674742,
        "last_rank": 55311,
        "player_name": "Filip Lalovi\u0107",
        "rank": 82714,
        "rank_sort": 82831,
        "total": 2334
      },
      {
        "club_badge_src": null,
        "entry": 1253497,
        "entry_name": "Wirtz Case Scenario",
        "event_total": 61,
        "has_played": true,
        "id": 8706091,
        "last_rank": 83934,
        "player_name": "Shaun Clynes",
        "rank": 82714,
        "rank_sort": 82832,
        "total": 2334
      },
      {
        "club_badge_src": null,
        "entry": 1280669,
        "entry_name": "Neville Wears Prada",
        "event_total": 71,
        "has_played": true,
        "id": 8899029,
        "last_rank": 120941,
        "player_name": "Niall Murphy",
        "rank": 82714,
        "rank_sort": 82833,
        "total": 2334
      },
      {
        "club_badge_src": null,
        "entry": 1326060,
        "entry_name": "Wirtz Case Scenario",
        "event_total": 59,
        "has_played": true,
        "id": 9217458,
        "last_rank": 89055,
        "player_name": "Lewis Blackwell",
        "rank": 82714,
        "rank_sort": 82834,
        "total": 2334
      },
      {
        "club_badge_src": "https://fantasy.premierleague.com/gcs/plfpl-production-adobe-approved/plfpl-production/1395237/27211409-e0e7-45e8-abf0-379b89f1d42d.png",
        "entry": 1395237,
        "entry_name": "Baskerville Utd",
        "event_total": 39,
        "has_played": true,
        "id": 9706505,
        "last_rank": 50468,
        "player_name": "David Holmes",
        "rank": 82714,
        "rank_sort": 82835,
        "total": 2334
      },
      {
        "club_badge_src": null,
        "entry": 1405859,
        "entry_name": "Randall Rovers",
        "event_total": 61,
        "has_played": true,
        "id": 9782012,
        "last_rank": 93883,
        "player_name": "Caoilean Hughes",
        "rank": 82714,
        "rank_sort": 82836,
        "total": 2334
      },
      {
        "club_badge_src": null,
        "entry": 1414453,
        "entry_name": "Gooner_Tifosi",
        "event_total": 54,
        "has_played": true,
        "id": 9843878,
        "last_rank": 77676,
        "player_name": "Rahul Narsinghpura",
        "rank": 82714,
        "rank_sort": 82837,
        "total": 2334
      },
      {
        "club_badge_src": null,
        "entry": 1422469,
        "entry_name": "MyBabyBlue",
        "event_total": 46,
        "has_played": true,
        "id": 9904869,
        "last_rank": 62223,
        "player_name": "Sjoerd Hochstenbach",
        "rank": 82714,
        "rank_sort": 82838,
        "total": 2334
      },
      {
        "club_badge_src": null,
        "entry": 1463938,
        "entry_name": "Grumpy Gus",
        "event_total": 65,
        "has_played": true,
        "id": 10204350,
        "last_rank": 104388,
        "player_name": "Angus Dixon",
        "rank": 82714,
        "rank_sort": 82839,
        "total": 2334
      },
      {
        "club_badge_src": null,
        "entry": 1469653,
        "entry_name": "Gaga's Giants",
        "event_total": 46,
        "has_played": true,
        "id": 10244215,
        "last_rank": 62223,
        "player_name": "Stephen Kelly",
        "rank": 82714,
        "rank_sort": 82840,
        "total": 2334
      },
      {
        "club_badge_src": null,
        "entry": 1472276,
        "entry_name": "midtable fc",
        "event_total": 52,
        "has_played": true,
        "id": 10262780,
        "last_rank": 73038,
        "player_name": "Jake Croasdale",
        "rank": 82714,
        "rank_sort": 82841,
        "total": 2334
      },
      {
        "club_badge_src": null,
        "entry": 1513260,
        "entry_name": "De Ballers",
        "event_total": 60,
        "has_played": true,
        "id": 10554367,
        "last_rank": 91466,
        "player_name": "Olayinka Mate",
        "rank": 82714,
        "rank_sort": 82842,
        "total": 2334
      },
      {
        "club_badge_src": null,
        "entry": 1606304,
        "entry_name": "A Cunha Matata",
        "event_total": 53,
        "has_played": true,
        "id": 11238386,
        "last_rank": 75874,
        "player_name": "Sam Mayhew",
        "rank": 82714,
        "rank_sort": 82843,
        "total": 2334
      },
      {
        "club_badge_src": null,
        "entry": 1628959,
        "entry_name": "Duff Desperados",
        "event_total": 57,
        "has_played": true,
        "id": 11401678,
        "last_rank": 84731,
        "player_name": "Darren Duffy",
        "rank": 82714,
        "rank_sort": 82844,
        "total": 2334
      },
      {
        "club_badge_src": null,
        "entry": 1632005,
        "entry_name": "the bjiol n end all",
        "event_total": 65,
        "has_played": true,
        "id": 11423044,
        "last_rank": 104388,
        "player_name": "Andrew Bottom",
        "rank": 82714,
        "rank_sort": 82845,
        "total": 2334
      },
      {
        "club_badge_src": null,
        "entry": 1652143,
        "entry_name": "Top Bins",
        "event_total": 36,
        "has_played": true,
        "id": 11566857,
        "last_rank": 45714,
        "player_name": "Nicky Glenn",
        "rank": 82714,
        "rank_sort": 82846,
        "total": 2334
      },
      {
        "club_badge_src": null,
        "entry": 1678638,
        "entry_name": "(fplbg) alGOALrithm",
        "event_total": 64,
        "has_played": true,
        "id": 11751768,
        "last_rank": 91466,
        "player_name": "Dilyan Kovachev --",
        "rank": 82714,
        "rank_sort": 82847,
        "total": 2334
      },
      {
        "club_badge_src": null,
        "entry": 1680775,
        "entry_name": "Thrashers F.C.",
        "event_total": 64,
        "has_played": true,
        "id": 11766218,
        "last_rank": 91006,
        "player_name": "Tiero Bullock",
        "rank": 82714,
        "rank_sort": 82848,
        "total": 2334
      },
      {
        "club_badge_src": null,
        "entry": 1686514,
        "entry_name": "Onana Whats My Name",
        "event_total": 60,
        "has_played": true,
        "id": 11806021,
        "last_rank": 90746,
        "player_name": "Alfie Jones",
        "rank": 82714,
        "rank_sort": 82849,
        "total": 2334
      },
      {
        "club_badge_src": null,
        "entry": 1719904,
        "entry_name": "intyer gyall",
        "event_total": 64,
        "has_played": true,
        "id": 12054198,
        "last_rank": 101818,
        "player_name": "Rian Power",
        "rank": 82714,
        "rank_sort": 82850,
        "total": 2334
      }
    ]
  }
}