{
  "last_updated_data": "2026-05-24T23:28:17Z",
  "league": {
    "admin_entry": null,
    "closed": false,
    "code_privacy": "p",
    "created": "2025-07-20T23:14:33.933835Z",
    "cup_league": 2815434,
    "has_cup": true,
    "id": 314,
    "league_type": "s",
    "max_entries": null,
    "name": "Overall",
    "rank": null,
    "scoring": "c",
    "start_event": 1
  },
  "new_entries": {
    "has_next": false,
    "page": 1,
    "results": []
  },
  "standings": {
    "has_next": true,
    "page": 1185,
    "results": [
      {
        "club_badge_src": null,
        "entry": 5968026,
        "entry_name": "Lingardinho",
        "event_total": 64,
        "has_played": true,
        "id": 46957694,
        "last_rank": 72815,
        "player_name": "Ciar\u00e1n Mac Each\u00e1in",
        "rank": 58914,
        "rank_sort": 59201,
        "total": 2346
      },
      {
        "club_badge_src": null,
        "entry": 6075596,
        "entry_name": "Triple Cap Next week",
        "event_total": 73,
        "has_played": true,
        "id": 47963421,
        "last_rank": 93186,
        "player_name": "jimmy lee",
        "rank": 58914,
        "rank_sort": 59202,
        "total": 2346
      },
      {
        "club_badge_src": null,
        "entry": 6093387,
        "entry_name": "Blaugrana",
        "event_total": 54,
        "has_played": true,
        "id": 48119105,
        "last_rank": 54667,
        "player_name": "Kadek Wahyu aditya",
        "rank": 58914,
        "rank_sort": 59203,
        "total": 2346
      },
      {
        "club_badge_src": null,
        "entry": 6098561,
        "entry_name": "Kinder Mbeumo",
        "event_total": 56,
        "has_played": true,
        "id": 48163790,
        "last_rank": 58388,
        "player_name": "Alistair McLaughlin",
        "rank": 58914,
        "rank_sort": 59204,
        "total": 2346
      },
      {
        "club_badge_src": null,
        "entry": 6101137,
        "entry_name": "Materialtretthet",
        "event_total": 53,
        "has_played": true,
        "id": 48185549,
        "last_rank": 52853,
        "player_name": "Knut Huseb\u00f8",
        "rank": 58914,
        "rank_sort": 59205,
        "total": 2346
      },
      {
        "club_badge_src": null,
        "entry": 6262184,
        "entry_name": "Get a Tan in League1",
        "event_total": 43,
        "has_played": true,
        "id": 49581851,
        "last_rank": 38774,
        "player_name": "Joseph Howe",
        "rank": 58914,
        "rank_sort": 59206,
        "total": 2346
      },
      {
        "club_badge_src": null,
        "entry": 6270393,
        "entry_name": "Leslie Thiaw",
        "event_total": 67,
        "has_played": true,
        "id": 49652099,
        "last_rank": 79079,
        "player_name": "Will Cheesbrough",
        "rank": 58914,
        "rank_sort": 59207,
        "total": 2346
      },
      {
        "club_badge_src": null,
        "entry": 6312282,
        "entry_name": "Hannibal Lecturer",
        "event_total": 53,
        "has_played": true,
        "id": 50084497,
        "last_rank": 52853,
        "player_name": "Seni Lores",
        "rank": 58914,
        "rank_sort": 59208,
        "total": 2346
      },
      {
        "club_badge_src": null,
        "entry": 6334869,
        "entry_name": "O_milde",
        "event_total": 70,
        "has_played": true,
        "id": 50347888,
        "last_rank": 77050,
        "player_name": "Jo\u00e3o Baptista",
        "rank": 58914,
        "rank_sort": 59209,
        "total": 2346
      },
      {
        "club_badge_src": null,
        "entry": 6365128,
        "entry_name": "Low self-Est\u00e8ve",
        "event_total": 46,
        "has_played": true,
        "id": 50612430,
        "last_rank": 42648,
        "player_name": "Aaron Mcaleer",
        "rank": 58914,
        "rank_sort": 59210,
        "total": 2346
      },
      {
        "club_badge_src": null,
        "entry": 6425219,
        "entry_name": "Cunha Matata",
        "event_total": 68,
        "has_played": true,
        "id": 51143514,
        "last_rank": 81244,
        "player_name": "Charles Singh",
        "rank": 58914,
        "rank_sort": 59211,
        "total": 2346
      },
      {
        "club_badge_src": null,
        "entry": 6430135,
        "entry_name": "Pink Sabbath FC",
        "event_total": 35,
        "has_played": true,
        "id": 51186209,
        "last_rank": 29688,
        "player_name": "Tommy Nooranwar",
        "rank": 58914,
        "rank_sort": 59212,
        "total": 2346
      },
      {
        "club_badge_src": null,
        "entry": 6478076,
        "entry_name": "Roadrunner",
        "event_total": 66,
        "has_played": true,
        "id": 51627259,
        "last_rank": 77676,
        "player_name": "Daniel Madden",
        "rank": 58914,
        "rank_sort": 59213,
        "total": 2346
      },
      {
        "club_badge_src": null,
        "entry": 6531720,
        "entry_name": "PepTalkers",
        "event_total": 84,
        "has_played": true,
        "id": 52104370,
        "last_rank": 123120,
        "player_name": "Nikhil Gopal Parvatikar",
        "rank": 58914,
        "rank_sort": 59214,
        "total": 2346
      },
      {
        "club_badge_src": null,
        "entry": 6602693,
        "entry_name": "gordon4s or gordan1s",
        "event_total": 67,
        "has_played": true,
        "id": 52744457,
        "last_rank": 78997,
        "player_name": "Liam Ravenhill",
        "rank": 58914,
        "rank_sort": 59215,
        "total": 2346
      },
      {
        "club_badge_src": null,
        "entry": 6692515,
        "entry_name": "Buddy\u2019s Bashers",
        "event_total": 61,
        "has_played": true,
        "id": 53542922,
        "last_rank": 67063,
        "player_name": "Sam Budworth",
        "rank": 58914,
        "rank_sort": 59216,
        "total": 2346
      },
      {
        "club_badge_src": null,
        "entry": 6705256,
        "entry_name": "The Vision",
        "event_total": 68,
        "has_played": true,
        "id": 53654944,
        "last_rank": 81420,
        "player_name": "Chris 'The Visionary'",
        "rank": 58914,
        "rank_sort": 59217,
        "total": 2346
      },
      {
        "club_badge_src": null,
        "entry": 6714407,
        "entry_name": "Back To Back",
        "event_total": 53,
        "has_played": true,
        "id": 53734909,
        "last_rank": 53023,
        "player_name": "Ramy El Saieed",
        "rank": 58914,
        "rank_sort": 59218,
        "total": 2346
      },
      {
        "club_badge_src": null,
        "entry": 6833932,
        "entry_name": "It's Pronounced Saka",
        "event_total": 88,
        "has_played": true,
        "id": 54742531,
        "last_rank": 135577,
        "player_name": "samuel northrop",
        "rank": 58914,
        "rank_sort": 59219,
        "total": 2346
      },
      {
        "club_badge_src": null,
        "entry": 6834630,
        "entry_name": "Benjamin Te\u0161ko",
        "event_total": 65,
        "has_played": true,
        "id": 54748393,
        "last_rank": 74898,
        "player_name": "Mark Holmes",
        "rank": 58914,
        "rank_sort": 59220,
        "total": 2346
      },
      {
        "club_badge_src": null,
        "entry": 6957581,
        "entry_name": "Lukeshawfitnessclub",
        "event_total": 56,
        "has_played": true,
        "id": 55794849,
        "last_rank": 58071,
        "player_name": "Cael Sullivan",
        "rank": 58914,
        "rank_sort": 59221,
        "total": 2346
      },
      {
        "club_badge_src": null,
        "entry": 7025906,
        "entry_name": "FC \u017duf\u00e1nek",
        "event_total": 59,
        "has_played": true,
        "id": 56446967,
        "last_rank": 63201,
        "player_name": "Tomas Valenta",
        "rank": 58914,
        "rank_sort": 59222,
        "total": 2346
      },
      {
        "club_badge_src": null,
        "entry": 7086309,
        "entry_name": "Bj\u00f8rk wanderers",
        "event_total": 49,
        "has_played": true,
        "id": 57046486,
        "last_rank": 46660,
        "player_name": "Ask Bj\u00f8rklund",
        "rank": 58914,
        "rank_sort": 59223,
        "total": 2346
      },
      {
        "club_badge_src": "https://fantasy.premierleague.com/gcs/plfpl-production-adobe-approved/plfpl-production/7210138/0ae5eabc-c68e-4a71-9a0c-774b863c0b06.png",
        "entry": 7210138,
        "entry_name": "Danny Chan",
        "event_total": 50,
        "has_played": true,
        "id": 58229236,
        "last_rank": 48363,
        "player_name": "G Shaw",
        "rank": 58914,
        "rank_sort": 59224,
        "total": 2346
      },
      {
        "club_badge_src": null,
        "entry": 7212183,
        "entry_name": "Sebaljosi",
        "event_total": 63,
        "has_played": true,
        "id": 58248718,
        "last_rank": 70757,
        "player_name": "Milan Gruji\u0107",
        "rank": 58914,
        "rank_sort": 59225,
        "total": 2346
      },
      {
        "club_badge_src": null,
        "entry": 7267156,
        "entry_name": "Golden Belly FC",
        "event_total": 55,
        "has_played": true,
        "id": 58766866,
        "last_rank": 56369,
        "player_name": "Dennis Hughes",
        "rank": 58914,
        "rank_sort": 59226,
        "total": 2346
      },
      {
        "club_badge_src": null,
        "entry": 7271639,
        "entry_name": "Balmacara Destroyers",
        "event_total": 36,
        "has_played": true,
        "id": 58808159,
        "last_rank": 30600,
        "player_name": "Mairi Mackay",
        "rank": 58914,
        "rank_sort": 59227,
        "total": 2346
      },
      {
        "club_badge_src": "https://fantasy.premierleague.com/gcs/plfpl-production-adobe-approved/plfpl-production/7493388/3d449961-c625-4d49-a643-f50a69141181.png",
        "entry": 7493388,
        "entry_name": "Red Arrow - XI",
        "event_total": 61,
        "has_played": true,
        "id": 61196685,
        "last_rank": 67063,
        "player_name": "Lee Olphert",
        "rank": 58914,
        "rank_sort": 59228,
        "total": 2346
      },
      {
        "club_badge_src": null,
        "entry": 7554986,
        "entry_name": "Xavi_Ball",
        "event_total": 64,
        "has_played": true,
        "id": 61857242,
        "last_rank": 73038,
        "player_name": "Lukas Bergstr\u00f6m",
        "rank": 58914,
        "rank_sort": 59229,
        "total": 2346
      },
      {
        "club_badge_src": null,
        "entry": 7728830,
        "entry_name": "ITTI",
        "event_total": 76,
        "has_played": true,
        "id": 63430496,
        "last_rank": 100949,
        "player_name": "Ammar Alghuribi",
        "rank": 58914,
        "rank_sort": 59230,
        "total": 2346
      },
      {
        "club_badge_src": null,
        "entry": 7747678,
        "entry_name": "ziyad itti",
        "event_total": 37,
        "has_played": true,
        "id": 63600149,
        "last_rank": 31747,
        "player_name": "Ziyad Qahtani",
        "rank": 58914,
        "rank_sort": 59231,
        "total": 2346
      },
      {
        "club_badge_src": null,
        "entry": 7777639,
        "entry_name": "Chicken Tika MoSalah",
        "event_total": 52,
        "has_played": true,
        "id": 63872237,
        "last_rank": 51403,
        "player_name": "S Doran",
        "rank": 58914,
        "rank_sort": 59232,
        "total": 2346
      },
      {
        "club_badge_src": null,
        "entry": 7866713,
        "entry_name": "Could be Wirtz",
        "event_total": 52,
        "has_played": true,
        "id": 64684202,
        "last_rank": 51099,
        "player_name": "Taegan Chapman-Ko",
        "rank": 58914,
        "rank_sort": 59233,
        "total": 2346
      },
      {
        "club_badge_src": null,
        "entry": 7889779,
        "entry_name": "OMFG",
        "event_total": 67,
        "has_played": true,
        "id": 64892388,
        "last_rank": 79190,
        "player_name": "Brendan Khiu",
        "rank": 58914,
        "rank_sort": 59234,
        "total": 2346
      },
      {
        "club_badge_src": null,
        "entry": 7931430,
        "entry_name": "Change Name",
        "event_total": 64,
        "has_played": true,
        "id": 65273729,
        "last_rank": 73038,
        "player_name": "Ismail Ellahi",
        "rank": 58914,
        "rank_sort": 59235,
        "total": 2346
      },
      {
        "club_badge_src": null,
        "entry": 7977891,
        "entry_name": "Wirtzua Fighter",
        "event_total": 50,
        "has_played": true,
        "id": 65688394,
        "last_rank": 48197,
        "player_name": "Valeriy Pelinskiy",
        "rank": 58914,
        "rank_sort": 59236,
        "total": 2346
      },
      {
        "club_badge_src": null,
        "entry": 8147476,
        "entry_name": "siiideriii",
        "event_total": 67,
        "has_played": true,
        "id": 67245281,
        "last_rank": 79431,
        "player_name": "Ville Leskinen",
        "rank": 58914,
        "rank_sort": 59237,
        "total": 2346
      },
      {
        "club_badge_src": null,
        "entry": 8165350,
        "entry_name": "Chicken Palmer",
        "event_total": 72,
        "has_played": true,
        "id": 67411302,
        "last_rank": 90746,
        "player_name": "Brenton Verhagen",
        "rank": 58914,
        "rank_sort": 59238,
        "total": 2346
      },
      {
        "club_badge_src": null,
        "entry": 8188145,
        "entry_name": "Moyes in Dahoud",
        "event_total": 60,
        "has_played": true,
        "id": 67627607,
        "last_rank": 65163,
        "player_name": "Ciaran Walsh",
        "rank": 58914,
        "rank_sort": 59239,
        "total": 2346
      },
      {
        "club_badge_src": null,
        "entry": 8372157,
        "entry_name": "Oh my.. Team",
        "event_total": 61,
        "has_played": true,
        "id": 69415355,
        "last_rank": 67063,
        "player_name": "Simon Hui",
        "rank": 58914,
        "rank_sort": 59240,
        "total": 2346
      },
      {
        "club_badge_src": null,
        "entry": 8683742,
        "entry_name": "Chickens United",
        "event_total": 50,
        "has_played": true,
        "id": 72421488,
        "last_rank": 48363,
        "player_name": "Rowan Leigh",
        "rank": 58914,
        "rank_sort": 59241,
        "total": 2346
      },
      {
        "club_badge_src": null,
        "entry": 8801879,
        "entry_name": "Infinite FC.",
        "event_total": 75,
        "has_played": true,
        "id": 73562992,
        "last_rank": 98436,
        "player_name": "Obiakor victor",
        "rank": 58914,
        "rank_sort": 59242,
        "total": 2346
      },
      {
        "club_badge_src": "https://fantasy.premierleague.com/gcs/plfpl-production-adobe-approved/plfpl-production/8918197/677f768c-fc66-4ca1-a595-019192abd35d.png",
        "entry": 8918197,
        "entry_name": "Mrs eldawy",
        "event_total": 46,
        "has_played": true,
        "id": 74685424,
        "last_rank": 42940,
        "player_name": "Amal Elhadidy",
        "rank": 58914,
        "rank_sort": 59243,
        "total": 2346
      },
      {
        "club_badge_src": null,
        "entry": 9046621,
        "entry_name": "Dhruvam5",
        "event_total": 42,
        "has_played": true,
        "id": 75931753,
        "last_rank": 37822,
        "player_name": "Dhruvam P",
        "rank": 58914,
        "rank_sort": 59244,
        "total": 2346
      },
      {
        "club_badge_src": null,
        "entry": 9347714,
        "entry_name": "Ctrl + Alt + De Laet",
        "event_total": 63,
        "has_played": true,
        "id": 78865672,
        "last_rank": 71386,
        "player_name": "S Mitu",
        "rank": 58914,
        "rank_sort": 59245,
        "total": 2346
      },
      {
        "club_badge_src": null,
        "entry": 9352277,
        "entry_name": "Omar Fc",
        "event_total": 76,
        "has_played": true,
        "id": 78908962,
        "last_rank": 100527,
        "player_name": "Omar Abdulaziz",
        "rank": 58914,
        "rank_sort": 59246,
        "total": 2346
      },
      {
        "club_badge_src": null,
        "entry": 9452754,
        "entry_name": "Super Jan Vertonghen",
        "event_total": 38,
        "has_played": true,
        "id": 79873930,
        "last_rank": 33147,
        "player_name": "Iyaz B",
        "rank": 58914,
        "rank_sort": 59247,
        "total": 2346
      },
      {
        "club_badge_src": null,
        "entry": 3786,
        "entry_name": "Balotellitubbies FC",
        "event_total": 39,
        "has_played": true,
        "id": 21467,
        "last_rank": 34293,
        "player_name": "Kieran Mooney",
        "rank": 59248,
        "rank_sort": 59248,
        "total": 2346
      },
      {
        "club_badge_src": null,
        "entry": 5707,
        "entry_name": "Legoracers",
        "event_total": 52,
        "has_played": true,
        "id": 32573,
        "last_rank": 51403,
        "player_name": "H\u00e5vard S\u00f8nnesyn",
        "rank": 59248,
        "rank_sort": 59249,
        "total": 2346
      },
      {
        "club_badge_src": null,
        "entry": 6208,
        "entry_name": "Absolutely Slabulous",
        "event_total": 55,
        "has_played": true,
        "id": 35565,
        "last_rank": 56369,
        "player_name": "Richard Freeman",
        "rank": 59248,
        "rank_sort": 59250,
        "total": 2346
      }
    ]
  }
}