{
  "last_updated_data": "2026-05-24T23:28:17Z",
  "league": {
    "admin_entry": null,
    "closed": false,
    "code_privacy": "p",
    "created": "2025-07-20T23:14:33.933835Z",
    "cup_league": 2815434,
    "has_cup": true,
    "id": 314,
    "league_type": "s",
    "max_entries": null,
    "name": "Overall",
    "rank": null,
    "scoring": "c",
    "start_event": 1
  },
  "new_entries": {
    "has_next": false,
    "page": 1,
    "results": []
  },
  "standings": {
    "has_next": true,
    "page": 1546,
    "results": [
      {
        "club_badge_src": null,
        "entry": 3311493,
        "entry_name": "Witcher20",
        "event_total": 50,
        "has_played": true,
        "id": 24534436,
        "last_rank": 64562,
        "player_name": "Craig Storr",
        "rank": 77218,
        "rank_sort": 77251,
        "total": 2337
      },
      {
        "club_badge_src": null,
        "entry": 3459991,
        "entry_name": "Jackpot Arne",
        "event_total": 71,
        "has_played": true,
        "id": 25718366,
        "last_rank": 102501,
        "player_name": "- KULI-",
        "rank": 77218,
        "rank_sort": 77252,
        "total": 2337
      },
      {
        "club_badge_src": null,
        "entry": 3738398,
        "entry_name": "Livin' Saliba Loca",
        "event_total": 54,
        "has_played": true,
        "id": 27905737,
        "last_rank": 72407,
        "player_name": "Peter McLoughlin",
        "rank": 77218,
        "rank_sort": 77253,
        "total": 2337
      },
      {
        "club_badge_src": null,
        "entry": 3851183,
        "entry_name": "Cantona's Class",
        "event_total": 69,
        "has_played": true,
        "id": 28869187,
        "last_rank": 108086,
        "player_name": "Simon Vinter",
        "rank": 77218,
        "rank_sort": 77254,
        "total": 2337
      },
      {
        "club_badge_src": null,
        "entry": 3927170,
        "entry_name": "TBC FC",
        "event_total": 83,
        "has_played": true,
        "id": 29534602,
        "last_rank": 124961,
        "player_name": "Michael Walsh",
        "rank": 77218,
        "rank_sort": 77255,
        "total": 2337
      },
      {
        "club_badge_src": null,
        "entry": 3982269,
        "entry_name": "Guileen Gooners",
        "event_total": 38,
        "has_played": true,
        "id": 29977708,
        "last_rank": 39650,
        "player_name": "paul kilbane",
        "rank": 77218,
        "rank_sort": 77256,
        "total": 2337
      },
      {
        "club_badge_src": "https://fantasy.premierleague.com/gcs/plfpl-production-adobe-approved/plfpl-production/4343779/c33846d6-6100-40d1-b397-fe7686f0ad05.png",
        "entry": 4343779,
        "entry_name": "Haaland Down Under",
        "event_total": 43,
        "has_played": true,
        "id": 32982617,
        "last_rank": 52603,
        "player_name": "Peter Bellingham",
        "rank": 77218,
        "rank_sort": 77257,
        "total": 2337
      },
      {
        "club_badge_src": null,
        "entry": 4349007,
        "entry_name": "\u0627\u0644\u0623\u0646\u064a\u0642",
        "event_total": 55,
        "has_played": true,
        "id": 33024262,
        "last_rank": 74474,
        "player_name": "alaa elkaidi",
        "rank": 77218,
        "rank_sort": 77258,
        "total": 2337
      },
      {
        "club_badge_src": null,
        "entry": 4350240,
        "entry_name": "BetoFindsTheNeto #20",
        "event_total": 66,
        "has_played": true,
        "id": 33034156,
        "last_rank": 90158,
        "player_name": "Abdul Basith",
        "rank": 77218,
        "rank_sort": 77259,
        "total": 2337
      },
      {
        "club_badge_src": "https://fantasy.premierleague.com/gcs/plfpl-production-adobe-approved/plfpl-production/4449405/69d60215-a593-40d5-8b9c-c585a4179505.png",
        "entry": 4449405,
        "entry_name": "No Oven No Pie",
        "event_total": 61,
        "has_played": true,
        "id": 33888002,
        "last_rank": 87808,
        "player_name": "David Ball",
        "rank": 77218,
        "rank_sort": 77260,
        "total": 2337
      },
      {
        "club_badge_src": null,
        "entry": 5475179,
        "entry_name": "AZ Milan",
        "event_total": 51,
        "has_played": true,
        "id": 42622719,
        "last_rank": 66487,
        "player_name": "BenZ Prajokovic",
        "rank": 77218,
        "rank_sort": 77261,
        "total": 2337
      },
      {
        "club_badge_src": "https://fantasy.premierleague.com/gcs/plfpl-production-adobe-approved/plfpl-production/5551836/0e91733f-db52-4b47-a9b5-f4d12171ea07.png",
        "entry": 5551836,
        "entry_name": "GwilliersAFC",
        "event_total": 54,
        "has_played": true,
        "id": 43331685,
        "last_rank": 72407,
        "player_name": "Andy Gwilliam",
        "rank": 77218,
        "rank_sort": 77262,
        "total": 2337
      },
      {
        "club_badge_src": null,
        "entry": 6037397,
        "entry_name": "Vibes",
        "event_total": 69,
        "has_played": true,
        "id": 47630938,
        "last_rank": 108086,
        "player_name": "Soji K",
        "rank": 77218,
        "rank_sort": 77263,
        "total": 2337
      },
      {
        "club_badge_src": null,
        "entry": 6095449,
        "entry_name": "Hombre Fc",
        "event_total": 40,
        "has_played": true,
        "id": 48136817,
        "last_rank": 47920,
        "player_name": "Wiseman Nkwane",
        "rank": 77218,
        "rank_sort": 77264,
        "total": 2337
      },
      {
        "club_badge_src": null,
        "entry": 6208747,
        "entry_name": "Sheffield Clemsday",
        "event_total": 70,
        "has_played": true,
        "id": 49120999,
        "last_rank": 99959,
        "player_name": "James Clements",
        "rank": 77218,
        "rank_sort": 77265,
        "total": 2337
      },
      {
        "club_badge_src": null,
        "entry": 6244669,
        "entry_name": "JDR's Juicy X1",
        "event_total": 37,
        "has_played": true,
        "id": 49428856,
        "last_rank": 43637,
        "player_name": "Jack Riley",
        "rank": 77218,
        "rank_sort": 77266,
        "total": 2337
      },
      {
        "club_badge_src": null,
        "entry": 6317828,
        "entry_name": "Yeogreens",
        "event_total": 45,
        "has_played": true,
        "id": 50146018,
        "last_rank": 55865,
        "player_name": "Tim Donne",
        "rank": 77218,
        "rank_sort": 77267,
        "total": 2337
      },
      {
        "club_badge_src": null,
        "entry": 6744243,
        "entry_name": "H\u00e4rk\u00e4 fc",
        "event_total": 64,
        "has_played": true,
        "id": 53988344,
        "last_rank": 85487,
        "player_name": "Toni Koppi",
        "rank": 77218,
        "rank_sort": 77268,
        "total": 2337
      },
      {
        "club_badge_src": "https://fantasy.premierleague.com/gcs/plfpl-production-adobe-approved/plfpl-production/6861120/c3ca80a3-e7b2-4f42-bdac-e914c76fc822.png",
        "entry": 6861120,
        "entry_name": "Change Name",
        "event_total": 69,
        "has_played": true,
        "id": 54974381,
        "last_rank": 87710,
        "player_name": "Donal Murphy",
        "rank": 77218,
        "rank_sort": 77269,
        "total": 2337
      },
      {
        "club_badge_src": null,
        "entry": 7101631,
        "entry_name": "Northern Soul",
        "event_total": 55,
        "has_played": true,
        "id": 57191085,
        "last_rank": 66380,
        "player_name": "Malcolm Brown",
        "rank": 77218,
        "rank_sort": 77270,
        "total": 2337
      },
      {
        "club_badge_src": null,
        "entry": 7499459,
        "entry_name": "Haramsdale FC",
        "event_total": 60,
        "has_played": true,
        "id": 61272136,
        "last_rank": 76574,
        "player_name": "Anthony Ioannou",
        "rank": 77218,
        "rank_sort": 77271,
        "total": 2337
      },
      {
        "club_badge_src": null,
        "entry": 7879086,
        "entry_name": "Popeczek",
        "event_total": 57,
        "has_played": true,
        "id": 64796207,
        "last_rank": 78730,
        "player_name": "J\u0119drzej Popkiewicz",
        "rank": 77218,
        "rank_sort": 77272,
        "total": 2337
      },
      {
        "club_badge_src": null,
        "entry": 8186495,
        "entry_name": "Already Cursed",
        "event_total": 59,
        "has_played": true,
        "id": 67612210,
        "last_rank": 66296,
        "player_name": "Charis Nicolaou",
        "rank": 77218,
        "rank_sort": 77273,
        "total": 2337
      },
      {
        "club_badge_src": null,
        "entry": 9092741,
        "entry_name": "The Blue Sky",
        "event_total": 51,
        "has_played": true,
        "id": 76379914,
        "last_rank": 66447,
        "player_name": "Gubran Mohammed",
        "rank": 77218,
        "rank_sort": 77274,
        "total": 2337
      },
      {
        "club_badge_src": null,
        "entry": 9313791,
        "entry_name": "Chicken Dippers",
        "event_total": 47,
        "has_played": true,
        "id": 78542386,
        "last_rank": 59335,
        "player_name": "Sameer Shah",
        "rank": 77218,
        "rank_sort": 77275,
        "total": 2337
      },
      {
        "club_badge_src": null,
        "entry": 10051,
        "entry_name": "For Beto or Wirtz",
        "event_total": 58,
        "has_played": true,
        "id": 59328,
        "last_rank": 64508,
        "player_name": "Reece Weir",
        "rank": 77276,
        "rank_sort": 77276,
        "total": 2337
      },
      {
        "club_badge_src": null,
        "entry": 141353,
        "entry_name": "BoDana ;*",
        "event_total": 59,
        "has_played": true,
        "id": 923515,
        "last_rank": 74474,
        "player_name": "Bo Dana;*",
        "rank": 77276,
        "rank_sort": 77277,
        "total": 2337
      },
      {
        "club_badge_src": "https://fantasy.premierleague.com/gcs/plfpl-production-adobe-approved/plfpl-production/141677/0a8440aa-4029-46fb-85a1-fa1005488e27.png",
        "entry": 141677,
        "entry_name": "seronje",
        "event_total": 66,
        "has_played": true,
        "id": 925768,
        "last_rank": 80877,
        "player_name": "Timi Toplak",
        "rank": 77276,
        "rank_sort": 77278,
        "total": 2337
      },
      {
        "club_badge_src": null,
        "entry": 255650,
        "entry_name": "Team of death",
        "event_total": 73,
        "has_played": true,
        "id": 1700435,
        "last_rank": 108086,
        "player_name": "Lucas MICHAILIDIS",
        "rank": 77276,
        "rank_sort": 77279,
        "total": 2337
      },
      {
        "club_badge_src": null,
        "entry": 276395,
        "entry_name": "Moneyball",
        "event_total": 50,
        "has_played": true,
        "id": 1839541,
        "last_rank": 57515,
        "player_name": "Adam Cuttler",
        "rank": 77276,
        "rank_sort": 77280,
        "total": 2337
      },
      {
        "club_badge_src": null,
        "entry": 335938,
        "entry_name": "Maca-Rooney",
        "event_total": 60,
        "has_played": true,
        "id": 2249271,
        "last_rank": 76638,
        "player_name": "Mun Ian Chan",
        "rank": 77276,
        "rank_sort": 77281,
        "total": 2337
      },
      {
        "club_badge_src": "https://fantasy.premierleague.com/gcs/plfpl-production-adobe-approved/plfpl-production/391121/aadb3e8c-215d-439f-98f2-5bcb4ef99b42.png",
        "entry": 391121,
        "entry_name": "Greliciously Average",
        "event_total": 55,
        "has_played": true,
        "id": 2623538,
        "last_rank": 74524,
        "player_name": "Michael Speight",
        "rank": 77276,
        "rank_sort": 77282,
        "total": 2337
      },
      {
        "club_badge_src": null,
        "entry": 431015,
        "entry_name": "Tildo",
        "event_total": 59,
        "has_played": true,
        "id": 2890655,
        "last_rank": 83216,
        "player_name": "Tom Huntley",
        "rank": 77276,
        "rank_sort": 77283,
        "total": 2337
      },
      {
        "club_badge_src": "https://fantasy.premierleague.com/gcs/plfpl-production-adobe-approved/plfpl-production/512025/73dd67fa-4f02-4538-8900-324a986cf42a.png",
        "entry": 512025,
        "entry_name": "Neharim bet",
        "event_total": 68,
        "has_played": true,
        "id": 3438182,
        "last_rank": 105430,
        "player_name": "rom sinai",
        "rank": 77276,
        "rank_sort": 77284,
        "total": 2337
      },
      {
        "club_badge_src": null,
        "entry": 535097,
        "entry_name": "Team Fiksen",
        "event_total": 58,
        "has_played": true,
        "id": 3601457,
        "last_rank": 81010,
        "player_name": "Robert Fiksdal",
        "rank": 77276,
        "rank_sort": 77285,
        "total": 2337
      },
      {
        "club_badge_src": null,
        "entry": 609299,
        "entry_name": "Slotball",
        "event_total": 71,
        "has_played": true,
        "id": 4115819,
        "last_rank": 113732,
        "player_name": "John Saunderson",
        "rank": 77276,
        "rank_sort": 77286,
        "total": 2337
      },
      {
        "club_badge_src": null,
        "entry": 613431,
        "entry_name": "Onana, What\u2019s My Nam",
        "event_total": 62,
        "has_played": true,
        "id": 4144851,
        "last_rank": 90300,
        "player_name": "Jonny Gibson",
        "rank": 77276,
        "rank_sort": 77287,
        "total": 2337
      },
      {
        "club_badge_src": "https://fantasy.premierleague.com/gcs/plfpl-production-adobe-approved/plfpl-production/805684/f1c5a29c-e2c6-4a5f-a3c4-c6f3d3c4fab9.png",
        "entry": 805684,
        "entry_name": "JellyBellies",
        "event_total": 58,
        "has_played": true,
        "id": 5515314,
        "last_rank": 57451,
        "player_name": "Jamie Stern-Weiner",
        "rank": 77276,
        "rank_sort": 77288,
        "total": 2337
      },
      {
        "club_badge_src": null,
        "entry": 843344,
        "entry_name": "J\u25cbt\u266420\u2606",
        "event_total": 31,
        "has_played": true,
        "id": 5778315,
        "last_rank": 36031,
        "player_name": "The Invincible",
        "rank": 77276,
        "rank_sort": 77289,
        "total": 2337
      },
      {
        "club_badge_src": null,
        "entry": 937018,
        "entry_name": "Calafiorication",
        "event_total": 62,
        "has_played": true,
        "id": 6448588,
        "last_rank": 80965,
        "player_name": "Dan Cook",
        "rank": 77276,
        "rank_sort": 77290,
        "total": 2337
      },
      {
        "club_badge_src": null,
        "entry": 969610,
        "entry_name": "Badelovi Manekeni",
        "event_total": 50,
        "has_played": true,
        "id": 6682850,
        "last_rank": 64603,
        "player_name": "Dario Kolari\u0107",
        "rank": 77276,
        "rank_sort": 77291,
        "total": 2337
      },
      {
        "club_badge_src": null,
        "entry": 1195572,
        "entry_name": "Chokomaloko",
        "event_total": 68,
        "has_played": true,
        "id": 8295303,
        "last_rank": 95063,
        "player_name": "Choko Maloko",
        "rank": 77276,
        "rank_sort": 77292,
        "total": 2337
      },
      {
        "club_badge_src": null,
        "entry": 1354199,
        "entry_name": "Waller\u2019s Winners",
        "event_total": 57,
        "has_played": true,
        "id": 9413854,
        "last_rank": 78671,
        "player_name": "Madison Waller",
        "rank": 77276,
        "rank_sort": 77293,
        "total": 2337
      },
      {
        "club_badge_src": null,
        "entry": 1527295,
        "entry_name": "Me Myself Ndiaye",
        "event_total": 67,
        "has_played": true,
        "id": 10652560,
        "last_rank": 102700,
        "player_name": "Akram -",
        "rank": 77276,
        "rank_sort": 77294,
        "total": 2337
      },
      {
        "club_badge_src": null,
        "entry": 1582066,
        "entry_name": "\u0627\u0644\u0641\u0646\u0627\u0646_\u0639\u0627\u062f\u0644",
        "event_total": 27,
        "has_played": true,
        "id": 11056423,
        "last_rank": 31459,
        "player_name": "Adel Elfnan",
        "rank": 77276,
        "rank_sort": 77295,
        "total": 2337
      },
      {
        "club_badge_src": null,
        "entry": 1935469,
        "entry_name": "Mohamed Aliwa\ufffd\u270c\ufe0f",
        "event_total": 48,
        "has_played": true,
        "id": 13651034,
        "last_rank": 54181,
        "player_name": "Mohamed Aliwa",
        "rank": 77276,
        "rank_sort": 77296,
        "total": 2337
      },
      {
        "club_badge_src": null,
        "entry": 2822757,
        "entry_name": "Free Palestine",
        "event_total": 61,
        "has_played": true,
        "id": 20622950,
        "last_rank": 70276,
        "player_name": "Kareeem Elmasry",
        "rank": 77276,
        "rank_sort": 77297,
        "total": 2337
      },
      {
        "club_badge_src": null,
        "entry": 2848416,
        "entry_name": "ChilliConConny",
        "event_total": 60,
        "has_played": true,
        "id": 20825015,
        "last_rank": 85624,
        "player_name": "Peter Hughes",
        "rank": 77276,
        "rank_sort": 77298,
        "total": 2337
      },
      {
        "club_badge_src": null,
        "entry": 3231293,
        "entry_name": "Ranj Club",
        "event_total": 57,
        "has_played": true,
        "id": 23898142,
        "last_rank": 78782,
        "player_name": "Ranj Burhan",
        "rank": 77276,
        "rank_sort": 77299,
        "total": 2337
      },
      {
        "club_badge_src": null,
        "entry": 3398242,
        "entry_name": "prisoner # 804",
        "event_total": 50,
        "has_played": true,
        "id": 25231009,
        "last_rank": 57515,
        "player_name": "Shoaib Khan",
        "rank": 77276,
        "rank_sort": 77300,
        "total": 2337
      }
    ]
  }
}