{
  "last_updated_data": "2026-05-24T23:28:17Z",
  "league": {
    "admin_entry": null,
    "closed": false,
    "code_privacy": "p",
    "created": "2025-07-20T23:14:33.933835Z",
    "cup_league": 2815434,
    "has_cup": true,
    "id": 314,
    "league_type": "s",
    "max_entries": null,
    "name": "Overall",
    "rank": null,
    "scoring": "c",
    "start_event": 1
  },
  "new_entries": {
    "has_next": false,
    "page": 1,
    "results": []
  },
  "standings": {
    "has_next": true,
    "page": 1504,
    "results": [
      {
        "club_badge_src": null,
        "entry": 3556183,
        "entry_name": "Yazeed-Alabdullatif",
        "event_total": 54,
        "has_played": true,
        "id": 26476992,
        "last_rank": 70355,
        "player_name": "Yazeed Alabdullatif",
        "rank": 75112,
        "rank_sort": 75151,
        "total": 2338
      },
      {
        "club_badge_src": null,
        "entry": 4063835,
        "entry_name": "Leo messi 10",
        "event_total": 63,
        "has_played": true,
        "id": 30668779,
        "last_rank": 90229,
        "player_name": "Mahmoud kamel",
        "rank": 75112,
        "rank_sort": 75152,
        "total": 2338
      },
      {
        "club_badge_src": null,
        "entry": 4742942,
        "entry_name": "ThomasTheFrankEngine",
        "event_total": 66,
        "has_played": true,
        "id": 36494198,
        "last_rank": 97687,
        "player_name": "Jude Richardson",
        "rank": 75112,
        "rank_sort": 75153,
        "total": 2338
      },
      {
        "club_badge_src": null,
        "entry": 4983452,
        "entry_name": "Yoro wissa harry",
        "event_total": 45,
        "has_played": true,
        "id": 38471322,
        "last_rank": 54181,
        "player_name": "Callum Mckitterick",
        "rank": 75112,
        "rank_sort": 75154,
        "total": 2338
      },
      {
        "club_badge_src": null,
        "entry": 5102174,
        "entry_name": "Me La Haaland",
        "event_total": 47,
        "has_played": true,
        "id": 39437298,
        "last_rank": 57596,
        "player_name": "Miguel Torres",
        "rank": 75112,
        "rank_sort": 75155,
        "total": 2338
      },
      {
        "club_badge_src": null,
        "entry": 5264967,
        "entry_name": "TemplateFC",
        "event_total": 54,
        "has_played": true,
        "id": 40806865,
        "last_rank": 49207,
        "player_name": "Kacper Zawadzki",
        "rank": 75112,
        "rank_sort": 75156,
        "total": 2338
      },
      {
        "club_badge_src": null,
        "entry": 5885749,
        "entry_name": "\u0628\u0646 \u064a\u0627\u0633",
        "event_total": 61,
        "has_played": true,
        "id": 46234332,
        "last_rank": 85349,
        "player_name": "Ramy Ramy",
        "rank": 75112,
        "rank_sort": 75157,
        "total": 2338
      },
      {
        "club_badge_src": null,
        "entry": 6027076,
        "entry_name": "So Wirtz the Matta?",
        "event_total": 61,
        "has_played": true,
        "id": 47539798,
        "last_rank": 85565,
        "player_name": "Luka S",
        "rank": 75112,
        "rank_sort": 75158,
        "total": 2338
      },
      {
        "club_badge_src": null,
        "entry": 7420771,
        "entry_name": "FYBH FC",
        "event_total": 70,
        "has_played": true,
        "id": 60254758,
        "last_rank": 97597,
        "player_name": "John Carter",
        "rank": 75112,
        "rank_sort": 75159,
        "total": 2338
      },
      {
        "club_badge_src": null,
        "entry": 7484572,
        "entry_name": "Amr Mostafa Hankers",
        "event_total": 58,
        "has_played": true,
        "id": 61081749,
        "last_rank": 78730,
        "player_name": "Hamody Abdelgalel",
        "rank": 75112,
        "rank_sort": 75160,
        "total": 2338
      },
      {
        "club_badge_src": null,
        "entry": 7726725,
        "entry_name": "yob",
        "event_total": 66,
        "has_played": true,
        "id": 63411683,
        "last_rank": 87710,
        "player_name": "y b",
        "rank": 75112,
        "rank_sort": 75161,
        "total": 2338
      },
      {
        "club_badge_src": null,
        "entry": 7989687,
        "entry_name": "Donkey Kong FC",
        "event_total": 70,
        "has_played": true,
        "id": 65791854,
        "last_rank": 97597,
        "player_name": "Matthew Northrop",
        "rank": 75112,
        "rank_sort": 75162,
        "total": 2338
      },
      {
        "club_badge_src": null,
        "entry": 8022869,
        "entry_name": "Westonian Spurs",
        "event_total": 64,
        "has_played": true,
        "id": 66091043,
        "last_rank": 92738,
        "player_name": "Nishal Indurjeeth",
        "rank": 75112,
        "rank_sort": 75163,
        "total": 2338
      },
      {
        "club_badge_src": null,
        "entry": 10376,
        "entry_name": "Mes Que En Club",
        "event_total": 60,
        "has_played": true,
        "id": 61343,
        "last_rank": 66380,
        "player_name": "Chris Tipper",
        "rank": 75164,
        "rank_sort": 75164,
        "total": 2338
      },
      {
        "club_badge_src": "https://fantasy.premierleague.com/gcs/plfpl-production-adobe-approved/plfpl-production/32004/9a3f7d48-8375-4301-8829-63b090aff71e.png",
        "entry": 32004,
        "entry_name": "Oyawizy",
        "event_total": 62,
        "has_played": true,
        "id": 203272,
        "last_rank": 78730,
        "player_name": "Kelvin Oyawoye",
        "rank": 75164,
        "rank_sort": 75165,
        "total": 2338
      },
      {
        "club_badge_src": null,
        "entry": 48435,
        "entry_name": "Gy\u00f6kGy\u00f6k Whos There?",
        "event_total": 62,
        "has_played": true,
        "id": 311034,
        "last_rank": 70276,
        "player_name": "Harvey Woodrow",
        "rank": 75164,
        "rank_sort": 75166,
        "total": 2338
      },
      {
        "club_badge_src": null,
        "entry": 52623,
        "entry_name": "Dals \u00c4nglar",
        "event_total": 48,
        "has_played": true,
        "id": 338375,
        "last_rank": 52561,
        "player_name": "Simon Karlsson",
        "rank": 75164,
        "rank_sort": 75167,
        "total": 2338
      },
      {
        "club_badge_src": null,
        "entry": 82554,
        "entry_name": "Robur Auster",
        "event_total": 70,
        "has_played": true,
        "id": 537209,
        "last_rank": 97687,
        "player_name": "Leo Darutto",
        "rank": 75164,
        "rank_sort": 75168,
        "total": 2338
      },
      {
        "club_badge_src": null,
        "entry": 86305,
        "entry_name": "Harry's Hoops",
        "event_total": 67,
        "has_played": true,
        "id": 562398,
        "last_rank": 80781,
        "player_name": "Harry Moore",
        "rank": 75164,
        "rank_sort": 75169,
        "total": 2338
      },
      {
        "club_badge_src": "https://fantasy.premierleague.com/gcs/plfpl-production-adobe-approved/plfpl-production/121124/7686edc8-f36b-48ee-99c0-a899d9cfbd56.png",
        "entry": 121124,
        "entry_name": "Parry Saint-Germain",
        "event_total": 52,
        "has_played": true,
        "id": 790343,
        "last_rank": 66487,
        "player_name": "Matthew Parry",
        "rank": 75164,
        "rank_sort": 75170,
        "total": 2338
      },
      {
        "club_badge_src": null,
        "entry": 190134,
        "entry_name": "Ya Razaq",
        "event_total": 61,
        "has_played": true,
        "id": 1258897,
        "last_rank": 76638,
        "player_name": "Mohammed Khalid",
        "rank": 75164,
        "rank_sort": 75171,
        "total": 2338
      },
      {
        "club_badge_src": null,
        "entry": 205480,
        "entry_name": "Bingo FC",
        "event_total": 60,
        "has_played": true,
        "id": 1365798,
        "last_rank": 74395,
        "player_name": "Sean Campbell",
        "rank": 75164,
        "rank_sort": 75172,
        "total": 2338
      },
      {
        "club_badge_src": null,
        "entry": 433112,
        "entry_name": "De Fribs 3.0",
        "event_total": 53,
        "has_played": true,
        "id": 2904624,
        "last_rank": 68351,
        "player_name": "Ricky Bourne",
        "rank": 75164,
        "rank_sort": 75173,
        "total": 2338
      },
      {
        "club_badge_src": "https://fantasy.premierleague.com/gcs/plfpl-production-adobe-approved/plfpl-production/482329/d9b45bb3-30bf-42a3-8358-3f547f1c85af.png",
        "entry": 482329,
        "entry_name": "Viva H\u00e5landia",
        "event_total": 49,
        "has_played": true,
        "id": 3237911,
        "last_rank": 61087,
        "player_name": "Ryan Reynaert",
        "rank": 75164,
        "rank_sort": 75174,
        "total": 2338
      },
      {
        "club_badge_src": "https://fantasy.premierleague.com/gcs/plfpl-production-adobe-approved/plfpl-production/605198/994601ed-01f5-4e7b-82f1-2da81afd15f3.png",
        "entry": 605198,
        "entry_name": "il Diavolo",
        "event_total": 57,
        "has_played": true,
        "id": 4085911,
        "last_rank": 76693,
        "player_name": "Daniel Mihai",
        "rank": 75164,
        "rank_sort": 75175,
        "total": 2338
      },
      {
        "club_badge_src": null,
        "entry": 690648,
        "entry_name": "Rousay Robins",
        "event_total": 68,
        "has_played": true,
        "id": 4676616,
        "last_rank": 102700,
        "player_name": "Ellie Roberts",
        "rank": 75164,
        "rank_sort": 75176,
        "total": 2338
      },
      {
        "club_badge_src": null,
        "entry": 846756,
        "entry_name": "\u250c\u2229\u2510(\u25e3 _ \u25e2)\u250c\u2229\u2510",
        "event_total": 57,
        "has_played": true,
        "id": 5801834,
        "last_rank": 76693,
        "player_name": "P\u00e1raic Nolan",
        "rank": 75164,
        "rank_sort": 75177,
        "total": 2338
      },
      {
        "club_badge_src": null,
        "entry": 957258,
        "entry_name": "This Could Get Messi",
        "event_total": 60,
        "has_played": true,
        "id": 6595932,
        "last_rank": 59170,
        "player_name": "Dan Healey",
        "rank": 75164,
        "rank_sort": 75178,
        "total": 2338
      },
      {
        "club_badge_src": null,
        "entry": 977668,
        "entry_name": "Loll ak22\ufffd",
        "event_total": 61,
        "has_played": true,
        "id": 6740051,
        "last_rank": 85624,
        "player_name": "Ali Kamal",
        "rank": 75164,
        "rank_sort": 75179,
        "total": 2338
      },
      {
        "club_badge_src": null,
        "entry": 1107057,
        "entry_name": "Thomas Frank Engine",
        "event_total": 76,
        "has_played": true,
        "id": 7668231,
        "last_rank": 102501,
        "player_name": "Joshua Magennis",
        "rank": 75164,
        "rank_sort": 75180,
        "total": 2338
      },
      {
        "club_badge_src": null,
        "entry": 1137693,
        "entry_name": "Zyad Mossad",
        "event_total": 60,
        "has_played": true,
        "id": 7886192,
        "last_rank": 83267,
        "player_name": "\u0632\u064a\u0627\u062f \u0627\u0644\u0637\u0648\u064a\u0644",
        "rank": 75164,
        "rank_sort": 75181,
        "total": 2338
      },
      {
        "club_badge_src": null,
        "entry": 1255510,
        "entry_name": "WHU tang clan",
        "event_total": 60,
        "has_played": true,
        "id": 8720249,
        "last_rank": 83267,
        "player_name": "George Murphy",
        "rank": 75164,
        "rank_sort": 75182,
        "total": 2338
      },
      {
        "club_badge_src": null,
        "entry": 1300300,
        "entry_name": "Yoro Wissa Harry",
        "event_total": 53,
        "has_played": true,
        "id": 9036954,
        "last_rank": 68395,
        "player_name": "Matt Cheshire",
        "rank": 75164,
        "rank_sort": 75183,
        "total": 2338
      },
      {
        "club_badge_src": null,
        "entry": 1321888,
        "entry_name": "burkes best",
        "event_total": 40,
        "has_played": true,
        "id": 9188415,
        "last_rank": 46432,
        "player_name": "Charlie Burke",
        "rank": 75164,
        "rank_sort": 75184,
        "total": 2338
      },
      {
        "club_badge_src": null,
        "entry": 1347572,
        "entry_name": "\ufffd \u0647\u062d\u0637 \u0639\u0644\u064a\u0643\u0645 \ufffd",
        "event_total": 66,
        "has_played": true,
        "id": 9368631,
        "last_rank": 87885,
        "player_name": "Kariimm Muhammedd11",
        "rank": 75164,
        "rank_sort": 75185,
        "total": 2338
      },
      {
        "club_badge_src": null,
        "entry": 1409910,
        "entry_name": "szpari",
        "event_total": 61,
        "has_played": true,
        "id": 9810512,
        "last_rank": 85624,
        "player_name": "Dani B\u00e1n\u00f3czi",
        "rank": 75164,
        "rank_sort": 75186,
        "total": 2338
      },
      {
        "club_badge_src": null,
        "entry": 1564102,
        "entry_name": "Aiden fc",
        "event_total": 49,
        "has_played": true,
        "id": 10926025,
        "last_rank": 54181,
        "player_name": "Aiden Myles",
        "rank": 75164,
        "rank_sort": 75187,
        "total": 2338
      },
      {
        "club_badge_src": "https://fantasy.premierleague.com/gcs/plfpl-production-adobe-approved/plfpl-production/1588980/ff0cefc8-0bd2-46e6-8a4d-97f07c5c7ed3.png",
        "entry": 1588980,
        "entry_name": "Hottenham Tottspurs",
        "event_total": 73,
        "has_played": true,
        "id": 11109249,
        "last_rank": 95063,
        "player_name": "David Jenkins",
        "rank": 75164,
        "rank_sort": 75188,
        "total": 2338
      },
      {
        "club_badge_src": null,
        "entry": 1734373,
        "entry_name": "GIF NIKE",
        "event_total": 46,
        "has_played": true,
        "id": 12166642,
        "last_rank": 49407,
        "player_name": "Per Strandquist",
        "rank": 75164,
        "rank_sort": 75189,
        "total": 2338
      },
      {
        "club_badge_src": null,
        "entry": 1914110,
        "entry_name": "3wam",
        "event_total": 70,
        "has_played": true,
        "id": 13495451,
        "last_rank": 108172,
        "player_name": "mahdi theboneless",
        "rank": 75164,
        "rank_sort": 75190,
        "total": 2338
      },
      {
        "club_badge_src": "https://fantasy.premierleague.com/gcs/plfpl-production-adobe-approved/plfpl-production/1932373/2c2da679-2731-4c98-bd77-a720e70c5939.png",
        "entry": 1932373,
        "entry_name": "Black Frigate 88",
        "event_total": 71,
        "has_played": true,
        "id": 13628787,
        "last_rank": 100177,
        "player_name": "Frankie Ubajaka",
        "rank": 75164,
        "rank_sort": 75191,
        "total": 2338
      },
      {
        "club_badge_src": null,
        "entry": 2101701,
        "entry_name": "Botman Begins",
        "event_total": 69,
        "has_played": true,
        "id": 14914153,
        "last_rank": 95147,
        "player_name": "James Hosking",
        "rank": 75164,
        "rank_sort": 75192,
        "total": 2338
      },
      {
        "club_badge_src": "https://fantasy.premierleague.com/gcs/plfpl-production-adobe-approved/plfpl-production/2130854/d318ba05-a603-4740-9206-ca9126f11aab.png",
        "entry": 2130854,
        "entry_name": "FC ORDA UNITED",
        "event_total": 37,
        "has_played": true,
        "id": 15142156,
        "last_rank": 42314,
        "player_name": "RASUL KASENOV",
        "rank": 75164,
        "rank_sort": 75193,
        "total": 2338
      },
      {
        "club_badge_src": null,
        "entry": 2388767,
        "entry_name": "Tipskungen FC",
        "event_total": 41,
        "has_played": true,
        "id": 17062318,
        "last_rank": 47950,
        "player_name": "Peter Broman",
        "rank": 75164,
        "rank_sort": 75194,
        "total": 2338
      },
      {
        "club_badge_src": null,
        "entry": 2399244,
        "entry_name": "From Bad To Wirtz",
        "event_total": 53,
        "has_played": true,
        "id": 17146872,
        "last_rank": 68395,
        "player_name": "Chris Butler \u2b50\ufe0f\u2b50\ufe0f",
        "rank": 75164,
        "rank_sort": 75195,
        "total": 2338
      },
      {
        "club_badge_src": null,
        "entry": 2506139,
        "entry_name": "Chief Tuggers",
        "event_total": 53,
        "has_played": true,
        "id": 17947170,
        "last_rank": 68395,
        "player_name": "Tomas Warren",
        "rank": 75164,
        "rank_sort": 75196,
        "total": 2338
      },
      {
        "club_badge_src": null,
        "entry": 2587971,
        "entry_name": "T's palestine Marvel",
        "event_total": 72,
        "has_played": true,
        "id": 18579018,
        "last_rank": 102700,
        "player_name": "SAJID TALATI",
        "rank": 75164,
        "rank_sort": 75197,
        "total": 2338
      },
      {
        "club_badge_src": "https://fantasy.premierleague.com/gcs/plfpl-production-adobe-approved/plfpl-production/3062035/b050cbf9-8d8c-4e23-bd7f-3329074aeed8.png",
        "entry": 3062035,
        "entry_name": "Jota Be Remembered",
        "event_total": 59,
        "has_played": true,
        "id": 22544416,
        "last_rank": 72407,
        "player_name": "Kofi O\u2019Connor",
        "rank": 75164,
        "rank_sort": 75198,
        "total": 2338
      },
      {
        "club_badge_src": null,
        "entry": 3072473,
        "entry_name": "Palmer Violets",
        "event_total": 58,
        "has_played": true,
        "id": 22624570,
        "last_rank": 62812,
        "player_name": "Jack Plummer",
        "rank": 75164,
        "rank_sort": 75199,
        "total": 2338
      },
      {
        "club_badge_src": null,
        "entry": 3680198,
        "entry_name": "Superman",
        "event_total": 54,
        "has_played": true,
        "id": 27449612,
        "last_rank": 70446,
        "player_name": "Fikir Ayetaged",
        "rank": 75164,
        "rank_sort": 75200,
        "total": 2338
      }
    ]
  }
}