{
  "last_updated_data": "2026-05-24T23:28:17Z",
  "league": {
    "admin_entry": null,
    "closed": false,
    "code_privacy": "p",
    "created": "2025-07-20T23:14:33.933835Z",
    "cup_league": 2815434,
    "has_cup": true,
    "id": 314,
    "league_type": "s",
    "max_entries": null,
    "name": "Overall",
    "rank": null,
    "scoring": "c",
    "start_event": 1
  },
  "new_entries": {
    "has_next": false,
    "page": 1,
    "results": []
  },
  "standings": {
    "has_next": true,
    "page": 277,
    "results": [
      {
        "club_badge_src": null,
        "entry": 14007,
        "entry_name": "Bingus FC",
        "event_total": 65,
        "has_played": true,
        "id": 84865,
        "last_rank": 18029,
        "player_name": "Rob Whetman",
        "rank": 13797,
        "rank_sort": 13801,
        "total": 2390
      },
      {
        "club_badge_src": null,
        "entry": 19670,
        "entry_name": "Kevin De parted",
        "event_total": 72,
        "has_played": true,
        "id": 122394,
        "last_rank": 23341,
        "player_name": "Henry Lynch",
        "rank": 13797,
        "rank_sort": 13802,
        "total": 2390
      },
      {
        "club_badge_src": null,
        "entry": 22889,
        "entry_name": "Yukki URAWA -Van MGF",
        "event_total": 59,
        "has_played": true,
        "id": 143928,
        "last_rank": 14496,
        "player_name": "Yukki kun",
        "rank": 13797,
        "rank_sort": 13803,
        "total": 2390
      },
      {
        "club_badge_src": null,
        "entry": 35532,
        "entry_name": "Slot Machine",
        "event_total": 60,
        "has_played": true,
        "id": 227398,
        "last_rank": 12705,
        "player_name": "Reuben Kelly",
        "rank": 13797,
        "rank_sort": 13804,
        "total": 2390
      },
      {
        "club_badge_src": "https://fantasy.premierleague.com/gcs/plfpl-production-adobe-approved/plfpl-production/40708/3cec3abd-640c-4781-9061-fce3bdb499ab.png",
        "entry": 40708,
        "entry_name": "UEFA shut the FAcup",
        "event_total": 65,
        "has_played": true,
        "id": 260914,
        "last_rank": 15550,
        "player_name": "Antoni Drabik",
        "rank": 13797,
        "rank_sort": 13805,
        "total": 2390
      },
      {
        "club_badge_src": "https://fantasy.premierleague.com/gcs/plfpl-production-adobe-approved/plfpl-production/41868/729366ec-99a9-4238-85fa-9782cbba24af.png",
        "entry": 41868,
        "entry_name": "Back of the Neto",
        "event_total": 64,
        "has_played": true,
        "id": 268264,
        "last_rank": 17585,
        "player_name": "Simon Henry",
        "rank": 13797,
        "rank_sort": 13806,
        "total": 2390
      },
      {
        "club_badge_src": null,
        "entry": 43759,
        "entry_name": "Saviolas Swans",
        "event_total": 51,
        "has_played": true,
        "id": 280290,
        "last_rank": 10462,
        "player_name": "Josh Saville",
        "rank": 13797,
        "rank_sort": 13807,
        "total": 2390
      },
      {
        "club_badge_src": null,
        "entry": 46115,
        "entry_name": "Faire le m\u00e9tier",
        "event_total": 58,
        "has_played": true,
        "id": 295729,
        "last_rank": 13947,
        "player_name": "Ben Reid",
        "rank": 13797,
        "rank_sort": 13808,
        "total": 2390
      },
      {
        "club_badge_src": "https://fantasy.premierleague.com/gcs/plfpl-production-adobe-approved/plfpl-production/48526/4d11210d-2df5-4dd8-b878-903c4f43266a.png",
        "entry": 48526,
        "entry_name": "I\u2019m Best not\u00a0Wirtz",
        "event_total": 60,
        "has_played": true,
        "id": 311675,
        "last_rank": 15063,
        "player_name": "Travis Poyner",
        "rank": 13797,
        "rank_sort": 13809,
        "total": 2390
      },
      {
        "club_badge_src": "https://fantasy.premierleague.com/gcs/plfpl-production-adobe-approved/plfpl-production/50334/bc247707-9ee8-4663-8e71-8dfa28451db4.png",
        "entry": 50334,
        "entry_name": "Bo sie Cunha boje",
        "event_total": 63,
        "has_played": true,
        "id": 323754,
        "last_rank": 14370,
        "player_name": "Jaros\u0142aw Mi\u0119sikowski",
        "rank": 13797,
        "rank_sort": 13810,
        "total": 2390
      },
      {
        "club_badge_src": "https://fantasy.premierleague.com/gcs/plfpl-production-adobe-approved/plfpl-production/56213/13315470-ee1e-47be-9ae2-e5d33b4a08cf.png",
        "entry": 56213,
        "entry_name": "Mildbuemo",
        "event_total": 58,
        "has_played": true,
        "id": 362046,
        "last_rank": 13947,
        "player_name": "Mildsaki Dowan",
        "rank": 13797,
        "rank_sort": 13811,
        "total": 2390
      },
      {
        "club_badge_src": null,
        "entry": 83036,
        "entry_name": "Systembolaget",
        "event_total": 65,
        "has_played": true,
        "id": 540388,
        "last_rank": 15550,
        "player_name": "Jonas Fagermoen",
        "rank": 13797,
        "rank_sort": 13812,
        "total": 2390
      },
      {
        "club_badge_src": "https://fantasy.premierleague.com/gcs/plfpl-production-adobe-approved/plfpl-production/109287/34d21791-e61a-478d-b030-b262a2201ace.png",
        "entry": 109287,
        "entry_name": "LegsEleven",
        "event_total": 52,
        "has_played": true,
        "id": 712552,
        "last_rank": 10805,
        "player_name": "Robin Cooper",
        "rank": 13797,
        "rank_sort": 13813,
        "total": 2390
      },
      {
        "club_badge_src": null,
        "entry": 134325,
        "entry_name": "Thierry Henrys",
        "event_total": 65,
        "has_played": true,
        "id": 874833,
        "last_rank": 15550,
        "player_name": "Henry Lim",
        "rank": 13797,
        "rank_sort": 13814,
        "total": 2390
      },
      {
        "club_badge_src": null,
        "entry": 139353,
        "entry_name": "D9 Devils",
        "event_total": 62,
        "has_played": true,
        "id": 909455,
        "last_rank": 16163,
        "player_name": "tarikk zabadne",
        "rank": 13797,
        "rank_sort": 13815,
        "total": 2390
      },
      {
        "club_badge_src": null,
        "entry": 148489,
        "entry_name": "Mahmoud Gamil",
        "event_total": 42,
        "has_played": true,
        "id": 973357,
        "last_rank": 7141,
        "player_name": "Let's go Haaland",
        "rank": 13797,
        "rank_sort": 13816,
        "total": 2390
      },
      {
        "club_badge_src": "https://fantasy.premierleague.com/gcs/plfpl-production-adobe-approved/plfpl-production/217810/ad11f3b4-dbc5-4b39-8f55-c60befc209f5.png",
        "entry": 217810,
        "entry_name": "King's XI",
        "event_total": 74,
        "has_played": true,
        "id": 1448475,
        "last_rank": 21775,
        "player_name": "zatout ferhat",
        "rank": 13797,
        "rank_sort": 13817,
        "total": 2390
      },
      {
        "club_badge_src": "https://fantasy.premierleague.com/gcs/plfpl-production-adobe-approved/plfpl-production/229167/378f94b3-cde9-477b-a78f-26f9ff87fed6.png",
        "entry": 229167,
        "entry_name": "AleseIHaveBallards",
        "event_total": 61,
        "has_played": true,
        "id": 1524658,
        "last_rank": 15550,
        "player_name": "geir torring",
        "rank": 13797,
        "rank_sort": 13818,
        "total": 2390
      },
      {
        "club_badge_src": null,
        "entry": 271802,
        "entry_name": "S.S.S",
        "event_total": 56,
        "has_played": true,
        "id": 1808309,
        "last_rank": 12846,
        "player_name": "Samuel Saber",
        "rank": 13797,
        "rank_sort": 13819,
        "total": 2390
      },
      {
        "club_badge_src": null,
        "entry": 383471,
        "entry_name": "Plaistow Utd",
        "event_total": 57,
        "has_played": true,
        "id": 2571736,
        "last_rank": 13401,
        "player_name": "Tunde Soboyejo",
        "rank": 13797,
        "rank_sort": 13820,
        "total": 2390
      },
      {
        "club_badge_src": null,
        "entry": 387652,
        "entry_name": "Luckystrikerz",
        "event_total": 67,
        "has_played": true,
        "id": 2600601,
        "last_rank": 19544,
        "player_name": "Keraan Chetty",
        "rank": 13797,
        "rank_sort": 13821,
        "total": 2390
      },
      {
        "club_badge_src": null,
        "entry": 415782,
        "entry_name": "Ha Cunha Mateta",
        "event_total": 78,
        "has_played": true,
        "id": 2787330,
        "last_rank": 25002,
        "player_name": "Jannick Persson",
        "rank": 13797,
        "rank_sort": 13822,
        "total": 2390
      },
      {
        "club_badge_src": "https://fantasy.premierleague.com/gcs/plfpl-production-adobe-approved/plfpl-production/446032/3820f54a-d954-4c5c-aaee-2e148143251c.png",
        "entry": 446032,
        "entry_name": "Paqueta Rice \u2692\ufe0f",
        "event_total": 58,
        "has_played": true,
        "id": 2991554,
        "last_rank": 13821,
        "player_name": "Michael Reynolds",
        "rank": 13797,
        "rank_sort": 13823,
        "total": 2390
      },
      {
        "club_badge_src": null,
        "entry": 483421,
        "entry_name": "Kinder Mbuemo",
        "event_total": 57,
        "has_played": true,
        "id": 3245090,
        "last_rank": 13401,
        "player_name": "Mousa R",
        "rank": 13797,
        "rank_sort": 13824,
        "total": 2390
      },
      {
        "club_badge_src": null,
        "entry": 508957,
        "entry_name": "ManUTD",
        "event_total": 66,
        "has_played": true,
        "id": 3416874,
        "last_rank": 18790,
        "player_name": "Ahmad Assad Al-Kandari",
        "rank": 13797,
        "rank_sort": 13825,
        "total": 2390
      },
      {
        "club_badge_src": null,
        "entry": 575413,
        "entry_name": "Borgen",
        "event_total": 60,
        "has_played": true,
        "id": 3872169,
        "last_rank": 12645,
        "player_name": "Sander Borgen",
        "rank": 13797,
        "rank_sort": 13826,
        "total": 2390
      },
      {
        "club_badge_src": "https://fantasy.premierleague.com/gcs/plfpl-production-adobe-approved/plfpl-production/606900/f7dbace3-65e8-4050-8ceb-4298f9ae0261.png",
        "entry": 606900,
        "entry_name": "Kinmylies FC",
        "event_total": 64,
        "has_played": true,
        "id": 4098349,
        "last_rank": 14926,
        "player_name": "Michael McLean",
        "rank": 13797,
        "rank_sort": 13827,
        "total": 2390
      },
      {
        "club_badge_src": null,
        "entry": 650837,
        "entry_name": "GoatSemenyo",
        "event_total": 55,
        "has_played": true,
        "id": 4398510,
        "last_rank": 12322,
        "player_name": "Kun Abd\u00fcllah",
        "rank": 13797,
        "rank_sort": 13828,
        "total": 2390
      },
      {
        "club_badge_src": null,
        "entry": 762123,
        "entry_name": "Delph to the ID Elf",
        "event_total": 60,
        "has_played": true,
        "id": 5197334,
        "last_rank": 14926,
        "player_name": "Ray Considine",
        "rank": 13797,
        "rank_sort": 13829,
        "total": 2390
      },
      {
        "club_badge_src": null,
        "entry": 781077,
        "entry_name": "BlackLivesMadders",
        "event_total": 47,
        "has_played": true,
        "id": 5332610,
        "last_rank": 8854,
        "player_name": "Osian Williams",
        "rank": 13797,
        "rank_sort": 13830,
        "total": 2390
      },
      {
        "club_badge_src": null,
        "entry": 787475,
        "entry_name": "Wirtz nightmare",
        "event_total": 59,
        "has_played": true,
        "id": 5383802,
        "last_rank": 14496,
        "player_name": "Harry Holden",
        "rank": 13797,
        "rank_sort": 13831,
        "total": 2390
      },
      {
        "club_badge_src": null,
        "entry": 795089,
        "entry_name": "\u00d8de Toilette II",
        "event_total": 70,
        "has_played": true,
        "id": 5441457,
        "last_rank": 21677,
        "player_name": "Ronan Dunne",
        "rank": 13797,
        "rank_sort": 13832,
        "total": 2390
      },
      {
        "club_badge_src": null,
        "entry": 876893,
        "entry_name": "Syubidupapap",
        "event_total": 64,
        "has_played": true,
        "id": 6011956,
        "last_rank": 17585,
        "player_name": "segavo \u3164\u3164\u3164",
        "rank": 13797,
        "rank_sort": 13833,
        "total": 2390
      },
      {
        "club_badge_src": null,
        "entry": 893127,
        "entry_name": "AFC Jones",
        "event_total": 63,
        "has_played": true,
        "id": 6134838,
        "last_rank": 16959,
        "player_name": "Steven Jones",
        "rank": 13797,
        "rank_sort": 13834,
        "total": 2390
      },
      {
        "club_badge_src": null,
        "entry": 903681,
        "entry_name": "11Spillere",
        "event_total": 47,
        "has_played": true,
        "id": 6209382,
        "last_rank": 8854,
        "player_name": "Joakim Celius",
        "rank": 13797,
        "rank_sort": 13835,
        "total": 2390
      },
      {
        "club_badge_src": null,
        "entry": 1092631,
        "entry_name": "Petr Cech Yourself",
        "event_total": 62,
        "has_played": true,
        "id": 7567444,
        "last_rank": 16062,
        "player_name": "Vass Adri\u00e1n",
        "rank": 13797,
        "rank_sort": 13836,
        "total": 2390
      },
      {
        "club_badge_src": null,
        "entry": 1110756,
        "entry_name": "Palmer Violets",
        "event_total": 63,
        "has_played": true,
        "id": 7694217,
        "last_rank": 16807,
        "player_name": "Luke Henry",
        "rank": 13797,
        "rank_sort": 13837,
        "total": 2390
      },
      {
        "club_badge_src": null,
        "entry": 1157186,
        "entry_name": "Mid Table Taylor",
        "event_total": 53,
        "has_played": true,
        "id": 8024214,
        "last_rank": 11345,
        "player_name": "Nick Taylor",
        "rank": 13797,
        "rank_sort": 13838,
        "total": 2390
      },
      {
        "club_badge_src": null,
        "entry": 1412725,
        "entry_name": "bu7assan83",
        "event_total": 55,
        "has_played": true,
        "id": 9831327,
        "last_rank": 12322,
        "player_name": "mohamed aldossri",
        "rank": 13797,
        "rank_sort": 13839,
        "total": 2390
      },
      {
        "club_badge_src": null,
        "entry": 1588908,
        "entry_name": "Leaks United",
        "event_total": 47,
        "has_played": true,
        "id": 11108507,
        "last_rank": 8854,
        "player_name": "Moses Ho",
        "rank": 13797,
        "rank_sort": 13840,
        "total": 2390
      },
      {
        "club_badge_src": "https://fantasy.premierleague.com/gcs/plfpl-production-adobe-approved/plfpl-production/1773963/f529f8ef-1e12-42a1-ae03-1298ff0c32b8.png",
        "entry": 1773963,
        "entry_name": "Goal Diggers",
        "event_total": 59,
        "has_played": true,
        "id": 12461977,
        "last_rank": 14496,
        "player_name": "Eddy \u26bd\ufe0f",
        "rank": 13797,
        "rank_sort": 13841,
        "total": 2390
      },
      {
        "club_badge_src": null,
        "entry": 1789621,
        "entry_name": "MissYouDaddy",
        "event_total": 78,
        "has_played": true,
        "id": 12575010,
        "last_rank": 28609,
        "player_name": "Biplab Tamang",
        "rank": 13797,
        "rank_sort": 13842,
        "total": 2390
      },
      {
        "club_badge_src": null,
        "entry": 1881740,
        "entry_name": "Bruno Dos Tres",
        "event_total": 74,
        "has_played": true,
        "id": 13258698,
        "last_rank": 25002,
        "player_name": "Callum Brown",
        "rank": 13797,
        "rank_sort": 13843,
        "total": 2390
      },
      {
        "club_badge_src": null,
        "entry": 1954456,
        "entry_name": "hiddiga",
        "event_total": 48,
        "has_played": true,
        "id": 13787464,
        "last_rank": 9248,
        "player_name": "Farhan Omar",
        "rank": 13797,
        "rank_sort": 13844,
        "total": 2390
      },
      {
        "club_badge_src": null,
        "entry": 2040586,
        "entry_name": "Team Felix",
        "event_total": 63,
        "has_played": true,
        "id": 14450512,
        "last_rank": 16807,
        "player_name": "Felix Eklund",
        "rank": 13797,
        "rank_sort": 13845,
        "total": 2390
      },
      {
        "club_badge_src": null,
        "entry": 2236658,
        "entry_name": "Fountain of Gy\u00f6als",
        "event_total": 67,
        "has_played": true,
        "id": 15933881,
        "last_rank": 19721,
        "player_name": "David Fontein",
        "rank": 13797,
        "rank_sort": 13846,
        "total": 2390
      },
      {
        "club_badge_src": null,
        "entry": 2377315,
        "entry_name": "Lukas Kanoner",
        "event_total": 57,
        "has_played": true,
        "id": 16973709,
        "last_rank": 13401,
        "player_name": "Lukas Andersson",
        "rank": 13797,
        "rank_sort": 13847,
        "total": 2390
      },
      {
        "club_badge_src": null,
        "entry": 2468329,
        "entry_name": "Easy win",
        "event_total": 60,
        "has_played": true,
        "id": 17657326,
        "last_rank": 12705,
        "player_name": "Jonas Oskarsson",
        "rank": 13797,
        "rank_sort": 13848,
        "total": 2390
      },
      {
        "club_badge_src": null,
        "entry": 2590344,
        "entry_name": "urger",
        "event_total": 63,
        "has_played": true,
        "id": 18597069,
        "last_rank": 14370,
        "player_name": "Magnus Berge",
        "rank": 13797,
        "rank_sort": 13849,
        "total": 2390
      },
      {
        "club_badge_src": null,
        "entry": 2611549,
        "entry_name": "Scorpion King FC",
        "event_total": 67,
        "has_played": true,
        "id": 18762958,
        "last_rank": 19721,
        "player_name": "Krunal Lakhani",
        "rank": 13797,
        "rank_sort": 13850,
        "total": 2390
      }
    ]
  }
}