{
  "last_updated_data": "2026-05-24T23:28:17Z",
  "league": {
    "admin_entry": null,
    "closed": false,
    "code_privacy": "p",
    "created": "2025-07-20T23:14:33.933835Z",
    "cup_league": 2815434,
    "has_cup": true,
    "id": 314,
    "league_type": "s",
    "max_entries": null,
    "name": "Overall",
    "rank": null,
    "scoring": "c",
    "start_event": 1
  },
  "new_entries": {
    "has_next": false,
    "page": 1,
    "results": []
  },
  "standings": {
    "has_next": true,
    "page": 1060,
    "results": [
      {
        "club_badge_src": null,
        "entry": 3908534,
        "entry_name": "Dinshiya Fc",
        "event_total": 43,
        "has_played": true,
        "id": 29385333,
        "last_rank": 34293,
        "player_name": "Michael Aigbodion",
        "rank": 52759,
        "rank_sort": 52951,
        "total": 2350
      },
      {
        "club_badge_src": null,
        "entry": 3908634,
        "entry_name": "Slotty 2 Hotty",
        "event_total": 56,
        "has_played": true,
        "id": 29386135,
        "last_rank": 51403,
        "player_name": "Hasan Nawfel",
        "rank": 52759,
        "rank_sort": 52952,
        "total": 2350
      },
      {
        "club_badge_src": null,
        "entry": 3927192,
        "entry_name": "Abdulrhman 12",
        "event_total": 57,
        "has_played": true,
        "id": 29534785,
        "last_rank": 53345,
        "player_name": "Abdulrhman 66",
        "rank": 52759,
        "rank_sort": 52953,
        "total": 2350
      },
      {
        "club_badge_src": null,
        "entry": 3988102,
        "entry_name": "hussain305",
        "event_total": 45,
        "has_played": true,
        "id": 30027006,
        "last_rank": 36624,
        "player_name": "Hussain almutiri",
        "rank": 52759,
        "rank_sort": 52954,
        "total": 2350
      },
      {
        "club_badge_src": null,
        "entry": 4018630,
        "entry_name": "ChickenTikkaMoSalah",
        "event_total": 57,
        "has_played": true,
        "id": 30286035,
        "last_rank": 53621,
        "player_name": "Lauren Olphert",
        "rank": 52759,
        "rank_sort": 52955,
        "total": 2350
      },
      {
        "club_badge_src": null,
        "entry": 4076768,
        "entry_name": "Craig's Dragons",
        "event_total": 61,
        "has_played": true,
        "id": 30773940,
        "last_rank": 59632,
        "player_name": "Craig Horne",
        "rank": 52759,
        "rank_sort": 52956,
        "total": 2350
      },
      {
        "club_badge_src": null,
        "entry": 4077083,
        "entry_name": "Kirks Jerks XI",
        "event_total": 52,
        "has_played": true,
        "id": 30776383,
        "last_rank": 45714,
        "player_name": "andy kirwan",
        "rank": 52759,
        "rank_sort": 52957,
        "total": 2350
      },
      {
        "club_badge_src": null,
        "entry": 4098802,
        "entry_name": "BobbBobbBobbikkesant",
        "event_total": 50,
        "has_played": true,
        "id": 30950091,
        "last_rank": 42940,
        "player_name": "Magnus Lorentzen",
        "rank": 52759,
        "rank_sort": 52958,
        "total": 2350
      },
      {
        "club_badge_src": null,
        "entry": 4146992,
        "entry_name": "Reijnder Games",
        "event_total": 54,
        "has_played": true,
        "id": 31343645,
        "last_rank": 48642,
        "player_name": "Rishi Mohan",
        "rank": 52759,
        "rank_sort": 52959,
        "total": 2350
      },
      {
        "club_badge_src": null,
        "entry": 4183661,
        "entry_name": "RedDevils",
        "event_total": 50,
        "has_played": true,
        "id": 31653288,
        "last_rank": 43168,
        "player_name": "mohammed alsughaier",
        "rank": 52759,
        "rank_sort": 52960,
        "total": 2350
      },
      {
        "club_badge_src": "https://fantasy.premierleague.com/gcs/plfpl-production-adobe-approved/plfpl-production/4225289/cc57beac-28f2-450f-b49c-5adc5c98b0a2.png",
        "entry": 4225289,
        "entry_name": "GGMU",
        "event_total": 70,
        "has_played": true,
        "id": 32009687,
        "last_rank": 76947,
        "player_name": "Jing Sheng Toh",
        "rank": 52759,
        "rank_sort": 52961,
        "total": 2350
      },
      {
        "club_badge_src": null,
        "entry": 4323516,
        "entry_name": "The 40YearOld Virgil",
        "event_total": 40,
        "has_played": true,
        "id": 32812873,
        "last_rank": 26827,
        "player_name": "Ben Ledson",
        "rank": 52759,
        "rank_sort": 52962,
        "total": 2350
      },
      {
        "club_badge_src": null,
        "entry": 4381227,
        "entry_name": "Jo\u00e3o Making Me Crazy",
        "event_total": 60,
        "has_played": true,
        "id": 33295229,
        "last_rank": 58388,
        "player_name": "James Bantick",
        "rank": 52759,
        "rank_sort": 52963,
        "total": 2350
      },
      {
        "club_badge_src": null,
        "entry": 4394272,
        "entry_name": "Brebta Team",
        "event_total": 54,
        "has_played": true,
        "id": 33409275,
        "last_rank": 48642,
        "player_name": "Tomas Brebis",
        "rank": 52759,
        "rank_sort": 52964,
        "total": 2350
      },
      {
        "club_badge_src": "https://fantasy.premierleague.com/gcs/plfpl-production-adobe-approved/plfpl-production/4509056/1e85c6fc-cd45-445a-bcf0-b9cd0b87b75e.png",
        "entry": 4509056,
        "entry_name": "Wirtz Case Scenario",
        "event_total": 48,
        "has_played": true,
        "id": 34380959,
        "last_rank": 40297,
        "player_name": "Ossie Murphy",
        "rank": 52759,
        "rank_sort": 52965,
        "total": 2350
      },
      {
        "club_badge_src": null,
        "entry": 4532347,
        "entry_name": "Pain in Dias",
        "event_total": 51,
        "has_played": true,
        "id": 34572523,
        "last_rank": 44303,
        "player_name": "Joseph Gilson",
        "rank": 52759,
        "rank_sort": 52966,
        "total": 2350
      },
      {
        "club_badge_src": null,
        "entry": 4542279,
        "entry_name": "SkolleDeRonkerEller",
        "event_total": 75,
        "has_played": true,
        "id": 34653997,
        "last_rank": 88594,
        "player_name": "Sepanta Ganjei",
        "rank": 52759,
        "rank_sort": 52967,
        "total": 2350
      },
      {
        "club_badge_src": "https://fantasy.premierleague.com/gcs/plfpl-production-adobe-approved/plfpl-production/4598529/62d20355-68da-402b-b7f3-c409eb87997d.png",
        "entry": 4598529,
        "entry_name": "Drizs Diamond Dawgs",
        "event_total": 63,
        "has_played": true,
        "id": 35123465,
        "last_rank": 63390,
        "player_name": "Luke Driscoll",
        "rank": 52759,
        "rank_sort": 52968,
        "total": 2350
      },
      {
        "club_badge_src": null,
        "entry": 4655242,
        "entry_name": "Arne alligator o co",
        "event_total": 67,
        "has_played": true,
        "id": 35626298,
        "last_rank": 71386,
        "player_name": "Martin Elliot",
        "rank": 52759,
        "rank_sort": 52969,
        "total": 2350
      },
      {
        "club_badge_src": null,
        "entry": 4722287,
        "entry_name": "champions of Sull",
        "event_total": 58,
        "has_played": true,
        "id": 36284389,
        "last_rank": 54494,
        "player_name": "Mark O-Sullivan",
        "rank": 52759,
        "rank_sort": 52970,
        "total": 2350
      },
      {
        "club_badge_src": null,
        "entry": 4774477,
        "entry_name": "Whelley Scorpions",
        "event_total": 56,
        "has_played": true,
        "id": 36751582,
        "last_rank": 51984,
        "player_name": "Liam Goulding",
        "rank": 52759,
        "rank_sort": 52971,
        "total": 2350
      },
      {
        "club_badge_src": null,
        "entry": 4811649,
        "entry_name": "Not United",
        "event_total": 67,
        "has_played": true,
        "id": 37049397,
        "last_rank": 70985,
        "player_name": "Ayuth Potchanant",
        "rank": 52759,
        "rank_sort": 52972,
        "total": 2350
      },
      {
        "club_badge_src": "https://fantasy.premierleague.com/gcs/plfpl-production-adobe-approved/plfpl-production/4831083/cc722ddc-680d-4280-93eb-b1b4d0ea65a7.png",
        "entry": 4831083,
        "entry_name": "SepX Gorillas",
        "event_total": 65,
        "has_played": true,
        "id": 37208994,
        "last_rank": 67422,
        "player_name": "Artjoms Sepiks",
        "rank": 52759,
        "rank_sort": 52973,
        "total": 2350
      },
      {
        "club_badge_src": "https://fantasy.premierleague.com/gcs/plfpl-production-adobe-approved/plfpl-production/4840472/90b253fd-48c3-44af-85db-7e2af503be40.png",
        "entry": 4840472,
        "entry_name": "pxx",
        "event_total": 59,
        "has_played": true,
        "id": 37287230,
        "last_rank": 56708,
        "player_name": "Pirs Kawa",
        "rank": 52759,
        "rank_sort": 52974,
        "total": 2350
      },
      {
        "club_badge_src": null,
        "entry": 4858885,
        "entry_name": "Baderffc",
        "event_total": 36,
        "has_played": true,
        "id": 37441907,
        "last_rank": 27020,
        "player_name": "Bader Mohammed",
        "rank": 52759,
        "rank_sort": 52975,
        "total": 2350
      },
      {
        "club_badge_src": null,
        "entry": 4866782,
        "entry_name": "FC Fahlis",
        "event_total": 67,
        "has_played": true,
        "id": 37510423,
        "last_rank": 71386,
        "player_name": "Lukas Fahlstr\u00f6m",
        "rank": 52759,
        "rank_sort": 52976,
        "total": 2350
      },
      {
        "club_badge_src": null,
        "entry": 4901202,
        "entry_name": "Much Kudus",
        "event_total": 48,
        "has_played": true,
        "id": 37794070,
        "last_rank": 40503,
        "player_name": "Ashley Walden",
        "rank": 52759,
        "rank_sort": 52977,
        "total": 2350
      },
      {
        "club_badge_src": null,
        "entry": 5073812,
        "entry_name": "Bandrrh",
        "event_total": 53,
        "has_played": true,
        "id": 39211737,
        "last_rank": 47163,
        "player_name": "Bandar Alhejji",
        "rank": 52759,
        "rank_sort": 52978,
        "total": 2350
      },
      {
        "club_badge_src": null,
        "entry": 5255409,
        "entry_name": "Naws",
        "event_total": 74,
        "has_played": true,
        "id": 40731557,
        "last_rank": 86735,
        "player_name": "Chris Connor",
        "rank": 52759,
        "rank_sort": 52979,
        "total": 2350
      },
      {
        "club_badge_src": null,
        "entry": 5314901,
        "entry_name": "Areola Grande",
        "event_total": 49,
        "has_played": true,
        "id": 41199276,
        "last_rank": 41617,
        "player_name": "Mia Calvert",
        "rank": 52759,
        "rank_sort": 52980,
        "total": 2350
      },
      {
        "club_badge_src": null,
        "entry": 5451372,
        "entry_name": "mxm795",
        "event_total": 51,
        "has_played": true,
        "id": 42420183,
        "last_rank": 44048,
        "player_name": "MHMD AHMD",
        "rank": 52759,
        "rank_sort": 52981,
        "total": 2350
      },
      {
        "club_badge_src": null,
        "entry": 5627974,
        "entry_name": "MEITMC",
        "event_total": 63,
        "has_played": true,
        "id": 43999513,
        "last_rank": 63724,
        "player_name": "James Langley",
        "rank": 52759,
        "rank_sort": 52982,
        "total": 2350
      },
      {
        "club_badge_src": null,
        "entry": 5728041,
        "entry_name": "Team Hard*",
        "event_total": 60,
        "has_played": true,
        "id": 44871721,
        "last_rank": 51220,
        "player_name": "Mart De Klein",
        "rank": 52759,
        "rank_sort": 52983,
        "total": 2350
      },
      {
        "club_badge_src": null,
        "entry": 5740853,
        "entry_name": "Pep With Extra Steps",
        "event_total": 48,
        "has_played": true,
        "id": 44987011,
        "last_rank": 39874,
        "player_name": "Luke F",
        "rank": 52759,
        "rank_sort": 52984,
        "total": 2350
      },
      {
        "club_badge_src": null,
        "entry": 5791544,
        "entry_name": "Noble All stars",
        "event_total": 64,
        "has_played": true,
        "id": 45424191,
        "last_rank": 65475,
        "player_name": "Robert Noble",
        "rank": 52759,
        "rank_sort": 52985,
        "total": 2350
      },
      {
        "club_badge_src": null,
        "entry": 5836291,
        "entry_name": "Cunha Believe It?",
        "event_total": 60,
        "has_played": true,
        "id": 45811531,
        "last_rank": 51403,
        "player_name": "Joel Chester",
        "rank": 52759,
        "rank_sort": 52986,
        "total": 2350
      },
      {
        "club_badge_src": null,
        "entry": 5849798,
        "entry_name": "Eleven Samurai",
        "event_total": 76,
        "has_played": true,
        "id": 45926061,
        "last_rank": 91835,
        "player_name": "Miguel Cabezas",
        "rank": 52759,
        "rank_sort": 52987,
        "total": 2350
      },
      {
        "club_badge_src": null,
        "entry": 5876438,
        "entry_name": "Ireland",
        "event_total": 58,
        "has_played": true,
        "id": 46158413,
        "last_rank": 54494,
        "player_name": "Eoin Clancy",
        "rank": 52759,
        "rank_sort": 52988,
        "total": 2350
      },
      {
        "club_badge_src": null,
        "entry": 5877764,
        "entry_name": "Carbery & Co",
        "event_total": 51,
        "has_played": true,
        "id": 46168799,
        "last_rank": 38774,
        "player_name": "George Carbery",
        "rank": 52759,
        "rank_sort": 52989,
        "total": 2350
      },
      {
        "club_badge_src": null,
        "entry": 6002058,
        "entry_name": "Gaischester United",
        "event_total": 59,
        "has_played": true,
        "id": 47316591,
        "last_rank": 49880,
        "player_name": "Jonathan Edstrm",
        "rank": 52759,
        "rank_sort": 52990,
        "total": 2350
      },
      {
        "club_badge_src": null,
        "entry": 6051057,
        "entry_name": "Petr \u010cech shes 16",
        "event_total": 72,
        "has_played": true,
        "id": 47749172,
        "last_rank": 82069,
        "player_name": "Alfie Seage",
        "rank": 52759,
        "rank_sort": 52991,
        "total": 2350
      },
      {
        "club_badge_src": null,
        "entry": 6052417,
        "entry_name": "Jaszczury",
        "event_total": 62,
        "has_played": true,
        "id": 47760741,
        "last_rank": 61606,
        "player_name": "Patrycja R\u017canek",
        "rank": 52759,
        "rank_sort": 52992,
        "total": 2350
      },
      {
        "club_badge_src": null,
        "entry": 6082955,
        "entry_name": "NathansXI",
        "event_total": 44,
        "has_played": true,
        "id": 48027809,
        "last_rank": 35619,
        "player_name": "Nathan Holmes",
        "rank": 52759,
        "rank_sort": 52993,
        "total": 2350
      },
      {
        "club_badge_src": null,
        "entry": 6142174,
        "entry_name": "ReturnOfTheMackems",
        "event_total": 71,
        "has_played": true,
        "id": 48544672,
        "last_rank": 79817,
        "player_name": "Jasmine Howe",
        "rank": 52759,
        "rank_sort": 52994,
        "total": 2350
      },
      {
        "club_badge_src": null,
        "entry": 6214241,
        "entry_name": "Here we go again",
        "event_total": 58,
        "has_played": true,
        "id": 49167500,
        "last_rank": 54667,
        "player_name": "Osman Osman",
        "rank": 52759,
        "rank_sort": 52995,
        "total": 2350
      },
      {
        "club_badge_src": null,
        "entry": 6272296,
        "entry_name": "Bruno Dos Tres",
        "event_total": 53,
        "has_played": true,
        "id": 49667976,
        "last_rank": 47163,
        "player_name": "Ben Brewer",
        "rank": 52759,
        "rank_sort": 52996,
        "total": 2350
      },
      {
        "club_badge_src": null,
        "entry": 6285459,
        "entry_name": "Eze Win",
        "event_total": 69,
        "has_played": true,
        "id": 49788564,
        "last_rank": 75537,
        "player_name": "Jack Pye",
        "rank": 52759,
        "rank_sort": 52997,
        "total": 2350
      },
      {
        "club_badge_src": null,
        "entry": 6285680,
        "entry_name": "SUIIIIIIEET JESUS",
        "event_total": 72,
        "has_played": true,
        "id": 49790595,
        "last_rank": 81420,
        "player_name": "ARYAMAN BOSS",
        "rank": 52759,
        "rank_sort": 52998,
        "total": 2350
      },
      {
        "club_badge_src": null,
        "entry": 6301239,
        "entry_name": "Gioino F.C.",
        "event_total": 83,
        "has_played": true,
        "id": 49957484,
        "last_rank": 108496,
        "player_name": "Matheus Machado",
        "rank": 52759,
        "rank_sort": 52999,
        "total": 2350
      },
      {
        "club_badge_src": null,
        "entry": 6329977,
        "entry_name": "Not the Wirtz",
        "event_total": 67,
        "has_played": true,
        "id": 50301719,
        "last_rank": 71386,
        "player_name": "Sam Watts",
        "rank": 52759,
        "rank_sort": 53000,
        "total": 2350
      }
    ]
  }
}