{
  "last_updated_data": "2026-05-24T23:28:17Z",
  "league": {
    "admin_entry": null,
    "closed": false,
    "code_privacy": "p",
    "created": "2025-07-20T23:14:33.933835Z",
    "cup_league": 2815434,
    "has_cup": true,
    "id": 314,
    "league_type": "s",
    "max_entries": null,
    "name": "Overall",
    "rank": null,
    "scoring": "c",
    "start_event": 1
  },
  "new_entries": {
    "has_next": false,
    "page": 1,
    "results": []
  },
  "standings": {
    "has_next": true,
    "page": 1579,
    "results": [
      {
        "club_badge_src": null,
        "entry": 2378968,
        "entry_name": "Les Goh XI",
        "event_total": 42,
        "has_played": true,
        "id": 16986416,
        "last_rank": 52205,
        "player_name": "Zac Rockett",
        "rank": 78765,
        "rank_sort": 78901,
        "total": 2336
      },
      {
        "club_badge_src": null,
        "entry": 2413527,
        "entry_name": "Aljubairi",
        "event_total": 62,
        "has_played": true,
        "id": 17252984,
        "last_rank": 73423,
        "player_name": "Thamer Aljubairi",
        "rank": 78765,
        "rank_sort": 78902,
        "total": 2336
      },
      {
        "club_badge_src": null,
        "entry": 2490446,
        "entry_name": "juffe's dt",
        "event_total": 58,
        "has_played": true,
        "id": 17828910,
        "last_rank": 73423,
        "player_name": "Juha Toivonen",
        "rank": 78765,
        "rank_sort": 78903,
        "total": 2336
      },
      {
        "club_badge_src": null,
        "entry": 2537061,
        "entry_name": "Pompey Hells Kitchen",
        "event_total": 60,
        "has_played": true,
        "id": 18181947,
        "last_rank": 87074,
        "player_name": "Neil Tilbury",
        "rank": 78765,
        "rank_sort": 78904,
        "total": 2336
      },
      {
        "club_badge_src": null,
        "entry": 2586808,
        "entry_name": "Kenfica",
        "event_total": 59,
        "has_played": true,
        "id": 18570014,
        "last_rank": 75874,
        "player_name": "Ken Fenton",
        "rank": 78765,
        "rank_sort": 78905,
        "total": 2336
      },
      {
        "club_badge_src": null,
        "entry": 2667985,
        "entry_name": "Gears",
        "event_total": 58,
        "has_played": true,
        "id": 19181360,
        "last_rank": 82664,
        "player_name": "Amr Khaled",
        "rank": 78765,
        "rank_sort": 78906,
        "total": 2336
      },
      {
        "club_badge_src": null,
        "entry": 2747377,
        "entry_name": "Losser",
        "event_total": 62,
        "has_played": true,
        "id": 19912418,
        "last_rank": 91835,
        "player_name": "opdulasis mohamett",
        "rank": 78765,
        "rank_sort": 78907,
        "total": 2336
      },
      {
        "club_badge_src": null,
        "entry": 2819267,
        "entry_name": "Bag of White .3",
        "event_total": 50,
        "has_played": true,
        "id": 20595107,
        "last_rank": 66057,
        "player_name": "Tom Sewell",
        "rank": 78765,
        "rank_sort": 78908,
        "total": 2336
      },
      {
        "club_badge_src": null,
        "entry": 2922553,
        "entry_name": "Ballers",
        "event_total": 52,
        "has_played": true,
        "id": 21424569,
        "last_rank": 69907,
        "player_name": "Boris Akrapovic",
        "rank": 78765,
        "rank_sort": 78909,
        "total": 2336
      },
      {
        "club_badge_src": null,
        "entry": 2985216,
        "entry_name": "Stroke my Isak",
        "event_total": 64,
        "has_played": true,
        "id": 21950078,
        "last_rank": 77676,
        "player_name": "Lewis Buttifant",
        "rank": 78765,
        "rank_sort": 78910,
        "total": 2336
      },
      {
        "club_badge_src": null,
        "entry": 3007107,
        "entry_name": "Ngumoha Believe Us",
        "event_total": 45,
        "has_played": true,
        "id": 22120777,
        "last_rank": 57200,
        "player_name": "Jon Cooper",
        "rank": 78765,
        "rank_sort": 78911,
        "total": 2336
      },
      {
        "club_badge_src": null,
        "entry": 3036183,
        "entry_name": "Let's go Zubimental",
        "event_total": 67,
        "has_played": true,
        "id": 22345538,
        "last_rank": 104388,
        "player_name": "Michael Tarrega",
        "rank": 78765,
        "rank_sort": 78912,
        "total": 2336
      },
      {
        "club_badge_src": null,
        "entry": 3167046,
        "entry_name": "RodneeBewz FC",
        "event_total": 57,
        "has_played": true,
        "id": 23397979,
        "last_rank": 71713,
        "player_name": "Glyn Jones",
        "rank": 78765,
        "rank_sort": 78913,
        "total": 2336
      },
      {
        "club_badge_src": null,
        "entry": 3255078,
        "entry_name": "Kinder Mbuemo",
        "event_total": 56,
        "has_played": true,
        "id": 24084403,
        "last_rank": 78244,
        "player_name": "Liam Daws",
        "rank": 78765,
        "rank_sort": 78914,
        "total": 2336
      },
      {
        "club_badge_src": null,
        "entry": 3256905,
        "entry_name": "Iron Mings",
        "event_total": 58,
        "has_played": true,
        "id": 24098437,
        "last_rank": 82398,
        "player_name": "Anthony Jarrett",
        "rank": 78765,
        "rank_sort": 78915,
        "total": 2336
      },
      {
        "club_badge_src": null,
        "entry": 3271919,
        "entry_name": "3tacha",
        "event_total": 47,
        "has_played": true,
        "id": 24213821,
        "last_rank": 60462,
        "player_name": "Firas Hamouda",
        "rank": 78765,
        "rank_sort": 78916,
        "total": 2336
      },
      {
        "club_badge_src": null,
        "entry": 3275837,
        "entry_name": "Garam Rendah Natrium",
        "event_total": 59,
        "has_played": true,
        "id": 24244690,
        "last_rank": 85207,
        "player_name": "arief krestiono",
        "rank": 78765,
        "rank_sort": 78917,
        "total": 2336
      },
      {
        "club_badge_src": null,
        "entry": 3346519,
        "entry_name": "Todd Boobley",
        "event_total": 57,
        "has_played": true,
        "id": 24824471,
        "last_rank": 71713,
        "player_name": "Max Jones",
        "rank": 78765,
        "rank_sort": 78918,
        "total": 2336
      },
      {
        "club_badge_src": null,
        "entry": 3348053,
        "entry_name": "Paradise City",
        "event_total": 56,
        "has_played": true,
        "id": 24836651,
        "last_rank": 78244,
        "player_name": "Ben Smith",
        "rank": 78765,
        "rank_sort": 78919,
        "total": 2336
      },
      {
        "club_badge_src": null,
        "entry": 3446547,
        "entry_name": "Mr Boozles",
        "event_total": 63,
        "has_played": true,
        "id": 25608269,
        "last_rank": 94537,
        "player_name": "Susannah Richmond",
        "rank": 78765,
        "rank_sort": 78920,
        "total": 2336
      },
      {
        "club_badge_src": null,
        "entry": 3455708,
        "entry_name": "cooldaddies laddies",
        "event_total": 60,
        "has_played": true,
        "id": 25683508,
        "last_rank": 77999,
        "player_name": "Myles Cooling",
        "rank": 78765,
        "rank_sort": 78921,
        "total": 2336
      },
      {
        "club_badge_src": null,
        "entry": 3508838,
        "entry_name": "sidar wahid",
        "event_total": 73,
        "has_played": true,
        "id": 26106839,
        "last_rank": 121383,
        "player_name": "sidar wahid",
        "rank": 78765,
        "rank_sort": 78922,
        "total": 2336
      },
      {
        "club_badge_src": null,
        "entry": 3671803,
        "entry_name": "Rafsci",
        "event_total": 65,
        "has_played": true,
        "id": 27384861,
        "last_rank": 99296,
        "player_name": "Abdulrafeeq Adebisi",
        "rank": 78765,
        "rank_sort": 78923,
        "total": 2336
      },
      {
        "club_badge_src": null,
        "entry": 3727189,
        "entry_name": "Bowen 747",
        "event_total": 66,
        "has_played": true,
        "id": 27818797,
        "last_rank": 91466,
        "player_name": "Liam Glynn",
        "rank": 78765,
        "rank_sort": 78924,
        "total": 2336
      },
      {
        "club_badge_src": null,
        "entry": 3836296,
        "entry_name": "THE HOOPSstars",
        "event_total": 39,
        "has_played": true,
        "id": 28709963,
        "last_rank": 41824,
        "player_name": "john allan",
        "rank": 78765,
        "rank_sort": 78925,
        "total": 2336
      },
      {
        "club_badge_src": null,
        "entry": 3840455,
        "entry_name": "MunchDiaz",
        "event_total": 72,
        "has_played": true,
        "id": 28761709,
        "last_rank": 117915,
        "player_name": "Billy Ward",
        "rank": 78765,
        "rank_sort": 78926,
        "total": 2336
      },
      {
        "club_badge_src": null,
        "entry": 3884201,
        "entry_name": "Fisher's Fantasy",
        "event_total": 58,
        "has_played": true,
        "id": 29186311,
        "last_rank": 82398,
        "player_name": "Owen F",
        "rank": 78765,
        "rank_sort": 78927,
        "total": 2336
      },
      {
        "club_badge_src": null,
        "entry": 3961607,
        "entry_name": "HF Titans",
        "event_total": 59,
        "has_played": true,
        "id": 29806867,
        "last_rank": 75874,
        "player_name": "Robert Knolmayer",
        "rank": 78765,
        "rank_sort": 78928,
        "total": 2336
      },
      {
        "club_badge_src": null,
        "entry": 3973719,
        "entry_name": "Laglaget",
        "event_total": 69,
        "has_played": true,
        "id": 29906316,
        "last_rank": 99296,
        "player_name": "Eirik Dragset",
        "rank": 78765,
        "rank_sort": 78929,
        "total": 2336
      },
      {
        "club_badge_src": null,
        "entry": 4037830,
        "entry_name": "Real Madras",
        "event_total": 70,
        "has_played": true,
        "id": 30448056,
        "last_rank": 112960,
        "player_name": "graham drew",
        "rank": 78765,
        "rank_sort": 78930,
        "total": 2336
      },
      {
        "club_badge_src": null,
        "entry": 4195076,
        "entry_name": "Real Sosobad",
        "event_total": 51,
        "has_played": true,
        "id": 31750650,
        "last_rank": 67926,
        "player_name": "David Beggs",
        "rank": 78765,
        "rank_sort": 78931,
        "total": 2336
      },
      {
        "club_badge_src": null,
        "entry": 4319015,
        "entry_name": "BANDAR",
        "event_total": 78,
        "has_played": true,
        "id": 32776415,
        "last_rank": 137440,
        "player_name": "Bender MA",
        "rank": 78765,
        "rank_sort": 78932,
        "total": 2336
      },
      {
        "club_badge_src": null,
        "entry": 4372690,
        "entry_name": "Now I'm a Baleba",
        "event_total": 68,
        "has_played": true,
        "id": 33222732,
        "last_rank": 107162,
        "player_name": "Finley Russell",
        "rank": 78765,
        "rank_sort": 78933,
        "total": 2336
      },
      {
        "club_badge_src": null,
        "entry": 4434644,
        "entry_name": "Franksfurters",
        "event_total": 47,
        "has_played": true,
        "id": 33764451,
        "last_rank": 60462,
        "player_name": "Rory Burnell",
        "rank": 78765,
        "rank_sort": 78934,
        "total": 2336
      },
      {
        "club_badge_src": null,
        "entry": 4451881,
        "entry_name": "Oisin B",
        "event_total": 36,
        "has_played": true,
        "id": 33909070,
        "last_rank": 38016,
        "player_name": "oisin brennan",
        "rank": 78765,
        "rank_sort": 78935,
        "total": 2336
      },
      {
        "club_badge_src": null,
        "entry": 4457648,
        "entry_name": "KazPower",
        "event_total": 53,
        "has_played": true,
        "id": 33958249,
        "last_rank": 72145,
        "player_name": "Kazeem Agboola",
        "rank": 78765,
        "rank_sort": 78936,
        "total": 2336
      },
      {
        "club_badge_src": null,
        "entry": 4466145,
        "entry_name": "Not The Wirtz Team",
        "event_total": 62,
        "has_played": true,
        "id": 34031045,
        "last_rank": 91835,
        "player_name": "John Artro Morris",
        "rank": 78765,
        "rank_sort": 78937,
        "total": 2336
      },
      {
        "club_badge_src": null,
        "entry": 4474533,
        "entry_name": "Inkero Fc",
        "event_total": 68,
        "has_played": true,
        "id": 34099011,
        "last_rank": 107485,
        "player_name": "Adeyinka Isaac",
        "rank": 78765,
        "rank_sort": 78938,
        "total": 2336
      },
      {
        "club_badge_src": null,
        "entry": 4515348,
        "entry_name": "Game of stones",
        "event_total": 58,
        "has_played": true,
        "id": 34432176,
        "last_rank": 82664,
        "player_name": "Michael Che",
        "rank": 78765,
        "rank_sort": 78939,
        "total": 2336
      },
      {
        "club_badge_src": null,
        "entry": 4625771,
        "entry_name": "orangecustardpenguin",
        "event_total": 58,
        "has_played": true,
        "id": 35365287,
        "last_rank": 73720,
        "player_name": "Oliver Webber",
        "rank": 78765,
        "rank_sort": 78940,
        "total": 2336
      },
      {
        "club_badge_src": null,
        "entry": 4658364,
        "entry_name": "Khaled \u2764\ufe0f\ufffd\ufffd",
        "event_total": 54,
        "has_played": true,
        "id": 35661162,
        "last_rank": 74166,
        "player_name": "Khaled Mohamed",
        "rank": 78765,
        "rank_sort": 78941,
        "total": 2336
      },
      {
        "club_badge_src": null,
        "entry": 4678105,
        "entry_name": "Siecko",
        "event_total": 63,
        "has_played": true,
        "id": 35840878,
        "last_rank": 94537,
        "player_name": "Mohamed Barakat",
        "rank": 78765,
        "rank_sort": 78942,
        "total": 2336
      },
      {
        "club_badge_src": null,
        "entry": 4681084,
        "entry_name": "AMS",
        "event_total": 59,
        "has_played": true,
        "id": 35869213,
        "last_rank": 84360,
        "player_name": "Abdullah Alsaif",
        "rank": 78765,
        "rank_sort": 78943,
        "total": 2336
      },
      {
        "club_badge_src": null,
        "entry": 4749557,
        "entry_name": "Franky's Giants",
        "event_total": 69,
        "has_played": true,
        "id": 36547447,
        "last_rank": 99296,
        "player_name": "Scott Franks",
        "rank": 78765,
        "rank_sort": 78944,
        "total": 2336
      },
      {
        "club_badge_src": null,
        "entry": 4782318,
        "entry_name": "leivrpol",
        "event_total": 63,
        "has_played": true,
        "id": 36815035,
        "last_rank": 94778,
        "player_name": "Void Hunter",
        "rank": 78765,
        "rank_sort": 78945,
        "total": 2336
      },
      {
        "club_badge_src": null,
        "entry": 4928064,
        "entry_name": "Born2run",
        "event_total": 57,
        "has_played": true,
        "id": 38013302,
        "last_rank": 80465,
        "player_name": "Rob Farr",
        "rank": 78765,
        "rank_sort": 78946,
        "total": 2336
      },
      {
        "club_badge_src": null,
        "entry": 4994245,
        "entry_name": "Rango",
        "event_total": 53,
        "has_played": true,
        "id": 38558416,
        "last_rank": 71956,
        "player_name": "Basel Alsader",
        "rank": 78765,
        "rank_sort": 78947,
        "total": 2336
      },
      {
        "club_badge_src": null,
        "entry": 5065019,
        "entry_name": "Fasif Saint Germain",
        "event_total": 84,
        "has_played": true,
        "id": 39140355,
        "last_rank": 157663,
        "player_name": "Fahad Asif",
        "rank": 78765,
        "rank_sort": 78948,
        "total": 2336
      },
      {
        "club_badge_src": null,
        "entry": 5122682,
        "entry_name": "Mocha Joe FC",
        "event_total": 50,
        "has_played": true,
        "id": 39612710,
        "last_rank": 66057,
        "player_name": "Stuart Flaherty",
        "rank": 78765,
        "rank_sort": 78949,
        "total": 2336
      },
      {
        "club_badge_src": null,
        "entry": 5172853,
        "entry_name": "\u8fd4\u53bb\u6545\u9109",
        "event_total": 68,
        "has_played": true,
        "id": 40036539,
        "last_rank": 106763,
        "player_name": "\u665a\u98ce \uff5e",
        "rank": 78765,
        "rank_sort": 78950,
        "total": 2336
      }
    ]
  }
}