{
  "last_updated_data": "2026-05-24T23:28:17Z",
  "league": {
    "admin_entry": null,
    "closed": false,
    "code_privacy": "p",
    "created": "2025-07-20T23:14:33.933835Z",
    "cup_league": 2815434,
    "has_cup": true,
    "id": 314,
    "league_type": "s",
    "max_entries": null,
    "name": "Overall",
    "rank": null,
    "scoring": "c",
    "start_event": 1
  },
  "new_entries": {
    "has_next": false,
    "page": 1,
    "results": []
  },
  "standings": {
    "has_next": true,
    "page": 1224,
    "results": [
      {
        "club_badge_src": null,
        "entry": 1985893,
        "entry_name": "Sacres Bleus",
        "event_total": 64,
        "has_played": true,
        "id": 14028067,
        "last_rank": 75874,
        "player_name": "Steve Corfield",
        "rank": 60996,
        "rank_sort": 61151,
        "total": 2345
      },
      {
        "club_badge_src": null,
        "entry": 1996964,
        "entry_name": "NaTay 06",
        "event_total": 45,
        "has_played": true,
        "id": 14111951,
        "last_rank": 42940,
        "player_name": "Yuranan Pansawang",
        "rank": 60996,
        "rank_sort": 61152,
        "total": 2345
      },
      {
        "club_badge_src": "https://fantasy.premierleague.com/gcs/plfpl-production-adobe-approved/plfpl-production/2008981/f48d762a-d789-490f-98df-52637997c67a.png",
        "entry": 2008981,
        "entry_name": "Gaston Maximiliano",
        "event_total": 53,
        "has_played": true,
        "id": 14205058,
        "last_rank": 55014,
        "player_name": "Aimilios Dimitriou",
        "rank": 60996,
        "rank_sort": 61153,
        "total": 2345
      },
      {
        "club_badge_src": null,
        "entry": 2012523,
        "entry_name": "Rand-7-",
        "event_total": 36,
        "has_played": true,
        "id": 14231224,
        "last_rank": 31995,
        "player_name": "harem sharif",
        "rank": 60996,
        "rank_sort": 61154,
        "total": 2345
      },
      {
        "club_badge_src": null,
        "entry": 2027161,
        "entry_name": "MbuemRowe",
        "event_total": 44,
        "has_played": true,
        "id": 14350344,
        "last_rank": 41324,
        "player_name": "Toby Rowe",
        "rank": 60996,
        "rank_sort": 61155,
        "total": 2345
      },
      {
        "club_badge_src": null,
        "entry": 2041067,
        "entry_name": "I\u2019m not Gueye",
        "event_total": 61,
        "has_played": true,
        "id": 14453998,
        "last_rank": 68957,
        "player_name": "Joakim Antonsen",
        "rank": 60996,
        "rank_sort": 61156,
        "total": 2345
      },
      {
        "club_badge_src": null,
        "entry": 2051929,
        "entry_name": "Pink Penguins \ufffd",
        "event_total": 47,
        "has_played": true,
        "id": 14534308,
        "last_rank": 45714,
        "player_name": "Edward Corlett",
        "rank": 60996,
        "rank_sort": 61157,
        "total": 2345
      },
      {
        "club_badge_src": null,
        "entry": 2055387,
        "entry_name": "FC Touff13",
        "event_total": 85,
        "has_played": true,
        "id": 14560126,
        "last_rank": 129506,
        "player_name": "Shakeel Touffie",
        "rank": 60996,
        "rank_sort": 61158,
        "total": 2345
      },
      {
        "club_badge_src": "https://fantasy.premierleague.com/gcs/plfpl-production-adobe-approved/plfpl-production/2056785/bbe046fa-f771-4364-beec-e188c7b124bf.png",
        "entry": 2056785,
        "entry_name": "The Godfather",
        "event_total": 55,
        "has_played": true,
        "id": 14570487,
        "last_rank": 58388,
        "player_name": "Ahmed A. Gobran",
        "rank": 60996,
        "rank_sort": 61159,
        "total": 2345
      },
      {
        "club_badge_src": null,
        "entry": 2082639,
        "entry_name": "Change Name",
        "event_total": 65,
        "has_played": true,
        "id": 14773280,
        "last_rank": 77676,
        "player_name": "Dan Aston",
        "rank": 60996,
        "rank_sort": 61160,
        "total": 2345
      },
      {
        "club_badge_src": null,
        "entry": 2122014,
        "entry_name": "Pupils of the Week",
        "event_total": 46,
        "has_played": true,
        "id": 15073988,
        "last_rank": 44303,
        "player_name": "Patrick Heaney",
        "rank": 60996,
        "rank_sort": 61161,
        "total": 2345
      },
      {
        "club_badge_src": null,
        "entry": 2163346,
        "entry_name": "Kloppo_Fc",
        "event_total": 60,
        "has_played": true,
        "id": 15378923,
        "last_rank": 66848,
        "player_name": "Jake Galea",
        "rank": 60996,
        "rank_sort": 61162,
        "total": 2345
      },
      {
        "club_badge_src": null,
        "entry": 2174020,
        "entry_name": "1",
        "event_total": 80,
        "has_played": true,
        "id": 15458564,
        "last_rank": 114292,
        "player_name": "Liam Williams",
        "rank": 60996,
        "rank_sort": 61163,
        "total": 2345
      },
      {
        "club_badge_src": null,
        "entry": 2183736,
        "entry_name": "Don't be Amad",
        "event_total": 64,
        "has_played": true,
        "id": 15532985,
        "last_rank": 75537,
        "player_name": "Nathan Johnson",
        "rank": 60996,
        "rank_sort": 61164,
        "total": 2345
      },
      {
        "club_badge_src": "https://fantasy.premierleague.com/gcs/plfpl-production-adobe-approved/plfpl-production/2190186/66d4100c-6909-4172-a9e0-ed932cbd32d3.png",
        "entry": 2190186,
        "entry_name": "Yamil Dumil Kondumil",
        "event_total": 57,
        "has_played": true,
        "id": 15582058,
        "last_rank": 54494,
        "player_name": "Bercu Cirlugea",
        "rank": 60996,
        "rank_sort": 61165,
        "total": 2345
      },
      {
        "club_badge_src": "https://fantasy.premierleague.com/gcs/plfpl-production-adobe-approved/plfpl-production/2207934/e05d1402-8f2c-435b-8284-d5b49efcdd39.png",
        "entry": 2207934,
        "entry_name": "Football Minds",
        "event_total": 30,
        "has_played": true,
        "id": 15721492,
        "last_rank": 26088,
        "player_name": "Thei van Mierlo",
        "rank": 60996,
        "rank_sort": 61166,
        "total": 2345
      },
      {
        "club_badge_src": null,
        "entry": 2248794,
        "entry_name": "Salah Bahr",
        "event_total": 38,
        "has_played": true,
        "id": 16024101,
        "last_rank": 34293,
        "player_name": "Salah Bahr",
        "rank": 60996,
        "rank_sort": 61167,
        "total": 2345
      },
      {
        "club_badge_src": null,
        "entry": 2253990,
        "entry_name": "The Youth",
        "event_total": 49,
        "has_played": true,
        "id": 16066772,
        "last_rank": 48642,
        "player_name": "Carl Wright",
        "rank": 60996,
        "rank_sort": 61168,
        "total": 2345
      },
      {
        "club_badge_src": null,
        "entry": 2348664,
        "entry_name": "No one likes me",
        "event_total": 57,
        "has_played": true,
        "id": 16758357,
        "last_rank": 61606,
        "player_name": "Russell Chambers",
        "rank": 60996,
        "rank_sort": 61169,
        "total": 2345
      },
      {
        "club_badge_src": null,
        "entry": 2361171,
        "entry_name": "tshabalala",
        "event_total": 63,
        "has_played": true,
        "id": 16851043,
        "last_rank": 73038,
        "player_name": "Vukasin Milojevic",
        "rank": 60996,
        "rank_sort": 61170,
        "total": 2345
      },
      {
        "club_badge_src": null,
        "entry": 2389627,
        "entry_name": "Cherk It Out",
        "event_total": 59,
        "has_played": true,
        "id": 17068818,
        "last_rank": 64943,
        "player_name": "Sharan Shetty",
        "rank": 60996,
        "rank_sort": 61171,
        "total": 2345
      },
      {
        "club_badge_src": null,
        "entry": 2414562,
        "entry_name": "Game of Stones",
        "event_total": 49,
        "has_played": true,
        "id": 17260421,
        "last_rank": 48642,
        "player_name": "Toby Wright",
        "rank": 60996,
        "rank_sort": 61172,
        "total": 2345
      },
      {
        "club_badge_src": null,
        "entry": 2470046,
        "entry_name": "Poke & Hope",
        "event_total": 76,
        "has_played": true,
        "id": 17670173,
        "last_rank": 93186,
        "player_name": "Zurain Jatoi",
        "rank": 60996,
        "rank_sort": 61173,
        "total": 2345
      },
      {
        "club_badge_src": "https://fantasy.premierleague.com/gcs/plfpl-production-adobe-approved/plfpl-production/2530085/af3db230-7d74-47a3-99d9-ff6f063d6fb7.png",
        "entry": 2530085,
        "entry_name": "Samu e Mora FC",
        "event_total": 48,
        "has_played": true,
        "id": 18129853,
        "last_rank": 46660,
        "player_name": "Andr\u00e9 Madureira",
        "rank": 60996,
        "rank_sort": 61174,
        "total": 2345
      },
      {
        "club_badge_src": null,
        "entry": 2596809,
        "entry_name": "The Pharmacist",
        "event_total": 37,
        "has_played": true,
        "id": 18648110,
        "last_rank": 28726,
        "player_name": "The Man",
        "rank": 60996,
        "rank_sort": 61175,
        "total": 2345
      },
      {
        "club_badge_src": null,
        "entry": 2703981,
        "entry_name": "Char\u2019s conquerors",
        "event_total": 51,
        "has_played": true,
        "id": 19452747,
        "last_rank": 51403,
        "player_name": "Charlotte Palmer",
        "rank": 60996,
        "rank_sort": 61176,
        "total": 2345
      },
      {
        "club_badge_src": "https://fantasy.premierleague.com/gcs/plfpl-production-adobe-approved/plfpl-production/2710441/b54edf27-b9b6-4c69-912d-736b2572ddba.png",
        "entry": 2710441,
        "entry_name": "UTV",
        "event_total": 58,
        "has_played": true,
        "id": 19501065,
        "last_rank": 63724,
        "player_name": "stuart Tolley",
        "rank": 60996,
        "rank_sort": 61177,
        "total": 2345
      },
      {
        "club_badge_src": null,
        "entry": 2722024,
        "entry_name": "Little Chilli",
        "event_total": 67,
        "has_played": true,
        "id": 19586988,
        "last_rank": 82069,
        "player_name": "Katy Samuels",
        "rank": 60996,
        "rank_sort": 61178,
        "total": 2345
      },
      {
        "club_badge_src": null,
        "entry": 2781348,
        "entry_name": "Dr. Doofen-Wirtz",
        "event_total": 52,
        "has_played": true,
        "id": 20301904,
        "last_rank": 53345,
        "player_name": "Jack Musselwhite",
        "rank": 60996,
        "rank_sort": 61179,
        "total": 2345
      },
      {
        "club_badge_src": null,
        "entry": 2820011,
        "entry_name": "Cole Runnings",
        "event_total": 37,
        "has_played": true,
        "id": 20601570,
        "last_rank": 33332,
        "player_name": "Keifer Clitheroe",
        "rank": 60996,
        "rank_sort": 61180,
        "total": 2345
      },
      {
        "club_badge_src": null,
        "entry": 2974947,
        "entry_name": "D\u00e4r Palmer(na) bor",
        "event_total": 68,
        "has_played": true,
        "id": 21860858,
        "last_rank": 83934,
        "player_name": "Adam Petersson",
        "rank": 60996,
        "rank_sort": 61181,
        "total": 2345
      },
      {
        "club_badge_src": null,
        "entry": 3007646,
        "entry_name": "KUFC",
        "event_total": 60,
        "has_played": true,
        "id": 22124842,
        "last_rank": 67422,
        "player_name": "James Doherty",
        "rank": 60996,
        "rank_sort": 61182,
        "total": 2345
      },
      {
        "club_badge_src": null,
        "entry": 3052841,
        "entry_name": "Nottingham Forest",
        "event_total": 63,
        "has_played": true,
        "id": 22474801,
        "last_rank": 73423,
        "player_name": "Sohm Suleman",
        "rank": 60996,
        "rank_sort": 61183,
        "total": 2345
      },
      {
        "club_badge_src": null,
        "entry": 3070851,
        "entry_name": "FC Orgazmatron",
        "event_total": 62,
        "has_played": true,
        "id": 22612140,
        "last_rank": 71386,
        "player_name": "Dragan Prole",
        "rank": 60996,
        "rank_sort": 61184,
        "total": 2345
      },
      {
        "club_badge_src": null,
        "entry": 3087619,
        "entry_name": "TATAWINE 5CHINA",
        "event_total": 49,
        "has_played": true,
        "id": 22749279,
        "last_rank": 48363,
        "player_name": "HSM Team",
        "rank": 60996,
        "rank_sort": 61185,
        "total": 2345
      },
      {
        "club_badge_src": null,
        "entry": 3117473,
        "entry_name": "FC Kweeks",
        "event_total": 43,
        "has_played": true,
        "id": 23004943,
        "last_rank": 40503,
        "player_name": "Ming Zhe Cheng",
        "rank": 60996,
        "rank_sort": 61186,
        "total": 2345
      },
      {
        "club_badge_src": null,
        "entry": 3119474,
        "entry_name": "Real Strugglers FC",
        "event_total": 46,
        "has_played": true,
        "id": 23020437,
        "last_rank": 44525,
        "player_name": "Bader R",
        "rank": 60996,
        "rank_sort": 61187,
        "total": 2345
      },
      {
        "club_badge_src": null,
        "entry": 3123261,
        "entry_name": "Kinder Mbeumo",
        "event_total": 55,
        "has_played": true,
        "id": 23049276,
        "last_rank": 51403,
        "player_name": "Bryan Cody",
        "rank": 60996,
        "rank_sort": 61188,
        "total": 2345
      },
      {
        "club_badge_src": null,
        "entry": 3168624,
        "entry_name": "PBR SC",
        "event_total": 63,
        "has_played": true,
        "id": 23410206,
        "last_rank": 73038,
        "player_name": "Jake Zielinski",
        "rank": 60996,
        "rank_sort": 61189,
        "total": 2345
      },
      {
        "club_badge_src": null,
        "entry": 3243234,
        "entry_name": "Sparrowhawks",
        "event_total": 75,
        "has_played": true,
        "id": 23990810,
        "last_rank": 101419,
        "player_name": "Neil MacDonnell",
        "rank": 60996,
        "rank_sort": 61190,
        "total": 2345
      },
      {
        "club_badge_src": null,
        "entry": 3245248,
        "entry_name": "Bruket",
        "event_total": 57,
        "has_played": true,
        "id": 24007179,
        "last_rank": 61950,
        "player_name": "Mikael Bood",
        "rank": 60996,
        "rank_sort": 61191,
        "total": 2345
      },
      {
        "club_badge_src": null,
        "entry": 3293006,
        "entry_name": "AI Fergie",
        "event_total": 66,
        "has_played": true,
        "id": 24382990,
        "last_rank": 79817,
        "player_name": "J Ho",
        "rank": 60996,
        "rank_sort": 61192,
        "total": 2345
      },
      {
        "club_badge_src": null,
        "entry": 3361178,
        "entry_name": "Salt and Lineker",
        "event_total": 45,
        "has_played": true,
        "id": 24939747,
        "last_rank": 42940,
        "player_name": "Jane Muncer",
        "rank": 60996,
        "rank_sort": 61193,
        "total": 2345
      },
      {
        "club_badge_src": "https://fantasy.premierleague.com/gcs/plfpl-production-adobe-approved/plfpl-production/3386055/9cd3123f-16b8-4f9b-9e29-d944c2b2e006.png",
        "entry": 3386055,
        "entry_name": "OLYMPIAKOS P. LEGEND",
        "event_total": 60,
        "has_played": true,
        "id": 25136307,
        "last_rank": 59813,
        "player_name": "ALEXANDROS THOMAS",
        "rank": 60996,
        "rank_sort": 61194,
        "total": 2345
      },
      {
        "club_badge_src": null,
        "entry": 3386185,
        "entry_name": "andiamo",
        "event_total": 51,
        "has_played": true,
        "id": 25137402,
        "last_rank": 51720,
        "player_name": "Marko Galic",
        "rank": 60996,
        "rank_sort": 61195,
        "total": 2345
      },
      {
        "club_badge_src": "https://fantasy.premierleague.com/gcs/plfpl-production-adobe-approved/plfpl-production/3455903/0d51f07f-078e-48d4-ac67-2642b7f07e7f.png",
        "entry": 3455903,
        "entry_name": "Brentford",
        "event_total": 55,
        "has_played": true,
        "id": 25685024,
        "last_rank": 58388,
        "player_name": "Miljan Bodiroga",
        "rank": 60996,
        "rank_sort": 61196,
        "total": 2345
      },
      {
        "club_badge_src": "https://fantasy.premierleague.com/gcs/plfpl-production-adobe-approved/plfpl-production/3486714/d5a8cf12-32ee-4eaa-841e-e498992eb1f6.png",
        "entry": 3486714,
        "entry_name": "The Deftones",
        "event_total": 56,
        "has_played": true,
        "id": 25929684,
        "last_rank": 53023,
        "player_name": "Ireoluwa Badaki",
        "rank": 60996,
        "rank_sort": 61197,
        "total": 2345
      },
      {
        "club_badge_src": null,
        "entry": 3539341,
        "entry_name": "Cheldsea",
        "event_total": 60,
        "has_played": true,
        "id": 26345273,
        "last_rank": 67422,
        "player_name": "Macka K",
        "rank": 60996,
        "rank_sort": 61198,
        "total": 2345
      },
      {
        "club_badge_src": null,
        "entry": 3669396,
        "entry_name": "Bullish fc",
        "event_total": 57,
        "has_played": true,
        "id": 27366014,
        "last_rank": 61950,
        "player_name": "Auwal Ishaq",
        "rank": 60996,
        "rank_sort": 61199,
        "total": 2345
      },
      {
        "club_badge_src": "https://fantasy.premierleague.com/gcs/plfpl-production-adobe-approved/plfpl-production/3679220/6914030d-3a7d-454b-ba53-8fd1b2b204eb.png",
        "entry": 3679220,
        "entry_name": "MAMAYAO FC",
        "event_total": 53,
        "has_played": true,
        "id": 27442219,
        "last_rank": 48197,
        "player_name": "Edmund Hunja",
        "rank": 60996,
        "rank_sort": 61200,
        "total": 2345
      }
    ]
  }
}