{
  "last_updated_data": "2026-05-24T23:28:17Z",
  "league": {
    "admin_entry": null,
    "closed": false,
    "code_privacy": "p",
    "created": "2025-07-20T23:14:33.933835Z",
    "cup_league": 2815434,
    "has_cup": true,
    "id": 314,
    "league_type": "s",
    "max_entries": null,
    "name": "Overall",
    "rank": null,
    "scoring": "c",
    "start_event": 1
  },
  "new_entries": {
    "has_next": false,
    "page": 1,
    "results": []
  },
  "standings": {
    "has_next": true,
    "page": 1425,
    "results": [
      {
        "club_badge_src": null,
        "entry": 3772669,
        "entry_name": "Gemilang FC",
        "event_total": 62,
        "has_played": true,
        "id": 28169158,
        "last_rank": 74395,
        "player_name": "Mohamad Fuad",
        "rank": 71164,
        "rank_sort": 71201,
        "total": 2340
      },
      {
        "club_badge_src": null,
        "entry": 3795489,
        "entry_name": "Tod Foden",
        "event_total": 71,
        "has_played": true,
        "id": 28369040,
        "last_rank": 94933,
        "player_name": "Rushikesh Mawal",
        "rank": 71164,
        "rank_sort": 71202,
        "total": 2340
      },
      {
        "club_badge_src": null,
        "entry": 3939729,
        "entry_name": "M",
        "event_total": 62,
        "has_played": true,
        "id": 29635849,
        "last_rank": 83216,
        "player_name": "GOAT -",
        "rank": 71164,
        "rank_sort": 71203,
        "total": 2340
      },
      {
        "club_badge_src": "https://fantasy.premierleague.com/gcs/plfpl-production-adobe-approved/plfpl-production/4109632/f30709a4-96a3-4053-8fbc-970031479d94.png",
        "entry": 4109632,
        "entry_name": "WHU-Tang Clan",
        "event_total": 53,
        "has_played": true,
        "id": 31036399,
        "last_rank": 64562,
        "player_name": "Steve Cross",
        "rank": 71164,
        "rank_sort": 71204,
        "total": 2340
      },
      {
        "club_badge_src": "https://fantasy.premierleague.com/gcs/plfpl-production-adobe-approved/plfpl-production/4164112/44f3a744-7552-4708-ab24-d588a8f3ed7b.png",
        "entry": 4164112,
        "entry_name": "Bounty Hunter",
        "event_total": 55,
        "has_played": true,
        "id": 31488421,
        "last_rank": 61004,
        "player_name": "Mohammad Masudur Rahman",
        "rank": 71164,
        "rank_sort": 71205,
        "total": 2340
      },
      {
        "club_badge_src": "https://fantasy.premierleague.com/gcs/plfpl-production-adobe-approved/plfpl-production/4667527/8ca1324d-6b8f-4d5d-91da-bbfa1b319278.png",
        "entry": 4667527,
        "entry_name": "Bruno Dos Tres",
        "event_total": 47,
        "has_played": true,
        "id": 35750915,
        "last_rank": 54134,
        "player_name": "Brian Wood",
        "rank": 71164,
        "rank_sort": 71206,
        "total": 2340
      },
      {
        "club_badge_src": null,
        "entry": 4933465,
        "entry_name": "Thematic Operators",
        "event_total": 66,
        "has_played": true,
        "id": 38058921,
        "last_rank": 83127,
        "player_name": "Yaw Dapaa",
        "rank": 71164,
        "rank_sort": 71207,
        "total": 2340
      },
      {
        "club_badge_src": null,
        "entry": 4970785,
        "entry_name": "Butts18",
        "event_total": 52,
        "has_played": true,
        "id": 38364710,
        "last_rank": 49301,
        "player_name": "Andrew Butler",
        "rank": 71164,
        "rank_sort": 71208,
        "total": 2340
      },
      {
        "club_badge_src": null,
        "entry": 5123800,
        "entry_name": "SORRY",
        "event_total": 51,
        "has_played": true,
        "id": 39622053,
        "last_rank": 61004,
        "player_name": "Basem Hjjaj",
        "rank": 71164,
        "rank_sort": 71209,
        "total": 2340
      },
      {
        "club_badge_src": null,
        "entry": 5158044,
        "entry_name": "Aholls11",
        "event_total": 61,
        "has_played": true,
        "id": 39911560,
        "last_rank": 72346,
        "player_name": "Ashton Hollingsbee",
        "rank": 71164,
        "rank_sort": 71210,
        "total": 2340
      },
      {
        "club_badge_src": null,
        "entry": 5584154,
        "entry_name": "Kinder Mbeumo",
        "event_total": 69,
        "has_played": true,
        "id": 43617785,
        "last_rank": 99959,
        "player_name": "Chris Siby",
        "rank": 71164,
        "rank_sort": 71211,
        "total": 2340
      },
      {
        "club_badge_src": null,
        "entry": 5958040,
        "entry_name": "almutairi",
        "event_total": 31,
        "has_played": true,
        "id": 46870524,
        "last_rank": 28425,
        "player_name": "\u0633\u0644\u0637\u0627\u0646 \u0627\u0644\u0639\u0627\u0631\u0636\u064a",
        "rank": 71164,
        "rank_sort": 71212,
        "total": 2340
      },
      {
        "club_badge_src": null,
        "entry": 6783146,
        "entry_name": "Two Ants no Dec",
        "event_total": 80,
        "has_played": true,
        "id": 54316336,
        "last_rank": 131769,
        "player_name": "Jane Hamilton",
        "rank": 71164,
        "rank_sort": 71213,
        "total": 2340
      },
      {
        "club_badge_src": null,
        "entry": 6825565,
        "entry_name": "Rachid chalali",
        "event_total": 61,
        "has_played": true,
        "id": 54671046,
        "last_rank": 72346,
        "player_name": "Rac hid",
        "rank": 71164,
        "rank_sort": 71214,
        "total": 2340
      },
      {
        "club_badge_src": null,
        "entry": 6892786,
        "entry_name": "Kroos Control",
        "event_total": 48,
        "has_played": true,
        "id": 55243631,
        "last_rank": 55865,
        "player_name": "Alistair Ihuomah",
        "rank": 71164,
        "rank_sort": 71215,
        "total": 2340
      },
      {
        "club_badge_src": null,
        "entry": 7039419,
        "entry_name": "Srzentic Najgori \ufffd",
        "event_total": 72,
        "has_played": true,
        "id": 56593287,
        "last_rank": 97597,
        "player_name": "Lazar Sukovic",
        "rank": 71164,
        "rank_sort": 71216,
        "total": 2340
      },
      {
        "club_badge_src": null,
        "entry": 7123783,
        "entry_name": "Iwobi Wan",
        "event_total": 54,
        "has_played": true,
        "id": 57401803,
        "last_rank": 66380,
        "player_name": "Andy Fulker",
        "rank": 71164,
        "rank_sort": 71217,
        "total": 2340
      },
      {
        "club_badge_src": "https://fantasy.premierleague.com/gcs/plfpl-production-adobe-approved/plfpl-production/7133277/602823d0-954f-4477-967e-231628e4c384.png",
        "entry": 7133277,
        "entry_name": "Bumpy Boy",
        "event_total": 63,
        "has_played": true,
        "id": 57491209,
        "last_rank": 85487,
        "player_name": "Mario Vidovic",
        "rank": 71164,
        "rank_sort": 71218,
        "total": 2340
      },
      {
        "club_badge_src": null,
        "entry": 7491677,
        "entry_name": "Cunhan ny pelailen",
        "event_total": 57,
        "has_played": true,
        "id": 61175258,
        "last_rank": 72407,
        "player_name": "Perttu Hauta-aho",
        "rank": 71164,
        "rank_sort": 71219,
        "total": 2340
      },
      {
        "club_badge_src": null,
        "entry": 7756813,
        "entry_name": "St James FC",
        "event_total": 58,
        "has_played": true,
        "id": 63684325,
        "last_rank": 59170,
        "player_name": "Damian Ragoo",
        "rank": 71164,
        "rank_sort": 71220,
        "total": 2340
      },
      {
        "club_badge_src": null,
        "entry": 8273097,
        "entry_name": "FREE PALESTINE",
        "event_total": 92,
        "has_played": true,
        "id": 68443592,
        "last_rank": 158762,
        "player_name": "Ahmed Abdeljawad \ud83c\uddf5\ud83c\uddf8\ud83c\uddf5\ud83c\uddf8\ud83c\uddf5\ud83c\uddf8\ud83c\uddf5\ud83c\uddf8\ud83c\uddf5\ud83c\uddf8\ud83c\uddf5\ud83c\uddf8\ud83c\uddf5\ud83c\uddf8\ud83c\uddf5\ud83c\uddf8\ud83c\uddf5\ud83c\uddf8",
        "rank": 71164,
        "rank_sort": 71221,
        "total": 2340
      },
      {
        "club_badge_src": null,
        "entry": 8636669,
        "entry_name": "5 \u00e7ukur 23",
        "event_total": 64,
        "has_played": true,
        "id": 71954163,
        "last_rank": 87885,
        "player_name": "Ali Mohand",
        "rank": 71164,
        "rank_sort": 71222,
        "total": 2340
      },
      {
        "club_badge_src": null,
        "entry": 8782847,
        "entry_name": "Kinder Mbeumo",
        "event_total": 61,
        "has_played": true,
        "id": 73379439,
        "last_rank": 80781,
        "player_name": "Alex Wood",
        "rank": 71164,
        "rank_sort": 71223,
        "total": 2340
      },
      {
        "club_badge_src": null,
        "entry": 9200856,
        "entry_name": "Susi",
        "event_total": 46,
        "has_played": true,
        "id": 77442473,
        "last_rank": 52561,
        "player_name": "Susanne Lindtner",
        "rank": 71164,
        "rank_sort": 71224,
        "total": 2340
      },
      {
        "club_badge_src": null,
        "entry": 11307,
        "entry_name": "VIBES XI",
        "event_total": 53,
        "has_played": true,
        "id": 67158,
        "last_rank": 57557,
        "player_name": "Soham Guha",
        "rank": 71225,
        "rank_sort": 71225,
        "total": 2340
      },
      {
        "club_badge_src": "https://fantasy.premierleague.com/gcs/plfpl-production-adobe-approved/plfpl-production/13043/c030adda-26a2-4894-957d-cef3ae851f85.png",
        "entry": 13043,
        "entry_name": "Kokoszanki Mi\u0119tne",
        "event_total": 69,
        "has_played": true,
        "id": 78579,
        "last_rank": 80781,
        "player_name": "Kamil Kuszpit",
        "rank": 71225,
        "rank_sort": 71226,
        "total": 2340
      },
      {
        "club_badge_src": null,
        "entry": 50978,
        "entry_name": "Ipswich blue",
        "event_total": 67,
        "has_played": true,
        "id": 327921,
        "last_rank": 85487,
        "player_name": "Alaaeddine Dyy",
        "rank": 71225,
        "rank_sort": 71227,
        "total": 2340
      },
      {
        "club_badge_src": null,
        "entry": 84463,
        "entry_name": "F1",
        "event_total": 52,
        "has_played": true,
        "id": 549948,
        "last_rank": 55865,
        "player_name": "Zeve Badmaev",
        "rank": 71225,
        "rank_sort": 71228,
        "total": 2340
      },
      {
        "club_badge_src": null,
        "entry": 93018,
        "entry_name": "I saw De Ligt",
        "event_total": 74,
        "has_played": true,
        "id": 607884,
        "last_rank": 113666,
        "player_name": "Raivinder Singh",
        "rank": 71225,
        "rank_sort": 71229,
        "total": 2340
      },
      {
        "club_badge_src": null,
        "entry": 118528,
        "entry_name": "Heming's Dream XI",
        "event_total": 63,
        "has_played": true,
        "id": 773553,
        "last_rank": 76638,
        "player_name": "Mark Heming",
        "rank": 71225,
        "rank_sort": 71230,
        "total": 2340
      },
      {
        "club_badge_src": null,
        "entry": 121633,
        "entry_name": "Clem Fandango",
        "event_total": 66,
        "has_played": true,
        "id": 793620,
        "last_rank": 83216,
        "player_name": "Ben Cooper",
        "rank": 71225,
        "rank_sort": 71231,
        "total": 2340
      },
      {
        "club_badge_src": null,
        "entry": 192987,
        "entry_name": "JiSuShiX1",
        "event_total": 68,
        "has_played": true,
        "id": 1278991,
        "last_rank": 97750,
        "player_name": "Gaurav Kumar",
        "rank": 71225,
        "rank_sort": 71232,
        "total": 2340
      },
      {
        "club_badge_src": null,
        "entry": 299143,
        "entry_name": "ManUtd",
        "event_total": 55,
        "has_played": true,
        "id": 2000408,
        "last_rank": 68395,
        "player_name": "V Yadh",
        "rank": 71225,
        "rank_sort": 71233,
        "total": 2340
      },
      {
        "club_badge_src": "https://fantasy.premierleague.com/gcs/plfpl-production-adobe-approved/plfpl-production/337141/a56fb69b-98fc-4226-bbe2-988b5adbd3d3.png",
        "entry": 337141,
        "entry_name": "Abu Osama  \u2665\ufe0f\u2728",
        "event_total": 61,
        "has_played": true,
        "id": 2257049,
        "last_rank": 64508,
        "player_name": "Anas Mo",
        "rank": 71225,
        "rank_sort": 71234,
        "total": 2340
      },
      {
        "club_badge_src": null,
        "entry": 517700,
        "entry_name": "Lads on Toure",
        "event_total": 68,
        "has_played": true,
        "id": 3475786,
        "last_rank": 97687,
        "player_name": "Spencer Nicholas",
        "rank": 71225,
        "rank_sort": 71235,
        "total": 2340
      },
      {
        "club_badge_src": null,
        "entry": 572135,
        "entry_name": "Crockerdile Hunter",
        "event_total": 68,
        "has_played": true,
        "id": 3850492,
        "last_rank": 97750,
        "player_name": "Darren Valet",
        "rank": 71225,
        "rank_sort": 71236,
        "total": 2340
      },
      {
        "club_badge_src": null,
        "entry": 600267,
        "entry_name": "Why ayew running",
        "event_total": 58,
        "has_played": true,
        "id": 4049885,
        "last_rank": 74524,
        "player_name": "craig Coates",
        "rank": 71225,
        "rank_sort": 71237,
        "total": 2340
      },
      {
        "club_badge_src": null,
        "entry": 774594,
        "entry_name": "Absolutely Eustace",
        "event_total": 54,
        "has_played": true,
        "id": 5284952,
        "last_rank": 66487,
        "player_name": "Shaun Carpenter",
        "rank": 71225,
        "rank_sort": 71238,
        "total": 2340
      },
      {
        "club_badge_src": "https://fantasy.premierleague.com/gcs/plfpl-production-adobe-approved/plfpl-production/1090751/30f819db-acbd-493a-891c-7bac1925c60d.png",
        "entry": 1090751,
        "entry_name": "FC Lbrm",
        "event_total": 49,
        "has_played": true,
        "id": 7554233,
        "last_rank": 50956,
        "player_name": "Mehdi lbrm",
        "rank": 71225,
        "rank_sort": 71239,
        "total": 2340
      },
      {
        "club_badge_src": null,
        "entry": 1179173,
        "entry_name": "Wirtz case scenario",
        "event_total": 68,
        "has_played": true,
        "id": 8181660,
        "last_rank": 97750,
        "player_name": "Hilary Course",
        "rank": 71225,
        "rank_sort": 71240,
        "total": 2340
      },
      {
        "club_badge_src": null,
        "entry": 1398024,
        "entry_name": "no20",
        "event_total": 63,
        "has_played": true,
        "id": 9726294,
        "last_rank": 76638,
        "player_name": "Lee Stansfield",
        "rank": 71225,
        "rank_sort": 71241,
        "total": 2340
      },
      {
        "club_badge_src": "https://fantasy.premierleague.com/gcs/plfpl-production-adobe-approved/plfpl-production/1476786/45b2496f-b32a-44e3-b6cf-287bde8234e8.png",
        "entry": 1476786,
        "entry_name": "Futbol Klub de Spart",
        "event_total": 51,
        "has_played": true,
        "id": 10295362,
        "last_rank": 47868,
        "player_name": "Zibusiso Vikani Moyo",
        "rank": 71225,
        "rank_sort": 71242,
        "total": 2340
      },
      {
        "club_badge_src": "https://fantasy.premierleague.com/gcs/plfpl-production-adobe-approved/plfpl-production/1734712/cb7e7ab5-4296-48ee-9538-b10f520942bb.png",
        "entry": 1734712,
        "entry_name": "LetsDoitAgain?",
        "event_total": 59,
        "has_played": true,
        "id": 12169223,
        "last_rank": 76693,
        "player_name": "Edvin N\u00e6ss",
        "rank": 71225,
        "rank_sort": 71243,
        "total": 2340
      },
      {
        "club_badge_src": null,
        "entry": 1748009,
        "entry_name": "Slot Machine",
        "event_total": 63,
        "has_played": true,
        "id": 12266503,
        "last_rank": 85624,
        "player_name": "Petteri Veijola",
        "rank": 71225,
        "rank_sort": 71244,
        "total": 2340
      },
      {
        "club_badge_src": "https://fantasy.premierleague.com/gcs/plfpl-production-adobe-approved/plfpl-production/1847232/2e11a81a-d196-4cc9-b289-ee55cff9895e.png",
        "entry": 1847232,
        "entry_name": "Keane on learning",
        "event_total": 59,
        "has_played": true,
        "id": 12997774,
        "last_rank": 76638,
        "player_name": "Anubhav Sehrawat",
        "rank": 71225,
        "rank_sort": 71245,
        "total": 2340
      },
      {
        "club_badge_src": null,
        "entry": 2121218,
        "entry_name": "Amadness FC",
        "event_total": 62,
        "has_played": true,
        "id": 15068024,
        "last_rank": 83267,
        "player_name": "Ashvir Hargovan",
        "rank": 71225,
        "rank_sort": 71246,
        "total": 2340
      },
      {
        "club_badge_src": null,
        "entry": 2295545,
        "entry_name": "FC Ebeckz",
        "event_total": 70,
        "has_played": true,
        "id": 16371888,
        "last_rank": 83127,
        "player_name": "\u0160tefan Ko\u010di",
        "rank": 71225,
        "rank_sort": 71247,
        "total": 2340
      },
      {
        "club_badge_src": null,
        "entry": 2477471,
        "entry_name": "Tillotson Town",
        "event_total": 48,
        "has_played": true,
        "id": 17726064,
        "last_rank": 55902,
        "player_name": "Jack Tillotson",
        "rank": 71225,
        "rank_sort": 71248,
        "total": 2340
      },
      {
        "club_badge_src": null,
        "entry": 2497812,
        "entry_name": "Rhydor Venom",
        "event_total": 66,
        "has_played": true,
        "id": 17883591,
        "last_rank": 92738,
        "player_name": "Agunbiade Riliwan",
        "rank": 71225,
        "rank_sort": 71249,
        "total": 2340
      },
      {
        "club_badge_src": null,
        "entry": 2522868,
        "entry_name": "Mendi XI",
        "event_total": 60,
        "has_played": true,
        "id": 18077219,
        "last_rank": 62812,
        "player_name": "Theo Maniatis",
        "rank": 71225,
        "rank_sort": 71250,
        "total": 2340
      }
    ]
  }
}