{
  "last_updated_data": "2026-05-24T23:28:17Z",
  "league": {
    "admin_entry": null,
    "closed": false,
    "code_privacy": "p",
    "created": "2025-07-20T23:14:33.933835Z",
    "cup_league": 2815434,
    "has_cup": true,
    "id": 314,
    "league_type": "s",
    "max_entries": null,
    "name": "Overall",
    "rank": null,
    "scoring": "c",
    "start_event": 1
  },
  "new_entries": {
    "has_next": false,
    "page": 1,
    "results": []
  },
  "standings": {
    "has_next": true,
    "page": 1337,
    "results": [
      {
        "club_badge_src": null,
        "entry": 3732225,
        "entry_name": "12thAgainWhoGivesA",
        "event_total": 48,
        "has_played": true,
        "id": 27857791,
        "last_rank": 39874,
        "player_name": "James Trayling",
        "rank": 66621,
        "rank_sort": 66801,
        "total": 2342
      },
      {
        "club_badge_src": null,
        "entry": 3809745,
        "entry_name": "Gamebred FC",
        "event_total": 52,
        "has_played": true,
        "id": 28486010,
        "last_rank": 58688,
        "player_name": "Sharad Maharaj",
        "rank": 66621,
        "rank_sort": 66802,
        "total": 2342
      },
      {
        "club_badge_src": null,
        "entry": 3847162,
        "entry_name": "Tearshow United**",
        "event_total": 66,
        "has_played": true,
        "id": 28836570,
        "last_rank": 77676,
        "player_name": "Ermin Tirso",
        "rank": 66621,
        "rank_sort": 66803,
        "total": 2342
      },
      {
        "club_badge_src": null,
        "entry": 3850182,
        "entry_name": "Venkys Out",
        "event_total": 68,
        "has_played": true,
        "id": 28861124,
        "last_rank": 82069,
        "player_name": "Christian Balsnes",
        "rank": 66621,
        "rank_sort": 66804,
        "total": 2342
      },
      {
        "club_badge_src": "https://fantasy.premierleague.com/gcs/plfpl-production-adobe-approved/plfpl-production/3867440/238fa5d2-7506-4b0d-8e32-fc78bac9f081.png",
        "entry": 3867440,
        "entry_name": "Old Havertz Kai Hard",
        "event_total": 57,
        "has_played": true,
        "id": 29001662,
        "last_rank": 60168,
        "player_name": "Caspar John-Rockett",
        "rank": 66621,
        "rank_sort": 66805,
        "total": 2342
      },
      {
        "club_badge_src": null,
        "entry": 3870522,
        "entry_name": "B\u00e6ller og bakrom",
        "event_total": 78,
        "has_played": true,
        "id": 29038165,
        "last_rank": 117915,
        "player_name": "Henrik Russ",
        "rank": 66621,
        "rank_sort": 66806,
        "total": 2342
      },
      {
        "club_badge_src": "https://fantasy.premierleague.com/gcs/plfpl-production-adobe-approved/plfpl-production/3903296/670c6b2e-4ba4-46a2-8b86-523adea5a295.png",
        "entry": 3903296,
        "entry_name": "D7M",
        "event_total": 71,
        "has_played": true,
        "id": 29343186,
        "last_rank": 99596,
        "player_name": "Abdulrhman Mardawi",
        "rank": 66621,
        "rank_sort": 66807,
        "total": 2342
      },
      {
        "club_badge_src": null,
        "entry": 3922672,
        "entry_name": "Stefanfr\u00e5nSpanien FC",
        "event_total": 60,
        "has_played": true,
        "id": 29498726,
        "last_rank": 73423,
        "player_name": "William Moberg",
        "rank": 66621,
        "rank_sort": 66808,
        "total": 2342
      },
      {
        "club_badge_src": null,
        "entry": 3948166,
        "entry_name": "Mmmbrunhaaa",
        "event_total": 65,
        "has_played": true,
        "id": 29701246,
        "last_rank": 75537,
        "player_name": "Charls George",
        "rank": 66621,
        "rank_sort": 66809,
        "total": 2342
      },
      {
        "club_badge_src": null,
        "entry": 3967941,
        "entry_name": "Fc Shawberto Carlos",
        "event_total": 79,
        "has_played": true,
        "id": 29858345,
        "last_rank": 108959,
        "player_name": "Jeroen Halsema",
        "rank": 66621,
        "rank_sort": 66810,
        "total": 2342
      },
      {
        "club_badge_src": null,
        "entry": 4004405,
        "entry_name": "TheSpecialOne",
        "event_total": 56,
        "has_played": true,
        "id": 30163653,
        "last_rank": 65796,
        "player_name": "i AM Apollis Tromp",
        "rank": 66621,
        "rank_sort": 66811,
        "total": 2342
      },
      {
        "club_badge_src": null,
        "entry": 4021400,
        "entry_name": "Telford Hotspurs",
        "event_total": 63,
        "has_played": true,
        "id": 30309164,
        "last_rank": 79817,
        "player_name": "Neil McKeich",
        "rank": 66621,
        "rank_sort": 66812,
        "total": 2342
      },
      {
        "club_badge_src": null,
        "entry": 4035552,
        "entry_name": "FC Bahar-se-lona",
        "event_total": 79,
        "has_played": true,
        "id": 30428774,
        "last_rank": 120438,
        "player_name": "Chirag Paliwal",
        "rank": 66621,
        "rank_sort": 66813,
        "total": 2342
      },
      {
        "club_badge_src": null,
        "entry": 4094540,
        "entry_name": "Mad Mo's",
        "event_total": 67,
        "has_played": true,
        "id": 30915784,
        "last_rank": 89055,
        "player_name": "Liz McAree",
        "rank": 66621,
        "rank_sort": 66814,
        "total": 2342
      },
      {
        "club_badge_src": null,
        "entry": 4101521,
        "entry_name": "Bournmouth Breathers",
        "event_total": 58,
        "has_played": true,
        "id": 30971859,
        "last_rank": 69323,
        "player_name": "David Banas",
        "rank": 66621,
        "rank_sort": 66815,
        "total": 2342
      },
      {
        "club_badge_src": null,
        "entry": 4136559,
        "entry_name": "12thAgainWhoGivesAFu",
        "event_total": 61,
        "has_played": true,
        "id": 31261195,
        "last_rank": 75874,
        "player_name": "Lewis Henson",
        "rank": 66621,
        "rank_sort": 66816,
        "total": 2342
      },
      {
        "club_badge_src": null,
        "entry": 4138995,
        "entry_name": "Dynamo Kyiv",
        "event_total": 53,
        "has_played": true,
        "id": 31280418,
        "last_rank": 60462,
        "player_name": "Roman Kernus",
        "rank": 66621,
        "rank_sort": 66817,
        "total": 2342
      },
      {
        "club_badge_src": null,
        "entry": 4197243,
        "entry_name": "Djs_UNITED",
        "event_total": 72,
        "has_played": true,
        "id": 31768376,
        "last_rank": 101419,
        "player_name": "Dhiraj Shrestha",
        "rank": 66621,
        "rank_sort": 66818,
        "total": 2342
      },
      {
        "club_badge_src": "https://fantasy.premierleague.com/gcs/plfpl-production-adobe-approved/plfpl-production/4230925/ade8b18b-4d48-43dc-b531-ee17fa4f5548.png",
        "entry": 4230925,
        "entry_name": "Summum",
        "event_total": 47,
        "has_played": true,
        "id": 32057035,
        "last_rank": 50199,
        "player_name": "James Ofor",
        "rank": 66621,
        "rank_sort": 66819,
        "total": 2342
      },
      {
        "club_badge_src": null,
        "entry": 4296662,
        "entry_name": "Athletico Beergut",
        "event_total": 55,
        "has_played": true,
        "id": 32595613,
        "last_rank": 63724,
        "player_name": "John Smith",
        "rank": 66621,
        "rank_sort": 66820,
        "total": 2342
      },
      {
        "club_badge_src": null,
        "entry": 4493199,
        "entry_name": "DW070825A",
        "event_total": 64,
        "has_played": true,
        "id": 34250960,
        "last_rank": 82398,
        "player_name": "Dave Walker",
        "rank": 66621,
        "rank_sort": 66821,
        "total": 2342
      },
      {
        "club_badge_src": "https://fantasy.premierleague.com/gcs/plfpl-production-adobe-approved/plfpl-production/4519402/f9d5961a-5b0a-4f6c-b256-3abd9b96daf4.png",
        "entry": 4519402,
        "entry_name": "henry",
        "event_total": 68,
        "has_played": true,
        "id": 34465622,
        "last_rank": 91835,
        "player_name": "Henok Alemayehu",
        "rank": 66621,
        "rank_sort": 66822,
        "total": 2342
      },
      {
        "club_badge_src": "https://fantasy.premierleague.com/gcs/plfpl-production-adobe-approved/plfpl-production/4557014/ebbca146-fc15-4178-a233-5e2f64eb0968.png",
        "entry": 4557014,
        "entry_name": "Cold Palms",
        "event_total": 58,
        "has_played": true,
        "id": 34772253,
        "last_rank": 69641,
        "player_name": "Nathan Soo",
        "rank": 66621,
        "rank_sort": 66823,
        "total": 2342
      },
      {
        "club_badge_src": null,
        "entry": 4573688,
        "entry_name": "Austrian Attackers",
        "event_total": 36,
        "has_played": true,
        "id": 34908315,
        "last_rank": 35619,
        "player_name": "Johan Andersson",
        "rank": 66621,
        "rank_sort": 66824,
        "total": 2342
      },
      {
        "club_badge_src": null,
        "entry": 4597916,
        "entry_name": "Deez",
        "event_total": 73,
        "has_played": true,
        "id": 35118285,
        "last_rank": 103526,
        "player_name": "Akash Patel",
        "rank": 66621,
        "rank_sort": 66825,
        "total": 2342
      },
      {
        "club_badge_src": "https://fantasy.premierleague.com/gcs/plfpl-production-adobe-approved/plfpl-production/4737705/65fbf550-3e7c-4867-85a7-c02f72c03e66.png",
        "entry": 4737705,
        "entry_name": "Wakali Kinoma",
        "event_total": 47,
        "has_played": true,
        "id": 36451781,
        "last_rank": 50199,
        "player_name": "Steven Makoboli",
        "rank": 66621,
        "rank_sort": 66826,
        "total": 2342
      },
      {
        "club_badge_src": null,
        "entry": 4771363,
        "entry_name": "Trent to Kill",
        "event_total": 59,
        "has_played": true,
        "id": 36726363,
        "last_rank": 71386,
        "player_name": "David Walsh",
        "rank": 66621,
        "rank_sort": 66827,
        "total": 2342
      },
      {
        "club_badge_src": null,
        "entry": 4832773,
        "entry_name": "Z3eM",
        "event_total": 53,
        "has_played": true,
        "id": 37223545,
        "last_rank": 60462,
        "player_name": "Salman Al-Thani",
        "rank": 66621,
        "rank_sort": 66828,
        "total": 2342
      },
      {
        "club_badge_src": "https://fantasy.premierleague.com/gcs/plfpl-production-adobe-approved/plfpl-production/4852070/fb196d2f-4e52-4940-9114-0e3f67a17b93.png",
        "entry": 4852070,
        "entry_name": "Han's Solos",
        "event_total": 61,
        "has_played": true,
        "id": 37384023,
        "last_rank": 75874,
        "player_name": "Hannah Hutchins",
        "rank": 66621,
        "rank_sort": 66829,
        "total": 2342
      },
      {
        "club_badge_src": "https://fantasy.premierleague.com/gcs/plfpl-production-adobe-approved/plfpl-production/4866645/26355ace-35b3-4957-8c0f-21d05b72dda5.png",
        "entry": 4866645,
        "entry_name": "Royal English FC",
        "event_total": 66,
        "has_played": true,
        "id": 37509291,
        "last_rank": 87074,
        "player_name": "Warapop Chingtongkam",
        "rank": 66621,
        "rank_sort": 66830,
        "total": 2342
      },
      {
        "club_badge_src": null,
        "entry": 4868704,
        "entry_name": "Slots Tots",
        "event_total": 75,
        "has_played": true,
        "id": 37526257,
        "last_rank": 98436,
        "player_name": "Anisa Abdo",
        "rank": 66621,
        "rank_sort": 66831,
        "total": 2342
      },
      {
        "club_badge_src": null,
        "entry": 4869805,
        "entry_name": "Clarence AcunaMatata",
        "event_total": 50,
        "has_played": true,
        "id": 37535121,
        "last_rank": 55311,
        "player_name": "Andy Smith",
        "rank": 66621,
        "rank_sort": 66832,
        "total": 2342
      },
      {
        "club_badge_src": null,
        "entry": 4974123,
        "entry_name": "superduperteam",
        "event_total": 52,
        "has_played": true,
        "id": 38394955,
        "last_rank": 58388,
        "player_name": "Rasmus Bay",
        "rank": 66621,
        "rank_sort": 66833,
        "total": 2342
      },
      {
        "club_badge_src": "https://fantasy.premierleague.com/gcs/plfpl-production-adobe-approved/plfpl-production/5095124/131f12b5-4fb2-4e8b-9574-ba73bb2feb65.png",
        "entry": 5095124,
        "entry_name": "tuto",
        "event_total": 68,
        "has_played": true,
        "id": 39381215,
        "last_rank": 91835,
        "player_name": "Alisalem Bouaita",
        "rank": 66621,
        "rank_sort": 66834,
        "total": 2342
      },
      {
        "club_badge_src": null,
        "entry": 5111462,
        "entry_name": "Esteve's XI",
        "event_total": 61,
        "has_played": true,
        "id": 39515119,
        "last_rank": 67063,
        "player_name": "Stephen Booth",
        "rank": 66621,
        "rank_sort": 66835,
        "total": 2342
      },
      {
        "club_badge_src": null,
        "entry": 5114643,
        "entry_name": "Sankyou",
        "event_total": 61,
        "has_played": true,
        "id": 39541939,
        "last_rank": 75874,
        "player_name": "Rifqi Sandy",
        "rank": 66621,
        "rank_sort": 66836,
        "total": 2342
      },
      {
        "club_badge_src": null,
        "entry": 5193021,
        "entry_name": "Xhaka White\u2019s Market",
        "event_total": 48,
        "has_played": true,
        "id": 40205515,
        "last_rank": 51984,
        "player_name": "Jordan Chapman",
        "rank": 66621,
        "rank_sort": 66837,
        "total": 2342
      },
      {
        "club_badge_src": null,
        "entry": 5240127,
        "entry_name": "tbc",
        "event_total": 56,
        "has_played": true,
        "id": 40609486,
        "last_rank": 58388,
        "player_name": "Sayed Ali",
        "rank": 66621,
        "rank_sort": 66838,
        "total": 2342
      },
      {
        "club_badge_src": null,
        "entry": 5245216,
        "entry_name": "Dahen21",
        "event_total": 50,
        "has_played": true,
        "id": 40650148,
        "last_rank": 55014,
        "player_name": "DAHEN DLSHAD",
        "rank": 66621,
        "rank_sort": 66839,
        "total": 2342
      },
      {
        "club_badge_src": null,
        "entry": 5260230,
        "entry_name": "Golden Oldens",
        "event_total": 66,
        "has_played": true,
        "id": 40769263,
        "last_rank": 77676,
        "player_name": "Harry Olden",
        "rank": 66621,
        "rank_sort": 66840,
        "total": 2342
      },
      {
        "club_badge_src": null,
        "entry": 5323867,
        "entry_name": "Palmer Violets",
        "event_total": 67,
        "has_played": true,
        "id": 41271418,
        "last_rank": 88594,
        "player_name": "Josh Servis",
        "rank": 66621,
        "rank_sort": 66841,
        "total": 2342
      },
      {
        "club_badge_src": null,
        "entry": 5366831,
        "entry_name": "Blink-1 Eto'o",
        "event_total": 67,
        "has_played": true,
        "id": 41694023,
        "last_rank": 70985,
        "player_name": "Aaron Catterson-Reid",
        "rank": 66621,
        "rank_sort": 66842,
        "total": 2342
      },
      {
        "club_badge_src": null,
        "entry": 5390434,
        "entry_name": "Yaz the Boss",
        "event_total": 37,
        "has_played": true,
        "id": 41907370,
        "last_rank": 36963,
        "player_name": "Yazeed Alwafi",
        "rank": 66621,
        "rank_sort": 66843,
        "total": 2342
      },
      {
        "club_badge_src": null,
        "entry": 5405092,
        "entry_name": "Team Martini",
        "event_total": 66,
        "has_played": true,
        "id": 42028767,
        "last_rank": 77676,
        "player_name": "Katie Martin",
        "rank": 66621,
        "rank_sort": 66844,
        "total": 2342
      },
      {
        "club_badge_src": null,
        "entry": 5428964,
        "entry_name": "kichungii",
        "event_total": 49,
        "has_played": true,
        "id": 42227916,
        "last_rank": 53621,
        "player_name": "Samuel mwangi",
        "rank": 66621,
        "rank_sort": 66845,
        "total": 2342
      },
      {
        "club_badge_src": "https://fantasy.premierleague.com/gcs/plfpl-production-adobe-approved/plfpl-production/5500644/b75beabc-a678-4b7a-b815-b096459206e1.png",
        "entry": 5500644,
        "entry_name": "Inglourious Badgers",
        "event_total": 64,
        "has_played": true,
        "id": 42859577,
        "last_rank": 82398,
        "player_name": "Anthony Bushell",
        "rank": 66621,
        "rank_sort": 66846,
        "total": 2342
      },
      {
        "club_badge_src": null,
        "entry": 5505141,
        "entry_name": "Invc",
        "event_total": 46,
        "has_played": true,
        "id": 42899505,
        "last_rank": 48642,
        "player_name": "Hanif NR",
        "rank": 66621,
        "rank_sort": 66847,
        "total": 2342
      },
      {
        "club_badge_src": null,
        "entry": 5544696,
        "entry_name": "Kolbergerne",
        "event_total": 58,
        "has_played": true,
        "id": 43268522,
        "last_rank": 69323,
        "player_name": "Christian Sooth Knutsen",
        "rank": 66621,
        "rank_sort": 66848,
        "total": 2342
      },
      {
        "club_badge_src": null,
        "entry": 5557326,
        "entry_name": "Change Name",
        "event_total": 64,
        "has_played": true,
        "id": 43381054,
        "last_rank": 82398,
        "player_name": "Jake Shaw",
        "rank": 66621,
        "rank_sort": 66849,
        "total": 2342
      },
      {
        "club_badge_src": null,
        "entry": 5563672,
        "entry_name": "Kulturcucurella",
        "event_total": 63,
        "has_played": true,
        "id": 43437410,
        "last_rank": 63390,
        "player_name": "Sigurd Fuglesang Framholt",
        "rank": 66621,
        "rank_sort": 66850,
        "total": 2342
      }
    ]
  }
}