{
  "last_updated_data": "2026-05-24T23:28:17Z",
  "league": {
    "admin_entry": null,
    "closed": false,
    "code_privacy": "p",
    "created": "2025-07-20T23:14:33.933835Z",
    "cup_league": 2815434,
    "has_cup": true,
    "id": 314,
    "league_type": "s",
    "max_entries": null,
    "name": "Overall",
    "rank": null,
    "scoring": "c",
    "start_event": 1
  },
  "new_entries": {
    "has_next": false,
    "page": 1,
    "results": []
  },
  "standings": {
    "has_next": true,
    "page": 527,
    "results": [
      {
        "club_badge_src": null,
        "entry": 5245577,
        "entry_name": "Old Havertz Kai Hard",
        "event_total": 63,
        "has_played": true,
        "id": 40653024,
        "last_rank": 31747,
        "player_name": "Malcolm Durbridge",
        "rank": 26139,
        "rank_sort": 26301,
        "total": 2372
      },
      {
        "club_badge_src": null,
        "entry": 5262816,
        "entry_name": "BEAST FC",
        "event_total": 75,
        "has_played": true,
        "id": 40789687,
        "last_rank": 46660,
        "player_name": "Joe Lissaman",
        "rank": 26139,
        "rank_sort": 26302,
        "total": 2372
      },
      {
        "club_badge_src": null,
        "entry": 5343960,
        "entry_name": "Cech Mate",
        "event_total": 60,
        "has_played": true,
        "id": 41457341,
        "last_rank": 28609,
        "player_name": "Zach Sloggett",
        "rank": 26139,
        "rank_sort": 26303,
        "total": 2372
      },
      {
        "club_badge_src": null,
        "entry": 5366093,
        "entry_name": "Not Like Us",
        "event_total": 50,
        "has_played": true,
        "id": 41686960,
        "last_rank": 20280,
        "player_name": "Hamza Saleem",
        "rank": 26139,
        "rank_sort": 26304,
        "total": 2372
      },
      {
        "club_badge_src": null,
        "entry": 5408841,
        "entry_name": "Creamy Pints FC",
        "event_total": 65,
        "has_played": true,
        "id": 42059966,
        "last_rank": 33869,
        "player_name": "Nicky Canning",
        "rank": 26139,
        "rank_sort": 26305,
        "total": 2372
      },
      {
        "club_badge_src": null,
        "entry": 5514190,
        "entry_name": "Just win 10",
        "event_total": 70,
        "has_played": true,
        "id": 42987091,
        "last_rank": 39874,
        "player_name": "Will Finch",
        "rank": 26139,
        "rank_sort": 26306,
        "total": 2372
      },
      {
        "club_badge_src": null,
        "entry": 5554096,
        "entry_name": "Change Name",
        "event_total": 67,
        "has_played": true,
        "id": 43351893,
        "last_rank": 36348,
        "player_name": "Trung Ha Skjaerpe",
        "rank": 26139,
        "rank_sort": 26307,
        "total": 2372
      },
      {
        "club_badge_src": "https://fantasy.premierleague.com/gcs/plfpl-production-adobe-approved/plfpl-production/5583867/8fe2e99c-b9dc-4bb4-8ce2-f94de5a65527.png",
        "entry": 5583867,
        "entry_name": "Gomu Gomu FC",
        "event_total": 65,
        "has_played": true,
        "id": 43615036,
        "last_rank": 33869,
        "player_name": "Diivyan Gopalakrishnan",
        "rank": 26139,
        "rank_sort": 26308,
        "total": 2372
      },
      {
        "club_badge_src": null,
        "entry": 5686262,
        "entry_name": "CTRL ALT DELIGT",
        "event_total": 65,
        "has_played": true,
        "id": 44510287,
        "last_rank": 34051,
        "player_name": "Martin Isik-Rozwadowski",
        "rank": 26139,
        "rank_sort": 26309,
        "total": 2372
      },
      {
        "club_badge_src": "https://fantasy.premierleague.com/gcs/plfpl-production-adobe-approved/plfpl-production/5834424/cac18134-0401-4f6e-ae3a-1fc616062b0e.png",
        "entry": 5834424,
        "entry_name": "Kitman Kev",
        "event_total": 46,
        "has_played": true,
        "id": 45795912,
        "last_rank": 17437,
        "player_name": "Kevin Milne",
        "rank": 26139,
        "rank_sort": 26310,
        "total": 2372
      },
      {
        "club_badge_src": null,
        "entry": 5909747,
        "entry_name": "Bmor United",
        "event_total": 36,
        "has_played": true,
        "id": 46439381,
        "last_rank": 11642,
        "player_name": "Bmor Befring",
        "rank": 26139,
        "rank_sort": 26311,
        "total": 2372
      },
      {
        "club_badge_src": null,
        "entry": 5937321,
        "entry_name": "Hato do it to you",
        "event_total": 54,
        "has_played": true,
        "id": 46684432,
        "last_rank": 23230,
        "player_name": "Ollie Bradley",
        "rank": 26139,
        "rank_sort": 26312,
        "total": 2372
      },
      {
        "club_badge_src": null,
        "entry": 5998265,
        "entry_name": "YoroMumSoFat",
        "event_total": 55,
        "has_played": true,
        "id": 47282770,
        "last_rank": 24039,
        "player_name": "Oisin Francis",
        "rank": 26139,
        "rank_sort": 26313,
        "total": 2372
      },
      {
        "club_badge_src": null,
        "entry": 6006211,
        "entry_name": "Halvspist grynsk\u00e5l",
        "event_total": 57,
        "has_played": true,
        "id": 47353141,
        "last_rank": 25902,
        "player_name": "Endr\u00e9 Berntsen",
        "rank": 26139,
        "rank_sort": 26314,
        "total": 2372
      },
      {
        "club_badge_src": null,
        "entry": 6043592,
        "entry_name": "Gus Fringpong",
        "event_total": 42,
        "has_played": true,
        "id": 47684032,
        "last_rank": 14857,
        "player_name": "John Hackett",
        "rank": 26139,
        "rank_sort": 26315,
        "total": 2372
      },
      {
        "club_badge_src": null,
        "entry": 6076570,
        "entry_name": "Bracchio United",
        "event_total": 41,
        "has_played": true,
        "id": 47972095,
        "last_rank": 14496,
        "player_name": "Kim Daniel Larsen",
        "rank": 26139,
        "rank_sort": 26316,
        "total": 2372
      },
      {
        "club_badge_src": null,
        "entry": 6128189,
        "entry_name": "AFC MODS",
        "event_total": 63,
        "has_played": true,
        "id": 48421906,
        "last_rank": 31747,
        "player_name": "Garry Oconnor",
        "rank": 26139,
        "rank_sort": 26317,
        "total": 2372
      },
      {
        "club_badge_src": "https://fantasy.premierleague.com/gcs/plfpl-production-adobe-approved/plfpl-production/6260590/a381ef75-e793-490b-abb3-8c534ad93b7e.png",
        "entry": 6260590,
        "entry_name": "FC Zlarre",
        "event_total": 64,
        "has_played": true,
        "id": 49567180,
        "last_rank": 32751,
        "player_name": "Kalle \u00d6sterberg",
        "rank": 26139,
        "rank_sort": 26318,
        "total": 2372
      },
      {
        "club_badge_src": null,
        "entry": 6275513,
        "entry_name": "Bollhavet",
        "event_total": 71,
        "has_played": true,
        "id": 49695278,
        "last_rank": 41324,
        "player_name": "Ville Bond\u00e9n",
        "rank": 26139,
        "rank_sort": 26319,
        "total": 2372
      },
      {
        "club_badge_src": null,
        "entry": 6419987,
        "entry_name": "Dream Reapers",
        "event_total": 62,
        "has_played": true,
        "id": 51097883,
        "last_rank": 30600,
        "player_name": "Abdullah Shahid",
        "rank": 26139,
        "rank_sort": 26320,
        "total": 2372
      },
      {
        "club_badge_src": null,
        "entry": 6429920,
        "entry_name": "StoneColeStevePalmer",
        "event_total": 57,
        "has_played": true,
        "id": 51184434,
        "last_rank": 25902,
        "player_name": "Vik Singh",
        "rank": 26139,
        "rank_sort": 26321,
        "total": 2372
      },
      {
        "club_badge_src": null,
        "entry": 6465986,
        "entry_name": "Senay fc",
        "event_total": 54,
        "has_played": true,
        "id": 51515527,
        "last_rank": 23522,
        "player_name": "esrom mekonnen",
        "rank": 26139,
        "rank_sort": 26322,
        "total": 2372
      },
      {
        "club_badge_src": null,
        "entry": 6519373,
        "entry_name": "Rooney Tunes",
        "event_total": 55,
        "has_played": true,
        "id": 51994400,
        "last_rank": 24330,
        "player_name": "Evripides Georgiades",
        "rank": 26139,
        "rank_sort": 26323,
        "total": 2372
      },
      {
        "club_badge_src": null,
        "entry": 6523542,
        "entry_name": "CF DRATER",
        "event_total": 39,
        "has_played": true,
        "id": 52031248,
        "last_rank": 13401,
        "player_name": "Mitch Green",
        "rank": 26139,
        "rank_sort": 26324,
        "total": 2372
      },
      {
        "club_badge_src": null,
        "entry": 6527597,
        "entry_name": "Engas 12 spiller",
        "event_total": 74,
        "has_played": true,
        "id": 52067775,
        "last_rank": 45252,
        "player_name": "Anabel Louise Sharman",
        "rank": 26139,
        "rank_sort": 26325,
        "total": 2372
      },
      {
        "club_badge_src": null,
        "entry": 6670229,
        "entry_name": "ValHaaland",
        "event_total": 50,
        "has_played": true,
        "id": 53346899,
        "last_rank": 20280,
        "player_name": "Nicky Warren-Bennett",
        "rank": 26139,
        "rank_sort": 26326,
        "total": 2372
      },
      {
        "club_badge_src": null,
        "entry": 6676162,
        "entry_name": "Novice Veteran",
        "event_total": 64,
        "has_played": true,
        "id": 53399455,
        "last_rank": 32751,
        "player_name": "Samson Fernandes",
        "rank": 26139,
        "rank_sort": 26327,
        "total": 2372
      },
      {
        "club_badge_src": "https://fantasy.premierleague.com/gcs/plfpl-production-adobe-approved/plfpl-production/6678615/781967c2-2c96-4756-adfd-b7de78c7cf6b.png",
        "entry": 6678615,
        "entry_name": "AFC Richmond",
        "event_total": 63,
        "has_played": true,
        "id": 53420857,
        "last_rank": 31556,
        "player_name": "Karol Majda",
        "rank": 26139,
        "rank_sort": 26328,
        "total": 2372
      },
      {
        "club_badge_src": null,
        "entry": 6686800,
        "entry_name": "Skerr Skerr",
        "event_total": 44,
        "has_played": true,
        "id": 53491883,
        "last_rank": 16163,
        "player_name": "Sam Kerr",
        "rank": 26139,
        "rank_sort": 26329,
        "total": 2372
      },
      {
        "club_badge_src": "https://fantasy.premierleague.com/gcs/plfpl-production-adobe-approved/plfpl-production/6806796/6daab774-5258-4aca-b6d8-668c3aa4f06b.png",
        "entry": 6806796,
        "entry_name": "Kinder Mbuemo",
        "event_total": 62,
        "has_played": true,
        "id": 54512804,
        "last_rank": 30727,
        "player_name": "Carl Hedberg",
        "rank": 26139,
        "rank_sort": 26330,
        "total": 2372
      },
      {
        "club_badge_src": null,
        "entry": 6876552,
        "entry_name": "The Glory Hamptons",
        "event_total": 49,
        "has_played": true,
        "id": 55106050,
        "last_rank": 19544,
        "player_name": "Jason Lambert",
        "rank": 26139,
        "rank_sort": 26331,
        "total": 2372
      },
      {
        "club_badge_src": null,
        "entry": 6904041,
        "entry_name": "2-girls-one-klopp",
        "event_total": 61,
        "has_played": true,
        "id": 55338088,
        "last_rank": 29688,
        "player_name": "Sean Afshar",
        "rank": 26139,
        "rank_sort": 26332,
        "total": 2372
      },
      {
        "club_badge_src": null,
        "entry": 6916275,
        "entry_name": "\u0644\u0627 \u0644\u0647\u0628\u0648\u0637 \u0627\u0644\u064a\u0648\u0646\u0627\u064a\u062a\u062f",
        "event_total": 45,
        "has_played": true,
        "id": 55441028,
        "last_rank": 16959,
        "player_name": "Hussein Mostafa",
        "rank": 26139,
        "rank_sort": 26333,
        "total": 2372
      },
      {
        "club_badge_src": null,
        "entry": 7040764,
        "entry_name": "Mindizzzles",
        "event_total": 51,
        "has_played": true,
        "id": 56606106,
        "last_rank": 20888,
        "player_name": "Minhaz Hoque",
        "rank": 26139,
        "rank_sort": 26334,
        "total": 2372
      },
      {
        "club_badge_src": null,
        "entry": 7224359,
        "entry_name": "Escape from Victory",
        "event_total": 56,
        "has_played": true,
        "id": 58362860,
        "last_rank": 25002,
        "player_name": "Megan Winstanley",
        "rank": 26139,
        "rank_sort": 26335,
        "total": 2372
      },
      {
        "club_badge_src": null,
        "entry": 7232091,
        "entry_name": "vitigna's team",
        "event_total": 63,
        "has_played": true,
        "id": 58434346,
        "last_rank": 31620,
        "player_name": "Vitor Oliveira",
        "rank": 26139,
        "rank_sort": 26336,
        "total": 2372
      },
      {
        "club_badge_src": null,
        "entry": 7390430,
        "entry_name": "Call It Off",
        "event_total": 74,
        "has_played": true,
        "id": 59923738,
        "last_rank": 45182,
        "player_name": "Filip Rojek",
        "rank": 26139,
        "rank_sort": 26337,
        "total": 2372
      },
      {
        "club_badge_src": null,
        "entry": 7404752,
        "entry_name": "The Moorehen",
        "event_total": 64,
        "has_played": true,
        "id": 60058115,
        "last_rank": 32751,
        "player_name": "Ian Moore",
        "rank": 26139,
        "rank_sort": 26338,
        "total": 2372
      },
      {
        "club_badge_src": "https://fantasy.premierleague.com/gcs/plfpl-production-adobe-approved/plfpl-production/7408508/c2914f1a-d879-4c87-b9ae-a4c6a3e6f857.png",
        "entry": 7408508,
        "entry_name": "DIMA RAJA",
        "event_total": 49,
        "has_played": true,
        "id": 60097544,
        "last_rank": 19544,
        "player_name": "soufyan Md",
        "rank": 26139,
        "rank_sort": 26339,
        "total": 2372
      },
      {
        "club_badge_src": null,
        "entry": 7429191,
        "entry_name": "The Hellfire Club",
        "event_total": 58,
        "has_played": true,
        "id": 60359861,
        "last_rank": 26827,
        "player_name": "Emily White",
        "rank": 26139,
        "rank_sort": 26340,
        "total": 2372
      },
      {
        "club_badge_src": "https://fantasy.premierleague.com/gcs/plfpl-production-adobe-approved/plfpl-production/7818836/045c18f8-0033-4922-83d7-619cada97484.png",
        "entry": 7818836,
        "entry_name": "Wirtz so good",
        "event_total": 31,
        "has_played": true,
        "id": 64244107,
        "last_rank": 9536,
        "player_name": "Joe Cunnane",
        "rank": 26139,
        "rank_sort": 26341,
        "total": 2372
      },
      {
        "club_badge_src": null,
        "entry": 7906228,
        "entry_name": "Catch me if you can",
        "event_total": 69,
        "has_played": true,
        "id": 65043441,
        "last_rank": 38644,
        "player_name": "Ibrahim H",
        "rank": 26139,
        "rank_sort": 26342,
        "total": 2372
      },
      {
        "club_badge_src": null,
        "entry": 8201700,
        "entry_name": "Team Name XIV",
        "event_total": 59,
        "has_played": true,
        "id": 67756525,
        "last_rank": 27770,
        "player_name": "Paul Coffey",
        "rank": 26139,
        "rank_sort": 26343,
        "total": 2372
      },
      {
        "club_badge_src": null,
        "entry": 8259918,
        "entry_name": "Stargazers",
        "event_total": 58,
        "has_played": true,
        "id": 68318997,
        "last_rank": 26710,
        "player_name": "Jenny Wilkins",
        "rank": 26139,
        "rank_sort": 26344,
        "total": 2372
      },
      {
        "club_badge_src": null,
        "entry": 8359964,
        "entry_name": "Roll the Dyche",
        "event_total": 63,
        "has_played": true,
        "id": 69297785,
        "last_rank": 31995,
        "player_name": "Joe Weatherley",
        "rank": 26139,
        "rank_sort": 26345,
        "total": 2372
      },
      {
        "club_badge_src": null,
        "entry": 8393038,
        "entry_name": "glory glory",
        "event_total": 53,
        "has_played": true,
        "id": 69614182,
        "last_rank": 22534,
        "player_name": "Ola Stangeland",
        "rank": 26139,
        "rank_sort": 26346,
        "total": 2372
      },
      {
        "club_badge_src": null,
        "entry": 8488812,
        "entry_name": "Haalandaise Sauce",
        "event_total": 63,
        "has_played": true,
        "id": 70526882,
        "last_rank": 31556,
        "player_name": "Lucy Winterbottom",
        "rank": 26139,
        "rank_sort": 26347,
        "total": 2372
      },
      {
        "club_badge_src": null,
        "entry": 8516411,
        "entry_name": "Chicken Palmer Giana",
        "event_total": 61,
        "has_played": true,
        "id": 70796236,
        "last_rank": 29688,
        "player_name": "Alastair Hirst",
        "rank": 26139,
        "rank_sort": 26348,
        "total": 2372
      },
      {
        "club_badge_src": null,
        "entry": 8528671,
        "entry_name": "JimmyFloydDrogbansen",
        "event_total": 61,
        "has_played": true,
        "id": 70914007,
        "last_rank": 29688,
        "player_name": "Tibor Szab\u00f3",
        "rank": 26139,
        "rank_sort": 26349,
        "total": 2372
      },
      {
        "club_badge_src": null,
        "entry": 9163342,
        "entry_name": "Do The Doaky Coaky",
        "event_total": 66,
        "has_played": true,
        "id": 77071239,
        "last_rank": 35034,
        "player_name": "Neil Mackinnon",
        "rank": 26139,
        "rank_sort": 26350,
        "total": 2372
      }
    ]
  }
}