{
  "last_updated_data": "2026-05-24T23:28:17Z",
  "league": {
    "admin_entry": null,
    "closed": false,
    "code_privacy": "p",
    "created": "2025-07-20T23:14:33.933835Z",
    "cup_league": 2815434,
    "has_cup": true,
    "id": 314,
    "league_type": "s",
    "max_entries": null,
    "name": "Overall",
    "rank": null,
    "scoring": "c",
    "start_event": 1
  },
  "new_entries": {
    "has_next": false,
    "page": 1,
    "results": []
  },
  "standings": {
    "has_next": true,
    "page": 422,
    "results": [
      {
        "club_badge_src": null,
        "entry": 2709066,
        "entry_name": "wedonttalkaboutbruno",
        "event_total": 78,
        "has_played": true,
        "id": 19490794,
        "last_rank": 41967,
        "player_name": "John Stevenson",
        "rank": 21001,
        "rank_sort": 21051,
        "total": 2379
      },
      {
        "club_badge_src": null,
        "entry": 2714533,
        "entry_name": "Sporting Bendy",
        "event_total": 61,
        "has_played": true,
        "id": 19531388,
        "last_rank": 23748,
        "player_name": "Tom Bennedik",
        "rank": 21001,
        "rank_sort": 21052,
        "total": 2379
      },
      {
        "club_badge_src": null,
        "entry": 3165584,
        "entry_name": "Knekt og ferdig",
        "event_total": 70,
        "has_played": true,
        "id": 23386556,
        "last_rank": 31995,
        "player_name": "Alexander Olsen",
        "rank": 21001,
        "rank_sort": 21053,
        "total": 2379
      },
      {
        "club_badge_src": null,
        "entry": 3347562,
        "entry_name": "Neville Wears Prada",
        "event_total": 67,
        "has_played": true,
        "id": 24832832,
        "last_rank": 28906,
        "player_name": "Jarod Wilson",
        "rank": 21001,
        "rank_sort": 21054,
        "total": 2379
      },
      {
        "club_badge_src": null,
        "entry": 3487596,
        "entry_name": "\u0160e\u0161ko Clubcard",
        "event_total": 60,
        "has_played": true,
        "id": 25936199,
        "last_rank": 19835,
        "player_name": "Sam Olive",
        "rank": 21001,
        "rank_sort": 21055,
        "total": 2379
      },
      {
        "club_badge_src": null,
        "entry": 3550547,
        "entry_name": "Karlhult United FC",
        "event_total": 66,
        "has_played": true,
        "id": 26432797,
        "last_rank": 28150,
        "player_name": "Johan Lind\u00e9n",
        "rank": 21001,
        "rank_sort": 21056,
        "total": 2379
      },
      {
        "club_badge_src": null,
        "entry": 3691745,
        "entry_name": "GurkhaFC7",
        "event_total": 57,
        "has_played": true,
        "id": 27541368,
        "last_rank": 17718,
        "player_name": "Sudip Pokhrel",
        "rank": 21001,
        "rank_sort": 21057,
        "total": 2379
      },
      {
        "club_badge_src": null,
        "entry": 3743483,
        "entry_name": "Kinder Mbeumo **",
        "event_total": 61,
        "has_played": true,
        "id": 27945134,
        "last_rank": 23748,
        "player_name": "Rhys Butler",
        "rank": 21001,
        "rank_sort": 21058,
        "total": 2379
      },
      {
        "club_badge_src": null,
        "entry": 3840283,
        "entry_name": "The highs and Dalots",
        "event_total": 41,
        "has_played": true,
        "id": 28759553,
        "last_rank": 10920,
        "player_name": "Ben Tyzack",
        "rank": 21001,
        "rank_sort": 21059,
        "total": 2379
      },
      {
        "club_badge_src": null,
        "entry": 3969410,
        "entry_name": "Mixed Bag 25",
        "event_total": 71,
        "has_played": true,
        "id": 29870138,
        "last_rank": 33483,
        "player_name": "Ben Ammundsen",
        "rank": 21001,
        "rank_sort": 21060,
        "total": 2379
      },
      {
        "club_badge_src": null,
        "entry": 4025583,
        "entry_name": "Owambe Wanderers",
        "event_total": 69,
        "has_played": true,
        "id": 30343638,
        "last_rank": 31236,
        "player_name": "Morakinyo Beckley",
        "rank": 21001,
        "rank_sort": 21061,
        "total": 2379
      },
      {
        "club_badge_src": null,
        "entry": 4143888,
        "entry_name": "Big Saka Rice",
        "event_total": 51,
        "has_played": true,
        "id": 31319256,
        "last_rank": 16441,
        "player_name": "Dave Hatchett",
        "rank": 21001,
        "rank_sort": 21062,
        "total": 2379
      },
      {
        "club_badge_src": null,
        "entry": 4282432,
        "entry_name": "Chinese Super League",
        "event_total": 60,
        "has_played": true,
        "id": 32479862,
        "last_rank": 19835,
        "player_name": "Sam Lund",
        "rank": 21001,
        "rank_sort": 21063,
        "total": 2379
      },
      {
        "club_badge_src": null,
        "entry": 4378476,
        "entry_name": "Bukayo zachen",
        "event_total": 54,
        "has_played": true,
        "id": 33271526,
        "last_rank": 18377,
        "player_name": "Marcus Breinvad",
        "rank": 21001,
        "rank_sort": 21064,
        "total": 2379
      },
      {
        "club_badge_src": null,
        "entry": 4446015,
        "entry_name": "ChickenTikkaMoSalah",
        "event_total": 66,
        "has_played": true,
        "id": 33859012,
        "last_rank": 27976,
        "player_name": "Stephen Smyth",
        "rank": 21001,
        "rank_sort": 21065,
        "total": 2379
      },
      {
        "club_badge_src": null,
        "entry": 4526685,
        "entry_name": "Aidans XI",
        "event_total": 73,
        "has_played": true,
        "id": 34525807,
        "last_rank": 35424,
        "player_name": "Aidan Burrows",
        "rank": 21001,
        "rank_sort": 21066,
        "total": 2379
      },
      {
        "club_badge_src": "https://fantasy.premierleague.com/gcs/plfpl-production-adobe-approved/plfpl-production/4556658/d102fc09-5f04-48fe-84b2-95cc60c0e2ae.png",
        "entry": 4556658,
        "entry_name": "Blaugrana",
        "event_total": 66,
        "has_played": true,
        "id": 34769431,
        "last_rank": 24475,
        "player_name": "Anish KC",
        "rank": 21001,
        "rank_sort": 21067,
        "total": 2379
      },
      {
        "club_badge_src": null,
        "entry": 4691560,
        "entry_name": "SouthamptDown ;/",
        "event_total": 64,
        "has_played": true,
        "id": 35959983,
        "last_rank": 26345,
        "player_name": "Caleb Louie",
        "rank": 21001,
        "rank_sort": 21068,
        "total": 2379
      },
      {
        "club_badge_src": "https://fantasy.premierleague.com/gcs/plfpl-production-adobe-approved/plfpl-production/4715768/0b293ed5-4f23-4adb-9d11-b5d66a96117d.png",
        "entry": 4715768,
        "entry_name": "Andrew FC",
        "event_total": 51,
        "has_played": true,
        "id": 36205720,
        "last_rank": 16512,
        "player_name": "Henrik B\u00e6rem",
        "rank": 21001,
        "rank_sort": 21069,
        "total": 2379
      },
      {
        "club_badge_src": null,
        "entry": 4841414,
        "entry_name": "2Spence4Toppy",
        "event_total": 73,
        "has_played": true,
        "id": 37294962,
        "last_rank": 26827,
        "player_name": "Leandro Fernandes",
        "rank": 21001,
        "rank_sort": 21070,
        "total": 2379
      },
      {
        "club_badge_src": null,
        "entry": 5031589,
        "entry_name": "smokin' stogies",
        "event_total": 39,
        "has_played": true,
        "id": 38862305,
        "last_rank": 8552,
        "player_name": "Daniel Clark",
        "rank": 21001,
        "rank_sort": 21071,
        "total": 2379
      },
      {
        "club_badge_src": null,
        "entry": 5315179,
        "entry_name": "Rubber Digne Rapids",
        "event_total": 76,
        "has_played": true,
        "id": 41201513,
        "last_rank": 34458,
        "player_name": "Ilkem Ozturk",
        "rank": 21001,
        "rank_sort": 21072,
        "total": 2379
      },
      {
        "club_badge_src": null,
        "entry": 5474993,
        "entry_name": "TnK F.C",
        "event_total": 65,
        "has_played": true,
        "id": 42621200,
        "last_rank": 23656,
        "player_name": "Tineas Panickan",
        "rank": 21001,
        "rank_sort": 21073,
        "total": 2379
      },
      {
        "club_badge_src": null,
        "entry": 5567655,
        "entry_name": "#2",
        "event_total": 51,
        "has_played": true,
        "id": 43473326,
        "last_rank": 16512,
        "player_name": "Joe Drizzle",
        "rank": 21001,
        "rank_sort": 21074,
        "total": 2379
      },
      {
        "club_badge_src": null,
        "entry": 5589930,
        "entry_name": "Change Name",
        "event_total": 57,
        "has_played": true,
        "id": 43669491,
        "last_rank": 20538,
        "player_name": "Jake Narraway",
        "rank": 21001,
        "rank_sort": 21075,
        "total": 2379
      },
      {
        "club_badge_src": null,
        "entry": 5657161,
        "entry_name": "Isak at this FC",
        "event_total": 67,
        "has_played": true,
        "id": 44257748,
        "last_rank": 25172,
        "player_name": "Niall Crouch",
        "rank": 21001,
        "rank_sort": 21076,
        "total": 2379
      },
      {
        "club_badge_src": null,
        "entry": 6124710,
        "entry_name": "UTFT",
        "event_total": 57,
        "has_played": true,
        "id": 48391659,
        "last_rank": 20678,
        "player_name": "Grant Waites",
        "rank": 21001,
        "rank_sort": 21077,
        "total": 2379
      },
      {
        "club_badge_src": null,
        "entry": 6270960,
        "entry_name": "DAXI",
        "event_total": 63,
        "has_played": true,
        "id": 49656880,
        "last_rank": 25436,
        "player_name": "Demola Alabi",
        "rank": 21001,
        "rank_sort": 21078,
        "total": 2379
      },
      {
        "club_badge_src": null,
        "entry": 6282806,
        "entry_name": "Baapukaashirvaad",
        "event_total": 66,
        "has_played": true,
        "id": 49763178,
        "last_rank": 24475,
        "player_name": "Salman Mansoori",
        "rank": 21001,
        "rank_sort": 21079,
        "total": 2379
      },
      {
        "club_badge_src": null,
        "entry": 6329665,
        "entry_name": "Wolves 'ay we",
        "event_total": 63,
        "has_played": true,
        "id": 50298344,
        "last_rank": 22064,
        "player_name": "Marek Kwiatkowski",
        "rank": 21001,
        "rank_sort": 21080,
        "total": 2379
      },
      {
        "club_badge_src": null,
        "entry": 6628523,
        "entry_name": "Saliba de Vida",
        "event_total": 73,
        "has_played": true,
        "id": 52973926,
        "last_rank": 35166,
        "player_name": "Raghav Bhambri",
        "rank": 21001,
        "rank_sort": 21081,
        "total": 2379
      },
      {
        "club_badge_src": null,
        "entry": 7528227,
        "entry_name": "FC Fahud",
        "event_total": 53,
        "has_played": true,
        "id": 61612922,
        "last_rank": 17802,
        "player_name": "Fahud Hussain",
        "rank": 21001,
        "rank_sort": 21082,
        "total": 2379
      },
      {
        "club_badge_src": null,
        "entry": 7876663,
        "entry_name": "Bruh",
        "event_total": 63,
        "has_played": true,
        "id": 64774079,
        "last_rank": 22064,
        "player_name": "Yu Tu",
        "rank": 21001,
        "rank_sort": 21083,
        "total": 2379
      },
      {
        "club_badge_src": null,
        "entry": 8616505,
        "entry_name": "daliAFC",
        "event_total": 77,
        "has_played": true,
        "id": 71757858,
        "last_rank": 40503,
        "player_name": "Mohamed Ali Mebazaa",
        "rank": 21001,
        "rank_sort": 21084,
        "total": 2379
      },
      {
        "club_badge_src": null,
        "entry": 9152940,
        "entry_name": "DJ",
        "event_total": 47,
        "has_played": true,
        "id": 76969561,
        "last_rank": 14102,
        "player_name": "Iben Madsen",
        "rank": 21001,
        "rank_sort": 21085,
        "total": 2379
      },
      {
        "club_badge_src": "https://fantasy.premierleague.com/gcs/plfpl-production-adobe-approved/plfpl-production/12088/4f855067-5c44-4c0e-a3ba-d03e649c428b.png",
        "entry": 12088,
        "entry_name": "Smackthater",
        "event_total": 69,
        "has_played": true,
        "id": 72128,
        "last_rank": 31309,
        "player_name": "Rayia Yuen",
        "rank": 21086,
        "rank_sort": 21086,
        "total": 2379
      },
      {
        "club_badge_src": null,
        "entry": 29039,
        "entry_name": "Trust the Process",
        "event_total": 55,
        "has_played": true,
        "id": 183608,
        "last_rank": 14040,
        "player_name": "Hamdan Alblooshi --",
        "rank": 21086,
        "rank_sort": 21087,
        "total": 2379
      },
      {
        "club_badge_src": null,
        "entry": 35388,
        "entry_name": "Castolo Peppsy Boyz",
        "event_total": 62,
        "has_played": true,
        "id": 226445,
        "last_rank": 21301,
        "player_name": "Luke Yorke",
        "rank": 21086,
        "rank_sort": 21088,
        "total": 2379
      },
      {
        "club_badge_src": "https://fantasy.premierleague.com/gcs/plfpl-production-adobe-approved/plfpl-production/81792/023aa2d1-b11c-4d13-a9d5-d16e538bcbea.png",
        "entry": 81792,
        "entry_name": "Doomy",
        "event_total": 64,
        "has_played": true,
        "id": 532079,
        "last_rank": 26230,
        "player_name": "K B",
        "rank": 21086,
        "rank_sort": 21089,
        "total": 2379
      },
      {
        "club_badge_src": "https://fantasy.premierleague.com/gcs/plfpl-production-adobe-approved/plfpl-production/96311/38024cd5-5cfe-47ae-acb3-82f911c841c1.png",
        "entry": 96311,
        "entry_name": "HappyWorldOfHeggeb\u00f8",
        "event_total": 64,
        "has_played": true,
        "id": 629225,
        "last_rank": 22921,
        "player_name": "Jacob Parker",
        "rank": 21086,
        "rank_sort": 21090,
        "total": 2379
      },
      {
        "club_badge_src": null,
        "entry": 139545,
        "entry_name": "Inter Row Z",
        "event_total": 62,
        "has_played": true,
        "id": 910848,
        "last_rank": 21392,
        "player_name": "Peter Cohen",
        "rank": 21086,
        "rank_sort": 21091,
        "total": 2379
      },
      {
        "club_badge_src": "https://fantasy.premierleague.com/gcs/plfpl-production-adobe-approved/plfpl-production/221365/07fb4bfb-29a3-4a96-b36d-ca5eca366257.png",
        "entry": 221365,
        "entry_name": "Big Juicy Bratwirtz",
        "event_total": 56,
        "has_played": true,
        "id": 1472280,
        "last_rank": 17150,
        "player_name": "Thomas Nekrews",
        "rank": 21086,
        "rank_sort": 21092,
        "total": 2379
      },
      {
        "club_badge_src": null,
        "entry": 251202,
        "entry_name": "Livin' Saliba Loca",
        "event_total": 53,
        "has_played": true,
        "id": 1671218,
        "last_rank": 17848,
        "player_name": "Lance Cooper",
        "rank": 21086,
        "rank_sort": 21093,
        "total": 2379
      },
      {
        "club_badge_src": null,
        "entry": 278384,
        "entry_name": "Butterlona",
        "event_total": 57,
        "has_played": true,
        "id": 1852873,
        "last_rank": 20678,
        "player_name": "Matt Buttery",
        "rank": 21086,
        "rank_sort": 21094,
        "total": 2379
      },
      {
        "club_badge_src": null,
        "entry": 304208,
        "entry_name": "Martin Dahlins mamma",
        "event_total": 67,
        "has_played": true,
        "id": 2036689,
        "last_rank": 25436,
        "player_name": "Per Juntti",
        "rank": 21086,
        "rank_sort": 21095,
        "total": 2379
      },
      {
        "club_badge_src": "https://fantasy.premierleague.com/gcs/plfpl-production-adobe-approved/plfpl-production/333407/e1832bb9-f550-416e-bbb1-29483921c5ce.png",
        "entry": 333407,
        "entry_name": "Novigrad FC",
        "event_total": 65,
        "has_played": true,
        "id": 2232884,
        "last_rank": 23748,
        "player_name": "Jason Quine",
        "rank": 21086,
        "rank_sort": 21096,
        "total": 2379
      },
      {
        "club_badge_src": "https://fantasy.premierleague.com/gcs/plfpl-production-adobe-approved/plfpl-production/407472/6d458882-1361-43e0-b59b-b2a6b4c620ab.png",
        "entry": 407472,
        "entry_name": "FC No\u0107na Mora",
        "event_total": 50,
        "has_played": true,
        "id": 2732416,
        "last_rank": 15920,
        "player_name": "Antun Tun",
        "rank": 21086,
        "rank_sort": 21097,
        "total": 2379
      },
      {
        "club_badge_src": null,
        "entry": 444784,
        "entry_name": "Crouch is Solanke",
        "event_total": 66,
        "has_played": true,
        "id": 2982605,
        "last_rank": 24330,
        "player_name": "Simon Sharp",
        "rank": 21086,
        "rank_sort": 21098,
        "total": 2379
      },
      {
        "club_badge_src": null,
        "entry": 483517,
        "entry_name": "Me-Myself-Ndiaye",
        "event_total": 43,
        "has_played": true,
        "id": 3245724,
        "last_rank": 11999,
        "player_name": "Chris Taylor",
        "rank": 21086,
        "rank_sort": 21099,
        "total": 2379
      },
      {
        "club_badge_src": null,
        "entry": 492104,
        "entry_name": "Jordan's Herd",
        "event_total": 54,
        "has_played": true,
        "id": 3303172,
        "last_rank": 18377,
        "player_name": "Jordan Heard",
        "rank": 21086,
        "rank_sort": 21100,
        "total": 2379
      }
    ]
  }
}