{
  "last_updated_data": "2026-05-24T23:28:17Z",
  "league": {
    "admin_entry": null,
    "closed": false,
    "code_privacy": "p",
    "created": "2025-07-20T23:14:33.933835Z",
    "cup_league": 2815434,
    "has_cup": true,
    "id": 314,
    "league_type": "s",
    "max_entries": null,
    "name": "Overall",
    "rank": null,
    "scoring": "c",
    "start_event": 1
  },
  "new_entries": {
    "has_next": false,
    "page": 1,
    "results": []
  },
  "standings": {
    "has_next": true,
    "page": 297,
    "results": [
      {
        "club_badge_src": null,
        "entry": 1225496,
        "entry_name": "said",
        "event_total": 54,
        "has_played": true,
        "id": 8509048,
        "last_rank": 12705,
        "player_name": "Morata Said",
        "rank": 14750,
        "rank_sort": 14801,
        "total": 2388
      },
      {
        "club_badge_src": "https://fantasy.premierleague.com/gcs/plfpl-production-adobe-approved/plfpl-production/1229229/29ac4fca-fa7e-4949-8ba1-37fe821169af.png",
        "entry": 1229229,
        "entry_name": "DaHighs and Dalots",
        "event_total": 63,
        "has_played": true,
        "id": 8535265,
        "last_rank": 18029,
        "player_name": "Conor Rea",
        "rank": 14750,
        "rank_sort": 14802,
        "total": 2388
      },
      {
        "club_badge_src": null,
        "entry": 1464268,
        "entry_name": "Olele Onana",
        "event_total": 54,
        "has_played": true,
        "id": 10206593,
        "last_rank": 12705,
        "player_name": "Yong Quan Tan",
        "rank": 14750,
        "rank_sort": 14803,
        "total": 2388
      },
      {
        "club_badge_src": null,
        "entry": 1478034,
        "entry_name": "Roevers",
        "event_total": 54,
        "has_played": true,
        "id": 10305723,
        "last_rank": 12645,
        "player_name": "David Roe",
        "rank": 14750,
        "rank_sort": 14804,
        "total": 2388
      },
      {
        "club_badge_src": null,
        "entry": 1913672,
        "entry_name": "Telf's Titilators",
        "event_total": 56,
        "has_played": true,
        "id": 13492313,
        "last_rank": 13947,
        "player_name": "Andy Telford",
        "rank": 14750,
        "rank_sort": 14805,
        "total": 2388
      },
      {
        "club_badge_src": "https://fantasy.premierleague.com/gcs/plfpl-production-adobe-approved/plfpl-production/2005042/d8e87de1-e4c3-4612-9e4b-e41d81b45279.png",
        "entry": 2005042,
        "entry_name": "Cunha Matata",
        "event_total": 54,
        "has_played": true,
        "id": 14175733,
        "last_rank": 12705,
        "player_name": "Scott Phillips",
        "rank": 14750,
        "rank_sort": 14806,
        "total": 2388
      },
      {
        "club_badge_src": null,
        "entry": 2026582,
        "entry_name": "Bruno Dos Tres",
        "event_total": 73,
        "has_played": true,
        "id": 14346153,
        "last_rank": 25776,
        "player_name": "Ewan Batchelor",
        "rank": 14750,
        "rank_sort": 14807,
        "total": 2388
      },
      {
        "club_badge_src": null,
        "entry": 2115597,
        "entry_name": "United",
        "event_total": 73,
        "has_played": true,
        "id": 15022919,
        "last_rank": 25776,
        "player_name": "Kristoffer Sjurseth",
        "rank": 14750,
        "rank_sort": 14808,
        "total": 2388
      },
      {
        "club_badge_src": null,
        "entry": 2247951,
        "entry_name": "Hard As Nayls",
        "event_total": 36,
        "has_played": true,
        "id": 16017965,
        "last_rank": 5940,
        "player_name": "Adam Naylor",
        "rank": 14750,
        "rank_sort": 14809,
        "total": 2388
      },
      {
        "club_badge_src": null,
        "entry": 2370465,
        "entry_name": "Back Of The Net",
        "event_total": 65,
        "has_played": true,
        "id": 16921585,
        "last_rank": 19432,
        "player_name": "Jonathan Strachan",
        "rank": 14750,
        "rank_sort": 14810,
        "total": 2388
      },
      {
        "club_badge_src": null,
        "entry": 2489674,
        "entry_name": "Mac10 No Cheese",
        "event_total": 63,
        "has_played": true,
        "id": 17823216,
        "last_rank": 18113,
        "player_name": "Rishi Dhawan",
        "rank": 14750,
        "rank_sort": 14811,
        "total": 2388
      },
      {
        "club_badge_src": null,
        "entry": 2609199,
        "entry_name": "Vish Warriors",
        "event_total": 65,
        "has_played": true,
        "id": 18744926,
        "last_rank": 19392,
        "player_name": "Vishan Ramnarian",
        "rank": 14750,
        "rank_sort": 14812,
        "total": 2388
      },
      {
        "club_badge_src": null,
        "entry": 2691018,
        "entry_name": "ManusTeam",
        "event_total": 48,
        "has_played": true,
        "id": 19356011,
        "last_rank": 9942,
        "player_name": "Manuel Ch\u00e1vez Orione",
        "rank": 14750,
        "rank_sort": 14813,
        "total": 2388
      },
      {
        "club_badge_src": null,
        "entry": 2732395,
        "entry_name": "Ctrl Alt DeLigt",
        "event_total": 66,
        "has_played": true,
        "id": 19662802,
        "last_rank": 20179,
        "player_name": "Andy Stavridis",
        "rank": 14750,
        "rank_sort": 14814,
        "total": 2388
      },
      {
        "club_badge_src": null,
        "entry": 2791966,
        "entry_name": "Zephiros",
        "event_total": 58,
        "has_played": true,
        "id": 20384170,
        "last_rank": 14926,
        "player_name": "Dario Martinovi\u0107",
        "rank": 14750,
        "rank_sort": 14815,
        "total": 2388
      },
      {
        "club_badge_src": null,
        "entry": 2819904,
        "entry_name": "Kinder Mbeumo",
        "event_total": 65,
        "has_played": true,
        "id": 20600763,
        "last_rank": 19432,
        "player_name": "Alec Laband",
        "rank": 14750,
        "rank_sort": 14816,
        "total": 2388
      },
      {
        "club_badge_src": null,
        "entry": 2881103,
        "entry_name": "Myles Better",
        "event_total": 74,
        "has_played": true,
        "id": 21091107,
        "last_rank": 26710,
        "player_name": "Abs Hollie",
        "rank": 14750,
        "rank_sort": 14817,
        "total": 2388
      },
      {
        "club_badge_src": null,
        "entry": 2964456,
        "entry_name": "Kapisy",
        "event_total": 70,
        "has_played": true,
        "id": 21777751,
        "last_rank": 23230,
        "player_name": "Kacper Ja\u0142owiec",
        "rank": 14750,
        "rank_sort": 14818,
        "total": 2388
      },
      {
        "club_badge_src": null,
        "entry": 3013258,
        "entry_name": "dororo",
        "event_total": 67,
        "has_played": true,
        "id": 22167884,
        "last_rank": 20983,
        "player_name": "abderrahman ml",
        "rank": 14750,
        "rank_sort": 14819,
        "total": 2388
      },
      {
        "club_badge_src": null,
        "entry": 3278630,
        "entry_name": "FC BangBros",
        "event_total": 51,
        "has_played": true,
        "id": 24266836,
        "last_rank": 11175,
        "player_name": "kevin enturan",
        "rank": 14750,
        "rank_sort": 14820,
        "total": 2388
      },
      {
        "club_badge_src": "https://fantasy.premierleague.com/gcs/plfpl-production-adobe-approved/plfpl-production/3307107/9518407c-32cc-4720-96b9-78b0b414493c.png",
        "entry": 3307107,
        "entry_name": "Cunha believe it",
        "event_total": 62,
        "has_played": true,
        "id": 24497428,
        "last_rank": 17437,
        "player_name": "Paul Stanley",
        "rank": 14750,
        "rank_sort": 14821,
        "total": 2388
      },
      {
        "club_badge_src": null,
        "entry": 3431567,
        "entry_name": "Squidwirtz",
        "event_total": 63,
        "has_played": true,
        "id": 25491897,
        "last_rank": 18113,
        "player_name": "Bryant Ndongmo",
        "rank": 14750,
        "rank_sort": 14822,
        "total": 2388
      },
      {
        "club_badge_src": null,
        "entry": 3441378,
        "entry_name": "Meghavertz",
        "event_total": 65,
        "has_played": true,
        "id": 25567335,
        "last_rank": 19376,
        "player_name": "James Abood",
        "rank": 14750,
        "rank_sort": 14823,
        "total": 2388
      },
      {
        "club_badge_src": null,
        "entry": 3565024,
        "entry_name": "ligma footballs",
        "event_total": 64,
        "has_played": true,
        "id": 26544748,
        "last_rank": 18790,
        "player_name": "Stephen Moorton",
        "rank": 14750,
        "rank_sort": 14824,
        "total": 2388
      },
      {
        "club_badge_src": null,
        "entry": 3741359,
        "entry_name": "I am Grootball",
        "event_total": 64,
        "has_played": true,
        "id": 27928653,
        "last_rank": 18691,
        "player_name": "Michael Williams",
        "rank": 14750,
        "rank_sort": 14825,
        "total": 2388
      },
      {
        "club_badge_src": null,
        "entry": 4169153,
        "entry_name": "BSFC1913",
        "event_total": 69,
        "has_played": true,
        "id": 31529941,
        "last_rank": 22426,
        "player_name": "Anton Andreev",
        "rank": 14750,
        "rank_sort": 14826,
        "total": 2388
      },
      {
        "club_badge_src": null,
        "entry": 4464561,
        "entry_name": "36 PSI",
        "event_total": 71,
        "has_played": true,
        "id": 34015377,
        "last_rank": 24143,
        "player_name": "John Askew",
        "rank": 14750,
        "rank_sort": 14827,
        "total": 2388
      },
      {
        "club_badge_src": null,
        "entry": 4528843,
        "entry_name": "VAR Wars",
        "event_total": 46,
        "has_played": true,
        "id": 34543388,
        "last_rank": 9089,
        "player_name": "Luke Goodsall",
        "rank": 14750,
        "rank_sort": 14828,
        "total": 2388
      },
      {
        "club_badge_src": null,
        "entry": 4659892,
        "entry_name": "Mi Bombaclats",
        "event_total": 80,
        "has_played": true,
        "id": 35678581,
        "last_rank": 33147,
        "player_name": "Rasmus Eriksson",
        "rank": 14750,
        "rank_sort": 14829,
        "total": 2388
      },
      {
        "club_badge_src": null,
        "entry": 5124453,
        "entry_name": "\u00d8degaard of Honor",
        "event_total": 59,
        "has_played": true,
        "id": 39627509,
        "last_rank": 15550,
        "player_name": "Patrick Jennewein",
        "rank": 14750,
        "rank_sort": 14830,
        "total": 2388
      },
      {
        "club_badge_src": null,
        "entry": 5158849,
        "entry_name": "Gooners",
        "event_total": 51,
        "has_played": true,
        "id": 39918518,
        "last_rank": 11175,
        "player_name": "Evripidis Tsardakis",
        "rank": 14750,
        "rank_sort": 14831,
        "total": 2388
      },
      {
        "club_badge_src": "https://fantasy.premierleague.com/gcs/plfpl-production-adobe-approved/plfpl-production/5241289/ddbd43d2-608a-49c1-ac8e-7e6512b6c82b.png",
        "entry": 5241289,
        "entry_name": "Fantalytics",
        "event_total": 85,
        "has_played": true,
        "id": 40618794,
        "last_rank": 33819,
        "player_name": "Josh Tischler",
        "rank": 14750,
        "rank_sort": 14832,
        "total": 2388
      },
      {
        "club_badge_src": null,
        "entry": 5460253,
        "entry_name": "Lil Uzi Wirtz",
        "event_total": 66,
        "has_played": true,
        "id": 42493898,
        "last_rank": 20280,
        "player_name": "Braden Robinson",
        "rank": 14750,
        "rank_sort": 14833,
        "total": 2388
      },
      {
        "club_badge_src": null,
        "entry": 5499370,
        "entry_name": "Barca",
        "event_total": 58,
        "has_played": true,
        "id": 42848386,
        "last_rank": 14926,
        "player_name": "Ahmed Khaled",
        "rank": 14750,
        "rank_sort": 14834,
        "total": 2388
      },
      {
        "club_badge_src": null,
        "entry": 5584429,
        "entry_name": "lukes legends",
        "event_total": 63,
        "has_played": true,
        "id": 43620052,
        "last_rank": 17989,
        "player_name": "Luke Keyworth",
        "rank": 14750,
        "rank_sort": 14835,
        "total": 2388
      },
      {
        "club_badge_src": null,
        "entry": 5596173,
        "entry_name": "Tchuubsquad",
        "event_total": 60,
        "has_played": true,
        "id": 43723153,
        "last_rank": 16320,
        "player_name": "Ruben Waalboer",
        "rank": 14750,
        "rank_sort": 14836,
        "total": 2388
      },
      {
        "club_badge_src": null,
        "entry": 5663432,
        "entry_name": "000",
        "event_total": 51,
        "has_played": true,
        "id": 44310869,
        "last_rank": 11237,
        "player_name": "Jesse Bonisehi",
        "rank": 14750,
        "rank_sort": 14837,
        "total": 2388
      },
      {
        "club_badge_src": null,
        "entry": 5746493,
        "entry_name": "FC Barcelona",
        "event_total": 60,
        "has_played": true,
        "id": 45036408,
        "last_rank": 16320,
        "player_name": "Eino Vuori",
        "rank": 14750,
        "rank_sort": 14838,
        "total": 2388
      },
      {
        "club_badge_src": null,
        "entry": 5825823,
        "entry_name": "OO8goty!",
        "event_total": 59,
        "has_played": true,
        "id": 45722134,
        "last_rank": 15452,
        "player_name": "Yamikani Daka",
        "rank": 14750,
        "rank_sort": 14839,
        "total": 2388
      },
      {
        "club_badge_src": null,
        "entry": 5869421,
        "entry_name": "Soup or Salah\u2019d",
        "event_total": 59,
        "has_played": true,
        "id": 46100436,
        "last_rank": 15550,
        "player_name": "Jason What?!?",
        "rank": 14750,
        "rank_sort": 14840,
        "total": 2388
      },
      {
        "club_badge_src": null,
        "entry": 5873793,
        "entry_name": "PimpsUpHoesDown",
        "event_total": 61,
        "has_played": true,
        "id": 46136860,
        "last_rank": 16729,
        "player_name": "Carlos Mazzoni",
        "rank": 14750,
        "rank_sort": 14841,
        "total": 2388
      },
      {
        "club_badge_src": null,
        "entry": 5900799,
        "entry_name": "Bowen Arrows",
        "event_total": 71,
        "has_played": true,
        "id": 46360489,
        "last_rank": 24039,
        "player_name": "Sasha Kuznetsov",
        "rank": 14750,
        "rank_sort": 14842,
        "total": 2388
      },
      {
        "club_badge_src": null,
        "entry": 5937299,
        "entry_name": "HuttondressedasLahm",
        "event_total": 83,
        "has_played": true,
        "id": 46684229,
        "last_rank": 36348,
        "player_name": "Charlie Fursdon",
        "rank": 14750,
        "rank_sort": 14843,
        "total": 2388
      },
      {
        "club_badge_src": null,
        "entry": 5971185,
        "entry_name": "Sal6a Sray",
        "event_total": 34,
        "has_played": true,
        "id": 46989911,
        "last_rank": 5448,
        "player_name": "Faisal Alahmari",
        "rank": 14750,
        "rank_sort": 14844,
        "total": 2388
      },
      {
        "club_badge_src": null,
        "entry": 6068648,
        "entry_name": "Buber Nebz",
        "event_total": 68,
        "has_played": true,
        "id": 47902430,
        "last_rank": 21628,
        "player_name": "Andrew Hardy",
        "rank": 14750,
        "rank_sort": 14845,
        "total": 2388
      },
      {
        "club_badge_src": null,
        "entry": 6115866,
        "entry_name": "DC United",
        "event_total": 49,
        "has_played": true,
        "id": 48314063,
        "last_rank": 10346,
        "player_name": "Darren Corley",
        "rank": 14750,
        "rank_sort": 14846,
        "total": 2388
      },
      {
        "club_badge_src": null,
        "entry": 6174871,
        "entry_name": "Pole Pole FC",
        "event_total": 64,
        "has_played": true,
        "id": 48828241,
        "last_rank": 18691,
        "player_name": "Nahom Yemane",
        "rank": 14750,
        "rank_sort": 14847,
        "total": 2388
      },
      {
        "club_badge_src": null,
        "entry": 6197608,
        "entry_name": "Backstreet Moyes",
        "event_total": 48,
        "has_played": true,
        "id": 49024487,
        "last_rank": 9885,
        "player_name": "Phil Kissling",
        "rank": 14750,
        "rank_sort": 14848,
        "total": 2388
      },
      {
        "club_badge_src": null,
        "entry": 6326823,
        "entry_name": "Papakura FC",
        "event_total": 50,
        "has_played": true,
        "id": 50265513,
        "last_rank": 10805,
        "player_name": "Hayden Todd",
        "rank": 14750,
        "rank_sort": 14849,
        "total": 2388
      },
      {
        "club_badge_src": null,
        "entry": 6365931,
        "entry_name": "levy la vida loca",
        "event_total": 43,
        "has_played": true,
        "id": 50619345,
        "last_rank": 8138,
        "player_name": "Tom Hoare",
        "rank": 14750,
        "rank_sort": 14850,
        "total": 2388
      }
    ]
  }
}