{
  "last_updated_data": "2026-05-24T23:28:17Z",
  "league": {
    "admin_entry": null,
    "closed": false,
    "code_privacy": "p",
    "created": "2025-07-20T23:14:33.933835Z",
    "cup_league": 2815434,
    "has_cup": true,
    "id": 314,
    "league_type": "s",
    "max_entries": null,
    "name": "Overall",
    "rank": null,
    "scoring": "c",
    "start_event": 1
  },
  "new_entries": {
    "has_next": false,
    "page": 1,
    "results": []
  },
  "standings": {
    "has_next": true,
    "page": 676,
    "results": [
      {
        "club_badge_src": null,
        "entry": 5288449,
        "entry_name": "Kinder Mbeumo",
        "event_total": 72,
        "has_played": true,
        "id": 40992404,
        "last_rank": 54065,
        "player_name": "Shane McCarthy",
        "rank": 33712,
        "rank_sort": 33751,
        "total": 2365
      },
      {
        "club_badge_src": null,
        "entry": 6009680,
        "entry_name": "Ayew Ready F.C.",
        "event_total": 62,
        "has_played": true,
        "id": 47383978,
        "last_rank": 39585,
        "player_name": "Dylan Noi-Lartey",
        "rank": 33712,
        "rank_sort": 33752,
        "total": 2365
      },
      {
        "club_badge_src": null,
        "entry": 6455275,
        "entry_name": "Ace of Clubs",
        "event_total": 50,
        "has_played": true,
        "id": 51409678,
        "last_rank": 26475,
        "player_name": "stuart harper",
        "rank": 33712,
        "rank_sort": 33753,
        "total": 2365
      },
      {
        "club_badge_src": null,
        "entry": 6811220,
        "entry_name": "Koning FloFlo",
        "event_total": 59,
        "has_played": true,
        "id": 54549357,
        "last_rank": 35926,
        "player_name": "Floris Haakman",
        "rank": 33712,
        "rank_sort": 33754,
        "total": 2365
      },
      {
        "club_badge_src": null,
        "entry": 6822072,
        "entry_name": "Kimmich",
        "event_total": 66,
        "has_played": true,
        "id": 54641831,
        "last_rank": 39510,
        "player_name": "Kim Bj\u00f8rkesett",
        "rank": 33712,
        "rank_sort": 33755,
        "total": 2365
      },
      {
        "club_badge_src": null,
        "entry": 7219201,
        "entry_name": "Slotip\u00e5toppi",
        "event_total": 36,
        "has_played": true,
        "id": 58314709,
        "last_rank": 15952,
        "player_name": "Svend Lunden",
        "rank": 33712,
        "rank_sort": 33756,
        "total": 2365
      },
      {
        "club_badge_src": null,
        "entry": 7696146,
        "entry_name": "Bromly town",
        "event_total": 61,
        "has_played": true,
        "id": 63136813,
        "last_rank": 33582,
        "player_name": "faisal alqorom",
        "rank": 33712,
        "rank_sort": 33757,
        "total": 2365
      },
      {
        "club_badge_src": null,
        "entry": 7857021,
        "entry_name": "Wordens Wanderers",
        "event_total": 61,
        "has_played": true,
        "id": 64595909,
        "last_rank": 38340,
        "player_name": "Alan Worden",
        "rank": 33712,
        "rank_sort": 33758,
        "total": 2365
      },
      {
        "club_badge_src": null,
        "entry": 8183176,
        "entry_name": "silver bug  united",
        "event_total": 54,
        "has_played": true,
        "id": 67581097,
        "last_rank": 30325,
        "player_name": "Akanut Pimparu",
        "rank": 33712,
        "rank_sort": 33759,
        "total": 2365
      },
      {
        "club_badge_src": null,
        "entry": 8311712,
        "entry_name": "Goggins",
        "event_total": 65,
        "has_played": true,
        "id": 68833290,
        "last_rank": 43342,
        "player_name": "Wielki Widawczak",
        "rank": 33712,
        "rank_sort": 33760,
        "total": 2365
      },
      {
        "club_badge_src": null,
        "entry": 9455408,
        "entry_name": "eriks XI",
        "event_total": 81,
        "has_played": true,
        "id": 79898546,
        "last_rank": 69641,
        "player_name": "Erik Nilsson",
        "rank": 33712,
        "rank_sort": 33761,
        "total": 2365
      },
      {
        "club_badge_src": null,
        "entry": 42079,
        "entry_name": "sam win",
        "event_total": 76,
        "has_played": true,
        "id": 269664,
        "last_rank": 54065,
        "player_name": "samer soualili",
        "rank": 33762,
        "rank_sort": 33762,
        "total": 2365
      },
      {
        "club_badge_src": null,
        "entry": 48437,
        "entry_name": "Havana Onana",
        "event_total": 66,
        "has_played": true,
        "id": 311047,
        "last_rank": 39585,
        "player_name": "Matthew Hargreaves",
        "rank": 33762,
        "rank_sort": 33763,
        "total": 2365
      },
      {
        "club_badge_src": null,
        "entry": 62752,
        "entry_name": "Sharpes 11",
        "event_total": 56,
        "has_played": true,
        "id": 404655,
        "last_rank": 28388,
        "player_name": "Ollie Sharpe",
        "rank": 33762,
        "rank_sort": 33764,
        "total": 2365
      },
      {
        "club_badge_src": "https://fantasy.premierleague.com/gcs/plfpl-production-adobe-approved/plfpl-production/80934/d03a9616-4826-42a5-98e7-96b5313b73c8.png",
        "entry": 80934,
        "entry_name": "Archy FC",
        "event_total": 65,
        "has_played": true,
        "id": 526554,
        "last_rank": 38340,
        "player_name": "Oyekunle Oluwatobi",
        "rank": 33762,
        "rank_sort": 33765,
        "total": 2365
      },
      {
        "club_badge_src": null,
        "entry": 102844,
        "entry_name": "Dolina Mumink\u00f3w",
        "event_total": 66,
        "has_played": true,
        "id": 671068,
        "last_rank": 44882,
        "player_name": "Jacek Kalus",
        "rank": 33762,
        "rank_sort": 33766,
        "total": 2365
      },
      {
        "club_badge_src": null,
        "entry": 174256,
        "entry_name": "I\u2019m a Baleba",
        "event_total": 57,
        "has_played": true,
        "id": 1150714,
        "last_rank": 33695,
        "player_name": "James Allen",
        "rank": 33762,
        "rank_sort": 33767,
        "total": 2365
      },
      {
        "club_badge_src": null,
        "entry": 201681,
        "entry_name": "Can't Get Any Wirtz",
        "event_total": 64,
        "has_played": true,
        "id": 1339191,
        "last_rank": 37058,
        "player_name": "Craig Ross",
        "rank": 33762,
        "rank_sort": 33768,
        "total": 2365
      },
      {
        "club_badge_src": null,
        "entry": 204541,
        "entry_name": "Could be Wirtz",
        "event_total": 60,
        "has_played": true,
        "id": 1359471,
        "last_rank": 32335,
        "player_name": "Shay Gera",
        "rank": 33762,
        "rank_sort": 33769,
        "total": 2365
      },
      {
        "club_badge_src": null,
        "entry": 309186,
        "entry_name": "roll the dyche",
        "event_total": 64,
        "has_played": true,
        "id": 2071061,
        "last_rank": 42225,
        "player_name": "Adam Afaneh",
        "rank": 33762,
        "rank_sort": 33770,
        "total": 2365
      },
      {
        "club_badge_src": null,
        "entry": 391595,
        "entry_name": "Dansoing in the Dark",
        "event_total": 65,
        "has_played": true,
        "id": 2626669,
        "last_rank": 33582,
        "player_name": "Jake Smith",
        "rank": 33762,
        "rank_sort": 33771,
        "total": 2365
      },
      {
        "club_badge_src": null,
        "entry": 399682,
        "entry_name": "Lajku21",
        "event_total": 66,
        "has_played": true,
        "id": 2680013,
        "last_rank": 44982,
        "player_name": "Aidan Debono",
        "rank": 33762,
        "rank_sort": 33772,
        "total": 2365
      },
      {
        "club_badge_src": "https://fantasy.premierleague.com/gcs/plfpl-production-adobe-approved/plfpl-production/427946/83084859-3c8d-4bee-aaa1-bac558323259.png",
        "entry": 427946,
        "entry_name": "Hazem Ahmed Elwany",
        "event_total": 56,
        "has_played": true,
        "id": 2870251,
        "last_rank": 28388,
        "player_name": "hazem elwany",
        "rank": 33762,
        "rank_sort": 33773,
        "total": 2365
      },
      {
        "club_badge_src": null,
        "entry": 436923,
        "entry_name": "Watton FC",
        "event_total": 52,
        "has_played": true,
        "id": 2929946,
        "last_rank": 28388,
        "player_name": "Adam Watton",
        "rank": 33762,
        "rank_sort": 33774,
        "total": 2365
      },
      {
        "club_badge_src": null,
        "entry": 439249,
        "entry_name": "Rice 'n easy",
        "event_total": 77,
        "has_played": true,
        "id": 2945413,
        "last_rank": 62724,
        "player_name": "Michael Keaveney",
        "rank": 33762,
        "rank_sort": 33775,
        "total": 2365
      },
      {
        "club_badge_src": null,
        "entry": 458878,
        "entry_name": "Calcutta's Finest",
        "event_total": 60,
        "has_played": true,
        "id": 3078438,
        "last_rank": 37189,
        "player_name": "Aaron Samaroo",
        "rank": 33762,
        "rank_sort": 33776,
        "total": 2365
      },
      {
        "club_badge_src": null,
        "entry": 483305,
        "entry_name": "Merengue",
        "event_total": 58,
        "has_played": true,
        "id": 3244321,
        "last_rank": 30325,
        "player_name": "Fahad Alkaabi",
        "rank": 33762,
        "rank_sort": 33777,
        "total": 2365
      },
      {
        "club_badge_src": null,
        "entry": 532743,
        "entry_name": "TheIceSheeps",
        "event_total": 66,
        "has_played": true,
        "id": 3583984,
        "last_rank": 34682,
        "player_name": "Sveinn Karlsson",
        "rank": 33762,
        "rank_sort": 33778,
        "total": 2365
      },
      {
        "club_badge_src": null,
        "entry": 821939,
        "entry_name": "HomeBoyz",
        "event_total": 57,
        "has_played": true,
        "id": 5629208,
        "last_rank": 33695,
        "player_name": "Nader Al-Jaberi",
        "rank": 33762,
        "rank_sort": 33779,
        "total": 2365
      },
      {
        "club_badge_src": "https://fantasy.premierleague.com/gcs/plfpl-production-adobe-approved/plfpl-production/848956/88689a6a-9f16-4e9c-8900-6c021d02656e.png",
        "entry": 848956,
        "entry_name": "Salah-vating points",
        "event_total": 68,
        "has_played": true,
        "id": 5818910,
        "last_rank": 47868,
        "player_name": "Eman Amiradakis",
        "rank": 33762,
        "rank_sort": 33780,
        "total": 2365
      },
      {
        "club_badge_src": "https://fantasy.premierleague.com/gcs/plfpl-production-adobe-approved/plfpl-production/884844/8c30d4ce-fc9f-4cbc-bfbb-9c138c2abaa8.png",
        "entry": 884844,
        "entry_name": "3ab7kim \ufffd\u270c\ufffd",
        "event_total": 65,
        "has_played": true,
        "id": 6068453,
        "last_rank": 38340,
        "player_name": "Free Palestine ---\ufe0f",
        "rank": 33762,
        "rank_sort": 33781,
        "total": 2365
      },
      {
        "club_badge_src": null,
        "entry": 935089,
        "entry_name": "The Wirtz Team",
        "event_total": 64,
        "has_played": true,
        "id": 6434945,
        "last_rank": 37134,
        "player_name": "Liam Gibbson",
        "rank": 33762,
        "rank_sort": 33782,
        "total": 2365
      },
      {
        "club_badge_src": null,
        "entry": 936029,
        "entry_name": "Moroderone",
        "event_total": 80,
        "has_played": true,
        "id": 6441531,
        "last_rank": 68107,
        "player_name": "Boris Rami\u0107",
        "rank": 33762,
        "rank_sort": 33783,
        "total": 2365
      },
      {
        "club_badge_src": null,
        "entry": 964771,
        "entry_name": "Adelaide \u2606\u2606 Argyle",
        "event_total": 68,
        "has_played": true,
        "id": 6648973,
        "last_rank": 47596,
        "player_name": "Mark Hubbard",
        "rank": 33762,
        "rank_sort": 33784,
        "total": 2365
      },
      {
        "club_badge_src": null,
        "entry": 1183068,
        "entry_name": "mask",
        "event_total": 49,
        "has_played": true,
        "id": 8208354,
        "last_rank": 25595,
        "player_name": "Fernando Pinto",
        "rank": 33762,
        "rank_sort": 33785,
        "total": 2365
      },
      {
        "club_badge_src": null,
        "entry": 1279776,
        "entry_name": "Sniper",
        "event_total": 67,
        "has_played": true,
        "id": 8892859,
        "last_rank": 35867,
        "player_name": "Ibrahim Saad",
        "rank": 33762,
        "rank_sort": 33786,
        "total": 2365
      },
      {
        "club_badge_src": null,
        "entry": 1339145,
        "entry_name": "Mardridista",
        "event_total": 51,
        "has_played": true,
        "id": 9310549,
        "last_rank": 23857,
        "player_name": "karim ben mohamed",
        "rank": 33762,
        "rank_sort": 33787,
        "total": 2365
      },
      {
        "club_badge_src": "https://fantasy.premierleague.com/gcs/plfpl-production-adobe-approved/plfpl-production/1352055/4e789109-39b1-4113-899e-f9ef02825ffa.png",
        "entry": 1352055,
        "entry_name": "MIND THE GAP",
        "event_total": 58,
        "has_played": true,
        "id": 9399205,
        "last_rank": 22921,
        "player_name": "Adam Armstrong",
        "rank": 33762,
        "rank_sort": 33788,
        "total": 2365
      },
      {
        "club_badge_src": "https://fantasy.premierleague.com/gcs/plfpl-production-adobe-approved/plfpl-production/2366284/0c97cffc-f486-4417-b0b7-2c9a3cdd99b8.png",
        "entry": 2366284,
        "entry_name": "VARizard",
        "event_total": 59,
        "has_played": true,
        "id": 16890554,
        "last_rank": 35926,
        "player_name": "Kobe Hawley",
        "rank": 33762,
        "rank_sort": 33789,
        "total": 2365
      },
      {
        "club_badge_src": null,
        "entry": 2492384,
        "entry_name": "Valeys Angels",
        "event_total": 75,
        "has_played": true,
        "id": 17843091,
        "last_rank": 59249,
        "player_name": "Tom Vale",
        "rank": 33762,
        "rank_sort": 33790,
        "total": 2365
      },
      {
        "club_badge_src": "https://fantasy.premierleague.com/gcs/plfpl-production-adobe-approved/plfpl-production/2500843/9065fe73-ea50-4833-8789-96fd74163a78.png",
        "entry": 2500843,
        "entry_name": "Sean Longwood",
        "event_total": 46,
        "has_played": true,
        "id": 17906926,
        "last_rank": 20008,
        "player_name": "karl fitzgerald",
        "rank": 33762,
        "rank_sort": 33791,
        "total": 2365
      },
      {
        "club_badge_src": null,
        "entry": 2742704,
        "entry_name": "\u2b50Laparpo Patakungsi\u2b50",
        "event_total": 55,
        "has_played": true,
        "id": 19811165,
        "last_rank": 31404,
        "player_name": "Shawn Hasani",
        "rank": 33762,
        "rank_sort": 33792,
        "total": 2365
      },
      {
        "club_badge_src": "https://fantasy.premierleague.com/gcs/plfpl-production-adobe-approved/plfpl-production/2763627/88c99697-7ddc-45e3-a8c1-a9a851c6e74e.png",
        "entry": 2763627,
        "entry_name": "Melo_fc",
        "event_total": 66,
        "has_played": true,
        "id": 20162081,
        "last_rank": 39585,
        "player_name": "Michael Sarkodie",
        "rank": 33762,
        "rank_sort": 33793,
        "total": 2365
      },
      {
        "club_badge_src": null,
        "entry": 2929024,
        "entry_name": "\u0421\u0440\u043f\u0441\u043a\u0430 \u0412\u0430\u0440\u043e\u0448",
        "event_total": 59,
        "has_played": true,
        "id": 21474256,
        "last_rank": 31371,
        "player_name": "Nikola Vasic",
        "rank": 33762,
        "rank_sort": 33794,
        "total": 2365
      },
      {
        "club_badge_src": null,
        "entry": 3031773,
        "entry_name": "Old Havertz Kai Hard",
        "event_total": 50,
        "has_played": true,
        "id": 22310224,
        "last_rank": 22921,
        "player_name": "David Kuriakose",
        "rank": 33762,
        "rank_sort": 33795,
        "total": 2365
      },
      {
        "club_badge_src": null,
        "entry": 3746065,
        "entry_name": "cols crusaders",
        "event_total": 68,
        "has_played": true,
        "id": 27965022,
        "last_rank": 36963,
        "player_name": "Colin Wilson",
        "rank": 33762,
        "rank_sort": 33796,
        "total": 2365
      },
      {
        "club_badge_src": null,
        "entry": 3787904,
        "entry_name": "Zergio",
        "event_total": 65,
        "has_played": true,
        "id": 28299911,
        "last_rank": 43607,
        "player_name": "Sergio Hassen",
        "rank": 33762,
        "rank_sort": 33797,
        "total": 2365
      },
      {
        "club_badge_src": "https://fantasy.premierleague.com/gcs/plfpl-production-adobe-approved/plfpl-production/4027849/1a8d6483-956b-4d2f-86cc-32bb3518c36e.png",
        "entry": 4027849,
        "entry_name": "Let's get it \ufffd",
        "event_total": 60,
        "has_played": true,
        "id": 30362773,
        "last_rank": 37189,
        "player_name": "McCauley Namboya",
        "rank": 33762,
        "rank_sort": 33798,
        "total": 2365
      },
      {
        "club_badge_src": null,
        "entry": 4293886,
        "entry_name": "KB FC",
        "event_total": 54,
        "has_played": true,
        "id": 32572546,
        "last_rank": 30395,
        "player_name": "Ben Corbett",
        "rank": 33762,
        "rank_sort": 33799,
        "total": 2365
      },
      {
        "club_badge_src": null,
        "entry": 4591384,
        "entry_name": "The Pique Blinders",
        "event_total": 58,
        "has_played": true,
        "id": 35060837,
        "last_rank": 34796,
        "player_name": "David Firth",
        "rank": 33762,
        "rank_sort": 33800,
        "total": 2365
      }
    ]
  }
}