{
  "last_updated_data": "2026-05-24T23:28:17Z",
  "league": {
    "admin_entry": null,
    "closed": false,
    "code_privacy": "p",
    "created": "2025-07-20T23:14:33.933835Z",
    "cup_league": 2815434,
    "has_cup": true,
    "id": 314,
    "league_type": "s",
    "max_entries": null,
    "name": "Overall",
    "rank": null,
    "scoring": "c",
    "start_event": 1
  },
  "new_entries": {
    "has_next": false,
    "page": 1,
    "results": []
  },
  "standings": {
    "has_next": true,
    "page": 292,
    "results": [
      {
        "club_badge_src": null,
        "entry": 69399,
        "entry_name": "Sam FC",
        "event_total": 55,
        "has_played": true,
        "id": 450114,
        "last_rank": 10992,
        "player_name": "Sam Rodgers",
        "rank": 14545,
        "rank_sort": 14551,
        "total": 2389
      },
      {
        "club_badge_src": "https://fantasy.premierleague.com/gcs/plfpl-production-adobe-approved/plfpl-production/117279/dc833cdb-f8e1-4f4a-b747-c2e428afb522.png",
        "entry": 117279,
        "entry_name": "La Convivencia",
        "event_total": 65,
        "has_played": true,
        "id": 765532,
        "last_rank": 16441,
        "player_name": "Aditya Agusta D",
        "rank": 14545,
        "rank_sort": 14552,
        "total": 2389
      },
      {
        "club_badge_src": null,
        "entry": 175618,
        "entry_name": "Ey",
        "event_total": 52,
        "has_played": true,
        "id": 1159441,
        "last_rank": 9711,
        "player_name": "Eyass Mostafa",
        "rank": 14545,
        "rank_sort": 14553,
        "total": 2389
      },
      {
        "club_badge_src": null,
        "entry": 187615,
        "entry_name": "Huragan Odbytnica",
        "event_total": 60,
        "has_played": true,
        "id": 1240657,
        "last_rank": 11345,
        "player_name": "Jakub Zar\u0119ba",
        "rank": 14545,
        "rank_sort": 14554,
        "total": 2389
      },
      {
        "club_badge_src": null,
        "entry": 207849,
        "entry_name": "Peteh Nelang",
        "event_total": 68,
        "has_played": true,
        "id": 1381672,
        "last_rank": 21392,
        "player_name": "mat id",
        "rank": 14545,
        "rank_sort": 14555,
        "total": 2389
      },
      {
        "club_badge_src": null,
        "entry": 231130,
        "entry_name": "The Wirtz Locker",
        "event_total": 39,
        "has_played": true,
        "id": 1537707,
        "last_rank": 6637,
        "player_name": "Laurence Enticott",
        "rank": 14545,
        "rank_sort": 14556,
        "total": 2389
      },
      {
        "club_badge_src": null,
        "entry": 238626,
        "entry_name": "FC Goldie",
        "event_total": 50,
        "has_played": true,
        "id": 1587633,
        "last_rank": 10600,
        "player_name": "Simon Hawkes",
        "rank": 14545,
        "rank_sort": 14557,
        "total": 2389
      },
      {
        "club_badge_src": "https://fantasy.premierleague.com/gcs/plfpl-production-adobe-approved/plfpl-production/431881/e140dc2c-6f58-46bd-abbb-bc2309128321.png",
        "entry": 431881,
        "entry_name": "MROWISKO GARWOLIN",
        "event_total": 38,
        "has_played": true,
        "id": 2896506,
        "last_rank": 6347,
        "player_name": "Jakub Ekert",
        "rank": 14545,
        "rank_sort": 14558,
        "total": 2389
      },
      {
        "club_badge_src": null,
        "entry": 435652,
        "entry_name": "anti tank united",
        "event_total": 56,
        "has_played": true,
        "id": 2921373,
        "last_rank": 13558,
        "player_name": "James Leeder",
        "rank": 14545,
        "rank_sort": 14559,
        "total": 2389
      },
      {
        "club_badge_src": null,
        "entry": 457283,
        "entry_name": "Erik Ten Bag",
        "event_total": 59,
        "has_played": true,
        "id": 3067889,
        "last_rank": 15164,
        "player_name": "Michael Sinnott",
        "rank": 14545,
        "rank_sort": 14560,
        "total": 2389
      },
      {
        "club_badge_src": "https://fantasy.premierleague.com/gcs/plfpl-production-adobe-approved/plfpl-production/563862/5f8f4c67-e267-42c6-8c31-655ef5532530.png",
        "entry": 563862,
        "entry_name": "Mars",
        "event_total": 70,
        "has_played": true,
        "id": 3795294,
        "last_rank": 19721,
        "player_name": "WAEL FADL",
        "rank": 14545,
        "rank_sort": 14561,
        "total": 2389
      },
      {
        "club_badge_src": null,
        "entry": 658997,
        "entry_name": "Indigogazer",
        "event_total": 67,
        "has_played": true,
        "id": 4453358,
        "last_rank": 20416,
        "player_name": "Jason Bull",
        "rank": 14545,
        "rank_sort": 14562,
        "total": 2389
      },
      {
        "club_badge_src": null,
        "entry": 726635,
        "entry_name": "HappyOmlette",
        "event_total": 67,
        "has_played": true,
        "id": 4936112,
        "last_rank": 20538,
        "player_name": "Carl Scorer",
        "rank": 14545,
        "rank_sort": 14563,
        "total": 2389
      },
      {
        "club_badge_src": null,
        "entry": 782397,
        "entry_name": "Earth Wind & Maguire",
        "event_total": 65,
        "has_played": true,
        "id": 5341734,
        "last_rank": 13947,
        "player_name": "Gary Edwards",
        "rank": 14545,
        "rank_sort": 14564,
        "total": 2389
      },
      {
        "club_badge_src": "https://fantasy.premierleague.com/gcs/plfpl-production-adobe-approved/plfpl-production/799102/ad7493fa-5c1d-4c9e-ad6e-df71f6ec1dee.png",
        "entry": 799102,
        "entry_name": "Hipsterjuice",
        "event_total": 43,
        "has_played": true,
        "id": 5469572,
        "last_rank": 7863,
        "player_name": "Lars Vegard Vonen",
        "rank": 14545,
        "rank_sort": 14565,
        "total": 2389
      },
      {
        "club_badge_src": null,
        "entry": 851418,
        "entry_name": "iwdw",
        "event_total": 54,
        "has_played": true,
        "id": 5835817,
        "last_rank": 12470,
        "player_name": "iwan d",
        "rank": 14545,
        "rank_sort": 14566,
        "total": 2389
      },
      {
        "club_badge_src": null,
        "entry": 933163,
        "entry_name": "Hula Hoops",
        "event_total": 66,
        "has_played": true,
        "id": 6421299,
        "last_rank": 19904,
        "player_name": "Gary Kavanagh",
        "rank": 14545,
        "rank_sort": 14567,
        "total": 2389
      },
      {
        "club_badge_src": "https://fantasy.premierleague.com/gcs/plfpl-production-adobe-approved/plfpl-production/1070857/5840388d-b278-40b5-a841-d3a8955349b7.png",
        "entry": 1070857,
        "entry_name": "CanMan",
        "event_total": 56,
        "has_played": true,
        "id": 7413495,
        "last_rank": 13558,
        "player_name": "Wayne Loquan",
        "rank": 14545,
        "rank_sort": 14568,
        "total": 2389
      },
      {
        "club_badge_src": null,
        "entry": 1195871,
        "entry_name": "Bowl of Rice",
        "event_total": 63,
        "has_played": true,
        "id": 8297775,
        "last_rank": 15164,
        "player_name": "Christie Ellis",
        "rank": 14545,
        "rank_sort": 14569,
        "total": 2389
      },
      {
        "club_badge_src": null,
        "entry": 1199020,
        "entry_name": "Isak is a scouser",
        "event_total": 44,
        "has_played": true,
        "id": 8320545,
        "last_rank": 8234,
        "player_name": "Louis Gallagher",
        "rank": 14545,
        "rank_sort": 14570,
        "total": 2389
      },
      {
        "club_badge_src": "https://fantasy.premierleague.com/gcs/plfpl-production-adobe-approved/plfpl-production/1208941/294a470e-eb76-406b-90ce-a008643409fe.png",
        "entry": 1208941,
        "entry_name": "Best Kept Secret XI",
        "event_total": 54,
        "has_played": true,
        "id": 8390687,
        "last_rank": 12470,
        "player_name": "Alex Thomas",
        "rank": 14545,
        "rank_sort": 14571,
        "total": 2389
      },
      {
        "club_badge_src": null,
        "entry": 1273253,
        "entry_name": "Yoro Wizard Harry",
        "event_total": 60,
        "has_played": true,
        "id": 8847071,
        "last_rank": 15694,
        "player_name": "Oliver Hanson",
        "rank": 14545,
        "rank_sort": 14572,
        "total": 2389
      },
      {
        "club_badge_src": null,
        "entry": 1580607,
        "entry_name": "Neby",
        "event_total": 69,
        "has_played": true,
        "id": 11045133,
        "last_rank": 22154,
        "player_name": "Adam Nebreda",
        "rank": 14545,
        "rank_sort": 14573,
        "total": 2389
      },
      {
        "club_badge_src": null,
        "entry": 1632889,
        "entry_name": "Cowabunga",
        "event_total": 63,
        "has_played": true,
        "id": 11429354,
        "last_rank": 17802,
        "player_name": "Alan Barker",
        "rank": 14545,
        "rank_sort": 14574,
        "total": 2389
      },
      {
        "club_badge_src": null,
        "entry": 1809092,
        "entry_name": "Shades of 66",
        "event_total": 77,
        "has_played": true,
        "id": 12718936,
        "last_rank": 29071,
        "player_name": "Joe L",
        "rank": 14545,
        "rank_sort": 14575,
        "total": 2389
      },
      {
        "club_badge_src": null,
        "entry": 2157195,
        "entry_name": "ROCKIN\u2019 N ROLLIN\u2019",
        "event_total": 56,
        "has_played": true,
        "id": 15334485,
        "last_rank": 11419,
        "player_name": "Matt --",
        "rank": 14545,
        "rank_sort": 14576,
        "total": 2389
      },
      {
        "club_badge_src": "https://fantasy.premierleague.com/gcs/plfpl-production-adobe-approved/plfpl-production/2364203/d571847d-4c0c-419e-807a-ae7028a49e43.png",
        "entry": 2364203,
        "entry_name": "GjoeAzkhaban",
        "event_total": 68,
        "has_played": true,
        "id": 16874825,
        "last_rank": 18270,
        "player_name": "fizzul ezul",
        "rank": 14545,
        "rank_sort": 14577,
        "total": 2389
      },
      {
        "club_badge_src": null,
        "entry": 2659963,
        "entry_name": "Under Onana",
        "event_total": 62,
        "has_played": true,
        "id": 19120870,
        "last_rank": 14604,
        "player_name": "@Shaikat @",
        "rank": 14545,
        "rank_sort": 14578,
        "total": 2389
      },
      {
        "club_badge_src": "https://fantasy.premierleague.com/gcs/plfpl-production-adobe-approved/plfpl-production/2806507/3b635cb3-9b98-402d-983e-a516e70d0b16.png",
        "entry": 2806507,
        "entry_name": "Stark FC",
        "event_total": 58,
        "has_played": true,
        "id": 20495781,
        "last_rank": 14668,
        "player_name": "Jon Snow",
        "rank": 14545,
        "rank_sort": 14579,
        "total": 2389
      },
      {
        "club_badge_src": null,
        "entry": 2998714,
        "entry_name": "Ronalds Crusaders",
        "event_total": 60,
        "has_played": true,
        "id": 22056372,
        "last_rank": 15876,
        "player_name": "James Luxton",
        "rank": 14545,
        "rank_sort": 14580,
        "total": 2389
      },
      {
        "club_badge_src": null,
        "entry": 3183102,
        "entry_name": "Sauce",
        "event_total": 66,
        "has_played": true,
        "id": 23522421,
        "last_rank": 17078,
        "player_name": "Abdul Sharif",
        "rank": 14545,
        "rank_sort": 14581,
        "total": 2389
      },
      {
        "club_badge_src": null,
        "entry": 3868652,
        "entry_name": "foden",
        "event_total": 37,
        "has_played": true,
        "id": 29015837,
        "last_rank": 5053,
        "player_name": "Joshua Stanly",
        "rank": 14545,
        "rank_sort": 14582,
        "total": 2389
      },
      {
        "club_badge_src": null,
        "entry": 4380995,
        "entry_name": "RG-Bargy",
        "event_total": 57,
        "has_played": true,
        "id": 33293151,
        "last_rank": 11821,
        "player_name": "Paul George",
        "rank": 14545,
        "rank_sort": 14583,
        "total": 2389
      },
      {
        "club_badge_src": null,
        "entry": 4386232,
        "entry_name": "FC Haugen",
        "event_total": 68,
        "has_played": true,
        "id": 33340403,
        "last_rank": 18377,
        "player_name": "Robin Haugen",
        "rank": 14545,
        "rank_sort": 14584,
        "total": 2389
      },
      {
        "club_badge_src": null,
        "entry": 5156161,
        "entry_name": "Only time will Tel",
        "event_total": 58,
        "has_played": true,
        "id": 39895516,
        "last_rank": 14604,
        "player_name": "Uwais Aziz",
        "rank": 14545,
        "rank_sort": 14585,
        "total": 2389
      },
      {
        "club_badge_src": null,
        "entry": 5525411,
        "entry_name": "Roll the Dyche",
        "event_total": 69,
        "has_played": true,
        "id": 43089949,
        "last_rank": 19103,
        "player_name": "Robert Leaver",
        "rank": 14545,
        "rank_sort": 14586,
        "total": 2389
      },
      {
        "club_badge_src": null,
        "entry": 5933214,
        "entry_name": "TOMKUNG FC",
        "event_total": 46,
        "has_played": true,
        "id": 46647322,
        "last_rank": 8977,
        "player_name": "Jirapong Mekwian",
        "rank": 14545,
        "rank_sort": 14587,
        "total": 2389
      },
      {
        "club_badge_src": null,
        "entry": 6121494,
        "entry_name": "Vinstgaranti",
        "event_total": 41,
        "has_played": true,
        "id": 48363181,
        "last_rank": 7237,
        "player_name": "Daniel Johansson",
        "rank": 14545,
        "rank_sort": 14588,
        "total": 2389
      },
      {
        "club_badge_src": null,
        "entry": 6690474,
        "entry_name": "Yoro Conda",
        "event_total": 57,
        "has_played": true,
        "id": 53525161,
        "last_rank": 14102,
        "player_name": "Robert Unwin",
        "rank": 14545,
        "rank_sort": 14589,
        "total": 2389
      },
      {
        "club_badge_src": null,
        "entry": 7646897,
        "entry_name": "billy",
        "event_total": 65,
        "has_played": true,
        "id": 62688542,
        "last_rank": 19176,
        "player_name": "Belal Mamdouh",
        "rank": 14545,
        "rank_sort": 14590,
        "total": 2389
      },
      {
        "club_badge_src": null,
        "entry": 7737980,
        "entry_name": "Bowen 747",
        "event_total": 64,
        "has_played": true,
        "id": 63512912,
        "last_rank": 18377,
        "player_name": "Jack Whitley-Wood",
        "rank": 14545,
        "rank_sort": 14591,
        "total": 2389
      },
      {
        "club_badge_src": null,
        "entry": 8093234,
        "entry_name": "ragingfireee",
        "event_total": 57,
        "has_played": true,
        "id": 66738120,
        "last_rank": 14040,
        "player_name": "Shawn Foo",
        "rank": 14545,
        "rank_sort": 14592,
        "total": 2389
      },
      {
        "club_badge_src": null,
        "entry": 8327825,
        "entry_name": "Australia",
        "event_total": 65,
        "has_played": true,
        "id": 68993760,
        "last_rank": 19176,
        "player_name": "Andrew Cav",
        "rank": 14545,
        "rank_sort": 14593,
        "total": 2389
      },
      {
        "club_badge_src": null,
        "entry": 1371,
        "entry_name": "SIMMOSKINGZ",
        "event_total": 65,
        "has_played": true,
        "id": 7621,
        "last_rank": 16512,
        "player_name": "Toby Simmonds",
        "rank": 14594,
        "rank_sort": 14594,
        "total": 2389
      },
      {
        "club_badge_src": null,
        "entry": 3429,
        "entry_name": "Toronto FC",
        "event_total": 73,
        "has_played": true,
        "id": 19421,
        "last_rank": 25436,
        "player_name": "Ahmed Abdi",
        "rank": 14594,
        "rank_sort": 14595,
        "total": 2389
      },
      {
        "club_badge_src": null,
        "entry": 7665,
        "entry_name": "FCRB",
        "event_total": 77,
        "has_played": true,
        "id": 44222,
        "last_rank": 25330,
        "player_name": "JAKE BRANDI",
        "rank": 14594,
        "rank_sort": 14596,
        "total": 2389
      },
      {
        "club_badge_src": null,
        "entry": 35338,
        "entry_name": "CSKA Roscow",
        "event_total": 66,
        "has_played": true,
        "id": 226124,
        "last_rank": 19966,
        "player_name": "Ross Cruickshanks",
        "rank": 14594,
        "rank_sort": 14597,
        "total": 2389
      },
      {
        "club_badge_src": "https://fantasy.premierleague.com/gcs/plfpl-production-adobe-approved/plfpl-production/126210/e443361d-4b2a-4c0d-a148-4a90140ce947.png",
        "entry": 126210,
        "entry_name": "Spartak Moyescow",
        "event_total": 79,
        "has_played": true,
        "id": 822985,
        "last_rank": 23656,
        "player_name": "Michael Hole",
        "rank": 14594,
        "rank_sort": 14598,
        "total": 2389
      },
      {
        "club_badge_src": null,
        "entry": 145635,
        "entry_name": "Rubenmetherightway",
        "event_total": 44,
        "has_played": true,
        "id": 953824,
        "last_rank": 8260,
        "player_name": "Saboor Hashmi",
        "rank": 14594,
        "rank_sort": 14599,
        "total": 2389
      },
      {
        "club_badge_src": "https://fantasy.premierleague.com/gcs/plfpl-production-adobe-approved/plfpl-production/169368/40edf43e-1d7b-4afd-8baa-7fcc9a45c0fb.png",
        "entry": 169368,
        "entry_name": "What's the Mateta?",
        "event_total": 61,
        "has_played": true,
        "id": 1119256,
        "last_rank": 11901,
        "player_name": "Benjamin Wile",
        "rank": 14594,
        "rank_sort": 14600,
        "total": 2389
      }
    ]
  }
}