{
  "last_updated_data": "2026-05-24T23:28:17Z",
  "league": {
    "admin_entry": null,
    "closed": false,
    "code_privacy": "p",
    "created": "2025-07-20T23:14:33.933835Z",
    "cup_league": 2815434,
    "has_cup": true,
    "id": 314,
    "league_type": "s",
    "max_entries": null,
    "name": "Overall",
    "rank": null,
    "scoring": "c",
    "start_event": 1
  },
  "new_entries": {
    "has_next": false,
    "page": 1,
    "results": []
  },
  "standings": {
    "has_next": true,
    "page": 1055,
    "results": [
      {
        "club_badge_src": null,
        "entry": 5244515,
        "entry_name": "Rash Decisions",
        "event_total": 58,
        "has_played": true,
        "id": 40644565,
        "last_rank": 54667,
        "player_name": "Olivia Berntsson",
        "rank": 52470,
        "rank_sort": 52701,
        "total": 2350
      },
      {
        "club_badge_src": null,
        "entry": 5370587,
        "entry_name": "Yaskovic",
        "event_total": 63,
        "has_played": true,
        "id": 41730367,
        "last_rank": 63390,
        "player_name": "Yasin Ahmed",
        "rank": 52470,
        "rank_sort": 52702,
        "total": 2350
      },
      {
        "club_badge_src": null,
        "entry": 5496034,
        "entry_name": "AOP9",
        "event_total": 44,
        "has_played": true,
        "id": 42813126,
        "last_rank": 35166,
        "player_name": "Otto Tuomolin",
        "rank": 52470,
        "rank_sort": 52703,
        "total": 2350
      },
      {
        "club_badge_src": null,
        "entry": 5512024,
        "entry_name": "Hallands puddings",
        "event_total": 72,
        "has_played": true,
        "id": 42965591,
        "last_rank": 82069,
        "player_name": "David Rhodes",
        "rank": 52470,
        "rank_sort": 52704,
        "total": 2350
      },
      {
        "club_badge_src": null,
        "entry": 5543264,
        "entry_name": "timEZdub",
        "event_total": 49,
        "has_played": true,
        "id": 43255948,
        "last_rank": 41324,
        "player_name": "Timothy Monigatti",
        "rank": 52470,
        "rank_sort": 52705,
        "total": 2350
      },
      {
        "club_badge_src": "https://fantasy.premierleague.com/gcs/plfpl-production-adobe-approved/plfpl-production/5642991/303ce28e-081a-41d6-80f9-1354b8f32158.png",
        "entry": 5642991,
        "entry_name": "Frimping Pong",
        "event_total": 61,
        "has_played": true,
        "id": 44133384,
        "last_rank": 59632,
        "player_name": "Aleksander Sell Teigland",
        "rank": 52470,
        "rank_sort": 52706,
        "total": 2350
      },
      {
        "club_badge_src": null,
        "entry": 5684516,
        "entry_name": "BerbaShow",
        "event_total": 58,
        "has_played": true,
        "id": 44495538,
        "last_rank": 54667,
        "player_name": "Markus Olsson",
        "rank": 52470,
        "rank_sort": 52707,
        "total": 2350
      },
      {
        "club_badge_src": null,
        "entry": 5701032,
        "entry_name": "Team Ben XXI",
        "event_total": 58,
        "has_played": true,
        "id": 44636789,
        "last_rank": 54667,
        "player_name": "Ben Kondic",
        "rank": 52470,
        "rank_sort": 52708,
        "total": 2350
      },
      {
        "club_badge_src": null,
        "entry": 5736209,
        "entry_name": "AB",
        "event_total": 66,
        "has_played": true,
        "id": 44941655,
        "last_rank": 68624,
        "player_name": "Anas Bendali",
        "rank": 52470,
        "rank_sort": 52709,
        "total": 2350
      },
      {
        "club_badge_src": "https://fantasy.premierleague.com/gcs/plfpl-production-adobe-approved/plfpl-production/5752443/a2533839-c8af-4d28-b799-5781129460c0.png",
        "entry": 5752443,
        "entry_name": "KTBFFH",
        "event_total": 53,
        "has_played": true,
        "id": 45086651,
        "last_rank": 46660,
        "player_name": "Alisher Akhmetkaliyev",
        "rank": 52470,
        "rank_sort": 52710,
        "total": 2350
      },
      {
        "club_badge_src": null,
        "entry": 5759236,
        "entry_name": "\u0160e\u0161ko Meal Deal",
        "event_total": 49,
        "has_played": true,
        "id": 45145706,
        "last_rank": 41162,
        "player_name": "Alex Wylie",
        "rank": 52470,
        "rank_sort": 52711,
        "total": 2350
      },
      {
        "club_badge_src": "https://fantasy.premierleague.com/gcs/plfpl-production-adobe-approved/plfpl-production/5773717/d669402e-cf47-42f3-ab49-9f484122a019.png",
        "entry": 5773717,
        "entry_name": "Lofoten United",
        "event_total": 51,
        "has_played": true,
        "id": 45268373,
        "last_rank": 44048,
        "player_name": "Werner Bakkejord",
        "rank": 52470,
        "rank_sort": 52712,
        "total": 2350
      },
      {
        "club_badge_src": null,
        "entry": 5814810,
        "entry_name": "Lees United",
        "event_total": 59,
        "has_played": true,
        "id": 45627642,
        "last_rank": 56369,
        "player_name": "Danny Lee",
        "rank": 52470,
        "rank_sort": 52713,
        "total": 2350
      },
      {
        "club_badge_src": null,
        "entry": 5861763,
        "entry_name": "New Man U",
        "event_total": 51,
        "has_played": true,
        "id": 46031738,
        "last_rank": 44048,
        "player_name": "Kathy Hoeweler",
        "rank": 52470,
        "rank_sort": 52714,
        "total": 2350
      },
      {
        "club_badge_src": null,
        "entry": 5922013,
        "entry_name": "Los Porro Hermanos",
        "event_total": 74,
        "has_played": true,
        "id": 46547546,
        "last_rank": 86054,
        "player_name": "Henry Taylor",
        "rank": 52470,
        "rank_sort": 52715,
        "total": 2350
      },
      {
        "club_badge_src": null,
        "entry": 6008735,
        "entry_name": "HaCunha Mateta",
        "event_total": 44,
        "has_played": true,
        "id": 47375535,
        "last_rank": 35166,
        "player_name": "diarmuid oleary",
        "rank": 52470,
        "rank_sort": 52716,
        "total": 2350
      },
      {
        "club_badge_src": null,
        "entry": 6008996,
        "entry_name": "Ocean's Eleven",
        "event_total": 61,
        "has_played": true,
        "id": 47377912,
        "last_rank": 59813,
        "player_name": "Mark Aziakou",
        "rank": 52470,
        "rank_sort": 52717,
        "total": 2350
      },
      {
        "club_badge_src": null,
        "entry": 6103932,
        "entry_name": "Jessie LingTard",
        "event_total": 61,
        "has_played": true,
        "id": 48210271,
        "last_rank": 59813,
        "player_name": "Jessica Cooper",
        "rank": 52470,
        "rank_sort": 52718,
        "total": 2350
      },
      {
        "club_badge_src": null,
        "entry": 6170887,
        "entry_name": "Di Canio Believe It",
        "event_total": 56,
        "has_played": true,
        "id": 48793514,
        "last_rank": 51403,
        "player_name": "Clive Robinson",
        "rank": 52470,
        "rank_sort": 52719,
        "total": 2350
      },
      {
        "club_badge_src": null,
        "entry": 6265050,
        "entry_name": "Fc MS",
        "event_total": 51,
        "has_played": true,
        "id": 49606941,
        "last_rank": 44048,
        "player_name": "Mariusz Slonski",
        "rank": 52470,
        "rank_sort": 52720,
        "total": 2350
      },
      {
        "club_badge_src": null,
        "entry": 6270624,
        "entry_name": "Lucky by Design",
        "event_total": 57,
        "has_played": true,
        "id": 49654037,
        "last_rank": 53023,
        "player_name": "Vegard \u00d8stlie",
        "rank": 52470,
        "rank_sort": 52721,
        "total": 2350
      },
      {
        "club_badge_src": null,
        "entry": 6271167,
        "entry_name": "Bowen Arrows",
        "event_total": 70,
        "has_played": true,
        "id": 49658504,
        "last_rank": 76947,
        "player_name": "S Peacock",
        "rank": 52470,
        "rank_sort": 52722,
        "total": 2350
      },
      {
        "club_badge_src": null,
        "entry": 6322041,
        "entry_name": "Los Pollos Hermanos",
        "event_total": 56,
        "has_played": true,
        "id": 50207980,
        "last_rank": 51220,
        "player_name": "Sydney Mwendwa",
        "rank": 52470,
        "rank_sort": 52723,
        "total": 2350
      },
      {
        "club_badge_src": null,
        "entry": 6382383,
        "entry_name": "Unsalted Peanuts",
        "event_total": 75,
        "has_played": true,
        "id": 50763841,
        "last_rank": 88185,
        "player_name": "Piotr Stepien",
        "rank": 52470,
        "rank_sort": 52724,
        "total": 2350
      },
      {
        "club_badge_src": null,
        "entry": 6405883,
        "entry_name": "MerseyJoe",
        "event_total": 63,
        "has_played": true,
        "id": 50971460,
        "last_rank": 63201,
        "player_name": "Halim Joe",
        "rank": 52470,
        "rank_sort": 52725,
        "total": 2350
      },
      {
        "club_badge_src": null,
        "entry": 6493152,
        "entry_name": "Timsanity",
        "event_total": 65,
        "has_played": true,
        "id": 51761411,
        "last_rank": 66738,
        "player_name": "Tim Zak",
        "rank": 52470,
        "rank_sort": 52726,
        "total": 2350
      },
      {
        "club_badge_src": "https://fantasy.premierleague.com/gcs/plfpl-production-adobe-approved/plfpl-production/6531667/2166fcb1-3e7c-40a4-9f7b-267a0524147f.png",
        "entry": 6531667,
        "entry_name": "warya nation",
        "event_total": 66,
        "has_played": true,
        "id": 52103834,
        "last_rank": 68957,
        "player_name": "Khalid Ali",
        "rank": 52470,
        "rank_sort": 52727,
        "total": 2350
      },
      {
        "club_badge_src": null,
        "entry": 6585440,
        "entry_name": "rana",
        "event_total": 71,
        "has_played": true,
        "id": 52591568,
        "last_rank": 79817,
        "player_name": "Rana Osama",
        "rank": 52470,
        "rank_sort": 52728,
        "total": 2350
      },
      {
        "club_badge_src": null,
        "entry": 6734438,
        "entry_name": "Turner10",
        "event_total": 54,
        "has_played": true,
        "id": 53904464,
        "last_rank": 48197,
        "player_name": "Matt Turner",
        "rank": 52470,
        "rank_sort": 52729,
        "total": 2350
      },
      {
        "club_badge_src": null,
        "entry": 6813794,
        "entry_name": "Wirtz Case Scenario",
        "event_total": 69,
        "has_played": true,
        "id": 54569912,
        "last_rank": 74741,
        "player_name": "John Hamill",
        "rank": 52470,
        "rank_sort": 52730,
        "total": 2350
      },
      {
        "club_badge_src": null,
        "entry": 6859974,
        "entry_name": "Just One Saint",
        "event_total": 54,
        "has_played": true,
        "id": 54964696,
        "last_rank": 48197,
        "player_name": "James Wallis",
        "rank": 52470,
        "rank_sort": 52731,
        "total": 2350
      },
      {
        "club_badge_src": null,
        "entry": 7075611,
        "entry_name": "DAS_Boat_Gehasp",
        "event_total": 50,
        "has_played": true,
        "id": 56942124,
        "last_rank": 42506,
        "player_name": "Marius Kiersgaard",
        "rank": 52470,
        "rank_sort": 52732,
        "total": 2350
      },
      {
        "club_badge_src": null,
        "entry": 7138685,
        "entry_name": "Stranger Mings",
        "event_total": 64,
        "has_played": true,
        "id": 57542842,
        "last_rank": 64830,
        "player_name": "Dean Pettit",
        "rank": 52470,
        "rank_sort": 52733,
        "total": 2350
      },
      {
        "club_badge_src": null,
        "entry": 7178344,
        "entry_name": "Amadness",
        "event_total": 79,
        "has_played": true,
        "id": 57930785,
        "last_rank": 98183,
        "player_name": "Alex Wu",
        "rank": 52470,
        "rank_sort": 52734,
        "total": 2350
      },
      {
        "club_badge_src": null,
        "entry": 7224646,
        "entry_name": "Joao Pedders",
        "event_total": 48,
        "has_played": true,
        "id": 58365544,
        "last_rank": 40297,
        "player_name": "Justin Lee",
        "rank": 52470,
        "rank_sort": 52735,
        "total": 2350
      },
      {
        "club_badge_src": null,
        "entry": 7233658,
        "entry_name": "Lidiq Otbor 2",
        "event_total": 51,
        "has_played": true,
        "id": 58449070,
        "last_rank": 44048,
        "player_name": "Ludia Chovek",
        "rank": 52470,
        "rank_sort": 52736,
        "total": 2350
      },
      {
        "club_badge_src": null,
        "entry": 7324180,
        "entry_name": "KUN",
        "event_total": 62,
        "has_played": true,
        "id": 59303519,
        "last_rank": 61606,
        "player_name": "Ulan Kalbekov",
        "rank": 52470,
        "rank_sort": 52737,
        "total": 2350
      },
      {
        "club_badge_src": null,
        "entry": 7325047,
        "entry_name": "FiftyShadesOfSeier",
        "event_total": 43,
        "has_played": true,
        "id": 59311508,
        "last_rank": 34051,
        "player_name": "Kamilla Molokken",
        "rank": 52470,
        "rank_sort": 52738,
        "total": 2350
      },
      {
        "club_badge_src": null,
        "entry": 7341486,
        "entry_name": "Whitey's Wanderers",
        "event_total": 70,
        "has_played": true,
        "id": 59465771,
        "last_rank": 77050,
        "player_name": "Mike White",
        "rank": 52470,
        "rank_sort": 52739,
        "total": 2350
      },
      {
        "club_badge_src": null,
        "entry": 7437693,
        "entry_name": "Abu Ibrahim",
        "event_total": 57,
        "has_played": true,
        "id": 60472253,
        "last_rank": 52853,
        "player_name": "Abdullah Ibrahim",
        "rank": 52470,
        "rank_sort": 52740,
        "total": 2350
      },
      {
        "club_badge_src": null,
        "entry": 7565600,
        "entry_name": "Freebong",
        "event_total": 72,
        "has_played": true,
        "id": 61952584,
        "last_rank": 81646,
        "player_name": "Stephanos Stephanides",
        "rank": 52470,
        "rank_sort": 52741,
        "total": 2350
      },
      {
        "club_badge_src": null,
        "entry": 7621640,
        "entry_name": "Alisson Wonderland",
        "event_total": 61,
        "has_played": true,
        "id": 62461496,
        "last_rank": 59813,
        "player_name": "Yojana Somchand",
        "rank": 52470,
        "rank_sort": 52742,
        "total": 2350
      },
      {
        "club_badge_src": null,
        "entry": 7626360,
        "entry_name": "r\u00f6kareuppir\u00f6karn FF",
        "event_total": 64,
        "has_played": true,
        "id": 62503456,
        "last_rank": 65163,
        "player_name": "Vidar Sandstr\u00f6m",
        "rank": 52470,
        "rank_sort": 52743,
        "total": 2350
      },
      {
        "club_badge_src": null,
        "entry": 7775400,
        "entry_name": "Shortstaff FC",
        "event_total": 53,
        "has_played": true,
        "id": 63851394,
        "last_rank": 47163,
        "player_name": "Sammar Naseer",
        "rank": 52470,
        "rank_sort": 52744,
        "total": 2350
      },
      {
        "club_badge_src": null,
        "entry": 7810667,
        "entry_name": "Newcastle Xamax",
        "event_total": 77,
        "has_played": true,
        "id": 64169648,
        "last_rank": 83584,
        "player_name": "Ivana Devincenti",
        "rank": 52470,
        "rank_sort": 52745,
        "total": 2350
      },
      {
        "club_badge_src": null,
        "entry": 7847842,
        "entry_name": "DC United",
        "event_total": 54,
        "has_played": true,
        "id": 64512045,
        "last_rank": 48363,
        "player_name": "Daniel Collin",
        "rank": 52470,
        "rank_sort": 52746,
        "total": 2350
      },
      {
        "club_badge_src": null,
        "entry": 8031007,
        "entry_name": "RumbleBot",
        "event_total": 63,
        "has_played": true,
        "id": 66164648,
        "last_rank": 63390,
        "player_name": "Ad Bayu",
        "rank": 52470,
        "rank_sort": 52747,
        "total": 2350
      },
      {
        "club_badge_src": null,
        "entry": 8215763,
        "entry_name": "Botman Forever",
        "event_total": 37,
        "has_played": true,
        "id": 67890754,
        "last_rank": 27770,
        "player_name": "Chris Caygill",
        "rank": 52470,
        "rank_sort": 52748,
        "total": 2350
      },
      {
        "club_badge_src": null,
        "entry": 8398954,
        "entry_name": "Carry on Cam Pring",
        "event_total": 47,
        "has_played": true,
        "id": 69668121,
        "last_rank": 38774,
        "player_name": "Nick Rood",
        "rank": 52470,
        "rank_sort": 52749,
        "total": 2350
      },
      {
        "club_badge_src": null,
        "entry": 8512274,
        "entry_name": "Trastvik FFA reserve",
        "event_total": 56,
        "has_played": true,
        "id": 70756783,
        "last_rank": 51403,
        "player_name": "Olli Luoto",
        "rank": 52470,
        "rank_sort": 52750,
        "total": 2350
      }
    ]
  }
}