{
  "last_updated_data": "2026-05-24T23:28:17Z",
  "league": {
    "admin_entry": null,
    "closed": false,
    "code_privacy": "p",
    "created": "2025-07-20T23:14:33.933835Z",
    "cup_league": 2815434,
    "has_cup": true,
    "id": 314,
    "league_type": "s",
    "max_entries": null,
    "name": "Overall",
    "rank": null,
    "scoring": "c",
    "start_event": 1
  },
  "new_entries": {
    "has_next": false,
    "page": 1,
    "results": []
  },
  "standings": {
    "has_next": true,
    "page": 1100,
    "results": [
      {
        "club_badge_src": null,
        "entry": 2025698,
        "entry_name": "Sk\u00e4ssss",
        "event_total": 72,
        "has_played": true,
        "id": 14338383,
        "last_rank": 75874,
        "player_name": "noah hammarling",
        "rank": 54848,
        "rank_sort": 54951,
        "total": 2349
      },
      {
        "club_badge_src": null,
        "entry": 2036837,
        "entry_name": "wolf",
        "event_total": 96,
        "has_played": true,
        "id": 14422790,
        "last_rank": 139917,
        "player_name": "Basil Alazmi",
        "rank": 54848,
        "rank_sort": 54952,
        "total": 2349
      },
      {
        "club_badge_src": null,
        "entry": 2082544,
        "entry_name": "Prap FC",
        "event_total": 56,
        "has_played": true,
        "id": 14772342,
        "last_rank": 53837,
        "player_name": "Ril Isa",
        "rank": 54848,
        "rank_sort": 54953,
        "total": 2349
      },
      {
        "club_badge_src": null,
        "entry": 2091345,
        "entry_name": "No More Mr Rice Kai",
        "event_total": 47,
        "has_played": true,
        "id": 14837962,
        "last_rank": 40647,
        "player_name": "Joe Gaddarn",
        "rank": 54848,
        "rank_sort": 54954,
        "total": 2349
      },
      {
        "club_badge_src": null,
        "entry": 2138089,
        "entry_name": "Taraji",
        "event_total": 44,
        "has_played": true,
        "id": 15195164,
        "last_rank": 36963,
        "player_name": "Elyes Benguiza",
        "rank": 54848,
        "rank_sort": 54955,
        "total": 2349
      },
      {
        "club_badge_src": null,
        "entry": 2242407,
        "entry_name": "Viva Las Villa",
        "event_total": 55,
        "has_played": true,
        "id": 15975873,
        "last_rank": 45927,
        "player_name": "Ben Howman",
        "rank": 54848,
        "rank_sort": 54956,
        "total": 2349
      },
      {
        "club_badge_src": null,
        "entry": 2399500,
        "entry_name": "Citizen",
        "event_total": 68,
        "has_played": true,
        "id": 17149372,
        "last_rank": 76128,
        "player_name": "Zizo Khedr",
        "rank": 54848,
        "rank_sort": 54957,
        "total": 2349
      },
      {
        "club_badge_src": "https://fantasy.premierleague.com/gcs/plfpl-production-adobe-approved/plfpl-production/2417512/03cb5039-ce76-459b-81f9-994487ffd7c9.png",
        "entry": 2417512,
        "entry_name": "BarD Zooka",
        "event_total": 56,
        "has_played": true,
        "id": 17282019,
        "last_rank": 53621,
        "player_name": "Ah Bard",
        "rank": 54848,
        "rank_sort": 54958,
        "total": 2349
      },
      {
        "club_badge_src": null,
        "entry": 2433505,
        "entry_name": "P\u00f8blikk Oppvekst",
        "event_total": 54,
        "has_played": true,
        "id": 17401786,
        "last_rank": 44525,
        "player_name": "Hege Mossige",
        "rank": 54848,
        "rank_sort": 54959,
        "total": 2349
      },
      {
        "club_badge_src": "https://fantasy.premierleague.com/gcs/plfpl-production-adobe-approved/plfpl-production/2440196/e60e7152-d35b-49f7-9df4-018d57d0df02.png",
        "entry": 2440196,
        "entry_name": "The Red Nevilles",
        "event_total": 56,
        "has_played": true,
        "id": 17451304,
        "last_rank": 53837,
        "player_name": "Scott Goody",
        "rank": 54848,
        "rank_sort": 54960,
        "total": 2349
      },
      {
        "club_badge_src": null,
        "entry": 2475876,
        "entry_name": "Box to Box Defenders",
        "event_total": 55,
        "has_played": true,
        "id": 17713907,
        "last_rank": 45927,
        "player_name": "Ardi Janjeva",
        "rank": 54848,
        "rank_sort": 54961,
        "total": 2349
      },
      {
        "club_badge_src": null,
        "entry": 2499795,
        "entry_name": "ROCCO",
        "event_total": 54,
        "has_played": true,
        "id": 17898506,
        "last_rank": 50635,
        "player_name": "Adeg Josh",
        "rank": 54848,
        "rank_sort": 54962,
        "total": 2349
      },
      {
        "club_badge_src": "https://fantasy.premierleague.com/gcs/plfpl-production-adobe-approved/plfpl-production/2605286/1c82daa9-4ca3-4a4c-bb1a-a7ac87b39682.png",
        "entry": 2605286,
        "entry_name": "Matipisred",
        "event_total": 37,
        "has_played": true,
        "id": 18714138,
        "last_rank": 29199,
        "player_name": "Ben Jordan",
        "rank": 54848,
        "rank_sort": 54963,
        "total": 2349
      },
      {
        "club_badge_src": null,
        "entry": 2623234,
        "entry_name": "XI",
        "event_total": 68,
        "has_played": true,
        "id": 18849625,
        "last_rank": 76330,
        "player_name": "Logan Mckay-Chambers",
        "rank": 54848,
        "rank_sort": 54964,
        "total": 2349
      },
      {
        "club_badge_src": null,
        "entry": 2745641,
        "entry_name": "Wile E. Kayode",
        "event_total": 41,
        "has_played": true,
        "id": 19873038,
        "last_rank": 33332,
        "player_name": "Tim Ramsey",
        "rank": 54848,
        "rank_sort": 54965,
        "total": 2349
      },
      {
        "club_badge_src": "https://fantasy.premierleague.com/gcs/plfpl-production-adobe-approved/plfpl-production/2760944/a7bb0d1d-561a-4c56-91c4-e486e6740226.png",
        "entry": 2760944,
        "entry_name": "ARSKA",
        "event_total": 49,
        "has_played": true,
        "id": 20141922,
        "last_rank": 43342,
        "player_name": "Stanislav Erev",
        "rank": 54848,
        "rank_sort": 54966,
        "total": 2349
      },
      {
        "club_badge_src": null,
        "entry": 2779396,
        "entry_name": "Eto'o tre fire",
        "event_total": 68,
        "has_played": true,
        "id": 20284845,
        "last_rank": 75874,
        "player_name": "Leo Graff Giebel",
        "rank": 54848,
        "rank_sort": 54967,
        "total": 2349
      },
      {
        "club_badge_src": null,
        "entry": 2905297,
        "entry_name": "Ayoub HD",
        "event_total": 66,
        "has_played": true,
        "id": 21291817,
        "last_rank": 71713,
        "player_name": "Ayoub Jbilou Elhaddad",
        "rank": 54848,
        "rank_sort": 54968,
        "total": 2349
      },
      {
        "club_badge_src": null,
        "entry": 2929819,
        "entry_name": "FC N.W.A.",
        "event_total": 52,
        "has_played": true,
        "id": 21480315,
        "last_rank": 47596,
        "player_name": "Nabil Munir",
        "rank": 54848,
        "rank_sort": 54969,
        "total": 2349
      },
      {
        "club_badge_src": null,
        "entry": 2949198,
        "entry_name": "Saracens",
        "event_total": 49,
        "has_played": true,
        "id": 21659208,
        "last_rank": 43342,
        "player_name": "Richard Massey",
        "rank": 54848,
        "rank_sort": 54970,
        "total": 2349
      },
      {
        "club_badge_src": null,
        "entry": 2949826,
        "entry_name": "citizen",
        "event_total": 55,
        "has_played": true,
        "id": 21663897,
        "last_rank": 52205,
        "player_name": "Avibu Zhotso",
        "rank": 54848,
        "rank_sort": 54971,
        "total": 2349
      },
      {
        "club_badge_src": null,
        "entry": 2968022,
        "entry_name": "Sa3eed",
        "event_total": 64,
        "has_played": true,
        "id": 21805828,
        "last_rank": 53345,
        "player_name": "Mohamed Hussein",
        "rank": 54848,
        "rank_sort": 54972,
        "total": 2349
      },
      {
        "club_badge_src": null,
        "entry": 3098618,
        "entry_name": "Raw Melody Men",
        "event_total": 62,
        "has_played": true,
        "id": 22842586,
        "last_rank": 64190,
        "player_name": "Andrew Campbell",
        "rank": 54848,
        "rank_sort": 54973,
        "total": 2349
      },
      {
        "club_badge_src": null,
        "entry": 3143432,
        "entry_name": "De Gea Bar",
        "event_total": 60,
        "has_played": true,
        "id": 23208434,
        "last_rank": 60462,
        "player_name": "Alex Oddy",
        "rank": 54848,
        "rank_sort": 54974,
        "total": 2349
      },
      {
        "club_badge_src": null,
        "entry": 3307990,
        "entry_name": "crab chain",
        "event_total": 49,
        "has_played": true,
        "id": 24505143,
        "last_rank": 42940,
        "player_name": "freed bychains",
        "rank": 54848,
        "rank_sort": 54975,
        "total": 2349
      },
      {
        "club_badge_src": "https://fantasy.premierleague.com/gcs/plfpl-production-adobe-approved/plfpl-production/3311729/e8eeb1b9-27e0-4af9-836d-fb5f0fae5b8e.png",
        "entry": 3311729,
        "entry_name": "OB",
        "event_total": 61,
        "has_played": true,
        "id": 24536294,
        "last_rank": 62429,
        "player_name": "Olivier Braunschweig",
        "rank": 54848,
        "rank_sort": 54976,
        "total": 2349
      },
      {
        "club_badge_src": null,
        "entry": 3364534,
        "entry_name": "Its Haaland Again",
        "event_total": 49,
        "has_played": true,
        "id": 24966055,
        "last_rank": 43342,
        "player_name": "Craig Shand",
        "rank": 54848,
        "rank_sort": 54977,
        "total": 2349
      },
      {
        "club_badge_src": null,
        "entry": 3410733,
        "entry_name": "El'hettak team31",
        "event_total": 60,
        "has_played": true,
        "id": 25329855,
        "last_rank": 60462,
        "player_name": "Elhettak Mohamed",
        "rank": 54848,
        "rank_sort": 54978,
        "total": 2349
      },
      {
        "club_badge_src": null,
        "entry": 3459713,
        "entry_name": "Rufus Rovers",
        "event_total": 48,
        "has_played": true,
        "id": 25716162,
        "last_rank": 31995,
        "player_name": "Stefan Borge",
        "rank": 54848,
        "rank_sort": 54979,
        "total": 2349
      },
      {
        "club_badge_src": null,
        "entry": 3584656,
        "entry_name": "Red Bull Otley",
        "event_total": 51,
        "has_played": true,
        "id": 26695234,
        "last_rank": 40503,
        "player_name": "Simon Budd",
        "rank": 54848,
        "rank_sort": 54980,
        "total": 2349
      },
      {
        "club_badge_src": null,
        "entry": 3611169,
        "entry_name": "Tatakai",
        "event_total": 54,
        "has_played": true,
        "id": 26901188,
        "last_rank": 50468,
        "player_name": "Mohammed Alamri",
        "rank": 54848,
        "rank_sort": 54981,
        "total": 2349
      },
      {
        "club_badge_src": null,
        "entry": 3628773,
        "entry_name": "Av med allv\u00e6rsjakka",
        "event_total": 62,
        "has_played": true,
        "id": 27040293,
        "last_rank": 64190,
        "player_name": "Kenneth S\u00f8rlie",
        "rank": 54848,
        "rank_sort": 54982,
        "total": 2349
      },
      {
        "club_badge_src": null,
        "entry": 3790406,
        "entry_name": "zombies",
        "event_total": 44,
        "has_played": true,
        "id": 28320743,
        "last_rank": 32190,
        "player_name": "Vishal Patel",
        "rank": 54848,
        "rank_sort": 54983,
        "total": 2349
      },
      {
        "club_badge_src": null,
        "entry": 3797397,
        "entry_name": "Saudi-Fantasia",
        "event_total": 57,
        "has_played": true,
        "id": 28384619,
        "last_rank": 55514,
        "player_name": "Yves Berx",
        "rank": 54848,
        "rank_sort": 54984,
        "total": 2349
      },
      {
        "club_badge_src": null,
        "entry": 3815796,
        "entry_name": "Change Name",
        "event_total": 39,
        "has_played": true,
        "id": 28535271,
        "last_rank": 31125,
        "player_name": "Leon Kowalczyk",
        "rank": 54848,
        "rank_sort": 54985,
        "total": 2349
      },
      {
        "club_badge_src": null,
        "entry": 3906744,
        "entry_name": "El Maco",
        "event_total": 68,
        "has_played": true,
        "id": 29371070,
        "last_rank": 75874,
        "player_name": "Petteri Vaisanen",
        "rank": 54848,
        "rank_sort": 54986,
        "total": 2349
      },
      {
        "club_badge_src": null,
        "entry": 3946734,
        "entry_name": "Too Eze TM",
        "event_total": 68,
        "has_played": true,
        "id": 29690175,
        "last_rank": 76128,
        "player_name": "John Barton",
        "rank": 54848,
        "rank_sort": 54987,
        "total": 2349
      },
      {
        "club_badge_src": null,
        "entry": 4012702,
        "entry_name": "Mackitony",
        "event_total": 58,
        "has_played": true,
        "id": 30236595,
        "last_rank": 57200,
        "player_name": "Macanthony Okoh",
        "rank": 54848,
        "rank_sort": 54988,
        "total": 2349
      },
      {
        "club_badge_src": null,
        "entry": 4014827,
        "entry_name": "DillyDally FC",
        "event_total": 43,
        "has_played": true,
        "id": 30254698,
        "last_rank": 35867,
        "player_name": "Jim Dallywater",
        "rank": 54848,
        "rank_sort": 54989,
        "total": 2349
      },
      {
        "club_badge_src": null,
        "entry": 4031243,
        "entry_name": "JKJKJK",
        "event_total": 66,
        "has_played": true,
        "id": 30391115,
        "last_rank": 71956,
        "player_name": "Jack Kirwan",
        "rank": 54848,
        "rank_sort": 54990,
        "total": 2349
      },
      {
        "club_badge_src": "https://fantasy.premierleague.com/gcs/plfpl-production-adobe-approved/plfpl-production/4110966/4869e7a6-4ce8-4a73-b599-8d4e40da6f54.png",
        "entry": 4110966,
        "entry_name": "Kinder Mbeumo",
        "event_total": 59,
        "has_played": true,
        "id": 31046992,
        "last_rank": 51984,
        "player_name": "Larren Geary",
        "rank": 54848,
        "rank_sort": 54991,
        "total": 2349
      },
      {
        "club_badge_src": null,
        "entry": 4200800,
        "entry_name": "JB",
        "event_total": 64,
        "has_played": true,
        "id": 31798570,
        "last_rank": 67695,
        "player_name": "Joshua Butler",
        "rank": 54848,
        "rank_sort": 54992,
        "total": 2349
      },
      {
        "club_badge_src": null,
        "entry": 4260498,
        "entry_name": "Cosmopolitans",
        "event_total": 77,
        "has_played": true,
        "id": 32302866,
        "last_rank": 87074,
        "player_name": "Rebecca Spicer",
        "rank": 54848,
        "rank_sort": 54993,
        "total": 2349
      },
      {
        "club_badge_src": null,
        "entry": 4371190,
        "entry_name": "Arnie Slot Machine",
        "event_total": 58,
        "has_played": true,
        "id": 33208897,
        "last_rank": 57200,
        "player_name": "Marco Spadaccini",
        "rank": 54848,
        "rank_sort": 54994,
        "total": 2349
      },
      {
        "club_badge_src": null,
        "entry": 4376908,
        "entry_name": "Charlie's SeX-C-eX",
        "event_total": 49,
        "has_played": true,
        "id": 33258140,
        "last_rank": 43168,
        "player_name": "James Ward",
        "rank": 54848,
        "rank_sort": 54995,
        "total": 2349
      },
      {
        "club_badge_src": null,
        "entry": 4487834,
        "entry_name": "TrustTheProcess",
        "event_total": 52,
        "has_played": true,
        "id": 34206890,
        "last_rank": 41824,
        "player_name": "Chris Yap",
        "rank": 54848,
        "rank_sort": 54996,
        "total": 2349
      },
      {
        "club_badge_src": null,
        "entry": 4733003,
        "entry_name": "NAFC",
        "event_total": 37,
        "has_played": true,
        "id": 36414187,
        "last_rank": 29199,
        "player_name": "Andy Winnard",
        "rank": 54848,
        "rank_sort": 54997,
        "total": 2349
      },
      {
        "club_badge_src": null,
        "entry": 4872286,
        "entry_name": "Mbu EMO",
        "event_total": 73,
        "has_played": true,
        "id": 37556142,
        "last_rank": 86304,
        "player_name": "Jack Emerson",
        "rank": 54848,
        "rank_sort": 54998,
        "total": 2349
      },
      {
        "club_badge_src": null,
        "entry": 4925293,
        "entry_name": "Yougottabelieve",
        "event_total": 39,
        "has_played": true,
        "id": 37990841,
        "last_rank": 31236,
        "player_name": "Gunn Kristoffersen",
        "rank": 54848,
        "rank_sort": 54999,
        "total": 2349
      },
      {
        "club_badge_src": null,
        "entry": 4944125,
        "entry_name": "FC Morning Glory",
        "event_total": 37,
        "has_played": true,
        "id": 38148146,
        "last_rank": 25330,
        "player_name": "Pavle Cvitkovi\u0107",
        "rank": 54848,
        "rank_sort": 55000,
        "total": 2349
      }
    ]
  }
}