{
  "last_updated_data": "2026-05-24T23:28:17Z",
  "league": {
    "admin_entry": null,
    "closed": false,
    "code_privacy": "p",
    "created": "2025-07-20T23:14:33.933835Z",
    "cup_league": 2815434,
    "has_cup": true,
    "id": 314,
    "league_type": "s",
    "max_entries": null,
    "name": "Overall",
    "rank": null,
    "scoring": "c",
    "start_event": 1
  },
  "new_entries": {
    "has_next": false,
    "page": 1,
    "results": []
  },
  "standings": {
    "has_next": true,
    "page": 1420,
    "results": [
      {
        "club_badge_src": null,
        "entry": 5605565,
        "entry_name": "M.Fahiem  FC",
        "event_total": 68,
        "has_played": true,
        "id": 43804640,
        "last_rank": 97096,
        "player_name": "Mohamed Fahiem",
        "rank": 70836,
        "rank_sort": 70951,
        "total": 2340
      },
      {
        "club_badge_src": null,
        "entry": 5693930,
        "entry_name": "Viktorius Gyokorizz",
        "event_total": 59,
        "has_played": true,
        "id": 44575626,
        "last_rank": 76330,
        "player_name": "Grant Young",
        "rank": 70836,
        "rank_sort": 70952,
        "total": 2340
      },
      {
        "club_badge_src": null,
        "entry": 5721043,
        "entry_name": "PhantomoftheChopra",
        "event_total": 58,
        "has_played": true,
        "id": 44811768,
        "last_rank": 74166,
        "player_name": "Stuart Wylie",
        "rank": 70836,
        "rank_sort": 70953,
        "total": 2340
      },
      {
        "club_badge_src": null,
        "entry": 5824685,
        "entry_name": "Livramental",
        "event_total": 57,
        "has_played": true,
        "id": 45712683,
        "last_rank": 72145,
        "player_name": "George Temple",
        "rank": 70836,
        "rank_sort": 70954,
        "total": 2340
      },
      {
        "club_badge_src": null,
        "entry": 6026463,
        "entry_name": "M C",
        "event_total": 83,
        "has_played": true,
        "id": 47534323,
        "last_rank": 139335,
        "player_name": "M C",
        "rank": 70836,
        "rank_sort": 70955,
        "total": 2340
      },
      {
        "club_badge_src": null,
        "entry": 6049469,
        "entry_name": "sesko clubcard price",
        "event_total": 52,
        "has_played": true,
        "id": 47734858,
        "last_rank": 62617,
        "player_name": "a tamimi",
        "rank": 70836,
        "rank_sort": 70956,
        "total": 2340
      },
      {
        "club_badge_src": null,
        "entry": 6251631,
        "entry_name": "Ctrl Alt De Ligt",
        "event_total": 68,
        "has_played": true,
        "id": 49488915,
        "last_rank": 97305,
        "player_name": "Elias Kj\u00f8stvedt",
        "rank": 70836,
        "rank_sort": 70957,
        "total": 2340
      },
      {
        "club_badge_src": "https://fantasy.premierleague.com/gcs/plfpl-production-adobe-approved/plfpl-production/6344895/34ed250b-474e-4f39-97cf-d8a8a45249b4.png",
        "entry": 6344895,
        "entry_name": "FPL Alex",
        "event_total": 48,
        "has_played": true,
        "id": 50433404,
        "last_rank": 55659,
        "player_name": "Aleksandar Danev",
        "rank": 70836,
        "rank_sort": 70958,
        "total": 2340
      },
      {
        "club_badge_src": "https://fantasy.premierleague.com/gcs/plfpl-production-adobe-approved/plfpl-production/6479091/fa2442f0-f8f5-42da-b6e2-d26a82fc45c3.png",
        "entry": 6479091,
        "entry_name": "Slabhead United",
        "event_total": 50,
        "has_played": true,
        "id": 51637280,
        "last_rank": 59077,
        "player_name": "Eddy Welsh",
        "rank": 70836,
        "rank_sort": 70959,
        "total": 2340
      },
      {
        "club_badge_src": null,
        "entry": 6520586,
        "entry_name": "Wataru Hoping For?",
        "event_total": 72,
        "has_played": true,
        "id": 52005161,
        "last_rank": 107702,
        "player_name": "Adam Lawton",
        "rank": 70836,
        "rank_sort": 70960,
        "total": 2340
      },
      {
        "club_badge_src": "https://fantasy.premierleague.com/gcs/plfpl-production-adobe-approved/plfpl-production/6711211/913b1eaf-5cab-448e-b965-1da7f04c6e1c.png",
        "entry": 6711211,
        "entry_name": "Ossie's Dreamspurs",
        "event_total": 65,
        "has_played": true,
        "id": 53707851,
        "last_rank": 89897,
        "player_name": "charlie ball",
        "rank": 70836,
        "rank_sort": 70961,
        "total": 2340
      },
      {
        "club_badge_src": null,
        "entry": 7200698,
        "entry_name": "Ctrl + Alt + Defeat",
        "event_total": 54,
        "has_played": true,
        "id": 58138582,
        "last_rank": 58911,
        "player_name": "Jake Lawrie",
        "rank": 70836,
        "rank_sort": 70962,
        "total": 2340
      },
      {
        "club_badge_src": "https://fantasy.premierleague.com/gcs/plfpl-production-adobe-approved/plfpl-production/7404782/94448e61-c319-4176-8767-1d2ffef104fb.png",
        "entry": 7404782,
        "entry_name": "How I Met Your Mata",
        "event_total": 59,
        "has_played": true,
        "id": 60058421,
        "last_rank": 76128,
        "player_name": "Dylan McLaren",
        "rank": 70836,
        "rank_sort": 70963,
        "total": 2340
      },
      {
        "club_badge_src": null,
        "entry": 7500294,
        "entry_name": "Ederson Volleys",
        "event_total": 66,
        "has_played": true,
        "id": 61282046,
        "last_rank": 92332,
        "player_name": "Freddie Clarke",
        "rank": 70836,
        "rank_sort": 70964,
        "total": 2340
      },
      {
        "club_badge_src": null,
        "entry": 7569315,
        "entry_name": "Give Me Back My Son",
        "event_total": 68,
        "has_played": true,
        "id": 61986059,
        "last_rank": 97096,
        "player_name": "Tom Lakin",
        "rank": 70836,
        "rank_sort": 70965,
        "total": 2340
      },
      {
        "club_badge_src": null,
        "entry": 8443106,
        "entry_name": "\u4e4c\u5409\u516b\u4e25\u9009",
        "event_total": 67,
        "has_played": true,
        "id": 70088819,
        "last_rank": 94778,
        "player_name": "Angus Shi",
        "rank": 70836,
        "rank_sort": 70966,
        "total": 2340
      },
      {
        "club_badge_src": null,
        "entry": 8572020,
        "entry_name": "D Dark Knight Rises",
        "event_total": 66,
        "has_played": true,
        "id": 71329592,
        "last_rank": 92332,
        "player_name": "Ger O Callaghan",
        "rank": 70836,
        "rank_sort": 70967,
        "total": 2340
      },
      {
        "club_badge_src": null,
        "entry": 8706006,
        "entry_name": "\u0627\u0644\u0643\u062a\u064a\u0628\u0629 \u0627\u0644\u0633\u0627\u0628\u0639\u0629",
        "event_total": 74,
        "has_played": true,
        "id": 72636944,
        "last_rank": 112591,
        "player_name": "Ibrahim hagag",
        "rank": 70836,
        "rank_sort": 70968,
        "total": 2340
      },
      {
        "club_badge_src": null,
        "entry": 9108445,
        "entry_name": "\u017dena od Sultana",
        "event_total": 59,
        "has_played": true,
        "id": 76534310,
        "last_rank": 67926,
        "player_name": "Charles Ionesco",
        "rank": 70836,
        "rank_sort": 70969,
        "total": 2340
      },
      {
        "club_badge_src": "https://fantasy.premierleague.com/gcs/plfpl-production-adobe-approved/plfpl-production/1717/f0c2e875-433f-4512-ae49-0541bcacfaa5.png",
        "entry": 1717,
        "entry_name": "Could be Wirtz",
        "event_total": 64,
        "has_played": true,
        "id": 9555,
        "last_rank": 78440,
        "player_name": "Jaco Swanepoel",
        "rank": 70970,
        "rank_sort": 70970,
        "total": 2340
      },
      {
        "club_badge_src": null,
        "entry": 14008,
        "entry_name": "FC Lexusinn",
        "event_total": 59,
        "has_played": true,
        "id": 84871,
        "last_rank": 67926,
        "player_name": "Alexander Gunnarsson",
        "rank": 70970,
        "rank_sort": 70971,
        "total": 2340
      },
      {
        "club_badge_src": null,
        "entry": 24714,
        "entry_name": "Ahmad FC",
        "event_total": 68,
        "has_played": true,
        "id": 156051,
        "last_rank": 78244,
        "player_name": "Ahmad Busaleh",
        "rank": 70970,
        "rank_sort": 70972,
        "total": 2340
      },
      {
        "club_badge_src": null,
        "entry": 42656,
        "entry_name": "Omen Away",
        "event_total": 51,
        "has_played": true,
        "id": 273268,
        "last_rank": 60827,
        "player_name": "Damian Manley",
        "rank": 70970,
        "rank_sort": 70973,
        "total": 2340
      },
      {
        "club_badge_src": null,
        "entry": 60551,
        "entry_name": "Bayern Neverl\u00f6sen",
        "event_total": 59,
        "has_played": true,
        "id": 389848,
        "last_rank": 60671,
        "player_name": "Jonathan Kearns",
        "rank": 70970,
        "rank_sort": 70974,
        "total": 2340
      },
      {
        "club_badge_src": null,
        "entry": 64196,
        "entry_name": "All By Myself",
        "event_total": 64,
        "has_played": true,
        "id": 414316,
        "last_rank": 78440,
        "player_name": "Ian Horsley",
        "rank": 70970,
        "rank_sort": 70975,
        "total": 2340
      },
      {
        "club_badge_src": "https://fantasy.premierleague.com/gcs/plfpl-production-adobe-approved/plfpl-production/68263/32a2f47e-5dbd-44ab-a4e1-9c4c1606f016.png",
        "entry": 68263,
        "entry_name": "Serious Lynx United",
        "event_total": 69,
        "has_played": true,
        "id": 442269,
        "last_rank": 99959,
        "player_name": "Bauyrzhan Bektayev",
        "rank": 70970,
        "rank_sort": 70976,
        "total": 2340
      },
      {
        "club_badge_src": null,
        "entry": 96973,
        "entry_name": "Vival'AlgerieFardean",
        "event_total": 68,
        "has_played": true,
        "id": 633427,
        "last_rank": 78244,
        "player_name": "Fardean Lombat",
        "rank": 70970,
        "rank_sort": 70977,
        "total": 2340
      },
      {
        "club_badge_src": null,
        "entry": 105022,
        "entry_name": "My Little Kone",
        "event_total": 63,
        "has_played": true,
        "id": 685011,
        "last_rank": 85349,
        "player_name": "Daniel Geiger",
        "rank": 70970,
        "rank_sort": 70978,
        "total": 2340
      },
      {
        "club_badge_src": null,
        "entry": 108462,
        "entry_name": "Mostafa Elzakir",
        "event_total": 63,
        "has_played": true,
        "id": 707141,
        "last_rank": 85207,
        "player_name": "Mostafa Elzakir",
        "rank": 70970,
        "rank_sort": 70979,
        "total": 2340
      },
      {
        "club_badge_src": null,
        "entry": 108827,
        "entry_name": "InwPope168",
        "event_total": 56,
        "has_played": true,
        "id": 709495,
        "last_rank": 55514,
        "player_name": "Pope Terachai",
        "rank": 70970,
        "rank_sort": 70980,
        "total": 2340
      },
      {
        "club_badge_src": null,
        "entry": 134130,
        "entry_name": "Pond Liverpool",
        "event_total": 43,
        "has_played": true,
        "id": 873578,
        "last_rank": 47812,
        "player_name": "Komsan Laiket",
        "rank": 70970,
        "rank_sort": 70981,
        "total": 2340
      },
      {
        "club_badge_src": null,
        "entry": 167053,
        "entry_name": "Fartin DoobieMandy",
        "event_total": 37,
        "has_played": true,
        "id": 1104067,
        "last_rank": 39510,
        "player_name": "Thomas Richardson",
        "rank": 70970,
        "rank_sort": 70982,
        "total": 2340
      },
      {
        "club_badge_src": "https://fantasy.premierleague.com/gcs/plfpl-production-adobe-approved/plfpl-production/187727/7ee99070-9646-4cbe-8ddd-65701cf5919f.png",
        "entry": 187727,
        "entry_name": "Grendale utd",
        "event_total": 58,
        "has_played": true,
        "id": 1241489,
        "last_rank": 74166,
        "player_name": "Andrew smith",
        "rank": 70970,
        "rank_sort": 70983,
        "total": 2340
      },
      {
        "club_badge_src": null,
        "entry": 202357,
        "entry_name": "Abuedrees FC",
        "event_total": 62,
        "has_played": true,
        "id": 1343816,
        "last_rank": 74166,
        "player_name": "Ali Abuedrees",
        "rank": 70970,
        "rank_sort": 70984,
        "total": 2340
      },
      {
        "club_badge_src": null,
        "entry": 206653,
        "entry_name": "GGMU",
        "event_total": 55,
        "has_played": true,
        "id": 1373514,
        "last_rank": 68216,
        "player_name": "Som Gurung",
        "rank": 70970,
        "rank_sort": 70985,
        "total": 2340
      },
      {
        "club_badge_src": null,
        "entry": 263383,
        "entry_name": "Mainoo Hope Left",
        "event_total": 68,
        "has_played": true,
        "id": 1751215,
        "last_rank": 78244,
        "player_name": "Matthew Maple",
        "rank": 70970,
        "rank_sort": 70986,
        "total": 2340
      },
      {
        "club_badge_src": null,
        "entry": 265007,
        "entry_name": "Coliflowers",
        "event_total": 64,
        "has_played": true,
        "id": 1762496,
        "last_rank": 78440,
        "player_name": "Colm Coffey",
        "rank": 70970,
        "rank_sort": 70987,
        "total": 2340
      },
      {
        "club_badge_src": null,
        "entry": 279107,
        "entry_name": "Bosley Babes",
        "event_total": 58,
        "has_played": true,
        "id": 1857537,
        "last_rank": 74317,
        "player_name": "carl barlow",
        "rank": 70970,
        "rank_sort": 70988,
        "total": 2340
      },
      {
        "club_badge_src": "https://fantasy.premierleague.com/gcs/plfpl-production-adobe-approved/plfpl-production/280245/fb800c47-d477-4be5-a508-5186a9ecded5.png",
        "entry": 280245,
        "entry_name": "Kibmeisters",
        "event_total": 42,
        "has_played": true,
        "id": 1865048,
        "last_rank": 46313,
        "player_name": "Christopher Kibble",
        "rank": 70970,
        "rank_sort": 70989,
        "total": 2340
      },
      {
        "club_badge_src": "https://fantasy.premierleague.com/gcs/plfpl-production-adobe-approved/plfpl-production/299072/833be3fb-86bc-4f8f-88ca-7982c50e79b0.png",
        "entry": 299072,
        "entry_name": "Fatal Calafiori",
        "event_total": 76,
        "has_played": true,
        "id": 1999898,
        "last_rank": 107702,
        "player_name": "Sultan Ashlowi",
        "rank": 70970,
        "rank_sort": 70990,
        "total": 2340
      },
      {
        "club_badge_src": null,
        "entry": 303591,
        "entry_name": "Marching Melita",
        "event_total": 75,
        "has_played": true,
        "id": 2032304,
        "last_rank": 116017,
        "player_name": "Steve Bezzina",
        "rank": 70970,
        "rank_sort": 70991,
        "total": 2340
      },
      {
        "club_badge_src": null,
        "entry": 310382,
        "entry_name": "Take Me to Viktory",
        "event_total": 70,
        "has_played": true,
        "id": 2079239,
        "last_rank": 102343,
        "player_name": "Josh Bastian",
        "rank": 70970,
        "rank_sort": 70992,
        "total": 2340
      },
      {
        "club_badge_src": null,
        "entry": 324778,
        "entry_name": "We Were Robbed",
        "event_total": 50,
        "has_played": true,
        "id": 2176302,
        "last_rank": 59170,
        "player_name": "Paul McCormack",
        "rank": 70970,
        "rank_sort": 70993,
        "total": 2340
      },
      {
        "club_badge_src": null,
        "entry": 353416,
        "entry_name": "Guzzen var offside",
        "event_total": 58,
        "has_played": true,
        "id": 2365300,
        "last_rank": 51720,
        "player_name": "Erik Holmberg",
        "rank": 70970,
        "rank_sort": 70994,
        "total": 2340
      },
      {
        "club_badge_src": null,
        "entry": 361384,
        "entry_name": "Dougley's Gang",
        "event_total": 77,
        "has_played": true,
        "id": 2418093,
        "last_rank": 122201,
        "player_name": "Richard L",
        "rank": 70970,
        "rank_sort": 70995,
        "total": 2340
      },
      {
        "club_badge_src": null,
        "entry": 369955,
        "entry_name": "The Vardy Boys",
        "event_total": 52,
        "has_played": true,
        "id": 2475591,
        "last_rank": 62724,
        "player_name": "Tom Williams",
        "rank": 70970,
        "rank_sort": 70996,
        "total": 2340
      },
      {
        "club_badge_src": null,
        "entry": 423895,
        "entry_name": "WANG KELIAN FC",
        "event_total": 60,
        "has_played": true,
        "id": 2840963,
        "last_rank": 78440,
        "player_name": "FATIH SHAFIQAH",
        "rank": 70970,
        "rank_sort": 70997,
        "total": 2340
      },
      {
        "club_badge_src": null,
        "entry": 440884,
        "entry_name": "Kinder Mbeumo",
        "event_total": 54,
        "has_played": true,
        "id": 2956233,
        "last_rank": 59077,
        "player_name": "Danyal Aslam",
        "rank": 70970,
        "rank_sort": 70998,
        "total": 2340
      },
      {
        "club_badge_src": null,
        "entry": 454377,
        "entry_name": "The Wright Stuff",
        "event_total": 47,
        "has_played": true,
        "id": 3048172,
        "last_rank": 47722,
        "player_name": "Robin Wright",
        "rank": 70970,
        "rank_sort": 70999,
        "total": 2340
      },
      {
        "club_badge_src": null,
        "entry": 467193,
        "entry_name": "Bandits",
        "event_total": 49,
        "has_played": true,
        "id": 3134996,
        "last_rank": 57358,
        "player_name": "Luke Morris",
        "rank": 70970,
        "rank_sort": 71000,
        "total": 2340
      }
    ]
  }
}