{
  "last_updated_data": "2026-05-24T23:28:17Z",
  "league": {
    "admin_entry": null,
    "closed": false,
    "code_privacy": "p",
    "created": "2025-07-20T23:14:33.933835Z",
    "cup_league": 2815434,
    "has_cup": true,
    "id": 314,
    "league_type": "s",
    "max_entries": null,
    "name": "Overall",
    "rank": null,
    "scoring": "c",
    "start_event": 1
  },
  "new_entries": {
    "has_next": false,
    "page": 1,
    "results": []
  },
  "standings": {
    "has_next": true,
    "page": 506,
    "results": [
      {
        "club_badge_src": null,
        "entry": 53305,
        "entry_name": "pe\u0107a",
        "event_total": 59,
        "has_played": true,
        "id": 342913,
        "last_rank": 26827,
        "player_name": "Predrag Nedimovic",
        "rank": 25251,
        "rank_sort": 25251,
        "total": 2373
      },
      {
        "club_badge_src": null,
        "entry": 57048,
        "entry_name": "Pine Barrens",
        "event_total": 44,
        "has_played": true,
        "id": 367474,
        "last_rank": 15452,
        "player_name": "Sid Burnside",
        "rank": 25251,
        "rank_sort": 25252,
        "total": 2373
      },
      {
        "club_badge_src": null,
        "entry": 67528,
        "entry_name": "Better Call Saulah",
        "event_total": 57,
        "has_played": true,
        "id": 437224,
        "last_rank": 25002,
        "player_name": "Karol W",
        "rank": 25251,
        "rank_sort": 25253,
        "total": 2373
      },
      {
        "club_badge_src": null,
        "entry": 79944,
        "entry_name": "Bradley Barkola",
        "event_total": 61,
        "has_played": true,
        "id": 520137,
        "last_rank": 28609,
        "player_name": "Brad Stedman",
        "rank": 25251,
        "rank_sort": 25254,
        "total": 2373
      },
      {
        "club_badge_src": "https://fantasy.premierleague.com/gcs/plfpl-production-adobe-approved/plfpl-production/111443/5cf8676f-c33e-4227-8e58-2e3f86810a3e.png",
        "entry": 111443,
        "entry_name": "Slot Machine",
        "event_total": 59,
        "has_played": true,
        "id": 726662,
        "last_rank": 26656,
        "player_name": "Neil Pybus",
        "rank": 25251,
        "rank_sort": 25255,
        "total": 2373
      },
      {
        "club_badge_src": null,
        "entry": 139590,
        "entry_name": "AwotweAwotwe",
        "event_total": 62,
        "has_played": true,
        "id": 911164,
        "last_rank": 29578,
        "player_name": "Emmanuel Hasford",
        "rank": 25251,
        "rank_sort": 25256,
        "total": 2373
      },
      {
        "club_badge_src": null,
        "entry": 181597,
        "entry_name": "GAG 11",
        "event_total": 76,
        "has_played": true,
        "id": 1198372,
        "last_rank": 46660,
        "player_name": "Guy Goddard",
        "rank": 25251,
        "rank_sort": 25257,
        "total": 2373
      },
      {
        "club_badge_src": null,
        "entry": 194673,
        "entry_name": "Amadness",
        "event_total": 42,
        "has_played": true,
        "id": 1290728,
        "last_rank": 14370,
        "player_name": "Ryan Cuddy",
        "rank": 25251,
        "rank_sort": 25258,
        "total": 2373
      },
      {
        "club_badge_src": null,
        "entry": 274073,
        "entry_name": "Slippy G FC",
        "event_total": 53,
        "has_played": true,
        "id": 1823751,
        "last_rank": 21677,
        "player_name": "Alan Broderick",
        "rank": 25251,
        "rank_sort": 25259,
        "total": 2373
      },
      {
        "club_badge_src": null,
        "entry": 281598,
        "entry_name": "Chicken tika mosalah",
        "event_total": 52,
        "has_played": true,
        "id": 1874024,
        "last_rank": 20853,
        "player_name": "Barnaby Garrity",
        "rank": 25251,
        "rank_sort": 25260,
        "total": 2373
      },
      {
        "club_badge_src": "https://fantasy.premierleague.com/gcs/plfpl-production-adobe-approved/plfpl-production/406386/3b2cac7d-05ba-4956-b072-81718eebda7f.png",
        "entry": 406386,
        "entry_name": "Slawit City",
        "event_total": 55,
        "has_played": true,
        "id": 2724771,
        "last_rank": 23230,
        "player_name": "Tim Hoyle",
        "rank": 25251,
        "rank_sort": 25261,
        "total": 2373
      },
      {
        "club_badge_src": null,
        "entry": 529437,
        "entry_name": "Manny on the Map",
        "event_total": 63,
        "has_played": true,
        "id": 3560166,
        "last_rank": 30727,
        "player_name": "Kallem Sprott",
        "rank": 25251,
        "rank_sort": 25262,
        "total": 2373
      },
      {
        "club_badge_src": null,
        "entry": 534613,
        "entry_name": "Wataru doing?",
        "event_total": 64,
        "has_played": true,
        "id": 3598047,
        "last_rank": 31556,
        "player_name": "Archit Bhamri",
        "rank": 25251,
        "rank_sort": 25263,
        "total": 2373
      },
      {
        "club_badge_src": null,
        "entry": 553838,
        "entry_name": "LTHs Lallare",
        "event_total": 77,
        "has_played": true,
        "id": 3727651,
        "last_rank": 48057,
        "player_name": "Magnus \u00c5str\u00f6m",
        "rank": 25251,
        "rank_sort": 25264,
        "total": 2373
      },
      {
        "club_badge_src": null,
        "entry": 595707,
        "entry_name": "Big Saka Tatties",
        "event_total": 61,
        "has_played": true,
        "id": 4016084,
        "last_rank": 28726,
        "player_name": "Alan Haddow",
        "rank": 25251,
        "rank_sort": 25265,
        "total": 2373
      },
      {
        "club_badge_src": null,
        "entry": 671471,
        "entry_name": "Westhamiki",
        "event_total": 47,
        "has_played": true,
        "id": 4541699,
        "last_rank": 17358,
        "player_name": "Adam Laso\u0144",
        "rank": 25251,
        "rank_sort": 25266,
        "total": 2373
      },
      {
        "club_badge_src": null,
        "entry": 686552,
        "entry_name": "The Banker",
        "event_total": 45,
        "has_played": true,
        "id": 4647561,
        "last_rank": 16062,
        "player_name": "Sam Blunsden",
        "rank": 25251,
        "rank_sort": 25267,
        "total": 2373
      },
      {
        "club_badge_src": null,
        "entry": 691339,
        "entry_name": "\u00d8ybakken United",
        "event_total": 49,
        "has_played": true,
        "id": 4681707,
        "last_rank": 18655,
        "player_name": "Kenneth \u00d8ybakken",
        "rank": 25251,
        "rank_sort": 25268,
        "total": 2373
      },
      {
        "club_badge_src": null,
        "entry": 979502,
        "entry_name": "UKS O\u0142tarzew",
        "event_total": 66,
        "has_played": true,
        "id": 6752644,
        "last_rank": 34051,
        "player_name": "Krzysiek Krol",
        "rank": 25251,
        "rank_sort": 25269,
        "total": 2373
      },
      {
        "club_badge_src": "https://fantasy.premierleague.com/gcs/plfpl-production-adobe-approved/plfpl-production/1087143/bebfaeee-2453-4a64-af91-ee60bc9ab5a7.png",
        "entry": 1087143,
        "entry_name": "\ufffd\ufffd  Phoenix",
        "event_total": 44,
        "has_played": true,
        "id": 7528944,
        "last_rank": 15416,
        "player_name": "Mark Child",
        "rank": 25251,
        "rank_sort": 25270,
        "total": 2373
      },
      {
        "club_badge_src": null,
        "entry": 1573252,
        "entry_name": "Net Six and Chill",
        "event_total": 79,
        "has_played": true,
        "id": 10993091,
        "last_rank": 51403,
        "player_name": "Ali Usman",
        "rank": 25251,
        "rank_sort": 25271,
        "total": 2373
      },
      {
        "club_badge_src": null,
        "entry": 1593620,
        "entry_name": "FC Pangapuff",
        "event_total": 76,
        "has_played": true,
        "id": 11145834,
        "last_rank": 46839,
        "player_name": "Zak Njoro",
        "rank": 25251,
        "rank_sort": 25272,
        "total": 2373
      },
      {
        "club_badge_src": null,
        "entry": 1595830,
        "entry_name": "Wongaboys",
        "event_total": 56,
        "has_played": true,
        "id": 11163297,
        "last_rank": 23990,
        "player_name": "Rohan Paul",
        "rank": 25251,
        "rank_sort": 25273,
        "total": 2373
      },
      {
        "club_badge_src": null,
        "entry": 2088127,
        "entry_name": "Mummy's Stallions",
        "event_total": 62,
        "has_played": true,
        "id": 14814576,
        "last_rank": 29522,
        "player_name": "Kristian Patefield",
        "rank": 25251,
        "rank_sort": 25274,
        "total": 2373
      },
      {
        "club_badge_src": null,
        "entry": 2265356,
        "entry_name": "WREXHAM WARRIORS",
        "event_total": 64,
        "has_played": true,
        "id": 16151940,
        "last_rank": 31534,
        "player_name": "Stuart Parry",
        "rank": 25251,
        "rank_sort": 25275,
        "total": 2373
      },
      {
        "club_badge_src": null,
        "entry": 2348559,
        "entry_name": "Isak-abba",
        "event_total": 58,
        "has_played": true,
        "id": 16757636,
        "last_rank": 25776,
        "player_name": "Kenneth Arthur",
        "rank": 25251,
        "rank_sort": 25276,
        "total": 2373
      },
      {
        "club_badge_src": null,
        "entry": 2436090,
        "entry_name": "Change Name",
        "event_total": 88,
        "has_played": true,
        "id": 17420895,
        "last_rank": 66738,
        "player_name": "Charlie Franklin",
        "rank": 25251,
        "rank_sort": 25277,
        "total": 2373
      },
      {
        "club_badge_src": null,
        "entry": 2576617,
        "entry_name": "Ctrl Alt De Ligt",
        "event_total": 63,
        "has_played": true,
        "id": 18491598,
        "last_rank": 30536,
        "player_name": "Josh Dell",
        "rank": 25251,
        "rank_sort": 25278,
        "total": 2373
      },
      {
        "club_badge_src": "https://fantasy.premierleague.com/gcs/plfpl-production-adobe-approved/plfpl-production/3279378/9e5a0887-d699-483f-8bf9-57938c15808e.png",
        "entry": 3279378,
        "entry_name": "rpbonito",
        "event_total": 60,
        "has_played": true,
        "id": 24272549,
        "last_rank": 27644,
        "player_name": "Rui Pedro Bonito",
        "rank": 25251,
        "rank_sort": 25279,
        "total": 2373
      },
      {
        "club_badge_src": null,
        "entry": 3707503,
        "entry_name": "Fenerbadghce",
        "event_total": 51,
        "has_played": true,
        "id": 27663786,
        "last_rank": 20147,
        "player_name": "Kris Ferguson",
        "rank": 25251,
        "rank_sort": 25280,
        "total": 2373
      },
      {
        "club_badge_src": "https://fantasy.premierleague.com/gcs/plfpl-production-adobe-approved/plfpl-production/4035528/b2f47936-a8fd-4c0e-8625-53d02b7b4e73.png",
        "entry": 4035528,
        "entry_name": "Chassis Shack FC",
        "event_total": 58,
        "has_played": true,
        "id": 30428594,
        "last_rank": 25776,
        "player_name": "Fergus Cowper",
        "rank": 25251,
        "rank_sort": 25281,
        "total": 2373
      },
      {
        "club_badge_src": null,
        "entry": 4168725,
        "entry_name": "semut",
        "event_total": 81,
        "has_played": true,
        "id": 31526203,
        "last_rank": 54667,
        "player_name": "asyraf anuar",
        "rank": 25251,
        "rank_sort": 25282,
        "total": 2373
      },
      {
        "club_badge_src": null,
        "entry": 4168798,
        "entry_name": "You'llNeverGetAJob",
        "event_total": 49,
        "has_played": true,
        "id": 31526737,
        "last_rank": 18790,
        "player_name": "Al Worthington",
        "rank": 25251,
        "rank_sort": 25283,
        "total": 2373
      },
      {
        "club_badge_src": null,
        "entry": 4215100,
        "entry_name": "Wizard of MunOZ",
        "event_total": 64,
        "has_played": true,
        "id": 31920625,
        "last_rank": 31620,
        "player_name": "Jamie Wildman",
        "rank": 25251,
        "rank_sort": 25284,
        "total": 2373
      },
      {
        "club_badge_src": null,
        "entry": 4378891,
        "entry_name": "Oak Island FC",
        "event_total": 53,
        "has_played": true,
        "id": 33275242,
        "last_rank": 21775,
        "player_name": "Leo Rosendahl",
        "rank": 25251,
        "rank_sort": 25285,
        "total": 2373
      },
      {
        "club_badge_src": null,
        "entry": 4738938,
        "entry_name": "Can't Get Witrz",
        "event_total": 58,
        "has_played": true,
        "id": 36461807,
        "last_rank": 25729,
        "player_name": "brandon gee",
        "rank": 25251,
        "rank_sort": 25286,
        "total": 2373
      },
      {
        "club_badge_src": null,
        "entry": 4893884,
        "entry_name": "Took a deFlekkention",
        "event_total": 61,
        "has_played": true,
        "id": 37733551,
        "last_rank": 28546,
        "player_name": "Gabriela Cropper",
        "rank": 25251,
        "rank_sort": 25287,
        "total": 2373
      },
      {
        "club_badge_src": null,
        "entry": 5521155,
        "entry_name": "C\u00f3mo est\u00e1s",
        "event_total": 66,
        "has_played": true,
        "id": 43052556,
        "last_rank": 33936,
        "player_name": "Hola Omigo",
        "rank": 25251,
        "rank_sort": 25288,
        "total": 2373
      },
      {
        "club_badge_src": null,
        "entry": 5607061,
        "entry_name": "Sesko club card",
        "event_total": 52,
        "has_played": true,
        "id": 43817704,
        "last_rank": 20826,
        "player_name": "nathan gillingham",
        "rank": 25251,
        "rank_sort": 25289,
        "total": 2373
      },
      {
        "club_badge_src": null,
        "entry": 5969689,
        "entry_name": "Negative Aura",
        "event_total": 60,
        "has_played": true,
        "id": 46973426,
        "last_rank": 27585,
        "player_name": "Matthew Woo",
        "rank": 25251,
        "rank_sort": 25290,
        "total": 2373
      },
      {
        "club_badge_src": "https://fantasy.premierleague.com/gcs/plfpl-production-adobe-approved/plfpl-production/6282842/70509f04-a203-40a5-a2f3-07dd4f5ba4b0.png",
        "entry": 6282842,
        "entry_name": "Visit Saudi",
        "event_total": 62,
        "has_played": true,
        "id": 49763531,
        "last_rank": 29522,
        "player_name": "Harry Roberts",
        "rank": 25251,
        "rank_sort": 25291,
        "total": 2373
      },
      {
        "club_badge_src": null,
        "entry": 6499000,
        "entry_name": "SIUUUU",
        "event_total": 56,
        "has_played": true,
        "id": 51812783,
        "last_rank": 24143,
        "player_name": "Xyz Magar",
        "rank": 25251,
        "rank_sort": 25292,
        "total": 2373
      },
      {
        "club_badge_src": null,
        "entry": 6727183,
        "entry_name": "Noni Ya Business",
        "event_total": 47,
        "has_played": true,
        "id": 53842422,
        "last_rank": 17437,
        "player_name": "Oliver Richardson",
        "rank": 25251,
        "rank_sort": 25293,
        "total": 2373
      },
      {
        "club_badge_src": null,
        "entry": 7610910,
        "entry_name": "Ghazl ElMa7al",
        "event_total": 54,
        "has_played": true,
        "id": 62362902,
        "last_rank": 22426,
        "player_name": "Yousef Abuelatta",
        "rank": 25251,
        "rank_sort": 25294,
        "total": 2373
      },
      {
        "club_badge_src": null,
        "entry": 8514444,
        "entry_name": "Yeagerists",
        "event_total": 49,
        "has_played": true,
        "id": 70777669,
        "last_rank": 18790,
        "player_name": "Freddy P",
        "rank": 25251,
        "rank_sort": 25295,
        "total": 2373
      },
      {
        "club_badge_src": null,
        "entry": 9065304,
        "entry_name": "Lee Barry Cattermole",
        "event_total": 46,
        "has_played": true,
        "id": 76113343,
        "last_rank": 16807,
        "player_name": "Ethan Goss",
        "rank": 25251,
        "rank_sort": 25296,
        "total": 2373
      },
      {
        "club_badge_src": null,
        "entry": 9138342,
        "entry_name": "Char Siew Rashford",
        "event_total": 39,
        "has_played": true,
        "id": 76827532,
        "last_rank": 12705,
        "player_name": "Zack Leong",
        "rank": 25251,
        "rank_sort": 25297,
        "total": 2373
      },
      {
        "club_badge_src": null,
        "entry": 9140799,
        "entry_name": "Talal.J",
        "event_total": 62,
        "has_played": true,
        "id": 76851395,
        "last_rank": 29578,
        "player_name": "Talal oudah",
        "rank": 25251,
        "rank_sort": 25298,
        "total": 2373
      },
      {
        "club_badge_src": "https://fantasy.premierleague.com/gcs/plfpl-production-adobe-approved/plfpl-production/2274/6349cfa0-30a7-4922-a398-2dd71ddd860e.png",
        "entry": 2274,
        "entry_name": "Sonnys Englar",
        "event_total": 64,
        "has_played": true,
        "id": 12663,
        "last_rank": 31620,
        "player_name": "Nils Terje Vihovde",
        "rank": 25299,
        "rank_sort": 25299,
        "total": 2373
      },
      {
        "club_badge_src": null,
        "entry": 3411,
        "entry_name": "Werner's Originals",
        "event_total": 65,
        "has_played": true,
        "id": 19324,
        "last_rank": 32751,
        "player_name": "Eamonn Cochrane",
        "rank": 25299,
        "rank_sort": 25300,
        "total": 2373
      }
    ]
  }
}