{
  "last_updated_data": "2026-05-24T23:28:17Z",
  "league": {
    "admin_entry": null,
    "closed": false,
    "code_privacy": "p",
    "created": "2025-07-20T23:14:33.933835Z",
    "cup_league": 2815434,
    "has_cup": true,
    "id": 314,
    "league_type": "s",
    "max_entries": null,
    "name": "Overall",
    "rank": null,
    "scoring": "c",
    "start_event": 1
  },
  "new_entries": {
    "has_next": false,
    "page": 1,
    "results": []
  },
  "standings": {
    "has_next": true,
    "page": 403,
    "results": [
      {
        "club_badge_src": null,
        "entry": 2562801,
        "entry_name": "DontLookBackElanga",
        "event_total": 64,
        "has_played": true,
        "id": 18381639,
        "last_rank": 21775,
        "player_name": "Cameron Reid",
        "rank": 20022,
        "rank_sort": 20101,
        "total": 2380
      },
      {
        "club_badge_src": null,
        "entry": 2575888,
        "entry_name": "Molloshia Fc",
        "event_total": 65,
        "has_played": true,
        "id": 18486049,
        "last_rank": 26088,
        "player_name": "CHRISTOS SKOUFARIS",
        "rank": 20022,
        "rank_sort": 20102,
        "total": 2380
      },
      {
        "club_badge_src": null,
        "entry": 2578016,
        "entry_name": "Real Madras",
        "event_total": 57,
        "has_played": true,
        "id": 18502140,
        "last_rank": 19544,
        "player_name": "Jimmy Hanley",
        "rank": 20022,
        "rank_sort": 20103,
        "total": 2380
      },
      {
        "club_badge_src": null,
        "entry": 2646073,
        "entry_name": "OnklBob",
        "event_total": 67,
        "has_played": true,
        "id": 19018775,
        "last_rank": 27585,
        "player_name": "Robert Langevei",
        "rank": 20022,
        "rank_sort": 20104,
        "total": 2380
      },
      {
        "club_badge_src": null,
        "entry": 2844532,
        "entry_name": "Grindbakken Gunners",
        "event_total": 56,
        "has_played": true,
        "id": 20794456,
        "last_rank": 16163,
        "player_name": "Tone Gry Kveli",
        "rank": 20022,
        "rank_sort": 20105,
        "total": 2380
      },
      {
        "club_badge_src": null,
        "entry": 2911521,
        "entry_name": "It Wirtz",
        "event_total": 72,
        "has_played": true,
        "id": 21339844,
        "last_rank": 32688,
        "player_name": "Alex Stedman",
        "rank": 20022,
        "rank_sort": 20106,
        "total": 2380
      },
      {
        "club_badge_src": null,
        "entry": 2996826,
        "entry_name": "4Ever Bowen Bubbles",
        "event_total": 65,
        "has_played": true,
        "id": 22041755,
        "last_rank": 26088,
        "player_name": "Kwan Ming Cho",
        "rank": 20022,
        "rank_sort": 20107,
        "total": 2380
      },
      {
        "club_badge_src": "https://fantasy.premierleague.com/gcs/plfpl-production-adobe-approved/plfpl-production/3046803/d949941e-ccdd-4d3a-8be1-27d39ca473d0.png",
        "entry": 3046803,
        "entry_name": "\u0628\u064a\u0644\u0633\u0639",
        "event_total": 57,
        "has_played": true,
        "id": 22428677,
        "last_rank": 19835,
        "player_name": "Abo Younis",
        "rank": 20022,
        "rank_sort": 20108,
        "total": 2380
      },
      {
        "club_badge_src": null,
        "entry": 3134661,
        "entry_name": "Ronnie\u2019s Rangers",
        "event_total": 52,
        "has_played": true,
        "id": 23138477,
        "last_rank": 16441,
        "player_name": "Ronnie Turner",
        "rank": 20022,
        "rank_sort": 20109,
        "total": 2380
      },
      {
        "club_badge_src": null,
        "entry": 3162908,
        "entry_name": "Andrelaget",
        "event_total": 67,
        "has_played": true,
        "id": 23365846,
        "last_rank": 27770,
        "player_name": "Jens Bringe",
        "rank": 20022,
        "rank_sort": 20110,
        "total": 2380
      },
      {
        "club_badge_src": null,
        "entry": 3201522,
        "entry_name": "White Hart Pain",
        "event_total": 68,
        "has_played": true,
        "id": 23666155,
        "last_rank": 28906,
        "player_name": "Luke Trinnaman",
        "rank": 20022,
        "rank_sort": 20111,
        "total": 2380
      },
      {
        "club_badge_src": "https://fantasy.premierleague.com/gcs/plfpl-production-adobe-approved/plfpl-production/3207057/b704e8e2-d051-4cdb-8092-b9b68874f112.png",
        "entry": 3207057,
        "entry_name": "MBOOMO",
        "event_total": 69,
        "has_played": true,
        "id": 23709395,
        "last_rank": 25902,
        "player_name": "Adam Jones",
        "rank": 20022,
        "rank_sort": 20112,
        "total": 2380
      },
      {
        "club_badge_src": null,
        "entry": 3336187,
        "entry_name": "FERG FC",
        "event_total": 64,
        "has_played": true,
        "id": 24741673,
        "last_rank": 21775,
        "player_name": "Wayne Ferguson",
        "rank": 20022,
        "rank_sort": 20113,
        "total": 2380
      },
      {
        "club_badge_src": "https://fantasy.premierleague.com/gcs/plfpl-production-adobe-approved/plfpl-production/3511395/36480d20-2486-4bfa-93c3-c3af7d72b042.png",
        "entry": 3511395,
        "entry_name": "Jacob's Army",
        "event_total": 64,
        "has_played": true,
        "id": 26127799,
        "last_rank": 24897,
        "player_name": "\u0399\u03ac\u03ba\u03c9\u03b2\u03bf\u03c2 \u039a\u03bf\u03c1\u03ba\u03af\u03b4\u03b1\u03c2",
        "rank": 20022,
        "rank_sort": 20114,
        "total": 2380
      },
      {
        "club_badge_src": null,
        "entry": 3525042,
        "entry_name": "the Other Orange",
        "event_total": 68,
        "has_played": true,
        "id": 26234170,
        "last_rank": 28726,
        "player_name": "Bob van der Heijden",
        "rank": 20022,
        "rank_sort": 20115,
        "total": 2380
      },
      {
        "club_badge_src": null,
        "entry": 3728866,
        "entry_name": "Sub-standard Liege",
        "event_total": 56,
        "has_played": true,
        "id": 27831836,
        "last_rank": 16163,
        "player_name": "Max Davies",
        "rank": 20022,
        "rank_sort": 20116,
        "total": 2380
      },
      {
        "club_badge_src": null,
        "entry": 3781839,
        "entry_name": "makkatulung namo'e",
        "event_total": 60,
        "has_played": true,
        "id": 28240081,
        "last_rank": 22064,
        "player_name": "adi poe",
        "rank": 20022,
        "rank_sort": 20117,
        "total": 2380
      },
      {
        "club_badge_src": null,
        "entry": 3784307,
        "entry_name": "RKungfu",
        "event_total": 49,
        "has_played": true,
        "id": 28259342,
        "last_rank": 14496,
        "player_name": "Ed Sethsothorn",
        "rank": 20022,
        "rank_sort": 20118,
        "total": 2380
      },
      {
        "club_badge_src": null,
        "entry": 3858459,
        "entry_name": "cunha believe it",
        "event_total": 62,
        "has_played": true,
        "id": 28928641,
        "last_rank": 23522,
        "player_name": "Max Yan",
        "rank": 20022,
        "rank_sort": 20119,
        "total": 2380
      },
      {
        "club_badge_src": null,
        "entry": 3904771,
        "entry_name": "FC Simpa",
        "event_total": 50,
        "has_played": true,
        "id": 29355099,
        "last_rank": 15164,
        "player_name": "Simon Erlandsson",
        "rank": 20022,
        "rank_sort": 20120,
        "total": 2380
      },
      {
        "club_badge_src": null,
        "entry": 3910459,
        "entry_name": "Wienerbr\u00f8d Warriors",
        "event_total": 53,
        "has_played": true,
        "id": 29400543,
        "last_rank": 16959,
        "player_name": "Kenneth Knudsen",
        "rank": 20022,
        "rank_sort": 20121,
        "total": 2380
      },
      {
        "club_badge_src": "https://fantasy.premierleague.com/gcs/plfpl-production-adobe-approved/plfpl-production/4147868/a36da518-c3f1-4069-be2b-2938e85847f6.png",
        "entry": 4147868,
        "entry_name": "Tusker FC",
        "event_total": 41,
        "has_played": true,
        "id": 31350450,
        "last_rank": 10556,
        "player_name": "Yash Desai",
        "rank": 20022,
        "rank_sort": 20122,
        "total": 2380
      },
      {
        "club_badge_src": null,
        "entry": 4226037,
        "entry_name": "adel",
        "event_total": 59,
        "has_played": true,
        "id": 32016576,
        "last_rank": 21159,
        "player_name": "Adel Ma",
        "rank": 20022,
        "rank_sort": 20123,
        "total": 2380
      },
      {
        "club_badge_src": null,
        "entry": 4244691,
        "entry_name": "A-Cunha Mateta",
        "event_total": 69,
        "has_played": true,
        "id": 32172390,
        "last_rank": 25729,
        "player_name": "Matthew Moura",
        "rank": 20022,
        "rank_sort": 20124,
        "total": 2380
      },
      {
        "club_badge_src": null,
        "entry": 4325338,
        "entry_name": "Net Six and Chill",
        "event_total": 46,
        "has_played": true,
        "id": 32827510,
        "last_rank": 12846,
        "player_name": "Finlay Heritage",
        "rank": 20022,
        "rank_sort": 20125,
        "total": 2380
      },
      {
        "club_badge_src": null,
        "entry": 4432402,
        "entry_name": "AA10",
        "event_total": 45,
        "has_played": true,
        "id": 33745743,
        "last_rank": 12200,
        "player_name": "Ali Alawi",
        "rank": 20022,
        "rank_sort": 20126,
        "total": 2380
      },
      {
        "club_badge_src": null,
        "entry": 4434903,
        "entry_name": "P\u00e5hlsson Gutter",
        "event_total": 69,
        "has_played": true,
        "id": 33766573,
        "last_rank": 29688,
        "player_name": "Elias P\u00e5hlsson",
        "rank": 20022,
        "rank_sort": 20127,
        "total": 2380
      },
      {
        "club_badge_src": null,
        "entry": 4472314,
        "entry_name": "wicked boys",
        "event_total": 87,
        "has_played": true,
        "id": 34081317,
        "last_rank": 52738,
        "player_name": "Foster Asiedu",
        "rank": 20022,
        "rank_sort": 20128,
        "total": 2380
      },
      {
        "club_badge_src": null,
        "entry": 4503729,
        "entry_name": "FPL Champion '26",
        "event_total": 64,
        "has_played": true,
        "id": 34336790,
        "last_rank": 25172,
        "player_name": "Adam Poirrier",
        "rank": 20022,
        "rank_sort": 20129,
        "total": 2380
      },
      {
        "club_badge_src": null,
        "entry": 4526254,
        "entry_name": "Carney \u010cukvmeku",
        "event_total": 61,
        "has_played": true,
        "id": 34522133,
        "last_rank": 22685,
        "player_name": "Matic Modic",
        "rank": 20022,
        "rank_sort": 20130,
        "total": 2380
      },
      {
        "club_badge_src": null,
        "entry": 4785520,
        "entry_name": "Bring back Massimo!",
        "event_total": 71,
        "has_played": true,
        "id": 36840333,
        "last_rank": 31995,
        "player_name": "Millsy Mills",
        "rank": 20022,
        "rank_sort": 20131,
        "total": 2380
      },
      {
        "club_badge_src": null,
        "entry": 4833080,
        "entry_name": "Provencal le gaulois",
        "event_total": 71,
        "has_played": true,
        "id": 37226024,
        "last_rank": 31620,
        "player_name": "Ga\u00e9tan M\u00f6ckli",
        "rank": 20022,
        "rank_sort": 20132,
        "total": 2380
      },
      {
        "club_badge_src": null,
        "entry": 5012123,
        "entry_name": "The Games Goners",
        "event_total": 65,
        "has_played": true,
        "id": 38704755,
        "last_rank": 26230,
        "player_name": "Thomas Boden",
        "rank": 20022,
        "rank_sort": 20133,
        "total": 2380
      },
      {
        "club_badge_src": null,
        "entry": 5013949,
        "entry_name": "Duddon Dudes",
        "event_total": 67,
        "has_played": true,
        "id": 38719039,
        "last_rank": 27770,
        "player_name": "Gordon Wilkie",
        "rank": 20022,
        "rank_sort": 20134,
        "total": 2380
      },
      {
        "club_badge_src": "https://fantasy.premierleague.com/gcs/plfpl-production-adobe-approved/plfpl-production/5085526/b56f3c74-8107-4850-a015-8d8c264045fa.png",
        "entry": 5085526,
        "entry_name": "rashid team",
        "event_total": 67,
        "has_played": true,
        "id": 39305403,
        "last_rank": 27976,
        "player_name": "Alrubkhi Rashid",
        "rank": 20022,
        "rank_sort": 20135,
        "total": 2380
      },
      {
        "club_badge_src": null,
        "entry": 5120389,
        "entry_name": "Rooney Tunes",
        "event_total": 67,
        "has_played": true,
        "id": 39590237,
        "last_rank": 27976,
        "player_name": "Phillip Dransfield",
        "rank": 20022,
        "rank_sort": 20136,
        "total": 2380
      },
      {
        "club_badge_src": null,
        "entry": 5223933,
        "entry_name": "Delap Dance",
        "event_total": 68,
        "has_played": true,
        "id": 40477244,
        "last_rank": 28906,
        "player_name": "Jordan Crossland",
        "rank": 20022,
        "rank_sort": 20137,
        "total": 2380
      },
      {
        "club_badge_src": null,
        "entry": 5284865,
        "entry_name": "plj fc",
        "event_total": 58,
        "has_played": true,
        "id": 40963623,
        "last_rank": 20416,
        "player_name": "Phelan Lee",
        "rank": 20022,
        "rank_sort": 20138,
        "total": 2380
      },
      {
        "club_badge_src": null,
        "entry": 5391758,
        "entry_name": "Azzam",
        "event_total": 68,
        "has_played": true,
        "id": 41918358,
        "last_rank": 28906,
        "player_name": "Azzam Almutairi",
        "rank": 20022,
        "rank_sort": 20139,
        "total": 2380
      },
      {
        "club_badge_src": null,
        "entry": 5457419,
        "entry_name": "Popeyes Winglets",
        "event_total": 43,
        "has_played": true,
        "id": 42470195,
        "last_rank": 11345,
        "player_name": "Raddy Aeframovic",
        "rank": 20022,
        "rank_sort": 20140,
        "total": 2380
      },
      {
        "club_badge_src": "https://fantasy.premierleague.com/gcs/plfpl-production-adobe-approved/plfpl-production/5555170/fb877c0e-bec4-4f2f-9c22-daf7fd5ae12a.png",
        "entry": 5555170,
        "entry_name": "The Sunburned Squad",
        "event_total": 67,
        "has_played": true,
        "id": 43361254,
        "last_rank": 24039,
        "player_name": "Ryan Baxter",
        "rank": 20022,
        "rank_sort": 20141,
        "total": 2380
      },
      {
        "club_badge_src": "https://fantasy.premierleague.com/gcs/plfpl-production-adobe-approved/plfpl-production/5593915/0bab0ee7-90ef-40de-b04b-fdb4654f3bfc.png",
        "entry": 5593915,
        "entry_name": "ONF1",
        "event_total": 60,
        "has_played": true,
        "id": 43704137,
        "last_rank": 21677,
        "player_name": "omar nassar",
        "rank": 20022,
        "rank_sort": 20142,
        "total": 2380
      },
      {
        "club_badge_src": "https://fantasy.premierleague.com/gcs/plfpl-production-adobe-approved/plfpl-production/5627849/efb0334c-a7db-452c-aa36-feab05eec8ca.png",
        "entry": 5627849,
        "entry_name": "Charli xGX",
        "event_total": 67,
        "has_played": true,
        "id": 43998371,
        "last_rank": 24143,
        "player_name": "Daniel Tromans",
        "rank": 20022,
        "rank_sort": 20143,
        "total": 2380
      },
      {
        "club_badge_src": null,
        "entry": 5641341,
        "entry_name": "TheRomanEmpire",
        "event_total": 67,
        "has_played": true,
        "id": 44117390,
        "last_rank": 27770,
        "player_name": "Mahdi Avani",
        "rank": 20022,
        "rank_sort": 20144,
        "total": 2380
      },
      {
        "club_badge_src": null,
        "entry": 5695788,
        "entry_name": "Ali\u2019s Alliance",
        "event_total": 70,
        "has_played": true,
        "id": 44591536,
        "last_rank": 30957,
        "player_name": "Mokbul Ali",
        "rank": 20022,
        "rank_sort": 20145,
        "total": 2380
      },
      {
        "club_badge_src": null,
        "entry": 5738257,
        "entry_name": "KK FC",
        "event_total": 57,
        "has_played": true,
        "id": 44960784,
        "last_rank": 19544,
        "player_name": "Kritesh Khanal",
        "rank": 20022,
        "rank_sort": 20146,
        "total": 2380
      },
      {
        "club_badge_src": null,
        "entry": 6002579,
        "entry_name": "Auto completely",
        "event_total": 55,
        "has_played": true,
        "id": 47321305,
        "last_rank": 18377,
        "player_name": "hasnolhadi samsudin",
        "rank": 20022,
        "rank_sort": 20147,
        "total": 2380
      },
      {
        "club_badge_src": null,
        "entry": 6020888,
        "entry_name": "Ijib Nodolotnok",
        "event_total": 67,
        "has_played": true,
        "id": 47484969,
        "last_rank": 28150,
        "player_name": "Sean Antonio",
        "rank": 20022,
        "rank_sort": 20148,
        "total": 2380
      },
      {
        "club_badge_src": null,
        "entry": 6094971,
        "entry_name": "Ladyboys Of Bangkok",
        "event_total": 39,
        "has_played": true,
        "id": 48132769,
        "last_rank": 9536,
        "player_name": "Jack Hassett",
        "rank": 20022,
        "rank_sort": 20149,
        "total": 2380
      },
      {
        "club_badge_src": null,
        "entry": 6142911,
        "entry_name": "Not a Salomon Kalou",
        "event_total": 66,
        "has_played": true,
        "id": 48551128,
        "last_rank": 27020,
        "player_name": "Will Gregson",
        "rank": 20022,
        "rank_sort": 20150,
        "total": 2380
      }
    ]
  }
}