{
  "last_updated_data": "2026-05-24T23:28:17Z",
  "league": {
    "admin_entry": null,
    "closed": false,
    "code_privacy": "p",
    "created": "2025-07-20T23:14:33.933835Z",
    "cup_league": 2815434,
    "has_cup": true,
    "id": 314,
    "league_type": "s",
    "max_entries": null,
    "name": "Overall",
    "rank": null,
    "scoring": "c",
    "start_event": 1
  },
  "new_entries": {
    "has_next": false,
    "page": 1,
    "results": []
  },
  "standings": {
    "has_next": true,
    "page": 318,
    "results": [
      {
        "club_badge_src": null,
        "entry": 918425,
        "entry_name": "Another Life",
        "event_total": 65,
        "has_played": true,
        "id": 6315913,
        "last_rank": 20809,
        "player_name": "King Emmy -",
        "rank": 15850,
        "rank_sort": 15851,
        "total": 2386
      },
      {
        "club_badge_src": null,
        "entry": 1314367,
        "entry_name": "DJTWENTY",
        "event_total": 73,
        "has_played": true,
        "id": 9135603,
        "last_rank": 27564,
        "player_name": "paul brewer",
        "rank": 15850,
        "rank_sort": 15852,
        "total": 2386
      },
      {
        "club_badge_src": "https://fantasy.premierleague.com/gcs/plfpl-production-adobe-approved/plfpl-production/3737232/8ad55c4e-06d9-45a0-91dc-7c03cafda761.png",
        "entry": 3737232,
        "entry_name": "Badshah",
        "event_total": 54,
        "has_played": true,
        "id": 27896552,
        "last_rank": 13720,
        "player_name": "Azhar Nawaz",
        "rank": 15850,
        "rank_sort": 15853,
        "total": 2386
      },
      {
        "club_badge_src": null,
        "entry": 4020193,
        "entry_name": "Trikes United",
        "event_total": 64,
        "has_played": true,
        "id": 30299211,
        "last_rank": 20131,
        "player_name": "Erik Robins",
        "rank": 15850,
        "rank_sort": 15854,
        "total": 2386
      },
      {
        "club_badge_src": null,
        "entry": 4328775,
        "entry_name": "Under my Cucurella",
        "event_total": 55,
        "has_played": true,
        "id": 32855847,
        "last_rank": 14251,
        "player_name": "Umut Kandemir",
        "rank": 15850,
        "rank_sort": 15855,
        "total": 2386
      },
      {
        "club_badge_src": null,
        "entry": 5855158,
        "entry_name": "JesusTakeTheWheel",
        "event_total": 52,
        "has_played": true,
        "id": 45973182,
        "last_rank": 12608,
        "player_name": "Dante Andre",
        "rank": 15850,
        "rank_sort": 15856,
        "total": 2386
      },
      {
        "club_badge_src": null,
        "entry": 7380996,
        "entry_name": "Kinder Mbuemo",
        "event_total": 72,
        "has_played": true,
        "id": 59835826,
        "last_rank": 23155,
        "player_name": "Muhammad Hoosen",
        "rank": 15850,
        "rank_sort": 15857,
        "total": 2386
      },
      {
        "club_badge_src": null,
        "entry": 45015,
        "entry_name": "Los Blancos",
        "event_total": 66,
        "has_played": true,
        "id": 288661,
        "last_rank": 21609,
        "player_name": "Mohammed Aljadi",
        "rank": 15858,
        "rank_sort": 15858,
        "total": 2386
      },
      {
        "club_badge_src": null,
        "entry": 72901,
        "entry_name": "\u771f\u7684\u8f93\u4e0d\u4e86",
        "event_total": 88,
        "has_played": true,
        "id": 473819,
        "last_rank": 45117,
        "player_name": "\u666e\u901a\u4eba\u963f\u4e03 xp",
        "rank": 15858,
        "rank_sort": 15859,
        "total": 2386
      },
      {
        "club_badge_src": null,
        "entry": 81584,
        "entry_name": "FT",
        "event_total": 29,
        "has_played": true,
        "id": 530740,
        "last_rank": 4704,
        "player_name": "F T",
        "rank": 15858,
        "rank_sort": 15860,
        "total": 2386
      },
      {
        "club_badge_src": null,
        "entry": 133850,
        "entry_name": "oooo its freezing",
        "event_total": 51,
        "has_played": true,
        "id": 871760,
        "last_rank": 12141,
        "player_name": "Bobby Roche",
        "rank": 15858,
        "rank_sort": 15861,
        "total": 2386
      },
      {
        "club_badge_src": null,
        "entry": 281116,
        "entry_name": "Rice to stay silent",
        "event_total": 63,
        "has_played": true,
        "id": 1870651,
        "last_rank": 19432,
        "player_name": "Levi Hallam",
        "rank": 15858,
        "rank_sort": 15862,
        "total": 2386
      },
      {
        "club_badge_src": null,
        "entry": 422622,
        "entry_name": "kobbie's",
        "event_total": 41,
        "has_played": true,
        "id": 2832163,
        "last_rank": 7959,
        "player_name": "David Poulsen",
        "rank": 15858,
        "rank_sort": 15863,
        "total": 2386
      },
      {
        "club_badge_src": null,
        "entry": 632724,
        "entry_name": "The Yoksha Puddings",
        "event_total": 56,
        "has_played": true,
        "id": 4275295,
        "last_rank": 14817,
        "player_name": "Vicky Yoksha",
        "rank": 15858,
        "rank_sort": 15864,
        "total": 2386
      },
      {
        "club_badge_src": null,
        "entry": 647354,
        "entry_name": "The Underdogs",
        "event_total": 65,
        "has_played": true,
        "id": 4374996,
        "last_rank": 20814,
        "player_name": "Graham Rix",
        "rank": 15858,
        "rank_sort": 15865,
        "total": 2386
      },
      {
        "club_badge_src": null,
        "entry": 655521,
        "entry_name": "Mulhaaland Drive",
        "event_total": 55,
        "has_played": true,
        "id": 4430080,
        "last_rank": 14292,
        "player_name": "Ishan Singh",
        "rank": 15858,
        "rank_sort": 15866,
        "total": 2386
      },
      {
        "club_badge_src": null,
        "entry": 710327,
        "entry_name": "Yoro Wissa Harry",
        "event_total": 43,
        "has_played": true,
        "id": 4817106,
        "last_rank": 8687,
        "player_name": "alex hunt",
        "rank": 15858,
        "rank_sort": 15867,
        "total": 2386
      },
      {
        "club_badge_src": null,
        "entry": 767587,
        "entry_name": "\u0160ibad\u017eije",
        "event_total": 68,
        "has_played": true,
        "id": 5235366,
        "last_rank": 23145,
        "player_name": "Sini\u0161a Joki\u0107",
        "rank": 15858,
        "rank_sort": 15868,
        "total": 2386
      },
      {
        "club_badge_src": null,
        "entry": 1243757,
        "entry_name": "Lisas magicians",
        "event_total": 61,
        "has_played": true,
        "id": 8637954,
        "last_rank": 18029,
        "player_name": "Luke Rock",
        "rank": 15858,
        "rank_sort": 15869,
        "total": 2386
      },
      {
        "club_badge_src": null,
        "entry": 1526843,
        "entry_name": "Kinder Mbueno",
        "event_total": 68,
        "has_played": true,
        "id": 10649386,
        "last_rank": 23188,
        "player_name": "Dylan Moran",
        "rank": 15858,
        "rank_sort": 15870,
        "total": 2386
      },
      {
        "club_badge_src": null,
        "entry": 1534323,
        "entry_name": "The Buckley Babes",
        "event_total": 55,
        "has_played": true,
        "id": 10707360,
        "last_rank": 14234,
        "player_name": "Conor Buckley",
        "rank": 15858,
        "rank_sort": 15871,
        "total": 2386
      },
      {
        "club_badge_src": "https://fantasy.premierleague.com/gcs/plfpl-production-adobe-approved/plfpl-production/1685023/99db7660-1c59-497b-abc8-666258ef3d72.png",
        "entry": 1685023,
        "entry_name": "Amadness",
        "event_total": 44,
        "has_played": true,
        "id": 11795395,
        "last_rank": 9062,
        "player_name": "Ryan Kidd",
        "rank": 15858,
        "rank_sort": 15872,
        "total": 2386
      },
      {
        "club_badge_src": null,
        "entry": 1737404,
        "entry_name": "B2 United",
        "event_total": 50,
        "has_played": true,
        "id": 12188893,
        "last_rank": 11642,
        "player_name": "Apichat Setthasuvacha",
        "rank": 15858,
        "rank_sort": 15873,
        "total": 2386
      },
      {
        "club_badge_src": null,
        "entry": 1998777,
        "entry_name": "Change Name",
        "event_total": 52,
        "has_played": true,
        "id": 14125471,
        "last_rank": 12645,
        "player_name": "Joe Gill",
        "rank": 15858,
        "rank_sort": 15874,
        "total": 2386
      },
      {
        "club_badge_src": null,
        "entry": 3745030,
        "entry_name": "Mbeumo numba 5",
        "event_total": 47,
        "has_played": true,
        "id": 27956985,
        "last_rank": 10288,
        "player_name": "Phillip Hopps",
        "rank": 15858,
        "rank_sort": 15875,
        "total": 2386
      },
      {
        "club_badge_src": null,
        "entry": 4605614,
        "entry_name": "OkaySesko",
        "event_total": 67,
        "has_played": true,
        "id": 35187620,
        "last_rank": 22426,
        "player_name": "Garry Bennett",
        "rank": 15858,
        "rank_sort": 15876,
        "total": 2386
      },
      {
        "club_badge_src": null,
        "entry": 6090281,
        "entry_name": "Ngantukan",
        "event_total": 58,
        "has_played": true,
        "id": 48092527,
        "last_rank": 16062,
        "player_name": "Antonio Simanjuntak",
        "rank": 15858,
        "rank_sort": 15877,
        "total": 2386
      },
      {
        "club_badge_src": null,
        "entry": 6519771,
        "entry_name": "Kinder Mbeumo",
        "event_total": 65,
        "has_played": true,
        "id": 51997812,
        "last_rank": 20826,
        "player_name": "Alex Hayes-Judge",
        "rank": 15858,
        "rank_sort": 15878,
        "total": 2386
      },
      {
        "club_badge_src": "https://fantasy.premierleague.com/gcs/plfpl-production-adobe-approved/plfpl-production/34173/ad2d8d2b-3ff6-4325-a683-6bc95de8c70b.png",
        "entry": 34173,
        "entry_name": "Spidermen",
        "event_total": 60,
        "has_played": true,
        "id": 218233,
        "last_rank": 17327,
        "player_name": "Emmanuel Kissi",
        "rank": 15879,
        "rank_sort": 15879,
        "total": 2386
      },
      {
        "club_badge_src": "https://fantasy.premierleague.com/gcs/plfpl-production-adobe-approved/plfpl-production/59728/03474a66-e393-4c9d-94a3-2356365bf98f.png",
        "entry": 59728,
        "entry_name": "gianni patrino fc",
        "event_total": 50,
        "has_played": true,
        "id": 384591,
        "last_rank": 11642,
        "player_name": "John Patrinos",
        "rank": 15879,
        "rank_sort": 15880,
        "total": 2386
      },
      {
        "club_badge_src": "https://fantasy.premierleague.com/gcs/plfpl-production-adobe-approved/plfpl-production/65958/17dccc94-9cad-4034-9f8d-e344cf3624c6.png",
        "entry": 65958,
        "entry_name": "Rueben Sandwich",
        "event_total": 61,
        "has_played": true,
        "id": 426114,
        "last_rank": 17989,
        "player_name": "Scott Sterling",
        "rank": 15879,
        "rank_sort": 15881,
        "total": 2386
      },
      {
        "club_badge_src": null,
        "entry": 168717,
        "entry_name": "Dodd FC",
        "event_total": 59,
        "has_played": true,
        "id": 1115073,
        "last_rank": 16702,
        "player_name": "Sam Dodd",
        "rank": 15879,
        "rank_sort": 15882,
        "total": 2386
      },
      {
        "club_badge_src": null,
        "entry": 298577,
        "entry_name": "Hannon Evans Wealth",
        "event_total": 49,
        "has_played": true,
        "id": 1996303,
        "last_rank": 11175,
        "player_name": "Matthew Evans",
        "rank": 15879,
        "rank_sort": 15883,
        "total": 2386
      },
      {
        "club_badge_src": null,
        "entry": 379614,
        "entry_name": "The Teddy Bears",
        "event_total": 66,
        "has_played": true,
        "id": 2543698,
        "last_rank": 21677,
        "player_name": "Stuart Williamson",
        "rank": 15879,
        "rank_sort": 15884,
        "total": 2386
      },
      {
        "club_badge_src": null,
        "entry": 461725,
        "entry_name": "Malins FC",
        "event_total": 38,
        "has_played": true,
        "id": 3097286,
        "last_rank": 7059,
        "player_name": "Arron Malins",
        "rank": 15879,
        "rank_sort": 15885,
        "total": 2386
      },
      {
        "club_badge_src": null,
        "entry": 631984,
        "entry_name": "Al-Qeada",
        "event_total": 59,
        "has_played": true,
        "id": 4270401,
        "last_rank": 16729,
        "player_name": "Mensah-Dodoo Jayden",
        "rank": 15879,
        "rank_sort": 15886,
        "total": 2386
      },
      {
        "club_badge_src": null,
        "entry": 943159,
        "entry_name": "Earth, Wind& Maguire",
        "event_total": 19,
        "has_played": true,
        "id": 6495832,
        "last_rank": 2945,
        "player_name": "Peter Howe",
        "rank": 15879,
        "rank_sort": 15887,
        "total": 2386
      },
      {
        "club_badge_src": "https://fantasy.premierleague.com/gcs/plfpl-production-adobe-approved/plfpl-production/950551/9d138e14-c522-4ae5-bcf9-8e5b6ba2bbf2.png",
        "entry": 950551,
        "entry_name": "FK Pastir",
        "event_total": 70,
        "has_played": true,
        "id": 6548666,
        "last_rank": 24832,
        "player_name": "Vladimir Aj",
        "rank": 15879,
        "rank_sort": 15888,
        "total": 2386
      },
      {
        "club_badge_src": null,
        "entry": 1081387,
        "entry_name": "Vandelay FC",
        "event_total": 68,
        "has_played": true,
        "id": 7487638,
        "last_rank": 23164,
        "player_name": "Mark Morgan",
        "rank": 15879,
        "rank_sort": 15889,
        "total": 2386
      },
      {
        "club_badge_src": null,
        "entry": 1152662,
        "entry_name": "Game of Stones",
        "event_total": 54,
        "has_played": true,
        "id": 7992513,
        "last_rank": 13821,
        "player_name": "Christopher Macauley",
        "rank": 15879,
        "rank_sort": 15890,
        "total": 2386
      },
      {
        "club_badge_src": null,
        "entry": 1275647,
        "entry_name": "Gone Bananas",
        "event_total": 58,
        "has_played": true,
        "id": 8863990,
        "last_rank": 16062,
        "player_name": "Dan Crichton",
        "rank": 15879,
        "rank_sort": 15891,
        "total": 2386
      },
      {
        "club_badge_src": null,
        "entry": 1300614,
        "entry_name": "Back of the Neto",
        "event_total": 53,
        "has_played": true,
        "id": 9039170,
        "last_rank": 13257,
        "player_name": "Prem Pradeep",
        "rank": 15879,
        "rank_sort": 15892,
        "total": 2386
      },
      {
        "club_badge_src": null,
        "entry": 1421026,
        "entry_name": "MPFC",
        "event_total": 30,
        "has_played": true,
        "id": 9894459,
        "last_rank": 4954,
        "player_name": "Matty Porter",
        "rank": 15879,
        "rank_sort": 15893,
        "total": 2386
      },
      {
        "club_badge_src": null,
        "entry": 1607291,
        "entry_name": "count Doku",
        "event_total": 62,
        "has_played": true,
        "id": 11245391,
        "last_rank": 18691,
        "player_name": "Simon Werkers",
        "rank": 15879,
        "rank_sort": 15894,
        "total": 2386
      },
      {
        "club_badge_src": null,
        "entry": 1637701,
        "entry_name": "Spartak Kapokovic",
        "event_total": 41,
        "has_played": true,
        "id": 11463233,
        "last_rank": 8032,
        "player_name": "Alex Keappock",
        "rank": 15879,
        "rank_sort": 15895,
        "total": 2386
      },
      {
        "club_badge_src": null,
        "entry": 1908761,
        "entry_name": "The Power Reijnders",
        "event_total": 71,
        "has_played": true,
        "id": 13456785,
        "last_rank": 25729,
        "player_name": "Max Tomlinson",
        "rank": 15879,
        "rank_sort": 15896,
        "total": 2386
      },
      {
        "club_badge_src": "https://fantasy.premierleague.com/gcs/plfpl-production-adobe-approved/plfpl-production/1916505/b96f2368-dbc3-437e-8de7-2f7e060718dd.png",
        "entry": 1916505,
        "entry_name": "Bes' Best",
        "event_total": 51,
        "has_played": true,
        "id": 13513043,
        "last_rank": 12200,
        "player_name": "Christian Kemp",
        "rank": 15879,
        "rank_sort": 15897,
        "total": 2386
      },
      {
        "club_badge_src": null,
        "entry": 2049313,
        "entry_name": "\u00d8degaard X Hedegaard",
        "event_total": 71,
        "has_played": true,
        "id": 14514742,
        "last_rank": 25729,
        "player_name": "Martin Jensen",
        "rank": 15879,
        "rank_sort": 15898,
        "total": 2386
      },
      {
        "club_badge_src": "https://fantasy.premierleague.com/gcs/plfpl-production-adobe-approved/plfpl-production/2366703/c8ac3075-b67f-4f34-ade0-6d2899ef8769.png",
        "entry": 2366703,
        "entry_name": "Addinho",
        "event_total": 65,
        "has_played": true,
        "id": 16893613,
        "last_rank": 20853,
        "player_name": "Adam Holmstr\u00f6m",
        "rank": 15879,
        "rank_sort": 15899,
        "total": 2386
      },
      {
        "club_badge_src": null,
        "entry": 2708518,
        "entry_name": "Don & Dusted",
        "event_total": 60,
        "has_played": true,
        "id": 19486773,
        "last_rank": 17327,
        "player_name": "Tom Hadingham",
        "rank": 15879,
        "rank_sort": 15900,
        "total": 2386
      }
    ]
  }
}