{
  "last_updated_data": "2026-05-24T23:28:17Z",
  "league": {
    "admin_entry": null,
    "closed": false,
    "code_privacy": "p",
    "created": "2025-07-20T23:14:33.933835Z",
    "cup_league": 2815434,
    "has_cup": true,
    "id": 314,
    "league_type": "s",
    "max_entries": null,
    "name": "Overall",
    "rank": null,
    "scoring": "c",
    "start_event": 1
  },
  "new_entries": {
    "has_next": false,
    "page": 1,
    "results": []
  },
  "standings": {
    "has_next": true,
    "page": 1058,
    "results": [
      {
        "club_badge_src": null,
        "entry": 842018,
        "entry_name": "Jaka Spoko Dru\u017cyna",
        "event_total": 67,
        "has_played": true,
        "id": 5769241,
        "last_rank": 71386,
        "player_name": "Piotr Piszczatowski",
        "rank": 52759,
        "rank_sort": 52851,
        "total": 2350
      },
      {
        "club_badge_src": "https://fantasy.premierleague.com/gcs/plfpl-production-adobe-approved/plfpl-production/846113/6ca8d715-b94c-47e3-932e-2b89f485aa43.png",
        "entry": 846113,
        "entry_name": "Going Toulouse",
        "event_total": 66,
        "has_played": true,
        "id": 5797359,
        "last_rank": 68957,
        "player_name": "Karlo Bu\u0107in",
        "rank": 52759,
        "rank_sort": 52852,
        "total": 2350
      },
      {
        "club_badge_src": null,
        "entry": 864172,
        "entry_name": "Yoro My Fire",
        "event_total": 53,
        "has_played": true,
        "id": 5924305,
        "last_rank": 46839,
        "player_name": "Gabe B",
        "rank": 52759,
        "rank_sort": 52853,
        "total": 2350
      },
      {
        "club_badge_src": null,
        "entry": 893349,
        "entry_name": "Game of 10 halves",
        "event_total": 29,
        "has_played": true,
        "id": 6136378,
        "last_rank": 21159,
        "player_name": "Rich Wherlock",
        "rank": 52759,
        "rank_sort": 52854,
        "total": 2350
      },
      {
        "club_badge_src": null,
        "entry": 925817,
        "entry_name": "Dzubinator",
        "event_total": 26,
        "has_played": true,
        "id": 6369241,
        "last_rank": 16163,
        "player_name": "Ilya Sergeev",
        "rank": 52759,
        "rank_sort": 52855,
        "total": 2350
      },
      {
        "club_badge_src": null,
        "entry": 943561,
        "entry_name": "Beatles",
        "event_total": 62,
        "has_played": true,
        "id": 6498693,
        "last_rank": 61950,
        "player_name": "Peter Hermundstad",
        "rank": 52759,
        "rank_sort": 52856,
        "total": 2350
      },
      {
        "club_badge_src": null,
        "entry": 955787,
        "entry_name": "Saka Potatoes",
        "event_total": 73,
        "has_played": true,
        "id": 6585539,
        "last_rank": 84360,
        "player_name": "Tyler Read",
        "rank": 52759,
        "rank_sort": 52857,
        "total": 2350
      },
      {
        "club_badge_src": null,
        "entry": 973811,
        "entry_name": "Camsterdam",
        "event_total": 52,
        "has_played": true,
        "id": 6712860,
        "last_rank": 45714,
        "player_name": "Cameron McCausland",
        "rank": 52759,
        "rank_sort": 52858,
        "total": 2350
      },
      {
        "club_badge_src": null,
        "entry": 990915,
        "entry_name": "Y Que Fue",
        "event_total": 45,
        "has_played": true,
        "id": 6832586,
        "last_rank": 36624,
        "player_name": "Aarondeep Bassan",
        "rank": 52759,
        "rank_sort": 52859,
        "total": 2350
      },
      {
        "club_badge_src": null,
        "entry": 996003,
        "entry_name": "Diffen",
        "event_total": 67,
        "has_played": true,
        "id": 6876153,
        "last_rank": 63390,
        "player_name": "Albin Kammars Larsson",
        "rank": 52759,
        "rank_sort": 52860,
        "total": 2350
      },
      {
        "club_badge_src": null,
        "entry": 1007823,
        "entry_name": "Notts Forest Struggl",
        "event_total": 61,
        "has_played": true,
        "id": 6967768,
        "last_rank": 59813,
        "player_name": "Francis Butterworth-Parr",
        "rank": 52759,
        "rank_sort": 52861,
        "total": 2350
      },
      {
        "club_badge_src": null,
        "entry": 1033040,
        "entry_name": "Necemo doci",
        "event_total": 58,
        "has_played": true,
        "id": 7147479,
        "last_rank": 55014,
        "player_name": "Milos Kosutic",
        "rank": 52759,
        "rank_sort": 52862,
        "total": 2350
      },
      {
        "club_badge_src": null,
        "entry": 1058341,
        "entry_name": "Tabben United",
        "event_total": 62,
        "has_played": true,
        "id": 7324352,
        "last_rank": 54667,
        "player_name": "Trond Nyg\u00e5rd",
        "rank": 52759,
        "rank_sort": 52863,
        "total": 2350
      },
      {
        "club_badge_src": "https://fantasy.premierleague.com/gcs/plfpl-production-adobe-approved/plfpl-production/1066324/a53e245a-d6f7-4059-a3c6-80ab799432cb.png",
        "entry": 1066324,
        "entry_name": "Cape Spurs FC",
        "event_total": 54,
        "has_played": true,
        "id": 7381867,
        "last_rank": 48642,
        "player_name": "Walter Melville",
        "rank": 52759,
        "rank_sort": 52864,
        "total": 2350
      },
      {
        "club_badge_src": null,
        "entry": 1087632,
        "entry_name": "Aston Hilli",
        "event_total": 56,
        "has_played": true,
        "id": 7532286,
        "last_rank": 51720,
        "player_name": "Max Hilli",
        "rank": 52759,
        "rank_sort": 52865,
        "total": 2350
      },
      {
        "club_badge_src": "https://fantasy.premierleague.com/gcs/plfpl-production-adobe-approved/plfpl-production/1090189/5630b49c-668c-4427-a347-5204b55d5076.png",
        "entry": 1090189,
        "entry_name": "KutinioS Team",
        "event_total": 61,
        "has_played": true,
        "id": 7550351,
        "last_rank": 60168,
        "player_name": "Sebastian Go\u0142aszewski",
        "rank": 52759,
        "rank_sort": 52866,
        "total": 2350
      },
      {
        "club_badge_src": null,
        "entry": 1112899,
        "entry_name": "L9! Dream Team",
        "event_total": 61,
        "has_played": true,
        "id": 7708876,
        "last_rank": 60168,
        "player_name": "Luiz Locatelli",
        "rank": 52759,
        "rank_sort": 52867,
        "total": 2350
      },
      {
        "club_badge_src": null,
        "entry": 1125024,
        "entry_name": "HK721",
        "event_total": 54,
        "has_played": true,
        "id": 7796784,
        "last_rank": 48642,
        "player_name": "Padocych HK",
        "rank": 52759,
        "rank_sort": 52868,
        "total": 2350
      },
      {
        "club_badge_src": "https://fantasy.premierleague.com/gcs/plfpl-production-adobe-approved/plfpl-production/1192541/b65e39e9-9abe-4bb1-8e0e-d5338d2cb7e1.png",
        "entry": 1192541,
        "entry_name": "Robbers",
        "event_total": 48,
        "has_played": true,
        "id": 8274267,
        "last_rank": 40297,
        "player_name": "Henry Sutjiono",
        "rank": 52759,
        "rank_sort": 52869,
        "total": 2350
      },
      {
        "club_badge_src": null,
        "entry": 1240786,
        "entry_name": "Morgan Rogers Julie",
        "event_total": 48,
        "has_played": true,
        "id": 8617251,
        "last_rank": 39874,
        "player_name": "Oliver Unwin",
        "rank": 52759,
        "rank_sort": 52870,
        "total": 2350
      },
      {
        "club_badge_src": null,
        "entry": 1310729,
        "entry_name": "Tamin oppipojat",
        "event_total": 54,
        "has_played": true,
        "id": 9110694,
        "last_rank": 48642,
        "player_name": "Jussi Raudaskoski",
        "rank": 52759,
        "rank_sort": 52871,
        "total": 2350
      },
      {
        "club_badge_src": null,
        "entry": 1353986,
        "entry_name": "Morning Timber",
        "event_total": 53,
        "has_played": true,
        "id": 9412403,
        "last_rank": 47163,
        "player_name": "Jack Baldwin",
        "rank": 52759,
        "rank_sort": 52872,
        "total": 2350
      },
      {
        "club_badge_src": null,
        "entry": 1363407,
        "entry_name": "laurelview",
        "event_total": 71,
        "has_played": true,
        "id": 9478169,
        "last_rank": 80194,
        "player_name": "Stephen Johnston",
        "rank": 52759,
        "rank_sort": 52873,
        "total": 2350
      },
      {
        "club_badge_src": null,
        "entry": 1409997,
        "entry_name": "Tikka Mo Salah",
        "event_total": 52,
        "has_played": true,
        "id": 9811095,
        "last_rank": 45714,
        "player_name": "Conner McKay",
        "rank": 52759,
        "rank_sort": 52874,
        "total": 2350
      },
      {
        "club_badge_src": null,
        "entry": 1447898,
        "entry_name": "V-Bomber",
        "event_total": 61,
        "has_played": true,
        "id": 10089157,
        "last_rank": 59813,
        "player_name": "Aidan Kenworthy",
        "rank": 52759,
        "rank_sort": 52875,
        "total": 2350
      },
      {
        "club_badge_src": null,
        "entry": 1486521,
        "entry_name": "Copa Mondial",
        "event_total": 53,
        "has_played": true,
        "id": 10366227,
        "last_rank": 47163,
        "player_name": "Adam Nash",
        "rank": 52759,
        "rank_sort": 52876,
        "total": 2350
      },
      {
        "club_badge_src": null,
        "entry": 1499629,
        "entry_name": "White Wolf",
        "event_total": 61,
        "has_played": true,
        "id": 10458148,
        "last_rank": 59813,
        "player_name": "Salman Alsamahiji",
        "rank": 52759,
        "rank_sort": 52877,
        "total": 2350
      },
      {
        "club_badge_src": null,
        "entry": 1518201,
        "entry_name": "Omz",
        "event_total": 56,
        "has_played": true,
        "id": 10589049,
        "last_rank": 51403,
        "player_name": "Omar Mohamad",
        "rank": 52759,
        "rank_sort": 52878,
        "total": 2350
      },
      {
        "club_badge_src": null,
        "entry": 1547661,
        "entry_name": "Stranger Mings",
        "event_total": 66,
        "has_played": true,
        "id": 10805207,
        "last_rank": 69323,
        "player_name": "Norman Bickford",
        "rank": 52759,
        "rank_sort": 52879,
        "total": 2350
      },
      {
        "club_badge_src": null,
        "entry": 1582437,
        "entry_name": "Farkes Fantasy",
        "event_total": 45,
        "has_played": true,
        "id": 11059100,
        "last_rank": 36624,
        "player_name": "John Sayers",
        "rank": 52759,
        "rank_sort": 52880,
        "total": 2350
      },
      {
        "club_badge_src": null,
        "entry": 1585876,
        "entry_name": "YS",
        "event_total": 67,
        "has_played": true,
        "id": 11086629,
        "last_rank": 71386,
        "player_name": "Yaj Singh",
        "rank": 52759,
        "rank_sort": 52881,
        "total": 2350
      },
      {
        "club_badge_src": "https://fantasy.premierleague.com/gcs/plfpl-production-adobe-approved/plfpl-production/1591332/fafa6e6d-912e-4e3a-93c7-9432161b7f43.png",
        "entry": 1591332,
        "entry_name": "C.D. Maxaquene",
        "event_total": 72,
        "has_played": true,
        "id": 11127099,
        "last_rank": 64943,
        "player_name": "Tuomas Lahnalampi",
        "rank": 52759,
        "rank_sort": 52882,
        "total": 2350
      },
      {
        "club_badge_src": null,
        "entry": 1620665,
        "entry_name": "Reijnders Keepers",
        "event_total": 68,
        "has_played": true,
        "id": 11342074,
        "last_rank": 73423,
        "player_name": "Luke Wadsworth",
        "rank": 52759,
        "rank_sort": 52883,
        "total": 2350
      },
      {
        "club_badge_src": "https://fantasy.premierleague.com/gcs/plfpl-production-adobe-approved/plfpl-production/1626350/ded668c2-d966-40fc-9aef-0fb339ef0408.png",
        "entry": 1626350,
        "entry_name": "BrookingSox",
        "event_total": 55,
        "has_played": true,
        "id": 11383299,
        "last_rank": 50199,
        "player_name": "Owen Brooking",
        "rank": 52759,
        "rank_sort": 52884,
        "total": 2350
      },
      {
        "club_badge_src": null,
        "entry": 1657393,
        "entry_name": "Stepney Lads",
        "event_total": 59,
        "has_played": true,
        "id": 11603628,
        "last_rank": 56708,
        "player_name": "Jos\u00e9 Oliveira",
        "rank": 52759,
        "rank_sort": 52885,
        "total": 2350
      },
      {
        "club_badge_src": null,
        "entry": 1662617,
        "entry_name": "Haalandaise Sauce",
        "event_total": 48,
        "has_played": true,
        "id": 11640587,
        "last_rank": 40036,
        "player_name": "Joe Hynett",
        "rank": 52759,
        "rank_sort": 52886,
        "total": 2350
      },
      {
        "club_badge_src": null,
        "entry": 1685720,
        "entry_name": "Thang Arsenal",
        "event_total": 65,
        "has_played": true,
        "id": 11800181,
        "last_rank": 67422,
        "player_name": "Thang Arsenal",
        "rank": 52759,
        "rank_sort": 52887,
        "total": 2350
      },
      {
        "club_badge_src": null,
        "entry": 1697904,
        "entry_name": "Ssocs45",
        "event_total": 60,
        "has_played": true,
        "id": 11892490,
        "last_rank": 58388,
        "player_name": "Cs Suren",
        "rank": 52759,
        "rank_sort": 52888,
        "total": 2350
      },
      {
        "club_badge_src": null,
        "entry": 1751368,
        "entry_name": "stags and ladders",
        "event_total": 67,
        "has_played": true,
        "id": 12291198,
        "last_rank": 70985,
        "player_name": "Tom Haytree",
        "rank": 52759,
        "rank_sort": 52889,
        "total": 2350
      },
      {
        "club_badge_src": null,
        "entry": 1829515,
        "entry_name": "D-Man United",
        "event_total": 66,
        "has_played": true,
        "id": 12868763,
        "last_rank": 69323,
        "player_name": "Dom McManoman",
        "rank": 52759,
        "rank_sort": 52890,
        "total": 2350
      },
      {
        "club_badge_src": null,
        "entry": 1919963,
        "entry_name": "Kinder Mbuemo",
        "event_total": 45,
        "has_played": true,
        "id": 13538581,
        "last_rank": 31747,
        "player_name": "Stevie Fong",
        "rank": 52759,
        "rank_sort": 52891,
        "total": 2350
      },
      {
        "club_badge_src": null,
        "entry": 1931323,
        "entry_name": "\u0645\u0633\u0643 \u0627\u0644\u062e\u062a\u0627\u0645",
        "event_total": 55,
        "has_played": true,
        "id": 13621372,
        "last_rank": 44048,
        "player_name": "Moffag Ghazy",
        "rank": 52759,
        "rank_sort": 52892,
        "total": 2350
      },
      {
        "club_badge_src": null,
        "entry": 1943906,
        "entry_name": "FPL dulaahs",
        "event_total": 69,
        "has_played": true,
        "id": 13712049,
        "last_rank": 67063,
        "player_name": "Abdulrahman Sambo",
        "rank": 52759,
        "rank_sort": 52893,
        "total": 2350
      },
      {
        "club_badge_src": null,
        "entry": 1967165,
        "entry_name": "Naybaileyfc",
        "event_total": 43,
        "has_played": true,
        "id": 13882283,
        "last_rank": 34293,
        "player_name": "Nathan Drummond-Bailey",
        "rank": 52759,
        "rank_sort": 52894,
        "total": 2350
      },
      {
        "club_badge_src": null,
        "entry": 1976908,
        "entry_name": "Beef Cherki",
        "event_total": 43,
        "has_played": true,
        "id": 13954905,
        "last_rank": 34051,
        "player_name": "Cowan Wilson",
        "rank": 52759,
        "rank_sort": 52895,
        "total": 2350
      },
      {
        "club_badge_src": null,
        "entry": 1977451,
        "entry_name": "bacon",
        "event_total": 62,
        "has_played": true,
        "id": 13959015,
        "last_rank": 61315,
        "player_name": "Alfred Brogren",
        "rank": 52759,
        "rank_sort": 52896,
        "total": 2350
      },
      {
        "club_badge_src": null,
        "entry": 1998867,
        "entry_name": "Palle Kuling",
        "event_total": 44,
        "has_played": true,
        "id": 14126291,
        "last_rank": 35619,
        "player_name": "Jocke Bergman",
        "rank": 52759,
        "rank_sort": 52897,
        "total": 2350
      },
      {
        "club_badge_src": null,
        "entry": 2015363,
        "entry_name": "Ctrl Alt De Ligt",
        "event_total": 59,
        "has_played": true,
        "id": 14257242,
        "last_rank": 49880,
        "player_name": "Jithin Suresh",
        "rank": 52759,
        "rank_sort": 52898,
        "total": 2350
      },
      {
        "club_badge_src": null,
        "entry": 2052888,
        "entry_name": "VictorMosesLawn",
        "event_total": 75,
        "has_played": true,
        "id": 14541522,
        "last_rank": 88594,
        "player_name": "Tom Byrne",
        "rank": 52759,
        "rank_sort": 52899,
        "total": 2350
      },
      {
        "club_badge_src": null,
        "entry": 2053521,
        "entry_name": "Peaky Reijnders",
        "event_total": 70,
        "has_played": true,
        "id": 14546302,
        "last_rank": 77050,
        "player_name": "noah cronly",
        "rank": 52759,
        "rank_sort": 52900,
        "total": 2350
      }
    ]
  }
}