{
  "last_updated_data": "2026-05-24T23:28:17Z",
  "league": {
    "admin_entry": null,
    "closed": false,
    "code_privacy": "p",
    "created": "2025-07-20T23:14:33.933835Z",
    "cup_league": 2815434,
    "has_cup": true,
    "id": 314,
    "league_type": "s",
    "max_entries": null,
    "name": "Overall",
    "rank": null,
    "scoring": "c",
    "start_event": 1
  },
  "new_entries": {
    "has_next": false,
    "page": 1,
    "results": []
  },
  "standings": {
    "has_next": true,
    "page": 180,
    "results": [
      {
        "club_badge_src": null,
        "entry": 944627,
        "entry_name": "CTRL C - CTRL V",
        "event_total": 66,
        "has_played": true,
        "id": 6506182,
        "last_rank": 10346,
        "player_name": "Oliver PrameliusMalmer",
        "rank": 8916,
        "rank_sort": 8951,
        "total": 2401
      },
      {
        "club_badge_src": null,
        "entry": 1008404,
        "entry_name": "Va Va V\u00d6\u00d8M",
        "event_total": 50,
        "has_played": true,
        "id": 6971793,
        "last_rank": 6265,
        "player_name": "Jamie Stapleton-Burns",
        "rank": 8916,
        "rank_sort": 8952,
        "total": 2401
      },
      {
        "club_badge_src": null,
        "entry": 1010753,
        "entry_name": "AGENT-X",
        "event_total": 61,
        "has_played": true,
        "id": 6990616,
        "last_rank": 10031,
        "player_name": "Redford Chew",
        "rank": 8916,
        "rank_sort": 8953,
        "total": 2401
      },
      {
        "club_badge_src": null,
        "entry": 1287099,
        "entry_name": "Alisson Wonderland",
        "event_total": 57,
        "has_played": true,
        "id": 8943730,
        "last_rank": 8382,
        "player_name": "Luke Daykin",
        "rank": 8916,
        "rank_sort": 8954,
        "total": 2401
      },
      {
        "club_badge_src": "https://fantasy.premierleague.com/gcs/plfpl-production-adobe-approved/plfpl-production/1407784/4476919a-4ab3-48a8-9eae-fab93c6e01a9.png",
        "entry": 1407784,
        "entry_name": "Jeffsupreme",
        "event_total": 59,
        "has_played": true,
        "id": 9795574,
        "last_rank": 9142,
        "player_name": "Jeff Jeff",
        "rank": 8916,
        "rank_sort": 8955,
        "total": 2401
      },
      {
        "club_badge_src": "https://fantasy.premierleague.com/gcs/plfpl-production-adobe-approved/plfpl-production/1421507/f7dc9912-5916-4c54-a07f-4d4638888731.png",
        "entry": 1421507,
        "entry_name": "Can I pet Udogie?",
        "event_total": 67,
        "has_played": true,
        "id": 9897848,
        "last_rank": 12705,
        "player_name": "Simon Morgan",
        "rank": 8916,
        "rank_sort": 8956,
        "total": 2401
      },
      {
        "club_badge_src": null,
        "entry": 1452238,
        "entry_name": "LivingSalibaLoca",
        "event_total": 53,
        "has_played": true,
        "id": 10119271,
        "last_rank": 7141,
        "player_name": "Harry Brittain",
        "rank": 8916,
        "rank_sort": 8957,
        "total": 2401
      },
      {
        "club_badge_src": null,
        "entry": 1487191,
        "entry_name": "Richmond FC",
        "event_total": 64,
        "has_played": true,
        "id": 10370860,
        "last_rank": 11237,
        "player_name": "Josh Smith",
        "rank": 8916,
        "rank_sort": 8958,
        "total": 2401
      },
      {
        "club_badge_src": null,
        "entry": 1646513,
        "entry_name": "Scholes Fanboys",
        "event_total": 66,
        "has_played": true,
        "id": 11525825,
        "last_rank": 12322,
        "player_name": "Andreas Selevik",
        "rank": 8916,
        "rank_sort": 8959,
        "total": 2401
      },
      {
        "club_badge_src": null,
        "entry": 1691135,
        "entry_name": "Flying Pig",
        "event_total": 48,
        "has_played": true,
        "id": 11843690,
        "last_rank": 5752,
        "player_name": "Bernard Tang",
        "rank": 8916,
        "rank_sort": 8960,
        "total": 2401
      },
      {
        "club_badge_src": null,
        "entry": 1963141,
        "entry_name": "Kallishis FC",
        "event_total": 55,
        "has_played": true,
        "id": 13851172,
        "last_rank": 7761,
        "player_name": "Andreas Kallishis",
        "rank": 8916,
        "rank_sort": 8961,
        "total": 2401
      },
      {
        "club_badge_src": "https://fantasy.premierleague.com/gcs/plfpl-production-adobe-approved/plfpl-production/2034300/1362bea1-702b-49b5-a431-8650a64c3c59.png",
        "entry": 2034300,
        "entry_name": "Club Cookie",
        "event_total": 61,
        "has_played": true,
        "id": 14403286,
        "last_rank": 8382,
        "player_name": "Faisal Habib",
        "rank": 8916,
        "rank_sort": 8962,
        "total": 2401
      },
      {
        "club_badge_src": null,
        "entry": 2616008,
        "entry_name": "FPL Final Boss",
        "event_total": 61,
        "has_played": true,
        "id": 18796414,
        "last_rank": 10031,
        "player_name": "stephen peacock",
        "rank": 8916,
        "rank_sort": 8963,
        "total": 2401
      },
      {
        "club_badge_src": null,
        "entry": 2958021,
        "entry_name": "AllowAkbar",
        "event_total": 69,
        "has_played": true,
        "id": 21727073,
        "last_rank": 13947,
        "player_name": "Siddharth Jain",
        "rank": 8916,
        "rank_sort": 8964,
        "total": 2401
      },
      {
        "club_badge_src": null,
        "entry": 2994737,
        "entry_name": "Better than Andy",
        "event_total": 58,
        "has_played": true,
        "id": 22025987,
        "last_rank": 8854,
        "player_name": "Mark Clinard",
        "rank": 8916,
        "rank_sort": 8965,
        "total": 2401
      },
      {
        "club_badge_src": null,
        "entry": 3389768,
        "entry_name": "Arne Scotts",
        "event_total": 55,
        "has_played": true,
        "id": 25164945,
        "last_rank": 7761,
        "player_name": "Scott Beardmore",
        "rank": 8916,
        "rank_sort": 8966,
        "total": 2401
      },
      {
        "club_badge_src": null,
        "entry": 3412004,
        "entry_name": "KAZEWEST\u2623\ufe0f",
        "event_total": 46,
        "has_played": true,
        "id": 25339687,
        "last_rank": 5241,
        "player_name": "Mpagalushu Academy \ud83c\uddfa\ud83c\uddf3",
        "rank": 8916,
        "rank_sort": 8967,
        "total": 2401
      },
      {
        "club_badge_src": "https://fantasy.premierleague.com/gcs/plfpl-production-adobe-approved/plfpl-production/3917599/55dc8ecb-d72c-48ff-9182-49feb5e348a0.png",
        "entry": 3917599,
        "entry_name": "AC Milligram",
        "event_total": 71,
        "has_played": true,
        "id": 29457747,
        "last_rank": 15063,
        "player_name": "Josh Prestage",
        "rank": 8916,
        "rank_sort": 8968,
        "total": 2401
      },
      {
        "club_badge_src": null,
        "entry": 3920053,
        "entry_name": "\u4fe1\u4efb\u4e3b\u961f\u5c31\u5b8c\u4e8b\u4e86",
        "event_total": 64,
        "has_played": true,
        "id": 29477204,
        "last_rank": 11345,
        "player_name": "Vincent Wang",
        "rank": 8916,
        "rank_sort": 8969,
        "total": 2401
      },
      {
        "club_badge_src": null,
        "entry": 4011628,
        "entry_name": "Can'tStopWinning",
        "event_total": 56,
        "has_played": true,
        "id": 30227548,
        "last_rank": 6752,
        "player_name": "Yahya Boss",
        "rank": 8916,
        "rank_sort": 8970,
        "total": 2401
      },
      {
        "club_badge_src": null,
        "entry": 4192333,
        "entry_name": "Newton Heath",
        "event_total": 77,
        "has_played": true,
        "id": 31727900,
        "last_rank": 18691,
        "player_name": "Dylan O'Brien",
        "rank": 8916,
        "rank_sort": 8971,
        "total": 2401
      },
      {
        "club_badge_src": null,
        "entry": 4612909,
        "entry_name": "Yeahhh Buddy!!!!",
        "event_total": 60,
        "has_played": true,
        "id": 35250326,
        "last_rank": 9644,
        "player_name": "John Boyle",
        "rank": 8916,
        "rank_sort": 8972,
        "total": 2401
      },
      {
        "club_badge_src": null,
        "entry": 4769068,
        "entry_name": "Bruno, dos, tres",
        "event_total": 40,
        "has_played": true,
        "id": 36705158,
        "last_rank": 4000,
        "player_name": "James Simpson",
        "rank": 8916,
        "rank_sort": 8973,
        "total": 2401
      },
      {
        "club_badge_src": null,
        "entry": 4978795,
        "entry_name": "canardo",
        "event_total": 51,
        "has_played": true,
        "id": 38432008,
        "last_rank": 6528,
        "player_name": "Lyes Canardo",
        "rank": 8916,
        "rank_sort": 8974,
        "total": 2401
      },
      {
        "club_badge_src": "https://fantasy.premierleague.com/gcs/plfpl-production-adobe-approved/plfpl-production/5127345/433cc64f-50fa-417e-96f9-1a02ac027720.png",
        "entry": 5127345,
        "entry_name": "Weise Wunderbar",
        "event_total": 58,
        "has_played": true,
        "id": 39651787,
        "last_rank": 7375,
        "player_name": "Wai Yan Htet",
        "rank": 8916,
        "rank_sort": 8975,
        "total": 2401
      },
      {
        "club_badge_src": null,
        "entry": 5409542,
        "entry_name": "Ole's Champions",
        "event_total": 70,
        "has_played": true,
        "id": 42066059,
        "last_rank": 14292,
        "player_name": "Ole Bj\u00f8rn Barstad",
        "rank": 8916,
        "rank_sort": 8976,
        "total": 2401
      },
      {
        "club_badge_src": null,
        "entry": 5493113,
        "entry_name": "Bruno Dos Tres",
        "event_total": 63,
        "has_played": true,
        "id": 42785016,
        "last_rank": 10920,
        "player_name": "Ed Mountford",
        "rank": 8916,
        "rank_sort": 8977,
        "total": 2401
      },
      {
        "club_badge_src": null,
        "entry": 5538085,
        "entry_name": "JLYNG XI",
        "event_total": 74,
        "has_played": true,
        "id": 43210794,
        "last_rank": 16959,
        "player_name": "Jamie Lyng",
        "rank": 8916,
        "rank_sort": 8978,
        "total": 2401
      },
      {
        "club_badge_src": null,
        "entry": 6152589,
        "entry_name": "Gilly's Squad",
        "event_total": 73,
        "has_played": true,
        "id": 48635308,
        "last_rank": 16163,
        "player_name": "Gillian Sneddon",
        "rank": 8916,
        "rank_sort": 8979,
        "total": 2401
      },
      {
        "club_badge_src": null,
        "entry": 6446637,
        "entry_name": "Impressive Town",
        "event_total": 66,
        "has_played": true,
        "id": 51332689,
        "last_rank": 10346,
        "player_name": "Matthew Jury",
        "rank": 8916,
        "rank_sort": 8980,
        "total": 2401
      },
      {
        "club_badge_src": null,
        "entry": 6760380,
        "entry_name": "Raya Sunshine",
        "event_total": 67,
        "has_played": true,
        "id": 54126577,
        "last_rank": 12608,
        "player_name": "Linzi Godfrey",
        "rank": 8916,
        "rank_sort": 8981,
        "total": 2401
      },
      {
        "club_badge_src": null,
        "entry": 6796661,
        "entry_name": "crushers",
        "event_total": 38,
        "has_played": true,
        "id": 54429109,
        "last_rank": 3601,
        "player_name": "Aman Gupta",
        "rank": 8916,
        "rank_sort": 8982,
        "total": 2401
      },
      {
        "club_badge_src": null,
        "entry": 6838586,
        "entry_name": "West Shams United",
        "event_total": 62,
        "has_played": true,
        "id": 54781450,
        "last_rank": 10462,
        "player_name": "Peter Murphy",
        "rank": 8916,
        "rank_sort": 8983,
        "total": 2401
      },
      {
        "club_badge_src": null,
        "entry": 7073275,
        "entry_name": "Chiellini Con Carne",
        "event_total": 54,
        "has_played": true,
        "id": 56920290,
        "last_rank": 7450,
        "player_name": "Christian Kongerud",
        "rank": 8916,
        "rank_sort": 8984,
        "total": 2401
      },
      {
        "club_badge_src": "https://fantasy.premierleague.com/gcs/plfpl-production-adobe-approved/plfpl-production/7368757/b50e2b63-1ed2-459a-9304-76b5189870b8.png",
        "entry": 7368757,
        "entry_name": "SHARON? SHARON!?",
        "event_total": 79,
        "has_played": true,
        "id": 59723189,
        "last_rank": 20131,
        "player_name": "Thomas Hoult",
        "rank": 8916,
        "rank_sort": 8985,
        "total": 2401
      },
      {
        "club_badge_src": null,
        "entry": 7417937,
        "entry_name": "Punjabiredevil",
        "event_total": 66,
        "has_played": true,
        "id": 60222252,
        "last_rank": 10346,
        "player_name": "Vishal Khosla",
        "rank": 8916,
        "rank_sort": 8986,
        "total": 2401
      },
      {
        "club_badge_src": null,
        "entry": 7463396,
        "entry_name": "Obi-wan Iwobi",
        "event_total": 62,
        "has_played": true,
        "id": 60809691,
        "last_rank": 10462,
        "player_name": "Sue O'callaghan",
        "rank": 8916,
        "rank_sort": 8987,
        "total": 2401
      },
      {
        "club_badge_src": null,
        "entry": 7714924,
        "entry_name": "Jue-Ventus",
        "event_total": 63,
        "has_played": true,
        "id": 63305176,
        "last_rank": 10920,
        "player_name": "Julie Mountford",
        "rank": 8916,
        "rank_sort": 8988,
        "total": 2401
      },
      {
        "club_badge_src": null,
        "entry": 7812399,
        "entry_name": "Leeds Prem Winner",
        "event_total": 89,
        "has_played": true,
        "id": 64185453,
        "last_rank": 28609,
        "player_name": "Julius Haahr",
        "rank": 8916,
        "rank_sort": 8989,
        "total": 2401
      },
      {
        "club_badge_src": null,
        "entry": 8069613,
        "entry_name": "Sujan",
        "event_total": 68,
        "has_played": true,
        "id": 66518300,
        "last_rank": 13401,
        "player_name": "Sujan Neupane",
        "rank": 8916,
        "rank_sort": 8990,
        "total": 2401
      },
      {
        "club_badge_src": null,
        "entry": 8136182,
        "entry_name": "Wizard of \u00d6zil",
        "event_total": 67,
        "has_played": true,
        "id": 67139010,
        "last_rank": 12705,
        "player_name": "Nazgol Nadali",
        "rank": 8916,
        "rank_sort": 8991,
        "total": 2401
      },
      {
        "club_badge_src": null,
        "entry": 8141269,
        "entry_name": "FC HigherStonesnose",
        "event_total": 69,
        "has_played": true,
        "id": 67187350,
        "last_rank": 11642,
        "player_name": "Lea Stensn\u00e6s",
        "rank": 8916,
        "rank_sort": 8992,
        "total": 2401
      },
      {
        "club_badge_src": null,
        "entry": 8788721,
        "entry_name": "CUNNY FUNT",
        "event_total": 64,
        "has_played": true,
        "id": 73435588,
        "last_rank": 11237,
        "player_name": "Dale Roberts",
        "rank": 8916,
        "rank_sort": 8993,
        "total": 2401
      },
      {
        "club_badge_src": null,
        "entry": 8859067,
        "entry_name": "Tifa",
        "event_total": 58,
        "has_played": true,
        "id": 74113797,
        "last_rank": 8854,
        "player_name": "Mohamed Tifa",
        "rank": 8916,
        "rank_sort": 8994,
        "total": 2401
      },
      {
        "club_badge_src": "https://fantasy.premierleague.com/gcs/plfpl-production-adobe-approved/plfpl-production/15200/4105fd8b-f09e-4f4c-a815-752dc39f6b41.png",
        "entry": 15200,
        "entry_name": "BIKAM FC",
        "event_total": 41,
        "has_played": true,
        "id": 93052,
        "last_rank": 4186,
        "player_name": "-D1e -eNTiNeL",
        "rank": 8995,
        "rank_sort": 8995,
        "total": 2401
      },
      {
        "club_badge_src": "https://fantasy.premierleague.com/gcs/plfpl-production-adobe-approved/plfpl-production/22194/a06cd0fe-784e-492e-bf21-ab782a36b41b.png",
        "entry": 22194,
        "entry_name": "Eggs' Eggs",
        "event_total": 57,
        "has_played": true,
        "id": 139330,
        "last_rank": 7141,
        "player_name": "John Edgar",
        "rank": 8995,
        "rank_sort": 8996,
        "total": 2401
      },
      {
        "club_badge_src": null,
        "entry": 29464,
        "entry_name": "Saturley\u2019s XI",
        "event_total": 68,
        "has_played": true,
        "id": 186310,
        "last_rank": 13500,
        "player_name": "Aaron Saturley",
        "rank": 8995,
        "rank_sort": 8997,
        "total": 2401
      },
      {
        "club_badge_src": null,
        "entry": 52776,
        "entry_name": "FROM ZERO TO HERO",
        "event_total": 55,
        "has_played": true,
        "id": 339353,
        "last_rank": 6528,
        "player_name": "Adrian Gjeng\u00e5r",
        "rank": 8995,
        "rank_sort": 8998,
        "total": 2401
      },
      {
        "club_badge_src": null,
        "entry": 87419,
        "entry_name": "Qu\u00e9 Salah Salah",
        "event_total": 37,
        "has_played": true,
        "id": 570078,
        "last_rank": 3408,
        "player_name": "Amy Gillon",
        "rank": 8995,
        "rank_sort": 8999,
        "total": 2401
      },
      {
        "club_badge_src": "https://fantasy.premierleague.com/gcs/plfpl-production-adobe-approved/plfpl-production/154997/e6bcc6c2-60c1-4940-a79e-bcca7cce4a64.png",
        "entry": 154997,
        "entry_name": "Willy's Wonderkids",
        "event_total": 56,
        "has_played": true,
        "id": 1018463,
        "last_rank": 8234,
        "player_name": "Will Curtis",
        "rank": 8995,
        "rank_sort": 9000,
        "total": 2401
      }
    ]
  }
}