{
  "last_updated_data": "2026-05-24T23:28:17Z",
  "league": {
    "admin_entry": null,
    "closed": false,
    "code_privacy": "p",
    "created": "2025-07-20T23:14:33.933835Z",
    "cup_league": 2815434,
    "has_cup": true,
    "id": 314,
    "league_type": "s",
    "max_entries": null,
    "name": "Overall",
    "rank": null,
    "scoring": "c",
    "start_event": 1
  },
  "new_entries": {
    "has_next": false,
    "page": 1,
    "results": []
  },
  "standings": {
    "has_next": true,
    "page": 1452,
    "results": [
      {
        "club_badge_src": null,
        "entry": 6540243,
        "entry_name": "Hwanghedoityeshechan",
        "event_total": 54,
        "has_played": true,
        "id": 52180687,
        "last_rank": 67422,
        "player_name": "Tom Chase",
        "rank": 72321,
        "rank_sort": 72551,
        "total": 2339
      },
      {
        "club_badge_src": "https://fantasy.premierleague.com/gcs/plfpl-production-adobe-approved/plfpl-production/6605841/c6617874-6d5d-49e7-942b-0dfa9ccbccd3.png",
        "entry": 6605841,
        "entry_name": "Becks and the City",
        "event_total": 58,
        "has_played": true,
        "id": 52772232,
        "last_rank": 75874,
        "player_name": "Sarah Rabbich",
        "rank": 72321,
        "rank_sort": 72552,
        "total": 2339
      },
      {
        "club_badge_src": null,
        "entry": 6638978,
        "entry_name": "MoWirtz BK",
        "event_total": 40,
        "has_played": true,
        "id": 53067675,
        "last_rank": 44525,
        "player_name": "Andreas Andersson",
        "rank": 72321,
        "rank_sort": 72553,
        "total": 2339
      },
      {
        "club_badge_src": null,
        "entry": 6721634,
        "entry_name": "Destylaty",
        "event_total": 54,
        "has_played": true,
        "id": 53795599,
        "last_rank": 60168,
        "player_name": "Magdalena Oledzka",
        "rank": 72321,
        "rank_sort": 72554,
        "total": 2339
      },
      {
        "club_badge_src": null,
        "entry": 6728587,
        "entry_name": "CC Utd",
        "event_total": 70,
        "has_played": true,
        "id": 53854896,
        "last_rank": 83934,
        "player_name": "Chris Coates",
        "rank": 72321,
        "rank_sort": 72555,
        "total": 2339
      },
      {
        "club_badge_src": null,
        "entry": 6831236,
        "entry_name": "Palmer Violets",
        "event_total": 69,
        "has_played": true,
        "id": 54718798,
        "last_rank": 101818,
        "player_name": "Lisa Hayden",
        "rank": 72321,
        "rank_sort": 72556,
        "total": 2339
      },
      {
        "club_badge_src": null,
        "entry": 6863446,
        "entry_name": "wassim team",
        "event_total": 52,
        "has_played": true,
        "id": 54993780,
        "last_rank": 64005,
        "player_name": "wassim mbolhi",
        "rank": 72321,
        "rank_sort": 72557,
        "total": 2339
      },
      {
        "club_badge_src": null,
        "entry": 6911965,
        "entry_name": "Hudson's Hero's",
        "event_total": 57,
        "has_played": true,
        "id": 55404351,
        "last_rank": 73975,
        "player_name": "David Hudson",
        "rank": 72321,
        "rank_sort": 72558,
        "total": 2339
      },
      {
        "club_badge_src": null,
        "entry": 7079151,
        "entry_name": "UNITED KNIGHTS",
        "event_total": 53,
        "has_played": true,
        "id": 56977473,
        "last_rank": 65475,
        "player_name": "Arindam Mondal",
        "rank": 72321,
        "rank_sort": 72559,
        "total": 2339
      },
      {
        "club_badge_src": null,
        "entry": 7361134,
        "entry_name": "relakafaced",
        "event_total": 63,
        "has_played": true,
        "id": 59652678,
        "last_rank": 87074,
        "player_name": "kristjan tennokese",
        "rank": 72321,
        "rank_sort": 72560,
        "total": 2339
      },
      {
        "club_badge_src": null,
        "entry": 7559712,
        "entry_name": "THE CHAMP",
        "event_total": 54,
        "has_played": true,
        "id": 61899461,
        "last_rank": 67422,
        "player_name": "Dan Plank",
        "rank": 72321,
        "rank_sort": 72561,
        "total": 2339
      },
      {
        "club_badge_src": null,
        "entry": 7589310,
        "entry_name": "Lallana's in Pajamas",
        "event_total": 60,
        "has_played": true,
        "id": 62168778,
        "last_rank": 63201,
        "player_name": "Danny Mott",
        "rank": 72321,
        "rank_sort": 72562,
        "total": 2339
      },
      {
        "club_badge_src": null,
        "entry": 7774798,
        "entry_name": "A.C Slytherin",
        "event_total": 74,
        "has_played": true,
        "id": 63846105,
        "last_rank": 114574,
        "player_name": "Aviv Cohen",
        "rank": 72321,
        "rank_sort": 72563,
        "total": 2339
      },
      {
        "club_badge_src": null,
        "entry": 7777356,
        "entry_name": "FC Jones Sport",
        "event_total": 46,
        "has_played": true,
        "id": 63869541,
        "last_rank": 53621,
        "player_name": "Gareth Jones",
        "rank": 72321,
        "rank_sort": 72564,
        "total": 2339
      },
      {
        "club_badge_src": null,
        "entry": 7793276,
        "entry_name": "PC United",
        "event_total": 82,
        "has_played": true,
        "id": 64012950,
        "last_rank": 139917,
        "player_name": "Per Christian Larsen",
        "rank": 72321,
        "rank_sort": 72565,
        "total": 2339
      },
      {
        "club_badge_src": null,
        "entry": 7825208,
        "entry_name": "DC Milan",
        "event_total": 50,
        "has_played": true,
        "id": 64301993,
        "last_rank": 60462,
        "player_name": "Daniel Carins",
        "rank": 72321,
        "rank_sort": 72566,
        "total": 2339
      },
      {
        "club_badge_src": null,
        "entry": 7842286,
        "entry_name": "FC Hollywood",
        "event_total": 43,
        "has_played": true,
        "id": 64461695,
        "last_rank": 48898,
        "player_name": "Mohamed Hazem",
        "rank": 72321,
        "rank_sort": 72567,
        "total": 2339
      },
      {
        "club_badge_src": null,
        "entry": 7940375,
        "entry_name": "LMFC",
        "event_total": 59,
        "has_played": true,
        "id": 65354160,
        "last_rank": 69323,
        "player_name": "Patrick Daly",
        "rank": 72321,
        "rank_sort": 72568,
        "total": 2339
      },
      {
        "club_badge_src": null,
        "entry": 7946717,
        "entry_name": "KTBFFH",
        "event_total": 65,
        "has_played": true,
        "id": 65410172,
        "last_rank": 81646,
        "player_name": "Ahmed RAGAB",
        "rank": 72321,
        "rank_sort": 72569,
        "total": 2339
      },
      {
        "club_badge_src": null,
        "entry": 8052918,
        "entry_name": "Corfu \u201806",
        "event_total": 45,
        "has_played": true,
        "id": 66363978,
        "last_rank": 51720,
        "player_name": "Shawn Holder",
        "rank": 72321,
        "rank_sort": 72570,
        "total": 2339
      },
      {
        "club_badge_src": null,
        "entry": 8151982,
        "entry_name": "Cheesy Garnachos",
        "event_total": 37,
        "has_played": true,
        "id": 67287267,
        "last_rank": 40503,
        "player_name": "Steve Quine",
        "rank": 72321,
        "rank_sort": 72571,
        "total": 2339
      },
      {
        "club_badge_src": null,
        "entry": 8186533,
        "entry_name": "Hakuna Marteta",
        "event_total": 51,
        "has_played": true,
        "id": 67612575,
        "last_rank": 62223,
        "player_name": "Maya Vithlani",
        "rank": 72321,
        "rank_sort": 72572,
        "total": 2339
      },
      {
        "club_badge_src": null,
        "entry": 8235879,
        "entry_name": "Richarli XCX",
        "event_total": 67,
        "has_played": true,
        "id": 68084145,
        "last_rank": 96777,
        "player_name": "Nic Tobin",
        "rank": 72321,
        "rank_sort": 72573,
        "total": 2339
      },
      {
        "club_badge_src": "https://fantasy.premierleague.com/gcs/plfpl-production-adobe-approved/plfpl-production/8245256/772ae7e3-25d8-45c7-a0d5-ebd565b5d2e4.png",
        "entry": 8245256,
        "entry_name": "Bebe Reijnders",
        "event_total": 64,
        "has_played": true,
        "id": 68178141,
        "last_rank": 89055,
        "player_name": "Scott Percival",
        "rank": 72321,
        "rank_sort": 72574,
        "total": 2339
      },
      {
        "club_badge_src": null,
        "entry": 8334822,
        "entry_name": "Arslan 11",
        "event_total": 59,
        "has_played": true,
        "id": 69060467,
        "last_rank": 78244,
        "player_name": "Arslan Ahmad",
        "rank": 72321,
        "rank_sort": 72575,
        "total": 2339
      },
      {
        "club_badge_src": null,
        "entry": 8543899,
        "entry_name": "mcgin and tonic",
        "event_total": 66,
        "has_played": true,
        "id": 71059526,
        "last_rank": 93883,
        "player_name": "Max Owen",
        "rank": 72321,
        "rank_sort": 72576,
        "total": 2339
      },
      {
        "club_badge_src": "https://fantasy.premierleague.com/gcs/plfpl-production-adobe-approved/plfpl-production/9013336/d42b1144-95b8-4813-ba2b-3904fa2722e4.png",
        "entry": 9013336,
        "entry_name": "Lowdriven Fc",
        "event_total": 68,
        "has_played": true,
        "id": 75608540,
        "last_rank": 98436,
        "player_name": "Jarvin Grant",
        "rank": 72321,
        "rank_sort": 72577,
        "total": 2339
      },
      {
        "club_badge_src": null,
        "entry": 9092703,
        "entry_name": "What If",
        "event_total": 55,
        "has_played": true,
        "id": 76379531,
        "last_rank": 69641,
        "player_name": "Lenon Dsouza",
        "rank": 72321,
        "rank_sort": 72578,
        "total": 2339
      },
      {
        "club_badge_src": null,
        "entry": 250,
        "entry_name": "Mtasers",
        "event_total": 71,
        "has_played": true,
        "id": 1382,
        "last_rank": 96777,
        "player_name": "Manoj Thakur",
        "rank": 72579,
        "rank_sort": 72579,
        "total": 2339
      },
      {
        "club_badge_src": null,
        "entry": 1175,
        "entry_name": "DontLookBackElanga",
        "event_total": 69,
        "has_played": true,
        "id": 6527,
        "last_rank": 91835,
        "player_name": "Paul Crossley",
        "rank": 72579,
        "rank_sort": 72580,
        "total": 2339
      },
      {
        "club_badge_src": null,
        "entry": 5806,
        "entry_name": "Ath. Bilbao Baggins",
        "event_total": 58,
        "has_played": true,
        "id": 33179,
        "last_rank": 75874,
        "player_name": "Dan McElvenny",
        "rank": 72579,
        "rank_sort": 72581,
        "total": 2339
      },
      {
        "club_badge_src": null,
        "entry": 7174,
        "entry_name": "Roll of the Dyche",
        "event_total": 62,
        "has_played": true,
        "id": 41325,
        "last_rank": 75537,
        "player_name": "Alex Jones",
        "rank": 72579,
        "rank_sort": 72582,
        "total": 2339
      },
      {
        "club_badge_src": "https://fantasy.premierleague.com/gcs/plfpl-production-adobe-approved/plfpl-production/8201/117288ae-4e9f-43db-9af1-1021ed08bd52.png",
        "entry": 8201,
        "entry_name": "Hakuna Mateta",
        "event_total": 68,
        "has_played": true,
        "id": 47539,
        "last_rank": 98896,
        "player_name": "Thanos Gkikas",
        "rank": 72579,
        "rank_sort": 72583,
        "total": 2339
      },
      {
        "club_badge_src": null,
        "entry": 19074,
        "entry_name": "Peaky Reijnders",
        "event_total": 62,
        "has_played": true,
        "id": 118718,
        "last_rank": 75874,
        "player_name": "Zac Worthington",
        "rank": 72579,
        "rank_sort": 72584,
        "total": 2339
      },
      {
        "club_badge_src": "https://fantasy.premierleague.com/gcs/plfpl-production-adobe-approved/plfpl-production/27196/d9f1edbe-896d-46bb-87d9-45443106ebe2.png",
        "entry": 27196,
        "entry_name": "FC TEMPAstic",
        "event_total": 58,
        "has_played": true,
        "id": 171906,
        "last_rank": 67695,
        "player_name": "Tempa Tshering",
        "rank": 72579,
        "rank_sort": 72585,
        "total": 2339
      },
      {
        "club_badge_src": null,
        "entry": 29504,
        "entry_name": "KM",
        "event_total": 61,
        "has_played": true,
        "id": 186580,
        "last_rank": 65475,
        "player_name": "Khaled Almunajem",
        "rank": 72579,
        "rank_sort": 72586,
        "total": 2339
      },
      {
        "club_badge_src": null,
        "entry": 31781,
        "entry_name": "Albion 1878",
        "event_total": 66,
        "has_played": true,
        "id": 201677,
        "last_rank": 93883,
        "player_name": "Shane Whitehouse",
        "rank": 72579,
        "rank_sort": 72587,
        "total": 2339
      },
      {
        "club_badge_src": null,
        "entry": 36510,
        "entry_name": "Alnwick Gordons",
        "event_total": 65,
        "has_played": true,
        "id": 233750,
        "last_rank": 82398,
        "player_name": "Alex Dawson",
        "rank": 72579,
        "rank_sort": 72588,
        "total": 2339
      },
      {
        "club_badge_src": "https://fantasy.premierleague.com/gcs/plfpl-production-adobe-approved/plfpl-production/50602/5f1437fb-8e7c-4a0d-aa67-74b352c36fe1.png",
        "entry": 50602,
        "entry_name": "Culesi",
        "event_total": 61,
        "has_played": true,
        "id": 325490,
        "last_rank": 73423,
        "player_name": "Hristijan Dimovski",
        "rank": 72579,
        "rank_sort": 72589,
        "total": 2339
      },
      {
        "club_badge_src": null,
        "entry": 59513,
        "entry_name": "Kareem al mahareky",
        "event_total": 61,
        "has_played": true,
        "id": 383241,
        "last_rank": 73720,
        "player_name": "Kareem Al Mahareky",
        "rank": 72579,
        "rank_sort": 72590,
        "total": 2339
      },
      {
        "club_badge_src": null,
        "entry": 67075,
        "entry_name": "KK MERKUR",
        "event_total": 53,
        "has_played": true,
        "id": 434163,
        "last_rank": 65796,
        "player_name": "Pavle Mihailovic",
        "rank": 72579,
        "rank_sort": 72591,
        "total": 2339
      },
      {
        "club_badge_src": "https://fantasy.premierleague.com/gcs/plfpl-production-adobe-approved/plfpl-production/68491/00ad89dd-ae57-463c-a214-db7559851d83.png",
        "entry": 68491,
        "entry_name": "Nearly there Fc",
        "event_total": 61,
        "has_played": true,
        "id": 443789,
        "last_rank": 82664,
        "player_name": "Iram Ghumman",
        "rank": 72579,
        "rank_sort": 72592,
        "total": 2339
      },
      {
        "club_badge_src": "https://fantasy.premierleague.com/gcs/plfpl-production-adobe-approved/plfpl-production/69992/f43d78dd-f52c-4e59-b166-61eec1b9087c.png",
        "entry": 69992,
        "entry_name": "Wow Ciekawe Ba\u0142uty",
        "event_total": 59,
        "has_played": true,
        "id": 454276,
        "last_rank": 69641,
        "player_name": "Tomek Domek",
        "rank": 72579,
        "rank_sort": 72593,
        "total": 2339
      },
      {
        "club_badge_src": null,
        "entry": 71987,
        "entry_name": "CuyperMan",
        "event_total": 60,
        "has_played": true,
        "id": 467687,
        "last_rank": 80465,
        "player_name": "Darren Cooper",
        "rank": 72579,
        "rank_sort": 72594,
        "total": 2339
      },
      {
        "club_badge_src": "https://fantasy.premierleague.com/gcs/plfpl-production-adobe-approved/plfpl-production/75073/4ff43ab8-a654-46d5-bd5f-174b0c20af4f.png",
        "entry": 75073,
        "entry_name": "bureXmesom",
        "event_total": 61,
        "has_played": true,
        "id": 488065,
        "last_rank": 82664,
        "player_name": "Elvir Zeciri",
        "rank": 72579,
        "rank_sort": 72595,
        "total": 2339
      },
      {
        "club_badge_src": null,
        "entry": 82269,
        "entry_name": "Kudus To You",
        "event_total": 42,
        "has_played": true,
        "id": 535280,
        "last_rank": 41617,
        "player_name": "Connor Masters",
        "rank": 72579,
        "rank_sort": 72596,
        "total": 2339
      },
      {
        "club_badge_src": "https://fantasy.premierleague.com/gcs/plfpl-production-adobe-approved/plfpl-production/91759/cc9c52ab-e1fd-42b5-b71c-5e419a7cdc9e.png",
        "entry": 91759,
        "entry_name": "Ultra Pravyi Bereh",
        "event_total": 69,
        "has_played": true,
        "id": 599457,
        "last_rank": 102125,
        "player_name": "Danyil M",
        "rank": 72579,
        "rank_sort": 72597,
        "total": 2339
      },
      {
        "club_badge_src": "https://fantasy.premierleague.com/gcs/plfpl-production-adobe-approved/plfpl-production/103747/1c1073b2-de03-489b-ace5-ffd9a8683b0d.png",
        "entry": 103747,
        "entry_name": "Zirkzee & I Know It",
        "event_total": 64,
        "has_played": true,
        "id": 676901,
        "last_rank": 89055,
        "player_name": "James Martin",
        "rank": 72579,
        "rank_sort": 72598,
        "total": 2339
      },
      {
        "club_badge_src": null,
        "entry": 103892,
        "entry_name": "The Gy\u00f6k Exchange",
        "event_total": 66,
        "has_played": true,
        "id": 677833,
        "last_rank": 84731,
        "player_name": "Jack Brewer",
        "rank": 72579,
        "rank_sort": 72599,
        "total": 2339
      },
      {
        "club_badge_src": null,
        "entry": 139974,
        "entry_name": "Tea and Busquets",
        "event_total": 55,
        "has_played": true,
        "id": 913850,
        "last_rank": 69641,
        "player_name": "Will Dennis",
        "rank": 72579,
        "rank_sort": 72600,
        "total": 2339
      }
    ]
  }
}