{
  "last_updated_data": "2026-05-24T23:28:17Z",
  "league": {
    "admin_entry": null,
    "closed": false,
    "code_privacy": "p",
    "created": "2025-07-20T23:14:33.933835Z",
    "cup_league": 2815434,
    "has_cup": true,
    "id": 314,
    "league_type": "s",
    "max_entries": null,
    "name": "Overall",
    "rank": null,
    "scoring": "c",
    "start_event": 1
  },
  "new_entries": {
    "has_next": false,
    "page": 1,
    "results": []
  },
  "standings": {
    "has_next": true,
    "page": 52,
    "results": [
      {
        "club_badge_src": null,
        "entry": 107836,
        "entry_name": "Heartland FC",
        "event_total": 62,
        "has_played": true,
        "id": 703108,
        "last_rank": 2409,
        "player_name": "Matthew Arnold",
        "rank": 2549,
        "rank_sort": 2551,
        "total": 2429
      },
      {
        "club_badge_src": null,
        "entry": 198822,
        "entry_name": "G-Real-ish Madrid",
        "event_total": 70,
        "has_played": true,
        "id": 1319467,
        "last_rank": 4358,
        "player_name": "Carl McDermott",
        "rank": 2549,
        "rank_sort": 2552,
        "total": 2429
      },
      {
        "club_badge_src": null,
        "entry": 373813,
        "entry_name": "United 101",
        "event_total": 75,
        "has_played": true,
        "id": 2501208,
        "last_rank": 5448,
        "player_name": "satit phuengwikrai",
        "rank": 2549,
        "rank_sort": 2553,
        "total": 2429
      },
      {
        "club_badge_src": "https://fantasy.premierleague.com/gcs/plfpl-production-adobe-approved/plfpl-production/733703/db410cf5-baea-4b81-aded-c8d572204e7b.png",
        "entry": 733703,
        "entry_name": "Volante",
        "event_total": 65,
        "has_played": true,
        "id": 4986095,
        "last_rank": 3408,
        "player_name": "Michael Luk",
        "rank": 2549,
        "rank_sort": 2554,
        "total": 2429
      },
      {
        "club_badge_src": null,
        "entry": 1465695,
        "entry_name": "the magnificent11",
        "event_total": 79,
        "has_played": true,
        "id": 10216542,
        "last_rank": 6409,
        "player_name": "Xavier Jans",
        "rank": 2549,
        "rank_sort": 2555,
        "total": 2429
      },
      {
        "club_badge_src": null,
        "entry": 1513603,
        "entry_name": "Everybody Wirtz",
        "event_total": 43,
        "has_played": true,
        "id": 10556799,
        "last_rank": 1152,
        "player_name": "David King",
        "rank": 2549,
        "rank_sort": 2556,
        "total": 2429
      },
      {
        "club_badge_src": null,
        "entry": 1720293,
        "entry_name": "CaptainJerry",
        "event_total": 53,
        "has_played": true,
        "id": 12057073,
        "last_rank": 1909,
        "player_name": "Jerry Hu",
        "rank": 2549,
        "rank_sort": 2557,
        "total": 2429
      },
      {
        "club_badge_src": null,
        "entry": 1789468,
        "entry_name": "The Angel Gabriel",
        "event_total": 69,
        "has_played": true,
        "id": 12573905,
        "last_rank": 3408,
        "player_name": "Cameron Forrest",
        "rank": 2549,
        "rank_sort": 2558,
        "total": 2429
      },
      {
        "club_badge_src": null,
        "entry": 2016345,
        "entry_name": "Gunner Win d League",
        "event_total": 59,
        "has_played": true,
        "id": 14264660,
        "last_rank": 2553,
        "player_name": "K Cheng",
        "rank": 2549,
        "rank_sort": 2559,
        "total": 2429
      },
      {
        "club_badge_src": null,
        "entry": 2469808,
        "entry_name": "Pops FC",
        "event_total": 81,
        "has_played": true,
        "id": 17668379,
        "last_rank": 7141,
        "player_name": "James Frank",
        "rank": 2549,
        "rank_sort": 2560,
        "total": 2429
      },
      {
        "club_badge_src": null,
        "entry": 2483966,
        "entry_name": "Lads on Toure",
        "event_total": 76,
        "has_played": true,
        "id": 17774643,
        "last_rank": 4742,
        "player_name": "Jamie Bosio",
        "rank": 2549,
        "rank_sort": 2561,
        "total": 2429
      },
      {
        "club_badge_src": null,
        "entry": 3736617,
        "entry_name": "Tsiis",
        "event_total": 77,
        "has_played": true,
        "id": 27891773,
        "last_rank": 5904,
        "player_name": "Miika Kinnunen",
        "rank": 2549,
        "rank_sort": 2562,
        "total": 2429
      },
      {
        "club_badge_src": null,
        "entry": 3977097,
        "entry_name": "Fantasy",
        "event_total": 65,
        "has_played": true,
        "id": 29935211,
        "last_rank": 2824,
        "player_name": "Markus Truedsson",
        "rank": 2549,
        "rank_sort": 2563,
        "total": 2429
      },
      {
        "club_badge_src": null,
        "entry": 4281202,
        "entry_name": "TK's Lil Munchkins",
        "event_total": 73,
        "has_played": true,
        "id": 32469843,
        "last_rank": 5011,
        "player_name": "Tristan kitching",
        "rank": 2549,
        "rank_sort": 2564,
        "total": 2429
      },
      {
        "club_badge_src": null,
        "entry": 5485635,
        "entry_name": "chlojack",
        "event_total": 69,
        "has_played": true,
        "id": 42718744,
        "last_rank": 4155,
        "player_name": "Darren Crisp",
        "rank": 2549,
        "rank_sort": 2565,
        "total": 2429
      },
      {
        "club_badge_src": null,
        "entry": 6192083,
        "entry_name": "Societa Sportiva",
        "event_total": 53,
        "has_played": true,
        "id": 48977046,
        "last_rank": 1909,
        "player_name": "Christian Ingo",
        "rank": 2549,
        "rank_sort": 2566,
        "total": 2429
      },
      {
        "club_badge_src": null,
        "entry": 6621185,
        "entry_name": "Ruben's Red Devils",
        "event_total": 59,
        "has_played": true,
        "id": 52910258,
        "last_rank": 2588,
        "player_name": "Conor Mullally",
        "rank": 2549,
        "rank_sort": 2567,
        "total": 2429
      },
      {
        "club_badge_src": null,
        "entry": 6880168,
        "entry_name": "Samba Bamba XI",
        "event_total": 57,
        "has_played": true,
        "id": 55136939,
        "last_rank": 2328,
        "player_name": "Volkan Ozdemir",
        "rank": 2549,
        "rank_sort": 2568,
        "total": 2429
      },
      {
        "club_badge_src": null,
        "entry": 9023013,
        "entry_name": "FK Melodinszkiy",
        "event_total": 65,
        "has_played": true,
        "id": 75701599,
        "last_rank": 3442,
        "player_name": "Quinnery Situmeang",
        "rank": 2549,
        "rank_sort": 2569,
        "total": 2429
      },
      {
        "club_badge_src": null,
        "entry": 153014,
        "entry_name": "Penvale Pirates",
        "event_total": 60,
        "has_played": true,
        "id": 1004676,
        "last_rank": 1773,
        "player_name": "Lee Tonkin",
        "rank": 2570,
        "rank_sort": 2570,
        "total": 2429
      },
      {
        "club_badge_src": "https://fantasy.premierleague.com/gcs/plfpl-production-adobe-approved/plfpl-production/243150/c1a2fb67-1e0f-456c-9a2f-4d906d926761.png",
        "entry": 243150,
        "entry_name": "FC Bottlers",
        "event_total": 65,
        "has_played": true,
        "id": 1619166,
        "last_rank": 2870,
        "player_name": "Adhiraj Singh",
        "rank": 2570,
        "rank_sort": 2571,
        "total": 2429
      },
      {
        "club_badge_src": null,
        "entry": 321353,
        "entry_name": "BrunoDosTres",
        "event_total": 64,
        "has_played": true,
        "id": 2153671,
        "last_rank": 2731,
        "player_name": "Mateusz Michalak",
        "rank": 2570,
        "rank_sort": 2572,
        "total": 2429
      },
      {
        "club_badge_src": null,
        "entry": 344111,
        "entry_name": "Kinder Mbeumo",
        "event_total": 65,
        "has_played": true,
        "id": 2303084,
        "last_rank": 2824,
        "player_name": "Sean Green",
        "rank": 2570,
        "rank_sort": 2573,
        "total": 2429
      },
      {
        "club_badge_src": null,
        "entry": 346457,
        "entry_name": "MarveOscarlous",
        "event_total": 64,
        "has_played": true,
        "id": 2319058,
        "last_rank": 3331,
        "player_name": "Dave Thomas",
        "rank": 2570,
        "rank_sort": 2574,
        "total": 2429
      },
      {
        "club_badge_src": null,
        "entry": 575010,
        "entry_name": "So Solid Carew",
        "event_total": 69,
        "has_played": true,
        "id": 3869538,
        "last_rank": 4155,
        "player_name": "Josh Gray",
        "rank": 2570,
        "rank_sort": 2575,
        "total": 2429
      },
      {
        "club_badge_src": null,
        "entry": 638946,
        "entry_name": "Restored",
        "event_total": 54,
        "has_played": true,
        "id": 4318238,
        "last_rank": 1633,
        "player_name": "Elias Andersson",
        "rank": 2570,
        "rank_sort": 2576,
        "total": 2429
      },
      {
        "club_badge_src": "https://fantasy.premierleague.com/gcs/plfpl-production-adobe-approved/plfpl-production/1115502/ffd7b29b-938a-484c-9cc3-502c32471e3b.png",
        "entry": 1115502,
        "entry_name": "25/26 WINNERS",
        "event_total": 55,
        "has_played": true,
        "id": 7726754,
        "last_rank": 1712,
        "player_name": "Ehimhen Allen",
        "rank": 2570,
        "rank_sort": 2577,
        "total": 2429
      },
      {
        "club_badge_src": "https://fantasy.premierleague.com/gcs/plfpl-production-adobe-approved/plfpl-production/1136348/cd98d817-489e-4bf1-95b4-2fbe6a431241.png",
        "entry": 1136348,
        "entry_name": "bou22",
        "event_total": 60,
        "has_played": true,
        "id": 7876867,
        "last_rank": 2749,
        "player_name": "Mohammed Amine Choukri",
        "rank": 2570,
        "rank_sort": 2578,
        "total": 2429
      },
      {
        "club_badge_src": "https://fantasy.premierleague.com/gcs/plfpl-production-adobe-approved/plfpl-production/1679033/8df54162-df90-4a4f-9584-165413bf9f21.png",
        "entry": 1679033,
        "entry_name": "sammy sosa fc",
        "event_total": 74,
        "has_played": true,
        "id": 11754466,
        "last_rank": 5173,
        "player_name": "Javi Samuels",
        "rank": 2570,
        "rank_sort": 2579,
        "total": 2429
      },
      {
        "club_badge_src": null,
        "entry": 2097297,
        "entry_name": "StayReady3.0",
        "event_total": 53,
        "has_played": true,
        "id": 14880839,
        "last_rank": 1931,
        "player_name": "M Louise Payne",
        "rank": 2570,
        "rank_sort": 2580,
        "total": 2429
      },
      {
        "club_badge_src": null,
        "entry": 3213541,
        "entry_name": "Peckham Cowboys",
        "event_total": 61,
        "has_played": true,
        "id": 23759172,
        "last_rank": 2891,
        "player_name": "Paul Jordan",
        "rank": 2570,
        "rank_sort": 2581,
        "total": 2429
      },
      {
        "club_badge_src": "https://fantasy.premierleague.com/gcs/plfpl-production-adobe-approved/plfpl-production/3542641/0f5c3d5a-8174-4209-b5de-722f7c585fc0.png",
        "entry": 3542641,
        "entry_name": "TheProphet",
        "event_total": 66,
        "has_played": true,
        "id": 26370744,
        "last_rank": 3007,
        "player_name": "Steven Odarteifio",
        "rank": 2570,
        "rank_sort": 2582,
        "total": 2429
      },
      {
        "club_badge_src": null,
        "entry": 3784878,
        "entry_name": "FC Caboom",
        "event_total": 65,
        "has_played": true,
        "id": 28263838,
        "last_rank": 2870,
        "player_name": "Robin Carlbom",
        "rank": 2570,
        "rank_sort": 2583,
        "total": 2429
      },
      {
        "club_badge_src": null,
        "entry": 3792980,
        "entry_name": "FK Dropout",
        "event_total": 52,
        "has_played": true,
        "id": 28348016,
        "last_rank": 1816,
        "player_name": "Kjetil Smeby",
        "rank": 2570,
        "rank_sort": 2584,
        "total": 2429
      },
      {
        "club_badge_src": null,
        "entry": 4722775,
        "entry_name": "Sunny D 20x 6x LFC",
        "event_total": 67,
        "has_played": true,
        "id": 36290788,
        "last_rank": 3796,
        "player_name": "Sunil B",
        "rank": 2570,
        "rank_sort": 2585,
        "total": 2429
      },
      {
        "club_badge_src": "https://fantasy.premierleague.com/gcs/plfpl-production-adobe-approved/plfpl-production/2849/4c1268f2-089c-4e8b-bd90-32a1ca5392a9.png",
        "entry": 2849,
        "entry_name": "Sauerkraut Darlings",
        "event_total": 52,
        "has_played": true,
        "id": 16024,
        "last_rank": 1825,
        "player_name": "Vemund Svendsen",
        "rank": 2586,
        "rank_sort": 2586,
        "total": 2429
      },
      {
        "club_badge_src": null,
        "entry": 13777,
        "entry_name": "Widow of Bielsa",
        "event_total": 60,
        "has_played": true,
        "id": 83394,
        "last_rank": 2235,
        "player_name": "Dave McNutt",
        "rank": 2586,
        "rank_sort": 2587,
        "total": 2429
      },
      {
        "club_badge_src": "https://fantasy.premierleague.com/gcs/plfpl-production-adobe-approved/plfpl-production/16618/74101dff-0347-4681-b0f8-6dc2a0faf707.png",
        "entry": 16618,
        "entry_name": "Padas Van Java",
        "event_total": 70,
        "has_played": true,
        "id": 102751,
        "last_rank": 3627,
        "player_name": "Putra Martvianda Sanusi",
        "rank": 2586,
        "rank_sort": 2588,
        "total": 2429
      },
      {
        "club_badge_src": "https://fantasy.premierleague.com/gcs/plfpl-production-adobe-approved/plfpl-production/17338/a39044df-568e-4f51-87d1-cff8565c5ce6.png",
        "entry": 17338,
        "entry_name": "FKVA Sumber Rejeki",
        "event_total": 70,
        "has_played": true,
        "id": 107539,
        "last_rank": 3627,
        "player_name": "Martvind Aldavi",
        "rank": 2586,
        "rank_sort": 2589,
        "total": 2429
      },
      {
        "club_badge_src": "https://fantasy.premierleague.com/gcs/plfpl-production-adobe-approved/plfpl-production/18428/ade339d6-4818-4f45-bf61-7307b0925ebd.png",
        "entry": 18428,
        "entry_name": "Team Bogging",
        "event_total": 66,
        "has_played": true,
        "id": 114636,
        "last_rank": 3648,
        "player_name": "Kieran Carr\u00e9",
        "rank": 2586,
        "rank_sort": 2590,
        "total": 2429
      },
      {
        "club_badge_src": null,
        "entry": 24247,
        "entry_name": "FC Yamil Angura",
        "event_total": 69,
        "has_played": true,
        "id": 152997,
        "last_rank": 4155,
        "player_name": "Alex Dima",
        "rank": 2586,
        "rank_sort": 2591,
        "total": 2429
      },
      {
        "club_badge_src": null,
        "entry": 88689,
        "entry_name": "#1",
        "event_total": 72,
        "has_played": true,
        "id": 578808,
        "last_rank": 3951,
        "player_name": "Blake Forrester",
        "rank": 2586,
        "rank_sort": 2592,
        "total": 2429
      },
      {
        "club_badge_src": null,
        "entry": 1023403,
        "entry_name": "Trust the Process",
        "event_total": 67,
        "has_played": true,
        "id": 7080443,
        "last_rank": 3175,
        "player_name": "Jason Chong",
        "rank": 2586,
        "rank_sort": 2593,
        "total": 2429
      },
      {
        "club_badge_src": null,
        "entry": 1666605,
        "entry_name": "Golden Falcon",
        "event_total": 63,
        "has_played": true,
        "id": 11668447,
        "last_rank": 3192,
        "player_name": "Golden Falcon",
        "rank": 2586,
        "rank_sort": 2594,
        "total": 2429
      },
      {
        "club_badge_src": null,
        "entry": 1745419,
        "entry_name": "moeeee",
        "event_total": 66,
        "has_played": true,
        "id": 12247565,
        "last_rank": 3648,
        "player_name": "Moemen Nasr",
        "rank": 2586,
        "rank_sort": 2595,
        "total": 2429
      },
      {
        "club_badge_src": null,
        "entry": 2780883,
        "entry_name": "HotshotHamish",
        "event_total": 60,
        "has_played": true,
        "id": 20298309,
        "last_rank": 2762,
        "player_name": "Hugh Rycroft",
        "rank": 2586,
        "rank_sort": 2596,
        "total": 2429
      },
      {
        "club_badge_src": "https://fantasy.premierleague.com/gcs/plfpl-production-adobe-approved/plfpl-production/3860173/0296ad59-a5e8-433e-b303-6ac2ef2a5d57.png",
        "entry": 3860173,
        "entry_name": "Cunha believe it?",
        "event_total": 63,
        "has_played": true,
        "id": 28942313,
        "last_rank": 3192,
        "player_name": "Valeri Donchev",
        "rank": 2586,
        "rank_sort": 2597,
        "total": 2429
      },
      {
        "club_badge_src": "https://fantasy.premierleague.com/gcs/plfpl-production-adobe-approved/plfpl-production/6344712/bd8569a3-be6e-488f-b734-828daaaddca3.png",
        "entry": 6344712,
        "entry_name": "\u00c5sThon Villas",
        "event_total": 62,
        "has_played": true,
        "id": 50431778,
        "last_rank": 2468,
        "player_name": "Dagfinn Thon",
        "rank": 2586,
        "rank_sort": 2598,
        "total": 2429
      },
      {
        "club_badge_src": null,
        "entry": 7574196,
        "entry_name": "GreyGoose",
        "event_total": 69,
        "has_played": true,
        "id": 62030409,
        "last_rank": 3462,
        "player_name": "Oda Lillesand",
        "rank": 2586,
        "rank_sort": 2599,
        "total": 2429
      },
      {
        "club_badge_src": null,
        "entry": 8842004,
        "entry_name": "All i do is win",
        "event_total": 55,
        "has_played": true,
        "id": 73949181,
        "last_rank": 2141,
        "player_name": "Rasmus Jacobsen",
        "rank": 2586,
        "rank_sort": 2600,
        "total": 2429
      }
    ]
  }
}