{
  "last_updated_data": "2026-05-24T23:28:17Z",
  "league": {
    "admin_entry": null,
    "closed": false,
    "code_privacy": "p",
    "created": "2025-07-20T23:14:33.933835Z",
    "cup_league": 2815434,
    "has_cup": true,
    "id": 314,
    "league_type": "s",
    "max_entries": null,
    "name": "Overall",
    "rank": null,
    "scoring": "c",
    "start_event": 1
  },
  "new_entries": {
    "has_next": false,
    "page": 1,
    "results": []
  },
  "standings": {
    "has_next": true,
    "page": 201,
    "results": [
      {
        "club_badge_src": null,
        "entry": 553892,
        "entry_name": "Avto FC",
        "event_total": 65,
        "has_played": true,
        "id": 3728019,
        "last_rank": 13184,
        "player_name": "Alexander Mkandawire",
        "rank": 9970,
        "rank_sort": 10001,
        "total": 2398
      },
      {
        "club_badge_src": null,
        "entry": 653684,
        "entry_name": "Sugondese Nots",
        "event_total": 51,
        "has_played": true,
        "id": 4417577,
        "last_rank": 7450,
        "player_name": "Jamie Mercer",
        "rank": 9970,
        "rank_sort": 10002,
        "total": 2398
      },
      {
        "club_badge_src": null,
        "entry": 781516,
        "entry_name": "ThatchersInTheMud",
        "event_total": 65,
        "has_played": true,
        "id": 5335653,
        "last_rank": 13257,
        "player_name": "Jon Morrey Grossman",
        "rank": 9970,
        "rank_sort": 10003,
        "total": 2398
      },
      {
        "club_badge_src": null,
        "entry": 879933,
        "entry_name": "FC Arbuckle",
        "event_total": 68,
        "has_played": true,
        "id": 6034167,
        "last_rank": 14926,
        "player_name": "John Mochan",
        "rank": 9970,
        "rank_sort": 10004,
        "total": 2398
      },
      {
        "club_badge_src": "https://fantasy.premierleague.com/gcs/plfpl-production-adobe-approved/plfpl-production/881886/fc13b572-ce67-4019-b1bb-2b938537e871.png",
        "entry": 881886,
        "entry_name": "MivaanFC",
        "event_total": 59,
        "has_played": true,
        "id": 6047851,
        "last_rank": 10346,
        "player_name": "Manish Dhakal",
        "rank": 9970,
        "rank_sort": 10005,
        "total": 2398
      },
      {
        "club_badge_src": null,
        "entry": 895775,
        "entry_name": "\u0633\u0648\u0628\u0643\u0633\u0648 \u0641\u064a\u0633\u0648",
        "event_total": 61,
        "has_played": true,
        "id": 6153621,
        "last_rank": 11150,
        "player_name": "Mohamed Ibrahim",
        "rank": 9970,
        "rank_sort": 10006,
        "total": 2398
      },
      {
        "club_badge_src": null,
        "entry": 897124,
        "entry_name": "Hacunha Mateta",
        "event_total": 70,
        "has_played": true,
        "id": 6163198,
        "last_rank": 16062,
        "player_name": "Jasper Tan",
        "rank": 9970,
        "rank_sort": 10007,
        "total": 2398
      },
      {
        "club_badge_src": null,
        "entry": 913564,
        "entry_name": "AFC Ferrell",
        "event_total": 62,
        "has_played": true,
        "id": 6281825,
        "last_rank": 11699,
        "player_name": "Ben Charters",
        "rank": 9970,
        "rank_sort": 10008,
        "total": 2398
      },
      {
        "club_badge_src": null,
        "entry": 988797,
        "entry_name": "TheBest",
        "event_total": 54,
        "has_played": true,
        "id": 6818044,
        "last_rank": 8339,
        "player_name": "Talal .",
        "rank": 9970,
        "rank_sort": 10009,
        "total": 2398
      },
      {
        "club_badge_src": "https://fantasy.premierleague.com/gcs/plfpl-production-adobe-approved/plfpl-production/1035012/b27b20ac-e5af-4575-ba22-0efec242e9f4.png",
        "entry": 1035012,
        "entry_name": "R\u00f6\u00f6l\u00e4n Ponttoonit",
        "event_total": 69,
        "has_played": true,
        "id": 7161928,
        "last_rank": 15396,
        "player_name": "Walter Rantapere",
        "rank": 9970,
        "rank_sort": 10010,
        "total": 2398
      },
      {
        "club_badge_src": null,
        "entry": 1078514,
        "entry_name": "Cucurella fan club",
        "event_total": 53,
        "has_played": true,
        "id": 7467667,
        "last_rank": 8032,
        "player_name": "Pete Steely",
        "rank": 9970,
        "rank_sort": 10011,
        "total": 2398
      },
      {
        "club_badge_src": null,
        "entry": 1084058,
        "entry_name": "Rowe Ur Boat",
        "event_total": 69,
        "has_played": true,
        "id": 7506182,
        "last_rank": 15550,
        "player_name": "Joe Rowe",
        "rank": 9970,
        "rank_sort": 10012,
        "total": 2398
      },
      {
        "club_badge_src": null,
        "entry": 1357920,
        "entry_name": "Janne Schaffers lads",
        "event_total": 56,
        "has_played": true,
        "id": 9439060,
        "last_rank": 9142,
        "player_name": "Samuel Teglund",
        "rank": 9970,
        "rank_sort": 10013,
        "total": 2398
      },
      {
        "club_badge_src": null,
        "entry": 1435669,
        "entry_name": "Frank Jaeger FC",
        "event_total": 55,
        "has_played": true,
        "id": 10003749,
        "last_rank": 8854,
        "player_name": "David Cutler",
        "rank": 9970,
        "rank_sort": 10014,
        "total": 2398
      },
      {
        "club_badge_src": "https://fantasy.premierleague.com/gcs/plfpl-production-adobe-approved/plfpl-production/1762634/fe45d2df-e708-47d6-8b2c-545c4a159c9e.png",
        "entry": 1762634,
        "entry_name": "JC Milan",
        "event_total": 59,
        "has_played": true,
        "id": 12376984,
        "last_rank": 10346,
        "player_name": "Josh Collingwood",
        "rank": 9970,
        "rank_sort": 10015,
        "total": 2398
      },
      {
        "club_badge_src": "https://fantasy.premierleague.com/gcs/plfpl-production-adobe-approved/plfpl-production/1997023/df7b8faf-8021-4f5f-9e2e-4c76816d8e9d.png",
        "entry": 1997023,
        "entry_name": "Moaveien FC",
        "event_total": 68,
        "has_played": true,
        "id": 14112387,
        "last_rank": 14832,
        "player_name": "Christian Torvund",
        "rank": 9970,
        "rank_sort": 10016,
        "total": 2398
      },
      {
        "club_badge_src": null,
        "entry": 2244624,
        "entry_name": "McCstone",
        "event_total": 66,
        "has_played": true,
        "id": 15992406,
        "last_rank": 13821,
        "player_name": "Victor Cornerstone",
        "rank": 9970,
        "rank_sort": 10017,
        "total": 2398
      },
      {
        "club_badge_src": "https://fantasy.premierleague.com/gcs/plfpl-production-adobe-approved/plfpl-production/2319075/9e870e7d-b17e-417d-9d0a-dbd9ee04dacb.png",
        "entry": 2319075,
        "entry_name": "Montcarlo show",
        "event_total": 52,
        "has_played": true,
        "id": 16543515,
        "last_rank": 7761,
        "player_name": "ahmed elsayed",
        "rank": 9970,
        "rank_sort": 10018,
        "total": 2398
      },
      {
        "club_badge_src": null,
        "entry": 2326928,
        "entry_name": "Hit the Juulian",
        "event_total": 65,
        "has_played": true,
        "id": 16601313,
        "last_rank": 13257,
        "player_name": "Joaquin Delmar",
        "rank": 9970,
        "rank_sort": 10019,
        "total": 2398
      },
      {
        "club_badge_src": null,
        "entry": 2363269,
        "entry_name": "Dr. No Goals",
        "event_total": 51,
        "has_played": true,
        "id": 16867743,
        "last_rank": 7375,
        "player_name": "Kobe Paridaens",
        "rank": 9970,
        "rank_sort": 10020,
        "total": 2398
      },
      {
        "club_badge_src": null,
        "entry": 2363648,
        "entry_name": "Mr Worldwide XI",
        "event_total": 63,
        "has_played": true,
        "id": 16870737,
        "last_rank": 12109,
        "player_name": "Gordon Tan",
        "rank": 9970,
        "rank_sort": 10021,
        "total": 2398
      },
      {
        "club_badge_src": null,
        "entry": 2385390,
        "entry_name": "Livin' Saliba Loca",
        "event_total": 66,
        "has_played": true,
        "id": 17035263,
        "last_rank": 13821,
        "player_name": "Lewis Bingham",
        "rank": 9970,
        "rank_sort": 10022,
        "total": 2398
      },
      {
        "club_badge_src": null,
        "entry": 2435915,
        "entry_name": "Your team is Wirtz",
        "event_total": 60,
        "has_played": true,
        "id": 17419652,
        "last_rank": 10720,
        "player_name": "ronan gazenbeek",
        "rank": 9970,
        "rank_sort": 10023,
        "total": 2398
      },
      {
        "club_badge_src": null,
        "entry": 2506325,
        "entry_name": "Konat\u00e9 believe it",
        "event_total": 61,
        "has_played": true,
        "id": 17948598,
        "last_rank": 11175,
        "player_name": "Ben Griffin",
        "rank": 9970,
        "rank_sort": 10024,
        "total": 2398
      },
      {
        "club_badge_src": null,
        "entry": 2520745,
        "entry_name": "Wilo FC",
        "event_total": 64,
        "has_played": true,
        "id": 18061466,
        "last_rank": 12608,
        "player_name": "Ben Wilson",
        "rank": 9970,
        "rank_sort": 10025,
        "total": 2398
      },
      {
        "club_badge_src": null,
        "entry": 2611702,
        "entry_name": "Makkiaiset",
        "event_total": 76,
        "has_played": true,
        "id": 18764172,
        "last_rank": 20147,
        "player_name": "Janne Makkonen",
        "rank": 9970,
        "rank_sort": 10026,
        "total": 2398
      },
      {
        "club_badge_src": null,
        "entry": 2697042,
        "entry_name": "Ilbirs Bishkek",
        "event_total": 59,
        "has_played": true,
        "id": 19400867,
        "last_rank": 10288,
        "player_name": "Igor Zivojnovic",
        "rank": 9970,
        "rank_sort": 10027,
        "total": 2398
      },
      {
        "club_badge_src": null,
        "entry": 2724730,
        "entry_name": "HAZE FC",
        "event_total": 52,
        "has_played": true,
        "id": 19607020,
        "last_rank": 7604,
        "player_name": "Ben Preston",
        "rank": 9970,
        "rank_sort": 10028,
        "total": 2398
      },
      {
        "club_badge_src": null,
        "entry": 2763164,
        "entry_name": "Palmer geddon",
        "event_total": 61,
        "has_played": true,
        "id": 20158642,
        "last_rank": 11175,
        "player_name": "George Barden",
        "rank": 9970,
        "rank_sort": 10029,
        "total": 2398
      },
      {
        "club_badge_src": null,
        "entry": 2792718,
        "entry_name": "Rushby&Diamonds",
        "event_total": 61,
        "has_played": true,
        "id": 20389835,
        "last_rank": 11237,
        "player_name": "John Rushby",
        "rank": 9970,
        "rank_sort": 10030,
        "total": 2398
      },
      {
        "club_badge_src": null,
        "entry": 2949186,
        "entry_name": "0-0",
        "event_total": 59,
        "has_played": true,
        "id": 21659131,
        "last_rank": 10346,
        "player_name": "Petter Schumacher",
        "rank": 9970,
        "rank_sort": 10031,
        "total": 2398
      },
      {
        "club_badge_src": null,
        "entry": 3121116,
        "entry_name": "Masked Up FCM",
        "event_total": 49,
        "has_played": true,
        "id": 23032863,
        "last_rank": 6752,
        "player_name": "John Olson",
        "rank": 9970,
        "rank_sort": 10032,
        "total": 2398
      },
      {
        "club_badge_src": "https://fantasy.premierleague.com/gcs/plfpl-production-adobe-approved/plfpl-production/3174627/df98087d-01bc-4224-90f9-8e5f9aa919f2.png",
        "entry": 3174627,
        "entry_name": "Hakuna Matata",
        "event_total": 69,
        "has_played": true,
        "id": 23456972,
        "last_rank": 15452,
        "player_name": "sarwan dussoneah",
        "rank": 9970,
        "rank_sort": 10033,
        "total": 2398
      },
      {
        "club_badge_src": null,
        "entry": 3256145,
        "entry_name": "CerebralAssassin",
        "event_total": 74,
        "has_played": true,
        "id": 24092598,
        "last_rank": 18691,
        "player_name": "Sahil Sharma",
        "rank": 9970,
        "rank_sort": 10034,
        "total": 2398
      },
      {
        "club_badge_src": null,
        "entry": 3271752,
        "entry_name": "Timi-X Fc",
        "event_total": 48,
        "has_played": true,
        "id": 24212461,
        "last_rank": 6448,
        "player_name": "Timilehin komolafe",
        "rank": 9970,
        "rank_sort": 10035,
        "total": 2398
      },
      {
        "club_badge_src": null,
        "entry": 3416312,
        "entry_name": "XxX",
        "event_total": 57,
        "has_played": true,
        "id": 25374856,
        "last_rank": 9536,
        "player_name": "Nicola Gibbons",
        "rank": 9970,
        "rank_sort": 10036,
        "total": 2398
      },
      {
        "club_badge_src": "https://fantasy.premierleague.com/gcs/plfpl-production-adobe-approved/plfpl-production/3475455/65e6961d-5ddd-4bc8-835b-d27baa32fa7b.png",
        "entry": 3475455,
        "entry_name": "ForzaNapoliSempre",
        "event_total": 57,
        "has_played": true,
        "id": 25840603,
        "last_rank": 9536,
        "player_name": "Oliver M\u00e4\u00e4tt\u00e4",
        "rank": 9970,
        "rank_sort": 10037,
        "total": 2398
      },
      {
        "club_badge_src": null,
        "entry": 3485254,
        "entry_name": "Erling More Money",
        "event_total": 60,
        "has_played": true,
        "id": 25917200,
        "last_rank": 9077,
        "player_name": "Cesar Jaber",
        "rank": 9970,
        "rank_sort": 10038,
        "total": 2398
      },
      {
        "club_badge_src": null,
        "entry": 3629433,
        "entry_name": "Freakish Flamingos",
        "event_total": 50,
        "has_played": true,
        "id": 27045468,
        "last_rank": 7059,
        "player_name": "alvin wee",
        "rank": 9970,
        "rank_sort": 10039,
        "total": 2398
      },
      {
        "club_badge_src": null,
        "entry": 3663288,
        "entry_name": "Big Sam FC",
        "event_total": 32,
        "has_played": true,
        "id": 27318594,
        "last_rank": 3103,
        "player_name": "Sam Wotherspoon",
        "rank": 9970,
        "rank_sort": 10040,
        "total": 2398
      },
      {
        "club_badge_src": "https://fantasy.premierleague.com/gcs/plfpl-production-adobe-approved/plfpl-production/3684598/6e2daa50-f3b1-4092-9cc7-6ec88d66f2e3.png",
        "entry": 3684598,
        "entry_name": "Obi-Wan Iwobi",
        "event_total": 59,
        "has_played": true,
        "id": 27485788,
        "last_rank": 10346,
        "player_name": "Karl Stacey",
        "rank": 9970,
        "rank_sort": 10041,
        "total": 2398
      },
      {
        "club_badge_src": null,
        "entry": 3708235,
        "entry_name": "CaprEze Salah'd",
        "event_total": 51,
        "has_played": true,
        "id": 27669401,
        "last_rank": 7375,
        "player_name": "Alex Golts",
        "rank": 9970,
        "rank_sort": 10042,
        "total": 2398
      },
      {
        "club_badge_src": null,
        "entry": 3723341,
        "entry_name": "Burn baby Burn FC",
        "event_total": 52,
        "has_played": true,
        "id": 27787359,
        "last_rank": 7676,
        "player_name": "Scott Turley",
        "rank": 9970,
        "rank_sort": 10043,
        "total": 2398
      },
      {
        "club_badge_src": null,
        "entry": 3817004,
        "entry_name": "Team Ramrod",
        "event_total": 48,
        "has_played": true,
        "id": 28545391,
        "last_rank": 6409,
        "player_name": "Bjorn Hevroy",
        "rank": 9970,
        "rank_sort": 10044,
        "total": 2398
      },
      {
        "club_badge_src": "https://fantasy.premierleague.com/gcs/plfpl-production-adobe-approved/plfpl-production/3820331/23d279dc-74e2-4ee0-a668-2e65a2ef650e.png",
        "entry": 3820331,
        "entry_name": "Monday Night Lasagne",
        "event_total": 73,
        "has_played": true,
        "id": 28572792,
        "last_rank": 18029,
        "player_name": "Sam Bark",
        "rank": 9970,
        "rank_sort": 10045,
        "total": 2398
      },
      {
        "club_badge_src": null,
        "entry": 3825682,
        "entry_name": "Ma2ate3 FC",
        "event_total": 64,
        "has_played": true,
        "id": 28615844,
        "last_rank": 12705,
        "player_name": "Moustafa Hazem",
        "rank": 9970,
        "rank_sort": 10046,
        "total": 2398
      },
      {
        "club_badge_src": null,
        "entry": 3862527,
        "entry_name": "Mostafa Baranga",
        "event_total": 47,
        "has_played": true,
        "id": 28961026,
        "last_rank": 6194,
        "player_name": "Mostafa B3ranga",
        "rank": 9970,
        "rank_sort": 10047,
        "total": 2398
      },
      {
        "club_badge_src": "https://fantasy.premierleague.com/gcs/plfpl-production-adobe-approved/plfpl-production/4216483/6ec3d3f2-e9ec-4688-aee0-8ca9acacb5a0.png",
        "entry": 4216483,
        "entry_name": "Ospina colada",
        "event_total": 65,
        "has_played": true,
        "id": 31932485,
        "last_rank": 13184,
        "player_name": "lodo edwards",
        "rank": 9970,
        "rank_sort": 10048,
        "total": 2398
      },
      {
        "club_badge_src": null,
        "entry": 4295124,
        "entry_name": "Reisipullat",
        "event_total": 61,
        "has_played": true,
        "id": 32583184,
        "last_rank": 11237,
        "player_name": "Sam Vikstr\u00f6m",
        "rank": 9970,
        "rank_sort": 10049,
        "total": 2398
      },
      {
        "club_badge_src": null,
        "entry": 4350297,
        "entry_name": "Relle FC",
        "event_total": 73,
        "has_played": true,
        "id": 33034593,
        "last_rank": 18029,
        "player_name": "Gregg Coppock",
        "rank": 9970,
        "rank_sort": 10050,
        "total": 2398
      }
    ]
  }
}