{
  "last_updated_data": "2026-05-24T23:28:17Z",
  "league": {
    "admin_entry": null,
    "closed": false,
    "code_privacy": "p",
    "created": "2025-07-20T23:14:33.933835Z",
    "cup_league": 2815434,
    "has_cup": true,
    "id": 314,
    "league_type": "s",
    "max_entries": null,
    "name": "Overall",
    "rank": null,
    "scoring": "c",
    "start_event": 1
  },
  "new_entries": {
    "has_next": false,
    "page": 1,
    "results": []
  },
  "standings": {
    "has_next": true,
    "page": 1660,
    "results": [
      {
        "club_badge_src": null,
        "entry": 5965534,
        "entry_name": "kingsFC(KFC)",
        "event_total": 73,
        "has_played": true,
        "id": 46935851,
        "last_rank": 127384,
        "player_name": "Abidemi Anipupo",
        "rank": 82714,
        "rank_sort": 82951,
        "total": 2334
      },
      {
        "club_badge_src": null,
        "entry": 6006567,
        "entry_name": "Kick In Tanakas",
        "event_total": 62,
        "has_played": true,
        "id": 47356225,
        "last_rank": 95890,
        "player_name": "Andy Broomfield",
        "rank": 82714,
        "rank_sort": 82952,
        "total": 2334
      },
      {
        "club_badge_src": null,
        "entry": 6009702,
        "entry_name": "We'll Take Dalot",
        "event_total": 67,
        "has_played": true,
        "id": 47384173,
        "last_rank": 98896,
        "player_name": "Alan Mulconry",
        "rank": 82714,
        "rank_sort": 82953,
        "total": 2334
      },
      {
        "club_badge_src": null,
        "entry": 6033055,
        "entry_name": "Joun",
        "event_total": 74,
        "has_played": true,
        "id": 47593088,
        "last_rank": 117423,
        "player_name": "Ellis Halabi",
        "rank": 82714,
        "rank_sort": 82954,
        "total": 2334
      },
      {
        "club_badge_src": null,
        "entry": 6080307,
        "entry_name": "Gallows Bird",
        "event_total": 56,
        "has_played": true,
        "id": 48004849,
        "last_rank": 82398,
        "player_name": "Anssi Karjalainen",
        "rank": 82714,
        "rank_sort": 82955,
        "total": 2334
      },
      {
        "club_badge_src": "https://fantasy.premierleague.com/gcs/plfpl-production-adobe-approved/plfpl-production/6120020/031bb6ab-3f7f-48bb-bc69-2ed14569666e.png",
        "entry": 6120020,
        "entry_name": "Chennai City FC",
        "event_total": 62,
        "has_played": true,
        "id": 48350525,
        "last_rank": 96374,
        "player_name": "Jad Marshall",
        "rank": 82714,
        "rank_sort": 82956,
        "total": 2334
      },
      {
        "club_badge_src": null,
        "entry": 6147303,
        "entry_name": "sicinho fc",
        "event_total": 41,
        "has_played": true,
        "id": 48589004,
        "last_rank": 53621,
        "player_name": "tim sice",
        "rank": 82714,
        "rank_sort": 82957,
        "total": 2334
      },
      {
        "club_badge_src": null,
        "entry": 6210365,
        "entry_name": "La Sele\u00e7\u00e3o",
        "event_total": 71,
        "has_played": true,
        "id": 49134708,
        "last_rank": 121383,
        "player_name": "Joao Ferreira",
        "rank": 82714,
        "rank_sort": 82958,
        "total": 2334
      },
      {
        "club_badge_src": null,
        "entry": 6234457,
        "entry_name": "partey time in jail",
        "event_total": 75,
        "has_played": true,
        "id": 49341807,
        "last_rank": 120941,
        "player_name": "Dara Harrison",
        "rank": 82714,
        "rank_sort": 82959,
        "total": 2334
      },
      {
        "club_badge_src": null,
        "entry": 6235753,
        "entry_name": "Dynamo Deadlegs",
        "event_total": 67,
        "has_played": true,
        "id": 49352735,
        "last_rank": 109863,
        "player_name": "Ola Hagen S\u00f8yland",
        "rank": 82714,
        "rank_sort": 82960,
        "total": 2334
      },
      {
        "club_badge_src": null,
        "entry": 6240798,
        "entry_name": "No team i'd Radabe",
        "event_total": 51,
        "has_played": true,
        "id": 49395706,
        "last_rank": 63390,
        "player_name": "Adam Goldthorpe",
        "rank": 82714,
        "rank_sort": 82961,
        "total": 2334
      },
      {
        "club_badge_src": null,
        "entry": 6269899,
        "entry_name": "Life gives u Lammens",
        "event_total": 54,
        "has_played": true,
        "id": 49647924,
        "last_rank": 77676,
        "player_name": "Ahmed Jibril",
        "rank": 82714,
        "rank_sort": 82962,
        "total": 2334
      },
      {
        "club_badge_src": null,
        "entry": 6319438,
        "entry_name": "Magnum Opus",
        "event_total": 60,
        "has_played": true,
        "id": 50170694,
        "last_rank": 91466,
        "player_name": "Matt J Marsh",
        "rank": 82714,
        "rank_sort": 82963,
        "total": 2334
      },
      {
        "club_badge_src": "https://fantasy.premierleague.com/gcs/plfpl-production-adobe-approved/plfpl-production/6338859/ae69b47f-0680-4b0a-a3b0-13de71e3cda0.png",
        "entry": 6338859,
        "entry_name": "begoal fc *",
        "event_total": 68,
        "has_played": true,
        "id": 50382262,
        "last_rank": 112169,
        "player_name": "Bego\u00f1a Lozano Monjaras",
        "rank": 82714,
        "rank_sort": 82964,
        "total": 2334
      },
      {
        "club_badge_src": null,
        "entry": 6377756,
        "entry_name": "Kant\u00e9 rush greatness",
        "event_total": 60,
        "has_played": true,
        "id": 50722443,
        "last_rank": 91006,
        "player_name": "The Dark Lord",
        "rank": 82714,
        "rank_sort": 82965,
        "total": 2334
      },
      {
        "club_badge_src": null,
        "entry": 6404696,
        "entry_name": "Best team ofc",
        "event_total": 63,
        "has_played": true,
        "id": 50961135,
        "last_rank": 99296,
        "player_name": "Thomas Lavelle",
        "rank": 82714,
        "rank_sort": 82966,
        "total": 2334
      },
      {
        "club_badge_src": null,
        "entry": 6443813,
        "entry_name": "Fournaandinho",
        "event_total": 51,
        "has_played": true,
        "id": 51307689,
        "last_rank": 71386,
        "player_name": "liam newman",
        "rank": 82714,
        "rank_sort": 82967,
        "total": 2334
      },
      {
        "club_badge_src": "https://fantasy.premierleague.com/gcs/plfpl-production-adobe-approved/plfpl-production/6455845/1b32f978-5940-45ba-a7cd-e62e2ad5d5ce.png",
        "entry": 6455845,
        "entry_name": "FrimpongPingpong",
        "event_total": 65,
        "has_played": true,
        "id": 51415937,
        "last_rank": 104388,
        "player_name": "Peter Williams",
        "rank": 82714,
        "rank_sort": 82968,
        "total": 2334
      },
      {
        "club_badge_src": "https://fantasy.premierleague.com/gcs/plfpl-production-adobe-approved/plfpl-production/6480609/6bffcbec-1d59-49d2-b67b-34d83be35fcd.png",
        "entry": 6480609,
        "entry_name": "Heway l Abtal",
        "event_total": 57,
        "has_played": true,
        "id": 51651195,
        "last_rank": 84731,
        "player_name": "Mohamed Amine Nadim",
        "rank": 82714,
        "rank_sort": 82969,
        "total": 2334
      },
      {
        "club_badge_src": null,
        "entry": 6524266,
        "entry_name": "in Pep we trust",
        "event_total": 67,
        "has_played": true,
        "id": 52037898,
        "last_rank": 109863,
        "player_name": "samuel buh",
        "rank": 82714,
        "rank_sort": 82970,
        "total": 2334
      },
      {
        "club_badge_src": null,
        "entry": 6557767,
        "entry_name": "Sancho Clause",
        "event_total": 69,
        "has_played": true,
        "id": 52335989,
        "last_rank": 115057,
        "player_name": "Andy Dagnall",
        "rank": 82714,
        "rank_sort": 82971,
        "total": 2334
      },
      {
        "club_badge_src": null,
        "entry": 6561766,
        "entry_name": "Middleknock XI",
        "event_total": 32,
        "has_played": true,
        "id": 52371834,
        "last_rank": 35424,
        "player_name": "Oisin Murphy",
        "rank": 82714,
        "rank_sort": 82972,
        "total": 2334
      },
      {
        "club_badge_src": null,
        "entry": 6664719,
        "entry_name": "Newbuildland United",
        "event_total": 73,
        "has_played": true,
        "id": 53299395,
        "last_rank": 115057,
        "player_name": "Konstantinos Angelakos",
        "rank": 82714,
        "rank_sort": 82973,
        "total": 2334
      },
      {
        "club_badge_src": null,
        "entry": 6690641,
        "entry_name": "Gnonto Chance",
        "event_total": 57,
        "has_played": true,
        "id": 53526655,
        "last_rank": 84980,
        "player_name": "Dave Hughes",
        "rank": 82714,
        "rank_sort": 82974,
        "total": 2334
      },
      {
        "club_badge_src": null,
        "entry": 6737535,
        "entry_name": "Gyorkes and Cream",
        "event_total": 67,
        "has_played": true,
        "id": 53931463,
        "last_rank": 98896,
        "player_name": "Drew Mulcahy",
        "rank": 82714,
        "rank_sort": 82975,
        "total": 2334
      },
      {
        "club_badge_src": null,
        "entry": 6812566,
        "entry_name": "The Bear Pit",
        "event_total": 61,
        "has_played": true,
        "id": 54560128,
        "last_rank": 94255,
        "player_name": "Scott Richards",
        "rank": 82714,
        "rank_sort": 82976,
        "total": 2334
      },
      {
        "club_badge_src": null,
        "entry": 6827076,
        "entry_name": "Sportunity",
        "event_total": 68,
        "has_played": true,
        "id": 54683669,
        "last_rank": 112591,
        "player_name": "Pedro Francisco",
        "rank": 82714,
        "rank_sort": 82977,
        "total": 2334
      },
      {
        "club_badge_src": null,
        "entry": 6858875,
        "entry_name": "el rojo's",
        "event_total": 61,
        "has_played": true,
        "id": 54955211,
        "last_rank": 94255,
        "player_name": "Matt Rogers",
        "rank": 82714,
        "rank_sort": 82978,
        "total": 2334
      },
      {
        "club_badge_src": "https://fantasy.premierleague.com/gcs/plfpl-production-adobe-approved/plfpl-production/6932136/185d98d7-c18a-4cba-9d5e-914ce5dd1770.png",
        "entry": 6932136,
        "entry_name": "reVrost",
        "event_total": 54,
        "has_played": true,
        "id": 55573066,
        "last_rank": 77999,
        "player_name": "Kenley Bastari",
        "rank": 82714,
        "rank_sort": 82979,
        "total": 2334
      },
      {
        "club_badge_src": null,
        "entry": 7164187,
        "entry_name": "A Sevilla Beating",
        "event_total": 48,
        "has_played": true,
        "id": 57796996,
        "last_rank": 65796,
        "player_name": "Jamie Fuller",
        "rank": 82714,
        "rank_sort": 82980,
        "total": 2334
      },
      {
        "club_badge_src": null,
        "entry": 7171909,
        "entry_name": "TrentSpeaksSpanish",
        "event_total": 62,
        "has_played": true,
        "id": 57870778,
        "last_rank": 95890,
        "player_name": "Paul Faz",
        "rank": 82714,
        "rank_sort": 82981,
        "total": 2334
      },
      {
        "club_badge_src": null,
        "entry": 7174508,
        "entry_name": "AFC Eyechild",
        "event_total": 56,
        "has_played": true,
        "id": 57895211,
        "last_rank": 82398,
        "player_name": "Tim Saunders",
        "rank": 82714,
        "rank_sort": 82982,
        "total": 2334
      },
      {
        "club_badge_src": null,
        "entry": 7326493,
        "entry_name": "Bowen 737",
        "event_total": 54,
        "has_played": true,
        "id": 59325064,
        "last_rank": 69323,
        "player_name": "Joe Reffin",
        "rank": 82714,
        "rank_sort": 82983,
        "total": 2334
      },
      {
        "club_badge_src": null,
        "entry": 7370553,
        "entry_name": "Dream FC",
        "event_total": 66,
        "has_played": true,
        "id": 59739661,
        "last_rank": 106763,
        "player_name": "Ade Corleone",
        "rank": 82714,
        "rank_sort": 82984,
        "total": 2334
      },
      {
        "club_badge_src": null,
        "entry": 7397852,
        "entry_name": "Number_Juan",
        "event_total": 61,
        "has_played": true,
        "id": 59994456,
        "last_rank": 94255,
        "player_name": "Diego Castillo",
        "rank": 82714,
        "rank_sort": 82985,
        "total": 2334
      },
      {
        "club_badge_src": null,
        "entry": 7416007,
        "entry_name": "Too Many Midfielders",
        "event_total": 54,
        "has_played": true,
        "id": 60196333,
        "last_rank": 77999,
        "player_name": "Edwin Dennis",
        "rank": 82714,
        "rank_sort": 82986,
        "total": 2334
      },
      {
        "club_badge_src": null,
        "entry": 7437965,
        "entry_name": "Boston",
        "event_total": 58,
        "has_played": true,
        "id": 60475682,
        "last_rank": 87074,
        "player_name": "Adri Budiman",
        "rank": 82714,
        "rank_sort": 82987,
        "total": 2334
      },
      {
        "club_badge_src": null,
        "entry": 7510012,
        "entry_name": "Cunha Dig It?",
        "event_total": 57,
        "has_played": true,
        "id": 61397759,
        "last_rank": 75139,
        "player_name": "Kieran Innes",
        "rank": 82714,
        "rank_sort": 82988,
        "total": 2334
      },
      {
        "club_badge_src": null,
        "entry": 7530370,
        "entry_name": "Haa La Land",
        "event_total": 67,
        "has_played": true,
        "id": 61632401,
        "last_rank": 98183,
        "player_name": "Sarah Barrott",
        "rank": 82714,
        "rank_sort": 82989,
        "total": 2334
      },
      {
        "club_badge_src": "https://fantasy.premierleague.com/gcs/plfpl-production-adobe-approved/plfpl-production/7577063/891d75f1-1aba-4df6-93a7-63712ac49fab.png",
        "entry": 7577063,
        "entry_name": "The Flying Slottsmen",
        "event_total": 62,
        "has_played": true,
        "id": 62057068,
        "last_rank": 96374,
        "player_name": "Tej Bahia",
        "rank": 82714,
        "rank_sort": 82990,
        "total": 2334
      },
      {
        "club_badge_src": null,
        "entry": 7662623,
        "entry_name": "blahh",
        "event_total": 58,
        "has_played": true,
        "id": 62831407,
        "last_rank": 87350,
        "player_name": "C .",
        "rank": 82714,
        "rank_sort": 82991,
        "total": 2334
      },
      {
        "club_badge_src": null,
        "entry": 7690818,
        "entry_name": "notmikedeanforever",
        "event_total": 50,
        "has_played": true,
        "id": 63088976,
        "last_rank": 69641,
        "player_name": "Geoff Yates",
        "rank": 82714,
        "rank_sort": 82992,
        "total": 2334
      },
      {
        "club_badge_src": null,
        "entry": 7707634,
        "entry_name": "Munahi.LFC",
        "event_total": 48,
        "has_played": true,
        "id": 63239734,
        "last_rank": 65796,
        "player_name": "Mr.Munahi Alotaibi",
        "rank": 82714,
        "rank_sort": 82993,
        "total": 2334
      },
      {
        "club_badge_src": null,
        "entry": 7820715,
        "entry_name": "Peter Crouch Solanke",
        "event_total": 35,
        "has_played": true,
        "id": 64261286,
        "last_rank": 44672,
        "player_name": "Brandon Henderson",
        "rank": 82714,
        "rank_sort": 82994,
        "total": 2334
      },
      {
        "club_badge_src": null,
        "entry": 7953534,
        "entry_name": "Discord Gittens",
        "event_total": 83,
        "has_played": true,
        "id": 65471715,
        "last_rank": 159574,
        "player_name": "Patrick Macalpine",
        "rank": 82714,
        "rank_sort": 82995,
        "total": 2334
      },
      {
        "club_badge_src": null,
        "entry": 7970084,
        "entry_name": "kamatchou",
        "event_total": 59,
        "has_played": true,
        "id": 65619196,
        "last_rank": 89426,
        "player_name": "Kamel Mares",
        "rank": 82714,
        "rank_sort": 82996,
        "total": 2334
      },
      {
        "club_badge_src": null,
        "entry": 8045736,
        "entry_name": "Januka FC",
        "event_total": 64,
        "has_played": true,
        "id": 66298808,
        "last_rank": 91466,
        "player_name": "Januka Adhikari",
        "rank": 82714,
        "rank_sort": 82997,
        "total": 2334
      },
      {
        "club_badge_src": null,
        "entry": 8081773,
        "entry_name": "\u0424\u041a \u0411\u0430\u0433\u044b\u0442",
        "event_total": 55,
        "has_played": true,
        "id": 66631728,
        "last_rank": 79817,
        "player_name": "Ibra Boronbaev",
        "rank": 82714,
        "rank_sort": 82998,
        "total": 2334
      },
      {
        "club_badge_src": null,
        "entry": 8174870,
        "entry_name": "AS Giallorossi",
        "event_total": 57,
        "has_played": true,
        "id": 67501788,
        "last_rank": 84731,
        "player_name": "Erik Joelsson",
        "rank": 82714,
        "rank_sort": 82999,
        "total": 2334
      },
      {
        "club_badge_src": null,
        "entry": 8241888,
        "entry_name": "\u00c5hhfaen",
        "event_total": 63,
        "has_played": true,
        "id": 68144717,
        "last_rank": 98896,
        "player_name": "Fredrik Stavik",
        "rank": 82714,
        "rank_sort": 83000,
        "total": 2334
      }
    ]
  }
}