{
  "last_updated_data": "2026-05-24T23:28:17Z",
  "league": {
    "admin_entry": null,
    "closed": false,
    "code_privacy": "p",
    "created": "2025-07-20T23:14:33.933835Z",
    "cup_league": 2815434,
    "has_cup": true,
    "id": 314,
    "league_type": "s",
    "max_entries": null,
    "name": "Overall",
    "rank": null,
    "scoring": "c",
    "start_event": 1
  },
  "new_entries": {
    "has_next": false,
    "page": 1,
    "results": []
  },
  "standings": {
    "has_next": true,
    "page": 387,
    "results": [
      {
        "club_badge_src": null,
        "entry": 7134655,
        "entry_name": "Devilkiller",
        "event_total": 74,
        "has_played": true,
        "id": 57505539,
        "last_rank": 33869,
        "player_name": "Far Deen",
        "rank": 19166,
        "rank_sort": 19301,
        "total": 2381
      },
      {
        "club_badge_src": "https://fantasy.premierleague.com/gcs/plfpl-production-adobe-approved/plfpl-production/7248203/7ef9582a-43a9-4362-9229-007f61b6d156.png",
        "entry": 7248203,
        "entry_name": "Neville wears Prada",
        "event_total": 68,
        "has_played": true,
        "id": 58586698,
        "last_rank": 27644,
        "player_name": "Laurence Stewart",
        "rank": 19166,
        "rank_sort": 19302,
        "total": 2381
      },
      {
        "club_badge_src": null,
        "entry": 7387720,
        "entry_name": "Ond",
        "event_total": 60,
        "has_played": true,
        "id": 59898150,
        "last_rank": 20888,
        "player_name": "Karun Intrachai",
        "rank": 19166,
        "rank_sort": 19303,
        "total": 2381
      },
      {
        "club_badge_src": null,
        "entry": 7439979,
        "entry_name": "M.e.s.s.i 10",
        "event_total": 44,
        "has_played": true,
        "id": 60502732,
        "last_rank": 11175,
        "player_name": "Arnold Muriithi",
        "rank": 19166,
        "rank_sort": 19304,
        "total": 2381
      },
      {
        "club_badge_src": null,
        "entry": 7481362,
        "entry_name": "Helene og gutta",
        "event_total": 61,
        "has_played": true,
        "id": 61040853,
        "last_rank": 21628,
        "player_name": "Helene Rossow",
        "rank": 19166,
        "rank_sort": 19305,
        "total": 2381
      },
      {
        "club_badge_src": null,
        "entry": 7634849,
        "entry_name": "Wirtz Case Scenario",
        "event_total": 68,
        "has_played": true,
        "id": 62579443,
        "last_rank": 24039,
        "player_name": "Fiona Rawlings",
        "rank": 19166,
        "rank_sort": 19306,
        "total": 2381
      },
      {
        "club_badge_src": null,
        "entry": 7723094,
        "entry_name": "Change Name",
        "event_total": 83,
        "has_played": true,
        "id": 63378916,
        "last_rank": 39762,
        "player_name": "Konan Hey",
        "rank": 19166,
        "rank_sort": 19307,
        "total": 2381
      },
      {
        "club_badge_src": null,
        "entry": 7763266,
        "entry_name": "Bygging FC",
        "event_total": 49,
        "has_played": true,
        "id": 63742683,
        "last_rank": 13947,
        "player_name": "Lasse Hoftun",
        "rank": 19166,
        "rank_sort": 19308,
        "total": 2381
      },
      {
        "club_badge_src": null,
        "entry": 7775359,
        "entry_name": "Dusty Carpet",
        "event_total": 78,
        "has_played": true,
        "id": 63851012,
        "last_rank": 38571,
        "player_name": "Dermot McWilliams",
        "rank": 19166,
        "rank_sort": 19309,
        "total": 2381
      },
      {
        "club_badge_src": null,
        "entry": 7800934,
        "entry_name": "Expected Toulouse",
        "event_total": 63,
        "has_played": true,
        "id": 64081729,
        "last_rank": 23230,
        "player_name": "Ben Mallison",
        "rank": 19166,
        "rank_sort": 19310,
        "total": 2381
      },
      {
        "club_badge_src": null,
        "entry": 8464452,
        "entry_name": "K.O",
        "event_total": 67,
        "has_played": true,
        "id": 70292088,
        "last_rank": 26827,
        "player_name": "Kelvin Ong",
        "rank": 19166,
        "rank_sort": 19311,
        "total": 2381
      },
      {
        "club_badge_src": null,
        "entry": 8466118,
        "entry_name": "Danger Squad",
        "event_total": 80,
        "has_played": true,
        "id": 70307829,
        "last_rank": 41324,
        "player_name": "Abidemi Anipupo",
        "rank": 19166,
        "rank_sort": 19312,
        "total": 2381
      },
      {
        "club_badge_src": null,
        "entry": 8633516,
        "entry_name": "Mbuthis",
        "event_total": 53,
        "has_played": true,
        "id": 71922067,
        "last_rank": 16163,
        "player_name": "Mbuthia Kihara",
        "rank": 19166,
        "rank_sort": 19313,
        "total": 2381
      },
      {
        "club_badge_src": null,
        "entry": 8652086,
        "entry_name": "3 in a row",
        "event_total": 58,
        "has_played": true,
        "id": 72108048,
        "last_rank": 19544,
        "player_name": "Georgie Wright",
        "rank": 19166,
        "rank_sort": 19314,
        "total": 2381
      },
      {
        "club_badge_src": null,
        "entry": 8778102,
        "entry_name": "icantbelieveididthat",
        "event_total": 72,
        "has_played": true,
        "id": 73333304,
        "last_rank": 31620,
        "player_name": "John O Sullivan",
        "rank": 19166,
        "rank_sort": 19315,
        "total": 2381
      },
      {
        "club_badge_src": null,
        "entry": 8855501,
        "entry_name": "Don Julio Vel\u00e1zquez",
        "event_total": 57,
        "has_played": true,
        "id": 74079573,
        "last_rank": 18691,
        "player_name": "Georgi Dimitrov",
        "rank": 19166,
        "rank_sort": 19316,
        "total": 2381
      },
      {
        "club_badge_src": null,
        "entry": 10056918,
        "entry_name": "Slot's Advisor",
        "event_total": 46,
        "has_played": true,
        "id": 85279490,
        "last_rank": 12200,
        "player_name": "Glenn Neo",
        "rank": 19166,
        "rank_sort": 19317,
        "total": 2381
      },
      {
        "club_badge_src": null,
        "entry": 10202315,
        "entry_name": "Uzzi's XI",
        "event_total": 61,
        "has_played": true,
        "id": 86434033,
        "last_rank": 21775,
        "player_name": "Uzma Garasia",
        "rank": 19166,
        "rank_sort": 19318,
        "total": 2381
      },
      {
        "club_badge_src": null,
        "entry": 14550,
        "entry_name": "AD F.C.",
        "event_total": 67,
        "has_played": true,
        "id": 88420,
        "last_rank": 23341,
        "player_name": "Abu Da7im",
        "rank": 19319,
        "rank_sort": 19319,
        "total": 2381
      },
      {
        "club_badge_src": null,
        "entry": 16519,
        "entry_name": "Graduates FC",
        "event_total": 66,
        "has_played": true,
        "id": 102086,
        "last_rank": 22534,
        "player_name": "Ben Brown",
        "rank": 19319,
        "rank_sort": 19320,
        "total": 2381
      },
      {
        "club_badge_src": "https://fantasy.premierleague.com/gcs/plfpl-production-adobe-approved/plfpl-production/21665/8eae8740-2f3a-49dc-8dcd-1d0368d22df2.png",
        "entry": 21665,
        "entry_name": "Northern Monkeys",
        "event_total": 59,
        "has_played": true,
        "id": 135888,
        "last_rank": 20416,
        "player_name": "Northern Monkeys",
        "rank": 19319,
        "rank_sort": 19321,
        "total": 2381
      },
      {
        "club_badge_src": null,
        "entry": 22220,
        "entry_name": "Do you condemn Amass",
        "event_total": 76,
        "has_played": true,
        "id": 139502,
        "last_rank": 31556,
        "player_name": "Andrew Kennedy",
        "rank": 19319,
        "rank_sort": 19322,
        "total": 2381
      },
      {
        "club_badge_src": null,
        "entry": 22432,
        "entry_name": "Steining your Chance",
        "event_total": 69,
        "has_played": true,
        "id": 140857,
        "last_rank": 28726,
        "player_name": "Daniel Stein",
        "rank": 19319,
        "rank_sort": 19323,
        "total": 2381
      },
      {
        "club_badge_src": null,
        "entry": 23364,
        "entry_name": "Poulton Puffins",
        "event_total": 62,
        "has_played": true,
        "id": 147102,
        "last_rank": 19544,
        "player_name": "Stefan Breen",
        "rank": 19319,
        "rank_sort": 19324,
        "total": 2381
      },
      {
        "club_badge_src": null,
        "entry": 23926,
        "entry_name": "chimpanzini bananini",
        "event_total": 50,
        "has_played": true,
        "id": 150896,
        "last_rank": 12200,
        "player_name": "Abdessamad Choudiri",
        "rank": 19319,
        "rank_sort": 19325,
        "total": 2381
      },
      {
        "club_badge_src": null,
        "entry": 25545,
        "entry_name": "PSY ALL STAR UNITED",
        "event_total": 66,
        "has_played": true,
        "id": 161587,
        "last_rank": 26088,
        "player_name": "AYDAN TEN HAG",
        "rank": 19319,
        "rank_sort": 19326,
        "total": 2381
      },
      {
        "club_badge_src": null,
        "entry": 36083,
        "entry_name": "Baxi",
        "event_total": 60,
        "has_played": true,
        "id": 230921,
        "last_rank": 18113,
        "player_name": "Samuel Baxendale",
        "rank": 19319,
        "rank_sort": 19327,
        "total": 2381
      },
      {
        "club_badge_src": "https://fantasy.premierleague.com/gcs/plfpl-production-adobe-approved/plfpl-production/46187/1267f97c-093d-406d-ab6e-c69ca5d89951.png",
        "entry": 46187,
        "entry_name": "Chwephessional",
        "event_total": 58,
        "has_played": true,
        "id": 296154,
        "last_rank": 19721,
        "player_name": "Nhlakanipho Magwaza",
        "rank": 19319,
        "rank_sort": 19328,
        "total": 2381
      },
      {
        "club_badge_src": null,
        "entry": 46344,
        "entry_name": "Godley's Giants",
        "event_total": 55,
        "has_played": true,
        "id": 297115,
        "last_rank": 14926,
        "player_name": "Phil Godley",
        "rank": 19319,
        "rank_sort": 19329,
        "total": 2381
      },
      {
        "club_badge_src": null,
        "entry": 48983,
        "entry_name": "Get your Zubi\u2019s out",
        "event_total": 57,
        "has_played": true,
        "id": 314763,
        "last_rank": 18790,
        "player_name": "Daniel Mackie",
        "rank": 19319,
        "rank_sort": 19330,
        "total": 2381
      },
      {
        "club_badge_src": null,
        "entry": 56813,
        "entry_name": "Wirtz case scenario",
        "event_total": 64,
        "has_played": true,
        "id": 365971,
        "last_rank": 20983,
        "player_name": "Liam Farthing",
        "rank": 19319,
        "rank_sort": 19331,
        "total": 2381
      },
      {
        "club_badge_src": null,
        "entry": 56938,
        "entry_name": "The Rice is Right",
        "event_total": 61,
        "has_played": true,
        "id": 366762,
        "last_rank": 18691,
        "player_name": "Matthew Harding",
        "rank": 19319,
        "rank_sort": 19332,
        "total": 2381
      },
      {
        "club_badge_src": "https://fantasy.premierleague.com/gcs/plfpl-production-adobe-approved/plfpl-production/58677/f465a746-48ca-4473-8728-99c7bac0fbaf.png",
        "entry": 58677,
        "entry_name": "Rui Marques FC",
        "event_total": 61,
        "has_played": true,
        "id": 377919,
        "last_rank": 21775,
        "player_name": "Mike Dardis",
        "rank": 19319,
        "rank_sort": 19333,
        "total": 2381
      },
      {
        "club_badge_src": null,
        "entry": 62088,
        "entry_name": "Beef_Cherki",
        "event_total": 57,
        "has_played": true,
        "id": 400073,
        "last_rank": 18790,
        "player_name": "Jordan Letty",
        "rank": 19319,
        "rank_sort": 19334,
        "total": 2381
      },
      {
        "club_badge_src": null,
        "entry": 73186,
        "entry_name": "Sjaman Dudek",
        "event_total": 67,
        "has_played": true,
        "id": 475683,
        "last_rank": 27020,
        "player_name": "Andreas Kv\u00e5le",
        "rank": 19319,
        "rank_sort": 19335,
        "total": 2381
      },
      {
        "club_badge_src": null,
        "entry": 107987,
        "entry_name": "stars26",
        "event_total": 72,
        "has_played": true,
        "id": 704061,
        "last_rank": 31995,
        "player_name": "ahmed salman",
        "rank": 19319,
        "rank_sort": 19336,
        "total": 2381
      },
      {
        "club_badge_src": "https://fantasy.premierleague.com/gcs/plfpl-production-adobe-approved/plfpl-production/108731/ee0f0187-5c07-4926-b953-17c3af47567f.png",
        "entry": 108731,
        "entry_name": "Minecraft Est\u00e8ve",
        "event_total": 73,
        "has_played": true,
        "id": 708885,
        "last_rank": 28726,
        "player_name": "Nathan MacDonald",
        "rank": 19319,
        "rank_sort": 19337,
        "total": 2381
      },
      {
        "club_badge_src": null,
        "entry": 115994,
        "entry_name": "The Burn Identity",
        "event_total": 71,
        "has_played": true,
        "id": 757174,
        "last_rank": 30600,
        "player_name": "Chris Yates",
        "rank": 19319,
        "rank_sort": 19338,
        "total": 2381
      },
      {
        "club_badge_src": null,
        "entry": 124176,
        "entry_name": "Yoro Wizard Leny",
        "event_total": 81,
        "has_played": true,
        "id": 809921,
        "last_rank": 37589,
        "player_name": "Umer Hussain",
        "rank": 19319,
        "rank_sort": 19339,
        "total": 2381
      },
      {
        "club_badge_src": null,
        "entry": 138503,
        "entry_name": "Kinder Mbuemo",
        "event_total": 62,
        "has_played": true,
        "id": 903564,
        "last_rank": 22534,
        "player_name": "Elliot Halliwell",
        "rank": 19319,
        "rank_sort": 19340,
        "total": 2381
      },
      {
        "club_badge_src": null,
        "entry": 156094,
        "entry_name": "Minteh CorNeto",
        "event_total": 47,
        "has_played": true,
        "id": 1026372,
        "last_rank": 12846,
        "player_name": "Will Hughes",
        "rank": 19319,
        "rank_sort": 19341,
        "total": 2381
      },
      {
        "club_badge_src": null,
        "entry": 163219,
        "entry_name": "Guimar\u00e3esning",
        "event_total": 62,
        "has_played": true,
        "id": 1076386,
        "last_rank": 22534,
        "player_name": "Tobias Kauczki",
        "rank": 19319,
        "rank_sort": 19342,
        "total": 2381
      },
      {
        "club_badge_src": null,
        "entry": 165023,
        "entry_name": "Iceuniverse",
        "event_total": 74,
        "has_played": true,
        "id": 1089338,
        "last_rank": 33936,
        "player_name": "ilia averbuch",
        "rank": 19319,
        "rank_sort": 19343,
        "total": 2381
      },
      {
        "club_badge_src": "https://fantasy.premierleague.com/gcs/plfpl-production-adobe-approved/plfpl-production/166534/ee6287c6-4c3a-42e6-8ebd-ec8577021468.png",
        "entry": 166534,
        "entry_name": "COCO FC",
        "event_total": 48,
        "has_played": true,
        "id": 1100295,
        "last_rank": 13401,
        "player_name": "ahmed aro",
        "rank": 19319,
        "rank_sort": 19344,
        "total": 2381
      },
      {
        "club_badge_src": "https://fantasy.premierleague.com/gcs/plfpl-production-adobe-approved/plfpl-production/170417/d424af51-425e-4563-bc39-5f05449a73b5.png",
        "entry": 170417,
        "entry_name": "WILMAR",
        "event_total": 56,
        "has_played": true,
        "id": 1125925,
        "last_rank": 18270,
        "player_name": "Marcus Degauleh Williams",
        "rank": 19319,
        "rank_sort": 19345,
        "total": 2381
      },
      {
        "club_badge_src": null,
        "entry": 177621,
        "entry_name": "Blue Fox FC",
        "event_total": 60,
        "has_played": true,
        "id": 1172290,
        "last_rank": 21159,
        "player_name": "Luke Taylor",
        "rank": 19319,
        "rank_sort": 19346,
        "total": 2381
      },
      {
        "club_badge_src": "https://fantasy.premierleague.com/gcs/plfpl-production-adobe-approved/plfpl-production/182298/7646455e-3d09-4500-b21f-44e456b87c5c.png",
        "entry": 182298,
        "entry_name": "Karlchester United",
        "event_total": 63,
        "has_played": true,
        "id": 1202998,
        "last_rank": 23341,
        "player_name": "Karl Bonas",
        "rank": 19319,
        "rank_sort": 19347,
        "total": 2381
      },
      {
        "club_badge_src": null,
        "entry": 194034,
        "entry_name": "gOatNANA luCUNHA",
        "event_total": 53,
        "has_played": true,
        "id": 1286293,
        "last_rank": 16320,
        "player_name": "Donny Kurniawan",
        "rank": 19319,
        "rank_sort": 19348,
        "total": 2381
      },
      {
        "club_badge_src": null,
        "entry": 231021,
        "entry_name": "Bogus Gassaman",
        "event_total": 66,
        "has_played": true,
        "id": 1536968,
        "last_rank": 26088,
        "player_name": "Allan Buchanan",
        "rank": 19319,
        "rank_sort": 19349,
        "total": 2381
      },
      {
        "club_badge_src": null,
        "entry": 237215,
        "entry_name": "SnoopUdogieDogg",
        "event_total": 57,
        "has_played": true,
        "id": 1578250,
        "last_rank": 18985,
        "player_name": "Tijl Beukers",
        "rank": 19319,
        "rank_sort": 19350,
        "total": 2381
      }
    ]
  }
}