{
  "last_updated_data": "2026-05-24T23:28:17Z",
  "league": {
    "admin_entry": null,
    "closed": false,
    "code_privacy": "p",
    "created": "2025-07-20T23:14:33.933835Z",
    "cup_league": 2815434,
    "has_cup": true,
    "id": 314,
    "league_type": "s",
    "max_entries": null,
    "name": "Overall",
    "rank": null,
    "scoring": "c",
    "start_event": 1
  },
  "new_entries": {
    "has_next": false,
    "page": 1,
    "results": []
  },
  "standings": {
    "has_next": true,
    "page": 405,
    "results": [
      {
        "club_badge_src": null,
        "entry": 1218694,
        "entry_name": "Green Arrow Hunters",
        "event_total": 48,
        "has_played": true,
        "id": 8460333,
        "last_rank": 11821,
        "player_name": "Konrad Kowalski",
        "rank": 20167,
        "rank_sort": 20201,
        "total": 2380
      },
      {
        "club_badge_src": null,
        "entry": 1267433,
        "entry_name": "SaiSan UTD",
        "event_total": 53,
        "has_played": true,
        "id": 8806275,
        "last_rank": 14496,
        "player_name": "Surinder Lal",
        "rank": 20167,
        "rank_sort": 20202,
        "total": 2380
      },
      {
        "club_badge_src": null,
        "entry": 1303000,
        "entry_name": "Kinder Mbuemo",
        "event_total": 61,
        "has_played": true,
        "id": 9055849,
        "last_rank": 22830,
        "player_name": "Lorik Kastrati",
        "rank": 20167,
        "rank_sort": 20203,
        "total": 2380
      },
      {
        "club_badge_src": null,
        "entry": 1405930,
        "entry_name": "IF Rayban",
        "event_total": 63,
        "has_played": true,
        "id": 9782480,
        "last_rank": 24475,
        "player_name": "David Karlsson",
        "rank": 20167,
        "rank_sort": 20204,
        "total": 2380
      },
      {
        "club_badge_src": null,
        "entry": 1445428,
        "entry_name": "WhenWeWeren\u2019tKings",
        "event_total": 64,
        "has_played": true,
        "id": 10072090,
        "last_rank": 25172,
        "player_name": "Fredrik H\u00e5rd",
        "rank": 20167,
        "rank_sort": 20205,
        "total": 2380
      },
      {
        "club_badge_src": null,
        "entry": 1555977,
        "entry_name": "neuensch",
        "event_total": 59,
        "has_played": true,
        "id": 10864505,
        "last_rank": 21301,
        "player_name": "Matthias Neuensch",
        "rank": 20167,
        "rank_sort": 20206,
        "total": 2380
      },
      {
        "club_badge_src": null,
        "entry": 1616272,
        "entry_name": "Buzzards FC",
        "event_total": 73,
        "has_played": true,
        "id": 11309529,
        "last_rank": 34578,
        "player_name": "Joe Matthews",
        "rank": 20167,
        "rank_sort": 20207,
        "total": 2380
      },
      {
        "club_badge_src": null,
        "entry": 1690594,
        "entry_name": "County All Stars",
        "event_total": 61,
        "has_played": true,
        "id": 11837745,
        "last_rank": 22685,
        "player_name": "Andrew Robinson",
        "rank": 20167,
        "rank_sort": 20208,
        "total": 2380
      },
      {
        "club_badge_src": null,
        "entry": 1769495,
        "entry_name": "Pompeii",
        "event_total": 62,
        "has_played": true,
        "id": 12430210,
        "last_rank": 23656,
        "player_name": "Jack Coulson",
        "rank": 20167,
        "rank_sort": 20209,
        "total": 2380
      },
      {
        "club_badge_src": null,
        "entry": 2035461,
        "entry_name": "No more Tears",
        "event_total": 76,
        "has_played": true,
        "id": 14411999,
        "last_rank": 38016,
        "player_name": "Angela Booth",
        "rank": 20167,
        "rank_sort": 20210,
        "total": 2380
      },
      {
        "club_badge_src": null,
        "entry": 2087279,
        "entry_name": "Livin Saliba Loca",
        "event_total": 67,
        "has_played": true,
        "id": 14808366,
        "last_rank": 24330,
        "player_name": "Greg Banks",
        "rank": 20167,
        "rank_sort": 20211,
        "total": 2380
      },
      {
        "club_badge_src": null,
        "entry": 2264590,
        "entry_name": "kamalvic",
        "event_total": 69,
        "has_played": true,
        "id": 16146492,
        "last_rank": 30060,
        "player_name": "ahmed kamal",
        "rank": 20167,
        "rank_sort": 20212,
        "total": 2380
      },
      {
        "club_badge_src": null,
        "entry": 2314258,
        "entry_name": "Excel boy",
        "event_total": 64,
        "has_played": true,
        "id": 16508680,
        "last_rank": 21949,
        "player_name": "Brian Carr",
        "rank": 20167,
        "rank_sort": 20213,
        "total": 2380
      },
      {
        "club_badge_src": null,
        "entry": 2363684,
        "entry_name": "NFS",
        "event_total": 62,
        "has_played": true,
        "id": 16870981,
        "last_rank": 23522,
        "player_name": "pantelis moleskis",
        "rank": 20167,
        "rank_sort": 20214,
        "total": 2380
      },
      {
        "club_badge_src": null,
        "entry": 2498301,
        "entry_name": "Ayew Serous?",
        "event_total": 56,
        "has_played": true,
        "id": 17887380,
        "last_rank": 19103,
        "player_name": "Spiros Valouxis",
        "rank": 20167,
        "rank_sort": 20215,
        "total": 2380
      },
      {
        "club_badge_src": null,
        "entry": 2593137,
        "entry_name": "Arsenal?",
        "event_total": 87,
        "has_played": true,
        "id": 18618739,
        "last_rank": 53621,
        "player_name": "Himal AD",
        "rank": 20167,
        "rank_sort": 20216,
        "total": 2380
      },
      {
        "club_badge_src": "https://fantasy.premierleague.com/gcs/plfpl-production-adobe-approved/plfpl-production/2683451/fdba888a-ecda-43f3-aca7-bf72688a178c.png",
        "entry": 2683451,
        "entry_name": "Free Palestine \ufffd",
        "event_total": 67,
        "has_played": true,
        "id": 19299907,
        "last_rank": 24143,
        "player_name": "Anas - BaBa ELMaGaL",
        "rank": 20167,
        "rank_sort": 20217,
        "total": 2380
      },
      {
        "club_badge_src": null,
        "entry": 2815135,
        "entry_name": "McAToastee",
        "event_total": 66,
        "has_played": true,
        "id": 20562041,
        "last_rank": 27020,
        "player_name": "Sam Norton",
        "rank": 20167,
        "rank_sort": 20218,
        "total": 2380
      },
      {
        "club_badge_src": null,
        "entry": 2828746,
        "entry_name": "Partner in Grimes",
        "event_total": 50,
        "has_played": true,
        "id": 20669528,
        "last_rank": 15164,
        "player_name": "George Jeremiah",
        "rank": 20167,
        "rank_sort": 20219,
        "total": 2380
      },
      {
        "club_badge_src": null,
        "entry": 2847197,
        "entry_name": "\u041f\u0422\u041d \u041f\u041d\u0425",
        "event_total": 61,
        "has_played": true,
        "id": 20815465,
        "last_rank": 22830,
        "player_name": "Jak Kal",
        "rank": 20167,
        "rank_sort": 20220,
        "total": 2380
      },
      {
        "club_badge_src": null,
        "entry": 2859990,
        "entry_name": "oski13313",
        "event_total": 67,
        "has_played": true,
        "id": 20914660,
        "last_rank": 27770,
        "player_name": "Oskar Sprawka",
        "rank": 20167,
        "rank_sort": 20221,
        "total": 2380
      },
      {
        "club_badge_src": null,
        "entry": 2871751,
        "entry_name": "KickArse-nal",
        "event_total": 66,
        "has_played": true,
        "id": 21012855,
        "last_rank": 23522,
        "player_name": "Parag Raje",
        "rank": 20167,
        "rank_sort": 20222,
        "total": 2380
      },
      {
        "club_badge_src": null,
        "entry": 2980087,
        "entry_name": "Zelene sovy",
        "event_total": 53,
        "has_played": true,
        "id": 21910335,
        "last_rank": 17078,
        "player_name": "Peter Kalata",
        "rank": 20167,
        "rank_sort": 20223,
        "total": 2380
      },
      {
        "club_badge_src": null,
        "entry": 3156980,
        "entry_name": "pelipurlara",
        "event_total": 51,
        "has_played": true,
        "id": 23318591,
        "last_rank": 15797,
        "player_name": "Raynald Raynald",
        "rank": 20167,
        "rank_sort": 20224,
        "total": 2380
      },
      {
        "club_badge_src": null,
        "entry": 3268877,
        "entry_name": "mohamed Al-Wafi",
        "event_total": 61,
        "has_played": true,
        "id": 24190469,
        "last_rank": 22685,
        "player_name": "mohammed Alharbi",
        "rank": 20167,
        "rank_sort": 20225,
        "total": 2380
      },
      {
        "club_badge_src": null,
        "entry": 3283908,
        "entry_name": "Bube",
        "event_total": 79,
        "has_played": true,
        "id": 24308603,
        "last_rank": 41824,
        "player_name": "Boris \u0160anti\u0107",
        "rank": 20167,
        "rank_sort": 20226,
        "total": 2380
      },
      {
        "club_badge_src": null,
        "entry": 3347893,
        "entry_name": "Novator",
        "event_total": 62,
        "has_played": true,
        "id": 24835412,
        "last_rank": 23656,
        "player_name": "Kostiantyn Mamaisur",
        "rank": 20167,
        "rank_sort": 20227,
        "total": 2380
      },
      {
        "club_badge_src": null,
        "entry": 3348727,
        "entry_name": "Scharface FC",
        "event_total": 72,
        "has_played": true,
        "id": 24841831,
        "last_rank": 28906,
        "player_name": "Alfie Tinnirello",
        "rank": 20167,
        "rank_sort": 20228,
        "total": 2380
      },
      {
        "club_badge_src": null,
        "entry": 3423819,
        "entry_name": "Change Name",
        "event_total": 75,
        "has_played": true,
        "id": 25433113,
        "last_rank": 31747,
        "player_name": "Josh Boulton",
        "rank": 20167,
        "rank_sort": 20229,
        "total": 2380
      },
      {
        "club_badge_src": null,
        "entry": 3490991,
        "entry_name": "Gilley's Allstars",
        "event_total": 72,
        "has_played": true,
        "id": 25962399,
        "last_rank": 33147,
        "player_name": "Clare Cahill",
        "rank": 20167,
        "rank_sort": 20230,
        "total": 2380
      },
      {
        "club_badge_src": "https://fantasy.premierleague.com/gcs/plfpl-production-adobe-approved/plfpl-production/3507144/b06ca872-1f3a-4a13-9f54-23b6d7d58fe9.png",
        "entry": 3507144,
        "entry_name": "Atl\u00e9tico Chris",
        "event_total": 67,
        "has_played": true,
        "id": 26090834,
        "last_rank": 24330,
        "player_name": "Chris Colyer",
        "rank": 20167,
        "rank_sort": 20231,
        "total": 2380
      },
      {
        "club_badge_src": null,
        "entry": 3510808,
        "entry_name": "Pantzen Sox",
        "event_total": 60,
        "has_played": true,
        "id": 26123112,
        "last_rank": 18985,
        "player_name": "Alex Hill",
        "rank": 20167,
        "rank_sort": 20232,
        "total": 2380
      },
      {
        "club_badge_src": null,
        "entry": 3571512,
        "entry_name": "Chommy Angels",
        "event_total": 71,
        "has_played": true,
        "id": 26593973,
        "last_rank": 31995,
        "player_name": "Chioma Okpala",
        "rank": 20167,
        "rank_sort": 20233,
        "total": 2380
      },
      {
        "club_badge_src": null,
        "entry": 3635653,
        "entry_name": "Inter Row Z",
        "event_total": 44,
        "has_played": true,
        "id": 27093628,
        "last_rank": 11901,
        "player_name": "Ian Butcher",
        "rank": 20167,
        "rank_sort": 20234,
        "total": 2380
      },
      {
        "club_badge_src": null,
        "entry": 3649054,
        "entry_name": "Charli xGx",
        "event_total": 64,
        "has_played": true,
        "id": 27199555,
        "last_rank": 21949,
        "player_name": "Louis Killworth",
        "rank": 20167,
        "rank_sort": 20235,
        "total": 2380
      },
      {
        "club_badge_src": null,
        "entry": 3660733,
        "entry_name": "Game of Stones",
        "event_total": 59,
        "has_played": true,
        "id": 27298249,
        "last_rank": 21301,
        "player_name": "Callum Davy",
        "rank": 20167,
        "rank_sort": 20236,
        "total": 2380
      },
      {
        "club_badge_src": null,
        "entry": 3685384,
        "entry_name": "Valverde is King",
        "event_total": 53,
        "has_played": true,
        "id": 27491932,
        "last_rank": 14496,
        "player_name": "Mohamed Nabil",
        "rank": 20167,
        "rank_sort": 20237,
        "total": 2380
      },
      {
        "club_badge_src": null,
        "entry": 3699861,
        "entry_name": "Shoma FC",
        "event_total": 56,
        "has_played": true,
        "id": 27604702,
        "last_rank": 16320,
        "player_name": "Ahmed Shouman",
        "rank": 20167,
        "rank_sort": 20238,
        "total": 2380
      },
      {
        "club_badge_src": null,
        "entry": 3856772,
        "entry_name": "LEWRELLA",
        "event_total": 73,
        "has_played": true,
        "id": 28914867,
        "last_rank": 34293,
        "player_name": "Lewis Wheeler",
        "rank": 20167,
        "rank_sort": 20239,
        "total": 2380
      },
      {
        "club_badge_src": null,
        "entry": 3930914,
        "entry_name": "Wooden Spoon",
        "event_total": 48,
        "has_played": true,
        "id": 29564207,
        "last_rank": 13947,
        "player_name": "Charlie Kallas",
        "rank": 20167,
        "rank_sort": 20240,
        "total": 2380
      },
      {
        "club_badge_src": null,
        "entry": 4078495,
        "entry_name": "kaffep\u00e5maten",
        "event_total": 71,
        "has_played": true,
        "id": 30787475,
        "last_rank": 27976,
        "player_name": "Adam Gustafsson",
        "rank": 20167,
        "rank_sort": 20241,
        "total": 2380
      },
      {
        "club_badge_src": null,
        "entry": 4110335,
        "entry_name": "Hapalainen#18",
        "event_total": 64,
        "has_played": true,
        "id": 31041787,
        "last_rank": 25172,
        "player_name": "Ond\u0159ej Hapal",
        "rank": 20167,
        "rank_sort": 20242,
        "total": 2380
      },
      {
        "club_badge_src": null,
        "entry": 4115031,
        "entry_name": "sd turiska ves",
        "event_total": 72,
        "has_played": true,
        "id": 31084035,
        "last_rank": 28906,
        "player_name": "jakob Tram\u0161ek",
        "rank": 20167,
        "rank_sort": 20243,
        "total": 2380
      },
      {
        "club_badge_src": null,
        "entry": 4606481,
        "entry_name": "Haaland tiembla",
        "event_total": 47,
        "has_played": true,
        "id": 35195024,
        "last_rank": 11175,
        "player_name": "Charlie Shanahan",
        "rank": 20167,
        "rank_sort": 20244,
        "total": 2380
      },
      {
        "club_badge_src": null,
        "entry": 4635828,
        "entry_name": "Lord Maguire FC",
        "event_total": 47,
        "has_played": true,
        "id": 35450892,
        "last_rank": 13500,
        "player_name": "Tiago Gomes",
        "rank": 20167,
        "rank_sort": 20245,
        "total": 2380
      },
      {
        "club_badge_src": null,
        "entry": 4641819,
        "entry_name": "champion of 24/25",
        "event_total": 59,
        "has_played": true,
        "id": 35503273,
        "last_rank": 21301,
        "player_name": "Jack Ke",
        "rank": 20167,
        "rank_sort": 20246,
        "total": 2380
      },
      {
        "club_badge_src": null,
        "entry": 4909311,
        "entry_name": "Kopral",
        "event_total": 48,
        "has_played": true,
        "id": 37859250,
        "last_rank": 14040,
        "player_name": "Tanto Kris",
        "rank": 20167,
        "rank_sort": 20247,
        "total": 2380
      },
      {
        "club_badge_src": null,
        "entry": 5002292,
        "entry_name": "High Woltage \u26a1\ufe0f",
        "event_total": 62,
        "has_played": true,
        "id": 38625712,
        "last_rank": 23656,
        "player_name": "Sean Byrne",
        "rank": 20167,
        "rank_sort": 20248,
        "total": 2380
      },
      {
        "club_badge_src": null,
        "entry": 5379786,
        "entry_name": "Redemtion",
        "event_total": 50,
        "has_played": true,
        "id": 41818725,
        "last_rank": 15164,
        "player_name": "A B",
        "rank": 20167,
        "rank_sort": 20249,
        "total": 2380
      },
      {
        "club_badge_src": null,
        "entry": 5531882,
        "entry_name": "TheKevinFoleyFanclub",
        "event_total": 68,
        "has_played": true,
        "id": 43156390,
        "last_rank": 29071,
        "player_name": "Gerard Moloney",
        "rank": 20167,
        "rank_sort": 20250,
        "total": 2380
      }
    ]
  }
}