{
  "last_updated_data": "2026-05-24T23:28:17Z",
  "league": {
    "admin_entry": null,
    "closed": false,
    "code_privacy": "p",
    "created": "2025-07-20T23:14:33.933835Z",
    "cup_league": 2815434,
    "has_cup": true,
    "id": 314,
    "league_type": "s",
    "max_entries": null,
    "name": "Overall",
    "rank": null,
    "scoring": "c",
    "start_event": 1
  },
  "new_entries": {
    "has_next": false,
    "page": 1,
    "results": []
  },
  "standings": {
    "has_next": true,
    "page": 190,
    "results": [
      {
        "club_badge_src": null,
        "entry": 7562992,
        "entry_name": "Vee Rovers",
        "event_total": 70,
        "has_played": true,
        "id": 61928653,
        "last_rank": 15280,
        "player_name": "Vee Chiasakul",
        "rank": 9413,
        "rank_sort": 9451,
        "total": 2400
      },
      {
        "club_badge_src": null,
        "entry": 8792769,
        "entry_name": "Polski Sklep",
        "event_total": 72,
        "has_played": true,
        "id": 73474783,
        "last_rank": 13947,
        "player_name": "Alexander Raju",
        "rank": 9413,
        "rank_sort": 9452,
        "total": 2400
      },
      {
        "club_badge_src": "https://fantasy.premierleague.com/gcs/plfpl-production-adobe-approved/plfpl-production/3468/a90a8e8b-25a4-4fea-91a4-ce2adc1ac863.png",
        "entry": 3468,
        "entry_name": "Shady Whims",
        "event_total": 63,
        "has_played": true,
        "id": 19653,
        "last_rank": 11482,
        "player_name": "J\u00f8ran Solli",
        "rank": 9453,
        "rank_sort": 9453,
        "total": 2400
      },
      {
        "club_badge_src": null,
        "entry": 45153,
        "entry_name": "Cesc and the City",
        "event_total": 61,
        "has_played": true,
        "id": 289568,
        "last_rank": 7501,
        "player_name": "Mahin Uddin",
        "rank": 9453,
        "rank_sort": 9454,
        "total": 2400
      },
      {
        "club_badge_src": "https://fantasy.premierleague.com/gcs/plfpl-production-adobe-approved/plfpl-production/71320/2a61deff-c219-4455-b279-9a0a8e9d822d.png",
        "entry": 71320,
        "entry_name": "JaiMataDi Xi",
        "event_total": 81,
        "has_played": true,
        "id": 463217,
        "last_rank": 19904,
        "player_name": "Kartikey Nayyar",
        "rank": 9453,
        "rank_sort": 9455,
        "total": 2400
      },
      {
        "club_badge_src": "https://fantasy.premierleague.com/gcs/plfpl-production-adobe-approved/plfpl-production/84039/70d3af38-f1a4-430b-8ee6-58d46ed343aa.png",
        "entry": 84039,
        "entry_name": "Can't get any Wirtz",
        "event_total": 56,
        "has_played": true,
        "id": 547058,
        "last_rank": 6061,
        "player_name": "Oliver Muir",
        "rank": 9453,
        "rank_sort": 9456,
        "total": 2400
      },
      {
        "club_badge_src": null,
        "entry": 140257,
        "entry_name": "Wirtz nightmare",
        "event_total": 71,
        "has_played": true,
        "id": 915861,
        "last_rank": 15876,
        "player_name": "James Stevenson",
        "rank": 9453,
        "rank_sort": 9457,
        "total": 2400
      },
      {
        "club_badge_src": "https://fantasy.premierleague.com/gcs/plfpl-production-adobe-approved/plfpl-production/290144/4c8851c2-22c8-4964-be46-189a1b9f202d.png",
        "entry": 290144,
        "entry_name": "Football heritage",
        "event_total": 67,
        "has_played": true,
        "id": 1934490,
        "last_rank": 9644,
        "player_name": "Omar Al ali",
        "rank": 9453,
        "rank_sort": 9458,
        "total": 2400
      },
      {
        "club_badge_src": "https://fantasy.premierleague.com/gcs/plfpl-production-adobe-approved/plfpl-production/298905/ca90b7f6-3e32-42da-b601-adfc7b62e4ed.png",
        "entry": 298905,
        "entry_name": "Falcons Resurgence",
        "event_total": 59,
        "has_played": true,
        "id": 1998719,
        "last_rank": 9775,
        "player_name": "Abdulrahman Nadim",
        "rank": 9453,
        "rank_sort": 9459,
        "total": 2400
      },
      {
        "club_badge_src": null,
        "entry": 362924,
        "entry_name": "MahdiYazdannik",
        "event_total": 64,
        "has_played": true,
        "id": 2428454,
        "last_rank": 10151,
        "player_name": "mahdi yazdannik",
        "rank": 9453,
        "rank_sort": 9460,
        "total": 2400
      },
      {
        "club_badge_src": null,
        "entry": 391092,
        "entry_name": "Team R\u00e6mz",
        "event_total": 71,
        "has_played": true,
        "id": 2623357,
        "last_rank": 11419,
        "player_name": "Remi H\u00e5verstad",
        "rank": 9453,
        "rank_sort": 9461,
        "total": 2400
      },
      {
        "club_badge_src": null,
        "entry": 625996,
        "entry_name": "Wilshawly Nick Title",
        "event_total": 57,
        "has_played": true,
        "id": 4230275,
        "last_rank": 8999,
        "player_name": "Nicholas wilshaw",
        "rank": 9453,
        "rank_sort": 9462,
        "total": 2400
      },
      {
        "club_badge_src": null,
        "entry": 741931,
        "entry_name": "mokipu",
        "event_total": 77,
        "has_played": true,
        "id": 5046354,
        "last_rank": 17078,
        "player_name": "Kacper Wawrzyniak",
        "rank": 9453,
        "rank_sort": 9463,
        "total": 2400
      },
      {
        "club_badge_src": null,
        "entry": 940514,
        "entry_name": "Bruno Dos Tres",
        "event_total": 66,
        "has_played": true,
        "id": 6473915,
        "last_rank": 13033,
        "player_name": "sandeep brar",
        "rank": 9453,
        "rank_sort": 9464,
        "total": 2400
      },
      {
        "club_badge_src": null,
        "entry": 1033662,
        "entry_name": "Middlesbra",
        "event_total": 47,
        "has_played": true,
        "id": 7152676,
        "last_rank": 5845,
        "player_name": "Alexander Bye",
        "rank": 9453,
        "rank_sort": 9465,
        "total": 2400
      },
      {
        "club_badge_src": "https://fantasy.premierleague.com/gcs/plfpl-production-adobe-approved/plfpl-production/2291415/7e441e3d-e84e-4f3b-9bd4-177531a7ccb6.png",
        "entry": 2291415,
        "entry_name": "T\u00e8t Chaje",
        "event_total": 58,
        "has_played": true,
        "id": 16342309,
        "last_rank": 7863,
        "player_name": "Gilles Malval",
        "rank": 9453,
        "rank_sort": 9466,
        "total": 2400
      },
      {
        "club_badge_src": null,
        "entry": 2370330,
        "entry_name": "immortals19",
        "event_total": 52,
        "has_played": true,
        "id": 16920661,
        "last_rank": 6094,
        "player_name": "Prajwal Shankar",
        "rank": 9453,
        "rank_sort": 9467,
        "total": 2400
      },
      {
        "club_badge_src": null,
        "entry": 2580288,
        "entry_name": "Leos Legends FC",
        "event_total": 66,
        "has_played": true,
        "id": 18519921,
        "last_rank": 12995,
        "player_name": "Craig Shaddick",
        "rank": 9453,
        "rank_sort": 9468,
        "total": 2400
      },
      {
        "club_badge_src": "https://fantasy.premierleague.com/gcs/plfpl-production-adobe-approved/plfpl-production/2583303/a8bf6413-475e-448c-bbd0-3d3c1edf075e.png",
        "entry": 2583303,
        "entry_name": "Moumou",
        "event_total": 74,
        "has_played": true,
        "id": 18543172,
        "last_rank": 17802,
        "player_name": "Ahmed Sfaxi",
        "rank": 9453,
        "rank_sort": 9469,
        "total": 2400
      },
      {
        "club_badge_src": null,
        "entry": 2615406,
        "entry_name": "JotaForever",
        "event_total": 64,
        "has_played": true,
        "id": 18791801,
        "last_rank": 11999,
        "player_name": "Hiran Modha",
        "rank": 9453,
        "rank_sort": 9470,
        "total": 2400
      },
      {
        "club_badge_src": null,
        "entry": 3002508,
        "entry_name": "Fromthebunkeron18",
        "event_total": 61,
        "has_played": true,
        "id": 22085009,
        "last_rank": 8977,
        "player_name": "Clark Hunt",
        "rank": 9453,
        "rank_sort": 9471,
        "total": 2400
      },
      {
        "club_badge_src": "https://fantasy.premierleague.com/gcs/plfpl-production-adobe-approved/plfpl-production/3666464/c2bdaf49-c1b5-4444-9f3e-069015631783.png",
        "entry": 3666464,
        "entry_name": "Looked Good on Paper",
        "event_total": 51,
        "has_played": true,
        "id": 27343595,
        "last_rank": 6949,
        "player_name": "Steven Dowe",
        "rank": 9453,
        "rank_sort": 9472,
        "total": 2400
      },
      {
        "club_badge_src": null,
        "entry": 3895857,
        "entry_name": "N5 Ashes",
        "event_total": 65,
        "has_played": true,
        "id": 29279881,
        "last_rank": 10600,
        "player_name": "TahiR RashiD",
        "rank": 9453,
        "rank_sort": 9473,
        "total": 2400
      },
      {
        "club_badge_src": null,
        "entry": 4206507,
        "entry_name": "Jet2 Haalanday",
        "event_total": 59,
        "has_played": true,
        "id": 31845353,
        "last_rank": 9775,
        "player_name": "Rich Holden",
        "rank": 9453,
        "rank_sort": 9474,
        "total": 2400
      },
      {
        "club_badge_src": null,
        "entry": 4698602,
        "entry_name": "Arteta ball \u26bd\ufe0f",
        "event_total": 61,
        "has_played": true,
        "id": 36019074,
        "last_rank": 10629,
        "player_name": "firas khattab",
        "rank": 9453,
        "rank_sort": 9475,
        "total": 2400
      },
      {
        "club_badge_src": null,
        "entry": 5703108,
        "entry_name": "M@nU",
        "event_total": 79,
        "has_played": true,
        "id": 44654204,
        "last_rank": 21301,
        "player_name": "Dimitris Metaxas",
        "rank": 9453,
        "rank_sort": 9476,
        "total": 2400
      },
      {
        "club_badge_src": null,
        "entry": 7893128,
        "entry_name": "AnarchyBJ FC",
        "event_total": 70,
        "has_played": true,
        "id": 64923777,
        "last_rank": 15226,
        "player_name": "Aremu Bolaji",
        "rank": 9453,
        "rank_sort": 9477,
        "total": 2400
      },
      {
        "club_badge_src": null,
        "entry": 8080405,
        "entry_name": "Jen\u2019sGems",
        "event_total": 73,
        "has_played": true,
        "id": 66619033,
        "last_rank": 17150,
        "player_name": "Jenny McDonald",
        "rank": 9453,
        "rank_sort": 9478,
        "total": 2400
      },
      {
        "club_badge_src": null,
        "entry": 9075391,
        "entry_name": "Polka, Peak & Roll",
        "event_total": 58,
        "has_played": true,
        "id": 76210772,
        "last_rank": 7863,
        "player_name": "Pollyanna Lacey",
        "rank": 9453,
        "rank_sort": 9479,
        "total": 2400
      },
      {
        "club_badge_src": "https://fantasy.premierleague.com/gcs/plfpl-production-adobe-approved/plfpl-production/3438/400d5606-70a9-45b6-a7e6-a57dd59fa6e0.png",
        "entry": 3438,
        "entry_name": "Dubai All Stars",
        "event_total": 68,
        "has_played": true,
        "id": 19474,
        "last_rank": 11957,
        "player_name": "Rahul Mohnani",
        "rank": 9480,
        "rank_sort": 9480,
        "total": 2400
      },
      {
        "club_badge_src": null,
        "entry": 7428,
        "entry_name": "Rutter woke nonsense",
        "event_total": 58,
        "has_played": true,
        "id": 42822,
        "last_rank": 5528,
        "player_name": "Daniel Summers",
        "rank": 9480,
        "rank_sort": 9481,
        "total": 2400
      },
      {
        "club_badge_src": null,
        "entry": 7722,
        "entry_name": "\u0635\u0627\u0626\u062f \u0627\u0644\u0623\u0631\u0627\u0646\u0628",
        "event_total": 56,
        "has_played": true,
        "id": 44553,
        "last_rank": 6094,
        "player_name": "\u0639\u0632 \u0627\u0644\u0634\u0647\u0631\u064a",
        "rank": 9480,
        "rank_sort": 9482,
        "total": 2400
      },
      {
        "club_badge_src": "https://fantasy.premierleague.com/gcs/plfpl-production-adobe-approved/plfpl-production/12636/4af6595b-883a-460b-a835-17f2768fe044.png",
        "entry": 12636,
        "entry_name": "\u26bd Wilkinson FC \u26bd",
        "event_total": 67,
        "has_played": true,
        "id": 75874,
        "last_rank": 9751,
        "player_name": "Dan Wilkinson",
        "rank": 9480,
        "rank_sort": 9483,
        "total": 2400
      },
      {
        "club_badge_src": null,
        "entry": 55104,
        "entry_name": "Fergietime",
        "event_total": 58,
        "has_played": true,
        "id": 354645,
        "last_rank": 7891,
        "player_name": "Stein Gule",
        "rank": 9480,
        "rank_sort": 9484,
        "total": 2400
      },
      {
        "club_badge_src": "https://fantasy.premierleague.com/gcs/plfpl-production-adobe-approved/plfpl-production/110431/c7feb069-7e85-4b50-9bf3-6f8653dcbf82.png",
        "entry": 110431,
        "entry_name": "Wireless Rutter",
        "event_total": 52,
        "has_played": true,
        "id": 720209,
        "last_rank": 6106,
        "player_name": "Jai Gopal",
        "rank": 9480,
        "rank_sort": 9485,
        "total": 2400
      },
      {
        "club_badge_src": null,
        "entry": 301469,
        "entry_name": "Fizz FC",
        "event_total": 57,
        "has_played": true,
        "id": 2017009,
        "last_rank": 9015,
        "player_name": "Faisal Tariq",
        "rank": 9480,
        "rank_sort": 9486,
        "total": 2400
      },
      {
        "club_badge_src": null,
        "entry": 457202,
        "entry_name": "Kud Be Good",
        "event_total": 66,
        "has_played": true,
        "id": 3067343,
        "last_rank": 11058,
        "player_name": "John Ives",
        "rank": 9480,
        "rank_sort": 9487,
        "total": 2400
      },
      {
        "club_badge_src": null,
        "entry": 941051,
        "entry_name": "EZ Dubs",
        "event_total": 63,
        "has_played": true,
        "id": 6478554,
        "last_rank": 11536,
        "player_name": "Omar E",
        "rank": 9480,
        "rank_sort": 9488,
        "total": 2400
      },
      {
        "club_badge_src": null,
        "entry": 1049203,
        "entry_name": "Loko",
        "event_total": 72,
        "has_played": true,
        "id": 7261034,
        "last_rank": 16567,
        "player_name": "Sam Turnock",
        "rank": 9480,
        "rank_sort": 9489,
        "total": 2400
      },
      {
        "club_badge_src": null,
        "entry": 1177982,
        "entry_name": "Club Atl\u00e9tico Domez",
        "event_total": 74,
        "has_played": true,
        "id": 8173343,
        "last_rank": 17878,
        "player_name": "Chukwuemeka Metu",
        "rank": 9480,
        "rank_sort": 9490,
        "total": 2400
      },
      {
        "club_badge_src": null,
        "entry": 1194407,
        "entry_name": "FrimPingPong",
        "event_total": 49,
        "has_played": true,
        "id": 8287144,
        "last_rank": 5335,
        "player_name": "Felix Smith",
        "rank": 9480,
        "rank_sort": 9491,
        "total": 2400
      },
      {
        "club_badge_src": "https://fantasy.premierleague.com/gcs/plfpl-production-adobe-approved/plfpl-production/1410245/aa3be017-6f50-4bdf-b941-98ee3cd56c20.png",
        "entry": 1410245,
        "entry_name": "Chortkeh United",
        "event_total": 55,
        "has_played": true,
        "id": 9812886,
        "last_rank": 8274,
        "player_name": "Pouyan Nejadi",
        "rank": 9480,
        "rank_sort": 9492,
        "total": 2400
      },
      {
        "club_badge_src": null,
        "entry": 1445319,
        "entry_name": "RybaPi\u0142a\u26bd",
        "event_total": 57,
        "has_played": true,
        "id": 10071325,
        "last_rank": 7547,
        "player_name": "Jakub Rybi\u0144ski",
        "rank": 9480,
        "rank_sort": 9493,
        "total": 2400
      },
      {
        "club_badge_src": null,
        "entry": 1478910,
        "entry_name": "Bruno dos tres",
        "event_total": 74,
        "has_played": true,
        "id": 10312024,
        "last_rank": 15164,
        "player_name": "Ben Mullan",
        "rank": 9480,
        "rank_sort": 9494,
        "total": 2400
      },
      {
        "club_badge_src": null,
        "entry": 1782281,
        "entry_name": "Yers United",
        "event_total": 59,
        "has_played": true,
        "id": 12522056,
        "last_rank": 9806,
        "player_name": "Yersain Daumov",
        "rank": 9480,
        "rank_sort": 9495,
        "total": 2400
      },
      {
        "club_badge_src": null,
        "entry": 2223906,
        "entry_name": "The Jedi Council",
        "event_total": 62,
        "has_played": true,
        "id": 15840674,
        "last_rank": 11058,
        "player_name": "Liam Harper",
        "rank": 9480,
        "rank_sort": 9496,
        "total": 2400
      },
      {
        "club_badge_src": null,
        "entry": 4640063,
        "entry_name": "KodiangFC",
        "event_total": 64,
        "has_played": true,
        "id": 35487257,
        "last_rank": 10173,
        "player_name": "Hasif Shukrey",
        "rank": 9480,
        "rank_sort": 9497,
        "total": 2400
      },
      {
        "club_badge_src": null,
        "entry": 6951648,
        "entry_name": "victim groceries",
        "event_total": 50,
        "has_played": true,
        "id": 55741835,
        "last_rank": 6637,
        "player_name": "Hal Warner-Clayton",
        "rank": 9480,
        "rank_sort": 9498,
        "total": 2400
      },
      {
        "club_badge_src": null,
        "entry": 7169438,
        "entry_name": "Super Atrito FC",
        "event_total": 62,
        "has_played": true,
        "id": 57847609,
        "last_rank": 11080,
        "player_name": "Paulo Zacarias",
        "rank": 9480,
        "rank_sort": 9499,
        "total": 2400
      },
      {
        "club_badge_src": "https://fantasy.premierleague.com/gcs/plfpl-production-adobe-approved/plfpl-production/9442268/dd17e74f-b575-41fd-9d99-7e754030d8ea.png",
        "entry": 9442268,
        "entry_name": "ELSAYAD",
        "event_total": 57,
        "has_played": true,
        "id": 79776604,
        "last_rank": 7547,
        "player_name": "AHMED ELSAYAD",
        "rank": 9480,
        "rank_sort": 9500,
        "total": 2400
      }
    ]
  }
}