{
  "last_updated_data": "2026-05-24T23:28:17Z",
  "league": {
    "admin_entry": null,
    "closed": false,
    "code_privacy": "p",
    "created": "2025-07-20T23:14:33.933835Z",
    "cup_league": 2815434,
    "has_cup": true,
    "id": 314,
    "league_type": "s",
    "max_entries": null,
    "name": "Overall",
    "rank": null,
    "scoring": "c",
    "start_event": 1
  },
  "new_entries": {
    "has_next": false,
    "page": 1,
    "results": []
  },
  "standings": {
    "has_next": true,
    "page": 141,
    "results": [
      {
        "club_badge_src": null,
        "entry": 4730603,
        "entry_name": "Reece's Set Pieces",
        "event_total": 63,
        "has_played": true,
        "id": 36385457,
        "last_rank": 8339,
        "player_name": "Keval Shah",
        "rank": 6956,
        "rank_sort": 7001,
        "total": 2407
      },
      {
        "club_badge_src": null,
        "entry": 4862327,
        "entry_name": "Malissante",
        "event_total": 69,
        "has_played": true,
        "id": 37471569,
        "last_rank": 10805,
        "player_name": "Mohd Ikmal Razali",
        "rank": 6956,
        "rank_sort": 7002,
        "total": 2407
      },
      {
        "club_badge_src": null,
        "entry": 4947287,
        "entry_name": "VAR VAR VAR",
        "event_total": 56,
        "has_played": true,
        "id": 38173345,
        "last_rank": 6194,
        "player_name": "Mr K",
        "rank": 6956,
        "rank_sort": 7003,
        "total": 2407
      },
      {
        "club_badge_src": null,
        "entry": 5076134,
        "entry_name": "Slanted & Enchanted",
        "event_total": 60,
        "has_played": true,
        "id": 39230762,
        "last_rank": 7375,
        "player_name": "Gregor Urquhart",
        "rank": 6956,
        "rank_sort": 7004,
        "total": 2407
      },
      {
        "club_badge_src": null,
        "entry": 5289371,
        "entry_name": "VVZA",
        "event_total": 76,
        "has_played": true,
        "id": 40999763,
        "last_rank": 14251,
        "player_name": "Vincent FPL",
        "rank": 6956,
        "rank_sort": 7005,
        "total": 2407
      },
      {
        "club_badge_src": null,
        "entry": 5485158,
        "entry_name": "NookNookFC",
        "event_total": 67,
        "has_played": true,
        "id": 42712824,
        "last_rank": 10031,
        "player_name": "Pattadon Pholvicha",
        "rank": 6956,
        "rank_sort": 7006,
        "total": 2407
      },
      {
        "club_badge_src": null,
        "entry": 5996397,
        "entry_name": "Bilbao Baggins",
        "event_total": 46,
        "has_played": true,
        "id": 47262843,
        "last_rank": 3902,
        "player_name": "Luke Pitt Ryan",
        "rank": 6956,
        "rank_sort": 7007,
        "total": 2407
      },
      {
        "club_badge_src": null,
        "entry": 6327311,
        "entry_name": "wrolls boys",
        "event_total": 42,
        "has_played": true,
        "id": 50271256,
        "last_rank": 3257,
        "player_name": "Henrik Wroll-Evensen",
        "rank": 6956,
        "rank_sort": 7008,
        "total": 2407
      },
      {
        "club_badge_src": null,
        "entry": 7033337,
        "entry_name": "Banana FC",
        "event_total": 76,
        "has_played": true,
        "id": 56530598,
        "last_rank": 14292,
        "player_name": "Aidan Forde",
        "rank": 6956,
        "rank_sort": 7009,
        "total": 2407
      },
      {
        "club_badge_src": null,
        "entry": 7116983,
        "entry_name": "E_C FC",
        "event_total": 51,
        "has_played": true,
        "id": 57338106,
        "last_rank": 4099,
        "player_name": "Chukwu Emeka",
        "rank": 6956,
        "rank_sort": 7010,
        "total": 2407
      },
      {
        "club_badge_src": null,
        "entry": 7865352,
        "entry_name": "Cio\u2122",
        "event_total": 65,
        "has_played": true,
        "id": 64671749,
        "last_rank": 7676,
        "player_name": "A M",
        "rank": 6956,
        "rank_sort": 7011,
        "total": 2407
      },
      {
        "club_badge_src": null,
        "entry": 8501431,
        "entry_name": "Just___ismael",
        "event_total": 61,
        "has_played": true,
        "id": 70651557,
        "last_rank": 7625,
        "player_name": "ismaeil Ali",
        "rank": 6956,
        "rank_sort": 7012,
        "total": 2407
      },
      {
        "club_badge_src": null,
        "entry": 8531938,
        "entry_name": "Just ___ismael",
        "event_total": 61,
        "has_played": true,
        "id": 70945593,
        "last_rank": 7625,
        "player_name": "ismael ali",
        "rank": 6956,
        "rank_sort": 7013,
        "total": 2407
      },
      {
        "club_badge_src": null,
        "entry": 9033750,
        "entry_name": "Ruben AmorTing",
        "event_total": 64,
        "has_played": true,
        "id": 75806193,
        "last_rank": 8758,
        "player_name": "Neil Tingey",
        "rank": 6956,
        "rank_sort": 7014,
        "total": 2407
      },
      {
        "club_badge_src": "https://fantasy.premierleague.com/gcs/plfpl-production-adobe-approved/plfpl-production/5689/3d654e88-06af-4149-a663-993c6953e289.png",
        "entry": 5689,
        "entry_name": "t1ckeTheGreatest",
        "event_total": 62,
        "has_played": true,
        "id": 32462,
        "last_rank": 8198,
        "player_name": "Luka Stefanovic",
        "rank": 7015,
        "rank_sort": 7015,
        "total": 2407
      },
      {
        "club_badge_src": null,
        "entry": 9234,
        "entry_name": "Superguttene",
        "event_total": 68,
        "has_played": true,
        "id": 54202,
        "last_rank": 10462,
        "player_name": "Tor-J\u00f8rgen Tiber-Olsen",
        "rank": 7015,
        "rank_sort": 7016,
        "total": 2407
      },
      {
        "club_badge_src": "https://fantasy.premierleague.com/gcs/plfpl-production-adobe-approved/plfpl-production/18480/3a32547c-6685-4cae-9d11-e0eff4342db4.png",
        "entry": 18480,
        "entry_name": "Could be Wirtz",
        "event_total": 69,
        "has_played": true,
        "id": 114966,
        "last_rank": 7676,
        "player_name": "Martin Field",
        "rank": 7015,
        "rank_sort": 7017,
        "total": 2407
      },
      {
        "club_badge_src": null,
        "entry": 57294,
        "entry_name": "EVERTONION",
        "event_total": 64,
        "has_played": true,
        "id": 369093,
        "last_rank": 8854,
        "player_name": "\u00d8ystein Winsnes",
        "rank": 7015,
        "rank_sort": 7018,
        "total": 2407
      },
      {
        "club_badge_src": "https://fantasy.premierleague.com/gcs/plfpl-production-adobe-approved/plfpl-production/80242/786313ef-0b4e-4654-8069-a50651847e0a.png",
        "entry": 80242,
        "entry_name": "RUMAISA COOL",
        "event_total": 66,
        "has_played": true,
        "id": 522103,
        "last_rank": 8032,
        "player_name": "RUMAISA My girl",
        "rank": 7015,
        "rank_sort": 7019,
        "total": 2407
      },
      {
        "club_badge_src": null,
        "entry": 84310,
        "entry_name": "Gods Amongst Men",
        "event_total": 65,
        "has_played": true,
        "id": 548922,
        "last_rank": 9311,
        "player_name": "Christian Edwards",
        "rank": 7015,
        "rank_sort": 7020,
        "total": 2407
      },
      {
        "club_badge_src": null,
        "entry": 103159,
        "entry_name": "Parking Bus",
        "event_total": 63,
        "has_played": true,
        "id": 673161,
        "last_rank": 8552,
        "player_name": "The Clueless One",
        "rank": 7015,
        "rank_sort": 7021,
        "total": 2407
      },
      {
        "club_badge_src": null,
        "entry": 166389,
        "entry_name": "SuDoku",
        "event_total": 58,
        "has_played": true,
        "id": 1099282,
        "last_rank": 4742,
        "player_name": "Fabian Wahlstr\u00f6m",
        "rank": 7015,
        "rank_sort": 7022,
        "total": 2407
      },
      {
        "club_badge_src": null,
        "entry": 198346,
        "entry_name": "Eze go Eze come",
        "event_total": 82,
        "has_played": true,
        "id": 1316252,
        "last_rank": 18113,
        "player_name": "Endre Nordheim Viken",
        "rank": 7015,
        "rank_sort": 7023,
        "total": 2407
      },
      {
        "club_badge_src": "https://fantasy.premierleague.com/gcs/plfpl-production-adobe-approved/plfpl-production/268744/692014a3-bd65-4cde-8b3c-596ca2cfbfd9.png",
        "entry": 268744,
        "entry_name": "Ao Tanaka All-Stars",
        "event_total": 58,
        "has_played": true,
        "id": 1787835,
        "last_rank": 5752,
        "player_name": "Matthew Evers",
        "rank": 7015,
        "rank_sort": 7024,
        "total": 2407
      },
      {
        "club_badge_src": null,
        "entry": 308268,
        "entry_name": "Zohdy FC",
        "event_total": 59,
        "has_played": true,
        "id": 2064791,
        "last_rank": 6011,
        "player_name": "Peter Patrick Zohdy",
        "rank": 7015,
        "rank_sort": 7025,
        "total": 2407
      },
      {
        "club_badge_src": null,
        "entry": 339421,
        "entry_name": "Aue Hammers",
        "event_total": 66,
        "has_played": true,
        "id": 2272187,
        "last_rank": 9711,
        "player_name": "Eric Dubiel",
        "rank": 7015,
        "rank_sort": 7026,
        "total": 2407
      },
      {
        "club_badge_src": null,
        "entry": 367965,
        "entry_name": "Zumbali",
        "event_total": 60,
        "has_played": true,
        "id": 2462466,
        "last_rank": 7450,
        "player_name": "Niclas Danielson",
        "rank": 7015,
        "rank_sort": 7027,
        "total": 2407
      },
      {
        "club_badge_src": null,
        "entry": 392222,
        "entry_name": "Pro Evolution Saka",
        "event_total": 48,
        "has_played": true,
        "id": 2630698,
        "last_rank": 4394,
        "player_name": "Matthew Stockwell",
        "rank": 7015,
        "rank_sort": 7028,
        "total": 2407
      },
      {
        "club_badge_src": "https://fantasy.premierleague.com/gcs/plfpl-production-adobe-approved/plfpl-production/407758/19ba5a02-05c6-4ed1-b848-38c429c2abc2.png",
        "entry": 407758,
        "entry_name": "CHI\u1ebeN TH\u1ea6N B\u1ea4T B\u1ea0I",
        "event_total": 53,
        "has_played": true,
        "id": 2734429,
        "last_rank": 5528,
        "player_name": "PH\u00c1T TH\u00c0NH \u0110\u1ea0T",
        "rank": 7015,
        "rank_sort": 7029,
        "total": 2407
      },
      {
        "club_badge_src": null,
        "entry": 446829,
        "entry_name": "TeamKiko",
        "event_total": 67,
        "has_played": true,
        "id": 2997103,
        "last_rank": 10031,
        "player_name": "Francesco Medugno",
        "rank": 7015,
        "rank_sort": 7030,
        "total": 2407
      },
      {
        "club_badge_src": null,
        "entry": 716845,
        "entry_name": "Wexford Warriors",
        "event_total": 58,
        "has_played": true,
        "id": 4863908,
        "last_rank": 6839,
        "player_name": "Seamus Conway",
        "rank": 7015,
        "rank_sort": 7031,
        "total": 2407
      },
      {
        "club_badge_src": "https://fantasy.premierleague.com/gcs/plfpl-production-adobe-approved/plfpl-production/1009536/ed311693-7da5-4271-b7ec-cdb722649786.png",
        "entry": 1009536,
        "entry_name": "tired 11",
        "event_total": 60,
        "has_played": true,
        "id": 6980102,
        "last_rank": 7501,
        "player_name": "igor suljuzovic",
        "rank": 7015,
        "rank_sort": 7032,
        "total": 2407
      },
      {
        "club_badge_src": null,
        "entry": 1013121,
        "entry_name": "Sancho's Work Ethic",
        "event_total": 60,
        "has_played": true,
        "id": 7008473,
        "last_rank": 7450,
        "player_name": "Arun Blaggan",
        "rank": 7015,
        "rank_sort": 7033,
        "total": 2407
      },
      {
        "club_badge_src": null,
        "entry": 1118943,
        "entry_name": "TungTungTungSahur\ufffd",
        "event_total": 67,
        "has_played": true,
        "id": 7750657,
        "last_rank": 10102,
        "player_name": "wuttichai saowachacrit",
        "rank": 7015,
        "rank_sort": 7034,
        "total": 2407
      },
      {
        "club_badge_src": null,
        "entry": 1265266,
        "entry_name": "Pamkim",
        "event_total": 52,
        "has_played": true,
        "id": 8791202,
        "last_rank": 4358,
        "player_name": "Pamella Kimenyi",
        "rank": 7015,
        "rank_sort": 7035,
        "total": 2407
      },
      {
        "club_badge_src": null,
        "entry": 1473374,
        "entry_name": "Yoro Wizard Harry",
        "event_total": 57,
        "has_played": true,
        "id": 10270333,
        "last_rank": 4488,
        "player_name": "Oliver Kertes",
        "rank": 7015,
        "rank_sort": 7036,
        "total": 2407
      },
      {
        "club_badge_src": null,
        "entry": 2030936,
        "entry_name": "Next Please",
        "event_total": 67,
        "has_played": true,
        "id": 14378253,
        "last_rank": 7059,
        "player_name": "Dean Ebejer",
        "rank": 7015,
        "rank_sort": 7037,
        "total": 2407
      },
      {
        "club_badge_src": null,
        "entry": 2157794,
        "entry_name": "BullsEye19",
        "event_total": 68,
        "has_played": true,
        "id": 15338892,
        "last_rank": 10346,
        "player_name": "Asheba Kezo",
        "rank": 7015,
        "rank_sort": 7038,
        "total": 2407
      },
      {
        "club_badge_src": null,
        "entry": 2228048,
        "entry_name": "FadeToBlack",
        "event_total": 62,
        "has_played": true,
        "id": 15871581,
        "last_rank": 8198,
        "player_name": "Sushant Khatiwoda",
        "rank": 7015,
        "rank_sort": 7039,
        "total": 2407
      },
      {
        "club_badge_src": null,
        "entry": 2524541,
        "entry_name": "Sam_Jo",
        "event_total": 56,
        "has_played": true,
        "id": 18089592,
        "last_rank": 6305,
        "player_name": "Kevon Samuel",
        "rank": 7015,
        "rank_sort": 7040,
        "total": 2407
      },
      {
        "club_badge_src": null,
        "entry": 2534364,
        "entry_name": "Kinder Mbeumo",
        "event_total": 51,
        "has_played": true,
        "id": 18161996,
        "last_rank": 3408,
        "player_name": "Lewis Elsender",
        "rank": 7015,
        "rank_sort": 7041,
        "total": 2407
      },
      {
        "club_badge_src": null,
        "entry": 3308558,
        "entry_name": "Mos\u00e9 Jourinho",
        "event_total": 63,
        "has_played": true,
        "id": 24510660,
        "last_rank": 8552,
        "player_name": "Jake Mitchell",
        "rank": 7015,
        "rank_sort": 7042,
        "total": 2407
      },
      {
        "club_badge_src": null,
        "entry": 3442879,
        "entry_name": "H",
        "event_total": 63,
        "has_played": true,
        "id": 25579232,
        "last_rank": 8552,
        "player_name": "Jack Hainsworth",
        "rank": 7015,
        "rank_sort": 7043,
        "total": 2407
      },
      {
        "club_badge_src": null,
        "entry": 3581814,
        "entry_name": "Stokes XI",
        "event_total": 61,
        "has_played": true,
        "id": 26673303,
        "last_rank": 7822,
        "player_name": "Brad Stokes",
        "rank": 7015,
        "rank_sort": 7044,
        "total": 2407
      },
      {
        "club_badge_src": null,
        "entry": 4868057,
        "entry_name": "Haffellandia",
        "event_total": 57,
        "has_played": true,
        "id": 37521003,
        "last_rank": 6579,
        "player_name": "Krzysztof Rokita",
        "rank": 7015,
        "rank_sort": 7045,
        "total": 2407
      },
      {
        "club_badge_src": "https://fantasy.premierleague.com/gcs/plfpl-production-adobe-approved/plfpl-production/5101006/5f790364-e038-429a-8483-0500434f4d86.png",
        "entry": 5101006,
        "entry_name": "Tunechi Nedu",
        "event_total": 70,
        "has_played": true,
        "id": 39427912,
        "last_rank": 11419,
        "player_name": "Chinedu Ebirim",
        "rank": 7015,
        "rank_sort": 7046,
        "total": 2407
      },
      {
        "club_badge_src": null,
        "entry": 5173549,
        "entry_name": "The Baysti Boyz",
        "event_total": 53,
        "has_played": true,
        "id": 40042254,
        "last_rank": 5498,
        "player_name": "Syeed Ali Ismail",
        "rank": 7015,
        "rank_sort": 7047,
        "total": 2407
      },
      {
        "club_badge_src": null,
        "entry": 6449368,
        "entry_name": "Give me the Man\u00e9",
        "event_total": 43,
        "has_played": true,
        "id": 51357095,
        "last_rank": 3462,
        "player_name": "Dani Mikael",
        "rank": 7015,
        "rank_sort": 7048,
        "total": 2407
      },
      {
        "club_badge_src": "https://fantasy.premierleague.com/gcs/plfpl-production-adobe-approved/plfpl-production/7172969/3d58069f-6ead-433c-bcad-b7cab6d5ce1e.png",
        "entry": 7172969,
        "entry_name": "Kaalay Iska Arag \ufffd",
        "event_total": 67,
        "has_played": true,
        "id": 57880619,
        "last_rank": 10031,
        "player_name": "Madar Abdi",
        "rank": 7015,
        "rank_sort": 7049,
        "total": 2407
      },
      {
        "club_badge_src": null,
        "entry": 7359191,
        "entry_name": "Optimalisert",
        "event_total": 70,
        "has_played": true,
        "id": 59634585,
        "last_rank": 11345,
        "player_name": "Geir Magnus Wehus",
        "rank": 7015,
        "rank_sort": 7050,
        "total": 2407
      }
    ]
  }
}