{
  "last_updated_data": "2026-05-24T23:28:17Z",
  "league": {
    "admin_entry": null,
    "closed": false,
    "code_privacy": "p",
    "created": "2025-07-20T23:14:33.933835Z",
    "cup_league": 2815434,
    "has_cup": true,
    "id": 314,
    "league_type": "s",
    "max_entries": null,
    "name": "Overall",
    "rank": null,
    "scoring": "c",
    "start_event": 1
  },
  "new_entries": {
    "has_next": false,
    "page": 1,
    "results": []
  },
  "standings": {
    "has_next": true,
    "page": 1263,
    "results": [
      {
        "club_badge_src": null,
        "entry": 73342,
        "entry_name": "Zubi Zubi Doo",
        "event_total": 66,
        "has_played": true,
        "id": 476724,
        "last_rank": 82069,
        "player_name": "Jeffrey Wilson",
        "rank": 63076,
        "rank_sort": 63101,
        "total": 2344
      },
      {
        "club_badge_src": null,
        "entry": 74320,
        "entry_name": "Amad A Mount",
        "event_total": 74,
        "has_played": true,
        "id": 483070,
        "last_rank": 101818,
        "player_name": "Sean Finn",
        "rank": 63076,
        "rank_sort": 63102,
        "total": 2344
      },
      {
        "club_badge_src": null,
        "entry": 78309,
        "entry_name": "isak at fpl",
        "event_total": 52,
        "has_played": true,
        "id": 509171,
        "last_rank": 48363,
        "player_name": "Sam Fletcher",
        "rank": 63076,
        "rank_sort": 63103,
        "total": 2344
      },
      {
        "club_badge_src": null,
        "entry": 79906,
        "entry_name": "Real Ralpho",
        "event_total": 67,
        "has_played": true,
        "id": 519867,
        "last_rank": 67063,
        "player_name": "Richard Page",
        "rank": 63076,
        "rank_sort": 63104,
        "total": 2344
      },
      {
        "club_badge_src": null,
        "entry": 92444,
        "entry_name": "Cater FC",
        "event_total": 63,
        "has_played": true,
        "id": 604098,
        "last_rank": 75874,
        "player_name": "Oratile Sebina",
        "rank": 63076,
        "rank_sort": 63105,
        "total": 2344
      },
      {
        "club_badge_src": "https://fantasy.premierleague.com/gcs/plfpl-production-adobe-approved/plfpl-production/97127/22e5a31f-b932-4ee8-9808-058c5972a5d6.png",
        "entry": 97127,
        "entry_name": "Swift Exit",
        "event_total": 67,
        "has_played": true,
        "id": 634401,
        "last_rank": 83934,
        "player_name": "liam king",
        "rank": 63076,
        "rank_sort": 63106,
        "total": 2344
      },
      {
        "club_badge_src": null,
        "entry": 99070,
        "entry_name": "Batam LFC",
        "event_total": 55,
        "has_played": true,
        "id": 646778,
        "last_rank": 53345,
        "player_name": "Batam Fantasy",
        "rank": 63076,
        "rank_sort": 63107,
        "total": 2344
      },
      {
        "club_badge_src": null,
        "entry": 108130,
        "entry_name": "DutyFreeTabs",
        "event_total": 65,
        "has_played": true,
        "id": 704989,
        "last_rank": 70757,
        "player_name": "Craig Wilson",
        "rank": 63076,
        "rank_sort": 63108,
        "total": 2344
      },
      {
        "club_badge_src": null,
        "entry": 111640,
        "entry_name": "Stefan",
        "event_total": 52,
        "has_played": true,
        "id": 727938,
        "last_rank": 55014,
        "player_name": "Stefan Embretsen",
        "rank": 63076,
        "rank_sort": 63109,
        "total": 2344
      },
      {
        "club_badge_src": null,
        "entry": 123672,
        "entry_name": "Vrane",
        "event_total": 50,
        "has_played": true,
        "id": 806638,
        "last_rank": 45714,
        "player_name": "Ivan Vrani\u0107",
        "rank": 63076,
        "rank_sort": 63110,
        "total": 2344
      },
      {
        "club_badge_src": null,
        "entry": 123914,
        "entry_name": "Jos\u00e9 Boshingwa",
        "event_total": 58,
        "has_played": true,
        "id": 808193,
        "last_rank": 65796,
        "player_name": "Liam Office",
        "rank": 63076,
        "rank_sort": 63111,
        "total": 2344
      },
      {
        "club_badge_src": null,
        "entry": 125629,
        "entry_name": "Delap of Honour",
        "event_total": 67,
        "has_played": true,
        "id": 819314,
        "last_rank": 84731,
        "player_name": "Vamsi Akinepally",
        "rank": 63076,
        "rank_sort": 63112,
        "total": 2344
      },
      {
        "club_badge_src": null,
        "entry": 128152,
        "entry_name": "Man Utd(Red)",
        "event_total": 64,
        "has_played": true,
        "id": 835320,
        "last_rank": 77676,
        "player_name": "Ken Lau",
        "rank": 63076,
        "rank_sort": 63113,
        "total": 2344
      },
      {
        "club_badge_src": "https://fantasy.premierleague.com/gcs/plfpl-production-adobe-approved/plfpl-production/138979/cbd0c36e-ac57-464c-8325-b187c78574d7.png",
        "entry": 138979,
        "entry_name": "Aejp '05",
        "event_total": 47,
        "has_played": true,
        "id": 906883,
        "last_rank": 47163,
        "player_name": "Antti Puttonen",
        "rank": 63076,
        "rank_sort": 63114,
        "total": 2344
      },
      {
        "club_badge_src": "https://fantasy.premierleague.com/gcs/plfpl-production-adobe-approved/plfpl-production/146539/ff900e8a-d707-461b-8941-70ec8e5fa878.png",
        "entry": 146539,
        "entry_name": "EkitikeTaka",
        "event_total": 54,
        "has_played": true,
        "id": 960111,
        "last_rank": 58388,
        "player_name": "Max Heger",
        "rank": 63076,
        "rank_sort": 63115,
        "total": 2344
      },
      {
        "club_badge_src": "https://fantasy.premierleague.com/gcs/plfpl-production-adobe-approved/plfpl-production/197355/4754e9f2-d82a-4955-ab36-64e4242f1b77.png",
        "entry": 197355,
        "entry_name": "Son of a Pint",
        "event_total": 59,
        "has_played": true,
        "id": 1309434,
        "last_rank": 60168,
        "player_name": "Tom Moriarty",
        "rank": 63076,
        "rank_sort": 63116,
        "total": 2344
      },
      {
        "club_badge_src": null,
        "entry": 199586,
        "entry_name": "Strand and Deliver",
        "event_total": 60,
        "has_played": true,
        "id": 1324633,
        "last_rank": 69907,
        "player_name": "Connor Brown",
        "rank": 63076,
        "rank_sort": 63117,
        "total": 2344
      },
      {
        "club_badge_src": null,
        "entry": 211789,
        "entry_name": "Willsarreal",
        "event_total": 68,
        "has_played": true,
        "id": 1408735,
        "last_rank": 86735,
        "player_name": "Rob Williams",
        "rank": 63076,
        "rank_sort": 63118,
        "total": 2344
      },
      {
        "club_badge_src": "https://fantasy.premierleague.com/gcs/plfpl-production-adobe-approved/plfpl-production/214689/3fc45f50-8159-4bf5-baf6-7e82959b41f6.png",
        "entry": 214689,
        "entry_name": "Tea & Busquets",
        "event_total": 70,
        "has_played": true,
        "id": 1428118,
        "last_rank": 81646,
        "player_name": "Kyle Henderson",
        "rank": 63076,
        "rank_sort": 63119,
        "total": 2344
      },
      {
        "club_badge_src": "https://fantasy.premierleague.com/gcs/plfpl-production-adobe-approved/plfpl-production/215924/a4d0a9b9-02e9-4603-83b3-594d8a5fca86.png",
        "entry": 215924,
        "entry_name": "Oblak Sabbath",
        "event_total": 68,
        "has_played": true,
        "id": 1436057,
        "last_rank": 86735,
        "player_name": "Chris Lumbard",
        "rank": 63076,
        "rank_sort": 63120,
        "total": 2344
      },
      {
        "club_badge_src": null,
        "entry": 231613,
        "entry_name": "Louis FC",
        "event_total": 68,
        "has_played": true,
        "id": 1540936,
        "last_rank": 87074,
        "player_name": "Louis Mccann",
        "rank": 63076,
        "rank_sort": 63121,
        "total": 2344
      },
      {
        "club_badge_src": null,
        "entry": 245403,
        "entry_name": "Man Chest Hair Utd",
        "event_total": 66,
        "has_played": true,
        "id": 1633870,
        "last_rank": 82398,
        "player_name": "Debbie Rossiter",
        "rank": 63076,
        "rank_sort": 63122,
        "total": 2344
      },
      {
        "club_badge_src": null,
        "entry": 260330,
        "entry_name": "Game of Tyrones",
        "event_total": 59,
        "has_played": true,
        "id": 1730667,
        "last_rank": 59813,
        "player_name": "Matthew Smitheman",
        "rank": 63076,
        "rank_sort": 63123,
        "total": 2344
      },
      {
        "club_badge_src": "https://fantasy.premierleague.com/gcs/plfpl-production-adobe-approved/plfpl-production/269197/1da0fcc5-2730-4f39-a129-de55641dfd0f.png",
        "entry": 269197,
        "entry_name": "Labubu FC",
        "event_total": 53,
        "has_played": true,
        "id": 1790856,
        "last_rank": 57001,
        "player_name": "Abdul Hakim",
        "rank": 63076,
        "rank_sort": 63124,
        "total": 2344
      },
      {
        "club_badge_src": "https://fantasy.premierleague.com/gcs/plfpl-production-adobe-approved/plfpl-production/277257/1dbb1909-d72d-466c-b251-3e66329051e6.png",
        "entry": 277257,
        "entry_name": "Cannons Ablaze",
        "event_total": 65,
        "has_played": true,
        "id": 1845438,
        "last_rank": 80194,
        "player_name": "Gaurav Sondhi",
        "rank": 63076,
        "rank_sort": 63125,
        "total": 2344
      },
      {
        "club_badge_src": null,
        "entry": 280230,
        "entry_name": "Shrews on toure",
        "event_total": 61,
        "has_played": true,
        "id": 1864947,
        "last_rank": 71713,
        "player_name": "James Gordon",
        "rank": 63076,
        "rank_sort": 63126,
        "total": 2344
      },
      {
        "club_badge_src": null,
        "entry": 285806,
        "entry_name": "Sesko Clubcard",
        "event_total": 70,
        "has_played": true,
        "id": 1903834,
        "last_rank": 91466,
        "player_name": "Tom Pullan",
        "rank": 63076,
        "rank_sort": 63127,
        "total": 2344
      },
      {
        "club_badge_src": null,
        "entry": 293692,
        "entry_name": "Slaw",
        "event_total": 55,
        "has_played": true,
        "id": 1960602,
        "last_rank": 60462,
        "player_name": "S\u0142awek Cichy",
        "rank": 63076,
        "rank_sort": 63128,
        "total": 2344
      },
      {
        "club_badge_src": null,
        "entry": 297550,
        "entry_name": "Lumbago FC",
        "event_total": 65,
        "has_played": true,
        "id": 1988829,
        "last_rank": 79817,
        "player_name": "cameron maclennan",
        "rank": 63076,
        "rank_sort": 63129,
        "total": 2344
      },
      {
        "club_badge_src": null,
        "entry": 318026,
        "entry_name": "Haaland Globetroters",
        "event_total": 53,
        "has_played": true,
        "id": 2131781,
        "last_rank": 50199,
        "player_name": "David Luffman",
        "rank": 63076,
        "rank_sort": 63130,
        "total": 2344
      },
      {
        "club_badge_src": null,
        "entry": 336525,
        "entry_name": "Kinder Mbeumo",
        "event_total": 71,
        "has_played": true,
        "id": 2253045,
        "last_rank": 83934,
        "player_name": "Jamie Cave",
        "rank": 63076,
        "rank_sort": 63131,
        "total": 2344
      },
      {
        "club_badge_src": "https://fantasy.premierleague.com/gcs/plfpl-production-adobe-approved/plfpl-production/364919/cbc54a38-db1a-4aaf-ba7e-a50b3852d5fa.png",
        "entry": 364919,
        "entry_name": "Elhandasa come back",
        "event_total": 55,
        "has_played": true,
        "id": 2442199,
        "last_rank": 60462,
        "player_name": "Mohamed Elsebaay",
        "rank": 63076,
        "rank_sort": 63132,
        "total": 2344
      },
      {
        "club_badge_src": null,
        "entry": 373255,
        "entry_name": "F1xaa",
        "event_total": 55,
        "has_played": true,
        "id": 2497293,
        "last_rank": 60168,
        "player_name": "Filip Talevski",
        "rank": 63076,
        "rank_sort": 63133,
        "total": 2344
      },
      {
        "club_badge_src": null,
        "entry": 399121,
        "entry_name": "HaCunha Matata",
        "event_total": 75,
        "has_played": true,
        "id": 2676398,
        "last_rank": 103526,
        "player_name": "James Staff",
        "rank": 63076,
        "rank_sort": 63134,
        "total": 2344
      },
      {
        "club_badge_src": "https://fantasy.premierleague.com/gcs/plfpl-production-adobe-approved/plfpl-production/412312/b9b544f0-39b1-4541-bc00-5033f9268a7f.png",
        "entry": 412312,
        "entry_name": "Muggy 11",
        "event_total": 64,
        "has_played": true,
        "id": 2764466,
        "last_rank": 78244,
        "player_name": "Lewis Russell",
        "rank": 63076,
        "rank_sort": 63135,
        "total": 2344
      },
      {
        "club_badge_src": null,
        "entry": 446034,
        "entry_name": "Flanchester",
        "event_total": 84,
        "has_played": true,
        "id": 2991557,
        "last_rank": 130957,
        "player_name": "Dara Flanagan",
        "rank": 63076,
        "rank_sort": 63136,
        "total": 2344
      },
      {
        "club_badge_src": null,
        "entry": 458363,
        "entry_name": "Eak",
        "event_total": 67,
        "has_played": true,
        "id": 3074934,
        "last_rank": 84731,
        "player_name": "Nuttphol Vitejonjaran",
        "rank": 63076,
        "rank_sort": 63137,
        "total": 2344
      },
      {
        "club_badge_src": null,
        "entry": 463519,
        "entry_name": "Giroud Awakening",
        "event_total": 65,
        "has_played": true,
        "id": 3109144,
        "last_rank": 79817,
        "player_name": "Keyaan Nair",
        "rank": 63076,
        "rank_sort": 63138,
        "total": 2344
      },
      {
        "club_badge_src": null,
        "entry": 472182,
        "entry_name": "Norfolk-n-Chance",
        "event_total": 65,
        "has_played": true,
        "id": 3170212,
        "last_rank": 80194,
        "player_name": "Sam Hursey",
        "rank": 63076,
        "rank_sort": 63139,
        "total": 2344
      },
      {
        "club_badge_src": null,
        "entry": 500397,
        "entry_name": "Willian Bestevao",
        "event_total": 70,
        "has_played": true,
        "id": 3358277,
        "last_rank": 91466,
        "player_name": "Kieran Harris",
        "rank": 63076,
        "rank_sort": 63140,
        "total": 2344
      },
      {
        "club_badge_src": null,
        "entry": 533405,
        "entry_name": "Your Wirtz Nightmare",
        "event_total": 52,
        "has_played": true,
        "id": 3589033,
        "last_rank": 55311,
        "player_name": "Mike Taws",
        "rank": 63076,
        "rank_sort": 63141,
        "total": 2344
      },
      {
        "club_badge_src": null,
        "entry": 571209,
        "entry_name": "Salah Is Washed",
        "event_total": 57,
        "has_played": true,
        "id": 3844300,
        "last_rank": 64005,
        "player_name": "Harry Vinall-Smeeth",
        "rank": 63076,
        "rank_sort": 63142,
        "total": 2344
      },
      {
        "club_badge_src": null,
        "entry": 574319,
        "entry_name": "Abysmal F.C",
        "event_total": 66,
        "has_played": true,
        "id": 3864931,
        "last_rank": 65163,
        "player_name": "Mikey Afonughe",
        "rank": 63076,
        "rank_sort": 63143,
        "total": 2344
      },
      {
        "club_badge_src": "https://fantasy.premierleague.com/gcs/plfpl-production-adobe-approved/plfpl-production/596006/e1b6004f-da7c-4041-a362-3fdefb565061.png",
        "entry": 596006,
        "entry_name": "VAR & Peace",
        "event_total": 52,
        "has_played": true,
        "id": 4018260,
        "last_rank": 48642,
        "player_name": "Waleed Paracha",
        "rank": 63076,
        "rank_sort": 63144,
        "total": 2344
      },
      {
        "club_badge_src": null,
        "entry": 601868,
        "entry_name": "Maxis Marvels",
        "event_total": 47,
        "has_played": true,
        "id": 4061455,
        "last_rank": 47417,
        "player_name": "Max Hunter",
        "rank": 63076,
        "rank_sort": 63145,
        "total": 2344
      },
      {
        "club_badge_src": null,
        "entry": 613904,
        "entry_name": "I Ate All The Depays",
        "event_total": 63,
        "has_played": true,
        "id": 4148191,
        "last_rank": 67422,
        "player_name": "Charlie Agg",
        "rank": 63076,
        "rank_sort": 63146,
        "total": 2344
      },
      {
        "club_badge_src": null,
        "entry": 646815,
        "entry_name": "Unothewayurthinkin",
        "event_total": 51,
        "has_played": true,
        "id": 4371174,
        "last_rank": 53621,
        "player_name": "Matthew Farrell",
        "rank": 63076,
        "rank_sort": 63147,
        "total": 2344
      },
      {
        "club_badge_src": null,
        "entry": 654791,
        "entry_name": "Phoenix",
        "event_total": 51,
        "has_played": true,
        "id": 4425133,
        "last_rank": 53837,
        "player_name": "Chalermkiat Pairoj",
        "rank": 63076,
        "rank_sort": 63148,
        "total": 2344
      },
      {
        "club_badge_src": null,
        "entry": 724054,
        "entry_name": "Altilal",
        "event_total": 66,
        "has_played": true,
        "id": 4917737,
        "last_rank": 82398,
        "player_name": "moammar shqqaa",
        "rank": 63076,
        "rank_sort": 63149,
        "total": 2344
      },
      {
        "club_badge_src": null,
        "entry": 730022,
        "entry_name": "Dundas Arcades",
        "event_total": 61,
        "has_played": true,
        "id": 4960303,
        "last_rank": 71713,
        "player_name": "Ross Fairbairn",
        "rank": 63076,
        "rank_sort": 63150,
        "total": 2344
      }
    ]
  }
}