{
  "last_updated_data": "2026-05-24T23:28:17Z",
  "league": {
    "admin_entry": null,
    "closed": false,
    "code_privacy": "p",
    "created": "2025-07-20T23:14:33.933835Z",
    "cup_league": 2815434,
    "has_cup": true,
    "id": 314,
    "league_type": "s",
    "max_entries": null,
    "name": "Overall",
    "rank": null,
    "scoring": "c",
    "start_event": 1
  },
  "new_entries": {
    "has_next": false,
    "page": 1,
    "results": []
  },
  "standings": {
    "has_next": true,
    "page": 225,
    "results": [
      {
        "club_badge_src": null,
        "entry": 586810,
        "entry_name": "INVINCIBLE GUNNERS",
        "event_total": 51,
        "has_played": true,
        "id": 3949557,
        "last_rank": 8320,
        "player_name": "Deep Waraich",
        "rank": 11201,
        "rank_sort": 11201,
        "total": 2395
      },
      {
        "club_badge_src": "https://fantasy.premierleague.com/gcs/plfpl-production-adobe-approved/plfpl-production/2233943/051b6017-3c35-4b81-9718-5101e13a0934.png",
        "entry": 2233943,
        "entry_name": "Bruno Dos Tres",
        "event_total": 38,
        "has_played": true,
        "id": 15914706,
        "last_rank": 4693,
        "player_name": "Lee Robertson",
        "rank": 11201,
        "rank_sort": 11202,
        "total": 2395
      },
      {
        "club_badge_src": null,
        "entry": 2509199,
        "entry_name": "Dele Tubbies",
        "event_total": 54,
        "has_played": true,
        "id": 17970474,
        "last_rank": 9448,
        "player_name": "Lewis Holden",
        "rank": 11201,
        "rank_sort": 11203,
        "total": 2395
      },
      {
        "club_badge_src": null,
        "entry": 8602,
        "entry_name": "Bowen747",
        "event_total": 62,
        "has_played": true,
        "id": 50112,
        "last_rank": 13132,
        "player_name": "Dylan Bolch",
        "rank": 11204,
        "rank_sort": 11204,
        "total": 2395
      },
      {
        "club_badge_src": null,
        "entry": 89544,
        "entry_name": "17",
        "event_total": 52,
        "has_played": true,
        "id": 584525,
        "last_rank": 8687,
        "player_name": "H S",
        "rank": 11204,
        "rank_sort": 11205,
        "total": 2395
      },
      {
        "club_badge_src": null,
        "entry": 96558,
        "entry_name": "Wirtz Case Scenario",
        "event_total": 41,
        "has_played": true,
        "id": 630778,
        "last_rank": 5400,
        "player_name": "Hisham Yafi",
        "rank": 11204,
        "rank_sort": 11206,
        "total": 2395
      },
      {
        "club_badge_src": "https://fantasy.premierleague.com/gcs/plfpl-production-adobe-approved/plfpl-production/238959/6d48e2ef-7f41-4e2d-a8ad-13cb30f68199.png",
        "entry": 238959,
        "entry_name": "Livin\u2019 Saliba Loca",
        "event_total": 65,
        "has_played": true,
        "id": 1590027,
        "last_rank": 14809,
        "player_name": "Graham Kerslake",
        "rank": 11204,
        "rank_sort": 11207,
        "total": 2395
      },
      {
        "club_badge_src": null,
        "entry": 271686,
        "entry_name": "Tbow Owner",
        "event_total": 49,
        "has_played": true,
        "id": 1807496,
        "last_rank": 7625,
        "player_name": "Rory Walker",
        "rank": 11204,
        "rank_sort": 11208,
        "total": 2395
      },
      {
        "club_badge_src": null,
        "entry": 318457,
        "entry_name": "Leo",
        "event_total": 59,
        "has_played": true,
        "id": 2134681,
        "last_rank": 11608,
        "player_name": "Leo Nerd",
        "rank": 11204,
        "rank_sort": 11209,
        "total": 2395
      },
      {
        "club_badge_src": null,
        "entry": 452929,
        "entry_name": "Turkish DeLigt",
        "event_total": 60,
        "has_played": true,
        "id": 3038351,
        "last_rank": 12141,
        "player_name": "Aidan Bates",
        "rank": 11204,
        "rank_sort": 11210,
        "total": 2395
      },
      {
        "club_badge_src": null,
        "entry": 689653,
        "entry_name": "MynettAllStars",
        "event_total": 46,
        "has_played": true,
        "id": 4669544,
        "last_rank": 6703,
        "player_name": "Nathan Mynett",
        "rank": 11204,
        "rank_sort": 11211,
        "total": 2395
      },
      {
        "club_badge_src": null,
        "entry": 811034,
        "entry_name": "Dannyz F.C",
        "event_total": 49,
        "has_played": true,
        "id": 5553009,
        "last_rank": 7592,
        "player_name": "Ayo Dane",
        "rank": 11204,
        "rank_sort": 11212,
        "total": 2395
      },
      {
        "club_badge_src": null,
        "entry": 7056856,
        "entry_name": "Reaich's Rascals",
        "event_total": 57,
        "has_played": true,
        "id": 56763717,
        "last_rank": 10720,
        "player_name": "Calum Reaich",
        "rank": 11204,
        "rank_sort": 11213,
        "total": 2395
      },
      {
        "club_badge_src": null,
        "entry": 7720298,
        "entry_name": "Cunha Matata",
        "event_total": 62,
        "has_played": true,
        "id": 63353803,
        "last_rank": 13132,
        "player_name": "Irdam Kakakhel",
        "rank": 11204,
        "rank_sort": 11214,
        "total": 2395
      },
      {
        "club_badge_src": null,
        "entry": 8443416,
        "entry_name": "Scoreau Morreau",
        "event_total": 55,
        "has_played": true,
        "id": 70091788,
        "last_rank": 9853,
        "player_name": "Derek Abraham",
        "rank": 11204,
        "rank_sort": 11215,
        "total": 2395
      },
      {
        "club_badge_src": null,
        "entry": 10735497,
        "entry_name": "Wildcard",
        "event_total": 67,
        "has_played": true,
        "id": 90680095,
        "last_rank": 16039,
        "player_name": "M\u00e5ns Claesson",
        "rank": 11204,
        "rank_sort": 11216,
        "total": 2395
      },
      {
        "club_badge_src": null,
        "entry": 40841,
        "entry_name": "Snoop Udogie Dogg",
        "event_total": 56,
        "has_played": true,
        "id": 261787,
        "last_rank": 10263,
        "player_name": "Jack McCormack",
        "rank": 11217,
        "rank_sort": 11217,
        "total": 2395
      },
      {
        "club_badge_src": null,
        "entry": 65968,
        "entry_name": "Fifth Time's A Charm",
        "event_total": 49,
        "has_played": true,
        "id": 426190,
        "last_rank": 7676,
        "player_name": "Callum Oloughlin",
        "rank": 11217,
        "rank_sort": 11218,
        "total": 2395
      },
      {
        "club_badge_src": null,
        "entry": 113379,
        "entry_name": "Mantis Toboggan",
        "event_total": 69,
        "has_played": true,
        "id": 739466,
        "last_rank": 17358,
        "player_name": "Harvey Johal",
        "rank": 11217,
        "rank_sort": 11219,
        "total": 2395
      },
      {
        "club_badge_src": null,
        "entry": 205338,
        "entry_name": "Game of throw ins",
        "event_total": 58,
        "has_played": true,
        "id": 1364863,
        "last_rank": 11175,
        "player_name": "Kian Galvin",
        "rank": 11217,
        "rank_sort": 11220,
        "total": 2395
      },
      {
        "club_badge_src": "https://fantasy.premierleague.com/gcs/plfpl-production-adobe-approved/plfpl-production/370556/73469a52-657d-4461-94de-7d969b33c473.png",
        "entry": 370556,
        "entry_name": "BorussiaTeeth",
        "event_total": 52,
        "has_played": true,
        "id": 2479616,
        "last_rank": 8758,
        "player_name": "Amarildo Veizaj",
        "rank": 11217,
        "rank_sort": 11221,
        "total": 2395
      },
      {
        "club_badge_src": null,
        "entry": 597908,
        "entry_name": "King Javen",
        "event_total": 53,
        "has_played": true,
        "id": 4032253,
        "last_rank": 9142,
        "player_name": "Jonny Riddell",
        "rank": 11217,
        "rank_sort": 11222,
        "total": 2395
      },
      {
        "club_badge_src": "https://fantasy.premierleague.com/gcs/plfpl-production-adobe-approved/plfpl-production/959145/8c122dc9-b254-4c15-8d8c-fd5066b6fd7c.png",
        "entry": 959145,
        "entry_name": "TBC FC",
        "event_total": 66,
        "has_played": true,
        "id": 6609379,
        "last_rank": 15452,
        "player_name": "Sam Bruce",
        "rank": 11217,
        "rank_sort": 11223,
        "total": 2395
      },
      {
        "club_badge_src": null,
        "entry": 998737,
        "entry_name": "Salmani Vision XI",
        "event_total": 57,
        "has_played": true,
        "id": 6901922,
        "last_rank": 10805,
        "player_name": "Mohamed Alsalmani",
        "rank": 11217,
        "rank_sort": 11224,
        "total": 2395
      },
      {
        "club_badge_src": null,
        "entry": 1081055,
        "entry_name": "Winning XI",
        "event_total": 73,
        "has_played": true,
        "id": 7485314,
        "last_rank": 20147,
        "player_name": "Sameer Mannick",
        "rank": 11217,
        "rank_sort": 11225,
        "total": 2395
      },
      {
        "club_badge_src": null,
        "entry": 1231830,
        "entry_name": "Jobie Wan Kenobi Nil",
        "event_total": 21,
        "has_played": true,
        "id": 8553795,
        "last_rank": 2088,
        "player_name": "Jobie Lawton",
        "rank": 11217,
        "rank_sort": 11226,
        "total": 2395
      },
      {
        "club_badge_src": null,
        "entry": 1246832,
        "entry_name": "Mark's X1",
        "event_total": 46,
        "has_played": true,
        "id": 8659391,
        "last_rank": 6677,
        "player_name": "Mark Wilson",
        "rank": 11217,
        "rank_sort": 11227,
        "total": 2395
      },
      {
        "club_badge_src": null,
        "entry": 1296848,
        "entry_name": "BetterYatesThanNever",
        "event_total": 48,
        "has_played": true,
        "id": 9013172,
        "last_rank": 7333,
        "player_name": "Emily Barratt",
        "rank": 11217,
        "rank_sort": 11228,
        "total": 2395
      },
      {
        "club_badge_src": null,
        "entry": 1423283,
        "entry_name": "Stumpy Latinas",
        "event_total": 59,
        "has_played": true,
        "id": 9913086,
        "last_rank": 9853,
        "player_name": "Rich Brook",
        "rank": 11217,
        "rank_sort": 11229,
        "total": 2395
      },
      {
        "club_badge_src": "https://fantasy.premierleague.com/gcs/plfpl-production-adobe-approved/plfpl-production/2311555/b49a1ef2-d463-4ded-80f2-693ed7baa1bb.png",
        "entry": 2311555,
        "entry_name": "Deano's Destroyers",
        "event_total": 51,
        "has_played": true,
        "id": 16488569,
        "last_rank": 8339,
        "player_name": "Dean Johns",
        "rank": 11217,
        "rank_sort": 11230,
        "total": 2395
      },
      {
        "club_badge_src": null,
        "entry": 2828554,
        "entry_name": "Unelected Dango",
        "event_total": 69,
        "has_played": true,
        "id": 20668037,
        "last_rank": 17327,
        "player_name": "Nathan Willcock",
        "rank": 11217,
        "rank_sort": 11231,
        "total": 2395
      },
      {
        "club_badge_src": null,
        "entry": 2919244,
        "entry_name": "Wirtz Of Wall Street",
        "event_total": 64,
        "has_played": true,
        "id": 21397752,
        "last_rank": 14292,
        "player_name": "Feidias Kyriakidis",
        "rank": 11217,
        "rank_sort": 11232,
        "total": 2395
      },
      {
        "club_badge_src": null,
        "entry": 3082655,
        "entry_name": "Kloppites",
        "event_total": 63,
        "has_played": true,
        "id": 22711050,
        "last_rank": 13754,
        "player_name": "Chris Carter",
        "rank": 11217,
        "rank_sort": 11233,
        "total": 2395
      },
      {
        "club_badge_src": "https://fantasy.premierleague.com/gcs/plfpl-production-adobe-approved/plfpl-production/5601814/db1e8bf3-958e-4b49-96a6-0b1494773c4c.png",
        "entry": 5601814,
        "entry_name": "anaksino",
        "event_total": 73,
        "has_played": true,
        "id": 43772021,
        "last_rank": 20116,
        "player_name": "Abdullah N Alsaeed",
        "rank": 11217,
        "rank_sort": 11234,
        "total": 2395
      },
      {
        "club_badge_src": null,
        "entry": 5671975,
        "entry_name": "A Cunha Mateta",
        "event_total": 70,
        "has_played": true,
        "id": 44385975,
        "last_rank": 17989,
        "player_name": "Antony Braeger",
        "rank": 11217,
        "rank_sort": 11235,
        "total": 2395
      },
      {
        "club_badge_src": "https://fantasy.premierleague.com/gcs/plfpl-production-adobe-approved/plfpl-production/5846795/fa90a25c-e5e2-4dc4-b09a-1754ecc866cd.png",
        "entry": 5846795,
        "entry_name": "ColeOrNothing",
        "event_total": 68,
        "has_played": true,
        "id": 45901060,
        "last_rank": 16702,
        "player_name": "Sandile Nkosi",
        "rank": 11217,
        "rank_sort": 11236,
        "total": 2395
      },
      {
        "club_badge_src": null,
        "entry": 5942639,
        "entry_name": "Mysterious_Hero",
        "event_total": 69,
        "has_played": true,
        "id": 46732668,
        "last_rank": 17437,
        "player_name": "Gabriel Kevin",
        "rank": 11217,
        "rank_sort": 11237,
        "total": 2395
      },
      {
        "club_badge_src": null,
        "entry": 6376381,
        "entry_name": "TrampletheDragon",
        "event_total": 64,
        "has_played": true,
        "id": 50710607,
        "last_rank": 14292,
        "player_name": "Brandon Sookdeo",
        "rank": 11217,
        "rank_sort": 11238,
        "total": 2395
      },
      {
        "club_badge_src": "https://fantasy.premierleague.com/gcs/plfpl-production-adobe-approved/plfpl-production/7471535/0609223a-00ec-4dce-8a0e-f06a9fefb012.png",
        "entry": 7471535,
        "entry_name": "jm Afo",
        "event_total": 81,
        "has_played": true,
        "id": 60915597,
        "last_rank": 26710,
        "player_name": "Ayaf Salah",
        "rank": 11217,
        "rank_sort": 11239,
        "total": 2395
      },
      {
        "club_badge_src": null,
        "entry": 7680155,
        "entry_name": "Tiki-Taka Twijfelaar",
        "event_total": 78,
        "has_played": true,
        "id": 62992715,
        "last_rank": 23990,
        "player_name": "Tim Labbe",
        "rank": 11217,
        "rank_sort": 11240,
        "total": 2395
      },
      {
        "club_badge_src": null,
        "entry": 7736745,
        "entry_name": "Lusk Subway",
        "event_total": 55,
        "has_played": true,
        "id": 63501859,
        "last_rank": 9845,
        "player_name": "Gary York",
        "rank": 11217,
        "rank_sort": 11241,
        "total": 2395
      },
      {
        "club_badge_src": "https://fantasy.premierleague.com/gcs/plfpl-production-adobe-approved/plfpl-production/8966355/9257030d-d0e7-4fa4-9b6a-4f18a505c8af.png",
        "entry": 8966355,
        "entry_name": "Ross United FC",
        "event_total": 61,
        "has_played": true,
        "id": 75157134,
        "last_rank": 12645,
        "player_name": "Roshawn Taitt",
        "rank": 11217,
        "rank_sort": 11242,
        "total": 2395
      },
      {
        "club_badge_src": null,
        "entry": 10913,
        "entry_name": "Real OGz",
        "event_total": 64,
        "has_played": true,
        "id": 64654,
        "last_rank": 14370,
        "player_name": "Martin Felton",
        "rank": 11243,
        "rank_sort": 11243,
        "total": 2395
      },
      {
        "club_badge_src": null,
        "entry": 22580,
        "entry_name": "VAR U Havin A Laugh",
        "event_total": 45,
        "has_played": true,
        "id": 141836,
        "last_rank": 6409,
        "player_name": "Ben Perry",
        "rank": 11243,
        "rank_sort": 11244,
        "total": 2395
      },
      {
        "club_badge_src": null,
        "entry": 27444,
        "entry_name": "Hakunamateta",
        "event_total": 44,
        "has_played": true,
        "id": 173492,
        "last_rank": 6154,
        "player_name": "Daniel Mackey",
        "rank": 11243,
        "rank_sort": 11245,
        "total": 2395
      },
      {
        "club_badge_src": null,
        "entry": 29820,
        "entry_name": "ANC",
        "event_total": 56,
        "has_played": true,
        "id": 188646,
        "last_rank": 10346,
        "player_name": "Freddie Tyrrell",
        "rank": 11243,
        "rank_sort": 11246,
        "total": 2395
      },
      {
        "club_badge_src": null,
        "entry": 35904,
        "entry_name": "Gadis Gedik",
        "event_total": 71,
        "has_played": true,
        "id": 229784,
        "last_rank": 18655,
        "player_name": "Sharil Seth",
        "rank": 11243,
        "rank_sort": 11247,
        "total": 2395
      },
      {
        "club_badge_src": "https://fantasy.premierleague.com/gcs/plfpl-production-adobe-approved/plfpl-production/45670/96493ffc-1644-489c-8ab8-05c8e5d55c40.png",
        "entry": 45670,
        "entry_name": "Bruno Penaldes",
        "event_total": 61,
        "has_played": true,
        "id": 292969,
        "last_rank": 12705,
        "player_name": "Rustam Adilov",
        "rank": 11243,
        "rank_sort": 11248,
        "total": 2395
      },
      {
        "club_badge_src": null,
        "entry": 52267,
        "entry_name": "Unclickable FC",
        "event_total": 60,
        "has_played": true,
        "id": 336117,
        "last_rank": 12141,
        "player_name": "Gary Woo",
        "rank": 11243,
        "rank_sort": 11249,
        "total": 2395
      },
      {
        "club_badge_src": null,
        "entry": 72578,
        "entry_name": "5tay Humb1e",
        "event_total": 61,
        "has_played": true,
        "id": 471632,
        "last_rank": 12705,
        "player_name": "Xiang Li",
        "rank": 11243,
        "rank_sort": 11250,
        "total": 2395
      }
    ]
  }
}