{
  "last_updated_data": "2026-05-24T23:28:17Z",
  "league": {
    "admin_entry": null,
    "closed": false,
    "code_privacy": "p",
    "created": "2025-07-20T23:14:33.933835Z",
    "cup_league": 2815434,
    "has_cup": true,
    "id": 314,
    "league_type": "s",
    "max_entries": null,
    "name": "Overall",
    "rank": null,
    "scoring": "c",
    "start_event": 1
  },
  "new_entries": {
    "has_next": false,
    "page": 1,
    "results": []
  },
  "standings": {
    "has_next": true,
    "page": 687,
    "results": [
      {
        "club_badge_src": null,
        "entry": 484960,
        "entry_name": "Emil's",
        "event_total": 57,
        "has_played": true,
        "id": 3255149,
        "last_rank": 34051,
        "player_name": "EMIL HALAS",
        "rank": 34242,
        "rank_sort": 34301,
        "total": 2364
      },
      {
        "club_badge_src": null,
        "entry": 498794,
        "entry_name": "Big Meaty Men",
        "event_total": 57,
        "has_played": true,
        "id": 3347684,
        "last_rank": 34293,
        "player_name": "Laurence Gill",
        "rank": 34242,
        "rank_sort": 34302,
        "total": 2364
      },
      {
        "club_badge_src": null,
        "entry": 536536,
        "entry_name": "Bruno Dos Tres",
        "event_total": 51,
        "has_played": true,
        "id": 3611244,
        "last_rank": 27770,
        "player_name": "Fredrik Bj\u00f6rkman",
        "rank": 34242,
        "rank_sort": 34303,
        "total": 2364
      },
      {
        "club_badge_src": null,
        "entry": 538789,
        "entry_name": "What the Skelly",
        "event_total": 56,
        "has_played": true,
        "id": 3626712,
        "last_rank": 28726,
        "player_name": "Callum Crowther",
        "rank": 34242,
        "rank_sort": 34304,
        "total": 2364
      },
      {
        "club_badge_src": null,
        "entry": 557409,
        "entry_name": "Mbeumodos Operandi",
        "event_total": 56,
        "has_played": true,
        "id": 3751336,
        "last_rank": 33147,
        "player_name": "George Negus",
        "rank": 34242,
        "rank_sort": 34305,
        "total": 2364
      },
      {
        "club_badge_src": null,
        "entry": 573950,
        "entry_name": "1ManCanMkAdifference",
        "event_total": 50,
        "has_played": true,
        "id": 3862530,
        "last_rank": 27020,
        "player_name": "Craig Hunter",
        "rank": 34242,
        "rank_sort": 34306,
        "total": 2364
      },
      {
        "club_badge_src": null,
        "entry": 588979,
        "entry_name": "Bowen 747",
        "event_total": 54,
        "has_played": true,
        "id": 3966529,
        "last_rank": 30957,
        "player_name": "Max Hamilton-Kerr",
        "rank": 34242,
        "rank_sort": 34307,
        "total": 2364
      },
      {
        "club_badge_src": null,
        "entry": 592294,
        "entry_name": "Mince and Tatties FC",
        "event_total": 59,
        "has_played": true,
        "id": 3990912,
        "last_rank": 31620,
        "player_name": "Michael Leary",
        "rank": 34242,
        "rank_sort": 34308,
        "total": 2364
      },
      {
        "club_badge_src": null,
        "entry": 593033,
        "entry_name": "World Champs",
        "event_total": 68,
        "has_played": true,
        "id": 3996279,
        "last_rank": 48642,
        "player_name": "Jack Pottie",
        "rank": 34242,
        "rank_sort": 34309,
        "total": 2364
      },
      {
        "club_badge_src": null,
        "entry": 594671,
        "entry_name": "CFC World Champs 25",
        "event_total": 66,
        "has_played": true,
        "id": 4008361,
        "last_rank": 45714,
        "player_name": "Harry Sanger",
        "rank": 34242,
        "rank_sort": 34310,
        "total": 2364
      },
      {
        "club_badge_src": null,
        "entry": 632981,
        "entry_name": "Team Lavvo XO",
        "event_total": 66,
        "has_played": true,
        "id": 4277203,
        "last_rank": 40036,
        "player_name": "Torgeir Myklebust",
        "rank": 34242,
        "rank_sort": 34311,
        "total": 2364
      },
      {
        "club_badge_src": null,
        "entry": 636684,
        "entry_name": "COYB",
        "event_total": 58,
        "has_played": true,
        "id": 4302850,
        "last_rank": 30600,
        "player_name": "Frederick Shuttle",
        "rank": 34242,
        "rank_sort": 34312,
        "total": 2364
      },
      {
        "club_badge_src": null,
        "entry": 651533,
        "entry_name": "Bowen 747",
        "event_total": 48,
        "has_played": true,
        "id": 4403113,
        "last_rank": 25172,
        "player_name": "Dan Caven",
        "rank": 34242,
        "rank_sort": 34313,
        "total": 2364
      },
      {
        "club_badge_src": null,
        "entry": 658077,
        "entry_name": "Ham Roll FC",
        "event_total": 44,
        "has_played": true,
        "id": 4447186,
        "last_rank": 18790,
        "player_name": "Harry Ward",
        "rank": 34242,
        "rank_sort": 34314,
        "total": 2364
      },
      {
        "club_badge_src": null,
        "entry": 664089,
        "entry_name": "Thrylos",
        "event_total": 81,
        "has_played": true,
        "id": 4489640,
        "last_rank": 70651,
        "player_name": "Aki Hatzistefanis",
        "rank": 34242,
        "rank_sort": 34315,
        "total": 2364
      },
      {
        "club_badge_src": "https://fantasy.premierleague.com/gcs/plfpl-production-adobe-approved/plfpl-production/664689/c613f4e0-f2ef-4bae-8f11-17e4c7cfcf32.png",
        "entry": 664689,
        "entry_name": "Real Madill",
        "event_total": 57,
        "has_played": true,
        "id": 4493746,
        "last_rank": 34293,
        "player_name": "Rob Madill",
        "rank": 34242,
        "rank_sort": 34316,
        "total": 2364
      },
      {
        "club_badge_src": null,
        "entry": 704251,
        "entry_name": "Pick your team name",
        "event_total": 60,
        "has_played": true,
        "id": 4772323,
        "last_rank": 37589,
        "player_name": "Henrik Denebrandt",
        "rank": 34242,
        "rank_sort": 34317,
        "total": 2364
      },
      {
        "club_badge_src": null,
        "entry": 709503,
        "entry_name": "Jenners Bantams",
        "event_total": 66,
        "has_played": true,
        "id": 4810482,
        "last_rank": 45416,
        "player_name": "Christopher Jenner",
        "rank": 34242,
        "rank_sort": 34318,
        "total": 2364
      },
      {
        "club_badge_src": null,
        "entry": 719208,
        "entry_name": "Chairboys",
        "event_total": 63,
        "has_played": true,
        "id": 4881400,
        "last_rank": 41617,
        "player_name": "Connor Garnett",
        "rank": 34242,
        "rank_sort": 34319,
        "total": 2364
      },
      {
        "club_badge_src": null,
        "entry": 725367,
        "entry_name": "FCBenni",
        "event_total": 60,
        "has_played": true,
        "id": 4926967,
        "last_rank": 37822,
        "player_name": "Benjamin Schulte",
        "rank": 34242,
        "rank_sort": 34320,
        "total": 2364
      },
      {
        "club_badge_src": null,
        "entry": 727046,
        "entry_name": "FC Verdimaal",
        "event_total": 68,
        "has_played": true,
        "id": 4939283,
        "last_rank": 48363,
        "player_name": "Janne Turtiainen",
        "rank": 34242,
        "rank_sort": 34321,
        "total": 2364
      },
      {
        "club_badge_src": null,
        "entry": 729238,
        "entry_name": "Chuna Matata",
        "event_total": 66,
        "has_played": true,
        "id": 4954747,
        "last_rank": 40036,
        "player_name": "Andreas Lervik",
        "rank": 34242,
        "rank_sort": 34322,
        "total": 2364
      },
      {
        "club_badge_src": null,
        "entry": 731962,
        "entry_name": "It Maxence",
        "event_total": 76,
        "has_played": true,
        "id": 4973930,
        "last_rank": 61606,
        "player_name": "Lee Sales",
        "rank": 34242,
        "rank_sort": 34323,
        "total": 2364
      },
      {
        "club_badge_src": null,
        "entry": 736815,
        "entry_name": "\u00c5hsome bois",
        "event_total": 63,
        "has_played": true,
        "id": 5009073,
        "last_rank": 41617,
        "player_name": "Rickard Sj\u00f6gren",
        "rank": 34242,
        "rank_sort": 34324,
        "total": 2364
      },
      {
        "club_badge_src": "https://fantasy.premierleague.com/gcs/plfpl-production-adobe-approved/plfpl-production/752749/09cd8d57-ed7b-448a-80cf-cf9d3d6ea71e.png",
        "entry": 752749,
        "entry_name": "A-Cunha Matata",
        "event_total": 67,
        "has_played": true,
        "id": 5122341,
        "last_rank": 41324,
        "player_name": "Fredrik Karlsen",
        "rank": 34242,
        "rank_sort": 34325,
        "total": 2364
      },
      {
        "club_badge_src": null,
        "entry": 757266,
        "entry_name": "Hacuhna Mateta",
        "event_total": 77,
        "has_played": true,
        "id": 5157365,
        "last_rank": 63724,
        "player_name": "Richard Waterhouse",
        "rank": 34242,
        "rank_sort": 34326,
        "total": 2364
      },
      {
        "club_badge_src": null,
        "entry": 762736,
        "entry_name": "Nikhilas Jackson Fc",
        "event_total": 87,
        "has_played": true,
        "id": 5201626,
        "last_rank": 83698,
        "player_name": "Aryan Banerjee",
        "rank": 34242,
        "rank_sort": 34327,
        "total": 2364
      },
      {
        "club_badge_src": null,
        "entry": 783196,
        "entry_name": "almazdi",
        "event_total": 49,
        "has_played": true,
        "id": 5348239,
        "last_rank": 26230,
        "player_name": "Abdulaziz Almazdi",
        "rank": 34242,
        "rank_sort": 34328,
        "total": 2364
      },
      {
        "club_badge_src": "https://fantasy.premierleague.com/gcs/plfpl-production-adobe-approved/plfpl-production/801607/ed172ad2-d201-4937-aa4e-85bf39021f73.png",
        "entry": 801607,
        "entry_name": "Instruktor \u0161aha",
        "event_total": 57,
        "has_played": true,
        "id": 5487232,
        "last_rank": 34293,
        "player_name": "Mateo Ivi\u0107",
        "rank": 34242,
        "rank_sort": 34329,
        "total": 2364
      },
      {
        "club_badge_src": null,
        "entry": 807305,
        "entry_name": "Zubidoobidoo",
        "event_total": 52,
        "has_played": true,
        "id": 5526828,
        "last_rank": 25002,
        "player_name": "Mitchell Taylor",
        "rank": 34242,
        "rank_sort": 34330,
        "total": 2364
      },
      {
        "club_badge_src": null,
        "entry": 809948,
        "entry_name": "Squaddle",
        "event_total": 63,
        "has_played": true,
        "id": 5545403,
        "last_rank": 41617,
        "player_name": "Felix McKay",
        "rank": 34242,
        "rank_sort": 34331,
        "total": 2364
      },
      {
        "club_badge_src": "https://fantasy.premierleague.com/gcs/plfpl-production-adobe-approved/plfpl-production/868718/6f752ae9-90ff-4e49-812b-a7644403a8b9.png",
        "entry": 868718,
        "entry_name": "Gothalo",
        "event_total": 47,
        "has_played": true,
        "id": 5955756,
        "last_rank": 24330,
        "player_name": "Subash Maharjan",
        "rank": 34242,
        "rank_sort": 34332,
        "total": 2364
      },
      {
        "club_badge_src": "https://fantasy.premierleague.com/gcs/plfpl-production-adobe-approved/plfpl-production/903678/3cd4902a-7dfe-4c5e-b429-2a5a69c8687a.png",
        "entry": 903678,
        "entry_name": "X-treme Team",
        "event_total": 58,
        "has_played": true,
        "id": 6209360,
        "last_rank": 35166,
        "player_name": "Matthew Oliver",
        "rank": 34242,
        "rank_sort": 34333,
        "total": 2364
      },
      {
        "club_badge_src": null,
        "entry": 920489,
        "entry_name": "Charlie's Angels",
        "event_total": 60,
        "has_played": true,
        "id": 6330418,
        "last_rank": 37822,
        "player_name": "Charlie Prince",
        "rank": 34242,
        "rank_sort": 34334,
        "total": 2364
      },
      {
        "club_badge_src": null,
        "entry": 941710,
        "entry_name": "Botman & Robin",
        "event_total": 59,
        "has_played": true,
        "id": 6484124,
        "last_rank": 36142,
        "player_name": "Hal Blakey",
        "rank": 34242,
        "rank_sort": 34335,
        "total": 2364
      },
      {
        "club_badge_src": null,
        "entry": 948795,
        "entry_name": "Forrofejek",
        "event_total": 54,
        "has_played": true,
        "id": 6535677,
        "last_rank": 30727,
        "player_name": "Peter Raci",
        "rank": 34242,
        "rank_sort": 34336,
        "total": 2364
      },
      {
        "club_badge_src": "https://fantasy.premierleague.com/gcs/plfpl-production-adobe-approved/plfpl-production/955206/edc82fad-e2c4-4df0-923e-78ee1e1c59f3.png",
        "entry": 955206,
        "entry_name": "Bemmel & Hove Albion",
        "event_total": 41,
        "has_played": true,
        "id": 6581475,
        "last_rank": 19432,
        "player_name": "Cyril Ruijters",
        "rank": 34242,
        "rank_sort": 34337,
        "total": 2364
      },
      {
        "club_badge_src": null,
        "entry": 983844,
        "entry_name": "Maddog's Perma Tan",
        "event_total": 57,
        "has_played": true,
        "id": 6783183,
        "last_rank": 34051,
        "player_name": "Stephen McVay",
        "rank": 34242,
        "rank_sort": 34338,
        "total": 2364
      },
      {
        "club_badge_src": null,
        "entry": 1015097,
        "entry_name": "\u0627\u0644\u0643\u0648\u0631\u06a8\u0627 \u0633\u0648\u062f\ufffd",
        "event_total": 59,
        "has_played": true,
        "id": 7022385,
        "last_rank": 31620,
        "player_name": "Mohamed Ramadan",
        "rank": 34242,
        "rank_sort": 34339,
        "total": 2364
      },
      {
        "club_badge_src": "https://fantasy.premierleague.com/gcs/plfpl-production-adobe-approved/plfpl-production/1120700/0abbc158-1f52-47f5-95f0-7cdeb459f702.png",
        "entry": 1120700,
        "entry_name": "Extreme FC",
        "event_total": 73,
        "has_played": true,
        "id": 7764079,
        "last_rank": 56369,
        "player_name": "Elijah Blake",
        "rank": 34242,
        "rank_sort": 34340,
        "total": 2364
      },
      {
        "club_badge_src": null,
        "entry": 1175872,
        "entry_name": "EndReal",
        "event_total": 67,
        "has_played": true,
        "id": 8158601,
        "last_rank": 41162,
        "player_name": "Endre Almlid",
        "rank": 34242,
        "rank_sort": 34341,
        "total": 2364
      },
      {
        "club_badge_src": null,
        "entry": 1190169,
        "entry_name": "90 Minutes of Pain",
        "event_total": 69,
        "has_played": true,
        "id": 8258054,
        "last_rank": 43849,
        "player_name": "Mudar Voos",
        "rank": 34242,
        "rank_sort": 34342,
        "total": 2364
      },
      {
        "club_badge_src": "https://fantasy.premierleague.com/gcs/plfpl-production-adobe-approved/plfpl-production/1400474/a3545274-5353-4163-9f73-9aaf15adf035.png",
        "entry": 1400474,
        "entry_name": "Dream 15",
        "event_total": 65,
        "has_played": true,
        "id": 9744073,
        "last_rank": 38644,
        "player_name": "EJ Leach",
        "rank": 34242,
        "rank_sort": 34343,
        "total": 2364
      },
      {
        "club_badge_src": null,
        "entry": 1400580,
        "entry_name": "Aza",
        "event_total": 48,
        "has_played": true,
        "id": 9744831,
        "last_rank": 25172,
        "player_name": "Azamat Maussymbayev",
        "rank": 34242,
        "rank_sort": 34344,
        "total": 2364
      },
      {
        "club_badge_src": null,
        "entry": 1429692,
        "entry_name": "Triki14",
        "event_total": 47,
        "has_played": true,
        "id": 9962111,
        "last_rank": 24330,
        "player_name": "Moeschberger Patrick",
        "rank": 34242,
        "rank_sort": 34345,
        "total": 2364
      },
      {
        "club_badge_src": null,
        "entry": 1453498,
        "entry_name": "Vegarbeid",
        "event_total": 64,
        "has_played": true,
        "id": 10127938,
        "last_rank": 37589,
        "player_name": "Vegard Skartveit",
        "rank": 34242,
        "rank_sort": 34346,
        "total": 2364
      },
      {
        "club_badge_src": null,
        "entry": 1459805,
        "entry_name": "\u0628\u0637\u0644 2026 \u0645\u0646 \u0627\u0644\u062c\u0648\u0644\u062930",
        "event_total": 67,
        "has_played": true,
        "id": 10175503,
        "last_rank": 47163,
        "player_name": "Youcef Mesnadi",
        "rank": 34242,
        "rank_sort": 34347,
        "total": 2364
      },
      {
        "club_badge_src": null,
        "entry": 1475131,
        "entry_name": "Not Isakly Sure",
        "event_total": 63,
        "has_played": true,
        "id": 10282414,
        "last_rank": 41324,
        "player_name": "Rob Stephens",
        "rank": 34242,
        "rank_sort": 34348,
        "total": 2364
      },
      {
        "club_badge_src": null,
        "entry": 1480645,
        "entry_name": "Wirtz Case Scenario",
        "event_total": 68,
        "has_played": true,
        "id": 10324055,
        "last_rank": 48363,
        "player_name": "Fr\u00e9deric De Blieck",
        "rank": 34242,
        "rank_sort": 34349,
        "total": 2364
      },
      {
        "club_badge_src": null,
        "entry": 1514106,
        "entry_name": "Dele Ah Lay",
        "event_total": 68,
        "has_played": true,
        "id": 10560313,
        "last_rank": 48642,
        "player_name": "Lee Kinsella",
        "rank": 34242,
        "rank_sort": 34350,
        "total": 2364
      }
    ]
  }
}