{
  "last_updated_data": "2026-05-24T23:28:17Z",
  "league": {
    "admin_entry": null,
    "closed": false,
    "code_privacy": "p",
    "created": "2025-07-20T23:14:33.933835Z",
    "cup_league": 2815434,
    "has_cup": true,
    "id": 314,
    "league_type": "s",
    "max_entries": null,
    "name": "Overall",
    "rank": null,
    "scoring": "c",
    "start_event": 1
  },
  "new_entries": {
    "has_next": false,
    "page": 1,
    "results": []
  },
  "standings": {
    "has_next": true,
    "page": 66,
    "results": [
      {
        "club_badge_src": null,
        "entry": 4198488,
        "entry_name": "Weekly Distraction",
        "event_total": 62,
        "has_played": true,
        "id": 31779549,
        "last_rank": 3699,
        "player_name": "Peter Kaldor",
        "rank": 3222,
        "rank_sort": 3251,
        "total": 2424
      },
      {
        "club_badge_src": null,
        "entry": 4335132,
        "entry_name": "Milesy's Magicians",
        "event_total": 61,
        "has_played": true,
        "id": 32912253,
        "last_rank": 3528,
        "player_name": "Matt Miles",
        "rank": 3222,
        "rank_sort": 3252,
        "total": 2424
      },
      {
        "club_badge_src": null,
        "entry": 4383789,
        "entry_name": "Moves like Agger",
        "event_total": 61,
        "has_played": true,
        "id": 33319986,
        "last_rank": 3528,
        "player_name": "Harvey Burton",
        "rank": 3222,
        "rank_sort": 3253,
        "total": 2424
      },
      {
        "club_badge_src": "https://fantasy.premierleague.com/gcs/plfpl-production-adobe-approved/plfpl-production/4542963/3ead80cd-e639-4734-b13c-c74d81703d82.png",
        "entry": 4542963,
        "entry_name": "BnB",
        "event_total": 45,
        "has_played": true,
        "id": 34659508,
        "last_rank": 1609,
        "player_name": "ihab bounab",
        "rank": 3222,
        "rank_sort": 3254,
        "total": 2424
      },
      {
        "club_badge_src": null,
        "entry": 5073864,
        "entry_name": "Elessawy",
        "event_total": 57,
        "has_played": true,
        "id": 39212276,
        "last_rank": 2977,
        "player_name": "Mohamed Elessawy",
        "rank": 3222,
        "rank_sort": 3255,
        "total": 2424
      },
      {
        "club_badge_src": null,
        "entry": 5359742,
        "entry_name": "\u2b50\ufe0f\u2b50\ufe0f\u2b50\ufe0f \u062d\u0627\u0645\u0644 \u0627\u0644\u0644\u0642\u0628",
        "event_total": 66,
        "has_played": true,
        "id": 41625235,
        "last_rank": 4488,
        "player_name": "soufien jounaidi",
        "rank": 3222,
        "rank_sort": 3256,
        "total": 2424
      },
      {
        "club_badge_src": null,
        "entry": 5478906,
        "entry_name": "Quad+",
        "event_total": 58,
        "has_played": true,
        "id": 42655703,
        "last_rank": 3150,
        "player_name": "Ibrahim Mufeed",
        "rank": 3222,
        "rank_sort": 3257,
        "total": 2424
      },
      {
        "club_badge_src": null,
        "entry": 5738723,
        "entry_name": "Trust the Process",
        "event_total": 53,
        "has_played": true,
        "id": 44965083,
        "last_rank": 2399,
        "player_name": "Martial Chouvel",
        "rank": 3222,
        "rank_sort": 3258,
        "total": 2424
      },
      {
        "club_badge_src": null,
        "entry": 6553424,
        "entry_name": "The Rational Tinker",
        "event_total": 67,
        "has_played": true,
        "id": 52297686,
        "last_rank": 4693,
        "player_name": "L T",
        "rank": 3222,
        "rank_sort": 3259,
        "total": 2424
      },
      {
        "club_badge_src": null,
        "entry": 7219415,
        "entry_name": "Fc Faworyci",
        "event_total": 49,
        "has_played": true,
        "id": 58316766,
        "last_rank": 1978,
        "player_name": "Dawid Boczar",
        "rank": 3222,
        "rank_sort": 3260,
        "total": 2424
      },
      {
        "club_badge_src": null,
        "entry": 7698160,
        "entry_name": "LJ's Losers",
        "event_total": 75,
        "has_played": true,
        "id": 63154838,
        "last_rank": 5632,
        "player_name": "Luko Johnson",
        "rank": 3222,
        "rank_sort": 3261,
        "total": 2424
      },
      {
        "club_badge_src": null,
        "entry": 8767995,
        "entry_name": "Pep it real",
        "event_total": 38,
        "has_played": true,
        "id": 73235679,
        "last_rank": 1130,
        "player_name": "Godwin Agu",
        "rank": 3222,
        "rank_sort": 3262,
        "total": 2424
      },
      {
        "club_badge_src": null,
        "entry": 8879124,
        "entry_name": "smith",
        "event_total": 63,
        "has_played": true,
        "id": 74306365,
        "last_rank": 3853,
        "player_name": "Billy Smith",
        "rank": 3222,
        "rank_sort": 3263,
        "total": 2424
      },
      {
        "club_badge_src": null,
        "entry": 9330118,
        "entry_name": "Hakkebakkeskogen",
        "event_total": 67,
        "has_played": true,
        "id": 78698168,
        "last_rank": 4742,
        "player_name": "Lise Janbu Eide",
        "rank": 3222,
        "rank_sort": 3264,
        "total": 2424
      },
      {
        "club_badge_src": null,
        "entry": 6306,
        "entry_name": "AFC Jamma Geant",
        "event_total": 69,
        "has_played": true,
        "id": 36161,
        "last_rank": 3528,
        "player_name": "Will Simpson",
        "rank": 3265,
        "rank_sort": 3265,
        "total": 2424
      },
      {
        "club_badge_src": null,
        "entry": 13793,
        "entry_name": "FFHub WA Admin",
        "event_total": 70,
        "has_played": true,
        "id": 83507,
        "last_rank": 5448,
        "player_name": "FFHub Paul",
        "rank": 3265,
        "rank_sort": 3266,
        "total": 2424
      },
      {
        "club_badge_src": null,
        "entry": 23418,
        "entry_name": "Tractor Boys",
        "event_total": 69,
        "has_played": true,
        "id": 147461,
        "last_rank": 5241,
        "player_name": "Ryan Kerry",
        "rank": 3265,
        "rank_sort": 3267,
        "total": 2424
      },
      {
        "club_badge_src": null,
        "entry": 42894,
        "entry_name": "MurderOnZidanesFloor",
        "event_total": 64,
        "has_played": true,
        "id": 274750,
        "last_rank": 3408,
        "player_name": "Cameron Wright",
        "rank": 3265,
        "rank_sort": 3268,
        "total": 2424
      },
      {
        "club_badge_src": null,
        "entry": 107631,
        "entry_name": "Here We Goal",
        "event_total": 65,
        "has_played": true,
        "id": 701671,
        "last_rank": 4358,
        "player_name": "Eric Wong",
        "rank": 3265,
        "rank_sort": 3269,
        "total": 2424
      },
      {
        "club_badge_src": null,
        "entry": 302208,
        "entry_name": "Pegasus",
        "event_total": 60,
        "has_played": true,
        "id": 2022349,
        "last_rank": 2824,
        "player_name": "Pegasus FPL",
        "rank": 3265,
        "rank_sort": 3270,
        "total": 2424
      },
      {
        "club_badge_src": null,
        "entry": 742101,
        "entry_name": "Template FC",
        "event_total": 64,
        "has_played": true,
        "id": 5047530,
        "last_rank": 4047,
        "player_name": "Evangelos Aplopolis",
        "rank": 3265,
        "rank_sort": 3271,
        "total": 2424
      },
      {
        "club_badge_src": null,
        "entry": 772007,
        "entry_name": "Chiltern Rovers",
        "event_total": 77,
        "has_played": true,
        "id": 5266741,
        "last_rank": 6166,
        "player_name": "Colin Ells",
        "rank": 3265,
        "rank_sort": 3272,
        "total": 2424
      },
      {
        "club_badge_src": null,
        "entry": 971204,
        "entry_name": "yankeezovci",
        "event_total": 60,
        "has_played": true,
        "id": 6694831,
        "last_rank": 3442,
        "player_name": "Daniel Belanji",
        "rank": 3265,
        "rank_sort": 3273,
        "total": 2424
      },
      {
        "club_badge_src": null,
        "entry": 1077180,
        "entry_name": "Mediy\u00f6keres",
        "event_total": 86,
        "has_played": true,
        "id": 7458394,
        "last_rank": 10748,
        "player_name": "Keoni Southwick",
        "rank": 3265,
        "rank_sort": 3274,
        "total": 2424
      },
      {
        "club_badge_src": null,
        "entry": 1184455,
        "entry_name": "Unbeatable United",
        "event_total": 62,
        "has_played": true,
        "id": 8217963,
        "last_rank": 3721,
        "player_name": "Ryan Williamson",
        "rank": 3265,
        "rank_sort": 3275,
        "total": 2424
      },
      {
        "club_badge_src": null,
        "entry": 1221582,
        "entry_name": "Now I\u2019m a Baleba",
        "event_total": 67,
        "has_played": true,
        "id": 8481163,
        "last_rank": 3866,
        "player_name": "Niall Smith",
        "rank": 3265,
        "rank_sort": 3276,
        "total": 2424
      },
      {
        "club_badge_src": null,
        "entry": 1323325,
        "entry_name": "\u00d8de to Joy",
        "event_total": 65,
        "has_played": true,
        "id": 9198332,
        "last_rank": 4358,
        "player_name": "Pete Grenier",
        "rank": 3265,
        "rank_sort": 3277,
        "total": 2424
      },
      {
        "club_badge_src": null,
        "entry": 2039680,
        "entry_name": "TheSpecialJuans",
        "event_total": 68,
        "has_played": true,
        "id": 14443843,
        "last_rank": 4954,
        "player_name": "Rohan Seshadri",
        "rank": 3265,
        "rank_sort": 3278,
        "total": 2424
      },
      {
        "club_badge_src": null,
        "entry": 2057187,
        "entry_name": "Coolie Powerhouse XI",
        "event_total": 58,
        "has_played": true,
        "id": 14573555,
        "last_rank": 2553,
        "player_name": "Aniruddha Raghavan",
        "rank": 3265,
        "rank_sort": 3279,
        "total": 2424
      },
      {
        "club_badge_src": null,
        "entry": 2345314,
        "entry_name": "Mid Table Loungers",
        "event_total": 58,
        "has_played": true,
        "id": 16734688,
        "last_rank": 3150,
        "player_name": "Eamon Lyons",
        "rank": 3265,
        "rank_sort": 3280,
        "total": 2424
      },
      {
        "club_badge_src": null,
        "entry": 2570111,
        "entry_name": "Timo>Erling",
        "event_total": 67,
        "has_played": true,
        "id": 18440769,
        "last_rank": 3902,
        "player_name": "Levin Conrad",
        "rank": 3265,
        "rank_sort": 3281,
        "total": 2424
      },
      {
        "club_badge_src": null,
        "entry": 2605295,
        "entry_name": "What's Rob Holding",
        "event_total": 57,
        "has_played": true,
        "id": 18714198,
        "last_rank": 2977,
        "player_name": "Ollie Campbell",
        "rank": 3265,
        "rank_sort": 3282,
        "total": 2424
      },
      {
        "club_badge_src": "https://fantasy.premierleague.com/gcs/plfpl-production-adobe-approved/plfpl-production/2610561/7d02fead-a73b-4002-bca5-073c8030e312.png",
        "entry": 2610561,
        "entry_name": "DNBallon d'Or",
        "event_total": 59,
        "has_played": true,
        "id": 18755438,
        "last_rank": 3302,
        "player_name": "Christian Baars\u00f8e",
        "rank": 3265,
        "rank_sort": 3283,
        "total": 2424
      },
      {
        "club_badge_src": null,
        "entry": 2846063,
        "entry_name": "TheTrain",
        "event_total": 56,
        "has_played": true,
        "id": 20806389,
        "last_rank": 2870,
        "player_name": "Giorgos Yiasemis",
        "rank": 3265,
        "rank_sort": 3284,
        "total": 2424
      },
      {
        "club_badge_src": null,
        "entry": 3051058,
        "entry_name": "Hazardous Pedros",
        "event_total": 71,
        "has_played": true,
        "id": 22461167,
        "last_rank": 4742,
        "player_name": "Christian Elle",
        "rank": 3265,
        "rank_sort": 3285,
        "total": 2424
      },
      {
        "club_badge_src": null,
        "entry": 3243281,
        "entry_name": "Dii Tekha",
        "event_total": 68,
        "has_played": true,
        "id": 23991164,
        "last_rank": 5011,
        "player_name": "Conrad Barreto",
        "rank": 3265,
        "rank_sort": 3286,
        "total": 2424
      },
      {
        "club_badge_src": null,
        "entry": 3872029,
        "entry_name": "Mike Smalling",
        "event_total": 64,
        "has_played": true,
        "id": 29058273,
        "last_rank": 3391,
        "player_name": "Yasar Tanveer",
        "rank": 3265,
        "rank_sort": 3287,
        "total": 2424
      },
      {
        "club_badge_src": null,
        "entry": 4257574,
        "entry_name": "zamalek",
        "event_total": 63,
        "has_played": true,
        "id": 32278702,
        "last_rank": 3866,
        "player_name": "youssef yehia",
        "rank": 3265,
        "rank_sort": 3288,
        "total": 2424
      },
      {
        "club_badge_src": null,
        "entry": 5033030,
        "entry_name": "Bermuda Blue Army",
        "event_total": 42,
        "has_played": true,
        "id": 38873842,
        "last_rank": 1130,
        "player_name": "Jake Fisher",
        "rank": 3265,
        "rank_sort": 3289,
        "total": 2424
      },
      {
        "club_badge_src": null,
        "entry": 5048348,
        "entry_name": "Fee Fi Foden",
        "event_total": 69,
        "has_played": true,
        "id": 39003354,
        "last_rank": 4303,
        "player_name": "Jordan Fiddes",
        "rank": 3265,
        "rank_sort": 3290,
        "total": 2424
      },
      {
        "club_badge_src": "https://fantasy.premierleague.com/gcs/plfpl-production-adobe-approved/plfpl-production/5286292/8e84075c-c1bc-4399-9c89-c5f7b6812b7f.png",
        "entry": 5286292,
        "entry_name": "Rooney Toons",
        "event_total": 54,
        "has_played": true,
        "id": 40975254,
        "last_rank": 2588,
        "player_name": "Nervin Naidu",
        "rank": 3265,
        "rank_sort": 3291,
        "total": 2424
      },
      {
        "club_badge_src": null,
        "entry": 5369692,
        "entry_name": "MediumBeats",
        "event_total": 62,
        "has_played": true,
        "id": 41721655,
        "last_rank": 3103,
        "player_name": "Harri Ojala",
        "rank": 3265,
        "rank_sort": 3292,
        "total": 2424
      },
      {
        "club_badge_src": null,
        "entry": 6000701,
        "entry_name": "FC Alifan",
        "event_total": 52,
        "has_played": true,
        "id": 47304497,
        "last_rank": 2355,
        "player_name": "Ahmed Mufeed",
        "rank": 3265,
        "rank_sort": 3293,
        "total": 2424
      },
      {
        "club_badge_src": null,
        "entry": 6972516,
        "entry_name": "PathTheBall",
        "event_total": 63,
        "has_played": true,
        "id": 55934290,
        "last_rank": 3237,
        "player_name": "Keshen Pathmanathan",
        "rank": 3265,
        "rank_sort": 3294,
        "total": 2424
      },
      {
        "club_badge_src": null,
        "entry": 6990709,
        "entry_name": "Service Personnel",
        "event_total": 65,
        "has_played": true,
        "id": 56117357,
        "last_rank": 3562,
        "player_name": "Advance Borneo",
        "rank": 3265,
        "rank_sort": 3295,
        "total": 2424
      },
      {
        "club_badge_src": null,
        "entry": 7922459,
        "entry_name": "Buss Facers FC",
        "event_total": 78,
        "has_played": true,
        "id": 65190488,
        "last_rank": 7625,
        "player_name": "Lloyd Invests",
        "rank": 3265,
        "rank_sort": 3296,
        "total": 2424
      },
      {
        "club_badge_src": null,
        "entry": 67303,
        "entry_name": "Do Your Research",
        "event_total": 74,
        "has_played": true,
        "id": 435728,
        "last_rank": 5400,
        "player_name": "Leon Al Bakry",
        "rank": 3297,
        "rank_sort": 3297,
        "total": 2424
      },
      {
        "club_badge_src": null,
        "entry": 99841,
        "entry_name": "Ahmed khater",
        "event_total": 69,
        "has_played": true,
        "id": 651674,
        "last_rank": 5281,
        "player_name": "ahmed Adel khater",
        "rank": 3297,
        "rank_sort": 3298,
        "total": 2424
      },
      {
        "club_badge_src": "https://fantasy.premierleague.com/gcs/plfpl-production-adobe-approved/plfpl-production/132842/9042c7c2-a193-4c3a-a460-81ef144af2f5.png",
        "entry": 132842,
        "entry_name": "Yagi FC",
        "event_total": 61,
        "has_played": true,
        "id": 865286,
        "last_rank": 3601,
        "player_name": "Dheeraj Dudipala",
        "rank": 3297,
        "rank_sort": 3299,
        "total": 2424
      },
      {
        "club_badge_src": null,
        "entry": 208526,
        "entry_name": "Iwobi-Wan Kenobi Nil",
        "event_total": 73,
        "has_played": true,
        "id": 1386456,
        "last_rank": 5173,
        "player_name": "Tim Inman",
        "rank": 3297,
        "rank_sort": 3300,
        "total": 2424
      }
    ]
  }
}