{
  "last_updated_data": "2026-05-24T23:28:17Z",
  "league": {
    "admin_entry": null,
    "closed": false,
    "code_privacy": "p",
    "created": "2025-07-20T23:14:33.933835Z",
    "cup_league": 2815434,
    "has_cup": true,
    "id": 314,
    "league_type": "s",
    "max_entries": null,
    "name": "Overall",
    "rank": null,
    "scoring": "c",
    "start_event": 1
  },
  "new_entries": {
    "has_next": false,
    "page": 1,
    "results": []
  },
  "standings": {
    "has_next": true,
    "page": 766,
    "results": [
      {
        "club_badge_src": null,
        "entry": 14672,
        "entry_name": "Cunha Believe It",
        "event_total": 62,
        "has_played": true,
        "id": 89252,
        "last_rank": 44804,
        "player_name": "James Hook",
        "rank": 38249,
        "rank_sort": 38251,
        "total": 2361
      },
      {
        "club_badge_src": null,
        "entry": 26621,
        "entry_name": "Mouse XI",
        "event_total": 58,
        "has_played": true,
        "id": 168312,
        "last_rank": 39510,
        "player_name": "Evan Kelly",
        "rank": 38249,
        "rank_sort": 38252,
        "total": 2361
      },
      {
        "club_badge_src": null,
        "entry": 56228,
        "entry_name": "Jackson is the best",
        "event_total": 60,
        "has_played": true,
        "id": 362147,
        "last_rank": 32335,
        "player_name": "Cim Diesel",
        "rank": 38249,
        "rank_sort": 38253,
        "total": 2361
      },
      {
        "club_badge_src": "https://fantasy.premierleague.com/gcs/plfpl-production-adobe-approved/plfpl-production/64988/487597ce-7317-46f1-8dcb-d4e9dc8ac17f.png",
        "entry": 64988,
        "entry_name": "MY WAY OR DA SLY WAY",
        "event_total": 65,
        "has_played": true,
        "id": 419509,
        "last_rank": 49301,
        "player_name": "Krishan Shura",
        "rank": 38249,
        "rank_sort": 38254,
        "total": 2361
      },
      {
        "club_badge_src": null,
        "entry": 76315,
        "entry_name": "onedennisbergkamp",
        "event_total": 54,
        "has_played": true,
        "id": 496092,
        "last_rank": 34749,
        "player_name": "andy Lawrence",
        "rank": 38249,
        "rank_sort": 38255,
        "total": 2361
      },
      {
        "club_badge_src": null,
        "entry": 121689,
        "entry_name": "Jay Guyguy FC",
        "event_total": 65,
        "has_played": true,
        "id": 793974,
        "last_rank": 43444,
        "player_name": "jake Neequaye",
        "rank": 38249,
        "rank_sort": 38256,
        "total": 2361
      },
      {
        "club_badge_src": null,
        "entry": 133725,
        "entry_name": "Othmane's team",
        "event_total": 33,
        "has_played": true,
        "id": 870961,
        "last_rank": 16598,
        "player_name": "othmane tartouri",
        "rank": 38249,
        "rank_sort": 38257,
        "total": 2361
      },
      {
        "club_badge_src": null,
        "entry": 149969,
        "entry_name": "Final Fantasy XI",
        "event_total": 58,
        "has_played": true,
        "id": 983377,
        "last_rank": 39510,
        "player_name": "Zack Cole",
        "rank": 38249,
        "rank_sort": 38258,
        "total": 2361
      },
      {
        "club_badge_src": null,
        "entry": 178982,
        "entry_name": "Stay Humble, eh?",
        "event_total": 61,
        "has_played": true,
        "id": 1181155,
        "last_rank": 43444,
        "player_name": "Prince Yiadom",
        "rank": 38249,
        "rank_sort": 38259,
        "total": 2361
      },
      {
        "club_badge_src": null,
        "entry": 213580,
        "entry_name": "Slot Machines",
        "event_total": 53,
        "has_played": true,
        "id": 1420796,
        "last_rank": 33651,
        "player_name": "Craig Mac",
        "rank": 38249,
        "rank_sort": 38260,
        "total": 2361
      },
      {
        "club_badge_src": null,
        "entry": 271190,
        "entry_name": "i baleba can fly",
        "event_total": 57,
        "has_played": true,
        "id": 1804155,
        "last_rank": 29199,
        "player_name": "Ryan Dayhia",
        "rank": 38249,
        "rank_sort": 38261,
        "total": 2361
      },
      {
        "club_badge_src": "https://fantasy.premierleague.com/gcs/plfpl-production-adobe-approved/plfpl-production/273159/5e694bec-832b-42ec-9bff-6493a7fdeaf3.png",
        "entry": 273159,
        "entry_name": "Yarmage",
        "event_total": 59,
        "has_played": true,
        "id": 1817530,
        "last_rank": 31236,
        "player_name": "Ola Kingsley",
        "rank": 38249,
        "rank_sort": 38262,
        "total": 2361
      },
      {
        "club_badge_src": null,
        "entry": 290020,
        "entry_name": "WelshDragon",
        "event_total": 62,
        "has_played": true,
        "id": 1933592,
        "last_rank": 39510,
        "player_name": "Seamus McCarthy",
        "rank": 38249,
        "rank_sort": 38263,
        "total": 2361
      },
      {
        "club_badge_src": null,
        "entry": 502925,
        "entry_name": "Lads on Toure",
        "event_total": 63,
        "has_played": true,
        "id": 3375807,
        "last_rank": 46236,
        "player_name": "Josh Evans",
        "rank": 38249,
        "rank_sort": 38264,
        "total": 2361
      },
      {
        "club_badge_src": "https://fantasy.premierleague.com/gcs/plfpl-production-adobe-approved/plfpl-production/799288/7d14b041-5d76-4f58-ac23-909e1f710fdc.png",
        "entry": 799288,
        "entry_name": "Real Vicarious",
        "event_total": 62,
        "has_played": true,
        "id": 5470855,
        "last_rank": 34578,
        "player_name": "Richard Brownbill",
        "rank": 38249,
        "rank_sort": 38265,
        "total": 2361
      },
      {
        "club_badge_src": null,
        "entry": 890709,
        "entry_name": "Dynamo Dennolf",
        "event_total": 62,
        "has_played": true,
        "id": 6110838,
        "last_rank": 30060,
        "player_name": "Andreas Dennolf",
        "rank": 38249,
        "rank_sort": 38266,
        "total": 2361
      },
      {
        "club_badge_src": null,
        "entry": 902736,
        "entry_name": "Glas All Over",
        "event_total": 56,
        "has_played": true,
        "id": 6202828,
        "last_rank": 32437,
        "player_name": "David Taylor",
        "rank": 38249,
        "rank_sort": 38267,
        "total": 2361
      },
      {
        "club_badge_src": null,
        "entry": 921932,
        "entry_name": "Chicken Tika Taka",
        "event_total": 53,
        "has_played": true,
        "id": 6340522,
        "last_rank": 33651,
        "player_name": "Matt Banks",
        "rank": 38249,
        "rank_sort": 38268,
        "total": 2361
      },
      {
        "club_badge_src": null,
        "entry": 1034404,
        "entry_name": "Change Name",
        "event_total": 56,
        "has_played": true,
        "id": 7157794,
        "last_rank": 37134,
        "player_name": "Joel Kemp",
        "rank": 38249,
        "rank_sort": 38269,
        "total": 2361
      },
      {
        "club_badge_src": null,
        "entry": 1623790,
        "entry_name": "Sesko meal deal",
        "event_total": 52,
        "has_played": true,
        "id": 11365133,
        "last_rank": 32437,
        "player_name": "Lucas Pattinson",
        "rank": 38249,
        "rank_sort": 38270,
        "total": 2361
      },
      {
        "club_badge_src": null,
        "entry": 1727024,
        "entry_name": "Hacunha Mateta",
        "event_total": 61,
        "has_played": true,
        "id": 12111263,
        "last_rank": 43512,
        "player_name": "andy tuckey",
        "rank": 38249,
        "rank_sort": 38271,
        "total": 2361
      },
      {
        "club_badge_src": "https://fantasy.premierleague.com/gcs/plfpl-production-adobe-approved/plfpl-production/1946716/4a8901e9-8e4a-40c4-995c-a6da77822709.png",
        "entry": 1946716,
        "entry_name": "SHA**ZAM",
        "event_total": 65,
        "has_played": true,
        "id": 13731914,
        "last_rank": 38163,
        "player_name": "Bobby Maresca",
        "rank": 38249,
        "rank_sort": 38272,
        "total": 2361
      },
      {
        "club_badge_src": "https://fantasy.premierleague.com/gcs/plfpl-production-adobe-approved/plfpl-production/1987205/27d437b3-121d-4cad-a713-2949245ecef5.png",
        "entry": 1987205,
        "entry_name": "Ice in my Wirtz",
        "event_total": 65,
        "has_played": true,
        "id": 14037785,
        "last_rank": 43444,
        "player_name": "Sir Junco E",
        "rank": 38249,
        "rank_sort": 38273,
        "total": 2361
      },
      {
        "club_badge_src": "https://fantasy.premierleague.com/gcs/plfpl-production-adobe-approved/plfpl-production/2050475/87202ff5-59e4-4ca2-8ef6-b0d65e7e3eca.png",
        "entry": 2050475,
        "entry_name": "Irish Villans",
        "event_total": 69,
        "has_played": true,
        "id": 14523752,
        "last_rank": 55747,
        "player_name": "Cyril Kavanagh",
        "rank": 38249,
        "rank_sort": 38274,
        "total": 2361
      },
      {
        "club_badge_src": null,
        "entry": 2081069,
        "entry_name": "A.Albeiruti",
        "event_total": 63,
        "has_played": true,
        "id": 14757344,
        "last_rank": 40770,
        "player_name": "Abdulrahman Albeiruti",
        "rank": 38249,
        "rank_sort": 38275,
        "total": 2361
      },
      {
        "club_badge_src": null,
        "entry": 2343964,
        "entry_name": "Libero FC",
        "event_total": 55,
        "has_played": true,
        "id": 16724996,
        "last_rank": 35969,
        "player_name": "Walid El Omari",
        "rank": 38249,
        "rank_sort": 38276,
        "total": 2361
      },
      {
        "club_badge_src": null,
        "entry": 2408596,
        "entry_name": "Superderbysuperrams",
        "event_total": 58,
        "has_played": true,
        "id": 17216455,
        "last_rank": 39585,
        "player_name": "geoff pritchard",
        "rank": 38249,
        "rank_sort": 38277,
        "total": 2361
      },
      {
        "club_badge_src": null,
        "entry": 2915075,
        "entry_name": "Real Hancock",
        "event_total": 66,
        "has_played": true,
        "id": 21366785,
        "last_rank": 44804,
        "player_name": "Patrick Dyar",
        "rank": 38249,
        "rank_sort": 38278,
        "total": 2361
      },
      {
        "club_badge_src": null,
        "entry": 3033049,
        "entry_name": "WYDAD.AC",
        "event_total": 71,
        "has_played": true,
        "id": 22320228,
        "last_rank": 59077,
        "player_name": "zakaria zouhair",
        "rank": 38249,
        "rank_sort": 38279,
        "total": 2361
      },
      {
        "club_badge_src": null,
        "entry": 3127545,
        "entry_name": "VV bb",
        "event_total": 72,
        "has_played": true,
        "id": 23082275,
        "last_rank": 53837,
        "player_name": "Harvey Wong",
        "rank": 38249,
        "rank_sort": 38280,
        "total": 2361
      },
      {
        "club_badge_src": null,
        "entry": 3210036,
        "entry_name": "Rudari",
        "event_total": 69,
        "has_played": true,
        "id": 23732488,
        "last_rank": 55812,
        "player_name": "nenad kerosevic",
        "rank": 38249,
        "rank_sort": 38281,
        "total": 2361
      },
      {
        "club_badge_src": "https://fantasy.premierleague.com/gcs/plfpl-production-adobe-approved/plfpl-production/3495987/7124de24-d200-4f3d-94ac-82c8eb3b71c0.png",
        "entry": 3495987,
        "entry_name": "Nerazzurri",
        "event_total": 59,
        "has_played": true,
        "id": 26003845,
        "last_rank": 31125,
        "player_name": "Yakir Hanoch",
        "rank": 38249,
        "rank_sort": 38282,
        "total": 2361
      },
      {
        "club_badge_src": "https://fantasy.premierleague.com/gcs/plfpl-production-adobe-approved/plfpl-production/3587793/f6203426-ccbd-45a0-af57-2ba5454063b3.png",
        "entry": 3587793,
        "entry_name": "\u0634\u0628\u0627\u0628 \u0642\u0633\u0646\u0637\u064a\u0646\u0629",
        "event_total": 50,
        "has_played": true,
        "id": 26719266,
        "last_rank": 30361,
        "player_name": "\u0645\u0631\u0648\u0627\u0646 \u062e\u064a\u0627\u0644",
        "rank": 38249,
        "rank_sort": 38283,
        "total": 2361
      },
      {
        "club_badge_src": null,
        "entry": 3614323,
        "entry_name": "toffeebabies",
        "event_total": 63,
        "has_played": true,
        "id": 26926131,
        "last_rank": 46236,
        "player_name": "Mark Cockburn",
        "rank": 38249,
        "rank_sort": 38284,
        "total": 2361
      },
      {
        "club_badge_src": null,
        "entry": 4202693,
        "entry_name": "Arianara",
        "event_total": 60,
        "has_played": true,
        "id": 31814128,
        "last_rank": 42152,
        "player_name": "Chris Hasiotis",
        "rank": 38249,
        "rank_sort": 38285,
        "total": 2361
      },
      {
        "club_badge_src": null,
        "entry": 4894100,
        "entry_name": "\u0642\u0648\u0629 \u0634\u062e\u0635\u064a\u062a\u0648\u0648",
        "event_total": 57,
        "has_played": true,
        "id": 37735416,
        "last_rank": 38340,
        "player_name": "abo ameen",
        "rank": 38249,
        "rank_sort": 38286,
        "total": 2361
      },
      {
        "club_badge_src": null,
        "entry": 5117448,
        "entry_name": "Tongwtp",
        "event_total": 61,
        "has_played": true,
        "id": 39565172,
        "last_rank": 38267,
        "player_name": "Wuttipong Lertwuttiwiwat",
        "rank": 38249,
        "rank_sort": 38287,
        "total": 2361
      },
      {
        "club_badge_src": null,
        "entry": 5211041,
        "entry_name": "Mahon's XI",
        "event_total": 49,
        "has_played": true,
        "id": 40363759,
        "last_rank": 25436,
        "player_name": "Ben Mahon",
        "rank": 38249,
        "rank_sort": 38288,
        "total": 2361
      },
      {
        "club_badge_src": null,
        "entry": 5359060,
        "entry_name": "Malibu Barbie",
        "event_total": 48,
        "has_played": true,
        "id": 41618632,
        "last_rank": 21301,
        "player_name": "Filip Melka",
        "rank": 38249,
        "rank_sort": 38289,
        "total": 2361
      },
      {
        "club_badge_src": null,
        "entry": 5584977,
        "entry_name": "Me vs A.I",
        "event_total": 61,
        "has_played": true,
        "id": 43625137,
        "last_rank": 43512,
        "player_name": "vishal polkam",
        "rank": 38249,
        "rank_sort": 38290,
        "total": 2361
      },
      {
        "club_badge_src": null,
        "entry": 7471123,
        "entry_name": "Etakita",
        "event_total": 62,
        "has_played": true,
        "id": 60910299,
        "last_rank": 39510,
        "player_name": "Sanwar Chowdhury",
        "rank": 38249,
        "rank_sort": 38291,
        "total": 2361
      },
      {
        "club_badge_src": null,
        "entry": 8557787,
        "entry_name": "Mohamed sami saleh",
        "event_total": 58,
        "has_played": true,
        "id": 71194049,
        "last_rank": 34682,
        "player_name": "Mohamed Saleh",
        "rank": 38249,
        "rank_sort": 38292,
        "total": 2361
      },
      {
        "club_badge_src": null,
        "entry": 6128,
        "entry_name": "It\u2019s Ebou\u2019tiful Day",
        "event_total": 72,
        "has_played": true,
        "id": 35083,
        "last_rank": 60933,
        "player_name": "Ryan McWilliam",
        "rank": 38293,
        "rank_sort": 38293,
        "total": 2361
      },
      {
        "club_badge_src": "https://fantasy.premierleague.com/gcs/plfpl-production-adobe-approved/plfpl-production/19042/d17ab435-3dc6-4591-bd4c-6355876e5d80.png",
        "entry": 19042,
        "entry_name": "KATAGURUMA_124261345",
        "event_total": 58,
        "has_played": true,
        "id": 118506,
        "last_rank": 39650,
        "player_name": "J\u00fanior Silva",
        "rank": 38293,
        "rank_sort": 38294,
        "total": 2361
      },
      {
        "club_badge_src": null,
        "entry": 25604,
        "entry_name": "tuna trat",
        "event_total": 45,
        "has_played": true,
        "id": 161956,
        "last_rank": 22263,
        "player_name": "\u0e40\u0e01\u0e35\u0e22\u0e23\u0e15\u0e34\u0e4c\u0e01\u0e49\u0e2d\u0e07 \u0e04\u0e4d\u0e32\u0e1b\u0e25\u0e34\u0e27",
        "rank": 38293,
        "rank_sort": 38295,
        "total": 2361
      },
      {
        "club_badge_src": null,
        "entry": 77570,
        "entry_name": "Eze Come Eze Go",
        "event_total": 77,
        "has_played": true,
        "id": 504202,
        "last_rank": 70072,
        "player_name": "Darragh McGrath",
        "rank": 38293,
        "rank_sort": 38296,
        "total": 2361
      },
      {
        "club_badge_src": null,
        "entry": 123192,
        "entry_name": "Wirtz Case Scenario",
        "event_total": 72,
        "has_played": true,
        "id": 803568,
        "last_rank": 53952,
        "player_name": "Jitesh Kadam",
        "rank": 38293,
        "rank_sort": 38297,
        "total": 2361
      },
      {
        "club_badge_src": null,
        "entry": 152543,
        "entry_name": "Noni to be upset",
        "event_total": 63,
        "has_played": true,
        "id": 1001252,
        "last_rank": 40832,
        "player_name": "Roger Charles",
        "rank": 38293,
        "rank_sort": 38298,
        "total": 2361
      },
      {
        "club_badge_src": "https://fantasy.premierleague.com/gcs/plfpl-production-adobe-approved/plfpl-production/181364/e322c8f0-dad0-469a-8b9b-8e162644bc7d.png",
        "entry": 181364,
        "entry_name": "Salahvation Army",
        "event_total": 68,
        "has_played": true,
        "id": 1196835,
        "last_rank": 47812,
        "player_name": "Jonathan Flavell",
        "rank": 38293,
        "rank_sort": 38299,
        "total": 2361
      },
      {
        "club_badge_src": "https://fantasy.premierleague.com/gcs/plfpl-production-adobe-approved/plfpl-production/214456/4d90747f-7d64-43fa-a962-590f139afc40.png",
        "entry": 214456,
        "entry_name": "BIG MO",
        "event_total": 54,
        "has_played": true,
        "id": 1426620,
        "last_rank": 26425,
        "player_name": "Mohamed Mousa",
        "rank": 38293,
        "rank_sort": 38300,
        "total": 2361
      }
    ]
  }
}