{
  "last_updated_data": "2026-05-24T23:28:17Z",
  "league": {
    "admin_entry": null,
    "closed": false,
    "code_privacy": "p",
    "created": "2025-07-20T23:14:33.933835Z",
    "cup_league": 2815434,
    "has_cup": true,
    "id": 314,
    "league_type": "s",
    "max_entries": null,
    "name": "Overall",
    "rank": null,
    "scoring": "c",
    "start_event": 1
  },
  "new_entries": {
    "has_next": false,
    "page": 1,
    "results": []
  },
  "standings": {
    "has_next": true,
    "page": 1543,
    "results": [
      {
        "club_badge_src": null,
        "entry": 3753572,
        "entry_name": "Beer Sheva Empire",
        "event_total": 58,
        "has_played": true,
        "id": 28024459,
        "last_rank": 80651,
        "player_name": "Naor Simhon",
        "rank": 77015,
        "rank_sort": 77101,
        "total": 2337
      },
      {
        "club_badge_src": null,
        "entry": 3838243,
        "entry_name": "\u062d\u0633\u0627\u0645 \u062b\u0627\u0628\u062a",
        "event_total": 72,
        "has_played": true,
        "id": 28733981,
        "last_rank": 116216,
        "player_name": "houcem gassoumi",
        "rank": 77015,
        "rank_sort": 77102,
        "total": 2337
      },
      {
        "club_badge_src": null,
        "entry": 3928409,
        "entry_name": "Zubi Doo",
        "event_total": 54,
        "has_played": true,
        "id": 29544354,
        "last_rank": 72265,
        "player_name": "Stephen Edwards",
        "rank": 77015,
        "rank_sort": 77103,
        "total": 2337
      },
      {
        "club_badge_src": null,
        "entry": 4126441,
        "entry_name": "MHalliday92",
        "event_total": 52,
        "has_played": true,
        "id": 31180196,
        "last_rank": 60827,
        "player_name": "Murray Halliday",
        "rank": 77015,
        "rank_sort": 77104,
        "total": 2337
      },
      {
        "club_badge_src": null,
        "entry": 4190912,
        "entry_name": "Wizard of dribble",
        "event_total": 47,
        "has_played": true,
        "id": 31713406,
        "last_rank": 52357,
        "player_name": "craig whitaker",
        "rank": 77015,
        "rank_sort": 77105,
        "total": 2337
      },
      {
        "club_badge_src": null,
        "entry": 4194572,
        "entry_name": "Blaugrana",
        "event_total": 54,
        "has_played": true,
        "id": 31746388,
        "last_rank": 72145,
        "player_name": "Mohamed enein",
        "rank": 77015,
        "rank_sort": 77106,
        "total": 2337
      },
      {
        "club_badge_src": "https://fantasy.premierleague.com/gcs/plfpl-production-adobe-approved/plfpl-production/4217341/8418de9f-04a4-4101-b031-b56dedd370a2.png",
        "entry": 4217341,
        "entry_name": "Whitestones FC",
        "event_total": 59,
        "has_played": true,
        "id": 31940153,
        "last_rank": 74166,
        "player_name": "Espen Hvidsten",
        "rank": 77015,
        "rank_sort": 77107,
        "total": 2337
      },
      {
        "club_badge_src": null,
        "entry": 4240776,
        "entry_name": "FC Bayern M Boom boo",
        "event_total": 60,
        "has_played": true,
        "id": 32140481,
        "last_rank": 85349,
        "player_name": "Damian McCann",
        "rank": 77015,
        "rank_sort": 77108,
        "total": 2337
      },
      {
        "club_badge_src": null,
        "entry": 4257646,
        "entry_name": "Wirtz Nightmare",
        "event_total": 60,
        "has_played": true,
        "id": 32279271,
        "last_rank": 85349,
        "player_name": "Craig Biggerstaff",
        "rank": 77015,
        "rank_sort": 77109,
        "total": 2337
      },
      {
        "club_badge_src": null,
        "entry": 4267971,
        "entry_name": "Give Me Back My Son",
        "event_total": 55,
        "has_played": true,
        "id": 32363412,
        "last_rank": 74317,
        "player_name": "Kellen Mossner",
        "rank": 77015,
        "rank_sort": 77110,
        "total": 2337
      },
      {
        "club_badge_src": null,
        "entry": 4298511,
        "entry_name": "turd burglers fc",
        "event_total": 63,
        "has_played": true,
        "id": 32610260,
        "last_rank": 92471,
        "player_name": "Lee Prescot",
        "rank": 77015,
        "rank_sort": 77111,
        "total": 2337
      },
      {
        "club_badge_src": null,
        "entry": 4365581,
        "entry_name": "Albus Dumbledore XI",
        "event_total": 64,
        "has_played": true,
        "id": 33161836,
        "last_rank": 85207,
        "player_name": "Mehdi Bapst",
        "rank": 77015,
        "rank_sort": 77112,
        "total": 2337
      },
      {
        "club_badge_src": null,
        "entry": 4516728,
        "entry_name": "Seaside Steve",
        "event_total": 76,
        "has_played": true,
        "id": 34443591,
        "last_rank": 115760,
        "player_name": "Steve Connaughton",
        "rank": 77015,
        "rank_sort": 77113,
        "total": 2337
      },
      {
        "club_badge_src": null,
        "entry": 4644946,
        "entry_name": "Net six and Chill",
        "event_total": 57,
        "has_played": true,
        "id": 35531182,
        "last_rank": 69907,
        "player_name": "Andy K",
        "rank": 77015,
        "rank_sort": 77114,
        "total": 2337
      },
      {
        "club_badge_src": null,
        "entry": 4747166,
        "entry_name": "HMS PISZC THE LEAGUE",
        "event_total": 38,
        "has_played": true,
        "id": 36527498,
        "last_rank": 44950,
        "player_name": "Jono Waters",
        "rank": 77015,
        "rank_sort": 77115,
        "total": 2337
      },
      {
        "club_badge_src": null,
        "entry": 4860696,
        "entry_name": "Ha Cunha Mateta",
        "event_total": 49,
        "has_played": true,
        "id": 37458131,
        "last_rank": 62724,
        "player_name": "Brian Toyi",
        "rank": 77015,
        "rank_sort": 77116,
        "total": 2337
      },
      {
        "club_badge_src": null,
        "entry": 5107639,
        "entry_name": "TamerFC",
        "event_total": 64,
        "has_played": true,
        "id": 39482474,
        "last_rank": 94933,
        "player_name": "tamer ahmed",
        "rank": 77015,
        "rank_sort": 77117,
        "total": 2337
      },
      {
        "club_badge_src": "https://fantasy.premierleague.com/gcs/plfpl-production-adobe-approved/plfpl-production/5110647/df4856da-99ca-40c7-93b6-dc584b0ee5eb.png",
        "entry": 5110647,
        "entry_name": "Captain Arv FC",
        "event_total": 91,
        "has_played": true,
        "id": 39507840,
        "last_rank": 165345,
        "player_name": "Arvenesh MUFC",
        "rank": 77015,
        "rank_sort": 77118,
        "total": 2337
      },
      {
        "club_badge_src": null,
        "entry": 5111472,
        "entry_name": "WinningTeam1.0",
        "event_total": 56,
        "has_played": true,
        "id": 39515205,
        "last_rank": 76474,
        "player_name": "Chua Hao",
        "rank": 77015,
        "rank_sort": 77119,
        "total": 2337
      },
      {
        "club_badge_src": "https://fantasy.premierleague.com/gcs/plfpl-production-adobe-approved/plfpl-production/5173688/019c098f-2423-4f47-adbc-954225b87f3a.png",
        "entry": 5173688,
        "entry_name": "3mk Zezo yalla",
        "event_total": 38,
        "has_played": true,
        "id": 40043400,
        "last_rank": 44882,
        "player_name": "Abdelazez Elameer",
        "rank": 77015,
        "rank_sort": 77120,
        "total": 2337
      },
      {
        "club_badge_src": null,
        "entry": 5463659,
        "entry_name": "Devennything Goes",
        "event_total": 75,
        "has_played": true,
        "id": 42521728,
        "last_rank": 125135,
        "player_name": "Robert Black",
        "rank": 77015,
        "rank_sort": 77121,
        "total": 2337
      },
      {
        "club_badge_src": null,
        "entry": 5615225,
        "entry_name": "Pain in Diaz",
        "event_total": 67,
        "has_played": true,
        "id": 43888918,
        "last_rank": 102125,
        "player_name": "Adnaan Pandor",
        "rank": 77015,
        "rank_sort": 77122,
        "total": 2337
      },
      {
        "club_badge_src": "https://fantasy.premierleague.com/gcs/plfpl-production-adobe-approved/plfpl-production/5840937/a4bc6c45-11b2-4387-b591-7189c6c51e13.png",
        "entry": 5840937,
        "entry_name": "RAMPAGE FC",
        "event_total": 60,
        "has_played": true,
        "id": 45850657,
        "last_rank": 85349,
        "player_name": "Nicholas George",
        "rank": 77015,
        "rank_sort": 77123,
        "total": 2337
      },
      {
        "club_badge_src": null,
        "entry": 6026226,
        "entry_name": "JASK_BLASK",
        "event_total": 70,
        "has_played": true,
        "id": 47532249,
        "last_rank": 110416,
        "player_name": "Pavel Bahachou",
        "rank": 77015,
        "rank_sort": 77124,
        "total": 2337
      },
      {
        "club_badge_src": null,
        "entry": 6044402,
        "entry_name": "lozzas lads",
        "event_total": 69,
        "has_played": true,
        "id": 47690973,
        "last_rank": 107702,
        "player_name": "Laurie Carter",
        "rank": 77015,
        "rank_sort": 77125,
        "total": 2337
      },
      {
        "club_badge_src": null,
        "entry": 6076672,
        "entry_name": "Cold Palmer",
        "event_total": 71,
        "has_played": true,
        "id": 47972964,
        "last_rank": 73423,
        "player_name": "Cole Palmer",
        "rank": 77015,
        "rank_sort": 77126,
        "total": 2337
      },
      {
        "club_badge_src": null,
        "entry": 6079158,
        "entry_name": "Slappy Gilmore",
        "event_total": 54,
        "has_played": true,
        "id": 47994992,
        "last_rank": 72265,
        "player_name": "Brett Yearsley",
        "rank": 77015,
        "rank_sort": 77127,
        "total": 2337
      },
      {
        "club_badge_src": null,
        "entry": 6216699,
        "entry_name": "\u0280\u1d07\u1d20\u1d1c\u1d07\u029f\u1d1b\u1d0f\u00ae",
        "event_total": 75,
        "has_played": true,
        "id": 49188099,
        "last_rank": 112960,
        "player_name": "Akira Nakai",
        "rank": 77015,
        "rank_sort": 77128,
        "total": 2337
      },
      {
        "club_badge_src": null,
        "entry": 6338430,
        "entry_name": "I'll change it later",
        "event_total": 54,
        "has_played": true,
        "id": 50378383,
        "last_rank": 72265,
        "player_name": "Ross A.",
        "rank": 77015,
        "rank_sort": 77129,
        "total": 2337
      },
      {
        "club_badge_src": null,
        "entry": 6448002,
        "entry_name": "AFC BAZ",
        "event_total": 57,
        "has_played": true,
        "id": 51344839,
        "last_rank": 78575,
        "player_name": "Barry Mason",
        "rank": 77015,
        "rank_sort": 77130,
        "total": 2337
      },
      {
        "club_badge_src": null,
        "entry": 6557426,
        "entry_name": "FantasyFabulous",
        "event_total": 44,
        "has_played": true,
        "id": 52333049,
        "last_rank": 54065,
        "player_name": "Marie Nj\u00e6rheim",
        "rank": 77015,
        "rank_sort": 77131,
        "total": 2337
      },
      {
        "club_badge_src": null,
        "entry": 7021944,
        "entry_name": "Gaffa's XI",
        "event_total": 54,
        "has_played": true,
        "id": 56405799,
        "last_rank": 72265,
        "player_name": "Matthew Duncan",
        "rank": 77015,
        "rank_sort": 77132,
        "total": 2337
      },
      {
        "club_badge_src": null,
        "entry": 7141680,
        "entry_name": "Juara Season 25/26",
        "event_total": 71,
        "has_played": true,
        "id": 57570576,
        "last_rank": 101818,
        "player_name": "Jay 29",
        "rank": 77015,
        "rank_sort": 77133,
        "total": 2337
      },
      {
        "club_badge_src": null,
        "entry": 7733265,
        "entry_name": "EnzothermicRayaction",
        "event_total": 44,
        "has_played": true,
        "id": 63470526,
        "last_rank": 54065,
        "player_name": "Rehaan Edavalath",
        "rank": 77015,
        "rank_sort": 77134,
        "total": 2337
      },
      {
        "club_badge_src": null,
        "entry": 8397839,
        "entry_name": "Change Name",
        "event_total": 52,
        "has_played": true,
        "id": 69658151,
        "last_rank": 68216,
        "player_name": "John Hawkes",
        "rank": 77015,
        "rank_sort": 77135,
        "total": 2337
      },
      {
        "club_badge_src": null,
        "entry": 8674504,
        "entry_name": "CTRL ALT DE LIGT",
        "event_total": 64,
        "has_played": true,
        "id": 72330488,
        "last_rank": 85207,
        "player_name": "Ivan Lovric",
        "rank": 77015,
        "rank_sort": 77136,
        "total": 2337
      },
      {
        "club_badge_src": null,
        "entry": 9196853,
        "entry_name": "~inactive~390",
        "event_total": 65,
        "has_played": true,
        "id": 77402888,
        "last_rank": 97470,
        "player_name": "Raghav Bir Singh",
        "rank": 77015,
        "rank_sort": 77137,
        "total": 2337
      },
      {
        "club_badge_src": null,
        "entry": 9275568,
        "entry_name": "BellingHAM EGG&CHIPS",
        "event_total": 32,
        "has_played": true,
        "id": 78173240,
        "last_rank": 37058,
        "player_name": "Jack France",
        "rank": 77015,
        "rank_sort": 77138,
        "total": 2337
      },
      {
        "club_badge_src": null,
        "entry": 9458479,
        "entry_name": "Jujurella",
        "event_total": 68,
        "has_played": true,
        "id": 79926966,
        "last_rank": 84980,
        "player_name": "Julia Reading",
        "rank": 77015,
        "rank_sort": 77139,
        "total": 2337
      },
      {
        "club_badge_src": null,
        "entry": 1101,
        "entry_name": "Eze Lads",
        "event_total": 54,
        "has_played": true,
        "id": 6111,
        "last_rank": 57358,
        "player_name": "Manan Chipper",
        "rank": 77140,
        "rank_sort": 77140,
        "total": 2337
      },
      {
        "club_badge_src": null,
        "entry": 7350,
        "entry_name": "Earth Wind & Maguire",
        "event_total": 61,
        "has_played": true,
        "id": 42354,
        "last_rank": 87808,
        "player_name": "Joshua Raynard",
        "rank": 77140,
        "rank_sort": 77141,
        "total": 2337
      },
      {
        "club_badge_src": "https://fantasy.premierleague.com/gcs/plfpl-production-adobe-approved/plfpl-production/21038/d2d60de2-cfbf-4655-949e-e6b564066387.png",
        "entry": 21038,
        "entry_name": "Golden Wanderers",
        "event_total": 66,
        "has_played": true,
        "id": 131823,
        "last_rank": 89897,
        "player_name": "Mike Parsons",
        "rank": 77140,
        "rank_sort": 77142,
        "total": 2337
      },
      {
        "club_badge_src": "https://fantasy.premierleague.com/gcs/plfpl-production-adobe-approved/plfpl-production/21815/3a0d08a0-66f2-460d-9d4a-c310388cc472.png",
        "entry": 21815,
        "entry_name": "Phoenix Rising FC",
        "event_total": 51,
        "has_played": true,
        "id": 136842,
        "last_rank": 52205,
        "player_name": "Andrew Furnell",
        "rank": 77140,
        "rank_sort": 77143,
        "total": 2337
      },
      {
        "club_badge_src": null,
        "entry": 34689,
        "entry_name": "wallah madre",
        "event_total": 41,
        "has_played": true,
        "id": 221717,
        "last_rank": 43512,
        "player_name": "bu sanad",
        "rank": 77140,
        "rank_sort": 77144,
        "total": 2337
      },
      {
        "club_badge_src": null,
        "entry": 42613,
        "entry_name": "Kinder Mbeumo",
        "event_total": 44,
        "has_played": true,
        "id": 273007,
        "last_rank": 47812,
        "player_name": "Daniel Bendall",
        "rank": 77140,
        "rank_sort": 77145,
        "total": 2337
      },
      {
        "club_badge_src": null,
        "entry": 43270,
        "entry_name": "Wirtz team evra",
        "event_total": 66,
        "has_played": true,
        "id": 277075,
        "last_rank": 100092,
        "player_name": "Ehren Smith",
        "rank": 77140,
        "rank_sort": 77146,
        "total": 2337
      },
      {
        "club_badge_src": null,
        "entry": 55484,
        "entry_name": "Foox in Boox",
        "event_total": 57,
        "has_played": true,
        "id": 357198,
        "last_rank": 78671,
        "player_name": "Ryan Fox",
        "rank": 77140,
        "rank_sort": 77147,
        "total": 2337
      },
      {
        "club_badge_src": "https://fantasy.premierleague.com/gcs/plfpl-production-adobe-approved/plfpl-production/83976/8f5191f8-6a6a-4761-8ba0-eb82efa5e64d.png",
        "entry": 83976,
        "entry_name": "T@",
        "event_total": 64,
        "has_played": true,
        "id": 546653,
        "last_rank": 85349,
        "player_name": "Phan T-",
        "rank": 77140,
        "rank_sort": 77148,
        "total": 2337
      },
      {
        "club_badge_src": null,
        "entry": 110039,
        "entry_name": "Stubbarna",
        "event_total": 64,
        "has_played": true,
        "id": 717572,
        "last_rank": 85349,
        "player_name": "Joel Lundberg",
        "rank": 77140,
        "rank_sort": 77149,
        "total": 2337
      },
      {
        "club_badge_src": "https://fantasy.premierleague.com/gcs/plfpl-production-adobe-approved/plfpl-production/112471/a3a97b29-5f8e-47ea-a969-a8e948ca59f4.png",
        "entry": 112471,
        "entry_name": "Bacuna Mateta",
        "event_total": 58,
        "has_played": true,
        "id": 733333,
        "last_rank": 72265,
        "player_name": "Ian Mitchell",
        "rank": 77140,
        "rank_sort": 77150,
        "total": 2337
      }
    ]
  }
}