{
  "last_updated_data": "2026-05-24T23:28:17Z",
  "league": {
    "admin_entry": null,
    "closed": false,
    "code_privacy": "p",
    "created": "2025-07-20T23:14:33.933835Z",
    "cup_league": 2815434,
    "has_cup": true,
    "id": 314,
    "league_type": "s",
    "max_entries": null,
    "name": "Overall",
    "rank": null,
    "scoring": "c",
    "start_event": 1
  },
  "new_entries": {
    "has_next": false,
    "page": 1,
    "results": []
  },
  "standings": {
    "has_next": true,
    "page": 453,
    "results": [
      {
        "club_badge_src": null,
        "entry": 1388466,
        "entry_name": "Surreal Madrid",
        "event_total": 53,
        "has_played": true,
        "id": 9657996,
        "last_rank": 19176,
        "player_name": "Tom Rose",
        "rank": 22568,
        "rank_sort": 22601,
        "total": 2377
      },
      {
        "club_badge_src": null,
        "entry": 1676414,
        "entry_name": "Teddys Heroes",
        "event_total": 66,
        "has_played": true,
        "id": 11736563,
        "last_rank": 30060,
        "player_name": "reuben coghlan",
        "rank": 22568,
        "rank_sort": 22602,
        "total": 2377
      },
      {
        "club_badge_src": "https://fantasy.premierleague.com/gcs/plfpl-production-adobe-approved/plfpl-production/1694350/50dea7bd-3827-46cf-9e80-6cc52bbe0caa.png",
        "entry": 1694350,
        "entry_name": "Kinder Mbeumo",
        "event_total": 67,
        "has_played": true,
        "id": 11866930,
        "last_rank": 31309,
        "player_name": "Luke Collins",
        "rank": 22568,
        "rank_sort": 22603,
        "total": 2377
      },
      {
        "club_badge_src": "https://fantasy.premierleague.com/gcs/plfpl-production-adobe-approved/plfpl-production/2682044/88f51b85-78c2-425d-b690-048486dc06c7.png",
        "entry": 2682044,
        "entry_name": "King Harry",
        "event_total": 72,
        "has_played": true,
        "id": 19289629,
        "last_rank": 36624,
        "player_name": "Greg Papadopoulos",
        "rank": 22568,
        "rank_sort": 22604,
        "total": 2377
      },
      {
        "club_badge_src": null,
        "entry": 2812242,
        "entry_name": "NilsiNils FC",
        "event_total": 57,
        "has_played": true,
        "id": 20540406,
        "last_rank": 19176,
        "player_name": "Mads Nilsen",
        "rank": 22568,
        "rank_sort": 22605,
        "total": 2377
      },
      {
        "club_badge_src": "https://fantasy.premierleague.com/gcs/plfpl-production-adobe-approved/plfpl-production/2958186/6e241f2b-67bf-4fb1-b526-8f64ad6d1189.png",
        "entry": 2958186,
        "entry_name": "NdiayeAnotherDay",
        "event_total": 64,
        "has_played": true,
        "id": 21728322,
        "last_rank": 21301,
        "player_name": "Tom Manktelow",
        "rank": 22568,
        "rank_sort": 22606,
        "total": 2377
      },
      {
        "club_badge_src": null,
        "entry": 3260440,
        "entry_name": "Morgan sniffs -white",
        "event_total": 75,
        "has_played": true,
        "id": 24125251,
        "last_rank": 35768,
        "player_name": "Ben Wittering",
        "rank": 22568,
        "rank_sort": 22607,
        "total": 2377
      },
      {
        "club_badge_src": null,
        "entry": 3621039,
        "entry_name": "HayeseyFantasey",
        "event_total": 71,
        "has_played": true,
        "id": 26978680,
        "last_rank": 31236,
        "player_name": "Martin Hayes",
        "rank": 22568,
        "rank_sort": 22608,
        "total": 2377
      },
      {
        "club_badge_src": "https://fantasy.premierleague.com/gcs/plfpl-production-adobe-approved/plfpl-production/3931762/0ee4bfb8-9a3b-45b9-bfce-69618d0f839c.png",
        "entry": 3931762,
        "entry_name": "Humm\u2019s the Word",
        "event_total": 63,
        "has_played": true,
        "id": 29571098,
        "last_rank": 23748,
        "player_name": "Connor Humm",
        "rank": 22568,
        "rank_sort": 22609,
        "total": 2377
      },
      {
        "club_badge_src": null,
        "entry": 4411765,
        "entry_name": "Che Adam",
        "event_total": 64,
        "has_played": true,
        "id": 33560918,
        "last_rank": 24570,
        "player_name": "Alex Takami",
        "rank": 22568,
        "rank_sort": 22610,
        "total": 2377
      },
      {
        "club_badge_src": null,
        "entry": 4795033,
        "entry_name": "Cunha Mateta",
        "event_total": 57,
        "has_played": true,
        "id": 36916746,
        "last_rank": 22216,
        "player_name": "Ferdia Breathnach",
        "rank": 22568,
        "rank_sort": 22611,
        "total": 2377
      },
      {
        "club_badge_src": null,
        "entry": 5034910,
        "entry_name": "Stay on your feet",
        "event_total": 64,
        "has_played": true,
        "id": 38888995,
        "last_rank": 24570,
        "player_name": "Michael McMorran",
        "rank": 22568,
        "rank_sort": 22612,
        "total": 2377
      },
      {
        "club_badge_src": null,
        "entry": 5210240,
        "entry_name": "Momo",
        "event_total": 61,
        "has_played": true,
        "id": 40357082,
        "last_rank": 18790,
        "player_name": "Momo Yahia",
        "rank": 22568,
        "rank_sort": 22613,
        "total": 2377
      },
      {
        "club_badge_src": null,
        "entry": 5390278,
        "entry_name": "Drank One Tchouameni",
        "event_total": 63,
        "has_played": true,
        "id": 41906131,
        "last_rank": 23656,
        "player_name": "Gary Grehan",
        "rank": 22568,
        "rank_sort": 22614,
        "total": 2377
      },
      {
        "club_badge_src": null,
        "entry": 5414013,
        "entry_name": "Ctrl Alt De Ligt",
        "event_total": 84,
        "has_played": true,
        "id": 42103235,
        "last_rank": 53345,
        "player_name": "Josh Wood",
        "rank": 22568,
        "rank_sort": 22615,
        "total": 2377
      },
      {
        "club_badge_src": null,
        "entry": 5433714,
        "entry_name": "Bangaverage FC",
        "event_total": 60,
        "has_played": true,
        "id": 42268259,
        "last_rank": 24636,
        "player_name": "Max Uttley",
        "rank": 22568,
        "rank_sort": 22616,
        "total": 2377
      },
      {
        "club_badge_src": null,
        "entry": 5918581,
        "entry_name": "Imchen Strikers",
        "event_total": 64,
        "has_played": true,
        "id": 46516999,
        "last_rank": 28348,
        "player_name": "Meren Chemba",
        "rank": 22568,
        "rank_sort": 22617,
        "total": 2377
      },
      {
        "club_badge_src": null,
        "entry": 5924375,
        "entry_name": "rapi3",
        "event_total": 61,
        "has_played": true,
        "id": 46568444,
        "last_rank": 25517,
        "player_name": "Mohamed Rabea",
        "rank": 22568,
        "rank_sort": 22618,
        "total": 2377
      },
      {
        "club_badge_src": null,
        "entry": 6441598,
        "entry_name": "Mika01",
        "event_total": 52,
        "has_played": true,
        "id": 51287912,
        "last_rank": 18520,
        "player_name": "Mikael Gatt grech",
        "rank": 22568,
        "rank_sort": 22619,
        "total": 2377
      },
      {
        "club_badge_src": null,
        "entry": 6607744,
        "entry_name": "Cospurs",
        "event_total": 71,
        "has_played": true,
        "id": 52788877,
        "last_rank": 31236,
        "player_name": "Gerry Costa",
        "rank": 22568,
        "rank_sort": 22620,
        "total": 2377
      },
      {
        "club_badge_src": null,
        "entry": 6861403,
        "entry_name": "Reservelaget",
        "event_total": 62,
        "has_played": true,
        "id": 54976753,
        "last_rank": 19835,
        "player_name": "Kristian Dirdal",
        "rank": 22568,
        "rank_sort": 22621,
        "total": 2377
      },
      {
        "club_badge_src": null,
        "entry": 9446882,
        "entry_name": "Mal utd",
        "event_total": 67,
        "has_played": true,
        "id": 79819961,
        "last_rank": 23522,
        "player_name": "Jamal Holder",
        "rank": 22568,
        "rank_sort": 22622,
        "total": 2377
      },
      {
        "club_badge_src": "https://fantasy.premierleague.com/gcs/plfpl-production-adobe-approved/plfpl-production/13039/268f3e86-dd2c-4515-9f36-4a16f900875c.png",
        "entry": 13039,
        "entry_name": "J\u00fcrgens \u00c4nglar",
        "event_total": 56,
        "has_played": true,
        "id": 78563,
        "last_rank": 18520,
        "player_name": "Lukas Lindell",
        "rank": 22623,
        "rank_sort": 22623,
        "total": 2377
      },
      {
        "club_badge_src": null,
        "entry": 20768,
        "entry_name": "Jedi Champion x11",
        "event_total": 62,
        "has_played": true,
        "id": 129893,
        "last_rank": 22921,
        "player_name": "warren grant",
        "rank": 22623,
        "rank_sort": 22624,
        "total": 2377
      },
      {
        "club_badge_src": null,
        "entry": 49693,
        "entry_name": "teenage-collective",
        "event_total": 58,
        "has_played": true,
        "id": 319452,
        "last_rank": 19966,
        "player_name": "Patcharapong Pikulkaew",
        "rank": 22623,
        "rank_sort": 22625,
        "total": 2377
      },
      {
        "club_badge_src": "https://fantasy.premierleague.com/gcs/plfpl-production-adobe-approved/plfpl-production/93007/9028b11d-2145-4136-a795-2e5a8a8ac472.png",
        "entry": 93007,
        "entry_name": "Lil uzi wirtz",
        "event_total": 59,
        "has_played": true,
        "id": 607813,
        "last_rank": 20624,
        "player_name": "Austin Marsden",
        "rank": 22623,
        "rank_sort": 22626,
        "total": 2377
      },
      {
        "club_badge_src": null,
        "entry": 106086,
        "entry_name": "Sun The Kop",
        "event_total": 57,
        "has_played": true,
        "id": 691800,
        "last_rank": 22263,
        "player_name": "Sun Thekop",
        "rank": 22623,
        "rank_sort": 22627,
        "total": 2377
      },
      {
        "club_badge_src": null,
        "entry": 281010,
        "entry_name": "Pacey Butterflies",
        "event_total": 69,
        "has_played": true,
        "id": 1869967,
        "last_rank": 25436,
        "player_name": "Oliver Walsh",
        "rank": 22623,
        "rank_sort": 22628,
        "total": 2377
      },
      {
        "club_badge_src": null,
        "entry": 284665,
        "entry_name": "Scott chegg",
        "event_total": 79,
        "has_played": true,
        "id": 1895592,
        "last_rank": 40770,
        "player_name": "Bradley Dearnley",
        "rank": 22623,
        "rank_sort": 22629,
        "total": 2377
      },
      {
        "club_badge_src": "https://fantasy.premierleague.com/gcs/plfpl-production-adobe-approved/plfpl-production/384921/895ff830-9599-4f1e-86e0-a5b0460f63d7.png",
        "entry": 384921,
        "entry_name": "Amiine team \u26a1",
        "event_total": 34,
        "has_played": true,
        "id": 2581841,
        "last_rank": 9015,
        "player_name": "Amii Ne",
        "rank": 22623,
        "rank_sort": 22630,
        "total": 2377
      },
      {
        "club_badge_src": null,
        "entry": 529444,
        "entry_name": "Wirtz Case Scenario",
        "event_total": 80,
        "has_played": true,
        "id": 3560219,
        "last_rank": 41967,
        "player_name": "Ben Hingston",
        "rank": 22623,
        "rank_sort": 22631,
        "total": 2377
      },
      {
        "club_badge_src": null,
        "entry": 534612,
        "entry_name": "team",
        "event_total": 67,
        "has_played": true,
        "id": 3598039,
        "last_rank": 31236,
        "player_name": "Lewis Price",
        "rank": 22623,
        "rank_sort": 22632,
        "total": 2377
      },
      {
        "club_badge_src": "https://fantasy.premierleague.com/gcs/plfpl-production-adobe-approved/plfpl-production/551957/094bd7da-7fca-455f-83f1-a8738489c298.png",
        "entry": 551957,
        "entry_name": "Milliano Fc",
        "event_total": 56,
        "has_played": true,
        "id": 3715130,
        "last_rank": 18520,
        "player_name": "Milla Jaca",
        "rank": 22623,
        "rank_sort": 22633,
        "total": 2377
      },
      {
        "club_badge_src": "https://fantasy.premierleague.com/gcs/plfpl-production-adobe-approved/plfpl-production/584003/c23a79ed-ff71-4026-a435-57ebc1ab8838.png",
        "entry": 584003,
        "entry_name": "foreverTwenty",
        "event_total": 70,
        "has_played": true,
        "id": 3930230,
        "last_rank": 30276,
        "player_name": "Dave Byrne",
        "rank": 22623,
        "rank_sort": 22634,
        "total": 2377
      },
      {
        "club_badge_src": "https://fantasy.premierleague.com/gcs/plfpl-production-adobe-approved/plfpl-production/618373/e30c63cc-3b0d-40bf-bc31-cc29f198c737.png",
        "entry": 618373,
        "entry_name": "grape_juice",
        "event_total": 65,
        "has_played": true,
        "id": 4178114,
        "last_rank": 29333,
        "player_name": "Guirassy Park",
        "rank": 22623,
        "rank_sort": 22635,
        "total": 2377
      },
      {
        "club_badge_src": null,
        "entry": 723737,
        "entry_name": "Daymond FC",
        "event_total": 67,
        "has_played": true,
        "id": 4915416,
        "last_rank": 27304,
        "player_name": "Steven Daymond",
        "rank": 22623,
        "rank_sort": 22636,
        "total": 2377
      },
      {
        "club_badge_src": null,
        "entry": 1061324,
        "entry_name": "delfiininanaali",
        "event_total": 73,
        "has_played": true,
        "id": 7346943,
        "last_rank": 33582,
        "player_name": "Vertti Rasinkangas",
        "rank": 22623,
        "rank_sort": 22637,
        "total": 2377
      },
      {
        "club_badge_src": null,
        "entry": 1107863,
        "entry_name": "SESKO Evry lil Helps",
        "event_total": 73,
        "has_played": true,
        "id": 7673768,
        "last_rank": 33332,
        "player_name": "Anthony Pike",
        "rank": 22623,
        "rank_sort": 22638,
        "total": 2377
      },
      {
        "club_badge_src": null,
        "entry": 1713946,
        "entry_name": "SeskOnanaSquashBanan",
        "event_total": 65,
        "has_played": true,
        "id": 12009897,
        "last_rank": 25517,
        "player_name": "David McClelland",
        "rank": 22623,
        "rank_sort": 22639,
        "total": 2377
      },
      {
        "club_badge_src": null,
        "entry": 1804707,
        "entry_name": "AL Manchesterawy",
        "event_total": 50,
        "has_played": true,
        "id": 12687264,
        "last_rank": 14712,
        "player_name": "Secret Champion",
        "rank": 22623,
        "rank_sort": 22640,
        "total": 2377
      },
      {
        "club_badge_src": null,
        "entry": 2088071,
        "entry_name": "MamardashWheelie",
        "event_total": 70,
        "has_played": true,
        "id": 14814196,
        "last_rank": 22685,
        "player_name": "Tim Auth",
        "rank": 22623,
        "rank_sort": 22641,
        "total": 2377
      },
      {
        "club_badge_src": null,
        "entry": 2231695,
        "entry_name": "A-Cunha Matata",
        "event_total": 69,
        "has_played": true,
        "id": 15898528,
        "last_rank": 33651,
        "player_name": "Matthew Innes",
        "rank": 22623,
        "rank_sort": 22642,
        "total": 2377
      },
      {
        "club_badge_src": null,
        "entry": 3023766,
        "entry_name": "zanyar",
        "event_total": 74,
        "has_played": true,
        "id": 22248190,
        "last_rank": 39403,
        "player_name": "Zanyar Haidar",
        "rank": 22623,
        "rank_sort": 22643,
        "total": 2377
      },
      {
        "club_badge_src": null,
        "entry": 3539463,
        "entry_name": "Haalah",
        "event_total": 62,
        "has_played": true,
        "id": 26346250,
        "last_rank": 26088,
        "player_name": "Danila Motylev",
        "rank": 22623,
        "rank_sort": 22644,
        "total": 2377
      },
      {
        "club_badge_src": null,
        "entry": 3935305,
        "entry_name": "A.Wengers Endgame",
        "event_total": 59,
        "has_played": true,
        "id": 29600949,
        "last_rank": 23857,
        "player_name": "Kalle L\u00f6fgren",
        "rank": 22623,
        "rank_sort": 22645,
        "total": 2377
      },
      {
        "club_badge_src": null,
        "entry": 4473568,
        "entry_name": "Notorious CCP",
        "event_total": 59,
        "has_played": true,
        "id": 34091303,
        "last_rank": 23857,
        "player_name": "Chris Perilli",
        "rank": 22623,
        "rank_sort": 22646,
        "total": 2377
      },
      {
        "club_badge_src": null,
        "entry": 4482499,
        "entry_name": "Heier",
        "event_total": 58,
        "has_played": true,
        "id": 34163647,
        "last_rank": 17150,
        "player_name": "Simen Heier",
        "rank": 22623,
        "rank_sort": 22647,
        "total": 2377
      },
      {
        "club_badge_src": "https://fantasy.premierleague.com/gcs/plfpl-production-adobe-approved/plfpl-production/5197379/1b6aaecd-4414-4129-b013-2d1ec609f949.png",
        "entry": 5197379,
        "entry_name": "FC Bashawri",
        "event_total": 51,
        "has_played": true,
        "id": 40242763,
        "last_rank": 15280,
        "player_name": "Rayan Bashawri",
        "rank": 22623,
        "rank_sort": 22648,
        "total": 2377
      },
      {
        "club_badge_src": null,
        "entry": 5717834,
        "entry_name": "Gyok in my rari",
        "event_total": 61,
        "has_played": true,
        "id": 44784744,
        "last_rank": 25436,
        "player_name": "Abdulrahman Opaleye",
        "rank": 22623,
        "rank_sort": 22649,
        "total": 2377
      },
      {
        "club_badge_src": null,
        "entry": 6592263,
        "entry_name": "FC Trotta",
        "event_total": 61,
        "has_played": true,
        "id": 52651002,
        "last_rank": 25517,
        "player_name": "Rodney Wilson",
        "rank": 22623,
        "rank_sort": 22650,
        "total": 2377
      }
    ]
  }
}