{
  "last_updated_data": "2026-05-24T23:28:17Z",
  "league": {
    "admin_entry": null,
    "closed": false,
    "code_privacy": "p",
    "created": "2025-07-20T23:14:33.933835Z",
    "cup_league": 2815434,
    "has_cup": true,
    "id": 314,
    "league_type": "s",
    "max_entries": null,
    "name": "Overall",
    "rank": null,
    "scoring": "c",
    "start_event": 1
  },
  "new_entries": {
    "has_next": false,
    "page": 1,
    "results": []
  },
  "standings": {
    "has_next": true,
    "page": 1308,
    "results": [
      {
        "club_badge_src": null,
        "entry": 5710586,
        "entry_name": "Broen Ballklubb",
        "event_total": 62,
        "has_played": true,
        "id": 44718643,
        "last_rank": 60462,
        "player_name": "\u00c5smund Aar\u00f8",
        "rank": 65252,
        "rank_sort": 65351,
        "total": 2343
      },
      {
        "club_badge_src": null,
        "entry": 5725607,
        "entry_name": "Saka Spuds",
        "event_total": 53,
        "has_played": true,
        "id": 44851145,
        "last_rank": 59077,
        "player_name": "Sophie Dakin",
        "rank": 65252,
        "rank_sort": 65352,
        "total": 2343
      },
      {
        "club_badge_src": null,
        "entry": 5907540,
        "entry_name": "Goal Pandiyan FC",
        "event_total": 63,
        "has_played": true,
        "id": 46420543,
        "last_rank": 69907,
        "player_name": "Vishu Bharat",
        "rank": 65252,
        "rank_sort": 65353,
        "total": 2343
      },
      {
        "club_badge_src": "https://fantasy.premierleague.com/gcs/plfpl-production-adobe-approved/plfpl-production/6279634/bb4e29e1-f1ea-48ab-8ee5-8a301773cc60.png",
        "entry": 6279634,
        "entry_name": "FC SworD",
        "event_total": 61,
        "has_played": true,
        "id": 49732615,
        "last_rank": 74166,
        "player_name": "Seif Zbidi",
        "rank": 65252,
        "rank_sort": 65354,
        "total": 2343
      },
      {
        "club_badge_src": "https://fantasy.premierleague.com/gcs/plfpl-production-adobe-approved/plfpl-production/6322320/fbbf7bb6-39b2-40a0-8d73-f8dd4bddbad1.png",
        "entry": 6322320,
        "entry_name": "Mallin Fc",
        "event_total": 57,
        "has_played": true,
        "id": 50211176,
        "last_rank": 58911,
        "player_name": "Luke Mallin",
        "rank": 65252,
        "rank_sort": 65355,
        "total": 2343
      },
      {
        "club_badge_src": null,
        "entry": 6638178,
        "entry_name": "fpella xoxo",
        "event_total": 66,
        "has_played": true,
        "id": 53060268,
        "last_rank": 67422,
        "player_name": "Ella Persson",
        "rank": 65252,
        "rank_sort": 65356,
        "total": 2343
      },
      {
        "club_badge_src": null,
        "entry": 6777297,
        "entry_name": "Nigel FC",
        "event_total": 54,
        "has_played": true,
        "id": 54267729,
        "last_rank": 60827,
        "player_name": "Nigel Marwei",
        "rank": 65252,
        "rank_sort": 65357,
        "total": 2343
      },
      {
        "club_badge_src": null,
        "entry": 6898266,
        "entry_name": "KANG TAHU",
        "event_total": 73,
        "has_played": true,
        "id": 55289982,
        "last_rank": 102125,
        "player_name": "Afdhal Hidayat",
        "rank": 65252,
        "rank_sort": 65358,
        "total": 2343
      },
      {
        "club_badge_src": null,
        "entry": 6899533,
        "entry_name": "Reasonable Stout",
        "event_total": 62,
        "has_played": true,
        "id": 55300129,
        "last_rank": 76330,
        "player_name": "Ryan Callanan",
        "rank": 65252,
        "rank_sort": 65359,
        "total": 2343
      },
      {
        "club_badge_src": null,
        "entry": 6974411,
        "entry_name": "Ravens fc",
        "event_total": 56,
        "has_played": true,
        "id": 55952604,
        "last_rank": 57200,
        "player_name": "arinze godwin",
        "rank": 65252,
        "rank_sort": 65360,
        "total": 2343
      },
      {
        "club_badge_src": null,
        "entry": 7268150,
        "entry_name": "Isco fever",
        "event_total": 71,
        "has_played": true,
        "id": 58776017,
        "last_rank": 97305,
        "player_name": "William Foster",
        "rank": 65252,
        "rank_sort": 65361,
        "total": 2343
      },
      {
        "club_badge_src": null,
        "entry": 7347718,
        "entry_name": "Varchester United",
        "event_total": 68,
        "has_played": true,
        "id": 59524264,
        "last_rank": 89706,
        "player_name": "Stefan Ade",
        "rank": 65252,
        "rank_sort": 65362,
        "total": 2343
      },
      {
        "club_badge_src": null,
        "entry": 7472833,
        "entry_name": "Yikes",
        "event_total": 49,
        "has_played": true,
        "id": 60932180,
        "last_rank": 52205,
        "player_name": "Tom Graham",
        "rank": 65252,
        "rank_sort": 65363,
        "total": 2343
      },
      {
        "club_badge_src": null,
        "entry": 7656680,
        "entry_name": "logan",
        "event_total": 47,
        "has_played": true,
        "id": 62776523,
        "last_rank": 49301,
        "player_name": "Yousef Allowghani",
        "rank": 65252,
        "rank_sort": 65364,
        "total": 2343
      },
      {
        "club_badge_src": null,
        "entry": 7921556,
        "entry_name": "sup",
        "event_total": 51,
        "has_played": true,
        "id": 65182415,
        "last_rank": 49078,
        "player_name": "Saeed Naeem",
        "rank": 65252,
        "rank_sort": 65365,
        "total": 2343
      },
      {
        "club_badge_src": null,
        "entry": 7935696,
        "entry_name": "Blob\u2019s Your Uncle",
        "event_total": 57,
        "has_played": true,
        "id": 65312755,
        "last_rank": 66200,
        "player_name": "charlie beard",
        "rank": 65252,
        "rank_sort": 65366,
        "total": 2343
      },
      {
        "club_badge_src": null,
        "entry": 7936801,
        "entry_name": "Change Name",
        "event_total": 59,
        "has_played": true,
        "id": 65322483,
        "last_rank": 70072,
        "player_name": "Mohammed Nur",
        "rank": 65252,
        "rank_sort": 65367,
        "total": 2343
      },
      {
        "club_badge_src": null,
        "entry": 8252003,
        "entry_name": "Mo FC",
        "event_total": 59,
        "has_played": true,
        "id": 68243324,
        "last_rank": 62429,
        "player_name": "Mohamed Ibrahim",
        "rank": 65252,
        "rank_sort": 65368,
        "total": 2343
      },
      {
        "club_badge_src": null,
        "entry": 8266000,
        "entry_name": "Tron FC",
        "event_total": 52,
        "has_played": true,
        "id": 68376192,
        "last_rank": 57358,
        "player_name": "Nicholas Utt",
        "rank": 65252,
        "rank_sort": 65369,
        "total": 2343
      },
      {
        "club_badge_src": "https://fantasy.premierleague.com/gcs/plfpl-production-adobe-approved/plfpl-production/4320/70ffcb83-4ebf-4203-b583-39664a9c8f66.png",
        "entry": 4320,
        "entry_name": "The Pompey Pe\u00f1arol's",
        "event_total": 61,
        "has_played": true,
        "id": 24548,
        "last_rank": 74317,
        "player_name": "Lee Jeffery",
        "rank": 65370,
        "rank_sort": 65370,
        "total": 2343
      },
      {
        "club_badge_src": "https://fantasy.premierleague.com/gcs/plfpl-production-adobe-approved/plfpl-production/8387/25b74682-8e9c-49c7-b6be-6e645ad1d168.png",
        "entry": 8387,
        "entry_name": "Szablony \u0141ysego",
        "event_total": 58,
        "has_played": true,
        "id": 48730,
        "last_rank": 60827,
        "player_name": "Sebastian Towarek",
        "rank": 65370,
        "rank_sort": 65371,
        "total": 2343
      },
      {
        "club_badge_src": null,
        "entry": 60436,
        "entry_name": "Victorious Secret",
        "event_total": 63,
        "has_played": true,
        "id": 389119,
        "last_rank": 70072,
        "player_name": "Chris Lord",
        "rank": 65370,
        "rank_sort": 65372,
        "total": 2343
      },
      {
        "club_badge_src": null,
        "entry": 67554,
        "entry_name": "Holy Grail",
        "event_total": 72,
        "has_played": true,
        "id": 437402,
        "last_rank": 99596,
        "player_name": "Tanvir Tanna",
        "rank": 65370,
        "rank_sort": 65373,
        "total": 2343
      },
      {
        "club_badge_src": null,
        "entry": 72900,
        "entry_name": "Polaris FC",
        "event_total": 56,
        "has_played": true,
        "id": 473807,
        "last_rank": 57358,
        "player_name": "' Mide",
        "rank": 65370,
        "rank_sort": 65374,
        "total": 2343
      },
      {
        "club_badge_src": "https://fantasy.premierleague.com/gcs/plfpl-production-adobe-approved/plfpl-production/74409/99aafcc9-c1ab-44b3-ab3c-34c05a5201c7.png",
        "entry": 74409,
        "entry_name": "Goleir\u00f5es FC",
        "event_total": 67,
        "has_played": true,
        "id": 483639,
        "last_rank": 78244,
        "player_name": "Jos\u00e9 Rolim",
        "rank": 65370,
        "rank_sort": 65375,
        "total": 2343
      },
      {
        "club_badge_src": "https://fantasy.premierleague.com/gcs/plfpl-production-adobe-approved/plfpl-production/90323/32bc019b-30af-45f9-b9bf-2aa45477d8c9.png",
        "entry": 90323,
        "entry_name": "arsenALL",
        "event_total": 56,
        "has_played": true,
        "id": 589679,
        "last_rank": 57358,
        "player_name": "Andreas Antoniades",
        "rank": 65370,
        "rank_sort": 65376,
        "total": 2343
      },
      {
        "club_badge_src": null,
        "entry": 90943,
        "entry_name": "SpudsFC",
        "event_total": 60,
        "has_played": true,
        "id": 593899,
        "last_rank": 64190,
        "player_name": "Layton Kelly",
        "rank": 65370,
        "rank_sort": 65377,
        "total": 2343
      },
      {
        "club_badge_src": "https://fantasy.premierleague.com/gcs/plfpl-production-adobe-approved/plfpl-production/124027/3867ca76-5046-4c61-9b23-4393113542e2.png",
        "entry": 124027,
        "entry_name": "Wile E. Kayode",
        "event_total": 56,
        "has_played": true,
        "id": 808946,
        "last_rank": 57358,
        "player_name": "Connor Matre",
        "rank": 65370,
        "rank_sort": 65378,
        "total": 2343
      },
      {
        "club_badge_src": null,
        "entry": 126525,
        "entry_name": "Too Eze",
        "event_total": 47,
        "has_played": true,
        "id": 824931,
        "last_rank": 49207,
        "player_name": "Nur Syakirah",
        "rank": 65370,
        "rank_sort": 65379,
        "total": 2343
      },
      {
        "club_badge_src": "https://fantasy.premierleague.com/gcs/plfpl-production-adobe-approved/plfpl-production/147105/f3d02a22-fbe8-4c02-8082-a8e410f405e1.png",
        "entry": 147105,
        "entry_name": "AbraDubravka",
        "event_total": 64,
        "has_played": true,
        "id": 963901,
        "last_rank": 80781,
        "player_name": "Jack Brearley",
        "rank": 65370,
        "rank_sort": 65380,
        "total": 2343
      },
      {
        "club_badge_src": null,
        "entry": 217227,
        "entry_name": "Funtime Frankie",
        "event_total": 64,
        "has_played": true,
        "id": 1444708,
        "last_rank": 72145,
        "player_name": "Ben Hutchison",
        "rank": 65370,
        "rank_sort": 65381,
        "total": 2343
      },
      {
        "club_badge_src": "https://fantasy.premierleague.com/gcs/plfpl-production-adobe-approved/plfpl-production/230749/7d843d2c-d8c0-458f-abe9-d14a3b321148.png",
        "entry": 230749,
        "entry_name": "Aziz united",
        "event_total": 59,
        "has_played": true,
        "id": 1535166,
        "last_rank": 70072,
        "player_name": "Aziz Khaled",
        "rank": 65370,
        "rank_sort": 65382,
        "total": 2343
      },
      {
        "club_badge_src": null,
        "entry": 254820,
        "entry_name": "sosadlu",
        "event_total": 67,
        "has_played": true,
        "id": 1695019,
        "last_rank": 87541,
        "player_name": "Louis Lo",
        "rank": 65370,
        "rank_sort": 65383,
        "total": 2343
      },
      {
        "club_badge_src": null,
        "entry": 255628,
        "entry_name": "Wirtz Sarr Mata",
        "event_total": 72,
        "has_played": true,
        "id": 1700301,
        "last_rank": 89897,
        "player_name": "Jim McKay",
        "rank": 65370,
        "rank_sort": 65384,
        "total": 2343
      },
      {
        "club_badge_src": null,
        "entry": 259501,
        "entry_name": "Zooooma",
        "event_total": 60,
        "has_played": true,
        "id": 1725338,
        "last_rank": 64319,
        "player_name": "Hazem El Lakany",
        "rank": 65370,
        "rank_sort": 65385,
        "total": 2343
      },
      {
        "club_badge_src": null,
        "entry": 277181,
        "entry_name": "Sheeb\u26bd\ufe0f\u26bd\ufe0f",
        "event_total": 74,
        "has_played": true,
        "id": 1844944,
        "last_rank": 104941,
        "player_name": "Sheheb Sheeboo",
        "rank": 65370,
        "rank_sort": 65386,
        "total": 2343
      },
      {
        "club_badge_src": null,
        "entry": 290004,
        "entry_name": "Bruno Dos Tres Champ",
        "event_total": 50,
        "has_played": true,
        "id": 1933466,
        "last_rank": 47722,
        "player_name": "Nicolas Mathy",
        "rank": 65370,
        "rank_sort": 65387,
        "total": 2343
      },
      {
        "club_badge_src": null,
        "entry": 309693,
        "entry_name": "GiaSK",
        "event_total": 81,
        "has_played": true,
        "id": 2074471,
        "last_rank": 124682,
        "player_name": "Rosemary Mwangi",
        "rank": 65370,
        "rank_sort": 65388,
        "total": 2343
      },
      {
        "club_badge_src": null,
        "entry": 327346,
        "entry_name": "Wirtz Case Scenario",
        "event_total": 41,
        "has_played": true,
        "id": 2193211,
        "last_rank": 35867,
        "player_name": "Adam Speight",
        "rank": 65370,
        "rank_sort": 65389,
        "total": 2343
      },
      {
        "club_badge_src": null,
        "entry": 388252,
        "entry_name": "World champions fc",
        "event_total": 76,
        "has_played": true,
        "id": 2604590,
        "last_rank": 99806,
        "player_name": "Kondwani Banda",
        "rank": 65370,
        "rank_sort": 65390,
        "total": 2343
      },
      {
        "club_badge_src": null,
        "entry": 398364,
        "entry_name": "El-Miro FC",
        "event_total": 56,
        "has_played": true,
        "id": 2671455,
        "last_rank": 64422,
        "player_name": "Amir Anis",
        "rank": 65370,
        "rank_sort": 65391,
        "total": 2343
      },
      {
        "club_badge_src": null,
        "entry": 426948,
        "entry_name": "Fixby Flyers",
        "event_total": 56,
        "has_played": true,
        "id": 2862843,
        "last_rank": 57200,
        "player_name": "Mel Griffin",
        "rank": 65370,
        "rank_sort": 65392,
        "total": 2343
      },
      {
        "club_badge_src": "https://fantasy.premierleague.com/gcs/plfpl-production-adobe-approved/plfpl-production/486504/4f824546-e25d-42fc-9b6e-a43ff177136e.png",
        "entry": 486504,
        "entry_name": "Chairman Howe Zedong",
        "event_total": 55,
        "has_played": true,
        "id": 3266184,
        "last_rank": 62724,
        "player_name": "Uzair Majid",
        "rank": 65370,
        "rank_sort": 65393,
        "total": 2343
      },
      {
        "club_badge_src": "https://fantasy.premierleague.com/gcs/plfpl-production-adobe-approved/plfpl-production/500836/c030f350-0c1d-48a2-adf6-d6582884bd47.png",
        "entry": 500836,
        "entry_name": "Bwyan the Bmessiah",
        "event_total": 62,
        "has_played": true,
        "id": 3361151,
        "last_rank": 67926,
        "player_name": "Paul Wilkins",
        "rank": 65370,
        "rank_sort": 65394,
        "total": 2343
      },
      {
        "club_badge_src": "https://fantasy.premierleague.com/gcs/plfpl-production-adobe-approved/plfpl-production/604327/ece681ab-a348-4290-a7d4-d063d737e158.png",
        "entry": 604327,
        "entry_name": "Kamara Sutra",
        "event_total": 54,
        "has_played": true,
        "id": 4079561,
        "last_rank": 53952,
        "player_name": "Olly George",
        "rank": 65370,
        "rank_sort": 65395,
        "total": 2343
      },
      {
        "club_badge_src": null,
        "entry": 669293,
        "entry_name": "Sammy's dream team",
        "event_total": 60,
        "has_played": true,
        "id": 4526307,
        "last_rank": 64319,
        "player_name": "Sammy Shehata",
        "rank": 65370,
        "rank_sort": 65396,
        "total": 2343
      },
      {
        "club_badge_src": null,
        "entry": 731705,
        "entry_name": "Flapjack FC",
        "event_total": 54,
        "has_played": true,
        "id": 4972143,
        "last_rank": 53952,
        "player_name": "Ferdi Faudot",
        "rank": 65370,
        "rank_sort": 65397,
        "total": 2343
      },
      {
        "club_badge_src": null,
        "entry": 744234,
        "entry_name": "Wigtown FC",
        "event_total": 60,
        "has_played": true,
        "id": 5062543,
        "last_rank": 57200,
        "player_name": "Mike Wade",
        "rank": 65370,
        "rank_sort": 65398,
        "total": 2343
      },
      {
        "club_badge_src": null,
        "entry": 908872,
        "entry_name": "FC Top Bins",
        "event_total": 64,
        "has_played": true,
        "id": 6247979,
        "last_rank": 80651,
        "player_name": "Jere Parviainen",
        "rank": 65370,
        "rank_sort": 65399,
        "total": 2343
      },
      {
        "club_badge_src": null,
        "entry": 909234,
        "entry_name": "GunnersTeam",
        "event_total": 56,
        "has_played": true,
        "id": 6250564,
        "last_rank": 57358,
        "player_name": "Maciej Str\u00f3\u017cak",
        "rank": 65370,
        "rank_sort": 65400,
        "total": 2343
      }
    ]
  }
}