{
  "last_updated_data": "2026-05-24T23:28:17Z",
  "league": {
    "admin_entry": null,
    "closed": false,
    "code_privacy": "p",
    "created": "2025-07-20T23:14:33.933835Z",
    "cup_league": 2815434,
    "has_cup": true,
    "id": 314,
    "league_type": "s",
    "max_entries": null,
    "name": "Overall",
    "rank": null,
    "scoring": "c",
    "start_event": 1
  },
  "new_entries": {
    "has_next": false,
    "page": 1,
    "results": []
  },
  "standings": {
    "has_next": true,
    "page": 1471,
    "results": [
      {
        "club_badge_src": null,
        "entry": 6138769,
        "entry_name": "tiggers",
        "event_total": 67,
        "has_played": true,
        "id": 48515136,
        "last_rank": 98073,
        "player_name": "Wael Ellaw",
        "rank": 73453,
        "rank_sort": 73501,
        "total": 2338
      },
      {
        "club_badge_src": null,
        "entry": 6690522,
        "entry_name": "Roman gets battered",
        "event_total": 57,
        "has_played": true,
        "id": 53525550,
        "last_rank": 74787,
        "player_name": "Andre Tuxedo",
        "rank": 73453,
        "rank_sort": 73502,
        "total": 2338
      },
      {
        "club_badge_src": "https://fantasy.premierleague.com/gcs/plfpl-production-adobe-approved/plfpl-production/6949978/ca0a3030-7b66-46b2-9971-cb1ee97dd0a5.png",
        "entry": 6949978,
        "entry_name": "Banter FC",
        "event_total": 61,
        "has_played": true,
        "id": 55727680,
        "last_rank": 83584,
        "player_name": "False 9 \u3164",
        "rank": 73453,
        "rank_sort": 73503,
        "total": 2338
      },
      {
        "club_badge_src": null,
        "entry": 7163536,
        "entry_name": "Arias-erious?",
        "event_total": 85,
        "has_played": true,
        "id": 57789782,
        "last_rank": 152393,
        "player_name": "Juan Pablo Aragon",
        "rank": 73453,
        "rank_sort": 73504,
        "total": 2338
      },
      {
        "club_badge_src": null,
        "entry": 7337891,
        "entry_name": "Eze come Eze go",
        "event_total": 45,
        "has_played": true,
        "id": 59432110,
        "last_rank": 52738,
        "player_name": "Jeff Valentine",
        "rank": 73453,
        "rank_sort": 73505,
        "total": 2338
      },
      {
        "club_badge_src": null,
        "entry": 7444744,
        "entry_name": "Pingislunga BK",
        "event_total": 62,
        "has_played": true,
        "id": 60565298,
        "last_rank": 85932,
        "player_name": "Marcus Skoglund",
        "rank": 73453,
        "rank_sort": 73506,
        "total": 2338
      },
      {
        "club_badge_src": null,
        "entry": 8227672,
        "entry_name": "HaCunha Mateta",
        "event_total": 57,
        "has_played": true,
        "id": 68002884,
        "last_rank": 74741,
        "player_name": "Marcus Robinson",
        "rank": 73453,
        "rank_sort": 73507,
        "total": 2338
      },
      {
        "club_badge_src": null,
        "entry": 8969852,
        "entry_name": "NewEra FC",
        "event_total": 87,
        "has_played": true,
        "id": 75191258,
        "last_rank": 159495,
        "player_name": "Lolwethu Chingwaru",
        "rank": 73453,
        "rank_sort": 73508,
        "total": 2338
      },
      {
        "club_badge_src": null,
        "entry": 10389409,
        "entry_name": "Daddy's Angels",
        "event_total": 60,
        "has_played": true,
        "id": 87916904,
        "last_rank": 81312,
        "player_name": "Ben Duncan",
        "rank": 73453,
        "rank_sort": 73509,
        "total": 2338
      },
      {
        "club_badge_src": "https://fantasy.premierleague.com/gcs/plfpl-production-adobe-approved/plfpl-production/12073/b29cbce6-4343-4cc1-9637-d47956b8aa49.png",
        "entry": 12073,
        "entry_name": "Isak Newton",
        "event_total": 52,
        "has_played": true,
        "id": 72035,
        "last_rank": 57776,
        "player_name": "Bobby Young",
        "rank": 73510,
        "rank_sort": 73510,
        "total": 2338
      },
      {
        "club_badge_src": "https://fantasy.premierleague.com/gcs/plfpl-production-adobe-approved/plfpl-production/34281/bb819316-ead6-4997-bf3c-ac78cdce27bc.png",
        "entry": 34281,
        "entry_name": "Hirdy's Heroes",
        "event_total": 40,
        "has_played": true,
        "id": 218942,
        "last_rank": 45252,
        "player_name": "Adam Daniell",
        "rank": 73510,
        "rank_sort": 73511,
        "total": 2338
      },
      {
        "club_badge_src": null,
        "entry": 108076,
        "entry_name": "Nmecha In The Summer",
        "event_total": 33,
        "has_played": true,
        "id": 704632,
        "last_rank": 36142,
        "player_name": "Geordon Hemingway",
        "rank": 73510,
        "rank_sort": 73512,
        "total": 2338
      },
      {
        "club_badge_src": null,
        "entry": 172897,
        "entry_name": "Cunha Struijk MyWood",
        "event_total": 64,
        "has_played": true,
        "id": 1141903,
        "last_rank": 90746,
        "player_name": "Thomas Sparkhall",
        "rank": 73510,
        "rank_sort": 73513,
        "total": 2338
      },
      {
        "club_badge_src": null,
        "entry": 174137,
        "entry_name": "Joao Me the Money",
        "event_total": 51,
        "has_played": true,
        "id": 1149937,
        "last_rank": 63080,
        "player_name": "Tomas Jones",
        "rank": 73510,
        "rank_sort": 73514,
        "total": 2338
      },
      {
        "club_badge_src": null,
        "entry": 185260,
        "entry_name": "Kanye Knighted",
        "event_total": 53,
        "has_played": true,
        "id": 1223673,
        "last_rank": 66738,
        "player_name": "Luke Thomas",
        "rank": 73510,
        "rank_sort": 73515,
        "total": 2338
      },
      {
        "club_badge_src": null,
        "entry": 187323,
        "entry_name": "Can't Get Any Wirtz",
        "event_total": 60,
        "has_played": true,
        "id": 1238500,
        "last_rank": 81312,
        "player_name": "Jordan Hayes",
        "rank": 73510,
        "rank_sort": 73516,
        "total": 2338
      },
      {
        "club_badge_src": null,
        "entry": 221749,
        "entry_name": "Magdy abbas",
        "event_total": 59,
        "has_played": true,
        "id": 1474889,
        "last_rank": 79190,
        "player_name": "Magdy Abass",
        "rank": 73510,
        "rank_sort": 73517,
        "total": 2338
      },
      {
        "club_badge_src": null,
        "entry": 257835,
        "entry_name": "Ajax Trees",
        "event_total": 63,
        "has_played": true,
        "id": 1714623,
        "last_rank": 88348,
        "player_name": "Tom Higgs",
        "rank": 73510,
        "rank_sort": 73518,
        "total": 2338
      },
      {
        "club_badge_src": null,
        "entry": 335307,
        "entry_name": "Wataru doing?",
        "event_total": 57,
        "has_played": true,
        "id": 2245184,
        "last_rank": 74787,
        "player_name": "Daniel Matthews",
        "rank": 73510,
        "rank_sort": 73519,
        "total": 2338
      },
      {
        "club_badge_src": null,
        "entry": 353673,
        "entry_name": "Det er bare et spil",
        "event_total": 66,
        "has_played": true,
        "id": 2367059,
        "last_rank": 95527,
        "player_name": "Thomas Juul",
        "rank": 73510,
        "rank_sort": 73520,
        "total": 2338
      },
      {
        "club_badge_src": null,
        "entry": 379954,
        "entry_name": "Amadness",
        "event_total": 52,
        "has_played": true,
        "id": 2546141,
        "last_rank": 65163,
        "player_name": "Jack Loukes",
        "rank": 73510,
        "rank_sort": 73521,
        "total": 2338
      },
      {
        "club_badge_src": null,
        "entry": 401538,
        "entry_name": "Escobar",
        "event_total": 57,
        "has_played": true,
        "id": 2692498,
        "last_rank": 75139,
        "player_name": "Ahmed Nasser",
        "rank": 73510,
        "rank_sort": 73522,
        "total": 2338
      },
      {
        "club_badge_src": "https://fantasy.premierleague.com/gcs/plfpl-production-adobe-approved/plfpl-production/403382/a8ff2797-480f-4265-adcc-ebf41c101671.png",
        "entry": 403382,
        "entry_name": "Benny Special \u2611\ufe0f",
        "event_total": 71,
        "has_played": true,
        "id": 2704863,
        "last_rank": 108567,
        "player_name": "Ben Jobson",
        "rank": 73510,
        "rank_sort": 73523,
        "total": 2338
      },
      {
        "club_badge_src": "https://fantasy.premierleague.com/gcs/plfpl-production-adobe-approved/plfpl-production/418367/cf62dec2-3319-415b-9ca6-cbfe858adc88.png",
        "entry": 418367,
        "entry_name": "Ali Khalid",
        "event_total": 56,
        "has_played": true,
        "id": 2804183,
        "last_rank": 73038,
        "player_name": "Ali Khalid",
        "rank": 73510,
        "rank_sort": 73524,
        "total": 2338
      },
      {
        "club_badge_src": null,
        "entry": 431198,
        "entry_name": "Ahks A Team",
        "event_total": 70,
        "has_played": true,
        "id": 2891886,
        "last_rank": 105963,
        "player_name": "Aqil Ahmed",
        "rank": 73510,
        "rank_sort": 73525,
        "total": 2338
      },
      {
        "club_badge_src": null,
        "entry": 485201,
        "entry_name": "ParlayHuncho",
        "event_total": 63,
        "has_played": true,
        "id": 3256770,
        "last_rank": 79079,
        "player_name": "Adnan Yusuf",
        "rank": 73510,
        "rank_sort": 73526,
        "total": 2338
      },
      {
        "club_badge_src": null,
        "entry": 535482,
        "entry_name": "Up the Town FC",
        "event_total": 67,
        "has_played": true,
        "id": 3604063,
        "last_rank": 98073,
        "player_name": "Tom Reed",
        "rank": 73510,
        "rank_sort": 73527,
        "total": 2338
      },
      {
        "club_badge_src": null,
        "entry": 540432,
        "entry_name": "Surely Not Again",
        "event_total": 63,
        "has_played": true,
        "id": 3637528,
        "last_rank": 88249,
        "player_name": "Rami Toubib",
        "rank": 73510,
        "rank_sort": 73528,
        "total": 2338
      },
      {
        "club_badge_src": null,
        "entry": 548041,
        "entry_name": "Legzz XI",
        "event_total": 69,
        "has_played": true,
        "id": 3688350,
        "last_rank": 103130,
        "player_name": "David Leggett",
        "rank": 73510,
        "rank_sort": 73529,
        "total": 2338
      },
      {
        "club_badge_src": "https://fantasy.premierleague.com/gcs/plfpl-production-adobe-approved/plfpl-production/554236/cb8bf3e9-9362-47a1-ae0d-3ff4b6703623.png",
        "entry": 554236,
        "entry_name": "The Ghaffa",
        "event_total": 37,
        "has_played": true,
        "id": 3730266,
        "last_rank": 41324,
        "player_name": "Alex Ghaffari",
        "rank": 73510,
        "rank_sort": 73530,
        "total": 2338
      },
      {
        "club_badge_src": null,
        "entry": 566363,
        "entry_name": "the tribal chief",
        "event_total": 55,
        "has_played": true,
        "id": 3811918,
        "last_rank": 70985,
        "player_name": "Mazen Samy",
        "rank": 73510,
        "rank_sort": 73531,
        "total": 2338
      },
      {
        "club_badge_src": null,
        "entry": 757320,
        "entry_name": "Zeno",
        "event_total": 59,
        "has_played": true,
        "id": 5157853,
        "last_rank": 79431,
        "player_name": "Talal alnosani",
        "rank": 73510,
        "rank_sort": 73532,
        "total": 2338
      },
      {
        "club_badge_src": null,
        "entry": 757698,
        "entry_name": "Ben White is Right",
        "event_total": 72,
        "has_played": true,
        "id": 5160868,
        "last_rank": 111169,
        "player_name": "Simon CG",
        "rank": 73510,
        "rank_sort": 73533,
        "total": 2338
      },
      {
        "club_badge_src": null,
        "entry": 852213,
        "entry_name": "World Champs FC",
        "event_total": 32,
        "has_played": true,
        "id": 5841403,
        "last_rank": 35166,
        "player_name": "Bernard Lee",
        "rank": 73510,
        "rank_sort": 73534,
        "total": 2338
      },
      {
        "club_badge_src": null,
        "entry": 903385,
        "entry_name": "Team Kaasje",
        "event_total": 58,
        "has_played": true,
        "id": 6207330,
        "last_rank": 76908,
        "player_name": "Mika Hermans",
        "rank": 73510,
        "rank_sort": 73535,
        "total": 2338
      },
      {
        "club_badge_src": null,
        "entry": 912098,
        "entry_name": "Edd Fried Rice",
        "event_total": 46,
        "has_played": true,
        "id": 6271588,
        "last_rank": 54667,
        "player_name": "Edward Barton-White",
        "rank": 73510,
        "rank_sort": 73536,
        "total": 2338
      },
      {
        "club_badge_src": null,
        "entry": 926411,
        "entry_name": "Jamsters",
        "event_total": 69,
        "has_played": true,
        "id": 6373316,
        "last_rank": 103130,
        "player_name": "Kieran James",
        "rank": 73510,
        "rank_sort": 73537,
        "total": 2338
      },
      {
        "club_badge_src": null,
        "entry": 934899,
        "entry_name": "zinchenko de Mayo",
        "event_total": 46,
        "has_played": true,
        "id": 6433594,
        "last_rank": 54494,
        "player_name": "Kenneth Carlos Adamson",
        "rank": 73510,
        "rank_sort": 73538,
        "total": 2338
      },
      {
        "club_badge_src": null,
        "entry": 1015320,
        "entry_name": "Behind Emery Lines",
        "event_total": 70,
        "has_played": true,
        "id": 7023968,
        "last_rank": 105963,
        "player_name": "Christopher Tyer",
        "rank": 73510,
        "rank_sort": 73539,
        "total": 2338
      },
      {
        "club_badge_src": null,
        "entry": 1055579,
        "entry_name": "Wirtz Nightmare",
        "event_total": 50,
        "has_played": true,
        "id": 7305255,
        "last_rank": 61606,
        "player_name": "Fin Henderson",
        "rank": 73510,
        "rank_sort": 73540,
        "total": 2338
      },
      {
        "club_badge_src": null,
        "entry": 1113043,
        "entry_name": "omar emeiry",
        "event_total": 56,
        "has_played": true,
        "id": 7709872,
        "last_rank": 73038,
        "player_name": "Omar Ahmed",
        "rank": 73510,
        "rank_sort": 73541,
        "total": 2338
      },
      {
        "club_badge_src": null,
        "entry": 1177110,
        "entry_name": "BullsXI",
        "event_total": 72,
        "has_played": true,
        "id": 8167390,
        "last_rank": 111405,
        "player_name": "Darren Kelly",
        "rank": 73510,
        "rank_sort": 73542,
        "total": 2338
      },
      {
        "club_badge_src": null,
        "entry": 1256155,
        "entry_name": "Borna Gain",
        "event_total": 61,
        "has_played": true,
        "id": 8725621,
        "last_rank": 83698,
        "player_name": "Charlie Houlden",
        "rank": 73510,
        "rank_sort": 73543,
        "total": 2338
      },
      {
        "club_badge_src": null,
        "entry": 1295222,
        "entry_name": "Bayern Bru",
        "event_total": 52,
        "has_played": true,
        "id": 9001545,
        "last_rank": 64943,
        "player_name": "David Nicol",
        "rank": 73510,
        "rank_sort": 73544,
        "total": 2338
      },
      {
        "club_badge_src": null,
        "entry": 1304544,
        "entry_name": "Bean's Babes",
        "event_total": 38,
        "has_played": true,
        "id": 9067090,
        "last_rank": 42648,
        "player_name": "Ryan Huey",
        "rank": 73510,
        "rank_sort": 73545,
        "total": 2338
      },
      {
        "club_badge_src": null,
        "entry": 1449259,
        "entry_name": "Cops and Rogers",
        "event_total": 66,
        "has_played": true,
        "id": 10098562,
        "last_rank": 95464,
        "player_name": "Daniel Webb",
        "rank": 73510,
        "rank_sort": 73546,
        "total": 2338
      },
      {
        "club_badge_src": "https://fantasy.premierleague.com/gcs/plfpl-production-adobe-approved/plfpl-production/1454694/6aec9957-055b-4d60-83b3-43ac56be32f8.png",
        "entry": 1454694,
        "entry_name": "Live and Lerma",
        "event_total": 45,
        "has_played": true,
        "id": 10136329,
        "last_rank": 52853,
        "player_name": "Matthew Ring",
        "rank": 73510,
        "rank_sort": 73547,
        "total": 2338
      },
      {
        "club_badge_src": "https://fantasy.premierleague.com/gcs/plfpl-production-adobe-approved/plfpl-production/1512376/5684ec7f-c82e-4f38-b9e9-db0076488e84.png",
        "entry": 1512376,
        "entry_name": "Legion",
        "event_total": 69,
        "has_played": true,
        "id": 10547982,
        "last_rank": 103526,
        "player_name": "Fares .PNG",
        "rank": 73510,
        "rank_sort": 73548,
        "total": 2338
      },
      {
        "club_badge_src": "https://fantasy.premierleague.com/gcs/plfpl-production-adobe-approved/plfpl-production/1562848/d3a9d614-730a-417a-b63a-09d1dd9ca558.png",
        "entry": 1562848,
        "entry_name": "Armstrong Hall XI",
        "event_total": 67,
        "has_played": true,
        "id": 10916668,
        "last_rank": 98183,
        "player_name": "Bill Armstrong",
        "rank": 73510,
        "rank_sort": 73549,
        "total": 2338
      },
      {
        "club_badge_src": null,
        "entry": 1597249,
        "entry_name": "Jusr Vibes",
        "event_total": 58,
        "has_played": true,
        "id": 11173506,
        "last_rank": 76947,
        "player_name": "Ruby Stear",
        "rank": 73510,
        "rank_sort": 73550,
        "total": 2338
      }
    ]
  }
}