{
  "last_updated_data": "2026-05-24T23:28:17Z",
  "league": {
    "admin_entry": null,
    "closed": false,
    "code_privacy": "p",
    "created": "2025-07-20T23:14:33.933835Z",
    "cup_league": 2815434,
    "has_cup": true,
    "id": 314,
    "league_type": "s",
    "max_entries": null,
    "name": "Overall",
    "rank": null,
    "scoring": "c",
    "start_event": 1
  },
  "new_entries": {
    "has_next": false,
    "page": 1,
    "results": []
  },
  "standings": {
    "has_next": true,
    "page": 485,
    "results": [
      {
        "club_badge_src": null,
        "entry": 57237,
        "entry_name": "HaCunha Mateta",
        "event_total": 57,
        "has_played": true,
        "id": 368705,
        "last_rank": 23820,
        "player_name": "Josh Thornley",
        "rank": 24199,
        "rank_sort": 24201,
        "total": 2375
      },
      {
        "club_badge_src": "https://fantasy.premierleague.com/gcs/plfpl-production-adobe-approved/plfpl-production/117386/385a6e73-aa70-48ba-9f1d-e7e57620632a.png",
        "entry": 117386,
        "entry_name": "Ekitike Sees Ekitike",
        "event_total": 61,
        "has_played": true,
        "id": 766228,
        "last_rank": 20538,
        "player_name": "Pacharapol Khomfoi",
        "rank": 24199,
        "rank_sort": 24202,
        "total": 2375
      },
      {
        "club_badge_src": null,
        "entry": 129949,
        "entry_name": "Pope United",
        "event_total": 42,
        "has_played": true,
        "id": 846815,
        "last_rank": 11482,
        "player_name": "David Saville",
        "rank": 24199,
        "rank_sort": 24203,
        "total": 2375
      },
      {
        "club_badge_src": "https://fantasy.premierleague.com/gcs/plfpl-production-adobe-approved/plfpl-production/141614/ea9ced78-7977-4d27-a586-7febee7ba87b.png",
        "entry": 141614,
        "entry_name": "Skoundreballers",
        "event_total": 70,
        "has_played": true,
        "id": 925319,
        "last_rank": 32335,
        "player_name": "Syver Gudbrandsgard",
        "rank": 24199,
        "rank_sort": 24204,
        "total": 2375
      },
      {
        "club_badge_src": null,
        "entry": 151035,
        "entry_name": "Kick the Ball FC",
        "event_total": 57,
        "has_played": true,
        "id": 990755,
        "last_rank": 20624,
        "player_name": "Kjetil Vee Moen",
        "rank": 24199,
        "rank_sort": 24205,
        "total": 2375
      },
      {
        "club_badge_src": null,
        "entry": 184435,
        "entry_name": "Remember Tony Adams",
        "event_total": 42,
        "has_played": true,
        "id": 1217904,
        "last_rank": 13629,
        "player_name": "Ronnie H\u00f6gberg",
        "rank": 24199,
        "rank_sort": 24206,
        "total": 2375
      },
      {
        "club_badge_src": "https://fantasy.premierleague.com/gcs/plfpl-production-adobe-approved/plfpl-production/212373/5e06af86-6092-48a8-aea2-26b96474ef50.png",
        "entry": 212373,
        "entry_name": "Paya Con Dios",
        "event_total": 54,
        "has_played": true,
        "id": 1412780,
        "last_rank": 15797,
        "player_name": "Pavle Petovi\u0107",
        "rank": 24199,
        "rank_sort": 24207,
        "total": 2375
      },
      {
        "club_badge_src": null,
        "entry": 282968,
        "entry_name": "Change Name",
        "event_total": 69,
        "has_played": true,
        "id": 1883692,
        "last_rank": 27203,
        "player_name": "Karan Jutti",
        "rank": 24199,
        "rank_sort": 24208,
        "total": 2375
      },
      {
        "club_badge_src": null,
        "entry": 302599,
        "entry_name": "Joelinton is Thanos",
        "event_total": 52,
        "has_played": true,
        "id": 2025114,
        "last_rank": 19966,
        "player_name": "Michael Ajegbo",
        "rank": 24199,
        "rank_sort": 24209,
        "total": 2375
      },
      {
        "club_badge_src": null,
        "entry": 689019,
        "entry_name": "Wedge Warriors",
        "event_total": 64,
        "has_played": true,
        "id": 4665117,
        "last_rank": 26345,
        "player_name": "TomLee Lee",
        "rank": 24199,
        "rank_sort": 24210,
        "total": 2375
      },
      {
        "club_badge_src": null,
        "entry": 713952,
        "entry_name": "Champions FC",
        "event_total": 69,
        "has_played": true,
        "id": 4843637,
        "last_rank": 31236,
        "player_name": "Jason Koylass",
        "rank": 24199,
        "rank_sort": 24211,
        "total": 2375
      },
      {
        "club_badge_src": "https://fantasy.premierleague.com/gcs/plfpl-production-adobe-approved/plfpl-production/753206/df515dd2-8ec6-4ace-ad82-0222d4e3e32a.png",
        "entry": 753206,
        "entry_name": "Axis Mundi",
        "event_total": 61,
        "has_played": true,
        "id": 5125534,
        "last_rank": 23748,
        "player_name": "Marco Ocram",
        "rank": 24199,
        "rank_sort": 24212,
        "total": 2375
      },
      {
        "club_badge_src": null,
        "entry": 855878,
        "entry_name": "open kimono",
        "event_total": 52,
        "has_played": true,
        "id": 5866615,
        "last_rank": 19966,
        "player_name": "Ed H",
        "rank": 24199,
        "rank_sort": 24213,
        "total": 2375
      },
      {
        "club_badge_src": "https://fantasy.premierleague.com/gcs/plfpl-production-adobe-approved/plfpl-production/857988/78832667-21de-40c6-9f34-3fe009685641.png",
        "entry": 857988,
        "entry_name": "C.R.T 1961",
        "event_total": 33,
        "has_played": true,
        "id": 5881559,
        "last_rank": 9350,
        "player_name": "--Tayeb Ben---",
        "rank": 24199,
        "rank_sort": 24214,
        "total": 2375
      },
      {
        "club_badge_src": null,
        "entry": 861350,
        "entry_name": "AMER ELHawees",
        "event_total": 65,
        "has_played": true,
        "id": 5904741,
        "last_rank": 31309,
        "player_name": "Amer Saed",
        "rank": 24199,
        "rank_sort": 24215,
        "total": 2375
      },
      {
        "club_badge_src": null,
        "entry": 881585,
        "entry_name": "Blue Laboon",
        "event_total": 55,
        "has_played": true,
        "id": 6045712,
        "last_rank": 22216,
        "player_name": "G P",
        "rank": 24199,
        "rank_sort": 24216,
        "total": 2375
      },
      {
        "club_badge_src": null,
        "entry": 1011687,
        "entry_name": "pnche loco",
        "event_total": 58,
        "has_played": true,
        "id": 6998034,
        "last_rank": 21392,
        "player_name": "Anmol Prasai",
        "rank": 24199,
        "rank_sort": 24217,
        "total": 2375
      },
      {
        "club_badge_src": null,
        "entry": 1086067,
        "entry_name": "SaMa Day\u00e9",
        "event_total": 76,
        "has_played": true,
        "id": 7521385,
        "last_rank": 44804,
        "player_name": "Ihab Deu",
        "rank": 24199,
        "rank_sort": 24218,
        "total": 2375
      },
      {
        "club_badge_src": null,
        "entry": 1282171,
        "entry_name": "Eketike-taka",
        "event_total": 72,
        "has_played": true,
        "id": 8909435,
        "last_rank": 39403,
        "player_name": "Emil Brankov",
        "rank": 24199,
        "rank_sort": 24219,
        "total": 2375
      },
      {
        "club_badge_src": null,
        "entry": 1455013,
        "entry_name": "Baahcelona",
        "event_total": 76,
        "has_played": true,
        "id": 10138546,
        "last_rank": 44672,
        "player_name": "Charlie Walshe",
        "rank": 24199,
        "rank_sort": 24220,
        "total": 2375
      },
      {
        "club_badge_src": null,
        "entry": 1541651,
        "entry_name": "Baby Reijnders",
        "event_total": 65,
        "has_played": true,
        "id": 10759819,
        "last_rank": 31309,
        "player_name": "Sanjay Purewal",
        "rank": 24199,
        "rank_sort": 24221,
        "total": 2375
      },
      {
        "club_badge_src": null,
        "entry": 1711523,
        "entry_name": "Uunited",
        "event_total": 54,
        "has_played": true,
        "id": 11992233,
        "last_rank": 15797,
        "player_name": "Joakim K\u00e5buland",
        "rank": 24199,
        "rank_sort": 24222,
        "total": 2375
      },
      {
        "club_badge_src": null,
        "entry": 1812003,
        "entry_name": "SuperLeeds",
        "event_total": 72,
        "has_played": true,
        "id": 12740924,
        "last_rank": 39403,
        "player_name": "Vidar Fredlund",
        "rank": 24199,
        "rank_sort": 24223,
        "total": 2375
      },
      {
        "club_badge_src": null,
        "entry": 1842721,
        "entry_name": "Farke the bus",
        "event_total": 72,
        "has_played": true,
        "id": 12964657,
        "last_rank": 39403,
        "player_name": "Ben Mullery",
        "rank": 24199,
        "rank_sort": 24224,
        "total": 2375
      },
      {
        "club_badge_src": null,
        "entry": 2128387,
        "entry_name": "The Mayoneggs",
        "event_total": 73,
        "has_played": true,
        "id": 15123459,
        "last_rank": 35768,
        "player_name": "Joe Moulton",
        "rank": 24199,
        "rank_sort": 24225,
        "total": 2375
      },
      {
        "club_badge_src": null,
        "entry": 2181736,
        "entry_name": "Wombat FC",
        "event_total": 67,
        "has_played": true,
        "id": 15517943,
        "last_rank": 25330,
        "player_name": "Linda Arkheden",
        "rank": 24199,
        "rank_sort": 24226,
        "total": 2375
      },
      {
        "club_badge_src": null,
        "entry": 2344187,
        "entry_name": "United",
        "event_total": 47,
        "has_played": true,
        "id": 16726498,
        "last_rank": 16567,
        "player_name": "Tammy Rotheram",
        "rank": 24199,
        "rank_sort": 24227,
        "total": 2375
      },
      {
        "club_badge_src": null,
        "entry": 2401303,
        "entry_name": "We'll have a look",
        "event_total": 52,
        "has_played": true,
        "id": 17162772,
        "last_rank": 19966,
        "player_name": "Buddy Eastwood",
        "rank": 24199,
        "rank_sort": 24228,
        "total": 2375
      },
      {
        "club_badge_src": null,
        "entry": 2496266,
        "entry_name": "footballYAK",
        "event_total": 64,
        "has_played": true,
        "id": 17872031,
        "last_rank": 30276,
        "player_name": "tristan holyoke",
        "rank": 24199,
        "rank_sort": 24229,
        "total": 2375
      },
      {
        "club_badge_src": null,
        "entry": 3322179,
        "entry_name": "Ndiaye Another Day",
        "event_total": 55,
        "has_played": true,
        "id": 24626939,
        "last_rank": 22216,
        "player_name": "Matt Pearson",
        "rank": 24199,
        "rank_sort": 24230,
        "total": 2375
      },
      {
        "club_badge_src": null,
        "entry": 3453742,
        "entry_name": "Bish Bias",
        "event_total": 62,
        "has_played": true,
        "id": 25667826,
        "last_rank": 24570,
        "player_name": "David Bratt",
        "rank": 24199,
        "rank_sort": 24231,
        "total": 2375
      },
      {
        "club_badge_src": null,
        "entry": 3849615,
        "entry_name": "Mbuemo Number 5",
        "event_total": 57,
        "has_played": true,
        "id": 28856714,
        "last_rank": 23820,
        "player_name": "Darren Malone",
        "rank": 24199,
        "rank_sort": 24232,
        "total": 2375
      },
      {
        "club_badge_src": null,
        "entry": 3873794,
        "entry_name": "boy chaimongkhon",
        "event_total": 42,
        "has_played": true,
        "id": 29084259,
        "last_rank": 13601,
        "player_name": "Boy Chaimongkhon",
        "rank": 24199,
        "rank_sort": 24233,
        "total": 2375
      },
      {
        "club_badge_src": null,
        "entry": 4224302,
        "entry_name": "Farke the Bus",
        "event_total": 78,
        "has_played": true,
        "id": 32001405,
        "last_rank": 47722,
        "player_name": "Simon Pearson",
        "rank": 24199,
        "rank_sort": 24234,
        "total": 2375
      },
      {
        "club_badge_src": null,
        "entry": 4681703,
        "entry_name": "Gusty's Giants",
        "event_total": 54,
        "has_played": true,
        "id": 35874434,
        "last_rank": 21450,
        "player_name": "Gavin Reid",
        "rank": 24199,
        "rank_sort": 24235,
        "total": 2375
      },
      {
        "club_badge_src": null,
        "entry": 4702775,
        "entry_name": "Balotellitubbies",
        "event_total": 55,
        "has_played": true,
        "id": 36053252,
        "last_rank": 22263,
        "player_name": "Mr Anthony",
        "rank": 24199,
        "rank_sort": 24236,
        "total": 2375
      },
      {
        "club_badge_src": null,
        "entry": 4902402,
        "entry_name": "Rocketdogs",
        "event_total": 64,
        "has_played": true,
        "id": 37803872,
        "last_rank": 30276,
        "player_name": "Beth Cammegh",
        "rank": 24199,
        "rank_sort": 24237,
        "total": 2375
      },
      {
        "club_badge_src": null,
        "entry": 5330309,
        "entry_name": "Chatsworth FC",
        "event_total": 69,
        "has_played": true,
        "id": 41322868,
        "last_rank": 35867,
        "player_name": "Dean Thompson",
        "rank": 24199,
        "rank_sort": 24238,
        "total": 2375
      },
      {
        "club_badge_src": null,
        "entry": 5383006,
        "entry_name": "Amad About Amorim",
        "event_total": 76,
        "has_played": true,
        "id": 41846201,
        "last_rank": 44303,
        "player_name": "Hasan Ahmed",
        "rank": 24199,
        "rank_sort": 24239,
        "total": 2375
      },
      {
        "club_badge_src": null,
        "entry": 5405779,
        "entry_name": "midwich cuckoos",
        "event_total": 64,
        "has_played": true,
        "id": 42034476,
        "last_rank": 26345,
        "player_name": "Kwame Kankam",
        "rank": 24199,
        "rank_sort": 24240,
        "total": 2375
      },
      {
        "club_badge_src": "https://fantasy.premierleague.com/gcs/plfpl-production-adobe-approved/plfpl-production/5913993/236abb8d-b1d6-4b26-8cfc-394a9e3b3b45.png",
        "entry": 5913993,
        "entry_name": "Red Beach Blades",
        "event_total": 49,
        "has_played": true,
        "id": 46476081,
        "last_rank": 17848,
        "player_name": "Jilly Pearson",
        "rank": 24199,
        "rank_sort": 24241,
        "total": 2375
      },
      {
        "club_badge_src": null,
        "entry": 6198023,
        "entry_name": "In zenia",
        "event_total": 53,
        "has_played": true,
        "id": 49028282,
        "last_rank": 20678,
        "player_name": "derek keeley",
        "rank": 24199,
        "rank_sort": 24242,
        "total": 2375
      },
      {
        "club_badge_src": null,
        "entry": 6379830,
        "entry_name": "Chows United",
        "event_total": 71,
        "has_played": true,
        "id": 50740367,
        "last_rank": 38267,
        "player_name": "Arslan Nawaz",
        "rank": 24199,
        "rank_sort": 24243,
        "total": 2375
      },
      {
        "club_badge_src": null,
        "entry": 7038982,
        "entry_name": "Team17",
        "event_total": 72,
        "has_played": true,
        "id": 56588882,
        "last_rank": 39403,
        "player_name": "Connor KB",
        "rank": 24199,
        "rank_sort": 24244,
        "total": 2375
      },
      {
        "club_badge_src": null,
        "entry": 7254768,
        "entry_name": "PHASE 5",
        "event_total": 47,
        "has_played": true,
        "id": 58651611,
        "last_rank": 16512,
        "player_name": "Conor Heffernan",
        "rank": 24199,
        "rank_sort": 24245,
        "total": 2375
      },
      {
        "club_badge_src": null,
        "entry": 7388951,
        "entry_name": "Malcolm and Dennis",
        "event_total": 65,
        "has_played": true,
        "id": 59909977,
        "last_rank": 31309,
        "player_name": "Andrew Davies",
        "rank": 24199,
        "rank_sort": 24246,
        "total": 2375
      },
      {
        "club_badge_src": null,
        "entry": 7727240,
        "entry_name": "Major League Saka",
        "event_total": 55,
        "has_played": true,
        "id": 63416544,
        "last_rank": 19176,
        "player_name": "Eoin Flanagan",
        "rank": 24199,
        "rank_sort": 24247,
        "total": 2375
      },
      {
        "club_badge_src": null,
        "entry": 8462188,
        "entry_name": "xG & Vibes FC",
        "event_total": 68,
        "has_played": true,
        "id": 70270400,
        "last_rank": 30060,
        "player_name": "Maroof Khan",
        "rank": 24199,
        "rank_sort": 24248,
        "total": 2375
      },
      {
        "club_badge_src": null,
        "entry": 8527766,
        "entry_name": "2ELS United",
        "event_total": 64,
        "has_played": true,
        "id": 70905432,
        "last_rank": 30276,
        "player_name": "Mihail Arnaudov",
        "rank": 24199,
        "rank_sort": 24249,
        "total": 2375
      },
      {
        "club_badge_src": null,
        "entry": 5763,
        "entry_name": "Phoenix FC",
        "event_total": 62,
        "has_played": true,
        "id": 32906,
        "last_rank": 24636,
        "player_name": "Pawel Fenkanin",
        "rank": 24250,
        "rank_sort": 24250,
        "total": 2375
      }
    ]
  }
}