{
  "last_updated_data": "2026-05-24T23:28:17Z",
  "league": {
    "admin_entry": null,
    "closed": false,
    "code_privacy": "p",
    "created": "2025-07-20T23:14:33.933835Z",
    "cup_league": 2815434,
    "has_cup": true,
    "id": 314,
    "league_type": "s",
    "max_entries": null,
    "name": "Overall",
    "rank": null,
    "scoring": "c",
    "start_event": 1
  },
  "new_entries": {
    "has_next": false,
    "page": 1,
    "results": []
  },
  "standings": {
    "has_next": true,
    "page": 1001,
    "results": [
      {
        "club_badge_src": null,
        "entry": 7880564,
        "entry_name": "Tharwatsasa",
        "event_total": 65,
        "has_played": true,
        "id": 64809295,
        "last_rank": 63724,
        "player_name": "Ahmed Tharwat",
        "rank": 49730,
        "rank_sort": 50001,
        "total": 2352
      },
      {
        "club_badge_src": null,
        "entry": 8003740,
        "entry_name": "MP",
        "event_total": 61,
        "has_played": true,
        "id": 65917799,
        "last_rank": 56708,
        "player_name": "Mayur Patel",
        "rank": 49730,
        "rank_sort": 50002,
        "total": 2352
      },
      {
        "club_badge_src": null,
        "entry": 8012073,
        "entry_name": "k3moor",
        "event_total": 57,
        "has_played": true,
        "id": 65993453,
        "last_rank": 50199,
        "player_name": "Kamoor Z",
        "rank": 49730,
        "rank_sort": 50003,
        "total": 2352
      },
      {
        "club_badge_src": null,
        "entry": 8099796,
        "entry_name": "V\u00e5rviks utvalgte",
        "event_total": 52,
        "has_played": true,
        "id": 66799538,
        "last_rank": 42648,
        "player_name": "Kirsten V\u00e5rvik S\u00f8nnesyn",
        "rank": 49730,
        "rank_sort": 50004,
        "total": 2352
      },
      {
        "club_badge_src": null,
        "entry": 8254253,
        "entry_name": "The Galacticos",
        "event_total": 56,
        "has_played": true,
        "id": 68264542,
        "last_rank": 48642,
        "player_name": "Muhammad Rafaqat Ali",
        "rank": 49730,
        "rank_sort": 50005,
        "total": 2352
      },
      {
        "club_badge_src": null,
        "entry": 8348493,
        "entry_name": "Roman Gladiators",
        "event_total": 59,
        "has_played": true,
        "id": 69188227,
        "last_rank": 53345,
        "player_name": "Emanuela Pena Ragno",
        "rank": 49730,
        "rank_sort": 50006,
        "total": 2352
      },
      {
        "club_badge_src": "https://fantasy.premierleague.com/gcs/plfpl-production-adobe-approved/plfpl-production/8350136/262bc07b-e383-47e7-a287-fe88d18bb974.png",
        "entry": 8350136,
        "entry_name": "Blue Mind Rovers",
        "event_total": 64,
        "has_played": true,
        "id": 69203750,
        "last_rank": 61950,
        "player_name": "Nurul Azhar",
        "rank": 49730,
        "rank_sort": 50007,
        "total": 2352
      },
      {
        "club_badge_src": null,
        "entry": 8434670,
        "entry_name": "alhilal",
        "event_total": 68,
        "has_played": true,
        "id": 70009674,
        "last_rank": 68957,
        "player_name": "Muath Saleh",
        "rank": 49730,
        "rank_sort": 50008,
        "total": 2352
      },
      {
        "club_badge_src": null,
        "entry": 8584269,
        "entry_name": "...",
        "event_total": 65,
        "has_played": true,
        "id": 71446484,
        "last_rank": 63724,
        "player_name": "Wilhelm Granath",
        "rank": 49730,
        "rank_sort": 50009,
        "total": 2352
      },
      {
        "club_badge_src": null,
        "entry": 8641939,
        "entry_name": "rougeethan",
        "event_total": 80,
        "has_played": true,
        "id": 72006213,
        "last_rank": 95640,
        "player_name": "Ethan Kyaka",
        "rank": 49730,
        "rank_sort": 50010,
        "total": 2352
      },
      {
        "club_badge_src": null,
        "entry": 8805507,
        "entry_name": "A.said",
        "event_total": 52,
        "has_played": true,
        "id": 73597738,
        "last_rank": 42940,
        "player_name": "ahmed said",
        "rank": 49730,
        "rank_sort": 50011,
        "total": 2352
      },
      {
        "club_badge_src": null,
        "entry": 9034369,
        "entry_name": "Kallevik\u00b4s XI",
        "event_total": 48,
        "has_played": true,
        "id": 75812180,
        "last_rank": 38016,
        "player_name": "Svein Helge Kallevik",
        "rank": 49730,
        "rank_sort": 50012,
        "total": 2352
      },
      {
        "club_badge_src": null,
        "entry": 9123076,
        "entry_name": "Squidwirtz",
        "event_total": 65,
        "has_played": true,
        "id": 76678308,
        "last_rank": 56369,
        "player_name": "Alan Robinson",
        "rank": 49730,
        "rank_sort": 50013,
        "total": 2352
      },
      {
        "club_badge_src": null,
        "entry": 9200028,
        "entry_name": "Todd Precord",
        "event_total": 54,
        "has_played": true,
        "id": 77434215,
        "last_rank": 45927,
        "player_name": "Todd Precord",
        "rank": 49730,
        "rank_sort": 50014,
        "total": 2352
      },
      {
        "club_badge_src": null,
        "entry": 9258620,
        "entry_name": "Palm Before Da Storm",
        "event_total": 60,
        "has_played": true,
        "id": 78006420,
        "last_rank": 54667,
        "player_name": "Agit Mutlu",
        "rank": 49730,
        "rank_sort": 50015,
        "total": 2352
      },
      {
        "club_badge_src": null,
        "entry": 9267052,
        "entry_name": "Hunnisett FC",
        "event_total": 57,
        "has_played": true,
        "id": 78089152,
        "last_rank": 49880,
        "player_name": "Andrew Hunnisett",
        "rank": 49730,
        "rank_sort": 50016,
        "total": 2352
      },
      {
        "club_badge_src": null,
        "entry": 9357786,
        "entry_name": "Wirtz Case Scenario",
        "event_total": 60,
        "has_played": true,
        "id": 78961623,
        "last_rank": 54667,
        "player_name": "Chris Cookson",
        "rank": 49730,
        "rank_sort": 50017,
        "total": 2352
      },
      {
        "club_badge_src": null,
        "entry": 9426179,
        "entry_name": "Team Tanjiro",
        "event_total": 66,
        "has_played": true,
        "id": 79624440,
        "last_rank": 65475,
        "player_name": "Charles Miano",
        "rank": 49730,
        "rank_sort": 50018,
        "total": 2352
      },
      {
        "club_badge_src": null,
        "entry": 9461806,
        "entry_name": "Unge P",
        "event_total": 67,
        "has_played": true,
        "id": 79957559,
        "last_rank": 67063,
        "player_name": "Ingrid Pettersen",
        "rank": 49730,
        "rank_sort": 50019,
        "total": 2352
      },
      {
        "club_badge_src": null,
        "entry": 448,
        "entry_name": "Alfredo Linguini",
        "event_total": 74,
        "has_played": true,
        "id": 2472,
        "last_rank": 82069,
        "player_name": "Adam Bail",
        "rank": 50020,
        "rank_sort": 50020,
        "total": 2352
      },
      {
        "club_badge_src": null,
        "entry": 600,
        "entry_name": "Indecisive United",
        "event_total": 74,
        "has_played": true,
        "id": 3312,
        "last_rank": 73423,
        "player_name": "Philippa Norris",
        "rank": 50020,
        "rank_sort": 50021,
        "total": 2352
      },
      {
        "club_badge_src": null,
        "entry": 1036,
        "entry_name": "4 Beto or Worse",
        "event_total": 73,
        "has_played": true,
        "id": 5747,
        "last_rank": 79431,
        "player_name": "Tom Quirk",
        "rank": 50020,
        "rank_sort": 50022,
        "total": 2352
      },
      {
        "club_badge_src": null,
        "entry": 1670,
        "entry_name": "Pigeons FC",
        "event_total": 73,
        "has_played": true,
        "id": 9288,
        "last_rank": 79817,
        "player_name": "Jam Co",
        "rank": 50020,
        "rank_sort": 50023,
        "total": 2352
      },
      {
        "club_badge_src": null,
        "entry": 2127,
        "entry_name": "ChatVVD",
        "event_total": 52,
        "has_played": true,
        "id": 11863,
        "last_rank": 37589,
        "player_name": "Tom Treasure",
        "rank": 50020,
        "rank_sort": 50024,
        "total": 2352
      },
      {
        "club_badge_src": null,
        "entry": 8177,
        "entry_name": "Le Feu et Rouge!",
        "event_total": 61,
        "has_played": true,
        "id": 47392,
        "last_rank": 57001,
        "player_name": "Jack Brackstone-Brown",
        "rank": 50020,
        "rank_sort": 50025,
        "total": 2352
      },
      {
        "club_badge_src": null,
        "entry": 9886,
        "entry_name": ".",
        "event_total": 70,
        "has_played": true,
        "id": 58292,
        "last_rank": 73720,
        "player_name": "Ben Poliszczuk",
        "rank": 50020,
        "rank_sort": 50026,
        "total": 2352
      },
      {
        "club_badge_src": null,
        "entry": 20292,
        "entry_name": "FPL HaFid",
        "event_total": 77,
        "has_played": true,
        "id": 126422,
        "last_rank": 89055,
        "player_name": "Hafid Bel",
        "rank": 50020,
        "rank_sort": 50027,
        "total": 2352
      },
      {
        "club_badge_src": null,
        "entry": 22700,
        "entry_name": "KINGS11",
        "event_total": 56,
        "has_played": true,
        "id": 142645,
        "last_rank": 48898,
        "player_name": "Kerwin Meyer",
        "rank": 50020,
        "rank_sort": 50028,
        "total": 2352
      },
      {
        "club_badge_src": "https://fantasy.premierleague.com/gcs/plfpl-production-adobe-approved/plfpl-production/28209/2bac478c-10a5-4e18-9225-9e008a49522c.png",
        "entry": 28209,
        "entry_name": "GomesUnderTheHammer",
        "event_total": 60,
        "has_played": true,
        "id": 178372,
        "last_rank": 48642,
        "player_name": "jay saha",
        "rank": 50020,
        "rank_sort": 50029,
        "total": 2352
      },
      {
        "club_badge_src": "https://fantasy.premierleague.com/gcs/plfpl-production-adobe-approved/plfpl-production/32248/348c4950-e11e-411d-9a1e-c96fc1c99b60.png",
        "entry": 32248,
        "entry_name": "P\u00f8lsekokerne",
        "event_total": 69,
        "has_played": true,
        "id": 205037,
        "last_rank": 71713,
        "player_name": "Magnus Pettersen",
        "rank": 50020,
        "rank_sort": 50030,
        "total": 2352
      },
      {
        "club_badge_src": null,
        "entry": 38343,
        "entry_name": "AGZ4gno5tic C.F.",
        "event_total": 58,
        "has_played": true,
        "id": 245735,
        "last_rank": 51984,
        "player_name": "Tew Ratchasek",
        "rank": 50020,
        "rank_sort": 50031,
        "total": 2352
      },
      {
        "club_badge_src": "https://fantasy.premierleague.com/gcs/plfpl-production-adobe-approved/plfpl-production/38811/f1e816ea-b80c-43e3-ba07-094747333d4c.png",
        "entry": 38811,
        "entry_name": "Harchester United\u2122",
        "event_total": 67,
        "has_played": true,
        "id": 248797,
        "last_rank": 67695,
        "player_name": "Keiron Baptiste",
        "rank": 50020,
        "rank_sort": 50032,
        "total": 2352
      },
      {
        "club_badge_src": null,
        "entry": 49269,
        "entry_name": ". . The Best . .",
        "event_total": 56,
        "has_played": true,
        "id": 316644,
        "last_rank": 42940,
        "player_name": "Salem Alderei",
        "rank": 50020,
        "rank_sort": 50033,
        "total": 2352
      },
      {
        "club_badge_src": null,
        "entry": 50969,
        "entry_name": "AMORIM OUT #3Mainoo",
        "event_total": 84,
        "has_played": true,
        "id": 327867,
        "last_rank": 105963,
        "player_name": "Finley Bown",
        "rank": 50020,
        "rank_sort": 50034,
        "total": 2352
      },
      {
        "club_badge_src": null,
        "entry": 52013,
        "entry_name": "Mukiele Fan Club FC",
        "event_total": 52,
        "has_played": true,
        "id": 334513,
        "last_rank": 37822,
        "player_name": "Matt S",
        "rank": 50020,
        "rank_sort": 50035,
        "total": 2352
      },
      {
        "club_badge_src": null,
        "entry": 58022,
        "entry_name": "You Son of a Gun",
        "event_total": 67,
        "has_played": true,
        "id": 373788,
        "last_rank": 67695,
        "player_name": "Benton Reed",
        "rank": 50020,
        "rank_sort": 50036,
        "total": 2352
      },
      {
        "club_badge_src": null,
        "entry": 58778,
        "entry_name": "Swansalona",
        "event_total": 47,
        "has_played": true,
        "id": 378578,
        "last_rank": 36831,
        "player_name": "Owen Medwin",
        "rank": 50020,
        "rank_sort": 50037,
        "total": 2352
      },
      {
        "club_badge_src": null,
        "entry": 70973,
        "entry_name": "Wirtz Case scenario",
        "event_total": 66,
        "has_played": true,
        "id": 460909,
        "last_rank": 65796,
        "player_name": "Ioannis Foukas",
        "rank": 50020,
        "rank_sort": 50038,
        "total": 2352
      },
      {
        "club_badge_src": null,
        "entry": 82428,
        "entry_name": "Looneytoonarmy",
        "event_total": 50,
        "has_played": true,
        "id": 536358,
        "last_rank": 35166,
        "player_name": "Michael Murphy",
        "rank": 50020,
        "rank_sort": 50039,
        "total": 2352
      },
      {
        "club_badge_src": null,
        "entry": 86741,
        "entry_name": "Greyfriars Bobby",
        "event_total": 59,
        "has_played": true,
        "id": 565377,
        "last_rank": 47163,
        "player_name": "Bruce Batty",
        "rank": 50020,
        "rank_sort": 50040,
        "total": 2352
      },
      {
        "club_badge_src": null,
        "entry": 87707,
        "entry_name": "Auto",
        "event_total": 54,
        "has_played": true,
        "id": 572046,
        "last_rank": 45927,
        "player_name": "Stan Laguna",
        "rank": 50020,
        "rank_sort": 50041,
        "total": 2352
      },
      {
        "club_badge_src": null,
        "entry": 89545,
        "entry_name": "Len\u2019s Bin Tippers",
        "event_total": 58,
        "has_played": true,
        "id": 584531,
        "last_rank": 45714,
        "player_name": "Dudley Mason",
        "rank": 50020,
        "rank_sort": 50042,
        "total": 2352
      },
      {
        "club_badge_src": null,
        "entry": 99721,
        "entry_name": "Cunha Belive It",
        "event_total": 48,
        "has_played": true,
        "id": 650947,
        "last_rank": 38016,
        "player_name": "Declan Molloy",
        "rank": 50020,
        "rank_sort": 50043,
        "total": 2352
      },
      {
        "club_badge_src": "https://fantasy.premierleague.com/gcs/plfpl-production-adobe-approved/plfpl-production/112255/7ca3b3e6-6332-4295-9fbd-c46a507615a9.png",
        "entry": 112255,
        "entry_name": "No Salah No Cry",
        "event_total": 50,
        "has_played": true,
        "id": 731876,
        "last_rank": 40503,
        "player_name": "Fadhilu Ra'man",
        "rank": 50020,
        "rank_sort": 50044,
        "total": 2352
      },
      {
        "club_badge_src": null,
        "entry": 117985,
        "entry_name": "Mount Cunha",
        "event_total": 57,
        "has_played": true,
        "id": 770027,
        "last_rank": 44303,
        "player_name": "sumeet yagnik",
        "rank": 50020,
        "rank_sort": 50045,
        "total": 2352
      },
      {
        "club_badge_src": null,
        "entry": 132947,
        "entry_name": "Baby Reijnders",
        "event_total": 79,
        "has_played": true,
        "id": 865979,
        "last_rank": 93883,
        "player_name": "Bobby Heaven",
        "rank": 50020,
        "rank_sort": 50046,
        "total": 2352
      },
      {
        "club_badge_src": null,
        "entry": 138011,
        "entry_name": "Rutter woke nonsense",
        "event_total": 59,
        "has_played": true,
        "id": 900019,
        "last_rank": 47163,
        "player_name": "Kit Cornall",
        "rank": 50020,
        "rank_sort": 50047,
        "total": 2352
      },
      {
        "club_badge_src": "https://fantasy.premierleague.com/gcs/plfpl-production-adobe-approved/plfpl-production/166143/dc1c2fba-afcb-445c-a434-1bf52756429c.png",
        "entry": 166143,
        "entry_name": "Calidad F.C.",
        "event_total": 60,
        "has_played": true,
        "id": 1097516,
        "last_rank": 48642,
        "player_name": "Andres Caro",
        "rank": 50020,
        "rank_sort": 50048,
        "total": 2352
      },
      {
        "club_badge_src": null,
        "entry": 178816,
        "entry_name": "Beef Cherki",
        "event_total": 47,
        "has_played": true,
        "id": 1180110,
        "last_rank": 31995,
        "player_name": "Josh Yilmaz",
        "rank": 50020,
        "rank_sort": 50049,
        "total": 2352
      },
      {
        "club_badge_src": null,
        "entry": 179120,
        "entry_name": "Twiggys Monsters",
        "event_total": 62,
        "has_played": true,
        "id": 1182013,
        "last_rank": 58688,
        "player_name": "Simon Rabin",
        "rank": 50020,
        "rank_sort": 50050,
        "total": 2352
      }
    ]
  }
}