{
  "last_updated_data": "2026-05-24T23:28:17Z",
  "league": {
    "admin_entry": null,
    "closed": false,
    "code_privacy": "p",
    "created": "2025-07-20T23:14:33.933835Z",
    "cup_league": 2815434,
    "has_cup": true,
    "id": 314,
    "league_type": "s",
    "max_entries": null,
    "name": "Overall",
    "rank": null,
    "scoring": "c",
    "start_event": 1
  },
  "new_entries": {
    "has_next": false,
    "page": 1,
    "results": []
  },
  "standings": {
    "has_next": true,
    "page": 1354,
    "results": [
      {
        "club_badge_src": null,
        "entry": 5394325,
        "entry_name": "Marvo Globetrotters",
        "event_total": 68,
        "has_played": true,
        "id": 41939426,
        "last_rank": 93052,
        "player_name": "Martyn Daniel",
        "rank": 67637,
        "rank_sort": 67651,
        "total": 2341
      },
      {
        "club_badge_src": null,
        "entry": 5852874,
        "entry_name": "Hawk",
        "event_total": 35,
        "has_played": true,
        "id": 45952447,
        "last_rank": 34969,
        "player_name": "Mahir Haque",
        "rank": 67637,
        "rank_sort": 67652,
        "total": 2341
      },
      {
        "club_badge_src": null,
        "entry": 6116768,
        "entry_name": "Brodie",
        "event_total": 62,
        "has_played": true,
        "id": 48321781,
        "last_rank": 70566,
        "player_name": "Brodie Pierce",
        "rank": 67637,
        "rank_sort": 67653,
        "total": 2341
      },
      {
        "club_badge_src": null,
        "entry": 6137648,
        "entry_name": "Lads on toure",
        "event_total": 67,
        "has_played": true,
        "id": 48505154,
        "last_rank": 90625,
        "player_name": "Priscillah John",
        "rank": 67637,
        "rank_sort": 67654,
        "total": 2341
      },
      {
        "club_badge_src": null,
        "entry": 6195293,
        "entry_name": "k\u00f6tt & Potatis",
        "event_total": 67,
        "has_played": true,
        "id": 49004688,
        "last_rank": 90524,
        "player_name": "Henrik Sellgren",
        "rank": 67637,
        "rank_sort": 67655,
        "total": 2341
      },
      {
        "club_badge_src": "https://fantasy.premierleague.com/gcs/plfpl-production-adobe-approved/plfpl-production/6263022/685552ef-b02b-4f73-8343-5155956f190a.png",
        "entry": 6263022,
        "entry_name": "Onana your bizness",
        "event_total": 75,
        "has_played": true,
        "id": 49589200,
        "last_rank": 111169,
        "player_name": "Parveen Kaur",
        "rank": 67637,
        "rank_sort": 67656,
        "total": 2341
      },
      {
        "club_badge_src": null,
        "entry": 6340935,
        "entry_name": "Doug McBuckets",
        "event_total": 58,
        "has_played": true,
        "id": 50400123,
        "last_rank": 70651,
        "player_name": "Luke Meehan",
        "rank": 67637,
        "rank_sort": 67657,
        "total": 2341
      },
      {
        "club_badge_src": "https://fantasy.premierleague.com/gcs/plfpl-production-adobe-approved/plfpl-production/6549873/315b259f-46a6-44db-b1fa-b19c87947f26.png",
        "entry": 6549873,
        "entry_name": "ManChestHair United",
        "event_total": 56,
        "has_played": true,
        "id": 52266242,
        "last_rank": 66693,
        "player_name": "Richard Culleton",
        "rank": 67637,
        "rank_sort": 67658,
        "total": 2341
      },
      {
        "club_badge_src": null,
        "entry": 6867371,
        "entry_name": "Danchester United",
        "event_total": 64,
        "has_played": true,
        "id": 55027902,
        "last_rank": 83498,
        "player_name": "Dan James",
        "rank": 67637,
        "rank_sort": 67659,
        "total": 2341
      },
      {
        "club_badge_src": null,
        "entry": 8168037,
        "entry_name": "RhodaLubbish",
        "event_total": 58,
        "has_played": true,
        "id": 67436206,
        "last_rank": 70600,
        "player_name": "Ida Nojaxxit",
        "rank": 67637,
        "rank_sort": 67660,
        "total": 2341
      },
      {
        "club_badge_src": null,
        "entry": 80769,
        "entry_name": "Tonyspurs",
        "event_total": 47,
        "has_played": true,
        "id": 525481,
        "last_rank": 51220,
        "player_name": "Tony Giles",
        "rank": 67661,
        "rank_sort": 67661,
        "total": 2341
      },
      {
        "club_badge_src": null,
        "entry": 220337,
        "entry_name": "Jonesy's Giants",
        "event_total": 59,
        "has_played": true,
        "id": 1465466,
        "last_rank": 72702,
        "player_name": "Matt Jones",
        "rank": 67661,
        "rank_sort": 67662,
        "total": 2341
      },
      {
        "club_badge_src": "https://fantasy.premierleague.com/gcs/plfpl-production-adobe-approved/plfpl-production/234492/dba448b0-a01a-4dbe-8f2e-431c6d8f2049.png",
        "entry": 234492,
        "entry_name": "TeamT",
        "event_total": 68,
        "has_played": true,
        "id": 1560337,
        "last_rank": 92973,
        "player_name": "Tony Doyle",
        "rank": 67661,
        "rank_sort": 67663,
        "total": 2341
      },
      {
        "club_badge_src": null,
        "entry": 247510,
        "entry_name": "gardens allstars",
        "event_total": 52,
        "has_played": true,
        "id": 1647506,
        "last_rank": 59632,
        "player_name": "Lisa Taylor",
        "rank": 67661,
        "rank_sort": 67664,
        "total": 2341
      },
      {
        "club_badge_src": null,
        "entry": 335377,
        "entry_name": "Ndidi White Partey",
        "event_total": 65,
        "has_played": true,
        "id": 2245668,
        "last_rank": 76885,
        "player_name": "Kyle Halliday",
        "rank": 67661,
        "rank_sort": 67665,
        "total": 2341
      },
      {
        "club_badge_src": null,
        "entry": 358011,
        "entry_name": "FC Tags",
        "event_total": 67,
        "has_played": true,
        "id": 2395796,
        "last_rank": 90524,
        "player_name": "Chris Tague",
        "rank": 67661,
        "rank_sort": 67666,
        "total": 2341
      },
      {
        "club_badge_src": "https://fantasy.premierleague.com/gcs/plfpl-production-adobe-approved/plfpl-production/388226/ac31b47b-adf0-46c6-ba47-9ac8dcf117a7.png",
        "entry": 388226,
        "entry_name": "Islam fpl dz",
        "event_total": 64,
        "has_played": true,
        "id": 2604398,
        "last_rank": 83698,
        "player_name": "mohamed gacem",
        "rank": 67661,
        "rank_sort": 67667,
        "total": 2341
      },
      {
        "club_badge_src": null,
        "entry": 528985,
        "entry_name": "coolmeen Rovers",
        "event_total": 53,
        "has_played": true,
        "id": 3556904,
        "last_rank": 61411,
        "player_name": "Anthony Hanrahan",
        "rank": 67661,
        "rank_sort": 67668,
        "total": 2341
      },
      {
        "club_badge_src": null,
        "entry": 539946,
        "entry_name": "evanilson",
        "event_total": 81,
        "has_played": true,
        "id": 3634374,
        "last_rank": 128920,
        "player_name": "Evan Wilkinson",
        "rank": 67661,
        "rank_sort": 67669,
        "total": 2341
      },
      {
        "club_badge_src": "https://fantasy.premierleague.com/gcs/plfpl-production-adobe-approved/plfpl-production/758047/8726d806-a6df-41ce-b1c4-a9ec2e7b101f.png",
        "entry": 758047,
        "entry_name": "Tboypool",
        "event_total": 65,
        "has_played": true,
        "id": 5163419,
        "last_rank": 86054,
        "player_name": "Anthony Ibezim",
        "rank": 67661,
        "rank_sort": 67670,
        "total": 2341
      },
      {
        "club_badge_src": "https://fantasy.premierleague.com/gcs/plfpl-production-adobe-approved/plfpl-production/762292/464e6d73-974e-4a92-beed-da8cacc5fd7a.png",
        "entry": 762292,
        "entry_name": "Hakuna Mateta",
        "event_total": 62,
        "has_played": true,
        "id": 5198524,
        "last_rank": 79027,
        "player_name": "Steven Scott-Telford",
        "rank": 67661,
        "rank_sort": 67671,
        "total": 2341
      },
      {
        "club_badge_src": "https://fantasy.premierleague.com/gcs/plfpl-production-adobe-approved/plfpl-production/828254/d85fef80-c48c-4c31-b6de-26e291d0b59a.png",
        "entry": 828254,
        "entry_name": "The Professor",
        "event_total": 50,
        "has_played": true,
        "id": 5672840,
        "last_rank": 56180,
        "player_name": "Jazz Rai",
        "rank": 67661,
        "rank_sort": 67672,
        "total": 2341
      },
      {
        "club_badge_src": null,
        "entry": 931664,
        "entry_name": "KudusToYou",
        "event_total": 65,
        "has_played": true,
        "id": 6410747,
        "last_rank": 85870,
        "player_name": "Chris Chaplin",
        "rank": 67661,
        "rank_sort": 67673,
        "total": 2341
      },
      {
        "club_badge_src": null,
        "entry": 1247269,
        "entry_name": "Backstreet Moyes",
        "event_total": 40,
        "has_played": true,
        "id": 8662467,
        "last_rank": 41162,
        "player_name": "Matt Winfield",
        "rank": 67661,
        "rank_sort": 67674,
        "total": 2341
      },
      {
        "club_badge_src": null,
        "entry": 1291836,
        "entry_name": "Doublio",
        "event_total": 46,
        "has_played": true,
        "id": 8976736,
        "last_rank": 49691,
        "player_name": "Gustaf Hederoth",
        "rank": 67661,
        "rank_sort": 67675,
        "total": 2341
      },
      {
        "club_badge_src": null,
        "entry": 1307614,
        "entry_name": "Ismail",
        "event_total": 58,
        "has_played": true,
        "id": 9088744,
        "last_rank": 70651,
        "player_name": "Ismael Ibrahem",
        "rank": 67661,
        "rank_sort": 67676,
        "total": 2341
      },
      {
        "club_badge_src": null,
        "entry": 1372875,
        "entry_name": "Beef Cherki",
        "event_total": 63,
        "has_played": true,
        "id": 9543305,
        "last_rank": 81185,
        "player_name": "cole chapman",
        "rank": 67661,
        "rank_sort": 67677,
        "total": 2341
      },
      {
        "club_badge_src": null,
        "entry": 1420289,
        "entry_name": "EndlessAYED",
        "event_total": 61,
        "has_played": true,
        "id": 9889305,
        "last_rank": 76947,
        "player_name": "Ayed Saad",
        "rank": 67661,
        "rank_sort": 67678,
        "total": 2341
      },
      {
        "club_badge_src": null,
        "entry": 1432199,
        "entry_name": "\u041c\u0435\u043c\u043e\u0432\u0447\u0435\u0442\u0430",
        "event_total": 42,
        "has_played": true,
        "id": 9979656,
        "last_rank": 43849,
        "player_name": "Tsvetelina Nikolova",
        "rank": 67661,
        "rank_sort": 67679,
        "total": 2341
      },
      {
        "club_badge_src": null,
        "entry": 1808665,
        "entry_name": "minkfarmarna",
        "event_total": 39,
        "has_played": true,
        "id": 12715819,
        "last_rank": 39874,
        "player_name": "Andreas Eklund",
        "rank": 67661,
        "rank_sort": 67680,
        "total": 2341
      },
      {
        "club_badge_src": null,
        "entry": 1894893,
        "entry_name": "\u062d\u0627\u062a\u0645 \u0635\u0628\u0631\u0648",
        "event_total": 40,
        "has_played": true,
        "id": 13355952,
        "last_rank": 41162,
        "player_name": "Hatim Sabro",
        "rank": 67661,
        "rank_sort": 67681,
        "total": 2341
      },
      {
        "club_badge_src": null,
        "entry": 1999642,
        "entry_name": "IFK Pastasaus",
        "event_total": 59,
        "has_played": true,
        "id": 14135538,
        "last_rank": 72702,
        "player_name": "Stian Johansen",
        "rank": 67661,
        "rank_sort": 67682,
        "total": 2341
      },
      {
        "club_badge_src": null,
        "entry": 2004084,
        "entry_name": "TP FC",
        "event_total": 59,
        "has_played": true,
        "id": 14168759,
        "last_rank": 72702,
        "player_name": "Taylen Patel",
        "rank": 67661,
        "rank_sort": 67683,
        "total": 2341
      },
      {
        "club_badge_src": "https://fantasy.premierleague.com/gcs/plfpl-production-adobe-approved/plfpl-production/2090937/58ebc4e0-bf11-4ae5-911f-efc36623603b.png",
        "entry": 2090937,
        "entry_name": "SB FC",
        "event_total": 79,
        "has_played": true,
        "id": 14834869,
        "last_rank": 122843,
        "player_name": "Simon Bayliss",
        "rank": 67661,
        "rank_sort": 67684,
        "total": 2341
      },
      {
        "club_badge_src": null,
        "entry": 2406955,
        "entry_name": "Ha Cunha Matata",
        "event_total": 58,
        "has_played": true,
        "id": 17204485,
        "last_rank": 70757,
        "player_name": "Luke Corbett",
        "rank": 67661,
        "rank_sort": 67685,
        "total": 2341
      },
      {
        "club_badge_src": null,
        "entry": 2452892,
        "entry_name": "turkish de ligt",
        "event_total": 53,
        "has_played": true,
        "id": 17544075,
        "last_rank": 61411,
        "player_name": "Adam Kilby",
        "rank": 67661,
        "rank_sort": 67686,
        "total": 2341
      },
      {
        "club_badge_src": null,
        "entry": 2906685,
        "entry_name": "Livin Saliba Loca",
        "event_total": 60,
        "has_played": true,
        "id": 21302338,
        "last_rank": 74898,
        "player_name": "Joshua Blomfield",
        "rank": 67661,
        "rank_sort": 67687,
        "total": 2341
      },
      {
        "club_badge_src": "https://fantasy.premierleague.com/gcs/plfpl-production-adobe-approved/plfpl-production/2993816/39c44c66-808e-41e9-8a6b-f49b1b6bfb8e.png",
        "entry": 2993816,
        "entry_name": "Outatime FC",
        "event_total": 46,
        "has_played": true,
        "id": 22019163,
        "last_rank": 49542,
        "player_name": "Tommy Halden",
        "rank": 67661,
        "rank_sort": 67688,
        "total": 2341
      },
      {
        "club_badge_src": null,
        "entry": 3143487,
        "entry_name": "Kinder Mbeumo",
        "event_total": 84,
        "has_played": true,
        "id": 23208835,
        "last_rank": 138708,
        "player_name": "Osian O-Malley",
        "rank": 67661,
        "rank_sort": 67689,
        "total": 2341
      },
      {
        "club_badge_src": null,
        "entry": 3335350,
        "entry_name": "amigos \u2605",
        "event_total": 66,
        "has_played": true,
        "id": 24735115,
        "last_rank": 88185,
        "player_name": "Luke Williams",
        "rank": 67661,
        "rank_sort": 67690,
        "total": 2341
      },
      {
        "club_badge_src": null,
        "entry": 3891988,
        "entry_name": "BNM XI",
        "event_total": 42,
        "has_played": true,
        "id": 29248738,
        "last_rank": 43849,
        "player_name": "Abdullah Abanmi",
        "rank": 67661,
        "rank_sort": 67691,
        "total": 2341
      },
      {
        "club_badge_src": null,
        "entry": 3910934,
        "entry_name": "SuperBockFC",
        "event_total": 53,
        "has_played": true,
        "id": 29404257,
        "last_rank": 61411,
        "player_name": "Michael Pereira",
        "rank": 67661,
        "rank_sort": 67692,
        "total": 2341
      },
      {
        "club_badge_src": null,
        "entry": 3967070,
        "entry_name": "Green Trivela",
        "event_total": 55,
        "has_played": true,
        "id": 29851312,
        "last_rank": 64943,
        "player_name": "Ahmad Izzul",
        "rank": 67661,
        "rank_sort": 67693,
        "total": 2341
      },
      {
        "club_badge_src": null,
        "entry": 3973578,
        "entry_name": "Eiksmarka Wieners",
        "event_total": 48,
        "has_played": true,
        "id": 29905117,
        "last_rank": 52853,
        "player_name": "Anette Fjeld-Hansen",
        "rank": 67661,
        "rank_sort": 67694,
        "total": 2341
      },
      {
        "club_badge_src": null,
        "entry": 4005978,
        "entry_name": "fc all star",
        "event_total": 64,
        "has_played": true,
        "id": 30176747,
        "last_rank": 83584,
        "player_name": "Sadiq chillini",
        "rank": 67661,
        "rank_sort": 67695,
        "total": 2341
      },
      {
        "club_badge_src": null,
        "entry": 4101428,
        "entry_name": "Patt Quays",
        "event_total": 23,
        "has_played": true,
        "id": 30971112,
        "last_rank": 23230,
        "player_name": "Harvey Michaelson",
        "rank": 67661,
        "rank_sort": 67696,
        "total": 2341
      },
      {
        "club_badge_src": "https://fantasy.premierleague.com/gcs/plfpl-production-adobe-approved/plfpl-production/4575678/414b2779-3bb5-450c-add3-b90660cfdb28.png",
        "entry": 4575678,
        "entry_name": "Lannister",
        "event_total": 57,
        "has_played": true,
        "id": 34924994,
        "last_rank": 68748,
        "player_name": "Antonius Lie",
        "rank": 67661,
        "rank_sort": 67697,
        "total": 2341
      },
      {
        "club_badge_src": null,
        "entry": 4774972,
        "entry_name": "Hoffmanheim",
        "event_total": 70,
        "has_played": true,
        "id": 36755693,
        "last_rank": 98073,
        "player_name": "Jamie Hoffman",
        "rank": 67661,
        "rank_sort": 67698,
        "total": 2341
      },
      {
        "club_badge_src": null,
        "entry": 4915729,
        "entry_name": "Big Brain Plays",
        "event_total": 30,
        "has_played": true,
        "id": 37913879,
        "last_rank": 29578,
        "player_name": "Kyle Andrade",
        "rank": 67661,
        "rank_sort": 67699,
        "total": 2341
      },
      {
        "club_badge_src": null,
        "entry": 5999207,
        "entry_name": "Benjamin\u2019s Boom",
        "event_total": 60,
        "has_played": true,
        "id": 47291362,
        "last_rank": 74787,
        "player_name": "Cormac Brady",
        "rank": 67661,
        "rank_sort": 67700,
        "total": 2341
      }
    ]
  }
}