{
  "last_updated_data": "2026-05-24T23:28:17Z",
  "league": {
    "admin_entry": null,
    "closed": false,
    "code_privacy": "p",
    "created": "2025-07-20T23:14:33.933835Z",
    "cup_league": 2815434,
    "has_cup": true,
    "id": 314,
    "league_type": "s",
    "max_entries": null,
    "name": "Overall",
    "rank": null,
    "scoring": "c",
    "start_event": 1
  },
  "new_entries": {
    "has_next": false,
    "page": 1,
    "results": []
  },
  "standings": {
    "has_next": true,
    "page": 1465,
    "results": [
      {
        "club_badge_src": null,
        "entry": 4854140,
        "entry_name": "Bracke BK",
        "event_total": 62,
        "has_played": true,
        "id": 37401512,
        "last_rank": 76574,
        "player_name": "Tobias Braxton",
        "rank": 73157,
        "rank_sort": 73201,
        "total": 2339
      },
      {
        "club_badge_src": null,
        "entry": 5656111,
        "entry_name": "BMW1012",
        "event_total": 59,
        "has_played": true,
        "id": 44248953,
        "last_rank": 62724,
        "player_name": "Walid Kamel",
        "rank": 73157,
        "rank_sort": 73202,
        "total": 2339
      },
      {
        "club_badge_src": null,
        "entry": 6088180,
        "entry_name": "Y.W.R",
        "event_total": 59,
        "has_played": true,
        "id": 48074003,
        "last_rank": 70276,
        "player_name": "Youssef Alrabab",
        "rank": 73157,
        "rank_sort": 73203,
        "total": 2339
      },
      {
        "club_badge_src": null,
        "entry": 6115298,
        "entry_name": "FC footy team",
        "event_total": 52,
        "has_played": true,
        "id": 48309320,
        "last_rank": 64562,
        "player_name": "Daniel Banfield",
        "rank": 73157,
        "rank_sort": 73204,
        "total": 2339
      },
      {
        "club_badge_src": null,
        "entry": 6874732,
        "entry_name": "barham",
        "event_total": 69,
        "has_played": true,
        "id": 55090987,
        "last_rank": 102700,
        "player_name": "barham karim",
        "rank": 73157,
        "rank_sort": 73205,
        "total": 2339
      },
      {
        "club_badge_src": null,
        "entry": 7208119,
        "entry_name": "Domination FC",
        "event_total": 65,
        "has_played": true,
        "id": 58209046,
        "last_rank": 92602,
        "player_name": "Ghunemi .",
        "rank": 73157,
        "rank_sort": 73206,
        "total": 2339
      },
      {
        "club_badge_src": null,
        "entry": 7583052,
        "entry_name": "beeenrooon",
        "event_total": 72,
        "has_played": true,
        "id": 62110755,
        "last_rank": 80651,
        "player_name": "Ben Ron",
        "rank": 73157,
        "rank_sort": 73207,
        "total": 2339
      },
      {
        "club_badge_src": "https://fantasy.premierleague.com/gcs/plfpl-production-adobe-approved/plfpl-production/7711164/ddd757da-772d-4baa-8d24-5d4c78118261.png",
        "entry": 7711164,
        "entry_name": "T",
        "event_total": 72,
        "has_played": true,
        "id": 63270865,
        "last_rank": 110709,
        "player_name": "Taif .",
        "rank": 73157,
        "rank_sort": 73208,
        "total": 2339
      },
      {
        "club_badge_src": null,
        "entry": 9400987,
        "entry_name": "Nutmeg FC",
        "event_total": 71,
        "has_played": true,
        "id": 79382754,
        "last_rank": 108086,
        "player_name": "Jesse Samuels",
        "rank": 73157,
        "rank_sort": 73209,
        "total": 2339
      },
      {
        "club_badge_src": "https://fantasy.premierleague.com/gcs/plfpl-production-adobe-approved/plfpl-production/3671/65aa5b95-a769-4224-9dca-d5db7cd14651.png",
        "entry": 3671,
        "entry_name": "Adam_AFC",
        "event_total": 71,
        "has_played": true,
        "id": 20815,
        "last_rank": 87808,
        "player_name": "Adam Graver",
        "rank": 73210,
        "rank_sort": 73210,
        "total": 2339
      },
      {
        "club_badge_src": null,
        "entry": 134335,
        "entry_name": "Chicken Onana",
        "event_total": 65,
        "has_played": true,
        "id": 874906,
        "last_rank": 92738,
        "player_name": "Oliver Li",
        "rank": 73210,
        "rank_sort": 73211,
        "total": 2339
      },
      {
        "club_badge_src": "https://fantasy.premierleague.com/gcs/plfpl-production-adobe-approved/plfpl-production/340669/d1c9b57b-61f5-482a-9cb4-dc4c98026dbc.png",
        "entry": 340669,
        "entry_name": "Tip Top & Flip Flops",
        "event_total": 54,
        "has_played": true,
        "id": 2280323,
        "last_rank": 68395,
        "player_name": "L Frater",
        "rank": 73210,
        "rank_sort": 73212,
        "total": 2339
      },
      {
        "club_badge_src": "https://fantasy.premierleague.com/gcs/plfpl-production-adobe-approved/plfpl-production/390603/08633c29-84b8-4491-8dd0-432778112837.png",
        "entry": 390603,
        "entry_name": "AC FERRARA",
        "event_total": 45,
        "has_played": true,
        "id": 2620088,
        "last_rank": 52561,
        "player_name": "Manuel Ferrara",
        "rank": 73210,
        "rank_sort": 73213,
        "total": 2339
      },
      {
        "club_badge_src": "https://fantasy.premierleague.com/gcs/plfpl-production-adobe-approved/plfpl-production/416826/58ce1eb3-fc7e-437f-ace9-967c6d8a9b14.png",
        "entry": 416826,
        "entry_name": "itsallgoodman",
        "event_total": 61,
        "has_played": true,
        "id": 2794167,
        "last_rank": 74474,
        "player_name": "Elez-Ammar Keserovic",
        "rank": 73210,
        "rank_sort": 73214,
        "total": 2339
      },
      {
        "club_badge_src": null,
        "entry": 553887,
        "entry_name": "Absolute Steele",
        "event_total": 84,
        "has_played": true,
        "id": 3727986,
        "last_rank": 148515,
        "player_name": "Toby Harris",
        "rank": 73210,
        "rank_sort": 73215,
        "total": 2339
      },
      {
        "club_badge_src": null,
        "entry": 714063,
        "entry_name": "Not another one",
        "event_total": 63,
        "has_played": true,
        "id": 4844413,
        "last_rank": 78730,
        "player_name": "stuart holland",
        "rank": 73210,
        "rank_sort": 73216,
        "total": 2339
      },
      {
        "club_badge_src": null,
        "entry": 738423,
        "entry_name": "Son might say",
        "event_total": 58,
        "has_played": true,
        "id": 5020349,
        "last_rank": 68294,
        "player_name": "Sam Elstone",
        "rank": 73210,
        "rank_sort": 73217,
        "total": 2339
      },
      {
        "club_badge_src": null,
        "entry": 752089,
        "entry_name": "solydent",
        "event_total": 59,
        "has_played": true,
        "id": 5117698,
        "last_rank": 78782,
        "player_name": "Ahmed Idris",
        "rank": 73210,
        "rank_sort": 73218,
        "total": 2339
      },
      {
        "club_badge_src": "https://fantasy.premierleague.com/gcs/plfpl-production-adobe-approved/plfpl-production/774438/f4cbea59-00f5-4fbf-9b1f-f99c3880bbc9.png",
        "entry": 774438,
        "entry_name": "Hammy United",
        "event_total": 64,
        "has_played": true,
        "id": 5283884,
        "last_rank": 90300,
        "player_name": "Shane Hamshare",
        "rank": 73210,
        "rank_sort": 73219,
        "total": 2339
      },
      {
        "club_badge_src": null,
        "entry": 983534,
        "entry_name": "\u010carli",
        "event_total": 50,
        "has_played": true,
        "id": 6780992,
        "last_rank": 61087,
        "player_name": "Nikola Paunovi\u0107",
        "rank": 73210,
        "rank_sort": 73220,
        "total": 2339
      },
      {
        "club_badge_src": null,
        "entry": 1206572,
        "entry_name": "Eef Day Play",
        "event_total": 54,
        "has_played": true,
        "id": 8373459,
        "last_rank": 68351,
        "player_name": "Andrew Gill",
        "rank": 73210,
        "rank_sort": 73221,
        "total": 2339
      },
      {
        "club_badge_src": null,
        "entry": 1257075,
        "entry_name": "Dawley Boys",
        "event_total": 71,
        "has_played": true,
        "id": 8732052,
        "last_rank": 108086,
        "player_name": "Jake Potts",
        "rank": 73210,
        "rank_sort": 73222,
        "total": 2339
      },
      {
        "club_badge_src": null,
        "entry": 1273652,
        "entry_name": "Decade Of SONshine",
        "event_total": 62,
        "has_played": true,
        "id": 8849942,
        "last_rank": 85565,
        "player_name": "Tracey Sexton",
        "rank": 73210,
        "rank_sort": 73223,
        "total": 2339
      },
      {
        "club_badge_src": null,
        "entry": 1286576,
        "entry_name": "Clifty City",
        "event_total": 30,
        "has_played": true,
        "id": 8940074,
        "last_rank": 32552,
        "player_name": "Ivan Clift",
        "rank": 73210,
        "rank_sort": 73224,
        "total": 2339
      },
      {
        "club_badge_src": null,
        "entry": 1899191,
        "entry_name": "The Wirtz",
        "event_total": 55,
        "has_played": true,
        "id": 13387511,
        "last_rank": 70414,
        "player_name": "Alan Mulvany",
        "rank": 73210,
        "rank_sort": 73225,
        "total": 2339
      },
      {
        "club_badge_src": null,
        "entry": 1933256,
        "entry_name": "Mixlogy FC",
        "event_total": 59,
        "has_played": true,
        "id": 13635063,
        "last_rank": 78730,
        "player_name": "Yehia Salah",
        "rank": 73210,
        "rank_sort": 73226,
        "total": 2339
      },
      {
        "club_badge_src": "https://fantasy.premierleague.com/gcs/plfpl-production-adobe-approved/plfpl-production/2041315/d6460401-8d91-4810-884a-a35fadef89f7.png",
        "entry": 2041315,
        "entry_name": "Rock'em Saka Robots",
        "event_total": 63,
        "has_played": true,
        "id": 14455828,
        "last_rank": 70183,
        "player_name": "Jaeremy Clarke",
        "rank": 73210,
        "rank_sort": 73227,
        "total": 2339
      },
      {
        "club_badge_src": null,
        "entry": 2100041,
        "entry_name": "Eze Money",
        "event_total": 74,
        "has_played": true,
        "id": 14900672,
        "last_rank": 85349,
        "player_name": "Liam Watts",
        "rank": 73210,
        "rank_sort": 73228,
        "total": 2339
      },
      {
        "club_badge_src": null,
        "entry": 2278087,
        "entry_name": "SM COYG",
        "event_total": 43,
        "has_played": true,
        "id": 16244877,
        "last_rank": 49442,
        "player_name": "Saad Alshamrani",
        "rank": 73210,
        "rank_sort": 73229,
        "total": 2339
      },
      {
        "club_badge_src": "https://fantasy.premierleague.com/gcs/plfpl-production-adobe-approved/plfpl-production/2599192/75c03d86-bec8-49fc-a700-8a69c801225b.png",
        "entry": 2599192,
        "entry_name": "FaisalDnay",
        "event_total": 73,
        "has_played": true,
        "id": 18666731,
        "last_rank": 83018,
        "player_name": "Faisal Dnay",
        "rank": 73210,
        "rank_sort": 73230,
        "total": 2339
      },
      {
        "club_badge_src": null,
        "entry": 2769922,
        "entry_name": "Yoro Wizard Harry",
        "event_total": 49,
        "has_played": true,
        "id": 20210050,
        "last_rank": 59291,
        "player_name": "Kyran Lofthouse",
        "rank": 73210,
        "rank_sort": 73231,
        "total": 2339
      },
      {
        "club_badge_src": null,
        "entry": 2786776,
        "entry_name": "sosen v.9",
        "event_total": 60,
        "has_played": true,
        "id": 20344919,
        "last_rank": 81010,
        "player_name": "Artur Sosenkiewicz",
        "rank": 73210,
        "rank_sort": 73232,
        "total": 2339
      },
      {
        "club_badge_src": null,
        "entry": 2932158,
        "entry_name": "360 NoPope",
        "event_total": 56,
        "has_played": true,
        "id": 21498377,
        "last_rank": 57515,
        "player_name": "George Mylona",
        "rank": 73210,
        "rank_sort": 73233,
        "total": 2339
      },
      {
        "club_badge_src": null,
        "entry": 3068936,
        "entry_name": "sigurgdsons year 3's",
        "event_total": 67,
        "has_played": true,
        "id": 22597375,
        "last_rank": 70183,
        "player_name": "Nikolas Herrmann",
        "rank": 73210,
        "rank_sort": 73234,
        "total": 2339
      },
      {
        "club_badge_src": null,
        "entry": 3082777,
        "entry_name": "Pedro's Flop Flips",
        "event_total": 44,
        "has_played": true,
        "id": 22711988,
        "last_rank": 50984,
        "player_name": "Stuart Holmes",
        "rank": 73210,
        "rank_sort": 73235,
        "total": 2339
      },
      {
        "club_badge_src": null,
        "entry": 3359477,
        "entry_name": "Waves",
        "event_total": 48,
        "has_played": true,
        "id": 24926054,
        "last_rank": 57596,
        "player_name": "Emeka Chukwuneta",
        "rank": 73210,
        "rank_sort": 73236,
        "total": 2339
      },
      {
        "club_badge_src": null,
        "entry": 3496280,
        "entry_name": "Jacks Giants",
        "event_total": 57,
        "has_played": true,
        "id": 26006127,
        "last_rank": 74524,
        "player_name": "Jack Newman",
        "rank": 73210,
        "rank_sort": 73237,
        "total": 2339
      },
      {
        "club_badge_src": "https://fantasy.premierleague.com/gcs/plfpl-production-adobe-approved/plfpl-production/3501842/2097407d-06d1-4f0d-a008-128d12d31e47.png",
        "entry": 3501842,
        "entry_name": "Edward Newgate",
        "event_total": 53,
        "has_played": true,
        "id": 26049909,
        "last_rank": 66487,
        "player_name": "Muhammad Nur Halim",
        "rank": 73210,
        "rank_sort": 73238,
        "total": 2339
      },
      {
        "club_badge_src": null,
        "entry": 3662014,
        "entry_name": "blo",
        "event_total": 75,
        "has_played": true,
        "id": 27308031,
        "last_rank": 119572,
        "player_name": "Y Awns",
        "rank": 73210,
        "rank_sort": 73239,
        "total": 2339
      },
      {
        "club_badge_src": null,
        "entry": 3667829,
        "entry_name": "Lhurgoyf",
        "event_total": 45,
        "has_played": true,
        "id": 27354062,
        "last_rank": 46406,
        "player_name": "Kurt Inge Sirev\u00e5g",
        "rank": 73210,
        "rank_sort": 73240,
        "total": 2339
      },
      {
        "club_badge_src": null,
        "entry": 3842240,
        "entry_name": "Rodri, You Plonker!",
        "event_total": 54,
        "has_played": true,
        "id": 28783941,
        "last_rank": 68351,
        "player_name": "Mike Marshall",
        "rank": 73210,
        "rank_sort": 73241,
        "total": 2339
      },
      {
        "club_badge_src": null,
        "entry": 3941915,
        "entry_name": "QK Team",
        "event_total": 56,
        "has_played": true,
        "id": 29652839,
        "last_rank": 72454,
        "player_name": "Qassem Khatam",
        "rank": 73210,
        "rank_sort": 73242,
        "total": 2339
      },
      {
        "club_badge_src": "https://fantasy.premierleague.com/gcs/plfpl-production-adobe-approved/plfpl-production/4249469/a4cbf06b-1bc7-4f11-8de6-6c48d84f2c64.png",
        "entry": 4249469,
        "entry_name": "Isak-ly My Type",
        "event_total": 55,
        "has_played": true,
        "id": 32212680,
        "last_rank": 70414,
        "player_name": "reinaldo venegas",
        "rank": 73210,
        "rank_sort": 73243,
        "total": 2339
      },
      {
        "club_badge_src": "https://fantasy.premierleague.com/gcs/plfpl-production-adobe-approved/plfpl-production/4328132/2e8796a1-a069-4dfe-916c-e027439af30e.png",
        "entry": 4328132,
        "entry_name": "PapaBoss95cfc",
        "event_total": 66,
        "has_played": true,
        "id": 32850122,
        "last_rank": 85565,
        "player_name": "Ashwyn fernandes",
        "rank": 73210,
        "rank_sort": 73244,
        "total": 2339
      },
      {
        "club_badge_src": null,
        "entry": 4476231,
        "entry_name": "mahmoudzidane",
        "event_total": 80,
        "has_played": true,
        "id": 34112767,
        "last_rank": 135131,
        "player_name": "Mahmoud Zidane",
        "rank": 73210,
        "rank_sort": 73245,
        "total": 2339
      },
      {
        "club_badge_src": null,
        "entry": 4787853,
        "entry_name": "saif",
        "event_total": 59,
        "has_played": true,
        "id": 36858811,
        "last_rank": 70355,
        "player_name": "yakoza boos",
        "rank": 73210,
        "rank_sort": 73246,
        "total": 2339
      },
      {
        "club_badge_src": null,
        "entry": 5033252,
        "entry_name": "ERA Boys",
        "event_total": 86,
        "has_played": true,
        "id": 38875669,
        "last_rank": 155522,
        "player_name": "Joshua OUKO",
        "rank": 73210,
        "rank_sort": 73247,
        "total": 2339
      },
      {
        "club_badge_src": null,
        "entry": 5294038,
        "entry_name": "Ol\u00e9",
        "event_total": 56,
        "has_played": true,
        "id": 41035893,
        "last_rank": 64562,
        "player_name": "Thorsteinn Bj\u00f6rnsson",
        "rank": 73210,
        "rank_sort": 73248,
        "total": 2339
      },
      {
        "club_badge_src": null,
        "entry": 6012781,
        "entry_name": "eggs denny",
        "event_total": 59,
        "has_played": true,
        "id": 47411052,
        "last_rank": 62812,
        "player_name": "Austin Dennis",
        "rank": 73210,
        "rank_sort": 73249,
        "total": 2339
      },
      {
        "club_badge_src": null,
        "entry": 6446000,
        "entry_name": "Ultimate 11 FA",
        "event_total": 58,
        "has_played": true,
        "id": 51326975,
        "last_rank": 76693,
        "player_name": "Muhammad Jaziem",
        "rank": 73210,
        "rank_sort": 73250,
        "total": 2339
      }
    ]
  }
}