{
  "last_updated_data": "2026-05-24T23:28:17Z",
  "league": {
    "admin_entry": null,
    "closed": false,
    "code_privacy": "p",
    "created": "2025-07-20T23:14:33.933835Z",
    "cup_league": 2815434,
    "has_cup": true,
    "id": 314,
    "league_type": "s",
    "max_entries": null,
    "name": "Overall",
    "rank": null,
    "scoring": "c",
    "start_event": 1
  },
  "new_entries": {
    "has_next": false,
    "page": 1,
    "results": []
  },
  "standings": {
    "has_next": true,
    "page": 214,
    "results": [
      {
        "club_badge_src": null,
        "entry": 1564593,
        "entry_name": "Bruno Dos Tres",
        "event_total": 68,
        "has_played": true,
        "id": 10929505,
        "last_rank": 15876,
        "player_name": "Andy Cullen",
        "rank": 10636,
        "rank_sort": 10651,
        "total": 2397
      },
      {
        "club_badge_src": null,
        "entry": 1625160,
        "entry_name": "Sorry Nic Jackson",
        "event_total": 61,
        "has_played": true,
        "id": 11374896,
        "last_rank": 11821,
        "player_name": "Dan Maher",
        "rank": 10636,
        "rank_sort": 10652,
        "total": 2397
      },
      {
        "club_badge_src": null,
        "entry": 1705236,
        "entry_name": "Dean 5 :-) - Kev H 1",
        "event_total": 68,
        "has_played": true,
        "id": 11945918,
        "last_rank": 15876,
        "player_name": "Dean Simpson",
        "rank": 10636,
        "rank_sort": 10653,
        "total": 2397
      },
      {
        "club_badge_src": null,
        "entry": 1760343,
        "entry_name": "Why so serious?",
        "event_total": 70,
        "has_played": true,
        "id": 12359483,
        "last_rank": 14604,
        "player_name": "Abdelrahman Tallat",
        "rank": 10636,
        "rank_sort": 10654,
        "total": 2397
      },
      {
        "club_badge_src": null,
        "entry": 1897656,
        "entry_name": "13out",
        "event_total": 66,
        "has_played": true,
        "id": 13376161,
        "last_rank": 12420,
        "player_name": "Rafi Ul bashar",
        "rank": 10636,
        "rank_sort": 10655,
        "total": 2397
      },
      {
        "club_badge_src": null,
        "entry": 2119659,
        "entry_name": "Andybros",
        "event_total": 50,
        "has_played": true,
        "id": 15056321,
        "last_rank": 7501,
        "player_name": "Vinnie Andersen",
        "rank": 10636,
        "rank_sort": 10656,
        "total": 2397
      },
      {
        "club_badge_src": null,
        "entry": 2206859,
        "entry_name": "Hongkong foot",
        "event_total": 60,
        "has_played": true,
        "id": 15713501,
        "last_rank": 8138,
        "player_name": "Kao Gypsy",
        "rank": 10636,
        "rank_sort": 10657,
        "total": 2397
      },
      {
        "club_badge_src": null,
        "entry": 2462246,
        "entry_name": "Rockets XI",
        "event_total": 65,
        "has_played": true,
        "id": 17612499,
        "last_rank": 11901,
        "player_name": "Jonathon Smith",
        "rank": 10636,
        "rank_sort": 10658,
        "total": 2397
      },
      {
        "club_badge_src": null,
        "entry": 2521348,
        "entry_name": "enter team name",
        "event_total": 64,
        "has_played": true,
        "id": 18065916,
        "last_rank": 13558,
        "player_name": "Kerr Smith",
        "rank": 10636,
        "rank_sort": 10659,
        "total": 2397
      },
      {
        "club_badge_src": null,
        "entry": 3067288,
        "entry_name": "FC99",
        "event_total": 81,
        "has_played": true,
        "id": 22584667,
        "last_rank": 25172,
        "player_name": "Arthur Penn",
        "rank": 10636,
        "rank_sort": 10660,
        "total": 2397
      },
      {
        "club_badge_src": null,
        "entry": 3192569,
        "entry_name": "Pok FC",
        "event_total": 61,
        "has_played": true,
        "id": 23595199,
        "last_rank": 11957,
        "player_name": "Arthit Silruangvilai",
        "rank": 10636,
        "rank_sort": 10661,
        "total": 2397
      },
      {
        "club_badge_src": null,
        "entry": 3305282,
        "entry_name": "Hakuna Mateta",
        "event_total": 60,
        "has_played": true,
        "id": 24482709,
        "last_rank": 11482,
        "player_name": "Nicholas Brown",
        "rank": 10636,
        "rank_sort": 10662,
        "total": 2397
      },
      {
        "club_badge_src": null,
        "entry": 3573643,
        "entry_name": "Windcat Wanderers FC",
        "event_total": 70,
        "has_played": true,
        "id": 26610139,
        "last_rank": 17078,
        "player_name": "Charlie Mckenna",
        "rank": 10636,
        "rank_sort": 10663,
        "total": 2397
      },
      {
        "club_badge_src": null,
        "entry": 4170383,
        "entry_name": "Basic b",
        "event_total": 55,
        "has_played": true,
        "id": 31540048,
        "last_rank": 9311,
        "player_name": "Cyril Figgis",
        "rank": 10636,
        "rank_sort": 10664,
        "total": 2397
      },
      {
        "club_badge_src": null,
        "entry": 4591090,
        "entry_name": "Champagne Khusanova",
        "event_total": 59,
        "has_played": true,
        "id": 35058342,
        "last_rank": 9311,
        "player_name": "Jonathon Aspin",
        "rank": 10636,
        "rank_sort": 10665,
        "total": 2397
      },
      {
        "club_badge_src": null,
        "entry": 4944212,
        "entry_name": "Men with de Ven",
        "event_total": 55,
        "has_played": true,
        "id": 38148817,
        "last_rank": 7822,
        "player_name": "Jack Stevens",
        "rank": 10636,
        "rank_sort": 10666,
        "total": 2397
      },
      {
        "club_badge_src": null,
        "entry": 4944628,
        "entry_name": "Die hondt united",
        "event_total": 67,
        "has_played": true,
        "id": 38152030,
        "last_rank": 15226,
        "player_name": "ROY MR SUPREME",
        "rank": 10636,
        "rank_sort": 10667,
        "total": 2397
      },
      {
        "club_badge_src": null,
        "entry": 5272074,
        "entry_name": "EL NON",
        "event_total": 66,
        "has_played": true,
        "id": 40862017,
        "last_rank": 12420,
        "player_name": "Noureldin Mahmoud",
        "rank": 10636,
        "rank_sort": 10668,
        "total": 2397
      },
      {
        "club_badge_src": null,
        "entry": 5436786,
        "entry_name": "\u0627\u0644\u062c\u0627\u0645\u062f\u064a\u0646",
        "event_total": 48,
        "has_played": true,
        "id": 42295012,
        "last_rank": 6949,
        "player_name": "Mahgoub Hussam",
        "rank": 10636,
        "rank_sort": 10669,
        "total": 2397
      },
      {
        "club_badge_src": null,
        "entry": 5493318,
        "entry_name": "Not this again, ffs",
        "event_total": 51,
        "has_played": true,
        "id": 42786898,
        "last_rank": 7822,
        "player_name": "Evan Byrne",
        "rank": 10636,
        "rank_sort": 10670,
        "total": 2397
      },
      {
        "club_badge_src": null,
        "entry": 6009086,
        "entry_name": "IFK United",
        "event_total": 62,
        "has_played": true,
        "id": 47378690,
        "last_rank": 12470,
        "player_name": "Robin Smedh",
        "rank": 10636,
        "rank_sort": 10671,
        "total": 2397
      },
      {
        "club_badge_src": null,
        "entry": 7642698,
        "entry_name": "Here we go again",
        "event_total": 64,
        "has_played": true,
        "id": 62649676,
        "last_rank": 13601,
        "player_name": "Barbara King",
        "rank": 10636,
        "rank_sort": 10672,
        "total": 2397
      },
      {
        "club_badge_src": null,
        "entry": 8386563,
        "entry_name": "Doonwood Hammers",
        "event_total": 58,
        "has_played": true,
        "id": 69553710,
        "last_rank": 10600,
        "player_name": "Kieran Dowd",
        "rank": 10636,
        "rank_sort": 10673,
        "total": 2397
      },
      {
        "club_badge_src": null,
        "entry": 8779022,
        "entry_name": "Scan FC",
        "event_total": 57,
        "has_played": true,
        "id": 73342198,
        "last_rank": 8484,
        "player_name": "Brendan Roche",
        "rank": 10636,
        "rank_sort": 10674,
        "total": 2397
      },
      {
        "club_badge_src": "https://fantasy.premierleague.com/gcs/plfpl-production-adobe-approved/plfpl-production/9072414/b1664dec-6af5-4569-890d-51e2a967d005.png",
        "entry": 9072414,
        "entry_name": "California FC",
        "event_total": 53,
        "has_played": true,
        "id": 76181516,
        "last_rank": 8591,
        "player_name": "Adilzhan Yedilov",
        "rank": 10636,
        "rank_sort": 10675,
        "total": 2397
      },
      {
        "club_badge_src": null,
        "entry": 32538,
        "entry_name": "Frimpingpong",
        "event_total": 55,
        "has_played": true,
        "id": 207033,
        "last_rank": 7822,
        "player_name": "Gustav M\u00e5rtensson",
        "rank": 10676,
        "rank_sort": 10676,
        "total": 2397
      },
      {
        "club_badge_src": null,
        "entry": 126776,
        "entry_name": "AmoWin FC",
        "event_total": 65,
        "has_played": true,
        "id": 826576,
        "last_rank": 11957,
        "player_name": "Addryan Ballah",
        "rank": 10676,
        "rank_sort": 10677,
        "total": 2397
      },
      {
        "club_badge_src": null,
        "entry": 195381,
        "entry_name": "Noni to be upset",
        "event_total": 57,
        "has_played": true,
        "id": 1295628,
        "last_rank": 10173,
        "player_name": "Ian Leung",
        "rank": 10676,
        "rank_sort": 10678,
        "total": 2397
      },
      {
        "club_badge_src": "https://fantasy.premierleague.com/gcs/plfpl-production-adobe-approved/plfpl-production/235456/87c3e5fb-92ee-49ec-b50e-8cc0c45ad79e.png",
        "entry": 235456,
        "entry_name": "Frimpong ping pong",
        "event_total": 59,
        "has_played": true,
        "id": 1566715,
        "last_rank": 11058,
        "player_name": "Brian Minnican",
        "rank": 10676,
        "rank_sort": 10679,
        "total": 2397
      },
      {
        "club_badge_src": null,
        "entry": 453030,
        "entry_name": "FCVT",
        "event_total": 61,
        "has_played": true,
        "id": 3038999,
        "last_rank": 11901,
        "player_name": "Villads Tofting",
        "rank": 10676,
        "rank_sort": 10680,
        "total": 2397
      },
      {
        "club_badge_src": null,
        "entry": 648079,
        "entry_name": "Iyeru Okin FC",
        "event_total": 52,
        "has_played": true,
        "id": 4379887,
        "last_rank": 5792,
        "player_name": "Dipo Alabi",
        "rank": 10676,
        "rank_sort": 10681,
        "total": 2397
      },
      {
        "club_badge_src": null,
        "entry": 654522,
        "entry_name": "Esox lucius",
        "event_total": 59,
        "has_played": true,
        "id": 4423255,
        "last_rank": 11058,
        "player_name": "Stephen Tierney",
        "rank": 10676,
        "rank_sort": 10682,
        "total": 2397
      },
      {
        "club_badge_src": null,
        "entry": 956100,
        "entry_name": "Not MikeDean Forever",
        "event_total": 61,
        "has_played": true,
        "id": 6587740,
        "last_rank": 10151,
        "player_name": "Anthony Michaelides",
        "rank": 10676,
        "rank_sort": 10683,
        "total": 2397
      },
      {
        "club_badge_src": "https://fantasy.premierleague.com/gcs/plfpl-production-adobe-approved/plfpl-production/1924666/b0056ba5-8bc2-4d90-b531-596a4be941f2.png",
        "entry": 1924666,
        "entry_name": "Abo body Rashed 007",
        "event_total": 66,
        "has_played": true,
        "id": 13573676,
        "last_rank": 14712,
        "player_name": "Moustafa Rashed Abo boddy",
        "rank": 10676,
        "rank_sort": 10684,
        "total": 2397
      },
      {
        "club_badge_src": "https://fantasy.premierleague.com/gcs/plfpl-production-adobe-approved/plfpl-production/2044812/3c961d1f-b72b-4efe-8bc2-467edb243b01.png",
        "entry": 2044812,
        "entry_name": "PuttaBoys FC",
        "event_total": 66,
        "has_played": true,
        "id": 14481511,
        "last_rank": 10556,
        "player_name": "Thomas Barlund",
        "rank": 10676,
        "rank_sort": 10685,
        "total": 2397
      },
      {
        "club_badge_src": null,
        "entry": 2344152,
        "entry_name": "RKFC",
        "event_total": 69,
        "has_played": true,
        "id": 16726267,
        "last_rank": 16512,
        "player_name": "Randall Kaemingk",
        "rank": 10676,
        "rank_sort": 10686,
        "total": 2397
      },
      {
        "club_badge_src": null,
        "entry": 2489459,
        "entry_name": "Mohamed&Omar",
        "event_total": 57,
        "has_played": true,
        "id": 17821653,
        "last_rank": 10195,
        "player_name": "Mohamed Abo Khira",
        "rank": 10676,
        "rank_sort": 10687,
        "total": 2397
      },
      {
        "club_badge_src": null,
        "entry": 2963810,
        "entry_name": "Ttok _hotelier_",
        "event_total": 47,
        "has_played": true,
        "id": 21772685,
        "last_rank": 5560,
        "player_name": "X @Kinuthiamwangi8",
        "rank": 10676,
        "rank_sort": 10688,
        "total": 2397
      },
      {
        "club_badge_src": "https://fantasy.premierleague.com/gcs/plfpl-production-adobe-approved/plfpl-production/3645845/ec7835da-af39-4508-b658-55369918f49b.png",
        "entry": 3645845,
        "entry_name": "Ninja FC",
        "event_total": 41,
        "has_played": true,
        "id": 27172778,
        "last_rank": 5092,
        "player_name": "Mr Min",
        "rank": 10676,
        "rank_sort": 10689,
        "total": 2397
      },
      {
        "club_badge_src": null,
        "entry": 4535675,
        "entry_name": "Kinder Mbeumo",
        "event_total": 56,
        "has_played": true,
        "id": 34600333,
        "last_rank": 9751,
        "player_name": "troy hourigan",
        "rank": 10676,
        "rank_sort": 10690,
        "total": 2397
      },
      {
        "club_badge_src": null,
        "entry": 4936354,
        "entry_name": "\u0639\u0641\u0631\u0643\u0648\u0648\u0648\u0634",
        "event_total": 62,
        "has_played": true,
        "id": 38085106,
        "last_rank": 12512,
        "player_name": "oliver Hany",
        "rank": 10676,
        "rank_sort": 10691,
        "total": 2397
      },
      {
        "club_badge_src": "https://fantasy.premierleague.com/gcs/plfpl-production-adobe-approved/plfpl-production/7000005/e115b31e-6457-43c9-b7e1-3b3b87686b38.png",
        "entry": 7000005,
        "entry_name": "Snoop Udogie Dogg",
        "event_total": 50,
        "has_played": true,
        "id": 56203371,
        "last_rank": 7547,
        "player_name": "Fredrik Lunde",
        "rank": 10676,
        "rank_sort": 10692,
        "total": 2397
      },
      {
        "club_badge_src": "https://fantasy.premierleague.com/gcs/plfpl-production-adobe-approved/plfpl-production/7450612/fa5fa99b-4ca1-4ea5-8327-4d1748d0f38f.png",
        "entry": 7450612,
        "entry_name": "AC Asimako",
        "event_total": 66,
        "has_played": true,
        "id": 60641704,
        "last_rank": 14712,
        "player_name": "Tryfon Asimakopoulos",
        "rank": 10676,
        "rank_sort": 10693,
        "total": 2397
      },
      {
        "club_badge_src": null,
        "entry": 9177686,
        "entry_name": "Dolce N Lallana",
        "event_total": 53,
        "has_played": true,
        "id": 77213149,
        "last_rank": 7237,
        "player_name": "Freddie Dolcezza",
        "rank": 10676,
        "rank_sort": 10694,
        "total": 2397
      },
      {
        "club_badge_src": null,
        "entry": 18568,
        "entry_name": "Unbelievable Jeff",
        "event_total": 64,
        "has_played": true,
        "id": 115527,
        "last_rank": 11516,
        "player_name": "Jeff Taylor",
        "rank": 10695,
        "rank_sort": 10695,
        "total": 2397
      },
      {
        "club_badge_src": "https://fantasy.premierleague.com/gcs/plfpl-production-adobe-approved/plfpl-production/158545/287a324a-8272-40c3-bb28-cea125ad9563.png",
        "entry": 158545,
        "entry_name": "JackBeerlish",
        "event_total": 77,
        "has_played": true,
        "id": 1043327,
        "last_rank": 19237,
        "player_name": "Vojta Felkel",
        "rank": 10695,
        "rank_sort": 10696,
        "total": 2397
      },
      {
        "club_badge_src": null,
        "entry": 272950,
        "entry_name": "goaldiggers",
        "event_total": 54,
        "has_played": true,
        "id": 1816132,
        "last_rank": 7547,
        "player_name": "Kunal Rajput",
        "rank": 10695,
        "rank_sort": 10697,
        "total": 2397
      },
      {
        "club_badge_src": null,
        "entry": 346591,
        "entry_name": "jono team",
        "event_total": 63,
        "has_played": true,
        "id": 2319931,
        "last_rank": 13060,
        "player_name": "Jono Hartles",
        "rank": 10695,
        "rank_sort": 10698,
        "total": 2397
      },
      {
        "club_badge_src": null,
        "entry": 355458,
        "entry_name": "Elston Gunn",
        "event_total": 67,
        "has_played": true,
        "id": 2378866,
        "last_rank": 13033,
        "player_name": "Mark Szegedi Duffield",
        "rank": 10695,
        "rank_sort": 10699,
        "total": 2397
      },
      {
        "club_badge_src": null,
        "entry": 1388511,
        "entry_name": "Bray Wanderer's",
        "event_total": 59,
        "has_played": true,
        "id": 9658322,
        "last_rank": 7863,
        "player_name": "Pat McGonigle",
        "rank": 10695,
        "rank_sort": 10700,
        "total": 2397
      }
    ]
  }
}