{
  "last_updated_data": "2026-05-24T23:28:17Z",
  "league": {
    "admin_entry": null,
    "closed": false,
    "code_privacy": "p",
    "created": "2025-07-20T23:14:33.933835Z",
    "cup_league": 2815434,
    "has_cup": true,
    "id": 314,
    "league_type": "s",
    "max_entries": null,
    "name": "Overall",
    "rank": null,
    "scoring": "c",
    "start_event": 1
  },
  "new_entries": {
    "has_next": false,
    "page": 1,
    "results": []
  },
  "standings": {
    "has_next": true,
    "page": 1158,
    "results": [
      {
        "club_badge_src": null,
        "entry": 9148850,
        "entry_name": "Straide FC",
        "event_total": 68,
        "has_played": true,
        "id": 76929464,
        "last_rank": 79190,
        "player_name": "James Key",
        "rank": 57566,
        "rank_sort": 57851,
        "total": 2347
      },
      {
        "club_badge_src": null,
        "entry": 9497407,
        "entry_name": "SakitaFc",
        "event_total": 39,
        "has_played": true,
        "id": 80307202,
        "last_rank": 32879,
        "player_name": "Alfonso Andr\u00e9s L\u00f3pez Ruiz",
        "rank": 57566,
        "rank_sort": 57852,
        "total": 2347
      },
      {
        "club_badge_src": null,
        "entry": 950,
        "entry_name": "Cunha Bet On Mbeumo",
        "event_total": 63,
        "has_played": true,
        "id": 5258,
        "last_rank": 61606,
        "player_name": "Nishant Adlakha",
        "rank": 57853,
        "rank_sort": 57853,
        "total": 2347
      },
      {
        "club_badge_src": null,
        "entry": 2228,
        "entry_name": "omislavic",
        "event_total": 64,
        "has_played": true,
        "id": 12425,
        "last_rank": 70985,
        "player_name": "Omar Sn\u00e6r Omarsson",
        "rank": 57853,
        "rank_sort": 57854,
        "total": 2347
      },
      {
        "club_badge_src": "https://fantasy.premierleague.com/gcs/plfpl-production-adobe-approved/plfpl-production/3462/558b0fbb-94f7-425c-945a-949aaa450b37.png",
        "entry": 3462,
        "entry_name": "Fantastic Team",
        "event_total": 55,
        "has_played": true,
        "id": 19617,
        "last_rank": 54667,
        "player_name": "Adam Hannon",
        "rank": 57853,
        "rank_sort": 57855,
        "total": 2347
      },
      {
        "club_badge_src": null,
        "entry": 4189,
        "entry_name": "Fish & 2X Chips",
        "event_total": 51,
        "has_played": true,
        "id": 23786,
        "last_rank": 42940,
        "player_name": "Saketh Kar",
        "rank": 57853,
        "rank_sort": 57856,
        "total": 2347
      },
      {
        "club_badge_src": "https://fantasy.premierleague.com/gcs/plfpl-production-adobe-approved/plfpl-production/11945/e12cb13c-7054-42ed-9772-f76d84d71e8e.png",
        "entry": 11945,
        "entry_name": "Eze Does It",
        "event_total": 61,
        "has_played": true,
        "id": 71265,
        "last_rank": 65475,
        "player_name": "Richard Harvey",
        "rank": 57853,
        "rank_sort": 57857,
        "total": 2347
      },
      {
        "club_badge_src": null,
        "entry": 12999,
        "entry_name": "Salter's Steamers",
        "event_total": 65,
        "has_played": true,
        "id": 78307,
        "last_rank": 73423,
        "player_name": "Mark Salter",
        "rank": 57853,
        "rank_sort": 57858,
        "total": 2347
      },
      {
        "club_badge_src": null,
        "entry": 13194,
        "entry_name": "TAMIM",
        "event_total": 57,
        "has_played": true,
        "id": 79551,
        "last_rank": 58388,
        "player_name": "ABDULLAH ALAHMARI",
        "rank": 57853,
        "rank_sort": 57859,
        "total": 2347
      },
      {
        "club_badge_src": null,
        "entry": 16086,
        "entry_name": "\u0160e\u0161ko Clubcard",
        "event_total": 60,
        "has_played": true,
        "id": 99171,
        "last_rank": 64005,
        "player_name": "Stephen Rutter",
        "rank": 57853,
        "rank_sort": 57860,
        "total": 2347
      },
      {
        "club_badge_src": null,
        "entry": 16351,
        "entry_name": "Raph03pap!",
        "event_total": 45,
        "has_played": true,
        "id": 100950,
        "last_rank": 35424,
        "player_name": "Rafaela Papadopoulou",
        "rank": 57853,
        "rank_sort": 57861,
        "total": 2347
      },
      {
        "club_badge_src": null,
        "entry": 19965,
        "entry_name": "Enter Team Name",
        "event_total": 59,
        "has_played": true,
        "id": 124287,
        "last_rank": 61606,
        "player_name": "Jonny Nye",
        "rank": 57853,
        "rank_sort": 57862,
        "total": 2347
      },
      {
        "club_badge_src": "https://fantasy.premierleague.com/gcs/plfpl-production-adobe-approved/plfpl-production/21021/9d08f5ab-e158-4685-aee1-f5cfee9fac82.png",
        "entry": 21021,
        "entry_name": "The way to Amurillo",
        "event_total": 59,
        "has_played": true,
        "id": 131689,
        "last_rank": 61606,
        "player_name": "Jamie Evans",
        "rank": 57853,
        "rank_sort": 57863,
        "total": 2347
      },
      {
        "club_badge_src": null,
        "entry": 24040,
        "entry_name": "Leonid Slotsky",
        "event_total": 57,
        "has_played": true,
        "id": 151647,
        "last_rank": 58688,
        "player_name": "Gosha Chernov",
        "rank": 57853,
        "rank_sort": 57864,
        "total": 2347
      },
      {
        "club_badge_src": null,
        "entry": 25952,
        "entry_name": "Hans FC",
        "event_total": 72,
        "has_played": true,
        "id": 164105,
        "last_rank": 79817,
        "player_name": "Hans Myhre Sunde",
        "rank": 57853,
        "rank_sort": 57865,
        "total": 2347
      },
      {
        "club_badge_src": null,
        "entry": 26950,
        "entry_name": "BSL FC",
        "event_total": 59,
        "has_played": true,
        "id": 170406,
        "last_rank": 55014,
        "player_name": "Ben Lloyd",
        "rank": 57853,
        "rank_sort": 57866,
        "total": 2347
      },
      {
        "club_badge_src": null,
        "entry": 31634,
        "entry_name": "Don\u2019tLookBackinAnge",
        "event_total": 63,
        "has_played": true,
        "id": 200686,
        "last_rank": 69323,
        "player_name": "James Claridge",
        "rank": 57853,
        "rank_sort": 57867,
        "total": 2347
      },
      {
        "club_badge_src": null,
        "entry": 34233,
        "entry_name": "Matip 1n Dias",
        "event_total": 77,
        "has_played": true,
        "id": 218637,
        "last_rank": 81646,
        "player_name": "Hriday Gidwani",
        "rank": 57853,
        "rank_sort": 57868,
        "total": 2347
      },
      {
        "club_badge_src": null,
        "entry": 45924,
        "entry_name": "Swedish Howe\u2019s Mafia",
        "event_total": 64,
        "has_played": true,
        "id": 294541,
        "last_rank": 63724,
        "player_name": "Chris Ryder",
        "rank": 57853,
        "rank_sort": 57869,
        "total": 2347
      },
      {
        "club_badge_src": "https://fantasy.premierleague.com/gcs/plfpl-production-adobe-approved/plfpl-production/46881/1cc14d6f-65e9-4de9-a11c-af534199f501.png",
        "entry": 46881,
        "entry_name": "Yawa FC",
        "event_total": 62,
        "has_played": true,
        "id": 300541,
        "last_rank": 60168,
        "player_name": "Tnd Mycall",
        "rank": 57853,
        "rank_sort": 57870,
        "total": 2347
      },
      {
        "club_badge_src": null,
        "entry": 61585,
        "entry_name": "JGXVII",
        "event_total": 47,
        "has_played": true,
        "id": 396685,
        "last_rank": 43168,
        "player_name": "Jonathan Gilmour",
        "rank": 57853,
        "rank_sort": 57871,
        "total": 2347
      },
      {
        "club_badge_src": "https://fantasy.premierleague.com/gcs/plfpl-production-adobe-approved/plfpl-production/68906/468258af-bab1-451d-9e67-f581bf956375.png",
        "entry": 68906,
        "entry_name": "Richarlison Rangers",
        "event_total": 69,
        "has_played": true,
        "id": 446629,
        "last_rank": 64943,
        "player_name": "Scott Roberts",
        "rank": 57853,
        "rank_sort": 57872,
        "total": 2347
      },
      {
        "club_badge_src": null,
        "entry": 71519,
        "entry_name": "Rookie Boys",
        "event_total": 62,
        "has_played": true,
        "id": 464564,
        "last_rank": 67422,
        "player_name": "Imran Shaikh",
        "rank": 57853,
        "rank_sort": 57873,
        "total": 2347
      },
      {
        "club_badge_src": null,
        "entry": 72739,
        "entry_name": "TuomasD",
        "event_total": 42,
        "has_played": true,
        "id": 472737,
        "last_rank": 31995,
        "player_name": "Tuomas Seppa",
        "rank": 57853,
        "rank_sort": 57874,
        "total": 2347
      },
      {
        "club_badge_src": "https://fantasy.premierleague.com/gcs/plfpl-production-adobe-approved/plfpl-production/77190/b822ab2b-1be0-4e77-8b11-61a8ffedd742.png",
        "entry": 77190,
        "entry_name": "Granada Gremlins",
        "event_total": 73,
        "has_played": true,
        "id": 501725,
        "last_rank": 91466,
        "player_name": "Sam Piper",
        "rank": 57853,
        "rank_sort": 57875,
        "total": 2347
      },
      {
        "club_badge_src": "https://fantasy.premierleague.com/gcs/plfpl-production-adobe-approved/plfpl-production/86468/be5b31cb-ef6d-44a1-9dac-15fc7fb824c5.png",
        "entry": 86468,
        "entry_name": "Jack Iredale FC",
        "event_total": 65,
        "has_played": true,
        "id": 563530,
        "last_rank": 72815,
        "player_name": "Peter Beckett",
        "rank": 57853,
        "rank_sort": 57876,
        "total": 2347
      },
      {
        "club_badge_src": "https://fantasy.premierleague.com/gcs/plfpl-production-adobe-approved/plfpl-production/89789/bda20656-2f04-4d07-acc4-3ce9738bffa9.png",
        "entry": 89789,
        "entry_name": "Valayrian Steal",
        "event_total": 90,
        "has_played": true,
        "id": 586116,
        "last_rank": 139016,
        "player_name": "Vinny Castronovo",
        "rank": 57853,
        "rank_sort": 57877,
        "total": 2347
      },
      {
        "club_badge_src": null,
        "entry": 95977,
        "entry_name": "Expedition 38",
        "event_total": 51,
        "has_played": true,
        "id": 627026,
        "last_rank": 42648,
        "player_name": "Daniel Szilagyi",
        "rank": 57853,
        "rank_sort": 57878,
        "total": 2347
      },
      {
        "club_badge_src": null,
        "entry": 109371,
        "entry_name": "ahmad",
        "event_total": 64,
        "has_played": true,
        "id": 713106,
        "last_rank": 71713,
        "player_name": "ARTETA Q8",
        "rank": 57853,
        "rank_sort": 57879,
        "total": 2347
      },
      {
        "club_badge_src": null,
        "entry": 112914,
        "entry_name": "DropItsLikeItsSlot",
        "event_total": 66,
        "has_played": true,
        "id": 736372,
        "last_rank": 75874,
        "player_name": "\u00d8ystein B\u00f8yum",
        "rank": 57853,
        "rank_sort": 57880,
        "total": 2347
      },
      {
        "club_badge_src": null,
        "entry": 121851,
        "entry_name": "Irankunda Fan Club",
        "event_total": 60,
        "has_played": true,
        "id": 795007,
        "last_rank": 56708,
        "player_name": "gabriel johnson",
        "rank": 57853,
        "rank_sort": 57881,
        "total": 2347
      },
      {
        "club_badge_src": null,
        "entry": 125887,
        "entry_name": "Fuenlabrada",
        "event_total": 58,
        "has_played": true,
        "id": 820962,
        "last_rank": 60462,
        "player_name": "Nikola Po\u0161a",
        "rank": 57853,
        "rank_sort": 57882,
        "total": 2347
      },
      {
        "club_badge_src": "https://fantasy.premierleague.com/gcs/plfpl-production-adobe-approved/plfpl-production/127164/01b031fa-e457-492b-88f6-8f438d04df1a.png",
        "entry": 127164,
        "entry_name": "Bacon FC",
        "event_total": 56,
        "has_played": true,
        "id": 829071,
        "last_rank": 57001,
        "player_name": "Arjan Spek",
        "rank": 57853,
        "rank_sort": 57883,
        "total": 2347
      },
      {
        "club_badge_src": "https://fantasy.premierleague.com/gcs/plfpl-production-adobe-approved/plfpl-production/134475/f8842f1d-8086-4728-b03f-3c8d39bdeaf1.png",
        "entry": 134475,
        "entry_name": "Farbror Skoj",
        "event_total": 73,
        "has_played": true,
        "id": 875792,
        "last_rank": 91466,
        "player_name": "Stig Robert Larsen",
        "rank": 57853,
        "rank_sort": 57884,
        "total": 2347
      },
      {
        "club_badge_src": null,
        "entry": 160235,
        "entry_name": "United XI",
        "event_total": 72,
        "has_played": true,
        "id": 1055050,
        "last_rank": 79190,
        "player_name": "Rachit Valecha",
        "rank": 57853,
        "rank_sort": 57885,
        "total": 2347
      },
      {
        "club_badge_src": "https://fantasy.premierleague.com/gcs/plfpl-production-adobe-approved/plfpl-production/164870/fbff65c1-4a34-42dc-a606-ae470e2c8d75.png",
        "entry": 164870,
        "entry_name": "Bravi Ragazzi",
        "event_total": 51,
        "has_played": true,
        "id": 1088250,
        "last_rank": 48898,
        "player_name": "Pete Beer",
        "rank": 57853,
        "rank_sort": 57886,
        "total": 2347
      },
      {
        "club_badge_src": null,
        "entry": 185791,
        "entry_name": "Giang",
        "event_total": 41,
        "has_played": true,
        "id": 1227488,
        "last_rank": 35768,
        "player_name": "Giang Nguyen",
        "rank": 57853,
        "rank_sort": 57887,
        "total": 2347
      },
      {
        "club_badge_src": null,
        "entry": 197489,
        "entry_name": "Robs 11",
        "event_total": 57,
        "has_played": true,
        "id": 1310345,
        "last_rank": 51720,
        "player_name": "Robbie Halliday",
        "rank": 57853,
        "rank_sort": 57888,
        "total": 2347
      },
      {
        "club_badge_src": null,
        "entry": 197712,
        "entry_name": "Au$wirtz",
        "event_total": 55,
        "has_played": true,
        "id": 1311908,
        "last_rank": 55311,
        "player_name": "Josip Ramljak",
        "rank": 57853,
        "rank_sort": 57889,
        "total": 2347
      },
      {
        "club_badge_src": null,
        "entry": 206221,
        "entry_name": "class of 92",
        "event_total": 57,
        "has_played": true,
        "id": 1370672,
        "last_rank": 58688,
        "player_name": "Phil Shannon",
        "rank": 57853,
        "rank_sort": 57890,
        "total": 2347
      },
      {
        "club_badge_src": null,
        "entry": 211165,
        "entry_name": "Nasekomite",
        "event_total": 63,
        "has_played": true,
        "id": 1404494,
        "last_rank": 69323,
        "player_name": "Erdal Shakirov",
        "rank": 57853,
        "rank_sort": 57891,
        "total": 2347
      },
      {
        "club_badge_src": null,
        "entry": 213376,
        "entry_name": "FC BREAKDOWN YT",
        "event_total": 62,
        "has_played": true,
        "id": 1419424,
        "last_rank": 67695,
        "player_name": "Kunal Ajmani",
        "rank": 57853,
        "rank_sort": 57892,
        "total": 2347
      },
      {
        "club_badge_src": "https://fantasy.premierleague.com/gcs/plfpl-production-adobe-approved/plfpl-production/220097/fa0295b6-cb75-4357-9c7a-312820c25170.png",
        "entry": 220097,
        "entry_name": "Gordens",
        "event_total": 64,
        "has_played": true,
        "id": 1463834,
        "last_rank": 63724,
        "player_name": "Nick Mauro",
        "rank": 57853,
        "rank_sort": 57893,
        "total": 2347
      },
      {
        "club_badge_src": null,
        "entry": 228369,
        "entry_name": "ALLEZ ALLEZ ALLEZ !!",
        "event_total": 61,
        "has_played": true,
        "id": 1519174,
        "last_rank": 58388,
        "player_name": "Gavin Williams",
        "rank": 57853,
        "rank_sort": 57894,
        "total": 2347
      },
      {
        "club_badge_src": null,
        "entry": 236958,
        "entry_name": "Boly-Wood Dancing",
        "event_total": 71,
        "has_played": true,
        "id": 1576518,
        "last_rank": 87074,
        "player_name": "Jack Nelson",
        "rank": 57853,
        "rank_sort": 57895,
        "total": 2347
      },
      {
        "club_badge_src": null,
        "entry": 277706,
        "entry_name": "Mosalad",
        "event_total": 60,
        "has_played": true,
        "id": 1848440,
        "last_rank": 63724,
        "player_name": "Thanat Wongwaisayawan",
        "rank": 57853,
        "rank_sort": 57896,
        "total": 2347
      },
      {
        "club_badge_src": null,
        "entry": 281126,
        "entry_name": "FC Alikunto",
        "event_total": 64,
        "has_played": true,
        "id": 1870720,
        "last_rank": 71713,
        "player_name": "Teemu Takala",
        "rank": 57853,
        "rank_sort": 57897,
        "total": 2347
      },
      {
        "club_badge_src": null,
        "entry": 286595,
        "entry_name": "PPP",
        "event_total": 43,
        "has_played": true,
        "id": 1909435,
        "last_rank": 38016,
        "player_name": "P PP",
        "rank": 57853,
        "rank_sort": 57898,
        "total": 2347
      },
      {
        "club_badge_src": null,
        "entry": 288689,
        "entry_name": "Niilin Hanhet",
        "event_total": 55,
        "has_played": true,
        "id": 1924234,
        "last_rank": 54667,
        "player_name": "Viljami Nieminen",
        "rank": 57853,
        "rank_sort": 57899,
        "total": 2347
      },
      {
        "club_badge_src": null,
        "entry": 292174,
        "entry_name": "Skippy FC",
        "event_total": 67,
        "has_played": true,
        "id": 1949338,
        "last_rank": 69323,
        "player_name": "Nathan Patrick",
        "rank": 57853,
        "rank_sort": 57900,
        "total": 2347
      }
    ]
  }
}