{
  "last_updated_data": "2026-05-24T23:28:17Z",
  "league": {
    "admin_entry": null,
    "closed": false,
    "code_privacy": "p",
    "created": "2025-07-20T23:14:33.933835Z",
    "cup_league": 2815434,
    "has_cup": true,
    "id": 314,
    "league_type": "s",
    "max_entries": null,
    "name": "Overall",
    "rank": null,
    "scoring": "c",
    "start_event": 1
  },
  "new_entries": {
    "has_next": false,
    "page": 1,
    "results": []
  },
  "standings": {
    "has_next": true,
    "page": 943,
    "results": [
      {
        "club_badge_src": null,
        "entry": 3396770,
        "entry_name": "The Arsenal",
        "event_total": 60,
        "has_played": true,
        "id": 25219287,
        "last_rank": 51984,
        "player_name": "Bajro Catic",
        "rank": 46967,
        "rank_sort": 47101,
        "total": 2354
      },
      {
        "club_badge_src": null,
        "entry": 3403465,
        "entry_name": "KrXI5",
        "event_total": 45,
        "has_played": true,
        "id": 25271101,
        "last_rank": 32190,
        "player_name": "Kris Winter",
        "rank": 46967,
        "rank_sort": 47102,
        "total": 2354
      },
      {
        "club_badge_src": null,
        "entry": 3426984,
        "entry_name": "Mezo",
        "event_total": 75,
        "has_played": true,
        "id": 25457401,
        "last_rank": 79817,
        "player_name": "Moaaz Essam",
        "rank": 46967,
        "rank_sort": 47103,
        "total": 2354
      },
      {
        "club_badge_src": null,
        "entry": 3506882,
        "entry_name": "Abo Som3a FC",
        "event_total": 76,
        "has_played": true,
        "id": 26088875,
        "last_rank": 73423,
        "player_name": "Ahmed Fouad",
        "rank": 46967,
        "rank_sort": 47104,
        "total": 2354
      },
      {
        "club_badge_src": "https://fantasy.premierleague.com/gcs/plfpl-production-adobe-approved/plfpl-production/3562124/87278ee2-889e-4e5d-b26e-ebb5874c239c.png",
        "entry": 3562124,
        "entry_name": "Peaky Reijnders",
        "event_total": 60,
        "has_played": true,
        "id": 26522310,
        "last_rank": 51984,
        "player_name": "Marvin mukeli",
        "rank": 46967,
        "rank_sort": 47105,
        "total": 2354
      },
      {
        "club_badge_src": null,
        "entry": 3721173,
        "entry_name": "Betelgeuse FC",
        "event_total": 63,
        "has_played": true,
        "id": 27770393,
        "last_rank": 56180,
        "player_name": "Tanmoy Tanu",
        "rank": 46967,
        "rank_sort": 47106,
        "total": 2354
      },
      {
        "club_badge_src": null,
        "entry": 3795358,
        "entry_name": "Stretford End FC",
        "event_total": 54,
        "has_played": true,
        "id": 28367933,
        "last_rank": 43168,
        "player_name": "Paul Lappin",
        "rank": 46967,
        "rank_sort": 47107,
        "total": 2354
      },
      {
        "club_badge_src": null,
        "entry": 3803177,
        "entry_name": "Ma$alah FC",
        "event_total": 63,
        "has_played": true,
        "id": 28431800,
        "last_rank": 56708,
        "player_name": "Afiq Rafi'uddin",
        "rank": 46967,
        "rank_sort": 47108,
        "total": 2354
      },
      {
        "club_badge_src": null,
        "entry": 3961641,
        "entry_name": "Isak but u suck more",
        "event_total": 54,
        "has_played": true,
        "id": 29807129,
        "last_rank": 37822,
        "player_name": "Lee Chin Ann",
        "rank": 46967,
        "rank_sort": 47109,
        "total": 2354
      },
      {
        "club_badge_src": null,
        "entry": 3967558,
        "entry_name": "Blink-1 Eto'o",
        "event_total": 66,
        "has_played": true,
        "id": 29855206,
        "last_rank": 61950,
        "player_name": "Murray Hansen",
        "rank": 46967,
        "rank_sort": 47110,
        "total": 2354
      },
      {
        "club_badge_src": null,
        "entry": 3972331,
        "entry_name": "The A-team",
        "event_total": 69,
        "has_played": true,
        "id": 29894560,
        "last_rank": 59813,
        "player_name": "Daniel Ruud",
        "rank": 46967,
        "rank_sort": 47111,
        "total": 2354
      },
      {
        "club_badge_src": null,
        "entry": 4036740,
        "entry_name": "My Son is gone",
        "event_total": 45,
        "has_played": true,
        "id": 30438945,
        "last_rank": 32190,
        "player_name": "Daniel Power",
        "rank": 46967,
        "rank_sort": 47112,
        "total": 2354
      },
      {
        "club_badge_src": null,
        "entry": 4040469,
        "entry_name": "Vito van Dijk \u2b50",
        "event_total": 61,
        "has_played": true,
        "id": 30470186,
        "last_rank": 47163,
        "player_name": "STEFANOS VITORATOS",
        "rank": 46967,
        "rank_sort": 47113,
        "total": 2354
      },
      {
        "club_badge_src": null,
        "entry": 4245194,
        "entry_name": "Numero Bruno",
        "event_total": 56,
        "has_played": true,
        "id": 32176582,
        "last_rank": 45416,
        "player_name": "Penny Angell",
        "rank": 46967,
        "rank_sort": 47114,
        "total": 2354
      },
      {
        "club_badge_src": null,
        "entry": 4249875,
        "entry_name": "Everybody Wirtz",
        "event_total": 63,
        "has_played": true,
        "id": 32215713,
        "last_rank": 57001,
        "player_name": "Paul Tierney",
        "rank": 46967,
        "rank_sort": 47115,
        "total": 2354
      },
      {
        "club_badge_src": null,
        "entry": 4259251,
        "entry_name": "Net Spend United",
        "event_total": 53,
        "has_played": true,
        "id": 32292499,
        "last_rank": 41967,
        "player_name": "Matthew Taylor",
        "rank": 46967,
        "rank_sort": 47116,
        "total": 2354
      },
      {
        "club_badge_src": null,
        "entry": 4301529,
        "entry_name": "WizardofHazard",
        "event_total": 59,
        "has_played": true,
        "id": 32634582,
        "last_rank": 50468,
        "player_name": "Omar Fakhreddine",
        "rank": 46967,
        "rank_sort": 47117,
        "total": 2354
      },
      {
        "club_badge_src": null,
        "entry": 4342266,
        "entry_name": "Diamond Dodgers",
        "event_total": 59,
        "has_played": true,
        "id": 32970275,
        "last_rank": 44303,
        "player_name": "Ryan Campbell",
        "rank": 46967,
        "rank_sort": 47118,
        "total": 2354
      },
      {
        "club_badge_src": null,
        "entry": 4347005,
        "entry_name": "Amorim's Army",
        "event_total": 59,
        "has_played": true,
        "id": 33008137,
        "last_rank": 49880,
        "player_name": "Shane Muscat",
        "rank": 46967,
        "rank_sort": 47119,
        "total": 2354
      },
      {
        "club_badge_src": "https://fantasy.premierleague.com/gcs/plfpl-production-adobe-approved/plfpl-production/4353393/63697483-8cc9-41fb-99c3-393b7d55ccc6.png",
        "entry": 4353393,
        "entry_name": "Luke Shawarma",
        "event_total": 48,
        "has_played": true,
        "id": 33060395,
        "last_rank": 30957,
        "player_name": "Aarav Bhatia",
        "rank": 46967,
        "rank_sort": 47120,
        "total": 2354
      },
      {
        "club_badge_src": "https://fantasy.premierleague.com/gcs/plfpl-production-adobe-approved/plfpl-production/4359403/ed2a03e5-7d6a-4643-ad8a-d003a9c21301.png",
        "entry": 4359403,
        "entry_name": "Singapore Slingers",
        "event_total": 36,
        "has_played": true,
        "id": 33109226,
        "last_rank": 23656,
        "player_name": "Neil Bowyer",
        "rank": 46967,
        "rank_sort": 47121,
        "total": 2354
      },
      {
        "club_badge_src": "https://fantasy.premierleague.com/gcs/plfpl-production-adobe-approved/plfpl-production/4401686/cb072bba-5986-420c-b20c-31eeed4c5fba.png",
        "entry": 4401686,
        "entry_name": "Juggernaut",
        "event_total": 60,
        "has_played": true,
        "id": 33476146,
        "last_rank": 45416,
        "player_name": "Ghalib Ahmed",
        "rank": 46967,
        "rank_sort": 47122,
        "total": 2354
      },
      {
        "club_badge_src": null,
        "entry": 4414890,
        "entry_name": "The Saints Rising",
        "event_total": 57,
        "has_played": true,
        "id": 33586867,
        "last_rank": 47417,
        "player_name": "Conor O'Shea",
        "rank": 46967,
        "rank_sort": 47123,
        "total": 2354
      },
      {
        "club_badge_src": null,
        "entry": 4427316,
        "entry_name": "Sim Salah Bim",
        "event_total": 49,
        "has_played": true,
        "id": 33699081,
        "last_rank": 36831,
        "player_name": "Christian Heyno",
        "rank": 46967,
        "rank_sort": 47124,
        "total": 2354
      },
      {
        "club_badge_src": null,
        "entry": 4432059,
        "entry_name": "IThinkWereAloneHowe",
        "event_total": 57,
        "has_played": true,
        "id": 33742955,
        "last_rank": 47417,
        "player_name": "Paul Burrows",
        "rank": 46967,
        "rank_sort": 47125,
        "total": 2354
      },
      {
        "club_badge_src": null,
        "entry": 4446778,
        "entry_name": "Bliss Boys",
        "event_total": 63,
        "has_played": true,
        "id": 33865968,
        "last_rank": 57001,
        "player_name": "Carter Bliss",
        "rank": 46967,
        "rank_sort": 47126,
        "total": 2354
      },
      {
        "club_badge_src": null,
        "entry": 4520395,
        "entry_name": "Mind The Gap Knoxy",
        "event_total": 68,
        "has_played": true,
        "id": 34473978,
        "last_rank": 65796,
        "player_name": "Mathew Hill",
        "rank": 46967,
        "rank_sort": 47127,
        "total": 2354
      },
      {
        "club_badge_src": null,
        "entry": 4570957,
        "entry_name": "Slow city",
        "event_total": 60,
        "has_played": true,
        "id": 34884116,
        "last_rank": 51720,
        "player_name": "Max Tian",
        "rank": 46967,
        "rank_sort": 47128,
        "total": 2354
      },
      {
        "club_badge_src": null,
        "entry": 4581820,
        "entry_name": "AFC Paskarakki",
        "event_total": 48,
        "has_played": true,
        "id": 34978190,
        "last_rank": 35619,
        "player_name": "Victor Rognstad",
        "rank": 46967,
        "rank_sort": 47129,
        "total": 2354
      },
      {
        "club_badge_src": null,
        "entry": 4840601,
        "entry_name": "Duck Squad",
        "event_total": 58,
        "has_played": true,
        "id": 37288268,
        "last_rank": 48642,
        "player_name": "Doug Hazell",
        "rank": 46967,
        "rank_sort": 47130,
        "total": 2354
      },
      {
        "club_badge_src": null,
        "entry": 4902600,
        "entry_name": "TC10",
        "event_total": 68,
        "has_played": true,
        "id": 37805457,
        "last_rank": 65796,
        "player_name": "Tom Crucefix",
        "rank": 46967,
        "rank_sort": 47131,
        "total": 2354
      },
      {
        "club_badge_src": null,
        "entry": 5031127,
        "entry_name": "Saka White Rice",
        "event_total": 63,
        "has_played": true,
        "id": 38858583,
        "last_rank": 57001,
        "player_name": "Julie Harper",
        "rank": 46967,
        "rank_sort": 47132,
        "total": 2354
      },
      {
        "club_badge_src": "https://fantasy.premierleague.com/gcs/plfpl-production-adobe-approved/plfpl-production/5071951/9cd20857-0cbe-49b5-a13f-b348811eaedf.png",
        "entry": 5071951,
        "entry_name": "FC L\u00f6wengeist",
        "event_total": 59,
        "has_played": true,
        "id": 39196509,
        "last_rank": 50199,
        "player_name": "Regulus Qavah",
        "rank": 46967,
        "rank_sort": 47133,
        "total": 2354
      },
      {
        "club_badge_src": "https://fantasy.premierleague.com/gcs/plfpl-production-adobe-approved/plfpl-production/5105872/44294d31-8b2c-4850-90e9-df53adf371e9.png",
        "entry": 5105872,
        "entry_name": "NgeriNgeriSedap",
        "event_total": 66,
        "has_played": true,
        "id": 39467668,
        "last_rank": 62223,
        "player_name": "Romie Abbas",
        "rank": 46967,
        "rank_sort": 47134,
        "total": 2354
      },
      {
        "club_badge_src": null,
        "entry": 5142956,
        "entry_name": "tactician Marvo",
        "event_total": 72,
        "has_played": true,
        "id": 39784841,
        "last_rank": 73720,
        "player_name": "Marvin Otieno",
        "rank": 46967,
        "rank_sort": 47135,
        "total": 2354
      },
      {
        "club_badge_src": "https://fantasy.premierleague.com/gcs/plfpl-production-adobe-approved/plfpl-production/5149569/d07b6a87-3f22-4571-a87c-94ac0dee0865.png",
        "entry": 5149569,
        "entry_name": "Gravy Bench",
        "event_total": 60,
        "has_played": true,
        "id": 39839701,
        "last_rank": 51984,
        "player_name": "Ola Olayiwola",
        "rank": 46967,
        "rank_sort": 47136,
        "total": 2354
      },
      {
        "club_badge_src": "https://fantasy.premierleague.com/gcs/plfpl-production-adobe-approved/plfpl-production/5344466/3f445789-273e-427e-8536-09b5f0986427.png",
        "entry": 5344466,
        "entry_name": "Polska",
        "event_total": 68,
        "has_played": true,
        "id": 41463046,
        "last_rank": 65796,
        "player_name": "Leszek Brzuzy",
        "rank": 46967,
        "rank_sort": 47137,
        "total": 2354
      },
      {
        "club_badge_src": null,
        "entry": 5413003,
        "entry_name": "Hotel Thiago",
        "event_total": 64,
        "has_played": true,
        "id": 42094857,
        "last_rank": 58388,
        "player_name": "Ed Middleton",
        "rank": 46967,
        "rank_sort": 47138,
        "total": 2354
      },
      {
        "club_badge_src": null,
        "entry": 5465207,
        "entry_name": "Sonny Hayes FC",
        "event_total": 40,
        "has_played": true,
        "id": 42534364,
        "last_rank": 23522,
        "player_name": "Shashank Patel",
        "rank": 46967,
        "rank_sort": 47139,
        "total": 2354
      },
      {
        "club_badge_src": null,
        "entry": 5475417,
        "entry_name": "show della estevao",
        "event_total": 58,
        "has_played": true,
        "id": 42624880,
        "last_rank": 48363,
        "player_name": "Olle Str\u00f6m",
        "rank": 46967,
        "rank_sort": 47140,
        "total": 2354
      },
      {
        "club_badge_src": "https://fantasy.premierleague.com/gcs/plfpl-production-adobe-approved/plfpl-production/5534161/b6c77154-2e9c-4212-82d4-6e9cec30ad22.png",
        "entry": 5534161,
        "entry_name": "City NIGGS",
        "event_total": 50,
        "has_played": true,
        "id": 43176346,
        "last_rank": 37822,
        "player_name": "Ditlev Bjerre",
        "rank": 46967,
        "rank_sort": 47141,
        "total": 2354
      },
      {
        "club_badge_src": "https://fantasy.premierleague.com/gcs/plfpl-production-adobe-approved/plfpl-production/5537950/dc1e9619-5af8-4965-a7c6-7793eb20cd0a.png",
        "entry": 5537950,
        "entry_name": "TheGoonerBoys",
        "event_total": 64,
        "has_played": true,
        "id": 43209652,
        "last_rank": 58388,
        "player_name": "Konstantinos Katsachnias",
        "rank": 46967,
        "rank_sort": 47142,
        "total": 2354
      },
      {
        "club_badge_src": null,
        "entry": 5619874,
        "entry_name": "Daffy Utd",
        "event_total": 44,
        "has_played": true,
        "id": 43929833,
        "last_rank": 30957,
        "player_name": "Dagfinn Valen",
        "rank": 46967,
        "rank_sort": 47143,
        "total": 2354
      },
      {
        "club_badge_src": null,
        "entry": 5654476,
        "entry_name": "Noobi",
        "event_total": 74,
        "has_played": true,
        "id": 44235115,
        "last_rank": 77050,
        "player_name": "Okpoye Norbert",
        "rank": 46967,
        "rank_sort": 47144,
        "total": 2354
      },
      {
        "club_badge_src": "https://fantasy.premierleague.com/gcs/plfpl-production-adobe-approved/plfpl-production/5895177/ac660d4c-e6df-4bb3-988c-d357924b75da.png",
        "entry": 5895177,
        "entry_name": "Better call omar",
        "event_total": 69,
        "has_played": true,
        "id": 46312602,
        "last_rank": 67422,
        "player_name": "Omar Ibrahim",
        "rank": 46967,
        "rank_sort": 47145,
        "total": 2354
      },
      {
        "club_badge_src": "https://fantasy.premierleague.com/gcs/plfpl-production-adobe-approved/plfpl-production/5926311/f10561ae-fe8d-45e6-b109-01a9846cd027.png",
        "entry": 5926311,
        "entry_name": "Mbe\u0161ko",
        "event_total": 57,
        "has_played": true,
        "id": 46585108,
        "last_rank": 41324,
        "player_name": "Thawatchai Sanonoi",
        "rank": 46967,
        "rank_sort": 47146,
        "total": 2354
      },
      {
        "club_badge_src": null,
        "entry": 5986311,
        "entry_name": "LongDuongMarcoSilva",
        "event_total": 65,
        "has_played": true,
        "id": 47152501,
        "last_rank": 53345,
        "player_name": "James Moruzzi",
        "rank": 46967,
        "rank_sort": 47147,
        "total": 2354
      },
      {
        "club_badge_src": null,
        "entry": 6068599,
        "entry_name": "Corky Utd",
        "event_total": 73,
        "has_played": true,
        "id": 47902035,
        "last_rank": 75874,
        "player_name": "Dolat Corr",
        "rank": 46967,
        "rank_sort": 47148,
        "total": 2354
      },
      {
        "club_badge_src": null,
        "entry": 6201744,
        "entry_name": "Son Heung-Min-Effort",
        "event_total": 65,
        "has_played": true,
        "id": 49060154,
        "last_rank": 53345,
        "player_name": "Zak Cox",
        "rank": 46967,
        "rank_sort": 47149,
        "total": 2354
      },
      {
        "club_badge_src": null,
        "entry": 6218584,
        "entry_name": "A Saka White Rice",
        "event_total": 45,
        "has_played": true,
        "id": 49204072,
        "last_rank": 32190,
        "player_name": "Liam McElligott",
        "rank": 46967,
        "rank_sort": 47150,
        "total": 2354
      }
    ]
  }
}