{
  "last_updated_data": "2026-05-24T23:28:17Z",
  "league": {
    "admin_entry": null,
    "closed": false,
    "code_privacy": "p",
    "created": "2025-07-20T23:14:33.933835Z",
    "cup_league": 2815434,
    "has_cup": true,
    "id": 314,
    "league_type": "s",
    "max_entries": null,
    "name": "Overall",
    "rank": null,
    "scoring": "c",
    "start_event": 1
  },
  "new_entries": {
    "has_next": false,
    "page": 1,
    "results": []
  },
  "standings": {
    "has_next": true,
    "page": 1370,
    "results": [
      {
        "club_badge_src": null,
        "entry": 6196091,
        "entry_name": "Ekitike Taka",
        "event_total": 65,
        "has_played": true,
        "id": 49011582,
        "last_rank": 86054,
        "player_name": "Conor O-Shea",
        "rank": 68171,
        "rank_sort": 68451,
        "total": 2341
      },
      {
        "club_badge_src": null,
        "entry": 6255723,
        "entry_name": "Calafiorication",
        "event_total": 60,
        "has_played": true,
        "id": 49524656,
        "last_rank": 75139,
        "player_name": "Rob Trofa",
        "rank": 68171,
        "rank_sort": 68452,
        "total": 2341
      },
      {
        "club_badge_src": null,
        "entry": 6372406,
        "entry_name": "The Mules",
        "event_total": 56,
        "has_played": true,
        "id": 50675437,
        "last_rank": 67422,
        "player_name": "Ben Parker",
        "rank": 68171,
        "rank_sort": 68453,
        "total": 2341
      },
      {
        "club_badge_src": null,
        "entry": 6407738,
        "entry_name": "Hala Madrid",
        "event_total": 64,
        "has_played": true,
        "id": 50987748,
        "last_rank": 84360,
        "player_name": "Helail Ragab",
        "rank": 68171,
        "rank_sort": 68454,
        "total": 2341
      },
      {
        "club_badge_src": null,
        "entry": 6489478,
        "entry_name": "USWNT",
        "event_total": 59,
        "has_played": true,
        "id": 51728896,
        "last_rank": 73423,
        "player_name": "Conal Joyce",
        "rank": 68171,
        "rank_sort": 68455,
        "total": 2341
      },
      {
        "club_badge_src": "https://fantasy.premierleague.com/gcs/plfpl-production-adobe-approved/plfpl-production/6524423/3ce6fa07-23ad-4ed1-a9a1-fa84b287cf41.png",
        "entry": 6524423,
        "entry_name": "Baleba Ballers!",
        "event_total": 60,
        "has_played": true,
        "id": 52039335,
        "last_rank": 75139,
        "player_name": "Arjun Subramanian",
        "rank": 68171,
        "rank_sort": 68456,
        "total": 2341
      },
      {
        "club_badge_src": "https://fantasy.premierleague.com/gcs/plfpl-production-adobe-approved/plfpl-production/6711455/794059bf-0bbe-4152-8c43-475770b2b233.png",
        "entry": 6711455,
        "entry_name": "hopelessdrunks",
        "event_total": 52,
        "has_played": true,
        "id": 53709872,
        "last_rank": 60168,
        "player_name": "Hardik Shahi",
        "rank": 68171,
        "rank_sort": 68457,
        "total": 2341
      },
      {
        "club_badge_src": "https://fantasy.premierleague.com/gcs/plfpl-production-adobe-approved/plfpl-production/6773395/51f6b8ba-5e7b-4f50-be52-bebe5e5675c9.png",
        "entry": 6773395,
        "entry_name": "old timer x",
        "event_total": 54,
        "has_played": true,
        "id": 54234971,
        "last_rank": 63724,
        "player_name": "Hassan Haidar",
        "rank": 68171,
        "rank_sort": 68458,
        "total": 2341
      },
      {
        "club_badge_src": null,
        "entry": 6842200,
        "entry_name": "Red devils 707",
        "event_total": 53,
        "has_played": true,
        "id": 54812056,
        "last_rank": 61606,
        "player_name": "Fabian Leon",
        "rank": 68171,
        "rank_sort": 68459,
        "total": 2341
      },
      {
        "club_badge_src": null,
        "entry": 6846296,
        "entry_name": "Narayi fc",
        "event_total": 65,
        "has_played": true,
        "id": 54847284,
        "last_rank": 76947,
        "player_name": "Temiloluwa Olorunfemi",
        "rank": 68171,
        "rank_sort": 68460,
        "total": 2341
      },
      {
        "club_badge_src": null,
        "entry": 6873697,
        "entry_name": "Beef Cherki",
        "event_total": 51,
        "has_played": true,
        "id": 55081864,
        "last_rank": 51403,
        "player_name": "Jacob Czechyra",
        "rank": 68171,
        "rank_sort": 68461,
        "total": 2341
      },
      {
        "club_badge_src": null,
        "entry": 6913336,
        "entry_name": "Half-hearted XI",
        "event_total": 57,
        "has_played": true,
        "id": 55416889,
        "last_rank": 69323,
        "player_name": "Kiran Tom Sajan",
        "rank": 68171,
        "rank_sort": 68462,
        "total": 2341
      },
      {
        "club_badge_src": "https://fantasy.premierleague.com/gcs/plfpl-production-adobe-approved/plfpl-production/7002001/663b352a-8aee-4402-812d-488d67bc847e.png",
        "entry": 7002001,
        "entry_name": "False Nine Minus One",
        "event_total": 55,
        "has_played": true,
        "id": 56221696,
        "last_rank": 65796,
        "player_name": "Chris Parrish",
        "rank": 68171,
        "rank_sort": 68463,
        "total": 2341
      },
      {
        "club_badge_src": "https://fantasy.premierleague.com/gcs/plfpl-production-adobe-approved/plfpl-production/7037078/a112f33c-4a06-4f6f-965a-95c0a144f2c3.png",
        "entry": 7037078,
        "entry_name": "Onana what\u2019s my name",
        "event_total": 43,
        "has_played": true,
        "id": 56568109,
        "last_rank": 45416,
        "player_name": "Aidan Lethem",
        "rank": 68171,
        "rank_sort": 68464,
        "total": 2341
      },
      {
        "club_badge_src": null,
        "entry": 7059899,
        "entry_name": "Myles High Club",
        "event_total": 69,
        "has_played": true,
        "id": 56794149,
        "last_rank": 96374,
        "player_name": "James Gordon",
        "rank": 68171,
        "rank_sort": 68465,
        "total": 2341
      },
      {
        "club_badge_src": null,
        "entry": 7083943,
        "entry_name": "joao pedrofil",
        "event_total": 59,
        "has_played": true,
        "id": 57024146,
        "last_rank": 73038,
        "player_name": "Bernhard Bors",
        "rank": 68171,
        "rank_sort": 68466,
        "total": 2341
      },
      {
        "club_badge_src": null,
        "entry": 7087429,
        "entry_name": "Here Comes the Son",
        "event_total": 65,
        "has_played": true,
        "id": 57056904,
        "last_rank": 86054,
        "player_name": "Parth Gandhi",
        "rank": 68171,
        "rank_sort": 68467,
        "total": 2341
      },
      {
        "club_badge_src": null,
        "entry": 7125496,
        "entry_name": "Mmmmmmmmmm",
        "event_total": 56,
        "has_played": true,
        "id": 57417841,
        "last_rank": 67063,
        "player_name": "Diarmuid Ryan",
        "rank": 68171,
        "rank_sort": 68468,
        "total": 2341
      },
      {
        "club_badge_src": null,
        "entry": 7170542,
        "entry_name": "Lyis H\u00e4milt\u00f6nit",
        "event_total": 66,
        "has_played": true,
        "id": 57857955,
        "last_rank": 79431,
        "player_name": "Matias Salonen",
        "rank": 68171,
        "rank_sort": 68469,
        "total": 2341
      },
      {
        "club_badge_src": null,
        "entry": 7175892,
        "entry_name": "Bruno dos tres",
        "event_total": 62,
        "has_played": true,
        "id": 57907856,
        "last_rank": 79817,
        "player_name": "Harry Mitchell",
        "rank": 68171,
        "rank_sort": 68470,
        "total": 2341
      },
      {
        "club_badge_src": null,
        "entry": 7200511,
        "entry_name": "Woodbrook Wanderers",
        "event_total": 69,
        "has_played": true,
        "id": 58136862,
        "last_rank": 96374,
        "player_name": "Vinnie Moriarty",
        "rank": 68171,
        "rank_sort": 68471,
        "total": 2341
      },
      {
        "club_badge_src": null,
        "entry": 7207660,
        "entry_name": "Danger UXD",
        "event_total": 64,
        "has_played": true,
        "id": 58204381,
        "last_rank": 83934,
        "player_name": "Shane Bullock",
        "rank": 68171,
        "rank_sort": 68472,
        "total": 2341
      },
      {
        "club_badge_src": null,
        "entry": 7244432,
        "entry_name": "Deanamo Kyiv",
        "event_total": 71,
        "has_played": true,
        "id": 58549712,
        "last_rank": 100949,
        "player_name": "Andrew Deans",
        "rank": 68171,
        "rank_sort": 68473,
        "total": 2341
      },
      {
        "club_badge_src": null,
        "entry": 7316462,
        "entry_name": "Bamfc",
        "event_total": 66,
        "has_played": true,
        "id": 59230987,
        "last_rank": 89055,
        "player_name": "Ronan Reilly",
        "rank": 68171,
        "rank_sort": 68474,
        "total": 2341
      },
      {
        "club_badge_src": null,
        "entry": 7372712,
        "entry_name": "Korntra FC",
        "event_total": 70,
        "has_played": true,
        "id": 59759683,
        "last_rank": 88594,
        "player_name": "Korn Kitikannakorn",
        "rank": 68171,
        "rank_sort": 68475,
        "total": 2341
      },
      {
        "club_badge_src": null,
        "entry": 7587599,
        "entry_name": "Onana what\u2019s my name",
        "event_total": 55,
        "has_played": true,
        "id": 62152750,
        "last_rank": 65475,
        "player_name": "Lauren Egbuloniu",
        "rank": 68171,
        "rank_sort": 68476,
        "total": 2341
      },
      {
        "club_badge_src": null,
        "entry": 7607520,
        "entry_name": "What's Rob Holding?",
        "event_total": 42,
        "has_played": true,
        "id": 62332349,
        "last_rank": 44303,
        "player_name": "Kieran Jones",
        "rank": 68171,
        "rank_sort": 68477,
        "total": 2341
      },
      {
        "club_badge_src": null,
        "entry": 7614449,
        "entry_name": "Konat\u00e9 Kid",
        "event_total": 55,
        "has_played": true,
        "id": 62396288,
        "last_rank": 65163,
        "player_name": "Carol Cheung",
        "rank": 68171,
        "rank_sort": 68478,
        "total": 2341
      },
      {
        "club_badge_src": null,
        "entry": 7681757,
        "entry_name": "The Tikki Tacos",
        "event_total": 84,
        "has_played": true,
        "id": 63006802,
        "last_rank": 126088,
        "player_name": "Adam Goonetilleke",
        "rank": 68171,
        "rank_sort": 68479,
        "total": 2341
      },
      {
        "club_badge_src": null,
        "entry": 7691868,
        "entry_name": "ojorangerteam",
        "event_total": 41,
        "has_played": true,
        "id": 63098314,
        "last_rank": 42940,
        "player_name": "Oystein Joranger",
        "rank": 68171,
        "rank_sort": 68480,
        "total": 2341
      },
      {
        "club_badge_src": null,
        "entry": 7726827,
        "entry_name": "Change Name",
        "event_total": 57,
        "has_played": true,
        "id": 63412690,
        "last_rank": 69641,
        "player_name": "Conor Crean",
        "rank": 68171,
        "rank_sort": 68481,
        "total": 2341
      },
      {
        "club_badge_src": null,
        "entry": 7769231,
        "entry_name": "Beanz FC",
        "event_total": 51,
        "has_played": true,
        "id": 63796104,
        "last_rank": 57857,
        "player_name": "Maisie Lister",
        "rank": 68171,
        "rank_sort": 68482,
        "total": 2341
      },
      {
        "club_badge_src": null,
        "entry": 8076928,
        "entry_name": "Bby its Cole outside",
        "event_total": 42,
        "has_played": true,
        "id": 66586252,
        "last_rank": 44303,
        "player_name": "Joshua Battaliou",
        "rank": 68171,
        "rank_sort": 68483,
        "total": 2341
      },
      {
        "club_badge_src": null,
        "entry": 8160957,
        "entry_name": "\u0627\u062d\u0645\u062f \u0639\u0632\u062a",
        "event_total": 56,
        "has_played": true,
        "id": 67370290,
        "last_rank": 59813,
        "player_name": "Ahmed Ezzat",
        "rank": 68171,
        "rank_sort": 68484,
        "total": 2341
      },
      {
        "club_badge_src": null,
        "entry": 8204234,
        "entry_name": "M.J.F.C",
        "event_total": 60,
        "has_played": true,
        "id": 67780326,
        "last_rank": 67063,
        "player_name": "Majd Jourieh",
        "rank": 68171,
        "rank_sort": 68485,
        "total": 2341
      },
      {
        "club_badge_src": null,
        "entry": 8222194,
        "entry_name": "Tottis Disciple",
        "event_total": 59,
        "has_played": true,
        "id": 67951202,
        "last_rank": 73423,
        "player_name": "Sebastian Sinding",
        "rank": 68171,
        "rank_sort": 68486,
        "total": 2341
      },
      {
        "club_badge_src": null,
        "entry": 8319125,
        "entry_name": "Irish",
        "event_total": 55,
        "has_played": true,
        "id": 68910774,
        "last_rank": 65163,
        "player_name": "Patrick Ukagba",
        "rank": 68171,
        "rank_sort": 68487,
        "total": 2341
      },
      {
        "club_badge_src": null,
        "entry": 8540204,
        "entry_name": "Joe's XI",
        "event_total": 69,
        "has_played": true,
        "id": 71024002,
        "last_rank": 96374,
        "player_name": "Joseph Dodd",
        "rank": 68171,
        "rank_sort": 68488,
        "total": 2341
      },
      {
        "club_badge_src": null,
        "entry": 8803902,
        "entry_name": "Pandababa",
        "event_total": 57,
        "has_played": true,
        "id": 73582400,
        "last_rank": 69641,
        "player_name": "Joel Teo",
        "rank": 68171,
        "rank_sort": 68489,
        "total": 2341
      },
      {
        "club_badge_src": null,
        "entry": 9040067,
        "entry_name": "\u0627\u0644\u0639\u0627\u0641\u064a\u062c\u064a",
        "event_total": 52,
        "has_played": true,
        "id": 75867850,
        "last_rank": 59813,
        "player_name": "Amr Meroo",
        "rank": 68171,
        "rank_sort": 68490,
        "total": 2341
      },
      {
        "club_badge_src": null,
        "entry": 9158518,
        "entry_name": "Charlie",
        "event_total": 62,
        "has_played": true,
        "id": 77023613,
        "last_rank": 79817,
        "player_name": "Charlie Wyke",
        "rank": 68171,
        "rank_sort": 68491,
        "total": 2341
      },
      {
        "club_badge_src": null,
        "entry": 9257750,
        "entry_name": "1st n 2nd 2 Glory",
        "event_total": 85,
        "has_played": true,
        "id": 77997974,
        "last_rank": 142754,
        "player_name": "Short Billy",
        "rank": 68171,
        "rank_sort": 68492,
        "total": 2341
      },
      {
        "club_badge_src": null,
        "entry": 9438532,
        "entry_name": "MikeDansonsBaldHead",
        "event_total": 59,
        "has_played": true,
        "id": 79741027,
        "last_rank": 65163,
        "player_name": "Ben Hadley",
        "rank": 68171,
        "rank_sort": 68493,
        "total": 2341
      },
      {
        "club_badge_src": null,
        "entry": 9481609,
        "entry_name": "EggFriedReus",
        "event_total": 63,
        "has_played": true,
        "id": 80131823,
        "last_rank": 82069,
        "player_name": "Alex Hatchman",
        "rank": 68171,
        "rank_sort": 68494,
        "total": 2341
      },
      {
        "club_badge_src": null,
        "entry": 10746601,
        "entry_name": "got_-",
        "event_total": 68,
        "has_played": true,
        "id": 90768549,
        "last_rank": 83934,
        "player_name": "T A",
        "rank": 68171,
        "rank_sort": 68495,
        "total": 2341
      },
      {
        "club_badge_src": "https://fantasy.premierleague.com/gcs/plfpl-production-adobe-approved/plfpl-production/2824/3ba3a1df-29b7-4946-800a-c1d845379da4.png",
        "entry": 2824,
        "entry_name": "Cole'd Diggers",
        "event_total": 65,
        "has_played": true,
        "id": 15883,
        "last_rank": 87074,
        "player_name": "Richard Wingfield Digby",
        "rank": 68496,
        "rank_sort": 68496,
        "total": 2341
      },
      {
        "club_badge_src": null,
        "entry": 3637,
        "entry_name": "Sanad Ghwari",
        "event_total": 69,
        "has_played": true,
        "id": 20622,
        "last_rank": 96777,
        "player_name": "Sanad Odeh",
        "rank": 68496,
        "rank_sort": 68497,
        "total": 2341
      },
      {
        "club_badge_src": null,
        "entry": 6312,
        "entry_name": "Always 2nd",
        "event_total": 63,
        "has_played": true,
        "id": 36187,
        "last_rank": 73423,
        "player_name": "Adam Fleetwood",
        "rank": 68496,
        "rank_sort": 68498,
        "total": 2341
      },
      {
        "club_badge_src": "https://fantasy.premierleague.com/gcs/plfpl-production-adobe-approved/plfpl-production/10447/3ffc7440-711f-4235-90b0-997bb2723adc.png",
        "entry": 10447,
        "entry_name": "El Pistoleros",
        "event_total": 39,
        "has_played": true,
        "id": 61782,
        "last_rank": 35424,
        "player_name": "Tatjana Malic",
        "rank": 68496,
        "rank_sort": 68499,
        "total": 2341
      },
      {
        "club_badge_src": null,
        "entry": 16057,
        "entry_name": "Borussia Teeth XI",
        "event_total": 75,
        "has_played": true,
        "id": 98972,
        "last_rank": 112169,
        "player_name": "Ben Rees",
        "rank": 68496,
        "rank_sort": 68500,
        "total": 2341
      }
    ]
  }
}