{
  "last_updated_data": "2026-05-24T23:28:17Z",
  "league": {
    "admin_entry": null,
    "closed": false,
    "code_privacy": "p",
    "created": "2025-07-20T23:14:33.933835Z",
    "cup_league": 2815434,
    "has_cup": true,
    "id": 314,
    "league_type": "s",
    "max_entries": null,
    "name": "Overall",
    "rank": null,
    "scoring": "c",
    "start_event": 1
  },
  "new_entries": {
    "has_next": false,
    "page": 1,
    "results": []
  },
  "standings": {
    "has_next": true,
    "page": 594,
    "results": [
      {
        "club_badge_src": null,
        "entry": 115349,
        "entry_name": "Xabi Alonso 3mk",
        "event_total": 56,
        "has_played": true,
        "id": 752820,
        "last_rank": 24735,
        "player_name": "Nawaf Alrayes",
        "rank": 29651,
        "rank_sort": 29651,
        "total": 2369
      },
      {
        "club_badge_src": null,
        "entry": 142729,
        "entry_name": "ctrl alt de ligt",
        "event_total": 62,
        "has_played": true,
        "id": 933415,
        "last_rank": 34849,
        "player_name": "Daniel Tully",
        "rank": 29651,
        "rank_sort": 29652,
        "total": 2369
      },
      {
        "club_badge_src": null,
        "entry": 662053,
        "entry_name": "PCEC FC",
        "event_total": 57,
        "has_played": true,
        "id": 4475024,
        "last_rank": 29411,
        "player_name": "Michael Johnston",
        "rank": 29651,
        "rank_sort": 29653,
        "total": 2369
      },
      {
        "club_badge_src": null,
        "entry": 912947,
        "entry_name": "Midtable Mike",
        "event_total": 43,
        "has_played": true,
        "id": 6277483,
        "last_rank": 17918,
        "player_name": "Michael Christie",
        "rank": 29651,
        "rank_sort": 29654,
        "total": 2369
      },
      {
        "club_badge_src": "https://fantasy.premierleague.com/gcs/plfpl-production-adobe-approved/plfpl-production/1400483/12808bbb-04f6-43af-902e-fc2f53735ce6.png",
        "entry": 1400483,
        "entry_name": "Arteta's Army",
        "event_total": 59,
        "has_played": true,
        "id": 9744151,
        "last_rank": 27464,
        "player_name": "\ud83d\udd25throwing bombs banging the league",
        "rank": 29651,
        "rank_sort": 29655,
        "total": 2369
      },
      {
        "club_badge_src": null,
        "entry": 2283949,
        "entry_name": "LUMPY GRAVY",
        "event_total": 61,
        "has_played": true,
        "id": 16287720,
        "last_rank": 33751,
        "player_name": "paul fisher",
        "rank": 29651,
        "rank_sort": 29656,
        "total": 2369
      },
      {
        "club_badge_src": null,
        "entry": 2620089,
        "entry_name": "HunPool",
        "event_total": 76,
        "has_played": true,
        "id": 18826319,
        "last_rank": 47920,
        "player_name": "Laszlo Takacs",
        "rank": 29651,
        "rank_sort": 29657,
        "total": 2369
      },
      {
        "club_badge_src": null,
        "entry": 3057343,
        "entry_name": "Vibes FC",
        "event_total": 59,
        "has_played": true,
        "id": 22508960,
        "last_rank": 31448,
        "player_name": "Andrew Sharpe",
        "rank": 29651,
        "rank_sort": 29658,
        "total": 2369
      },
      {
        "club_badge_src": null,
        "entry": 3112209,
        "entry_name": "toffes",
        "event_total": 84,
        "has_played": true,
        "id": 22965990,
        "last_rank": 47812,
        "player_name": "Mhamad Radun98",
        "rank": 29651,
        "rank_sort": 29659,
        "total": 2369
      },
      {
        "club_badge_src": null,
        "entry": 3246239,
        "entry_name": "carpet slippers",
        "event_total": 51,
        "has_played": true,
        "id": 24015190,
        "last_rank": 20763,
        "player_name": "Stephen Dougherty",
        "rank": 29651,
        "rank_sort": 29660,
        "total": 2369
      },
      {
        "club_badge_src": null,
        "entry": 4336788,
        "entry_name": "The Boys from Brazil",
        "event_total": 44,
        "has_played": true,
        "id": 32925477,
        "last_rank": 15987,
        "player_name": "tony brazil",
        "rank": 29651,
        "rank_sort": 29661,
        "total": 2369
      },
      {
        "club_badge_src": null,
        "entry": 4852906,
        "entry_name": "Basho",
        "event_total": 60,
        "has_played": true,
        "id": 37390868,
        "last_rank": 32576,
        "player_name": "Mohamed Hamza",
        "rank": 29651,
        "rank_sort": 29662,
        "total": 2369
      },
      {
        "club_badge_src": "https://fantasy.premierleague.com/gcs/plfpl-production-adobe-approved/plfpl-production/5676078/9db21a8a-9df6-4e3d-b18f-de2b4cd9e8bc.png",
        "entry": 5676078,
        "entry_name": "5aliha 3alalah",
        "event_total": 56,
        "has_played": true,
        "id": 44421100,
        "last_rank": 24735,
        "player_name": "Chedly Ayari",
        "rank": 29651,
        "rank_sort": 29663,
        "total": 2369
      },
      {
        "club_badge_src": null,
        "entry": 102254,
        "entry_name": "winner team",
        "event_total": 51,
        "has_played": true,
        "id": 667172,
        "last_rank": 20775,
        "player_name": "david hani",
        "rank": 29664,
        "rank_sort": 29664,
        "total": 2369
      },
      {
        "club_badge_src": null,
        "entry": 341643,
        "entry_name": "B\u00e4ckby Panthers",
        "event_total": 74,
        "has_played": true,
        "id": 2286765,
        "last_rank": 45007,
        "player_name": "Peter Bj\u00f6rkmark",
        "rank": 29664,
        "rank_sort": 29665,
        "total": 2369
      },
      {
        "club_badge_src": "https://fantasy.premierleague.com/gcs/plfpl-production-adobe-approved/plfpl-production/504699/73fd93f3-ebe3-48cb-b572-d56a18bfb72f.png",
        "entry": 504699,
        "entry_name": "A Team",
        "event_total": 55,
        "has_played": true,
        "id": 3387694,
        "last_rank": 27499,
        "player_name": "Tom Oya",
        "rank": 29664,
        "rank_sort": 29666,
        "total": 2369
      },
      {
        "club_badge_src": null,
        "entry": 686872,
        "entry_name": "LiveFastNdiayeYoung",
        "event_total": 69,
        "has_played": true,
        "id": 4649954,
        "last_rank": 43657,
        "player_name": "Bryce Collin",
        "rank": 29664,
        "rank_sort": 29667,
        "total": 2369
      },
      {
        "club_badge_src": "https://fantasy.premierleague.com/gcs/plfpl-production-adobe-approved/plfpl-production/920580/219c3a92-6fc9-40a2-86ea-a90d9b6fbe9c.png",
        "entry": 920580,
        "entry_name": "Karimovic",
        "event_total": 61,
        "has_played": true,
        "id": 6331059,
        "last_rank": 25613,
        "player_name": "Karim Abd El-Hady",
        "rank": 29664,
        "rank_sort": 29668,
        "total": 2369
      },
      {
        "club_badge_src": "https://fantasy.premierleague.com/gcs/plfpl-production-adobe-approved/plfpl-production/2413342/09fafeaf-4237-4248-ba18-bcbc980a5ce9.png",
        "entry": 2413342,
        "entry_name": "Kevinsanity",
        "event_total": 57,
        "has_played": true,
        "id": 17251648,
        "last_rank": 29419,
        "player_name": "Tran Khoa Vo",
        "rank": 29664,
        "rank_sort": 29669,
        "total": 2369
      },
      {
        "club_badge_src": "https://fantasy.premierleague.com/gcs/plfpl-production-adobe-approved/plfpl-production/2494894/f2e5d4af-fe73-406a-a6c4-8731480ea7c2.png",
        "entry": 2494894,
        "entry_name": "fpl-ars",
        "event_total": 58,
        "has_played": true,
        "id": 17861886,
        "last_rank": 30418,
        "player_name": "Anselmo da Silva",
        "rank": 29664,
        "rank_sort": 29670,
        "total": 2369
      },
      {
        "club_badge_src": null,
        "entry": 238974,
        "entry_name": "Siuuu-per Mario Bros",
        "event_total": 78,
        "has_played": true,
        "id": 1590145,
        "last_rank": 50905,
        "player_name": "Oliver Coleman",
        "rank": 29671,
        "rank_sort": 29671,
        "total": 2369
      },
      {
        "club_badge_src": null,
        "entry": 798359,
        "entry_name": "Mind the gap fc",
        "event_total": 65,
        "has_played": true,
        "id": 5464411,
        "last_rank": 33768,
        "player_name": "daniel boltryk",
        "rank": 29671,
        "rank_sort": 29672,
        "total": 2369
      },
      {
        "club_badge_src": "https://fantasy.premierleague.com/gcs/plfpl-production-adobe-approved/plfpl-production/1626113/4d198647-11fb-440b-b1bd-3f752d6f5b5f.png",
        "entry": 1626113,
        "entry_name": "Red Nose Reijnders",
        "event_total": 48,
        "has_played": true,
        "id": 11381685,
        "last_rank": 21569,
        "player_name": "Danny Sivakumar",
        "rank": 29671,
        "rank_sort": 29673,
        "total": 2369
      },
      {
        "club_badge_src": null,
        "entry": 2527778,
        "entry_name": "Haalandaise Sauce",
        "event_total": 55,
        "has_played": true,
        "id": 18113057,
        "last_rank": 27514,
        "player_name": "Ria Patel",
        "rank": 29671,
        "rank_sort": 29674,
        "total": 2369
      },
      {
        "club_badge_src": null,
        "entry": 4479640,
        "entry_name": "theINFOnerds  Team",
        "event_total": 62,
        "has_played": true,
        "id": 34140646,
        "last_rank": 30433,
        "player_name": "the INFO nerds",
        "rank": 29671,
        "rank_sort": 29675,
        "total": 2369
      },
      {
        "club_badge_src": null,
        "entry": 7357390,
        "entry_name": "Pipita FC Sad",
        "event_total": 74,
        "has_played": true,
        "id": 59617598,
        "last_rank": 51047,
        "player_name": "Filipe Pipas",
        "rank": 29671,
        "rank_sort": 29676,
        "total": 2369
      },
      {
        "club_badge_src": "https://fantasy.premierleague.com/gcs/plfpl-production-adobe-approved/plfpl-production/285700/7fc13e4e-df7d-4497-b90d-c17cdc283511.png",
        "entry": 285700,
        "entry_name": "Pupi el Tractor",
        "event_total": 50,
        "has_played": true,
        "id": 1903030,
        "last_rank": 20084,
        "player_name": "Dorian Zornjak",
        "rank": 29677,
        "rank_sort": 29677,
        "total": 2369
      },
      {
        "club_badge_src": null,
        "entry": 501750,
        "entry_name": "eze come eze go",
        "event_total": 45,
        "has_played": true,
        "id": 3367480,
        "last_rank": 19339,
        "player_name": "Stuart Williams",
        "rank": 29677,
        "rank_sort": 29678,
        "total": 2369
      },
      {
        "club_badge_src": "https://fantasy.premierleague.com/gcs/plfpl-production-adobe-approved/plfpl-production/741604/abc03bbd-a47a-4f5a-8687-3ef9f248735a.png",
        "entry": 741604,
        "entry_name": "kwaya d indomi FC",
        "event_total": 56,
        "has_played": true,
        "id": 5043791,
        "last_rank": 21558,
        "player_name": "Tayeb Kadri",
        "rank": 29677,
        "rank_sort": 29679,
        "total": 2369
      },
      {
        "club_badge_src": null,
        "entry": 1467260,
        "entry_name": "PrimeTeam!",
        "event_total": 76,
        "has_played": true,
        "id": 10227470,
        "last_rank": 47995,
        "player_name": "Artur Rauhut",
        "rank": 29677,
        "rank_sort": 29680,
        "total": 2369
      },
      {
        "club_badge_src": null,
        "entry": 3413950,
        "entry_name": "Blue Boys",
        "event_total": 68,
        "has_played": true,
        "id": 25356058,
        "last_rank": 42347,
        "player_name": "Heather Blundell",
        "rank": 29677,
        "rank_sort": 29681,
        "total": 2369
      },
      {
        "club_badge_src": "https://fantasy.premierleague.com/gcs/plfpl-production-adobe-approved/plfpl-production/5610299/d3c25b74-13b2-4c0a-950a-245e3a4825c5.png",
        "entry": 5610299,
        "entry_name": "Karpouzi",
        "event_total": 55,
        "has_played": true,
        "id": 43845878,
        "last_rank": 23936,
        "player_name": "Cristhian Gonzalez",
        "rank": 29677,
        "rank_sort": 29682,
        "total": 2369
      },
      {
        "club_badge_src": "https://fantasy.premierleague.com/gcs/plfpl-production-adobe-approved/plfpl-production/278842/4b2a9d2a-d9b5-4a2e-9a50-a6ef023e00e0.png",
        "entry": 278842,
        "entry_name": "Fullkrug MetalJacket",
        "event_total": 66,
        "has_played": true,
        "id": 1855821,
        "last_rank": 34885,
        "player_name": "Richard Woolford",
        "rank": 29683,
        "rank_sort": 29683,
        "total": 2369
      },
      {
        "club_badge_src": null,
        "entry": 604269,
        "entry_name": "Chapelton Dons",
        "event_total": 66,
        "has_played": true,
        "id": 4079110,
        "last_rank": 30443,
        "player_name": "Ian Robb",
        "rank": 29683,
        "rank_sort": 29684,
        "total": 2369
      },
      {
        "club_badge_src": null,
        "entry": 2176556,
        "entry_name": "What\u2019s uppppp!",
        "event_total": 65,
        "has_played": true,
        "id": 15477409,
        "last_rank": 33782,
        "player_name": "Phil Stanier",
        "rank": 29683,
        "rank_sort": 29685,
        "total": 2369
      },
      {
        "club_badge_src": null,
        "entry": 2627943,
        "entry_name": "Eighty Kike",
        "event_total": 60,
        "has_played": true,
        "id": 18884499,
        "last_rank": 32604,
        "player_name": "Touhid Jainekhan",
        "rank": 29683,
        "rank_sort": 29686,
        "total": 2369
      },
      {
        "club_badge_src": null,
        "entry": 6384429,
        "entry_name": "Oli Emo Memito",
        "event_total": 65,
        "has_played": true,
        "id": 50781926,
        "last_rank": 33782,
        "player_name": "Mohamed A. Mostafa",
        "rank": 29683,
        "rank_sort": 29687,
        "total": 2369
      },
      {
        "club_badge_src": "https://fantasy.premierleague.com/gcs/plfpl-production-adobe-approved/plfpl-production/74382/cc08a8e2-f1f4-4098-a892-515125fd0b35.png",
        "entry": 74382,
        "entry_name": "MAHMOUD FC",
        "event_total": 45,
        "has_played": true,
        "id": 483468,
        "last_rank": 16659,
        "player_name": "Mahmoud Bouzidi",
        "rank": 29688,
        "rank_sort": 29688,
        "total": 2369
      },
      {
        "club_badge_src": null,
        "entry": 118697,
        "entry_name": "Manchester United",
        "event_total": 39,
        "has_played": true,
        "id": 774617,
        "last_rank": 15379,
        "player_name": "Tom Henderson",
        "rank": 29688,
        "rank_sort": 29689,
        "total": 2369
      },
      {
        "club_badge_src": "https://fantasy.premierleague.com/gcs/plfpl-production-adobe-approved/plfpl-production/413654/0edc0f63-4aa1-4d0e-99f7-db3c0c7082ce.png",
        "entry": 413654,
        "entry_name": "Da lima 99",
        "event_total": 56,
        "has_played": true,
        "id": 2773200,
        "last_rank": 18612,
        "player_name": "Mahmood Reyadh",
        "rank": 29688,
        "rank_sort": 29690,
        "total": 2369
      },
      {
        "club_badge_src": null,
        "entry": 1003876,
        "entry_name": "Manchester Utd",
        "event_total": 39,
        "has_played": true,
        "id": 6939439,
        "last_rank": 15379,
        "player_name": "Tom Henderson",
        "rank": 29688,
        "rank_sort": 29691,
        "total": 2369
      },
      {
        "club_badge_src": null,
        "entry": 1088786,
        "entry_name": "Man Utd",
        "event_total": 39,
        "has_played": true,
        "id": 7540420,
        "last_rank": 15379,
        "player_name": "Tom Henderson",
        "rank": 29688,
        "rank_sort": 29692,
        "total": 2369
      },
      {
        "club_badge_src": null,
        "entry": 6414702,
        "entry_name": "Portman",
        "event_total": 76,
        "has_played": true,
        "id": 51050378,
        "last_rank": 54313,
        "player_name": "Yngve Sollied",
        "rank": 29688,
        "rank_sort": 29693,
        "total": 2369
      },
      {
        "club_badge_src": null,
        "entry": 6840092,
        "entry_name": "TeamLykke",
        "event_total": 65,
        "has_played": true,
        "id": 54794294,
        "last_rank": 29434,
        "player_name": "Simen Birkelund",
        "rank": 29688,
        "rank_sort": 29694,
        "total": 2369
      },
      {
        "club_badge_src": null,
        "entry": 7823980,
        "entry_name": "Muqos XI",
        "event_total": 47,
        "has_played": true,
        "id": 64291049,
        "last_rank": 17939,
        "player_name": "Muqo Qaddous",
        "rank": 29688,
        "rank_sort": 29695,
        "total": 2369
      },
      {
        "club_badge_src": null,
        "entry": 596560,
        "entry_name": "in it to win it",
        "event_total": 48,
        "has_played": true,
        "id": 4022365,
        "last_rank": 18620,
        "player_name": "Gary Smith",
        "rank": 29696,
        "rank_sort": 29696,
        "total": 2369
      },
      {
        "club_badge_src": null,
        "entry": 3457372,
        "entry_name": "Wirtz Case Scenario",
        "event_total": 53,
        "has_played": true,
        "id": 25697593,
        "last_rank": 25680,
        "player_name": "phil cottrell",
        "rank": 29696,
        "rank_sort": 29697,
        "total": 2369
      },
      {
        "club_badge_src": null,
        "entry": 447779,
        "entry_name": "Noshowdegaard",
        "event_total": 72,
        "has_played": true,
        "id": 3003845,
        "last_rank": 42364,
        "player_name": "Colby Stringer",
        "rank": 29698,
        "rank_sort": 29698,
        "total": 2369
      },
      {
        "club_badge_src": "https://fantasy.premierleague.com/gcs/plfpl-production-adobe-approved/plfpl-production/5967864/b296402d-afc3-4589-85f0-7e5b470f1a1e.png",
        "entry": 5967864,
        "entry_name": "King Zvone",
        "event_total": 67,
        "has_played": true,
        "id": 46956200,
        "last_rank": 41022,
        "player_name": "Zvonimir Sunari\u0107",
        "rank": 29698,
        "rank_sort": 29699,
        "total": 2369
      },
      {
        "club_badge_src": null,
        "entry": 9069255,
        "entry_name": "Declanosaurus",
        "event_total": 66,
        "has_played": true,
        "id": 76150943,
        "last_rank": 30468,
        "player_name": "Declan Anderson",
        "rank": 29700,
        "rank_sort": 29700,
        "total": 2369
      }
    ]
  }
}