{
  "last_updated_data": "2026-05-24T23:28:17Z",
  "league": {
    "admin_entry": null,
    "closed": false,
    "code_privacy": "p",
    "created": "2025-07-20T23:14:33.933835Z",
    "cup_league": 2815434,
    "has_cup": true,
    "id": 314,
    "league_type": "s",
    "max_entries": null,
    "name": "Overall",
    "rank": null,
    "scoring": "c",
    "start_event": 1
  },
  "new_entries": {
    "has_next": false,
    "page": 1,
    "results": []
  },
  "standings": {
    "has_next": true,
    "page": 235,
    "results": [
      {
        "club_badge_src": null,
        "entry": 66754,
        "entry_name": "Everybody Wirtz",
        "event_total": 64,
        "has_played": true,
        "id": 431798,
        "last_rank": 14857,
        "player_name": "Matthew Robinson",
        "rank": 11695,
        "rank_sort": 11701,
        "total": 2394
      },
      {
        "club_badge_src": null,
        "entry": 90420,
        "entry_name": "Heste",
        "event_total": 68,
        "has_played": true,
        "id": 590339,
        "last_rank": 17358,
        "player_name": "Viking Vara",
        "rank": 11695,
        "rank_sort": 11702,
        "total": 2394
      },
      {
        "club_badge_src": null,
        "entry": 91326,
        "entry_name": "SL Tony",
        "event_total": 74,
        "has_played": true,
        "id": 596448,
        "last_rank": 21628,
        "player_name": "Carlos Coelho",
        "rank": 11695,
        "rank_sort": 11703,
        "total": 2394
      },
      {
        "club_badge_src": "https://fantasy.premierleague.com/gcs/plfpl-production-adobe-approved/plfpl-production/98598/641da627-01d2-4ea4-a455-212b3d4a2304.png",
        "entry": 98598,
        "entry_name": "Team H\u00e4st",
        "event_total": 50,
        "has_played": true,
        "id": 643807,
        "last_rank": 8382,
        "player_name": "Aron Lindahl",
        "rank": 11695,
        "rank_sort": 11704,
        "total": 2394
      },
      {
        "club_badge_src": null,
        "entry": 108356,
        "entry_name": "Peaky Reijnders",
        "event_total": 72,
        "has_played": true,
        "id": 706464,
        "last_rank": 20131,
        "player_name": "Ryan .",
        "rank": 11695,
        "rank_sort": 11705,
        "total": 2394
      },
      {
        "club_badge_src": null,
        "entry": 114916,
        "entry_name": "Could be Wirtz",
        "event_total": 47,
        "has_played": true,
        "id": 749790,
        "last_rank": 7375,
        "player_name": "Patrick Phillips",
        "rank": 11695,
        "rank_sort": 11706,
        "total": 2394
      },
      {
        "club_badge_src": "https://fantasy.premierleague.com/gcs/plfpl-production-adobe-approved/plfpl-production/138797/ef8996d2-9937-4039-922e-b07c0f28b655.png",
        "entry": 138797,
        "entry_name": "VAMOS",
        "event_total": 66,
        "has_played": true,
        "id": 905591,
        "last_rank": 16062,
        "player_name": "Dan Woodall",
        "rank": 11695,
        "rank_sort": 11707,
        "total": 2394
      },
      {
        "club_badge_src": null,
        "entry": 151693,
        "entry_name": "Jota 20",
        "event_total": 56,
        "has_played": true,
        "id": 995287,
        "last_rank": 10805,
        "player_name": "Chris Hickey",
        "rank": 11695,
        "rank_sort": 11708,
        "total": 2394
      },
      {
        "club_badge_src": "https://fantasy.premierleague.com/gcs/plfpl-production-adobe-approved/plfpl-production/163641/3df30b92-ee9d-492a-adcd-f25aaa209196.png",
        "entry": 163641,
        "entry_name": "Lallanas in Pyjamas",
        "event_total": 49,
        "has_played": true,
        "id": 1079459,
        "last_rank": 8032,
        "player_name": "Alan Noone",
        "rank": 11695,
        "rank_sort": 11709,
        "total": 2394
      },
      {
        "club_badge_src": null,
        "entry": 202763,
        "entry_name": "Bowen747",
        "event_total": 62,
        "has_played": true,
        "id": 1346670,
        "last_rank": 13754,
        "player_name": "Ariel Melchior",
        "rank": 11695,
        "rank_sort": 11710,
        "total": 2394
      },
      {
        "club_badge_src": "https://fantasy.premierleague.com/gcs/plfpl-production-adobe-approved/plfpl-production/207094/e1d0e2de-2e04-4df6-a9c4-faca7509e77a.png",
        "entry": 207094,
        "entry_name": "Topsy Turvy",
        "event_total": 64,
        "has_played": true,
        "id": 1376449,
        "last_rank": 14857,
        "player_name": "Darren Wong",
        "rank": 11695,
        "rank_sort": 11711,
        "total": 2394
      },
      {
        "club_badge_src": null,
        "entry": 212169,
        "entry_name": "Haugarockers",
        "event_total": 51,
        "has_played": true,
        "id": 1411415,
        "last_rank": 8758,
        "player_name": "Lars Haugen",
        "rank": 11695,
        "rank_sort": 11712,
        "total": 2394
      },
      {
        "club_badge_src": null,
        "entry": 232528,
        "entry_name": "AnfieldForever",
        "event_total": 69,
        "has_played": true,
        "id": 1547071,
        "last_rank": 18029,
        "player_name": "Jerylyn Paajarvi",
        "rank": 11695,
        "rank_sort": 11713,
        "total": 2394
      },
      {
        "club_badge_src": null,
        "entry": 262300,
        "entry_name": "Mee, MatzSels Ndiaye",
        "event_total": 68,
        "has_played": true,
        "id": 1743829,
        "last_rank": 17327,
        "player_name": "Elias \u00d8stn\u00e6s",
        "rank": 11695,
        "rank_sort": 11714,
        "total": 2394
      },
      {
        "club_badge_src": null,
        "entry": 286785,
        "entry_name": "Nargothrond FC",
        "event_total": 83,
        "has_played": true,
        "id": 1910830,
        "last_rank": 29482,
        "player_name": "Dobrivoj Dobo\u017eanov",
        "rank": 11695,
        "rank_sort": 11715,
        "total": 2394
      },
      {
        "club_badge_src": null,
        "entry": 335939,
        "entry_name": "STARZ F. C.",
        "event_total": 61,
        "has_played": true,
        "id": 2249277,
        "last_rank": 13257,
        "player_name": "Sayan Saha",
        "rank": 11695,
        "rank_sort": 11716,
        "total": 2394
      },
      {
        "club_badge_src": null,
        "entry": 363445,
        "entry_name": "Team Kimmern",
        "event_total": 67,
        "has_played": true,
        "id": 2432097,
        "last_rank": 16702,
        "player_name": "Kim Johansen",
        "rank": 11695,
        "rank_sort": 11717,
        "total": 2394
      },
      {
        "club_badge_src": null,
        "entry": 387551,
        "entry_name": "smikat fc",
        "event_total": 70,
        "has_played": true,
        "id": 2599919,
        "last_rank": 18790,
        "player_name": "Ghali Smili",
        "rank": 11695,
        "rank_sort": 11718,
        "total": 2394
      },
      {
        "club_badge_src": null,
        "entry": 475685,
        "entry_name": "Foo Pieghters",
        "event_total": 61,
        "has_played": true,
        "id": 3193285,
        "last_rank": 13184,
        "player_name": "Jon Pratt",
        "rank": 11695,
        "rank_sort": 11719,
        "total": 2394
      },
      {
        "club_badge_src": null,
        "entry": 481469,
        "entry_name": "Like a Rolling Stone",
        "event_total": 52,
        "has_played": true,
        "id": 3232308,
        "last_rank": 7625,
        "player_name": "Dafydd Thomas",
        "rank": 11695,
        "rank_sort": 11720,
        "total": 2394
      },
      {
        "club_badge_src": "https://fantasy.premierleague.com/gcs/plfpl-production-adobe-approved/plfpl-production/492991/6819deb5-2480-4378-b3f4-6763eed2aff2.png",
        "entry": 492991,
        "entry_name": "MasoRah",
        "event_total": 70,
        "has_played": true,
        "id": 3309206,
        "last_rank": 18691,
        "player_name": "Junaid Ebrahim",
        "rank": 11695,
        "rank_sort": 11721,
        "total": 2394
      },
      {
        "club_badge_src": null,
        "entry": 549463,
        "entry_name": "Scheister",
        "event_total": 66,
        "has_played": true,
        "id": 3697760,
        "last_rank": 16163,
        "player_name": "Michael Scheider",
        "rank": 11695,
        "rank_sort": 11722,
        "total": 2394
      },
      {
        "club_badge_src": null,
        "entry": 717988,
        "entry_name": "CherkiTeef",
        "event_total": 56,
        "has_played": true,
        "id": 4872059,
        "last_rank": 10805,
        "player_name": "Matthew Morrison",
        "rank": 11695,
        "rank_sort": 11723,
        "total": 2394
      },
      {
        "club_badge_src": null,
        "entry": 773200,
        "entry_name": "Champione Ol\u00e9Ol\u00e9ol\u00e9",
        "event_total": 45,
        "has_played": true,
        "id": 5275131,
        "last_rank": 6752,
        "player_name": "Tom Gardner",
        "rank": 11695,
        "rank_sort": 11724,
        "total": 2394
      },
      {
        "club_badge_src": null,
        "entry": 782489,
        "entry_name": "Nadderud forest",
        "event_total": 47,
        "has_played": true,
        "id": 5342383,
        "last_rank": 7333,
        "player_name": "Jens Andreas Lindin-Myren",
        "rank": 11695,
        "rank_sort": 11725,
        "total": 2394
      },
      {
        "club_badge_src": null,
        "entry": 795617,
        "entry_name": "Nbdy said it was Eze",
        "event_total": 64,
        "has_played": true,
        "id": 5445070,
        "last_rank": 14926,
        "player_name": "Christian Nyland",
        "rank": 11695,
        "rank_sort": 11726,
        "total": 2394
      },
      {
        "club_badge_src": null,
        "entry": 872296,
        "entry_name": "Pep Fiction",
        "event_total": 59,
        "has_played": true,
        "id": 5980300,
        "last_rank": 12200,
        "player_name": "Pete Hoffman",
        "rank": 11695,
        "rank_sort": 11727,
        "total": 2394
      },
      {
        "club_badge_src": "https://fantasy.premierleague.com/gcs/plfpl-production-adobe-approved/plfpl-production/917833/d52c3fde-1cc5-4970-9ccc-905213f8248b.png",
        "entry": 917833,
        "entry_name": "Streisand's Strikers",
        "event_total": 59,
        "has_played": true,
        "id": 6311724,
        "last_rank": 12141,
        "player_name": "Jacob Brookman",
        "rank": 11695,
        "rank_sort": 11728,
        "total": 2394
      },
      {
        "club_badge_src": null,
        "entry": 921870,
        "entry_name": "Captain \u00d8",
        "event_total": 54,
        "has_played": true,
        "id": 6340089,
        "last_rank": 9853,
        "player_name": "Martin Lien",
        "rank": 11695,
        "rank_sort": 11729,
        "total": 2394
      },
      {
        "club_badge_src": null,
        "entry": 937429,
        "entry_name": "Alba Viktoryes",
        "event_total": 51,
        "has_played": true,
        "id": 6451760,
        "last_rank": 8854,
        "player_name": "Nathan Lowe",
        "rank": 11695,
        "rank_sort": 11730,
        "total": 2394
      },
      {
        "club_badge_src": null,
        "entry": 1033611,
        "entry_name": "Sarr Wars: ROT DJEDI",
        "event_total": 63,
        "has_played": true,
        "id": 7152213,
        "last_rank": 14251,
        "player_name": "Christian Apostoli",
        "rank": 11695,
        "rank_sort": 11731,
        "total": 2394
      },
      {
        "club_badge_src": null,
        "entry": 1069629,
        "entry_name": "PazzaPazzini",
        "event_total": 51,
        "has_played": true,
        "id": 7404923,
        "last_rank": 8758,
        "player_name": "Zlatan Azinovic",
        "rank": 11695,
        "rank_sort": 11732,
        "total": 2394
      },
      {
        "club_badge_src": null,
        "entry": 1309393,
        "entry_name": "We ate all the pies",
        "event_total": 53,
        "has_played": true,
        "id": 9101484,
        "last_rank": 9536,
        "player_name": "Bill Coles",
        "rank": 11695,
        "rank_sort": 11733,
        "total": 2394
      },
      {
        "club_badge_src": null,
        "entry": 1391674,
        "entry_name": "Obi Wan Kenobi Two",
        "event_total": 59,
        "has_played": true,
        "id": 9681703,
        "last_rank": 12109,
        "player_name": "Matt Ford",
        "rank": 11695,
        "rank_sort": 11734,
        "total": 2394
      },
      {
        "club_badge_src": null,
        "entry": 1400665,
        "entry_name": "Wichura Team",
        "event_total": 62,
        "has_played": true,
        "id": 9745444,
        "last_rank": 13821,
        "player_name": "Dario Tybori",
        "rank": 11695,
        "rank_sort": 11735,
        "total": 2394
      },
      {
        "club_badge_src": "https://fantasy.premierleague.com/gcs/plfpl-production-adobe-approved/plfpl-production/1502909/0f1871e2-c69d-49f9-89ae-4d994f128c43.png",
        "entry": 1502909,
        "entry_name": "coyss",
        "event_total": 49,
        "has_played": true,
        "id": 10481312,
        "last_rank": 7959,
        "player_name": "shoji cheung",
        "rank": 11695,
        "rank_sort": 11736,
        "total": 2394
      },
      {
        "club_badge_src": null,
        "entry": 1595715,
        "entry_name": "Look @me Im Sandro T",
        "event_total": 63,
        "has_played": true,
        "id": 11162490,
        "last_rank": 14370,
        "player_name": "Giovanni Valentino",
        "rank": 11695,
        "rank_sort": 11737,
        "total": 2394
      },
      {
        "club_badge_src": null,
        "entry": 1732962,
        "entry_name": "Stones Cold XI",
        "event_total": 49,
        "has_played": true,
        "id": 12155972,
        "last_rank": 8138,
        "player_name": "Krrish Jindal",
        "rank": 11695,
        "rank_sort": 11738,
        "total": 2394
      },
      {
        "club_badge_src": null,
        "entry": 1733888,
        "entry_name": "The One's",
        "event_total": 61,
        "has_played": true,
        "id": 12163094,
        "last_rank": 13184,
        "player_name": "Sunny Sodhi",
        "rank": 11695,
        "rank_sort": 11739,
        "total": 2394
      },
      {
        "club_badge_src": null,
        "entry": 1734445,
        "entry_name": "Hakuna Mateta",
        "event_total": 68,
        "has_played": true,
        "id": 12167132,
        "last_rank": 17358,
        "player_name": "Tiarnan Rogan",
        "rank": 11695,
        "rank_sort": 11740,
        "total": 2394
      },
      {
        "club_badge_src": null,
        "entry": 1815313,
        "entry_name": "To Elland Back \u2b50",
        "event_total": 74,
        "has_played": true,
        "id": 12765327,
        "last_rank": 21628,
        "player_name": "Steph Rowell-Burton",
        "rank": 11695,
        "rank_sort": 11741,
        "total": 2394
      },
      {
        "club_badge_src": "https://fantasy.premierleague.com/gcs/plfpl-production-adobe-approved/plfpl-production/1990369/d8f79386-ed91-4e40-ad68-6d91dc76c0f4.png",
        "entry": 1990369,
        "entry_name": "G dog FC",
        "event_total": 62,
        "has_played": true,
        "id": 14061863,
        "last_rank": 13754,
        "player_name": "Glenn Blackie",
        "rank": 11695,
        "rank_sort": 11742,
        "total": 2394
      },
      {
        "club_badge_src": null,
        "entry": 2103273,
        "entry_name": "Tchouam\u00e9ni Man",
        "event_total": 48,
        "has_played": true,
        "id": 14925626,
        "last_rank": 7761,
        "player_name": "Sofian Jbilou",
        "rank": 11695,
        "rank_sort": 11743,
        "total": 2394
      },
      {
        "club_badge_src": null,
        "entry": 2165236,
        "entry_name": "FC DEE RT",
        "event_total": 53,
        "has_played": true,
        "id": 15392712,
        "last_rank": 9484,
        "player_name": "Rinchen Tshewang",
        "rank": 11695,
        "rank_sort": 11744,
        "total": 2394
      },
      {
        "club_badge_src": null,
        "entry": 2250187,
        "entry_name": "DisUnited 11",
        "event_total": 61,
        "has_played": true,
        "id": 16034113,
        "last_rank": 13184,
        "player_name": "Akhtar Azroy Khan",
        "rank": 11695,
        "rank_sort": 11745,
        "total": 2394
      },
      {
        "club_badge_src": null,
        "entry": 2398685,
        "entry_name": "Barmy Army",
        "event_total": 58,
        "has_played": true,
        "id": 17140225,
        "last_rank": 11642,
        "player_name": "Shahan Ahmed 123",
        "rank": 11695,
        "rank_sort": 11746,
        "total": 2394
      },
      {
        "club_badge_src": null,
        "entry": 2460378,
        "entry_name": "Wirtz Nation",
        "event_total": 57,
        "has_played": true,
        "id": 17598837,
        "last_rank": 11237,
        "player_name": "Victor Somoye",
        "rank": 11695,
        "rank_sort": 11747,
        "total": 2394
      },
      {
        "club_badge_src": null,
        "entry": 2491005,
        "entry_name": "Tino's Troops",
        "event_total": 61,
        "has_played": true,
        "id": 17833081,
        "last_rank": 13184,
        "player_name": "Cossie Markou",
        "rank": 11695,
        "rank_sort": 11748,
        "total": 2394
      },
      {
        "club_badge_src": null,
        "entry": 2604669,
        "entry_name": "Labubu",
        "event_total": 49,
        "has_played": true,
        "id": 18709546,
        "last_rank": 7979,
        "player_name": "Salma ParallueLOL",
        "rank": 11695,
        "rank_sort": 11749,
        "total": 2394
      },
      {
        "club_badge_src": null,
        "entry": 2703759,
        "entry_name": "cold farmer",
        "event_total": 65,
        "has_played": true,
        "id": 19451152,
        "last_rank": 15416,
        "player_name": "Max Farmer",
        "rank": 11695,
        "rank_sort": 11750,
        "total": 2394
      }
    ]
  }
}