{
  "last_updated_data": "2026-05-24T23:28:17Z",
  "league": {
    "admin_entry": null,
    "closed": false,
    "code_privacy": "p",
    "created": "2025-07-20T23:14:33.933835Z",
    "cup_league": 2815434,
    "has_cup": true,
    "id": 314,
    "league_type": "s",
    "max_entries": null,
    "name": "Overall",
    "rank": null,
    "scoring": "c",
    "start_event": 1
  },
  "new_entries": {
    "has_next": false,
    "page": 1,
    "results": []
  },
  "standings": {
    "has_next": true,
    "page": 1121,
    "results": [
      {
        "club_badge_src": null,
        "entry": 185361,
        "entry_name": "YamateH-i",
        "event_total": 61,
        "has_played": true,
        "id": 1224407,
        "last_rank": 63117,
        "player_name": "panuwat luengsomjai",
        "rank": 55963,
        "rank_sort": 56001,
        "total": 2348
      },
      {
        "club_badge_src": null,
        "entry": 190259,
        "entry_name": "ErityinenYksi",
        "event_total": 54,
        "has_played": true,
        "id": 1259795,
        "last_rank": 51984,
        "player_name": "atte kulmala",
        "rank": 55963,
        "rank_sort": 56002,
        "total": 2348
      },
      {
        "club_badge_src": null,
        "entry": 194882,
        "entry_name": "Sam's Sheep",
        "event_total": 55,
        "has_played": true,
        "id": 1292146,
        "last_rank": 53345,
        "player_name": "Sam Jones",
        "rank": 55963,
        "rank_sort": 56003,
        "total": 2348
      },
      {
        "club_badge_src": null,
        "entry": 196008,
        "entry_name": "ChickenTikkaMoSalah",
        "event_total": 51,
        "has_played": true,
        "id": 1300060,
        "last_rank": 47163,
        "player_name": "Jake Good",
        "rank": 55963,
        "rank_sort": 56004,
        "total": 2348
      },
      {
        "club_badge_src": null,
        "entry": 200902,
        "entry_name": "Pain in Dias",
        "event_total": 62,
        "has_played": true,
        "id": 1333931,
        "last_rank": 58071,
        "player_name": "Karl Teasdale",
        "rank": 55963,
        "rank_sort": 56005,
        "total": 2348
      },
      {
        "club_badge_src": null,
        "entry": 218007,
        "entry_name": "For Beto or Wirtz",
        "event_total": 52,
        "has_played": true,
        "id": 1449741,
        "last_rank": 42506,
        "player_name": "Cat Gladstone",
        "rank": 55963,
        "rank_sort": 56006,
        "total": 2348
      },
      {
        "club_badge_src": "https://fantasy.premierleague.com/gcs/plfpl-production-adobe-approved/plfpl-production/222364/1c5b4609-ae65-49e1-8264-b1c9088dbced.png",
        "entry": 222364,
        "entry_name": "Loum Tchaouna melt",
        "event_total": 61,
        "has_played": true,
        "id": 1479060,
        "last_rank": 63724,
        "player_name": "Lucas Glanville",
        "rank": 55963,
        "rank_sort": 56007,
        "total": 2348
      },
      {
        "club_badge_src": null,
        "entry": 223926,
        "entry_name": "Endo the Line",
        "event_total": 65,
        "has_played": true,
        "id": 1489553,
        "last_rank": 70757,
        "player_name": "Zachary Christian",
        "rank": 55963,
        "rank_sort": 56008,
        "total": 2348
      },
      {
        "club_badge_src": "https://fantasy.premierleague.com/gcs/plfpl-production-adobe-approved/plfpl-production/235282/3756d1e1-9a08-479f-b96a-4875b8163fab.png",
        "entry": 235282,
        "entry_name": "ZSC",
        "event_total": 54,
        "has_played": true,
        "id": 1565544,
        "last_rank": 45416,
        "player_name": "Baraa Akram",
        "rank": 55963,
        "rank_sort": 56009,
        "total": 2348
      },
      {
        "club_badge_src": null,
        "entry": 251134,
        "entry_name": "abdulmajeed000",
        "event_total": 55,
        "has_played": true,
        "id": 1670771,
        "last_rank": 53345,
        "player_name": "Abdulmajeed 000",
        "rank": 55963,
        "rank_sort": 56010,
        "total": 2348
      },
      {
        "club_badge_src": null,
        "entry": 258070,
        "entry_name": "Dean Machines",
        "event_total": 58,
        "has_played": true,
        "id": 1716079,
        "last_rank": 58388,
        "player_name": "Matt Dean",
        "rank": 55963,
        "rank_sort": 56011,
        "total": 2348
      },
      {
        "club_badge_src": null,
        "entry": 258643,
        "entry_name": "MK21845",
        "event_total": 67,
        "has_played": true,
        "id": 1719780,
        "last_rank": 75537,
        "player_name": "Mark Gaylor",
        "rank": 55963,
        "rank_sort": 56012,
        "total": 2348
      },
      {
        "club_badge_src": "https://fantasy.premierleague.com/gcs/plfpl-production-adobe-approved/plfpl-production/262977/01be9dee-be0e-4c4d-92b3-16e8b05eb1b7.png",
        "entry": 262977,
        "entry_name": "Gangsta's Allardyce",
        "event_total": 64,
        "has_played": true,
        "id": 1748447,
        "last_rank": 69323,
        "player_name": "Danyaal Amjad",
        "rank": 55963,
        "rank_sort": 56013,
        "total": 2348
      },
      {
        "club_badge_src": null,
        "entry": 270777,
        "entry_name": "TopTapTeam",
        "event_total": 60,
        "has_played": true,
        "id": 1801397,
        "last_rank": 61606,
        "player_name": "Teerachai Worrawejwisarn",
        "rank": 55963,
        "rank_sort": 56014,
        "total": 2348
      },
      {
        "club_badge_src": null,
        "entry": 281347,
        "entry_name": "el golden boy",
        "event_total": 35,
        "has_played": true,
        "id": 1872245,
        "last_rank": 27976,
        "player_name": "7oms shanp",
        "rank": 55963,
        "rank_sort": 56015,
        "total": 2348
      },
      {
        "club_badge_src": null,
        "entry": 292959,
        "entry_name": "Bruno Dos Tres",
        "event_total": 58,
        "has_played": true,
        "id": 1955223,
        "last_rank": 58071,
        "player_name": "Connor Green",
        "rank": 55963,
        "rank_sort": 56016,
        "total": 2348
      },
      {
        "club_badge_src": null,
        "entry": 296241,
        "entry_name": "bowen747",
        "event_total": 65,
        "has_played": true,
        "id": 1979204,
        "last_rank": 63201,
        "player_name": "Mark Gauci",
        "rank": 55963,
        "rank_sort": 56017,
        "total": 2348
      },
      {
        "club_badge_src": null,
        "entry": 306023,
        "entry_name": "AC DON",
        "event_total": 59,
        "has_played": true,
        "id": 2049424,
        "last_rank": 59632,
        "player_name": "Andreas Thome",
        "rank": 55963,
        "rank_sort": 56018,
        "total": 2348
      },
      {
        "club_badge_src": null,
        "entry": 361496,
        "entry_name": "salah",
        "event_total": 57,
        "has_played": true,
        "id": 2418828,
        "last_rank": 56708,
        "player_name": "salah chellouf",
        "rank": 55963,
        "rank_sort": 56019,
        "total": 2348
      },
      {
        "club_badge_src": null,
        "entry": 362325,
        "entry_name": "Faisal kaka",
        "event_total": 46,
        "has_played": true,
        "id": 2424343,
        "last_rank": 35166,
        "player_name": "Faisal kaka",
        "rank": 55963,
        "rank_sort": 56020,
        "total": 2348
      },
      {
        "club_badge_src": null,
        "entry": 369264,
        "entry_name": "The Special One",
        "event_total": 60,
        "has_played": true,
        "id": 2470965,
        "last_rank": 61950,
        "player_name": "Mehran G",
        "rank": 55963,
        "rank_sort": 56021,
        "total": 2348
      },
      {
        "club_badge_src": null,
        "entry": 400366,
        "entry_name": "UC Till I Die",
        "event_total": 61,
        "has_played": true,
        "id": 2684791,
        "last_rank": 63724,
        "player_name": "Rahul Seta",
        "rank": 55963,
        "rank_sort": 56022,
        "total": 2348
      },
      {
        "club_badge_src": null,
        "entry": 401988,
        "entry_name": "Velominati",
        "event_total": 64,
        "has_played": true,
        "id": 2695459,
        "last_rank": 69323,
        "player_name": "Milos Gajic",
        "rank": 55963,
        "rank_sort": 56023,
        "total": 2348
      },
      {
        "club_badge_src": null,
        "entry": 418055,
        "entry_name": "Restored",
        "event_total": 65,
        "has_played": true,
        "id": 2802219,
        "last_rank": 70985,
        "player_name": "Dean Kennedy",
        "rank": 55963,
        "rank_sort": 56024,
        "total": 2348
      },
      {
        "club_badge_src": null,
        "entry": 419617,
        "entry_name": "\u00d8MG I won too!",
        "event_total": 62,
        "has_played": true,
        "id": 2812370,
        "last_rank": 65163,
        "player_name": "John McWilliams Age: 77",
        "rank": 55963,
        "rank_sort": 56025,
        "total": 2348
      },
      {
        "club_badge_src": null,
        "entry": 463123,
        "entry_name": "Tekkerslovakia",
        "event_total": 52,
        "has_played": true,
        "id": 3106552,
        "last_rank": 42506,
        "player_name": "Bradley Hambleton",
        "rank": 55963,
        "rank_sort": 56026,
        "total": 2348
      },
      {
        "club_badge_src": null,
        "entry": 501333,
        "entry_name": "Waste Bin",
        "event_total": 61,
        "has_played": true,
        "id": 3364410,
        "last_rank": 63724,
        "player_name": "Andrius Kuprusevicius",
        "rank": 55963,
        "rank_sort": 56027,
        "total": 2348
      },
      {
        "club_badge_src": null,
        "entry": 504528,
        "entry_name": "Aina Seen Nothin Yet",
        "event_total": 59,
        "has_played": true,
        "id": 3386583,
        "last_rank": 60168,
        "player_name": "Chris Smith",
        "rank": 55963,
        "rank_sort": 56028,
        "total": 2348
      },
      {
        "club_badge_src": "https://fantasy.premierleague.com/gcs/plfpl-production-adobe-approved/plfpl-production/524368/e226c9ee-6be0-41b9-94eb-69d70a2fe2b5.png",
        "entry": 524368,
        "entry_name": "OATSONG FC",
        "event_total": 69,
        "has_played": true,
        "id": 3522898,
        "last_rank": 79431,
        "player_name": "Songyot Kobkiatkawin",
        "rank": 55963,
        "rank_sort": 56029,
        "total": 2348
      },
      {
        "club_badge_src": null,
        "entry": 535205,
        "entry_name": "\u00d8de to joy",
        "event_total": 54,
        "has_played": true,
        "id": 3602208,
        "last_rank": 51720,
        "player_name": "Kalvin Rojwattanakul",
        "rank": 55963,
        "rank_sort": 56030,
        "total": 2348
      },
      {
        "club_badge_src": null,
        "entry": 540552,
        "entry_name": "Villa Cross Clarets",
        "event_total": 64,
        "has_played": true,
        "id": 3638330,
        "last_rank": 69323,
        "player_name": "Anwer Shah",
        "rank": 55963,
        "rank_sort": 56031,
        "total": 2348
      },
      {
        "club_badge_src": null,
        "entry": 545308,
        "entry_name": "Kheengz FC",
        "event_total": 52,
        "has_played": true,
        "id": 3669936,
        "last_rank": 48898,
        "player_name": "Kingsley Chinaka",
        "rank": 55963,
        "rank_sort": 56032,
        "total": 2348
      },
      {
        "club_badge_src": "https://fantasy.premierleague.com/gcs/plfpl-production-adobe-approved/plfpl-production/545709/8b9f92ea-c207-42d8-995d-db1d749025d3.png",
        "entry": 545709,
        "entry_name": "NothingWirtzThanVAR",
        "event_total": 60,
        "has_played": true,
        "id": 3672625,
        "last_rank": 61950,
        "player_name": "Mike Saloway",
        "rank": 55963,
        "rank_sort": 56033,
        "total": 2348
      },
      {
        "club_badge_src": null,
        "entry": 566884,
        "entry_name": "L'\u00c9quipe5",
        "event_total": 42,
        "has_played": true,
        "id": 3815438,
        "last_rank": 34969,
        "player_name": "Joshua Raphael",
        "rank": 55963,
        "rank_sort": 56034,
        "total": 2348
      },
      {
        "club_badge_src": null,
        "entry": 600051,
        "entry_name": "Flick it n Kick it",
        "event_total": 65,
        "has_played": true,
        "id": 4048222,
        "last_rank": 70985,
        "player_name": "Simon Andersson",
        "rank": 55963,
        "rank_sort": 56035,
        "total": 2348
      },
      {
        "club_badge_src": null,
        "entry": 653551,
        "entry_name": "Seales Aces",
        "event_total": 66,
        "has_played": true,
        "id": 4416696,
        "last_rank": 73423,
        "player_name": "Andy Seale",
        "rank": 55963,
        "rank_sort": 56036,
        "total": 2348
      },
      {
        "club_badge_src": "https://fantasy.premierleague.com/gcs/plfpl-production-adobe-approved/plfpl-production/660989/390ea46d-0d24-4c24-bc24-bda5a677e718.png",
        "entry": 660989,
        "entry_name": "vexole",
        "event_total": 58,
        "has_played": true,
        "id": 4467302,
        "last_rank": 58388,
        "player_name": "Bhupesh Shrestha",
        "rank": 55963,
        "rank_sort": 56037,
        "total": 2348
      },
      {
        "club_badge_src": null,
        "entry": 691704,
        "entry_name": "Sheddsys Whales",
        "event_total": 62,
        "has_played": true,
        "id": 4684248,
        "last_rank": 65475,
        "player_name": "Callum Grieve",
        "rank": 55963,
        "rank_sort": 56038,
        "total": 2348
      },
      {
        "club_badge_src": null,
        "entry": 697342,
        "entry_name": "ObiWanTonoli",
        "event_total": 50,
        "has_played": true,
        "id": 4723581,
        "last_rank": 40036,
        "player_name": "Richard Bradshaw",
        "rank": 55963,
        "rank_sort": 56039,
        "total": 2348
      },
      {
        "club_badge_src": null,
        "entry": 716051,
        "entry_name": "The Jollof Giants",
        "event_total": 62,
        "has_played": true,
        "id": 4858284,
        "last_rank": 64943,
        "player_name": "Jon Croft",
        "rank": 55963,
        "rank_sort": 56040,
        "total": 2348
      },
      {
        "club_badge_src": "https://fantasy.premierleague.com/gcs/plfpl-production-adobe-approved/plfpl-production/718295/a3dedd7d-80a6-4dde-aeaf-422f5e9d3f4b.png",
        "entry": 718295,
        "entry_name": "Waynes Warriors",
        "event_total": 68,
        "has_played": true,
        "id": 4874377,
        "last_rank": 77676,
        "player_name": "Shane Brooks",
        "rank": 55963,
        "rank_sort": 56041,
        "total": 2348
      },
      {
        "club_badge_src": null,
        "entry": 733325,
        "entry_name": "AC Hurricane",
        "event_total": 36,
        "has_played": true,
        "id": 4983417,
        "last_rank": 28906,
        "player_name": "P\u00e4r Kleivard",
        "rank": 55963,
        "rank_sort": 56042,
        "total": 2348
      },
      {
        "club_badge_src": null,
        "entry": 734994,
        "entry_name": "Sandford Thatchers",
        "event_total": 39,
        "has_played": true,
        "id": 4995831,
        "last_rank": 27770,
        "player_name": "James Taylor",
        "rank": 55963,
        "rank_sort": 56043,
        "total": 2348
      },
      {
        "club_badge_src": null,
        "entry": 744441,
        "entry_name": "Yes, Ndidi",
        "event_total": 43,
        "has_played": true,
        "id": 5064056,
        "last_rank": 36348,
        "player_name": "Peter Mackintosh",
        "rank": 55963,
        "rank_sort": 56044,
        "total": 2348
      },
      {
        "club_badge_src": null,
        "entry": 772743,
        "entry_name": "De Bruyne Identity",
        "event_total": 55,
        "has_played": true,
        "id": 5271851,
        "last_rank": 53023,
        "player_name": "Sam Young",
        "rank": 55963,
        "rank_sort": 56045,
        "total": 2348
      },
      {
        "club_badge_src": null,
        "entry": 783695,
        "entry_name": "Ekitik\u00e9 Me Elmo",
        "event_total": 75,
        "has_played": true,
        "id": 5352461,
        "last_rank": 93883,
        "player_name": "Manisha Meisuria",
        "rank": 55963,
        "rank_sort": 56046,
        "total": 2348
      },
      {
        "club_badge_src": null,
        "entry": 798908,
        "entry_name": "JRoy's Boys",
        "event_total": 46,
        "has_played": true,
        "id": 5468224,
        "last_rank": 40297,
        "player_name": "Joshua Royan",
        "rank": 55963,
        "rank_sort": 56047,
        "total": 2348
      },
      {
        "club_badge_src": null,
        "entry": 802747,
        "entry_name": "Colomboys",
        "event_total": 43,
        "has_played": true,
        "id": 5495041,
        "last_rank": 36831,
        "player_name": "Joshua Roberts",
        "rank": 55963,
        "rank_sort": 56048,
        "total": 2348
      },
      {
        "club_badge_src": null,
        "entry": 809293,
        "entry_name": "Wirtz my Chuddies",
        "event_total": 49,
        "has_played": true,
        "id": 5540831,
        "last_rank": 44303,
        "player_name": "Hamish Patel",
        "rank": 55963,
        "rank_sort": 56049,
        "total": 2348
      },
      {
        "club_badge_src": null,
        "entry": 841746,
        "entry_name": "Proper Lads FC",
        "event_total": 61,
        "has_played": true,
        "id": 5767409,
        "last_rank": 63201,
        "player_name": "Tyler Iosue",
        "rank": 55963,
        "rank_sort": 56050,
        "total": 2348
      }
    ]
  }
}