{
  "last_updated_data": "2026-05-24T23:28:17Z",
  "league": {
    "admin_entry": null,
    "closed": false,
    "code_privacy": "p",
    "created": "2025-07-20T23:14:33.933835Z",
    "cup_league": 2815434,
    "has_cup": true,
    "id": 314,
    "league_type": "s",
    "max_entries": null,
    "name": "Overall",
    "rank": null,
    "scoring": "c",
    "start_event": 1
  },
  "new_entries": {
    "has_next": false,
    "page": 1,
    "results": []
  },
  "standings": {
    "has_next": true,
    "page": 1196,
    "results": [
      {
        "club_badge_src": null,
        "entry": 4508849,
        "entry_name": "rakan khu",
        "event_total": 57,
        "has_played": true,
        "id": 34379274,
        "last_rank": 60462,
        "player_name": "Rakan Khu",
        "rank": 59580,
        "rank_sort": 59751,
        "total": 2346
      },
      {
        "club_badge_src": null,
        "entry": 4533271,
        "entry_name": "Cheaque FC",
        "event_total": 60,
        "has_played": true,
        "id": 34580324,
        "last_rank": 58388,
        "player_name": "Robbert Bruin",
        "rank": 59580,
        "rank_sort": 59752,
        "total": 2346
      },
      {
        "club_badge_src": null,
        "entry": 4578611,
        "entry_name": "here comes 04",
        "event_total": 75,
        "has_played": true,
        "id": 34950810,
        "last_rank": 88594,
        "player_name": "Tin Tinko",
        "rank": 59580,
        "rank_sort": 59753,
        "total": 2346
      },
      {
        "club_badge_src": null,
        "entry": 4653192,
        "entry_name": "Sammadet",
        "event_total": 65,
        "has_played": true,
        "id": 35603749,
        "last_rank": 75874,
        "player_name": "David Skjerstad Rendulich",
        "rank": 59580,
        "rank_sort": 59754,
        "total": 2346
      },
      {
        "club_badge_src": null,
        "entry": 4678519,
        "entry_name": "Vicario of Dibley",
        "event_total": 63,
        "has_played": true,
        "id": 35844307,
        "last_rank": 71713,
        "player_name": "Stuart Heslegrave",
        "rank": 59580,
        "rank_sort": 59755,
        "total": 2346
      },
      {
        "club_badge_src": null,
        "entry": 4683390,
        "entry_name": "Rafferty's Rejects",
        "event_total": 50,
        "has_played": true,
        "id": 35889039,
        "last_rank": 48898,
        "player_name": "Niall Rafferty",
        "rank": 59580,
        "rank_sort": 59756,
        "total": 2346
      },
      {
        "club_badge_src": null,
        "entry": 4768405,
        "entry_name": "Glory man utd",
        "event_total": 60,
        "has_played": true,
        "id": 36699901,
        "last_rank": 66057,
        "player_name": "osama Alharbi",
        "rank": 59580,
        "rank_sort": 59757,
        "total": 2346
      },
      {
        "club_badge_src": null,
        "entry": 4798798,
        "entry_name": "AMOIS FC",
        "event_total": 66,
        "has_played": true,
        "id": 36947354,
        "last_rank": 77999,
        "player_name": "Afiq Ikram",
        "rank": 59580,
        "rank_sort": 59758,
        "total": 2346
      },
      {
        "club_badge_src": null,
        "entry": 4805136,
        "entry_name": "Tuscany Dream",
        "event_total": 68,
        "has_played": true,
        "id": 36997849,
        "last_rank": 82398,
        "player_name": "Newbie ibbe",
        "rank": 59580,
        "rank_sort": 59759,
        "total": 2346
      },
      {
        "club_badge_src": null,
        "entry": 4861665,
        "entry_name": "Deepak",
        "event_total": 60,
        "has_played": true,
        "id": 37465967,
        "last_rank": 58071,
        "player_name": "Deepak Nandu",
        "rank": 59580,
        "rank_sort": 59760,
        "total": 2346
      },
      {
        "club_badge_src": null,
        "entry": 4867358,
        "entry_name": "FC Utrecht",
        "event_total": 53,
        "has_played": true,
        "id": 37515281,
        "last_rank": 47163,
        "player_name": "Neil MacKay",
        "rank": 59580,
        "rank_sort": 59761,
        "total": 2346
      },
      {
        "club_badge_src": null,
        "entry": 4889690,
        "entry_name": "Spectrum Spectre",
        "event_total": 42,
        "has_played": true,
        "id": 37699285,
        "last_rank": 38016,
        "player_name": "Seyi Sola",
        "rank": 59580,
        "rank_sort": 59762,
        "total": 2346
      },
      {
        "club_badge_src": null,
        "entry": 4913373,
        "entry_name": "John Gomp",
        "event_total": 53,
        "has_played": true,
        "id": 37892373,
        "last_rank": 53621,
        "player_name": "Goncalo Lobato",
        "rank": 59580,
        "rank_sort": 59763,
        "total": 2346
      },
      {
        "club_badge_src": null,
        "entry": 4975134,
        "entry_name": "Dani's Daggoes",
        "event_total": 59,
        "has_played": true,
        "id": 38402820,
        "last_rank": 56708,
        "player_name": "Daniel Bruinvels",
        "rank": 59580,
        "rank_sort": 59764,
        "total": 2346
      },
      {
        "club_badge_src": null,
        "entry": 4986830,
        "entry_name": "Red 7emption",
        "event_total": 65,
        "has_played": true,
        "id": 38498510,
        "last_rank": 75537,
        "player_name": "Meer Shah",
        "rank": 59580,
        "rank_sort": 59765,
        "total": 2346
      },
      {
        "club_badge_src": null,
        "entry": 4989786,
        "entry_name": "20 years of Arsenal",
        "event_total": 59,
        "has_played": true,
        "id": 38522272,
        "last_rank": 63724,
        "player_name": "**^^^^Abhinav Pratik",
        "rank": 59580,
        "rank_sort": 59766,
        "total": 2346
      },
      {
        "club_badge_src": null,
        "entry": 5049117,
        "entry_name": "Snapper",
        "event_total": 65,
        "has_played": true,
        "id": 39010271,
        "last_rank": 75537,
        "player_name": "Harry Wentworth",
        "rank": 59580,
        "rank_sort": 59767,
        "total": 2346
      },
      {
        "club_badge_src": "https://fantasy.premierleague.com/gcs/plfpl-production-adobe-approved/plfpl-production/5291701/d11a8b68-5ea8-4fae-aceb-7ae0254b434e.png",
        "entry": 5291701,
        "entry_name": "Devenny Maybe",
        "event_total": 52,
        "has_played": true,
        "id": 41017884,
        "last_rank": 51403,
        "player_name": "Neal Cantle",
        "rank": 59580,
        "rank_sort": 59768,
        "total": 2346
      },
      {
        "club_badge_src": null,
        "entry": 5298830,
        "entry_name": "Box-Divers",
        "event_total": 64,
        "has_played": true,
        "id": 41073906,
        "last_rank": 73720,
        "player_name": "Max Snow",
        "rank": 59580,
        "rank_sort": 59769,
        "total": 2346
      },
      {
        "club_badge_src": null,
        "entry": 5390422,
        "entry_name": "EmptyHead27",
        "event_total": 57,
        "has_played": true,
        "id": 41907271,
        "last_rank": 60168,
        "player_name": "Anton Levinson",
        "rank": 59580,
        "rank_sort": 59770,
        "total": 2346
      },
      {
        "club_badge_src": null,
        "entry": 5428027,
        "entry_name": "Bache Cunha",
        "event_total": 58,
        "has_played": true,
        "id": 42220229,
        "last_rank": 62223,
        "player_name": "Soheil Mardani",
        "rank": 59580,
        "rank_sort": 59771,
        "total": 2346
      },
      {
        "club_badge_src": null,
        "entry": 5472202,
        "entry_name": "AFC McBless",
        "event_total": 61,
        "has_played": true,
        "id": 42596968,
        "last_rank": 67695,
        "player_name": "Dom McLoughlin",
        "rank": 59580,
        "rank_sort": 59772,
        "total": 2346
      },
      {
        "club_badge_src": null,
        "entry": 5478942,
        "entry_name": "Dub Nation",
        "event_total": 76,
        "has_played": true,
        "id": 42656025,
        "last_rank": 101818,
        "player_name": "Youssef Mansour",
        "rank": 59580,
        "rank_sort": 59773,
        "total": 2346
      },
      {
        "club_badge_src": null,
        "entry": 5496019,
        "entry_name": "Mouse Bite",
        "event_total": 61,
        "has_played": true,
        "id": 42812982,
        "last_rank": 67695,
        "player_name": "Kal Jhita",
        "rank": 59580,
        "rank_sort": 59774,
        "total": 2346
      },
      {
        "club_badge_src": null,
        "entry": 5922520,
        "entry_name": "MeSSi",
        "event_total": 86,
        "has_played": true,
        "id": 46552099,
        "last_rank": 130957,
        "player_name": "\u0627\u0628\u0648 \u0627\u0644\u0633\u0648\u062a --",
        "rank": 59580,
        "rank_sort": 59775,
        "total": 2346
      },
      {
        "club_badge_src": "https://fantasy.premierleague.com/gcs/plfpl-production-adobe-approved/plfpl-production/5943343/e85cfc9a-9a48-46a7-a836-5395182399c6.png",
        "entry": 5943343,
        "entry_name": "NotMikeDeanForever",
        "event_total": 68,
        "has_played": true,
        "id": 46738966,
        "last_rank": 82069,
        "player_name": "Elis Roberts",
        "rank": 59580,
        "rank_sort": 59776,
        "total": 2346
      },
      {
        "club_badge_src": null,
        "entry": 5981335,
        "entry_name": "TEAM BZ",
        "event_total": 72,
        "has_played": true,
        "id": 47098942,
        "last_rank": 82069,
        "player_name": "Oussama Chakkaf",
        "rank": 59580,
        "rank_sort": 59777,
        "total": 2346
      },
      {
        "club_badge_src": null,
        "entry": 6100861,
        "entry_name": "not got a Kalou",
        "event_total": 62,
        "has_played": true,
        "id": 48183244,
        "last_rank": 69323,
        "player_name": "David Woodgate",
        "rank": 59580,
        "rank_sort": 59778,
        "total": 2346
      },
      {
        "club_badge_src": null,
        "entry": 6251770,
        "entry_name": "Weirdo Beardo",
        "event_total": 58,
        "has_played": true,
        "id": 49490114,
        "last_rank": 54667,
        "player_name": "Chris jacques",
        "rank": 59580,
        "rank_sort": 59779,
        "total": 2346
      },
      {
        "club_badge_src": null,
        "entry": 6284722,
        "entry_name": "Frank Engine Cho Cho",
        "event_total": 44,
        "has_played": true,
        "id": 49781579,
        "last_rank": 40503,
        "player_name": "dean fisher",
        "rank": 59580,
        "rank_sort": 59780,
        "total": 2346
      },
      {
        "club_badge_src": "https://fantasy.premierleague.com/gcs/plfpl-production-adobe-approved/plfpl-production/6327588/8160dec0-b081-421b-ae0d-707c31b38076.png",
        "entry": 6327588,
        "entry_name": "JFC",
        "event_total": 67,
        "has_played": true,
        "id": 50274331,
        "last_rank": 71386,
        "player_name": "Joe H",
        "rank": 59580,
        "rank_sort": 59781,
        "total": 2346
      },
      {
        "club_badge_src": null,
        "entry": 6364987,
        "entry_name": "Slot Machine FC",
        "event_total": 64,
        "has_played": true,
        "id": 50611112,
        "last_rank": 73423,
        "player_name": "Hidde van Schriek",
        "rank": 59580,
        "rank_sort": 59782,
        "total": 2346
      },
      {
        "club_badge_src": "https://fantasy.premierleague.com/gcs/plfpl-production-adobe-approved/plfpl-production/6398417/db3b6892-7eea-44d6-8be8-2a8e70ebb738.png",
        "entry": 6398417,
        "entry_name": "Dorfmerkington",
        "event_total": 50,
        "has_played": true,
        "id": 50906001,
        "last_rank": 49078,
        "player_name": "Matthew Warshaw",
        "rank": 59580,
        "rank_sort": 59783,
        "total": 2346
      },
      {
        "club_badge_src": null,
        "entry": 6405969,
        "entry_name": "michealking",
        "event_total": 53,
        "has_played": true,
        "id": 50972158,
        "last_rank": 53345,
        "player_name": "Micheal king",
        "rank": 59580,
        "rank_sort": 59784,
        "total": 2346
      },
      {
        "club_badge_src": null,
        "entry": 6436632,
        "entry_name": "Scout Regiment XI",
        "event_total": 86,
        "has_played": true,
        "id": 51243288,
        "last_rank": 130957,
        "player_name": "Fenil Gandhi",
        "rank": 59580,
        "rank_sort": 59785,
        "total": 2346
      },
      {
        "club_badge_src": null,
        "entry": 6558047,
        "entry_name": "Shamina Belgium",
        "event_total": 54,
        "has_played": true,
        "id": 52338423,
        "last_rank": 55311,
        "player_name": "Tom Wood",
        "rank": 59580,
        "rank_sort": 59786,
        "total": 2346
      },
      {
        "club_badge_src": null,
        "entry": 6573110,
        "entry_name": "Ks \u0141ab\u0119d\u017a",
        "event_total": 60,
        "has_played": true,
        "id": 52475758,
        "last_rank": 65163,
        "player_name": "Konrad Korczy\u0144ski",
        "rank": 59580,
        "rank_sort": 59787,
        "total": 2346
      },
      {
        "club_badge_src": null,
        "entry": 6650483,
        "entry_name": "Los Blankos",
        "event_total": 56,
        "has_played": true,
        "id": 53166500,
        "last_rank": 58388,
        "player_name": "Hussein Mukhles",
        "rank": 59580,
        "rank_sort": 59788,
        "total": 2346
      },
      {
        "club_badge_src": null,
        "entry": 6823633,
        "entry_name": "Garston Pool Techno",
        "event_total": 61,
        "has_played": true,
        "id": 54655078,
        "last_rank": 67695,
        "player_name": "Graham McDonald",
        "rank": 59580,
        "rank_sort": 59789,
        "total": 2346
      },
      {
        "club_badge_src": null,
        "entry": 7076698,
        "entry_name": "Game of throw-ins",
        "event_total": 70,
        "has_played": true,
        "id": 56952507,
        "last_rank": 87074,
        "player_name": "Declan Conroy",
        "rank": 59580,
        "rank_sort": 59790,
        "total": 2346
      },
      {
        "club_badge_src": null,
        "entry": 7165526,
        "entry_name": "You're all Toast!",
        "event_total": 66,
        "has_played": true,
        "id": 57810792,
        "last_rank": 77676,
        "player_name": "Matt Clegg",
        "rank": 59580,
        "rank_sort": 59791,
        "total": 2346
      },
      {
        "club_badge_src": "https://fantasy.premierleague.com/gcs/plfpl-production-adobe-approved/plfpl-production/7334336/4546336d-f50e-4620-94c4-ca8fd6896e38.png",
        "entry": 7334336,
        "entry_name": "Sheikh Jassim",
        "event_total": 62,
        "has_played": true,
        "id": 59398803,
        "last_rank": 61950,
        "player_name": "Jackson Mandart",
        "rank": 59580,
        "rank_sort": 59792,
        "total": 2346
      },
      {
        "club_badge_src": "https://fantasy.premierleague.com/gcs/plfpl-production-adobe-approved/plfpl-production/7343541/aed6b528-e921-4d8e-97a9-0be0b508e8fa.png",
        "entry": 7343541,
        "entry_name": "pot\u0119ga",
        "event_total": 64,
        "has_played": true,
        "id": 59485077,
        "last_rank": 73423,
        "player_name": "Marcel Ch\u0142opek",
        "rank": 59580,
        "rank_sort": 59793,
        "total": 2346
      },
      {
        "club_badge_src": null,
        "entry": 7572990,
        "entry_name": "filed.com",
        "event_total": 72,
        "has_played": true,
        "id": 62019695,
        "last_rank": 82069,
        "player_name": "Ravi Ambasana",
        "rank": 59580,
        "rank_sort": 59794,
        "total": 2346
      },
      {
        "club_badge_src": null,
        "entry": 7686300,
        "entry_name": "Bebes",
        "event_total": 51,
        "has_played": true,
        "id": 63048063,
        "last_rank": 50468,
        "player_name": "Julie Tran",
        "rank": 59580,
        "rank_sort": 59795,
        "total": 2346
      },
      {
        "club_badge_src": null,
        "entry": 7711150,
        "entry_name": "MaedaFoolOfYous",
        "event_total": 53,
        "has_played": true,
        "id": 63270763,
        "last_rank": 53345,
        "player_name": "Jordan Turnbull",
        "rank": 59580,
        "rank_sort": 59796,
        "total": 2346
      },
      {
        "club_badge_src": null,
        "entry": 7720946,
        "entry_name": "inez nade 68",
        "event_total": 50,
        "has_played": true,
        "id": 63359674,
        "last_rank": 48898,
        "player_name": "inez nade",
        "rank": 59580,
        "rank_sort": 59797,
        "total": 2346
      },
      {
        "club_badge_src": null,
        "entry": 7813345,
        "entry_name": "Wirtz Team Name Ever",
        "event_total": 51,
        "has_played": true,
        "id": 64193893,
        "last_rank": 50199,
        "player_name": "Nick Spence",
        "rank": 59580,
        "rank_sort": 59798,
        "total": 2346
      },
      {
        "club_badge_src": null,
        "entry": 8007820,
        "entry_name": "K.G Arsenal",
        "event_total": 57,
        "has_played": true,
        "id": 65954319,
        "last_rank": 60168,
        "player_name": "Krzysztof Gradzki",
        "rank": 59580,
        "rank_sort": 59799,
        "total": 2346
      },
      {
        "club_badge_src": null,
        "entry": 8141978,
        "entry_name": "Champions of Europe",
        "event_total": 64,
        "has_played": true,
        "id": 67194021,
        "last_rank": 73720,
        "player_name": "Antony Hughes",
        "rank": 59580,
        "rank_sort": 59800,
        "total": 2346
      }
    ]
  }
}