{
  "last_updated_data": "2026-05-24T23:28:17Z",
  "league": {
    "admin_entry": null,
    "closed": false,
    "code_privacy": "p",
    "created": "2025-07-20T23:14:33.933835Z",
    "cup_league": 2815434,
    "has_cup": true,
    "id": 314,
    "league_type": "s",
    "max_entries": null,
    "name": "Overall",
    "rank": null,
    "scoring": "c",
    "start_event": 1
  },
  "new_entries": {
    "has_next": false,
    "page": 1,
    "results": []
  },
  "standings": {
    "has_next": true,
    "page": 587,
    "results": [
      {
        "club_badge_src": null,
        "entry": 322084,
        "entry_name": "Gro\u00df Misconduct",
        "event_total": 51,
        "has_played": true,
        "id": 2158478,
        "last_rank": 23522,
        "player_name": "Josh Collins",
        "rank": 29282,
        "rank_sort": 29301,
        "total": 2369
      },
      {
        "club_badge_src": null,
        "entry": 342025,
        "entry_name": "PARLOUR FC",
        "event_total": 73,
        "has_played": true,
        "id": 2289239,
        "last_rank": 48898,
        "player_name": "Frankie Parlour",
        "rank": 29282,
        "rank_sort": 29302,
        "total": 2369
      },
      {
        "club_badge_src": "https://fantasy.premierleague.com/gcs/plfpl-production-adobe-approved/plfpl-production/417996/62d75144-7af3-4871-934d-1f2c81e0dcae.png",
        "entry": 417996,
        "entry_name": "The Blanking 11",
        "event_total": 52,
        "has_played": true,
        "id": 2801837,
        "last_rank": 21159,
        "player_name": "Mahmoud Taha",
        "rank": 29282,
        "rank_sort": 29303,
        "total": 2369
      },
      {
        "club_badge_src": null,
        "entry": 421877,
        "entry_name": "demone di Piacenza",
        "event_total": 60,
        "has_played": true,
        "id": 2827257,
        "last_rank": 27976,
        "player_name": "Fahad Sd7",
        "rank": 29282,
        "rank_sort": 29304,
        "total": 2369
      },
      {
        "club_badge_src": "https://fantasy.premierleague.com/gcs/plfpl-production-adobe-approved/plfpl-production/461184/4c09c42e-3af9-433b-833a-0b2ad7a55755.png",
        "entry": 461184,
        "entry_name": "FC Korokoro",
        "event_total": 51,
        "has_played": true,
        "id": 3093650,
        "last_rank": 23656,
        "player_name": "Muhd Hussain Yaakub",
        "rank": 29282,
        "rank_sort": 29305,
        "total": 2369
      },
      {
        "club_badge_src": "https://fantasy.premierleague.com/gcs/plfpl-production-adobe-approved/plfpl-production/480766/a00c9067-48fc-461a-913e-40dbad9d6c86.png",
        "entry": 480766,
        "entry_name": "Wirtz Team Name Ever",
        "event_total": 46,
        "has_played": true,
        "id": 3227700,
        "last_rank": 19721,
        "player_name": "Simon Fox",
        "rank": 29282,
        "rank_sort": 29306,
        "total": 2369
      },
      {
        "club_badge_src": null,
        "entry": 492481,
        "entry_name": "Only time will tel",
        "event_total": 64,
        "has_played": true,
        "id": 3305920,
        "last_rank": 36831,
        "player_name": "--- Y",
        "rank": 29282,
        "rank_sort": 29307,
        "total": 2369
      },
      {
        "club_badge_src": null,
        "entry": 503318,
        "entry_name": "Dunder Mifflin",
        "event_total": 60,
        "has_played": true,
        "id": 3378551,
        "last_rank": 27976,
        "player_name": "Nath Owarang",
        "rank": 29282,
        "rank_sort": 29308,
        "total": 2369
      },
      {
        "club_badge_src": null,
        "entry": 564802,
        "entry_name": "KC Villans",
        "event_total": 56,
        "has_played": true,
        "id": 3801660,
        "last_rank": 28150,
        "player_name": "Nick Flowers",
        "rank": 29282,
        "rank_sort": 29309,
        "total": 2369
      },
      {
        "club_badge_src": null,
        "entry": 643247,
        "entry_name": "I Ragazzi",
        "event_total": 63,
        "has_played": true,
        "id": 4347269,
        "last_rank": 35619,
        "player_name": "Konstantinos Malovits",
        "rank": 29282,
        "rank_sort": 29310,
        "total": 2369
      },
      {
        "club_badge_src": null,
        "entry": 649696,
        "entry_name": "Peaky Reijnders",
        "event_total": 67,
        "has_played": true,
        "id": 4390802,
        "last_rank": 35166,
        "player_name": "Valentino Ravnic",
        "rank": 29282,
        "rank_sort": 29311,
        "total": 2369
      },
      {
        "club_badge_src": "https://fantasy.premierleague.com/gcs/plfpl-production-adobe-approved/plfpl-production/741240/2dccf891-b1e3-4e60-be8c-bf14877a7e1f.png",
        "entry": 741240,
        "entry_name": "Skeedsy",
        "event_total": 59,
        "has_played": true,
        "id": 5040821,
        "last_rank": 31125,
        "player_name": "Aidan Harper",
        "rank": 29282,
        "rank_sort": 29312,
        "total": 2369
      },
      {
        "club_badge_src": null,
        "entry": 811773,
        "entry_name": "\ufffd",
        "event_total": 56,
        "has_played": true,
        "id": 5558106,
        "last_rank": 27976,
        "player_name": "Will Powell",
        "rank": 29282,
        "rank_sort": 29313,
        "total": 2369
      },
      {
        "club_badge_src": null,
        "entry": 811784,
        "entry_name": "Silva Lining",
        "event_total": 47,
        "has_played": true,
        "id": 5558194,
        "last_rank": 20416,
        "player_name": "Eric Yau",
        "rank": 29282,
        "rank_sort": 29314,
        "total": 2369
      },
      {
        "club_badge_src": null,
        "entry": 873994,
        "entry_name": "Doraemon",
        "event_total": 69,
        "has_played": true,
        "id": 5991953,
        "last_rank": 42940,
        "player_name": "Riky Slamet",
        "rank": 29282,
        "rank_sort": 29315,
        "total": 2369
      },
      {
        "club_badge_src": null,
        "entry": 973052,
        "entry_name": "HaCunha Mateta",
        "event_total": 37,
        "has_played": true,
        "id": 6707697,
        "last_rank": 14040,
        "player_name": "Gearoid Meehan",
        "rank": 29282,
        "rank_sort": 29316,
        "total": 2369
      },
      {
        "club_badge_src": "https://fantasy.premierleague.com/gcs/plfpl-production-adobe-approved/plfpl-production/990012/e1d067c5-be67-45e2-a132-1ea6aebfa94c.png",
        "entry": 990012,
        "entry_name": "Cullen FC",
        "event_total": 54,
        "has_played": true,
        "id": 6826370,
        "last_rank": 26088,
        "player_name": "frank fox",
        "rank": 29282,
        "rank_sort": 29317,
        "total": 2369
      },
      {
        "club_badge_src": null,
        "entry": 991462,
        "entry_name": "Average",
        "event_total": 60,
        "has_played": true,
        "id": 6836362,
        "last_rank": 27976,
        "player_name": "Manish Giri",
        "rank": 29282,
        "rank_sort": 29318,
        "total": 2369
      },
      {
        "club_badge_src": "https://fantasy.premierleague.com/gcs/plfpl-production-adobe-approved/plfpl-production/997842/a2bb841c-e717-42de-9e5f-a62d5cf9799e.png",
        "entry": 997842,
        "entry_name": "Smooth Operator",
        "event_total": 50,
        "has_played": true,
        "id": 6893882,
        "last_rank": 22921,
        "player_name": "Marzouq Alhais",
        "rank": 29282,
        "rank_sort": 29319,
        "total": 2369
      },
      {
        "club_badge_src": null,
        "entry": 1001149,
        "entry_name": "Bottlers",
        "event_total": 44,
        "has_played": true,
        "id": 6920559,
        "last_rank": 18377,
        "player_name": "Tom Chytil",
        "rank": 29282,
        "rank_sort": 29320,
        "total": 2369
      },
      {
        "club_badge_src": "https://fantasy.premierleague.com/gcs/plfpl-production-adobe-approved/plfpl-production/1041736/519c9290-5acb-4771-9c1a-8f6f5b61c497.png",
        "entry": 1041736,
        "entry_name": "As.sale.1928",
        "event_total": 82,
        "has_played": true,
        "id": 7209108,
        "last_rank": 64190,
        "player_name": "s-one soufiane",
        "rank": 29282,
        "rank_sort": 29321,
        "total": 2369
      },
      {
        "club_badge_src": null,
        "entry": 1056141,
        "entry_name": "ya but no but",
        "event_total": 53,
        "has_played": true,
        "id": 7309103,
        "last_rank": 25330,
        "player_name": "Will English",
        "rank": 29282,
        "rank_sort": 29322,
        "total": 2369
      },
      {
        "club_badge_src": null,
        "entry": 1089965,
        "entry_name": "\u0645\u062d\u0645\u062f \u0627\u0644\u0641\u0627\u062a\u062d :)",
        "event_total": 58,
        "has_played": true,
        "id": 7548779,
        "last_rank": 30060,
        "player_name": "\u0645\u062d\u0645\u062f \u0628\u0646 \u0646\u0627\u064a\u0641",
        "rank": 29282,
        "rank_sort": 29323,
        "total": 2369
      },
      {
        "club_badge_src": null,
        "entry": 1108625,
        "entry_name": "Me, Myself, Ndiaye",
        "event_total": 57,
        "has_played": true,
        "id": 7678964,
        "last_rank": 28906,
        "player_name": "Elias Lygren Lundsten",
        "rank": 29282,
        "rank_sort": 29324,
        "total": 2369
      },
      {
        "club_badge_src": "https://fantasy.premierleague.com/gcs/plfpl-production-adobe-approved/plfpl-production/1120565/c2b12376-4abd-4ab6-9ed5-10f3c7cb2350.png",
        "entry": 1120565,
        "entry_name": "DokuMarmoushBurnbara",
        "event_total": 52,
        "has_played": true,
        "id": 7763177,
        "last_rank": 21159,
        "player_name": "Eugen Lipo\u0161\u0107ak",
        "rank": 29282,
        "rank_sort": 29325,
        "total": 2369
      },
      {
        "club_badge_src": null,
        "entry": 1224485,
        "entry_name": "Revie Your Engines",
        "event_total": 47,
        "has_played": true,
        "id": 8502011,
        "last_rank": 20538,
        "player_name": "David Farr",
        "rank": 29282,
        "rank_sort": 29326,
        "total": 2369
      },
      {
        "club_badge_src": null,
        "entry": 1353760,
        "entry_name": "Abo_Omama",
        "event_total": 46,
        "has_played": true,
        "id": 9410930,
        "last_rank": 19835,
        "player_name": "Hamza Alshtiwe",
        "rank": 29282,
        "rank_sort": 29327,
        "total": 2369
      },
      {
        "club_badge_src": null,
        "entry": 1505124,
        "entry_name": "YNWA_Diogo20",
        "event_total": 68,
        "has_played": true,
        "id": 10496869,
        "last_rank": 31556,
        "player_name": "Ken Cheong Hee",
        "rank": 29282,
        "rank_sort": 29328,
        "total": 2369
      },
      {
        "club_badge_src": null,
        "entry": 1512600,
        "entry_name": "RoyalBlue25",
        "event_total": 57,
        "has_played": true,
        "id": 10549521,
        "last_rank": 25172,
        "player_name": "Christopher Checkley",
        "rank": 29282,
        "rank_sort": 29329,
        "total": 2369
      },
      {
        "club_badge_src": "https://fantasy.premierleague.com/gcs/plfpl-production-adobe-approved/plfpl-production/1514006/88bf9c4c-185c-4547-bc57-aeecb070da54.png",
        "entry": 1514006,
        "entry_name": "KS Nowy Zamek \u26bd\ufe0e",
        "event_total": 64,
        "has_played": true,
        "id": 10559595,
        "last_rank": 36831,
        "player_name": "Pawe\u0142 Mierzcha\u0142a",
        "rank": 29282,
        "rank_sort": 29330,
        "total": 2369
      },
      {
        "club_badge_src": null,
        "entry": 1623705,
        "entry_name": "ViktoriousSupermendi",
        "event_total": 55,
        "has_played": true,
        "id": 11364546,
        "last_rank": 27203,
        "player_name": "Habib Rehman",
        "rank": 29282,
        "rank_sort": 29331,
        "total": 2369
      },
      {
        "club_badge_src": null,
        "entry": 1656219,
        "entry_name": "Gvardiol the time",
        "event_total": 67,
        "has_played": true,
        "id": 11595341,
        "last_rank": 40297,
        "player_name": "Allan Ross",
        "rank": 29282,
        "rank_sort": 29332,
        "total": 2369
      },
      {
        "club_badge_src": "https://fantasy.premierleague.com/gcs/plfpl-production-adobe-approved/plfpl-production/1889668/668bc186-e9c3-4f09-bbd3-65723d25c5d7.png",
        "entry": 1889668,
        "entry_name": "Sputnik XI",
        "event_total": 62,
        "has_played": true,
        "id": 13318229,
        "last_rank": 34293,
        "player_name": "Dimitri Karlov",
        "rank": 29282,
        "rank_sort": 29333,
        "total": 2369
      },
      {
        "club_badge_src": "https://fantasy.premierleague.com/gcs/plfpl-production-adobe-approved/plfpl-production/1905090/56dd018e-1ee2-4460-80df-0665f81a43a3.png",
        "entry": 1905090,
        "entry_name": "Asoom FC",
        "event_total": 50,
        "has_played": true,
        "id": 13430248,
        "last_rank": 19721,
        "player_name": "Osama Ali",
        "rank": 29282,
        "rank_sort": 29334,
        "total": 2369
      },
      {
        "club_badge_src": null,
        "entry": 2003151,
        "entry_name": "Kinder Mbeumo",
        "event_total": 53,
        "has_played": true,
        "id": 14162064,
        "last_rank": 25330,
        "player_name": "Niall Kelly",
        "rank": 29282,
        "rank_sort": 29335,
        "total": 2369
      },
      {
        "club_badge_src": null,
        "entry": 2056514,
        "entry_name": "Truth Wirtz",
        "event_total": 36,
        "has_played": true,
        "id": 14568444,
        "last_rank": 13500,
        "player_name": "Elliot Bedford",
        "rank": 29282,
        "rank_sort": 29336,
        "total": 2369
      },
      {
        "club_badge_src": null,
        "entry": 2175940,
        "entry_name": "YNWA 10",
        "event_total": 67,
        "has_played": true,
        "id": 15472815,
        "last_rank": 40503,
        "player_name": "moosa adam",
        "rank": 29282,
        "rank_sort": 29337,
        "total": 2369
      },
      {
        "club_badge_src": null,
        "entry": 2201975,
        "entry_name": "ljeskoni",
        "event_total": 57,
        "has_played": true,
        "id": 15670456,
        "last_rank": 29199,
        "player_name": "Adnan Ljeskovica",
        "rank": 29282,
        "rank_sort": 29338,
        "total": 2369
      },
      {
        "club_badge_src": "https://fantasy.premierleague.com/gcs/plfpl-production-adobe-approved/plfpl-production/2208134/90e3065c-ae73-47c4-89a8-765acd85b009.png",
        "entry": 2208134,
        "entry_name": "Spacecowboys",
        "event_total": 53,
        "has_played": true,
        "id": 15722919,
        "last_rank": 25330,
        "player_name": "Aaron Milborrow",
        "rank": 29282,
        "rank_sort": 29339,
        "total": 2369
      },
      {
        "club_badge_src": null,
        "entry": 2380930,
        "entry_name": "Dotty Selection",
        "event_total": 61,
        "has_played": true,
        "id": 17001433,
        "last_rank": 28726,
        "player_name": "Richard Watterson",
        "rank": 29282,
        "rank_sort": 29340,
        "total": 2369
      },
      {
        "club_badge_src": null,
        "entry": 2400569,
        "entry_name": "Osteopathinaikos",
        "event_total": 54,
        "has_played": true,
        "id": 17157204,
        "last_rank": 25776,
        "player_name": "David Millard",
        "rank": 29282,
        "rank_sort": 29341,
        "total": 2369
      },
      {
        "club_badge_src": null,
        "entry": 2439346,
        "entry_name": "Junk FC 2025/6",
        "event_total": 48,
        "has_played": true,
        "id": 17444989,
        "last_rank": 21301,
        "player_name": "Ben Burton",
        "rank": 29282,
        "rank_sort": 29342,
        "total": 2369
      },
      {
        "club_badge_src": "https://fantasy.premierleague.com/gcs/plfpl-production-adobe-approved/plfpl-production/2443422/86ea82b7-7d60-4d6e-9a4b-a875bdce594d.png",
        "entry": 2443422,
        "entry_name": "\u2705\u0627\u0644\u062c\u0645\u0627\u064a\u0644\u064a\u0629",
        "event_total": 59,
        "has_played": true,
        "id": 17475073,
        "last_rank": 23341,
        "player_name": "Hannachi Mohamed amine",
        "rank": 29282,
        "rank_sort": 29343,
        "total": 2369
      },
      {
        "club_badge_src": null,
        "entry": 2455144,
        "entry_name": "Zirkzee Me Rolling",
        "event_total": 51,
        "has_played": true,
        "id": 17560595,
        "last_rank": 23656,
        "player_name": "Will Matthews",
        "rank": 29282,
        "rank_sort": 29344,
        "total": 2369
      },
      {
        "club_badge_src": null,
        "entry": 2595827,
        "entry_name": "Malinska",
        "event_total": 54,
        "has_played": true,
        "id": 18640475,
        "last_rank": 22685,
        "player_name": "Matic Godnic",
        "rank": 29282,
        "rank_sort": 29345,
        "total": 2369
      },
      {
        "club_badge_src": null,
        "entry": 2762100,
        "entry_name": "Olmo",
        "event_total": 70,
        "has_played": true,
        "id": 20150710,
        "last_rank": 44525,
        "player_name": "Ahmed jmal",
        "rank": 29282,
        "rank_sort": 29346,
        "total": 2369
      },
      {
        "club_badge_src": null,
        "entry": 2958850,
        "entry_name": "kinuthia reloaded",
        "event_total": 73,
        "has_played": true,
        "id": 21733518,
        "last_rank": 48898,
        "player_name": "kinuthia kinuthia",
        "rank": 29282,
        "rank_sort": 29347,
        "total": 2369
      },
      {
        "club_badge_src": null,
        "entry": 2959861,
        "entry_name": "olive oli",
        "event_total": 67,
        "has_played": true,
        "id": 21741418,
        "last_rank": 40036,
        "player_name": "Oliver Tom",
        "rank": 29282,
        "rank_sort": 29348,
        "total": 2369
      },
      {
        "club_badge_src": null,
        "entry": 3211900,
        "entry_name": "CutThemSzoboszlaices",
        "event_total": 63,
        "has_played": true,
        "id": 23746676,
        "last_rank": 30957,
        "player_name": "Savvas Hadjiloucas",
        "rank": 29282,
        "rank_sort": 29349,
        "total": 2369
      },
      {
        "club_badge_src": null,
        "entry": 3238371,
        "entry_name": "sj\u00f8lvaste ordf\u00f8rern",
        "event_total": 59,
        "has_played": true,
        "id": 23952772,
        "last_rank": 26827,
        "player_name": "Lars Kittelsrud",
        "rank": 29282,
        "rank_sort": 29350,
        "total": 2369
      }
    ]
  }
}