{
  "last_updated_data": "2026-05-24T23:28:17Z",
  "league": {
    "admin_entry": null,
    "closed": false,
    "code_privacy": "p",
    "created": "2025-07-20T23:14:33.933835Z",
    "cup_league": 2815434,
    "has_cup": true,
    "id": 314,
    "league_type": "s",
    "max_entries": null,
    "name": "Overall",
    "rank": null,
    "scoring": "c",
    "start_event": 1
  },
  "new_entries": {
    "has_next": false,
    "page": 1,
    "results": []
  },
  "standings": {
    "has_next": true,
    "page": 1085,
    "results": [
      {
        "club_badge_src": null,
        "entry": 3493354,
        "entry_name": "Olameedouble",
        "event_total": 81,
        "has_played": true,
        "id": 25983362,
        "last_rank": 105963,
        "player_name": "Olamilekan Salau",
        "rank": 54011,
        "rank_sort": 54201,
        "total": 2349
      },
      {
        "club_badge_src": null,
        "entry": 3506943,
        "entry_name": "Connemara City",
        "event_total": 80,
        "has_played": true,
        "id": 26089313,
        "last_rank": 103254,
        "player_name": "David Faherty",
        "rank": 54011,
        "rank_sort": 54202,
        "total": 2349
      },
      {
        "club_badge_src": null,
        "entry": 3567980,
        "entry_name": "Ndiaye Hard",
        "event_total": 49,
        "has_played": true,
        "id": 26567175,
        "last_rank": 42648,
        "player_name": "Oakley Rees",
        "rank": 54011,
        "rank_sort": 54203,
        "total": 2349
      },
      {
        "club_badge_src": null,
        "entry": 3571123,
        "entry_name": "Keagsters FC",
        "event_total": 40,
        "has_played": true,
        "id": 26591050,
        "last_rank": 31747,
        "player_name": "Christian Claffy",
        "rank": 54011,
        "rank_sort": 54204,
        "total": 2349
      },
      {
        "club_badge_src": null,
        "entry": 3574863,
        "entry_name": "Mo Money Mo Salah",
        "event_total": 43,
        "has_played": true,
        "id": 26619402,
        "last_rank": 35166,
        "player_name": "Stephen Money",
        "rank": 54011,
        "rank_sort": 54205,
        "total": 2349
      },
      {
        "club_badge_src": null,
        "entry": 3579460,
        "entry_name": "FC HBIBI",
        "event_total": 62,
        "has_played": true,
        "id": 26655049,
        "last_rank": 63201,
        "player_name": "Youssef Hbibi",
        "rank": 54011,
        "rank_sort": 54206,
        "total": 2349
      },
      {
        "club_badge_src": null,
        "entry": 3652314,
        "entry_name": "manoriniho",
        "event_total": 70,
        "has_played": true,
        "id": 27224642,
        "last_rank": 79190,
        "player_name": "Shachar Bellaiche",
        "rank": 54011,
        "rank_sort": 54207,
        "total": 2349
      },
      {
        "club_badge_src": "https://fantasy.premierleague.com/gcs/plfpl-production-adobe-approved/plfpl-production/3659784/3b58006b-8ea2-4be3-8b7b-4b3b9428cdd0.png",
        "entry": 3659784,
        "entry_name": "Foals Fantasy",
        "event_total": 64,
        "has_played": true,
        "id": 27290870,
        "last_rank": 66848,
        "player_name": "Alex Foley",
        "rank": 54011,
        "rank_sort": 54208,
        "total": 2349
      },
      {
        "club_badge_src": null,
        "entry": 3714185,
        "entry_name": "fc sammakko",
        "event_total": 70,
        "has_played": true,
        "id": 27716034,
        "last_rank": 79190,
        "player_name": "Jonne Vanttinen",
        "rank": 54011,
        "rank_sort": 54209,
        "total": 2349
      },
      {
        "club_badge_src": null,
        "entry": 3743575,
        "entry_name": "Sarges Squad",
        "event_total": 55,
        "has_played": true,
        "id": 27945886,
        "last_rank": 51403,
        "player_name": "Andrew Sargent",
        "rank": 54011,
        "rank_sort": 54210,
        "total": 2349
      },
      {
        "club_badge_src": null,
        "entry": 3811621,
        "entry_name": "B\u00e4ng Bengt",
        "event_total": 64,
        "has_played": true,
        "id": 28501174,
        "last_rank": 66738,
        "player_name": "John G\u00e4rdt",
        "rank": 54011,
        "rank_sort": 54211,
        "total": 2349
      },
      {
        "club_badge_src": null,
        "entry": 3849359,
        "entry_name": "Cold Palma",
        "event_total": 68,
        "has_played": true,
        "id": 28854635,
        "last_rank": 75139,
        "player_name": "ryan timonian",
        "rank": 54011,
        "rank_sort": 54212,
        "total": 2349
      },
      {
        "club_badge_src": "https://fantasy.premierleague.com/gcs/plfpl-production-adobe-approved/plfpl-production/3850620/a92e6f67-95bc-4a16-8f91-68cb985f897c.png",
        "entry": 3850620,
        "entry_name": "MAEYINDEE",
        "event_total": 73,
        "has_played": true,
        "id": 28864698,
        "last_rank": 86054,
        "player_name": "Nachat Kukiatkan",
        "rank": 54011,
        "rank_sort": 54213,
        "total": 2349
      },
      {
        "club_badge_src": null,
        "entry": 3932880,
        "entry_name": "Riley Rovers",
        "event_total": 76,
        "has_played": true,
        "id": 29580116,
        "last_rank": 93883,
        "player_name": "Connor Riley",
        "rank": 54011,
        "rank_sort": 54214,
        "total": 2349
      },
      {
        "club_badge_src": null,
        "entry": 3939450,
        "entry_name": "Europa Stitch Up FC",
        "event_total": 56,
        "has_played": true,
        "id": 29633583,
        "last_rank": 52853,
        "player_name": "Matthew Washington",
        "rank": 54011,
        "rank_sort": 54215,
        "total": 2349
      },
      {
        "club_badge_src": null,
        "entry": 3989891,
        "entry_name": "Completed It Mate FC",
        "event_total": 40,
        "has_played": true,
        "id": 30042025,
        "last_rank": 31747,
        "player_name": "al soliman",
        "rank": 54011,
        "rank_sort": 54216,
        "total": 2349
      },
      {
        "club_badge_src": null,
        "entry": 4007022,
        "entry_name": "Frank P\ufffd",
        "event_total": 61,
        "has_played": true,
        "id": 30185528,
        "last_rank": 61606,
        "player_name": "Francis Ikenna",
        "rank": 54011,
        "rank_sort": 54217,
        "total": 2349
      },
      {
        "club_badge_src": "https://fantasy.premierleague.com/gcs/plfpl-production-adobe-approved/plfpl-production/4051606/b89f8199-675b-4541-b194-2cbb85306c22.png",
        "entry": 4051606,
        "entry_name": "That's Calafiori",
        "event_total": 47,
        "has_played": true,
        "id": 30562285,
        "last_rank": 39816,
        "player_name": "Graham England",
        "rank": 54011,
        "rank_sort": 54218,
        "total": 2349
      },
      {
        "club_badge_src": null,
        "entry": 4082351,
        "entry_name": "Fsh Fc",
        "event_total": 61,
        "has_played": true,
        "id": 30818388,
        "last_rank": 61315,
        "player_name": "Bryan Foon",
        "rank": 54011,
        "rank_sort": 54219,
        "total": 2349
      },
      {
        "club_badge_src": "https://fantasy.premierleague.com/gcs/plfpl-production-adobe-approved/plfpl-production/4112409/eb712fbe-de57-4c49-856a-13b957f6e6c6.png",
        "entry": 4112409,
        "entry_name": "Life on Mar-t\u00ednez",
        "event_total": 68,
        "has_played": true,
        "id": 31058318,
        "last_rank": 74787,
        "player_name": "James Cookson",
        "rank": 54011,
        "rank_sort": 54220,
        "total": 2349
      },
      {
        "club_badge_src": null,
        "entry": 4141023,
        "entry_name": "Tikka Mo-Salah",
        "event_total": 72,
        "has_played": true,
        "id": 31296801,
        "last_rank": 83698,
        "player_name": "Jez Fullbrook",
        "rank": 54011,
        "rank_sort": 54221,
        "total": 2349
      },
      {
        "club_badge_src": null,
        "entry": 4156945,
        "entry_name": "Inter Aileen",
        "event_total": 43,
        "has_played": true,
        "id": 31423959,
        "last_rank": 30600,
        "player_name": "Tom Frankel",
        "rank": 54011,
        "rank_sort": 54222,
        "total": 2349
      },
      {
        "club_badge_src": null,
        "entry": 4197837,
        "entry_name": "MSR FC",
        "event_total": 60,
        "has_played": true,
        "id": 31774148,
        "last_rank": 59632,
        "player_name": "Sadikur Rahman",
        "rank": 54011,
        "rank_sort": 54223,
        "total": 2349
      },
      {
        "club_badge_src": null,
        "entry": 4234562,
        "entry_name": "FC Twente Stone",
        "event_total": 57,
        "has_played": true,
        "id": 32087617,
        "last_rank": 54667,
        "player_name": "Martin Smith",
        "rank": 54011,
        "rank_sort": 54224,
        "total": 2349
      },
      {
        "club_badge_src": null,
        "entry": 4246453,
        "entry_name": "The Goalfather",
        "event_total": 60,
        "has_played": true,
        "id": 32187085,
        "last_rank": 59813,
        "player_name": "Victoria Elstad",
        "rank": 54011,
        "rank_sort": 54225,
        "total": 2349
      },
      {
        "club_badge_src": null,
        "entry": 4292828,
        "entry_name": "Inter-Row-Z",
        "event_total": 64,
        "has_played": true,
        "id": 32563786,
        "last_rank": 67063,
        "player_name": "Richard Stokes",
        "rank": 54011,
        "rank_sort": 54226,
        "total": 2349
      },
      {
        "club_badge_src": "https://fantasy.premierleague.com/gcs/plfpl-production-adobe-approved/plfpl-production/4299792/a1426b6e-6ed0-4b69-8229-80a7a9ad1ddf.png",
        "entry": 4299792,
        "entry_name": "peony",
        "event_total": 58,
        "has_played": true,
        "id": 32620599,
        "last_rank": 56369,
        "player_name": "Svilena Adzhamova",
        "rank": 54011,
        "rank_sort": 54227,
        "total": 2349
      },
      {
        "club_badge_src": null,
        "entry": 4380856,
        "entry_name": "Bruno Dos Tres",
        "event_total": 71,
        "has_played": true,
        "id": 33292041,
        "last_rank": 81420,
        "player_name": "Sophie Oeyen",
        "rank": 54011,
        "rank_sort": 54228,
        "total": 2349
      },
      {
        "club_badge_src": null,
        "entry": 4384221,
        "entry_name": "fc nawroz",
        "event_total": 48,
        "has_played": true,
        "id": 33323720,
        "last_rank": 41324,
        "player_name": "Dastan Jr",
        "rank": 54011,
        "rank_sort": 54229,
        "total": 2349
      },
      {
        "club_badge_src": null,
        "entry": 4423863,
        "entry_name": "Rafa FC",
        "event_total": 61,
        "has_played": true,
        "id": 33663271,
        "last_rank": 61315,
        "player_name": "Rafa Ferreira",
        "rank": 54011,
        "rank_sort": 54230,
        "total": 2349
      },
      {
        "club_badge_src": null,
        "entry": 4441345,
        "entry_name": "Harwich Hotspurs",
        "event_total": 58,
        "has_played": true,
        "id": 33819934,
        "last_rank": 56369,
        "player_name": "Alan Smith",
        "rank": 54011,
        "rank_sort": 54231,
        "total": 2349
      },
      {
        "club_badge_src": null,
        "entry": 4446557,
        "entry_name": "fa5ry",
        "event_total": 52,
        "has_played": true,
        "id": 33863656,
        "last_rank": 46839,
        "player_name": "Ahmed Elfkhrany",
        "rank": 54011,
        "rank_sort": 54232,
        "total": 2349
      },
      {
        "club_badge_src": null,
        "entry": 4518913,
        "entry_name": "Oh we'll have a look",
        "event_total": 48,
        "has_played": true,
        "id": 34461565,
        "last_rank": 41324,
        "player_name": "Ryan Smith",
        "rank": 54011,
        "rank_sort": 54233,
        "total": 2349
      },
      {
        "club_badge_src": null,
        "entry": 4527806,
        "entry_name": "FrimPingPong",
        "event_total": 35,
        "has_played": true,
        "id": 34534818,
        "last_rank": 26710,
        "player_name": "Robert Brennan",
        "rank": 54011,
        "rank_sort": 54234,
        "total": 2349
      },
      {
        "club_badge_src": null,
        "entry": 4560524,
        "entry_name": "No Weimann No Cry",
        "event_total": 59,
        "has_played": true,
        "id": 34799899,
        "last_rank": 58071,
        "player_name": "Henry Kirby",
        "rank": 54011,
        "rank_sort": 54235,
        "total": 2349
      },
      {
        "club_badge_src": null,
        "entry": 4617595,
        "entry_name": "free",
        "event_total": 58,
        "has_played": true,
        "id": 35292664,
        "last_rank": 56369,
        "player_name": "\u0391\u03bd\u03c4\u03c9\u03bd\u03b7\u03c2 \u039e\u03b5\u03bd\u03bf\u03c0\u03bf\u03c5\u03bb\u03bf\u03c2",
        "rank": 54011,
        "rank_sort": 54236,
        "total": 2349
      },
      {
        "club_badge_src": null,
        "entry": 4640998,
        "entry_name": "Pain in the Arias",
        "event_total": 57,
        "has_played": true,
        "id": 35496180,
        "last_rank": 54667,
        "player_name": "Tom Bradley",
        "rank": 54011,
        "rank_sort": 54237,
        "total": 2349
      },
      {
        "club_badge_src": null,
        "entry": 4658272,
        "entry_name": "\u0160e\u0161ko-lator",
        "event_total": 58,
        "has_played": true,
        "id": 35660200,
        "last_rank": 56180,
        "player_name": "James Laird",
        "rank": 54011,
        "rank_sort": 54238,
        "total": 2349
      },
      {
        "club_badge_src": null,
        "entry": 4702017,
        "entry_name": "ABC",
        "event_total": 49,
        "has_played": true,
        "id": 36047145,
        "last_rank": 42940,
        "player_name": "Adil Naeem",
        "rank": 54011,
        "rank_sort": 54239,
        "total": 2349
      },
      {
        "club_badge_src": null,
        "entry": 4708773,
        "entry_name": "Rubens Red Army",
        "event_total": 60,
        "has_played": true,
        "id": 36114169,
        "last_rank": 59813,
        "player_name": "Keith Mccullough",
        "rank": 54011,
        "rank_sort": 54240,
        "total": 2349
      },
      {
        "club_badge_src": null,
        "entry": 4789467,
        "entry_name": "Saka Potatoes NYC",
        "event_total": 59,
        "has_played": true,
        "id": 36871809,
        "last_rank": 58071,
        "player_name": "Nelson Capellan",
        "rank": 54011,
        "rank_sort": 54241,
        "total": 2349
      },
      {
        "club_badge_src": null,
        "entry": 4805574,
        "entry_name": "Power Reijnders",
        "event_total": 62,
        "has_played": true,
        "id": 37001247,
        "last_rank": 63390,
        "player_name": "Jose Borrell",
        "rank": 54011,
        "rank_sort": 54242,
        "total": 2349
      },
      {
        "club_badge_src": null,
        "entry": 4897327,
        "entry_name": "$chutz$taffel",
        "event_total": 67,
        "has_played": true,
        "id": 37762138,
        "last_rank": 73038,
        "player_name": "Younes Traouki",
        "rank": 54011,
        "rank_sort": 54243,
        "total": 2349
      },
      {
        "club_badge_src": null,
        "entry": 4918962,
        "entry_name": "Tonnolini Tornado",
        "event_total": 62,
        "has_played": true,
        "id": 37940402,
        "last_rank": 63201,
        "player_name": "Morten T\u00f8nseth",
        "rank": 54011,
        "rank_sort": 54244,
        "total": 2349
      },
      {
        "club_badge_src": null,
        "entry": 4922404,
        "entry_name": "One FC",
        "event_total": 61,
        "has_played": true,
        "id": 37967964,
        "last_rank": 61606,
        "player_name": "Ayaan Rahman",
        "rank": 54011,
        "rank_sort": 54245,
        "total": 2349
      },
      {
        "club_badge_src": null,
        "entry": 4969409,
        "entry_name": "LEEDS",
        "event_total": 56,
        "has_played": true,
        "id": 38350954,
        "last_rank": 53023,
        "player_name": "KYRIAKOS KOURMOUZOS",
        "rank": 54011,
        "rank_sort": 54246,
        "total": 2349
      },
      {
        "club_badge_src": null,
        "entry": 4980374,
        "entry_name": "Pednoii",
        "event_total": 74,
        "has_played": true,
        "id": 38444673,
        "last_rank": 88348,
        "player_name": "Ekapob Thaipanit",
        "rank": 54011,
        "rank_sort": 54247,
        "total": 2349
      },
      {
        "club_badge_src": null,
        "entry": 5100378,
        "entry_name": "Time will Tel",
        "event_total": 51,
        "has_played": true,
        "id": 39422820,
        "last_rank": 45416,
        "player_name": "Tunggal Michael",
        "rank": 54011,
        "rank_sort": 54248,
        "total": 2349
      },
      {
        "club_badge_src": null,
        "entry": 5105815,
        "entry_name": "\u0160e\u0161ko Clubcard",
        "event_total": 66,
        "has_played": true,
        "id": 39467201,
        "last_rank": 70651,
        "player_name": "Andrew Seaton",
        "rank": 54011,
        "rank_sort": 54249,
        "total": 2349
      },
      {
        "club_badge_src": null,
        "entry": 5126542,
        "entry_name": "Gunnerless",
        "event_total": 70,
        "has_played": true,
        "id": 39644562,
        "last_rank": 70757,
        "player_name": "Jim Mockridge",
        "rank": 54011,
        "rank_sort": 54250,
        "total": 2349
      }
    ]
  }
}