{
  "last_updated_data": "2026-05-24T23:28:17Z",
  "league": {
    "admin_entry": null,
    "closed": false,
    "code_privacy": "p",
    "created": "2025-07-20T23:14:33.933835Z",
    "cup_league": 2815434,
    "has_cup": true,
    "id": 314,
    "league_type": "s",
    "max_entries": null,
    "name": "Overall",
    "rank": null,
    "scoring": "c",
    "start_event": 1
  },
  "new_entries": {
    "has_next": false,
    "page": 1,
    "results": []
  },
  "standings": {
    "has_next": true,
    "page": 1031,
    "results": [
      {
        "club_badge_src": null,
        "entry": 5208465,
        "entry_name": "Kingston Rovers",
        "event_total": 70,
        "has_played": true,
        "id": 40341943,
        "last_rank": 75874,
        "player_name": "Michael Healy",
        "rank": 51278,
        "rank_sort": 51501,
        "total": 2351
      },
      {
        "club_badge_src": null,
        "entry": 5264273,
        "entry_name": "G-1970",
        "event_total": 50,
        "has_played": true,
        "id": 40801468,
        "last_rank": 41324,
        "player_name": "Jovan Rakovic",
        "rank": 51278,
        "rank_sort": 51502,
        "total": 2351
      },
      {
        "club_badge_src": null,
        "entry": 5293291,
        "entry_name": "Jagnjilo City",
        "event_total": 47,
        "has_played": true,
        "id": 41030138,
        "last_rank": 37822,
        "player_name": "Milo\u0161 Milenkovi\u0107",
        "rank": 51278,
        "rank_sort": 51503,
        "total": 2351
      },
      {
        "club_badge_src": null,
        "entry": 5435604,
        "entry_name": "Pick Ah Pan",
        "event_total": 69,
        "has_played": true,
        "id": 42284601,
        "last_rank": 64830,
        "player_name": "Damion Leera",
        "rank": 51278,
        "rank_sort": 51504,
        "total": 2351
      },
      {
        "club_badge_src": null,
        "entry": 5465564,
        "entry_name": "Rice, Rice, Baby",
        "event_total": 41,
        "has_played": true,
        "id": 42537432,
        "last_rank": 26827,
        "player_name": "Advitya Ahlawat",
        "rank": 51278,
        "rank_sort": 51505,
        "total": 2351
      },
      {
        "club_badge_src": null,
        "entry": 5509725,
        "entry_name": "Expected Toulouse FC",
        "event_total": 52,
        "has_played": true,
        "id": 42944585,
        "last_rank": 44048,
        "player_name": "Alex Neal",
        "rank": 51278,
        "rank_sort": 51506,
        "total": 2351
      },
      {
        "club_badge_src": null,
        "entry": 5523260,
        "entry_name": "BRAJ FC",
        "event_total": 63,
        "has_played": true,
        "id": 43071078,
        "last_rank": 61411,
        "player_name": "Brajan Maslanka",
        "rank": 51278,
        "rank_sort": 51507,
        "total": 2351
      },
      {
        "club_badge_src": "https://fantasy.premierleague.com/gcs/plfpl-production-adobe-approved/plfpl-production/5561322/437ccdd2-051d-4d2d-8aeb-a470a7728888.png",
        "entry": 5561322,
        "entry_name": "Tam F\u00f8ling",
        "event_total": 70,
        "has_played": true,
        "id": 43416667,
        "last_rank": 75537,
        "player_name": "Nikolaj Skybakmoen",
        "rank": 51278,
        "rank_sort": 51508,
        "total": 2351
      },
      {
        "club_badge_src": null,
        "entry": 5617330,
        "entry_name": "Palmer party",
        "event_total": 64,
        "has_played": true,
        "id": 43907834,
        "last_rank": 63390,
        "player_name": "Peter Carlsen",
        "rank": 51278,
        "rank_sort": 51509,
        "total": 2351
      },
      {
        "club_badge_src": null,
        "entry": 5658758,
        "entry_name": "Just Gimme de Ligt",
        "event_total": 75,
        "has_played": true,
        "id": 44271794,
        "last_rank": 86735,
        "player_name": "Jacovos Costi",
        "rank": 51278,
        "rank_sort": 51510,
        "total": 2351
      },
      {
        "club_badge_src": null,
        "entry": 5661342,
        "entry_name": "Doggy Rovers",
        "event_total": 49,
        "has_played": true,
        "id": 44293370,
        "last_rank": 40297,
        "player_name": "Barry Kent",
        "rank": 51278,
        "rank_sort": 51511,
        "total": 2351
      },
      {
        "club_badge_src": null,
        "entry": 5666705,
        "entry_name": "Stang inn",
        "event_total": 69,
        "has_played": true,
        "id": 44338633,
        "last_rank": 73720,
        "player_name": "Jon Arne Thorsbakken",
        "rank": 51278,
        "rank_sort": 51512,
        "total": 2351
      },
      {
        "club_badge_src": null,
        "entry": 5671682,
        "entry_name": "caateeye",
        "event_total": 58,
        "has_played": true,
        "id": 44383541,
        "last_rank": 53345,
        "player_name": "muxiyadiin caateeye",
        "rank": 51278,
        "rank_sort": 51513,
        "total": 2351
      },
      {
        "club_badge_src": null,
        "entry": 5704393,
        "entry_name": "Tesco McNeil Deal",
        "event_total": 69,
        "has_played": true,
        "id": 44665325,
        "last_rank": 72702,
        "player_name": "Dekkel Warner",
        "rank": 51278,
        "rank_sort": 51514,
        "total": 2351
      },
      {
        "club_badge_src": null,
        "entry": 5836141,
        "entry_name": "Disco's Biscuits",
        "event_total": 36,
        "has_played": true,
        "id": 45810292,
        "last_rank": 26088,
        "player_name": "James Jones",
        "rank": 51278,
        "rank_sort": 51515,
        "total": 2351
      },
      {
        "club_badge_src": null,
        "entry": 5856423,
        "entry_name": "max team",
        "event_total": 81,
        "has_played": true,
        "id": 45984202,
        "last_rank": 100700,
        "player_name": "Max Tyson",
        "rank": 51278,
        "rank_sort": 51516,
        "total": 2351
      },
      {
        "club_badge_src": null,
        "entry": 6178270,
        "entry_name": "Toe Bodyslim F.C.",
        "event_total": 57,
        "has_played": true,
        "id": 48857563,
        "last_rank": 51220,
        "player_name": "Ekkapong Sakulsamart",
        "rank": 51278,
        "rank_sort": 51517,
        "total": 2351
      },
      {
        "club_badge_src": "https://fantasy.premierleague.com/gcs/plfpl-production-adobe-approved/plfpl-production/6203681/0e0f00bf-9caa-4ff6-8f61-febec04fd74a.png",
        "entry": 6203681,
        "entry_name": "IncogNeto",
        "event_total": 53,
        "has_played": true,
        "id": 49077151,
        "last_rank": 45714,
        "player_name": "Ryan Banerjee",
        "rank": 51278,
        "rank_sort": 51518,
        "total": 2351
      },
      {
        "club_badge_src": null,
        "entry": 6230987,
        "entry_name": "Gyok Tuah",
        "event_total": 41,
        "has_played": true,
        "id": 49311811,
        "last_rank": 26827,
        "player_name": "Angus Gray",
        "rank": 51278,
        "rank_sort": 51519,
        "total": 2351
      },
      {
        "club_badge_src": null,
        "entry": 6296737,
        "entry_name": "Finnos Army",
        "event_total": 50,
        "has_played": true,
        "id": 49907089,
        "last_rank": 41824,
        "player_name": "Mike Finnegan",
        "rank": 51278,
        "rank_sort": 51520,
        "total": 2351
      },
      {
        "club_badge_src": null,
        "entry": 6336621,
        "entry_name": "Matty no Cash",
        "event_total": 70,
        "has_played": true,
        "id": 50362854,
        "last_rank": 75139,
        "player_name": "\u0410\u043d\u0434\u0440\u0435\u0439 \u0412\u043b\u0430\u0445\u043e\u0432",
        "rank": 51278,
        "rank_sort": 51521,
        "total": 2351
      },
      {
        "club_badge_src": null,
        "entry": 6390850,
        "entry_name": "Chindog Millionaire",
        "event_total": 62,
        "has_played": true,
        "id": 50837026,
        "last_rank": 53023,
        "player_name": "Charles Clare",
        "rank": 51278,
        "rank_sort": 51522,
        "total": 2351
      },
      {
        "club_badge_src": null,
        "entry": 6398606,
        "entry_name": "Kinder Mbeumo",
        "event_total": 64,
        "has_played": true,
        "id": 50907561,
        "last_rank": 56369,
        "player_name": "David Caulfield",
        "rank": 51278,
        "rank_sort": 51523,
        "total": 2351
      },
      {
        "club_badge_src": null,
        "entry": 6494824,
        "entry_name": "Rubber Digne Rapids",
        "event_total": 63,
        "has_played": true,
        "id": 51776138,
        "last_rank": 61950,
        "player_name": "Jonny Fernandes",
        "rank": 51278,
        "rank_sort": 51524,
        "total": 2351
      },
      {
        "club_badge_src": null,
        "entry": 6731162,
        "entry_name": "No Fox Given",
        "event_total": 56,
        "has_played": true,
        "id": 53876663,
        "last_rank": 50199,
        "player_name": "Tom Fox",
        "rank": 51278,
        "rank_sort": 51525,
        "total": 2351
      },
      {
        "club_badge_src": null,
        "entry": 6746581,
        "entry_name": "Zanzibabes are back!",
        "event_total": 50,
        "has_played": true,
        "id": 54008890,
        "last_rank": 41324,
        "player_name": "Sunil Radia",
        "rank": 51278,
        "rank_sort": 51526,
        "total": 2351
      },
      {
        "club_badge_src": "https://fantasy.premierleague.com/gcs/plfpl-production-adobe-approved/plfpl-production/6803939/7e6c9ee6-477d-4fdf-8d77-4debcd660dfc.png",
        "entry": 6803939,
        "entry_name": "SkII_UnITeD",
        "event_total": 67,
        "has_played": true,
        "id": 54489239,
        "last_rank": 69323,
        "player_name": "Dunahyel Kwari",
        "rank": 51278,
        "rank_sort": 51527,
        "total": 2351
      },
      {
        "club_badge_src": null,
        "entry": 6915143,
        "entry_name": "Boom Xhaka Lhaka",
        "event_total": 47,
        "has_played": true,
        "id": 55431832,
        "last_rank": 37589,
        "player_name": "Phil S",
        "rank": 51278,
        "rank_sort": 51528,
        "total": 2351
      },
      {
        "club_badge_src": "https://fantasy.premierleague.com/gcs/plfpl-production-adobe-approved/plfpl-production/6981800/8b579b9b-0146-4d8c-9c5c-a50fce6ae848.png",
        "entry": 6981800,
        "entry_name": "Spill The Tea FC",
        "event_total": 52,
        "has_played": true,
        "id": 56035206,
        "last_rank": 44048,
        "player_name": "Hannah Chappell",
        "rank": 51278,
        "rank_sort": 51529,
        "total": 2351
      },
      {
        "club_badge_src": null,
        "entry": 7026856,
        "entry_name": "LongdayShortyears",
        "event_total": 59,
        "has_played": true,
        "id": 56457035,
        "last_rank": 48363,
        "player_name": "Prem Narula",
        "rank": 51278,
        "rank_sort": 51530,
        "total": 2351
      },
      {
        "club_badge_src": null,
        "entry": 7081683,
        "entry_name": "wirtz case scenario",
        "event_total": 57,
        "has_played": true,
        "id": 57002417,
        "last_rank": 51984,
        "player_name": "Matthew Large",
        "rank": 51278,
        "rank_sort": 51531,
        "total": 2351
      },
      {
        "club_badge_src": null,
        "entry": 7293864,
        "entry_name": "sembang~",
        "event_total": 60,
        "has_played": true,
        "id": 59018839,
        "last_rank": 56708,
        "player_name": "syukri khalil",
        "rank": 51278,
        "rank_sort": 51532,
        "total": 2351
      },
      {
        "club_badge_src": null,
        "entry": 7367631,
        "entry_name": "pedro porridge",
        "event_total": 43,
        "has_played": true,
        "id": 59712875,
        "last_rank": 28726,
        "player_name": "joe jachim",
        "rank": 51278,
        "rank_sort": 51533,
        "total": 2351
      },
      {
        "club_badge_src": null,
        "entry": 7415319,
        "entry_name": "B@J",
        "event_total": 66,
        "has_played": true,
        "id": 60187362,
        "last_rank": 67063,
        "player_name": "ahmed Bajunaid",
        "rank": 51278,
        "rank_sort": 51534,
        "total": 2351
      },
      {
        "club_badge_src": null,
        "entry": 7476700,
        "entry_name": "Gy\u00f6keredet",
        "event_total": 68,
        "has_played": true,
        "id": 60980576,
        "last_rank": 71386,
        "player_name": "Ragnhild S\u00f8rl\u00f8kk Aas",
        "rank": 51278,
        "rank_sort": 51535,
        "total": 2351
      },
      {
        "club_badge_src": null,
        "entry": 7514775,
        "entry_name": "HolyMarry",
        "event_total": 41,
        "has_played": true,
        "id": 61456412,
        "last_rank": 31125,
        "player_name": "Erick Lesmana",
        "rank": 51278,
        "rank_sort": 51536,
        "total": 2351
      },
      {
        "club_badge_src": "https://fantasy.premierleague.com/gcs/plfpl-production-adobe-approved/plfpl-production/7569265/2a5c3fc4-e0b0-4283-8024-4242a62d749b.png",
        "entry": 7569265,
        "entry_name": "Sa'id",
        "event_total": 61,
        "has_played": true,
        "id": 61985531,
        "last_rank": 58388,
        "player_name": "Olaide 0x22x6",
        "rank": 51278,
        "rank_sort": 51537,
        "total": 2351
      },
      {
        "club_badge_src": null,
        "entry": 7627876,
        "entry_name": "Come on city",
        "event_total": 58,
        "has_played": true,
        "id": 62516821,
        "last_rank": 53023,
        "player_name": "Sunil Vaswani",
        "rank": 51278,
        "rank_sort": 51538,
        "total": 2351
      },
      {
        "club_badge_src": null,
        "entry": 7829029,
        "entry_name": "The Great One",
        "event_total": 61,
        "has_played": true,
        "id": 64336430,
        "last_rank": 51220,
        "player_name": "Jomil Ahmed",
        "rank": 51278,
        "rank_sort": 51539,
        "total": 2351
      },
      {
        "club_badge_src": null,
        "entry": 8037097,
        "entry_name": "reddevils_xi",
        "event_total": 53,
        "has_played": true,
        "id": 66220562,
        "last_rank": 45714,
        "player_name": "Ankit Thakkar",
        "rank": 51278,
        "rank_sort": 51540,
        "total": 2351
      },
      {
        "club_badge_src": null,
        "entry": 8194026,
        "entry_name": "BigG DulA FC",
        "event_total": 53,
        "has_played": true,
        "id": 67683579,
        "last_rank": 45714,
        "player_name": "Michael Bram-Larbi",
        "rank": 51278,
        "rank_sort": 51541,
        "total": 2351
      },
      {
        "club_badge_src": null,
        "entry": 8201189,
        "entry_name": "Frimpongy one that",
        "event_total": 40,
        "has_played": true,
        "id": 67751792,
        "last_rank": 29688,
        "player_name": "Tom Doyle",
        "rank": 51278,
        "rank_sort": 51542,
        "total": 2351
      },
      {
        "club_badge_src": null,
        "entry": 8322213,
        "entry_name": "ski blues",
        "event_total": 66,
        "has_played": true,
        "id": 68940422,
        "last_rank": 67422,
        "player_name": "Luke Watt",
        "rank": 51278,
        "rank_sort": 51543,
        "total": 2351
      },
      {
        "club_badge_src": "https://fantasy.premierleague.com/gcs/plfpl-production-adobe-approved/plfpl-production/8379139/4cd9d715-07c2-4fe7-bfe6-7aba36711a60.png",
        "entry": 8379139,
        "entry_name": "Wout there it is",
        "event_total": 65,
        "has_played": true,
        "id": 69482814,
        "last_rank": 65475,
        "player_name": "Connor McCourt",
        "rank": 51278,
        "rank_sort": 51544,
        "total": 2351
      },
      {
        "club_badge_src": null,
        "entry": 8429587,
        "entry_name": "Lucky FC",
        "event_total": 57,
        "has_played": true,
        "id": 69961003,
        "last_rank": 51403,
        "player_name": "Harrison Stapleton",
        "rank": 51278,
        "rank_sort": 51545,
        "total": 2351
      },
      {
        "club_badge_src": null,
        "entry": 8680460,
        "entry_name": "York City Reserves",
        "event_total": 66,
        "has_played": true,
        "id": 72388762,
        "last_rank": 67422,
        "player_name": "Alastair Geddes",
        "rank": 51278,
        "rank_sort": 51546,
        "total": 2351
      },
      {
        "club_badge_src": "https://fantasy.premierleague.com/gcs/plfpl-production-adobe-approved/plfpl-production/9002406/e8460a03-85f7-4efc-bf26-f047af69b186.png",
        "entry": 9002406,
        "entry_name": "Cunha feel it?",
        "event_total": 64,
        "has_played": true,
        "id": 75503725,
        "last_rank": 64005,
        "player_name": "Bernard Laidlaw",
        "rank": 51278,
        "rank_sort": 51547,
        "total": 2351
      },
      {
        "club_badge_src": null,
        "entry": 9190873,
        "entry_name": "BoysInGreen",
        "event_total": 63,
        "has_played": true,
        "id": 77344106,
        "last_rank": 62223,
        "player_name": "Aaron O'Toole",
        "rank": 51278,
        "rank_sort": 51548,
        "total": 2351
      },
      {
        "club_badge_src": null,
        "entry": 9199555,
        "entry_name": "LET'S BE HAVING YOU",
        "event_total": 31,
        "has_played": true,
        "id": 77429520,
        "last_rank": 18790,
        "player_name": "Jason Holmes",
        "rank": 51278,
        "rank_sort": 51549,
        "total": 2351
      },
      {
        "club_badge_src": "https://fantasy.premierleague.com/gcs/plfpl-production-adobe-approved/plfpl-production/1673/064a6839-943a-4d86-9b92-0df3c02a7379.png",
        "entry": 1673,
        "entry_name": "Gunner Invincibles",
        "event_total": 55,
        "has_played": true,
        "id": 9310,
        "last_rank": 42940,
        "player_name": "Marcus Chia",
        "rank": 51550,
        "rank_sort": 51550,
        "total": 2351
      }
    ]
  }
}