{
  "last_updated_data": "2026-05-24T23:28:17Z",
  "league": {
    "admin_entry": null,
    "closed": false,
    "code_privacy": "p",
    "created": "2025-07-20T23:14:33.933835Z",
    "cup_league": 2815434,
    "has_cup": true,
    "id": 314,
    "league_type": "s",
    "max_entries": null,
    "name": "Overall",
    "rank": null,
    "scoring": "c",
    "start_event": 1
  },
  "new_entries": {
    "has_next": false,
    "page": 1,
    "results": []
  },
  "standings": {
    "has_next": true,
    "page": 639,
    "results": [
      {
        "club_badge_src": null,
        "entry": 326532,
        "entry_name": "Great League! THX",
        "event_total": 52,
        "has_played": true,
        "id": 2187874,
        "last_rank": 26827,
        "player_name": "Dan Moran",
        "rank": 31853,
        "rank_sort": 31901,
        "total": 2366
      },
      {
        "club_badge_src": null,
        "entry": 338687,
        "entry_name": "Unbelievable Jeff",
        "event_total": 54,
        "has_played": true,
        "id": 2267399,
        "last_rank": 28609,
        "player_name": "Peter Coutts",
        "rank": 31853,
        "rank_sort": 31902,
        "total": 2366
      },
      {
        "club_badge_src": null,
        "entry": 374596,
        "entry_name": "Benburn Rovers",
        "event_total": 49,
        "has_played": true,
        "id": 2507227,
        "last_rank": 24143,
        "player_name": "Ben Thompson",
        "rank": 31853,
        "rank_sort": 31903,
        "total": 2366
      },
      {
        "club_badge_src": "https://fantasy.premierleague.com/gcs/plfpl-production-adobe-approved/plfpl-production/398037/18542809-2d46-4991-9920-b807d760f1f6.png",
        "entry": 398037,
        "entry_name": "worcshampton wonders",
        "event_total": 54,
        "has_played": true,
        "id": 2669203,
        "last_rank": 28609,
        "player_name": "Col Worcester",
        "rank": 31853,
        "rank_sort": 31904,
        "total": 2366
      },
      {
        "club_badge_src": null,
        "entry": 412862,
        "entry_name": "Isak and Destroy",
        "event_total": 48,
        "has_played": true,
        "id": 2768007,
        "last_rank": 23230,
        "player_name": "Seany Nugent",
        "rank": 31853,
        "rank_sort": 31905,
        "total": 2366
      },
      {
        "club_badge_src": "https://fantasy.premierleague.com/gcs/plfpl-production-adobe-approved/plfpl-production/426630/a90dbc37-b9a0-495f-a10b-0022dd883686.png",
        "entry": 426630,
        "entry_name": "Tesco McNeil deal",
        "event_total": 61,
        "has_played": true,
        "id": 2860454,
        "last_rank": 36200,
        "player_name": "Finley Bennett",
        "rank": 31853,
        "rank_sort": 31906,
        "total": 2366
      },
      {
        "club_badge_src": null,
        "entry": 474747,
        "entry_name": "Obi Wan Chidobi",
        "event_total": 65,
        "has_played": true,
        "id": 3187094,
        "last_rank": 41162,
        "player_name": "Matt Turega",
        "rank": 31853,
        "rank_sort": 31907,
        "total": 2366
      },
      {
        "club_badge_src": null,
        "entry": 484699,
        "entry_name": "Hotel? Thiago",
        "event_total": 59,
        "has_played": true,
        "id": 3253469,
        "last_rank": 33869,
        "player_name": "Joe Platt",
        "rank": 31853,
        "rank_sort": 31908,
        "total": 2366
      },
      {
        "club_badge_src": null,
        "entry": 485068,
        "entry_name": "Route One FC",
        "event_total": 52,
        "has_played": true,
        "id": 3255887,
        "last_rank": 26827,
        "player_name": "Emile Hudd",
        "rank": 31853,
        "rank_sort": 31909,
        "total": 2366
      },
      {
        "club_badge_src": null,
        "entry": 502103,
        "entry_name": "dababy",
        "event_total": 59,
        "has_played": true,
        "id": 3370093,
        "last_rank": 29578,
        "player_name": "Mahbub Masum",
        "rank": 31853,
        "rank_sort": 31910,
        "total": 2366
      },
      {
        "club_badge_src": null,
        "entry": 521511,
        "entry_name": "SakaLaFiera CF",
        "event_total": 52,
        "has_played": true,
        "id": 3502402,
        "last_rank": 27020,
        "player_name": "Nicolas Cordova",
        "rank": 31853,
        "rank_sort": 31911,
        "total": 2366
      },
      {
        "club_badge_src": null,
        "entry": 581582,
        "entry_name": "Power Reijnders",
        "event_total": 54,
        "has_played": true,
        "id": 3913954,
        "last_rank": 28726,
        "player_name": "Danny Lewis",
        "rank": 31853,
        "rank_sort": 31912,
        "total": 2366
      },
      {
        "club_badge_src": null,
        "entry": 600678,
        "entry_name": "fantace",
        "event_total": 50,
        "has_played": true,
        "id": 4052862,
        "last_rank": 25172,
        "player_name": "MD LUTFOR RAHMAN",
        "rank": 31853,
        "rank_sort": 31913,
        "total": 2366
      },
      {
        "club_badge_src": null,
        "entry": 624258,
        "entry_name": "Jims Giants",
        "event_total": 60,
        "has_played": true,
        "id": 4218623,
        "last_rank": 35166,
        "player_name": "James Porter",
        "rank": 31853,
        "rank_sort": 31914,
        "total": 2366
      },
      {
        "club_badge_src": "https://fantasy.premierleague.com/gcs/plfpl-production-adobe-approved/plfpl-production/661303/e0f390fb-cc19-42f9-a3b5-2c11bf4fe6d9.png",
        "entry": 661303,
        "entry_name": "Boyce's Boys",
        "event_total": 60,
        "has_played": true,
        "id": 4469645,
        "last_rank": 35166,
        "player_name": "Edward K",
        "rank": 31853,
        "rank_sort": 31915,
        "total": 2366
      },
      {
        "club_badge_src": null,
        "entry": 704856,
        "entry_name": "AC XI",
        "event_total": 72,
        "has_played": true,
        "id": 4776576,
        "last_rank": 51137,
        "player_name": "Alistair Clark",
        "rank": 31853,
        "rank_sort": 31916,
        "total": 2366
      },
      {
        "club_badge_src": null,
        "entry": 721853,
        "entry_name": "Bj\u00f6rnes Magasin",
        "event_total": 58,
        "has_played": true,
        "id": 4902196,
        "last_rank": 32688,
        "player_name": "Elwin Wangel",
        "rank": 31853,
        "rank_sort": 31917,
        "total": 2366
      },
      {
        "club_badge_src": null,
        "entry": 730181,
        "entry_name": "One Size Fits Hall",
        "event_total": 65,
        "has_played": true,
        "id": 4961430,
        "last_rank": 41324,
        "player_name": "Oliver Silver",
        "rank": 31853,
        "rank_sort": 31918,
        "total": 2366
      },
      {
        "club_badge_src": null,
        "entry": 763391,
        "entry_name": "hamay_zaman",
        "event_total": 71,
        "has_played": true,
        "id": 5206242,
        "last_rank": 49880,
        "player_name": "Hama Kurdi",
        "rank": 31853,
        "rank_sort": 31919,
        "total": 2366
      },
      {
        "club_badge_src": null,
        "entry": 770085,
        "entry_name": "Goneskies Utd",
        "event_total": 56,
        "has_played": true,
        "id": 5253291,
        "last_rank": 30727,
        "player_name": "Ryan Towle",
        "rank": 31853,
        "rank_sort": 31920,
        "total": 2366
      },
      {
        "club_badge_src": "https://fantasy.premierleague.com/gcs/plfpl-production-adobe-approved/plfpl-production/774736/409f92e5-3cff-4669-b354-ae26ca5efd70.png",
        "entry": 774736,
        "entry_name": "Ayeaha",
        "event_total": 37,
        "has_played": true,
        "id": 5286011,
        "last_rank": 15550,
        "player_name": "Charlotte Adams",
        "rank": 31853,
        "rank_sort": 31921,
        "total": 2366
      },
      {
        "club_badge_src": "https://fantasy.premierleague.com/gcs/plfpl-production-adobe-approved/plfpl-production/804008/d0abc9bd-208d-4af2-9997-8e5a6ac79877.png",
        "entry": 804008,
        "entry_name": "The Doctor Team 46",
        "event_total": 52,
        "has_played": true,
        "id": 5503747,
        "last_rank": 26827,
        "player_name": "H\u00e9lder Nunes Teixeira",
        "rank": 31853,
        "rank_sort": 31922,
        "total": 2366
      },
      {
        "club_badge_src": null,
        "entry": 857779,
        "entry_name": "Starboy Solaz",
        "event_total": 54,
        "has_played": true,
        "id": 5880112,
        "last_rank": 28726,
        "player_name": "Edward Solaz",
        "rank": 31853,
        "rank_sort": 31923,
        "total": 2366
      },
      {
        "club_badge_src": null,
        "entry": 939492,
        "entry_name": "Tartaruge",
        "event_total": 76,
        "has_played": true,
        "id": 6466174,
        "last_rank": 57857,
        "player_name": "Luka Del\u0161eno",
        "rank": 31853,
        "rank_sort": 31924,
        "total": 2366
      },
      {
        "club_badge_src": null,
        "entry": 948929,
        "entry_name": "L(ilje)FC",
        "event_total": 51,
        "has_played": true,
        "id": 6536616,
        "last_rank": 25902,
        "player_name": "Oscar Liljegrahn",
        "rank": 31853,
        "rank_sort": 31925,
        "total": 2366
      },
      {
        "club_badge_src": null,
        "entry": 950696,
        "entry_name": "Mind the Gap FC",
        "event_total": 61,
        "has_played": true,
        "id": 6549653,
        "last_rank": 36348,
        "player_name": "Jack Morley",
        "rank": 31853,
        "rank_sort": 31926,
        "total": 2366
      },
      {
        "club_badge_src": null,
        "entry": 954454,
        "entry_name": "To Haaland Back",
        "event_total": 73,
        "has_played": true,
        "id": 6576235,
        "last_rank": 52759,
        "player_name": "Nick Bayley",
        "rank": 31853,
        "rank_sort": 31927,
        "total": 2366
      },
      {
        "club_badge_src": null,
        "entry": 969562,
        "entry_name": "Hassla United",
        "event_total": 70,
        "has_played": true,
        "id": 6682512,
        "last_rank": 48197,
        "player_name": "Anton \u00c5kerblad",
        "rank": 31853,
        "rank_sort": 31928,
        "total": 2366
      },
      {
        "club_badge_src": "https://fantasy.premierleague.com/gcs/plfpl-production-adobe-approved/plfpl-production/997251/80b47b19-d81a-463a-81d9-d151b958bd35.png",
        "entry": 997251,
        "entry_name": "HaCUNHAMateta FC",
        "event_total": 46,
        "has_played": true,
        "id": 6888389,
        "last_rank": 21949,
        "player_name": "Martin Skogheim",
        "rank": 31853,
        "rank_sort": 31929,
        "total": 2366
      },
      {
        "club_badge_src": "https://fantasy.premierleague.com/gcs/plfpl-production-adobe-approved/plfpl-production/1005539/57b836f5-8c0c-478d-87d5-168ec6090158.png",
        "entry": 1005539,
        "entry_name": "Kristal Callus",
        "event_total": 42,
        "has_played": true,
        "id": 6951083,
        "last_rank": 18790,
        "player_name": "Hazel Burnett",
        "rank": 31853,
        "rank_sort": 31930,
        "total": 2366
      },
      {
        "club_badge_src": null,
        "entry": 1007136,
        "entry_name": "Starting XI",
        "event_total": 54,
        "has_played": true,
        "id": 6962836,
        "last_rank": 28546,
        "player_name": "Danijel Biki",
        "rank": 31853,
        "rank_sort": 31931,
        "total": 2366
      },
      {
        "club_badge_src": null,
        "entry": 1010331,
        "entry_name": "Anti AI Spurs",
        "event_total": 51,
        "has_played": true,
        "id": 6987014,
        "last_rank": 25776,
        "player_name": "Steven Gall",
        "rank": 31853,
        "rank_sort": 31932,
        "total": 2366
      },
      {
        "club_badge_src": null,
        "entry": 1136512,
        "entry_name": "joyboy3",
        "event_total": 71,
        "has_played": true,
        "id": 7878015,
        "last_rank": 49880,
        "player_name": "Hussein Abdulameer",
        "rank": 31853,
        "rank_sort": 31933,
        "total": 2366
      },
      {
        "club_badge_src": null,
        "entry": 1145236,
        "entry_name": "L&M \u2605",
        "event_total": 66,
        "has_played": true,
        "id": 7939481,
        "last_rank": 42648,
        "player_name": "Marko Maksimovic",
        "rank": 31853,
        "rank_sort": 31934,
        "total": 2366
      },
      {
        "club_badge_src": null,
        "entry": 1167123,
        "entry_name": "Hansi Flick a Switch",
        "event_total": 56,
        "has_played": true,
        "id": 8096186,
        "last_rank": 30600,
        "player_name": "Jerome Holland",
        "rank": 31853,
        "rank_sort": 31935,
        "total": 2366
      },
      {
        "club_badge_src": null,
        "entry": 1184339,
        "entry_name": "MiLtSu#9",
        "event_total": 59,
        "has_played": true,
        "id": 8217177,
        "last_rank": 33869,
        "player_name": "Mila Annunen",
        "rank": 31853,
        "rank_sort": 31936,
        "total": 2366
      },
      {
        "club_badge_src": null,
        "entry": 1211006,
        "entry_name": "Negative Noise",
        "event_total": 58,
        "has_played": true,
        "id": 8405480,
        "last_rank": 32751,
        "player_name": "Robbie Wilebore",
        "rank": 31853,
        "rank_sort": 31937,
        "total": 2366
      },
      {
        "club_badge_src": null,
        "entry": 1213537,
        "entry_name": "unbeatable",
        "event_total": 68,
        "has_played": true,
        "id": 8423209,
        "last_rank": 45182,
        "player_name": "mohamed nasr",
        "rank": 31853,
        "rank_sort": 31938,
        "total": 2366
      },
      {
        "club_badge_src": null,
        "entry": 1233389,
        "entry_name": "We'll Have A Look",
        "event_total": 66,
        "has_played": true,
        "id": 8564852,
        "last_rank": 42648,
        "player_name": "Simon Galvan",
        "rank": 31853,
        "rank_sort": 31939,
        "total": 2366
      },
      {
        "club_badge_src": null,
        "entry": 1256771,
        "entry_name": "I\u2019m a Baleba",
        "event_total": 77,
        "has_played": true,
        "id": 8729918,
        "last_rank": 60168,
        "player_name": "Rob Wood",
        "rank": 31853,
        "rank_sort": 31940,
        "total": 2366
      },
      {
        "club_badge_src": null,
        "entry": 1267513,
        "entry_name": "AKDarmi",
        "event_total": 68,
        "has_played": true,
        "id": 8806823,
        "last_rank": 39874,
        "player_name": "Abdulaziz Aldarmi",
        "rank": 31853,
        "rank_sort": 31941,
        "total": 2366
      },
      {
        "club_badge_src": null,
        "entry": 1277827,
        "entry_name": "Cant Get Any Wirtz",
        "event_total": 72,
        "has_played": true,
        "id": 8879241,
        "last_rank": 51220,
        "player_name": "Ollie Lloyd",
        "rank": 31853,
        "rank_sort": 31942,
        "total": 2366
      },
      {
        "club_badge_src": null,
        "entry": 1288425,
        "entry_name": "Malaminey",
        "event_total": 65,
        "has_played": true,
        "id": 8952949,
        "last_rank": 41162,
        "player_name": "Mert Ozdemir",
        "rank": 31853,
        "rank_sort": 31943,
        "total": 2366
      },
      {
        "club_badge_src": "https://fantasy.premierleague.com/gcs/plfpl-production-adobe-approved/plfpl-production/1335970/3f182737-9566-4ed0-9c85-c7251fca9288.png",
        "entry": 1335970,
        "entry_name": "Fortress Knights",
        "event_total": 65,
        "has_played": true,
        "id": 9286330,
        "last_rank": 41162,
        "player_name": "Roee Lotan",
        "rank": 31853,
        "rank_sort": 31944,
        "total": 2366
      },
      {
        "club_badge_src": null,
        "entry": 1340745,
        "entry_name": "Nirvana FC",
        "event_total": 59,
        "has_played": true,
        "id": 9321390,
        "last_rank": 34051,
        "player_name": "Ladi B",
        "rank": 31853,
        "rank_sort": 31945,
        "total": 2366
      },
      {
        "club_badge_src": null,
        "entry": 1466528,
        "entry_name": "Nsbk94",
        "event_total": 73,
        "has_played": true,
        "id": 10222353,
        "last_rank": 52853,
        "player_name": "Sass J\u00fcrgens",
        "rank": 31853,
        "rank_sort": 31946,
        "total": 2366
      },
      {
        "club_badge_src": null,
        "entry": 1470838,
        "entry_name": "I Baleba Can Fly",
        "event_total": 53,
        "has_played": true,
        "id": 10252525,
        "last_rank": 27770,
        "player_name": "Steve Pizarcoff",
        "rank": 31853,
        "rank_sort": 31947,
        "total": 2366
      },
      {
        "club_badge_src": null,
        "entry": 1474368,
        "entry_name": "R",
        "event_total": 44,
        "has_played": true,
        "id": 10277163,
        "last_rank": 20416,
        "player_name": "Rhys David",
        "rank": 31853,
        "rank_sort": 31948,
        "total": 2366
      },
      {
        "club_badge_src": null,
        "entry": 1500009,
        "entry_name": "Hammer Time",
        "event_total": 59,
        "has_played": true,
        "id": 10460833,
        "last_rank": 34051,
        "player_name": "Steve Wynn",
        "rank": 31853,
        "rank_sort": 31949,
        "total": 2366
      },
      {
        "club_badge_src": null,
        "entry": 1544862,
        "entry_name": "Tissier Chi",
        "event_total": 56,
        "has_played": true,
        "id": 10783856,
        "last_rank": 30727,
        "player_name": "Tissier Chi",
        "rank": 31853,
        "rank_sort": 31950,
        "total": 2366
      }
    ]
  }
}