{
  "last_updated_data": "2026-05-24T23:28:17Z",
  "league": {
    "admin_entry": null,
    "closed": false,
    "code_privacy": "p",
    "created": "2025-07-20T23:14:33.933835Z",
    "cup_league": 2815434,
    "has_cup": true,
    "id": 314,
    "league_type": "s",
    "max_entries": null,
    "name": "Overall",
    "rank": null,
    "scoring": "c",
    "start_event": 1
  },
  "new_entries": {
    "has_next": false,
    "page": 1,
    "results": []
  },
  "standings": {
    "has_next": true,
    "page": 1041,
    "results": [
      {
        "club_badge_src": null,
        "entry": 7299686,
        "entry_name": "Orange Machine",
        "event_total": 69,
        "has_played": true,
        "id": 59073611,
        "last_rank": 74166,
        "player_name": "john vos",
        "rank": 51918,
        "rank_sort": 52001,
        "total": 2351
      },
      {
        "club_badge_src": null,
        "entry": 7740941,
        "entry_name": "CETEO",
        "event_total": 48,
        "has_played": true,
        "id": 63539402,
        "last_rank": 39510,
        "player_name": "Bader ZZZ",
        "rank": 51918,
        "rank_sort": 52002,
        "total": 2351
      },
      {
        "club_badge_src": null,
        "entry": 7865141,
        "entry_name": "Shaw and order",
        "event_total": 55,
        "has_played": true,
        "id": 64669701,
        "last_rank": 43342,
        "player_name": "Jenny Dolven",
        "rank": 51918,
        "rank_sort": 52003,
        "total": 2351
      },
      {
        "club_badge_src": null,
        "entry": 8149470,
        "entry_name": "GIVE ME PL PLEASE",
        "event_total": 50,
        "has_played": true,
        "id": 67263937,
        "last_rank": 42152,
        "player_name": "Kaif Lais",
        "rank": 51918,
        "rank_sort": 52004,
        "total": 2351
      },
      {
        "club_badge_src": null,
        "entry": 8339904,
        "entry_name": "Ballers FC",
        "event_total": 53,
        "has_played": true,
        "id": 69107483,
        "last_rank": 46236,
        "player_name": "Sihle Motha",
        "rank": 51918,
        "rank_sort": 52005,
        "total": 2351
      },
      {
        "club_badge_src": null,
        "entry": 8536638,
        "entry_name": "Beeeeekri beeeekri",
        "event_total": 57,
        "has_played": true,
        "id": 70990192,
        "last_rank": 52357,
        "player_name": "Billel Azzouz",
        "rank": 51918,
        "rank_sort": 52006,
        "total": 2351
      },
      {
        "club_badge_src": null,
        "entry": 8670419,
        "entry_name": "unitedfreakz",
        "event_total": 57,
        "has_played": true,
        "id": 72291273,
        "last_rank": 52205,
        "player_name": "Vikry A.R.",
        "rank": 51918,
        "rank_sort": 52007,
        "total": 2351
      },
      {
        "club_badge_src": null,
        "entry": 9325574,
        "entry_name": "MIGHTY ASHIQUE V2",
        "event_total": 59,
        "has_played": true,
        "id": 78654836,
        "last_rank": 55659,
        "player_name": "Mushfiqur Rahman Ashique",
        "rank": 51918,
        "rank_sort": 52008,
        "total": 2351
      },
      {
        "club_badge_src": "https://fantasy.premierleague.com/gcs/plfpl-production-adobe-approved/plfpl-production/9452307/6a35be05-b04e-49ec-a8a2-f3a21cbb2d3d.png",
        "entry": 9452307,
        "entry_name": "Business As Usual",
        "event_total": 66,
        "has_played": true,
        "id": 79869832,
        "last_rank": 68107,
        "player_name": "Simamkele Mazwi",
        "rank": 51918,
        "rank_sort": 52009,
        "total": 2351
      },
      {
        "club_badge_src": null,
        "entry": 5964,
        "entry_name": "I Neroverdi",
        "event_total": 51,
        "has_played": true,
        "id": 34121,
        "last_rank": 38267,
        "player_name": "Sjors La Grouw",
        "rank": 52010,
        "rank_sort": 52010,
        "total": 2351
      },
      {
        "club_badge_src": "https://fantasy.premierleague.com/gcs/plfpl-production-adobe-approved/plfpl-production/20399/42838afa-2ee5-475c-b599-e36affd52855.png",
        "entry": 20399,
        "entry_name": "Red Devils FC",
        "event_total": 55,
        "has_played": true,
        "id": 127170,
        "last_rank": 43342,
        "player_name": "Runar Nyjordet Nadden",
        "rank": 52010,
        "rank_sort": 52011,
        "total": 2351
      },
      {
        "club_badge_src": null,
        "entry": 27585,
        "entry_name": "Wirtz Nightmare",
        "event_total": 51,
        "has_played": true,
        "id": 174403,
        "last_rank": 38267,
        "player_name": "Kieran Speight",
        "rank": 52010,
        "rank_sort": 52012,
        "total": 2351
      },
      {
        "club_badge_src": null,
        "entry": 31136,
        "entry_name": "Budrek FC",
        "event_total": 67,
        "has_played": true,
        "id": 197184,
        "last_rank": 62617,
        "player_name": "Erwin Oktama",
        "rank": 52010,
        "rank_sort": 52013,
        "total": 2351
      },
      {
        "club_badge_src": null,
        "entry": 31457,
        "entry_name": "Clueless FC",
        "event_total": 56,
        "has_played": true,
        "id": 199418,
        "last_rank": 44804,
        "player_name": "Jaime Emiaj",
        "rank": 52010,
        "rank_sort": 52014,
        "total": 2351
      },
      {
        "club_badge_src": null,
        "entry": 34563,
        "entry_name": "Yoro Wizard Harry!",
        "event_total": 67,
        "has_played": true,
        "id": 220825,
        "last_rank": 70183,
        "player_name": "Janam Muni",
        "rank": 52010,
        "rank_sort": 52015,
        "total": 2351
      },
      {
        "club_badge_src": null,
        "entry": 36018,
        "entry_name": "Ruben AnneRimmen",
        "event_total": 62,
        "has_played": true,
        "id": 230503,
        "last_rank": 53952,
        "player_name": "Tomas Bekkemellem",
        "rank": 52010,
        "rank_sort": 52016,
        "total": 2351
      },
      {
        "club_badge_src": null,
        "entry": 36554,
        "entry_name": "West Sam United",
        "event_total": 64,
        "has_played": true,
        "id": 234029,
        "last_rank": 57358,
        "player_name": "Samuel Quinlan",
        "rank": 52010,
        "rank_sort": 52017,
        "total": 2351
      },
      {
        "club_badge_src": null,
        "entry": 42114,
        "entry_name": "McAwesomeville",
        "event_total": 58,
        "has_played": true,
        "id": 269889,
        "last_rank": 47722,
        "player_name": "Ted Dy",
        "rank": 52010,
        "rank_sort": 52018,
        "total": 2351
      },
      {
        "club_badge_src": null,
        "entry": 45271,
        "entry_name": "Blaugrana",
        "event_total": 66,
        "has_played": true,
        "id": 290377,
        "last_rank": 60827,
        "player_name": "Dimas Prasetiyo",
        "rank": 52010,
        "rank_sort": 52019,
        "total": 2351
      },
      {
        "club_badge_src": null,
        "entry": 74949,
        "entry_name": "Donegal XI",
        "event_total": 69,
        "has_played": true,
        "id": 487239,
        "last_rank": 74317,
        "player_name": "Tom Egan",
        "rank": 52010,
        "rank_sort": 52020,
        "total": 2351
      },
      {
        "club_badge_src": null,
        "entry": 109026,
        "entry_name": "BREAKING - BAD",
        "event_total": 65,
        "has_played": true,
        "id": 710769,
        "last_rank": 59077,
        "player_name": "Richard Gyamfi",
        "rank": 52010,
        "rank_sort": 52021,
        "total": 2351
      },
      {
        "club_badge_src": "https://fantasy.premierleague.com/gcs/plfpl-production-adobe-approved/plfpl-production/124266/9ee398e7-8c7c-43b8-9d49-f87322ee3d9d.png",
        "entry": 124266,
        "entry_name": "BeetleJuice United",
        "event_total": 57,
        "has_played": true,
        "id": 810514,
        "last_rank": 52461,
        "player_name": "Charlo Rittmann",
        "rank": 52010,
        "rank_sort": 52022,
        "total": 2351
      },
      {
        "club_badge_src": null,
        "entry": 124439,
        "entry_name": "LetsgoSesko",
        "event_total": 58,
        "has_played": true,
        "id": 811644,
        "last_rank": 54065,
        "player_name": "John McMahon",
        "rank": 52010,
        "rank_sort": 52023,
        "total": 2351
      },
      {
        "club_badge_src": null,
        "entry": 129716,
        "entry_name": "Eberechi Ezrah",
        "event_total": 63,
        "has_played": true,
        "id": 845386,
        "last_rank": 55659,
        "player_name": "David Carson",
        "rank": 52010,
        "rank_sort": 52024,
        "total": 2351
      },
      {
        "club_badge_src": "https://fantasy.premierleague.com/gcs/plfpl-production-adobe-approved/plfpl-production/220936/3fe4877c-6fb0-4849-99cf-7f492f62b994.png",
        "entry": 220936,
        "entry_name": "Fratpack",
        "event_total": 53,
        "has_played": true,
        "id": 1469430,
        "last_rank": 40770,
        "player_name": "Steven Mccrudden",
        "rank": 52010,
        "rank_sort": 52025,
        "total": 2351
      },
      {
        "club_badge_src": null,
        "entry": 223178,
        "entry_name": "FC Dannegs",
        "event_total": 74,
        "has_played": true,
        "id": 1484602,
        "last_rank": 85349,
        "player_name": "Daniel Grundstr\u00f6m",
        "rank": 52010,
        "rank_sort": 52026,
        "total": 2351
      },
      {
        "club_badge_src": "https://fantasy.premierleague.com/gcs/plfpl-production-adobe-approved/plfpl-production/316945/ca88572a-a8ae-4bd5-a15d-27c4d7c169a8.png",
        "entry": 316945,
        "entry_name": "Avengers FC",
        "event_total": 52,
        "has_played": true,
        "id": 2124417,
        "last_rank": 44882,
        "player_name": "Mike Gware",
        "rank": 52010,
        "rank_sort": 52027,
        "total": 2351
      },
      {
        "club_badge_src": null,
        "entry": 317991,
        "entry_name": "Abdullah",
        "event_total": 69,
        "has_played": true,
        "id": 2131544,
        "last_rank": 66200,
        "player_name": "Abdullah Alhowaymel",
        "rank": 52010,
        "rank_sort": 52028,
        "total": 2351
      },
      {
        "club_badge_src": null,
        "entry": 419888,
        "entry_name": "Clyne Of Duty",
        "event_total": 64,
        "has_played": true,
        "id": 2814107,
        "last_rank": 64319,
        "player_name": "Kevin Hyldon",
        "rank": 52010,
        "rank_sort": 52029,
        "total": 2351
      },
      {
        "club_badge_src": null,
        "entry": 468966,
        "entry_name": "ELGRAFT Bydgoszcz",
        "event_total": 66,
        "has_played": true,
        "id": 3147553,
        "last_rank": 68216,
        "player_name": "Marek Jerzynski",
        "rank": 52010,
        "rank_sort": 52030,
        "total": 2351
      },
      {
        "club_badge_src": "https://fantasy.premierleague.com/gcs/plfpl-production-adobe-approved/plfpl-production/480645/dd492e39-daff-4e39-9354-6362d6db34e1.png",
        "entry": 480645,
        "entry_name": "als3eed72",
        "event_total": 78,
        "has_played": true,
        "id": 3226913,
        "last_rank": 94537,
        "player_name": "yousef alsaeed",
        "rank": 52010,
        "rank_sort": 52031,
        "total": 2351
      },
      {
        "club_badge_src": null,
        "entry": 542485,
        "entry_name": "Obi 1 Kenobi 0",
        "event_total": 52,
        "has_played": true,
        "id": 3651129,
        "last_rank": 44882,
        "player_name": "Ryan Lynch",
        "rank": 52010,
        "rank_sort": 52032,
        "total": 2351
      },
      {
        "club_badge_src": null,
        "entry": 730565,
        "entry_name": "All Out Attack",
        "event_total": 58,
        "has_played": true,
        "id": 4964080,
        "last_rank": 53952,
        "player_name": "Anderson A.",
        "rank": 52010,
        "rank_sort": 52033,
        "total": 2351
      },
      {
        "club_badge_src": "https://fantasy.premierleague.com/gcs/plfpl-production-adobe-approved/plfpl-production/834648/c33f9606-a8fa-4a77-bc41-012008235a85.png",
        "entry": 834648,
        "entry_name": "Not the Wirtz team",
        "event_total": 63,
        "has_played": true,
        "id": 5717349,
        "last_rank": 62617,
        "player_name": "Trevor Norman",
        "rank": 52010,
        "rank_sort": 52034,
        "total": 2351
      },
      {
        "club_badge_src": null,
        "entry": 969487,
        "entry_name": "James bond 007",
        "event_total": 62,
        "has_played": true,
        "id": 6681959,
        "last_rank": 60933,
        "player_name": "RIHAM ANTU\ud83c\udde7\ud83c\udde9",
        "rank": 52010,
        "rank_sort": 52035,
        "total": 2351
      },
      {
        "club_badge_src": null,
        "entry": 988326,
        "entry_name": "Mistry FC",
        "event_total": 60,
        "has_played": true,
        "id": 6814729,
        "last_rank": 57001,
        "player_name": "Nimesh Mistry",
        "rank": 52010,
        "rank_sort": 52036,
        "total": 2351
      },
      {
        "club_badge_src": null,
        "entry": 989053,
        "entry_name": "GodtNok United",
        "event_total": 56,
        "has_played": true,
        "id": 6819770,
        "last_rank": 50848,
        "player_name": "Johan Christopher Karlseng",
        "rank": 52010,
        "rank_sort": 52037,
        "total": 2351
      },
      {
        "club_badge_src": null,
        "entry": 1051178,
        "entry_name": "Goal Hole FC",
        "event_total": 59,
        "has_played": true,
        "id": 7274791,
        "last_rank": 55514,
        "player_name": "Luke Allaway",
        "rank": 52010,
        "rank_sort": 52038,
        "total": 2351
      },
      {
        "club_badge_src": null,
        "entry": 1120415,
        "entry_name": "Earth Wind & Maguire",
        "event_total": 66,
        "has_played": true,
        "id": 7762190,
        "last_rank": 68216,
        "player_name": "Grayson Ford",
        "rank": 52010,
        "rank_sort": 52039,
        "total": 2351
      },
      {
        "club_badge_src": null,
        "entry": 1183582,
        "entry_name": "free Gaza FC",
        "event_total": 49,
        "has_played": true,
        "id": 8212018,
        "last_rank": 40832,
        "player_name": "mohamed amine djama",
        "rank": 52010,
        "rank_sort": 52040,
        "total": 2351
      },
      {
        "club_badge_src": null,
        "entry": 1189510,
        "entry_name": "Alisson Wonderland",
        "event_total": 73,
        "has_played": true,
        "id": 8253529,
        "last_rank": 65475,
        "player_name": "Danny Walsh",
        "rank": 52010,
        "rank_sort": 52041,
        "total": 2351
      },
      {
        "club_badge_src": null,
        "entry": 1192988,
        "entry_name": "Bakr",
        "event_total": 70,
        "has_played": true,
        "id": 8277383,
        "last_rank": 60671,
        "player_name": "Mohamed Bakr",
        "rank": 52010,
        "rank_sort": 52042,
        "total": 2351
      },
      {
        "club_badge_src": null,
        "entry": 1200929,
        "entry_name": "MSN",
        "event_total": 61,
        "has_played": true,
        "id": 8333888,
        "last_rank": 59077,
        "player_name": "Abdullah Almea",
        "rank": 52010,
        "rank_sort": 52043,
        "total": 2351
      },
      {
        "club_badge_src": null,
        "entry": 1205307,
        "entry_name": "The Top Reds",
        "event_total": 53,
        "has_played": true,
        "id": 8364487,
        "last_rank": 46236,
        "player_name": "Paul Crichton",
        "rank": 52010,
        "rank_sort": 52044,
        "total": 2351
      },
      {
        "club_badge_src": null,
        "entry": 1616579,
        "entry_name": "Kinder Mbuemo",
        "event_total": 77,
        "has_played": true,
        "id": 11311700,
        "last_rank": 92126,
        "player_name": "Steven Wigg",
        "rank": 52010,
        "rank_sort": 52045,
        "total": 2351
      },
      {
        "club_badge_src": "https://fantasy.premierleague.com/gcs/plfpl-production-adobe-approved/plfpl-production/1982799/ed67b352-35bf-4572-8b45-29374351c85b.png",
        "entry": 1982799,
        "entry_name": "Too Cole To Die",
        "event_total": 62,
        "has_played": true,
        "id": 14004979,
        "last_rank": 53952,
        "player_name": "mohit mainikar",
        "rank": 52010,
        "rank_sort": 52046,
        "total": 2351
      },
      {
        "club_badge_src": null,
        "entry": 2169537,
        "entry_name": "Real Cromer FC",
        "event_total": 65,
        "has_played": true,
        "id": 15425315,
        "last_rank": 52205,
        "player_name": "benoit james",
        "rank": 52010,
        "rank_sort": 52047,
        "total": 2351
      },
      {
        "club_badge_src": null,
        "entry": 2173368,
        "entry_name": "Shocker in Gloomtown",
        "event_total": 59,
        "has_played": true,
        "id": 15453844,
        "last_rank": 49207,
        "player_name": "David McKelvey",
        "rank": 52010,
        "rank_sort": 52048,
        "total": 2351
      },
      {
        "club_badge_src": null,
        "entry": 2237170,
        "entry_name": "Team Trangerudbakken",
        "event_total": 61,
        "has_played": true,
        "id": 15937537,
        "last_rank": 59170,
        "player_name": "Magne Tumanjan Trangerud",
        "rank": 52010,
        "rank_sort": 52049,
        "total": 2351
      },
      {
        "club_badge_src": null,
        "entry": 2421683,
        "entry_name": "Das Elf",
        "event_total": 53,
        "has_played": true,
        "id": 17313625,
        "last_rank": 46313,
        "player_name": "Mike Arefe",
        "rank": 52010,
        "rank_sort": 52050,
        "total": 2351
      }
    ]
  }
}