{
  "last_updated_data": "2026-05-24T23:28:17Z",
  "league": {
    "admin_entry": null,
    "closed": false,
    "code_privacy": "p",
    "created": "2025-07-20T23:14:33.933835Z",
    "cup_league": 2815434,
    "has_cup": true,
    "id": 314,
    "league_type": "s",
    "max_entries": null,
    "name": "Overall",
    "rank": null,
    "scoring": "c",
    "start_event": 1
  },
  "new_entries": {
    "has_next": false,
    "page": 1,
    "results": []
  },
  "standings": {
    "has_next": true,
    "page": 472,
    "results": [
      {
        "club_badge_src": null,
        "entry": 6273790,
        "entry_name": "Ullobie",
        "event_total": 53,
        "has_played": true,
        "id": 49680667,
        "last_rank": 14785,
        "player_name": "Owen Benwell",
        "rank": 23547,
        "rank_sort": 23551,
        "total": 2376
      },
      {
        "club_badge_src": null,
        "entry": 70707,
        "entry_name": "Tesco Mcneil Deal",
        "event_total": 65,
        "has_played": true,
        "id": 459175,
        "last_rank": 30456,
        "player_name": "Ryan Cook",
        "rank": 23552,
        "rank_sort": 23552,
        "total": 2376
      },
      {
        "club_badge_src": null,
        "entry": 1193077,
        "entry_name": "REDZONE",
        "event_total": 64,
        "has_played": true,
        "id": 8278010,
        "last_rank": 29443,
        "player_name": "D Ndlovu",
        "rank": 23552,
        "rank_sort": 23553,
        "total": 2376
      },
      {
        "club_badge_src": "https://fantasy.premierleague.com/gcs/plfpl-production-adobe-approved/plfpl-production/1296781/8b2aa2a7-0976-41d5-9ec8-3348085cb546.png",
        "entry": 1296781,
        "entry_name": "Mahmoud Cataloni \u2764\ufe0f\ufffd",
        "event_total": 67,
        "has_played": true,
        "id": 9012689,
        "last_rank": 28485,
        "player_name": "Mahmoud\ud83c\uddf9\ud83c\uddf3\ud83c\uddf5\ud83c\uddf8 Derbel",
        "rank": 23552,
        "rank_sort": 23554,
        "total": 2376
      },
      {
        "club_badge_src": "https://fantasy.premierleague.com/gcs/plfpl-production-adobe-approved/plfpl-production/3520328/5594d771-2d6f-48e7-b700-f9accf5b1cf8.png",
        "entry": 3520328,
        "entry_name": "The Gnon-stoppables",
        "event_total": 51,
        "has_played": true,
        "id": 26197778,
        "last_rank": 18618,
        "player_name": "Chris Bolton",
        "rank": 23552,
        "rank_sort": 23555,
        "total": 2376
      },
      {
        "club_badge_src": "https://fantasy.premierleague.com/gcs/plfpl-production-adobe-approved/plfpl-production/67739/9b897e0f-8379-4b8e-884e-18457c4cf413.png",
        "entry": 67739,
        "entry_name": "HandsomeBoisXI",
        "event_total": 64,
        "has_played": true,
        "id": 438646,
        "last_rank": 22342,
        "player_name": "Harry Dixon",
        "rank": 23556,
        "rank_sort": 23556,
        "total": 2376
      },
      {
        "club_badge_src": null,
        "entry": 1451171,
        "entry_name": "Wykin Tuesday",
        "event_total": 78,
        "has_played": true,
        "id": 10111767,
        "last_rank": 46502,
        "player_name": "Samuel Cox",
        "rank": 23556,
        "rank_sort": 23557,
        "total": 2376
      },
      {
        "club_badge_src": null,
        "entry": 2481919,
        "entry_name": "SIKEREN",
        "event_total": 42,
        "has_played": true,
        "id": 17759241,
        "last_rank": 7936,
        "player_name": "Sumanto Wijaya",
        "rank": 23558,
        "rank_sort": 23558,
        "total": 2376
      },
      {
        "club_badge_src": null,
        "entry": 4522304,
        "entry_name": "The Firemen",
        "event_total": 56,
        "has_played": true,
        "id": 34489799,
        "last_rank": 19349,
        "player_name": "Sam Jones",
        "rank": 23558,
        "rank_sort": 23559,
        "total": 2376
      },
      {
        "club_badge_src": null,
        "entry": 8505570,
        "entry_name": "two face",
        "event_total": 84,
        "has_played": true,
        "id": 70691436,
        "last_rank": 33782,
        "player_name": "Yousef Mohammad",
        "rank": 23558,
        "rank_sort": 23560,
        "total": 2376
      },
      {
        "club_badge_src": "https://fantasy.premierleague.com/gcs/plfpl-production-adobe-approved/plfpl-production/1029109/880a4f39-f647-45e7-ac69-12fe5b14c247.png",
        "entry": 1029109,
        "entry_name": "HAMDITCH",
        "event_total": 69,
        "has_played": true,
        "id": 7120194,
        "last_rank": 30470,
        "player_name": "Mohamed Hamdi",
        "rank": 23561,
        "rank_sort": 23561,
        "total": 2376
      },
      {
        "club_badge_src": null,
        "entry": 3494735,
        "entry_name": "Half the World (a)",
        "event_total": 61,
        "has_played": true,
        "id": 25994142,
        "last_rank": 26604,
        "player_name": "C Johnson",
        "rank": 23562,
        "rank_sort": 23562,
        "total": 2375
      },
      {
        "club_badge_src": null,
        "entry": 3787600,
        "entry_name": "Hakuna Mateta",
        "event_total": 76,
        "has_played": true,
        "id": 28297427,
        "last_rank": 43726,
        "player_name": "Arlo Lunn",
        "rank": 23563,
        "rank_sort": 23563,
        "total": 2375
      },
      {
        "club_badge_src": null,
        "entry": 3837656,
        "entry_name": "Stillinittowinit",
        "event_total": 61,
        "has_played": true,
        "id": 28727005,
        "last_rank": 26607,
        "player_name": "Hans Erik Haukaas",
        "rank": 23564,
        "rank_sort": 23564,
        "total": 2375
      },
      {
        "club_badge_src": null,
        "entry": 7940440,
        "entry_name": "Kant\u00e9 Believe It",
        "event_total": 70,
        "has_played": true,
        "id": 65354738,
        "last_rank": 36085,
        "player_name": "Raph Dela Cruz",
        "rank": 23565,
        "rank_sort": 23565,
        "total": 2375
      },
      {
        "club_badge_src": null,
        "entry": 7710511,
        "entry_name": "Pie & Mascherano",
        "event_total": 67,
        "has_played": true,
        "id": 63265166,
        "last_rank": 32631,
        "player_name": "Matthew Elliott",
        "rank": 23566,
        "rank_sort": 23566,
        "total": 2375
      },
      {
        "club_badge_src": null,
        "entry": 2741199,
        "entry_name": "Alle Alle",
        "event_total": 53,
        "has_played": true,
        "id": 19786045,
        "last_rank": 20111,
        "player_name": "Let Me Cook",
        "rank": 23567,
        "rank_sort": 23567,
        "total": 2375
      },
      {
        "club_badge_src": null,
        "entry": 4559131,
        "entry_name": "Grass Cheeks fc",
        "event_total": 64,
        "has_played": true,
        "id": 34789088,
        "last_rank": 29471,
        "player_name": "Akhil Nambiar",
        "rank": 23568,
        "rank_sort": 23568,
        "total": 2375
      },
      {
        "club_badge_src": null,
        "entry": 4987794,
        "entry_name": "Dioufs Delivery",
        "event_total": 56,
        "has_played": true,
        "id": 38506211,
        "last_rank": 22356,
        "player_name": "George Mears",
        "rank": 23568,
        "rank_sort": 23569,
        "total": 2375
      },
      {
        "club_badge_src": null,
        "entry": 5713522,
        "entry_name": "KT63\u2019s Fenian Army",
        "event_total": 53,
        "has_played": true,
        "id": 44744436,
        "last_rank": 20116,
        "player_name": "Andrew Bastone",
        "rank": 23568,
        "rank_sort": 23570,
        "total": 2375
      },
      {
        "club_badge_src": null,
        "entry": 1491,
        "entry_name": "FPL Habibi",
        "event_total": 59,
        "has_played": true,
        "id": 8290,
        "last_rank": 21598,
        "player_name": "Varun Sharma",
        "rank": 23571,
        "rank_sort": 23571,
        "total": 2375
      },
      {
        "club_badge_src": null,
        "entry": 42226,
        "entry_name": "We\u2019ll have a Lookman",
        "event_total": 55,
        "has_played": true,
        "id": 270591,
        "last_rank": 21628,
        "player_name": "Edward Nabbs",
        "rank": 23571,
        "rank_sort": 23572,
        "total": 2375
      },
      {
        "club_badge_src": null,
        "entry": 69370,
        "entry_name": "DjSerky",
        "event_total": 55,
        "has_played": true,
        "id": 449912,
        "last_rank": 21628,
        "player_name": "Dylan Seirch",
        "rank": 23571,
        "rank_sort": 23573,
        "total": 2375
      },
      {
        "club_badge_src": null,
        "entry": 742934,
        "entry_name": "agents",
        "event_total": 75,
        "has_played": true,
        "id": 5053479,
        "last_rank": 42379,
        "player_name": "Deck .",
        "rank": 23571,
        "rank_sort": 23574,
        "total": 2375
      },
      {
        "club_badge_src": null,
        "entry": 1896470,
        "entry_name": "Sweet Caroline",
        "event_total": 52,
        "has_played": true,
        "id": 13367425,
        "last_rank": 19392,
        "player_name": "Marc Hall",
        "rank": 23571,
        "rank_sort": 23575,
        "total": 2375
      },
      {
        "club_badge_src": null,
        "entry": 2115934,
        "entry_name": "john obi wan kenobi",
        "event_total": 67,
        "has_played": true,
        "id": 15026868,
        "last_rank": 32647,
        "player_name": "George Jameson",
        "rank": 23571,
        "rank_sort": 23576,
        "total": 2375
      },
      {
        "club_badge_src": null,
        "entry": 3328371,
        "entry_name": "Feldt Stars",
        "event_total": 59,
        "has_played": true,
        "id": 24676866,
        "last_rank": 24817,
        "player_name": "Patrik Feldt",
        "rank": 23571,
        "rank_sort": 23577,
        "total": 2375
      },
      {
        "club_badge_src": null,
        "entry": 4027816,
        "entry_name": "Shooting Hoops",
        "event_total": 67,
        "has_played": true,
        "id": 30362519,
        "last_rank": 32688,
        "player_name": "Ben Hughes",
        "rank": 23571,
        "rank_sort": 23578,
        "total": 2375
      },
      {
        "club_badge_src": null,
        "entry": 4519751,
        "entry_name": "Freyz Beyz",
        "event_total": 53,
        "has_played": true,
        "id": 34468575,
        "last_rank": 20131,
        "player_name": "Freya Kitt",
        "rank": 23571,
        "rank_sort": 23579,
        "total": 2375
      },
      {
        "club_badge_src": null,
        "entry": 5778880,
        "entry_name": "ACM",
        "event_total": 41,
        "has_played": true,
        "id": 45314175,
        "last_rank": 12608,
        "player_name": "Marko Misovic",
        "rank": 23571,
        "rank_sort": 23580,
        "total": 2375
      },
      {
        "club_badge_src": null,
        "entry": 5959486,
        "entry_name": "xxbiwd",
        "event_total": 73,
        "has_played": true,
        "id": 46882947,
        "last_rank": 39755,
        "player_name": "Elias Lindstr\u00f6m",
        "rank": 23571,
        "rank_sort": 23581,
        "total": 2375
      },
      {
        "club_badge_src": null,
        "entry": 7403992,
        "entry_name": "Jet Black Hair",
        "event_total": 63,
        "has_played": true,
        "id": 60051183,
        "last_rank": 24812,
        "player_name": "SuNom Bawa",
        "rank": 23571,
        "rank_sort": 23582,
        "total": 2375
      },
      {
        "club_badge_src": null,
        "entry": 8009784,
        "entry_name": "Kick_your_heart_out",
        "event_total": 50,
        "has_played": true,
        "id": 65971818,
        "last_rank": 17989,
        "player_name": "Rakesh Polinnaya",
        "rank": 23571,
        "rank_sort": 23583,
        "total": 2375
      },
      {
        "club_badge_src": null,
        "entry": 9006418,
        "entry_name": "skldjf",
        "event_total": 57,
        "has_played": true,
        "id": 75542248,
        "last_rank": 23188,
        "player_name": "Steffan Jones",
        "rank": 23571,
        "rank_sort": 23584,
        "total": 2375
      },
      {
        "club_badge_src": null,
        "entry": 15530,
        "entry_name": "Ha-Cunha Matata",
        "event_total": 44,
        "has_played": true,
        "id": 95365,
        "last_rank": 14251,
        "player_name": "Ryan Connaughton",
        "rank": 23585,
        "rank_sort": 23585,
        "total": 2375
      },
      {
        "club_badge_src": null,
        "entry": 31211,
        "entry_name": "Dunk in donuts",
        "event_total": 57,
        "has_played": true,
        "id": 197719,
        "last_rank": 23164,
        "player_name": "S K",
        "rank": 23585,
        "rank_sort": 23586,
        "total": 2375
      },
      {
        "club_badge_src": null,
        "entry": 293288,
        "entry_name": "Kudusonthename",
        "event_total": 51,
        "has_played": true,
        "id": 1957666,
        "last_rank": 18691,
        "player_name": "Linus Assarsson",
        "rank": 23585,
        "rank_sort": 23587,
        "total": 2375
      },
      {
        "club_badge_src": null,
        "entry": 563747,
        "entry_name": "Gana Del Rey",
        "event_total": 57,
        "has_played": true,
        "id": 3794512,
        "last_rank": 23188,
        "player_name": "Greg Colburn",
        "rank": 23585,
        "rank_sort": 23588,
        "total": 2375
      },
      {
        "club_badge_src": null,
        "entry": 1057967,
        "entry_name": "Reijnders Keepers",
        "event_total": 67,
        "has_played": true,
        "id": 7321735,
        "last_rank": 32647,
        "player_name": "Mohammed Haroon",
        "rank": 23585,
        "rank_sort": 23589,
        "total": 2375
      },
      {
        "club_badge_src": null,
        "entry": 1293202,
        "entry_name": "KING EDDIE",
        "event_total": 62,
        "has_played": true,
        "id": 8986360,
        "last_rank": 27585,
        "player_name": "Ed Tribe",
        "rank": 23585,
        "rank_sort": 23590,
        "total": 2375
      },
      {
        "club_badge_src": null,
        "entry": 1423480,
        "entry_name": "Som Lakhani",
        "event_total": 44,
        "has_played": true,
        "id": 9914928,
        "last_rank": 14292,
        "player_name": "Som Lakhani",
        "rank": 23585,
        "rank_sort": 23591,
        "total": 2375
      },
      {
        "club_badge_src": "https://fantasy.premierleague.com/gcs/plfpl-production-adobe-approved/plfpl-production/2759218/49ec252f-9834-4775-a489-f615e7cf3a0b.png",
        "entry": 2759218,
        "entry_name": "Los Lobotomeros",
        "event_total": 46,
        "has_played": true,
        "id": 20126374,
        "last_rank": 15416,
        "player_name": "Oskar Magnusson",
        "rank": 23585,
        "rank_sort": 23592,
        "total": 2375
      },
      {
        "club_badge_src": null,
        "entry": 3511241,
        "entry_name": "Cunha Believe It",
        "event_total": 60,
        "has_played": true,
        "id": 26126635,
        "last_rank": 25776,
        "player_name": "Tony Wilkinson",
        "rank": 23585,
        "rank_sort": 23593,
        "total": 2375
      },
      {
        "club_badge_src": null,
        "entry": 4063860,
        "entry_name": "FC KIISKINM\u00c4KI",
        "event_total": 54,
        "has_played": true,
        "id": 30669044,
        "last_rank": 20853,
        "player_name": "Aleksi Latvanen",
        "rank": 23585,
        "rank_sort": 23594,
        "total": 2375
      },
      {
        "club_badge_src": "https://fantasy.premierleague.com/gcs/plfpl-production-adobe-approved/plfpl-production/4270760/575971b1-46bb-4ce1-96d7-1f82840ea978.png",
        "entry": 4270760,
        "entry_name": "Could be Wirtz",
        "event_total": 50,
        "has_played": true,
        "id": 32385795,
        "last_rank": 17989,
        "player_name": "Paul Butterworth",
        "rank": 23585,
        "rank_sort": 23595,
        "total": 2375
      },
      {
        "club_badge_src": null,
        "entry": 4884103,
        "entry_name": "Cnoc a Choiligh",
        "event_total": 68,
        "has_played": true,
        "id": 37653438,
        "last_rank": 33845,
        "player_name": "Rena McCarron Rooney",
        "rank": 23585,
        "rank_sort": 23596,
        "total": 2375
      },
      {
        "club_badge_src": null,
        "entry": 4983350,
        "entry_name": "All Stars",
        "event_total": 59,
        "has_played": true,
        "id": 38470490,
        "last_rank": 24897,
        "player_name": "Davy Klaassen",
        "rank": 23585,
        "rank_sort": 23597,
        "total": 2375
      },
      {
        "club_badge_src": null,
        "entry": 5070892,
        "entry_name": "vamos",
        "event_total": 74,
        "has_played": true,
        "id": 39187806,
        "last_rank": 41073,
        "player_name": "Oyedele Michael",
        "rank": 23585,
        "rank_sort": 23598,
        "total": 2375
      },
      {
        "club_badge_src": null,
        "entry": 5250787,
        "entry_name": "Aryans Tigers",
        "event_total": 68,
        "has_played": true,
        "id": 40694846,
        "last_rank": 33827,
        "player_name": "Ravi Dudala",
        "rank": 23585,
        "rank_sort": 23599,
        "total": 2375
      },
      {
        "club_badge_src": null,
        "entry": 5812586,
        "entry_name": "Bencie Utd",
        "event_total": 47,
        "has_played": true,
        "id": 45609101,
        "last_rank": 16062,
        "player_name": "JC Bence",
        "rank": 23585,
        "rank_sort": 23600,
        "total": 2375
      }
    ]
  }
}