{
  "last_updated_data": "2026-05-24T23:28:17Z",
  "league": {
    "admin_entry": null,
    "closed": false,
    "code_privacy": "p",
    "created": "2025-07-20T23:14:33.933835Z",
    "cup_league": 2815434,
    "has_cup": true,
    "id": 314,
    "league_type": "s",
    "max_entries": null,
    "name": "Overall",
    "rank": null,
    "scoring": "c",
    "start_event": 1
  },
  "new_entries": {
    "has_next": false,
    "page": 1,
    "results": []
  },
  "standings": {
    "has_next": true,
    "page": 1469,
    "results": [
      {
        "club_badge_src": null,
        "entry": 5585925,
        "entry_name": "COYR",
        "event_total": 62,
        "has_played": true,
        "id": 43634432,
        "last_rank": 85811,
        "player_name": "David Taylor",
        "rank": 73398,
        "rank_sort": 73401,
        "total": 2338
      },
      {
        "club_badge_src": null,
        "entry": 9451046,
        "entry_name": "TBD",
        "event_total": 77,
        "has_played": true,
        "id": 79857907,
        "last_rank": 125773,
        "player_name": "Reed Williams",
        "rank": 73398,
        "rank_sort": 73402,
        "total": 2338
      },
      {
        "club_badge_src": null,
        "entry": 1136,
        "entry_name": "Rubber Digne Rapids",
        "event_total": 62,
        "has_played": true,
        "id": 6311,
        "last_rank": 85836,
        "player_name": "Louis Hoghton",
        "rank": 73403,
        "rank_sort": 73403,
        "total": 2338
      },
      {
        "club_badge_src": null,
        "entry": 415641,
        "entry_name": "Reijnders Keepers",
        "event_total": 60,
        "has_played": true,
        "id": 2786379,
        "last_rank": 81244,
        "player_name": "Josh Hawtin",
        "rank": 73403,
        "rank_sort": 73404,
        "total": 2338
      },
      {
        "club_badge_src": "https://fantasy.premierleague.com/gcs/plfpl-production-adobe-approved/plfpl-production/1295628/93270842-daa9-464f-9b74-9c3d0dbbdc68.png",
        "entry": 1295628,
        "entry_name": "Buck Buck Goose CF",
        "event_total": 61,
        "has_played": true,
        "id": 9004354,
        "last_rank": 83485,
        "player_name": "Jonathon Buck",
        "rank": 73403,
        "rank_sort": 73405,
        "total": 2338
      },
      {
        "club_badge_src": null,
        "entry": 2008121,
        "entry_name": "Wataru Wa Star",
        "event_total": 38,
        "has_played": true,
        "id": 14198630,
        "last_rank": 42401,
        "player_name": "Joon Kim",
        "rank": 73403,
        "rank_sort": 73406,
        "total": 2338
      },
      {
        "club_badge_src": "https://fantasy.premierleague.com/gcs/plfpl-production-adobe-approved/plfpl-production/2229758/df9c71de-6ebf-495e-999a-554bd0777c7c.png",
        "entry": 2229758,
        "entry_name": "Bruno Dos Tres",
        "event_total": 64,
        "has_played": true,
        "id": 15884400,
        "last_rank": 90504,
        "player_name": "James Weebull",
        "rank": 73403,
        "rank_sort": 73407,
        "total": 2338
      },
      {
        "club_badge_src": null,
        "entry": 2234229,
        "entry_name": "Dg. Jokka FC",
        "event_total": 46,
        "has_played": true,
        "id": 15916715,
        "last_rank": 54380,
        "player_name": "yaya jo",
        "rank": 73403,
        "rank_sort": 73408,
        "total": 2338
      },
      {
        "club_badge_src": "https://fantasy.premierleague.com/gcs/plfpl-production-adobe-approved/plfpl-production/2261311/592129fb-d1a7-4115-b300-9f244ed2a560.png",
        "entry": 2261311,
        "entry_name": "GvardiolsOfTheGalaxy",
        "event_total": 56,
        "has_played": true,
        "id": 16122296,
        "last_rank": 72622,
        "player_name": "Emily Madgwick",
        "rank": 73403,
        "rank_sort": 73409,
        "total": 2338
      },
      {
        "club_badge_src": null,
        "entry": 2524661,
        "entry_name": "kinder mbuemo",
        "event_total": 69,
        "has_played": true,
        "id": 18090467,
        "last_rank": 103054,
        "player_name": "josh del",
        "rank": 73403,
        "rank_sort": 73410,
        "total": 2338
      },
      {
        "club_badge_src": null,
        "entry": 3130165,
        "entry_name": "Cornish Gunnersaurus",
        "event_total": 74,
        "has_played": true,
        "id": 23103438,
        "last_rank": 116890,
        "player_name": "Darren Cribb",
        "rank": 73403,
        "rank_sort": 73411,
        "total": 2338
      },
      {
        "club_badge_src": null,
        "entry": 5016844,
        "entry_name": "Silva Lining",
        "event_total": 72,
        "has_played": true,
        "id": 38743263,
        "last_rank": 111133,
        "player_name": "Danielle Thompson",
        "rank": 73403,
        "rank_sort": 73412,
        "total": 2338
      },
      {
        "club_badge_src": null,
        "entry": 5067236,
        "entry_name": "Hellas Ledeberg",
        "event_total": 68,
        "has_played": true,
        "id": 39158441,
        "last_rank": 100527,
        "player_name": "Frederik Vandamme",
        "rank": 73403,
        "rank_sort": 73413,
        "total": 2338
      },
      {
        "club_badge_src": null,
        "entry": 5213602,
        "entry_name": "She's fine thanks",
        "event_total": 34,
        "has_played": true,
        "id": 40385041,
        "last_rank": 37344,
        "player_name": "Stuart Mitchell",
        "rank": 73403,
        "rank_sort": 73414,
        "total": 2338
      },
      {
        "club_badge_src": null,
        "entry": 5587474,
        "entry_name": "Paquet\u00e1 Crisps",
        "event_total": 60,
        "has_played": true,
        "id": 43648104,
        "last_rank": 81195,
        "player_name": "Harry Finch",
        "rank": 73403,
        "rank_sort": 73415,
        "total": 2338
      },
      {
        "club_badge_src": null,
        "entry": 6091076,
        "entry_name": "Change Name",
        "event_total": 50,
        "has_played": true,
        "id": 48099519,
        "last_rank": 61258,
        "player_name": "Kieran Smith",
        "rank": 73403,
        "rank_sort": 73416,
        "total": 2338
      },
      {
        "club_badge_src": null,
        "entry": 6581847,
        "entry_name": "Watkins on Sunshine",
        "event_total": 43,
        "has_played": true,
        "id": 52560060,
        "last_rank": 49572,
        "player_name": "Jack Tunkel",
        "rank": 73403,
        "rank_sort": 73417,
        "total": 2338
      },
      {
        "club_badge_src": null,
        "entry": 7088751,
        "entry_name": "Matt",
        "event_total": 42,
        "has_played": true,
        "id": 57069800,
        "last_rank": 48084,
        "player_name": "Matthew Dawson",
        "rank": 73403,
        "rank_sort": 73418,
        "total": 2338
      },
      {
        "club_badge_src": "https://fantasy.premierleague.com/gcs/plfpl-production-adobe-approved/plfpl-production/7621824/1b98477d-4ee3-4994-b6b2-ac4ba55811e2.png",
        "entry": 7621824,
        "entry_name": "\u0160e\u0161ko all the way",
        "event_total": 39,
        "has_played": true,
        "id": 62463168,
        "last_rank": 43757,
        "player_name": "Rob Henderson",
        "rank": 73403,
        "rank_sort": 73419,
        "total": 2338
      },
      {
        "club_badge_src": null,
        "entry": 7866981,
        "entry_name": "Nunez Nunez Nunez",
        "event_total": 61,
        "has_played": true,
        "id": 64686650,
        "last_rank": 83534,
        "player_name": "Arron Glenn",
        "rank": 73403,
        "rank_sort": 73420,
        "total": 2338
      },
      {
        "club_badge_src": null,
        "entry": 9216033,
        "entry_name": "EL FAZARY",
        "event_total": 40,
        "has_played": true,
        "id": 77592241,
        "last_rank": 45144,
        "player_name": "Mohamed Amr",
        "rank": 73403,
        "rank_sort": 73421,
        "total": 2338
      },
      {
        "club_badge_src": null,
        "entry": 85493,
        "entry_name": "Magic men",
        "event_total": 71,
        "has_played": true,
        "id": 556824,
        "last_rank": 108452,
        "player_name": "Mike Jones",
        "rank": 73422,
        "rank_sort": 73422,
        "total": 2338
      },
      {
        "club_badge_src": null,
        "entry": 249423,
        "entry_name": "Nubmeistas",
        "event_total": 57,
        "has_played": true,
        "id": 1659836,
        "last_rank": 74712,
        "player_name": "Patrick Zhou",
        "rank": 73422,
        "rank_sort": 73423,
        "total": 2338
      },
      {
        "club_badge_src": null,
        "entry": 255755,
        "entry_name": "ddd",
        "event_total": 37,
        "has_played": true,
        "id": 1701111,
        "last_rank": 41101,
        "player_name": "Sean Ryder",
        "rank": 73422,
        "rank_sort": 73424,
        "total": 2338
      },
      {
        "club_badge_src": null,
        "entry": 481365,
        "entry_name": "Can\u2019t get any Wirtz",
        "event_total": 61,
        "has_played": true,
        "id": 3231641,
        "last_rank": 83534,
        "player_name": "Finley Butler",
        "rank": 73422,
        "rank_sort": 73425,
        "total": 2338
      },
      {
        "club_badge_src": null,
        "entry": 759686,
        "entry_name": "Nady Ba2r Riyade F.C",
        "event_total": 53,
        "has_played": true,
        "id": 5177438,
        "last_rank": 66738,
        "player_name": "Marwan Shehata",
        "rank": 73422,
        "rank_sort": 73426,
        "total": 2338
      },
      {
        "club_badge_src": null,
        "entry": 771722,
        "entry_name": "Tages tr\u00e4lar",
        "event_total": 27,
        "has_played": true,
        "id": 5264773,
        "last_rank": 29522,
        "player_name": "Tage Harensten",
        "rank": 73422,
        "rank_sort": 73427,
        "total": 2338
      },
      {
        "club_badge_src": null,
        "entry": 1500437,
        "entry_name": "champagneZoumanova",
        "event_total": 82,
        "has_played": true,
        "id": 10463836,
        "last_rank": 142142,
        "player_name": "Roberto Amos",
        "rank": 73422,
        "rank_sort": 73428,
        "total": 2338
      },
      {
        "club_badge_src": null,
        "entry": 1520048,
        "entry_name": "Caught Offside",
        "event_total": 61,
        "has_played": true,
        "id": 10601942,
        "last_rank": 74723,
        "player_name": "Nicholas Varnum",
        "rank": 73422,
        "rank_sort": 73429,
        "total": 2338
      },
      {
        "club_badge_src": null,
        "entry": 1583668,
        "entry_name": "allstars",
        "event_total": 61,
        "has_played": true,
        "id": 11068153,
        "last_rank": 83534,
        "player_name": "Branden Cockrill",
        "rank": 73422,
        "rank_sort": 73430,
        "total": 2338
      },
      {
        "club_badge_src": null,
        "entry": 1923637,
        "entry_name": "opshin",
        "event_total": 57,
        "has_played": true,
        "id": 13566162,
        "last_rank": 74787,
        "player_name": "Amged Opshin",
        "rank": 73422,
        "rank_sort": 73431,
        "total": 2338
      },
      {
        "club_badge_src": null,
        "entry": 2246846,
        "entry_name": "Quinny's disco pants",
        "event_total": 65,
        "has_played": true,
        "id": 16008279,
        "last_rank": 93052,
        "player_name": "Luke Ryan",
        "rank": 73422,
        "rank_sort": 73432,
        "total": 2338
      },
      {
        "club_badge_src": null,
        "entry": 3162671,
        "entry_name": "Hachimitsu",
        "event_total": 50,
        "has_played": true,
        "id": 23364036,
        "last_rank": 61315,
        "player_name": "Tom Honey",
        "rank": 73422,
        "rank_sort": 73433,
        "total": 2338
      },
      {
        "club_badge_src": null,
        "entry": 3217780,
        "entry_name": "Taking the Mykolenko",
        "event_total": 53,
        "has_played": true,
        "id": 23793787,
        "last_rank": 66693,
        "player_name": "Michael Leary",
        "rank": 73422,
        "rank_sort": 73434,
        "total": 2338
      },
      {
        "club_badge_src": null,
        "entry": 3255771,
        "entry_name": "Buffalo Soldiers",
        "event_total": 71,
        "has_played": true,
        "id": 24089631,
        "last_rank": 108452,
        "player_name": "Sydney Rebolo",
        "rank": 73422,
        "rank_sort": 73435,
        "total": 2338
      },
      {
        "club_badge_src": null,
        "entry": 3376914,
        "entry_name": "ONLYWAYISUP fc",
        "event_total": 46,
        "has_played": true,
        "id": 25065047,
        "last_rank": 54380,
        "player_name": "Kevin Brewer",
        "rank": 73422,
        "rank_sort": 73436,
        "total": 2338
      },
      {
        "club_badge_src": null,
        "entry": 3622368,
        "entry_name": "can't get any Wirtz",
        "event_total": 64,
        "has_played": true,
        "id": 26989131,
        "last_rank": 90504,
        "player_name": "Bradley Keating",
        "rank": 73422,
        "rank_sort": 73437,
        "total": 2338
      },
      {
        "club_badge_src": null,
        "entry": 3890936,
        "entry_name": "Kobby Eleven",
        "event_total": 58,
        "has_played": true,
        "id": 29239611,
        "last_rank": 76908,
        "player_name": "Kobby Ewusie",
        "rank": 73422,
        "rank_sort": 73438,
        "total": 2338
      },
      {
        "club_badge_src": null,
        "entry": 3932904,
        "entry_name": "LeFeelingLikeAWinner",
        "event_total": 73,
        "has_played": true,
        "id": 29580318,
        "last_rank": 114055,
        "player_name": "Cameron Bell",
        "rank": 73422,
        "rank_sort": 73439,
        "total": 2338
      },
      {
        "club_badge_src": null,
        "entry": 5330472,
        "entry_name": "ABCDE FC",
        "event_total": 57,
        "has_played": true,
        "id": 41324176,
        "last_rank": 74787,
        "player_name": "David Ilugbo",
        "rank": 73422,
        "rank_sort": 73440,
        "total": 2338
      },
      {
        "club_badge_src": null,
        "entry": 5750506,
        "entry_name": "Amorim's Aces",
        "event_total": 62,
        "has_played": true,
        "id": 45070548,
        "last_rank": 85836,
        "player_name": "Travis Curry",
        "rank": 73422,
        "rank_sort": 73441,
        "total": 2338
      },
      {
        "club_badge_src": "https://fantasy.premierleague.com/gcs/plfpl-production-adobe-approved/plfpl-production/6583661/e2f08295-f7b3-403d-a238-ccd83781bc2b.png",
        "entry": 6583661,
        "entry_name": "FCRuthless",
        "event_total": 41,
        "has_played": true,
        "id": 52576052,
        "last_rank": 46591,
        "player_name": "Abhinay Rao",
        "rank": 73422,
        "rank_sort": 73442,
        "total": 2338
      },
      {
        "club_badge_src": null,
        "entry": 6998064,
        "entry_name": "Southgate Rangers",
        "event_total": 64,
        "has_played": true,
        "id": 56183931,
        "last_rank": 90524,
        "player_name": "Carlo Marrone",
        "rank": 73422,
        "rank_sort": 73443,
        "total": 2338
      },
      {
        "club_badge_src": null,
        "entry": 7282557,
        "entry_name": "Qassam Power",
        "event_total": 83,
        "has_played": true,
        "id": 58913406,
        "last_rank": 145455,
        "player_name": "Imad Hattaf",
        "rank": 73422,
        "rank_sort": 73444,
        "total": 2338
      },
      {
        "club_badge_src": null,
        "entry": 7566786,
        "entry_name": "Oxygen Thiefs",
        "event_total": 48,
        "has_played": true,
        "id": 61963161,
        "last_rank": 57776,
        "player_name": "Dean Taylor",
        "rank": 73422,
        "rank_sort": 73445,
        "total": 2338
      },
      {
        "club_badge_src": null,
        "entry": 7656843,
        "entry_name": "MeMyselfNdiaye",
        "event_total": 75,
        "has_played": true,
        "id": 62778020,
        "last_rank": 119804,
        "player_name": "Tom Rimmer",
        "rank": 73422,
        "rank_sort": 73446,
        "total": 2338
      },
      {
        "club_badge_src": null,
        "entry": 7742091,
        "entry_name": "lennonfc11",
        "event_total": 66,
        "has_played": true,
        "id": 63549815,
        "last_rank": 95464,
        "player_name": "Anchu Lennon",
        "rank": 73422,
        "rank_sort": 73447,
        "total": 2338
      },
      {
        "club_badge_src": null,
        "entry": 8045288,
        "entry_name": "LongWangDaddy",
        "event_total": 52,
        "has_played": true,
        "id": 66294635,
        "last_rank": 57701,
        "player_name": "Allow it fam M",
        "rank": 73422,
        "rank_sort": 73448,
        "total": 2338
      },
      {
        "club_badge_src": null,
        "entry": 8402983,
        "entry_name": "Kinder Mbuemo",
        "event_total": 43,
        "has_played": true,
        "id": 69705882,
        "last_rank": 49552,
        "player_name": "Faisal Q",
        "rank": 73422,
        "rank_sort": 73449,
        "total": 2338
      },
      {
        "club_badge_src": null,
        "entry": 8561877,
        "entry_name": "Ruudsv15",
        "event_total": 40,
        "has_played": true,
        "id": 71232798,
        "last_rank": 45182,
        "player_name": "Magnus Avlestuen",
        "rank": 73422,
        "rank_sort": 73450,
        "total": 2338
      }
    ]
  }
}