{
  "last_updated_data": "2026-05-24T23:28:17Z",
  "league": {
    "admin_entry": null,
    "closed": false,
    "code_privacy": "p",
    "created": "2025-07-20T23:14:33.933835Z",
    "cup_league": 2815434,
    "has_cup": true,
    "id": 314,
    "league_type": "s",
    "max_entries": null,
    "name": "Overall",
    "rank": null,
    "scoring": "c",
    "start_event": 1
  },
  "new_entries": {
    "has_next": false,
    "page": 1,
    "results": []
  },
  "standings": {
    "has_next": true,
    "page": 648,
    "results": [
      {
        "club_badge_src": null,
        "entry": 840266,
        "entry_name": "BallersUnited",
        "event_total": 61,
        "has_played": true,
        "id": 5757091,
        "last_rank": 36624,
        "player_name": "Madhav Sharma",
        "rank": 32289,
        "rank_sort": 32351,
        "total": 2366
      },
      {
        "club_badge_src": null,
        "entry": 873263,
        "entry_name": "MasterTako Subes FC",
        "event_total": 66,
        "has_played": true,
        "id": 5986923,
        "last_rank": 43168,
        "player_name": "Happy Alias",
        "rank": 32289,
        "rank_sort": 32352,
        "total": 2366
      },
      {
        "club_badge_src": null,
        "entry": 969679,
        "entry_name": "OnlyFernandes UDC",
        "event_total": 52,
        "has_played": true,
        "id": 6683308,
        "last_rank": 27203,
        "player_name": "Will Meakins",
        "rank": 32289,
        "rank_sort": 32353,
        "total": 2366
      },
      {
        "club_badge_src": null,
        "entry": 1000616,
        "entry_name": "It\u2019s too eze",
        "event_total": 63,
        "has_played": true,
        "id": 6916800,
        "last_rank": 39023,
        "player_name": "Daniel Wright",
        "rank": 32289,
        "rank_sort": 32354,
        "total": 2366
      },
      {
        "club_badge_src": null,
        "entry": 1040439,
        "entry_name": "Bordell Udestad",
        "event_total": 72,
        "has_played": true,
        "id": 7200158,
        "last_rank": 45416,
        "player_name": "Tor Steinar \u00d8stensen",
        "rank": 32289,
        "rank_sort": 32355,
        "total": 2366
      },
      {
        "club_badge_src": null,
        "entry": 1058364,
        "entry_name": "FC Pova\u017ean Bystrica",
        "event_total": 61,
        "has_played": true,
        "id": 7324497,
        "last_rank": 36963,
        "player_name": "\u0160tefan Kupec",
        "rank": 32289,
        "rank_sort": 32356,
        "total": 2366
      },
      {
        "club_badge_src": "https://fantasy.premierleague.com/gcs/plfpl-production-adobe-approved/plfpl-production/1186967/8695a29c-d190-404e-b521-934e06cf2c5c.png",
        "entry": 1186967,
        "entry_name": "TropaDoHiguita",
        "event_total": 81,
        "has_played": true,
        "id": 8235638,
        "last_rank": 59813,
        "player_name": "Igor Bram\u00e3o",
        "rank": 32289,
        "rank_sort": 32357,
        "total": 2366
      },
      {
        "club_badge_src": "https://fantasy.premierleague.com/gcs/plfpl-production-adobe-approved/plfpl-production/1219314/9b9a5644-9a24-4175-ba95-a2c8d5409a56.png",
        "entry": 1219314,
        "entry_name": "GGManUnited",
        "event_total": 47,
        "has_played": true,
        "id": 8465226,
        "last_rank": 22830,
        "player_name": "Thomas Benezeder",
        "rank": 32289,
        "rank_sort": 32358,
        "total": 2366
      },
      {
        "club_badge_src": null,
        "entry": 1261318,
        "entry_name": "Calcio Pergolettese",
        "event_total": 46,
        "has_played": true,
        "id": 8761544,
        "last_rank": 21775,
        "player_name": "Sebastian Andersson",
        "rank": 32289,
        "rank_sort": 32359,
        "total": 2366
      },
      {
        "club_badge_src": null,
        "entry": 1274657,
        "entry_name": "Simplicius",
        "event_total": 49,
        "has_played": true,
        "id": 8857118,
        "last_rank": 24475,
        "player_name": "Justinian I",
        "rank": 32289,
        "rank_sort": 32360,
        "total": 2366
      },
      {
        "club_badge_src": null,
        "entry": 1373273,
        "entry_name": "jm",
        "event_total": 71,
        "has_played": true,
        "id": 9546051,
        "last_rank": 50199,
        "player_name": "Jm Soo",
        "rank": 32289,
        "rank_sort": 32361,
        "total": 2366
      },
      {
        "club_badge_src": null,
        "entry": 1401791,
        "entry_name": "St. Andreas",
        "event_total": 64,
        "has_played": true,
        "id": 9753247,
        "last_rank": 40647,
        "player_name": "Andi MGK",
        "rank": 32289,
        "rank_sort": 32362,
        "total": 2366
      },
      {
        "club_badge_src": null,
        "entry": 1470910,
        "entry_name": "sully's soccers",
        "event_total": 61,
        "has_played": true,
        "id": 10252999,
        "last_rank": 27770,
        "player_name": "Kevin Sullivan",
        "rank": 32289,
        "rank_sort": 32363,
        "total": 2366
      },
      {
        "club_badge_src": null,
        "entry": 1490818,
        "entry_name": "I'll Play For A Week",
        "event_total": 53,
        "has_played": true,
        "id": 10396213,
        "last_rank": 28150,
        "player_name": "Sean Butler",
        "rank": 32289,
        "rank_sort": 32364,
        "total": 2366
      },
      {
        "club_badge_src": null,
        "entry": 1496956,
        "entry_name": "Andover athletic",
        "event_total": 51,
        "has_played": true,
        "id": 10439356,
        "last_rank": 26230,
        "player_name": "Matt Pratt",
        "rank": 32289,
        "rank_sort": 32365,
        "total": 2366
      },
      {
        "club_badge_src": null,
        "entry": 1548320,
        "entry_name": "Whatcha Cunha Do",
        "event_total": 61,
        "has_played": true,
        "id": 10810046,
        "last_rank": 36963,
        "player_name": "Andrew Short",
        "rank": 32289,
        "rank_sort": 32366,
        "total": 2366
      },
      {
        "club_badge_src": "https://fantasy.premierleague.com/gcs/plfpl-production-adobe-approved/plfpl-production/1577362/63ee4728-a168-41bd-897a-aa7b2a9d3120.png",
        "entry": 1577362,
        "entry_name": "Hazardddd",
        "event_total": 35,
        "has_played": true,
        "id": 11022167,
        "last_rank": 14668,
        "player_name": "Jasper Eng",
        "rank": 32289,
        "rank_sort": 32367,
        "total": 2366
      },
      {
        "club_badge_src": null,
        "entry": 1623992,
        "entry_name": "Team Offside",
        "event_total": 52,
        "has_played": true,
        "id": 11366554,
        "last_rank": 20179,
        "player_name": "Md Abdullah",
        "rank": 32289,
        "rank_sort": 32368,
        "total": 2366
      },
      {
        "club_badge_src": null,
        "entry": 1696475,
        "entry_name": "Dkotrc",
        "event_total": 47,
        "has_played": true,
        "id": 11882373,
        "last_rank": 22830,
        "player_name": "David Kotrc",
        "rank": 32289,
        "rank_sort": 32369,
        "total": 2366
      },
      {
        "club_badge_src": null,
        "entry": 1809831,
        "entry_name": "trnci",
        "event_total": 65,
        "has_played": true,
        "id": 12724358,
        "last_rank": 41617,
        "player_name": "Boban Madjovski",
        "rank": 32289,
        "rank_sort": 32370,
        "total": 2366
      },
      {
        "club_badge_src": null,
        "entry": 1973415,
        "entry_name": "Devils of R\u00faben",
        "event_total": 67,
        "has_played": true,
        "id": 13928941,
        "last_rank": 44525,
        "player_name": "Sanjin Ibric",
        "rank": 32289,
        "rank_sort": 32371,
        "total": 2366
      },
      {
        "club_badge_src": null,
        "entry": 1991943,
        "entry_name": "Kinder Mbuemo",
        "event_total": 64,
        "has_played": true,
        "id": 14074012,
        "last_rank": 35424,
        "player_name": "Daniel Clark",
        "rank": 32289,
        "rank_sort": 32372,
        "total": 2366
      },
      {
        "club_badge_src": null,
        "entry": 2020213,
        "entry_name": "\u0627\u0648\u0644 \u0639\u0627\u0644\u0645 \u0628\u0627\u0644\u062d\u0628",
        "event_total": 72,
        "has_played": true,
        "id": 14294939,
        "last_rank": 45714,
        "player_name": "Ziad Akram",
        "rank": 32289,
        "rank_sort": 32373,
        "total": 2366
      },
      {
        "club_badge_src": "https://fantasy.premierleague.com/gcs/plfpl-production-adobe-approved/plfpl-production/2044159/4de3321c-3a39-4422-bff2-211ec9c57a29.png",
        "entry": 2044159,
        "entry_name": "Pehtoorin Pelimiehet",
        "event_total": 73,
        "has_played": true,
        "id": 14476713,
        "last_rank": 53345,
        "player_name": "Tuukka Ver\u00e4j\u00e4nkorva",
        "rank": 32289,
        "rank_sort": 32374,
        "total": 2366
      },
      {
        "club_badge_src": null,
        "entry": 2112823,
        "entry_name": "ABC",
        "event_total": 57,
        "has_played": true,
        "id": 14997015,
        "last_rank": 31995,
        "player_name": "Johann Gunnarsson",
        "rank": 32289,
        "rank_sort": 32375,
        "total": 2366
      },
      {
        "club_badge_src": null,
        "entry": 2118424,
        "entry_name": "Mac Kevinster",
        "event_total": 68,
        "has_played": true,
        "id": 15047285,
        "last_rank": 45714,
        "player_name": "Kevin Smeets",
        "rank": 32289,
        "rank_sort": 32376,
        "total": 2366
      },
      {
        "club_badge_src": null,
        "entry": 2129602,
        "entry_name": "Power Reijnders",
        "event_total": 64,
        "has_played": true,
        "id": 15132639,
        "last_rank": 40297,
        "player_name": "Ashwin Swaminathan",
        "rank": 32289,
        "rank_sort": 32377,
        "total": 2366
      },
      {
        "club_badge_src": null,
        "entry": 2141263,
        "entry_name": "Qatar Camels",
        "event_total": 60,
        "has_played": true,
        "id": 15218169,
        "last_rank": 35619,
        "player_name": "Ian Urry",
        "rank": 32289,
        "rank_sort": 32378,
        "total": 2366
      },
      {
        "club_badge_src": null,
        "entry": 2161510,
        "entry_name": "moon",
        "event_total": 69,
        "has_played": true,
        "id": 15365787,
        "last_rank": 46591,
        "player_name": "qqq gusi",
        "rank": 32289,
        "rank_sort": 32379,
        "total": 2366
      },
      {
        "club_badge_src": null,
        "entry": 2165095,
        "entry_name": "FC San Pablo",
        "event_total": 55,
        "has_played": true,
        "id": 15391663,
        "last_rank": 25902,
        "player_name": "Brody Klein",
        "rank": 32289,
        "rank_sort": 32380,
        "total": 2366
      },
      {
        "club_badge_src": null,
        "entry": 2168338,
        "entry_name": "Come With Me \ufffd",
        "event_total": 58,
        "has_played": true,
        "id": 15416291,
        "last_rank": 33332,
        "player_name": "TanChester -",
        "rank": 32289,
        "rank_sort": 32381,
        "total": 2366
      },
      {
        "club_badge_src": null,
        "entry": 2178894,
        "entry_name": "The Blue Fanta",
        "event_total": 77,
        "has_played": true,
        "id": 15495785,
        "last_rank": 60462,
        "player_name": "Aristarkhos D Talang",
        "rank": 32289,
        "rank_sort": 32382,
        "total": 2366
      },
      {
        "club_badge_src": null,
        "entry": 2205229,
        "entry_name": "Net Six & A Shad",
        "event_total": 65,
        "has_played": true,
        "id": 15696877,
        "last_rank": 41824,
        "player_name": "Shads XI",
        "rank": 32289,
        "rank_sort": 32383,
        "total": 2366
      },
      {
        "club_badge_src": null,
        "entry": 2243617,
        "entry_name": "Alpha united",
        "event_total": 58,
        "has_played": true,
        "id": 15984505,
        "last_rank": 33332,
        "player_name": "bradley sayers",
        "rank": 32289,
        "rank_sort": 32384,
        "total": 2366
      },
      {
        "club_badge_src": null,
        "entry": 2371112,
        "entry_name": "Die Slakkies",
        "event_total": 62,
        "has_played": true,
        "id": 16926348,
        "last_rank": 38016,
        "player_name": "Tiaan Harmse",
        "rank": 32289,
        "rank_sort": 32385,
        "total": 2366
      },
      {
        "club_badge_src": null,
        "entry": 2416859,
        "entry_name": "Team Name",
        "event_total": 61,
        "has_played": true,
        "id": 17277249,
        "last_rank": 36831,
        "player_name": "Kian Coleman",
        "rank": 32289,
        "rank_sort": 32386,
        "total": 2366
      },
      {
        "club_badge_src": null,
        "entry": 2484729,
        "entry_name": "The Expert",
        "event_total": 54,
        "has_played": true,
        "id": 17780327,
        "last_rank": 29071,
        "player_name": "Tarek Abdelnasser",
        "rank": 32289,
        "rank_sort": 32387,
        "total": 2366
      },
      {
        "club_badge_src": null,
        "entry": 2567917,
        "entry_name": "Baz United",
        "event_total": 53,
        "has_played": true,
        "id": 18422036,
        "last_rank": 28150,
        "player_name": "Barry Wallace",
        "rank": 32289,
        "rank_sort": 32388,
        "total": 2366
      },
      {
        "club_badge_src": null,
        "entry": 2655842,
        "entry_name": "Frimpong Ping Pong",
        "event_total": 54,
        "has_played": true,
        "id": 19090790,
        "last_rank": 28906,
        "player_name": "Chris Higgins",
        "rank": 32289,
        "rank_sort": 32389,
        "total": 2366
      },
      {
        "club_badge_src": null,
        "entry": 2688281,
        "entry_name": "Rice Rice Baby",
        "event_total": 53,
        "has_played": true,
        "id": 19335549,
        "last_rank": 28150,
        "player_name": "Courtney Ambrose",
        "rank": 32289,
        "rank_sort": 32390,
        "total": 2366
      },
      {
        "club_badge_src": null,
        "entry": 2697010,
        "entry_name": "Sveberg XI",
        "event_total": 36,
        "has_played": true,
        "id": 19400652,
        "last_rank": 12846,
        "player_name": "Marius Sveberg",
        "rank": 32289,
        "rank_sort": 32391,
        "total": 2366
      },
      {
        "club_badge_src": "https://fantasy.premierleague.com/gcs/plfpl-production-adobe-approved/plfpl-production/2742595/34823d7c-0c71-416b-b62b-b51baf003dcc.png",
        "entry": 2742595,
        "entry_name": "Devils",
        "event_total": 62,
        "has_played": true,
        "id": 19809303,
        "last_rank": 33147,
        "player_name": "Mohamed Abd elHamed",
        "rank": 32289,
        "rank_sort": 32392,
        "total": 2366
      },
      {
        "club_badge_src": null,
        "entry": 2843196,
        "entry_name": "Antipodes FC",
        "event_total": 57,
        "has_played": true,
        "id": 20781384,
        "last_rank": 27976,
        "player_name": "barry kennedy",
        "rank": 32289,
        "rank_sort": 32393,
        "total": 2366
      },
      {
        "club_badge_src": null,
        "entry": 2919653,
        "entry_name": "W\u00fcrste von Wirtz",
        "event_total": 59,
        "has_played": true,
        "id": 21401371,
        "last_rank": 29522,
        "player_name": "Parker Crowe",
        "rank": 32289,
        "rank_sort": 32394,
        "total": 2366
      },
      {
        "club_badge_src": null,
        "entry": 3009603,
        "entry_name": "You're a Wissa Harry",
        "event_total": 54,
        "has_played": true,
        "id": 22139760,
        "last_rank": 28906,
        "player_name": "Ollie St John",
        "rank": 32289,
        "rank_sort": 32395,
        "total": 2366
      },
      {
        "club_badge_src": null,
        "entry": 3033255,
        "entry_name": "Fnatic",
        "event_total": 70,
        "has_played": true,
        "id": 22321888,
        "last_rank": 48642,
        "player_name": "F2 Turan",
        "rank": 32289,
        "rank_sort": 32396,
        "total": 2366
      },
      {
        "club_badge_src": null,
        "entry": 3091027,
        "entry_name": "Saue sitturid",
        "event_total": 57,
        "has_played": true,
        "id": 22780492,
        "last_rank": 32190,
        "player_name": "Oliver Avalo",
        "rank": 32289,
        "rank_sort": 32397,
        "total": 2366
      },
      {
        "club_badge_src": "https://fantasy.premierleague.com/gcs/plfpl-production-adobe-approved/plfpl-production/3148952/fb99606b-81dd-4abe-85ec-218ca14f9248.png",
        "entry": 3148952,
        "entry_name": "Wolf Pack Wanderers",
        "event_total": 59,
        "has_played": true,
        "id": 23252035,
        "last_rank": 29904,
        "player_name": "Cayman Lane",
        "rank": 32289,
        "rank_sort": 32398,
        "total": 2366
      },
      {
        "club_badge_src": "https://fantasy.premierleague.com/gcs/plfpl-production-adobe-approved/plfpl-production/3209128/8ce4ba83-0b13-4fa0-913c-f2f8f8d82a67.png",
        "entry": 3209128,
        "entry_name": "Franses. Tab. Belga",
        "event_total": 68,
        "has_played": true,
        "id": 23725451,
        "last_rank": 40036,
        "player_name": "Carlos Reis",
        "rank": 32289,
        "rank_sort": 32399,
        "total": 2366
      },
      {
        "club_badge_src": null,
        "entry": 3224549,
        "entry_name": "Digne out on Mings",
        "event_total": 54,
        "has_played": true,
        "id": 23845963,
        "last_rank": 25172,
        "player_name": "James Dick",
        "rank": 32289,
        "rank_sort": 32400,
        "total": 2366
      }
    ]
  }
}