{
  "last_updated_data": "2026-05-24T23:28:17Z",
  "league": {
    "admin_entry": null,
    "closed": false,
    "code_privacy": "p",
    "created": "2025-07-20T23:14:33.933835Z",
    "cup_league": 2815434,
    "has_cup": true,
    "id": 314,
    "league_type": "s",
    "max_entries": null,
    "name": "Overall",
    "rank": null,
    "scoring": "c",
    "start_event": 1
  },
  "new_entries": {
    "has_next": false,
    "page": 1,
    "results": []
  },
  "standings": {
    "has_next": true,
    "page": 961,
    "results": [
      {
        "club_badge_src": null,
        "entry": 1412148,
        "entry_name": "Flying Dutchman",
        "event_total": 63,
        "has_played": true,
        "id": 9827243,
        "last_rank": 58071,
        "player_name": "Chinmaya Golecha",
        "rank": 47869,
        "rank_sort": 48001,
        "total": 2353
      },
      {
        "club_badge_src": "https://fantasy.premierleague.com/gcs/plfpl-production-adobe-approved/plfpl-production/1445174/b2e2c183-67c6-4b48-8dff-140cf20b2daf.png",
        "entry": 1445174,
        "entry_name": "Champagne Superkova",
        "event_total": 51,
        "has_played": true,
        "id": 10070376,
        "last_rank": 40297,
        "player_name": "Conor Foulkes",
        "rank": 47869,
        "rank_sort": 48002,
        "total": 2353
      },
      {
        "club_badge_src": null,
        "entry": 1466682,
        "entry_name": "Cos I'm Mr $h*teside",
        "event_total": 73,
        "has_played": true,
        "id": 10223414,
        "last_rank": 77050,
        "player_name": "James Conder",
        "rank": 47869,
        "rank_sort": 48003,
        "total": 2353
      },
      {
        "club_badge_src": null,
        "entry": 1480132,
        "entry_name": "Wins_AF",
        "event_total": 56,
        "has_played": true,
        "id": 10320454,
        "last_rank": 46839,
        "player_name": "Aimane Fountir",
        "rank": 47869,
        "rank_sort": 48004,
        "total": 2353
      },
      {
        "club_badge_src": null,
        "entry": 1496101,
        "entry_name": "\u0627\u064a\u0645\u0646",
        "event_total": 49,
        "has_played": true,
        "id": 10433271,
        "last_rank": 37822,
        "player_name": "Ayman Edan",
        "rank": 47869,
        "rank_sort": 48005,
        "total": 2353
      },
      {
        "club_badge_src": "https://fantasy.premierleague.com/gcs/plfpl-production-adobe-approved/plfpl-production/1511112/4fbae4fd-6b0b-4e69-884a-8c0a57ca820e.png",
        "entry": 1511112,
        "entry_name": "Ctrl Alt De Ligt",
        "event_total": 58,
        "has_played": true,
        "id": 10539159,
        "last_rank": 49691,
        "player_name": "Ash Goddard",
        "rank": 47869,
        "rank_sort": 48006,
        "total": 2353
      },
      {
        "club_badge_src": null,
        "entry": 1536661,
        "entry_name": "\u8303\u7279\u897f\u4f53\u80b2",
        "event_total": 53,
        "has_played": true,
        "id": 10724382,
        "last_rank": 42648,
        "player_name": "Fantasy sport",
        "rank": 47869,
        "rank_sort": 48007,
        "total": 2353
      },
      {
        "club_badge_src": null,
        "entry": 1571950,
        "entry_name": "Frankenspurs",
        "event_total": 65,
        "has_played": true,
        "id": 10983913,
        "last_rank": 61411,
        "player_name": "Emil Haugaard",
        "rank": 47869,
        "rank_sort": 48008,
        "total": 2353
      },
      {
        "club_badge_src": null,
        "entry": 1627838,
        "entry_name": "Wirtz episode ever",
        "event_total": 51,
        "has_played": true,
        "id": 11393959,
        "last_rank": 39784,
        "player_name": "Ami Walsh",
        "rank": 47869,
        "rank_sort": 48009,
        "total": 2353
      },
      {
        "club_badge_src": null,
        "entry": 1628956,
        "entry_name": "Molineux Rangers",
        "event_total": 45,
        "has_played": true,
        "id": 11401657,
        "last_rank": 32879,
        "player_name": "Ray Adderley",
        "rank": 47869,
        "rank_sort": 48010,
        "total": 2353
      },
      {
        "club_badge_src": "https://fantasy.premierleague.com/gcs/plfpl-production-adobe-approved/plfpl-production/1699672/6edccf38-5a34-409a-a49c-c4825d06b384.png",
        "entry": 1699672,
        "entry_name": "Remontada fc",
        "event_total": 57,
        "has_played": true,
        "id": 11905571,
        "last_rank": 48363,
        "player_name": "Zayan\u2079 Mowhabuth",
        "rank": 47869,
        "rank_sort": 48011,
        "total": 2353
      },
      {
        "club_badge_src": null,
        "entry": 1717242,
        "entry_name": "what you saying",
        "event_total": 71,
        "has_played": true,
        "id": 12034494,
        "last_rank": 73038,
        "player_name": "Byron Robinson",
        "rank": 47869,
        "rank_sort": 48012,
        "total": 2353
      },
      {
        "club_badge_src": null,
        "entry": 1877436,
        "entry_name": "Proper Chels",
        "event_total": 64,
        "has_played": true,
        "id": 13222732,
        "last_rank": 59813,
        "player_name": "Jourdan Dean",
        "rank": 47869,
        "rank_sort": 48013,
        "total": 2353
      },
      {
        "club_badge_src": null,
        "entry": 1879129,
        "entry_name": "Purple Gunners",
        "event_total": 53,
        "has_played": true,
        "id": 13238481,
        "last_rank": 42648,
        "player_name": "Alex Kellenberger",
        "rank": 47869,
        "rank_sort": 48014,
        "total": 2353
      },
      {
        "club_badge_src": null,
        "entry": 1880379,
        "entry_name": "Livin' Saliba Loca",
        "event_total": 51,
        "has_played": true,
        "id": 13248742,
        "last_rank": 40036,
        "player_name": "Callum McCormack",
        "rank": 47869,
        "rank_sort": 48015,
        "total": 2353
      },
      {
        "club_badge_src": null,
        "entry": 1922262,
        "entry_name": "Toaster Boys",
        "event_total": 63,
        "has_played": true,
        "id": 13556082,
        "last_rank": 57857,
        "player_name": "David Clark",
        "rank": 47869,
        "rank_sort": 48016,
        "total": 2353
      },
      {
        "club_badge_src": null,
        "entry": 1930706,
        "entry_name": "Drop It Like ItSlot",
        "event_total": 69,
        "has_played": true,
        "id": 13616924,
        "last_rank": 68624,
        "player_name": "Kai Arbuckle",
        "rank": 47869,
        "rank_sort": 48017,
        "total": 2353
      },
      {
        "club_badge_src": null,
        "entry": 1946753,
        "entry_name": "Kinder Mbeumo",
        "event_total": 75,
        "has_played": true,
        "id": 13732163,
        "last_rank": 81312,
        "player_name": "Shane Ang",
        "rank": 47869,
        "rank_sort": 48018,
        "total": 2353
      },
      {
        "club_badge_src": null,
        "entry": 1988227,
        "entry_name": "Hamer time",
        "event_total": 68,
        "has_played": true,
        "id": 14045489,
        "last_rank": 66738,
        "player_name": "George Brew",
        "rank": 47869,
        "rank_sort": 48019,
        "total": 2353
      },
      {
        "club_badge_src": null,
        "entry": 2019974,
        "entry_name": "Oz Slotto",
        "event_total": 52,
        "has_played": true,
        "id": 14293149,
        "last_rank": 41162,
        "player_name": "Nick McConnell",
        "rank": 47869,
        "rank_sort": 48020,
        "total": 2353
      },
      {
        "club_badge_src": null,
        "entry": 2021447,
        "entry_name": "The Pidgeon",
        "event_total": 61,
        "has_played": true,
        "id": 14304011,
        "last_rank": 55014,
        "player_name": "Rasmus Dywremose",
        "rank": 47869,
        "rank_sort": 48021,
        "total": 2353
      },
      {
        "club_badge_src": "https://fantasy.premierleague.com/gcs/plfpl-production-adobe-approved/plfpl-production/2047973/8192a209-3d02-4b77-9216-44a5b9bb2eee.png",
        "entry": 2047973,
        "entry_name": "osama min laden",
        "event_total": 45,
        "has_played": true,
        "id": 14504886,
        "last_rank": 32879,
        "player_name": "Seumas Maclean",
        "rank": 47869,
        "rank_sort": 48022,
        "total": 2353
      },
      {
        "club_badge_src": "https://fantasy.premierleague.com/gcs/plfpl-production-adobe-approved/plfpl-production/2068456/5b44fdce-cb5f-4444-9556-c2160d280330.png",
        "entry": 2068456,
        "entry_name": "holland team",
        "event_total": 68,
        "has_played": true,
        "id": 14662253,
        "last_rank": 67063,
        "player_name": "Waaway Abshir",
        "rank": 47869,
        "rank_sort": 48023,
        "total": 2353
      },
      {
        "club_badge_src": null,
        "entry": 2080717,
        "entry_name": "SANCORP",
        "event_total": 59,
        "has_played": true,
        "id": 14754380,
        "last_rank": 51403,
        "player_name": "Sanjeet Save",
        "rank": 47869,
        "rank_sort": 48024,
        "total": 2353
      },
      {
        "club_badge_src": null,
        "entry": 2088336,
        "entry_name": "Can't get no Wirtz",
        "event_total": 65,
        "has_played": true,
        "id": 14816086,
        "last_rank": 61606,
        "player_name": "Patricia Kershaw",
        "rank": 47869,
        "rank_sort": 48025,
        "total": 2353
      },
      {
        "club_badge_src": null,
        "entry": 2092263,
        "entry_name": "ahmed ll",
        "event_total": 48,
        "has_played": true,
        "id": 14844543,
        "last_rank": 36624,
        "player_name": "ahmed Lashin",
        "rank": 47869,
        "rank_sort": 48026,
        "total": 2353
      },
      {
        "club_badge_src": null,
        "entry": 2113037,
        "entry_name": "Glonkyy",
        "event_total": 52,
        "has_played": true,
        "id": 14998560,
        "last_rank": 41617,
        "player_name": "Thor Fienberg",
        "rank": 47869,
        "rank_sort": 48027,
        "total": 2353
      },
      {
        "club_badge_src": null,
        "entry": 2170793,
        "entry_name": "Shafat 97",
        "event_total": 57,
        "has_played": true,
        "id": 15434878,
        "last_rank": 48363,
        "player_name": "Syed Rakin",
        "rank": 47869,
        "rank_sort": 48028,
        "total": 2353
      },
      {
        "club_badge_src": "https://fantasy.premierleague.com/gcs/plfpl-production-adobe-approved/plfpl-production/2197652/3dd0dd74-ea43-4eaa-b45b-93a0e0a4ab73.png",
        "entry": 2197652,
        "entry_name": "Like Isak A Spuds",
        "event_total": 68,
        "has_played": true,
        "id": 15637816,
        "last_rank": 66848,
        "player_name": "Aaron Jennings",
        "rank": 47869,
        "rank_sort": 48029,
        "total": 2353
      },
      {
        "club_badge_src": "https://fantasy.premierleague.com/gcs/plfpl-production-adobe-approved/plfpl-production/2210268/7ec427ad-3a7f-49b7-b6db-48c03d5026d0.png",
        "entry": 2210268,
        "entry_name": "ElTigre",
        "event_total": 62,
        "has_played": true,
        "id": 15739211,
        "last_rank": 56369,
        "player_name": "Viktor Hallgr\u00edmsson",
        "rank": 47869,
        "rank_sort": 48030,
        "total": 2353
      },
      {
        "club_badge_src": null,
        "entry": 2212360,
        "entry_name": "Elhansh",
        "event_total": 53,
        "has_played": true,
        "id": 15754666,
        "last_rank": 42648,
        "player_name": "Ahmed Hassan",
        "rank": 47869,
        "rank_sort": 48031,
        "total": 2353
      },
      {
        "club_badge_src": null,
        "entry": 2238383,
        "entry_name": "Ag\u00fcero-UAE",
        "event_total": 70,
        "has_played": true,
        "id": 15946322,
        "last_rank": 70757,
        "player_name": "Abdulla Alhosani",
        "rank": 47869,
        "rank_sort": 48032,
        "total": 2353
      },
      {
        "club_badge_src": null,
        "entry": 2248378,
        "entry_name": "Il Fenomeno",
        "event_total": 48,
        "has_played": true,
        "id": 16021031,
        "last_rank": 36348,
        "player_name": "Matthew Fraser",
        "rank": 47869,
        "rank_sort": 48033,
        "total": 2353
      },
      {
        "club_badge_src": null,
        "entry": 2258656,
        "entry_name": "saiyaara FC",
        "event_total": 39,
        "has_played": true,
        "id": 16101497,
        "last_rank": 27020,
        "player_name": "Pierre Noronha",
        "rank": 47869,
        "rank_sort": 48034,
        "total": 2353
      },
      {
        "club_badge_src": null,
        "entry": 2385594,
        "entry_name": "FC Bethelona",
        "event_total": 70,
        "has_played": true,
        "id": 17037385,
        "last_rank": 70985,
        "player_name": "Bethan Murray",
        "rank": 47869,
        "rank_sort": 48035,
        "total": 2353
      },
      {
        "club_badge_src": null,
        "entry": 2402646,
        "entry_name": "Darlo Dream Team",
        "event_total": 58,
        "has_played": true,
        "id": 17172678,
        "last_rank": 49880,
        "player_name": "Steve Bishop",
        "rank": 47869,
        "rank_sort": 48036,
        "total": 2353
      },
      {
        "club_badge_src": null,
        "entry": 2410423,
        "entry_name": "Livin' Saliba Loca",
        "event_total": 59,
        "has_played": true,
        "id": 17229928,
        "last_rank": 51137,
        "player_name": "Jack Barber-Jones",
        "rank": 47869,
        "rank_sort": 48037,
        "total": 2353
      },
      {
        "club_badge_src": null,
        "entry": 2446876,
        "entry_name": "Noochlundj",
        "event_total": 42,
        "has_played": true,
        "id": 17500267,
        "last_rank": 29688,
        "player_name": "Noah Nylund",
        "rank": 47869,
        "rank_sort": 48038,
        "total": 2353
      },
      {
        "club_badge_src": null,
        "entry": 2474616,
        "entry_name": "Bergy pays for tips",
        "event_total": 56,
        "has_played": true,
        "id": 17704585,
        "last_rank": 46839,
        "player_name": "Joe Kilhams",
        "rank": 47869,
        "rank_sort": 48039,
        "total": 2353
      },
      {
        "club_badge_src": null,
        "entry": 2551945,
        "entry_name": "Polo Juniors",
        "event_total": 44,
        "has_played": true,
        "id": 18297035,
        "last_rank": 31995,
        "player_name": "Iain Poulson",
        "rank": 47869,
        "rank_sort": 48040,
        "total": 2353
      },
      {
        "club_badge_src": null,
        "entry": 2564074,
        "entry_name": "Iwobi-Wan Kenobi",
        "event_total": 72,
        "has_played": true,
        "id": 18391458,
        "last_rank": 74898,
        "player_name": "Ollie Wilson",
        "rank": 47869,
        "rank_sort": 48041,
        "total": 2353
      },
      {
        "club_badge_src": null,
        "entry": 2605990,
        "entry_name": "GrandOldTeam",
        "event_total": 58,
        "has_played": true,
        "id": 18719507,
        "last_rank": 49691,
        "player_name": "Rob Jelley",
        "rank": 47869,
        "rank_sort": 48042,
        "total": 2353
      },
      {
        "club_badge_src": null,
        "entry": 2627614,
        "entry_name": "Stella's Stars",
        "event_total": 53,
        "has_played": true,
        "id": 18882156,
        "last_rank": 42648,
        "player_name": "Nicole Taglione",
        "rank": 47869,
        "rank_sort": 48043,
        "total": 2353
      },
      {
        "club_badge_src": null,
        "entry": 2643684,
        "entry_name": "Griff's Geezas",
        "event_total": 43,
        "has_played": true,
        "id": 19001315,
        "last_rank": 30727,
        "player_name": "Cameron Griffin",
        "rank": 47869,
        "rank_sort": 48044,
        "total": 2353
      },
      {
        "club_badge_src": null,
        "entry": 2667567,
        "entry_name": "Juicers",
        "event_total": 69,
        "has_played": true,
        "id": 19178327,
        "last_rank": 68748,
        "player_name": "Mauricio Morales",
        "rank": 47869,
        "rank_sort": 48045,
        "total": 2353
      },
      {
        "club_badge_src": null,
        "entry": 2680612,
        "entry_name": "NJ_Reds_FC",
        "event_total": 64,
        "has_played": true,
        "id": 19279266,
        "last_rank": 59813,
        "player_name": "Binay Oli",
        "rank": 47869,
        "rank_sort": 48046,
        "total": 2353
      },
      {
        "club_badge_src": null,
        "entry": 2683259,
        "entry_name": "Change Name",
        "event_total": 71,
        "has_played": true,
        "id": 19298498,
        "last_rank": 72702,
        "player_name": "Charlie Lee",
        "rank": 47869,
        "rank_sort": 48047,
        "total": 2353
      },
      {
        "club_badge_src": null,
        "entry": 2714896,
        "entry_name": "Glory Hornets",
        "event_total": 82,
        "has_played": true,
        "id": 19534046,
        "last_rank": 98436,
        "player_name": "Neil Guyton",
        "rank": 47869,
        "rank_sort": 48048,
        "total": 2353
      },
      {
        "club_badge_src": null,
        "entry": 2765711,
        "entry_name": "Luton down under",
        "event_total": 74,
        "has_played": true,
        "id": 20178234,
        "last_rank": 79190,
        "player_name": "Ian Potter",
        "rank": 47869,
        "rank_sort": 48049,
        "total": 2353
      },
      {
        "club_badge_src": null,
        "entry": 2765985,
        "entry_name": "Legally Bland",
        "event_total": 45,
        "has_played": true,
        "id": 20180345,
        "last_rank": 32879,
        "player_name": "Louise Bland",
        "rank": 47869,
        "rank_sort": 48050,
        "total": 2353
      }
    ]
  }
}