{
  "last_updated_data": "2026-05-24T23:28:17Z",
  "league": {
    "admin_entry": null,
    "closed": false,
    "code_privacy": "p",
    "created": "2025-07-20T23:14:33.933835Z",
    "cup_league": 2815434,
    "has_cup": true,
    "id": 314,
    "league_type": "s",
    "max_entries": null,
    "name": "Overall",
    "rank": null,
    "scoring": "c",
    "start_event": 1
  },
  "new_entries": {
    "has_next": false,
    "page": 1,
    "results": []
  },
  "standings": {
    "has_next": true,
    "page": 78,
    "results": [
      {
        "club_badge_src": null,
        "entry": 4629826,
        "entry_name": "Bingly Bongly FC",
        "event_total": 54,
        "has_played": true,
        "id": 35399914,
        "last_rank": 3062,
        "player_name": "Finn Kelly",
        "rank": 3847,
        "rank_sort": 3851,
        "total": 2420
      },
      {
        "club_badge_src": null,
        "entry": 7579152,
        "entry_name": "ethqn",
        "event_total": 56,
        "has_played": true,
        "id": 62075879,
        "last_rank": 3377,
        "player_name": "Ethan Nguyen",
        "rank": 3847,
        "rank_sort": 3852,
        "total": 2420
      },
      {
        "club_badge_src": null,
        "entry": 45448,
        "entry_name": "First the Wirtz",
        "event_total": 57,
        "has_played": true,
        "id": 291548,
        "last_rank": 3514,
        "player_name": "Tom Hinson",
        "rank": 3853,
        "rank_sort": 3853,
        "total": 2420
      },
      {
        "club_badge_src": null,
        "entry": 1306476,
        "entry_name": "CunhaCount",
        "event_total": 85,
        "has_played": true,
        "id": 9080899,
        "last_rank": 12092,
        "player_name": "Sean Jukes",
        "rank": 3853,
        "rank_sort": 3854,
        "total": 2420
      },
      {
        "club_badge_src": null,
        "entry": 254689,
        "entry_name": "Arizona Bay",
        "event_total": 67,
        "has_played": true,
        "id": 1694134,
        "last_rank": 5627,
        "player_name": "Reece Pearson",
        "rank": 3855,
        "rank_sort": 3855,
        "total": 2420
      },
      {
        "club_badge_src": null,
        "entry": 264129,
        "entry_name": "Expected Toulouse",
        "event_total": 61,
        "has_played": true,
        "id": 1756351,
        "last_rank": 4270,
        "player_name": "Darren Walsh",
        "rank": 3855,
        "rank_sort": 3856,
        "total": 2420
      },
      {
        "club_badge_src": null,
        "entry": 462495,
        "entry_name": "Leohihi",
        "event_total": 65,
        "has_played": true,
        "id": 3102334,
        "last_rank": 5135,
        "player_name": "Leo Tang",
        "rank": 3855,
        "rank_sort": 3857,
        "total": 2420
      },
      {
        "club_badge_src": null,
        "entry": 654946,
        "entry_name": "GGMU",
        "event_total": 70,
        "has_played": true,
        "id": 4426248,
        "last_rank": 6392,
        "player_name": "ahmed nader",
        "rank": 3855,
        "rank_sort": 3858,
        "total": 2420
      },
      {
        "club_badge_src": "https://fantasy.premierleague.com/gcs/plfpl-production-adobe-approved/plfpl-production/722377/68ab614e-5df1-48c7-9972-1aec3d7f6a76.png",
        "entry": 722377,
        "entry_name": "AlyBs",
        "event_total": 55,
        "has_played": true,
        "id": 4906103,
        "last_rank": 3227,
        "player_name": "Alysha Bliss",
        "rank": 3855,
        "rank_sort": 3859,
        "total": 2420
      },
      {
        "club_badge_src": null,
        "entry": 2196242,
        "entry_name": "K@r@^j!T B@RR@g\u00a3",
        "event_total": 65,
        "has_played": true,
        "id": 15627139,
        "last_rank": 5129,
        "player_name": "Prashib Karanjit",
        "rank": 3855,
        "rank_sort": 3860,
        "total": 2420
      },
      {
        "club_badge_src": null,
        "entry": 2806859,
        "entry_name": "Joe-se Mourinho",
        "event_total": 58,
        "has_played": true,
        "id": 20498690,
        "last_rank": 3699,
        "player_name": "Johannes Sletten Gruner",
        "rank": 3855,
        "rank_sort": 3861,
        "total": 2420
      },
      {
        "club_badge_src": "https://fantasy.premierleague.com/gcs/plfpl-production-adobe-approved/plfpl-production/2950639/73f68ea0-b39c-428f-90d5-5308c0422d3b.png",
        "entry": 2950639,
        "entry_name": "Magic Appels",
        "event_total": 58,
        "has_played": true,
        "id": 21669976,
        "last_rank": 3699,
        "player_name": "Brian Appeldoorn",
        "rank": 3855,
        "rank_sort": 3862,
        "total": 2420
      },
      {
        "club_badge_src": null,
        "entry": 3373920,
        "entry_name": "Secret Squirrels",
        "event_total": 72,
        "has_played": true,
        "id": 25041589,
        "last_rank": 7059,
        "player_name": "Chris Celotto",
        "rank": 3855,
        "rank_sort": 3863,
        "total": 2420
      },
      {
        "club_badge_src": null,
        "entry": 3412628,
        "entry_name": "CameronFarterLickers",
        "event_total": 63,
        "has_played": true,
        "id": 25344491,
        "last_rank": 4704,
        "player_name": "Mackenzie Brown",
        "rank": 3855,
        "rank_sort": 3864,
        "total": 2420
      },
      {
        "club_badge_src": null,
        "entry": 3982503,
        "entry_name": "Delap's around the",
        "event_total": 71,
        "has_played": true,
        "id": 29979655,
        "last_rank": 6703,
        "player_name": "Christo Smit",
        "rank": 3855,
        "rank_sort": 3865,
        "total": 2420
      },
      {
        "club_badge_src": null,
        "entry": 4673455,
        "entry_name": "5 2 1",
        "event_total": 70,
        "has_played": true,
        "id": 35799829,
        "last_rank": 6392,
        "player_name": "Mina Mourad",
        "rank": 3855,
        "rank_sort": 3866,
        "total": 2420
      },
      {
        "club_badge_src": null,
        "entry": 5046821,
        "entry_name": "Sn\u00e5saSportAillforein",
        "event_total": 84,
        "has_played": true,
        "id": 38987407,
        "last_rank": 11588,
        "player_name": "Peder Benum",
        "rank": 3855,
        "rank_sort": 3867,
        "total": 2420
      },
      {
        "club_badge_src": null,
        "entry": 5269476,
        "entry_name": "Rocky Rodon",
        "event_total": 66,
        "has_played": true,
        "id": 40841860,
        "last_rank": 5448,
        "player_name": "Lee ORourke",
        "rank": 3855,
        "rank_sort": 3868,
        "total": 2420
      },
      {
        "club_badge_src": "https://fantasy.premierleague.com/gcs/plfpl-production-adobe-approved/plfpl-production/6352669/db193fba-90ba-426c-9dd2-3d4131624217.png",
        "entry": 6352669,
        "entry_name": "Stay Humble 1",
        "event_total": 42,
        "has_played": true,
        "id": 50503201,
        "last_rank": 1689,
        "player_name": "Komsak -1",
        "rank": 3855,
        "rank_sort": 3869,
        "total": 2420
      },
      {
        "club_badge_src": null,
        "entry": 21045,
        "entry_name": "\u2018it can\u2019",
        "event_total": 69,
        "has_played": true,
        "id": 131870,
        "last_rank": 6194,
        "player_name": "Max Edwards-Stryjewski",
        "rank": 3870,
        "rank_sort": 3870,
        "total": 2420
      },
      {
        "club_badge_src": null,
        "entry": 23672,
        "entry_name": "Ahmad Hoshyar",
        "event_total": 61,
        "has_played": true,
        "id": 149195,
        "last_rank": 4303,
        "player_name": "Ahmad Hoshyar",
        "rank": 3870,
        "rank_sort": 3871,
        "total": 2420
      },
      {
        "club_badge_src": null,
        "entry": 33634,
        "entry_name": "Paqueta Busquets",
        "event_total": 66,
        "has_played": true,
        "id": 214572,
        "last_rank": 5400,
        "player_name": "Greg Everett",
        "rank": 3870,
        "rank_sort": 3872,
        "total": 2420
      },
      {
        "club_badge_src": null,
        "entry": 35201,
        "entry_name": "Lawrence of A-Lavia",
        "event_total": 60,
        "has_played": true,
        "id": 225189,
        "last_rank": 4062,
        "player_name": "Callum Parkins",
        "rank": 3870,
        "rank_sort": 3873,
        "total": 2420
      },
      {
        "club_badge_src": null,
        "entry": 44704,
        "entry_name": "FraN11",
        "event_total": 65,
        "has_played": true,
        "id": 286578,
        "last_rank": 5135,
        "player_name": "Josip Babic",
        "rank": 3870,
        "rank_sort": 3874,
        "total": 2420
      },
      {
        "club_badge_src": null,
        "entry": 84282,
        "entry_name": "sholyp",
        "event_total": 61,
        "has_played": true,
        "id": 548698,
        "last_rank": 4303,
        "player_name": "shola Akin",
        "rank": 3870,
        "rank_sort": 3875,
        "total": 2420
      },
      {
        "club_badge_src": null,
        "entry": 102224,
        "entry_name": "Karateklubben",
        "event_total": 54,
        "has_played": true,
        "id": 666956,
        "last_rank": 3103,
        "player_name": "Emil Wara Midtlyng",
        "rank": 3870,
        "rank_sort": 3876,
        "total": 2420
      },
      {
        "club_badge_src": null,
        "entry": 321926,
        "entry_name": "\u0644\u0627\u062d\u0627",
        "event_total": 62,
        "has_played": true,
        "id": 2157443,
        "last_rank": 4515,
        "player_name": "Salah Aglan",
        "rank": 3870,
        "rank_sort": 3877,
        "total": 2420
      },
      {
        "club_badge_src": "https://fantasy.premierleague.com/gcs/plfpl-production-adobe-approved/plfpl-production/329438/f86579af-42ef-49ac-a2f8-8783c80dc84b.png",
        "entry": 329438,
        "entry_name": "Kinder Mbuemo",
        "event_total": 65,
        "has_played": true,
        "id": 2206828,
        "last_rank": 5147,
        "player_name": "Lewis Windle",
        "rank": 3870,
        "rank_sort": 3878,
        "total": 2420
      },
      {
        "club_badge_src": null,
        "entry": 340977,
        "entry_name": "kazhugu rani",
        "event_total": 58,
        "has_played": true,
        "id": 2282406,
        "last_rank": 3721,
        "player_name": "UnFit Onion",
        "rank": 3870,
        "rank_sort": 3879,
        "total": 2420
      },
      {
        "club_badge_src": null,
        "entry": 355641,
        "entry_name": "Fleetwood Makelele",
        "event_total": 49,
        "has_played": true,
        "id": 2380072,
        "last_rank": 2418,
        "player_name": "Josh Fairley",
        "rank": 3870,
        "rank_sort": 3880,
        "total": 2420
      },
      {
        "club_badge_src": null,
        "entry": 383729,
        "entry_name": "Bynoe Means Certain",
        "event_total": 66,
        "has_played": true,
        "id": 2573505,
        "last_rank": 5448,
        "player_name": "Lawrence Greaves",
        "rank": 3870,
        "rank_sort": 3881,
        "total": 2420
      },
      {
        "club_badge_src": null,
        "entry": 415771,
        "entry_name": "Levelling the land",
        "event_total": 61,
        "has_played": true,
        "id": 2787261,
        "last_rank": 4270,
        "player_name": "Matt Quinton-Selwood",
        "rank": 3870,
        "rank_sort": 3882,
        "total": 2420
      },
      {
        "club_badge_src": "https://fantasy.premierleague.com/gcs/plfpl-production-adobe-approved/plfpl-production/481091/1dc5b1ff-4734-471a-bbbf-040260e7c59c.png",
        "entry": 481091,
        "entry_name": "Kobbie-Doobie-Doo",
        "event_total": 68,
        "has_played": true,
        "id": 3229817,
        "last_rank": 5940,
        "player_name": "steven vallejo",
        "rank": 3870,
        "rank_sort": 3883,
        "total": 2420
      },
      {
        "club_badge_src": null,
        "entry": 714867,
        "entry_name": "Can't Get Any Wirtz",
        "event_total": 49,
        "has_played": true,
        "id": 4850002,
        "last_rank": 2418,
        "player_name": "Lachlan Ball",
        "rank": 3870,
        "rank_sort": 3884,
        "total": 2420
      },
      {
        "club_badge_src": null,
        "entry": 724273,
        "entry_name": "Howe is the bacon?",
        "event_total": 63,
        "has_played": true,
        "id": 4919242,
        "last_rank": 4742,
        "player_name": "Jack Smith",
        "rank": 3870,
        "rank_sort": 3885,
        "total": 2420
      },
      {
        "club_badge_src": null,
        "entry": 767922,
        "entry_name": "Romero your boat",
        "event_total": 50,
        "has_played": true,
        "id": 5237751,
        "last_rank": 2553,
        "player_name": "Daniel Fluskey",
        "rank": 3870,
        "rank_sort": 3886,
        "total": 2420
      },
      {
        "club_badge_src": null,
        "entry": 774151,
        "entry_name": "Smith Rowe Your Boat",
        "event_total": 68,
        "has_played": true,
        "id": 5281878,
        "last_rank": 5940,
        "player_name": "James Taylor",
        "rank": 3870,
        "rank_sort": 3887,
        "total": 2420
      },
      {
        "club_badge_src": null,
        "entry": 799041,
        "entry_name": "Ratkovici FC",
        "event_total": 60,
        "has_played": true,
        "id": 5469165,
        "last_rank": 4047,
        "player_name": "Amer Ratkovic",
        "rank": 3870,
        "rank_sort": 3888,
        "total": 2420
      },
      {
        "club_badge_src": null,
        "entry": 835532,
        "entry_name": "USYK",
        "event_total": 48,
        "has_played": true,
        "id": 5723613,
        "last_rank": 2300,
        "player_name": "Salem Mliki",
        "rank": 3870,
        "rank_sort": 3889,
        "total": 2420
      },
      {
        "club_badge_src": null,
        "entry": 851101,
        "entry_name": "THIERRY ON OUI",
        "event_total": 75,
        "has_played": true,
        "id": 5833651,
        "last_rank": 7959,
        "player_name": "Luke Constantinou",
        "rank": 3870,
        "rank_sort": 3890,
        "total": 2420
      },
      {
        "club_badge_src": null,
        "entry": 925343,
        "entry_name": "Loopy",
        "event_total": 65,
        "has_played": true,
        "id": 6365810,
        "last_rank": 5173,
        "player_name": "Lawrence Fields",
        "rank": 3870,
        "rank_sort": 3891,
        "total": 2420
      },
      {
        "club_badge_src": null,
        "entry": 1261554,
        "entry_name": "Wirtz name ever",
        "event_total": 65,
        "has_played": true,
        "id": 8763187,
        "last_rank": 5147,
        "player_name": "Alex Hillier-Richardson",
        "rank": 3870,
        "rank_sort": 3892,
        "total": 2420
      },
      {
        "club_badge_src": null,
        "entry": 1273707,
        "entry_name": "Guess Club 7",
        "event_total": 60,
        "has_played": true,
        "id": 8850349,
        "last_rank": 4099,
        "player_name": "Alfie Brookes",
        "rank": 3870,
        "rank_sort": 3893,
        "total": 2420
      },
      {
        "club_badge_src": "https://fantasy.premierleague.com/gcs/plfpl-production-adobe-approved/plfpl-production/1593044/e12a97af-a423-46fc-a8df-ac01d9509f21.png",
        "entry": 1593044,
        "entry_name": "kosminiai",
        "event_total": 66,
        "has_played": true,
        "id": 11140655,
        "last_rank": 5448,
        "player_name": "Matas Siaurusevicius",
        "rank": 3870,
        "rank_sort": 3894,
        "total": 2420
      },
      {
        "club_badge_src": null,
        "entry": 1702954,
        "entry_name": "3bdo",
        "event_total": 63,
        "has_played": true,
        "id": 11929383,
        "last_rank": 4742,
        "player_name": "Abdo samir",
        "rank": 3870,
        "rank_sort": 3895,
        "total": 2420
      },
      {
        "club_badge_src": null,
        "entry": 1712522,
        "entry_name": "\u0413\u0432\u043e\u0437\u0434\u0435\u043d\u0438 \u043f\u0443\u043a \u2b50",
        "event_total": 49,
        "has_played": true,
        "id": 11999537,
        "last_rank": 2418,
        "player_name": "Aleksandar Dupor",
        "rank": 3870,
        "rank_sort": 3896,
        "total": 2420
      },
      {
        "club_badge_src": null,
        "entry": 1805040,
        "entry_name": "PremierDons",
        "event_total": 66,
        "has_played": true,
        "id": 12689665,
        "last_rank": 5448,
        "player_name": "Ian Donaldson",
        "rank": 3870,
        "rank_sort": 3897,
        "total": 2420
      },
      {
        "club_badge_src": null,
        "entry": 2087779,
        "entry_name": "ZG Plavci",
        "event_total": 62,
        "has_played": true,
        "id": 14811976,
        "last_rank": 4515,
        "player_name": "Josip Juki\u0107",
        "rank": 3870,
        "rank_sort": 3898,
        "total": 2420
      },
      {
        "club_badge_src": null,
        "entry": 2354452,
        "entry_name": "JOJO_TEAM",
        "event_total": 67,
        "has_played": true,
        "id": 16799921,
        "last_rank": 5688,
        "player_name": "jojo 1980",
        "rank": 3870,
        "rank_sort": 3899,
        "total": 2420
      },
      {
        "club_badge_src": "https://fantasy.premierleague.com/gcs/plfpl-production-adobe-approved/plfpl-production/2630910/55dc86b8-dc2f-41b9-ab0a-5ecf69e9d0e7.png",
        "entry": 2630910,
        "entry_name": "BOYS-of-SLOT",
        "event_total": 59,
        "has_played": true,
        "id": 18907518,
        "last_rank": 3866,
        "player_name": "Peter -mono- Bahl",
        "rank": 3870,
        "rank_sort": 3900,
        "total": 2420
      }
    ]
  }
}