{
  "last_updated_data": "2026-05-24T23:28:17Z",
  "league": {
    "admin_entry": null,
    "closed": false,
    "code_privacy": "p",
    "created": "2025-07-20T23:14:33.933835Z",
    "cup_league": 2815434,
    "has_cup": true,
    "id": 314,
    "league_type": "s",
    "max_entries": null,
    "name": "Overall",
    "rank": null,
    "scoring": "c",
    "start_event": 1
  },
  "new_entries": {
    "has_next": false,
    "page": 1,
    "results": []
  },
  "standings": {
    "has_next": true,
    "page": 1460,
    "results": [
      {
        "club_badge_src": null,
        "entry": 86356,
        "entry_name": "Dude where\u2019s my Sarr",
        "event_total": 60,
        "has_played": true,
        "id": 562733,
        "last_rank": 80651,
        "player_name": "Pete Squires",
        "rank": 72944,
        "rank_sort": 72951,
        "total": 2339
      },
      {
        "club_badge_src": null,
        "entry": 109442,
        "entry_name": "Bondi Pam",
        "event_total": 49,
        "has_played": true,
        "id": 713573,
        "last_rank": 59170,
        "player_name": "\u0414\u0435\u043d\u0438\u0441 \u0411\u0430\u0440\u0430\u0434\u0443\u043b\u0438\u043d",
        "rank": 72944,
        "rank_sort": 72952,
        "total": 2339
      },
      {
        "club_badge_src": null,
        "entry": 141488,
        "entry_name": "Salamanca",
        "event_total": 67,
        "has_played": true,
        "id": 924448,
        "last_rank": 97470,
        "player_name": "ahmed salah",
        "rank": 72944,
        "rank_sort": 72953,
        "total": 2339
      },
      {
        "club_badge_src": null,
        "entry": 150016,
        "entry_name": "Manchester North",
        "event_total": 67,
        "has_played": true,
        "id": 983692,
        "last_rank": 97096,
        "player_name": "HamidReza Ahmadi",
        "rank": 72944,
        "rank_sort": 72954,
        "total": 2339
      },
      {
        "club_badge_src": null,
        "entry": 156581,
        "entry_name": "SpyzPS",
        "event_total": 59,
        "has_played": true,
        "id": 1029741,
        "last_rank": 78671,
        "player_name": "Phasut Satta",
        "rank": 72944,
        "rank_sort": 72955,
        "total": 2339
      },
      {
        "club_badge_src": null,
        "entry": 196495,
        "entry_name": "LET'S BE 'AVIN YOU",
        "event_total": 55,
        "has_played": true,
        "id": 1303436,
        "last_rank": 62617,
        "player_name": "Harry Scargill",
        "rank": 72944,
        "rank_sort": 72956,
        "total": 2339
      },
      {
        "club_badge_src": null,
        "entry": 203844,
        "entry_name": "DAVONCHRISTHEGREAT",
        "event_total": 48,
        "has_played": true,
        "id": 1354495,
        "last_rank": 57200,
        "player_name": "Victor Nwanzekwue",
        "rank": 72944,
        "rank_sort": 72957,
        "total": 2339
      },
      {
        "club_badge_src": "https://fantasy.premierleague.com/gcs/plfpl-production-adobe-approved/plfpl-production/250703/b65626a9-36ba-4cfc-a71e-a4276d77b248.png",
        "entry": 250703,
        "entry_name": "Dutch Rudders",
        "event_total": 60,
        "has_played": true,
        "id": 1667968,
        "last_rank": 64190,
        "player_name": "Dan Scholes",
        "rank": 72944,
        "rank_sort": 72958,
        "total": 2339
      },
      {
        "club_badge_src": null,
        "entry": 264761,
        "entry_name": "Hold My Wirtz",
        "event_total": 52,
        "has_played": true,
        "id": 1760744,
        "last_rank": 44525,
        "player_name": "Magnus Smed",
        "rank": 72944,
        "rank_sort": 72959,
        "total": 2339
      },
      {
        "club_badge_src": null,
        "entry": 323138,
        "entry_name": "Badeball FK",
        "event_total": 63,
        "has_played": true,
        "id": 2165491,
        "last_rank": 69907,
        "player_name": "Sebastian Wollbraaten",
        "rank": 72944,
        "rank_sort": 72960,
        "total": 2339
      },
      {
        "club_badge_src": null,
        "entry": 340536,
        "entry_name": "Gooners FC",
        "event_total": 68,
        "has_played": true,
        "id": 2279447,
        "last_rank": 80194,
        "player_name": "Yash Joggani",
        "rank": 72944,
        "rank_sort": 72961,
        "total": 2339
      },
      {
        "club_badge_src": null,
        "entry": 357474,
        "entry_name": "A-Cunha Mateta",
        "event_total": 43,
        "has_played": true,
        "id": 2392246,
        "last_rank": 43444,
        "player_name": "Rory Lynch",
        "rank": 72944,
        "rank_sort": 72962,
        "total": 2339
      },
      {
        "club_badge_src": null,
        "entry": 437051,
        "entry_name": "Livin' Saliba Loca",
        "event_total": 55,
        "has_played": true,
        "id": 2930819,
        "last_rank": 55514,
        "player_name": "Ed Chesnick",
        "rank": 72944,
        "rank_sort": 72963,
        "total": 2339
      },
      {
        "club_badge_src": null,
        "entry": 483855,
        "entry_name": "FC Vaslui",
        "event_total": 62,
        "has_played": true,
        "id": 3247908,
        "last_rank": 76330,
        "player_name": "Alin Bujor",
        "rank": 72944,
        "rank_sort": 72964,
        "total": 2339
      },
      {
        "club_badge_src": "https://fantasy.premierleague.com/gcs/plfpl-production-adobe-approved/plfpl-production/494094/fa85112f-a698-4b7f-8d01-d5815107b419.png",
        "entry": 494094,
        "entry_name": "Sharky Bangers",
        "event_total": 55,
        "has_played": true,
        "id": 3316528,
        "last_rank": 62617,
        "player_name": "Tom Smith",
        "rank": 72944,
        "rank_sort": 72965,
        "total": 2339
      },
      {
        "club_badge_src": "https://fantasy.premierleague.com/gcs/plfpl-production-adobe-approved/plfpl-production/519942/2757ae73-5933-4a6e-86b7-f774d7a36667.png",
        "entry": 519942,
        "entry_name": "NadDruzyna",
        "event_total": 63,
        "has_played": true,
        "id": 3491402,
        "last_rank": 87350,
        "player_name": "Marcin Najowicz",
        "rank": 72944,
        "rank_sort": 72966,
        "total": 2339
      },
      {
        "club_badge_src": null,
        "entry": 528071,
        "entry_name": "Ahmed amine",
        "event_total": 49,
        "has_played": true,
        "id": 3550172,
        "last_rank": 59170,
        "player_name": "ahmed amine",
        "rank": 72944,
        "rank_sort": 72967,
        "total": 2339
      },
      {
        "club_badge_src": null,
        "entry": 536973,
        "entry_name": "Labella FC",
        "event_total": 57,
        "has_played": true,
        "id": 3614485,
        "last_rank": 58688,
        "player_name": "A Labella",
        "rank": 72944,
        "rank_sort": 72968,
        "total": 2339
      },
      {
        "club_badge_src": null,
        "entry": 553771,
        "entry_name": "Average",
        "event_total": 58,
        "has_played": true,
        "id": 3727232,
        "last_rank": 60671,
        "player_name": "C K",
        "rank": 72944,
        "rank_sort": 72969,
        "total": 2339
      },
      {
        "club_badge_src": null,
        "entry": 566083,
        "entry_name": "Bernardi Wizards",
        "event_total": 89,
        "has_played": true,
        "id": 3810099,
        "last_rank": 165928,
        "player_name": "Graham Bernardi",
        "rank": 72944,
        "rank_sort": 72970,
        "total": 2339
      },
      {
        "club_badge_src": "https://fantasy.premierleague.com/gcs/plfpl-production-adobe-approved/plfpl-production/600066/2c8369e7-48c9-40a8-a22f-38fc37f55024.png",
        "entry": 600066,
        "entry_name": "Sotmo UTD",
        "event_total": 66,
        "has_played": true,
        "id": 4048339,
        "last_rank": 85207,
        "player_name": "Shane Malfent",
        "rank": 72944,
        "rank_sort": 72971,
        "total": 2339
      },
      {
        "club_badge_src": null,
        "entry": 643995,
        "entry_name": "What\u2019s Rob Holding",
        "event_total": 70,
        "has_played": true,
        "id": 4352210,
        "last_rank": 84980,
        "player_name": "Tomus Garbutt",
        "rank": 72944,
        "rank_sort": 72972,
        "total": 2339
      },
      {
        "club_badge_src": null,
        "entry": 671355,
        "entry_name": "Cunha Beleba It",
        "event_total": 51,
        "has_played": true,
        "id": 4540923,
        "last_rank": 55659,
        "player_name": "Nick Chadwick",
        "rank": 72944,
        "rank_sort": 72973,
        "total": 2339
      },
      {
        "club_badge_src": null,
        "entry": 753510,
        "entry_name": "Under my cucurella",
        "event_total": 56,
        "has_played": true,
        "id": 5127941,
        "last_rank": 72265,
        "player_name": "Ben Lansbury",
        "rank": 72944,
        "rank_sort": 72974,
        "total": 2339
      },
      {
        "club_badge_src": null,
        "entry": 756179,
        "entry_name": "Saved by the balls",
        "event_total": 48,
        "has_played": true,
        "id": 5148190,
        "last_rank": 44672,
        "player_name": "Roger Bruaset",
        "rank": 72944,
        "rank_sort": 72975,
        "total": 2339
      },
      {
        "club_badge_src": null,
        "entry": 764789,
        "entry_name": "EsmalBlack",
        "event_total": 66,
        "has_played": true,
        "id": 5215941,
        "last_rank": 94778,
        "player_name": "Mahesh Nepal",
        "rank": 72944,
        "rank_sort": 72976,
        "total": 2339
      },
      {
        "club_badge_src": null,
        "entry": 790474,
        "entry_name": "Mikel's Masterplan",
        "event_total": 61,
        "has_played": true,
        "id": 5408962,
        "last_rank": 73975,
        "player_name": "Mark Aplin",
        "rank": 72944,
        "rank_sort": 72977,
        "total": 2339
      },
      {
        "club_badge_src": null,
        "entry": 892228,
        "entry_name": "Waru Warriors FC",
        "event_total": 61,
        "has_played": true,
        "id": 6126474,
        "last_rank": 83018,
        "player_name": "Casper Misheveve",
        "rank": 72944,
        "rank_sort": 72978,
        "total": 2339
      },
      {
        "club_badge_src": null,
        "entry": 1000487,
        "entry_name": "Davo Hotspur",
        "event_total": 72,
        "has_played": true,
        "id": 6915882,
        "last_rank": 110573,
        "player_name": "Steve Davison",
        "rank": 72944,
        "rank_sort": 72979,
        "total": 2339
      },
      {
        "club_badge_src": null,
        "entry": 1007974,
        "entry_name": "Beef cherki",
        "event_total": 52,
        "has_played": true,
        "id": 6968828,
        "last_rank": 64422,
        "player_name": "Mami Sherif",
        "rank": 72944,
        "rank_sort": 72980,
        "total": 2339
      },
      {
        "club_badge_src": null,
        "entry": 1038024,
        "entry_name": "Worian Flirtz",
        "event_total": 76,
        "has_played": true,
        "id": 7183243,
        "last_rank": 99296,
        "player_name": "Jack Mcmaster",
        "rank": 72944,
        "rank_sort": 72981,
        "total": 2339
      },
      {
        "club_badge_src": null,
        "entry": 1065004,
        "entry_name": "Bennyz Boyz",
        "event_total": 66,
        "has_played": true,
        "id": 7372730,
        "last_rank": 85207,
        "player_name": "Benjamin Yvon",
        "rank": 72944,
        "rank_sort": 72982,
        "total": 2339
      },
      {
        "club_badge_src": null,
        "entry": 1111740,
        "entry_name": "The one and only",
        "event_total": 65,
        "has_played": true,
        "id": 7700904,
        "last_rank": 82873,
        "player_name": "Tarzan Boy",
        "rank": 72944,
        "rank_sort": 72983,
        "total": 2339
      },
      {
        "club_badge_src": null,
        "entry": 1114525,
        "entry_name": "Cucu\u2019s b\u00f6jz",
        "event_total": 51,
        "has_played": true,
        "id": 7720121,
        "last_rank": 62812,
        "player_name": "Ludwig Linn\u00e9",
        "rank": 72944,
        "rank_sort": 72984,
        "total": 2339
      },
      {
        "club_badge_src": null,
        "entry": 1148262,
        "entry_name": "BK Magic Boys",
        "event_total": 54,
        "has_played": true,
        "id": 7961495,
        "last_rank": 68216,
        "player_name": "Robert Johansson",
        "rank": 72944,
        "rank_sort": 72985,
        "total": 2339
      },
      {
        "club_badge_src": "https://fantasy.premierleague.com/gcs/plfpl-production-adobe-approved/plfpl-production/1161949/3f037c92-98f4-4be5-9b70-48bf866b2719.png",
        "entry": 1161949,
        "entry_name": "black knight",
        "event_total": 55,
        "has_played": true,
        "id": 8060267,
        "last_rank": 70183,
        "player_name": "fares samir",
        "rank": 72944,
        "rank_sort": 72986,
        "total": 2339
      },
      {
        "club_badge_src": null,
        "entry": 1218244,
        "entry_name": "chachacha",
        "event_total": 53,
        "has_played": true,
        "id": 8456610,
        "last_rank": 59077,
        "player_name": "CHANON RUSAMIPRASERT",
        "rank": 72944,
        "rank_sort": 72987,
        "total": 2339
      },
      {
        "club_badge_src": null,
        "entry": 1229308,
        "entry_name": "Fat Dogs",
        "event_total": 63,
        "has_played": true,
        "id": 8535836,
        "last_rank": 87710,
        "player_name": "Curtis Ryan",
        "rank": 72944,
        "rank_sort": 72988,
        "total": 2339
      },
      {
        "club_badge_src": null,
        "entry": 1322387,
        "entry_name": "Cards1982",
        "event_total": 69,
        "has_played": true,
        "id": 9191911,
        "last_rank": 102501,
        "player_name": "Liz Egger",
        "rank": 72944,
        "rank_sort": 72989,
        "total": 2339
      },
      {
        "club_badge_src": null,
        "entry": 1408367,
        "entry_name": "Oelgaard BK",
        "event_total": 68,
        "has_played": true,
        "id": 9799729,
        "last_rank": 99806,
        "player_name": "Magnus \u00d8lg\u00e5rd",
        "rank": 72944,
        "rank_sort": 72990,
        "total": 2339
      },
      {
        "club_badge_src": null,
        "entry": 1476893,
        "entry_name": "Coors they  gonnawin",
        "event_total": 62,
        "has_played": true,
        "id": 10296282,
        "last_rank": 85349,
        "player_name": "Jason Mark",
        "rank": 72944,
        "rank_sort": 72991,
        "total": 2339
      },
      {
        "club_badge_src": null,
        "entry": 1505374,
        "entry_name": "Flying fin Niskanwin",
        "event_total": 61,
        "has_played": true,
        "id": 10498641,
        "last_rank": 83018,
        "player_name": "Adrian Webber",
        "rank": 72944,
        "rank_sort": 72992,
        "total": 2339
      },
      {
        "club_badge_src": null,
        "entry": 1624318,
        "entry_name": "De Lahdedah",
        "event_total": 55,
        "has_played": true,
        "id": 11368842,
        "last_rank": 55514,
        "player_name": "Daniel O'Sullivan",
        "rank": 72944,
        "rank_sort": 72993,
        "total": 2339
      },
      {
        "club_badge_src": null,
        "entry": 1630638,
        "entry_name": "Watnall WotNotts",
        "event_total": 38,
        "has_played": true,
        "id": 11413383,
        "last_rank": 42152,
        "player_name": "John Cleverley",
        "rank": 72944,
        "rank_sort": 72994,
        "total": 2339
      },
      {
        "club_badge_src": null,
        "entry": 1745275,
        "entry_name": "Bj\u00f8rnstjerne",
        "event_total": 58,
        "has_played": true,
        "id": 12246500,
        "last_rank": 67926,
        "player_name": "Bj\u00f8rn R. St\u00f8ylen",
        "rank": 72944,
        "rank_sort": 72995,
        "total": 2339
      },
      {
        "club_badge_src": null,
        "entry": 1836979,
        "entry_name": "tahzi  team \u2620\ufe0f",
        "event_total": 56,
        "has_played": true,
        "id": 12923132,
        "last_rank": 64319,
        "player_name": "Hamza letaief\ud83c\uddf9\ud83c\uddf3\ud83c\uddf5\ud83c\uddf8",
        "rank": 72944,
        "rank_sort": 72996,
        "total": 2339
      },
      {
        "club_badge_src": null,
        "entry": 1884543,
        "entry_name": "Net Six and Chill",
        "event_total": 60,
        "has_played": true,
        "id": 13279252,
        "last_rank": 80651,
        "player_name": "Jamie Short",
        "rank": 72944,
        "rank_sort": 72997,
        "total": 2339
      },
      {
        "club_badge_src": "https://fantasy.premierleague.com/gcs/plfpl-production-adobe-approved/plfpl-production/1922393/7f54b686-f2ef-47ed-8c09-f13fe5611b5d.png",
        "entry": 1922393,
        "entry_name": "Marthad Hisham",
        "event_total": 66,
        "has_played": true,
        "id": 13557056,
        "last_rank": 94933,
        "player_name": "Marthad Hisham",
        "rank": 72944,
        "rank_sort": 72998,
        "total": 2339
      },
      {
        "club_badge_src": null,
        "entry": 2041715,
        "entry_name": "diaa",
        "event_total": 60,
        "has_played": true,
        "id": 14458701,
        "last_rank": 80651,
        "player_name": "Diaa Elkady",
        "rank": 72944,
        "rank_sort": 72999,
        "total": 2339
      },
      {
        "club_badge_src": null,
        "entry": 2092749,
        "entry_name": "Gse Nna ke situation",
        "event_total": 54,
        "has_played": true,
        "id": 14848061,
        "last_rank": 68216,
        "player_name": "Thato Johannes",
        "rank": 72944,
        "rank_sort": 73000,
        "total": 2339
      }
    ]
  }
}