{
  "last_updated_data": "2026-05-24T23:28:17Z",
  "league": {
    "admin_entry": null,
    "closed": false,
    "code_privacy": "p",
    "created": "2025-07-20T23:14:33.933835Z",
    "cup_league": 2815434,
    "has_cup": true,
    "id": 314,
    "league_type": "s",
    "max_entries": null,
    "name": "Overall",
    "rank": null,
    "scoring": "c",
    "start_event": 1
  },
  "new_entries": {
    "has_next": false,
    "page": 1,
    "results": []
  },
  "standings": {
    "has_next": true,
    "page": 693,
    "results": [
      {
        "club_badge_src": null,
        "entry": 12186,
        "entry_name": "Allaways Allstars",
        "event_total": 58,
        "has_played": true,
        "id": 72722,
        "last_rank": 31125,
        "player_name": "Peter Allaway",
        "rank": 34599,
        "rank_sort": 34601,
        "total": 2364
      },
      {
        "club_badge_src": null,
        "entry": 14931,
        "entry_name": "Flaco\u2019s  Flock",
        "event_total": 67,
        "has_played": true,
        "id": 91196,
        "last_rank": 47596,
        "player_name": "Dan H",
        "rank": 34599,
        "rank_sort": 34602,
        "total": 2364
      },
      {
        "club_badge_src": null,
        "entry": 16628,
        "entry_name": "Kane Unable!",
        "event_total": 49,
        "has_played": true,
        "id": 102818,
        "last_rank": 22830,
        "player_name": "Ben Simpson",
        "rank": 34599,
        "rank_sort": 34603,
        "total": 2364
      },
      {
        "club_badge_src": null,
        "entry": 17003,
        "entry_name": "FPLKHUSH",
        "event_total": 61,
        "has_played": true,
        "id": 105316,
        "last_rank": 39403,
        "player_name": "Khushal Pugalia",
        "rank": 34599,
        "rank_sort": 34604,
        "total": 2364
      },
      {
        "club_badge_src": null,
        "entry": 20915,
        "entry_name": "Change Name",
        "event_total": 57,
        "has_played": true,
        "id": 130949,
        "last_rank": 34682,
        "player_name": "Aditya hoque syed",
        "rank": 34599,
        "rank_sort": 34605,
        "total": 2364
      },
      {
        "club_badge_src": null,
        "entry": 22886,
        "entry_name": "Spineleaf FC",
        "event_total": 66,
        "has_played": true,
        "id": 143912,
        "last_rank": 40503,
        "player_name": "Piotr Wajda",
        "rank": 34599,
        "rank_sort": 34606,
        "total": 2364
      },
      {
        "club_badge_src": null,
        "entry": 29987,
        "entry_name": "FPL \u00c9ire",
        "event_total": 56,
        "has_played": true,
        "id": 189718,
        "last_rank": 29071,
        "player_name": "Niall Crossan",
        "rank": 34599,
        "rank_sort": 34607,
        "total": 2364
      },
      {
        "club_badge_src": null,
        "entry": 35766,
        "entry_name": "Johnny Johnny Stones",
        "event_total": 66,
        "has_played": true,
        "id": 228948,
        "last_rank": 40503,
        "player_name": "The Best",
        "rank": 34599,
        "rank_sort": 34608,
        "total": 2364
      },
      {
        "club_badge_src": null,
        "entry": 44795,
        "entry_name": "FC Gung-Ho",
        "event_total": 62,
        "has_played": true,
        "id": 287204,
        "last_rank": 40647,
        "player_name": "Varmo Habonen",
        "rank": 34599,
        "rank_sort": 34609,
        "total": 2364
      },
      {
        "club_badge_src": null,
        "entry": 47512,
        "entry_name": "Towerhill F.C",
        "event_total": 69,
        "has_played": true,
        "id": 304800,
        "last_rank": 50468,
        "player_name": "Luke O Malley",
        "rank": 34599,
        "rank_sort": 34610,
        "total": 2364
      },
      {
        "club_badge_src": null,
        "entry": 52620,
        "entry_name": "nugeys xi",
        "event_total": 70,
        "has_played": true,
        "id": 338361,
        "last_rank": 51720,
        "player_name": "Joshua Nugent",
        "rank": 34599,
        "rank_sort": 34611,
        "total": 2364
      },
      {
        "club_badge_src": null,
        "entry": 63010,
        "entry_name": "Livin' Saliba Loca",
        "event_total": 67,
        "has_played": true,
        "id": 406432,
        "last_rank": 46839,
        "player_name": "Luke McToal",
        "rank": 34599,
        "rank_sort": 34612,
        "total": 2364
      },
      {
        "club_badge_src": "https://fantasy.premierleague.com/gcs/plfpl-production-adobe-approved/plfpl-production/64558/d88f2f98-0f5d-4a97-b290-f4eec3cf6ebe.png",
        "entry": 64558,
        "entry_name": "FC HAUVEN",
        "event_total": 67,
        "has_played": true,
        "id": 416679,
        "last_rank": 47417,
        "player_name": "Akram HANAFI",
        "rank": 34599,
        "rank_sort": 34613,
        "total": 2364
      },
      {
        "club_badge_src": "https://fantasy.premierleague.com/gcs/plfpl-production-adobe-approved/plfpl-production/75090/a021348b-3f0e-417d-afca-c5f720be451b.png",
        "entry": 75090,
        "entry_name": "inyourEndo x1",
        "event_total": 64,
        "has_played": true,
        "id": 488188,
        "last_rank": 38016,
        "player_name": "jamie knifton",
        "rank": 34599,
        "rank_sort": 34614,
        "total": 2364
      },
      {
        "club_badge_src": null,
        "entry": 96505,
        "entry_name": "Kum Gong FC",
        "event_total": 54,
        "has_played": true,
        "id": 630454,
        "last_rank": 27203,
        "player_name": "K W",
        "rank": 34599,
        "rank_sort": 34615,
        "total": 2364
      },
      {
        "club_badge_src": "https://fantasy.premierleague.com/gcs/plfpl-production-adobe-approved/plfpl-production/100350/325d4447-1465-46e9-a4bf-4c0362acd7d8.png",
        "entry": 100350,
        "entry_name": "ABCityzens",
        "event_total": 57,
        "has_played": true,
        "id": 654917,
        "last_rank": 30060,
        "player_name": "Ahmad Belrahif",
        "rank": 34599,
        "rank_sort": 34616,
        "total": 2364
      },
      {
        "club_badge_src": null,
        "entry": 112957,
        "entry_name": "Balfo Rovers",
        "event_total": 62,
        "has_played": true,
        "id": 736655,
        "last_rank": 40647,
        "player_name": "Balfo Balfo",
        "rank": 34599,
        "rank_sort": 34617,
        "total": 2364
      },
      {
        "club_badge_src": null,
        "entry": 167139,
        "entry_name": "OUFC",
        "event_total": 70,
        "has_played": true,
        "id": 1104684,
        "last_rank": 45927,
        "player_name": "Ataur Rahman Mohammed",
        "rank": 34599,
        "rank_sort": 34618,
        "total": 2364
      },
      {
        "club_badge_src": null,
        "entry": 175059,
        "entry_name": "Uno Dustio Chorio",
        "event_total": 57,
        "has_played": true,
        "id": 1155851,
        "last_rank": 34578,
        "player_name": "Charlie Corden",
        "rank": 34599,
        "rank_sort": 34619,
        "total": 2364
      },
      {
        "club_badge_src": "https://fantasy.premierleague.com/gcs/plfpl-production-adobe-approved/plfpl-production/230779/bd74b7e7-8095-4bfa-94fc-82ef559f64ad.png",
        "entry": 230779,
        "entry_name": "\u0627\u0644\u0645\u0637\u0627\u0631\u064a\u0634 \ufffd",
        "event_total": 69,
        "has_played": true,
        "id": 1535374,
        "last_rank": 50468,
        "player_name": "Amr Nady",
        "rank": 34599,
        "rank_sort": 34620,
        "total": 2364
      },
      {
        "club_badge_src": null,
        "entry": 326557,
        "entry_name": "hakuna mateta",
        "event_total": 75,
        "has_played": true,
        "id": 2188047,
        "last_rank": 53621,
        "player_name": "Lewie Brown",
        "rank": 34599,
        "rank_sort": 34621,
        "total": 2364
      },
      {
        "club_badge_src": null,
        "entry": 339235,
        "entry_name": "Chaddah AFC",
        "event_total": 68,
        "has_played": true,
        "id": 2271011,
        "last_rank": 48642,
        "player_name": "Gaurav Chaddah",
        "rank": 34599,
        "rank_sort": 34622,
        "total": 2364
      },
      {
        "club_badge_src": "https://fantasy.premierleague.com/gcs/plfpl-production-adobe-approved/plfpl-production/427975/0d0bcae9-e20f-4f11-af24-f48ebb464cc9.png",
        "entry": 427975,
        "entry_name": "Stairway 2 Heaven XI",
        "event_total": 79,
        "has_played": true,
        "id": 2870458,
        "last_rank": 59813,
        "player_name": "Jonathan Funaki",
        "rank": 34599,
        "rank_sort": 34623,
        "total": 2364
      },
      {
        "club_badge_src": "https://fantasy.premierleague.com/gcs/plfpl-production-adobe-approved/plfpl-production/440003/24331c6d-fbe3-418b-83b3-4810d12bbb3b.png",
        "entry": 440003,
        "entry_name": "FREE \ufffd PALESTINE",
        "event_total": 67,
        "has_played": true,
        "id": 2950387,
        "last_rank": 41824,
        "player_name": "Ziko Lee",
        "rank": 34599,
        "rank_sort": 34624,
        "total": 2364
      },
      {
        "club_badge_src": null,
        "entry": 461191,
        "entry_name": "Ben Doak Meri Laila",
        "event_total": 42,
        "has_played": true,
        "id": 3093700,
        "last_rank": 15063,
        "player_name": "Soham Bhaduri",
        "rank": 34599,
        "rank_sort": 34625,
        "total": 2364
      },
      {
        "club_badge_src": null,
        "entry": 463836,
        "entry_name": "Kinder Mbeumo",
        "event_total": 60,
        "has_played": true,
        "id": 3111258,
        "last_rank": 33332,
        "player_name": "Liam Andrews",
        "rank": 34599,
        "rank_sort": 34626,
        "total": 2364
      },
      {
        "club_badge_src": null,
        "entry": 472150,
        "entry_name": "Revi",
        "event_total": 74,
        "has_played": true,
        "id": 3169984,
        "last_rank": 51984,
        "player_name": "Shareef Qusay",
        "rank": 34599,
        "rank_sort": 34627,
        "total": 2364
      },
      {
        "club_badge_src": "https://fantasy.premierleague.com/gcs/plfpl-production-adobe-approved/plfpl-production/493079/7be80f5f-1113-4276-a861-01d14f55e053.png",
        "entry": 493079,
        "entry_name": "Skvadra La Nesra",
        "event_total": 37,
        "has_played": true,
        "id": 3309811,
        "last_rank": 14604,
        "player_name": "Jan Balada",
        "rank": 34599,
        "rank_sort": 34628,
        "total": 2364
      },
      {
        "club_badge_src": null,
        "entry": 566921,
        "entry_name": "Lord Piefooker",
        "event_total": 67,
        "has_played": true,
        "id": 3815673,
        "last_rank": 47163,
        "player_name": "Ian Sandison",
        "rank": 34599,
        "rank_sort": 34629,
        "total": 2364
      },
      {
        "club_badge_src": null,
        "entry": 611266,
        "entry_name": "Yoro Wizard 'arry",
        "event_total": 58,
        "has_played": true,
        "id": 4130115,
        "last_rank": 31125,
        "player_name": "Rilwan M",
        "rank": 34599,
        "rank_sort": 34630,
        "total": 2364
      },
      {
        "club_badge_src": null,
        "entry": 701164,
        "entry_name": "Flowereater",
        "event_total": 79,
        "has_played": true,
        "id": 4750763,
        "last_rank": 67422,
        "player_name": "Mircea Lulea",
        "rank": 34599,
        "rank_sort": 34631,
        "total": 2364
      },
      {
        "club_badge_src": null,
        "entry": 740180,
        "entry_name": "Oddfleski",
        "event_total": 41,
        "has_played": true,
        "id": 5032784,
        "last_rank": 19904,
        "player_name": "Oddmar Nyrnes",
        "rank": 34599,
        "rank_sort": 34632,
        "total": 2364
      },
      {
        "club_badge_src": null,
        "entry": 791037,
        "entry_name": "BIANCONERI -45-",
        "event_total": 50,
        "has_played": true,
        "id": 5413026,
        "last_rank": 27020,
        "player_name": "Stefan Senic",
        "rank": 34599,
        "rank_sort": 34633,
        "total": 2364
      },
      {
        "club_badge_src": null,
        "entry": 842072,
        "entry_name": "Liam Delap Dance",
        "event_total": 64,
        "has_played": true,
        "id": 5769614,
        "last_rank": 43342,
        "player_name": "Damian Fraser",
        "rank": 34599,
        "rank_sort": 34634,
        "total": 2364
      },
      {
        "club_badge_src": null,
        "entry": 901684,
        "entry_name": "R8D3N",
        "event_total": 54,
        "has_played": true,
        "id": 6195601,
        "last_rank": 27203,
        "player_name": "Azrul Asyraf",
        "rank": 34599,
        "rank_sort": 34635,
        "total": 2364
      },
      {
        "club_badge_src": null,
        "entry": 910095,
        "entry_name": "MorlingSaland",
        "event_total": 65,
        "has_played": true,
        "id": 6256896,
        "last_rank": 44672,
        "player_name": "Marin Dragicevic",
        "rank": 34599,
        "rank_sort": 34636,
        "total": 2364
      },
      {
        "club_badge_src": null,
        "entry": 917170,
        "entry_name": "Coca Juniors",
        "event_total": 68,
        "has_played": true,
        "id": 6307074,
        "last_rank": 43168,
        "player_name": "Tiemen De Smedt",
        "rank": 34599,
        "rank_sort": 34637,
        "total": 2364
      },
      {
        "club_badge_src": null,
        "entry": 974123,
        "entry_name": "The Mavericks",
        "event_total": 60,
        "has_played": true,
        "id": 6715007,
        "last_rank": 38163,
        "player_name": "Nico Munongo",
        "rank": 34599,
        "rank_sort": 34638,
        "total": 2364
      },
      {
        "club_badge_src": "https://fantasy.premierleague.com/gcs/plfpl-production-adobe-approved/plfpl-production/1058561/087623c1-6a3a-4c63-8558-904fa86ea3e4.png",
        "entry": 1058561,
        "entry_name": "AC Torrente",
        "event_total": 68,
        "has_played": true,
        "id": 7325878,
        "last_rank": 49078,
        "player_name": "Kristian Fremmerlid",
        "rank": 34599,
        "rank_sort": 34639,
        "total": 2364
      },
      {
        "club_badge_src": null,
        "entry": 1172118,
        "entry_name": "For Beto or Wirtz",
        "event_total": 63,
        "has_played": true,
        "id": 8131497,
        "last_rank": 36624,
        "player_name": "Roddy Britain",
        "rank": 34599,
        "rank_sort": 34640,
        "total": 2364
      },
      {
        "club_badge_src": null,
        "entry": 1176057,
        "entry_name": "Sewy",
        "event_total": 66,
        "has_played": true,
        "id": 8159974,
        "last_rank": 40503,
        "player_name": "Kristian Lindeman",
        "rank": 34599,
        "rank_sort": 34641,
        "total": 2364
      },
      {
        "club_badge_src": "https://fantasy.premierleague.com/gcs/plfpl-production-adobe-approved/plfpl-production/1240889/2e93a5ef-2221-4904-bba2-4a9b244f2dc4.png",
        "entry": 1240889,
        "entry_name": "Massive Amber Army!",
        "event_total": 64,
        "has_played": true,
        "id": 8617982,
        "last_rank": 38016,
        "player_name": "Gareth Thomas",
        "rank": 34599,
        "rank_sort": 34642,
        "total": 2364
      },
      {
        "club_badge_src": "https://fantasy.premierleague.com/gcs/plfpl-production-adobe-approved/plfpl-production/1276296/b5eb3d35-869b-458b-a3af-1a42b1abd925.png",
        "entry": 1276296,
        "entry_name": "Trust the Process",
        "event_total": 60,
        "has_played": true,
        "id": 8868602,
        "last_rank": 33332,
        "player_name": "Oscar Sanders",
        "rank": 34599,
        "rank_sort": 34643,
        "total": 2364
      },
      {
        "club_badge_src": "https://fantasy.premierleague.com/gcs/plfpl-production-adobe-approved/plfpl-production/1385263/e8673ec2-1394-480d-b1be-ebb61ab53c36.png",
        "entry": 1385263,
        "entry_name": "Della Bona FC",
        "event_total": 63,
        "has_played": true,
        "id": 9634791,
        "last_rank": 41967,
        "player_name": "Phil Smith",
        "rank": 34599,
        "rank_sort": 34644,
        "total": 2364
      },
      {
        "club_badge_src": null,
        "entry": 1394501,
        "entry_name": "Backstreet Moyes",
        "event_total": 69,
        "has_played": true,
        "id": 9701265,
        "last_rank": 44525,
        "player_name": "Michael white",
        "rank": 34599,
        "rank_sort": 34645,
        "total": 2364
      },
      {
        "club_badge_src": null,
        "entry": 1637969,
        "entry_name": "Beto Call Saul",
        "event_total": 44,
        "has_played": true,
        "id": 11465163,
        "last_rank": 22154,
        "player_name": "Finn Mcnicol",
        "rank": 34599,
        "rank_sort": 34646,
        "total": 2364
      },
      {
        "club_badge_src": null,
        "entry": 1699851,
        "entry_name": "Risenphoenix \u2b06\ufe0f",
        "event_total": 66,
        "has_played": true,
        "id": 11906828,
        "last_rank": 40503,
        "player_name": "HR phoenix",
        "rank": 34599,
        "rank_sort": 34647,
        "total": 2364
      },
      {
        "club_badge_src": null,
        "entry": 1722350,
        "entry_name": "Le Tissier Disciples",
        "event_total": 72,
        "has_played": true,
        "id": 12072319,
        "last_rank": 55514,
        "player_name": "Tom Fuller",
        "rank": 34599,
        "rank_sort": 34648,
        "total": 2364
      },
      {
        "club_badge_src": null,
        "entry": 1753208,
        "entry_name": "Zoksh",
        "event_total": 67,
        "has_played": true,
        "id": 12306986,
        "last_rank": 47417,
        "player_name": "zyad abdo",
        "rank": 34599,
        "rank_sort": 34649,
        "total": 2364
      },
      {
        "club_badge_src": null,
        "entry": 1760213,
        "entry_name": "Magnifico",
        "event_total": 56,
        "has_played": true,
        "id": 12358566,
        "last_rank": 29071,
        "player_name": "David McCarthy",
        "rank": 34599,
        "rank_sort": 34650,
        "total": 2364
      }
    ]
  }
}