{
  "last_updated_data": "2026-05-24T23:28:17Z",
  "league": {
    "admin_entry": null,
    "closed": false,
    "code_privacy": "p",
    "created": "2025-07-20T23:14:33.933835Z",
    "cup_league": 2815434,
    "has_cup": true,
    "id": 314,
    "league_type": "s",
    "max_entries": null,
    "name": "Overall",
    "rank": null,
    "scoring": "c",
    "start_event": 1
  },
  "new_entries": {
    "has_next": false,
    "page": 1,
    "results": []
  },
  "standings": {
    "has_next": true,
    "page": 1499,
    "results": [
      {
        "club_badge_src": null,
        "entry": 6365990,
        "entry_name": "First 11",
        "event_total": 60,
        "has_played": true,
        "id": 50619832,
        "last_rank": 65163,
        "player_name": "kelvin musandu",
        "rank": 74777,
        "rank_sort": 74901,
        "total": 2338
      },
      {
        "club_badge_src": "https://fantasy.premierleague.com/gcs/plfpl-production-adobe-approved/plfpl-production/6391343/5c947269-4f5f-4752-9ccd-d1baeee01cc2.png",
        "entry": 6391343,
        "entry_name": "Makrell i Mitomat",
        "event_total": 46,
        "has_played": true,
        "id": 50841063,
        "last_rank": 55659,
        "player_name": "Ola Johansen",
        "rank": 74777,
        "rank_sort": 74902,
        "total": 2338
      },
      {
        "club_badge_src": "https://fantasy.premierleague.com/gcs/plfpl-production-adobe-approved/plfpl-production/6627902/0147cfba-4efa-4af9-86e4-f517dd1b1269.png",
        "entry": 6627902,
        "entry_name": "Ekitike Backwards",
        "event_total": 62,
        "has_played": true,
        "id": 52968522,
        "last_rank": 87541,
        "player_name": "Patrick Blanchard",
        "rank": 74777,
        "rank_sort": 74903,
        "total": 2338
      },
      {
        "club_badge_src": null,
        "entry": 6741937,
        "entry_name": "ColdFarmer",
        "event_total": 61,
        "has_played": true,
        "id": 53967924,
        "last_rank": 84980,
        "player_name": "Niranjan Kumar",
        "rank": 74777,
        "rank_sort": 74904,
        "total": 2338
      },
      {
        "club_badge_src": null,
        "entry": 6756550,
        "entry_name": "acelefc",
        "event_total": 44,
        "has_played": true,
        "id": 54094148,
        "last_rank": 52357,
        "player_name": "Bilal Shahzad",
        "rank": 74777,
        "rank_sort": 74905,
        "total": 2338
      },
      {
        "club_badge_src": "https://fantasy.premierleague.com/gcs/plfpl-production-adobe-approved/plfpl-production/6989795/02fb379d-41f6-4a06-94b0-87d94242a659.png",
        "entry": 6989795,
        "entry_name": "God Is In Control",
        "event_total": 69,
        "has_played": true,
        "id": 56108797,
        "last_rank": 94537,
        "player_name": "Bascanty Otuka",
        "rank": 74777,
        "rank_sort": 74906,
        "total": 2338
      },
      {
        "club_badge_src": null,
        "entry": 7013167,
        "entry_name": "Redemption XI",
        "event_total": 55,
        "has_played": true,
        "id": 56324544,
        "last_rank": 72145,
        "player_name": "James Nuttall",
        "rank": 74777,
        "rank_sort": 74907,
        "total": 2338
      },
      {
        "club_badge_src": null,
        "entry": 7069540,
        "entry_name": "Vrlo slicni sari jo",
        "event_total": 67,
        "has_played": true,
        "id": 56884885,
        "last_rank": 80194,
        "player_name": "Alen Pohara",
        "rank": 74777,
        "rank_sort": 74908,
        "total": 2338
      },
      {
        "club_badge_src": null,
        "entry": 7358162,
        "entry_name": "mostafa_ehab",
        "event_total": 63,
        "has_played": true,
        "id": 59624870,
        "last_rank": 89897,
        "player_name": "Mostafa Nassar",
        "rank": 74777,
        "rank_sort": 74909,
        "total": 2338
      },
      {
        "club_badge_src": null,
        "entry": 7419844,
        "entry_name": "Gooners",
        "event_total": 66,
        "has_played": true,
        "id": 60246391,
        "last_rank": 97305,
        "player_name": "Tobias Olsen",
        "rank": 74777,
        "rank_sort": 74910,
        "total": 2338
      },
      {
        "club_badge_src": null,
        "entry": 7611116,
        "entry_name": "JohnnyMcFC",
        "event_total": 73,
        "has_played": true,
        "id": 62364726,
        "last_rank": 116216,
        "player_name": "John Mcloughlin",
        "rank": 74777,
        "rank_sort": 74911,
        "total": 2338
      },
      {
        "club_badge_src": null,
        "entry": 7940343,
        "entry_name": "Penny Street-Germain",
        "event_total": 69,
        "has_played": true,
        "id": 65353881,
        "last_rank": 94255,
        "player_name": "Mitchell Garfield",
        "rank": 74777,
        "rank_sort": 74912,
        "total": 2338
      },
      {
        "club_badge_src": null,
        "entry": 8098959,
        "entry_name": "IFK Raut11",
        "event_total": 59,
        "has_played": true,
        "id": 66791812,
        "last_rank": 80651,
        "player_name": "Jesper Rautiainen",
        "rank": 74777,
        "rank_sort": 74913,
        "total": 2338
      },
      {
        "club_badge_src": null,
        "entry": 8226650,
        "entry_name": "Junior XI",
        "event_total": 67,
        "has_played": true,
        "id": 67992687,
        "last_rank": 89426,
        "player_name": "Mike Owen",
        "rank": 74777,
        "rank_sort": 74914,
        "total": 2338
      },
      {
        "club_badge_src": null,
        "entry": 8263790,
        "entry_name": "Rubber Digne Rapids",
        "event_total": 51,
        "has_played": true,
        "id": 68354914,
        "last_rank": 64319,
        "player_name": "Harry Wright",
        "rank": 74777,
        "rank_sort": 74915,
        "total": 2338
      },
      {
        "club_badge_src": null,
        "entry": 8431295,
        "entry_name": "The B2B Champ",
        "event_total": 68,
        "has_played": true,
        "id": 69977713,
        "last_rank": 92126,
        "player_name": "Michael Smith",
        "rank": 74777,
        "rank_sort": 74916,
        "total": 2338
      },
      {
        "club_badge_src": null,
        "entry": 8689048,
        "entry_name": "ivar fc",
        "event_total": 50,
        "has_played": true,
        "id": 72473094,
        "last_rank": 62223,
        "player_name": "Stina Ivarsson",
        "rank": 74777,
        "rank_sort": 74917,
        "total": 2338
      },
      {
        "club_badge_src": null,
        "entry": 8986021,
        "entry_name": "Chelsea for life",
        "event_total": 39,
        "has_played": true,
        "id": 75347127,
        "last_rank": 39403,
        "player_name": "osie cruickshank",
        "rank": 74777,
        "rank_sort": 74918,
        "total": 2338
      },
      {
        "club_badge_src": null,
        "entry": 9041735,
        "entry_name": "dther",
        "event_total": 63,
        "has_played": true,
        "id": 75884484,
        "last_rank": 89897,
        "player_name": "Malik Maz",
        "rank": 74777,
        "rank_sort": 74919,
        "total": 2338
      },
      {
        "club_badge_src": null,
        "entry": 3051,
        "entry_name": "U\u2019ll NeverWirtzAlone",
        "event_total": 49,
        "has_played": true,
        "id": 17206,
        "last_rank": 60827,
        "player_name": "Kitty Tans",
        "rank": 74920,
        "rank_sort": 74920,
        "total": 2338
      },
      {
        "club_badge_src": null,
        "entry": 17799,
        "entry_name": "Gegenpressing IF",
        "event_total": 60,
        "has_played": true,
        "id": 110502,
        "last_rank": 73975,
        "player_name": "Henrik Jonsson",
        "rank": 74920,
        "rank_sort": 74921,
        "total": 2338
      },
      {
        "club_badge_src": null,
        "entry": 33853,
        "entry_name": "Cantona's Collar",
        "event_total": 60,
        "has_played": true,
        "id": 216113,
        "last_rank": 74166,
        "player_name": "Arun Mohan",
        "rank": 74920,
        "rank_sort": 74922,
        "total": 2338
      },
      {
        "club_badge_src": null,
        "entry": 37175,
        "entry_name": "The Revolution",
        "event_total": 80,
        "has_played": true,
        "id": 238074,
        "last_rank": 112960,
        "player_name": "Dan Western",
        "rank": 74920,
        "rank_sort": 74923,
        "total": 2338
      },
      {
        "club_badge_src": null,
        "entry": 49717,
        "entry_name": "Fat Devils",
        "event_total": 68,
        "has_played": true,
        "id": 319613,
        "last_rank": 92332,
        "player_name": "Son Thai Tran",
        "rank": 74920,
        "rank_sort": 74924,
        "total": 2338
      },
      {
        "club_badge_src": null,
        "entry": 57303,
        "entry_name": "Darth Vader",
        "event_total": 69,
        "has_played": true,
        "id": 369138,
        "last_rank": 94778,
        "player_name": "Mustafa Mazin",
        "rank": 74920,
        "rank_sort": 74925,
        "total": 2338
      },
      {
        "club_badge_src": null,
        "entry": 66157,
        "entry_name": "haCunha Mateta",
        "event_total": 57,
        "has_played": true,
        "id": 427502,
        "last_rank": 68107,
        "player_name": "Joe Hanlon",
        "rank": 74920,
        "rank_sort": 74926,
        "total": 2338
      },
      {
        "club_badge_src": null,
        "entry": 93178,
        "entry_name": "Last Man Standing FC",
        "event_total": 49,
        "has_played": true,
        "id": 608928,
        "last_rank": 60933,
        "player_name": "Kinoti Rinu Athiru",
        "rank": 74920,
        "rank_sort": 74927,
        "total": 2338
      },
      {
        "club_badge_src": null,
        "entry": 94389,
        "entry_name": "Chautauqua",
        "event_total": 52,
        "has_played": true,
        "id": 616710,
        "last_rank": 52205,
        "player_name": "Luke Scuderi",
        "rank": 74920,
        "rank_sort": 74928,
        "total": 2338
      },
      {
        "club_badge_src": null,
        "entry": 104502,
        "entry_name": "Yoro wizard Harry",
        "event_total": 63,
        "has_played": true,
        "id": 681678,
        "last_rank": 80651,
        "player_name": "Dylan Church",
        "rank": 74920,
        "rank_sort": 74929,
        "total": 2338
      },
      {
        "club_badge_src": null,
        "entry": 110726,
        "entry_name": "\"Wot\"",
        "event_total": 58,
        "has_played": true,
        "id": 722116,
        "last_rank": 78575,
        "player_name": "Fin Wibbs",
        "rank": 74920,
        "rank_sort": 74930,
        "total": 2338
      },
      {
        "club_badge_src": null,
        "entry": 123637,
        "entry_name": "Yoro Wissa Harry",
        "event_total": 49,
        "has_played": true,
        "id": 806426,
        "last_rank": 53952,
        "player_name": "Tom Barry",
        "rank": 74920,
        "rank_sort": 74931,
        "total": 2338
      },
      {
        "club_badge_src": null,
        "entry": 136722,
        "entry_name": "Zamalik",
        "event_total": 66,
        "has_played": true,
        "id": 890747,
        "last_rank": 87541,
        "player_name": "abdo haggag",
        "rank": 74920,
        "rank_sort": 74932,
        "total": 2338
      },
      {
        "club_badge_src": null,
        "entry": 138125,
        "entry_name": "50 Shades O\u2019Shea",
        "event_total": 67,
        "has_played": true,
        "id": 900833,
        "last_rank": 99806,
        "player_name": "Jay Sidhu",
        "rank": 74920,
        "rank_sort": 74933,
        "total": 2338
      },
      {
        "club_badge_src": null,
        "entry": 179039,
        "entry_name": "Billy-Boys",
        "event_total": 59,
        "has_played": true,
        "id": 1181510,
        "last_rank": 80781,
        "player_name": "Scott McLean",
        "rank": 74920,
        "rank_sort": 74934,
        "total": 2338
      },
      {
        "club_badge_src": null,
        "entry": 181943,
        "entry_name": "Amadness",
        "event_total": 60,
        "has_played": true,
        "id": 1200652,
        "last_rank": 73975,
        "player_name": "Harvey Dalton",
        "rank": 74920,
        "rank_sort": 74935,
        "total": 2338
      },
      {
        "club_badge_src": "https://fantasy.premierleague.com/gcs/plfpl-production-adobe-approved/plfpl-production/183487/87f00a6a-cc53-4cc4-aa12-af4a6e19a148.png",
        "entry": 183487,
        "entry_name": "Descolada",
        "event_total": 49,
        "has_played": true,
        "id": 1211278,
        "last_rank": 53952,
        "player_name": "Lucian Lazar",
        "rank": 74920,
        "rank_sort": 74936,
        "total": 2338
      },
      {
        "club_badge_src": "https://fantasy.premierleague.com/gcs/plfpl-production-adobe-approved/plfpl-production/202486/9c5f6bf3-40a3-486c-9bc5-a05c6b2900f1.png",
        "entry": 202486,
        "entry_name": "halla halla",
        "event_total": 68,
        "has_played": true,
        "id": 1344704,
        "last_rank": 102343,
        "player_name": "Lucas Skeldrup",
        "rank": 74920,
        "rank_sort": 74937,
        "total": 2338
      },
      {
        "club_badge_src": null,
        "entry": 218649,
        "entry_name": "Jota Forever",
        "event_total": 64,
        "has_played": true,
        "id": 1454030,
        "last_rank": 92471,
        "player_name": "Thomas Abrahamsen",
        "rank": 74920,
        "rank_sort": 74938,
        "total": 2338
      },
      {
        "club_badge_src": null,
        "entry": 228730,
        "entry_name": "Jalkapallo",
        "event_total": 65,
        "has_played": true,
        "id": 1521723,
        "last_rank": 75874,
        "player_name": "Nils Thor",
        "rank": 74920,
        "rank_sort": 74939,
        "total": 2338
      },
      {
        "club_badge_src": null,
        "entry": 231001,
        "entry_name": "AyanfeFC",
        "event_total": 67,
        "has_played": true,
        "id": 1536838,
        "last_rank": 89897,
        "player_name": "Omotoyosiola Samson",
        "rank": 74920,
        "rank_sort": 74940,
        "total": 2338
      },
      {
        "club_badge_src": null,
        "entry": 231302,
        "entry_name": "xxx",
        "event_total": 51,
        "has_played": true,
        "id": 1538889,
        "last_rank": 64422,
        "player_name": "Andrew Lopez",
        "rank": 74920,
        "rank_sort": 74941,
        "total": 2338
      },
      {
        "club_badge_src": null,
        "entry": 265907,
        "entry_name": "eljunibi xi",
        "event_total": 60,
        "has_played": true,
        "id": 1768766,
        "last_rank": 66057,
        "player_name": "Nawaf Aljunaibi",
        "rank": 74920,
        "rank_sort": 74942,
        "total": 2338
      },
      {
        "club_badge_src": null,
        "entry": 296594,
        "entry_name": "Enzo Gurnandez",
        "event_total": 64,
        "has_played": true,
        "id": 1981792,
        "last_rank": 92471,
        "player_name": "Shaun Clohessy",
        "rank": 74920,
        "rank_sort": 74943,
        "total": 2338
      },
      {
        "club_badge_src": "https://fantasy.premierleague.com/gcs/plfpl-production-adobe-approved/plfpl-production/357938/a0e42c3c-12fe-4248-a39f-604bad356cbe.png",
        "entry": 357938,
        "entry_name": "Mohammed Reda",
        "event_total": 59,
        "has_played": true,
        "id": 2395318,
        "last_rank": 80651,
        "player_name": "Mohamed Reda",
        "rank": 74920,
        "rank_sort": 74944,
        "total": 2338
      },
      {
        "club_badge_src": null,
        "entry": 379858,
        "entry_name": "Dr DoofenshWirtz",
        "event_total": 60,
        "has_played": true,
        "id": 2545418,
        "last_rank": 74166,
        "player_name": "Finlay Waugh",
        "rank": 74920,
        "rank_sort": 74945,
        "total": 2338
      },
      {
        "club_badge_src": null,
        "entry": 386742,
        "entry_name": "Timewarp Sounders",
        "event_total": 51,
        "has_played": true,
        "id": 2594492,
        "last_rank": 64422,
        "player_name": "Ben Alderson",
        "rank": 74920,
        "rank_sort": 74946,
        "total": 2338
      },
      {
        "club_badge_src": "https://fantasy.premierleague.com/gcs/plfpl-production-adobe-approved/plfpl-production/394471/5c8fceae-7f81-44ed-b5fe-42a72a77690b.png",
        "entry": 394471,
        "entry_name": "Wirtz Team Evra",
        "event_total": 55,
        "has_played": true,
        "id": 2645431,
        "last_rank": 72265,
        "player_name": "Mark Willard",
        "rank": 74920,
        "rank_sort": 74947,
        "total": 2338
      },
      {
        "club_badge_src": null,
        "entry": 398585,
        "entry_name": "Kvastenhausen",
        "event_total": 62,
        "has_played": true,
        "id": 2672913,
        "last_rank": 87541,
        "player_name": "Johan Immerstrand",
        "rank": 74920,
        "rank_sort": 74948,
        "total": 2338
      },
      {
        "club_badge_src": null,
        "entry": 412461,
        "entry_name": "Skay_d_boss\ufffd",
        "event_total": 42,
        "has_played": true,
        "id": 2765423,
        "last_rank": 38163,
        "player_name": "Sheriff Omonayajo",
        "rank": 74920,
        "rank_sort": 74949,
        "total": 2338
      },
      {
        "club_badge_src": null,
        "entry": 438301,
        "entry_name": "Another level",
        "event_total": 42,
        "has_played": true,
        "id": 2939079,
        "last_rank": 49301,
        "player_name": "\u0141ukasz Czech",
        "rank": 74920,
        "rank_sort": 74950,
        "total": 2338
      }
    ]
  }
}