{
  "last_updated_data": "2026-05-24T23:28:17Z",
  "league": {
    "admin_entry": null,
    "closed": false,
    "code_privacy": "p",
    "created": "2025-07-20T23:14:33.933835Z",
    "cup_league": 2815434,
    "has_cup": true,
    "id": 314,
    "league_type": "s",
    "max_entries": null,
    "name": "Overall",
    "rank": null,
    "scoring": "c",
    "start_event": 1
  },
  "new_entries": {
    "has_next": false,
    "page": 1,
    "results": []
  },
  "standings": {
    "has_next": true,
    "page": 1133,
    "results": [
      {
        "club_badge_src": null,
        "entry": 5510090,
        "entry_name": "THERE WE (HAA)LAND",
        "event_total": 52,
        "has_played": true,
        "id": 42947825,
        "last_rank": 37822,
        "player_name": "Youssef Soukit",
        "rank": 56461,
        "rank_sort": 56601,
        "total": 2348
      },
      {
        "club_badge_src": null,
        "entry": 5634781,
        "entry_name": "Sit on Delap",
        "event_total": 66,
        "has_played": true,
        "id": 44059745,
        "last_rank": 65796,
        "player_name": "Oliver Ruhmann",
        "rank": 56461,
        "rank_sort": 56602,
        "total": 2348
      },
      {
        "club_badge_src": null,
        "entry": 5757914,
        "entry_name": "Eau de Gaard",
        "event_total": 42,
        "has_played": true,
        "id": 45134483,
        "last_rank": 35619,
        "player_name": "Craig Simpson",
        "rank": 56461,
        "rank_sort": 56603,
        "total": 2348
      },
      {
        "club_badge_src": null,
        "entry": 5906280,
        "entry_name": "Atheros FC",
        "event_total": 68,
        "has_played": true,
        "id": 46408775,
        "last_rank": 69641,
        "player_name": "Attapon Yenjai",
        "rank": 56461,
        "rank_sort": 56604,
        "total": 2348
      },
      {
        "club_badge_src": null,
        "entry": 5906904,
        "entry_name": "Sambar XI",
        "event_total": 61,
        "has_played": true,
        "id": 46415165,
        "last_rank": 64190,
        "player_name": "Deva Nanthan",
        "rank": 56461,
        "rank_sort": 56605,
        "total": 2348
      },
      {
        "club_badge_src": null,
        "entry": 5969212,
        "entry_name": "BakmiGM",
        "event_total": 52,
        "has_played": true,
        "id": 46968334,
        "last_rank": 49078,
        "player_name": "Harry Muksit",
        "rank": 56461,
        "rank_sort": 56606,
        "total": 2348
      },
      {
        "club_badge_src": "https://fantasy.premierleague.com/gcs/plfpl-production-adobe-approved/plfpl-production/5997590/890bbcd5-a74d-4e2e-8247-ffe7fe532a44.png",
        "entry": 5997590,
        "entry_name": "ikknomer",
        "event_total": 69,
        "has_played": true,
        "id": 47275564,
        "last_rank": 79817,
        "player_name": "Sebastian R\u00f8stad",
        "rank": 56461,
        "rank_sort": 56607,
        "total": 2348
      },
      {
        "club_badge_src": "https://fantasy.premierleague.com/gcs/plfpl-production-adobe-approved/plfpl-production/6054829/c7182f09-d58a-4cea-acf0-0d7a817b88b4.png",
        "entry": 6054829,
        "entry_name": "AI vs The World",
        "event_total": 57,
        "has_played": true,
        "id": 47781199,
        "last_rank": 57200,
        "player_name": "Brad Johnson",
        "rank": 56461,
        "rank_sort": 56608,
        "total": 2348
      },
      {
        "club_badge_src": null,
        "entry": 6093479,
        "entry_name": "FUJI MOTO",
        "event_total": 68,
        "has_played": true,
        "id": 48119903,
        "last_rank": 54667,
        "player_name": "Manny Abayomi",
        "rank": 56461,
        "rank_sort": 56609,
        "total": 2348
      },
      {
        "club_badge_src": null,
        "entry": 6328610,
        "entry_name": "RedorDead XI",
        "event_total": 61,
        "has_played": true,
        "id": 50286344,
        "last_rank": 64190,
        "player_name": "Sodiq Samuel",
        "rank": 56461,
        "rank_sort": 56610,
        "total": 2348
      },
      {
        "club_badge_src": null,
        "entry": 6395226,
        "entry_name": "Santiagoals",
        "event_total": 57,
        "has_played": true,
        "id": 50877649,
        "last_rank": 57200,
        "player_name": "neo rakodi",
        "rank": 56461,
        "rank_sort": 56611,
        "total": 2348
      },
      {
        "club_badge_src": null,
        "entry": 6431856,
        "entry_name": "The Red Phoenix",
        "event_total": 60,
        "has_played": true,
        "id": 51201423,
        "last_rank": 62429,
        "player_name": "Poonam Patel",
        "rank": 56461,
        "rank_sort": 56612,
        "total": 2348
      },
      {
        "club_badge_src": null,
        "entry": 6448693,
        "entry_name": "Skruknott",
        "event_total": 63,
        "has_played": true,
        "id": 51351059,
        "last_rank": 60462,
        "player_name": "Tom-Erik Brattbakk",
        "rank": 56461,
        "rank_sort": 56613,
        "total": 2348
      },
      {
        "club_badge_src": null,
        "entry": 6466797,
        "entry_name": "Nahkiaisentiedotpuut",
        "event_total": 68,
        "has_played": true,
        "id": 51522288,
        "last_rank": 77676,
        "player_name": "Aki Hakala",
        "rank": 56461,
        "rank_sort": 56614,
        "total": 2348
      },
      {
        "club_badge_src": null,
        "entry": 6582586,
        "entry_name": "Moon Utd",
        "event_total": 54,
        "has_played": true,
        "id": 52566646,
        "last_rank": 51984,
        "player_name": "Rory King",
        "rank": 56461,
        "rank_sort": 56615,
        "total": 2348
      },
      {
        "club_badge_src": null,
        "entry": 6676466,
        "entry_name": "Rallemulles XI",
        "event_total": 59,
        "has_played": true,
        "id": 53402212,
        "last_rank": 53621,
        "player_name": "Rasmus Jul Kj\u00e6r",
        "rank": 56461,
        "rank_sort": 56616,
        "total": 2348
      },
      {
        "club_badge_src": "https://fantasy.premierleague.com/gcs/plfpl-production-adobe-approved/plfpl-production/6710956/5f454abd-78bb-43b3-a41e-e623e2f64f1d.png",
        "entry": 6710956,
        "entry_name": "They Were Only Small",
        "event_total": 59,
        "has_played": true,
        "id": 53705671,
        "last_rank": 60671,
        "player_name": "Fiona Edwards",
        "rank": 56461,
        "rank_sort": 56617,
        "total": 2348
      },
      {
        "club_badge_src": null,
        "entry": 6769428,
        "entry_name": "FC Ball on the Roof",
        "event_total": 46,
        "has_played": true,
        "id": 54202233,
        "last_rank": 40503,
        "player_name": "Niels Ebskamp",
        "rank": 56461,
        "rank_sort": 56618,
        "total": 2348
      },
      {
        "club_badge_src": null,
        "entry": 6792292,
        "entry_name": "mr.brown",
        "event_total": 71,
        "has_played": true,
        "id": 54393060,
        "last_rank": 84980,
        "player_name": "ali ahmed",
        "rank": 56461,
        "rank_sort": 56619,
        "total": 2348
      },
      {
        "club_badge_src": null,
        "entry": 6800195,
        "entry_name": "Camden Tigers",
        "event_total": 67,
        "has_played": true,
        "id": 54457855,
        "last_rank": 76128,
        "player_name": "Marios Kyrizopoulos",
        "rank": 56461,
        "rank_sort": 56620,
        "total": 2348
      },
      {
        "club_badge_src": null,
        "entry": 6930839,
        "entry_name": "The Lads",
        "event_total": 59,
        "has_played": true,
        "id": 55562372,
        "last_rank": 60462,
        "player_name": "Landon Amato",
        "rank": 56461,
        "rank_sort": 56621,
        "total": 2348
      },
      {
        "club_badge_src": "https://fantasy.premierleague.com/gcs/plfpl-production-adobe-approved/plfpl-production/7231677/c3206825-d129-47ac-a6eb-14a75ec12f7a.png",
        "entry": 7231677,
        "entry_name": "Paradox 11",
        "event_total": 46,
        "has_played": true,
        "id": 58430743,
        "last_rank": 35619,
        "player_name": "BASSEM NAGUIB",
        "rank": 56461,
        "rank_sort": 56622,
        "total": 2348
      },
      {
        "club_badge_src": null,
        "entry": 7362283,
        "entry_name": "Musical Jairs",
        "event_total": 66,
        "has_played": true,
        "id": 59663175,
        "last_rank": 73975,
        "player_name": "George Fannin",
        "rank": 56461,
        "rank_sort": 56623,
        "total": 2348
      },
      {
        "club_badge_src": null,
        "entry": 7363635,
        "entry_name": "Fugl og fisk",
        "event_total": 63,
        "has_played": true,
        "id": 59675667,
        "last_rank": 67926,
        "player_name": "Christopher Breist\u00f8l",
        "rank": 56461,
        "rank_sort": 56624,
        "total": 2348
      },
      {
        "club_badge_src": null,
        "entry": 7391185,
        "entry_name": "Babz",
        "event_total": 62,
        "has_played": true,
        "id": 59930787,
        "last_rank": 58688,
        "player_name": "Suhail Vally",
        "rank": 56461,
        "rank_sort": 56625,
        "total": 2348
      },
      {
        "club_badge_src": null,
        "entry": 7631242,
        "entry_name": "cheap fc",
        "event_total": 58,
        "has_played": true,
        "id": 62546662,
        "last_rank": 58911,
        "player_name": "Oliver Vinkler-Hansen",
        "rank": 56461,
        "rank_sort": 56626,
        "total": 2348
      },
      {
        "club_badge_src": null,
        "entry": 7723491,
        "entry_name": "Salah-B Dhabi....",
        "event_total": 62,
        "has_played": true,
        "id": 63382274,
        "last_rank": 65796,
        "player_name": "Ray McLoughney",
        "rank": 56461,
        "rank_sort": 56627,
        "total": 2348
      },
      {
        "club_badge_src": null,
        "entry": 7739714,
        "entry_name": "sirhowy",
        "event_total": 63,
        "has_played": true,
        "id": 63528294,
        "last_rank": 67926,
        "player_name": "mike stevens",
        "rank": 56461,
        "rank_sort": 56628,
        "total": 2348
      },
      {
        "club_badge_src": null,
        "entry": 7899712,
        "entry_name": "paramedic",
        "event_total": 72,
        "has_played": true,
        "id": 64985424,
        "last_rank": 87074,
        "player_name": "Abd Fahad",
        "rank": 56461,
        "rank_sort": 56629,
        "total": 2348
      },
      {
        "club_badge_src": null,
        "entry": 7968540,
        "entry_name": "loadedgunners",
        "event_total": 59,
        "has_played": true,
        "id": 65605700,
        "last_rank": 60671,
        "player_name": "Jason Brown",
        "rank": 56461,
        "rank_sort": 56630,
        "total": 2348
      },
      {
        "club_badge_src": null,
        "entry": 8102682,
        "entry_name": "spaktz",
        "event_total": 73,
        "has_played": true,
        "id": 66825938,
        "last_rank": 89706,
        "player_name": "Jarok Mberao",
        "rank": 56461,
        "rank_sort": 56631,
        "total": 2348
      },
      {
        "club_badge_src": null,
        "entry": 8377692,
        "entry_name": "Average XI",
        "event_total": 68,
        "has_played": true,
        "id": 69469055,
        "last_rank": 78244,
        "player_name": "Nandakumar Gauns",
        "rank": 56461,
        "rank_sort": 56632,
        "total": 2348
      },
      {
        "club_badge_src": null,
        "entry": 8401969,
        "entry_name": "fadhleel",
        "event_total": 54,
        "has_played": true,
        "id": 69696165,
        "last_rank": 52357,
        "player_name": "Fadhli Rahim",
        "rank": 56461,
        "rank_sort": 56633,
        "total": 2348
      },
      {
        "club_badge_src": null,
        "entry": 8833241,
        "entry_name": "Calafiorication",
        "event_total": 69,
        "has_played": true,
        "id": 73864369,
        "last_rank": 79817,
        "player_name": "Bella Joubert",
        "rank": 56461,
        "rank_sort": 56634,
        "total": 2348
      },
      {
        "club_badge_src": null,
        "entry": 8876650,
        "entry_name": "Gimme Moore Goals",
        "event_total": 71,
        "has_played": true,
        "id": 74282639,
        "last_rank": 75874,
        "player_name": "Conor Moore",
        "rank": 56461,
        "rank_sort": 56635,
        "total": 2348
      },
      {
        "club_badge_src": null,
        "entry": 8896745,
        "entry_name": "Silva Whites",
        "event_total": 64,
        "has_played": true,
        "id": 74477172,
        "last_rank": 69323,
        "player_name": "Mike Faulkner",
        "rank": 56461,
        "rank_sort": 56636,
        "total": 2348
      },
      {
        "club_badge_src": null,
        "entry": 8996758,
        "entry_name": "James City",
        "event_total": 56,
        "has_played": true,
        "id": 75449668,
        "last_rank": 55514,
        "player_name": "Stu Mitchell",
        "rank": 56461,
        "rank_sort": 56637,
        "total": 2348
      },
      {
        "club_badge_src": null,
        "entry": 9158414,
        "entry_name": "Donisamst",
        "event_total": 44,
        "has_played": true,
        "id": 77022602,
        "last_rank": 38163,
        "player_name": "Pawel C",
        "rank": 56461,
        "rank_sort": 56638,
        "total": 2348
      },
      {
        "club_badge_src": null,
        "entry": 9272809,
        "entry_name": "This again...",
        "event_total": 52,
        "has_played": true,
        "id": 78146096,
        "last_rank": 49207,
        "player_name": "Ben Simmons",
        "rank": 56461,
        "rank_sort": 56639,
        "total": 2348
      },
      {
        "club_badge_src": null,
        "entry": 9296635,
        "entry_name": "Quezon City",
        "event_total": 32,
        "has_played": true,
        "id": 78377922,
        "last_rank": 25436,
        "player_name": "Kristine Pacey",
        "rank": 56461,
        "rank_sort": 56640,
        "total": 2348
      },
      {
        "club_badge_src": "https://fantasy.premierleague.com/gcs/plfpl-production-adobe-approved/plfpl-production/70/5372ef8c-11fc-4cc8-96fd-8e7d1cd19a84.png",
        "entry": 70,
        "entry_name": "Cherki Girls",
        "event_total": 57,
        "has_played": true,
        "id": 385,
        "last_rank": 50635,
        "player_name": "Elliot Wright",
        "rank": 56641,
        "rank_sort": 56641,
        "total": 2348
      },
      {
        "club_badge_src": null,
        "entry": 10519,
        "entry_name": "ProKrastiNation",
        "event_total": 72,
        "has_played": true,
        "id": 62235,
        "last_rank": 77999,
        "player_name": "Niel Krastin",
        "rank": 56641,
        "rank_sort": 56642,
        "total": 2348
      },
      {
        "club_badge_src": "https://fantasy.premierleague.com/gcs/plfpl-production-adobe-approved/plfpl-production/11413/a5767944-621a-4c2b-82c3-d677aac7fed4.png",
        "entry": 11413,
        "entry_name": "Lapalapa",
        "event_total": 58,
        "has_played": true,
        "id": 67849,
        "last_rank": 58911,
        "player_name": "Brian Murphy",
        "rank": 56641,
        "rank_sort": 56643,
        "total": 2348
      },
      {
        "club_badge_src": null,
        "entry": 12466,
        "entry_name": "Luck I guess",
        "event_total": 53,
        "has_played": true,
        "id": 74638,
        "last_rank": 50772,
        "player_name": "Haunt FPL",
        "rank": 56641,
        "rank_sort": 56644,
        "total": 2348
      },
      {
        "club_badge_src": null,
        "entry": 19438,
        "entry_name": "StepSquad",
        "event_total": 72,
        "has_played": true,
        "id": 120926,
        "last_rank": 87541,
        "player_name": "Patrick Morris",
        "rank": 56641,
        "rank_sort": 56645,
        "total": 2348
      },
      {
        "club_badge_src": null,
        "entry": 32086,
        "entry_name": "wEli",
        "event_total": 56,
        "has_played": true,
        "id": 203874,
        "last_rank": 49078,
        "player_name": "Wael Sughayyir",
        "rank": 56641,
        "rank_sort": 56646,
        "total": 2348
      },
      {
        "club_badge_src": "https://fantasy.premierleague.com/gcs/plfpl-production-adobe-approved/plfpl-production/44907/0de3b280-9cf2-4f30-b294-979c014a48d6.png",
        "entry": 44907,
        "entry_name": "Club deF\u00fatbol Crim\u00f3r",
        "event_total": 50,
        "has_played": true,
        "id": 287943,
        "last_rank": 40503,
        "player_name": "Hakan Tekin",
        "rank": 56641,
        "rank_sort": 56647,
        "total": 2348
      },
      {
        "club_badge_src": null,
        "entry": 48449,
        "entry_name": "\u017d\u0117rutis",
        "event_total": 60,
        "has_played": true,
        "id": 311131,
        "last_rank": 62617,
        "player_name": "Liutauras Dziaugys",
        "rank": 56641,
        "rank_sort": 56648,
        "total": 2348
      },
      {
        "club_badge_src": null,
        "entry": 53493,
        "entry_name": "La Vecchia Signora",
        "event_total": 56,
        "has_played": true,
        "id": 344153,
        "last_rank": 49078,
        "player_name": "Mohanad FC",
        "rank": 56641,
        "rank_sort": 56649,
        "total": 2348
      },
      {
        "club_badge_src": null,
        "entry": 102053,
        "entry_name": "TicsCumin@UDownunder",
        "event_total": 68,
        "has_played": true,
        "id": 665821,
        "last_rank": 69907,
        "player_name": "James Dallimore",
        "rank": 56641,
        "rank_sort": 56650,
        "total": 2348
      }
    ]
  }
}