{
  "last_updated_data": "2026-05-24T23:28:17Z",
  "league": {
    "admin_entry": null,
    "closed": false,
    "code_privacy": "p",
    "created": "2025-07-20T23:14:33.933835Z",
    "cup_league": 2815434,
    "has_cup": true,
    "id": 314,
    "league_type": "s",
    "max_entries": null,
    "name": "Overall",
    "rank": null,
    "scoring": "c",
    "start_event": 1
  },
  "new_entries": {
    "has_next": false,
    "page": 1,
    "results": []
  },
  "standings": {
    "has_next": true,
    "page": 713,
    "results": [
      {
        "club_badge_src": null,
        "entry": 71792,
        "entry_name": "Ayeeeee",
        "event_total": 58,
        "has_played": true,
        "id": 466384,
        "last_rank": 31995,
        "player_name": "Danny Edwards",
        "rank": 35583,
        "rank_sort": 35601,
        "total": 2363
      },
      {
        "club_badge_src": null,
        "entry": 78451,
        "entry_name": "Darwinian Fitness",
        "event_total": 62,
        "has_played": true,
        "id": 510093,
        "last_rank": 36348,
        "player_name": "Jonathan Pommerening",
        "rank": 35583,
        "rank_sort": 35602,
        "total": 2363
      },
      {
        "club_badge_src": null,
        "entry": 80097,
        "entry_name": "Grimsen",
        "event_total": 51,
        "has_played": true,
        "id": 521167,
        "last_rank": 25172,
        "player_name": "Bendik Grimsb\u00f8",
        "rank": 35583,
        "rank_sort": 35603,
        "total": 2363
      },
      {
        "club_badge_src": null,
        "entry": 90324,
        "entry_name": "Fighta",
        "event_total": 59,
        "has_played": true,
        "id": 589690,
        "last_rank": 38016,
        "player_name": "Deepak Dogra",
        "rank": 35583,
        "rank_sort": 35604,
        "total": 2363
      },
      {
        "club_badge_src": null,
        "entry": 129413,
        "entry_name": "AiFC",
        "event_total": 59,
        "has_played": true,
        "id": 843479,
        "last_rank": 28726,
        "player_name": "Settawut Saojakul",
        "rank": 35583,
        "rank_sort": 35605,
        "total": 2363
      },
      {
        "club_badge_src": "https://fantasy.premierleague.com/gcs/plfpl-production-adobe-approved/plfpl-production/133236/70c88739-e366-465f-9973-f715e85c5542.png",
        "entry": 133236,
        "entry_name": "Flying Finns",
        "event_total": 41,
        "has_played": true,
        "id": 867817,
        "last_rank": 17585,
        "player_name": "Hannu Mikkola",
        "rank": 35583,
        "rank_sort": 35606,
        "total": 2363
      },
      {
        "club_badge_src": null,
        "entry": 133285,
        "entry_name": "William vinner allt",
        "event_total": 66,
        "has_played": true,
        "id": 868156,
        "last_rank": 47417,
        "player_name": "William Alml\u00f6f",
        "rank": 35583,
        "rank_sort": 35607,
        "total": 2363
      },
      {
        "club_badge_src": "https://fantasy.premierleague.com/gcs/plfpl-production-adobe-approved/plfpl-production/134982/112ca7ef-b330-4ef3-9e90-92070151f6ca.png",
        "entry": 134982,
        "entry_name": "Malice In Sunderland",
        "event_total": 66,
        "has_played": true,
        "id": 879032,
        "last_rank": 41617,
        "player_name": "Chris Kyriakides",
        "rank": 35583,
        "rank_sort": 35608,
        "total": 2363
      },
      {
        "club_badge_src": null,
        "entry": 148385,
        "entry_name": "Toby 1 kenobi",
        "event_total": 64,
        "has_played": true,
        "id": 972630,
        "last_rank": 44525,
        "player_name": "Toby Grattidge",
        "rank": 35583,
        "rank_sort": 35609,
        "total": 2363
      },
      {
        "club_badge_src": null,
        "entry": 157069,
        "entry_name": "Marconies",
        "event_total": 58,
        "has_played": true,
        "id": 1033154,
        "last_rank": 36963,
        "player_name": "Marc Shanab",
        "rank": 35583,
        "rank_sort": 35610,
        "total": 2363
      },
      {
        "club_badge_src": "https://fantasy.premierleague.com/gcs/plfpl-production-adobe-approved/plfpl-production/167419/99b3b207-3319-433b-bdfa-879be63d4fb3.png",
        "entry": 167419,
        "entry_name": "AZIZ",
        "event_total": 63,
        "has_played": true,
        "id": 1106662,
        "last_rank": 43168,
        "player_name": "Azarias Hailemariam",
        "rank": 35583,
        "rank_sort": 35611,
        "total": 2363
      },
      {
        "club_badge_src": null,
        "entry": 191091,
        "entry_name": "The Toffees",
        "event_total": 75,
        "has_played": true,
        "id": 1265593,
        "last_rank": 62223,
        "player_name": "Nathan Matthews",
        "rank": 35583,
        "rank_sort": 35612,
        "total": 2363
      },
      {
        "club_badge_src": null,
        "entry": 198730,
        "entry_name": "JoYBoy \ufffd",
        "event_total": 70,
        "has_played": true,
        "id": 1318816,
        "last_rank": 46839,
        "player_name": "Abidi Nadhir",
        "rank": 35583,
        "rank_sort": 35613,
        "total": 2363
      },
      {
        "club_badge_src": null,
        "entry": 241479,
        "entry_name": "Bill's Bombers",
        "event_total": 50,
        "has_played": true,
        "id": 1607312,
        "last_rank": 28150,
        "player_name": "Billy Bourne",
        "rank": 35583,
        "rank_sort": 35614,
        "total": 2363
      },
      {
        "club_badge_src": null,
        "entry": 273941,
        "entry_name": "Mourinheiro",
        "event_total": 67,
        "has_played": true,
        "id": 1822866,
        "last_rank": 42434,
        "player_name": "Miguel Marinheiro",
        "rank": 35583,
        "rank_sort": 35615,
        "total": 2363
      },
      {
        "club_badge_src": null,
        "entry": 283281,
        "entry_name": "Garton07",
        "event_total": 51,
        "has_played": true,
        "id": 1885862,
        "last_rank": 29071,
        "player_name": "Harley Garton",
        "rank": 35583,
        "rank_sort": 35616,
        "total": 2363
      },
      {
        "club_badge_src": null,
        "entry": 300533,
        "entry_name": "Life of Bryan",
        "event_total": 66,
        "has_played": true,
        "id": 2010277,
        "last_rank": 41617,
        "player_name": "Alex Webb",
        "rank": 35583,
        "rank_sort": 35617,
        "total": 2363
      },
      {
        "club_badge_src": null,
        "entry": 324333,
        "entry_name": "Dunk and Disorderly",
        "event_total": 61,
        "has_played": true,
        "id": 2173334,
        "last_rank": 40503,
        "player_name": "Hayden Chappell",
        "rank": 35583,
        "rank_sort": 35618,
        "total": 2363
      },
      {
        "club_badge_src": null,
        "entry": 349598,
        "entry_name": "Verdifulle Menn",
        "event_total": 59,
        "has_played": true,
        "id": 2339879,
        "last_rank": 33147,
        "player_name": "Noah L\u00f8vstad",
        "rank": 35583,
        "rank_sort": 35619,
        "total": 2363
      },
      {
        "club_badge_src": null,
        "entry": 423319,
        "entry_name": "ADMTB",
        "event_total": 49,
        "has_played": true,
        "id": 2836730,
        "last_rank": 27203,
        "player_name": "Tomasz Adamczyk",
        "rank": 35583,
        "rank_sort": 35620,
        "total": 2363
      },
      {
        "club_badge_src": null,
        "entry": 457711,
        "entry_name": "Bowen Arrow",
        "event_total": 69,
        "has_played": true,
        "id": 3070645,
        "last_rank": 51720,
        "player_name": "Brad Cogar",
        "rank": 35583,
        "rank_sort": 35621,
        "total": 2363
      },
      {
        "club_badge_src": null,
        "entry": 467634,
        "entry_name": "Cunha kick it?",
        "event_total": 58,
        "has_played": true,
        "id": 3138139,
        "last_rank": 31995,
        "player_name": "Robert Tan",
        "rank": 35583,
        "rank_sort": 35622,
        "total": 2363
      },
      {
        "club_badge_src": "https://fantasy.premierleague.com/gcs/plfpl-production-adobe-approved/plfpl-production/508787/db01bc22-4c39-407f-a24b-8796cfd589a4.png",
        "entry": 508787,
        "entry_name": "Men with Van de Ven",
        "event_total": 66,
        "has_played": true,
        "id": 3415620,
        "last_rank": 47596,
        "player_name": "Dean Woodhouse",
        "rank": 35583,
        "rank_sort": 35623,
        "total": 2363
      },
      {
        "club_badge_src": null,
        "entry": 551676,
        "entry_name": "Kriss Power",
        "event_total": 62,
        "has_played": true,
        "id": 3713254,
        "last_rank": 36624,
        "player_name": "Kristian Vad Johansen",
        "rank": 35583,
        "rank_sort": 35624,
        "total": 2363
      },
      {
        "club_badge_src": null,
        "entry": 590917,
        "entry_name": "All Stars 25/26",
        "event_total": 67,
        "has_played": true,
        "id": 3980957,
        "last_rank": 42940,
        "player_name": "Zoltan Remecz",
        "rank": 35583,
        "rank_sort": 35625,
        "total": 2363
      },
      {
        "club_badge_src": null,
        "entry": 591022,
        "entry_name": "Stellinger Divum FC",
        "event_total": 75,
        "has_played": true,
        "id": 3981729,
        "last_rank": 61606,
        "player_name": "Andreas Holmsen-Ringstad",
        "rank": 35583,
        "rank_sort": 35626,
        "total": 2363
      },
      {
        "club_badge_src": null,
        "entry": 616944,
        "entry_name": "Red and White Army",
        "event_total": 54,
        "has_played": true,
        "id": 4168523,
        "last_rank": 32335,
        "player_name": "Adam Cartwright",
        "rank": 35583,
        "rank_sort": 35627,
        "total": 2363
      },
      {
        "club_badge_src": null,
        "entry": 702904,
        "entry_name": "Real Slim Brady",
        "event_total": 59,
        "has_played": true,
        "id": 4762988,
        "last_rank": 38016,
        "player_name": "Josh Marklew",
        "rank": 35583,
        "rank_sort": 35628,
        "total": 2363
      },
      {
        "club_badge_src": null,
        "entry": 740218,
        "entry_name": "Change Name",
        "event_total": 60,
        "has_played": true,
        "id": 5033062,
        "last_rank": 39023,
        "player_name": "Callum Logue",
        "rank": 35583,
        "rank_sort": 35629,
        "total": 2363
      },
      {
        "club_badge_src": null,
        "entry": 750596,
        "entry_name": "Graemeio",
        "event_total": 65,
        "has_played": true,
        "id": 5107109,
        "last_rank": 45927,
        "player_name": "Graeme Hendry",
        "rank": 35583,
        "rank_sort": 35630,
        "total": 2363
      },
      {
        "club_badge_src": null,
        "entry": 757974,
        "entry_name": "Zubi-Doobi-Doo",
        "event_total": 65,
        "has_played": true,
        "id": 5162910,
        "last_rank": 45714,
        "player_name": "Muhammed Haque",
        "rank": 35583,
        "rank_sort": 35631,
        "total": 2363
      },
      {
        "club_badge_src": "https://fantasy.premierleague.com/gcs/plfpl-production-adobe-approved/plfpl-production/768220/a7dfe604-ea79-4d51-853c-3288da0d27a4.png",
        "entry": 768220,
        "entry_name": "Procurement Prince",
        "event_total": 67,
        "has_played": true,
        "id": 5239738,
        "last_rank": 48363,
        "player_name": "Lee Bearley",
        "rank": 35583,
        "rank_sort": 35632,
        "total": 2363
      },
      {
        "club_badge_src": null,
        "entry": 781616,
        "entry_name": "My talented lads",
        "event_total": 67,
        "has_played": true,
        "id": 5336322,
        "last_rank": 42940,
        "player_name": "Vibeke Utne",
        "rank": 35583,
        "rank_sort": 35633,
        "total": 2363
      },
      {
        "club_badge_src": null,
        "entry": 789169,
        "entry_name": "Ando son son son",
        "event_total": 64,
        "has_played": true,
        "id": 5398213,
        "last_rank": 39023,
        "player_name": "Mike Anderson",
        "rank": 35583,
        "rank_sort": 35634,
        "total": 2363
      },
      {
        "club_badge_src": "https://fantasy.premierleague.com/gcs/plfpl-production-adobe-approved/plfpl-production/853068/c224e920-660e-4ea9-b572-b969b3739042.png",
        "entry": 853068,
        "entry_name": "Cops And Rogers",
        "event_total": 63,
        "has_played": true,
        "id": 5847300,
        "last_rank": 42940,
        "player_name": "Craig Evans",
        "rank": 35583,
        "rank_sort": 35635,
        "total": 2363
      },
      {
        "club_badge_src": null,
        "entry": 858266,
        "entry_name": "Slot Shaming",
        "event_total": 54,
        "has_played": true,
        "id": 5883503,
        "last_rank": 31995,
        "player_name": "Joshua Fellowes",
        "rank": 35583,
        "rank_sort": 35636,
        "total": 2363
      },
      {
        "club_badge_src": null,
        "entry": 869532,
        "entry_name": "DOBBY\u2019S U12\u2019s",
        "event_total": 57,
        "has_played": true,
        "id": 5961333,
        "last_rank": 30957,
        "player_name": "Tom Vials",
        "rank": 35583,
        "rank_sort": 35637,
        "total": 2363
      },
      {
        "club_badge_src": null,
        "entry": 873017,
        "entry_name": "Salah Alaykum",
        "event_total": 46,
        "has_played": true,
        "id": 5985221,
        "last_rank": 24330,
        "player_name": "George Hatzinikolaidis",
        "rank": 35583,
        "rank_sort": 35638,
        "total": 2363
      },
      {
        "club_badge_src": null,
        "entry": 892826,
        "entry_name": "Dream Team M.J.",
        "event_total": 61,
        "has_played": true,
        "id": 6132781,
        "last_rank": 40503,
        "player_name": "Marcin Jurek",
        "rank": 35583,
        "rank_sort": 35639,
        "total": 2363
      },
      {
        "club_badge_src": "https://fantasy.premierleague.com/gcs/plfpl-production-adobe-approved/plfpl-production/895769/3b5dd4ca-98fc-407a-b553-fc02eac7cb8c.png",
        "entry": 895769,
        "entry_name": "Wonderwallwork",
        "event_total": 57,
        "has_played": true,
        "id": 6153579,
        "last_rank": 35619,
        "player_name": "Mark Southern",
        "rank": 35583,
        "rank_sort": 35640,
        "total": 2363
      },
      {
        "club_badge_src": null,
        "entry": 909094,
        "entry_name": "Evan Toeny",
        "event_total": 70,
        "has_played": true,
        "id": 6249588,
        "last_rank": 47163,
        "player_name": "james baur",
        "rank": 35583,
        "rank_sort": 35641,
        "total": 2363
      },
      {
        "club_badge_src": null,
        "entry": 935480,
        "entry_name": "Offside Story",
        "event_total": 51,
        "has_played": true,
        "id": 6437718,
        "last_rank": 28906,
        "player_name": "Julius Woelki",
        "rank": 35583,
        "rank_sort": 35642,
        "total": 2363
      },
      {
        "club_badge_src": null,
        "entry": 972401,
        "entry_name": "Change Name",
        "event_total": 47,
        "has_played": true,
        "id": 6703150,
        "last_rank": 25330,
        "player_name": "Russell Wright",
        "rank": 35583,
        "rank_sort": 35643,
        "total": 2363
      },
      {
        "club_badge_src": null,
        "entry": 1023776,
        "entry_name": "Die to get 3 points",
        "event_total": 56,
        "has_played": true,
        "id": 7083076,
        "last_rank": 34458,
        "player_name": "Matt Barkwill",
        "rank": 35583,
        "rank_sort": 35644,
        "total": 2363
      },
      {
        "club_badge_src": "https://fantasy.premierleague.com/gcs/plfpl-production-adobe-approved/plfpl-production/1032567/62d38bff-fb95-423b-8cd2-1e0937af936b.png",
        "entry": 1032567,
        "entry_name": "Flat Earth Society",
        "event_total": 88,
        "has_played": true,
        "id": 7144022,
        "last_rank": 89706,
        "player_name": "Robert Lagerquist",
        "rank": 35583,
        "rank_sort": 35645,
        "total": 2363
      },
      {
        "club_badge_src": null,
        "entry": 1055337,
        "entry_name": "Clear glade",
        "event_total": 62,
        "has_played": true,
        "id": 7303540,
        "last_rank": 41824,
        "player_name": "Maxim Gladilin",
        "rank": 35583,
        "rank_sort": 35646,
        "total": 2363
      },
      {
        "club_badge_src": null,
        "entry": 1125598,
        "entry_name": "Jnr Son FC",
        "event_total": 34,
        "has_played": true,
        "id": 7800813,
        "last_rank": 15797,
        "player_name": "Tauffick Issah",
        "rank": 35583,
        "rank_sort": 35647,
        "total": 2363
      },
      {
        "club_badge_src": null,
        "entry": 1315806,
        "entry_name": "Ibrahim",
        "event_total": 52,
        "has_played": true,
        "id": 9145495,
        "last_rank": 30191,
        "player_name": "\u0627\u0628\u0631\u0627\u0647\u064a\u0645 \u0639\u0628\u062f \u0627\u0644\u0642\u0627\u062f\u0631",
        "rank": 35583,
        "rank_sort": 35648,
        "total": 2363
      },
      {
        "club_badge_src": null,
        "entry": 1337381,
        "entry_name": "WAWAW FC",
        "event_total": 57,
        "has_played": true,
        "id": 9298167,
        "last_rank": 35619,
        "player_name": "Michael Davies",
        "rank": 35583,
        "rank_sort": 35649,
        "total": 2363
      },
      {
        "club_badge_src": null,
        "entry": 1388541,
        "entry_name": "Tanictech Unlimited",
        "event_total": 89,
        "has_played": true,
        "id": 9658514,
        "last_rank": 91466,
        "player_name": "He Said",
        "rank": 35583,
        "rank_sort": 35650,
        "total": 2363
      }
    ]
  }
}