{
  "last_updated_data": "2026-05-24T23:28:17Z",
  "league": {
    "admin_entry": null,
    "closed": false,
    "code_privacy": "p",
    "created": "2025-07-20T23:14:33.933835Z",
    "cup_league": 2815434,
    "has_cup": true,
    "id": 314,
    "league_type": "s",
    "max_entries": null,
    "name": "Overall",
    "rank": null,
    "scoring": "c",
    "start_event": 1
  },
  "new_entries": {
    "has_next": false,
    "page": 1,
    "results": []
  },
  "standings": {
    "has_next": true,
    "page": 1161,
    "results": [
      {
        "club_badge_src": null,
        "entry": 3415047,
        "entry_name": "Ray's Rovers",
        "event_total": 37,
        "has_played": true,
        "id": 25364837,
        "last_rank": 31125,
        "player_name": "Chris Ross",
        "rank": 57853,
        "rank_sort": 58001,
        "total": 2347
      },
      {
        "club_badge_src": "https://fantasy.premierleague.com/gcs/plfpl-production-adobe-approved/plfpl-production/3443956/d5a9310a-1202-4005-ab63-e235ebcb5828.png",
        "entry": 3443956,
        "entry_name": "Cole'd As Ice",
        "event_total": 57,
        "has_played": true,
        "id": 25587767,
        "last_rank": 58688,
        "player_name": "Alan Makin",
        "rank": 57853,
        "rank_sort": 58002,
        "total": 2347
      },
      {
        "club_badge_src": null,
        "entry": 3445274,
        "entry_name": "Wharton's Wangs",
        "event_total": 61,
        "has_played": true,
        "id": 25598282,
        "last_rank": 65475,
        "player_name": "Griffin Lombardo",
        "rank": 57853,
        "rank_sort": 58003,
        "total": 2347
      },
      {
        "club_badge_src": "https://fantasy.premierleague.com/gcs/plfpl-production-adobe-approved/plfpl-production/3508925/93fcaaf5-d5ef-4d48-ad1b-d2dfc582534e.png",
        "entry": 3508925,
        "entry_name": "Nomad Stormbreaker",
        "event_total": 66,
        "has_played": true,
        "id": 26107997,
        "last_rank": 75139,
        "player_name": "Chetan Mirashi",
        "rank": 57853,
        "rank_sort": 58004,
        "total": 2347
      },
      {
        "club_badge_src": "https://fantasy.premierleague.com/gcs/plfpl-production-adobe-approved/plfpl-production/3677910/9fa3a6e7-94db-425a-b86c-0aae98d42e5d.png",
        "entry": 3677910,
        "entry_name": "CFC Blues",
        "event_total": 60,
        "has_played": true,
        "id": 27432207,
        "last_rank": 63390,
        "player_name": "Anders Johnson",
        "rank": 57853,
        "rank_sort": 58005,
        "total": 2347
      },
      {
        "club_badge_src": null,
        "entry": 3814253,
        "entry_name": "Highbury Hangover",
        "event_total": 75,
        "has_played": true,
        "id": 28522722,
        "last_rank": 96777,
        "player_name": "Bj\u00f8rn Waalekalv",
        "rank": 57853,
        "rank_sort": 58006,
        "total": 2347
      },
      {
        "club_badge_src": "https://fantasy.premierleague.com/gcs/plfpl-production-adobe-approved/plfpl-production/3863975/9a4e75e6-2dab-413b-a5db-1b3a40c8d576.png",
        "entry": 3863975,
        "entry_name": "Return of The Djedi",
        "event_total": 64,
        "has_played": true,
        "id": 28972528,
        "last_rank": 71713,
        "player_name": "Ben Holland",
        "rank": 57853,
        "rank_sort": 58007,
        "total": 2347
      },
      {
        "club_badge_src": null,
        "entry": 3967432,
        "entry_name": "King Bizzalle",
        "event_total": 69,
        "has_played": true,
        "id": 29854237,
        "last_rank": 82398,
        "player_name": "King Bezzalle",
        "rank": 57853,
        "rank_sort": 58008,
        "total": 2347
      },
      {
        "club_badge_src": null,
        "entry": 3992454,
        "entry_name": "Mohd_Omairi",
        "event_total": 50,
        "has_played": true,
        "id": 30063885,
        "last_rank": 47417,
        "player_name": "Mohammed AlOmairi",
        "rank": 57853,
        "rank_sort": 58009,
        "total": 2347
      },
      {
        "club_badge_src": "https://fantasy.premierleague.com/gcs/plfpl-production-adobe-approved/plfpl-production/3995162/8aa78d0d-f6ce-44ae-aa9f-fc15fedffe9b.png",
        "entry": 3995162,
        "entry_name": "The Big Brew Luau",
        "event_total": 62,
        "has_played": true,
        "id": 30085975,
        "last_rank": 67926,
        "player_name": "Andreas Marouchos",
        "rank": 57853,
        "rank_sort": 58010,
        "total": 2347
      },
      {
        "club_badge_src": null,
        "entry": 3996499,
        "entry_name": "gandus",
        "event_total": 57,
        "has_played": true,
        "id": 30097494,
        "last_rank": 58688,
        "player_name": "Umer Khan",
        "rank": 57853,
        "rank_sort": 58011,
        "total": 2347
      },
      {
        "club_badge_src": null,
        "entry": 4016087,
        "entry_name": "Beasts",
        "event_total": 67,
        "has_played": true,
        "id": 30264898,
        "last_rank": 69323,
        "player_name": "Harald Mo",
        "rank": 57853,
        "rank_sort": 58012,
        "total": 2347
      },
      {
        "club_badge_src": null,
        "entry": 4101777,
        "entry_name": "Olimpia Mi\u0142ki",
        "event_total": 57,
        "has_played": true,
        "id": 30973904,
        "last_rank": 58688,
        "player_name": "Tomasz Majda",
        "rank": 57853,
        "rank_sort": 58013,
        "total": 2347
      },
      {
        "club_badge_src": null,
        "entry": 4103840,
        "entry_name": "TOTLEE WOLFUL",
        "event_total": 59,
        "has_played": true,
        "id": 30990302,
        "last_rank": 62429,
        "player_name": "Ben Wanklyn",
        "rank": 57853,
        "rank_sort": 58014,
        "total": 2347
      },
      {
        "club_badge_src": null,
        "entry": 4133112,
        "entry_name": "Yeny Loro",
        "event_total": 60,
        "has_played": true,
        "id": 31233695,
        "last_rank": 56708,
        "player_name": "Piotr Wyrzykowski",
        "rank": 57853,
        "rank_sort": 58015,
        "total": 2347
      },
      {
        "club_badge_src": null,
        "entry": 4206051,
        "entry_name": "Tommo Salah",
        "event_total": 68,
        "has_played": true,
        "id": 31841621,
        "last_rank": 79817,
        "player_name": "Thomas Opalka",
        "rank": 57853,
        "rank_sort": 58016,
        "total": 2347
      },
      {
        "club_badge_src": null,
        "entry": 4306301,
        "entry_name": "Toms Furry Rambutan",
        "event_total": 45,
        "has_played": true,
        "id": 32672615,
        "last_rank": 40503,
        "player_name": "Tom Evans",
        "rank": 57853,
        "rank_sort": 58017,
        "total": 2347
      },
      {
        "club_badge_src": null,
        "entry": 4338101,
        "entry_name": "Hadi",
        "event_total": 54,
        "has_played": true,
        "id": 32936402,
        "last_rank": 53345,
        "player_name": "Ahmed Mohamed",
        "rank": 57853,
        "rank_sort": 58018,
        "total": 2347
      },
      {
        "club_badge_src": null,
        "entry": 4403015,
        "entry_name": "charli XGx",
        "event_total": 55,
        "has_played": true,
        "id": 33487861,
        "last_rank": 55014,
        "player_name": "Charlie Phillips",
        "rank": 57853,
        "rank_sort": 58019,
        "total": 2347
      },
      {
        "club_badge_src": null,
        "entry": 4413994,
        "entry_name": "Major League Saka",
        "event_total": 71,
        "has_played": true,
        "id": 33579282,
        "last_rank": 77676,
        "player_name": "Navraj Lally",
        "rank": 57853,
        "rank_sort": 58020,
        "total": 2347
      },
      {
        "club_badge_src": null,
        "entry": 4595664,
        "entry_name": "Pilacticos FC",
        "event_total": 53,
        "has_played": true,
        "id": 35098791,
        "last_rank": 51403,
        "player_name": "Eivind Pilskog",
        "rank": 57853,
        "rank_sort": 58021,
        "total": 2347
      },
      {
        "club_badge_src": null,
        "entry": 4597983,
        "entry_name": "Change Name",
        "event_total": 57,
        "has_played": true,
        "id": 35118879,
        "last_rank": 58688,
        "player_name": "shae fraser",
        "rank": 57853,
        "rank_sort": 58022,
        "total": 2347
      },
      {
        "club_badge_src": null,
        "entry": 4626260,
        "entry_name": "Sesko Express",
        "event_total": 64,
        "has_played": true,
        "id": 35369301,
        "last_rank": 71713,
        "player_name": "Tatenda Tigere",
        "rank": 57853,
        "rank_sort": 58023,
        "total": 2347
      },
      {
        "club_badge_src": null,
        "entry": 4631522,
        "entry_name": "amadness",
        "event_total": 69,
        "has_played": true,
        "id": 35414507,
        "last_rank": 82069,
        "player_name": "Nicko Agni",
        "rank": 57853,
        "rank_sort": 58024,
        "total": 2347
      },
      {
        "club_badge_src": null,
        "entry": 4660971,
        "entry_name": "g\u00e5kjebradether",
        "event_total": 61,
        "has_played": true,
        "id": 35690768,
        "last_rank": 65163,
        "player_name": "Torje Kristoffersen",
        "rank": 57853,
        "rank_sort": 58025,
        "total": 2347
      },
      {
        "club_badge_src": null,
        "entry": 4667560,
        "entry_name": "Mee Myself Ndiaye",
        "event_total": 65,
        "has_played": true,
        "id": 35751197,
        "last_rank": 73423,
        "player_name": "Daniel Schloss",
        "rank": 57853,
        "rank_sort": 58026,
        "total": 2347
      },
      {
        "club_badge_src": null,
        "entry": 4902854,
        "entry_name": "Change Name",
        "event_total": 55,
        "has_played": true,
        "id": 37807459,
        "last_rank": 48642,
        "player_name": "Rezza X",
        "rank": 57853,
        "rank_sort": 58027,
        "total": 2347
      },
      {
        "club_badge_src": null,
        "entry": 5155931,
        "entry_name": "Rangers",
        "event_total": 75,
        "has_played": true,
        "id": 39893516,
        "last_rank": 96374,
        "player_name": "Shahan Ahmed",
        "rank": 57853,
        "rank_sort": 58028,
        "total": 2347
      },
      {
        "club_badge_src": "https://fantasy.premierleague.com/gcs/plfpl-production-adobe-approved/plfpl-production/5161331/ecd25ddc-4f7e-407a-8d1d-aac649448610.png",
        "entry": 5161331,
        "entry_name": "KaTaJIu",
        "event_total": 38,
        "has_played": true,
        "id": 39940051,
        "last_rank": 32190,
        "player_name": "Anatolii Horobets",
        "rank": 57853,
        "rank_sort": 58029,
        "total": 2347
      },
      {
        "club_badge_src": null,
        "entry": 5165436,
        "entry_name": "Laganas final boss",
        "event_total": 46,
        "has_played": true,
        "id": 39974593,
        "last_rank": 36624,
        "player_name": "Victor Orlien",
        "rank": 57853,
        "rank_sort": 58030,
        "total": 2347
      },
      {
        "club_badge_src": null,
        "entry": 5271601,
        "entry_name": "Kami United",
        "event_total": 68,
        "has_played": true,
        "id": 40858274,
        "last_rank": 79817,
        "player_name": "Dzung Nguyen",
        "rank": 57853,
        "rank_sort": 58031,
        "total": 2347
      },
      {
        "club_badge_src": null,
        "entry": 5280517,
        "entry_name": "4 Beto or 4 Wirtz",
        "event_total": 67,
        "has_played": true,
        "id": 40929356,
        "last_rank": 77999,
        "player_name": "Phil Alford",
        "rank": 57853,
        "rank_sort": 58032,
        "total": 2347
      },
      {
        "club_badge_src": null,
        "entry": 5323866,
        "entry_name": "Red Robins FC",
        "event_total": 46,
        "has_played": true,
        "id": 41271399,
        "last_rank": 41617,
        "player_name": "Lisa Watcham",
        "rank": 57853,
        "rank_sort": 58033,
        "total": 2347
      },
      {
        "club_badge_src": null,
        "entry": 5448667,
        "entry_name": "Kari Kambing",
        "event_total": 54,
        "has_played": true,
        "id": 42396812,
        "last_rank": 53621,
        "player_name": "Chef Paih",
        "rank": 57853,
        "rank_sort": 58034,
        "total": 2347
      },
      {
        "club_badge_src": null,
        "entry": 5485220,
        "entry_name": "Change Name",
        "event_total": 48,
        "has_played": true,
        "id": 42713625,
        "last_rank": 44672,
        "player_name": "Kiyurren Thaver",
        "rank": 57853,
        "rank_sort": 58035,
        "total": 2347
      },
      {
        "club_badge_src": null,
        "entry": 5529083,
        "entry_name": "Gangsters Allardyce",
        "event_total": 52,
        "has_played": true,
        "id": 43126856,
        "last_rank": 50468,
        "player_name": "Craig Bellringer",
        "rank": 57853,
        "rank_sort": 58036,
        "total": 2347
      },
      {
        "club_badge_src": null,
        "entry": 5550174,
        "entry_name": "Tok UbaN",
        "event_total": 58,
        "has_played": true,
        "id": 43316942,
        "last_rank": 53345,
        "player_name": "Dato dr AlBaN",
        "rank": 57853,
        "rank_sort": 58037,
        "total": 2347
      },
      {
        "club_badge_src": null,
        "entry": 5570295,
        "entry_name": "plana",
        "event_total": 66,
        "has_played": true,
        "id": 43496278,
        "last_rank": 75537,
        "player_name": "A L",
        "rank": 57853,
        "rank_sort": 58038,
        "total": 2347
      },
      {
        "club_badge_src": null,
        "entry": 5623782,
        "entry_name": "Safakaraa",
        "event_total": 53,
        "has_played": true,
        "id": 43963121,
        "last_rank": 45714,
        "player_name": "Keshav Patel",
        "rank": 57853,
        "rank_sort": 58039,
        "total": 2347
      },
      {
        "club_badge_src": null,
        "entry": 5883216,
        "entry_name": "Casad\u00f3",
        "event_total": 78,
        "has_played": true,
        "id": 46213990,
        "last_rank": 93883,
        "player_name": "S T",
        "rank": 57853,
        "rank_sort": 58040,
        "total": 2347
      },
      {
        "club_badge_src": null,
        "entry": 6032950,
        "entry_name": "kick bolts",
        "event_total": 63,
        "has_played": true,
        "id": 47592184,
        "last_rank": 69641,
        "player_name": "musa ahmad",
        "rank": 57853,
        "rank_sort": 58041,
        "total": 2347
      },
      {
        "club_badge_src": null,
        "entry": 6048739,
        "entry_name": "Omega",
        "event_total": 57,
        "has_played": true,
        "id": 47728680,
        "last_rank": 58388,
        "player_name": "Divesh Shetty",
        "rank": 57853,
        "rank_sort": 58042,
        "total": 2347
      },
      {
        "club_badge_src": null,
        "entry": 6151909,
        "entry_name": "Colonel Cardiffi",
        "event_total": 56,
        "has_played": true,
        "id": 48629545,
        "last_rank": 50199,
        "player_name": "Chris Jones",
        "rank": 57853,
        "rank_sort": 58043,
        "total": 2347
      },
      {
        "club_badge_src": null,
        "entry": 6209463,
        "entry_name": "IFH United",
        "event_total": 54,
        "has_played": true,
        "id": 49127067,
        "last_rank": 53621,
        "player_name": "Jonathan Taylor",
        "rank": 57853,
        "rank_sort": 58044,
        "total": 2347
      },
      {
        "club_badge_src": "https://fantasy.premierleague.com/gcs/plfpl-production-adobe-approved/plfpl-production/6271845/d7ada5b0-6fa9-4619-894a-8ecdfb0e5ba4.png",
        "entry": 6271845,
        "entry_name": "KARAPAMPULA FC",
        "event_total": 50,
        "has_played": true,
        "id": 49664131,
        "last_rank": 47163,
        "player_name": "Marko \u017duni\u0107",
        "rank": 57853,
        "rank_sort": 58045,
        "total": 2347
      },
      {
        "club_badge_src": null,
        "entry": 6312533,
        "entry_name": "Ekus",
        "event_total": 42,
        "has_played": true,
        "id": 50087262,
        "last_rank": 36831,
        "player_name": "Alix Ekus",
        "rank": 57853,
        "rank_sort": 58046,
        "total": 2347
      },
      {
        "club_badge_src": null,
        "entry": 6319742,
        "entry_name": "Only Overrated",
        "event_total": 66,
        "has_played": true,
        "id": 50175566,
        "last_rank": 75874,
        "player_name": "Captain Leader Legend",
        "rank": 57853,
        "rank_sort": 58047,
        "total": 2347
      },
      {
        "club_badge_src": null,
        "entry": 6339863,
        "entry_name": "Phils squad",
        "event_total": 30,
        "has_played": true,
        "id": 50390785,
        "last_rank": 24330,
        "player_name": "Filip Pupp",
        "rank": 57853,
        "rank_sort": 58048,
        "total": 2347
      },
      {
        "club_badge_src": null,
        "entry": 6343009,
        "entry_name": "McGinn & Tonic",
        "event_total": 42,
        "has_played": true,
        "id": 50417910,
        "last_rank": 36831,
        "player_name": "Adam McTear",
        "rank": 57853,
        "rank_sort": 58049,
        "total": 2347
      },
      {
        "club_badge_src": null,
        "entry": 6382499,
        "entry_name": "Swedish Scouse Mafia",
        "event_total": 65,
        "has_played": true,
        "id": 50764954,
        "last_rank": 65475,
        "player_name": "Peter Battley",
        "rank": 57853,
        "rank_sort": 58050,
        "total": 2347
      }
    ]
  }
}