{
  "last_updated_data": "2026-05-24T23:28:17Z",
  "league": {
    "admin_entry": null,
    "closed": false,
    "code_privacy": "p",
    "created": "2025-07-20T23:14:33.933835Z",
    "cup_league": 2815434,
    "has_cup": true,
    "id": 314,
    "league_type": "s",
    "max_entries": null,
    "name": "Overall",
    "rank": null,
    "scoring": "c",
    "start_event": 1
  },
  "new_entries": {
    "has_next": false,
    "page": 1,
    "results": []
  },
  "standings": {
    "has_next": true,
    "page": 114,
    "results": [
      {
        "club_badge_src": null,
        "entry": 7142133,
        "entry_name": "More Tea Vicario?",
        "event_total": 65,
        "has_played": true,
        "id": 57574819,
        "last_rank": 6194,
        "player_name": "Zachary Dean",
        "rank": 5603,
        "rank_sort": 5651,
        "total": 2412
      },
      {
        "club_badge_src": null,
        "entry": 7278452,
        "entry_name": "B0SS SQUAD",
        "event_total": 71,
        "has_played": true,
        "id": 58874037,
        "last_rank": 9644,
        "player_name": "Bartek Michalczyk",
        "rank": 5603,
        "rank_sort": 5652,
        "total": 2412
      },
      {
        "club_badge_src": null,
        "entry": 7415761,
        "entry_name": "Emperor Bubbles",
        "event_total": 65,
        "has_played": true,
        "id": 60193219,
        "last_rank": 7450,
        "player_name": "Johnathan Londono",
        "rank": 5603,
        "rank_sort": 5653,
        "total": 2412
      },
      {
        "club_badge_src": "https://fantasy.premierleague.com/gcs/plfpl-production-adobe-approved/plfpl-production/7592055/6a2d2b7a-10d8-49a8-96cd-ec564397f0e7.png",
        "entry": 7592055,
        "entry_name": "Jutt Brothers",
        "event_total": 64,
        "has_played": true,
        "id": 62193213,
        "last_rank": 7141,
        "player_name": "Saleh Gondal",
        "rank": 5603,
        "rank_sort": 5654,
        "total": 2412
      },
      {
        "club_badge_src": null,
        "entry": 7693468,
        "entry_name": "Skibidi",
        "event_total": 68,
        "has_played": true,
        "id": 63112636,
        "last_rank": 7059,
        "player_name": "Sander Ekeberg",
        "rank": 5603,
        "rank_sort": 5655,
        "total": 2412
      },
      {
        "club_badge_src": "https://fantasy.premierleague.com/gcs/plfpl-production-adobe-approved/plfpl-production/8205002/ec9ff55a-15e8-484c-b836-e47b5d876031.png",
        "entry": 8205002,
        "entry_name": "Hotel? Thiago",
        "event_total": 70,
        "has_played": true,
        "id": 67787533,
        "last_rank": 9072,
        "player_name": "Joshua Paterson",
        "rank": 5603,
        "rank_sort": 5656,
        "total": 2412
      },
      {
        "club_badge_src": null,
        "entry": 8723293,
        "entry_name": "Me, Myself, Ndiaye",
        "event_total": 61,
        "has_played": true,
        "id": 72806176,
        "last_rank": 6265,
        "player_name": "Scott Pilgrim",
        "rank": 5603,
        "rank_sort": 5657,
        "total": 2412
      },
      {
        "club_badge_src": null,
        "entry": 9213162,
        "entry_name": "Eze-Duz-It",
        "event_total": 72,
        "has_played": true,
        "id": 77564388,
        "last_rank": 9942,
        "player_name": "Tony Chambers",
        "rank": 5603,
        "rank_sort": 5658,
        "total": 2412
      },
      {
        "club_badge_src": null,
        "entry": 67452,
        "entry_name": "Scamaz",
        "event_total": 73,
        "has_played": true,
        "id": 436719,
        "last_rank": 8854,
        "player_name": "Martin Vnuk",
        "rank": 5659,
        "rank_sort": 5659,
        "total": 2412
      },
      {
        "club_badge_src": "https://fantasy.premierleague.com/gcs/plfpl-production-adobe-approved/plfpl-production/90760/cde00526-9003-4955-9552-72b12f580477.png",
        "entry": 90760,
        "entry_name": "Peps blanka huvud",
        "event_total": 64,
        "has_played": true,
        "id": 592639,
        "last_rank": 7193,
        "player_name": "Marcus Lundqvist",
        "rank": 5659,
        "rank_sort": 5660,
        "total": 2412
      },
      {
        "club_badge_src": "https://fantasy.premierleague.com/gcs/plfpl-production-adobe-approved/plfpl-production/168969/b4d163fc-fafe-4b75-a2fc-9d6c34aa8a46.png",
        "entry": 168969,
        "entry_name": "Kevin de Mhoy",
        "event_total": 51,
        "has_played": true,
        "id": 1116692,
        "last_rank": 3302,
        "player_name": "Jaru Jaru",
        "rank": 5659,
        "rank_sort": 5661,
        "total": 2412
      },
      {
        "club_badge_src": "https://fantasy.premierleague.com/gcs/plfpl-production-adobe-approved/plfpl-production/496806/6c1a0445-8048-4054-b150-bd2af4056f5e.png",
        "entry": 496806,
        "entry_name": "team name",
        "event_total": 61,
        "has_played": true,
        "id": 3334555,
        "last_rank": 6305,
        "player_name": "Edward C",
        "rank": 5659,
        "rank_sort": 5662,
        "total": 2412
      },
      {
        "club_badge_src": null,
        "entry": 543616,
        "entry_name": "CelticBar\u00e7a",
        "event_total": 65,
        "has_played": true,
        "id": 3658563,
        "last_rank": 6265,
        "player_name": "A M",
        "rank": 5659,
        "rank_sort": 5663,
        "total": 2412
      },
      {
        "club_badge_src": null,
        "entry": 584299,
        "entry_name": "Sharingan F.C",
        "event_total": 62,
        "has_played": true,
        "id": 3932209,
        "last_rank": 6579,
        "player_name": "Mohamed eltet",
        "rank": 5659,
        "rank_sort": 5664,
        "total": 2412
      },
      {
        "club_badge_src": null,
        "entry": 698072,
        "entry_name": "gonna win dalot",
        "event_total": 53,
        "has_played": true,
        "id": 4728714,
        "last_rank": 4358,
        "player_name": "Daniel Harty",
        "rank": 5659,
        "rank_sort": 5665,
        "total": 2412
      },
      {
        "club_badge_src": null,
        "entry": 721188,
        "entry_name": "Just Hanging Around",
        "event_total": 72,
        "has_played": true,
        "id": 4897056,
        "last_rank": 10031,
        "player_name": "Daniel Farrugia",
        "rank": 5659,
        "rank_sort": 5666,
        "total": 2412
      },
      {
        "club_badge_src": "https://fantasy.premierleague.com/gcs/plfpl-production-adobe-approved/plfpl-production/798526/9dec6d4a-cb95-4d10-b4d0-857761c5a5a9.png",
        "entry": 798526,
        "entry_name": "Squidwirtz",
        "event_total": 63,
        "has_played": true,
        "id": 5465556,
        "last_rank": 5752,
        "player_name": "Mike Seals-Law",
        "rank": 5659,
        "rank_sort": 5667,
        "total": 2412
      },
      {
        "club_badge_src": null,
        "entry": 820584,
        "entry_name": "Zubi Zubi Zubi Zubi",
        "event_total": 58,
        "has_played": true,
        "id": 5619912,
        "last_rank": 5400,
        "player_name": "Kamen Velichkov",
        "rank": 5659,
        "rank_sort": 5668,
        "total": 2412
      },
      {
        "club_badge_src": null,
        "entry": 1116601,
        "entry_name": "Jaiden XI",
        "event_total": 60,
        "has_played": true,
        "id": 7734572,
        "last_rank": 5011,
        "player_name": "Jaiden Govind",
        "rank": 5659,
        "rank_sort": 5669,
        "total": 2412
      },
      {
        "club_badge_src": null,
        "entry": 1518447,
        "entry_name": "CF7",
        "event_total": 75,
        "has_played": true,
        "id": 10590767,
        "last_rank": 11345,
        "player_name": "Ciaran Fox",
        "rank": 5659,
        "rank_sort": 5670,
        "total": 2412
      },
      {
        "club_badge_src": null,
        "entry": 1590930,
        "entry_name": "Blaugrana",
        "event_total": 65,
        "has_played": true,
        "id": 11124349,
        "last_rank": 6265,
        "player_name": "Ashwad Tarsoo",
        "rank": 5659,
        "rank_sort": 5671,
        "total": 2412
      },
      {
        "club_badge_src": null,
        "entry": 1910816,
        "entry_name": "Stach Overflow",
        "event_total": 54,
        "has_played": true,
        "id": 13471636,
        "last_rank": 4615,
        "player_name": "Jonathan Cairns-Terry",
        "rank": 5659,
        "rank_sort": 5672,
        "total": 2412
      },
      {
        "club_badge_src": null,
        "entry": 2270174,
        "entry_name": "Mic",
        "event_total": 66,
        "has_played": true,
        "id": 16187405,
        "last_rank": 7822,
        "player_name": "Vichapas Sudsanguan",
        "rank": 5659,
        "rank_sort": 5673,
        "total": 2412
      },
      {
        "club_badge_src": null,
        "entry": 2283216,
        "entry_name": "Boogiemen",
        "event_total": 67,
        "has_played": true,
        "id": 16282444,
        "last_rank": 6839,
        "player_name": "Jorgen Fredheim",
        "rank": 5659,
        "rank_sort": 5674,
        "total": 2412
      },
      {
        "club_badge_src": null,
        "entry": 2512962,
        "entry_name": "Birdie&Brassespark",
        "event_total": 66,
        "has_played": true,
        "id": 18003125,
        "last_rank": 7761,
        "player_name": "Kristian S\u00f8lberg",
        "rank": 5659,
        "rank_sort": 5675,
        "total": 2412
      },
      {
        "club_badge_src": null,
        "entry": 2514507,
        "entry_name": "AboReema",
        "event_total": 45,
        "has_played": true,
        "id": 18014634,
        "last_rank": 3026,
        "player_name": "Mohamed Alqasir",
        "rank": 5659,
        "rank_sort": 5676,
        "total": 2412
      },
      {
        "club_badge_src": "https://fantasy.premierleague.com/gcs/plfpl-production-adobe-approved/plfpl-production/2740842/d8f311d2-fa66-4bf0-a20b-11072bfd4c28.png",
        "entry": 2740842,
        "entry_name": "Viktorious Secret",
        "event_total": 54,
        "has_played": true,
        "id": 19780178,
        "last_rank": 4615,
        "player_name": "Ebuka Jaja",
        "rank": 5659,
        "rank_sort": 5677,
        "total": 2412
      },
      {
        "club_badge_src": null,
        "entry": 2858428,
        "entry_name": "FC Kimbo",
        "event_total": 58,
        "has_played": true,
        "id": 20902619,
        "last_rank": 5560,
        "player_name": "Kim Hansson",
        "rank": 5659,
        "rank_sort": 5678,
        "total": 2412
      },
      {
        "club_badge_src": null,
        "entry": 2993056,
        "entry_name": "Bisse",
        "event_total": 38,
        "has_played": true,
        "id": 22013141,
        "last_rank": 2133,
        "player_name": "Robin Henriksson",
        "rank": 5659,
        "rank_sort": 5679,
        "total": 2412
      },
      {
        "club_badge_src": null,
        "entry": 3316208,
        "entry_name": "Seven Nation Arne",
        "event_total": 64,
        "has_played": true,
        "id": 24571785,
        "last_rank": 7193,
        "player_name": "Byron Grey",
        "rank": 5659,
        "rank_sort": 5680,
        "total": 2412
      },
      {
        "club_badge_src": null,
        "entry": 4197988,
        "entry_name": "The Nutmeg XI",
        "event_total": 76,
        "has_played": true,
        "id": 31775540,
        "last_rank": 9942,
        "player_name": "Matthew Wilkinson",
        "rank": 5659,
        "rank_sort": 5681,
        "total": 2412
      },
      {
        "club_badge_src": null,
        "entry": 4317405,
        "entry_name": "Slot Machine",
        "event_total": 76,
        "has_played": true,
        "id": 32763266,
        "last_rank": 10031,
        "player_name": "Elie Yaacoub",
        "rank": 5659,
        "rank_sort": 5682,
        "total": 2412
      },
      {
        "club_badge_src": null,
        "entry": 4880576,
        "entry_name": "Keen for some points",
        "event_total": 62,
        "has_played": true,
        "id": 37623224,
        "last_rank": 6579,
        "player_name": "Harry Keen",
        "rank": 5659,
        "rank_sort": 5683,
        "total": 2412
      },
      {
        "club_badge_src": null,
        "entry": 5716736,
        "entry_name": "GOAT Herder FC",
        "event_total": 61,
        "has_played": true,
        "id": 44774777,
        "last_rank": 6305,
        "player_name": "Joe Watson",
        "rank": 5659,
        "rank_sort": 5684,
        "total": 2412
      },
      {
        "club_badge_src": null,
        "entry": 8259040,
        "entry_name": "angeball",
        "event_total": 41,
        "has_played": true,
        "id": 68311115,
        "last_rank": 2468,
        "player_name": "Matthew Davies",
        "rank": 5659,
        "rank_sort": 5685,
        "total": 2412
      },
      {
        "club_badge_src": null,
        "entry": 9404137,
        "entry_name": "beef",
        "event_total": 46,
        "has_played": true,
        "id": 79413037,
        "last_rank": 3103,
        "player_name": "Andrew Clarke",
        "rank": 5659,
        "rank_sort": 5686,
        "total": 2412
      },
      {
        "club_badge_src": null,
        "entry": 48777,
        "entry_name": "profitbaron FC",
        "event_total": 72,
        "has_played": true,
        "id": 313378,
        "last_rank": 8552,
        "player_name": "Nick James",
        "rank": 5687,
        "rank_sort": 5687,
        "total": 2412
      },
      {
        "club_badge_src": null,
        "entry": 160333,
        "entry_name": "Yak92",
        "event_total": 54,
        "has_played": true,
        "id": 1055751,
        "last_rank": 3796,
        "player_name": "Andrei Iakovlev",
        "rank": 5687,
        "rank_sort": 5688,
        "total": 2412
      },
      {
        "club_badge_src": null,
        "entry": 163384,
        "entry_name": "asgdiuvu",
        "event_total": 58,
        "has_played": true,
        "id": 1077600,
        "last_rank": 4615,
        "player_name": "Ole-Roger Stor\u00e5s",
        "rank": 5687,
        "rank_sort": 5689,
        "total": 2412
      },
      {
        "club_badge_src": null,
        "entry": 307358,
        "entry_name": "This time surely",
        "event_total": 68,
        "has_played": true,
        "id": 2058515,
        "last_rank": 8591,
        "player_name": "Michael Spencer",
        "rank": 5687,
        "rank_sort": 5690,
        "total": 2412
      },
      {
        "club_badge_src": null,
        "entry": 333259,
        "entry_name": "Willi Wanderers",
        "event_total": 73,
        "has_played": true,
        "id": 2231929,
        "last_rank": 8854,
        "player_name": "Gregor Williamson",
        "rank": 5687,
        "rank_sort": 5691,
        "total": 2412
      },
      {
        "club_badge_src": null,
        "entry": 730098,
        "entry_name": "Where Got Time",
        "event_total": 57,
        "has_played": true,
        "id": 4960854,
        "last_rank": 5313,
        "player_name": "Erling Wee",
        "rank": 5687,
        "rank_sort": 5692,
        "total": 2412
      },
      {
        "club_badge_src": null,
        "entry": 1025809,
        "entry_name": "Montpelier FC",
        "event_total": 66,
        "has_played": true,
        "id": 7097151,
        "last_rank": 7863,
        "player_name": "James Davey",
        "rank": 5687,
        "rank_sort": 5693,
        "total": 2412
      },
      {
        "club_badge_src": null,
        "entry": 1696943,
        "entry_name": "Maamoun 108",
        "event_total": 79,
        "has_played": true,
        "id": 11885757,
        "last_rank": 11419,
        "player_name": "Mahmoud Maamoun",
        "rank": 5687,
        "rank_sort": 5694,
        "total": 2412
      },
      {
        "club_badge_src": null,
        "entry": 3233957,
        "entry_name": "cu cu cucurella",
        "event_total": 62,
        "has_played": true,
        "id": 23918767,
        "last_rank": 6579,
        "player_name": "Jordan Leat",
        "rank": 5687,
        "rank_sort": 5695,
        "total": 2412
      },
      {
        "club_badge_src": null,
        "entry": 5210736,
        "entry_name": "To be Frank, Kudus",
        "event_total": 70,
        "has_played": true,
        "id": 40361219,
        "last_rank": 7822,
        "player_name": "Anirudh Ashok",
        "rank": 5687,
        "rank_sort": 5696,
        "total": 2412
      },
      {
        "club_badge_src": null,
        "entry": 7142107,
        "entry_name": "Kedari kedari",
        "event_total": 54,
        "has_played": true,
        "id": 57574565,
        "last_rank": 4657,
        "player_name": "Ahmed Al Ayoub",
        "rank": 5687,
        "rank_sort": 5697,
        "total": 2412
      },
      {
        "club_badge_src": null,
        "entry": 8563232,
        "entry_name": "Old Havertz Kai Hard",
        "event_total": 58,
        "has_played": true,
        "id": 71245789,
        "last_rank": 4615,
        "player_name": "Dawood Nathani",
        "rank": 5687,
        "rank_sort": 5698,
        "total": 2412
      },
      {
        "club_badge_src": null,
        "entry": 196834,
        "entry_name": "Football Herd",
        "event_total": 63,
        "has_played": true,
        "id": 1305855,
        "last_rank": 5820,
        "player_name": "Anirban Saha",
        "rank": 5699,
        "rank_sort": 5699,
        "total": 2412
      },
      {
        "club_badge_src": null,
        "entry": 313763,
        "entry_name": "mind_the_flow",
        "event_total": 72,
        "has_played": true,
        "id": 2102356,
        "last_rank": 8552,
        "player_name": "Niks Ioannoy",
        "rank": 5699,
        "rank_sort": 5700,
        "total": 2412
      }
    ]
  }
}