{
  "last_updated_data": "2026-05-24T23:28:17Z",
  "league": {
    "admin_entry": null,
    "closed": false,
    "code_privacy": "p",
    "created": "2025-07-20T23:14:33.933835Z",
    "cup_league": 2815434,
    "has_cup": true,
    "id": 314,
    "league_type": "s",
    "max_entries": null,
    "name": "Overall",
    "rank": null,
    "scoring": "c",
    "start_event": 1
  },
  "new_entries": {
    "has_next": false,
    "page": 1,
    "results": []
  },
  "standings": {
    "has_next": true,
    "page": 1534,
    "results": [
      {
        "club_badge_src": null,
        "entry": 50367,
        "entry_name": "Real Madridlesbrough",
        "event_total": 72,
        "has_played": true,
        "id": 323962,
        "last_rank": 93443,
        "player_name": "Jak Newby",
        "rank": 76638,
        "rank_sort": 76651,
        "total": 2337
      },
      {
        "club_badge_src": null,
        "entry": 53569,
        "entry_name": "Dont Look BackElanga",
        "event_total": 61,
        "has_played": true,
        "id": 344665,
        "last_rank": 87350,
        "player_name": "Freddie McNicholas",
        "rank": 76638,
        "rank_sort": 76652,
        "total": 2337
      },
      {
        "club_badge_src": null,
        "entry": 54510,
        "entry_name": "Whats the wirtz",
        "event_total": 66,
        "has_played": true,
        "id": 350820,
        "last_rank": 79817,
        "player_name": "Ryan McEnroe",
        "rank": 76638,
        "rank_sort": 76653,
        "total": 2337
      },
      {
        "club_badge_src": null,
        "entry": 67632,
        "entry_name": "Haal or Nothing",
        "event_total": 55,
        "has_played": true,
        "id": 437923,
        "last_rank": 73720,
        "player_name": "Katie O'Connor",
        "rank": 76638,
        "rank_sort": 76654,
        "total": 2337
      },
      {
        "club_badge_src": null,
        "entry": 68758,
        "entry_name": "Chilli Con Cairney",
        "event_total": 55,
        "has_played": true,
        "id": 445627,
        "last_rank": 73975,
        "player_name": "Jack -GG- Roberts",
        "rank": 76638,
        "rank_sort": 76655,
        "total": 2337
      },
      {
        "club_badge_src": null,
        "entry": 69419,
        "entry_name": "Hey Jude",
        "event_total": 35,
        "has_played": true,
        "id": 450268,
        "last_rank": 35424,
        "player_name": "Sam Carpenter",
        "rank": 76638,
        "rank_sort": 76656,
        "total": 2337
      },
      {
        "club_badge_src": "https://fantasy.premierleague.com/gcs/plfpl-production-adobe-approved/plfpl-production/69852/943961c7-3ded-4687-9a82-0da059f46f4f.png",
        "entry": 69852,
        "entry_name": "The Lovely Boys",
        "event_total": 68,
        "has_played": true,
        "id": 453335,
        "last_rank": 94255,
        "player_name": "Michael Workman",
        "rank": 76638,
        "rank_sort": 76657,
        "total": 2337
      },
      {
        "club_badge_src": null,
        "entry": 72987,
        "entry_name": "bowens on fire",
        "event_total": 59,
        "has_played": true,
        "id": 474386,
        "last_rank": 82664,
        "player_name": "David Freeland",
        "rank": 76638,
        "rank_sort": 76658,
        "total": 2337
      },
      {
        "club_badge_src": "https://fantasy.premierleague.com/gcs/plfpl-production-adobe-approved/plfpl-production/83883/4a0ae168-6aab-44c3-82e6-97db9b973921.png",
        "entry": 83883,
        "entry_name": "Cat's Whiskers",
        "event_total": 63,
        "has_played": true,
        "id": 546040,
        "last_rank": 82069,
        "player_name": "Pamela Whisker",
        "rank": 76638,
        "rank_sort": 76659,
        "total": 2337
      },
      {
        "club_badge_src": null,
        "entry": 84951,
        "entry_name": "The pep",
        "event_total": 65,
        "has_played": true,
        "id": 553154,
        "last_rank": 97096,
        "player_name": "Ghazi '",
        "rank": 76638,
        "rank_sort": 76660,
        "total": 2337
      },
      {
        "club_badge_src": null,
        "entry": 96192,
        "entry_name": "CescDrogs&AshleyCole",
        "event_total": 49,
        "has_played": true,
        "id": 628426,
        "last_rank": 62429,
        "player_name": "Oli Cunnington",
        "rank": 76638,
        "rank_sort": 76661,
        "total": 2337
      },
      {
        "club_badge_src": "https://fantasy.premierleague.com/gcs/plfpl-production-adobe-approved/plfpl-production/97959/c0de9453-3b37-486f-84bc-6e2900382cad.png",
        "entry": 97959,
        "entry_name": "Misiaki",
        "event_total": 48,
        "has_played": true,
        "id": 639809,
        "last_rank": 60671,
        "player_name": "Patryk \u015aniada\u0142a",
        "rank": 76638,
        "rank_sort": 76662,
        "total": 2337
      },
      {
        "club_badge_src": null,
        "entry": 103068,
        "entry_name": "Viktor Gl\u00f6ckeres",
        "event_total": 58,
        "has_played": true,
        "id": 672560,
        "last_rank": 71713,
        "player_name": "Sam Kan",
        "rank": 76638,
        "rank_sort": 76663,
        "total": 2337
      },
      {
        "club_badge_src": null,
        "entry": 132902,
        "entry_name": "Top of the (Elm)Tree",
        "event_total": 58,
        "has_played": true,
        "id": 865701,
        "last_rank": 79817,
        "player_name": "Stephen McNamara",
        "rank": 76638,
        "rank_sort": 76664,
        "total": 2337
      },
      {
        "club_badge_src": null,
        "entry": 133065,
        "entry_name": "RafflesHotspur",
        "event_total": 53,
        "has_played": true,
        "id": 866746,
        "last_rank": 62223,
        "player_name": "Nick Taylor",
        "rank": 76638,
        "rank_sort": 76665,
        "total": 2337
      },
      {
        "club_badge_src": null,
        "entry": 145302,
        "entry_name": "m.z.lotan",
        "event_total": 63,
        "has_played": true,
        "id": 951519,
        "last_rank": 82398,
        "player_name": "michael zandberg",
        "rank": 76638,
        "rank_sort": 76666,
        "total": 2337
      },
      {
        "club_badge_src": null,
        "entry": 147123,
        "entry_name": "DAWGS",
        "event_total": 48,
        "has_played": true,
        "id": 964016,
        "last_rank": 60671,
        "player_name": "Giannis Angelidis",
        "rank": 76638,
        "rank_sort": 76667,
        "total": 2337
      },
      {
        "club_badge_src": null,
        "entry": 161825,
        "entry_name": "El Mejor De Todos",
        "event_total": 54,
        "has_played": true,
        "id": 1066343,
        "last_rank": 72145,
        "player_name": "Mohamad J Abdelkhalek",
        "rank": 76638,
        "rank_sort": 76668,
        "total": 2337
      },
      {
        "club_badge_src": null,
        "entry": 174656,
        "entry_name": "altidoq",
        "event_total": 61,
        "has_played": true,
        "id": 1153264,
        "last_rank": 87541,
        "player_name": "afi amirul",
        "rank": 76638,
        "rank_sort": 76669,
        "total": 2337
      },
      {
        "club_badge_src": null,
        "entry": 183946,
        "entry_name": "MHMJ_f.c",
        "event_total": 42,
        "has_played": true,
        "id": 1214489,
        "last_rank": 50635,
        "player_name": "mohamed hussien",
        "rank": 76638,
        "rank_sort": 76670,
        "total": 2337
      },
      {
        "club_badge_src": null,
        "entry": 241312,
        "entry_name": "red armmmmmy",
        "event_total": 66,
        "has_played": true,
        "id": 1606183,
        "last_rank": 99596,
        "player_name": "Jason England",
        "rank": 76638,
        "rank_sort": 76671,
        "total": 2337
      },
      {
        "club_badge_src": null,
        "entry": 246745,
        "entry_name": "Medaliki",
        "event_total": 58,
        "has_played": true,
        "id": 1642627,
        "last_rank": 80465,
        "player_name": "Hubert Madej",
        "rank": 76638,
        "rank_sort": 76672,
        "total": 2337
      },
      {
        "club_badge_src": null,
        "entry": 255239,
        "entry_name": "Tangaroa",
        "event_total": 53,
        "has_played": true,
        "id": 1697759,
        "last_rank": 69641,
        "player_name": "Jonas Tangerud",
        "rank": 76638,
        "rank_sort": 76673,
        "total": 2337
      },
      {
        "club_badge_src": null,
        "entry": 268285,
        "entry_name": "Sassuolo Superstars",
        "event_total": 69,
        "has_played": true,
        "id": 1784776,
        "last_rank": 96374,
        "player_name": "darren morgan",
        "rank": 76638,
        "rank_sort": 76674,
        "total": 2337
      },
      {
        "club_badge_src": null,
        "entry": 271330,
        "entry_name": "H\u00e9roes de Madrid",
        "event_total": 45,
        "has_played": true,
        "id": 1805062,
        "last_rank": 55514,
        "player_name": "Facundo Quadrelli",
        "rank": 76638,
        "rank_sort": 76675,
        "total": 2337
      },
      {
        "club_badge_src": null,
        "entry": 280443,
        "entry_name": "fc ido",
        "event_total": 52,
        "has_played": true,
        "id": 1866306,
        "last_rank": 67926,
        "player_name": "Ido Marom",
        "rank": 76638,
        "rank_sort": 76676,
        "total": 2337
      },
      {
        "club_badge_src": null,
        "entry": 297044,
        "entry_name": "THE REDS",
        "event_total": 66,
        "has_played": true,
        "id": 1985111,
        "last_rank": 99596,
        "player_name": "Alan Powell",
        "rank": 76638,
        "rank_sort": 76677,
        "total": 2337
      },
      {
        "club_badge_src": null,
        "entry": 309828,
        "entry_name": "dst-bxl = mauff!",
        "event_total": 71,
        "has_played": true,
        "id": 2075393,
        "last_rank": 112591,
        "player_name": "Tim Bauwens",
        "rank": 76638,
        "rank_sort": 76678,
        "total": 2337
      },
      {
        "club_badge_src": null,
        "entry": 314323,
        "entry_name": "MUFF U",
        "event_total": 50,
        "has_played": true,
        "id": 2106288,
        "last_rank": 64190,
        "player_name": "Jacques Verster",
        "rank": 76638,
        "rank_sort": 76679,
        "total": 2337
      },
      {
        "club_badge_src": "https://fantasy.premierleague.com/gcs/plfpl-production-adobe-approved/plfpl-production/316565/df4c4ee1-9894-4b17-b5f2-7275337695b9.png",
        "entry": 316565,
        "entry_name": "Forever #20",
        "event_total": 58,
        "has_played": true,
        "id": 2121785,
        "last_rank": 71713,
        "player_name": "Phillip-Daniel Agostinho",
        "rank": 76638,
        "rank_sort": 76680,
        "total": 2337
      },
      {
        "club_badge_src": null,
        "entry": 369231,
        "entry_name": "MoilleBoill",
        "event_total": 54,
        "has_played": true,
        "id": 2470749,
        "last_rank": 56708,
        "player_name": "Mads Larsen",
        "rank": 76638,
        "rank_sort": 76681,
        "total": 2337
      },
      {
        "club_badge_src": null,
        "entry": 402571,
        "entry_name": "Haha United",
        "event_total": 55,
        "has_played": true,
        "id": 2699282,
        "last_rank": 73975,
        "player_name": "Calvin Goh",
        "rank": 76638,
        "rank_sort": 76682,
        "total": 2337
      },
      {
        "club_badge_src": null,
        "entry": 428597,
        "entry_name": "ELLINGTON FC",
        "event_total": 72,
        "has_played": true,
        "id": 2874677,
        "last_rank": 93883,
        "player_name": "Pawel Jarema",
        "rank": 76638,
        "rank_sort": 76683,
        "total": 2337
      },
      {
        "club_badge_src": "https://fantasy.premierleague.com/gcs/plfpl-production-adobe-approved/plfpl-production/475638/ed514113-22c2-46be-8836-a52d7f9b11e1.png",
        "entry": 475638,
        "entry_name": "Jorgen Grand Larseny",
        "event_total": 59,
        "has_played": true,
        "id": 3192985,
        "last_rank": 73423,
        "player_name": "Richard Partington",
        "rank": 76638,
        "rank_sort": 76684,
        "total": 2337
      },
      {
        "club_badge_src": "https://fantasy.premierleague.com/gcs/plfpl-production-adobe-approved/plfpl-production/479878/0a87109d-de18-48ab-9ed4-a60fcc338a76.png",
        "entry": 479878,
        "entry_name": "\u0632\u0627\u0645\u0628\u0647\u0648\u0644\u0627 \u062c\u0647",
        "event_total": 75,
        "has_played": true,
        "id": 3221739,
        "last_rank": 124682,
        "player_name": "ahmed hashim",
        "rank": 76638,
        "rank_sort": 76685,
        "total": 2337
      },
      {
        "club_badge_src": null,
        "entry": 483728,
        "entry_name": "Gunners <3",
        "event_total": 44,
        "has_played": true,
        "id": 3247064,
        "last_rank": 53837,
        "player_name": "Sameh Elkholy",
        "rank": 76638,
        "rank_sort": 76686,
        "total": 2337
      },
      {
        "club_badge_src": "https://fantasy.premierleague.com/gcs/plfpl-production-adobe-approved/plfpl-production/491337/90012898-fcca-4bd6-9c92-8bc93f2afd44.png",
        "entry": 491337,
        "entry_name": "Free Palacestine",
        "event_total": 49,
        "has_played": true,
        "id": 3298106,
        "last_rank": 61950,
        "player_name": "Henry Hume-Kendall",
        "rank": 76638,
        "rank_sort": 76687,
        "total": 2337
      },
      {
        "club_badge_src": null,
        "entry": 498667,
        "entry_name": "Glory Glory Han Utd",
        "event_total": 52,
        "has_played": true,
        "id": 3346901,
        "last_rank": 67926,
        "player_name": "Hanna Wellings",
        "rank": 76638,
        "rank_sort": 76688,
        "total": 2337
      },
      {
        "club_badge_src": null,
        "entry": 508710,
        "entry_name": "Luke Shawarma",
        "event_total": 62,
        "has_played": true,
        "id": 3415039,
        "last_rank": 80194,
        "player_name": "Mranank Rajput",
        "rank": 76638,
        "rank_sort": 76689,
        "total": 2337
      },
      {
        "club_badge_src": null,
        "entry": 513696,
        "entry_name": "Scraglet United",
        "event_total": 60,
        "has_played": true,
        "id": 3449259,
        "last_rank": 84360,
        "player_name": "Tom Green",
        "rank": 76638,
        "rank_sort": 76690,
        "total": 2337
      },
      {
        "club_badge_src": null,
        "entry": 514722,
        "entry_name": "Scale FC",
        "event_total": 66,
        "has_played": true,
        "id": 3455986,
        "last_rank": 99596,
        "player_name": "Muhammad Shosha",
        "rank": 76638,
        "rank_sort": 76691,
        "total": 2337
      },
      {
        "club_badge_src": null,
        "entry": 516578,
        "entry_name": "\u0645\u0635\u0628\u0627\u062d \u0627\u0644\u062f\u0648\u0631\u064a",
        "event_total": 55,
        "has_played": true,
        "id": 3468144,
        "last_rank": 73975,
        "player_name": "khaled salah",
        "rank": 76638,
        "rank_sort": 76692,
        "total": 2337
      },
      {
        "club_badge_src": null,
        "entry": 537272,
        "entry_name": "Jeremie Pingpong",
        "event_total": 54,
        "has_played": true,
        "id": 3616649,
        "last_rank": 71956,
        "player_name": "Tushaar Bhoora",
        "rank": 76638,
        "rank_sort": 76693,
        "total": 2337
      },
      {
        "club_badge_src": null,
        "entry": 540173,
        "entry_name": "MEDEL",
        "event_total": 69,
        "has_played": true,
        "id": 3635849,
        "last_rank": 96777,
        "player_name": "Mohamed El Bensi",
        "rank": 76638,
        "rank_sort": 76694,
        "total": 2337
      },
      {
        "club_badge_src": "https://fantasy.premierleague.com/gcs/plfpl-production-adobe-approved/plfpl-production/550748/d1dc5be4-aeb6-4a11-bcd8-e7bf600e7472.png",
        "entry": 550748,
        "entry_name": "Bonnie Bluebirds",
        "event_total": 69,
        "has_played": true,
        "id": 3706875,
        "last_rank": 96777,
        "player_name": "Samuel Barrett",
        "rank": 76638,
        "rank_sort": 76695,
        "total": 2337
      },
      {
        "club_badge_src": "https://fantasy.premierleague.com/gcs/plfpl-production-adobe-approved/plfpl-production/590233/3a0b2ecf-035c-42dc-9651-9ab31911b449.png",
        "entry": 590233,
        "entry_name": "\u2605\u2605Wheelsucker Utd\u2605\u2605",
        "event_total": 68,
        "has_played": true,
        "id": 3975913,
        "last_rank": 94255,
        "player_name": "Bas van de Wijgert",
        "rank": 76638,
        "rank_sort": 76696,
        "total": 2337
      },
      {
        "club_badge_src": null,
        "entry": 619626,
        "entry_name": "Diego Maragona",
        "event_total": 62,
        "has_played": true,
        "id": 4187222,
        "last_rank": 71386,
        "player_name": "adam wilson",
        "rank": 76638,
        "rank_sort": 76697,
        "total": 2337
      },
      {
        "club_badge_src": null,
        "entry": 649594,
        "entry_name": "Kinder Mbeumo",
        "event_total": 39,
        "has_played": true,
        "id": 4390101,
        "last_rank": 40503,
        "player_name": "Max Jones",
        "rank": 76638,
        "rank_sort": 76698,
        "total": 2337
      },
      {
        "club_badge_src": null,
        "entry": 649824,
        "entry_name": "The Prancing Pony",
        "event_total": 61,
        "has_played": true,
        "id": 4391677,
        "last_rank": 77999,
        "player_name": "Stefan Morrison",
        "rank": 76638,
        "rank_sort": 76699,
        "total": 2337
      },
      {
        "club_badge_src": "https://fantasy.premierleague.com/gcs/plfpl-production-adobe-approved/plfpl-production/657819/603fa2a4-0410-4df2-9beb-12e09c51cba6.png",
        "entry": 657819,
        "entry_name": "Invictus XI",
        "event_total": 62,
        "has_played": true,
        "id": 4445469,
        "last_rank": 89706,
        "player_name": "Thomas Kj\u00e6rgaard",
        "rank": 76638,
        "rank_sort": 76700,
        "total": 2337
      }
    ]
  }
}