{
  "last_updated_data": "2026-05-24T23:28:17Z",
  "league": {
    "admin_entry": null,
    "closed": false,
    "code_privacy": "p",
    "created": "2025-07-20T23:14:33.933835Z",
    "cup_league": 2815434,
    "has_cup": true,
    "id": 314,
    "league_type": "s",
    "max_entries": null,
    "name": "Overall",
    "rank": null,
    "scoring": "c",
    "start_event": 1
  },
  "new_entries": {
    "has_next": false,
    "page": 1,
    "results": []
  },
  "standings": {
    "has_next": true,
    "page": 1376,
    "results": [
      {
        "club_badge_src": null,
        "entry": 8138952,
        "entry_name": "I Pick They Brick",
        "event_total": 38,
        "has_played": true,
        "id": 67164871,
        "last_rank": 39246,
        "player_name": "Fares Sahnoune",
        "rank": 68496,
        "rank_sort": 68751,
        "total": 2341
      },
      {
        "club_badge_src": null,
        "entry": 8361649,
        "entry_name": "Not Isakly Sure",
        "event_total": 63,
        "has_played": true,
        "id": 69314297,
        "last_rank": 73038,
        "player_name": "Steve Chase",
        "rank": 68496,
        "rank_sort": 68752,
        "total": 2341
      },
      {
        "club_badge_src": null,
        "entry": 8410547,
        "entry_name": "Change Name",
        "event_total": 52,
        "has_played": true,
        "id": 69776525,
        "last_rank": 60168,
        "player_name": "John Relf",
        "rank": 68496,
        "rank_sort": 68753,
        "total": 2341
      },
      {
        "club_badge_src": null,
        "entry": 8423789,
        "entry_name": "Enots XI",
        "event_total": 59,
        "has_played": true,
        "id": 69904813,
        "last_rank": 73423,
        "player_name": "Ally Stone",
        "rank": 68496,
        "rank_sort": 68754,
        "total": 2341
      },
      {
        "club_badge_src": "https://fantasy.premierleague.com/gcs/plfpl-production-adobe-approved/plfpl-production/8468196/470aa849-3de4-46af-9748-ea1dc504c13f.png",
        "entry": 8468196,
        "entry_name": "Kinder Mbeumo",
        "event_total": 36,
        "has_played": true,
        "id": 70327309,
        "last_rank": 36831,
        "player_name": "Annabel Nguyen-Ly",
        "rank": 68496,
        "rank_sort": 68755,
        "total": 2341
      },
      {
        "club_badge_src": null,
        "entry": 8529460,
        "entry_name": "A.Markhiya",
        "event_total": 70,
        "has_played": true,
        "id": 70921549,
        "last_rank": 89055,
        "player_name": "A Markhya",
        "rank": 68496,
        "rank_sort": 68756,
        "total": 2341
      },
      {
        "club_badge_src": null,
        "entry": 8909018,
        "entry_name": "Top Goonah",
        "event_total": 52,
        "has_played": true,
        "id": 74597276,
        "last_rank": 60462,
        "player_name": "An Pa",
        "rank": 68496,
        "rank_sort": 68757,
        "total": 2341
      },
      {
        "club_badge_src": null,
        "entry": 9216085,
        "entry_name": "Dixon Harriers",
        "event_total": 72,
        "has_played": true,
        "id": 77592725,
        "last_rank": 104388,
        "player_name": "A P",
        "rank": 68496,
        "rank_sort": 68758,
        "total": 2341
      },
      {
        "club_badge_src": "https://fantasy.premierleague.com/gcs/plfpl-production-adobe-approved/plfpl-production/9252994/f142b1ae-b55e-4512-a810-c6ef9a21dd50.png",
        "entry": 9252994,
        "entry_name": "Change Name",
        "event_total": 64,
        "has_played": true,
        "id": 77951580,
        "last_rank": 75537,
        "player_name": "Brage Paus",
        "rank": 68496,
        "rank_sort": 68759,
        "total": 2341
      },
      {
        "club_badge_src": null,
        "entry": 9454214,
        "entry_name": "Wirtz Vacation",
        "event_total": 50,
        "has_played": true,
        "id": 79887403,
        "last_rank": 56369,
        "player_name": "Kris Pearce",
        "rank": 68496,
        "rank_sort": 68760,
        "total": 2341
      },
      {
        "club_badge_src": null,
        "entry": 10037924,
        "entry_name": "Tamim cty",
        "event_total": 50,
        "has_played": true,
        "id": 85126959,
        "last_rank": 57001,
        "player_name": "Tamim Mk",
        "rank": 68496,
        "rank_sort": 68761,
        "total": 2341
      },
      {
        "club_badge_src": "https://fantasy.premierleague.com/gcs/plfpl-production-adobe-approved/plfpl-production/4144/9d912132-0a34-45bf-8a41-7a89248b77d5.png",
        "entry": 4144,
        "entry_name": "Agba Dou Dou Dou",
        "event_total": 68,
        "has_played": true,
        "id": 23526,
        "last_rank": 94255,
        "player_name": "Jacob Wilding",
        "rank": 68762,
        "rank_sort": 68762,
        "total": 2341
      },
      {
        "club_badge_src": null,
        "entry": 7468,
        "entry_name": "Pole Calmer",
        "event_total": 51,
        "has_played": true,
        "id": 43066,
        "last_rank": 58688,
        "player_name": "S\u0142awomir Rosypski",
        "rank": 68762,
        "rank_sort": 68763,
        "total": 2341
      },
      {
        "club_badge_src": null,
        "entry": 8681,
        "entry_name": "Let\u2019s Gruev Tonight",
        "event_total": 65,
        "has_played": true,
        "id": 50604,
        "last_rank": 77999,
        "player_name": "Ryan Dillon",
        "rank": 68762,
        "rank_sort": 68764,
        "total": 2341
      },
      {
        "club_badge_src": null,
        "entry": 14225,
        "entry_name": "You're SoLanke",
        "event_total": 65,
        "has_played": true,
        "id": 86286,
        "last_rank": 77999,
        "player_name": "Josh McK",
        "rank": 68762,
        "rank_sort": 68765,
        "total": 2341
      },
      {
        "club_badge_src": null,
        "entry": 18980,
        "entry_name": "fCFc",
        "event_total": 67,
        "has_played": true,
        "id": 118127,
        "last_rank": 82398,
        "player_name": "Falak Chheda",
        "rank": 68762,
        "rank_sort": 68766,
        "total": 2341
      },
      {
        "club_badge_src": null,
        "entry": 27910,
        "entry_name": "Can't get any Wirtz",
        "event_total": 67,
        "has_played": true,
        "id": 176493,
        "last_rank": 92126,
        "player_name": "Ajay Collins",
        "rank": 68762,
        "rank_sort": 68767,
        "total": 2341
      },
      {
        "club_badge_src": null,
        "entry": 28279,
        "entry_name": "Earps I Did it Again",
        "event_total": 58,
        "has_played": true,
        "id": 178807,
        "last_rank": 72145,
        "player_name": "Cameron Wong",
        "rank": 68762,
        "rank_sort": 68768,
        "total": 2341
      },
      {
        "club_badge_src": null,
        "entry": 28997,
        "entry_name": "#justiceforhadi",
        "event_total": 55,
        "has_played": true,
        "id": 183328,
        "last_rank": 58688,
        "player_name": "Abu Aisyah humaira",
        "rank": 68762,
        "rank_sort": 68769,
        "total": 2341
      },
      {
        "club_badge_src": null,
        "entry": 31304,
        "entry_name": "London fc",
        "event_total": 66,
        "has_played": true,
        "id": 198351,
        "last_rank": 80194,
        "player_name": "Anderson Mwathi",
        "rank": 68762,
        "rank_sort": 68770,
        "total": 2341
      },
      {
        "club_badge_src": "https://fantasy.premierleague.com/gcs/plfpl-production-adobe-approved/plfpl-production/33647/11614e76-f652-4247-a3d0-58249b9fd0c0.png",
        "entry": 33647,
        "entry_name": "Palmer Violets",
        "event_total": 54,
        "has_played": true,
        "id": 214673,
        "last_rank": 64190,
        "player_name": "Sean Munro",
        "rank": 68762,
        "rank_sort": 68771,
        "total": 2341
      },
      {
        "club_badge_src": null,
        "entry": 42192,
        "entry_name": "Frimpong's ping pong",
        "event_total": 81,
        "has_played": true,
        "id": 270370,
        "last_rank": 106763,
        "player_name": "Debajit Ghosh",
        "rank": 68762,
        "rank_sort": 68772,
        "total": 2341
      },
      {
        "club_badge_src": null,
        "entry": 43318,
        "entry_name": "Soccermom",
        "event_total": 59,
        "has_played": true,
        "id": 277382,
        "last_rank": 73975,
        "player_name": "Hilde Andgard",
        "rank": 68762,
        "rank_sort": 68773,
        "total": 2341
      },
      {
        "club_badge_src": null,
        "entry": 44224,
        "entry_name": "SR BolaBola FC",
        "event_total": 57,
        "has_played": true,
        "id": 283395,
        "last_rank": 69641,
        "player_name": "Satheesh Rao",
        "rank": 68762,
        "rank_sort": 68774,
        "total": 2341
      },
      {
        "club_badge_src": null,
        "entry": 47137,
        "entry_name": "Darwin's Theory",
        "event_total": 66,
        "has_played": true,
        "id": 302267,
        "last_rank": 89426,
        "player_name": "Lucas Greenhalgh",
        "rank": 68762,
        "rank_sort": 68775,
        "total": 2341
      },
      {
        "club_badge_src": null,
        "entry": 65185,
        "entry_name": "FK B Faza",
        "event_total": 46,
        "has_played": true,
        "id": 420747,
        "last_rank": 50468,
        "player_name": "Nedim Pesto",
        "rank": 68762,
        "rank_sort": 68776,
        "total": 2341
      },
      {
        "club_badge_src": "https://fantasy.premierleague.com/gcs/plfpl-production-adobe-approved/plfpl-production/67927/b420efcf-1d18-4899-994a-32edb8e92663.png",
        "entry": 67927,
        "entry_name": "Red Devils",
        "event_total": 74,
        "has_played": true,
        "id": 439959,
        "last_rank": 110187,
        "player_name": "Reece Myles",
        "rank": 68762,
        "rank_sort": 68777,
        "total": 2341
      },
      {
        "club_badge_src": "https://fantasy.premierleague.com/gcs/plfpl-production-adobe-approved/plfpl-production/70596/f32b8b40-1ff8-411a-bdd8-7e972ebb4b8e.png",
        "entry": 70596,
        "entry_name": "FPL Cool Dad",
        "event_total": 59,
        "has_played": true,
        "id": 458431,
        "last_rank": 65796,
        "player_name": "Mark Mitchell",
        "rank": 68762,
        "rank_sort": 68778,
        "total": 2341
      },
      {
        "club_badge_src": null,
        "entry": 72992,
        "entry_name": "Double Barrel FC",
        "event_total": 40,
        "has_played": true,
        "id": 474418,
        "last_rank": 41967,
        "player_name": "Scott Gilliland",
        "rank": 68762,
        "rank_sort": 68779,
        "total": 2341
      },
      {
        "club_badge_src": "https://fantasy.premierleague.com/gcs/plfpl-production-adobe-approved/plfpl-production/90912/e451579e-c829-413c-8c0f-73d251986a4c.png",
        "entry": 90912,
        "entry_name": "easy clap",
        "event_total": 62,
        "has_played": true,
        "id": 593702,
        "last_rank": 71713,
        "player_name": "Gustav Teder",
        "rank": 68762,
        "rank_sort": 68780,
        "total": 2341
      },
      {
        "club_badge_src": "https://fantasy.premierleague.com/gcs/plfpl-production-adobe-approved/plfpl-production/99817/68fb407e-4fa7-48ce-92d7-316474fcbc03.png",
        "entry": 99817,
        "entry_name": "Better Call Mo Salah",
        "event_total": 64,
        "has_played": true,
        "id": 651519,
        "last_rank": 75874,
        "player_name": "Mahmood Bashar",
        "rank": 68762,
        "rank_sort": 68781,
        "total": 2341
      },
      {
        "club_badge_src": null,
        "entry": 103544,
        "entry_name": "EmikaFC",
        "event_total": 62,
        "has_played": true,
        "id": 675629,
        "last_rank": 80465,
        "player_name": "Nutthapol Sivasri",
        "rank": 68762,
        "rank_sort": 68782,
        "total": 2341
      },
      {
        "club_badge_src": "https://fantasy.premierleague.com/gcs/plfpl-production-adobe-approved/plfpl-production/112385/73c64321-5b7d-4269-bfb0-90424ba79598.png",
        "entry": 112385,
        "entry_name": "Fifole",
        "event_total": 40,
        "has_played": true,
        "id": 732715,
        "last_rank": 41967,
        "player_name": "Piotr Mackiewicz",
        "rank": 68762,
        "rank_sort": 68783,
        "total": 2341
      },
      {
        "club_badge_src": null,
        "entry": 126517,
        "entry_name": "Life!",
        "event_total": 41,
        "has_played": true,
        "id": 824885,
        "last_rank": 43444,
        "player_name": "Patrick McGee",
        "rank": 68762,
        "rank_sort": 68784,
        "total": 2341
      },
      {
        "club_badge_src": null,
        "entry": 131056,
        "entry_name": "Palmer Violets",
        "event_total": 64,
        "has_played": true,
        "id": 853894,
        "last_rank": 75874,
        "player_name": "Connor Betteridge",
        "rank": 68762,
        "rank_sort": 68785,
        "total": 2341
      },
      {
        "club_badge_src": null,
        "entry": 142870,
        "entry_name": "Sweet Lavia",
        "event_total": 73,
        "has_played": true,
        "id": 934455,
        "last_rank": 96374,
        "player_name": "Lwazzi Mazibuko",
        "rank": 68762,
        "rank_sort": 68786,
        "total": 2341
      },
      {
        "club_badge_src": null,
        "entry": 143253,
        "entry_name": "Flowers",
        "event_total": 68,
        "has_played": true,
        "id": 937192,
        "last_rank": 94537,
        "player_name": "James Flowers",
        "rank": 68762,
        "rank_sort": 68787,
        "total": 2341
      },
      {
        "club_badge_src": null,
        "entry": 157352,
        "entry_name": "buk",
        "event_total": 79,
        "has_played": true,
        "id": 1035154,
        "last_rank": 123908,
        "player_name": "Aryan Qasim",
        "rank": 68762,
        "rank_sort": 68788,
        "total": 2341
      },
      {
        "club_badge_src": "https://fantasy.premierleague.com/gcs/plfpl-production-adobe-approved/plfpl-production/158661/98b4c396-9b7f-48aa-8941-e602694953ed.png",
        "entry": 158661,
        "entry_name": "KH!ALSTDOW",
        "event_total": 69,
        "has_played": true,
        "id": 1044085,
        "last_rank": 87074,
        "player_name": "David Grenfell",
        "rank": 68762,
        "rank_sort": 68789,
        "total": 2341
      },
      {
        "club_badge_src": null,
        "entry": 162610,
        "entry_name": "Ball Dont Szoboszlai",
        "event_total": 70,
        "has_played": true,
        "id": 1072012,
        "last_rank": 99596,
        "player_name": "Carl Browne",
        "rank": 68762,
        "rank_sort": 68790,
        "total": 2341
      },
      {
        "club_badge_src": null,
        "entry": 186246,
        "entry_name": "Rice Rice Bebe",
        "event_total": 37,
        "has_played": true,
        "id": 1230746,
        "last_rank": 38267,
        "player_name": "Michael Payne",
        "rank": 68762,
        "rank_sort": 68791,
        "total": 2341
      },
      {
        "club_badge_src": "https://fantasy.premierleague.com/gcs/plfpl-production-adobe-approved/plfpl-production/191099/ee3c5b93-918d-4837-a176-e631860764fd.png",
        "entry": 191099,
        "entry_name": "FPL total madness",
        "event_total": 43,
        "has_played": true,
        "id": 1265651,
        "last_rank": 40503,
        "player_name": "bobby lewis ****",
        "rank": 68762,
        "rank_sort": 68792,
        "total": 2341
      },
      {
        "club_badge_src": null,
        "entry": 191764,
        "entry_name": "First The Wirtz",
        "event_total": 48,
        "has_played": true,
        "id": 1270275,
        "last_rank": 41617,
        "player_name": "Sam Clarke",
        "rank": 68762,
        "rank_sort": 68793,
        "total": 2341
      },
      {
        "club_badge_src": "https://fantasy.premierleague.com/gcs/plfpl-production-adobe-approved/plfpl-production/198818/f9e369fd-9c26-4714-baf8-35ec390bc46c.png",
        "entry": 198818,
        "entry_name": "NIC",
        "event_total": 60,
        "has_played": true,
        "id": 1319439,
        "last_rank": 67695,
        "player_name": "-SILLAWAT BOONPRAKONG",
        "rank": 68762,
        "rank_sort": 68794,
        "total": 2341
      },
      {
        "club_badge_src": null,
        "entry": 224886,
        "entry_name": "Travram Grant",
        "event_total": 54,
        "has_played": true,
        "id": 1496005,
        "last_rank": 64005,
        "player_name": "Charlie Thraves",
        "rank": 68762,
        "rank_sort": 68795,
        "total": 2341
      },
      {
        "club_badge_src": null,
        "entry": 240707,
        "entry_name": "Bommers United",
        "event_total": 42,
        "has_played": true,
        "id": 1602036,
        "last_rank": 44672,
        "player_name": "Johan Bj\u00f6rn",
        "rank": 68762,
        "rank_sort": 68796,
        "total": 2341
      },
      {
        "club_badge_src": "https://fantasy.premierleague.com/gcs/plfpl-production-adobe-approved/plfpl-production/244060/11acf65a-bc93-478a-ad41-a26e9a2c46c9.png",
        "entry": 244060,
        "entry_name": "4Seal117",
        "event_total": 57,
        "has_played": true,
        "id": 1624982,
        "last_rank": 62223,
        "player_name": "Kem X-ray Eyes",
        "rank": 68762,
        "rank_sort": 68797,
        "total": 2341
      },
      {
        "club_badge_src": null,
        "entry": 249081,
        "entry_name": "Dangerous XI",
        "event_total": 62,
        "has_played": true,
        "id": 1657620,
        "last_rank": 80194,
        "player_name": "David Glanville",
        "rank": 68762,
        "rank_sort": 68798,
        "total": 2341
      },
      {
        "club_badge_src": null,
        "entry": 259500,
        "entry_name": "Dirty Leeds",
        "event_total": 50,
        "has_played": true,
        "id": 1725330,
        "last_rank": 57358,
        "player_name": "Connor Whiteley",
        "rank": 68762,
        "rank_sort": 68799,
        "total": 2341
      },
      {
        "club_badge_src": null,
        "entry": 268601,
        "entry_name": "FC Gurg",
        "event_total": 58,
        "has_played": true,
        "id": 1786879,
        "last_rank": 71713,
        "player_name": "Leif Davis Sk\u00e5r",
        "rank": 68762,
        "rank_sort": 68800,
        "total": 2341
      }
    ]
  }
}