{
  "last_updated_data": "2026-05-24T23:28:17Z",
  "league": {
    "admin_entry": null,
    "closed": false,
    "code_privacy": "p",
    "created": "2025-07-20T23:14:33.933835Z",
    "cup_league": 2815434,
    "has_cup": true,
    "id": 314,
    "league_type": "s",
    "max_entries": null,
    "name": "Overall",
    "rank": null,
    "scoring": "c",
    "start_event": 1
  },
  "new_entries": {
    "has_next": false,
    "page": 1,
    "results": []
  },
  "standings": {
    "has_next": true,
    "page": 1580,
    "results": [
      {
        "club_badge_src": null,
        "entry": 5204979,
        "entry_name": "Malkaabi",
        "event_total": 56,
        "has_played": true,
        "id": 40312468,
        "last_rank": 78440,
        "player_name": "Mohamed Alkaabi",
        "rank": 78765,
        "rank_sort": 78951,
        "total": 2336
      },
      {
        "club_badge_src": null,
        "entry": 5311943,
        "entry_name": "Ando Ball",
        "event_total": 68,
        "has_played": true,
        "id": 41176118,
        "last_rank": 96777,
        "player_name": "Rob Anderton",
        "rank": 78765,
        "rank_sort": 78952,
        "total": 2336
      },
      {
        "club_badge_src": null,
        "entry": 5316166,
        "entry_name": "I Baleba Can Fly",
        "event_total": 78,
        "has_played": true,
        "id": 41209951,
        "last_rank": 137440,
        "player_name": "Jon Foley",
        "rank": 78765,
        "rank_sort": 78953,
        "total": 2336
      },
      {
        "club_badge_src": null,
        "entry": 5341286,
        "entry_name": "Copycats #2",
        "event_total": 58,
        "has_played": true,
        "id": 41426016,
        "last_rank": 73720,
        "player_name": "Will Ward",
        "rank": 78765,
        "rank_sort": 78954,
        "total": 2336
      },
      {
        "club_badge_src": "https://fantasy.premierleague.com/gcs/plfpl-production-adobe-approved/plfpl-production/5345404/476f3e9a-5655-46b5-88b7-80e7312d0698.png",
        "entry": 5345404,
        "entry_name": "\u00d8deargod",
        "event_total": 40,
        "has_played": true,
        "id": 41473368,
        "last_rank": 49078,
        "player_name": "Peter L\u00e1di",
        "rank": 78765,
        "rank_sort": 78955,
        "total": 2336
      },
      {
        "club_badge_src": "https://fantasy.premierleague.com/gcs/plfpl-production-adobe-approved/plfpl-production/5392168/a2c9db21-20a8-45c6-a7d7-572c333ec52b.png",
        "entry": 5392168,
        "entry_name": "Mohamed winter",
        "event_total": 45,
        "has_played": true,
        "id": 41921728,
        "last_rank": 50468,
        "player_name": "Mohamed Haibelty",
        "rank": 78765,
        "rank_sort": 78956,
        "total": 2336
      },
      {
        "club_badge_src": null,
        "entry": 5529905,
        "entry_name": "Kaikad",
        "event_total": 48,
        "has_played": true,
        "id": 43135842,
        "last_rank": 62429,
        "player_name": "Robin Rumberg",
        "rank": 78765,
        "rank_sort": 78957,
        "total": 2336
      },
      {
        "club_badge_src": null,
        "entry": 5586723,
        "entry_name": "Giz a Shaw of that",
        "event_total": 62,
        "has_played": true,
        "id": 43641500,
        "last_rank": 92126,
        "player_name": "Gary Connolly",
        "rank": 78765,
        "rank_sort": 78958,
        "total": 2336
      },
      {
        "club_badge_src": null,
        "entry": 5656785,
        "entry_name": "KinderMbeumo",
        "event_total": 59,
        "has_played": true,
        "id": 44254506,
        "last_rank": 67422,
        "player_name": "Shane Finnerty",
        "rank": 78765,
        "rank_sort": 78959,
        "total": 2336
      },
      {
        "club_badge_src": null,
        "entry": 5715208,
        "entry_name": "fc_mango",
        "event_total": 44,
        "has_played": true,
        "id": 44759440,
        "last_rank": 55514,
        "player_name": "Bindas Bindu",
        "rank": 78765,
        "rank_sort": 78960,
        "total": 2336
      },
      {
        "club_badge_src": null,
        "entry": 5767387,
        "entry_name": "RestInPitch",
        "event_total": 49,
        "has_played": true,
        "id": 45215247,
        "last_rank": 64190,
        "player_name": "Sahil Varyah",
        "rank": 78765,
        "rank_sort": 78961,
        "total": 2336
      },
      {
        "club_badge_src": null,
        "entry": 5881902,
        "entry_name": "S. COLDFIELD ROYALS",
        "event_total": 60,
        "has_played": true,
        "id": 46203263,
        "last_rank": 87074,
        "player_name": "Raymond J Comeau",
        "rank": 78765,
        "rank_sort": 78962,
        "total": 2336
      },
      {
        "club_badge_src": null,
        "entry": 5913515,
        "entry_name": "Petr Cech Yourself",
        "event_total": 51,
        "has_played": true,
        "id": 46471996,
        "last_rank": 60168,
        "player_name": "Tony Ferreira",
        "rank": 78765,
        "rank_sort": 78963,
        "total": 2336
      },
      {
        "club_badge_src": null,
        "entry": 5916986,
        "entry_name": "\u0627\u0644\u0634\u062e\u0631\u0646\u062c\u064a\u0647 \ufffd",
        "event_total": 55,
        "has_played": true,
        "id": 46502813,
        "last_rank": 76128,
        "player_name": "Abdullah Ayman",
        "rank": 78765,
        "rank_sort": 78964,
        "total": 2336
      },
      {
        "club_badge_src": null,
        "entry": 5930922,
        "entry_name": "Truffle Shuffle XI",
        "event_total": 60,
        "has_played": true,
        "id": 46626602,
        "last_rank": 87350,
        "player_name": "Joash Raj",
        "rank": 78765,
        "rank_sort": 78965,
        "total": 2336
      },
      {
        "club_badge_src": null,
        "entry": 5944080,
        "entry_name": "Tjockegurra",
        "event_total": 54,
        "has_played": true,
        "id": 46745689,
        "last_rank": 73975,
        "player_name": "Gustav Dahlgren",
        "rank": 78765,
        "rank_sort": 78966,
        "total": 2336
      },
      {
        "club_badge_src": null,
        "entry": 6069250,
        "entry_name": "Ugarte Be Kidding",
        "event_total": 43,
        "has_played": true,
        "id": 47908004,
        "last_rank": 47417,
        "player_name": "Charlie McGrath",
        "rank": 78765,
        "rank_sort": 78967,
        "total": 2336
      },
      {
        "club_badge_src": "https://fantasy.premierleague.com/gcs/plfpl-production-adobe-approved/plfpl-production/6144794/260dbdf7-f6b4-460a-8558-8919c303f475.png",
        "entry": 6144794,
        "entry_name": "Prachachen FC",
        "event_total": 62,
        "has_played": true,
        "id": 48567622,
        "last_rank": 92126,
        "player_name": "Gandit Panthong",
        "rank": 78765,
        "rank_sort": 78968,
        "total": 2336
      },
      {
        "club_badge_src": null,
        "entry": 6171310,
        "entry_name": "Pep Talks!",
        "event_total": 47,
        "has_played": true,
        "id": 48797182,
        "last_rank": 60671,
        "player_name": "Barbara Joyce",
        "rank": 78765,
        "rank_sort": 78969,
        "total": 2336
      },
      {
        "club_badge_src": "https://fantasy.premierleague.com/gcs/plfpl-production-adobe-approved/plfpl-production/6213047/43f2e75f-109f-4948-ae84-e58208fd260f.png",
        "entry": 6213047,
        "entry_name": "Zandim",
        "event_total": 84,
        "has_played": true,
        "id": 49157326,
        "last_rank": 157663,
        "player_name": "Zilan Aram",
        "rank": 78765,
        "rank_sort": 78970,
        "total": 2336
      },
      {
        "club_badge_src": "https://fantasy.premierleague.com/gcs/plfpl-production-adobe-approved/plfpl-production/6281276/9ba61f9d-d748-4fcd-82e4-29efdd9d04eb.png",
        "entry": 6281276,
        "entry_name": "Partizan FC",
        "event_total": 62,
        "has_played": true,
        "id": 49748148,
        "last_rank": 82069,
        "player_name": "Aljosa Bajrovic",
        "rank": 78765,
        "rank_sort": 78971,
        "total": 2336
      },
      {
        "club_badge_src": "https://fantasy.premierleague.com/gcs/plfpl-production-adobe-approved/plfpl-production/6301864/7705855c-d672-4528-b781-ab9e38ca478e.png",
        "entry": 6301864,
        "entry_name": "GodsPlan",
        "event_total": 66,
        "has_played": true,
        "id": 49964477,
        "last_rank": 91835,
        "player_name": "Jimmie Hagsl\u00e4tt",
        "rank": 78765,
        "rank_sort": 78972,
        "total": 2336
      },
      {
        "club_badge_src": null,
        "entry": 6322374,
        "entry_name": "Kinder Mbuemo",
        "event_total": 66,
        "has_played": true,
        "id": 50211816,
        "last_rank": 91835,
        "player_name": "Laura Parkinson",
        "rank": 78765,
        "rank_sort": 78973,
        "total": 2336
      },
      {
        "club_badge_src": "https://fantasy.premierleague.com/gcs/plfpl-production-adobe-approved/plfpl-production/6381942/6fed23b2-d290-4c76-b4a7-35471140b9f0.png",
        "entry": 6381942,
        "entry_name": "Malvern Ramblers",
        "event_total": 46,
        "has_played": true,
        "id": 50759907,
        "last_rank": 58911,
        "player_name": "Mike Roskams",
        "rank": 78765,
        "rank_sort": 78974,
        "total": 2336
      },
      {
        "club_badge_src": null,
        "entry": 6394055,
        "entry_name": "Drewzy Fc",
        "event_total": 79,
        "has_played": true,
        "id": 50866735,
        "last_rank": 140831,
        "player_name": "Andrew Ndiwe",
        "rank": 78765,
        "rank_sort": 78975,
        "total": 2336
      },
      {
        "club_badge_src": null,
        "entry": 6688209,
        "entry_name": "Lil Uzi Wirtz",
        "event_total": 60,
        "has_played": true,
        "id": 53504716,
        "last_rank": 87074,
        "player_name": "James Blackmore",
        "rank": 78765,
        "rank_sort": 78976,
        "total": 2336
      },
      {
        "club_badge_src": null,
        "entry": 7021121,
        "entry_name": "MightyZinger",
        "event_total": 56,
        "has_played": true,
        "id": 56398064,
        "last_rank": 69641,
        "player_name": "Abdallah Ayman",
        "rank": 78765,
        "rank_sort": 78977,
        "total": 2336
      },
      {
        "club_badge_src": null,
        "entry": 7099727,
        "entry_name": "Bonus & Bruno",
        "event_total": 65,
        "has_played": true,
        "id": 57172966,
        "last_rank": 99596,
        "player_name": "Polnatee Wongchom",
        "rank": 78765,
        "rank_sort": 78978,
        "total": 2336
      },
      {
        "club_badge_src": "https://fantasy.premierleague.com/gcs/plfpl-production-adobe-approved/plfpl-production/7209537/610a7715-ef07-4fb4-8b6d-f64a05fc4175.png",
        "entry": 7209537,
        "entry_name": "Angel squad",
        "event_total": 42,
        "has_played": true,
        "id": 58223202,
        "last_rank": 51984,
        "player_name": "Jo Angeloff",
        "rank": 78765,
        "rank_sort": 78979,
        "total": 2336
      },
      {
        "club_badge_src": null,
        "entry": 7244204,
        "entry_name": "Whelan of Fortune",
        "event_total": 60,
        "has_played": true,
        "id": 58547558,
        "last_rank": 87541,
        "player_name": "Adam Falshaw",
        "rank": 78765,
        "rank_sort": 78980,
        "total": 2336
      },
      {
        "club_badge_src": null,
        "entry": 7539998,
        "entry_name": "Zach Richman",
        "event_total": 56,
        "has_played": true,
        "id": 61720918,
        "last_rank": 78244,
        "player_name": "Large Hods",
        "rank": 78765,
        "rank_sort": 78981,
        "total": 2336
      },
      {
        "club_badge_src": null,
        "entry": 7793755,
        "entry_name": "Atletico Gambais",
        "event_total": 58,
        "has_played": true,
        "id": 64017270,
        "last_rank": 82398,
        "player_name": "Armando Mendoza",
        "rank": 78765,
        "rank_sort": 78982,
        "total": 2336
      },
      {
        "club_badge_src": null,
        "entry": 7885380,
        "entry_name": "Le Squibs",
        "event_total": 59,
        "has_played": true,
        "id": 64852770,
        "last_rank": 75874,
        "player_name": "Lukas Puris",
        "rank": 78765,
        "rank_sort": 78983,
        "total": 2336
      },
      {
        "club_badge_src": null,
        "entry": 7920226,
        "entry_name": "Abdullah Gr10",
        "event_total": 60,
        "has_played": true,
        "id": 65170777,
        "last_rank": 87350,
        "player_name": "\u0639\u0628\u062f\u0627\u0644\u0644\u0647 \u063a\u0631\u063a\u0627\u0631",
        "rank": 78765,
        "rank_sort": 78984,
        "total": 2336
      },
      {
        "club_badge_src": null,
        "entry": 8068485,
        "entry_name": "Payoo's Phantom XI",
        "event_total": 70,
        "has_played": true,
        "id": 66507303,
        "last_rank": 112591,
        "player_name": "Pious Nzia",
        "rank": 78765,
        "rank_sort": 78985,
        "total": 2336
      },
      {
        "club_badge_src": null,
        "entry": 8134795,
        "entry_name": "FC Aniri 1997",
        "event_total": 50,
        "has_played": true,
        "id": 67126087,
        "last_rank": 66057,
        "player_name": "Uche Ekpendu",
        "rank": 78765,
        "rank_sort": 78986,
        "total": 2336
      },
      {
        "club_badge_src": null,
        "entry": 8233521,
        "entry_name": "RICE RICE BABY",
        "event_total": 56,
        "has_played": true,
        "id": 68061107,
        "last_rank": 69641,
        "player_name": "Chris Rice",
        "rank": 78765,
        "rank_sort": 78987,
        "total": 2336
      },
      {
        "club_badge_src": null,
        "entry": 8287641,
        "entry_name": "The Notorious",
        "event_total": 67,
        "has_played": true,
        "id": 68581164,
        "last_rank": 104941,
        "player_name": "Hatem Hamdy",
        "rank": 78765,
        "rank_sort": 78988,
        "total": 2336
      },
      {
        "club_badge_src": null,
        "entry": 8346203,
        "entry_name": "IDRIS ALFARSI",
        "event_total": 67,
        "has_played": true,
        "id": 69166920,
        "last_rank": 103978,
        "player_name": "IDREES Alfarsi",
        "rank": 78765,
        "rank_sort": 78989,
        "total": 2336
      },
      {
        "club_badge_src": "https://fantasy.premierleague.com/gcs/plfpl-production-adobe-approved/plfpl-production/8555385/9a22b96d-b09b-4826-93ab-0f6d2c828907.png",
        "entry": 8555385,
        "entry_name": "Yacine sn",
        "event_total": 58,
        "has_played": true,
        "id": 71171275,
        "last_rank": 73720,
        "player_name": "Yacine Fc Barcelone",
        "rank": 78765,
        "rank_sort": 78990,
        "total": 2336
      },
      {
        "club_badge_src": null,
        "entry": 8603112,
        "entry_name": "@GocekFC",
        "event_total": 52,
        "has_played": true,
        "id": 71627738,
        "last_rank": 69907,
        "player_name": "Jefly Bodinalco",
        "rank": 78765,
        "rank_sort": 78991,
        "total": 2336
      },
      {
        "club_badge_src": null,
        "entry": 8619634,
        "entry_name": "Grounds Turnaround",
        "event_total": 58,
        "has_played": true,
        "id": 71788934,
        "last_rank": 82069,
        "player_name": "James Simons",
        "rank": 78765,
        "rank_sort": 78992,
        "total": 2336
      },
      {
        "club_badge_src": null,
        "entry": 8911707,
        "entry_name": "MoSalah MoProblems",
        "event_total": 38,
        "has_played": true,
        "id": 74623310,
        "last_rank": 46236,
        "player_name": "Hesham Rashad",
        "rank": 78765,
        "rank_sort": 78993,
        "total": 2336
      },
      {
        "club_badge_src": null,
        "entry": 8968676,
        "entry_name": "BEST XI",
        "event_total": 73,
        "has_played": true,
        "id": 75179966,
        "last_rank": 121991,
        "player_name": "A. Hazmi",
        "rank": 78765,
        "rank_sort": 78994,
        "total": 2336
      },
      {
        "club_badge_src": null,
        "entry": 9004325,
        "entry_name": "DFTUxrp!",
        "event_total": 58,
        "has_played": true,
        "id": 75521904,
        "last_rank": 82664,
        "player_name": "Brendan Sewell",
        "rank": 78765,
        "rank_sort": 78995,
        "total": 2336
      },
      {
        "club_badge_src": null,
        "entry": 9114510,
        "entry_name": "rude awakening",
        "event_total": 64,
        "has_played": true,
        "id": 76593888,
        "last_rank": 96777,
        "player_name": "Sahil Mirchandani",
        "rank": 78765,
        "rank_sort": 78996,
        "total": 2336
      },
      {
        "club_badge_src": "https://fantasy.premierleague.com/gcs/plfpl-production-adobe-approved/plfpl-production/9325504/bf9dca9f-e38b-4937-8aa8-00b167ffc94c.png",
        "entry": 9325504,
        "entry_name": "The Young Boys",
        "event_total": 55,
        "has_played": true,
        "id": 78654110,
        "last_rank": 76128,
        "player_name": "Pepe C",
        "rank": 78765,
        "rank_sort": 78997,
        "total": 2336
      },
      {
        "club_badge_src": null,
        "entry": 9330152,
        "entry_name": "K2",
        "event_total": 41,
        "has_played": true,
        "id": 78698540,
        "last_rank": 44525,
        "player_name": "Ahmed K2",
        "rank": 78765,
        "rank_sort": 78998,
        "total": 2336
      },
      {
        "club_badge_src": null,
        "entry": 9392398,
        "entry_name": "The Penga Bus",
        "event_total": 59,
        "has_played": true,
        "id": 79300482,
        "last_rank": 84360,
        "player_name": "Graham Rushe",
        "rank": 78765,
        "rank_sort": 78999,
        "total": 2336
      },
      {
        "club_badge_src": null,
        "entry": 9396685,
        "entry_name": "Soul Krew 23",
        "event_total": 61,
        "has_played": true,
        "id": 79341839,
        "last_rank": 71386,
        "player_name": "Neil Tanner",
        "rank": 78765,
        "rank_sort": 79000,
        "total": 2336
      }
    ]
  }
}