{
  "last_updated_data": "2026-05-24T23:28:17Z",
  "league": {
    "admin_entry": null,
    "closed": false,
    "code_privacy": "p",
    "created": "2025-07-20T23:14:33.933835Z",
    "cup_league": 2815434,
    "has_cup": true,
    "id": 314,
    "league_type": "s",
    "max_entries": null,
    "name": "Overall",
    "rank": null,
    "scoring": "c",
    "start_event": 1
  },
  "new_entries": {
    "has_next": false,
    "page": 1,
    "results": []
  },
  "standings": {
    "has_next": true,
    "page": 1388,
    "results": [
      {
        "club_badge_src": null,
        "entry": 4488061,
        "entry_name": "stoner fc",
        "event_total": 87,
        "has_played": true,
        "id": 34208785,
        "last_rank": 151991,
        "player_name": "Adewale Kareem",
        "rank": 69312,
        "rank_sort": 69351,
        "total": 2341
      },
      {
        "club_badge_src": null,
        "entry": 4705864,
        "entry_name": "Zakaria laanani",
        "event_total": 85,
        "has_played": true,
        "id": 36082974,
        "last_rank": 144830,
        "player_name": "Zakariae Laanani",
        "rank": 69312,
        "rank_sort": 69352,
        "total": 2341
      },
      {
        "club_badge_src": null,
        "entry": 4735107,
        "entry_name": "Elvarheim",
        "event_total": 73,
        "has_played": true,
        "id": 36430938,
        "last_rank": 108172,
        "player_name": "Erik Nielsen",
        "rank": 69312,
        "rank_sort": 69353,
        "total": 2341
      },
      {
        "club_badge_src": null,
        "entry": 5040211,
        "entry_name": "Bounce, Skate, Roll",
        "event_total": 47,
        "has_played": true,
        "id": 38932248,
        "last_rank": 40878,
        "player_name": "Ben Cross",
        "rank": 69312,
        "rank_sort": 69354,
        "total": 2341
      },
      {
        "club_badge_src": null,
        "entry": 5479325,
        "entry_name": "Dark horse",
        "event_total": 69,
        "has_played": true,
        "id": 42659686,
        "last_rank": 87885,
        "player_name": "Oscar Rohlin",
        "rank": 69312,
        "rank_sort": 69355,
        "total": 2341
      },
      {
        "club_badge_src": null,
        "entry": 7279022,
        "entry_name": "Kinder Mbuemo",
        "event_total": 68,
        "has_played": true,
        "id": 58879878,
        "last_rank": 85565,
        "player_name": "Joel McCormick",
        "rank": 69312,
        "rank_sort": 69356,
        "total": 2341
      },
      {
        "club_badge_src": null,
        "entry": 7617992,
        "entry_name": "OM7",
        "event_total": 64,
        "has_played": true,
        "id": 62428893,
        "last_rank": 85624,
        "player_name": "Muhammad Kandil",
        "rank": 69312,
        "rank_sort": 69357,
        "total": 2341
      },
      {
        "club_badge_src": null,
        "entry": 9347191,
        "entry_name": "hassanhegazy",
        "event_total": 49,
        "has_played": true,
        "id": 78860895,
        "last_rank": 55865,
        "player_name": "Hassan Hegazy",
        "rank": 69312,
        "rank_sort": 69358,
        "total": 2341
      },
      {
        "club_badge_src": null,
        "entry": 35331,
        "entry_name": "Fouda Fc",
        "event_total": 57,
        "has_played": true,
        "id": 226077,
        "last_rank": 55865,
        "player_name": "Ahmed Fouda",
        "rank": 69359,
        "rank_sort": 69359,
        "total": 2341
      },
      {
        "club_badge_src": null,
        "entry": 75329,
        "entry_name": "A-Mad World",
        "event_total": 56,
        "has_played": true,
        "id": 489716,
        "last_rank": 68437,
        "player_name": "Tanaphat Suebsantiwongs",
        "rank": 69359,
        "rank_sort": 69360,
        "total": 2341
      },
      {
        "club_badge_src": "https://fantasy.premierleague.com/gcs/plfpl-production-adobe-approved/plfpl-production/77525/2543e820-3dca-444b-a732-f45105cb469c.png",
        "entry": 77525,
        "entry_name": "Juan Sheet",
        "event_total": 35,
        "has_played": true,
        "id": 503917,
        "last_rank": 31448,
        "player_name": "Simon Reah",
        "rank": 69359,
        "rank_sort": 69361,
        "total": 2341
      },
      {
        "club_badge_src": null,
        "entry": 241638,
        "entry_name": "waddys",
        "event_total": 64,
        "has_played": true,
        "id": 1608377,
        "last_rank": 85672,
        "player_name": "Sean Waddington",
        "rank": 69359,
        "rank_sort": 69362,
        "total": 2341
      },
      {
        "club_badge_src": null,
        "entry": 395841,
        "entry_name": "JANO. 03",
        "event_total": 70,
        "has_played": true,
        "id": 2654561,
        "last_rank": 90300,
        "player_name": "Jwan Ahmad",
        "rank": 69359,
        "rank_sort": 69363,
        "total": 2341
      },
      {
        "club_badge_src": "https://fantasy.premierleague.com/gcs/plfpl-production-adobe-approved/plfpl-production/582966/9ec3f03f-3835-4cb6-8cb2-c1ca29f16613.png",
        "entry": 582966,
        "entry_name": "Barsami FC",
        "event_total": 51,
        "has_played": true,
        "id": 3923233,
        "last_rank": 52603,
        "player_name": "Barsam Ayoughi Tabrizi",
        "rank": 69359,
        "rank_sort": 69364,
        "total": 2341
      },
      {
        "club_badge_src": null,
        "entry": 918128,
        "entry_name": "Delap Dance",
        "event_total": 61,
        "has_played": true,
        "id": 6313806,
        "last_rank": 78830,
        "player_name": "Paddy McCaul",
        "rank": 69359,
        "rank_sort": 69365,
        "total": 2341
      },
      {
        "club_badge_src": "https://fantasy.premierleague.com/gcs/plfpl-production-adobe-approved/plfpl-production/928770/3264300d-9383-41fb-b0a0-78b4dd2aa7e9.png",
        "entry": 928770,
        "entry_name": "MooN FC",
        "event_total": 56,
        "has_played": true,
        "id": 6390400,
        "last_rank": 68437,
        "player_name": "Asil Seewoogoolam",
        "rank": 69359,
        "rank_sort": 69366,
        "total": 2341
      },
      {
        "club_badge_src": null,
        "entry": 1286720,
        "entry_name": "The War",
        "event_total": 53,
        "has_played": true,
        "id": 8941052,
        "last_rank": 49407,
        "player_name": "Ahmad Alharb",
        "rank": 69359,
        "rank_sort": 69367,
        "total": 2341
      },
      {
        "club_badge_src": null,
        "entry": 1441128,
        "entry_name": "Killa Beez FC",
        "event_total": 50,
        "has_played": true,
        "id": 10042161,
        "last_rank": 57636,
        "player_name": "Ross Hurt",
        "rank": 69359,
        "rank_sort": 69368,
        "total": 2341
      },
      {
        "club_badge_src": null,
        "entry": 1591742,
        "entry_name": "Eze Money",
        "event_total": 64,
        "has_played": true,
        "id": 11129935,
        "last_rank": 85672,
        "player_name": "Mike Murray",
        "rank": 69359,
        "rank_sort": 69369,
        "total": 2341
      },
      {
        "club_badge_src": null,
        "entry": 1740973,
        "entry_name": "WhoAteAllDepays",
        "event_total": 65,
        "has_played": true,
        "id": 12215065,
        "last_rank": 87945,
        "player_name": "Nathan Wilkinson",
        "rank": 69359,
        "rank_sort": 69370,
        "total": 2341
      },
      {
        "club_badge_src": null,
        "entry": 2014249,
        "entry_name": "loai.hamada \ufffd",
        "event_total": 52,
        "has_played": true,
        "id": 14246594,
        "last_rank": 61139,
        "player_name": "loaii hamada",
        "rank": 69359,
        "rank_sort": 69371,
        "total": 2341
      },
      {
        "club_badge_src": null,
        "entry": 2183897,
        "entry_name": "Pep Tactics 4.0\ufffd",
        "event_total": 64,
        "has_played": true,
        "id": 15534300,
        "last_rank": 76693,
        "player_name": "Shady Quame Dapper",
        "rank": 69359,
        "rank_sort": 69372,
        "total": 2341
      },
      {
        "club_badge_src": null,
        "entry": 2430273,
        "entry_name": "Snerk FC",
        "event_total": 60,
        "has_played": true,
        "id": 17377929,
        "last_rank": 76693,
        "player_name": "Jens Holm",
        "rank": 69359,
        "rank_sort": 69373,
        "total": 2341
      },
      {
        "club_badge_src": null,
        "entry": 2794127,
        "entry_name": "Fidelis Ademola",
        "event_total": 63,
        "has_played": true,
        "id": 20401457,
        "last_rank": 83267,
        "player_name": "Fidelis Ademola",
        "rank": 69359,
        "rank_sort": 69374,
        "total": 2341
      },
      {
        "club_badge_src": null,
        "entry": 2849332,
        "entry_name": "Nishant Pankesh",
        "event_total": 51,
        "has_played": true,
        "id": 20832158,
        "last_rank": 52603,
        "player_name": "Nishant Pankesh",
        "rank": 69359,
        "rank_sort": 69375,
        "total": 2341
      },
      {
        "club_badge_src": null,
        "entry": 2884618,
        "entry_name": "He doesn't want it",
        "event_total": 49,
        "has_played": true,
        "id": 21118162,
        "last_rank": 55932,
        "player_name": "Darach Doherty",
        "rank": 69359,
        "rank_sort": 69376,
        "total": 2341
      },
      {
        "club_badge_src": null,
        "entry": 2954961,
        "entry_name": "Godwin!",
        "event_total": 67,
        "has_played": true,
        "id": 21703509,
        "last_rank": 92780,
        "player_name": "Godwin Monteiro",
        "rank": 69359,
        "rank_sort": 69377,
        "total": 2341
      },
      {
        "club_badge_src": null,
        "entry": 2956483,
        "entry_name": "Over Land & Sea",
        "event_total": 67,
        "has_played": true,
        "id": 21715242,
        "last_rank": 74474,
        "player_name": "Kevin Thomson",
        "rank": 69359,
        "rank_sort": 69378,
        "total": 2341
      },
      {
        "club_badge_src": null,
        "entry": 3940473,
        "entry_name": "Top Draw FC",
        "event_total": 48,
        "has_played": true,
        "id": 29641662,
        "last_rank": 54244,
        "player_name": "Tom Whiting",
        "rank": 69359,
        "rank_sort": 69379,
        "total": 2341
      },
      {
        "club_badge_src": "https://fantasy.premierleague.com/gcs/plfpl-production-adobe-approved/plfpl-production/4257719/ed56aad7-30e9-40fb-bf61-aa7d13536343.png",
        "entry": 4257719,
        "entry_name": "souhaib07",
        "event_total": 41,
        "has_played": true,
        "id": 32279877,
        "last_rank": 43657,
        "player_name": "SOUHAIB ELKAMOUNI",
        "rank": 69359,
        "rank_sort": 69380,
        "total": 2341
      },
      {
        "club_badge_src": null,
        "entry": 4471958,
        "entry_name": "puma pants",
        "event_total": 69,
        "has_played": true,
        "id": 34078083,
        "last_rank": 97750,
        "player_name": "Jenson Lacey",
        "rank": 69359,
        "rank_sort": 69381,
        "total": 2341
      },
      {
        "club_badge_src": null,
        "entry": 4589150,
        "entry_name": "GervinhosHairline",
        "event_total": 55,
        "has_played": true,
        "id": 35041525,
        "last_rank": 66518,
        "player_name": "Gideon Shema",
        "rank": 69359,
        "rank_sort": 69382,
        "total": 2341
      },
      {
        "club_badge_src": null,
        "entry": 4675981,
        "entry_name": "Brockerhoff United",
        "event_total": 64,
        "has_played": true,
        "id": 35821053,
        "last_rank": 76693,
        "player_name": "Gavin Brocker",
        "rank": 69359,
        "rank_sort": 69383,
        "total": 2341
      },
      {
        "club_badge_src": null,
        "entry": 5207855,
        "entry_name": "Change Name",
        "event_total": 48,
        "has_played": true,
        "id": 40336814,
        "last_rank": 47950,
        "player_name": "Chris Wollington",
        "rank": 69359,
        "rank_sort": 69384,
        "total": 2341
      },
      {
        "club_badge_src": null,
        "entry": 5425715,
        "entry_name": "\ufffd wolves",
        "event_total": 78,
        "has_played": true,
        "id": 42201125,
        "last_rank": 100177,
        "player_name": "kareem Mohamed",
        "rank": 69359,
        "rank_sort": 69385,
        "total": 2341
      },
      {
        "club_badge_src": null,
        "entry": 6314622,
        "entry_name": "KinderMbuemo",
        "event_total": 70,
        "has_played": true,
        "id": 50109015,
        "last_rank": 80877,
        "player_name": "Rhys Jones",
        "rank": 69359,
        "rank_sort": 69386,
        "total": 2341
      },
      {
        "club_badge_src": null,
        "entry": 6359822,
        "entry_name": "Change Name",
        "event_total": 48,
        "has_played": true,
        "id": 50566053,
        "last_rank": 47950,
        "player_name": "Linus Miller",
        "rank": 69359,
        "rank_sort": 69387,
        "total": 2341
      },
      {
        "club_badge_src": null,
        "entry": 6459566,
        "entry_name": "Team Ingebrigtsen",
        "event_total": 54,
        "has_played": true,
        "id": 51454878,
        "last_rank": 64634,
        "player_name": "Torgeir Ingebrigtsen",
        "rank": 69359,
        "rank_sort": 69388,
        "total": 2341
      },
      {
        "club_badge_src": null,
        "entry": 6648454,
        "entry_name": "MurderOnZidaneFloor",
        "event_total": 50,
        "has_played": true,
        "id": 53149053,
        "last_rank": 57619,
        "player_name": "tom mcmillan",
        "rank": 69359,
        "rank_sort": 69389,
        "total": 2341
      },
      {
        "club_badge_src": "https://fantasy.premierleague.com/gcs/plfpl-production-adobe-approved/plfpl-production/7872192/0db9400e-b5df-44ad-b29e-98cc5d1c3097.png",
        "entry": 7872192,
        "entry_name": "KARMA",
        "event_total": 48,
        "has_played": true,
        "id": 64733597,
        "last_rank": 54244,
        "player_name": "Ibrahim Kadum",
        "rank": 69359,
        "rank_sort": 69390,
        "total": 2341
      },
      {
        "club_badge_src": null,
        "entry": 8286838,
        "entry_name": "abod",
        "event_total": 53,
        "has_played": true,
        "id": 68573519,
        "last_rank": 49407,
        "player_name": "abod 311",
        "rank": 69359,
        "rank_sort": 69391,
        "total": 2341
      },
      {
        "club_badge_src": "https://fantasy.premierleague.com/gcs/plfpl-production-adobe-approved/plfpl-production/8528577/e3e5c309-607d-44f9-b3af-257aeb379b85.png",
        "entry": 8528577,
        "entry_name": "waves harry",
        "event_total": 67,
        "has_played": true,
        "id": 70913119,
        "last_rank": 83267,
        "player_name": "a7med abd elkarim",
        "rank": 69359,
        "rank_sort": 69392,
        "total": 2341
      },
      {
        "club_badge_src": "https://fantasy.premierleague.com/gcs/plfpl-production-adobe-approved/plfpl-production/8959227/41654ffd-4300-4b16-8de5-03254d8fd01c.png",
        "entry": 8959227,
        "entry_name": "Dream team",
        "event_total": 64,
        "has_played": true,
        "id": 75088541,
        "last_rank": 85672,
        "player_name": "Mohmed Jazaa",
        "rank": 69359,
        "rank_sort": 69393,
        "total": 2341
      },
      {
        "club_badge_src": "https://fantasy.premierleague.com/gcs/plfpl-production-adobe-approved/plfpl-production/691/35665fc3-19a6-4b3a-8c5b-5fe24b19f67f.png",
        "entry": 691,
        "entry_name": "H\u00fctiharih\u00fctilari",
        "event_total": 49,
        "has_played": true,
        "id": 3808,
        "last_rank": 49463,
        "player_name": "Jan Aigner",
        "rank": 69394,
        "rank_sort": 69394,
        "total": 2341
      },
      {
        "club_badge_src": null,
        "entry": 23340,
        "entry_name": "Chutney Rider",
        "event_total": 60,
        "has_played": true,
        "id": 146931,
        "last_rank": 68437,
        "player_name": "Rodney P",
        "rank": 69394,
        "rank_sort": 69395,
        "total": 2341
      },
      {
        "club_badge_src": "https://fantasy.premierleague.com/gcs/plfpl-production-adobe-approved/plfpl-production/115396/58979052-cc75-4866-aad2-e3b56662ac9e.png",
        "entry": 115396,
        "entry_name": "Kentona United",
        "event_total": 59,
        "has_played": true,
        "id": 753124,
        "last_rank": 66518,
        "player_name": "How Ken Chin",
        "rank": 69394,
        "rank_sort": 69396,
        "total": 2341
      },
      {
        "club_badge_src": null,
        "entry": 159951,
        "entry_name": "Sch\u00e4rCashWirtMee",
        "event_total": 68,
        "has_played": true,
        "id": 1053060,
        "last_rank": 85624,
        "player_name": "NonComformist ---",
        "rank": 69394,
        "rank_sort": 69397,
        "total": 2341
      },
      {
        "club_badge_src": null,
        "entry": 298911,
        "entry_name": "The Slot Thickens",
        "event_total": 57,
        "has_played": true,
        "id": 1998766,
        "last_rank": 62939,
        "player_name": "Daniel Vivash",
        "rank": 69394,
        "rank_sort": 69398,
        "total": 2341
      },
      {
        "club_badge_src": "https://fantasy.premierleague.com/gcs/plfpl-production-adobe-approved/plfpl-production/492927/b4e49814-1f35-4da7-a835-a258a0e0ed83.png",
        "entry": 492927,
        "entry_name": "Bulga   10 \u265b",
        "event_total": 54,
        "has_played": true,
        "id": 3308775,
        "last_rank": 50984,
        "player_name": "Hamada Elkashef",
        "rank": 69394,
        "rank_sort": 69399,
        "total": 2341
      },
      {
        "club_badge_src": null,
        "entry": 916648,
        "entry_name": "Champions Elite",
        "event_total": 65,
        "has_played": true,
        "id": 6303457,
        "last_rank": 78782,
        "player_name": "Richard Coleman",
        "rank": 69394,
        "rank_sort": 69400,
        "total": 2341
      }
    ]
  }
}