{
  "last_updated_data": "2026-05-24T23:28:17Z",
  "league": {
    "admin_entry": null,
    "closed": false,
    "code_privacy": "p",
    "created": "2025-07-20T23:14:33.933835Z",
    "cup_league": 2815434,
    "has_cup": true,
    "id": 314,
    "league_type": "s",
    "max_entries": null,
    "name": "Overall",
    "rank": null,
    "scoring": "c",
    "start_event": 1
  },
  "new_entries": {
    "has_next": false,
    "page": 1,
    "results": []
  },
  "standings": {
    "has_next": true,
    "page": 58,
    "results": [
      {
        "club_badge_src": null,
        "entry": 3933662,
        "entry_name": "The Dark Lord",
        "event_total": 59,
        "has_played": true,
        "id": 29586356,
        "last_rank": 2300,
        "player_name": "Ed Lyons",
        "rank": 2829,
        "rank_sort": 2851,
        "total": 2427
      },
      {
        "club_badge_src": null,
        "entry": 4796096,
        "entry_name": "Mourinho alzmn",
        "event_total": 53,
        "has_played": true,
        "id": 36925378,
        "last_rank": 2112,
        "player_name": "Abo Ghaith",
        "rank": 2829,
        "rank_sort": 2852,
        "total": 2427
      },
      {
        "club_badge_src": null,
        "entry": 4865201,
        "entry_name": "Fear the Beard",
        "event_total": 73,
        "has_played": true,
        "id": 37495603,
        "last_rank": 5498,
        "player_name": "Nikola Hovanec",
        "rank": 2829,
        "rank_sort": 2853,
        "total": 2427
      },
      {
        "club_badge_src": null,
        "entry": 5199631,
        "entry_name": "Fred",
        "event_total": 52,
        "has_played": true,
        "id": 40265660,
        "last_rank": 2009,
        "player_name": "Duncan Leech",
        "rank": 2829,
        "rank_sort": 2854,
        "total": 2427
      },
      {
        "club_badge_src": null,
        "entry": 5541125,
        "entry_name": "Calcio e P\u00e9p\u00e9",
        "event_total": 59,
        "has_played": true,
        "id": 43237253,
        "last_rank": 2870,
        "player_name": "Andrew Parkins",
        "rank": 2829,
        "rank_sort": 2855,
        "total": 2427
      },
      {
        "club_badge_src": null,
        "entry": 6553183,
        "entry_name": "Anita Trump",
        "event_total": 60,
        "has_played": true,
        "id": 52295613,
        "last_rank": 2977,
        "player_name": "katie alderson",
        "rank": 2829,
        "rank_sort": 2856,
        "total": 2427
      },
      {
        "club_badge_src": null,
        "entry": 102968,
        "entry_name": "Bowen 747",
        "event_total": 69,
        "has_played": true,
        "id": 671902,
        "last_rank": 4515,
        "player_name": "Brandon Ng",
        "rank": 2857,
        "rank_sort": 2857,
        "total": 2427
      },
      {
        "club_badge_src": null,
        "entry": 152139,
        "entry_name": "Happy Days",
        "event_total": 62,
        "has_played": true,
        "id": 998384,
        "last_rank": 2731,
        "player_name": "Simon Howe",
        "rank": 2857,
        "rank_sort": 2858,
        "total": 2427
      },
      {
        "club_badge_src": "https://fantasy.premierleague.com/gcs/plfpl-production-adobe-approved/plfpl-production/296102/494a3162-206f-4fe7-8654-2ea796c203c4.png",
        "entry": 296102,
        "entry_name": "Rhodopa",
        "event_total": 36,
        "has_played": true,
        "id": 1978160,
        "last_rank": 904,
        "player_name": "Dimitar Denev",
        "rank": 2857,
        "rank_sort": 2859,
        "total": 2427
      },
      {
        "club_badge_src": null,
        "entry": 370900,
        "entry_name": "rasmusyo",
        "event_total": 71,
        "has_played": true,
        "id": 2481883,
        "last_rank": 4954,
        "player_name": "Rasmus Karlsson",
        "rank": 2857,
        "rank_sort": 2860,
        "total": 2427
      },
      {
        "club_badge_src": "https://fantasy.premierleague.com/gcs/plfpl-production-adobe-approved/plfpl-production/465108/9b4f7383-de30-413f-b442-cd194c03f18b.png",
        "entry": 465108,
        "entry_name": "DannyB_FPL",
        "event_total": 73,
        "has_played": true,
        "id": 3120199,
        "last_rank": 3721,
        "player_name": "Daniel Barber",
        "rank": 2857,
        "rank_sort": 2861,
        "total": 2427
      },
      {
        "club_badge_src": null,
        "entry": 627335,
        "entry_name": "Szoboshboboszlai",
        "event_total": 69,
        "has_played": true,
        "id": 4239254,
        "last_rank": 4615,
        "player_name": "David Draper",
        "rank": 2857,
        "rank_sort": 2862,
        "total": 2427
      },
      {
        "club_badge_src": null,
        "entry": 678020,
        "entry_name": "Saka Potatoes",
        "event_total": 48,
        "has_played": true,
        "id": 4587546,
        "last_rank": 1648,
        "player_name": "Scott Chapman",
        "rank": 2857,
        "rank_sort": 2863,
        "total": 2427
      },
      {
        "club_badge_src": null,
        "entry": 731598,
        "entry_name": "Matteorib",
        "event_total": 53,
        "has_played": true,
        "id": 4971406,
        "last_rank": 1372,
        "player_name": "Matteo Ribecca",
        "rank": 2857,
        "rank_sort": 2864,
        "total": 2427
      },
      {
        "club_badge_src": null,
        "entry": 1086980,
        "entry_name": "Baby Reijndeers",
        "event_total": 61,
        "has_played": true,
        "id": 7527815,
        "last_rank": 2588,
        "player_name": "danny collinge",
        "rank": 2857,
        "rank_sort": 2865,
        "total": 2427
      },
      {
        "club_badge_src": null,
        "entry": 1294336,
        "entry_name": "ShigDots",
        "event_total": 56,
        "has_played": true,
        "id": 8995416,
        "last_rank": 2418,
        "player_name": "Terje Langorgen",
        "rank": 2857,
        "rank_sort": 2866,
        "total": 2427
      },
      {
        "club_badge_src": "https://fantasy.premierleague.com/gcs/plfpl-production-adobe-approved/plfpl-production/1574579/62005b71-3a63-4287-b810-55bc11a52a55.png",
        "entry": 1574579,
        "entry_name": "Dont panic MrManning",
        "event_total": 81,
        "has_played": true,
        "id": 11002625,
        "last_rank": 7761,
        "player_name": "Angie Walker",
        "rank": 2857,
        "rank_sort": 2867,
        "total": 2427
      },
      {
        "club_badge_src": null,
        "entry": 2037843,
        "entry_name": "My Name is Diouf",
        "event_total": 61,
        "has_played": true,
        "id": 14430384,
        "last_rank": 3150,
        "player_name": "Joel Kass",
        "rank": 2857,
        "rank_sort": 2868,
        "total": 2427
      },
      {
        "club_badge_src": null,
        "entry": 2193263,
        "entry_name": "thomasthefrankengine",
        "event_total": 55,
        "has_played": true,
        "id": 15604652,
        "last_rank": 2355,
        "player_name": "James Towell",
        "rank": 2857,
        "rank_sort": 2869,
        "total": 2427
      },
      {
        "club_badge_src": null,
        "entry": 2317885,
        "entry_name": "Ctrl Alt De Ligt",
        "event_total": 64,
        "has_played": true,
        "id": 16534798,
        "last_rank": 3627,
        "player_name": "Lucas Eriksson",
        "rank": 2857,
        "rank_sort": 2870,
        "total": 2427
      },
      {
        "club_badge_src": null,
        "entry": 2327690,
        "entry_name": "Ugarte Be Kidding Me",
        "event_total": 65,
        "has_played": true,
        "id": 16607059,
        "last_rank": 3796,
        "player_name": "Jonathan Pearce",
        "rank": 2857,
        "rank_sort": 2871,
        "total": 2427
      },
      {
        "club_badge_src": null,
        "entry": 3224842,
        "entry_name": "EFL is better",
        "event_total": 64,
        "has_played": true,
        "id": 23848343,
        "last_rank": 3601,
        "player_name": "Ethan Atterbury",
        "rank": 2857,
        "rank_sort": 2872,
        "total": 2427
      },
      {
        "club_badge_src": null,
        "entry": 3332401,
        "entry_name": "ThomasTheFrankEngine",
        "event_total": 40,
        "has_played": true,
        "id": 24708469,
        "last_rank": 1096,
        "player_name": "Karl Stone",
        "rank": 2857,
        "rank_sort": 2873,
        "total": 2427
      },
      {
        "club_badge_src": null,
        "entry": 4749224,
        "entry_name": "Ruben Haramorim FC",
        "event_total": 60,
        "has_played": true,
        "id": 36544732,
        "last_rank": 2448,
        "player_name": "Chris Greasley",
        "rank": 2857,
        "rank_sort": 2874,
        "total": 2427
      },
      {
        "club_badge_src": null,
        "entry": 5572166,
        "entry_name": "Toby FC",
        "event_total": 57,
        "has_played": true,
        "id": 43512259,
        "last_rank": 2620,
        "player_name": "Justin Heal",
        "rank": 2857,
        "rank_sort": 2875,
        "total": 2427
      },
      {
        "club_badge_src": null,
        "entry": 6289481,
        "entry_name": "Ali Faris",
        "event_total": 74,
        "has_played": true,
        "id": 49829467,
        "last_rank": 4804,
        "player_name": "Ali Alhellawi",
        "rank": 2857,
        "rank_sort": 2876,
        "total": 2427
      },
      {
        "club_badge_src": "https://fantasy.premierleague.com/gcs/plfpl-production-adobe-approved/plfpl-production/6788153/90998327-812c-461b-b885-2773a355ef5f.png",
        "entry": 6788153,
        "entry_name": "Beans",
        "event_total": 76,
        "has_played": true,
        "id": 54358308,
        "last_rank": 5173,
        "player_name": "Bradley Kelly",
        "rank": 2857,
        "rank_sort": 2877,
        "total": 2427
      },
      {
        "club_badge_src": null,
        "entry": 7047526,
        "entry_name": "B\u0119dzie \u0160\u0119\u0161ko",
        "event_total": 68,
        "has_played": true,
        "id": 56673445,
        "last_rank": 4358,
        "player_name": "Juliusz Lewandowski",
        "rank": 2857,
        "rank_sort": 2878,
        "total": 2427
      },
      {
        "club_badge_src": null,
        "entry": 17484,
        "entry_name": "\u5c0f\u5e03\u4e01\u96ea\u7cd5king",
        "event_total": 81,
        "has_played": true,
        "id": 108470,
        "last_rank": 7676,
        "player_name": "\u96ea\u7cd5 cheese",
        "rank": 2879,
        "rank_sort": 2879,
        "total": 2427
      },
      {
        "club_badge_src": null,
        "entry": 24800,
        "entry_name": "Alexui FC",
        "event_total": 68,
        "has_played": true,
        "id": 156625,
        "last_rank": 4413,
        "player_name": "Alexandros Papantoniou",
        "rank": 2879,
        "rank_sort": 2880,
        "total": 2427
      },
      {
        "club_badge_src": null,
        "entry": 27020,
        "entry_name": "kokos",
        "event_total": 72,
        "has_played": true,
        "id": 170834,
        "last_rank": 5313,
        "player_name": "Kent Windahl",
        "rank": 2879,
        "rank_sort": 2881,
        "total": 2427
      },
      {
        "club_badge_src": "https://fantasy.premierleague.com/gcs/plfpl-production-adobe-approved/plfpl-production/47192/ae8882ff-5023-4361-a2a8-9a1723c89125.png",
        "entry": 47192,
        "entry_name": "Fpl_Newboy",
        "event_total": 65,
        "has_played": true,
        "id": 302640,
        "last_rank": 3175,
        "player_name": "Meor muhd",
        "rank": 2879,
        "rank_sort": 2882,
        "total": 2427
      },
      {
        "club_badge_src": null,
        "entry": 56666,
        "entry_name": "bawang kothong",
        "event_total": 67,
        "has_played": true,
        "id": 364989,
        "last_rank": 4205,
        "player_name": "aan yulianto",
        "rank": 2879,
        "rank_sort": 2883,
        "total": 2427
      },
      {
        "club_badge_src": null,
        "entry": 88316,
        "entry_name": "eze come eze go",
        "event_total": 65,
        "has_played": true,
        "id": 576281,
        "last_rank": 3765,
        "player_name": "sam boor",
        "rank": 2879,
        "rank_sort": 2884,
        "total": 2427
      },
      {
        "club_badge_src": null,
        "entry": 258721,
        "entry_name": "Moravce",
        "event_total": 66,
        "has_played": true,
        "id": 1720296,
        "last_rank": 4007,
        "player_name": "Jozef Opaleny",
        "rank": 2879,
        "rank_sort": 2885,
        "total": 2427
      },
      {
        "club_badge_src": null,
        "entry": 281367,
        "entry_name": "Bittersweet87",
        "event_total": 59,
        "has_played": true,
        "id": 1872380,
        "last_rank": 2355,
        "player_name": "Eivind Nordb\u00f8 Sandsbakk",
        "rank": 2879,
        "rank_sort": 2886,
        "total": 2427
      },
      {
        "club_badge_src": "https://fantasy.premierleague.com/gcs/plfpl-production-adobe-approved/plfpl-production/389800/2a341533-bd2c-4d85-959a-0ea436348785.png",
        "entry": 389800,
        "entry_name": "Kokkorv BK",
        "event_total": 62,
        "has_played": true,
        "id": 2614842,
        "last_rank": 3331,
        "player_name": "Andr\u00e9 Johannesson",
        "rank": 2879,
        "rank_sort": 2887,
        "total": 2427
      },
      {
        "club_badge_src": null,
        "entry": 390257,
        "entry_name": "StuartSoccerStars",
        "event_total": 53,
        "has_played": true,
        "id": 2617804,
        "last_rank": 2141,
        "player_name": "Stuart Bulley",
        "rank": 2879,
        "rank_sort": 2888,
        "total": 2427
      },
      {
        "club_badge_src": null,
        "entry": 1261852,
        "entry_name": "Panky",
        "event_total": 79,
        "has_played": true,
        "id": 8765724,
        "last_rank": 6061,
        "player_name": "Raymond Pankhurst",
        "rank": 2879,
        "rank_sort": 2889,
        "total": 2427
      },
      {
        "club_badge_src": null,
        "entry": 1461806,
        "entry_name": "Careless Whi-Spurs",
        "event_total": 58,
        "has_played": true,
        "id": 10189546,
        "last_rank": 1452,
        "player_name": "Ruby Levingstone",
        "rank": 2879,
        "rank_sort": 2890,
        "total": 2427
      },
      {
        "club_badge_src": null,
        "entry": 1488936,
        "entry_name": "Beef Cherki",
        "event_total": 73,
        "has_played": true,
        "id": 10383035,
        "last_rank": 3765,
        "player_name": "John Eagles",
        "rank": 2879,
        "rank_sort": 2891,
        "total": 2427
      },
      {
        "club_badge_src": null,
        "entry": 1639388,
        "entry_name": "Giroud Sandstorm",
        "event_total": 72,
        "has_played": true,
        "id": 11475534,
        "last_rank": 5281,
        "player_name": "Matt Goddard",
        "rank": 2879,
        "rank_sort": 2892,
        "total": 2427
      },
      {
        "club_badge_src": null,
        "entry": 2061477,
        "entry_name": "TeamLysheim",
        "event_total": 55,
        "has_played": true,
        "id": 14606703,
        "last_rank": 2328,
        "player_name": "Ola Skevik",
        "rank": 2879,
        "rank_sort": 2893,
        "total": 2427
      },
      {
        "club_badge_src": null,
        "entry": 2171488,
        "entry_name": "LEEds",
        "event_total": 42,
        "has_played": true,
        "id": 15440045,
        "last_rank": 1005,
        "player_name": "Lee Hooks",
        "rank": 2879,
        "rank_sort": 2894,
        "total": 2427
      },
      {
        "club_badge_src": null,
        "entry": 2572816,
        "entry_name": "kilo squad",
        "event_total": 65,
        "has_played": true,
        "id": 18461963,
        "last_rank": 3813,
        "player_name": "Kazi Fahad",
        "rank": 2879,
        "rank_sort": 2895,
        "total": 2427
      },
      {
        "club_badge_src": null,
        "entry": 3770300,
        "entry_name": "Salahvation Cult FC",
        "event_total": 87,
        "has_played": true,
        "id": 28151518,
        "last_rank": 10102,
        "player_name": "Daniel Bennion",
        "rank": 2879,
        "rank_sort": 2896,
        "total": 2427
      },
      {
        "club_badge_src": null,
        "entry": 4671828,
        "entry_name": "40 Year Old Virgil",
        "event_total": 52,
        "has_played": true,
        "id": 35786591,
        "last_rank": 2033,
        "player_name": "Sam Phillips",
        "rank": 2879,
        "rank_sort": 2897,
        "total": 2427
      },
      {
        "club_badge_src": null,
        "entry": 27276,
        "entry_name": "\u69cd\u871c\u5e73\u539f\u541b",
        "event_total": 65,
        "has_played": true,
        "id": 172405,
        "last_rank": 3829,
        "player_name": "Jason ZHAO",
        "rank": 2898,
        "rank_sort": 2898,
        "total": 2427
      },
      {
        "club_badge_src": null,
        "entry": 144283,
        "entry_name": "Witty's Wanderers",
        "event_total": 75,
        "has_played": true,
        "id": 944351,
        "last_rank": 6061,
        "player_name": "Josh Whittaker",
        "rank": 2898,
        "rank_sort": 2899,
        "total": 2427
      },
      {
        "club_badge_src": null,
        "entry": 543157,
        "entry_name": "The Blues",
        "event_total": 64,
        "has_played": true,
        "id": 3655567,
        "last_rank": 3035,
        "player_name": "Joona Kurki",
        "rank": 2898,
        "rank_sort": 2900,
        "total": 2427
      }
    ]
  }
}