{
  "last_updated_data": "2026-05-24T23:28:17Z",
  "league": {
    "admin_entry": null,
    "closed": false,
    "code_privacy": "p",
    "created": "2025-07-20T23:14:33.933835Z",
    "cup_league": 2815434,
    "has_cup": true,
    "id": 314,
    "league_type": "s",
    "max_entries": null,
    "name": "Overall",
    "rank": null,
    "scoring": "c",
    "start_event": 1
  },
  "new_entries": {
    "has_next": false,
    "page": 1,
    "results": []
  },
  "standings": {
    "has_next": true,
    "page": 413,
    "results": [
      {
        "club_badge_src": null,
        "entry": 9275,
        "entry_name": "ChicagoFootyMachine",
        "event_total": 56,
        "has_played": true,
        "id": 54458,
        "last_rank": 19392,
        "player_name": "Jim Llewellyn",
        "rank": 20598,
        "rank_sort": 20601,
        "total": 2379
      },
      {
        "club_badge_src": null,
        "entry": 10603,
        "entry_name": "Variance FC",
        "event_total": 65,
        "has_played": true,
        "id": 62769,
        "last_rank": 26710,
        "player_name": "Henry Thorneycroft",
        "rank": 20598,
        "rank_sort": 20602,
        "total": 2379
      },
      {
        "club_badge_src": null,
        "entry": 10752,
        "entry_name": "Moves Like Agger",
        "event_total": 69,
        "has_played": true,
        "id": 63675,
        "last_rank": 30727,
        "player_name": "Martin Mardorf",
        "rank": 20598,
        "rank_sort": 20603,
        "total": 2379
      },
      {
        "club_badge_src": "https://fantasy.premierleague.com/gcs/plfpl-production-adobe-approved/plfpl-production/16154/edad4951-b5bb-44d1-ad4e-e3fe20d22246.png",
        "entry": 16154,
        "entry_name": "Supernb86",
        "event_total": 51,
        "has_played": true,
        "id": 99608,
        "last_rank": 16320,
        "player_name": "Navin Bhavnani",
        "rank": 20598,
        "rank_sort": 20604,
        "total": 2379
      },
      {
        "club_badge_src": null,
        "entry": 22012,
        "entry_name": "Declan Nice",
        "event_total": 58,
        "has_played": true,
        "id": 138143,
        "last_rank": 20983,
        "player_name": "Sam Riley",
        "rank": 20598,
        "rank_sort": 20605,
        "total": 2379
      },
      {
        "club_badge_src": "https://fantasy.premierleague.com/gcs/plfpl-production-adobe-approved/plfpl-production/23111/710421cb-a8df-42bf-8ca7-8d5e95f05b9f.png",
        "entry": 23111,
        "entry_name": "IwillFAQup",
        "event_total": 63,
        "has_played": true,
        "id": 145416,
        "last_rank": 24857,
        "player_name": "Toni Leka",
        "rank": 20598,
        "rank_sort": 20606,
        "total": 2379
      },
      {
        "club_badge_src": null,
        "entry": 35421,
        "entry_name": "Torshov Palace",
        "event_total": 61,
        "has_played": true,
        "id": 226678,
        "last_rank": 23188,
        "player_name": "Margrethe Rossow",
        "rank": 20598,
        "rank_sort": 20607,
        "total": 2379
      },
      {
        "club_badge_src": null,
        "entry": 35782,
        "entry_name": "Kings of Leon",
        "event_total": 63,
        "has_played": true,
        "id": 229042,
        "last_rank": 24897,
        "player_name": "Leon Hobson",
        "rank": 20598,
        "rank_sort": 20608,
        "total": 2379
      },
      {
        "club_badge_src": null,
        "entry": 45919,
        "entry_name": "Your Wirtz Nightmare",
        "event_total": 67,
        "has_played": true,
        "id": 294509,
        "last_rank": 28726,
        "player_name": "Dominic Sayers",
        "rank": 20598,
        "rank_sort": 20609,
        "total": 2379
      },
      {
        "club_badge_src": null,
        "entry": 61602,
        "entry_name": "Ed's Reds",
        "event_total": 66,
        "has_played": true,
        "id": 396793,
        "last_rank": 27644,
        "player_name": "Yaslen Moodley",
        "rank": 20598,
        "rank_sort": 20610,
        "total": 2379
      },
      {
        "club_badge_src": null,
        "entry": 66029,
        "entry_name": "Slumdog Mignolet",
        "event_total": 60,
        "has_played": true,
        "id": 426608,
        "last_rank": 22426,
        "player_name": "Chevyn Luckyram",
        "rank": 20598,
        "rank_sort": 20611,
        "total": 2379
      },
      {
        "club_badge_src": "https://fantasy.premierleague.com/gcs/plfpl-production-adobe-approved/plfpl-production/67581/45292b00-9f47-452f-a09a-8ed860fde1c8.png",
        "entry": 67581,
        "entry_name": "Black and white",
        "event_total": 56,
        "has_played": true,
        "id": 437581,
        "last_rank": 19392,
        "player_name": "Marko Mikin",
        "rank": 20598,
        "rank_sort": 20612,
        "total": 2379
      },
      {
        "club_badge_src": null,
        "entry": 70387,
        "entry_name": "Retford Rovers",
        "event_total": 50,
        "has_played": true,
        "id": 457052,
        "last_rank": 15452,
        "player_name": "shaun rettie",
        "rank": 20598,
        "rank_sort": 20613,
        "total": 2379
      },
      {
        "club_badge_src": null,
        "entry": 74556,
        "entry_name": "Gy\u00f6al Machine",
        "event_total": 67,
        "has_played": true,
        "id": 484622,
        "last_rank": 28609,
        "player_name": "C J",
        "rank": 20598,
        "rank_sort": 20614,
        "total": 2379
      },
      {
        "club_badge_src": null,
        "entry": 103433,
        "entry_name": "Yer da",
        "event_total": 63,
        "has_played": true,
        "id": 674942,
        "last_rank": 24832,
        "player_name": "Max Jones",
        "rank": 20598,
        "rank_sort": 20615,
        "total": 2379
      },
      {
        "club_badge_src": null,
        "entry": 108317,
        "entry_name": "Dody",
        "event_total": 38,
        "has_played": true,
        "id": 706210,
        "last_rank": 9536,
        "player_name": "dodi dodi",
        "rank": 20598,
        "rank_sort": 20616,
        "total": 2379
      },
      {
        "club_badge_src": null,
        "entry": 153379,
        "entry_name": "FPLSivai",
        "event_total": 77,
        "has_played": true,
        "id": 1007197,
        "last_rank": 39874,
        "player_name": "Himal Sivai",
        "rank": 20598,
        "rank_sort": 20617,
        "total": 2379
      },
      {
        "club_badge_src": null,
        "entry": 192013,
        "entry_name": "Lumbago IL",
        "event_total": 64,
        "has_played": true,
        "id": 1272034,
        "last_rank": 25902,
        "player_name": "Lasse Furulund",
        "rank": 20598,
        "rank_sort": 20618,
        "total": 2379
      },
      {
        "club_badge_src": "https://fantasy.premierleague.com/gcs/plfpl-production-adobe-approved/plfpl-production/216685/5cb049db-3480-47d7-b7e8-7f419a213cfb.png",
        "entry": 216685,
        "entry_name": "Glancey's Galacticos",
        "event_total": 44,
        "has_played": true,
        "id": 1441227,
        "last_rank": 12200,
        "player_name": "Christopher Glancey",
        "rank": 20598,
        "rank_sort": 20619,
        "total": 2379
      },
      {
        "club_badge_src": "https://fantasy.premierleague.com/gcs/plfpl-production-adobe-approved/plfpl-production/235059/39ac9c9c-a68b-4c5a-9d3a-5ed6af2c586c.png",
        "entry": 235059,
        "entry_name": "Lippy Lions",
        "event_total": 59,
        "has_played": true,
        "id": 1564053,
        "last_rank": 21775,
        "player_name": "Nick .",
        "rank": 20598,
        "rank_sort": 20620,
        "total": 2379
      },
      {
        "club_badge_src": null,
        "entry": 249529,
        "entry_name": "Count Doku",
        "event_total": 61,
        "has_played": true,
        "id": 1660501,
        "last_rank": 23188,
        "player_name": "Andy Mckay",
        "rank": 20598,
        "rank_sort": 20621,
        "total": 2379
      },
      {
        "club_badge_src": null,
        "entry": 272943,
        "entry_name": "Zak Attack",
        "event_total": 64,
        "has_played": true,
        "id": 1816081,
        "last_rank": 25776,
        "player_name": "Kevin Walzak",
        "rank": 20598,
        "rank_sort": 20622,
        "total": 2379
      },
      {
        "club_badge_src": null,
        "entry": 287576,
        "entry_name": "xG FC",
        "event_total": 61,
        "has_played": true,
        "id": 1916487,
        "last_rank": 23164,
        "player_name": "Edward Chiu",
        "rank": 20598,
        "rank_sort": 20623,
        "total": 2379
      },
      {
        "club_badge_src": null,
        "entry": 307181,
        "entry_name": "E21 Hot Tips",
        "event_total": 63,
        "has_played": true,
        "id": 2057267,
        "last_rank": 25002,
        "player_name": "Eugene Lam",
        "rank": 20598,
        "rank_sort": 20624,
        "total": 2379
      },
      {
        "club_badge_src": "https://fantasy.premierleague.com/gcs/plfpl-production-adobe-approved/plfpl-production/333136/501b7144-31ba-4053-968c-0a95895c2e03.png",
        "entry": 333136,
        "entry_name": "Artetanyahu",
        "event_total": 57,
        "has_played": true,
        "id": 2231158,
        "last_rank": 20280,
        "player_name": "Kevin Berry",
        "rank": 20598,
        "rank_sort": 20625,
        "total": 2379
      },
      {
        "club_badge_src": null,
        "entry": 342519,
        "entry_name": "THIYAGU's 11",
        "event_total": 54,
        "has_played": true,
        "id": 2292510,
        "last_rank": 18113,
        "player_name": "THIYAGU MORACHAN",
        "rank": 20598,
        "rank_sort": 20626,
        "total": 2379
      },
      {
        "club_badge_src": null,
        "entry": 350842,
        "entry_name": "Super Cally",
        "event_total": 56,
        "has_played": true,
        "id": 2348528,
        "last_rank": 16729,
        "player_name": "Scott Macalister",
        "rank": 20598,
        "rank_sort": 20627,
        "total": 2379
      },
      {
        "club_badge_src": null,
        "entry": 358923,
        "entry_name": "Zirkzee Me Rolling",
        "event_total": 56,
        "has_played": true,
        "id": 2401872,
        "last_rank": 19432,
        "player_name": "Calum Angus",
        "rank": 20598,
        "rank_sort": 20628,
        "total": 2379
      },
      {
        "club_badge_src": null,
        "entry": 368469,
        "entry_name": "Delap of Honor",
        "event_total": 62,
        "has_played": true,
        "id": 2465830,
        "last_rank": 24143,
        "player_name": "Neelesh Jayaraman",
        "rank": 20598,
        "rank_sort": 20629,
        "total": 2379
      },
      {
        "club_badge_src": null,
        "entry": 371202,
        "entry_name": "Nempnett Thrubwell",
        "event_total": 48,
        "has_played": true,
        "id": 2483873,
        "last_rank": 14292,
        "player_name": "Jon Corbett",
        "rank": 20598,
        "rank_sort": 20630,
        "total": 2379
      },
      {
        "club_badge_src": null,
        "entry": 372183,
        "entry_name": "Kante Jerkoff",
        "event_total": 66,
        "has_played": true,
        "id": 2490245,
        "last_rank": 27644,
        "player_name": "Ante Jerkov",
        "rank": 20598,
        "rank_sort": 20631,
        "total": 2379
      },
      {
        "club_badge_src": "https://fantasy.premierleague.com/gcs/plfpl-production-adobe-approved/plfpl-production/374311/f2f7bbf9-474b-4077-8d43-6c0aadf54d97.png",
        "entry": 374311,
        "entry_name": "Langley City FC",
        "event_total": 58,
        "has_played": true,
        "id": 2504907,
        "last_rank": 20983,
        "player_name": "Alan Jackson",
        "rank": 20598,
        "rank_sort": 20632,
        "total": 2379
      },
      {
        "club_badge_src": null,
        "entry": 382458,
        "entry_name": "Cunha Matata",
        "event_total": 73,
        "has_played": true,
        "id": 2564468,
        "last_rank": 34969,
        "player_name": "Philip Smith",
        "rank": 20598,
        "rank_sort": 20633,
        "total": 2379
      },
      {
        "club_badge_src": null,
        "entry": 531345,
        "entry_name": "daev",
        "event_total": 71,
        "has_played": true,
        "id": 3573663,
        "last_rank": 32879,
        "player_name": "\u0411\u043e\u0440\u0438\u0441 \u0414\u0430\u0435\u0432",
        "rank": 20598,
        "rank_sort": 20634,
        "total": 2379
      },
      {
        "club_badge_src": null,
        "entry": 538244,
        "entry_name": "Eze Come Eze Go",
        "event_total": 42,
        "has_played": true,
        "id": 3623170,
        "last_rank": 11345,
        "player_name": "Robert Thornton",
        "rank": 20598,
        "rank_sort": 20635,
        "total": 2379
      },
      {
        "club_badge_src": "https://fantasy.premierleague.com/gcs/plfpl-production-adobe-approved/plfpl-production/541381/86ef3c12-bc65-45d8-98df-1477b1722abc.png",
        "entry": 541381,
        "entry_name": "Your Team",
        "event_total": 62,
        "has_played": true,
        "id": 3643758,
        "last_rank": 23990,
        "player_name": "Mohamed Ibrahim",
        "rank": 20598,
        "rank_sort": 20636,
        "total": 2379
      },
      {
        "club_badge_src": null,
        "entry": 551049,
        "entry_name": "Dynamo Donald",
        "event_total": 70,
        "has_played": true,
        "id": 3709032,
        "last_rank": 31556,
        "player_name": "Donald Corrigan",
        "rank": 20598,
        "rank_sort": 20637,
        "total": 2379
      },
      {
        "club_badge_src": null,
        "entry": 601379,
        "entry_name": "El bichos",
        "event_total": 50,
        "has_played": true,
        "id": 4057891,
        "last_rank": 15550,
        "player_name": "Ali Elkhodary",
        "rank": 20598,
        "rank_sort": 20638,
        "total": 2379
      },
      {
        "club_badge_src": null,
        "entry": 610237,
        "entry_name": "Kinder Mbeumo",
        "event_total": 64,
        "has_played": true,
        "id": 4122634,
        "last_rank": 25902,
        "player_name": "Chris Moon",
        "rank": 20598,
        "rank_sort": 20639,
        "total": 2379
      },
      {
        "club_badge_src": null,
        "entry": 645481,
        "entry_name": "ABCDE FC",
        "event_total": 47,
        "has_played": true,
        "id": 4362088,
        "last_rank": 13821,
        "player_name": "Harry Thomas",
        "rank": 20598,
        "rank_sort": 20640,
        "total": 2379
      },
      {
        "club_badge_src": null,
        "entry": 725607,
        "entry_name": "Game of Throw-Ins",
        "event_total": 66,
        "has_played": true,
        "id": 4928639,
        "last_rank": 27770,
        "player_name": "Ahmed Aldoseri",
        "rank": 20598,
        "rank_sort": 20641,
        "total": 2379
      },
      {
        "club_badge_src": "https://fantasy.premierleague.com/gcs/plfpl-production-adobe-approved/plfpl-production/749723/a999001e-f726-4ac2-ae75-a7dc56e31c62.png",
        "entry": 749723,
        "entry_name": "Magheralin Will",
        "event_total": 39,
        "has_played": true,
        "id": 5100974,
        "last_rank": 9942,
        "player_name": "Willie Quinn",
        "rank": 20598,
        "rank_sort": 20642,
        "total": 2379
      },
      {
        "club_badge_src": null,
        "entry": 761483,
        "entry_name": "We\u2019ll have a lookman",
        "event_total": 61,
        "has_played": true,
        "id": 5192141,
        "last_rank": 23341,
        "player_name": "Morgan Harris",
        "rank": 20598,
        "rank_sort": 20643,
        "total": 2379
      },
      {
        "club_badge_src": null,
        "entry": 799030,
        "entry_name": "THE TACTICIAN",
        "event_total": 67,
        "has_played": true,
        "id": 5469098,
        "last_rank": 28726,
        "player_name": "Omar Jaw",
        "rank": 20598,
        "rank_sort": 20644,
        "total": 2379
      },
      {
        "club_badge_src": null,
        "entry": 837344,
        "entry_name": "salah and whoever",
        "event_total": 76,
        "has_played": true,
        "id": 5736043,
        "last_rank": 38571,
        "player_name": "Bryce Edmond",
        "rank": 20598,
        "rank_sort": 20645,
        "total": 2379
      },
      {
        "club_badge_src": null,
        "entry": 857767,
        "entry_name": "Poker",
        "event_total": 46,
        "has_played": true,
        "id": 5880023,
        "last_rank": 13257,
        "player_name": "allaa bacha",
        "rank": 20598,
        "rank_sort": 20646,
        "total": 2379
      },
      {
        "club_badge_src": "https://fantasy.premierleague.com/gcs/plfpl-production-adobe-approved/plfpl-production/859923/73355a7f-616c-4d02-b364-9cb975b88764.png",
        "entry": 859923,
        "entry_name": "Hoever Howlong",
        "event_total": 52,
        "has_played": true,
        "id": 5894825,
        "last_rank": 16729,
        "player_name": "\u0141ukasz Wo\u017aniak",
        "rank": 20598,
        "rank_sort": 20647,
        "total": 2379
      },
      {
        "club_badge_src": null,
        "entry": 894270,
        "entry_name": "I Have A Rash-ford",
        "event_total": 70,
        "has_played": true,
        "id": 6142990,
        "last_rank": 31534,
        "player_name": "Kian Williamson",
        "rank": 20598,
        "rank_sort": 20648,
        "total": 2379
      },
      {
        "club_badge_src": "https://fantasy.premierleague.com/gcs/plfpl-production-adobe-approved/plfpl-production/954729/7a9b3afb-0e2b-4ee1-bb85-426a6b0961d0.png",
        "entry": 954729,
        "entry_name": "Wetgammon",
        "event_total": 50,
        "has_played": true,
        "id": 6578132,
        "last_rank": 15550,
        "player_name": "Maxwell Hendry",
        "rank": 20598,
        "rank_sort": 20649,
        "total": 2379
      },
      {
        "club_badge_src": "https://fantasy.premierleague.com/gcs/plfpl-production-adobe-approved/plfpl-production/965825/ad9380e8-9e59-4cf9-a787-ce02323db74f.png",
        "entry": 965825,
        "entry_name": "Rasiuuu FC",
        "event_total": 47,
        "has_played": true,
        "id": 6656517,
        "last_rank": 13821,
        "player_name": "shriyans patel",
        "rank": 20598,
        "rank_sort": 20650,
        "total": 2379
      }
    ]
  }
}