{
  "last_updated_data": "2026-05-24T23:28:17Z",
  "league": {
    "admin_entry": null,
    "closed": false,
    "code_privacy": "p",
    "created": "2025-07-20T23:14:33.933835Z",
    "cup_league": 2815434,
    "has_cup": true,
    "id": 314,
    "league_type": "s",
    "max_entries": null,
    "name": "Overall",
    "rank": null,
    "scoring": "c",
    "start_event": 1
  },
  "new_entries": {
    "has_next": false,
    "page": 1,
    "results": []
  },
  "standings": {
    "has_next": true,
    "page": 74,
    "results": [
      {
        "club_badge_src": null,
        "entry": 1903246,
        "entry_name": "Kenta FC",
        "event_total": 68,
        "has_played": true,
        "id": 13416953,
        "last_rank": 4615,
        "player_name": "Johan Qvarfordt",
        "rank": 3647,
        "rank_sort": 3651,
        "total": 2422
      },
      {
        "club_badge_src": null,
        "entry": 5120066,
        "entry_name": "Pavers in bed",
        "event_total": 46,
        "has_played": true,
        "id": 39587536,
        "last_rank": 1946,
        "player_name": "Harry Kelly",
        "rank": 3647,
        "rank_sort": 3652,
        "total": 2422
      },
      {
        "club_badge_src": null,
        "entry": 7559210,
        "entry_name": "FC Limelight",
        "event_total": 63,
        "has_played": true,
        "id": 61894943,
        "last_rank": 3661,
        "player_name": "Ben Weizmann",
        "rank": 3647,
        "rank_sort": 3653,
        "total": 2422
      },
      {
        "club_badge_src": "https://fantasy.premierleague.com/gcs/plfpl-production-adobe-approved/plfpl-production/3438132/92793237-896b-426a-b7fc-bdc3c0b2594b.png",
        "entry": 3438132,
        "entry_name": "Shawshank Redemption",
        "event_total": 64,
        "has_played": true,
        "id": 25542030,
        "last_rank": 3833,
        "player_name": "Sezza Hickling",
        "rank": 3654,
        "rank_sort": 3654,
        "total": 2422
      },
      {
        "club_badge_src": null,
        "entry": 8037389,
        "entry_name": "Beach Life",
        "event_total": 62,
        "has_played": true,
        "id": 66223267,
        "last_rank": 3482,
        "player_name": "jason percy",
        "rank": 3654,
        "rank_sort": 3655,
        "total": 2422
      },
      {
        "club_badge_src": "https://fantasy.premierleague.com/gcs/plfpl-production-adobe-approved/plfpl-production/36453/1f50ba2a-0c3f-485f-90fb-48ed9a873cbb.png",
        "entry": 36453,
        "entry_name": "Team FC",
        "event_total": 59,
        "has_played": true,
        "id": 233366,
        "last_rank": 2495,
        "player_name": "Per Kristian Stabbetorp",
        "rank": 3656,
        "rank_sort": 3656,
        "total": 2422
      },
      {
        "club_badge_src": "https://fantasy.premierleague.com/gcs/plfpl-production-adobe-approved/plfpl-production/2239055/1db0886b-8908-48da-9dba-8bd6e9a741cb.png",
        "entry": 2239055,
        "entry_name": "\u0e15\u0e35\u0e2b\u0e23\u0e35\u0e48\u0e21\u0e31\u0e4a\u0e22 FC",
        "event_total": 71,
        "has_played": true,
        "id": 15951292,
        "last_rank": 5356,
        "player_name": "Tor Guiltyz",
        "rank": 3657,
        "rank_sort": 3657,
        "total": 2422
      },
      {
        "club_badge_src": "https://fantasy.premierleague.com/gcs/plfpl-production-adobe-approved/plfpl-production/102091/16079adb-46e4-43f1-89af-98d10bbefe89.png",
        "entry": 102091,
        "entry_name": "Man 04 Neverlusen",
        "event_total": 48,
        "has_played": true,
        "id": 666057,
        "last_rank": 2163,
        "player_name": "Teo Raittila",
        "rank": 3658,
        "rank_sort": 3658,
        "total": 2422
      },
      {
        "club_badge_src": "https://fantasy.premierleague.com/gcs/plfpl-production-adobe-approved/plfpl-production/2805393/60197e66-11c5-4a31-9369-6cb9c8015f70.png",
        "entry": 2805393,
        "entry_name": "YouEarn-11",
        "event_total": 49,
        "has_played": true,
        "id": 20487154,
        "last_rank": 1846,
        "player_name": "Ahuxerndro Pato",
        "rank": 3659,
        "rank_sort": 3659,
        "total": 2422
      },
      {
        "club_badge_src": null,
        "entry": 8195084,
        "entry_name": "4onthebounce",
        "event_total": 61,
        "has_played": true,
        "id": 67693865,
        "last_rank": 4033,
        "player_name": "Ian Cope",
        "rank": 3660,
        "rank_sort": 3660,
        "total": 2422
      },
      {
        "club_badge_src": null,
        "entry": 37904,
        "entry_name": "Whatcha Cunha Do",
        "event_total": 51,
        "has_played": true,
        "id": 242869,
        "last_rank": 2518,
        "player_name": "Jonathan Hocke",
        "rank": 3661,
        "rank_sort": 3661,
        "total": 2421
      },
      {
        "club_badge_src": null,
        "entry": 671509,
        "entry_name": "Yamal19",
        "event_total": 72,
        "has_played": true,
        "id": 4541959,
        "last_rank": 6677,
        "player_name": "Eitan Robins Kallmann",
        "rank": 3662,
        "rank_sort": 3662,
        "total": 2421
      },
      {
        "club_badge_src": null,
        "entry": 676526,
        "entry_name": "Wailers Ke",
        "event_total": 75,
        "has_played": true,
        "id": 4577185,
        "last_rank": 7592,
        "player_name": "Simon Limo",
        "rank": 3662,
        "rank_sort": 3663,
        "total": 2421
      },
      {
        "club_badge_src": null,
        "entry": 2372094,
        "entry_name": "Rox(en) in the box",
        "event_total": 75,
        "has_played": true,
        "id": 16933687,
        "last_rank": 7592,
        "player_name": "Samuel Granberg",
        "rank": 3662,
        "rank_sort": 3664,
        "total": 2421
      },
      {
        "club_badge_src": null,
        "entry": 3699120,
        "entry_name": "Rocco's",
        "event_total": 69,
        "has_played": true,
        "id": 27599117,
        "last_rank": 5889,
        "player_name": "Rossini Cocca",
        "rank": 3662,
        "rank_sort": 3665,
        "total": 2421
      },
      {
        "club_badge_src": "https://fantasy.premierleague.com/gcs/plfpl-production-adobe-approved/plfpl-production/3955857/64dacb66-00b1-4e8b-923c-7af5d1babe18.png",
        "entry": 3955857,
        "entry_name": "Bombo FC",
        "event_total": 70,
        "has_played": true,
        "id": 29761797,
        "last_rank": 6146,
        "player_name": "Andr\u00e9s Rudolphy",
        "rank": 3662,
        "rank_sort": 3666,
        "total": 2421
      },
      {
        "club_badge_src": "https://fantasy.premierleague.com/gcs/plfpl-production-adobe-approved/plfpl-production/67062/e66e936e-ea04-4ae5-94cc-31ccbd1eea22.png",
        "entry": 67062,
        "entry_name": "Earth Wind & Maguire",
        "event_total": 51,
        "has_played": true,
        "id": 434064,
        "last_rank": 2553,
        "player_name": "Chris Alexander",
        "rank": 3667,
        "rank_sort": 3667,
        "total": 2421
      },
      {
        "club_badge_src": null,
        "entry": 261374,
        "entry_name": "Pink Foxes",
        "event_total": 47,
        "has_played": true,
        "id": 1737514,
        "last_rank": 2068,
        "player_name": "Lois Raym",
        "rank": 3667,
        "rank_sort": 3668,
        "total": 2421
      },
      {
        "club_badge_src": "https://fantasy.premierleague.com/gcs/plfpl-production-adobe-approved/plfpl-production/409173/98165a76-ef57-412b-9673-4b23afe5c75b.png",
        "entry": 409173,
        "entry_name": "Defcondolences",
        "event_total": 40,
        "has_played": true,
        "id": 2743836,
        "last_rank": 1435,
        "player_name": "Zac Brown",
        "rank": 3667,
        "rank_sort": 3669,
        "total": 2421
      },
      {
        "club_badge_src": null,
        "entry": 883883,
        "entry_name": "FC Qingdao Hainiu",
        "event_total": 51,
        "has_played": true,
        "id": 6061742,
        "last_rank": 2526,
        "player_name": "rafael Lin",
        "rank": 3667,
        "rank_sort": 3670,
        "total": 2421
      },
      {
        "club_badge_src": "https://fantasy.premierleague.com/gcs/plfpl-production-adobe-approved/plfpl-production/1251157/13866eb8-3b0d-4cc7-b4b6-5235c39fe62c.png",
        "entry": 1251157,
        "entry_name": "Ginger United",
        "event_total": 58,
        "has_played": true,
        "id": 8689750,
        "last_rank": 3562,
        "player_name": "Zachary Field",
        "rank": 3667,
        "rank_sort": 3671,
        "total": 2421
      },
      {
        "club_badge_src": "https://fantasy.premierleague.com/gcs/plfpl-production-adobe-approved/plfpl-production/1516269/769a8040-2b70-4e09-b21d-9594ac10623b.png",
        "entry": 1516269,
        "entry_name": "\u0424\u041a \u0490\u0456\u043d\u0434\u0436\u0430\u043b (\u0421\u043c\u0456\u043b\u0430)",
        "event_total": 58,
        "has_played": true,
        "id": 10575642,
        "last_rank": 3562,
        "player_name": "Oleg Makarikov",
        "rank": 3667,
        "rank_sort": 3672,
        "total": 2421
      },
      {
        "club_badge_src": null,
        "entry": 1958142,
        "entry_name": "The Professors Squad",
        "event_total": 53,
        "has_played": true,
        "id": 13814006,
        "last_rank": 2802,
        "player_name": "Andy Carruthers",
        "rank": 3667,
        "rank_sort": 3673,
        "total": 2421
      },
      {
        "club_badge_src": null,
        "entry": 1984548,
        "entry_name": "Livin Saliba Loca",
        "event_total": 58,
        "has_played": true,
        "id": 14018106,
        "last_rank": 3528,
        "player_name": "Toby Poole-Wilson",
        "rank": 3667,
        "rank_sort": 3674,
        "total": 2421
      },
      {
        "club_badge_src": null,
        "entry": 2379570,
        "entry_name": "Mlade\u017e HDZ-a",
        "event_total": 57,
        "has_played": true,
        "id": 16991114,
        "last_rank": 3382,
        "player_name": "Vitomir \u0160alamon",
        "rank": 3667,
        "rank_sort": 3675,
        "total": 2421
      },
      {
        "club_badge_src": null,
        "entry": 2542008,
        "entry_name": "Cold Palmer Ballers",
        "event_total": 57,
        "has_played": true,
        "id": 18218529,
        "last_rank": 3382,
        "player_name": "Hubert Babicz",
        "rank": 3667,
        "rank_sort": 3676,
        "total": 2421
      },
      {
        "club_badge_src": null,
        "entry": 5238398,
        "entry_name": "Brewers",
        "event_total": 53,
        "has_played": true,
        "id": 40595107,
        "last_rank": 2802,
        "player_name": "Cameron Hayward",
        "rank": 3667,
        "rank_sort": 3677,
        "total": 2421
      },
      {
        "club_badge_src": null,
        "entry": 5571848,
        "entry_name": "Flick Ball",
        "event_total": 67,
        "has_played": true,
        "id": 43509606,
        "last_rank": 5386,
        "player_name": "Sahil Mirchandani",
        "rank": 3667,
        "rank_sort": 3678,
        "total": 2421
      },
      {
        "club_badge_src": null,
        "entry": 7176685,
        "entry_name": "I Saka bagud",
        "event_total": 65,
        "has_played": true,
        "id": 57915113,
        "last_rank": 4918,
        "player_name": "Marius Kryger Lindh",
        "rank": 3667,
        "rank_sort": 3679,
        "total": 2421
      },
      {
        "club_badge_src": null,
        "entry": 7949763,
        "entry_name": "IAMGUMMYBEAR",
        "event_total": 60,
        "has_played": true,
        "id": 65437188,
        "last_rank": 3866,
        "player_name": "Karim Benjamil",
        "rank": 3667,
        "rank_sort": 3680,
        "total": 2421
      },
      {
        "club_badge_src": null,
        "entry": 7961841,
        "entry_name": "Hanging Chad",
        "event_total": 58,
        "has_played": true,
        "id": 65546593,
        "last_rank": 3528,
        "player_name": "Sagar Ghimire",
        "rank": 3667,
        "rank_sort": 3681,
        "total": 2421
      },
      {
        "club_badge_src": null,
        "entry": 1732,
        "entry_name": "Bogarde Hotspurs",
        "event_total": 66,
        "has_played": true,
        "id": 9649,
        "last_rank": 5135,
        "player_name": "Kjetil Skiftun",
        "rank": 3682,
        "rank_sort": 3682,
        "total": 2421
      },
      {
        "club_badge_src": null,
        "entry": 13485,
        "entry_name": "The Bijol & End-All",
        "event_total": 58,
        "has_played": true,
        "id": 81501,
        "last_rank": 3528,
        "player_name": "Jon Springett",
        "rank": 3682,
        "rank_sort": 3683,
        "total": 2421
      },
      {
        "club_badge_src": "https://fantasy.premierleague.com/gcs/plfpl-production-adobe-approved/plfpl-production/32208/0af519f9-d816-487c-b441-2c5f163e5cc9.png",
        "entry": 32208,
        "entry_name": "Turkish De Ligt",
        "event_total": 68,
        "has_played": true,
        "id": 204754,
        "last_rank": 5688,
        "player_name": "Ferhal Aktulga",
        "rank": 3682,
        "rank_sort": 3684,
        "total": 2421
      },
      {
        "club_badge_src": null,
        "entry": 32574,
        "entry_name": "Kiwi146",
        "event_total": 49,
        "has_played": true,
        "id": 207272,
        "last_rank": 2300,
        "player_name": "Kawin Thanaruengsak",
        "rank": 3682,
        "rank_sort": 3685,
        "total": 2421
      },
      {
        "club_badge_src": null,
        "entry": 59621,
        "entry_name": "Bigdogsreturn",
        "event_total": 76,
        "has_played": true,
        "id": 383946,
        "last_rank": 7979,
        "player_name": "Peter Hamill",
        "rank": 3682,
        "rank_sort": 3686,
        "total": 2421
      },
      {
        "club_badge_src": null,
        "entry": 69716,
        "entry_name": "Slot It To Arne",
        "event_total": 55,
        "has_played": true,
        "id": 452374,
        "last_rank": 3079,
        "player_name": "Michael Giovanni",
        "rank": 3682,
        "rank_sort": 3687,
        "total": 2421
      },
      {
        "club_badge_src": null,
        "entry": 71990,
        "entry_name": "Kinder Mbuemo",
        "event_total": 63,
        "has_played": true,
        "id": 467713,
        "last_rank": 4471,
        "player_name": "Shanjeev Thayaparan",
        "rank": 3682,
        "rank_sort": 3688,
        "total": 2421
      },
      {
        "club_badge_src": null,
        "entry": 78322,
        "entry_name": "The Zirkzees Knees",
        "event_total": 46,
        "has_played": true,
        "id": 509244,
        "last_rank": 1978,
        "player_name": "Alex Howes",
        "rank": 3682,
        "rank_sort": 3689,
        "total": 2421
      },
      {
        "club_badge_src": null,
        "entry": 99695,
        "entry_name": "Mboom Boom Pow",
        "event_total": 55,
        "has_played": true,
        "id": 650770,
        "last_rank": 3066,
        "player_name": "Conor Bishop",
        "rank": 3682,
        "rank_sort": 3690,
        "total": 2421
      },
      {
        "club_badge_src": null,
        "entry": 107196,
        "entry_name": "Eze Peasy",
        "event_total": 61,
        "has_played": true,
        "id": 698799,
        "last_rank": 4062,
        "player_name": "Joe Yusuf",
        "rank": 3682,
        "rank_sort": 3691,
        "total": 2421
      },
      {
        "club_badge_src": null,
        "entry": 139855,
        "entry_name": "Crouch Potato",
        "event_total": 59,
        "has_played": true,
        "id": 913020,
        "last_rank": 3721,
        "player_name": "Kieran Budgett",
        "rank": 3682,
        "rank_sort": 3692,
        "total": 2421
      },
      {
        "club_badge_src": "https://fantasy.premierleague.com/gcs/plfpl-production-adobe-approved/plfpl-production/159425/a4f5313e-dd08-49cf-b3a8-2357074c24f7.png",
        "entry": 159425,
        "entry_name": "Toalie",
        "event_total": 59,
        "has_played": true,
        "id": 1049372,
        "last_rank": 3691,
        "player_name": "David Hood",
        "rank": 3682,
        "rank_sort": 3693,
        "total": 2421
      },
      {
        "club_badge_src": null,
        "entry": 267936,
        "entry_name": "Apple Diouf",
        "event_total": 53,
        "has_played": true,
        "id": 1782453,
        "last_rank": 2802,
        "player_name": "Alfred Champion",
        "rank": 3682,
        "rank_sort": 3694,
        "total": 2421
      },
      {
        "club_badge_src": null,
        "entry": 293103,
        "entry_name": "floryder",
        "event_total": 71,
        "has_played": true,
        "id": 1956292,
        "last_rank": 6409,
        "player_name": "fola Olatunji",
        "rank": 3682,
        "rank_sort": 3695,
        "total": 2421
      },
      {
        "club_badge_src": "https://fantasy.premierleague.com/gcs/plfpl-production-adobe-approved/plfpl-production/308855/a8d36a3e-dc4f-4f49-a5cf-6673fb379922.png",
        "entry": 308855,
        "entry_name": "Alpacas on the Pitch",
        "event_total": 59,
        "has_played": true,
        "id": 2068791,
        "last_rank": 3691,
        "player_name": "Rudi Macias",
        "rank": 3682,
        "rank_sort": 3696,
        "total": 2421
      },
      {
        "club_badge_src": null,
        "entry": 321970,
        "entry_name": "Auto pick fc",
        "event_total": 63,
        "has_played": true,
        "id": 2157742,
        "last_rank": 4515,
        "player_name": "Oladapo Busayo",
        "rank": 3682,
        "rank_sort": 3697,
        "total": 2421
      },
      {
        "club_badge_src": null,
        "entry": 380664,
        "entry_name": "Team Haaland",
        "event_total": 60,
        "has_played": true,
        "id": 2551339,
        "last_rank": 3902,
        "player_name": "Tony Le",
        "rank": 3682,
        "rank_sort": 3698,
        "total": 2421
      },
      {
        "club_badge_src": null,
        "entry": 460273,
        "entry_name": "TBD",
        "event_total": 58,
        "has_played": true,
        "id": 3087607,
        "last_rank": 3528,
        "player_name": "Mani Res",
        "rank": 3682,
        "rank_sort": 3699,
        "total": 2421
      },
      {
        "club_badge_src": null,
        "entry": 653853,
        "entry_name": "Dance Mbeumo Dance",
        "event_total": 53,
        "has_played": true,
        "id": 4418701,
        "last_rank": 2824,
        "player_name": "Htin Thaw",
        "rank": 3682,
        "rank_sort": 3700,
        "total": 2421
      }
    ]
  }
}