{
  "last_updated_data": "2026-05-24T23:28:17Z",
  "league": {
    "admin_entry": null,
    "closed": false,
    "code_privacy": "p",
    "created": "2025-07-20T23:14:33.933835Z",
    "cup_league": 2815434,
    "has_cup": true,
    "id": 314,
    "league_type": "s",
    "max_entries": null,
    "name": "Overall",
    "rank": null,
    "scoring": "c",
    "start_event": 1
  },
  "new_entries": {
    "has_next": false,
    "page": 1,
    "results": []
  },
  "standings": {
    "has_next": true,
    "page": 430,
    "results": [
      {
        "club_badge_src": null,
        "entry": 3048380,
        "entry_name": "Inox Fluid FC",
        "event_total": 66,
        "has_played": true,
        "id": 22440676,
        "last_rank": 28609,
        "player_name": "Tirouven Aran",
        "rank": 21354,
        "rank_sort": 21451,
        "total": 2378
      },
      {
        "club_badge_src": null,
        "entry": 3102622,
        "entry_name": "Adults Sarr Talking",
        "event_total": 59,
        "has_played": true,
        "id": 22875369,
        "last_rank": 22391,
        "player_name": "Aidan Raj",
        "rank": 21354,
        "rank_sort": 21452,
        "total": 2378
      },
      {
        "club_badge_src": null,
        "entry": 3176598,
        "entry_name": "Pinto Fc",
        "event_total": 45,
        "has_played": true,
        "id": 23472148,
        "last_rank": 13257,
        "player_name": "Gon\u00e7alo Pinto",
        "rank": 21354,
        "rank_sort": 21453,
        "total": 2378
      },
      {
        "club_badge_src": null,
        "entry": 3226154,
        "entry_name": "walid boy",
        "event_total": 67,
        "has_played": true,
        "id": 23858487,
        "last_rank": 29688,
        "player_name": "Walid Boy",
        "rank": 21354,
        "rank_sort": 21454,
        "total": 2378
      },
      {
        "club_badge_src": null,
        "entry": 3282272,
        "entry_name": "GOAT",
        "event_total": 38,
        "has_played": true,
        "id": 24295764,
        "last_rank": 9942,
        "player_name": "Neil Johnson",
        "rank": 21354,
        "rank_sort": 21455,
        "total": 2378
      },
      {
        "club_badge_src": null,
        "entry": 3297572,
        "entry_name": "Tommy Template",
        "event_total": 52,
        "has_played": true,
        "id": 24420650,
        "last_rank": 17358,
        "player_name": "Daniel Green",
        "rank": 21354,
        "rank_sort": 21456,
        "total": 2378
      },
      {
        "club_badge_src": null,
        "entry": 3341206,
        "entry_name": "Bazballers",
        "event_total": 66,
        "has_played": true,
        "id": 24782395,
        "last_rank": 28609,
        "player_name": "Mathew Allman",
        "rank": 21354,
        "rank_sort": 21457,
        "total": 2378
      },
      {
        "club_badge_src": null,
        "entry": 3390158,
        "entry_name": "Blinded by DeLigt",
        "event_total": 69,
        "has_played": true,
        "id": 25168038,
        "last_rank": 31620,
        "player_name": "Liam McDermott",
        "rank": 21354,
        "rank_sort": 21458,
        "total": 2378
      },
      {
        "club_badge_src": null,
        "entry": 3654842,
        "entry_name": "King Eric",
        "event_total": 49,
        "has_played": true,
        "id": 27246165,
        "last_rank": 15452,
        "player_name": "Rob Southcombe",
        "rank": 21354,
        "rank_sort": 21459,
        "total": 2378
      },
      {
        "club_badge_src": null,
        "entry": 3741194,
        "entry_name": "Kinder Mbeumo",
        "event_total": 76,
        "has_played": true,
        "id": 27927340,
        "last_rank": 39874,
        "player_name": "Tomislav Luci\u0107",
        "rank": 21354,
        "rank_sort": 21460,
        "total": 2378
      },
      {
        "club_badge_src": null,
        "entry": 3812679,
        "entry_name": "The Cesc Pistols",
        "event_total": 52,
        "has_played": true,
        "id": 28509855,
        "last_rank": 17437,
        "player_name": "Conor O-Brien",
        "rank": 21354,
        "rank_sort": 21461,
        "total": 2378
      },
      {
        "club_badge_src": null,
        "entry": 3844715,
        "entry_name": "p<0.05",
        "event_total": 73,
        "has_played": true,
        "id": 28815942,
        "last_rank": 36348,
        "player_name": "Lage Aas Marthinsen",
        "rank": 21354,
        "rank_sort": 21462,
        "total": 2378
      },
      {
        "club_badge_src": null,
        "entry": 3997779,
        "entry_name": "Nedelja#91",
        "event_total": 72,
        "has_played": true,
        "id": 30108144,
        "last_rank": 35034,
        "player_name": "Igor Nedeljkovic",
        "rank": 21354,
        "rank_sort": 21463,
        "total": 2378
      },
      {
        "club_badge_src": null,
        "entry": 4032435,
        "entry_name": "Firat FC",
        "event_total": 68,
        "has_played": true,
        "id": 30400835,
        "last_rank": 30957,
        "player_name": "Firat Sen",
        "rank": 21354,
        "rank_sort": 21464,
        "total": 2378
      },
      {
        "club_badge_src": null,
        "entry": 4040436,
        "entry_name": "bibou's team",
        "event_total": 59,
        "has_played": true,
        "id": 30469920,
        "last_rank": 22534,
        "player_name": "rabah boufessiou",
        "rank": 21354,
        "rank_sort": 21465,
        "total": 2378
      },
      {
        "club_badge_src": null,
        "entry": 4104564,
        "entry_name": "The Know-Howe",
        "event_total": 45,
        "has_played": true,
        "id": 30996030,
        "last_rank": 13257,
        "player_name": "Tim Jacques",
        "rank": 21354,
        "rank_sort": 21466,
        "total": 2378
      },
      {
        "club_badge_src": "https://fantasy.premierleague.com/gcs/plfpl-production-adobe-approved/plfpl-production/4268487/231768b4-bae5-4818-98e0-8a5060718286.png",
        "entry": 4268487,
        "entry_name": "Kentucky FC",
        "event_total": 68,
        "has_played": true,
        "id": 32367576,
        "last_rank": 30536,
        "player_name": "Ivan Duclaux",
        "rank": 21354,
        "rank_sort": 21467,
        "total": 2378
      },
      {
        "club_badge_src": "https://fantasy.premierleague.com/gcs/plfpl-production-adobe-approved/plfpl-production/4346438/d92bf7df-4b44-4e91-af6a-06c8665eddef.png",
        "entry": 4346438,
        "entry_name": "Boys are back",
        "event_total": 64,
        "has_played": true,
        "id": 33003778,
        "last_rank": 26827,
        "player_name": "Jack Cobain",
        "rank": 21354,
        "rank_sort": 21468,
        "total": 2378
      },
      {
        "club_badge_src": null,
        "entry": 4538384,
        "entry_name": "Bristol's Boys",
        "event_total": 67,
        "has_played": true,
        "id": 34622558,
        "last_rank": 29578,
        "player_name": "David Bristol",
        "rank": 21354,
        "rank_sort": 21469,
        "total": 2378
      },
      {
        "club_badge_src": null,
        "entry": 4541136,
        "entry_name": "sarath gouthgate",
        "event_total": 66,
        "has_played": true,
        "id": 34644514,
        "last_rank": 28609,
        "player_name": "Isaac Stacker",
        "rank": 21354,
        "rank_sort": 21470,
        "total": 2378
      },
      {
        "club_badge_src": "https://fantasy.premierleague.com/gcs/plfpl-production-adobe-approved/plfpl-production/4604555/c70b6682-aad0-43d8-b441-1f9007abf267.png",
        "entry": 4604555,
        "entry_name": "Shandong Snapdragons",
        "event_total": 58,
        "has_played": true,
        "id": 35178258,
        "last_rank": 21677,
        "player_name": "Hynek Kovar",
        "rank": 21354,
        "rank_sort": 21471,
        "total": 2378
      },
      {
        "club_badge_src": null,
        "entry": 4656942,
        "entry_name": "Kante beat me",
        "event_total": 70,
        "has_played": true,
        "id": 35645307,
        "last_rank": 32751,
        "player_name": "Daniel Lawrence",
        "rank": 21354,
        "rank_sort": 21472,
        "total": 2378
      },
      {
        "club_badge_src": null,
        "entry": 4776988,
        "entry_name": "Berregol",
        "event_total": 64,
        "has_played": true,
        "id": 36772161,
        "last_rank": 26710,
        "player_name": "Simon Mattias Tengwall Hansen",
        "rank": 21354,
        "rank_sort": 21473,
        "total": 2378
      },
      {
        "club_badge_src": null,
        "entry": 5073714,
        "entry_name": "Life's Guiud",
        "event_total": 84,
        "has_played": true,
        "id": 39210906,
        "last_rank": 51403,
        "player_name": "James Edwards",
        "rank": 21354,
        "rank_sort": 21474,
        "total": 2378
      },
      {
        "club_badge_src": null,
        "entry": 5158990,
        "entry_name": "djiscooking!",
        "event_total": 59,
        "has_played": true,
        "id": 39919726,
        "last_rank": 22534,
        "player_name": "Isak Mor\u00e9n",
        "rank": 21354,
        "rank_sort": 21475,
        "total": 2378
      },
      {
        "club_badge_src": null,
        "entry": 5206859,
        "entry_name": "JB",
        "event_total": 73,
        "has_played": true,
        "id": 40328664,
        "last_rank": 36348,
        "player_name": "Jay Baj",
        "rank": 21354,
        "rank_sort": 21476,
        "total": 2378
      },
      {
        "club_badge_src": null,
        "entry": 5240561,
        "entry_name": "NewMan United",
        "event_total": 81,
        "has_played": true,
        "id": 40612948,
        "last_rank": 46839,
        "player_name": "Michael Newman",
        "rank": 21354,
        "rank_sort": 21477,
        "total": 2378
      },
      {
        "club_badge_src": null,
        "entry": 5390611,
        "entry_name": "Fandab Edozie",
        "event_total": 57,
        "has_played": true,
        "id": 41908752,
        "last_rank": 20983,
        "player_name": "Elliot Wright",
        "rank": 21354,
        "rank_sort": 21478,
        "total": 2378
      },
      {
        "club_badge_src": "https://fantasy.premierleague.com/gcs/plfpl-production-adobe-approved/plfpl-production/5462870/5a172498-4247-441e-b4a1-717a69ee1aa1.png",
        "entry": 5462870,
        "entry_name": "Bergkampswright",
        "event_total": 63,
        "has_played": true,
        "id": 42515185,
        "last_rank": 25902,
        "player_name": "Charlie Abou-Touma",
        "rank": 21354,
        "rank_sort": 21479,
        "total": 2378
      },
      {
        "club_badge_src": null,
        "entry": 5519972,
        "entry_name": "MLM****",
        "event_total": 66,
        "has_played": true,
        "id": 43042076,
        "last_rank": 28609,
        "player_name": "Keith Byrne",
        "rank": 21354,
        "rank_sort": 21480,
        "total": 2378
      },
      {
        "club_badge_src": null,
        "entry": 5530248,
        "entry_name": "CROmbine Vol.2",
        "event_total": 57,
        "has_played": true,
        "id": 43139497,
        "last_rank": 20983,
        "player_name": "Mijo Mamic",
        "rank": 21354,
        "rank_sort": 21481,
        "total": 2378
      },
      {
        "club_badge_src": null,
        "entry": 5660368,
        "entry_name": "SABI TEAM",
        "event_total": 55,
        "has_played": true,
        "id": 44285225,
        "last_rank": 19544,
        "player_name": "Mochamad Nur Ihsan",
        "rank": 21354,
        "rank_sort": 21482,
        "total": 2378
      },
      {
        "club_badge_src": null,
        "entry": 5667296,
        "entry_name": "Luka Modiji",
        "event_total": 65,
        "has_played": true,
        "id": 44343538,
        "last_rank": 27644,
        "player_name": "Abhimanyu Kukrety",
        "rank": 21354,
        "rank_sort": 21483,
        "total": 2378
      },
      {
        "club_badge_src": null,
        "entry": 5691946,
        "entry_name": "Peaky Reijnders",
        "event_total": 58,
        "has_played": true,
        "id": 44558618,
        "last_rank": 21775,
        "player_name": "Karl Mitchell",
        "rank": 21354,
        "rank_sort": 21484,
        "total": 2378
      },
      {
        "club_badge_src": null,
        "entry": 5827495,
        "entry_name": "Shocko11",
        "event_total": 50,
        "has_played": true,
        "id": 45736220,
        "last_rank": 16163,
        "player_name": "Eoin Oshaughnessy",
        "rank": 21354,
        "rank_sort": 21485,
        "total": 2378
      },
      {
        "club_badge_src": null,
        "entry": 5831297,
        "entry_name": "Kamzor 11",
        "event_total": 72,
        "has_played": true,
        "id": 45769648,
        "last_rank": 35166,
        "player_name": "Nasir Javaid",
        "rank": 21354,
        "rank_sort": 21486,
        "total": 2378
      },
      {
        "club_badge_src": null,
        "entry": 5852857,
        "entry_name": "Simon's Disciples",
        "event_total": 59,
        "has_played": true,
        "id": 45952325,
        "last_rank": 22426,
        "player_name": "Micheal Ryan",
        "rank": 21354,
        "rank_sort": 21487,
        "total": 2378
      },
      {
        "club_badge_src": null,
        "entry": 5904407,
        "entry_name": "Backstreet Moyes",
        "event_total": 51,
        "has_played": true,
        "id": 46390962,
        "last_rank": 16729,
        "player_name": "Harris Wassylko",
        "rank": 21354,
        "rank_sort": 21488,
        "total": 2378
      },
      {
        "club_badge_src": null,
        "entry": 6004013,
        "entry_name": "Brain Damage",
        "event_total": 54,
        "has_played": true,
        "id": 47334102,
        "last_rank": 18790,
        "player_name": "Simen Thorsrud",
        "rank": 21354,
        "rank_sort": 21489,
        "total": 2378
      },
      {
        "club_badge_src": null,
        "entry": 6149233,
        "entry_name": "Masmota FC",
        "event_total": 42,
        "has_played": true,
        "id": 48606572,
        "last_rank": 11821,
        "player_name": "Titus Gatuso",
        "rank": 21354,
        "rank_sort": 21490,
        "total": 2378
      },
      {
        "club_badge_src": null,
        "entry": 6159666,
        "entry_name": "Destiny Ubogie",
        "event_total": 65,
        "has_played": true,
        "id": 48696005,
        "last_rank": 27770,
        "player_name": "Egor Maleev",
        "rank": 21354,
        "rank_sort": 21491,
        "total": 2378
      },
      {
        "club_badge_src": null,
        "entry": 6222192,
        "entry_name": "Quumfer\u2019s Delight",
        "event_total": 68,
        "has_played": true,
        "id": 49235039,
        "last_rank": 30727,
        "player_name": "Richard Greaves",
        "rank": 21354,
        "rank_sort": 21492,
        "total": 2378
      },
      {
        "club_badge_src": "https://fantasy.premierleague.com/gcs/plfpl-production-adobe-approved/plfpl-production/6312181/7c3f57bd-9b6e-463d-a565-8d818e696729.png",
        "entry": 6312181,
        "entry_name": "Pathetico Madrid",
        "event_total": 51,
        "has_played": true,
        "id": 50083380,
        "last_rank": 16807,
        "player_name": "gary pilk",
        "rank": 21354,
        "rank_sort": 21493,
        "total": 2378
      },
      {
        "club_badge_src": null,
        "entry": 6349457,
        "entry_name": "K\u00c5FFA",
        "event_total": 64,
        "has_played": true,
        "id": 50473772,
        "last_rank": 26710,
        "player_name": "Nora Helene \u00d8deg\u00e5rd",
        "rank": 21354,
        "rank_sort": 21494,
        "total": 2378
      },
      {
        "club_badge_src": null,
        "entry": 6420505,
        "entry_name": "Finding Timo",
        "event_total": 59,
        "has_played": true,
        "id": 51102503,
        "last_rank": 22426,
        "player_name": "Laura Peter",
        "rank": 21354,
        "rank_sort": 21495,
        "total": 2378
      },
      {
        "club_badge_src": null,
        "entry": 6428521,
        "entry_name": "Amit_CR",
        "event_total": 44,
        "has_played": true,
        "id": 51172390,
        "last_rank": 12705,
        "player_name": "Amit Kisto",
        "rank": 21354,
        "rank_sort": 21496,
        "total": 2378
      },
      {
        "club_badge_src": null,
        "entry": 6512628,
        "entry_name": "3amer",
        "event_total": 68,
        "has_played": true,
        "id": 51934135,
        "last_rank": 30536,
        "player_name": "Ahmed Amer",
        "rank": 21354,
        "rank_sort": 21497,
        "total": 2378
      },
      {
        "club_badge_src": null,
        "entry": 6541610,
        "entry_name": "by_dogad",
        "event_total": 60,
        "has_played": true,
        "id": 52193005,
        "last_rank": 23230,
        "player_name": "Mikita Molotchko",
        "rank": 21354,
        "rank_sort": 21498,
        "total": 2378
      },
      {
        "club_badge_src": null,
        "entry": 6691654,
        "entry_name": "Class on Grass",
        "event_total": 63,
        "has_played": true,
        "id": 53535334,
        "last_rank": 25776,
        "player_name": "Rowan Newman",
        "rank": 21354,
        "rank_sort": 21499,
        "total": 2378
      },
      {
        "club_badge_src": null,
        "entry": 7291606,
        "entry_name": "she was a fairy",
        "event_total": 62,
        "has_played": true,
        "id": 58998017,
        "last_rank": 24817,
        "player_name": "Kylee Roberts",
        "rank": 21354,
        "rank_sort": 21500,
        "total": 2378
      }
    ]
  }
}