{
  "last_updated_data": "2026-05-24T23:28:17Z",
  "league": {
    "admin_entry": null,
    "closed": false,
    "code_privacy": "p",
    "created": "2025-07-20T23:14:33.933835Z",
    "cup_league": 2815434,
    "has_cup": true,
    "id": 314,
    "league_type": "s",
    "max_entries": null,
    "name": "Overall",
    "rank": null,
    "scoring": "c",
    "start_event": 1
  },
  "new_entries": {
    "has_next": false,
    "page": 1,
    "results": []
  },
  "standings": {
    "has_next": true,
    "page": 1581,
    "results": [
      {
        "club_badge_src": null,
        "entry": 8474,
        "entry_name": "NIKOS (;",
        "event_total": 59,
        "has_played": true,
        "id": 49292,
        "last_rank": 84980,
        "player_name": "Marcin Pietrzak",
        "rank": 79001,
        "rank_sort": 79001,
        "total": 2336
      },
      {
        "club_badge_src": null,
        "entry": 9100,
        "entry_name": "His Name Is Diogo",
        "event_total": 65,
        "has_played": true,
        "id": 53319,
        "last_rank": 99806,
        "player_name": "Michael Bott",
        "rank": 79001,
        "rank_sort": 79002,
        "total": 2336
      },
      {
        "club_badge_src": null,
        "entry": 16654,
        "entry_name": "Amorim Jerb",
        "event_total": 72,
        "has_played": true,
        "id": 102995,
        "last_rank": 107485,
        "player_name": "Will Phillips",
        "rank": 79001,
        "rank_sort": 79003,
        "total": 2336
      },
      {
        "club_badge_src": null,
        "entry": 32324,
        "entry_name": "Arber's Army",
        "event_total": 69,
        "has_played": true,
        "id": 205610,
        "last_rank": 110187,
        "player_name": "Kieran Arber",
        "rank": 79001,
        "rank_sort": 79004,
        "total": 2336
      },
      {
        "club_badge_src": null,
        "entry": 49215,
        "entry_name": "Trash Ops",
        "event_total": 65,
        "has_played": true,
        "id": 316296,
        "last_rank": 89706,
        "player_name": "Andre Wong",
        "rank": 79001,
        "rank_sort": 79005,
        "total": 2336
      },
      {
        "club_badge_src": "https://fantasy.premierleague.com/gcs/plfpl-production-adobe-approved/plfpl-production/61254/84320f5d-845d-4fc1-a430-5efbd6a2a7cb.png",
        "entry": 61254,
        "entry_name": "Mag\u26bd\ufe0f",
        "event_total": 72,
        "has_played": true,
        "id": 394499,
        "last_rank": 86735,
        "player_name": "Mag Chonco",
        "rank": 79001,
        "rank_sort": 79006,
        "total": 2336
      },
      {
        "club_badge_src": null,
        "entry": 71046,
        "entry_name": "WillieFC",
        "event_total": 50,
        "has_played": true,
        "id": 461408,
        "last_rank": 66200,
        "player_name": "Willie Loetzsch",
        "rank": 79001,
        "rank_sort": 79007,
        "total": 2336
      },
      {
        "club_badge_src": null,
        "entry": 86195,
        "entry_name": "Interim Egebay",
        "event_total": 41,
        "has_played": true,
        "id": 561640,
        "last_rank": 44525,
        "player_name": "Alp Gurpinar",
        "rank": 79001,
        "rank_sort": 79008,
        "total": 2336
      },
      {
        "club_badge_src": null,
        "entry": 90987,
        "entry_name": "Eze come Eze go",
        "event_total": 49,
        "has_played": true,
        "id": 594210,
        "last_rank": 57200,
        "player_name": "Pete Bullingham",
        "rank": 79001,
        "rank_sort": 79009,
        "total": 2336
      },
      {
        "club_badge_src": "https://fantasy.premierleague.com/gcs/plfpl-production-adobe-approved/plfpl-production/104736/8f79b3d7-df3c-4137-9d83-2630d8c4fcb4.png",
        "entry": 104736,
        "entry_name": "kardo fc",
        "event_total": 61,
        "has_played": true,
        "id": 683193,
        "last_rank": 89897,
        "player_name": "kardox xoshnaw",
        "rank": 79001,
        "rank_sort": 79010,
        "total": 2336
      },
      {
        "club_badge_src": "https://fantasy.premierleague.com/gcs/plfpl-production-adobe-approved/plfpl-production/105887/1d68931a-5f5e-44bf-9ea9-540a7cf48bbb.png",
        "entry": 105887,
        "entry_name": "Guyl\u00e1cticos",
        "event_total": 50,
        "has_played": true,
        "id": 690519,
        "last_rank": 66200,
        "player_name": "Guy Davis",
        "rank": 79001,
        "rank_sort": 79011,
        "total": 2336
      },
      {
        "club_badge_src": null,
        "entry": 116972,
        "entry_name": "2xChamp",
        "event_total": 52,
        "has_played": true,
        "id": 763572,
        "last_rank": 62223,
        "player_name": "Matt Robson",
        "rank": 79001,
        "rank_sort": 79012,
        "total": 2336
      },
      {
        "club_badge_src": null,
        "entry": 129300,
        "entry_name": "Tod-mere Rovers",
        "event_total": 73,
        "has_played": true,
        "id": 842744,
        "last_rank": 109454,
        "player_name": "Joshua B",
        "rank": 79001,
        "rank_sort": 79013,
        "total": 2336
      },
      {
        "club_badge_src": null,
        "entry": 149738,
        "entry_name": "Abu$ement Park F.C.",
        "event_total": 55,
        "has_played": true,
        "id": 981833,
        "last_rank": 67926,
        "player_name": "Arif Gul",
        "rank": 79001,
        "rank_sort": 79014,
        "total": 2336
      },
      {
        "club_badge_src": null,
        "entry": 157115,
        "entry_name": "Yoro Wissa Harry",
        "event_total": 51,
        "has_played": true,
        "id": 1033496,
        "last_rank": 67926,
        "player_name": "Kwabena Gyamfi",
        "rank": 79001,
        "rank_sort": 79015,
        "total": 2336
      },
      {
        "club_badge_src": null,
        "entry": 177189,
        "entry_name": "Nie mam poj\u0119cia",
        "event_total": 56,
        "has_played": true,
        "id": 1169514,
        "last_rank": 78440,
        "player_name": "Rafal Czech",
        "rank": 79001,
        "rank_sort": 79016,
        "total": 2336
      },
      {
        "club_badge_src": "https://fantasy.premierleague.com/gcs/plfpl-production-adobe-approved/plfpl-production/180017/c8db248e-afa6-4639-a893-96fff6493f10.png",
        "entry": 180017,
        "entry_name": "Wirtz Nightmare",
        "event_total": 47,
        "has_played": true,
        "id": 1187950,
        "last_rank": 60827,
        "player_name": "Alex Dowd",
        "rank": 79001,
        "rank_sort": 79017,
        "total": 2336
      },
      {
        "club_badge_src": null,
        "entry": 190761,
        "entry_name": "Botman Begins",
        "event_total": 68,
        "has_played": true,
        "id": 1263343,
        "last_rank": 107162,
        "player_name": "Rhys Etheridge",
        "rank": 79001,
        "rank_sort": 79018,
        "total": 2336
      },
      {
        "club_badge_src": null,
        "entry": 197010,
        "entry_name": "Mamadou the Hump",
        "event_total": 59,
        "has_played": true,
        "id": 1307080,
        "last_rank": 85207,
        "player_name": "Ben Miles",
        "rank": 79001,
        "rank_sort": 79019,
        "total": 2336
      },
      {
        "club_badge_src": null,
        "entry": 199800,
        "entry_name": "Forever 20",
        "event_total": 34,
        "has_played": true,
        "id": 1326123,
        "last_rank": 40770,
        "player_name": "Corey Wong",
        "rank": 79001,
        "rank_sort": 79020,
        "total": 2336
      },
      {
        "club_badge_src": null,
        "entry": 201264,
        "entry_name": "Wirtz the problem?",
        "event_total": 58,
        "has_played": true,
        "id": 1336298,
        "last_rank": 73975,
        "player_name": "Kanaghavel Letchumanan",
        "rank": 79001,
        "rank_sort": 79021,
        "total": 2336
      },
      {
        "club_badge_src": null,
        "entry": 221296,
        "entry_name": "Crouch Potato",
        "event_total": 53,
        "has_played": true,
        "id": 1471825,
        "last_rank": 71956,
        "player_name": "william dunnett",
        "rank": 79001,
        "rank_sort": 79022,
        "total": 2336
      },
      {
        "club_badge_src": "https://fantasy.premierleague.com/gcs/plfpl-production-adobe-approved/plfpl-production/230982/4c541d52-ca9e-4cb8-bb8d-ebe74f95daab.png",
        "entry": 230982,
        "entry_name": "Cunha win the lot!",
        "event_total": 49,
        "has_played": true,
        "id": 1536717,
        "last_rank": 64319,
        "player_name": "Rhys Samuels",
        "rank": 79001,
        "rank_sort": 79023,
        "total": 2336
      },
      {
        "club_badge_src": null,
        "entry": 294046,
        "entry_name": "Feaver Las Vegas",
        "event_total": 54,
        "has_played": true,
        "id": 1963145,
        "last_rank": 66057,
        "player_name": "Jamie Feaver",
        "rank": 79001,
        "rank_sort": 79024,
        "total": 2336
      },
      {
        "club_badge_src": null,
        "entry": 304481,
        "entry_name": "Peck All*Stars",
        "event_total": 62,
        "has_played": true,
        "id": 2038635,
        "last_rank": 82398,
        "player_name": "Jon Peck",
        "rank": 79001,
        "rank_sort": 79025,
        "total": 2336
      },
      {
        "club_badge_src": "https://fantasy.premierleague.com/gcs/plfpl-production-adobe-approved/plfpl-production/317824/b98911e7-82ad-49b4-98bd-cc45dbd2a382.png",
        "entry": 317824,
        "entry_name": "Patzl FC",
        "event_total": 69,
        "has_played": true,
        "id": 2130365,
        "last_rank": 99596,
        "player_name": "Nicholas Patzl Delfino",
        "rank": 79001,
        "rank_sort": 79026,
        "total": 2336
      },
      {
        "club_badge_src": null,
        "entry": 322595,
        "entry_name": "Wirtz Case Scenario",
        "event_total": 61,
        "has_played": true,
        "id": 2161772,
        "last_rank": 71713,
        "player_name": "Jeremy Leibovitch",
        "rank": 79001,
        "rank_sort": 79027,
        "total": 2336
      },
      {
        "club_badge_src": null,
        "entry": 330631,
        "entry_name": "Swedish Scouse Mafia",
        "event_total": 59,
        "has_played": true,
        "id": 2214602,
        "last_rank": 84980,
        "player_name": "Hannes Lennartsson",
        "rank": 79001,
        "rank_sort": 79028,
        "total": 2336
      },
      {
        "club_badge_src": "https://fantasy.premierleague.com/gcs/plfpl-production-adobe-approved/plfpl-production/341323/41b0ce68-4bb1-410b-b303-484dbc536333.png",
        "entry": 341323,
        "entry_name": "Kulusevski&Iknowit",
        "event_total": 50,
        "has_played": true,
        "id": 2284665,
        "last_rank": 58911,
        "player_name": "Eric Blomquist",
        "rank": 79001,
        "rank_sort": 79029,
        "total": 2336
      },
      {
        "club_badge_src": null,
        "entry": 465535,
        "entry_name": "Dubrava Zagreb",
        "event_total": 33,
        "has_played": true,
        "id": 3123162,
        "last_rank": 34578,
        "player_name": "Filip Budimir",
        "rank": 79001,
        "rank_sort": 79030,
        "total": 2336
      },
      {
        "club_badge_src": null,
        "entry": 465629,
        "entry_name": "IrishRI",
        "event_total": 59,
        "has_played": true,
        "id": 3123810,
        "last_rank": 75537,
        "player_name": "Robert Hennigan",
        "rank": 79001,
        "rank_sort": 79031,
        "total": 2336
      },
      {
        "club_badge_src": null,
        "entry": 466651,
        "entry_name": "WAFC_Dylan01",
        "event_total": 57,
        "has_played": true,
        "id": 3131069,
        "last_rank": 80651,
        "player_name": "Dylan Hill",
        "rank": 79001,
        "rank_sort": 79032,
        "total": 2336
      },
      {
        "club_badge_src": "https://fantasy.premierleague.com/gcs/plfpl-production-adobe-approved/plfpl-production/477641/0b2d45d3-d89f-46c9-8fe5-5e2e001a5e58.png",
        "entry": 477641,
        "entry_name": "Scrums Shinkickers",
        "event_total": 58,
        "has_played": true,
        "id": 3206582,
        "last_rank": 82873,
        "player_name": "steve Spencer",
        "rank": 79001,
        "rank_sort": 79033,
        "total": 2336
      },
      {
        "club_badge_src": null,
        "entry": 530599,
        "entry_name": "Adaz FC",
        "event_total": 66,
        "has_played": true,
        "id": 3568390,
        "last_rank": 91835,
        "player_name": "ABDULRAHEEM MUSA ADAVIZE",
        "rank": 79001,
        "rank_sort": 79034,
        "total": 2336
      },
      {
        "club_badge_src": "https://fantasy.premierleague.com/gcs/plfpl-production-adobe-approved/plfpl-production/589491/183a702c-675d-4163-9881-c98129338a6e.png",
        "entry": 589491,
        "entry_name": "Chamsou kr",
        "event_total": 68,
        "has_played": true,
        "id": 3970382,
        "last_rank": 107702,
        "player_name": "ElChouu 23i",
        "rank": 79001,
        "rank_sort": 79035,
        "total": 2336
      },
      {
        "club_badge_src": null,
        "entry": 681337,
        "entry_name": "Bende van Bram",
        "event_total": 55,
        "has_played": true,
        "id": 4610904,
        "last_rank": 76330,
        "player_name": "Bram Pasteleurs",
        "rank": 79001,
        "rank_sort": 79036,
        "total": 2336
      },
      {
        "club_badge_src": null,
        "entry": 686311,
        "entry_name": "What the ruck?",
        "event_total": 53,
        "has_played": true,
        "id": 4645746,
        "last_rank": 71956,
        "player_name": "Mark Troman",
        "rank": 79001,
        "rank_sort": 79037,
        "total": 2336
      },
      {
        "club_badge_src": null,
        "entry": 691117,
        "entry_name": "Fjell-kam",
        "event_total": 53,
        "has_played": true,
        "id": 4680116,
        "last_rank": 64190,
        "player_name": "Morten Simonsen",
        "rank": 79001,
        "rank_sort": 79038,
        "total": 2336
      },
      {
        "club_badge_src": null,
        "entry": 692165,
        "entry_name": "FFSaka",
        "event_total": 67,
        "has_played": true,
        "id": 4687472,
        "last_rank": 104941,
        "player_name": "Keith Jones",
        "rank": 79001,
        "rank_sort": 79039,
        "total": 2336
      },
      {
        "club_badge_src": null,
        "entry": 703724,
        "entry_name": "Bannertime",
        "event_total": 70,
        "has_played": true,
        "id": 4768665,
        "last_rank": 113223,
        "player_name": "George Banfield",
        "rank": 79001,
        "rank_sort": 79040,
        "total": 2336
      },
      {
        "club_badge_src": null,
        "entry": 726646,
        "entry_name": "ayew stoopid",
        "event_total": 51,
        "has_played": true,
        "id": 4936195,
        "last_rank": 68107,
        "player_name": "Yashas Jain",
        "rank": 79001,
        "rank_sort": 79041,
        "total": 2336
      },
      {
        "club_badge_src": null,
        "entry": 742532,
        "entry_name": "Toonali FC",
        "event_total": 47,
        "has_played": true,
        "id": 5050631,
        "last_rank": 60827,
        "player_name": "Mark Ross",
        "rank": 79001,
        "rank_sort": 79042,
        "total": 2336
      },
      {
        "club_badge_src": null,
        "entry": 744024,
        "entry_name": "GrannyBashers69",
        "event_total": 64,
        "has_played": true,
        "id": 5061118,
        "last_rank": 97305,
        "player_name": "Big Bucks",
        "rank": 79001,
        "rank_sort": 79043,
        "total": 2336
      },
      {
        "club_badge_src": null,
        "entry": 777197,
        "entry_name": "\u1e9e\u0125\u00e3\u0142b\u00ff",
        "event_total": 71,
        "has_played": true,
        "id": 5303078,
        "last_rank": 115421,
        "player_name": "Mostafa Shalby",
        "rank": 79001,
        "rank_sort": 79044,
        "total": 2336
      },
      {
        "club_badge_src": null,
        "entry": 811221,
        "entry_name": "Livin Viduka Loca",
        "event_total": 68,
        "has_played": true,
        "id": 5554282,
        "last_rank": 107485,
        "player_name": "Timothy Ng",
        "rank": 79001,
        "rank_sort": 79045,
        "total": 2336
      },
      {
        "club_badge_src": null,
        "entry": 823011,
        "entry_name": "ABCDE FC",
        "event_total": 65,
        "has_played": true,
        "id": 5636608,
        "last_rank": 89706,
        "player_name": "John Holdsworth",
        "rank": 79001,
        "rank_sort": 79046,
        "total": 2336
      },
      {
        "club_badge_src": null,
        "entry": 841668,
        "entry_name": "Me Droogs",
        "event_total": 59,
        "has_played": true,
        "id": 5766696,
        "last_rank": 85207,
        "player_name": "Chico USA",
        "rank": 79001,
        "rank_sort": 79047,
        "total": 2336
      },
      {
        "club_badge_src": null,
        "entry": 922907,
        "entry_name": "HaCunha Mateta",
        "event_total": 59,
        "has_played": true,
        "id": 6347637,
        "last_rank": 67695,
        "player_name": "Garreth Waren",
        "rank": 79001,
        "rank_sort": 79048,
        "total": 2336
      },
      {
        "club_badge_src": null,
        "entry": 928656,
        "entry_name": "Krem's Gunners",
        "event_total": 59,
        "has_played": true,
        "id": 6389588,
        "last_rank": 84980,
        "player_name": "Ivan Krem zlatanovski",
        "rank": 79001,
        "rank_sort": 79049,
        "total": 2336
      },
      {
        "club_badge_src": "https://fantasy.premierleague.com/gcs/plfpl-production-adobe-approved/plfpl-production/937300/41a23c2a-e9a4-4fc5-b5b6-5603102ed40e.png",
        "entry": 937300,
        "entry_name": "AJO",
        "event_total": 47,
        "has_played": true,
        "id": 6450832,
        "last_rank": 60933,
        "player_name": "Ahmed Joseph",
        "rank": 79001,
        "rank_sort": 79050,
        "total": 2336
      }
    ]
  }
}