{
  "last_updated_data": "2026-05-24T23:28:17Z",
  "league": {
    "admin_entry": null,
    "closed": false,
    "code_privacy": "p",
    "created": "2025-07-20T23:14:33.933835Z",
    "cup_league": 2815434,
    "has_cup": true,
    "id": 314,
    "league_type": "s",
    "max_entries": null,
    "name": "Overall",
    "rank": null,
    "scoring": "c",
    "start_event": 1
  },
  "new_entries": {
    "has_next": false,
    "page": 1,
    "results": []
  },
  "standings": {
    "has_next": true,
    "page": 175,
    "results": [
      {
        "club_badge_src": null,
        "entry": 1078171,
        "entry_name": "Beef Cherki",
        "event_total": 54,
        "has_played": true,
        "id": 7465316,
        "last_rank": 7237,
        "player_name": "James Dawkins",
        "rank": 8683,
        "rank_sort": 8701,
        "total": 2402
      },
      {
        "club_badge_src": null,
        "entry": 1240196,
        "entry_name": "Forward the reds",
        "event_total": 57,
        "has_played": true,
        "id": 8613132,
        "last_rank": 8198,
        "player_name": "Alain Marfurt",
        "rank": 8683,
        "rank_sort": 8702,
        "total": 2402
      },
      {
        "club_badge_src": null,
        "entry": 1259800,
        "entry_name": "Daisy_Duke",
        "event_total": 68,
        "has_played": true,
        "id": 8750789,
        "last_rank": 10992,
        "player_name": "Ivan Albert",
        "rank": 8683,
        "rank_sort": 8703,
        "total": 2402
      },
      {
        "club_badge_src": null,
        "entry": 1449192,
        "entry_name": "Free Palestine",
        "event_total": 67,
        "has_played": true,
        "id": 10098082,
        "last_rank": 12420,
        "player_name": "youssef kammoun",
        "rank": 8683,
        "rank_sort": 8704,
        "total": 2402
      },
      {
        "club_badge_src": null,
        "entry": 1506382,
        "entry_name": "Dunk and Disorderly",
        "event_total": 53,
        "has_played": true,
        "id": 10505905,
        "last_rank": 6927,
        "player_name": "Dave Rossell",
        "rank": 8683,
        "rank_sort": 8705,
        "total": 2402
      },
      {
        "club_badge_src": null,
        "entry": 1626983,
        "entry_name": "FCB",
        "event_total": 53,
        "has_played": true,
        "id": 11387809,
        "last_rank": 5792,
        "player_name": "FCB KwT",
        "rank": 8683,
        "rank_sort": 8706,
        "total": 2402
      },
      {
        "club_badge_src": null,
        "entry": 2320280,
        "entry_name": "EatSleepRepeat",
        "event_total": 61,
        "has_played": true,
        "id": 16552249,
        "last_rank": 9751,
        "player_name": "Darragh Moloney",
        "rank": 8683,
        "rank_sort": 8707,
        "total": 2402
      },
      {
        "club_badge_src": null,
        "entry": 2362372,
        "entry_name": "Change Name",
        "event_total": 38,
        "has_played": true,
        "id": 16859976,
        "last_rank": 3473,
        "player_name": "Jamie Lawrence-Craig",
        "rank": 8683,
        "rank_sort": 8708,
        "total": 2402
      },
      {
        "club_badge_src": null,
        "entry": 2369571,
        "entry_name": "Dynamo Teuchter",
        "event_total": 34,
        "has_played": true,
        "id": 16914895,
        "last_rank": 2907,
        "player_name": "Calum Cowie",
        "rank": 8683,
        "rank_sort": 8709,
        "total": 2402
      },
      {
        "club_badge_src": null,
        "entry": 2761607,
        "entry_name": "\u00c4lvsj\u00f6 United",
        "event_total": 56,
        "has_played": true,
        "id": 20146823,
        "last_rank": 7822,
        "player_name": "Stefan Bergfors",
        "rank": 8683,
        "rank_sort": 8710,
        "total": 2402
      },
      {
        "club_badge_src": null,
        "entry": 3086729,
        "entry_name": "Zetterlundens BK",
        "event_total": 50,
        "has_played": true,
        "id": 22742427,
        "last_rank": 6094,
        "player_name": "Martin Zetterlund",
        "rank": 8683,
        "rank_sort": 8711,
        "total": 2402
      },
      {
        "club_badge_src": null,
        "entry": 3200830,
        "entry_name": "OhCampione20",
        "event_total": 57,
        "has_played": true,
        "id": 23660807,
        "last_rank": 8198,
        "player_name": "Paul Robinson",
        "rank": 8683,
        "rank_sort": 8712,
        "total": 2402
      },
      {
        "club_badge_src": null,
        "entry": 5876530,
        "entry_name": "Nonya Business",
        "event_total": 53,
        "has_played": true,
        "id": 46159126,
        "last_rank": 6887,
        "player_name": "Nonya Busi",
        "rank": 8683,
        "rank_sort": 8713,
        "total": 2402
      },
      {
        "club_badge_src": "https://fantasy.premierleague.com/gcs/plfpl-production-adobe-approved/plfpl-production/7882070/fd266e1b-0fc4-404e-a082-1a0368e0b3e1.png",
        "entry": 7882070,
        "entry_name": "Captain Maged!",
        "event_total": 66,
        "has_played": true,
        "id": 64822624,
        "last_rank": 10102,
        "player_name": "Ahmed Maged",
        "rank": 8683,
        "rank_sort": 8714,
        "total": 2402
      },
      {
        "club_badge_src": "https://fantasy.premierleague.com/gcs/plfpl-production-adobe-approved/plfpl-production/3477/9d64d375-7b03-40df-bbff-a39e74ec19d3.png",
        "entry": 3477,
        "entry_name": "Rutter Woke Nonsense",
        "event_total": 62,
        "has_played": true,
        "id": 19706,
        "last_rank": 8591,
        "player_name": "Adam Elliott",
        "rank": 8715,
        "rank_sort": 8715,
        "total": 2402
      },
      {
        "club_badge_src": "https://fantasy.premierleague.com/gcs/plfpl-production-adobe-approved/plfpl-production/11689/3aa32dfa-63fe-4498-87cd-5411a60653ab.png",
        "entry": 11689,
        "entry_name": "M.Fawzy",
        "event_total": 40,
        "has_played": true,
        "id": 69572,
        "last_rank": 3192,
        "player_name": "Muhammad Fawzy",
        "rank": 8715,
        "rank_sort": 8716,
        "total": 2402
      },
      {
        "club_badge_src": "https://fantasy.premierleague.com/gcs/plfpl-production-adobe-approved/plfpl-production/15940/57bb69d7-ff6e-4eeb-a255-4e39b280a8f2.png",
        "entry": 15940,
        "entry_name": "\u8f6e\u8f6e\u7eff\u7bad\u5934",
        "event_total": 67,
        "has_played": true,
        "id": 98209,
        "last_rank": 12470,
        "player_name": "\u4f26\u6566\u552f\u4e00 \u6b27\u6d32\u51a0\u519b",
        "rank": 8715,
        "rank_sort": 8717,
        "total": 2402
      },
      {
        "club_badge_src": null,
        "entry": 26057,
        "entry_name": "Dziady_FPL",
        "event_total": 58,
        "has_played": true,
        "id": 164773,
        "last_rank": 7237,
        "player_name": "Maciej Witkowski",
        "rank": 8715,
        "rank_sort": 8718,
        "total": 2402
      },
      {
        "club_badge_src": "https://fantasy.premierleague.com/gcs/plfpl-production-adobe-approved/plfpl-production/26622/410d1b62-b0ae-4643-9eef-ae24b254a3ef.png",
        "entry": 26622,
        "entry_name": "Peaky Reijnders",
        "event_total": 78,
        "has_played": true,
        "id": 168318,
        "last_rank": 16441,
        "player_name": "Shashwat Gupta",
        "rank": 8715,
        "rank_sort": 8719,
        "total": 2402
      },
      {
        "club_badge_src": null,
        "entry": 91581,
        "entry_name": "Rubber Digne Rapids",
        "event_total": 58,
        "has_played": true,
        "id": 598242,
        "last_rank": 8591,
        "player_name": "Jon Eykyn",
        "rank": 8715,
        "rank_sort": 8720,
        "total": 2402
      },
      {
        "club_badge_src": null,
        "entry": 96473,
        "entry_name": "Dives",
        "event_total": 47,
        "has_played": true,
        "id": 630246,
        "last_rank": 5335,
        "player_name": "Stefan Magee",
        "rank": 8715,
        "rank_sort": 8721,
        "total": 2402
      },
      {
        "club_badge_src": null,
        "entry": 145812,
        "entry_name": "\u0647\u0643\u0633\u0628\u0647\u0627 \u0641\u0649 \u0645\u0631\u0629",
        "event_total": 64,
        "has_played": true,
        "id": 955044,
        "last_rank": 9350,
        "player_name": "Hussein Mohamed",
        "rank": 8715,
        "rank_sort": 8722,
        "total": 2402
      },
      {
        "club_badge_src": "https://fantasy.premierleague.com/gcs/plfpl-production-adobe-approved/plfpl-production/178522/3737b2df-1fee-43ef-8c80-446b48c818e7.png",
        "entry": 178522,
        "entry_name": "Cheeky Reijnders",
        "event_total": 50,
        "has_played": true,
        "id": 1178225,
        "last_rank": 4186,
        "player_name": "Rob Bryant",
        "rank": 8715,
        "rank_sort": 8723,
        "total": 2402
      },
      {
        "club_badge_src": null,
        "entry": 274545,
        "entry_name": "DAY VINE",
        "event_total": 57,
        "has_played": true,
        "id": 1826856,
        "last_rank": 6927,
        "player_name": "KOMBA JONATHAN J MATTIA",
        "rank": 8715,
        "rank_sort": 8724,
        "total": 2402
      },
      {
        "club_badge_src": null,
        "entry": 417509,
        "entry_name": "Iron man",
        "event_total": 47,
        "has_played": true,
        "id": 2798715,
        "last_rank": 4413,
        "player_name": "Helge Darrud",
        "rank": 8715,
        "rank_sort": 8725,
        "total": 2402
      },
      {
        "club_badge_src": null,
        "entry": 626704,
        "entry_name": "Make it WirtzSoGood",
        "event_total": 66,
        "has_played": true,
        "id": 4235035,
        "last_rank": 11999,
        "player_name": "Peter PackSousarias",
        "rank": 8715,
        "rank_sort": 8726,
        "total": 2402
      },
      {
        "club_badge_src": null,
        "entry": 649681,
        "entry_name": "Scary Bad Haircut",
        "event_total": 59,
        "has_played": true,
        "id": 4390692,
        "last_rank": 8999,
        "player_name": "Ray Johnson",
        "rank": 8715,
        "rank_sort": 8727,
        "total": 2402
      },
      {
        "club_badge_src": null,
        "entry": 852633,
        "entry_name": "Eki_Aki_Ria FC",
        "event_total": 56,
        "has_played": true,
        "id": 5844243,
        "last_rank": 7891,
        "player_name": "Mersland Radoncic",
        "rank": 8715,
        "rank_sort": 8728,
        "total": 2402
      },
      {
        "club_badge_src": "https://fantasy.premierleague.com/gcs/plfpl-production-adobe-approved/plfpl-production/1361731/cb7cf491-8cb0-4c71-addd-cf0377e4a83e.png",
        "entry": 1361731,
        "entry_name": "Wgans Town",
        "event_total": 62,
        "has_played": true,
        "id": 9465488,
        "last_rank": 8591,
        "player_name": "William Anscombe",
        "rank": 8715,
        "rank_sort": 8729,
        "total": 2402
      },
      {
        "club_badge_src": null,
        "entry": 1954020,
        "entry_name": "\u0623\u0645\u064a\u0640\u0640\u0631",
        "event_total": 72,
        "has_played": true,
        "id": 13784232,
        "last_rank": 15280,
        "player_name": "Amir Gamal",
        "rank": 8715,
        "rank_sort": 8730,
        "total": 2402
      },
      {
        "club_badge_src": null,
        "entry": 3505698,
        "entry_name": "tifasQuad",
        "event_total": 45,
        "has_played": true,
        "id": 26079700,
        "last_rank": 4007,
        "player_name": "abdelatif merah",
        "rank": 8715,
        "rank_sort": 8731,
        "total": 2402
      },
      {
        "club_badge_src": "https://fantasy.premierleague.com/gcs/plfpl-production-adobe-approved/plfpl-production/5185703/0ddefccf-7172-45aa-955f-1d6efd6479e8.png",
        "entry": 5185703,
        "entry_name": "Atlas Lions FC",
        "event_total": 69,
        "has_played": true,
        "id": 40142751,
        "last_rank": 11482,
        "player_name": "ElHoussine Talb",
        "rank": 8715,
        "rank_sort": 8732,
        "total": 2402
      },
      {
        "club_badge_src": null,
        "entry": 6992750,
        "entry_name": "Kungfulzz",
        "event_total": 56,
        "has_played": true,
        "id": 56135933,
        "last_rank": 7822,
        "player_name": "Kungz Ptmk",
        "rank": 8715,
        "rank_sort": 8733,
        "total": 2402
      },
      {
        "club_badge_src": "https://fantasy.premierleague.com/gcs/plfpl-production-adobe-approved/plfpl-production/38182/d775e1af-779c-4ec0-8714-1358267dff03.png",
        "entry": 38182,
        "entry_name": "Galaxy 25/26",
        "event_total": 68,
        "has_played": true,
        "id": 244695,
        "last_rank": 11058,
        "player_name": "Riste Durdubakov",
        "rank": 8734,
        "rank_sort": 8734,
        "total": 2402
      },
      {
        "club_badge_src": null,
        "entry": 67460,
        "entry_name": "De bruyne Ultimatum",
        "event_total": 64,
        "has_played": true,
        "id": 436764,
        "last_rank": 7863,
        "player_name": "Liam Venimore",
        "rank": 8734,
        "rank_sort": 8735,
        "total": 2402
      },
      {
        "club_badge_src": "https://fantasy.premierleague.com/gcs/plfpl-production-adobe-approved/plfpl-production/215133/8d4e6002-aa68-40b7-a730-ef0cba8191fc.png",
        "entry": 215133,
        "entry_name": "Captain Blanko",
        "event_total": 67,
        "has_played": true,
        "id": 1431002,
        "last_rank": 12512,
        "player_name": "Nick Moss",
        "rank": 8734,
        "rank_sort": 8736,
        "total": 2402
      },
      {
        "club_badge_src": null,
        "entry": 324503,
        "entry_name": "Lui Fc",
        "event_total": 71,
        "has_played": true,
        "id": 2174459,
        "last_rank": 14668,
        "player_name": "Loui Marak",
        "rank": 8734,
        "rank_sort": 8737,
        "total": 2402
      },
      {
        "club_badge_src": null,
        "entry": 465952,
        "entry_name": "aWard Winners",
        "event_total": 67,
        "has_played": true,
        "id": 3126127,
        "last_rank": 10629,
        "player_name": "Ben Ward",
        "rank": 8734,
        "rank_sort": 8738,
        "total": 2402
      },
      {
        "club_badge_src": null,
        "entry": 571945,
        "entry_name": "Wombles United",
        "event_total": 70,
        "has_played": true,
        "id": 3849188,
        "last_rank": 10151,
        "player_name": "Daniel Shaw-Stewart",
        "rank": 8734,
        "rank_sort": 8739,
        "total": 2402
      },
      {
        "club_badge_src": null,
        "entry": 1895186,
        "entry_name": "FC Madipakkam",
        "event_total": 65,
        "has_played": true,
        "id": 13358057,
        "last_rank": 9775,
        "player_name": "Venkatesh-Adithya SHREEDHARAN",
        "rank": 8734,
        "rank_sort": 8740,
        "total": 2402
      },
      {
        "club_badge_src": null,
        "entry": 2012935,
        "entry_name": "One 168 Fc",
        "event_total": 69,
        "has_played": true,
        "id": 14234236,
        "last_rank": 11516,
        "player_name": "RATANAPONG JUNMA",
        "rank": 8734,
        "rank_sort": 8741,
        "total": 2402
      },
      {
        "club_badge_src": null,
        "entry": 2101637,
        "entry_name": "26&10#ChickenBanana",
        "event_total": 63,
        "has_played": true,
        "id": 14913696,
        "last_rank": 8999,
        "player_name": "Joshua L",
        "rank": 8734,
        "rank_sort": 8742,
        "total": 2402
      },
      {
        "club_badge_src": null,
        "entry": 2408122,
        "entry_name": "Rayan Of Terror",
        "event_total": 54,
        "has_played": true,
        "id": 17212951,
        "last_rank": 7274,
        "player_name": "James Clifford",
        "rank": 8734,
        "rank_sort": 8743,
        "total": 2402
      },
      {
        "club_badge_src": null,
        "entry": 2645324,
        "entry_name": "Jan Olejko",
        "event_total": 57,
        "has_played": true,
        "id": 19013347,
        "last_rank": 6927,
        "player_name": "Kamil Ciupks",
        "rank": 8734,
        "rank_sort": 8744,
        "total": 2402
      },
      {
        "club_badge_src": null,
        "entry": 4569463,
        "entry_name": "FC Forkert Kaptajn",
        "event_total": 64,
        "has_played": true,
        "id": 34872297,
        "last_rank": 11058,
        "player_name": "Phillip Buhl",
        "rank": 8734,
        "rank_sort": 8745,
        "total": 2402
      },
      {
        "club_badge_src": null,
        "entry": 5288409,
        "entry_name": "SCOOP",
        "event_total": 66,
        "has_played": true,
        "id": 40992100,
        "last_rank": 10173,
        "player_name": "Partho Shah",
        "rank": 8734,
        "rank_sort": 8746,
        "total": 2402
      },
      {
        "club_badge_src": null,
        "entry": 5721873,
        "entry_name": "Cotas FC",
        "event_total": 51,
        "has_played": true,
        "id": 44819097,
        "last_rank": 5313,
        "player_name": "Martim Coutinho",
        "rank": 8734,
        "rank_sort": 8747,
        "total": 2402
      },
      {
        "club_badge_src": null,
        "entry": 7356206,
        "entry_name": "Winner Takes Tindall",
        "event_total": 58,
        "has_played": true,
        "id": 59606462,
        "last_rank": 7257,
        "player_name": "Derek Wray",
        "rank": 8734,
        "rank_sort": 8748,
        "total": 2402
      },
      {
        "club_badge_src": null,
        "entry": 41702,
        "entry_name": "Palmer Pumps Points",
        "event_total": 65,
        "has_played": true,
        "id": 267213,
        "last_rank": 6927,
        "player_name": "Yew Chun Choong",
        "rank": 8749,
        "rank_sort": 8749,
        "total": 2402
      },
      {
        "club_badge_src": "https://fantasy.premierleague.com/gcs/plfpl-production-adobe-approved/plfpl-production/860369/ab5d9940-5c5b-4220-b86a-34819bbfe0da.png",
        "entry": 860369,
        "entry_name": "Nasuri Alashiby",
        "event_total": 75,
        "has_played": true,
        "id": 5897842,
        "last_rank": 12512,
        "player_name": "\u0646\u0635\u0648\u0631\u064a \u0627\u0644\u0639\u0634\u064a\u0628\u064a",
        "rank": 8749,
        "rank_sort": 8750,
        "total": 2402
      }
    ]
  }
}