{
  "last_updated_data": "2026-05-24T23:28:17Z",
  "league": {
    "admin_entry": null,
    "closed": false,
    "code_privacy": "p",
    "created": "2025-07-20T23:14:33.933835Z",
    "cup_league": 2815434,
    "has_cup": true,
    "id": 314,
    "league_type": "s",
    "max_entries": null,
    "name": "Overall",
    "rank": null,
    "scoring": "c",
    "start_event": 1
  },
  "new_entries": {
    "has_next": false,
    "page": 1,
    "results": []
  },
  "standings": {
    "has_next": true,
    "page": 1250,
    "results": [
      {
        "club_badge_src": null,
        "entry": 44329,
        "entry_name": "Allinone",
        "event_total": 35,
        "has_played": true,
        "id": 284091,
        "last_rank": 31747,
        "player_name": "siddharth jain",
        "rank": 62426,
        "rank_sort": 62451,
        "total": 2344
      },
      {
        "club_badge_src": "https://fantasy.premierleague.com/gcs/plfpl-production-adobe-approved/plfpl-production/48408/8744254e-e17a-490c-b867-c6506d31be36.png",
        "entry": 48408,
        "entry_name": "Mart\u00ed's Angels",
        "event_total": 53,
        "has_played": true,
        "id": 310847,
        "last_rank": 56369,
        "player_name": "Slane \ud83e\udd8a",
        "rank": 62426,
        "rank_sort": 62452,
        "total": 2344
      },
      {
        "club_badge_src": null,
        "entry": 48800,
        "entry_name": "Charli xGx",
        "event_total": 47,
        "has_played": true,
        "id": 313539,
        "last_rank": 46839,
        "player_name": "Ed Dorsett",
        "rank": 62426,
        "rank_sort": 62453,
        "total": 2344
      },
      {
        "club_badge_src": null,
        "entry": 51541,
        "entry_name": "Klich & Collect",
        "event_total": 50,
        "has_played": true,
        "id": 331461,
        "last_rank": 51403,
        "player_name": "Jake Nicholson",
        "rank": 62426,
        "rank_sort": 62454,
        "total": 2344
      },
      {
        "club_badge_src": null,
        "entry": 60231,
        "entry_name": "Gangsta's Allardyce",
        "event_total": 56,
        "has_played": true,
        "id": 387807,
        "last_rank": 61315,
        "player_name": "Jake Kelly",
        "rank": 62426,
        "rank_sort": 62455,
        "total": 2344
      },
      {
        "club_badge_src": null,
        "entry": 69733,
        "entry_name": "Team Name",
        "event_total": 50,
        "has_played": true,
        "id": 452491,
        "last_rank": 51220,
        "player_name": "Mark Creane",
        "rank": 62426,
        "rank_sort": 62456,
        "total": 2344
      },
      {
        "club_badge_src": "https://fantasy.premierleague.com/gcs/plfpl-production-adobe-approved/plfpl-production/76432/34046bdf-4d86-4d01-ada6-5e3f63210748.png",
        "entry": 76432,
        "entry_name": "Gerhard or Go Home",
        "event_total": 65,
        "has_played": true,
        "id": 496852,
        "last_rank": 79079,
        "player_name": "Con Hart",
        "rank": 62426,
        "rank_sort": 62457,
        "total": 2344
      },
      {
        "club_badge_src": null,
        "entry": 82424,
        "entry_name": "hehe",
        "event_total": 51,
        "has_played": true,
        "id": 536328,
        "last_rank": 53345,
        "player_name": "H\u00e5kon F\u00e6revaag Stavland",
        "rank": 62426,
        "rank_sort": 62458,
        "total": 2344
      },
      {
        "club_badge_src": null,
        "entry": 86323,
        "entry_name": "Armata Del Lardo",
        "event_total": 37,
        "has_played": true,
        "id": 562513,
        "last_rank": 34051,
        "player_name": "Elliott Cullern",
        "rank": 62426,
        "rank_sort": 62459,
        "total": 2344
      },
      {
        "club_badge_src": "https://fantasy.premierleague.com/gcs/plfpl-production-adobe-approved/plfpl-production/87129/6d3ff9f1-cc1f-4518-94d1-76461ade0e91.png",
        "entry": 87129,
        "entry_name": "Pureclass",
        "event_total": 56,
        "has_played": true,
        "id": 568084,
        "last_rank": 61606,
        "player_name": "Diogo Mota",
        "rank": 62426,
        "rank_sort": 62460,
        "total": 2344
      },
      {
        "club_badge_src": "https://fantasy.premierleague.com/gcs/plfpl-production-adobe-approved/plfpl-production/94315/c041b29d-957a-42b8-b257-cddf89fc8c12.png",
        "entry": 94315,
        "entry_name": "Savage Utd",
        "event_total": 59,
        "has_played": true,
        "id": 616253,
        "last_rank": 67063,
        "player_name": "Stephen Ashcroft",
        "rank": 62426,
        "rank_sort": 62461,
        "total": 2344
      },
      {
        "club_badge_src": null,
        "entry": 95266,
        "entry_name": "Cashin The Attic",
        "event_total": 58,
        "has_played": true,
        "id": 622508,
        "last_rank": 65163,
        "player_name": "Will Uwins",
        "rank": 62426,
        "rank_sort": 62462,
        "total": 2344
      },
      {
        "club_badge_src": null,
        "entry": 96316,
        "entry_name": "West London Mafia",
        "event_total": 65,
        "has_played": true,
        "id": 629256,
        "last_rank": 79079,
        "player_name": "David Muller",
        "rank": 62426,
        "rank_sort": 62463,
        "total": 2344
      },
      {
        "club_badge_src": null,
        "entry": 111627,
        "entry_name": "Hull City",
        "event_total": 69,
        "has_played": true,
        "id": 727868,
        "last_rank": 88249,
        "player_name": "Charlie Lumm",
        "rank": 62426,
        "rank_sort": 62464,
        "total": 2344
      },
      {
        "club_badge_src": null,
        "entry": 118287,
        "entry_name": "Norfolk Enchance",
        "event_total": 48,
        "has_played": true,
        "id": 772011,
        "last_rank": 48642,
        "player_name": "Brett Starkey",
        "rank": 62426,
        "rank_sort": 62465,
        "total": 2344
      },
      {
        "club_badge_src": null,
        "entry": 125621,
        "entry_name": "Nepomucen",
        "event_total": 59,
        "has_played": true,
        "id": 819266,
        "last_rank": 67063,
        "player_name": "Michal Szuba",
        "rank": 62426,
        "rank_sort": 62466,
        "total": 2344
      },
      {
        "club_badge_src": null,
        "entry": 129531,
        "entry_name": "FC Brr Brr Patapim",
        "event_total": 50,
        "has_played": true,
        "id": 844218,
        "last_rank": 51220,
        "player_name": "Jan Makovsk\u00fd",
        "rank": 62426,
        "rank_sort": 62467,
        "total": 2344
      },
      {
        "club_badge_src": null,
        "entry": 135224,
        "entry_name": "Alisson Wonderland",
        "event_total": 56,
        "has_played": true,
        "id": 880551,
        "last_rank": 61411,
        "player_name": "JACK WOOD",
        "rank": 62426,
        "rank_sort": 62468,
        "total": 2344
      },
      {
        "club_badge_src": null,
        "entry": 138259,
        "entry_name": "Lallane moje",
        "event_total": 68,
        "has_played": true,
        "id": 901821,
        "last_rank": 86304,
        "player_name": "Miha Bombek",
        "rank": 62426,
        "rank_sort": 62469,
        "total": 2344
      },
      {
        "club_badge_src": "https://fantasy.premierleague.com/gcs/plfpl-production-adobe-approved/plfpl-production/142037/07865067-4d85-482c-b36c-7443dd6f8b77.png",
        "entry": 142037,
        "entry_name": "The Willorian",
        "event_total": 64,
        "has_played": true,
        "id": 928292,
        "last_rank": 77050,
        "player_name": "Will Smith",
        "rank": 62426,
        "rank_sort": 62470,
        "total": 2344
      },
      {
        "club_badge_src": null,
        "entry": 142228,
        "entry_name": "Hassib13",
        "event_total": 64,
        "has_played": true,
        "id": 929706,
        "last_rank": 77258,
        "player_name": "Mohamed Hassib",
        "rank": 62426,
        "rank_sort": 62471,
        "total": 2344
      },
      {
        "club_badge_src": null,
        "entry": 144555,
        "entry_name": "Klink fasit",
        "event_total": 57,
        "has_played": true,
        "id": 946290,
        "last_rank": 63390,
        "player_name": "Erik Brarmo",
        "rank": 62426,
        "rank_sort": 62472,
        "total": 2344
      },
      {
        "club_badge_src": "https://fantasy.premierleague.com/gcs/plfpl-production-adobe-approved/plfpl-production/151347/4e4406cb-3882-4e71-a7c6-23ef6d926b7d.png",
        "entry": 151347,
        "entry_name": "Maksim",
        "event_total": 64,
        "has_played": true,
        "id": 992880,
        "last_rank": 77050,
        "player_name": "Maksim Savi\u0107",
        "rank": 62426,
        "rank_sort": 62473,
        "total": 2344
      },
      {
        "club_badge_src": null,
        "entry": 156701,
        "entry_name": "Cheeses of Nazareth",
        "event_total": 56,
        "has_played": true,
        "id": 1030569,
        "last_rank": 61411,
        "player_name": "Kevin Devine",
        "rank": 62426,
        "rank_sort": 62474,
        "total": 2344
      },
      {
        "club_badge_src": null,
        "entry": 158707,
        "entry_name": "J&S Seagulls",
        "event_total": 69,
        "has_played": true,
        "id": 1044405,
        "last_rank": 88594,
        "player_name": "paul sumners",
        "rank": 62426,
        "rank_sort": 62475,
        "total": 2344
      },
      {
        "club_badge_src": null,
        "entry": 162956,
        "entry_name": "Fjarbue\u00f1os",
        "event_total": 73,
        "has_played": true,
        "id": 1074461,
        "last_rank": 98073,
        "player_name": "Andreas Fj\u00e6rbu",
        "rank": 62426,
        "rank_sort": 62476,
        "total": 2344
      },
      {
        "club_badge_src": "https://fantasy.premierleague.com/gcs/plfpl-production-adobe-approved/plfpl-production/168819/1e0f2dd1-646c-465b-b4c1-a2442be825f6.png",
        "entry": 168819,
        "entry_name": "My_FPL XI",
        "event_total": 67,
        "has_played": true,
        "id": 1115719,
        "last_rank": 83698,
        "player_name": "Yeshey Samdrup",
        "rank": 62426,
        "rank_sort": 62477,
        "total": 2344
      },
      {
        "club_badge_src": null,
        "entry": 170216,
        "entry_name": "ThomasTheFrankEngine",
        "event_total": 59,
        "has_played": true,
        "id": 1124641,
        "last_rank": 66848,
        "player_name": "Leon MacDonald",
        "rank": 62426,
        "rank_sort": 62478,
        "total": 2344
      },
      {
        "club_badge_src": null,
        "entry": 178718,
        "entry_name": "ChickenTikkaMoSalah",
        "event_total": 51,
        "has_played": true,
        "id": 1179488,
        "last_rank": 53023,
        "player_name": "Jay Dent",
        "rank": 62426,
        "rank_sort": 62479,
        "total": 2344
      },
      {
        "club_badge_src": null,
        "entry": 209027,
        "entry_name": "ZAMALEK",
        "event_total": 65,
        "has_played": true,
        "id": 1389972,
        "last_rank": 79431,
        "player_name": "Youssef Mohamed",
        "rank": 62426,
        "rank_sort": 62480,
        "total": 2344
      },
      {
        "club_badge_src": null,
        "entry": 210587,
        "entry_name": "ell classicos",
        "event_total": 62,
        "has_played": true,
        "id": 1400501,
        "last_rank": 72815,
        "player_name": "Elliot ONeill",
        "rank": 62426,
        "rank_sort": 62481,
        "total": 2344
      },
      {
        "club_badge_src": null,
        "entry": 236206,
        "entry_name": "FC HolOz",
        "event_total": 52,
        "has_played": true,
        "id": 1571642,
        "last_rank": 54667,
        "player_name": "David Booth",
        "rank": 62426,
        "rank_sort": 62482,
        "total": 2344
      },
      {
        "club_badge_src": null,
        "entry": 246378,
        "entry_name": "Deerys Dunces",
        "event_total": 65,
        "has_played": true,
        "id": 1640260,
        "last_rank": 79431,
        "player_name": "Jason Deery",
        "rank": 62426,
        "rank_sort": 62483,
        "total": 2344
      },
      {
        "club_badge_src": "https://fantasy.premierleague.com/gcs/plfpl-production-adobe-approved/plfpl-production/254928/2846f23c-a856-4de5-9043-490d662f9339.png",
        "entry": 254928,
        "entry_name": "Weetabix",
        "event_total": 59,
        "has_played": true,
        "id": 1695734,
        "last_rank": 66738,
        "player_name": "Will Butler",
        "rank": 62426,
        "rank_sort": 62484,
        "total": 2344
      },
      {
        "club_badge_src": null,
        "entry": 257805,
        "entry_name": "The Hwangover",
        "event_total": 54,
        "has_played": true,
        "id": 1714429,
        "last_rank": 58071,
        "player_name": "Max Graham",
        "rank": 62426,
        "rank_sort": 62485,
        "total": 2344
      },
      {
        "club_badge_src": null,
        "entry": 261715,
        "entry_name": "Jeed fc",
        "event_total": 40,
        "has_played": true,
        "id": 1739822,
        "last_rank": 37589,
        "player_name": "Yekini Abdulmajeed",
        "rank": 62426,
        "rank_sort": 62486,
        "total": 2344
      },
      {
        "club_badge_src": "https://fantasy.premierleague.com/gcs/plfpl-production-adobe-approved/plfpl-production/269194/7f36656b-7f17-4038-bee1-951be01efb7a.png",
        "entry": 269194,
        "entry_name": "Asteras Kaizen",
        "event_total": 59,
        "has_played": true,
        "id": 1790836,
        "last_rank": 66848,
        "player_name": "Giorgos Mitropoulos",
        "rank": 62426,
        "rank_sort": 62487,
        "total": 2344
      },
      {
        "club_badge_src": null,
        "entry": 277548,
        "entry_name": "Reijnders Keepers",
        "event_total": 60,
        "has_played": true,
        "id": 1847395,
        "last_rank": 68957,
        "player_name": "Matthew Pilgrim",
        "rank": 62426,
        "rank_sort": 62488,
        "total": 2344
      },
      {
        "club_badge_src": null,
        "entry": 306442,
        "entry_name": "Gyok Tuah",
        "event_total": 71,
        "has_played": true,
        "id": 2052235,
        "last_rank": 93186,
        "player_name": "Jack Murray",
        "rank": 62426,
        "rank_sort": 62489,
        "total": 2344
      },
      {
        "club_badge_src": "https://fantasy.premierleague.com/gcs/plfpl-production-adobe-approved/plfpl-production/313256/21201b17-4034-4a3d-93b4-bb0e18362533.png",
        "entry": 313256,
        "entry_name": "BT Bulldogs**",
        "event_total": 60,
        "has_played": true,
        "id": 2098814,
        "last_rank": 68748,
        "player_name": "Khaled H",
        "rank": 62426,
        "rank_sort": 62490,
        "total": 2344
      },
      {
        "club_badge_src": null,
        "entry": 319150,
        "entry_name": "Pale se  lampice",
        "event_total": 54,
        "has_played": true,
        "id": 2139381,
        "last_rank": 58071,
        "player_name": "Djordjije Vujanovi\u0107",
        "rank": 62426,
        "rank_sort": 62491,
        "total": 2344
      },
      {
        "club_badge_src": "https://fantasy.premierleague.com/gcs/plfpl-production-adobe-approved/plfpl-production/322164/0b920956-d7d1-48d6-a912-7548a86cb987.png",
        "entry": 322164,
        "entry_name": "Tyrannosauras Nick",
        "event_total": 59,
        "has_played": true,
        "id": 2158977,
        "last_rank": 66848,
        "player_name": "Nick Zarkos",
        "rank": 62426,
        "rank_sort": 62492,
        "total": 2344
      },
      {
        "club_badge_src": null,
        "entry": 344274,
        "entry_name": "Er det wirtz \u00e5 pr\u00f8ve",
        "event_total": 59,
        "has_played": true,
        "id": 2304275,
        "last_rank": 66848,
        "player_name": "Espen Pedersen",
        "rank": 62426,
        "rank_sort": 62493,
        "total": 2344
      },
      {
        "club_badge_src": null,
        "entry": 347411,
        "entry_name": "saka potatoes",
        "event_total": 78,
        "has_played": true,
        "id": 2325396,
        "last_rank": 111203,
        "player_name": "Daniel White",
        "rank": 62426,
        "rank_sort": 62494,
        "total": 2344
      },
      {
        "club_badge_src": null,
        "entry": 348217,
        "entry_name": "Toby's Club",
        "event_total": 63,
        "has_played": true,
        "id": 2330787,
        "last_rank": 74898,
        "player_name": "Topi Autio",
        "rank": 62426,
        "rank_sort": 62495,
        "total": 2344
      },
      {
        "club_badge_src": "https://fantasy.premierleague.com/gcs/plfpl-production-adobe-approved/plfpl-production/356756/9f73c941-a9dd-4d12-8579-4a5b94ef33d1.png",
        "entry": 356756,
        "entry_name": "Heilelujah",
        "event_total": 45,
        "has_played": true,
        "id": 2387361,
        "last_rank": 44048,
        "player_name": "Madhav Suresh",
        "rank": 62426,
        "rank_sort": 62496,
        "total": 2344
      },
      {
        "club_badge_src": null,
        "entry": 357956,
        "entry_name": "FC Thonor",
        "event_total": 61,
        "has_played": true,
        "id": 2395433,
        "last_rank": 70651,
        "player_name": "Tomas Hybner",
        "rank": 62426,
        "rank_sort": 62497,
        "total": 2344
      },
      {
        "club_badge_src": null,
        "entry": 372301,
        "entry_name": "Botman Begins",
        "event_total": 57,
        "has_played": true,
        "id": 2491022,
        "last_rank": 63390,
        "player_name": "Matthew Thompson",
        "rank": 62426,
        "rank_sort": 62498,
        "total": 2344
      },
      {
        "club_badge_src": null,
        "entry": 396633,
        "entry_name": "The Champ Is Here...",
        "event_total": 57,
        "has_played": true,
        "id": 2659750,
        "last_rank": 63724,
        "player_name": "Scott Clayton",
        "rank": 62426,
        "rank_sort": 62499,
        "total": 2344
      },
      {
        "club_badge_src": null,
        "entry": 426599,
        "entry_name": "Hammers XI",
        "event_total": 59,
        "has_played": true,
        "id": 2860227,
        "last_rank": 67063,
        "player_name": "Russell Elliston",
        "rank": 62426,
        "rank_sort": 62500,
        "total": 2344
      }
    ]
  }
}