{
  "last_updated_data": "2026-05-24T23:28:17Z",
  "league": {
    "admin_entry": null,
    "closed": false,
    "code_privacy": "p",
    "created": "2025-07-20T23:14:33.933835Z",
    "cup_league": 2815434,
    "has_cup": true,
    "id": 314,
    "league_type": "s",
    "max_entries": null,
    "name": "Overall",
    "rank": null,
    "scoring": "c",
    "start_event": 1
  },
  "new_entries": {
    "has_next": false,
    "page": 1,
    "results": []
  },
  "standings": {
    "has_next": true,
    "page": 1113,
    "results": [
      {
        "club_badge_src": null,
        "entry": 2978610,
        "entry_name": "Shippo FC",
        "event_total": 66,
        "has_played": true,
        "id": 21896447,
        "last_rank": 72702,
        "player_name": "Ethan Shipstone",
        "rank": 55535,
        "rank_sort": 55601,
        "total": 2348
      },
      {
        "club_badge_src": null,
        "entry": 3033143,
        "entry_name": "FK \u0160tanga",
        "event_total": 72,
        "has_played": true,
        "id": 22320976,
        "last_rank": 85870,
        "player_name": "Simonas Triu\u0161ka",
        "rank": 55535,
        "rank_sort": 55602,
        "total": 2348
      },
      {
        "club_badge_src": null,
        "entry": 3051705,
        "entry_name": "Leeds/Glimt19",
        "event_total": 41,
        "has_played": true,
        "id": 22466112,
        "last_rank": 34051,
        "player_name": "Sture Abrahamsen",
        "rank": 55535,
        "rank_sort": 55603,
        "total": 2348
      },
      {
        "club_badge_src": "https://fantasy.premierleague.com/gcs/plfpl-production-adobe-approved/plfpl-production/3079443/0cc75ef1-b912-4301-9fc9-5d54ca482d17.png",
        "entry": 3079443,
        "entry_name": "Joe FC",
        "event_total": 48,
        "has_played": true,
        "id": 22686627,
        "last_rank": 42648,
        "player_name": "Joseph Manton",
        "rank": 55535,
        "rank_sort": 55604,
        "total": 2348
      },
      {
        "club_badge_src": null,
        "entry": 3231460,
        "entry_name": "caley's champs",
        "event_total": 84,
        "has_played": true,
        "id": 23899432,
        "last_rank": 117112,
        "player_name": "James Caley",
        "rank": 55535,
        "rank_sort": 55605,
        "total": 2348
      },
      {
        "club_badge_src": null,
        "entry": 3306491,
        "entry_name": "Kinder Mbeumo",
        "event_total": 72,
        "has_played": true,
        "id": 24492440,
        "last_rank": 86054,
        "player_name": "Kane White",
        "rank": 55535,
        "rank_sort": 55606,
        "total": 2348
      },
      {
        "club_badge_src": null,
        "entry": 3468394,
        "entry_name": "\ufffd\ufffd",
        "event_total": 69,
        "has_played": true,
        "id": 25784460,
        "last_rank": 70600,
        "player_name": "Ronnie Pedersen",
        "rank": 55535,
        "rank_sort": 55607,
        "total": 2348
      },
      {
        "club_badge_src": null,
        "entry": 3539445,
        "entry_name": "Gy\u00f6k Tuah",
        "event_total": 42,
        "has_played": true,
        "id": 26346122,
        "last_rank": 35034,
        "player_name": "Kris Law",
        "rank": 55535,
        "rank_sort": 55608,
        "total": 2348
      },
      {
        "club_badge_src": null,
        "entry": 3706932,
        "entry_name": "Steven Champions",
        "event_total": 66,
        "has_played": true,
        "id": 27659412,
        "last_rank": 72702,
        "player_name": "Estifanos Tarekegn",
        "rank": 55535,
        "rank_sort": 55609,
        "total": 2348
      },
      {
        "club_badge_src": null,
        "entry": 3796274,
        "entry_name": "Lanky T*** Fc",
        "event_total": 49,
        "has_played": true,
        "id": 28375500,
        "last_rank": 43849,
        "player_name": "Matt Slatter",
        "rank": 55535,
        "rank_sort": 55610,
        "total": 2348
      },
      {
        "club_badge_src": null,
        "entry": 3885010,
        "entry_name": "Ratified",
        "event_total": 50,
        "has_played": true,
        "id": 29192636,
        "last_rank": 45252,
        "player_name": "Tejas Sharma",
        "rank": 55535,
        "rank_sort": 55611,
        "total": 2348
      },
      {
        "club_badge_src": null,
        "entry": 3899777,
        "entry_name": "\u0d06\u0d1f\u0d4d \u0d24\u0d4b\u0d2e",
        "event_total": 66,
        "has_played": true,
        "id": 29315234,
        "last_rank": 72815,
        "player_name": "Kevin Manuel",
        "rank": 55535,
        "rank_sort": 55612,
        "total": 2348
      },
      {
        "club_badge_src": "https://fantasy.premierleague.com/gcs/plfpl-production-adobe-approved/plfpl-production/3903749/ce43317c-1c81-489e-afd4-a84e8b905c8c.png",
        "entry": 3903749,
        "entry_name": "SPORTING LESBlAN",
        "event_total": 56,
        "has_played": true,
        "id": 29346760,
        "last_rank": 54416,
        "player_name": "Martin McBreen",
        "rank": 55535,
        "rank_sort": 55613,
        "total": 2348
      },
      {
        "club_badge_src": null,
        "entry": 4129860,
        "entry_name": "Boca Seniors",
        "event_total": 42,
        "has_played": true,
        "id": 31207983,
        "last_rank": 35166,
        "player_name": "Conn O-Neill",
        "rank": 55535,
        "rank_sort": 55614,
        "total": 2348
      },
      {
        "club_badge_src": null,
        "entry": 4316457,
        "entry_name": "Ekitiketaka",
        "event_total": 72,
        "has_played": true,
        "id": 32755676,
        "last_rank": 85870,
        "player_name": "Emil Linnros",
        "rank": 55535,
        "rank_sort": 55615,
        "total": 2348
      },
      {
        "club_badge_src": null,
        "entry": 4399622,
        "entry_name": "Isakly what we need",
        "event_total": 56,
        "has_played": true,
        "id": 33458503,
        "last_rank": 54494,
        "player_name": "Ross Walker",
        "rank": 55535,
        "rank_sort": 55616,
        "total": 2348
      },
      {
        "club_badge_src": null,
        "entry": 4472084,
        "entry_name": "Przemyskie wariaty",
        "event_total": 70,
        "has_played": true,
        "id": 34079366,
        "last_rank": 81312,
        "player_name": "Mia Barszczak",
        "rank": 55535,
        "rank_sort": 55617,
        "total": 2348
      },
      {
        "club_badge_src": null,
        "entry": 4491246,
        "entry_name": "Take your Pickford",
        "event_total": 56,
        "has_played": true,
        "id": 34234790,
        "last_rank": 54494,
        "player_name": "Ashleigh Harrison",
        "rank": 55535,
        "rank_sort": 55618,
        "total": 2348
      },
      {
        "club_badge_src": null,
        "entry": 4579772,
        "entry_name": "The Norse & North \u2b50",
        "event_total": 40,
        "has_played": true,
        "id": 34960785,
        "last_rank": 32751,
        "player_name": "Sang Sanga",
        "rank": 55535,
        "rank_sort": 55619,
        "total": 2348
      },
      {
        "club_badge_src": null,
        "entry": 4786694,
        "entry_name": "Neville wears Prada",
        "event_total": 62,
        "has_played": true,
        "id": 36849510,
        "last_rank": 64943,
        "player_name": "Jordan Shapland",
        "rank": 55535,
        "rank_sort": 55620,
        "total": 2348
      },
      {
        "club_badge_src": null,
        "entry": 4830784,
        "entry_name": "Merlin's Marauders",
        "event_total": 58,
        "has_played": true,
        "id": 37206532,
        "last_rank": 57857,
        "player_name": "Fraser McAvoy",
        "rank": 55535,
        "rank_sort": 55621,
        "total": 2348
      },
      {
        "club_badge_src": null,
        "entry": 4835216,
        "entry_name": "RED BABY ANGELS",
        "event_total": 51,
        "has_played": true,
        "id": 37243680,
        "last_rank": 46839,
        "player_name": "MASATO TAKENAKA",
        "rank": 55535,
        "rank_sort": 55622,
        "total": 2348
      },
      {
        "club_badge_src": null,
        "entry": 4863083,
        "entry_name": "De zerbi",
        "event_total": 55,
        "has_played": true,
        "id": 37477949,
        "last_rank": 52759,
        "player_name": "Paul Hillis",
        "rank": 55535,
        "rank_sort": 55623,
        "total": 2348
      },
      {
        "club_badge_src": null,
        "entry": 4949420,
        "entry_name": "You're a Wissa Harry",
        "event_total": 66,
        "has_played": true,
        "id": 38190481,
        "last_rank": 72815,
        "player_name": "Matthew Robson",
        "rank": 55535,
        "rank_sort": 55624,
        "total": 2348
      },
      {
        "club_badge_src": null,
        "entry": 4973419,
        "entry_name": "ItMeansNothingToMe",
        "event_total": 48,
        "has_played": true,
        "id": 38389280,
        "last_rank": 42648,
        "player_name": "Gareth Anderson",
        "rank": 55535,
        "rank_sort": 55625,
        "total": 2348
      },
      {
        "club_badge_src": null,
        "entry": 5049033,
        "entry_name": "Alisson Wonderland",
        "event_total": 56,
        "has_played": true,
        "id": 39009576,
        "last_rank": 54667,
        "player_name": "Tobias Undeland",
        "rank": 55535,
        "rank_sort": 55626,
        "total": 2348
      },
      {
        "club_badge_src": null,
        "entry": 5105601,
        "entry_name": "As Syar",
        "event_total": 61,
        "has_played": true,
        "id": 39465517,
        "last_rank": 63201,
        "player_name": "Umar Balbeid",
        "rank": 55535,
        "rank_sort": 55627,
        "total": 2348
      },
      {
        "club_badge_src": null,
        "entry": 5159702,
        "entry_name": "Shilton My Timber",
        "event_total": 49,
        "has_played": true,
        "id": 39925945,
        "last_rank": 43849,
        "player_name": "Sam Hatchard",
        "rank": 55535,
        "rank_sort": 55628,
        "total": 2348
      },
      {
        "club_badge_src": null,
        "entry": 5181334,
        "entry_name": "Sakalent ChineseMeal",
        "event_total": 55,
        "has_played": true,
        "id": 40106067,
        "last_rank": 53023,
        "player_name": "Andrew Sheffield",
        "rank": 55535,
        "rank_sort": 55629,
        "total": 2348
      },
      {
        "club_badge_src": null,
        "entry": 5185927,
        "entry_name": "Tutyuu United FC",
        "event_total": 59,
        "has_played": true,
        "id": 40144681,
        "last_rank": 59813,
        "player_name": "D\u00e1vid Tur\u00e1nszky",
        "rank": 55535,
        "rank_sort": 55630,
        "total": 2348
      },
      {
        "club_badge_src": null,
        "entry": 5259047,
        "entry_name": "Change Name",
        "event_total": 58,
        "has_played": true,
        "id": 40759447,
        "last_rank": 58071,
        "player_name": "M MOSTAFA",
        "rank": 55535,
        "rank_sort": 55631,
        "total": 2348
      },
      {
        "club_badge_src": null,
        "entry": 5359931,
        "entry_name": "Estea\u00f1oser\u00e1diferente",
        "event_total": 53,
        "has_played": true,
        "id": 41627065,
        "last_rank": 49880,
        "player_name": "Joe Robson",
        "rank": 55535,
        "rank_sort": 55632,
        "total": 2348
      },
      {
        "club_badge_src": null,
        "entry": 5511884,
        "entry_name": "KaMaLiSTa",
        "event_total": 68,
        "has_played": true,
        "id": 42964274,
        "last_rank": 76908,
        "player_name": "Mohammed Kamal",
        "rank": 55535,
        "rank_sort": 55633,
        "total": 2348
      },
      {
        "club_badge_src": null,
        "entry": 5692327,
        "entry_name": "meehan machine",
        "event_total": 76,
        "has_played": true,
        "id": 44561741,
        "last_rank": 95527,
        "player_name": "neil meehan",
        "rank": 55535,
        "rank_sort": 55634,
        "total": 2348
      },
      {
        "club_badge_src": null,
        "entry": 6035042,
        "entry_name": "StoneColdStevePalmer",
        "event_total": 74,
        "has_played": true,
        "id": 47610643,
        "last_rank": 90625,
        "player_name": "anthony schembri",
        "rank": 55535,
        "rank_sort": 55635,
        "total": 2348
      },
      {
        "club_badge_src": null,
        "entry": 6055466,
        "entry_name": "Driver'Ne",
        "event_total": 58,
        "has_played": true,
        "id": 47786661,
        "last_rank": 57857,
        "player_name": "ivar Melberg",
        "rank": 55535,
        "rank_sort": 55636,
        "total": 2348
      },
      {
        "club_badge_src": "https://fantasy.premierleague.com/gcs/plfpl-production-adobe-approved/plfpl-production/6521098/cb43beb4-30df-43e1-88bf-eba139cdc083.png",
        "entry": 6521098,
        "entry_name": "Kapibara \ufffd   \ufffd",
        "event_total": 73,
        "has_played": true,
        "id": 52009589,
        "last_rank": 88185,
        "player_name": "Noa Glasnovi\u0107",
        "rank": 55535,
        "rank_sort": 55637,
        "total": 2348
      },
      {
        "club_badge_src": null,
        "entry": 6658605,
        "entry_name": "Dynamo Kerkez",
        "event_total": 53,
        "has_played": true,
        "id": 53242077,
        "last_rank": 49691,
        "player_name": "David Cooper",
        "rank": 55535,
        "rank_sort": 55638,
        "total": 2348
      },
      {
        "club_badge_src": null,
        "entry": 6912548,
        "entry_name": "Stormy's FC",
        "event_total": 68,
        "has_played": true,
        "id": 55409614,
        "last_rank": 68624,
        "player_name": "The Storm",
        "rank": 55535,
        "rank_sort": 55639,
        "total": 2348
      },
      {
        "club_badge_src": null,
        "entry": 7001948,
        "entry_name": "Andreas at the wheel",
        "event_total": 58,
        "has_played": true,
        "id": 56221251,
        "last_rank": 57857,
        "player_name": "ANDREAS LUND KALLESTAD",
        "rank": 55535,
        "rank_sort": 55640,
        "total": 2348
      },
      {
        "club_badge_src": null,
        "entry": 7215116,
        "entry_name": "L\u00e5ngboll BK",
        "event_total": 77,
        "has_played": true,
        "id": 58276229,
        "last_rank": 98011,
        "player_name": "Theodor Stellmar",
        "rank": 55535,
        "rank_sort": 55641,
        "total": 2348
      },
      {
        "club_badge_src": null,
        "entry": 7335037,
        "entry_name": "Kinder Mbeumo",
        "event_total": 77,
        "has_played": true,
        "id": 59405442,
        "last_rank": 97982,
        "player_name": "Timothy Harper",
        "rank": 55535,
        "rank_sort": 55642,
        "total": 2348
      },
      {
        "club_badge_src": null,
        "entry": 7633923,
        "entry_name": "ZizouClub",
        "event_total": 49,
        "has_played": true,
        "id": 62570938,
        "last_rank": 43849,
        "player_name": "Abdul Aziz Ali",
        "rank": 55535,
        "rank_sort": 55643,
        "total": 2348
      },
      {
        "club_badge_src": null,
        "entry": 7871234,
        "entry_name": "RedHour",
        "event_total": 40,
        "has_played": true,
        "id": 64724759,
        "last_rank": 32879,
        "player_name": "Wasif Wani",
        "rank": 55535,
        "rank_sort": 55644,
        "total": 2348
      },
      {
        "club_badge_src": null,
        "entry": 7873767,
        "entry_name": "Kruhl and The Gang",
        "event_total": 30,
        "has_played": true,
        "id": 64747608,
        "last_rank": 23341,
        "player_name": "Owen Minter",
        "rank": 55535,
        "rank_sort": 55645,
        "total": 2348
      },
      {
        "club_badge_src": null,
        "entry": 7907313,
        "entry_name": "The Benjamins",
        "event_total": 71,
        "has_played": true,
        "id": 65053180,
        "last_rank": 83698,
        "player_name": "Ben Oxnam",
        "rank": 55535,
        "rank_sort": 55646,
        "total": 2348
      },
      {
        "club_badge_src": null,
        "entry": 8171870,
        "entry_name": "Inter Hillan",
        "event_total": 45,
        "has_played": true,
        "id": 67472407,
        "last_rank": 38644,
        "player_name": "Tom Hill",
        "rank": 55535,
        "rank_sort": 55647,
        "total": 2348
      },
      {
        "club_badge_src": null,
        "entry": 8700256,
        "entry_name": "Cole Blooded",
        "event_total": 37,
        "has_played": true,
        "id": 72581609,
        "last_rank": 29688,
        "player_name": "chris eldridge",
        "rank": 55535,
        "rank_sort": 55648,
        "total": 2348
      },
      {
        "club_badge_src": null,
        "entry": 9142288,
        "entry_name": "Gavin's heros",
        "event_total": 51,
        "has_played": true,
        "id": 76865992,
        "last_rank": 46839,
        "player_name": "Gavin Doran",
        "rank": 55535,
        "rank_sort": 55649,
        "total": 2348
      },
      {
        "club_badge_src": null,
        "entry": 10663583,
        "entry_name": "jose",
        "event_total": 73,
        "has_played": true,
        "id": 90091260,
        "last_rank": 88185,
        "player_name": "Jose Kebede",
        "rank": 55535,
        "rank_sort": 55650,
        "total": 2348
      }
    ]
  }
}