{
  "last_updated_data": "2026-05-24T23:28:17Z",
  "league": {
    "admin_entry": null,
    "closed": false,
    "code_privacy": "p",
    "created": "2025-07-20T23:14:33.933835Z",
    "cup_league": 2815434,
    "has_cup": true,
    "id": 314,
    "league_type": "s",
    "max_entries": null,
    "name": "Overall",
    "rank": null,
    "scoring": "c",
    "start_event": 1
  },
  "new_entries": {
    "has_next": false,
    "page": 1,
    "results": []
  },
  "standings": {
    "has_next": true,
    "page": 844,
    "results": [
      {
        "club_badge_src": null,
        "entry": 137582,
        "entry_name": "Gnonto The Next One",
        "event_total": 54,
        "has_played": true,
        "id": 896928,
        "last_rank": 38469,
        "player_name": "Matt Greenland",
        "rank": 42149,
        "rank_sort": 42151,
        "total": 2358
      },
      {
        "club_badge_src": null,
        "entry": 246822,
        "entry_name": "Gunnerwin",
        "event_total": 61,
        "has_played": true,
        "id": 1643105,
        "last_rank": 42293,
        "player_name": "Martin Jones",
        "rank": 42149,
        "rank_sort": 42152,
        "total": 2358
      },
      {
        "club_badge_src": null,
        "entry": 281192,
        "entry_name": "Gy\u00f6ker Hardly Kno Er",
        "event_total": 66,
        "has_played": true,
        "id": 1871158,
        "last_rank": 43637,
        "player_name": "Brooks Thomas",
        "rank": 42149,
        "rank_sort": 42153,
        "total": 2358
      },
      {
        "club_badge_src": "https://fantasy.premierleague.com/gcs/plfpl-production-adobe-approved/plfpl-production/307500/cf5b09c6-4e91-432f-af64-460c4cbdeb00.png",
        "entry": 307500,
        "entry_name": "Camel Fc",
        "event_total": 76,
        "has_played": true,
        "id": 2059497,
        "last_rank": 66518,
        "player_name": "Daniel Brown",
        "rank": 42149,
        "rank_sort": 42154,
        "total": 2358
      },
      {
        "club_badge_src": null,
        "entry": 519390,
        "entry_name": "BRUNO DOS TRES",
        "event_total": 59,
        "has_played": true,
        "id": 3487470,
        "last_rank": 34796,
        "player_name": "Fardad Poyan",
        "rank": 42149,
        "rank_sort": 42155,
        "total": 2358
      },
      {
        "club_badge_src": null,
        "entry": 626092,
        "entry_name": "Tel me Moore",
        "event_total": 75,
        "has_played": true,
        "id": 4230946,
        "last_rank": 50956,
        "player_name": "Jay Smith",
        "rank": 42149,
        "rank_sort": 42156,
        "total": 2358
      },
      {
        "club_badge_src": null,
        "entry": 654288,
        "entry_name": "Howe\u2019s the bacon FC",
        "event_total": 57,
        "has_played": true,
        "id": 4421687,
        "last_rank": 42327,
        "player_name": "Ben Marjoram",
        "rank": 42149,
        "rank_sort": 42157,
        "total": 2358
      },
      {
        "club_badge_src": null,
        "entry": 914447,
        "entry_name": "Chasing the Son",
        "event_total": 73,
        "has_played": true,
        "id": 6288009,
        "last_rank": 54218,
        "player_name": "Jay Shah",
        "rank": 42149,
        "rank_sort": 42158,
        "total": 2358
      },
      {
        "club_badge_src": null,
        "entry": 963841,
        "entry_name": "Kinder Mbeumo",
        "event_total": 49,
        "has_played": true,
        "id": 6642475,
        "last_rank": 32604,
        "player_name": "Ole Gunnar Bruheim",
        "rank": 42149,
        "rank_sort": 42159,
        "total": 2358
      },
      {
        "club_badge_src": null,
        "entry": 2043600,
        "entry_name": "Net six and chill",
        "event_total": 63,
        "has_played": true,
        "id": 14472574,
        "last_rank": 45034,
        "player_name": "Christopher Brewin",
        "rank": 42149,
        "rank_sort": 42160,
        "total": 2358
      },
      {
        "club_badge_src": null,
        "entry": 4010726,
        "entry_name": "Frank UC",
        "event_total": 51,
        "has_played": true,
        "id": 30218376,
        "last_rank": 30418,
        "player_name": "Ukaonu Francis",
        "rank": 42149,
        "rank_sort": 42161,
        "total": 2358
      },
      {
        "club_badge_src": null,
        "entry": 4096877,
        "entry_name": "MADRIDISTAS FC",
        "event_total": 54,
        "has_played": true,
        "id": 30934232,
        "last_rank": 29411,
        "player_name": "Ifeanyi Salgado",
        "rank": 42149,
        "rank_sort": 42162,
        "total": 2358
      },
      {
        "club_badge_src": null,
        "entry": 4282671,
        "entry_name": "Here we go again",
        "event_total": 56,
        "has_played": true,
        "id": 32481766,
        "last_rank": 40986,
        "player_name": "Martin Moran",
        "rank": 42149,
        "rank_sort": 42163,
        "total": 2358
      },
      {
        "club_badge_src": null,
        "entry": 4718220,
        "entry_name": "Daniyl's warriors",
        "event_total": 73,
        "has_played": true,
        "id": 36235407,
        "last_rank": 61118,
        "player_name": "Daniyal Garbuja",
        "rank": 42149,
        "rank_sort": 42164,
        "total": 2358
      },
      {
        "club_badge_src": null,
        "entry": 5602170,
        "entry_name": "CB Radio Gaga",
        "event_total": 53,
        "has_played": true,
        "id": 43775067,
        "last_rank": 37276,
        "player_name": "Crossley Birch",
        "rank": 42149,
        "rank_sort": 42165,
        "total": 2358
      },
      {
        "club_badge_src": null,
        "entry": 8254047,
        "entry_name": "Mboka Reloaded",
        "event_total": 53,
        "has_played": true,
        "id": 68262580,
        "last_rank": 37264,
        "player_name": "Henry Mwaura",
        "rank": 42149,
        "rank_sort": 42166,
        "total": 2358
      },
      {
        "club_badge_src": null,
        "entry": 8740805,
        "entry_name": "\u0641\u0644\u064a\u0643 \u0627\u0644\u0641\u0627\u0646\u062a\u0632\u064a",
        "event_total": 68,
        "has_played": true,
        "id": 72975554,
        "last_rank": 52603,
        "player_name": "Mohammad Kherais",
        "rank": 42149,
        "rank_sort": 42167,
        "total": 2358
      },
      {
        "club_badge_src": "https://fantasy.premierleague.com/gcs/plfpl-production-adobe-approved/plfpl-production/20157/0f5418a6-c88d-4f79-be47-4793cd73b29e.png",
        "entry": 20157,
        "entry_name": "Cobra Kai",
        "event_total": 68,
        "has_played": true,
        "id": 125536,
        "last_rank": 59399,
        "player_name": "Andrei Andras",
        "rank": 42168,
        "rank_sort": 42168,
        "total": 2358
      },
      {
        "club_badge_src": null,
        "entry": 291952,
        "entry_name": "Cool Runnings",
        "event_total": 62,
        "has_played": true,
        "id": 1947712,
        "last_rank": 38461,
        "player_name": "Michael Keating",
        "rank": 42168,
        "rank_sort": 42169,
        "total": 2358
      },
      {
        "club_badge_src": null,
        "entry": 455935,
        "entry_name": "kamikazi",
        "event_total": 76,
        "has_played": true,
        "id": 3058776,
        "last_rank": 52603,
        "player_name": "Metab Alenezi",
        "rank": 42168,
        "rank_sort": 42170,
        "total": 2358
      },
      {
        "club_badge_src": null,
        "entry": 471621,
        "entry_name": "Emad khattab",
        "event_total": 52,
        "has_played": true,
        "id": 3166323,
        "last_rank": 31471,
        "player_name": "Emad Khattab",
        "rank": 42168,
        "rank_sort": 42171,
        "total": 2358
      },
      {
        "club_badge_src": null,
        "entry": 1673582,
        "entry_name": "milanian",
        "event_total": 31,
        "has_played": true,
        "id": 11716920,
        "last_rank": 14790,
        "player_name": "Hamed Milanian",
        "rank": 42168,
        "rank_sort": 42172,
        "total": 2358
      },
      {
        "club_badge_src": "https://fantasy.premierleague.com/gcs/plfpl-production-adobe-approved/plfpl-production/2104598/06b66309-979a-4804-bf8a-808ff0ba0ed0.png",
        "entry": 2104598,
        "entry_name": "Kheer Insha'llah",
        "event_total": 73,
        "has_played": true,
        "id": 14935392,
        "last_rank": 68460,
        "player_name": "Amr Atif",
        "rank": 42168,
        "rank_sort": 42173,
        "total": 2358
      },
      {
        "club_badge_src": null,
        "entry": 4318853,
        "entry_name": "Occasionally United",
        "event_total": 67,
        "has_played": true,
        "id": 32775119,
        "last_rank": 45034,
        "player_name": "Will Parkinson",
        "rank": 42168,
        "rank_sort": 42174,
        "total": 2358
      },
      {
        "club_badge_src": null,
        "entry": 4534550,
        "entry_name": "Chay Leaguers",
        "event_total": 63,
        "has_played": true,
        "id": 34590978,
        "last_rank": 51047,
        "player_name": "Chaitanya Varma",
        "rank": 42168,
        "rank_sort": 42175,
        "total": 2358
      },
      {
        "club_badge_src": null,
        "entry": 6472894,
        "entry_name": "Haaland til United",
        "event_total": 64,
        "has_played": true,
        "id": 51576624,
        "last_rank": 52670,
        "player_name": "Arne Singsaas",
        "rank": 42168,
        "rank_sort": 42176,
        "total": 2358
      },
      {
        "club_badge_src": null,
        "entry": 7226074,
        "entry_name": "Lew\u2019s Los Papasitos",
        "event_total": 54,
        "has_played": true,
        "id": 58378850,
        "last_rank": 33778,
        "player_name": "Lewis Thomas",
        "rank": 42168,
        "rank_sort": 42177,
        "total": 2358
      },
      {
        "club_badge_src": null,
        "entry": 7285577,
        "entry_name": "Ahmed Hm 74",
        "event_total": 65,
        "has_played": true,
        "id": 58941735,
        "last_rank": 47982,
        "player_name": "Ahmed Salah",
        "rank": 42168,
        "rank_sort": 42178,
        "total": 2358
      },
      {
        "club_badge_src": null,
        "entry": 232862,
        "entry_name": "Cucumber_98",
        "event_total": 73,
        "has_played": true,
        "id": 1549350,
        "last_rank": 54268,
        "player_name": "Youri van kommer",
        "rank": 42179,
        "rank_sort": 42179,
        "total": 2358
      },
      {
        "club_badge_src": null,
        "entry": 297594,
        "entry_name": "Kjeglane IL",
        "event_total": 81,
        "has_played": true,
        "id": 1989156,
        "last_rank": 68460,
        "player_name": "Torjus Lunde",
        "rank": 42179,
        "rank_sort": 42180,
        "total": 2358
      },
      {
        "club_badge_src": null,
        "entry": 418749,
        "entry_name": "Kinder Mbeumo",
        "event_total": 81,
        "has_played": true,
        "id": 2806702,
        "last_rank": 47920,
        "player_name": "Shazeb Iqbal",
        "rank": 42179,
        "rank_sort": 42181,
        "total": 2358
      },
      {
        "club_badge_src": null,
        "entry": 550163,
        "entry_name": "kadiir",
        "event_total": 48,
        "has_played": true,
        "id": 3702686,
        "last_rank": 27521,
        "player_name": "bouchebechia Kadir",
        "rank": 42179,
        "rank_sort": 42182,
        "total": 2358
      },
      {
        "club_badge_src": null,
        "entry": 617095,
        "entry_name": "Slot Machine",
        "event_total": 64,
        "has_played": true,
        "id": 4169477,
        "last_rank": 52670,
        "player_name": "Kenneth Malone",
        "rank": 42179,
        "rank_sort": 42183,
        "total": 2358
      },
      {
        "club_badge_src": null,
        "entry": 1462476,
        "entry_name": "Tony Maradoni",
        "event_total": 70,
        "has_played": true,
        "id": 10194092,
        "last_rank": 55969,
        "player_name": "Tony C",
        "rank": 42179,
        "rank_sort": 42184,
        "total": 2358
      },
      {
        "club_badge_src": null,
        "entry": 1802057,
        "entry_name": "VARcelona",
        "event_total": 60,
        "has_played": true,
        "id": 12668150,
        "last_rank": 46479,
        "player_name": "Saad Ali",
        "rank": 42179,
        "rank_sort": 42185,
        "total": 2358
      },
      {
        "club_badge_src": null,
        "entry": 3337385,
        "entry_name": "sukkicity",
        "event_total": 62,
        "has_played": true,
        "id": 24751296,
        "last_rank": 49492,
        "player_name": "Frederick Asuquo",
        "rank": 42179,
        "rank_sort": 42186,
        "total": 2358
      },
      {
        "club_badge_src": null,
        "entry": 4143809,
        "entry_name": "JUSTDIRIMU FC",
        "event_total": 56,
        "has_played": true,
        "id": 31318513,
        "last_rank": 41003,
        "player_name": "Tommy Wong",
        "rank": 42179,
        "rank_sort": 42187,
        "total": 2358
      },
      {
        "club_badge_src": "https://fantasy.premierleague.com/gcs/plfpl-production-adobe-approved/plfpl-production/147834/2df73bae-957b-4fbc-a765-7be67ff92fd8.png",
        "entry": 147834,
        "entry_name": "Ctrl Alt de Ligt",
        "event_total": 45,
        "has_played": true,
        "id": 968900,
        "last_rank": 24792,
        "player_name": "Cameron Bowman",
        "rank": 42188,
        "rank_sort": 42188,
        "total": 2358
      },
      {
        "club_badge_src": null,
        "entry": 943391,
        "entry_name": "Jose Mourinho",
        "event_total": 62,
        "has_played": true,
        "id": 6497478,
        "last_rank": 38475,
        "player_name": "Antti Nyman",
        "rank": 42188,
        "rank_sort": 42189,
        "total": 2358
      },
      {
        "club_badge_src": "https://fantasy.premierleague.com/gcs/plfpl-production-adobe-approved/plfpl-production/952878/8427e729-c2a4-4470-ad60-072511fe8c52.png",
        "entry": 952878,
        "entry_name": "The Red",
        "event_total": 60,
        "has_played": true,
        "id": 6565198,
        "last_rank": 46490,
        "player_name": "A. Hemeda",
        "rank": 42188,
        "rank_sort": 42190,
        "total": 2358
      },
      {
        "club_badge_src": null,
        "entry": 3449243,
        "entry_name": "Amorim to the future",
        "event_total": 58,
        "has_played": true,
        "id": 25631439,
        "last_rank": 33782,
        "player_name": "jitin arora",
        "rank": 42188,
        "rank_sort": 42191,
        "total": 2358
      },
      {
        "club_badge_src": null,
        "entry": 5191762,
        "entry_name": "HOW MCGREEDY",
        "event_total": 81,
        "has_played": true,
        "id": 40194838,
        "last_rank": 85730,
        "player_name": "Ahmed Shooble",
        "rank": 42188,
        "rank_sort": 42192,
        "total": 2358
      },
      {
        "club_badge_src": null,
        "entry": 5585331,
        "entry_name": "Net Spend FC",
        "event_total": 67,
        "has_played": true,
        "id": 43628714,
        "last_rank": 45065,
        "player_name": "Jay Palmer",
        "rank": 42188,
        "rank_sort": 42193,
        "total": 2358
      },
      {
        "club_badge_src": null,
        "entry": 7294857,
        "entry_name": "The Brady Bunch",
        "event_total": 41,
        "has_played": true,
        "id": 59028306,
        "last_rank": 21573,
        "player_name": "abdul joynal",
        "rank": 42188,
        "rank_sort": 42194,
        "total": 2358
      },
      {
        "club_badge_src": null,
        "entry": 3624655,
        "entry_name": "Rodney Street Elite",
        "event_total": 60,
        "has_played": true,
        "id": 27007509,
        "last_rank": 46497,
        "player_name": "Ali Chambers",
        "rank": 42195,
        "rank_sort": 42195,
        "total": 2358
      },
      {
        "club_badge_src": "https://fantasy.premierleague.com/gcs/plfpl-production-adobe-approved/plfpl-production/5608175/8f727df4-8250-4f59-b614-26d7aa2a1a8f.png",
        "entry": 5608175,
        "entry_name": "Kinder Mbeumo",
        "event_total": 79,
        "has_played": true,
        "id": 43827367,
        "last_rank": 57652,
        "player_name": "Hamza Limbada",
        "rank": 42195,
        "rank_sort": 42196,
        "total": 2358
      },
      {
        "club_badge_src": "https://fantasy.premierleague.com/gcs/plfpl-production-adobe-approved/plfpl-production/24361/17c33e49-e5c2-4e28-8b37-dcae9d889f9e.png",
        "entry": 24361,
        "entry_name": "Rice up Gunners",
        "event_total": 60,
        "has_played": true,
        "id": 153766,
        "last_rank": 41022,
        "player_name": "Geir Kenneth Eriksen",
        "rank": 42197,
        "rank_sort": 42197,
        "total": 2358
      },
      {
        "club_badge_src": null,
        "entry": 531640,
        "entry_name": "Ginger Army FC",
        "event_total": 66,
        "has_played": true,
        "id": 3575742,
        "last_rank": 49507,
        "player_name": "mark wilkinson",
        "rank": 42197,
        "rank_sort": 42198,
        "total": 2358
      },
      {
        "club_badge_src": null,
        "entry": 947517,
        "entry_name": "Freedom for Palestin",
        "event_total": 66,
        "has_played": true,
        "id": 6526546,
        "last_rank": 43701,
        "player_name": "Mohammed Sannan",
        "rank": 42197,
        "rank_sort": 42199,
        "total": 2358
      },
      {
        "club_badge_src": null,
        "entry": 2501031,
        "entry_name": "King Gunners",
        "event_total": 46,
        "has_played": true,
        "id": 17908391,
        "last_rank": 25680,
        "player_name": "Sagar Yadav",
        "rank": 42197,
        "rank_sort": 42200,
        "total": 2358
      }
    ]
  }
}