{
  "last_updated_data": "2026-05-24T23:28:17Z",
  "league": {
    "admin_entry": null,
    "closed": false,
    "code_privacy": "p",
    "created": "2025-07-20T23:14:33.933835Z",
    "cup_league": 2815434,
    "has_cup": true,
    "id": 314,
    "league_type": "s",
    "max_entries": null,
    "name": "Overall",
    "rank": null,
    "scoring": "c",
    "start_event": 1
  },
  "new_entries": {
    "has_next": false,
    "page": 1,
    "results": []
  },
  "standings": {
    "has_next": true,
    "page": 193,
    "results": [
      {
        "club_badge_src": null,
        "entry": 175376,
        "entry_name": "Taken Quickly Origi",
        "event_total": 62,
        "has_played": true,
        "id": 1157881,
        "last_rank": 11142,
        "player_name": "Abinav C",
        "rank": 9575,
        "rank_sort": 9601,
        "total": 2399
      },
      {
        "club_badge_src": "https://fantasy.premierleague.com/gcs/plfpl-production-adobe-approved/plfpl-production/206966/01373992-13ae-4c36-be0c-01da2a9bb7ee.png",
        "entry": 206966,
        "entry_name": "RR KK",
        "event_total": 61,
        "has_played": true,
        "id": 1375638,
        "last_rank": 10711,
        "player_name": "Ruangrit klaikaew",
        "rank": 9575,
        "rank_sort": 9602,
        "total": 2399
      },
      {
        "club_badge_src": null,
        "entry": 267620,
        "entry_name": "Team Both",
        "event_total": 64,
        "has_played": true,
        "id": 1780352,
        "last_rank": 12141,
        "player_name": "Tatchapong Arsasuwan",
        "rank": 9575,
        "rank_sort": 9603,
        "total": 2399
      },
      {
        "club_badge_src": null,
        "entry": 358198,
        "entry_name": "Benjamin Tesco",
        "event_total": 64,
        "has_played": true,
        "id": 2397062,
        "last_rank": 12200,
        "player_name": "Mason Triscott",
        "rank": 9575,
        "rank_sort": 9604,
        "total": 2399
      },
      {
        "club_badge_src": "https://fantasy.premierleague.com/gcs/plfpl-production-adobe-approved/plfpl-production/379481/8efc7c0a-464e-45d7-ad0a-68b9704af30a.png",
        "entry": 379481,
        "entry_name": "KROUPI CRAWLIES",
        "event_total": 47,
        "has_played": true,
        "id": 2542749,
        "last_rank": 5940,
        "player_name": "Samuel Thomas",
        "rank": 9575,
        "rank_sort": 9605,
        "total": 2399
      },
      {
        "club_badge_src": null,
        "entry": 388501,
        "entry_name": "Massimiliano Allegri",
        "event_total": 57,
        "has_played": true,
        "id": 2606183,
        "last_rank": 9248,
        "player_name": "Bo Ebrahim",
        "rank": 9575,
        "rank_sort": 9606,
        "total": 2399
      },
      {
        "club_badge_src": null,
        "entry": 402258,
        "entry_name": "FCMN",
        "event_total": 63,
        "has_played": true,
        "id": 2697251,
        "last_rank": 11699,
        "player_name": "Oded Solna",
        "rank": 9575,
        "rank_sort": 9607,
        "total": 2399
      },
      {
        "club_badge_src": null,
        "entry": 460669,
        "entry_name": "Daddychad",
        "event_total": 61,
        "has_played": true,
        "id": 3090235,
        "last_rank": 10748,
        "player_name": "Ryan Bagnall",
        "rank": 9575,
        "rank_sort": 9608,
        "total": 2399
      },
      {
        "club_badge_src": null,
        "entry": 527864,
        "entry_name": "Dwikat FC",
        "event_total": 61,
        "has_played": true,
        "id": 3548655,
        "last_rank": 10805,
        "player_name": "Shadi Dwikat",
        "rank": 9575,
        "rank_sort": 9609,
        "total": 2399
      },
      {
        "club_badge_src": null,
        "entry": 546938,
        "entry_name": "The Jackhammer",
        "event_total": 60,
        "has_played": true,
        "id": 3680859,
        "last_rank": 10346,
        "player_name": "Neal Fleming",
        "rank": 9575,
        "rank_sort": 9610,
        "total": 2399
      },
      {
        "club_badge_src": null,
        "entry": 622694,
        "entry_name": "castle",
        "event_total": 51,
        "has_played": true,
        "id": 4208153,
        "last_rank": 7059,
        "player_name": "Yousef Yasser",
        "rank": 9575,
        "rank_sort": 9611,
        "total": 2399
      },
      {
        "club_badge_src": null,
        "entry": 727160,
        "entry_name": "Frendsry United",
        "event_total": 62,
        "has_played": true,
        "id": 4940106,
        "last_rank": 11150,
        "player_name": "Ben Horton",
        "rank": 9575,
        "rank_sort": 9612,
        "total": 2399
      },
      {
        "club_badge_src": null,
        "entry": 761838,
        "entry_name": "1 -Dawid",
        "event_total": 76,
        "has_played": true,
        "id": 5195087,
        "last_rank": 19432,
        "player_name": "Dawid K\u0119dzierski",
        "rank": 9575,
        "rank_sort": 9613,
        "total": 2399
      },
      {
        "club_badge_src": null,
        "entry": 775436,
        "entry_name": "Club 13",
        "event_total": 54,
        "has_played": true,
        "id": 5290823,
        "last_rank": 8032,
        "player_name": "Chris Potts",
        "rank": 9575,
        "rank_sort": 9614,
        "total": 2399
      },
      {
        "club_badge_src": null,
        "entry": 776108,
        "entry_name": "Troubadours",
        "event_total": 68,
        "has_played": true,
        "id": 5295461,
        "last_rank": 14292,
        "player_name": "Adam Kepa",
        "rank": 9575,
        "rank_sort": 9615,
        "total": 2399
      },
      {
        "club_badge_src": null,
        "entry": 804413,
        "entry_name": "MyOwnWirtzNightmare",
        "event_total": 64,
        "has_played": true,
        "id": 5506546,
        "last_rank": 12109,
        "player_name": "Gustav Wittrock",
        "rank": 9575,
        "rank_sort": 9616,
        "total": 2399
      },
      {
        "club_badge_src": null,
        "entry": 825970,
        "entry_name": "ainz",
        "event_total": 56,
        "has_played": true,
        "id": 5657067,
        "last_rank": 8687,
        "player_name": "Ainz Ainz",
        "rank": 9575,
        "rank_sort": 9617,
        "total": 2399
      },
      {
        "club_badge_src": null,
        "entry": 865893,
        "entry_name": "weightmother",
        "event_total": 67,
        "has_played": true,
        "id": 5936108,
        "last_rank": 13720,
        "player_name": "plug zzaa",
        "rank": 9575,
        "rank_sort": 9618,
        "total": 2399
      },
      {
        "club_badge_src": null,
        "entry": 882671,
        "entry_name": "EMYU YuuuAhh",
        "event_total": 70,
        "has_played": true,
        "id": 6053360,
        "last_rank": 15550,
        "player_name": "Jauddar Saragih",
        "rank": 9575,
        "rank_sort": 9619,
        "total": 2399
      },
      {
        "club_badge_src": null,
        "entry": 903793,
        "entry_name": "PASTA UNITED",
        "event_total": 52,
        "has_played": true,
        "id": 6210195,
        "last_rank": 7375,
        "player_name": "Youvin Ramassami",
        "rank": 9575,
        "rank_sort": 9620,
        "total": 2399
      },
      {
        "club_badge_src": "https://fantasy.premierleague.com/gcs/plfpl-production-adobe-approved/plfpl-production/919861/ed4bd130-4e84-4eda-9928-08417d7969a2.png",
        "entry": 919861,
        "entry_name": "Clean Sheet InTheMud",
        "event_total": 63,
        "has_played": true,
        "id": 6326000,
        "last_rank": 11642,
        "player_name": "Nicklas Sommervold",
        "rank": 9575,
        "rank_sort": 9621,
        "total": 2399
      },
      {
        "club_badge_src": "https://fantasy.premierleague.com/gcs/plfpl-production-adobe-approved/plfpl-production/953167/58c90946-a46b-4700-a297-4205dd956b7f.png",
        "entry": 953167,
        "entry_name": "Gvardiols of Salahxy",
        "event_total": 64,
        "has_played": true,
        "id": 6567217,
        "last_rank": 12200,
        "player_name": "Mihael Ferne\u017eir",
        "rank": 9575,
        "rank_sort": 9622,
        "total": 2399
      },
      {
        "club_badge_src": null,
        "entry": 953591,
        "entry_name": "Waterford Whisperers",
        "event_total": 65,
        "has_played": true,
        "id": 6570173,
        "last_rank": 12705,
        "player_name": "James Nolan",
        "rank": 9575,
        "rank_sort": 9623,
        "total": 2399
      },
      {
        "club_badge_src": null,
        "entry": 1067953,
        "entry_name": "Lincoln park reds",
        "event_total": 62,
        "has_played": true,
        "id": 7393263,
        "last_rank": 11237,
        "player_name": "dylan royle",
        "rank": 9575,
        "rank_sort": 9624,
        "total": 2399
      },
      {
        "club_badge_src": null,
        "entry": 1075743,
        "entry_name": "European Standard",
        "event_total": 65,
        "has_played": true,
        "id": 7448200,
        "last_rank": 12705,
        "player_name": "Lee Scott",
        "rank": 9575,
        "rank_sort": 9625,
        "total": 2399
      },
      {
        "club_badge_src": null,
        "entry": 1122646,
        "entry_name": "Osgood As It Gets",
        "event_total": 56,
        "has_played": true,
        "id": 7778493,
        "last_rank": 8758,
        "player_name": "Mark Bruce",
        "rank": 9575,
        "rank_sort": 9626,
        "total": 2399
      },
      {
        "club_badge_src": null,
        "entry": 1202017,
        "entry_name": "Los Gallos",
        "event_total": 57,
        "has_played": true,
        "id": 8341400,
        "last_rank": 9077,
        "player_name": "jonathan williams",
        "rank": 9575,
        "rank_sort": 9627,
        "total": 2399
      },
      {
        "club_badge_src": null,
        "entry": 1266467,
        "entry_name": "Team Laffen",
        "event_total": 66,
        "has_played": true,
        "id": 8799636,
        "last_rank": 13257,
        "player_name": "Linda \u00d8stborg",
        "rank": 9575,
        "rank_sort": 9628,
        "total": 2399
      },
      {
        "club_badge_src": null,
        "entry": 1388452,
        "entry_name": "Ku\u011fulu Park Rangers",
        "event_total": 55,
        "has_played": true,
        "id": 9657877,
        "last_rank": 8382,
        "player_name": "Bekir Zehir",
        "rank": 9575,
        "rank_sort": 9629,
        "total": 2399
      },
      {
        "club_badge_src": "https://fantasy.premierleague.com/gcs/plfpl-production-adobe-approved/plfpl-production/1419035/4f0e87df-40de-4efc-ab61-9f6c84f1224b.png",
        "entry": 1419035,
        "entry_name": "One Reijnd Stand",
        "event_total": 65,
        "has_played": true,
        "id": 9880218,
        "last_rank": 12608,
        "player_name": "Kris Radzinsh",
        "rank": 9575,
        "rank_sort": 9630,
        "total": 2399
      },
      {
        "club_badge_src": null,
        "entry": 1492871,
        "entry_name": "El Rey del Golazo",
        "event_total": 66,
        "has_played": true,
        "id": 10410736,
        "last_rank": 13184,
        "player_name": "Mike Atkinson",
        "rank": 9575,
        "rank_sort": 9631,
        "total": 2399
      },
      {
        "club_badge_src": "https://fantasy.premierleague.com/gcs/plfpl-production-adobe-approved/plfpl-production/1970014/ba779b6d-8a5e-4e37-85ae-10ed5b563c7b.png",
        "entry": 1970014,
        "entry_name": "Harry's Heroes",
        "event_total": 62,
        "has_played": true,
        "id": 13903969,
        "last_rank": 11150,
        "player_name": "pat o'donnell",
        "rank": 9575,
        "rank_sort": 9632,
        "total": 2399
      },
      {
        "club_badge_src": null,
        "entry": 1993207,
        "entry_name": "Do The Haaland Shake",
        "event_total": 54,
        "has_played": true,
        "id": 14083336,
        "last_rank": 7979,
        "player_name": "Ash Ewan-Brace",
        "rank": 9575,
        "rank_sort": 9633,
        "total": 2399
      },
      {
        "club_badge_src": "https://fantasy.premierleague.com/gcs/plfpl-production-adobe-approved/plfpl-production/2069776/8e54aa73-e5f2-4f37-9eee-5f10bd2ca175.png",
        "entry": 2069776,
        "entry_name": "Meadowlands",
        "event_total": 62,
        "has_played": true,
        "id": 14671960,
        "last_rank": 11175,
        "player_name": "Ronan Scully",
        "rank": 9575,
        "rank_sort": 9634,
        "total": 2399
      },
      {
        "club_badge_src": null,
        "entry": 2089068,
        "entry_name": "Hwang-over",
        "event_total": 31,
        "has_played": true,
        "id": 14821340,
        "last_rank": 2824,
        "player_name": "Eden Hewlett",
        "rank": 9575,
        "rank_sort": 9635,
        "total": 2399
      },
      {
        "club_badge_src": null,
        "entry": 2174554,
        "entry_name": "Rouge Rovers",
        "event_total": 61,
        "has_played": true,
        "id": 15462582,
        "last_rank": 10805,
        "player_name": "Alan McGregor",
        "rank": 9575,
        "rank_sort": 9636,
        "total": 2399
      },
      {
        "club_badge_src": null,
        "entry": 2192150,
        "entry_name": "Real Badger",
        "event_total": 68,
        "has_played": true,
        "id": 15596388,
        "last_rank": 14292,
        "player_name": "Steve Smith",
        "rank": 9575,
        "rank_sort": 9637,
        "total": 2399
      },
      {
        "club_badge_src": null,
        "entry": 2207349,
        "entry_name": "2nd Kane hit deTower",
        "event_total": 80,
        "has_played": true,
        "id": 15717115,
        "last_rank": 22391,
        "player_name": "Sebastian La Mendola",
        "rank": 9575,
        "rank_sort": 9638,
        "total": 2399
      },
      {
        "club_badge_src": null,
        "entry": 2238652,
        "entry_name": "UP THE VILLA",
        "event_total": 58,
        "has_played": true,
        "id": 15948365,
        "last_rank": 9536,
        "player_name": "Sofoklis Georgiou",
        "rank": 9575,
        "rank_sort": 9639,
        "total": 2399
      },
      {
        "club_badge_src": null,
        "entry": 2296208,
        "entry_name": "Pino Kamada\u2019s",
        "event_total": 66,
        "has_played": true,
        "id": 16376781,
        "last_rank": 13184,
        "player_name": "Tom Lewis",
        "rank": 9575,
        "rank_sort": 9640,
        "total": 2399
      },
      {
        "club_badge_src": null,
        "entry": 2519514,
        "entry_name": "Spooner FC",
        "event_total": 64,
        "has_played": true,
        "id": 18052259,
        "last_rank": 12141,
        "player_name": "Thomas Spooner",
        "rank": 9575,
        "rank_sort": 9641,
        "total": 2399
      },
      {
        "club_badge_src": null,
        "entry": 2750907,
        "entry_name": "security series EP.4",
        "event_total": 66,
        "has_played": true,
        "id": 19985863,
        "last_rank": 13257,
        "player_name": "Chayuttan Poosanachakorn",
        "rank": 9575,
        "rank_sort": 9642,
        "total": 2399
      },
      {
        "club_badge_src": null,
        "entry": 2760274,
        "entry_name": "Ibrojani FC",
        "event_total": 73,
        "has_played": true,
        "id": 20136864,
        "last_rank": 17358,
        "player_name": "Ibrahim Tijjani",
        "rank": 9575,
        "rank_sort": 9643,
        "total": 2399
      },
      {
        "club_badge_src": null,
        "entry": 2788439,
        "entry_name": "Change Name",
        "event_total": 79,
        "has_played": true,
        "id": 20357541,
        "last_rank": 21677,
        "player_name": "Ted Newborn",
        "rank": 9575,
        "rank_sort": 9644,
        "total": 2399
      },
      {
        "club_badge_src": null,
        "entry": 2886518,
        "entry_name": "GloryGlory Stout Utd",
        "event_total": 66,
        "has_played": true,
        "id": 21132765,
        "last_rank": 13257,
        "player_name": "Andrew Stout",
        "rank": 9575,
        "rank_sort": 9645,
        "total": 2399
      },
      {
        "club_badge_src": null,
        "entry": 3008192,
        "entry_name": "FCTatran Pre\u0161ov",
        "event_total": 46,
        "has_played": true,
        "id": 22128948,
        "last_rank": 5688,
        "player_name": "J\u00e1n Bern\u00e1t",
        "rank": 9575,
        "rank_sort": 9646,
        "total": 2399
      },
      {
        "club_badge_src": null,
        "entry": 3032039,
        "entry_name": "AFC Richmond",
        "event_total": 76,
        "has_played": true,
        "id": 22312412,
        "last_rank": 19544,
        "player_name": "Haffidz Rahman",
        "rank": 9575,
        "rank_sort": 9647,
        "total": 2399
      },
      {
        "club_badge_src": null,
        "entry": 3032153,
        "entry_name": "RhomRhom",
        "event_total": 62,
        "has_played": true,
        "id": 22313287,
        "last_rank": 11237,
        "player_name": "Cody Catano",
        "rank": 9575,
        "rank_sort": 9648,
        "total": 2399
      },
      {
        "club_badge_src": null,
        "entry": 3079813,
        "entry_name": "bevans ballers",
        "event_total": 56,
        "has_played": true,
        "id": 22689349,
        "last_rank": 8758,
        "player_name": "Benjamin Bevan",
        "rank": 9575,
        "rank_sort": 9649,
        "total": 2399
      },
      {
        "club_badge_src": null,
        "entry": 3212629,
        "entry_name": "Gregs",
        "event_total": 57,
        "has_played": true,
        "id": 23752032,
        "last_rank": 9089,
        "player_name": "Liam Cassidy",
        "rank": 9575,
        "rank_sort": 9650,
        "total": 2399
      }
    ]
  }
}