{
  "last_updated_data": "2026-05-24T23:28:17Z",
  "league": {
    "admin_entry": null,
    "closed": false,
    "code_privacy": "p",
    "created": "2025-07-20T23:14:33.933835Z",
    "cup_league": 2815434,
    "has_cup": true,
    "id": 314,
    "league_type": "s",
    "max_entries": null,
    "name": "Overall",
    "rank": null,
    "scoring": "c",
    "start_event": 1
  },
  "new_entries": {
    "has_next": false,
    "page": 1,
    "results": []
  },
  "standings": {
    "has_next": true,
    "page": 1043,
    "results": [
      {
        "club_badge_src": null,
        "entry": 2506736,
        "entry_name": "Salts Slackers",
        "event_total": 54,
        "has_played": true,
        "id": 17951524,
        "last_rank": 42152,
        "player_name": "James Salter",
        "rank": 52080,
        "rank_sort": 52101,
        "total": 2351
      },
      {
        "club_badge_src": "https://fantasy.premierleague.com/gcs/plfpl-production-adobe-approved/plfpl-production/2506820/dba28652-1e44-4a1b-a6b2-584e3577eb54.png",
        "entry": 2506820,
        "entry_name": "Longevity",
        "event_total": 46,
        "has_played": true,
        "id": 17952166,
        "last_rank": 28348,
        "player_name": "Mishary J",
        "rank": 52080,
        "rank_sort": 52102,
        "total": 2351
      },
      {
        "club_badge_src": null,
        "entry": 2681755,
        "entry_name": "Aiden's 11",
        "event_total": 69,
        "has_played": true,
        "id": 19287592,
        "last_rank": 74395,
        "player_name": "Clinton Hoopraj",
        "rank": 52080,
        "rank_sort": 52103,
        "total": 2351
      },
      {
        "club_badge_src": null,
        "entry": 2708041,
        "entry_name": "Reece's Set Pieces",
        "event_total": 63,
        "has_played": true,
        "id": 19483367,
        "last_rank": 55659,
        "player_name": "Sam Bonser",
        "rank": 52080,
        "rank_sort": 52104,
        "total": 2351
      },
      {
        "club_badge_src": null,
        "entry": 2825051,
        "entry_name": "Bowen 747",
        "event_total": 49,
        "has_played": true,
        "id": 20640351,
        "last_rank": 31309,
        "player_name": "Hayden Lambert",
        "rank": 52080,
        "rank_sort": 52105,
        "total": 2351
      },
      {
        "club_badge_src": "https://fantasy.premierleague.com/gcs/plfpl-production-adobe-approved/plfpl-production/2827258/b60d6fae-6a68-4a1a-b6df-1eac199d4408.png",
        "entry": 2827258,
        "entry_name": "Pedro Porridge FC",
        "event_total": 64,
        "has_played": true,
        "id": 20657185,
        "last_rank": 57451,
        "player_name": "STEPHEN FRASER",
        "rank": 52080,
        "rank_sort": 52106,
        "total": 2351
      },
      {
        "club_badge_src": null,
        "entry": 2897226,
        "entry_name": "tailenders VI",
        "event_total": 43,
        "has_played": true,
        "id": 21228182,
        "last_rank": 33651,
        "player_name": "Shyam Parekh",
        "rank": 52080,
        "rank_sort": 52107,
        "total": 2351
      },
      {
        "club_badge_src": null,
        "entry": 3242973,
        "entry_name": "Zirkzee & I know it!",
        "event_total": 41,
        "has_played": true,
        "id": 23988824,
        "last_rank": 31404,
        "player_name": "Gareth Newberry",
        "rank": 52080,
        "rank_sort": 52108,
        "total": 2351
      },
      {
        "club_badge_src": null,
        "entry": 3656579,
        "entry_name": "Kuol and the gang",
        "event_total": 61,
        "has_played": true,
        "id": 27266295,
        "last_rank": 59170,
        "player_name": "Gazza Rush",
        "rank": 52080,
        "rank_sort": 52109,
        "total": 2351
      },
      {
        "club_badge_src": null,
        "entry": 3868195,
        "entry_name": "PK",
        "event_total": 67,
        "has_played": true,
        "id": 29010625,
        "last_rank": 55659,
        "player_name": "Peter Kaawy",
        "rank": 52080,
        "rank_sort": 52110,
        "total": 2351
      },
      {
        "club_badge_src": null,
        "entry": 4164325,
        "entry_name": "Slotball",
        "event_total": 67,
        "has_played": true,
        "id": 31490139,
        "last_rank": 55659,
        "player_name": "Fraser Beveridge",
        "rank": 52080,
        "rank_sort": 52111,
        "total": 2351
      },
      {
        "club_badge_src": null,
        "entry": 4372040,
        "entry_name": "Let There Be Gy\u00f6k",
        "event_total": 58,
        "has_played": true,
        "id": 33216011,
        "last_rank": 54065,
        "player_name": "Andy Bude",
        "rank": 52080,
        "rank_sort": 52112,
        "total": 2351
      },
      {
        "club_badge_src": null,
        "entry": 4409090,
        "entry_name": "Nemesis Fc",
        "event_total": 46,
        "has_played": true,
        "id": 33538763,
        "last_rank": 32491,
        "player_name": "Reflection Mupaya",
        "rank": 52080,
        "rank_sort": 52113,
        "total": 2351
      },
      {
        "club_badge_src": null,
        "entry": 4476781,
        "entry_name": "floMaster",
        "event_total": 66,
        "has_played": true,
        "id": 34117093,
        "last_rank": 68294,
        "player_name": "Nikola Jovanovic",
        "rank": 52080,
        "rank_sort": 52114,
        "total": 2351
      },
      {
        "club_badge_src": null,
        "entry": 4499255,
        "entry_name": "11 chefs a cookin'",
        "event_total": 63,
        "has_played": true,
        "id": 34300170,
        "last_rank": 49078,
        "player_name": "Jo Rodgers",
        "rank": 52080,
        "rank_sort": 52115,
        "total": 2351
      },
      {
        "club_badge_src": null,
        "entry": 4597543,
        "entry_name": "Hause every weekend",
        "event_total": 66,
        "has_played": true,
        "id": 35114914,
        "last_rank": 68294,
        "player_name": "Douglas Bridge",
        "rank": 52080,
        "rank_sort": 52116,
        "total": 2351
      },
      {
        "club_badge_src": null,
        "entry": 5155322,
        "entry_name": "JBCS United",
        "event_total": 66,
        "has_played": true,
        "id": 39888554,
        "last_rank": 60933,
        "player_name": "Jim Turner",
        "rank": 52080,
        "rank_sort": 52117,
        "total": 2351
      },
      {
        "club_badge_src": null,
        "entry": 5717133,
        "entry_name": "Stenfors BK",
        "event_total": 49,
        "has_played": true,
        "id": 44778906,
        "last_rank": 40878,
        "player_name": "Filip Brodd",
        "rank": 52080,
        "rank_sort": 52118,
        "total": 2351
      },
      {
        "club_badge_src": null,
        "entry": 5943881,
        "entry_name": "\u0627\u0644\u0645\u064f\u0647\u0644\u0647\u0640\u0650\u0640\u0640\u0640\u0640\u0640\u0640\u0644 FC",
        "event_total": 43,
        "has_played": true,
        "id": 46744006,
        "last_rank": 33695,
        "player_name": "abo adn",
        "rank": 52080,
        "rank_sort": 52119,
        "total": 2351
      },
      {
        "club_badge_src": null,
        "entry": 6144092,
        "entry_name": "Safar FC",
        "event_total": 60,
        "has_played": true,
        "id": 48561089,
        "last_rank": 50848,
        "player_name": "Mohammad Safari Majd",
        "rank": 52080,
        "rank_sort": 52120,
        "total": 2351
      },
      {
        "club_badge_src": null,
        "entry": 6292927,
        "entry_name": "Amarquez F.C.",
        "event_total": 61,
        "has_played": true,
        "id": 49866226,
        "last_rank": 59249,
        "player_name": "Aldo Marquez",
        "rank": 52080,
        "rank_sort": 52121,
        "total": 2351
      },
      {
        "club_badge_src": null,
        "entry": 6314301,
        "entry_name": "Fc FN",
        "event_total": 51,
        "has_played": true,
        "id": 50105653,
        "last_rank": 43570,
        "player_name": "August Storm Lyngb\u00e6k",
        "rank": 52080,
        "rank_sort": 52122,
        "total": 2351
      },
      {
        "club_badge_src": null,
        "entry": 7907589,
        "entry_name": "City Slickers",
        "event_total": 60,
        "has_played": true,
        "id": 65055539,
        "last_rank": 57515,
        "player_name": "Paul Allott",
        "rank": 52080,
        "rank_sort": 52123,
        "total": 2351
      },
      {
        "club_badge_src": "https://fantasy.premierleague.com/gcs/plfpl-production-adobe-approved/plfpl-production/9052371/7b65f3b2-2a25-40f1-8aee-842c97e649fc.png",
        "entry": 9052371,
        "entry_name": "Charli xGx",
        "event_total": 65,
        "has_played": true,
        "id": 75988492,
        "last_rank": 66296,
        "player_name": "Long Au",
        "rank": 52080,
        "rank_sort": 52124,
        "total": 2351
      },
      {
        "club_badge_src": null,
        "entry": 2335,
        "entry_name": "Rutter Woke Nonsense",
        "event_total": 60,
        "has_played": true,
        "id": 13015,
        "last_rank": 57515,
        "player_name": "Luke Pelham",
        "rank": 52125,
        "rank_sort": 52125,
        "total": 2351
      },
      {
        "club_badge_src": "https://fantasy.premierleague.com/gcs/plfpl-production-adobe-approved/plfpl-production/15952/9f92e542-8090-485b-807c-a8baa4b845ce.png",
        "entry": 15952,
        "entry_name": "Veni Vidi Vici",
        "event_total": 64,
        "has_played": true,
        "id": 98278,
        "last_rank": 64562,
        "player_name": "Jonah Sinclair",
        "rank": 52125,
        "rank_sort": 52126,
        "total": 2351
      },
      {
        "club_badge_src": null,
        "entry": 190759,
        "entry_name": "FC barca",
        "event_total": 76,
        "has_played": true,
        "id": 1263329,
        "last_rank": 80877,
        "player_name": "Ilyas Khedimi",
        "rank": 52125,
        "rank_sort": 52127,
        "total": 2351
      },
      {
        "club_badge_src": null,
        "entry": 261849,
        "entry_name": "The Konate Kid",
        "event_total": 74,
        "has_played": true,
        "id": 1740718,
        "last_rank": 76574,
        "player_name": "Jack Murphy",
        "rank": 52125,
        "rank_sort": 52128,
        "total": 2351
      },
      {
        "club_badge_src": "https://fantasy.premierleague.com/gcs/plfpl-production-adobe-approved/plfpl-production/370783/38981807-f2ee-4f55-8475-91927fca5fd2.png",
        "entry": 370783,
        "entry_name": "Messinho Express",
        "event_total": 72,
        "has_played": true,
        "id": 2481108,
        "last_rank": 72265,
        "player_name": "Daniel Oen",
        "rank": 52125,
        "rank_sort": 52129,
        "total": 2351
      },
      {
        "club_badge_src": "https://fantasy.premierleague.com/gcs/plfpl-production-adobe-approved/plfpl-production/483824/b3d6c5fa-7e7c-49a6-a705-ccbc206da494.png",
        "entry": 483824,
        "entry_name": "Expected Toulouse",
        "event_total": 55,
        "has_played": true,
        "id": 3247701,
        "last_rank": 43570,
        "player_name": "Aziz Rami",
        "rank": 52125,
        "rank_sort": 52130,
        "total": 2351
      },
      {
        "club_badge_src": null,
        "entry": 510885,
        "entry_name": "PREDATORKING",
        "event_total": 54,
        "has_played": true,
        "id": 3430709,
        "last_rank": 47920,
        "player_name": "Deb Das",
        "rank": 52125,
        "rank_sort": 52131,
        "total": 2351
      },
      {
        "club_badge_src": null,
        "entry": 630095,
        "entry_name": "Zaccattack",
        "event_total": 34,
        "has_played": true,
        "id": 4257810,
        "last_rank": 24735,
        "player_name": "Marcus Roberto Zaccheddu",
        "rank": 52125,
        "rank_sort": 52132,
        "total": 2351
      },
      {
        "club_badge_src": null,
        "entry": 728932,
        "entry_name": "Beckcam1",
        "event_total": 72,
        "has_played": true,
        "id": 4952589,
        "last_rank": 72346,
        "player_name": "Campbell Dearden",
        "rank": 52125,
        "rank_sort": 52133,
        "total": 2351
      },
      {
        "club_badge_src": null,
        "entry": 960838,
        "entry_name": "PAKO FC",
        "event_total": 83,
        "has_played": true,
        "id": 6621200,
        "last_rank": 107485,
        "player_name": "Oliver Pakenham",
        "rank": 52125,
        "rank_sort": 52134,
        "total": 2351
      },
      {
        "club_badge_src": null,
        "entry": 990894,
        "entry_name": "Couldn\u2019t Care Less",
        "event_total": 65,
        "has_played": true,
        "id": 6832451,
        "last_rank": 59249,
        "player_name": "Simon Johnson",
        "rank": 52125,
        "rank_sort": 52135,
        "total": 2351
      },
      {
        "club_badge_src": null,
        "entry": 1280034,
        "entry_name": "Mo gave you Kudus",
        "event_total": 71,
        "has_played": true,
        "id": 8894660,
        "last_rank": 78730,
        "player_name": "Finn Elliot",
        "rank": 52125,
        "rank_sort": 52136,
        "total": 2351
      },
      {
        "club_badge_src": null,
        "entry": 2085998,
        "entry_name": "JB Rocks 25/26",
        "event_total": 67,
        "has_played": true,
        "id": 14798441,
        "last_rank": 62812,
        "player_name": "Jason Benton",
        "rank": 52125,
        "rank_sort": 52137,
        "total": 2351
      },
      {
        "club_badge_src": null,
        "entry": 2189238,
        "entry_name": "Bowen 747",
        "event_total": 64,
        "has_played": true,
        "id": 15574637,
        "last_rank": 57200,
        "player_name": "Benjy Thake",
        "rank": 52125,
        "rank_sort": 52138,
        "total": 2351
      },
      {
        "club_badge_src": null,
        "entry": 2414339,
        "entry_name": "Why always me",
        "event_total": 50,
        "has_played": true,
        "id": 17258823,
        "last_rank": 42263,
        "player_name": "Mahmoud Salah",
        "rank": 52125,
        "rank_sort": 52139,
        "total": 2351
      },
      {
        "club_badge_src": null,
        "entry": 2681660,
        "entry_name": "Tesco McNeil Deal",
        "event_total": 49,
        "has_played": true,
        "id": 19286885,
        "last_rank": 31309,
        "player_name": "Lewis Cox",
        "rank": 52125,
        "rank_sort": 52140,
        "total": 2351
      },
      {
        "club_badge_src": null,
        "entry": 3176932,
        "entry_name": "\ufffd\ufffd\ufffd\ufffd\ufffd\ufffd\ufffd\ufffd\ufffd\ufffd\ufffd\ufffd",
        "event_total": 44,
        "has_played": true,
        "id": 23474736,
        "last_rank": 34825,
        "player_name": "Yasser Mkkawy",
        "rank": 52125,
        "rank_sort": 52141,
        "total": 2351
      },
      {
        "club_badge_src": null,
        "entry": 3982064,
        "entry_name": "Allan Nyom",
        "event_total": 89,
        "has_played": true,
        "id": 29976052,
        "last_rank": 102125,
        "player_name": "Nick B",
        "rank": 52125,
        "rank_sort": 52142,
        "total": 2351
      },
      {
        "club_badge_src": null,
        "entry": 5206579,
        "entry_name": "Diff Utd",
        "event_total": 52,
        "has_played": true,
        "id": 40326254,
        "last_rank": 44982,
        "player_name": "Emil Skou",
        "rank": 52125,
        "rank_sort": 52143,
        "total": 2351
      },
      {
        "club_badge_src": "https://fantasy.premierleague.com/gcs/plfpl-production-adobe-approved/plfpl-production/5322186/088e82c7-74cb-4d31-8947-dee463be29e5.png",
        "entry": 5322186,
        "entry_name": "Panda_Mafia FC",
        "event_total": 60,
        "has_played": true,
        "id": 41257818,
        "last_rank": 50848,
        "player_name": "Adhikari Anuj",
        "rank": 52125,
        "rank_sort": 52144,
        "total": 2351
      },
      {
        "club_badge_src": null,
        "entry": 5739101,
        "entry_name": "Jussibassijom! FC",
        "event_total": 71,
        "has_played": true,
        "id": 44968764,
        "last_rank": 70276,
        "player_name": "Lars Ove Elli",
        "rank": 52125,
        "rank_sort": 52145,
        "total": 2351
      },
      {
        "club_badge_src": null,
        "entry": 5909290,
        "entry_name": "Ping Frim pong",
        "event_total": 66,
        "has_played": true,
        "id": 46435640,
        "last_rank": 61004,
        "player_name": "Prashan Harjani",
        "rank": 52125,
        "rank_sort": 52146,
        "total": 2351
      },
      {
        "club_badge_src": null,
        "entry": 5956836,
        "entry_name": "Kratos",
        "event_total": 62,
        "has_played": true,
        "id": 46859884,
        "last_rank": 61045,
        "player_name": "Calvin Justus",
        "rank": 52125,
        "rank_sort": 52147,
        "total": 2351
      },
      {
        "club_badge_src": null,
        "entry": 6408925,
        "entry_name": "McGinn & Tonic",
        "event_total": 76,
        "has_played": true,
        "id": 50998617,
        "last_rank": 64319,
        "player_name": "James Aldis",
        "rank": 52125,
        "rank_sort": 52148,
        "total": 2351
      },
      {
        "club_badge_src": null,
        "entry": 6460297,
        "entry_name": "Brown Town",
        "event_total": 57,
        "has_played": true,
        "id": 51462745,
        "last_rank": 46364,
        "player_name": "Louie Lazenby",
        "rank": 52125,
        "rank_sort": 52149,
        "total": 2351
      },
      {
        "club_badge_src": null,
        "entry": 7346849,
        "entry_name": "dontknowwhatiamdoing",
        "event_total": 57,
        "has_played": true,
        "id": 59515979,
        "last_rank": 52561,
        "player_name": "Kevin Huang",
        "rank": 52125,
        "rank_sort": 52150,
        "total": 2351
      }
    ]
  }
}