{
  "last_updated_data": "2026-05-24T23:28:17Z",
  "league": {
    "admin_entry": null,
    "closed": false,
    "code_privacy": "p",
    "created": "2025-07-20T23:14:33.933835Z",
    "cup_league": 2815434,
    "has_cup": true,
    "id": 314,
    "league_type": "s",
    "max_entries": null,
    "name": "Overall",
    "rank": null,
    "scoring": "c",
    "start_event": 1
  },
  "new_entries": {
    "has_next": false,
    "page": 1,
    "results": []
  },
  "standings": {
    "has_next": true,
    "page": 1247,
    "results": [
      {
        "club_badge_src": null,
        "entry": 5405460,
        "entry_name": "Now im a Baleba",
        "event_total": 32,
        "has_played": true,
        "id": 42031895,
        "last_rank": 28609,
        "player_name": "Kyle Mckenzie",
        "rank": 62269,
        "rank_sort": 62301,
        "total": 2344
      },
      {
        "club_badge_src": null,
        "entry": 5427908,
        "entry_name": "Blood on the CrossBa",
        "event_total": 81,
        "has_played": true,
        "id": 42219290,
        "last_rank": 108408,
        "player_name": "Risku Samuel",
        "rank": 62269,
        "rank_sort": 62302,
        "total": 2344
      },
      {
        "club_badge_src": null,
        "entry": 5564982,
        "entry_name": "Scaramanga\u2019s Revenge",
        "event_total": 56,
        "has_played": true,
        "id": 43449569,
        "last_rank": 61258,
        "player_name": "Christopher Moran",
        "rank": 62269,
        "rank_sort": 62303,
        "total": 2344
      },
      {
        "club_badge_src": null,
        "entry": 6164352,
        "entry_name": "Stephen's Team",
        "event_total": 56,
        "has_played": true,
        "id": 48736736,
        "last_rank": 61411,
        "player_name": "Stephen Durkin",
        "rank": 62269,
        "rank_sort": 62304,
        "total": 2344
      },
      {
        "club_badge_src": null,
        "entry": 6223313,
        "entry_name": "Peaky Reijnders",
        "event_total": 36,
        "has_played": true,
        "id": 49244663,
        "last_rank": 32688,
        "player_name": "Stacey Boulton",
        "rank": 62269,
        "rank_sort": 62305,
        "total": 2344
      },
      {
        "club_badge_src": null,
        "entry": 6390163,
        "entry_name": "Chippy Chips",
        "event_total": 61,
        "has_played": true,
        "id": 50831021,
        "last_rank": 70566,
        "player_name": "Cold Palmer",
        "rank": 62269,
        "rank_sort": 62306,
        "total": 2344
      },
      {
        "club_badge_src": null,
        "entry": 6715945,
        "entry_name": "Musical Jair",
        "event_total": 44,
        "has_played": true,
        "id": 53747652,
        "last_rank": 42506,
        "player_name": "Isaac Cahill",
        "rank": 62269,
        "rank_sort": 62307,
        "total": 2344
      },
      {
        "club_badge_src": null,
        "entry": 6763696,
        "entry_name": "Fiddler FC",
        "event_total": 63,
        "has_played": true,
        "id": 54154808,
        "last_rank": 74898,
        "player_name": "Matt Fiddler",
        "rank": 62269,
        "rank_sort": 62308,
        "total": 2344
      },
      {
        "club_badge_src": null,
        "entry": 6948497,
        "entry_name": "@_es_3_",
        "event_total": 87,
        "has_played": true,
        "id": 55714981,
        "last_rank": 139016,
        "player_name": "Mehdi Safini",
        "rank": 62269,
        "rank_sort": 62309,
        "total": 2344
      },
      {
        "club_badge_src": null,
        "entry": 7524216,
        "entry_name": "Backstreet Moyes",
        "event_total": 63,
        "has_played": true,
        "id": 61571286,
        "last_rank": 74898,
        "player_name": "Claire Gale",
        "rank": 62269,
        "rank_sort": 62310,
        "total": 2344
      },
      {
        "club_badge_src": null,
        "entry": 7535201,
        "entry_name": "Goalden Jules",
        "event_total": 54,
        "has_played": true,
        "id": 61675709,
        "last_rank": 57857,
        "player_name": "Julie Becklund",
        "rank": 62269,
        "rank_sort": 62311,
        "total": 2344
      },
      {
        "club_badge_src": null,
        "entry": 7661977,
        "entry_name": "Gaza",
        "event_total": 76,
        "has_played": true,
        "id": 62825352,
        "last_rank": 105723,
        "player_name": "Ab Yahia",
        "rank": 62269,
        "rank_sort": 62312,
        "total": 2344
      },
      {
        "club_badge_src": null,
        "entry": 7889034,
        "entry_name": "Hazard FC",
        "event_total": 59,
        "has_played": true,
        "id": 64885457,
        "last_rank": 66693,
        "player_name": "Cannet Anderson",
        "rank": 62269,
        "rank_sort": 62313,
        "total": 2344
      },
      {
        "club_badge_src": null,
        "entry": 7926693,
        "entry_name": "Hogwarts11",
        "event_total": 53,
        "has_played": true,
        "id": 65228959,
        "last_rank": 56099,
        "player_name": "Baeshaz Pastakia",
        "rank": 62269,
        "rank_sort": 62314,
        "total": 2344
      },
      {
        "club_badge_src": null,
        "entry": 8128539,
        "entry_name": "Charlie xGx",
        "event_total": 65,
        "has_played": true,
        "id": 67068360,
        "last_rank": 79079,
        "player_name": "Lottie Greenham",
        "rank": 62269,
        "rank_sort": 62315,
        "total": 2344
      },
      {
        "club_badge_src": "https://fantasy.premierleague.com/gcs/plfpl-production-adobe-approved/plfpl-production/8252099/e35efa6f-e4d3-4f81-82fa-9876405a4cd0.png",
        "entry": 8252099,
        "entry_name": "Borussia Teeth",
        "event_total": 59,
        "has_played": true,
        "id": 68244249,
        "last_rank": 66658,
        "player_name": "Ben Toulmin",
        "rank": 62269,
        "rank_sort": 62316,
        "total": 2344
      },
      {
        "club_badge_src": null,
        "entry": 8329352,
        "entry_name": "Lil Uzi Wirtz",
        "event_total": 72,
        "has_played": true,
        "id": 69008590,
        "last_rank": 85836,
        "player_name": "link link",
        "rank": 62269,
        "rank_sort": 62317,
        "total": 2344
      },
      {
        "club_badge_src": null,
        "entry": 8364665,
        "entry_name": "Kindergarten klopp",
        "event_total": 59,
        "has_played": true,
        "id": 69343738,
        "last_rank": 66738,
        "player_name": "Niall Callan",
        "rank": 62269,
        "rank_sort": 62318,
        "total": 2344
      },
      {
        "club_badge_src": null,
        "entry": 8749829,
        "entry_name": "Peaky Reijnders",
        "event_total": 50,
        "has_played": true,
        "id": 73061827,
        "last_rank": 51112,
        "player_name": "Jordan Clarke",
        "rank": 62269,
        "rank_sort": 62319,
        "total": 2344
      },
      {
        "club_badge_src": null,
        "entry": 6904,
        "entry_name": "Gy\u00f6k Tuah",
        "event_total": 63,
        "has_played": true,
        "id": 39727,
        "last_rank": 74741,
        "player_name": "Emma Jensen Marthinussen",
        "rank": 62320,
        "rank_sort": 62320,
        "total": 2344
      },
      {
        "club_badge_src": null,
        "entry": 13476,
        "entry_name": "Chang United",
        "event_total": 60,
        "has_played": true,
        "id": 81444,
        "last_rank": 68748,
        "player_name": "Will Cork-Dove",
        "rank": 62320,
        "rank_sort": 62321,
        "total": 2344
      },
      {
        "club_badge_src": null,
        "entry": 21074,
        "entry_name": "FC Mofjell",
        "event_total": 68,
        "has_played": true,
        "id": 132070,
        "last_rank": 86054,
        "player_name": "Fredrik Mofjell",
        "rank": 62320,
        "rank_sort": 62322,
        "total": 2344
      },
      {
        "club_badge_src": null,
        "entry": 54516,
        "entry_name": "Gears Squad",
        "event_total": 75,
        "has_played": true,
        "id": 350865,
        "last_rank": 103017,
        "player_name": "Karim Samy",
        "rank": 62320,
        "rank_sort": 62323,
        "total": 2344
      },
      {
        "club_badge_src": null,
        "entry": 114993,
        "entry_name": "Ali Dashti",
        "event_total": 56,
        "has_played": true,
        "id": 750320,
        "last_rank": 61606,
        "player_name": "Ali Dashti",
        "rank": 62320,
        "rank_sort": 62324,
        "total": 2344
      },
      {
        "club_badge_src": null,
        "entry": 118450,
        "entry_name": "Charli xGx",
        "event_total": 59,
        "has_played": true,
        "id": 773050,
        "last_rank": 67063,
        "player_name": "James Tippett",
        "rank": 62320,
        "rank_sort": 62325,
        "total": 2344
      },
      {
        "club_badge_src": null,
        "entry": 128438,
        "entry_name": "Let God sort em out",
        "event_total": 42,
        "has_played": true,
        "id": 837220,
        "last_rank": 40036,
        "player_name": "Kings Ford",
        "rank": 62320,
        "rank_sort": 62326,
        "total": 2344
      },
      {
        "club_badge_src": "https://fantasy.premierleague.com/gcs/plfpl-production-adobe-approved/plfpl-production/177061/72561195-9c58-4607-a172-dc3e30f7abe4.png",
        "entry": 177061,
        "entry_name": "Saka Potatoes",
        "event_total": 54,
        "has_played": true,
        "id": 1168730,
        "last_rank": 57776,
        "player_name": "Matt Bullard",
        "rank": 62320,
        "rank_sort": 62327,
        "total": 2344
      },
      {
        "club_badge_src": null,
        "entry": 202059,
        "entry_name": "Haalandaise Sauce",
        "event_total": 68,
        "has_played": true,
        "id": 1341749,
        "last_rank": 86054,
        "player_name": "Max Nilsson",
        "rank": 62320,
        "rank_sort": 62328,
        "total": 2344
      },
      {
        "club_badge_src": null,
        "entry": 233098,
        "entry_name": "Kai me a river",
        "event_total": 43,
        "has_played": true,
        "id": 1550905,
        "last_rank": 41324,
        "player_name": "Ben Dover",
        "rank": 62320,
        "rank_sort": 62329,
        "total": 2344
      },
      {
        "club_badge_src": null,
        "entry": 246390,
        "entry_name": "FreshPrinceUnited",
        "event_total": 48,
        "has_played": true,
        "id": 1640344,
        "last_rank": 48084,
        "player_name": "Christian Bang-Larsen",
        "rank": 62320,
        "rank_sort": 62330,
        "total": 2344
      },
      {
        "club_badge_src": null,
        "entry": 268507,
        "entry_name": "Team Name",
        "event_total": 61,
        "has_played": true,
        "id": 1786271,
        "last_rank": 70757,
        "player_name": "Steve Hipp",
        "rank": 62320,
        "rank_sort": 62331,
        "total": 2344
      },
      {
        "club_badge_src": null,
        "entry": 304666,
        "entry_name": "TescoMcNeilDeal",
        "event_total": 53,
        "has_played": true,
        "id": 2039964,
        "last_rank": 56180,
        "player_name": "Jack Coburn",
        "rank": 62320,
        "rank_sort": 62332,
        "total": 2344
      },
      {
        "club_badge_src": null,
        "entry": 671349,
        "entry_name": "Danso Days",
        "event_total": 58,
        "has_played": true,
        "id": 4540882,
        "last_rank": 64943,
        "player_name": "Ryan Wycherley",
        "rank": 62320,
        "rank_sort": 62333,
        "total": 2344
      },
      {
        "club_badge_src": null,
        "entry": 696520,
        "entry_name": "Bilbao Baggins",
        "event_total": 49,
        "has_played": true,
        "id": 4717812,
        "last_rank": 49880,
        "player_name": "Scott Mather",
        "rank": 62320,
        "rank_sort": 62334,
        "total": 2344
      },
      {
        "club_badge_src": null,
        "entry": 768202,
        "entry_name": "OP-All Stars",
        "event_total": 63,
        "has_played": true,
        "id": 5239608,
        "last_rank": 74898,
        "player_name": "Setjhaba Lephoto",
        "rank": 62320,
        "rank_sort": 62335,
        "total": 2344
      },
      {
        "club_badge_src": "https://fantasy.premierleague.com/gcs/plfpl-production-adobe-approved/plfpl-production/816098/9f60a25e-503b-4367-a1c9-b0e25b587094.png",
        "entry": 816098,
        "entry_name": "Up The Baggies",
        "event_total": 65,
        "has_played": true,
        "id": 5588587,
        "last_rank": 79079,
        "player_name": "Luke Mather",
        "rank": 62320,
        "rank_sort": 62336,
        "total": 2344
      },
      {
        "club_badge_src": null,
        "entry": 821912,
        "entry_name": "Change Name",
        "event_total": 76,
        "has_played": true,
        "id": 5629017,
        "last_rank": 105723,
        "player_name": "Joshua Seddon",
        "rank": 62320,
        "rank_sort": 62337,
        "total": 2344
      },
      {
        "club_badge_src": null,
        "entry": 822172,
        "entry_name": "Maximum Effort",
        "event_total": 47,
        "has_played": true,
        "id": 5630826,
        "last_rank": 46660,
        "player_name": "Roger Halvorsen",
        "rank": 62320,
        "rank_sort": 62338,
        "total": 2344
      },
      {
        "club_badge_src": null,
        "entry": 858160,
        "entry_name": "Fightin Armenians",
        "event_total": 56,
        "has_played": true,
        "id": 5882766,
        "last_rank": 61411,
        "player_name": "Leon Roberts",
        "rank": 62320,
        "rank_sort": 62339,
        "total": 2344
      },
      {
        "club_badge_src": "https://fantasy.premierleague.com/gcs/plfpl-production-adobe-approved/plfpl-production/915471/6fcd8924-4bde-4263-ac9e-38d4b048634a.png",
        "entry": 915471,
        "entry_name": "WWFC",
        "event_total": 49,
        "has_played": true,
        "id": 6295210,
        "last_rank": 49607,
        "player_name": "Wen Wei Lim",
        "rank": 62320,
        "rank_sort": 62340,
        "total": 2344
      },
      {
        "club_badge_src": null,
        "entry": 942048,
        "entry_name": "Burn Baby Burn",
        "event_total": 65,
        "has_played": true,
        "id": 6486943,
        "last_rank": 79431,
        "player_name": "David Poolan",
        "rank": 62320,
        "rank_sort": 62341,
        "total": 2344
      },
      {
        "club_badge_src": null,
        "entry": 985887,
        "entry_name": "Ekitike Taka",
        "event_total": 73,
        "has_played": true,
        "id": 6797511,
        "last_rank": 98011,
        "player_name": "Sahaj Ratta",
        "rank": 62320,
        "rank_sort": 62342,
        "total": 2344
      },
      {
        "club_badge_src": null,
        "entry": 1007398,
        "entry_name": "Petrusoff",
        "event_total": 77,
        "has_played": true,
        "id": 6964751,
        "last_rank": 108567,
        "player_name": "Arnaud Bertrand",
        "rank": 62320,
        "rank_sort": 62343,
        "total": 2344
      },
      {
        "club_badge_src": null,
        "entry": 1089924,
        "entry_name": "Embino FC",
        "event_total": 68,
        "has_played": true,
        "id": 7548504,
        "last_rank": 85870,
        "player_name": "Melvin Thomasen",
        "rank": 62320,
        "rank_sort": 62344,
        "total": 2344
      },
      {
        "club_badge_src": null,
        "entry": 1120473,
        "entry_name": "AoLetsGo",
        "event_total": 50,
        "has_played": true,
        "id": 7762563,
        "last_rank": 51220,
        "player_name": "Marcus Fairhurst",
        "rank": 62320,
        "rank_sort": 62345,
        "total": 2344
      },
      {
        "club_badge_src": null,
        "entry": 1198249,
        "entry_name": "magvik4",
        "event_total": 42,
        "has_played": true,
        "id": 8315115,
        "last_rank": 39874,
        "player_name": "Magnus Henn\u00f8y Vikesland",
        "rank": 62320,
        "rank_sort": 62346,
        "total": 2344
      },
      {
        "club_badge_src": null,
        "entry": 1259919,
        "entry_name": "the losers",
        "event_total": 45,
        "has_played": true,
        "id": 8751767,
        "last_rank": 43849,
        "player_name": "indran naicker",
        "rank": 62320,
        "rank_sort": 62347,
        "total": 2344
      },
      {
        "club_badge_src": null,
        "entry": 1486813,
        "entry_name": "Oh his name is Diogo",
        "event_total": 39,
        "has_played": true,
        "id": 10368241,
        "last_rank": 36348,
        "player_name": "Viktor Anadoliev",
        "rank": 62320,
        "rank_sort": 62348,
        "total": 2344
      },
      {
        "club_badge_src": null,
        "entry": 1490915,
        "entry_name": "SSSS",
        "event_total": 61,
        "has_played": true,
        "id": 10396835,
        "last_rank": 70985,
        "player_name": "Shola Garuba",
        "rank": 62320,
        "rank_sort": 62349,
        "total": 2344
      },
      {
        "club_badge_src": null,
        "entry": 1707166,
        "entry_name": "Oggle Boggle",
        "event_total": 38,
        "has_played": true,
        "id": 11960185,
        "last_rank": 35034,
        "player_name": "Paul Gibbs",
        "rank": 62320,
        "rank_sort": 62350,
        "total": 2344
      }
    ]
  }
}