{
  "last_updated_data": "2026-05-24T23:28:17Z",
  "league": {
    "admin_entry": null,
    "closed": false,
    "code_privacy": "p",
    "created": "2025-07-20T23:14:33.933835Z",
    "cup_league": 2815434,
    "has_cup": true,
    "id": 314,
    "league_type": "s",
    "max_entries": null,
    "name": "Overall",
    "rank": null,
    "scoring": "c",
    "start_event": 1
  },
  "new_entries": {
    "has_next": false,
    "page": 1,
    "results": []
  },
  "standings": {
    "has_next": true,
    "page": 1211,
    "results": [
      {
        "club_badge_src": null,
        "entry": 4868951,
        "entry_name": "keeponconing",
        "event_total": 47,
        "has_played": true,
        "id": 37528142,
        "last_rank": 45182,
        "player_name": "Toyin Akanbi",
        "rank": 60492,
        "rank_sort": 60501,
        "total": 2345
      },
      {
        "club_badge_src": null,
        "entry": 4875050,
        "entry_name": "Zingers",
        "event_total": 55,
        "has_played": true,
        "id": 37578498,
        "last_rank": 57776,
        "player_name": "Michael Nelson",
        "rank": 60492,
        "rank_sort": 60502,
        "total": 2345
      },
      {
        "club_badge_src": null,
        "entry": 4901113,
        "entry_name": "xI",
        "event_total": 56,
        "has_played": true,
        "id": 37793322,
        "last_rank": 59535,
        "player_name": "Sondre Vigane",
        "rank": 60492,
        "rank_sort": 60503,
        "total": 2345
      },
      {
        "club_badge_src": null,
        "entry": 4922802,
        "entry_name": "POGBA\u2019s TRIM",
        "event_total": 57,
        "has_played": true,
        "id": 37971122,
        "last_rank": 61315,
        "player_name": "Ayoola Okubule",
        "rank": 60492,
        "rank_sort": 60504,
        "total": 2345
      },
      {
        "club_badge_src": null,
        "entry": 5101679,
        "entry_name": "sir abu fhdih",
        "event_total": 67,
        "has_played": true,
        "id": 39433257,
        "last_rank": 81211,
        "player_name": "\u0633\u0641\u064a\u0627\u0646 So",
        "rank": 60492,
        "rank_sort": 60505,
        "total": 2345
      },
      {
        "club_badge_src": null,
        "entry": 5595478,
        "entry_name": "marshy hub",
        "event_total": 63,
        "has_played": true,
        "id": 43717395,
        "last_rank": 72638,
        "player_name": "ellis marsh",
        "rank": 60492,
        "rank_sort": 60506,
        "total": 2345
      },
      {
        "club_badge_src": null,
        "entry": 5790863,
        "entry_name": "OFK Banjani",
        "event_total": 52,
        "has_played": true,
        "id": 45417591,
        "last_rank": 52738,
        "player_name": "Nemanja Lestaric",
        "rank": 60492,
        "rank_sort": 60507,
        "total": 2345
      },
      {
        "club_badge_src": null,
        "entry": 6342146,
        "entry_name": "MUFC",
        "event_total": 73,
        "has_played": true,
        "id": 50410476,
        "last_rank": 95464,
        "player_name": "Muath AlMutlaq",
        "rank": 60492,
        "rank_sort": 60508,
        "total": 2345
      },
      {
        "club_badge_src": "https://fantasy.premierleague.com/gcs/plfpl-production-adobe-approved/plfpl-production/6824536/dbcab357-1ba0-4e3c-b937-d3b81bf475e2.png",
        "entry": 6824536,
        "entry_name": "Rubenited We Stand",
        "event_total": 54,
        "has_played": true,
        "id": 54662563,
        "last_rank": 56099,
        "player_name": "Ade Tokuta",
        "rank": 60492,
        "rank_sort": 60509,
        "total": 2345
      },
      {
        "club_badge_src": "https://fantasy.premierleague.com/gcs/plfpl-production-adobe-approved/plfpl-production/6884254/e71eb6ae-57fc-4fc5-9798-b16437d947e0.png",
        "entry": 6884254,
        "entry_name": "Tap Tap",
        "event_total": 80,
        "has_played": true,
        "id": 55172062,
        "last_rank": 114169,
        "player_name": "All In",
        "rank": 60492,
        "rank_sort": 60510,
        "total": 2345
      },
      {
        "club_badge_src": null,
        "entry": 7774425,
        "entry_name": "Julian\u2018s Boys",
        "event_total": 68,
        "has_played": true,
        "id": 63842729,
        "last_rank": 83498,
        "player_name": "Julian Forde",
        "rank": 60492,
        "rank_sort": 60511,
        "total": 2345
      },
      {
        "club_badge_src": null,
        "entry": 7966699,
        "entry_name": "zhya almani",
        "event_total": 38,
        "has_played": true,
        "id": 65589358,
        "last_rank": 33869,
        "player_name": "Zhya Almani",
        "rank": 60492,
        "rank_sort": 60512,
        "total": 2345
      },
      {
        "club_badge_src": null,
        "entry": 8127503,
        "entry_name": "FC Slajmo",
        "event_total": 51,
        "has_played": true,
        "id": 67058575,
        "last_rank": 51137,
        "player_name": "Luka Skrinjar",
        "rank": 60492,
        "rank_sort": 60513,
        "total": 2345
      },
      {
        "club_badge_src": null,
        "entry": 9276894,
        "entry_name": "Eboh FC",
        "event_total": 51,
        "has_played": true,
        "id": 78185781,
        "last_rank": 51137,
        "player_name": "Oluoma Ezionye-Eboh",
        "rank": 60492,
        "rank_sort": 60514,
        "total": 2345
      },
      {
        "club_badge_src": null,
        "entry": 63190,
        "entry_name": "Djungelskog IF",
        "event_total": 28,
        "has_played": true,
        "id": 407634,
        "last_rank": 24039,
        "player_name": "David Elloway Smith",
        "rank": 60515,
        "rank_sort": 60515,
        "total": 2345
      },
      {
        "club_badge_src": null,
        "entry": 90705,
        "entry_name": "Ousmane Pemb\u00e9l\u00e9",
        "event_total": 57,
        "has_played": true,
        "id": 592263,
        "last_rank": 61411,
        "player_name": "Hassan Barada",
        "rank": 60515,
        "rank_sort": 60516,
        "total": 2345
      },
      {
        "club_badge_src": null,
        "entry": 132095,
        "entry_name": "TGs",
        "event_total": 59,
        "has_played": true,
        "id": 860526,
        "last_rank": 64830,
        "player_name": "Tor Gunnar Omland",
        "rank": 60515,
        "rank_sort": 60517,
        "total": 2345
      },
      {
        "club_badge_src": null,
        "entry": 204742,
        "entry_name": "CFC Taylor16",
        "event_total": 44,
        "has_played": true,
        "id": 1360839,
        "last_rank": 41162,
        "player_name": "Sam Taylor",
        "rank": 60515,
        "rank_sort": 60518,
        "total": 2345
      },
      {
        "club_badge_src": null,
        "entry": 235740,
        "entry_name": "Gangeters Allardyce",
        "event_total": 66,
        "has_played": true,
        "id": 1568583,
        "last_rank": 79190,
        "player_name": "Harvey Atkinson",
        "rank": 60515,
        "rank_sort": 60519,
        "total": 2345
      },
      {
        "club_badge_src": null,
        "entry": 386729,
        "entry_name": "audi",
        "event_total": 80,
        "has_played": true,
        "id": 2594414,
        "last_rank": 114055,
        "player_name": "anh duy",
        "rank": 60515,
        "rank_sort": 60520,
        "total": 2345
      },
      {
        "club_badge_src": null,
        "entry": 443425,
        "entry_name": "Cityzens",
        "event_total": 68,
        "has_played": true,
        "id": 2972970,
        "last_rank": 83698,
        "player_name": "Perran Blundy",
        "rank": 60515,
        "rank_sort": 60521,
        "total": 2345
      },
      {
        "club_badge_src": null,
        "entry": 639534,
        "entry_name": "El Speedo United",
        "event_total": 54,
        "has_played": true,
        "id": 4322177,
        "last_rank": 56069,
        "player_name": "Thomas Severn",
        "rank": 60515,
        "rank_sort": 60522,
        "total": 2345
      },
      {
        "club_badge_src": null,
        "entry": 648961,
        "entry_name": "Onion Grealish",
        "event_total": 58,
        "has_played": true,
        "id": 4385939,
        "last_rank": 63201,
        "player_name": "Ollie Short",
        "rank": 60515,
        "rank_sort": 60523,
        "total": 2345
      },
      {
        "club_badge_src": null,
        "entry": 649544,
        "entry_name": "Shmucks",
        "event_total": 54,
        "has_played": true,
        "id": 4389763,
        "last_rank": 56180,
        "player_name": "Mohammed Aldernawi",
        "rank": 60515,
        "rank_sort": 60524,
        "total": 2345
      },
      {
        "club_badge_src": null,
        "entry": 772131,
        "entry_name": "FPL Help Me",
        "event_total": 60,
        "has_played": true,
        "id": 5267612,
        "last_rank": 66738,
        "player_name": "Peter Hillman",
        "rank": 60515,
        "rank_sort": 60525,
        "total": 2345
      },
      {
        "club_badge_src": "https://fantasy.premierleague.com/gcs/plfpl-production-adobe-approved/plfpl-production/874478/bacf35cf-42a8-4766-93ff-60cd46338ec9.png",
        "entry": 874478,
        "entry_name": "TheKlanpt.2",
        "event_total": 66,
        "has_played": true,
        "id": 5995312,
        "last_rank": 79190,
        "player_name": "andrew charles",
        "rank": 60515,
        "rank_sort": 60526,
        "total": 2345
      },
      {
        "club_badge_src": null,
        "entry": 1013429,
        "entry_name": "XIXI",
        "event_total": 56,
        "has_played": true,
        "id": 7010691,
        "last_rank": 59535,
        "player_name": "Matt Fuller",
        "rank": 60515,
        "rank_sort": 60527,
        "total": 2345
      },
      {
        "club_badge_src": null,
        "entry": 1583390,
        "entry_name": "Can't last N-Elanga",
        "event_total": 37,
        "has_played": true,
        "id": 11065978,
        "last_rank": 32751,
        "player_name": "Will Ellison",
        "rank": 60515,
        "rank_sort": 60528,
        "total": 2345
      },
      {
        "club_badge_src": null,
        "entry": 2237988,
        "entry_name": "Trentanyl",
        "event_total": 60,
        "has_played": true,
        "id": 15943539,
        "last_rank": 66848,
        "player_name": "Freddie Summers",
        "rank": 60515,
        "rank_sort": 60529,
        "total": 2345
      },
      {
        "club_badge_src": null,
        "entry": 2264021,
        "entry_name": "The Be Sharps!",
        "event_total": 49,
        "has_played": true,
        "id": 16142029,
        "last_rank": 48119,
        "player_name": "Trigg Costello",
        "rank": 60515,
        "rank_sort": 60530,
        "total": 2345
      },
      {
        "club_badge_src": null,
        "entry": 2761009,
        "entry_name": "WissAmadness",
        "event_total": 42,
        "has_played": true,
        "id": 20142412,
        "last_rank": 38644,
        "player_name": "Ned Moyle",
        "rank": 60515,
        "rank_sort": 60531,
        "total": 2345
      },
      {
        "club_badge_src": "https://fantasy.premierleague.com/gcs/plfpl-production-adobe-approved/plfpl-production/3091902/eb525df9-3f26-4cb4-86ea-3b7f61ceb6ba.png",
        "entry": 3091902,
        "entry_name": "Points Punter",
        "event_total": 66,
        "has_played": true,
        "id": 22787123,
        "last_rank": 79027,
        "player_name": "William Li",
        "rank": 60515,
        "rank_sort": 60532,
        "total": 2345
      },
      {
        "club_badge_src": null,
        "entry": 3164460,
        "entry_name": "Pedri yn yr Haul",
        "event_total": 52,
        "has_played": true,
        "id": 23377752,
        "last_rank": 52853,
        "player_name": "Twm Ebbsworth",
        "rank": 60515,
        "rank_sort": 60533,
        "total": 2345
      },
      {
        "club_badge_src": null,
        "entry": 3204314,
        "entry_name": "GUALA \ufffd",
        "event_total": 46,
        "has_played": true,
        "id": 23688024,
        "last_rank": 43849,
        "player_name": "Godwin G.O.D",
        "rank": 60515,
        "rank_sort": 60534,
        "total": 2345
      },
      {
        "club_badge_src": null,
        "entry": 3394458,
        "entry_name": "UMBEA",
        "event_total": 48,
        "has_played": true,
        "id": 25201387,
        "last_rank": 46591,
        "player_name": "MBONA KACHELEWA",
        "rank": 60515,
        "rank_sort": 60535,
        "total": 2345
      },
      {
        "club_badge_src": null,
        "entry": 3677036,
        "entry_name": "The Frank Engine",
        "event_total": 64,
        "has_played": true,
        "id": 27425299,
        "last_rank": 74787,
        "player_name": "elan Stecklov",
        "rank": 60515,
        "rank_sort": 60536,
        "total": 2345
      },
      {
        "club_badge_src": null,
        "entry": 3850604,
        "entry_name": "Nelson's Allsorts",
        "event_total": 63,
        "has_played": true,
        "id": 28864574,
        "last_rank": 72702,
        "player_name": "Sam Nelson",
        "rank": 60515,
        "rank_sort": 60537,
        "total": 2345
      },
      {
        "club_badge_src": "https://fantasy.premierleague.com/gcs/plfpl-production-adobe-approved/plfpl-production/4339468/a9eae1d6-02d9-442f-a119-7a253f1f2125.png",
        "entry": 4339468,
        "entry_name": "Theatre of Memes",
        "event_total": 75,
        "has_played": true,
        "id": 32946918,
        "last_rank": 100700,
        "player_name": "Jess Taylor",
        "rank": 60515,
        "rank_sort": 60538,
        "total": 2345
      },
      {
        "club_badge_src": null,
        "entry": 4806413,
        "entry_name": "Inikalilah",
        "event_total": 67,
        "has_played": true,
        "id": 37007810,
        "last_rank": 81244,
        "player_name": "pravin kumar",
        "rank": 60515,
        "rank_sort": 60539,
        "total": 2345
      },
      {
        "club_badge_src": null,
        "entry": 4893855,
        "entry_name": "mo allam",
        "event_total": 67,
        "has_played": true,
        "id": 37733337,
        "last_rank": 81420,
        "player_name": "mo allam",
        "rank": 60515,
        "rank_sort": 60540,
        "total": 2345
      },
      {
        "club_badge_src": null,
        "entry": 5027951,
        "entry_name": "dream team",
        "event_total": 57,
        "has_played": true,
        "id": 38832873,
        "last_rank": 61411,
        "player_name": "omran karama",
        "rank": 60515,
        "rank_sort": 60541,
        "total": 2345
      },
      {
        "club_badge_src": null,
        "entry": 5292858,
        "entry_name": "Burhaam",
        "event_total": 43,
        "has_played": true,
        "id": 41026713,
        "last_rank": 39874,
        "player_name": "Ahmed Ibrahim",
        "rank": 60515,
        "rank_sort": 60542,
        "total": 2345
      },
      {
        "club_badge_src": null,
        "entry": 5555367,
        "entry_name": "KW's Long Shots",
        "event_total": 50,
        "has_played": true,
        "id": 43363008,
        "last_rank": 49691,
        "player_name": "Kester Wright",
        "rank": 60515,
        "rank_sort": 60543,
        "total": 2345
      },
      {
        "club_badge_src": null,
        "entry": 5739097,
        "entry_name": "Non stop tactics",
        "event_total": 47,
        "has_played": true,
        "id": 44968723,
        "last_rank": 45126,
        "player_name": "Morten Lind V\u00e5rum",
        "rank": 60515,
        "rank_sort": 60544,
        "total": 2345
      },
      {
        "club_badge_src": null,
        "entry": 6776119,
        "entry_name": "aldeles ueffent",
        "event_total": 64,
        "has_played": true,
        "id": 54257963,
        "last_rank": 74741,
        "player_name": "H\u00e5var Bakke",
        "rank": 60515,
        "rank_sort": 60545,
        "total": 2345
      },
      {
        "club_badge_src": null,
        "entry": 6810866,
        "entry_name": "Trigger Mbeumo",
        "event_total": 60,
        "has_played": true,
        "id": 54546410,
        "last_rank": 66738,
        "player_name": "Sam Mortiz",
        "rank": 60515,
        "rank_sort": 60546,
        "total": 2345
      },
      {
        "club_badge_src": null,
        "entry": 6980226,
        "entry_name": "Meibion Glynd\u0175r",
        "event_total": 73,
        "has_played": true,
        "id": 56019433,
        "last_rank": 95640,
        "player_name": "Rhys Howells",
        "rank": 60515,
        "rank_sort": 60547,
        "total": 2345
      },
      {
        "club_badge_src": null,
        "entry": 7245271,
        "entry_name": "Mo Salah Mo Problems",
        "event_total": 79,
        "has_played": true,
        "id": 58557985,
        "last_rank": 111405,
        "player_name": "Nicholas Ortiz",
        "rank": 60515,
        "rank_sort": 60548,
        "total": 2345
      },
      {
        "club_badge_src": null,
        "entry": 7507536,
        "entry_name": "Leny's Giraffe",
        "event_total": 76,
        "has_played": true,
        "id": 61368192,
        "last_rank": 103130,
        "player_name": "R Everend",
        "rank": 60515,
        "rank_sort": 60549,
        "total": 2345
      },
      {
        "club_badge_src": null,
        "entry": 7703355,
        "entry_name": "Bend It Like Bob",
        "event_total": 28,
        "has_played": true,
        "id": 63201314,
        "last_rank": 24039,
        "player_name": "Rob Ellis",
        "rank": 60515,
        "rank_sort": 60550,
        "total": 2345
      }
    ]
  }
}