{
  "last_updated_data": "2026-05-24T23:28:17Z",
  "league": {
    "admin_entry": null,
    "closed": false,
    "code_privacy": "p",
    "created": "2025-07-20T23:14:33.933835Z",
    "cup_league": 2815434,
    "has_cup": true,
    "id": 314,
    "league_type": "s",
    "max_entries": null,
    "name": "Overall",
    "rank": null,
    "scoring": "c",
    "start_event": 1
  },
  "new_entries": {
    "has_next": false,
    "page": 1,
    "results": []
  },
  "standings": {
    "has_next": true,
    "page": 434,
    "results": [
      {
        "club_badge_src": null,
        "entry": 9419380,
        "entry_name": "Va Va Voom FC",
        "event_total": 66,
        "has_played": true,
        "id": 79560224,
        "last_rank": 28906,
        "player_name": "Muhammed Mustapha",
        "rank": 21518,
        "rank_sort": 21651,
        "total": 2378
      },
      {
        "club_badge_src": "https://fantasy.premierleague.com/gcs/plfpl-production-adobe-approved/plfpl-production/1290/4afd0def-8247-4da4-96ed-fe0121b7417e.png",
        "entry": 1290,
        "entry_name": "Redeem Team 2",
        "event_total": 69,
        "has_played": true,
        "id": 7168,
        "last_rank": 27976,
        "player_name": "Paulius Narkevi\u010dius",
        "rank": 21652,
        "rank_sort": 21652,
        "total": 2378
      },
      {
        "club_badge_src": "https://fantasy.premierleague.com/gcs/plfpl-production-adobe-approved/plfpl-production/7271/d13e40c0-2aa3-453a-acd8-72e31c4b5488.png",
        "entry": 7271,
        "entry_name": "The Gluecifers",
        "event_total": 68,
        "has_played": true,
        "id": 41895,
        "last_rank": 27020,
        "player_name": "Frode Rekve",
        "rank": 21652,
        "rank_sort": 21653,
        "total": 2378
      },
      {
        "club_badge_src": null,
        "entry": 11684,
        "entry_name": "Simpson FC",
        "event_total": 53,
        "has_played": true,
        "id": 69539,
        "last_rank": 18377,
        "player_name": "Aaron Clarke",
        "rank": 21652,
        "rank_sort": 21654,
        "total": 2378
      },
      {
        "club_badge_src": null,
        "entry": 12805,
        "entry_name": "What The Skelly",
        "event_total": 65,
        "has_played": true,
        "id": 76991,
        "last_rank": 28150,
        "player_name": "Filip Hirsz",
        "rank": 21652,
        "rank_sort": 21655,
        "total": 2378
      },
      {
        "club_badge_src": null,
        "entry": 13174,
        "entry_name": "Mboomo FC",
        "event_total": 68,
        "has_played": true,
        "id": 79422,
        "last_rank": 27020,
        "player_name": "Abdullahi Hussein",
        "rank": 21652,
        "rank_sort": 21656,
        "total": 2378
      },
      {
        "club_badge_src": "https://fantasy.premierleague.com/gcs/plfpl-production-adobe-approved/plfpl-production/36321/990eb6a1-5ba5-4085-a528-38dbe096eb64.png",
        "entry": 36321,
        "entry_name": "All The King's Men",
        "event_total": 69,
        "has_played": true,
        "id": 232484,
        "last_rank": 27770,
        "player_name": "KM Wong",
        "rank": 21652,
        "rank_sort": 21657,
        "total": 2378
      },
      {
        "club_badge_src": null,
        "entry": 72254,
        "entry_name": "Mala pije samo Hugo",
        "event_total": 50,
        "has_played": true,
        "id": 469486,
        "last_rank": 13821,
        "player_name": "Ivan Jonjic",
        "rank": 21652,
        "rank_sort": 21658,
        "total": 2378
      },
      {
        "club_badge_src": null,
        "entry": 123782,
        "entry_name": "Team Ramrod",
        "event_total": 56,
        "has_played": true,
        "id": 807326,
        "last_rank": 20416,
        "player_name": "Dan Underwood",
        "rank": 21652,
        "rank_sort": 21659,
        "total": 2378
      },
      {
        "club_badge_src": null,
        "entry": 150001,
        "entry_name": "2026isours",
        "event_total": 62,
        "has_played": true,
        "id": 983580,
        "last_rank": 25330,
        "player_name": "Dashmeet Ratra",
        "rank": 21652,
        "rank_sort": 21660,
        "total": 2378
      },
      {
        "club_badge_src": null,
        "entry": 158439,
        "entry_name": "cherries dreamteam",
        "event_total": 76,
        "has_played": true,
        "id": 1042619,
        "last_rank": 35424,
        "player_name": "shane horan",
        "rank": 21652,
        "rank_sort": 21661,
        "total": 2378
      },
      {
        "club_badge_src": null,
        "entry": 159913,
        "entry_name": "Top Half Will Do",
        "event_total": 61,
        "has_played": true,
        "id": 1052791,
        "last_rank": 24330,
        "player_name": "Jack Qualtrough",
        "rank": 21652,
        "rank_sort": 21662,
        "total": 2378
      },
      {
        "club_badge_src": null,
        "entry": 172410,
        "entry_name": "King Koopa",
        "event_total": 81,
        "has_played": true,
        "id": 1138748,
        "last_rank": 36348,
        "player_name": "Anthony Bowser",
        "rank": 21652,
        "rank_sort": 21663,
        "total": 2378
      },
      {
        "club_badge_src": null,
        "entry": 208997,
        "entry_name": "Poppy's Powerplayers",
        "event_total": 55,
        "has_played": true,
        "id": 1389763,
        "last_rank": 19721,
        "player_name": "Poppy Element",
        "rank": 21652,
        "rank_sort": 21664,
        "total": 2378
      },
      {
        "club_badge_src": null,
        "entry": 235899,
        "entry_name": "\u0623\u0628\u0648 \u0634\u0648\u0634\u0648",
        "event_total": 65,
        "has_played": true,
        "id": 1569660,
        "last_rank": 24330,
        "player_name": "Ma7moud Ashraf",
        "rank": 21652,
        "rank_sort": 21665,
        "total": 2378
      },
      {
        "club_badge_src": null,
        "entry": 298695,
        "entry_name": "Tim Tams FC",
        "event_total": 62,
        "has_played": true,
        "id": 1997137,
        "last_rank": 21949,
        "player_name": "Ben Hensell",
        "rank": 21652,
        "rank_sort": 21666,
        "total": 2378
      },
      {
        "club_badge_src": null,
        "entry": 356733,
        "entry_name": "Liverball FC",
        "event_total": 66,
        "has_played": true,
        "id": 2387193,
        "last_rank": 28906,
        "player_name": "Marte Bekkevold-Aagesen",
        "rank": 21652,
        "rank_sort": 21667,
        "total": 2378
      },
      {
        "club_badge_src": "https://fantasy.premierleague.com/gcs/plfpl-production-adobe-approved/plfpl-production/371225/2c11ae9e-aff1-433d-ae02-f7bbb0e233d3.png",
        "entry": 371225,
        "entry_name": "Wirtz Team Name Ever",
        "event_total": 56,
        "has_played": true,
        "id": 2484022,
        "last_rank": 20538,
        "player_name": "Ronan Laycock",
        "rank": 21652,
        "rank_sort": 21668,
        "total": 2378
      },
      {
        "club_badge_src": null,
        "entry": 405999,
        "entry_name": "Class on grass fc",
        "event_total": 59,
        "has_played": true,
        "id": 2722167,
        "last_rank": 19721,
        "player_name": "michael fadian",
        "rank": 21652,
        "rank_sort": 21669,
        "total": 2378
      },
      {
        "club_badge_src": null,
        "entry": 430367,
        "entry_name": "Jittery Jetterys",
        "event_total": 54,
        "has_played": true,
        "id": 2886429,
        "last_rank": 13821,
        "player_name": "Amar Hussona",
        "rank": 21652,
        "rank_sort": 21670,
        "total": 2378
      },
      {
        "club_badge_src": null,
        "entry": 435402,
        "entry_name": "Aron FC",
        "event_total": 61,
        "has_played": true,
        "id": 2919706,
        "last_rank": 24475,
        "player_name": "Aron S",
        "rank": 21652,
        "rank_sort": 21671,
        "total": 2378
      },
      {
        "club_badge_src": null,
        "entry": 505367,
        "entry_name": "Ultimate Undercats",
        "event_total": 65,
        "has_played": true,
        "id": 3392038,
        "last_rank": 24330,
        "player_name": "Tomas Kulak",
        "rank": 21652,
        "rank_sort": 21672,
        "total": 2378
      },
      {
        "club_badge_src": null,
        "entry": 543326,
        "entry_name": "Deanamo Jammy",
        "event_total": 56,
        "has_played": true,
        "id": 3656699,
        "last_rank": 17585,
        "player_name": "Dean Fairbrother",
        "rank": 21652,
        "rank_sort": 21673,
        "total": 2378
      },
      {
        "club_badge_src": null,
        "entry": 550197,
        "entry_name": "Hatrick Vieira",
        "event_total": 61,
        "has_played": true,
        "id": 3702926,
        "last_rank": 24330,
        "player_name": "Dan Barry",
        "rank": 21652,
        "rank_sort": 21674,
        "total": 2378
      },
      {
        "club_badge_src": null,
        "entry": 551340,
        "entry_name": "Abdullah",
        "event_total": 66,
        "has_played": true,
        "id": 3710961,
        "last_rank": 25172,
        "player_name": "ABDULLAH Al",
        "rank": 21652,
        "rank_sort": 21675,
        "total": 2378
      },
      {
        "club_badge_src": null,
        "entry": 553131,
        "entry_name": "Eze Peze",
        "event_total": 63,
        "has_played": true,
        "id": 3722966,
        "last_rank": 26230,
        "player_name": "Carl Jordan",
        "rank": 21652,
        "rank_sort": 21676,
        "total": 2378
      },
      {
        "club_badge_src": null,
        "entry": 641936,
        "entry_name": "Mechooo87",
        "event_total": 66,
        "has_played": true,
        "id": 4338498,
        "last_rank": 29071,
        "player_name": "Mechal Mech",
        "rank": 21652,
        "rank_sort": 21677,
        "total": 2378
      },
      {
        "club_badge_src": null,
        "entry": 648713,
        "entry_name": "Jazdunia",
        "event_total": 70,
        "has_played": true,
        "id": 4384223,
        "last_rank": 24897,
        "player_name": "Wojciech Konik",
        "rank": 21652,
        "rank_sort": 21678,
        "total": 2378
      },
      {
        "club_badge_src": null,
        "entry": 676900,
        "entry_name": "LiLi",
        "event_total": 72,
        "has_played": true,
        "id": 4579831,
        "last_rank": 30957,
        "player_name": "Asmaa Aamer",
        "rank": 21652,
        "rank_sort": 21679,
        "total": 2378
      },
      {
        "club_badge_src": null,
        "entry": 736216,
        "entry_name": "Sakre Blue",
        "event_total": 63,
        "has_played": true,
        "id": 5004876,
        "last_rank": 26230,
        "player_name": "Marcel Moraru",
        "rank": 21652,
        "rank_sort": 21680,
        "total": 2378
      },
      {
        "club_badge_src": null,
        "entry": 756275,
        "entry_name": "SUPER DERBY",
        "event_total": 57,
        "has_played": true,
        "id": 5148866,
        "last_rank": 21301,
        "player_name": "Mark Bells Mum",
        "rank": 21652,
        "rank_sort": 21681,
        "total": 2378
      },
      {
        "club_badge_src": null,
        "entry": 757437,
        "entry_name": "YaaGunners",
        "event_total": 47,
        "has_played": true,
        "id": 5158838,
        "last_rank": 14604,
        "player_name": "Todd Bevan",
        "rank": 21652,
        "rank_sort": 21682,
        "total": 2378
      },
      {
        "club_badge_src": null,
        "entry": 805827,
        "entry_name": "Change Name FC",
        "event_total": 67,
        "has_played": true,
        "id": 5516278,
        "last_rank": 26088,
        "player_name": "James Leach",
        "rank": 21652,
        "rank_sort": 21683,
        "total": 2378
      },
      {
        "club_badge_src": null,
        "entry": 828630,
        "entry_name": "Sesco clubclard",
        "event_total": 69,
        "has_played": true,
        "id": 5675566,
        "last_rank": 31620,
        "player_name": "Robert Dunford",
        "rank": 21652,
        "rank_sort": 21684,
        "total": 2378
      },
      {
        "club_badge_src": null,
        "entry": 833246,
        "entry_name": "Believe in Yo Sels",
        "event_total": 54,
        "has_played": true,
        "id": 5707335,
        "last_rank": 19103,
        "player_name": "Sam Petherick",
        "rank": 21652,
        "rank_sort": 21685,
        "total": 2378
      },
      {
        "club_badge_src": "https://fantasy.premierleague.com/gcs/plfpl-production-adobe-approved/plfpl-production/996451/46369f3c-15fe-40a5-b358-7222197b7c4e.png",
        "entry": 996451,
        "entry_name": "East Terling",
        "event_total": 56,
        "has_played": true,
        "id": 6880540,
        "last_rank": 17437,
        "player_name": "Chris Wager",
        "rank": 21652,
        "rank_sort": 21686,
        "total": 2378
      },
      {
        "club_badge_src": "https://fantasy.premierleague.com/gcs/plfpl-production-adobe-approved/plfpl-production/1023578/0d6487c2-1185-478c-8ace-8339db75b27e.png",
        "entry": 1023578,
        "entry_name": "ETO FC",
        "event_total": 54,
        "has_played": true,
        "id": 7081706,
        "last_rank": 18985,
        "player_name": "Daniel Gombik",
        "rank": 21652,
        "rank_sort": 21687,
        "total": 2378
      },
      {
        "club_badge_src": "https://fantasy.premierleague.com/gcs/plfpl-production-adobe-approved/plfpl-production/1031579/7f03994a-4501-4ce5-8ef2-21b1541b2038.png",
        "entry": 1031579,
        "entry_name": "Dreamchasers fc",
        "event_total": 58,
        "has_played": true,
        "id": 7137251,
        "last_rank": 22064,
        "player_name": "Jeff Scotch",
        "rank": 21652,
        "rank_sort": 21688,
        "total": 2378
      },
      {
        "club_badge_src": "https://fantasy.premierleague.com/gcs/plfpl-production-adobe-approved/plfpl-production/1033430/f11789c3-8f5d-4491-8ceb-14808f17bd83.png",
        "entry": 1033430,
        "entry_name": "RSD",
        "event_total": 50,
        "has_played": true,
        "id": 7150690,
        "last_rank": 13947,
        "player_name": "Rashid Alhaatemi",
        "rank": 21652,
        "rank_sort": 21689,
        "total": 2378
      },
      {
        "club_badge_src": null,
        "entry": 1053778,
        "entry_name": "Not Champions Again",
        "event_total": 54,
        "has_played": true,
        "id": 7292884,
        "last_rank": 19103,
        "player_name": "George Coombes",
        "rank": 21652,
        "rank_sort": 21690,
        "total": 2378
      },
      {
        "club_badge_src": null,
        "entry": 1086273,
        "entry_name": "HaCunha Mateta",
        "event_total": 71,
        "has_played": true,
        "id": 7522829,
        "last_rank": 34293,
        "player_name": "Alex McDonald",
        "rank": 21652,
        "rank_sort": 21691,
        "total": 2378
      },
      {
        "club_badge_src": "https://fantasy.premierleague.com/gcs/plfpl-production-adobe-approved/plfpl-production/1094015/37bdd43e-691b-4388-af80-f283e32c079d.png",
        "entry": 1094015,
        "entry_name": "Habib bnk",
        "event_total": 81,
        "has_played": true,
        "id": 7577125,
        "last_rank": 41617,
        "player_name": "Habib Benkaddour",
        "rank": 21652,
        "rank_sort": 21692,
        "total": 2378
      },
      {
        "club_badge_src": null,
        "entry": 1261798,
        "entry_name": "Cannon boys",
        "event_total": 68,
        "has_played": true,
        "id": 8765263,
        "last_rank": 30957,
        "player_name": "Oscar Hansson",
        "rank": 21652,
        "rank_sort": 21693,
        "total": 2378
      },
      {
        "club_badge_src": null,
        "entry": 1363416,
        "entry_name": "Ultrahuman",
        "event_total": 65,
        "has_played": true,
        "id": 9478230,
        "last_rank": 28150,
        "player_name": "napat wiwattanakrai",
        "rank": 21652,
        "rank_sort": 21694,
        "total": 2378
      },
      {
        "club_badge_src": null,
        "entry": 1545254,
        "entry_name": "Dreamers",
        "event_total": 61,
        "has_played": true,
        "id": 10786971,
        "last_rank": 24330,
        "player_name": "Sagar Rana",
        "rank": 21652,
        "rank_sort": 21695,
        "total": 2378
      },
      {
        "club_badge_src": null,
        "entry": 1566767,
        "entry_name": "Gallys Tartan Army",
        "event_total": 76,
        "has_played": true,
        "id": 10945031,
        "last_rank": 40036,
        "player_name": "Craig Gallacher",
        "rank": 21652,
        "rank_sort": 21696,
        "total": 2378
      },
      {
        "club_badge_src": "https://fantasy.premierleague.com/gcs/plfpl-production-adobe-approved/plfpl-production/1684112/0a2853eb-83a8-4c7a-a7de-41cb6cc52289.png",
        "entry": 1684112,
        "entry_name": "Ha Cunha Matata",
        "event_total": 61,
        "has_played": true,
        "id": 11789204,
        "last_rank": 24330,
        "player_name": "Brandon Short",
        "rank": 21652,
        "rank_sort": 21697,
        "total": 2378
      },
      {
        "club_badge_src": null,
        "entry": 1816506,
        "entry_name": "Piotrzuku",
        "event_total": 44,
        "has_played": true,
        "id": 12773933,
        "last_rank": 12940,
        "player_name": "Piotr \u017bukrowski",
        "rank": 21652,
        "rank_sort": 21698,
        "total": 2378
      },
      {
        "club_badge_src": "https://fantasy.premierleague.com/gcs/plfpl-production-adobe-approved/plfpl-production/1840271/1218d3d7-6932-44c1-a871-82f6a8be5563.png",
        "entry": 1840271,
        "entry_name": "Steigenborg",
        "event_total": 73,
        "has_played": true,
        "id": 12947105,
        "last_rank": 36624,
        "player_name": "Jon Stegenborg",
        "rank": 21652,
        "rank_sort": 21699,
        "total": 2378
      },
      {
        "club_badge_src": null,
        "entry": 2026338,
        "entry_name": "Losers",
        "event_total": 44,
        "has_played": true,
        "id": 14344308,
        "last_rank": 12846,
        "player_name": "Audun Solheim",
        "rank": 21652,
        "rank_sort": 21700,
        "total": 2378
      }
    ]
  }
}