{
  "last_updated_data": "2026-05-24T23:28:17Z",
  "league": {
    "admin_entry": null,
    "closed": false,
    "code_privacy": "p",
    "created": "2025-07-20T23:14:33.933835Z",
    "cup_league": 2815434,
    "has_cup": true,
    "id": 314,
    "league_type": "s",
    "max_entries": null,
    "name": "Overall",
    "rank": null,
    "scoring": "c",
    "start_event": 1
  },
  "new_entries": {
    "has_next": false,
    "page": 1,
    "results": []
  },
  "standings": {
    "has_next": true,
    "page": 1588,
    "results": [
      {
        "club_badge_src": null,
        "entry": 626485,
        "entry_name": "MVee FC",
        "event_total": 66,
        "has_played": true,
        "id": 4233585,
        "last_rank": 102622,
        "player_name": "Kevin Bagley",
        "rank": 79340,
        "rank_sort": 79351,
        "total": 2336
      },
      {
        "club_badge_src": null,
        "entry": 637589,
        "entry_name": "SSCCBA FC",
        "event_total": 65,
        "has_played": true,
        "id": 4309177,
        "last_rank": 90158,
        "player_name": "Barry Kauffer",
        "rank": 79340,
        "rank_sort": 79352,
        "total": 2336
      },
      {
        "club_badge_src": "https://fantasy.premierleague.com/gcs/plfpl-production-adobe-approved/plfpl-production/641017/330d465f-0eaa-4698-9a31-515a50dae40d.png",
        "entry": 641017,
        "entry_name": "Beef Cherki",
        "event_total": 70,
        "has_played": true,
        "id": 4332238,
        "last_rank": 92471,
        "player_name": "Sam Satchell",
        "rank": 79340,
        "rank_sort": 79353,
        "total": 2336
      },
      {
        "club_badge_src": null,
        "entry": 714098,
        "entry_name": "Newton Heath B Team",
        "event_total": 65,
        "has_played": true,
        "id": 4844639,
        "last_rank": 90158,
        "player_name": "Martin Donegan",
        "rank": 79340,
        "rank_sort": 79354,
        "total": 2336
      },
      {
        "club_badge_src": "https://fantasy.premierleague.com/gcs/plfpl-production-adobe-approved/plfpl-production/816209/5a54b42b-cab9-4ba5-850a-eddfb9f2dfed.png",
        "entry": 816209,
        "entry_name": "Palace-Tyne Action",
        "event_total": 45,
        "has_played": true,
        "id": 5589368,
        "last_rank": 57557,
        "player_name": "Paul Widdowfield",
        "rank": 79340,
        "rank_sort": 79355,
        "total": 2336
      },
      {
        "club_badge_src": null,
        "entry": 839634,
        "entry_name": "Toutta FC",
        "event_total": 63,
        "has_played": true,
        "id": 5752749,
        "last_rank": 95063,
        "player_name": "Ahmed Khalil",
        "rank": 79340,
        "rank_sort": 79356,
        "total": 2336
      },
      {
        "club_badge_src": "https://fantasy.premierleague.com/gcs/plfpl-production-adobe-approved/plfpl-production/853023/1b9601e5-6f71-4c43-88d3-e0e817de1905.png",
        "entry": 853023,
        "entry_name": "Clickbait City",
        "event_total": 59,
        "has_played": true,
        "id": 5846919,
        "last_rank": 68216,
        "player_name": "Malcolm Dick",
        "rank": 79340,
        "rank_sort": 79357,
        "total": 2336
      },
      {
        "club_badge_src": null,
        "entry": 925850,
        "entry_name": "Trust the process",
        "event_total": 47,
        "has_played": true,
        "id": 6369470,
        "last_rank": 61045,
        "player_name": "Jack Jarvis",
        "rank": 79340,
        "rank_sort": 79358,
        "total": 2336
      },
      {
        "club_badge_src": "https://fantasy.premierleague.com/gcs/plfpl-production-adobe-approved/plfpl-production/1045121/e6de966d-823b-420e-ac75-d025b02a0ab9.png",
        "entry": 1045121,
        "entry_name": "NicCon",
        "event_total": 49,
        "has_played": true,
        "id": 7232908,
        "last_rank": 64562,
        "player_name": "Nicholas Hagen",
        "rank": 79340,
        "rank_sort": 79359,
        "total": 2336
      },
      {
        "club_badge_src": null,
        "entry": 1118366,
        "entry_name": "Youness hbt",
        "event_total": 60,
        "has_played": true,
        "id": 7746750,
        "last_rank": 87885,
        "player_name": "Youness Ht",
        "rank": 79340,
        "rank_sort": 79360,
        "total": 2336
      },
      {
        "club_badge_src": null,
        "entry": 1953006,
        "entry_name": "Fc.Fod",
        "event_total": 58,
        "has_played": true,
        "id": 13777124,
        "last_rank": 74395,
        "player_name": "Fady Alfred",
        "rank": 79340,
        "rank_sort": 79361,
        "total": 2336
      },
      {
        "club_badge_src": null,
        "entry": 1966481,
        "entry_name": "Let's Go",
        "event_total": 53,
        "has_played": true,
        "id": 13877254,
        "last_rank": 72346,
        "player_name": "Valentine Nduka Nwokoro",
        "rank": 79340,
        "rank_sort": 79362,
        "total": 2336
      },
      {
        "club_badge_src": null,
        "entry": 2143150,
        "entry_name": "VV Heerenveen",
        "event_total": 68,
        "has_played": true,
        "id": 15232197,
        "last_rank": 97470,
        "player_name": "Michel Nienhuis",
        "rank": 79340,
        "rank_sort": 79363,
        "total": 2336
      },
      {
        "club_badge_src": null,
        "entry": 2178877,
        "entry_name": "KingEric7",
        "event_total": 54,
        "has_played": true,
        "id": 15495664,
        "last_rank": 74395,
        "player_name": "Nathan Grange",
        "rank": 79340,
        "rank_sort": 79364,
        "total": 2336
      },
      {
        "club_badge_src": null,
        "entry": 2472472,
        "entry_name": "Ndlovu is all u need",
        "event_total": 54,
        "has_played": true,
        "id": 17688326,
        "last_rank": 74474,
        "player_name": "dave simpson",
        "rank": 79340,
        "rank_sort": 79365,
        "total": 2336
      },
      {
        "club_badge_src": null,
        "entry": 2694507,
        "entry_name": "The Sheehan Express",
        "event_total": 58,
        "has_played": true,
        "id": 19382258,
        "last_rank": 83127,
        "player_name": "Louis Sheehan",
        "rank": 79340,
        "rank_sort": 79366,
        "total": 2336
      },
      {
        "club_badge_src": null,
        "entry": 2848215,
        "entry_name": "Tweet Dreams",
        "event_total": 77,
        "has_played": true,
        "id": 20823463,
        "last_rank": 134879,
        "player_name": "Elias Obbink",
        "rank": 79340,
        "rank_sort": 79367,
        "total": 2336
      },
      {
        "club_badge_src": null,
        "entry": 3211949,
        "entry_name": "Kaoru Kart 22",
        "event_total": 51,
        "has_played": true,
        "id": 23747056,
        "last_rank": 68395,
        "player_name": "Don B",
        "rank": 79340,
        "rank_sort": 79368,
        "total": 2336
      },
      {
        "club_badge_src": null,
        "entry": 3326536,
        "entry_name": "Onizuka",
        "event_total": 69,
        "has_played": true,
        "id": 24662356,
        "last_rank": 110813,
        "player_name": "zargou haddaoui",
        "rank": 79340,
        "rank_sort": 79369,
        "total": 2336
      },
      {
        "club_badge_src": null,
        "entry": 3493789,
        "entry_name": "raheeeem",
        "event_total": 59,
        "has_played": true,
        "id": 25986646,
        "last_rank": 76574,
        "player_name": "Rahim Belkenniche",
        "rank": 79340,
        "rank_sort": 79370,
        "total": 2336
      },
      {
        "club_badge_src": null,
        "entry": 3536209,
        "entry_name": "Saka Potatoes",
        "event_total": 57,
        "has_played": true,
        "id": 26320917,
        "last_rank": 80965,
        "player_name": "Colin Campbell",
        "rank": 79340,
        "rank_sort": 79371,
        "total": 2336
      },
      {
        "club_badge_src": "https://fantasy.premierleague.com/gcs/plfpl-production-adobe-approved/plfpl-production/3870041/b21153e6-e0d0-4394-9af7-a0e7e4a09e72.png",
        "entry": 3870041,
        "entry_name": "BALLRONGDOR",
        "event_total": 69,
        "has_played": true,
        "id": 29032503,
        "last_rank": 100092,
        "player_name": "NARONG HOMLOM",
        "rank": 79340,
        "rank_sort": 79372,
        "total": 2336
      },
      {
        "club_badge_src": null,
        "entry": 3926527,
        "entry_name": "Haven\u2019t Got A Kalou",
        "event_total": 42,
        "has_played": true,
        "id": 29529487,
        "last_rank": 52561,
        "player_name": "David Egan",
        "rank": 79340,
        "rank_sort": 79373,
        "total": 2336
      },
      {
        "club_badge_src": null,
        "entry": 3931510,
        "entry_name": "MOATAZ",
        "event_total": 58,
        "has_played": true,
        "id": 29569017,
        "last_rank": 74395,
        "player_name": "\u0639\u0632\u0648 \u0639\u0632\u0648",
        "rank": 79340,
        "rank_sort": 79374,
        "total": 2336
      },
      {
        "club_badge_src": null,
        "entry": 3936735,
        "entry_name": "Blue-nose Blitzers",
        "event_total": 61,
        "has_played": true,
        "id": 29612344,
        "last_rank": 90158,
        "player_name": "Gareth bennett",
        "rank": 79340,
        "rank_sort": 79375,
        "total": 2336
      },
      {
        "club_badge_src": null,
        "entry": 4096388,
        "entry_name": "AA AA",
        "event_total": 64,
        "has_played": true,
        "id": 30930384,
        "last_rank": 87808,
        "player_name": "AA AA",
        "rank": 79340,
        "rank_sort": 79376,
        "total": 2336
      },
      {
        "club_badge_src": null,
        "entry": 4197848,
        "entry_name": "Cush's Palace",
        "event_total": 59,
        "has_played": true,
        "id": 31774242,
        "last_rank": 85565,
        "player_name": "Christopher Conlan",
        "rank": 79340,
        "rank_sort": 79377,
        "total": 2336
      },
      {
        "club_badge_src": null,
        "entry": 4322219,
        "entry_name": "Alexpress",
        "event_total": 64,
        "has_played": true,
        "id": 32802514,
        "last_rank": 97687,
        "player_name": "Alex Chai",
        "rank": 79340,
        "rank_sort": 79378,
        "total": 2336
      },
      {
        "club_badge_src": null,
        "entry": 4589708,
        "entry_name": "Iceberg",
        "event_total": 69,
        "has_played": true,
        "id": 35046355,
        "last_rank": 100092,
        "player_name": "Jo Iceberg",
        "rank": 79340,
        "rank_sort": 79379,
        "total": 2336
      },
      {
        "club_badge_src": null,
        "entry": 4718677,
        "entry_name": "Not so Hotspur",
        "event_total": 55,
        "has_played": true,
        "id": 36241177,
        "last_rank": 76638,
        "player_name": "Michael Mason",
        "rank": 79340,
        "rank_sort": 79380,
        "total": 2336
      },
      {
        "club_badge_src": null,
        "entry": 5128260,
        "entry_name": "Pointless",
        "event_total": 57,
        "has_played": true,
        "id": 39659494,
        "last_rank": 80965,
        "player_name": "Saif Ubermensch",
        "rank": 79340,
        "rank_sort": 79381,
        "total": 2336
      },
      {
        "club_badge_src": null,
        "entry": 5487938,
        "entry_name": "Noinar FC.",
        "event_total": 70,
        "has_played": true,
        "id": 42738996,
        "last_rank": 113666,
        "player_name": "krisdawut Sarasuk",
        "rank": 79340,
        "rank_sort": 79382,
        "total": 2336
      },
      {
        "club_badge_src": "https://fantasy.premierleague.com/gcs/plfpl-production-adobe-approved/plfpl-production/5762030/246c7662-64c6-46ed-a6d2-a700aa219c86.png",
        "entry": 5762030,
        "entry_name": "Garth Cooks",
        "event_total": 36,
        "has_played": true,
        "id": 45169974,
        "last_rank": 33651,
        "player_name": "Damian Shaw",
        "rank": 79340,
        "rank_sort": 79383,
        "total": 2336
      },
      {
        "club_badge_src": null,
        "entry": 5767837,
        "entry_name": "Total Slotball",
        "event_total": 64,
        "has_played": true,
        "id": 45219094,
        "last_rank": 70072,
        "player_name": "Deena Naidoo",
        "rank": 79340,
        "rank_sort": 79384,
        "total": 2336
      },
      {
        "club_badge_src": null,
        "entry": 5938361,
        "entry_name": "Ziad saka",
        "event_total": 62,
        "has_played": true,
        "id": 46694465,
        "last_rank": 83127,
        "player_name": "Ziad Zend AL hadid",
        "rank": 79340,
        "rank_sort": 79385,
        "total": 2336
      },
      {
        "club_badge_src": null,
        "entry": 5948322,
        "entry_name": "Ogya Ne Mogya FC",
        "event_total": 71,
        "has_played": true,
        "id": 46784220,
        "last_rank": 116351,
        "player_name": "George Pappoe",
        "rank": 79340,
        "rank_sort": 79386,
        "total": 2336
      },
      {
        "club_badge_src": null,
        "entry": 6327071,
        "entry_name": "MedStricker FC",
        "event_total": 65,
        "has_played": true,
        "id": 50268345,
        "last_rank": 80781,
        "player_name": "Hizam Med",
        "rank": 79340,
        "rank_sort": 79387,
        "total": 2336
      },
      {
        "club_badge_src": "https://fantasy.premierleague.com/gcs/plfpl-production-adobe-approved/plfpl-production/6888168/2a1ad354-f488-499b-9fd9-1b99006d2eba.png",
        "entry": 6888168,
        "entry_name": "zamalek",
        "event_total": 50,
        "has_played": true,
        "id": 55205130,
        "last_rank": 66447,
        "player_name": "ahmed taha",
        "rank": 79340,
        "rank_sort": 79388,
        "total": 2336
      },
      {
        "club_badge_src": null,
        "entry": 7094687,
        "entry_name": "Reuben",
        "event_total": 49,
        "has_played": true,
        "id": 57125534,
        "last_rank": 64562,
        "player_name": "Reuben Micah",
        "rank": 79340,
        "rank_sort": 79389,
        "total": 2336
      },
      {
        "club_badge_src": null,
        "entry": 7435138,
        "entry_name": "Mi Amorim",
        "event_total": 65,
        "has_played": true,
        "id": 60438034,
        "last_rank": 100177,
        "player_name": "Or Dodi",
        "rank": 79340,
        "rank_sort": 79390,
        "total": 2336
      },
      {
        "club_badge_src": "https://fantasy.premierleague.com/gcs/plfpl-production-adobe-approved/plfpl-production/7832745/de07009b-22cb-49b4-ae51-3d7a7aad2520.png",
        "entry": 7832745,
        "entry_name": "The legend",
        "event_total": 33,
        "has_played": true,
        "id": 64370536,
        "last_rank": 39673,
        "player_name": "Abdulla Alkubaisi",
        "rank": 79340,
        "rank_sort": 79391,
        "total": 2336
      },
      {
        "club_badge_src": "https://fantasy.premierleague.com/gcs/plfpl-production-adobe-approved/plfpl-production/8677095/1202308f-644c-4fae-a439-90f4f9ef51ed.png",
        "entry": 8677095,
        "entry_name": "Team Performative",
        "event_total": 71,
        "has_played": true,
        "id": 72356269,
        "last_rank": 116461,
        "player_name": "Thomas Lynam",
        "rank": 79340,
        "rank_sort": 79392,
        "total": 2336
      },
      {
        "club_badge_src": null,
        "entry": 8945327,
        "entry_name": "Musallam alqudaihi t",
        "event_total": 71,
        "has_played": true,
        "id": 74953332,
        "last_rank": 116461,
        "player_name": "musallam Alqudaihi",
        "rank": 79340,
        "rank_sort": 79393,
        "total": 2336
      },
      {
        "club_badge_src": null,
        "entry": 11698,
        "entry_name": "Gordelona",
        "event_total": 65,
        "has_played": true,
        "id": 69635,
        "last_rank": 100177,
        "player_name": "Jordan Harrison",
        "rank": 79394,
        "rank_sort": 79394,
        "total": 2336
      },
      {
        "club_badge_src": "https://fantasy.premierleague.com/gcs/plfpl-production-adobe-approved/plfpl-production/13923/113f0a29-c50a-40df-937b-67b3be9eedf7.png",
        "entry": 13923,
        "entry_name": "Why So Serious?",
        "event_total": 60,
        "has_played": true,
        "id": 84322,
        "last_rank": 87945,
        "player_name": "Milko Yovchev",
        "rank": 79394,
        "rank_sort": 79395,
        "total": 2336
      },
      {
        "club_badge_src": null,
        "entry": 17255,
        "entry_name": "GameOfThrowins",
        "event_total": 61,
        "has_played": true,
        "id": 106988,
        "last_rank": 80965,
        "player_name": "Adam Mullan",
        "rank": 79394,
        "rank_sort": 79396,
        "total": 2336
      },
      {
        "club_badge_src": null,
        "entry": 21656,
        "entry_name": "Notorious GIB",
        "event_total": 60,
        "has_played": true,
        "id": 135833,
        "last_rank": 78730,
        "player_name": "Jos Gibson",
        "rank": 79394,
        "rank_sort": 79397,
        "total": 2336
      },
      {
        "club_badge_src": null,
        "entry": 139924,
        "entry_name": "Nawaf SAK",
        "event_total": 61,
        "has_played": true,
        "id": 913486,
        "last_rank": 64422,
        "player_name": "Nawaf Sk",
        "rank": 79394,
        "rank_sort": 79398,
        "total": 2336
      },
      {
        "club_badge_src": null,
        "entry": 143787,
        "entry_name": "Pete's Pistols",
        "event_total": 59,
        "has_played": true,
        "id": 940813,
        "last_rank": 85624,
        "player_name": "Peter Adams",
        "rank": 79394,
        "rank_sort": 79399,
        "total": 2336
      },
      {
        "club_badge_src": null,
        "entry": 210436,
        "entry_name": "Koguty",
        "event_total": 58,
        "has_played": true,
        "id": 1399510,
        "last_rank": 83267,
        "player_name": "Jakub Je\u017cowski",
        "rank": 79394,
        "rank_sort": 79400,
        "total": 2336
      }
    ]
  }
}