{
  "last_updated_data": "2026-05-24T23:28:17Z",
  "league": {
    "admin_entry": null,
    "closed": false,
    "code_privacy": "p",
    "created": "2025-07-20T23:14:33.933835Z",
    "cup_league": 2815434,
    "has_cup": true,
    "id": 314,
    "league_type": "s",
    "max_entries": null,
    "name": "Overall",
    "rank": null,
    "scoring": "c",
    "start_event": 1
  },
  "new_entries": {
    "has_next": false,
    "page": 1,
    "results": []
  },
  "standings": {
    "has_next": true,
    "page": 48,
    "results": [
      {
        "club_badge_src": null,
        "entry": 7307047,
        "entry_name": "The Eagle v2.0",
        "event_total": 48,
        "has_played": true,
        "id": 59143507,
        "last_rank": 1079,
        "player_name": "Oussama Bhmch",
        "rank": 2324,
        "rank_sort": 2351,
        "total": 2431
      },
      {
        "club_badge_src": null,
        "entry": 8287766,
        "entry_name": "Khalas FC",
        "event_total": 69,
        "has_played": true,
        "id": 68582432,
        "last_rank": 3765,
        "player_name": "Ahmed Asamoah",
        "rank": 2324,
        "rank_sort": 2352,
        "total": 2431
      },
      {
        "club_badge_src": "https://fantasy.premierleague.com/gcs/plfpl-production-adobe-approved/plfpl-production/15744/b621edc8-f8af-4b7a-86eb-1ef354670d5d.png",
        "entry": 15744,
        "entry_name": "Ibiza IL",
        "event_total": 64,
        "has_played": true,
        "id": 96886,
        "last_rank": 2977,
        "player_name": "Harald Martin Valen Olsen",
        "rank": 2353,
        "rank_sort": 2353,
        "total": 2431
      },
      {
        "club_badge_src": null,
        "entry": 75246,
        "entry_name": "Turkish Delights",
        "event_total": 69,
        "has_played": true,
        "id": 489190,
        "last_rank": 3765,
        "player_name": "Mrs FPL A Plus",
        "rank": 2353,
        "rank_sort": 2354,
        "total": 2431
      },
      {
        "club_badge_src": "https://fantasy.premierleague.com/gcs/plfpl-production-adobe-approved/plfpl-production/518492/c0e11299-1b75-44f1-9258-f42b12377554.png",
        "entry": 518492,
        "entry_name": "MODRI\u010610",
        "event_total": 58,
        "has_played": true,
        "id": 3481212,
        "last_rank": 1797,
        "player_name": "- G.O.A.T",
        "rank": 2353,
        "rank_sort": 2355,
        "total": 2431
      },
      {
        "club_badge_src": null,
        "entry": 583790,
        "entry_name": "crook n nani",
        "event_total": 68,
        "has_played": true,
        "id": 3928808,
        "last_rank": 3601,
        "player_name": "Marcia Parkes",
        "rank": 2353,
        "rank_sort": 2356,
        "total": 2431
      },
      {
        "club_badge_src": null,
        "entry": 1275572,
        "entry_name": "Sao Paulo",
        "event_total": 68,
        "has_played": true,
        "id": 8863441,
        "last_rank": 3528,
        "player_name": "Pawe\u0142 Kawik",
        "rank": 2353,
        "rank_sort": 2357,
        "total": 2431
      },
      {
        "club_badge_src": null,
        "entry": 1610038,
        "entry_name": "OneWeekWonder",
        "event_total": 52,
        "has_played": true,
        "id": 11264694,
        "last_rank": 1648,
        "player_name": "Tom Archbold",
        "rank": 2353,
        "rank_sort": 2358,
        "total": 2431
      },
      {
        "club_badge_src": "https://fantasy.premierleague.com/gcs/plfpl-production-adobe-approved/plfpl-production/1684597/2126c0b4-3a9c-48ae-965a-ada558ccd36b.png",
        "entry": 1684597,
        "entry_name": "RisingGunner2026",
        "event_total": 39,
        "has_played": true,
        "id": 11792500,
        "last_rank": 848,
        "player_name": "Jet Chan",
        "rank": 2353,
        "rank_sort": 2359,
        "total": 2431
      },
      {
        "club_badge_src": null,
        "entry": 2567976,
        "entry_name": "gaaza7",
        "event_total": 42,
        "has_played": true,
        "id": 18422494,
        "last_rank": 1005,
        "player_name": "Nikola Gazi\u0107",
        "rank": 2353,
        "rank_sort": 2360,
        "total": 2431
      },
      {
        "club_badge_src": null,
        "entry": 3858986,
        "entry_name": "In Delap of the Gods",
        "event_total": 56,
        "has_played": true,
        "id": 28932822,
        "last_rank": 2027,
        "player_name": "Andy Gurnhill",
        "rank": 2353,
        "rank_sort": 2361,
        "total": 2431
      },
      {
        "club_badge_src": null,
        "entry": 4678144,
        "entry_name": "No Arteta, No Cry",
        "event_total": 59,
        "has_played": true,
        "id": 35841170,
        "last_rank": 1523,
        "player_name": "Tobias Sj\u00f6din",
        "rank": 2353,
        "rank_sort": 2362,
        "total": 2431
      },
      {
        "club_badge_src": "https://fantasy.premierleague.com/gcs/plfpl-production-adobe-approved/plfpl-production/817/36a1c353-4693-49bd-9ae2-b3dcbdedb98c.png",
        "entry": 817,
        "entry_name": "RobJa Rovers",
        "event_total": 63,
        "has_played": true,
        "id": 4515,
        "last_rank": 2355,
        "player_name": "Jamie Ashby",
        "rank": 2363,
        "rank_sort": 2363,
        "total": 2431
      },
      {
        "club_badge_src": "https://fantasy.premierleague.com/gcs/plfpl-production-adobe-approved/plfpl-production/2425/3a2d4713-13f2-4ed5-adf6-1a1e2409610f.png",
        "entry": 2425,
        "entry_name": "Kilcock FC",
        "event_total": 55,
        "has_played": true,
        "id": 13526,
        "last_rank": 1563,
        "player_name": "Farhan Ahmad",
        "rank": 2363,
        "rank_sort": 2364,
        "total": 2431
      },
      {
        "club_badge_src": "https://fantasy.premierleague.com/gcs/plfpl-production-adobe-approved/plfpl-production/54193/c19e3af7-e002-4292-8ca9-42bfed7df043.png",
        "entry": 54193,
        "entry_name": "AI IS NOT THE WAY FC",
        "event_total": 65,
        "has_played": true,
        "id": 348819,
        "last_rank": 3192,
        "player_name": "Tommy The Gun",
        "rank": 2363,
        "rank_sort": 2365,
        "total": 2431
      },
      {
        "club_badge_src": null,
        "entry": 196049,
        "entry_name": "Could Be Wirtz",
        "event_total": 57,
        "has_played": true,
        "id": 1300360,
        "last_rank": 1728,
        "player_name": "Jon Nash",
        "rank": 2363,
        "rank_sort": 2366,
        "total": 2431
      },
      {
        "club_badge_src": null,
        "entry": 431501,
        "entry_name": "Danios Squad",
        "event_total": 54,
        "has_played": true,
        "id": 2893914,
        "last_rank": 1478,
        "player_name": "Daniel Urheim",
        "rank": 2363,
        "rank_sort": 2367,
        "total": 2431
      },
      {
        "club_badge_src": null,
        "entry": 2595605,
        "entry_name": "AS ROMA",
        "event_total": 61,
        "has_played": true,
        "id": 18638817,
        "last_rank": 2620,
        "player_name": "Bobby G",
        "rank": 2363,
        "rank_sort": 2368,
        "total": 2431
      },
      {
        "club_badge_src": null,
        "entry": 3120372,
        "entry_name": "Fc Saban",
        "event_total": 39,
        "has_played": true,
        "id": 23027189,
        "last_rank": 686,
        "player_name": "Nasser Ibrahim",
        "rank": 2363,
        "rank_sort": 2369,
        "total": 2431
      },
      {
        "club_badge_src": "https://fantasy.premierleague.com/gcs/plfpl-production-adobe-approved/plfpl-production/3316120/532a1ec4-8074-4d28-b842-e8c5f6331fe7.png",
        "entry": 3316120,
        "entry_name": "Brooks Was Here",
        "event_total": 53,
        "has_played": true,
        "id": 24571130,
        "last_rank": 1734,
        "player_name": "Fhd ibrahim",
        "rank": 2363,
        "rank_sort": 2370,
        "total": 2431
      },
      {
        "club_badge_src": null,
        "entry": 4291723,
        "entry_name": "Socks",
        "event_total": 49,
        "has_played": true,
        "id": 32554880,
        "last_rank": 1410,
        "player_name": "Rob Watkins",
        "rank": 2363,
        "rank_sort": 2371,
        "total": 2431
      },
      {
        "club_badge_src": null,
        "entry": 4606271,
        "entry_name": "Beef Cherki",
        "event_total": 56,
        "has_played": true,
        "id": 35193247,
        "last_rank": 1648,
        "player_name": "Luke Boatfield",
        "rank": 2363,
        "rank_sort": 2372,
        "total": 2431
      },
      {
        "club_badge_src": "https://fantasy.premierleague.com/gcs/plfpl-production-adobe-approved/plfpl-production/5136823/5d5f0403-5cf2-4f91-bae6-e5e74d29226b.png",
        "entry": 5136823,
        "entry_name": "Omoh_Guiltless",
        "event_total": 69,
        "has_played": true,
        "id": 39732501,
        "last_rank": 3796,
        "player_name": "Muhammed Damilola Omotoso",
        "rank": 2363,
        "rank_sort": 2373,
        "total": 2431
      },
      {
        "club_badge_src": null,
        "entry": 6249227,
        "entry_name": "Pass the Prosecco",
        "event_total": 75,
        "has_played": true,
        "id": 49468206,
        "last_rank": 5053,
        "player_name": "Jay Atkins-Lane",
        "rank": 2363,
        "rank_sort": 2374,
        "total": 2431
      },
      {
        "club_badge_src": null,
        "entry": 6358300,
        "entry_name": "OJ ARMY",
        "event_total": 65,
        "has_played": true,
        "id": 50552224,
        "last_rank": 2611,
        "player_name": "Omar jabrI",
        "rank": 2363,
        "rank_sort": 2375,
        "total": 2431
      },
      {
        "club_badge_src": null,
        "entry": 7695717,
        "entry_name": "Broksern",
        "event_total": 53,
        "has_played": true,
        "id": 63133028,
        "last_rank": 1410,
        "player_name": "Runar Broks",
        "rank": 2363,
        "rank_sort": 2376,
        "total": 2431
      },
      {
        "club_badge_src": null,
        "entry": 43109,
        "entry_name": "Limeni United",
        "event_total": 69,
        "has_played": true,
        "id": 276076,
        "last_rank": 3175,
        "player_name": "Ilin Shavreski",
        "rank": 2377,
        "rank_sort": 2377,
        "total": 2431
      },
      {
        "club_badge_src": "https://fantasy.premierleague.com/gcs/plfpl-production-adobe-approved/plfpl-production/166444/ce108103-0d03-4833-9f55-2d11deef32d6.png",
        "entry": 166444,
        "entry_name": "Mitchell Men",
        "event_total": 73,
        "has_played": true,
        "id": 1099666,
        "last_rank": 3813,
        "player_name": "Adam Mitchell",
        "rank": 2377,
        "rank_sort": 2378,
        "total": 2431
      },
      {
        "club_badge_src": null,
        "entry": 365558,
        "entry_name": "JAMMERS BANGERS",
        "event_total": 64,
        "has_played": true,
        "id": 2446404,
        "last_rank": 2482,
        "player_name": "James Ractliffe",
        "rank": 2377,
        "rank_sort": 2379,
        "total": 2431
      },
      {
        "club_badge_src": null,
        "entry": 694924,
        "entry_name": "Cunha Believe It",
        "event_total": 68,
        "has_played": true,
        "id": 4706680,
        "last_rank": 3661,
        "player_name": "Aaron Hagan",
        "rank": 2377,
        "rank_sort": 2380,
        "total": 2431
      },
      {
        "club_badge_src": "https://fantasy.premierleague.com/gcs/plfpl-production-adobe-approved/plfpl-production/994199/09f9e145-a4ff-4d52-9bdf-26b10d45d1b4.png",
        "entry": 994199,
        "entry_name": "Fxk:(",
        "event_total": 55,
        "has_played": true,
        "id": 6859377,
        "last_rank": 1946,
        "player_name": "yahya musa",
        "rank": 2377,
        "rank_sort": 2381,
        "total": 2431
      },
      {
        "club_badge_src": null,
        "entry": 1404310,
        "entry_name": "AgentH",
        "event_total": 72,
        "has_played": true,
        "id": 9770993,
        "last_rank": 3648,
        "player_name": "Henrik Wong",
        "rank": 2377,
        "rank_sort": 2382,
        "total": 2431
      },
      {
        "club_badge_src": null,
        "entry": 1787687,
        "entry_name": "Liverpool Legends",
        "event_total": 39,
        "has_played": true,
        "id": 12561019,
        "last_rank": 861,
        "player_name": "Steven Gerard",
        "rank": 2377,
        "rank_sort": 2383,
        "total": 2431
      },
      {
        "club_badge_src": null,
        "entry": 3743821,
        "entry_name": "Boom Xhakalaka",
        "event_total": 65,
        "has_played": true,
        "id": 27947794,
        "last_rank": 3202,
        "player_name": "Davit Musabelliu",
        "rank": 2377,
        "rank_sort": 2384,
        "total": 2431
      },
      {
        "club_badge_src": "https://fantasy.premierleague.com/gcs/plfpl-production-adobe-approved/plfpl-production/715839/beac1872-d397-467b-9197-e9e18f15ad80.png",
        "entry": 715839,
        "entry_name": "i make websites",
        "event_total": 64,
        "has_played": true,
        "id": 4856782,
        "last_rank": 2482,
        "player_name": "Kyeal Lawrence",
        "rank": 2385,
        "rank_sort": 2385,
        "total": 2431
      },
      {
        "club_badge_src": null,
        "entry": 771013,
        "entry_name": "ThomastheFrankEngine",
        "event_total": 56,
        "has_played": true,
        "id": 5259745,
        "last_rank": 2045,
        "player_name": "Alwyn Merlo-Carr",
        "rank": 2385,
        "rank_sort": 2386,
        "total": 2431
      },
      {
        "club_badge_src": "https://fantasy.premierleague.com/gcs/plfpl-production-adobe-approved/plfpl-production/59440/d7c90355-ac8b-41f3-8ffc-c4e6e2523642.png",
        "entry": 59440,
        "entry_name": "Tifa \ufffd",
        "event_total": 58,
        "has_played": true,
        "id": 382789,
        "last_rank": 2261,
        "player_name": "Mostafa Negm",
        "rank": 2387,
        "rank_sort": 2387,
        "total": 2431
      },
      {
        "club_badge_src": null,
        "entry": 74107,
        "entry_name": "Balling like Kobbie",
        "event_total": 64,
        "has_played": true,
        "id": 481721,
        "last_rank": 2495,
        "player_name": "Musa Masondo",
        "rank": 2387,
        "rank_sort": 2388,
        "total": 2431
      },
      {
        "club_badge_src": null,
        "entry": 339249,
        "entry_name": "TOSTI",
        "event_total": 50,
        "has_played": true,
        "id": 2271095,
        "last_rank": 1498,
        "player_name": "Morten Ringsby",
        "rank": 2387,
        "rank_sort": 2389,
        "total": 2431
      },
      {
        "club_badge_src": null,
        "entry": 492938,
        "entry_name": "What a goal!",
        "event_total": 65,
        "has_played": true,
        "id": 3308845,
        "last_rank": 2638,
        "player_name": "Kai Meland",
        "rank": 2387,
        "rank_sort": 2390,
        "total": 2431
      },
      {
        "club_badge_src": null,
        "entry": 1607812,
        "entry_name": "HOT-HUSSAIN ON TOP",
        "event_total": 72,
        "has_played": true,
        "id": 11249074,
        "last_rank": 4442,
        "player_name": "shahid Hussain",
        "rank": 2387,
        "rank_sort": 2391,
        "total": 2431
      },
      {
        "club_badge_src": null,
        "entry": 546413,
        "entry_name": "Licioussquad",
        "event_total": 66,
        "has_played": true,
        "id": 3677274,
        "last_rank": 3365,
        "player_name": "Patta Schilpz",
        "rank": 2392,
        "rank_sort": 2392,
        "total": 2431
      },
      {
        "club_badge_src": null,
        "entry": 643188,
        "entry_name": "Reijnders On D Storm",
        "event_total": 66,
        "has_played": true,
        "id": 4346872,
        "last_rank": 2784,
        "player_name": "Minchev Stefan",
        "rank": 2392,
        "rank_sort": 2393,
        "total": 2431
      },
      {
        "club_badge_src": "https://fantasy.premierleague.com/gcs/plfpl-production-adobe-approved/plfpl-production/7724028/c3783986-1b0a-4fc4-a249-8bdf8ad80395.png",
        "entry": 7724028,
        "entry_name": "MUFC",
        "event_total": 81,
        "has_played": true,
        "id": 63387183,
        "last_rank": 6656,
        "player_name": "Ali Q",
        "rank": 2392,
        "rank_sort": 2394,
        "total": 2431
      },
      {
        "club_badge_src": null,
        "entry": 1364751,
        "entry_name": "Dill Pickle",
        "event_total": 63,
        "has_played": true,
        "id": 9487249,
        "last_rank": 2384,
        "player_name": "DYLAN PATEL",
        "rank": 2395,
        "rank_sort": 2395,
        "total": 2431
      },
      {
        "club_badge_src": null,
        "entry": 272160,
        "entry_name": "You\u2019ve Been Ghosted",
        "event_total": 65,
        "has_played": true,
        "id": 1810728,
        "last_rank": 2643,
        "player_name": "King Ghostman",
        "rank": 2396,
        "rank_sort": 2396,
        "total": 2431
      },
      {
        "club_badge_src": null,
        "entry": 1052287,
        "entry_name": "HaCunha Matata",
        "event_total": 62,
        "has_played": true,
        "id": 7282463,
        "last_rank": 2789,
        "player_name": "Conor Keogh",
        "rank": 2397,
        "rank_sort": 2397,
        "total": 2431
      },
      {
        "club_badge_src": null,
        "entry": 5410907,
        "entry_name": "ThomasTheFrankEngine",
        "event_total": 60,
        "has_played": true,
        "id": 42077323,
        "last_rank": 2513,
        "player_name": "Rob Taylor",
        "rank": 2398,
        "rank_sort": 2398,
        "total": 2430
      },
      {
        "club_badge_src": null,
        "entry": 264624,
        "entry_name": "Hazemzzzzzzz",
        "event_total": 74,
        "has_played": true,
        "id": 1759796,
        "last_rank": 4918,
        "player_name": "CR7 Hazem",
        "rank": 2399,
        "rank_sort": 2399,
        "total": 2430
      },
      {
        "club_badge_src": null,
        "entry": 2253642,
        "entry_name": "Nimrod",
        "event_total": 52,
        "has_played": true,
        "id": 16064199,
        "last_rank": 1668,
        "player_name": "Ianis Kynigos",
        "rank": 2400,
        "rank_sort": 2400,
        "total": 2430
      }
    ]
  }
}