{
  "last_updated_data": "2026-05-24T23:28:17Z",
  "league": {
    "admin_entry": null,
    "closed": false,
    "code_privacy": "p",
    "created": "2025-07-20T23:14:33.933835Z",
    "cup_league": 2815434,
    "has_cup": true,
    "id": 314,
    "league_type": "s",
    "max_entries": null,
    "name": "Overall",
    "rank": null,
    "scoring": "c",
    "start_event": 1
  },
  "new_entries": {
    "has_next": false,
    "page": 1,
    "results": []
  },
  "standings": {
    "has_next": true,
    "page": 704,
    "results": [
      {
        "club_badge_src": null,
        "entry": 210189,
        "entry_name": "Spirish",
        "event_total": 73,
        "has_played": true,
        "id": 1397847,
        "last_rank": 57743,
        "player_name": "Jorge Diaz",
        "rank": 35108,
        "rank_sort": 35151,
        "total": 2363
      },
      {
        "club_badge_src": "https://fantasy.premierleague.com/gcs/plfpl-production-adobe-approved/plfpl-production/217701/02f8553c-8d47-4e90-94ed-d92a998e6dca.png",
        "entry": 217701,
        "entry_name": "Corn on the Kobbie",
        "event_total": 60,
        "has_played": true,
        "id": 1447770,
        "last_rank": 38571,
        "player_name": "Darren Manning",
        "rank": 35108,
        "rank_sort": 35152,
        "total": 2363
      },
      {
        "club_badge_src": null,
        "entry": 220077,
        "entry_name": "Bend it like Bukayo",
        "event_total": 60,
        "has_played": true,
        "id": 1463692,
        "last_rank": 38644,
        "player_name": "Kristian Heggelund",
        "rank": 35108,
        "rank_sort": 35153,
        "total": 2363
      },
      {
        "club_badge_src": "https://fantasy.premierleague.com/gcs/plfpl-production-adobe-approved/plfpl-production/224651/3f0a8f59-eedb-404a-8a5d-d45bf455a11b.png",
        "entry": 224651,
        "entry_name": "Pandafarians",
        "event_total": 56,
        "has_played": true,
        "id": 1494434,
        "last_rank": 34051,
        "player_name": "Patrick Sheerin",
        "rank": 35108,
        "rank_sort": 35154,
        "total": 2363
      },
      {
        "club_badge_src": "https://fantasy.premierleague.com/gcs/plfpl-production-adobe-approved/plfpl-production/227940/f8cc47e9-e212-4fd9-9e15-475bbea73c0f.png",
        "entry": 227940,
        "entry_name": "Comi&Diamonds",
        "event_total": 69,
        "has_played": true,
        "id": 1516206,
        "last_rank": 51220,
        "player_name": "Miladin Stijovic",
        "rank": 35108,
        "rank_sort": 35155,
        "total": 2363
      },
      {
        "club_badge_src": "https://fantasy.premierleague.com/gcs/plfpl-production-adobe-approved/plfpl-production/234106/fff4d345-3642-4b1b-953e-2b2ca3d37eff.png",
        "entry": 234106,
        "entry_name": "YNWA_b33ts",
        "event_total": 49,
        "has_played": true,
        "id": 1557779,
        "last_rank": 26827,
        "player_name": "Sudeep Vikram",
        "rank": 35108,
        "rank_sort": 35156,
        "total": 2363
      },
      {
        "club_badge_src": null,
        "entry": 386271,
        "entry_name": "Rifaat AFC",
        "event_total": 50,
        "has_played": true,
        "id": 2591329,
        "last_rank": 27770,
        "player_name": "Mohmmed Rifaat",
        "rank": 35108,
        "rank_sort": 35157,
        "total": 2363
      },
      {
        "club_badge_src": null,
        "entry": 401382,
        "entry_name": "Unaihilation",
        "event_total": 64,
        "has_played": true,
        "id": 2691456,
        "last_rank": 44048,
        "player_name": "Claire Reynolds",
        "rank": 35108,
        "rank_sort": 35158,
        "total": 2363
      },
      {
        "club_badge_src": null,
        "entry": 407640,
        "entry_name": "ileyommers",
        "event_total": 63,
        "has_played": true,
        "id": 2733625,
        "last_rank": 42506,
        "player_name": "Brad Stevens",
        "rank": 35108,
        "rank_sort": 35159,
        "total": 2363
      },
      {
        "club_badge_src": null,
        "entry": 415951,
        "entry_name": "BRAD BOYS 4 LYF",
        "event_total": 68,
        "has_played": true,
        "id": 2788404,
        "last_rank": 49691,
        "player_name": "Dan Bradley",
        "rank": 35108,
        "rank_sort": 35160,
        "total": 2363
      },
      {
        "club_badge_src": null,
        "entry": 429952,
        "entry_name": "Demballet",
        "event_total": 66,
        "has_played": true,
        "id": 2883695,
        "last_rank": 46839,
        "player_name": "Cillian Reid",
        "rank": 35108,
        "rank_sort": 35161,
        "total": 2363
      },
      {
        "club_badge_src": null,
        "entry": 430652,
        "entry_name": "HaCunha Matata",
        "event_total": 51,
        "has_played": true,
        "id": 2888317,
        "last_rank": 28726,
        "player_name": "Theodore Christou",
        "rank": 35108,
        "rank_sort": 35162,
        "total": 2363
      },
      {
        "club_badge_src": "https://fantasy.premierleague.com/gcs/plfpl-production-adobe-approved/plfpl-production/433696/52eabe91-fbea-447c-b1df-13d7ec65cdb8.png",
        "entry": 433696,
        "entry_name": "Barzan kurdistan",
        "event_total": 28,
        "has_played": true,
        "id": 2908530,
        "last_rank": 12200,
        "player_name": "Barzan Mohammed",
        "rank": 35108,
        "rank_sort": 35163,
        "total": 2363
      },
      {
        "club_badge_src": null,
        "entry": 438482,
        "entry_name": "Dreamers",
        "event_total": 53,
        "has_played": true,
        "id": 2940345,
        "last_rank": 30957,
        "player_name": "Mario L\u00f6ffel",
        "rank": 35108,
        "rank_sort": 35164,
        "total": 2363
      },
      {
        "club_badge_src": null,
        "entry": 445450,
        "entry_name": "milwaukee fc",
        "event_total": 73,
        "has_played": true,
        "id": 2987335,
        "last_rank": 57857,
        "player_name": "Adam Mcnally",
        "rank": 35108,
        "rank_sort": 35165,
        "total": 2363
      },
      {
        "club_badge_src": null,
        "entry": 471179,
        "entry_name": "\u963f\u72d7\u7684\u6211\u8a8d\u70ba\u4eca\u5b63\u7d42\u53ef\u596a\u51a0\u662f\u5426\u641e\u932f\u4e86\u4ec0\u9ebc\uff1f",
        "event_total": 67,
        "has_played": true,
        "id": 3163183,
        "last_rank": 48363,
        "player_name": "Tc Cheng",
        "rank": 35108,
        "rank_sort": 35166,
        "total": 2363
      },
      {
        "club_badge_src": null,
        "entry": 482636,
        "entry_name": "ASFC",
        "event_total": 64,
        "has_played": true,
        "id": 3239951,
        "last_rank": 43786,
        "player_name": "Amr El Soukkary",
        "rank": 35108,
        "rank_sort": 35167,
        "total": 2363
      },
      {
        "club_badge_src": null,
        "entry": 484944,
        "entry_name": "Kroos Control",
        "event_total": 63,
        "has_played": true,
        "id": 3255040,
        "last_rank": 42648,
        "player_name": "Bhavesh Pamnani",
        "rank": 35108,
        "rank_sort": 35168,
        "total": 2363
      },
      {
        "club_badge_src": null,
        "entry": 490824,
        "entry_name": "Wantam",
        "event_total": 85,
        "has_played": true,
        "id": 3294725,
        "last_rank": 81646,
        "player_name": "Bruce Augustine",
        "rank": 35108,
        "rank_sort": 35169,
        "total": 2363
      },
      {
        "club_badge_src": null,
        "entry": 509999,
        "entry_name": "DeLap Dance",
        "event_total": 64,
        "has_played": true,
        "id": 3424535,
        "last_rank": 43849,
        "player_name": "Aarnav A",
        "rank": 35108,
        "rank_sort": 35170,
        "total": 2363
      },
      {
        "club_badge_src": null,
        "entry": 515530,
        "entry_name": "MOORE FC",
        "event_total": 60,
        "has_played": true,
        "id": 3461261,
        "last_rank": 38644,
        "player_name": "Matthew Moore",
        "rank": 35108,
        "rank_sort": 35171,
        "total": 2363
      },
      {
        "club_badge_src": null,
        "entry": 522365,
        "entry_name": "Scutters",
        "event_total": 63,
        "has_played": true,
        "id": 3508331,
        "last_rank": 42648,
        "player_name": "Paul Dainty",
        "rank": 35108,
        "rank_sort": 35172,
        "total": 2363
      },
      {
        "club_badge_src": null,
        "entry": 524153,
        "entry_name": "Rodoc United",
        "event_total": 46,
        "has_played": true,
        "id": 3521127,
        "last_rank": 24143,
        "player_name": "Marko Drmac",
        "rank": 35108,
        "rank_sort": 35173,
        "total": 2363
      },
      {
        "club_badge_src": "https://fantasy.premierleague.com/gcs/plfpl-production-adobe-approved/plfpl-production/530906/df30a292-29bf-469a-81bb-e3fd6683460c.png",
        "entry": 530906,
        "entry_name": "Amad-ness",
        "event_total": 55,
        "has_played": true,
        "id": 3570543,
        "last_rank": 32879,
        "player_name": "Shahid Ahmed",
        "rank": 35108,
        "rank_sort": 35174,
        "total": 2363
      },
      {
        "club_badge_src": null,
        "entry": 538358,
        "entry_name": "barbcelona",
        "event_total": 75,
        "has_played": true,
        "id": 3623908,
        "last_rank": 61411,
        "player_name": "Oliver Barber",
        "rank": 35108,
        "rank_sort": 35175,
        "total": 2363
      },
      {
        "club_badge_src": null,
        "entry": 542104,
        "entry_name": "Sean",
        "event_total": 51,
        "has_played": true,
        "id": 3648553,
        "last_rank": 28609,
        "player_name": "Sean Turner",
        "rank": 35108,
        "rank_sort": 35176,
        "total": 2363
      },
      {
        "club_badge_src": "https://fantasy.premierleague.com/gcs/plfpl-production-adobe-approved/plfpl-production/557154/d613eeb6-fe27-4028-b017-ff3e6884cf70.png",
        "entry": 557154,
        "entry_name": "Poundland Bushell",
        "event_total": 37,
        "has_played": true,
        "id": 3749682,
        "last_rank": 17437,
        "player_name": "Paul Mackley",
        "rank": 35108,
        "rank_sort": 35177,
        "total": 2363
      },
      {
        "club_badge_src": null,
        "entry": 573762,
        "entry_name": "A Cunha Mateta",
        "event_total": 69,
        "has_played": true,
        "id": 3861330,
        "last_rank": 51220,
        "player_name": "James Wantling",
        "rank": 35108,
        "rank_sort": 35178,
        "total": 2363
      },
      {
        "club_badge_src": null,
        "entry": 587030,
        "entry_name": "JaMilujemFicaHalooo",
        "event_total": 59,
        "has_played": true,
        "id": 3951163,
        "last_rank": 37435,
        "player_name": "Lukas Rompf",
        "rank": 35108,
        "rank_sort": 35179,
        "total": 2363
      },
      {
        "club_badge_src": null,
        "entry": 599547,
        "entry_name": "Nottagain Forest",
        "event_total": 59,
        "has_played": true,
        "id": 4044295,
        "last_rank": 37589,
        "player_name": "Colin Gibson",
        "rank": 35108,
        "rank_sort": 35180,
        "total": 2363
      },
      {
        "club_badge_src": null,
        "entry": 603562,
        "entry_name": "WNKL FC",
        "event_total": 62,
        "has_played": true,
        "id": 4073900,
        "last_rank": 41162,
        "player_name": "Rick Winkel",
        "rank": 35108,
        "rank_sort": 35181,
        "total": 2363
      },
      {
        "club_badge_src": null,
        "entry": 605370,
        "entry_name": "khaled almuneer",
        "event_total": 66,
        "has_played": true,
        "id": 4087190,
        "last_rank": 46839,
        "player_name": "\u062e\u0627\u0644\u062f \u0627\u0644\u0645\u0646\u064a\u0631",
        "rank": 35108,
        "rank_sort": 35182,
        "total": 2363
      },
      {
        "club_badge_src": null,
        "entry": 664409,
        "entry_name": "\u00cdvar Bravo",
        "event_total": 64,
        "has_played": true,
        "id": 4491859,
        "last_rank": 43849,
        "player_name": "\u00cdvar \u00d6rn Halld\u00f3rsson",
        "rank": 35108,
        "rank_sort": 35183,
        "total": 2363
      },
      {
        "club_badge_src": null,
        "entry": 701184,
        "entry_name": "The Revolution",
        "event_total": 77,
        "has_played": true,
        "id": 4750924,
        "last_rank": 64943,
        "player_name": "Nick Bengtson",
        "rank": 35108,
        "rank_sort": 35184,
        "total": 2363
      },
      {
        "club_badge_src": null,
        "entry": 709435,
        "entry_name": "Sockport County",
        "event_total": 53,
        "has_played": true,
        "id": 4809887,
        "last_rank": 30600,
        "player_name": "Glen Meadowcroft",
        "rank": 35108,
        "rank_sort": 35185,
        "total": 2363
      },
      {
        "club_badge_src": null,
        "entry": 733241,
        "entry_name": "Hotter Than The Sun",
        "event_total": 61,
        "has_played": true,
        "id": 4982829,
        "last_rank": 39816,
        "player_name": "Ian Marris",
        "rank": 35108,
        "rank_sort": 35186,
        "total": 2363
      },
      {
        "club_badge_src": null,
        "entry": 759154,
        "entry_name": "NacionalNacional",
        "event_total": 55,
        "has_played": true,
        "id": 5172742,
        "last_rank": 32879,
        "player_name": "Javier Barros",
        "rank": 35108,
        "rank_sort": 35187,
        "total": 2363
      },
      {
        "club_badge_src": null,
        "entry": 777304,
        "entry_name": "FC Paisti",
        "event_total": 75,
        "has_played": true,
        "id": 5303814,
        "last_rank": 61315,
        "player_name": "Thomas Kaukonen",
        "rank": 35108,
        "rank_sort": 35188,
        "total": 2363
      },
      {
        "club_badge_src": null,
        "entry": 851686,
        "entry_name": "7",
        "event_total": 64,
        "has_played": true,
        "id": 5837745,
        "last_rank": 43849,
        "player_name": "Nasser Bineid",
        "rank": 35108,
        "rank_sort": 35189,
        "total": 2363
      },
      {
        "club_badge_src": "https://fantasy.premierleague.com/gcs/plfpl-production-adobe-approved/plfpl-production/873001/5dd45789-be73-44c5-9e5b-a2409669478d.png",
        "entry": 873001,
        "entry_name": "Shanghai Port FC",
        "event_total": 64,
        "has_played": true,
        "id": 5985097,
        "last_rank": 44048,
        "player_name": "victor xu",
        "rank": 35108,
        "rank_sort": 35190,
        "total": 2363
      },
      {
        "club_badge_src": null,
        "entry": 916175,
        "entry_name": "Hugo EsTikeTike",
        "event_total": 63,
        "has_played": true,
        "id": 6300070,
        "last_rank": 42648,
        "player_name": "Ivan Emejdi",
        "rank": 35108,
        "rank_sort": 35191,
        "total": 2363
      },
      {
        "club_badge_src": "https://fantasy.premierleague.com/gcs/plfpl-production-adobe-approved/plfpl-production/928327/f25a7c43-02a4-4a34-944e-4cc70e31c78d.png",
        "entry": 928327,
        "entry_name": "BlackBaba FC",
        "event_total": 75,
        "has_played": true,
        "id": 6386994,
        "last_rank": 61606,
        "player_name": "Rifiano Sanjores",
        "rank": 35108,
        "rank_sort": 35192,
        "total": 2363
      },
      {
        "club_badge_src": null,
        "entry": 963070,
        "entry_name": "Panman FC",
        "event_total": 70,
        "has_played": true,
        "id": 6636921,
        "last_rank": 52759,
        "player_name": "Alex Panikian",
        "rank": 35108,
        "rank_sort": 35193,
        "total": 2363
      },
      {
        "club_badge_src": null,
        "entry": 964364,
        "entry_name": "Reece's set Pieces",
        "event_total": 73,
        "has_played": true,
        "id": 6646229,
        "last_rank": 57857,
        "player_name": "Jack France",
        "rank": 35108,
        "rank_sort": 35194,
        "total": 2363
      },
      {
        "club_badge_src": null,
        "entry": 992292,
        "entry_name": "Pique Blinders",
        "event_total": 55,
        "has_played": true,
        "id": 6843342,
        "last_rank": 32751,
        "player_name": "George Mellor",
        "rank": 35108,
        "rank_sort": 35195,
        "total": 2363
      },
      {
        "club_badge_src": null,
        "entry": 1032550,
        "entry_name": "#NotaYorubaDemon#",
        "event_total": 49,
        "has_played": true,
        "id": 7143897,
        "last_rank": 26710,
        "player_name": "Oluwajomiloju Kehinde",
        "rank": 35108,
        "rank_sort": 35196,
        "total": 2363
      },
      {
        "club_badge_src": "https://fantasy.premierleague.com/gcs/plfpl-production-adobe-approved/plfpl-production/1039289/d767f1d0-5396-49f3-bca3-cc74a14c6142.png",
        "entry": 1039289,
        "entry_name": "Gringotacos FC",
        "event_total": 55,
        "has_played": true,
        "id": 7192151,
        "last_rank": 32879,
        "player_name": "Elling Finnanger Sn\u00f8fugl",
        "rank": 35108,
        "rank_sort": 35197,
        "total": 2363
      },
      {
        "club_badge_src": null,
        "entry": 1074594,
        "entry_name": "ChrisBigWood",
        "event_total": 58,
        "has_played": true,
        "id": 7439573,
        "last_rank": 36348,
        "player_name": "Daniel Oraczko",
        "rank": 35108,
        "rank_sort": 35198,
        "total": 2363
      },
      {
        "club_badge_src": null,
        "entry": 1087862,
        "entry_name": "Gulland",
        "event_total": 58,
        "has_played": true,
        "id": 7533934,
        "last_rank": 36142,
        "player_name": "Andreas Galland",
        "rank": 35108,
        "rank_sort": 35199,
        "total": 2363
      },
      {
        "club_badge_src": null,
        "entry": 1114224,
        "entry_name": "Sporting Magic",
        "event_total": 69,
        "has_played": true,
        "id": 7718079,
        "last_rank": 51220,
        "player_name": "Pete Johnson",
        "rank": 35108,
        "rank_sort": 35200,
        "total": 2363
      }
    ]
  }
}