{
  "last_updated_data": "2026-05-24T23:28:17Z",
  "league": {
    "admin_entry": null,
    "closed": false,
    "code_privacy": "p",
    "created": "2025-07-20T23:14:33.933835Z",
    "cup_league": 2815434,
    "has_cup": true,
    "id": 314,
    "league_type": "s",
    "max_entries": null,
    "name": "Overall",
    "rank": null,
    "scoring": "c",
    "start_event": 1
  },
  "new_entries": {
    "has_next": false,
    "page": 1,
    "results": []
  },
  "standings": {
    "has_next": true,
    "page": 132,
    "results": [
      {
        "club_badge_src": null,
        "entry": 9295594,
        "entry_name": "Z",
        "event_total": 58,
        "has_played": true,
        "id": 78367617,
        "last_rank": 5281,
        "player_name": "ziyaad achhala",
        "rank": 6525,
        "rank_sort": 6551,
        "total": 2409
      },
      {
        "club_badge_src": null,
        "entry": 51280,
        "entry_name": "FourNaanDinho",
        "event_total": 47,
        "has_played": true,
        "id": 329800,
        "last_rank": 2611,
        "player_name": "James Callaghan",
        "rank": 6552,
        "rank_sort": 6552,
        "total": 2409
      },
      {
        "club_badge_src": null,
        "entry": 124863,
        "entry_name": "Rollsy CFC",
        "event_total": 55,
        "has_played": true,
        "id": 814381,
        "last_rank": 4615,
        "player_name": "Sam Rolls",
        "rank": 6552,
        "rank_sort": 6553,
        "total": 2409
      },
      {
        "club_badge_src": null,
        "entry": 149126,
        "entry_name": "Signaturepool",
        "event_total": 69,
        "has_played": true,
        "id": 977662,
        "last_rank": 8591,
        "player_name": "Steve Cole",
        "rank": 6552,
        "rank_sort": 6554,
        "total": 2409
      },
      {
        "club_badge_src": null,
        "entry": 317935,
        "entry_name": "Siste sesong FPL",
        "event_total": 60,
        "has_played": true,
        "id": 2131158,
        "last_rank": 5820,
        "player_name": "Leif Inge Ramsdal",
        "rank": 6552,
        "rank_sort": 6555,
        "total": 2409
      },
      {
        "club_badge_src": "https://fantasy.premierleague.com/gcs/plfpl-production-adobe-approved/plfpl-production/401769/9666336e-a0fa-416e-8e0b-e9bbd5e31283.png",
        "entry": 401769,
        "entry_name": "xavi fc",
        "event_total": 44,
        "has_played": true,
        "id": 2694033,
        "last_rank": 2762,
        "player_name": "canaan case",
        "rank": 6552,
        "rank_sort": 6556,
        "total": 2409
      },
      {
        "club_badge_src": null,
        "entry": 682446,
        "entry_name": "FokerPace",
        "event_total": 61,
        "has_played": true,
        "id": 4618678,
        "last_rank": 7257,
        "player_name": "Karan Khanna",
        "rank": 6552,
        "rank_sort": 6557,
        "total": 2409
      },
      {
        "club_badge_src": null,
        "entry": 809741,
        "entry_name": "Tiger Saints",
        "event_total": 44,
        "has_played": true,
        "id": 5543938,
        "last_rank": 3350,
        "player_name": "Simon Pridding",
        "rank": 6552,
        "rank_sort": 6558,
        "total": 2409
      },
      {
        "club_badge_src": null,
        "entry": 2184626,
        "entry_name": "Galaktikosi",
        "event_total": 58,
        "has_played": true,
        "id": 15540193,
        "last_rank": 6347,
        "player_name": "Du\u0161an Gali\u0107",
        "rank": 6552,
        "rank_sort": 6559,
        "total": 2409
      },
      {
        "club_badge_src": null,
        "entry": 3349005,
        "entry_name": "The Red Devils",
        "event_total": 67,
        "has_played": true,
        "id": 24844024,
        "last_rank": 7863,
        "player_name": "AMJAD AL ISSA",
        "rank": 6552,
        "rank_sort": 6560,
        "total": 2409
      },
      {
        "club_badge_src": "https://fantasy.premierleague.com/gcs/plfpl-production-adobe-approved/plfpl-production/4651497/71be029e-fcd9-4317-af53-4e544ed8a5a7.png",
        "entry": 4651497,
        "entry_name": "Corto Muso",
        "event_total": 74,
        "has_played": true,
        "id": 35587724,
        "last_rank": 8925,
        "player_name": "Ahmad Abulhassan",
        "rank": 6552,
        "rank_sort": 6561,
        "total": 2409
      },
      {
        "club_badge_src": null,
        "entry": 4758871,
        "entry_name": "fantazija",
        "event_total": 55,
        "has_played": true,
        "id": 36623083,
        "last_rank": 5583,
        "player_name": "nik hren",
        "rank": 6552,
        "rank_sort": 6562,
        "total": 2409
      },
      {
        "club_badge_src": null,
        "entry": 5053509,
        "entry_name": "Teta Tovenaar",
        "event_total": 65,
        "has_played": true,
        "id": 39046346,
        "last_rank": 8591,
        "player_name": "Hendrik D'haenens",
        "rank": 6552,
        "rank_sort": 6563,
        "total": 2409
      },
      {
        "club_badge_src": null,
        "entry": 7220850,
        "entry_name": "Gl\u00f6keres",
        "event_total": 65,
        "has_played": true,
        "id": 58330086,
        "last_rank": 7237,
        "player_name": "Ashley Stewart",
        "rank": 6552,
        "rank_sort": 6564,
        "total": 2409
      },
      {
        "club_badge_src": "https://fantasy.premierleague.com/gcs/plfpl-production-adobe-approved/plfpl-production/18254/1f1afe45-9780-4b57-8b99-9b15d4d59338.png",
        "entry": 18254,
        "entry_name": "moneyballers",
        "event_total": 69,
        "has_played": true,
        "id": 113507,
        "last_rank": 10173,
        "player_name": "Ben Brown",
        "rank": 6565,
        "rank_sort": 6565,
        "total": 2409
      },
      {
        "club_badge_src": null,
        "entry": 225665,
        "entry_name": "Wirtz case scenario",
        "event_total": 64,
        "has_played": true,
        "id": 1501172,
        "last_rank": 6949,
        "player_name": "Arthur Sudaria",
        "rank": 6565,
        "rank_sort": 6566,
        "total": 2409
      },
      {
        "club_badge_src": null,
        "entry": 966336,
        "entry_name": "Man in a Van de Ven",
        "event_total": 52,
        "has_played": true,
        "id": 6660083,
        "last_rank": 4880,
        "player_name": "Jack McAverage",
        "rank": 6565,
        "rank_sort": 6567,
        "total": 2409
      },
      {
        "club_badge_src": null,
        "entry": 2967222,
        "entry_name": "Magic Johnson",
        "event_total": 57,
        "has_played": true,
        "id": 21799552,
        "last_rank": 6119,
        "player_name": "Sam Johnson",
        "rank": 6565,
        "rank_sort": 6568,
        "total": 2409
      },
      {
        "club_badge_src": null,
        "entry": 3319381,
        "entry_name": "20 times 20 times",
        "event_total": 69,
        "has_played": true,
        "id": 24599543,
        "last_rank": 10195,
        "player_name": "Anto Bla\u017eanovi\u0107",
        "rank": 6565,
        "rank_sort": 6569,
        "total": 2409
      },
      {
        "club_badge_src": null,
        "entry": 3783815,
        "entry_name": "caato",
        "event_total": 45,
        "has_played": true,
        "id": 28255370,
        "last_rank": 3495,
        "player_name": "the leader",
        "rank": 6565,
        "rank_sort": 6570,
        "total": 2409
      },
      {
        "club_badge_src": "https://fantasy.premierleague.com/gcs/plfpl-production-adobe-approved/plfpl-production/5371525/0d51f7b4-6f10-4c49-a08b-65e3ddda03d0.png",
        "entry": 5371525,
        "entry_name": "PepSee\u2019s Max Points",
        "event_total": 73,
        "has_played": true,
        "id": 41739391,
        "last_rank": 10173,
        "player_name": "Rishabh Jhajharia",
        "rank": 6565,
        "rank_sort": 6571,
        "total": 2409
      },
      {
        "club_badge_src": "https://fantasy.premierleague.com/gcs/plfpl-production-adobe-approved/plfpl-production/9358424/2578d43b-3ead-4bff-9ed6-33205395554e.png",
        "entry": 9358424,
        "entry_name": "Ctrl Alt De Laet",
        "event_total": 51,
        "has_played": true,
        "id": 78967903,
        "last_rank": 4657,
        "player_name": "Marshall Chisom Ogbuagu",
        "rank": 6565,
        "rank_sort": 6572,
        "total": 2409
      },
      {
        "club_badge_src": null,
        "entry": 164291,
        "entry_name": "Cris",
        "event_total": 44,
        "has_played": true,
        "id": 1084129,
        "last_rank": 2780,
        "player_name": "David Malak",
        "rank": 6573,
        "rank_sort": 6573,
        "total": 2409
      },
      {
        "club_badge_src": null,
        "entry": 1305874,
        "entry_name": "Khalifa Almelhim",
        "event_total": 53,
        "has_played": true,
        "id": 9076693,
        "last_rank": 5109,
        "player_name": "Khalifa Almelhim",
        "rank": 6573,
        "rank_sort": 6574,
        "total": 2409
      },
      {
        "club_badge_src": null,
        "entry": 1905930,
        "entry_name": "Sir Eric Cantona",
        "event_total": 56,
        "has_played": true,
        "id": 13436294,
        "last_rank": 4889,
        "player_name": "Greg McIntyre",
        "rank": 6573,
        "rank_sort": 6575,
        "total": 2409
      },
      {
        "club_badge_src": "https://fantasy.premierleague.com/gcs/plfpl-production-adobe-approved/plfpl-production/1949811/7c4e64ac-a42a-4a47-b2c8-638d709fd186.png",
        "entry": 1949811,
        "entry_name": "Krambu FC",
        "event_total": 61,
        "has_played": true,
        "id": 13753925,
        "last_rank": 7237,
        "player_name": "Kenta Nambu",
        "rank": 6573,
        "rank_sort": 6576,
        "total": 2409
      },
      {
        "club_badge_src": null,
        "entry": 5782433,
        "entry_name": "d'goodlife",
        "event_total": 47,
        "has_played": true,
        "id": 45344248,
        "last_rank": 3836,
        "player_name": "Atiba Gibbs",
        "rank": 6573,
        "rank_sort": 6577,
        "total": 2409
      },
      {
        "club_badge_src": null,
        "entry": 7031351,
        "entry_name": "Unkaged",
        "event_total": 61,
        "has_played": true,
        "id": 56508988,
        "last_rank": 7280,
        "player_name": "Koral Guner",
        "rank": 6573,
        "rank_sort": 6578,
        "total": 2409
      },
      {
        "club_badge_src": null,
        "entry": 713593,
        "entry_name": "Back 5\u2019s Matter",
        "event_total": 60,
        "has_played": true,
        "id": 4841101,
        "last_rank": 4880,
        "player_name": "Matt Wingrove",
        "rank": 6579,
        "rank_sort": 6579,
        "total": 2409
      },
      {
        "club_badge_src": null,
        "entry": 768432,
        "entry_name": "Le_sous_marin_rouge\u26a1",
        "event_total": 65,
        "has_played": true,
        "id": 5241174,
        "last_rank": 7280,
        "player_name": "Hakimhenry guess",
        "rank": 6579,
        "rank_sort": 6580,
        "total": 2409
      },
      {
        "club_badge_src": null,
        "entry": 966456,
        "entry_name": "RealSociableDad",
        "event_total": 72,
        "has_played": true,
        "id": 6660903,
        "last_rank": 9806,
        "player_name": "Simon Crosby",
        "rank": 6579,
        "rank_sort": 6581,
        "total": 2409
      },
      {
        "club_badge_src": null,
        "entry": 1831434,
        "entry_name": "POMO FC",
        "event_total": 50,
        "has_played": true,
        "id": 12882618,
        "last_rank": 4452,
        "player_name": "Aidan Duffy",
        "rank": 6579,
        "rank_sort": 6582,
        "total": 2409
      },
      {
        "club_badge_src": "https://fantasy.premierleague.com/gcs/plfpl-production-adobe-approved/plfpl-production/4325615/71b1faef-8be5-4afa-91cf-31069ac02ece.png",
        "entry": 4325615,
        "entry_name": "Daichi the Damaja",
        "event_total": 69,
        "has_played": true,
        "id": 32829707,
        "last_rank": 10221,
        "player_name": "James Duffy",
        "rank": 6579,
        "rank_sort": 6583,
        "total": 2409
      },
      {
        "club_badge_src": null,
        "entry": 7040387,
        "entry_name": "RoysBoys",
        "event_total": 73,
        "has_played": true,
        "id": 56602603,
        "last_rank": 10209,
        "player_name": "Siladitya Roy",
        "rank": 6579,
        "rank_sort": 6584,
        "total": 2409
      },
      {
        "club_badge_src": null,
        "entry": 7334109,
        "entry_name": "Money Muniz",
        "event_total": 68,
        "has_played": true,
        "id": 59396465,
        "last_rank": 8283,
        "player_name": "Ben Robinson",
        "rank": 6579,
        "rank_sort": 6585,
        "total": 2409
      },
      {
        "club_badge_src": null,
        "entry": 745613,
        "entry_name": "Nailed On Jesus",
        "event_total": 54,
        "has_played": true,
        "id": 5072178,
        "last_rank": 4452,
        "player_name": "Fred Mann",
        "rank": 6586,
        "rank_sort": 6586,
        "total": 2409
      },
      {
        "club_badge_src": null,
        "entry": 2047649,
        "entry_name": "Abu Eyad",
        "event_total": 79,
        "has_played": true,
        "id": 14502497,
        "last_rank": 13084,
        "player_name": "Fayez Alshawkan",
        "rank": 6586,
        "rank_sort": 6587,
        "total": 2409
      },
      {
        "club_badge_src": "https://fantasy.premierleague.com/gcs/plfpl-production-adobe-approved/plfpl-production/2180327/59e9bcf0-6ea8-4fb3-aa89-1d3ca927ebc7.png",
        "entry": 2180327,
        "entry_name": "Remontada Kings",
        "event_total": 47,
        "has_played": true,
        "id": 15506925,
        "last_rank": 3215,
        "player_name": "Bhavesh Kalra",
        "rank": 6586,
        "rank_sort": 6588,
        "total": 2409
      },
      {
        "club_badge_src": "https://fantasy.premierleague.com/gcs/plfpl-production-adobe-approved/plfpl-production/287841/389a3ecb-cb03-4fc4-8c56-1f08d0956df3.png",
        "entry": 287841,
        "entry_name": "Legohead FC",
        "event_total": 55,
        "has_played": true,
        "id": 1918307,
        "last_rank": 5616,
        "player_name": "Pavel Jancovic",
        "rank": 6589,
        "rank_sort": 6589,
        "total": 2409
      },
      {
        "club_badge_src": null,
        "entry": 1655208,
        "entry_name": "Cash me outside",
        "event_total": 67,
        "has_played": true,
        "id": 11588356,
        "last_rank": 9437,
        "player_name": "Harry Ellis",
        "rank": 6590,
        "rank_sort": 6590,
        "total": 2409
      },
      {
        "club_badge_src": "https://fantasy.premierleague.com/gcs/plfpl-production-adobe-approved/plfpl-production/2420071/26414b59-addd-4c3f-8b5d-3debfa19aee7.png",
        "entry": 2420071,
        "entry_name": "Ak10",
        "event_total": 58,
        "has_played": true,
        "id": 17301549,
        "last_rank": 6380,
        "player_name": "Ahmed M. Khalil",
        "rank": 6591,
        "rank_sort": 6591,
        "total": 2409
      },
      {
        "club_badge_src": null,
        "entry": 7789375,
        "entry_name": "Neville Wears Prada",
        "event_total": 74,
        "has_played": true,
        "id": 63977696,
        "last_rank": 12587,
        "player_name": "Patrick Mccallion",
        "rank": 6592,
        "rank_sort": 6592,
        "total": 2408
      },
      {
        "club_badge_src": null,
        "entry": 7938043,
        "entry_name": "Balter XPA",
        "event_total": 66,
        "has_played": true,
        "id": 65333489,
        "last_rank": 9065,
        "player_name": "Andrew McCarthy",
        "rank": 6593,
        "rank_sort": 6593,
        "total": 2408
      },
      {
        "club_badge_src": null,
        "entry": 3574354,
        "entry_name": "Wirtz Case Scenario",
        "event_total": 67,
        "has_played": true,
        "id": 26615585,
        "last_rank": 9448,
        "player_name": "Jack Reddy",
        "rank": 6594,
        "rank_sort": 6594,
        "total": 2408
      },
      {
        "club_badge_src": null,
        "entry": 103477,
        "entry_name": "Not MikeDean Forever",
        "event_total": 76,
        "has_played": true,
        "id": 675210,
        "last_rank": 13710,
        "player_name": "James Barlow",
        "rank": 6595,
        "rank_sort": 6595,
        "total": 2408
      },
      {
        "club_badge_src": null,
        "entry": 201800,
        "entry_name": "Karciane \u015awiry",
        "event_total": 73,
        "has_played": true,
        "id": 1340009,
        "last_rank": 12092,
        "player_name": "Fan Tomasza Hajty",
        "rank": 6595,
        "rank_sort": 6596,
        "total": 2408
      },
      {
        "club_badge_src": null,
        "entry": 203662,
        "entry_name": "PLUTON 9",
        "event_total": 73,
        "has_played": true,
        "id": 1353180,
        "last_rank": 12092,
        "player_name": "Sebastian Chudzik",
        "rank": 6595,
        "rank_sort": 6597,
        "total": 2408
      },
      {
        "club_badge_src": null,
        "entry": 209155,
        "entry_name": "Drygoodz Fc",
        "event_total": 69,
        "has_played": true,
        "id": 1390801,
        "last_rank": 10253,
        "player_name": "Colin James",
        "rank": 6595,
        "rank_sort": 6598,
        "total": 2408
      },
      {
        "club_badge_src": null,
        "entry": 1799896,
        "entry_name": "Snoop Udogie Dog",
        "event_total": 55,
        "has_played": true,
        "id": 12649567,
        "last_rank": 4687,
        "player_name": "Mark Headspith",
        "rank": 6595,
        "rank_sort": 6599,
        "total": 2408
      },
      {
        "club_badge_src": null,
        "entry": 2564294,
        "entry_name": "Delph and Safety",
        "event_total": 60,
        "has_played": true,
        "id": 18393250,
        "last_rank": 6989,
        "player_name": "Sean McNeil",
        "rank": 6595,
        "rank_sort": 6600,
        "total": 2408
      }
    ]
  }
}