{
  "last_updated_data": "2026-05-24T23:28:17Z",
  "league": {
    "admin_entry": null,
    "closed": false,
    "code_privacy": "p",
    "created": "2025-07-20T23:14:33.933835Z",
    "cup_league": 2815434,
    "has_cup": true,
    "id": 314,
    "league_type": "s",
    "max_entries": null,
    "name": "Overall",
    "rank": null,
    "scoring": "c",
    "start_event": 1
  },
  "new_entries": {
    "has_next": false,
    "page": 1,
    "results": []
  },
  "standings": {
    "has_next": true,
    "page": 323,
    "results": [
      {
        "club_badge_src": null,
        "entry": 190315,
        "entry_name": "zulhelmizzah",
        "event_total": 72,
        "has_played": true,
        "id": 1260197,
        "last_rank": 26827,
        "player_name": "Zulhelmi Ahmad",
        "rank": 16086,
        "rank_sort": 16101,
        "total": 2386
      },
      {
        "club_badge_src": null,
        "entry": 209373,
        "entry_name": "3rd,2nd,1st?",
        "event_total": 62,
        "has_played": true,
        "id": 1392346,
        "last_rank": 18985,
        "player_name": "Aaron Mcgroarty",
        "rank": 16086,
        "rank_sort": 16102,
        "total": 2386
      },
      {
        "club_badge_src": null,
        "entry": 256463,
        "entry_name": "Blue Cats",
        "event_total": 63,
        "has_played": true,
        "id": 1705701,
        "last_rank": 19544,
        "player_name": "Joseph Cartan",
        "rank": 16086,
        "rank_sort": 16103,
        "total": 2386
      },
      {
        "club_badge_src": null,
        "entry": 323543,
        "entry_name": "Hibeanian FC",
        "event_total": 62,
        "has_played": true,
        "id": 2168171,
        "last_rank": 16163,
        "player_name": "Conor Polley",
        "rank": 16086,
        "rank_sort": 16104,
        "total": 2386
      },
      {
        "club_badge_src": "https://fantasy.premierleague.com/gcs/plfpl-production-adobe-approved/plfpl-production/338210/aaf38a57-9095-4140-a478-a4a31a5cf3dc.png",
        "entry": 338210,
        "entry_name": "Ane Egbira",
        "event_total": 57,
        "has_played": true,
        "id": 2264233,
        "last_rank": 15694,
        "player_name": "Ohida OmoaleWire",
        "rank": 16086,
        "rank_sort": 16105,
        "total": 2386
      },
      {
        "club_badge_src": null,
        "entry": 403568,
        "entry_name": "Rice and Baines",
        "event_total": 56,
        "has_played": true,
        "id": 2706038,
        "last_rank": 14926,
        "player_name": "Felipe Trigueros",
        "rank": 16086,
        "rank_sort": 16106,
        "total": 2386
      },
      {
        "club_badge_src": "https://fantasy.premierleague.com/gcs/plfpl-production-adobe-approved/plfpl-production/444414/2423ed51-4b3d-427f-8670-f2d6de604349.png",
        "entry": 444414,
        "entry_name": "Gary's Team",
        "event_total": 62,
        "has_played": true,
        "id": 2980033,
        "last_rank": 16163,
        "player_name": "Gary Convey",
        "rank": 16086,
        "rank_sort": 16107,
        "total": 2386
      },
      {
        "club_badge_src": null,
        "entry": 446229,
        "entry_name": "See below for Mark",
        "event_total": 59,
        "has_played": true,
        "id": 2992904,
        "last_rank": 16959,
        "player_name": "Julian Style",
        "rank": 16086,
        "rank_sort": 16108,
        "total": 2386
      },
      {
        "club_badge_src": null,
        "entry": 446720,
        "entry_name": "Turrdd Division",
        "event_total": 72,
        "has_played": true,
        "id": 2996380,
        "last_rank": 27020,
        "player_name": "Andy Healing",
        "rank": 16086,
        "rank_sort": 16109,
        "total": 2386
      },
      {
        "club_badge_src": null,
        "entry": 482420,
        "entry_name": "Sesko Clubcard",
        "event_total": 62,
        "has_played": true,
        "id": 3238527,
        "last_rank": 18985,
        "player_name": "Ben Ferris",
        "rank": 16086,
        "rank_sort": 16110,
        "total": 2386
      },
      {
        "club_badge_src": "https://fantasy.premierleague.com/gcs/plfpl-production-adobe-approved/plfpl-production/505575/67b8305e-374f-443d-b7c8-827e05faaa93.png",
        "entry": 505575,
        "entry_name": "CuMBeRSCRaTCH",
        "event_total": 67,
        "has_played": true,
        "id": 3393410,
        "last_rank": 19544,
        "player_name": "Isak Ingvald Sagedal Aalholm",
        "rank": 16086,
        "rank_sort": 16111,
        "total": 2386
      },
      {
        "club_badge_src": null,
        "entry": 536417,
        "entry_name": "Dragons FC",
        "event_total": 59,
        "has_played": true,
        "id": 3610291,
        "last_rank": 16959,
        "player_name": "Craig Widdowson",
        "rank": 16086,
        "rank_sort": 16112,
        "total": 2386
      },
      {
        "club_badge_src": null,
        "entry": 548043,
        "entry_name": "FC PsychoPilots",
        "event_total": 51,
        "has_played": true,
        "id": 3688361,
        "last_rank": 12200,
        "player_name": "Anton Standar",
        "rank": 16086,
        "rank_sort": 16113,
        "total": 2386
      },
      {
        "club_badge_src": null,
        "entry": 552473,
        "entry_name": "How Dalot Can You Go",
        "event_total": 60,
        "has_played": true,
        "id": 3718620,
        "last_rank": 17358,
        "player_name": "Talha Razak",
        "rank": 16086,
        "rank_sort": 16114,
        "total": 2386
      },
      {
        "club_badge_src": "https://fantasy.premierleague.com/gcs/plfpl-production-adobe-approved/plfpl-production/580934/79d9144b-941c-42d6-a8e8-bb02c49f9391.png",
        "entry": 580934,
        "entry_name": "Kevin deBrunch",
        "event_total": 60,
        "has_played": true,
        "id": 3909308,
        "last_rank": 17437,
        "player_name": "Simon Adgey",
        "rank": 16086,
        "rank_sort": 16115,
        "total": 2386
      },
      {
        "club_badge_src": null,
        "entry": 609196,
        "entry_name": "frimping pong",
        "event_total": 50,
        "has_played": true,
        "id": 4115060,
        "last_rank": 11821,
        "player_name": "Bastian Karsten-Himberg",
        "rank": 16086,
        "rank_sort": 16116,
        "total": 2386
      },
      {
        "club_badge_src": null,
        "entry": 617489,
        "entry_name": "Lokomotiv Ladebekken",
        "event_total": 51,
        "has_played": true,
        "id": 4172064,
        "last_rank": 12322,
        "player_name": "J\u00f8rgen Skarsmo",
        "rank": 16086,
        "rank_sort": 16117,
        "total": 2386
      },
      {
        "club_badge_src": "https://fantasy.premierleague.com/gcs/plfpl-production-adobe-approved/plfpl-production/700901/adef601d-5cd9-4943-9c3f-148289eaa545.png",
        "entry": 700901,
        "entry_name": "WolfBurger 100",
        "event_total": 66,
        "has_played": true,
        "id": 4748867,
        "last_rank": 18790,
        "player_name": "Dave Argyle",
        "rank": 16086,
        "rank_sort": 16118,
        "total": 2386
      },
      {
        "club_badge_src": null,
        "entry": 706686,
        "entry_name": "Salibaba.com",
        "event_total": 63,
        "has_played": true,
        "id": 4789433,
        "last_rank": 19544,
        "player_name": "Thomas Jonskaas",
        "rank": 16086,
        "rank_sort": 16119,
        "total": 2386
      },
      {
        "club_badge_src": null,
        "entry": 735144,
        "entry_name": "Joey FC",
        "event_total": 64,
        "has_played": true,
        "id": 4997020,
        "last_rank": 20280,
        "player_name": "Joe O Keeffe",
        "rank": 16086,
        "rank_sort": 16120,
        "total": 2386
      },
      {
        "club_badge_src": null,
        "entry": 801133,
        "entry_name": "Yoro Wizard Harry",
        "event_total": 74,
        "has_played": true,
        "id": 5483888,
        "last_rank": 28726,
        "player_name": "Jack Gittins",
        "rank": 16086,
        "rank_sort": 16121,
        "total": 2386
      },
      {
        "club_badge_src": "https://fantasy.premierleague.com/gcs/plfpl-production-adobe-approved/plfpl-production/845809/47051554-f6bb-40a6-b99b-d91fddf3914a.png",
        "entry": 845809,
        "entry_name": "The Team",
        "event_total": 61,
        "has_played": true,
        "id": 5795236,
        "last_rank": 18270,
        "player_name": "Akhan Suleimenov",
        "rank": 16086,
        "rank_sort": 16122,
        "total": 2386
      },
      {
        "club_badge_src": null,
        "entry": 854036,
        "entry_name": "Woodlands Wellington",
        "event_total": 74,
        "has_played": true,
        "id": 5854053,
        "last_rank": 28726,
        "player_name": "Josh Lee",
        "rank": 16086,
        "rank_sort": 16123,
        "total": 2386
      },
      {
        "club_badge_src": null,
        "entry": 892578,
        "entry_name": "Bilbao Baggins",
        "event_total": 74,
        "has_played": true,
        "id": 6130077,
        "last_rank": 28726,
        "player_name": "Craig George",
        "rank": 16086,
        "rank_sort": 16124,
        "total": 2386
      },
      {
        "club_badge_src": null,
        "entry": 921329,
        "entry_name": "Horny Hornets",
        "event_total": 66,
        "has_played": true,
        "id": 6336266,
        "last_rank": 18790,
        "player_name": "Freddie Scoular",
        "rank": 16086,
        "rank_sort": 16125,
        "total": 2386
      },
      {
        "club_badge_src": null,
        "entry": 986072,
        "entry_name": "Peterooz\u2b50\u2b50",
        "event_total": 80,
        "has_played": true,
        "id": 6798767,
        "last_rank": 30600,
        "player_name": "peter magdy",
        "rank": 16086,
        "rank_sort": 16126,
        "total": 2386
      },
      {
        "club_badge_src": null,
        "entry": 987315,
        "entry_name": "Eze To Miss An Email",
        "event_total": 53,
        "has_played": true,
        "id": 6807638,
        "last_rank": 13257,
        "player_name": "Matt Evans",
        "rank": 16086,
        "rank_sort": 16127,
        "total": 2386
      },
      {
        "club_badge_src": null,
        "entry": 996646,
        "entry_name": "xiao li fei dao",
        "event_total": 62,
        "has_played": true,
        "id": 6882466,
        "last_rank": 18985,
        "player_name": "ton kanits",
        "rank": 16086,
        "rank_sort": 16128,
        "total": 2386
      },
      {
        "club_badge_src": null,
        "entry": 1127100,
        "entry_name": "Yoro Wizard Harry",
        "event_total": 73,
        "has_played": true,
        "id": 7811279,
        "last_rank": 27976,
        "player_name": "Jowen Orrell",
        "rank": 16086,
        "rank_sort": 16129,
        "total": 2386
      },
      {
        "club_badge_src": null,
        "entry": 1177315,
        "entry_name": "Full Kollaps FC",
        "event_total": 64,
        "has_played": true,
        "id": 8168788,
        "last_rank": 20280,
        "player_name": "Thomas Bratteteig",
        "rank": 16086,
        "rank_sort": 16130,
        "total": 2386
      },
      {
        "club_badge_src": null,
        "entry": 1206030,
        "entry_name": "fc kingsyou",
        "event_total": 60,
        "has_played": true,
        "id": 8369590,
        "last_rank": 17585,
        "player_name": "youssef ait lhassan",
        "rank": 16086,
        "rank_sort": 16131,
        "total": 2386
      },
      {
        "club_badge_src": null,
        "entry": 1292658,
        "entry_name": "Magnum Opus",
        "event_total": 66,
        "has_played": true,
        "id": 8982552,
        "last_rank": 18790,
        "player_name": "Dazza Kingsbury",
        "rank": 16086,
        "rank_sort": 16132,
        "total": 2386
      },
      {
        "club_badge_src": "https://fantasy.premierleague.com/gcs/plfpl-production-adobe-approved/plfpl-production/1298683/3bb01069-00e7-42df-9be4-901350197194.png",
        "entry": 1298683,
        "entry_name": "It's called Saka",
        "event_total": 63,
        "has_played": true,
        "id": 9025837,
        "last_rank": 19544,
        "player_name": "Julian Meier",
        "rank": 16086,
        "rank_sort": 16133,
        "total": 2386
      },
      {
        "club_badge_src": null,
        "entry": 1341004,
        "entry_name": "Wirtz case scenario",
        "event_total": 35,
        "has_played": true,
        "id": 9323240,
        "last_rank": 6305,
        "player_name": "Ryan Clarke",
        "rank": 16086,
        "rank_sort": 16134,
        "total": 2386
      },
      {
        "club_badge_src": null,
        "entry": 1484286,
        "entry_name": "DRIGUEZ FC",
        "event_total": 62,
        "has_played": true,
        "id": 10350469,
        "last_rank": 16163,
        "player_name": "RODRIGUE NDOFOR",
        "rank": 16086,
        "rank_sort": 16135,
        "total": 2386
      },
      {
        "club_badge_src": null,
        "entry": 1655594,
        "entry_name": "Haaland Oates",
        "event_total": 54,
        "has_played": true,
        "id": 11591035,
        "last_rank": 13947,
        "player_name": "Josh Crausby",
        "rank": 16086,
        "rank_sort": 16136,
        "total": 2386
      },
      {
        "club_badge_src": null,
        "entry": 1656572,
        "entry_name": "Saka Potatoes",
        "event_total": 64,
        "has_played": true,
        "id": 11597869,
        "last_rank": 20280,
        "player_name": "Chad D",
        "rank": 16086,
        "rank_sort": 16137,
        "total": 2386
      },
      {
        "club_badge_src": null,
        "entry": 1657220,
        "entry_name": "Deportivo Cali",
        "event_total": 46,
        "has_played": true,
        "id": 11602441,
        "last_rank": 10031,
        "player_name": "Nicol\u00e1s London",
        "rank": 16086,
        "rank_sort": 16138,
        "total": 2386
      },
      {
        "club_badge_src": null,
        "entry": 1689276,
        "entry_name": "phempu 11",
        "event_total": 65,
        "has_played": true,
        "id": 11825749,
        "last_rank": 18113,
        "player_name": "phempu Sonam",
        "rank": 16086,
        "rank_sort": 16139,
        "total": 2386
      },
      {
        "club_badge_src": null,
        "entry": 1693946,
        "entry_name": "YoungHegelians",
        "event_total": 58,
        "has_played": true,
        "id": 11864047,
        "last_rank": 16062,
        "player_name": "Jan Zupan",
        "rank": 16086,
        "rank_sort": 16140,
        "total": 2386
      },
      {
        "club_badge_src": null,
        "entry": 1714072,
        "entry_name": "Red Devils",
        "event_total": 63,
        "has_played": true,
        "id": 12010825,
        "last_rank": 19721,
        "player_name": "Ann-Cathrin S\u00f8rlie",
        "rank": 16086,
        "rank_sort": 16141,
        "total": 2386
      },
      {
        "club_badge_src": null,
        "entry": 1804031,
        "entry_name": "Clearlake Capitulate",
        "event_total": 55,
        "has_played": true,
        "id": 12682448,
        "last_rank": 14370,
        "player_name": "Daniel Biro",
        "rank": 16086,
        "rank_sort": 16142,
        "total": 2386
      },
      {
        "club_badge_src": null,
        "entry": 1971545,
        "entry_name": "Nidaye another day",
        "event_total": 51,
        "has_played": true,
        "id": 13915239,
        "last_rank": 12322,
        "player_name": "luke watson",
        "rank": 16086,
        "rank_sort": 16143,
        "total": 2386
      },
      {
        "club_badge_src": "https://fantasy.premierleague.com/gcs/plfpl-production-adobe-approved/plfpl-production/2040795/df05b8d0-366b-4438-8551-2d9f17876dcc.png",
        "entry": 2040795,
        "entry_name": "The Viktorian Era",
        "event_total": 57,
        "has_played": true,
        "id": 14452029,
        "last_rank": 15694,
        "player_name": "Adnan Ahmad",
        "rank": 16086,
        "rank_sort": 16144,
        "total": 2386
      },
      {
        "club_badge_src": null,
        "entry": 2061321,
        "entry_name": "PatrickMuorah",
        "event_total": 61,
        "has_played": true,
        "id": 14605509,
        "last_rank": 18270,
        "player_name": "muorah patrick",
        "rank": 16086,
        "rank_sort": 16145,
        "total": 2386
      },
      {
        "club_badge_src": "https://fantasy.premierleague.com/gcs/plfpl-production-adobe-approved/plfpl-production/2111843/37c2c898-639f-4c23-b172-618952c1da73.png",
        "entry": 2111843,
        "entry_name": "Wine&Dine FC",
        "event_total": 61,
        "has_played": true,
        "id": 14989849,
        "last_rank": 18270,
        "player_name": "Hanne Schj\u00f8lberg",
        "rank": 16086,
        "rank_sort": 16146,
        "total": 2386
      },
      {
        "club_badge_src": null,
        "entry": 2177616,
        "entry_name": "Rafas Retirement?",
        "event_total": 70,
        "has_played": true,
        "id": 15486375,
        "last_rank": 24897,
        "player_name": "Shaun Sparrow",
        "rank": 16086,
        "rank_sort": 16147,
        "total": 2386
      },
      {
        "club_badge_src": null,
        "entry": 2281670,
        "entry_name": "Ragner FC",
        "event_total": 58,
        "has_played": true,
        "id": 16270962,
        "last_rank": 16062,
        "player_name": "Bikalpa Acharya",
        "rank": 16086,
        "rank_sort": 16148,
        "total": 2386
      },
      {
        "club_badge_src": null,
        "entry": 2326119,
        "entry_name": "Richard Kone baby",
        "event_total": 61,
        "has_played": true,
        "id": 16595413,
        "last_rank": 18270,
        "player_name": "Michael Barry",
        "rank": 16086,
        "rank_sort": 16149,
        "total": 2386
      },
      {
        "club_badge_src": "https://fantasy.premierleague.com/gcs/plfpl-production-adobe-approved/plfpl-production/2442364/dcfb13c2-4698-4a16-8cb2-1dde945dbfc9.png",
        "entry": 2442364,
        "entry_name": "MurderOnZidanesFloor",
        "event_total": 68,
        "has_played": true,
        "id": 17467263,
        "last_rank": 23522,
        "player_name": "Haydn Lavender",
        "rank": 16086,
        "rank_sort": 16150,
        "total": 2386
      }
    ]
  }
}