{
  "last_updated_data": "2026-05-24T23:28:17Z",
  "league": {
    "admin_entry": null,
    "closed": false,
    "code_privacy": "p",
    "created": "2025-07-20T23:14:33.933835Z",
    "cup_league": 2815434,
    "has_cup": true,
    "id": 314,
    "league_type": "s",
    "max_entries": null,
    "name": "Overall",
    "rank": null,
    "scoring": "c",
    "start_event": 1
  },
  "new_entries": {
    "has_next": false,
    "page": 1,
    "results": []
  },
  "standings": {
    "has_next": true,
    "page": 1502,
    "results": [
      {
        "club_badge_src": null,
        "entry": 593931,
        "entry_name": "Bowsack Utd",
        "event_total": 66,
        "has_played": true,
        "id": 4002924,
        "last_rank": 97597,
        "player_name": "Simon Efford",
        "rank": 75034,
        "rank_sort": 75051,
        "total": 2338
      },
      {
        "club_badge_src": null,
        "entry": 595439,
        "entry_name": "Szoboslide Tackle",
        "event_total": 53,
        "has_played": true,
        "id": 4014130,
        "last_rank": 68351,
        "player_name": "Akos Komjathy",
        "rank": 75034,
        "rank_sort": 75052,
        "total": 2338
      },
      {
        "club_badge_src": null,
        "entry": 615874,
        "entry_name": "our year",
        "event_total": 62,
        "has_played": true,
        "id": 4161399,
        "last_rank": 78440,
        "player_name": "Shubh Gupta",
        "rank": 75034,
        "rank_sort": 75053,
        "total": 2338
      },
      {
        "club_badge_src": null,
        "entry": 686537,
        "entry_name": "Yes Ndidi",
        "event_total": 60,
        "has_played": true,
        "id": 4647447,
        "last_rank": 83127,
        "player_name": "Paul Donnellan",
        "rank": 75034,
        "rank_sort": 75054,
        "total": 2338
      },
      {
        "club_badge_src": null,
        "entry": 691167,
        "entry_name": "Cunha Dig It Sucka",
        "event_total": 73,
        "has_played": true,
        "id": 4680488,
        "last_rank": 115421,
        "player_name": "Darren Beck",
        "rank": 75034,
        "rank_sort": 75055,
        "total": 2338
      },
      {
        "club_badge_src": null,
        "entry": 692982,
        "entry_name": "BIG GEORGE ALOKOBI",
        "event_total": 64,
        "has_played": true,
        "id": 4693224,
        "last_rank": 92602,
        "player_name": "Wayne-jojo Fostercrouch",
        "rank": 75034,
        "rank_sort": 75056,
        "total": 2338
      },
      {
        "club_badge_src": null,
        "entry": 739533,
        "entry_name": "I \u00e5r var det LETT",
        "event_total": 63,
        "has_played": true,
        "id": 5028201,
        "last_rank": 90158,
        "player_name": "Arne Stormyr",
        "rank": 75034,
        "rank_sort": 75057,
        "total": 2338
      },
      {
        "club_badge_src": null,
        "entry": 746787,
        "entry_name": "Barnet Snowball",
        "event_total": 54,
        "has_played": true,
        "id": 5080473,
        "last_rank": 62724,
        "player_name": "Ken Kwok",
        "rank": 75034,
        "rank_sort": 75058,
        "total": 2338
      },
      {
        "club_badge_src": null,
        "entry": 764566,
        "entry_name": "FK Ma\u0111ioni\u010dari",
        "event_total": 56,
        "has_played": true,
        "id": 5214389,
        "last_rank": 66296,
        "player_name": "Nermin Huselja",
        "rank": 75034,
        "rank_sort": 75059,
        "total": 2338
      },
      {
        "club_badge_src": null,
        "entry": 796270,
        "entry_name": "IpswichItUp&Down",
        "event_total": 72,
        "has_played": true,
        "id": 5449512,
        "last_rank": 113553,
        "player_name": "James Moxom",
        "rank": 75034,
        "rank_sort": 75060,
        "total": 2338
      },
      {
        "club_badge_src": "https://fantasy.premierleague.com/gcs/plfpl-production-adobe-approved/plfpl-production/811475/81ef039b-7084-42d3-9c03-1c2f51eecca7.png",
        "entry": 811475,
        "entry_name": "Beachbums",
        "event_total": 66,
        "has_played": true,
        "id": 5556065,
        "last_rank": 97470,
        "player_name": "Bruce Griffith",
        "rank": 75034,
        "rank_sort": 75061,
        "total": 2338
      },
      {
        "club_badge_src": null,
        "entry": 946685,
        "entry_name": "Austria All Stars",
        "event_total": 72,
        "has_played": true,
        "id": 6520509,
        "last_rank": 113553,
        "player_name": "Niklas Hudec",
        "rank": 75034,
        "rank_sort": 75062,
        "total": 2338
      },
      {
        "club_badge_src": "https://fantasy.premierleague.com/gcs/plfpl-production-adobe-approved/plfpl-production/971521/d42b1c75-2842-4c3b-a72a-735d0e4d75e9.png",
        "entry": 971521,
        "entry_name": "Squidwirtz",
        "event_total": 81,
        "has_played": true,
        "id": 6697004,
        "last_rank": 115760,
        "player_name": "Luuk ter Maat",
        "rank": 75034,
        "rank_sort": 75063,
        "total": 2338
      },
      {
        "club_badge_src": null,
        "entry": 1123683,
        "entry_name": "for better for wirtz",
        "event_total": 76,
        "has_played": true,
        "id": 7786855,
        "last_rank": 125303,
        "player_name": "Jaiden Kean",
        "rank": 75034,
        "rank_sort": 75064,
        "total": 2338
      },
      {
        "club_badge_src": "https://fantasy.premierleague.com/gcs/plfpl-production-adobe-approved/plfpl-production/1353540/1097104b-2158-47b6-911e-034621d09e45.png",
        "entry": 1353540,
        "entry_name": "Ljubi te Fa\u0107ko",
        "event_total": 68,
        "has_played": true,
        "id": 9409394,
        "last_rank": 102622,
        "player_name": "Ajdin Dugum",
        "rank": 75034,
        "rank_sort": 75065,
        "total": 2338
      },
      {
        "club_badge_src": null,
        "entry": 1420217,
        "entry_name": "Wirtz Case Scenario",
        "event_total": 58,
        "has_played": true,
        "id": 9888788,
        "last_rank": 78671,
        "player_name": "Vegard Bostad",
        "rank": 75034,
        "rank_sort": 75066,
        "total": 2338
      },
      {
        "club_badge_src": null,
        "entry": 1497562,
        "entry_name": "El Rozenborg BK",
        "event_total": 70,
        "has_played": true,
        "id": 10443725,
        "last_rank": 97305,
        "player_name": "Tom Rose",
        "rank": 75034,
        "rank_sort": 75067,
        "total": 2338
      },
      {
        "club_badge_src": "https://fantasy.premierleague.com/gcs/plfpl-production-adobe-approved/plfpl-production/1509624/ede6d016-018d-4a8a-8247-ecc284458ffe.png",
        "entry": 1509624,
        "entry_name": "Timmy CFC",
        "event_total": 51,
        "has_played": true,
        "id": 10528673,
        "last_rank": 57451,
        "player_name": "Tim Cottrell",
        "rank": 75034,
        "rank_sort": 75068,
        "total": 2338
      },
      {
        "club_badge_src": "https://fantasy.premierleague.com/gcs/plfpl-production-adobe-approved/plfpl-production/1610879/db5bdee4-56d0-4515-b3d3-960d2d7cb3c1.png",
        "entry": 1610879,
        "entry_name": "argentina",
        "event_total": 64,
        "has_played": true,
        "id": 11270754,
        "last_rank": 92471,
        "player_name": "Ibrahim Harbi",
        "rank": 75034,
        "rank_sort": 75069,
        "total": 2338
      },
      {
        "club_badge_src": null,
        "entry": 1687479,
        "entry_name": "\u2b50 \u1d07\u029f\u1d0d\u1d00\u0274\u1d04\u029c\u1d07s\u1d1b\u1d07\u0280\u1d00\u1d21\u028f \u2b50",
        "event_total": 51,
        "has_played": true,
        "id": 11812753,
        "last_rank": 64508,
        "player_name": "\ud83c\uddf5\ud83c\uddf8 \ud835\udc0c\ud835\udc14\ud835\udc07\ud835\udc00\ud835\udc0c\ud835\udc0c\ud835\udc00\ud835\udc03 \ud835\udc07\ud835\udc00\ud835\udc12\ud835\udc12\ud835\udc00\ud835\udc0d \ud83c\uddf5\ud83c\uddf8",
        "rank": 75034,
        "rank_sort": 75070,
        "total": 2338
      },
      {
        "club_badge_src": "https://fantasy.premierleague.com/gcs/plfpl-production-adobe-approved/plfpl-production/1701063/62208bb5-7b62-48b3-81b0-0b62561c13a9.png",
        "entry": 1701063,
        "entry_name": "Cantona's Kung Fu FC",
        "event_total": 58,
        "has_played": true,
        "id": 11915589,
        "last_rank": 62617,
        "player_name": "Raymond McCullagh",
        "rank": 75034,
        "rank_sort": 75071,
        "total": 2338
      },
      {
        "club_badge_src": null,
        "entry": 1846861,
        "entry_name": "Aboody Chelsea",
        "event_total": 56,
        "has_played": true,
        "id": 12995043,
        "last_rank": 74395,
        "player_name": "Aboody Chelsea",
        "rank": 75034,
        "rank_sort": 75072,
        "total": 2338
      },
      {
        "club_badge_src": null,
        "entry": 1958539,
        "entry_name": "No name",
        "event_total": 61,
        "has_played": true,
        "id": 13816898,
        "last_rank": 76474,
        "player_name": "Budi Angkara",
        "rank": 75034,
        "rank_sort": 75073,
        "total": 2338
      },
      {
        "club_badge_src": null,
        "entry": 2360470,
        "entry_name": "Ultra Konat\u00e9",
        "event_total": 62,
        "has_played": true,
        "id": 16845958,
        "last_rank": 78575,
        "player_name": "Alex Parker",
        "rank": 75034,
        "rank_sort": 75074,
        "total": 2338
      },
      {
        "club_badge_src": null,
        "entry": 2509418,
        "entry_name": "Nmecha In The Summer",
        "event_total": 58,
        "has_played": true,
        "id": 17972436,
        "last_rank": 78575,
        "player_name": "James Lewis",
        "rank": 75034,
        "rank_sort": 75075,
        "total": 2338
      },
      {
        "club_badge_src": null,
        "entry": 2513126,
        "entry_name": "Sweet Child O\u2019nien",
        "event_total": 31,
        "has_played": true,
        "id": 18004438,
        "last_rank": 34796,
        "player_name": "Tom Martin",
        "rank": 75034,
        "rank_sort": 75076,
        "total": 2338
      },
      {
        "club_badge_src": null,
        "entry": 2563594,
        "entry_name": "Back of the Neto",
        "event_total": 56,
        "has_played": true,
        "id": 18387729,
        "last_rank": 74395,
        "player_name": "Thomas Stoneham",
        "rank": 75034,
        "rank_sort": 75077,
        "total": 2338
      },
      {
        "club_badge_src": null,
        "entry": 2680858,
        "entry_name": "McGinn and Tonic",
        "event_total": 61,
        "has_played": true,
        "id": 19281091,
        "last_rank": 85349,
        "player_name": "Paul Jeynes",
        "rank": 75034,
        "rank_sort": 75078,
        "total": 2338
      },
      {
        "club_badge_src": null,
        "entry": 2958531,
        "entry_name": "Hakuna Mateta",
        "event_total": 65,
        "has_played": true,
        "id": 21731041,
        "last_rank": 85207,
        "player_name": "Chris Dawson",
        "rank": 75034,
        "rank_sort": 75079,
        "total": 2338
      },
      {
        "club_badge_src": null,
        "entry": 2995741,
        "entry_name": "ChampagneSuperRovers",
        "event_total": 52,
        "has_played": true,
        "id": 22033563,
        "last_rank": 66380,
        "player_name": "Lee Francis",
        "rank": 75034,
        "rank_sort": 75080,
        "total": 2338
      },
      {
        "club_badge_src": null,
        "entry": 3203607,
        "entry_name": "Pique Blinders",
        "event_total": 59,
        "has_played": true,
        "id": 23682518,
        "last_rank": 72145,
        "player_name": "Greg Turner",
        "rank": 75034,
        "rank_sort": 75081,
        "total": 2338
      },
      {
        "club_badge_src": null,
        "entry": 3244392,
        "entry_name": "Hotstuff",
        "event_total": 54,
        "has_played": true,
        "id": 24000295,
        "last_rank": 70276,
        "player_name": "James Curry",
        "rank": 75034,
        "rank_sort": 75082,
        "total": 2338
      },
      {
        "club_badge_src": "https://fantasy.premierleague.com/gcs/plfpl-production-adobe-approved/plfpl-production/3969640/c02a4ddc-4b1b-4e69-995f-59cf611679bd.png",
        "entry": 3969640,
        "entry_name": "\u0e40\u0e15\u0e4b\u0e32\u0e21\u0e35\u0e41\u0e2b\u0e14 FPL",
        "event_total": 71,
        "has_played": true,
        "id": 29872072,
        "last_rank": 99806,
        "player_name": "Beck Charoenpornlert",
        "rank": 75034,
        "rank_sort": 75083,
        "total": 2338
      },
      {
        "club_badge_src": "https://fantasy.premierleague.com/gcs/plfpl-production-adobe-approved/plfpl-production/4160743/f54e85f3-0239-46a0-be7e-877f130a2a7e.png",
        "entry": 4160743,
        "entry_name": "SE7RAWI M3KSSS",
        "event_total": 71,
        "has_played": true,
        "id": 31456873,
        "last_rank": 110709,
        "player_name": "Ayoub Essahouqui",
        "rank": 75034,
        "rank_sort": 75084,
        "total": 2338
      },
      {
        "club_badge_src": null,
        "entry": 4602614,
        "entry_name": "BEASTS.FC",
        "event_total": 59,
        "has_played": true,
        "id": 35161520,
        "last_rank": 80877,
        "player_name": "Sigqibo Silwana",
        "rank": 75034,
        "rank_sort": 75085,
        "total": 2338
      },
      {
        "club_badge_src": null,
        "entry": 4630381,
        "entry_name": "Baby Reijnders",
        "event_total": 52,
        "has_played": true,
        "id": 35404826,
        "last_rank": 52357,
        "player_name": "David Binks",
        "rank": 75034,
        "rank_sort": 75086,
        "total": 2338
      },
      {
        "club_badge_src": null,
        "entry": 4895126,
        "entry_name": "French RICE",
        "event_total": 63,
        "has_played": true,
        "id": 37744280,
        "last_rank": 90158,
        "player_name": "Line Stormyr",
        "rank": 75034,
        "rank_sort": 75087,
        "total": 2338
      },
      {
        "club_badge_src": null,
        "entry": 4958542,
        "entry_name": "Soccer Team",
        "event_total": 59,
        "has_played": true,
        "id": 38263751,
        "last_rank": 72145,
        "player_name": "Brian Lubin",
        "rank": 75034,
        "rank_sort": 75088,
        "total": 2338
      },
      {
        "club_badge_src": "https://fantasy.premierleague.com/gcs/plfpl-production-adobe-approved/plfpl-production/4965881/b5961e93-8560-44dd-bcc5-3175a810c0e9.png",
        "entry": 4965881,
        "entry_name": "Ultras Dor Malul",
        "event_total": 67,
        "has_played": true,
        "id": 38322626,
        "last_rank": 90057,
        "player_name": "Tomer Finkelstein",
        "rank": 75034,
        "rank_sort": 75089,
        "total": 2338
      },
      {
        "club_badge_src": null,
        "entry": 4988792,
        "entry_name": "Awesome11",
        "event_total": 52,
        "has_played": true,
        "id": 38514263,
        "last_rank": 66380,
        "player_name": "Mark Ryan",
        "rank": 75034,
        "rank_sort": 75090,
        "total": 2338
      },
      {
        "club_badge_src": null,
        "entry": 5047690,
        "entry_name": "Baset",
        "event_total": 52,
        "has_played": true,
        "id": 38996471,
        "last_rank": 59170,
        "player_name": "Mohammed Abd El-Baset",
        "rank": 75034,
        "rank_sort": 75091,
        "total": 2338
      },
      {
        "club_badge_src": null,
        "entry": 5075452,
        "entry_name": "LeeGrantsatTheWheelU",
        "event_total": 44,
        "has_played": true,
        "id": 39225067,
        "last_rank": 52522,
        "player_name": "Mark Neill",
        "rank": 75034,
        "rank_sort": 75092,
        "total": 2338
      },
      {
        "club_badge_src": null,
        "entry": 5319775,
        "entry_name": "Kinder Mbeumo",
        "event_total": 62,
        "has_played": true,
        "id": 41238941,
        "last_rank": 78575,
        "player_name": "P D",
        "rank": 75034,
        "rank_sort": 75093,
        "total": 2338
      },
      {
        "club_badge_src": null,
        "entry": 5449672,
        "entry_name": "R7MS",
        "event_total": 63,
        "has_played": true,
        "id": 42406413,
        "last_rank": 80781,
        "player_name": "Rashed Suliman",
        "rank": 75034,
        "rank_sort": 75094,
        "total": 2338
      },
      {
        "club_badge_src": null,
        "entry": 5493419,
        "entry_name": "RedLazer",
        "event_total": 58,
        "has_played": true,
        "id": 42787807,
        "last_rank": 70183,
        "player_name": "laurits Andersen",
        "rank": 75034,
        "rank_sort": 75095,
        "total": 2338
      },
      {
        "club_badge_src": null,
        "entry": 5722380,
        "entry_name": "NightNdiaye",
        "event_total": 68,
        "has_played": true,
        "id": 44823489,
        "last_rank": 102622,
        "player_name": "Samuel Audet",
        "rank": 75034,
        "rank_sort": 75096,
        "total": 2338
      },
      {
        "club_badge_src": null,
        "entry": 6159348,
        "entry_name": "Bayern Bru",
        "event_total": 66,
        "has_played": true,
        "id": 48693478,
        "last_rank": 87710,
        "player_name": "Scott Rawlings",
        "rank": 75034,
        "rank_sort": 75097,
        "total": 2338
      },
      {
        "club_badge_src": null,
        "entry": 6192972,
        "entry_name": "Change Name",
        "event_total": 50,
        "has_played": true,
        "id": 48984826,
        "last_rank": 62812,
        "player_name": "Daniel Grady",
        "rank": 75034,
        "rank_sort": 75098,
        "total": 2338
      },
      {
        "club_badge_src": null,
        "entry": 6304947,
        "entry_name": "MGH city",
        "event_total": 54,
        "has_played": true,
        "id": 49999767,
        "last_rank": 70355,
        "player_name": "Mill Sittichai",
        "rank": 75034,
        "rank_sort": 75099,
        "total": 2338
      },
      {
        "club_badge_src": null,
        "entry": 6430479,
        "entry_name": "MT",
        "event_total": 64,
        "has_played": true,
        "id": 51189279,
        "last_rank": 83018,
        "player_name": "Mustafa Ahmed",
        "rank": 75034,
        "rank_sort": 75100,
        "total": 2338
      }
    ]
  }
}