{
  "last_updated_data": "2026-05-24T23:28:17Z",
  "league": {
    "admin_entry": null,
    "closed": false,
    "code_privacy": "p",
    "created": "2025-07-20T23:14:33.933835Z",
    "cup_league": 2815434,
    "has_cup": true,
    "id": 314,
    "league_type": "s",
    "max_entries": null,
    "name": "Overall",
    "rank": null,
    "scoring": "c",
    "start_event": 1
  },
  "new_entries": {
    "has_next": false,
    "page": 1,
    "results": []
  },
  "standings": {
    "has_next": true,
    "page": 1371,
    "results": [
      {
        "club_badge_src": null,
        "entry": 16138,
        "entry_name": "The Jammers",
        "event_total": 67,
        "has_played": true,
        "id": 99501,
        "last_rank": 91466,
        "player_name": "Alex Playle",
        "rank": 68496,
        "rank_sort": 68501,
        "total": 2341
      },
      {
        "club_badge_src": "https://fantasy.premierleague.com/gcs/plfpl-production-adobe-approved/plfpl-production/19900/69646de0-67fa-4deb-9dc8-954a81c2331b.png",
        "entry": 19900,
        "entry_name": "MajorLeagueSaka",
        "event_total": 64,
        "has_played": true,
        "id": 123860,
        "last_rank": 84360,
        "player_name": "Krzysztof Zaremba",
        "rank": 68496,
        "rank_sort": 68502,
        "total": 2341
      },
      {
        "club_badge_src": null,
        "entry": 24520,
        "entry_name": "BEHOR TEMAK FC",
        "event_total": 58,
        "has_played": true,
        "id": 154799,
        "last_rank": 71713,
        "player_name": "Mohd Akmal Raduwan",
        "rank": 68496,
        "rank_sort": 68503,
        "total": 2341
      },
      {
        "club_badge_src": "https://fantasy.premierleague.com/gcs/plfpl-production-adobe-approved/plfpl-production/27905/1b7d9b84-7781-46a5-ba06-4e0f9d0d2d1c.png",
        "entry": 27905,
        "entry_name": "Could Be Wirtz",
        "event_total": 64,
        "has_played": true,
        "id": 176462,
        "last_rank": 75537,
        "player_name": "Ollie Murison",
        "rank": 68496,
        "rank_sort": 68504,
        "total": 2341
      },
      {
        "club_badge_src": "https://fantasy.premierleague.com/gcs/plfpl-production-adobe-approved/plfpl-production/27986/a7fb01df-be84-4024-8328-b918baa5755e.png",
        "entry": 27986,
        "entry_name": "Borussia Teeth",
        "event_total": 45,
        "has_played": true,
        "id": 176987,
        "last_rank": 48898,
        "player_name": "Jack Hancock",
        "rank": 68496,
        "rank_sort": 68505,
        "total": 2341
      },
      {
        "club_badge_src": null,
        "entry": 34860,
        "entry_name": "You Ndiaye",
        "event_total": 57,
        "has_played": true,
        "id": 222896,
        "last_rank": 69323,
        "player_name": "Jonas Jacobsen",
        "rank": 68496,
        "rank_sort": 68506,
        "total": 2341
      },
      {
        "club_badge_src": null,
        "entry": 35646,
        "entry_name": "HT united",
        "event_total": 53,
        "has_played": true,
        "id": 228135,
        "last_rank": 55014,
        "player_name": "Hisham T",
        "rank": 68496,
        "rank_sort": 68507,
        "total": 2341
      },
      {
        "club_badge_src": null,
        "entry": 36057,
        "entry_name": "Horsell Common FC",
        "event_total": 68,
        "has_played": true,
        "id": 230751,
        "last_rank": 84360,
        "player_name": "Philip Curr",
        "rank": 68496,
        "rank_sort": 68508,
        "total": 2341
      },
      {
        "club_badge_src": null,
        "entry": 44412,
        "entry_name": "Team of Gabriels",
        "event_total": 69,
        "has_played": true,
        "id": 284631,
        "last_rank": 96777,
        "player_name": "Daniel Hogan",
        "rank": 68496,
        "rank_sort": 68509,
        "total": 2341
      },
      {
        "club_badge_src": null,
        "entry": 45644,
        "entry_name": "Danso on My Own",
        "event_total": 69,
        "has_played": true,
        "id": 292797,
        "last_rank": 95890,
        "player_name": "Abhishek Mukherjee",
        "rank": 68496,
        "rank_sort": 68510,
        "total": 2341
      },
      {
        "club_badge_src": null,
        "entry": 48415,
        "entry_name": "Fishheads",
        "event_total": 82,
        "has_played": true,
        "id": 310902,
        "last_rank": 120941,
        "player_name": "Harvey Catling",
        "rank": 68496,
        "rank_sort": 68511,
        "total": 2341
      },
      {
        "club_badge_src": null,
        "entry": 62611,
        "entry_name": "HAZZ FC",
        "event_total": 71,
        "has_played": true,
        "id": 403687,
        "last_rank": 101419,
        "player_name": "don hazz",
        "rank": 68496,
        "rank_sort": 68512,
        "total": 2341
      },
      {
        "club_badge_src": "https://fantasy.premierleague.com/gcs/plfpl-production-adobe-approved/plfpl-production/70065/a09e1322-4ee2-4997-8283-1d4370bd1680.png",
        "entry": 70065,
        "entry_name": "Griessy Football",
        "event_total": 39,
        "has_played": true,
        "id": 454789,
        "last_rank": 40503,
        "player_name": "Alex Griessmeyer",
        "rank": 68496,
        "rank_sort": 68513,
        "total": 2341
      },
      {
        "club_badge_src": null,
        "entry": 76520,
        "entry_name": "\u51f8( \u2022\u0300_\u2022\u0301 )\u51f8",
        "event_total": 67,
        "has_played": true,
        "id": 497422,
        "last_rank": 90746,
        "player_name": "Vikash Bhalsod",
        "rank": 68496,
        "rank_sort": 68514,
        "total": 2341
      },
      {
        "club_badge_src": null,
        "entry": 79016,
        "entry_name": "Marc my Isak",
        "event_total": 42,
        "has_played": true,
        "id": 513784,
        "last_rank": 44303,
        "player_name": "Gruff Evans",
        "rank": 68496,
        "rank_sort": 68515,
        "total": 2341
      },
      {
        "club_badge_src": null,
        "entry": 79544,
        "entry_name": "Hicksy's Heroes",
        "event_total": 61,
        "has_played": true,
        "id": 517380,
        "last_rank": 69323,
        "player_name": "Alex Hicks",
        "rank": 68496,
        "rank_sort": 68516,
        "total": 2341
      },
      {
        "club_badge_src": null,
        "entry": 81180,
        "entry_name": "Fc Inter",
        "event_total": 66,
        "has_played": true,
        "id": 528145,
        "last_rank": 89426,
        "player_name": "basel emran",
        "rank": 68496,
        "rank_sort": 68517,
        "total": 2341
      },
      {
        "club_badge_src": null,
        "entry": 81701,
        "entry_name": "Frimpong Iddle I Po",
        "event_total": 40,
        "has_played": true,
        "id": 531498,
        "last_rank": 36624,
        "player_name": "joan killoran",
        "rank": 68496,
        "rank_sort": 68518,
        "total": 2341
      },
      {
        "club_badge_src": null,
        "entry": 84451,
        "entry_name": "gangstas allardyce",
        "event_total": 71,
        "has_played": true,
        "id": 549861,
        "last_rank": 101818,
        "player_name": "Zak Wilson",
        "rank": 68496,
        "rank_sort": 68519,
        "total": 2341
      },
      {
        "club_badge_src": "https://fantasy.premierleague.com/gcs/plfpl-production-adobe-approved/plfpl-production/95525/2023817d-f92d-4064-a938-fef80ae49ea6.png",
        "entry": 95525,
        "entry_name": "Need To Wildcard FC",
        "event_total": 72,
        "has_played": true,
        "id": 624139,
        "last_rank": 103978,
        "player_name": "Joseph Hodgson",
        "rank": 68496,
        "rank_sort": 68520,
        "total": 2341
      },
      {
        "club_badge_src": null,
        "entry": 97703,
        "entry_name": "_____",
        "event_total": 66,
        "has_played": true,
        "id": 638095,
        "last_rank": 89055,
        "player_name": "Carl Str\u00f8m Walton",
        "rank": 68496,
        "rank_sort": 68521,
        "total": 2341
      },
      {
        "club_badge_src": null,
        "entry": 103109,
        "entry_name": "@cwrighty97",
        "event_total": 57,
        "has_played": true,
        "id": 672828,
        "last_rank": 69641,
        "player_name": "Connor Wright",
        "rank": 68496,
        "rank_sort": 68522,
        "total": 2341
      },
      {
        "club_badge_src": null,
        "entry": 103231,
        "entry_name": "acuhna matata",
        "event_total": 78,
        "has_played": true,
        "id": 673650,
        "last_rank": 121383,
        "player_name": "Glen Midgley",
        "rank": 68496,
        "rank_sort": 68523,
        "total": 2341
      },
      {
        "club_badge_src": null,
        "entry": 107859,
        "entry_name": "Delap dance",
        "event_total": 65,
        "has_played": true,
        "id": 703251,
        "last_rank": 77258,
        "player_name": "Tom Ingrey",
        "rank": 68496,
        "rank_sort": 68524,
        "total": 2341
      },
      {
        "club_badge_src": "https://fantasy.premierleague.com/gcs/plfpl-production-adobe-approved/plfpl-production/110004/5f528b6f-00d8-40ba-922c-d801d8aa2bd0.png",
        "entry": 110004,
        "entry_name": "Wirtz Case Scenario",
        "event_total": 47,
        "has_played": true,
        "id": 717334,
        "last_rank": 51984,
        "player_name": "Chris Diston",
        "rank": 68496,
        "rank_sort": 68525,
        "total": 2341
      },
      {
        "club_badge_src": null,
        "entry": 115074,
        "entry_name": "Ctrl Alt De Ligt",
        "event_total": 67,
        "has_played": true,
        "id": 750869,
        "last_rank": 91466,
        "player_name": "Ryan Fyffe",
        "rank": 68496,
        "rank_sort": 68526,
        "total": 2341
      },
      {
        "club_badge_src": null,
        "entry": 119205,
        "entry_name": "Beto Call Saul",
        "event_total": 64,
        "has_played": true,
        "id": 777813,
        "last_rank": 84731,
        "player_name": "Dion O'Byrne",
        "rank": 68496,
        "rank_sort": 68527,
        "total": 2341
      },
      {
        "club_badge_src": null,
        "entry": 135459,
        "entry_name": "Pepple Pig FC",
        "event_total": 67,
        "has_played": true,
        "id": 882055,
        "last_rank": 82069,
        "player_name": "Jack Cope",
        "rank": 68496,
        "rank_sort": 68528,
        "total": 2341
      },
      {
        "club_badge_src": "https://fantasy.premierleague.com/gcs/plfpl-production-adobe-approved/plfpl-production/141540/68f4c532-4e6e-469b-9a3f-feb4f95852ed.png",
        "entry": 141540,
        "entry_name": "Houman555",
        "event_total": 53,
        "has_played": true,
        "id": 924799,
        "last_rank": 62429,
        "player_name": "Houman Hamzehei",
        "rank": 68496,
        "rank_sort": 68529,
        "total": 2341
      },
      {
        "club_badge_src": null,
        "entry": 146367,
        "entry_name": "Salah-vating Glory",
        "event_total": 49,
        "has_played": true,
        "id": 958872,
        "last_rank": 55014,
        "player_name": "Christian Tabone",
        "rank": 68496,
        "rank_sort": 68530,
        "total": 2341
      },
      {
        "club_badge_src": null,
        "entry": 155513,
        "entry_name": "MasK MaD",
        "event_total": 66,
        "has_played": true,
        "id": 1022150,
        "last_rank": 79817,
        "player_name": "Aleksandar Grozdanchev",
        "rank": 68496,
        "rank_sort": 68531,
        "total": 2341
      },
      {
        "club_badge_src": null,
        "entry": 171237,
        "entry_name": "FC Gurdelona",
        "event_total": 67,
        "has_played": true,
        "id": 1131259,
        "last_rank": 91466,
        "player_name": "Sigurd Overgaard",
        "rank": 68496,
        "rank_sort": 68532,
        "total": 2341
      },
      {
        "club_badge_src": null,
        "entry": 173534,
        "entry_name": "Kinder Mbuemo",
        "event_total": 62,
        "has_played": true,
        "id": 1146049,
        "last_rank": 80194,
        "player_name": "Matt Allen",
        "rank": 68496,
        "rank_sort": 68533,
        "total": 2341
      },
      {
        "club_badge_src": null,
        "entry": 188257,
        "entry_name": "Bowen Arrow",
        "event_total": 52,
        "has_played": true,
        "id": 1245331,
        "last_rank": 60168,
        "player_name": "Ugo I",
        "rank": 68496,
        "rank_sort": 68534,
        "total": 2341
      },
      {
        "club_badge_src": null,
        "entry": 202126,
        "entry_name": "Blow-me Boehly",
        "event_total": 60,
        "has_played": true,
        "id": 1342211,
        "last_rank": 67422,
        "player_name": "Fredrik Haugland",
        "rank": 68496,
        "rank_sort": 68535,
        "total": 2341
      },
      {
        "club_badge_src": null,
        "entry": 205859,
        "entry_name": "Veiholmen",
        "event_total": 51,
        "has_played": true,
        "id": 1368362,
        "last_rank": 45416,
        "player_name": "Reidar Buskenes",
        "rank": 68496,
        "rank_sort": 68536,
        "total": 2341
      },
      {
        "club_badge_src": null,
        "entry": 216416,
        "entry_name": "Sunderland On Top",
        "event_total": 62,
        "has_played": true,
        "id": 1439443,
        "last_rank": 80465,
        "player_name": "Leon Gibson",
        "rank": 68496,
        "rank_sort": 68537,
        "total": 2341
      },
      {
        "club_badge_src": null,
        "entry": 228575,
        "entry_name": "HoweYouDoing",
        "event_total": 64,
        "has_played": true,
        "id": 1520630,
        "last_rank": 84731,
        "player_name": "Ronan Attwood",
        "rank": 68496,
        "rank_sort": 68538,
        "total": 2341
      },
      {
        "club_badge_src": null,
        "entry": 228892,
        "entry_name": "Maltes Maltesers",
        "event_total": 49,
        "has_played": true,
        "id": 1522852,
        "last_rank": 42506,
        "player_name": "Malte Tallberg",
        "rank": 68496,
        "rank_sort": 68539,
        "total": 2341
      },
      {
        "club_badge_src": null,
        "entry": 243308,
        "entry_name": "Carrigmore United",
        "event_total": 68,
        "has_played": true,
        "id": 1620201,
        "last_rank": 93883,
        "player_name": "Paul O Sullivan",
        "rank": 68496,
        "rank_sort": 68540,
        "total": 2341
      },
      {
        "club_badge_src": null,
        "entry": 247468,
        "entry_name": "Had one Tchouameni",
        "event_total": 51,
        "has_played": true,
        "id": 1647228,
        "last_rank": 51720,
        "player_name": "colm hegarty",
        "rank": 68496,
        "rank_sort": 68541,
        "total": 2341
      },
      {
        "club_badge_src": null,
        "entry": 249570,
        "entry_name": "Fightin' Iowanians",
        "event_total": 74,
        "has_played": true,
        "id": 1660754,
        "last_rank": 109863,
        "player_name": "Austin Ramzy",
        "rank": 68496,
        "rank_sort": 68542,
        "total": 2341
      },
      {
        "club_badge_src": null,
        "entry": 260035,
        "entry_name": "\ufffd!",
        "event_total": 57,
        "has_played": true,
        "id": 1728805,
        "last_rank": 69641,
        "player_name": "Gav Sutcliffe",
        "rank": 68496,
        "rank_sort": 68543,
        "total": 2341
      },
      {
        "club_badge_src": null,
        "entry": 265053,
        "entry_name": "KT Albion",
        "event_total": 60,
        "has_played": true,
        "id": 1762829,
        "last_rank": 75139,
        "player_name": "KT Albion",
        "rank": 68496,
        "rank_sort": 68544,
        "total": 2341
      },
      {
        "club_badge_src": null,
        "entry": 276610,
        "entry_name": "Strike Double Cherki",
        "event_total": 46,
        "has_played": true,
        "id": 1841014,
        "last_rank": 50468,
        "player_name": "Matt Thomas",
        "rank": 68496,
        "rank_sort": 68545,
        "total": 2341
      },
      {
        "club_badge_src": null,
        "entry": 307641,
        "entry_name": "Quico, Zinho & Lindo",
        "event_total": 71,
        "has_played": true,
        "id": 2060519,
        "last_rank": 100949,
        "player_name": "Raphael Linklater Fernandes",
        "rank": 68496,
        "rank_sort": 68546,
        "total": 2341
      },
      {
        "club_badge_src": "https://fantasy.premierleague.com/gcs/plfpl-production-adobe-approved/plfpl-production/316122/c7bbd654-2fb7-4bd9-9fc8-702962837e95.png",
        "entry": 316122,
        "entry_name": "Pep Team",
        "event_total": 64,
        "has_played": true,
        "id": 2118756,
        "last_rank": 84360,
        "player_name": "Jamie Conboy",
        "rank": 68496,
        "rank_sort": 68547,
        "total": 2341
      },
      {
        "club_badge_src": "https://fantasy.premierleague.com/gcs/plfpl-production-adobe-approved/plfpl-production/318296/9165c8bb-9819-49e0-b3a7-62c5c4e076ea.png",
        "entry": 318296,
        "entry_name": "The Bijol n' End All",
        "event_total": 49,
        "has_played": true,
        "id": 2133610,
        "last_rank": 55311,
        "player_name": "Jack Burrowes",
        "rank": 68496,
        "rank_sort": 68548,
        "total": 2341
      },
      {
        "club_badge_src": "https://fantasy.premierleague.com/gcs/plfpl-production-adobe-approved/plfpl-production/323541/d376b843-3bd3-4f85-9b66-bbd09c4110fe.png",
        "entry": 323541,
        "entry_name": "Wildman Wanderers",
        "event_total": 40,
        "has_played": true,
        "id": 2168163,
        "last_rank": 41617,
        "player_name": "Lewis Wildman",
        "rank": 68496,
        "rank_sort": 68549,
        "total": 2341
      },
      {
        "club_badge_src": null,
        "entry": 330505,
        "entry_name": "Cahill Me Maybe",
        "event_total": 64,
        "has_played": true,
        "id": 2213769,
        "last_rank": 83698,
        "player_name": "Reece Hearnshaw",
        "rank": 68496,
        "rank_sort": 68550,
        "total": 2341
      }
    ]
  }
}