{
  "last_updated_data": "2026-05-24T23:28:17Z",
  "league": {
    "admin_entry": null,
    "closed": false,
    "code_privacy": "p",
    "created": "2025-07-20T23:14:33.933835Z",
    "cup_league": 2815434,
    "has_cup": true,
    "id": 314,
    "league_type": "s",
    "max_entries": null,
    "name": "Overall",
    "rank": null,
    "scoring": "c",
    "start_event": 1
  },
  "new_entries": {
    "has_next": false,
    "page": 1,
    "results": []
  },
  "standings": {
    "has_next": true,
    "page": 263,
    "results": [
      {
        "club_badge_src": null,
        "entry": 951689,
        "entry_name": "TPS/Rum/LB Champion",
        "event_total": 50,
        "has_played": true,
        "id": 6556746,
        "last_rank": 9536,
        "player_name": "Andy Tenwick",
        "rank": 13094,
        "rank_sort": 13101,
        "total": 2391
      },
      {
        "club_badge_src": null,
        "entry": 1468069,
        "entry_name": "Goldbridge Analytica",
        "event_total": 56,
        "has_played": true,
        "id": 10232974,
        "last_rank": 12141,
        "player_name": "Joe McMullen",
        "rank": 13094,
        "rank_sort": 13102,
        "total": 2391
      },
      {
        "club_badge_src": null,
        "entry": 1816173,
        "entry_name": "Lion Heart 48",
        "event_total": 82,
        "has_played": true,
        "id": 12771528,
        "last_rank": 31620,
        "player_name": "ten gunners",
        "rank": 13094,
        "rank_sort": 13103,
        "total": 2391
      },
      {
        "club_badge_src": null,
        "entry": 2475247,
        "entry_name": "Everton aren't we?",
        "event_total": 54,
        "has_played": true,
        "id": 17709288,
        "last_rank": 11237,
        "player_name": "Michael Gilchrist",
        "rank": 13094,
        "rank_sort": 13104,
        "total": 2391
      },
      {
        "club_badge_src": null,
        "entry": 3007217,
        "entry_name": "Foletto",
        "event_total": 62,
        "has_played": true,
        "id": 22121593,
        "last_rank": 15452,
        "player_name": "Folahan Olojo",
        "rank": 13094,
        "rank_sort": 13105,
        "total": 2391
      },
      {
        "club_badge_src": "https://fantasy.premierleague.com/gcs/plfpl-production-adobe-approved/plfpl-production/3082727/374e0442-11a7-46b0-9483-529560ca50fd.png",
        "entry": 3082727,
        "entry_name": "LEO fi lBernabeo",
        "event_total": 36,
        "has_played": true,
        "id": 22711597,
        "last_rank": 5173,
        "player_name": "Ayoub Sls",
        "rank": 13094,
        "rank_sort": 13106,
        "total": 2391
      },
      {
        "club_badge_src": "https://fantasy.premierleague.com/gcs/plfpl-production-adobe-approved/plfpl-production/3300926/4fccf70c-a653-4245-b040-3a25f385d82d.png",
        "entry": 3300926,
        "entry_name": "It's Nae Bad FC",
        "event_total": 55,
        "has_played": true,
        "id": 24447969,
        "last_rank": 11699,
        "player_name": "Cameron Nixon",
        "rank": 13094,
        "rank_sort": 13107,
        "total": 2391
      },
      {
        "club_badge_src": null,
        "entry": 4172140,
        "entry_name": "Rice and Shine",
        "event_total": 65,
        "has_played": true,
        "id": 31555112,
        "last_rank": 17437,
        "player_name": "Omar Hussain",
        "rank": 13094,
        "rank_sort": 13108,
        "total": 2391
      },
      {
        "club_badge_src": "https://fantasy.premierleague.com/gcs/plfpl-production-adobe-approved/plfpl-production/4774790/4434e60d-911d-4c53-8e86-7931818269b9.png",
        "entry": 4774790,
        "entry_name": "Your Wirtz Nightmare",
        "event_total": 57,
        "has_played": true,
        "id": 36754178,
        "last_rank": 12608,
        "player_name": "Alex Hughes",
        "rank": 13094,
        "rank_sort": 13109,
        "total": 2391
      },
      {
        "club_badge_src": null,
        "entry": 4784456,
        "entry_name": "Living on a prayer",
        "event_total": 34,
        "has_played": true,
        "id": 36831845,
        "last_rank": 4693,
        "player_name": "Andrew Crowther",
        "rank": 13094,
        "rank_sort": 13110,
        "total": 2391
      },
      {
        "club_badge_src": "https://fantasy.premierleague.com/gcs/plfpl-production-adobe-approved/plfpl-production/4952358/46047040-ac39-4ca1-99e4-8c29edcf19c7.png",
        "entry": 4952358,
        "entry_name": "RubbishTeamTopia",
        "event_total": 67,
        "has_played": true,
        "id": 38214441,
        "last_rank": 18790,
        "player_name": "Michael Wall",
        "rank": 13094,
        "rank_sort": 13111,
        "total": 2391
      },
      {
        "club_badge_src": null,
        "entry": 5061000,
        "entry_name": "nabylad",
        "event_total": 50,
        "has_played": true,
        "id": 39107936,
        "last_rank": 9445,
        "player_name": "Connor Duncan",
        "rank": 13094,
        "rank_sort": 13112,
        "total": 2391
      },
      {
        "club_badge_src": null,
        "entry": 5164875,
        "entry_name": "Messi Business",
        "event_total": 39,
        "has_played": true,
        "id": 39969932,
        "last_rank": 5940,
        "player_name": "Felix Solhaug",
        "rank": 13094,
        "rank_sort": 13113,
        "total": 2391
      },
      {
        "club_badge_src": null,
        "entry": 5202592,
        "entry_name": "AlghulayqahXI",
        "event_total": 68,
        "has_played": true,
        "id": 40292695,
        "last_rank": 19376,
        "player_name": "Abdulaziz Alghulayqah",
        "rank": 13094,
        "rank_sort": 13114,
        "total": 2391
      },
      {
        "club_badge_src": null,
        "entry": 5421369,
        "entry_name": "Boom Xhakalaka",
        "event_total": 59,
        "has_played": true,
        "id": 42164856,
        "last_rank": 13754,
        "player_name": "Eamonn Donnelly",
        "rank": 13094,
        "rank_sort": 13115,
        "total": 2391
      },
      {
        "club_badge_src": null,
        "entry": 5683035,
        "entry_name": "ChrisCrossAlbieScore",
        "event_total": 70,
        "has_played": true,
        "id": 44482123,
        "last_rank": 20888,
        "player_name": "Chris Gamm",
        "rank": 13094,
        "rank_sort": 13116,
        "total": 2391
      },
      {
        "club_badge_src": null,
        "entry": 5792861,
        "entry_name": "Hey Ho, Sesko",
        "event_total": 49,
        "has_played": true,
        "id": 45436890,
        "last_rank": 9142,
        "player_name": "Ben Stancombe",
        "rank": 13094,
        "rank_sort": 13117,
        "total": 2391
      },
      {
        "club_badge_src": null,
        "entry": 6030876,
        "entry_name": "FC Crisp",
        "event_total": 66,
        "has_played": true,
        "id": 47574089,
        "last_rank": 17989,
        "player_name": "Christoffer Dahl",
        "rank": 13094,
        "rank_sort": 13118,
        "total": 2391
      },
      {
        "club_badge_src": null,
        "entry": 6031094,
        "entry_name": "Fing-Arblaster FC",
        "event_total": 55,
        "has_played": true,
        "id": 47575824,
        "last_rank": 11608,
        "player_name": "Josh Pennell",
        "rank": 13094,
        "rank_sort": 13119,
        "total": 2391
      },
      {
        "club_badge_src": null,
        "entry": 6240997,
        "entry_name": "Ruben's Sandwich",
        "event_total": 71,
        "has_played": true,
        "id": 49397316,
        "last_rank": 21775,
        "player_name": "Nick Shears",
        "rank": 13094,
        "rank_sort": 13120,
        "total": 2391
      },
      {
        "club_badge_src": null,
        "entry": 6354404,
        "entry_name": "Slim Pickings",
        "event_total": 75,
        "has_played": true,
        "id": 50517977,
        "last_rank": 24832,
        "player_name": "Ali Copland",
        "rank": 13094,
        "rank_sort": 13121,
        "total": 2391
      },
      {
        "club_badge_src": null,
        "entry": 6429970,
        "entry_name": "A li\u00f0i\u00f0",
        "event_total": 64,
        "has_played": true,
        "id": 51184845,
        "last_rank": 16675,
        "player_name": "Beinir Johannesen",
        "rank": 13094,
        "rank_sort": 13122,
        "total": 2391
      },
      {
        "club_badge_src": null,
        "entry": 6594806,
        "entry_name": "Gangsters Allardyce",
        "event_total": 62,
        "has_played": true,
        "id": 52674156,
        "last_rank": 15452,
        "player_name": "Oliver Senior",
        "rank": 13094,
        "rank_sort": 13123,
        "total": 2391
      },
      {
        "club_badge_src": null,
        "entry": 6769539,
        "entry_name": "adrhadFc",
        "event_total": 62,
        "has_played": true,
        "id": 54203112,
        "last_rank": 15452,
        "player_name": "Adrian Haddad",
        "rank": 13094,
        "rank_sort": 13124,
        "total": 2391
      },
      {
        "club_badge_src": null,
        "entry": 7006627,
        "entry_name": "Bowen 747",
        "event_total": 57,
        "has_played": true,
        "id": 56264356,
        "last_rank": 12705,
        "player_name": "George Francis",
        "rank": 13094,
        "rank_sort": 13125,
        "total": 2391
      },
      {
        "club_badge_src": null,
        "entry": 7009667,
        "entry_name": "#winning",
        "event_total": 67,
        "has_played": true,
        "id": 56292081,
        "last_rank": 18691,
        "player_name": "Jan Bernhard Moen",
        "rank": 13094,
        "rank_sort": 13126,
        "total": 2391
      },
      {
        "club_badge_src": null,
        "entry": 7397647,
        "entry_name": "slot's tots",
        "event_total": 62,
        "has_played": true,
        "id": 59992568,
        "last_rank": 15550,
        "player_name": "Justin Park",
        "rank": 13094,
        "rank_sort": 13127,
        "total": 2391
      },
      {
        "club_badge_src": null,
        "entry": 7578794,
        "entry_name": "vouna fc",
        "event_total": 42,
        "has_played": true,
        "id": 62072579,
        "last_rank": 6752,
        "player_name": "\u0394\u03b9\u03b1\u03bc\u03b1\u03bd\u03c4\u03b7\u03c2 \u03a8\u03c5\u03c7\u03b9\u03b1\u03c2",
        "rank": 13094,
        "rank_sort": 13128,
        "total": 2391
      },
      {
        "club_badge_src": null,
        "entry": 7594379,
        "entry_name": "Fc Bazcerlona",
        "event_total": 49,
        "has_played": true,
        "id": 62214699,
        "last_rank": 9089,
        "player_name": "Barry Fitzgerald",
        "rank": 13094,
        "rank_sort": 13129,
        "total": 2391
      },
      {
        "club_badge_src": null,
        "entry": 8178968,
        "entry_name": "tigrehermano",
        "event_total": 67,
        "has_played": true,
        "id": 67542149,
        "last_rank": 18640,
        "player_name": "Anton Schuller",
        "rank": 13094,
        "rank_sort": 13130,
        "total": 2391
      },
      {
        "club_badge_src": null,
        "entry": 8187739,
        "entry_name": "champions 24/25",
        "event_total": 52,
        "has_played": true,
        "id": 67623696,
        "last_rank": 10263,
        "player_name": "Joshua Curphey",
        "rank": 13094,
        "rank_sort": 13131,
        "total": 2391
      },
      {
        "club_badge_src": null,
        "entry": 9368595,
        "entry_name": "Merton Park FC",
        "event_total": 57,
        "has_played": true,
        "id": 79067164,
        "last_rank": 12608,
        "player_name": "Ony Chima",
        "rank": 13094,
        "rank_sort": 13132,
        "total": 2391
      },
      {
        "club_badge_src": null,
        "entry": 9442478,
        "entry_name": "Ctrl+Alt+deLigt",
        "event_total": 49,
        "has_played": true,
        "id": 79778532,
        "last_rank": 9142,
        "player_name": "Richy Rich",
        "rank": 13094,
        "rank_sort": 13133,
        "total": 2391
      },
      {
        "club_badge_src": null,
        "entry": 178,
        "entry_name": "Is Yours Gold ?",
        "event_total": 67,
        "has_played": true,
        "id": 981,
        "last_rank": 18790,
        "player_name": "Mohammed Alawaji",
        "rank": 13134,
        "rank_sort": 13134,
        "total": 2391
      },
      {
        "club_badge_src": null,
        "entry": 6854,
        "entry_name": "Delilah's Bag of . .",
        "event_total": 63,
        "has_played": true,
        "id": 39429,
        "last_rank": 16062,
        "player_name": "Stuart Donkin",
        "rank": 13134,
        "rank_sort": 13135,
        "total": 2391
      },
      {
        "club_badge_src": "https://fantasy.premierleague.com/gcs/plfpl-production-adobe-approved/plfpl-production/14429/2337cace-0e23-4e07-b7a0-862935eefaea.png",
        "entry": 14429,
        "entry_name": "Black.Mamba.Cats",
        "event_total": 71,
        "has_played": true,
        "id": 87622,
        "last_rank": 21775,
        "player_name": "Tudor Pana",
        "rank": 13134,
        "rank_sort": 13136,
        "total": 2391
      },
      {
        "club_badge_src": null,
        "entry": 18033,
        "entry_name": "Vegard team",
        "event_total": 58,
        "has_played": true,
        "id": 112064,
        "last_rank": 13184,
        "player_name": "Vegard Villmones",
        "rank": 13134,
        "rank_sort": 13137,
        "total": 2391
      },
      {
        "club_badge_src": null,
        "entry": 21996,
        "entry_name": "No Name",
        "event_total": 62,
        "has_played": true,
        "id": 138044,
        "last_rank": 15416,
        "player_name": "Mariusz Gierszewski",
        "rank": 13134,
        "rank_sort": 13138,
        "total": 2391
      },
      {
        "club_badge_src": null,
        "entry": 35744,
        "entry_name": "Rice Rice Baby",
        "event_total": 47,
        "has_played": true,
        "id": 228803,
        "last_rank": 8382,
        "player_name": "James Syrett",
        "rank": 13134,
        "rank_sort": 13139,
        "total": 2391
      },
      {
        "club_badge_src": null,
        "entry": 46117,
        "entry_name": "FarFromN17",
        "event_total": 67,
        "has_played": true,
        "id": 295740,
        "last_rank": 18790,
        "player_name": "Chris Povey",
        "rank": 13134,
        "rank_sort": 13140,
        "total": 2391
      },
      {
        "club_badge_src": null,
        "entry": 50403,
        "entry_name": "kinder mbeumo",
        "event_total": 56,
        "has_played": true,
        "id": 324190,
        "last_rank": 12200,
        "player_name": "Zac Rowell",
        "rank": 13134,
        "rank_sort": 13141,
        "total": 2391
      },
      {
        "club_badge_src": null,
        "entry": 52869,
        "entry_name": "Krafth Beer",
        "event_total": 64,
        "has_played": true,
        "id": 339947,
        "last_rank": 16807,
        "player_name": "Patrick Goodwin",
        "rank": 13134,
        "rank_sort": 13142,
        "total": 2391
      },
      {
        "club_badge_src": null,
        "entry": 56496,
        "entry_name": "Sharp shooter",
        "event_total": 48,
        "has_played": true,
        "id": 363873,
        "last_rank": 8758,
        "player_name": "John Ndudim Chikezie",
        "rank": 13134,
        "rank_sort": 13143,
        "total": 2391
      },
      {
        "club_badge_src": null,
        "entry": 68441,
        "entry_name": "Makis1893",
        "event_total": 64,
        "has_played": true,
        "id": 443465,
        "last_rank": 16729,
        "player_name": "Tom\u00e1\u0161 M\u00e1ka",
        "rank": 13134,
        "rank_sort": 13144,
        "total": 2391
      },
      {
        "club_badge_src": null,
        "entry": 80370,
        "entry_name": "walsh destroyers",
        "event_total": 50,
        "has_played": true,
        "id": 522919,
        "last_rank": 9536,
        "player_name": "Craig Nuttall",
        "rank": 13134,
        "rank_sort": 13145,
        "total": 2391
      },
      {
        "club_badge_src": null,
        "entry": 84032,
        "entry_name": "Beef Cherki",
        "event_total": 64,
        "has_played": true,
        "id": 547017,
        "last_rank": 16807,
        "player_name": "Sid Bhardwaj",
        "rank": 13134,
        "rank_sort": 13146,
        "total": 2391
      },
      {
        "club_badge_src": "https://fantasy.premierleague.com/gcs/plfpl-production-adobe-approved/plfpl-production/87523/40f20f72-1239-4100-bc71-54a34688ef8b.png",
        "entry": 87523,
        "entry_name": "VARcical United",
        "event_total": 52,
        "has_played": true,
        "id": 570809,
        "last_rank": 10288,
        "player_name": "Socky S",
        "rank": 13134,
        "rank_sort": 13147,
        "total": 2391
      },
      {
        "club_badge_src": null,
        "entry": 87640,
        "entry_name": "Writzbumps",
        "event_total": 77,
        "has_played": true,
        "id": 571594,
        "last_rank": 26631,
        "player_name": "Ellis Tomlin",
        "rank": 13134,
        "rank_sort": 13148,
        "total": 2391
      },
      {
        "club_badge_src": null,
        "entry": 99547,
        "entry_name": "Tangerina Mec\u00e2nica",
        "event_total": 41,
        "has_played": true,
        "id": 649838,
        "last_rank": 6448,
        "player_name": "Jo\u00e3o Figueiredo",
        "rank": 13134,
        "rank_sort": 13149,
        "total": 2391
      },
      {
        "club_badge_src": "https://fantasy.premierleague.com/gcs/plfpl-production-adobe-approved/plfpl-production/109332/20c9cc14-dac4-44cb-aac2-cc0929b7194d.png",
        "entry": 109332,
        "entry_name": "CSURA 25",
        "event_total": 62,
        "has_played": true,
        "id": 712838,
        "last_rank": 15452,
        "player_name": "Surajitt Beer",
        "rank": 13134,
        "rank_sort": 13150,
        "total": 2391
      }
    ]
  }
}