{
  "last_updated_data": "2026-05-24T23:28:17Z",
  "league": {
    "admin_entry": null,
    "closed": false,
    "code_privacy": "p",
    "created": "2025-07-20T23:14:33.933835Z",
    "cup_league": 2815434,
    "has_cup": true,
    "id": 314,
    "league_type": "s",
    "max_entries": null,
    "name": "Overall",
    "rank": null,
    "scoring": "c",
    "start_event": 1
  },
  "new_entries": {
    "has_next": false,
    "page": 1,
    "results": []
  },
  "standings": {
    "has_next": true,
    "page": 1096,
    "results": [
      {
        "club_badge_src": null,
        "entry": 3675705,
        "entry_name": "Ludicrous Display",
        "event_total": 62,
        "has_played": true,
        "id": 27414875,
        "last_rank": 64005,
        "player_name": "Toby Burbidge",
        "rank": 54594,
        "rank_sort": 54751,
        "total": 2349
      },
      {
        "club_badge_src": null,
        "entry": 3825205,
        "entry_name": "Change Name",
        "event_total": 69,
        "has_played": true,
        "id": 28611800,
        "last_rank": 69323,
        "player_name": "Matt Hayes",
        "rank": 54594,
        "rank_sort": 54752,
        "total": 2349
      },
      {
        "club_badge_src": null,
        "entry": 3855029,
        "entry_name": "My Wirtz Behaviour",
        "event_total": 57,
        "has_played": true,
        "id": 28900318,
        "last_rank": 55514,
        "player_name": "JJ Irukwu",
        "rank": 54594,
        "rank_sort": 54753,
        "total": 2349
      },
      {
        "club_badge_src": null,
        "entry": 3944270,
        "entry_name": "Frangos Villans",
        "event_total": 80,
        "has_played": true,
        "id": 29671266,
        "last_rank": 104388,
        "player_name": "Brodie Watson",
        "rank": 54594,
        "rank_sort": 54754,
        "total": 2349
      },
      {
        "club_badge_src": "https://fantasy.premierleague.com/gcs/plfpl-production-adobe-approved/plfpl-production/3946644/002f99dc-ff0a-4d54-a276-466e02f0e443.png",
        "entry": 3946644,
        "entry_name": "DJ20",
        "event_total": 60,
        "has_played": true,
        "id": 29689427,
        "last_rank": 60168,
        "player_name": "Jeffrey Au",
        "rank": 54594,
        "rank_sort": 54755,
        "total": 2349
      },
      {
        "club_badge_src": "https://fantasy.premierleague.com/gcs/plfpl-production-adobe-approved/plfpl-production/3951084/666f67ec-956a-4b1e-9a3c-a88d6f8d11bb.png",
        "entry": 3951084,
        "entry_name": "Brampton Fc",
        "event_total": 67,
        "has_played": true,
        "id": 29724024,
        "last_rank": 73720,
        "player_name": "S A",
        "rank": 54594,
        "rank_sort": 54756,
        "total": 2349
      },
      {
        "club_badge_src": null,
        "entry": 3991533,
        "entry_name": "A.Qahwaji",
        "event_total": 57,
        "has_played": true,
        "id": 30056017,
        "last_rank": 48642,
        "player_name": "Abdulrahman Qahwaji",
        "rank": 54594,
        "rank_sort": 54757,
        "total": 2349
      },
      {
        "club_badge_src": null,
        "entry": 4029381,
        "entry_name": "Stanley & Arthur FC",
        "event_total": 52,
        "has_played": true,
        "id": 30375795,
        "last_rank": 47596,
        "player_name": "Danny Mulrooney",
        "rank": 54594,
        "rank_sort": 54758,
        "total": 2349
      },
      {
        "club_badge_src": null,
        "entry": 4050940,
        "entry_name": "\u062d\u064a\u062f\u0631 \u0643\u0646\u0648\u0646",
        "event_total": 70,
        "has_played": true,
        "id": 30556810,
        "last_rank": 63390,
        "player_name": "haider kanon",
        "rank": 54594,
        "rank_sort": 54759,
        "total": 2349
      },
      {
        "club_badge_src": null,
        "entry": 4090813,
        "entry_name": "Dodsquad",
        "event_total": 52,
        "has_played": true,
        "id": 30886049,
        "last_rank": 46839,
        "player_name": "Joe Dodsworth",
        "rank": 54594,
        "rank_sort": 54760,
        "total": 2349
      },
      {
        "club_badge_src": null,
        "entry": 4106508,
        "entry_name": "MbueMon",
        "event_total": 56,
        "has_played": true,
        "id": 31011498,
        "last_rank": 47163,
        "player_name": "Dom Dominator",
        "rank": 54594,
        "rank_sort": 54761,
        "total": 2349
      },
      {
        "club_badge_src": null,
        "entry": 4337775,
        "entry_name": "JM's Fergie Time XI",
        "event_total": 55,
        "has_played": true,
        "id": 32933603,
        "last_rank": 51984,
        "player_name": "Gary Myers",
        "rank": 54594,
        "rank_sort": 54762,
        "total": 2349
      },
      {
        "club_badge_src": "https://fantasy.premierleague.com/gcs/plfpl-production-adobe-approved/plfpl-production/4402732/f358f844-c123-42ff-9f5e-6b8094023a90.png",
        "entry": 4402732,
        "entry_name": "Bombblast-3-4-3",
        "event_total": 69,
        "has_played": true,
        "id": 33485624,
        "last_rank": 77999,
        "player_name": "Kelvin Mpofu",
        "rank": 54594,
        "rank_sort": 54763,
        "total": 2349
      },
      {
        "club_badge_src": "https://fantasy.premierleague.com/gcs/plfpl-production-adobe-approved/plfpl-production/4424115/d1e79bbe-7888-4fe9-9797-dee3b4d0ceea.png",
        "entry": 4424115,
        "entry_name": "The Legion",
        "event_total": 67,
        "has_played": true,
        "id": 33666031,
        "last_rank": 73720,
        "player_name": "Jamie Wardley",
        "rank": 54594,
        "rank_sort": 54764,
        "total": 2349
      },
      {
        "club_badge_src": null,
        "entry": 4509049,
        "entry_name": "We Want Three!",
        "event_total": 72,
        "has_played": true,
        "id": 34380908,
        "last_rank": 84731,
        "player_name": "Stuart Stevens",
        "rank": 54594,
        "rank_sort": 54765,
        "total": 2349
      },
      {
        "club_badge_src": null,
        "entry": 4557464,
        "entry_name": "MSYA",
        "event_total": 47,
        "has_played": true,
        "id": 34775766,
        "last_rank": 40503,
        "player_name": "Mahmoud Gaber",
        "rank": 54594,
        "rank_sort": 54766,
        "total": 2349
      },
      {
        "club_badge_src": null,
        "entry": 4633624,
        "entry_name": "Kinder Mbuemo",
        "event_total": 55,
        "has_played": true,
        "id": 35432183,
        "last_rank": 52205,
        "player_name": "Kevin Tharmalingam",
        "rank": 54594,
        "rank_sort": 54767,
        "total": 2349
      },
      {
        "club_badge_src": null,
        "entry": 4666560,
        "entry_name": "CLAUDEFIESTA",
        "event_total": 63,
        "has_played": true,
        "id": 35743047,
        "last_rank": 58388,
        "player_name": "claude fiesta",
        "rank": 54594,
        "rank_sort": 54768,
        "total": 2349
      },
      {
        "club_badge_src": null,
        "entry": 4689920,
        "entry_name": "HaCunha Matata",
        "event_total": 64,
        "has_played": true,
        "id": 35945835,
        "last_rank": 67063,
        "player_name": "Alex Barton",
        "rank": 54594,
        "rank_sort": 54769,
        "total": 2349
      },
      {
        "club_badge_src": null,
        "entry": 4724730,
        "entry_name": "Reece's Puffs",
        "event_total": 67,
        "has_played": true,
        "id": 36314703,
        "last_rank": 73038,
        "player_name": "Arjun Prajapati",
        "rank": 54594,
        "rank_sort": 54770,
        "total": 2349
      },
      {
        "club_badge_src": null,
        "entry": 4743898,
        "entry_name": "100% Quality",
        "event_total": 57,
        "has_played": true,
        "id": 36501879,
        "last_rank": 54667,
        "player_name": "Cantona Gordon",
        "rank": 54594,
        "rank_sort": 54771,
        "total": 2349
      },
      {
        "club_badge_src": null,
        "entry": 4744413,
        "entry_name": "Garnacho cheese",
        "event_total": 48,
        "has_played": true,
        "id": 36505791,
        "last_rank": 41824,
        "player_name": "Donncha Quigley",
        "rank": 54594,
        "rank_sort": 54772,
        "total": 2349
      },
      {
        "club_badge_src": null,
        "entry": 4877437,
        "entry_name": "Talhussan",
        "event_total": 72,
        "has_played": true,
        "id": 37597997,
        "last_rank": 84731,
        "player_name": "Talal Alhassan",
        "rank": 54594,
        "rank_sort": 54773,
        "total": 2349
      },
      {
        "club_badge_src": "https://fantasy.premierleague.com/gcs/plfpl-production-adobe-approved/plfpl-production/4887936/6d4d3909-591a-4937-b39d-716f43b35f9f.png",
        "entry": 4887936,
        "entry_name": "Vini Vidi Virgil",
        "event_total": 55,
        "has_played": true,
        "id": 37685209,
        "last_rank": 52205,
        "player_name": "Stuart Robertson",
        "rank": 54594,
        "rank_sort": 54774,
        "total": 2349
      },
      {
        "club_badge_src": null,
        "entry": 4947085,
        "entry_name": "Rednose Reijnders FC",
        "event_total": 68,
        "has_played": true,
        "id": 38171787,
        "last_rank": 75537,
        "player_name": "Chloe Martin",
        "rank": 54594,
        "rank_sort": 54775,
        "total": 2349
      },
      {
        "club_badge_src": null,
        "entry": 5004272,
        "entry_name": "Y7",
        "event_total": 75,
        "has_played": true,
        "id": 38641710,
        "last_rank": 91835,
        "player_name": "Yazeed Alhusayni",
        "rank": 54594,
        "rank_sort": 54776,
        "total": 2349
      },
      {
        "club_badge_src": null,
        "entry": 5014320,
        "entry_name": "Mohmed.MadridCR7",
        "event_total": 64,
        "has_played": true,
        "id": 38722238,
        "last_rank": 67422,
        "player_name": "Mohammed Younis",
        "rank": 54594,
        "rank_sort": 54777,
        "total": 2349
      },
      {
        "club_badge_src": null,
        "entry": 5044690,
        "entry_name": "Zirkmate.com",
        "event_total": 64,
        "has_played": true,
        "id": 38968129,
        "last_rank": 59632,
        "player_name": "Raul Ehab",
        "rank": 54594,
        "rank_sort": 54778,
        "total": 2349
      },
      {
        "club_badge_src": null,
        "entry": 5072890,
        "entry_name": "Craven Arepas",
        "event_total": 64,
        "has_played": true,
        "id": 39204059,
        "last_rank": 67422,
        "player_name": "Rogdy Espinoza",
        "rank": 54594,
        "rank_sort": 54779,
        "total": 2349
      },
      {
        "club_badge_src": null,
        "entry": 5117123,
        "entry_name": "Kroos Control",
        "event_total": 60,
        "has_played": true,
        "id": 39562504,
        "last_rank": 60168,
        "player_name": "Harrison O-Connor",
        "rank": 54594,
        "rank_sort": 54780,
        "total": 2349
      },
      {
        "club_badge_src": null,
        "entry": 5182830,
        "entry_name": "Rabcelona",
        "event_total": 62,
        "has_played": true,
        "id": 40118187,
        "last_rank": 64005,
        "player_name": "Mo Ibrahim",
        "rank": 54594,
        "rank_sort": 54781,
        "total": 2349
      },
      {
        "club_badge_src": null,
        "entry": 5228422,
        "entry_name": "FarkeBall",
        "event_total": 70,
        "has_played": true,
        "id": 40514048,
        "last_rank": 79817,
        "player_name": "Michael Higgs",
        "rank": 54594,
        "rank_sort": 54782,
        "total": 2349
      },
      {
        "club_badge_src": "https://fantasy.premierleague.com/gcs/plfpl-production-adobe-approved/plfpl-production/5242938/53007db6-7fc3-4543-86e7-a204700aebd4.png",
        "entry": 5242938,
        "entry_name": "Baxterville Smokers",
        "event_total": 49,
        "has_played": true,
        "id": 40631826,
        "last_rank": 43168,
        "player_name": "John Okell",
        "rank": 54594,
        "rank_sort": 54783,
        "total": 2349
      },
      {
        "club_badge_src": null,
        "entry": 5476686,
        "entry_name": "Mijau Mijau",
        "event_total": 63,
        "has_played": true,
        "id": 42635928,
        "last_rank": 65475,
        "player_name": "Antonio Bo\u0161njak",
        "rank": 54594,
        "rank_sort": 54784,
        "total": 2349
      },
      {
        "club_badge_src": "https://fantasy.premierleague.com/gcs/plfpl-production-adobe-approved/plfpl-production/5503694/f336f8e0-18bc-4638-97c3-701407c4ab4f.png",
        "entry": 5503694,
        "entry_name": "ManChestHair United",
        "event_total": 52,
        "has_played": true,
        "id": 42886599,
        "last_rank": 47596,
        "player_name": "Benjamin Naro",
        "rank": 54594,
        "rank_sort": 54785,
        "total": 2349
      },
      {
        "club_badge_src": null,
        "entry": 5545653,
        "entry_name": "Little Legs",
        "event_total": 83,
        "has_played": true,
        "id": 43276764,
        "last_rank": 112960,
        "player_name": "Dave Brown",
        "rank": 54594,
        "rank_sort": 54786,
        "total": 2349
      },
      {
        "club_badge_src": null,
        "entry": 5551329,
        "entry_name": "R Tayta's R&W Army",
        "event_total": 63,
        "has_played": true,
        "id": 43327270,
        "last_rank": 65475,
        "player_name": "Martin Heath",
        "rank": 54594,
        "rank_sort": 54787,
        "total": 2349
      },
      {
        "club_badge_src": null,
        "entry": 5594790,
        "entry_name": "Business As Usual",
        "event_total": 70,
        "has_played": true,
        "id": 43711609,
        "last_rank": 63390,
        "player_name": "James Leigh",
        "rank": 54594,
        "rank_sort": 54788,
        "total": 2349
      },
      {
        "club_badge_src": null,
        "entry": 5689235,
        "entry_name": "Kinder Mbeumo FC",
        "event_total": 63,
        "has_played": true,
        "id": 44535525,
        "last_rank": 58388,
        "player_name": "Eoin O'Halloran",
        "rank": 54594,
        "rank_sort": 54789,
        "total": 2349
      },
      {
        "club_badge_src": null,
        "entry": 5694545,
        "entry_name": "JEHA 11",
        "event_total": 52,
        "has_played": true,
        "id": 44580963,
        "last_rank": 47417,
        "player_name": "JEHA 11",
        "rank": 54594,
        "rank_sort": 54790,
        "total": 2349
      },
      {
        "club_badge_src": null,
        "entry": 5704974,
        "entry_name": "MoKh",
        "event_total": 55,
        "has_played": true,
        "id": 44670232,
        "last_rank": 51984,
        "player_name": "Moamen Khairy",
        "rank": 54594,
        "rank_sort": 54791,
        "total": 2349
      },
      {
        "club_badge_src": null,
        "entry": 5778054,
        "entry_name": "Dunder Mifflin",
        "event_total": 69,
        "has_played": true,
        "id": 45306677,
        "last_rank": 69323,
        "player_name": "Nikola Baj\u010di\u0107",
        "rank": 54594,
        "rank_sort": 54792,
        "total": 2349
      },
      {
        "club_badge_src": null,
        "entry": 5785093,
        "entry_name": "MartiMelli",
        "event_total": 59,
        "has_played": true,
        "id": 45367093,
        "last_rank": 58071,
        "player_name": "Mel Boscher",
        "rank": 54594,
        "rank_sort": 54793,
        "total": 2349
      },
      {
        "club_badge_src": null,
        "entry": 5940820,
        "entry_name": "Graceful Stag's",
        "event_total": 50,
        "has_played": true,
        "id": 46716019,
        "last_rank": 44303,
        "player_name": "Jase Crooks",
        "rank": 54594,
        "rank_sort": 54794,
        "total": 2349
      },
      {
        "club_badge_src": null,
        "entry": 6006056,
        "entry_name": "Trust the Process",
        "event_total": 65,
        "has_played": true,
        "id": 47351860,
        "last_rank": 61606,
        "player_name": "Ismail Ravat",
        "rank": 54594,
        "rank_sort": 54795,
        "total": 2349
      },
      {
        "club_badge_src": null,
        "entry": 6194269,
        "entry_name": "Daves Donkeys",
        "event_total": 71,
        "has_played": true,
        "id": 48995967,
        "last_rank": 73038,
        "player_name": "Dave Richards",
        "rank": 54594,
        "rank_sort": 54796,
        "total": 2349
      },
      {
        "club_badge_src": null,
        "entry": 6222302,
        "entry_name": "Parker\u2019s Pieces",
        "event_total": 60,
        "has_played": true,
        "id": 49235991,
        "last_rank": 60462,
        "player_name": "David Bailey",
        "rank": 54594,
        "rank_sort": 54797,
        "total": 2349
      },
      {
        "club_badge_src": "https://fantasy.premierleague.com/gcs/plfpl-production-adobe-approved/plfpl-production/6292690/50481a2a-308b-4a4f-9956-d427fe5ee7dc.png",
        "entry": 6292690,
        "entry_name": "Pep's Team",
        "event_total": 67,
        "has_played": true,
        "id": 49863835,
        "last_rank": 73720,
        "player_name": "Pedro Hildebrandt",
        "rank": 54594,
        "rank_sort": 54798,
        "total": 2349
      },
      {
        "club_badge_src": null,
        "entry": 6359174,
        "entry_name": "Ruben Scamorim",
        "event_total": 67,
        "has_played": true,
        "id": 50560588,
        "last_rank": 73423,
        "player_name": "Bilal Hussain",
        "rank": 54594,
        "rank_sort": 54799,
        "total": 2349
      },
      {
        "club_badge_src": null,
        "entry": 6469927,
        "entry_name": "Gas",
        "event_total": 50,
        "has_played": true,
        "id": 51549618,
        "last_rank": 39023,
        "player_name": "Toby Woodland",
        "rank": 54594,
        "rank_sort": 54800,
        "total": 2349
      }
    ]
  }
}