{
  "last_updated_data": "2026-05-24T23:28:17Z",
  "league": {
    "admin_entry": null,
    "closed": false,
    "code_privacy": "p",
    "created": "2025-07-20T23:14:33.933835Z",
    "cup_league": 2815434,
    "has_cup": true,
    "id": 314,
    "league_type": "s",
    "max_entries": null,
    "name": "Overall",
    "rank": null,
    "scoring": "c",
    "start_event": 1
  },
  "new_entries": {
    "has_next": false,
    "page": 1,
    "results": []
  },
  "standings": {
    "has_next": true,
    "page": 1261,
    "results": [
      {
        "club_badge_src": null,
        "entry": 4642700,
        "entry_name": "Solanke Cowriter",
        "event_total": 65,
        "has_played": true,
        "id": 35511742,
        "last_rank": 79817,
        "player_name": "patrick o'sullivan",
        "rank": 62778,
        "rank_sort": 63001,
        "total": 2344
      },
      {
        "club_badge_src": null,
        "entry": 4676616,
        "entry_name": "Cold as Isak",
        "event_total": 63,
        "has_played": true,
        "id": 35827510,
        "last_rank": 75537,
        "player_name": "Jordan Kellaway",
        "rank": 62778,
        "rank_sort": 63002,
        "total": 2344
      },
      {
        "club_badge_src": null,
        "entry": 4705907,
        "entry_name": "Cech Mate",
        "event_total": 86,
        "has_played": true,
        "id": 36083499,
        "last_rank": 135737,
        "player_name": "James O'Donoghue",
        "rank": 62778,
        "rank_sort": 63003,
        "total": 2344
      },
      {
        "club_badge_src": null,
        "entry": 4740606,
        "entry_name": "BipBop",
        "event_total": 57,
        "has_played": true,
        "id": 36475322,
        "last_rank": 63724,
        "player_name": "Charles Peace",
        "rank": 62778,
        "rank_sort": 63004,
        "total": 2344
      },
      {
        "club_badge_src": null,
        "entry": 4755391,
        "entry_name": "MurderOn ZidaneFloor",
        "event_total": 49,
        "has_played": true,
        "id": 36594190,
        "last_rank": 50199,
        "player_name": "peter walsh",
        "rank": 62778,
        "rank_sort": 63005,
        "total": 2344
      },
      {
        "club_badge_src": "https://fantasy.premierleague.com/gcs/plfpl-production-adobe-approved/plfpl-production/4790735/3753a9a5-be0d-4743-bb7a-ea5959dc636d.png",
        "entry": 4790735,
        "entry_name": "La Campeons",
        "event_total": 52,
        "has_played": true,
        "id": 36882296,
        "last_rank": 54494,
        "player_name": "Mohammed Miah",
        "rank": 62778,
        "rank_sort": 63006,
        "total": 2344
      },
      {
        "club_badge_src": null,
        "entry": 4893586,
        "entry_name": "X",
        "event_total": 66,
        "has_played": true,
        "id": 37731173,
        "last_rank": 73038,
        "player_name": "Colin Spain",
        "rank": 62778,
        "rank_sort": 63007,
        "total": 2344
      },
      {
        "club_badge_src": null,
        "entry": 4973869,
        "entry_name": "Henderson's Grealish",
        "event_total": 50,
        "has_played": true,
        "id": 38392935,
        "last_rank": 51720,
        "player_name": "George Pierson",
        "rank": 62778,
        "rank_sort": 63008,
        "total": 2344
      },
      {
        "club_badge_src": "https://fantasy.premierleague.com/gcs/plfpl-production-adobe-approved/plfpl-production/4991425/fc7c2772-dc9e-4ded-87eb-4b8f48fa4370.png",
        "entry": 4991425,
        "entry_name": "Brown Daddy",
        "event_total": 56,
        "has_played": true,
        "id": 38535383,
        "last_rank": 61950,
        "player_name": "Reza M",
        "rank": 62778,
        "rank_sort": 63009,
        "total": 2344
      },
      {
        "club_badge_src": null,
        "entry": 5028977,
        "entry_name": "iSak at this game",
        "event_total": 52,
        "has_played": true,
        "id": 38841052,
        "last_rank": 54667,
        "player_name": "Ozan Kiani",
        "rank": 62778,
        "rank_sort": 63010,
        "total": 2344
      },
      {
        "club_badge_src": null,
        "entry": 5138478,
        "entry_name": "Clynam",
        "event_total": 76,
        "has_played": true,
        "id": 39746828,
        "last_rank": 106259,
        "player_name": "Connor Lynam",
        "rank": 62778,
        "rank_sort": 63011,
        "total": 2344
      },
      {
        "club_badge_src": null,
        "entry": 5285721,
        "entry_name": "Imrane",
        "event_total": 77,
        "has_played": true,
        "id": 40970591,
        "last_rank": 109863,
        "player_name": "Imrane Laf",
        "rank": 62778,
        "rank_sort": 63012,
        "total": 2344
      },
      {
        "club_badge_src": "https://fantasy.premierleague.com/gcs/plfpl-production-adobe-approved/plfpl-production/5287546/074149d6-d85e-44b4-8372-c1123426bd57.png",
        "entry": 5287546,
        "entry_name": "Only One Viktor",
        "event_total": 54,
        "has_played": true,
        "id": 40985258,
        "last_rank": 58388,
        "player_name": "Nick Frank",
        "rank": 62778,
        "rank_sort": 63013,
        "total": 2344
      },
      {
        "club_badge_src": null,
        "entry": 5306039,
        "entry_name": "Madwookie Nation",
        "event_total": 73,
        "has_played": true,
        "id": 41130244,
        "last_rank": 99296,
        "player_name": "Mateusz Hamera",
        "rank": 62778,
        "rank_sort": 63014,
        "total": 2344
      },
      {
        "club_badge_src": null,
        "entry": 5325457,
        "entry_name": "Kushvadi",
        "event_total": 57,
        "has_played": true,
        "id": 41284080,
        "last_rank": 56180,
        "player_name": "Ismail Sonvadi",
        "rank": 62778,
        "rank_sort": 63015,
        "total": 2344
      },
      {
        "club_badge_src": "https://fantasy.premierleague.com/gcs/plfpl-production-adobe-approved/plfpl-production/5325938/f563a002-6eb1-4ba7-97b4-fde5fa7e1d9c.png",
        "entry": 5325938,
        "entry_name": "north side",
        "event_total": 64,
        "has_played": true,
        "id": 41287851,
        "last_rank": 77258,
        "player_name": "Mehdi Bn",
        "rank": 62778,
        "rank_sort": 63016,
        "total": 2344
      },
      {
        "club_badge_src": null,
        "entry": 5331091,
        "entry_name": "Tonali Eclipse",
        "event_total": 64,
        "has_played": true,
        "id": 41329118,
        "last_rank": 77258,
        "player_name": "Dominic Garrity",
        "rank": 62778,
        "rank_sort": 63017,
        "total": 2344
      },
      {
        "club_badge_src": null,
        "entry": 5423543,
        "entry_name": "HeungMin Centipede",
        "event_total": 63,
        "has_played": true,
        "id": 42183180,
        "last_rank": 75537,
        "player_name": "Josh Thompson",
        "rank": 62778,
        "rank_sort": 63018,
        "total": 2344
      },
      {
        "club_badge_src": null,
        "entry": 5441784,
        "entry_name": "ColdPalmBlues",
        "event_total": 59,
        "has_played": true,
        "id": 42339126,
        "last_rank": 59813,
        "player_name": "Smirno Thomas",
        "rank": 62778,
        "rank_sort": 63019,
        "total": 2344
      },
      {
        "club_badge_src": null,
        "entry": 5442124,
        "entry_name": "Kopite",
        "event_total": 42,
        "has_played": true,
        "id": 42341902,
        "last_rank": 40036,
        "player_name": "Riten Patel",
        "rank": 62778,
        "rank_sort": 63020,
        "total": 2344
      },
      {
        "club_badge_src": null,
        "entry": 5502741,
        "entry_name": "Nil Satis Nisi Dom",
        "event_total": 52,
        "has_played": true,
        "id": 42878301,
        "last_rank": 55014,
        "player_name": "Dom Shepherd",
        "rank": 62778,
        "rank_sort": 63021,
        "total": 2344
      },
      {
        "club_badge_src": null,
        "entry": 5574810,
        "entry_name": "half the world (a)",
        "event_total": 66,
        "has_played": true,
        "id": 43535416,
        "last_rank": 81646,
        "player_name": "Ellie Schacht",
        "rank": 62778,
        "rank_sort": 63022,
        "total": 2344
      },
      {
        "club_badge_src": "https://fantasy.premierleague.com/gcs/plfpl-production-adobe-approved/plfpl-production/5614363/22435c7d-ac5a-450c-96aa-c876a8d28a9f.png",
        "entry": 5614363,
        "entry_name": "Clement Attleetic",
        "event_total": 50,
        "has_played": true,
        "id": 43881742,
        "last_rank": 51720,
        "player_name": "Jack Hodgkinson",
        "rank": 62778,
        "rank_sort": 63023,
        "total": 2344
      },
      {
        "club_badge_src": null,
        "entry": 5711981,
        "entry_name": "MFS United",
        "event_total": 70,
        "has_played": true,
        "id": 44731326,
        "last_rank": 91466,
        "player_name": "Kelvin Tang",
        "rank": 62778,
        "rank_sort": 63024,
        "total": 2344
      },
      {
        "club_badge_src": null,
        "entry": 5737114,
        "entry_name": "GoGo Power Reijnders",
        "event_total": 69,
        "has_played": true,
        "id": 44950230,
        "last_rank": 88594,
        "player_name": "James Hamilton",
        "rank": 62778,
        "rank_sort": 63025,
        "total": 2344
      },
      {
        "club_badge_src": null,
        "entry": 5800473,
        "entry_name": "*la professor *",
        "event_total": 55,
        "has_played": true,
        "id": 45502463,
        "last_rank": 53023,
        "player_name": "abdelrhman salem",
        "rank": 62778,
        "rank_sort": 63026,
        "total": 2344
      },
      {
        "club_badge_src": null,
        "entry": 5888691,
        "entry_name": "Prestige Worldwide",
        "event_total": 56,
        "has_played": true,
        "id": 46258270,
        "last_rank": 61950,
        "player_name": "eric freeman",
        "rank": 62778,
        "rank_sort": 63027,
        "total": 2344
      },
      {
        "club_badge_src": null,
        "entry": 5951777,
        "entry_name": "Numero Bruno",
        "event_total": 60,
        "has_played": true,
        "id": 46814796,
        "last_rank": 69323,
        "player_name": "Samir Padival",
        "rank": 62778,
        "rank_sort": 63028,
        "total": 2344
      },
      {
        "club_badge_src": null,
        "entry": 5955944,
        "entry_name": "p\u00f8lse&vaffelFC",
        "event_total": 64,
        "has_played": true,
        "id": 46851882,
        "last_rank": 68957,
        "player_name": "Oskar Hansen",
        "rank": 62778,
        "rank_sort": 63029,
        "total": 2344
      },
      {
        "club_badge_src": null,
        "entry": 5987586,
        "entry_name": "Razor fc",
        "event_total": 28,
        "has_played": true,
        "id": 47168571,
        "last_rank": 25172,
        "player_name": "HASSAN Waheed Abiodun",
        "rank": 62778,
        "rank_sort": 63030,
        "total": 2344
      },
      {
        "club_badge_src": "https://fantasy.premierleague.com/gcs/plfpl-production-adobe-approved/plfpl-production/6025428/fde9a9d3-08ed-4704-abb0-29368403e68c.png",
        "entry": 6025428,
        "entry_name": "Kinder Mbeumo",
        "event_total": 56,
        "has_played": true,
        "id": 47525337,
        "last_rank": 62223,
        "player_name": "Adrian Maher",
        "rank": 62778,
        "rank_sort": 63031,
        "total": 2344
      },
      {
        "club_badge_src": null,
        "entry": 6087218,
        "entry_name": "dzikiejanusze90",
        "event_total": 84,
        "has_played": true,
        "id": 48065596,
        "last_rank": 130073,
        "player_name": "Damian Mularczyk",
        "rank": 62778,
        "rank_sort": 63032,
        "total": 2344
      },
      {
        "club_badge_src": "https://fantasy.premierleague.com/gcs/plfpl-production-adobe-approved/plfpl-production/6163875/dfabf601-2454-42ec-9c3c-0634911ef967.png",
        "entry": 6163875,
        "entry_name": "Wonka Jrs",
        "event_total": 51,
        "has_played": true,
        "id": 48732510,
        "last_rank": 53345,
        "player_name": "Daniel Prieto",
        "rank": 62778,
        "rank_sort": 63033,
        "total": 2344
      },
      {
        "club_badge_src": "https://fantasy.premierleague.com/gcs/plfpl-production-adobe-approved/plfpl-production/6241222/6eccaa03-88f7-4cc8-823d-0b07a11bb461.png",
        "entry": 6241222,
        "entry_name": "tickled red",
        "event_total": 54,
        "has_played": true,
        "id": 49399271,
        "last_rank": 51220,
        "player_name": "Niamh B",
        "rank": 62778,
        "rank_sort": 63034,
        "total": 2344
      },
      {
        "club_badge_src": null,
        "entry": 6268377,
        "entry_name": "Balls of Steel",
        "event_total": 62,
        "has_played": true,
        "id": 49635234,
        "last_rank": 73038,
        "player_name": "Sophie Steel",
        "rank": 62778,
        "rank_sort": 63035,
        "total": 2344
      },
      {
        "club_badge_src": null,
        "entry": 6278248,
        "entry_name": "Twenty",
        "event_total": 62,
        "has_played": true,
        "id": 49719921,
        "last_rank": 73038,
        "player_name": "Kevin Harris",
        "rank": 62778,
        "rank_sort": 63036,
        "total": 2344
      },
      {
        "club_badge_src": null,
        "entry": 6283591,
        "entry_name": "FC BEB",
        "event_total": 65,
        "has_played": true,
        "id": 49770708,
        "last_rank": 79817,
        "player_name": "Bebo Esam",
        "rank": 62778,
        "rank_sort": 63037,
        "total": 2344
      },
      {
        "club_badge_src": null,
        "entry": 6331151,
        "entry_name": "Great On Paper",
        "event_total": 41,
        "has_played": true,
        "id": 50314437,
        "last_rank": 39023,
        "player_name": "Andy Farr",
        "rank": 62778,
        "rank_sort": 63038,
        "total": 2344
      },
      {
        "club_badge_src": null,
        "entry": 6385276,
        "entry_name": "The Mavericks",
        "event_total": 61,
        "has_played": true,
        "id": 50788917,
        "last_rank": 70985,
        "player_name": "Brenden McNally",
        "rank": 62778,
        "rank_sort": 63039,
        "total": 2344
      },
      {
        "club_badge_src": null,
        "entry": 6438783,
        "entry_name": "Bilguun",
        "event_total": 47,
        "has_played": true,
        "id": 51263069,
        "last_rank": 47417,
        "player_name": "Bilguun Adiya",
        "rank": 62778,
        "rank_sort": 63040,
        "total": 2344
      },
      {
        "club_badge_src": null,
        "entry": 6496026,
        "entry_name": "TOPSIDE FC",
        "event_total": 73,
        "has_played": true,
        "id": 51786737,
        "last_rank": 99296,
        "player_name": "Samuel S K Samuel",
        "rank": 62778,
        "rank_sort": 63041,
        "total": 2344
      },
      {
        "club_badge_src": null,
        "entry": 6511130,
        "entry_name": "Breezys Stinkers",
        "event_total": 73,
        "has_played": true,
        "id": 51920863,
        "last_rank": 98436,
        "player_name": "Adam Clark",
        "rank": 62778,
        "rank_sort": 63042,
        "total": 2344
      },
      {
        "club_badge_src": "https://fantasy.premierleague.com/gcs/plfpl-production-adobe-approved/plfpl-production/6683626/7e8aed4e-0b0c-4a3c-a390-7dde42affade.png",
        "entry": 6683626,
        "entry_name": "Cheque-Mate United",
        "event_total": 63,
        "has_played": true,
        "id": 53464335,
        "last_rank": 74898,
        "player_name": "Achin Jhawar",
        "rank": 62778,
        "rank_sort": 63043,
        "total": 2344
      },
      {
        "club_badge_src": null,
        "entry": 6693686,
        "entry_name": "The special one",
        "event_total": 57,
        "has_played": true,
        "id": 53553517,
        "last_rank": 63724,
        "player_name": "Vladimir Gorbunov",
        "rank": 62778,
        "rank_sort": 63044,
        "total": 2344
      },
      {
        "club_badge_src": "https://fantasy.premierleague.com/gcs/plfpl-production-adobe-approved/plfpl-production/6699318/8c70364f-11a2-4a22-8c21-dc83b36e58d2.png",
        "entry": 6699318,
        "entry_name": "HaNy31",
        "event_total": 72,
        "has_played": true,
        "id": 53602781,
        "last_rank": 96374,
        "player_name": "Hany Zaki",
        "rank": 62778,
        "rank_sort": 63045,
        "total": 2344
      },
      {
        "club_badge_src": null,
        "entry": 6727033,
        "entry_name": "Gilou's XI",
        "event_total": 79,
        "has_played": true,
        "id": 53841160,
        "last_rank": 114169,
        "player_name": "Gil Mathijs",
        "rank": 62778,
        "rank_sort": 63046,
        "total": 2344
      },
      {
        "club_badge_src": null,
        "entry": 6809771,
        "entry_name": "Ragdog64",
        "event_total": 43,
        "has_played": true,
        "id": 54537468,
        "last_rank": 41617,
        "player_name": "andrew scragg",
        "rank": 62778,
        "rank_sort": 63047,
        "total": 2344
      },
      {
        "club_badge_src": null,
        "entry": 6918108,
        "entry_name": "Chessyfield FC",
        "event_total": 65,
        "has_played": true,
        "id": 55456002,
        "last_rank": 63201,
        "player_name": "Francesca Ryan",
        "rank": 62778,
        "rank_sort": 63048,
        "total": 2344
      },
      {
        "club_badge_src": null,
        "entry": 6977593,
        "entry_name": "This season WINNER",
        "event_total": 53,
        "has_played": true,
        "id": 55990522,
        "last_rank": 56708,
        "player_name": "sitesh chettri",
        "rank": 62778,
        "rank_sort": 63049,
        "total": 2344
      },
      {
        "club_badge_src": null,
        "entry": 6978394,
        "entry_name": "West Hen United",
        "event_total": 58,
        "has_played": true,
        "id": 55998943,
        "last_rank": 64943,
        "player_name": "henry harding",
        "rank": 62778,
        "rank_sort": 63050,
        "total": 2344
      }
    ]
  }
}