{
  "last_updated_data": "2026-05-24T23:28:17Z",
  "league": {
    "admin_entry": null,
    "closed": false,
    "code_privacy": "p",
    "created": "2025-07-20T23:14:33.933835Z",
    "cup_league": 2815434,
    "has_cup": true,
    "id": 314,
    "league_type": "s",
    "max_entries": null,
    "name": "Overall",
    "rank": null,
    "scoring": "c",
    "start_event": 1
  },
  "new_entries": {
    "has_next": false,
    "page": 1,
    "results": []
  },
  "standings": {
    "has_next": true,
    "page": 1020,
    "results": [
      {
        "club_badge_src": null,
        "entry": 2643938,
        "entry_name": "123KALE",
        "event_total": 59,
        "has_played": true,
        "id": 19003288,
        "last_rank": 54416,
        "player_name": "Antti-Jussi Meril\u00e4inen",
        "rank": 50899,
        "rank_sort": 50951,
        "total": 2351
      },
      {
        "club_badge_src": null,
        "entry": 2752893,
        "entry_name": "Peet Fc",
        "event_total": 67,
        "has_played": true,
        "id": 20021380,
        "last_rank": 68572,
        "player_name": "Werasak Jettanajaronechai",
        "rank": 50899,
        "rank_sort": 50952,
        "total": 2351
      },
      {
        "club_badge_src": null,
        "entry": 2859771,
        "entry_name": "KETUA Xl",
        "event_total": 85,
        "has_played": true,
        "id": 20913030,
        "last_rank": 111151,
        "player_name": "Super Safiq",
        "rank": 50899,
        "rank_sort": 50953,
        "total": 2351
      },
      {
        "club_badge_src": null,
        "entry": 2909509,
        "entry_name": "Lange flate ball\u00e6r",
        "event_total": 57,
        "has_played": true,
        "id": 21324142,
        "last_rank": 51220,
        "player_name": "Anders R\u00f8li",
        "rank": 50899,
        "rank_sort": 50954,
        "total": 2351
      },
      {
        "club_badge_src": null,
        "entry": 2910137,
        "entry_name": "King Reece",
        "event_total": 45,
        "has_played": true,
        "id": 21328966,
        "last_rank": 35034,
        "player_name": "Nick Kirkham",
        "rank": 50899,
        "rank_sort": 50955,
        "total": 2351
      },
      {
        "club_badge_src": null,
        "entry": 2926260,
        "entry_name": "wail khalid",
        "event_total": 66,
        "has_played": true,
        "id": 21452803,
        "last_rank": 67063,
        "player_name": "Wail Khalid",
        "rank": 50899,
        "rank_sort": 50956,
        "total": 2351
      },
      {
        "club_badge_src": null,
        "entry": 3168815,
        "entry_name": "Two Tone FC",
        "event_total": 68,
        "has_played": true,
        "id": 23411749,
        "last_rank": 70757,
        "player_name": "James Axell",
        "rank": 50899,
        "rank_sort": 50957,
        "total": 2351
      },
      {
        "club_badge_src": "https://fantasy.premierleague.com/gcs/plfpl-production-adobe-approved/plfpl-production/3181227/92436f12-211d-423d-877d-911747ab5c6c.png",
        "entry": 3181227,
        "entry_name": "Pallomaha FC",
        "event_total": 59,
        "has_played": true,
        "id": 23507628,
        "last_rank": 54416,
        "player_name": "Esa Koivisto",
        "rank": 50899,
        "rank_sort": 50958,
        "total": 2351
      },
      {
        "club_badge_src": null,
        "entry": 3201385,
        "entry_name": "Roll the Dyche",
        "event_total": 46,
        "has_played": true,
        "id": 23665066,
        "last_rank": 36348,
        "player_name": "Alex Knights",
        "rank": 50899,
        "rank_sort": 50959,
        "total": 2351
      },
      {
        "club_badge_src": null,
        "entry": 3236519,
        "entry_name": "I AM FOOTBALL",
        "event_total": 64,
        "has_played": true,
        "id": 23938457,
        "last_rank": 63117,
        "player_name": "Thom Wathen",
        "rank": 50899,
        "rank_sort": 50960,
        "total": 2351
      },
      {
        "club_badge_src": null,
        "entry": 3388108,
        "entry_name": "Time will Tel",
        "event_total": 53,
        "has_played": true,
        "id": 25152096,
        "last_rank": 45144,
        "player_name": "Joe Grafton",
        "rank": 50899,
        "rank_sort": 50961,
        "total": 2351
      },
      {
        "club_badge_src": "https://fantasy.premierleague.com/gcs/plfpl-production-adobe-approved/plfpl-production/3440780/4eb94c4e-b166-4926-850f-65de7a937b02.png",
        "entry": 3440780,
        "entry_name": "Gro\u00df Misconduct",
        "event_total": 56,
        "has_played": true,
        "id": 25562802,
        "last_rank": 49880,
        "player_name": "Mihir Bhat",
        "rank": 50899,
        "rank_sort": 50962,
        "total": 2351
      },
      {
        "club_badge_src": null,
        "entry": 3460502,
        "entry_name": "Elano Blumer",
        "event_total": 59,
        "has_played": true,
        "id": 25722519,
        "last_rank": 54416,
        "player_name": "Dodzi Ladzekpo",
        "rank": 50899,
        "rank_sort": 50963,
        "total": 2351
      },
      {
        "club_badge_src": null,
        "entry": 3547535,
        "entry_name": "Rockmount rovers",
        "event_total": 35,
        "has_played": true,
        "id": 26409346,
        "last_rank": 24897,
        "player_name": "barry mcgahan",
        "rank": 50899,
        "rank_sort": 50964,
        "total": 2351
      },
      {
        "club_badge_src": null,
        "entry": 3831652,
        "entry_name": "Pot XI",
        "event_total": 64,
        "has_played": true,
        "id": 28663395,
        "last_rank": 63063,
        "player_name": "Jonah Brown",
        "rank": 50899,
        "rank_sort": 50965,
        "total": 2351
      },
      {
        "club_badge_src": null,
        "entry": 4405695,
        "entry_name": "Robs Rovers",
        "event_total": 38,
        "has_played": true,
        "id": 33510440,
        "last_rank": 27770,
        "player_name": "Robbie Johnston",
        "rank": 50899,
        "rank_sort": 50966,
        "total": 2351
      },
      {
        "club_badge_src": null,
        "entry": 4574307,
        "entry_name": "Forever Maso",
        "event_total": 62,
        "has_played": true,
        "id": 34913700,
        "last_rank": 59813,
        "player_name": "Paul Mason",
        "rank": 50899,
        "rank_sort": 50967,
        "total": 2351
      },
      {
        "club_badge_src": null,
        "entry": 4629366,
        "entry_name": "Eze Money",
        "event_total": 58,
        "has_played": true,
        "id": 35396023,
        "last_rank": 53023,
        "player_name": "james manson",
        "rank": 50899,
        "rank_sort": 50968,
        "total": 2351
      },
      {
        "club_badge_src": null,
        "entry": 4772172,
        "entry_name": "Noen trekker",
        "event_total": 56,
        "has_played": true,
        "id": 36733031,
        "last_rank": 49691,
        "player_name": "Mathias Thomassen",
        "rank": 50899,
        "rank_sort": 50969,
        "total": 2351
      },
      {
        "club_badge_src": null,
        "entry": 4776739,
        "entry_name": "QEERAH92",
        "event_total": 46,
        "has_played": true,
        "id": 36770022,
        "last_rank": 36200,
        "player_name": "Yusuf Hussaini Kira",
        "rank": 50899,
        "rank_sort": 50970,
        "total": 2351
      },
      {
        "club_badge_src": null,
        "entry": 4797519,
        "entry_name": "Snow Bear",
        "event_total": 67,
        "has_played": true,
        "id": 36936988,
        "last_rank": 68748,
        "player_name": "Snow Bear",
        "rank": 50899,
        "rank_sort": 50971,
        "total": 2351
      },
      {
        "club_badge_src": null,
        "entry": 4941162,
        "entry_name": "Frank's Lamparty",
        "event_total": 73,
        "has_played": true,
        "id": 38123720,
        "last_rank": 81312,
        "player_name": "Noah Boswell",
        "rank": 50899,
        "rank_sort": 50972,
        "total": 2351
      },
      {
        "club_badge_src": "https://fantasy.premierleague.com/gcs/plfpl-production-adobe-approved/plfpl-production/4947168/5991f355-6b94-494a-ac68-a0b04bbb946c.png",
        "entry": 4947168,
        "entry_name": "The Dog's Danglers",
        "event_total": 76,
        "has_played": true,
        "id": 38172475,
        "last_rank": 88348,
        "player_name": "Andy Mattock",
        "rank": 50899,
        "rank_sort": 50973,
        "total": 2351
      },
      {
        "club_badge_src": null,
        "entry": 4989919,
        "entry_name": "BK",
        "event_total": 61,
        "has_played": true,
        "id": 38523448,
        "last_rank": 58071,
        "player_name": "Sana Sahand",
        "rank": 50899,
        "rank_sort": 50974,
        "total": 2351
      },
      {
        "club_badge_src": null,
        "entry": 4990839,
        "entry_name": "Amunds",
        "event_total": 73,
        "has_played": true,
        "id": 38530707,
        "last_rank": 81312,
        "player_name": "Amund Hangar",
        "rank": 50899,
        "rank_sort": 50975,
        "total": 2351
      },
      {
        "club_badge_src": null,
        "entry": 5030818,
        "entry_name": "Mull of 'kin tired",
        "event_total": 46,
        "has_played": true,
        "id": 38856062,
        "last_rank": 36110,
        "player_name": "Phil Preston",
        "rank": 50899,
        "rank_sort": 50976,
        "total": 2351
      },
      {
        "club_badge_src": "https://fantasy.premierleague.com/gcs/plfpl-production-adobe-approved/plfpl-production/5052195/0553b727-4c48-45fe-aa86-aa4feefd3b75.png",
        "entry": 5052195,
        "entry_name": "Gary Ryan",
        "event_total": 52,
        "has_played": true,
        "id": 39035262,
        "last_rank": 44048,
        "player_name": "Gary Ryan",
        "rank": 50899,
        "rank_sort": 50977,
        "total": 2351
      },
      {
        "club_badge_src": null,
        "entry": 5379671,
        "entry_name": "Steeley",
        "event_total": 58,
        "has_played": true,
        "id": 41817717,
        "last_rank": 53023,
        "player_name": "Louie Steele",
        "rank": 50899,
        "rank_sort": 50978,
        "total": 2351
      },
      {
        "club_badge_src": null,
        "entry": 5413362,
        "entry_name": "bryngel bk",
        "event_total": 64,
        "has_played": true,
        "id": 42097966,
        "last_rank": 63201,
        "player_name": "Andreas Bryngelsson",
        "rank": 50899,
        "rank_sort": 50979,
        "total": 2351
      },
      {
        "club_badge_src": null,
        "entry": 5522255,
        "entry_name": "Phantxm",
        "event_total": 62,
        "has_played": true,
        "id": 43062073,
        "last_rank": 59535,
        "player_name": "Ibby Bash",
        "rank": 50899,
        "rank_sort": 50980,
        "total": 2351
      },
      {
        "club_badge_src": null,
        "entry": 5532579,
        "entry_name": "Partey Poppers",
        "event_total": 50,
        "has_played": true,
        "id": 43162575,
        "last_rank": 41162,
        "player_name": "Saqib Mannan",
        "rank": 50899,
        "rank_sort": 50981,
        "total": 2351
      },
      {
        "club_badge_src": null,
        "entry": 5583073,
        "entry_name": "The Grimsby Gurriers",
        "event_total": 59,
        "has_played": true,
        "id": 43607101,
        "last_rank": 54494,
        "player_name": "Jamie Breen",
        "rank": 50899,
        "rank_sort": 50982,
        "total": 2351
      },
      {
        "club_badge_src": "https://fantasy.premierleague.com/gcs/plfpl-production-adobe-approved/plfpl-production/5732390/d1233af2-a782-46a5-9b07-e34a11c9b8cf.png",
        "entry": 5732390,
        "entry_name": "Wood for the Trees",
        "event_total": 59,
        "has_played": true,
        "id": 44908860,
        "last_rank": 54494,
        "player_name": "Matthew Bell",
        "rank": 50899,
        "rank_sort": 50983,
        "total": 2351
      },
      {
        "club_badge_src": null,
        "entry": 5830752,
        "entry_name": "FC S\u00f8rlie",
        "event_total": 63,
        "has_played": true,
        "id": 45765121,
        "last_rank": 61315,
        "player_name": "Kristian S\u00f8rlie Lunde",
        "rank": 50899,
        "rank_sort": 50984,
        "total": 2351
      },
      {
        "club_badge_src": null,
        "entry": 5845278,
        "entry_name": "Lawn Mowers HoweBoys",
        "event_total": 51,
        "has_played": true,
        "id": 45888359,
        "last_rank": 42506,
        "player_name": "Lauren Moore",
        "rank": 50899,
        "rank_sort": 50985,
        "total": 2351
      },
      {
        "club_badge_src": null,
        "entry": 5899246,
        "entry_name": "Baby Pep",
        "event_total": 45,
        "has_played": true,
        "id": 46347435,
        "last_rank": 34969,
        "player_name": "Millie Jones",
        "rank": 50899,
        "rank_sort": 50986,
        "total": 2351
      },
      {
        "club_badge_src": null,
        "entry": 6197859,
        "entry_name": "Sesko Clubcard",
        "event_total": 84,
        "has_played": true,
        "id": 49026848,
        "last_rank": 108567,
        "player_name": "Ben Ahl",
        "rank": 50899,
        "rank_sort": 50987,
        "total": 2351
      },
      {
        "club_badge_src": null,
        "entry": 6266975,
        "entry_name": "Change Name",
        "event_total": 68,
        "has_played": true,
        "id": 49623450,
        "last_rank": 70651,
        "player_name": "Jake McDonald",
        "rank": 50899,
        "rank_sort": 50988,
        "total": 2351
      },
      {
        "club_badge_src": null,
        "entry": 6320224,
        "entry_name": "FC HONKS",
        "event_total": 58,
        "has_played": true,
        "id": 50183666,
        "last_rank": 52759,
        "player_name": "Eemeli Honkola",
        "rank": 50899,
        "rank_sort": 50989,
        "total": 2351
      },
      {
        "club_badge_src": null,
        "entry": 6393600,
        "entry_name": "Chief Strix",
        "event_total": 55,
        "has_played": true,
        "id": 50862366,
        "last_rank": 48119,
        "player_name": "Scott Stricker",
        "rank": 50899,
        "rank_sort": 50990,
        "total": 2351
      },
      {
        "club_badge_src": "https://fantasy.premierleague.com/gcs/plfpl-production-adobe-approved/plfpl-production/6945440/848ef10f-6581-405d-b271-3cf86ba1627e.png",
        "entry": 6945440,
        "entry_name": "DipanahPetir",
        "event_total": 54,
        "has_played": true,
        "id": 55687545,
        "last_rank": 46660,
        "player_name": "ZT Chew",
        "rank": 50899,
        "rank_sort": 50991,
        "total": 2351
      },
      {
        "club_badge_src": null,
        "entry": 7005680,
        "entry_name": "HAZARD",
        "event_total": 64,
        "has_played": true,
        "id": 56255597,
        "last_rank": 63390,
        "player_name": "Abdelrhman Mohamed",
        "rank": 50899,
        "rank_sort": 50992,
        "total": 2351
      },
      {
        "club_badge_src": "https://fantasy.premierleague.com/gcs/plfpl-production-adobe-approved/plfpl-production/7017030/96e37d04-a2aa-4b85-9aa3-320a6c46f49f.png",
        "entry": 7017030,
        "entry_name": "Garnachos and Cheese",
        "event_total": 57,
        "has_played": true,
        "id": 56360073,
        "last_rank": 51403,
        "player_name": "Alex Correia",
        "rank": 50899,
        "rank_sort": 50993,
        "total": 2351
      },
      {
        "club_badge_src": null,
        "entry": 7028945,
        "entry_name": "Anty  United",
        "event_total": 75,
        "has_played": true,
        "id": 56481767,
        "last_rank": 86054,
        "player_name": "Andri Milov",
        "rank": 50899,
        "rank_sort": 50994,
        "total": 2351
      },
      {
        "club_badge_src": "https://fantasy.premierleague.com/gcs/plfpl-production-adobe-approved/plfpl-production/7094240/22dc37f4-caa6-4927-819d-bdcb36b6a21c.png",
        "entry": 7094240,
        "entry_name": "Gezleague",
        "event_total": 50,
        "has_played": true,
        "id": 57121168,
        "last_rank": 41324,
        "player_name": "Gerra Ayres",
        "rank": 50899,
        "rank_sort": 50995,
        "total": 2351
      },
      {
        "club_badge_src": null,
        "entry": 7198915,
        "entry_name": "2nd again ole ole",
        "event_total": 56,
        "has_played": true,
        "id": 58122273,
        "last_rank": 49691,
        "player_name": "Tom Outh",
        "rank": 50899,
        "rank_sort": 50996,
        "total": 2351
      },
      {
        "club_badge_src": "https://fantasy.premierleague.com/gcs/plfpl-production-adobe-approved/plfpl-production/7449424/284b65b4-7e67-4cc1-9ae0-8ae7215f78c0.png",
        "entry": 7449424,
        "entry_name": "Gladiators",
        "event_total": 59,
        "has_played": true,
        "id": 60625979,
        "last_rank": 54667,
        "player_name": "Ahmad Aldaghi",
        "rank": 50899,
        "rank_sort": 50997,
        "total": 2351
      },
      {
        "club_badge_src": null,
        "entry": 7472923,
        "entry_name": "Infinite  Tsukuyomi",
        "event_total": 54,
        "has_played": true,
        "id": 60933315,
        "last_rank": 46839,
        "player_name": "Shukin 254",
        "rank": 50899,
        "rank_sort": 50998,
        "total": 2351
      },
      {
        "club_badge_src": null,
        "entry": 7831952,
        "entry_name": "Abo Ahmed",
        "event_total": 41,
        "has_played": true,
        "id": 64363002,
        "last_rank": 30727,
        "player_name": "Badr Ahmed",
        "rank": 50899,
        "rank_sort": 50999,
        "total": 2351
      },
      {
        "club_badge_src": null,
        "entry": 8348348,
        "entry_name": "Starks",
        "event_total": 56,
        "has_played": true,
        "id": 69186839,
        "last_rank": 49691,
        "player_name": "Uzair Nadeem",
        "rank": 50899,
        "rank_sort": 51000,
        "total": 2351
      }
    ]
  }
}