{
  "last_updated_data": "2026-05-24T23:28:17Z",
  "league": {
    "admin_entry": null,
    "closed": false,
    "code_privacy": "p",
    "created": "2025-07-20T23:14:33.933835Z",
    "cup_league": 2815434,
    "has_cup": true,
    "id": 314,
    "league_type": "s",
    "max_entries": null,
    "name": "Overall",
    "rank": null,
    "scoring": "c",
    "start_event": 1
  },
  "new_entries": {
    "has_next": false,
    "page": 1,
    "results": []
  },
  "standings": {
    "has_next": true,
    "page": 512,
    "results": [
      {
        "club_badge_src": null,
        "entry": 589441,
        "entry_name": "Mind the Gap FC",
        "event_total": 51,
        "has_played": true,
        "id": 3970005,
        "last_rank": 20538,
        "player_name": "Tyler Brown",
        "rank": 25514,
        "rank_sort": 25551,
        "total": 2373
      },
      {
        "club_badge_src": "https://fantasy.premierleague.com/gcs/plfpl-production-adobe-approved/plfpl-production/594109/2fd0aa4b-e2dc-45c4-b26f-dab60dceb575.png",
        "entry": 594109,
        "entry_name": "Emiliano",
        "event_total": 47,
        "has_played": true,
        "id": 4004195,
        "last_rank": 17585,
        "player_name": "Emiliano 3amak",
        "rank": 25514,
        "rank_sort": 25552,
        "total": 2373
      },
      {
        "club_badge_src": null,
        "entry": 609514,
        "entry_name": "pro",
        "event_total": 67,
        "has_played": true,
        "id": 4117434,
        "last_rank": 35166,
        "player_name": "andy w",
        "rank": 25514,
        "rank_sort": 25553,
        "total": 2373
      },
      {
        "club_badge_src": null,
        "entry": 631329,
        "entry_name": "Mighty Faroe Islands",
        "event_total": 32,
        "has_played": true,
        "id": 4265962,
        "last_rank": 9536,
        "player_name": "Tom Marchant",
        "rank": 25514,
        "rank_sort": 25554,
        "total": 2373
      },
      {
        "club_badge_src": "https://fantasy.premierleague.com/gcs/plfpl-production-adobe-approved/plfpl-production/664004/91e2f217-0079-4d28-9289-1bd933cc6e0d.png",
        "entry": 664004,
        "entry_name": "Slotty Too Hotty",
        "event_total": 74,
        "has_played": true,
        "id": 4489054,
        "last_rank": 38644,
        "player_name": "Adrian Knight",
        "rank": 25514,
        "rank_sort": 25555,
        "total": 2373
      },
      {
        "club_badge_src": null,
        "entry": 705425,
        "entry_name": "Champions",
        "event_total": 61,
        "has_played": true,
        "id": 4780555,
        "last_rank": 24817,
        "player_name": "James Sparks",
        "rank": 25514,
        "rank_sort": 25556,
        "total": 2373
      },
      {
        "club_badge_src": "https://fantasy.premierleague.com/gcs/plfpl-production-adobe-approved/plfpl-production/732261/b37a9963-b563-434a-b551-925efff1a363.png",
        "entry": 732261,
        "entry_name": "LASK Vegas",
        "event_total": 56,
        "has_played": true,
        "id": 4975972,
        "last_rank": 24330,
        "player_name": "josef schmidt",
        "rank": 25514,
        "rank_sort": 25557,
        "total": 2373
      },
      {
        "club_badge_src": null,
        "entry": 738377,
        "entry_name": "Forest Mundial",
        "event_total": 60,
        "has_played": true,
        "id": 5020036,
        "last_rank": 27976,
        "player_name": "Paul Morley",
        "rank": 25514,
        "rank_sort": 25558,
        "total": 2373
      },
      {
        "club_badge_src": null,
        "entry": 743427,
        "entry_name": "voodisha",
        "event_total": 48,
        "has_played": true,
        "id": 5056924,
        "last_rank": 18113,
        "player_name": "Izabell Doverhorn",
        "rank": 25514,
        "rank_sort": 25559,
        "total": 2373
      },
      {
        "club_badge_src": "https://fantasy.premierleague.com/gcs/plfpl-production-adobe-approved/plfpl-production/797409/3df1072e-d037-4b18-b2ad-e080854e31fd.png",
        "entry": 797409,
        "entry_name": "Cunha Feel It",
        "event_total": 77,
        "has_played": true,
        "id": 5457834,
        "last_rank": 42648,
        "player_name": "Paul Sandells",
        "rank": 25514,
        "rank_sort": 25560,
        "total": 2373
      },
      {
        "club_badge_src": "https://fantasy.premierleague.com/gcs/plfpl-production-adobe-approved/plfpl-production/815929/1cb3aaab-063b-4239-a60f-4188e53bdb3f.png",
        "entry": 815929,
        "entry_name": "The Answer Isn't DCL",
        "event_total": 51,
        "has_played": true,
        "id": 5587421,
        "last_rank": 17358,
        "player_name": "Chris Williams",
        "rank": 25514,
        "rank_sort": 25561,
        "total": 2373
      },
      {
        "club_badge_src": null,
        "entry": 831442,
        "entry_name": "Matty Cashless",
        "event_total": 60,
        "has_played": true,
        "id": 5694941,
        "last_rank": 27644,
        "player_name": "Matthew Walker",
        "rank": 25514,
        "rank_sort": 25562,
        "total": 2373
      },
      {
        "club_badge_src": "https://fantasy.premierleague.com/gcs/plfpl-production-adobe-approved/plfpl-production/892460/bb830e70-a884-47f4-8243-7a74f1db1330.png",
        "entry": 892460,
        "entry_name": "HapHapSui",
        "event_total": 66,
        "has_played": true,
        "id": 6128790,
        "last_rank": 29688,
        "player_name": "Aku Zefri",
        "rank": 25514,
        "rank_sort": 25563,
        "total": 2373
      },
      {
        "club_badge_src": null,
        "entry": 959257,
        "entry_name": "Earnings per Sch\u00e4r",
        "event_total": 44,
        "has_played": true,
        "id": 6610173,
        "last_rank": 13257,
        "player_name": "Chris Tennant",
        "rank": 25514,
        "rank_sort": 25564,
        "total": 2373
      },
      {
        "club_badge_src": null,
        "entry": 964911,
        "entry_name": "Haaland & Barrett",
        "event_total": 66,
        "has_played": true,
        "id": 6649938,
        "last_rank": 34458,
        "player_name": "Matt Holland",
        "rank": 25514,
        "rank_sort": 25565,
        "total": 2373
      },
      {
        "club_badge_src": null,
        "entry": 976047,
        "entry_name": "ThomasTheFrankEngine",
        "event_total": 63,
        "has_played": true,
        "id": 6728656,
        "last_rank": 30957,
        "player_name": "Ed Horseman",
        "rank": 25514,
        "rank_sort": 25566,
        "total": 2373
      },
      {
        "club_badge_src": null,
        "entry": 1023425,
        "entry_name": "Anfield Assassins",
        "event_total": 68,
        "has_played": true,
        "id": 7080586,
        "last_rank": 36348,
        "player_name": "Ward De Becker",
        "rank": 25514,
        "rank_sort": 25567,
        "total": 2373
      },
      {
        "club_badge_src": null,
        "entry": 1057756,
        "entry_name": "Gy\u00f6k's On You",
        "event_total": 59,
        "has_played": true,
        "id": 7320282,
        "last_rank": 27020,
        "player_name": "David Baron",
        "rank": 25514,
        "rank_sort": 25568,
        "total": 2373
      },
      {
        "club_badge_src": null,
        "entry": 1130680,
        "entry_name": "Qu\u00e9 Salah, Salah",
        "event_total": 61,
        "has_played": true,
        "id": 7836931,
        "last_rank": 25002,
        "player_name": "Martin Done",
        "rank": 25514,
        "rank_sort": 25569,
        "total": 2373
      },
      {
        "club_badge_src": "https://fantasy.premierleague.com/gcs/plfpl-production-adobe-approved/plfpl-production/1146788/2d9d82ff-5287-4542-b72f-24914c25184d.png",
        "entry": 1146788,
        "entry_name": "1511 FC",
        "event_total": 30,
        "has_played": true,
        "id": 7951216,
        "last_rank": 8925,
        "player_name": "Philip Dixon",
        "rank": 25514,
        "rank_sort": 25570,
        "total": 2373
      },
      {
        "club_badge_src": null,
        "entry": 1170967,
        "entry_name": "Burgas United",
        "event_total": 56,
        "has_played": true,
        "id": 8123522,
        "last_rank": 24143,
        "player_name": "Rui Burguette",
        "rank": 25514,
        "rank_sort": 25571,
        "total": 2373
      },
      {
        "club_badge_src": null,
        "entry": 1182764,
        "entry_name": "Losos",
        "event_total": 48,
        "has_played": true,
        "id": 8206230,
        "last_rank": 18270,
        "player_name": "Alexey Fofanov",
        "rank": 25514,
        "rank_sort": 25572,
        "total": 2373
      },
      {
        "club_badge_src": null,
        "entry": 1246549,
        "entry_name": "Maiatos",
        "event_total": 53,
        "has_played": true,
        "id": 8657432,
        "last_rank": 21949,
        "player_name": "Andre Maia",
        "rank": 25514,
        "rank_sort": 25573,
        "total": 2373
      },
      {
        "club_badge_src": null,
        "entry": 1293050,
        "entry_name": "Chippy chips",
        "event_total": 67,
        "has_played": true,
        "id": 8985270,
        "last_rank": 35424,
        "player_name": "Luka Ko\u010devar",
        "rank": 25514,
        "rank_sort": 25574,
        "total": 2373
      },
      {
        "club_badge_src": null,
        "entry": 1306317,
        "entry_name": "Gy\u00f6ks on you",
        "event_total": 67,
        "has_played": true,
        "id": 9079773,
        "last_rank": 35166,
        "player_name": "Arun Sundaralingam",
        "rank": 25514,
        "rank_sort": 25575,
        "total": 2373
      },
      {
        "club_badge_src": null,
        "entry": 1377181,
        "entry_name": "Misal Pav United",
        "event_total": 59,
        "has_played": true,
        "id": 9573206,
        "last_rank": 27020,
        "player_name": "Ninad W",
        "rank": 25514,
        "rank_sort": 25576,
        "total": 2373
      },
      {
        "club_badge_src": "https://fantasy.premierleague.com/gcs/plfpl-production-adobe-approved/plfpl-production/1386576/efec229e-f00e-46b4-9ce7-e227c78063cf.png",
        "entry": 1386576,
        "entry_name": "Kinder Mbeumo",
        "event_total": 44,
        "has_played": true,
        "id": 9644225,
        "last_rank": 15797,
        "player_name": "Linas Balciunas",
        "rank": 25514,
        "rank_sort": 25577,
        "total": 2373
      },
      {
        "club_badge_src": "https://fantasy.premierleague.com/gcs/plfpl-production-adobe-approved/plfpl-production/1493524/f3bda00e-7655-44bf-ba1c-98a60be3835e.png",
        "entry": 1493524,
        "entry_name": "Gy\u00f6keres Tendon",
        "event_total": 64,
        "has_played": true,
        "id": 10415285,
        "last_rank": 31995,
        "player_name": "Carvel Lau",
        "rank": 25514,
        "rank_sort": 25578,
        "total": 2373
      },
      {
        "club_badge_src": "https://fantasy.premierleague.com/gcs/plfpl-production-adobe-approved/plfpl-production/1515046/9c710d83-6562-44cc-868a-26ec8e9d4415.png",
        "entry": 1515046,
        "entry_name": "Could Be Wirtz",
        "event_total": 68,
        "has_played": true,
        "id": 10566992,
        "last_rank": 36348,
        "player_name": "Adam Veitch",
        "rank": 25514,
        "rank_sort": 25579,
        "total": 2373
      },
      {
        "club_badge_src": null,
        "entry": 1518510,
        "entry_name": "chahid team",
        "event_total": 59,
        "has_played": true,
        "id": 10591167,
        "last_rank": 23341,
        "player_name": "Hamid Chahid",
        "rank": 25514,
        "rank_sort": 25580,
        "total": 2373
      },
      {
        "club_badge_src": null,
        "entry": 1539472,
        "entry_name": "Change Name",
        "event_total": 46,
        "has_played": true,
        "id": 10744370,
        "last_rank": 16807,
        "player_name": "Math Van der Linden",
        "rank": 25514,
        "rank_sort": 25581,
        "total": 2373
      },
      {
        "club_badge_src": null,
        "entry": 1564935,
        "entry_name": "Bruno-saurus Rex",
        "event_total": 55,
        "has_played": true,
        "id": 10932056,
        "last_rank": 23341,
        "player_name": "Pontus Palm",
        "rank": 25514,
        "rank_sort": 25582,
        "total": 2373
      },
      {
        "club_badge_src": null,
        "entry": 1625077,
        "entry_name": "omar H",
        "event_total": 54,
        "has_played": true,
        "id": 11374303,
        "last_rank": 19544,
        "player_name": "omar almenhali",
        "rank": 25514,
        "rank_sort": 25583,
        "total": 2373
      },
      {
        "club_badge_src": "https://fantasy.premierleague.com/gcs/plfpl-production-adobe-approved/plfpl-production/1725568/002c15e0-6d7f-49a3-9963-1ea4f3e6965a.png",
        "entry": 1725568,
        "entry_name": "Utter Stoke Nonsense",
        "event_total": 52,
        "has_played": true,
        "id": 12100674,
        "last_rank": 21159,
        "player_name": "Ash Holdway",
        "rank": 25514,
        "rank_sort": 25584,
        "total": 2373
      },
      {
        "club_badge_src": "https://fantasy.premierleague.com/gcs/plfpl-production-adobe-approved/plfpl-production/1788397/ef0c7f17-cd4f-44b2-be88-02bd481ab91f.png",
        "entry": 1788397,
        "entry_name": "Change Name",
        "event_total": 66,
        "has_played": true,
        "id": 12566123,
        "last_rank": 34051,
        "player_name": "Risk Taker",
        "rank": 25514,
        "rank_sort": 25585,
        "total": 2373
      },
      {
        "club_badge_src": null,
        "entry": 1875809,
        "entry_name": "D Taxis",
        "event_total": 51,
        "has_played": true,
        "id": 13207060,
        "last_rank": 17437,
        "player_name": "David Matthias",
        "rank": 25514,
        "rank_sort": 25586,
        "total": 2373
      },
      {
        "club_badge_src": "https://fantasy.premierleague.com/gcs/plfpl-production-adobe-approved/plfpl-production/1888836/13a54be4-4568-4dc6-a9f5-6a53b9ee9425.png",
        "entry": 1888836,
        "entry_name": "Forest Lake Town",
        "event_total": 77,
        "has_played": true,
        "id": 13311774,
        "last_rank": 48898,
        "player_name": "Ian C Potter",
        "rank": 25514,
        "rank_sort": 25587,
        "total": 2373
      },
      {
        "club_badge_src": null,
        "entry": 1971729,
        "entry_name": "Farmors framfall",
        "event_total": 51,
        "has_played": true,
        "id": 13916640,
        "last_rank": 20280,
        "player_name": "Niklas Johnson",
        "rank": 25514,
        "rank_sort": 25588,
        "total": 2373
      },
      {
        "club_badge_src": null,
        "entry": 2178040,
        "entry_name": "Saka Potatoes",
        "event_total": 54,
        "has_played": true,
        "id": 15489444,
        "last_rank": 22685,
        "player_name": "David Williams",
        "rank": 25514,
        "rank_sort": 25589,
        "total": 2373
      },
      {
        "club_badge_src": null,
        "entry": 2231970,
        "entry_name": "The Resurrected King",
        "event_total": 59,
        "has_played": true,
        "id": 15900530,
        "last_rank": 27020,
        "player_name": "Tolga yildiz",
        "rank": 25514,
        "rank_sort": 25590,
        "total": 2373
      },
      {
        "club_badge_src": null,
        "entry": 2242754,
        "entry_name": "Looksuae",
        "event_total": 58,
        "has_played": true,
        "id": 15978355,
        "last_rank": 25902,
        "player_name": "Kollawat Charoenwongphet",
        "rank": 25514,
        "rank_sort": 25591,
        "total": 2373
      },
      {
        "club_badge_src": null,
        "entry": 2244466,
        "entry_name": "Mutton for Mayor",
        "event_total": 41,
        "has_played": true,
        "id": 15991133,
        "last_rank": 11608,
        "player_name": "Matthew Best",
        "rank": 25514,
        "rank_sort": 25592,
        "total": 2373
      },
      {
        "club_badge_src": null,
        "entry": 2363473,
        "entry_name": "UEEDEE15",
        "event_total": 50,
        "has_played": true,
        "id": 16869333,
        "last_rank": 19721,
        "player_name": "Ugyen Dorji",
        "rank": 25514,
        "rank_sort": 25593,
        "total": 2373
      },
      {
        "club_badge_src": null,
        "entry": 2443988,
        "entry_name": "Kudos to Kudus",
        "event_total": 47,
        "has_played": true,
        "id": 17479312,
        "last_rank": 17585,
        "player_name": "Christian Imola",
        "rank": 25514,
        "rank_sort": 25594,
        "total": 2373
      },
      {
        "club_badge_src": null,
        "entry": 2461259,
        "entry_name": "Willy Wonka FC",
        "event_total": 68,
        "has_played": true,
        "id": 17605347,
        "last_rank": 36142,
        "player_name": "Will Hawkins",
        "rank": 25514,
        "rank_sort": 25595,
        "total": 2373
      },
      {
        "club_badge_src": null,
        "entry": 2503310,
        "entry_name": "Mohamed no salad",
        "event_total": 57,
        "has_played": true,
        "id": 17925947,
        "last_rank": 25002,
        "player_name": "Konrad Podolinski",
        "rank": 25514,
        "rank_sort": 25596,
        "total": 2373
      },
      {
        "club_badge_src": null,
        "entry": 2517433,
        "entry_name": "No.yeet.11",
        "event_total": 47,
        "has_played": true,
        "id": 18036804,
        "last_rank": 17585,
        "player_name": "Brian Gill",
        "rank": 25514,
        "rank_sort": 25597,
        "total": 2373
      },
      {
        "club_badge_src": null,
        "entry": 2567516,
        "entry_name": "\u675c\u5967\u5df4  \u7e3d\u639b\u5ff5\u5f9e\u524d",
        "event_total": 59,
        "has_played": true,
        "id": 18418845,
        "last_rank": 27020,
        "player_name": "kaka -",
        "rank": 25514,
        "rank_sort": 25598,
        "total": 2373
      },
      {
        "club_badge_src": null,
        "entry": 2580129,
        "entry_name": "Aston Vanilla",
        "event_total": 38,
        "has_played": true,
        "id": 18518696,
        "last_rank": 12322,
        "player_name": "Kevin Byrnes",
        "rank": 25514,
        "rank_sort": 25599,
        "total": 2373
      },
      {
        "club_badge_src": null,
        "entry": 2632290,
        "entry_name": "Kuensang FC",
        "event_total": 57,
        "has_played": true,
        "id": 18917606,
        "last_rank": 25172,
        "player_name": "Kuenzang Thinley",
        "rank": 25514,
        "rank_sort": 25600,
        "total": 2373
      }
    ]
  }
}