{
  "last_updated_data": "2026-05-24T23:28:17Z",
  "league": {
    "admin_entry": null,
    "closed": false,
    "code_privacy": "p",
    "created": "2025-07-20T23:14:33.933835Z",
    "cup_league": 2815434,
    "has_cup": true,
    "id": 314,
    "league_type": "s",
    "max_entries": null,
    "name": "Overall",
    "rank": null,
    "scoring": "c",
    "start_event": 1
  },
  "new_entries": {
    "has_next": false,
    "page": 1,
    "results": []
  },
  "standings": {
    "has_next": true,
    "page": 1386,
    "results": [
      {
        "club_badge_src": null,
        "entry": 3263,
        "entry_name": "Shape To Shoot",
        "event_total": 68,
        "has_played": true,
        "id": 18447,
        "last_rank": 95063,
        "player_name": "Stuart Blakesley",
        "rank": 69250,
        "rank_sort": 69251,
        "total": 2341
      },
      {
        "club_badge_src": null,
        "entry": 4847,
        "entry_name": "Delap of Honour",
        "event_total": 67,
        "has_played": true,
        "id": 27580,
        "last_rank": 83127,
        "player_name": "James Amos",
        "rank": 69250,
        "rank_sort": 69252,
        "total": 2341
      },
      {
        "club_badge_src": null,
        "entry": 15263,
        "entry_name": "Red Hulksters",
        "event_total": 57,
        "has_played": true,
        "id": 93525,
        "last_rank": 55747,
        "player_name": "Aman Arora",
        "rank": 69250,
        "rank_sort": 69253,
        "total": 2341
      },
      {
        "club_badge_src": null,
        "entry": 27180,
        "entry_name": "Team",
        "event_total": 63,
        "has_played": true,
        "id": 171790,
        "last_rank": 74395,
        "player_name": "Hugh Patrick Campbell",
        "rank": 69250,
        "rank_sort": 69254,
        "total": 2341
      },
      {
        "club_badge_src": null,
        "entry": 28518,
        "entry_name": "womp womp",
        "event_total": 59,
        "has_played": true,
        "id": 180319,
        "last_rank": 74474,
        "player_name": "Jonny Heath",
        "rank": 69250,
        "rank_sort": 69255,
        "total": 2341
      },
      {
        "club_badge_src": null,
        "entry": 30044,
        "entry_name": "The Nuc \u2b50\ufe0f",
        "event_total": 50,
        "has_played": true,
        "id": 190081,
        "last_rank": 50905,
        "player_name": "Mark Nolan",
        "rank": 69250,
        "rank_sort": 69256,
        "total": 2341
      },
      {
        "club_badge_src": null,
        "entry": 77080,
        "entry_name": "Hero Bianconero",
        "event_total": 66,
        "has_played": true,
        "id": 501001,
        "last_rank": 80877,
        "player_name": "Khaled Said",
        "rank": 69250,
        "rank_sort": 69257,
        "total": 2341
      },
      {
        "club_badge_src": null,
        "entry": 115307,
        "entry_name": "Valar ScoreGoalis",
        "event_total": 53,
        "has_played": true,
        "id": 752526,
        "last_rank": 55812,
        "player_name": "Tom Stevenson",
        "rank": 69250,
        "rank_sort": 69258,
        "total": 2341
      },
      {
        "club_badge_src": null,
        "entry": 128839,
        "entry_name": "Arda Cup Chaah",
        "event_total": 70,
        "has_played": true,
        "id": 839801,
        "last_rank": 100241,
        "player_name": "Sagar Chavan",
        "rank": 69250,
        "rank_sort": 69259,
        "total": 2341
      },
      {
        "club_badge_src": "https://fantasy.premierleague.com/gcs/plfpl-production-adobe-approved/plfpl-production/191217/dff702ce-c1cb-4d72-8b3d-91b99326c232.png",
        "entry": 191217,
        "entry_name": "Sourav's XI",
        "event_total": 65,
        "has_played": true,
        "id": 1266457,
        "last_rank": 78671,
        "player_name": "Sourav Mukherjee",
        "rank": 69250,
        "rank_sort": 69260,
        "total": 2341
      },
      {
        "club_badge_src": null,
        "entry": 270876,
        "entry_name": "G i O",
        "event_total": 68,
        "has_played": true,
        "id": 1802047,
        "last_rank": 95147,
        "player_name": "Moataz Salem",
        "rank": 69250,
        "rank_sort": 69261,
        "total": 2341
      },
      {
        "club_badge_src": "https://fantasy.premierleague.com/gcs/plfpl-production-adobe-approved/plfpl-production/287568/d5e4395b-36e5-4dcc-bd23-b22deea5038d.png",
        "entry": 287568,
        "entry_name": "Saka potatoes",
        "event_total": 73,
        "has_played": true,
        "id": 1916429,
        "last_rank": 97597,
        "player_name": "Bharath Subramanian",
        "rank": 69250,
        "rank_sort": 69262,
        "total": 2341
      },
      {
        "club_badge_src": "https://fantasy.premierleague.com/gcs/plfpl-production-adobe-approved/plfpl-production/339458/b730a51a-c089-469a-baa5-3aec1b6c308d.png",
        "entry": 339458,
        "entry_name": "BoomXhakalaka",
        "event_total": 61,
        "has_played": true,
        "id": 2272420,
        "last_rank": 78730,
        "player_name": "Tom Nixon",
        "rank": 69250,
        "rank_sort": 69263,
        "total": 2341
      },
      {
        "club_badge_src": "https://fantasy.premierleague.com/gcs/plfpl-production-adobe-approved/plfpl-production/513437/f61d1c25-482a-41fb-9065-5e91110ae666.png",
        "entry": 513437,
        "entry_name": "Atletik\u00f8 Ml\u00e4dice",
        "event_total": 47,
        "has_played": true,
        "id": 3447546,
        "last_rank": 52561,
        "player_name": "Srdjan Bozovic",
        "rank": 69250,
        "rank_sort": 69264,
        "total": 2341
      },
      {
        "club_badge_src": null,
        "entry": 515979,
        "entry_name": "Cookout Fc",
        "event_total": 60,
        "has_played": true,
        "id": 3464219,
        "last_rank": 68294,
        "player_name": "Joseph Lambele",
        "rank": 69250,
        "rank_sort": 69265,
        "total": 2341
      },
      {
        "club_badge_src": null,
        "entry": 607431,
        "entry_name": "who ate all depays",
        "event_total": 45,
        "has_played": true,
        "id": 4102201,
        "last_rank": 49442,
        "player_name": "Andrew Logan",
        "rank": 69250,
        "rank_sort": 69266,
        "total": 2341
      },
      {
        "club_badge_src": "https://fantasy.premierleague.com/gcs/plfpl-production-adobe-approved/plfpl-production/627856/bc325f9a-bd59-4ddc-806b-3e75712fcfbc.png",
        "entry": 627856,
        "entry_name": "\u2b50\ufe0fCAROLLO\u2b50\ufe0f",
        "event_total": 60,
        "has_played": true,
        "id": 4242654,
        "last_rank": 68294,
        "player_name": "Karol Pater",
        "rank": 69250,
        "rank_sort": 69267,
        "total": 2341
      },
      {
        "club_badge_src": null,
        "entry": 635701,
        "entry_name": "Red Devils",
        "event_total": 53,
        "has_played": true,
        "id": 4296251,
        "last_rank": 62874,
        "player_name": "Omar Wasfy",
        "rank": 69250,
        "rank_sort": 69268,
        "total": 2341
      },
      {
        "club_badge_src": "https://fantasy.premierleague.com/gcs/plfpl-production-adobe-approved/plfpl-production/843018/f475245a-75a8-4227-a43d-7e2c01f37b5d.png",
        "entry": 843018,
        "entry_name": "ahmed merza",
        "event_total": 55,
        "has_played": true,
        "id": 5776080,
        "last_rank": 66487,
        "player_name": "Abo Tim",
        "rank": 69250,
        "rank_sort": 69269,
        "total": 2341
      },
      {
        "club_badge_src": null,
        "entry": 988801,
        "entry_name": "AAAlbion",
        "event_total": 46,
        "has_played": true,
        "id": 6818075,
        "last_rank": 50956,
        "player_name": "al ashmore",
        "rank": 69250,
        "rank_sort": 69270,
        "total": 2341
      },
      {
        "club_badge_src": null,
        "entry": 989422,
        "entry_name": "Nako Nambua",
        "event_total": 67,
        "has_played": true,
        "id": 6822242,
        "last_rank": 92471,
        "player_name": "Lana Bulu",
        "rank": 69250,
        "rank_sort": 69271,
        "total": 2341
      },
      {
        "club_badge_src": null,
        "entry": 1009714,
        "entry_name": "Hell In Lascelles",
        "event_total": 58,
        "has_played": true,
        "id": 6981656,
        "last_rank": 64422,
        "player_name": "Ethan Brown",
        "rank": 69250,
        "rank_sort": 69272,
        "total": 2341
      },
      {
        "club_badge_src": "https://fantasy.premierleague.com/gcs/plfpl-production-adobe-approved/plfpl-production/1014400/a6f674c7-3c98-46e0-8cc4-91c8af7418d8.png",
        "entry": 1014400,
        "entry_name": "FPL Wanbee",
        "event_total": 52,
        "has_played": true,
        "id": 7017434,
        "last_rank": 47812,
        "player_name": "Mohd Reduan",
        "rank": 69250,
        "rank_sort": 69273,
        "total": 2341
      },
      {
        "club_badge_src": null,
        "entry": 1016864,
        "entry_name": "Palmer Violets",
        "event_total": 50,
        "has_played": true,
        "id": 7034734,
        "last_rank": 50905,
        "player_name": "David Williams",
        "rank": 69250,
        "rank_sort": 69274,
        "total": 2341
      },
      {
        "club_badge_src": null,
        "entry": 1233029,
        "entry_name": "Wirtz Case Scenario",
        "event_total": 50,
        "has_played": true,
        "id": 8562348,
        "last_rank": 57557,
        "player_name": "Conor Fallon",
        "rank": 69250,
        "rank_sort": 69275,
        "total": 2341
      },
      {
        "club_badge_src": null,
        "entry": 1384349,
        "entry_name": "Flinger FC",
        "event_total": 64,
        "has_played": true,
        "id": 9628317,
        "last_rank": 68216,
        "player_name": "Matt Fling",
        "rank": 69250,
        "rank_sort": 69276,
        "total": 2341
      },
      {
        "club_badge_src": "https://fantasy.premierleague.com/gcs/plfpl-production-adobe-approved/plfpl-production/1499175/2b9bffd8-13de-42da-b303-b77d78f11114.png",
        "entry": 1499175,
        "entry_name": "AbraHaalandra",
        "event_total": 38,
        "has_played": true,
        "id": 10455037,
        "last_rank": 39673,
        "player_name": "Klitos Klitou",
        "rank": 69250,
        "rank_sort": 69277,
        "total": 2341
      },
      {
        "club_badge_src": null,
        "entry": 1635995,
        "entry_name": "EVOL",
        "event_total": 64,
        "has_played": true,
        "id": 11451282,
        "last_rank": 85565,
        "player_name": "Temi Oladimeji",
        "rank": 69250,
        "rank_sort": 69278,
        "total": 2341
      },
      {
        "club_badge_src": null,
        "entry": 1637853,
        "entry_name": "Seymour Wins",
        "event_total": 73,
        "has_played": true,
        "id": 11464355,
        "last_rank": 87541,
        "player_name": "N Seymour",
        "rank": 69250,
        "rank_sort": 69279,
        "total": 2341
      },
      {
        "club_badge_src": null,
        "entry": 1654110,
        "entry_name": "Saka spuds",
        "event_total": 50,
        "has_played": true,
        "id": 11580549,
        "last_rank": 57557,
        "player_name": "Leigh Taylor",
        "rank": 69250,
        "rank_sort": 69280,
        "total": 2341
      },
      {
        "club_badge_src": null,
        "entry": 2265724,
        "entry_name": "Tymon for Stoppages",
        "event_total": 76,
        "has_played": true,
        "id": 16154624,
        "last_rank": 116461,
        "player_name": "Ceri Stone",
        "rank": 69250,
        "rank_sort": 69281,
        "total": 2341
      },
      {
        "club_badge_src": null,
        "entry": 2346361,
        "entry_name": "makemeharder",
        "event_total": 62,
        "has_played": true,
        "id": 16742196,
        "last_rank": 80965,
        "player_name": "CHIHWAN KIM",
        "rank": 69250,
        "rank_sort": 69282,
        "total": 2341
      },
      {
        "club_badge_src": null,
        "entry": 2360287,
        "entry_name": "Ctrl alt de Ligt",
        "event_total": 60,
        "has_played": true,
        "id": 16844568,
        "last_rank": 76638,
        "player_name": "Srisutha Sarma Ganesasarma",
        "rank": 69250,
        "rank_sort": 69283,
        "total": 2341
      },
      {
        "club_badge_src": null,
        "entry": 2879822,
        "entry_name": "Mahdy Mohamed",
        "event_total": 79,
        "has_played": true,
        "id": 21081230,
        "last_rank": 125397,
        "player_name": "Mahdy Mohaned",
        "rank": 69250,
        "rank_sort": 69284,
        "total": 2341
      },
      {
        "club_badge_src": null,
        "entry": 2928002,
        "entry_name": "Kyle Walker-Cheaters",
        "event_total": 68,
        "has_played": true,
        "id": 21466231,
        "last_rank": 95147,
        "player_name": "Connor Ford",
        "rank": 69250,
        "rank_sort": 69285,
        "total": 2341
      },
      {
        "club_badge_src": null,
        "entry": 2963072,
        "entry_name": "Mulhaaland Drive",
        "event_total": 76,
        "has_played": true,
        "id": 21767007,
        "last_rank": 116461,
        "player_name": "Louis Mills",
        "rank": 69250,
        "rank_sort": 69286,
        "total": 2341
      },
      {
        "club_badge_src": null,
        "entry": 2977636,
        "entry_name": "Valdimontone",
        "event_total": 66,
        "has_played": true,
        "id": 21885701,
        "last_rank": 90229,
        "player_name": "Grant Bonin",
        "rank": 69250,
        "rank_sort": 69287,
        "total": 2341
      },
      {
        "club_badge_src": null,
        "entry": 3062803,
        "entry_name": "Tigers \ufffd",
        "event_total": 64,
        "has_played": true,
        "id": 22550098,
        "last_rank": 85565,
        "player_name": "Mohamed Elnemr",
        "rank": 69250,
        "rank_sort": 69288,
        "total": 2341
      },
      {
        "club_badge_src": "https://fantasy.premierleague.com/gcs/plfpl-production-adobe-approved/plfpl-production/3123316/5c92bcaa-bec7-45a1-b424-8b1334cf87dc.png",
        "entry": 3123316,
        "entry_name": "YourMom\u2019sFavouriteXI",
        "event_total": 61,
        "has_played": true,
        "id": 23049696,
        "last_rank": 78730,
        "player_name": "V Ngala",
        "rank": 69250,
        "rank_sort": 69289,
        "total": 2341
      },
      {
        "club_badge_src": null,
        "entry": 3142137,
        "entry_name": "Viagraboys",
        "event_total": 62,
        "has_played": true,
        "id": 23197906,
        "last_rank": 80965,
        "player_name": "Filip Andersson",
        "rank": 69250,
        "rank_sort": 69290,
        "total": 2341
      },
      {
        "club_badge_src": null,
        "entry": 3187301,
        "entry_name": "Archimo",
        "event_total": 75,
        "has_played": true,
        "id": 23554476,
        "last_rank": 92471,
        "player_name": "Karim Ibrahim",
        "rank": 69250,
        "rank_sort": 69291,
        "total": 2341
      },
      {
        "club_badge_src": null,
        "entry": 3291096,
        "entry_name": "Krul n the Gang",
        "event_total": 65,
        "has_played": true,
        "id": 24367294,
        "last_rank": 78671,
        "player_name": "Will Radford",
        "rank": 69250,
        "rank_sort": 69292,
        "total": 2341
      },
      {
        "club_badge_src": null,
        "entry": 3381827,
        "entry_name": "UserNotFound",
        "event_total": 61,
        "has_played": true,
        "id": 25103288,
        "last_rank": 62724,
        "player_name": "Giovannis Orphanos",
        "rank": 69250,
        "rank_sort": 69293,
        "total": 2341
      },
      {
        "club_badge_src": null,
        "entry": 3589129,
        "entry_name": "Hima",
        "event_total": 74,
        "has_played": true,
        "id": 26729492,
        "last_rank": 110813,
        "player_name": "Ibrahim Mohamed",
        "rank": 69250,
        "rank_sort": 69294,
        "total": 2341
      },
      {
        "club_badge_src": null,
        "entry": 3654476,
        "entry_name": "StoneColdStevePALMER",
        "event_total": 67,
        "has_played": true,
        "id": 27241770,
        "last_rank": 92602,
        "player_name": "Aman Kun",
        "rank": 69250,
        "rank_sort": 69295,
        "total": 2341
      },
      {
        "club_badge_src": "https://fantasy.premierleague.com/gcs/plfpl-production-adobe-approved/plfpl-production/3698510/ccd43a18-4bd0-460f-a0e7-bdd2540cffb5.png",
        "entry": 3698510,
        "entry_name": "DontLookBackInElanga",
        "event_total": 59,
        "has_played": true,
        "id": 27594476,
        "last_rank": 66380,
        "player_name": "Dan Jobson",
        "rank": 69250,
        "rank_sort": 69296,
        "total": 2341
      },
      {
        "club_badge_src": null,
        "entry": 3881710,
        "entry_name": "HOBO-KO",
        "event_total": 69,
        "has_played": true,
        "id": 29166813,
        "last_rank": 97597,
        "player_name": "Dan Eades",
        "rank": 69250,
        "rank_sort": 69297,
        "total": 2341
      },
      {
        "club_badge_src": null,
        "entry": 3899735,
        "entry_name": "Weh Yuh A Deal Wid",
        "event_total": 71,
        "has_played": true,
        "id": 29314878,
        "last_rank": 102767,
        "player_name": "Jerome Robinson",
        "rank": 69250,
        "rank_sort": 69298,
        "total": 2341
      },
      {
        "club_badge_src": null,
        "entry": 4002583,
        "entry_name": "Shegz FC",
        "event_total": 55,
        "has_played": true,
        "id": 30148595,
        "last_rank": 59249,
        "player_name": "Olabode Oluwasegun",
        "rank": 69250,
        "rank_sort": 69299,
        "total": 2341
      },
      {
        "club_badge_src": "https://fantasy.premierleague.com/gcs/plfpl-production-adobe-approved/plfpl-production/4154514/46e8e1dd-8994-4121-bd4c-2e44c74d41aa.png",
        "entry": 4154514,
        "entry_name": "Ya Cunha Kaya Toast",
        "event_total": 65,
        "has_played": true,
        "id": 31402971,
        "last_rank": 87808,
        "player_name": "Alonzo Fong",
        "rank": 69250,
        "rank_sort": 69300,
        "total": 2341
      }
    ]
  }
}