{
  "last_updated_data": "2026-05-24T23:28:17Z",
  "league": {
    "admin_entry": null,
    "closed": false,
    "code_privacy": "p",
    "created": "2025-07-20T23:14:33.933835Z",
    "cup_league": 2815434,
    "has_cup": true,
    "id": 314,
    "league_type": "s",
    "max_entries": null,
    "name": "Overall",
    "rank": null,
    "scoring": "c",
    "start_event": 1
  },
  "new_entries": {
    "has_next": false,
    "page": 1,
    "results": []
  },
  "standings": {
    "has_next": true,
    "page": 674,
    "results": [
      {
        "club_badge_src": null,
        "entry": 412172,
        "entry_name": "Jellybabies",
        "event_total": 60,
        "has_played": true,
        "id": 2763568,
        "last_rank": 32335,
        "player_name": "Rian McWilliams",
        "rank": 33640,
        "rank_sort": 33651,
        "total": 2365
      },
      {
        "club_badge_src": null,
        "entry": 430643,
        "entry_name": "FafMagic",
        "event_total": 67,
        "has_played": true,
        "id": 2888268,
        "last_rank": 40647,
        "player_name": "Frans Bergh",
        "rank": 33640,
        "rank_sort": 33652,
        "total": 2365
      },
      {
        "club_badge_src": null,
        "entry": 456389,
        "entry_name": "FC LePa",
        "event_total": 54,
        "has_played": true,
        "id": 3061992,
        "last_rank": 30276,
        "player_name": "Esko Nikkonen",
        "rank": 33640,
        "rank_sort": 33653,
        "total": 2365
      },
      {
        "club_badge_src": null,
        "entry": 471529,
        "entry_name": "h",
        "event_total": 55,
        "has_played": true,
        "id": 3165683,
        "last_rank": 31309,
        "player_name": "Hayden Flint",
        "rank": 33640,
        "rank_sort": 33654,
        "total": 2365
      },
      {
        "club_badge_src": null,
        "entry": 492515,
        "entry_name": "We\u2019ll have a Lookman",
        "event_total": 52,
        "has_played": true,
        "id": 3306132,
        "last_rank": 28273,
        "player_name": "Jackson Humes",
        "rank": 33640,
        "rank_sort": 33655,
        "total": 2365
      },
      {
        "club_badge_src": null,
        "entry": 594870,
        "entry_name": "Lukes Legends",
        "event_total": 55,
        "has_played": true,
        "id": 4009830,
        "last_rank": 31309,
        "player_name": "luke wooldridge",
        "rank": 33640,
        "rank_sort": 33656,
        "total": 2365
      },
      {
        "club_badge_src": null,
        "entry": 627011,
        "entry_name": "LaLaSlot",
        "event_total": 56,
        "has_played": true,
        "id": 4237072,
        "last_rank": 32437,
        "player_name": "Fahim Faisal",
        "rank": 33640,
        "rank_sort": 33657,
        "total": 2365
      },
      {
        "club_badge_src": null,
        "entry": 676393,
        "entry_name": "FF",
        "event_total": 61,
        "has_played": true,
        "id": 4576237,
        "last_rank": 38267,
        "player_name": "\u0641\u064a\u0635\u0644 \u0627\u0644\u0634\u0645\u0631\u064a",
        "rank": 33640,
        "rank_sort": 33658,
        "total": 2365
      },
      {
        "club_badge_src": null,
        "entry": 697491,
        "entry_name": "ICE SV",
        "event_total": 52,
        "has_played": true,
        "id": 4724674,
        "last_rank": 28388,
        "player_name": "Sebastian Velasco",
        "rank": 33640,
        "rank_sort": 33659,
        "total": 2365
      },
      {
        "club_badge_src": "https://fantasy.premierleague.com/gcs/plfpl-production-adobe-approved/plfpl-production/700977/7934d6c6-8301-4280-b431-6f75dd6e6f86.png",
        "entry": 700977,
        "entry_name": "We Smash Again!!!",
        "event_total": 63,
        "has_played": true,
        "id": 4749430,
        "last_rank": 40647,
        "player_name": "Oladebo Alapo",
        "rank": 33640,
        "rank_sort": 33660,
        "total": 2365
      },
      {
        "club_badge_src": null,
        "entry": 746087,
        "entry_name": "Newton Heath FC",
        "event_total": 54,
        "has_played": true,
        "id": 5075443,
        "last_rank": 30191,
        "player_name": "Parag Singh",
        "rank": 33640,
        "rank_sort": 33661,
        "total": 2365
      },
      {
        "club_badge_src": null,
        "entry": 832563,
        "entry_name": "Lez Zeppelin",
        "event_total": 60,
        "has_played": true,
        "id": 5702662,
        "last_rank": 28150,
        "player_name": "James Parker",
        "rank": 33640,
        "rank_sort": 33662,
        "total": 2365
      },
      {
        "club_badge_src": null,
        "entry": 909777,
        "entry_name": "The Cormorants",
        "event_total": 59,
        "has_played": true,
        "id": 6254495,
        "last_rank": 31236,
        "player_name": "Johan \u00c5slund",
        "rank": 33640,
        "rank_sort": 33663,
        "total": 2365
      },
      {
        "club_badge_src": "https://fantasy.premierleague.com/gcs/plfpl-production-adobe-approved/plfpl-production/910506/80032571-201d-4980-98f0-9a48f2b00942.png",
        "entry": 910506,
        "entry_name": "Schmeichel Jackson",
        "event_total": 45,
        "has_played": true,
        "id": 6260374,
        "last_rank": 16441,
        "player_name": "K B",
        "rank": 33640,
        "rank_sort": 33664,
        "total": 2365
      },
      {
        "club_badge_src": "https://fantasy.premierleague.com/gcs/plfpl-production-adobe-approved/plfpl-production/914938/7ea37597-4308-4420-b90c-8b197cc43d1f.png",
        "entry": 914938,
        "entry_name": "Allblacks*",
        "event_total": 66,
        "has_played": true,
        "id": 6291499,
        "last_rank": 44672,
        "player_name": "Stijn ter Welle",
        "rank": 33640,
        "rank_sort": 33665,
        "total": 2365
      },
      {
        "club_badge_src": null,
        "entry": 1014412,
        "entry_name": "Le Saux Solid Crew",
        "event_total": 65,
        "has_played": true,
        "id": 7017535,
        "last_rank": 43444,
        "player_name": "Ben Terry",
        "rank": 33640,
        "rank_sort": 33666,
        "total": 2365
      },
      {
        "club_badge_src": null,
        "entry": 1031916,
        "entry_name": "Last place again??",
        "event_total": 58,
        "has_played": true,
        "id": 7139563,
        "last_rank": 26230,
        "player_name": "Luk\u00e1\u0161 Re\u017en\u00fd",
        "rank": 33640,
        "rank_sort": 33667,
        "total": 2365
      },
      {
        "club_badge_src": null,
        "entry": 1055598,
        "entry_name": "Reijnders keepers",
        "event_total": 64,
        "has_played": true,
        "id": 7305394,
        "last_rank": 32190,
        "player_name": "Harry Ross",
        "rank": 33640,
        "rank_sort": 33668,
        "total": 2365
      },
      {
        "club_badge_src": null,
        "entry": 1064389,
        "entry_name": "Two Way Petting Zoo",
        "event_total": 67,
        "has_played": true,
        "id": 7368422,
        "last_rank": 40647,
        "player_name": "Hjalte Kragesteen",
        "rank": 33640,
        "rank_sort": 33669,
        "total": 2365
      },
      {
        "club_badge_src": "https://fantasy.premierleague.com/gcs/plfpl-production-adobe-approved/plfpl-production/1364901/ef990148-ab98-4c3f-91ad-c156d84a1dfc.png",
        "entry": 1364901,
        "entry_name": "Bryeus Mbunha",
        "event_total": 63,
        "has_played": true,
        "id": 9488266,
        "last_rank": 35768,
        "player_name": "Afrasiyab Azam Sulehri",
        "rank": 33640,
        "rank_sort": 33670,
        "total": 2365
      },
      {
        "club_badge_src": null,
        "entry": 1382533,
        "entry_name": "LK United",
        "event_total": 41,
        "has_played": true,
        "id": 9615624,
        "last_rank": 19237,
        "player_name": "Chris Lewis",
        "rank": 33640,
        "rank_sort": 33671,
        "total": 2365
      },
      {
        "club_badge_src": null,
        "entry": 1397239,
        "entry_name": "TheIncredibles",
        "event_total": 63,
        "has_played": true,
        "id": 9720665,
        "last_rank": 35424,
        "player_name": "William Zelada",
        "rank": 33640,
        "rank_sort": 33672,
        "total": 2365
      },
      {
        "club_badge_src": null,
        "entry": 1486789,
        "entry_name": "In Good Kompany",
        "event_total": 72,
        "has_played": true,
        "id": 10368067,
        "last_rank": 53837,
        "player_name": "Louis Andrews",
        "rank": 33640,
        "rank_sort": 33673,
        "total": 2365
      },
      {
        "club_badge_src": "https://fantasy.premierleague.com/gcs/plfpl-production-adobe-approved/plfpl-production/1492540/943fa97a-36c8-486b-a0c2-4328f4c70243.png",
        "entry": 1492540,
        "entry_name": "MbuemoSegundoPaloGOL",
        "event_total": 58,
        "has_played": true,
        "id": 10408344,
        "last_rank": 34682,
        "player_name": "Philip Villalta",
        "rank": 33640,
        "rank_sort": 33674,
        "total": 2365
      },
      {
        "club_badge_src": null,
        "entry": 1712632,
        "entry_name": "Salt Lake City",
        "event_total": 89,
        "has_played": true,
        "id": 12000337,
        "last_rank": 87541,
        "player_name": "Tyrell Andrews",
        "rank": 33640,
        "rank_sort": 33675,
        "total": 2365
      },
      {
        "club_badge_src": "https://fantasy.premierleague.com/gcs/plfpl-production-adobe-approved/plfpl-production/1850216/263d791d-7e51-4b26-aa60-f4d90ef5ed51.png",
        "entry": 1850216,
        "entry_name": "Sultans of Ping FC",
        "event_total": 42,
        "has_played": true,
        "id": 13019396,
        "last_rank": 19904,
        "player_name": "Robin Bonass",
        "rank": 33640,
        "rank_sort": 33676,
        "total": 2365
      },
      {
        "club_badge_src": "https://fantasy.premierleague.com/gcs/plfpl-production-adobe-approved/plfpl-production/1918632/16b29edb-255d-4392-9462-1d42ff19c1ef.png",
        "entry": 1918632,
        "entry_name": "Farcalona",
        "event_total": 59,
        "has_played": true,
        "id": 13528918,
        "last_rank": 35867,
        "player_name": "Joshua Page",
        "rank": 33640,
        "rank_sort": 33677,
        "total": 2365
      },
      {
        "club_badge_src": null,
        "entry": 2045732,
        "entry_name": "Al-Ahly 10/10",
        "event_total": 61,
        "has_played": true,
        "id": 14488270,
        "last_rank": 29071,
        "player_name": "Abdelrahman Mohd99",
        "rank": 33640,
        "rank_sort": 33678,
        "total": 2365
      },
      {
        "club_badge_src": null,
        "entry": 2046703,
        "entry_name": "Kinsky's Boots",
        "event_total": 57,
        "has_played": true,
        "id": 14495424,
        "last_rank": 33582,
        "player_name": "Nick Davis",
        "rank": 33640,
        "rank_sort": 33679,
        "total": 2365
      },
      {
        "club_badge_src": "https://fantasy.premierleague.com/gcs/plfpl-production-adobe-approved/plfpl-production/2209332/9d80a74b-6624-4d4f-8858-6751b8c07e0d.png",
        "entry": 2209332,
        "entry_name": "Shut the Krug up",
        "event_total": 61,
        "has_played": true,
        "id": 15732369,
        "last_rank": 38267,
        "player_name": "Fin -",
        "rank": 33640,
        "rank_sort": 33680,
        "total": 2365
      },
      {
        "club_badge_src": "https://fantasy.premierleague.com/gcs/plfpl-production-adobe-approved/plfpl-production/2251038/819f0a90-a009-4487-a14d-84fe94e83bf7.png",
        "entry": 2251038,
        "entry_name": "StickerEnjineer",
        "event_total": 62,
        "has_played": true,
        "id": 16040147,
        "last_rank": 34578,
        "player_name": "Jarot Pambudi",
        "rank": 33640,
        "rank_sort": 33681,
        "total": 2365
      },
      {
        "club_badge_src": null,
        "entry": 2313030,
        "entry_name": "Crystal Cupholders",
        "event_total": 65,
        "has_played": true,
        "id": 16499623,
        "last_rank": 43444,
        "player_name": "Adam Scott",
        "rank": 33640,
        "rank_sort": 33682,
        "total": 2365
      },
      {
        "club_badge_src": "https://fantasy.premierleague.com/gcs/plfpl-production-adobe-approved/plfpl-production/2467463/5cf6db07-8f72-4bf1-9ffc-85372abc0901.png",
        "entry": 2467463,
        "entry_name": "Sideshow Bobb",
        "event_total": 70,
        "has_played": true,
        "id": 17650454,
        "last_rank": 50772,
        "player_name": "Tim Schoenmaekers",
        "rank": 33640,
        "rank_sort": 33683,
        "total": 2365
      },
      {
        "club_badge_src": null,
        "entry": 2602099,
        "entry_name": "Gabi's Corner Shop",
        "event_total": 72,
        "has_played": true,
        "id": 18689390,
        "last_rank": 53952,
        "player_name": "Matthew Friel",
        "rank": 33640,
        "rank_sort": 33684,
        "total": 2365
      },
      {
        "club_badge_src": null,
        "entry": 2712397,
        "entry_name": "GunnerGetcha",
        "event_total": 67,
        "has_played": true,
        "id": 19515379,
        "last_rank": 40503,
        "player_name": "Vayu Robins",
        "rank": 33640,
        "rank_sort": 33685,
        "total": 2365
      },
      {
        "club_badge_src": null,
        "entry": 2801077,
        "entry_name": "Wrld Champs till '29",
        "event_total": 64,
        "has_played": true,
        "id": 20454431,
        "last_rank": 36831,
        "player_name": "Oshor Collins",
        "rank": 33640,
        "rank_sort": 33686,
        "total": 2365
      },
      {
        "club_badge_src": null,
        "entry": 2898156,
        "entry_name": "Frankydourememberme",
        "event_total": 42,
        "has_played": true,
        "id": 21237118,
        "last_rank": 17150,
        "player_name": "Robert Turner",
        "rank": 33640,
        "rank_sort": 33687,
        "total": 2365
      },
      {
        "club_badge_src": null,
        "entry": 2983092,
        "entry_name": "mohamed adel",
        "event_total": 23,
        "has_played": true,
        "id": 21933636,
        "last_rank": 9402,
        "player_name": "Mohamed Adel",
        "rank": 33640,
        "rank_sort": 33688,
        "total": 2365
      },
      {
        "club_badge_src": null,
        "entry": 3111333,
        "entry_name": "Is everything ok?",
        "event_total": 63,
        "has_played": true,
        "id": 22959643,
        "last_rank": 40770,
        "player_name": "David Guilmartin",
        "rank": 33640,
        "rank_sort": 33689,
        "total": 2365
      },
      {
        "club_badge_src": null,
        "entry": 3190941,
        "entry_name": "Nothing But Greaves",
        "event_total": 67,
        "has_played": true,
        "id": 23582174,
        "last_rank": 40647,
        "player_name": "David Moritz",
        "rank": 33640,
        "rank_sort": 33690,
        "total": 2365
      },
      {
        "club_badge_src": null,
        "entry": 3516437,
        "entry_name": "Verde_Amarela FC",
        "event_total": 84,
        "has_played": true,
        "id": 26167243,
        "last_rank": 67926,
        "player_name": "Nesh _Mon",
        "rank": 33640,
        "rank_sort": 33691,
        "total": 2365
      },
      {
        "club_badge_src": null,
        "entry": 3808550,
        "entry_name": "Hartley\u2019s Heroes",
        "event_total": 51,
        "has_played": true,
        "id": 28475778,
        "last_rank": 27364,
        "player_name": "Andrew Hartley",
        "rank": 33640,
        "rank_sort": 33692,
        "total": 2365
      },
      {
        "club_badge_src": "https://fantasy.premierleague.com/gcs/plfpl-production-adobe-approved/plfpl-production/4328811/a3f56bbe-eb1c-4424-ac57-2bfba0005ed6.png",
        "entry": 4328811,
        "entry_name": "Shut the Wirtz",
        "event_total": 54,
        "has_played": true,
        "id": 32856283,
        "last_rank": 26345,
        "player_name": "Dimitris Tallis",
        "rank": 33640,
        "rank_sort": 33693,
        "total": 2365
      },
      {
        "club_badge_src": null,
        "entry": 4561263,
        "entry_name": "very bad team",
        "event_total": 69,
        "has_played": true,
        "id": 34806068,
        "last_rank": 42940,
        "player_name": "Ahmed Alani",
        "rank": 33640,
        "rank_sort": 33694,
        "total": 2365
      },
      {
        "club_badge_src": null,
        "entry": 4639369,
        "entry_name": "FPL final boss",
        "event_total": 57,
        "has_played": true,
        "id": 35480744,
        "last_rank": 33582,
        "player_name": "Scott H",
        "rank": 33640,
        "rank_sort": 33695,
        "total": 2365
      },
      {
        "club_badge_src": "https://fantasy.premierleague.com/gcs/plfpl-production-adobe-approved/plfpl-production/4811730/bad025bb-c698-4bdc-a729-9cc04e144542.png",
        "entry": 4811730,
        "entry_name": "AdnanFC",
        "event_total": 56,
        "has_played": true,
        "id": 37050071,
        "last_rank": 28273,
        "player_name": "Nanda Risky",
        "rank": 33640,
        "rank_sort": 33696,
        "total": 2365
      },
      {
        "club_badge_src": null,
        "entry": 5074353,
        "entry_name": "The Butcher",
        "event_total": 53,
        "has_played": true,
        "id": 39216147,
        "last_rank": 29279,
        "player_name": "Joseph Mile",
        "rank": 33640,
        "rank_sort": 33697,
        "total": 2365
      },
      {
        "club_badge_src": null,
        "entry": 5197516,
        "entry_name": "NK Klaka",
        "event_total": 59,
        "has_played": true,
        "id": 40244239,
        "last_rank": 30957,
        "player_name": "Mislav Radas",
        "rank": 33640,
        "rank_sort": 33698,
        "total": 2365
      },
      {
        "club_badge_src": "https://fantasy.premierleague.com/gcs/plfpl-production-adobe-approved/plfpl-production/5250805/70b64bd1-7591-4813-aa19-f50a3544ed55.png",
        "entry": 5250805,
        "entry_name": "Nodge Utd",
        "event_total": 54,
        "has_played": true,
        "id": 40694999,
        "last_rank": 30191,
        "player_name": "Neil Carey",
        "rank": 33640,
        "rank_sort": 33699,
        "total": 2365
      },
      {
        "club_badge_src": null,
        "entry": 5423220,
        "entry_name": "Amakhosi",
        "event_total": 66,
        "has_played": true,
        "id": 42180507,
        "last_rank": 44303,
        "player_name": "Paul Eastoe",
        "rank": 33640,
        "rank_sort": 33700,
        "total": 2365
      }
    ]
  }
}