{
  "last_updated_data": "2026-05-24T23:28:17Z",
  "league": {
    "admin_entry": null,
    "closed": false,
    "code_privacy": "p",
    "created": "2025-07-20T23:14:33.933835Z",
    "cup_league": 2815434,
    "has_cup": true,
    "id": 314,
    "league_type": "s",
    "max_entries": null,
    "name": "Overall",
    "rank": null,
    "scoring": "c",
    "start_event": 1
  },
  "new_entries": {
    "has_next": false,
    "page": 1,
    "results": []
  },
  "standings": {
    "has_next": true,
    "page": 874,
    "results": [
      {
        "club_badge_src": null,
        "entry": 1886492,
        "entry_name": "Falcon Rovers",
        "event_total": 52,
        "has_played": true,
        "id": 13293351,
        "last_rank": 37435,
        "player_name": "Gregg Muspratt",
        "rank": 43627,
        "rank_sort": 43651,
        "total": 2356
      },
      {
        "club_badge_src": null,
        "entry": 1940316,
        "entry_name": "Victorious Secret",
        "event_total": 47,
        "has_played": true,
        "id": 13686102,
        "last_rank": 31556,
        "player_name": "Sooruj Ghangass",
        "rank": 43627,
        "rank_sort": 43652,
        "total": 2356
      },
      {
        "club_badge_src": null,
        "entry": 1965270,
        "entry_name": "Let's be Frank",
        "event_total": 45,
        "has_played": true,
        "id": 13866931,
        "last_rank": 29495,
        "player_name": "Jonathan French",
        "rank": 43627,
        "rank_sort": 43653,
        "total": 2356
      },
      {
        "club_badge_src": null,
        "entry": 2120743,
        "entry_name": "Razzmatazz fc",
        "event_total": 53,
        "has_played": true,
        "id": 15064414,
        "last_rank": 33869,
        "player_name": "martin tomney",
        "rank": 43627,
        "rank_sort": 43654,
        "total": 2356
      },
      {
        "club_badge_src": null,
        "entry": 2193549,
        "entry_name": "hejaa",
        "event_total": 51,
        "has_played": true,
        "id": 15606978,
        "last_rank": 36110,
        "player_name": "Michal Sitkiewicz",
        "rank": 43627,
        "rank_sort": 43655,
        "total": 2356
      },
      {
        "club_badge_src": null,
        "entry": 2277857,
        "entry_name": "Old Gits",
        "event_total": 64,
        "has_played": true,
        "id": 16243179,
        "last_rank": 54494,
        "player_name": "john gittins",
        "rank": 43627,
        "rank_sort": 43656,
        "total": 2356
      },
      {
        "club_badge_src": null,
        "entry": 2349136,
        "entry_name": "PaiChonri",
        "event_total": 60,
        "has_played": true,
        "id": 16761689,
        "last_rank": 48119,
        "player_name": "Phatarakorn Udomphol",
        "rank": 43627,
        "rank_sort": 43657,
        "total": 2356
      },
      {
        "club_badge_src": null,
        "entry": 2627013,
        "entry_name": "Will (@the) helmson",
        "event_total": 50,
        "has_played": true,
        "id": 18877629,
        "last_rank": 35034,
        "player_name": "Will Hardcastle",
        "rank": 43627,
        "rank_sort": 43658,
        "total": 2356
      },
      {
        "club_badge_src": null,
        "entry": 2916987,
        "entry_name": "MbeuMeHarder",
        "event_total": 44,
        "has_played": true,
        "id": 21381110,
        "last_rank": 28726,
        "player_name": "Darren s",
        "rank": 43627,
        "rank_sort": 43659,
        "total": 2356
      },
      {
        "club_badge_src": null,
        "entry": 2991085,
        "entry_name": "Klime",
        "event_total": 45,
        "has_played": true,
        "id": 21997946,
        "last_rank": 29688,
        "player_name": "Petar Arizankoski",
        "rank": 43627,
        "rank_sort": 43660,
        "total": 2356
      },
      {
        "club_badge_src": null,
        "entry": 3016367,
        "entry_name": "Aragoone",
        "event_total": 60,
        "has_played": true,
        "id": 22191859,
        "last_rank": 48084,
        "player_name": "Ayoub Lamdayeb",
        "rank": 43627,
        "rank_sort": 43661,
        "total": 2356
      },
      {
        "club_badge_src": "https://fantasy.premierleague.com/gcs/plfpl-production-adobe-approved/plfpl-production/3222888/606dcba6-49db-4c32-8c32-f930e0d66256.png",
        "entry": 3222888,
        "entry_name": "We talk about Bruno",
        "event_total": 57,
        "has_played": true,
        "id": 23833093,
        "last_rank": 43849,
        "player_name": "Magnus Christiansen",
        "rank": 43627,
        "rank_sort": 43662,
        "total": 2356
      },
      {
        "club_badge_src": null,
        "entry": 3266202,
        "entry_name": "Leines.IL",
        "event_total": 50,
        "has_played": true,
        "id": 24169733,
        "last_rank": 35166,
        "player_name": "Svein Aasjord",
        "rank": 43627,
        "rank_sort": 43663,
        "total": 2356
      },
      {
        "club_badge_src": "https://fantasy.premierleague.com/gcs/plfpl-production-adobe-approved/plfpl-production/3296838/f701e30e-2c8b-4a65-9b1c-cf9bccf4a17b.png",
        "entry": 3296838,
        "entry_name": "FC G-shock",
        "event_total": 52,
        "has_played": true,
        "id": 24414558,
        "last_rank": 37589,
        "player_name": "Lasse Gerhardsen",
        "rank": 43627,
        "rank_sort": 43664,
        "total": 2356
      },
      {
        "club_badge_src": null,
        "entry": 3297520,
        "entry_name": "Dom's XI",
        "event_total": 58,
        "has_played": true,
        "id": 24420273,
        "last_rank": 45252,
        "player_name": "Dom Hardesty",
        "rank": 43627,
        "rank_sort": 43665,
        "total": 2356
      },
      {
        "club_badge_src": null,
        "entry": 3803573,
        "entry_name": "Turkish de Ligt",
        "event_total": 71,
        "has_played": true,
        "id": 28435032,
        "last_rank": 67063,
        "player_name": "Adam Kent",
        "rank": 43627,
        "rank_sort": 43666,
        "total": 2356
      },
      {
        "club_badge_src": null,
        "entry": 3803659,
        "entry_name": "Lokomotiv Spekulasi",
        "event_total": 71,
        "has_played": true,
        "id": 28435783,
        "last_rank": 66693,
        "player_name": "Eirik Aune",
        "rank": 43627,
        "rank_sort": 43667,
        "total": 2356
      },
      {
        "club_badge_src": null,
        "entry": 4017819,
        "entry_name": "KraDookYung",
        "event_total": 48,
        "has_played": true,
        "id": 30279303,
        "last_rank": 32879,
        "player_name": "Neung Jirakunkittipat",
        "rank": 43627,
        "rank_sort": 43668,
        "total": 2356
      },
      {
        "club_badge_src": null,
        "entry": 4058180,
        "entry_name": "Victor Moses Lawn",
        "event_total": 56,
        "has_played": true,
        "id": 30622190,
        "last_rank": 42434,
        "player_name": "Jake Davey",
        "rank": 43627,
        "rank_sort": 43669,
        "total": 2356
      },
      {
        "club_badge_src": null,
        "entry": 4106073,
        "entry_name": "FishFloppersUtd",
        "event_total": 49,
        "has_played": true,
        "id": 31007818,
        "last_rank": 33827,
        "player_name": "David Fish",
        "rank": 43627,
        "rank_sort": 43670,
        "total": 2356
      },
      {
        "club_badge_src": null,
        "entry": 4216546,
        "entry_name": "BBB FC",
        "event_total": 64,
        "has_played": true,
        "id": 31933017,
        "last_rank": 54416,
        "player_name": "Matt Dalton",
        "rank": 43627,
        "rank_sort": 43671,
        "total": 2356
      },
      {
        "club_badge_src": "https://fantasy.premierleague.com/gcs/plfpl-production-adobe-approved/plfpl-production/4284333/418ee63a-6ff8-418c-ad21-d63f1f05933c.png",
        "entry": 4284333,
        "entry_name": "Justice for Evra",
        "event_total": 57,
        "has_played": true,
        "id": 32495032,
        "last_rank": 43849,
        "player_name": "Alex Perry",
        "rank": 43627,
        "rank_sort": 43672,
        "total": 2356
      },
      {
        "club_badge_src": "https://fantasy.premierleague.com/gcs/plfpl-production-adobe-approved/plfpl-production/4558639/a2110a49-6189-4dab-abde-840ad8079018.png",
        "entry": 4558639,
        "entry_name": "Kraken FC",
        "event_total": 63,
        "has_played": true,
        "id": 34785207,
        "last_rank": 52853,
        "player_name": "Jake Monton",
        "rank": 43627,
        "rank_sort": 43673,
        "total": 2356
      },
      {
        "club_badge_src": null,
        "entry": 4565166,
        "entry_name": "Westminster FC",
        "event_total": 63,
        "has_played": true,
        "id": 34837162,
        "last_rank": 52853,
        "player_name": "Mike Pfarr",
        "rank": 43627,
        "rank_sort": 43674,
        "total": 2356
      },
      {
        "club_badge_src": null,
        "entry": 4592942,
        "entry_name": "Wirtz the craic?",
        "event_total": 72,
        "has_played": true,
        "id": 35074477,
        "last_rank": 68748,
        "player_name": "Tristan McCabe",
        "rank": 43627,
        "rank_sort": 43675,
        "total": 2356
      },
      {
        "club_badge_src": null,
        "entry": 4593599,
        "entry_name": "Old Havertz Kai Hard",
        "event_total": 68,
        "has_played": true,
        "id": 35079931,
        "last_rank": 61411,
        "player_name": "Jesse Howkins-Corona",
        "rank": 43627,
        "rank_sort": 43676,
        "total": 2356
      },
      {
        "club_badge_src": null,
        "entry": 4604925,
        "entry_name": "The XI Zubimendments",
        "event_total": 53,
        "has_played": true,
        "id": 35181733,
        "last_rank": 38774,
        "player_name": "Nkereuwem Ekanem",
        "rank": 43627,
        "rank_sort": 43677,
        "total": 2356
      },
      {
        "club_badge_src": "https://fantasy.premierleague.com/gcs/plfpl-production-adobe-approved/plfpl-production/4609253/fe70d7e1-e557-4407-97fc-28995e2fee4b.png",
        "entry": 4609253,
        "entry_name": "M\u00e1s se Manne",
        "event_total": 78,
        "has_played": true,
        "id": 35219021,
        "last_rank": 81312,
        "player_name": "Tom\u00e1s Swart",
        "rank": 43627,
        "rank_sort": 43678,
        "total": 2356
      },
      {
        "club_badge_src": "https://fantasy.premierleague.com/gcs/plfpl-production-adobe-approved/plfpl-production/4675078/193c2f47-34b8-4a5e-acd3-83ca711df90b.png",
        "entry": 4675078,
        "entry_name": "Bruno dos tres",
        "event_total": 51,
        "has_played": true,
        "id": 35813602,
        "last_rank": 36200,
        "player_name": "Lenn Dyselinck",
        "rank": 43627,
        "rank_sort": 43679,
        "total": 2356
      },
      {
        "club_badge_src": null,
        "entry": 4915440,
        "entry_name": "Dm",
        "event_total": 51,
        "has_played": true,
        "id": 37911420,
        "last_rank": 36110,
        "player_name": "Dimitris Dimitriadis",
        "rank": 43627,
        "rank_sort": 43680,
        "total": 2356
      },
      {
        "club_badge_src": null,
        "entry": 4996455,
        "entry_name": "FC LaTocana",
        "event_total": 50,
        "has_played": true,
        "id": 38579681,
        "last_rank": 35166,
        "player_name": "Marcu Erik",
        "rank": 43627,
        "rank_sort": 43681,
        "total": 2356
      },
      {
        "club_badge_src": "https://fantasy.premierleague.com/gcs/plfpl-production-adobe-approved/plfpl-production/5382627/9ec2120c-c1e1-438e-98e6-fa2e52caec74.png",
        "entry": 5382627,
        "entry_name": "Maple",
        "event_total": 43,
        "has_played": true,
        "id": 41843046,
        "last_rank": 27770,
        "player_name": "Maple Sy",
        "rank": 43627,
        "rank_sort": 43682,
        "total": 2356
      },
      {
        "club_badge_src": null,
        "entry": 5427055,
        "entry_name": "Beto Call Saul",
        "event_total": 75,
        "has_played": true,
        "id": 42212124,
        "last_rank": 74787,
        "player_name": "Brad Anderson",
        "rank": 43627,
        "rank_sort": 43683,
        "total": 2356
      },
      {
        "club_badge_src": null,
        "entry": 5725111,
        "entry_name": "Slot Machine",
        "event_total": 47,
        "has_played": true,
        "id": 44846878,
        "last_rank": 31747,
        "player_name": "Michael Akers",
        "rank": 43627,
        "rank_sort": 43684,
        "total": 2356
      },
      {
        "club_badge_src": null,
        "entry": 5754696,
        "entry_name": "Shane FC",
        "event_total": 60,
        "has_played": true,
        "id": 45107796,
        "last_rank": 48197,
        "player_name": "Victor Eneani",
        "rank": 43627,
        "rank_sort": 43685,
        "total": 2356
      },
      {
        "club_badge_src": "https://fantasy.premierleague.com/gcs/plfpl-production-adobe-approved/plfpl-production/5912548/36fe661c-e9b2-4768-84d1-8e949155d029.png",
        "entry": 5912548,
        "entry_name": "Nagelhautentferner69",
        "event_total": 48,
        "has_played": true,
        "id": 46463167,
        "last_rank": 32751,
        "player_name": "Matteo Muehlboeck",
        "rank": 43627,
        "rank_sort": 43686,
        "total": 2356
      },
      {
        "club_badge_src": null,
        "entry": 5932074,
        "entry_name": "Deepdale La Coruna",
        "event_total": 62,
        "has_played": true,
        "id": 46636918,
        "last_rank": 51403,
        "player_name": "Mohammed Amin Kothiya",
        "rank": 43627,
        "rank_sort": 43687,
        "total": 2356
      },
      {
        "club_badge_src": null,
        "entry": 5957274,
        "entry_name": "Fanta$y alway$",
        "event_total": 59,
        "has_played": true,
        "id": 46863724,
        "last_rank": 46660,
        "player_name": "Deric Hoo",
        "rank": 43627,
        "rank_sort": 43688,
        "total": 2356
      },
      {
        "club_badge_src": null,
        "entry": 5974324,
        "entry_name": "Fortes Belletores",
        "event_total": 50,
        "has_played": true,
        "id": 47023869,
        "last_rank": 34969,
        "player_name": "Andrew Gibson",
        "rank": 43627,
        "rank_sort": 43689,
        "total": 2356
      },
      {
        "club_badge_src": null,
        "entry": 6298235,
        "entry_name": "BPI Danantara",
        "event_total": 66,
        "has_played": true,
        "id": 49923334,
        "last_rank": 57857,
        "player_name": "Irvan Geofary",
        "rank": 43627,
        "rank_sort": 43690,
        "total": 2356
      },
      {
        "club_badge_src": null,
        "entry": 6308811,
        "entry_name": "Heavyshot",
        "event_total": 39,
        "has_played": true,
        "id": 50044140,
        "last_rank": 24143,
        "player_name": "Kedar Sane",
        "rank": 43627,
        "rank_sort": 43691,
        "total": 2356
      },
      {
        "club_badge_src": null,
        "entry": 6777750,
        "entry_name": "NagyonNagy FC",
        "event_total": 59,
        "has_played": true,
        "id": 54271269,
        "last_rank": 46591,
        "player_name": "Nagy Andras",
        "rank": 43627,
        "rank_sort": 43692,
        "total": 2356
      },
      {
        "club_badge_src": null,
        "entry": 7387860,
        "entry_name": "NotMikeDeanForever",
        "event_total": 78,
        "has_played": true,
        "id": 59899573,
        "last_rank": 81244,
        "player_name": "Frank Moss",
        "rank": 43627,
        "rank_sort": 43693,
        "total": 2356
      },
      {
        "club_badge_src": null,
        "entry": 7746507,
        "entry_name": "DeckTheDewsburyHalls",
        "event_total": 61,
        "has_played": true,
        "id": 63589592,
        "last_rank": 49607,
        "player_name": "Ian Swarbrick",
        "rank": 43627,
        "rank_sort": 43694,
        "total": 2356
      },
      {
        "club_badge_src": null,
        "entry": 8148595,
        "entry_name": "mazir soula",
        "event_total": 59,
        "has_played": true,
        "id": 67255863,
        "last_rank": 46839,
        "player_name": "Martin Petrov",
        "rank": 43627,
        "rank_sort": 43695,
        "total": 2356
      },
      {
        "club_badge_src": null,
        "entry": 8875830,
        "entry_name": "Rose Garden United",
        "event_total": 57,
        "has_played": true,
        "id": 74274650,
        "last_rank": 43849,
        "player_name": "Rahul Subbiah",
        "rank": 43627,
        "rank_sort": 43696,
        "total": 2356
      },
      {
        "club_badge_src": null,
        "entry": 8881895,
        "entry_name": "Notafunnyname",
        "event_total": 42,
        "has_played": true,
        "id": 74333089,
        "last_rank": 26710,
        "player_name": "Tim Dyke",
        "rank": 43627,
        "rank_sort": 43697,
        "total": 2356
      },
      {
        "club_badge_src": null,
        "entry": 9126168,
        "entry_name": "Dunk and Disorderly",
        "event_total": 61,
        "has_played": true,
        "id": 76708973,
        "last_rank": 49691,
        "player_name": "James Cowley",
        "rank": 43627,
        "rank_sort": 43698,
        "total": 2356
      },
      {
        "club_badge_src": null,
        "entry": 9156419,
        "entry_name": "Hakuna Mateta",
        "event_total": 64,
        "has_played": true,
        "id": 77003242,
        "last_rank": 54494,
        "player_name": "Donal Mc Ateer",
        "rank": 43627,
        "rank_sort": 43699,
        "total": 2356
      },
      {
        "club_badge_src": null,
        "entry": 9261538,
        "entry_name": "Hekla FC",
        "event_total": 68,
        "has_played": true,
        "id": 78035461,
        "last_rank": 61315,
        "player_name": "Hekla Maren J\u00f3nasd\u00f3ttir",
        "rank": 43627,
        "rank_sort": 43700,
        "total": 2356
      }
    ]
  }
}