{
  "last_updated_data": "2026-05-24T23:28:17Z",
  "league": {
    "admin_entry": null,
    "closed": false,
    "code_privacy": "p",
    "created": "2025-07-20T23:14:33.933835Z",
    "cup_league": 2815434,
    "has_cup": true,
    "id": 314,
    "league_type": "s",
    "max_entries": null,
    "name": "Overall",
    "rank": null,
    "scoring": "c",
    "start_event": 1
  },
  "new_entries": {
    "has_next": false,
    "page": 1,
    "results": []
  },
  "standings": {
    "has_next": true,
    "page": 791,
    "results": [
      {
        "club_badge_src": null,
        "entry": 2462365,
        "entry_name": "City FC",
        "event_total": 55,
        "has_played": true,
        "id": 17613375,
        "last_rank": 37058,
        "player_name": "Samuel Madit",
        "rank": 39468,
        "rank_sort": 39501,
        "total": 2360
      },
      {
        "club_badge_src": "https://fantasy.premierleague.com/gcs/plfpl-production-adobe-approved/plfpl-production/2584137/05a1e5f1-34d4-4117-a761-393860008b85.png",
        "entry": 2584137,
        "entry_name": "CunhaBoys",
        "event_total": 57,
        "has_played": true,
        "id": 18549691,
        "last_rank": 39510,
        "player_name": "Pedro Cunha",
        "rank": 39468,
        "rank_sort": 39502,
        "total": 2360
      },
      {
        "club_badge_src": null,
        "entry": 2683408,
        "entry_name": "Gy\u00f6k Wan",
        "event_total": 92,
        "has_played": true,
        "id": 19299591,
        "last_rank": 87350,
        "player_name": "Luke Barton",
        "rank": 39468,
        "rank_sort": 39503,
        "total": 2360
      },
      {
        "club_badge_src": null,
        "entry": 2689853,
        "entry_name": "El Patron",
        "event_total": 72,
        "has_played": true,
        "id": 19347322,
        "last_rank": 62429,
        "player_name": "Martin Hansen",
        "rank": 39468,
        "rank_sort": 39504,
        "total": 2360
      },
      {
        "club_badge_src": "https://fantasy.premierleague.com/gcs/plfpl-production-adobe-approved/plfpl-production/2816020/0175beb2-9351-42fc-9bd8-c0fc916ffdc8.png",
        "entry": 2816020,
        "entry_name": "serangoonn",
        "event_total": 57,
        "has_played": true,
        "id": 20568707,
        "last_rank": 39585,
        "player_name": "Royston Tan",
        "rank": 39468,
        "rank_sort": 39505,
        "total": 2360
      },
      {
        "club_badge_src": null,
        "entry": 3007841,
        "entry_name": "Inter Mullan",
        "event_total": 75,
        "has_played": true,
        "id": 22126294,
        "last_rank": 68294,
        "player_name": "Andy Mullineux",
        "rank": 39468,
        "rank_sort": 39506,
        "total": 2360
      },
      {
        "club_badge_src": null,
        "entry": 3727058,
        "entry_name": "Mo Salah? No, Mo Me!",
        "event_total": 65,
        "has_played": true,
        "id": 27817777,
        "last_rank": 39403,
        "player_name": "Mohammed Amri",
        "rank": 39468,
        "rank_sort": 39507,
        "total": 2360
      },
      {
        "club_badge_src": null,
        "entry": 3838209,
        "entry_name": "Rubber Digne Rapids",
        "event_total": 59,
        "has_played": true,
        "id": 28733600,
        "last_rank": 32335,
        "player_name": "Dharmesh Jadavji",
        "rank": 39468,
        "rank_sort": 39508,
        "total": 2360
      },
      {
        "club_badge_src": null,
        "entry": 3916772,
        "entry_name": "Juan Pablo!",
        "event_total": 56,
        "has_played": true,
        "id": 29451304,
        "last_rank": 38340,
        "player_name": "Paul Tapping",
        "rank": 39468,
        "rank_sort": 39509,
        "total": 2360
      },
      {
        "club_badge_src": null,
        "entry": 3976203,
        "entry_name": "Odeegard of Honour",
        "event_total": 52,
        "has_played": true,
        "id": 29927173,
        "last_rank": 29279,
        "player_name": "Oscar Mukaru",
        "rank": 39468,
        "rank_sort": 39510,
        "total": 2360
      },
      {
        "club_badge_src": null,
        "entry": 4169244,
        "entry_name": "Fuliam",
        "event_total": 58,
        "has_played": true,
        "id": 31530704,
        "last_rank": 40832,
        "player_name": "Liam Pickford",
        "rank": 39468,
        "rank_sort": 39511,
        "total": 2360
      },
      {
        "club_badge_src": "https://fantasy.premierleague.com/gcs/plfpl-production-adobe-approved/plfpl-production/4528500/edf0525f-6474-46c9-9e16-2e099f4929ff.png",
        "entry": 4528500,
        "entry_name": "aight***",
        "event_total": 52,
        "has_played": true,
        "id": 34540517,
        "last_rank": 33582,
        "player_name": "Tumoana Poata",
        "rank": 39468,
        "rank_sort": 39512,
        "total": 2360
      },
      {
        "club_badge_src": null,
        "entry": 4936123,
        "entry_name": "FC Parmo",
        "event_total": 53,
        "has_played": true,
        "id": 38083306,
        "last_rank": 34749,
        "player_name": "Steve Dobson",
        "rank": 39468,
        "rank_sort": 39513,
        "total": 2360
      },
      {
        "club_badge_src": null,
        "entry": 5619757,
        "entry_name": "tomerinoh",
        "event_total": 54,
        "has_played": true,
        "id": 43928833,
        "last_rank": 31309,
        "player_name": "tomer tesler",
        "rank": 39468,
        "rank_sort": 39514,
        "total": 2360
      },
      {
        "club_badge_src": null,
        "entry": 6159778,
        "entry_name": "Fc Hollywood",
        "event_total": 47,
        "has_played": true,
        "id": 48696968,
        "last_rank": 28388,
        "player_name": "Juuso Ahtinen",
        "rank": 39468,
        "rank_sort": 39515,
        "total": 2360
      },
      {
        "club_badge_src": null,
        "entry": 6233594,
        "entry_name": "City Slickers",
        "event_total": 87,
        "has_played": true,
        "id": 49334519,
        "last_rank": 85207,
        "player_name": "Adrian Burns",
        "rank": 39468,
        "rank_sort": 39516,
        "total": 2360
      },
      {
        "club_badge_src": "https://fantasy.premierleague.com/gcs/plfpl-production-adobe-approved/plfpl-production/6633183/05d58d91-112e-4b86-808c-4e1a88b88beb.png",
        "entry": 6633183,
        "entry_name": "Egypt \u2606 \ufffd \u2606",
        "event_total": 59,
        "has_played": true,
        "id": 53015399,
        "last_rank": 32335,
        "player_name": "King Egypt",
        "rank": 39468,
        "rank_sort": 39517,
        "total": 2360
      },
      {
        "club_badge_src": null,
        "entry": 7529208,
        "entry_name": "EL-ToT",
        "event_total": 57,
        "has_played": true,
        "id": 61621870,
        "last_rank": 34682,
        "player_name": "Mohamed G. Totti",
        "rank": 39468,
        "rank_sort": 39518,
        "total": 2360
      },
      {
        "club_badge_src": "https://fantasy.premierleague.com/gcs/plfpl-production-adobe-approved/plfpl-production/7774569/84f36433-f096-4b19-87cf-50fb63257750.png",
        "entry": 7774569,
        "entry_name": "ReijndersLeadTheWay",
        "event_total": 55,
        "has_played": true,
        "id": 63843999,
        "last_rank": 37134,
        "player_name": "John Anderson-Riley",
        "rank": 39468,
        "rank_sort": 39519,
        "total": 2360
      },
      {
        "club_badge_src": null,
        "entry": 8135065,
        "entry_name": "Naan-Stop Goals",
        "event_total": 72,
        "has_played": true,
        "id": 67128626,
        "last_rank": 62724,
        "player_name": "Miraj Patel",
        "rank": 39468,
        "rank_sort": 39520,
        "total": 2360
      },
      {
        "club_badge_src": null,
        "entry": 8581039,
        "entry_name": "Frankly Superb",
        "event_total": 34,
        "has_played": true,
        "id": 71415702,
        "last_rank": 17878,
        "player_name": "Chris Nunn",
        "rank": 39468,
        "rank_sort": 39521,
        "total": 2360
      },
      {
        "club_badge_src": null,
        "entry": 23578,
        "entry_name": "FF team",
        "event_total": 60,
        "has_played": true,
        "id": 148554,
        "last_rank": 38340,
        "player_name": "Fedor Fedyushkin",
        "rank": 39522,
        "rank_sort": 39522,
        "total": 2360
      },
      {
        "club_badge_src": null,
        "entry": 23712,
        "entry_name": "Swedish Howe's Mafia",
        "event_total": 73,
        "has_played": true,
        "id": 149468,
        "last_rank": 57358,
        "player_name": "Fredrik Franz\u00e9n",
        "rank": 39522,
        "rank_sort": 39523,
        "total": 2360
      },
      {
        "club_badge_src": null,
        "entry": 331754,
        "entry_name": "Bruno, Dos, Tres",
        "event_total": 49,
        "has_played": true,
        "id": 2222033,
        "last_rank": 30361,
        "player_name": "Mat Johncock",
        "rank": 39522,
        "rank_sort": 39524,
        "total": 2360
      },
      {
        "club_badge_src": null,
        "entry": 376544,
        "entry_name": "NMIXX",
        "event_total": 56,
        "has_played": true,
        "id": 2521886,
        "last_rank": 38340,
        "player_name": "Jang Kyujin",
        "rank": 39522,
        "rank_sort": 39525,
        "total": 2360
      },
      {
        "club_badge_src": null,
        "entry": 395628,
        "entry_name": "Peanuts for Pirates",
        "event_total": 53,
        "has_played": true,
        "id": 2653168,
        "last_rank": 34796,
        "player_name": "Gideon Zucker",
        "rank": 39522,
        "rank_sort": 39526,
        "total": 2360
      },
      {
        "club_badge_src": null,
        "entry": 491027,
        "entry_name": "TGFC",
        "event_total": 63,
        "has_played": true,
        "id": 3296061,
        "last_rank": 42152,
        "player_name": "Tare Kragha",
        "rank": 39522,
        "rank_sort": 39527,
        "total": 2360
      },
      {
        "club_badge_src": "https://fantasy.premierleague.com/gcs/plfpl-production-adobe-approved/plfpl-production/581487/cf05f142-08e4-4a99-885c-b6d4c52fb906.png",
        "entry": 581487,
        "entry_name": "Pugsley's Pummelers",
        "event_total": 60,
        "has_played": true,
        "id": 3913241,
        "last_rank": 43570,
        "player_name": "Chris Miles",
        "rank": 39522,
        "rank_sort": 39528,
        "total": 2360
      },
      {
        "club_badge_src": null,
        "entry": 642966,
        "entry_name": "No Schade, Gana Burn",
        "event_total": 63,
        "has_played": true,
        "id": 4345356,
        "last_rank": 47868,
        "player_name": "Tristan Cure Yonace",
        "rank": 39522,
        "rank_sort": 39529,
        "total": 2360
      },
      {
        "club_badge_src": null,
        "entry": 683149,
        "entry_name": "Plympton Dragons",
        "event_total": 50,
        "has_played": true,
        "id": 4623621,
        "last_rank": 31404,
        "player_name": "Cerry Clark",
        "rank": 39522,
        "rank_sort": 39530,
        "total": 2360
      },
      {
        "club_badge_src": null,
        "entry": 733028,
        "entry_name": "MajorLazer",
        "event_total": 67,
        "has_played": true,
        "id": 4981367,
        "last_rank": 54134,
        "player_name": "Lars Majoor",
        "rank": 39522,
        "rank_sort": 39531,
        "total": 2360
      },
      {
        "club_badge_src": null,
        "entry": 788347,
        "entry_name": "OWENTHESAINTSFC",
        "event_total": 63,
        "has_played": true,
        "id": 5391308,
        "last_rank": 47868,
        "player_name": "Owen Iwegbu",
        "rank": 39522,
        "rank_sort": 39532,
        "total": 2360
      },
      {
        "club_badge_src": null,
        "entry": 1225084,
        "entry_name": "Longneckitike",
        "event_total": 62,
        "has_played": true,
        "id": 8506172,
        "last_rank": 46313,
        "player_name": "Reece Brown",
        "rank": 39522,
        "rank_sort": 39533,
        "total": 2360
      },
      {
        "club_badge_src": null,
        "entry": 1508009,
        "entry_name": "bbae0215",
        "event_total": 47,
        "has_played": true,
        "id": 10517484,
        "last_rank": 28425,
        "player_name": "Bryan Bae",
        "rank": 39522,
        "rank_sort": 39534,
        "total": 2360
      },
      {
        "club_badge_src": "https://fantasy.premierleague.com/gcs/plfpl-production-adobe-approved/plfpl-production/1529792/7aa7f7f7-be63-4968-96a1-a5ab6d6b1e5f.png",
        "entry": 1529792,
        "entry_name": "Skacksj\u00f6 Spurs",
        "event_total": 53,
        "has_played": true,
        "id": 10675285,
        "last_rank": 26345,
        "player_name": "Stefan Setterlund",
        "rank": 39522,
        "rank_sort": 39535,
        "total": 2360
      },
      {
        "club_badge_src": "https://fantasy.premierleague.com/gcs/plfpl-production-adobe-approved/plfpl-production/1876166/16b4b5e8-6b83-42fb-8ad8-2a3b275911cc.png",
        "entry": 1876166,
        "entry_name": "Jake's Sparkin",
        "event_total": 58,
        "has_played": true,
        "id": 13210444,
        "last_rank": 40878,
        "player_name": "Jake Parkin",
        "rank": 39522,
        "rank_sort": 39536,
        "total": 2360
      },
      {
        "club_badge_src": null,
        "entry": 2094027,
        "entry_name": "Casillas FC",
        "event_total": 66,
        "has_played": true,
        "id": 14857157,
        "last_rank": 46313,
        "player_name": "Prabhas Baral",
        "rank": 39522,
        "rank_sort": 39537,
        "total": 2360
      },
      {
        "club_badge_src": null,
        "entry": 2350594,
        "entry_name": "RKRockerZ",
        "event_total": 52,
        "has_played": true,
        "id": 16772177,
        "last_rank": 33695,
        "player_name": "S Ranjithkumar",
        "rank": 39522,
        "rank_sort": 39538,
        "total": 2360
      },
      {
        "club_badge_src": "https://fantasy.premierleague.com/gcs/plfpl-production-adobe-approved/plfpl-production/2575185/bfe8ee57-9d09-4716-b71f-5c39281f5380.png",
        "entry": 2575185,
        "entry_name": "Jiggy S\u00fcperStarz",
        "event_total": 60,
        "has_played": true,
        "id": 18480543,
        "last_rank": 43512,
        "player_name": "David Mark",
        "rank": 39522,
        "rank_sort": 39539,
        "total": 2360
      },
      {
        "club_badge_src": null,
        "entry": 3011850,
        "entry_name": "Ahmed",
        "event_total": 64,
        "has_played": true,
        "id": 22156844,
        "last_rank": 49368,
        "player_name": "ahmed abd allah mashal",
        "rank": 39522,
        "rank_sort": 39540,
        "total": 2360
      },
      {
        "club_badge_src": null,
        "entry": 3216478,
        "entry_name": "The Special Ones",
        "event_total": 56,
        "has_played": true,
        "id": 23781574,
        "last_rank": 33651,
        "player_name": "Dominic Singh",
        "rank": 39522,
        "rank_sort": 39541,
        "total": 2360
      },
      {
        "club_badge_src": null,
        "entry": 4275544,
        "entry_name": "Change Name",
        "event_total": 60,
        "has_played": true,
        "id": 32424638,
        "last_rank": 43570,
        "player_name": "Liev Markovich",
        "rank": 39522,
        "rank_sort": 39542,
        "total": 2360
      },
      {
        "club_badge_src": null,
        "entry": 4296075,
        "entry_name": "Abu-Anga",
        "event_total": 54,
        "has_played": true,
        "id": 32590793,
        "last_rank": 35969,
        "player_name": "Abd Elrhman",
        "rank": 39522,
        "rank_sort": 39543,
        "total": 2360
      },
      {
        "club_badge_src": null,
        "entry": 4781680,
        "entry_name": "GGMU",
        "event_total": 61,
        "has_played": true,
        "id": 36810106,
        "last_rank": 34682,
        "player_name": "Grish GG",
        "rank": 39522,
        "rank_sort": 39544,
        "total": 2360
      },
      {
        "club_badge_src": null,
        "entry": 5105209,
        "entry_name": "Ep fc2",
        "event_total": 33,
        "has_played": true,
        "id": 39462455,
        "last_rank": 17246,
        "player_name": "Khairul Azwan",
        "rank": 39522,
        "rank_sort": 39545,
        "total": 2360
      },
      {
        "club_badge_src": null,
        "entry": 5286356,
        "entry_name": "golden balls",
        "event_total": 65,
        "has_played": true,
        "id": 40975742,
        "last_rank": 44882,
        "player_name": "david richards",
        "rank": 39522,
        "rank_sort": 39546,
        "total": 2360
      },
      {
        "club_badge_src": null,
        "entry": 5544376,
        "entry_name": "Heung Min Rowson",
        "event_total": 55,
        "has_played": true,
        "id": 43265837,
        "last_rank": 32491,
        "player_name": "Frankie rowson",
        "rank": 39522,
        "rank_sort": 39547,
        "total": 2360
      },
      {
        "club_badge_src": null,
        "entry": 5850645,
        "entry_name": "Dream team",
        "event_total": 72,
        "has_played": true,
        "id": 45933655,
        "last_rank": 62812,
        "player_name": "ali abdoun",
        "rank": 39522,
        "rank_sort": 39548,
        "total": 2360
      },
      {
        "club_badge_src": null,
        "entry": 5930603,
        "entry_name": "Call Her, Kelleher!",
        "event_total": 68,
        "has_played": true,
        "id": 46623730,
        "last_rank": 49301,
        "player_name": "Tanjim Istiaque Chowdhury",
        "rank": 39522,
        "rank_sort": 39549,
        "total": 2360
      },
      {
        "club_badge_src": "https://fantasy.premierleague.com/gcs/plfpl-production-adobe-approved/plfpl-production/5970892/6f41fefc-ef8c-492e-8c56-bbf662856c7a.png",
        "entry": 5970892,
        "entry_name": "The Weatherman",
        "event_total": 65,
        "has_played": true,
        "id": 46986765,
        "last_rank": 44804,
        "player_name": "Shaft Knackers",
        "rank": 39522,
        "rank_sort": 39550,
        "total": 2360
      }
    ]
  }
}