{
  "last_updated_data": "2026-05-24T23:28:17Z",
  "league": {
    "admin_entry": null,
    "closed": false,
    "code_privacy": "p",
    "created": "2025-07-20T23:14:33.933835Z",
    "cup_league": 2815434,
    "has_cup": true,
    "id": 314,
    "league_type": "s",
    "max_entries": null,
    "name": "Overall",
    "rank": null,
    "scoring": "c",
    "start_event": 1
  },
  "new_entries": {
    "has_next": false,
    "page": 1,
    "results": []
  },
  "standings": {
    "has_next": true,
    "page": 45,
    "results": [
      {
        "club_badge_src": null,
        "entry": 94941,
        "entry_name": "Eze Does It",
        "event_total": 60,
        "has_played": true,
        "id": 620401,
        "last_rank": 2328,
        "player_name": "Kieran Dowen",
        "rank": 2199,
        "rank_sort": 2201,
        "total": 2432
      },
      {
        "club_badge_src": null,
        "entry": 193530,
        "entry_name": "Hulje",
        "event_total": 62,
        "has_played": true,
        "id": 1282789,
        "last_rank": 2088,
        "player_name": "john king",
        "rank": 2199,
        "rank_sort": 2202,
        "total": 2432
      },
      {
        "club_badge_src": null,
        "entry": 251552,
        "entry_name": "Squirtle Squad",
        "event_total": 73,
        "has_played": true,
        "id": 1673463,
        "last_rank": 4270,
        "player_name": "Xavier Penhallurick",
        "rank": 2199,
        "rank_sort": 2203,
        "total": 2432
      },
      {
        "club_badge_src": null,
        "entry": 380437,
        "entry_name": "World Champion",
        "event_total": 64,
        "has_played": true,
        "id": 2549640,
        "last_rank": 2280,
        "player_name": "Paul Aworanti",
        "rank": 2199,
        "rank_sort": 2204,
        "total": 2432
      },
      {
        "club_badge_src": null,
        "entry": 397297,
        "entry_name": "FanSTAstics",
        "event_total": 65,
        "has_played": true,
        "id": 2664029,
        "last_rank": 2418,
        "player_name": "Marc Lvl",
        "rank": 2199,
        "rank_sort": 2205,
        "total": 2432
      },
      {
        "club_badge_src": null,
        "entry": 438682,
        "entry_name": "Timothy Emeru",
        "event_total": 71,
        "has_played": true,
        "id": 2941693,
        "last_rank": 3951,
        "player_name": "Timothy Emeru",
        "rank": 2199,
        "rank_sort": 2206,
        "total": 2432
      },
      {
        "club_badge_src": null,
        "entry": 489783,
        "entry_name": "Stranger Mings",
        "event_total": 83,
        "has_played": true,
        "id": 3288030,
        "last_rank": 6703,
        "player_name": "Tom O'Connor",
        "rank": 2199,
        "rank_sort": 2207,
        "total": 2432
      },
      {
        "club_badge_src": "https://fantasy.premierleague.com/gcs/plfpl-production-adobe-approved/plfpl-production/570583/4a35e9d6-3005-4b39-bd51-a099e5200647.png",
        "entry": 570583,
        "entry_name": "trentem\u00f8ller",
        "event_total": 67,
        "has_played": true,
        "id": 3840134,
        "last_rank": 3302,
        "player_name": "Tobias Myhl",
        "rank": 2199,
        "rank_sort": 2208,
        "total": 2432
      },
      {
        "club_badge_src": null,
        "entry": 613796,
        "entry_name": "Backstreet Moyes",
        "event_total": 68,
        "has_played": true,
        "id": 4147465,
        "last_rank": 2802,
        "player_name": "Danny Meikle",
        "rank": 2199,
        "rank_sort": 2209,
        "total": 2432
      },
      {
        "club_badge_src": "https://fantasy.premierleague.com/gcs/plfpl-production-adobe-approved/plfpl-production/636706/1d9f5694-3614-461c-bbb4-8fe45fd14420.png",
        "entry": 636706,
        "entry_name": "StoneFC",
        "event_total": 60,
        "has_played": true,
        "id": 4303028,
        "last_rank": 2328,
        "player_name": "Chris Stone",
        "rank": 2199,
        "rank_sort": 2210,
        "total": 2432
      },
      {
        "club_badge_src": null,
        "entry": 720097,
        "entry_name": "Pepsi Boys FC",
        "event_total": 80,
        "has_played": true,
        "id": 4888506,
        "last_rank": 5904,
        "player_name": "Ray-Otis Bock",
        "rank": 2199,
        "rank_sort": 2211,
        "total": 2432
      },
      {
        "club_badge_src": null,
        "entry": 803670,
        "entry_name": "Blame the Keeper",
        "event_total": 68,
        "has_played": true,
        "id": 5501367,
        "last_rank": 3442,
        "player_name": "Adrian Fox",
        "rank": 2199,
        "rank_sort": 2212,
        "total": 2432
      },
      {
        "club_badge_src": null,
        "entry": 955822,
        "entry_name": "Sharp Shooters FC",
        "event_total": 59,
        "has_played": true,
        "id": 6585784,
        "last_rank": 2215,
        "player_name": "Douglas Sharp",
        "rank": 2199,
        "rank_sort": 2213,
        "total": 2432
      },
      {
        "club_badge_src": null,
        "entry": 1178728,
        "entry_name": "Champions",
        "event_total": 66,
        "has_played": true,
        "id": 8178570,
        "last_rank": 2526,
        "player_name": "Ross Champion",
        "rank": 2199,
        "rank_sort": 2214,
        "total": 2432
      },
      {
        "club_badge_src": null,
        "entry": 1478651,
        "entry_name": "Different gravy",
        "event_total": 58,
        "has_played": true,
        "id": 10310171,
        "last_rank": 2112,
        "player_name": "KH Two",
        "rank": 2199,
        "rank_sort": 2215,
        "total": 2432
      },
      {
        "club_badge_src": null,
        "entry": 1564208,
        "entry_name": "Lil Uzi Wirtz",
        "event_total": 55,
        "has_played": true,
        "id": 10926771,
        "last_rank": 1816,
        "player_name": "Alexander Bowden",
        "rank": 2199,
        "rank_sort": 2216,
        "total": 2432
      },
      {
        "club_badge_src": null,
        "entry": 1704128,
        "entry_name": "Justin Timevert",
        "event_total": 64,
        "has_played": true,
        "id": 11937785,
        "last_rank": 2870,
        "player_name": "Andrew Jay",
        "rank": 2199,
        "rank_sort": 2217,
        "total": 2432
      },
      {
        "club_badge_src": null,
        "entry": 1890621,
        "entry_name": "UTCIAD!",
        "event_total": 65,
        "has_played": true,
        "id": 13325058,
        "last_rank": 3007,
        "player_name": "Liam D'Arcy",
        "rank": 2199,
        "rank_sort": 2218,
        "total": 2432
      },
      {
        "club_badge_src": null,
        "entry": 2717774,
        "entry_name": "Brown star Big Dave!",
        "event_total": 44,
        "has_played": true,
        "id": 19555292,
        "last_rank": 1045,
        "player_name": "david duffy",
        "rank": 2199,
        "rank_sort": 2219,
        "total": 2432
      },
      {
        "club_badge_src": null,
        "entry": 2946100,
        "entry_name": "Consultio/Consultius",
        "event_total": 56,
        "has_played": true,
        "id": 21617881,
        "last_rank": 1880,
        "player_name": "Mike Craig",
        "rank": 2199,
        "rank_sort": 2220,
        "total": 2432
      },
      {
        "club_badge_src": null,
        "entry": 2957918,
        "entry_name": "Pjanic! At The Sesko",
        "event_total": 60,
        "has_played": true,
        "id": 21726265,
        "last_rank": 1880,
        "player_name": "Haidar Mohamed",
        "rank": 2199,
        "rank_sort": 2221,
        "total": 2432
      },
      {
        "club_badge_src": null,
        "entry": 3420205,
        "entry_name": "Up the Franchise!",
        "event_total": 53,
        "has_played": true,
        "id": 25404984,
        "last_rank": 1609,
        "player_name": "John Busby",
        "rank": 2199,
        "rank_sort": 2222,
        "total": 2432
      },
      {
        "club_badge_src": null,
        "entry": 3751253,
        "entry_name": "Badmanflax",
        "event_total": 69,
        "has_played": true,
        "id": 28006507,
        "last_rank": 3562,
        "player_name": "Jake Flax",
        "rank": 2199,
        "rank_sort": 2223,
        "total": 2432
      },
      {
        "club_badge_src": "https://fantasy.premierleague.com/gcs/plfpl-production-adobe-approved/plfpl-production/3787831/7d9fcff6-017b-489e-a304-156102e8d1d5.png",
        "entry": 3787831,
        "entry_name": "CHAO'S FC",
        "event_total": 72,
        "has_played": true,
        "id": 28299306,
        "last_rank": 4099,
        "player_name": "AYAN JNR",
        "rank": 2199,
        "rank_sort": 2224,
        "total": 2432
      },
      {
        "club_badge_src": null,
        "entry": 4459933,
        "entry_name": "Salahmi",
        "event_total": 58,
        "has_played": true,
        "id": 33977421,
        "last_rank": 1689,
        "player_name": "Mona Christine Berge",
        "rank": 2199,
        "rank_sort": 2225,
        "total": 2432
      },
      {
        "club_badge_src": null,
        "entry": 5167986,
        "entry_name": "Hakuna Mateta",
        "event_total": 70,
        "has_played": true,
        "id": 39995955,
        "last_rank": 3103,
        "player_name": "Sandra Martinsson",
        "rank": 2199,
        "rank_sort": 2226,
        "total": 2432
      },
      {
        "club_badge_src": null,
        "entry": 6291005,
        "entry_name": "Charli xGx",
        "event_total": 70,
        "has_played": true,
        "id": 49846042,
        "last_rank": 3103,
        "player_name": "Reuben L",
        "rank": 2199,
        "rank_sort": 2227,
        "total": 2432
      },
      {
        "club_badge_src": null,
        "entry": 6593189,
        "entry_name": "AhmeD",
        "event_total": 65,
        "has_played": true,
        "id": 52659128,
        "last_rank": 2977,
        "player_name": "Ahmed Ibrahem",
        "rank": 2199,
        "rank_sort": 2228,
        "total": 2432
      },
      {
        "club_badge_src": null,
        "entry": 8796986,
        "entry_name": "YOYOSOSO",
        "event_total": 68,
        "has_played": true,
        "id": 73516079,
        "last_rank": 3442,
        "player_name": "Yasoo Football",
        "rank": 2199,
        "rank_sort": 2229,
        "total": 2432
      },
      {
        "club_badge_src": null,
        "entry": 9358258,
        "entry_name": "Pari\u2019s home",
        "event_total": 60,
        "has_played": true,
        "id": 78966235,
        "last_rank": 2328,
        "player_name": "Galit Pariente",
        "rank": 2199,
        "rank_sort": 2230,
        "total": 2432
      },
      {
        "club_badge_src": "https://fantasy.premierleague.com/gcs/plfpl-production-adobe-approved/plfpl-production/4687/52927426-10de-43e1-b62d-7992a598ce45.png",
        "entry": 4687,
        "entry_name": "The Chimney Boys",
        "event_total": 66,
        "has_played": true,
        "id": 26665,
        "last_rank": 2588,
        "player_name": "James Rice",
        "rank": 2231,
        "rank_sort": 2231,
        "total": 2432
      },
      {
        "club_badge_src": "https://fantasy.premierleague.com/gcs/plfpl-production-adobe-approved/plfpl-production/5626/0df33488-acae-4bdf-b31d-eb5bf5c59825.png",
        "entry": 5626,
        "entry_name": "Taidi moves",
        "event_total": 63,
        "has_played": true,
        "id": 32097,
        "last_rank": 2215,
        "player_name": "Rebecca Maguire",
        "rank": 2231,
        "rank_sort": 2232,
        "total": 2432
      },
      {
        "club_badge_src": null,
        "entry": 13561,
        "entry_name": "Maddafakkas",
        "event_total": 60,
        "has_played": true,
        "id": 82004,
        "last_rank": 1909,
        "player_name": "Christian Henningsen",
        "rank": 2231,
        "rank_sort": 2233,
        "total": 2432
      },
      {
        "club_badge_src": null,
        "entry": 38131,
        "entry_name": "Kafary Jadzi",
        "event_total": 67,
        "has_played": true,
        "id": 244371,
        "last_rank": 2731,
        "player_name": "Mi\u0142osz Janicki",
        "rank": 2231,
        "rank_sort": 2234,
        "total": 2432
      },
      {
        "club_badge_src": "https://fantasy.premierleague.com/gcs/plfpl-production-adobe-approved/plfpl-production/538255/db897b98-1eb4-4715-ae16-10696fb7e689.png",
        "entry": 538255,
        "entry_name": "Maeda ma Day!",
        "event_total": 48,
        "has_played": true,
        "id": 3623243,
        "last_rank": 1272,
        "player_name": "Ruairidh Anderson",
        "rank": 2231,
        "rank_sort": 2235,
        "total": 2432
      },
      {
        "club_badge_src": null,
        "entry": 1282143,
        "entry_name": "Rooney Tunes",
        "event_total": 61,
        "has_played": true,
        "id": 8909220,
        "last_rank": 2448,
        "player_name": "Nicholas Dolamore",
        "rank": 2231,
        "rank_sort": 2236,
        "total": 2432
      },
      {
        "club_badge_src": null,
        "entry": 1541759,
        "entry_name": "Skills94",
        "event_total": 75,
        "has_played": true,
        "id": 10760540,
        "last_rank": 3951,
        "player_name": "Craig Bornheim",
        "rank": 2231,
        "rank_sort": 2237,
        "total": 2432
      },
      {
        "club_badge_src": null,
        "entry": 1911528,
        "entry_name": "KS RUTKO",
        "event_total": 64,
        "has_played": true,
        "id": 13476750,
        "last_rank": 2870,
        "player_name": "Piotr Rutkowski",
        "rank": 2231,
        "rank_sort": 2238,
        "total": 2432
      },
      {
        "club_badge_src": null,
        "entry": 3039430,
        "entry_name": "For Beto or Wirtz",
        "event_total": 54,
        "has_played": true,
        "id": 22371078,
        "last_rank": 1394,
        "player_name": "Richard Holman",
        "rank": 2231,
        "rank_sort": 2239,
        "total": 2432
      },
      {
        "club_badge_src": null,
        "entry": 3327579,
        "entry_name": "YSB",
        "event_total": 69,
        "has_played": true,
        "id": 24670749,
        "last_rank": 3007,
        "player_name": "Shahzad Durrani",
        "rank": 2231,
        "rank_sort": 2240,
        "total": 2432
      },
      {
        "club_badge_src": null,
        "entry": 5706589,
        "entry_name": "Bucaramanchester",
        "event_total": 68,
        "has_played": true,
        "id": 44684814,
        "last_rank": 3408,
        "player_name": "Juan Mantilla",
        "rank": 2231,
        "rank_sort": 2241,
        "total": 2432
      },
      {
        "club_badge_src": null,
        "entry": 7999721,
        "entry_name": "Inkasso",
        "event_total": 54,
        "has_played": true,
        "id": 65881442,
        "last_rank": 1712,
        "player_name": "ilyas wahab",
        "rank": 2231,
        "rank_sort": 2242,
        "total": 2432
      },
      {
        "club_badge_src": null,
        "entry": 8585269,
        "entry_name": "T.W.I.S.T.",
        "event_total": 64,
        "has_played": true,
        "id": 71456098,
        "last_rank": 2328,
        "player_name": "Dejan Tihonov",
        "rank": 2231,
        "rank_sort": 2243,
        "total": 2432
      },
      {
        "club_badge_src": "https://fantasy.premierleague.com/gcs/plfpl-production-adobe-approved/plfpl-production/1742484/17f1030b-89e0-413c-8b1b-60bb77b6c2d1.png",
        "entry": 1742484,
        "entry_name": "shaw me the money",
        "event_total": 74,
        "has_played": true,
        "id": 12226228,
        "last_rank": 3765,
        "player_name": "sacha Elder",
        "rank": 2244,
        "rank_sort": 2244,
        "total": 2432
      },
      {
        "club_badge_src": null,
        "entry": 2107615,
        "entry_name": "Gameofthrones",
        "event_total": 68,
        "has_played": true,
        "id": 14957860,
        "last_rank": 2891,
        "player_name": "filip thrones",
        "rank": 2244,
        "rank_sort": 2245,
        "total": 2432
      },
      {
        "club_badge_src": "https://fantasy.premierleague.com/gcs/plfpl-production-adobe-approved/plfpl-production/2247885/6a6f8e93-21ab-4dab-bd9b-e7facb979cf3.png",
        "entry": 2247885,
        "entry_name": "The Badmen",
        "event_total": 42,
        "has_played": true,
        "id": 16017453,
        "last_rank": 951,
        "player_name": "Faisal Badran",
        "rank": 2244,
        "rank_sort": 2246,
        "total": 2432
      },
      {
        "club_badge_src": "https://fantasy.premierleague.com/gcs/plfpl-production-adobe-approved/plfpl-production/2857479/1298869b-850a-4190-8554-41143de0e759.png",
        "entry": 2857479,
        "entry_name": "\u0645\u062f\u062d\u062a \u0641\u064a \u0627\u0644\u0645\u064a\u0631\u064a",
        "event_total": 57,
        "has_played": true,
        "id": 20895430,
        "last_rank": 2009,
        "player_name": "Keroules Medhat",
        "rank": 2244,
        "rank_sort": 2247,
        "total": 2432
      },
      {
        "club_badge_src": null,
        "entry": 3304400,
        "entry_name": "Shadow Ft",
        "event_total": 57,
        "has_played": true,
        "id": 24475778,
        "last_rank": 2033,
        "player_name": "JJ ft",
        "rank": 2244,
        "rank_sort": 2248,
        "total": 2432
      },
      {
        "club_badge_src": null,
        "entry": 3700697,
        "entry_name": "Eddie&MadDogFC",
        "event_total": 62,
        "has_played": true,
        "id": 27611161,
        "last_rank": 2620,
        "player_name": "Jeff Learmouth",
        "rank": 2244,
        "rank_sort": 2249,
        "total": 2432
      },
      {
        "club_badge_src": null,
        "entry": 4105120,
        "entry_name": "Pistol Pirates",
        "event_total": 42,
        "has_played": true,
        "id": 31000470,
        "last_rank": 951,
        "player_name": "Peter van Loon",
        "rank": 2244,
        "rank_sort": 2250,
        "total": 2432
      }
    ]
  }
}