{
  "last_updated_data": "2026-05-24T23:28:17Z",
  "league": {
    "admin_entry": null,
    "closed": false,
    "code_privacy": "p",
    "created": "2025-07-20T23:14:33.933835Z",
    "cup_league": 2815434,
    "has_cup": true,
    "id": 314,
    "league_type": "s",
    "max_entries": null,
    "name": "Overall",
    "rank": null,
    "scoring": "c",
    "start_event": 1
  },
  "new_entries": {
    "has_next": false,
    "page": 1,
    "results": []
  },
  "standings": {
    "has_next": true,
    "page": 793,
    "results": [
      {
        "club_badge_src": null,
        "entry": 603212,
        "entry_name": "Lil Uzi Wirtz",
        "event_total": 61,
        "has_played": true,
        "id": 4071376,
        "last_rank": 39673,
        "player_name": "Conor Mackle",
        "rank": 39594,
        "rank_sort": 39601,
        "total": 2360
      },
      {
        "club_badge_src": "https://fantasy.premierleague.com/gcs/plfpl-production-adobe-approved/plfpl-production/1753161/7a0e33eb-3a81-429f-b8a3-c1500e4d9074.png",
        "entry": 1753161,
        "entry_name": "East Ham",
        "event_total": 67,
        "has_played": true,
        "id": 12306529,
        "last_rank": 47868,
        "player_name": "Piotr Pichalski",
        "rank": 39594,
        "rank_sort": 39602,
        "total": 2360
      },
      {
        "club_badge_src": "https://fantasy.premierleague.com/gcs/plfpl-production-adobe-approved/plfpl-production/1849772/7751674a-f4e6-4208-b4fb-5da5b997a4ba.png",
        "entry": 1849772,
        "entry_name": "Jurgen Plopp",
        "event_total": 54,
        "has_played": true,
        "id": 13016195,
        "last_rank": 36015,
        "player_name": "Lucas O-Boyle",
        "rank": 39594,
        "rank_sort": 39603,
        "total": 2360
      },
      {
        "club_badge_src": null,
        "entry": 2165530,
        "entry_name": "Baggad Bille",
        "event_total": 70,
        "has_played": true,
        "id": 15394894,
        "last_rank": 52561,
        "player_name": "Dwij Dave",
        "rank": 39594,
        "rank_sort": 39604,
        "total": 2360
      },
      {
        "club_badge_src": null,
        "entry": 2219672,
        "entry_name": "Wirtz-case Scenario",
        "event_total": 51,
        "has_played": true,
        "id": 15808973,
        "last_rank": 32576,
        "player_name": "Michael Anstey",
        "rank": 39594,
        "rank_sort": 39605,
        "total": 2360
      },
      {
        "club_badge_src": null,
        "entry": 2795071,
        "entry_name": "Saka Potatoes",
        "event_total": 60,
        "has_played": true,
        "id": 20408707,
        "last_rank": 43637,
        "player_name": "Russell Williamson",
        "rank": 39594,
        "rank_sort": 39606,
        "total": 2360
      },
      {
        "club_badge_src": null,
        "entry": 3044573,
        "entry_name": "West Ryder XI",
        "event_total": 62,
        "has_played": true,
        "id": 22410631,
        "last_rank": 40923,
        "player_name": "Adrian Renardi",
        "rank": 39594,
        "rank_sort": 39607,
        "total": 2360
      },
      {
        "club_badge_src": null,
        "entry": 3278054,
        "entry_name": "Giggson The Legend",
        "event_total": 58,
        "has_played": true,
        "id": 24262089,
        "last_rank": 31404,
        "player_name": "Abdul Aziz Mohamad",
        "rank": 39594,
        "rank_sort": 39608,
        "total": 2360
      },
      {
        "club_badge_src": null,
        "entry": 3605926,
        "entry_name": "TG win or go home",
        "event_total": 65,
        "has_played": true,
        "id": 26859566,
        "last_rank": 51013,
        "player_name": "Tulgaa TG",
        "rank": 39594,
        "rank_sort": 39609,
        "total": 2360
      },
      {
        "club_badge_src": null,
        "entry": 4074607,
        "entry_name": "Qweeeebla",
        "event_total": 65,
        "has_played": true,
        "id": 30756672,
        "last_rank": 39650,
        "player_name": "Mohamed Benchanaa",
        "rank": 39594,
        "rank_sort": 39610,
        "total": 2360
      },
      {
        "club_badge_src": "https://fantasy.premierleague.com/gcs/plfpl-production-adobe-approved/plfpl-production/4898414/d8bace06-6adc-4991-a6c0-d130cc791dd8.png",
        "entry": 4898414,
        "entry_name": "Tabahi 11",
        "event_total": 51,
        "has_played": true,
        "id": 37771204,
        "last_rank": 28449,
        "player_name": "Paarth Hebbalkar",
        "rank": 39594,
        "rank_sort": 39611,
        "total": 2360
      },
      {
        "club_badge_src": null,
        "entry": 5167626,
        "entry_name": "Roll The Dyche",
        "event_total": 57,
        "has_played": true,
        "id": 39992954,
        "last_rank": 34825,
        "player_name": "Mike Christoforou",
        "rank": 39594,
        "rank_sort": 39612,
        "total": 2360
      },
      {
        "club_badge_src": null,
        "entry": 5943938,
        "entry_name": "Carrot Crunchers",
        "event_total": 58,
        "has_played": true,
        "id": 46744464,
        "last_rank": 35998,
        "player_name": "Daniel Keeble",
        "rank": 39594,
        "rank_sort": 39613,
        "total": 2360
      },
      {
        "club_badge_src": null,
        "entry": 6238180,
        "entry_name": "Rosen FC",
        "event_total": 68,
        "has_played": true,
        "id": 49373057,
        "last_rank": 49407,
        "player_name": "Carl Rosenqvist",
        "rank": 39594,
        "rank_sort": 39614,
        "total": 2360
      },
      {
        "club_badge_src": null,
        "entry": 6855202,
        "entry_name": "Sir.3bad",
        "event_total": 61,
        "has_played": true,
        "id": 54923671,
        "last_rank": 44982,
        "player_name": "Sir 3bad",
        "rank": 39594,
        "rank_sort": 39615,
        "total": 2360
      },
      {
        "club_badge_src": null,
        "entry": 7482088,
        "entry_name": "Fantastic",
        "event_total": 62,
        "has_played": true,
        "id": 61050063,
        "last_rank": 46454,
        "player_name": "Ahmed Hosny",
        "rank": 39594,
        "rank_sort": 39616,
        "total": 2360
      },
      {
        "club_badge_src": "https://fantasy.premierleague.com/gcs/plfpl-production-adobe-approved/plfpl-production/131421/64ba5b10-8ee8-4a22-934c-404c5497122f.png",
        "entry": 131421,
        "entry_name": "Rainbow FC",
        "event_total": 61,
        "has_played": true,
        "id": 856193,
        "last_rank": 39673,
        "player_name": "Luke Collins",
        "rank": 39617,
        "rank_sort": 39617,
        "total": 2360
      },
      {
        "club_badge_src": null,
        "entry": 150865,
        "entry_name": "Trust The Wildcard",
        "event_total": 50,
        "has_played": true,
        "id": 989598,
        "last_rank": 27480,
        "player_name": "Yohannes Kassaye",
        "rank": 39617,
        "rank_sort": 39618,
        "total": 2360
      },
      {
        "club_badge_src": null,
        "entry": 730193,
        "entry_name": "Truffert or Dare",
        "event_total": 46,
        "has_played": true,
        "id": 4961507,
        "last_rank": 27480,
        "player_name": "Alex Lawless",
        "rank": 39617,
        "rank_sort": 39619,
        "total": 2360
      },
      {
        "club_badge_src": "https://fantasy.premierleague.com/gcs/plfpl-production-adobe-approved/plfpl-production/746133/436b9e35-6f3a-401a-903a-22d3e1cfab3a.png",
        "entry": 746133,
        "entry_name": "Your Tears Fuel Me",
        "event_total": 62,
        "has_played": true,
        "id": 5075792,
        "last_rank": 46468,
        "player_name": "Veniamin Dikov",
        "rank": 39617,
        "rank_sort": 39620,
        "total": 2360
      },
      {
        "club_badge_src": null,
        "entry": 904986,
        "entry_name": "Mount and Blade",
        "event_total": 61,
        "has_played": true,
        "id": 6219014,
        "last_rank": 45034,
        "player_name": "Corey Jones",
        "rank": 39617,
        "rank_sort": 39621,
        "total": 2360
      },
      {
        "club_badge_src": null,
        "entry": 1319501,
        "entry_name": "kym",
        "event_total": 67,
        "has_played": true,
        "id": 9171520,
        "last_rank": 54268,
        "player_name": "Kxyoum Bourahla",
        "rank": 39617,
        "rank_sort": 39622,
        "total": 2360
      },
      {
        "club_badge_src": null,
        "entry": 1363325,
        "entry_name": "\u0e41\u0e01\u0e44\u0e21\u0e48\u0e23\u0e2d\u0e14\u0e41\u0e19\u0e48\u0e04\u0e19 E3",
        "event_total": 67,
        "has_played": true,
        "id": 9477577,
        "last_rank": 42263,
        "player_name": "jonin phong",
        "rank": 39617,
        "rank_sort": 39623,
        "total": 2360
      },
      {
        "club_badge_src": null,
        "entry": 1980686,
        "entry_name": "Poppy's At The Wheel",
        "event_total": 66,
        "has_played": true,
        "id": 13988308,
        "last_rank": 52632,
        "player_name": "Callum Kerrison",
        "rank": 39617,
        "rank_sort": 39624,
        "total": 2360
      },
      {
        "club_badge_src": null,
        "entry": 3075328,
        "entry_name": "ashes team",
        "event_total": 42,
        "has_played": true,
        "id": 22651563,
        "last_rank": 23936,
        "player_name": "Ashley Hartley",
        "rank": 39617,
        "rank_sort": 39625,
        "total": 2360
      },
      {
        "club_badge_src": null,
        "entry": 3996241,
        "entry_name": "She Fancies Me",
        "event_total": 69,
        "has_played": true,
        "id": 30095355,
        "last_rank": 50984,
        "player_name": "Liam McCarthy",
        "rank": 39617,
        "rank_sort": 39626,
        "total": 2360
      },
      {
        "club_badge_src": null,
        "entry": 4158809,
        "entry_name": "Tikki Yakki",
        "event_total": 56,
        "has_played": true,
        "id": 31439190,
        "last_rank": 33729,
        "player_name": "Yannick Van Steyvoort",
        "rank": 39617,
        "rank_sort": 39627,
        "total": 2360
      },
      {
        "club_badge_src": null,
        "entry": 4221185,
        "entry_name": "Delap n Fap",
        "event_total": 55,
        "has_played": true,
        "id": 31975956,
        "last_rank": 37236,
        "player_name": "George Brown",
        "rank": 39617,
        "rank_sort": 39628,
        "total": 2360
      },
      {
        "club_badge_src": null,
        "entry": 4526739,
        "entry_name": "nah",
        "event_total": 65,
        "has_played": true,
        "id": 34526255,
        "last_rank": 51013,
        "player_name": "Rye Watts",
        "rank": 39617,
        "rank_sort": 39629,
        "total": 2360
      },
      {
        "club_badge_src": null,
        "entry": 4973753,
        "entry_name": "UpTheRedsYNWA",
        "event_total": 50,
        "has_played": true,
        "id": 38391968,
        "last_rank": 31459,
        "player_name": "Morten Korsaksel",
        "rank": 39617,
        "rank_sort": 39630,
        "total": 2360
      },
      {
        "club_badge_src": null,
        "entry": 5113039,
        "entry_name": "WRT",
        "event_total": 61,
        "has_played": true,
        "id": 39528696,
        "last_rank": 39703,
        "player_name": "Warit Tanisaro",
        "rank": 39617,
        "rank_sort": 39631,
        "total": 2360
      },
      {
        "club_badge_src": null,
        "entry": 6042569,
        "entry_name": "McGinn & Tonic",
        "event_total": 68,
        "has_played": true,
        "id": 47674945,
        "last_rank": 49442,
        "player_name": "Paul Cherry",
        "rank": 39617,
        "rank_sort": 39632,
        "total": 2360
      },
      {
        "club_badge_src": null,
        "entry": 7425509,
        "entry_name": "Shhhhhh......",
        "event_total": 77,
        "has_played": true,
        "id": 60311009,
        "last_rank": 72407,
        "player_name": "Lazaros Geronikolos",
        "rank": 39617,
        "rank_sort": 39633,
        "total": 2360
      },
      {
        "club_badge_src": null,
        "entry": 8226977,
        "entry_name": "Temple Court",
        "event_total": 63,
        "has_played": true,
        "id": 67995953,
        "last_rank": 47982,
        "player_name": "Sean Burke",
        "rank": 39617,
        "rank_sort": 39634,
        "total": 2360
      },
      {
        "club_badge_src": null,
        "entry": 8462575,
        "entry_name": "HERE WE GO! GGMU!",
        "event_total": 68,
        "has_played": true,
        "id": 70274072,
        "last_rank": 55865,
        "player_name": "T LJW",
        "rank": 39617,
        "rank_sort": 39635,
        "total": 2360
      },
      {
        "club_badge_src": null,
        "entry": 8626467,
        "entry_name": "K\u00ef\u00f1gs Kh\u00e6\u00f1zzz",
        "event_total": 65,
        "has_played": true,
        "id": 71853756,
        "last_rank": 44982,
        "player_name": "W\u00e6tashiw\u0101 St\u00e6rz",
        "rank": 39617,
        "rank_sort": 39636,
        "total": 2360
      },
      {
        "club_badge_src": null,
        "entry": 233674,
        "entry_name": "Wharton Easy Win",
        "event_total": 68,
        "has_played": true,
        "id": 1554811,
        "last_rank": 33695,
        "player_name": "leigh hughes",
        "rank": 39637,
        "rank_sort": 39637,
        "total": 2360
      },
      {
        "club_badge_src": "https://fantasy.premierleague.com/gcs/plfpl-production-adobe-approved/plfpl-production/586062/beda4ac8-a60f-416d-a005-385ca2c475ec.png",
        "entry": 586062,
        "entry_name": "inZaneinTheMembrane",
        "event_total": 58,
        "has_played": true,
        "id": 3944024,
        "last_rank": 36031,
        "player_name": "npc zane",
        "rank": 39637,
        "rank_sort": 39638,
        "total": 2360
      },
      {
        "club_badge_src": null,
        "entry": 667760,
        "entry_name": "\u2606Maverick\u2606",
        "event_total": 53,
        "has_played": true,
        "id": 4515248,
        "last_rank": 30433,
        "player_name": "Dave Ennis",
        "rank": 39637,
        "rank_sort": 39639,
        "total": 2360
      },
      {
        "club_badge_src": null,
        "entry": 1113968,
        "entry_name": "Rolls Reece",
        "event_total": 68,
        "has_played": true,
        "id": 7716312,
        "last_rank": 49463,
        "player_name": "King Val",
        "rank": 39637,
        "rank_sort": 39640,
        "total": 2360
      },
      {
        "club_badge_src": "https://fantasy.premierleague.com/gcs/plfpl-production-adobe-approved/plfpl-production/1389226/8a03d45a-c1eb-4f2c-8787-ab012506707a.png",
        "entry": 1389226,
        "entry_name": "Relegation No Mbueno",
        "event_total": 53,
        "has_played": true,
        "id": 9663340,
        "last_rank": 34874,
        "player_name": "Assad saifullah khan",
        "rank": 39637,
        "rank_sort": 39641,
        "total": 2360
      },
      {
        "club_badge_src": null,
        "entry": 2605228,
        "entry_name": "Cambronx",
        "event_total": 51,
        "has_played": true,
        "id": 18713721,
        "last_rank": 32598,
        "player_name": "Jake Jackson",
        "rank": 39637,
        "rank_sort": 39642,
        "total": 2360
      },
      {
        "club_badge_src": null,
        "entry": 5050563,
        "entry_name": "OffsideOffenders",
        "event_total": 56,
        "has_played": true,
        "id": 39021855,
        "last_rank": 38469,
        "player_name": "Hannelie Bossert",
        "rank": 39637,
        "rank_sort": 39643,
        "total": 2360
      },
      {
        "club_badge_src": "https://fantasy.premierleague.com/gcs/plfpl-production-adobe-approved/plfpl-production/5274774/6b16f263-08ec-4a58-89a7-8704cbde8dc0.png",
        "entry": 5274774,
        "entry_name": "Adaaa",
        "event_total": 71,
        "has_played": true,
        "id": 40883667,
        "last_rank": 61139,
        "player_name": "Richard Kasongo",
        "rank": 39637,
        "rank_sort": 39644,
        "total": 2360
      },
      {
        "club_badge_src": null,
        "entry": 5596983,
        "entry_name": "Furmidable FC",
        "event_total": 59,
        "has_played": true,
        "id": 43730173,
        "last_rank": 42327,
        "player_name": "Simon Furminger",
        "rank": 39637,
        "rank_sort": 39645,
        "total": 2360
      },
      {
        "club_badge_src": null,
        "entry": 186449,
        "entry_name": "Black Wolves",
        "event_total": 68,
        "has_played": true,
        "id": 1232233,
        "last_rank": 43657,
        "player_name": "Yasser S7",
        "rank": 39646,
        "rank_sort": 39646,
        "total": 2360
      },
      {
        "club_badge_src": "https://fantasy.premierleague.com/gcs/plfpl-production-adobe-approved/plfpl-production/615997/ff6ec06d-b638-4dee-b433-19e3ded56929.png",
        "entry": 615997,
        "entry_name": "Bullsnix69",
        "event_total": 59,
        "has_played": true,
        "id": 4162243,
        "last_rank": 42347,
        "player_name": "Robert Bull Westbye",
        "rank": 39646,
        "rank_sort": 39647,
        "total": 2360
      },
      {
        "club_badge_src": "https://fantasy.premierleague.com/gcs/plfpl-production-adobe-approved/plfpl-production/913753/37f72abd-e0dd-465d-bd2b-d651e918c9d7.png",
        "entry": 913753,
        "entry_name": "\uff12\uff14 AUG",
        "event_total": 64,
        "has_played": true,
        "id": 6283166,
        "last_rank": 43657,
        "player_name": "Luis Biarique",
        "rank": 39646,
        "rank_sort": 39648,
        "total": 2360
      },
      {
        "club_badge_src": null,
        "entry": 1561412,
        "entry_name": "Egoist FC",
        "event_total": 55,
        "has_played": true,
        "id": 10905853,
        "last_rank": 37276,
        "player_name": "Rishabh Rajiv",
        "rank": 39646,
        "rank_sort": 39649,
        "total": 2360
      },
      {
        "club_badge_src": null,
        "entry": 7595071,
        "entry_name": "TWTS Loyal",
        "event_total": 50,
        "has_played": true,
        "id": 62220876,
        "last_rank": 27514,
        "player_name": "Paul Gladstone",
        "rank": 39646,
        "rank_sort": 39650,
        "total": 2360
      }
    ]
  }
}