{
  "last_updated_data": "2026-05-24T23:28:17Z",
  "league": {
    "admin_entry": null,
    "closed": false,
    "code_privacy": "p",
    "created": "2025-07-20T23:14:33.933835Z",
    "cup_league": 2815434,
    "has_cup": true,
    "id": 314,
    "league_type": "s",
    "max_entries": null,
    "name": "Overall",
    "rank": null,
    "scoring": "c",
    "start_event": 1
  },
  "new_entries": {
    "has_next": false,
    "page": 1,
    "results": []
  },
  "standings": {
    "has_next": true,
    "page": 1246,
    "results": [
      {
        "club_badge_src": null,
        "entry": 367676,
        "entry_name": "Naruto XI",
        "event_total": 31,
        "has_played": true,
        "id": 2460571,
        "last_rank": 27585,
        "player_name": "Abdullah Al Hesham",
        "rank": 62248,
        "rank_sort": 62251,
        "total": 2344
      },
      {
        "club_badge_src": null,
        "entry": 387421,
        "entry_name": "Bush Pigz",
        "event_total": 38,
        "has_played": true,
        "id": 2599019,
        "last_rank": 34969,
        "player_name": "Thomas Davidson-park",
        "rank": 62248,
        "rank_sort": 62252,
        "total": 2344
      },
      {
        "club_badge_src": "https://fantasy.premierleague.com/gcs/plfpl-production-adobe-approved/plfpl-production/390436/3aac65bd-395b-46fc-8cc2-c495e65622d7.png",
        "entry": 390436,
        "entry_name": "Bowen 747",
        "event_total": 61,
        "has_played": true,
        "id": 2618990,
        "last_rank": 70651,
        "player_name": "Archie Barrett",
        "rank": 62248,
        "rank_sort": 62253,
        "total": 2344
      },
      {
        "club_badge_src": null,
        "entry": 687603,
        "entry_name": "Spreadsheet Soldiers",
        "event_total": 48,
        "has_played": true,
        "id": 4654987,
        "last_rank": 48119,
        "player_name": "Dayan butt",
        "rank": 62248,
        "rank_sort": 62254,
        "total": 2344
      },
      {
        "club_badge_src": null,
        "entry": 883445,
        "entry_name": "ACachete",
        "event_total": 44,
        "has_played": true,
        "id": 6058720,
        "last_rank": 42434,
        "player_name": "Alejandro Gamboa",
        "rank": 62248,
        "rank_sort": 62255,
        "total": 2344
      },
      {
        "club_badge_src": null,
        "entry": 919209,
        "entry_name": "Cunha get any worse",
        "event_total": 64,
        "has_played": true,
        "id": 6321356,
        "last_rank": 76947,
        "player_name": "Jessica Hanson",
        "rank": 62248,
        "rank_sort": 62256,
        "total": 2344
      },
      {
        "club_badge_src": null,
        "entry": 1254519,
        "entry_name": "Hips Dont Szoboszlai",
        "event_total": 62,
        "has_played": true,
        "id": 8713246,
        "last_rank": 72638,
        "player_name": "Ollie Heath",
        "rank": 62248,
        "rank_sort": 62257,
        "total": 2344
      },
      {
        "club_badge_src": null,
        "entry": 1367507,
        "entry_name": "boogs boys",
        "event_total": 43,
        "has_played": true,
        "id": 9506275,
        "last_rank": 41041,
        "player_name": "Henry Leis",
        "rank": 62248,
        "rank_sort": 62258,
        "total": 2344
      },
      {
        "club_badge_src": null,
        "entry": 1446077,
        "entry_name": "Ur a Wissa Harry",
        "event_total": 60,
        "has_played": true,
        "id": 10076587,
        "last_rank": 68624,
        "player_name": "Jesse Doniach Hughes",
        "rank": 62248,
        "rank_sort": 62259,
        "total": 2344
      },
      {
        "club_badge_src": null,
        "entry": 2875644,
        "entry_name": "BigJill",
        "event_total": 62,
        "has_played": true,
        "id": 21045804,
        "last_rank": 72702,
        "player_name": "Jack Allcock",
        "rank": 62248,
        "rank_sort": 62260,
        "total": 2344
      },
      {
        "club_badge_src": null,
        "entry": 3419904,
        "entry_name": "Voltzspor FC",
        "event_total": 56,
        "has_played": true,
        "id": 25402695,
        "last_rank": 61315,
        "player_name": "Ahmet Keser",
        "rank": 62248,
        "rank_sort": 62261,
        "total": 2344
      },
      {
        "club_badge_src": null,
        "entry": 3422273,
        "entry_name": "Predictable Paddys",
        "event_total": 78,
        "has_played": true,
        "id": 25420927,
        "last_rank": 111270,
        "player_name": "Stefan Hogshaw",
        "rank": 62248,
        "rank_sort": 62262,
        "total": 2344
      },
      {
        "club_badge_src": null,
        "entry": 5823759,
        "entry_name": "Rated R Super Sarr",
        "event_total": 60,
        "has_played": true,
        "id": 45704840,
        "last_rank": 68585,
        "player_name": "Tobi Bolu",
        "rank": 62248,
        "rank_sort": 62263,
        "total": 2344
      },
      {
        "club_badge_src": null,
        "entry": 6102206,
        "entry_name": "abcde fc",
        "event_total": 61,
        "has_played": true,
        "id": 48194676,
        "last_rank": 70600,
        "player_name": "Mihira Tallapragada",
        "rank": 62248,
        "rank_sort": 62264,
        "total": 2344
      },
      {
        "club_badge_src": null,
        "entry": 7242243,
        "entry_name": "Poultry Pate",
        "event_total": 63,
        "has_played": true,
        "id": 58529150,
        "last_rank": 74787,
        "player_name": "Adrian Mucha",
        "rank": 62248,
        "rank_sort": 62265,
        "total": 2344
      },
      {
        "club_badge_src": null,
        "entry": 7947980,
        "entry_name": "RoboKlopp FC",
        "event_total": 43,
        "has_played": true,
        "id": 65421197,
        "last_rank": 41101,
        "player_name": "Soheb S",
        "rank": 62248,
        "rank_sort": 62266,
        "total": 2344
      },
      {
        "club_badge_src": null,
        "entry": 9265820,
        "entry_name": "Mulling It Over",
        "event_total": 41,
        "has_played": true,
        "id": 78077296,
        "last_rank": 38571,
        "player_name": "Kat Mullings",
        "rank": 62248,
        "rank_sort": 62267,
        "total": 2344
      },
      {
        "club_badge_src": "https://fantasy.premierleague.com/gcs/plfpl-production-adobe-approved/plfpl-production/9351096/f3a2d3f2-a8fb-4702-9265-fc0d3ff0341b.png",
        "entry": 9351096,
        "entry_name": "Greenwoods Group",
        "event_total": 50,
        "has_played": true,
        "id": 78897961,
        "last_rank": 51112,
        "player_name": "Elijah Bhandal-Hayre",
        "rank": 62248,
        "rank_sort": 62268,
        "total": 2344
      },
      {
        "club_badge_src": null,
        "entry": 20729,
        "entry_name": "SquidWirtz",
        "event_total": 61,
        "has_played": true,
        "id": 129626,
        "last_rank": 70600,
        "player_name": "Calum Quigley",
        "rank": 62269,
        "rank_sort": 62269,
        "total": 2344
      },
      {
        "club_badge_src": null,
        "entry": 216781,
        "entry_name": "Alisson Wonderland",
        "event_total": 41,
        "has_played": true,
        "id": 1441836,
        "last_rank": 38644,
        "player_name": "Nigel Tan",
        "rank": 62269,
        "rank_sort": 62270,
        "total": 2344
      },
      {
        "club_badge_src": null,
        "entry": 281429,
        "entry_name": "62SS",
        "event_total": 59,
        "has_played": true,
        "id": 1872812,
        "last_rank": 66693,
        "player_name": "Jonny Baxter",
        "rank": 62269,
        "rank_sort": 62271,
        "total": 2344
      },
      {
        "club_badge_src": null,
        "entry": 322521,
        "entry_name": "Livin' Saliba Loca",
        "event_total": 56,
        "has_played": true,
        "id": 2161302,
        "last_rank": 61258,
        "player_name": "Jess Foster",
        "rank": 62269,
        "rank_sort": 62272,
        "total": 2344
      },
      {
        "club_badge_src": null,
        "entry": 578296,
        "entry_name": "FarrtinPubimendi",
        "event_total": 50,
        "has_played": true,
        "id": 3891178,
        "last_rank": 51220,
        "player_name": "George Roscoe",
        "rank": 62269,
        "rank_sort": 62273,
        "total": 2344
      },
      {
        "club_badge_src": null,
        "entry": 580376,
        "entry_name": "CA Brews Brothers",
        "event_total": 55,
        "has_played": true,
        "id": 3905507,
        "last_rank": 59632,
        "player_name": "Jacob Bosenius",
        "rank": 62269,
        "rank_sort": 62274,
        "total": 2344
      },
      {
        "club_badge_src": "https://fantasy.premierleague.com/gcs/plfpl-production-adobe-approved/plfpl-production/585111/d64b6126-8edd-4651-a2b5-a8423a6fffae.png",
        "entry": 585111,
        "entry_name": "CockneyRebelsAfletic",
        "event_total": 57,
        "has_played": true,
        "id": 3937679,
        "last_rank": 56069,
        "player_name": "Stephen Nunn",
        "rank": 62269,
        "rank_sort": 62275,
        "total": 2344
      },
      {
        "club_badge_src": null,
        "entry": 888737,
        "entry_name": "ubb",
        "event_total": 58,
        "has_played": true,
        "id": 6095889,
        "last_rank": 64943,
        "player_name": "Rafael Zaharie",
        "rank": 62269,
        "rank_sort": 62276,
        "total": 2344
      },
      {
        "club_badge_src": null,
        "entry": 912230,
        "entry_name": "Entertainer 3rd",
        "event_total": 76,
        "has_played": true,
        "id": 6272522,
        "last_rank": 105818,
        "player_name": "Paul Parrott",
        "rank": 62269,
        "rank_sort": 62277,
        "total": 2344
      },
      {
        "club_badge_src": null,
        "entry": 1481721,
        "entry_name": "Life of Bryan",
        "event_total": 64,
        "has_played": true,
        "id": 10332322,
        "last_rank": 76885,
        "player_name": "Tom Mackenzie",
        "rank": 62269,
        "rank_sort": 62278,
        "total": 2344
      },
      {
        "club_badge_src": "https://fantasy.premierleague.com/gcs/plfpl-production-adobe-approved/plfpl-production/1511265/800354e2-1c73-4760-8871-45c5f8ba735b.png",
        "entry": 1511265,
        "entry_name": "The New One",
        "event_total": 68,
        "has_played": true,
        "id": 10540218,
        "last_rank": 85870,
        "player_name": "Andy Cooper",
        "rank": 62269,
        "rank_sort": 62279,
        "total": 2344
      },
      {
        "club_badge_src": null,
        "entry": 1612107,
        "entry_name": "Where's my rash gone",
        "event_total": 39,
        "has_played": true,
        "id": 11279372,
        "last_rank": 36200,
        "player_name": "Oliver Dilks",
        "rank": 62269,
        "rank_sort": 62280,
        "total": 2344
      },
      {
        "club_badge_src": null,
        "entry": 1649181,
        "entry_name": "Could be Wirtz",
        "event_total": 61,
        "has_played": true,
        "id": 11545252,
        "last_rank": 70600,
        "player_name": "Ronan Dobey",
        "rank": 62269,
        "rank_sort": 62281,
        "total": 2344
      },
      {
        "club_badge_src": null,
        "entry": 1828268,
        "entry_name": "Munachi",
        "event_total": 58,
        "has_played": true,
        "id": 12859902,
        "last_rank": 64830,
        "player_name": "Madu Stanley",
        "rank": 62269,
        "rank_sort": 62282,
        "total": 2344
      },
      {
        "club_badge_src": null,
        "entry": 1842439,
        "entry_name": "BRFCJacob",
        "event_total": 61,
        "has_played": true,
        "id": 12962586,
        "last_rank": 70600,
        "player_name": "Jacob Cheadle",
        "rank": 62269,
        "rank_sort": 62283,
        "total": 2344
      },
      {
        "club_badge_src": null,
        "entry": 1988602,
        "entry_name": "Lighthouse Garden",
        "event_total": 60,
        "has_played": true,
        "id": 14048544,
        "last_rank": 68624,
        "player_name": "Alp Atik",
        "rank": 62269,
        "rank_sort": 62284,
        "total": 2344
      },
      {
        "club_badge_src": null,
        "entry": 2356092,
        "entry_name": "maysara",
        "event_total": 57,
        "has_played": true,
        "id": 16811716,
        "last_rank": 63201,
        "player_name": "\u0645\u064a\u0633\u0631\u0647 \u0645\u0631\u0634\u062f \u062c\u0628\u064a\u0631 \u0635\u0627\u0644\u062d",
        "rank": 62269,
        "rank_sort": 62285,
        "total": 2344
      },
      {
        "club_badge_src": null,
        "entry": 2667852,
        "entry_name": "Blue Moose",
        "event_total": 62,
        "has_played": true,
        "id": 19180430,
        "last_rank": 72815,
        "player_name": "Johan Soderkvist",
        "rank": 62269,
        "rank_sort": 62286,
        "total": 2344
      },
      {
        "club_badge_src": null,
        "entry": 2875406,
        "entry_name": "Strahinja213",
        "event_total": 68,
        "has_played": true,
        "id": 21042779,
        "last_rank": 85870,
        "player_name": "Strahinja Svrzic",
        "rank": 62269,
        "rank_sort": 62287,
        "total": 2344
      },
      {
        "club_badge_src": null,
        "entry": 3404770,
        "entry_name": "TSL",
        "event_total": 64,
        "has_played": true,
        "id": 25281721,
        "last_rank": 76908,
        "player_name": "Tiago Lucas",
        "rank": 62269,
        "rank_sort": 62288,
        "total": 2344
      },
      {
        "club_badge_src": null,
        "entry": 3490786,
        "entry_name": "Moyesy Masterclass",
        "event_total": 52,
        "has_played": true,
        "id": 25960768,
        "last_rank": 54494,
        "player_name": "Alex Jones",
        "rank": 62269,
        "rank_sort": 62289,
        "total": 2344
      },
      {
        "club_badge_src": null,
        "entry": 3629479,
        "entry_name": "Steg's Eleven",
        "event_total": 61,
        "has_played": true,
        "id": 27045869,
        "last_rank": 70584,
        "player_name": "Steven Taylor",
        "rank": 62269,
        "rank_sort": 62290,
        "total": 2344
      },
      {
        "club_badge_src": null,
        "entry": 3645566,
        "entry_name": "Giroud Sandstorm",
        "event_total": 53,
        "has_played": true,
        "id": 27170416,
        "last_rank": 56047,
        "player_name": "Eryk Korben",
        "rank": 62269,
        "rank_sort": 62291,
        "total": 2344
      },
      {
        "club_badge_src": null,
        "entry": 3744987,
        "entry_name": "Jump Jam FC",
        "event_total": 33,
        "has_played": true,
        "id": 27956633,
        "last_rank": 29578,
        "player_name": "Campbell Batt",
        "rank": 62269,
        "rank_sort": 62292,
        "total": 2344
      },
      {
        "club_badge_src": null,
        "entry": 3889782,
        "entry_name": "N0b Utd",
        "event_total": 43,
        "has_played": true,
        "id": 29230017,
        "last_rank": 41162,
        "player_name": "Dave FREEMAN",
        "rank": 62269,
        "rank_sort": 62293,
        "total": 2344
      },
      {
        "club_badge_src": null,
        "entry": 3986845,
        "entry_name": "Shadows FC \u2b50",
        "event_total": 38,
        "has_played": true,
        "id": 30016742,
        "last_rank": 35034,
        "player_name": "Stanis\u0142aw Odija",
        "rank": 62269,
        "rank_sort": 62294,
        "total": 2344
      },
      {
        "club_badge_src": null,
        "entry": 4063861,
        "entry_name": "CDN",
        "event_total": 59,
        "has_played": true,
        "id": 30669050,
        "last_rank": 66658,
        "player_name": "Casper Nielsen",
        "rank": 62269,
        "rank_sort": 62295,
        "total": 2344
      },
      {
        "club_badge_src": null,
        "entry": 4219730,
        "entry_name": "pique blinders",
        "event_total": 41,
        "has_played": true,
        "id": 31960387,
        "last_rank": 38644,
        "player_name": "Tor Eirik Storeb\u00f8",
        "rank": 62269,
        "rank_sort": 62296,
        "total": 2344
      },
      {
        "club_badge_src": "https://fantasy.premierleague.com/gcs/plfpl-production-adobe-approved/plfpl-production/4351462/cda8607a-bf29-4198-b877-94ae68aebd8c.png",
        "entry": 4351462,
        "entry_name": "Team Arty",
        "event_total": 49,
        "has_played": true,
        "id": 33043831,
        "last_rank": 49607,
        "player_name": "Aishath Ailish",
        "rank": 62269,
        "rank_sort": 62297,
        "total": 2344
      },
      {
        "club_badge_src": "https://fantasy.premierleague.com/gcs/plfpl-production-adobe-approved/plfpl-production/4474371/2dbf353b-7e70-47ff-bf6b-a4e66830f365.png",
        "entry": 4474371,
        "entry_name": "Reet in the Puddins",
        "event_total": 52,
        "has_played": true,
        "id": 34097730,
        "last_rank": 54380,
        "player_name": "Robert Jewitt",
        "rank": 62269,
        "rank_sort": 62298,
        "total": 2344
      },
      {
        "club_badge_src": null,
        "entry": 5362208,
        "entry_name": "i'm yelling Timber",
        "event_total": 67,
        "has_played": true,
        "id": 41649419,
        "last_rank": 83584,
        "player_name": "Jon Cantle",
        "rank": 62269,
        "rank_sort": 62299,
        "total": 2344
      },
      {
        "club_badge_src": null,
        "entry": 5404228,
        "entry_name": "Pitch Perfect",
        "event_total": 68,
        "has_played": true,
        "id": 42021459,
        "last_rank": 85870,
        "player_name": "Hannah Popper",
        "rank": 62269,
        "rank_sort": 62300,
        "total": 2344
      }
    ]
  }
}