{
  "last_updated_data": "2026-05-24T23:28:17Z",
  "league": {
    "admin_entry": null,
    "closed": false,
    "code_privacy": "p",
    "created": "2025-07-20T23:14:33.933835Z",
    "cup_league": 2815434,
    "has_cup": true,
    "id": 314,
    "league_type": "s",
    "max_entries": null,
    "name": "Overall",
    "rank": null,
    "scoring": "c",
    "start_event": 1
  },
  "new_entries": {
    "has_next": false,
    "page": 1,
    "results": []
  },
  "standings": {
    "has_next": true,
    "page": 882,
    "results": [
      {
        "club_badge_src": null,
        "entry": 639807,
        "entry_name": "Kahspurs",
        "event_total": 64,
        "has_played": true,
        "id": 4324112,
        "last_rank": 54667,
        "player_name": "Kristoffer Andr\u00e9 Hornnes",
        "rank": 43984,
        "rank_sort": 44051,
        "total": 2356
      },
      {
        "club_badge_src": "https://fantasy.premierleague.com/gcs/plfpl-production-adobe-approved/plfpl-production/653921/89475c10-f6d8-4b16-8c38-f047b811ae4f.png",
        "entry": 653921,
        "entry_name": "Irish champion",
        "event_total": 60,
        "has_played": true,
        "id": 4419125,
        "last_rank": 48642,
        "player_name": "joaquin koifman",
        "rank": 43984,
        "rank_sort": 44052,
        "total": 2356
      },
      {
        "club_badge_src": null,
        "entry": 663886,
        "entry_name": "B7XI",
        "event_total": 66,
        "has_played": true,
        "id": 4488263,
        "last_rank": 58071,
        "player_name": "Blake Jefferies",
        "rank": 43984,
        "rank_sort": 44053,
        "total": 2356
      },
      {
        "club_badge_src": null,
        "entry": 738872,
        "entry_name": "Henchmen",
        "event_total": 53,
        "has_played": true,
        "id": 5023542,
        "last_rank": 39246,
        "player_name": "Eirik Meling",
        "rank": 43984,
        "rank_sort": 44054,
        "total": 2356
      },
      {
        "club_badge_src": null,
        "entry": 750699,
        "entry_name": "6 7",
        "event_total": 48,
        "has_played": true,
        "id": 5107827,
        "last_rank": 32751,
        "player_name": "Kiran den Boer",
        "rank": 43984,
        "rank_sort": 44055,
        "total": 2356
      },
      {
        "club_badge_src": null,
        "entry": 765628,
        "entry_name": "Ctrl Alt DeLigt",
        "event_total": 53,
        "has_played": true,
        "id": 5221891,
        "last_rank": 38774,
        "player_name": "Aadil Ahmed",
        "rank": 43984,
        "rank_sort": 44056,
        "total": 2356
      },
      {
        "club_badge_src": "https://fantasy.premierleague.com/gcs/plfpl-production-adobe-approved/plfpl-production/772981/b146f9f6-73cf-43db-bccb-ee4fe73521e5.png",
        "entry": 772981,
        "entry_name": "Believers FC",
        "event_total": 67,
        "has_played": true,
        "id": 5273474,
        "last_rank": 60168,
        "player_name": "Isaiah Sodje",
        "rank": 43984,
        "rank_sort": 44057,
        "total": 2356
      },
      {
        "club_badge_src": null,
        "entry": 779504,
        "entry_name": "wirtzpool",
        "event_total": 58,
        "has_played": true,
        "id": 5321179,
        "last_rank": 45416,
        "player_name": "George Ghantous",
        "rank": 43984,
        "rank_sort": 44058,
        "total": 2356
      },
      {
        "club_badge_src": null,
        "entry": 788211,
        "entry_name": "stop the chipflation",
        "event_total": 57,
        "has_played": true,
        "id": 5390011,
        "last_rank": 44048,
        "player_name": "Henry Tribe",
        "rank": 43984,
        "rank_sort": 44059,
        "total": 2356
      },
      {
        "club_badge_src": null,
        "entry": 822764,
        "entry_name": "Khaled bouchafa",
        "event_total": 51,
        "has_played": true,
        "id": 5634926,
        "last_rank": 36624,
        "player_name": "khaled Bch",
        "rank": 43984,
        "rank_sort": 44060,
        "total": 2356
      },
      {
        "club_badge_src": null,
        "entry": 826106,
        "entry_name": "One Tchouam\u00e9ni",
        "event_total": 66,
        "has_played": true,
        "id": 5658024,
        "last_rank": 58388,
        "player_name": "Brage Brataas",
        "rank": 43984,
        "rank_sort": 44061,
        "total": 2356
      },
      {
        "club_badge_src": "https://fantasy.premierleague.com/gcs/plfpl-production-adobe-approved/plfpl-production/875061/1c83f11b-1c2e-46c6-99e7-83f1eb83d729.png",
        "entry": 875061,
        "entry_name": "FPL Magiina",
        "event_total": 67,
        "has_played": true,
        "id": 5999383,
        "last_rank": 59535,
        "player_name": "Karita Ayuningtyas",
        "rank": 43984,
        "rank_sort": 44062,
        "total": 2356
      },
      {
        "club_badge_src": null,
        "entry": 909045,
        "entry_name": "Norindech007",
        "event_total": 49,
        "has_played": true,
        "id": 6249236,
        "last_rank": 34293,
        "player_name": "Indech Jaratsangvirote",
        "rank": 43984,
        "rank_sort": 44063,
        "total": 2356
      },
      {
        "club_badge_src": null,
        "entry": 958355,
        "entry_name": "VAL\ufffd\u26ab FC",
        "event_total": 47,
        "has_played": true,
        "id": 6603659,
        "last_rank": 27770,
        "player_name": "Valentine Ogo",
        "rank": 43984,
        "rank_sort": 44064,
        "total": 2356
      },
      {
        "club_badge_src": null,
        "entry": 960632,
        "entry_name": "The Divock Original",
        "event_total": 59,
        "has_played": true,
        "id": 6619791,
        "last_rank": 47163,
        "player_name": "Matthew Figg",
        "rank": 43984,
        "rank_sort": 44065,
        "total": 2356
      },
      {
        "club_badge_src": null,
        "entry": 1021794,
        "entry_name": "Executioner's Bong",
        "event_total": 60,
        "has_played": true,
        "id": 7069384,
        "last_rank": 48642,
        "player_name": "James MacGregor",
        "rank": 43984,
        "rank_sort": 44066,
        "total": 2356
      },
      {
        "club_badge_src": null,
        "entry": 1128735,
        "entry_name": "Livin\u2019 Lavia Loca",
        "event_total": 67,
        "has_played": true,
        "id": 7822904,
        "last_rank": 60168,
        "player_name": "Harvey Brightey",
        "rank": 43984,
        "rank_sort": 44067,
        "total": 2356
      },
      {
        "club_badge_src": "https://fantasy.premierleague.com/gcs/plfpl-production-adobe-approved/plfpl-production/1132478/b1284c72-e017-4196-b737-3cf9e2bad308.png",
        "entry": 1132478,
        "entry_name": "Cham21ons",
        "event_total": 47,
        "has_played": true,
        "id": 7849984,
        "last_rank": 32190,
        "player_name": "Biplob Bhandari",
        "rank": 43984,
        "rank_sort": 44068,
        "total": 2356
      },
      {
        "club_badge_src": null,
        "entry": 1184107,
        "entry_name": "Reetys Rovers",
        "event_total": 79,
        "has_played": true,
        "id": 8215608,
        "last_rank": 83934,
        "player_name": "Dale Reet",
        "rank": 43984,
        "rank_sort": 44069,
        "total": 2356
      },
      {
        "club_badge_src": null,
        "entry": 1220094,
        "entry_name": "TC Mark Noble",
        "event_total": 70,
        "has_played": true,
        "id": 8470798,
        "last_rank": 65475,
        "player_name": "Bob Ward",
        "rank": 43984,
        "rank_sort": 44070,
        "total": 2356
      },
      {
        "club_badge_src": null,
        "entry": 1243920,
        "entry_name": "Junglist Massive",
        "event_total": 73,
        "has_played": true,
        "id": 8639075,
        "last_rank": 71386,
        "player_name": "Marc stevens",
        "rank": 43984,
        "rank_sort": 44071,
        "total": 2356
      },
      {
        "club_badge_src": null,
        "entry": 1277440,
        "entry_name": "Stevies Wonders",
        "event_total": 52,
        "has_played": true,
        "id": 8876622,
        "last_rank": 37822,
        "player_name": "Steven McMaster",
        "rank": 43984,
        "rank_sort": 44072,
        "total": 2356
      },
      {
        "club_badge_src": null,
        "entry": 1282179,
        "entry_name": "The Ruuds",
        "event_total": 56,
        "has_played": true,
        "id": 8909494,
        "last_rank": 37435,
        "player_name": "Anders Ruud",
        "rank": 43984,
        "rank_sort": 44073,
        "total": 2356
      },
      {
        "club_badge_src": null,
        "entry": 1282329,
        "entry_name": "Kentaurs",
        "event_total": 59,
        "has_played": true,
        "id": 8910536,
        "last_rank": 47163,
        "player_name": "Kenneth Alvsv\u00e5g",
        "rank": 43984,
        "rank_sort": 44074,
        "total": 2356
      },
      {
        "club_badge_src": null,
        "entry": 1386189,
        "entry_name": "Snotty Dribblers",
        "event_total": 61,
        "has_played": true,
        "id": 9641488,
        "last_rank": 50199,
        "player_name": "David Morley",
        "rank": 43984,
        "rank_sort": 44075,
        "total": 2356
      },
      {
        "club_badge_src": null,
        "entry": 1389192,
        "entry_name": "Gunners91",
        "event_total": 72,
        "has_played": true,
        "id": 9663109,
        "last_rank": 61606,
        "player_name": "Sa\u0161a Pavlovi\u0107",
        "rank": 43984,
        "rank_sort": 44076,
        "total": 2356
      },
      {
        "club_badge_src": null,
        "entry": 1407174,
        "entry_name": "Bowen For Gold",
        "event_total": 57,
        "has_played": true,
        "id": 9791157,
        "last_rank": 44303,
        "player_name": "Paul Neville",
        "rank": 43984,
        "rank_sort": 44077,
        "total": 2356
      },
      {
        "club_badge_src": "https://fantasy.premierleague.com/gcs/plfpl-production-adobe-approved/plfpl-production/1412689/f9aa08a9-5d31-4989-af77-02bbf432c2ab.png",
        "entry": 1412689,
        "entry_name": "Brennan Jerry\u2019s",
        "event_total": 53,
        "has_played": true,
        "id": 9831069,
        "last_rank": 39246,
        "player_name": "Oscar Bearman",
        "rank": 43984,
        "rank_sort": 44078,
        "total": 2356
      },
      {
        "club_badge_src": null,
        "entry": 1419434,
        "entry_name": "Caravan club",
        "event_total": 51,
        "has_played": true,
        "id": 9883330,
        "last_rank": 36624,
        "player_name": "Marcus Langeland",
        "rank": 43984,
        "rank_sort": 44079,
        "total": 2356
      },
      {
        "club_badge_src": null,
        "entry": 1450153,
        "entry_name": "footcandy",
        "event_total": 47,
        "has_played": true,
        "id": 10104840,
        "last_rank": 31995,
        "player_name": "paul stewart",
        "rank": 43984,
        "rank_sort": 44080,
        "total": 2356
      },
      {
        "club_badge_src": null,
        "entry": 1453592,
        "entry_name": "Jarvinho XI",
        "event_total": 59,
        "has_played": true,
        "id": 10128629,
        "last_rank": 47163,
        "player_name": "Luke Jarvis",
        "rank": 43984,
        "rank_sort": 44081,
        "total": 2356
      },
      {
        "club_badge_src": null,
        "entry": 1518383,
        "entry_name": "Haytham Alothman",
        "event_total": 57,
        "has_played": true,
        "id": 10590322,
        "last_rank": 44525,
        "player_name": "haytham alothman ---",
        "rank": 43984,
        "rank_sort": 44082,
        "total": 2356
      },
      {
        "club_badge_src": null,
        "entry": 1543977,
        "entry_name": "Olujohnson fc",
        "event_total": 53,
        "has_played": true,
        "id": 10777042,
        "last_rank": 39023,
        "player_name": "Johnson Olumide",
        "rank": 43984,
        "rank_sort": 44083,
        "total": 2356
      },
      {
        "club_badge_src": null,
        "entry": 1568859,
        "entry_name": "Royal F.C.",
        "event_total": 57,
        "has_played": true,
        "id": 10959834,
        "last_rank": 44303,
        "player_name": "Royal Bhandari",
        "rank": 43984,
        "rank_sort": 44084,
        "total": 2356
      },
      {
        "club_badge_src": null,
        "entry": 1576780,
        "entry_name": "That's your Slot",
        "event_total": 53,
        "has_played": true,
        "id": 11018052,
        "last_rank": 38774,
        "player_name": "Matt Wood",
        "rank": 43984,
        "rank_sort": 44085,
        "total": 2356
      },
      {
        "club_badge_src": null,
        "entry": 1587882,
        "entry_name": "Cagsy Nanbot",
        "event_total": 67,
        "has_played": true,
        "id": 11101128,
        "last_rank": 59813,
        "player_name": "Aran Singanayagam",
        "rank": 43984,
        "rank_sort": 44086,
        "total": 2356
      },
      {
        "club_badge_src": null,
        "entry": 1685563,
        "entry_name": "ro shim bo",
        "event_total": 61,
        "has_played": true,
        "id": 11799094,
        "last_rank": 49880,
        "player_name": "Christopher Pidd",
        "rank": 43984,
        "rank_sort": 44087,
        "total": 2356
      },
      {
        "club_badge_src": null,
        "entry": 1733292,
        "entry_name": "Berga IL",
        "event_total": 49,
        "has_played": true,
        "id": 12158419,
        "last_rank": 34293,
        "player_name": "Mathias Bergamaschi",
        "rank": 43984,
        "rank_sort": 44088,
        "total": 2356
      },
      {
        "club_badge_src": "https://fantasy.premierleague.com/gcs/plfpl-production-adobe-approved/plfpl-production/1739182/c8b6f9e5-8dc8-4c27-a608-33452583efa4.png",
        "entry": 1739182,
        "entry_name": "Petr Cech Yourself",
        "event_total": 59,
        "has_played": true,
        "id": 12202016,
        "last_rank": 41324,
        "player_name": "Joshua Williams",
        "rank": 43984,
        "rank_sort": 44089,
        "total": 2356
      },
      {
        "club_badge_src": "https://fantasy.premierleague.com/gcs/plfpl-production-adobe-approved/plfpl-production/1750153/86528b96-6436-4619-afa3-5ea294c5c8d9.png",
        "entry": 1750153,
        "entry_name": "Sappys Curry",
        "event_total": 58,
        "has_played": true,
        "id": 12282135,
        "last_rank": 45416,
        "player_name": "James Gledhill",
        "rank": 43984,
        "rank_sort": 44090,
        "total": 2356
      },
      {
        "club_badge_src": "https://fantasy.premierleague.com/gcs/plfpl-production-adobe-approved/plfpl-production/1758447/be6d88fd-2c04-4799-a445-bf5c3ec385ba.png",
        "entry": 1758447,
        "entry_name": "samojedanklub",
        "event_total": 62,
        "has_played": true,
        "id": 12345727,
        "last_rank": 51720,
        "player_name": "Vasilije Obradovic",
        "rank": 43984,
        "rank_sort": 44091,
        "total": 2356
      },
      {
        "club_badge_src": null,
        "entry": 1811756,
        "entry_name": "Abdelrahman Osama",
        "event_total": 70,
        "has_played": true,
        "id": 12739079,
        "last_rank": 65163,
        "player_name": "Abdelrahman Osama",
        "rank": 43984,
        "rank_sort": 44092,
        "total": 2356
      },
      {
        "club_badge_src": null,
        "entry": 1837340,
        "entry_name": "KOGUTY",
        "event_total": 84,
        "has_played": true,
        "id": 12925760,
        "last_rank": 96374,
        "player_name": "Qba Kubasi\u0144ski",
        "rank": 43984,
        "rank_sort": 44093,
        "total": 2356
      },
      {
        "club_badge_src": null,
        "entry": 1964423,
        "entry_name": "MUFC",
        "event_total": 51,
        "has_played": true,
        "id": 13860645,
        "last_rank": 36624,
        "player_name": "Panagiotis Christofi",
        "rank": 43984,
        "rank_sort": 44094,
        "total": 2356
      },
      {
        "club_badge_src": "https://fantasy.premierleague.com/gcs/plfpl-production-adobe-approved/plfpl-production/1974572/13b77fdd-4805-44d7-a094-a2ba028300c2.png",
        "entry": 1974572,
        "entry_name": "Lil Uzi Wirtz",
        "event_total": 36,
        "has_played": true,
        "id": 13937454,
        "last_rank": 22064,
        "player_name": "Maxwell Acton",
        "rank": 43984,
        "rank_sort": 44095,
        "total": 2356
      },
      {
        "club_badge_src": null,
        "entry": 2056080,
        "entry_name": "315",
        "event_total": 58,
        "has_played": true,
        "id": 14565165,
        "last_rank": 45714,
        "player_name": "Hussain Ali",
        "rank": 43984,
        "rank_sort": 44096,
        "total": 2356
      },
      {
        "club_badge_src": null,
        "entry": 2172884,
        "entry_name": "Roll the Dyche",
        "event_total": 62,
        "has_played": true,
        "id": 15450251,
        "last_rank": 51984,
        "player_name": "Cameron Mckenzie",
        "rank": 43984,
        "rank_sort": 44097,
        "total": 2356
      },
      {
        "club_badge_src": null,
        "entry": 2233977,
        "entry_name": "Real Ale Madrid",
        "event_total": 62,
        "has_played": true,
        "id": 15914946,
        "last_rank": 51720,
        "player_name": "Tom Trower",
        "rank": 43984,
        "rank_sort": 44098,
        "total": 2356
      },
      {
        "club_badge_src": null,
        "entry": 2260807,
        "entry_name": "The Green Arrows",
        "event_total": 52,
        "has_played": true,
        "id": 16118661,
        "last_rank": 37822,
        "player_name": "Kush -",
        "rank": 43984,
        "rank_sort": 44099,
        "total": 2356
      },
      {
        "club_badge_src": null,
        "entry": 2351041,
        "entry_name": "RutterWokeNonisense",
        "event_total": 56,
        "has_played": true,
        "id": 16775435,
        "last_rank": 37589,
        "player_name": "Haitham Sherif",
        "rank": 43984,
        "rank_sort": 44100,
        "total": 2356
      }
    ]
  }
}