{
  "last_updated_data": "2026-05-24T23:28:17Z",
  "league": {
    "admin_entry": null,
    "closed": false,
    "code_privacy": "p",
    "created": "2025-07-20T23:14:33.933835Z",
    "cup_league": 2815434,
    "has_cup": true,
    "id": 314,
    "league_type": "s",
    "max_entries": null,
    "name": "Overall",
    "rank": null,
    "scoring": "c",
    "start_event": 1
  },
  "new_entries": {
    "has_next": false,
    "page": 1,
    "results": []
  },
  "standings": {
    "has_next": true,
    "page": 504,
    "results": [
      {
        "club_badge_src": null,
        "entry": 6279522,
        "entry_name": "Kinder Mbuemo",
        "event_total": 65,
        "has_played": true,
        "id": 49731589,
        "last_rank": 24680,
        "player_name": "Bryan Caines",
        "rank": 25132,
        "rank_sort": 25151,
        "total": 2374
      },
      {
        "club_badge_src": "https://fantasy.premierleague.com/gcs/plfpl-production-adobe-approved/plfpl-production/7490128/3a6a5787-081d-4544-91b5-31ec4bbe7eae.png",
        "entry": 7490128,
        "entry_name": "Raya Sunshine",
        "event_total": 68,
        "has_played": true,
        "id": 61154803,
        "last_rank": 27402,
        "player_name": "Amber Lauren",
        "rank": 25132,
        "rank_sort": 25152,
        "total": 2374
      },
      {
        "club_badge_src": "https://fantasy.premierleague.com/gcs/plfpl-production-adobe-approved/plfpl-production/8662492/83906a32-0f12-4362-8b9b-c8eb898c91d2.png",
        "entry": 8662492,
        "entry_name": "Raccoon United FC",
        "event_total": 67,
        "has_played": true,
        "id": 72213848,
        "last_rank": 30361,
        "player_name": "Chris Straeuli",
        "rank": 25132,
        "rank_sort": 25153,
        "total": 2374
      },
      {
        "club_badge_src": "https://fantasy.premierleague.com/gcs/plfpl-production-adobe-approved/plfpl-production/5870/f2dc5bfb-5c74-41b5-96bb-5dd8f90a88f2.png",
        "entry": 5870,
        "entry_name": "Frimpong iddle-i-po",
        "event_total": 53,
        "has_played": true,
        "id": 33558,
        "last_rank": 18592,
        "player_name": "Paul Matthews",
        "rank": 25154,
        "rank_sort": 25154,
        "total": 2374
      },
      {
        "club_badge_src": null,
        "entry": 35254,
        "entry_name": "BOSH",
        "event_total": 67,
        "has_played": true,
        "id": 225548,
        "last_rank": 23039,
        "player_name": "Nolan Hafer",
        "rank": 25154,
        "rank_sort": 25155,
        "total": 2374
      },
      {
        "club_badge_src": null,
        "entry": 465493,
        "entry_name": "Delia's Toy Boys",
        "event_total": 60,
        "has_played": true,
        "id": 3122885,
        "last_rank": 27480,
        "player_name": "Ben Riseborough",
        "rank": 25154,
        "rank_sort": 25156,
        "total": 2374
      },
      {
        "club_badge_src": null,
        "entry": 548989,
        "entry_name": "Me, Myself, Ndiaye",
        "event_total": 65,
        "has_played": true,
        "id": 3694606,
        "last_rank": 24713,
        "player_name": "Henry Morgan",
        "rank": 25154,
        "rank_sort": 25157,
        "total": 2374
      },
      {
        "club_badge_src": null,
        "entry": 666642,
        "entry_name": "Forza Heartagedde",
        "event_total": 66,
        "has_played": true,
        "id": 4507346,
        "last_rank": 29393,
        "player_name": "Remi Njuolla",
        "rank": 25154,
        "rank_sort": 25158,
        "total": 2374
      },
      {
        "club_badge_src": null,
        "entry": 699681,
        "entry_name": "SEG XI",
        "event_total": 54,
        "has_played": true,
        "id": 4740003,
        "last_rank": 16621,
        "player_name": "Sean Lloyd",
        "rank": 25154,
        "rank_sort": 25159,
        "total": 2374
      },
      {
        "club_badge_src": null,
        "entry": 967869,
        "entry_name": "Muy Buemo",
        "event_total": 72,
        "has_played": true,
        "id": 6670807,
        "last_rank": 40959,
        "player_name": "Jamie Higgs",
        "rank": 25154,
        "rank_sort": 25160,
        "total": 2374
      },
      {
        "club_badge_src": "https://fantasy.premierleague.com/gcs/plfpl-production-adobe-approved/plfpl-production/1217083/d94d9a0a-c6b2-41fb-bdea-c8d109faf4d6.png",
        "entry": 1217083,
        "entry_name": "VSS Smolej Ko\u0161ice",
        "event_total": 60,
        "has_played": true,
        "id": 8447771,
        "last_rank": 27464,
        "player_name": "Daniel Grega",
        "rank": 25154,
        "rank_sort": 25161,
        "total": 2374
      },
      {
        "club_badge_src": null,
        "entry": 1408717,
        "entry_name": "Lord Commander FPL",
        "event_total": 60,
        "has_played": true,
        "id": 9802184,
        "last_rank": 27480,
        "player_name": "Gando Styles",
        "rank": 25154,
        "rank_sort": 25162,
        "total": 2374
      },
      {
        "club_badge_src": null,
        "entry": 2050935,
        "entry_name": "P\u00e5l M\u00e5l Mild",
        "event_total": 59,
        "has_played": true,
        "id": 14527082,
        "last_rank": 23089,
        "player_name": "P\u00e5l Joachim Eide",
        "rank": 25154,
        "rank_sort": 25163,
        "total": 2374
      },
      {
        "club_badge_src": null,
        "entry": 4331400,
        "entry_name": "Tanaka the Otter",
        "event_total": 68,
        "has_played": true,
        "id": 32878991,
        "last_rank": 36015,
        "player_name": "Louise Hutchinson",
        "rank": 25154,
        "rank_sort": 25164,
        "total": 2374
      },
      {
        "club_badge_src": "https://fantasy.premierleague.com/gcs/plfpl-production-adobe-approved/plfpl-production/135449/c5a1c430-6307-4f22-973c-da19c4db583a.png",
        "entry": 135449,
        "entry_name": "Pain in Dias",
        "event_total": 55,
        "has_played": true,
        "id": 881994,
        "last_rank": 23110,
        "player_name": "Jordan Smith",
        "rank": 25165,
        "rank_sort": 25165,
        "total": 2374
      },
      {
        "club_badge_src": "https://fantasy.premierleague.com/gcs/plfpl-production-adobe-approved/plfpl-production/335024/6c3fd2de-894b-4b33-b0cd-372e6987471d.png",
        "entry": 335024,
        "entry_name": "@ilmughrabi",
        "event_total": 55,
        "has_played": true,
        "id": 2243317,
        "last_rank": 20065,
        "player_name": "Mahmoud Almughrabi",
        "rank": 25165,
        "rank_sort": 25166,
        "total": 2374
      },
      {
        "club_badge_src": null,
        "entry": 964504,
        "entry_name": "Unique Breed FC",
        "event_total": 60,
        "has_played": true,
        "id": 6647175,
        "last_rank": 27480,
        "player_name": "Ben Brown",
        "rank": 25165,
        "rank_sort": 25167,
        "total": 2374
      },
      {
        "club_badge_src": null,
        "entry": 1008362,
        "entry_name": "MASMA FC",
        "event_total": 70,
        "has_played": true,
        "id": 6971476,
        "last_rank": 33751,
        "player_name": "Vassilis Masmanidis",
        "rank": 25165,
        "rank_sort": 25168,
        "total": 2374
      },
      {
        "club_badge_src": "https://fantasy.premierleague.com/gcs/plfpl-production-adobe-approved/plfpl-production/1485919/90303ccb-1af8-4686-bb0f-ade00a8c2fb1.png",
        "entry": 1485919,
        "entry_name": "Goal Diggers \u26bd",
        "event_total": 68,
        "has_played": true,
        "id": 10362046,
        "last_rank": 27464,
        "player_name": "Karim Seven",
        "rank": 25165,
        "rank_sort": 25169,
        "total": 2374
      },
      {
        "club_badge_src": null,
        "entry": 3044105,
        "entry_name": "Beef Cherki",
        "event_total": 65,
        "has_played": true,
        "id": 22407015,
        "last_rank": 28466,
        "player_name": "F C",
        "rank": 25165,
        "rank_sort": 25170,
        "total": 2374
      },
      {
        "club_badge_src": null,
        "entry": 3205813,
        "entry_name": "p.m.",
        "event_total": 60,
        "has_played": true,
        "id": 23699582,
        "last_rank": 20763,
        "player_name": "Przemys\u0142aw Mazurkiewicz",
        "rank": 25165,
        "rank_sort": 25171,
        "total": 2374
      },
      {
        "club_badge_src": null,
        "entry": 3452400,
        "entry_name": "Fergie\u2019s Hairdryer",
        "event_total": 63,
        "has_played": true,
        "id": 25656549,
        "last_rank": 23089,
        "player_name": "Jamie Merrick",
        "rank": 25165,
        "rank_sort": 25172,
        "total": 2374
      },
      {
        "club_badge_src": null,
        "entry": 3458506,
        "entry_name": "Sk\u00e5ne FC",
        "event_total": 51,
        "has_played": true,
        "id": 25706472,
        "last_rank": 20079,
        "player_name": "Bj\u00f6rn Hylta",
        "rank": 25165,
        "rank_sort": 25173,
        "total": 2374
      },
      {
        "club_badge_src": null,
        "entry": 3500627,
        "entry_name": "Saka Potatoes",
        "event_total": 62,
        "has_played": true,
        "id": 26040502,
        "last_rank": 29419,
        "player_name": "Zoe Mills",
        "rank": 25165,
        "rank_sort": 25174,
        "total": 2374
      },
      {
        "club_badge_src": null,
        "entry": 3825086,
        "entry_name": "25 maj",
        "event_total": 69,
        "has_played": true,
        "id": 28610656,
        "last_rank": 37256,
        "player_name": "Ivan Bogunovi\u0107",
        "rank": 25165,
        "rank_sort": 25175,
        "total": 2374
      },
      {
        "club_badge_src": null,
        "entry": 7491559,
        "entry_name": "Paqueta Rice",
        "event_total": 53,
        "has_played": true,
        "id": 61173693,
        "last_rank": 18602,
        "player_name": "Christian Swan",
        "rank": 25165,
        "rank_sort": 25176,
        "total": 2374
      },
      {
        "club_badge_src": null,
        "entry": 7662051,
        "entry_name": "Whiteys Wanderers",
        "event_total": 60,
        "has_played": true,
        "id": 62826068,
        "last_rank": 27480,
        "player_name": "Clare White",
        "rank": 25165,
        "rank_sort": 25177,
        "total": 2374
      },
      {
        "club_badge_src": "https://fantasy.premierleague.com/gcs/plfpl-production-adobe-approved/plfpl-production/3475572/4c5b85c0-9c8c-4a7d-8060-03ff8bbb3f47.png",
        "entry": 3475572,
        "entry_name": "Sakajawaka",
        "event_total": 38,
        "has_played": true,
        "id": 25841508,
        "last_rank": 12073,
        "player_name": "Olaf Piotrowski",
        "rank": 25178,
        "rank_sort": 25178,
        "total": 2374
      },
      {
        "club_badge_src": null,
        "entry": 3750055,
        "entry_name": "Arne's Boys",
        "event_total": 60,
        "has_played": true,
        "id": 27997296,
        "last_rank": 27514,
        "player_name": "Brian Farrell",
        "rank": 25178,
        "rank_sort": 25179,
        "total": 2374
      },
      {
        "club_badge_src": null,
        "entry": 6945927,
        "entry_name": "NumaZubimendi",
        "event_total": 52,
        "has_played": true,
        "id": 55691786,
        "last_rank": 20782,
        "player_name": "Shinta Suto",
        "rank": 25178,
        "rank_sort": 25180,
        "total": 2374
      },
      {
        "club_badge_src": null,
        "entry": 173632,
        "entry_name": "Kinder Mbuemo",
        "event_total": 41,
        "has_played": true,
        "id": 1146672,
        "last_rank": 11568,
        "player_name": "Ayaan Hussain",
        "rank": 25181,
        "rank_sort": 25181,
        "total": 2374
      },
      {
        "club_badge_src": null,
        "entry": 1149765,
        "entry_name": "the boro beaters",
        "event_total": 64,
        "has_played": true,
        "id": 7971978,
        "last_rank": 31471,
        "player_name": "Luke Hannigan",
        "rank": 25181,
        "rank_sort": 25182,
        "total": 2374
      },
      {
        "club_badge_src": null,
        "entry": 1692830,
        "entry_name": "Harry FC",
        "event_total": 40,
        "has_played": true,
        "id": 11855982,
        "last_rank": 13107,
        "player_name": "J\u00f8rgen Sch\u00f8ning",
        "rank": 25181,
        "rank_sort": 25183,
        "total": 2374
      },
      {
        "club_badge_src": null,
        "entry": 2643280,
        "entry_name": "Tahon FC",
        "event_total": 57,
        "has_played": true,
        "id": 18998387,
        "last_rank": 24787,
        "player_name": "Abdo Tahon",
        "rank": 25181,
        "rank_sort": 25184,
        "total": 2374
      },
      {
        "club_badge_src": null,
        "entry": 3597302,
        "entry_name": "Wagwan My G",
        "event_total": 56,
        "has_played": true,
        "id": 26791681,
        "last_rank": 20790,
        "player_name": "Nihit Mulmi",
        "rank": 25181,
        "rank_sort": 25185,
        "total": 2374
      },
      {
        "club_badge_src": null,
        "entry": 4491132,
        "entry_name": "Mehsanaelona FC",
        "event_total": 70,
        "has_played": true,
        "id": 34233859,
        "last_rank": 29419,
        "player_name": "kushang grover",
        "rank": 25181,
        "rank_sort": 25186,
        "total": 2374
      },
      {
        "club_badge_src": "https://fantasy.premierleague.com/gcs/plfpl-production-adobe-approved/plfpl-production/65162/2a96ef0d-f2e6-4a2e-bfb1-9f45c0b5c94e.png",
        "entry": 65162,
        "entry_name": "Hand Wanderers",
        "event_total": 50,
        "has_played": true,
        "id": 420601,
        "last_rank": 19346,
        "player_name": "Liam Brinkley",
        "rank": 25187,
        "rank_sort": 25187,
        "total": 2374
      },
      {
        "club_badge_src": null,
        "entry": 534277,
        "entry_name": "Los blancos",
        "event_total": 65,
        "has_played": true,
        "id": 3595536,
        "last_rank": 28485,
        "player_name": "Ahmed Musa",
        "rank": 25187,
        "rank_sort": 25188,
        "total": 2374
      },
      {
        "club_badge_src": null,
        "entry": 996444,
        "entry_name": "Himaa",
        "event_total": 73,
        "has_played": true,
        "id": 6880445,
        "last_rank": 42360,
        "player_name": "Ibrahim Mohamed",
        "rank": 25187,
        "rank_sort": 25189,
        "total": 2374
      },
      {
        "club_badge_src": null,
        "entry": 3720454,
        "entry_name": "Team United",
        "event_total": 59,
        "has_played": true,
        "id": 27764759,
        "last_rank": 26590,
        "player_name": "Philip Hodgson",
        "rank": 25187,
        "rank_sort": 25190,
        "total": 2374
      },
      {
        "club_badge_src": null,
        "entry": 5806791,
        "entry_name": "Kinder Mbeumo",
        "event_total": 62,
        "has_played": true,
        "id": 45559129,
        "last_rank": 29451,
        "player_name": "Jack Woodbridge",
        "rank": 25187,
        "rank_sort": 25191,
        "total": 2374
      },
      {
        "club_badge_src": null,
        "entry": 8114960,
        "entry_name": "FC Janner",
        "event_total": 60,
        "has_played": true,
        "id": 66940475,
        "last_rank": 23941,
        "player_name": "Callum Saunders",
        "rank": 25187,
        "rank_sort": 25192,
        "total": 2374
      },
      {
        "club_badge_src": null,
        "entry": 50485,
        "entry_name": "Bowen 747",
        "event_total": 71,
        "has_played": true,
        "id": 324721,
        "last_rank": 30450,
        "player_name": "Nick Soutar",
        "rank": 25193,
        "rank_sort": 25193,
        "total": 2374
      },
      {
        "club_badge_src": null,
        "entry": 3066255,
        "entry_name": "The White Phoenix",
        "event_total": 51,
        "has_played": true,
        "id": 22576589,
        "last_rank": 20095,
        "player_name": "Michael Airey",
        "rank": 25193,
        "rank_sort": 25194,
        "total": 2374
      },
      {
        "club_badge_src": null,
        "entry": 3738460,
        "entry_name": "AFC Todd",
        "event_total": 60,
        "has_played": true,
        "id": 27906230,
        "last_rank": 27528,
        "player_name": "Matt Todd",
        "rank": 25193,
        "rank_sort": 25195,
        "total": 2374
      },
      {
        "club_badge_src": null,
        "entry": 846292,
        "entry_name": "OK\u2026 I\u2019M RELOADED!",
        "event_total": 58,
        "has_played": true,
        "id": 5798571,
        "last_rank": 25680,
        "player_name": "THE GRIME JOURNALIST",
        "rank": 25196,
        "rank_sort": 25196,
        "total": 2374
      },
      {
        "club_badge_src": null,
        "entry": 1975552,
        "entry_name": "Borussia Teeth",
        "event_total": 74,
        "has_played": true,
        "id": 13944773,
        "last_rank": 43706,
        "player_name": "Dylan Lee",
        "rank": 25196,
        "rank_sort": 25197,
        "total": 2374
      },
      {
        "club_badge_src": null,
        "entry": 12929,
        "entry_name": "#saveJLP",
        "event_total": 70,
        "has_played": true,
        "id": 77833,
        "last_rank": 33798,
        "player_name": "Ben S",
        "rank": 25198,
        "rank_sort": 25198,
        "total": 2374
      },
      {
        "club_badge_src": null,
        "entry": 1710889,
        "entry_name": "CunhaFeelTheLove2Nyt",
        "event_total": 66,
        "has_played": true,
        "id": 11987651,
        "last_rank": 25674,
        "player_name": "Gareth Edwards",
        "rank": 25198,
        "rank_sort": 25199,
        "total": 2374
      },
      {
        "club_badge_src": null,
        "entry": 3549871,
        "entry_name": "Mharlhone FC",
        "event_total": 48,
        "has_played": true,
        "id": 26427611,
        "last_rank": 17945,
        "player_name": "Stephen Odoom",
        "rank": 25198,
        "rank_sort": 25200,
        "total": 2374
      }
    ]
  }
}