{
  "last_updated_data": "2026-05-24T23:28:17Z",
  "league": {
    "admin_entry": null,
    "closed": false,
    "code_privacy": "p",
    "created": "2025-07-20T23:14:33.933835Z",
    "cup_league": 2815434,
    "has_cup": true,
    "id": 314,
    "league_type": "s",
    "max_entries": null,
    "name": "Overall",
    "rank": null,
    "scoring": "c",
    "start_event": 1
  },
  "new_entries": {
    "has_next": false,
    "page": 1,
    "results": []
  },
  "standings": {
    "has_next": true,
    "page": 968,
    "results": [
      {
        "club_badge_src": null,
        "entry": 3235959,
        "entry_name": "Lams Legends",
        "event_total": 66,
        "has_played": true,
        "id": 23934250,
        "last_rank": 63724,
        "player_name": "Gerald Lami",
        "rank": 48181,
        "rank_sort": 48351,
        "total": 2353
      },
      {
        "club_badge_src": null,
        "entry": 3269009,
        "entry_name": "Alchodett's Army XIV",
        "event_total": 58,
        "has_played": true,
        "id": 24191456,
        "last_rank": 49880,
        "player_name": "Jack Alhadeff",
        "rank": 48181,
        "rank_sort": 48352,
        "total": 2353
      },
      {
        "club_badge_src": null,
        "entry": 3300390,
        "entry_name": "Terry the Milkman",
        "event_total": 26,
        "has_played": true,
        "id": 24443701,
        "last_rank": 16959,
        "player_name": "Phil Clarke",
        "rank": 48181,
        "rank_sort": 48353,
        "total": 2353
      },
      {
        "club_badge_src": null,
        "entry": 3303798,
        "entry_name": "marta_fc",
        "event_total": 71,
        "has_played": true,
        "id": 24470936,
        "last_rank": 65163,
        "player_name": "Antonio Martinjas",
        "rank": 48181,
        "rank_sort": 48354,
        "total": 2353
      },
      {
        "club_badge_src": null,
        "entry": 3307713,
        "entry_name": "Stranger Ings",
        "event_total": 59,
        "has_played": true,
        "id": 24502362,
        "last_rank": 45252,
        "player_name": "Martin Burke",
        "rank": 48181,
        "rank_sort": 48355,
        "total": 2353
      },
      {
        "club_badge_src": null,
        "entry": 3315363,
        "entry_name": "AFC 25/26",
        "event_total": 73,
        "has_played": true,
        "id": 24565173,
        "last_rank": 68957,
        "player_name": "Aaron Sommers",
        "rank": 48181,
        "rank_sort": 48356,
        "total": 2353
      },
      {
        "club_badge_src": null,
        "entry": 3395805,
        "entry_name": "Borussia Teeth",
        "event_total": 59,
        "has_played": true,
        "id": 25211731,
        "last_rank": 51984,
        "player_name": "Iqra Javed",
        "rank": 48181,
        "rank_sort": 48357,
        "total": 2353
      },
      {
        "club_badge_src": null,
        "entry": 3451134,
        "entry_name": "Hulkamania",
        "event_total": 36,
        "has_played": true,
        "id": 25646567,
        "last_rank": 24475,
        "player_name": "Cole Feasby",
        "rank": 48181,
        "rank_sort": 48358,
        "total": 2353
      },
      {
        "club_badge_src": null,
        "entry": 3466193,
        "entry_name": "Dizzee Raskin",
        "event_total": 62,
        "has_played": true,
        "id": 25767235,
        "last_rank": 56369,
        "player_name": "Allan Martin",
        "rank": 48181,
        "rank_sort": 48359,
        "total": 2353
      },
      {
        "club_badge_src": null,
        "entry": 3501288,
        "entry_name": "Virgil Van Vincent",
        "event_total": 70,
        "has_played": true,
        "id": 26045479,
        "last_rank": 71713,
        "player_name": "David Vincent",
        "rank": 48181,
        "rank_sort": 48360,
        "total": 2353
      },
      {
        "club_badge_src": null,
        "entry": 3524074,
        "entry_name": "3MK",
        "event_total": 54,
        "has_played": true,
        "id": 26226806,
        "last_rank": 44303,
        "player_name": "Yousef Atef",
        "rank": 48181,
        "rank_sort": 48361,
        "total": 2353
      },
      {
        "club_badge_src": null,
        "entry": 3539823,
        "entry_name": "rayanmadrid \u2664",
        "event_total": 70,
        "has_played": true,
        "id": 26348972,
        "last_rank": 70651,
        "player_name": "rayan madrid",
        "rank": 48181,
        "rank_sort": 48362,
        "total": 2353
      },
      {
        "club_badge_src": null,
        "entry": 3628799,
        "entry_name": "man red",
        "event_total": 63,
        "has_played": true,
        "id": 27040506,
        "last_rank": 58071,
        "player_name": "Craig Doran",
        "rank": 48181,
        "rank_sort": 48363,
        "total": 2353
      },
      {
        "club_badge_src": null,
        "entry": 3635789,
        "entry_name": "Change Name",
        "event_total": 59,
        "has_played": true,
        "id": 27094743,
        "last_rank": 51984,
        "player_name": "Owen Grassick",
        "rank": 48181,
        "rank_sort": 48364,
        "total": 2353
      },
      {
        "club_badge_src": null,
        "entry": 3685190,
        "entry_name": "Mingo Stars",
        "event_total": 68,
        "has_played": true,
        "id": 27490498,
        "last_rank": 67422,
        "player_name": "ming man",
        "rank": 48181,
        "rank_sort": 48365,
        "total": 2353
      },
      {
        "club_badge_src": null,
        "entry": 3696615,
        "entry_name": "Wirtz Going On?",
        "event_total": 45,
        "has_played": true,
        "id": 27579073,
        "last_rank": 33147,
        "player_name": "Obed Nokdir",
        "rank": 48181,
        "rank_sort": 48366,
        "total": 2353
      },
      {
        "club_badge_src": null,
        "entry": 3716038,
        "entry_name": "Chippy Chips XI",
        "event_total": 61,
        "has_played": true,
        "id": 27730256,
        "last_rank": 54494,
        "player_name": "Elliott Caddy",
        "rank": 48181,
        "rank_sort": 48367,
        "total": 2353
      },
      {
        "club_badge_src": null,
        "entry": 3735469,
        "entry_name": "abo rateel",
        "event_total": 62,
        "has_played": true,
        "id": 27882897,
        "last_rank": 56708,
        "player_name": "Abdallah Almutiri",
        "rank": 48181,
        "rank_sort": 48368,
        "total": 2353
      },
      {
        "club_badge_src": "https://fantasy.premierleague.com/gcs/plfpl-production-adobe-approved/plfpl-production/3744471/6fa5145d-1df4-4c24-a516-e9db807f0c32.png",
        "entry": 3744471,
        "entry_name": "Our_City_26",
        "event_total": 50,
        "has_played": true,
        "id": 27952670,
        "last_rank": 39023,
        "player_name": "Aws Nabil",
        "rank": 48181,
        "rank_sort": 48369,
        "total": 2353
      },
      {
        "club_badge_src": null,
        "entry": 3755112,
        "entry_name": "MAYOR",
        "event_total": 42,
        "has_played": true,
        "id": 28035880,
        "last_rank": 29904,
        "player_name": "Adil Chagani",
        "rank": 48181,
        "rank_sort": 48370,
        "total": 2353
      },
      {
        "club_badge_src": null,
        "entry": 3762159,
        "entry_name": "BEALE UNITED",
        "event_total": 73,
        "has_played": true,
        "id": 28089912,
        "last_rank": 77050,
        "player_name": "Ashley Beale",
        "rank": 48181,
        "rank_sort": 48371,
        "total": 2353
      },
      {
        "club_badge_src": null,
        "entry": 3798188,
        "entry_name": "Magnus FC",
        "event_total": 64,
        "has_played": true,
        "id": 28391157,
        "last_rank": 59632,
        "player_name": "Magnus Spetalen",
        "rank": 48181,
        "rank_sort": 48372,
        "total": 2353
      },
      {
        "club_badge_src": null,
        "entry": 3807714,
        "entry_name": "00.00%",
        "event_total": 54,
        "has_played": true,
        "id": 28469080,
        "last_rank": 44525,
        "player_name": "abdelhakem abdelnasser",
        "rank": 48181,
        "rank_sort": 48373,
        "total": 2353
      },
      {
        "club_badge_src": null,
        "entry": 3844017,
        "entry_name": "Noni the Wiser",
        "event_total": 52,
        "has_played": true,
        "id": 28807048,
        "last_rank": 41824,
        "player_name": "Sam Horder",
        "rank": 48181,
        "rank_sort": 48374,
        "total": 2353
      },
      {
        "club_badge_src": null,
        "entry": 3864143,
        "entry_name": "Beef Cherki",
        "event_total": 56,
        "has_played": true,
        "id": 28973927,
        "last_rank": 46839,
        "player_name": "Joe Eaton",
        "rank": 48181,
        "rank_sort": 48375,
        "total": 2353
      },
      {
        "club_badge_src": null,
        "entry": 3877286,
        "entry_name": "Antwerp",
        "event_total": 55,
        "has_played": true,
        "id": 29131627,
        "last_rank": 45927,
        "player_name": "Mootje Belkacem",
        "rank": 48181,
        "rank_sort": 48376,
        "total": 2353
      },
      {
        "club_badge_src": null,
        "entry": 3928694,
        "entry_name": "FC PIRATES",
        "event_total": 63,
        "has_played": true,
        "id": 29546516,
        "last_rank": 58388,
        "player_name": "Kristiqn Arsovski",
        "rank": 48181,
        "rank_sort": 48377,
        "total": 2353
      },
      {
        "club_badge_src": null,
        "entry": 3972183,
        "entry_name": "Ben Neto Porro",
        "event_total": 65,
        "has_played": true,
        "id": 29893375,
        "last_rank": 61950,
        "player_name": "Aaron Oro",
        "rank": 48181,
        "rank_sort": 48378,
        "total": 2353
      },
      {
        "club_badge_src": null,
        "entry": 4010957,
        "entry_name": "OGC NYS - JACK PACK",
        "event_total": 63,
        "has_played": true,
        "id": 30221370,
        "last_rank": 58071,
        "player_name": "Romain De Nys",
        "rank": 48181,
        "rank_sort": 48379,
        "total": 2353
      },
      {
        "club_badge_src": null,
        "entry": 4020174,
        "entry_name": "katie x",
        "event_total": 74,
        "has_played": true,
        "id": 30299060,
        "last_rank": 80194,
        "player_name": "Katie Jordan",
        "rank": 48181,
        "rank_sort": 48380,
        "total": 2353
      },
      {
        "club_badge_src": null,
        "entry": 4046499,
        "entry_name": "Looney Tunes F.C",
        "event_total": 59,
        "has_played": true,
        "id": 30520396,
        "last_rank": 51984,
        "player_name": "Allan Lubulellah",
        "rank": 48181,
        "rank_sort": 48381,
        "total": 2353
      },
      {
        "club_badge_src": null,
        "entry": 4086741,
        "entry_name": "cut cemo se",
        "event_total": 62,
        "has_played": true,
        "id": 30854040,
        "last_rank": 56708,
        "player_name": "Alen Kule",
        "rank": 48181,
        "rank_sort": 48382,
        "total": 2353
      },
      {
        "club_badge_src": "https://fantasy.premierleague.com/gcs/plfpl-production-adobe-approved/plfpl-production/4117655/4433078a-9eed-4872-b17d-17f6c9b5bfec.png",
        "entry": 4117655,
        "entry_name": "SKS Red Cafe",
        "event_total": 52,
        "has_played": true,
        "id": 31106648,
        "last_rank": 41324,
        "player_name": "Marek Zygula",
        "rank": 48181,
        "rank_sort": 48383,
        "total": 2353
      },
      {
        "club_badge_src": null,
        "entry": 4172355,
        "entry_name": "Elektroliza",
        "event_total": 68,
        "has_played": true,
        "id": 31556848,
        "last_rank": 59632,
        "player_name": "Marcin Kosakowski",
        "rank": 48181,
        "rank_sort": 48384,
        "total": 2353
      },
      {
        "club_badge_src": "https://fantasy.premierleague.com/gcs/plfpl-production-adobe-approved/plfpl-production/4177159/bde5fcf7-abed-41d8-9271-b54ffe79c945.png",
        "entry": 4177159,
        "entry_name": "Villains FC",
        "event_total": 54,
        "has_played": true,
        "id": 31596930,
        "last_rank": 44303,
        "player_name": "Nicky Poggio",
        "rank": 48181,
        "rank_sort": 48385,
        "total": 2353
      },
      {
        "club_badge_src": null,
        "entry": 4229807,
        "entry_name": "Still above Tom",
        "event_total": 37,
        "has_played": true,
        "id": 32047892,
        "last_rank": 25172,
        "player_name": "Dale Gosling",
        "rank": 48181,
        "rank_sort": 48386,
        "total": 2353
      },
      {
        "club_badge_src": null,
        "entry": 4319064,
        "entry_name": "David Van Halm FC",
        "event_total": 52,
        "has_played": true,
        "id": 32776818,
        "last_rank": 41617,
        "player_name": "Max Premer",
        "rank": 48181,
        "rank_sort": 48387,
        "total": 2353
      },
      {
        "club_badge_src": null,
        "entry": 4354649,
        "entry_name": "Redlife",
        "event_total": 41,
        "has_played": true,
        "id": 33070469,
        "last_rank": 28906,
        "player_name": "Jagdish Kamath",
        "rank": 48181,
        "rank_sort": 48388,
        "total": 2353
      },
      {
        "club_badge_src": null,
        "entry": 4369994,
        "entry_name": "Morris7",
        "event_total": 72,
        "has_played": true,
        "id": 33198999,
        "last_rank": 75537,
        "player_name": "Richard Morris",
        "rank": 48181,
        "rank_sort": 48389,
        "total": 2353
      },
      {
        "club_badge_src": null,
        "entry": 4416126,
        "entry_name": "Kinder Mbuemo",
        "event_total": 59,
        "has_played": true,
        "id": 33597012,
        "last_rank": 45416,
        "player_name": "Sean Kinoulty",
        "rank": 48181,
        "rank_sort": 48390,
        "total": 2353
      },
      {
        "club_badge_src": null,
        "entry": 4470163,
        "entry_name": "King of Fantasy",
        "event_total": 59,
        "has_played": true,
        "id": 34063462,
        "last_rank": 51220,
        "player_name": "King Fantasy",
        "rank": 48181,
        "rank_sort": 48391,
        "total": 2353
      },
      {
        "club_badge_src": null,
        "entry": 4794542,
        "entry_name": "benzemaro",
        "event_total": 62,
        "has_played": true,
        "id": 36912727,
        "last_rank": 56708,
        "player_name": "Maro Maro",
        "rank": 48181,
        "rank_sort": 48392,
        "total": 2353
      },
      {
        "club_badge_src": null,
        "entry": 4801404,
        "entry_name": "EveryJourneyMadders",
        "event_total": 51,
        "has_played": true,
        "id": 36967997,
        "last_rank": 35166,
        "player_name": "Joe Froggett",
        "rank": 48181,
        "rank_sort": 48393,
        "total": 2353
      },
      {
        "club_badge_src": null,
        "entry": 4801573,
        "entry_name": "Comeback United",
        "event_total": 51,
        "has_played": true,
        "id": 36969299,
        "last_rank": 35166,
        "player_name": "Aleksander Larsen",
        "rank": 48181,
        "rank_sort": 48394,
        "total": 2353
      },
      {
        "club_badge_src": null,
        "entry": 4910282,
        "entry_name": "archie1ball",
        "event_total": 82,
        "has_played": true,
        "id": 37867087,
        "last_rank": 98896,
        "player_name": "Archie Berry",
        "rank": 48181,
        "rank_sort": 48395,
        "total": 2353
      },
      {
        "club_badge_src": null,
        "entry": 4943159,
        "entry_name": "Reece Lunsj",
        "event_total": 67,
        "has_played": true,
        "id": 38140480,
        "last_rank": 65475,
        "player_name": "Ferdinand Vanay",
        "rank": 48181,
        "rank_sort": 48396,
        "total": 2353
      },
      {
        "club_badge_src": null,
        "entry": 5020493,
        "entry_name": "Bruno Dos Tres",
        "event_total": 52,
        "has_played": true,
        "id": 38772236,
        "last_rank": 41324,
        "player_name": "Shazer Essar",
        "rank": 48181,
        "rank_sort": 48397,
        "total": 2353
      },
      {
        "club_badge_src": null,
        "entry": 5043662,
        "entry_name": "As the crow flies",
        "event_total": 40,
        "has_played": true,
        "id": 38959724,
        "last_rank": 27770,
        "player_name": "Eoin O'Regan",
        "rank": 48181,
        "rank_sort": 48398,
        "total": 2353
      },
      {
        "club_badge_src": null,
        "entry": 5058366,
        "entry_name": "xXberklasj\u00faklingurXx",
        "event_total": 64,
        "has_played": true,
        "id": 39086153,
        "last_rank": 60168,
        "player_name": "P\u00e9tur J\u00f3nsson",
        "rank": 48181,
        "rank_sort": 48399,
        "total": 2353
      },
      {
        "club_badge_src": null,
        "entry": 5125632,
        "entry_name": "WHU TANG CLAN",
        "event_total": 56,
        "has_played": true,
        "id": 39637145,
        "last_rank": 47163,
        "player_name": "Luke Spurling",
        "rank": 48181,
        "rank_sort": 48400,
        "total": 2353
      }
    ]
  }
}