{
  "last_updated_data": "2026-05-24T23:28:17Z",
  "league": {
    "admin_entry": null,
    "closed": false,
    "code_privacy": "p",
    "created": "2025-07-20T23:14:33.933835Z",
    "cup_league": 2815434,
    "has_cup": true,
    "id": 314,
    "league_type": "s",
    "max_entries": null,
    "name": "Overall",
    "rank": null,
    "scoring": "c",
    "start_event": 1
  },
  "new_entries": {
    "has_next": false,
    "page": 1,
    "results": []
  },
  "standings": {
    "has_next": true,
    "page": 803,
    "results": [
      {
        "club_badge_src": null,
        "entry": 8714,
        "entry_name": "Just Brilliant",
        "event_total": 63,
        "has_played": true,
        "id": 50819,
        "last_rank": 48197,
        "player_name": "Andrew Wilson",
        "rank": 40097,
        "rank_sort": 40101,
        "total": 2359
      },
      {
        "club_badge_src": null,
        "entry": 9351,
        "entry_name": "AJAX TREES DOWN",
        "event_total": 51,
        "has_played": true,
        "id": 54934,
        "last_rank": 28609,
        "player_name": "James Anderson",
        "rank": 40097,
        "rank_sort": 40102,
        "total": 2359
      },
      {
        "club_badge_src": null,
        "entry": 11875,
        "entry_name": "Dempster FC",
        "event_total": 71,
        "has_played": true,
        "id": 70812,
        "last_rank": 61411,
        "player_name": "Lewis Dempster",
        "rank": 40097,
        "rank_sort": 40103,
        "total": 2359
      },
      {
        "club_badge_src": null,
        "entry": 17640,
        "entry_name": "Des Ribs Evan STP",
        "event_total": 48,
        "has_played": true,
        "id": 109480,
        "last_rank": 25902,
        "player_name": "Jonathan Cordova",
        "rank": 40097,
        "rank_sort": 40104,
        "total": 2359
      },
      {
        "club_badge_src": null,
        "entry": 17880,
        "entry_name": "Came to See Eboue",
        "event_total": 58,
        "has_played": true,
        "id": 111057,
        "last_rank": 36200,
        "player_name": "Tom Goodliffe",
        "rank": 40097,
        "rank_sort": 40105,
        "total": 2359
      },
      {
        "club_badge_src": null,
        "entry": 18878,
        "entry_name": "Deeney in a Bottle",
        "event_total": 50,
        "has_played": true,
        "id": 117486,
        "last_rank": 31995,
        "player_name": "Daniel Engley",
        "rank": 40097,
        "rank_sort": 40106,
        "total": 2359
      },
      {
        "club_badge_src": null,
        "entry": 20531,
        "entry_name": "name pending",
        "event_total": 67,
        "has_played": true,
        "id": 128192,
        "last_rank": 55014,
        "player_name": "Liam Sillence",
        "rank": 40097,
        "rank_sort": 40107,
        "total": 2359
      },
      {
        "club_badge_src": null,
        "entry": 32487,
        "entry_name": "Iwobi wan Kenobi Nil",
        "event_total": 67,
        "has_played": true,
        "id": 206698,
        "last_rank": 42434,
        "player_name": "Geordie Wilson",
        "rank": 40097,
        "rank_sort": 40108,
        "total": 2359
      },
      {
        "club_badge_src": "https://fantasy.premierleague.com/gcs/plfpl-production-adobe-approved/plfpl-production/35625/856f3236-a638-4c0e-b131-6e5087ea768e.png",
        "entry": 35625,
        "entry_name": "The Unreliables",
        "event_total": 50,
        "has_played": true,
        "id": 227996,
        "last_rank": 27770,
        "player_name": "Conor Towell",
        "rank": 40097,
        "rank_sort": 40109,
        "total": 2359
      },
      {
        "club_badge_src": null,
        "entry": 41638,
        "entry_name": "Busby Babes",
        "event_total": 58,
        "has_played": true,
        "id": 266787,
        "last_rank": 36348,
        "player_name": "Artur Hinc",
        "rank": 40097,
        "rank_sort": 40110,
        "total": 2359
      },
      {
        "club_badge_src": "https://fantasy.premierleague.com/gcs/plfpl-production-adobe-approved/plfpl-production/48733/2ee56fcd-489b-4938-8147-a2f947d36193.png",
        "entry": 48733,
        "entry_name": "KneeWeakPalmerSweaty",
        "event_total": 59,
        "has_played": true,
        "id": 313080,
        "last_rank": 37589,
        "player_name": "Anthony Lomma",
        "rank": 40097,
        "rank_sort": 40111,
        "total": 2359
      },
      {
        "club_badge_src": null,
        "entry": 49216,
        "entry_name": "San\u00e9 Side Up",
        "event_total": 68,
        "has_played": true,
        "id": 316312,
        "last_rank": 49880,
        "player_name": "Matt Prior",
        "rank": 40097,
        "rank_sort": 40112,
        "total": 2359
      },
      {
        "club_badge_src": "https://fantasy.premierleague.com/gcs/plfpl-production-adobe-approved/plfpl-production/50628/beb44aed-e1c8-46fe-80eb-53098b5f100e.png",
        "entry": 50628,
        "entry_name": "CFC",
        "event_total": 67,
        "has_played": true,
        "id": 325652,
        "last_rank": 54667,
        "player_name": "Stanimir Daskalov",
        "rank": 40097,
        "rank_sort": 40113,
        "total": 2359
      },
      {
        "club_badge_src": "https://fantasy.premierleague.com/gcs/plfpl-production-adobe-approved/plfpl-production/57999/d3010fb1-9017-49ff-8c39-46b7df733233.png",
        "entry": 57999,
        "entry_name": "Mikel Hanaka",
        "event_total": 66,
        "has_played": true,
        "id": 373634,
        "last_rank": 46839,
        "player_name": "Watchara Buttayotee",
        "rank": 40097,
        "rank_sort": 40114,
        "total": 2359
      },
      {
        "club_badge_src": "https://fantasy.premierleague.com/gcs/plfpl-production-adobe-approved/plfpl-production/69119/35472a17-0932-46e0-a7af-c7cd7a282195.png",
        "entry": 69119,
        "entry_name": "HartAttack",
        "event_total": 54,
        "has_played": true,
        "id": 448124,
        "last_rank": 36348,
        "player_name": "John Hartigan",
        "rank": 40097,
        "rank_sort": 40115,
        "total": 2359
      },
      {
        "club_badge_src": null,
        "entry": 70715,
        "entry_name": "One Man Arne",
        "event_total": 61,
        "has_played": true,
        "id": 459227,
        "last_rank": 40036,
        "player_name": "Lewis Sams",
        "rank": 40097,
        "rank_sort": 40116,
        "total": 2359
      },
      {
        "club_badge_src": null,
        "entry": 72615,
        "entry_name": "SosCiuchyBorciuchy",
        "event_total": 57,
        "has_played": true,
        "id": 471869,
        "last_rank": 40297,
        "player_name": "Lenny Dobrzynski",
        "rank": 40097,
        "rank_sort": 40117,
        "total": 2359
      },
      {
        "club_badge_src": null,
        "entry": 74029,
        "entry_name": "La Mondialite",
        "event_total": 57,
        "has_played": true,
        "id": 481253,
        "last_rank": 40297,
        "player_name": "Youssef Aitrimouch",
        "rank": 40097,
        "rank_sort": 40118,
        "total": 2359
      },
      {
        "club_badge_src": null,
        "entry": 75371,
        "entry_name": "Nowt Daft",
        "event_total": 64,
        "has_played": true,
        "id": 489999,
        "last_rank": 44048,
        "player_name": "Alfie Thompson",
        "rank": 40097,
        "rank_sort": 40119,
        "total": 2359
      },
      {
        "club_badge_src": null,
        "entry": 76998,
        "entry_name": "Shnewer",
        "event_total": 61,
        "has_played": true,
        "id": 500492,
        "last_rank": 45927,
        "player_name": "Abdulrahman Shnewer",
        "rank": 40097,
        "rank_sort": 40120,
        "total": 2359
      },
      {
        "club_badge_src": "https://fantasy.premierleague.com/gcs/plfpl-production-adobe-approved/plfpl-production/79603/e500baae-f8bb-4eb4-a400-c6a3af2bb29c.png",
        "entry": 79603,
        "entry_name": "On Milan-choly Hill",
        "event_total": 61,
        "has_played": true,
        "id": 517780,
        "last_rank": 45252,
        "player_name": "Lee Sibbald",
        "rank": 40097,
        "rank_sort": 40121,
        "total": 2359
      },
      {
        "club_badge_src": null,
        "entry": 86376,
        "entry_name": "JoachimAndersen",
        "event_total": 60,
        "has_played": true,
        "id": 562868,
        "last_rank": 44303,
        "player_name": "Joachim Andersen",
        "rank": 40097,
        "rank_sort": 40122,
        "total": 2359
      },
      {
        "club_badge_src": null,
        "entry": 90405,
        "entry_name": "Lisapool FC",
        "event_total": 60,
        "has_played": true,
        "id": 590239,
        "last_rank": 44303,
        "player_name": "Lisa Romeborn",
        "rank": 40097,
        "rank_sort": 40123,
        "total": 2359
      },
      {
        "club_badge_src": "https://fantasy.premierleague.com/gcs/plfpl-production-adobe-approved/plfpl-production/91115/992c0a5c-6cd8-4a0e-b158-04d77e2ea135.png",
        "entry": 91115,
        "entry_name": "AJC Milan",
        "event_total": 69,
        "has_played": true,
        "id": 595033,
        "last_rank": 51220,
        "player_name": "Andy Cooper",
        "rank": 40097,
        "rank_sort": 40124,
        "total": 2359
      },
      {
        "club_badge_src": "https://fantasy.premierleague.com/gcs/plfpl-production-adobe-approved/plfpl-production/95900/e5834011-34a2-4850-9b18-3eecb9b195f4.png",
        "entry": 95900,
        "entry_name": "Veres-Izotop 2",
        "event_total": 57,
        "has_played": true,
        "id": 626521,
        "last_rank": 39874,
        "player_name": "Alex Molt",
        "rank": 40097,
        "rank_sort": 40125,
        "total": 2359
      },
      {
        "club_badge_src": "https://fantasy.premierleague.com/gcs/plfpl-production-adobe-approved/plfpl-production/98332/2b402b84-24a0-41c5-9aa6-2980dc52bb24.png",
        "entry": 98332,
        "entry_name": "Let's Be Frank",
        "event_total": 57,
        "has_played": true,
        "id": 642153,
        "last_rank": 40297,
        "player_name": "Colin Harris",
        "rank": 40097,
        "rank_sort": 40126,
        "total": 2359
      },
      {
        "club_badge_src": null,
        "entry": 99997,
        "entry_name": "bzhar",
        "event_total": 50,
        "has_played": true,
        "id": 652686,
        "last_rank": 31620,
        "player_name": "Bzhar Ebrahim",
        "rank": 40097,
        "rank_sort": 40127,
        "total": 2359
      },
      {
        "club_badge_src": null,
        "entry": 104955,
        "entry_name": "AC MiRollin",
        "event_total": 50,
        "has_played": true,
        "id": 684583,
        "last_rank": 31995,
        "player_name": "Rory Murphy",
        "rank": 40097,
        "rank_sort": 40128,
        "total": 2359
      },
      {
        "club_badge_src": "https://fantasy.premierleague.com/gcs/plfpl-production-adobe-approved/plfpl-production/114722/2f14beef-3a93-45af-9f42-81c54785dbb8.png",
        "entry": 114722,
        "entry_name": "On a roll!",
        "event_total": 67,
        "has_played": true,
        "id": 748426,
        "last_rank": 54494,
        "player_name": "Francis Boyle",
        "rank": 40097,
        "rank_sort": 40129,
        "total": 2359
      },
      {
        "club_badge_src": "https://fantasy.premierleague.com/gcs/plfpl-production-adobe-approved/plfpl-production/122603/a7b90fe0-566c-4d0a-9df5-fb70cc0510a2.png",
        "entry": 122603,
        "entry_name": "Tinfoil Hat FC",
        "event_total": 74,
        "has_played": true,
        "id": 799827,
        "last_rank": 67063,
        "player_name": "Slobodan Stanojevi\u0107",
        "rank": 40097,
        "rank_sort": 40130,
        "total": 2359
      },
      {
        "club_badge_src": null,
        "entry": 124669,
        "entry_name": "Busters",
        "event_total": 48,
        "has_played": true,
        "id": 813154,
        "last_rank": 29904,
        "player_name": "Olawale Mosuro",
        "rank": 40097,
        "rank_sort": 40131,
        "total": 2359
      },
      {
        "club_badge_src": null,
        "entry": 139453,
        "entry_name": "MonMi Utd",
        "event_total": 65,
        "has_played": true,
        "id": 910176,
        "last_rank": 45416,
        "player_name": "DAT TRAN",
        "rank": 40097,
        "rank_sort": 40132,
        "total": 2359
      },
      {
        "club_badge_src": "https://fantasy.premierleague.com/gcs/plfpl-production-adobe-approved/plfpl-production/146134/bf0db6f0-ace8-497f-aa5f-f9ed77866cad.png",
        "entry": 146134,
        "entry_name": "bad boys FC",
        "event_total": 72,
        "has_played": true,
        "id": 957239,
        "last_rank": 56369,
        "player_name": "Matthew Murphy",
        "rank": 40097,
        "rank_sort": 40133,
        "total": 2359
      },
      {
        "club_badge_src": "https://fantasy.premierleague.com/gcs/plfpl-production-adobe-approved/plfpl-production/179081/6164aa07-1cc3-4630-99f0-b3d4f18e6c7a.png",
        "entry": 179081,
        "entry_name": "Juventus Turzyn",
        "event_total": 64,
        "has_played": true,
        "id": 1181769,
        "last_rank": 50199,
        "player_name": "Marcin Czajkiewicz",
        "rank": 40097,
        "rank_sort": 40134,
        "total": 2359
      },
      {
        "club_badge_src": null,
        "entry": 179404,
        "entry_name": "Frimping pong",
        "event_total": 56,
        "has_played": true,
        "id": 1183909,
        "last_rank": 39023,
        "player_name": "Bjarki Valur",
        "rank": 40097,
        "rank_sort": 40135,
        "total": 2359
      },
      {
        "club_badge_src": null,
        "entry": 183044,
        "entry_name": "Rushies Army",
        "event_total": 68,
        "has_played": true,
        "id": 1208046,
        "last_rank": 56708,
        "player_name": "Alfie Rush",
        "rank": 40097,
        "rank_sort": 40136,
        "total": 2359
      },
      {
        "club_badge_src": null,
        "entry": 194648,
        "entry_name": "Huw XI",
        "event_total": 51,
        "has_played": true,
        "id": 1290552,
        "last_rank": 32751,
        "player_name": "Huw George",
        "rank": 40097,
        "rank_sort": 40137,
        "total": 2359
      },
      {
        "club_badge_src": "https://fantasy.premierleague.com/gcs/plfpl-production-adobe-approved/plfpl-production/199457/19586ef4-fb46-49f6-877a-d97ce0bd9541.png",
        "entry": 199457,
        "entry_name": "Beeston Babes",
        "event_total": 59,
        "has_played": true,
        "id": 1323788,
        "last_rank": 42940,
        "player_name": "Mike Hayes",
        "rank": 40097,
        "rank_sort": 40138,
        "total": 2359
      },
      {
        "club_badge_src": null,
        "entry": 217159,
        "entry_name": "The First Men",
        "event_total": 54,
        "has_played": true,
        "id": 1444275,
        "last_rank": 36348,
        "player_name": "Darragh Finneran",
        "rank": 40097,
        "rank_sort": 40139,
        "total": 2359
      },
      {
        "club_badge_src": null,
        "entry": 222928,
        "entry_name": "Chicken Thiaw Mein",
        "event_total": 57,
        "has_played": true,
        "id": 1482875,
        "last_rank": 35166,
        "player_name": "Rikki Gargi",
        "rank": 40097,
        "rank_sort": 40140,
        "total": 2359
      },
      {
        "club_badge_src": null,
        "entry": 223672,
        "entry_name": "Bray W",
        "event_total": 51,
        "has_played": true,
        "id": 1487871,
        "last_rank": 28726,
        "player_name": "Linda Duggan",
        "rank": 40097,
        "rank_sort": 40141,
        "total": 2359
      },
      {
        "club_badge_src": null,
        "entry": 235307,
        "entry_name": "Calafiorication",
        "event_total": 45,
        "has_played": true,
        "id": 1565723,
        "last_rank": 27020,
        "player_name": "Gabriel Durand",
        "rank": 40097,
        "rank_sort": 40142,
        "total": 2359
      },
      {
        "club_badge_src": null,
        "entry": 243047,
        "entry_name": "Bednawreck",
        "event_total": 64,
        "has_played": true,
        "id": 1618450,
        "last_rank": 44048,
        "player_name": "Paco Lau",
        "rank": 40097,
        "rank_sort": 40143,
        "total": 2359
      },
      {
        "club_badge_src": null,
        "entry": 277292,
        "entry_name": "Game of Stones",
        "event_total": 60,
        "has_played": true,
        "id": 1845682,
        "last_rank": 44048,
        "player_name": "Jamie Meaden",
        "rank": 40097,
        "rank_sort": 40144,
        "total": 2359
      },
      {
        "club_badge_src": null,
        "entry": 312979,
        "entry_name": "S\u00f8ppeldynga",
        "event_total": 71,
        "has_played": true,
        "id": 2096954,
        "last_rank": 61315,
        "player_name": "Kristoffer Berg R\u00f8nning",
        "rank": 40097,
        "rank_sort": 40145,
        "total": 2359
      },
      {
        "club_badge_src": null,
        "entry": 314404,
        "entry_name": "Charlatan Athletic",
        "event_total": 60,
        "has_played": true,
        "id": 2106871,
        "last_rank": 44303,
        "player_name": "Christian Armitage",
        "rank": 40097,
        "rank_sort": 40146,
        "total": 2359
      },
      {
        "club_badge_src": "https://fantasy.premierleague.com/gcs/plfpl-production-adobe-approved/plfpl-production/320157/fe80c319-07bf-4c7b-b0bb-1e0c82ed016c.png",
        "entry": 320157,
        "entry_name": "comeback szn v2",
        "event_total": 72,
        "has_played": true,
        "id": 2145911,
        "last_rank": 49572,
        "player_name": "Josh Williams",
        "rank": 40097,
        "rank_sort": 40147,
        "total": 2359
      },
      {
        "club_badge_src": "https://fantasy.premierleague.com/gcs/plfpl-production-adobe-approved/plfpl-production/323607/d6aa1a1c-53ce-4881-85f8-b48aded5dec5.png",
        "entry": 323607,
        "entry_name": "Eeteekiteekee",
        "event_total": 69,
        "has_played": true,
        "id": 2168566,
        "last_rank": 58388,
        "player_name": "Colin Quinn",
        "rank": 40097,
        "rank_sort": 40148,
        "total": 2359
      },
      {
        "club_badge_src": "https://fantasy.premierleague.com/gcs/plfpl-production-adobe-approved/plfpl-production/358042/91745c9b-24cc-4ba1-8eeb-df1928c24159.png",
        "entry": 358042,
        "entry_name": "Todd Litli Boehly FC",
        "event_total": 50,
        "has_played": true,
        "id": 2395999,
        "last_rank": 31995,
        "player_name": "Hrafnkell Gunnarsson",
        "rank": 40097,
        "rank_sort": 40149,
        "total": 2359
      },
      {
        "club_badge_src": "https://fantasy.premierleague.com/gcs/plfpl-production-adobe-approved/plfpl-production/376256/72659563-1eb8-4702-8133-019f80bf72bd.png",
        "entry": 376256,
        "entry_name": "Kinder Mbeumo",
        "event_total": 77,
        "has_played": true,
        "id": 2519742,
        "last_rank": 72815,
        "player_name": "Jason Murugan",
        "rank": 40097,
        "rank_sort": 40150,
        "total": 2359
      }
    ]
  }
}