{
  "last_updated_data": "2026-05-24T23:28:17Z",
  "league": {
    "admin_entry": null,
    "closed": false,
    "code_privacy": "p",
    "created": "2025-07-20T23:14:33.933835Z",
    "cup_league": 2815434,
    "has_cup": true,
    "id": 314,
    "league_type": "s",
    "max_entries": null,
    "name": "Overall",
    "rank": null,
    "scoring": "c",
    "start_event": 1
  },
  "new_entries": {
    "has_next": false,
    "page": 1,
    "results": []
  },
  "standings": {
    "has_next": true,
    "page": 249,
    "results": [
      {
        "club_badge_src": null,
        "entry": 1008636,
        "entry_name": "Dream",
        "event_total": 67,
        "has_played": true,
        "id": 6973404,
        "last_rank": 17718,
        "player_name": "Yidnekachew Aynu",
        "rank": 12371,
        "rank_sort": 12401,
        "total": 2393
      },
      {
        "club_badge_src": null,
        "entry": 1019286,
        "entry_name": "el darawish",
        "event_total": 46,
        "has_played": true,
        "id": 7051856,
        "last_rank": 7450,
        "player_name": "Hamza Darwish",
        "rank": 12371,
        "rank_sort": 12402,
        "total": 2393
      },
      {
        "club_badge_src": null,
        "entry": 1102727,
        "entry_name": "Tosin and Turning",
        "event_total": 67,
        "has_played": true,
        "id": 7638301,
        "last_rank": 17718,
        "player_name": "Damian Sobolewski",
        "rank": 12371,
        "rank_sort": 12403,
        "total": 2393
      },
      {
        "club_badge_src": null,
        "entry": 1107203,
        "entry_name": "sg2026",
        "event_total": 64,
        "has_played": true,
        "id": 7669226,
        "last_rank": 15797,
        "player_name": "Shobhit Gupta",
        "rank": 12371,
        "rank_sort": 12404,
        "total": 2393
      },
      {
        "club_badge_src": null,
        "entry": 1154160,
        "entry_name": "Zakaria FC",
        "event_total": 39,
        "has_played": true,
        "id": 8003280,
        "last_rank": 5560,
        "player_name": "mohamed zakaria",
        "rank": 12371,
        "rank_sort": 12405,
        "total": 2393
      },
      {
        "club_badge_src": null,
        "entry": 1205133,
        "entry_name": "The Space Cowboys",
        "event_total": 52,
        "has_played": true,
        "id": 8363310,
        "last_rank": 9644,
        "player_name": "Craig Johnson",
        "rank": 12371,
        "rank_sort": 12406,
        "total": 2393
      },
      {
        "club_badge_src": null,
        "entry": 1208074,
        "entry_name": "a cuhna mateta",
        "event_total": 66,
        "has_played": true,
        "id": 8383864,
        "last_rank": 16959,
        "player_name": "Owen Robinson",
        "rank": 12371,
        "rank_sort": 12407,
        "total": 2393
      },
      {
        "club_badge_src": "https://fantasy.premierleague.com/gcs/plfpl-production-adobe-approved/plfpl-production/1321605/6a290fc7-27ec-46a3-b0ce-1de7bf778896.png",
        "entry": 1321605,
        "entry_name": "I\u2019m a gooner",
        "event_total": 60,
        "has_played": true,
        "id": 9186478,
        "last_rank": 13401,
        "player_name": "Zak Gilsenan",
        "rank": 12371,
        "rank_sort": 12408,
        "total": 2393
      },
      {
        "club_badge_src": null,
        "entry": 1457380,
        "entry_name": "FPL_to_The_moon",
        "event_total": 59,
        "has_played": true,
        "id": 10155794,
        "last_rank": 10920,
        "player_name": "Suphasin Pintukas",
        "rank": 12371,
        "rank_sort": 12409,
        "total": 2393
      },
      {
        "club_badge_src": null,
        "entry": 1516431,
        "entry_name": "Carrot Tops",
        "event_total": 64,
        "has_played": true,
        "id": 10576752,
        "last_rank": 13401,
        "player_name": "Paul Blythe",
        "rank": 12371,
        "rank_sort": 12410,
        "total": 2393
      },
      {
        "club_badge_src": "https://fantasy.premierleague.com/gcs/plfpl-production-adobe-approved/plfpl-production/1551697/533db888-e896-46a6-a127-6d900d8862d3.png",
        "entry": 1551697,
        "entry_name": "Kinder Mbeumo",
        "event_total": 69,
        "has_played": true,
        "id": 10834094,
        "last_rank": 18985,
        "player_name": "Jacob Marshall",
        "rank": 12371,
        "rank_sort": 12411,
        "total": 2393
      },
      {
        "club_badge_src": "https://fantasy.premierleague.com/gcs/plfpl-production-adobe-approved/plfpl-production/1565531/b799d257-9cd8-402d-84fc-93ffaeacad0a.png",
        "entry": 1565531,
        "entry_name": "NK ZaDomSpremni",
        "event_total": 82,
        "has_played": true,
        "id": 10936307,
        "last_rank": 25902,
        "player_name": "Mario Mandaric",
        "rank": 12371,
        "rank_sort": 12412,
        "total": 2393
      },
      {
        "club_badge_src": null,
        "entry": 1648299,
        "entry_name": "Blue Monsoon",
        "event_total": 53,
        "has_played": true,
        "id": 11538383,
        "last_rank": 10031,
        "player_name": "Mariam Ahmed",
        "rank": 12371,
        "rank_sort": 12413,
        "total": 2393
      },
      {
        "club_badge_src": null,
        "entry": 1890794,
        "entry_name": "Rainbow's Rabble",
        "event_total": 62,
        "has_played": true,
        "id": 13326283,
        "last_rank": 12322,
        "player_name": "Stewart Day",
        "rank": 12371,
        "rank_sort": 12414,
        "total": 2393
      },
      {
        "club_badge_src": null,
        "entry": 2184614,
        "entry_name": "Sausage Rowles",
        "event_total": 57,
        "has_played": true,
        "id": 15540110,
        "last_rank": 9885,
        "player_name": "Simon Rowles",
        "rank": 12371,
        "rank_sort": 12415,
        "total": 2393
      },
      {
        "club_badge_src": "https://fantasy.premierleague.com/gcs/plfpl-production-adobe-approved/plfpl-production/2463260/0bf9903a-5d07-41bc-82c2-93e481ce5198.png",
        "entry": 2463260,
        "entry_name": "Hakuna Elanga",
        "event_total": 76,
        "has_played": true,
        "id": 17619762,
        "last_rank": 18113,
        "player_name": "Ben Weir",
        "rank": 12371,
        "rank_sort": 12416,
        "total": 2393
      },
      {
        "club_badge_src": null,
        "entry": 2497098,
        "entry_name": "Red Devils",
        "event_total": 48,
        "has_played": true,
        "id": 17878193,
        "last_rank": 8198,
        "player_name": "Bartek Gaciarz",
        "rank": 12371,
        "rank_sort": 12417,
        "total": 2393
      },
      {
        "club_badge_src": null,
        "entry": 2626229,
        "entry_name": "ChatVVD",
        "event_total": 62,
        "has_played": true,
        "id": 18871721,
        "last_rank": 12322,
        "player_name": "Thomas Andre Grandalen",
        "rank": 12371,
        "rank_sort": 12418,
        "total": 2393
      },
      {
        "club_badge_src": "https://fantasy.premierleague.com/gcs/plfpl-production-adobe-approved/plfpl-production/2933238/514afce6-b9d3-4eeb-9c30-e805b7ed572e.png",
        "entry": 2933238,
        "entry_name": "Famos's",
        "event_total": 46,
        "has_played": true,
        "id": 21514988,
        "last_rank": 7501,
        "player_name": "Moussa FARHI",
        "rank": 12371,
        "rank_sort": 12419,
        "total": 2393
      },
      {
        "club_badge_src": null,
        "entry": 2972244,
        "entry_name": "Dish FC",
        "event_total": 66,
        "has_played": true,
        "id": 21838829,
        "last_rank": 14496,
        "player_name": "Kris Doherty",
        "rank": 12371,
        "rank_sort": 12420,
        "total": 2393
      },
      {
        "club_badge_src": "https://fantasy.premierleague.com/gcs/plfpl-production-adobe-approved/plfpl-production/3028699/fe9d5005-8b18-414e-b876-08f42215fa05.png",
        "entry": 3028699,
        "entry_name": "Botman Returns",
        "event_total": 62,
        "has_played": true,
        "id": 22285598,
        "last_rank": 12322,
        "player_name": "Colin Turnbull",
        "rank": 12371,
        "rank_sort": 12421,
        "total": 2393
      },
      {
        "club_badge_src": null,
        "entry": 3231542,
        "entry_name": "Harwoods Hackers",
        "event_total": 59,
        "has_played": true,
        "id": 23900040,
        "last_rank": 12940,
        "player_name": "adam harwood",
        "rank": 12371,
        "rank_sort": 12422,
        "total": 2393
      },
      {
        "club_badge_src": null,
        "entry": 3394630,
        "entry_name": "ToEllandStach",
        "event_total": 63,
        "has_played": true,
        "id": 25202638,
        "last_rank": 15226,
        "player_name": "Andrew SIMPSON",
        "rank": 12371,
        "rank_sort": 12423,
        "total": 2393
      },
      {
        "club_badge_src": null,
        "entry": 3412011,
        "entry_name": "Saka Potatoes",
        "event_total": 49,
        "has_played": true,
        "id": 25339739,
        "last_rank": 7141,
        "player_name": "Jamie Day",
        "rank": 12371,
        "rank_sort": 12424,
        "total": 2393
      },
      {
        "club_badge_src": "https://fantasy.premierleague.com/gcs/plfpl-production-adobe-approved/plfpl-production/3474954/92eafca5-b4bf-4dd0-b2ab-f2f1198d1ae5.png",
        "entry": 3474954,
        "entry_name": "Wirtzuel Reality",
        "event_total": 62,
        "has_played": true,
        "id": 25836148,
        "last_rank": 12322,
        "player_name": "H\u00e5kon S\u00f8rlie",
        "rank": 12371,
        "rank_sort": 12425,
        "total": 2393
      },
      {
        "club_badge_src": "https://fantasy.premierleague.com/gcs/plfpl-production-adobe-approved/plfpl-production/3638814/e59c6d81-69cc-4d0e-ac0c-cc7dace43376.png",
        "entry": 3638814,
        "entry_name": "Dream Team",
        "event_total": 41,
        "has_played": true,
        "id": 27118064,
        "last_rank": 5011,
        "player_name": "Mohamed Omar",
        "rank": 12371,
        "rank_sort": 12426,
        "total": 2393
      },
      {
        "club_badge_src": null,
        "entry": 3799196,
        "entry_name": "Swing Low",
        "event_total": 66,
        "has_played": true,
        "id": 28399265,
        "last_rank": 14496,
        "player_name": "Ben Gwilliam",
        "rank": 12371,
        "rank_sort": 12427,
        "total": 2393
      },
      {
        "club_badge_src": null,
        "entry": 3986478,
        "entry_name": "Ball Don't Lie",
        "event_total": 69,
        "has_played": true,
        "id": 30013840,
        "last_rank": 18790,
        "player_name": "Sam Morris",
        "rank": 12371,
        "rank_sort": 12428,
        "total": 2393
      },
      {
        "club_badge_src": null,
        "entry": 4094211,
        "entry_name": "Toby Tyke FC",
        "event_total": 62,
        "has_played": true,
        "id": 30913178,
        "last_rank": 12322,
        "player_name": "Andrew Wilkinson",
        "rank": 12371,
        "rank_sort": 12429,
        "total": 2393
      },
      {
        "club_badge_src": null,
        "entry": 4685076,
        "entry_name": "Donnarummedressing",
        "event_total": 63,
        "has_played": true,
        "id": 35903528,
        "last_rank": 12846,
        "player_name": "Eivind Vand\u00e5s",
        "rank": 12371,
        "rank_sort": 12430,
        "total": 2393
      },
      {
        "club_badge_src": null,
        "entry": 4958228,
        "entry_name": "Wracamy na szczyt",
        "event_total": 60,
        "has_played": true,
        "id": 38261211,
        "last_rank": 13500,
        "player_name": "Jakub Okleja",
        "rank": 12371,
        "rank_sort": 12431,
        "total": 2393
      },
      {
        "club_badge_src": null,
        "entry": 4964326,
        "entry_name": "Fc Hadebra",
        "event_total": 67,
        "has_played": true,
        "id": 38310291,
        "last_rank": 15063,
        "player_name": "Johannes Hadebe",
        "rank": 12371,
        "rank_sort": 12432,
        "total": 2393
      },
      {
        "club_badge_src": null,
        "entry": 5145763,
        "entry_name": "All Reads Aren\u2019t We",
        "event_total": 66,
        "has_played": true,
        "id": 39808181,
        "last_rank": 14496,
        "player_name": "Olly Read",
        "rank": 12371,
        "rank_sort": 12433,
        "total": 2393
      },
      {
        "club_badge_src": null,
        "entry": 5404557,
        "entry_name": "Riverside Rebels",
        "event_total": 60,
        "has_played": true,
        "id": 42024069,
        "last_rank": 13500,
        "player_name": "Paul Sirrell",
        "rank": 12371,
        "rank_sort": 12434,
        "total": 2393
      },
      {
        "club_badge_src": null,
        "entry": 6280979,
        "entry_name": "The Side",
        "event_total": 59,
        "has_played": true,
        "id": 49745354,
        "last_rank": 12846,
        "player_name": "Matt Ferris",
        "rank": 12371,
        "rank_sort": 12435,
        "total": 2393
      },
      {
        "club_badge_src": null,
        "entry": 6679168,
        "entry_name": "Whubbarna",
        "event_total": 68,
        "has_played": true,
        "id": 53425747,
        "last_rank": 15694,
        "player_name": "Albin Iwarson",
        "rank": 12371,
        "rank_sort": 12436,
        "total": 2393
      },
      {
        "club_badge_src": null,
        "entry": 6779258,
        "entry_name": "Le Saux Solid Crew",
        "event_total": 67,
        "has_played": true,
        "id": 54284018,
        "last_rank": 17718,
        "player_name": "Ryan George",
        "rank": 12371,
        "rank_sort": 12437,
        "total": 2393
      },
      {
        "club_badge_src": null,
        "entry": 6814999,
        "entry_name": "\u0645\u0635\u0637\u0641\u0649 \ufffd",
        "event_total": 43,
        "has_played": true,
        "id": 54580093,
        "last_rank": 6528,
        "player_name": "Copa Mous Ski",
        "rank": 12371,
        "rank_sort": 12438,
        "total": 2393
      },
      {
        "club_badge_src": null,
        "entry": 6973018,
        "entry_name": "N.Moh",
        "event_total": 60,
        "has_played": true,
        "id": 55938755,
        "last_rank": 13401,
        "player_name": "N399r Al arimi",
        "rank": 12371,
        "rank_sort": 12439,
        "total": 2393
      },
      {
        "club_badge_src": null,
        "entry": 7225721,
        "entry_name": "HavertzYourWay",
        "event_total": 66,
        "has_played": true,
        "id": 58375622,
        "last_rank": 17078,
        "player_name": "Tiyiselani Makhubela",
        "rank": 12371,
        "rank_sort": 12440,
        "total": 2393
      },
      {
        "club_badge_src": "https://fantasy.premierleague.com/gcs/plfpl-production-adobe-approved/plfpl-production/7321950/8e15882b-3dc1-40f2-bfaf-f622c0e1e70e.png",
        "entry": 7321950,
        "entry_name": "Unchained",
        "event_total": 76,
        "has_played": true,
        "id": 59282182,
        "last_rank": 20888,
        "player_name": "Khalid A",
        "rank": 12371,
        "rank_sort": 12441,
        "total": 2393
      },
      {
        "club_badge_src": null,
        "entry": 7900421,
        "entry_name": "Lyderpool FC",
        "event_total": 51,
        "has_played": true,
        "id": 64991800,
        "last_rank": 7761,
        "player_name": "Lydia Moraitis",
        "rank": 12371,
        "rank_sort": 12442,
        "total": 2393
      },
      {
        "club_badge_src": null,
        "entry": 8480225,
        "entry_name": "Palmer's Crew",
        "event_total": 25,
        "has_played": true,
        "id": 70442184,
        "last_rank": 2907,
        "player_name": "Mo Palmer",
        "rank": 12371,
        "rank_sort": 12443,
        "total": 2393
      },
      {
        "club_badge_src": null,
        "entry": 9042946,
        "entry_name": "\u00c1ron Team",
        "event_total": 54,
        "has_played": true,
        "id": 75896290,
        "last_rank": 10462,
        "player_name": "\u00c1ron Fekete",
        "rank": 12371,
        "rank_sort": 12444,
        "total": 2393
      },
      {
        "club_badge_src": null,
        "entry": 8817,
        "entry_name": "cs.",
        "event_total": 65,
        "has_played": true,
        "id": 51465,
        "last_rank": 16512,
        "player_name": "Chanudom c",
        "rank": 12445,
        "rank_sort": 12445,
        "total": 2393
      },
      {
        "club_badge_src": "https://fantasy.premierleague.com/gcs/plfpl-production-adobe-approved/plfpl-production/13348/442c5bc0-1a79-4728-b3ec-b8cbc5e7deba.png",
        "entry": 13348,
        "entry_name": "DontMentionTheVar",
        "event_total": 56,
        "has_played": true,
        "id": 80573,
        "last_rank": 11482,
        "player_name": "James Monagle",
        "rank": 12445,
        "rank_sort": 12446,
        "total": 2393
      },
      {
        "club_badge_src": null,
        "entry": 13714,
        "entry_name": "Oakley Doakley",
        "event_total": 60,
        "has_played": true,
        "id": 82980,
        "last_rank": 13558,
        "player_name": "Graham Oakley",
        "rank": 12445,
        "rank_sort": 12447,
        "total": 2393
      },
      {
        "club_badge_src": "https://fantasy.premierleague.com/gcs/plfpl-production-adobe-approved/plfpl-production/13876/96cef407-d368-4696-a828-cebb48b440c1.png",
        "entry": 13876,
        "entry_name": "Priceless",
        "event_total": 58,
        "has_played": true,
        "id": 84015,
        "last_rank": 10556,
        "player_name": "Adam Bo\u017ei\u010d",
        "rank": 12445,
        "rank_sort": 12448,
        "total": 2393
      },
      {
        "club_badge_src": "https://fantasy.premierleague.com/gcs/plfpl-production-adobe-approved/plfpl-production/14913/6da7cc67-b3d5-4f64-b31e-f3fe21ad677e.png",
        "entry": 14913,
        "entry_name": "The Best",
        "event_total": 48,
        "has_played": true,
        "id": 91067,
        "last_rank": 6887,
        "player_name": "George Abbott",
        "rank": 12445,
        "rank_sort": 12449,
        "total": 2393
      },
      {
        "club_badge_src": "https://fantasy.premierleague.com/gcs/plfpl-production-adobe-approved/plfpl-production/23461/79fb320e-04a7-4f50-b641-20210fb20621.png",
        "entry": 23461,
        "entry_name": "FC Potstampers",
        "event_total": 56,
        "has_played": true,
        "id": 147760,
        "last_rank": 9711,
        "player_name": "Brecht Geens",
        "rank": 12445,
        "rank_sort": 12450,
        "total": 2393
      }
    ]
  }
}