{
  "last_updated_data": "2026-05-24T23:28:17Z",
  "league": {
    "admin_entry": null,
    "closed": false,
    "code_privacy": "p",
    "created": "2025-07-20T23:14:33.933835Z",
    "cup_league": 2815434,
    "has_cup": true,
    "id": 314,
    "league_type": "s",
    "max_entries": null,
    "name": "Overall",
    "rank": null,
    "scoring": "c",
    "start_event": 1
  },
  "new_entries": {
    "has_next": false,
    "page": 1,
    "results": []
  },
  "standings": {
    "has_next": true,
    "page": 1130,
    "results": [
      {
        "club_badge_src": null,
        "entry": 7671356,
        "entry_name": "Scholes in One",
        "event_total": 70,
        "has_played": true,
        "id": 62913615,
        "last_rank": 81420,
        "player_name": "Stewart Hunt",
        "rank": 56235,
        "rank_sort": 56451,
        "total": 2348
      },
      {
        "club_badge_src": null,
        "entry": 7795667,
        "entry_name": "foan",
        "event_total": 70,
        "has_played": true,
        "id": 64034415,
        "last_rank": 73423,
        "player_name": "Faris Taiger",
        "rank": 56235,
        "rank_sort": 56452,
        "total": 2348
      },
      {
        "club_badge_src": null,
        "entry": 7872116,
        "entry_name": "The White Cafu",
        "event_total": 46,
        "has_played": true,
        "id": 64732900,
        "last_rank": 40647,
        "player_name": "Adam Woodcock",
        "rank": 56235,
        "rank_sort": 56453,
        "total": 2348
      },
      {
        "club_badge_src": null,
        "entry": 7950962,
        "entry_name": "I don't watch EPL",
        "event_total": 67,
        "has_played": true,
        "id": 65448186,
        "last_rank": 67422,
        "player_name": "Jayvir Khera",
        "rank": 56235,
        "rank_sort": 56454,
        "total": 2348
      },
      {
        "club_badge_src": null,
        "entry": 7975865,
        "entry_name": "Howe-ay the Lads",
        "event_total": 64,
        "has_played": true,
        "id": 65670588,
        "last_rank": 69641,
        "player_name": "Stephen McCord",
        "rank": 56235,
        "rank_sort": 56455,
        "total": 2348
      },
      {
        "club_badge_src": null,
        "entry": 8245398,
        "entry_name": "FC Haalandaise sauce",
        "event_total": 70,
        "has_played": true,
        "id": 68179521,
        "last_rank": 73423,
        "player_name": "Kim Klemets",
        "rank": 56235,
        "rank_sort": 56456,
        "total": 2348
      },
      {
        "club_badge_src": null,
        "entry": 8655329,
        "entry_name": "His\u00f8y IL",
        "event_total": 44,
        "has_played": true,
        "id": 72141594,
        "last_rank": 38016,
        "player_name": "Adrian Liltved",
        "rank": 56235,
        "rank_sort": 56457,
        "total": 2348
      },
      {
        "club_badge_src": null,
        "entry": 8773629,
        "entry_name": "Birta Ketilsd\u00f3ttir",
        "event_total": 59,
        "has_played": true,
        "id": 73289789,
        "last_rank": 60462,
        "player_name": "Birta Ketilsd\u00f3ttir",
        "rank": 56235,
        "rank_sort": 56458,
        "total": 2348
      },
      {
        "club_badge_src": null,
        "entry": 8861894,
        "entry_name": "Sons of Ares",
        "event_total": 43,
        "has_played": true,
        "id": 74141913,
        "last_rank": 36624,
        "player_name": "Kevin Byrne",
        "rank": 56235,
        "rank_sort": 56459,
        "total": 2348
      },
      {
        "club_badge_src": null,
        "entry": 9245265,
        "entry_name": "Olaitan",
        "event_total": 73,
        "has_played": true,
        "id": 77876189,
        "last_rank": 89426,
        "player_name": "Oyerinde Ibrahim",
        "rank": 56235,
        "rank_sort": 56460,
        "total": 2348
      },
      {
        "club_badge_src": null,
        "entry": 2028,
        "entry_name": "Wernerham Hogg FC",
        "event_total": 61,
        "has_played": true,
        "id": 11316,
        "last_rank": 56708,
        "player_name": "Joe Robertson",
        "rank": 56461,
        "rank_sort": 56461,
        "total": 2348
      },
      {
        "club_badge_src": "https://fantasy.premierleague.com/gcs/plfpl-production-adobe-approved/plfpl-production/4587/4b2f3ad2-74a4-4d22-9f95-97ece23c0161.png",
        "entry": 4587,
        "entry_name": "ASongOfIceAndSalah",
        "event_total": 59,
        "has_played": true,
        "id": 26084,
        "last_rank": 60671,
        "player_name": "Kyle Gregson",
        "rank": 56461,
        "rank_sort": 56462,
        "total": 2348
      },
      {
        "club_badge_src": null,
        "entry": 6194,
        "entry_name": "ebrahim alshammari",
        "event_total": 65,
        "has_played": true,
        "id": 35488,
        "last_rank": 63724,
        "player_name": "ebrahim alshammari",
        "rank": 56461,
        "rank_sort": 56463,
        "total": 2348
      },
      {
        "club_badge_src": null,
        "entry": 8647,
        "entry_name": "FC GOATS",
        "event_total": 66,
        "has_played": true,
        "id": 50401,
        "last_rank": 73423,
        "player_name": "Konrad W\u0119zka",
        "rank": 56461,
        "rank_sort": 56464,
        "total": 2348
      },
      {
        "club_badge_src": null,
        "entry": 20043,
        "entry_name": "oceans eleven",
        "event_total": 59,
        "has_played": true,
        "id": 124780,
        "last_rank": 53345,
        "player_name": "graeme fletcher",
        "rank": 56461,
        "rank_sort": 56465,
        "total": 2348
      },
      {
        "club_badge_src": null,
        "entry": 20232,
        "entry_name": "Where'sTheLahmSauce?",
        "event_total": 60,
        "has_played": true,
        "id": 126031,
        "last_rank": 55311,
        "player_name": "Gareth Bull",
        "rank": 56461,
        "rank_sort": 56466,
        "total": 2348
      },
      {
        "club_badge_src": null,
        "entry": 28959,
        "entry_name": "Letsgo",
        "event_total": 47,
        "has_played": true,
        "id": 183074,
        "last_rank": 36624,
        "player_name": "Radoslaw Wojtaszek",
        "rank": 56461,
        "rank_sort": 56467,
        "total": 2348
      },
      {
        "club_badge_src": null,
        "entry": 31668,
        "entry_name": "Ward FC",
        "event_total": 57,
        "has_played": true,
        "id": 200909,
        "last_rank": 56369,
        "player_name": "Daniel Ward",
        "rank": 56461,
        "rank_sort": 56468,
        "total": 2348
      },
      {
        "club_badge_src": "https://fantasy.premierleague.com/gcs/plfpl-production-adobe-approved/plfpl-production/49268/4afcf410-287f-42c1-9ce9-c5ddc262d94a.png",
        "entry": 49268,
        "entry_name": "Why So Serious?",
        "event_total": 47,
        "has_played": true,
        "id": 316649,
        "last_rank": 36831,
        "player_name": "The Joker",
        "rank": 56461,
        "rank_sort": 56469,
        "total": 2348
      },
      {
        "club_badge_src": "https://fantasy.premierleague.com/gcs/plfpl-production-adobe-approved/plfpl-production/49982/3c2dbb70-a900-4f69-ba19-682cb2aa7ab3.png",
        "entry": 49982,
        "entry_name": "RCC United",
        "event_total": 77,
        "has_played": true,
        "id": 321359,
        "last_rank": 99596,
        "player_name": "Panuwat Pairote",
        "rank": 56461,
        "rank_sort": 56470,
        "total": 2348
      },
      {
        "club_badge_src": "https://fantasy.premierleague.com/gcs/plfpl-production-adobe-approved/plfpl-production/50379/943388d5-3445-4f5d-8066-d557b98daae1.png",
        "entry": 50379,
        "entry_name": "mohammedH2O",
        "event_total": 65,
        "has_played": true,
        "id": 324049,
        "last_rank": 64005,
        "player_name": "Mohammed AB",
        "rank": 56461,
        "rank_sort": 56471,
        "total": 2348
      },
      {
        "club_badge_src": "https://fantasy.premierleague.com/gcs/plfpl-production-adobe-approved/plfpl-production/65195/b50233e1-dfa9-40b6-a33b-83a9083711bd.png",
        "entry": 65195,
        "entry_name": "Wirtzel Gummidge",
        "event_total": 62,
        "has_played": true,
        "id": 420817,
        "last_rank": 65796,
        "player_name": "Terry McLarney",
        "rank": 56461,
        "rank_sort": 56472,
        "total": 2348
      },
      {
        "club_badge_src": null,
        "entry": 66798,
        "entry_name": "Haaland Oates",
        "event_total": 55,
        "has_played": true,
        "id": 432145,
        "last_rank": 53837,
        "player_name": "Colin McCluskie",
        "rank": 56461,
        "rank_sort": 56473,
        "total": 2348
      },
      {
        "club_badge_src": null,
        "entry": 72811,
        "entry_name": "PALMER IS COMING",
        "event_total": 72,
        "has_played": true,
        "id": 473207,
        "last_rank": 86735,
        "player_name": "Ahmad Resi",
        "rank": 56461,
        "rank_sort": 56474,
        "total": 2348
      },
      {
        "club_badge_src": null,
        "entry": 80830,
        "entry_name": "Pop's Puppets",
        "event_total": 63,
        "has_played": true,
        "id": 525877,
        "last_rank": 67695,
        "player_name": "Dean Pappalardo",
        "rank": 56461,
        "rank_sort": 56475,
        "total": 2348
      },
      {
        "club_badge_src": null,
        "entry": 81229,
        "entry_name": "XG-rated FC",
        "event_total": 68,
        "has_played": true,
        "id": 528451,
        "last_rank": 77999,
        "player_name": "Kristoffer Lennartsson",
        "rank": 56461,
        "rank_sort": 56476,
        "total": 2348
      },
      {
        "club_badge_src": null,
        "entry": 83041,
        "entry_name": "McGinn it to win it",
        "event_total": 67,
        "has_played": true,
        "id": 540414,
        "last_rank": 67695,
        "player_name": "Gary Osborne",
        "rank": 56461,
        "rank_sort": 56477,
        "total": 2348
      },
      {
        "club_badge_src": null,
        "entry": 84695,
        "entry_name": "Jack City",
        "event_total": 51,
        "has_played": true,
        "id": 551464,
        "last_rank": 47417,
        "player_name": "Jack Jones",
        "rank": 56461,
        "rank_sort": 56478,
        "total": 2348
      },
      {
        "club_badge_src": null,
        "entry": 86258,
        "entry_name": "Bring Back Moyes",
        "event_total": 80,
        "has_played": true,
        "id": 562074,
        "last_rank": 107162,
        "player_name": "Matt Higgins",
        "rank": 56461,
        "rank_sort": 56479,
        "total": 2348
      },
      {
        "club_badge_src": null,
        "entry": 104353,
        "entry_name": "Bronze Medalist",
        "event_total": 59,
        "has_played": true,
        "id": 680748,
        "last_rank": 60671,
        "player_name": "Jack Magaldi",
        "rank": 56461,
        "rank_sort": 56480,
        "total": 2348
      },
      {
        "club_badge_src": "https://fantasy.premierleague.com/gcs/plfpl-production-adobe-approved/plfpl-production/113252/23726622-6460-4657-8ee0-9e9de311680f.png",
        "entry": 113252,
        "entry_name": "Pole Calmer FC",
        "event_total": 57,
        "has_played": true,
        "id": 738640,
        "last_rank": 50468,
        "player_name": "Mohamad Mashnouk",
        "rank": 56461,
        "rank_sort": 56481,
        "total": 2348
      },
      {
        "club_badge_src": null,
        "entry": 117401,
        "entry_name": "HistoriaQueTuHiciste",
        "event_total": 52,
        "has_played": true,
        "id": 766322,
        "last_rank": 37822,
        "player_name": "Mohamed Amine Khemiri",
        "rank": 56461,
        "rank_sort": 56482,
        "total": 2348
      },
      {
        "club_badge_src": null,
        "entry": 122118,
        "entry_name": "Red  son of David",
        "event_total": 51,
        "has_played": true,
        "id": 796722,
        "last_rank": 47596,
        "player_name": "Kiat Panawattanakul",
        "rank": 56461,
        "rank_sort": 56483,
        "total": 2348
      },
      {
        "club_badge_src": "https://fantasy.premierleague.com/gcs/plfpl-production-adobe-approved/plfpl-production/123837/5683a628-92f2-4d23-ab31-4722108d1225.png",
        "entry": 123837,
        "entry_name": "It Emre Can",
        "event_total": 44,
        "has_played": true,
        "id": 807699,
        "last_rank": 38163,
        "player_name": "Sam Dring",
        "rank": 56461,
        "rank_sort": 56484,
        "total": 2348
      },
      {
        "club_badge_src": null,
        "entry": 125223,
        "entry_name": "PRO8L3M",
        "event_total": 66,
        "has_played": true,
        "id": 816694,
        "last_rank": 73423,
        "player_name": "Matt Specter",
        "rank": 56461,
        "rank_sort": 56485,
        "total": 2348
      },
      {
        "club_badge_src": "https://fantasy.premierleague.com/gcs/plfpl-production-adobe-approved/plfpl-production/142822/f66ff9e2-e56f-41b5-bf59-e8ad84cb9a97.png",
        "entry": 142822,
        "entry_name": "Visca Madohzzz",
        "event_total": 67,
        "has_played": true,
        "id": 934112,
        "last_rank": 67695,
        "player_name": "Ali Madoh",
        "rank": 56461,
        "rank_sort": 56486,
        "total": 2348
      },
      {
        "club_badge_src": null,
        "entry": 144933,
        "entry_name": "NEMEZIZ UNITED",
        "event_total": 67,
        "has_played": true,
        "id": 948941,
        "last_rank": 67695,
        "player_name": "Kewin Zygmund",
        "rank": 56461,
        "rank_sort": 56487,
        "total": 2348
      },
      {
        "club_badge_src": null,
        "entry": 176905,
        "entry_name": "Aloha F.C.",
        "event_total": 57,
        "has_played": true,
        "id": 1167708,
        "last_rank": 57200,
        "player_name": "Mongkonrat Wijarn",
        "rank": 56461,
        "rank_sort": 56488,
        "total": 2348
      },
      {
        "club_badge_src": null,
        "entry": 199749,
        "entry_name": "Mufasa",
        "event_total": 60,
        "has_played": true,
        "id": 1325770,
        "last_rank": 62429,
        "player_name": "benghomari mustapha --",
        "rank": 56461,
        "rank_sort": 56489,
        "total": 2348
      },
      {
        "club_badge_src": null,
        "entry": 203644,
        "entry_name": "Pathetico Madrid",
        "event_total": 59,
        "has_played": true,
        "id": 1353084,
        "last_rank": 53621,
        "player_name": "Callum Pink",
        "rank": 56461,
        "rank_sort": 56490,
        "total": 2348
      },
      {
        "club_badge_src": null,
        "entry": 208512,
        "entry_name": "Wirtz Nightmare",
        "event_total": 65,
        "has_played": true,
        "id": 1386348,
        "last_rank": 71713,
        "player_name": "Mark Andrews",
        "rank": 56461,
        "rank_sort": 56491,
        "total": 2348
      },
      {
        "club_badge_src": null,
        "entry": 212458,
        "entry_name": "YAAKGINYENTA4",
        "event_total": 72,
        "has_played": true,
        "id": 1413333,
        "last_rank": 77999,
        "player_name": "Phruek Boonyapattanakoon",
        "rank": 56461,
        "rank_sort": 56492,
        "total": 2348
      },
      {
        "club_badge_src": null,
        "entry": 216825,
        "entry_name": "Kamel",
        "event_total": 48,
        "has_played": true,
        "id": 1442125,
        "last_rank": 37822,
        "player_name": "kamel kichou",
        "rank": 56461,
        "rank_sort": 56493,
        "total": 2348
      },
      {
        "club_badge_src": null,
        "entry": 223213,
        "entry_name": "ArneSlotLaLaLaLa",
        "event_total": 59,
        "has_played": true,
        "id": 1484834,
        "last_rank": 60671,
        "player_name": "Vishan Naicker",
        "rank": 56461,
        "rank_sort": 56494,
        "total": 2348
      },
      {
        "club_badge_src": null,
        "entry": 246199,
        "entry_name": "Beef Cherki",
        "event_total": 60,
        "has_played": true,
        "id": 1639087,
        "last_rank": 62429,
        "player_name": "Stephen Murphy",
        "rank": 56461,
        "rank_sort": 56495,
        "total": 2348
      },
      {
        "club_badge_src": "https://fantasy.premierleague.com/gcs/plfpl-production-adobe-approved/plfpl-production/260987/943ae402-148d-4943-aff9-c46185cf3164.png",
        "entry": 260987,
        "entry_name": "Hughes Your Daddy",
        "event_total": 54,
        "has_played": true,
        "id": 1734887,
        "last_rank": 52205,
        "player_name": "James Weldon",
        "rank": 56461,
        "rank_sort": 56496,
        "total": 2348
      },
      {
        "club_badge_src": "https://fantasy.premierleague.com/gcs/plfpl-production-adobe-approved/plfpl-production/270628/a2dbcde8-6561-47ac-aa92-3b4d67515af5.png",
        "entry": 270628,
        "entry_name": "Pleased to Michu",
        "event_total": 57,
        "has_played": true,
        "id": 1800404,
        "last_rank": 44303,
        "player_name": "Petur Hrafn Fridriksson",
        "rank": 56461,
        "rank_sort": 56497,
        "total": 2348
      },
      {
        "club_badge_src": null,
        "entry": 282908,
        "entry_name": "11 out of 15",
        "event_total": 61,
        "has_played": true,
        "id": 1883277,
        "last_rank": 64005,
        "player_name": "Amyn Bhamani",
        "rank": 56461,
        "rank_sort": 56498,
        "total": 2348
      },
      {
        "club_badge_src": "https://fantasy.premierleague.com/gcs/plfpl-production-adobe-approved/plfpl-production/290948/2e4c29c8-18ec-4b43-898f-ea78fd988260.png",
        "entry": 290948,
        "entry_name": "no _one",
        "event_total": 46,
        "has_played": true,
        "id": 1940385,
        "last_rank": 40770,
        "player_name": "Abo-bakr eid",
        "rank": 56461,
        "rank_sort": 56499,
        "total": 2348
      },
      {
        "club_badge_src": "https://fantasy.premierleague.com/gcs/plfpl-production-adobe-approved/plfpl-production/294541/18c4a7d4-38a5-4e7e-818e-60ce526302c2.png",
        "entry": 294541,
        "entry_name": "Cr\u00e8me de la Prem**",
        "event_total": 66,
        "has_played": true,
        "id": 1966714,
        "last_rank": 65475,
        "player_name": "Thomas Barry",
        "rank": 56461,
        "rank_sort": 56500,
        "total": 2348
      }
    ]
  }
}