{
  "last_updated_data": "2026-05-24T23:28:17Z",
  "league": {
    "admin_entry": null,
    "closed": false,
    "code_privacy": "p",
    "created": "2025-07-20T23:14:33.933835Z",
    "cup_league": 2815434,
    "has_cup": true,
    "id": 314,
    "league_type": "s",
    "max_entries": null,
    "name": "Overall",
    "rank": null,
    "scoring": "c",
    "start_event": 1
  },
  "new_entries": {
    "has_next": false,
    "page": 1,
    "results": []
  },
  "standings": {
    "has_next": true,
    "page": 570,
    "results": [
      {
        "club_badge_src": null,
        "entry": 5182399,
        "entry_name": "Farke the Bus",
        "event_total": 64,
        "has_played": true,
        "id": 40114539,
        "last_rank": 35424,
        "player_name": "Henrik Sj\u00f8mo Eriksson",
        "rank": 28336,
        "rank_sort": 28451,
        "total": 2370
      },
      {
        "club_badge_src": null,
        "entry": 5232049,
        "entry_name": "mahmod.45",
        "event_total": 31,
        "has_played": true,
        "id": 40543187,
        "last_rank": 10556,
        "player_name": "mahmod shakr",
        "rank": 28336,
        "rank_sort": 28452,
        "total": 2370
      },
      {
        "club_badge_src": null,
        "entry": 5528194,
        "entry_name": "FC AFTEN",
        "event_total": 56,
        "has_played": true,
        "id": 43117023,
        "last_rank": 23522,
        "player_name": "johan ner",
        "rank": 28336,
        "rank_sort": 28453,
        "total": 2370
      },
      {
        "club_badge_src": null,
        "entry": 5603455,
        "entry_name": "Saka potatoes",
        "event_total": 49,
        "has_played": true,
        "id": 43786400,
        "last_rank": 21159,
        "player_name": "Tony Pallett",
        "rank": 28336,
        "rank_sort": 28454,
        "total": 2370
      },
      {
        "club_badge_src": null,
        "entry": 6152369,
        "entry_name": "Bollenciaga",
        "event_total": 78,
        "has_played": true,
        "id": 48633400,
        "last_rank": 54494,
        "player_name": "Lennert Bolle",
        "rank": 28336,
        "rank_sort": 28455,
        "total": 2370
      },
      {
        "club_badge_src": null,
        "entry": 6322954,
        "entry_name": "W4 FC",
        "event_total": 80,
        "has_played": true,
        "id": 50218783,
        "last_rank": 58911,
        "player_name": "Olawale Lawal",
        "rank": 28336,
        "rank_sort": 28456,
        "total": 2370
      },
      {
        "club_badge_src": null,
        "entry": 6395131,
        "entry_name": "Big Ben",
        "event_total": 59,
        "has_played": true,
        "id": 50876786,
        "last_rank": 26088,
        "player_name": "Ben Smith",
        "rank": 28336,
        "rank_sort": 28457,
        "total": 2370
      },
      {
        "club_badge_src": null,
        "entry": 6503093,
        "entry_name": "Wirtz up",
        "event_total": 81,
        "has_played": true,
        "id": 51849430,
        "last_rank": 60462,
        "player_name": "David Graham",
        "rank": 28336,
        "rank_sort": 28458,
        "total": 2370
      },
      {
        "club_badge_src": null,
        "entry": 6543894,
        "entry_name": "Stranger Mings",
        "event_total": 50,
        "has_played": true,
        "id": 52212955,
        "last_rank": 18790,
        "player_name": "Stephen Shaw",
        "rank": 28336,
        "rank_sort": 28459,
        "total": 2370
      },
      {
        "club_badge_src": null,
        "entry": 6626706,
        "entry_name": "bonjour",
        "event_total": 79,
        "has_played": true,
        "id": 52958178,
        "last_rank": 43786,
        "player_name": "kjbjk jdc",
        "rank": 28336,
        "rank_sort": 28460,
        "total": 2370
      },
      {
        "club_badge_src": "https://fantasy.premierleague.com/gcs/plfpl-production-adobe-approved/plfpl-production/6686120/450462c6-e46f-4f6a-b97a-7c22da31ff75.png",
        "entry": 6686120,
        "entry_name": "MusHRooM FC",
        "event_total": 66,
        "has_played": true,
        "id": 53486048,
        "last_rank": 32879,
        "player_name": "Akram Nasir",
        "rank": 28336,
        "rank_sort": 28461,
        "total": 2370
      },
      {
        "club_badge_src": null,
        "entry": 6775769,
        "entry_name": "Welsh Wanderers",
        "event_total": 62,
        "has_played": true,
        "id": 54254885,
        "last_rank": 28906,
        "player_name": "Andrew Smith",
        "rank": 28336,
        "rank_sort": 28462,
        "total": 2370
      },
      {
        "club_badge_src": "https://fantasy.premierleague.com/gcs/plfpl-production-adobe-approved/plfpl-production/6829802/9df58c0b-6796-4958-8f75-56df39676df9.png",
        "entry": 6829802,
        "entry_name": "Ha\u2019 Cunha Mateta",
        "event_total": 67,
        "has_played": true,
        "id": 54706460,
        "last_rank": 39246,
        "player_name": "Jan Henrik Heggebo",
        "rank": 28336,
        "rank_sort": 28463,
        "total": 2370
      },
      {
        "club_badge_src": null,
        "entry": 7163693,
        "entry_name": "Why Are You Gu\u00e9hi ?!",
        "event_total": 57,
        "has_played": true,
        "id": 57791498,
        "last_rank": 28273,
        "player_name": "Michael Tarek",
        "rank": 28336,
        "rank_sort": 28464,
        "total": 2370
      },
      {
        "club_badge_src": null,
        "entry": 7289716,
        "entry_name": "Lil uzi wirtz",
        "event_total": 46,
        "has_played": true,
        "id": 58980355,
        "last_rank": 19103,
        "player_name": "Joshua Fuwa",
        "rank": 28336,
        "rank_sort": 28465,
        "total": 2370
      },
      {
        "club_badge_src": null,
        "entry": 7374211,
        "entry_name": "O Romero, Romero...",
        "event_total": 43,
        "has_played": true,
        "id": 59773401,
        "last_rank": 16959,
        "player_name": "Dylan Pemberton",
        "rank": 28336,
        "rank_sort": 28466,
        "total": 2370
      },
      {
        "club_badge_src": null,
        "entry": 7483060,
        "entry_name": "Tynebrigadiers",
        "event_total": 60,
        "has_played": true,
        "id": 61062616,
        "last_rank": 27020,
        "player_name": "Michael Gallon",
        "rank": 28336,
        "rank_sort": 28467,
        "total": 2370
      },
      {
        "club_badge_src": "https://fantasy.premierleague.com/gcs/plfpl-production-adobe-approved/plfpl-production/8513008/098b9832-119f-470b-bcd5-9548f8d7cd83.png",
        "entry": 8513008,
        "entry_name": "Change Name",
        "event_total": 48,
        "has_played": true,
        "id": 70763838,
        "last_rank": 20416,
        "player_name": "Oliver Lucas",
        "rank": 28336,
        "rank_sort": 28468,
        "total": 2370
      },
      {
        "club_badge_src": null,
        "entry": 8546745,
        "entry_name": "The Superdogs",
        "event_total": 64,
        "has_played": true,
        "id": 71086971,
        "last_rank": 35619,
        "player_name": "Mark Eardley",
        "rank": 28336,
        "rank_sort": 28469,
        "total": 2370
      },
      {
        "club_badge_src": null,
        "entry": 8642273,
        "entry_name": "QPRosita",
        "event_total": 50,
        "has_played": true,
        "id": 72009410,
        "last_rank": 21775,
        "player_name": "Rosita Gyllensten",
        "rank": 28336,
        "rank_sort": 28470,
        "total": 2370
      },
      {
        "club_badge_src": null,
        "entry": 8878584,
        "entry_name": "Onana,whats my name?",
        "event_total": 70,
        "has_played": true,
        "id": 74301261,
        "last_rank": 43168,
        "player_name": "Ahmad Raza Wahab",
        "rank": 28336,
        "rank_sort": 28471,
        "total": 2370
      },
      {
        "club_badge_src": null,
        "entry": 8970493,
        "entry_name": "Rafael Lmao",
        "event_total": 50,
        "has_played": true,
        "id": 75197222,
        "last_rank": 22064,
        "player_name": "Mar Huba Ana Steven Gerrard",
        "rank": 28336,
        "rank_sort": 28472,
        "total": 2370
      },
      {
        "club_badge_src": null,
        "entry": 9079646,
        "entry_name": "Chesters",
        "event_total": 50,
        "has_played": true,
        "id": 76252479,
        "last_rank": 22064,
        "player_name": "Stephen Hobbs",
        "rank": 28336,
        "rank_sort": 28473,
        "total": 2370
      },
      {
        "club_badge_src": null,
        "entry": 9131323,
        "entry_name": "Zenit St Traleesburg",
        "event_total": 54,
        "has_played": true,
        "id": 76759179,
        "last_rank": 25330,
        "player_name": "Dan O Connor",
        "rank": 28336,
        "rank_sort": 28474,
        "total": 2370
      },
      {
        "club_badge_src": null,
        "entry": 9331264,
        "entry_name": "AC Roman",
        "event_total": 43,
        "has_played": true,
        "id": 78708981,
        "last_rank": 17078,
        "player_name": "Rafal Kwarciak",
        "rank": 28336,
        "rank_sort": 28475,
        "total": 2370
      },
      {
        "club_badge_src": null,
        "entry": 10855,
        "entry_name": "Sometimes Lucky",
        "event_total": 72,
        "has_played": true,
        "id": 64305,
        "last_rank": 40297,
        "player_name": "Alexander Solberg",
        "rank": 28476,
        "rank_sort": 28476,
        "total": 2370
      },
      {
        "club_badge_src": null,
        "entry": 16835,
        "entry_name": "Langers 11",
        "event_total": 74,
        "has_played": true,
        "id": 104197,
        "last_rank": 43168,
        "player_name": "Joe Langthorne",
        "rank": 28476,
        "rank_sort": 28477,
        "total": 2370
      },
      {
        "club_badge_src": null,
        "entry": 41305,
        "entry_name": "Ropebutcher FC",
        "event_total": 69,
        "has_played": true,
        "id": 264661,
        "last_rank": 36831,
        "player_name": "Mickey Touwslager",
        "rank": 28476,
        "rank_sort": 28478,
        "total": 2370
      },
      {
        "club_badge_src": null,
        "entry": 72053,
        "entry_name": "FC Saaloos",
        "event_total": 65,
        "has_played": true,
        "id": 468137,
        "last_rank": 36963,
        "player_name": "R Brown",
        "rank": 28476,
        "rank_sort": 28479,
        "total": 2370
      },
      {
        "club_badge_src": null,
        "entry": 78921,
        "entry_name": "ahmad",
        "event_total": 46,
        "has_played": true,
        "id": 513119,
        "last_rank": 19176,
        "player_name": "ahmad rebwar",
        "rank": 28476,
        "rank_sort": 28480,
        "total": 2370
      },
      {
        "club_badge_src": null,
        "entry": 89509,
        "entry_name": "ThomasTheFrankEngine",
        "event_total": 66,
        "has_played": true,
        "id": 584300,
        "last_rank": 33332,
        "player_name": "Harry Hulse",
        "rank": 28476,
        "rank_sort": 28481,
        "total": 2370
      },
      {
        "club_badge_src": null,
        "entry": 98972,
        "entry_name": "Kinder Mbeumo",
        "event_total": 61,
        "has_played": true,
        "id": 646171,
        "last_rank": 32335,
        "player_name": "Thomas Hall",
        "rank": 28476,
        "rank_sort": 28482,
        "total": 2370
      },
      {
        "club_badge_src": null,
        "entry": 109957,
        "entry_name": "united",
        "event_total": 60,
        "has_played": true,
        "id": 717025,
        "last_rank": 31236,
        "player_name": "Joakim B\u00f8hlerengen",
        "rank": 28476,
        "rank_sort": 28483,
        "total": 2370
      },
      {
        "club_badge_src": null,
        "entry": 113507,
        "entry_name": "Stamford Blade",
        "event_total": 65,
        "has_played": true,
        "id": 740286,
        "last_rank": 36963,
        "player_name": "James Owens",
        "rank": 28476,
        "rank_sort": 28484,
        "total": 2370
      },
      {
        "club_badge_src": null,
        "entry": 131084,
        "entry_name": "Wydadi",
        "event_total": 62,
        "has_played": true,
        "id": 854083,
        "last_rank": 29071,
        "player_name": "Youssef Labzioui --",
        "rank": 28476,
        "rank_sort": 28485,
        "total": 2370
      },
      {
        "club_badge_src": null,
        "entry": 136562,
        "entry_name": "Show me the Munetsi",
        "event_total": 64,
        "has_played": true,
        "id": 889667,
        "last_rank": 35424,
        "player_name": "Charlotte Craddock",
        "rank": 28476,
        "rank_sort": 28486,
        "total": 2370
      },
      {
        "club_badge_src": null,
        "entry": 163829,
        "entry_name": "Yo Wirtz Ben",
        "event_total": 75,
        "has_played": true,
        "id": 1080846,
        "last_rank": 50468,
        "player_name": "Damar Wijaya",
        "rank": 28476,
        "rank_sort": 28487,
        "total": 2370
      },
      {
        "club_badge_src": null,
        "entry": 187233,
        "entry_name": "Sporting Winton",
        "event_total": 72,
        "has_played": true,
        "id": 1237860,
        "last_rank": 40503,
        "player_name": "Sam Behr",
        "rank": 28476,
        "rank_sort": 28488,
        "total": 2370
      },
      {
        "club_badge_src": null,
        "entry": 249710,
        "entry_name": "El Campe\u00f3n 24/25",
        "event_total": 68,
        "has_played": true,
        "id": 1661629,
        "last_rank": 35619,
        "player_name": "Yousef Hammad",
        "rank": 28476,
        "rank_sort": 28489,
        "total": 2370
      },
      {
        "club_badge_src": null,
        "entry": 292678,
        "entry_name": "The Invincibles",
        "event_total": 53,
        "has_played": true,
        "id": 1953109,
        "last_rank": 24636,
        "player_name": "Filip Bonevski",
        "rank": 28476,
        "rank_sort": 28490,
        "total": 2370
      },
      {
        "club_badge_src": "https://fantasy.premierleague.com/gcs/plfpl-production-adobe-approved/plfpl-production/348138/789209f2-0b99-435b-ac15-d7721842395b.png",
        "entry": 348138,
        "entry_name": "Los Colchoneros",
        "event_total": 63,
        "has_played": true,
        "id": 2330223,
        "last_rank": 30060,
        "player_name": "Anthony Cheung",
        "rank": 28476,
        "rank_sort": 28491,
        "total": 2370
      },
      {
        "club_badge_src": null,
        "entry": 353930,
        "entry_name": "Mid table",
        "event_total": 81,
        "has_played": true,
        "id": 2368735,
        "last_rank": 60168,
        "player_name": "Sanchay Juglall",
        "rank": 28476,
        "rank_sort": 28492,
        "total": 2370
      },
      {
        "club_badge_src": null,
        "entry": 360809,
        "entry_name": "kvikkegutt",
        "event_total": 54,
        "has_played": true,
        "id": 2414325,
        "last_rank": 25436,
        "player_name": "Erlend Kleivdal Halvorsen",
        "rank": 28476,
        "rank_sort": 28493,
        "total": 2370
      },
      {
        "club_badge_src": "https://fantasy.premierleague.com/gcs/plfpl-production-adobe-approved/plfpl-production/372500/b83e3ace-1f71-45d4-935d-13db4f8fd2da.png",
        "entry": 372500,
        "entry_name": "False 9ine",
        "event_total": 67,
        "has_played": true,
        "id": 2492347,
        "last_rank": 39403,
        "player_name": "Mo Sesay",
        "rank": 28476,
        "rank_sort": 28494,
        "total": 2370
      },
      {
        "club_badge_src": null,
        "entry": 474567,
        "entry_name": "Pique Blinders",
        "event_total": 71,
        "has_played": true,
        "id": 3185924,
        "last_rank": 39023,
        "player_name": "Tommy Rogerson",
        "rank": 28476,
        "rank_sort": 28495,
        "total": 2370
      },
      {
        "club_badge_src": null,
        "entry": 481204,
        "entry_name": "Nice One Sonny",
        "event_total": 33,
        "has_played": true,
        "id": 3230573,
        "last_rank": 11482,
        "player_name": "marc donaldson",
        "rank": 28476,
        "rank_sort": 28496,
        "total": 2370
      },
      {
        "club_badge_src": null,
        "entry": 529546,
        "entry_name": "Gazza\u2019s greats",
        "event_total": 46,
        "has_played": true,
        "id": 3560941,
        "last_rank": 19176,
        "player_name": "Gary Millard",
        "rank": 28476,
        "rank_sort": 28497,
        "total": 2370
      },
      {
        "club_badge_src": null,
        "entry": 535839,
        "entry_name": "ktbffh",
        "event_total": 63,
        "has_played": true,
        "id": 3606402,
        "last_rank": 34578,
        "player_name": "Elias Alenskog",
        "rank": 28476,
        "rank_sort": 28498,
        "total": 2370
      },
      {
        "club_badge_src": null,
        "entry": 543001,
        "entry_name": "Captain Morgan\u2019s",
        "event_total": 48,
        "has_played": true,
        "id": 3654574,
        "last_rank": 20624,
        "player_name": "Harry Jones",
        "rank": 28476,
        "rank_sort": 28499,
        "total": 2370
      },
      {
        "club_badge_src": "https://fantasy.premierleague.com/gcs/plfpl-production-adobe-approved/plfpl-production/563674/8535792a-bbc2-4258-84a6-f884cb453c30.png",
        "entry": 563674,
        "entry_name": "Davo123",
        "event_total": 53,
        "has_played": true,
        "id": 3794015,
        "last_rank": 24636,
        "player_name": "David Brown",
        "rank": 28476,
        "rank_sort": 28500,
        "total": 2370
      }
    ]
  }
}