{
  "last_updated_data": "2026-05-24T23:28:17Z",
  "league": {
    "admin_entry": null,
    "closed": false,
    "code_privacy": "p",
    "created": "2025-07-20T23:14:33.933835Z",
    "cup_league": 2815434,
    "has_cup": true,
    "id": 314,
    "league_type": "s",
    "max_entries": null,
    "name": "Overall",
    "rank": null,
    "scoring": "c",
    "start_event": 1
  },
  "new_entries": {
    "has_next": false,
    "page": 1,
    "results": []
  },
  "standings": {
    "has_next": true,
    "page": 940,
    "results": [
      {
        "club_badge_src": null,
        "entry": 7991386,
        "entry_name": "Frank FC",
        "event_total": 59,
        "has_played": true,
        "id": 65807067,
        "last_rank": 50199,
        "player_name": "Frank Deluccia",
        "rank": 46727,
        "rank_sort": 46951,
        "total": 2354
      },
      {
        "club_badge_src": null,
        "entry": 8006427,
        "entry_name": "Mighty Moose",
        "event_total": 46,
        "has_played": true,
        "id": 65941527,
        "last_rank": 32879,
        "player_name": "Josh Columbus",
        "rank": 46727,
        "rank_sort": 46952,
        "total": 2354
      },
      {
        "club_badge_src": null,
        "entry": 8373608,
        "entry_name": "Cole and the Gang",
        "event_total": 68,
        "has_played": true,
        "id": 69429204,
        "last_rank": 64943,
        "player_name": "Louis Ramat",
        "rank": 46727,
        "rank_sort": 46953,
        "total": 2354
      },
      {
        "club_badge_src": null,
        "entry": 8381099,
        "entry_name": "ToonStart",
        "event_total": 62,
        "has_played": true,
        "id": 69501582,
        "last_rank": 54667,
        "player_name": "Svein Jonassen",
        "rank": 46727,
        "rank_sort": 46954,
        "total": 2354
      },
      {
        "club_badge_src": null,
        "entry": 8407068,
        "entry_name": "TheBluesAreBack",
        "event_total": 67,
        "has_played": true,
        "id": 69744047,
        "last_rank": 63390,
        "player_name": "Rob Hawkins",
        "rank": 46727,
        "rank_sort": 46955,
        "total": 2354
      },
      {
        "club_badge_src": "https://fantasy.premierleague.com/gcs/plfpl-production-adobe-approved/plfpl-production/8409955/8bc155c6-2a54-4ce6-aa38-3451b53b05d0.png",
        "entry": 8409955,
        "entry_name": "Half the world (a)",
        "event_total": 49,
        "has_played": true,
        "id": 69770934,
        "last_rank": 36831,
        "player_name": "Luke Davies",
        "rank": 46727,
        "rank_sort": 46956,
        "total": 2354
      },
      {
        "club_badge_src": null,
        "entry": 8637125,
        "entry_name": "SE25OriginalsCP",
        "event_total": 72,
        "has_played": true,
        "id": 71958774,
        "last_rank": 73038,
        "player_name": "Timothy Crawforth Moller",
        "rank": 46727,
        "rank_sort": 46957,
        "total": 2354
      },
      {
        "club_badge_src": null,
        "entry": 8770394,
        "entry_name": "Cher Noble",
        "event_total": 58,
        "has_played": true,
        "id": 73258969,
        "last_rank": 48642,
        "player_name": "Sid Sarajevo",
        "rank": 46727,
        "rank_sort": 46958,
        "total": 2354
      },
      {
        "club_badge_src": null,
        "entry": 8778782,
        "entry_name": "Tshabalala Albions",
        "event_total": 49,
        "has_played": true,
        "id": 73339818,
        "last_rank": 36624,
        "player_name": "Fredrik Sandell",
        "rank": 46727,
        "rank_sort": 46959,
        "total": 2354
      },
      {
        "club_badge_src": null,
        "entry": 8802288,
        "entry_name": "sudkhet saledped",
        "event_total": 51,
        "has_played": true,
        "id": 73566937,
        "last_rank": 39023,
        "player_name": "\u0e2a\u0e34\u0e23\u0e27\u0e34\u0e0a\u0e0d\u0e4c \u0e40\u0e08\u0e23\u0e34\u0e0d\u0e40\u0e02\u0e15\u0e15\u0e4c",
        "rank": 46727,
        "rank_sort": 46960,
        "total": 2354
      },
      {
        "club_badge_src": null,
        "entry": 8886923,
        "entry_name": "Mantap",
        "event_total": 57,
        "has_played": true,
        "id": 74381869,
        "last_rank": 41324,
        "player_name": "Yu El",
        "rank": 46727,
        "rank_sort": 46961,
        "total": 2354
      },
      {
        "club_badge_src": "https://fantasy.premierleague.com/gcs/plfpl-production-adobe-approved/plfpl-production/8913955/a800e613-6b0b-4250-a151-378180751e2b.png",
        "entry": 8913955,
        "entry_name": "Pookies",
        "event_total": 70,
        "has_played": true,
        "id": 74644734,
        "last_rank": 69323,
        "player_name": "Gabriela Springer",
        "rank": 46727,
        "rank_sort": 46962,
        "total": 2354
      },
      {
        "club_badge_src": "https://fantasy.premierleague.com/gcs/plfpl-production-adobe-approved/plfpl-production/9109083/25cfb885-e6a4-4311-97a0-0a23e8a9020c.png",
        "entry": 9109083,
        "entry_name": "abdo",
        "event_total": 52,
        "has_played": true,
        "id": 76540389,
        "last_rank": 40297,
        "player_name": "abdo sherif",
        "rank": 46727,
        "rank_sort": 46963,
        "total": 2354
      },
      {
        "club_badge_src": null,
        "entry": 9206635,
        "entry_name": "GtownHotspur",
        "event_total": 45,
        "has_played": true,
        "id": 77500222,
        "last_rank": 31995,
        "player_name": "Marius Grevstad Larsen",
        "rank": 46727,
        "rank_sort": 46964,
        "total": 2354
      },
      {
        "club_badge_src": null,
        "entry": 9314473,
        "entry_name": "Pellottomienheimo",
        "event_total": 44,
        "has_played": true,
        "id": 78548868,
        "last_rank": 30957,
        "player_name": "Jarkko Latvakangas",
        "rank": 46727,
        "rank_sort": 46965,
        "total": 2354
      },
      {
        "club_badge_src": null,
        "entry": 9387293,
        "entry_name": "Suiii",
        "event_total": 61,
        "has_played": true,
        "id": 79251603,
        "last_rank": 53345,
        "player_name": "Nico K",
        "rank": 46727,
        "rank_sort": 46966,
        "total": 2354
      },
      {
        "club_badge_src": null,
        "entry": 619,
        "entry_name": "Bruno Dos Tres",
        "event_total": 62,
        "has_played": true,
        "id": 3416,
        "last_rank": 54667,
        "player_name": "Tom Dickson",
        "rank": 46967,
        "rank_sort": 46967,
        "total": 2354
      },
      {
        "club_badge_src": null,
        "entry": 1143,
        "entry_name": "Wojtfc11",
        "event_total": 59,
        "has_played": true,
        "id": 6350,
        "last_rank": 38774,
        "player_name": "Wojtek Dreluch",
        "rank": 46967,
        "rank_sort": 46968,
        "total": 2354
      },
      {
        "club_badge_src": null,
        "entry": 4056,
        "entry_name": "On Porro'd Time",
        "event_total": 77,
        "has_played": true,
        "id": 23016,
        "last_rank": 75139,
        "player_name": "David Biddiscombe",
        "rank": 46967,
        "rank_sort": 46969,
        "total": 2354
      },
      {
        "club_badge_src": null,
        "entry": 4762,
        "entry_name": "Lallana del rey",
        "event_total": 71,
        "has_played": true,
        "id": 27103,
        "last_rank": 63724,
        "player_name": "Milad Sarbaz",
        "rank": 46967,
        "rank_sort": 46970,
        "total": 2354
      },
      {
        "club_badge_src": null,
        "entry": 10397,
        "entry_name": "kosaGDZ",
        "event_total": 55,
        "has_played": true,
        "id": 61472,
        "last_rank": 44525,
        "player_name": "Marek Kosi\u0144ski",
        "rank": 46967,
        "rank_sort": 46971,
        "total": 2354
      },
      {
        "club_badge_src": null,
        "entry": 11774,
        "entry_name": "WobbieFC",
        "event_total": 67,
        "has_played": true,
        "id": 70137,
        "last_rank": 63724,
        "player_name": "Martin Shanahan",
        "rank": 46967,
        "rank_sort": 46972,
        "total": 2354
      },
      {
        "club_badge_src": null,
        "entry": 13974,
        "entry_name": "Champs",
        "event_total": 65,
        "has_played": true,
        "id": 84652,
        "last_rank": 60168,
        "player_name": "Sagar C",
        "rank": 46967,
        "rank_sort": 46973,
        "total": 2354
      },
      {
        "club_badge_src": null,
        "entry": 15859,
        "entry_name": "Mshadza Brazil",
        "event_total": 61,
        "has_played": true,
        "id": 97656,
        "last_rank": 46839,
        "player_name": "Dan Waspe",
        "rank": 46967,
        "rank_sort": 46974,
        "total": 2354
      },
      {
        "club_badge_src": "https://fantasy.premierleague.com/gcs/plfpl-production-adobe-approved/plfpl-production/17461/4d2f960c-5010-441e-a759-e5c83ed6129c.png",
        "entry": 17461,
        "entry_name": "Pau! RightintheWissa",
        "event_total": 67,
        "has_played": true,
        "id": 108319,
        "last_rank": 63724,
        "player_name": "Trevor Clark",
        "rank": 46967,
        "rank_sort": 46975,
        "total": 2354
      },
      {
        "club_badge_src": null,
        "entry": 19617,
        "entry_name": "Green Mountain Boys",
        "event_total": 61,
        "has_played": true,
        "id": 122040,
        "last_rank": 53023,
        "player_name": "Ben Chioffi",
        "rank": 46967,
        "rank_sort": 46976,
        "total": 2354
      },
      {
        "club_badge_src": null,
        "entry": 24435,
        "entry_name": "Invincibles",
        "event_total": 53,
        "has_played": true,
        "id": 154236,
        "last_rank": 36624,
        "player_name": "Tor Helge Nilsen",
        "rank": 46967,
        "rank_sort": 46977,
        "total": 2354
      },
      {
        "club_badge_src": "https://fantasy.premierleague.com/gcs/plfpl-production-adobe-approved/plfpl-production/24880/79ae980e-b3aa-48b9-b53f-44dd0119de0f.png",
        "entry": 24880,
        "entry_name": "Fake Plastic Tees",
        "event_total": 38,
        "has_played": true,
        "id": 157186,
        "last_rank": 21775,
        "player_name": "Andrew Diamond",
        "rank": 46967,
        "rank_sort": 46978,
        "total": 2354
      },
      {
        "club_badge_src": null,
        "entry": 26032,
        "entry_name": "AFC STARKID",
        "event_total": 66,
        "has_played": true,
        "id": 164609,
        "last_rank": 54667,
        "player_name": "Star Kid",
        "rank": 46967,
        "rank_sort": 46979,
        "total": 2354
      },
      {
        "club_badge_src": null,
        "entry": 26980,
        "entry_name": "Tiki-Tanaka",
        "event_total": 61,
        "has_played": true,
        "id": 170594,
        "last_rank": 53345,
        "player_name": "Ben Reucroft",
        "rank": 46967,
        "rank_sort": 46980,
        "total": 2354
      },
      {
        "club_badge_src": null,
        "entry": 29397,
        "entry_name": "El Mago",
        "event_total": 51,
        "has_played": true,
        "id": 185863,
        "last_rank": 38774,
        "player_name": "Kyle Ta\u00f1ada",
        "rank": 46967,
        "rank_sort": 46981,
        "total": 2354
      },
      {
        "club_badge_src": "https://fantasy.premierleague.com/gcs/plfpl-production-adobe-approved/plfpl-production/30665/8847f1b9-6a62-489c-b399-9958b0cae65e.png",
        "entry": 30665,
        "entry_name": "Football Not Saka",
        "event_total": 53,
        "has_played": true,
        "id": 194071,
        "last_rank": 36624,
        "player_name": "Jarred Wittinger",
        "rank": 46967,
        "rank_sort": 46982,
        "total": 2354
      },
      {
        "club_badge_src": null,
        "entry": 31934,
        "entry_name": "Champions Elect",
        "event_total": 58,
        "has_played": true,
        "id": 202788,
        "last_rank": 48642,
        "player_name": "Matthew McGee",
        "rank": 46967,
        "rank_sort": 46983,
        "total": 2354
      },
      {
        "club_badge_src": null,
        "entry": 33490,
        "entry_name": "Haalands h\u00f8nsehus",
        "event_total": 62,
        "has_played": true,
        "id": 213595,
        "last_rank": 55311,
        "player_name": "Edvard Lia",
        "rank": 46967,
        "rank_sort": 46984,
        "total": 2354
      },
      {
        "club_badge_src": null,
        "entry": 38438,
        "entry_name": "Habo IF",
        "event_total": 52,
        "has_played": true,
        "id": 246330,
        "last_rank": 40503,
        "player_name": "Emil Lilke",
        "rank": 46967,
        "rank_sort": 46985,
        "total": 2354
      },
      {
        "club_badge_src": null,
        "entry": 45158,
        "entry_name": "Drewich Hamlet",
        "event_total": 57,
        "has_played": true,
        "id": 289608,
        "last_rank": 41617,
        "player_name": "Drew Bartle",
        "rank": 46967,
        "rank_sort": 46986,
        "total": 2354
      },
      {
        "club_badge_src": "https://fantasy.premierleague.com/gcs/plfpl-production-adobe-approved/plfpl-production/53015/26e497d2-7a70-4d51-8371-2015c4e58897.png",
        "entry": 53015,
        "entry_name": "FC \u0160PANULIS **",
        "event_total": 65,
        "has_played": true,
        "id": 340956,
        "last_rank": 53345,
        "player_name": "Bojan Travica",
        "rank": 46967,
        "rank_sort": 46987,
        "total": 2354
      },
      {
        "club_badge_src": null,
        "entry": 61803,
        "entry_name": "Arshavin a Laugh",
        "event_total": 54,
        "has_played": true,
        "id": 398163,
        "last_rank": 37589,
        "player_name": "Rowan Townshend",
        "rank": 46967,
        "rank_sort": 46988,
        "total": 2354
      },
      {
        "club_badge_src": "https://fantasy.premierleague.com/gcs/plfpl-production-adobe-approved/plfpl-production/62202/bc9891a0-986f-49c9-89c7-171f5054aa3c.png",
        "entry": 62202,
        "entry_name": "Allegriball",
        "event_total": 49,
        "has_played": true,
        "id": 400836,
        "last_rank": 36831,
        "player_name": "Sergio Lomanenko",
        "rank": 46967,
        "rank_sort": 46989,
        "total": 2354
      },
      {
        "club_badge_src": null,
        "entry": 64466,
        "entry_name": "Hovelsrud United",
        "event_total": 70,
        "has_played": true,
        "id": 416093,
        "last_rank": 69323,
        "player_name": "Morten Hovelsrud",
        "rank": 46967,
        "rank_sort": 46990,
        "total": 2354
      },
      {
        "club_badge_src": null,
        "entry": 78083,
        "entry_name": "Rice Rice Baby",
        "event_total": 57,
        "has_played": true,
        "id": 507660,
        "last_rank": 47163,
        "player_name": "Nejc \u010casar",
        "rank": 46967,
        "rank_sort": 46991,
        "total": 2354
      },
      {
        "club_badge_src": null,
        "entry": 79087,
        "entry_name": "Show me Da Man\u00e9",
        "event_total": 64,
        "has_played": true,
        "id": 514277,
        "last_rank": 58688,
        "player_name": "Jack Gauden",
        "rank": 46967,
        "rank_sort": 46992,
        "total": 2354
      },
      {
        "club_badge_src": null,
        "entry": 82541,
        "entry_name": "Mahmoud",
        "event_total": 56,
        "has_played": true,
        "id": 537121,
        "last_rank": 45416,
        "player_name": "\ud83c\uddee\ud83c\uddf6 \ud83c\uddee\ud83c\uddf6",
        "rank": 46967,
        "rank_sort": 46993,
        "total": 2354
      },
      {
        "club_badge_src": null,
        "entry": 104930,
        "entry_name": "Half The World (a)",
        "event_total": 55,
        "has_played": true,
        "id": 684418,
        "last_rank": 39023,
        "player_name": "Joe Hagen",
        "rank": 46967,
        "rank_sort": 46994,
        "total": 2354
      },
      {
        "club_badge_src": "https://fantasy.premierleague.com/gcs/plfpl-production-adobe-approved/plfpl-production/111510/64d480fe-a1dd-46fa-a9d0-2a48fb204de5.png",
        "entry": 111510,
        "entry_name": "Move Heaven & Earthy",
        "event_total": 64,
        "has_played": true,
        "id": 727105,
        "last_rank": 58688,
        "player_name": "Bill Matthews",
        "rank": 46967,
        "rank_sort": 46995,
        "total": 2354
      },
      {
        "club_badge_src": "https://fantasy.premierleague.com/gcs/plfpl-production-adobe-approved/plfpl-production/114082/b2119a7b-6b07-46a2-a952-b081d2288a56.png",
        "entry": 114082,
        "entry_name": "Peach of a Team",
        "event_total": 68,
        "has_played": true,
        "id": 744131,
        "last_rank": 65475,
        "player_name": "Simon Peach",
        "rank": 46967,
        "rank_sort": 46996,
        "total": 2354
      },
      {
        "club_badge_src": null,
        "entry": 115567,
        "entry_name": "Mal schaun was Wirtz",
        "event_total": 54,
        "has_played": true,
        "id": 754248,
        "last_rank": 37822,
        "player_name": "Jonas Schmidle",
        "rank": 46967,
        "rank_sort": 46997,
        "total": 2354
      },
      {
        "club_badge_src": null,
        "entry": 119479,
        "entry_name": "Rottenham Dogspur",
        "event_total": 64,
        "has_played": true,
        "id": 779560,
        "last_rank": 51720,
        "player_name": "Steve Dyer",
        "rank": 46967,
        "rank_sort": 46998,
        "total": 2354
      },
      {
        "club_badge_src": null,
        "entry": 142696,
        "entry_name": "EssE FC",
        "event_total": 57,
        "has_played": true,
        "id": 933189,
        "last_rank": 47417,
        "player_name": "Nattapong Boonprasong",
        "rank": 46967,
        "rank_sort": 46999,
        "total": 2354
      },
      {
        "club_badge_src": null,
        "entry": 145602,
        "entry_name": "Lavia Majora",
        "event_total": 62,
        "has_played": true,
        "id": 953592,
        "last_rank": 48642,
        "player_name": "Patrick Hardy",
        "rank": 46967,
        "rank_sort": 47000,
        "total": 2354
      }
    ]
  }
}