{
  "last_updated_data": "2026-05-24T23:28:17Z",
  "league": {
    "admin_entry": null,
    "closed": false,
    "code_privacy": "p",
    "created": "2025-07-20T23:14:33.933835Z",
    "cup_league": 2815434,
    "has_cup": true,
    "id": 314,
    "league_type": "s",
    "max_entries": null,
    "name": "Overall",
    "rank": null,
    "scoring": "c",
    "start_event": 1
  },
  "new_entries": {
    "has_next": false,
    "page": 1,
    "results": []
  },
  "standings": {
    "has_next": true,
    "page": 426,
    "results": [
      {
        "club_badge_src": null,
        "entry": 1431381,
        "entry_name": "Cinki Squad",
        "event_total": 74,
        "has_played": true,
        "id": 9973919,
        "last_rank": 28476,
        "player_name": "Marcin Kowalik",
        "rank": 21245,
        "rank_sort": 21251,
        "total": 2379
      },
      {
        "club_badge_src": null,
        "entry": 2985068,
        "entry_name": "hunter can't catchme",
        "event_total": 63,
        "has_played": true,
        "id": 21948961,
        "last_rank": 22337,
        "player_name": "Jonny Gbla",
        "rank": 21245,
        "rank_sort": 21252,
        "total": 2379
      },
      {
        "club_badge_src": null,
        "entry": 4223951,
        "entry_name": "Kelechi Eatin Nachos",
        "event_total": 44,
        "has_played": true,
        "id": 31998558,
        "last_rank": 12579,
        "player_name": "George Parker",
        "rank": 21245,
        "rank_sort": 21253,
        "total": 2379
      },
      {
        "club_badge_src": null,
        "entry": 5199395,
        "entry_name": "A20 Mayuaidit Fc",
        "event_total": 66,
        "has_played": true,
        "id": 40263287,
        "last_rank": 24778,
        "player_name": "Santino Ajak",
        "rank": 21245,
        "rank_sort": 21254,
        "total": 2379
      },
      {
        "club_badge_src": "https://fantasy.premierleague.com/gcs/plfpl-production-adobe-approved/plfpl-production/5309534/bb01d874-5bcb-4666-90ec-9069cf655d96.png",
        "entry": 5309534,
        "entry_name": "LA Lukars",
        "event_total": 88,
        "has_played": true,
        "id": 41157601,
        "last_rank": 57663,
        "player_name": "Akin Oluwaleye",
        "rank": 21245,
        "rank_sort": 21255,
        "total": 2379
      },
      {
        "club_badge_src": null,
        "entry": 61652,
        "entry_name": "CHELSEA4EVER",
        "event_total": 64,
        "has_played": true,
        "id": 397117,
        "last_rank": 23123,
        "player_name": "Petros Nektarios Azas",
        "rank": 21256,
        "rank_sort": 21256,
        "total": 2379
      },
      {
        "club_badge_src": null,
        "entry": 735253,
        "entry_name": "Juve",
        "event_total": 73,
        "has_played": true,
        "id": 4997918,
        "last_rank": 27514,
        "player_name": "John O'Sullivan",
        "rank": 21256,
        "rank_sort": 21257,
        "total": 2379
      },
      {
        "club_badge_src": null,
        "entry": 3147694,
        "entry_name": "\u063a\u0644\u0627\u0628\u0647 \u0648\u0627\u0644\u0644\u0647",
        "event_total": 48,
        "has_played": true,
        "id": 23242226,
        "last_rank": 12579,
        "player_name": "mohamed yehia",
        "rank": 21256,
        "rank_sort": 21258,
        "total": 2379
      },
      {
        "club_badge_src": null,
        "entry": 3849569,
        "entry_name": "Wirtz Case Scenario",
        "event_total": 65,
        "has_played": true,
        "id": 28856333,
        "last_rank": 20790,
        "player_name": "Max Selby",
        "rank": 21256,
        "rank_sort": 21259,
        "total": 2379
      },
      {
        "club_badge_src": null,
        "entry": 1079394,
        "entry_name": "Brandon XI",
        "event_total": 60,
        "has_played": true,
        "id": 7473878,
        "last_rank": 23128,
        "player_name": "Rob Brandon",
        "rank": 21260,
        "rank_sort": 21260,
        "total": 2379
      },
      {
        "club_badge_src": null,
        "entry": 4739211,
        "entry_name": "Sakaboom United",
        "event_total": 57,
        "has_played": true,
        "id": 36464002,
        "last_rank": 17939,
        "player_name": "Gyorgy Szemenov",
        "rank": 21260,
        "rank_sort": 21261,
        "total": 2379
      },
      {
        "club_badge_src": null,
        "entry": 2996437,
        "entry_name": "\u0627\u0644\u0628\u0648\u062f\u064a",
        "event_total": 55,
        "has_played": true,
        "id": 22038876,
        "last_rank": 16663,
        "player_name": "bode abohalima",
        "rank": 21262,
        "rank_sort": 21262,
        "total": 2379
      },
      {
        "club_badge_src": null,
        "entry": 54174,
        "entry_name": "Last again",
        "event_total": 60,
        "has_played": true,
        "id": 348679,
        "last_rank": 17290,
        "player_name": "Steve Lynton",
        "rank": 21263,
        "rank_sort": 21263,
        "total": 2379
      },
      {
        "club_badge_src": null,
        "entry": 5947277,
        "entry_name": "FC Liverpool",
        "event_total": 46,
        "has_played": true,
        "id": 46774661,
        "last_rank": 13692,
        "player_name": "Marek Pl\u017e\u00edk",
        "rank": 21263,
        "rank_sort": 21264,
        "total": 2379
      },
      {
        "club_badge_src": "https://fantasy.premierleague.com/gcs/plfpl-production-adobe-approved/plfpl-production/577097/bd747c67-3fc0-48b2-b299-ae2afb838b99.png",
        "entry": 577097,
        "entry_name": "The Woodpeckers",
        "event_total": 58,
        "has_played": true,
        "id": 3883248,
        "last_rank": 16020,
        "player_name": "Sandro Teghini",
        "rank": 21265,
        "rank_sort": 21265,
        "total": 2379
      },
      {
        "club_badge_src": null,
        "entry": 2686624,
        "entry_name": "PL p\u00e5 A-niveau",
        "event_total": 58,
        "has_played": true,
        "id": 19323470,
        "last_rank": 21586,
        "player_name": "Alex Bjerre Nielsen",
        "rank": 21266,
        "rank_sort": 21266,
        "total": 2378
      },
      {
        "club_badge_src": null,
        "entry": 2162528,
        "entry_name": "Bayern Hangover",
        "event_total": 64,
        "has_played": true,
        "id": 15372948,
        "last_rank": 26607,
        "player_name": "Scott McGregor",
        "rank": 21267,
        "rank_sort": 21267,
        "total": 2378
      },
      {
        "club_badge_src": null,
        "entry": 5165886,
        "entry_name": "Red Flags United",
        "event_total": 48,
        "has_played": true,
        "id": 39978238,
        "last_rank": 14809,
        "player_name": "Troyden Dias",
        "rank": 21268,
        "rank_sort": 21268,
        "total": 2378
      },
      {
        "club_badge_src": null,
        "entry": 8613446,
        "entry_name": "Num Nums",
        "event_total": 62,
        "has_played": true,
        "id": 71727565,
        "last_rank": 24812,
        "player_name": "Kenny Birdmang",
        "rank": 21268,
        "rank_sort": 21269,
        "total": 2378
      },
      {
        "club_badge_src": null,
        "entry": 286978,
        "entry_name": "Mosconi CF",
        "event_total": 71,
        "has_played": true,
        "id": 1912222,
        "last_rank": 33845,
        "player_name": "Marcus Mosconi",
        "rank": 21270,
        "rank_sort": 21270,
        "total": 2378
      },
      {
        "club_badge_src": null,
        "entry": 1738027,
        "entry_name": "Change Name",
        "event_total": 56,
        "has_played": true,
        "id": 12193425,
        "last_rank": 20116,
        "player_name": "Jack Lee",
        "rank": 21270,
        "rank_sort": 21271,
        "total": 2378
      },
      {
        "club_badge_src": "https://fantasy.premierleague.com/gcs/plfpl-production-adobe-approved/plfpl-production/2036954/a008a595-9961-4fa7-bcfd-e03d9d30f110.png",
        "entry": 2036954,
        "entry_name": "Tiken FC",
        "event_total": 70,
        "has_played": true,
        "id": 14423773,
        "last_rank": 32631,
        "player_name": "Didrik Enander",
        "rank": 21270,
        "rank_sort": 21272,
        "total": 2378
      },
      {
        "club_badge_src": "https://fantasy.premierleague.com/gcs/plfpl-production-adobe-approved/plfpl-production/3990461/325144a9-b9a1-4346-868b-9f67635cde2b.png",
        "entry": 3990461,
        "entry_name": "Mannen med svaret",
        "event_total": 67,
        "has_played": true,
        "id": 30047027,
        "last_rank": 29495,
        "player_name": "Christian Schjander-Opsahl",
        "rank": 21270,
        "rank_sort": 21273,
        "total": 2378
      },
      {
        "club_badge_src": null,
        "entry": 4615980,
        "entry_name": "stenhousemanure",
        "event_total": 75,
        "has_played": true,
        "id": 35279048,
        "last_rank": 38523,
        "player_name": "Stuart Williams",
        "rank": 21270,
        "rank_sort": 21274,
        "total": 2378
      },
      {
        "club_badge_src": null,
        "entry": 619452,
        "entry_name": "On Me Edson",
        "event_total": 50,
        "has_played": true,
        "id": 4185950,
        "last_rank": 16029,
        "player_name": "Ryan Singh",
        "rank": 21275,
        "rank_sort": 21275,
        "total": 2378
      },
      {
        "club_badge_src": null,
        "entry": 670117,
        "entry_name": "Samrock Rovers",
        "event_total": 96,
        "has_played": true,
        "id": 4532177,
        "last_rank": 72612,
        "player_name": "Samuel Dwyer",
        "rank": 21275,
        "rank_sort": 21276,
        "total": 2378
      },
      {
        "club_badge_src": null,
        "entry": 725397,
        "entry_name": "him",
        "event_total": 55,
        "has_played": true,
        "id": 4927149,
        "last_rank": 19363,
        "player_name": "jake hale",
        "rank": 21275,
        "rank_sort": 21277,
        "total": 2378
      },
      {
        "club_badge_src": null,
        "entry": 828798,
        "entry_name": "MullahFC786",
        "event_total": 43,
        "has_played": true,
        "id": 5676739,
        "last_rank": 12087,
        "player_name": "Salam Majid",
        "rank": 21275,
        "rank_sort": 21278,
        "total": 2378
      },
      {
        "club_badge_src": null,
        "entry": 1248235,
        "entry_name": "Babalawo FC",
        "event_total": 57,
        "has_played": true,
        "id": 8669066,
        "last_rank": 20814,
        "player_name": "Ugochukwu Anyanwu",
        "rank": 21275,
        "rank_sort": 21279,
        "total": 2378
      },
      {
        "club_badge_src": null,
        "entry": 1754315,
        "entry_name": "North Correa",
        "event_total": 76,
        "has_played": true,
        "id": 12315838,
        "last_rank": 39784,
        "player_name": "Hussain Al Bahrani",
        "rank": 21275,
        "rank_sort": 21280,
        "total": 2378
      },
      {
        "club_badge_src": null,
        "entry": 3083707,
        "entry_name": "Poo Men",
        "event_total": 57,
        "has_played": true,
        "id": 22719124,
        "last_rank": 20814,
        "player_name": "Leigh Pay",
        "rank": 21275,
        "rank_sort": 21281,
        "total": 2378
      },
      {
        "club_badge_src": null,
        "entry": 4699656,
        "entry_name": "Zim_U21_Select",
        "event_total": 71,
        "has_played": true,
        "id": 36027636,
        "last_rank": 33819,
        "player_name": "Andreas Efthymiou",
        "rank": 21275,
        "rank_sort": 21282,
        "total": 2378
      },
      {
        "club_badge_src": "https://fantasy.premierleague.com/gcs/plfpl-production-adobe-approved/plfpl-production/6091419/d7be92f8-028b-48c4-a8de-7687548e75e4.png",
        "entry": 6091419,
        "entry_name": "Born in the Gy\u00f6keres",
        "event_total": 57,
        "has_played": true,
        "id": 48102463,
        "last_rank": 17956,
        "player_name": "Mat Da Prato",
        "rank": 21275,
        "rank_sort": 21283,
        "total": 2378
      },
      {
        "club_badge_src": null,
        "entry": 6692480,
        "entry_name": "Inter Row Z",
        "event_total": 61,
        "has_played": true,
        "id": 53542560,
        "last_rank": 23990,
        "player_name": "Micah Hart",
        "rank": 21275,
        "rank_sort": 21284,
        "total": 2378
      },
      {
        "club_badge_src": null,
        "entry": 7692761,
        "entry_name": "Blue Army",
        "event_total": 59,
        "has_played": true,
        "id": 63106417,
        "last_rank": 22365,
        "player_name": "Jeanette McGarry",
        "rank": 21275,
        "rank_sort": 21285,
        "total": 2378
      },
      {
        "club_badge_src": null,
        "entry": 8383940,
        "entry_name": "Fk Matejca",
        "event_total": 56,
        "has_played": true,
        "id": 69528510,
        "last_rank": 20147,
        "player_name": "Mateja Dodic",
        "rank": 21275,
        "rank_sort": 21286,
        "total": 2378
      },
      {
        "club_badge_src": null,
        "entry": 8808879,
        "entry_name": "bhola gang",
        "event_total": 69,
        "has_played": true,
        "id": 73630675,
        "last_rank": 27557,
        "player_name": "Sarthak Dahal",
        "rank": 21275,
        "rank_sort": 21287,
        "total": 2378
      },
      {
        "club_badge_src": null,
        "entry": 9044477,
        "entry_name": "Sir Racha",
        "event_total": 56,
        "has_played": true,
        "id": 75911138,
        "last_rank": 20147,
        "player_name": "Tom Magee",
        "rank": 21275,
        "rank_sort": 21288,
        "total": 2378
      },
      {
        "club_badge_src": null,
        "entry": 62801,
        "entry_name": "Havana Onana",
        "event_total": 50,
        "has_played": true,
        "id": 404983,
        "last_rank": 16062,
        "player_name": "Jesper Eriksson",
        "rank": 21289,
        "rank_sort": 21289,
        "total": 2378
      },
      {
        "club_badge_src": "https://fantasy.premierleague.com/gcs/plfpl-production-adobe-approved/plfpl-production/88748/3e0b6d8c-4aef-420e-a754-e0c248769906.png",
        "entry": 88748,
        "entry_name": "Cunha Get A Hooyah",
        "event_total": 47,
        "has_played": true,
        "id": 579215,
        "last_rank": 14292,
        "player_name": "Gabe DODANWELA",
        "rank": 21289,
        "rank_sort": 21290,
        "total": 2378
      },
      {
        "club_badge_src": null,
        "entry": 525588,
        "entry_name": "ParmoNoCheese",
        "event_total": 57,
        "has_played": true,
        "id": 3532451,
        "last_rank": 20888,
        "player_name": "Lloyd Conway",
        "rank": 21289,
        "rank_sort": 21291,
        "total": 2378
      },
      {
        "club_badge_src": null,
        "entry": 876875,
        "entry_name": "Change Name",
        "event_total": 75,
        "has_played": true,
        "id": 6011836,
        "last_rank": 38523,
        "player_name": "Josh Deaves",
        "rank": 21289,
        "rank_sort": 21292,
        "total": 2378
      },
      {
        "club_badge_src": "https://fantasy.premierleague.com/gcs/plfpl-production-adobe-approved/plfpl-production/900003/bb2a18b7-60cf-492b-9558-0c4efd40b54e.png",
        "entry": 900003,
        "entry_name": "Armonds Annihilators",
        "event_total": 37,
        "has_played": true,
        "id": 6183859,
        "last_rank": 9459,
        "player_name": "Richard Armond",
        "rank": 21289,
        "rank_sort": 21293,
        "total": 2378
      },
      {
        "club_badge_src": null,
        "entry": 958653,
        "entry_name": "YNWA",
        "event_total": 44,
        "has_played": true,
        "id": 6605855,
        "last_rank": 12608,
        "player_name": "Tim Stone",
        "rank": 21289,
        "rank_sort": 21294,
        "total": 2378
      },
      {
        "club_badge_src": null,
        "entry": 1151295,
        "entry_name": "Rutter Woke Nonsense",
        "event_total": 44,
        "has_played": true,
        "id": 7982673,
        "last_rank": 12599,
        "player_name": "Jamie Thomas",
        "rank": 21289,
        "rank_sort": 21295,
        "total": 2378
      },
      {
        "club_badge_src": null,
        "entry": 1413287,
        "entry_name": "Kathigitis",
        "event_total": 67,
        "has_played": true,
        "id": 9835223,
        "last_rank": 29522,
        "player_name": "CHRISTOFOROS MINA",
        "rank": 21289,
        "rank_sort": 21296,
        "total": 2378
      },
      {
        "club_badge_src": null,
        "entry": 1466211,
        "entry_name": "Pride of Pidge",
        "event_total": 61,
        "has_played": true,
        "id": 10220123,
        "last_rank": 23990,
        "player_name": "Andrew Pidgeon",
        "rank": 21289,
        "rank_sort": 21297,
        "total": 2378
      },
      {
        "club_badge_src": null,
        "entry": 2192508,
        "entry_name": "\u0634\u062e\u0628\u0637\u0629",
        "event_total": 59,
        "has_played": true,
        "id": 15599130,
        "last_rank": 22426,
        "player_name": "Youssef Ali",
        "rank": 21289,
        "rank_sort": 21298,
        "total": 2378
      },
      {
        "club_badge_src": null,
        "entry": 2521086,
        "entry_name": "Nomira.voyage",
        "event_total": 81,
        "has_played": true,
        "id": 18064008,
        "last_rank": 46521,
        "player_name": "arous mohamed",
        "rank": 21289,
        "rank_sort": 21299,
        "total": 2378
      },
      {
        "club_badge_src": null,
        "entry": 3628048,
        "entry_name": "team tiril",
        "event_total": 45,
        "has_played": true,
        "id": 27034625,
        "last_rank": 13132,
        "player_name": "Tiril Liland",
        "rank": 21289,
        "rank_sort": 21300,
        "total": 2378
      }
    ]
  }
}