{
  "last_updated_data": "2026-05-24T23:28:17Z",
  "league": {
    "admin_entry": null,
    "closed": false,
    "code_privacy": "p",
    "created": "2025-07-20T23:14:33.933835Z",
    "cup_league": 2815434,
    "has_cup": true,
    "id": 314,
    "league_type": "s",
    "max_entries": null,
    "name": "Overall",
    "rank": null,
    "scoring": "c",
    "start_event": 1
  },
  "new_entries": {
    "has_next": false,
    "page": 1,
    "results": []
  },
  "standings": {
    "has_next": true,
    "page": 872,
    "results": [
      {
        "club_badge_src": null,
        "entry": 4132051,
        "entry_name": "Camgrow",
        "event_total": 74,
        "has_played": true,
        "id": 31225318,
        "last_rank": 72622,
        "player_name": "Marco Peluso",
        "rank": 43541,
        "rank_sort": 43551,
        "total": 2356
      },
      {
        "club_badge_src": null,
        "entry": 4703666,
        "entry_name": "Reddevils11",
        "event_total": 77,
        "has_played": true,
        "id": 36060596,
        "last_rank": 78997,
        "player_name": "Ben Spillane",
        "rank": 43541,
        "rank_sort": 43552,
        "total": 2356
      },
      {
        "club_badge_src": null,
        "entry": 5498089,
        "entry_name": "T Ballers",
        "event_total": 60,
        "has_played": true,
        "id": 42836721,
        "last_rank": 48084,
        "player_name": "Tamsin Ivory",
        "rank": 43541,
        "rank_sort": 43553,
        "total": 2356
      },
      {
        "club_badge_src": null,
        "entry": 80986,
        "entry_name": "Gibbys Xi",
        "event_total": 56,
        "has_played": true,
        "id": 526906,
        "last_rank": 42434,
        "player_name": "Alexander Gibson",
        "rank": 43554,
        "rank_sort": 43554,
        "total": 2356
      },
      {
        "club_badge_src": null,
        "entry": 88183,
        "entry_name": "Kolobola / Again !!",
        "event_total": 80,
        "has_played": true,
        "id": 575350,
        "last_rank": 85836,
        "player_name": "Karl Tazbaz",
        "rank": 43554,
        "rank_sort": 43555,
        "total": 2356
      },
      {
        "club_badge_src": null,
        "entry": 124820,
        "entry_name": "Aarons Army",
        "event_total": 82,
        "has_played": true,
        "id": 814099,
        "last_rank": 90524,
        "player_name": "Aaron Mulhall",
        "rank": 43554,
        "rank_sort": 43556,
        "total": 2356
      },
      {
        "club_badge_src": null,
        "entry": 516595,
        "entry_name": "Tikka Maresca",
        "event_total": 66,
        "has_played": true,
        "id": 3468266,
        "last_rank": 57723,
        "player_name": "Nick Golding",
        "rank": 43554,
        "rank_sort": 43557,
        "total": 2356
      },
      {
        "club_badge_src": null,
        "entry": 535483,
        "entry_name": "Kinder Mbeumo",
        "event_total": 54,
        "has_played": true,
        "id": 3604071,
        "last_rank": 39784,
        "player_name": "Leon James",
        "rank": 43554,
        "rank_sort": 43558,
        "total": 2356
      },
      {
        "club_badge_src": null,
        "entry": 672714,
        "entry_name": "Ajo_Jajo_Pajo",
        "event_total": 37,
        "has_played": true,
        "id": 4550412,
        "last_rank": 22391,
        "player_name": "Andrej Radosovsky",
        "rank": 43554,
        "rank_sort": 43559,
        "total": 2356
      },
      {
        "club_badge_src": null,
        "entry": 1005983,
        "entry_name": "Tabaibo FC",
        "event_total": 59,
        "has_played": true,
        "id": 6954185,
        "last_rank": 46547,
        "player_name": "Pedro Spinola",
        "rank": 43554,
        "rank_sort": 43560,
        "total": 2356
      },
      {
        "club_badge_src": null,
        "entry": 1134892,
        "entry_name": "The winners circle",
        "event_total": 66,
        "has_played": true,
        "id": 7866857,
        "last_rank": 57703,
        "player_name": "Jake Prodgers",
        "rank": 43554,
        "rank_sort": 43561,
        "total": 2356
      },
      {
        "club_badge_src": "https://fantasy.premierleague.com/gcs/plfpl-production-adobe-approved/plfpl-production/1300481/558ea39b-c14b-4057-8262-c06d9fbe8276.png",
        "entry": 1300481,
        "entry_name": "Stranger Mings",
        "event_total": 77,
        "has_played": true,
        "id": 9038294,
        "last_rank": 79027,
        "player_name": "Liam Price",
        "rank": 43554,
        "rank_sort": 43562,
        "total": 2356
      },
      {
        "club_badge_src": null,
        "entry": 1694990,
        "entry_name": "Enixma United",
        "event_total": 72,
        "has_played": true,
        "id": 11871585,
        "last_rank": 68556,
        "player_name": "Chitpol X",
        "rank": 43554,
        "rank_sort": 43563,
        "total": 2356
      },
      {
        "club_badge_src": null,
        "entry": 2403891,
        "entry_name": "No Time to Cherki",
        "event_total": 51,
        "has_played": true,
        "id": 17181974,
        "last_rank": 36088,
        "player_name": "Ethan Jones",
        "rank": 43554,
        "rank_sort": 43564,
        "total": 2356
      },
      {
        "club_badge_src": null,
        "entry": 2653987,
        "entry_name": "Haaland Globetrotter",
        "event_total": 67,
        "has_played": true,
        "id": 19076958,
        "last_rank": 59535,
        "player_name": "Eric Hagstr\u00f6m",
        "rank": 43554,
        "rank_sort": 43565,
        "total": 2356
      },
      {
        "club_badge_src": null,
        "entry": 2689048,
        "entry_name": "Darbar FC",
        "event_total": 53,
        "has_played": true,
        "id": 19341392,
        "last_rank": 38571,
        "player_name": "Ayaan Darbar",
        "rank": 43554,
        "rank_sort": 43566,
        "total": 2356
      },
      {
        "club_badge_src": null,
        "entry": 3069871,
        "entry_name": "Im not shaw",
        "event_total": 56,
        "has_played": true,
        "id": 22604625,
        "last_rank": 42386,
        "player_name": "Tom Watkins",
        "rank": 43554,
        "rank_sort": 43567,
        "total": 2356
      },
      {
        "club_badge_src": null,
        "entry": 3409442,
        "entry_name": "Cheesy Beans",
        "event_total": 58,
        "has_played": true,
        "id": 25319900,
        "last_rank": 45182,
        "player_name": "Paul Broadley",
        "rank": 43554,
        "rank_sort": 43568,
        "total": 2356
      },
      {
        "club_badge_src": null,
        "entry": 3528698,
        "entry_name": "Game\u2019s Gone",
        "event_total": 60,
        "has_played": true,
        "id": 26262260,
        "last_rank": 48067,
        "player_name": "Jared Alexander",
        "rank": 43554,
        "rank_sort": 43569,
        "total": 2356
      },
      {
        "club_badge_src": null,
        "entry": 4184474,
        "entry_name": "PY FC",
        "event_total": 91,
        "has_played": true,
        "id": 31660131,
        "last_rank": 114169,
        "player_name": "Papa Badu",
        "rank": 43554,
        "rank_sort": 43570,
        "total": 2356
      },
      {
        "club_badge_src": null,
        "entry": 4231274,
        "entry_name": "FC So\u010da bar",
        "event_total": 44,
        "has_played": true,
        "id": 32059844,
        "last_rank": 28546,
        "player_name": "Abel Pucer",
        "rank": 43554,
        "rank_sort": 43571,
        "total": 2356
      },
      {
        "club_badge_src": null,
        "entry": 4518485,
        "entry_name": "Micromanagers United",
        "event_total": 48,
        "has_played": true,
        "id": 34458220,
        "last_rank": 32688,
        "player_name": "Thomas Trolle",
        "rank": 43554,
        "rank_sort": 43572,
        "total": 2356
      },
      {
        "club_badge_src": "https://fantasy.premierleague.com/gcs/plfpl-production-adobe-approved/plfpl-production/4526722/86526a17-5171-485e-8fa2-6267c9d6f0fd.png",
        "entry": 4526722,
        "entry_name": "Bentancurassic Park",
        "event_total": 44,
        "has_played": true,
        "id": 34526131,
        "last_rank": 28532,
        "player_name": "Craig Goddard",
        "rank": 43554,
        "rank_sort": 43573,
        "total": 2356
      },
      {
        "club_badge_src": null,
        "entry": 5319690,
        "entry_name": "Dream Team",
        "event_total": 53,
        "has_played": true,
        "id": 41238256,
        "last_rank": 38571,
        "player_name": "Ryan Tabone",
        "rank": 43554,
        "rank_sort": 43574,
        "total": 2356
      },
      {
        "club_badge_src": null,
        "entry": 5405792,
        "entry_name": "Tiger's Tigers",
        "event_total": 31,
        "has_played": true,
        "id": 42034588,
        "last_rank": 17989,
        "player_name": "Tony Duggan",
        "rank": 43554,
        "rank_sort": 43575,
        "total": 2356
      },
      {
        "club_badge_src": null,
        "entry": 5558394,
        "entry_name": "Sandyknowes 2nd's",
        "event_total": 46,
        "has_played": true,
        "id": 43390875,
        "last_rank": 30536,
        "player_name": "Joel Neill",
        "rank": 43554,
        "rank_sort": 43576,
        "total": 2356
      },
      {
        "club_badge_src": null,
        "entry": 5709611,
        "entry_name": "Alqatia Blues",
        "event_total": 37,
        "has_played": true,
        "id": 44710428,
        "last_rank": 22391,
        "player_name": "Sujith Ej",
        "rank": 43554,
        "rank_sort": 43577,
        "total": 2356
      },
      {
        "club_badge_src": null,
        "entry": 5791224,
        "entry_name": "Leitrim FC",
        "event_total": 48,
        "has_played": true,
        "id": 45420959,
        "last_rank": 32661,
        "player_name": "Daryl Hanberry",
        "rank": 43554,
        "rank_sort": 43578,
        "total": 2356
      },
      {
        "club_badge_src": null,
        "entry": 6049015,
        "entry_name": "Cunha Believe It",
        "event_total": 53,
        "has_played": true,
        "id": 47730909,
        "last_rank": 38571,
        "player_name": "Damil A",
        "rank": 43554,
        "rank_sort": 43579,
        "total": 2356
      },
      {
        "club_badge_src": null,
        "entry": 6458829,
        "entry_name": "Game of Marlens",
        "event_total": 67,
        "has_played": true,
        "id": 51447128,
        "last_rank": 59496,
        "player_name": "Marlen Norbeck \u00d8stvold",
        "rank": 43554,
        "rank_sort": 43580,
        "total": 2356
      },
      {
        "club_badge_src": null,
        "entry": 6959590,
        "entry_name": "Sourdough FC",
        "event_total": 53,
        "has_played": true,
        "id": 55813096,
        "last_rank": 38571,
        "player_name": "Oskar Nielsen",
        "rank": 43554,
        "rank_sort": 43581,
        "total": 2356
      },
      {
        "club_badge_src": null,
        "entry": 7247946,
        "entry_name": "Glockeres",
        "event_total": 46,
        "has_played": true,
        "id": 58584147,
        "last_rank": 30494,
        "player_name": "Jack Manzhikov",
        "rank": 43554,
        "rank_sort": 43582,
        "total": 2356
      },
      {
        "club_badge_src": null,
        "entry": 7873861,
        "entry_name": "Mik El Arteta",
        "event_total": 65,
        "has_played": true,
        "id": 64748488,
        "last_rank": 56069,
        "player_name": "Mik Luvin",
        "rank": 43554,
        "rank_sort": 43583,
        "total": 2356
      },
      {
        "club_badge_src": "https://fantasy.premierleague.com/gcs/plfpl-production-adobe-approved/plfpl-production/36618/55e55c04-f448-424a-b33c-6c31a3e074fa.png",
        "entry": 36618,
        "entry_name": "It can",
        "event_total": 59,
        "has_played": true,
        "id": 234447,
        "last_rank": 41073,
        "player_name": "Alexander Nikula",
        "rank": 43584,
        "rank_sort": 43584,
        "total": 2356
      },
      {
        "club_badge_src": null,
        "entry": 67363,
        "entry_name": "Dybala",
        "event_total": 66,
        "has_played": true,
        "id": 436141,
        "last_rank": 57857,
        "player_name": "Tom Dyble",
        "rank": 43584,
        "rank_sort": 43585,
        "total": 2356
      },
      {
        "club_badge_src": "https://fantasy.premierleague.com/gcs/plfpl-production-adobe-approved/plfpl-production/150160/df7cf795-2ed3-47ee-b0c2-76424f768b49.png",
        "entry": 150160,
        "entry_name": "McNeil before Zod!",
        "event_total": 39,
        "has_played": true,
        "id": 984697,
        "last_rank": 24039,
        "player_name": "Chris Mits",
        "rank": 43584,
        "rank_sort": 43586,
        "total": 2356
      },
      {
        "club_badge_src": null,
        "entry": 192683,
        "entry_name": "MUFASAFASA",
        "event_total": 52,
        "has_played": true,
        "id": 1276845,
        "last_rank": 37435,
        "player_name": "kelvin kingoo",
        "rank": 43584,
        "rank_sort": 43587,
        "total": 2356
      },
      {
        "club_badge_src": null,
        "entry": 217628,
        "entry_name": "Ctrl Alt De Laet",
        "event_total": 62,
        "has_played": true,
        "id": 1447289,
        "last_rank": 51137,
        "player_name": "Andy Shaw",
        "rank": 43584,
        "rank_sort": 43588,
        "total": 2356
      },
      {
        "club_badge_src": null,
        "entry": 271699,
        "entry_name": "writz and all",
        "event_total": 70,
        "has_played": true,
        "id": 1807591,
        "last_rank": 64830,
        "player_name": "Aaron Connolly",
        "rank": 43584,
        "rank_sort": 43589,
        "total": 2356
      },
      {
        "club_badge_src": null,
        "entry": 306511,
        "entry_name": "McGinn and Tonic",
        "event_total": 79,
        "has_played": true,
        "id": 2052697,
        "last_rank": 83498,
        "player_name": "Theo Glasspool",
        "rank": 43584,
        "rank_sort": 43590,
        "total": 2356
      },
      {
        "club_badge_src": "https://fantasy.premierleague.com/gcs/plfpl-production-adobe-approved/plfpl-production/334361/6137ebf2-0918-40e7-8065-5144b097fc82.png",
        "entry": 334361,
        "entry_name": "JAW BOYZ",
        "event_total": 66,
        "has_played": true,
        "id": 2239026,
        "last_rank": 57857,
        "player_name": "John Andrew",
        "rank": 43584,
        "rank_sort": 43591,
        "total": 2356
      },
      {
        "club_badge_src": null,
        "entry": 633982,
        "entry_name": "Bailey Bunch",
        "event_total": 42,
        "has_played": true,
        "id": 4284513,
        "last_rank": 26710,
        "player_name": "Luke Bailey",
        "rank": 43584,
        "rank_sort": 43592,
        "total": 2356
      },
      {
        "club_badge_src": null,
        "entry": 908633,
        "entry_name": "Charli XGX",
        "event_total": 62,
        "has_played": true,
        "id": 6246314,
        "last_rank": 51112,
        "player_name": "Mr Souza",
        "rank": 43584,
        "rank_sort": 43593,
        "total": 2356
      },
      {
        "club_badge_src": null,
        "entry": 1014690,
        "entry_name": "Calafiornication",
        "event_total": 57,
        "has_played": true,
        "id": 7019491,
        "last_rank": 43849,
        "player_name": "Matt Simmons",
        "rank": 43584,
        "rank_sort": 43594,
        "total": 2356
      },
      {
        "club_badge_src": null,
        "entry": 1261133,
        "entry_name": "GK35",
        "event_total": 36,
        "has_played": true,
        "id": 8760273,
        "last_rank": 21677,
        "player_name": "Gionne Koopman",
        "rank": 43584,
        "rank_sort": 43595,
        "total": 2356
      },
      {
        "club_badge_src": null,
        "entry": 1495288,
        "entry_name": "Shaaland",
        "event_total": 68,
        "has_played": true,
        "id": 10427545,
        "last_rank": 61411,
        "player_name": "Abhay Kris Sharma",
        "rank": 43584,
        "rank_sort": 43596,
        "total": 2356
      },
      {
        "club_badge_src": "https://fantasy.premierleague.com/gcs/plfpl-production-adobe-approved/plfpl-production/2119934/b1eb28b0-9fa7-4bfc-8c1d-caf3a5347b34.png",
        "entry": 2119934,
        "entry_name": "Livi Weers FC",
        "event_total": 61,
        "has_played": true,
        "id": 15058345,
        "last_rank": 49572,
        "player_name": "Eirik Soterud Gjessing",
        "rank": 43584,
        "rank_sort": 43597,
        "total": 2356
      },
      {
        "club_badge_src": null,
        "entry": 2229216,
        "entry_name": "Insane P'Foot Posse",
        "event_total": 41,
        "has_played": true,
        "id": 15880561,
        "last_rank": 25729,
        "player_name": "Neil Proudfoot",
        "rank": 43584,
        "rank_sort": 43598,
        "total": 2356
      },
      {
        "club_badge_src": null,
        "entry": 2497378,
        "entry_name": "On Porro'd time",
        "event_total": 42,
        "has_played": true,
        "id": 17880207,
        "last_rank": 26710,
        "player_name": "Rob Surguy",
        "rank": 43584,
        "rank_sort": 43599,
        "total": 2356
      },
      {
        "club_badge_src": null,
        "entry": 2570315,
        "entry_name": "Under My Cucurella",
        "event_total": 48,
        "has_played": true,
        "id": 18442401,
        "last_rank": 32751,
        "player_name": "Finlay Fox",
        "rank": 43584,
        "rank_sort": 43600,
        "total": 2356
      }
    ]
  }
}