{
  "last_updated_data": "2026-05-24T23:28:17Z",
  "league": {
    "admin_entry": null,
    "closed": false,
    "code_privacy": "p",
    "created": "2025-07-20T23:14:33.933835Z",
    "cup_league": 2815434,
    "has_cup": true,
    "id": 314,
    "league_type": "s",
    "max_entries": null,
    "name": "Overall",
    "rank": null,
    "scoring": "c",
    "start_event": 1
  },
  "new_entries": {
    "has_next": false,
    "page": 1,
    "results": []
  },
  "standings": {
    "has_next": true,
    "page": 1175,
    "results": [
      {
        "club_badge_src": null,
        "entry": 6666481,
        "entry_name": "Rob's SunChips",
        "event_total": 49,
        "has_played": true,
        "id": 53314550,
        "last_rank": 46512,
        "player_name": "Alex Solomos",
        "rank": 58701,
        "rank_sort": 58701,
        "total": 2346
      },
      {
        "club_badge_src": null,
        "entry": 7129378,
        "entry_name": "Pitch perfect united",
        "event_total": 68,
        "has_played": true,
        "id": 57454316,
        "last_rank": 81168,
        "player_name": "Helen Lindsay",
        "rank": 58702,
        "rank_sort": 58702,
        "total": 2346
      },
      {
        "club_badge_src": null,
        "entry": 1012494,
        "entry_name": "The Pug",
        "event_total": 43,
        "has_played": true,
        "id": 7004137,
        "last_rank": 38510,
        "player_name": "PFirst PFirst",
        "rank": 58703,
        "rank_sort": 58703,
        "total": 2346
      },
      {
        "club_badge_src": null,
        "entry": 6976310,
        "entry_name": "Maestro United",
        "event_total": 49,
        "has_played": true,
        "id": 55975745,
        "last_rank": 46514,
        "player_name": "Oltin Lutfullayev",
        "rank": 58704,
        "rank_sort": 58704,
        "total": 2346
      },
      {
        "club_badge_src": null,
        "entry": 3491426,
        "entry_name": "Ace_squad",
        "event_total": 33,
        "has_played": true,
        "id": 25965804,
        "last_rank": 27543,
        "player_name": "Hafeez Ibrahim",
        "rank": 58705,
        "rank_sort": 58705,
        "total": 2346
      },
      {
        "club_badge_src": null,
        "entry": 9097534,
        "entry_name": "yukeshfc",
        "event_total": 53,
        "has_played": true,
        "id": 76427774,
        "last_rank": 52704,
        "player_name": "Yukesh Maharjan",
        "rank": 58706,
        "rank_sort": 58706,
        "total": 2346
      },
      {
        "club_badge_src": null,
        "entry": 1908771,
        "entry_name": "Flonaldo",
        "event_total": 68,
        "has_played": true,
        "id": 13456856,
        "last_rank": 81185,
        "player_name": "Stian Andersen",
        "rank": 58707,
        "rank_sort": 58707,
        "total": 2346
      },
      {
        "club_badge_src": null,
        "entry": 1975422,
        "entry_name": "Nwaneri any pants",
        "event_total": 44,
        "has_played": true,
        "id": 13943801,
        "last_rank": 39755,
        "player_name": "Bethany Reed",
        "rank": 58707,
        "rank_sort": 58708,
        "total": 2346
      },
      {
        "club_badge_src": null,
        "entry": 2094772,
        "entry_name": "Pullar FC",
        "event_total": 43,
        "has_played": true,
        "id": 14862488,
        "last_rank": 38519,
        "player_name": "Luke Pullar",
        "rank": 58707,
        "rank_sort": 58709,
        "total": 2346
      },
      {
        "club_badge_src": null,
        "entry": 5421478,
        "entry_name": "xccvxv v",
        "event_total": 62,
        "has_played": true,
        "id": 42165731,
        "last_rank": 68534,
        "player_name": "Edmund-- Inkin",
        "rank": 58707,
        "rank_sort": 58710,
        "total": 2346
      },
      {
        "club_badge_src": null,
        "entry": 6623516,
        "entry_name": "yaldi",
        "event_total": 65,
        "has_played": true,
        "id": 52930478,
        "last_rank": 74691,
        "player_name": "Fraser Allan",
        "rank": 58707,
        "rank_sort": 58711,
        "total": 2346
      },
      {
        "club_badge_src": "https://fantasy.premierleague.com/gcs/plfpl-production-adobe-approved/plfpl-production/1235143/e7f929a6-4465-4cf3-a4ed-e13a8fe1c78b.png",
        "entry": 1235143,
        "entry_name": "Just Stop Hojl",
        "event_total": 73,
        "has_played": true,
        "id": 8577059,
        "last_rank": 92934,
        "player_name": "Ben Diamond",
        "rank": 58712,
        "rank_sort": 58712,
        "total": 2346
      },
      {
        "club_badge_src": null,
        "entry": 3993472,
        "entry_name": "Rice Rice Baby",
        "event_total": 41,
        "has_played": true,
        "id": 30072089,
        "last_rank": 36091,
        "player_name": "Arron Broomfield",
        "rank": 58712,
        "rank_sort": 58713,
        "total": 2346
      },
      {
        "club_badge_src": null,
        "entry": 5442226,
        "entry_name": "Gola zenaumomkrevetu",
        "event_total": 67,
        "has_played": true,
        "id": 42342726,
        "last_rank": 78964,
        "player_name": "Stefan Stepan\u010devi\u0107",
        "rank": 58712,
        "rank_sort": 58714,
        "total": 2346
      },
      {
        "club_badge_src": null,
        "entry": 7227080,
        "entry_name": "TooSeskoForMyShirt",
        "event_total": 67,
        "has_played": true,
        "id": 58388006,
        "last_rank": 78979,
        "player_name": "Yurvan Ramjan",
        "rank": 58712,
        "rank_sort": 58715,
        "total": 2346
      },
      {
        "club_badge_src": null,
        "entry": 7954400,
        "entry_name": "___XI___",
        "event_total": 56,
        "has_played": true,
        "id": 65479390,
        "last_rank": 57705,
        "player_name": "Umang K",
        "rank": 58712,
        "rank_sort": 58716,
        "total": 2346
      },
      {
        "club_badge_src": null,
        "entry": 3326544,
        "entry_name": "Lalat Tse2",
        "event_total": 86,
        "has_played": true,
        "id": 24662426,
        "last_rank": 128900,
        "player_name": "Yulianto yulianto",
        "rank": 58717,
        "rank_sort": 58717,
        "total": 2346
      },
      {
        "club_badge_src": null,
        "entry": 3896629,
        "entry_name": "Crusty Crabs",
        "event_total": 68,
        "has_played": true,
        "id": 29287132,
        "last_rank": 81211,
        "player_name": "Frederik Krabbe",
        "rank": 58717,
        "rank_sort": 58718,
        "total": 2346
      },
      {
        "club_badge_src": null,
        "entry": 6319632,
        "entry_name": "VNAV",
        "event_total": 48,
        "has_played": true,
        "id": 50173877,
        "last_rank": 45117,
        "player_name": "Fareez Darus",
        "rank": 58717,
        "rank_sort": 58719,
        "total": 2346
      },
      {
        "club_badge_src": null,
        "entry": 8834200,
        "entry_name": "Gobbi Monkeys",
        "event_total": 62,
        "has_played": true,
        "id": 73873494,
        "last_rank": 68536,
        "player_name": "Vitali Beljajev",
        "rank": 58717,
        "rank_sort": 58720,
        "total": 2346
      },
      {
        "club_badge_src": null,
        "entry": 18488,
        "entry_name": "Che Guevara",
        "event_total": 52,
        "has_played": true,
        "id": 115029,
        "last_rank": 51112,
        "player_name": "simo OUALI",
        "rank": 58721,
        "rank_sort": 58721,
        "total": 2346
      },
      {
        "club_badge_src": null,
        "entry": 19934,
        "entry_name": "Net Six and Chill",
        "event_total": 56,
        "has_played": true,
        "id": 124084,
        "last_rank": 57743,
        "player_name": "Isaac Dibsdall",
        "rank": 58721,
        "rank_sort": 58722,
        "total": 2346
      },
      {
        "club_badge_src": "https://fantasy.premierleague.com/gcs/plfpl-production-adobe-approved/plfpl-production/2542607/dae31c07-287c-4a54-a2b7-9cd5f87dbd0f.png",
        "entry": 2542607,
        "entry_name": "Zima 2.0",
        "event_total": 69,
        "has_played": true,
        "id": 18223363,
        "last_rank": 74712,
        "player_name": "Malcolm Munang",
        "rank": 58721,
        "rank_sort": 58723,
        "total": 2346
      },
      {
        "club_badge_src": null,
        "entry": 3690070,
        "entry_name": "Grievous disipler",
        "event_total": 38,
        "has_played": true,
        "id": 27528171,
        "last_rank": 32661,
        "player_name": "Jonas Gundersen",
        "rank": 58721,
        "rank_sort": 58724,
        "total": 2346
      },
      {
        "club_badge_src": null,
        "entry": 3905111,
        "entry_name": "Finchiez Finest",
        "event_total": 70,
        "has_played": true,
        "id": 29357909,
        "last_rank": 85836,
        "player_name": "James Finch",
        "rank": 58721,
        "rank_sort": 58725,
        "total": 2346
      },
      {
        "club_badge_src": null,
        "entry": 5618266,
        "entry_name": "CRG F.C",
        "event_total": 60,
        "has_played": true,
        "id": 43915791,
        "last_rank": 64777,
        "player_name": "Patrick Ogwuda",
        "rank": 58721,
        "rank_sort": 58726,
        "total": 2346
      },
      {
        "club_badge_src": null,
        "entry": 6410336,
        "entry_name": "The Mighty Studs",
        "event_total": 57,
        "has_played": true,
        "id": 51011016,
        "last_rank": 59464,
        "player_name": "Gillian Wilson",
        "rank": 58721,
        "rank_sort": 58727,
        "total": 2346
      },
      {
        "club_badge_src": null,
        "entry": 7126076,
        "entry_name": "Right said Fred",
        "event_total": 45,
        "has_played": true,
        "id": 57423294,
        "last_rank": 41060,
        "player_name": "William Bowerman",
        "rank": 58721,
        "rank_sort": 58728,
        "total": 2346
      },
      {
        "club_badge_src": null,
        "entry": 7203845,
        "entry_name": "Pinky and De Bruyne",
        "event_total": 35,
        "has_played": true,
        "id": 58168036,
        "last_rank": 29482,
        "player_name": "Scott Dabbs",
        "rank": 58721,
        "rank_sort": 58729,
        "total": 2346
      },
      {
        "club_badge_src": null,
        "entry": 7536565,
        "entry_name": "Palmer Sutra",
        "event_total": 66,
        "has_played": true,
        "id": 61688056,
        "last_rank": 76877,
        "player_name": "Waseem-Ahmad Ebrahim",
        "rank": 58721,
        "rank_sort": 58730,
        "total": 2346
      },
      {
        "club_badge_src": "https://fantasy.premierleague.com/gcs/plfpl-production-adobe-approved/plfpl-production/78584/b85132e4-3a5d-4078-9430-720757acb4ed.png",
        "entry": 78584,
        "entry_name": "KJS 2000 F.C.",
        "event_total": 65,
        "has_played": true,
        "id": 510956,
        "last_rank": 74741,
        "player_name": "Kazi Swaryczewski",
        "rank": 58731,
        "rank_sort": 58731,
        "total": 2346
      },
      {
        "club_badge_src": "https://fantasy.premierleague.com/gcs/plfpl-production-adobe-approved/plfpl-production/137346/271c2f51-c10e-44b5-b1d1-3abcb5e822ee.png",
        "entry": 137346,
        "entry_name": "Cunha Believe It?",
        "event_total": 66,
        "has_played": true,
        "id": 895216,
        "last_rank": 76885,
        "player_name": "Ryan Frow",
        "rank": 58731,
        "rank_sort": 58732,
        "total": 2346
      },
      {
        "club_badge_src": null,
        "entry": 656885,
        "entry_name": "take your pickford",
        "event_total": 39,
        "has_played": true,
        "id": 4439224,
        "last_rank": 33845,
        "player_name": "niamh reid",
        "rank": 58731,
        "rank_sort": 58733,
        "total": 2346
      },
      {
        "club_badge_src": null,
        "entry": 1295199,
        "entry_name": "Tikkitaco FC",
        "event_total": 44,
        "has_played": true,
        "id": 9001377,
        "last_rank": 39816,
        "player_name": "christofer cunningham",
        "rank": 58731,
        "rank_sort": 58734,
        "total": 2346
      },
      {
        "club_badge_src": null,
        "entry": 1495430,
        "entry_name": "bukayo sraczki",
        "event_total": 61,
        "has_played": true,
        "id": 10428542,
        "last_rank": 66693,
        "player_name": "Pawe\u0142 Ratajski",
        "rank": 58731,
        "rank_sort": 58735,
        "total": 2346
      },
      {
        "club_badge_src": null,
        "entry": 2179502,
        "entry_name": "Paqueta ur bags & go",
        "event_total": 77,
        "has_played": true,
        "id": 15500654,
        "last_rank": 103017,
        "player_name": "joe yusuf",
        "rank": 58731,
        "rank_sort": 58736,
        "total": 2346
      },
      {
        "club_badge_src": null,
        "entry": 2862792,
        "entry_name": "Zubi Dooby Doo",
        "event_total": 69,
        "has_played": true,
        "id": 20936065,
        "last_rank": 83534,
        "player_name": "Kavita Rai",
        "rank": 58731,
        "rank_sort": 58737,
        "total": 2346
      },
      {
        "club_badge_src": null,
        "entry": 3017287,
        "entry_name": "Hawk Tuahzebe",
        "event_total": 59,
        "has_played": true,
        "id": 22198865,
        "last_rank": 63042,
        "player_name": "Shaun Harvey",
        "rank": 58731,
        "rank_sort": 58738,
        "total": 2346
      },
      {
        "club_badge_src": null,
        "entry": 3120537,
        "entry_name": "in it to win it",
        "event_total": 39,
        "has_played": true,
        "id": 23028474,
        "last_rank": 33869,
        "player_name": "Phoenix Watson",
        "rank": 58731,
        "rank_sort": 58739,
        "total": 2346
      },
      {
        "club_badge_src": null,
        "entry": 3177109,
        "entry_name": "Make FPL Great Again",
        "event_total": 59,
        "has_played": true,
        "id": 23476078,
        "last_rank": 63063,
        "player_name": "Tom Garrett",
        "rank": 58731,
        "rank_sort": 58740,
        "total": 2346
      },
      {
        "club_badge_src": null,
        "entry": 3800229,
        "entry_name": "Nawario",
        "event_total": 50,
        "has_played": true,
        "id": 28407810,
        "last_rank": 48084,
        "player_name": "Moustafa Nawar",
        "rank": 58731,
        "rank_sort": 58741,
        "total": 2346
      },
      {
        "club_badge_src": null,
        "entry": 4852427,
        "entry_name": "You are my SONshine",
        "event_total": 77,
        "has_played": true,
        "id": 37387006,
        "last_rank": 103054,
        "player_name": "Nicola Speers",
        "rank": 58731,
        "rank_sort": 58742,
        "total": 2346
      },
      {
        "club_badge_src": null,
        "entry": 4931297,
        "entry_name": "Holy Boehly",
        "event_total": 60,
        "has_played": true,
        "id": 38040465,
        "last_rank": 64830,
        "player_name": "Abdulkader Al-Easa",
        "rank": 58731,
        "rank_sort": 58743,
        "total": 2346
      },
      {
        "club_badge_src": null,
        "entry": 5220235,
        "entry_name": "StretfordEnd",
        "event_total": 54,
        "has_played": true,
        "id": 40446258,
        "last_rank": 54380,
        "player_name": "Altin Salihu",
        "rank": 58731,
        "rank_sort": 58744,
        "total": 2346
      },
      {
        "club_badge_src": null,
        "entry": 5461777,
        "entry_name": "Wirtz Nightmare",
        "event_total": 74,
        "has_played": true,
        "id": 42506278,
        "last_rank": 95436,
        "player_name": "Connor McCann",
        "rank": 58731,
        "rank_sort": 58745,
        "total": 2346
      },
      {
        "club_badge_src": null,
        "entry": 5825274,
        "entry_name": "Bakayo Lil Chilli",
        "event_total": 77,
        "has_played": true,
        "id": 45717576,
        "last_rank": 103017,
        "player_name": "Sujan Neupane",
        "rank": 58731,
        "rank_sort": 58746,
        "total": 2346
      },
      {
        "club_badge_src": null,
        "entry": 6815712,
        "entry_name": "AC BOLI",
        "event_total": 71,
        "has_played": true,
        "id": 54586211,
        "last_rank": 88185,
        "player_name": "Mark Kernaghan",
        "rank": 58731,
        "rank_sort": 58747,
        "total": 2346
      },
      {
        "club_badge_src": null,
        "entry": 6837762,
        "entry_name": "Tweakers",
        "event_total": 51,
        "has_played": true,
        "id": 54774492,
        "last_rank": 49607,
        "player_name": "Kamil Massel",
        "rank": 58731,
        "rank_sort": 58748,
        "total": 2346
      },
      {
        "club_badge_src": null,
        "entry": 7159426,
        "entry_name": "JoshJoshJosh",
        "event_total": 51,
        "has_played": true,
        "id": 57747841,
        "last_rank": 49552,
        "player_name": "Josh Onstenk",
        "rank": 58731,
        "rank_sort": 58749,
        "total": 2346
      },
      {
        "club_badge_src": null,
        "entry": 7247824,
        "entry_name": "cwmbach bluebirds",
        "event_total": 39,
        "has_played": true,
        "id": 58582941,
        "last_rank": 33869,
        "player_name": "Marc Williams",
        "rank": 58731,
        "rank_sort": 58750,
        "total": 2346
      }
    ]
  }
}