{
  "last_updated_data": "2026-05-24T23:28:17Z",
  "league": {
    "admin_entry": null,
    "closed": false,
    "code_privacy": "p",
    "created": "2025-07-20T23:14:33.933835Z",
    "cup_league": 2815434,
    "has_cup": true,
    "id": 314,
    "league_type": "s",
    "max_entries": null,
    "name": "Overall",
    "rank": null,
    "scoring": "c",
    "start_event": 1
  },
  "new_entries": {
    "has_next": false,
    "page": 1,
    "results": []
  },
  "standings": {
    "has_next": true,
    "page": 724,
    "results": [
      {
        "club_badge_src": null,
        "entry": 2246699,
        "entry_name": "Old Havertz Die Hard",
        "event_total": 45,
        "has_played": true,
        "id": 16007226,
        "last_rank": 23954,
        "player_name": "Graham Richards",
        "rank": 36151,
        "rank_sort": 36151,
        "total": 2362
      },
      {
        "club_badge_src": null,
        "entry": 2641761,
        "entry_name": "The Misery Team",
        "event_total": 62,
        "has_played": true,
        "id": 18987077,
        "last_rank": 42377,
        "player_name": "Aleksandar Toshkin",
        "rank": 36151,
        "rank_sort": 36152,
        "total": 2362
      },
      {
        "club_badge_src": null,
        "entry": 5490793,
        "entry_name": "Tryreg",
        "event_total": 58,
        "has_played": true,
        "id": 42764332,
        "last_rank": 37302,
        "player_name": "Mehdi Syed",
        "rank": 36151,
        "rank_sort": 36153,
        "total": 2362
      },
      {
        "club_badge_src": null,
        "entry": 219361,
        "entry_name": "Shard of Alexander",
        "event_total": 58,
        "has_played": true,
        "id": 1458804,
        "last_rank": 37314,
        "player_name": "Peter Kiedrowski",
        "rank": 36154,
        "rank_sort": 36154,
        "total": 2362
      },
      {
        "club_badge_src": "https://fantasy.premierleague.com/gcs/plfpl-production-adobe-approved/plfpl-production/2625257/014526df-6738-4aae-b796-76ad6b36dce2.png",
        "entry": 2625257,
        "entry_name": "One man Arne",
        "event_total": 67,
        "has_played": true,
        "id": 18864658,
        "last_rank": 49529,
        "player_name": "Michael Foster",
        "rank": 36154,
        "rank_sort": 36155,
        "total": 2362
      },
      {
        "club_badge_src": null,
        "entry": 3985818,
        "entry_name": "Run of the Milner",
        "event_total": 67,
        "has_played": true,
        "id": 30008423,
        "last_rank": 49534,
        "player_name": "Ruth Uprichard",
        "rank": 36154,
        "rank_sort": 36156,
        "total": 2362
      },
      {
        "club_badge_src": null,
        "entry": 683656,
        "entry_name": "CFC You Later",
        "event_total": 58,
        "has_played": true,
        "id": 4627232,
        "last_rank": 37325,
        "player_name": "Ali-Zamin Khan",
        "rank": 36157,
        "rank_sort": 36157,
        "total": 2362
      },
      {
        "club_badge_src": null,
        "entry": 1242596,
        "entry_name": "GOAT",
        "event_total": 79,
        "has_played": true,
        "id": 8629828,
        "last_rank": 70584,
        "player_name": "Jesper Novaro",
        "rank": 36157,
        "rank_sort": 36158,
        "total": 2362
      },
      {
        "club_badge_src": null,
        "entry": 5746907,
        "entry_name": "\u1d1b\u2608\u1d00\u0299\u1d00\u028f\u1d07",
        "event_total": 51,
        "has_played": true,
        "id": 45040154,
        "last_rank": 29482,
        "player_name": "\u1e62\u00e8y\u00edf\u00fanmi Oshobi",
        "rank": 36157,
        "rank_sort": 36159,
        "total": 2362
      },
      {
        "club_badge_src": "https://fantasy.premierleague.com/gcs/plfpl-production-adobe-approved/plfpl-production/6129114/96235401-8e38-4b94-b04b-f1160d7a9cd3.png",
        "entry": 6129114,
        "entry_name": "ghanaboy72",
        "event_total": 66,
        "has_played": true,
        "id": 48429823,
        "last_rank": 48043,
        "player_name": "Ben Smith",
        "rank": 36157,
        "rank_sort": 36160,
        "total": 2362
      },
      {
        "club_badge_src": null,
        "entry": 8570859,
        "entry_name": "Livitt's Lionesses",
        "event_total": 56,
        "has_played": true,
        "id": 71318922,
        "last_rank": 34907,
        "player_name": "Rebecca Livitt",
        "rank": 36157,
        "rank_sort": 36161,
        "total": 2362
      },
      {
        "club_badge_src": null,
        "entry": 9222263,
        "entry_name": "Marylebone FC",
        "event_total": 68,
        "has_played": true,
        "id": 77652177,
        "last_rank": 51090,
        "player_name": "Sophie Donat",
        "rank": 36157,
        "rank_sort": 36162,
        "total": 2362
      },
      {
        "club_badge_src": "https://fantasy.premierleague.com/gcs/plfpl-production-adobe-approved/plfpl-production/539072/e9fbeb52-e4cb-4960-9f7e-dcaddcffe185.png",
        "entry": 539072,
        "entry_name": "Clive's Champions XI",
        "event_total": 64,
        "has_played": true,
        "id": 3628535,
        "last_rank": 45126,
        "player_name": "Clive Dowd",
        "rank": 36163,
        "rank_sort": 36163,
        "total": 2362
      },
      {
        "club_badge_src": null,
        "entry": 811500,
        "entry_name": "GOATs",
        "event_total": 53,
        "has_played": true,
        "id": 5556243,
        "last_rank": 31518,
        "player_name": "Alex Gould",
        "rank": 36163,
        "rank_sort": 36164,
        "total": 2362
      },
      {
        "club_badge_src": null,
        "entry": 2273971,
        "entry_name": "Alexis Mac Alastair",
        "event_total": 42,
        "has_played": true,
        "id": 16214865,
        "last_rank": 21591,
        "player_name": "Alastair Cunningham",
        "rank": 36163,
        "rank_sort": 36165,
        "total": 2362
      },
      {
        "club_badge_src": null,
        "entry": 5170541,
        "entry_name": "Epping Forest FC",
        "event_total": 57,
        "has_played": true,
        "id": 40017190,
        "last_rank": 36110,
        "player_name": "George Miller",
        "rank": 36163,
        "rank_sort": 36166,
        "total": 2362
      },
      {
        "club_badge_src": null,
        "entry": 6127022,
        "entry_name": "Roger Over and Out",
        "event_total": 47,
        "has_played": true,
        "id": 48412131,
        "last_rank": 25709,
        "player_name": "Richard Rogers",
        "rank": 36163,
        "rank_sort": 36167,
        "total": 2362
      },
      {
        "club_badge_src": null,
        "entry": 7903954,
        "entry_name": "Team Mellow",
        "event_total": 53,
        "has_played": true,
        "id": 65023253,
        "last_rank": 31518,
        "player_name": "Richmond Santos",
        "rank": 36163,
        "rank_sort": 36168,
        "total": 2362
      },
      {
        "club_badge_src": null,
        "entry": 10933,
        "entry_name": "Thomas FC",
        "event_total": 62,
        "has_played": true,
        "id": 64790,
        "last_rank": 42401,
        "player_name": "James Joseph",
        "rank": 36169,
        "rank_sort": 36169,
        "total": 2362
      },
      {
        "club_badge_src": null,
        "entry": 27717,
        "entry_name": "Fair Sch\u00e4r of points",
        "event_total": 68,
        "has_played": true,
        "id": 175232,
        "last_rank": 51099,
        "player_name": "Soham Khadilkar",
        "rank": 36169,
        "rank_sort": 36170,
        "total": 2362
      },
      {
        "club_badge_src": null,
        "entry": 716969,
        "entry_name": "Ding Dong Frimpong",
        "event_total": 42,
        "has_played": true,
        "id": 4864795,
        "last_rank": 21628,
        "player_name": "Pepijn Ernst",
        "rank": 36169,
        "rank_sort": 36171,
        "total": 2362
      },
      {
        "club_badge_src": null,
        "entry": 1033348,
        "entry_name": "BabyItsColeOutside",
        "event_total": 75,
        "has_played": true,
        "id": 7150021,
        "last_rank": 63045,
        "player_name": "Jack Reeves",
        "rank": 36169,
        "rank_sort": 36172,
        "total": 2362
      },
      {
        "club_badge_src": null,
        "entry": 2646039,
        "entry_name": "Holmes Hooligans",
        "event_total": 54,
        "has_played": true,
        "id": 19018556,
        "last_rank": 32688,
        "player_name": "Jonathan Holmes",
        "rank": 36169,
        "rank_sort": 36173,
        "total": 2362
      },
      {
        "club_badge_src": null,
        "entry": 2678456,
        "entry_name": "StraightGunners",
        "event_total": 57,
        "has_played": true,
        "id": 19263193,
        "last_rank": 36142,
        "player_name": "Nicolas Medina",
        "rank": 36169,
        "rank_sort": 36174,
        "total": 2362
      },
      {
        "club_badge_src": null,
        "entry": 5518654,
        "entry_name": "CharlesInCharge",
        "event_total": 55,
        "has_played": true,
        "id": 43029706,
        "last_rank": 25698,
        "player_name": "Charlie Donaldson",
        "rank": 36169,
        "rank_sort": 36175,
        "total": 2362
      },
      {
        "club_badge_src": null,
        "entry": 7937899,
        "entry_name": "Penguino FC",
        "event_total": 53,
        "has_played": true,
        "id": 65332264,
        "last_rank": 31556,
        "player_name": "Che-Hao Saito",
        "rank": 36169,
        "rank_sort": 36176,
        "total": 2362
      },
      {
        "club_badge_src": null,
        "entry": 32806,
        "entry_name": "Versace XI",
        "event_total": 51,
        "has_played": true,
        "id": 208854,
        "last_rank": 29578,
        "player_name": "Christos Charidemou",
        "rank": 36177,
        "rank_sort": 36177,
        "total": 2362
      },
      {
        "club_badge_src": null,
        "entry": 85087,
        "entry_name": "QuaisonStars",
        "event_total": 49,
        "has_played": true,
        "id": 554061,
        "last_rank": 27585,
        "player_name": "Pontus Lindstr\u00f6m",
        "rank": 36177,
        "rank_sort": 36178,
        "total": 2362
      },
      {
        "club_badge_src": null,
        "entry": 156576,
        "entry_name": "Bruno Dos Tres",
        "event_total": 55,
        "has_played": true,
        "id": 1029710,
        "last_rank": 33936,
        "player_name": "Rahul Acharya",
        "rank": 36177,
        "rank_sort": 36179,
        "total": 2362
      },
      {
        "club_badge_src": null,
        "entry": 364264,
        "entry_name": "Ballongdor",
        "event_total": 51,
        "has_played": true,
        "id": 2437510,
        "last_rank": 29495,
        "player_name": "panu pinkasorn",
        "rank": 36177,
        "rank_sort": 36180,
        "total": 2362
      },
      {
        "club_badge_src": null,
        "entry": 368217,
        "entry_name": "SigaPRAbingO",
        "event_total": 62,
        "has_played": true,
        "id": 2464093,
        "last_rank": 42401,
        "player_name": "Diogo Machado",
        "rank": 36177,
        "rank_sort": 36181,
        "total": 2362
      },
      {
        "club_badge_src": null,
        "entry": 1213818,
        "entry_name": "Lulham's Legends",
        "event_total": 63,
        "has_played": true,
        "id": 8425167,
        "last_rank": 43849,
        "player_name": "Ian Lulham",
        "rank": 36177,
        "rank_sort": 36182,
        "total": 2362
      },
      {
        "club_badge_src": null,
        "entry": 1528669,
        "entry_name": "CeeCee FC",
        "event_total": 56,
        "has_played": true,
        "id": 10664713,
        "last_rank": 34926,
        "player_name": "Lucy Hanson",
        "rank": 36177,
        "rank_sort": 36183,
        "total": 2362
      },
      {
        "club_badge_src": null,
        "entry": 1830693,
        "entry_name": "\u0627\u0628\u0648 \u0631\u062c\u0628 \u0627\u0644\u0632\u0646\u0643\u0644\u0648\u0646\u064a",
        "event_total": 65,
        "has_played": true,
        "id": 12877236,
        "last_rank": 46591,
        "player_name": "Zeyad Rashad",
        "rank": 36177,
        "rank_sort": 36184,
        "total": 2362
      },
      {
        "club_badge_src": null,
        "entry": 2883592,
        "entry_name": "Daydream Balebas",
        "event_total": 63,
        "has_played": true,
        "id": 21110137,
        "last_rank": 43742,
        "player_name": "Gareth Beynon",
        "rank": 36177,
        "rank_sort": 36185,
        "total": 2362
      },
      {
        "club_badge_src": null,
        "entry": 3095856,
        "entry_name": "Murph's Mob",
        "event_total": 67,
        "has_played": true,
        "id": 22817290,
        "last_rank": 49607,
        "player_name": "Jon Murphy",
        "rank": 36177,
        "rank_sort": 36186,
        "total": 2362
      },
      {
        "club_badge_src": null,
        "entry": 3566137,
        "entry_name": "Wine O'Clock FC",
        "event_total": 66,
        "has_played": true,
        "id": 26553205,
        "last_rank": 48119,
        "player_name": "Stine Karlsen Oconnor",
        "rank": 36177,
        "rank_sort": 36187,
        "total": 2362
      },
      {
        "club_badge_src": null,
        "entry": 3758023,
        "entry_name": "ZubiDoobie",
        "event_total": 45,
        "has_played": true,
        "id": 28058251,
        "last_rank": 24039,
        "player_name": "Ritwik Moghe",
        "rank": 36177,
        "rank_sort": 36188,
        "total": 2362
      },
      {
        "club_badge_src": null,
        "entry": 3818167,
        "entry_name": "Change Name",
        "event_total": 57,
        "has_played": true,
        "id": 28554614,
        "last_rank": 36142,
        "player_name": "Dylan Milne",
        "rank": 36177,
        "rank_sort": 36189,
        "total": 2362
      },
      {
        "club_badge_src": null,
        "entry": 3923155,
        "entry_name": "K FC",
        "event_total": 53,
        "has_played": true,
        "id": 29502548,
        "last_rank": 31556,
        "player_name": "Brian John",
        "rank": 36177,
        "rank_sort": 36190,
        "total": 2362
      },
      {
        "club_badge_src": null,
        "entry": 4325923,
        "entry_name": "Percy's Players",
        "event_total": 66,
        "has_played": true,
        "id": 32832278,
        "last_rank": 48119,
        "player_name": "William Marsh",
        "rank": 36177,
        "rank_sort": 36191,
        "total": 2362
      },
      {
        "club_badge_src": null,
        "entry": 4423644,
        "entry_name": "Abouelnas United",
        "event_total": 56,
        "has_played": true,
        "id": 33660893,
        "last_rank": 35034,
        "player_name": "Omar Abouelnas",
        "rank": 36177,
        "rank_sort": 36192,
        "total": 2362
      },
      {
        "club_badge_src": null,
        "entry": 4901829,
        "entry_name": "FC Wroc\u0142awianie",
        "event_total": 54,
        "has_played": true,
        "id": 37799328,
        "last_rank": 32636,
        "player_name": "Marcin Bochonko",
        "rank": 36177,
        "rank_sort": 36193,
        "total": 2362
      },
      {
        "club_badge_src": null,
        "entry": 5268824,
        "entry_name": "Viikonkaotus",
        "event_total": 76,
        "has_played": true,
        "id": 40836842,
        "last_rank": 64760,
        "player_name": "Ian Saarik",
        "rank": 36177,
        "rank_sort": 36194,
        "total": 2362
      },
      {
        "club_badge_src": null,
        "entry": 5364257,
        "entry_name": "Raya Sunshine",
        "event_total": 54,
        "has_played": true,
        "id": 41669356,
        "last_rank": 32688,
        "player_name": "Pari Jay",
        "rank": 36177,
        "rank_sort": 36195,
        "total": 2362
      },
      {
        "club_badge_src": null,
        "entry": 5382639,
        "entry_name": "BrownswoodFC",
        "event_total": 58,
        "has_played": true,
        "id": 41843146,
        "last_rank": 37435,
        "player_name": "Ben Edwards",
        "rank": 36177,
        "rank_sort": 36196,
        "total": 2362
      },
      {
        "club_badge_src": null,
        "entry": 5400745,
        "entry_name": "Choppers FC",
        "event_total": 89,
        "has_played": true,
        "id": 41992348,
        "last_rank": 92958,
        "player_name": "Christian Piazza",
        "rank": 36177,
        "rank_sort": 36197,
        "total": 2362
      },
      {
        "club_badge_src": null,
        "entry": 5770088,
        "entry_name": "Goatified FC",
        "event_total": 60,
        "has_played": true,
        "id": 45238131,
        "last_rank": 39816,
        "player_name": "O-gbo FC",
        "rank": 36177,
        "rank_sort": 36198,
        "total": 2362
      },
      {
        "club_badge_src": null,
        "entry": 5791378,
        "entry_name": "Powers Rangers",
        "event_total": 68,
        "has_played": true,
        "id": 45422514,
        "last_rank": 51112,
        "player_name": "Stephen Power",
        "rank": 36177,
        "rank_sort": 36199,
        "total": 2362
      },
      {
        "club_badge_src": null,
        "entry": 6117780,
        "entry_name": "Osama Alfahd \ufffd",
        "event_total": 47,
        "has_played": true,
        "id": 48330619,
        "last_rank": 25776,
        "player_name": "Osama Alfahd \ud83c\uddf5\ud83c\uddf8",
        "rank": 36177,
        "rank_sort": 36200,
        "total": 2362
      }
    ]
  }
}