{
  "last_updated_data": "2026-05-24T23:28:17Z",
  "league": {
    "admin_entry": null,
    "closed": false,
    "code_privacy": "p",
    "created": "2025-07-20T23:14:33.933835Z",
    "cup_league": 2815434,
    "has_cup": true,
    "id": 314,
    "league_type": "s",
    "max_entries": null,
    "name": "Overall",
    "rank": null,
    "scoring": "c",
    "start_event": 1
  },
  "new_entries": {
    "has_next": false,
    "page": 1,
    "results": []
  },
  "standings": {
    "has_next": true,
    "page": 1170,
    "results": [
      {
        "club_badge_src": null,
        "entry": 6781873,
        "entry_name": "Ajab",
        "event_total": 67,
        "has_played": true,
        "id": 54305861,
        "last_rank": 78575,
        "player_name": "Mohamed Alajab",
        "rank": 58361,
        "rank_sort": 58451,
        "total": 2347
      },
      {
        "club_badge_src": null,
        "entry": 6947308,
        "entry_name": "Manchestud",
        "event_total": 66,
        "has_played": true,
        "id": 55704634,
        "last_rank": 68107,
        "player_name": "Kidda Chumin",
        "rank": 58361,
        "rank_sort": 58452,
        "total": 2347
      },
      {
        "club_badge_src": null,
        "entry": 7170199,
        "entry_name": "The Big Boys",
        "event_total": 67,
        "has_played": true,
        "id": 57854766,
        "last_rank": 69907,
        "player_name": "Magnus Thornton",
        "rank": 58361,
        "rank_sort": 58453,
        "total": 2347
      },
      {
        "club_badge_src": null,
        "entry": 7183173,
        "entry_name": "Change Name",
        "event_total": 57,
        "has_played": true,
        "id": 57975704,
        "last_rank": 52357,
        "player_name": "William Moran",
        "rank": 58361,
        "rank_sort": 58454,
        "total": 2347
      },
      {
        "club_badge_src": "https://fantasy.premierleague.com/gcs/plfpl-production-adobe-approved/plfpl-production/7261073/60f75cd9-24a6-4818-91c4-befb6e6b1009.png",
        "entry": 7261073,
        "entry_name": "Coco FC",
        "event_total": 56,
        "has_played": true,
        "id": 58709791,
        "last_rank": 57451,
        "player_name": "Connie Tough",
        "rank": 58361,
        "rank_sort": 58455,
        "total": 2347
      },
      {
        "club_badge_src": null,
        "entry": 7608974,
        "entry_name": "Zubi or not Zubi",
        "event_total": 57,
        "has_played": true,
        "id": 62345299,
        "last_rank": 52357,
        "player_name": "Luvanen Naidoo",
        "rank": 58361,
        "rank_sort": 58456,
        "total": 2347
      },
      {
        "club_badge_src": null,
        "entry": 8005058,
        "entry_name": "Mbujaj",
        "event_total": 61,
        "has_played": true,
        "id": 65929305,
        "last_rank": 65796,
        "player_name": "Egzon Mujaj",
        "rank": 58361,
        "rank_sort": 58457,
        "total": 2347
      },
      {
        "club_badge_src": null,
        "entry": 8138803,
        "entry_name": "Insert pun here",
        "event_total": 64,
        "has_played": true,
        "id": 67163430,
        "last_rank": 72265,
        "player_name": "Cirdan Heughan",
        "rank": 58361,
        "rank_sort": 58458,
        "total": 2347
      },
      {
        "club_badge_src": null,
        "entry": 8237654,
        "entry_name": "fc pojdme gol",
        "event_total": 69,
        "has_played": true,
        "id": 68101304,
        "last_rank": 83018,
        "player_name": "Pavel Kol\u00e1\u0159",
        "rank": 58361,
        "rank_sort": 58459,
        "total": 2347
      },
      {
        "club_badge_src": null,
        "entry": 8742352,
        "entry_name": "99Probs Modric aint1",
        "event_total": 68,
        "has_played": true,
        "id": 72990351,
        "last_rank": 80651,
        "player_name": "Simon Fabb",
        "rank": 58361,
        "rank_sort": 58460,
        "total": 2347
      },
      {
        "club_badge_src": null,
        "entry": 8849330,
        "entry_name": "Malouka",
        "event_total": 50,
        "has_played": true,
        "id": 74020107,
        "last_rank": 42081,
        "player_name": "Malak Bourigue",
        "rank": 58361,
        "rank_sort": 58461,
        "total": 2347
      },
      {
        "club_badge_src": null,
        "entry": 8978002,
        "entry_name": "Muga",
        "event_total": 63,
        "has_played": true,
        "id": 75269502,
        "last_rank": 70072,
        "player_name": "Muga Brian",
        "rank": 58361,
        "rank_sort": 58462,
        "total": 2347
      },
      {
        "club_badge_src": null,
        "entry": 9112682,
        "entry_name": "*Ini Sumo Poyo*",
        "event_total": 72,
        "has_played": true,
        "id": 76575787,
        "last_rank": 90057,
        "player_name": "Danial Chan",
        "rank": 58361,
        "rank_sort": 58463,
        "total": 2347
      },
      {
        "club_badge_src": null,
        "entry": 8339,
        "entry_name": "RealMadrid CF",
        "event_total": 59,
        "has_played": true,
        "id": 48419,
        "last_rank": 55747,
        "player_name": "Patryk Dziugie\u0142",
        "rank": 58464,
        "rank_sort": 58464,
        "total": 2347
      },
      {
        "club_badge_src": "https://fantasy.premierleague.com/gcs/plfpl-production-adobe-approved/plfpl-production/18507/52ca0dd2-e03b-4cad-b848-a440c926207f.png",
        "entry": 18507,
        "entry_name": "CHR!$7!@No RoN@LDo",
        "event_total": 62,
        "has_played": true,
        "id": 115149,
        "last_rank": 60933,
        "player_name": "Stephen Tye",
        "rank": 58464,
        "rank_sort": 58465,
        "total": 2347
      },
      {
        "club_badge_src": null,
        "entry": 38336,
        "entry_name": "Brickhill United",
        "event_total": 64,
        "has_played": true,
        "id": 245694,
        "last_rank": 72265,
        "player_name": "Andrew Eggleston",
        "rank": 58464,
        "rank_sort": 58466,
        "total": 2347
      },
      {
        "club_badge_src": null,
        "entry": 73724,
        "entry_name": "Adam FC",
        "event_total": 54,
        "has_played": true,
        "id": 479249,
        "last_rank": 54134,
        "player_name": "Adam Crooks",
        "rank": 58464,
        "rank_sort": 58467,
        "total": 2347
      },
      {
        "club_badge_src": null,
        "entry": 105992,
        "entry_name": "Wirtz occurring",
        "event_total": 67,
        "has_played": true,
        "id": 691206,
        "last_rank": 70183,
        "player_name": "Richard Simpson",
        "rank": 58464,
        "rank_sort": 58468,
        "total": 2347
      },
      {
        "club_badge_src": "https://fantasy.premierleague.com/gcs/plfpl-production-adobe-approved/plfpl-production/119606/82aa5404-9a09-478a-82cd-a26b1bca404f.png",
        "entry": 119606,
        "entry_name": "Cunha dig it? Suckaa",
        "event_total": 66,
        "has_played": true,
        "id": 780356,
        "last_rank": 68216,
        "player_name": "Zach Paris",
        "rank": 58464,
        "rank_sort": 58469,
        "total": 2347
      },
      {
        "club_badge_src": null,
        "entry": 170410,
        "entry_name": "Cherki-ra Cherki-ra",
        "event_total": 67,
        "has_played": true,
        "id": 1125876,
        "last_rank": 70183,
        "player_name": "Jason Pook",
        "rank": 58464,
        "rank_sort": 58470,
        "total": 2347
      },
      {
        "club_badge_src": null,
        "entry": 216225,
        "entry_name": "Goventez 11",
        "event_total": 53,
        "has_played": true,
        "id": 1438098,
        "last_rank": 52522,
        "player_name": "Shannan Gove",
        "rank": 58464,
        "rank_sort": 58471,
        "total": 2347
      },
      {
        "club_badge_src": null,
        "entry": 249659,
        "entry_name": "Lads on Toure",
        "event_total": 60,
        "has_played": true,
        "id": 1661319,
        "last_rank": 64508,
        "player_name": "Ben Parkinson",
        "rank": 58464,
        "rank_sort": 58472,
        "total": 2347
      },
      {
        "club_badge_src": "https://fantasy.premierleague.com/gcs/plfpl-production-adobe-approved/plfpl-production/330978/0cac86a1-5c6d-4d11-a414-5d8f28cde5ba.png",
        "entry": 330978,
        "entry_name": "V\u00e4sterhaninge IF",
        "event_total": 67,
        "has_played": true,
        "id": 2216939,
        "last_rank": 78575,
        "player_name": "Joakim Binning",
        "rank": 58464,
        "rank_sort": 58473,
        "total": 2347
      },
      {
        "club_badge_src": null,
        "entry": 433295,
        "entry_name": "Real ApealableCheese",
        "event_total": 58,
        "has_played": true,
        "id": 2905786,
        "last_rank": 54065,
        "player_name": "Jack Taylor",
        "rank": 58464,
        "rank_sort": 58474,
        "total": 2347
      },
      {
        "club_badge_src": null,
        "entry": 455708,
        "entry_name": "callofduti",
        "event_total": 57,
        "has_played": true,
        "id": 3057245,
        "last_rank": 52461,
        "player_name": "Amar Dauti",
        "rank": 58464,
        "rank_sort": 58475,
        "total": 2347
      },
      {
        "club_badge_src": null,
        "entry": 489290,
        "entry_name": "Look Whos Top Again.",
        "event_total": 64,
        "has_played": true,
        "id": 3284718,
        "last_rank": 72145,
        "player_name": "Adam Storie",
        "rank": 58464,
        "rank_sort": 58476,
        "total": 2347
      },
      {
        "club_badge_src": null,
        "entry": 578430,
        "entry_name": "greenys11",
        "event_total": 50,
        "has_played": true,
        "id": 3892054,
        "last_rank": 47868,
        "player_name": "Jamie Green",
        "rank": 58464,
        "rank_sort": 58477,
        "total": 2347
      },
      {
        "club_badge_src": "https://fantasy.premierleague.com/gcs/plfpl-production-adobe-approved/plfpl-production/654317/93c38173-c6c2-46b6-9272-9462eb3727d5.png",
        "entry": 654317,
        "entry_name": "Yougotto Rohl withit",
        "event_total": 57,
        "has_played": true,
        "id": 4421874,
        "last_rank": 59170,
        "player_name": "Alan Russell",
        "rank": 58464,
        "rank_sort": 58478,
        "total": 2347
      },
      {
        "club_badge_src": null,
        "entry": 656773,
        "entry_name": "Akhtar Donetsk",
        "event_total": 50,
        "has_played": true,
        "id": 4438504,
        "last_rank": 47868,
        "player_name": "Bilal Akhtar",
        "rank": 58464,
        "rank_sort": 58479,
        "total": 2347
      },
      {
        "club_badge_src": null,
        "entry": 885581,
        "entry_name": "Super Stars \ufffd",
        "event_total": 70,
        "has_played": true,
        "id": 6073686,
        "last_rank": 76330,
        "player_name": "Ngoni Gunundu",
        "rank": 58464,
        "rank_sort": 58480,
        "total": 2347
      },
      {
        "club_badge_src": null,
        "entry": 939132,
        "entry_name": "Wirtzual Insanity",
        "event_total": 48,
        "has_played": true,
        "id": 6463657,
        "last_rank": 39585,
        "player_name": "Erik Hj\u00f8rnevik",
        "rank": 58464,
        "rank_sort": 58481,
        "total": 2347
      },
      {
        "club_badge_src": null,
        "entry": 1050717,
        "entry_name": "Mo salah",
        "event_total": 59,
        "has_played": true,
        "id": 7271629,
        "last_rank": 62812,
        "player_name": "Eslam Farouk",
        "rank": 58464,
        "rank_sort": 58482,
        "total": 2347
      },
      {
        "club_badge_src": null,
        "entry": 1065801,
        "entry_name": "How Dalot Can You Go",
        "event_total": 62,
        "has_played": true,
        "id": 7378278,
        "last_rank": 68216,
        "player_name": "Mark Ferrier",
        "rank": 58464,
        "rank_sort": 58483,
        "total": 2347
      },
      {
        "club_badge_src": null,
        "entry": 1096070,
        "entry_name": "Peps L\u00e4rljungar",
        "event_total": 58,
        "has_played": true,
        "id": 7591799,
        "last_rank": 47722,
        "player_name": "Liam Ivarsson",
        "rank": 58464,
        "rank_sort": 58484,
        "total": 2347
      },
      {
        "club_badge_src": null,
        "entry": 1105003,
        "entry_name": "Frimpong Ping Pong",
        "event_total": 60,
        "has_played": true,
        "id": 7654025,
        "last_rank": 57451,
        "player_name": "Alex Carson",
        "rank": 58464,
        "rank_sort": 58485,
        "total": 2347
      },
      {
        "club_badge_src": "https://fantasy.premierleague.com/gcs/plfpl-production-adobe-approved/plfpl-production/1193435/dc1a2161-da5c-4840-9fd6-f2bffb0c9b03.png",
        "entry": 1193435,
        "entry_name": "Shinniy Arsenal",
        "event_total": 47,
        "has_played": true,
        "id": 8280489,
        "last_rank": 43570,
        "player_name": "Alexander Kukin",
        "rank": 58464,
        "rank_sort": 58486,
        "total": 2347
      },
      {
        "club_badge_src": null,
        "entry": 1199755,
        "entry_name": "Pole Calmer",
        "event_total": 46,
        "has_played": true,
        "id": 8325669,
        "last_rank": 42225,
        "player_name": "Jack Smith",
        "rank": 58464,
        "rank_sort": 58487,
        "total": 2347
      },
      {
        "club_badge_src": null,
        "entry": 1338171,
        "entry_name": "Palmer Violets",
        "event_total": 44,
        "has_played": true,
        "id": 9303839,
        "last_rank": 39650,
        "player_name": "Ben Harrison",
        "rank": 58464,
        "rank_sort": 58488,
        "total": 2347
      },
      {
        "club_badge_src": null,
        "entry": 1356470,
        "entry_name": "usak",
        "event_total": 46,
        "has_played": true,
        "id": 9429178,
        "last_rank": 37134,
        "player_name": "Rishi Kumar",
        "rank": 58464,
        "rank_sort": 58489,
        "total": 2347
      },
      {
        "club_badge_src": "https://fantasy.premierleague.com/gcs/plfpl-production-adobe-approved/plfpl-production/1419111/4e9e30e1-e642-4e41-85a9-d01307c1e6eb.png",
        "entry": 1419111,
        "entry_name": "Kinder Mbuemo",
        "event_total": 65,
        "has_played": true,
        "id": 9880771,
        "last_rank": 74395,
        "player_name": "Oisin Kelly",
        "rank": 58464,
        "rank_sort": 58490,
        "total": 2347
      },
      {
        "club_badge_src": null,
        "entry": 1514179,
        "entry_name": "GAZZA",
        "event_total": 65,
        "has_played": true,
        "id": 10560856,
        "last_rank": 74395,
        "player_name": "Gary Stephenson",
        "rank": 58464,
        "rank_sort": 58491,
        "total": 2347
      },
      {
        "club_badge_src": null,
        "entry": 1604719,
        "entry_name": "Pieaters3000",
        "event_total": 79,
        "has_played": true,
        "id": 11226870,
        "last_rank": 97470,
        "player_name": "Mark Hutchinson",
        "rank": 58464,
        "rank_sort": 58492,
        "total": 2347
      },
      {
        "club_badge_src": null,
        "entry": 1622344,
        "entry_name": "Webstars",
        "event_total": 67,
        "has_played": true,
        "id": 11354292,
        "last_rank": 70183,
        "player_name": "Jack Webster",
        "rank": 58464,
        "rank_sort": 58493,
        "total": 2347
      },
      {
        "club_badge_src": null,
        "entry": 1697398,
        "entry_name": "Simmons' XI",
        "event_total": 65,
        "has_played": true,
        "id": 11888934,
        "last_rank": 74395,
        "player_name": "Michael Simmons",
        "rank": 58464,
        "rank_sort": 58494,
        "total": 2347
      },
      {
        "club_badge_src": null,
        "entry": 1700697,
        "entry_name": "harbor butcher",
        "event_total": 69,
        "has_played": true,
        "id": 11913050,
        "last_rank": 83018,
        "player_name": "Nshuti Brilliant",
        "rank": 58464,
        "rank_sort": 58495,
        "total": 2347
      },
      {
        "club_badge_src": null,
        "entry": 1758656,
        "entry_name": "Tee Carrick",
        "event_total": 60,
        "has_played": true,
        "id": 12347203,
        "last_rank": 64508,
        "player_name": "Peter Tee",
        "rank": 58464,
        "rank_sort": 58496,
        "total": 2347
      },
      {
        "club_badge_src": null,
        "entry": 1875977,
        "entry_name": "Mamee",
        "event_total": 56,
        "has_played": true,
        "id": 13208625,
        "last_rank": 57451,
        "player_name": "Fahmi Akmal",
        "rank": 58464,
        "rank_sort": 58497,
        "total": 2347
      },
      {
        "club_badge_src": null,
        "entry": 1954828,
        "entry_name": "ASONATION FC",
        "event_total": 68,
        "has_played": true,
        "id": 13790081,
        "last_rank": 80877,
        "player_name": "Chiazagom Chukwunwike",
        "rank": 58464,
        "rank_sort": 58498,
        "total": 2347
      },
      {
        "club_badge_src": null,
        "entry": 2454195,
        "entry_name": "Sorry Miss Jackson",
        "event_total": 75,
        "has_played": true,
        "id": 17553690,
        "last_rank": 97470,
        "player_name": "Daiyaan Kabir",
        "rank": 58464,
        "rank_sort": 58499,
        "total": 2347
      },
      {
        "club_badge_src": null,
        "entry": 2564505,
        "entry_name": "Luffy mogiwara",
        "event_total": 59,
        "has_played": true,
        "id": 18394814,
        "last_rank": 49207,
        "player_name": "free Palestine----",
        "rank": 58464,
        "rank_sort": 58500,
        "total": 2347
      }
    ]
  }
}