{
  "last_updated_data": "2026-05-24T23:28:17Z",
  "league": {
    "admin_entry": null,
    "closed": false,
    "code_privacy": "p",
    "created": "2025-07-20T23:14:33.933835Z",
    "cup_league": 2815434,
    "has_cup": true,
    "id": 314,
    "league_type": "s",
    "max_entries": null,
    "name": "Overall",
    "rank": null,
    "scoring": "c",
    "start_event": 1
  },
  "new_entries": {
    "has_next": false,
    "page": 1,
    "results": []
  },
  "standings": {
    "has_next": true,
    "page": 1403,
    "results": [
      {
        "club_badge_src": null,
        "entry": 85130,
        "entry_name": "labewbew",
        "event_total": 65,
        "has_played": true,
        "id": 554332,
        "last_rank": 79431,
        "player_name": "Woo Qi Rui",
        "rank": 70078,
        "rank_sort": 70101,
        "total": 2340
      },
      {
        "club_badge_src": "https://fantasy.premierleague.com/gcs/plfpl-production-adobe-approved/plfpl-production/92880/39ff2813-f23f-42ec-9f72-59644d4c054b.png",
        "entry": 92880,
        "entry_name": "Hlubi",
        "event_total": 52,
        "has_played": true,
        "id": 606959,
        "last_rank": 54667,
        "player_name": "Teboho Mat\u0161umunyane",
        "rank": 70078,
        "rank_sort": 70102,
        "total": 2340
      },
      {
        "club_badge_src": null,
        "entry": 109756,
        "entry_name": "FC Ghormesabzi",
        "event_total": 50,
        "has_played": true,
        "id": 715693,
        "last_rank": 57857,
        "player_name": "Oscar Odenstedt",
        "rank": 70078,
        "rank_sort": 70103,
        "total": 2340
      },
      {
        "club_badge_src": "https://fantasy.premierleague.com/gcs/plfpl-production-adobe-approved/plfpl-production/110211/3a90eaf0-d0ec-487d-bf46-b191b347665a.png",
        "entry": 110211,
        "entry_name": "Harry Chicane",
        "event_total": 60,
        "has_played": true,
        "id": 718761,
        "last_rank": 68957,
        "player_name": "Kovendan Raman",
        "rank": 70078,
        "rank_sort": 70104,
        "total": 2340
      },
      {
        "club_badge_src": null,
        "entry": 110845,
        "entry_name": "Could be Wirtz",
        "event_total": 48,
        "has_played": true,
        "id": 722857,
        "last_rank": 54494,
        "player_name": "Ravish Lamabadu",
        "rank": 70078,
        "rank_sort": 70105,
        "total": 2340
      },
      {
        "club_badge_src": null,
        "entry": 115551,
        "entry_name": "JCFC",
        "event_total": 39,
        "has_played": true,
        "id": 754151,
        "last_rank": 36348,
        "player_name": "James Coupland",
        "rank": 70078,
        "rank_sort": 70106,
        "total": 2340
      },
      {
        "club_badge_src": null,
        "entry": 118203,
        "entry_name": "Gana Win it All",
        "event_total": 61,
        "has_played": true,
        "id": 771446,
        "last_rank": 79817,
        "player_name": "Henry Meese",
        "rank": 70078,
        "rank_sort": 70107,
        "total": 2340
      },
      {
        "club_badge_src": null,
        "entry": 125148,
        "entry_name": "Road To Glory",
        "event_total": 58,
        "has_played": true,
        "id": 816226,
        "last_rank": 65163,
        "player_name": "Adham Kareem",
        "rank": 70078,
        "rank_sort": 70108,
        "total": 2340
      },
      {
        "club_badge_src": null,
        "entry": 127839,
        "entry_name": "Dont look bak Elanga",
        "event_total": 69,
        "has_played": true,
        "id": 833289,
        "last_rank": 98183,
        "player_name": "Kirstie Ford",
        "rank": 70078,
        "rank_sort": 70109,
        "total": 2340
      },
      {
        "club_badge_src": null,
        "entry": 132294,
        "entry_name": "Ciao Baby",
        "event_total": 60,
        "has_played": true,
        "id": 861811,
        "last_rank": 68957,
        "player_name": "Mal Bueno",
        "rank": 70078,
        "rank_sort": 70110,
        "total": 2340
      },
      {
        "club_badge_src": null,
        "entry": 146156,
        "entry_name": "DR TYLER DURDEN",
        "event_total": 70,
        "has_played": true,
        "id": 957401,
        "last_rank": 91006,
        "player_name": "Levente Somogyi",
        "rank": 70078,
        "rank_sort": 70111,
        "total": 2340
      },
      {
        "club_badge_src": null,
        "entry": 153048,
        "entry_name": "Howeabunga",
        "event_total": 57,
        "has_played": true,
        "id": 1004915,
        "last_rank": 70985,
        "player_name": "Robert Wilcox",
        "rank": 70078,
        "rank_sort": 70112,
        "total": 2340
      },
      {
        "club_badge_src": null,
        "entry": 158826,
        "entry_name": "LUDO FC",
        "event_total": 60,
        "has_played": true,
        "id": 1045194,
        "last_rank": 68957,
        "player_name": "Ch Kaihrii",
        "rank": 70078,
        "rank_sort": 70113,
        "total": 2340
      },
      {
        "club_badge_src": "https://fantasy.premierleague.com/gcs/plfpl-production-adobe-approved/plfpl-production/168974/716c65d1-497d-4696-ad41-4fd5d7420c60.png",
        "entry": 168974,
        "entry_name": "GRCFC1905",
        "event_total": 54,
        "has_played": true,
        "id": 1116723,
        "last_rank": 65163,
        "player_name": "Guillaume Rousseau",
        "rank": 70078,
        "rank_sort": 70114,
        "total": 2340
      },
      {
        "club_badge_src": null,
        "entry": 173594,
        "entry_name": "Liebe",
        "event_total": 39,
        "has_played": true,
        "id": 1146427,
        "last_rank": 41617,
        "player_name": "J\u00f3n Vi\u00f0ar \u00deorvaldsson",
        "rank": 70078,
        "rank_sort": 70115,
        "total": 2340
      },
      {
        "club_badge_src": null,
        "entry": 184983,
        "entry_name": "Auto-Pick Warriors",
        "event_total": 45,
        "has_played": true,
        "id": 1221700,
        "last_rank": 50199,
        "player_name": "Sumant Natkar",
        "rank": 70078,
        "rank_sort": 70116,
        "total": 2340
      },
      {
        "club_badge_src": null,
        "entry": 198788,
        "entry_name": "Crouch Potato",
        "event_total": 65,
        "has_played": true,
        "id": 1319213,
        "last_rank": 88249,
        "player_name": "Adam Barley",
        "rank": 70078,
        "rank_sort": 70117,
        "total": 2340
      },
      {
        "club_badge_src": null,
        "entry": 200392,
        "entry_name": "Rizespor",
        "event_total": 71,
        "has_played": true,
        "id": 1330298,
        "last_rank": 103526,
        "player_name": "Mouad Aderraz",
        "rank": 70078,
        "rank_sort": 70118,
        "total": 2340
      },
      {
        "club_badge_src": null,
        "entry": 214596,
        "entry_name": "Calafiori Calamari",
        "event_total": 67,
        "has_played": true,
        "id": 1427535,
        "last_rank": 93883,
        "player_name": "Sean Chan",
        "rank": 70078,
        "rank_sort": 70119,
        "total": 2340
      },
      {
        "club_badge_src": "https://fantasy.premierleague.com/gcs/plfpl-production-adobe-approved/plfpl-production/233932/3da513f1-aa13-420a-b768-b721c44f9b9e.png",
        "entry": 233932,
        "entry_name": "relentless",
        "event_total": 61,
        "has_played": true,
        "id": 1556621,
        "last_rank": 79817,
        "player_name": "Frank Mellish",
        "rank": 70078,
        "rank_sort": 70120,
        "total": 2340
      },
      {
        "club_badge_src": null,
        "entry": 250873,
        "entry_name": "Boaler FC",
        "event_total": 57,
        "has_played": true,
        "id": 1669091,
        "last_rank": 71386,
        "player_name": "jack boal",
        "rank": 70078,
        "rank_sort": 70121,
        "total": 2340
      },
      {
        "club_badge_src": null,
        "entry": 251288,
        "entry_name": "wirtz nightmare",
        "event_total": 74,
        "has_played": true,
        "id": 1671778,
        "last_rank": 112169,
        "player_name": "Will Fitzgerald",
        "rank": 70078,
        "rank_sort": 70122,
        "total": 2340
      },
      {
        "club_badge_src": "https://fantasy.premierleague.com/gcs/plfpl-production-adobe-approved/plfpl-production/253763/56f23624-4eb3-4b2f-a5a7-fa543c3d90d0.png",
        "entry": 253763,
        "entry_name": "Folly FC",
        "event_total": 59,
        "has_played": true,
        "id": 1687954,
        "last_rank": 67063,
        "player_name": "Mohamed Rafik",
        "rank": 70078,
        "rank_sort": 70123,
        "total": 2340
      },
      {
        "club_badge_src": null,
        "entry": 280040,
        "entry_name": "aTeamOfGaryBreens",
        "event_total": 68,
        "has_played": true,
        "id": 1863749,
        "last_rank": 86054,
        "player_name": "Kevin Kennedy",
        "rank": 70078,
        "rank_sort": 70124,
        "total": 2340
      },
      {
        "club_badge_src": null,
        "entry": 290561,
        "entry_name": "Leitrim Villa",
        "event_total": 60,
        "has_played": true,
        "id": 1937572,
        "last_rank": 77050,
        "player_name": "Milo Blake",
        "rank": 70078,
        "rank_sort": 70125,
        "total": 2340
      },
      {
        "club_badge_src": null,
        "entry": 295106,
        "entry_name": "Woolley FC",
        "event_total": 62,
        "has_played": true,
        "id": 1970876,
        "last_rank": 81244,
        "player_name": "Luke Woolley",
        "rank": 70078,
        "rank_sort": 70126,
        "total": 2340
      },
      {
        "club_badge_src": "https://fantasy.premierleague.com/gcs/plfpl-production-adobe-approved/plfpl-production/337841/66e122c1-cbf7-4a4d-acd6-15eea346440e.png",
        "entry": 337841,
        "entry_name": "Chippy Chips",
        "event_total": 45,
        "has_played": true,
        "id": 2261752,
        "last_rank": 50199,
        "player_name": "Harry Hilditch",
        "rank": 70078,
        "rank_sort": 70127,
        "total": 2340
      },
      {
        "club_badge_src": null,
        "entry": 343913,
        "entry_name": "Here Fishy Fishy",
        "event_total": 57,
        "has_played": true,
        "id": 2301660,
        "last_rank": 71386,
        "player_name": "Tom Hammond",
        "rank": 70078,
        "rank_sort": 70128,
        "total": 2340
      },
      {
        "club_badge_src": null,
        "entry": 406104,
        "entry_name": "SIR . NAWAF ALSAWAGH",
        "event_total": 38,
        "has_played": true,
        "id": 2722880,
        "last_rank": 40503,
        "player_name": "Sir. NawaF ALSAWAGH",
        "rank": 70078,
        "rank_sort": 70129,
        "total": 2340
      },
      {
        "club_badge_src": null,
        "entry": 409835,
        "entry_name": "3MORA \u303d\ufe0f",
        "event_total": 59,
        "has_played": true,
        "id": 2748141,
        "last_rank": 67063,
        "player_name": "Omar Fathi",
        "rank": 70078,
        "rank_sort": 70130,
        "total": 2340
      },
      {
        "club_badge_src": null,
        "entry": 416793,
        "entry_name": "CincyGooner",
        "event_total": 56,
        "has_played": true,
        "id": 2793939,
        "last_rank": 69641,
        "player_name": "Eric Lilly",
        "rank": 70078,
        "rank_sort": 70131,
        "total": 2340
      },
      {
        "club_badge_src": null,
        "entry": 418545,
        "entry_name": "Guag AC",
        "event_total": 65,
        "has_played": true,
        "id": 2805345,
        "last_rank": 79431,
        "player_name": "Gustavo Aguiar",
        "rank": 70078,
        "rank_sort": 70132,
        "total": 2340
      },
      {
        "club_badge_src": null,
        "entry": 420380,
        "entry_name": "Stebbing Gooners",
        "event_total": 54,
        "has_played": true,
        "id": 2817361,
        "last_rank": 65475,
        "player_name": "Rob Matthews",
        "rank": 70078,
        "rank_sort": 70133,
        "total": 2340
      },
      {
        "club_badge_src": null,
        "entry": 427869,
        "entry_name": "Lallanas in Pyjamas",
        "event_total": 58,
        "has_played": true,
        "id": 2869712,
        "last_rank": 73423,
        "player_name": "Tom Dewsnap",
        "rank": 70078,
        "rank_sort": 70134,
        "total": 2340
      },
      {
        "club_badge_src": "https://fantasy.premierleague.com/gcs/plfpl-production-adobe-approved/plfpl-production/431139/ea97fdc7-38d4-49ae-a5d4-0099c3dfd277.png",
        "entry": 431139,
        "entry_name": "Daboda FC",
        "event_total": 65,
        "has_played": true,
        "id": 2891464,
        "last_rank": 79431,
        "player_name": "David Fjordland",
        "rank": 70078,
        "rank_sort": 70135,
        "total": 2340
      },
      {
        "club_badge_src": null,
        "entry": 446906,
        "entry_name": "Folkets Park Rangers",
        "event_total": 72,
        "has_played": true,
        "id": 2997644,
        "last_rank": 105963,
        "player_name": "David Laserna",
        "rank": 70078,
        "rank_sort": 70136,
        "total": 2340
      },
      {
        "club_badge_src": "https://fantasy.premierleague.com/gcs/plfpl-production-adobe-approved/plfpl-production/455135/392e86da-781a-4188-8b21-da0e02f4614c.png",
        "entry": 455135,
        "entry_name": "Encinitas Villans",
        "event_total": 75,
        "has_played": true,
        "id": 3053318,
        "last_rank": 114292,
        "player_name": "Sonny Chisholm",
        "rank": 70078,
        "rank_sort": 70137,
        "total": 2340
      },
      {
        "club_badge_src": null,
        "entry": 479913,
        "entry_name": "Tricky-Taka",
        "event_total": 66,
        "has_played": true,
        "id": 3222019,
        "last_rank": 91466,
        "player_name": "John Treacy",
        "rank": 70078,
        "rank_sort": 70138,
        "total": 2340
      },
      {
        "club_badge_src": null,
        "entry": 485983,
        "entry_name": "Liver Strike Z",
        "event_total": 76,
        "has_played": true,
        "id": 3262450,
        "last_rank": 117915,
        "player_name": "Strike Z",
        "rank": 70078,
        "rank_sort": 70139,
        "total": 2340
      },
      {
        "club_badge_src": "https://fantasy.premierleague.com/gcs/plfpl-production-adobe-approved/plfpl-production/497448/13fe08dc-3be3-4999-ab2d-477b94529675.png",
        "entry": 497448,
        "entry_name": "Burrito Brothers",
        "event_total": 44,
        "has_played": true,
        "id": 3338845,
        "last_rank": 48363,
        "player_name": "Robin Martinsson",
        "rank": 70078,
        "rank_sort": 70140,
        "total": 2340
      },
      {
        "club_badge_src": null,
        "entry": 498588,
        "entry_name": "Drillepindende",
        "event_total": 66,
        "has_played": true,
        "id": 3346348,
        "last_rank": 91466,
        "player_name": "Marcus Pilegaard",
        "rank": 70078,
        "rank_sort": 70141,
        "total": 2340
      },
      {
        "club_badge_src": "https://fantasy.premierleague.com/gcs/plfpl-production-adobe-approved/plfpl-production/514551/be30732e-405a-4a2b-b70f-4a3859a0f2ee.png",
        "entry": 514551,
        "entry_name": "FCGrassAvoider",
        "event_total": 70,
        "has_played": true,
        "id": 3454856,
        "last_rank": 100949,
        "player_name": "Nitish Solabannavar",
        "rank": 70078,
        "rank_sort": 70142,
        "total": 2340
      },
      {
        "club_badge_src": null,
        "entry": 525234,
        "entry_name": "Barny Rovers",
        "event_total": 72,
        "has_played": true,
        "id": 3529801,
        "last_rank": 106259,
        "player_name": "Dan Barnfather",
        "rank": 70078,
        "rank_sort": 70143,
        "total": 2340
      },
      {
        "club_badge_src": "https://fantasy.premierleague.com/gcs/plfpl-production-adobe-approved/plfpl-production/538481/6725bcba-be62-4669-845d-08b3cbf0f62a.png",
        "entry": 538481,
        "entry_name": "Hallie's Team",
        "event_total": 84,
        "has_played": true,
        "id": 3624717,
        "last_rank": 129043,
        "player_name": "Hallie Smith",
        "rank": 70078,
        "rank_sort": 70144,
        "total": 2340
      },
      {
        "club_badge_src": null,
        "entry": 544386,
        "entry_name": "Game's Gone FC",
        "event_total": 52,
        "has_played": true,
        "id": 3663690,
        "last_rank": 61950,
        "player_name": "Nathaniel Kershaw",
        "rank": 70078,
        "rank_sort": 70145,
        "total": 2340
      },
      {
        "club_badge_src": "https://fantasy.premierleague.com/gcs/plfpl-production-adobe-approved/plfpl-production/551193/e85c75cf-2055-4fcc-a8fd-e3c2b72b01ef.png",
        "entry": 551193,
        "entry_name": "Can\u2019t Feel My Faes",
        "event_total": 65,
        "has_played": true,
        "id": 3709978,
        "last_rank": 89055,
        "player_name": "Rainy -",
        "rank": 70078,
        "rank_sort": 70146,
        "total": 2340
      },
      {
        "club_badge_src": null,
        "entry": 553420,
        "entry_name": "Bhutan2025",
        "event_total": 47,
        "has_played": true,
        "id": 3724881,
        "last_rank": 53345,
        "player_name": "Dawa D",
        "rank": 70078,
        "rank_sort": 70147,
        "total": 2340
      },
      {
        "club_badge_src": null,
        "entry": 560954,
        "entry_name": "Rayan Air",
        "event_total": 54,
        "has_played": true,
        "id": 3775817,
        "last_rank": 64943,
        "player_name": "Finn Hargreaves",
        "rank": 70078,
        "rank_sort": 70148,
        "total": 2340
      },
      {
        "club_badge_src": null,
        "entry": 562622,
        "entry_name": "Karim His Pants",
        "event_total": 77,
        "has_played": true,
        "id": 3786982,
        "last_rank": 120438,
        "player_name": "Jake Lafferty",
        "rank": 70078,
        "rank_sort": 70149,
        "total": 2340
      },
      {
        "club_badge_src": null,
        "entry": 572551,
        "entry_name": "Hany Fc",
        "event_total": 61,
        "has_played": true,
        "id": 3853336,
        "last_rank": 79817,
        "player_name": "Ahmed Hany",
        "rank": 70078,
        "rank_sort": 70150,
        "total": 2340
      }
    ]
  }
}