{
  "last_updated_data": "2026-05-24T23:28:17Z",
  "league": {
    "admin_entry": null,
    "closed": false,
    "code_privacy": "p",
    "created": "2025-07-20T23:14:33.933835Z",
    "cup_league": 2815434,
    "has_cup": true,
    "id": 314,
    "league_type": "s",
    "max_entries": null,
    "name": "Overall",
    "rank": null,
    "scoring": "c",
    "start_event": 1
  },
  "new_entries": {
    "has_next": false,
    "page": 1,
    "results": []
  },
  "standings": {
    "has_next": true,
    "page": 70,
    "results": [
      {
        "club_badge_src": null,
        "entry": 379163,
        "entry_name": "Pole Calmer",
        "event_total": 68,
        "has_played": true,
        "id": 2540434,
        "last_rank": 5281,
        "player_name": "Bhavik Vora",
        "rank": 3445,
        "rank_sort": 3451,
        "total": 2423
      },
      {
        "club_badge_src": null,
        "entry": 1606992,
        "entry_name": "Stiff Chocolate",
        "event_total": 65,
        "has_played": true,
        "id": 11243262,
        "last_rank": 4615,
        "player_name": "Michael Gough",
        "rank": 3445,
        "rank_sort": 3452,
        "total": 2423
      },
      {
        "club_badge_src": null,
        "entry": 2193038,
        "entry_name": "How I Met Your Mata",
        "event_total": 59,
        "has_played": true,
        "id": 15603021,
        "last_rank": 3462,
        "player_name": "Chris Ze",
        "rank": 3445,
        "rank_sort": 3453,
        "total": 2423
      },
      {
        "club_badge_src": null,
        "entry": 2305232,
        "entry_name": "Lazenby Legends",
        "event_total": 60,
        "has_played": true,
        "id": 16442518,
        "last_rank": 3627,
        "player_name": "Mark Lazenby",
        "rank": 3445,
        "rank_sort": 3454,
        "total": 2423
      },
      {
        "club_badge_src": null,
        "entry": 2923557,
        "entry_name": "Cunha's Red Devils",
        "event_total": 61,
        "has_played": true,
        "id": 21432184,
        "last_rank": 3150,
        "player_name": "Michael Powell",
        "rank": 3445,
        "rank_sort": 3455,
        "total": 2423
      },
      {
        "club_badge_src": "https://fantasy.premierleague.com/gcs/plfpl-production-adobe-approved/plfpl-production/2966332/0c67855f-6601-4910-b7e0-0d9e6764166c.png",
        "entry": 2966332,
        "entry_name": "MILAN",
        "event_total": 72,
        "has_played": true,
        "id": 21792680,
        "last_rank": 6305,
        "player_name": "HOGR AZAD",
        "rank": 3445,
        "rank_sort": 3456,
        "total": 2423
      },
      {
        "club_badge_src": null,
        "entry": 3029818,
        "entry_name": "Atfletchico Madrid",
        "event_total": 63,
        "has_played": true,
        "id": 22294403,
        "last_rank": 4186,
        "player_name": "Ross Fletcher",
        "rank": 3445,
        "rank_sort": 3457,
        "total": 2423
      },
      {
        "club_badge_src": null,
        "entry": 3423361,
        "entry_name": "Backstreet Moyes",
        "event_total": 60,
        "has_played": true,
        "id": 25429283,
        "last_rank": 3627,
        "player_name": "Atharva Deshpande",
        "rank": 3445,
        "rank_sort": 3458,
        "total": 2423
      },
      {
        "club_badge_src": null,
        "entry": 3563083,
        "entry_name": "The Golden Ange",
        "event_total": 52,
        "has_played": true,
        "id": 26529681,
        "last_rank": 1294,
        "player_name": "Wian van Zyl",
        "rank": 3445,
        "rank_sort": 3459,
        "total": 2423
      },
      {
        "club_badge_src": null,
        "entry": 4699763,
        "entry_name": "Talbi007",
        "event_total": 62,
        "has_played": true,
        "id": 36028564,
        "last_rank": 3302,
        "player_name": "med Talbi",
        "rank": 3445,
        "rank_sort": 3460,
        "total": 2423
      },
      {
        "club_badge_src": null,
        "entry": 4859229,
        "entry_name": "Earth Wind & Maguire",
        "event_total": 60,
        "has_played": true,
        "id": 37444687,
        "last_rank": 2977,
        "player_name": "Tom Whelan",
        "rank": 3445,
        "rank_sort": 3461,
        "total": 2423
      },
      {
        "club_badge_src": null,
        "entry": 6513988,
        "entry_name": "Gajah atas pokok",
        "event_total": 75,
        "has_played": true,
        "id": 51946316,
        "last_rank": 7193,
        "player_name": "Arjan Wenger",
        "rank": 3445,
        "rank_sort": 3462,
        "total": 2423
      },
      {
        "club_badge_src": null,
        "entry": 6564049,
        "entry_name": "Onyx FC",
        "event_total": 66,
        "has_played": true,
        "id": 52392208,
        "last_rank": 3951,
        "player_name": "Ebinyasi Onyinyechi",
        "rank": 3445,
        "rank_sort": 3463,
        "total": 2423
      },
      {
        "club_badge_src": null,
        "entry": 6619087,
        "entry_name": "M.KAY CFC",
        "event_total": 69,
        "has_played": true,
        "id": 52891946,
        "last_rank": 5528,
        "player_name": "Mukhtar Kama",
        "rank": 3445,
        "rank_sort": 3464,
        "total": 2423
      },
      {
        "club_badge_src": null,
        "entry": 7077085,
        "entry_name": "Net Six & chill",
        "event_total": 68,
        "has_played": true,
        "id": 56956173,
        "last_rank": 5173,
        "player_name": "Patrick Quigley",
        "rank": 3445,
        "rank_sort": 3465,
        "total": 2423
      },
      {
        "club_badge_src": null,
        "entry": 7083259,
        "entry_name": "Kante Be Serious",
        "event_total": 51,
        "has_played": true,
        "id": 57017557,
        "last_rank": 2355,
        "player_name": "Abhimanyu Sharma",
        "rank": 3445,
        "rank_sort": 3466,
        "total": 2423
      },
      {
        "club_badge_src": null,
        "entry": 7257787,
        "entry_name": "Pote",
        "event_total": 62,
        "has_played": true,
        "id": 58679520,
        "last_rank": 3951,
        "player_name": "Pedro Pote",
        "rank": 3445,
        "rank_sort": 3467,
        "total": 2423
      },
      {
        "club_badge_src": null,
        "entry": 7546875,
        "entry_name": "Last Minute Winner",
        "event_total": 69,
        "has_played": true,
        "id": 61784092,
        "last_rank": 5498,
        "player_name": "Ahmad AlSafi",
        "rank": 3445,
        "rank_sort": 3468,
        "total": 2423
      },
      {
        "club_badge_src": null,
        "entry": 8473548,
        "entry_name": "ThisIsIt",
        "event_total": 66,
        "has_played": true,
        "id": 70378583,
        "last_rank": 4804,
        "player_name": "Lorenzo Frankel",
        "rank": 3445,
        "rank_sort": 3469,
        "total": 2423
      },
      {
        "club_badge_src": null,
        "entry": 9286699,
        "entry_name": "RijakFTW",
        "event_total": 73,
        "has_played": true,
        "id": 78281298,
        "last_rank": 6448,
        "player_name": "Rijak Khanuja",
        "rank": 3445,
        "rank_sort": 3470,
        "total": 2423
      },
      {
        "club_badge_src": "https://fantasy.premierleague.com/gcs/plfpl-production-adobe-approved/plfpl-production/296005/f3951e00-cdd7-4653-af2c-2d8bfc6e1847.png",
        "entry": 296005,
        "entry_name": "Aston Villa BB",
        "event_total": 72,
        "has_played": true,
        "id": 1977454,
        "last_rank": 5281,
        "player_name": "\u0141ukasz Muzyka",
        "rank": 3471,
        "rank_sort": 3471,
        "total": 2423
      },
      {
        "club_badge_src": "https://fantasy.premierleague.com/gcs/plfpl-production-adobe-approved/plfpl-production/380867/816fb033-bd3b-4bae-9118-f991ccfa6b15.png",
        "entry": 380867,
        "entry_name": "Left 4 Djed",
        "event_total": 54,
        "has_played": true,
        "id": 2552867,
        "last_rank": 2235,
        "player_name": "Zane Liles",
        "rank": 3471,
        "rank_sort": 3472,
        "total": 2423
      },
      {
        "club_badge_src": "https://fantasy.premierleague.com/gcs/plfpl-production-adobe-approved/plfpl-production/632684/810b0af9-6a96-4ef0-9796-c896aa5b3a14.png",
        "entry": 632684,
        "entry_name": "Huracan Laughter",
        "event_total": 75,
        "has_played": true,
        "id": 4275023,
        "last_rank": 7193,
        "player_name": "Joe Plewes",
        "rank": 3471,
        "rank_sort": 3473,
        "total": 2423
      },
      {
        "club_badge_src": null,
        "entry": 868075,
        "entry_name": "BullsEye",
        "event_total": 64,
        "has_played": true,
        "id": 5951300,
        "last_rank": 3627,
        "player_name": "Kunal Thakwani",
        "rank": 3471,
        "rank_sort": 3474,
        "total": 2423
      },
      {
        "club_badge_src": null,
        "entry": 1587029,
        "entry_name": "Fc Kaffinho",
        "event_total": 48,
        "has_played": true,
        "id": 11094909,
        "last_rank": 2033,
        "player_name": "Dominique Sourbron",
        "rank": 3471,
        "rank_sort": 3475,
        "total": 2423
      },
      {
        "club_badge_src": null,
        "entry": 1641202,
        "entry_name": "Galacticos",
        "event_total": 67,
        "has_played": true,
        "id": 11488494,
        "last_rank": 5053,
        "player_name": "Barry MacKellaich",
        "rank": 3471,
        "rank_sort": 3476,
        "total": 2423
      },
      {
        "club_badge_src": null,
        "entry": 1851641,
        "entry_name": "ABDELLAOUI Hicham",
        "event_total": 69,
        "has_played": true,
        "id": 13029513,
        "last_rank": 3765,
        "player_name": "Hicham Abdellaoui",
        "rank": 3471,
        "rank_sort": 3477,
        "total": 2423
      },
      {
        "club_badge_src": null,
        "entry": 4185214,
        "entry_name": "NetBusters FC",
        "event_total": 51,
        "has_played": true,
        "id": 31666277,
        "last_rank": 2355,
        "player_name": "Prithvi Amin",
        "rank": 3471,
        "rank_sort": 3478,
        "total": 2423
      },
      {
        "club_badge_src": null,
        "entry": 4847656,
        "entry_name": "Top of the Klopps",
        "event_total": 61,
        "has_played": true,
        "id": 37346657,
        "last_rank": 3150,
        "player_name": "Harry Parker",
        "rank": 3471,
        "rank_sort": 3479,
        "total": 2423
      },
      {
        "club_badge_src": null,
        "entry": 5229629,
        "entry_name": "Gvardiolsofthegalaxy",
        "event_total": 43,
        "has_played": true,
        "id": 40523717,
        "last_rank": 1563,
        "player_name": "H\u00e5vard Jendal",
        "rank": 3471,
        "rank_sort": 3480,
        "total": 2423
      },
      {
        "club_badge_src": null,
        "entry": 377515,
        "entry_name": "Haven't a Kulu",
        "event_total": 75,
        "has_played": true,
        "id": 2528865,
        "last_rank": 6061,
        "player_name": "David Herring",
        "rank": 3481,
        "rank_sort": 3481,
        "total": 2423
      },
      {
        "club_badge_src": null,
        "entry": 575699,
        "entry_name": "Howe the Hecke Ajer",
        "event_total": 46,
        "has_played": true,
        "id": 3874062,
        "last_rank": 1825,
        "player_name": "Daniel Simmons",
        "rank": 3481,
        "rank_sort": 3482,
        "total": 2423
      },
      {
        "club_badge_src": "https://fantasy.premierleague.com/gcs/plfpl-production-adobe-approved/plfpl-production/965457/6ed18f94-ae58-405f-8e68-423a13089dcb.png",
        "entry": 965457,
        "entry_name": "Sparta F.C.",
        "event_total": 59,
        "has_played": true,
        "id": 6653821,
        "last_rank": 2907,
        "player_name": "Matt Spiller",
        "rank": 3481,
        "rank_sort": 3483,
        "total": 2423
      },
      {
        "club_badge_src": "https://fantasy.premierleague.com/gcs/plfpl-production-adobe-approved/plfpl-production/1046053/0882a7e0-0c82-4c8b-8e7d-137040f8e758.png",
        "entry": 1046053,
        "entry_name": "Chris K. FC",
        "event_total": 58,
        "has_played": true,
        "id": 7239381,
        "last_rank": 3350,
        "player_name": "Christophoros Kyriakides",
        "rank": 3481,
        "rank_sort": 3484,
        "total": 2423
      },
      {
        "club_badge_src": null,
        "entry": 1444547,
        "entry_name": "Sekiro",
        "event_total": 67,
        "has_played": true,
        "id": 10065865,
        "last_rank": 5092,
        "player_name": "Mohammed Osman",
        "rank": 3481,
        "rank_sort": 3485,
        "total": 2423
      },
      {
        "club_badge_src": null,
        "entry": 7091184,
        "entry_name": "Sch\u00e4rley Bassey",
        "event_total": 48,
        "has_played": true,
        "id": 57092464,
        "last_rank": 1330,
        "player_name": "Steven Grindlay",
        "rank": 3481,
        "rank_sort": 3486,
        "total": 2423
      },
      {
        "club_badge_src": null,
        "entry": 8091824,
        "entry_name": "Wan Be Saka",
        "event_total": 84,
        "has_played": true,
        "id": 66724814,
        "last_rank": 7501,
        "player_name": "Eugenia Sowidzka",
        "rank": 3481,
        "rank_sort": 3487,
        "total": 2423
      },
      {
        "club_badge_src": "https://fantasy.premierleague.com/gcs/plfpl-production-adobe-approved/plfpl-production/59303/a956a207-86e0-42bc-ad38-1046391b738a.png",
        "entry": 59303,
        "entry_name": "Kalamarnice",
        "event_total": 66,
        "has_played": true,
        "id": 381939,
        "last_rank": 4889,
        "player_name": "Robert Najwer",
        "rank": 3488,
        "rank_sort": 3488,
        "total": 2423
      },
      {
        "club_badge_src": "https://fantasy.premierleague.com/gcs/plfpl-production-adobe-approved/plfpl-production/423513/a196402f-2d33-4bec-a562-ac17a508d7dd.png",
        "entry": 423513,
        "entry_name": "40 year old virgil",
        "event_total": 58,
        "has_played": true,
        "id": 2838196,
        "last_rank": 3362,
        "player_name": "Paul Greig",
        "rank": 3488,
        "rank_sort": 3489,
        "total": 2423
      },
      {
        "club_badge_src": null,
        "entry": 2504425,
        "entry_name": "FredeGuard of Honour",
        "event_total": 67,
        "has_played": true,
        "id": 17934459,
        "last_rank": 3473,
        "player_name": "Frederik Birkedal",
        "rank": 3488,
        "rank_sort": 3490,
        "total": 2423
      },
      {
        "club_badge_src": null,
        "entry": 6219388,
        "entry_name": "Iniestas mormor",
        "event_total": 66,
        "has_played": true,
        "id": 49211546,
        "last_rank": 4015,
        "player_name": "Savvas Eleftheriadis",
        "rank": 3488,
        "rank_sort": 3491,
        "total": 2423
      },
      {
        "club_badge_src": "https://fantasy.premierleague.com/gcs/plfpl-production-adobe-approved/plfpl-production/61611/6801472a-e687-4847-a4e3-fc6e73a11154.png",
        "entry": 61611,
        "entry_name": "#1Goon\u2b50\ufe0f\u2b50\ufe0f\u2b50\u2b50\ufe0f\u2b50\ufe0f\u2b50\ufe0f\u2b50\ufe0f\u2b50",
        "event_total": 72,
        "has_played": true,
        "id": 396851,
        "last_rank": 5348,
        "player_name": "Mark McGrath",
        "rank": 3492,
        "rank_sort": 3492,
        "total": 2423
      },
      {
        "club_badge_src": "https://fantasy.premierleague.com/gcs/plfpl-production-adobe-approved/plfpl-production/178600/25bc5b26-add9-4eac-9eef-bbdcbabce49b.png",
        "entry": 178600,
        "entry_name": "iceberg",
        "event_total": 61,
        "has_played": true,
        "id": 1178723,
        "last_rank": 3210,
        "player_name": "Devesh Jhalani",
        "rank": 3492,
        "rank_sort": 3493,
        "total": 2423
      },
      {
        "club_badge_src": null,
        "entry": 511339,
        "entry_name": "Kinder Mbeumo",
        "event_total": 60,
        "has_played": true,
        "id": 3433720,
        "last_rank": 3042,
        "player_name": "Tom Gould",
        "rank": 3492,
        "rank_sort": 3494,
        "total": 2423
      },
      {
        "club_badge_src": "https://fantasy.premierleague.com/gcs/plfpl-production-adobe-approved/plfpl-production/1011501/79124da0-a1b6-4541-bba5-536a8edb0f23.png",
        "entry": 1011501,
        "entry_name": "Laneni",
        "event_total": 60,
        "has_played": true,
        "id": 6996563,
        "last_rank": 3670,
        "player_name": "Milan Mihajlovic",
        "rank": 3492,
        "rank_sort": 3495,
        "total": 2423
      },
      {
        "club_badge_src": null,
        "entry": 1582891,
        "entry_name": "Dons Kings",
        "event_total": 57,
        "has_played": true,
        "id": 11062323,
        "last_rank": 2638,
        "player_name": "Don Axtell",
        "rank": 3492,
        "rank_sort": 3496,
        "total": 2423
      },
      {
        "club_badge_src": null,
        "entry": 2447601,
        "entry_name": "King Ronnie fc",
        "event_total": 59,
        "has_played": true,
        "id": 17505458,
        "last_rank": 3502,
        "player_name": "Jason Cooper",
        "rank": 3492,
        "rank_sort": 3497,
        "total": 2423
      },
      {
        "club_badge_src": null,
        "entry": 86440,
        "entry_name": "UNDEVIGINTI",
        "event_total": 74,
        "has_played": true,
        "id": 563325,
        "last_rank": 5865,
        "player_name": "Carl Maestro",
        "rank": 3498,
        "rank_sort": 3498,
        "total": 2423
      },
      {
        "club_badge_src": null,
        "entry": 33168,
        "entry_name": "Bumble Bee",
        "event_total": 80,
        "has_played": true,
        "id": 211411,
        "last_rank": 9051,
        "player_name": "Aidid Bazli",
        "rank": 3499,
        "rank_sort": 3499,
        "total": 2423
      },
      {
        "club_badge_src": null,
        "entry": 47633,
        "entry_name": "Isla Sorna Jurassics",
        "event_total": 75,
        "has_played": true,
        "id": 305614,
        "last_rank": 5105,
        "player_name": "Vincent Jurassic",
        "rank": 3499,
        "rank_sort": 3500,
        "total": 2423
      }
    ]
  }
}