{
  "last_updated_data": "2026-05-24T23:28:17Z",
  "league": {
    "admin_entry": null,
    "closed": false,
    "code_privacy": "p",
    "created": "2025-07-20T23:14:33.933835Z",
    "cup_league": 2815434,
    "has_cup": true,
    "id": 314,
    "league_type": "s",
    "max_entries": null,
    "name": "Overall",
    "rank": null,
    "scoring": "c",
    "start_event": 1
  },
  "new_entries": {
    "has_next": false,
    "page": 1,
    "results": []
  },
  "standings": {
    "has_next": true,
    "page": 1189,
    "results": [
      {
        "club_badge_src": null,
        "entry": 2036064,
        "entry_name": "Hall Park Magpies",
        "event_total": 62,
        "has_played": true,
        "id": 14416343,
        "last_rank": 69323,
        "player_name": "Martin Smith",
        "rank": 59248,
        "rank_sort": 59401,
        "total": 2346
      },
      {
        "club_badge_src": null,
        "entry": 2104931,
        "entry_name": "AA Team",
        "event_total": 67,
        "has_played": true,
        "id": 14937765,
        "last_rank": 79817,
        "player_name": "Tariq Kabosh",
        "rank": 59248,
        "rank_sort": 59402,
        "total": 2346
      },
      {
        "club_badge_src": null,
        "entry": 2142469,
        "entry_name": "Hamdy ali",
        "event_total": 65,
        "has_played": true,
        "id": 15227054,
        "last_rank": 75537,
        "player_name": "Hamdy Ali",
        "rank": 59248,
        "rank_sort": 59403,
        "total": 2346
      },
      {
        "club_badge_src": null,
        "entry": 2203658,
        "entry_name": "2nd PlaceIsA Trophy",
        "event_total": 42,
        "has_played": true,
        "id": 15682704,
        "last_rank": 37822,
        "player_name": "Josh Micklethwait",
        "rank": 59248,
        "rank_sort": 59404,
        "total": 2346
      },
      {
        "club_badge_src": null,
        "entry": 2218624,
        "entry_name": "ottos 11",
        "event_total": 64,
        "has_played": true,
        "id": 15801057,
        "last_rank": 73423,
        "player_name": "Julian Wilkinson",
        "rank": 59248,
        "rank_sort": 59405,
        "total": 2346
      },
      {
        "club_badge_src": null,
        "entry": 2224375,
        "entry_name": "Grandma\u2019I0",
        "event_total": 51,
        "has_played": true,
        "id": 15844143,
        "last_rank": 50199,
        "player_name": "Yuttana Kaewsai",
        "rank": 59248,
        "rank_sort": 59406,
        "total": 2346
      },
      {
        "club_badge_src": null,
        "entry": 2226063,
        "entry_name": "Odegaardeners World",
        "event_total": 66,
        "has_played": true,
        "id": 15856560,
        "last_rank": 77676,
        "player_name": "ben omeara",
        "rank": 59248,
        "rank_sort": 59407,
        "total": 2346
      },
      {
        "club_badge_src": null,
        "entry": 2259179,
        "entry_name": "Tass",
        "event_total": 80,
        "has_played": true,
        "id": 16105285,
        "last_rank": 112169,
        "player_name": "Ketil Iwe Thorsteinsen",
        "rank": 59248,
        "rank_sort": 59408,
        "total": 2346
      },
      {
        "club_badge_src": null,
        "entry": 2264821,
        "entry_name": "Neville wears prada",
        "event_total": 54,
        "has_played": true,
        "id": 16148111,
        "last_rank": 48363,
        "player_name": "Jordan Virgo",
        "rank": 59248,
        "rank_sort": 59409,
        "total": 2346
      },
      {
        "club_badge_src": null,
        "entry": 2274452,
        "entry_name": "FlackAttack",
        "event_total": 65,
        "has_played": true,
        "id": 16218408,
        "last_rank": 75139,
        "player_name": "James Flack",
        "rank": 59248,
        "rank_sort": 59410,
        "total": 2346
      },
      {
        "club_badge_src": null,
        "entry": 2294809,
        "entry_name": "PlanC->Cole\u2019ctPoints",
        "event_total": 60,
        "has_played": true,
        "id": 16366650,
        "last_rank": 65475,
        "player_name": "Kaustubh Bubna",
        "rank": 59248,
        "rank_sort": 59411,
        "total": 2346
      },
      {
        "club_badge_src": "https://fantasy.premierleague.com/gcs/plfpl-production-adobe-approved/plfpl-production/2294998/792d9781-da30-4b90-89f0-40f30f753b0f.png",
        "entry": 2294998,
        "entry_name": "Willow FC",
        "event_total": 58,
        "has_played": true,
        "id": 16368001,
        "last_rank": 61950,
        "player_name": "Mark Swain",
        "rank": 59248,
        "rank_sort": 59412,
        "total": 2346
      },
      {
        "club_badge_src": null,
        "entry": 2337221,
        "entry_name": "Vasted United",
        "event_total": 63,
        "has_played": true,
        "id": 16676283,
        "last_rank": 71386,
        "player_name": "Vast Rust",
        "rank": 59248,
        "rank_sort": 59413,
        "total": 2346
      },
      {
        "club_badge_src": null,
        "entry": 2356621,
        "entry_name": "Mooy is still magic",
        "event_total": 55,
        "has_played": true,
        "id": 16815613,
        "last_rank": 57001,
        "player_name": "Kai Z",
        "rank": 59248,
        "rank_sort": 59414,
        "total": 2346
      },
      {
        "club_badge_src": null,
        "entry": 2357559,
        "entry_name": "God did",
        "event_total": 43,
        "has_played": true,
        "id": 16822610,
        "last_rank": 39023,
        "player_name": "Ola Sunkanmi",
        "rank": 59248,
        "rank_sort": 59415,
        "total": 2346
      },
      {
        "club_badge_src": null,
        "entry": 2365231,
        "entry_name": "Earth wind maguire",
        "event_total": 63,
        "has_played": true,
        "id": 16882625,
        "last_rank": 63390,
        "player_name": "Ricky Mason",
        "rank": 59248,
        "rank_sort": 59416,
        "total": 2346
      },
      {
        "club_badge_src": null,
        "entry": 2384708,
        "entry_name": "Grunden Bois",
        "event_total": 58,
        "has_played": true,
        "id": 17029883,
        "last_rank": 61950,
        "player_name": "Kevin svartn\u00e4s",
        "rank": 59248,
        "rank_sort": 59417,
        "total": 2346
      },
      {
        "club_badge_src": null,
        "entry": 2396672,
        "entry_name": "Tobys Top Team",
        "event_total": 40,
        "has_played": true,
        "id": 17121765,
        "last_rank": 35424,
        "player_name": "toby lodge",
        "rank": 59248,
        "rank_sort": 59418,
        "total": 2346
      },
      {
        "club_badge_src": "https://fantasy.premierleague.com/gcs/plfpl-production-adobe-approved/plfpl-production/2405142/7f3be86f-7f5d-470d-ab77-41e0073e3f0c.png",
        "entry": 2405142,
        "entry_name": "fh6wc13",
        "event_total": 39,
        "has_played": true,
        "id": 17191151,
        "last_rank": 34293,
        "player_name": "astrid loite",
        "rank": 59248,
        "rank_sort": 59419,
        "total": 2346
      },
      {
        "club_badge_src": null,
        "entry": 2453832,
        "entry_name": "Marvin Johannisson",
        "event_total": 63,
        "has_played": true,
        "id": 17551049,
        "last_rank": 63390,
        "player_name": "Marvin Johannisson",
        "rank": 59248,
        "rank_sort": 59420,
        "total": 2346
      },
      {
        "club_badge_src": null,
        "entry": 2471604,
        "entry_name": "Chicken Ekitikka",
        "event_total": 54,
        "has_played": true,
        "id": 17681766,
        "last_rank": 55014,
        "player_name": "Luke Perrott",
        "rank": 59248,
        "rank_sort": 59421,
        "total": 2346
      },
      {
        "club_badge_src": null,
        "entry": 2516594,
        "entry_name": "Rmz450",
        "event_total": 52,
        "has_played": true,
        "id": 18030142,
        "last_rank": 51720,
        "player_name": "Mika Bj\u00f6rk",
        "rank": 59248,
        "rank_sort": 59422,
        "total": 2346
      },
      {
        "club_badge_src": null,
        "entry": 2538975,
        "entry_name": "Wagba\u2019s Warriors",
        "event_total": 72,
        "has_played": true,
        "id": 18195966,
        "last_rank": 91466,
        "player_name": "Jonathan Nwagbaraocha",
        "rank": 59248,
        "rank_sort": 59423,
        "total": 2346
      },
      {
        "club_badge_src": null,
        "entry": 2544821,
        "entry_name": "Raffs11",
        "event_total": 59,
        "has_played": true,
        "id": 18240186,
        "last_rank": 63390,
        "player_name": "Kyle Rafferty",
        "rank": 59248,
        "rank_sort": 59424,
        "total": 2346
      },
      {
        "club_badge_src": null,
        "entry": 2679818,
        "entry_name": "mandips magic 11",
        "event_total": 66,
        "has_played": true,
        "id": 19273205,
        "last_rank": 77999,
        "player_name": "Mandip Khatkar",
        "rank": 59248,
        "rank_sort": 59425,
        "total": 2346
      },
      {
        "club_badge_src": null,
        "entry": 2706576,
        "entry_name": "The Kopites",
        "event_total": 61,
        "has_played": true,
        "id": 19472339,
        "last_rank": 67422,
        "player_name": "Mark Thornton",
        "rank": 59248,
        "rank_sort": 59426,
        "total": 2346
      },
      {
        "club_badge_src": null,
        "entry": 2714318,
        "entry_name": "ThomasTheFrankEngine",
        "event_total": 71,
        "has_played": true,
        "id": 19529761,
        "last_rank": 89426,
        "player_name": "Peter Haddrell",
        "rank": 59248,
        "rank_sort": 59427,
        "total": 2346
      },
      {
        "club_badge_src": null,
        "entry": 2752805,
        "entry_name": "Koji FC",
        "event_total": 65,
        "has_played": true,
        "id": 20019963,
        "last_rank": 67063,
        "player_name": "Marc Hemsin",
        "rank": 59248,
        "rank_sort": 59428,
        "total": 2346
      },
      {
        "club_badge_src": null,
        "entry": 2761847,
        "entry_name": "GrooveKamada",
        "event_total": 54,
        "has_played": true,
        "id": 20148745,
        "last_rank": 48197,
        "player_name": "Benjamin Wood",
        "rank": 59248,
        "rank_sort": 59429,
        "total": 2346
      },
      {
        "club_badge_src": null,
        "entry": 2772546,
        "entry_name": "Tea and busquets",
        "event_total": 59,
        "has_played": true,
        "id": 20230279,
        "last_rank": 63724,
        "player_name": "Allan Orr",
        "rank": 59248,
        "rank_sort": 59430,
        "total": 2346
      },
      {
        "club_badge_src": null,
        "entry": 2775174,
        "entry_name": "El Wey",
        "event_total": 51,
        "has_played": true,
        "id": 20252280,
        "last_rank": 50468,
        "player_name": "Daire Bradley",
        "rank": 59248,
        "rank_sort": 59431,
        "total": 2346
      },
      {
        "club_badge_src": null,
        "entry": 2779324,
        "entry_name": "Melik",
        "event_total": 63,
        "has_played": true,
        "id": 20284253,
        "last_rank": 71386,
        "player_name": "Serge Melikian",
        "rank": 59248,
        "rank_sort": 59432,
        "total": 2346
      },
      {
        "club_badge_src": null,
        "entry": 2878306,
        "entry_name": "ClemzyTheBoss",
        "event_total": 21,
        "has_played": true,
        "id": 21069629,
        "last_rank": 18377,
        "player_name": "Clement Muhoro",
        "rank": 59248,
        "rank_sort": 59433,
        "total": 2346
      },
      {
        "club_badge_src": null,
        "entry": 2881966,
        "entry_name": "Hotty Too Slotty",
        "event_total": 68,
        "has_played": true,
        "id": 21097574,
        "last_rank": 81420,
        "player_name": "Gavin Deacon",
        "rank": 59248,
        "rank_sort": 59434,
        "total": 2346
      },
      {
        "club_badge_src": null,
        "entry": 2916496,
        "entry_name": "To the wine \ufffd",
        "event_total": 74,
        "has_played": true,
        "id": 21377577,
        "last_rank": 95890,
        "player_name": "Mads Erik Tveraa",
        "rank": 59248,
        "rank_sort": 59435,
        "total": 2346
      },
      {
        "club_badge_src": null,
        "entry": 2944757,
        "entry_name": "Al-Fateh Syah",
        "event_total": 66,
        "has_played": true,
        "id": 21608029,
        "last_rank": 77676,
        "player_name": "Carill Nazry",
        "rank": 59248,
        "rank_sort": 59436,
        "total": 2346
      },
      {
        "club_badge_src": null,
        "entry": 2983793,
        "entry_name": "Lallana's in Pyjamas",
        "event_total": 56,
        "has_played": true,
        "id": 21939006,
        "last_rank": 58388,
        "player_name": "Olly Williams",
        "rank": 59248,
        "rank_sort": 59437,
        "total": 2346
      },
      {
        "club_badge_src": null,
        "entry": 3017177,
        "entry_name": "EdDieMaster FC",
        "event_total": 71,
        "has_played": true,
        "id": 22197959,
        "last_rank": 79431,
        "player_name": "Edward Smith",
        "rank": 59248,
        "rank_sort": 59438,
        "total": 2346
      },
      {
        "club_badge_src": null,
        "entry": 3025584,
        "entry_name": "Cabaye My Lover",
        "event_total": 55,
        "has_played": true,
        "id": 22261952,
        "last_rank": 56708,
        "player_name": "Joe Wilson",
        "rank": 59248,
        "rank_sort": 59439,
        "total": 2346
      },
      {
        "club_badge_src": null,
        "entry": 3044599,
        "entry_name": "ReinMagi",
        "event_total": 66,
        "has_played": true,
        "id": 22410851,
        "last_rank": 77676,
        "player_name": "Magnus Rein",
        "rank": 59248,
        "rank_sort": 59440,
        "total": 2346
      },
      {
        "club_badge_src": null,
        "entry": 3059370,
        "entry_name": "Fran\u0161e\u0161ko",
        "event_total": 66,
        "has_played": true,
        "id": 22524284,
        "last_rank": 77258,
        "player_name": "Francesc Guasch",
        "rank": 59248,
        "rank_sort": 59441,
        "total": 2346
      },
      {
        "club_badge_src": null,
        "entry": 3062496,
        "entry_name": "Gy\u00f6bby",
        "event_total": 39,
        "has_played": true,
        "id": 22547828,
        "last_rank": 34458,
        "player_name": "Alex Scott",
        "rank": 59248,
        "rank_sort": 59442,
        "total": 2346
      },
      {
        "club_badge_src": null,
        "entry": 3069898,
        "entry_name": "Wirtz the problem?",
        "event_total": 60,
        "has_played": true,
        "id": 22604817,
        "last_rank": 65163,
        "player_name": "James Tune",
        "rank": 59248,
        "rank_sort": 59443,
        "total": 2346
      },
      {
        "club_badge_src": null,
        "entry": 3094180,
        "entry_name": "Huh? I like Lisbon",
        "event_total": 64,
        "has_played": true,
        "id": 22804309,
        "last_rank": 73423,
        "player_name": "Pedro Cruz",
        "rank": 59248,
        "rank_sort": 59444,
        "total": 2346
      },
      {
        "club_badge_src": null,
        "entry": 3148927,
        "entry_name": "FranksLittleBeauties",
        "event_total": 52,
        "has_played": true,
        "id": 23251851,
        "last_rank": 51984,
        "player_name": "Sam Turner",
        "rank": 59248,
        "rank_sort": 59445,
        "total": 2346
      },
      {
        "club_badge_src": null,
        "entry": 3170709,
        "entry_name": "Earth wind & Maguire",
        "event_total": 68,
        "has_played": true,
        "id": 23426343,
        "last_rank": 82069,
        "player_name": "Matt Cowan",
        "rank": 59248,
        "rank_sort": 59446,
        "total": 2346
      },
      {
        "club_badge_src": null,
        "entry": 3200380,
        "entry_name": "Patrick Dorg-ooner",
        "event_total": 47,
        "has_played": true,
        "id": 23657268,
        "last_rank": 44048,
        "player_name": "Will Seales",
        "rank": 59248,
        "rank_sort": 59447,
        "total": 2346
      },
      {
        "club_badge_src": null,
        "entry": 3212839,
        "entry_name": "Taco Truck FC",
        "event_total": 64,
        "has_played": true,
        "id": 23753677,
        "last_rank": 73423,
        "player_name": "Jon Hall",
        "rank": 59248,
        "rank_sort": 59448,
        "total": 2346
      },
      {
        "club_badge_src": null,
        "entry": 3222158,
        "entry_name": "Shaw Me The Money",
        "event_total": 50,
        "has_played": true,
        "id": 23827562,
        "last_rank": 48642,
        "player_name": "Wassim Elias",
        "rank": 59248,
        "rank_sort": 59449,
        "total": 2346
      },
      {
        "club_badge_src": null,
        "entry": 3241414,
        "entry_name": "DCE ROBERTS",
        "event_total": 66,
        "has_played": true,
        "id": 23976263,
        "last_rank": 68957,
        "player_name": "David Roberts",
        "rank": 59248,
        "rank_sort": 59450,
        "total": 2346
      }
    ]
  }
}