{
  "last_updated_data": "2026-05-24T23:28:17Z",
  "league": {
    "admin_entry": null,
    "closed": false,
    "code_privacy": "p",
    "created": "2025-07-20T23:14:33.933835Z",
    "cup_league": 2815434,
    "has_cup": true,
    "id": 314,
    "league_type": "s",
    "max_entries": null,
    "name": "Overall",
    "rank": null,
    "scoring": "c",
    "start_event": 1
  },
  "new_entries": {
    "has_next": false,
    "page": 1,
    "results": []
  },
  "standings": {
    "has_next": true,
    "page": 187,
    "results": [
      {
        "club_badge_src": null,
        "entry": 329538,
        "entry_name": "\u00d8defans",
        "event_total": 63,
        "has_played": true,
        "id": 2207464,
        "last_rank": 11345,
        "player_name": "Dylan Taylor",
        "rank": 9280,
        "rank_sort": 9301,
        "total": 2400
      },
      {
        "club_badge_src": "https://fantasy.premierleague.com/gcs/plfpl-production-adobe-approved/plfpl-production/372049/465a5265-1ee7-4814-bef9-e58a9a23e433.png",
        "entry": 372049,
        "entry_name": "FC Thailand",
        "event_total": 55,
        "has_played": true,
        "id": 2489388,
        "last_rank": 8032,
        "player_name": "Viacheslav Yuskevych",
        "rank": 9280,
        "rank_sort": 9302,
        "total": 2400
      },
      {
        "club_badge_src": "https://fantasy.premierleague.com/gcs/plfpl-production-adobe-approved/plfpl-production/398849/b148d733-bc64-47e4-89da-cd662699e387.png",
        "entry": 398849,
        "entry_name": "Reindeers",
        "event_total": 61,
        "has_played": true,
        "id": 2674625,
        "last_rank": 10462,
        "player_name": "Ved Sojitra",
        "rank": 9280,
        "rank_sort": 9303,
        "total": 2400
      },
      {
        "club_badge_src": null,
        "entry": 418735,
        "entry_name": "FPL.Sund",
        "event_total": 69,
        "has_played": true,
        "id": 2806612,
        "last_rank": 14292,
        "player_name": "Mr Sundarn",
        "rank": 9280,
        "rank_sort": 9304,
        "total": 2400
      },
      {
        "club_badge_src": null,
        "entry": 443702,
        "entry_name": "Trump's Disaster",
        "event_total": 67,
        "has_played": true,
        "id": 2974988,
        "last_rank": 13257,
        "player_name": "John McKinnerney",
        "rank": 9280,
        "rank_sort": 9305,
        "total": 2400
      },
      {
        "club_badge_src": null,
        "entry": 445556,
        "entry_name": "Game of Stones",
        "event_total": 68,
        "has_played": true,
        "id": 2988115,
        "last_rank": 13821,
        "player_name": "Benjamin Harris",
        "rank": 9280,
        "rank_sort": 9306,
        "total": 2400
      },
      {
        "club_badge_src": null,
        "entry": 497900,
        "entry_name": "Bu3li Lions",
        "event_total": 65,
        "has_played": true,
        "id": 3341840,
        "last_rank": 12322,
        "player_name": "Saud Al Dukhan",
        "rank": 9280,
        "rank_sort": 9307,
        "total": 2400
      },
      {
        "club_badge_src": null,
        "entry": 611010,
        "entry_name": "QPR BOYS",
        "event_total": 59,
        "has_played": true,
        "id": 4128278,
        "last_rank": 9459,
        "player_name": "Aaron Marks",
        "rank": 9280,
        "rank_sort": 9308,
        "total": 2400
      },
      {
        "club_badge_src": null,
        "entry": 616477,
        "entry_name": "TOPALOV\u0130\u0106\u0130",
        "event_total": 69,
        "has_played": true,
        "id": 4165396,
        "last_rank": 14496,
        "player_name": "Bili Piton",
        "rank": 9280,
        "rank_sort": 9309,
        "total": 2400
      },
      {
        "club_badge_src": "https://fantasy.premierleague.com/gcs/plfpl-production-adobe-approved/plfpl-production/648419/92c93b01-66d0-4140-9d10-44c04f752e29.png",
        "entry": 648419,
        "entry_name": "Dodgy Cash n Haaland",
        "event_total": 66,
        "has_played": true,
        "id": 4382196,
        "last_rank": 12705,
        "player_name": "Deryk Whyte",
        "rank": 9280,
        "rank_sort": 9310,
        "total": 2400
      },
      {
        "club_badge_src": "https://fantasy.premierleague.com/gcs/plfpl-production-adobe-approved/plfpl-production/663909/f8e46ec2-bcb8-43a7-bc7b-7ca1f5c82399.png",
        "entry": 663909,
        "entry_name": "Game\u2019s Gone",
        "event_total": 68,
        "has_played": true,
        "id": 4488428,
        "last_rank": 14040,
        "player_name": "Danny Carter",
        "rank": 9280,
        "rank_sort": 9311,
        "total": 2400
      },
      {
        "club_badge_src": "https://fantasy.premierleague.com/gcs/plfpl-production-adobe-approved/plfpl-production/668728/2552a588-0883-4034-8cb5-be8c63422a2c.png",
        "entry": 668728,
        "entry_name": "Younes Fc",
        "event_total": 50,
        "has_played": true,
        "id": 4522309,
        "last_rank": 6528,
        "player_name": "Younes Kharif",
        "rank": 9280,
        "rank_sort": 9312,
        "total": 2400
      },
      {
        "club_badge_src": null,
        "entry": 683097,
        "entry_name": "Riders of Johan",
        "event_total": 68,
        "has_played": true,
        "id": 4623243,
        "last_rank": 13947,
        "player_name": "Jonathan Field",
        "rank": 9280,
        "rank_sort": 9313,
        "total": 2400
      },
      {
        "club_badge_src": null,
        "entry": 717759,
        "entry_name": "Carricks At Da Wheel",
        "event_total": 63,
        "has_played": true,
        "id": 4870262,
        "last_rank": 11237,
        "player_name": "Aaron Albuquerque",
        "rank": 9280,
        "rank_sort": 9314,
        "total": 2400
      },
      {
        "club_badge_src": "https://fantasy.premierleague.com/gcs/plfpl-production-adobe-approved/plfpl-production/808785/09eb17be-4f7e-4f35-8f86-f365dddbb831.png",
        "entry": 808785,
        "entry_name": "Palmer Vibes Only",
        "event_total": 58,
        "has_played": true,
        "id": 5537186,
        "last_rank": 7676,
        "player_name": "Bacon Man",
        "rank": 9280,
        "rank_sort": 9315,
        "total": 2400
      },
      {
        "club_badge_src": null,
        "entry": 862229,
        "entry_name": "sun squad",
        "event_total": 63,
        "has_played": true,
        "id": 5910861,
        "last_rank": 11237,
        "player_name": "Isaiah Sun",
        "rank": 9280,
        "rank_sort": 9316,
        "total": 2400
      },
      {
        "club_badge_src": "https://fantasy.premierleague.com/gcs/plfpl-production-adobe-approved/plfpl-production/880483/6b9df439-e828-43e8-89a5-1db5fa8cc69a.png",
        "entry": 880483,
        "entry_name": "El Toro",
        "event_total": 57,
        "has_played": true,
        "id": 6038033,
        "last_rank": 8758,
        "player_name": "Jorge Salas",
        "rank": 9280,
        "rank_sort": 9317,
        "total": 2400
      },
      {
        "club_badge_src": null,
        "entry": 913144,
        "entry_name": "\u574f\u4e86\u961f\u957fC\u9519\u4e86\u6ca1\u6cd5\u73a9\u4e86",
        "event_total": 45,
        "has_played": true,
        "id": 6278834,
        "last_rank": 5241,
        "player_name": "DDD D",
        "rank": 9280,
        "rank_sort": 9318,
        "total": 2400
      },
      {
        "club_badge_src": null,
        "entry": 932898,
        "entry_name": "Cucumelle",
        "event_total": 48,
        "has_played": true,
        "id": 6419352,
        "last_rank": 5904,
        "player_name": "Krister Fingal",
        "rank": 9280,
        "rank_sort": 9319,
        "total": 2400
      },
      {
        "club_badge_src": null,
        "entry": 1289156,
        "entry_name": "Gy\u00f6k That Body",
        "event_total": 49,
        "has_played": true,
        "id": 8958112,
        "last_rank": 6265,
        "player_name": "Liam Hicks",
        "rank": 9280,
        "rank_sort": 9320,
        "total": 2400
      },
      {
        "club_badge_src": null,
        "entry": 1356551,
        "entry_name": "just___ismael",
        "event_total": 68,
        "has_played": true,
        "id": 9429719,
        "last_rank": 13754,
        "player_name": "ismael Ibrahim",
        "rank": 9280,
        "rank_sort": 9321,
        "total": 2400
      },
      {
        "club_badge_src": null,
        "entry": 1358341,
        "entry_name": "campeones",
        "event_total": 61,
        "has_played": true,
        "id": 9441899,
        "last_rank": 10346,
        "player_name": "Harish Kumar",
        "rank": 9280,
        "rank_sort": 9322,
        "total": 2400
      },
      {
        "club_badge_src": "https://fantasy.premierleague.com/gcs/plfpl-production-adobe-approved/plfpl-production/1490022/010a7206-fbea-4c40-9732-be84a8c15d5a.png",
        "entry": 1490022,
        "entry_name": "Winner 2026",
        "event_total": 66,
        "has_played": true,
        "id": 10390679,
        "last_rank": 10805,
        "player_name": "Owen Bradshaw",
        "rank": 9280,
        "rank_sort": 9323,
        "total": 2400
      },
      {
        "club_badge_src": null,
        "entry": 1761561,
        "entry_name": "Agesterpool",
        "event_total": 45,
        "has_played": true,
        "id": 12368277,
        "last_rank": 5241,
        "player_name": "Bikash Giri",
        "rank": 9280,
        "rank_sort": 9324,
        "total": 2400
      },
      {
        "club_badge_src": null,
        "entry": 1774743,
        "entry_name": "Trippier Advisor",
        "event_total": 59,
        "has_played": true,
        "id": 12467597,
        "last_rank": 9644,
        "player_name": "Josh Hocken",
        "rank": 9280,
        "rank_sort": 9325,
        "total": 2400
      },
      {
        "club_badge_src": "https://fantasy.premierleague.com/gcs/plfpl-production-adobe-approved/plfpl-production/2084467/22b06c6f-1a4c-4732-8d7b-4f045301a043.png",
        "entry": 2084467,
        "entry_name": "Lewventus",
        "event_total": 56,
        "has_played": true,
        "id": 14787070,
        "last_rank": 8484,
        "player_name": "Lewis Connolly",
        "rank": 9280,
        "rank_sort": 9326,
        "total": 2400
      },
      {
        "club_badge_src": "https://fantasy.premierleague.com/gcs/plfpl-production-adobe-approved/plfpl-production/2176354/c6a9c4dd-ee46-44cd-84bf-288507a486bb.png",
        "entry": 2176354,
        "entry_name": "Jamageddon",
        "event_total": 67,
        "has_played": true,
        "id": 15475913,
        "last_rank": 11237,
        "player_name": "Harry Millar",
        "rank": 9280,
        "rank_sort": 9327,
        "total": 2400
      },
      {
        "club_badge_src": null,
        "entry": 2258833,
        "entry_name": "Eze Peasy",
        "event_total": 72,
        "has_played": true,
        "id": 16102724,
        "last_rank": 13821,
        "player_name": "Stu Getty",
        "rank": 9280,
        "rank_sort": 9328,
        "total": 2400
      },
      {
        "club_badge_src": "https://fantasy.premierleague.com/gcs/plfpl-production-adobe-approved/plfpl-production/2614225/75f685ad-6e13-4637-95d5-4aff083d4ddb.png",
        "entry": 2614225,
        "entry_name": "Magic Max Dowman",
        "event_total": 63,
        "has_played": true,
        "id": 18783275,
        "last_rank": 11345,
        "player_name": "Ditya Surasa",
        "rank": 9280,
        "rank_sort": 9329,
        "total": 2400
      },
      {
        "club_badge_src": null,
        "entry": 2949537,
        "entry_name": "Olympiatroppen",
        "event_total": 68,
        "has_played": true,
        "id": 21661780,
        "last_rank": 13947,
        "player_name": "Magnus Thoresen",
        "rank": 9280,
        "rank_sort": 9330,
        "total": 2400
      },
      {
        "club_badge_src": null,
        "entry": 3019410,
        "entry_name": "Noondaydemon69",
        "event_total": 52,
        "has_played": true,
        "id": 22215132,
        "last_rank": 7141,
        "player_name": "Dhruv Singh",
        "rank": 9280,
        "rank_sort": 9331,
        "total": 2400
      },
      {
        "club_badge_src": null,
        "entry": 3099733,
        "entry_name": "BRIGHTSPARKS",
        "event_total": 65,
        "has_played": true,
        "id": 22853532,
        "last_rank": 10346,
        "player_name": "John Stafford",
        "rank": 9280,
        "rank_sort": 9332,
        "total": 2400
      },
      {
        "club_badge_src": null,
        "entry": 3379735,
        "entry_name": "Trills United 3",
        "event_total": 44,
        "has_played": true,
        "id": 25086729,
        "last_rank": 5011,
        "player_name": "Grant Trillwood",
        "rank": 9280,
        "rank_sort": 9333,
        "total": 2400
      },
      {
        "club_badge_src": "https://fantasy.premierleague.com/gcs/plfpl-production-adobe-approved/plfpl-production/3433450/2606edd3-25bd-4168-a6c8-102063a282a8.png",
        "entry": 3433450,
        "entry_name": "SalemTheRedDevil",
        "event_total": 67,
        "has_played": true,
        "id": 25506504,
        "last_rank": 13401,
        "player_name": "Master Salem",
        "rank": 9280,
        "rank_sort": 9334,
        "total": 2400
      },
      {
        "club_badge_src": null,
        "entry": 3647490,
        "entry_name": "Walkers Allstars",
        "event_total": 60,
        "has_played": true,
        "id": 27187598,
        "last_rank": 9885,
        "player_name": "Andrew Walker",
        "rank": 9280,
        "rank_sort": 9335,
        "total": 2400
      },
      {
        "club_badge_src": "https://fantasy.premierleague.com/gcs/plfpl-production-adobe-approved/plfpl-production/3663243/89d492e8-c85c-4fa4-8bdb-c78b248d2f0e.png",
        "entry": 3663243,
        "entry_name": "NaomiOrSaka",
        "event_total": 69,
        "has_played": true,
        "id": 27318223,
        "last_rank": 14496,
        "player_name": "Lamin Fatty",
        "rank": 9280,
        "rank_sort": 9336,
        "total": 2400
      },
      {
        "club_badge_src": "https://fantasy.premierleague.com/gcs/plfpl-production-adobe-approved/plfpl-production/3841364/bd9cd10e-5702-4c94-a4aa-959c943b9ba1.png",
        "entry": 3841364,
        "entry_name": "Zirkzee Grisch",
        "event_total": 60,
        "has_played": true,
        "id": 28773261,
        "last_rank": 10102,
        "player_name": "Martin Sucksdorff",
        "rank": 9280,
        "rank_sort": 9337,
        "total": 2400
      },
      {
        "club_badge_src": null,
        "entry": 3914186,
        "entry_name": "Coxy's Comets",
        "event_total": 46,
        "has_played": true,
        "id": 29430954,
        "last_rank": 5498,
        "player_name": "Frank Cox",
        "rank": 9280,
        "rank_sort": 9338,
        "total": 2400
      },
      {
        "club_badge_src": null,
        "entry": 3940072,
        "entry_name": "Ekitikitaka",
        "event_total": 63,
        "has_played": true,
        "id": 29638512,
        "last_rank": 11345,
        "player_name": "k b",
        "rank": 9280,
        "rank_sort": 9339,
        "total": 2400
      },
      {
        "club_badge_src": null,
        "entry": 4333759,
        "entry_name": "Dynasty Beckons",
        "event_total": 55,
        "has_played": true,
        "id": 32901338,
        "last_rank": 7979,
        "player_name": "Chris Reynolds",
        "rank": 9280,
        "rank_sort": 9340,
        "total": 2400
      },
      {
        "club_badge_src": null,
        "entry": 4666116,
        "entry_name": "FOZ FC",
        "event_total": 71,
        "has_played": true,
        "id": 35739403,
        "last_rank": 15452,
        "player_name": "Sam Foster",
        "rank": 9280,
        "rank_sort": 9341,
        "total": 2400
      },
      {
        "club_badge_src": null,
        "entry": 4709189,
        "entry_name": "Hardly Athletic",
        "event_total": 68,
        "has_played": true,
        "id": 36119997,
        "last_rank": 13720,
        "player_name": "Ben Rose",
        "rank": 9280,
        "rank_sort": 9342,
        "total": 2400
      },
      {
        "club_badge_src": null,
        "entry": 4806628,
        "entry_name": "Avishai's FC",
        "event_total": 60,
        "has_played": true,
        "id": 37009480,
        "last_rank": 9942,
        "player_name": "Avishai Karwan",
        "rank": 9280,
        "rank_sort": 9343,
        "total": 2400
      },
      {
        "club_badge_src": null,
        "entry": 5013143,
        "entry_name": "Posh Ministry",
        "event_total": 52,
        "has_played": true,
        "id": 38712800,
        "last_rank": 7141,
        "player_name": "Posh Ofili",
        "rank": 9280,
        "rank_sort": 9344,
        "total": 2400
      },
      {
        "club_badge_src": null,
        "entry": 5213070,
        "entry_name": "Swedish Scouse Mafia",
        "event_total": 61,
        "has_played": true,
        "id": 40380736,
        "last_rank": 10346,
        "player_name": "Jai Sunnar",
        "rank": 9280,
        "rank_sort": 9345,
        "total": 2400
      },
      {
        "club_badge_src": null,
        "entry": 5529440,
        "entry_name": "Rooney & Sons",
        "event_total": 65,
        "has_played": true,
        "id": 43130838,
        "last_rank": 10346,
        "player_name": "Sathya Mohan",
        "rank": 9280,
        "rank_sort": 9346,
        "total": 2400
      },
      {
        "club_badge_src": null,
        "entry": 5545854,
        "entry_name": "Grunnmur",
        "event_total": 63,
        "has_played": true,
        "id": 43278517,
        "last_rank": 11345,
        "player_name": "Martin Rottem Dahle",
        "rank": 9280,
        "rank_sort": 9347,
        "total": 2400
      },
      {
        "club_badge_src": null,
        "entry": 5655519,
        "entry_name": "1 win in 17",
        "event_total": 64,
        "has_played": true,
        "id": 44243943,
        "last_rank": 11821,
        "player_name": "callum o donovan",
        "rank": 9280,
        "rank_sort": 9348,
        "total": 2400
      },
      {
        "club_badge_src": null,
        "entry": 5764416,
        "entry_name": "Livin' La Vida Ola",
        "event_total": 61,
        "has_played": true,
        "id": 45189828,
        "last_rank": 10462,
        "player_name": "Chris Walton",
        "rank": 9280,
        "rank_sort": 9349,
        "total": 2400
      },
      {
        "club_badge_src": null,
        "entry": 5943049,
        "entry_name": "Mohammed L.Alnuaimi",
        "event_total": 50,
        "has_played": true,
        "id": 46736554,
        "last_rank": 6579,
        "player_name": "Mohammed Lateef",
        "rank": 9280,
        "rank_sort": 9350,
        "total": 2400
      }
    ]
  }
}