{
  "last_updated_data": "2026-05-24T23:28:17Z",
  "league": {
    "admin_entry": null,
    "closed": false,
    "code_privacy": "p",
    "created": "2025-07-20T23:14:33.933835Z",
    "cup_league": 2815434,
    "has_cup": true,
    "id": 314,
    "league_type": "s",
    "max_entries": null,
    "name": "Overall",
    "rank": null,
    "scoring": "c",
    "start_event": 1
  },
  "new_entries": {
    "has_next": false,
    "page": 1,
    "results": []
  },
  "standings": {
    "has_next": true,
    "page": 849,
    "results": [
      {
        "club_badge_src": null,
        "entry": 224151,
        "entry_name": "Tinchy Sneijder",
        "event_total": 68,
        "has_played": true,
        "id": 1491068,
        "last_rank": 59632,
        "player_name": "Conor Wilson",
        "rank": 42358,
        "rank_sort": 42401,
        "total": 2357
      },
      {
        "club_badge_src": null,
        "entry": 224483,
        "entry_name": "Tikka MoSala",
        "event_total": 61,
        "has_played": true,
        "id": 1493307,
        "last_rank": 48363,
        "player_name": "Pavana V",
        "rank": 42358,
        "rank_sort": 42402,
        "total": 2357
      },
      {
        "club_badge_src": "https://fantasy.premierleague.com/gcs/plfpl-production-adobe-approved/plfpl-production/228772/1fa2bd9d-dc02-45ac-9a2a-6040814b59be.png",
        "entry": 228772,
        "entry_name": "San Fernando CD",
        "event_total": 64,
        "has_played": true,
        "id": 1522010,
        "last_rank": 52853,
        "player_name": "Bernard McAuley",
        "rank": 42358,
        "rank_sort": 42403,
        "total": 2357
      },
      {
        "club_badge_src": null,
        "entry": 232177,
        "entry_name": "Me Myself Ndiaye",
        "event_total": 67,
        "has_played": true,
        "id": 1544653,
        "last_rank": 58071,
        "player_name": "Steve Rigby",
        "rank": 42358,
        "rank_sort": 42404,
        "total": 2357
      },
      {
        "club_badge_src": null,
        "entry": 245140,
        "entry_name": "Wirtz Nightmare",
        "event_total": 54,
        "has_played": true,
        "id": 1632136,
        "last_rank": 39023,
        "player_name": "Paul Holden",
        "rank": 42358,
        "rank_sort": 42405,
        "total": 2357
      },
      {
        "club_badge_src": null,
        "entry": 246167,
        "entry_name": "Mid-Table Royalty",
        "event_total": 41,
        "has_played": true,
        "id": 1638896,
        "last_rank": 24897,
        "player_name": "Craig Stewart",
        "rank": 42358,
        "rank_sort": 42406,
        "total": 2357
      },
      {
        "club_badge_src": null,
        "entry": 258227,
        "entry_name": "Tribute to Diogo",
        "event_total": 59,
        "has_played": true,
        "id": 1717085,
        "last_rank": 45416,
        "player_name": "Grzegorz Motriuk",
        "rank": 42358,
        "rank_sort": 42407,
        "total": 2357
      },
      {
        "club_badge_src": null,
        "entry": 280796,
        "entry_name": "Malv\u00e5g FC",
        "event_total": 61,
        "has_played": true,
        "id": 1868616,
        "last_rank": 48363,
        "player_name": "Sven Eldar Malv\u00e5g",
        "rank": 42358,
        "rank_sort": 42408,
        "total": 2357
      },
      {
        "club_badge_src": null,
        "entry": 305621,
        "entry_name": "Hume and Ha\u2019way",
        "event_total": 49,
        "has_played": true,
        "id": 2046631,
        "last_rank": 32879,
        "player_name": "Julian Sutton",
        "rank": 42358,
        "rank_sort": 42409,
        "total": 2357
      },
      {
        "club_badge_src": "https://fantasy.premierleague.com/gcs/plfpl-production-adobe-approved/plfpl-production/330629/a8ec6020-366d-4eb2-a579-74e7ac8257a7.png",
        "entry": 330629,
        "entry_name": "Rey\u2654NoX_TN",
        "event_total": 70,
        "has_played": true,
        "id": 2214583,
        "last_rank": 63201,
        "player_name": "Rayen Trabelsi",
        "rank": 42358,
        "rank_sort": 42410,
        "total": 2357
      },
      {
        "club_badge_src": null,
        "entry": 333810,
        "entry_name": "Lost the Slot",
        "event_total": 63,
        "has_played": true,
        "id": 2235491,
        "last_rank": 51112,
        "player_name": "Jack Bates Todd",
        "rank": 42358,
        "rank_sort": 42411,
        "total": 2357
      },
      {
        "club_badge_src": "https://fantasy.premierleague.com/gcs/plfpl-production-adobe-approved/plfpl-production/339915/48ef5274-9793-46d6-8ced-4821cbba53d7.png",
        "entry": 339915,
        "entry_name": "Rauland Rednecks",
        "event_total": 61,
        "has_played": true,
        "id": 2275399,
        "last_rank": 48197,
        "player_name": "Sindre Tj\u00f8nn",
        "rank": 42358,
        "rank_sort": 42412,
        "total": 2357
      },
      {
        "club_badge_src": null,
        "entry": 349577,
        "entry_name": "2Mi",
        "event_total": 57,
        "has_played": true,
        "id": 2339746,
        "last_rank": 42434,
        "player_name": "Tanya Khaoraksa",
        "rank": 42358,
        "rank_sort": 42413,
        "total": 2357
      },
      {
        "club_badge_src": null,
        "entry": 367913,
        "entry_name": "Frederick FC",
        "event_total": 75,
        "has_played": true,
        "id": 2462137,
        "last_rank": 72702,
        "player_name": "David Vernon",
        "rank": 42358,
        "rank_sort": 42414,
        "total": 2357
      },
      {
        "club_badge_src": null,
        "entry": 374305,
        "entry_name": "Wirtz case scenario",
        "event_total": 66,
        "has_played": true,
        "id": 2504857,
        "last_rank": 56369,
        "player_name": "Filip Lindberg",
        "rank": 42358,
        "rank_sort": 42415,
        "total": 2357
      },
      {
        "club_badge_src": null,
        "entry": 390452,
        "entry_name": "HH",
        "event_total": 58,
        "has_played": true,
        "id": 2619095,
        "last_rank": 44048,
        "player_name": "Han Hwa Peng",
        "rank": 42358,
        "rank_sort": 42416,
        "total": 2357
      },
      {
        "club_badge_src": null,
        "entry": 402440,
        "entry_name": "Luke O\u2019Nien Fan Club",
        "event_total": 69,
        "has_played": true,
        "id": 2698434,
        "last_rank": 61606,
        "player_name": "Philip Mason",
        "rank": 42358,
        "rank_sort": 42417,
        "total": 2357
      },
      {
        "club_badge_src": "https://fantasy.premierleague.com/gcs/plfpl-production-adobe-approved/plfpl-production/429353/491538f8-feeb-498f-84a2-d0fe9ca36549.png",
        "entry": 429353,
        "entry_name": "The Slot Thickens",
        "event_total": 52,
        "has_played": true,
        "id": 2879708,
        "last_rank": 36624,
        "player_name": "Ivan Donchev",
        "rank": 42358,
        "rank_sort": 42418,
        "total": 2357
      },
      {
        "club_badge_src": null,
        "entry": 430676,
        "entry_name": "Superpojat",
        "event_total": 53,
        "has_played": true,
        "id": 2888476,
        "last_rank": 37435,
        "player_name": "Riku Rantanen",
        "rank": 42358,
        "rank_sort": 42419,
        "total": 2357
      },
      {
        "club_badge_src": null,
        "entry": 442109,
        "entry_name": "Hatswell's XI",
        "event_total": 62,
        "has_played": true,
        "id": 2964350,
        "last_rank": 49880,
        "player_name": "James Hatswell",
        "rank": 42358,
        "rank_sort": 42420,
        "total": 2357
      },
      {
        "club_badge_src": null,
        "entry": 444287,
        "entry_name": "Snoop Udogie Dogg",
        "event_total": 66,
        "has_played": true,
        "id": 2979172,
        "last_rank": 56369,
        "player_name": "Jack Adaway",
        "rank": 42358,
        "rank_sort": 42421,
        "total": 2357
      },
      {
        "club_badge_src": null,
        "entry": 448266,
        "entry_name": "FADEL KED",
        "event_total": 29,
        "has_played": true,
        "id": 3007144,
        "last_rank": 16163,
        "player_name": "kedjtit fadel",
        "rank": 42358,
        "rank_sort": 42422,
        "total": 2357
      },
      {
        "club_badge_src": null,
        "entry": 460435,
        "entry_name": "Brad's Boys",
        "event_total": 62,
        "has_played": true,
        "id": 3088703,
        "last_rank": 49880,
        "player_name": "bradley allen",
        "rank": 42358,
        "rank_sort": 42423,
        "total": 2357
      },
      {
        "club_badge_src": null,
        "entry": 463022,
        "entry_name": "Don't Try United",
        "event_total": 67,
        "has_played": true,
        "id": 3105880,
        "last_rank": 57857,
        "player_name": "Charlie Wragby",
        "rank": 42358,
        "rank_sort": 42424,
        "total": 2357
      },
      {
        "club_badge_src": null,
        "entry": 488523,
        "entry_name": "Ashleyton Stanley",
        "event_total": 64,
        "has_played": true,
        "id": 3279508,
        "last_rank": 53023,
        "player_name": "Michael Ashley",
        "rank": 42358,
        "rank_sort": 42425,
        "total": 2357
      },
      {
        "club_badge_src": null,
        "entry": 535434,
        "entry_name": "Cunha Believe It?!",
        "event_total": 65,
        "has_played": true,
        "id": 3603751,
        "last_rank": 54667,
        "player_name": "Kevin Pope",
        "rank": 42358,
        "rank_sort": 42426,
        "total": 2357
      },
      {
        "club_badge_src": null,
        "entry": 535681,
        "entry_name": "Saka Tatties",
        "event_total": 68,
        "has_played": true,
        "id": 3605373,
        "last_rank": 59813,
        "player_name": "John Beckett",
        "rank": 42358,
        "rank_sort": 42427,
        "total": 2357
      },
      {
        "club_badge_src": null,
        "entry": 537439,
        "entry_name": "Klich and Collect",
        "event_total": 57,
        "has_played": true,
        "id": 3617836,
        "last_rank": 42401,
        "player_name": "Ryan Mortimer",
        "rank": 42358,
        "rank_sort": 42428,
        "total": 2357
      },
      {
        "club_badge_src": null,
        "entry": 540358,
        "entry_name": "Yellow Army",
        "event_total": 57,
        "has_played": true,
        "id": 3637052,
        "last_rank": 42648,
        "player_name": "Kris Griffin",
        "rank": 42358,
        "rank_sort": 42429,
        "total": 2357
      },
      {
        "club_badge_src": null,
        "entry": 564039,
        "entry_name": "KUBA",
        "event_total": 54,
        "has_played": true,
        "id": 3796478,
        "last_rank": 38644,
        "player_name": "Yura Grigorenko",
        "rank": 42358,
        "rank_sort": 42430,
        "total": 2357
      },
      {
        "club_badge_src": null,
        "entry": 569086,
        "entry_name": "Haa La Land",
        "event_total": 60,
        "has_played": true,
        "id": 3830285,
        "last_rank": 46839,
        "player_name": "Nathan DaNova",
        "rank": 42358,
        "rank_sort": 42431,
        "total": 2357
      },
      {
        "club_badge_src": null,
        "entry": 569782,
        "entry_name": "Artex Zirkzee",
        "event_total": 48,
        "has_played": true,
        "id": 3834898,
        "last_rank": 31747,
        "player_name": "Chris Jones",
        "rank": 42358,
        "rank_sort": 42432,
        "total": 2357
      },
      {
        "club_badge_src": null,
        "entry": 572811,
        "entry_name": "BorShroomia Dortmund",
        "event_total": 58,
        "has_played": true,
        "id": 3855042,
        "last_rank": 44303,
        "player_name": "Tom Lay",
        "rank": 42358,
        "rank_sort": 42433,
        "total": 2357
      },
      {
        "club_badge_src": null,
        "entry": 583203,
        "entry_name": "Ma32oola Coming Home",
        "event_total": 70,
        "has_played": true,
        "id": 3924802,
        "last_rank": 63201,
        "player_name": "Hashem Alsalman",
        "rank": 42358,
        "rank_sort": 42434,
        "total": 2357
      },
      {
        "club_badge_src": null,
        "entry": 597749,
        "entry_name": "Fornando Tomres F.C",
        "event_total": 55,
        "has_played": true,
        "id": 4031101,
        "last_rank": 39874,
        "player_name": "Tom Forni",
        "rank": 42358,
        "rank_sort": 42435,
        "total": 2357
      },
      {
        "club_badge_src": null,
        "entry": 652074,
        "entry_name": "Leedsontop",
        "event_total": 54,
        "has_played": true,
        "id": 4406750,
        "last_rank": 38571,
        "player_name": "Kristoffer Bergsk\u00e5s Pettersen",
        "rank": 42358,
        "rank_sort": 42436,
        "total": 2357
      },
      {
        "club_badge_src": null,
        "entry": 661861,
        "entry_name": "Pospischil's Posse",
        "event_total": 54,
        "has_played": true,
        "id": 4473568,
        "last_rank": 38774,
        "player_name": "Dieter Pospischil",
        "rank": 42358,
        "rank_sort": 42437,
        "total": 2357
      },
      {
        "club_badge_src": "https://fantasy.premierleague.com/gcs/plfpl-production-adobe-approved/plfpl-production/672358/273f7781-2f15-4594-b131-92ebd09c48eb.png",
        "entry": 672358,
        "entry_name": "Trust Ur GuT 25'",
        "event_total": 54,
        "has_played": true,
        "id": 4547921,
        "last_rank": 38774,
        "player_name": "Mohammed Jan",
        "rank": 42358,
        "rank_sort": 42438,
        "total": 2357
      },
      {
        "club_badge_src": null,
        "entry": 676598,
        "entry_name": "Utd Man",
        "event_total": 62,
        "has_played": true,
        "id": 4577686,
        "last_rank": 49880,
        "player_name": "Xiao Han",
        "rank": 42358,
        "rank_sort": 42439,
        "total": 2357
      },
      {
        "club_badge_src": "https://fantasy.premierleague.com/gcs/plfpl-production-adobe-approved/plfpl-production/691872/d835a9bd-ce68-4efe-92ce-d7384bc66394.png",
        "entry": 691872,
        "entry_name": "Ekitike Taka",
        "event_total": 60,
        "has_played": true,
        "id": 4685399,
        "last_rank": 46660,
        "player_name": "Ruari Kelly",
        "rank": 42358,
        "rank_sort": 42440,
        "total": 2357
      },
      {
        "club_badge_src": null,
        "entry": 694364,
        "entry_name": "bacary",
        "event_total": 38,
        "has_played": true,
        "id": 4702743,
        "last_rank": 22534,
        "player_name": "Piotrek Horowski",
        "rank": 42358,
        "rank_sort": 42441,
        "total": 2357
      },
      {
        "club_badge_src": null,
        "entry": 731235,
        "entry_name": "Dizzybadgers",
        "event_total": 58,
        "has_played": true,
        "id": 4968886,
        "last_rank": 43849,
        "player_name": "Matt Gascoine",
        "rank": 42358,
        "rank_sort": 42442,
        "total": 2357
      },
      {
        "club_badge_src": null,
        "entry": 756057,
        "entry_name": "sitondelap",
        "event_total": 67,
        "has_played": true,
        "id": 5147356,
        "last_rank": 57743,
        "player_name": "Hayden Rowe",
        "rank": 42358,
        "rank_sort": 42443,
        "total": 2357
      },
      {
        "club_badge_src": null,
        "entry": 760412,
        "entry_name": "Return of the Djedi",
        "event_total": 48,
        "has_played": true,
        "id": 5183654,
        "last_rank": 31747,
        "player_name": "Robbe Thys",
        "rank": 42358,
        "rank_sort": 42444,
        "total": 2357
      },
      {
        "club_badge_src": "https://fantasy.premierleague.com/gcs/plfpl-production-adobe-approved/plfpl-production/798278/d7c1a672-4590-4684-bd1a-b1dc4138db5c.png",
        "entry": 798278,
        "entry_name": "Hunker Down Honey FC",
        "event_total": 44,
        "has_played": true,
        "id": 5463855,
        "last_rank": 27770,
        "player_name": "Chris Stewart",
        "rank": 42358,
        "rank_sort": 42445,
        "total": 2357
      },
      {
        "club_badge_src": null,
        "entry": 814369,
        "entry_name": "Cunha Dig It, Sucka!",
        "event_total": 35,
        "has_played": true,
        "id": 5576552,
        "last_rank": 20280,
        "player_name": "Adam Harvey",
        "rank": 42358,
        "rank_sort": 42446,
        "total": 2357
      },
      {
        "club_badge_src": "https://fantasy.premierleague.com/gcs/plfpl-production-adobe-approved/plfpl-production/822308/c5ada595-b3d6-49aa-94f8-52ef1300bcb9.png",
        "entry": 822308,
        "entry_name": "Delap Dancers",
        "event_total": 54,
        "has_played": true,
        "id": 5631768,
        "last_rank": 38774,
        "player_name": "Sam Eden",
        "rank": 42358,
        "rank_sort": 42447,
        "total": 2357
      },
      {
        "club_badge_src": null,
        "entry": 826336,
        "entry_name": "Mount Ma Son",
        "event_total": 56,
        "has_played": true,
        "id": 5659675,
        "last_rank": 41162,
        "player_name": "Matt Johnson",
        "rank": 42358,
        "rank_sort": 42448,
        "total": 2357
      },
      {
        "club_badge_src": null,
        "entry": 836960,
        "entry_name": "The Cucu Test",
        "event_total": 49,
        "has_played": true,
        "id": 5733459,
        "last_rank": 32879,
        "player_name": "Henry Empson",
        "rank": 42358,
        "rank_sort": 42449,
        "total": 2357
      },
      {
        "club_badge_src": null,
        "entry": 858502,
        "entry_name": "Wirtz case scenario",
        "event_total": 53,
        "has_played": true,
        "id": 5885054,
        "last_rank": 37344,
        "player_name": "Kristian Johansen",
        "rank": 42358,
        "rank_sort": 42450,
        "total": 2357
      }
    ]
  }
}