{
  "last_updated_data": "2026-05-24T23:28:17Z",
  "league": {
    "admin_entry": null,
    "closed": false,
    "code_privacy": "p",
    "created": "2025-07-20T23:14:33.933835Z",
    "cup_league": 2815434,
    "has_cup": true,
    "id": 314,
    "league_type": "s",
    "max_entries": null,
    "name": "Overall",
    "rank": null,
    "scoring": "c",
    "start_event": 1
  },
  "new_entries": {
    "has_next": false,
    "page": 1,
    "results": []
  },
  "standings": {
    "has_next": true,
    "page": 1424,
    "results": [
      {
        "club_badge_src": null,
        "entry": 5839674,
        "entry_name": "Gl\u00f6ck 9",
        "event_total": 63,
        "has_played": true,
        "id": 45840035,
        "last_rank": 85349,
        "player_name": "James Buckley",
        "rank": 71079,
        "rank_sort": 71151,
        "total": 2340
      },
      {
        "club_badge_src": null,
        "entry": 6018612,
        "entry_name": "hakuna mateta",
        "event_total": 42,
        "has_played": true,
        "id": 47464494,
        "last_rank": 46364,
        "player_name": "howard taylor",
        "rank": 71079,
        "rank_sort": 71152,
        "total": 2340
      },
      {
        "club_badge_src": null,
        "entry": 6182527,
        "entry_name": "I'm a Baleba",
        "event_total": 55,
        "has_played": true,
        "id": 48894144,
        "last_rank": 68294,
        "player_name": "Mikey Louca",
        "rank": 71079,
        "rank_sort": 71153,
        "total": 2340
      },
      {
        "club_badge_src": null,
        "entry": 6301634,
        "entry_name": "Ruben AmoWIN",
        "event_total": 52,
        "has_played": true,
        "id": 49961813,
        "last_rank": 62724,
        "player_name": "Azeem Banatwala",
        "rank": 71079,
        "rank_sort": 71154,
        "total": 2340
      },
      {
        "club_badge_src": null,
        "entry": 6469539,
        "entry_name": "kobbie the goat",
        "event_total": 57,
        "has_played": true,
        "id": 51546370,
        "last_rank": 72145,
        "player_name": "Kavishan Paskaran",
        "rank": 71079,
        "rank_sort": 71155,
        "total": 2340
      },
      {
        "club_badge_src": null,
        "entry": 7419837,
        "entry_name": "Hassan-FC",
        "event_total": 45,
        "has_played": true,
        "id": 60246316,
        "last_rank": 50905,
        "player_name": "HassanSaad Hasson",
        "rank": 71079,
        "rank_sort": 71156,
        "total": 2340
      },
      {
        "club_badge_src": null,
        "entry": 8061393,
        "entry_name": "Loco Fc",
        "event_total": 78,
        "has_played": true,
        "id": 66440898,
        "last_rank": 125303,
        "player_name": "Danial Jr",
        "rank": 71079,
        "rank_sort": 71157,
        "total": 2340
      },
      {
        "club_badge_src": null,
        "entry": 8135516,
        "entry_name": "FC Name Change",
        "event_total": 45,
        "has_played": true,
        "id": 67132784,
        "last_rank": 50905,
        "player_name": "Josh Shaw",
        "rank": 71079,
        "rank_sort": 71158,
        "total": 2340
      },
      {
        "club_badge_src": null,
        "entry": 8210919,
        "entry_name": "Fc Niro",
        "event_total": 55,
        "has_played": true,
        "id": 67844795,
        "last_rank": 60933,
        "player_name": "Nir Levi",
        "rank": 71079,
        "rank_sort": 71159,
        "total": 2340
      },
      {
        "club_badge_src": null,
        "entry": 8246014,
        "entry_name": "Kroos Control",
        "event_total": 54,
        "has_played": true,
        "id": 68185843,
        "last_rank": 66380,
        "player_name": "Jamie Morgan",
        "rank": 71079,
        "rank_sort": 71160,
        "total": 2340
      },
      {
        "club_badge_src": null,
        "entry": 8831624,
        "entry_name": "\u0627\u0628\u0648 \u0627\u0644\u0627\u0631\u0645\u064a\u0634 \u062d\u062f\u0648\u062a\u0647",
        "event_total": 49,
        "has_played": true,
        "id": 73848592,
        "last_rank": 57451,
        "player_name": "Abdelrhman Ashraf",
        "rank": 71079,
        "rank_sort": 71161,
        "total": 2340
      },
      {
        "club_badge_src": null,
        "entry": 9088228,
        "entry_name": "sit and forget",
        "event_total": 59,
        "has_played": true,
        "id": 76335814,
        "last_rank": 60827,
        "player_name": "ossy ou",
        "rank": 71079,
        "rank_sort": 71162,
        "total": 2340
      },
      {
        "club_badge_src": null,
        "entry": 9441753,
        "entry_name": "Ouch Bruno Fernandes",
        "event_total": 60,
        "has_played": true,
        "id": 79771751,
        "last_rank": 70183,
        "player_name": "NSSER ALHOSNI",
        "rank": 71079,
        "rank_sort": 71163,
        "total": 2340
      },
      {
        "club_badge_src": null,
        "entry": 7046,
        "entry_name": "Haalandaise Sauce",
        "event_total": 58,
        "has_played": true,
        "id": 40574,
        "last_rank": 66380,
        "player_name": "Jimmy Wikman",
        "rank": 71164,
        "rank_sort": 71164,
        "total": 2340
      },
      {
        "club_badge_src": null,
        "entry": 41243,
        "entry_name": "TRADAMAN",
        "event_total": 62,
        "has_played": true,
        "id": 264268,
        "last_rank": 83216,
        "player_name": "david mansfield",
        "rank": 71164,
        "rank_sort": 71165,
        "total": 2340
      },
      {
        "club_badge_src": "https://fantasy.premierleague.com/gcs/plfpl-production-adobe-approved/plfpl-production/61181/f6a53dcf-669a-4eaa-a82d-e6c82de460fc.png",
        "entry": 61181,
        "entry_name": "Green O\u2018 The South",
        "event_total": 59,
        "has_played": true,
        "id": 393981,
        "last_rank": 68294,
        "player_name": "Andrew Green",
        "rank": 71164,
        "rank_sort": 71166,
        "total": 2340
      },
      {
        "club_badge_src": null,
        "entry": 66066,
        "entry_name": "\u0628\u062f\u0627\u062d",
        "event_total": 71,
        "has_played": true,
        "id": 426866,
        "last_rank": 105370,
        "player_name": "badah saad",
        "rank": 71164,
        "rank_sort": 71167,
        "total": 2340
      },
      {
        "club_badge_src": "https://fantasy.premierleague.com/gcs/plfpl-production-adobe-approved/plfpl-production/101230/b0d7ffe0-d6ff-441f-ba96-e96c2f8d01bd.png",
        "entry": 101230,
        "entry_name": "Hudsy's Hooligans",
        "event_total": 63,
        "has_played": true,
        "id": 660558,
        "last_rank": 76574,
        "player_name": "Liam Hudspith",
        "rank": 71164,
        "rank_sort": 71168,
        "total": 2340
      },
      {
        "club_badge_src": null,
        "entry": 146342,
        "entry_name": "Raptors",
        "event_total": 61,
        "has_played": true,
        "id": 958704,
        "last_rank": 80965,
        "player_name": "Prakhar Singh",
        "rank": 71164,
        "rank_sort": 71169,
        "total": 2340
      },
      {
        "club_badge_src": "https://fantasy.premierleague.com/gcs/plfpl-production-adobe-approved/plfpl-production/217319/dca797a3-17ef-489b-bd7a-b1e00cb331ee.png",
        "entry": 217319,
        "entry_name": "Portsmouth FC",
        "event_total": 66,
        "has_played": true,
        "id": 1445289,
        "last_rank": 92685,
        "player_name": "Dzenan Brkovic",
        "rank": 71164,
        "rank_sort": 71170,
        "total": 2340
      },
      {
        "club_badge_src": null,
        "entry": 255014,
        "entry_name": "Cech Yourself",
        "event_total": 73,
        "has_played": true,
        "id": 1696325,
        "last_rank": 110709,
        "player_name": "Sheung-Lun Chan",
        "rank": 71164,
        "rank_sort": 71171,
        "total": 2340
      },
      {
        "club_badge_src": null,
        "entry": 291447,
        "entry_name": "Change Name",
        "event_total": 60,
        "has_played": true,
        "id": 1944005,
        "last_rank": 70276,
        "player_name": "Patrick Conlon",
        "rank": 71164,
        "rank_sort": 71172,
        "total": 2340
      },
      {
        "club_badge_src": null,
        "entry": 316922,
        "entry_name": "Baldy Helm",
        "event_total": 69,
        "has_played": true,
        "id": 2124247,
        "last_rank": 100241,
        "player_name": "Lewis Mahoney",
        "rank": 71164,
        "rank_sort": 71173,
        "total": 2340
      },
      {
        "club_badge_src": null,
        "entry": 322588,
        "entry_name": "Could be Wirtz",
        "event_total": 64,
        "has_played": true,
        "id": 2161716,
        "last_rank": 87885,
        "player_name": "Ross Wilson",
        "rank": 71164,
        "rank_sort": 71174,
        "total": 2340
      },
      {
        "club_badge_src": "https://fantasy.premierleague.com/gcs/plfpl-production-adobe-approved/plfpl-production/363250/5885fc52-d2e1-41a2-a2b4-5eb2161a58a7.png",
        "entry": 363250,
        "entry_name": "North London Forever",
        "event_total": 73,
        "has_played": true,
        "id": 2430758,
        "last_rank": 99959,
        "player_name": "MT Wong",
        "rank": 71164,
        "rank_sort": 71175,
        "total": 2340
      },
      {
        "club_badge_src": null,
        "entry": 368053,
        "entry_name": "Mighty ducks",
        "event_total": 58,
        "has_played": true,
        "id": 2463027,
        "last_rank": 74474,
        "player_name": "Ashley Moore",
        "rank": 71164,
        "rank_sort": 71176,
        "total": 2340
      },
      {
        "club_badge_src": null,
        "entry": 553946,
        "entry_name": "Brookie Fc",
        "event_total": 59,
        "has_played": true,
        "id": 3728369,
        "last_rank": 60933,
        "player_name": "Jacob Brook",
        "rank": 71164,
        "rank_sort": 71177,
        "total": 2340
      },
      {
        "club_badge_src": null,
        "entry": 559728,
        "entry_name": "No Cunha",
        "event_total": 81,
        "has_played": true,
        "id": 3767103,
        "last_rank": 134879,
        "player_name": "Abdul K",
        "rank": 71164,
        "rank_sort": 71178,
        "total": 2340
      },
      {
        "club_badge_src": null,
        "entry": 602644,
        "entry_name": "SmokeyJoes",
        "event_total": 52,
        "has_played": true,
        "id": 4067145,
        "last_rank": 62874,
        "player_name": "Joseph O'Sullivan",
        "rank": 71164,
        "rank_sort": 71179,
        "total": 2340
      },
      {
        "club_badge_src": null,
        "entry": 729917,
        "entry_name": "Juruserplums fc",
        "event_total": 60,
        "has_played": true,
        "id": 4959608,
        "last_rank": 62724,
        "player_name": "Andy Prescott",
        "rank": 71164,
        "rank_sort": 71180,
        "total": 2340
      },
      {
        "club_badge_src": "https://fantasy.premierleague.com/gcs/plfpl-production-adobe-approved/plfpl-production/768855/58d3fb00-d8b7-4093-9e9b-182a5425de5f.png",
        "entry": 768855,
        "entry_name": "Bangladesh",
        "event_total": 66,
        "has_played": true,
        "id": 5244385,
        "last_rank": 92685,
        "player_name": "Basir Alom",
        "rank": 71164,
        "rank_sort": 71181,
        "total": 2340
      },
      {
        "club_badge_src": null,
        "entry": 809176,
        "entry_name": "Kinder Mbeumo",
        "event_total": 59,
        "has_played": true,
        "id": 5539880,
        "last_rank": 60933,
        "player_name": "Bjarne S\u00f8rdal",
        "rank": 71164,
        "rank_sort": 71182,
        "total": 2340
      },
      {
        "club_badge_src": "https://fantasy.premierleague.com/gcs/plfpl-production-adobe-approved/plfpl-production/842654/d6d26800-3121-4747-9ed5-040e6ed050b9.png",
        "entry": 842654,
        "entry_name": "Fer Cryin Out Strand",
        "event_total": 44,
        "has_played": true,
        "id": 5773619,
        "last_rank": 43570,
        "player_name": "Matthew Mannix",
        "rank": 71164,
        "rank_sort": 71183,
        "total": 2340
      },
      {
        "club_badge_src": "https://fantasy.premierleague.com/gcs/plfpl-production-adobe-approved/plfpl-production/866988/e11e6a66-f653-4af6-9b26-61a95a407272.png",
        "entry": 866988,
        "entry_name": "\u8086\u54e5\u6838\u80fd\u56db\u5c04!!!",
        "event_total": 75,
        "has_played": true,
        "id": 5943825,
        "last_rank": 116216,
        "player_name": "Loki Lee",
        "rank": 71164,
        "rank_sort": 71184,
        "total": 2340
      },
      {
        "club_badge_src": null,
        "entry": 942253,
        "entry_name": "Bu\u0142a Rudo\u0142owice",
        "event_total": 63,
        "has_played": true,
        "id": 6488745,
        "last_rank": 60827,
        "player_name": "Bart\u0142omiej \u0141uc",
        "rank": 71164,
        "rank_sort": 71185,
        "total": 2340
      },
      {
        "club_badge_src": null,
        "entry": 1028111,
        "entry_name": "ABO SOUFIAN & RR",
        "event_total": 66,
        "has_played": true,
        "id": 7113308,
        "last_rank": 92685,
        "player_name": "Hazem Salah",
        "rank": 71164,
        "rank_sort": 71186,
        "total": 2340
      },
      {
        "club_badge_src": null,
        "entry": 1117342,
        "entry_name": "Midtable Blues",
        "event_total": 44,
        "has_played": true,
        "id": 7739726,
        "last_rank": 49407,
        "player_name": "Casper Platou",
        "rank": 71164,
        "rank_sort": 71187,
        "total": 2340
      },
      {
        "club_badge_src": null,
        "entry": 1378290,
        "entry_name": "L1 Speed Boost",
        "event_total": 54,
        "has_played": true,
        "id": 9580925,
        "last_rank": 59249,
        "player_name": "Prashant Negi",
        "rank": 71164,
        "rank_sort": 71188,
        "total": 2340
      },
      {
        "club_badge_src": null,
        "entry": 1663101,
        "entry_name": "Partey Time FC",
        "event_total": 56,
        "has_played": true,
        "id": 11643965,
        "last_rank": 70355,
        "player_name": "Dale Lantry",
        "rank": 71164,
        "rank_sort": 71189,
        "total": 2340
      },
      {
        "club_badge_src": null,
        "entry": 1800243,
        "entry_name": "rolajgabimbo",
        "event_total": 67,
        "has_played": true,
        "id": 12652688,
        "last_rank": 95147,
        "player_name": "Milan Djakovic",
        "rank": 71164,
        "rank_sort": 71190,
        "total": 2340
      },
      {
        "club_badge_src": null,
        "entry": 1929355,
        "entry_name": "First is the Wirtz",
        "event_total": 65,
        "has_played": true,
        "id": 13607375,
        "last_rank": 72265,
        "player_name": "Mike Amenta",
        "rank": 71164,
        "rank_sort": 71191,
        "total": 2340
      },
      {
        "club_badge_src": null,
        "entry": 1963726,
        "entry_name": "Pro Zhongar FC",
        "event_total": 57,
        "has_played": true,
        "id": 13855586,
        "last_rank": 72454,
        "player_name": "Ugyen Tenxin",
        "rank": 71164,
        "rank_sort": 71192,
        "total": 2340
      },
      {
        "club_badge_src": null,
        "entry": 2007212,
        "entry_name": "first slot",
        "event_total": 36,
        "has_played": true,
        "id": 14191736,
        "last_rank": 38425,
        "player_name": "Neil Venables",
        "rank": 71164,
        "rank_sort": 71193,
        "total": 2340
      },
      {
        "club_badge_src": null,
        "entry": 2220531,
        "entry_name": "Ottolengi",
        "event_total": 56,
        "has_played": true,
        "id": 15815189,
        "last_rank": 70355,
        "player_name": "Henning Diederichs",
        "rank": 71164,
        "rank_sort": 71194,
        "total": 2340
      },
      {
        "club_badge_src": null,
        "entry": 2727097,
        "entry_name": "- Lucky \u2122''",
        "event_total": 61,
        "has_played": true,
        "id": 19624399,
        "last_rank": 80965,
        "player_name": "Chem souuu",
        "rank": 71164,
        "rank_sort": 71195,
        "total": 2340
      },
      {
        "club_badge_src": "https://fantasy.premierleague.com/gcs/plfpl-production-adobe-approved/plfpl-production/2888472/679b852e-cf40-4ae5-90a1-01d208735bac.png",
        "entry": 2888472,
        "entry_name": "stonecoldstevepalmer",
        "event_total": 60,
        "has_played": true,
        "id": 21148856,
        "last_rank": 70276,
        "player_name": "Alexander Szoke",
        "rank": 71164,
        "rank_sort": 71196,
        "total": 2340
      },
      {
        "club_badge_src": null,
        "entry": 2999267,
        "entry_name": "SAFWAT",
        "event_total": 82,
        "has_played": true,
        "id": 22060593,
        "last_rank": 125303,
        "player_name": "Mohamed Mostafa",
        "rank": 71164,
        "rank_sort": 71197,
        "total": 2340
      },
      {
        "club_badge_src": null,
        "entry": 3211380,
        "entry_name": "Me, Myself, Ndiaye",
        "event_total": 68,
        "has_played": true,
        "id": 23742715,
        "last_rank": 87808,
        "player_name": "Dan Murphy",
        "rank": 71164,
        "rank_sort": 71198,
        "total": 2340
      },
      {
        "club_badge_src": null,
        "entry": 3508653,
        "entry_name": "What\u2019s rob holding",
        "event_total": 49,
        "has_played": true,
        "id": 26104704,
        "last_rank": 57515,
        "player_name": "Connor Walker",
        "rank": 71164,
        "rank_sort": 71199,
        "total": 2340
      },
      {
        "club_badge_src": null,
        "entry": 3518400,
        "entry_name": "Rudis Rovers",
        "event_total": 53,
        "has_played": true,
        "id": 26182838,
        "last_rank": 57515,
        "player_name": "James Maurice",
        "rank": 71164,
        "rank_sort": 71200,
        "total": 2340
      }
    ]
  }
}