{
  "last_updated_data": "2026-05-24T23:28:17Z",
  "league": {
    "admin_entry": null,
    "closed": false,
    "code_privacy": "p",
    "created": "2025-07-20T23:14:33.933835Z",
    "cup_league": 2815434,
    "has_cup": true,
    "id": 314,
    "league_type": "s",
    "max_entries": null,
    "name": "Overall",
    "rank": null,
    "scoring": "c",
    "start_event": 1
  },
  "new_entries": {
    "has_next": false,
    "page": 1,
    "results": []
  },
  "standings": {
    "has_next": true,
    "page": 209,
    "results": [
      {
        "club_badge_src": null,
        "entry": 96824,
        "entry_name": "DelphAndSafety",
        "event_total": 59,
        "has_played": true,
        "id": 632478,
        "last_rank": 10805,
        "player_name": "Riley Chambers",
        "rank": 10388,
        "rank_sort": 10401,
        "total": 2397
      },
      {
        "club_badge_src": null,
        "entry": 99631,
        "entry_name": "Saka Hamelech",
        "event_total": 82,
        "has_played": true,
        "id": 650361,
        "last_rank": 25700,
        "player_name": "Ari Yagil",
        "rank": 10388,
        "rank_sort": 10402,
        "total": 2397
      },
      {
        "club_badge_src": null,
        "entry": 127314,
        "entry_name": "SquidWirtz",
        "event_total": 76,
        "has_played": true,
        "id": 830009,
        "last_rank": 17989,
        "player_name": "james lingard",
        "rank": 10388,
        "rank_sort": 10403,
        "total": 2397
      },
      {
        "club_badge_src": null,
        "entry": 144196,
        "entry_name": "The Palmer Sutra",
        "event_total": 67,
        "has_played": true,
        "id": 943732,
        "last_rank": 14926,
        "player_name": "Will Naylor",
        "rank": 10388,
        "rank_sort": 10404,
        "total": 2397
      },
      {
        "club_badge_src": "https://fantasy.premierleague.com/gcs/plfpl-production-adobe-approved/plfpl-production/151230/dc5db522-9929-414a-a4dc-1d6c749fbb45.png",
        "entry": 151230,
        "entry_name": "jeremie ping pong",
        "event_total": 58,
        "has_played": true,
        "id": 992091,
        "last_rank": 10346,
        "player_name": "Chulainn Hussey",
        "rank": 10388,
        "rank_sort": 10405,
        "total": 2397
      },
      {
        "club_badge_src": null,
        "entry": 166092,
        "entry_name": "Walt's Wigglers",
        "event_total": 57,
        "has_played": true,
        "id": 1097152,
        "last_rank": 9885,
        "player_name": "Roger Whiteside",
        "rank": 10388,
        "rank_sort": 10406,
        "total": 2397
      },
      {
        "club_badge_src": null,
        "entry": 167318,
        "entry_name": "Peeneekorloonchamp",
        "event_total": 60,
        "has_played": true,
        "id": 1105923,
        "last_rank": 11237,
        "player_name": "Sakolpong Prommoosik",
        "rank": 10388,
        "rank_sort": 10407,
        "total": 2397
      },
      {
        "club_badge_src": null,
        "entry": 193120,
        "entry_name": "Normal's gone",
        "event_total": 65,
        "has_played": true,
        "id": 1279883,
        "last_rank": 13720,
        "player_name": "Erik Hanneborg",
        "rank": 10388,
        "rank_sort": 10408,
        "total": 2397
      },
      {
        "club_badge_src": null,
        "entry": 251990,
        "entry_name": "Zara",
        "event_total": 65,
        "has_played": true,
        "id": 1676259,
        "last_rank": 13754,
        "player_name": "Muzafar Ismail",
        "rank": 10388,
        "rank_sort": 10409,
        "total": 2397
      },
      {
        "club_badge_src": "https://fantasy.premierleague.com/gcs/plfpl-production-adobe-approved/plfpl-production/252811/3ff852e1-7162-42e1-b8db-62f192a10aff.png",
        "entry": 252811,
        "entry_name": "Vadzero FC",
        "event_total": 59,
        "has_played": true,
        "id": 1681498,
        "last_rank": 10920,
        "player_name": "Vadym Marynchak",
        "rank": 10388,
        "rank_sort": 10410,
        "total": 2397
      },
      {
        "club_badge_src": null,
        "entry": 264191,
        "entry_name": "Fuzzy Dunlop",
        "event_total": 67,
        "has_played": true,
        "id": 1756799,
        "last_rank": 14926,
        "player_name": "Kenneth Walsh",
        "rank": 10388,
        "rank_sort": 10411,
        "total": 2397
      },
      {
        "club_badge_src": null,
        "entry": 266863,
        "entry_name": "Partey of 5",
        "event_total": 61,
        "has_played": true,
        "id": 1775229,
        "last_rank": 11699,
        "player_name": "Matthew Jackson",
        "rank": 10388,
        "rank_sort": 10412,
        "total": 2397
      },
      {
        "club_badge_src": null,
        "entry": 268350,
        "entry_name": "Hassan Bielsa",
        "event_total": 68,
        "has_played": true,
        "id": 1785210,
        "last_rank": 15550,
        "player_name": "Hassan Tajeddine",
        "rank": 10388,
        "rank_sort": 10413,
        "total": 2397
      },
      {
        "club_badge_src": null,
        "entry": 274277,
        "entry_name": "It's Called Soccer",
        "event_total": 78,
        "has_played": true,
        "id": 1825106,
        "last_rank": 22426,
        "player_name": "Matt Paquet",
        "rank": 10388,
        "rank_sort": 10414,
        "total": 2397
      },
      {
        "club_badge_src": null,
        "entry": 289121,
        "entry_name": "Park the Ji-Sung Bus",
        "event_total": 53,
        "has_played": true,
        "id": 1927207,
        "last_rank": 8382,
        "player_name": "Erik Wikst\u00f8l",
        "rank": 10388,
        "rank_sort": 10415,
        "total": 2397
      },
      {
        "club_badge_src": null,
        "entry": 301476,
        "entry_name": "(Eki)Tike MoSalah",
        "event_total": 56,
        "has_played": true,
        "id": 2017054,
        "last_rank": 9484,
        "player_name": "Derek Palframan",
        "rank": 10388,
        "rank_sort": 10416,
        "total": 2397
      },
      {
        "club_badge_src": null,
        "entry": 369018,
        "entry_name": "Westerloch Brom Alb",
        "event_total": 45,
        "has_played": true,
        "id": 2469374,
        "last_rank": 5940,
        "player_name": "Robbie Leask",
        "rank": 10388,
        "rank_sort": 10417,
        "total": 2397
      },
      {
        "club_badge_src": null,
        "entry": 372869,
        "entry_name": "TURKISH DELIGHT",
        "event_total": 52,
        "has_played": true,
        "id": 2494820,
        "last_rank": 8032,
        "player_name": "adam cosgrove",
        "rank": 10388,
        "rank_sort": 10418,
        "total": 2397
      },
      {
        "club_badge_src": null,
        "entry": 384685,
        "entry_name": "canjw",
        "event_total": 67,
        "has_played": true,
        "id": 2580205,
        "last_rank": 14817,
        "player_name": "can jw",
        "rank": 10388,
        "rank_sort": 10419,
        "total": 2397
      },
      {
        "club_badge_src": null,
        "entry": 444394,
        "entry_name": "Paris Hiltons BFFs",
        "event_total": 61,
        "has_played": true,
        "id": 2979895,
        "last_rank": 11608,
        "player_name": "Richard Chandler",
        "rank": 10388,
        "rank_sort": 10420,
        "total": 2397
      },
      {
        "club_badge_src": null,
        "entry": 455066,
        "entry_name": "AA",
        "event_total": 59,
        "has_played": true,
        "id": 3052845,
        "last_rank": 10720,
        "player_name": "Marius Toverud",
        "rank": 10388,
        "rank_sort": 10421,
        "total": 2397
      },
      {
        "club_badge_src": null,
        "entry": 517795,
        "entry_name": "Chiellini con carne",
        "event_total": 67,
        "has_played": true,
        "id": 3476418,
        "last_rank": 14926,
        "player_name": "Emil Bengtsson",
        "rank": 10388,
        "rank_sort": 10422,
        "total": 2397
      },
      {
        "club_badge_src": null,
        "entry": 572575,
        "entry_name": "Jeremie PingPong",
        "event_total": 55,
        "has_played": true,
        "id": 3853502,
        "last_rank": 9248,
        "player_name": "Manas Bagai",
        "rank": 10388,
        "rank_sort": 10423,
        "total": 2397
      },
      {
        "club_badge_src": null,
        "entry": 585849,
        "entry_name": "Hugo IkdeTikde",
        "event_total": 38,
        "has_played": true,
        "id": 3942622,
        "last_rank": 4358,
        "player_name": "Aditya Damle",
        "rank": 10388,
        "rank_sort": 10424,
        "total": 2397
      },
      {
        "club_badge_src": null,
        "entry": 598547,
        "entry_name": "Kinkladze FC",
        "event_total": 54,
        "has_played": true,
        "id": 4036944,
        "last_rank": 8687,
        "player_name": "Phil Bennett",
        "rank": 10388,
        "rank_sort": 10425,
        "total": 2397
      },
      {
        "club_badge_src": null,
        "entry": 616470,
        "entry_name": "The QPR Gambit",
        "event_total": 65,
        "has_played": true,
        "id": 4165348,
        "last_rank": 13821,
        "player_name": "Geir Sune Tallaksen \u00d8stmoe",
        "rank": 10388,
        "rank_sort": 10426,
        "total": 2397
      },
      {
        "club_badge_src": null,
        "entry": 616672,
        "entry_name": "Can\u2019t get any Wirtz",
        "event_total": 74,
        "has_played": true,
        "id": 4166662,
        "last_rank": 19432,
        "player_name": "Louie Bastow",
        "rank": 10388,
        "rank_sort": 10427,
        "total": 2397
      },
      {
        "club_badge_src": null,
        "entry": 686591,
        "entry_name": "For Beto or Wirtz",
        "event_total": 47,
        "has_played": true,
        "id": 4647834,
        "last_rank": 6448,
        "player_name": "Adam Morris",
        "rank": 10388,
        "rank_sort": 10428,
        "total": 2397
      },
      {
        "club_badge_src": null,
        "entry": 700254,
        "entry_name": "TheMorriMen",
        "event_total": 68,
        "has_played": true,
        "id": 4744161,
        "last_rank": 15396,
        "player_name": "James Morrison",
        "rank": 10388,
        "rank_sort": 10429,
        "total": 2397
      },
      {
        "club_badge_src": null,
        "entry": 739294,
        "entry_name": "Sesko Express",
        "event_total": 61,
        "has_played": true,
        "id": 5026515,
        "last_rank": 11821,
        "player_name": "Will Tattersall",
        "rank": 10388,
        "rank_sort": 10430,
        "total": 2397
      },
      {
        "club_badge_src": null,
        "entry": 808463,
        "entry_name": "Marchingdowntogether",
        "event_total": 62,
        "has_played": true,
        "id": 5534962,
        "last_rank": 12200,
        "player_name": "Huw Ellis",
        "rank": 10388,
        "rank_sort": 10431,
        "total": 2397
      },
      {
        "club_badge_src": null,
        "entry": 813494,
        "entry_name": "Marmoushy Peas",
        "event_total": 58,
        "has_played": true,
        "id": 5570460,
        "last_rank": 10346,
        "player_name": "Michael Prinz",
        "rank": 10388,
        "rank_sort": 10432,
        "total": 2397
      },
      {
        "club_badge_src": "https://fantasy.premierleague.com/gcs/plfpl-production-adobe-approved/plfpl-production/850669/ec31e636-f6f7-48b6-83c6-257af32f5a78.png",
        "entry": 850669,
        "entry_name": "Tinkerbell FC",
        "event_total": 51,
        "has_played": true,
        "id": 5830700,
        "last_rank": 7676,
        "player_name": "Lewis Sharpe",
        "rank": 10388,
        "rank_sort": 10433,
        "total": 2397
      },
      {
        "club_badge_src": null,
        "entry": 968401,
        "entry_name": "TIDY",
        "event_total": 57,
        "has_played": true,
        "id": 6674404,
        "last_rank": 9942,
        "player_name": "Leon Rraci",
        "rank": 10388,
        "rank_sort": 10434,
        "total": 2397
      },
      {
        "club_badge_src": "https://fantasy.premierleague.com/gcs/plfpl-production-adobe-approved/plfpl-production/1015397/4c83a5c5-4e85-464b-a47d-8846adc4cd0f.png",
        "entry": 1015397,
        "entry_name": "FREE BEER&WINE",
        "event_total": 64,
        "has_played": true,
        "id": 7024511,
        "last_rank": 13401,
        "player_name": "Lee Hughes",
        "rank": 10388,
        "rank_sort": 10435,
        "total": 2397
      },
      {
        "club_badge_src": "https://fantasy.premierleague.com/gcs/plfpl-production-adobe-approved/plfpl-production/1018644/8b318422-18b8-45a3-9473-f65518c1ed6e.png",
        "entry": 1018644,
        "entry_name": "Nulla \u00e8 impossibile",
        "event_total": 59,
        "has_played": true,
        "id": 7047274,
        "last_rank": 10748,
        "player_name": "Anton Minev",
        "rank": 10388,
        "rank_sort": 10436,
        "total": 2397
      },
      {
        "club_badge_src": null,
        "entry": 1243104,
        "entry_name": "Boscombe Saints",
        "event_total": 64,
        "has_played": true,
        "id": 8633358,
        "last_rank": 13257,
        "player_name": "Nigel Green",
        "rank": 10388,
        "rank_sort": 10437,
        "total": 2397
      },
      {
        "club_badge_src": null,
        "entry": 1356266,
        "entry_name": "Humpers  XI",
        "event_total": 61,
        "has_played": true,
        "id": 9427809,
        "last_rank": 11699,
        "player_name": "Simon Humphries",
        "rank": 10388,
        "rank_sort": 10438,
        "total": 2397
      },
      {
        "club_badge_src": null,
        "entry": 1359875,
        "entry_name": "Yamal & the 7 dwarfs",
        "event_total": 72,
        "has_played": true,
        "id": 9452426,
        "last_rank": 18029,
        "player_name": "Dazzer Singh",
        "rank": 10388,
        "rank_sort": 10439,
        "total": 2397
      },
      {
        "club_badge_src": null,
        "entry": 1390528,
        "entry_name": "\u0625\u062a\u062d\u0627\u062f \u0627\u0644\u062d\u0627\u062c \u0628\u0648\u0639\u0644\u0627\u0645",
        "event_total": 44,
        "has_played": true,
        "id": 9673581,
        "last_rank": 5688,
        "player_name": "mourad belqadi",
        "rank": 10388,
        "rank_sort": 10440,
        "total": 2397
      },
      {
        "club_badge_src": null,
        "entry": 1424472,
        "entry_name": "FFGeek Contributors",
        "event_total": 65,
        "has_played": true,
        "id": 9923939,
        "last_rank": 13720,
        "player_name": "James English",
        "rank": 10388,
        "rank_sort": 10441,
        "total": 2397
      },
      {
        "club_badge_src": null,
        "entry": 1457293,
        "entry_name": "Saving Private Raya",
        "event_total": 64,
        "has_played": true,
        "id": 10155195,
        "last_rank": 13184,
        "player_name": "Max Grewar",
        "rank": 10388,
        "rank_sort": 10442,
        "total": 2397
      },
      {
        "club_badge_src": null,
        "entry": 1594389,
        "entry_name": "Change Name",
        "event_total": 80,
        "has_played": true,
        "id": 11152196,
        "last_rank": 23973,
        "player_name": "Hasan Farishta",
        "rank": 10388,
        "rank_sort": 10443,
        "total": 2397
      },
      {
        "club_badge_src": null,
        "entry": 1619328,
        "entry_name": "Kan\u0165e Touch This",
        "event_total": 68,
        "has_played": true,
        "id": 11331622,
        "last_rank": 15452,
        "player_name": "Adam Bradshaw",
        "rank": 10388,
        "rank_sort": 10444,
        "total": 2397
      },
      {
        "club_badge_src": null,
        "entry": 1765881,
        "entry_name": "Lil Uzi Wirtz",
        "event_total": 61,
        "has_played": true,
        "id": 12403414,
        "last_rank": 11642,
        "player_name": "Niveithan Jeyachristy",
        "rank": 10388,
        "rank_sort": 10445,
        "total": 2397
      },
      {
        "club_badge_src": null,
        "entry": 1772747,
        "entry_name": "Call Me Champ",
        "event_total": 65,
        "has_played": true,
        "id": 12453344,
        "last_rank": 13754,
        "player_name": "James Hogan",
        "rank": 10388,
        "rank_sort": 10446,
        "total": 2397
      },
      {
        "club_badge_src": null,
        "entry": 2082441,
        "entry_name": "Kuks!3",
        "event_total": 39,
        "has_played": true,
        "id": 14771330,
        "last_rank": 4570,
        "player_name": "Mukuka Chileshe",
        "rank": 10388,
        "rank_sort": 10447,
        "total": 2397
      },
      {
        "club_badge_src": "https://fantasy.premierleague.com/gcs/plfpl-production-adobe-approved/plfpl-production/2111445/8dbd611b-9983-433f-829a-9c4a8c179b65.png",
        "entry": 2111445,
        "entry_name": "MartinBall",
        "event_total": 54,
        "has_played": true,
        "id": 14986972,
        "last_rank": 8758,
        "player_name": "Jamie Robertson",
        "rank": 10388,
        "rank_sort": 10448,
        "total": 2397
      },
      {
        "club_badge_src": null,
        "entry": 2157173,
        "entry_name": "7amassa",
        "event_total": 59,
        "has_played": true,
        "id": 15334329,
        "last_rank": 10805,
        "player_name": "Beddy Babah",
        "rank": 10388,
        "rank_sort": 10449,
        "total": 2397
      },
      {
        "club_badge_src": null,
        "entry": 2432743,
        "entry_name": "omar elnaghy",
        "event_total": 49,
        "has_played": true,
        "id": 17396026,
        "last_rank": 7141,
        "player_name": "Omar Elnaghy",
        "rank": 10388,
        "rank_sort": 10450,
        "total": 2397
      }
    ]
  }
}