{
  "last_updated_data": "2026-05-24T23:28:17Z",
  "league": {
    "admin_entry": null,
    "closed": false,
    "code_privacy": "p",
    "created": "2025-07-20T23:14:33.933835Z",
    "cup_league": 2815434,
    "has_cup": true,
    "id": 314,
    "league_type": "s",
    "max_entries": null,
    "name": "Overall",
    "rank": null,
    "scoring": "c",
    "start_event": 1
  },
  "new_entries": {
    "has_next": false,
    "page": 1,
    "results": []
  },
  "standings": {
    "has_next": true,
    "page": 208,
    "results": [
      {
        "club_badge_src": null,
        "entry": 988447,
        "entry_name": "TylkoUnited!",
        "event_total": 66,
        "has_played": true,
        "id": 6815548,
        "last_rank": 14251,
        "player_name": "Rafal K",
        "rank": 10348,
        "rank_sort": 10351,
        "total": 2397
      },
      {
        "club_badge_src": null,
        "entry": 1064907,
        "entry_name": "Jonas Dusselier",
        "event_total": 73,
        "has_played": true,
        "id": 7372031,
        "last_rank": 18691,
        "player_name": "Jonas Dusselier",
        "rank": 10348,
        "rank_sort": 10352,
        "total": 2397
      },
      {
        "club_badge_src": null,
        "entry": 1272513,
        "entry_name": "Kystad FK",
        "event_total": 77,
        "has_played": true,
        "id": 8841894,
        "last_rank": 21598,
        "player_name": "Kristoffer Holsdal",
        "rank": 10348,
        "rank_sort": 10353,
        "total": 2397
      },
      {
        "club_badge_src": null,
        "entry": 2988659,
        "entry_name": "OMAR FC",
        "event_total": 50,
        "has_played": true,
        "id": 21978891,
        "last_rank": 7333,
        "player_name": "Omar Ahmed",
        "rank": 10348,
        "rank_sort": 10354,
        "total": 2397
      },
      {
        "club_badge_src": null,
        "entry": 3832764,
        "entry_name": "filho",
        "event_total": 60,
        "has_played": true,
        "id": 28672144,
        "last_rank": 11175,
        "player_name": "Mihael Filajdic",
        "rank": 10348,
        "rank_sort": 10355,
        "total": 2397
      },
      {
        "club_badge_src": null,
        "entry": 3997668,
        "entry_name": "Come on Lestaaa!",
        "event_total": 68,
        "has_played": true,
        "id": 30107248,
        "last_rank": 15388,
        "player_name": "Patryk Jakubowski",
        "rank": 10348,
        "rank_sort": 10356,
        "total": 2397
      },
      {
        "club_badge_src": null,
        "entry": 6248687,
        "entry_name": "Goodfellas",
        "event_total": 47,
        "has_played": true,
        "id": 49463655,
        "last_rank": 6409,
        "player_name": "Jack Mannix",
        "rank": 10348,
        "rank_sort": 10357,
        "total": 2397
      },
      {
        "club_badge_src": null,
        "entry": 6432273,
        "entry_name": "Birdys Ballers",
        "event_total": 58,
        "has_played": true,
        "id": 51205019,
        "last_rank": 10247,
        "player_name": "Harry Bird",
        "rank": 10348,
        "rank_sort": 10358,
        "total": 2397
      },
      {
        "club_badge_src": null,
        "entry": 6750755,
        "entry_name": "Konate Kid",
        "event_total": 65,
        "has_played": true,
        "id": 54043684,
        "last_rank": 13710,
        "player_name": "Seren Orsman",
        "rank": 10348,
        "rank_sort": 10359,
        "total": 2397
      },
      {
        "club_badge_src": null,
        "entry": 8888639,
        "entry_name": "nigahiga",
        "event_total": 52,
        "has_played": true,
        "id": 74398430,
        "last_rank": 7959,
        "player_name": "Aseel Shahidh",
        "rank": 10348,
        "rank_sort": 10360,
        "total": 2397
      },
      {
        "club_badge_src": null,
        "entry": 44996,
        "entry_name": "Yoro Wissa Harry",
        "event_total": 69,
        "has_played": true,
        "id": 288535,
        "last_rank": 16029,
        "player_name": "Jack Race",
        "rank": 10361,
        "rank_sort": 10361,
        "total": 2397
      },
      {
        "club_badge_src": null,
        "entry": 259938,
        "entry_name": "Tani's Terrors",
        "event_total": 62,
        "has_played": true,
        "id": 1728162,
        "last_rank": 12141,
        "player_name": "Richard Edwards",
        "rank": 10361,
        "rank_sort": 10362,
        "total": 2397
      },
      {
        "club_badge_src": null,
        "entry": 389371,
        "entry_name": "Costa Living Crisis",
        "event_total": 72,
        "has_played": true,
        "id": 2611904,
        "last_rank": 17970,
        "player_name": "Fred Whitehead",
        "rank": 10361,
        "rank_sort": 10363,
        "total": 2397
      },
      {
        "club_badge_src": null,
        "entry": 579382,
        "entry_name": "Emily In ParisSG",
        "event_total": 70,
        "has_played": true,
        "id": 3898412,
        "last_rank": 16675,
        "player_name": "Emily Tee",
        "rank": 10361,
        "rank_sort": 10364,
        "total": 2397
      },
      {
        "club_badge_src": null,
        "entry": 593414,
        "entry_name": "MincePie",
        "event_total": 51,
        "has_played": true,
        "id": 3999057,
        "last_rank": 7676,
        "player_name": "Christopher Prentice",
        "rank": 10361,
        "rank_sort": 10365,
        "total": 2397
      },
      {
        "club_badge_src": null,
        "entry": 667571,
        "entry_name": ".300 Magnums",
        "event_total": 50,
        "has_played": true,
        "id": 4513892,
        "last_rank": 7375,
        "player_name": "Sadek L'\u00e9lectricien",
        "rank": 10361,
        "rank_sort": 10366,
        "total": 2397
      },
      {
        "club_badge_src": "https://fantasy.premierleague.com/gcs/plfpl-production-adobe-approved/plfpl-production/762506/d75ad5a3-e2b7-418e-a9ba-fba49ef0e028.png",
        "entry": 762506,
        "entry_name": "Obi wan kenobi",
        "event_total": 52,
        "has_played": true,
        "id": 5200003,
        "last_rank": 7979,
        "player_name": "Mustak Ali",
        "rank": 10361,
        "rank_sort": 10367,
        "total": 2397
      },
      {
        "club_badge_src": null,
        "entry": 996395,
        "entry_name": "Jackjinho FC",
        "event_total": 61,
        "has_played": true,
        "id": 6879931,
        "last_rank": 11642,
        "player_name": "Jack Freeman",
        "rank": 10361,
        "rank_sort": 10368,
        "total": 2397
      },
      {
        "club_badge_src": null,
        "entry": 1443446,
        "entry_name": "Baby Reijnders",
        "event_total": 45,
        "has_played": true,
        "id": 10058193,
        "last_rank": 5904,
        "player_name": "Winston Mulyadi",
        "rank": 10361,
        "rank_sort": 10369,
        "total": 2397
      },
      {
        "club_badge_src": "https://fantasy.premierleague.com/gcs/plfpl-production-adobe-approved/plfpl-production/1951772/e2819af4-b7f7-4521-afd8-8a2d795622e1.png",
        "entry": 1951772,
        "entry_name": "Loftus Cheeky Nandos",
        "event_total": 46,
        "has_played": true,
        "id": 13768163,
        "last_rank": 6194,
        "player_name": "Thomas Alisandratos",
        "rank": 10361,
        "rank_sort": 10370,
        "total": 2397
      },
      {
        "club_badge_src": null,
        "entry": 2024097,
        "entry_name": "TT1972",
        "event_total": 64,
        "has_played": true,
        "id": 14324502,
        "last_rank": 13153,
        "player_name": "Thomas Tranberg",
        "rank": 10361,
        "rank_sort": 10371,
        "total": 2397
      },
      {
        "club_badge_src": null,
        "entry": 2316402,
        "entry_name": "Licha's top 10k",
        "event_total": 66,
        "has_played": true,
        "id": 16524169,
        "last_rank": 14251,
        "player_name": "Subharthi Sen",
        "rank": 10361,
        "rank_sort": 10372,
        "total": 2397
      },
      {
        "club_badge_src": null,
        "entry": 2399954,
        "entry_name": "Bielsabub",
        "event_total": 69,
        "has_played": true,
        "id": 17152709,
        "last_rank": 16062,
        "player_name": "Lars Jaakko Havro",
        "rank": 10361,
        "rank_sort": 10373,
        "total": 2397
      },
      {
        "club_badge_src": null,
        "entry": 3115125,
        "entry_name": "abdo",
        "event_total": 49,
        "has_played": true,
        "id": 22987804,
        "last_rank": 7014,
        "player_name": "Abdo one",
        "rank": 10361,
        "rank_sort": 10374,
        "total": 2397
      },
      {
        "club_badge_src": null,
        "entry": 3414767,
        "entry_name": "Baks Fc",
        "event_total": 44,
        "has_played": true,
        "id": 25362599,
        "last_rank": 5688,
        "player_name": "Dean Mizzi",
        "rank": 10361,
        "rank_sort": 10375,
        "total": 2397
      },
      {
        "club_badge_src": null,
        "entry": 3593332,
        "entry_name": "Burns Missing Finger",
        "event_total": 42,
        "has_played": true,
        "id": 26761885,
        "last_rank": 5173,
        "player_name": "William Doyle",
        "rank": 10361,
        "rank_sort": 10376,
        "total": 2397
      },
      {
        "club_badge_src": "https://fantasy.premierleague.com/gcs/plfpl-production-adobe-approved/plfpl-production/4445126/4f1c4998-3bcc-45a5-b6c9-4ba296a0557c.png",
        "entry": 4445126,
        "entry_name": "Sergeant_Stiffy",
        "event_total": 61,
        "has_played": true,
        "id": 33851701,
        "last_rank": 11642,
        "player_name": "Jamie Nelson",
        "rank": 10361,
        "rank_sort": 10377,
        "total": 2397
      },
      {
        "club_badge_src": null,
        "entry": 4625598,
        "entry_name": "Hampurin Tiikerit",
        "event_total": 65,
        "has_played": true,
        "id": 35363926,
        "last_rank": 13821,
        "player_name": "Lauri Valkama",
        "rank": 10361,
        "rank_sort": 10378,
        "total": 2397
      },
      {
        "club_badge_src": null,
        "entry": 4640844,
        "entry_name": "Reece's Peanutbutter",
        "event_total": 63,
        "has_played": true,
        "id": 35494983,
        "last_rank": 12608,
        "player_name": "Kevin Sugianto",
        "rank": 10361,
        "rank_sort": 10379,
        "total": 2397
      },
      {
        "club_badge_src": null,
        "entry": 4977810,
        "entry_name": "XO",
        "event_total": 60,
        "has_played": true,
        "id": 38424352,
        "last_rank": 11237,
        "player_name": "Yazan Nasri",
        "rank": 10361,
        "rank_sort": 10380,
        "total": 2397
      },
      {
        "club_badge_src": null,
        "entry": 5115905,
        "entry_name": "bignine99",
        "event_total": 66,
        "has_played": true,
        "id": 39552561,
        "last_rank": 14234,
        "player_name": "Ninenine Timothy",
        "rank": 10361,
        "rank_sort": 10381,
        "total": 2397
      },
      {
        "club_badge_src": "https://fantasy.premierleague.com/gcs/plfpl-production-adobe-approved/plfpl-production/5656996/a190c902-affd-48a9-a20f-8d094e05432b.png",
        "entry": 5656996,
        "entry_name": "Chazezesa FC",
        "event_total": 42,
        "has_played": true,
        "id": 44256371,
        "last_rank": 5135,
        "player_name": "Leonard Mangwende",
        "rank": 10361,
        "rank_sort": 10382,
        "total": 2397
      },
      {
        "club_badge_src": null,
        "entry": 6236012,
        "entry_name": "Deeney in a Bottle",
        "event_total": 69,
        "has_played": true,
        "id": 49354873,
        "last_rank": 16062,
        "player_name": "Luke Love",
        "rank": 10361,
        "rank_sort": 10383,
        "total": 2397
      },
      {
        "club_badge_src": null,
        "entry": 6345324,
        "entry_name": "Fancy Fare FC",
        "event_total": 72,
        "has_played": true,
        "id": 50437061,
        "last_rank": 18113,
        "player_name": "Shain Sutton",
        "rank": 10361,
        "rank_sort": 10384,
        "total": 2397
      },
      {
        "club_badge_src": null,
        "entry": 6580325,
        "entry_name": "Fannfergi",
        "event_total": 46,
        "has_played": true,
        "id": 52546066,
        "last_rank": 6194,
        "player_name": "Reynir Jonsson",
        "rank": 10361,
        "rank_sort": 10385,
        "total": 2397
      },
      {
        "club_badge_src": null,
        "entry": 7236701,
        "entry_name": "Gyok Thua",
        "event_total": 66,
        "has_played": true,
        "id": 58478000,
        "last_rank": 14251,
        "player_name": "Shuraj Vekaria",
        "rank": 10361,
        "rank_sort": 10386,
        "total": 2397
      },
      {
        "club_badge_src": null,
        "entry": 8560668,
        "entry_name": "Mossco's Doonhamers",
        "event_total": 40,
        "has_played": true,
        "id": 71221531,
        "last_rank": 4704,
        "player_name": "Luke Moss",
        "rank": 10361,
        "rank_sort": 10387,
        "total": 2397
      },
      {
        "club_badge_src": null,
        "entry": 1275,
        "entry_name": "Mld Utd",
        "event_total": 69,
        "has_played": true,
        "id": 7086,
        "last_rank": 16039,
        "player_name": "Ognjen Dobric",
        "rank": 10388,
        "rank_sort": 10388,
        "total": 2397
      },
      {
        "club_badge_src": "https://fantasy.premierleague.com/gcs/plfpl-production-adobe-approved/plfpl-production/2269/887a3847-a138-47b5-b246-217b2f4e68b8.png",
        "entry": 2269,
        "entry_name": "Hotel? Thiago.",
        "event_total": 61,
        "has_played": true,
        "id": 12648,
        "last_rank": 11699,
        "player_name": "Liam Develter",
        "rank": 10388,
        "rank_sort": 10389,
        "total": 2397
      },
      {
        "club_badge_src": null,
        "entry": 3200,
        "entry_name": "Gangster's Allardyce",
        "event_total": 59,
        "has_played": true,
        "id": 18072,
        "last_rank": 10805,
        "player_name": "Amnon Sadeh",
        "rank": 10388,
        "rank_sort": 10390,
        "total": 2397
      },
      {
        "club_badge_src": null,
        "entry": 12001,
        "entry_name": "VAR & Bengaler",
        "event_total": 68,
        "has_played": true,
        "id": 71593,
        "last_rank": 15452,
        "player_name": "Ulf Sundelin",
        "rank": 10388,
        "rank_sort": 10391,
        "total": 2397
      },
      {
        "club_badge_src": null,
        "entry": 21455,
        "entry_name": "Bowen 747",
        "event_total": 79,
        "has_played": true,
        "id": 134514,
        "last_rank": 20147,
        "player_name": "Rohan U",
        "rank": 10388,
        "rank_sort": 10392,
        "total": 2397
      },
      {
        "club_badge_src": null,
        "entry": 26042,
        "entry_name": "Un-Baleba-Ball Team",
        "event_total": 51,
        "has_played": true,
        "id": 164673,
        "last_rank": 7676,
        "player_name": "Dan Twining",
        "rank": 10388,
        "rank_sort": 10393,
        "total": 2397
      },
      {
        "club_badge_src": null,
        "entry": 29795,
        "entry_name": "Charli xGx",
        "event_total": 64,
        "has_played": true,
        "id": 188461,
        "last_rank": 13184,
        "player_name": "Haris .",
        "rank": 10388,
        "rank_sort": 10394,
        "total": 2397
      },
      {
        "club_badge_src": null,
        "entry": 30878,
        "entry_name": "The Mr Belvedere's",
        "event_total": 67,
        "has_played": true,
        "id": 195468,
        "last_rank": 14832,
        "player_name": "Rory O-Neill",
        "rank": 10388,
        "rank_sort": 10395,
        "total": 2397
      },
      {
        "club_badge_src": null,
        "entry": 34531,
        "entry_name": "TOP TANKER!!!!",
        "event_total": 62,
        "has_played": true,
        "id": 220608,
        "last_rank": 12141,
        "player_name": "Brett Steinert",
        "rank": 10388,
        "rank_sort": 10396,
        "total": 2397
      },
      {
        "club_badge_src": null,
        "entry": 39167,
        "entry_name": "Lord Kon\u00e9 of Arouna",
        "event_total": 66,
        "has_played": true,
        "id": 251030,
        "last_rank": 14251,
        "player_name": "Liam Donaghy",
        "rank": 10388,
        "rank_sort": 10397,
        "total": 2397
      },
      {
        "club_badge_src": null,
        "entry": 48455,
        "entry_name": "Pluto FC",
        "event_total": 63,
        "has_played": true,
        "id": 311181,
        "last_rank": 12645,
        "player_name": "Pauline Hansen",
        "rank": 10388,
        "rank_sort": 10398,
        "total": 2397
      },
      {
        "club_badge_src": null,
        "entry": 62859,
        "entry_name": "Darwin's Theory",
        "event_total": 65,
        "has_played": true,
        "id": 405379,
        "last_rank": 13754,
        "player_name": "Sean Jones",
        "rank": 10388,
        "rank_sort": 10399,
        "total": 2397
      },
      {
        "club_badge_src": null,
        "entry": 80332,
        "entry_name": "Gareth Southgoat",
        "event_total": 60,
        "has_played": true,
        "id": 522668,
        "last_rank": 11175,
        "player_name": "Joshua McDonald",
        "rank": 10388,
        "rank_sort": 10400,
        "total": 2397
      }
    ]
  }
}