{
  "last_updated_data": "2026-05-24T23:28:17Z",
  "league": {
    "admin_entry": null,
    "closed": false,
    "code_privacy": "p",
    "created": "2025-07-20T23:14:33.933835Z",
    "cup_league": 2815434,
    "has_cup": true,
    "id": 314,
    "league_type": "s",
    "max_entries": null,
    "name": "Overall",
    "rank": null,
    "scoring": "c",
    "start_event": 1
  },
  "new_entries": {
    "has_next": false,
    "page": 1,
    "results": []
  },
  "standings": {
    "has_next": true,
    "page": 925,
    "results": [
      {
        "club_badge_src": null,
        "entry": 5398232,
        "entry_name": "MAFUZO",
        "event_total": 67,
        "has_played": true,
        "id": 41971617,
        "last_rank": 55865,
        "player_name": "Mahmoud Bou hadir",
        "rank": 46188,
        "rank_sort": 46201,
        "total": 2355
      },
      {
        "club_badge_src": null,
        "entry": 8987716,
        "entry_name": "Fulcelt69",
        "event_total": 55,
        "has_played": true,
        "id": 75363329,
        "last_rank": 43637,
        "player_name": "Daren Gahan",
        "rank": 46188,
        "rank_sort": 46202,
        "total": 2355
      },
      {
        "club_badge_src": "https://fantasy.premierleague.com/gcs/plfpl-production-adobe-approved/plfpl-production/28444/62c4c370-2bc7-4d9e-9e55-1650e0ef3426.png",
        "entry": 28444,
        "entry_name": "Flying Goblins",
        "event_total": 72,
        "has_played": true,
        "id": 179858,
        "last_rank": 72454,
        "player_name": "Adrian Stanca",
        "rank": 46203,
        "rank_sort": 46203,
        "total": 2355
      },
      {
        "club_badge_src": null,
        "entry": 30800,
        "entry_name": "Son of a Gunner",
        "event_total": 54,
        "has_played": true,
        "id": 194943,
        "last_rank": 42314,
        "player_name": "Max Dundas",
        "rank": 46203,
        "rank_sort": 46204,
        "total": 2355
      },
      {
        "club_badge_src": "https://fantasy.premierleague.com/gcs/plfpl-production-adobe-approved/plfpl-production/45099/a2cce434-4b31-4332-b573-4c5369f354e2.png",
        "entry": 45099,
        "entry_name": "FC GUAJE",
        "event_total": 70,
        "has_played": true,
        "id": 289214,
        "last_rank": 54181,
        "player_name": "Ahmed Magdy",
        "rank": 46203,
        "rank_sort": 46205,
        "total": 2355
      },
      {
        "club_badge_src": null,
        "entry": 67113,
        "entry_name": "Wirtz team ever",
        "event_total": 57,
        "has_played": true,
        "id": 434412,
        "last_rank": 40959,
        "player_name": "Jack Bundock",
        "rank": 46203,
        "rank_sort": 46206,
        "total": 2355
      },
      {
        "club_badge_src": null,
        "entry": 112407,
        "entry_name": "Mahdi-liver",
        "event_total": 49,
        "has_played": true,
        "id": 732867,
        "last_rank": 31448,
        "player_name": "Mahdi-Abolwaifa Liver",
        "rank": 46203,
        "rank_sort": 46207,
        "total": 2355
      },
      {
        "club_badge_src": "https://fantasy.premierleague.com/gcs/plfpl-production-adobe-approved/plfpl-production/144726/943f4f4e-23d3-4ee8-bb2c-2c7faca3aa90.png",
        "entry": 144726,
        "entry_name": "TGR-X \u26bd\ufe0f\u26bd\ufe0f\u26bd\ufe0f\u2b50\ufe0f",
        "event_total": 60,
        "has_played": true,
        "id": 947505,
        "last_rank": 45007,
        "player_name": "yousef alshehhi",
        "rank": 46203,
        "rank_sort": 46208,
        "total": 2355
      },
      {
        "club_badge_src": null,
        "entry": 372663,
        "entry_name": "AboveYouAll",
        "event_total": 50,
        "has_played": true,
        "id": 2493451,
        "last_rank": 37264,
        "player_name": "Goat Moodi",
        "rank": 46203,
        "rank_sort": 46209,
        "total": 2355
      },
      {
        "club_badge_src": "https://fantasy.premierleague.com/gcs/plfpl-production-adobe-approved/plfpl-production/826434/1d35691b-cb5f-4180-9ed9-e9dcb1e4413b.png",
        "entry": 826434,
        "entry_name": "DAGNISHA",
        "event_total": 58,
        "has_played": true,
        "id": 5660343,
        "last_rank": 42293,
        "player_name": "Humood Alotaibi",
        "rank": 46203,
        "rank_sort": 46210,
        "total": 2355
      },
      {
        "club_badge_src": null,
        "entry": 872224,
        "entry_name": "\u0627\u0644\u0633\u0628\u064a\u0634\u0644 1",
        "event_total": 67,
        "has_played": true,
        "id": 5979819,
        "last_rank": 49407,
        "player_name": "Ali Salem",
        "rank": 46203,
        "rank_sort": 46211,
        "total": 2355
      },
      {
        "club_badge_src": null,
        "entry": 1488716,
        "entry_name": "Kinder Mbuemo",
        "event_total": 71,
        "has_played": true,
        "id": 10381592,
        "last_rank": 70446,
        "player_name": "Tyler Burwell",
        "rank": 46203,
        "rank_sort": 46212,
        "total": 2355
      },
      {
        "club_badge_src": null,
        "entry": 2699639,
        "entry_name": "Mark Kerrs boot",
        "event_total": 43,
        "has_played": true,
        "id": 19420077,
        "last_rank": 29434,
        "player_name": "Robin Shek",
        "rank": 46203,
        "rank_sort": 46213,
        "total": 2355
      },
      {
        "club_badge_src": null,
        "entry": 3063696,
        "entry_name": "starboy fc",
        "event_total": 60,
        "has_played": true,
        "id": 22557026,
        "last_rank": 51013,
        "player_name": "David Umeh",
        "rank": 46203,
        "rank_sort": 46214,
        "total": 2355
      },
      {
        "club_badge_src": null,
        "entry": 4615374,
        "entry_name": "Drop it like it'Slot",
        "event_total": 61,
        "has_played": true,
        "id": 35273589,
        "last_rank": 40923,
        "player_name": "Sophie Seear",
        "rank": 46203,
        "rank_sort": 46215,
        "total": 2355
      },
      {
        "club_badge_src": null,
        "entry": 7338924,
        "entry_name": "here we go\ufffd",
        "event_total": 93,
        "has_played": true,
        "id": 59441772,
        "last_rank": 65475,
        "player_name": "Ian Muiruri",
        "rank": 46203,
        "rank_sort": 46216,
        "total": 2355
      },
      {
        "club_badge_src": "https://fantasy.premierleague.com/gcs/plfpl-production-adobe-approved/plfpl-production/7972514/24e7ab99-bf44-497f-a775-322a4dff97d4.png",
        "entry": 7972514,
        "entry_name": "Freebie United",
        "event_total": 52,
        "has_played": true,
        "id": 65640622,
        "last_rank": 39716,
        "player_name": "Hup Lim Oon",
        "rank": 46203,
        "rank_sort": 46217,
        "total": 2355
      },
      {
        "club_badge_src": null,
        "entry": 63512,
        "entry_name": "Fayxxal Benyoub Ch",
        "event_total": 62,
        "has_played": true,
        "id": 409811,
        "last_rank": 54268,
        "player_name": "Fayssal Benyoub ch",
        "rank": 46218,
        "rank_sort": 46218,
        "total": 2355
      },
      {
        "club_badge_src": null,
        "entry": 131566,
        "entry_name": "Kideo FC",
        "event_total": 77,
        "has_played": true,
        "id": 857132,
        "last_rank": 83340,
        "player_name": "David Maina",
        "rank": 46218,
        "rank_sort": 46219,
        "total": 2355
      },
      {
        "club_badge_src": null,
        "entry": 164330,
        "entry_name": "Corky's Marauders",
        "event_total": 76,
        "has_played": true,
        "id": 1084400,
        "last_rank": 64603,
        "player_name": "Christian Cork",
        "rank": 46218,
        "rank_sort": 46220,
        "total": 2355
      },
      {
        "club_badge_src": null,
        "entry": 571145,
        "entry_name": "Pure Quality",
        "event_total": 57,
        "has_played": true,
        "id": 3843885,
        "last_rank": 40976,
        "player_name": "Colin McKenna",
        "rank": 46218,
        "rank_sort": 46221,
        "total": 2355
      },
      {
        "club_badge_src": null,
        "entry": 698251,
        "entry_name": "Gooliooooo",
        "event_total": 51,
        "has_played": true,
        "id": 4729999,
        "last_rank": 38469,
        "player_name": "Jules Pauwels",
        "rank": 46218,
        "rank_sort": 46222,
        "total": 2355
      },
      {
        "club_badge_src": null,
        "entry": 1093859,
        "entry_name": "kinder mbeumo",
        "event_total": 57,
        "has_played": true,
        "id": 7576037,
        "last_rank": 46468,
        "player_name": "David Hogg",
        "rank": 46218,
        "rank_sort": 46223,
        "total": 2355
      },
      {
        "club_badge_src": null,
        "entry": 1411289,
        "entry_name": "Saka White Rice",
        "event_total": 67,
        "has_played": true,
        "id": 9820910,
        "last_rank": 49368,
        "player_name": "Ethan McDougall",
        "rank": 46218,
        "rank_sort": 46224,
        "total": 2355
      },
      {
        "club_badge_src": null,
        "entry": 1483452,
        "entry_name": "#21",
        "event_total": 72,
        "has_played": true,
        "id": 10344682,
        "last_rank": 64634,
        "player_name": "Marko Luki\u0107",
        "rank": 46218,
        "rank_sort": 46225,
        "total": 2355
      },
      {
        "club_badge_src": null,
        "entry": 1747928,
        "entry_name": "The Invincibles",
        "event_total": 67,
        "has_played": true,
        "id": 12265916,
        "last_rank": 55932,
        "player_name": "Andy The Dj",
        "rank": 46218,
        "rank_sort": 46226,
        "total": 2355
      },
      {
        "club_badge_src": "https://fantasy.premierleague.com/gcs/plfpl-production-adobe-approved/plfpl-production/2761055/8dccb3e6-9e6a-4951-90cb-d6137557a9fa.png",
        "entry": 2761055,
        "entry_name": "Chelsea FC",
        "event_total": 62,
        "has_played": true,
        "id": 20142724,
        "last_rank": 54268,
        "player_name": "Herbi Stafaj",
        "rank": 46218,
        "rank_sort": 46227,
        "total": 2355
      },
      {
        "club_badge_src": null,
        "entry": 4691049,
        "entry_name": "Chapel Allertons",
        "event_total": 40,
        "has_played": true,
        "id": 35955491,
        "last_rank": 26576,
        "player_name": "Daniel Sorabji",
        "rank": 46218,
        "rank_sort": 46228,
        "total": 2355
      },
      {
        "club_badge_src": "https://fantasy.premierleague.com/gcs/plfpl-production-adobe-approved/plfpl-production/5138468/fa4f4def-69ae-4b56-9674-ab812a117055.png",
        "entry": 5138468,
        "entry_name": "Cunha fix the roof",
        "event_total": 50,
        "has_played": true,
        "id": 39746756,
        "last_rank": 37264,
        "player_name": "Noah Boerhave",
        "rank": 46218,
        "rank_sort": 46229,
        "total": 2355
      },
      {
        "club_badge_src": null,
        "entry": 5315598,
        "entry_name": "Gunnerit",
        "event_total": 64,
        "has_played": true,
        "id": 41205360,
        "last_rank": 57636,
        "player_name": "Aki Syrj\u00e4l\u00e4",
        "rank": 46218,
        "rank_sort": 46230,
        "total": 2355
      },
      {
        "club_badge_src": null,
        "entry": 5581563,
        "entry_name": "Restored",
        "event_total": 39,
        "has_played": true,
        "id": 43594072,
        "last_rank": 25666,
        "player_name": "Ludwig Wedenberg",
        "rank": 46218,
        "rank_sort": 46231,
        "total": 2355
      },
      {
        "club_badge_src": null,
        "entry": 5660285,
        "entry_name": "Infinite Loops",
        "event_total": 66,
        "has_played": true,
        "id": 44284591,
        "last_rank": 54244,
        "player_name": "Darren Downing",
        "rank": 46218,
        "rank_sort": 46232,
        "total": 2355
      },
      {
        "club_badge_src": "https://fantasy.premierleague.com/gcs/plfpl-production-adobe-approved/plfpl-production/5737373/0da5b154-0005-48ae-9962-fa6727623051.png",
        "entry": 5737373,
        "entry_name": "GG3+",
        "event_total": 64,
        "has_played": true,
        "id": 44952669,
        "last_rank": 51013,
        "player_name": "Sr\u0111an Bogaro\u0161ki",
        "rank": 46218,
        "rank_sort": 46233,
        "total": 2355
      },
      {
        "club_badge_src": null,
        "entry": 59622,
        "entry_name": "Nine Ince Nails",
        "event_total": 50,
        "has_played": true,
        "id": 383953,
        "last_rank": 32598,
        "player_name": "Colin Adams",
        "rank": 46234,
        "rank_sort": 46234,
        "total": 2355
      },
      {
        "club_badge_src": null,
        "entry": 785159,
        "entry_name": "Nezo",
        "event_total": 62,
        "has_played": true,
        "id": 5364715,
        "last_rank": 54268,
        "player_name": "Nazeer habanni",
        "rank": 46234,
        "rank_sort": 46235,
        "total": 2355
      },
      {
        "club_badge_src": null,
        "entry": 1166592,
        "entry_name": "Jamie Pommes-Gittens",
        "event_total": 61,
        "has_played": true,
        "id": 8092570,
        "last_rank": 52670,
        "player_name": "Alex Nowak",
        "rank": 46234,
        "rank_sort": 46236,
        "total": 2355
      },
      {
        "club_badge_src": null,
        "entry": 1456544,
        "entry_name": "koko",
        "event_total": 65,
        "has_played": true,
        "id": 10149455,
        "last_rank": 52653,
        "player_name": "Koko Amgad",
        "rank": 46234,
        "rank_sort": 46237,
        "total": 2355
      },
      {
        "club_badge_src": null,
        "entry": 1880581,
        "entry_name": "BEAMERS",
        "event_total": 74,
        "has_played": true,
        "id": 13250237,
        "last_rank": 76778,
        "player_name": "Nigel C",
        "rank": 46234,
        "rank_sort": 46238,
        "total": 2355
      },
      {
        "club_badge_src": null,
        "entry": 2019164,
        "entry_name": "True Blue",
        "event_total": 69,
        "has_played": true,
        "id": 14286215,
        "last_rank": 66546,
        "player_name": "Ingi \u00de\u00f3r \u00deorvaldsson",
        "rank": 46234,
        "rank_sort": 46239,
        "total": 2355
      },
      {
        "club_badge_src": null,
        "entry": 2328092,
        "entry_name": "We won it in Bilbao",
        "event_total": 34,
        "has_played": true,
        "id": 16609937,
        "last_rank": 21573,
        "player_name": "Mark Greig",
        "rank": 46234,
        "rank_sort": 46240,
        "total": 2355
      },
      {
        "club_badge_src": null,
        "entry": 2416295,
        "entry_name": "MyBelovedCold",
        "event_total": 52,
        "has_played": true,
        "id": 17273094,
        "last_rank": 30418,
        "player_name": "Mateusz Kolarczyk",
        "rank": 46234,
        "rank_sort": 46241,
        "total": 2355
      },
      {
        "club_badge_src": null,
        "entry": 3243949,
        "entry_name": "Bigsquad",
        "event_total": 54,
        "has_played": true,
        "id": 23996750,
        "last_rank": 42347,
        "player_name": "Olav Syversen",
        "rank": 46234,
        "rank_sort": 46242,
        "total": 2355
      },
      {
        "club_badge_src": "https://fantasy.premierleague.com/gcs/plfpl-production-adobe-approved/plfpl-production/3795352/589e7a0b-ee10-4e5b-b117-487aad9f4705.png",
        "entry": 3795352,
        "entry_name": "Walkschester United",
        "event_total": 51,
        "has_played": true,
        "id": 28367888,
        "last_rank": 25633,
        "player_name": "Danny Walker",
        "rank": 46234,
        "rank_sort": 46243,
        "total": 2355
      },
      {
        "club_badge_src": null,
        "entry": 5038652,
        "entry_name": "Hossam",
        "event_total": 57,
        "has_played": true,
        "id": 38919323,
        "last_rank": 40986,
        "player_name": "Ahmed Hossam ----",
        "rank": 46234,
        "rank_sort": 46244,
        "total": 2355
      },
      {
        "club_badge_src": null,
        "entry": 6865896,
        "entry_name": "Balotellitubbies",
        "event_total": 55,
        "has_played": true,
        "id": 55015602,
        "last_rank": 43687,
        "player_name": "Lorenzo Kordal",
        "rank": 46234,
        "rank_sort": 46245,
        "total": 2355
      },
      {
        "club_badge_src": null,
        "entry": 7089910,
        "entry_name": "Michail AnStonio",
        "event_total": 62,
        "has_played": true,
        "id": 57080679,
        "last_rank": 54268,
        "player_name": "Luke Instone",
        "rank": 46234,
        "rank_sort": 46246,
        "total": 2355
      },
      {
        "club_badge_src": "https://fantasy.premierleague.com/gcs/plfpl-production-adobe-approved/plfpl-production/229884/39075e3b-21c5-4041-928f-ac3b68543f68.png",
        "entry": 229884,
        "entry_name": "Maresca's miracle",
        "event_total": 77,
        "has_played": true,
        "id": 1529409,
        "last_rank": 74609,
        "player_name": "Jan Prichystal",
        "rank": 46247,
        "rank_sort": 46247,
        "total": 2355
      },
      {
        "club_badge_src": "https://fantasy.premierleague.com/gcs/plfpl-production-adobe-approved/plfpl-production/243392/b89c7c21-cc05-4268-8940-dfad7f1ab2ca.png",
        "entry": 243392,
        "entry_name": "I got Wirtz",
        "event_total": 58,
        "has_played": true,
        "id": 1620724,
        "last_rank": 48007,
        "player_name": "Matthew Burke",
        "rank": 46247,
        "rank_sort": 46248,
        "total": 2355
      },
      {
        "club_badge_src": "https://fantasy.premierleague.com/gcs/plfpl-production-adobe-approved/plfpl-production/321940/d76d3e3e-7dc6-4132-ac45-f33ea28be73e.png",
        "entry": 321940,
        "entry_name": "essam",
        "event_total": 58,
        "has_played": true,
        "id": 2157547,
        "last_rank": 42347,
        "player_name": "El Rash Ford",
        "rank": 46247,
        "rank_sort": 46249,
        "total": 2355
      },
      {
        "club_badge_src": null,
        "entry": 1270622,
        "entry_name": "Zone 14",
        "event_total": 56,
        "has_played": true,
        "id": 8828312,
        "last_rank": 45065,
        "player_name": "Olimjon Komilov",
        "rank": 46247,
        "rank_sort": 46250,
        "total": 2355
      }
    ]
  }
}