{
  "last_updated_data": "2026-05-24T23:28:17Z",
  "league": {
    "admin_entry": null,
    "closed": false,
    "code_privacy": "p",
    "created": "2025-07-20T23:14:33.933835Z",
    "cup_league": 2815434,
    "has_cup": true,
    "id": 314,
    "league_type": "s",
    "max_entries": null,
    "name": "Overall",
    "rank": null,
    "scoring": "c",
    "start_event": 1
  },
  "new_entries": {
    "has_next": false,
    "page": 1,
    "results": []
  },
  "standings": {
    "has_next": true,
    "page": 673,
    "results": [
      {
        "club_badge_src": null,
        "entry": 2701215,
        "entry_name": "Papi Chulos Fc",
        "event_total": 72,
        "has_played": true,
        "id": 19431929,
        "last_rank": 53837,
        "player_name": "david o sullivan",
        "rank": 33524,
        "rank_sort": 33601,
        "total": 2365
      },
      {
        "club_badge_src": null,
        "entry": 2869580,
        "entry_name": "H Bomb's Heroes",
        "event_total": 60,
        "has_played": true,
        "id": 20990680,
        "last_rank": 31995,
        "player_name": "Andrew Harness",
        "rank": 33524,
        "rank_sort": 33602,
        "total": 2365
      },
      {
        "club_badge_src": null,
        "entry": 3072711,
        "entry_name": "Mackes Mannar",
        "event_total": 45,
        "has_played": true,
        "id": 22626379,
        "last_rank": 22216,
        "player_name": "Max Pettersson",
        "rank": 33524,
        "rank_sort": 33603,
        "total": 2365
      },
      {
        "club_badge_src": null,
        "entry": 3087102,
        "entry_name": "HaCunha MUtata",
        "event_total": 37,
        "has_played": true,
        "id": 22745282,
        "last_rank": 16512,
        "player_name": "Gabor Toth",
        "rank": 33524,
        "rank_sort": 33604,
        "total": 2365
      },
      {
        "club_badge_src": null,
        "entry": 3096699,
        "entry_name": "Parteys Over",
        "event_total": 73,
        "has_played": true,
        "id": 22823546,
        "last_rank": 55014,
        "player_name": "James Watters",
        "rank": 33524,
        "rank_sort": 33605,
        "total": 2365
      },
      {
        "club_badge_src": null,
        "entry": 3217346,
        "entry_name": "ColdBlueFC",
        "event_total": 66,
        "has_played": true,
        "id": 23788889,
        "last_rank": 34293,
        "player_name": "Abhilekh Chamling",
        "rank": 33524,
        "rank_sort": 33606,
        "total": 2365
      },
      {
        "club_badge_src": null,
        "entry": 3253408,
        "entry_name": "45 points in 2 hours",
        "event_total": 57,
        "has_played": true,
        "id": 24071392,
        "last_rank": 29071,
        "player_name": "Vinny Kelly",
        "rank": 33524,
        "rank_sort": 33607,
        "total": 2365
      },
      {
        "club_badge_src": "https://fantasy.premierleague.com/gcs/plfpl-production-adobe-approved/plfpl-production/3407673/eed9539b-b791-4f20-8818-044441277407.png",
        "entry": 3407673,
        "entry_name": "\u0e0b\u0e31\u0e19\u0e04\u0e38\u0e07\u0e08\u0e32\u0e22\u0e40\u0e22\u0e47\u0e19\u0e46",
        "event_total": 45,
        "has_played": true,
        "id": 25306418,
        "last_rank": 22154,
        "player_name": "Micky Asawamanasak",
        "rank": 33524,
        "rank_sort": 33608,
        "total": 2365
      },
      {
        "club_badge_src": "https://fantasy.premierleague.com/gcs/plfpl-production-adobe-approved/plfpl-production/3414205/3464615f-d94e-4118-b7c8-692a3196ccfc.png",
        "entry": 3414205,
        "entry_name": "Iron boys",
        "event_total": 64,
        "has_played": true,
        "id": 25358081,
        "last_rank": 36831,
        "player_name": "Jay Quartermaine",
        "rank": 33524,
        "rank_sort": 33609,
        "total": 2365
      },
      {
        "club_badge_src": null,
        "entry": 3614992,
        "entry_name": "The Cesc Pistols",
        "event_total": 66,
        "has_played": true,
        "id": 26931142,
        "last_rank": 39246,
        "player_name": "Archie Wilson",
        "rank": 33524,
        "rank_sort": 33610,
        "total": 2365
      },
      {
        "club_badge_src": "https://fantasy.premierleague.com/gcs/plfpl-production-adobe-approved/plfpl-production/3884779/2aea1979-85e9-42bc-8946-bfc4bd1be7e5.png",
        "entry": 3884779,
        "entry_name": "Bull City FC",
        "event_total": 47,
        "has_played": true,
        "id": 29190842,
        "last_rank": 20416,
        "player_name": "Julian Moiwai",
        "rank": 33524,
        "rank_sort": 33611,
        "total": 2365
      },
      {
        "club_badge_src": null,
        "entry": 3908862,
        "entry_name": "Tichette de 26",
        "event_total": 58,
        "has_played": true,
        "id": 29387924,
        "last_rank": 34293,
        "player_name": "Ludovic Favre-Bulle",
        "rank": 33524,
        "rank_sort": 33612,
        "total": 2365
      },
      {
        "club_badge_src": null,
        "entry": 4033197,
        "entry_name": "adam arfida",
        "event_total": 64,
        "has_played": true,
        "id": 30408136,
        "last_rank": 36831,
        "player_name": "Adam arfida",
        "rank": 33524,
        "rank_sort": 33613,
        "total": 2365
      },
      {
        "club_badge_src": null,
        "entry": 4066435,
        "entry_name": "Mixun Joulukuusi",
        "event_total": 59,
        "has_played": true,
        "id": 30689677,
        "last_rank": 35768,
        "player_name": "Jukka Lammentausta",
        "rank": 33524,
        "rank_sort": 33614,
        "total": 2365
      },
      {
        "club_badge_src": "https://fantasy.premierleague.com/gcs/plfpl-production-adobe-approved/plfpl-production/4454261/6aab1d78-e3f1-437f-8b8a-8a8d5009cc7e.png",
        "entry": 4454261,
        "entry_name": "Ciks",
        "event_total": 57,
        "has_played": true,
        "id": 33929596,
        "last_rank": 33483,
        "player_name": "Nemanja \u010ciki\u0107",
        "rank": 33524,
        "rank_sort": 33615,
        "total": 2365
      },
      {
        "club_badge_src": null,
        "entry": 4577474,
        "entry_name": "Gillingham F.C.",
        "event_total": 54,
        "has_played": true,
        "id": 34941181,
        "last_rank": 30191,
        "player_name": "Sasa Gilic",
        "rank": 33524,
        "rank_sort": 33616,
        "total": 2365
      },
      {
        "club_badge_src": null,
        "entry": 4823100,
        "entry_name": "JWFC",
        "event_total": 37,
        "has_played": true,
        "id": 37144006,
        "last_rank": 16512,
        "player_name": "J Wakefield",
        "rank": 33524,
        "rank_sort": 33617,
        "total": 2365
      },
      {
        "club_badge_src": null,
        "entry": 5031455,
        "entry_name": "Tricky Trees",
        "event_total": 67,
        "has_played": true,
        "id": 38861258,
        "last_rank": 46106,
        "player_name": "Dominic Devlin",
        "rank": 33524,
        "rank_sort": 33618,
        "total": 2365
      },
      {
        "club_badge_src": null,
        "entry": 5048694,
        "entry_name": "SEALS",
        "event_total": 74,
        "has_played": true,
        "id": 39006749,
        "last_rank": 57001,
        "player_name": "Joe -",
        "rank": 33524,
        "rank_sort": 33619,
        "total": 2365
      },
      {
        "club_badge_src": null,
        "entry": 5071344,
        "entry_name": "Elbispor",
        "event_total": 55,
        "has_played": true,
        "id": 39191611,
        "last_rank": 31125,
        "player_name": "Mehmet Gungor",
        "rank": 33524,
        "rank_sort": 33620,
        "total": 2365
      },
      {
        "club_badge_src": null,
        "entry": 5086608,
        "entry_name": "USMAN",
        "event_total": 72,
        "has_played": true,
        "id": 39314067,
        "last_rank": 53952,
        "player_name": "Usman Olabiyi",
        "rank": 33524,
        "rank_sort": 33621,
        "total": 2365
      },
      {
        "club_badge_src": null,
        "entry": 5414600,
        "entry_name": "Dnipro FC",
        "event_total": 68,
        "has_played": true,
        "id": 42108495,
        "last_rank": 36624,
        "player_name": "Artem P",
        "rank": 33524,
        "rank_sort": 33622,
        "total": 2365
      },
      {
        "club_badge_src": null,
        "entry": 5519083,
        "entry_name": "The Bhoys",
        "event_total": 67,
        "has_played": true,
        "id": 43033995,
        "last_rank": 45927,
        "player_name": "Dayle Kempsell",
        "rank": 33524,
        "rank_sort": 33623,
        "total": 2365
      },
      {
        "club_badge_src": "https://fantasy.premierleague.com/gcs/plfpl-production-adobe-approved/plfpl-production/5630952/82f5f51b-6c02-48fb-9834-223b37a212f9.png",
        "entry": 5630952,
        "entry_name": "arsenal",
        "event_total": 62,
        "has_played": true,
        "id": 44025635,
        "last_rank": 39403,
        "player_name": "Ayad Hasan",
        "rank": 33524,
        "rank_sort": 33624,
        "total": 2365
      },
      {
        "club_badge_src": null,
        "entry": 5695786,
        "entry_name": "Casablanca",
        "event_total": 60,
        "has_played": true,
        "id": 44591523,
        "last_rank": 36624,
        "player_name": "Tom \u00b0",
        "rank": 33524,
        "rank_sort": 33625,
        "total": 2365
      },
      {
        "club_badge_src": null,
        "entry": 6194844,
        "entry_name": "Waffle Warriors",
        "event_total": 65,
        "has_played": true,
        "id": 49000867,
        "last_rank": 42940,
        "player_name": "Beckham Tan",
        "rank": 33524,
        "rank_sort": 33626,
        "total": 2365
      },
      {
        "club_badge_src": null,
        "entry": 6223825,
        "entry_name": "One Size Fitz Hall",
        "event_total": 76,
        "has_played": true,
        "id": 49248970,
        "last_rank": 60462,
        "player_name": "Danny Taylor",
        "rank": 33524,
        "rank_sort": 33627,
        "total": 2365
      },
      {
        "club_badge_src": "https://fantasy.premierleague.com/gcs/plfpl-production-adobe-approved/plfpl-production/6289908/2af97134-7e76-46b0-8b7b-c14fee9203d7.png",
        "entry": 6289908,
        "entry_name": "Mitchos Mates",
        "event_total": 68,
        "has_played": true,
        "id": 49834074,
        "last_rank": 47417,
        "player_name": "Mitch Johnstone",
        "rank": 33524,
        "rank_sort": 33628,
        "total": 2365
      },
      {
        "club_badge_src": null,
        "entry": 6365923,
        "entry_name": "Monster",
        "event_total": 60,
        "has_played": true,
        "id": 50619280,
        "last_rank": 36963,
        "player_name": "Ziyad Alabdulhadi",
        "rank": 33524,
        "rank_sort": 33629,
        "total": 2365
      },
      {
        "club_badge_src": null,
        "entry": 6662804,
        "entry_name": "FantasyMicL",
        "event_total": 52,
        "has_played": true,
        "id": 53282669,
        "last_rank": 28348,
        "player_name": "Mikkel Midtlyng",
        "rank": 33524,
        "rank_sort": 33630,
        "total": 2365
      },
      {
        "club_badge_src": null,
        "entry": 6904613,
        "entry_name": "Restored",
        "event_total": 52,
        "has_played": true,
        "id": 55342818,
        "last_rank": 28273,
        "player_name": "Seif Hany",
        "rank": 33524,
        "rank_sort": 33631,
        "total": 2365
      },
      {
        "club_badge_src": "https://fantasy.premierleague.com/gcs/plfpl-production-adobe-approved/plfpl-production/7370083/1532ea00-df14-4180-a120-30ba6eb27ad4.png",
        "entry": 7370083,
        "entry_name": "Ange Management",
        "event_total": 36,
        "has_played": true,
        "id": 59735339,
        "last_rank": 15920,
        "player_name": "Adarsh Padma",
        "rank": 33524,
        "rank_sort": 33632,
        "total": 2365
      },
      {
        "club_badge_src": "https://fantasy.premierleague.com/gcs/plfpl-production-adobe-approved/plfpl-production/7532455/e1fbf14b-7586-407b-a2ae-7557c9d145d5.png",
        "entry": 7532455,
        "entry_name": "Mercilessly",
        "event_total": 59,
        "has_played": true,
        "id": 61651000,
        "last_rank": 35768,
        "player_name": "Abdullah R Alkubaisi",
        "rank": 33524,
        "rank_sort": 33633,
        "total": 2365
      },
      {
        "club_badge_src": "https://fantasy.premierleague.com/gcs/plfpl-production-adobe-approved/plfpl-production/7591591/ef36fde1-3d9f-4a1c-bbb7-e4201d9161cb.png",
        "entry": 7591591,
        "entry_name": "Ras Shukela",
        "event_total": 65,
        "has_played": true,
        "id": 62189102,
        "last_rank": 42940,
        "player_name": "Nigel Mpofu",
        "rank": 33524,
        "rank_sort": 33634,
        "total": 2365
      },
      {
        "club_badge_src": null,
        "entry": 7713944,
        "entry_name": "The Gunners",
        "event_total": 47,
        "has_played": true,
        "id": 63296414,
        "last_rank": 23748,
        "player_name": "Habib El Rey",
        "rank": 33524,
        "rank_sort": 33635,
        "total": 2365
      },
      {
        "club_badge_src": null,
        "entry": 7755697,
        "entry_name": "DOUBLE TROUBLE",
        "event_total": 61,
        "has_played": true,
        "id": 63674135,
        "last_rank": 38163,
        "player_name": "Jason I",
        "rank": 33524,
        "rank_sort": 33636,
        "total": 2365
      },
      {
        "club_badge_src": "https://fantasy.premierleague.com/gcs/plfpl-production-adobe-approved/plfpl-production/9078488/6cf46c84-f1c2-4fd5-9874-adcacb60e979.png",
        "entry": 9078488,
        "entry_name": "DarlingtonAllStars26",
        "event_total": 36,
        "has_played": true,
        "id": 76240950,
        "last_rank": 13500,
        "player_name": "Ken Inge Stensrud",
        "rank": 33524,
        "rank_sort": 33637,
        "total": 2365
      },
      {
        "club_badge_src": null,
        "entry": 9205464,
        "entry_name": "Sparkle Motion",
        "event_total": 33,
        "has_played": true,
        "id": 77488202,
        "last_rank": 14102,
        "player_name": "Jonathan Parker",
        "rank": 33524,
        "rank_sort": 33638,
        "total": 2365
      },
      {
        "club_badge_src": null,
        "entry": 9393296,
        "entry_name": "Tim\u2019s Team",
        "event_total": 71,
        "has_played": true,
        "id": 79309076,
        "last_rank": 51984,
        "player_name": "Tim Sparrow",
        "rank": 33524,
        "rank_sort": 33639,
        "total": 2365
      },
      {
        "club_badge_src": "https://fantasy.premierleague.com/gcs/plfpl-production-adobe-approved/plfpl-production/3726/00710027-1bbb-4e7a-a0df-c75e0497d338.png",
        "entry": 3726,
        "entry_name": "Persenal",
        "event_total": 60,
        "has_played": true,
        "id": 21111,
        "last_rank": 37058,
        "player_name": "Alireza Keshavarz",
        "rank": 33640,
        "rank_sort": 33640,
        "total": 2365
      },
      {
        "club_badge_src": "https://fantasy.premierleague.com/gcs/plfpl-production-adobe-approved/plfpl-production/5779/08568f42-4d11-49e0-aa22-ffd5c8aadecc.png",
        "entry": 5779,
        "entry_name": "Flesk&Duppe",
        "event_total": 64,
        "has_played": true,
        "id": 33015,
        "last_rank": 36963,
        "player_name": "Ole Martin Aga Hoen",
        "rank": 33640,
        "rank_sort": 33641,
        "total": 2365
      },
      {
        "club_badge_src": null,
        "entry": 15616,
        "entry_name": "SonnyTheHitman",
        "event_total": 59,
        "has_played": true,
        "id": 95995,
        "last_rank": 27203,
        "player_name": "Joseph Allegretti",
        "rank": 33640,
        "rank_sort": 33642,
        "total": 2365
      },
      {
        "club_badge_src": "https://fantasy.premierleague.com/gcs/plfpl-production-adobe-approved/plfpl-production/43282/0b72b61f-a457-43b4-bedb-0d3fd2a74c50.png",
        "entry": 43282,
        "entry_name": "Shamrocks",
        "event_total": 54,
        "has_played": true,
        "id": 277152,
        "last_rank": 26345,
        "player_name": "Spyros Giannelos",
        "rank": 33640,
        "rank_sort": 33643,
        "total": 2365
      },
      {
        "club_badge_src": null,
        "entry": 50324,
        "entry_name": "Champions Reborn",
        "event_total": 75,
        "has_played": true,
        "id": 323691,
        "last_rank": 58911,
        "player_name": "Ricky Wilkes",
        "rank": 33640,
        "rank_sort": 33644,
        "total": 2365
      },
      {
        "club_badge_src": "https://fantasy.premierleague.com/gcs/plfpl-production-adobe-approved/plfpl-production/63657/fb236c7b-a743-4dcd-b9ff-143b453776bb.png",
        "entry": 63657,
        "entry_name": "Red Squirrels",
        "event_total": 73,
        "has_played": true,
        "id": 410769,
        "last_rank": 55014,
        "player_name": "Nick Sparrow",
        "rank": 33640,
        "rank_sort": 33645,
        "total": 2365
      },
      {
        "club_badge_src": null,
        "entry": 218262,
        "entry_name": "BEST XX2",
        "event_total": 50,
        "has_played": true,
        "id": 1451438,
        "last_rank": 22830,
        "player_name": "dorian henderson",
        "rank": 33640,
        "rank_sort": 33646,
        "total": 2365
      },
      {
        "club_badge_src": "https://fantasy.premierleague.com/gcs/plfpl-production-adobe-approved/plfpl-production/272329/a10d197f-d501-4cf6-a466-56d991b4967c.png",
        "entry": 272329,
        "entry_name": "CatchMeIfYouEmreCan",
        "event_total": 66,
        "has_played": true,
        "id": 1811858,
        "last_rank": 39403,
        "player_name": "TJ Lee",
        "rank": 33640,
        "rank_sort": 33647,
        "total": 2365
      },
      {
        "club_badge_src": null,
        "entry": 279784,
        "entry_name": "Flesh Hunters",
        "event_total": 53,
        "has_played": true,
        "id": 1862125,
        "last_rank": 25436,
        "player_name": "Frode Sk\u00e5r",
        "rank": 33640,
        "rank_sort": 33648,
        "total": 2365
      },
      {
        "club_badge_src": "https://fantasy.premierleague.com/gcs/plfpl-production-adobe-approved/plfpl-production/324224/6aff882a-7b32-4429-8e5a-096c94a3e306.png",
        "entry": 324224,
        "entry_name": "Le Saux Solid Crew",
        "event_total": 48,
        "has_played": true,
        "id": 2172605,
        "last_rank": 24636,
        "player_name": "Simon Chapman",
        "rank": 33640,
        "rank_sort": 33649,
        "total": 2365
      },
      {
        "club_badge_src": null,
        "entry": 353018,
        "entry_name": "Livin\u2019 Saliba Loca",
        "event_total": 43,
        "has_played": true,
        "id": 2362658,
        "last_rank": 20678,
        "player_name": "Kian Chalmers",
        "rank": 33640,
        "rank_sort": 33650,
        "total": 2365
      }
    ]
  }
}