{
  "last_updated_data": "2026-05-24T23:28:17Z",
  "league": {
    "admin_entry": null,
    "closed": false,
    "code_privacy": "p",
    "created": "2025-07-20T23:14:33.933835Z",
    "cup_league": 2815434,
    "has_cup": true,
    "id": 314,
    "league_type": "s",
    "max_entries": null,
    "name": "Overall",
    "rank": null,
    "scoring": "c",
    "start_event": 1
  },
  "new_entries": {
    "has_next": false,
    "page": 1,
    "results": []
  },
  "standings": {
    "has_next": true,
    "page": 1232,
    "results": [
      {
        "club_badge_src": null,
        "entry": 337212,
        "entry_name": "Omunye Sesko Munye",
        "event_total": 72,
        "has_played": true,
        "id": 2257545,
        "last_rank": 75537,
        "player_name": "Tyreece Naidoo",
        "rank": 61527,
        "rank_sort": 61551,
        "total": 2345
      },
      {
        "club_badge_src": "https://fantasy.premierleague.com/gcs/plfpl-production-adobe-approved/plfpl-production/374821/d153d251-7909-4531-a02a-c05132f162b6.png",
        "entry": 374821,
        "entry_name": "Vishful Thinking",
        "event_total": 46,
        "has_played": true,
        "id": 2508972,
        "last_rank": 44672,
        "player_name": "Vishal Rana",
        "rank": 61527,
        "rank_sort": 61552,
        "total": 2345
      },
      {
        "club_badge_src": null,
        "entry": 381452,
        "entry_name": "Emr\u00e9 \ufffd\ufe0f\ufffd",
        "event_total": 58,
        "has_played": true,
        "id": 2557169,
        "last_rank": 57001,
        "player_name": "\u0627\u0644\u0634\u0628\u062d \u0627\u0644\u0623\u0628\u064a\u0636",
        "rank": 61527,
        "rank_sort": 61553,
        "total": 2345
      },
      {
        "club_badge_src": null,
        "entry": 386553,
        "entry_name": "FC Romi",
        "event_total": 65,
        "has_played": true,
        "id": 2593249,
        "last_rank": 78244,
        "player_name": "Romana Burianova",
        "rank": 61527,
        "rank_sort": 61554,
        "total": 2345
      },
      {
        "club_badge_src": "https://fantasy.premierleague.com/gcs/plfpl-production-adobe-approved/plfpl-production/386954/18f60ab3-03b9-4372-883b-6c04510b8514.png",
        "entry": 386954,
        "entry_name": "Leedsing the way",
        "event_total": 56,
        "has_played": true,
        "id": 2595890,
        "last_rank": 60462,
        "player_name": "David Maclennan",
        "rank": 61527,
        "rank_sort": 61555,
        "total": 2345
      },
      {
        "club_badge_src": null,
        "entry": 403512,
        "entry_name": "GKFC",
        "event_total": 46,
        "has_played": true,
        "id": 2705689,
        "last_rank": 39023,
        "player_name": "Adrienne Cook",
        "rank": 61527,
        "rank_sort": 61556,
        "total": 2345
      },
      {
        "club_badge_src": null,
        "entry": 416339,
        "entry_name": "\u0e19\u0e49\u0e33\u0e21\u0e31\u0e19\u0e2b\u0e2d\u0e22\u0e15\u0e23\u0e32\u0e2b\u0e21\u0e35",
        "event_total": 57,
        "has_played": true,
        "id": 2790957,
        "last_rank": 48642,
        "player_name": "Saisema Natt",
        "rank": 61527,
        "rank_sort": 61557,
        "total": 2345
      },
      {
        "club_badge_src": null,
        "entry": 434955,
        "entry_name": "Frimpong ping pong",
        "event_total": 59,
        "has_played": true,
        "id": 2916751,
        "last_rank": 65475,
        "player_name": "Tom Garsed-Bennet",
        "rank": 61527,
        "rank_sort": 61558,
        "total": 2345
      },
      {
        "club_badge_src": "https://fantasy.premierleague.com/gcs/plfpl-production-adobe-approved/plfpl-production/462593/25def0ee-5a43-4c32-b589-87291583e2c1.png",
        "entry": 462593,
        "entry_name": "Aarni Slot",
        "event_total": 55,
        "has_played": true,
        "id": 3103019,
        "last_rank": 45714,
        "player_name": "Aarni Murto",
        "rank": 61527,
        "rank_sort": 61559,
        "total": 2345
      },
      {
        "club_badge_src": null,
        "entry": 464945,
        "entry_name": "FrankSpurs",
        "event_total": 69,
        "has_played": true,
        "id": 3119003,
        "last_rank": 86735,
        "player_name": "Stephen Falero",
        "rank": 61527,
        "rank_sort": 61560,
        "total": 2345
      },
      {
        "club_badge_src": "https://fantasy.premierleague.com/gcs/plfpl-production-adobe-approved/plfpl-production/498666/e7c53e06-7909-45b3-a618-26d2c6278571.png",
        "entry": 498666,
        "entry_name": "Cunha believe it",
        "event_total": 61,
        "has_played": true,
        "id": 3346894,
        "last_rank": 69907,
        "player_name": "Gary Power",
        "rank": 61527,
        "rank_sort": 61561,
        "total": 2345
      },
      {
        "club_badge_src": null,
        "entry": 534441,
        "entry_name": "FPL final boss",
        "event_total": 56,
        "has_played": true,
        "id": 3596770,
        "last_rank": 53621,
        "player_name": "Ben Lycett",
        "rank": 61527,
        "rank_sort": 61562,
        "total": 2345
      },
      {
        "club_badge_src": "https://fantasy.premierleague.com/gcs/plfpl-production-adobe-approved/plfpl-production/540990/4dc3bac9-b3d9-4c42-a1e1-1e611449ac1d.png",
        "entry": 540990,
        "entry_name": "La Joya \ufffd",
        "event_total": 48,
        "has_played": true,
        "id": 3641210,
        "last_rank": 36624,
        "player_name": "Samun Shrestha",
        "rank": 61527,
        "rank_sort": 61563,
        "total": 2345
      },
      {
        "club_badge_src": null,
        "entry": 554374,
        "entry_name": "Okaku Keengulu",
        "event_total": 48,
        "has_played": true,
        "id": 3731206,
        "last_rank": 47596,
        "player_name": "David Tangeni Abed",
        "rank": 61527,
        "rank_sort": 61564,
        "total": 2345
      },
      {
        "club_badge_src": null,
        "entry": 555148,
        "entry_name": "\"No room for racism\"",
        "event_total": 70,
        "has_played": true,
        "id": 3736411,
        "last_rank": 70985,
        "player_name": "Sylvester Thygesen",
        "rank": 61527,
        "rank_sort": 61565,
        "total": 2345
      },
      {
        "club_badge_src": null,
        "entry": 586356,
        "entry_name": "shabango",
        "event_total": 58,
        "has_played": true,
        "id": 3946067,
        "last_rank": 64005,
        "player_name": "Ridwan Abubakar",
        "rank": 61527,
        "rank_sort": 61566,
        "total": 2345
      },
      {
        "club_badge_src": "https://fantasy.premierleague.com/gcs/plfpl-production-adobe-approved/plfpl-production/623728/916f6420-84b3-42a6-9378-55e5016b903a.png",
        "entry": 623728,
        "entry_name": "Moorzy FC",
        "event_total": 63,
        "has_played": true,
        "id": 4215160,
        "last_rank": 65475,
        "player_name": "Darragh Moore",
        "rank": 61527,
        "rank_sort": 61567,
        "total": 2345
      },
      {
        "club_badge_src": null,
        "entry": 664508,
        "entry_name": "pique blinders",
        "event_total": 56,
        "has_played": true,
        "id": 4492517,
        "last_rank": 60671,
        "player_name": "OMAR HOSSAM",
        "rank": 61527,
        "rank_sort": 61568,
        "total": 2345
      },
      {
        "club_badge_src": null,
        "entry": 672498,
        "entry_name": "jesus is king",
        "event_total": 64,
        "has_played": true,
        "id": 4548910,
        "last_rank": 76128,
        "player_name": "Brandon Edwards",
        "rank": 61527,
        "rank_sort": 61569,
        "total": 2345
      },
      {
        "club_badge_src": null,
        "entry": 692907,
        "entry_name": "eccie teacake",
        "event_total": 56,
        "has_played": true,
        "id": 4692712,
        "last_rank": 60671,
        "player_name": "michael wells",
        "rank": 61527,
        "rank_sort": 61570,
        "total": 2345
      },
      {
        "club_badge_src": null,
        "entry": 746992,
        "entry_name": "HMH55",
        "event_total": 51,
        "has_played": true,
        "id": 5081876,
        "last_rank": 52205,
        "player_name": "Hamzah Zaqout",
        "rank": 61527,
        "rank_sort": 61571,
        "total": 2345
      },
      {
        "club_badge_src": "https://fantasy.premierleague.com/gcs/plfpl-production-adobe-approved/plfpl-production/753564/66328d5e-7e3d-4f8a-95f6-28f974a9ae7b.png",
        "entry": 753564,
        "entry_name": "Make a Wissa",
        "event_total": 51,
        "has_played": true,
        "id": 5128419,
        "last_rank": 40297,
        "player_name": "Mike Pipintakos",
        "rank": 61527,
        "rank_sort": 61572,
        "total": 2345
      },
      {
        "club_badge_src": "https://fantasy.premierleague.com/gcs/plfpl-production-adobe-approved/plfpl-production/789135/9b3846b7-a770-42a8-afeb-7b5b2b9b4632.png",
        "entry": 789135,
        "entry_name": "EdozieCome EdozieGo",
        "event_total": 59,
        "has_played": true,
        "id": 5397947,
        "last_rank": 51720,
        "player_name": "Chris Bailey",
        "rank": 61527,
        "rank_sort": 61573,
        "total": 2345
      },
      {
        "club_badge_src": null,
        "entry": 803640,
        "entry_name": "Grezzy FC",
        "event_total": 58,
        "has_played": true,
        "id": 5501180,
        "last_rank": 57001,
        "player_name": "Alex Graham",
        "rank": 61527,
        "rank_sort": 61574,
        "total": 2345
      },
      {
        "club_badge_src": "https://fantasy.premierleague.com/gcs/plfpl-production-adobe-approved/plfpl-production/945233/5c97b744-709d-4453-a74a-062321e29405.png",
        "entry": 945233,
        "entry_name": "Barry Chucker",
        "event_total": 54,
        "has_played": true,
        "id": 6510468,
        "last_rank": 50468,
        "player_name": "Aaron Askew",
        "rank": 61527,
        "rank_sort": 61575,
        "total": 2345
      },
      {
        "club_badge_src": null,
        "entry": 967776,
        "entry_name": "OmeJelle",
        "event_total": 74,
        "has_played": true,
        "id": 6670166,
        "last_rank": 89055,
        "player_name": "J Godefroy",
        "rank": 61527,
        "rank_sort": 61576,
        "total": 2345
      },
      {
        "club_badge_src": "https://fantasy.premierleague.com/gcs/plfpl-production-adobe-approved/plfpl-production/1002816/dae0718f-4868-4960-bc25-059266c955ec.png",
        "entry": 1002816,
        "entry_name": "Noni your business",
        "event_total": 61,
        "has_played": true,
        "id": 6932078,
        "last_rank": 62223,
        "player_name": "Nick Thomas",
        "rank": 61527,
        "rank_sort": 61577,
        "total": 2345
      },
      {
        "club_badge_src": "https://fantasy.premierleague.com/gcs/plfpl-production-adobe-approved/plfpl-production/1115038/cf025f72-9410-4a11-a852-bf302c96b3df.png",
        "entry": 1115038,
        "entry_name": "Wirtz-case Scenario",
        "event_total": 67,
        "has_played": true,
        "id": 7723543,
        "last_rank": 82398,
        "player_name": "Jiwo Laksono",
        "rank": 61527,
        "rank_sort": 61578,
        "total": 2345
      },
      {
        "club_badge_src": "https://fantasy.premierleague.com/gcs/plfpl-production-adobe-approved/plfpl-production/1167364/bf305885-3bac-483d-903b-574d3601d889.png",
        "entry": 1167364,
        "entry_name": "Two_Qshqawan",
        "event_total": 61,
        "has_played": true,
        "id": 8097833,
        "last_rank": 62223,
        "player_name": "Hussam Alnowaiser",
        "rank": 61527,
        "rank_sort": 61579,
        "total": 2345
      },
      {
        "club_badge_src": null,
        "entry": 1196309,
        "entry_name": "Me, Myself, Ndiaye",
        "event_total": 59,
        "has_played": true,
        "id": 8301389,
        "last_rank": 65796,
        "player_name": "Chris Rowe",
        "rank": 61527,
        "rank_sort": 61580,
        "total": 2345
      },
      {
        "club_badge_src": "https://fantasy.premierleague.com/gcs/plfpl-production-adobe-approved/plfpl-production/1236139/59f1477a-8cb8-4c98-8085-7c3e1c2d4aaa.png",
        "entry": 1236139,
        "entry_name": "Jezzo's 11",
        "event_total": 66,
        "has_played": true,
        "id": 8583971,
        "last_rank": 71713,
        "player_name": "Jeremy Plant",
        "rank": 61527,
        "rank_sort": 61581,
        "total": 2345
      },
      {
        "club_badge_src": "https://fantasy.premierleague.com/gcs/plfpl-production-adobe-approved/plfpl-production/1264547/a6f759ad-9fe8-45d7-856a-20a32c7c57aa.png",
        "entry": 1264547,
        "entry_name": "Awny FC",
        "event_total": 51,
        "has_played": true,
        "id": 8786140,
        "last_rank": 40297,
        "player_name": "Ahmed Awny",
        "rank": 61527,
        "rank_sort": 61582,
        "total": 2345
      },
      {
        "club_badge_src": "https://fantasy.premierleague.com/gcs/plfpl-production-adobe-approved/plfpl-production/1341712/6ad16b37-8a58-4ed4-a67a-346144eec880.png",
        "entry": 1341712,
        "entry_name": "Ait nouri Too Bright",
        "event_total": 77,
        "has_played": true,
        "id": 9328681,
        "last_rank": 95890,
        "player_name": "F -",
        "rank": 61527,
        "rank_sort": 61583,
        "total": 2345
      },
      {
        "club_badge_src": null,
        "entry": 1351728,
        "entry_name": "Robert\u201d\u010cech\u201dS\u00e1nchez",
        "event_total": 53,
        "has_played": true,
        "id": 9397005,
        "last_rank": 55311,
        "player_name": "Jorge Guadarrama",
        "rank": 61527,
        "rank_sort": 61584,
        "total": 2345
      },
      {
        "club_badge_src": null,
        "entry": 1382053,
        "entry_name": "Obi Wan Iwobi",
        "event_total": 61,
        "has_played": true,
        "id": 9612197,
        "last_rank": 69641,
        "player_name": "Jack Barnett",
        "rank": 61527,
        "rank_sort": 61585,
        "total": 2345
      },
      {
        "club_badge_src": null,
        "entry": 1415754,
        "entry_name": "Syphilis Town FC",
        "event_total": 71,
        "has_played": true,
        "id": 9855879,
        "last_rank": 91835,
        "player_name": "Jay Green",
        "rank": 61527,
        "rank_sort": 61586,
        "total": 2345
      },
      {
        "club_badge_src": null,
        "entry": 1421098,
        "entry_name": "Polo",
        "event_total": 67,
        "has_played": true,
        "id": 9894985,
        "last_rank": 57857,
        "player_name": "Phuntsok Norbu Lama",
        "rank": 61527,
        "rank_sort": 61587,
        "total": 2345
      },
      {
        "club_badge_src": null,
        "entry": 1425173,
        "entry_name": "Koko FC",
        "event_total": 66,
        "has_played": true,
        "id": 9929874,
        "last_rank": 80465,
        "player_name": "Omar Alfatih",
        "rank": 61527,
        "rank_sort": 61588,
        "total": 2345
      },
      {
        "club_badge_src": null,
        "entry": 1461547,
        "entry_name": "Mustapha Elchami",
        "event_total": 59,
        "has_played": true,
        "id": 10187763,
        "last_rank": 65796,
        "player_name": "Safi Elchami",
        "rank": 61527,
        "rank_sort": 61589,
        "total": 2345
      },
      {
        "club_badge_src": "https://fantasy.premierleague.com/gcs/plfpl-production-adobe-approved/plfpl-production/1497086/0eeefd4b-370c-4d35-be53-a5d7bfc2812c.png",
        "entry": 1497086,
        "entry_name": "Wirtz Me Luck",
        "event_total": 55,
        "has_played": true,
        "id": 10440266,
        "last_rank": 51984,
        "player_name": "Duy Vu",
        "rank": 61527,
        "rank_sort": 61590,
        "total": 2345
      },
      {
        "club_badge_src": null,
        "entry": 1545966,
        "entry_name": "TouchDown ManKay",
        "event_total": 59,
        "has_played": true,
        "id": 10793204,
        "last_rank": 51720,
        "player_name": "Kitso Molefe",
        "rank": 61527,
        "rank_sort": 61591,
        "total": 2345
      },
      {
        "club_badge_src": null,
        "entry": 1734560,
        "entry_name": "Casablanca",
        "event_total": 67,
        "has_played": true,
        "id": 12167948,
        "last_rank": 82664,
        "player_name": "Omar EL Baraky",
        "rank": 61527,
        "rank_sort": 61592,
        "total": 2345
      },
      {
        "club_badge_src": null,
        "entry": 1887184,
        "entry_name": "Castleona FC",
        "event_total": 67,
        "has_played": true,
        "id": 13299740,
        "last_rank": 73720,
        "player_name": "alex castle",
        "rank": 61527,
        "rank_sort": 61593,
        "total": 2345
      },
      {
        "club_badge_src": null,
        "entry": 1895708,
        "entry_name": "The Dobbinators FC",
        "event_total": 68,
        "has_played": true,
        "id": 13361794,
        "last_rank": 75874,
        "player_name": "Sam Dobbs",
        "rank": 61527,
        "rank_sort": 61594,
        "total": 2345
      },
      {
        "club_badge_src": "https://fantasy.premierleague.com/gcs/plfpl-production-adobe-approved/plfpl-production/1978540/9dceba63-642f-4b26-8512-e35cb2c12f76.png",
        "entry": 1978540,
        "entry_name": "Wirtz Case Scenario",
        "event_total": 62,
        "has_played": true,
        "id": 13967882,
        "last_rank": 56708,
        "player_name": "James Lavan",
        "rank": 61527,
        "rank_sort": 61595,
        "total": 2345
      },
      {
        "club_badge_src": "https://fantasy.premierleague.com/gcs/plfpl-production-adobe-approved/plfpl-production/2000961/f1595d9f-267d-49a3-941d-82d7e7e23e77.png",
        "entry": 2000961,
        "entry_name": "Extra Spicy Currie",
        "event_total": 64,
        "has_played": true,
        "id": 14145684,
        "last_rank": 75139,
        "player_name": "Charlie Hussey",
        "rank": 61527,
        "rank_sort": 61596,
        "total": 2345
      },
      {
        "club_badge_src": null,
        "entry": 2002301,
        "entry_name": "Al_Obidy",
        "event_total": 55,
        "has_played": true,
        "id": 14155789,
        "last_rank": 58911,
        "player_name": "waleed Alobidy",
        "rank": 61527,
        "rank_sort": 61597,
        "total": 2345
      },
      {
        "club_badge_src": null,
        "entry": 2066244,
        "entry_name": "Jacko ngumoha",
        "event_total": 62,
        "has_played": true,
        "id": 14646331,
        "last_rank": 71956,
        "player_name": "Graham Jackson",
        "rank": 61527,
        "rank_sort": 61598,
        "total": 2345
      },
      {
        "club_badge_src": null,
        "entry": 2074288,
        "entry_name": "Lavia La Vida Loca",
        "event_total": 64,
        "has_played": true,
        "id": 14706651,
        "last_rank": 75874,
        "player_name": "Koen Cleynhens",
        "rank": 61527,
        "rank_sort": 61599,
        "total": 2345
      },
      {
        "club_badge_src": null,
        "entry": 2139798,
        "entry_name": "United Road",
        "event_total": 62,
        "has_played": true,
        "id": 15207509,
        "last_rank": 63390,
        "player_name": "Chan Singh",
        "rank": 61527,
        "rank_sort": 61600,
        "total": 2345
      }
    ]
  }
}