{
  "last_updated_data": "2026-05-24T23:28:17Z",
  "league": {
    "admin_entry": null,
    "closed": false,
    "code_privacy": "p",
    "created": "2025-07-20T23:14:33.933835Z",
    "cup_league": 2815434,
    "has_cup": true,
    "id": 314,
    "league_type": "s",
    "max_entries": null,
    "name": "Overall",
    "rank": null,
    "scoring": "c",
    "start_event": 1
  },
  "new_entries": {
    "has_next": false,
    "page": 1,
    "results": []
  },
  "standings": {
    "has_next": true,
    "page": 1048,
    "results": [
      {
        "club_badge_src": null,
        "entry": 5477875,
        "entry_name": "Sad_man TM",
        "event_total": 48,
        "has_played": true,
        "id": 42646333,
        "last_rank": 39874,
        "player_name": "Sadman Islam",
        "rank": 52323,
        "rank_sort": 52351,
        "total": 2350
      },
      {
        "club_badge_src": null,
        "entry": 5727690,
        "entry_name": "Das FC",
        "event_total": 45,
        "has_played": true,
        "id": 44868722,
        "last_rank": 36200,
        "player_name": "Tanmoy Das",
        "rank": 52323,
        "rank_sort": 52352,
        "total": 2350
      },
      {
        "club_badge_src": null,
        "entry": 6040565,
        "entry_name": "Harry Harmynt FC",
        "event_total": 58,
        "has_played": true,
        "id": 47657644,
        "last_rank": 54380,
        "player_name": "Viktor Gustafsson",
        "rank": 52323,
        "rank_sort": 52353,
        "total": 2350
      },
      {
        "club_badge_src": "https://fantasy.premierleague.com/gcs/plfpl-production-adobe-approved/plfpl-production/6261825/29b82977-9fb2-4a4b-b5b1-6653e79a60a5.png",
        "entry": 6261825,
        "entry_name": "Beef Cherki",
        "event_total": 57,
        "has_played": true,
        "id": 49578505,
        "last_rank": 52759,
        "player_name": "Matt Watson",
        "rank": 52323,
        "rank_sort": 52354,
        "total": 2350
      },
      {
        "club_badge_src": null,
        "entry": 6731068,
        "entry_name": "Ladies Love Levesque",
        "event_total": 50,
        "has_played": true,
        "id": 53875884,
        "last_rank": 42401,
        "player_name": "Matt Del Re",
        "rank": 52323,
        "rank_sort": 52355,
        "total": 2350
      },
      {
        "club_badge_src": null,
        "entry": 6942964,
        "entry_name": "Littlemissfootballer",
        "event_total": 61,
        "has_played": true,
        "id": 55666520,
        "last_rank": 59496,
        "player_name": "Kathy Ceracas",
        "rank": 52323,
        "rank_sort": 52356,
        "total": 2350
      },
      {
        "club_badge_src": "https://fantasy.premierleague.com/gcs/plfpl-production-adobe-approved/plfpl-production/7268984/1facfa3e-6bcc-44c0-9ead-89e6496ed2b9.png",
        "entry": 7268984,
        "entry_name": "Ghost FC",
        "event_total": 87,
        "has_played": true,
        "id": 58783656,
        "last_rank": 120103,
        "player_name": "Chukwuma Okeke",
        "rank": 52323,
        "rank_sort": 52357,
        "total": 2350
      },
      {
        "club_badge_src": null,
        "entry": 7478269,
        "entry_name": "JD FC",
        "event_total": 50,
        "has_played": true,
        "id": 61000411,
        "last_rank": 42386,
        "player_name": "John Dawson",
        "rank": 52323,
        "rank_sort": 52358,
        "total": 2350
      },
      {
        "club_badge_src": null,
        "entry": 7497285,
        "entry_name": "Invincibles",
        "event_total": 69,
        "has_played": true,
        "id": 61245604,
        "last_rank": 74787,
        "player_name": "Ilyaas Parker",
        "rank": 52323,
        "rank_sort": 52359,
        "total": 2350
      },
      {
        "club_badge_src": null,
        "entry": 8296541,
        "entry_name": "Ini FC",
        "event_total": 57,
        "has_played": true,
        "id": 68673381,
        "last_rank": 52853,
        "player_name": "Inioluwa Onifade",
        "rank": 52323,
        "rank_sort": 52360,
        "total": 2350
      },
      {
        "club_badge_src": null,
        "entry": 8487507,
        "entry_name": "Tosin Junior 0594",
        "event_total": 63,
        "has_played": true,
        "id": 70514082,
        "last_rank": 63201,
        "player_name": "Tosin jayjay",
        "rank": 52323,
        "rank_sort": 52361,
        "total": 2350
      },
      {
        "club_badge_src": null,
        "entry": 8502304,
        "entry_name": "Sakalaka",
        "event_total": 65,
        "has_played": true,
        "id": 70659868,
        "last_rank": 66658,
        "player_name": "Mrunal T",
        "rank": 52323,
        "rank_sort": 52362,
        "total": 2350
      },
      {
        "club_badge_src": null,
        "entry": 8906484,
        "entry_name": "Afternoon de Ligt",
        "event_total": 51,
        "has_played": true,
        "id": 74572281,
        "last_rank": 43786,
        "player_name": "Liam Walsh",
        "rank": 52323,
        "rank_sort": 52363,
        "total": 2350
      },
      {
        "club_badge_src": null,
        "entry": 5284,
        "entry_name": "Strutting Edge",
        "event_total": 64,
        "has_played": true,
        "id": 30118,
        "last_rank": 64777,
        "player_name": "Chris Edgington",
        "rank": 52364,
        "rank_sort": 52364,
        "total": 2350
      },
      {
        "club_badge_src": null,
        "entry": 40106,
        "entry_name": "Blazycan FC",
        "event_total": 60,
        "has_played": true,
        "id": 257123,
        "last_rank": 57743,
        "player_name": "Maxim Kouroumbashev",
        "rank": 52364,
        "rank_sort": 52365,
        "total": 2350
      },
      {
        "club_badge_src": null,
        "entry": 40901,
        "entry_name": "22",
        "event_total": 58,
        "has_played": true,
        "id": 262169,
        "last_rank": 54494,
        "player_name": "Kevin Barrett",
        "rank": 52364,
        "rank_sort": 52366,
        "total": 2350
      },
      {
        "club_badge_src": null,
        "entry": 41254,
        "entry_name": "Yoanne Gissa",
        "event_total": 56,
        "has_played": true,
        "id": 264340,
        "last_rank": 51137,
        "player_name": "Gijs Van Kessel",
        "rank": 52364,
        "rank_sort": 52367,
        "total": 2350
      },
      {
        "club_badge_src": null,
        "entry": 49772,
        "entry_name": "Wiatremczesani",
        "event_total": 59,
        "has_played": true,
        "id": 319957,
        "last_rank": 56369,
        "player_name": "Pawel Zmuda",
        "rank": 52364,
        "rank_sort": 52368,
        "total": 2350
      },
      {
        "club_badge_src": null,
        "entry": 90270,
        "entry_name": "Costa del Gol",
        "event_total": 44,
        "has_played": true,
        "id": 589308,
        "last_rank": 35166,
        "player_name": "Thom Norton",
        "rank": 52364,
        "rank_sort": 52369,
        "total": 2350
      },
      {
        "club_badge_src": null,
        "entry": 95862,
        "entry_name": "Conservatory XI",
        "event_total": 61,
        "has_played": true,
        "id": 626278,
        "last_rank": 59632,
        "player_name": "Sean Weston",
        "rank": 52364,
        "rank_sort": 52370,
        "total": 2350
      },
      {
        "club_badge_src": null,
        "entry": 119682,
        "entry_name": "Van De Ven Diagram",
        "event_total": 65,
        "has_played": true,
        "id": 780840,
        "last_rank": 67063,
        "player_name": "Noah Franks",
        "rank": 52364,
        "rank_sort": 52371,
        "total": 2350
      },
      {
        "club_badge_src": "https://fantasy.premierleague.com/gcs/plfpl-production-adobe-approved/plfpl-production/184131/475ce081-1f71-40f7-921d-1fc5abea5709.png",
        "entry": 184131,
        "entry_name": "Boo Boys",
        "event_total": 47,
        "has_played": true,
        "id": 1215810,
        "last_rank": 38774,
        "player_name": "Marcus Oakley",
        "rank": 52364,
        "rank_sort": 52372,
        "total": 2350
      },
      {
        "club_badge_src": null,
        "entry": 193890,
        "entry_name": "Dr_USF",
        "event_total": 55,
        "has_played": true,
        "id": 1285291,
        "last_rank": 49880,
        "player_name": "Yousef 3bzaher",
        "rank": 52364,
        "rank_sort": 52373,
        "total": 2350
      },
      {
        "club_badge_src": null,
        "entry": 195849,
        "entry_name": "GANGSTER ALLARDYCE",
        "event_total": 55,
        "has_played": true,
        "id": 1298953,
        "last_rank": 49607,
        "player_name": "Dean Ryan",
        "rank": 52364,
        "rank_sort": 52374,
        "total": 2350
      },
      {
        "club_badge_src": "https://fantasy.premierleague.com/gcs/plfpl-production-adobe-approved/plfpl-production/224321/7b6a5417-aacb-427d-a394-e11a9b9ca308.png",
        "entry": 224321,
        "entry_name": "20 on the bench FC",
        "event_total": 53,
        "has_played": true,
        "id": 1492202,
        "last_rank": 46660,
        "player_name": "ricky austin",
        "rank": 52364,
        "rank_sort": 52375,
        "total": 2350
      },
      {
        "club_badge_src": "https://fantasy.premierleague.com/gcs/plfpl-production-adobe-approved/plfpl-production/247171/e1db8d51-7786-4846-afcb-c26a4327eb21.png",
        "entry": 247171,
        "entry_name": "Jake",
        "event_total": 38,
        "has_played": true,
        "id": 1645322,
        "last_rank": 28726,
        "player_name": "Jake Winstanley",
        "rank": 52364,
        "rank_sort": 52376,
        "total": 2350
      },
      {
        "club_badge_src": null,
        "entry": 269075,
        "entry_name": "Frankus",
        "event_total": 61,
        "has_played": true,
        "id": 1790032,
        "last_rank": 59632,
        "player_name": "George Topuzov",
        "rank": 52364,
        "rank_sort": 52377,
        "total": 2350
      },
      {
        "club_badge_src": null,
        "entry": 272099,
        "entry_name": "Dont look bak Elanga",
        "event_total": 39,
        "has_played": true,
        "id": 1810309,
        "last_rank": 29688,
        "player_name": "Jake Wright",
        "rank": 52364,
        "rank_sort": 52378,
        "total": 2350
      },
      {
        "club_badge_src": null,
        "entry": 280789,
        "entry_name": "Wirtz Nightmare",
        "event_total": 68,
        "has_played": true,
        "id": 1868577,
        "last_rank": 72702,
        "player_name": "Yazen Mawed",
        "rank": 52364,
        "rank_sort": 52379,
        "total": 2350
      },
      {
        "club_badge_src": null,
        "entry": 353704,
        "entry_name": "Ballyhale utd",
        "event_total": 54,
        "has_played": true,
        "id": 2367260,
        "last_rank": 48084,
        "player_name": "David Lawler",
        "rank": 52364,
        "rank_sort": 52380,
        "total": 2350
      },
      {
        "club_badge_src": null,
        "entry": 493098,
        "entry_name": "Ajparella FC",
        "event_total": 46,
        "has_played": true,
        "id": 3309951,
        "last_rank": 37435,
        "player_name": "Azfar Ali",
        "rank": 52364,
        "rank_sort": 52381,
        "total": 2350
      },
      {
        "club_badge_src": null,
        "entry": 548975,
        "entry_name": "Abra Dubravka",
        "event_total": 50,
        "has_played": true,
        "id": 3694507,
        "last_rank": 42648,
        "player_name": "Adam McCracken",
        "rank": 52364,
        "rank_sort": 52382,
        "total": 2350
      },
      {
        "club_badge_src": null,
        "entry": 801392,
        "entry_name": "Gyok Tuah",
        "event_total": 35,
        "has_played": true,
        "id": 5485709,
        "last_rank": 25902,
        "player_name": "Scott Dowell",
        "rank": 52364,
        "rank_sort": 52383,
        "total": 2350
      },
      {
        "club_badge_src": null,
        "entry": 803040,
        "entry_name": "Kroos Control",
        "event_total": 43,
        "has_played": true,
        "id": 5497117,
        "last_rank": 34051,
        "player_name": "Jakub Tich\u00fd",
        "rank": 52364,
        "rank_sort": 52384,
        "total": 2350
      },
      {
        "club_badge_src": null,
        "entry": 804115,
        "entry_name": "Midtable Warriors",
        "event_total": 76,
        "has_played": true,
        "id": 5504509,
        "last_rank": 90625,
        "player_name": "Gavin Davis",
        "rank": 52364,
        "rank_sort": 52385,
        "total": 2350
      },
      {
        "club_badge_src": null,
        "entry": 807197,
        "entry_name": "Jim & Tonic",
        "event_total": 64,
        "has_played": true,
        "id": 5526077,
        "last_rank": 64777,
        "player_name": "Jamie Lewis",
        "rank": 52364,
        "rank_sort": 52386,
        "total": 2350
      },
      {
        "club_badge_src": null,
        "entry": 814318,
        "entry_name": "Alisson Wonderland",
        "event_total": 54,
        "has_played": true,
        "id": 5576211,
        "last_rank": 48363,
        "player_name": "Lee Zhao",
        "rank": 52364,
        "rank_sort": 52387,
        "total": 2350
      },
      {
        "club_badge_src": null,
        "entry": 932259,
        "entry_name": "MR YANS FC",
        "event_total": 59,
        "has_played": true,
        "id": 6414911,
        "last_rank": 56180,
        "player_name": "martyn ryan",
        "rank": 52364,
        "rank_sort": 52388,
        "total": 2350
      },
      {
        "club_badge_src": null,
        "entry": 940400,
        "entry_name": "Chelsea Girl",
        "event_total": 66,
        "has_played": true,
        "id": 6472923,
        "last_rank": 68624,
        "player_name": "Andi Wu",
        "rank": 52364,
        "rank_sort": 52389,
        "total": 2350
      },
      {
        "club_badge_src": null,
        "entry": 949640,
        "entry_name": "Dascha U",
        "event_total": 60,
        "has_played": true,
        "id": 6542080,
        "last_rank": 57857,
        "player_name": "Anders Dahlstrom",
        "rank": 52364,
        "rank_sort": 52390,
        "total": 2350
      },
      {
        "club_badge_src": null,
        "entry": 967383,
        "entry_name": "luke the nuke fc",
        "event_total": 51,
        "has_played": true,
        "id": 6667456,
        "last_rank": 44048,
        "player_name": "Leighton Clubb",
        "rank": 52364,
        "rank_sort": 52391,
        "total": 2350
      },
      {
        "club_badge_src": null,
        "entry": 967893,
        "entry_name": "Daedalus",
        "event_total": 51,
        "has_played": true,
        "id": 6670981,
        "last_rank": 43786,
        "player_name": "Joomratty Jamil",
        "rank": 52364,
        "rank_sort": 52392,
        "total": 2350
      },
      {
        "club_badge_src": "https://fantasy.premierleague.com/gcs/plfpl-production-adobe-approved/plfpl-production/983221/037f1dfe-7727-45ba-ae1e-52c55f790b98.png",
        "entry": 983221,
        "entry_name": "Shamkroc Rovers",
        "event_total": 52,
        "has_played": true,
        "id": 6778831,
        "last_rank": 45252,
        "player_name": "M C",
        "rank": 52364,
        "rank_sort": 52393,
        "total": 2350
      },
      {
        "club_badge_src": null,
        "entry": 1017224,
        "entry_name": "Ultimate Team",
        "event_total": 67,
        "has_played": true,
        "id": 7037254,
        "last_rank": 70651,
        "player_name": "Peter Lindner",
        "rank": 52364,
        "rank_sort": 52394,
        "total": 2350
      },
      {
        "club_badge_src": null,
        "entry": 1186317,
        "entry_name": "Up Schick's Creek",
        "event_total": 53,
        "has_played": true,
        "id": 8231061,
        "last_rank": 46660,
        "player_name": "Podge Lehany",
        "rank": 52364,
        "rank_sort": 52395,
        "total": 2350
      },
      {
        "club_badge_src": null,
        "entry": 1335084,
        "entry_name": "Kalvdalen City",
        "event_total": 54,
        "has_played": true,
        "id": 9280092,
        "last_rank": 48363,
        "player_name": "Robert Jonassen",
        "rank": 52364,
        "rank_sort": 52396,
        "total": 2350
      },
      {
        "club_badge_src": null,
        "entry": 1592722,
        "entry_name": "GryanMessi",
        "event_total": 50,
        "has_played": true,
        "id": 11137762,
        "last_rank": 42434,
        "player_name": "Ismail Belmessous",
        "rank": 52364,
        "rank_sort": 52397,
        "total": 2350
      },
      {
        "club_badge_src": null,
        "entry": 1601388,
        "entry_name": "Mbeumo Enjoyer",
        "event_total": 53,
        "has_played": true,
        "id": 11202702,
        "last_rank": 46839,
        "player_name": "Bee Wong",
        "rank": 52364,
        "rank_sort": 52398,
        "total": 2350
      },
      {
        "club_badge_src": null,
        "entry": 1830191,
        "entry_name": "Los Ratones",
        "event_total": 67,
        "has_played": true,
        "id": 12873655,
        "last_rank": 70757,
        "player_name": "Mika Astono",
        "rank": 52364,
        "rank_sort": 52399,
        "total": 2350
      },
      {
        "club_badge_src": null,
        "entry": 1889451,
        "entry_name": "Affo2801",
        "event_total": 63,
        "has_played": true,
        "id": 13316673,
        "last_rank": 63201,
        "player_name": "Alfons Ronnback",
        "rank": 52364,
        "rank_sort": 52400,
        "total": 2350
      }
    ]
  }
}