{
  "last_updated_data": "2026-05-24T23:28:17Z",
  "league": {
    "admin_entry": null,
    "closed": false,
    "code_privacy": "p",
    "created": "2025-07-20T23:14:33.933835Z",
    "cup_league": 2815434,
    "has_cup": true,
    "id": 314,
    "league_type": "s",
    "max_entries": null,
    "name": "Overall",
    "rank": null,
    "scoring": "c",
    "start_event": 1
  },
  "new_entries": {
    "has_next": false,
    "page": 1,
    "results": []
  },
  "standings": {
    "has_next": true,
    "page": 601,
    "results": [
      {
        "club_badge_src": null,
        "entry": 4485372,
        "entry_name": "Say it aint \u0160e\u0161ko",
        "event_total": 53,
        "has_played": true,
        "id": 34187183,
        "last_rank": 25776,
        "player_name": "Liam Vanstone",
        "rank": 29830,
        "rank_sort": 30001,
        "total": 2368
      },
      {
        "club_badge_src": null,
        "entry": 4510184,
        "entry_name": "The tough cookies",
        "event_total": 65,
        "has_played": true,
        "id": 34390038,
        "last_rank": 39023,
        "player_name": "Leo Mepham",
        "rank": 29830,
        "rank_sort": 30002,
        "total": 2368
      },
      {
        "club_badge_src": null,
        "entry": 4576100,
        "entry_name": "LC10",
        "event_total": 67,
        "has_played": true,
        "id": 34929226,
        "last_rank": 41162,
        "player_name": "lewis cartwright",
        "rank": 29830,
        "rank_sort": 30003,
        "total": 2368
      },
      {
        "club_badge_src": null,
        "entry": 4579897,
        "entry_name": "Dinnerbay FC",
        "event_total": 68,
        "has_played": true,
        "id": 34961830,
        "last_rank": 42506,
        "player_name": "Martinius Steensland Dahl",
        "rank": 29830,
        "rank_sort": 30004,
        "total": 2368
      },
      {
        "club_badge_src": null,
        "entry": 4644415,
        "entry_name": "Sheeeeeit UTD",
        "event_total": 54,
        "has_played": true,
        "id": 35526686,
        "last_rank": 26710,
        "player_name": "Nikola Pjevac",
        "rank": 29830,
        "rank_sort": 30005,
        "total": 2368
      },
      {
        "club_badge_src": null,
        "entry": 4673067,
        "entry_name": "S.T Dawg",
        "event_total": 60,
        "has_played": true,
        "id": 35796742,
        "last_rank": 32879,
        "player_name": "Simon Tella",
        "rank": 29830,
        "rank_sort": 30006,
        "total": 2368
      },
      {
        "club_badge_src": null,
        "entry": 4675184,
        "entry_name": "A kick in Tanaka's",
        "event_total": 57,
        "has_played": true,
        "id": 35814540,
        "last_rank": 29688,
        "player_name": "Martyn Smith",
        "rank": 29830,
        "rank_sort": 30007,
        "total": 2368
      },
      {
        "club_badge_src": "https://fantasy.premierleague.com/gcs/plfpl-production-adobe-approved/plfpl-production/4753473/f5435020-e8c6-4660-9370-5c5a94037159.png",
        "entry": 4753473,
        "entry_name": "Super Eleven",
        "event_total": 62,
        "has_played": true,
        "id": 36578663,
        "last_rank": 34969,
        "player_name": "Rayon Christie",
        "rank": 29830,
        "rank_sort": 30008,
        "total": 2368
      },
      {
        "club_badge_src": "https://fantasy.premierleague.com/gcs/plfpl-production-adobe-approved/plfpl-production/4813703/9c3a0c07-3cb5-4796-ae3d-b9dc5ea68ed6.png",
        "entry": 4813703,
        "entry_name": "Bilardistas",
        "event_total": 68,
        "has_played": true,
        "id": 37065802,
        "last_rank": 42648,
        "player_name": "Lucas Di Cugno",
        "rank": 29830,
        "rank_sort": 30009,
        "total": 2368
      },
      {
        "club_badge_src": null,
        "entry": 4817224,
        "entry_name": "tom",
        "event_total": 73,
        "has_played": true,
        "id": 37094308,
        "last_rank": 49691,
        "player_name": "Tom Widdowson",
        "rank": 29830,
        "rank_sort": 30010,
        "total": 2368
      },
      {
        "club_badge_src": null,
        "entry": 4867592,
        "entry_name": "Najvecha Cunha",
        "event_total": 68,
        "has_played": true,
        "id": 37517254,
        "last_rank": 42648,
        "player_name": "Ratomir Pliso",
        "rank": 29830,
        "rank_sort": 30011,
        "total": 2368
      },
      {
        "club_badge_src": null,
        "entry": 5028755,
        "entry_name": "Kawkab Marrakech.",
        "event_total": 52,
        "has_played": true,
        "id": 38839218,
        "last_rank": 25002,
        "player_name": "FPL Faker",
        "rank": 29830,
        "rank_sort": 30012,
        "total": 2368
      },
      {
        "club_badge_src": null,
        "entry": 5088879,
        "entry_name": "no one",
        "event_total": 31,
        "has_played": true,
        "id": 39332164,
        "last_rank": 11237,
        "player_name": "mr no one",
        "rank": 29830,
        "rank_sort": 30013,
        "total": 2368
      },
      {
        "club_badge_src": null,
        "entry": 5120863,
        "entry_name": "Robs XI",
        "event_total": 61,
        "has_played": true,
        "id": 39594242,
        "last_rank": 33936,
        "player_name": "Robert Roche",
        "rank": 29830,
        "rank_sort": 30014,
        "total": 2368
      },
      {
        "club_badge_src": null,
        "entry": 5174243,
        "entry_name": "Kingkong Frimpong",
        "event_total": 44,
        "has_played": true,
        "id": 40047971,
        "last_rank": 18691,
        "player_name": "Robbe Van Kerckhoven",
        "rank": 29830,
        "rank_sort": 30015,
        "total": 2368
      },
      {
        "club_badge_src": null,
        "entry": 5239746,
        "entry_name": "Dads Army",
        "event_total": 57,
        "has_played": true,
        "id": 40606321,
        "last_rank": 29688,
        "player_name": "Nicola Hall",
        "rank": 29830,
        "rank_sort": 30016,
        "total": 2368
      },
      {
        "club_badge_src": null,
        "entry": 5289904,
        "entry_name": "Return of the Mings",
        "event_total": 50,
        "has_played": true,
        "id": 41003849,
        "last_rank": 23188,
        "player_name": "Frederik Silius",
        "rank": 29830,
        "rank_sort": 30017,
        "total": 2368
      },
      {
        "club_badge_src": null,
        "entry": 5335232,
        "entry_name": "Orup",
        "event_total": 61,
        "has_played": true,
        "id": 41363197,
        "last_rank": 34051,
        "player_name": "Henric Edholm",
        "rank": 29830,
        "rank_sort": 30018,
        "total": 2368
      },
      {
        "club_badge_src": null,
        "entry": 5390633,
        "entry_name": "Jurgen Lives Forever",
        "event_total": 54,
        "has_played": true,
        "id": 41908914,
        "last_rank": 26710,
        "player_name": "Niall Murphy",
        "rank": 29830,
        "rank_sort": 30019,
        "total": 2368
      },
      {
        "club_badge_src": null,
        "entry": 5557698,
        "entry_name": "mo\u0161a pu\u0107ko",
        "event_total": 43,
        "has_played": true,
        "id": 43384527,
        "last_rank": 18270,
        "player_name": "Vuk Stefan Marelj",
        "rank": 29830,
        "rank_sort": 30020,
        "total": 2368
      },
      {
        "club_badge_src": null,
        "entry": 5585639,
        "entry_name": "The Roefs On Fire",
        "event_total": 60,
        "has_played": true,
        "id": 43631601,
        "last_rank": 32879,
        "player_name": "Philip Randle",
        "rank": 29830,
        "rank_sort": 30021,
        "total": 2368
      },
      {
        "club_badge_src": null,
        "entry": 5610688,
        "entry_name": "Skin De Souza",
        "event_total": 56,
        "has_played": true,
        "id": 43849135,
        "last_rank": 28546,
        "player_name": "Matthew Loxton",
        "rank": 29830,
        "rank_sort": 30022,
        "total": 2368
      },
      {
        "club_badge_src": null,
        "entry": 5622199,
        "entry_name": "Mercedes Messi that",
        "event_total": 64,
        "has_played": true,
        "id": 43949417,
        "last_rank": 37589,
        "player_name": "Cubic Sibeko",
        "rank": 29830,
        "rank_sort": 30023,
        "total": 2368
      },
      {
        "club_badge_src": null,
        "entry": 5727759,
        "entry_name": "FPL simo74",
        "event_total": 42,
        "has_played": true,
        "id": 44869356,
        "last_rank": 17585,
        "player_name": "Ahmed Samy",
        "rank": 29830,
        "rank_sort": 30024,
        "total": 2368
      },
      {
        "club_badge_src": null,
        "entry": 5731807,
        "entry_name": "Brightys Champions",
        "event_total": 47,
        "has_played": true,
        "id": 44903790,
        "last_rank": 20888,
        "player_name": "Karen Bright",
        "rank": 29830,
        "rank_sort": 30025,
        "total": 2368
      },
      {
        "club_badge_src": null,
        "entry": 6226676,
        "entry_name": "Cole world",
        "event_total": 60,
        "has_played": true,
        "id": 49273327,
        "last_rank": 32751,
        "player_name": "Gourav Mishra",
        "rank": 29830,
        "rank_sort": 30026,
        "total": 2368
      },
      {
        "club_badge_src": null,
        "entry": 6257879,
        "entry_name": "Tottenham HotShpir",
        "event_total": 67,
        "has_played": true,
        "id": 49543317,
        "last_rank": 41162,
        "player_name": "John Valcich",
        "rank": 29830,
        "rank_sort": 30027,
        "total": 2368
      },
      {
        "club_badge_src": null,
        "entry": 6358930,
        "entry_name": "Change Name",
        "event_total": 58,
        "has_played": true,
        "id": 50558509,
        "last_rank": 30727,
        "player_name": "Caspian taylor",
        "rank": 29830,
        "rank_sort": 30028,
        "total": 2368
      },
      {
        "club_badge_src": null,
        "entry": 6541274,
        "entry_name": "Seagulls",
        "event_total": 63,
        "has_played": true,
        "id": 52190053,
        "last_rank": 36200,
        "player_name": "James Taylor",
        "rank": 29830,
        "rank_sort": 30029,
        "total": 2368
      },
      {
        "club_badge_src": null,
        "entry": 6585616,
        "entry_name": "parker007 fc",
        "event_total": 58,
        "has_played": true,
        "id": 52593039,
        "last_rank": 30727,
        "player_name": "Morgan Parkin",
        "rank": 29830,
        "rank_sort": 30030,
        "total": 2368
      },
      {
        "club_badge_src": null,
        "entry": 6604706,
        "entry_name": "mywolvs",
        "event_total": 86,
        "has_played": true,
        "id": 52762245,
        "last_rank": 73038,
        "player_name": "Rosen Milyanov",
        "rank": 29830,
        "rank_sort": 30031,
        "total": 2368
      },
      {
        "club_badge_src": null,
        "entry": 6647448,
        "entry_name": "Kotie Squad",
        "event_total": 59,
        "has_played": true,
        "id": 53140239,
        "last_rank": 31556,
        "player_name": "Nombuso Mlangeni",
        "rank": 29830,
        "rank_sort": 30032,
        "total": 2368
      },
      {
        "club_badge_src": null,
        "entry": 6673806,
        "entry_name": "Croissant FC",
        "event_total": 58,
        "has_played": true,
        "id": 53378468,
        "last_rank": 30727,
        "player_name": "David Craven",
        "rank": 29830,
        "rank_sort": 30033,
        "total": 2368
      },
      {
        "club_badge_src": null,
        "entry": 6785161,
        "entry_name": "KB's boyz",
        "event_total": 58,
        "has_played": true,
        "id": 54333245,
        "last_rank": 30503,
        "player_name": "Keira Bellenger",
        "rank": 29830,
        "rank_sort": 30034,
        "total": 2368
      },
      {
        "club_badge_src": "https://fantasy.premierleague.com/gcs/plfpl-production-adobe-approved/plfpl-production/6932861/631a807c-a619-4076-a283-2690501a4ffc.png",
        "entry": 6932861,
        "entry_name": "Earth,Wind&Maguire",
        "event_total": 64,
        "has_played": true,
        "id": 55579796,
        "last_rank": 37589,
        "player_name": "Nicholas McDermott",
        "rank": 29830,
        "rank_sort": 30035,
        "total": 2368
      },
      {
        "club_badge_src": null,
        "entry": 7214496,
        "entry_name": "Arne's Army",
        "event_total": 45,
        "has_played": true,
        "id": 58270327,
        "last_rank": 19392,
        "player_name": "Dylan Hunt",
        "rank": 29830,
        "rank_sort": 30036,
        "total": 2368
      },
      {
        "club_badge_src": null,
        "entry": 7237663,
        "entry_name": "Kai Hard 2",
        "event_total": 71,
        "has_played": true,
        "id": 58486875,
        "last_rank": 46660,
        "player_name": "Liam Hickey",
        "rank": 29830,
        "rank_sort": 30037,
        "total": 2368
      },
      {
        "club_badge_src": null,
        "entry": 7291577,
        "entry_name": "Monster UTD",
        "event_total": 59,
        "has_played": true,
        "id": 58997729,
        "last_rank": 31747,
        "player_name": "Nichole Green",
        "rank": 29830,
        "rank_sort": 30038,
        "total": 2368
      },
      {
        "club_badge_src": null,
        "entry": 7434378,
        "entry_name": "DaaYOou",
        "event_total": 62,
        "has_played": true,
        "id": 60427936,
        "last_rank": 35424,
        "player_name": "Dayou Ghilassi",
        "rank": 29830,
        "rank_sort": 30039,
        "total": 2368
      },
      {
        "club_badge_src": null,
        "entry": 7499770,
        "entry_name": "No Kane No Gain",
        "event_total": 57,
        "has_played": true,
        "id": 61275852,
        "last_rank": 29688,
        "player_name": "Jordan Smith",
        "rank": 29830,
        "rank_sort": 30040,
        "total": 2368
      },
      {
        "club_badge_src": "https://fantasy.premierleague.com/gcs/plfpl-production-adobe-approved/plfpl-production/7685287/7d2f423c-565c-4f38-9243-28d3a2defdc0.png",
        "entry": 7685287,
        "entry_name": "ICE United",
        "event_total": 60,
        "has_played": true,
        "id": 63039179,
        "last_rank": 32879,
        "player_name": "Sigurd Dehli",
        "rank": 29830,
        "rank_sort": 30041,
        "total": 2368
      },
      {
        "club_badge_src": null,
        "entry": 7691341,
        "entry_name": "Hederlig tap FK",
        "event_total": 52,
        "has_played": true,
        "id": 63093584,
        "last_rank": 24897,
        "player_name": "Henrik Bj\u00f8r\u00f8en",
        "rank": 29830,
        "rank_sort": 30042,
        "total": 2368
      },
      {
        "club_badge_src": null,
        "entry": 7755271,
        "entry_name": "FIFALailaTheTreble",
        "event_total": 74,
        "has_played": true,
        "id": 63670087,
        "last_rank": 51220,
        "player_name": "Katherine Sandven",
        "rank": 29830,
        "rank_sort": 30043,
        "total": 2368
      },
      {
        "club_badge_src": null,
        "entry": 7776563,
        "entry_name": "Zeyad",
        "event_total": 64,
        "has_played": true,
        "id": 63862055,
        "last_rank": 37822,
        "player_name": "Ziad Ayman",
        "rank": 29830,
        "rank_sort": 30044,
        "total": 2368
      },
      {
        "club_badge_src": null,
        "entry": 7792909,
        "entry_name": "Haalandaise Sauce",
        "event_total": 54,
        "has_played": true,
        "id": 64009615,
        "last_rank": 26827,
        "player_name": "Ian Sinclair",
        "rank": 29830,
        "rank_sort": 30045,
        "total": 2368
      },
      {
        "club_badge_src": null,
        "entry": 7834189,
        "entry_name": "Phil Banks",
        "event_total": 78,
        "has_played": true,
        "id": 64384791,
        "last_rank": 58388,
        "player_name": "Paul Pennington",
        "rank": 29830,
        "rank_sort": 30046,
        "total": 2368
      },
      {
        "club_badge_src": null,
        "entry": 8071692,
        "entry_name": "fuki's venner",
        "event_total": 56,
        "has_played": true,
        "id": 66537381,
        "last_rank": 28726,
        "player_name": "Daniel Rademacher Flesland",
        "rank": 29830,
        "rank_sort": 30047,
        "total": 2368
      },
      {
        "club_badge_src": null,
        "entry": 8126764,
        "entry_name": "Ward Army",
        "event_total": 59,
        "has_played": true,
        "id": 67051799,
        "last_rank": 31747,
        "player_name": "Mitch Ward",
        "rank": 29830,
        "rank_sort": 30048,
        "total": 2368
      },
      {
        "club_badge_src": null,
        "entry": 8226699,
        "entry_name": "Lilli Vanilli",
        "event_total": 68,
        "has_played": true,
        "id": 67993169,
        "last_rank": 42434,
        "player_name": "Lillian Eldevik",
        "rank": 29830,
        "rank_sort": 30049,
        "total": 2368
      },
      {
        "club_badge_src": null,
        "entry": 8354773,
        "entry_name": "Chat GPT FC",
        "event_total": 62,
        "has_played": true,
        "id": 69247407,
        "last_rank": 35034,
        "player_name": "Alex Weg",
        "rank": 29830,
        "rank_sort": 30050,
        "total": 2368
      }
    ]
  }
}