{
  "last_updated_data": "2026-05-24T23:28:17Z",
  "league": {
    "admin_entry": null,
    "closed": false,
    "code_privacy": "p",
    "created": "2025-07-20T23:14:33.933835Z",
    "cup_league": 2815434,
    "has_cup": true,
    "id": 314,
    "league_type": "s",
    "max_entries": null,
    "name": "Overall",
    "rank": null,
    "scoring": "c",
    "start_event": 1
  },
  "new_entries": {
    "has_next": false,
    "page": 1,
    "results": []
  },
  "standings": {
    "has_next": true,
    "page": 356,
    "results": [
      {
        "club_badge_src": null,
        "entry": 7442559,
        "entry_name": "PJWallenbergare",
        "event_total": 72,
        "has_played": true,
        "id": 60536651,
        "last_rank": 29522,
        "player_name": "John Lexander",
        "rank": 17719,
        "rank_sort": 17751,
        "total": 2383
      },
      {
        "club_badge_src": null,
        "entry": 7827318,
        "entry_name": "Squirtle Squad",
        "event_total": 48,
        "has_played": true,
        "id": 64321088,
        "last_rank": 12200,
        "player_name": "Khurram Areeb",
        "rank": 17719,
        "rank_sort": 17752,
        "total": 2383
      },
      {
        "club_badge_src": null,
        "entry": 7914552,
        "entry_name": "Jeremy's Team",
        "event_total": 66,
        "has_played": true,
        "id": 65119867,
        "last_rank": 23990,
        "player_name": "Jeremy F",
        "rank": 17719,
        "rank_sort": 17753,
        "total": 2383
      },
      {
        "club_badge_src": null,
        "entry": 8836538,
        "entry_name": "Nico & The Eleveners",
        "event_total": 56,
        "has_played": true,
        "id": 73895982,
        "last_rank": 16807,
        "player_name": "Nareeba Nicolas",
        "rank": 17719,
        "rank_sort": 17754,
        "total": 2383
      },
      {
        "club_badge_src": null,
        "entry": 8996656,
        "entry_name": "Isco Disco",
        "event_total": 57,
        "has_played": true,
        "id": 75448718,
        "last_rank": 17358,
        "player_name": "Alfred Banjo",
        "rank": 17719,
        "rank_sort": 17755,
        "total": 2383
      },
      {
        "club_badge_src": null,
        "entry": 11186,
        "entry_name": "I'm fine thanks",
        "event_total": 63,
        "has_played": true,
        "id": 66407,
        "last_rank": 21775,
        "player_name": "Jack Harris",
        "rank": 17756,
        "rank_sort": 17756,
        "total": 2383
      },
      {
        "club_badge_src": null,
        "entry": 15129,
        "entry_name": "Milsey FC",
        "event_total": 68,
        "has_played": true,
        "id": 92553,
        "last_rank": 25776,
        "player_name": "Hugo Miller",
        "rank": 17756,
        "rank_sort": 17757,
        "total": 2383
      },
      {
        "club_badge_src": "https://fantasy.premierleague.com/gcs/plfpl-production-adobe-approved/plfpl-production/15371/06b5e5d9-a4cb-402e-bffb-c73e8ea99510.png",
        "entry": 15371,
        "entry_name": "Zdenkov Kruh",
        "event_total": 61,
        "has_played": true,
        "id": 94283,
        "last_rank": 20179,
        "player_name": "Toni Pehar",
        "rank": 17756,
        "rank_sort": 17758,
        "total": 2383
      },
      {
        "club_badge_src": null,
        "entry": 15960,
        "entry_name": "Timberland Fantasy",
        "event_total": 62,
        "has_played": true,
        "id": 98338,
        "last_rank": 20888,
        "player_name": "Tim Brown",
        "rank": 17756,
        "rank_sort": 17759,
        "total": 2383
      },
      {
        "club_badge_src": "https://fantasy.premierleague.com/gcs/plfpl-production-adobe-approved/plfpl-production/16192/43cfccb7-dfed-40f9-96ca-83b2c31ce15a.png",
        "entry": 16192,
        "entry_name": "JohnsonAgainOleOle",
        "event_total": 80,
        "has_played": true,
        "id": 99868,
        "last_rank": 38528,
        "player_name": "George Rusher",
        "rank": 17756,
        "rank_sort": 17760,
        "total": 2383
      },
      {
        "club_badge_src": null,
        "entry": 18214,
        "entry_name": "TOT10HAM FC",
        "event_total": 53,
        "has_played": true,
        "id": 113251,
        "last_rank": 14857,
        "player_name": "Sean Clark",
        "rank": 17756,
        "rank_sort": 17761,
        "total": 2383
      },
      {
        "club_badge_src": null,
        "entry": 20075,
        "entry_name": "Cech Mate",
        "event_total": 66,
        "has_played": true,
        "id": 124991,
        "last_rank": 24143,
        "player_name": "Dom Holden",
        "rank": 17756,
        "rank_sort": 17762,
        "total": 2383
      },
      {
        "club_badge_src": null,
        "entry": 26555,
        "entry_name": "Lyon's Pride",
        "event_total": 68,
        "has_played": true,
        "id": 167895,
        "last_rank": 25776,
        "player_name": "James Lyon",
        "rank": 17756,
        "rank_sort": 17763,
        "total": 2383
      },
      {
        "club_badge_src": "https://fantasy.premierleague.com/gcs/plfpl-production-adobe-approved/plfpl-production/34463/24519efd-4815-40dd-8041-dc25e11a6240.png",
        "entry": 34463,
        "entry_name": "FC Nyboder",
        "event_total": 44,
        "has_played": true,
        "id": 220137,
        "last_rank": 10346,
        "player_name": "jacques Fleurance",
        "rank": 17756,
        "rank_sort": 17764,
        "total": 2383
      },
      {
        "club_badge_src": null,
        "entry": 36146,
        "entry_name": "Just Bijol Sels",
        "event_total": 57,
        "has_played": true,
        "id": 231320,
        "last_rank": 17358,
        "player_name": "agsga XHF",
        "rank": 17756,
        "rank_sort": 17765,
        "total": 2383
      },
      {
        "club_badge_src": "https://fantasy.premierleague.com/gcs/plfpl-production-adobe-approved/plfpl-production/58564/116bd733-9f04-41fb-b929-72df003ff410.png",
        "entry": 58564,
        "entry_name": "Kustosz Jab\u0142ko",
        "event_total": 65,
        "has_played": true,
        "id": 377204,
        "last_rank": 23230,
        "player_name": "Ola Go\u0142aszewska --FPL-Ola-",
        "rank": 17756,
        "rank_sort": 17766,
        "total": 2383
      },
      {
        "club_badge_src": null,
        "entry": 79999,
        "entry_name": "SeVarance",
        "event_total": 67,
        "has_played": true,
        "id": 520522,
        "last_rank": 24897,
        "player_name": "Skye Fung",
        "rank": 17756,
        "rank_sort": 17767,
        "total": 2383
      },
      {
        "club_badge_src": null,
        "entry": 80519,
        "entry_name": "Frank varm XI",
        "event_total": 77,
        "has_played": true,
        "id": 523855,
        "last_rank": 35034,
        "player_name": "Mathias Lundt",
        "rank": 17756,
        "rank_sort": 17768,
        "total": 2383
      },
      {
        "club_badge_src": null,
        "entry": 89442,
        "entry_name": "Lootanicks North End",
        "event_total": 46,
        "has_played": true,
        "id": 583865,
        "last_rank": 11237,
        "player_name": "Patrick Coyle",
        "rank": 17756,
        "rank_sort": 17769,
        "total": 2383
      },
      {
        "club_badge_src": null,
        "entry": 89739,
        "entry_name": "Brobbey is a F\u00e9e Elf",
        "event_total": 67,
        "has_played": true,
        "id": 585799,
        "last_rank": 25002,
        "player_name": "Benjamin Weisz",
        "rank": 17756,
        "rank_sort": 17770,
        "total": 2383
      },
      {
        "club_badge_src": null,
        "entry": 99120,
        "entry_name": "Ivydog2021",
        "event_total": 60,
        "has_played": true,
        "id": 647105,
        "last_rank": 19432,
        "player_name": "Andrew Kirkham",
        "rank": 17756,
        "rank_sort": 17771,
        "total": 2383
      },
      {
        "club_badge_src": null,
        "entry": 140221,
        "entry_name": "You a sock",
        "event_total": 58,
        "has_played": true,
        "id": 915588,
        "last_rank": 18113,
        "player_name": "Emil Store",
        "rank": 17756,
        "rank_sort": 17772,
        "total": 2383
      },
      {
        "club_badge_src": null,
        "entry": 157872,
        "entry_name": "Haroldinhio",
        "event_total": 61,
        "has_played": true,
        "id": 1038733,
        "last_rank": 20179,
        "player_name": "Harry Freeman",
        "rank": 17756,
        "rank_sort": 17773,
        "total": 2383
      },
      {
        "club_badge_src": null,
        "entry": 170384,
        "entry_name": "Too Eze",
        "event_total": 74,
        "has_played": true,
        "id": 1125716,
        "last_rank": 31620,
        "player_name": "Evan King",
        "rank": 17756,
        "rank_sort": 17774,
        "total": 2383
      },
      {
        "club_badge_src": null,
        "entry": 174959,
        "entry_name": "Main",
        "event_total": 80,
        "has_played": true,
        "id": 1155228,
        "last_rank": 38542,
        "player_name": "Caleb Yung",
        "rank": 17756,
        "rank_sort": 17775,
        "total": 2383
      },
      {
        "club_badge_src": null,
        "entry": 198285,
        "entry_name": "Champagne Khusanova",
        "event_total": 60,
        "has_played": true,
        "id": 1315824,
        "last_rank": 19392,
        "player_name": "Alex Zanebis",
        "rank": 17756,
        "rank_sort": 17776,
        "total": 2383
      },
      {
        "club_badge_src": "https://fantasy.premierleague.com/gcs/plfpl-production-adobe-approved/plfpl-production/229810/81368a48-40ec-4cf8-a739-ce7b174e3ee6.png",
        "entry": 229810,
        "entry_name": "Invincible United",
        "event_total": 69,
        "has_played": true,
        "id": 1528941,
        "last_rank": 23188,
        "player_name": "jashin indarjit",
        "rank": 17756,
        "rank_sort": 17777,
        "total": 2383
      },
      {
        "club_badge_src": null,
        "entry": 229876,
        "entry_name": "LEGEND FANTASY",
        "event_total": 54,
        "has_played": true,
        "id": 1529357,
        "last_rank": 15452,
        "player_name": "Gaith alani",
        "rank": 17756,
        "rank_sort": 17778,
        "total": 2383
      },
      {
        "club_badge_src": null,
        "entry": 261302,
        "entry_name": "Livin\u2019 Saliba Loca",
        "event_total": 53,
        "has_played": true,
        "id": 1737009,
        "last_rank": 14817,
        "player_name": "Josh King",
        "rank": 17756,
        "rank_sort": 17779,
        "total": 2383
      },
      {
        "club_badge_src": "https://fantasy.premierleague.com/gcs/plfpl-production-adobe-approved/plfpl-production/274511/15729409-8e67-41fb-b1ab-775f2e492b5f.png",
        "entry": 274511,
        "entry_name": "Medical Mess",
        "event_total": 46,
        "has_played": true,
        "id": 1826621,
        "last_rank": 11175,
        "player_name": "Jesper Robertsson",
        "rank": 17756,
        "rank_sort": 17780,
        "total": 2383
      },
      {
        "club_badge_src": "https://fantasy.premierleague.com/gcs/plfpl-production-adobe-approved/plfpl-production/301366/b9bf8aa2-0039-4330-a12e-05137cecc487.png",
        "entry": 301366,
        "entry_name": "BAM BAM Thistle",
        "event_total": 61,
        "has_played": true,
        "id": 2016242,
        "last_rank": 20179,
        "player_name": "Lee Shepherdson",
        "rank": 17756,
        "rank_sort": 17781,
        "total": 2383
      },
      {
        "club_badge_src": null,
        "entry": 302525,
        "entry_name": "Wirtz Nightmare",
        "event_total": 56,
        "has_played": true,
        "id": 2024597,
        "last_rank": 16807,
        "player_name": "Ben Wilson",
        "rank": 17756,
        "rank_sort": 17782,
        "total": 2383
      },
      {
        "club_badge_src": null,
        "entry": 319303,
        "entry_name": "sigbog's army",
        "event_total": 58,
        "has_played": true,
        "id": 2140336,
        "last_rank": 17970,
        "player_name": "Sigurd Thomassen",
        "rank": 17756,
        "rank_sort": 17783,
        "total": 2383
      },
      {
        "club_badge_src": null,
        "entry": 329478,
        "entry_name": "Onana Whats My Name",
        "event_total": 56,
        "has_played": true,
        "id": 2207074,
        "last_rank": 16807,
        "player_name": "Romeo Blom",
        "rank": 17756,
        "rank_sort": 17784,
        "total": 2383
      },
      {
        "club_badge_src": null,
        "entry": 331891,
        "entry_name": "I\u2019m A Baleba",
        "event_total": 65,
        "has_played": true,
        "id": 2222968,
        "last_rank": 23230,
        "player_name": "nigel dodds",
        "rank": 17756,
        "rank_sort": 17785,
        "total": 2383
      },
      {
        "club_badge_src": null,
        "entry": 332172,
        "entry_name": "Narwhal Brains",
        "event_total": 54,
        "has_played": true,
        "id": 2224779,
        "last_rank": 15452,
        "player_name": "Peter Walker",
        "rank": 17756,
        "rank_sort": 17786,
        "total": 2383
      },
      {
        "club_badge_src": "https://fantasy.premierleague.com/gcs/plfpl-production-adobe-approved/plfpl-production/347087/209253b1-44c4-471c-8610-14d6874a6790.png",
        "entry": 347087,
        "entry_name": "NORTH REMEMBERS",
        "event_total": 65,
        "has_played": true,
        "id": 2323236,
        "last_rank": 23230,
        "player_name": "Eddard Stark",
        "rank": 17756,
        "rank_sort": 17787,
        "total": 2383
      },
      {
        "club_badge_src": null,
        "entry": 347179,
        "entry_name": "Your Wirtz Nightmare",
        "event_total": 63,
        "has_played": true,
        "id": 2323856,
        "last_rank": 21677,
        "player_name": "David Barclay",
        "rank": 17756,
        "rank_sort": 17788,
        "total": 2383
      },
      {
        "club_badge_src": "https://fantasy.premierleague.com/gcs/plfpl-production-adobe-approved/plfpl-production/356312/00787985-04f3-4c21-aa46-41f2b380f1c4.png",
        "entry": 356312,
        "entry_name": "JaberAbNidal",
        "event_total": 60,
        "has_played": true,
        "id": 2384408,
        "last_rank": 19544,
        "player_name": "Jaber Al Tarcha",
        "rank": 17756,
        "rank_sort": 17789,
        "total": 2383
      },
      {
        "club_badge_src": null,
        "entry": 360113,
        "entry_name": "Bo Ryoom",
        "event_total": 58,
        "has_played": true,
        "id": 2409697,
        "last_rank": 17989,
        "player_name": "Abdullah Al Kanderi",
        "rank": 17756,
        "rank_sort": 17790,
        "total": 2383
      },
      {
        "club_badge_src": null,
        "entry": 375689,
        "entry_name": "Tomination",
        "event_total": 66,
        "has_played": true,
        "id": 2515483,
        "last_rank": 24039,
        "player_name": "Tom Johnson",
        "rank": 17756,
        "rank_sort": 17791,
        "total": 2383
      },
      {
        "club_badge_src": null,
        "entry": 375837,
        "entry_name": "Kinder Mbeumo FC",
        "event_total": 66,
        "has_played": true,
        "id": 2516585,
        "last_rank": 24143,
        "player_name": "Craig Yates",
        "rank": 17756,
        "rank_sort": 17792,
        "total": 2383
      },
      {
        "club_badge_src": null,
        "entry": 386057,
        "entry_name": "The duke's army",
        "event_total": 59,
        "has_played": true,
        "id": 2589859,
        "last_rank": 18691,
        "player_name": "Tom N",
        "rank": 17756,
        "rank_sort": 17793,
        "total": 2383
      },
      {
        "club_badge_src": null,
        "entry": 392398,
        "entry_name": "Shaymen Till I Die",
        "event_total": 68,
        "has_played": true,
        "id": 2631843,
        "last_rank": 25776,
        "player_name": "Ricky Bennett",
        "rank": 17756,
        "rank_sort": 17794,
        "total": 2383
      },
      {
        "club_badge_src": null,
        "entry": 397239,
        "entry_name": "\u0648\u0642\u062a \u0627\u0644\u0645\u062c\u0627\u0632\u0641\u0627\u062a",
        "event_total": 70,
        "has_played": true,
        "id": 2663667,
        "last_rank": 27770,
        "player_name": "\u0633\u0639\u0648\u062f \u0627\u0644\u0639\u0635\u064a\u0645\u064a",
        "rank": 17756,
        "rank_sort": 17795,
        "total": 2383
      },
      {
        "club_badge_src": "https://fantasy.premierleague.com/gcs/plfpl-production-adobe-approved/plfpl-production/412957/30845cd4-8c28-4d5e-ba00-d0fae373deb8.png",
        "entry": 412957,
        "entry_name": "Kinder Mbuemo",
        "event_total": 67,
        "has_played": true,
        "id": 2768643,
        "last_rank": 25002,
        "player_name": "Leo Tashev",
        "rank": 17756,
        "rank_sort": 17796,
        "total": 2383
      },
      {
        "club_badge_src": null,
        "entry": 429860,
        "entry_name": "Brutal Deluxe",
        "event_total": 60,
        "has_played": true,
        "id": 2883060,
        "last_rank": 19432,
        "player_name": "Fraser Love",
        "rank": 17756,
        "rank_sort": 17797,
        "total": 2383
      },
      {
        "club_badge_src": null,
        "entry": 436326,
        "entry_name": "Lions United",
        "event_total": 59,
        "has_played": true,
        "id": 2925849,
        "last_rank": 18790,
        "player_name": "Petar Katuli\u0107",
        "rank": 17756,
        "rank_sort": 17798,
        "total": 2383
      },
      {
        "club_badge_src": null,
        "entry": 534796,
        "entry_name": "Points Worth Taking",
        "event_total": 57,
        "has_played": true,
        "id": 3599329,
        "last_rank": 17437,
        "player_name": "Tom Worth",
        "rank": 17756,
        "rank_sort": 17799,
        "total": 2383
      },
      {
        "club_badge_src": null,
        "entry": 545598,
        "entry_name": "CHESS FC",
        "event_total": 30,
        "has_played": true,
        "id": 3671881,
        "last_rank": 5752,
        "player_name": "Jolly Ssesimba",
        "rank": 17756,
        "rank_sort": 17800,
        "total": 2383
      }
    ]
  }
}