{
  "last_updated_data": "2026-05-24T23:28:17Z",
  "league": {
    "admin_entry": null,
    "closed": false,
    "code_privacy": "p",
    "created": "2025-07-20T23:14:33.933835Z",
    "cup_league": 2815434,
    "has_cup": true,
    "id": 314,
    "league_type": "s",
    "max_entries": null,
    "name": "Overall",
    "rank": null,
    "scoring": "c",
    "start_event": 1
  },
  "new_entries": {
    "has_next": false,
    "page": 1,
    "results": []
  },
  "standings": {
    "has_next": true,
    "page": 930,
    "results": [
      {
        "club_badge_src": null,
        "entry": 6562590,
        "entry_name": "Champs",
        "event_total": 60,
        "has_played": true,
        "id": 52379341,
        "last_rank": 51112,
        "player_name": "Atli M\u00e1r Eyj\u00f3lfsson",
        "rank": 46385,
        "rank_sort": 46451,
        "total": 2354
      },
      {
        "club_badge_src": null,
        "entry": 6931498,
        "entry_name": "United Fc",
        "event_total": 60,
        "has_played": true,
        "id": 55567781,
        "last_rank": 51220,
        "player_name": "Matthew Christian",
        "rank": 46385,
        "rank_sort": 46452,
        "total": 2354
      },
      {
        "club_badge_src": null,
        "entry": 6979524,
        "entry_name": "1.5%FC",
        "event_total": 56,
        "has_played": true,
        "id": 56012023,
        "last_rank": 39816,
        "player_name": "Carl Periera",
        "rank": 46385,
        "rank_sort": 46453,
        "total": 2354
      },
      {
        "club_badge_src": null,
        "entry": 7007923,
        "entry_name": "Shanina Shaik",
        "event_total": 55,
        "has_played": true,
        "id": 56276181,
        "last_rank": 43849,
        "player_name": "Gergana Dimitrova",
        "rank": 46385,
        "rank_sort": 46454,
        "total": 2354
      },
      {
        "club_badge_src": null,
        "entry": 7052140,
        "entry_name": "Mr Brown's Boys",
        "event_total": 49,
        "has_played": true,
        "id": 56718248,
        "last_rank": 36142,
        "player_name": "Chris Brown",
        "rank": 46385,
        "rank_sort": 46455,
        "total": 2354
      },
      {
        "club_badge_src": null,
        "entry": 7069148,
        "entry_name": "deep fried Crouch",
        "event_total": 81,
        "has_played": true,
        "id": 56881301,
        "last_rank": 92973,
        "player_name": "Jean Brits",
        "rank": 46385,
        "rank_sort": 46456,
        "total": 2354
      },
      {
        "club_badge_src": null,
        "entry": 7911804,
        "entry_name": "Safa's XI",
        "event_total": 73,
        "has_played": true,
        "id": 65094018,
        "last_rank": 74723,
        "player_name": "Safa Sheikh-",
        "rank": 46385,
        "rank_sort": 46457,
        "total": 2354
      },
      {
        "club_badge_src": null,
        "entry": 7931120,
        "entry_name": "A-Raya 51 \ufffd",
        "event_total": 72,
        "has_played": true,
        "id": 65270554,
        "last_rank": 72662,
        "player_name": "Sam Siikaluoma",
        "rank": 46385,
        "rank_sort": 46458,
        "total": 2354
      },
      {
        "club_badge_src": null,
        "entry": 7936243,
        "entry_name": "Mountain Climber FC",
        "event_total": 65,
        "has_played": true,
        "id": 65317651,
        "last_rank": 59475,
        "player_name": "Kyron Thapa",
        "rank": 46385,
        "rank_sort": 46459,
        "total": 2354
      },
      {
        "club_badge_src": null,
        "entry": 8175126,
        "entry_name": "Fish and a Rice cake",
        "event_total": 76,
        "has_played": true,
        "id": 67504253,
        "last_rank": 81195,
        "player_name": "Benjamin Hughes",
        "rank": 46385,
        "rank_sort": 46460,
        "total": 2354
      },
      {
        "club_badge_src": "https://fantasy.premierleague.com/gcs/plfpl-production-adobe-approved/plfpl-production/8661970/575ffb41-504f-4233-823e-c9d77f197d68.png",
        "entry": 8661970,
        "entry_name": "\u271d\ufe0f\u2020h\u03b5.\u03ba\u00efd\u271d\ufe0f",
        "event_total": 46,
        "has_played": true,
        "id": 72208620,
        "last_rank": 32879,
        "player_name": "-\ufe0f ----\ufe0f -\ufe0f",
        "rank": 46385,
        "rank_sort": 46461,
        "total": 2354
      },
      {
        "club_badge_src": null,
        "entry": 9269554,
        "entry_name": "the boys",
        "event_total": 48,
        "has_played": true,
        "id": 78113818,
        "last_rank": 35166,
        "player_name": "Sherlon Williams",
        "rank": 46385,
        "rank_sort": 46462,
        "total": 2354
      },
      {
        "club_badge_src": null,
        "entry": 10459245,
        "entry_name": "team_tayo",
        "event_total": 74,
        "has_played": true,
        "id": 88470081,
        "last_rank": 76947,
        "player_name": "Tayo Adekaiyaoja",
        "rank": 46385,
        "rank_sort": 46463,
        "total": 2354
      },
      {
        "club_badge_src": null,
        "entry": 3118,
        "entry_name": "Can\u2019t Get Any Wirtz",
        "event_total": 64,
        "has_played": true,
        "id": 17587,
        "last_rank": 57857,
        "player_name": "Ben Watt",
        "rank": 46464,
        "rank_sort": 46464,
        "total": 2354
      },
      {
        "club_badge_src": "https://fantasy.premierleague.com/gcs/plfpl-production-adobe-approved/plfpl-production/6303/0453aebd-c7a0-46a2-b317-ed57e0a1685c.png",
        "entry": 6303,
        "entry_name": "Silent Gil 2",
        "event_total": 62,
        "has_played": true,
        "id": 36140,
        "last_rank": 54380,
        "player_name": "Dermot O'Lynn",
        "rank": 46464,
        "rank_sort": 46465,
        "total": 2354
      },
      {
        "club_badge_src": "https://fantasy.premierleague.com/gcs/plfpl-production-adobe-approved/plfpl-production/8109/ac29a101-fc4f-4e0d-a4d8-d1db5fa9e191.png",
        "entry": 8109,
        "entry_name": "f\u00e9vrier21",
        "event_total": 60,
        "has_played": true,
        "id": 46953,
        "last_rank": 51403,
        "player_name": "Tanyawit Kongkij",
        "rank": 46464,
        "rank_sort": 46466,
        "total": 2354
      },
      {
        "club_badge_src": null,
        "entry": 8420,
        "entry_name": "Drewventus",
        "event_total": 55,
        "has_played": true,
        "id": 48938,
        "last_rank": 43849,
        "player_name": "Nat Drew",
        "rank": 46464,
        "rank_sort": 46467,
        "total": 2354
      },
      {
        "club_badge_src": null,
        "entry": 12788,
        "entry_name": "Me Myself Ndiaye",
        "event_total": 57,
        "has_played": true,
        "id": 76888,
        "last_rank": 46660,
        "player_name": "Hayden Cheshire-Inkpen",
        "rank": 46464,
        "rank_sort": 46468,
        "total": 2354
      },
      {
        "club_badge_src": "https://fantasy.premierleague.com/gcs/plfpl-production-adobe-approved/plfpl-production/13589/42bc0769-94a7-41d8-98eb-b38bf1fed6ab.png",
        "entry": 13589,
        "entry_name": "V. Geel",
        "event_total": 66,
        "has_played": true,
        "id": 82185,
        "last_rank": 61411,
        "player_name": "Toon Heylen",
        "rank": 46464,
        "rank_sort": 46469,
        "total": 2354
      },
      {
        "club_badge_src": null,
        "entry": 14602,
        "entry_name": "Wirtz'on!",
        "event_total": 61,
        "has_played": true,
        "id": 88762,
        "last_rank": 53023,
        "player_name": "Tom Robins",
        "rank": 46464,
        "rank_sort": 46470,
        "total": 2354
      },
      {
        "club_badge_src": "https://fantasy.premierleague.com/gcs/plfpl-production-adobe-approved/plfpl-production/16045/2a254f61-5544-4c17-bc15-66766d1c2592.png",
        "entry": 16045,
        "entry_name": "Fartown FC",
        "event_total": 40,
        "has_played": true,
        "id": 98891,
        "last_rank": 26710,
        "player_name": "Jatinder Sandhu",
        "rank": 46464,
        "rank_sort": 46471,
        "total": 2354
      },
      {
        "club_badge_src": null,
        "entry": 18646,
        "entry_name": "De Bruyne Identity",
        "event_total": 82,
        "has_played": true,
        "id": 116022,
        "last_rank": 95527,
        "player_name": "Joe Griffin",
        "rank": 46464,
        "rank_sort": 46472,
        "total": 2354
      },
      {
        "club_badge_src": "https://fantasy.premierleague.com/gcs/plfpl-production-adobe-approved/plfpl-production/19379/d31f4ece-b8a6-4e94-814a-cf8eba725e92.png",
        "entry": 19379,
        "entry_name": "Wax and olive",
        "event_total": 67,
        "has_played": true,
        "id": 120573,
        "last_rank": 63117,
        "player_name": "Viktor Jonsson",
        "rank": 46464,
        "rank_sort": 46473,
        "total": 2354
      },
      {
        "club_badge_src": null,
        "entry": 23482,
        "entry_name": "fc begas",
        "event_total": 65,
        "has_played": true,
        "id": 147903,
        "last_rank": 59535,
        "player_name": "Yonathan Begas",
        "rank": 46464,
        "rank_sort": 46474,
        "total": 2354
      },
      {
        "club_badge_src": "https://fantasy.premierleague.com/gcs/plfpl-production-adobe-approved/plfpl-production/23943/1ed37995-fb72-4057-bf08-8d80d146f624.png",
        "entry": 23943,
        "entry_name": "Davvilla Elite",
        "event_total": 59,
        "has_played": true,
        "id": 150995,
        "last_rank": 49880,
        "player_name": "David Obiakor",
        "rank": 46464,
        "rank_sort": 46475,
        "total": 2354
      },
      {
        "club_badge_src": "https://fantasy.premierleague.com/gcs/plfpl-production-adobe-approved/plfpl-production/25255/223200af-2db5-4f38-b594-efe1150d3c33.png",
        "entry": 25255,
        "entry_name": "Ronaldo GOAT",
        "event_total": 64,
        "has_played": true,
        "id": 159739,
        "last_rank": 58071,
        "player_name": "Carl Helmersson",
        "rank": 46464,
        "rank_sort": 46476,
        "total": 2354
      },
      {
        "club_badge_src": null,
        "entry": 28216,
        "entry_name": "Yoro Wissard Barry",
        "event_total": 63,
        "has_played": true,
        "id": 178410,
        "last_rank": 56369,
        "player_name": "Stephen O'Donoghue",
        "rank": 46464,
        "rank_sort": 46477,
        "total": 2354
      },
      {
        "club_badge_src": null,
        "entry": 30889,
        "entry_name": "BouLut Wisdom",
        "event_total": 65,
        "has_played": true,
        "id": 195543,
        "last_rank": 59535,
        "player_name": "Anthony Needs",
        "rank": 46464,
        "rank_sort": 46478,
        "total": 2354
      },
      {
        "club_badge_src": null,
        "entry": 31718,
        "entry_name": "\u0627\u0644\u0645\u062f\u0641\u0639\u062c\u064a\u0647",
        "event_total": 51,
        "has_played": true,
        "id": 201247,
        "last_rank": 38774,
        "player_name": "Elsayed sobhy",
        "rank": 46464,
        "rank_sort": 46479,
        "total": 2354
      },
      {
        "club_badge_src": null,
        "entry": 41796,
        "entry_name": "awad",
        "event_total": 45,
        "has_played": true,
        "id": 267795,
        "last_rank": 31747,
        "player_name": "ahmed elmoregy",
        "rank": 46464,
        "rank_sort": 46480,
        "total": 2354
      },
      {
        "club_badge_src": null,
        "entry": 52190,
        "entry_name": "Pearce 96",
        "event_total": 61,
        "has_played": true,
        "id": 335628,
        "last_rank": 53023,
        "player_name": "Steve Bunn",
        "rank": 46464,
        "rank_sort": 46481,
        "total": 2354
      },
      {
        "club_badge_src": null,
        "entry": 71740,
        "entry_name": "Bakran's Boyos",
        "event_total": 49,
        "has_played": true,
        "id": 466017,
        "last_rank": 36200,
        "player_name": "Adam Bakran",
        "rank": 46464,
        "rank_sort": 46482,
        "total": 2354
      },
      {
        "club_badge_src": "https://fantasy.premierleague.com/gcs/plfpl-production-adobe-approved/plfpl-production/75201/57955ece-21b2-4a0b-b86b-2ac66555df79.png",
        "entry": 75201,
        "entry_name": "The Gu\u00e9hi's Gone",
        "event_total": 63,
        "has_played": true,
        "id": 488905,
        "last_rank": 56369,
        "player_name": "Matt Lines",
        "rank": 46464,
        "rank_sort": 46483,
        "total": 2354
      },
      {
        "club_badge_src": "https://fantasy.premierleague.com/gcs/plfpl-production-adobe-approved/plfpl-production/96375/afdceb3a-fc32-4c0d-8f14-f5fef0a4947b.png",
        "entry": 96375,
        "entry_name": "Cosmos",
        "event_total": 47,
        "has_played": true,
        "id": 629634,
        "last_rank": 34051,
        "player_name": "James Anderson",
        "rank": 46464,
        "rank_sort": 46484,
        "total": 2354
      },
      {
        "club_badge_src": "https://fantasy.premierleague.com/gcs/plfpl-production-adobe-approved/plfpl-production/102999/9062fd3f-84bd-4cbe-9ef7-fbb7fa659e88.png",
        "entry": 102999,
        "entry_name": "Shoebury Boys",
        "event_total": 53,
        "has_played": true,
        "id": 672102,
        "last_rank": 41101,
        "player_name": "Ryan Smith",
        "rank": 46464,
        "rank_sort": 46485,
        "total": 2354
      },
      {
        "club_badge_src": null,
        "entry": 112201,
        "entry_name": "drvarji",
        "event_total": 59,
        "has_played": true,
        "id": 731541,
        "last_rank": 49880,
        "player_name": "Luka Podobnik",
        "rank": 46464,
        "rank_sort": 46486,
        "total": 2354
      },
      {
        "club_badge_src": null,
        "entry": 112286,
        "entry_name": "fantasykurdsh",
        "event_total": 51,
        "has_played": true,
        "id": 732073,
        "last_rank": 38774,
        "player_name": "ari amin",
        "rank": 46464,
        "rank_sort": 46487,
        "total": 2354
      },
      {
        "club_badge_src": null,
        "entry": 117446,
        "entry_name": "Ranch FC",
        "event_total": 50,
        "has_played": true,
        "id": 766614,
        "last_rank": 37435,
        "player_name": "James Macfarlane",
        "rank": 46464,
        "rank_sort": 46488,
        "total": 2354
      },
      {
        "club_badge_src": null,
        "entry": 117489,
        "entry_name": "BeckerLuck next time",
        "event_total": 73,
        "has_played": true,
        "id": 766873,
        "last_rank": 66848,
        "player_name": "Matthew Williams",
        "rank": 46464,
        "rank_sort": 46489,
        "total": 2354
      },
      {
        "club_badge_src": null,
        "entry": 118082,
        "entry_name": "Andy",
        "event_total": 52,
        "has_played": true,
        "id": 770651,
        "last_rank": 39874,
        "player_name": "Andrew Brown",
        "rank": 46464,
        "rank_sort": 46490,
        "total": 2354
      },
      {
        "club_badge_src": null,
        "entry": 120000,
        "entry_name": "L\u00f6ken FC",
        "event_total": 56,
        "has_played": true,
        "id": 782931,
        "last_rank": 45416,
        "player_name": "Oliver Pihlstr\u00f6m",
        "rank": 46464,
        "rank_sort": 46491,
        "total": 2354
      },
      {
        "club_badge_src": null,
        "entry": 141010,
        "entry_name": "dosk\u00e5la XV",
        "event_total": 68,
        "has_played": true,
        "id": 921124,
        "last_rank": 64943,
        "player_name": "Markus H\u00f8e",
        "rank": 46464,
        "rank_sort": 46492,
        "total": 2354
      },
      {
        "club_badge_src": null,
        "entry": 146447,
        "entry_name": "FcTulitukat",
        "event_total": 58,
        "has_played": true,
        "id": 959441,
        "last_rank": 42434,
        "player_name": "Oskari Jaatinen",
        "rank": 46464,
        "rank_sort": 46493,
        "total": 2354
      },
      {
        "club_badge_src": "https://fantasy.premierleague.com/gcs/plfpl-production-adobe-approved/plfpl-production/150873/b7fcb1cf-bfbb-4218-b08c-610ae6b00e79.png",
        "entry": 150873,
        "entry_name": "Zamalek",
        "event_total": 49,
        "has_played": true,
        "id": 989665,
        "last_rank": 36624,
        "player_name": "Kirollos Medhat",
        "rank": 46464,
        "rank_sort": 46494,
        "total": 2354
      },
      {
        "club_badge_src": null,
        "entry": 151780,
        "entry_name": "De Stinos",
        "event_total": 55,
        "has_played": true,
        "id": 995910,
        "last_rank": 43849,
        "player_name": "Stijn Uijterlinde",
        "rank": 46464,
        "rank_sort": 46495,
        "total": 2354
      },
      {
        "club_badge_src": "https://fantasy.premierleague.com/gcs/plfpl-production-adobe-approved/plfpl-production/153967/b08198de-68ef-4d9a-ac1a-530ac6427770.png",
        "entry": 153967,
        "entry_name": "MajorPK",
        "event_total": 44,
        "has_played": true,
        "id": 1011289,
        "last_rank": 30727,
        "player_name": "Parash Khatiwada",
        "rank": 46464,
        "rank_sort": 46496,
        "total": 2354
      },
      {
        "club_badge_src": "https://fantasy.premierleague.com/gcs/plfpl-production-adobe-approved/plfpl-production/167233/b7cb36d1-d075-4cc1-a0c4-dd683a08ae80.png",
        "entry": 167233,
        "entry_name": "Paradise Found",
        "event_total": 53,
        "has_played": true,
        "id": 1105359,
        "last_rank": 41324,
        "player_name": "Ziv Susser",
        "rank": 46464,
        "rank_sort": 46497,
        "total": 2354
      },
      {
        "club_badge_src": null,
        "entry": 169779,
        "entry_name": "MelonHD",
        "event_total": 59,
        "has_played": true,
        "id": 1121897,
        "last_rank": 49880,
        "player_name": "Kyle Bowering",
        "rank": 46464,
        "rank_sort": 46498,
        "total": 2354
      },
      {
        "club_badge_src": null,
        "entry": 185722,
        "entry_name": "F\u00fcr Olise",
        "event_total": 67,
        "has_played": true,
        "id": 1226994,
        "last_rank": 63390,
        "player_name": "Mungo Russell",
        "rank": 46464,
        "rank_sort": 46499,
        "total": 2354
      },
      {
        "club_badge_src": null,
        "entry": 189313,
        "entry_name": "Cunha MBuemlieve it?",
        "event_total": 72,
        "has_played": true,
        "id": 1253058,
        "last_rank": 72815,
        "player_name": "Ryan Jenkinson",
        "rank": 46464,
        "rank_sort": 46500,
        "total": 2354
      }
    ]
  }
}