{
  "last_updated_data": "2026-05-24T23:28:17Z",
  "league": {
    "admin_entry": null,
    "closed": false,
    "code_privacy": "p",
    "created": "2025-07-20T23:14:33.933835Z",
    "cup_league": 2815434,
    "has_cup": true,
    "id": 314,
    "league_type": "s",
    "max_entries": null,
    "name": "Overall",
    "rank": null,
    "scoring": "c",
    "start_event": 1
  },
  "new_entries": {
    "has_next": false,
    "page": 1,
    "results": []
  },
  "standings": {
    "has_next": true,
    "page": 1181,
    "results": [
      {
        "club_badge_src": null,
        "entry": 565081,
        "entry_name": "Mind the gap Devs",
        "event_total": 51,
        "has_played": true,
        "id": 3803484,
        "last_rank": 49880,
        "player_name": "Matthew van Poppel",
        "rank": 58914,
        "rank_sort": 59001,
        "total": 2346
      },
      {
        "club_badge_src": null,
        "entry": 571859,
        "entry_name": "Lammened",
        "event_total": 53,
        "has_played": true,
        "id": 3848596,
        "last_rank": 53023,
        "player_name": "Pratik P",
        "rank": 58914,
        "rank_sort": 59002,
        "total": 2346
      },
      {
        "club_badge_src": null,
        "entry": 601994,
        "entry_name": "Mr Ploughs XI",
        "event_total": 58,
        "has_played": true,
        "id": 4062370,
        "last_rank": 61606,
        "player_name": "Alasdair Nicholls",
        "rank": 58914,
        "rank_sort": 59003,
        "total": 2346
      },
      {
        "club_badge_src": null,
        "entry": 603054,
        "entry_name": "Super McKeNunn",
        "event_total": 53,
        "has_played": true,
        "id": 4070207,
        "last_rank": 53023,
        "player_name": "Stuart Nunn",
        "rank": 58914,
        "rank_sort": 59004,
        "total": 2346
      },
      {
        "club_badge_src": "https://fantasy.premierleague.com/gcs/plfpl-production-adobe-approved/plfpl-production/629070/4091ff2b-94af-483e-8163-4c2ea4624291.png",
        "entry": 629070,
        "entry_name": "Mina Samir Habib",
        "event_total": 39,
        "has_played": true,
        "id": 4250944,
        "last_rank": 34051,
        "player_name": "Mina SamirHabib",
        "rank": 58914,
        "rank_sort": 59005,
        "total": 2346
      },
      {
        "club_badge_src": null,
        "entry": 656214,
        "entry_name": "Atletico Madr\u00ed",
        "event_total": 69,
        "has_played": true,
        "id": 4434731,
        "last_rank": 83698,
        "player_name": "David Lynn",
        "rank": 58914,
        "rank_sort": 59006,
        "total": 2346
      },
      {
        "club_badge_src": null,
        "entry": 679912,
        "entry_name": "J\u00e5\u00e5las Jongl\u00f6rer",
        "event_total": 53,
        "has_played": true,
        "id": 4600938,
        "last_rank": 52853,
        "player_name": "John Nilsson",
        "rank": 58914,
        "rank_sort": 59007,
        "total": 2346
      },
      {
        "club_badge_src": null,
        "entry": 694043,
        "entry_name": "Malcolm xG",
        "event_total": 67,
        "has_played": true,
        "id": 4700531,
        "last_rank": 79190,
        "player_name": "Alfie Goldthorpe",
        "rank": 58914,
        "rank_sort": 59008,
        "total": 2346
      },
      {
        "club_badge_src": null,
        "entry": 698077,
        "entry_name": "Sam Heung-min",
        "event_total": 60,
        "has_played": true,
        "id": 4728752,
        "last_rank": 65163,
        "player_name": "Sam Glanville",
        "rank": 58914,
        "rank_sort": 59009,
        "total": 2346
      },
      {
        "club_badge_src": null,
        "entry": 720997,
        "entry_name": "Ekitikitaka FC",
        "event_total": 50,
        "has_played": true,
        "id": 4895531,
        "last_rank": 48363,
        "player_name": "Mark Allen",
        "rank": 58914,
        "rank_sort": 59010,
        "total": 2346
      },
      {
        "club_badge_src": null,
        "entry": 748990,
        "entry_name": "Grand Haven Broncos",
        "event_total": 52,
        "has_played": true,
        "id": 5095795,
        "last_rank": 51220,
        "player_name": "Matthew Allen",
        "rank": 58914,
        "rank_sort": 59011,
        "total": 2346
      },
      {
        "club_badge_src": null,
        "entry": 753561,
        "entry_name": "Goose.",
        "event_total": 73,
        "has_played": true,
        "id": 5128384,
        "last_rank": 93443,
        "player_name": "Thomas Pausey",
        "rank": 58914,
        "rank_sort": 59012,
        "total": 2346
      },
      {
        "club_badge_src": null,
        "entry": 757996,
        "entry_name": "Gimbom",
        "event_total": 68,
        "has_played": true,
        "id": 5163070,
        "last_rank": 81420,
        "player_name": "Enver Celik",
        "rank": 58914,
        "rank_sort": 59013,
        "total": 2346
      },
      {
        "club_badge_src": null,
        "entry": 761361,
        "entry_name": "Me, Myself, Ndiaye",
        "event_total": 65,
        "has_played": true,
        "id": 5191170,
        "last_rank": 74898,
        "player_name": "Chris Taylor",
        "rank": 58914,
        "rank_sort": 59014,
        "total": 2346
      },
      {
        "club_badge_src": null,
        "entry": 763869,
        "entry_name": "RunningDownTheWing",
        "event_total": 51,
        "has_played": true,
        "id": 5209554,
        "last_rank": 49691,
        "player_name": "Gabriel Pintacasi",
        "rank": 58914,
        "rank_sort": 59015,
        "total": 2346
      },
      {
        "club_badge_src": "https://fantasy.premierleague.com/gcs/plfpl-production-adobe-approved/plfpl-production/800232/14d5254a-8492-401c-acb9-6c4a5725618e.png",
        "entry": 800232,
        "entry_name": "Black Forest",
        "event_total": 71,
        "has_played": true,
        "id": 5477407,
        "last_rank": 88348,
        "player_name": "Jakub Bi\u0144czyk",
        "rank": 58914,
        "rank_sort": 59016,
        "total": 2346
      },
      {
        "club_badge_src": null,
        "entry": 808059,
        "entry_name": "My fine wine",
        "event_total": 60,
        "has_played": true,
        "id": 5532107,
        "last_rank": 64943,
        "player_name": "Vidar Helland",
        "rank": 58914,
        "rank_sort": 59017,
        "total": 2346
      },
      {
        "club_badge_src": null,
        "entry": 809206,
        "entry_name": "CranfordParkRangerz",
        "event_total": 58,
        "has_played": true,
        "id": 5540119,
        "last_rank": 54494,
        "player_name": "Jeet Patel",
        "rank": 58914,
        "rank_sort": 59018,
        "total": 2346
      },
      {
        "club_badge_src": null,
        "entry": 823777,
        "entry_name": "Queens Bredbury",
        "event_total": 54,
        "has_played": true,
        "id": 5641908,
        "last_rank": 54667,
        "player_name": "Thomas Lloyd",
        "rank": 58914,
        "rank_sort": 59019,
        "total": 2346
      },
      {
        "club_badge_src": "https://fantasy.premierleague.com/gcs/plfpl-production-adobe-approved/plfpl-production/825728/b4be1ea8-aa0f-4ee3-9cd2-14f73bffc25d.png",
        "entry": 825728,
        "entry_name": "Nuno Umunero",
        "event_total": 52,
        "has_played": true,
        "id": 5655380,
        "last_rank": 51403,
        "player_name": "Luke Taylor",
        "rank": 58914,
        "rank_sort": 59020,
        "total": 2346
      },
      {
        "club_badge_src": null,
        "entry": 839461,
        "entry_name": "CANTOVARA",
        "event_total": 57,
        "has_played": true,
        "id": 5751565,
        "last_rank": 59632,
        "player_name": "AHMED ALI",
        "rank": 58914,
        "rank_sort": 59021,
        "total": 2346
      },
      {
        "club_badge_src": null,
        "entry": 889649,
        "entry_name": "Poelie FC",
        "event_total": 53,
        "has_played": true,
        "id": 6102388,
        "last_rank": 53023,
        "player_name": "Lars van de Poel",
        "rank": 58914,
        "rank_sort": 59022,
        "total": 2346
      },
      {
        "club_badge_src": null,
        "entry": 912889,
        "entry_name": "NodirsGalacticos 2.0",
        "event_total": 68,
        "has_played": true,
        "id": 6277095,
        "last_rank": 81420,
        "player_name": "Nodir Mirzaqulov",
        "rank": 58914,
        "rank_sort": 59023,
        "total": 2346
      },
      {
        "club_badge_src": null,
        "entry": 934440,
        "entry_name": "Regime",
        "event_total": 57,
        "has_played": true,
        "id": 6430370,
        "last_rank": 59813,
        "player_name": "r s",
        "rank": 58914,
        "rank_sort": 59024,
        "total": 2346
      },
      {
        "club_badge_src": null,
        "entry": 958495,
        "entry_name": "Gy\u00f6k Tuah",
        "event_total": 72,
        "has_played": true,
        "id": 6604649,
        "last_rank": 90625,
        "player_name": "George Judson",
        "rank": 58914,
        "rank_sort": 59025,
        "total": 2346
      },
      {
        "club_badge_src": null,
        "entry": 961559,
        "entry_name": "Nice to Michu",
        "event_total": 48,
        "has_played": true,
        "id": 6626210,
        "last_rank": 45252,
        "player_name": "Thomas de Castro",
        "rank": 58914,
        "rank_sort": 59026,
        "total": 2346
      },
      {
        "club_badge_src": null,
        "entry": 965586,
        "entry_name": "Livin' Saliba Loca",
        "event_total": 54,
        "has_played": true,
        "id": 6654765,
        "last_rank": 55014,
        "player_name": "Henry Garraway",
        "rank": 58914,
        "rank_sort": 59027,
        "total": 2346
      },
      {
        "club_badge_src": null,
        "entry": 983281,
        "entry_name": "Herts In The Toon",
        "event_total": 41,
        "has_played": true,
        "id": 6779232,
        "last_rank": 36200,
        "player_name": "Mark Eastwood",
        "rank": 58914,
        "rank_sort": 59028,
        "total": 2346
      },
      {
        "club_badge_src": null,
        "entry": 985453,
        "entry_name": "Brez's XI",
        "event_total": 33,
        "has_played": true,
        "id": 6794402,
        "last_rank": 27644,
        "player_name": "Daniel Bresolin",
        "rank": 58914,
        "rank_sort": 59029,
        "total": 2346
      },
      {
        "club_badge_src": "https://fantasy.premierleague.com/gcs/plfpl-production-adobe-approved/plfpl-production/992415/bc6635a9-9578-4ff9-8fb4-da017f1a24c2.png",
        "entry": 992415,
        "entry_name": "West Coast Hammers",
        "event_total": 41,
        "has_played": true,
        "id": 6844363,
        "last_rank": 36348,
        "player_name": "Aleksi Jokela",
        "rank": 58914,
        "rank_sort": 59030,
        "total": 2346
      },
      {
        "club_badge_src": null,
        "entry": 999069,
        "entry_name": "Hapi FC",
        "event_total": 53,
        "has_played": true,
        "id": 6904871,
        "last_rank": 53023,
        "player_name": "Hapi George",
        "rank": 58914,
        "rank_sort": 59031,
        "total": 2346
      },
      {
        "club_badge_src": null,
        "entry": 1025230,
        "entry_name": "HaCunha Matata",
        "event_total": 61,
        "has_played": true,
        "id": 7093109,
        "last_rank": 67063,
        "player_name": "Takudzwa Chikonzo",
        "rank": 58914,
        "rank_sort": 59032,
        "total": 2346
      },
      {
        "club_badge_src": null,
        "entry": 1037041,
        "entry_name": "i campioni",
        "event_total": 55,
        "has_played": true,
        "id": 7176416,
        "last_rank": 56180,
        "player_name": "Antti Piipponen",
        "rank": 58914,
        "rank_sort": 59033,
        "total": 2346
      },
      {
        "club_badge_src": null,
        "entry": 1041316,
        "entry_name": "Fpl  \u03ba\u03b1\u03c4\u03c3\u03af\u03ba\u03b1",
        "event_total": 60,
        "has_played": true,
        "id": 7206180,
        "last_rank": 65163,
        "player_name": "Theo ayitey adjin",
        "rank": 58914,
        "rank_sort": 59034,
        "total": 2346
      },
      {
        "club_badge_src": null,
        "entry": 1065531,
        "entry_name": "Outsiders Utd",
        "event_total": 62,
        "has_played": true,
        "id": 7376419,
        "last_rank": 68957,
        "player_name": "Rich Galtrey",
        "rank": 58914,
        "rank_sort": 59035,
        "total": 2346
      },
      {
        "club_badge_src": null,
        "entry": 1073383,
        "entry_name": "InThePalmerMyHand",
        "event_total": 62,
        "has_played": true,
        "id": 7431158,
        "last_rank": 68957,
        "player_name": "Lee Fox",
        "rank": 58914,
        "rank_sort": 59036,
        "total": 2346
      },
      {
        "club_badge_src": null,
        "entry": 1077592,
        "entry_name": "PK",
        "event_total": 67,
        "has_played": true,
        "id": 7461294,
        "last_rank": 79431,
        "player_name": "King Cup",
        "rank": 58914,
        "rank_sort": 59037,
        "total": 2346
      },
      {
        "club_badge_src": null,
        "entry": 1110372,
        "entry_name": "Morris Maggits",
        "event_total": 60,
        "has_played": true,
        "id": 7691533,
        "last_rank": 65475,
        "player_name": "Josh Morris",
        "rank": 58914,
        "rank_sort": 59038,
        "total": 2346
      },
      {
        "club_badge_src": null,
        "entry": 1111711,
        "entry_name": "Bruno Dos Tres",
        "event_total": 55,
        "has_played": true,
        "id": 7700718,
        "last_rank": 56708,
        "player_name": "Melker Svensson",
        "rank": 58914,
        "rank_sort": 59039,
        "total": 2346
      },
      {
        "club_badge_src": null,
        "entry": 1117929,
        "entry_name": "Deliormanski eagles",
        "event_total": 62,
        "has_played": true,
        "id": 7743727,
        "last_rank": 68957,
        "player_name": "Nikolay Dimitrov",
        "rank": 58914,
        "rank_sort": 59040,
        "total": 2346
      },
      {
        "club_badge_src": "https://fantasy.premierleague.com/gcs/plfpl-production-adobe-approved/plfpl-production/1129306/bad2237c-e1d9-4357-ac3e-ffd6d88cb5d3.png",
        "entry": 1129306,
        "entry_name": "Bitende Kulde",
        "event_total": 87,
        "has_played": true,
        "id": 7826904,
        "last_rank": 133328,
        "player_name": "Snorre Grading",
        "rank": 58914,
        "rank_sort": 59041,
        "total": 2346
      },
      {
        "club_badge_src": null,
        "entry": 1131319,
        "entry_name": "MECHANO01",
        "event_total": 64,
        "has_played": true,
        "id": 7841666,
        "last_rank": 72815,
        "player_name": "Mathivanan Sockalingam",
        "rank": 58914,
        "rank_sort": 59042,
        "total": 2346
      },
      {
        "club_badge_src": "https://fantasy.premierleague.com/gcs/plfpl-production-adobe-approved/plfpl-production/1134761/31c64a4f-d862-4623-93c6-0a7f07f6f192.png",
        "entry": 1134761,
        "entry_name": "ErictheKingCRO",
        "event_total": 64,
        "has_played": true,
        "id": 7865974,
        "last_rank": 73038,
        "player_name": "Ivica Kordi\u0107",
        "rank": 58914,
        "rank_sort": 59043,
        "total": 2346
      },
      {
        "club_badge_src": null,
        "entry": 1296081,
        "entry_name": "Youngblood",
        "event_total": 30,
        "has_played": true,
        "id": 9007600,
        "last_rank": 25002,
        "player_name": "Luk\u00e1\u0161 Brejcha",
        "rank": 58914,
        "rank_sort": 59044,
        "total": 2346
      },
      {
        "club_badge_src": null,
        "entry": 1297625,
        "entry_name": "EfeAmbroseBallonD'or",
        "event_total": 52,
        "has_played": true,
        "id": 9018511,
        "last_rank": 51220,
        "player_name": "Ewan Farrell",
        "rank": 58914,
        "rank_sort": 59045,
        "total": 2346
      },
      {
        "club_badge_src": null,
        "entry": 1331406,
        "entry_name": "Low Wood FC",
        "event_total": 66,
        "has_played": true,
        "id": 9254303,
        "last_rank": 77258,
        "player_name": "Joel Richards",
        "rank": 58914,
        "rank_sort": 59046,
        "total": 2346
      },
      {
        "club_badge_src": null,
        "entry": 1400158,
        "entry_name": "No More Mr Rice Kai",
        "event_total": 67,
        "has_played": true,
        "id": 9741450,
        "last_rank": 79027,
        "player_name": "OOsef B-H",
        "rank": 58914,
        "rank_sort": 59047,
        "total": 2346
      },
      {
        "club_badge_src": "https://fantasy.premierleague.com/gcs/plfpl-production-adobe-approved/plfpl-production/1411835/76b54613-0fc5-474a-ac8d-11248a315e3d.png",
        "entry": 1411835,
        "entry_name": "LuckyOne",
        "event_total": 63,
        "has_played": true,
        "id": 9825111,
        "last_rank": 70985,
        "player_name": "Bohdan Rybachok",
        "rank": 58914,
        "rank_sort": 59048,
        "total": 2346
      },
      {
        "club_badge_src": null,
        "entry": 1420721,
        "entry_name": "Tea & Busquets",
        "event_total": 37,
        "has_played": true,
        "id": 9892351,
        "last_rank": 31747,
        "player_name": "James Bailey",
        "rank": 58914,
        "rank_sort": 59049,
        "total": 2346
      },
      {
        "club_badge_src": null,
        "entry": 1450083,
        "entry_name": "Red Hot Chillies",
        "event_total": 64,
        "has_played": true,
        "id": 10104367,
        "last_rank": 72702,
        "player_name": "Adam Must",
        "rank": 58914,
        "rank_sort": 59050,
        "total": 2346
      }
    ]
  }
}