{
  "last_updated_data": "2026-05-24T23:28:17Z",
  "league": {
    "admin_entry": null,
    "closed": false,
    "code_privacy": "p",
    "created": "2025-07-20T23:14:33.933835Z",
    "cup_league": 2815434,
    "has_cup": true,
    "id": 314,
    "league_type": "s",
    "max_entries": null,
    "name": "Overall",
    "rank": null,
    "scoring": "c",
    "start_event": 1
  },
  "new_entries": {
    "has_next": false,
    "page": 1,
    "results": []
  },
  "standings": {
    "has_next": true,
    "page": 1249,
    "results": [
      {
        "club_badge_src": null,
        "entry": 6175014,
        "entry_name": "Dunk and Disorderly",
        "event_total": 41,
        "has_played": true,
        "id": 48829444,
        "last_rank": 38774,
        "player_name": "Andrew Platt",
        "rank": 62320,
        "rank_sort": 62401,
        "total": 2344
      },
      {
        "club_badge_src": null,
        "entry": 6227492,
        "entry_name": "The Unbearables",
        "event_total": 70,
        "has_played": true,
        "id": 49280538,
        "last_rank": 91006,
        "player_name": "Kieran Clements",
        "rank": 62320,
        "rank_sort": 62402,
        "total": 2344
      },
      {
        "club_badge_src": null,
        "entry": 6247606,
        "entry_name": "On The Ground",
        "event_total": 52,
        "has_played": true,
        "id": 49454466,
        "last_rank": 54494,
        "player_name": "James Walker",
        "rank": 62320,
        "rank_sort": 62403,
        "total": 2344
      },
      {
        "club_badge_src": null,
        "entry": 6283498,
        "entry_name": "Breakfast Mbappe",
        "event_total": 53,
        "has_played": true,
        "id": 49769808,
        "last_rank": 56180,
        "player_name": "Matthew Cleere",
        "rank": 62320,
        "rank_sort": 62404,
        "total": 2344
      },
      {
        "club_badge_src": null,
        "entry": 6428756,
        "entry_name": "Cunha let me win pls",
        "event_total": 45,
        "has_played": true,
        "id": 51174446,
        "last_rank": 43849,
        "player_name": "Victoria Poizer",
        "rank": 62320,
        "rank_sort": 62405,
        "total": 2344
      },
      {
        "club_badge_src": "https://fantasy.premierleague.com/gcs/plfpl-production-adobe-approved/plfpl-production/6490290/ce88c6f7-5c61-4944-8216-05606fa26d90.png",
        "entry": 6490290,
        "entry_name": "Palmer Violets",
        "event_total": 62,
        "has_played": true,
        "id": 51736210,
        "last_rank": 72815,
        "player_name": "Oliver Casella",
        "rank": 62320,
        "rank_sort": 62406,
        "total": 2344
      },
      {
        "club_badge_src": null,
        "entry": 6904800,
        "entry_name": "SengalFC",
        "event_total": 52,
        "has_played": true,
        "id": 55344374,
        "last_rank": 54667,
        "player_name": "Mukmin Hilmi",
        "rank": 62320,
        "rank_sort": 62407,
        "total": 2344
      },
      {
        "club_badge_src": null,
        "entry": 7076122,
        "entry_name": "Change Name",
        "event_total": 57,
        "has_played": true,
        "id": 56946812,
        "last_rank": 63390,
        "player_name": "Sivert Waatevik Saure",
        "rank": 62320,
        "rank_sort": 62408,
        "total": 2344
      },
      {
        "club_badge_src": "https://fantasy.premierleague.com/gcs/plfpl-production-adobe-approved/plfpl-production/7194325/b5de2032-7d35-4522-9dd9-6b4eff04a4f3.png",
        "entry": 7194325,
        "entry_name": "Cabbage United",
        "event_total": 84,
        "has_played": true,
        "id": 58080336,
        "last_rank": 129043,
        "player_name": "Andrej Dopud",
        "rank": 62320,
        "rank_sort": 62409,
        "total": 2344
      },
      {
        "club_badge_src": null,
        "entry": 7247981,
        "entry_name": "AFC Padlock",
        "event_total": 36,
        "has_played": true,
        "id": 58584460,
        "last_rank": 32751,
        "player_name": "Scott Padley",
        "rank": 62320,
        "rank_sort": 62410,
        "total": 2344
      },
      {
        "club_badge_src": null,
        "entry": 7257963,
        "entry_name": "She's a keeper",
        "event_total": 66,
        "has_played": true,
        "id": 58681214,
        "last_rank": 81211,
        "player_name": "Ashley Costello",
        "rank": 62320,
        "rank_sort": 62411,
        "total": 2344
      },
      {
        "club_badge_src": null,
        "entry": 7265381,
        "entry_name": "Wirtz Nightmare",
        "event_total": 62,
        "has_played": true,
        "id": 58750667,
        "last_rank": 73038,
        "player_name": "Alex Debenham",
        "rank": 62320,
        "rank_sort": 62412,
        "total": 2344
      },
      {
        "club_badge_src": null,
        "entry": 7324077,
        "entry_name": "Kings",
        "event_total": 69,
        "has_played": true,
        "id": 59302547,
        "last_rank": 88185,
        "player_name": "FUD7Z x",
        "rank": 62320,
        "rank_sort": 62413,
        "total": 2344
      },
      {
        "club_badge_src": null,
        "entry": 7398921,
        "entry_name": "Ducklings Assemble..",
        "event_total": 54,
        "has_played": true,
        "id": 60004254,
        "last_rank": 58071,
        "player_name": "Hannah Milson",
        "rank": 62320,
        "rank_sort": 62414,
        "total": 2344
      },
      {
        "club_badge_src": null,
        "entry": 7612862,
        "entry_name": "Green Team",
        "event_total": 52,
        "has_played": true,
        "id": 62381113,
        "last_rank": 54494,
        "player_name": "The Unknown Winner",
        "rank": 62320,
        "rank_sort": 62415,
        "total": 2344
      },
      {
        "club_badge_src": null,
        "entry": 7674679,
        "entry_name": "DropItLikeItsSlot",
        "event_total": 51,
        "has_played": true,
        "id": 62943705,
        "last_rank": 53023,
        "player_name": "Harry Clare",
        "rank": 62320,
        "rank_sort": 62416,
        "total": 2344
      },
      {
        "club_badge_src": null,
        "entry": 7702306,
        "entry_name": "Fri9a",
        "event_total": 74,
        "has_played": true,
        "id": 63191618,
        "last_rank": 100469,
        "player_name": "Ayoub Hammouch",
        "rank": 62320,
        "rank_sort": 62417,
        "total": 2344
      },
      {
        "club_badge_src": "https://fantasy.premierleague.com/gcs/plfpl-production-adobe-approved/plfpl-production/7708084/076350a2-a49c-44c8-aba3-ad9b5b85e8d0.png",
        "entry": 7708084,
        "entry_name": "FC Campeones",
        "event_total": 50,
        "has_played": true,
        "id": 63243699,
        "last_rank": 51403,
        "player_name": "Mark Mars",
        "rank": 62320,
        "rank_sort": 62418,
        "total": 2344
      },
      {
        "club_badge_src": null,
        "entry": 7729903,
        "entry_name": "Warriors",
        "event_total": 61,
        "has_played": true,
        "id": 63440180,
        "last_rank": 70757,
        "player_name": "F. Gold Toluhi",
        "rank": 62320,
        "rank_sort": 62419,
        "total": 2344
      },
      {
        "club_badge_src": null,
        "entry": 7868237,
        "entry_name": "newteamsd",
        "event_total": 25,
        "has_played": true,
        "id": 64697876,
        "last_rank": 22534,
        "player_name": "Sourav Dutta",
        "rank": 62320,
        "rank_sort": 62420,
        "total": 2344
      },
      {
        "club_badge_src": null,
        "entry": 7882505,
        "entry_name": "LA FOFO",
        "event_total": 35,
        "has_played": true,
        "id": 64826705,
        "last_rank": 31747,
        "player_name": "Abdullah Fuad",
        "rank": 62320,
        "rank_sort": 62421,
        "total": 2344
      },
      {
        "club_badge_src": null,
        "entry": 8918100,
        "entry_name": "Up the Blues",
        "event_total": 50,
        "has_played": true,
        "id": 74684468,
        "last_rank": 51403,
        "player_name": "Matt Norwood",
        "rank": 62320,
        "rank_sort": 62422,
        "total": 2344
      },
      {
        "club_badge_src": null,
        "entry": 9120498,
        "entry_name": "Lucky Clovers",
        "event_total": 51,
        "has_played": true,
        "id": 76652421,
        "last_rank": 53023,
        "player_name": "Lisa Byrne",
        "rank": 62320,
        "rank_sort": 62423,
        "total": 2344
      },
      {
        "club_badge_src": null,
        "entry": 9239615,
        "entry_name": "Diogo the wrong way?",
        "event_total": 57,
        "has_played": true,
        "id": 77821847,
        "last_rank": 63390,
        "player_name": "Josua Biles",
        "rank": 62320,
        "rank_sort": 62424,
        "total": 2344
      },
      {
        "club_badge_src": null,
        "entry": 9371064,
        "entry_name": "alla",
        "event_total": 48,
        "has_played": true,
        "id": 79091541,
        "last_rank": 48119,
        "player_name": "Ala Chikha",
        "rank": 62320,
        "rank_sort": 62425,
        "total": 2344
      },
      {
        "club_badge_src": null,
        "entry": 1396,
        "entry_name": "FC Lontra",
        "event_total": 63,
        "has_played": true,
        "id": 7760,
        "last_rank": 74898,
        "player_name": "Rui Figueira",
        "rank": 62426,
        "rank_sort": 62426,
        "total": 2344
      },
      {
        "club_badge_src": null,
        "entry": 2724,
        "entry_name": "Ugarte Be Kidding Me",
        "event_total": 68,
        "has_played": true,
        "id": 15276,
        "last_rank": 85932,
        "player_name": "Imran Hamid",
        "rank": 62426,
        "rank_sort": 62427,
        "total": 2344
      },
      {
        "club_badge_src": null,
        "entry": 4104,
        "entry_name": "YB",
        "event_total": 61,
        "has_played": true,
        "id": 23294,
        "last_rank": 70600,
        "player_name": "Yash Bhatia",
        "rank": 62426,
        "rank_sort": 62428,
        "total": 2344
      },
      {
        "club_badge_src": "https://fantasy.premierleague.com/gcs/plfpl-production-adobe-approved/plfpl-production/7522/aadb609c-7819-402b-bee3-e764ed2b98d8.png",
        "entry": 7522,
        "entry_name": "Pat\u00e9tico de M\u00f3rbida",
        "event_total": 66,
        "has_played": true,
        "id": 43375,
        "last_rank": 81646,
        "player_name": "P M",
        "rank": 62426,
        "rank_sort": 62429,
        "total": 2344
      },
      {
        "club_badge_src": "https://fantasy.premierleague.com/gcs/plfpl-production-adobe-approved/plfpl-production/7643/1e6aaf87-a4b4-4805-a869-8bd6a021d683.png",
        "entry": 7643,
        "entry_name": "It's Raining ZubiMen",
        "event_total": 48,
        "has_played": true,
        "id": 44082,
        "last_rank": 48642,
        "player_name": "Harry Willis",
        "rank": 62426,
        "rank_sort": 62430,
        "total": 2344
      },
      {
        "club_badge_src": null,
        "entry": 8493,
        "entry_name": "HP Saucy",
        "event_total": 58,
        "has_played": true,
        "id": 49415,
        "last_rank": 64943,
        "player_name": "Henry Payne",
        "rank": 62426,
        "rank_sort": 62431,
        "total": 2344
      },
      {
        "club_badge_src": null,
        "entry": 9753,
        "entry_name": "Minteh Fresh",
        "event_total": 50,
        "has_played": true,
        "id": 57445,
        "last_rank": 51403,
        "player_name": "Ed St John",
        "rank": 62426,
        "rank_sort": 62432,
        "total": 2344
      },
      {
        "club_badge_src": null,
        "entry": 11378,
        "entry_name": "Ballon Dorgu",
        "event_total": 72,
        "has_played": true,
        "id": 67627,
        "last_rank": 95890,
        "player_name": "Barry Crosbie",
        "rank": 62426,
        "rank_sort": 62433,
        "total": 2344
      },
      {
        "club_badge_src": null,
        "entry": 13298,
        "entry_name": "Tronen er reserveret",
        "event_total": 66,
        "has_played": true,
        "id": 80248,
        "last_rank": 81420,
        "player_name": "Frederik Edslev",
        "rank": 62426,
        "rank_sort": 62434,
        "total": 2344
      },
      {
        "club_badge_src": "https://fantasy.premierleague.com/gcs/plfpl-production-adobe-approved/plfpl-production/14117/ea6d1383-4164-4f07-9fa7-9b71f66e908c.png",
        "entry": 14117,
        "entry_name": "The Last Danns",
        "event_total": 37,
        "has_played": true,
        "id": 85569,
        "last_rank": 34051,
        "player_name": "Bj\u00f8rn Lyse",
        "rank": 62426,
        "rank_sort": 62435,
        "total": 2344
      },
      {
        "club_badge_src": null,
        "entry": 20374,
        "entry_name": "ArchieGray'sAnatomy",
        "event_total": 52,
        "has_played": true,
        "id": 126974,
        "last_rank": 54494,
        "player_name": "Teddy Usher",
        "rank": 62426,
        "rank_sort": 62436,
        "total": 2344
      },
      {
        "club_badge_src": null,
        "entry": 25514,
        "entry_name": "GvardMySilva",
        "event_total": 54,
        "has_played": true,
        "id": 161372,
        "last_rank": 58071,
        "player_name": "Alan Fu",
        "rank": 62426,
        "rank_sort": 62437,
        "total": 2344
      },
      {
        "club_badge_src": null,
        "entry": 26288,
        "entry_name": "Donyell at me",
        "event_total": 64,
        "has_played": true,
        "id": 166204,
        "last_rank": 77258,
        "player_name": "Tom Parkes",
        "rank": 62426,
        "rank_sort": 62438,
        "total": 2344
      },
      {
        "club_badge_src": null,
        "entry": 27507,
        "entry_name": "Ed Hunter FC",
        "event_total": 61,
        "has_played": true,
        "id": 173899,
        "last_rank": 70985,
        "player_name": "Sam Black",
        "rank": 62426,
        "rank_sort": 62439,
        "total": 2344
      },
      {
        "club_badge_src": null,
        "entry": 27526,
        "entry_name": "Team",
        "event_total": 53,
        "has_played": true,
        "id": 174022,
        "last_rank": 56369,
        "player_name": "Andy Bennett",
        "rank": 62426,
        "rank_sort": 62440,
        "total": 2344
      },
      {
        "club_badge_src": "https://fantasy.premierleague.com/gcs/plfpl-production-adobe-approved/plfpl-production/30310/890cbb6f-beb9-4537-b3e5-5e23f4572265.png",
        "entry": 30310,
        "entry_name": "Chairman",
        "event_total": 68,
        "has_played": true,
        "id": 191833,
        "last_rank": 86054,
        "player_name": "Luke Bosher",
        "rank": 62426,
        "rank_sort": 62441,
        "total": 2344
      },
      {
        "club_badge_src": "https://fantasy.premierleague.com/gcs/plfpl-production-adobe-approved/plfpl-production/31492/9b155ae6-e706-4c17-84c5-f3f677595376.png",
        "entry": 31492,
        "entry_name": "\u00d8 de Parfum",
        "event_total": 46,
        "has_played": true,
        "id": 199671,
        "last_rank": 45252,
        "player_name": "Flo P",
        "rank": 62426,
        "rank_sort": 62442,
        "total": 2344
      },
      {
        "club_badge_src": null,
        "entry": 32644,
        "entry_name": "Sonshank Redemption",
        "event_total": 58,
        "has_played": true,
        "id": 207763,
        "last_rank": 65163,
        "player_name": "Lil GDizzle",
        "rank": 62426,
        "rank_sort": 62443,
        "total": 2344
      },
      {
        "club_badge_src": null,
        "entry": 34892,
        "entry_name": "McTom Cruise Control",
        "event_total": 68,
        "has_played": true,
        "id": 223109,
        "last_rank": 85932,
        "player_name": "Even Kol\u00f8y Grimstad",
        "rank": 62426,
        "rank_sort": 62444,
        "total": 2344
      },
      {
        "club_badge_src": null,
        "entry": 35558,
        "entry_name": "Murley miners",
        "event_total": 56,
        "has_played": true,
        "id": 227571,
        "last_rank": 61411,
        "player_name": "Max Murley",
        "rank": 62426,
        "rank_sort": 62445,
        "total": 2344
      },
      {
        "club_badge_src": null,
        "entry": 40067,
        "entry_name": "One Last Shot",
        "event_total": 56,
        "has_played": true,
        "id": 256857,
        "last_rank": 61411,
        "player_name": "John Drummond",
        "rank": 62426,
        "rank_sort": 62446,
        "total": 2344
      },
      {
        "club_badge_src": "https://fantasy.premierleague.com/gcs/plfpl-production-adobe-approved/plfpl-production/40269/86d8c5b7-6103-4245-9e42-8ad53e0c9414.png",
        "entry": 40269,
        "entry_name": "IR\u00d8N T\u00c1NK",
        "event_total": 63,
        "has_played": true,
        "id": 258166,
        "last_rank": 75139,
        "player_name": "D\u00d8\u015a S\u0164\u00c1N",
        "rank": 62426,
        "rank_sort": 62447,
        "total": 2344
      },
      {
        "club_badge_src": null,
        "entry": 41783,
        "entry_name": "The Damned United",
        "event_total": 59,
        "has_played": true,
        "id": 267723,
        "last_rank": 66738,
        "player_name": "Joshua Woolner",
        "rank": 62426,
        "rank_sort": 62448,
        "total": 2344
      },
      {
        "club_badge_src": "https://fantasy.premierleague.com/gcs/plfpl-production-adobe-approved/plfpl-production/42350/7a5eb160-4a12-46b1-8c46-90e34ab71f07.png",
        "entry": 42350,
        "entry_name": "Rumbling Titans",
        "event_total": 57,
        "has_played": true,
        "id": 271346,
        "last_rank": 63201,
        "player_name": "OS AMA",
        "rank": 62426,
        "rank_sort": 62449,
        "total": 2344
      },
      {
        "club_badge_src": null,
        "entry": 42942,
        "entry_name": "P N'didi Partey",
        "event_total": 54,
        "has_played": true,
        "id": 275040,
        "last_rank": 58071,
        "player_name": "Frazer Durrant",
        "rank": 62426,
        "rank_sort": 62450,
        "total": 2344
      }
    ]
  }
}