{
  "last_updated_data": "2026-05-24T23:28:17Z",
  "league": {
    "admin_entry": null,
    "closed": false,
    "code_privacy": "p",
    "created": "2025-07-20T23:14:33.933835Z",
    "cup_league": 2815434,
    "has_cup": true,
    "id": 314,
    "league_type": "s",
    "max_entries": null,
    "name": "Overall",
    "rank": null,
    "scoring": "c",
    "start_event": 1
  },
  "new_entries": {
    "has_next": false,
    "page": 1,
    "results": []
  },
  "standings": {
    "has_next": true,
    "page": 1303,
    "results": [
      {
        "club_badge_src": null,
        "entry": 32011,
        "entry_name": "Wirtzualization",
        "event_total": 70,
        "has_played": true,
        "id": 203319,
        "last_rank": 94537,
        "player_name": "Sean Simoni",
        "rank": 65089,
        "rank_sort": 65101,
        "total": 2343
      },
      {
        "club_badge_src": null,
        "entry": 48327,
        "entry_name": "BratWirtz",
        "event_total": 59,
        "has_played": true,
        "id": 310294,
        "last_rank": 62223,
        "player_name": "Jake Campbell",
        "rank": 65089,
        "rank_sort": 65102,
        "total": 2343
      },
      {
        "club_badge_src": "https://fantasy.premierleague.com/gcs/plfpl-production-adobe-approved/plfpl-production/50860/d16407bf-47be-4d52-a2e6-9bee0b990bb5.png",
        "entry": 50860,
        "entry_name": "Hauk",
        "event_total": 60,
        "has_played": true,
        "id": 327159,
        "last_rank": 71386,
        "player_name": "Henrik Haukerud",
        "rank": 65089,
        "rank_sort": 65103,
        "total": 2343
      },
      {
        "club_badge_src": null,
        "entry": 61336,
        "entry_name": "Eustace's Empire",
        "event_total": 61,
        "has_played": true,
        "id": 395069,
        "last_rank": 73975,
        "player_name": "Tom Bardsley",
        "rank": 65089,
        "rank_sort": 65104,
        "total": 2343
      },
      {
        "club_badge_src": null,
        "entry": 64504,
        "entry_name": "Fake Madrid",
        "event_total": 70,
        "has_played": true,
        "id": 416339,
        "last_rank": 94537,
        "player_name": "James Morgan",
        "rank": 65089,
        "rank_sort": 65105,
        "total": 2343
      },
      {
        "club_badge_src": null,
        "entry": 69605,
        "entry_name": "The Big Lewandowski",
        "event_total": 67,
        "has_played": true,
        "id": 451588,
        "last_rank": 77999,
        "player_name": "Dimitri Karkoulis",
        "rank": 65089,
        "rank_sort": 65106,
        "total": 2343
      },
      {
        "club_badge_src": null,
        "entry": 81982,
        "entry_name": "Woutiraldi",
        "event_total": 46,
        "has_played": true,
        "id": 533390,
        "last_rank": 47596,
        "player_name": "Wouter Boer",
        "rank": 65089,
        "rank_sort": 65107,
        "total": 2343
      },
      {
        "club_badge_src": null,
        "entry": 91729,
        "entry_name": "Juan on Juan fc",
        "event_total": 56,
        "has_played": true,
        "id": 599268,
        "last_rank": 64190,
        "player_name": "jawad 41",
        "rank": 65089,
        "rank_sort": 65108,
        "total": 2343
      },
      {
        "club_badge_src": null,
        "entry": 95647,
        "entry_name": "Hampton FC",
        "event_total": 81,
        "has_played": true,
        "id": 624889,
        "last_rank": 123908,
        "player_name": "Alex Parker",
        "rank": 65089,
        "rank_sort": 65109,
        "total": 2343
      },
      {
        "club_badge_src": null,
        "entry": 99687,
        "entry_name": "ihatefootball",
        "event_total": 47,
        "has_played": true,
        "id": 650727,
        "last_rank": 48642,
        "player_name": "Murad Mammadov",
        "rank": 65089,
        "rank_sort": 65110,
        "total": 2343
      },
      {
        "club_badge_src": null,
        "entry": 104540,
        "entry_name": "NicksDT",
        "event_total": 52,
        "has_played": true,
        "id": 681921,
        "last_rank": 57001,
        "player_name": "Niklas Sj\u00f6berg",
        "rank": 65089,
        "rank_sort": 65111,
        "total": 2343
      },
      {
        "club_badge_src": "https://fantasy.premierleague.com/gcs/plfpl-production-adobe-approved/plfpl-production/112605/07d1ad5d-d190-4172-82ae-f787568c3956.png",
        "entry": 112605,
        "entry_name": "\u0e04\u0e27\u0e32\u0e21\u0e2b\u0e27\u0e31\u0e07\u0e2b\u0e21\u0e39\u0e48\u0e1a\u0e49\u0e32\u0e19",
        "event_total": 43,
        "has_played": true,
        "id": 734242,
        "last_rank": 43342,
        "player_name": "Ka-t-cH- .",
        "rank": 65089,
        "rank_sort": 65112,
        "total": 2343
      },
      {
        "club_badge_src": null,
        "entry": 121050,
        "entry_name": "LFC Batam",
        "event_total": 54,
        "has_played": true,
        "id": 789863,
        "last_rank": 47163,
        "player_name": "Coshaq Coshaq",
        "rank": 65089,
        "rank_sort": 65113,
        "total": 2343
      },
      {
        "club_badge_src": null,
        "entry": 126529,
        "entry_name": "Pineapple",
        "event_total": 63,
        "has_played": true,
        "id": 824954,
        "last_rank": 68957,
        "player_name": "Hussam Adel",
        "rank": 65089,
        "rank_sort": 65114,
        "total": 2343
      },
      {
        "club_badge_src": null,
        "entry": 174586,
        "entry_name": "Gordon4sorGordon1s",
        "event_total": 66,
        "has_played": true,
        "id": 1152802,
        "last_rank": 84731,
        "player_name": "dillon reeves",
        "rank": 65089,
        "rank_sort": 65115,
        "total": 2343
      },
      {
        "club_badge_src": null,
        "entry": 188103,
        "entry_name": "Try Schade",
        "event_total": 74,
        "has_played": true,
        "id": 1244221,
        "last_rank": 83584,
        "player_name": "Michael Privett",
        "rank": 65089,
        "rank_sort": 65116,
        "total": 2343
      },
      {
        "club_badge_src": "https://fantasy.premierleague.com/gcs/plfpl-production-adobe-approved/plfpl-production/207347/422110ae-0111-429c-81e3-6219d7e86f01.png",
        "entry": 207347,
        "entry_name": "ExtraVirgilOliveOil",
        "event_total": 52,
        "has_played": true,
        "id": 1378154,
        "last_rank": 50468,
        "player_name": "Kasparas Alisauskas",
        "rank": 65089,
        "rank_sort": 65117,
        "total": 2343
      },
      {
        "club_badge_src": null,
        "entry": 241948,
        "entry_name": "Return of the Mac",
        "event_total": 67,
        "has_played": true,
        "id": 1610512,
        "last_rank": 77999,
        "player_name": "Owain James",
        "rank": 65089,
        "rank_sort": 65118,
        "total": 2343
      },
      {
        "club_badge_src": null,
        "entry": 257699,
        "entry_name": "Bolman Wanderers",
        "event_total": 54,
        "has_played": true,
        "id": 1713720,
        "last_rank": 60827,
        "player_name": "Basel Helal",
        "rank": 65089,
        "rank_sort": 65119,
        "total": 2343
      },
      {
        "club_badge_src": null,
        "entry": 284574,
        "entry_name": "Holy Boehly",
        "event_total": 37,
        "has_played": true,
        "id": 1894934,
        "last_rank": 35768,
        "player_name": "Fre Deswert",
        "rank": 65089,
        "rank_sort": 65120,
        "total": 2343
      },
      {
        "club_badge_src": "https://fantasy.premierleague.com/gcs/plfpl-production-adobe-approved/plfpl-production/295329/e4564739-26ea-4207-8b30-7e8d7e6ea69f.png",
        "entry": 295329,
        "entry_name": "PHISIT100",
        "event_total": 55,
        "has_played": true,
        "id": 1972552,
        "last_rank": 62429,
        "player_name": "PHISIT APIVATANAPONG",
        "rank": 65089,
        "rank_sort": 65121,
        "total": 2343
      },
      {
        "club_badge_src": null,
        "entry": 298533,
        "entry_name": "Top of the Slots",
        "event_total": 68,
        "has_played": true,
        "id": 1995975,
        "last_rank": 80194,
        "player_name": "Ian Cook",
        "rank": 65089,
        "rank_sort": 65122,
        "total": 2343
      },
      {
        "club_badge_src": "https://fantasy.premierleague.com/gcs/plfpl-production-adobe-approved/plfpl-production/313062/68dc2d2e-9457-4e53-b586-eeefaf883211.png",
        "entry": 313062,
        "entry_name": "Rooney Tunes",
        "event_total": 40,
        "has_played": true,
        "id": 2097532,
        "last_rank": 39023,
        "player_name": "Dan Hart",
        "rank": 65089,
        "rank_sort": 65123,
        "total": 2343
      },
      {
        "club_badge_src": null,
        "entry": 386967,
        "entry_name": "Jabbadabbadu",
        "event_total": 43,
        "has_played": true,
        "id": 2595980,
        "last_rank": 38016,
        "player_name": "Vebj\u00f8rn Nord Haugland",
        "rank": 65089,
        "rank_sort": 65124,
        "total": 2343
      },
      {
        "club_badge_src": "https://fantasy.premierleague.com/gcs/plfpl-production-adobe-approved/plfpl-production/420065/ff152651-3bef-444e-8e5e-71ac7cd092f9.png",
        "entry": 420065,
        "entry_name": "For Beto Or Wirtz",
        "event_total": 48,
        "has_played": true,
        "id": 2815262,
        "last_rank": 50635,
        "player_name": "Steve Hill",
        "rank": 65089,
        "rank_sort": 65125,
        "total": 2343
      },
      {
        "club_badge_src": null,
        "entry": 459130,
        "entry_name": "Roy Cunha",
        "event_total": 56,
        "has_played": true,
        "id": 3080093,
        "last_rank": 64190,
        "player_name": "Laurie Stokes",
        "rank": 65089,
        "rank_sort": 65126,
        "total": 2343
      },
      {
        "club_badge_src": "https://fantasy.premierleague.com/gcs/plfpl-production-adobe-approved/plfpl-production/467140/8a87a3ee-32d2-4429-adb1-4b9f27b314ef.png",
        "entry": 467140,
        "entry_name": "El Tri Hatricks in26",
        "event_total": 69,
        "has_played": true,
        "id": 3134613,
        "last_rank": 82069,
        "player_name": "Alex Orozco",
        "rank": 65089,
        "rank_sort": 65127,
        "total": 2343
      },
      {
        "club_badge_src": "https://fantasy.premierleague.com/gcs/plfpl-production-adobe-approved/plfpl-production/542110/0fab2099-9399-4c9f-bfaa-3424cf6ea71e.png",
        "entry": 542110,
        "entry_name": "CanHeFixItYesHeeChan",
        "event_total": 68,
        "has_played": true,
        "id": 3648601,
        "last_rank": 71386,
        "player_name": "Enrico .",
        "rank": 65089,
        "rank_sort": 65128,
        "total": 2343
      },
      {
        "club_badge_src": "https://fantasy.premierleague.com/gcs/plfpl-production-adobe-approved/plfpl-production/617814/0d06561d-4ec0-4769-bc8a-94cae63d2957.png",
        "entry": 617814,
        "entry_name": "Portugeezers",
        "event_total": 53,
        "has_played": true,
        "id": 4174192,
        "last_rank": 58688,
        "player_name": "In\u00eas Tavares",
        "rank": 65089,
        "rank_sort": 65129,
        "total": 2343
      },
      {
        "club_badge_src": null,
        "entry": 624062,
        "entry_name": "Lil Eze Vert FC",
        "event_total": 53,
        "has_played": true,
        "id": 4217370,
        "last_rank": 58688,
        "player_name": "Chris Young",
        "rank": 65089,
        "rank_sort": 65130,
        "total": 2343
      },
      {
        "club_badge_src": null,
        "entry": 628688,
        "entry_name": "can't get any wirtz",
        "event_total": 65,
        "has_played": true,
        "id": 4248372,
        "last_rank": 65163,
        "player_name": "karthik prasanna",
        "rank": 65089,
        "rank_sort": 65131,
        "total": 2343
      },
      {
        "club_badge_src": "https://fantasy.premierleague.com/gcs/plfpl-production-adobe-approved/plfpl-production/668314/916683c7-976d-467f-ac71-8256fe754822.png",
        "entry": 668314,
        "entry_name": "Brf Ehrenpreuss ||",
        "event_total": 63,
        "has_played": true,
        "id": 4519273,
        "last_rank": 69641,
        "player_name": "Robin Lindholm",
        "rank": 65089,
        "rank_sort": 65132,
        "total": 2343
      },
      {
        "club_badge_src": null,
        "entry": 670518,
        "entry_name": "Murdy's Albion",
        "event_total": 74,
        "has_played": true,
        "id": 4535023,
        "last_rank": 103526,
        "player_name": "Russell Lintin",
        "rank": 65089,
        "rank_sort": 65133,
        "total": 2343
      },
      {
        "club_badge_src": null,
        "entry": 680189,
        "entry_name": "Toddler FC",
        "event_total": 58,
        "has_played": true,
        "id": 4602896,
        "last_rank": 67926,
        "player_name": "Billy Smith",
        "rank": 65089,
        "rank_sort": 65134,
        "total": 2343
      },
      {
        "club_badge_src": null,
        "entry": 691048,
        "entry_name": "sea the stars",
        "event_total": 60,
        "has_played": true,
        "id": 4679555,
        "last_rank": 71956,
        "player_name": "Mark Sweeting",
        "rank": 65089,
        "rank_sort": 65135,
        "total": 2343
      },
      {
        "club_badge_src": null,
        "entry": 715181,
        "entry_name": "tamer elsammak",
        "event_total": 57,
        "has_played": true,
        "id": 4852156,
        "last_rank": 66200,
        "player_name": "Tamer Elsammak",
        "rank": 65089,
        "rank_sort": 65136,
        "total": 2343
      },
      {
        "club_badge_src": null,
        "entry": 995703,
        "entry_name": "Panpicus",
        "event_total": 63,
        "has_played": true,
        "id": 6873123,
        "last_rank": 77999,
        "player_name": "Daniel Bilek",
        "rank": 65089,
        "rank_sort": 65137,
        "total": 2343
      },
      {
        "club_badge_src": null,
        "entry": 1039373,
        "entry_name": "bMbM4MA",
        "event_total": 73,
        "has_played": true,
        "id": 7192735,
        "last_rank": 102125,
        "player_name": "Mohamed Magdy",
        "rank": 65089,
        "rank_sort": 65138,
        "total": 2343
      },
      {
        "club_badge_src": null,
        "entry": 1068284,
        "entry_name": "YiZ",
        "event_total": 61,
        "has_played": true,
        "id": 7395570,
        "last_rank": 65475,
        "player_name": "Yahia Ibrahim",
        "rank": 65089,
        "rank_sort": 65139,
        "total": 2343
      },
      {
        "club_badge_src": null,
        "entry": 1073160,
        "entry_name": "Heisenberg",
        "event_total": 52,
        "has_played": true,
        "id": 7429599,
        "last_rank": 50199,
        "player_name": "Patrick Paulsen",
        "rank": 65089,
        "rank_sort": 65140,
        "total": 2343
      },
      {
        "club_badge_src": null,
        "entry": 1090513,
        "entry_name": "Fodens",
        "event_total": 57,
        "has_played": true,
        "id": 7552590,
        "last_rank": 65796,
        "player_name": "Rui Bento",
        "rank": 65089,
        "rank_sort": 65141,
        "total": 2343
      },
      {
        "club_badge_src": null,
        "entry": 1131735,
        "entry_name": "Genetically ahead",
        "event_total": 40,
        "has_played": true,
        "id": 7844714,
        "last_rank": 39403,
        "player_name": "Abubakar Sabo Bello",
        "rank": 65089,
        "rank_sort": 65142,
        "total": 2343
      },
      {
        "club_badge_src": null,
        "entry": 1132670,
        "entry_name": "tenryuubito",
        "event_total": 61,
        "has_played": true,
        "id": 7851370,
        "last_rank": 73975,
        "player_name": "Feri D. Kustanto",
        "rank": 65089,
        "rank_sort": 65143,
        "total": 2343
      },
      {
        "club_badge_src": "https://fantasy.premierleague.com/gcs/plfpl-production-adobe-approved/plfpl-production/1141123/94c8fc82-79e0-4cd9-af20-5aac19c9a028.png",
        "entry": 1141123,
        "entry_name": "Musical Jairs",
        "event_total": 61,
        "has_played": true,
        "id": 7910008,
        "last_rank": 73720,
        "player_name": "Tyler Hammond",
        "rank": 65089,
        "rank_sort": 65144,
        "total": 2343
      },
      {
        "club_badge_src": null,
        "entry": 1171326,
        "entry_name": "Pablo Marescabar",
        "event_total": 61,
        "has_played": true,
        "id": 8126000,
        "last_rank": 73975,
        "player_name": "Sam Mumford",
        "rank": 65089,
        "rank_sort": 65145,
        "total": 2343
      },
      {
        "club_badge_src": null,
        "entry": 1203540,
        "entry_name": "Brutus",
        "event_total": 59,
        "has_played": true,
        "id": 8352091,
        "last_rank": 69641,
        "player_name": "Sindre Stiklestad",
        "rank": 65089,
        "rank_sort": 65146,
        "total": 2343
      },
      {
        "club_badge_src": null,
        "entry": 1247779,
        "entry_name": "dem boys",
        "event_total": 60,
        "has_played": true,
        "id": 8665941,
        "last_rank": 71956,
        "player_name": "Amund Karseth",
        "rank": 65089,
        "rank_sort": 65147,
        "total": 2343
      },
      {
        "club_badge_src": null,
        "entry": 1263989,
        "entry_name": "Rabie Tns \ufffd",
        "event_total": 53,
        "has_played": true,
        "id": 8782152,
        "last_rank": 58911,
        "player_name": "Rabie Ben Abdallah",
        "rank": 65089,
        "rank_sort": 65148,
        "total": 2343
      },
      {
        "club_badge_src": "https://fantasy.premierleague.com/gcs/plfpl-production-adobe-approved/plfpl-production/1361248/62cd3a3a-1844-4804-9bc6-67dd02cedb84.png",
        "entry": 1361248,
        "entry_name": "Putrajaya FC",
        "event_total": 56,
        "has_played": true,
        "id": 9462067,
        "last_rank": 50199,
        "player_name": "Mohammad Beg",
        "rank": 65089,
        "rank_sort": 65149,
        "total": 2343
      },
      {
        "club_badge_src": null,
        "entry": 1362797,
        "entry_name": "HighStars",
        "event_total": 63,
        "has_played": true,
        "id": 9472892,
        "last_rank": 77999,
        "player_name": "Emir Dupovac",
        "rank": 65089,
        "rank_sort": 65150,
        "total": 2343
      }
    ]
  }
}