{
  "last_updated_data": "2026-05-24T23:28:17Z",
  "league": {
    "admin_entry": null,
    "closed": false,
    "code_privacy": "p",
    "created": "2025-07-20T23:14:33.933835Z",
    "cup_league": 2815434,
    "has_cup": true,
    "id": 314,
    "league_type": "s",
    "max_entries": null,
    "name": "Overall",
    "rank": null,
    "scoring": "c",
    "start_event": 1
  },
  "new_entries": {
    "has_next": false,
    "page": 1,
    "results": []
  },
  "standings": {
    "has_next": true,
    "page": 709,
    "results": [
      {
        "club_badge_src": null,
        "entry": 218352,
        "entry_name": "Best Eleven",
        "event_total": 64,
        "has_played": true,
        "id": 1452059,
        "last_rank": 44048,
        "player_name": "Kieran Gallagher",
        "rank": 35352,
        "rank_sort": 35401,
        "total": 2363
      },
      {
        "club_badge_src": null,
        "entry": 254421,
        "entry_name": "The Slot Machine",
        "event_total": 72,
        "has_played": true,
        "id": 1692331,
        "last_rank": 49691,
        "player_name": "John Hoy",
        "rank": 35352,
        "rank_sort": 35402,
        "total": 2363
      },
      {
        "club_badge_src": null,
        "entry": 333029,
        "entry_name": "All Stars",
        "event_total": 59,
        "has_played": true,
        "id": 2230454,
        "last_rank": 37822,
        "player_name": "Martin Harlow",
        "rank": 35352,
        "rank_sort": 35403,
        "total": 2363
      },
      {
        "club_badge_src": null,
        "entry": 346238,
        "entry_name": "The only way is UP !",
        "event_total": 69,
        "has_played": true,
        "id": 2317608,
        "last_rank": 45416,
        "player_name": "Samuel Lagesse",
        "rank": 35352,
        "rank_sort": 35404,
        "total": 2363
      },
      {
        "club_badge_src": null,
        "entry": 379133,
        "entry_name": "Ealing Eagles",
        "event_total": 41,
        "has_played": true,
        "id": 2540229,
        "last_rank": 20179,
        "player_name": "Alan Buckler",
        "rank": 35352,
        "rank_sort": 35405,
        "total": 2363
      },
      {
        "club_badge_src": null,
        "entry": 380379,
        "entry_name": "Talk Wirtzy To Me",
        "event_total": 72,
        "has_played": true,
        "id": 2549225,
        "last_rank": 49880,
        "player_name": "Alex Fraser-Nash",
        "rank": 35352,
        "rank_sort": 35406,
        "total": 2363
      },
      {
        "club_badge_src": null,
        "entry": 407109,
        "entry_name": "Garibaldies",
        "event_total": 68,
        "has_played": true,
        "id": 2729880,
        "last_rank": 44048,
        "player_name": "Matthew Essam",
        "rank": 35352,
        "rank_sort": 35407,
        "total": 2363
      },
      {
        "club_badge_src": "https://fantasy.premierleague.com/gcs/plfpl-production-adobe-approved/plfpl-production/419009/cfe15da0-3286-49b1-9452-877ee61fd804.png",
        "entry": 419009,
        "entry_name": "\u6d77\u9038\u98db\u9df9",
        "event_total": 62,
        "has_played": true,
        "id": 2808408,
        "last_rank": 41324,
        "player_name": "Jack Li",
        "rank": 35352,
        "rank_sort": 35408,
        "total": 2363
      },
      {
        "club_badge_src": null,
        "entry": 436840,
        "entry_name": "Chelsea World Order",
        "event_total": 67,
        "has_played": true,
        "id": 2929391,
        "last_rank": 48197,
        "player_name": "Larry Ging",
        "rank": 35352,
        "rank_sort": 35409,
        "total": 2363
      },
      {
        "club_badge_src": null,
        "entry": 440070,
        "entry_name": "Fredagssalma",
        "event_total": 65,
        "has_played": true,
        "id": 2950820,
        "last_rank": 45416,
        "player_name": "Espen Grindalen",
        "rank": 35352,
        "rank_sort": 35410,
        "total": 2363
      },
      {
        "club_badge_src": null,
        "entry": 502245,
        "entry_name": "MDC XI",
        "event_total": 37,
        "has_played": true,
        "id": 3371096,
        "last_rank": 17585,
        "player_name": "Nikolai Ree",
        "rank": 35352,
        "rank_sort": 35411,
        "total": 2363
      },
      {
        "club_badge_src": "https://fantasy.premierleague.com/gcs/plfpl-production-adobe-approved/plfpl-production/525033/b542d470-f9fa-44d7-92b7-51307ca0a5a3.png",
        "entry": 525033,
        "entry_name": "Uncnation",
        "event_total": 59,
        "has_played": true,
        "id": 3528269,
        "last_rank": 37822,
        "player_name": "Tobias Reiersen",
        "rank": 35352,
        "rank_sort": 35412,
        "total": 2363
      },
      {
        "club_badge_src": null,
        "entry": 532132,
        "entry_name": "monkeys",
        "event_total": 54,
        "has_played": true,
        "id": 3579343,
        "last_rank": 31995,
        "player_name": "andrew meehan",
        "rank": 35352,
        "rank_sort": 35413,
        "total": 2363
      },
      {
        "club_badge_src": null,
        "entry": 552200,
        "entry_name": "FC Slovan Modra",
        "event_total": 62,
        "has_played": true,
        "id": 3716729,
        "last_rank": 41324,
        "player_name": "Jakub Richter",
        "rank": 35352,
        "rank_sort": 35414,
        "total": 2363
      },
      {
        "club_badge_src": null,
        "entry": 566113,
        "entry_name": "Wirtz Your Head At",
        "event_total": 53,
        "has_played": true,
        "id": 3810298,
        "last_rank": 30957,
        "player_name": "Andrew Lanham",
        "rank": 35352,
        "rank_sort": 35415,
        "total": 2363
      },
      {
        "club_badge_src": null,
        "entry": 567062,
        "entry_name": "ThomastheFrankengine",
        "event_total": 57,
        "has_played": true,
        "id": 3816597,
        "last_rank": 35166,
        "player_name": "Oliver Smart",
        "rank": 35352,
        "rank_sort": 35416,
        "total": 2363
      },
      {
        "club_badge_src": null,
        "entry": 568505,
        "entry_name": "Younes tani",
        "event_total": 78,
        "has_played": true,
        "id": 3826381,
        "last_rank": 67422,
        "player_name": "Younes Tani ----",
        "rank": 35352,
        "rank_sort": 35417,
        "total": 2363
      },
      {
        "club_badge_src": null,
        "entry": 577342,
        "entry_name": "Bluues",
        "event_total": 58,
        "has_played": true,
        "id": 3884899,
        "last_rank": 36624,
        "player_name": "Hussam A",
        "rank": 35352,
        "rank_sort": 35418,
        "total": 2363
      },
      {
        "club_badge_src": null,
        "entry": 585114,
        "entry_name": "Lets twist again",
        "event_total": 64,
        "has_played": true,
        "id": 3937696,
        "last_rank": 38774,
        "player_name": "terry myall",
        "rank": 35352,
        "rank_sort": 35419,
        "total": 2363
      },
      {
        "club_badge_src": "https://fantasy.premierleague.com/gcs/plfpl-production-adobe-approved/plfpl-production/605819/157f0eea-0c4a-4503-8c1d-17d241b678e3.png",
        "entry": 605819,
        "entry_name": "Kanzo FC",
        "event_total": 67,
        "has_played": true,
        "id": 4090507,
        "last_rank": 48363,
        "player_name": "Panyin Boateng",
        "rank": 35352,
        "rank_sort": 35420,
        "total": 2363
      },
      {
        "club_badge_src": null,
        "entry": 618180,
        "entry_name": "Doak Company",
        "event_total": 58,
        "has_played": true,
        "id": 4176645,
        "last_rank": 36348,
        "player_name": "Tord Bergesen",
        "rank": 35352,
        "rank_sort": 35421,
        "total": 2363
      },
      {
        "club_badge_src": "https://fantasy.premierleague.com/gcs/plfpl-production-adobe-approved/plfpl-production/619876/077b206b-62d1-4d2e-9e8a-fd4a8f85ea50.png",
        "entry": 619876,
        "entry_name": "WE United",
        "event_total": 50,
        "has_played": true,
        "id": 4189007,
        "last_rank": 24143,
        "player_name": "Nabin Maharjan",
        "rank": 35352,
        "rank_sort": 35422,
        "total": 2363
      },
      {
        "club_badge_src": null,
        "entry": 660581,
        "entry_name": "Grumple Palumple",
        "event_total": 67,
        "has_played": true,
        "id": 4464510,
        "last_rank": 48642,
        "player_name": "L T",
        "rank": 35352,
        "rank_sort": 35423,
        "total": 2363
      },
      {
        "club_badge_src": null,
        "entry": 662240,
        "entry_name": "Satriales",
        "event_total": 55,
        "has_played": true,
        "id": 4476547,
        "last_rank": 32879,
        "player_name": "Andy Watson",
        "rank": 35352,
        "rank_sort": 35424,
        "total": 2363
      },
      {
        "club_badge_src": null,
        "entry": 684426,
        "entry_name": "Sunny innit",
        "event_total": 54,
        "has_played": true,
        "id": 4632566,
        "last_rank": 31995,
        "player_name": "Robin Nilsson",
        "rank": 35352,
        "rank_sort": 35425,
        "total": 2363
      },
      {
        "club_badge_src": null,
        "entry": 697040,
        "entry_name": "Kai Me a River",
        "event_total": 43,
        "has_played": true,
        "id": 4721442,
        "last_rank": 21949,
        "player_name": "Saeed Alkaabi",
        "rank": 35352,
        "rank_sort": 35426,
        "total": 2363
      },
      {
        "club_badge_src": "https://fantasy.premierleague.com/gcs/plfpl-production-adobe-approved/plfpl-production/701525/9692fc65-ae2e-4bfe-b5c3-fe36778c077f.png",
        "entry": 701525,
        "entry_name": "Tel Her About It",
        "event_total": 60,
        "has_played": true,
        "id": 4753300,
        "last_rank": 29522,
        "player_name": "Jonathan Dean",
        "rank": 35352,
        "rank_sort": 35427,
        "total": 2363
      },
      {
        "club_badge_src": "https://fantasy.premierleague.com/gcs/plfpl-production-adobe-approved/plfpl-production/754940/0e37212a-fbd0-4184-8602-1ae8a9a3f6e5.png",
        "entry": 754940,
        "entry_name": "Dawg's Breakfast",
        "event_total": 61,
        "has_played": true,
        "id": 5139459,
        "last_rank": 40297,
        "player_name": "Jesse Bradley",
        "rank": 35352,
        "rank_sort": 35428,
        "total": 2363
      },
      {
        "club_badge_src": null,
        "entry": 769587,
        "entry_name": "Eleven that mata",
        "event_total": 61,
        "has_played": true,
        "id": 5249805,
        "last_rank": 35034,
        "player_name": "Jonathan Tan",
        "rank": 35352,
        "rank_sort": 35429,
        "total": 2363
      },
      {
        "club_badge_src": "https://fantasy.premierleague.com/gcs/plfpl-production-adobe-approved/plfpl-production/773576/c21ee84c-9722-4bb2-9fed-27126daa1852.png",
        "entry": 773576,
        "entry_name": "Finellama",
        "event_total": 68,
        "has_played": true,
        "id": 5277841,
        "last_rank": 49880,
        "player_name": "ben Schultz",
        "rank": 35352,
        "rank_sort": 35430,
        "total": 2363
      },
      {
        "club_badge_src": null,
        "entry": 831015,
        "entry_name": "AlhusseinyFPL",
        "event_total": 68,
        "has_played": true,
        "id": 5692085,
        "last_rank": 50199,
        "player_name": "Mustafa Salih",
        "rank": 35352,
        "rank_sort": 35431,
        "total": 2363
      },
      {
        "club_badge_src": null,
        "entry": 844818,
        "entry_name": "Digestive Busquets",
        "event_total": 66,
        "has_played": true,
        "id": 5788542,
        "last_rank": 41324,
        "player_name": "Jason Carmody",
        "rank": 35352,
        "rank_sort": 35432,
        "total": 2363
      },
      {
        "club_badge_src": null,
        "entry": 850118,
        "entry_name": "Tejnan united",
        "event_total": 58,
        "has_played": true,
        "id": 5826890,
        "last_rank": 36624,
        "player_name": "\u0623\u064a\u0648\u0628 \u0628\u0648\u062c\u0646\u0627\u0646\u0629",
        "rank": 35352,
        "rank_sort": 35433,
        "total": 2363
      },
      {
        "club_badge_src": null,
        "entry": 851160,
        "entry_name": "abdelali BJ",
        "event_total": 66,
        "has_played": true,
        "id": 5834032,
        "last_rank": 47163,
        "player_name": "Boujlal Abdelali",
        "rank": 35352,
        "rank_sort": 35434,
        "total": 2363
      },
      {
        "club_badge_src": null,
        "entry": 858104,
        "entry_name": "Gibbs my Son back",
        "event_total": 61,
        "has_played": true,
        "id": 5882377,
        "last_rank": 40297,
        "player_name": "Charlie culank",
        "rank": 35352,
        "rank_sort": 35435,
        "total": 2363
      },
      {
        "club_badge_src": null,
        "entry": 893092,
        "entry_name": "TMB Eindhoven",
        "event_total": 67,
        "has_played": true,
        "id": 6134584,
        "last_rank": 48642,
        "player_name": "Tom Baldwin",
        "rank": 35352,
        "rank_sort": 35436,
        "total": 2363
      },
      {
        "club_badge_src": "https://fantasy.premierleague.com/gcs/plfpl-production-adobe-approved/plfpl-production/900632/aac4d5ed-9f2d-4f50-b3f3-455dbf10945a.png",
        "entry": 900632,
        "entry_name": "The MBumos",
        "event_total": 60,
        "has_played": true,
        "id": 6188236,
        "last_rank": 39023,
        "player_name": "Brijesh Nasit",
        "rank": 35352,
        "rank_sort": 35437,
        "total": 2363
      },
      {
        "club_badge_src": null,
        "entry": 998674,
        "entry_name": "Saving Private Raya",
        "event_total": 84,
        "has_played": true,
        "id": 6901349,
        "last_rank": 79079,
        "player_name": "Bryn Scally",
        "rank": 35352,
        "rank_sort": 35438,
        "total": 2363
      },
      {
        "club_badge_src": null,
        "entry": 1047304,
        "entry_name": "Jerk\u00d8degaard",
        "event_total": 65,
        "has_played": true,
        "id": 7248009,
        "last_rank": 45714,
        "player_name": "Anders Jerk\u00f8",
        "rank": 35352,
        "rank_sort": 35439,
        "total": 2363
      },
      {
        "club_badge_src": null,
        "entry": 1063659,
        "entry_name": "DontLookBackinElanga",
        "event_total": 39,
        "has_played": true,
        "id": 7363377,
        "last_rank": 18985,
        "player_name": "Will Palin",
        "rank": 35352,
        "rank_sort": 35440,
        "total": 2363
      },
      {
        "club_badge_src": null,
        "entry": 1145198,
        "entry_name": "Back to Back to Back",
        "event_total": 29,
        "has_played": true,
        "id": 7939164,
        "last_rank": 12940,
        "player_name": "Lewis Andrews",
        "rank": 35352,
        "rank_sort": 35441,
        "total": 2363
      },
      {
        "club_badge_src": null,
        "entry": 1175252,
        "entry_name": "pogballers fc",
        "event_total": 56,
        "has_played": true,
        "id": 8154321,
        "last_rank": 29578,
        "player_name": "Tayyab Naeem",
        "rank": 35352,
        "rank_sort": 35442,
        "total": 2363
      },
      {
        "club_badge_src": null,
        "entry": 1194192,
        "entry_name": "ZIKOo9\ufffd",
        "event_total": 49,
        "has_played": true,
        "id": 8285677,
        "last_rank": 23341,
        "player_name": "kareem zaki9",
        "rank": 35352,
        "rank_sort": 35443,
        "total": 2363
      },
      {
        "club_badge_src": null,
        "entry": 1215510,
        "entry_name": "Pingu's Kingus",
        "event_total": 53,
        "has_played": true,
        "id": 8436873,
        "last_rank": 30957,
        "player_name": "Mike Vaz",
        "rank": 35352,
        "rank_sort": 35444,
        "total": 2363
      },
      {
        "club_badge_src": null,
        "entry": 1227824,
        "entry_name": "Super Mik Arteta",
        "event_total": 38,
        "has_played": true,
        "id": 8525615,
        "last_rank": 18113,
        "player_name": "Ahmad Al Thukair",
        "rank": 35352,
        "rank_sort": 35445,
        "total": 2363
      },
      {
        "club_badge_src": null,
        "entry": 1230822,
        "entry_name": "Kookaburra 2",
        "event_total": 55,
        "has_played": true,
        "id": 8546628,
        "last_rank": 32879,
        "player_name": "Mikael Fredriksson",
        "rank": 35352,
        "rank_sort": 35446,
        "total": 2363
      },
      {
        "club_badge_src": "https://fantasy.premierleague.com/gcs/plfpl-production-adobe-approved/plfpl-production/1255163/346811fc-df58-4de1-abb7-1b275eff1633.png",
        "entry": 1255163,
        "entry_name": "Class of 95",
        "event_total": 65,
        "has_played": true,
        "id": 8717696,
        "last_rank": 45714,
        "player_name": "Jesse van der Laan",
        "rank": 35352,
        "rank_sort": 35447,
        "total": 2363
      },
      {
        "club_badge_src": null,
        "entry": 1283275,
        "entry_name": "FC Sporting Daingean",
        "event_total": 68,
        "has_played": true,
        "id": 8917100,
        "last_rank": 50199,
        "player_name": "Niall Kilmurray",
        "rank": 35352,
        "rank_sort": 35448,
        "total": 2363
      },
      {
        "club_badge_src": "https://fantasy.premierleague.com/gcs/plfpl-production-adobe-approved/plfpl-production/1288672/69871519-531a-44fe-88db-f239722df135.png",
        "entry": 1288672,
        "entry_name": "Lallana Del Rey",
        "event_total": 65,
        "has_played": true,
        "id": 8954671,
        "last_rank": 45714,
        "player_name": "Milo\u0161 Fal",
        "rank": 35352,
        "rank_sort": 35449,
        "total": 2363
      },
      {
        "club_badge_src": null,
        "entry": 1294079,
        "entry_name": "Blazey Boys FC",
        "event_total": 66,
        "has_played": true,
        "id": 8993638,
        "last_rank": 46839,
        "player_name": "Azhar Anwary",
        "rank": 35352,
        "rank_sort": 35450,
        "total": 2363
      }
    ]
  }
}