{
  "last_updated_data": "2026-05-24T23:28:17Z",
  "league": {
    "admin_entry": null,
    "closed": false,
    "code_privacy": "p",
    "created": "2025-07-20T23:14:33.933835Z",
    "cup_league": 2815434,
    "has_cup": true,
    "id": 314,
    "league_type": "s",
    "max_entries": null,
    "name": "Overall",
    "rank": null,
    "scoring": "c",
    "start_event": 1
  },
  "new_entries": {
    "has_next": false,
    "page": 1,
    "results": []
  },
  "standings": {
    "has_next": true,
    "page": 1359,
    "results": [
      {
        "club_badge_src": null,
        "entry": 549783,
        "entry_name": "It's coming home",
        "event_total": 62,
        "has_played": true,
        "id": 3699858,
        "last_rank": 79431,
        "player_name": "Sam Castle",
        "rank": 67829,
        "rank_sort": 67901,
        "total": 2341
      },
      {
        "club_badge_src": null,
        "entry": 553471,
        "entry_name": "Mellanmj\u00f6lk FF",
        "event_total": 64,
        "has_played": true,
        "id": 3725207,
        "last_rank": 83934,
        "player_name": "Marcus Gardelius",
        "rank": 67829,
        "rank_sort": 67902,
        "total": 2341
      },
      {
        "club_badge_src": "https://fantasy.premierleague.com/gcs/plfpl-production-adobe-approved/plfpl-production/587456/19591bf3-37ff-4f37-8bbb-f2c5e8780cce.png",
        "entry": 587456,
        "entry_name": "FredAnfieldTeam",
        "event_total": 49,
        "has_played": true,
        "id": 3954524,
        "last_rank": 54667,
        "player_name": "Fredson RAZANABOLA",
        "rank": 67829,
        "rank_sort": 67903,
        "total": 2341
      },
      {
        "club_badge_src": null,
        "entry": 633751,
        "entry_name": "Too Eze",
        "event_total": 52,
        "has_played": true,
        "id": 4282807,
        "last_rank": 59813,
        "player_name": "Tom Hedger",
        "rank": 67829,
        "rank_sort": 67904,
        "total": 2341
      },
      {
        "club_badge_src": "https://fantasy.premierleague.com/gcs/plfpl-production-adobe-approved/plfpl-production/640180/4faa2b76-7a9b-4569-9d3d-1f6e4af38471.png",
        "entry": 640180,
        "entry_name": "Guns n\u2019 Moses",
        "event_total": 59,
        "has_played": true,
        "id": 4326560,
        "last_rank": 72662,
        "player_name": "Arshad Roshan",
        "rank": 67829,
        "rank_sort": 67905,
        "total": 2341
      },
      {
        "club_badge_src": null,
        "entry": 669705,
        "entry_name": "Budgies bruisers",
        "event_total": 44,
        "has_played": true,
        "id": 4529266,
        "last_rank": 46839,
        "player_name": "Paul walaron",
        "rank": 67829,
        "rank_sort": 67906,
        "total": 2341
      },
      {
        "club_badge_src": null,
        "entry": 670261,
        "entry_name": "Van Hecke of a team",
        "event_total": 87,
        "has_played": true,
        "id": 4533159,
        "last_rank": 149530,
        "player_name": "Geraint Jones",
        "rank": 67829,
        "rank_sort": 67907,
        "total": 2341
      },
      {
        "club_badge_src": null,
        "entry": 676602,
        "entry_name": "Cunha dig it, Saka!",
        "event_total": 60,
        "has_played": true,
        "id": 4577715,
        "last_rank": 66738,
        "player_name": "Rory Loudon",
        "rank": 67829,
        "rank_sort": 67908,
        "total": 2341
      },
      {
        "club_badge_src": null,
        "entry": 685767,
        "entry_name": "Oh Ah Lauder!",
        "event_total": 63,
        "has_played": true,
        "id": 4641879,
        "last_rank": 81646,
        "player_name": "David Lauder",
        "rank": 67829,
        "rank_sort": 67909,
        "total": 2341
      },
      {
        "club_badge_src": null,
        "entry": 715537,
        "entry_name": "mBOOMo",
        "event_total": 71,
        "has_played": true,
        "id": 4854660,
        "last_rank": 101419,
        "player_name": "Alfie Gray",
        "rank": 67829,
        "rank_sort": 67910,
        "total": 2341
      },
      {
        "club_badge_src": null,
        "entry": 716514,
        "entry_name": "kante is the best",
        "event_total": 48,
        "has_played": true,
        "id": 4861561,
        "last_rank": 52853,
        "player_name": "Mark Friedland",
        "rank": 67829,
        "rank_sort": 67911,
        "total": 2341
      },
      {
        "club_badge_src": "https://fantasy.premierleague.com/gcs/plfpl-production-adobe-approved/plfpl-production/780699/f7c99e12-7560-441f-8d3a-05786f8ed52c.png",
        "entry": 780699,
        "entry_name": "Inter Moran",
        "event_total": 57,
        "has_played": true,
        "id": 5330018,
        "last_rank": 68957,
        "player_name": "Brian Moran",
        "rank": 67829,
        "rank_sort": 67912,
        "total": 2341
      },
      {
        "club_badge_src": null,
        "entry": 787458,
        "entry_name": "Kai Me a River",
        "event_total": 62,
        "has_played": true,
        "id": 5383651,
        "last_rank": 79431,
        "player_name": "Arran Jafari",
        "rank": 67829,
        "rank_sort": 67913,
        "total": 2341
      },
      {
        "club_badge_src": "https://fantasy.premierleague.com/gcs/plfpl-production-adobe-approved/plfpl-production/795906/a9154541-70e5-4538-a2c3-70d888cce24b.png",
        "entry": 795906,
        "entry_name": "Wanchai Canucks",
        "event_total": 69,
        "has_played": true,
        "id": 5447060,
        "last_rank": 95890,
        "player_name": "Art Sin",
        "rank": 67829,
        "rank_sort": 67914,
        "total": 2341
      },
      {
        "club_badge_src": "https://fantasy.premierleague.com/gcs/plfpl-production-adobe-approved/plfpl-production/820223/d393c1c5-a2a0-461d-8d29-ac8888dbe3dc.png",
        "entry": 820223,
        "entry_name": "Me Myself Ndiaye",
        "event_total": 65,
        "has_played": true,
        "id": 5617476,
        "last_rank": 86054,
        "player_name": "Kieran Scammell",
        "rank": 67829,
        "rank_sort": 67915,
        "total": 2341
      },
      {
        "club_badge_src": null,
        "entry": 830206,
        "entry_name": "Corn on the Kobbie",
        "event_total": 50,
        "has_played": true,
        "id": 5686435,
        "last_rank": 56369,
        "player_name": "Gavin Byrne",
        "rank": 67829,
        "rank_sort": 67916,
        "total": 2341
      },
      {
        "club_badge_src": null,
        "entry": 852618,
        "entry_name": "Alsatian Warriors",
        "event_total": 48,
        "has_played": true,
        "id": 5844133,
        "last_rank": 53023,
        "player_name": "Colin Devonshire",
        "rank": 67829,
        "rank_sort": 67917,
        "total": 2341
      },
      {
        "club_badge_src": "https://fantasy.premierleague.com/gcs/plfpl-production-adobe-approved/plfpl-production/858531/e9809970-278b-4b4c-9ff2-34b83cc87744.png",
        "entry": 858531,
        "entry_name": "UnderDog",
        "event_total": 43,
        "has_played": true,
        "id": 5885260,
        "last_rank": 45416,
        "player_name": "Sam Lye",
        "rank": 67829,
        "rank_sort": 67918,
        "total": 2341
      },
      {
        "club_badge_src": "https://fantasy.premierleague.com/gcs/plfpl-production-adobe-approved/plfpl-production/859935/7c609f34-f8b2-4314-bd24-f1c8310eaa3f.png",
        "entry": 859935,
        "entry_name": "Cole PalmHur",
        "event_total": 68,
        "has_played": true,
        "id": 5894920,
        "last_rank": 93052,
        "player_name": "Jun Hur",
        "rank": 67829,
        "rank_sort": 67919,
        "total": 2341
      },
      {
        "club_badge_src": null,
        "entry": 896753,
        "entry_name": "Payandee's Pumas",
        "event_total": 73,
        "has_played": true,
        "id": 6160518,
        "last_rank": 105963,
        "player_name": "Philip Payandee",
        "rank": 67829,
        "rank_sort": 67920,
        "total": 2341
      },
      {
        "club_badge_src": null,
        "entry": 914396,
        "entry_name": "darwirtzy",
        "event_total": 35,
        "has_played": true,
        "id": 6287637,
        "last_rank": 35034,
        "player_name": "Leo Pigott",
        "rank": 67829,
        "rank_sort": 67921,
        "total": 2341
      },
      {
        "club_badge_src": null,
        "entry": 929662,
        "entry_name": "Valen",
        "event_total": 61,
        "has_played": true,
        "id": 6396605,
        "last_rank": 77050,
        "player_name": "Marie Valen",
        "rank": 67829,
        "rank_sort": 67922,
        "total": 2341
      },
      {
        "club_badge_src": "https://fantasy.premierleague.com/gcs/plfpl-production-adobe-approved/plfpl-production/930850/acbe16b8-86dc-4401-b3ae-52dba2f3ff97.png",
        "entry": 930850,
        "entry_name": "Red Army",
        "event_total": 68,
        "has_played": true,
        "id": 6405041,
        "last_rank": 93443,
        "player_name": "Ali Tarakji",
        "rank": 67829,
        "rank_sort": 67923,
        "total": 2341
      },
      {
        "club_badge_src": "https://fantasy.premierleague.com/gcs/plfpl-production-adobe-approved/plfpl-production/933152/b5d9f55a-b3b5-405b-8d74-6a8b0f6edb89.png",
        "entry": 933152,
        "entry_name": "All Blacks FC",
        "event_total": 50,
        "has_played": true,
        "id": 6421217,
        "last_rank": 56708,
        "player_name": "Sam Blundell",
        "rank": 67829,
        "rank_sort": 67924,
        "total": 2341
      },
      {
        "club_badge_src": null,
        "entry": 962641,
        "entry_name": "Dynamo Singapura",
        "event_total": 69,
        "has_played": true,
        "id": 6633875,
        "last_rank": 95640,
        "player_name": "Peter Loughran",
        "rank": 67829,
        "rank_sort": 67925,
        "total": 2341
      },
      {
        "club_badge_src": null,
        "entry": 964616,
        "entry_name": "Burn-Lee",
        "event_total": 63,
        "has_played": true,
        "id": 6647927,
        "last_rank": 81420,
        "player_name": "Lee Guilfoyle",
        "rank": 67829,
        "rank_sort": 67926,
        "total": 2341
      },
      {
        "club_badge_src": null,
        "entry": 970097,
        "entry_name": "Aman",
        "event_total": 64,
        "has_played": true,
        "id": 6686339,
        "last_rank": 83698,
        "player_name": "Aman Chaudhary",
        "rank": 67829,
        "rank_sort": 67927,
        "total": 2341
      },
      {
        "club_badge_src": null,
        "entry": 978024,
        "entry_name": "DaveRules",
        "event_total": 55,
        "has_played": true,
        "id": 6742491,
        "last_rank": 65475,
        "player_name": "Dave Rule",
        "rank": 67829,
        "rank_sort": 67928,
        "total": 2341
      },
      {
        "club_badge_src": null,
        "entry": 988837,
        "entry_name": "Kudus to you sir",
        "event_total": 59,
        "has_played": true,
        "id": 6818323,
        "last_rank": 72815,
        "player_name": "Liam Dingle",
        "rank": 67829,
        "rank_sort": 67929,
        "total": 2341
      },
      {
        "club_badge_src": null,
        "entry": 992304,
        "entry_name": "Slangen",
        "event_total": 50,
        "has_played": true,
        "id": 6843462,
        "last_rank": 56369,
        "player_name": "Filip Lang",
        "rank": 67829,
        "rank_sort": 67930,
        "total": 2341
      },
      {
        "club_badge_src": null,
        "entry": 993402,
        "entry_name": "20 Wirtz of Wisdom",
        "event_total": 51,
        "has_played": true,
        "id": 6852229,
        "last_rank": 58388,
        "player_name": "Neofytos Neofytou",
        "rank": 67829,
        "rank_sort": 67931,
        "total": 2341
      },
      {
        "club_badge_src": null,
        "entry": 993472,
        "entry_name": "Biduanda Siluman",
        "event_total": 75,
        "has_played": true,
        "id": 6852795,
        "last_rank": 111203,
        "player_name": "Erol ---",
        "rank": 67829,
        "rank_sort": 67932,
        "total": 2341
      },
      {
        "club_badge_src": null,
        "entry": 1039786,
        "entry_name": "Cunha keep it down!",
        "event_total": 66,
        "has_played": true,
        "id": 7195674,
        "last_rank": 88594,
        "player_name": "Greg Williams",
        "rank": 67829,
        "rank_sort": 67933,
        "total": 2341
      },
      {
        "club_badge_src": null,
        "entry": 1047850,
        "entry_name": "Boys in Mateta Land",
        "event_total": 53,
        "has_played": true,
        "id": 7251724,
        "last_rank": 61606,
        "player_name": "Dean Wilson",
        "rank": 67829,
        "rank_sort": 67934,
        "total": 2341
      },
      {
        "club_badge_src": null,
        "entry": 1091991,
        "entry_name": "saka-on-a-frimpong",
        "event_total": 45,
        "has_played": true,
        "id": 7562914,
        "last_rank": 48363,
        "player_name": "Sol Wimsett",
        "rank": 67829,
        "rank_sort": 67935,
        "total": 2341
      },
      {
        "club_badge_src": null,
        "entry": 1095955,
        "entry_name": "Slot Ball FC",
        "event_total": 50,
        "has_played": true,
        "id": 7590993,
        "last_rank": 56180,
        "player_name": "Paul Brandon",
        "rank": 67829,
        "rank_sort": 67936,
        "total": 2341
      },
      {
        "club_badge_src": "https://fantasy.premierleague.com/gcs/plfpl-production-adobe-approved/plfpl-production/1118113/da69de96-0d59-4951-8c8b-7011eb0f335b.png",
        "entry": 1118113,
        "entry_name": "Have you that fc",
        "event_total": 47,
        "has_played": true,
        "id": 7744990,
        "last_rank": 51403,
        "player_name": "Shaun O'Connor",
        "rank": 67829,
        "rank_sort": 67937,
        "total": 2341
      },
      {
        "club_badge_src": null,
        "entry": 1118509,
        "entry_name": "Cunha Feel The Love",
        "event_total": 68,
        "has_played": true,
        "id": 7747736,
        "last_rank": 93186,
        "player_name": "Jacob Lively",
        "rank": 67829,
        "rank_sort": 67938,
        "total": 2341
      },
      {
        "club_badge_src": "https://fantasy.premierleague.com/gcs/plfpl-production-adobe-approved/plfpl-production/1134330/35a57eab-b6d5-413d-931b-828d7d47b3c6.png",
        "entry": 1134330,
        "entry_name": "Death Squad",
        "event_total": 56,
        "has_played": true,
        "id": 7862998,
        "last_rank": 67063,
        "player_name": "Yusif Alansari",
        "rank": 67829,
        "rank_sort": 67939,
        "total": 2341
      },
      {
        "club_badge_src": null,
        "entry": 1144562,
        "entry_name": "Pique Blinders",
        "event_total": 81,
        "has_played": true,
        "id": 7933991,
        "last_rank": 129043,
        "player_name": "abdut taiyeb",
        "rank": 67829,
        "rank_sort": 67940,
        "total": 2341
      },
      {
        "club_badge_src": null,
        "entry": 1162404,
        "entry_name": "AFC Stenners",
        "event_total": 45,
        "has_played": true,
        "id": 8063494,
        "last_rank": 48642,
        "player_name": "Tommy Stenlake",
        "rank": 67829,
        "rank_sort": 67941,
        "total": 2341
      },
      {
        "club_badge_src": null,
        "entry": 1184751,
        "entry_name": "eeelo",
        "event_total": 61,
        "has_played": true,
        "id": 8220031,
        "last_rank": 77050,
        "player_name": "Eunice Lo",
        "rank": 67829,
        "rank_sort": 67942,
        "total": 2341
      },
      {
        "club_badge_src": "https://fantasy.premierleague.com/gcs/plfpl-production-adobe-approved/plfpl-production/1187997/2d685e1c-d79a-4f51-8c04-5ce430eefe79.png",
        "entry": 1187997,
        "entry_name": "Fly High Diogo <3",
        "event_total": 48,
        "has_played": true,
        "id": 8242889,
        "last_rank": 53023,
        "player_name": "Aarni Reunanen",
        "rank": 67829,
        "rank_sort": 67943,
        "total": 2341
      },
      {
        "club_badge_src": null,
        "entry": 1196275,
        "entry_name": "Eze Peazy",
        "event_total": 78,
        "has_played": true,
        "id": 8301105,
        "last_rank": 120438,
        "player_name": "Jack Adamson",
        "rank": 67829,
        "rank_sort": 67944,
        "total": 2341
      },
      {
        "club_badge_src": null,
        "entry": 1204778,
        "entry_name": "Lazylarka11",
        "event_total": 65,
        "has_played": true,
        "id": 8360826,
        "last_rank": 86304,
        "player_name": "Rittick Sarkar",
        "rank": 67829,
        "rank_sort": 67945,
        "total": 2341
      },
      {
        "club_badge_src": null,
        "entry": 1237849,
        "entry_name": "Bowenarrer",
        "event_total": 75,
        "has_played": true,
        "id": 8595740,
        "last_rank": 111270,
        "player_name": "Howard Webb",
        "rank": 67829,
        "rank_sort": 67946,
        "total": 2341
      },
      {
        "club_badge_src": "https://fantasy.premierleague.com/gcs/plfpl-production-adobe-approved/plfpl-production/1240325/d1368841-a984-4678-8ef4-d165ee582ee2.png",
        "entry": 1240325,
        "entry_name": "Borussia Prusy",
        "event_total": 69,
        "has_played": true,
        "id": 8614035,
        "last_rank": 95640,
        "player_name": "Andrij Dich\u0165aruk",
        "rank": 67829,
        "rank_sort": 67947,
        "total": 2341
      },
      {
        "club_badge_src": null,
        "entry": 1274049,
        "entry_name": "Uciemi\u0119\u017cona Armada",
        "event_total": 71,
        "has_played": true,
        "id": 8852828,
        "last_rank": 100700,
        "player_name": "Jacek Borski",
        "rank": 67829,
        "rank_sort": 67948,
        "total": 2341
      },
      {
        "club_badge_src": null,
        "entry": 1284430,
        "entry_name": "FC DOPPIO",
        "event_total": 53,
        "has_played": true,
        "id": 8925094,
        "last_rank": 61606,
        "player_name": "Nathan Rooney",
        "rank": 67829,
        "rank_sort": 67949,
        "total": 2341
      },
      {
        "club_badge_src": null,
        "entry": 1415476,
        "entry_name": "Rice Rice Baby",
        "event_total": 82,
        "has_played": true,
        "id": 9853377,
        "last_rank": 132758,
        "player_name": "Shane Theobald",
        "rank": 67829,
        "rank_sort": 67950,
        "total": 2341
      }
    ]
  }
}