{
  "last_updated_data": "2026-05-24T23:28:17Z",
  "league": {
    "admin_entry": null,
    "closed": false,
    "code_privacy": "p",
    "created": "2025-07-20T23:14:33.933835Z",
    "cup_league": 2815434,
    "has_cup": true,
    "id": 314,
    "league_type": "s",
    "max_entries": null,
    "name": "Overall",
    "rank": null,
    "scoring": "c",
    "start_event": 1
  },
  "new_entries": {
    "has_next": false,
    "page": 1,
    "results": []
  },
  "standings": {
    "has_next": true,
    "page": 1,
    "results": [
      {
        "club_badge_src": null,
        "entry": 3027768,
        "entry_name": "Ibsen",
        "event_total": 76,
        "has_played": true,
        "id": 22278647,
        "last_rank": 1,
        "player_name": "Erik Ibsen",
        "rank": 1,
        "rank_sort": 1,
        "total": 2582
      },
      {
        "club_badge_src": "https://fantasy.premierleague.com/gcs/plfpl-production-adobe-approved/plfpl-production/8142824/a0a600c1-2a70-4374-a09e-4689a9798211.png",
        "entry": 8142824,
        "entry_name": "The Honest Trundlers",
        "event_total": 65,
        "has_played": true,
        "id": 67201620,
        "last_rank": 4,
        "player_name": "Ian Foster",
        "rank": 2,
        "rank_sort": 2,
        "total": 2544
      },
      {
        "club_badge_src": null,
        "entry": 3244539,
        "entry_name": "Team Peki",
        "event_total": 80,
        "has_played": true,
        "id": 24001489,
        "last_rank": 17,
        "player_name": "Ivan Peula",
        "rank": 3,
        "rank_sort": 3,
        "total": 2538
      },
      {
        "club_badge_src": null,
        "entry": 5093997,
        "entry_name": "\u0e01\u0e23\u0e38\u0e49\u0e21\u0e01\u0e23\u0e34\u0e48\u0e21",
        "event_total": 67,
        "has_played": true,
        "id": 39372158,
        "last_rank": 11,
        "player_name": "T-T T-T",
        "rank": 4,
        "rank_sort": 4,
        "total": 2535
      },
      {
        "club_badge_src": "https://fantasy.premierleague.com/gcs/plfpl-production-adobe-approved/plfpl-production/785300/87dbcbb9-836a-4fbc-8499-4a27ce782e71.png",
        "entry": 785300,
        "entry_name": "Soucek Yourself Son",
        "event_total": 62,
        "has_played": true,
        "id": 5365862,
        "last_rank": 8,
        "player_name": "David whitlock",
        "rank": 5,
        "rank_sort": 5,
        "total": 2533
      },
      {
        "club_badge_src": null,
        "entry": 6501155,
        "entry_name": "Aboudz",
        "event_total": 54,
        "has_played": true,
        "id": 51832310,
        "last_rank": 5,
        "player_name": "Abd Alm",
        "rank": 6,
        "rank_sort": 6,
        "total": 2533
      },
      {
        "club_badge_src": null,
        "entry": 3649057,
        "entry_name": "2EZE",
        "event_total": 65,
        "has_played": true,
        "id": 27199578,
        "last_rank": 9,
        "player_name": "Shamim Wakil",
        "rank": 7,
        "rank_sort": 7,
        "total": 2531
      },
      {
        "club_badge_src": null,
        "entry": 2569513,
        "entry_name": "afternoon de ligt",
        "event_total": 44,
        "has_played": true,
        "id": 18435958,
        "last_rank": 2,
        "player_name": "steve connor",
        "rank": 8,
        "rank_sort": 8,
        "total": 2529
      },
      {
        "club_badge_src": null,
        "entry": 4259553,
        "entry_name": "DOC's Red Devils",
        "event_total": 53,
        "has_played": true,
        "id": 32294898,
        "last_rank": 6,
        "player_name": "Ed Jenkinson",
        "rank": 9,
        "rank_sort": 9,
        "total": 2528
      },
      {
        "club_badge_src": "https://fantasy.premierleague.com/gcs/plfpl-production-adobe-approved/plfpl-production/5798417/fd703d82-8840-4830-bbc0-0a16a2172225.png",
        "entry": 5798417,
        "entry_name": "mirinda",
        "event_total": 46,
        "has_played": true,
        "id": 45484725,
        "last_rank": 3,
        "player_name": "Luka Ortulan",
        "rank": 10,
        "rank_sort": 10,
        "total": 2527
      },
      {
        "club_badge_src": null,
        "entry": 7665620,
        "entry_name": "Captain Bruno",
        "event_total": 60,
        "has_played": true,
        "id": 62860452,
        "last_rank": 13,
        "player_name": "Patrick Murphy",
        "rank": 11,
        "rank_sort": 11,
        "total": 2526
      },
      {
        "club_badge_src": null,
        "entry": 3023815,
        "entry_name": "Le Puissant FC",
        "event_total": 67,
        "has_played": true,
        "id": 22248542,
        "last_rank": 18,
        "player_name": "Oluwatobi Ajayi",
        "rank": 12,
        "rank_sort": 12,
        "total": 2524
      },
      {
        "club_badge_src": null,
        "entry": 1495208,
        "entry_name": "DrEaM TeAm",
        "event_total": 64,
        "has_played": true,
        "id": 10426996,
        "last_rank": 14,
        "player_name": "idris alqatrany",
        "rank": 13,
        "rank_sort": 13,
        "total": 2524
      },
      {
        "club_badge_src": "https://fantasy.premierleague.com/gcs/plfpl-production-adobe-approved/plfpl-production/3369164/35f3299d-68be-48db-aadf-9d3ab3af8dac.png",
        "entry": 3369164,
        "entry_name": "Slabhead FC",
        "event_total": 73,
        "has_played": true,
        "id": 25002260,
        "last_rank": 23,
        "player_name": "Simon Evans",
        "rank": 14,
        "rank_sort": 14,
        "total": 2523
      },
      {
        "club_badge_src": null,
        "entry": 3979,
        "entry_name": "Noche",
        "event_total": 57,
        "has_played": true,
        "id": 22575,
        "last_rank": 11,
        "player_name": "Phisan Kaewlee",
        "rank": 15,
        "rank_sort": 15,
        "total": 2521
      },
      {
        "club_badge_src": null,
        "entry": 1080038,
        "entry_name": "number one",
        "event_total": 48,
        "has_played": true,
        "id": 7478279,
        "last_rank": 7,
        "player_name": "Semenyo Magic",
        "rank": 16,
        "rank_sort": 16,
        "total": 2520
      },
      {
        "club_badge_src": null,
        "entry": 5407948,
        "entry_name": "Invincibles 2.0",
        "event_total": 65,
        "has_played": true,
        "id": 42052425,
        "last_rank": 21,
        "player_name": "matheos sofokleous",
        "rank": 17,
        "rank_sort": 17,
        "total": 2519
      },
      {
        "club_badge_src": null,
        "entry": 104649,
        "entry_name": "AC Moran",
        "event_total": 61,
        "has_played": true,
        "id": 682627,
        "last_rank": 20,
        "player_name": "Duncan Moran",
        "rank": 18,
        "rank_sort": 18,
        "total": 2516
      },
      {
        "club_badge_src": "https://fantasy.premierleague.com/gcs/plfpl-production-adobe-approved/plfpl-production/40275/1b45f79c-b1a8-4baf-9325-7827bb99914b.png",
        "entry": 40275,
        "entry_name": "W\u015bciek\u0142e Kuny",
        "event_total": 61,
        "has_played": true,
        "id": 258201,
        "last_rank": 15,
        "player_name": "Wojciech Bobrowicz",
        "rank": 19,
        "rank_sort": 19,
        "total": 2516
      },
      {
        "club_badge_src": null,
        "entry": 4099376,
        "entry_name": "Myles Lewis Teddy",
        "event_total": 65,
        "has_played": true,
        "id": 30954639,
        "last_rank": 24,
        "player_name": "Oliver Blount",
        "rank": 20,
        "rank_sort": 20,
        "total": 2515
      },
      {
        "club_badge_src": "https://fantasy.premierleague.com/gcs/plfpl-production-adobe-approved/plfpl-production/796593/454beef6-5b9d-45c7-a988-2708d4eb1522.png",
        "entry": 796593,
        "entry_name": "The Claw",
        "event_total": 63,
        "has_played": true,
        "id": 5451845,
        "last_rank": 22,
        "player_name": "Andreas Veggeland",
        "rank": 21,
        "rank_sort": 21,
        "total": 2515
      },
      {
        "club_badge_src": "https://fantasy.premierleague.com/gcs/plfpl-production-adobe-approved/plfpl-production/4218654/adf27724-ae58-4d7b-9e5d-e1ebb2d2749c.png",
        "entry": 4218654,
        "entry_name": "Rewan ChomanY",
        "event_total": 49,
        "has_played": true,
        "id": 31951535,
        "last_rank": 10,
        "player_name": "Rewan Ali",
        "rank": 22,
        "rank_sort": 22,
        "total": 2514
      },
      {
        "club_badge_src": null,
        "entry": 5747573,
        "entry_name": "Kebabslaskene",
        "event_total": 69,
        "has_played": true,
        "id": 45045650,
        "last_rank": 39,
        "player_name": "Trond Guldahl Hansen",
        "rank": 23,
        "rank_sort": 23,
        "total": 2513
      },
      {
        "club_badge_src": null,
        "entry": 6400869,
        "entry_name": "Ali Dia FC",
        "event_total": 72,
        "has_played": true,
        "id": 50927465,
        "last_rank": 42,
        "player_name": "Ben B",
        "rank": 24,
        "rank_sort": 24,
        "total": 2511
      },
      {
        "club_badge_src": "https://fantasy.premierleague.com/gcs/plfpl-production-adobe-approved/plfpl-production/394806/e77945df-9b80-4e5b-8914-bd3950ffe24b.png",
        "entry": 394806,
        "entry_name": "\u1d5b\u1db0\u30e1m\u00e2y lang thang",
        "event_total": 69,
        "has_played": true,
        "id": 2647707,
        "last_rank": 45,
        "player_name": "Pham Tue",
        "rank": 25,
        "rank_sort": 25,
        "total": 2510
      },
      {
        "club_badge_src": null,
        "entry": 3608565,
        "entry_name": "AFC Jinny",
        "event_total": 73,
        "has_played": true,
        "id": 26880367,
        "last_rank": 60,
        "player_name": "Sam Jinadu",
        "rank": 26,
        "rank_sort": 26,
        "total": 2510
      },
      {
        "club_badge_src": null,
        "entry": 1991600,
        "entry_name": "CurvaETCHO",
        "event_total": 68,
        "has_played": true,
        "id": 14071508,
        "last_rank": 49,
        "player_name": "Mohamed Hesham",
        "rank": 27,
        "rank_sort": 27,
        "total": 2508
      },
      {
        "club_badge_src": null,
        "entry": 2534643,
        "entry_name": "Zoubizza",
        "event_total": 68,
        "has_played": true,
        "id": 18164028,
        "last_rank": 50,
        "player_name": "Nuttawat Vititpariwat",
        "rank": 27,
        "rank_sort": 28,
        "total": 2508
      },
      {
        "club_badge_src": "https://fantasy.premierleague.com/gcs/plfpl-production-adobe-approved/plfpl-production/4114403/318ef0a2-5249-4b00-9a58-620d84ada549.png",
        "entry": 4114403,
        "entry_name": "Shaw Me The Money",
        "event_total": 70,
        "has_played": true,
        "id": 31077128,
        "last_rank": 59,
        "player_name": "Bror Martin Juhasz Fossum",
        "rank": 29,
        "rank_sort": 29,
        "total": 2508
      },
      {
        "club_badge_src": null,
        "entry": 4537055,
        "entry_name": "Team One",
        "event_total": 66,
        "has_played": true,
        "id": 34611350,
        "last_rank": 43,
        "player_name": "Andrew Mount",
        "rank": 29,
        "rank_sort": 30,
        "total": 2508
      },
      {
        "club_badge_src": null,
        "entry": 16990,
        "entry_name": "FreiburgChamp",
        "event_total": 62,
        "has_played": true,
        "id": 105233,
        "last_rank": 35,
        "player_name": "Parsa Ebrahimi",
        "rank": 31,
        "rank_sort": 31,
        "total": 2507
      },
      {
        "club_badge_src": null,
        "entry": 22270,
        "entry_name": "Ren\u00e9e Slaygers",
        "event_total": 70,
        "has_played": true,
        "id": 139823,
        "last_rank": 63,
        "player_name": "Jonah Jones",
        "rank": 31,
        "rank_sort": 32,
        "total": 2507
      },
      {
        "club_badge_src": "https://fantasy.premierleague.com/gcs/plfpl-production-adobe-approved/plfpl-production/505037/2329604d-48e9-40af-9d01-03c3aa734d51.png",
        "entry": 505037,
        "entry_name": "In the Kvistgaarden",
        "event_total": 59,
        "has_played": true,
        "id": 3389885,
        "last_rank": 28,
        "player_name": "Joe Dean",
        "rank": 31,
        "rank_sort": 33,
        "total": 2507
      },
      {
        "club_badge_src": null,
        "entry": 1210837,
        "entry_name": "LEGS11",
        "event_total": 62,
        "has_played": true,
        "id": 8404185,
        "last_rank": 27,
        "player_name": "carl legard",
        "rank": 34,
        "rank_sort": 34,
        "total": 2507
      },
      {
        "club_badge_src": null,
        "entry": 3915839,
        "entry_name": "Walkin Humans",
        "event_total": 47,
        "has_played": true,
        "id": 29443937,
        "last_rank": 15,
        "player_name": "Gustav Walkin",
        "rank": 35,
        "rank_sort": 35,
        "total": 2506
      },
      {
        "club_badge_src": null,
        "entry": 23301,
        "entry_name": "Carnz08",
        "event_total": 65,
        "has_played": true,
        "id": 146684,
        "last_rank": 38,
        "player_name": "Knowledge 096",
        "rank": 36,
        "rank_sort": 36,
        "total": 2505
      },
      {
        "club_badge_src": null,
        "entry": 2932608,
        "entry_name": "Wardies Wonderlads",
        "event_total": 57,
        "has_played": true,
        "id": 21504924,
        "last_rank": 31,
        "player_name": "Lee ward",
        "rank": 37,
        "rank_sort": 37,
        "total": 2504
      },
      {
        "club_badge_src": null,
        "entry": 7461966,
        "entry_name": "Burglar FC",
        "event_total": 59,
        "has_played": true,
        "id": 60791016,
        "last_rank": 35,
        "player_name": "Kade Theunissen",
        "rank": 37,
        "rank_sort": 38,
        "total": 2504
      },
      {
        "club_badge_src": null,
        "entry": 5674706,
        "entry_name": "OAUTD",
        "event_total": 69,
        "has_played": true,
        "id": 44409039,
        "last_rank": 57,
        "player_name": "Oakley Calder",
        "rank": 39,
        "rank_sort": 39,
        "total": 2504
      },
      {
        "club_badge_src": null,
        "entry": 4832,
        "entry_name": "Sparta \u0141\u0119\u017cyca",
        "event_total": 68,
        "has_played": true,
        "id": 27501,
        "last_rank": 73,
        "player_name": "Filip Kowalski",
        "rank": 40,
        "rank_sort": 40,
        "total": 2503
      },
      {
        "club_badge_src": null,
        "entry": 362952,
        "entry_name": "Castolo XI",
        "event_total": 70,
        "has_played": true,
        "id": 2428639,
        "last_rank": 67,
        "player_name": "Ross Macpherson",
        "rank": 41,
        "rank_sort": 41,
        "total": 2502
      },
      {
        "club_badge_src": null,
        "entry": 3291082,
        "entry_name": "Oh Heck",
        "event_total": 66,
        "has_played": true,
        "id": 24367153,
        "last_rank": 68,
        "player_name": "John Ormerod",
        "rank": 42,
        "rank_sort": 42,
        "total": 2502
      },
      {
        "club_badge_src": null,
        "entry": 244895,
        "entry_name": "Cunha Catch Me?",
        "event_total": 66,
        "has_played": true,
        "id": 1630488,
        "last_rank": 52,
        "player_name": "N Hinton",
        "rank": 43,
        "rank_sort": 43,
        "total": 2502
      },
      {
        "club_badge_src": null,
        "entry": 70476,
        "entry_name": "DanNistelrooy",
        "event_total": 55,
        "has_played": true,
        "id": 457655,
        "last_rank": 32,
        "player_name": "Dan Howes",
        "rank": 44,
        "rank_sort": 44,
        "total": 2501
      },
      {
        "club_badge_src": "https://fantasy.premierleague.com/gcs/plfpl-production-adobe-approved/plfpl-production/6943395/8ef6e498-0f97-4943-99e3-4b111423657e.png",
        "entry": 6943395,
        "entry_name": "Samurai \u2667\ufe0e",
        "event_total": 59,
        "has_played": true,
        "id": 55670136,
        "last_rank": 44,
        "player_name": "ziad alsyd",
        "rank": 45,
        "rank_sort": 45,
        "total": 2501
      },
      {
        "club_badge_src": "https://fantasy.premierleague.com/gcs/plfpl-production-adobe-approved/plfpl-production/88828/f2a54119-6869-437d-bae6-a2899ce8bfa0.png",
        "entry": 88828,
        "entry_name": "RegisLeCheese",
        "event_total": 59,
        "has_played": true,
        "id": 579780,
        "last_rank": 26,
        "player_name": "Jack Chapman",
        "rank": 46,
        "rank_sort": 46,
        "total": 2500
      },
      {
        "club_badge_src": null,
        "entry": 4437188,
        "entry_name": "Kane you belive it",
        "event_total": 51,
        "has_played": true,
        "id": 33785568,
        "last_rank": 28,
        "player_name": "Marius Gullerud",
        "rank": 47,
        "rank_sort": 47,
        "total": 2499
      },
      {
        "club_badge_src": null,
        "entry": 160674,
        "entry_name": "No Stags FC",
        "event_total": 68,
        "has_played": true,
        "id": 1058165,
        "last_rank": 89,
        "player_name": "Terry Chapman",
        "rank": 48,
        "rank_sort": 48,
        "total": 2499
      },
      {
        "club_badge_src": null,
        "entry": 8754817,
        "entry_name": "mukiele ukelele",
        "event_total": 70,
        "has_played": true,
        "id": 73109073,
        "last_rank": 77,
        "player_name": "throwbackss stringer bodie",
        "rank": 49,
        "rank_sort": 49,
        "total": 2499
      },
      {
        "club_badge_src": "https://fantasy.premierleague.com/gcs/plfpl-production-adobe-approved/plfpl-production/7887127/b11f6f8b-4767-41c1-9a8f-7d0efc8268b9.png",
        "entry": 7887127,
        "entry_name": "nunataq",
        "event_total": 57,
        "has_played": true,
        "id": 64868391,
        "last_rank": 32,
        "player_name": "Kim Lambaerts",
        "rank": 50,
        "rank_sort": 50,
        "total": 2499
      }
    ]
  }
}