{
  "last_updated_data": "2026-05-24T23:28:17Z",
  "league": {
    "admin_entry": null,
    "closed": false,
    "code_privacy": "p",
    "created": "2025-07-20T23:14:33.933835Z",
    "cup_league": 2815434,
    "has_cup": true,
    "id": 314,
    "league_type": "s",
    "max_entries": null,
    "name": "Overall",
    "rank": null,
    "scoring": "c",
    "start_event": 1
  },
  "new_entries": {
    "has_next": false,
    "page": 1,
    "results": []
  },
  "standings": {
    "has_next": true,
    "page": 753,
    "results": [
      {
        "club_badge_src": null,
        "entry": 3687339,
        "entry_name": "Hitaat ja kankeat",
        "event_total": 51,
        "has_played": true,
        "id": 27507259,
        "last_rank": 30727,
        "player_name": "Tuomo Muuttoranta",
        "rank": 37444,
        "rank_sort": 37601,
        "total": 2361
      },
      {
        "club_badge_src": null,
        "entry": 3705385,
        "entry_name": "Minimum Power",
        "event_total": 74,
        "has_played": true,
        "id": 27647534,
        "last_rank": 63390,
        "player_name": "Sam Pearson",
        "rank": 37444,
        "rank_sort": 37602,
        "total": 2361
      },
      {
        "club_badge_src": null,
        "entry": 3788746,
        "entry_name": "Manganese Madness",
        "event_total": 62,
        "has_played": true,
        "id": 28306681,
        "last_rank": 44048,
        "player_name": "Phu Bui",
        "rank": 37444,
        "rank_sort": 37603,
        "total": 2361
      },
      {
        "club_badge_src": null,
        "entry": 3801813,
        "entry_name": "Martintimelli",
        "event_total": 60,
        "has_played": true,
        "id": 28420869,
        "last_rank": 41162,
        "player_name": "Manfred Skog",
        "rank": 37444,
        "rank_sort": 37604,
        "total": 2361
      },
      {
        "club_badge_src": "https://fantasy.premierleague.com/gcs/plfpl-production-adobe-approved/plfpl-production/3830126/20c96b97-6800-45ca-b0a3-04e0708b21b6.png",
        "entry": 3830126,
        "entry_name": "Those Who Know",
        "event_total": 52,
        "has_played": true,
        "id": 28651108,
        "last_rank": 31747,
        "player_name": "Dominico Parish",
        "rank": 37444,
        "rank_sort": 37605,
        "total": 2361
      },
      {
        "club_badge_src": null,
        "entry": 3837304,
        "entry_name": "Marder She Wrote",
        "event_total": 64,
        "has_played": true,
        "id": 28722665,
        "last_rank": 46547,
        "player_name": "Rob Marder",
        "rank": 37444,
        "rank_sort": 37606,
        "total": 2361
      },
      {
        "club_badge_src": null,
        "entry": 3905555,
        "entry_name": "Amad as Hell",
        "event_total": 59,
        "has_played": true,
        "id": 29361490,
        "last_rank": 39874,
        "player_name": "Colum O'Dwyer",
        "rank": 37444,
        "rank_sort": 37607,
        "total": 2361
      },
      {
        "club_badge_src": null,
        "entry": 3929459,
        "entry_name": "Benzkri",
        "event_total": 66,
        "has_played": true,
        "id": 29552576,
        "last_rank": 49880,
        "player_name": "S D",
        "rank": 37444,
        "rank_sort": 37608,
        "total": 2361
      },
      {
        "club_badge_src": null,
        "entry": 3934775,
        "entry_name": "RCT",
        "event_total": 66,
        "has_played": true,
        "id": 29595256,
        "last_rank": 49880,
        "player_name": "Rebecca CT",
        "rank": 37444,
        "rank_sort": 37609,
        "total": 2361
      },
      {
        "club_badge_src": null,
        "entry": 3942193,
        "entry_name": "Kanga",
        "event_total": 67,
        "has_played": true,
        "id": 29655010,
        "last_rank": 51403,
        "player_name": "Marko Dencic",
        "rank": 37444,
        "rank_sort": 37610,
        "total": 2361
      },
      {
        "club_badge_src": null,
        "entry": 3978569,
        "entry_name": "FCDB",
        "event_total": 72,
        "has_played": true,
        "id": 29947367,
        "last_rank": 60168,
        "player_name": "Daniel Baker",
        "rank": 37444,
        "rank_sort": 37611,
        "total": 2361
      },
      {
        "club_badge_src": null,
        "entry": 4042113,
        "entry_name": "Dark Thunder",
        "event_total": 64,
        "has_played": true,
        "id": 30484350,
        "last_rank": 46839,
        "player_name": "Jon Saxon",
        "rank": 37444,
        "rank_sort": 37612,
        "total": 2361
      },
      {
        "club_badge_src": null,
        "entry": 4156640,
        "entry_name": "FC Ninjer",
        "event_total": 60,
        "has_played": true,
        "id": 31421573,
        "last_rank": 41162,
        "player_name": "Kalvin Patel",
        "rank": 37444,
        "rank_sort": 37613,
        "total": 2361
      },
      {
        "club_badge_src": "https://fantasy.premierleague.com/gcs/plfpl-production-adobe-approved/plfpl-production/4213060/bb8b1b71-2033-460a-900e-ae6c12d77f9f.png",
        "entry": 4213060,
        "entry_name": "Sick Kante",
        "event_total": 60,
        "has_played": true,
        "id": 31900428,
        "last_rank": 41101,
        "player_name": "Henry Bilson",
        "rank": 37444,
        "rank_sort": 37614,
        "total": 2361
      },
      {
        "club_badge_src": "https://fantasy.premierleague.com/gcs/plfpl-production-adobe-approved/plfpl-production/4247479/5fa551da-f5c5-4fbf-9629-a5ea2bd11c00.png",
        "entry": 4247479,
        "entry_name": "Nketi-her Fm Behind",
        "event_total": 75,
        "has_played": true,
        "id": 32195389,
        "last_rank": 64943,
        "player_name": "Richard Jones",
        "rank": 37444,
        "rank_sort": 37615,
        "total": 2361
      },
      {
        "club_badge_src": null,
        "entry": 4253397,
        "entry_name": "Wellbeck Warriors",
        "event_total": 59,
        "has_played": true,
        "id": 32244698,
        "last_rank": 39770,
        "player_name": "Rebecca Purdy",
        "rank": 37444,
        "rank_sort": 37616,
        "total": 2361
      },
      {
        "club_badge_src": null,
        "entry": 4324148,
        "entry_name": "TWyne",
        "event_total": 52,
        "has_played": true,
        "id": 32818031,
        "last_rank": 31556,
        "player_name": "Timothy Wyne",
        "rank": 37444,
        "rank_sort": 37617,
        "total": 2361
      },
      {
        "club_badge_src": null,
        "entry": 4396130,
        "entry_name": "Guessandestimate",
        "event_total": 65,
        "has_played": true,
        "id": 33427606,
        "last_rank": 48197,
        "player_name": "Ben Court",
        "rank": 37444,
        "rank_sort": 37618,
        "total": 2361
      },
      {
        "club_badge_src": null,
        "entry": 4433052,
        "entry_name": "Gunners",
        "event_total": 70,
        "has_played": true,
        "id": 33751122,
        "last_rank": 49691,
        "player_name": "Ben mccrory",
        "rank": 37444,
        "rank_sort": 37619,
        "total": 2361
      },
      {
        "club_badge_src": null,
        "entry": 4470620,
        "entry_name": "Solo Il Gala",
        "event_total": 58,
        "has_played": true,
        "id": 34067070,
        "last_rank": 38644,
        "player_name": "Mehmet Karaca",
        "rank": 37444,
        "rank_sort": 37620,
        "total": 2361
      },
      {
        "club_badge_src": null,
        "entry": 4477667,
        "entry_name": "Hoffers Utd",
        "event_total": 48,
        "has_played": true,
        "id": 34124476,
        "last_rank": 27770,
        "player_name": "Alice Hoffman",
        "rank": 37444,
        "rank_sort": 37621,
        "total": 2361
      },
      {
        "club_badge_src": "https://fantasy.premierleague.com/gcs/plfpl-production-adobe-approved/plfpl-production/4483059/f444b32d-8644-49e1-b152-e3f6d890f50e.png",
        "entry": 4483059,
        "entry_name": "yeahhcourse",
        "event_total": 47,
        "has_played": true,
        "id": 34168450,
        "last_rank": 26827,
        "player_name": "Charlie Russell",
        "rank": 37444,
        "rank_sort": 37622,
        "total": 2361
      },
      {
        "club_badge_src": null,
        "entry": 4500644,
        "entry_name": "racmatic phase 6",
        "event_total": 75,
        "has_played": true,
        "id": 34311585,
        "last_rank": 64830,
        "player_name": "Rasheed Chambas",
        "rank": 37444,
        "rank_sort": 37623,
        "total": 2361
      },
      {
        "club_badge_src": "https://fantasy.premierleague.com/gcs/plfpl-production-adobe-approved/plfpl-production/4532799/bbab041d-8265-469b-b794-7b4561de0e5f.png",
        "entry": 4532799,
        "entry_name": "Northern Monkeys",
        "event_total": 53,
        "has_played": true,
        "id": 34576478,
        "last_rank": 32751,
        "player_name": "Richard Stoker",
        "rank": 37444,
        "rank_sort": 37624,
        "total": 2361
      },
      {
        "club_badge_src": "https://fantasy.premierleague.com/gcs/plfpl-production-adobe-approved/plfpl-production/4750545/cb79437d-384b-4887-9438-5d6cf6109e31.png",
        "entry": 4750545,
        "entry_name": "Knickergy\u00f6ker Glory",
        "event_total": 56,
        "has_played": true,
        "id": 36555324,
        "last_rank": 36348,
        "player_name": "Daniel Bevan",
        "rank": 37444,
        "rank_sort": 37625,
        "total": 2361
      },
      {
        "club_badge_src": "https://fantasy.premierleague.com/gcs/plfpl-production-adobe-approved/plfpl-production/4764826/84364487-2746-40e4-8b31-ef8e10f478ad.png",
        "entry": 4764826,
        "entry_name": "gooners",
        "event_total": 55,
        "has_played": true,
        "id": 36671232,
        "last_rank": 35166,
        "player_name": "Marko Juri\u0161i\u0107",
        "rank": 37444,
        "rank_sort": 37626,
        "total": 2361
      },
      {
        "club_badge_src": "https://fantasy.premierleague.com/gcs/plfpl-production-adobe-approved/plfpl-production/4901591/961cb360-f1c5-4756-8376-010c512bcddd.png",
        "entry": 4901591,
        "entry_name": "Daredevil FC",
        "event_total": 57,
        "has_played": true,
        "id": 37797478,
        "last_rank": 37589,
        "player_name": "Karthik Singaravel",
        "rank": 37444,
        "rank_sort": 37627,
        "total": 2361
      },
      {
        "club_badge_src": null,
        "entry": 4948001,
        "entry_name": "Mandra Fc",
        "event_total": 29,
        "has_played": true,
        "id": 38179039,
        "last_rank": 13821,
        "player_name": "Vedat Tezcan",
        "rank": 37444,
        "rank_sort": 37628,
        "total": 2361
      },
      {
        "club_badge_src": "https://fantasy.premierleague.com/gcs/plfpl-production-adobe-approved/plfpl-production/4997791/72175905-87da-400a-8f09-cb998bb89ca1.png",
        "entry": 4997791,
        "entry_name": "Sobe Inquipa!",
        "event_total": 60,
        "has_played": true,
        "id": 38590387,
        "last_rank": 41324,
        "player_name": "Andre Martins",
        "rank": 37444,
        "rank_sort": 37629,
        "total": 2361
      },
      {
        "club_badge_src": null,
        "entry": 5000795,
        "entry_name": "The Boom is Back",
        "event_total": 69,
        "has_played": true,
        "id": 38614092,
        "last_rank": 54667,
        "player_name": "Jim Dillon",
        "rank": 37444,
        "rank_sort": 37630,
        "total": 2361
      },
      {
        "club_badge_src": null,
        "entry": 5083231,
        "entry_name": "Change Name",
        "event_total": 62,
        "has_played": true,
        "id": 39287248,
        "last_rank": 44048,
        "player_name": "George Taylor",
        "rank": 37444,
        "rank_sort": 37631,
        "total": 2361
      },
      {
        "club_badge_src": null,
        "entry": 5245388,
        "entry_name": "wissa?Ihardlyknowher",
        "event_total": 51,
        "has_played": true,
        "id": 40651464,
        "last_rank": 30727,
        "player_name": "Nick Brown",
        "rank": 37444,
        "rank_sort": 37632,
        "total": 2361
      },
      {
        "club_badge_src": null,
        "entry": 5266965,
        "entry_name": "Gunn1s FC",
        "event_total": 63,
        "has_played": true,
        "id": 40822371,
        "last_rank": 45416,
        "player_name": "Gunvor G",
        "rank": 37444,
        "rank_sort": 37633,
        "total": 2361
      },
      {
        "club_badge_src": null,
        "entry": 5289814,
        "entry_name": "He Drinks Moretti",
        "event_total": 62,
        "has_played": true,
        "id": 41003129,
        "last_rank": 44048,
        "player_name": "David Renney",
        "rank": 37444,
        "rank_sort": 37634,
        "total": 2361
      },
      {
        "club_badge_src": null,
        "entry": 5289862,
        "entry_name": "Ager's Animals",
        "event_total": 58,
        "has_played": true,
        "id": 41003521,
        "last_rank": 38774,
        "player_name": "James Ager",
        "rank": 37444,
        "rank_sort": 37635,
        "total": 2361
      },
      {
        "club_badge_src": null,
        "entry": 5296130,
        "entry_name": "Zubi-Dubi-Doo",
        "event_total": 64,
        "has_played": true,
        "id": 41052663,
        "last_rank": 46839,
        "player_name": "Javed Ali",
        "rank": 37444,
        "rank_sort": 37636,
        "total": 2361
      },
      {
        "club_badge_src": null,
        "entry": 5366444,
        "entry_name": "\u0647\u0646\u0627 \u0639\u0645\u0643",
        "event_total": 68,
        "has_played": true,
        "id": 41690393,
        "last_rank": 53023,
        "player_name": "Mohamed Elenany",
        "rank": 37444,
        "rank_sort": 37637,
        "total": 2361
      },
      {
        "club_badge_src": null,
        "entry": 5432565,
        "entry_name": "Ha-Cunha Matata",
        "event_total": 50,
        "has_played": true,
        "id": 42258318,
        "last_rank": 29578,
        "player_name": "Imran Gulam",
        "rank": 37444,
        "rank_sort": 37638,
        "total": 2361
      },
      {
        "club_badge_src": null,
        "entry": 5565458,
        "entry_name": "Kom Nu Bus",
        "event_total": 56,
        "has_played": true,
        "id": 43453896,
        "last_rank": 36348,
        "player_name": "Kalle Dissing S\u00f8nderm\u00f8lle",
        "rank": 37444,
        "rank_sort": 37639,
        "total": 2361
      },
      {
        "club_badge_src": null,
        "entry": 5618630,
        "entry_name": "Hamer Time",
        "event_total": 56,
        "has_played": true,
        "id": 43918925,
        "last_rank": 36348,
        "player_name": "William Gibbs",
        "rank": 37444,
        "rank_sort": 37640,
        "total": 2361
      },
      {
        "club_badge_src": null,
        "entry": 5672230,
        "entry_name": "McGinn\u2019n\u2019Tonic",
        "event_total": 46,
        "has_played": true,
        "id": 44388136,
        "last_rank": 25776,
        "player_name": "Hannah Sankar",
        "rank": 37444,
        "rank_sort": 37641,
        "total": 2361
      },
      {
        "club_badge_src": null,
        "entry": 5699424,
        "entry_name": "Ugarte be kidding",
        "event_total": 47,
        "has_played": true,
        "id": 44622848,
        "last_rank": 26827,
        "player_name": "Matthew Devney",
        "rank": 37444,
        "rank_sort": 37642,
        "total": 2361
      },
      {
        "club_badge_src": null,
        "entry": 5746194,
        "entry_name": "MS",
        "event_total": 52,
        "has_played": true,
        "id": 45033856,
        "last_rank": 31620,
        "player_name": "mohamed samir",
        "rank": 37444,
        "rank_sort": 37643,
        "total": 2361
      },
      {
        "club_badge_src": null,
        "entry": 5797908,
        "entry_name": "We were top in Feb",
        "event_total": 54,
        "has_played": true,
        "id": 45480498,
        "last_rank": 34051,
        "player_name": "Roger Shirley",
        "rank": 37444,
        "rank_sort": 37644,
        "total": 2361
      },
      {
        "club_badge_src": null,
        "entry": 5923347,
        "entry_name": "inpastor",
        "event_total": 53,
        "has_played": true,
        "id": 46559417,
        "last_rank": 32688,
        "player_name": "Aksel Tamlak",
        "rank": 37444,
        "rank_sort": 37645,
        "total": 2361
      },
      {
        "club_badge_src": null,
        "entry": 5979845,
        "entry_name": "Unreal Madrid",
        "event_total": 59,
        "has_played": true,
        "id": 47083234,
        "last_rank": 40036,
        "player_name": "Mil\u00e1n Harangoz\u00f3",
        "rank": 37444,
        "rank_sort": 37646,
        "total": 2361
      },
      {
        "club_badge_src": null,
        "entry": 6104113,
        "entry_name": "Pete FC",
        "event_total": 41,
        "has_played": true,
        "id": 48212278,
        "last_rank": 21677,
        "player_name": "Peter Hardy",
        "rank": 37444,
        "rank_sort": 37647,
        "total": 2361
      },
      {
        "club_badge_src": null,
        "entry": 6269708,
        "entry_name": "CheeseTouch",
        "event_total": 59,
        "has_played": true,
        "id": 49646332,
        "last_rank": 40297,
        "player_name": "Emma Azencoth",
        "rank": 37444,
        "rank_sort": 37648,
        "total": 2361
      },
      {
        "club_badge_src": null,
        "entry": 6272914,
        "entry_name": "Haaland'Or",
        "event_total": 61,
        "has_played": true,
        "id": 49673103,
        "last_rank": 42434,
        "player_name": "Mayank G",
        "rank": 37444,
        "rank_sort": 37649,
        "total": 2361
      },
      {
        "club_badge_src": null,
        "entry": 6276620,
        "entry_name": "Zo0uma K1cks G1ttens",
        "event_total": 65,
        "has_played": true,
        "id": 49705015,
        "last_rank": 48197,
        "player_name": "Ola James",
        "rank": 37444,
        "rank_sort": 37650,
        "total": 2361
      }
    ]
  }
}