{
  "last_updated_data": "2026-05-24T23:28:17Z",
  "league": {
    "admin_entry": null,
    "closed": false,
    "code_privacy": "p",
    "created": "2025-07-20T23:14:33.933835Z",
    "cup_league": 2815434,
    "has_cup": true,
    "id": 314,
    "league_type": "s",
    "max_entries": null,
    "name": "Overall",
    "rank": null,
    "scoring": "c",
    "start_event": 1
  },
  "new_entries": {
    "has_next": false,
    "page": 1,
    "results": []
  },
  "standings": {
    "has_next": true,
    "page": 1640,
    "results": [
      {
        "club_badge_src": null,
        "entry": 6013589,
        "entry_name": "Arigato Daizen",
        "event_total": 71,
        "has_played": true,
        "id": 47418565,
        "last_rank": 120438,
        "player_name": "Brian Diver",
        "rank": 81843,
        "rank_sort": 81951,
        "total": 2334
      },
      {
        "club_badge_src": null,
        "entry": 6018099,
        "entry_name": "Showbiz Al Allstars",
        "event_total": 47,
        "has_played": true,
        "id": 47459491,
        "last_rank": 63201,
        "player_name": "Alex Holt",
        "rank": 81843,
        "rank_sort": 81952,
        "total": 2334
      },
      {
        "club_badge_src": "https://fantasy.premierleague.com/gcs/plfpl-production-adobe-approved/plfpl-production/6027001/0d015b9c-a726-4a56-9f0e-20b07daf050a.png",
        "entry": 6027001,
        "entry_name": "Buba Fc",
        "event_total": 61,
        "has_played": true,
        "id": 47539052,
        "last_rank": 93443,
        "player_name": "Hashimu Buba",
        "rank": 81843,
        "rank_sort": 81953,
        "total": 2334
      },
      {
        "club_badge_src": null,
        "entry": 6057799,
        "entry_name": "A Cunha Mentato",
        "event_total": 37,
        "has_played": true,
        "id": 47806716,
        "last_rank": 46660,
        "player_name": "Yarden Maimon",
        "rank": 81843,
        "rank_sort": 81954,
        "total": 2334
      },
      {
        "club_badge_src": null,
        "entry": 6122062,
        "entry_name": "patel fc",
        "event_total": 49,
        "has_played": true,
        "id": 48368088,
        "last_rank": 67063,
        "player_name": "Om Patel",
        "rank": 81843,
        "rank_sort": 81955,
        "total": 2334
      },
      {
        "club_badge_src": null,
        "entry": 6194437,
        "entry_name": "F . B",
        "event_total": 65,
        "has_played": true,
        "id": 48997327,
        "last_rank": 103254,
        "player_name": "Fatemah Albawardi",
        "rank": 81843,
        "rank_sort": 81956,
        "total": 2334
      },
      {
        "club_badge_src": null,
        "entry": 6227305,
        "entry_name": "Team Holmquist",
        "event_total": 37,
        "has_played": true,
        "id": 49278863,
        "last_rank": 46839,
        "player_name": "Stian Holmquist",
        "rank": 81843,
        "rank_sort": 81957,
        "total": 2334
      },
      {
        "club_badge_src": null,
        "entry": 6535206,
        "entry_name": "Rakett",
        "event_total": 51,
        "has_played": true,
        "id": 52135230,
        "last_rank": 70985,
        "player_name": "Steff Brouwers",
        "rank": 81843,
        "rank_sort": 81958,
        "total": 2334
      },
      {
        "club_badge_src": null,
        "entry": 6624427,
        "entry_name": "naif ib",
        "event_total": 56,
        "has_played": true,
        "id": 52938175,
        "last_rank": 81646,
        "player_name": "naif almohaimeed",
        "rank": 81843,
        "rank_sort": 81959,
        "total": 2334
      },
      {
        "club_badge_src": null,
        "entry": 6652684,
        "entry_name": "Hakuna Mateta",
        "event_total": 46,
        "has_played": true,
        "id": 53186825,
        "last_rank": 61606,
        "player_name": "Patryk Mika",
        "rank": 81843,
        "rank_sort": 81960,
        "total": 2334
      },
      {
        "club_badge_src": null,
        "entry": 6711484,
        "entry_name": "j",
        "event_total": 70,
        "has_played": true,
        "id": 53710136,
        "last_rank": 116953,
        "player_name": "Jon Neale",
        "rank": 81843,
        "rank_sort": 81961,
        "total": 2334
      },
      {
        "club_badge_src": null,
        "entry": 6841294,
        "entry_name": "Team Name",
        "event_total": 55,
        "has_played": true,
        "id": 54804571,
        "last_rank": 79190,
        "player_name": "Paul Cox",
        "rank": 81843,
        "rank_sort": 81962,
        "total": 2334
      },
      {
        "club_badge_src": null,
        "entry": 6944328,
        "entry_name": "Mikhail Tal",
        "event_total": 53,
        "has_played": true,
        "id": 55677984,
        "last_rank": 74898,
        "player_name": "AHMAD MUIZZUDDIN",
        "rank": 81843,
        "rank_sort": 81963,
        "total": 2334
      },
      {
        "club_badge_src": null,
        "entry": 7073917,
        "entry_name": "Cikijevi raspadi",
        "event_total": 63,
        "has_played": true,
        "id": 56926351,
        "last_rank": 98183,
        "player_name": "Milos Ciric",
        "rank": 81843,
        "rank_sort": 81964,
        "total": 2334
      },
      {
        "club_badge_src": null,
        "entry": 7080980,
        "entry_name": "Los Pollos Hermanos!",
        "event_total": 50,
        "has_played": true,
        "id": 56995061,
        "last_rank": 68748,
        "player_name": "Lee Wilson",
        "rank": 81843,
        "rank_sort": 81965,
        "total": 2334
      },
      {
        "club_badge_src": "https://fantasy.premierleague.com/gcs/plfpl-production-adobe-approved/plfpl-production/7163871/420a51f4-8fa3-4760-9808-4d64bbd06005.png",
        "entry": 7163871,
        "entry_name": "Red Devils",
        "event_total": 45,
        "has_played": true,
        "id": 57793480,
        "last_rank": 59813,
        "player_name": "Mustafa Abdulhadi",
        "rank": 81843,
        "rank_sort": 81966,
        "total": 2334
      },
      {
        "club_badge_src": null,
        "entry": 7178405,
        "entry_name": "GrinToWin",
        "event_total": 51,
        "has_played": true,
        "id": 57931395,
        "last_rank": 70757,
        "player_name": "Mark nash",
        "rank": 81843,
        "rank_sort": 81967,
        "total": 2334
      },
      {
        "club_badge_src": null,
        "entry": 7396843,
        "entry_name": "LOT PRESSURE",
        "event_total": 47,
        "has_played": true,
        "id": 59985137,
        "last_rank": 63201,
        "player_name": "Harry Mulyadi",
        "rank": 81843,
        "rank_sort": 81968,
        "total": 2334
      },
      {
        "club_badge_src": null,
        "entry": 7424476,
        "entry_name": "DU Dazzlers",
        "event_total": 72,
        "has_played": true,
        "id": 60297243,
        "last_rank": 122897,
        "player_name": "Naim Parvez",
        "rank": 81843,
        "rank_sort": 81969,
        "total": 2334
      },
      {
        "club_badge_src": null,
        "entry": 7437100,
        "entry_name": "AAAAAAAAA",
        "event_total": 76,
        "has_played": true,
        "id": 60464374,
        "last_rank": 135577,
        "player_name": "AAAAA AA",
        "rank": 81843,
        "rank_sort": 81970,
        "total": 2334
      },
      {
        "club_badge_src": null,
        "entry": 7492223,
        "entry_name": "ZSC",
        "event_total": 67,
        "has_played": true,
        "id": 61181706,
        "last_rank": 108496,
        "player_name": "Ibrahim Wael",
        "rank": 81843,
        "rank_sort": 81971,
        "total": 2334
      },
      {
        "club_badge_src": null,
        "entry": 7548144,
        "entry_name": "Brooks Fizz Bro",
        "event_total": 57,
        "has_played": true,
        "id": 61795546,
        "last_rank": 83698,
        "player_name": "Stu Little",
        "rank": 81843,
        "rank_sort": 81972,
        "total": 2334
      },
      {
        "club_badge_src": null,
        "entry": 7582860,
        "entry_name": "Marcello Lippii",
        "event_total": 59,
        "has_played": true,
        "id": 62109086,
        "last_rank": 79079,
        "player_name": "Abdulrahman Bader",
        "rank": 81843,
        "rank_sort": 81973,
        "total": 2334
      },
      {
        "club_badge_src": null,
        "entry": 7609689,
        "entry_name": "Rimshot City",
        "event_total": 64,
        "has_played": true,
        "id": 62351804,
        "last_rank": 100949,
        "player_name": "Clarke Readey",
        "rank": 81843,
        "rank_sort": 81974,
        "total": 2334
      },
      {
        "club_badge_src": null,
        "entry": 8054449,
        "entry_name": "Change Name",
        "event_total": 51,
        "has_played": true,
        "id": 66377707,
        "last_rank": 70757,
        "player_name": "Corey Bedford",
        "rank": 81843,
        "rank_sort": 81975,
        "total": 2334
      },
      {
        "club_badge_src": null,
        "entry": 8208045,
        "entry_name": "Who ate all theMezze",
        "event_total": 50,
        "has_played": true,
        "id": 67816752,
        "last_rank": 68748,
        "player_name": "Nick Waller",
        "rank": 81843,
        "rank_sort": 81976,
        "total": 2334
      },
      {
        "club_badge_src": null,
        "entry": 8253101,
        "entry_name": "Essugondese balls",
        "event_total": 49,
        "has_played": true,
        "id": 68253506,
        "last_rank": 66738,
        "player_name": "Tom Winchester",
        "rank": 81843,
        "rank_sort": 81977,
        "total": 2334
      },
      {
        "club_badge_src": null,
        "entry": 8539522,
        "entry_name": "Genatal Wirtz",
        "event_total": 86,
        "has_played": true,
        "id": 71017749,
        "last_rank": 170570,
        "player_name": "Jake Ward",
        "rank": 81843,
        "rank_sort": 81978,
        "total": 2334
      },
      {
        "club_badge_src": null,
        "entry": 8806277,
        "entry_name": "Mordor FC",
        "event_total": 53,
        "has_played": true,
        "id": 73605409,
        "last_rank": 74898,
        "player_name": "Thomas Iben Holthe",
        "rank": 81843,
        "rank_sort": 81979,
        "total": 2334
      },
      {
        "club_badge_src": null,
        "entry": 9148027,
        "entry_name": "gabritsotos fc",
        "event_total": 60,
        "has_played": true,
        "id": 76921249,
        "last_rank": 90565,
        "player_name": "Abdelrahman Gabry",
        "rank": 81843,
        "rank_sort": 81980,
        "total": 2334
      },
      {
        "club_badge_src": null,
        "entry": 9428610,
        "entry_name": "OM Shaan-ti OM",
        "event_total": 55,
        "has_played": true,
        "id": 79647383,
        "last_rank": 79190,
        "player_name": "Shaan Gogna",
        "rank": 81843,
        "rank_sort": 81981,
        "total": 2334
      },
      {
        "club_badge_src": null,
        "entry": 9439134,
        "entry_name": "L",
        "event_total": 53,
        "has_played": true,
        "id": 79746877,
        "last_rank": 74898,
        "player_name": "Christofer Kaasik",
        "rank": 81843,
        "rank_sort": 81982,
        "total": 2334
      },
      {
        "club_badge_src": "https://fantasy.premierleague.com/gcs/plfpl-production-adobe-approved/plfpl-production/10252122/1cad859c-fcd0-4213-919a-37edce6f5b58.png",
        "entry": 10252122,
        "entry_name": "Warriors XI",
        "event_total": 60,
        "has_played": true,
        "id": 86831347,
        "last_rank": 90746,
        "player_name": "LJay David Manyeza",
        "rank": 81843,
        "rank_sort": 81983,
        "total": 2334
      },
      {
        "club_badge_src": "https://fantasy.premierleague.com/gcs/plfpl-production-adobe-approved/plfpl-production/766/1faa632c-136f-4702-a27a-53271eb03b93.png",
        "entry": 766,
        "entry_name": "Hakuna Mo Salah",
        "event_total": 46,
        "has_played": true,
        "id": 4234,
        "last_rank": 61606,
        "player_name": "FPL Henners",
        "rank": 81984,
        "rank_sort": 81984,
        "total": 2334
      },
      {
        "club_badge_src": null,
        "entry": 6654,
        "entry_name": "HaCunhaMateta",
        "event_total": 69,
        "has_played": true,
        "id": 38230,
        "last_rank": 114095,
        "player_name": "Joel Tartaglia",
        "rank": 81984,
        "rank_sort": 81985,
        "total": 2334
      },
      {
        "club_badge_src": null,
        "entry": 9953,
        "entry_name": "Reece's Set Pieces",
        "event_total": 68,
        "has_played": true,
        "id": 58718,
        "last_rank": 111405,
        "player_name": "Grant Murray",
        "rank": 81984,
        "rank_sort": 81986,
        "total": 2334
      },
      {
        "club_badge_src": null,
        "entry": 12476,
        "entry_name": "Return of the Djedi",
        "event_total": 65,
        "has_played": true,
        "id": 74709,
        "last_rank": 103130,
        "player_name": "Callum Thirley",
        "rank": 81984,
        "rank_sort": 81987,
        "total": 2334
      },
      {
        "club_badge_src": "https://fantasy.premierleague.com/gcs/plfpl-production-adobe-approved/plfpl-production/13529/703ad85f-5cf1-4686-b52f-63bc980909f4.png",
        "entry": 13529,
        "entry_name": "NAJJA\u010cI TIM",
        "event_total": 70,
        "has_played": true,
        "id": 81799,
        "last_rank": 117112,
        "player_name": "Don Nejc",
        "rank": 81984,
        "rank_sort": 81988,
        "total": 2334
      },
      {
        "club_badge_src": null,
        "entry": 15904,
        "entry_name": "Suplex City",
        "event_total": 67,
        "has_played": true,
        "id": 97957,
        "last_rank": 108689,
        "player_name": "Marco Ribeiro",
        "rank": 81984,
        "rank_sort": 81989,
        "total": 2334
      },
      {
        "club_badge_src": null,
        "entry": 17328,
        "entry_name": "Onyx",
        "event_total": 64,
        "has_played": true,
        "id": 107476,
        "last_rank": 100949,
        "player_name": "Hossein Afsar",
        "rank": 81984,
        "rank_sort": 81990,
        "total": 2334
      },
      {
        "club_badge_src": null,
        "entry": 18055,
        "entry_name": "Wern Ham United",
        "event_total": 67,
        "has_played": true,
        "id": 112218,
        "last_rank": 108567,
        "player_name": "Martin Werner",
        "rank": 81984,
        "rank_sort": 81991,
        "total": 2334
      },
      {
        "club_badge_src": null,
        "entry": 19381,
        "entry_name": "sandland IL",
        "event_total": 64,
        "has_played": true,
        "id": 120588,
        "last_rank": 100700,
        "player_name": "Thomas Bj\u00f8rgve",
        "rank": 81984,
        "rank_sort": 81992,
        "total": 2334
      },
      {
        "club_badge_src": null,
        "entry": 20343,
        "entry_name": "Slot Machine",
        "event_total": 40,
        "has_played": true,
        "id": 126772,
        "last_rank": 51403,
        "player_name": "Jonathan Jones",
        "rank": 81984,
        "rank_sort": 81993,
        "total": 2334
      },
      {
        "club_badge_src": null,
        "entry": 21001,
        "entry_name": "Gyok Lesner",
        "event_total": 43,
        "has_played": true,
        "id": 131536,
        "last_rank": 56099,
        "player_name": "Max Egan",
        "rank": 81984,
        "rank_sort": 81994,
        "total": 2334
      },
      {
        "club_badge_src": null,
        "entry": 21404,
        "entry_name": "Lord of the Mings",
        "event_total": 66,
        "has_played": true,
        "id": 134191,
        "last_rank": 105818,
        "player_name": "Matthaeus .",
        "rank": 81984,
        "rank_sort": 81995,
        "total": 2334
      },
      {
        "club_badge_src": null,
        "entry": 23040,
        "entry_name": "Mickey Mouse Scouse",
        "event_total": 65,
        "has_played": true,
        "id": 144942,
        "last_rank": 103526,
        "player_name": "Mikolaj Stawicki",
        "rank": 81984,
        "rank_sort": 81996,
        "total": 2334
      },
      {
        "club_badge_src": null,
        "entry": 27478,
        "entry_name": "red dogs",
        "event_total": 70,
        "has_played": true,
        "id": 173710,
        "last_rank": 117112,
        "player_name": "Andy Graham",
        "rank": 81984,
        "rank_sort": 81997,
        "total": 2334
      },
      {
        "club_badge_src": null,
        "entry": 29856,
        "entry_name": "FC Manole Buze Reci",
        "event_total": 54,
        "has_played": true,
        "id": 188869,
        "last_rank": 77050,
        "player_name": "Bogdan Lorencz",
        "rank": 81984,
        "rank_sort": 81998,
        "total": 2334
      },
      {
        "club_badge_src": null,
        "entry": 36243,
        "entry_name": "pimpstein",
        "event_total": 56,
        "has_played": true,
        "id": 231969,
        "last_rank": 81420,
        "player_name": "Torstein Sandve",
        "rank": 81984,
        "rank_sort": 81999,
        "total": 2334
      },
      {
        "club_badge_src": null,
        "entry": 44199,
        "entry_name": "It Doesn't Mata",
        "event_total": 63,
        "has_played": true,
        "id": 283233,
        "last_rank": 98183,
        "player_name": "Frik Kadel",
        "rank": 81984,
        "rank_sort": 82000,
        "total": 2334
      }
    ]
  }
}