{
  "last_updated_data": "2026-05-24T23:28:17Z",
  "league": {
    "admin_entry": null,
    "closed": false,
    "code_privacy": "p",
    "created": "2025-07-20T23:14:33.933835Z",
    "cup_league": 2815434,
    "has_cup": true,
    "id": 314,
    "league_type": "s",
    "max_entries": null,
    "name": "Overall",
    "rank": null,
    "scoring": "c",
    "start_event": 1
  },
  "new_entries": {
    "has_next": false,
    "page": 1,
    "results": []
  },
  "standings": {
    "has_next": true,
    "page": 603,
    "results": [
      {
        "club_badge_src": null,
        "entry": 174731,
        "entry_name": "My Team",
        "event_total": 63,
        "has_played": true,
        "id": 1153738,
        "last_rank": 36348,
        "player_name": "Paul Smith",
        "rank": 30061,
        "rank_sort": 30101,
        "total": 2368
      },
      {
        "club_badge_src": "https://fantasy.premierleague.com/gcs/plfpl-production-adobe-approved/plfpl-production/175001/ce42d0fd-c864-4c26-bac1-9bd71382169f.png",
        "entry": 175001,
        "entry_name": "Xeneizes",
        "event_total": 60,
        "has_played": true,
        "id": 1155484,
        "last_rank": 33147,
        "player_name": "Enrique Lamarque",
        "rank": 30061,
        "rank_sort": 30102,
        "total": 2368
      },
      {
        "club_badge_src": null,
        "entry": 190040,
        "entry_name": "muchachos",
        "event_total": 69,
        "has_played": true,
        "id": 1258209,
        "last_rank": 44303,
        "player_name": "Alek Festekjian",
        "rank": 30061,
        "rank_sort": 30103,
        "total": 2368
      },
      {
        "club_badge_src": "https://fantasy.premierleague.com/gcs/plfpl-production-adobe-approved/plfpl-production/206415/070ca7e5-669e-4acc-aeae-0330d7fe85f1.png",
        "entry": 206415,
        "entry_name": "Sch\u00f6n in 60 seconds",
        "event_total": 72,
        "has_played": true,
        "id": 1371936,
        "last_rank": 48642,
        "player_name": "Lucy Fisher",
        "rank": 30061,
        "rank_sort": 30104,
        "total": 2368
      },
      {
        "club_badge_src": null,
        "entry": 206448,
        "entry_name": "BRAHAM ISSAM",
        "event_total": 66,
        "has_played": true,
        "id": 1372143,
        "last_rank": 35166,
        "player_name": "Braham Issam",
        "rank": 30061,
        "rank_sort": 30105,
        "total": 2368
      },
      {
        "club_badge_src": "https://fantasy.premierleague.com/gcs/plfpl-production-adobe-approved/plfpl-production/212731/fe41effd-9cd2-4e46-b7e7-4ac64a375bf8.png",
        "entry": 212731,
        "entry_name": "Moscow Mules",
        "event_total": 56,
        "has_played": true,
        "id": 1415158,
        "last_rank": 28906,
        "player_name": "Richard Taylor",
        "rank": 30061,
        "rank_sort": 30106,
        "total": 2368
      },
      {
        "club_badge_src": null,
        "entry": 273714,
        "entry_name": "Rock n Roll Sarr",
        "event_total": 80,
        "has_played": true,
        "id": 1821318,
        "last_rank": 61315,
        "player_name": "Lewis David",
        "rank": 30061,
        "rank_sort": 30107,
        "total": 2368
      },
      {
        "club_badge_src": null,
        "entry": 304299,
        "entry_name": "Heisenbergers",
        "event_total": 52,
        "has_played": true,
        "id": 2037321,
        "last_rank": 25002,
        "player_name": "Bert Smith",
        "rank": 30061,
        "rank_sort": 30108,
        "total": 2368
      },
      {
        "club_badge_src": null,
        "entry": 313998,
        "entry_name": "Cunha Believe It",
        "event_total": 68,
        "has_played": true,
        "id": 2104048,
        "last_rank": 37435,
        "player_name": "Kevin Wang",
        "rank": 30061,
        "rank_sort": 30109,
        "total": 2368
      },
      {
        "club_badge_src": null,
        "entry": 361056,
        "entry_name": "Dandridge XI",
        "event_total": 53,
        "has_played": true,
        "id": 2415912,
        "last_rank": 26230,
        "player_name": "Simon Dandridge",
        "rank": 30061,
        "rank_sort": 30110,
        "total": 2368
      },
      {
        "club_badge_src": null,
        "entry": 363257,
        "entry_name": "Los Champions",
        "event_total": 68,
        "has_played": true,
        "id": 2430808,
        "last_rank": 42648,
        "player_name": "d tp",
        "rank": 30061,
        "rank_sort": 30111,
        "total": 2368
      },
      {
        "club_badge_src": null,
        "entry": 370853,
        "entry_name": "H@-Devils",
        "event_total": 76,
        "has_played": true,
        "id": 2481585,
        "last_rank": 48363,
        "player_name": "Hamed Khatab",
        "rank": 30061,
        "rank_sort": 30112,
        "total": 2368
      },
      {
        "club_badge_src": null,
        "entry": 374844,
        "entry_name": "maradariolaa",
        "event_total": 69,
        "has_played": true,
        "id": 2509145,
        "last_rank": 44303,
        "player_name": "Dario Mari\u0107",
        "rank": 30061,
        "rank_sort": 30113,
        "total": 2368
      },
      {
        "club_badge_src": null,
        "entry": 395602,
        "entry_name": "Left 4 Djed",
        "event_total": 63,
        "has_played": true,
        "id": 2652994,
        "last_rank": 36348,
        "player_name": "Ben Ardiles",
        "rank": 30061,
        "rank_sort": 30114,
        "total": 2368
      },
      {
        "club_badge_src": "https://fantasy.premierleague.com/gcs/plfpl-production-adobe-approved/plfpl-production/406511/97ca223e-fa54-4526-9258-084cb9f5d095.png",
        "entry": 406511,
        "entry_name": "\u0e19\u0e49\u0e2d\u0e07\u0e2b\u0e19\u0e32\u0e27",
        "event_total": 64,
        "has_played": true,
        "id": 2725657,
        "last_rank": 37589,
        "player_name": "Peter Shake",
        "rank": 30061,
        "rank_sort": 30115,
        "total": 2368
      },
      {
        "club_badge_src": null,
        "entry": 447282,
        "entry_name": "Comme ci comme Salah",
        "event_total": 56,
        "has_played": true,
        "id": 3000267,
        "last_rank": 28906,
        "player_name": "Leon Mather",
        "rank": 30061,
        "rank_sort": 30116,
        "total": 2368
      },
      {
        "club_badge_src": null,
        "entry": 454149,
        "entry_name": "Big Dunc &Disorderly",
        "event_total": 55,
        "has_played": true,
        "id": 3046609,
        "last_rank": 27976,
        "player_name": "Ryan Morris",
        "rank": 30061,
        "rank_sort": 30117,
        "total": 2368
      },
      {
        "club_badge_src": null,
        "entry": 454449,
        "entry_name": "Ha Cunha Matatatata",
        "event_total": 65,
        "has_played": true,
        "id": 3048671,
        "last_rank": 34051,
        "player_name": "Magnus Haltorp Gundersen",
        "rank": 30061,
        "rank_sort": 30118,
        "total": 2368
      },
      {
        "club_badge_src": null,
        "entry": 521983,
        "entry_name": "Hale End Boys",
        "event_total": 54,
        "has_played": true,
        "id": 3505673,
        "last_rank": 27020,
        "player_name": "Jeremy Barker",
        "rank": 30061,
        "rank_sort": 30119,
        "total": 2368
      },
      {
        "club_badge_src": null,
        "entry": 524483,
        "entry_name": "Abate Borisov",
        "event_total": 67,
        "has_played": true,
        "id": 3523812,
        "last_rank": 41324,
        "player_name": "Kritin Motamarri",
        "rank": 30061,
        "rank_sort": 30120,
        "total": 2368
      },
      {
        "club_badge_src": null,
        "entry": 564320,
        "entry_name": "Jays Fc",
        "event_total": 67,
        "has_played": true,
        "id": 3798457,
        "last_rank": 41617,
        "player_name": "Jay Butler",
        "rank": 30061,
        "rank_sort": 30121,
        "total": 2368
      },
      {
        "club_badge_src": null,
        "entry": 591776,
        "entry_name": "Kinder Mbuemo",
        "event_total": 61,
        "has_played": true,
        "id": 3987156,
        "last_rank": 34051,
        "player_name": "Steven Bush",
        "rank": 30061,
        "rank_sort": 30122,
        "total": 2368
      },
      {
        "club_badge_src": null,
        "entry": 603226,
        "entry_name": "Howay the Lads",
        "event_total": 67,
        "has_played": true,
        "id": 4071467,
        "last_rank": 41824,
        "player_name": "Marko Koumoulas",
        "rank": 30061,
        "rank_sort": 30123,
        "total": 2368
      },
      {
        "club_badge_src": null,
        "entry": 671337,
        "entry_name": "Tel Me When To Go",
        "event_total": 62,
        "has_played": true,
        "id": 4540802,
        "last_rank": 30727,
        "player_name": "Danny Thompson",
        "rank": 30061,
        "rank_sort": 30124,
        "total": 2368
      },
      {
        "club_badge_src": null,
        "entry": 688030,
        "entry_name": "Pasta Ball Guido",
        "event_total": 48,
        "has_played": true,
        "id": 4658038,
        "last_rank": 21949,
        "player_name": "Jon McGinley",
        "rank": 30061,
        "rank_sort": 30125,
        "total": 2368
      },
      {
        "club_badge_src": null,
        "entry": 688136,
        "entry_name": "FirstTheWirtz",
        "event_total": 68,
        "has_played": true,
        "id": 4658787,
        "last_rank": 42648,
        "player_name": "Jack Brodin",
        "rank": 30061,
        "rank_sort": 30126,
        "total": 2368
      },
      {
        "club_badge_src": "https://fantasy.premierleague.com/gcs/plfpl-production-adobe-approved/plfpl-production/698871/4d1ccd39-4d4c-4ccf-bf6c-2811a309eea4.png",
        "entry": 698871,
        "entry_name": "PeboGuns**",
        "event_total": 40,
        "has_played": true,
        "id": 4734343,
        "last_rank": 16320,
        "player_name": "Peder Boberg",
        "rank": 30061,
        "rank_sort": 30127,
        "total": 2368
      },
      {
        "club_badge_src": null,
        "entry": 779828,
        "entry_name": "Legendary F.C.",
        "event_total": 52,
        "has_played": true,
        "id": 5323879,
        "last_rank": 25172,
        "player_name": "Ebby Edmond",
        "rank": 30061,
        "rank_sort": 30128,
        "total": 2368
      },
      {
        "club_badge_src": "https://fantasy.premierleague.com/gcs/plfpl-production-adobe-approved/plfpl-production/820846/b0bb6f0e-fa75-4ebf-b909-df399315bb0a.png",
        "entry": 820846,
        "entry_name": "Zeus'R'us",
        "event_total": 52,
        "has_played": true,
        "id": 5621717,
        "last_rank": 21775,
        "player_name": "Bruce Jones",
        "rank": 30061,
        "rank_sort": 30129,
        "total": 2368
      },
      {
        "club_badge_src": null,
        "entry": 921508,
        "entry_name": "Saka manager",
        "event_total": 63,
        "has_played": true,
        "id": 6337516,
        "last_rank": 31747,
        "player_name": "Will Battershill",
        "rank": 30061,
        "rank_sort": 30130,
        "total": 2368
      },
      {
        "club_badge_src": null,
        "entry": 945408,
        "entry_name": "vinderholdet",
        "event_total": 69,
        "has_played": true,
        "id": 6511682,
        "last_rank": 38571,
        "player_name": "Jonas Sederberg",
        "rank": 30061,
        "rank_sort": 30131,
        "total": 2368
      },
      {
        "club_badge_src": null,
        "entry": 949537,
        "entry_name": "lexa1067",
        "event_total": 55,
        "has_played": true,
        "id": 6541362,
        "last_rank": 27976,
        "player_name": "Aliaksei Sakau",
        "rank": 30061,
        "rank_sort": 30132,
        "total": 2368
      },
      {
        "club_badge_src": null,
        "entry": 950276,
        "entry_name": "Mainoo cant be moved",
        "event_total": 51,
        "has_played": true,
        "id": 6546707,
        "last_rank": 24330,
        "player_name": "Joseph Couling",
        "rank": 30061,
        "rank_sort": 30133,
        "total": 2368
      },
      {
        "club_badge_src": "https://fantasy.premierleague.com/gcs/plfpl-production-adobe-approved/plfpl-production/956931/92b7454f-11de-4d36-862b-b922bf772f46.png",
        "entry": 956931,
        "entry_name": "\u00c5NGAN FC",
        "event_total": 54,
        "has_played": true,
        "id": 6593613,
        "last_rank": 27020,
        "player_name": "Henrik Bj\u00f6rses",
        "rank": 30061,
        "rank_sort": 30134,
        "total": 2368
      },
      {
        "club_badge_src": "https://fantasy.premierleague.com/gcs/plfpl-production-adobe-approved/plfpl-production/963054/6e6bcec1-e688-4ce5-839f-ad812a1850cc.png",
        "entry": 963054,
        "entry_name": "AC BaBooM",
        "event_total": 75,
        "has_played": true,
        "id": 6636808,
        "last_rank": 52759,
        "player_name": "Konstantinos Drousiotis",
        "rank": 30061,
        "rank_sort": 30135,
        "total": 2368
      },
      {
        "club_badge_src": null,
        "entry": 998768,
        "entry_name": "Pain In Diaz",
        "event_total": 55,
        "has_played": true,
        "id": 6902200,
        "last_rank": 27976,
        "player_name": "Mubz Khalifa",
        "rank": 30061,
        "rank_sort": 30136,
        "total": 2368
      },
      {
        "club_badge_src": null,
        "entry": 1085615,
        "entry_name": "\u0645\u0644\u0643 \u0627\u0644\u0641\u0646\u062a\u0627\u0632\u064a",
        "event_total": 53,
        "has_played": true,
        "id": 7518288,
        "last_rank": 26230,
        "player_name": "\u0639\u0628\u0648\u062f \u0627\u0644\u0632\u0648\u0628\u0639\u064a",
        "rank": 30061,
        "rank_sort": 30137,
        "total": 2368
      },
      {
        "club_badge_src": null,
        "entry": 1087333,
        "entry_name": "Phils superstars",
        "event_total": 56,
        "has_played": true,
        "id": 7530198,
        "last_rank": 28906,
        "player_name": "Philip Baggaley",
        "rank": 30061,
        "rank_sort": 30138,
        "total": 2368
      },
      {
        "club_badge_src": "https://fantasy.premierleague.com/gcs/plfpl-production-adobe-approved/plfpl-production/1103231/d2347f35-1b50-4513-997e-3a3ae777f2cf.png",
        "entry": 1103231,
        "entry_name": "Khaled Elpnan",
        "event_total": 73,
        "has_played": true,
        "id": 7641779,
        "last_rank": 50199,
        "player_name": "khaled elbanan",
        "rank": 30061,
        "rank_sort": 30139,
        "total": 2368
      },
      {
        "club_badge_src": "https://fantasy.premierleague.com/gcs/plfpl-production-adobe-approved/plfpl-production/1137256/d420ed19-9644-4212-83cc-d9ab8dd41c64.png",
        "entry": 1137256,
        "entry_name": "Bedste i Danmark",
        "event_total": 65,
        "has_played": true,
        "id": 7883143,
        "last_rank": 34051,
        "player_name": "Marcel Hartmann",
        "rank": 30061,
        "rank_sort": 30140,
        "total": 2368
      },
      {
        "club_badge_src": null,
        "entry": 1160442,
        "entry_name": "U Kante see Mee",
        "event_total": 65,
        "has_played": true,
        "id": 8049827,
        "last_rank": 33869,
        "player_name": "Reece Navsaria",
        "rank": 30061,
        "rank_sort": 30141,
        "total": 2368
      },
      {
        "club_badge_src": null,
        "entry": 1170980,
        "entry_name": "mascot99",
        "event_total": 58,
        "has_played": true,
        "id": 8123616,
        "last_rank": 26827,
        "player_name": "Sipanut Silaket",
        "rank": 30061,
        "rank_sort": 30142,
        "total": 2368
      },
      {
        "club_badge_src": null,
        "entry": 1208624,
        "entry_name": "BADREDDINE",
        "event_total": 36,
        "has_played": true,
        "id": 8388167,
        "last_rank": 13947,
        "player_name": "El'anaya Badreddine",
        "rank": 30061,
        "rank_sort": 30143,
        "total": 2368
      },
      {
        "club_badge_src": null,
        "entry": 1238190,
        "entry_name": "\u0627\u0644\u0631\u062c\u0644 \u0627\u0644\u062e\u0627\u0637\u0628",
        "event_total": 61,
        "has_played": true,
        "id": 8598231,
        "last_rank": 34458,
        "player_name": "Salah Nasar",
        "rank": 30061,
        "rank_sort": 30144,
        "total": 2368
      },
      {
        "club_badge_src": null,
        "entry": 1246529,
        "entry_name": "AM",
        "event_total": 39,
        "has_played": true,
        "id": 8657277,
        "last_rank": 13257,
        "player_name": "Abdullah Alotaibi",
        "rank": 30061,
        "rank_sort": 30145,
        "total": 2368
      },
      {
        "club_badge_src": null,
        "entry": 1252240,
        "entry_name": "Jajadingdong",
        "event_total": 55,
        "has_played": true,
        "id": 8697246,
        "last_rank": 27770,
        "player_name": "Hanne Plassen",
        "rank": 30061,
        "rank_sort": 30146,
        "total": 2368
      },
      {
        "club_badge_src": null,
        "entry": 1351845,
        "entry_name": "Wirtz Case Scenario",
        "event_total": 59,
        "has_played": true,
        "id": 9397792,
        "last_rank": 31747,
        "player_name": "Sam Lyne",
        "rank": 30061,
        "rank_sort": 30147,
        "total": 2368
      },
      {
        "club_badge_src": null,
        "entry": 1481579,
        "entry_name": "Outsiderz",
        "event_total": 58,
        "has_played": true,
        "id": 10331295,
        "last_rank": 30957,
        "player_name": "A Sharma",
        "rank": 30061,
        "rank_sort": 30148,
        "total": 2368
      },
      {
        "club_badge_src": null,
        "entry": 1550147,
        "entry_name": "Monk Hood Team",
        "event_total": 57,
        "has_played": true,
        "id": 10822971,
        "last_rank": 25902,
        "player_name": "Artur Walkiewicz",
        "rank": 30061,
        "rank_sort": 30149,
        "total": 2368
      },
      {
        "club_badge_src": null,
        "entry": 1642996,
        "entry_name": "FPLS GONE WOKE",
        "event_total": 71,
        "has_played": true,
        "id": 11501194,
        "last_rank": 47163,
        "player_name": "Andrew Plowman",
        "rank": 30061,
        "rank_sort": 30150,
        "total": 2368
      }
    ]
  }
}