{
  "last_updated_data": "2026-05-24T23:28:17Z",
  "league": {
    "admin_entry": null,
    "closed": false,
    "code_privacy": "p",
    "created": "2025-07-20T23:14:33.933835Z",
    "cup_league": 2815434,
    "has_cup": true,
    "id": 314,
    "league_type": "s",
    "max_entries": null,
    "name": "Overall",
    "rank": null,
    "scoring": "c",
    "start_event": 1
  },
  "new_entries": {
    "has_next": false,
    "page": 1,
    "results": []
  },
  "standings": {
    "has_next": true,
    "page": 196,
    "results": [
      {
        "club_badge_src": null,
        "entry": 7569839,
        "entry_name": "Sahand",
        "event_total": 55,
        "has_played": true,
        "id": 61990758,
        "last_rank": 8484,
        "player_name": "Sahand Muhsin",
        "rank": 9683,
        "rank_sort": 9751,
        "total": 2399
      },
      {
        "club_badge_src": "https://fantasy.premierleague.com/gcs/plfpl-production-adobe-approved/plfpl-production/7730212/4a5bd9bf-f36d-45b8-8978-7d7217207877.png",
        "entry": 7730212,
        "entry_name": "Phil_Gr8er United",
        "event_total": 68,
        "has_played": true,
        "id": 63443098,
        "last_rank": 14496,
        "player_name": "Phillip Bwayo",
        "rank": 9683,
        "rank_sort": 9752,
        "total": 2399
      },
      {
        "club_badge_src": null,
        "entry": 8172816,
        "entry_name": "Ayigbe Mafias",
        "event_total": 49,
        "has_played": true,
        "id": 67481666,
        "last_rank": 6528,
        "player_name": "Samuel Darrah",
        "rank": 9683,
        "rank_sort": 9753,
        "total": 2399
      },
      {
        "club_badge_src": null,
        "entry": 8246642,
        "entry_name": "MikeThaBike",
        "event_total": 54,
        "has_played": true,
        "id": 68192032,
        "last_rank": 8138,
        "player_name": "Mikael Lindholm",
        "rank": 9683,
        "rank_sort": 9754,
        "total": 2399
      },
      {
        "club_badge_src": null,
        "entry": 9309266,
        "entry_name": "Panic at the Sesko",
        "event_total": 62,
        "has_played": true,
        "id": 78498360,
        "last_rank": 9536,
        "player_name": "Jamie Slater",
        "rank": 9683,
        "rank_sort": 9755,
        "total": 2399
      },
      {
        "club_badge_src": null,
        "entry": 3039,
        "entry_name": "Highbury",
        "event_total": 38,
        "has_played": true,
        "id": 17138,
        "last_rank": 3302,
        "player_name": "Nui Atr",
        "rank": 9756,
        "rank_sort": 9756,
        "total": 2399
      },
      {
        "club_badge_src": null,
        "entry": 55179,
        "entry_name": "Castle United",
        "event_total": 69,
        "has_played": true,
        "id": 355161,
        "last_rank": 15063,
        "player_name": "Nick Murray",
        "rank": 9756,
        "rank_sort": 9757,
        "total": 2399
      },
      {
        "club_badge_src": "https://fantasy.premierleague.com/gcs/plfpl-production-adobe-approved/plfpl-production/55473/379434d6-f088-47fa-86a1-2c8d1a3522da.png",
        "entry": 55473,
        "entry_name": "The Melons",
        "event_total": 60,
        "has_played": true,
        "id": 357122,
        "last_rank": 8758,
        "player_name": "ALEXANDER GOUGH",
        "rank": 9756,
        "rank_sort": 9758,
        "total": 2399
      },
      {
        "club_badge_src": null,
        "entry": 94711,
        "entry_name": "R\u00f3is\u00edn Utd",
        "event_total": 59,
        "has_played": true,
        "id": 618840,
        "last_rank": 10102,
        "player_name": "Denial Eastop",
        "rank": 9756,
        "rank_sort": 9759,
        "total": 2399
      },
      {
        "club_badge_src": null,
        "entry": 100568,
        "entry_name": "Bratwirtz&Salahkraut",
        "event_total": 64,
        "has_played": true,
        "id": 656306,
        "last_rank": 10462,
        "player_name": "Dimitar Atanasov",
        "rank": 9756,
        "rank_sort": 9760,
        "total": 2399
      },
      {
        "club_badge_src": null,
        "entry": 150506,
        "entry_name": "Obi-Wan Bissaka",
        "event_total": 58,
        "has_played": true,
        "id": 987117,
        "last_rank": 9711,
        "player_name": "Ingi Thor Hallgr\u00edmsson",
        "rank": 9756,
        "rank_sort": 9761,
        "total": 2399
      },
      {
        "club_badge_src": "https://fantasy.premierleague.com/gcs/plfpl-production-adobe-approved/plfpl-production/151109/8efba7e9-4398-434b-b8aa-6c345d09a35d.png",
        "entry": 151109,
        "entry_name": "Taratakdungdes",
        "event_total": 65,
        "has_played": true,
        "id": 991247,
        "last_rank": 10920,
        "player_name": "Deka Ramandhika",
        "rank": 9756,
        "rank_sort": 9762,
        "total": 2399
      },
      {
        "club_badge_src": "https://fantasy.premierleague.com/gcs/plfpl-production-adobe-approved/plfpl-production/171111/52bc4197-f5e5-4c7a-b0af-b8f040ed0816.png",
        "entry": 171111,
        "entry_name": "The MOst SALAH 11",
        "event_total": 64,
        "has_played": true,
        "id": 1130439,
        "last_rank": 10462,
        "player_name": "Jeremy Ng",
        "rank": 9756,
        "rank_sort": 9763,
        "total": 2399
      },
      {
        "club_badge_src": null,
        "entry": 195612,
        "entry_name": "winners 11",
        "event_total": 66,
        "has_played": true,
        "id": 1297256,
        "last_rank": 13500,
        "player_name": "keagan Williams",
        "rank": 9756,
        "rank_sort": 9764,
        "total": 2399
      },
      {
        "club_badge_src": "https://fantasy.premierleague.com/gcs/plfpl-production-adobe-approved/plfpl-production/208878/dc43b100-a8c5-46cb-8253-dff02bd07b18.png",
        "entry": 208878,
        "entry_name": "F.C. Chelion",
        "event_total": 54,
        "has_played": true,
        "id": 1388959,
        "last_rank": 8198,
        "player_name": "\u8499\u53e4 \u7684\u8499\u677e\u5927\u592b",
        "rank": 9756,
        "rank_sort": 9765,
        "total": 2399
      },
      {
        "club_badge_src": null,
        "entry": 210856,
        "entry_name": "\u0160e\u0161ko\u2019s Finest",
        "event_total": 63,
        "has_played": true,
        "id": 1402377,
        "last_rank": 11821,
        "player_name": "Dan Murgatroyd",
        "rank": 9756,
        "rank_sort": 9766,
        "total": 2399
      },
      {
        "club_badge_src": null,
        "entry": 216170,
        "entry_name": "Sheldon United",
        "event_total": 68,
        "has_played": true,
        "id": 1437706,
        "last_rank": 10346,
        "player_name": "Craig Galley",
        "rank": 9756,
        "rank_sort": 9767,
        "total": 2399
      },
      {
        "club_badge_src": null,
        "entry": 232855,
        "entry_name": "FFC",
        "event_total": 56,
        "has_played": true,
        "id": 1549314,
        "last_rank": 8854,
        "player_name": "Faran Mahboob",
        "rank": 9756,
        "rank_sort": 9768,
        "total": 2399
      },
      {
        "club_badge_src": null,
        "entry": 267810,
        "entry_name": "WOOD YOU BELIEVE IT",
        "event_total": 78,
        "has_played": true,
        "id": 1781611,
        "last_rank": 21159,
        "player_name": "Muhammad Bilaal Khan",
        "rank": 9756,
        "rank_sort": 9769,
        "total": 2399
      },
      {
        "club_badge_src": null,
        "entry": 277238,
        "entry_name": "ThomasTheFrankEngine",
        "event_total": 71,
        "has_played": true,
        "id": 1845325,
        "last_rank": 16163,
        "player_name": "Leo Wickenden",
        "rank": 9756,
        "rank_sort": 9770,
        "total": 2399
      },
      {
        "club_badge_src": null,
        "entry": 293762,
        "entry_name": "Mysil",
        "event_total": 72,
        "has_played": true,
        "id": 1961127,
        "last_rank": 16959,
        "player_name": "Asgeir Austigard",
        "rank": 9756,
        "rank_sort": 9771,
        "total": 2399
      },
      {
        "club_badge_src": null,
        "entry": 329649,
        "entry_name": "Domagoj Vida FC",
        "event_total": 72,
        "has_played": true,
        "id": 2208211,
        "last_rank": 17078,
        "player_name": "Andreas Parsmyr",
        "rank": 9756,
        "rank_sort": 9772,
        "total": 2399
      },
      {
        "club_badge_src": null,
        "entry": 494908,
        "entry_name": "Witness Mee!",
        "event_total": 55,
        "has_played": true,
        "id": 3321966,
        "last_rank": 7141,
        "player_name": "FPL Sabri",
        "rank": 9756,
        "rank_sort": 9773,
        "total": 2399
      },
      {
        "club_badge_src": null,
        "entry": 536627,
        "entry_name": "dino",
        "event_total": 60,
        "has_played": true,
        "id": 3611972,
        "last_rank": 10462,
        "player_name": "mohammed mahmoud",
        "rank": 9756,
        "rank_sort": 9774,
        "total": 2399
      },
      {
        "club_badge_src": null,
        "entry": 673095,
        "entry_name": "Katchalpank",
        "event_total": 64,
        "has_played": true,
        "id": 4553161,
        "last_rank": 10462,
        "player_name": "Yash Crushna",
        "rank": 9756,
        "rank_sort": 9775,
        "total": 2399
      },
      {
        "club_badge_src": null,
        "entry": 674518,
        "entry_name": "Zirkmate",
        "event_total": 61,
        "has_played": true,
        "id": 4563105,
        "last_rank": 10992,
        "player_name": "Jamie Fitzpatrick",
        "rank": 9756,
        "rank_sort": 9776,
        "total": 2399
      },
      {
        "club_badge_src": null,
        "entry": 713671,
        "entry_name": "76",
        "event_total": 51,
        "has_played": true,
        "id": 4841658,
        "last_rank": 6011,
        "player_name": "Abdulkarim Alabdulkarim",
        "rank": 9756,
        "rank_sort": 9777,
        "total": 2399
      },
      {
        "club_badge_src": "https://fantasy.premierleague.com/gcs/plfpl-production-adobe-approved/plfpl-production/811325/d46a5c66-2231-41a6-b7cd-b5f8dc74ae29.png",
        "entry": 811325,
        "entry_name": "The Wirtz Team Ever",
        "event_total": 52,
        "has_played": true,
        "id": 5555014,
        "last_rank": 7501,
        "player_name": "Graham Munro",
        "rank": 9756,
        "rank_sort": 9778,
        "total": 2399
      },
      {
        "club_badge_src": null,
        "entry": 1070650,
        "entry_name": "Chrisov Wood",
        "event_total": 65,
        "has_played": true,
        "id": 7412086,
        "last_rank": 12846,
        "player_name": "Josip Venutti",
        "rank": 9756,
        "rank_sort": 9779,
        "total": 2399
      },
      {
        "club_badge_src": null,
        "entry": 1274429,
        "entry_name": "WonderWall 25",
        "event_total": 57,
        "has_played": true,
        "id": 8855565,
        "last_rank": 7761,
        "player_name": "Sean Smith",
        "rank": 9756,
        "rank_sort": 9780,
        "total": 2399
      },
      {
        "club_badge_src": null,
        "entry": 1296732,
        "entry_name": "Ishamrock Rovers",
        "event_total": 57,
        "has_played": true,
        "id": 9012321,
        "last_rank": 9311,
        "player_name": "David Isham",
        "rank": 9756,
        "rank_sort": 9781,
        "total": 2399
      },
      {
        "club_badge_src": null,
        "entry": 1647826,
        "entry_name": "Kilfeacle Fc",
        "event_total": 49,
        "has_played": true,
        "id": 11535097,
        "last_rank": 6528,
        "player_name": "kevin O Dwyer",
        "rank": 9756,
        "rank_sort": 9782,
        "total": 2399
      },
      {
        "club_badge_src": null,
        "entry": 1682339,
        "entry_name": "KonateGetAnyWirtz",
        "event_total": 69,
        "has_played": true,
        "id": 11777007,
        "last_rank": 15063,
        "player_name": "Ravi Anaparti",
        "rank": 9756,
        "rank_sort": 9783,
        "total": 2399
      },
      {
        "club_badge_src": null,
        "entry": 1847884,
        "entry_name": "rudra-fc",
        "event_total": 44,
        "has_played": true,
        "id": 13002558,
        "last_rank": 5281,
        "player_name": "Sudip Bala",
        "rank": 9756,
        "rank_sort": 9784,
        "total": 2399
      },
      {
        "club_badge_src": null,
        "entry": 2186482,
        "entry_name": "Bootsma Rovers",
        "event_total": 71,
        "has_played": true,
        "id": 15554255,
        "last_rank": 16163,
        "player_name": "John Fraser",
        "rank": 9756,
        "rank_sort": 9785,
        "total": 2399
      },
      {
        "club_badge_src": "https://fantasy.premierleague.com/gcs/plfpl-production-adobe-approved/plfpl-production/2236519/8ea50347-b861-4073-8228-5e88526eba6c.png",
        "entry": 2236519,
        "entry_name": "Under my Cucurella",
        "event_total": 61,
        "has_played": true,
        "id": 15932884,
        "last_rank": 9248,
        "player_name": "Teddy Lack",
        "rank": 9756,
        "rank_sort": 9786,
        "total": 2399
      },
      {
        "club_badge_src": null,
        "entry": 2326987,
        "entry_name": "Cinched It",
        "event_total": 50,
        "has_played": true,
        "id": 16601753,
        "last_rank": 6887,
        "player_name": "Andrew McFarlane",
        "rank": 9756,
        "rank_sort": 9787,
        "total": 2399
      },
      {
        "club_badge_src": null,
        "entry": 2897224,
        "entry_name": "\u00c5sh\u00f6jdens BK",
        "event_total": 52,
        "has_played": true,
        "id": 21228168,
        "last_rank": 7450,
        "player_name": "Emil Molin",
        "rank": 9756,
        "rank_sort": 9788,
        "total": 2399
      },
      {
        "club_badge_src": null,
        "entry": 3014795,
        "entry_name": "Best of the best",
        "event_total": 61,
        "has_played": true,
        "id": 22179723,
        "last_rank": 10920,
        "player_name": "Ishan Chaturvedi",
        "rank": 9756,
        "rank_sort": 9789,
        "total": 2399
      },
      {
        "club_badge_src": null,
        "entry": 3638530,
        "entry_name": "holdmybeer",
        "event_total": 64,
        "has_played": true,
        "id": 27115915,
        "last_rank": 12322,
        "player_name": "Dalius Navalinskas",
        "rank": 9756,
        "rank_sort": 9790,
        "total": 2399
      },
      {
        "club_badge_src": null,
        "entry": 3870823,
        "entry_name": "Sliabh Mhuire FC",
        "event_total": 70,
        "has_played": true,
        "id": 29041573,
        "last_rank": 15797,
        "player_name": "Dean Flynn",
        "rank": 9756,
        "rank_sort": 9791,
        "total": 2399
      },
      {
        "club_badge_src": "https://fantasy.premierleague.com/gcs/plfpl-production-adobe-approved/plfpl-production/4008083/9547f3b3-0d13-4941-a7e3-3ed7b632de75.png",
        "entry": 4008083,
        "entry_name": "DPR Maydog",
        "event_total": 70,
        "has_played": true,
        "id": 30194043,
        "last_rank": 13184,
        "player_name": "Mayank Dadheech",
        "rank": 9756,
        "rank_sort": 9792,
        "total": 2399
      },
      {
        "club_badge_src": null,
        "entry": 4077324,
        "entry_name": "Stormin Stormont",
        "event_total": 68,
        "has_played": true,
        "id": 30778296,
        "last_rank": 12200,
        "player_name": "Steven Strange",
        "rank": 9756,
        "rank_sort": 9793,
        "total": 2399
      },
      {
        "club_badge_src": null,
        "entry": 4230561,
        "entry_name": "Diogo20",
        "event_total": 66,
        "has_played": true,
        "id": 32054049,
        "last_rank": 11345,
        "player_name": "Geir Helge Bakke",
        "rank": 9756,
        "rank_sort": 9794,
        "total": 2399
      },
      {
        "club_badge_src": null,
        "entry": 4297317,
        "entry_name": "Stuck Farmer",
        "event_total": 57,
        "has_played": true,
        "id": 32600887,
        "last_rank": 7676,
        "player_name": "John Hinge",
        "rank": 9756,
        "rank_sort": 9795,
        "total": 2399
      },
      {
        "club_badge_src": "https://fantasy.premierleague.com/gcs/plfpl-production-adobe-approved/plfpl-production/5057833/2a81c522-e3b1-44a7-a3a7-727192f93a35.png",
        "entry": 5057833,
        "entry_name": "ZHANI FC",
        "event_total": 68,
        "has_played": true,
        "id": 39081722,
        "last_rank": 14496,
        "player_name": "Wael ZHANI",
        "rank": 9756,
        "rank_sort": 9796,
        "total": 2399
      },
      {
        "club_badge_src": null,
        "entry": 5594473,
        "entry_name": "Bristol South End",
        "event_total": 60,
        "has_played": true,
        "id": 43708894,
        "last_rank": 10556,
        "player_name": "David Rowe",
        "rank": 9756,
        "rank_sort": 9797,
        "total": 2399
      },
      {
        "club_badge_src": null,
        "entry": 5909120,
        "entry_name": "habloo9",
        "event_total": 73,
        "has_played": true,
        "id": 46434291,
        "last_rank": 15063,
        "player_name": "Mohammad Alansari",
        "rank": 9756,
        "rank_sort": 9798,
        "total": 2399
      },
      {
        "club_badge_src": null,
        "entry": 6996900,
        "entry_name": "Jenesais",
        "event_total": 67,
        "has_played": true,
        "id": 56173206,
        "last_rank": 13821,
        "player_name": "Nana Yaw Addae-Poku",
        "rank": 9756,
        "rank_sort": 9799,
        "total": 2399
      },
      {
        "club_badge_src": "https://fantasy.premierleague.com/gcs/plfpl-production-adobe-approved/plfpl-production/7046648/17aaa133-36c3-494a-bc46-3e07e89e0f4a.png",
        "entry": 7046648,
        "entry_name": "MzaziFc",
        "event_total": 69,
        "has_played": true,
        "id": 56664777,
        "last_rank": 15063,
        "player_name": "Manu Kamau",
        "rank": 9756,
        "rank_sort": 9800,
        "total": 2399
      }
    ]
  }
}