{
  "last_updated_data": "2026-05-24T23:28:17Z",
  "league": {
    "admin_entry": null,
    "closed": false,
    "code_privacy": "p",
    "created": "2025-07-20T23:14:33.933835Z",
    "cup_league": 2815434,
    "has_cup": true,
    "id": 314,
    "league_type": "s",
    "max_entries": null,
    "name": "Overall",
    "rank": null,
    "scoring": "c",
    "start_event": 1
  },
  "new_entries": {
    "has_next": false,
    "page": 1,
    "results": []
  },
  "standings": {
    "has_next": true,
    "page": 852,
    "results": [
      {
        "club_badge_src": null,
        "entry": 4681845,
        "entry_name": "Lunheim Forest",
        "event_total": 56,
        "has_played": true,
        "id": 35875653,
        "last_rank": 41073,
        "player_name": "Hauk Are Kristiansen",
        "rank": 42358,
        "rank_sort": 42551,
        "total": 2357
      },
      {
        "club_badge_src": null,
        "entry": 4683511,
        "entry_name": "I Like 2 Muniz Muniz",
        "event_total": 68,
        "has_played": true,
        "id": 35890160,
        "last_rank": 59813,
        "player_name": "Harry Robinson",
        "rank": 42358,
        "rank_sort": 42552,
        "total": 2357
      },
      {
        "club_badge_src": null,
        "entry": 4713060,
        "entry_name": "UNITED",
        "event_total": 72,
        "has_played": true,
        "id": 36170810,
        "last_rank": 66848,
        "player_name": "Ivan Yeo",
        "rank": 42358,
        "rank_sort": 42553,
        "total": 2357
      },
      {
        "club_badge_src": null,
        "entry": 4733755,
        "entry_name": "Lord of the Ings",
        "event_total": 51,
        "has_played": true,
        "id": 36420148,
        "last_rank": 35166,
        "player_name": "Aaron O\u2019Hara",
        "rank": 42358,
        "rank_sort": 42554,
        "total": 2357
      },
      {
        "club_badge_src": null,
        "entry": 4757871,
        "entry_name": "Heaven Sent Ayden",
        "event_total": 53,
        "has_played": true,
        "id": 36614234,
        "last_rank": 37589,
        "player_name": "Richard Lamuren",
        "rank": 42358,
        "rank_sort": 42555,
        "total": 2357
      },
      {
        "club_badge_src": null,
        "entry": 4777900,
        "entry_name": "Rushies Rangers",
        "event_total": 52,
        "has_played": true,
        "id": 36779468,
        "last_rank": 36348,
        "player_name": "Mathew Rush",
        "rank": 42358,
        "rank_sort": 42556,
        "total": 2357
      },
      {
        "club_badge_src": null,
        "entry": 4930107,
        "entry_name": "RoadtoXI",
        "event_total": 65,
        "has_played": true,
        "id": 38030822,
        "last_rank": 54494,
        "player_name": "Bincymon George",
        "rank": 42358,
        "rank_sort": 42557,
        "total": 2357
      },
      {
        "club_badge_src": null,
        "entry": 4941868,
        "entry_name": "CLC04",
        "event_total": 44,
        "has_played": true,
        "id": 38129708,
        "last_rank": 27585,
        "player_name": "Chika Chinedum",
        "rank": 42358,
        "rank_sort": 42558,
        "total": 2357
      },
      {
        "club_badge_src": null,
        "entry": 4948913,
        "entry_name": "\u0160e\u0161ko Clubcard",
        "event_total": 50,
        "has_played": true,
        "id": 38186301,
        "last_rank": 34051,
        "player_name": "Kai Fernley",
        "rank": 42358,
        "rank_sort": 42559,
        "total": 2357
      },
      {
        "club_badge_src": "https://fantasy.premierleague.com/gcs/plfpl-production-adobe-approved/plfpl-production/4955762/0a9c4e62-b0b8-44da-ab53-404cdda195db.png",
        "entry": 4955762,
        "entry_name": "Zamalek",
        "event_total": 64,
        "has_played": true,
        "id": 38241586,
        "last_rank": 53023,
        "player_name": "omar alaa",
        "rank": 42358,
        "rank_sort": 42560,
        "total": 2357
      },
      {
        "club_badge_src": null,
        "entry": 4971370,
        "entry_name": "BrokebackMount10",
        "event_total": 75,
        "has_played": true,
        "id": 38371042,
        "last_rank": 72815,
        "player_name": "Eric Keane",
        "rank": 42358,
        "rank_sort": 42561,
        "total": 2357
      },
      {
        "club_badge_src": null,
        "entry": 5041808,
        "entry_name": "Leopard Tortoise",
        "event_total": 49,
        "has_played": true,
        "id": 38945163,
        "last_rank": 32688,
        "player_name": "Leo Satch",
        "rank": 42358,
        "rank_sort": 42562,
        "total": 2357
      },
      {
        "club_badge_src": "https://fantasy.premierleague.com/gcs/plfpl-production-adobe-approved/plfpl-production/5083159/d59363db-489b-4789-84e2-b8d7d1083e08.png",
        "entry": 5083159,
        "entry_name": "HairyArshavinBarbers",
        "event_total": 48,
        "has_played": true,
        "id": 39286729,
        "last_rank": 31747,
        "player_name": "Noel Hunwick",
        "rank": 42358,
        "rank_sort": 42563,
        "total": 2357
      },
      {
        "club_badge_src": "https://fantasy.premierleague.com/gcs/plfpl-production-adobe-approved/plfpl-production/5185086/c3f2391f-5790-4598-84d1-23265d9bc538.png",
        "entry": 5185086,
        "entry_name": "Joga Bonito",
        "event_total": 55,
        "has_played": true,
        "id": 40137113,
        "last_rank": 40297,
        "player_name": "bill kephas",
        "rank": 42358,
        "rank_sort": 42564,
        "total": 2357
      },
      {
        "club_badge_src": null,
        "entry": 5295897,
        "entry_name": "Wozzieb",
        "event_total": 85,
        "has_played": true,
        "id": 41050807,
        "last_rank": 96374,
        "player_name": "Warren Beasley",
        "rank": 42358,
        "rank_sort": 42565,
        "total": 2357
      },
      {
        "club_badge_src": null,
        "entry": 5316520,
        "entry_name": "Hooked on Sesko",
        "event_total": 67,
        "has_played": true,
        "id": 41212830,
        "last_rank": 57776,
        "player_name": "Deric Huw",
        "rank": 42358,
        "rank_sort": 42566,
        "total": 2357
      },
      {
        "club_badge_src": null,
        "entry": 5338605,
        "entry_name": "Thierry",
        "event_total": 64,
        "has_played": true,
        "id": 41396266,
        "last_rank": 53023,
        "player_name": "Henry Odero",
        "rank": 42358,
        "rank_sort": 42567,
        "total": 2357
      },
      {
        "club_badge_src": null,
        "entry": 5408968,
        "entry_name": "Matsknoester UTD",
        "event_total": 50,
        "has_played": true,
        "id": 42061220,
        "last_rank": 33869,
        "player_name": "Scott Ritchie",
        "rank": 42358,
        "rank_sort": 42568,
        "total": 2357
      },
      {
        "club_badge_src": null,
        "entry": 5444243,
        "entry_name": "time for The Arsenal",
        "event_total": 53,
        "has_played": true,
        "id": 42359176,
        "last_rank": 37435,
        "player_name": "Alvin Liang",
        "rank": 42358,
        "rank_sort": 42569,
        "total": 2357
      },
      {
        "club_badge_src": null,
        "entry": 5457847,
        "entry_name": "teha boys",
        "event_total": 54,
        "has_played": true,
        "id": 42473631,
        "last_rank": 38774,
        "player_name": "aimen doja",
        "rank": 42358,
        "rank_sort": 42570,
        "total": 2357
      },
      {
        "club_badge_src": null,
        "entry": 5503077,
        "entry_name": "Hungbayer",
        "event_total": 61,
        "has_played": true,
        "id": 42881327,
        "last_rank": 48119,
        "player_name": "HUNG TRAN MANH",
        "rank": 42358,
        "rank_sort": 42571,
        "total": 2357
      },
      {
        "club_badge_src": null,
        "entry": 5539788,
        "entry_name": "AtleticoDeJerusalem",
        "event_total": 68,
        "has_played": true,
        "id": 43225372,
        "last_rank": 59632,
        "player_name": "Noam Shapira",
        "rank": 42358,
        "rank_sort": 42572,
        "total": 2357
      },
      {
        "club_badge_src": null,
        "entry": 5645995,
        "entry_name": "FPL Craig",
        "event_total": 43,
        "has_played": true,
        "id": 44162162,
        "last_rank": 27020,
        "player_name": "Craig Wood",
        "rank": 42358,
        "rank_sort": 42573,
        "total": 2357
      },
      {
        "club_badge_src": null,
        "entry": 5675731,
        "entry_name": "Cunha Matata",
        "event_total": 56,
        "has_played": true,
        "id": 44418254,
        "last_rank": 41324,
        "player_name": "Nathan Pinhorne-Cooper",
        "rank": 42358,
        "rank_sort": 42574,
        "total": 2357
      },
      {
        "club_badge_src": null,
        "entry": 5743463,
        "entry_name": ":)",
        "event_total": 58,
        "has_played": true,
        "id": 45010622,
        "last_rank": 44048,
        "player_name": "J McDonald",
        "rank": 42358,
        "rank_sort": 42575,
        "total": 2357
      },
      {
        "club_badge_src": null,
        "entry": 5744421,
        "entry_name": "Sna-Z Jays",
        "event_total": 75,
        "has_played": true,
        "id": 45018735,
        "last_rank": 72815,
        "player_name": "Jayden Rheeder",
        "rank": 42358,
        "rank_sort": 42576,
        "total": 2357
      },
      {
        "club_badge_src": null,
        "entry": 5748690,
        "entry_name": "Tricky Trees XXVII",
        "event_total": 64,
        "has_played": true,
        "id": 45055075,
        "last_rank": 53023,
        "player_name": "John Rhodes",
        "rank": 42358,
        "rank_sort": 42577,
        "total": 2357
      },
      {
        "club_badge_src": null,
        "entry": 5774276,
        "entry_name": "Molly'sCalumChambers",
        "event_total": 40,
        "has_played": true,
        "id": 45272943,
        "last_rank": 23990,
        "player_name": "Darryl Cumming",
        "rank": 42358,
        "rank_sort": 42578,
        "total": 2357
      },
      {
        "club_badge_src": null,
        "entry": 5776258,
        "entry_name": "Baines on toast",
        "event_total": 38,
        "has_played": true,
        "id": 45291106,
        "last_rank": 22534,
        "player_name": "Lewis Brennan",
        "rank": 42358,
        "rank_sort": 42579,
        "total": 2357
      },
      {
        "club_badge_src": null,
        "entry": 5828451,
        "entry_name": "Quit Yo Jibba Jabba!",
        "event_total": 56,
        "has_played": true,
        "id": 45744647,
        "last_rank": 41617,
        "player_name": "Tuseef Iqbal",
        "rank": 42358,
        "rank_sort": 42580,
        "total": 2357
      },
      {
        "club_badge_src": null,
        "entry": 5840434,
        "entry_name": "yabba yabba mk.vi",
        "event_total": 59,
        "has_played": true,
        "id": 45846408,
        "last_rank": 45416,
        "player_name": "Cam Hill",
        "rank": 42358,
        "rank_sort": 42581,
        "total": 2357
      },
      {
        "club_badge_src": "https://fantasy.premierleague.com/gcs/plfpl-production-adobe-approved/plfpl-production/5867585/766d6431-410c-4c99-b083-2c7df3d456ae.png",
        "entry": 5867585,
        "entry_name": "Puss United",
        "event_total": 58,
        "has_played": true,
        "id": 46085532,
        "last_rank": 44048,
        "player_name": "Aaron O-Brien",
        "rank": 42358,
        "rank_sort": 42582,
        "total": 2357
      },
      {
        "club_badge_src": null,
        "entry": 5927089,
        "entry_name": "Calm as You Like",
        "event_total": 67,
        "has_played": true,
        "id": 46592329,
        "last_rank": 57857,
        "player_name": "Tim Adams",
        "rank": 42358,
        "rank_sort": 42583,
        "total": 2357
      },
      {
        "club_badge_src": "https://fantasy.premierleague.com/gcs/plfpl-production-adobe-approved/plfpl-production/5951939/a05a9b3b-21d7-42ac-8d12-50d21833b253.png",
        "entry": 5951939,
        "entry_name": "Reece's Set Pieces",
        "event_total": 66,
        "has_played": true,
        "id": 46816305,
        "last_rank": 56369,
        "player_name": "Alec Puleston",
        "rank": 42358,
        "rank_sort": 42584,
        "total": 2357
      },
      {
        "club_badge_src": null,
        "entry": 5955543,
        "entry_name": "Heda",
        "event_total": 55,
        "has_played": true,
        "id": 46848379,
        "last_rank": 39874,
        "player_name": "Zim Ahmed",
        "rank": 42358,
        "rank_sort": 42585,
        "total": 2357
      },
      {
        "club_badge_src": null,
        "entry": 6002518,
        "entry_name": "SC Limo",
        "event_total": 57,
        "has_played": true,
        "id": 47320671,
        "last_rank": 42648,
        "player_name": "Michael Anthony-Krueger",
        "rank": 42358,
        "rank_sort": 42586,
        "total": 2357
      },
      {
        "club_badge_src": null,
        "entry": 6073778,
        "entry_name": "Pad See Ewnited",
        "event_total": 59,
        "has_played": true,
        "id": 47947296,
        "last_rank": 45182,
        "player_name": "Joseph Youssif",
        "rank": 42358,
        "rank_sort": 42587,
        "total": 2357
      },
      {
        "club_badge_src": null,
        "entry": 6173243,
        "entry_name": "CR7 | alshayb",
        "event_total": 44,
        "has_played": true,
        "id": 48814127,
        "last_rank": 27976,
        "player_name": "CR7 -",
        "rank": 42358,
        "rank_sort": 42588,
        "total": 2357
      },
      {
        "club_badge_src": null,
        "entry": 6200647,
        "entry_name": "Gy\u00f6k'n'Rolla",
        "event_total": 68,
        "has_played": true,
        "id": 49050922,
        "last_rank": 59632,
        "player_name": "Ross Ferguson",
        "rank": 42358,
        "rank_sort": 42589,
        "total": 2357
      },
      {
        "club_badge_src": null,
        "entry": 6371215,
        "entry_name": "Good Age United",
        "event_total": 55,
        "has_played": true,
        "id": 50664962,
        "last_rank": 39874,
        "player_name": "Roman Rostovskiy",
        "rank": 42358,
        "rank_sort": 42590,
        "total": 2357
      },
      {
        "club_badge_src": null,
        "entry": 6379254,
        "entry_name": "Behind Emery Lines",
        "event_total": 67,
        "has_played": true,
        "id": 50735302,
        "last_rank": 57857,
        "player_name": "Raegan Shields",
        "rank": 42358,
        "rank_sort": 42591,
        "total": 2357
      },
      {
        "club_badge_src": "https://fantasy.premierleague.com/gcs/plfpl-production-adobe-approved/plfpl-production/6522816/7b0c3a1b-f1ac-41c9-86a3-8773774222a4.png",
        "entry": 6522816,
        "entry_name": "MLS- Make Love Squad",
        "event_total": 60,
        "has_played": true,
        "id": 52024773,
        "last_rank": 47163,
        "player_name": "Dewi Bacon",
        "rank": 42358,
        "rank_sort": 42592,
        "total": 2357
      },
      {
        "club_badge_src": null,
        "entry": 6622218,
        "entry_name": "Ollie United",
        "event_total": 58,
        "has_played": true,
        "id": 52919091,
        "last_rank": 44048,
        "player_name": "Oliver Drake",
        "rank": 42358,
        "rank_sort": 42593,
        "total": 2357
      },
      {
        "club_badge_src": "https://fantasy.premierleague.com/gcs/plfpl-production-adobe-approved/plfpl-production/6670752/43fce26b-fa9d-4f7a-a657-58759ebcbb4e.png",
        "entry": 6670752,
        "entry_name": "Runkis FC",
        "event_total": 66,
        "has_played": true,
        "id": 53351360,
        "last_rank": 56369,
        "player_name": "Andreas Nilsen",
        "rank": 42358,
        "rank_sort": 42594,
        "total": 2357
      },
      {
        "club_badge_src": "https://fantasy.premierleague.com/gcs/plfpl-production-adobe-approved/plfpl-production/6691885/3fae4633-5c92-407e-ab36-8892cc6a4752.png",
        "entry": 6691885,
        "entry_name": "Hacunha Matata",
        "event_total": 65,
        "has_played": true,
        "id": 53537357,
        "last_rank": 54667,
        "player_name": "Nikita Ayvazyan",
        "rank": 42358,
        "rank_sort": 42595,
        "total": 2357
      },
      {
        "club_badge_src": null,
        "entry": 6745395,
        "entry_name": "Bilbo's Boys",
        "event_total": 61,
        "has_played": true,
        "id": 53998421,
        "last_rank": 48197,
        "player_name": "Sean Fahey",
        "rank": 42358,
        "rank_sort": 42596,
        "total": 2357
      },
      {
        "club_badge_src": null,
        "entry": 6747240,
        "entry_name": "Straight Outta Cunha",
        "event_total": 69,
        "has_played": true,
        "id": 54014371,
        "last_rank": 61315,
        "player_name": "Hiren Vadgama",
        "rank": 42358,
        "rank_sort": 42597,
        "total": 2357
      },
      {
        "club_badge_src": null,
        "entry": 6747296,
        "entry_name": "HammerTime 2.0",
        "event_total": 64,
        "has_played": true,
        "id": 54014841,
        "last_rank": 46660,
        "player_name": "Teboho Letshuti",
        "rank": 42358,
        "rank_sort": 42598,
        "total": 2357
      },
      {
        "club_badge_src": null,
        "entry": 6861089,
        "entry_name": "FC ya3sobia",
        "event_total": 66,
        "has_played": true,
        "id": 54974159,
        "last_rank": 56369,
        "player_name": "Husain Haidar",
        "rank": 42358,
        "rank_sort": 42599,
        "total": 2357
      },
      {
        "club_badge_src": null,
        "entry": 6897106,
        "entry_name": "PalmerAgain?",
        "event_total": 62,
        "has_played": true,
        "id": 55280265,
        "last_rank": 49880,
        "player_name": "Saman Shirazi",
        "rank": 42358,
        "rank_sort": 42600,
        "total": 2357
      }
    ]
  }
}