{
  "last_updated_data": "2026-05-24T23:28:17Z",
  "league": {
    "admin_entry": null,
    "closed": false,
    "code_privacy": "p",
    "created": "2025-07-20T23:14:33.933835Z",
    "cup_league": 2815434,
    "has_cup": true,
    "id": 314,
    "league_type": "s",
    "max_entries": null,
    "name": "Overall",
    "rank": null,
    "scoring": "c",
    "start_event": 1
  },
  "new_entries": {
    "has_next": false,
    "page": 1,
    "results": []
  },
  "standings": {
    "has_next": true,
    "page": 14,
    "results": [
      {
        "club_badge_src": null,
        "entry": 384660,
        "entry_name": "FPL Murtadha",
        "event_total": 61,
        "has_played": true,
        "id": 2580016,
        "last_rank": 710,
        "player_name": "FPL Murtadha",
        "rank": 647,
        "rank_sort": 651,
        "total": 2456
      },
      {
        "club_badge_src": null,
        "entry": 420092,
        "entry_name": "toptnp",
        "event_total": 69,
        "has_played": true,
        "id": 2815432,
        "last_rank": 1065,
        "player_name": "Top Thanapol",
        "rank": 647,
        "rank_sort": 652,
        "total": 2456
      },
      {
        "club_badge_src": null,
        "entry": 504356,
        "entry_name": "Team Monettsley",
        "event_total": 56,
        "has_played": true,
        "id": 3385448,
        "last_rank": 535,
        "player_name": "Jennifer Price",
        "rank": 647,
        "rank_sort": 653,
        "total": 2456
      },
      {
        "club_badge_src": null,
        "entry": 826802,
        "entry_name": "KjartanUnited",
        "event_total": 71,
        "has_played": true,
        "id": 5662839,
        "last_rank": 1182,
        "player_name": "Kjartan Kj\u00f8snes",
        "rank": 647,
        "rank_sort": 654,
        "total": 2456
      },
      {
        "club_badge_src": null,
        "entry": 944984,
        "entry_name": "FK KLOKO\u010c\u00cd",
        "event_total": 67,
        "has_played": true,
        "id": 6508797,
        "last_rank": 980,
        "player_name": "\u0160t\u011bp\u00e1n Kalkus",
        "rank": 647,
        "rank_sort": 655,
        "total": 2456
      },
      {
        "club_badge_src": null,
        "entry": 1070561,
        "entry_name": "Bobby Dazzlers",
        "event_total": 61,
        "has_played": true,
        "id": 7411444,
        "last_rank": 710,
        "player_name": "Oran McElligott",
        "rank": 647,
        "rank_sort": 656,
        "total": 2456
      },
      {
        "club_badge_src": null,
        "entry": 1280369,
        "entry_name": "Patrick Paper",
        "event_total": 58,
        "has_played": true,
        "id": 8896944,
        "last_rank": 594,
        "player_name": "Toluwani Adenipekun",
        "rank": 647,
        "rank_sort": 657,
        "total": 2456
      },
      {
        "club_badge_src": null,
        "entry": 1963555,
        "entry_name": "Flint Tropics",
        "event_total": 66,
        "has_played": true,
        "id": 13854223,
        "last_rank": 926,
        "player_name": "Arik Vartanian",
        "rank": 647,
        "rank_sort": 658,
        "total": 2456
      },
      {
        "club_badge_src": "https://fantasy.premierleague.com/gcs/plfpl-production-adobe-approved/plfpl-production/3130079/f846809b-9ac8-486d-bdc2-23ef70aaa886.png",
        "entry": 3130079,
        "entry_name": "Palmer Sutra",
        "event_total": 60,
        "has_played": true,
        "id": 23102762,
        "last_rank": 665,
        "player_name": "Harry Simmonds",
        "rank": 647,
        "rank_sort": 659,
        "total": 2456
      },
      {
        "club_badge_src": null,
        "entry": 4846499,
        "entry_name": "Invinciballs",
        "event_total": 58,
        "has_played": true,
        "id": 37337115,
        "last_rank": 594,
        "player_name": "Jason Woodfield",
        "rank": 647,
        "rank_sort": 660,
        "total": 2456
      },
      {
        "club_badge_src": null,
        "entry": 7064908,
        "entry_name": "Road to Mogadishu",
        "event_total": 60,
        "has_played": true,
        "id": 56841394,
        "last_rank": 665,
        "player_name": "Tejas Kotwal",
        "rank": 647,
        "rank_sort": 661,
        "total": 2456
      },
      {
        "club_badge_src": null,
        "entry": 7892838,
        "entry_name": "Yoro only hope",
        "event_total": 75,
        "has_played": true,
        "id": 64920983,
        "last_rank": 1438,
        "player_name": "W H",
        "rank": 647,
        "rank_sort": 662,
        "total": 2456
      },
      {
        "club_badge_src": null,
        "entry": 8336294,
        "entry_name": "Lord Farkesquad",
        "event_total": 75,
        "has_played": true,
        "id": 69074141,
        "last_rank": 1435,
        "player_name": "Maddy Lack",
        "rank": 647,
        "rank_sort": 663,
        "total": 2456
      },
      {
        "club_badge_src": null,
        "entry": 8926607,
        "entry_name": "Sicarios",
        "event_total": 58,
        "has_played": true,
        "id": 74767623,
        "last_rank": 594,
        "player_name": "Harshin Harees",
        "rank": 647,
        "rank_sort": 664,
        "total": 2456
      },
      {
        "club_badge_src": null,
        "entry": 16174,
        "entry_name": "Blue_Chip_Traders",
        "event_total": 69,
        "has_played": true,
        "id": 99755,
        "last_rank": 879,
        "player_name": "Bhooshan Mamtora",
        "rank": 665,
        "rank_sort": 665,
        "total": 2456
      },
      {
        "club_badge_src": "https://fantasy.premierleague.com/gcs/plfpl-production-adobe-approved/plfpl-production/22952/305f6782-1e5e-4ef2-a967-f9e5e47ac8fe.png",
        "entry": 22952,
        "entry_name": "Kapcie K\u0142apcia",
        "event_total": 69,
        "has_played": true,
        "id": 144351,
        "last_rank": 879,
        "player_name": "--- St0pa ---",
        "rank": 665,
        "rank_sort": 666,
        "total": 2456
      },
      {
        "club_badge_src": null,
        "entry": 2772368,
        "entry_name": "Change Name",
        "event_total": 52,
        "has_played": true,
        "id": 20228730,
        "last_rank": 433,
        "player_name": "Jayke Browne",
        "rank": 665,
        "rank_sort": 667,
        "total": 2456
      },
      {
        "club_badge_src": null,
        "entry": 3732365,
        "entry_name": "zubi zubi zu",
        "event_total": 69,
        "has_played": true,
        "id": 27858828,
        "last_rank": 1096,
        "player_name": "Stuart Cutting",
        "rank": 665,
        "rank_sort": 668,
        "total": 2456
      },
      {
        "club_badge_src": null,
        "entry": 3754071,
        "entry_name": "Ctrl + Alt + de Ligt",
        "event_total": 70,
        "has_played": true,
        "id": 28028161,
        "last_rank": 926,
        "player_name": "Ryan Liggett",
        "rank": 665,
        "rank_sort": 669,
        "total": 2456
      },
      {
        "club_badge_src": null,
        "entry": 4043621,
        "entry_name": "Stellar",
        "event_total": 77,
        "has_played": true,
        "id": 30496677,
        "last_rank": 1601,
        "player_name": "Benjamin Zmij",
        "rank": 665,
        "rank_sort": 670,
        "total": 2456
      },
      {
        "club_badge_src": null,
        "entry": 6702586,
        "entry_name": "HAVN",
        "event_total": 66,
        "has_played": true,
        "id": 53631107,
        "last_rank": 926,
        "player_name": "sHeLLz Nuchnueng",
        "rank": 665,
        "rank_sort": 671,
        "total": 2456
      },
      {
        "club_badge_src": null,
        "entry": 299877,
        "entry_name": "Trust Amorim",
        "event_total": 73,
        "has_played": true,
        "id": 2005565,
        "last_rank": 1321,
        "player_name": "Jakky Mourinho",
        "rank": 672,
        "rank_sort": 672,
        "total": 2456
      },
      {
        "club_badge_src": null,
        "entry": 354488,
        "entry_name": "ghetla11",
        "event_total": 72,
        "has_played": true,
        "id": 2372421,
        "last_rank": 1031,
        "player_name": "Shivam Sharma",
        "rank": 672,
        "rank_sort": 673,
        "total": 2456
      },
      {
        "club_badge_src": "https://fantasy.premierleague.com/gcs/plfpl-production-adobe-approved/plfpl-production/159057/40c63802-35ff-48e3-ab2e-87cbd7424950.png",
        "entry": 159057,
        "entry_name": "ThomasTheFrankEngine",
        "event_total": 51,
        "has_played": true,
        "id": 1046734,
        "last_rank": 266,
        "player_name": "Shay Hogan",
        "rank": 674,
        "rank_sort": 674,
        "total": 2456
      },
      {
        "club_badge_src": null,
        "entry": 1259750,
        "entry_name": "Matty C's 5ft 3's",
        "event_total": 43,
        "has_played": true,
        "id": 8750451,
        "last_rank": 167,
        "player_name": "Matt Chamberlain",
        "rank": 674,
        "rank_sort": 675,
        "total": 2456
      },
      {
        "club_badge_src": null,
        "entry": 2469835,
        "entry_name": "Gorole",
        "event_total": 53,
        "has_played": true,
        "id": 17668564,
        "last_rank": 299,
        "player_name": "Piotr Myszoglad",
        "rank": 676,
        "rank_sort": 676,
        "total": 2456
      },
      {
        "club_badge_src": null,
        "entry": 67587,
        "entry_name": "Aftokratoras",
        "event_total": 68,
        "has_played": true,
        "id": 437618,
        "last_rank": 858,
        "player_name": "Nikolas Georgiou",
        "rank": 677,
        "rank_sort": 677,
        "total": 2456
      },
      {
        "club_badge_src": null,
        "entry": 3575143,
        "entry_name": "K\u0105\u00f1\u021b \u1e9ee \u1e9eeat \u26bd\ufe0f",
        "event_total": 54,
        "has_played": true,
        "id": 26621622,
        "last_rank": 322,
        "player_name": "A Khaled",
        "rank": 677,
        "rank_sort": 678,
        "total": 2456
      },
      {
        "club_badge_src": null,
        "entry": 9006124,
        "entry_name": "The Bhoys",
        "event_total": 54,
        "has_played": true,
        "id": 75539513,
        "last_rank": 494,
        "player_name": "Cameron Cornelius",
        "rank": 679,
        "rank_sort": 679,
        "total": 2455
      },
      {
        "club_badge_src": null,
        "entry": 5455043,
        "entry_name": "Stering Silva  \ufffd",
        "event_total": 59,
        "has_played": true,
        "id": 42450425,
        "last_rank": 653,
        "player_name": "Mark Mooney",
        "rank": 680,
        "rank_sort": 680,
        "total": 2455
      },
      {
        "club_badge_src": null,
        "entry": 8465050,
        "entry_name": "Zubi dubi doo",
        "event_total": 73,
        "has_played": true,
        "id": 70297795,
        "last_rank": 1116,
        "player_name": "Luke Evans",
        "rank": 681,
        "rank_sort": 681,
        "total": 2455
      },
      {
        "club_badge_src": null,
        "entry": 233136,
        "entry_name": "Inter Melbourne",
        "event_total": 68,
        "has_played": true,
        "id": 1551160,
        "last_rank": 1065,
        "player_name": "Mahesh Sharma",
        "rank": 682,
        "rank_sort": 682,
        "total": 2455
      },
      {
        "club_badge_src": null,
        "entry": 719526,
        "entry_name": "Hotel? Thiago",
        "event_total": 66,
        "has_played": true,
        "id": 4883928,
        "last_rank": 973,
        "player_name": "Harry Welham",
        "rank": 682,
        "rank_sort": 683,
        "total": 2455
      },
      {
        "club_badge_src": null,
        "entry": 848838,
        "entry_name": "Dirty Sheets",
        "event_total": 76,
        "has_played": true,
        "id": 5818099,
        "last_rank": 1601,
        "player_name": "Vass Dawson",
        "rank": 682,
        "rank_sort": 684,
        "total": 2455
      },
      {
        "club_badge_src": null,
        "entry": 1694665,
        "entry_name": "TONGE POND UNITED",
        "event_total": 54,
        "has_played": true,
        "id": 11869224,
        "last_rank": 496,
        "player_name": "Michael Goode",
        "rank": 682,
        "rank_sort": 685,
        "total": 2455
      },
      {
        "club_badge_src": null,
        "entry": 6373164,
        "entry_name": "Under My Cucurella",
        "event_total": 59,
        "has_played": true,
        "id": 50682369,
        "last_rank": 656,
        "player_name": "Louis Bellhouse",
        "rank": 682,
        "rank_sort": 686,
        "total": 2455
      },
      {
        "club_badge_src": null,
        "entry": 52634,
        "entry_name": "Change Name",
        "event_total": 66,
        "has_played": true,
        "id": 338446,
        "last_rank": 980,
        "player_name": "Stanley Pugh",
        "rank": 687,
        "rank_sort": 687,
        "total": 2455
      },
      {
        "club_badge_src": "https://fantasy.premierleague.com/gcs/plfpl-production-adobe-approved/plfpl-production/63437/bdb0ce02-1013-431c-aea1-219290ee321f.png",
        "entry": 63437,
        "entry_name": "kiRRa",
        "event_total": 61,
        "has_played": true,
        "id": 409301,
        "last_rank": 748,
        "player_name": "Muhamad Arar",
        "rank": 687,
        "rank_sort": 688,
        "total": 2455
      },
      {
        "club_badge_src": "https://fantasy.premierleague.com/gcs/plfpl-production-adobe-approved/plfpl-production/148958/8c6dc208-1636-4ead-b122-d60c7c109d95.png",
        "entry": 148958,
        "entry_name": "Rutter Woke Nonsense",
        "event_total": 66,
        "has_played": true,
        "id": 976539,
        "last_rank": 973,
        "player_name": "Tom Hobson",
        "rank": 687,
        "rank_sort": 689,
        "total": 2455
      },
      {
        "club_badge_src": null,
        "entry": 246992,
        "entry_name": "Leslie Thiaw",
        "event_total": 66,
        "has_played": true,
        "id": 1644161,
        "last_rank": 980,
        "player_name": "Leo Best",
        "rank": 687,
        "rank_sort": 690,
        "total": 2455
      },
      {
        "club_badge_src": "https://fantasy.premierleague.com/gcs/plfpl-production-adobe-approved/plfpl-production/618629/141b1732-aa7e-4f6a-96f1-ddb449ccb184.png",
        "entry": 618629,
        "entry_name": "Elliot E\u2019s 6ft 3\u2019s",
        "event_total": 44,
        "has_played": true,
        "id": 4180000,
        "last_rank": 289,
        "player_name": "elliot Ellis",
        "rank": 687,
        "rank_sort": 691,
        "total": 2455
      },
      {
        "club_badge_src": null,
        "entry": 822215,
        "entry_name": "Pro Evolution Saka",
        "event_total": 59,
        "has_played": true,
        "id": 5631159,
        "last_rank": 660,
        "player_name": "Oiva Koskelo",
        "rank": 687,
        "rank_sort": 692,
        "total": 2455
      },
      {
        "club_badge_src": null,
        "entry": 2525532,
        "entry_name": "Backstreet Moyes",
        "event_total": 63,
        "has_played": true,
        "id": 18096811,
        "last_rank": 825,
        "player_name": "Aiden Bushell",
        "rank": 687,
        "rank_sort": 693,
        "total": 2455
      },
      {
        "club_badge_src": "https://fantasy.premierleague.com/gcs/plfpl-production-adobe-approved/plfpl-production/3237797/e5ebd9d2-48fd-4141-a183-7e7939216428.png",
        "entry": 3237797,
        "entry_name": "Cali Dream",
        "event_total": 60,
        "has_played": true,
        "id": 23948259,
        "last_rank": 710,
        "player_name": "Cheryl Clack",
        "rank": 687,
        "rank_sort": 694,
        "total": 2455
      },
      {
        "club_badge_src": null,
        "entry": 3413643,
        "entry_name": "United Rovers",
        "event_total": 63,
        "has_played": true,
        "id": 25353590,
        "last_rank": 817,
        "player_name": "John Hamill",
        "rank": 687,
        "rank_sort": 695,
        "total": 2455
      },
      {
        "club_badge_src": null,
        "entry": 3530101,
        "entry_name": "Wataru Sunset",
        "event_total": 75,
        "has_played": true,
        "id": 26273156,
        "last_rank": 1510,
        "player_name": "Jimmy Naughton",
        "rank": 687,
        "rank_sort": 696,
        "total": 2455
      },
      {
        "club_badge_src": null,
        "entry": 4154412,
        "entry_name": "Stuart Does Dallas",
        "event_total": 65,
        "has_played": true,
        "id": 31402027,
        "last_rank": 936,
        "player_name": "Geoffrey Kazlow",
        "rank": 687,
        "rank_sort": 697,
        "total": 2455
      },
      {
        "club_badge_src": null,
        "entry": 4203390,
        "entry_name": "Where is Kevin?",
        "event_total": 60,
        "has_played": true,
        "id": 31819718,
        "last_rank": 710,
        "player_name": "Tom\u00e1\u0161 Nem\u010dek",
        "rank": 687,
        "rank_sort": 698,
        "total": 2455
      },
      {
        "club_badge_src": null,
        "entry": 4312659,
        "entry_name": "ORAAABZ",
        "event_total": 55,
        "has_played": true,
        "id": 32725334,
        "last_rank": 535,
        "player_name": "Oarabile Moima",
        "rank": 687,
        "rank_sort": 699,
        "total": 2455
      },
      {
        "club_badge_src": null,
        "entry": 5076096,
        "entry_name": "coolteam",
        "event_total": 66,
        "has_played": true,
        "id": 39230446,
        "last_rank": 973,
        "player_name": "Mohammed Alsaif",
        "rank": 687,
        "rank_sort": 700,
        "total": 2455
      }
    ]
  }
}