{
  "last_updated_data": "2026-05-24T23:28:17Z",
  "league": {
    "admin_entry": null,
    "closed": false,
    "code_privacy": "p",
    "created": "2025-07-20T23:14:33.933835Z",
    "cup_league": 2815434,
    "has_cup": true,
    "id": 314,
    "league_type": "s",
    "max_entries": null,
    "name": "Overall",
    "rank": null,
    "scoring": "c",
    "start_event": 1
  },
  "new_entries": {
    "has_next": false,
    "page": 1,
    "results": []
  },
  "standings": {
    "has_next": true,
    "page": 212,
    "results": [
      {
        "club_badge_src": null,
        "entry": 2496722,
        "entry_name": "Amadness",
        "event_total": 69,
        "has_played": true,
        "id": 17875362,
        "last_rank": 16163,
        "player_name": "Kagiso Moagi",
        "rank": 10506,
        "rank_sort": 10551,
        "total": 2397
      },
      {
        "club_badge_src": null,
        "entry": 2655985,
        "entry_name": "Joses bus boys",
        "event_total": 43,
        "has_played": true,
        "id": 19091872,
        "last_rank": 5528,
        "player_name": "kristian boylan",
        "rank": 10506,
        "rank_sort": 10552,
        "total": 2397
      },
      {
        "club_badge_src": null,
        "entry": 2804953,
        "entry_name": "BGALLSTARS",
        "event_total": 53,
        "has_played": true,
        "id": 20483916,
        "last_rank": 8484,
        "player_name": "Brad Gains",
        "rank": 10506,
        "rank_sort": 10553,
        "total": 2397
      },
      {
        "club_badge_src": null,
        "entry": 2873475,
        "entry_name": "AleGo",
        "event_total": 58,
        "has_played": true,
        "id": 21026219,
        "last_rank": 10462,
        "player_name": "Aleksandar Goci\u0107",
        "rank": 10506,
        "rank_sort": 10554,
        "total": 2397
      },
      {
        "club_badge_src": null,
        "entry": 3029771,
        "entry_name": "Shola Eclipse",
        "event_total": 49,
        "has_played": true,
        "id": 22294060,
        "last_rank": 7141,
        "player_name": "Marcus Pearson",
        "rank": 10506,
        "rank_sort": 10555,
        "total": 2397
      },
      {
        "club_badge_src": null,
        "entry": 3334768,
        "entry_name": "StoneColeStevePalmer",
        "event_total": 70,
        "has_played": true,
        "id": 24730382,
        "last_rank": 14292,
        "player_name": "Purav Patel",
        "rank": 10506,
        "rank_sort": 10556,
        "total": 2397
      },
      {
        "club_badge_src": null,
        "entry": 3623173,
        "entry_name": "XD",
        "event_total": 68,
        "has_played": true,
        "id": 26995585,
        "last_rank": 13257,
        "player_name": "Pronayan Paul",
        "rank": 10506,
        "rank_sort": 10557,
        "total": 2397
      },
      {
        "club_badge_src": "https://fantasy.premierleague.com/gcs/plfpl-production-adobe-approved/plfpl-production/3638331/c6584a9b-b46c-4d6e-819f-2c564623926d.png",
        "entry": 3638331,
        "entry_name": "En runda till!",
        "event_total": 53,
        "has_played": true,
        "id": 27114354,
        "last_rank": 8484,
        "player_name": "Daniel Miranda",
        "rank": 10506,
        "rank_sort": 10558,
        "total": 2397
      },
      {
        "club_badge_src": "https://fantasy.premierleague.com/gcs/plfpl-production-adobe-approved/plfpl-production/3681049/a923ead7-e391-4b94-8435-92d11713943e.png",
        "entry": 3681049,
        "entry_name": "Cunha Matata",
        "event_total": 62,
        "has_played": true,
        "id": 27456532,
        "last_rank": 10288,
        "player_name": "Lauren Green",
        "rank": 10506,
        "rank_sort": 10559,
        "total": 2397
      },
      {
        "club_badge_src": null,
        "entry": 3687452,
        "entry_name": "Sparta FC",
        "event_total": 53,
        "has_played": true,
        "id": 27508111,
        "last_rank": 7014,
        "player_name": "Daniel Cowling",
        "rank": 10506,
        "rank_sort": 10560,
        "total": 2397
      },
      {
        "club_badge_src": null,
        "entry": 3733762,
        "entry_name": "leather oranges",
        "event_total": 64,
        "has_played": true,
        "id": 27869624,
        "last_rank": 13257,
        "player_name": "michael dye",
        "rank": 10506,
        "rank_sort": 10561,
        "total": 2397
      },
      {
        "club_badge_src": null,
        "entry": 3748627,
        "entry_name": "Fallberg Kickers FC",
        "event_total": 41,
        "has_played": true,
        "id": 27986524,
        "last_rank": 5011,
        "player_name": "Samuel Fallberg",
        "rank": 10506,
        "rank_sort": 10562,
        "total": 2397
      },
      {
        "club_badge_src": "https://fantasy.premierleague.com/gcs/plfpl-production-adobe-approved/plfpl-production/3803590/5c97e93c-4f78-4844-81cc-ceb0d7dc2b55.png",
        "entry": 3803590,
        "entry_name": "tasos21",
        "event_total": 77,
        "has_played": true,
        "id": 28435168,
        "last_rank": 21628,
        "player_name": "Tasos Louka",
        "rank": 10506,
        "rank_sort": 10563,
        "total": 2397
      },
      {
        "club_badge_src": null,
        "entry": 4033970,
        "entry_name": "mchunlok",
        "event_total": 64,
        "has_played": true,
        "id": 30414944,
        "last_rank": 11237,
        "player_name": "Nick Mak",
        "rank": 10506,
        "rank_sort": 10564,
        "total": 2397
      },
      {
        "club_badge_src": null,
        "entry": 4090290,
        "entry_name": "Yoro Wissa Harry",
        "event_total": 62,
        "has_played": true,
        "id": 30881973,
        "last_rank": 12322,
        "player_name": "Paddy Smith",
        "rank": 10506,
        "rank_sort": 10565,
        "total": 2397
      },
      {
        "club_badge_src": null,
        "entry": 4329056,
        "entry_name": "Eybye",
        "event_total": 66,
        "has_played": true,
        "id": 32859207,
        "last_rank": 14370,
        "player_name": "Andreas Eybye",
        "rank": 10506,
        "rank_sort": 10566,
        "total": 2397
      },
      {
        "club_badge_src": null,
        "entry": 4464670,
        "entry_name": "Angel De Ligt",
        "event_total": 40,
        "has_played": true,
        "id": 34016537,
        "last_rank": 4804,
        "player_name": "Matthew Ratcliff",
        "rank": 10506,
        "rank_sort": 10567,
        "total": 2397
      },
      {
        "club_badge_src": null,
        "entry": 4627532,
        "entry_name": "Sesko Express",
        "event_total": 56,
        "has_played": true,
        "id": 35379976,
        "last_rank": 8032,
        "player_name": "Charlie Winborne",
        "rank": 10506,
        "rank_sort": 10568,
        "total": 2397
      },
      {
        "club_badge_src": null,
        "entry": 4759567,
        "entry_name": "60 m down the drain",
        "event_total": 86,
        "has_played": true,
        "id": 36629130,
        "last_rank": 25776,
        "player_name": "Felix Bischoff",
        "rank": 10506,
        "rank_sort": 10569,
        "total": 2397
      },
      {
        "club_badge_src": null,
        "entry": 4767379,
        "entry_name": "rooneytunes",
        "event_total": 70,
        "has_played": true,
        "id": 36691780,
        "last_rank": 16959,
        "player_name": "Akhil Gulati",
        "rank": 10506,
        "rank_sort": 10570,
        "total": 2397
      },
      {
        "club_badge_src": null,
        "entry": 5175019,
        "entry_name": "shiver me timber(s)",
        "event_total": 44,
        "has_played": true,
        "id": 40054462,
        "last_rank": 5752,
        "player_name": "Tom Parker",
        "rank": 10506,
        "rank_sort": 10571,
        "total": 2397
      },
      {
        "club_badge_src": null,
        "entry": 5470682,
        "entry_name": "Mi\u010d\u00e9go Svratka",
        "event_total": 47,
        "has_played": true,
        "id": 42583765,
        "last_rank": 6528,
        "player_name": "Josef Jandert",
        "rank": 10506,
        "rank_sort": 10572,
        "total": 2397
      },
      {
        "club_badge_src": null,
        "entry": 5705584,
        "entry_name": "Saka Potatoes",
        "event_total": 67,
        "has_played": true,
        "id": 44675517,
        "last_rank": 14857,
        "player_name": "Mikel 2.0",
        "rank": 10506,
        "rank_sort": 10573,
        "total": 2397
      },
      {
        "club_badge_src": null,
        "entry": 6008679,
        "entry_name": "WF",
        "event_total": 50,
        "has_played": true,
        "id": 47375067,
        "last_rank": 7450,
        "player_name": "William Frearson",
        "rank": 10506,
        "rank_sort": 10574,
        "total": 2397
      },
      {
        "club_badge_src": null,
        "entry": 6074665,
        "entry_name": "Eze now",
        "event_total": 47,
        "has_played": true,
        "id": 47955188,
        "last_rank": 6528,
        "player_name": "Ben Witley",
        "rank": 10506,
        "rank_sort": 10575,
        "total": 2397
      },
      {
        "club_badge_src": null,
        "entry": 6282908,
        "entry_name": "Butchers FC",
        "event_total": 64,
        "has_played": true,
        "id": 49764113,
        "last_rank": 13257,
        "player_name": "Christopher Low",
        "rank": 10506,
        "rank_sort": 10576,
        "total": 2397
      },
      {
        "club_badge_src": null,
        "entry": 6346986,
        "entry_name": "Manning The Fort",
        "event_total": 58,
        "has_played": true,
        "id": 50451186,
        "last_rank": 10346,
        "player_name": "Aarron Chapman",
        "rank": 10506,
        "rank_sort": 10577,
        "total": 2397
      },
      {
        "club_badge_src": "https://fantasy.premierleague.com/gcs/plfpl-production-adobe-approved/plfpl-production/6688132/49d46e3a-50e3-406f-bd12-1e0d9f392b09.png",
        "entry": 6688132,
        "entry_name": "Scout reports FC",
        "event_total": 59,
        "has_played": true,
        "id": 53504018,
        "last_rank": 10805,
        "player_name": "Luis Borja",
        "rank": 10506,
        "rank_sort": 10578,
        "total": 2397
      },
      {
        "club_badge_src": null,
        "entry": 7190236,
        "entry_name": "Amorim's Tricky Reds",
        "event_total": 59,
        "has_played": true,
        "id": 58041973,
        "last_rank": 9089,
        "player_name": "Matty Cole",
        "rank": 10506,
        "rank_sort": 10579,
        "total": 2397
      },
      {
        "club_badge_src": null,
        "entry": 7507719,
        "entry_name": "Red devils",
        "event_total": 80,
        "has_played": true,
        "id": 61370403,
        "last_rank": 24330,
        "player_name": "Dev Shah",
        "rank": 10506,
        "rank_sort": 10580,
        "total": 2397
      },
      {
        "club_badge_src": null,
        "entry": 8245158,
        "entry_name": "Back of the net",
        "event_total": 59,
        "has_played": true,
        "id": 68177163,
        "last_rank": 10748,
        "player_name": "Michael Owens",
        "rank": 10506,
        "rank_sort": 10581,
        "total": 2397
      },
      {
        "club_badge_src": null,
        "entry": 8684276,
        "entry_name": "Absolutely Fabregas",
        "event_total": 58,
        "has_played": true,
        "id": 72426792,
        "last_rank": 10288,
        "player_name": "Ronny Grunnan Skar",
        "rank": 10506,
        "rank_sort": 10582,
        "total": 2397
      },
      {
        "club_badge_src": null,
        "entry": 8831419,
        "entry_name": "Palace in Wonderland",
        "event_total": 45,
        "has_played": true,
        "id": 73846473,
        "last_rank": 6011,
        "player_name": "Jeanette Kay",
        "rank": 10506,
        "rank_sort": 10583,
        "total": 2397
      },
      {
        "club_badge_src": null,
        "entry": 1016,
        "entry_name": "Ku\u017ania Jawor",
        "event_total": 56,
        "has_played": true,
        "id": 5633,
        "last_rank": 8138,
        "player_name": "Micha\u0142 Wo\u017aniak",
        "rank": 10584,
        "rank_sort": 10584,
        "total": 2397
      },
      {
        "club_badge_src": null,
        "entry": 12118,
        "entry_name": "School of Science",
        "event_total": 66,
        "has_played": true,
        "id": 72308,
        "last_rank": 14496,
        "player_name": "Dale Pointer",
        "rank": 10584,
        "rank_sort": 10585,
        "total": 2397
      },
      {
        "club_badge_src": null,
        "entry": 13657,
        "entry_name": "Kara5ana FC",
        "event_total": 63,
        "has_played": true,
        "id": 82616,
        "last_rank": 12940,
        "player_name": "Abd-Elrahman Mohamed",
        "rank": 10584,
        "rank_sort": 10586,
        "total": 2397
      },
      {
        "club_badge_src": null,
        "entry": 18971,
        "entry_name": "Optimisation04FC",
        "event_total": 62,
        "has_played": true,
        "id": 118074,
        "last_rank": 10462,
        "player_name": "Kamwere Kamwere",
        "rank": 10584,
        "rank_sort": 10587,
        "total": 2397
      },
      {
        "club_badge_src": null,
        "entry": 32771,
        "entry_name": "Marlan's lads",
        "event_total": 44,
        "has_played": true,
        "id": 208622,
        "last_rank": 4804,
        "player_name": "Marlan Chetty",
        "rank": 10584,
        "rank_sort": 10588,
        "total": 2397
      },
      {
        "club_badge_src": "https://fantasy.premierleague.com/gcs/plfpl-production-adobe-approved/plfpl-production/42644/703eed44-118b-4b8a-ac04-51f48c9e77da.png",
        "entry": 42644,
        "entry_name": "Maronsters",
        "event_total": 58,
        "has_played": true,
        "id": 273196,
        "last_rank": 8854,
        "player_name": "Patrick Maron",
        "rank": 10584,
        "rank_sort": 10589,
        "total": 2397
      },
      {
        "club_badge_src": null,
        "entry": 49331,
        "entry_name": "Haven't got a Kulu",
        "event_total": 55,
        "has_played": true,
        "id": 317080,
        "last_rank": 9248,
        "player_name": "Conor McDonnell",
        "rank": 10584,
        "rank_sort": 10590,
        "total": 2397
      },
      {
        "club_badge_src": null,
        "entry": 54979,
        "entry_name": "AHH FC",
        "event_total": 64,
        "has_played": true,
        "id": 353835,
        "last_rank": 11345,
        "player_name": "Hui Hao Ang",
        "rank": 10584,
        "rank_sort": 10591,
        "total": 2397
      },
      {
        "club_badge_src": null,
        "entry": 111159,
        "entry_name": "Ekitike-taka",
        "event_total": 63,
        "has_played": true,
        "id": 724866,
        "last_rank": 10805,
        "player_name": "Billy Dorrell",
        "rank": 10584,
        "rank_sort": 10592,
        "total": 2397
      },
      {
        "club_badge_src": null,
        "entry": 179369,
        "entry_name": "salt&vindur",
        "event_total": 63,
        "has_played": true,
        "id": 1183696,
        "last_rank": 12940,
        "player_name": "Hilmar Halldorsson",
        "rank": 10584,
        "rank_sort": 10593,
        "total": 2397
      },
      {
        "club_badge_src": "https://fantasy.premierleague.com/gcs/plfpl-production-adobe-approved/plfpl-production/207503/41ddd9e0-974b-4fbb-a75c-e443568cb39d.png",
        "entry": 207503,
        "entry_name": "Aggy Young Boys",
        "event_total": 73,
        "has_played": true,
        "id": 1379275,
        "last_rank": 18985,
        "player_name": "ethan rogers",
        "rank": 10584,
        "rank_sort": 10594,
        "total": 2397
      },
      {
        "club_badge_src": null,
        "entry": 217250,
        "entry_name": "HASiL",
        "event_total": 65,
        "has_played": true,
        "id": 1444852,
        "last_rank": 13947,
        "player_name": "Tax Collector",
        "rank": 10584,
        "rank_sort": 10595,
        "total": 2397
      },
      {
        "club_badge_src": null,
        "entry": 254042,
        "entry_name": "Replegats",
        "event_total": 67,
        "has_played": true,
        "id": 1689924,
        "last_rank": 10805,
        "player_name": "Edu Murcia",
        "rank": 10584,
        "rank_sort": 10596,
        "total": 2397
      },
      {
        "club_badge_src": null,
        "entry": 469514,
        "entry_name": "FC Boozy",
        "event_total": 44,
        "has_played": true,
        "id": 3151551,
        "last_rank": 4804,
        "player_name": "Sean Gleeson",
        "rank": 10584,
        "rank_sort": 10597,
        "total": 2397
      },
      {
        "club_badge_src": null,
        "entry": 559995,
        "entry_name": "Premier League",
        "event_total": 76,
        "has_played": true,
        "id": 3769185,
        "last_rank": 20888,
        "player_name": "Frederik Pouls",
        "rank": 10584,
        "rank_sort": 10598,
        "total": 2397
      },
      {
        "club_badge_src": null,
        "entry": 630393,
        "entry_name": "Mo had my Salad",
        "event_total": 55,
        "has_played": true,
        "id": 4259854,
        "last_rank": 7761,
        "player_name": "Alen Vrhovski",
        "rank": 10584,
        "rank_sort": 10599,
        "total": 2397
      },
      {
        "club_badge_src": null,
        "entry": 930212,
        "entry_name": "Bruno Fernandes",
        "event_total": 69,
        "has_played": true,
        "id": 6400478,
        "last_rank": 16320,
        "player_name": "wiyoy niyomrat",
        "rank": 10584,
        "rank_sort": 10600,
        "total": 2397
      }
    ]
  }
}