{
  "last_updated_data": "2026-05-24T23:28:17Z",
  "league": {
    "admin_entry": null,
    "closed": false,
    "code_privacy": "p",
    "created": "2025-07-20T23:14:33.933835Z",
    "cup_league": 2815434,
    "has_cup": true,
    "id": 314,
    "league_type": "s",
    "max_entries": null,
    "name": "Overall",
    "rank": null,
    "scoring": "c",
    "start_event": 1
  },
  "new_entries": {
    "has_next": false,
    "page": 1,
    "results": []
  },
  "standings": {
    "has_next": true,
    "page": 1485,
    "results": [
      {
        "club_badge_src": null,
        "entry": 3691476,
        "entry_name": "Usefulmen194",
        "event_total": 74,
        "has_played": true,
        "id": 27539207,
        "last_rank": 106259,
        "player_name": "Matthew Leung",
        "rank": 73983,
        "rank_sort": 74201,
        "total": 2338
      },
      {
        "club_badge_src": null,
        "entry": 3708935,
        "entry_name": "Podunk Ipsunk LaDeDa",
        "event_total": 48,
        "has_played": true,
        "id": 27674875,
        "last_rank": 58388,
        "player_name": "Paul Brookman",
        "rank": 73983,
        "rank_sort": 74202,
        "total": 2338
      },
      {
        "club_badge_src": null,
        "entry": 3723403,
        "entry_name": "Artetagbowai",
        "event_total": 72,
        "has_played": true,
        "id": 27787833,
        "last_rank": 112591,
        "player_name": "Ugwu Kosisochukwu",
        "rank": 73983,
        "rank_sort": 74203,
        "total": 2338
      },
      {
        "club_badge_src": null,
        "entry": 3724285,
        "entry_name": "Mas Academy",
        "event_total": 69,
        "has_played": true,
        "id": 27794806,
        "last_rank": 104388,
        "player_name": "M\u00e1s Alhassan",
        "rank": 73983,
        "rank_sort": 74204,
        "total": 2338
      },
      {
        "club_badge_src": null,
        "entry": 3804443,
        "entry_name": "Joey",
        "event_total": 54,
        "has_played": true,
        "id": 28442371,
        "last_rank": 61606,
        "player_name": "Joe Lunt",
        "rank": 73983,
        "rank_sort": 74205,
        "total": 2338
      },
      {
        "club_badge_src": null,
        "entry": 3804767,
        "entry_name": "Sayer Neverlusen",
        "event_total": 69,
        "has_played": true,
        "id": 28445115,
        "last_rank": 103978,
        "player_name": "Sam Sayer",
        "rank": 73983,
        "rank_sort": 74206,
        "total": 2338
      },
      {
        "club_badge_src": null,
        "entry": 3835105,
        "entry_name": "Rash Decisions",
        "event_total": 41,
        "has_played": true,
        "id": 28695127,
        "last_rank": 47163,
        "player_name": "Shaun Hargreaves",
        "rank": 73983,
        "rank_sort": 74207,
        "total": 2338
      },
      {
        "club_badge_src": null,
        "entry": 3836586,
        "entry_name": "4 Lads Had A Dream",
        "event_total": 67,
        "has_played": true,
        "id": 28713544,
        "last_rank": 98436,
        "player_name": "Iain Walker",
        "rank": 73983,
        "rank_sort": 74208,
        "total": 2338
      },
      {
        "club_badge_src": "https://fantasy.premierleague.com/gcs/plfpl-production-adobe-approved/plfpl-production/3842331/ffa23690-e658-4b49-8e59-ca549880baa1.png",
        "entry": 3842331,
        "entry_name": "FC Prokopenko",
        "event_total": 54,
        "has_played": true,
        "id": 28785283,
        "last_rank": 68957,
        "player_name": "Prokop Plawny",
        "rank": 73983,
        "rank_sort": 74209,
        "total": 2338
      },
      {
        "club_badge_src": null,
        "entry": 3848528,
        "entry_name": "ToonArmy",
        "event_total": 59,
        "has_played": true,
        "id": 28847719,
        "last_rank": 80194,
        "player_name": "Conor Logan",
        "rank": 73983,
        "rank_sort": 74210,
        "total": 2338
      },
      {
        "club_badge_src": null,
        "entry": 3860269,
        "entry_name": "Useless Cunhas",
        "event_total": 44,
        "has_played": true,
        "id": 28943036,
        "last_rank": 51720,
        "player_name": "Ashley Portlock",
        "rank": 73983,
        "rank_sort": 74211,
        "total": 2338
      },
      {
        "club_badge_src": null,
        "entry": 3959892,
        "entry_name": "The Crafty Stuntmen",
        "event_total": 60,
        "has_played": true,
        "id": 29793393,
        "last_rank": 82069,
        "player_name": "Mark Cooke",
        "rank": 73983,
        "rank_sort": 74212,
        "total": 2338
      },
      {
        "club_badge_src": null,
        "entry": 3979744,
        "entry_name": "Beanie FC",
        "event_total": 61,
        "has_played": true,
        "id": 29957000,
        "last_rank": 84360,
        "player_name": "Ali Talib",
        "rank": 73983,
        "rank_sort": 74213,
        "total": 2338
      },
      {
        "club_badge_src": null,
        "entry": 4007562,
        "entry_name": "zubizubizoo",
        "event_total": 60,
        "has_played": true,
        "id": 30189809,
        "last_rank": 82069,
        "player_name": "ciaran cooke",
        "rank": 73983,
        "rank_sort": 74214,
        "total": 2338
      },
      {
        "club_badge_src": null,
        "entry": 4019473,
        "entry_name": "Kroos Control",
        "event_total": 47,
        "has_played": true,
        "id": 30293296,
        "last_rank": 56369,
        "player_name": "Imran Malik",
        "rank": 73983,
        "rank_sort": 74215,
        "total": 2338
      },
      {
        "club_badge_src": null,
        "entry": 4189802,
        "entry_name": "A Bit of Fun",
        "event_total": 70,
        "has_played": true,
        "id": 31704362,
        "last_rank": 106259,
        "player_name": "Ian Rutherford",
        "rank": 73983,
        "rank_sort": 74216,
        "total": 2338
      },
      {
        "club_badge_src": null,
        "entry": 4298708,
        "entry_name": "marwan SB",
        "event_total": 56,
        "has_played": true,
        "id": 32611832,
        "last_rank": 73423,
        "player_name": "Marwan Saber",
        "rank": 73983,
        "rank_sort": 74217,
        "total": 2338
      },
      {
        "club_badge_src": null,
        "entry": 4320867,
        "entry_name": "Frimpingpong",
        "event_total": 73,
        "has_played": true,
        "id": 32791485,
        "last_rank": 115057,
        "player_name": "Sam Abbott",
        "rank": 73983,
        "rank_sort": 74218,
        "total": 2338
      },
      {
        "club_badge_src": null,
        "entry": 4384873,
        "entry_name": "Foreveryoung85",
        "event_total": 69,
        "has_played": true,
        "id": 33329130,
        "last_rank": 103978,
        "player_name": "paul Kennedy",
        "rank": 73983,
        "rank_sort": 74219,
        "total": 2338
      },
      {
        "club_badge_src": null,
        "entry": 4542910,
        "entry_name": "Cunha Believe It?",
        "event_total": 51,
        "has_played": true,
        "id": 34659074,
        "last_rank": 63724,
        "player_name": "Josh Magill",
        "rank": 73983,
        "rank_sort": 74220,
        "total": 2338
      },
      {
        "club_badge_src": null,
        "entry": 4553957,
        "entry_name": "nutty for  gooners",
        "event_total": 52,
        "has_played": true,
        "id": 34747806,
        "last_rank": 58071,
        "player_name": "Aliabbas Bhamani",
        "rank": 73983,
        "rank_sort": 74221,
        "total": 2338
      },
      {
        "club_badge_src": "https://fantasy.premierleague.com/gcs/plfpl-production-adobe-approved/plfpl-production/4583546/df05fe08-06a9-4d1a-8ac1-1901f88fa8cc.png",
        "entry": 4583546,
        "entry_name": "Man Chest Hair FC",
        "event_total": 49,
        "has_played": true,
        "id": 34992974,
        "last_rank": 60168,
        "player_name": "Jacques Myburgh",
        "rank": 73983,
        "rank_sort": 74222,
        "total": 2338
      },
      {
        "club_badge_src": null,
        "entry": 4606376,
        "entry_name": "12th Again",
        "event_total": 68,
        "has_played": true,
        "id": 35194163,
        "last_rank": 91006,
        "player_name": "Fin Smith",
        "rank": 73983,
        "rank_sort": 74223,
        "total": 2338
      },
      {
        "club_badge_src": null,
        "entry": 4611240,
        "entry_name": "tickle monster",
        "event_total": 58,
        "has_played": true,
        "id": 35236046,
        "last_rank": 77676,
        "player_name": "Louis Palmer",
        "rank": 73983,
        "rank_sort": 74224,
        "total": 2338
      },
      {
        "club_badge_src": null,
        "entry": 4726301,
        "entry_name": "Atomic Gittens",
        "event_total": 37,
        "has_played": true,
        "id": 36332536,
        "last_rank": 41824,
        "player_name": "Finlay Stone",
        "rank": 73983,
        "rank_sort": 74225,
        "total": 2338
      },
      {
        "club_badge_src": null,
        "entry": 4732957,
        "entry_name": "Pking",
        "event_total": 61,
        "has_played": true,
        "id": 36413742,
        "last_rank": 84360,
        "player_name": "Peter Kinyanjui",
        "rank": 73983,
        "rank_sort": 74226,
        "total": 2338
      },
      {
        "club_badge_src": null,
        "entry": 4787595,
        "entry_name": "Goals R us",
        "event_total": 55,
        "has_played": true,
        "id": 36856768,
        "last_rank": 63390,
        "player_name": "Chris Miller",
        "rank": 73983,
        "rank_sort": 74227,
        "total": 2338
      },
      {
        "club_badge_src": null,
        "entry": 4843645,
        "entry_name": "S.Hunt42",
        "event_total": 52,
        "has_played": true,
        "id": 37313343,
        "last_rank": 65163,
        "player_name": "Robin D",
        "rank": 73983,
        "rank_sort": 74228,
        "total": 2338
      },
      {
        "club_badge_src": null,
        "entry": 4870597,
        "entry_name": "GuZ",
        "event_total": 46,
        "has_played": true,
        "id": 37541793,
        "last_rank": 55014,
        "player_name": "Gustav Grahn",
        "rank": 73983,
        "rank_sort": 74229,
        "total": 2338
      },
      {
        "club_badge_src": null,
        "entry": 4873567,
        "entry_name": "Salomon LongSlongs",
        "event_total": 60,
        "has_played": true,
        "id": 37566678,
        "last_rank": 72815,
        "player_name": "Kev McKenna",
        "rank": 73983,
        "rank_sort": 74230,
        "total": 2338
      },
      {
        "club_badge_src": null,
        "entry": 4873714,
        "entry_name": "Kinder Mbeumo",
        "event_total": 51,
        "has_played": true,
        "id": 37567863,
        "last_rank": 63724,
        "player_name": "Brian Butler",
        "rank": 73983,
        "rank_sort": 74231,
        "total": 2338
      },
      {
        "club_badge_src": null,
        "entry": 4927283,
        "entry_name": "Kinder Mbeumo",
        "event_total": 76,
        "has_played": true,
        "id": 38006867,
        "last_rank": 123422,
        "player_name": "Tom Fisher",
        "rank": 73983,
        "rank_sort": 74232,
        "total": 2338
      },
      {
        "club_badge_src": null,
        "entry": 4956751,
        "entry_name": "newbie",
        "event_total": 46,
        "has_played": true,
        "id": 38249432,
        "last_rank": 55014,
        "player_name": "Hilde Johanne Johnsen",
        "rank": 73983,
        "rank_sort": 74233,
        "total": 2338
      },
      {
        "club_badge_src": null,
        "entry": 4996983,
        "entry_name": "May I be excused",
        "event_total": 56,
        "has_played": true,
        "id": 38583920,
        "last_rank": 73423,
        "player_name": "Ian Forbes",
        "rank": 73983,
        "rank_sort": 74234,
        "total": 2338
      },
      {
        "club_badge_src": null,
        "entry": 5055393,
        "entry_name": "Fee-zy does it",
        "event_total": 56,
        "has_played": true,
        "id": 39061677,
        "last_rank": 73423,
        "player_name": "Fiona Sweeney",
        "rank": 73983,
        "rank_sort": 74235,
        "total": 2338
      },
      {
        "club_badge_src": null,
        "entry": 5148286,
        "entry_name": "FreeThai& CheltBet",
        "event_total": 55,
        "has_played": true,
        "id": 39829081,
        "last_rank": 71386,
        "player_name": "Matt Wignall",
        "rank": 73983,
        "rank_sort": 74236,
        "total": 2338
      },
      {
        "club_badge_src": null,
        "entry": 5169925,
        "entry_name": "Rubber Digne Rapids",
        "event_total": 64,
        "has_played": true,
        "id": 40012157,
        "last_rank": 91466,
        "player_name": "Lew Proctor",
        "rank": 73983,
        "rank_sort": 74237,
        "total": 2338
      },
      {
        "club_badge_src": null,
        "entry": 5181309,
        "entry_name": "Snoop Udogie Dogg",
        "event_total": 40,
        "has_played": true,
        "id": 40105879,
        "last_rank": 45714,
        "player_name": "Russell Leitch",
        "rank": 73983,
        "rank_sort": 74238,
        "total": 2338
      },
      {
        "club_badge_src": null,
        "entry": 5184236,
        "entry_name": "Lallanas in Pyjamas",
        "event_total": 70,
        "has_played": true,
        "id": 40129930,
        "last_rank": 106763,
        "player_name": "Felix Ulmer",
        "rank": 73983,
        "rank_sort": 74239,
        "total": 2338
      },
      {
        "club_badge_src": null,
        "entry": 5262695,
        "entry_name": "Sam Fc",
        "event_total": 38,
        "has_played": true,
        "id": 40788636,
        "last_rank": 37589,
        "player_name": "Osama Hasan",
        "rank": 73983,
        "rank_sort": 74240,
        "total": 2338
      },
      {
        "club_badge_src": null,
        "entry": 5317022,
        "entry_name": "Tasy25/26",
        "event_total": 70,
        "has_played": true,
        "id": 41216945,
        "last_rank": 105963,
        "player_name": "zibbon khadka",
        "rank": 73983,
        "rank_sort": 74241,
        "total": 2338
      },
      {
        "club_badge_src": null,
        "entry": 5318133,
        "entry_name": "Reggae Boyz",
        "event_total": 56,
        "has_played": true,
        "id": 41225824,
        "last_rank": 65163,
        "player_name": "Callum Armstrong",
        "rank": 73983,
        "rank_sort": 74242,
        "total": 2338
      },
      {
        "club_badge_src": null,
        "entry": 5417381,
        "entry_name": "Sylva AI",
        "event_total": 61,
        "has_played": true,
        "id": 42131675,
        "last_rank": 84360,
        "player_name": "Egbo Chinonso",
        "rank": 73983,
        "rank_sort": 74243,
        "total": 2338
      },
      {
        "club_badge_src": null,
        "entry": 5449250,
        "entry_name": "Howes the Bacon",
        "event_total": 63,
        "has_played": true,
        "id": 42401532,
        "last_rank": 88594,
        "player_name": "Ben Ramsay",
        "rank": 73983,
        "rank_sort": 74244,
        "total": 2338
      },
      {
        "club_badge_src": null,
        "entry": 5482192,
        "entry_name": "Graham's Gooners",
        "event_total": 40,
        "has_played": true,
        "id": 42685113,
        "last_rank": 45714,
        "player_name": "P T",
        "rank": 73983,
        "rank_sort": 74245,
        "total": 2338
      },
      {
        "club_badge_src": "https://fantasy.premierleague.com/gcs/plfpl-production-adobe-approved/plfpl-production/5528753/2e9c3b3b-3d2b-4f15-93bf-6c4fd62b9bef.png",
        "entry": 5528753,
        "entry_name": "Nh\u1eadt Ti\u00ean Sinh",
        "event_total": 69,
        "has_played": true,
        "id": 43123292,
        "last_rank": 103978,
        "player_name": "Nh\u1eadt Tr\u1ea7n",
        "rank": 73983,
        "rank_sort": 74246,
        "total": 2338
      },
      {
        "club_badge_src": "https://fantasy.premierleague.com/gcs/plfpl-production-adobe-approved/plfpl-production/5567536/2523f27e-cdfe-488a-a585-834757e5401a.png",
        "entry": 5567536,
        "entry_name": "Who says I'm Guehi?",
        "event_total": 49,
        "has_played": true,
        "id": 43472288,
        "last_rank": 60462,
        "player_name": "Aidan Adam",
        "rank": 73983,
        "rank_sort": 74247,
        "total": 2338
      },
      {
        "club_badge_src": null,
        "entry": 5569902,
        "entry_name": "Gunners FC",
        "event_total": 65,
        "has_played": true,
        "id": 43492875,
        "last_rank": 93883,
        "player_name": "Anders Henriksen",
        "rank": 73983,
        "rank_sort": 74248,
        "total": 2338
      },
      {
        "club_badge_src": null,
        "entry": 5644092,
        "entry_name": "FC Impulsive",
        "event_total": 50,
        "has_played": true,
        "id": 44143874,
        "last_rank": 61606,
        "player_name": "Moric De Lombaert",
        "rank": 73983,
        "rank_sort": 74249,
        "total": 2338
      },
      {
        "club_badge_src": null,
        "entry": 5670618,
        "entry_name": "Deadline Daydreamers",
        "event_total": 61,
        "has_played": true,
        "id": 44374850,
        "last_rank": 83934,
        "player_name": "IKAY Ofoegbu",
        "rank": 73983,
        "rank_sort": 74250,
        "total": 2338
      }
    ]
  }
}