{
  "last_updated_data": "2026-05-24T23:28:17Z",
  "league": {
    "admin_entry": null,
    "closed": false,
    "code_privacy": "p",
    "created": "2025-07-20T23:14:33.933835Z",
    "cup_league": 2815434,
    "has_cup": true,
    "id": 314,
    "league_type": "s",
    "max_entries": null,
    "name": "Overall",
    "rank": null,
    "scoring": "c",
    "start_event": 1
  },
  "new_entries": {
    "has_next": false,
    "page": 1,
    "results": []
  },
  "standings": {
    "has_next": true,
    "page": 37,
    "results": [
      {
        "club_badge_src": null,
        "entry": 4086858,
        "entry_name": "Struttgart",
        "event_total": 43,
        "has_played": true,
        "id": 30854937,
        "last_rank": 782,
        "player_name": "Nick Strutt",
        "rank": 1801,
        "rank_sort": 1801,
        "total": 2436
      },
      {
        "club_badge_src": null,
        "entry": 6618334,
        "entry_name": "When Harry Met Salah",
        "event_total": 58,
        "has_played": true,
        "id": 52885248,
        "last_rank": 1664,
        "player_name": "Joshua Ballantine",
        "rank": 1801,
        "rank_sort": 1802,
        "total": 2436
      },
      {
        "club_badge_src": null,
        "entry": 51354,
        "entry_name": "Skorch FC",
        "event_total": 68,
        "has_played": true,
        "id": 330283,
        "last_rank": 2795,
        "player_name": "The Skorch",
        "rank": 1803,
        "rank_sort": 1803,
        "total": 2436
      },
      {
        "club_badge_src": null,
        "entry": 152891,
        "entry_name": "Drieslfc",
        "event_total": 68,
        "has_played": true,
        "id": 1003764,
        "last_rank": 2793,
        "player_name": "Dries Van Hoye",
        "rank": 1803,
        "rank_sort": 1804,
        "total": 2436
      },
      {
        "club_badge_src": null,
        "entry": 1673193,
        "entry_name": "Diego \"Miguel\" Ricio",
        "event_total": 53,
        "has_played": true,
        "id": 11714252,
        "last_rank": 1291,
        "player_name": "Patiphan Chomut",
        "rank": 1803,
        "rank_sort": 1805,
        "total": 2436
      },
      {
        "club_badge_src": null,
        "entry": 2539645,
        "entry_name": "Gyok'd and Loaded",
        "event_total": 77,
        "has_played": true,
        "id": 18200950,
        "last_rank": 4257,
        "player_name": "Ben Smyth",
        "rank": 1803,
        "rank_sort": 1806,
        "total": 2436
      },
      {
        "club_badge_src": "https://fantasy.premierleague.com/gcs/plfpl-production-adobe-approved/plfpl-production/6407736/585cf8c8-f3dd-4aa7-8b1b-b751979efbda.png",
        "entry": 6407736,
        "entry_name": "Shenaniguns Fc",
        "event_total": 66,
        "has_played": true,
        "id": 50987731,
        "last_rank": 2526,
        "player_name": "Ahmed Faisal",
        "rank": 1803,
        "rank_sort": 1807,
        "total": 2436
      },
      {
        "club_badge_src": null,
        "entry": 21258,
        "entry_name": "Solkysten FC",
        "event_total": 65,
        "has_played": true,
        "id": 133266,
        "last_rank": 2399,
        "player_name": "Marcus H\u00e5konsen",
        "rank": 1808,
        "rank_sort": 1808,
        "total": 2436
      },
      {
        "club_badge_src": null,
        "entry": 54813,
        "entry_name": "AARHUS GF XI",
        "event_total": 66,
        "has_played": true,
        "id": 352768,
        "last_rank": 2526,
        "player_name": "Kim Markward",
        "rank": 1808,
        "rank_sort": 1809,
        "total": 2436
      },
      {
        "club_badge_src": null,
        "entry": 70792,
        "entry_name": "Wilco XI",
        "event_total": 67,
        "has_played": true,
        "id": 459710,
        "last_rank": 2685,
        "player_name": "John Wilcock",
        "rank": 1808,
        "rank_sort": 1810,
        "total": 2436
      },
      {
        "club_badge_src": null,
        "entry": 87724,
        "entry_name": "PickfordPickfordOooo",
        "event_total": 45,
        "has_played": true,
        "id": 572170,
        "last_rank": 879,
        "player_name": "Philip Shiell",
        "rank": 1808,
        "rank_sort": 1811,
        "total": 2436
      },
      {
        "club_badge_src": "https://fantasy.premierleague.com/gcs/plfpl-production-adobe-approved/plfpl-production/93653/8026a377-ed33-4329-aa12-4a9b1c61c120.png",
        "entry": 93653,
        "entry_name": "Goal Diggers",
        "event_total": 66,
        "has_played": true,
        "id": 612004,
        "last_rank": 2553,
        "player_name": "Zochhuanawma Rokhum",
        "rank": 1808,
        "rank_sort": 1812,
        "total": 2436
      },
      {
        "club_badge_src": null,
        "entry": 232956,
        "entry_name": "Obvious Winners FC",
        "event_total": 64,
        "has_played": true,
        "id": 1549965,
        "last_rank": 2300,
        "player_name": "David Punter",
        "rank": 1808,
        "rank_sort": 1813,
        "total": 2436
      },
      {
        "club_badge_src": null,
        "entry": 588937,
        "entry_name": "Turkish Airlines",
        "event_total": 63,
        "has_played": true,
        "id": 3966242,
        "last_rank": 2174,
        "player_name": "Uros Ivanovic",
        "rank": 1808,
        "rank_sort": 1814,
        "total": 2436
      },
      {
        "club_badge_src": null,
        "entry": 1038858,
        "entry_name": "Williams Wanderers",
        "event_total": 85,
        "has_played": true,
        "id": 7189118,
        "last_rank": 6265,
        "player_name": "chris williams",
        "rank": 1808,
        "rank_sort": 1815,
        "total": 2436
      },
      {
        "club_badge_src": "https://fantasy.premierleague.com/gcs/plfpl-production-adobe-approved/plfpl-production/1073827/d2106938-125c-4948-afcd-147db55ea9d3.png",
        "entry": 1073827,
        "entry_name": "Union Saint-Elegance",
        "event_total": 68,
        "has_played": true,
        "id": 7434238,
        "last_rank": 2824,
        "player_name": "Max Eschmann",
        "rank": 1808,
        "rank_sort": 1816,
        "total": 2436
      },
      {
        "club_badge_src": null,
        "entry": 1098033,
        "entry_name": "Major League Saka",
        "event_total": 66,
        "has_played": true,
        "id": 7605553,
        "last_rank": 2526,
        "player_name": "Jonny Bowden",
        "rank": 1808,
        "rank_sort": 1817,
        "total": 2436
      },
      {
        "club_badge_src": null,
        "entry": 2399777,
        "entry_name": "Tbone",
        "event_total": 71,
        "has_played": true,
        "id": 17151402,
        "last_rank": 3227,
        "player_name": "Tyrone Pengelly",
        "rank": 1808,
        "rank_sort": 1818,
        "total": 2436
      },
      {
        "club_badge_src": null,
        "entry": 2465580,
        "entry_name": "Quid Pro Sanogo",
        "event_total": 65,
        "has_played": true,
        "id": 17636729,
        "last_rank": 2418,
        "player_name": "Erin Lynch",
        "rank": 1808,
        "rank_sort": 1819,
        "total": 2436
      },
      {
        "club_badge_src": null,
        "entry": 2551126,
        "entry_name": "Br\u00f6derna Brothers",
        "event_total": 73,
        "has_played": true,
        "id": 18290710,
        "last_rank": 3520,
        "player_name": "Simon Enqvist",
        "rank": 1808,
        "rank_sort": 1820,
        "total": 2436
      },
      {
        "club_badge_src": "https://fantasy.premierleague.com/gcs/plfpl-production-adobe-approved/plfpl-production/4556546/047c9e13-0207-470f-988c-53fb30536a25.png",
        "entry": 4556546,
        "entry_name": "MalaiBaal",
        "event_total": 75,
        "has_played": true,
        "id": 34768460,
        "last_rank": 3866,
        "player_name": "Abesh Munankarmi",
        "rank": 1808,
        "rank_sort": 1821,
        "total": 2436
      },
      {
        "club_badge_src": null,
        "entry": 5857161,
        "entry_name": "AbduallahFC",
        "event_total": 60,
        "has_played": true,
        "id": 45990220,
        "last_rank": 1880,
        "player_name": "Abduallah Hussien",
        "rank": 1808,
        "rank_sort": 1822,
        "total": 2436
      },
      {
        "club_badge_src": null,
        "entry": 6013420,
        "entry_name": "Timvalk",
        "event_total": 68,
        "has_played": true,
        "id": 47417086,
        "last_rank": 2802,
        "player_name": "Robert Van Der Valk",
        "rank": 1808,
        "rank_sort": 1823,
        "total": 2436
      },
      {
        "club_badge_src": null,
        "entry": 6043956,
        "entry_name": "Rae\u2019s Rockets",
        "event_total": 45,
        "has_played": true,
        "id": 47687179,
        "last_rank": 879,
        "player_name": "Oliver Rae",
        "rank": 1808,
        "rank_sort": 1824,
        "total": 2436
      },
      {
        "club_badge_src": null,
        "entry": 6711023,
        "entry_name": "\u00d8de Toilette",
        "event_total": 68,
        "has_played": true,
        "id": 53706293,
        "last_rank": 2802,
        "player_name": "Thomas Nagle",
        "rank": 1808,
        "rank_sort": 1825,
        "total": 2436
      },
      {
        "club_badge_src": null,
        "entry": 7121778,
        "entry_name": "au pays du saints",
        "event_total": 55,
        "has_played": true,
        "id": 57382867,
        "last_rank": 1452,
        "player_name": "Lester Alvis",
        "rank": 1808,
        "rank_sort": 1826,
        "total": 2436
      },
      {
        "club_badge_src": "https://fantasy.premierleague.com/gcs/plfpl-production-adobe-approved/plfpl-production/7433630/ab029ef4-deef-4283-b427-d655b258251c.png",
        "entry": 7433630,
        "entry_name": "What The Chloe Kelly",
        "event_total": 60,
        "has_played": true,
        "id": 60418065,
        "last_rank": 1880,
        "player_name": "Matt Harvey-Piper",
        "rank": 1808,
        "rank_sort": 1827,
        "total": 2436
      },
      {
        "club_badge_src": "https://fantasy.premierleague.com/gcs/plfpl-production-adobe-approved/plfpl-production/1521/ed2fdee6-a008-4483-8d7e-139d97d5d8c7.png",
        "entry": 1521,
        "entry_name": "schadenball.com",
        "event_total": 62,
        "has_played": true,
        "id": 8461,
        "last_rank": 1689,
        "player_name": "JD K",
        "rank": 1828,
        "rank_sort": 1828,
        "total": 2436
      },
      {
        "club_badge_src": "https://fantasy.premierleague.com/gcs/plfpl-production-adobe-approved/plfpl-production/10421/98c9f484-1eda-4dc3-a747-ff461fbfd594.png",
        "entry": 10421,
        "entry_name": "Yoro Wizard Bruno",
        "event_total": 67,
        "has_played": true,
        "id": 61625,
        "last_rank": 2174,
        "player_name": "Huss E",
        "rank": 1828,
        "rank_sort": 1829,
        "total": 2436
      },
      {
        "club_badge_src": null,
        "entry": 20212,
        "entry_name": "Calafiorication",
        "event_total": 59,
        "has_played": true,
        "id": 125905,
        "last_rank": 1797,
        "player_name": "Jack Martins",
        "rank": 1828,
        "rank_sort": 1830,
        "total": 2436
      },
      {
        "club_badge_src": null,
        "entry": 58707,
        "entry_name": "Define Insanity FC",
        "event_total": 61,
        "has_played": true,
        "id": 378114,
        "last_rank": 1609,
        "player_name": "Adam Stewart",
        "rank": 1828,
        "rank_sort": 1831,
        "total": 2436
      },
      {
        "club_badge_src": null,
        "entry": 64163,
        "entry_name": "Goalscoring CB FC",
        "event_total": 55,
        "has_played": true,
        "id": 414093,
        "last_rank": 1190,
        "player_name": "Luke Burberry",
        "rank": 1828,
        "rank_sort": 1832,
        "total": 2436
      },
      {
        "club_badge_src": null,
        "entry": 123647,
        "entry_name": "ITS DECENT",
        "event_total": 42,
        "has_played": true,
        "id": 806484,
        "last_rank": 594,
        "player_name": "Tyran Edgar",
        "rank": 1828,
        "rank_sort": 1833,
        "total": 2436
      },
      {
        "club_badge_src": null,
        "entry": 170095,
        "entry_name": "San Diego All-Stars",
        "event_total": 70,
        "has_played": true,
        "id": 1123872,
        "last_rank": 2526,
        "player_name": "mike pedretti",
        "rank": 1828,
        "rank_sort": 1834,
        "total": 2436
      },
      {
        "club_badge_src": null,
        "entry": 202384,
        "entry_name": "Shaffki Kuqi",
        "event_total": 61,
        "has_played": true,
        "id": 1344019,
        "last_rank": 2009,
        "player_name": "Rohan Shaffery",
        "rank": 1828,
        "rank_sort": 1835,
        "total": 2436
      },
      {
        "club_badge_src": null,
        "entry": 317711,
        "entry_name": "B-Laget",
        "event_total": 68,
        "has_played": true,
        "id": 2129620,
        "last_rank": 2870,
        "player_name": "Casper Hovland",
        "rank": 1828,
        "rank_sort": 1836,
        "total": 2436
      },
      {
        "club_badge_src": null,
        "entry": 412718,
        "entry_name": "Mohamed Nashaat",
        "event_total": 74,
        "has_played": true,
        "id": 2767089,
        "last_rank": 3721,
        "player_name": "Nashaat Team",
        "rank": 1828,
        "rank_sort": 1837,
        "total": 2436
      },
      {
        "club_badge_src": null,
        "entry": 441655,
        "entry_name": "Hast a l\u00e1 vista",
        "event_total": 70,
        "has_played": true,
        "id": 2961341,
        "last_rank": 3103,
        "player_name": "Jim Hast",
        "rank": 1828,
        "rank_sort": 1838,
        "total": 2436
      },
      {
        "club_badge_src": null,
        "entry": 468466,
        "entry_name": "Mo Salad",
        "event_total": 45,
        "has_played": true,
        "id": 3144028,
        "last_rank": 896,
        "player_name": "Dennis Hansen",
        "rank": 1828,
        "rank_sort": 1839,
        "total": 2436
      },
      {
        "club_badge_src": null,
        "entry": 933899,
        "entry_name": "Hamood_Madrid",
        "event_total": 60,
        "has_played": true,
        "id": 6426410,
        "last_rank": 1909,
        "player_name": "Mohammad Thabet",
        "rank": 1828,
        "rank_sort": 1840,
        "total": 2436
      },
      {
        "club_badge_src": "https://fantasy.premierleague.com/gcs/plfpl-production-adobe-approved/plfpl-production/1280365/e5846355-320d-4ad4-858e-865079fa20a1.png",
        "entry": 1280365,
        "entry_name": "Berrys bangors 3.0",
        "event_total": 47,
        "has_played": true,
        "id": 8896918,
        "last_rank": 980,
        "player_name": "Michael Berry",
        "rank": 1828,
        "rank_sort": 1841,
        "total": 2436
      },
      {
        "club_badge_src": null,
        "entry": 1549658,
        "entry_name": "Cornetto Cluster",
        "event_total": 61,
        "has_played": true,
        "id": 10819518,
        "last_rank": 1978,
        "player_name": "Connor Hardman",
        "rank": 1828,
        "rank_sort": 1842,
        "total": 2436
      },
      {
        "club_badge_src": null,
        "entry": 6789047,
        "entry_name": "vicks fc",
        "event_total": 63,
        "has_played": true,
        "id": 54365945,
        "last_rank": 2215,
        "player_name": "Ethan Vickers",
        "rank": 1828,
        "rank_sort": 1843,
        "total": 2436
      },
      {
        "club_badge_src": null,
        "entry": 6841951,
        "entry_name": "Vesa Vialli",
        "event_total": 48,
        "has_played": true,
        "id": 54809981,
        "last_rank": 825,
        "player_name": "Nenad Veselinovic",
        "rank": 1828,
        "rank_sort": 1844,
        "total": 2436
      },
      {
        "club_badge_src": null,
        "entry": 7469091,
        "entry_name": "Gy\u00f6k Tuah",
        "event_total": 62,
        "has_played": true,
        "id": 60883398,
        "last_rank": 2112,
        "player_name": "Will Dowie",
        "rank": 1828,
        "rank_sort": 1845,
        "total": 2436
      },
      {
        "club_badge_src": null,
        "entry": 7658622,
        "entry_name": "Controlled",
        "event_total": 59,
        "has_played": true,
        "id": 62794108,
        "last_rank": 1773,
        "player_name": "Con Kelleher",
        "rank": 1828,
        "rank_sort": 1846,
        "total": 2436
      },
      {
        "club_badge_src": null,
        "entry": 8061574,
        "entry_name": "Zero Admin",
        "event_total": 72,
        "has_played": true,
        "id": 66442542,
        "last_rank": 3442,
        "player_name": "Adrian Bond",
        "rank": 1828,
        "rank_sort": 1847,
        "total": 2436
      },
      {
        "club_badge_src": null,
        "entry": 8180563,
        "entry_name": "Driscoll FC",
        "event_total": 65,
        "has_played": true,
        "id": 67557132,
        "last_rank": 1978,
        "player_name": "Zak Driscoll",
        "rank": 1828,
        "rank_sort": 1848,
        "total": 2436
      },
      {
        "club_badge_src": null,
        "entry": 10386216,
        "entry_name": "SoggySeconds",
        "event_total": 64,
        "has_played": true,
        "id": 87890518,
        "last_rank": 2328,
        "player_name": "AI Alien",
        "rank": 1828,
        "rank_sort": 1849,
        "total": 2436
      },
      {
        "club_badge_src": null,
        "entry": 43863,
        "entry_name": "YAWN24",
        "event_total": 71,
        "has_played": true,
        "id": 280979,
        "last_rank": 3237,
        "player_name": "\u5341\u4e5d \u90ed",
        "rank": 1850,
        "rank_sort": 1850,
        "total": 2436
      }
    ]
  }
}