{
  "last_updated_data": "2026-05-24T23:28:17Z",
  "league": {
    "admin_entry": null,
    "closed": false,
    "code_privacy": "p",
    "created": "2025-07-20T23:14:33.933835Z",
    "cup_league": 2815434,
    "has_cup": true,
    "id": 314,
    "league_type": "s",
    "max_entries": null,
    "name": "Overall",
    "rank": null,
    "scoring": "c",
    "start_event": 1
  },
  "new_entries": {
    "has_next": false,
    "page": 1,
    "results": []
  },
  "standings": {
    "has_next": true,
    "page": 1628,
    "results": [
      {
        "club_badge_src": null,
        "entry": 2613598,
        "entry_name": "ABCDE FC",
        "event_total": 62,
        "has_played": true,
        "id": 18778606,
        "last_rank": 85207,
        "player_name": "Gerard Kelly",
        "rank": 81296,
        "rank_sort": 81351,
        "total": 2335
      },
      {
        "club_badge_src": null,
        "entry": 2614655,
        "entry_name": "AMADness",
        "event_total": 73,
        "has_played": true,
        "id": 18786374,
        "last_rank": 124961,
        "player_name": "Kieran Moane",
        "rank": 81296,
        "rank_sort": 81352,
        "total": 2335
      },
      {
        "club_badge_src": null,
        "entry": 2769926,
        "entry_name": "NotGenByAI",
        "event_total": 61,
        "has_played": true,
        "id": 20210069,
        "last_rank": 92332,
        "player_name": "James O'Connell",
        "rank": 81296,
        "rank_sort": 81353,
        "total": 2335
      },
      {
        "club_badge_src": null,
        "entry": 2872964,
        "entry_name": "football team",
        "event_total": 59,
        "has_played": true,
        "id": 21022289,
        "last_rank": 87710,
        "player_name": "Neil Wilson",
        "rank": 81296,
        "rank_sort": 81354,
        "total": 2335
      },
      {
        "club_badge_src": null,
        "entry": 2972516,
        "entry_name": "Major League Saka",
        "event_total": 55,
        "has_played": true,
        "id": 21840841,
        "last_rank": 62429,
        "player_name": "Manroop Panesar",
        "rank": 81296,
        "rank_sort": 81355,
        "total": 2335
      },
      {
        "club_badge_src": null,
        "entry": 2989158,
        "entry_name": "Petlja Crew",
        "event_total": 46,
        "has_played": true,
        "id": 21983072,
        "last_rank": 60933,
        "player_name": "Ivan Macura",
        "rank": 81296,
        "rank_sort": 81356,
        "total": 2335
      },
      {
        "club_badge_src": null,
        "entry": 3110844,
        "entry_name": "OffA7",
        "event_total": 61,
        "has_played": true,
        "id": 22955954,
        "last_rank": 92471,
        "player_name": "Moustafa Samir",
        "rank": 81296,
        "rank_sort": 81357,
        "total": 2335
      },
      {
        "club_badge_src": null,
        "entry": 3172838,
        "entry_name": "NHO Team",
        "event_total": 50,
        "has_played": true,
        "id": 23442849,
        "last_rank": 68107,
        "player_name": "Noradin Dikorat",
        "rank": 81296,
        "rank_sort": 81358,
        "total": 2335
      },
      {
        "club_badge_src": null,
        "entry": 3184874,
        "entry_name": "NIODIOR",
        "event_total": 64,
        "has_played": true,
        "id": 23535778,
        "last_rank": 99959,
        "player_name": "Mustapha Sillah",
        "rank": 81296,
        "rank_sort": 81359,
        "total": 2335
      },
      {
        "club_badge_src": null,
        "entry": 3284204,
        "entry_name": "Yinyin",
        "event_total": 72,
        "has_played": true,
        "id": 24310888,
        "last_rank": 122201,
        "player_name": "Alexander S\u00e6tre",
        "rank": 81296,
        "rank_sort": 81360,
        "total": 2335
      },
      {
        "club_badge_src": null,
        "entry": 3393282,
        "entry_name": "\u0627\u0644\u0645\u064a\u0643\u0633\u064a\u0643\u0649\u2764\ufe0f",
        "event_total": 71,
        "has_played": true,
        "id": 25191920,
        "last_rank": 119152,
        "player_name": "mohamed eid",
        "rank": 81296,
        "rank_sort": 81361,
        "total": 2335
      },
      {
        "club_badge_src": null,
        "entry": 3404400,
        "entry_name": "Chiks United",
        "event_total": 66,
        "has_played": true,
        "id": 25278379,
        "last_rank": 105264,
        "player_name": "Chikosa Chipili",
        "rank": 81296,
        "rank_sort": 81362,
        "total": 2335
      },
      {
        "club_badge_src": null,
        "entry": 3501052,
        "entry_name": "Ice cold",
        "event_total": 57,
        "has_played": true,
        "id": 26043692,
        "last_rank": 83018,
        "player_name": "Pranil Dutt",
        "rank": 81296,
        "rank_sort": 81363,
        "total": 2335
      },
      {
        "club_badge_src": null,
        "entry": 3639664,
        "entry_name": "No Salah-vation",
        "event_total": 48,
        "has_played": true,
        "id": 27124750,
        "last_rank": 64422,
        "player_name": "sigurgisli sigurgislason",
        "rank": 81296,
        "rank_sort": 81364,
        "total": 2335
      },
      {
        "club_badge_src": "https://fantasy.premierleague.com/gcs/plfpl-production-adobe-approved/plfpl-production/3754646/07c586da-21f0-4d39-8491-ee17f01015b3.png",
        "entry": 3754646,
        "entry_name": "Legendtown",
        "event_total": 61,
        "has_played": true,
        "id": 28032453,
        "last_rank": 92471,
        "player_name": "Medin Hasancevic",
        "rank": 81296,
        "rank_sort": 81365,
        "total": 2335
      },
      {
        "club_badge_src": null,
        "entry": 3879125,
        "entry_name": "S\u00f8rkedalen FC",
        "event_total": 57,
        "has_played": true,
        "id": 29146448,
        "last_rank": 74166,
        "player_name": "Lars Bj\u00f8rum",
        "rank": 81296,
        "rank_sort": 81366,
        "total": 2335
      },
      {
        "club_badge_src": null,
        "entry": 3883373,
        "entry_name": "Megler of the Match",
        "event_total": 75,
        "has_played": true,
        "id": 29179684,
        "last_rank": 131442,
        "player_name": "olav aske",
        "rank": 81296,
        "rank_sort": 81367,
        "total": 2335
      },
      {
        "club_badge_src": null,
        "entry": 3889669,
        "entry_name": "Whitethorn XI",
        "event_total": 60,
        "has_played": true,
        "id": 29229045,
        "last_rank": 89897,
        "player_name": "Brian Ponton",
        "rank": 81296,
        "rank_sort": 81368,
        "total": 2335
      },
      {
        "club_badge_src": null,
        "entry": 4006018,
        "entry_name": "Forever20FC",
        "event_total": 65,
        "has_played": true,
        "id": 30177092,
        "last_rank": 92126,
        "player_name": "Ben Lewis",
        "rank": 81296,
        "rank_sort": 81369,
        "total": 2335
      },
      {
        "club_badge_src": null,
        "entry": 4055772,
        "entry_name": "Munkdal",
        "event_total": 61,
        "has_played": true,
        "id": 30601982,
        "last_rank": 92471,
        "player_name": "Henrik Mundal",
        "rank": 81296,
        "rank_sort": 81370,
        "total": 2335
      },
      {
        "club_badge_src": null,
        "entry": 4259313,
        "entry_name": "Holy Boehly",
        "event_total": 63,
        "has_played": true,
        "id": 32292980,
        "last_rank": 87350,
        "player_name": "James Driver",
        "rank": 81296,
        "rank_sort": 81371,
        "total": 2335
      },
      {
        "club_badge_src": null,
        "entry": 4260778,
        "entry_name": "Slop AFC",
        "event_total": 61,
        "has_played": true,
        "id": 32305050,
        "last_rank": 82873,
        "player_name": "Jack Broadbent",
        "rank": 81296,
        "rank_sort": 81372,
        "total": 2335
      },
      {
        "club_badge_src": null,
        "entry": 4615573,
        "entry_name": "Peaky Reijnders",
        "event_total": 65,
        "has_played": true,
        "id": 35275711,
        "last_rank": 102501,
        "player_name": "Dilshan Sethi",
        "rank": 81296,
        "rank_sort": 81373,
        "total": 2335
      },
      {
        "club_badge_src": "https://fantasy.premierleague.com/gcs/plfpl-production-adobe-approved/plfpl-production/4677039/9f0e16b6-23ae-4c4e-9d6e-ddc42b9e34ac.png",
        "entry": 4677039,
        "entry_name": "AFC HURLOCK",
        "event_total": 38,
        "has_played": true,
        "id": 35831457,
        "last_rank": 41967,
        "player_name": "stuart prior",
        "rank": 81296,
        "rank_sort": 81374,
        "total": 2335
      },
      {
        "club_badge_src": null,
        "entry": 4752947,
        "entry_name": "Half The World (A)",
        "event_total": 59,
        "has_played": true,
        "id": 36574540,
        "last_rank": 78440,
        "player_name": "Andy Long",
        "rank": 81296,
        "rank_sort": 81375,
        "total": 2335
      },
      {
        "club_badge_src": null,
        "entry": 4839691,
        "entry_name": "MusherT",
        "event_total": 56,
        "has_played": true,
        "id": 37280755,
        "last_rank": 80651,
        "player_name": "COLM KIRRANE",
        "rank": 81296,
        "rank_sort": 81376,
        "total": 2335
      },
      {
        "club_badge_src": null,
        "entry": 5075575,
        "entry_name": "Pingpong Frimpong",
        "event_total": 30,
        "has_played": true,
        "id": 39226175,
        "last_rank": 37189,
        "player_name": "Eqra Mohammad Resalat Ohee",
        "rank": 81296,
        "rank_sort": 81377,
        "total": 2335
      },
      {
        "club_badge_src": "https://fantasy.premierleague.com/gcs/plfpl-production-adobe-approved/plfpl-production/5085099/f9ee8e6e-809f-44e8-b8e2-d7ec1241330b.png",
        "entry": 5085099,
        "entry_name": "Trabucos FC",
        "event_total": 53,
        "has_played": true,
        "id": 39301960,
        "last_rank": 74317,
        "player_name": "Javier Rivera",
        "rank": 81296,
        "rank_sort": 81378,
        "total": 2335
      },
      {
        "club_badge_src": "https://fantasy.premierleague.com/gcs/plfpl-production-adobe-approved/plfpl-production/5264080/db2188d6-9f06-48d4-ac64-2fe42e22152c.png",
        "entry": 5264080,
        "entry_name": "Veer Bajrangi F.C.",
        "event_total": 70,
        "has_played": true,
        "id": 40800069,
        "last_rank": 75139,
        "player_name": "Rajat Chauhan",
        "rank": 81296,
        "rank_sort": 81379,
        "total": 2335
      },
      {
        "club_badge_src": null,
        "entry": 5318437,
        "entry_name": "Your Wirtz Nightmare",
        "event_total": 56,
        "has_played": true,
        "id": 41228244,
        "last_rank": 80877,
        "player_name": "Bradley Cross",
        "rank": 81296,
        "rank_sort": 81380,
        "total": 2335
      },
      {
        "club_badge_src": null,
        "entry": 5389988,
        "entry_name": "Lundon Balling",
        "event_total": 34,
        "has_played": true,
        "id": 41903806,
        "last_rank": 42152,
        "player_name": "Dustin Lund",
        "rank": 81296,
        "rank_sort": 81381,
        "total": 2335
      },
      {
        "club_badge_src": null,
        "entry": 5400149,
        "entry_name": "Mitchs Magician's",
        "event_total": 45,
        "has_played": true,
        "id": 41987360,
        "last_rank": 59170,
        "player_name": "adam mitchell",
        "rank": 81296,
        "rank_sort": 81382,
        "total": 2335
      },
      {
        "club_badge_src": null,
        "entry": 5507245,
        "entry_name": "Ren\u00e9 Higuita",
        "event_total": 67,
        "has_played": true,
        "id": 42922655,
        "last_rank": 107866,
        "player_name": "Goran Bakic",
        "rank": 81296,
        "rank_sort": 81383,
        "total": 2335
      },
      {
        "club_badge_src": null,
        "entry": 5576693,
        "entry_name": "Haaland wonderland",
        "event_total": 70,
        "has_played": true,
        "id": 43551531,
        "last_rank": 75537,
        "player_name": "Melrick Aranha",
        "rank": 81296,
        "rank_sort": 81384,
        "total": 2335
      },
      {
        "club_badge_src": null,
        "entry": 5576897,
        "entry_name": "MegaGrevHater85",
        "event_total": 60,
        "has_played": true,
        "id": 43553180,
        "last_rank": 89897,
        "player_name": "Ryan Bell",
        "rank": 81296,
        "rank_sort": 81385,
        "total": 2335
      },
      {
        "club_badge_src": null,
        "entry": 5634950,
        "entry_name": "Yeah you?",
        "event_total": 57,
        "has_played": true,
        "id": 44061148,
        "last_rank": 83018,
        "player_name": "Jack Williamson",
        "rank": 81296,
        "rank_sort": 81386,
        "total": 2335
      },
      {
        "club_badge_src": null,
        "entry": 5685568,
        "entry_name": "It'll Bee Alright",
        "event_total": 67,
        "has_played": true,
        "id": 44504367,
        "last_rank": 107866,
        "player_name": "Alan Crawford",
        "rank": 81296,
        "rank_sort": 81387,
        "total": 2335
      },
      {
        "club_badge_src": null,
        "entry": 5961365,
        "entry_name": "Sleivdal fc",
        "event_total": 57,
        "has_played": true,
        "id": 46899367,
        "last_rank": 83018,
        "player_name": "Odd-Tore Skuggen",
        "rank": 81296,
        "rank_sort": 81388,
        "total": 2335
      },
      {
        "club_badge_src": null,
        "entry": 6017468,
        "entry_name": "Reece Lightning",
        "event_total": 66,
        "has_played": true,
        "id": 47453075,
        "last_rank": 105137,
        "player_name": "Harrison Raymond",
        "rank": 81296,
        "rank_sort": 81389,
        "total": 2335
      },
      {
        "club_badge_src": "https://fantasy.premierleague.com/gcs/plfpl-production-adobe-approved/plfpl-production/6047556/843b3b70-3c8e-4bd1-900b-3b775546ece8.png",
        "entry": 6047556,
        "entry_name": "MisterBluePants FC",
        "event_total": 70,
        "has_played": true,
        "id": 47718314,
        "last_rank": 116017,
        "player_name": "Bram van Dillen",
        "rank": 81296,
        "rank_sort": 81390,
        "total": 2335
      },
      {
        "club_badge_src": null,
        "entry": 6278460,
        "entry_name": "Underdogs",
        "event_total": 69,
        "has_played": true,
        "id": 49721824,
        "last_rank": 73423,
        "player_name": "Tochukwu Ekobay",
        "rank": 81296,
        "rank_sort": 81391,
        "total": 2335
      },
      {
        "club_badge_src": null,
        "entry": 6419273,
        "entry_name": "class on grass",
        "event_total": 72,
        "has_played": true,
        "id": 51091182,
        "last_rank": 121991,
        "player_name": "Salem Al Zaabi",
        "rank": 81296,
        "rank_sort": 81392,
        "total": 2335
      },
      {
        "club_badge_src": null,
        "entry": 6567070,
        "entry_name": "NoIdea FC",
        "event_total": 64,
        "has_played": true,
        "id": 52418945,
        "last_rank": 99806,
        "player_name": "Luke Simpson",
        "rank": 81296,
        "rank_sort": 81393,
        "total": 2335
      },
      {
        "club_badge_src": null,
        "entry": 6968171,
        "entry_name": "GXFC",
        "event_total": 68,
        "has_played": true,
        "id": 55891733,
        "last_rank": 99806,
        "player_name": "Clement Kng",
        "rank": 81296,
        "rank_sort": 81394,
        "total": 2335
      },
      {
        "club_badge_src": null,
        "entry": 6970022,
        "entry_name": "Almunia Saves",
        "event_total": 87,
        "has_played": true,
        "id": 55910206,
        "last_rank": 173493,
        "player_name": "JJ Stewart",
        "rank": 81296,
        "rank_sort": 81395,
        "total": 2335
      },
      {
        "club_badge_src": null,
        "entry": 7084496,
        "entry_name": "black eagle",
        "event_total": 59,
        "has_played": true,
        "id": 57029438,
        "last_rank": 87710,
        "player_name": "Ledi Kasa",
        "rank": 81296,
        "rank_sort": 81396,
        "total": 2335
      },
      {
        "club_badge_src": null,
        "entry": 7422831,
        "entry_name": "Slot Machine",
        "event_total": 61,
        "has_played": true,
        "id": 60275910,
        "last_rank": 92471,
        "player_name": "Itsurboyhass .",
        "rank": 81296,
        "rank_sort": 81397,
        "total": 2335
      },
      {
        "club_badge_src": null,
        "entry": 8046135,
        "entry_name": "Ibrahimovic",
        "event_total": 79,
        "has_played": true,
        "id": 66302268,
        "last_rank": 144462,
        "player_name": "Ibrahim Kasoaa 10",
        "rank": 81296,
        "rank_sort": 81398,
        "total": 2335
      },
      {
        "club_badge_src": null,
        "entry": 8175951,
        "entry_name": "Osama",
        "event_total": 61,
        "has_played": true,
        "id": 67512302,
        "last_rank": 92471,
        "player_name": "Osamah Aldhahri",
        "rank": 81296,
        "rank_sort": 81399,
        "total": 2335
      },
      {
        "club_badge_src": null,
        "entry": 8475484,
        "entry_name": "Musly",
        "event_total": 68,
        "has_played": true,
        "id": 70397243,
        "last_rank": 110709,
        "player_name": "Mari MUS",
        "rank": 81296,
        "rank_sort": 81400,
        "total": 2335
      }
    ]
  }
}