{
  "last_updated_data": "2026-05-24T23:28:17Z",
  "league": {
    "admin_entry": null,
    "closed": false,
    "code_privacy": "p",
    "created": "2025-07-20T23:14:33.933835Z",
    "cup_league": 2815434,
    "has_cup": true,
    "id": 314,
    "league_type": "s",
    "max_entries": null,
    "name": "Overall",
    "rank": null,
    "scoring": "c",
    "start_event": 1
  },
  "new_entries": {
    "has_next": false,
    "page": 1,
    "results": []
  },
  "standings": {
    "has_next": true,
    "page": 956,
    "results": [
      {
        "club_badge_src": null,
        "entry": 4191716,
        "entry_name": "Shaktiman FC",
        "event_total": 39,
        "has_played": true,
        "id": 31720745,
        "last_rank": 26710,
        "player_name": "Biram Shrestha",
        "rank": 47728,
        "rank_sort": 47751,
        "total": 2353
      },
      {
        "club_badge_src": null,
        "entry": 4305272,
        "entry_name": "Christmas Pie Rovers",
        "event_total": 61,
        "has_played": true,
        "id": 32664504,
        "last_rank": 54380,
        "player_name": "Dave Abrams",
        "rank": 47728,
        "rank_sort": 47752,
        "total": 2353
      },
      {
        "club_badge_src": null,
        "entry": 4416417,
        "entry_name": "Leikester City FC",
        "event_total": 54,
        "has_played": true,
        "id": 33599396,
        "last_rank": 43757,
        "player_name": "Leik Biribakken",
        "rank": 47728,
        "rank_sort": 47753,
        "total": 2353
      },
      {
        "club_badge_src": null,
        "entry": 4461064,
        "entry_name": "Sporting Cricklewood",
        "event_total": 62,
        "has_played": true,
        "id": 33987134,
        "last_rank": 56069,
        "player_name": "Lino Nunes",
        "rank": 47728,
        "rank_sort": 47754,
        "total": 2353
      },
      {
        "club_badge_src": null,
        "entry": 4638828,
        "entry_name": "Thisishisyear",
        "event_total": 62,
        "has_played": true,
        "id": 35476362,
        "last_rank": 56099,
        "player_name": "Kenneth Moran",
        "rank": 47728,
        "rank_sort": 47755,
        "total": 2353
      },
      {
        "club_badge_src": null,
        "entry": 4889140,
        "entry_name": "AtleticClubDePuyol",
        "event_total": 61,
        "has_played": true,
        "id": 37694890,
        "last_rank": 54362,
        "player_name": "Dennis Rufi",
        "rank": 47728,
        "rank_sort": 47756,
        "total": 2353
      },
      {
        "club_badge_src": null,
        "entry": 4891371,
        "entry_name": "I'm a Salah-brity",
        "event_total": 55,
        "has_played": true,
        "id": 37712718,
        "last_rank": 45144,
        "player_name": "Paul Lockyer",
        "rank": 47728,
        "rank_sort": 47757,
        "total": 2353
      },
      {
        "club_badge_src": null,
        "entry": 5464870,
        "entry_name": "Bongie's X1",
        "event_total": 44,
        "has_played": true,
        "id": 42531498,
        "last_rank": 31620,
        "player_name": "Devansh Khaitan",
        "rank": 47728,
        "rank_sort": 47758,
        "total": 2353
      },
      {
        "club_badge_src": null,
        "entry": 5762238,
        "entry_name": "Omarim Ball",
        "event_total": 56,
        "has_played": true,
        "id": 45171752,
        "last_rank": 46547,
        "player_name": "omar el faramawy",
        "rank": 47728,
        "rank_sort": 47759,
        "total": 2353
      },
      {
        "club_badge_src": null,
        "entry": 5780711,
        "entry_name": "Granit Saka",
        "event_total": 74,
        "has_played": true,
        "id": 45329517,
        "last_rank": 79027,
        "player_name": "August Hollsten",
        "rank": 47728,
        "rank_sort": 47760,
        "total": 2353
      },
      {
        "club_badge_src": null,
        "entry": 5870284,
        "entry_name": "RuddVanNippyJoy",
        "event_total": 30,
        "has_played": true,
        "id": 46107626,
        "last_rank": 19432,
        "player_name": "Heman Siva",
        "rank": 47728,
        "rank_sort": 47761,
        "total": 2353
      },
      {
        "club_badge_src": null,
        "entry": 5905071,
        "entry_name": "Too Eze FC",
        "event_total": 53,
        "has_played": true,
        "id": 46396564,
        "last_rank": 42401,
        "player_name": "Tim Gleeson",
        "rank": 47728,
        "rank_sort": 47762,
        "total": 2353
      },
      {
        "club_badge_src": null,
        "entry": 6201891,
        "entry_name": "GAZA",
        "event_total": 52,
        "has_played": true,
        "id": 49061433,
        "last_rank": 41073,
        "player_name": "Mohammad Shehadeh",
        "rank": 47728,
        "rank_sort": 47763,
        "total": 2353
      },
      {
        "club_badge_src": null,
        "entry": 6503329,
        "entry_name": "Haverntz Got A Clue",
        "event_total": 49,
        "has_played": true,
        "id": 51851499,
        "last_rank": 37344,
        "player_name": "Max Hooley",
        "rank": 47728,
        "rank_sort": 47764,
        "total": 2353
      },
      {
        "club_badge_src": null,
        "entry": 6761146,
        "entry_name": "FC Ananas",
        "event_total": 67,
        "has_played": true,
        "id": 54133194,
        "last_rank": 64777,
        "player_name": "Sebastian Przyby\u0142a",
        "rank": 47728,
        "rank_sort": 47765,
        "total": 2353
      },
      {
        "club_badge_src": null,
        "entry": 6910583,
        "entry_name": "SC Super Gyok",
        "event_total": 66,
        "has_played": true,
        "id": 55392930,
        "last_rank": 63080,
        "player_name": "Gary Kirwan",
        "rank": 47728,
        "rank_sort": 47766,
        "total": 2353
      },
      {
        "club_badge_src": null,
        "entry": 7527937,
        "entry_name": "Laffens BK",
        "event_total": 49,
        "has_played": true,
        "id": 61610333,
        "last_rank": 32661,
        "player_name": "Lars R\u00f8nneberg",
        "rank": 47728,
        "rank_sort": 47767,
        "total": 2353
      },
      {
        "club_badge_src": "https://fantasy.premierleague.com/gcs/plfpl-production-adobe-approved/plfpl-production/8006939/68969c18-d2e8-4a4a-819a-b8426edbc625.png",
        "entry": 8006939,
        "entry_name": "Caidynsky FC",
        "event_total": 57,
        "has_played": true,
        "id": 65946109,
        "last_rank": 48119,
        "player_name": "Victoria Dzvimbu",
        "rank": 47728,
        "rank_sort": 47768,
        "total": 2353
      },
      {
        "club_badge_src": "https://fantasy.premierleague.com/gcs/plfpl-production-adobe-approved/plfpl-production/8437816/e008e99e-9624-4ea5-a0a3-837bc17a63bc.png",
        "entry": 8437816,
        "entry_name": "Neyymarkk FC",
        "event_total": 47,
        "has_played": true,
        "id": 70039223,
        "last_rank": 34969,
        "player_name": "Mark Pezij",
        "rank": 47728,
        "rank_sort": 47769,
        "total": 2353
      },
      {
        "club_badge_src": null,
        "entry": 8620584,
        "entry_name": "Power Reijnders",
        "event_total": 71,
        "has_played": true,
        "id": 71798132,
        "last_rank": 72815,
        "player_name": "Nico Arbelaez",
        "rank": 47728,
        "rank_sort": 47770,
        "total": 2353
      },
      {
        "club_badge_src": "https://fantasy.premierleague.com/gcs/plfpl-production-adobe-approved/plfpl-production/8951675/bb759f95-ee4b-4bf2-962b-af5a36a95f96.png",
        "entry": 8951675,
        "entry_name": "\u0627\u0644\u062a\u0645\u0633\u0627\u062d \u0627\u0644\u0633\u0641\u0627\u062d",
        "event_total": 41,
        "has_played": true,
        "id": 75015984,
        "last_rank": 28609,
        "player_name": "Bebo B",
        "rank": 47728,
        "rank_sort": 47771,
        "total": 2353
      },
      {
        "club_badge_src": null,
        "entry": 8985515,
        "entry_name": "stellas stj\u00e4rnor",
        "event_total": 76,
        "has_played": true,
        "id": 75342239,
        "last_rank": 83498,
        "player_name": "Stella Zielfelt",
        "rank": 47728,
        "rank_sort": 47772,
        "total": 2353
      },
      {
        "club_badge_src": "https://fantasy.premierleague.com/gcs/plfpl-production-adobe-approved/plfpl-production/9039384/a25e4b5e-a4a9-4acb-bff7-c2634c04dff8.png",
        "entry": 9039384,
        "entry_name": "Backpfeifengesicht",
        "event_total": 58,
        "has_played": true,
        "id": 75861125,
        "last_rank": 49607,
        "player_name": "Stephen Moy",
        "rank": 47728,
        "rank_sort": 47773,
        "total": 2353
      },
      {
        "club_badge_src": null,
        "entry": 9357124,
        "entry_name": "Blue Moon on Monday",
        "event_total": 67,
        "has_played": true,
        "id": 78955005,
        "last_rank": 64830,
        "player_name": "Laura Whittington",
        "rank": 47728,
        "rank_sort": 47774,
        "total": 2353
      },
      {
        "club_badge_src": null,
        "entry": 35185,
        "entry_name": "FPLs a pain in Diaz",
        "event_total": 70,
        "has_played": true,
        "id": 225084,
        "last_rank": 70651,
        "player_name": "Chuck Cole",
        "rank": 47775,
        "rank_sort": 47775,
        "total": 2353
      },
      {
        "club_badge_src": null,
        "entry": 54314,
        "entry_name": "crazy gang",
        "event_total": 62,
        "has_played": true,
        "id": 349582,
        "last_rank": 56369,
        "player_name": "Iffy Hussain",
        "rank": 47775,
        "rank_sort": 47776,
        "total": 2353
      },
      {
        "club_badge_src": null,
        "entry": 77970,
        "entry_name": "Cuhna mateta",
        "event_total": 71,
        "has_played": true,
        "id": 506886,
        "last_rank": 72638,
        "player_name": "Christopher Tierney",
        "rank": 47775,
        "rank_sort": 47777,
        "total": 2353
      },
      {
        "club_badge_src": null,
        "entry": 92664,
        "entry_name": "Jax Team",
        "event_total": 48,
        "has_played": true,
        "id": 605543,
        "last_rank": 36348,
        "player_name": "Jack Griffiths",
        "rank": 47775,
        "rank_sort": 47778,
        "total": 2353
      },
      {
        "club_badge_src": null,
        "entry": 190644,
        "entry_name": "Winner takes it all",
        "event_total": 48,
        "has_played": true,
        "id": 1262559,
        "last_rank": 36200,
        "player_name": "Beth Alistoun",
        "rank": 47775,
        "rank_sort": 47779,
        "total": 2353
      },
      {
        "club_badge_src": null,
        "entry": 295227,
        "entry_name": "Wale3 Fc",
        "event_total": 45,
        "has_played": true,
        "id": 1971774,
        "last_rank": 32879,
        "player_name": "Christ Khrimian",
        "rank": 47775,
        "rank_sort": 47780,
        "total": 2353
      },
      {
        "club_badge_src": "https://fantasy.premierleague.com/gcs/plfpl-production-adobe-approved/plfpl-production/369444/619ebfd2-68bf-4edc-b902-53ab030d0f82.png",
        "entry": 369444,
        "entry_name": "Larkstars",
        "event_total": 66,
        "has_played": true,
        "id": 2472141,
        "last_rank": 63390,
        "player_name": "Michael Larkin",
        "rank": 47775,
        "rank_sort": 47781,
        "total": 2353
      },
      {
        "club_badge_src": null,
        "entry": 404490,
        "entry_name": "Lindberg United",
        "event_total": 53,
        "has_played": true,
        "id": 2712142,
        "last_rank": 42506,
        "player_name": "Mattias Lindberg",
        "rank": 47775,
        "rank_sort": 47782,
        "total": 2353
      },
      {
        "club_badge_src": null,
        "entry": 480212,
        "entry_name": "San Marino Reserves",
        "event_total": 58,
        "has_played": true,
        "id": 3224045,
        "last_rank": 49607,
        "player_name": "Matt Eaton",
        "rank": 47775,
        "rank_sort": 47783,
        "total": 2353
      },
      {
        "club_badge_src": "https://fantasy.premierleague.com/gcs/plfpl-production-adobe-approved/plfpl-production/497164/ee09ed4e-422f-4676-860c-ff20925ec803.png",
        "entry": 497164,
        "entry_name": "The Strawhat Pirates",
        "event_total": 56,
        "has_played": true,
        "id": 3336948,
        "last_rank": 46839,
        "player_name": "Abdullah Mahar",
        "rank": 47775,
        "rank_sort": 47784,
        "total": 2353
      },
      {
        "club_badge_src": null,
        "entry": 618182,
        "entry_name": "You dipstick Rodri",
        "event_total": 59,
        "has_played": true,
        "id": 4176659,
        "last_rank": 51403,
        "player_name": "Jordan Fletcher",
        "rank": 47775,
        "rank_sort": 47785,
        "total": 2353
      },
      {
        "club_badge_src": null,
        "entry": 620233,
        "entry_name": "Jamo\u015b",
        "event_total": 45,
        "has_played": true,
        "id": 4191406,
        "last_rank": 32661,
        "player_name": "Kev James",
        "rank": 47775,
        "rank_sort": 47786,
        "total": 2353
      },
      {
        "club_badge_src": null,
        "entry": 680480,
        "entry_name": "Essington FC",
        "event_total": 73,
        "has_played": true,
        "id": 4604862,
        "last_rank": 76908,
        "player_name": "Chris Bucknall",
        "rank": 47775,
        "rank_sort": 47787,
        "total": 2353
      },
      {
        "club_badge_src": null,
        "entry": 752878,
        "entry_name": "Liverpooooool",
        "event_total": 62,
        "has_played": true,
        "id": 5123231,
        "last_rank": 56180,
        "player_name": "Tim Cunningham",
        "rank": 47775,
        "rank_sort": 47788,
        "total": 2353
      },
      {
        "club_badge_src": "https://fantasy.premierleague.com/gcs/plfpl-production-adobe-approved/plfpl-production/771542/361e9536-f5fd-46dc-afdc-71f486522634.png",
        "entry": 771542,
        "entry_name": "V for Valazer",
        "event_total": 58,
        "has_played": true,
        "id": 5263531,
        "last_rank": 49691,
        "player_name": "Joseph Alvarez",
        "rank": 47775,
        "rank_sort": 47789,
        "total": 2353
      },
      {
        "club_badge_src": null,
        "entry": 790794,
        "entry_name": "Rolls-Rice",
        "event_total": 51,
        "has_played": true,
        "id": 5411268,
        "last_rank": 40036,
        "player_name": "Joaquin Coronel",
        "rank": 47775,
        "rank_sort": 47790,
        "total": 2353
      },
      {
        "club_badge_src": null,
        "entry": 908979,
        "entry_name": "Jordinho f.c",
        "event_total": 70,
        "has_played": true,
        "id": 6248734,
        "last_rank": 70651,
        "player_name": "Jordan Barrass-Sykes",
        "rank": 47775,
        "rank_sort": 47791,
        "total": 2353
      },
      {
        "club_badge_src": "https://fantasy.premierleague.com/gcs/plfpl-production-adobe-approved/plfpl-production/944264/cbe3e37c-c474-4eeb-b177-8cb17d692aae.png",
        "entry": 944264,
        "entry_name": "Dropit like its Slot",
        "event_total": 62,
        "has_played": true,
        "id": 6503646,
        "last_rank": 56180,
        "player_name": "Rich Elvis Priestley",
        "rank": 47775,
        "rank_sort": 47792,
        "total": 2353
      },
      {
        "club_badge_src": null,
        "entry": 964348,
        "entry_name": "Xavi Siemens",
        "event_total": 56,
        "has_played": true,
        "id": 6646109,
        "last_rank": 46839,
        "player_name": "Sam Cooper",
        "rank": 47775,
        "rank_sort": 47793,
        "total": 2353
      },
      {
        "club_badge_src": "https://fantasy.premierleague.com/gcs/plfpl-production-adobe-approved/plfpl-production/1038644/799d4807-d93f-49d1-82fa-a368ada06183.png",
        "entry": 1038644,
        "entry_name": "N G U M O H A",
        "event_total": 59,
        "has_played": true,
        "id": 7187606,
        "last_rank": 51403,
        "player_name": "Mamnun A Malik",
        "rank": 47775,
        "rank_sort": 47794,
        "total": 2353
      },
      {
        "club_badge_src": null,
        "entry": 1119848,
        "entry_name": "Chido Obi Wan Kenobi",
        "event_total": 68,
        "has_played": true,
        "id": 7757813,
        "last_rank": 66848,
        "player_name": "Sindre Steinli",
        "rank": 47775,
        "rank_sort": 47795,
        "total": 2353
      },
      {
        "club_badge_src": null,
        "entry": 1166939,
        "entry_name": "Kippos Doughnuts",
        "event_total": 41,
        "has_played": true,
        "id": 8094923,
        "last_rank": 28609,
        "player_name": "Jacob Hewson",
        "rank": 47775,
        "rank_sort": 47796,
        "total": 2353
      },
      {
        "club_badge_src": null,
        "entry": 1183749,
        "entry_name": "Ballen i Neto",
        "event_total": 58,
        "has_played": true,
        "id": 8213155,
        "last_rank": 49572,
        "player_name": "Mikal L\u00f8n\u00f8y",
        "rank": 47775,
        "rank_sort": 47797,
        "total": 2353
      },
      {
        "club_badge_src": null,
        "entry": 1204229,
        "entry_name": "clarky X1",
        "event_total": 61,
        "has_played": true,
        "id": 8356908,
        "last_rank": 54667,
        "player_name": "Steven Clark",
        "rank": 47775,
        "rank_sort": 47798,
        "total": 2353
      },
      {
        "club_badge_src": null,
        "entry": 1246102,
        "entry_name": "Ayoub azair \ufffd",
        "event_total": 57,
        "has_played": true,
        "id": 8654323,
        "last_rank": 48363,
        "player_name": "Ayoub azair",
        "rank": 47775,
        "rank_sort": 47799,
        "total": 2353
      },
      {
        "club_badge_src": null,
        "entry": 1304848,
        "entry_name": "Kinder Mbeumo",
        "event_total": 70,
        "has_played": true,
        "id": 9069153,
        "last_rank": 70757,
        "player_name": "Clark Kent",
        "rank": 47775,
        "rank_sort": 47800,
        "total": 2353
      }
    ]
  }
}