{
  "last_updated_data": "2026-05-24T23:28:17Z",
  "league": {
    "admin_entry": null,
    "closed": false,
    "code_privacy": "p",
    "created": "2025-07-20T23:14:33.933835Z",
    "cup_league": 2815434,
    "has_cup": true,
    "id": 314,
    "league_type": "s",
    "max_entries": null,
    "name": "Overall",
    "rank": null,
    "scoring": "c",
    "start_event": 1
  },
  "new_entries": {
    "has_next": false,
    "page": 1,
    "results": []
  },
  "standings": {
    "has_next": true,
    "page": 595,
    "results": [
      {
        "club_badge_src": null,
        "entry": 5364294,
        "entry_name": "Machizmoz",
        "event_total": 47,
        "has_played": true,
        "id": 41669673,
        "last_rank": 17947,
        "player_name": "S. Muteithia",
        "rank": 29701,
        "rank_sort": 29701,
        "total": 2369
      },
      {
        "club_badge_src": null,
        "entry": 4120438,
        "entry_name": "c style",
        "event_total": 78,
        "has_played": true,
        "id": 31129005,
        "last_rank": 57691,
        "player_name": "Darian Taylor",
        "rank": 29702,
        "rank_sort": 29702,
        "total": 2368
      },
      {
        "club_badge_src": null,
        "entry": 9013929,
        "entry_name": "The Dribbling Melons",
        "event_total": 60,
        "has_played": true,
        "id": 75614291,
        "last_rank": 32626,
        "player_name": "Heather Walpole",
        "rank": 29702,
        "rank_sort": 29703,
        "total": 2368
      },
      {
        "club_badge_src": null,
        "entry": 6408466,
        "entry_name": "Slot Machine XI",
        "event_total": 63,
        "has_played": true,
        "id": 50994152,
        "last_rank": 36080,
        "player_name": "conor lynch",
        "rank": 29704,
        "rank_sort": 29704,
        "total": 2368
      },
      {
        "club_badge_src": null,
        "entry": 3376614,
        "entry_name": "RB FC",
        "event_total": 82,
        "has_played": true,
        "id": 25062464,
        "last_rank": 64736,
        "player_name": "Ross Baughan",
        "rank": 29705,
        "rank_sort": 29705,
        "total": 2368
      },
      {
        "club_badge_src": null,
        "entry": 310346,
        "entry_name": "Kinloch",
        "event_total": 55,
        "has_played": true,
        "id": 2078984,
        "last_rank": 27549,
        "player_name": "Willie Bernlohr",
        "rank": 29706,
        "rank_sort": 29706,
        "total": 2368
      },
      {
        "club_badge_src": null,
        "entry": 695950,
        "entry_name": "CONKENUTD",
        "event_total": 48,
        "has_played": true,
        "id": 4713770,
        "last_rank": 21591,
        "player_name": "Conor O' Rourke",
        "rank": 29706,
        "rank_sort": 29707,
        "total": 2368
      },
      {
        "club_badge_src": null,
        "entry": 3540722,
        "entry_name": "MamaAroi",
        "event_total": 64,
        "has_played": true,
        "id": 26355830,
        "last_rank": 37308,
        "player_name": "FAIR WICHAPHOL",
        "rank": 29706,
        "rank_sort": 29708,
        "total": 2368
      },
      {
        "club_badge_src": null,
        "entry": 7063689,
        "entry_name": "RosscoUTD",
        "event_total": 67,
        "has_played": true,
        "id": 56830076,
        "last_rank": 41048,
        "player_name": "Ross T",
        "rank": 29706,
        "rank_sort": 29709,
        "total": 2368
      },
      {
        "club_badge_src": null,
        "entry": 1168985,
        "entry_name": "Lavia Chicken",
        "event_total": 42,
        "has_played": true,
        "id": 8109464,
        "last_rank": 17304,
        "player_name": "Jiafeng Chen",
        "rank": 29710,
        "rank_sort": 29710,
        "total": 2368
      },
      {
        "club_badge_src": null,
        "entry": 1414788,
        "entry_name": "Madden FC",
        "event_total": 58,
        "has_played": true,
        "id": 9847081,
        "last_rank": 30480,
        "player_name": "forgive Tawanda Nyuwani",
        "rank": 29710,
        "rank_sort": 29711,
        "total": 2368
      },
      {
        "club_badge_src": null,
        "entry": 2377321,
        "entry_name": "Frong's Team",
        "event_total": 58,
        "has_played": true,
        "id": 16973770,
        "last_rank": 30494,
        "player_name": "Frong Paradon",
        "rank": 29710,
        "rank_sort": 29712,
        "total": 2368
      },
      {
        "club_badge_src": null,
        "entry": 6626999,
        "entry_name": "Magauskas",
        "event_total": 54,
        "has_played": true,
        "id": 52960795,
        "last_rank": 26610,
        "player_name": "Dario Maganji\u0107",
        "rank": 29710,
        "rank_sort": 29713,
        "total": 2368
      },
      {
        "club_badge_src": null,
        "entry": 8526353,
        "entry_name": "Charli xgx",
        "event_total": 64,
        "has_played": true,
        "id": 70891974,
        "last_rank": 37308,
        "player_name": "Harry Hutton",
        "rank": 29710,
        "rank_sort": 29714,
        "total": 2368
      },
      {
        "club_badge_src": null,
        "entry": 10567495,
        "entry_name": "Ripley Ravers",
        "event_total": 55,
        "has_played": true,
        "id": 89325248,
        "last_rank": 27546,
        "player_name": "Nadia Barry",
        "rank": 29710,
        "rank_sort": 29715,
        "total": 2368
      },
      {
        "club_badge_src": null,
        "entry": 118747,
        "entry_name": "Ninja Skrtels",
        "event_total": 47,
        "has_played": true,
        "id": 774917,
        "last_rank": 20826,
        "player_name": "Edward Smith",
        "rank": 29716,
        "rank_sort": 29716,
        "total": 2368
      },
      {
        "club_badge_src": "https://fantasy.premierleague.com/gcs/plfpl-production-adobe-approved/plfpl-production/1057676/ef6aa32d-f8db-47c4-83c3-c37993eafdde.png",
        "entry": 1057676,
        "entry_name": "Pain In Dias",
        "event_total": 50,
        "has_played": true,
        "id": 7319733,
        "last_rank": 23164,
        "player_name": "Ryan Hawko",
        "rank": 29716,
        "rank_sort": 29717,
        "total": 2368
      },
      {
        "club_badge_src": null,
        "entry": 1168238,
        "entry_name": "sam city",
        "event_total": 77,
        "has_played": true,
        "id": 8104301,
        "last_rank": 56069,
        "player_name": "Samuel Urbanic",
        "rank": 29716,
        "rank_sort": 29718,
        "total": 2368
      },
      {
        "club_badge_src": null,
        "entry": 2236291,
        "entry_name": "Ekitikesaurus",
        "event_total": 68,
        "has_played": true,
        "id": 15931266,
        "last_rank": 42401,
        "player_name": "Calum Thompson",
        "rank": 29716,
        "rank_sort": 29719,
        "total": 2368
      },
      {
        "club_badge_src": null,
        "entry": 2442112,
        "entry_name": "Crewe's Control",
        "event_total": 49,
        "has_played": true,
        "id": 17465420,
        "last_rank": 22365,
        "player_name": "Joe Crewe",
        "rank": 29716,
        "rank_sort": 29720,
        "total": 2368
      },
      {
        "club_badge_src": null,
        "entry": 2492475,
        "entry_name": "Pied Piper",
        "event_total": 76,
        "has_played": true,
        "id": 17843711,
        "last_rank": 54380,
        "player_name": "Ryan Lovell",
        "rank": 29716,
        "rank_sort": 29721,
        "total": 2368
      },
      {
        "club_badge_src": null,
        "entry": 3385945,
        "entry_name": "Fox Stormers",
        "event_total": 90,
        "has_played": true,
        "id": 25135376,
        "last_rank": 81244,
        "player_name": "James Fox",
        "rank": 29716,
        "rank_sort": 29722,
        "total": 2368
      },
      {
        "club_badge_src": null,
        "entry": 5102705,
        "entry_name": "Yoro Wissa Harry",
        "event_total": 45,
        "has_played": true,
        "id": 39441787,
        "last_rank": 19376,
        "player_name": "Lucas Green",
        "rank": 29716,
        "rank_sort": 29723,
        "total": 2368
      },
      {
        "club_badge_src": null,
        "entry": 5233948,
        "entry_name": "Netflix and Chilwell",
        "event_total": 39,
        "has_played": true,
        "id": 40558537,
        "last_rank": 15396,
        "player_name": "James Randall",
        "rank": 29716,
        "rank_sort": 29724,
        "total": 2368
      },
      {
        "club_badge_src": null,
        "entry": 8968917,
        "entry_name": "CuhnaGetAnyWorse",
        "event_total": 63,
        "has_played": true,
        "id": 75182272,
        "last_rank": 36110,
        "player_name": "Paul Colclough",
        "rank": 29716,
        "rank_sort": 29725,
        "total": 2368
      },
      {
        "club_badge_src": null,
        "entry": 901541,
        "entry_name": "Any suggestion?",
        "event_total": 60,
        "has_played": true,
        "id": 6194618,
        "last_rank": 32647,
        "player_name": "Azzim Zawawi",
        "rank": 29726,
        "rank_sort": 29726,
        "total": 2368
      },
      {
        "club_badge_src": null,
        "entry": 1095598,
        "entry_name": "Beef Cherki",
        "event_total": 66,
        "has_played": true,
        "id": 7588218,
        "last_rank": 39784,
        "player_name": "Josh Skeldon",
        "rank": 29726,
        "rank_sort": 29727,
        "total": 2368
      },
      {
        "club_badge_src": null,
        "entry": 1965284,
        "entry_name": "Dave\u2019s Donkeys",
        "event_total": 48,
        "has_played": true,
        "id": 13867042,
        "last_rank": 21609,
        "player_name": "Dave Hill",
        "rank": 29726,
        "rank_sort": 29728,
        "total": 2368
      },
      {
        "club_badge_src": null,
        "entry": 2277719,
        "entry_name": "Totalmixup",
        "event_total": 74,
        "has_played": true,
        "id": 16242211,
        "last_rank": 51099,
        "player_name": "Paul Jordan",
        "rank": 29726,
        "rank_sort": 29729,
        "total": 2368
      },
      {
        "club_badge_src": null,
        "entry": 3706268,
        "entry_name": "Goulazo FC",
        "event_total": 57,
        "has_played": true,
        "id": 27654304,
        "last_rank": 29482,
        "player_name": "Alex Matsangou",
        "rank": 29726,
        "rank_sort": 29730,
        "total": 2368
      },
      {
        "club_badge_src": null,
        "entry": 6912973,
        "entry_name": "SOULAIMANE\u2022EG\u2022 \ufffd",
        "event_total": 50,
        "has_played": true,
        "id": 55413848,
        "last_rank": 23188,
        "player_name": "Soulaimane Eg",
        "rank": 29726,
        "rank_sort": 29731,
        "total": 2368
      },
      {
        "club_badge_src": null,
        "entry": 7468842,
        "entry_name": "AJ Utd",
        "event_total": 60,
        "has_played": true,
        "id": 60880195,
        "last_rank": 32688,
        "player_name": "Anders Johannessen",
        "rank": 29726,
        "rank_sort": 29732,
        "total": 2368
      },
      {
        "club_badge_src": null,
        "entry": 8288182,
        "entry_name": "Resistance Is Futile",
        "event_total": 58,
        "has_played": true,
        "id": 68586697,
        "last_rank": 30536,
        "player_name": "Patrick Enright",
        "rank": 29726,
        "rank_sort": 29733,
        "total": 2368
      },
      {
        "club_badge_src": null,
        "entry": 9406393,
        "entry_name": "Daymen",
        "event_total": 69,
        "has_played": true,
        "id": 79434196,
        "last_rank": 43742,
        "player_name": "Fletcher Johns",
        "rank": 29726,
        "rank_sort": 29734,
        "total": 2368
      },
      {
        "club_badge_src": "https://fantasy.premierleague.com/gcs/plfpl-production-adobe-approved/plfpl-production/24262/c23b51f8-cf86-484c-8e0c-9cbad459486b.png",
        "entry": 24262,
        "entry_name": "lolsmurf city",
        "event_total": 45,
        "has_played": true,
        "id": 153094,
        "last_rank": 19376,
        "player_name": "Jenne Minet",
        "rank": 29735,
        "rank_sort": 29735,
        "total": 2368
      },
      {
        "club_badge_src": null,
        "entry": 593906,
        "entry_name": "serial chiller.",
        "event_total": 78,
        "has_played": true,
        "id": 4002742,
        "last_rank": 57723,
        "player_name": "Jide Fabanwo",
        "rank": 29735,
        "rank_sort": 29736,
        "total": 2368
      },
      {
        "club_badge_src": null,
        "entry": 734513,
        "entry_name": "macyblue",
        "event_total": 45,
        "has_played": true,
        "id": 4991987,
        "last_rank": 19432,
        "player_name": "Martin Mccorley",
        "rank": 29735,
        "rank_sort": 29737,
        "total": 2368
      },
      {
        "club_badge_src": null,
        "entry": 918699,
        "entry_name": "Change Name",
        "event_total": 58,
        "has_played": true,
        "id": 6317791,
        "last_rank": 30600,
        "player_name": "James Avis",
        "rank": 29735,
        "rank_sort": 29738,
        "total": 2368
      },
      {
        "club_badge_src": null,
        "entry": 1198960,
        "entry_name": "Arildos",
        "event_total": 50,
        "has_played": true,
        "id": 8320137,
        "last_rank": 23188,
        "player_name": "Arild Birkeli \u00d8ygarden",
        "rank": 29735,
        "rank_sort": 29739,
        "total": 2368
      },
      {
        "club_badge_src": null,
        "entry": 1240072,
        "entry_name": "Troopers",
        "event_total": 55,
        "has_played": true,
        "id": 8612316,
        "last_rank": 27549,
        "player_name": "Zach Francis",
        "rank": 29735,
        "rank_sort": 29740,
        "total": 2368
      },
      {
        "club_badge_src": null,
        "entry": 1401695,
        "entry_name": "Arnautovi\u0107",
        "event_total": 70,
        "has_played": true,
        "id": 9752584,
        "last_rank": 45117,
        "player_name": "Jorawur Thandi",
        "rank": 29735,
        "rank_sort": 29741,
        "total": 2368
      },
      {
        "club_badge_src": null,
        "entry": 2325312,
        "entry_name": "Dean1604",
        "event_total": 43,
        "has_played": true,
        "id": 16589620,
        "last_rank": 18029,
        "player_name": "Dean 1604",
        "rank": 29735,
        "rank_sort": 29742,
        "total": 2368
      },
      {
        "club_badge_src": null,
        "entry": 2418180,
        "entry_name": "The Rock is cooking",
        "event_total": 64,
        "has_played": true,
        "id": 17287047,
        "last_rank": 37325,
        "player_name": "Michael Schallhorn",
        "rank": 29735,
        "rank_sort": 29743,
        "total": 2368
      },
      {
        "club_badge_src": null,
        "entry": 2473961,
        "entry_name": "Don\u2019tLookBackElanga",
        "event_total": 47,
        "has_played": true,
        "id": 17699824,
        "last_rank": 20853,
        "player_name": "Ryan Turner",
        "rank": 29735,
        "rank_sort": 29744,
        "total": 2368
      },
      {
        "club_badge_src": null,
        "entry": 2994914,
        "entry_name": "Wirtz Nightmare",
        "event_total": 64,
        "has_played": true,
        "id": 22027269,
        "last_rank": 37376,
        "player_name": "Rashed Rahman",
        "rank": 29735,
        "rank_sort": 29745,
        "total": 2368
      },
      {
        "club_badge_src": null,
        "entry": 3025929,
        "entry_name": "TheBlues2.0",
        "event_total": 39,
        "has_played": true,
        "id": 22264645,
        "last_rank": 15396,
        "player_name": "Andrew Inggs",
        "rank": 29735,
        "rank_sort": 29746,
        "total": 2368
      },
      {
        "club_badge_src": null,
        "entry": 3152140,
        "entry_name": "Wilsonia FC",
        "event_total": 59,
        "has_played": true,
        "id": 23279080,
        "last_rank": 31556,
        "player_name": "Matthew Wilson",
        "rank": 29735,
        "rank_sort": 29747,
        "total": 2368
      },
      {
        "club_badge_src": null,
        "entry": 3194719,
        "entry_name": "Frimpong foo fighter",
        "event_total": 58,
        "has_played": true,
        "id": 23613105,
        "last_rank": 30536,
        "player_name": "Mads S\u00f8ndergaard",
        "rank": 29735,
        "rank_sort": 29748,
        "total": 2368
      },
      {
        "club_badge_src": null,
        "entry": 3264527,
        "entry_name": "Ah Cunha Mbeumo",
        "event_total": 66,
        "has_played": true,
        "id": 24155875,
        "last_rank": 39784,
        "player_name": "Nathan Burch",
        "rank": 29735,
        "rank_sort": 29749,
        "total": 2368
      },
      {
        "club_badge_src": null,
        "entry": 3879691,
        "entry_name": "Back Stronger",
        "event_total": 64,
        "has_played": true,
        "id": 29150799,
        "last_rank": 37344,
        "player_name": "Rob Barnard",
        "rank": 29735,
        "rank_sort": 29750,
        "total": 2368
      }
    ]
  }
}