{
  "last_updated_data": "2026-05-24T23:28:17Z",
  "league": {
    "admin_entry": null,
    "closed": false,
    "code_privacy": "p",
    "created": "2025-07-20T23:14:33.933835Z",
    "cup_league": 2815434,
    "has_cup": true,
    "id": 314,
    "league_type": "s",
    "max_entries": null,
    "name": "Overall",
    "rank": null,
    "scoring": "c",
    "start_event": 1
  },
  "new_entries": {
    "has_next": false,
    "page": 1,
    "results": []
  },
  "standings": {
    "has_next": true,
    "page": 1063,
    "results": [
      {
        "club_badge_src": null,
        "entry": 589810,
        "entry_name": "MASO",
        "event_total": 60,
        "has_played": true,
        "id": 3972776,
        "last_rank": 58688,
        "player_name": "markus s\u00f6der",
        "rank": 53036,
        "rank_sort": 53101,
        "total": 2350
      },
      {
        "club_badge_src": null,
        "entry": 594178,
        "entry_name": "Plavci",
        "event_total": 58,
        "has_played": true,
        "id": 4004702,
        "last_rank": 55014,
        "player_name": "Ante Jurkovic",
        "rank": 53036,
        "rank_sort": 53102,
        "total": 2350
      },
      {
        "club_badge_src": null,
        "entry": 602376,
        "entry_name": "Poolforlife",
        "event_total": 76,
        "has_played": true,
        "id": 4065206,
        "last_rank": 91835,
        "player_name": "Carl Allen",
        "rank": 53036,
        "rank_sort": 53103,
        "total": 2350
      },
      {
        "club_badge_src": null,
        "entry": 616456,
        "entry_name": "Let's Be Avin You",
        "event_total": 76,
        "has_played": true,
        "id": 4165257,
        "last_rank": 82069,
        "player_name": "Andy Brudenell",
        "rank": 53036,
        "rank_sort": 53104,
        "total": 2350
      },
      {
        "club_badge_src": null,
        "entry": 634883,
        "entry_name": "mohamed khalid",
        "event_total": 57,
        "has_played": true,
        "id": 4290712,
        "last_rank": 53621,
        "player_name": "Mohamed Khalid",
        "rank": 53036,
        "rank_sort": 53105,
        "total": 2350
      },
      {
        "club_badge_src": null,
        "entry": 635084,
        "entry_name": "Viktor-Y",
        "event_total": 53,
        "has_played": true,
        "id": 4292052,
        "last_rank": 47163,
        "player_name": "Greg Hill",
        "rank": 53036,
        "rank_sort": 53106,
        "total": 2350
      },
      {
        "club_badge_src": null,
        "entry": 663495,
        "entry_name": "Godofallthings",
        "event_total": 68,
        "has_played": true,
        "id": 4485539,
        "last_rank": 73720,
        "player_name": "Wilson Ihuoma",
        "rank": 53036,
        "rank_sort": 53107,
        "total": 2350
      },
      {
        "club_badge_src": null,
        "entry": 671193,
        "entry_name": "Heinze Ketchup",
        "event_total": 63,
        "has_played": true,
        "id": 4539793,
        "last_rank": 64005,
        "player_name": "Stuart Hawkins",
        "rank": 53036,
        "rank_sort": 53108,
        "total": 2350
      },
      {
        "club_badge_src": "https://fantasy.premierleague.com/gcs/plfpl-production-adobe-approved/plfpl-production/698534/46bb90db-6198-46a4-acf8-ffb92f403b2c.png",
        "entry": 698534,
        "entry_name": "Phemy FPL",
        "event_total": 68,
        "has_played": true,
        "id": 4731924,
        "last_rank": 73720,
        "player_name": "Femi Abass",
        "rank": 53036,
        "rank_sort": 53109,
        "total": 2350
      },
      {
        "club_badge_src": null,
        "entry": 698777,
        "entry_name": "School of Hard Knox",
        "event_total": 53,
        "has_played": true,
        "id": 4733667,
        "last_rank": 47417,
        "player_name": "Andrew Knox",
        "rank": 53036,
        "rank_sort": 53110,
        "total": 2350
      },
      {
        "club_badge_src": null,
        "entry": 703723,
        "entry_name": "Real Strugglers",
        "event_total": 60,
        "has_played": true,
        "id": 4768660,
        "last_rank": 58911,
        "player_name": "curtis Marshall",
        "rank": 53036,
        "rank_sort": 53111,
        "total": 2350
      },
      {
        "club_badge_src": null,
        "entry": 712988,
        "entry_name": "Min Utd",
        "event_total": 75,
        "has_played": true,
        "id": 4836858,
        "last_rank": 89055,
        "player_name": "Martin Duthie",
        "rank": 53036,
        "rank_sort": 53112,
        "total": 2350
      },
      {
        "club_badge_src": null,
        "entry": 715296,
        "entry_name": "Active FC",
        "event_total": 49,
        "has_played": true,
        "id": 4852983,
        "last_rank": 41162,
        "player_name": "Casper Dure",
        "rank": 53036,
        "rank_sort": 53113,
        "total": 2350
      },
      {
        "club_badge_src": null,
        "entry": 722676,
        "entry_name": "Favorite",
        "event_total": 54,
        "has_played": true,
        "id": 4908126,
        "last_rank": 48898,
        "player_name": "Artem Churov",
        "rank": 53036,
        "rank_sort": 53114,
        "total": 2350
      },
      {
        "club_badge_src": null,
        "entry": 732428,
        "entry_name": "Tyskarna",
        "event_total": 51,
        "has_played": true,
        "id": 4977128,
        "last_rank": 44048,
        "player_name": "Andreas Frey",
        "rank": 53036,
        "rank_sort": 53115,
        "total": 2350
      },
      {
        "club_badge_src": "https://fantasy.premierleague.com/gcs/plfpl-production-adobe-approved/plfpl-production/761907/8181e1ea-32b4-4abe-a103-cfe7241baa89.png",
        "entry": 761907,
        "entry_name": "Fergie time",
        "event_total": 54,
        "has_played": true,
        "id": 5195649,
        "last_rank": 48898,
        "player_name": "Yousef Bin shbo",
        "rank": 53036,
        "rank_sort": 53116,
        "total": 2350
      },
      {
        "club_badge_src": null,
        "entry": 791003,
        "entry_name": "Saliba Loca FC",
        "event_total": 67,
        "has_played": true,
        "id": 5412768,
        "last_rank": 71956,
        "player_name": "Sondre Barkli",
        "rank": 53036,
        "rank_sort": 53117,
        "total": 2350
      },
      {
        "club_badge_src": "https://fantasy.premierleague.com/gcs/plfpl-production-adobe-approved/plfpl-production/808088/dc94db24-d9fb-4bd4-839e-c5b5c4753517.png",
        "entry": 808088,
        "entry_name": "Papi Rovers",
        "event_total": 69,
        "has_played": true,
        "id": 5532314,
        "last_rank": 75874,
        "player_name": "Porang Emamdost",
        "rank": 53036,
        "rank_sort": 53118,
        "total": 2350
      },
      {
        "club_badge_src": null,
        "entry": 815536,
        "entry_name": "Ruben Am Worried",
        "event_total": 58,
        "has_played": true,
        "id": 5584668,
        "last_rank": 48197,
        "player_name": "Redwanur Rahman",
        "rank": 53036,
        "rank_sort": 53119,
        "total": 2350
      },
      {
        "club_badge_src": null,
        "entry": 818251,
        "entry_name": "A Football Team",
        "event_total": 64,
        "has_played": true,
        "id": 5603694,
        "last_rank": 58388,
        "player_name": "Adrian Watson",
        "rank": 53036,
        "rank_sort": 53120,
        "total": 2350
      },
      {
        "club_badge_src": null,
        "entry": 875872,
        "entry_name": "spursy",
        "event_total": 57,
        "has_played": true,
        "id": 6004931,
        "last_rank": 53345,
        "player_name": "Jackson DuBro",
        "rank": 53036,
        "rank_sort": 53121,
        "total": 2350
      },
      {
        "club_badge_src": "https://fantasy.premierleague.com/gcs/plfpl-production-adobe-approved/plfpl-production/877662/14898771-43ba-4492-86b3-e9458927c305.png",
        "entry": 877662,
        "entry_name": "\u1587\u2630\u15ea \u039b\u1587\u1587\u0472\u15ef \u2cac\u2c92",
        "event_total": 62,
        "has_played": true,
        "id": 6017265,
        "last_rank": 62223,
        "player_name": "Stefan Starovlah",
        "rank": 53036,
        "rank_sort": 53122,
        "total": 2350
      },
      {
        "club_badge_src": "https://fantasy.premierleague.com/gcs/plfpl-production-adobe-approved/plfpl-production/881209/f09123e9-55fe-4660-9b72-091402632466.png",
        "entry": 881209,
        "entry_name": "Minus De Boer",
        "event_total": 56,
        "has_played": true,
        "id": 6043128,
        "last_rank": 51720,
        "player_name": "Steve Cairns",
        "rank": 53036,
        "rank_sort": 53123,
        "total": 2350
      },
      {
        "club_badge_src": "https://fantasy.premierleague.com/gcs/plfpl-production-adobe-approved/plfpl-production/929140/fafca428-f897-4e00-86e2-7ffea046add6.png",
        "entry": 929140,
        "entry_name": "Ayew Shaw?",
        "event_total": 78,
        "has_played": true,
        "id": 6392986,
        "last_rank": 95640,
        "player_name": "Reece Passey",
        "rank": 53036,
        "rank_sort": 53124,
        "total": 2350
      },
      {
        "club_badge_src": "https://fantasy.premierleague.com/gcs/plfpl-production-adobe-approved/plfpl-production/963364/8e596b12-ddc2-445d-94ce-561423f5c075.png",
        "entry": 963364,
        "entry_name": "Addick-ted to CAFC",
        "event_total": 70,
        "has_played": true,
        "id": 6639026,
        "last_rank": 77999,
        "player_name": "Chris Grove",
        "rank": 53036,
        "rank_sort": 53125,
        "total": 2350
      },
      {
        "club_badge_src": null,
        "entry": 964605,
        "entry_name": "Hema",
        "event_total": 67,
        "has_played": true,
        "id": 6647849,
        "last_rank": 63724,
        "player_name": "Mohamed Ebrahim",
        "rank": 53036,
        "rank_sort": 53126,
        "total": 2350
      },
      {
        "club_badge_src": null,
        "entry": 1039919,
        "entry_name": "Team A",
        "event_total": 58,
        "has_played": true,
        "id": 7196601,
        "last_rank": 48642,
        "player_name": "Ali Buchanan",
        "rank": 53036,
        "rank_sort": 53127,
        "total": 2350
      },
      {
        "club_badge_src": null,
        "entry": 1050960,
        "entry_name": "Eaton Mess",
        "event_total": 67,
        "has_played": true,
        "id": 7273284,
        "last_rank": 63724,
        "player_name": "Owen Eaton",
        "rank": 53036,
        "rank_sort": 53128,
        "total": 2350
      },
      {
        "club_badge_src": null,
        "entry": 1093817,
        "entry_name": "Billion \u00a3 Bottlejobs",
        "event_total": 56,
        "has_played": true,
        "id": 7575750,
        "last_rank": 51984,
        "player_name": "Elliot Page",
        "rank": 53036,
        "rank_sort": 53129,
        "total": 2350
      },
      {
        "club_badge_src": null,
        "entry": 1108835,
        "entry_name": "Caught Napping",
        "event_total": 72,
        "has_played": true,
        "id": 7680507,
        "last_rank": 82398,
        "player_name": "Will Cross",
        "rank": 53036,
        "rank_sort": 53130,
        "total": 2350
      },
      {
        "club_badge_src": null,
        "entry": 1134466,
        "entry_name": "Peters punters",
        "event_total": 47,
        "has_played": true,
        "id": 7863955,
        "last_rank": 39403,
        "player_name": "Peter Bulkeley",
        "rank": 53036,
        "rank_sort": 53131,
        "total": 2350
      },
      {
        "club_badge_src": null,
        "entry": 1136337,
        "entry_name": "Balotellitubies",
        "event_total": 46,
        "has_played": true,
        "id": 7876788,
        "last_rank": 33147,
        "player_name": "Melvin Poljo",
        "rank": 53036,
        "rank_sort": 53132,
        "total": 2350
      },
      {
        "club_badge_src": "https://fantasy.premierleague.com/gcs/plfpl-production-adobe-approved/plfpl-production/1140708/114dfe4b-1be3-4225-a9c7-58c9fafd0906.png",
        "entry": 1140708,
        "entry_name": "ErruDumElleHvad",
        "event_total": 51,
        "has_played": true,
        "id": 7907159,
        "last_rank": 39023,
        "player_name": "Alex Rob\u00e8rt",
        "rank": 53036,
        "rank_sort": 53133,
        "total": 2350
      },
      {
        "club_badge_src": null,
        "entry": 1183263,
        "entry_name": "Beef Cherki",
        "event_total": 66,
        "has_played": true,
        "id": 8209763,
        "last_rank": 61950,
        "player_name": "Lewis Warburton",
        "rank": 53036,
        "rank_sort": 53134,
        "total": 2350
      },
      {
        "club_badge_src": null,
        "entry": 1250165,
        "entry_name": "Wirtz Nightmare",
        "event_total": 53,
        "has_played": true,
        "id": 8682655,
        "last_rank": 47417,
        "player_name": "Neve Williams",
        "rank": 53036,
        "rank_sort": 53135,
        "total": 2350
      },
      {
        "club_badge_src": null,
        "entry": 1250299,
        "entry_name": "Jonjo Top Shelvey",
        "event_total": 42,
        "has_played": true,
        "id": 8683596,
        "last_rank": 33332,
        "player_name": "Rob Dagostino",
        "rank": 53036,
        "rank_sort": 53136,
        "total": 2350
      },
      {
        "club_badge_src": null,
        "entry": 1266617,
        "entry_name": "Elrawy",
        "event_total": 66,
        "has_played": true,
        "id": 8800669,
        "last_rank": 69641,
        "player_name": "Itachi Uchiha",
        "rank": 53036,
        "rank_sort": 53137,
        "total": 2350
      },
      {
        "club_badge_src": null,
        "entry": 1332234,
        "entry_name": "Badii Bouhlel",
        "event_total": 61,
        "has_played": true,
        "id": 9259951,
        "last_rank": 60462,
        "player_name": "Badii Bouhlel",
        "rank": 53036,
        "rank_sort": 53138,
        "total": 2350
      },
      {
        "club_badge_src": null,
        "entry": 1388724,
        "entry_name": "Squidwirtz",
        "event_total": 39,
        "has_played": true,
        "id": 9659775,
        "last_rank": 30060,
        "player_name": "Mathew Whitehurst",
        "rank": 53036,
        "rank_sort": 53139,
        "total": 2350
      },
      {
        "club_badge_src": null,
        "entry": 1451871,
        "entry_name": "Fanta C",
        "event_total": 66,
        "has_played": true,
        "id": 10116582,
        "last_rank": 61950,
        "player_name": "Kevin Rothschild",
        "rank": 53036,
        "rank_sort": 53140,
        "total": 2350
      },
      {
        "club_badge_src": null,
        "entry": 1453444,
        "entry_name": "GUNNERS",
        "event_total": 64,
        "has_played": true,
        "id": 10127577,
        "last_rank": 65475,
        "player_name": "Tshering Phuntsho Lambu",
        "rank": 53036,
        "rank_sort": 53141,
        "total": 2350
      },
      {
        "club_badge_src": null,
        "entry": 1530732,
        "entry_name": "50 Shades of Bowen",
        "event_total": 54,
        "has_played": true,
        "id": 10681895,
        "last_rank": 48898,
        "player_name": "Kieran Burt",
        "rank": 53036,
        "rank_sort": 53142,
        "total": 2350
      },
      {
        "club_badge_src": "https://fantasy.premierleague.com/gcs/plfpl-production-adobe-approved/plfpl-production/1565975/1877f2f1-18b7-4c56-bba5-a1887c905f04.png",
        "entry": 1565975,
        "entry_name": "Haven\u2019t a Kulu",
        "event_total": 37,
        "has_played": true,
        "id": 10939342,
        "last_rank": 28273,
        "player_name": "Jamie Gannon",
        "rank": 53036,
        "rank_sort": 53143,
        "total": 2350
      },
      {
        "club_badge_src": "https://fantasy.premierleague.com/gcs/plfpl-production-adobe-approved/plfpl-production/1715934/8b81dd92-fc9a-4ab1-b3fd-4d6ac39bb532.png",
        "entry": 1715934,
        "entry_name": "Bimbilika Bilabi",
        "event_total": 65,
        "has_played": true,
        "id": 12024613,
        "last_rank": 59813,
        "player_name": "Jaideep Radhakrishnan",
        "rank": 53036,
        "rank_sort": 53144,
        "total": 2350
      },
      {
        "club_badge_src": null,
        "entry": 1770955,
        "entry_name": "Pobednik",
        "event_total": 66,
        "has_played": true,
        "id": 12440536,
        "last_rank": 69641,
        "player_name": "Tale Huric",
        "rank": 53036,
        "rank_sort": 53145,
        "total": 2350
      },
      {
        "club_badge_src": null,
        "entry": 1821489,
        "entry_name": "Udogie-Style",
        "event_total": 58,
        "has_played": true,
        "id": 12810317,
        "last_rank": 48642,
        "player_name": "John Are Straube Johnsen",
        "rank": 53036,
        "rank_sort": 53146,
        "total": 2350
      },
      {
        "club_badge_src": null,
        "entry": 1935627,
        "entry_name": "Bijol And end-all",
        "event_total": 64,
        "has_played": true,
        "id": 13652101,
        "last_rank": 65796,
        "player_name": "Simon Walton",
        "rank": 53036,
        "rank_sort": 53147,
        "total": 2350
      },
      {
        "club_badge_src": "https://fantasy.premierleague.com/gcs/plfpl-production-adobe-approved/plfpl-production/1945630/3ca90513-af5b-4f40-9020-20174b221c37.png",
        "entry": 1945630,
        "entry_name": "M.ALANSARI F.C",
        "event_total": 62,
        "has_played": true,
        "id": 13724249,
        "last_rank": 62223,
        "player_name": "mohammed alansari",
        "rank": 53036,
        "rank_sort": 53148,
        "total": 2350
      },
      {
        "club_badge_src": null,
        "entry": 1959643,
        "entry_name": "Heroes",
        "event_total": 58,
        "has_played": true,
        "id": 13825515,
        "last_rank": 55311,
        "player_name": "Issa Marto",
        "rank": 53036,
        "rank_sort": 53149,
        "total": 2350
      },
      {
        "club_badge_src": null,
        "entry": 1966962,
        "entry_name": "coldspace",
        "event_total": 55,
        "has_played": true,
        "id": 13880790,
        "last_rank": 49880,
        "player_name": "Colin Whitaker",
        "rank": 53036,
        "rank_sort": 53150,
        "total": 2350
      }
    ]
  }
}