{
  "last_updated_data": "2026-05-24T23:28:17Z",
  "league": {
    "admin_entry": null,
    "closed": false,
    "code_privacy": "p",
    "created": "2025-07-20T23:14:33.933835Z",
    "cup_league": 2815434,
    "has_cup": true,
    "id": 314,
    "league_type": "s",
    "max_entries": null,
    "name": "Overall",
    "rank": null,
    "scoring": "c",
    "start_event": 1
  },
  "new_entries": {
    "has_next": false,
    "page": 1,
    "results": []
  },
  "standings": {
    "has_next": true,
    "page": 599,
    "results": [
      {
        "club_badge_src": null,
        "entry": 735169,
        "entry_name": "Suvorov",
        "event_total": 73,
        "has_played": true,
        "id": 4997249,
        "last_rank": 49880,
        "player_name": "Aleksey Zelichenko",
        "rank": 29830,
        "rank_sort": 29901,
        "total": 2368
      },
      {
        "club_badge_src": null,
        "entry": 778967,
        "entry_name": "Ball Guys",
        "event_total": 45,
        "has_played": true,
        "id": 5316704,
        "last_rank": 19432,
        "player_name": "Mike Woodward",
        "rank": 29830,
        "rank_sort": 29902,
        "total": 2368
      },
      {
        "club_badge_src": null,
        "entry": 787595,
        "entry_name": "Northern Kock",
        "event_total": 46,
        "has_played": true,
        "id": 5384789,
        "last_rank": 20147,
        "player_name": "Ian Gregory-Smith",
        "rank": 29830,
        "rank_sort": 29903,
        "total": 2368
      },
      {
        "club_badge_src": null,
        "entry": 788862,
        "entry_name": "# Top of the league",
        "event_total": 57,
        "has_played": true,
        "id": 5395645,
        "last_rank": 29688,
        "player_name": "Andy Coole",
        "rank": 29830,
        "rank_sort": 29904,
        "total": 2368
      },
      {
        "club_badge_src": null,
        "entry": 789907,
        "entry_name": "Selfharmton FC",
        "event_total": 52,
        "has_played": true,
        "id": 5404330,
        "last_rank": 25172,
        "player_name": "Scott Phillips",
        "rank": 29830,
        "rank_sort": 29905,
        "total": 2368
      },
      {
        "club_badge_src": null,
        "entry": 812329,
        "entry_name": "Higgim",
        "event_total": 59,
        "has_played": true,
        "id": 5561968,
        "last_rank": 31747,
        "player_name": "Mathias Heggem",
        "rank": 29830,
        "rank_sort": 29906,
        "total": 2368
      },
      {
        "club_badge_src": null,
        "entry": 836957,
        "entry_name": "El Pistolero \u2b50\ufe0f",
        "event_total": 60,
        "has_played": true,
        "id": 5733441,
        "last_rank": 32751,
        "player_name": "Wilson Taveira",
        "rank": 29830,
        "rank_sort": 29907,
        "total": 2368
      },
      {
        "club_badge_src": null,
        "entry": 845250,
        "entry_name": "Reece's Set Pieces",
        "event_total": 51,
        "has_played": true,
        "id": 5791456,
        "last_rank": 24143,
        "player_name": "Craig Burkhart",
        "rank": 29830,
        "rank_sort": 29908,
        "total": 2368
      },
      {
        "club_badge_src": null,
        "entry": 855825,
        "entry_name": "YULNWA",
        "event_total": 82,
        "has_played": true,
        "id": 5866278,
        "last_rank": 64777,
        "player_name": "Moussa Horanieh",
        "rank": 29830,
        "rank_sort": 29909,
        "total": 2368
      },
      {
        "club_badge_src": "https://fantasy.premierleague.com/gcs/plfpl-production-adobe-approved/plfpl-production/901324/75b630df-50f7-4765-b4b7-0469401dc8e7.png",
        "entry": 901324,
        "entry_name": "R\u00f8nnaldo",
        "event_total": 44,
        "has_played": true,
        "id": 6193032,
        "last_rank": 18790,
        "player_name": "Marius R\u00f8nnekleiv",
        "rank": 29830,
        "rank_sort": 29910,
        "total": 2368
      },
      {
        "club_badge_src": null,
        "entry": 944414,
        "entry_name": "Ashes to Assists",
        "event_total": 57,
        "has_played": true,
        "id": 6504693,
        "last_rank": 29688,
        "player_name": "James Lacy-Smith",
        "rank": 29830,
        "rank_sort": 29911,
        "total": 2368
      },
      {
        "club_badge_src": "https://fantasy.premierleague.com/gcs/plfpl-production-adobe-approved/plfpl-production/951716/6dfcb409-52d0-4dae-aee6-b79d68303adb.png",
        "entry": 951716,
        "entry_name": "Soucek Me Off",
        "event_total": 62,
        "has_played": true,
        "id": 6556929,
        "last_rank": 35424,
        "player_name": "Conor Thumwood",
        "rank": 29830,
        "rank_sort": 29912,
        "total": 2368
      },
      {
        "club_badge_src": null,
        "entry": 963181,
        "entry_name": "Wood for the Trees!",
        "event_total": 58,
        "has_played": true,
        "id": 6637700,
        "last_rank": 30600,
        "player_name": "Jonny Horse",
        "rank": 29830,
        "rank_sort": 29913,
        "total": 2368
      },
      {
        "club_badge_src": null,
        "entry": 1025318,
        "entry_name": "IMA",
        "event_total": 60,
        "has_played": true,
        "id": 7093703,
        "last_rank": 32751,
        "player_name": "ibrahem asmi",
        "rank": 29830,
        "rank_sort": 29914,
        "total": 2368
      },
      {
        "club_badge_src": null,
        "entry": 1043620,
        "entry_name": "PukniPusko",
        "event_total": 66,
        "has_played": true,
        "id": 7222189,
        "last_rank": 39874,
        "player_name": "Aldin Dizdarevi\u0107",
        "rank": 29830,
        "rank_sort": 29915,
        "total": 2368
      },
      {
        "club_badge_src": null,
        "entry": 1046517,
        "entry_name": "Obi Wan-Bissaka",
        "event_total": 63,
        "has_played": true,
        "id": 7242634,
        "last_rank": 36348,
        "player_name": "Tatenda Gumbo",
        "rank": 29830,
        "rank_sort": 29916,
        "total": 2368
      },
      {
        "club_badge_src": null,
        "entry": 1053928,
        "entry_name": "Lily'sLucky11",
        "event_total": 56,
        "has_played": true,
        "id": 7293896,
        "last_rank": 28726,
        "player_name": "Tim Gilbertson",
        "rank": 29830,
        "rank_sort": 29917,
        "total": 2368
      },
      {
        "club_badge_src": null,
        "entry": 1084491,
        "entry_name": "Peaky Reijnders",
        "event_total": 66,
        "has_played": true,
        "id": 7509746,
        "last_rank": 35034,
        "player_name": "Aaron S",
        "rank": 29830,
        "rank_sort": 29918,
        "total": 2368
      },
      {
        "club_badge_src": null,
        "entry": 1084716,
        "entry_name": "Hamed Alwafi",
        "event_total": 64,
        "has_played": true,
        "id": 7511561,
        "last_rank": 37435,
        "player_name": "hamid Alwafi",
        "rank": 29830,
        "rank_sort": 29919,
        "total": 2368
      },
      {
        "club_badge_src": null,
        "entry": 1118245,
        "entry_name": "KalevanPooli",
        "event_total": 32,
        "has_played": true,
        "id": 7745915,
        "last_rank": 11642,
        "player_name": "Eero Tuomisto",
        "rank": 29830,
        "rank_sort": 29920,
        "total": 2368
      },
      {
        "club_badge_src": null,
        "entry": 1133980,
        "entry_name": "UnstoppaLee",
        "event_total": 74,
        "has_played": true,
        "id": 7860540,
        "last_rank": 51137,
        "player_name": "Chong Tsen Lee",
        "rank": 29830,
        "rank_sort": 29921,
        "total": 2368
      },
      {
        "club_badge_src": null,
        "entry": 1142190,
        "entry_name": "4\u202fBeto or Worse",
        "event_total": 51,
        "has_played": true,
        "id": 7917561,
        "last_rank": 24143,
        "player_name": "Christopher Holley",
        "rank": 29830,
        "rank_sort": 29922,
        "total": 2368
      },
      {
        "club_badge_src": null,
        "entry": 1177212,
        "entry_name": "MiaSanMia",
        "event_total": 63,
        "has_played": true,
        "id": 8168089,
        "last_rank": 36348,
        "player_name": "Ahmed Mazin",
        "rank": 29830,
        "rank_sort": 29923,
        "total": 2368
      },
      {
        "club_badge_src": null,
        "entry": 1195919,
        "entry_name": "Evolution",
        "event_total": 48,
        "has_played": true,
        "id": 8298156,
        "last_rank": 21775,
        "player_name": "James Little",
        "rank": 29830,
        "rank_sort": 29924,
        "total": 2368
      },
      {
        "club_badge_src": null,
        "entry": 1214052,
        "entry_name": "Ivory Library",
        "event_total": 68,
        "has_played": true,
        "id": 8426765,
        "last_rank": 42506,
        "player_name": "Dan Ivory",
        "rank": 29830,
        "rank_sort": 29925,
        "total": 2368
      },
      {
        "club_badge_src": null,
        "entry": 1251200,
        "entry_name": "420 united",
        "event_total": 56,
        "has_played": true,
        "id": 8690040,
        "last_rank": 28726,
        "player_name": "Angelo Dekkers",
        "rank": 29830,
        "rank_sort": 29926,
        "total": 2368
      },
      {
        "club_badge_src": null,
        "entry": 1267323,
        "entry_name": "Sukayo Baka",
        "event_total": 51,
        "has_played": true,
        "id": 8805532,
        "last_rank": 24143,
        "player_name": "Philip Svensson",
        "rank": 29830,
        "rank_sort": 29927,
        "total": 2368
      },
      {
        "club_badge_src": "https://fantasy.premierleague.com/gcs/plfpl-production-adobe-approved/plfpl-production/1310470/5b2ece10-72f2-4af7-b81a-34b8f4289fc6.png",
        "entry": 1310470,
        "entry_name": "arsendal",
        "event_total": 42,
        "has_played": true,
        "id": 9108905,
        "last_rank": 17358,
        "player_name": "Jonathan Adrian",
        "rank": 29830,
        "rank_sort": 29928,
        "total": 2368
      },
      {
        "club_badge_src": null,
        "entry": 1319909,
        "entry_name": "FK HRKLJU\u0160",
        "event_total": 65,
        "has_played": true,
        "id": 9174319,
        "last_rank": 38774,
        "player_name": "Gazda iz me\u0111ugorja",
        "rank": 29830,
        "rank_sort": 29929,
        "total": 2368
      },
      {
        "club_badge_src": null,
        "entry": 1327221,
        "entry_name": "Seven Nation Arne",
        "event_total": 59,
        "has_played": true,
        "id": 9225429,
        "last_rank": 31747,
        "player_name": "Henry Stewart",
        "rank": 29830,
        "rank_sort": 29930,
        "total": 2368
      },
      {
        "club_badge_src": null,
        "entry": 1419771,
        "entry_name": "Massive Gy\u00f6k",
        "event_total": 63,
        "has_played": true,
        "id": 9885735,
        "last_rank": 36200,
        "player_name": "Simon Connolly",
        "rank": 29830,
        "rank_sort": 29931,
        "total": 2368
      },
      {
        "club_badge_src": null,
        "entry": 1429783,
        "entry_name": "Baines On Toast",
        "event_total": 60,
        "has_played": true,
        "id": 9962740,
        "last_rank": 33147,
        "player_name": "Dean Glover",
        "rank": 29830,
        "rank_sort": 29932,
        "total": 2368
      },
      {
        "club_badge_src": null,
        "entry": 1486490,
        "entry_name": "Pop it like its Slot",
        "event_total": 43,
        "has_played": true,
        "id": 10366012,
        "last_rank": 18029,
        "player_name": "Mohammed Yusuf",
        "rank": 29830,
        "rank_sort": 29933,
        "total": 2368
      },
      {
        "club_badge_src": null,
        "entry": 1551345,
        "entry_name": "Palmer's Formula",
        "event_total": 70,
        "has_played": true,
        "id": 10831483,
        "last_rank": 45416,
        "player_name": "Piers collins",
        "rank": 29830,
        "rank_sort": 29934,
        "total": 2368
      },
      {
        "club_badge_src": null,
        "entry": 1556496,
        "entry_name": "Goats",
        "event_total": 62,
        "has_played": true,
        "id": 10868065,
        "last_rank": 35166,
        "player_name": "Zion Ezra",
        "rank": 29830,
        "rank_sort": 29935,
        "total": 2368
      },
      {
        "club_badge_src": null,
        "entry": 1574329,
        "entry_name": "Gbemmybaba",
        "event_total": 70,
        "has_played": true,
        "id": 11000890,
        "last_rank": 45252,
        "player_name": "Oluwagbeminija Omotoso",
        "rank": 29830,
        "rank_sort": 29936,
        "total": 2368
      },
      {
        "club_badge_src": null,
        "entry": 1577425,
        "entry_name": "Guldg\u00e4nget",
        "event_total": 75,
        "has_played": true,
        "id": 11022605,
        "last_rank": 53023,
        "player_name": "Lucas Larsson",
        "rank": 29830,
        "rank_sort": 29937,
        "total": 2368
      },
      {
        "club_badge_src": null,
        "entry": 1593289,
        "entry_name": "Lockerz 11",
        "event_total": 69,
        "has_played": true,
        "id": 11142880,
        "last_rank": 44048,
        "player_name": "Joe Lockley",
        "rank": 29830,
        "rank_sort": 29938,
        "total": 2368
      },
      {
        "club_badge_src": null,
        "entry": 1619661,
        "entry_name": "Gnonto shabby",
        "event_total": 55,
        "has_played": true,
        "id": 11333986,
        "last_rank": 27770,
        "player_name": "Adrian Dale",
        "rank": 29830,
        "rank_sort": 29939,
        "total": 2368
      },
      {
        "club_badge_src": null,
        "entry": 1642465,
        "entry_name": "Lonely at the Toprak",
        "event_total": 60,
        "has_played": true,
        "id": 11497572,
        "last_rank": 32879,
        "player_name": "Carlo Edwardes",
        "rank": 29830,
        "rank_sort": 29940,
        "total": 2368
      },
      {
        "club_badge_src": null,
        "entry": 1692396,
        "entry_name": "\u0950 \u0939\u0930\u093f \u0928\u093e\u0930\u093e\u092f\u0923",
        "event_total": 69,
        "has_played": true,
        "id": 11852862,
        "last_rank": 44048,
        "player_name": "Kusum Dhakal",
        "rank": 29830,
        "rank_sort": 29941,
        "total": 2368
      },
      {
        "club_badge_src": null,
        "entry": 1785998,
        "entry_name": "Goal of Duty",
        "event_total": 65,
        "has_played": true,
        "id": 12548943,
        "last_rank": 38644,
        "player_name": "Bilal Khalid",
        "rank": 29830,
        "rank_sort": 29942,
        "total": 2368
      },
      {
        "club_badge_src": null,
        "entry": 1844645,
        "entry_name": "Range Rovers",
        "event_total": 65,
        "has_played": true,
        "id": 12978794,
        "last_rank": 38774,
        "player_name": "Raihan Alauddin",
        "rank": 29830,
        "rank_sort": 29943,
        "total": 2368
      },
      {
        "club_badge_src": null,
        "entry": 1919412,
        "entry_name": "Spryer Leeverkusen",
        "event_total": 62,
        "has_played": true,
        "id": 13534571,
        "last_rank": 35034,
        "player_name": "Lee Spry",
        "rank": 29830,
        "rank_sort": 29944,
        "total": 2368
      },
      {
        "club_badge_src": "https://fantasy.premierleague.com/gcs/plfpl-production-adobe-approved/plfpl-production/1950999/116b16f4-2d0a-4d48-80bc-993215fa3a8b.png",
        "entry": 1950999,
        "entry_name": "Mina",
        "event_total": 72,
        "has_played": true,
        "id": 13762712,
        "last_rank": 48119,
        "player_name": "Mina Malak",
        "rank": 29830,
        "rank_sort": 29945,
        "total": 2368
      },
      {
        "club_badge_src": null,
        "entry": 2003474,
        "entry_name": "Wirtz every year",
        "event_total": 49,
        "has_played": true,
        "id": 14164402,
        "last_rank": 22534,
        "player_name": "Stephen Jeffery",
        "rank": 29830,
        "rank_sort": 29946,
        "total": 2368
      },
      {
        "club_badge_src": null,
        "entry": 2128391,
        "entry_name": "Reid\u2019s Rovers",
        "event_total": 47,
        "has_played": true,
        "id": 15123489,
        "last_rank": 20983,
        "player_name": "Daniel Reid",
        "rank": 29830,
        "rank_sort": 29947,
        "total": 2368
      },
      {
        "club_badge_src": null,
        "entry": 2133752,
        "entry_name": "RollingStones",
        "event_total": 57,
        "has_played": true,
        "id": 15163428,
        "last_rank": 29904,
        "player_name": "D Huckle",
        "rank": 29830,
        "rank_sort": 29948,
        "total": 2368
      },
      {
        "club_badge_src": null,
        "entry": 2312912,
        "entry_name": "Gram Stains",
        "event_total": 51,
        "has_played": true,
        "id": 16498687,
        "last_rank": 24039,
        "player_name": "Neil Oldfield",
        "rank": 29830,
        "rank_sort": 29949,
        "total": 2368
      },
      {
        "club_badge_src": null,
        "entry": 2373237,
        "entry_name": "Pas Dupli",
        "event_total": 55,
        "has_played": true,
        "id": 16942075,
        "last_rank": 27770,
        "player_name": "Bojan Medak",
        "rank": 29830,
        "rank_sort": 29950,
        "total": 2368
      }
    ]
  }
}