{
  "last_updated_data": "2026-05-24T23:28:17Z",
  "league": {
    "admin_entry": null,
    "closed": false,
    "code_privacy": "p",
    "created": "2025-07-20T23:14:33.933835Z",
    "cup_league": 2815434,
    "has_cup": true,
    "id": 314,
    "league_type": "s",
    "max_entries": null,
    "name": "Overall",
    "rank": null,
    "scoring": "c",
    "start_event": 1
  },
  "new_entries": {
    "has_next": false,
    "page": 1,
    "results": []
  },
  "standings": {
    "has_next": true,
    "page": 777,
    "results": [
      {
        "club_badge_src": null,
        "entry": 3871954,
        "entry_name": "DropIt LikeIts Slot",
        "event_total": 59,
        "has_played": true,
        "id": 29057189,
        "last_rank": 41617,
        "player_name": "King DB",
        "rank": 38615,
        "rank_sort": 38801,
        "total": 2360
      },
      {
        "club_badge_src": null,
        "entry": 3883924,
        "entry_name": "IdrinkandIknowthings",
        "event_total": 62,
        "has_played": true,
        "id": 29184072,
        "last_rank": 45416,
        "player_name": "Jishnu Dasgupta",
        "rank": 38615,
        "rank_sort": 38802,
        "total": 2360
      },
      {
        "club_badge_src": null,
        "entry": 3911803,
        "entry_name": "Sonny and Schar",
        "event_total": 65,
        "has_played": true,
        "id": 29411284,
        "last_rank": 49880,
        "player_name": "Sonny O-Sullivan",
        "rank": 38615,
        "rank_sort": 38803,
        "total": 2360
      },
      {
        "club_badge_src": null,
        "entry": 3917082,
        "entry_name": "PersonalDilemmaSquad",
        "event_total": 53,
        "has_played": true,
        "id": 29453600,
        "last_rank": 33936,
        "player_name": "Heather Yenco",
        "rank": 38615,
        "rank_sort": 38804,
        "total": 2360
      },
      {
        "club_badge_src": null,
        "entry": 3974835,
        "entry_name": "Real Ale Madrid",
        "event_total": 56,
        "has_played": true,
        "id": 29915772,
        "last_rank": 37435,
        "player_name": "Ryan Shaw",
        "rank": 38615,
        "rank_sort": 38805,
        "total": 2360
      },
      {
        "club_badge_src": null,
        "entry": 4094421,
        "entry_name": "magpie devils",
        "event_total": 48,
        "has_played": true,
        "id": 30914815,
        "last_rank": 28726,
        "player_name": "shane greenan",
        "rank": 38615,
        "rank_sort": 38806,
        "total": 2360
      },
      {
        "club_badge_src": null,
        "entry": 4166985,
        "entry_name": "Bia\u0142o Niebiescy",
        "event_total": 58,
        "has_played": true,
        "id": 31511892,
        "last_rank": 39874,
        "player_name": "Krystian Malys",
        "rank": 38615,
        "rank_sort": 38807,
        "total": 2360
      },
      {
        "club_badge_src": null,
        "entry": 4181884,
        "entry_name": "J",
        "event_total": 52,
        "has_played": true,
        "id": 31638290,
        "last_rank": 33147,
        "player_name": "\u0627\u0644\u0627\u0645\u064a\u0646 \u0627\u0644\u0627\u0645\u064a\u0646",
        "rank": 38615,
        "rank_sort": 38808,
        "total": 2360
      },
      {
        "club_badge_src": null,
        "entry": 4216959,
        "entry_name": "Harriers bouy",
        "event_total": 34,
        "has_played": true,
        "id": 31936323,
        "last_rank": 17437,
        "player_name": "Harvey Hannah",
        "rank": 38615,
        "rank_sort": 38809,
        "total": 2360
      },
      {
        "club_badge_src": "https://fantasy.premierleague.com/gcs/plfpl-production-adobe-approved/plfpl-production/4230624/4378a621-3fbc-48ee-92cf-a2109991fc9d.png",
        "entry": 4230624,
        "entry_name": "Let's be having you",
        "event_total": 62,
        "has_played": true,
        "id": 32054569,
        "last_rank": 45252,
        "player_name": "Phil Sofer",
        "rank": 38615,
        "rank_sort": 38810,
        "total": 2360
      },
      {
        "club_badge_src": null,
        "entry": 4452072,
        "entry_name": "FREAKY cf",
        "event_total": 40,
        "has_played": true,
        "id": 33910781,
        "last_rank": 21949,
        "player_name": "Freaky Maymoh",
        "rank": 38615,
        "rank_sort": 38811,
        "total": 2360
      },
      {
        "club_badge_src": "https://fantasy.premierleague.com/gcs/plfpl-production-adobe-approved/plfpl-production/4454989/e984a801-1484-4483-9c82-ae2aa777bbcc.png",
        "entry": 4454989,
        "entry_name": "WengerForever",
        "event_total": 44,
        "has_played": true,
        "id": 33935690,
        "last_rank": 25172,
        "player_name": "Aiman AR",
        "rank": 38615,
        "rank_sort": 38812,
        "total": 2360
      },
      {
        "club_badge_src": null,
        "entry": 4512724,
        "entry_name": "Pompelmo Salahd",
        "event_total": 65,
        "has_played": true,
        "id": 34410870,
        "last_rank": 49607,
        "player_name": "Saul Cooper",
        "rank": 38615,
        "rank_sort": 38813,
        "total": 2360
      },
      {
        "club_badge_src": null,
        "entry": 4540464,
        "entry_name": "Taking the Mykolenko",
        "event_total": 53,
        "has_played": true,
        "id": 34639134,
        "last_rank": 34051,
        "player_name": "Joe Woolrich",
        "rank": 38615,
        "rank_sort": 38814,
        "total": 2360
      },
      {
        "club_badge_src": null,
        "entry": 4566261,
        "entry_name": "Rogue Heros",
        "event_total": 59,
        "has_played": true,
        "id": 34845872,
        "last_rank": 41324,
        "player_name": "Hamish Mountford",
        "rank": 38615,
        "rank_sort": 38815,
        "total": 2360
      },
      {
        "club_badge_src": null,
        "entry": 4622673,
        "entry_name": "Stephen's 11",
        "event_total": 50,
        "has_played": true,
        "id": 35338060,
        "last_rank": 30727,
        "player_name": "Stephen Bruton",
        "rank": 38615,
        "rank_sort": 38816,
        "total": 2360
      },
      {
        "club_badge_src": null,
        "entry": 4638368,
        "entry_name": "GGMU",
        "event_total": 65,
        "has_played": true,
        "id": 35472472,
        "last_rank": 49880,
        "player_name": "Filip Dujic",
        "rank": 38615,
        "rank_sort": 38817,
        "total": 2360
      },
      {
        "club_badge_src": null,
        "entry": 4675371,
        "entry_name": "Car Park Rangers",
        "event_total": 60,
        "has_played": true,
        "id": 35816051,
        "last_rank": 42506,
        "player_name": "Mark Heale",
        "rank": 38615,
        "rank_sort": 38818,
        "total": 2360
      },
      {
        "club_badge_src": null,
        "entry": 4754907,
        "entry_name": "Saka potatoes",
        "event_total": 59,
        "has_played": true,
        "id": 36590255,
        "last_rank": 41617,
        "player_name": "James Boyd",
        "rank": 38615,
        "rank_sort": 38819,
        "total": 2360
      },
      {
        "club_badge_src": null,
        "entry": 4808479,
        "entry_name": "Bruno Penandes",
        "event_total": 57,
        "has_played": true,
        "id": 37024387,
        "last_rank": 38774,
        "player_name": "John Kyri",
        "rank": 38615,
        "rank_sort": 38820,
        "total": 2360
      },
      {
        "club_badge_src": null,
        "entry": 4909167,
        "entry_name": "Gaza will Victory",
        "event_total": 55,
        "has_played": true,
        "id": 37858138,
        "last_rank": 36142,
        "player_name": "M\u01ff\u015bt\u00e3f\u00e3 T\u01fbh\u01fb",
        "rank": 38615,
        "rank_sort": 38821,
        "total": 2360
      },
      {
        "club_badge_src": null,
        "entry": 4928973,
        "entry_name": "Mo\ufffdstafa Ragued",
        "event_total": 55,
        "has_played": true,
        "id": 38021337,
        "last_rank": 36624,
        "player_name": "mostafa Ragued",
        "rank": 38615,
        "rank_sort": 38822,
        "total": 2360
      },
      {
        "club_badge_src": null,
        "entry": 5079155,
        "entry_name": "Releg8ed",
        "event_total": 55,
        "has_played": true,
        "id": 39255094,
        "last_rank": 36348,
        "player_name": "John Andres",
        "rank": 38615,
        "rank_sort": 38823,
        "total": 2360
      },
      {
        "club_badge_src": null,
        "entry": 5095614,
        "entry_name": "Bangna Boy",
        "event_total": 69,
        "has_played": true,
        "id": 39385097,
        "last_rank": 49607,
        "player_name": "Methin Lersumitkul",
        "rank": 38615,
        "rank_sort": 38824,
        "total": 2360
      },
      {
        "club_badge_src": null,
        "entry": 5132514,
        "entry_name": "All The Smallings",
        "event_total": 62,
        "has_played": true,
        "id": 39696192,
        "last_rank": 45416,
        "player_name": "Janne Liimatta",
        "rank": 38615,
        "rank_sort": 38825,
        "total": 2360
      },
      {
        "club_badge_src": null,
        "entry": 5183895,
        "entry_name": "Inter Kavadarci",
        "event_total": 43,
        "has_played": true,
        "id": 40127043,
        "last_rank": 24143,
        "player_name": "Stojancho Trpchevski",
        "rank": 38615,
        "rank_sort": 38826,
        "total": 2360
      },
      {
        "club_badge_src": null,
        "entry": 5205630,
        "entry_name": "Gunning for Glory",
        "event_total": 71,
        "has_played": true,
        "id": 40318337,
        "last_rank": 59632,
        "player_name": "Nathan Charlery",
        "rank": 38615,
        "rank_sort": 38827,
        "total": 2360
      },
      {
        "club_badge_src": null,
        "entry": 5237824,
        "entry_name": "B UTD",
        "event_total": 62,
        "has_played": true,
        "id": 40590573,
        "last_rank": 45416,
        "player_name": "Bis Guru",
        "rank": 38615,
        "rank_sort": 38828,
        "total": 2360
      },
      {
        "club_badge_src": null,
        "entry": 5397547,
        "entry_name": "OpSide",
        "event_total": 66,
        "has_played": true,
        "id": 41965929,
        "last_rank": 51137,
        "player_name": "Ope Oyelami",
        "rank": 38615,
        "rank_sort": 38829,
        "total": 2360
      },
      {
        "club_badge_src": null,
        "entry": 5590312,
        "entry_name": "Pinguim FC",
        "event_total": 61,
        "has_played": true,
        "id": 43672797,
        "last_rank": 44048,
        "player_name": "Jason Fernandes",
        "rank": 38615,
        "rank_sort": 38830,
        "total": 2360
      },
      {
        "club_badge_src": null,
        "entry": 5636067,
        "entry_name": "SkiSunday",
        "event_total": 62,
        "has_played": true,
        "id": 44070830,
        "last_rank": 45252,
        "player_name": "Hardarsh Sidhu",
        "rank": 38615,
        "rank_sort": 38831,
        "total": 2360
      },
      {
        "club_badge_src": null,
        "entry": 5636449,
        "entry_name": "DMY",
        "event_total": 68,
        "has_played": true,
        "id": 44073954,
        "last_rank": 54667,
        "player_name": "D Morfee",
        "rank": 38615,
        "rank_sort": 38832,
        "total": 2360
      },
      {
        "club_badge_src": "https://fantasy.premierleague.com/gcs/plfpl-production-adobe-approved/plfpl-production/5702520/ef3d8885-0560-43ab-853b-f1656899c4cc.png",
        "entry": 5702520,
        "entry_name": "Sesko's Finest",
        "event_total": 66,
        "has_played": true,
        "id": 44649307,
        "last_rank": 51137,
        "player_name": "Charlotte Cork",
        "rank": 38615,
        "rank_sort": 38833,
        "total": 2360
      },
      {
        "club_badge_src": null,
        "entry": 5810674,
        "entry_name": "Earth Wind Maguire",
        "event_total": 64,
        "has_played": true,
        "id": 45591906,
        "last_rank": 48197,
        "player_name": "Ola Paulsrud",
        "rank": 38615,
        "rank_sort": 38834,
        "total": 2360
      },
      {
        "club_badge_src": null,
        "entry": 6014713,
        "entry_name": "Vandalite",
        "event_total": 61,
        "has_played": true,
        "id": 47428616,
        "last_rank": 44048,
        "player_name": "Ivelina Vandalova",
        "rank": 38615,
        "rank_sort": 38835,
        "total": 2360
      },
      {
        "club_badge_src": null,
        "entry": 6031398,
        "entry_name": "Atletico de Lorax",
        "event_total": 51,
        "has_played": true,
        "id": 47578464,
        "last_rank": 31747,
        "player_name": "Simen Kampen Hoglien",
        "rank": 38615,
        "rank_sort": 38836,
        "total": 2360
      },
      {
        "club_badge_src": "https://fantasy.premierleague.com/gcs/plfpl-production-adobe-approved/plfpl-production/6088860/fb155b37-9567-4664-aca3-3b38d52dc8e3.png",
        "entry": 6088860,
        "entry_name": "Maestro",
        "event_total": 60,
        "has_played": true,
        "id": 48079850,
        "last_rank": 42648,
        "player_name": "Kushagra Mullick",
        "rank": 38615,
        "rank_sort": 38837,
        "total": 2360
      },
      {
        "club_badge_src": null,
        "entry": 6143434,
        "entry_name": "Pep Squared",
        "event_total": 47,
        "has_played": true,
        "id": 48555591,
        "last_rank": 27770,
        "player_name": "Rahul Agarwal",
        "rank": 38615,
        "rank_sort": 38838,
        "total": 2360
      },
      {
        "club_badge_src": null,
        "entry": 6211216,
        "entry_name": "Kinder Mbuemo",
        "event_total": 68,
        "has_played": true,
        "id": 49141894,
        "last_rank": 55014,
        "player_name": "David Cusack",
        "rank": 38615,
        "rank_sort": 38839,
        "total": 2360
      },
      {
        "club_badge_src": null,
        "entry": 6236873,
        "entry_name": "Free Isak",
        "event_total": 64,
        "has_played": true,
        "id": 49362114,
        "last_rank": 48197,
        "player_name": "Sebastian Wik",
        "rank": 38615,
        "rank_sort": 38840,
        "total": 2360
      },
      {
        "club_badge_src": null,
        "entry": 6278515,
        "entry_name": "Wirtztherisk",
        "event_total": 69,
        "has_played": true,
        "id": 49722345,
        "last_rank": 56369,
        "player_name": "Neil Pennell",
        "rank": 38615,
        "rank_sort": 38841,
        "total": 2360
      },
      {
        "club_badge_src": "https://fantasy.premierleague.com/gcs/plfpl-production-adobe-approved/plfpl-production/6330494/ac7a891f-fd75-426c-9985-785a593ee11f.png",
        "entry": 6330494,
        "entry_name": "SeskoAirlines",
        "event_total": 55,
        "has_played": true,
        "id": 50307342,
        "last_rank": 36200,
        "player_name": "Gaurav Nepal",
        "rank": 38615,
        "rank_sort": 38842,
        "total": 2360
      },
      {
        "club_badge_src": null,
        "entry": 6371019,
        "entry_name": "What's goooody",
        "event_total": 67,
        "has_played": true,
        "id": 50663215,
        "last_rank": 52759,
        "player_name": "Will Halstead",
        "rank": 38615,
        "rank_sort": 38843,
        "total": 2360
      },
      {
        "club_badge_src": null,
        "entry": 6375670,
        "entry_name": "Agbadou-dou-dou",
        "event_total": 51,
        "has_played": true,
        "id": 50704248,
        "last_rank": 31747,
        "player_name": "Joe Satchwell",
        "rank": 38615,
        "rank_sort": 38844,
        "total": 2360
      },
      {
        "club_badge_src": null,
        "entry": 6451691,
        "entry_name": "estewaow",
        "event_total": 65,
        "has_played": true,
        "id": 51377259,
        "last_rank": 49880,
        "player_name": "Sander Kragh",
        "rank": 38615,
        "rank_sort": 38845,
        "total": 2360
      },
      {
        "club_badge_src": null,
        "entry": 6564623,
        "entry_name": "Alawadhi88",
        "event_total": 73,
        "has_played": true,
        "id": 52397166,
        "last_rank": 63080,
        "player_name": "Othman Alawadhi",
        "rank": 38615,
        "rank_sort": 38846,
        "total": 2360
      },
      {
        "club_badge_src": null,
        "entry": 6572514,
        "entry_name": "The Bentekers",
        "event_total": 58,
        "has_played": true,
        "id": 52470295,
        "last_rank": 40036,
        "player_name": "Mohamed Elkassas",
        "rank": 38615,
        "rank_sort": 38847,
        "total": 2360
      },
      {
        "club_badge_src": null,
        "entry": 6661592,
        "entry_name": "L'kipa",
        "event_total": 53,
        "has_played": true,
        "id": 53271472,
        "last_rank": 34293,
        "player_name": "Mohamed Arbi Matoussi",
        "rank": 38615,
        "rank_sort": 38848,
        "total": 2360
      },
      {
        "club_badge_src": "https://fantasy.premierleague.com/gcs/plfpl-production-adobe-approved/plfpl-production/6714940/5b1ab9ca-38df-40c0-a4bf-a116d4d8a05f.png",
        "entry": 6714940,
        "entry_name": "H\u00e5wk Pt\u00e4h",
        "event_total": 61,
        "has_played": true,
        "id": 53739238,
        "last_rank": 44048,
        "player_name": "Shadow Strike MARTIAN",
        "rank": 38615,
        "rank_sort": 38849,
        "total": 2360
      },
      {
        "club_badge_src": null,
        "entry": 6735099,
        "entry_name": "Surreal Madrid 2K26",
        "event_total": 51,
        "has_played": true,
        "id": 53910308,
        "last_rank": 31747,
        "player_name": "Paul Sheppard",
        "rank": 38615,
        "rank_sort": 38850,
        "total": 2360
      }
    ]
  }
}