{
  "last_updated_data": "2026-05-24T23:28:17Z",
  "league": {
    "admin_entry": null,
    "closed": false,
    "code_privacy": "p",
    "created": "2025-07-20T23:14:33.933835Z",
    "cup_league": 2815434,
    "has_cup": true,
    "id": 314,
    "league_type": "s",
    "max_entries": null,
    "name": "Overall",
    "rank": null,
    "scoring": "c",
    "start_event": 1
  },
  "new_entries": {
    "has_next": false,
    "page": 1,
    "results": []
  },
  "standings": {
    "has_next": true,
    "page": 1341,
    "results": [
      {
        "club_badge_src": null,
        "entry": 2818172,
        "entry_name": "Howe 2 Schlupp",
        "event_total": 54,
        "has_played": true,
        "id": 20585038,
        "last_rank": 61950,
        "player_name": "Ron Teo",
        "rank": 66895,
        "rank_sort": 67001,
        "total": 2342
      },
      {
        "club_badge_src": null,
        "entry": 2868228,
        "entry_name": "queiry:re",
        "event_total": 77,
        "has_played": true,
        "id": 20978484,
        "last_rank": 104388,
        "player_name": "tar hoy",
        "rank": 66895,
        "rank_sort": 67002,
        "total": 2342
      },
      {
        "club_badge_src": null,
        "entry": 2942328,
        "entry_name": "Mustafi on the Beat",
        "event_total": 62,
        "has_played": true,
        "id": 21590382,
        "last_rank": 78244,
        "player_name": "Warren Won",
        "rank": 66895,
        "rank_sort": 67003,
        "total": 2342
      },
      {
        "club_badge_src": null,
        "entry": 2954013,
        "entry_name": "Kompania Braci",
        "event_total": 50,
        "has_played": true,
        "id": 21696044,
        "last_rank": 55659,
        "player_name": "Maciej Liedtke",
        "rank": 66895,
        "rank_sort": 67004,
        "total": 2342
      },
      {
        "club_badge_src": null,
        "entry": 3082073,
        "entry_name": "The Canaries",
        "event_total": 67,
        "has_played": true,
        "id": 22706573,
        "last_rank": 89426,
        "player_name": "Magnus Larsson",
        "rank": 66895,
        "rank_sort": 67005,
        "total": 2342
      },
      {
        "club_badge_src": null,
        "entry": 3082087,
        "entry_name": "Wise Men Say",
        "event_total": 59,
        "has_played": true,
        "id": 22706718,
        "last_rank": 71956,
        "player_name": "Dee Curran",
        "rank": 66895,
        "rank_sort": 67006,
        "total": 2342
      },
      {
        "club_badge_src": null,
        "entry": 3103440,
        "entry_name": "Bruno Dos Tres",
        "event_total": 65,
        "has_played": true,
        "id": 22881382,
        "last_rank": 84980,
        "player_name": "Sadique PATEL",
        "rank": 66895,
        "rank_sort": 67007,
        "total": 2342
      },
      {
        "club_badge_src": null,
        "entry": 3147895,
        "entry_name": "Zubi Zubi Doo",
        "event_total": 64,
        "has_played": true,
        "id": 23243822,
        "last_rank": 73720,
        "player_name": "Yonis Abdulle",
        "rank": 66895,
        "rank_sort": 67008,
        "total": 2342
      },
      {
        "club_badge_src": null,
        "entry": 3150560,
        "entry_name": "Arcane",
        "event_total": 77,
        "has_played": true,
        "id": 23264820,
        "last_rank": 115760,
        "player_name": "Zlatan-s PA Tari",
        "rank": 66895,
        "rank_sort": 67009,
        "total": 2342
      },
      {
        "club_badge_src": null,
        "entry": 3168013,
        "entry_name": "Al Pengr",
        "event_total": 56,
        "has_played": true,
        "id": 23405529,
        "last_rank": 66057,
        "player_name": "Kristian Olsen",
        "rank": 66895,
        "rank_sort": 67010,
        "total": 2342
      },
      {
        "club_badge_src": null,
        "entry": 3289967,
        "entry_name": "Kry\u0161tof Goonuje",
        "event_total": 54,
        "has_played": true,
        "id": 24358079,
        "last_rank": 61606,
        "player_name": "Kry\u0161tof Dost\u00e1l",
        "rank": 66895,
        "rank_sort": 67011,
        "total": 2342
      },
      {
        "club_badge_src": null,
        "entry": 3330112,
        "entry_name": "Liam's Lads",
        "event_total": 56,
        "has_played": true,
        "id": 24690436,
        "last_rank": 66057,
        "player_name": "Liam Fitzpatrick",
        "rank": 66895,
        "rank_sort": 67012,
        "total": 2342
      },
      {
        "club_badge_src": null,
        "entry": 3333558,
        "entry_name": "Rashcelona FC",
        "event_total": 75,
        "has_played": true,
        "id": 24718412,
        "last_rank": 109454,
        "player_name": "jevon samuel",
        "rank": 66895,
        "rank_sort": 67013,
        "total": 2342
      },
      {
        "club_badge_src": null,
        "entry": 3336905,
        "entry_name": "Lambert",
        "event_total": 47,
        "has_played": true,
        "id": 24747252,
        "last_rank": 50635,
        "player_name": "Terje Wiik",
        "rank": 66895,
        "rank_sort": 67014,
        "total": 2342
      },
      {
        "club_badge_src": null,
        "entry": 3391119,
        "entry_name": "Drachten united",
        "event_total": 26,
        "has_played": true,
        "id": 25175380,
        "last_rank": 25517,
        "player_name": "Jerry Sun",
        "rank": 66895,
        "rank_sort": 67015,
        "total": 2342
      },
      {
        "club_badge_src": null,
        "entry": 3413261,
        "entry_name": "Berro FC",
        "event_total": 51,
        "has_played": true,
        "id": 25350680,
        "last_rank": 57358,
        "player_name": "Paul Herrington",
        "rank": 66895,
        "rank_sort": 67016,
        "total": 2342
      },
      {
        "club_badge_src": null,
        "entry": 3458691,
        "entry_name": "6wa7in najid",
        "event_total": 57,
        "has_played": true,
        "id": 25707902,
        "last_rank": 67926,
        "player_name": "Bassel Mohammed",
        "rank": 66895,
        "rank_sort": 67017,
        "total": 2342
      },
      {
        "club_badge_src": null,
        "entry": 3501537,
        "entry_name": "Bald Fraud XI",
        "event_total": 60,
        "has_played": true,
        "id": 26047430,
        "last_rank": 65796,
        "player_name": "Dan Cooper",
        "rank": 66895,
        "rank_sort": 67018,
        "total": 2342
      },
      {
        "club_badge_src": null,
        "entry": 3586793,
        "entry_name": "M7\u2019s Squad",
        "event_total": 53,
        "has_played": true,
        "id": 26711727,
        "last_rank": 60671,
        "player_name": "Mahmoud Deria",
        "rank": 66895,
        "rank_sort": 67019,
        "total": 2342
      },
      {
        "club_badge_src": null,
        "entry": 3607106,
        "entry_name": "Vinsanity FC",
        "event_total": 60,
        "has_played": true,
        "id": 26868747,
        "last_rank": 73720,
        "player_name": "Vince Alvarez",
        "rank": 66895,
        "rank_sort": 67020,
        "total": 2342
      },
      {
        "club_badge_src": null,
        "entry": 3654614,
        "entry_name": "Lallana Del Rey",
        "event_total": 59,
        "has_played": true,
        "id": 27243476,
        "last_rank": 71956,
        "player_name": "Sophie Barfoot",
        "rank": 66895,
        "rank_sort": 67021,
        "total": 2342
      },
      {
        "club_badge_src": null,
        "entry": 3747872,
        "entry_name": "Cold Palmer",
        "event_total": 49,
        "has_played": true,
        "id": 27980619,
        "last_rank": 53837,
        "player_name": "George Palmer",
        "rank": 66895,
        "rank_sort": 67022,
        "total": 2342
      },
      {
        "club_badge_src": null,
        "entry": 3782983,
        "entry_name": "\u00a3FplBigJohn",
        "event_total": 57,
        "has_played": true,
        "id": 28248949,
        "last_rank": 67926,
        "player_name": "Ioan Turcu",
        "rank": 66895,
        "rank_sort": 67023,
        "total": 2342
      },
      {
        "club_badge_src": null,
        "entry": 3887698,
        "entry_name": "ChampagneSuperRovers",
        "event_total": 39,
        "has_played": true,
        "id": 29213674,
        "last_rank": 39403,
        "player_name": "Christopher Isherwood",
        "rank": 66895,
        "rank_sort": 67024,
        "total": 2342
      },
      {
        "club_badge_src": "https://fantasy.premierleague.com/gcs/plfpl-production-adobe-approved/plfpl-production/3943746/dc1c74eb-ef33-4ac9-be6a-c1c5d18c3bcd.png",
        "entry": 3943746,
        "entry_name": "DropItLikeItsSwans",
        "event_total": 72,
        "has_played": true,
        "id": 29667181,
        "last_rank": 91835,
        "player_name": "James Mitchell",
        "rank": 66895,
        "rank_sort": 67025,
        "total": 2342
      },
      {
        "club_badge_src": null,
        "entry": 4016583,
        "entry_name": "Kinder Mbuemo",
        "event_total": 59,
        "has_played": true,
        "id": 30269044,
        "last_rank": 71956,
        "player_name": "Max Johnson",
        "rank": 66895,
        "rank_sort": 67026,
        "total": 2342
      },
      {
        "club_badge_src": null,
        "entry": 4127411,
        "entry_name": "Expected Toulouse",
        "event_total": 51,
        "has_played": true,
        "id": 31188153,
        "last_rank": 57200,
        "player_name": "Stefan Arsenijevic",
        "rank": 66895,
        "rank_sort": 67027,
        "total": 2342
      },
      {
        "club_badge_src": null,
        "entry": 4130639,
        "entry_name": "Scule96",
        "event_total": 65,
        "has_played": true,
        "id": 31214222,
        "last_rank": 75874,
        "player_name": "Seif Mahmoud",
        "rank": 66895,
        "rank_sort": 67028,
        "total": 2342
      },
      {
        "club_badge_src": null,
        "entry": 4237229,
        "entry_name": "Gogi United",
        "event_total": 67,
        "has_played": true,
        "id": 32109710,
        "last_rank": 71386,
        "player_name": "Goran Scekic",
        "rank": 66895,
        "rank_sort": 67029,
        "total": 2342
      },
      {
        "club_badge_src": null,
        "entry": 4319578,
        "entry_name": "Viktor Frauderes",
        "event_total": 66,
        "has_played": true,
        "id": 32781017,
        "last_rank": 87074,
        "player_name": "Gianluca Leo",
        "rank": 66895,
        "rank_sort": 67030,
        "total": 2342
      },
      {
        "club_badge_src": null,
        "entry": 4416473,
        "entry_name": "Trojan Warriors",
        "event_total": 70,
        "has_played": true,
        "id": 33599850,
        "last_rank": 87074,
        "player_name": "Achilleas Theodoulou",
        "rank": 66895,
        "rank_sort": 67031,
        "total": 2342
      },
      {
        "club_badge_src": null,
        "entry": 4450291,
        "entry_name": "Delap dance",
        "event_total": 62,
        "has_played": true,
        "id": 33895592,
        "last_rank": 78244,
        "player_name": "Alfi Hartono",
        "rank": 66895,
        "rank_sort": 67032,
        "total": 2342
      },
      {
        "club_badge_src": null,
        "entry": 4519754,
        "entry_name": "Save the Dias",
        "event_total": 63,
        "has_played": true,
        "id": 34468598,
        "last_rank": 71713,
        "player_name": "Greg Adams",
        "rank": 66895,
        "rank_sort": 67033,
        "total": 2342
      },
      {
        "club_badge_src": null,
        "entry": 4850999,
        "entry_name": "FinalFantasy III",
        "event_total": 61,
        "has_played": true,
        "id": 37375224,
        "last_rank": 76330,
        "player_name": "Solot Nakthong",
        "rank": 66895,
        "rank_sort": 67034,
        "total": 2342
      },
      {
        "club_badge_src": "https://fantasy.premierleague.com/gcs/plfpl-production-adobe-approved/plfpl-production/4962957/a3991056-0975-464a-b72f-5bbb8ce04ed2.png",
        "entry": 4962957,
        "entry_name": "TAA Very Much",
        "event_total": 59,
        "has_played": true,
        "id": 38299178,
        "last_rank": 71956,
        "player_name": "Julia RUDIN",
        "rank": 66895,
        "rank_sort": 67035,
        "total": 2342
      },
      {
        "club_badge_src": null,
        "entry": 5152101,
        "entry_name": "501st",
        "event_total": 63,
        "has_played": true,
        "id": 39860786,
        "last_rank": 71713,
        "player_name": "Julius Kaisar",
        "rank": 66895,
        "rank_sort": 67036,
        "total": 2342
      },
      {
        "club_badge_src": null,
        "entry": 5190621,
        "entry_name": "Power Reijnders",
        "event_total": 67,
        "has_played": true,
        "id": 40184605,
        "last_rank": 89426,
        "player_name": "Ben Harvey",
        "rank": 66895,
        "rank_sort": 67037,
        "total": 2342
      },
      {
        "club_badge_src": null,
        "entry": 5265442,
        "entry_name": "Gurame12",
        "event_total": 57,
        "has_played": true,
        "id": 40810566,
        "last_rank": 68107,
        "player_name": "M. Faried Wajedy",
        "rank": 66895,
        "rank_sort": 67038,
        "total": 2342
      },
      {
        "club_badge_src": null,
        "entry": 5399876,
        "entry_name": "kurd",
        "event_total": 52,
        "has_played": true,
        "id": 41985003,
        "last_rank": 51984,
        "player_name": "fpl kurd",
        "rank": 66895,
        "rank_sort": 67039,
        "total": 2342
      },
      {
        "club_badge_src": null,
        "entry": 5516257,
        "entry_name": "Aran\u2019s XI",
        "event_total": 69,
        "has_played": true,
        "id": 43006744,
        "last_rank": 94537,
        "player_name": "Aran Palma",
        "rank": 66895,
        "rank_sort": 67040,
        "total": 2342
      },
      {
        "club_badge_src": null,
        "entry": 5535653,
        "entry_name": "Oiled up AdamaTraor\u00e9",
        "event_total": 63,
        "has_played": true,
        "id": 43189570,
        "last_rank": 80194,
        "player_name": "Tomislav Iv\u0161an",
        "rank": 66895,
        "rank_sort": 67041,
        "total": 2342
      },
      {
        "club_badge_src": null,
        "entry": 5564164,
        "entry_name": "SaliBaba11",
        "event_total": 68,
        "has_played": true,
        "id": 43441770,
        "last_rank": 82069,
        "player_name": "Anmol Trikha",
        "rank": 66895,
        "rank_sort": 67042,
        "total": 2342
      },
      {
        "club_badge_src": "https://fantasy.premierleague.com/gcs/plfpl-production-adobe-approved/plfpl-production/5592699/c08b592e-fee9-4445-b53f-ccf5bcb58d06.png",
        "entry": 5592699,
        "entry_name": "Arthur Morgan",
        "event_total": 69,
        "has_played": true,
        "id": 43693643,
        "last_rank": 94537,
        "player_name": "Abdaljawad salem",
        "rank": 66895,
        "rank_sort": 67043,
        "total": 2342
      },
      {
        "club_badge_src": null,
        "entry": 5653762,
        "entry_name": "It Could Be Wirtz",
        "event_total": 78,
        "has_played": true,
        "id": 44229137,
        "last_rank": 106259,
        "player_name": "Marc Bentley",
        "rank": 66895,
        "rank_sort": 67044,
        "total": 2342
      },
      {
        "club_badge_src": null,
        "entry": 5795642,
        "entry_name": "FC Stromboli",
        "event_total": 59,
        "has_played": true,
        "id": 45461120,
        "last_rank": 56708,
        "player_name": "Fredrik Nystr\u00f6m",
        "rank": 66895,
        "rank_sort": 67045,
        "total": 2342
      },
      {
        "club_badge_src": null,
        "entry": 5902384,
        "entry_name": "Hooligans",
        "event_total": 74,
        "has_played": true,
        "id": 46373834,
        "last_rank": 107162,
        "player_name": "Alex Stevens",
        "rank": 66895,
        "rank_sort": 67046,
        "total": 2342
      },
      {
        "club_badge_src": "https://fantasy.premierleague.com/gcs/plfpl-production-adobe-approved/plfpl-production/6202513/7f88a550-6cca-41f8-9fe4-ebc98c8d1127.png",
        "entry": 6202513,
        "entry_name": "TOPSHORTER!!",
        "event_total": 64,
        "has_played": true,
        "id": 49066800,
        "last_rank": 82664,
        "player_name": "De Mabior",
        "rank": 66895,
        "rank_sort": 67047,
        "total": 2342
      },
      {
        "club_badge_src": null,
        "entry": 6317834,
        "entry_name": "Belve FC",
        "event_total": 60,
        "has_played": true,
        "id": 50146095,
        "last_rank": 73975,
        "player_name": "Calum Brown",
        "rank": 66895,
        "rank_sort": 67048,
        "total": 2342
      },
      {
        "club_badge_src": null,
        "entry": 6339524,
        "entry_name": "Rhythm Garden Back",
        "event_total": 67,
        "has_played": true,
        "id": 50387811,
        "last_rank": 89706,
        "player_name": "Salung Pitoon",
        "rank": 66895,
        "rank_sort": 67049,
        "total": 2342
      },
      {
        "club_badge_src": null,
        "entry": 6351583,
        "entry_name": "Kakao cuppen fc",
        "event_total": 62,
        "has_played": true,
        "id": 50493757,
        "last_rank": 61950,
        "player_name": "Christian Hansen",
        "rank": 66895,
        "rank_sort": 67050,
        "total": 2342
      }
    ]
  }
}