{
  "last_updated_data": "2026-05-24T23:28:17Z",
  "league": {
    "admin_entry": null,
    "closed": false,
    "code_privacy": "p",
    "created": "2025-07-20T23:14:33.933835Z",
    "cup_league": 2815434,
    "has_cup": true,
    "id": 314,
    "league_type": "s",
    "max_entries": null,
    "name": "Overall",
    "rank": null,
    "scoring": "c",
    "start_event": 1
  },
  "new_entries": {
    "has_next": false,
    "page": 1,
    "results": []
  },
  "standings": {
    "has_next": true,
    "page": 246,
    "results": [
      {
        "club_badge_src": null,
        "entry": 6450065,
        "entry_name": "wirtz case scenario",
        "event_total": 57,
        "has_played": true,
        "id": 51363161,
        "last_rank": 11642,
        "player_name": "Christian Summers",
        "rank": 12138,
        "rank_sort": 12251,
        "total": 2393
      },
      {
        "club_badge_src": null,
        "entry": 6472571,
        "entry_name": "Mr Whiskers",
        "event_total": 39,
        "has_played": true,
        "id": 51573518,
        "last_rank": 5400,
        "player_name": "James Boarotto",
        "rank": 12138,
        "rank_sort": 12252,
        "total": 2393
      },
      {
        "club_badge_src": "https://fantasy.premierleague.com/gcs/plfpl-production-adobe-approved/plfpl-production/6545003/6278430d-2b25-4b0e-ab81-fe1aff7a769f.png",
        "entry": 6545003,
        "entry_name": "Farzali FC",
        "event_total": 63,
        "has_played": true,
        "id": 52222808,
        "last_rank": 14926,
        "player_name": "Ismaeel Ali",
        "rank": 12138,
        "rank_sort": 12253,
        "total": 2393
      },
      {
        "club_badge_src": "https://fantasy.premierleague.com/gcs/plfpl-production-adobe-approved/plfpl-production/6882166/c668b96c-59c4-46df-8bf7-0e53d25482fb.png",
        "entry": 6882166,
        "entry_name": "St Kouko FC",
        "event_total": 66,
        "has_played": true,
        "id": 55154678,
        "last_rank": 16807,
        "player_name": "Panos Koukovinis",
        "rank": 12138,
        "rank_sort": 12254,
        "total": 2393
      },
      {
        "club_badge_src": null,
        "entry": 6959539,
        "entry_name": "Czelsa Wrzos\u00f3w",
        "event_total": 62,
        "has_played": true,
        "id": 55812617,
        "last_rank": 14292,
        "player_name": "Pawel Gajda",
        "rank": 12138,
        "rank_sort": 12255,
        "total": 2393
      },
      {
        "club_badge_src": "https://fantasy.premierleague.com/gcs/plfpl-production-adobe-approved/plfpl-production/7178581/5651b58f-6f3f-4760-864b-df5f7cff5ad9.png",
        "entry": 7178581,
        "entry_name": "Equator001",
        "event_total": 63,
        "has_played": true,
        "id": 57932982,
        "last_rank": 14926,
        "player_name": "Chukwuagozie Ikwueto",
        "rank": 12138,
        "rank_sort": 12256,
        "total": 2393
      },
      {
        "club_badge_src": null,
        "entry": 7187414,
        "entry_name": "Yoro Wizard, Harry",
        "event_total": 61,
        "has_played": true,
        "id": 58016138,
        "last_rank": 13821,
        "player_name": "Diarmuid Gleeson",
        "rank": 12138,
        "rank_sort": 12257,
        "total": 2393
      },
      {
        "club_badge_src": null,
        "entry": 7226357,
        "entry_name": "The Saints",
        "event_total": 51,
        "has_played": true,
        "id": 58381323,
        "last_rank": 9089,
        "player_name": "Arni Gislason",
        "rank": 12138,
        "rank_sort": 12258,
        "total": 2393
      },
      {
        "club_badge_src": null,
        "entry": 7262207,
        "entry_name": "christos fc",
        "event_total": 80,
        "has_played": true,
        "id": 58720402,
        "last_rank": 27564,
        "player_name": "Christos Mermingas",
        "rank": 12138,
        "rank_sort": 12259,
        "total": 2393
      },
      {
        "club_badge_src": null,
        "entry": 7320843,
        "entry_name": "Change Name",
        "event_total": 65,
        "has_played": true,
        "id": 59271677,
        "last_rank": 13754,
        "player_name": "Adrian Gomez-Liste",
        "rank": 12138,
        "rank_sort": 12260,
        "total": 2393
      },
      {
        "club_badge_src": null,
        "entry": 7557837,
        "entry_name": "FC Ushaiger",
        "event_total": 69,
        "has_played": true,
        "id": 61882653,
        "last_rank": 18655,
        "player_name": "Aziz Jasir",
        "rank": 12138,
        "rank_sort": 12261,
        "total": 2393
      },
      {
        "club_badge_src": "https://fantasy.premierleague.com/gcs/plfpl-production-adobe-approved/plfpl-production/7743684/5406a171-8160-40e8-b870-7df95eb9db22.png",
        "entry": 7743684,
        "entry_name": "Goon Squad",
        "event_total": 51,
        "has_played": true,
        "id": 63564034,
        "last_rank": 9142,
        "player_name": "Malan G",
        "rank": 12138,
        "rank_sort": 12262,
        "total": 2393
      },
      {
        "club_badge_src": "https://fantasy.premierleague.com/gcs/plfpl-production-adobe-approved/plfpl-production/7781390/b6cb9fb7-95f8-4a1d-bb7a-e332fa8ccfca.png",
        "entry": 7781390,
        "entry_name": "Inter Milo",
        "event_total": 53,
        "has_played": true,
        "id": 63906365,
        "last_rank": 9885,
        "player_name": "Miles Hendy",
        "rank": 12138,
        "rank_sort": 12263,
        "total": 2393
      },
      {
        "club_badge_src": null,
        "entry": 7811052,
        "entry_name": "Leads Untied",
        "event_total": 70,
        "has_played": true,
        "id": 64173027,
        "last_rank": 19432,
        "player_name": "Richard Madill",
        "rank": 12138,
        "rank_sort": 12264,
        "total": 2393
      },
      {
        "club_badge_src": null,
        "entry": 8348448,
        "entry_name": "Haydo456",
        "event_total": 68,
        "has_played": true,
        "id": 69187800,
        "last_rank": 18113,
        "player_name": "Hayden Gray",
        "rank": 12138,
        "rank_sort": 12265,
        "total": 2393
      },
      {
        "club_badge_src": null,
        "entry": 8590286,
        "entry_name": "Will i nill i",
        "event_total": 66,
        "has_played": true,
        "id": 71504376,
        "last_rank": 16807,
        "player_name": "Colin Williams",
        "rank": 12138,
        "rank_sort": 12266,
        "total": 2393
      },
      {
        "club_badge_src": null,
        "entry": 8710280,
        "entry_name": "Mic mic",
        "event_total": 47,
        "has_played": true,
        "id": 72678587,
        "last_rank": 7676,
        "player_name": "Winter is Coming",
        "rank": 12138,
        "rank_sort": 12267,
        "total": 2393
      },
      {
        "club_badge_src": null,
        "entry": 8803392,
        "entry_name": "Go With My Gut",
        "event_total": 39,
        "has_played": true,
        "id": 73577512,
        "last_rank": 5400,
        "player_name": "Alan Raven",
        "rank": 12138,
        "rank_sort": 12268,
        "total": 2393
      },
      {
        "club_badge_src": null,
        "entry": 9011461,
        "entry_name": "Nane",
        "event_total": 65,
        "has_played": true,
        "id": 75590709,
        "last_rank": 16163,
        "player_name": "Nedim Nanic",
        "rank": 12138,
        "rank_sort": 12269,
        "total": 2393
      },
      {
        "club_badge_src": null,
        "entry": 9096790,
        "entry_name": "david3101",
        "event_total": 48,
        "has_played": true,
        "id": 76420208,
        "last_rank": 8032,
        "player_name": "David Sablji\u0107",
        "rank": 12138,
        "rank_sort": 12270,
        "total": 2393
      },
      {
        "club_badge_src": null,
        "entry": 9343858,
        "entry_name": "Berny Hung Paris",
        "event_total": 66,
        "has_played": true,
        "id": 78829214,
        "last_rank": 16729,
        "player_name": "Berny Hung",
        "rank": 12138,
        "rank_sort": 12271,
        "total": 2393
      },
      {
        "club_badge_src": null,
        "entry": 1453,
        "entry_name": "kj\u00f8hh",
        "event_total": 68,
        "has_played": true,
        "id": 8081,
        "last_rank": 15550,
        "player_name": "Eirik Lillefosse",
        "rank": 12272,
        "rank_sort": 12272,
        "total": 2393
      },
      {
        "club_badge_src": null,
        "entry": 2369,
        "entry_name": "Bruno-nly Fans",
        "event_total": 72,
        "has_played": true,
        "id": 13211,
        "last_rank": 20888,
        "player_name": "Viljami Siekkinen",
        "rank": 12272,
        "rank_sort": 12273,
        "total": 2393
      },
      {
        "club_badge_src": null,
        "entry": 7759,
        "entry_name": "Wile E. Kayode",
        "event_total": 63,
        "has_played": true,
        "id": 44777,
        "last_rank": 12705,
        "player_name": "Gihan Karunanayake",
        "rank": 12272,
        "rank_sort": 12274,
        "total": 2393
      },
      {
        "club_badge_src": null,
        "entry": 8895,
        "entry_name": "Change Name",
        "event_total": 65,
        "has_played": true,
        "id": 51962,
        "last_rank": 13821,
        "player_name": "Rory P",
        "rank": 12272,
        "rank_sort": 12275,
        "total": 2393
      },
      {
        "club_badge_src": null,
        "entry": 19727,
        "entry_name": "It's Kolarov Time",
        "event_total": 67,
        "has_played": true,
        "id": 122774,
        "last_rank": 14926,
        "player_name": "Rich D",
        "rank": 12272,
        "rank_sort": 12276,
        "total": 2393
      },
      {
        "club_badge_src": null,
        "entry": 26358,
        "entry_name": "KingIghalo25",
        "event_total": 63,
        "has_played": true,
        "id": 166653,
        "last_rank": 14926,
        "player_name": "Aaron Peck",
        "rank": 12272,
        "rank_sort": 12277,
        "total": 2393
      },
      {
        "club_badge_src": "https://fantasy.premierleague.com/gcs/plfpl-production-adobe-approved/plfpl-production/32272/02d70fd3-da4c-4812-8e7b-2e8eae48cc7e.png",
        "entry": 32272,
        "entry_name": "Supersaintees",
        "event_total": 63,
        "has_played": true,
        "id": 205225,
        "last_rank": 14857,
        "player_name": "Roy Spiers",
        "rank": 12272,
        "rank_sort": 12278,
        "total": 2393
      },
      {
        "club_badge_src": null,
        "entry": 47965,
        "entry_name": "On Porrowed Time",
        "event_total": 67,
        "has_played": true,
        "id": 307872,
        "last_rank": 14926,
        "player_name": "William Doyle",
        "rank": 12272,
        "rank_sort": 12279,
        "total": 2393
      },
      {
        "club_badge_src": null,
        "entry": 47990,
        "entry_name": "15 Angry Men",
        "event_total": 60,
        "has_played": true,
        "id": 308022,
        "last_rank": 13184,
        "player_name": "Mateusz Polak",
        "rank": 12272,
        "rank_sort": 12280,
        "total": 2393
      },
      {
        "club_badge_src": "https://fantasy.premierleague.com/gcs/plfpl-production-adobe-approved/plfpl-production/49951/fe25ccec-3d8d-481b-bdf6-423e4b3e7e4b.png",
        "entry": 49951,
        "entry_name": "Rubwn Samorim",
        "event_total": 73,
        "has_played": true,
        "id": 321150,
        "last_rank": 21677,
        "player_name": "Sam Brown",
        "rank": 12272,
        "rank_sort": 12281,
        "total": 2393
      },
      {
        "club_badge_src": null,
        "entry": 55110,
        "entry_name": "*SUPERDUDES*",
        "event_total": 66,
        "has_played": true,
        "id": 354686,
        "last_rank": 16807,
        "player_name": "Sean Allen",
        "rank": 12272,
        "rank_sort": 12282,
        "total": 2393
      },
      {
        "club_badge_src": null,
        "entry": 61705,
        "entry_name": "Tinteam",
        "event_total": 84,
        "has_played": true,
        "id": 397487,
        "last_rank": 31747,
        "player_name": "Tomas Ingebrigtsen",
        "rank": 12272,
        "rank_sort": 12283,
        "total": 2393
      },
      {
        "club_badge_src": null,
        "entry": 91752,
        "entry_name": "Togbapp\u00e9",
        "event_total": 51,
        "has_played": true,
        "id": 599419,
        "last_rank": 9248,
        "player_name": "Simon Togba",
        "rank": 12272,
        "rank_sort": 12284,
        "total": 2393
      },
      {
        "club_badge_src": null,
        "entry": 95080,
        "entry_name": "White Devil",
        "event_total": 58,
        "has_played": true,
        "id": 621313,
        "last_rank": 12322,
        "player_name": "Fadi Mikhail",
        "rank": 12272,
        "rank_sort": 12285,
        "total": 2393
      },
      {
        "club_badge_src": null,
        "entry": 101153,
        "entry_name": "Poor Tore's Almanack",
        "event_total": 60,
        "has_played": true,
        "id": 660048,
        "last_rank": 13401,
        "player_name": "Tore Skodjereite",
        "rank": 12272,
        "rank_sort": 12286,
        "total": 2393
      },
      {
        "club_badge_src": null,
        "entry": 116462,
        "entry_name": "NMT FC",
        "event_total": 51,
        "has_played": true,
        "id": 760325,
        "last_rank": 7676,
        "player_name": "Cahir McLaughlin",
        "rank": 12272,
        "rank_sort": 12287,
        "total": 2393
      },
      {
        "club_badge_src": null,
        "entry": 149873,
        "entry_name": "I Baleba Can Fly",
        "event_total": 60,
        "has_played": true,
        "id": 982731,
        "last_rank": 13257,
        "player_name": "Niall Moclair",
        "rank": 12272,
        "rank_sort": 12288,
        "total": 2393
      },
      {
        "club_badge_src": null,
        "entry": 151717,
        "entry_name": "Dabber Utd",
        "event_total": 56,
        "has_played": true,
        "id": 995471,
        "last_rank": 11345,
        "player_name": "carl horan",
        "rank": 12272,
        "rank_sort": 12289,
        "total": 2393
      },
      {
        "club_badge_src": null,
        "entry": 162217,
        "entry_name": "\u039c\u03bf\u03c5\u03c3\u03b1\u03c6\u03af\u03c1\u03b7\u03c2 \u039c\u03b5\u03bb\u03bb\u03ac\u03c2",
        "event_total": 55,
        "has_played": true,
        "id": 1069180,
        "last_rank": 10805,
        "player_name": "Aggelos Symidalas",
        "rank": 12272,
        "rank_sort": 12290,
        "total": 2393
      },
      {
        "club_badge_src": null,
        "entry": 189730,
        "entry_name": "Havana Onana",
        "event_total": 61,
        "has_played": true,
        "id": 1255982,
        "last_rank": 11699,
        "player_name": "Harshvardhan Sarvagyam",
        "rank": 12272,
        "rank_sort": 12291,
        "total": 2393
      },
      {
        "club_badge_src": null,
        "entry": 190858,
        "entry_name": "The Hell",
        "event_total": 60,
        "has_played": true,
        "id": 1264022,
        "last_rank": 11237,
        "player_name": "Ibraheem Gomaa",
        "rank": 12272,
        "rank_sort": 12292,
        "total": 2393
      },
      {
        "club_badge_src": null,
        "entry": 193919,
        "entry_name": "ShdwlkrsFC",
        "event_total": 68,
        "has_played": true,
        "id": 1285493,
        "last_rank": 18029,
        "player_name": "Viv Mendes",
        "rank": 12272,
        "rank_sort": 12293,
        "total": 2393
      },
      {
        "club_badge_src": null,
        "entry": 204309,
        "entry_name": "Ezzz",
        "event_total": 62,
        "has_played": true,
        "id": 1357840,
        "last_rank": 14370,
        "player_name": "\u0141ukasz Zdrojewski",
        "rank": 12272,
        "rank_sort": 12294,
        "total": 2393
      },
      {
        "club_badge_src": null,
        "entry": 208802,
        "entry_name": "Scores when he wants",
        "event_total": 66,
        "has_played": true,
        "id": 1388404,
        "last_rank": 16807,
        "player_name": "Basti Hansmann",
        "rank": 12272,
        "rank_sort": 12295,
        "total": 2393
      },
      {
        "club_badge_src": null,
        "entry": 234720,
        "entry_name": "Castagnemannen",
        "event_total": 56,
        "has_played": true,
        "id": 1561839,
        "last_rank": 11345,
        "player_name": "Martin Torp",
        "rank": 12272,
        "rank_sort": 12296,
        "total": 2393
      },
      {
        "club_badge_src": null,
        "entry": 249624,
        "entry_name": "M.C. Mullan",
        "event_total": 70,
        "has_played": true,
        "id": 1661100,
        "last_rank": 16807,
        "player_name": "Adrian McMullan",
        "rank": 12272,
        "rank_sort": 12297,
        "total": 2393
      },
      {
        "club_badge_src": null,
        "entry": 252138,
        "entry_name": "IThinkYouShouldLevy",
        "event_total": 80,
        "has_played": true,
        "id": 1677208,
        "last_rank": 24143,
        "player_name": "Kevin Slane",
        "rank": 12272,
        "rank_sort": 12298,
        "total": 2393
      },
      {
        "club_badge_src": "https://fantasy.premierleague.com/gcs/plfpl-production-adobe-approved/plfpl-production/272255/c56c7ea1-854a-4921-bf41-8b8227bc6fb5.png",
        "entry": 272255,
        "entry_name": "Vineyard keeper",
        "event_total": 71,
        "has_played": true,
        "id": 1811367,
        "last_rank": 20280,
        "player_name": "Milo\u0161 Pudar",
        "rank": 12272,
        "rank_sort": 12299,
        "total": 2393
      },
      {
        "club_badge_src": null,
        "entry": 275785,
        "entry_name": "schwarzundweiss",
        "event_total": 62,
        "has_played": true,
        "id": 1835507,
        "last_rank": 14496,
        "player_name": "Niall Gunning",
        "rank": 12272,
        "rank_sort": 12300,
        "total": 2393
      }
    ]
  }
}