{
  "last_updated_data": "2026-05-24T23:28:17Z",
  "league": {
    "admin_entry": null,
    "closed": false,
    "code_privacy": "p",
    "created": "2025-07-20T23:14:33.933835Z",
    "cup_league": 2815434,
    "has_cup": true,
    "id": 314,
    "league_type": "s",
    "max_entries": null,
    "name": "Overall",
    "rank": null,
    "scoring": "c",
    "start_event": 1
  },
  "new_entries": {
    "has_next": false,
    "page": 1,
    "results": []
  },
  "standings": {
    "has_next": true,
    "page": 202,
    "results": [
      {
        "club_badge_src": null,
        "entry": 4425451,
        "entry_name": "Wirtz Case Scenario",
        "event_total": 75,
        "has_played": true,
        "id": 33681121,
        "last_rank": 19432,
        "player_name": "Ben McCabe",
        "rank": 9970,
        "rank_sort": 10051,
        "total": 2398
      },
      {
        "club_badge_src": null,
        "entry": 4584426,
        "entry_name": "LampardsTerrys",
        "event_total": 57,
        "has_played": true,
        "id": 35000610,
        "last_rank": 9536,
        "player_name": "Andrew McMurtrie",
        "rank": 9970,
        "rank_sort": 10052,
        "total": 2398
      },
      {
        "club_badge_src": null,
        "entry": 4649386,
        "entry_name": "RedDevilz FC",
        "event_total": 57,
        "has_played": true,
        "id": 35569948,
        "last_rank": 9536,
        "player_name": "Deepak R",
        "rank": 9970,
        "rank_sort": 10053,
        "total": 2398
      },
      {
        "club_badge_src": null,
        "entry": 4664293,
        "entry_name": "The Immortals",
        "event_total": 69,
        "has_played": true,
        "id": 35724367,
        "last_rank": 15452,
        "player_name": "Boy Andri",
        "rank": 9970,
        "rank_sort": 10054,
        "total": 2398
      },
      {
        "club_badge_src": null,
        "entry": 4672693,
        "entry_name": "Eldudorinos",
        "event_total": 60,
        "has_played": true,
        "id": 35793666,
        "last_rank": 10748,
        "player_name": "irfan ahmed",
        "rank": 9970,
        "rank_sort": 10055,
        "total": 2398
      },
      {
        "club_badge_src": null,
        "entry": 4705492,
        "entry_name": "PJ Like SanMig Light",
        "event_total": 57,
        "has_played": true,
        "id": 36078370,
        "last_rank": 9536,
        "player_name": "Pa-Em J.",
        "rank": 9970,
        "rank_sort": 10056,
        "total": 2398
      },
      {
        "club_badge_src": null,
        "entry": 4876306,
        "entry_name": "Watching Cricket",
        "event_total": 55,
        "has_played": true,
        "id": 37588766,
        "last_rank": 8687,
        "player_name": "Philip Bacon",
        "rank": 9970,
        "rank_sort": 10057,
        "total": 2398
      },
      {
        "club_badge_src": null,
        "entry": 5127641,
        "entry_name": "Rafas Hammers",
        "event_total": 60,
        "has_played": true,
        "id": 39654266,
        "last_rank": 10805,
        "player_name": "Richard Spurling",
        "rank": 9970,
        "rank_sort": 10058,
        "total": 2398
      },
      {
        "club_badge_src": null,
        "entry": 5256013,
        "entry_name": "Under My Cucurella",
        "event_total": 64,
        "has_played": true,
        "id": 40736391,
        "last_rank": 12645,
        "player_name": "Alex Jay",
        "rank": 9970,
        "rank_sort": 10059,
        "total": 2398
      },
      {
        "club_badge_src": null,
        "entry": 5276406,
        "entry_name": "Team Spence",
        "event_total": 61,
        "has_played": true,
        "id": 40896715,
        "last_rank": 11237,
        "player_name": "Steven Spence",
        "rank": 9970,
        "rank_sort": 10060,
        "total": 2398
      },
      {
        "club_badge_src": null,
        "entry": 5428657,
        "entry_name": "CK Athletic FC",
        "event_total": 63,
        "has_played": true,
        "id": 42225470,
        "last_rank": 12200,
        "player_name": "Colin Kerr",
        "rank": 9970,
        "rank_sort": 10061,
        "total": 2398
      },
      {
        "club_badge_src": null,
        "entry": 5496384,
        "entry_name": "WASH FC",
        "event_total": 51,
        "has_played": true,
        "id": 42817365,
        "last_rank": 7333,
        "player_name": "Greg Shaw",
        "rank": 9970,
        "rank_sort": 10062,
        "total": 2398
      },
      {
        "club_badge_src": null,
        "entry": 5510949,
        "entry_name": "Rodgered It Again",
        "event_total": 57,
        "has_played": true,
        "id": 42955654,
        "last_rank": 9459,
        "player_name": "Gav Whyte",
        "rank": 9970,
        "rank_sort": 10063,
        "total": 2398
      },
      {
        "club_badge_src": null,
        "entry": 5690130,
        "entry_name": "The Invincibles",
        "event_total": 70,
        "has_played": true,
        "id": 44543298,
        "last_rank": 16039,
        "player_name": "Luca Figura",
        "rank": 9970,
        "rank_sort": 10064,
        "total": 2398
      },
      {
        "club_badge_src": null,
        "entry": 5696244,
        "entry_name": "Aaram Yanited",
        "event_total": 56,
        "has_played": true,
        "id": 44595485,
        "last_rank": 9248,
        "player_name": "Thomas Aaram",
        "rank": 9970,
        "rank_sort": 10065,
        "total": 2398
      },
      {
        "club_badge_src": null,
        "entry": 5781309,
        "entry_name": "Sack Onana",
        "event_total": 71,
        "has_played": true,
        "id": 45334899,
        "last_rank": 16729,
        "player_name": "Eoin Preston",
        "rank": 9970,
        "rank_sort": 10066,
        "total": 2398
      },
      {
        "club_badge_src": null,
        "entry": 5988594,
        "entry_name": "Bowen Arrow",
        "event_total": 53,
        "has_played": true,
        "id": 47180448,
        "last_rank": 7979,
        "player_name": "Charlie Cook",
        "rank": 9970,
        "rank_sort": 10067,
        "total": 2398
      },
      {
        "club_badge_src": null,
        "entry": 6064957,
        "entry_name": "pace merchant",
        "event_total": 71,
        "has_played": true,
        "id": 47869054,
        "last_rank": 16702,
        "player_name": "Jack Charlesworth",
        "rank": 9970,
        "rank_sort": 10068,
        "total": 2398
      },
      {
        "club_badge_src": null,
        "entry": 6276972,
        "entry_name": "Zambodia United",
        "event_total": 76,
        "has_played": true,
        "id": 49708231,
        "last_rank": 20147,
        "player_name": "Ryley Quint",
        "rank": 9970,
        "rank_sort": 10069,
        "total": 2398
      },
      {
        "club_badge_src": null,
        "entry": 6553078,
        "entry_name": "Ellie's Switchblade",
        "event_total": 53,
        "has_played": true,
        "id": 52294741,
        "last_rank": 8032,
        "player_name": "Areeb Hussain",
        "rank": 9970,
        "rank_sort": 10070,
        "total": 2398
      },
      {
        "club_badge_src": null,
        "entry": 6554044,
        "entry_name": "Ranesh",
        "event_total": 70,
        "has_played": true,
        "id": 52303114,
        "last_rank": 16029,
        "player_name": "Finn Wills",
        "rank": 9970,
        "rank_sort": 10071,
        "total": 2398
      },
      {
        "club_badge_src": null,
        "entry": 6586153,
        "entry_name": "Cheesy Wirtzits",
        "event_total": 60,
        "has_played": true,
        "id": 52597793,
        "last_rank": 10748,
        "player_name": "Dee Aggarwal",
        "rank": 9970,
        "rank_sort": 10072,
        "total": 2398
      },
      {
        "club_badge_src": null,
        "entry": 7208779,
        "entry_name": "I love Lamp(ard)",
        "event_total": 77,
        "has_played": true,
        "id": 58215538,
        "last_rank": 20853,
        "player_name": "Steven Pirks",
        "rank": 9970,
        "rank_sort": 10073,
        "total": 2398
      },
      {
        "club_badge_src": null,
        "entry": 7408372,
        "entry_name": "Mo Sahrami",
        "event_total": 60,
        "has_played": true,
        "id": 60095765,
        "last_rank": 10805,
        "player_name": "Jani Kinnunen",
        "rank": 9970,
        "rank_sort": 10074,
        "total": 2398
      },
      {
        "club_badge_src": null,
        "entry": 7733344,
        "entry_name": "West Hull Tigers",
        "event_total": 62,
        "has_played": true,
        "id": 63471301,
        "last_rank": 11608,
        "player_name": "David Elliott",
        "rank": 9970,
        "rank_sort": 10075,
        "total": 2398
      },
      {
        "club_badge_src": null,
        "entry": 7963578,
        "entry_name": "Baka i Djed Spence",
        "event_total": 56,
        "has_played": true,
        "id": 65562057,
        "last_rank": 9142,
        "player_name": "Rok Fajdetic",
        "rank": 9970,
        "rank_sort": 10076,
        "total": 2398
      },
      {
        "club_badge_src": null,
        "entry": 8103996,
        "entry_name": "Adam FootBall",
        "event_total": 52,
        "has_played": true,
        "id": 66838252,
        "last_rank": 7625,
        "player_name": "Adam Ball",
        "rank": 9970,
        "rank_sort": 10077,
        "total": 2398
      },
      {
        "club_badge_src": null,
        "entry": 8881173,
        "entry_name": "Sponsir United",
        "event_total": 57,
        "has_played": true,
        "id": 74326115,
        "last_rank": 9536,
        "player_name": "Nicholas Goh",
        "rank": 9970,
        "rank_sort": 10078,
        "total": 2398
      },
      {
        "club_badge_src": "https://fantasy.premierleague.com/gcs/plfpl-production-adobe-approved/plfpl-production/2718/7921046c-7dad-4e82-9007-c4473aa2e7ec.png",
        "entry": 2718,
        "entry_name": "Lil Uzi Wirtz",
        "event_total": 46,
        "has_played": true,
        "id": 15238,
        "last_rank": 6011,
        "player_name": "Aatman Khedkar",
        "rank": 10079,
        "rank_sort": 10079,
        "total": 2398
      },
      {
        "club_badge_src": null,
        "entry": 13054,
        "entry_name": "fraudiola",
        "event_total": 57,
        "has_played": true,
        "id": 78647,
        "last_rank": 8032,
        "player_name": "Francis Kyemanu",
        "rank": 10079,
        "rank_sort": 10080,
        "total": 2398
      },
      {
        "club_badge_src": "https://fantasy.premierleague.com/gcs/plfpl-production-adobe-approved/plfpl-production/31565/ae609a2a-c681-4cf2-870d-0845367db1ab.png",
        "entry": 31565,
        "entry_name": "Dench FC",
        "event_total": 67,
        "has_played": true,
        "id": 200180,
        "last_rank": 14292,
        "player_name": "Edward Edney",
        "rank": 10079,
        "rank_sort": 10081,
        "total": 2398
      },
      {
        "club_badge_src": null,
        "entry": 47817,
        "entry_name": "Kroos Control",
        "event_total": 61,
        "has_played": true,
        "id": 306888,
        "last_rank": 9536,
        "player_name": "Marek Dmowski",
        "rank": 10079,
        "rank_sort": 10082,
        "total": 2398
      },
      {
        "club_badge_src": "https://fantasy.premierleague.com/gcs/plfpl-production-adobe-approved/plfpl-production/51514/187f9923-a6a6-49ae-9bcc-ba3d30895a18.png",
        "entry": 51514,
        "entry_name": "Hala Madrid",
        "event_total": 72,
        "has_played": true,
        "id": 331291,
        "last_rank": 14832,
        "player_name": "Basheer Aloshari",
        "rank": 10079,
        "rank_sort": 10083,
        "total": 2398
      },
      {
        "club_badge_src": "https://fantasy.premierleague.com/gcs/plfpl-production-adobe-approved/plfpl-production/52664/81e115c9-3d09-4b4d-a228-c510dc995a02.png",
        "entry": 52664,
        "entry_name": "Crystal Kapoeloe*",
        "event_total": 51,
        "has_played": true,
        "id": 338642,
        "last_rank": 6166,
        "player_name": "Menno Kasbergen",
        "rank": 10079,
        "rank_sort": 10084,
        "total": 2398
      },
      {
        "club_badge_src": null,
        "entry": 78393,
        "entry_name": "corn on the Kobbie",
        "event_total": 68,
        "has_played": true,
        "id": 509705,
        "last_rank": 14926,
        "player_name": "K S",
        "rank": 10079,
        "rank_sort": 10085,
        "total": 2398
      },
      {
        "club_badge_src": null,
        "entry": 79280,
        "entry_name": "On Your Ederson",
        "event_total": 62,
        "has_played": true,
        "id": 515604,
        "last_rank": 11699,
        "player_name": "Elliott Green",
        "rank": 10079,
        "rank_sort": 10086,
        "total": 2398
      },
      {
        "club_badge_src": null,
        "entry": 95828,
        "entry_name": "Drogba fc",
        "event_total": 65,
        "has_played": true,
        "id": 626051,
        "last_rank": 11175,
        "player_name": "Mattias Seth",
        "rank": 10079,
        "rank_sort": 10087,
        "total": 2398
      },
      {
        "club_badge_src": null,
        "entry": 115701,
        "entry_name": "Ajax Treesdown",
        "event_total": 67,
        "has_played": true,
        "id": 755165,
        "last_rank": 12200,
        "player_name": "Joshua Lane",
        "rank": 10079,
        "rank_sort": 10088,
        "total": 2398
      },
      {
        "club_badge_src": null,
        "entry": 155158,
        "entry_name": "Siggelona",
        "event_total": 66,
        "has_played": true,
        "id": 1019567,
        "last_rank": 13821,
        "player_name": "Sigurd Skoglund",
        "rank": 10079,
        "rank_sort": 10089,
        "total": 2398
      },
      {
        "club_badge_src": null,
        "entry": 161273,
        "entry_name": "BANICEK",
        "event_total": 67,
        "has_played": true,
        "id": 1062401,
        "last_rank": 12200,
        "player_name": "Ond\u0159ej Vokuli\u010d",
        "rank": 10079,
        "rank_sort": 10090,
        "total": 2398
      },
      {
        "club_badge_src": "https://fantasy.premierleague.com/gcs/plfpl-production-adobe-approved/plfpl-production/167909/addbd5b0-d42f-4624-b4eb-1053fffe8e25.png",
        "entry": 167909,
        "entry_name": "Elkomy007",
        "event_total": 67,
        "has_played": true,
        "id": 1109875,
        "last_rank": 14496,
        "player_name": "Mohamed El Komy",
        "rank": 10079,
        "rank_sort": 10091,
        "total": 2398
      },
      {
        "club_badge_src": "https://fantasy.premierleague.com/gcs/plfpl-production-adobe-approved/plfpl-production/186397/d73f724b-4313-452c-bc0b-b77777ebc2a7.png",
        "entry": 186397,
        "entry_name": "Sabaijais_",
        "event_total": 54,
        "has_played": true,
        "id": 1231857,
        "last_rank": 8484,
        "player_name": "Phuvich Chavitrutaigul",
        "rank": 10079,
        "rank_sort": 10092,
        "total": 2398
      },
      {
        "club_badge_src": null,
        "entry": 189524,
        "entry_name": "Running Wild",
        "event_total": 60,
        "has_played": true,
        "id": 1254490,
        "last_rank": 10920,
        "player_name": "Richard Parkes",
        "rank": 10079,
        "rank_sort": 10093,
        "total": 2398
      },
      {
        "club_badge_src": null,
        "entry": 205271,
        "entry_name": "HaCunhaMateta",
        "event_total": 57,
        "has_played": true,
        "id": 1364395,
        "last_rank": 9644,
        "player_name": "Deklyn Johnstone",
        "rank": 10079,
        "rank_sort": 10094,
        "total": 2398
      },
      {
        "club_badge_src": null,
        "entry": 236387,
        "entry_name": "Team Styren",
        "event_total": 71,
        "has_played": true,
        "id": 1572799,
        "last_rank": 14370,
        "player_name": "Erik Styren",
        "rank": 10079,
        "rank_sort": 10095,
        "total": 2398
      },
      {
        "club_badge_src": null,
        "entry": 264789,
        "entry_name": "Amorim's Twin",
        "event_total": 51,
        "has_played": true,
        "id": 1760944,
        "last_rank": 7450,
        "player_name": "Anthony Hanna",
        "rank": 10079,
        "rank_sort": 10096,
        "total": 2398
      },
      {
        "club_badge_src": "https://fantasy.premierleague.com/gcs/plfpl-production-adobe-approved/plfpl-production/266671/e707aa27-4eb9-412d-a0f7-e689a6b0d8dd.png",
        "entry": 266671,
        "entry_name": "Cherno more",
        "event_total": 66,
        "has_played": true,
        "id": 1773898,
        "last_rank": 13947,
        "player_name": "Michael For\u0161t",
        "rank": 10079,
        "rank_sort": 10097,
        "total": 2398
      },
      {
        "club_badge_src": "https://fantasy.premierleague.com/gcs/plfpl-production-adobe-approved/plfpl-production/285427/f1916fe6-b0e5-4430-8628-41ac345c20a8.png",
        "entry": 285427,
        "entry_name": "big ugly bear",
        "event_total": 65,
        "has_played": true,
        "id": 1901036,
        "last_rank": 13257,
        "player_name": "Matthew Wright",
        "rank": 10079,
        "rank_sort": 10098,
        "total": 2398
      },
      {
        "club_badge_src": null,
        "entry": 340903,
        "entry_name": "sportingabeerbelly",
        "event_total": 57,
        "has_played": true,
        "id": 2281916,
        "last_rank": 8032,
        "player_name": "Stuart McDonnell",
        "rank": 10079,
        "rank_sort": 10099,
        "total": 2398
      },
      {
        "club_badge_src": null,
        "entry": 353966,
        "entry_name": "Making Gains",
        "event_total": 59,
        "has_played": true,
        "id": 2368993,
        "last_rank": 10346,
        "player_name": "Bradley Gains",
        "rank": 10079,
        "rank_sort": 10100,
        "total": 2398
      }
    ]
  }
}