{
  "last_updated_data": "2026-05-24T23:28:17Z",
  "league": {
    "admin_entry": null,
    "closed": false,
    "code_privacy": "p",
    "created": "2025-07-20T23:14:33.933835Z",
    "cup_league": 2815434,
    "has_cup": true,
    "id": 314,
    "league_type": "s",
    "max_entries": null,
    "name": "Overall",
    "rank": null,
    "scoring": "c",
    "start_event": 1
  },
  "new_entries": {
    "has_next": false,
    "page": 1,
    "results": []
  },
  "standings": {
    "has_next": true,
    "page": 1593,
    "results": [
      {
        "club_badge_src": null,
        "entry": 4297518,
        "entry_name": "Rusty Wills",
        "event_total": 56,
        "has_played": true,
        "id": 32602565,
        "last_rank": 78964,
        "player_name": "Samantha Williams",
        "rank": 79596,
        "rank_sort": 79601,
        "total": 2335
      },
      {
        "club_badge_src": null,
        "entry": 9360212,
        "entry_name": "Mrdr n Zidanes Floor",
        "event_total": 60,
        "has_played": true,
        "id": 78985227,
        "last_rank": 88127,
        "player_name": "Tom Shimmon",
        "rank": 79596,
        "rank_sort": 79602,
        "total": 2335
      },
      {
        "club_badge_src": null,
        "entry": 10611,
        "entry_name": "The Flying Squad",
        "event_total": 57,
        "has_played": true,
        "id": 62815,
        "last_rank": 81211,
        "player_name": "Dominic Sweeney",
        "rank": 79603,
        "rank_sort": 79603,
        "total": 2335
      },
      {
        "club_badge_src": null,
        "entry": 535469,
        "entry_name": "MCCM",
        "event_total": 65,
        "has_played": true,
        "id": 3603975,
        "last_rank": 100488,
        "player_name": "Tinxhi m",
        "rank": 79603,
        "rank_sort": 79604,
        "total": 2335
      },
      {
        "club_badge_src": null,
        "entry": 757182,
        "entry_name": "Green Machine",
        "event_total": 70,
        "has_played": true,
        "id": 5156422,
        "last_rank": 114040,
        "player_name": "Brandon Green",
        "rank": 79603,
        "rank_sort": 79605,
        "total": 2335
      },
      {
        "club_badge_src": null,
        "entry": 1591795,
        "entry_name": "Piqu\u00e9 Blinders",
        "event_total": 70,
        "has_played": true,
        "id": 11130311,
        "last_rank": 114011,
        "player_name": "Dave Cowen",
        "rank": 79603,
        "rank_sort": 79606,
        "total": 2335
      },
      {
        "club_badge_src": null,
        "entry": 4259991,
        "entry_name": "Me, Myself, Ndiaye",
        "event_total": 61,
        "has_played": true,
        "id": 32298364,
        "last_rank": 90524,
        "player_name": "Ollie Nash",
        "rank": 79603,
        "rank_sort": 79607,
        "total": 2335
      },
      {
        "club_badge_src": null,
        "entry": 5223231,
        "entry_name": "ABCDE FC",
        "event_total": 44,
        "has_played": true,
        "id": 40471345,
        "last_rank": 56047,
        "player_name": "Dale Boreham",
        "rank": 79603,
        "rank_sort": 79608,
        "total": 2335
      },
      {
        "club_badge_src": null,
        "entry": 5422501,
        "entry_name": "Court Farm",
        "event_total": 61,
        "has_played": true,
        "id": 42174309,
        "last_rank": 90524,
        "player_name": "William Musgrave",
        "rank": 79603,
        "rank_sort": 79609,
        "total": 2335
      },
      {
        "club_badge_src": null,
        "entry": 5884806,
        "entry_name": "Florian Duuurtz",
        "event_total": 53,
        "has_played": true,
        "id": 46226735,
        "last_rank": 72638,
        "player_name": "Emmett O Conghaile",
        "rank": 79603,
        "rank_sort": 79610,
        "total": 2335
      },
      {
        "club_badge_src": null,
        "entry": 6450324,
        "entry_name": "As \u00c1guias",
        "event_total": 64,
        "has_played": true,
        "id": 51365393,
        "last_rank": 97954,
        "player_name": "Evan Waks",
        "rank": 79603,
        "rank_sort": 79611,
        "total": 2335
      },
      {
        "club_badge_src": "https://fantasy.premierleague.com/gcs/plfpl-production-adobe-approved/plfpl-production/6773936/37eb49fc-6f2b-406d-bb4f-aea7416c93d9.png",
        "entry": 6773936,
        "entry_name": "Hufflepuff",
        "event_total": 52,
        "has_played": true,
        "id": 54239567,
        "last_rank": 70584,
        "player_name": "L Ayiga",
        "rank": 79603,
        "rank_sort": 79612,
        "total": 2335
      },
      {
        "club_badge_src": null,
        "entry": 8663705,
        "entry_name": "Athletic tillnow",
        "event_total": 35,
        "has_played": true,
        "id": 72225833,
        "last_rank": 42378,
        "player_name": "Chris Wardale",
        "rank": 79603,
        "rank_sort": 79613,
        "total": 2335
      },
      {
        "club_badge_src": null,
        "entry": 179702,
        "entry_name": "kinder mbuemo",
        "event_total": 51,
        "has_played": true,
        "id": 1185842,
        "last_rank": 68544,
        "player_name": "Callum Mckay",
        "rank": 79614,
        "rank_sort": 79614,
        "total": 2335
      },
      {
        "club_badge_src": null,
        "entry": 230722,
        "entry_name": "Club de Stevie Ray's",
        "event_total": 51,
        "has_played": true,
        "id": 1534993,
        "last_rank": 68585,
        "player_name": "Fraser Garland-Barnes",
        "rank": 79614,
        "rank_sort": 79615,
        "total": 2335
      },
      {
        "club_badge_src": null,
        "entry": 714155,
        "entry_name": "Quinn it to win it",
        "event_total": 62,
        "has_played": true,
        "id": 4845054,
        "last_rank": 83485,
        "player_name": "Liam Quinn",
        "rank": 79614,
        "rank_sort": 79616,
        "total": 2335
      },
      {
        "club_badge_src": null,
        "entry": 732907,
        "entry_name": "Brute XI",
        "event_total": 57,
        "has_played": true,
        "id": 4980506,
        "last_rank": 81244,
        "player_name": "Anupam Roy",
        "rank": 79614,
        "rank_sort": 79617,
        "total": 2335
      },
      {
        "club_badge_src": null,
        "entry": 805406,
        "entry_name": "Di Canio Believe It?",
        "event_total": 52,
        "has_played": true,
        "id": 5513411,
        "last_rank": 70600,
        "player_name": "Bella Winn",
        "rank": 79614,
        "rank_sort": 79618,
        "total": 2335
      },
      {
        "club_badge_src": null,
        "entry": 952596,
        "entry_name": "Yoro Wissa Harry",
        "event_total": 40,
        "has_played": true,
        "id": 6563228,
        "last_rank": 49572,
        "player_name": "Reece Lothian",
        "rank": 79614,
        "rank_sort": 79619,
        "total": 2335
      },
      {
        "club_badge_src": null,
        "entry": 1726855,
        "entry_name": "In it to mcginn it",
        "event_total": 61,
        "has_played": true,
        "id": 12109986,
        "last_rank": 90565,
        "player_name": "Rowan sheehan",
        "rank": 79614,
        "rank_sort": 79620,
        "total": 2335
      },
      {
        "club_badge_src": null,
        "entry": 2056591,
        "entry_name": "Change Name",
        "event_total": 97,
        "has_played": true,
        "id": 14569022,
        "last_rank": 211293,
        "player_name": "Milos Pajcin",
        "rank": 79614,
        "rank_sort": 79621,
        "total": 2335
      },
      {
        "club_badge_src": null,
        "entry": 2061955,
        "entry_name": "Rutter Woke Nonsense",
        "event_total": 59,
        "has_played": true,
        "id": 14610211,
        "last_rank": 85870,
        "player_name": "Craig Thunder",
        "rank": 79614,
        "rank_sort": 79622,
        "total": 2335
      },
      {
        "club_badge_src": "https://fantasy.premierleague.com/gcs/plfpl-production-adobe-approved/plfpl-production/2784192/28df8c5d-0dd6-4a21-840b-3f060be88cf4.png",
        "entry": 2784192,
        "entry_name": "MakGiteau FC",
        "event_total": 57,
        "has_played": true,
        "id": 20325100,
        "last_rank": 81244,
        "player_name": "John Makgato",
        "rank": 79614,
        "rank_sort": 79623,
        "total": 2335
      },
      {
        "club_badge_src": null,
        "entry": 4345265,
        "entry_name": "PLUM1",
        "event_total": 68,
        "has_played": true,
        "id": 32994401,
        "last_rank": 108420,
        "player_name": "Matt Plumridge",
        "rank": 79614,
        "rank_sort": 79624,
        "total": 2335
      },
      {
        "club_badge_src": null,
        "entry": 4706898,
        "entry_name": "All Hail The Queen",
        "event_total": 48,
        "has_played": true,
        "id": 36094837,
        "last_rank": 63051,
        "player_name": "Hailey Matsuyama",
        "rank": 79614,
        "rank_sort": 79625,
        "total": 2335
      },
      {
        "club_badge_src": null,
        "entry": 4936929,
        "entry_name": "Silva Linings",
        "event_total": 50,
        "has_played": true,
        "id": 38089573,
        "last_rank": 66658,
        "player_name": "Stuart Edmunds",
        "rank": 79614,
        "rank_sort": 79626,
        "total": 2335
      },
      {
        "club_badge_src": null,
        "entry": 5398333,
        "entry_name": "Stranger Ings",
        "event_total": 67,
        "has_played": true,
        "id": 41972539,
        "last_rank": 105723,
        "player_name": "Kevin Jones",
        "rank": 79614,
        "rank_sort": 79627,
        "total": 2335
      },
      {
        "club_badge_src": null,
        "entry": 5483424,
        "entry_name": "Kal Me Maybe",
        "event_total": 73,
        "has_played": true,
        "id": 42696420,
        "last_rank": 122897,
        "player_name": "Connor Heydon",
        "rank": 79614,
        "rank_sort": 79628,
        "total": 2335
      },
      {
        "club_badge_src": null,
        "entry": 5683842,
        "entry_name": "Yahya",
        "event_total": 81,
        "has_played": true,
        "id": 44489815,
        "last_rank": 148979,
        "player_name": "Yahya Mallouli",
        "rank": 79614,
        "rank_sort": 79629,
        "total": 2335
      },
      {
        "club_badge_src": null,
        "entry": 6136279,
        "entry_name": "Slot-it-up-Diaz",
        "event_total": 33,
        "has_played": true,
        "id": 48493463,
        "last_rank": 39784,
        "player_name": "Gary Wood",
        "rank": 79614,
        "rank_sort": 79630,
        "total": 2335
      },
      {
        "club_badge_src": null,
        "entry": 6313110,
        "entry_name": "EarleyBoys",
        "event_total": 46,
        "has_played": true,
        "id": 50093142,
        "last_rank": 59496,
        "player_name": "Christopher Earley",
        "rank": 79614,
        "rank_sort": 79631,
        "total": 2335
      },
      {
        "club_badge_src": null,
        "entry": 7646824,
        "entry_name": "XAVIER",
        "event_total": 43,
        "has_played": true,
        "id": 62687828,
        "last_rank": 54380,
        "player_name": "Xavier Legolas",
        "rank": 79614,
        "rank_sort": 79632,
        "total": 2335
      },
      {
        "club_badge_src": null,
        "entry": 8151273,
        "entry_name": "Injury Prone FC",
        "event_total": 54,
        "has_played": true,
        "id": 67280643,
        "last_rank": 74712,
        "player_name": "Declan McGivern",
        "rank": 79614,
        "rank_sort": 79633,
        "total": 2335
      },
      {
        "club_badge_src": null,
        "entry": 65494,
        "entry_name": "Skilliman Ndiaye",
        "event_total": 62,
        "has_played": true,
        "id": 422856,
        "last_rank": 92973,
        "player_name": "Max Heron",
        "rank": 79634,
        "rank_sort": 79634,
        "total": 2335
      },
      {
        "club_badge_src": null,
        "entry": 157766,
        "entry_name": "Dynamo Didsbury",
        "event_total": 43,
        "has_played": true,
        "id": 1037990,
        "last_rank": 54380,
        "player_name": "Ian Bryan",
        "rank": 79634,
        "rank_sort": 79635,
        "total": 2335
      },
      {
        "club_badge_src": null,
        "entry": 202840,
        "entry_name": "Brown Star Belgrade",
        "event_total": 76,
        "has_played": true,
        "id": 1347229,
        "last_rank": 132132,
        "player_name": "Matt Miller",
        "rank": 79634,
        "rank_sort": 79636,
        "total": 2335
      },
      {
        "club_badge_src": null,
        "entry": 379327,
        "entry_name": "Back of the Neto",
        "event_total": 66,
        "has_played": true,
        "id": 2541665,
        "last_rank": 103017,
        "player_name": "Aimee Williams",
        "rank": 79634,
        "rank_sort": 79637,
        "total": 2335
      },
      {
        "club_badge_src": null,
        "entry": 1188583,
        "entry_name": "BamaBlues",
        "event_total": 70,
        "has_played": true,
        "id": 8247014,
        "last_rank": 114055,
        "player_name": "John Wainwright",
        "rank": 79634,
        "rank_sort": 79638,
        "total": 2335
      },
      {
        "club_badge_src": "https://fantasy.premierleague.com/gcs/plfpl-production-adobe-approved/plfpl-production/1591340/30fd8e4c-eda9-43bd-b07f-0d273a09f7fe.png",
        "entry": 1591340,
        "entry_name": "Kante touch this",
        "event_total": 48,
        "has_played": true,
        "id": 11127158,
        "last_rank": 63051,
        "player_name": "alan li",
        "rank": 79634,
        "rank_sort": 79639,
        "total": 2335
      },
      {
        "club_badge_src": null,
        "entry": 1596789,
        "entry_name": "Oles Team Building",
        "event_total": 47,
        "has_played": true,
        "id": 11170100,
        "last_rank": 61258,
        "player_name": "Ole Andre Kristoffersen Hellman",
        "rank": 79634,
        "rank_sort": 79640,
        "total": 2335
      },
      {
        "club_badge_src": null,
        "entry": 1909389,
        "entry_name": "The king",
        "event_total": 72,
        "has_played": true,
        "id": 13461370,
        "last_rank": 119846,
        "player_name": "Mohamed abdelsalam",
        "rank": 79634,
        "rank_sort": 79641,
        "total": 2335
      },
      {
        "club_badge_src": null,
        "entry": 1976585,
        "entry_name": "A-cunha Mateta",
        "event_total": 59,
        "has_played": true,
        "id": 13952485,
        "last_rank": 85932,
        "player_name": "Ayodeji Adebayo",
        "rank": 79634,
        "rank_sort": 79642,
        "total": 2335
      },
      {
        "club_badge_src": null,
        "entry": 2115697,
        "entry_name": "Cheta\ufffd",
        "event_total": 57,
        "has_played": true,
        "id": 15024186,
        "last_rank": 81312,
        "player_name": "Echeta Elijah",
        "rank": 79634,
        "rank_sort": 79643,
        "total": 2335
      },
      {
        "club_badge_src": null,
        "entry": 2713482,
        "entry_name": "Barry Biceps",
        "event_total": 36,
        "has_played": true,
        "id": 19523488,
        "last_rank": 43786,
        "player_name": "Jamie King",
        "rank": 79634,
        "rank_sort": 79644,
        "total": 2335
      },
      {
        "club_badge_src": null,
        "entry": 3092602,
        "entry_name": "Benchwarmers",
        "event_total": 53,
        "has_played": true,
        "id": 22792335,
        "last_rank": 72638,
        "player_name": "Mitesh Somaiya",
        "rank": 79634,
        "rank_sort": 79645,
        "total": 2335
      },
      {
        "club_badge_src": null,
        "entry": 3510386,
        "entry_name": "BoomXhakaLaca",
        "event_total": 61,
        "has_played": true,
        "id": 26119872,
        "last_rank": 90625,
        "player_name": "Kevin Armour",
        "rank": 79634,
        "rank_sort": 79646,
        "total": 2335
      },
      {
        "club_badge_src": null,
        "entry": 3538326,
        "entry_name": "Touchdown Sonny",
        "event_total": 54,
        "has_played": true,
        "id": 26337424,
        "last_rank": 74787,
        "player_name": "James Kwon",
        "rank": 79634,
        "rank_sort": 79647,
        "total": 2335
      },
      {
        "club_badge_src": null,
        "entry": 5196686,
        "entry_name": "Ctrl Alt De Ligt",
        "event_total": 43,
        "has_played": true,
        "id": 40236486,
        "last_rank": 54380,
        "player_name": "Alun belmont",
        "rank": 79634,
        "rank_sort": 79648,
        "total": 2335
      },
      {
        "club_badge_src": "https://fantasy.premierleague.com/gcs/plfpl-production-adobe-approved/plfpl-production/6411302/8a46d8ea-feea-4842-91de-b883d3411d62.png",
        "entry": 6411302,
        "entry_name": "fcheetad",
        "event_total": 51,
        "has_played": true,
        "id": 51019851,
        "last_rank": 68585,
        "player_name": "tatsapol rattanasangsri",
        "rank": 79634,
        "rank_sort": 79649,
        "total": 2335
      },
      {
        "club_badge_src": null,
        "entry": 7133810,
        "entry_name": "Peps Away",
        "event_total": 55,
        "has_played": true,
        "id": 57497010,
        "last_rank": 76908,
        "player_name": "Neil Heppenstall",
        "rank": 79634,
        "rank_sort": 79650,
        "total": 2335
      }
    ]
  }
}