{
  "last_updated_data": "2026-05-24T23:28:17Z",
  "league": {
    "admin_entry": null,
    "closed": false,
    "code_privacy": "p",
    "created": "2025-07-20T23:14:33.933835Z",
    "cup_league": 2815434,
    "has_cup": true,
    "id": 314,
    "league_type": "s",
    "max_entries": null,
    "name": "Overall",
    "rank": null,
    "scoring": "c",
    "start_event": 1
  },
  "new_entries": {
    "has_next": false,
    "page": 1,
    "results": []
  },
  "standings": {
    "has_next": true,
    "page": 681,
    "results": [
      {
        "club_badge_src": null,
        "entry": 6072566,
        "entry_name": "screamers",
        "event_total": 47,
        "has_played": true,
        "id": 47936743,
        "last_rank": 24039,
        "player_name": "anthony swettenham",
        "rank": 33950,
        "rank_sort": 34001,
        "total": 2364
      },
      {
        "club_badge_src": null,
        "entry": 6199299,
        "entry_name": "fantsey footballs",
        "event_total": 56,
        "has_played": true,
        "id": 49039508,
        "last_rank": 32688,
        "player_name": "Zachary Logan",
        "rank": 33950,
        "rank_sort": 34002,
        "total": 2364
      },
      {
        "club_badge_src": null,
        "entry": 6283133,
        "entry_name": "Markdiniho",
        "event_total": 60,
        "has_played": true,
        "id": 49766311,
        "last_rank": 37376,
        "player_name": "Mark Byrne",
        "rank": 33950,
        "rank_sort": 34003,
        "total": 2364
      },
      {
        "club_badge_src": "https://fantasy.premierleague.com/gcs/plfpl-production-adobe-approved/plfpl-production/6324397/fd068c22-779a-46cb-8c71-da905c9415d9.png",
        "entry": 6324397,
        "entry_name": "Yaspix",
        "event_total": 30,
        "has_played": true,
        "id": 50236655,
        "last_rank": 12705,
        "player_name": "Yaspix photography",
        "rank": 33950,
        "rank_sort": 34004,
        "total": 2364
      },
      {
        "club_badge_src": null,
        "entry": 6447115,
        "entry_name": "Imestalaget",
        "event_total": 55,
        "has_played": true,
        "id": 51336927,
        "last_rank": 31620,
        "player_name": "Ole Andreas Vatle-Dahl",
        "rank": 33950,
        "rank_sort": 34005,
        "total": 2364
      },
      {
        "club_badge_src": null,
        "entry": 6565362,
        "entry_name": "Little Ben Mee Timbo",
        "event_total": 53,
        "has_played": true,
        "id": 52403789,
        "last_rank": 29688,
        "player_name": "Tom Calvert",
        "rank": 33950,
        "rank_sort": 34006,
        "total": 2364
      },
      {
        "club_badge_src": null,
        "entry": 6581610,
        "entry_name": "Stress ballers",
        "event_total": 64,
        "has_played": true,
        "id": 52557978,
        "last_rank": 42434,
        "player_name": "Sam Steel",
        "rank": 33950,
        "rank_sort": 34007,
        "total": 2364
      },
      {
        "club_badge_src": null,
        "entry": 6681055,
        "entry_name": "Reign",
        "event_total": 32,
        "has_played": true,
        "id": 53441787,
        "last_rank": 13821,
        "player_name": "Delphine kabanga",
        "rank": 33950,
        "rank_sort": 34008,
        "total": 2364
      },
      {
        "club_badge_src": null,
        "entry": 6900652,
        "entry_name": "TheBlues",
        "event_total": 49,
        "has_played": true,
        "id": 55309416,
        "last_rank": 25729,
        "player_name": "Sebby Klipfel",
        "rank": 33950,
        "rank_sort": 34009,
        "total": 2364
      },
      {
        "club_badge_src": null,
        "entry": 6906244,
        "entry_name": "tu mam\u00e1",
        "event_total": 49,
        "has_played": true,
        "id": 55356301,
        "last_rank": 25776,
        "player_name": "Jono Honey",
        "rank": 33950,
        "rank_sort": 34010,
        "total": 2364
      },
      {
        "club_badge_src": null,
        "entry": 7385256,
        "entry_name": "MU Cow",
        "event_total": 74,
        "has_played": true,
        "id": 59874868,
        "last_rank": 57743,
        "player_name": "Rich\u00e1rd T\u00f3th",
        "rank": 33950,
        "rank_sort": 34011,
        "total": 2364
      },
      {
        "club_badge_src": null,
        "entry": 7798932,
        "entry_name": "Boneys marauders",
        "event_total": 71,
        "has_played": true,
        "id": 64063681,
        "last_rank": 52759,
        "player_name": "Lee Bones",
        "rank": 33950,
        "rank_sort": 34012,
        "total": 2364
      },
      {
        "club_badge_src": null,
        "entry": 8056130,
        "entry_name": "Chhabra Cadabra",
        "event_total": 55,
        "has_played": true,
        "id": 66392799,
        "last_rank": 31620,
        "player_name": "Abhinav Chhabra",
        "rank": 33950,
        "rank_sort": 34013,
        "total": 2364
      },
      {
        "club_badge_src": null,
        "entry": 9036181,
        "entry_name": "Elodie's Battlers",
        "event_total": 58,
        "has_played": true,
        "id": 75830019,
        "last_rank": 35034,
        "player_name": "Elodie Battle",
        "rank": 33950,
        "rank_sort": 34014,
        "total": 2364
      },
      {
        "club_badge_src": null,
        "entry": 9228427,
        "entry_name": "Jos\u00e8 FC",
        "event_total": 72,
        "has_played": true,
        "id": 77712596,
        "last_rank": 54416,
        "player_name": "Turki Alrabiah",
        "rank": 33950,
        "rank_sort": 34015,
        "total": 2364
      },
      {
        "club_badge_src": null,
        "entry": 782,
        "entry_name": "Eze Does It",
        "event_total": 66,
        "has_played": true,
        "id": 4324,
        "last_rank": 45252,
        "player_name": "Nick Carter",
        "rank": 34016,
        "rank_sort": 34016,
        "total": 2364
      },
      {
        "club_badge_src": null,
        "entry": 2807,
        "entry_name": "Wieffer Vendetta",
        "event_total": 66,
        "has_played": true,
        "id": 15777,
        "last_rank": 45416,
        "player_name": "Toby Antons",
        "rank": 34016,
        "rank_sort": 34017,
        "total": 2364
      },
      {
        "club_badge_src": null,
        "entry": 7594,
        "entry_name": "Emotional FC",
        "event_total": 46,
        "has_played": true,
        "id": 43800,
        "last_rank": 23341,
        "player_name": "James Duke",
        "rank": 34016,
        "rank_sort": 34018,
        "total": 2364
      },
      {
        "club_badge_src": "https://fantasy.premierleague.com/gcs/plfpl-production-adobe-approved/plfpl-production/7993/2b3ca0f5-8c64-400d-961f-71054120ada4.png",
        "entry": 7993,
        "entry_name": "Talking Ball FC",
        "event_total": 60,
        "has_played": true,
        "id": 46244,
        "last_rank": 37589,
        "player_name": "Tony Stewart",
        "rank": 34016,
        "rank_sort": 34019,
        "total": 2364
      },
      {
        "club_badge_src": null,
        "entry": 13390,
        "entry_name": "Sesko Club Card",
        "event_total": 59,
        "has_played": true,
        "id": 80867,
        "last_rank": 36200,
        "player_name": "Thomas Wiffen",
        "rank": 34016,
        "rank_sort": 34020,
        "total": 2364
      },
      {
        "club_badge_src": null,
        "entry": 24517,
        "entry_name": "Tosin Pancakes",
        "event_total": 57,
        "has_played": true,
        "id": 154779,
        "last_rank": 34051,
        "player_name": "Lucas Plant",
        "rank": 34016,
        "rank_sort": 34021,
        "total": 2364
      },
      {
        "club_badge_src": "https://fantasy.premierleague.com/gcs/plfpl-production-adobe-approved/plfpl-production/26134/35e35d43-68fe-4e62-bdd3-849cd5e4ae6b.png",
        "entry": 26134,
        "entry_name": "Soloist",
        "event_total": 53,
        "has_played": true,
        "id": 165248,
        "last_rank": 29688,
        "player_name": "Poramate Boonrakjaroen",
        "rank": 34016,
        "rank_sort": 34022,
        "total": 2364
      },
      {
        "club_badge_src": null,
        "entry": 28362,
        "entry_name": "Template Town",
        "event_total": 40,
        "has_played": true,
        "id": 179340,
        "last_rank": 18790,
        "player_name": "Ben Stanbury",
        "rank": 34016,
        "rank_sort": 34023,
        "total": 2364
      },
      {
        "club_badge_src": "https://fantasy.premierleague.com/gcs/plfpl-production-adobe-approved/plfpl-production/30437/c7a0c400-ae61-467e-8d77-0bdc4fc7b152.png",
        "entry": 30437,
        "entry_name": "Zakrzewski KS",
        "event_total": 72,
        "has_played": true,
        "id": 192625,
        "last_rank": 54667,
        "player_name": "Franek Szymkowiak",
        "rank": 34016,
        "rank_sort": 34024,
        "total": 2364
      },
      {
        "club_badge_src": "https://fantasy.premierleague.com/gcs/plfpl-production-adobe-approved/plfpl-production/31420/8c133708-cbde-476c-bca0-2b15a5b0ab79.png",
        "entry": 31420,
        "entry_name": "ClintEssentials",
        "event_total": 52,
        "has_played": true,
        "id": 199154,
        "last_rank": 28609,
        "player_name": "Clint Westall",
        "rank": 34016,
        "rank_sort": 34025,
        "total": 2364
      },
      {
        "club_badge_src": "https://fantasy.premierleague.com/gcs/plfpl-production-adobe-approved/plfpl-production/35559/d9c35141-5b46-4dbc-83fd-058e71c4d0aa.png",
        "entry": 35559,
        "entry_name": "Red Bull Thanh Hoa",
        "event_total": 58,
        "has_played": true,
        "id": 227578,
        "last_rank": 34969,
        "player_name": "Phan Viet Duc Nguyen",
        "rank": 34016,
        "rank_sort": 34026,
        "total": 2364
      },
      {
        "club_badge_src": null,
        "entry": 39130,
        "entry_name": "Mason Mount Everest",
        "event_total": 57,
        "has_played": true,
        "id": 250808,
        "last_rank": 34051,
        "player_name": "Skye Evans",
        "rank": 34016,
        "rank_sort": 34027,
        "total": 2364
      },
      {
        "club_badge_src": "https://fantasy.premierleague.com/gcs/plfpl-production-adobe-approved/plfpl-production/40819/e3ac0576-0d9e-4115-90a8-27c4a0e37925.png",
        "entry": 40819,
        "entry_name": "Change Name",
        "event_total": 65,
        "has_played": true,
        "id": 261649,
        "last_rank": 44048,
        "player_name": "Pepe Bean",
        "rank": 34016,
        "rank_sort": 34028,
        "total": 2364
      },
      {
        "club_badge_src": "https://fantasy.premierleague.com/gcs/plfpl-production-adobe-approved/plfpl-production/44555/a185f9ce-34cd-472c-bb6d-6bc4ecedcf2e.png",
        "entry": 44555,
        "entry_name": "Os Fen\u00f4menos",
        "event_total": 67,
        "has_played": true,
        "id": 285567,
        "last_rank": 46839,
        "player_name": "Patrick Short",
        "rank": 34016,
        "rank_sort": 34029,
        "total": 2364
      },
      {
        "club_badge_src": null,
        "entry": 46440,
        "entry_name": "Bergen Mcstropp",
        "event_total": 58,
        "has_played": true,
        "id": 297733,
        "last_rank": 35034,
        "player_name": "Daniel Bertelsen",
        "rank": 34016,
        "rank_sort": 34030,
        "total": 2364
      },
      {
        "club_badge_src": null,
        "entry": 51665,
        "entry_name": "ThomasTheFrankEngine",
        "event_total": 52,
        "has_played": true,
        "id": 332251,
        "last_rank": 28726,
        "player_name": "Damian Kelleher",
        "rank": 34016,
        "rank_sort": 34031,
        "total": 2364
      },
      {
        "club_badge_src": "https://fantasy.premierleague.com/gcs/plfpl-production-adobe-approved/plfpl-production/53393/7edcacfe-b704-4ef6-93b8-123a00e43d88.png",
        "entry": 53393,
        "entry_name": "\u010carapanija Utd",
        "event_total": 57,
        "has_played": true,
        "id": 343510,
        "last_rank": 34051,
        "player_name": "Nikola Lazi\u0107",
        "rank": 34016,
        "rank_sort": 34032,
        "total": 2364
      },
      {
        "club_badge_src": null,
        "entry": 62022,
        "entry_name": "Tan^-1",
        "event_total": 67,
        "has_played": true,
        "id": 399629,
        "last_rank": 46660,
        "player_name": "Nathaniel Davies",
        "rank": 34016,
        "rank_sort": 34033,
        "total": 2364
      },
      {
        "club_badge_src": null,
        "entry": 66247,
        "entry_name": "Pep Quardeiola",
        "event_total": 66,
        "has_played": true,
        "id": 428163,
        "last_rank": 45252,
        "player_name": "Idris Lashkary",
        "rank": 34016,
        "rank_sort": 34034,
        "total": 2364
      },
      {
        "club_badge_src": null,
        "entry": 109511,
        "entry_name": "NontNezz",
        "event_total": 54,
        "has_played": true,
        "id": 714037,
        "last_rank": 30957,
        "player_name": "Xavi aNONso",
        "rank": 34016,
        "rank_sort": 34035,
        "total": 2364
      },
      {
        "club_badge_src": null,
        "entry": 112780,
        "entry_name": "Rashchallenge",
        "event_total": 51,
        "has_played": true,
        "id": 735434,
        "last_rank": 27644,
        "player_name": "Neil Marr",
        "rank": 34016,
        "rank_sort": 34036,
        "total": 2364
      },
      {
        "club_badge_src": null,
        "entry": 126654,
        "entry_name": "FaCe Palmer",
        "event_total": 64,
        "has_played": true,
        "id": 825764,
        "last_rank": 42506,
        "player_name": "Lauri Wallin",
        "rank": 34016,
        "rank_sort": 34037,
        "total": 2364
      },
      {
        "club_badge_src": null,
        "entry": 146644,
        "entry_name": "Mee, Myself and i",
        "event_total": 68,
        "has_played": true,
        "id": 960813,
        "last_rank": 48363,
        "player_name": "Kai Hutchings McConkey",
        "rank": 34016,
        "rank_sort": 34038,
        "total": 2364
      },
      {
        "club_badge_src": null,
        "entry": 159892,
        "entry_name": "Andy's Amateurs",
        "event_total": 65,
        "has_played": true,
        "id": 1052648,
        "last_rank": 43786,
        "player_name": "Andy Hayes",
        "rank": 34016,
        "rank_sort": 34039,
        "total": 2364
      },
      {
        "club_badge_src": null,
        "entry": 162252,
        "entry_name": "Bear Upfarm FC",
        "event_total": 50,
        "has_played": true,
        "id": 1069430,
        "last_rank": 26710,
        "player_name": "Bj\u00f8rn Oppegaard",
        "rank": 34016,
        "rank_sort": 34040,
        "total": 2364
      },
      {
        "club_badge_src": null,
        "entry": 167351,
        "entry_name": "Real Ale Madrid",
        "event_total": 58,
        "has_played": true,
        "id": 1106171,
        "last_rank": 35034,
        "player_name": "Adrian Shepherd",
        "rank": 34016,
        "rank_sort": 34041,
        "total": 2364
      },
      {
        "club_badge_src": null,
        "entry": 168973,
        "entry_name": "JJ in a good mood",
        "event_total": 55,
        "has_played": true,
        "id": 1116705,
        "last_rank": 31747,
        "player_name": "J.J. Jeon",
        "rank": 34016,
        "rank_sort": 34042,
        "total": 2364
      },
      {
        "club_badge_src": null,
        "entry": 172657,
        "entry_name": "Blesa",
        "event_total": 56,
        "has_played": true,
        "id": 1140378,
        "last_rank": 32751,
        "player_name": "Danyar Abubakr",
        "rank": 34016,
        "rank_sort": 34043,
        "total": 2364
      },
      {
        "club_badge_src": null,
        "entry": 192229,
        "entry_name": "Big Fish Mini League",
        "event_total": 60,
        "has_played": true,
        "id": 1273593,
        "last_rank": 37589,
        "player_name": "Henry James",
        "rank": 34016,
        "rank_sort": 34044,
        "total": 2364
      },
      {
        "club_badge_src": null,
        "entry": 197525,
        "entry_name": "Toon Final",
        "event_total": 67,
        "has_played": true,
        "id": 1310620,
        "last_rank": 46839,
        "player_name": "Ekkawit Kittikhundecha",
        "rank": 34016,
        "rank_sort": 34045,
        "total": 2364
      },
      {
        "club_badge_src": null,
        "entry": 229275,
        "entry_name": "WeWonItInBIlbao",
        "event_total": 60,
        "has_played": true,
        "id": 1525393,
        "last_rank": 37589,
        "player_name": "Joe Simmons",
        "rank": 34016,
        "rank_sort": 34046,
        "total": 2364
      },
      {
        "club_badge_src": null,
        "entry": 242262,
        "entry_name": "Under My Cucurella",
        "event_total": 65,
        "has_played": true,
        "id": 1612660,
        "last_rank": 43849,
        "player_name": "Harry Jeary",
        "rank": 34016,
        "rank_sort": 34047,
        "total": 2364
      },
      {
        "club_badge_src": null,
        "entry": 245113,
        "entry_name": "Gyok Tuah",
        "event_total": 66,
        "has_played": true,
        "id": 1631959,
        "last_rank": 45252,
        "player_name": "Will Bickley",
        "rank": 34016,
        "rank_sort": 34048,
        "total": 2364
      },
      {
        "club_badge_src": "https://fantasy.premierleague.com/gcs/plfpl-production-adobe-approved/plfpl-production/256597/92787021-69a8-4e68-abe3-8a5c8ac571b9.png",
        "entry": 256597,
        "entry_name": "Ruby FC",
        "event_total": 57,
        "has_played": true,
        "id": 1706601,
        "last_rank": 34051,
        "player_name": "Jurek Rubis",
        "rank": 34016,
        "rank_sort": 34049,
        "total": 2364
      },
      {
        "club_badge_src": null,
        "entry": 258909,
        "entry_name": "Saddam Hujsen",
        "event_total": 65,
        "has_played": true,
        "id": 1721479,
        "last_rank": 43786,
        "player_name": "Ath Twaariq",
        "rank": 34016,
        "rank_sort": 34050,
        "total": 2364
      }
    ]
  }
}