{
  "last_updated_data": "2026-05-24T23:28:17Z",
  "league": {
    "admin_entry": null,
    "closed": false,
    "code_privacy": "p",
    "created": "2025-07-20T23:14:33.933835Z",
    "cup_league": 2815434,
    "has_cup": true,
    "id": 314,
    "league_type": "s",
    "max_entries": null,
    "name": "Overall",
    "rank": null,
    "scoring": "c",
    "start_event": 1
  },
  "new_entries": {
    "has_next": false,
    "page": 1,
    "results": []
  },
  "standings": {
    "has_next": true,
    "page": 252,
    "results": [
      {
        "club_badge_src": null,
        "entry": 429227,
        "entry_name": "Djourou What I Mean?",
        "event_total": 57,
        "has_played": true,
        "id": 2878879,
        "last_rank": 10209,
        "player_name": "Steven Collings",
        "rank": 12549,
        "rank_sort": 12551,
        "total": 2393
      },
      {
        "club_badge_src": null,
        "entry": 691665,
        "entry_name": "Hairy Mary\u2019s",
        "event_total": 63,
        "has_played": true,
        "id": 4683967,
        "last_rank": 11080,
        "player_name": "Chris Bellis",
        "rank": 12549,
        "rank_sort": 12552,
        "total": 2393
      },
      {
        "club_badge_src": "https://fantasy.premierleague.com/gcs/plfpl-production-adobe-approved/plfpl-production/869758/92355601-a4a9-4f5e-9706-8324eaae0926.png",
        "entry": 869758,
        "entry_name": "Mosalah Dosa",
        "event_total": 54,
        "has_played": true,
        "id": 5962908,
        "last_rank": 10676,
        "player_name": "N C",
        "rank": 12549,
        "rank_sort": 12553,
        "total": 2393
      },
      {
        "club_badge_src": null,
        "entry": 1073982,
        "entry_name": "DeLap Dance",
        "event_total": 67,
        "has_played": true,
        "id": 7435290,
        "last_rank": 17878,
        "player_name": "Carl Appleby",
        "rank": 12549,
        "rank_sort": 12554,
        "total": 2393
      },
      {
        "club_badge_src": "https://fantasy.premierleague.com/gcs/plfpl-production-adobe-approved/plfpl-production/1194684/c5e35b04-281d-401b-adfd-9a60e7aaa136.png",
        "entry": 1194684,
        "entry_name": "Knackerpony Utd",
        "event_total": 64,
        "has_played": true,
        "id": 8289052,
        "last_rank": 11536,
        "player_name": "Stephen Tench",
        "rank": 12549,
        "rank_sort": 12555,
        "total": 2393
      },
      {
        "club_badge_src": null,
        "entry": 1692129,
        "entry_name": "Ace",
        "event_total": 69,
        "has_played": true,
        "id": 11850920,
        "last_rank": 19318,
        "player_name": "Ace \u26bd\ufe0f",
        "rank": 12549,
        "rank_sort": 12556,
        "total": 2393
      },
      {
        "club_badge_src": "https://fantasy.premierleague.com/gcs/plfpl-production-adobe-approved/plfpl-production/2293451/627ead0b-be0c-48b4-b3f4-7a95472d6b2a.png",
        "entry": 2293451,
        "entry_name": "Maramerooo\u2019s",
        "event_total": 69,
        "has_played": true,
        "id": 16356891,
        "last_rank": 16621,
        "player_name": "Marwan yasser",
        "rank": 12549,
        "rank_sort": 12557,
        "total": 2393
      },
      {
        "club_badge_src": null,
        "entry": 4475447,
        "entry_name": "Utter Stoke Nonsense",
        "event_total": 67,
        "has_played": true,
        "id": 34106445,
        "last_rank": 15336,
        "player_name": "Shane Quigley",
        "rank": 12549,
        "rank_sort": 12558,
        "total": 2393
      },
      {
        "club_badge_src": null,
        "entry": 4841131,
        "entry_name": "the lord of the fpl",
        "event_total": 74,
        "has_played": true,
        "id": 37292587,
        "last_rank": 23039,
        "player_name": "ali *",
        "rank": 12549,
        "rank_sort": 12559,
        "total": 2393
      },
      {
        "club_badge_src": "https://fantasy.premierleague.com/gcs/plfpl-production-adobe-approved/plfpl-production/5576293/7c494031-5df8-4014-bbaf-621703a36815.png",
        "entry": 5576293,
        "entry_name": "Haal_Mo Sala Funtasy",
        "event_total": 57,
        "has_played": true,
        "id": 43548168,
        "last_rank": 12056,
        "player_name": "Tshering Dendup",
        "rank": 12549,
        "rank_sort": 12560,
        "total": 2393
      },
      {
        "club_badge_src": "https://fantasy.premierleague.com/gcs/plfpl-production-adobe-approved/plfpl-production/5616257/dfa46c3a-80b9-456d-aaad-d8fc6bd4e170.png",
        "entry": 5616257,
        "entry_name": "Sous Chefs",
        "event_total": 56,
        "has_played": true,
        "id": 43897799,
        "last_rank": 9806,
        "player_name": "Adnan Alhashemi",
        "rank": 12549,
        "rank_sort": 12561,
        "total": 2393
      },
      {
        "club_badge_src": null,
        "entry": 6068376,
        "entry_name": "PT",
        "event_total": 72,
        "has_played": true,
        "id": 47900233,
        "last_rank": 21530,
        "player_name": "Peter Talodsuk",
        "rank": 12549,
        "rank_sort": 12562,
        "total": 2393
      },
      {
        "club_badge_src": null,
        "entry": 7956776,
        "entry_name": "Hyperion FC",
        "event_total": 65,
        "has_played": true,
        "id": 65501682,
        "last_rank": 14184,
        "player_name": "Da-jaun Francis",
        "rank": 12549,
        "rank_sort": 12563,
        "total": 2393
      },
      {
        "club_badge_src": null,
        "entry": 88723,
        "entry_name": "\u0639\u0628\u062f\u0627\u0644\u0639\u0632\u064a\u0632 \u0627\u0644\u0645\u0637\u064a\u0631\u064a",
        "event_total": 74,
        "has_played": true,
        "id": 579035,
        "last_rank": 14746,
        "player_name": "Abdulaziz Almutairi",
        "rank": 12564,
        "rank_sort": 12564,
        "total": 2393
      },
      {
        "club_badge_src": null,
        "entry": 635098,
        "entry_name": "Entertainers",
        "event_total": 52,
        "has_played": true,
        "id": 4292149,
        "last_rank": 8289,
        "player_name": "Dean Kerr",
        "rank": 12564,
        "rank_sort": 12565,
        "total": 2393
      },
      {
        "club_badge_src": null,
        "entry": 774727,
        "entry_name": "Arneball",
        "event_total": 68,
        "has_played": true,
        "id": 5285944,
        "last_rank": 13629,
        "player_name": "Sindre Skeie",
        "rank": 12564,
        "rank_sort": 12566,
        "total": 2393
      },
      {
        "club_badge_src": "https://fantasy.premierleague.com/gcs/plfpl-production-adobe-approved/plfpl-production/1621606/b10ce5dd-83cf-4366-9b18-4de4d68a708b.png",
        "entry": 1621606,
        "entry_name": "Blood Sweat & Angina",
        "event_total": 64,
        "has_played": true,
        "id": 11349021,
        "last_rank": 15993,
        "player_name": "Sadi Raza",
        "rank": 12564,
        "rank_sort": 12567,
        "total": 2393
      },
      {
        "club_badge_src": null,
        "entry": 3505374,
        "entry_name": "Bayer Neverlusen",
        "event_total": 67,
        "has_played": true,
        "id": 26077203,
        "last_rank": 17909,
        "player_name": "Tom Butcher",
        "rank": 12564,
        "rank_sort": 12568,
        "total": 2393
      },
      {
        "club_badge_src": null,
        "entry": 3507756,
        "entry_name": "Seskos Finest",
        "event_total": 63,
        "has_played": true,
        "id": 26095828,
        "last_rank": 11098,
        "player_name": "Nathan Puttay",
        "rank": 12564,
        "rank_sort": 12569,
        "total": 2393
      },
      {
        "club_badge_src": null,
        "entry": 4777018,
        "entry_name": "Turki",
        "event_total": 72,
        "has_played": true,
        "id": 36772407,
        "last_rank": 15952,
        "player_name": "Turki Alshehri",
        "rank": 12564,
        "rank_sort": 12570,
        "total": 2393
      },
      {
        "club_badge_src": null,
        "entry": 6622107,
        "entry_name": "Change Name",
        "event_total": 54,
        "has_played": true,
        "id": 52918095,
        "last_rank": 10676,
        "player_name": "Jace Huggins",
        "rank": 12564,
        "rank_sort": 12571,
        "total": 2393
      },
      {
        "club_badge_src": null,
        "entry": 6673327,
        "entry_name": "No Sonshine anymore",
        "event_total": 60,
        "has_played": true,
        "id": 53374141,
        "last_rank": 13662,
        "player_name": "Veronica Wang",
        "rank": 12564,
        "rank_sort": 12572,
        "total": 2393
      },
      {
        "club_badge_src": null,
        "entry": 756344,
        "entry_name": "Porcos FC",
        "event_total": 77,
        "has_played": true,
        "id": 5149345,
        "last_rank": 19302,
        "player_name": "Christoffer Jensen",
        "rank": 12573,
        "rank_sort": 12573,
        "total": 2393
      },
      {
        "club_badge_src": "https://fantasy.premierleague.com/gcs/plfpl-production-adobe-approved/plfpl-production/1378890/f286c1b2-f453-4f22-af23-4e190b0cbe6d.png",
        "entry": 1378890,
        "entry_name": "OzFC2026",
        "event_total": 56,
        "has_played": true,
        "id": 9585141,
        "last_rank": 11568,
        "player_name": "Nihat Ozdemir",
        "rank": 12573,
        "rank_sort": 12574,
        "total": 2393
      },
      {
        "club_badge_src": "https://fantasy.premierleague.com/gcs/plfpl-production-adobe-approved/plfpl-production/3912416/ab90f165-38dc-4c9f-93ec-81d9e48101a6.png",
        "entry": 3912416,
        "entry_name": "Aldo's Army",
        "event_total": 64,
        "has_played": true,
        "id": 29416123,
        "last_rank": 15999,
        "player_name": "Alex Ford",
        "rank": 12573,
        "rank_sort": 12575,
        "total": 2393
      },
      {
        "club_badge_src": "https://fantasy.premierleague.com/gcs/plfpl-production-adobe-approved/plfpl-production/212717/8c787703-16bc-4418-910b-dce8ddae016a.png",
        "entry": 212717,
        "entry_name": "Leedsen",
        "event_total": 49,
        "has_played": true,
        "id": 1415060,
        "last_rank": 8659,
        "player_name": "Christer Nilsson",
        "rank": 12576,
        "rank_sort": 12576,
        "total": 2393
      },
      {
        "club_badge_src": "https://fantasy.premierleague.com/gcs/plfpl-production-adobe-approved/plfpl-production/229470/d1fe83c7-8669-4057-9ef9-452b568c1b8c.png",
        "entry": 229470,
        "entry_name": "Osaka",
        "event_total": 50,
        "has_played": true,
        "id": 1526697,
        "last_rank": 9055,
        "player_name": "Osama Sh\u00e0b\u00e0n",
        "rank": 12576,
        "rank_sort": 12577,
        "total": 2393
      },
      {
        "club_badge_src": null,
        "entry": 1681100,
        "entry_name": "Steve's Spurs '74",
        "event_total": 74,
        "has_played": true,
        "id": 11768451,
        "last_rank": 17275,
        "player_name": "Steve Livingston",
        "rank": 12578,
        "rank_sort": 12578,
        "total": 2393
      },
      {
        "club_badge_src": null,
        "entry": 2441516,
        "entry_name": "Wirtz case scenario",
        "event_total": 60,
        "has_played": true,
        "id": 17460989,
        "last_rank": 8295,
        "player_name": "Victor Svensson",
        "rank": 12578,
        "rank_sort": 12579,
        "total": 2393
      },
      {
        "club_badge_src": "https://fantasy.premierleague.com/gcs/plfpl-production-adobe-approved/plfpl-production/3172832/da6fcf95-1128-4279-ae91-5e2c672f31ea.png",
        "entry": 3172832,
        "entry_name": "Gang_Coach",
        "event_total": 67,
        "has_played": true,
        "id": 23442797,
        "last_rank": 15366,
        "player_name": "GanG Coach",
        "rank": 12578,
        "rank_sort": 12580,
        "total": 2393
      },
      {
        "club_badge_src": null,
        "entry": 4469715,
        "entry_name": "atna",
        "event_total": 71,
        "has_played": true,
        "id": 34059765,
        "last_rank": 15363,
        "player_name": "\u0410\u043b\u0435\u043a\u0441\u0430\u043d\u0434\u0430\u0440 \u0410\u0442\u0430\u043d\u0430\u0441\u043e\u0432",
        "rank": 12578,
        "rank_sort": 12581,
        "total": 2393
      },
      {
        "club_badge_src": null,
        "entry": 4003230,
        "entry_name": "InsertPunHere",
        "event_total": 43,
        "has_played": true,
        "id": 30153857,
        "last_rank": 5617,
        "player_name": "Jacob Morris",
        "rank": 12582,
        "rank_sort": 12582,
        "total": 2393
      },
      {
        "club_badge_src": null,
        "entry": 3452599,
        "entry_name": "Mo Kamel\ufffd",
        "event_total": 61,
        "has_played": true,
        "id": 25658449,
        "last_rank": 14223,
        "player_name": "Mohamed Kamel",
        "rank": 12583,
        "rank_sort": 12583,
        "total": 2393
      },
      {
        "club_badge_src": null,
        "entry": 1862425,
        "entry_name": "Montasir",
        "event_total": 58,
        "has_played": true,
        "id": 13108674,
        "last_rank": 9058,
        "player_name": "Montasir Omer",
        "rank": 12584,
        "rank_sort": 12584,
        "total": 2393
      },
      {
        "club_badge_src": "https://fantasy.premierleague.com/gcs/plfpl-production-adobe-approved/plfpl-production/200670/01a44fc0-6d5f-405c-8a28-8963e3ece6ce.png",
        "entry": 200670,
        "entry_name": "Cocco Bello",
        "event_total": 72,
        "has_played": true,
        "id": 1332258,
        "last_rank": 13691,
        "player_name": "Igor Sabovljevic",
        "rank": 12585,
        "rank_sort": 12585,
        "total": 2393
      },
      {
        "club_badge_src": null,
        "entry": 377183,
        "entry_name": "Rutter Woke Nonsense",
        "event_total": 51,
        "has_played": true,
        "id": 2526488,
        "last_rank": 9440,
        "player_name": "Ryan Barton",
        "rank": 12586,
        "rank_sort": 12586,
        "total": 2393
      },
      {
        "club_badge_src": null,
        "entry": 8425670,
        "entry_name": "MUSH",
        "event_total": 70,
        "has_played": true,
        "id": 69923865,
        "last_rank": 20102,
        "player_name": "Rob Scoon",
        "rank": 12587,
        "rank_sort": 12587,
        "total": 2392
      },
      {
        "club_badge_src": null,
        "entry": 8409473,
        "entry_name": "Whatever",
        "event_total": 65,
        "has_played": true,
        "id": 69766527,
        "last_rank": 16666,
        "player_name": "Tom\u00e1s Kenny",
        "rank": 12588,
        "rank_sort": 12588,
        "total": 2392
      },
      {
        "club_badge_src": null,
        "entry": 2442454,
        "entry_name": "two left feet",
        "event_total": 49,
        "has_played": true,
        "id": 17467913,
        "last_rank": 8674,
        "player_name": "steven ramsay",
        "rank": 12589,
        "rank_sort": 12589,
        "total": 2392
      },
      {
        "club_badge_src": null,
        "entry": 3126359,
        "entry_name": "Kinder Mbuemo",
        "event_total": 52,
        "has_played": true,
        "id": 23073272,
        "last_rank": 9838,
        "player_name": "D7L4N Virdee",
        "rank": 12589,
        "rank_sort": 12590,
        "total": 2392
      },
      {
        "club_badge_src": "https://fantasy.premierleague.com/gcs/plfpl-production-adobe-approved/plfpl-production/4933782/688e1b18-e189-480e-bceb-a343374e1408.png",
        "entry": 4933782,
        "entry_name": "mashy benoorEllah",
        "event_total": 41,
        "has_played": true,
        "id": 38061492,
        "last_rank": 6145,
        "player_name": "Ahmed Amin",
        "rank": 12589,
        "rank_sort": 12591,
        "total": 2392
      },
      {
        "club_badge_src": null,
        "entry": 5517345,
        "entry_name": "Virtual van Dijk",
        "event_total": 57,
        "has_played": true,
        "id": 43017883,
        "last_rank": 12084,
        "player_name": "Paul Masters",
        "rank": 12589,
        "rank_sort": 12592,
        "total": 2392
      },
      {
        "club_badge_src": null,
        "entry": 5371064,
        "entry_name": "crackerxhaka",
        "event_total": 70,
        "has_played": true,
        "id": 41734879,
        "last_rank": 20131,
        "player_name": "Callum Teasdale",
        "rank": 12593,
        "rank_sort": 12593,
        "total": 2392
      },
      {
        "club_badge_src": null,
        "entry": 6265837,
        "entry_name": "Real Meredydd",
        "event_total": 69,
        "has_played": true,
        "id": 49613850,
        "last_rank": 19363,
        "player_name": "Andy Pritchard",
        "rank": 12594,
        "rank_sort": 12594,
        "total": 2392
      },
      {
        "club_badge_src": "https://fantasy.premierleague.com/gcs/plfpl-production-adobe-approved/plfpl-production/8061741/8da3b948-3589-462b-818f-69a63b4f1ece.png",
        "entry": 8061741,
        "entry_name": "Y FI DAT",
        "event_total": 61,
        "has_played": true,
        "id": 66444189,
        "last_rank": 14234,
        "player_name": "Ramon Rodriguez",
        "rank": 12594,
        "rank_sort": 12595,
        "total": 2392
      },
      {
        "club_badge_src": null,
        "entry": 8483377,
        "entry_name": "Bondie's Ballers",
        "event_total": 75,
        "has_played": true,
        "id": 70473477,
        "last_rank": 23990,
        "player_name": "Liam Bond",
        "rank": 12594,
        "rank_sort": 12596,
        "total": 2392
      },
      {
        "club_badge_src": "https://fantasy.premierleague.com/gcs/plfpl-production-adobe-approved/plfpl-production/747947/91a35cf1-a74a-461d-99a6-45b17f6f57ce.png",
        "entry": 747947,
        "entry_name": "You're The Wirtz",
        "event_total": 61,
        "has_played": true,
        "id": 5088519,
        "last_rank": 14234,
        "player_name": "Ben Holz",
        "rank": 12597,
        "rank_sort": 12597,
        "total": 2392
      },
      {
        "club_badge_src": null,
        "entry": 1004687,
        "entry_name": "Pique Reijnders",
        "event_total": 92,
        "has_played": true,
        "id": 6945158,
        "last_rank": 42386,
        "player_name": "Sami Johal",
        "rank": 12597,
        "rank_sort": 12598,
        "total": 2392
      },
      {
        "club_badge_src": null,
        "entry": 1168444,
        "entry_name": "Seeya",
        "event_total": 70,
        "has_played": true,
        "id": 8105737,
        "last_rank": 20116,
        "player_name": "Donatas Fabijonavicius",
        "rank": 12597,
        "rank_sort": 12599,
        "total": 2392
      },
      {
        "club_badge_src": null,
        "entry": 1175546,
        "entry_name": "KTBFFH",
        "event_total": 50,
        "has_played": true,
        "id": 8156335,
        "last_rank": 9089,
        "player_name": "Perica Vranjevac",
        "rank": 12597,
        "rank_sort": 12600,
        "total": 2392
      }
    ]
  }
}