{
  "last_updated_data": "2026-05-24T23:28:17Z",
  "league": {
    "admin_entry": null,
    "closed": false,
    "code_privacy": "p",
    "created": "2025-07-20T23:14:33.933835Z",
    "cup_league": 2815434,
    "has_cup": true,
    "id": 314,
    "league_type": "s",
    "max_entries": null,
    "name": "Overall",
    "rank": null,
    "scoring": "c",
    "start_event": 1
  },
  "new_entries": {
    "has_next": false,
    "page": 1,
    "results": []
  },
  "standings": {
    "has_next": true,
    "page": 987,
    "results": [
      {
        "club_badge_src": null,
        "entry": 5641971,
        "entry_name": "Whiterose FC",
        "event_total": 51,
        "has_played": true,
        "id": 44123507,
        "last_rank": 41162,
        "player_name": "Dave Chapman",
        "rank": 49271,
        "rank_sort": 49301,
        "total": 2352
      },
      {
        "club_badge_src": null,
        "entry": 5735266,
        "entry_name": "Chilli Con Cairney",
        "event_total": 42,
        "has_played": true,
        "id": 44933581,
        "last_rank": 30536,
        "player_name": "Andy Bailey",
        "rank": 49271,
        "rank_sort": 49302,
        "total": 2352
      },
      {
        "club_badge_src": null,
        "entry": 5735290,
        "entry_name": "lillies team",
        "event_total": 63,
        "has_played": true,
        "id": 44933787,
        "last_rank": 59535,
        "player_name": "lillie turpitt",
        "rank": 49271,
        "rank_sort": 49303,
        "total": 2352
      },
      {
        "club_badge_src": null,
        "entry": 5786857,
        "entry_name": "Punter FC",
        "event_total": 68,
        "has_played": true,
        "id": 45381882,
        "last_rank": 68572,
        "player_name": "Ayaan Shaikh",
        "rank": 49271,
        "rank_sort": 49304,
        "total": 2352
      },
      {
        "club_badge_src": "https://fantasy.premierleague.com/gcs/plfpl-production-adobe-approved/plfpl-production/5840810/3173e85e-dc4a-43a7-992a-b2bee6266f54.png",
        "entry": 5840810,
        "entry_name": "Watson Semenyo?",
        "event_total": 43,
        "has_played": true,
        "id": 45849592,
        "last_rank": 31556,
        "player_name": "Darren Ford",
        "rank": 49271,
        "rank_sort": 49305,
        "total": 2352
      },
      {
        "club_badge_src": null,
        "entry": 6870896,
        "entry_name": "Laghey Lakers",
        "event_total": 64,
        "has_played": true,
        "id": 55057818,
        "last_rank": 61258,
        "player_name": "John Joyce",
        "rank": 49271,
        "rank_sort": 49306,
        "total": 2352
      },
      {
        "club_badge_src": null,
        "entry": 7221979,
        "entry_name": "Nanas FC",
        "event_total": 64,
        "has_played": true,
        "id": 58341131,
        "last_rank": 54380,
        "player_name": "amirul farhan mansor",
        "rank": 49271,
        "rank_sort": 49307,
        "total": 2352
      },
      {
        "club_badge_src": null,
        "entry": 7263149,
        "entry_name": "bi ymachi",
        "event_total": 53,
        "has_played": true,
        "id": 58728967,
        "last_rank": 43786,
        "player_name": "souhaieb abidli",
        "rank": 49271,
        "rank_sort": 49308,
        "total": 2352
      },
      {
        "club_badge_src": null,
        "entry": 7321474,
        "entry_name": "ProperDribblerFC",
        "event_total": 53,
        "has_played": true,
        "id": 59277829,
        "last_rank": 43849,
        "player_name": "Barclay Crawford",
        "rank": 49271,
        "rank_sort": 49309,
        "total": 2352
      },
      {
        "club_badge_src": "https://fantasy.premierleague.com/gcs/plfpl-production-adobe-approved/plfpl-production/7489179/941c4bf9-22fc-458d-ab14-8b71229a873c.png",
        "entry": 7489179,
        "entry_name": "TBC",
        "event_total": 60,
        "has_played": true,
        "id": 61142558,
        "last_rank": 54494,
        "player_name": "Peter Williams",
        "rank": 49271,
        "rank_sort": 49310,
        "total": 2352
      },
      {
        "club_badge_src": null,
        "entry": 7528981,
        "entry_name": "Change Name",
        "event_total": 43,
        "has_played": true,
        "id": 61619825,
        "last_rank": 31620,
        "player_name": "Theo Wong",
        "rank": 49271,
        "rank_sort": 49311,
        "total": 2352
      },
      {
        "club_badge_src": null,
        "entry": 7632734,
        "entry_name": "LN PIAST",
        "event_total": 68,
        "has_played": true,
        "id": 62560165,
        "last_rank": 68624,
        "player_name": "Leszek Niewiarowski",
        "rank": 49271,
        "rank_sort": 49312,
        "total": 2352
      },
      {
        "club_badge_src": null,
        "entry": 7639327,
        "entry_name": "Az Ball",
        "event_total": 50,
        "has_played": true,
        "id": 62619871,
        "last_rank": 39874,
        "player_name": "Aaron Merai",
        "rank": 49271,
        "rank_sort": 49313,
        "total": 2352
      },
      {
        "club_badge_src": null,
        "entry": 8039947,
        "entry_name": "Rykkonomics",
        "event_total": 48,
        "has_played": true,
        "id": 66246721,
        "last_rank": 37376,
        "player_name": "Jon Sivert Rykkel",
        "rank": 49271,
        "rank_sort": 49314,
        "total": 2352
      },
      {
        "club_badge_src": null,
        "entry": 8606881,
        "entry_name": "Teddy United FC",
        "event_total": 53,
        "has_played": true,
        "id": 71664488,
        "last_rank": 43786,
        "player_name": "Natalie Lam",
        "rank": 49271,
        "rank_sort": 49315,
        "total": 2352
      },
      {
        "club_badge_src": null,
        "entry": 8847652,
        "entry_name": "East Galway united",
        "event_total": 57,
        "has_played": true,
        "id": 74003699,
        "last_rank": 49572,
        "player_name": "Matthew Broderick",
        "rank": 49271,
        "rank_sort": 49316,
        "total": 2352
      },
      {
        "club_badge_src": null,
        "entry": 9011696,
        "entry_name": "Ross FC",
        "event_total": 63,
        "has_played": true,
        "id": 75592896,
        "last_rank": 59475,
        "player_name": "Tom Ross",
        "rank": 49271,
        "rank_sort": 49317,
        "total": 2352
      },
      {
        "club_badge_src": null,
        "entry": 9155878,
        "entry_name": "Naxen FC",
        "event_total": 57,
        "has_played": true,
        "id": 76998112,
        "last_rank": 49572,
        "player_name": "Nitzan Shimony",
        "rank": 49271,
        "rank_sort": 49318,
        "total": 2352
      },
      {
        "club_badge_src": null,
        "entry": 10721022,
        "entry_name": "Tesco McNeil Deal",
        "event_total": 57,
        "has_played": true,
        "id": 90561474,
        "last_rank": 49691,
        "player_name": "Matthew Stratford",
        "rank": 49271,
        "rank_sort": 49319,
        "total": 2352
      },
      {
        "club_badge_src": "https://fantasy.premierleague.com/gcs/plfpl-production-adobe-approved/plfpl-production/1221/3763b560-ca56-42ea-979f-047bf6f78b2f.png",
        "entry": 1221,
        "entry_name": "FPL Surgery - Iceman",
        "event_total": 62,
        "has_played": true,
        "id": 6783,
        "last_rank": 51137,
        "player_name": "James Drewery",
        "rank": 49320,
        "rank_sort": 49320,
        "total": 2352
      },
      {
        "club_badge_src": "https://fantasy.premierleague.com/gcs/plfpl-production-adobe-approved/plfpl-production/2771/927ec4de-b4e5-4d6e-939d-686cde273894.png",
        "entry": 2771,
        "entry_name": "Not Very Athletic",
        "event_total": 57,
        "has_played": true,
        "id": 15563,
        "last_rank": 49880,
        "player_name": "Lee Allen",
        "rank": 49320,
        "rank_sort": 49321,
        "total": 2352
      },
      {
        "club_badge_src": null,
        "entry": 11800,
        "entry_name": "Kinder Mbeumo",
        "event_total": 54,
        "has_played": true,
        "id": 70308,
        "last_rank": 45416,
        "player_name": "Daniel Cook",
        "rank": 49320,
        "rank_sort": 49322,
        "total": 2352
      },
      {
        "club_badge_src": null,
        "entry": 49162,
        "entry_name": "A-Dub\u2019s All-Stars",
        "event_total": 59,
        "has_played": true,
        "id": 315961,
        "last_rank": 52759,
        "player_name": "Andrew Wheeler",
        "rank": 49320,
        "rank_sort": 49323,
        "total": 2352
      },
      {
        "club_badge_src": null,
        "entry": 56471,
        "entry_name": "Tom's XI",
        "event_total": 61,
        "has_played": true,
        "id": 363710,
        "last_rank": 56180,
        "player_name": "Tom Bate",
        "rank": 49320,
        "rank_sort": 49324,
        "total": 2352
      },
      {
        "club_badge_src": null,
        "entry": 60576,
        "entry_name": "Mulhaaland Drive",
        "event_total": 67,
        "has_played": true,
        "id": 390013,
        "last_rank": 66848,
        "player_name": "Reuben VT",
        "rank": 49320,
        "rank_sort": 49325,
        "total": 2352
      },
      {
        "club_badge_src": "https://fantasy.premierleague.com/gcs/plfpl-production-adobe-approved/plfpl-production/62604/fdfe87ba-0f83-4944-9efd-4259c789696a.png",
        "entry": 62604,
        "entry_name": "Pickford's Babes",
        "event_total": 62,
        "has_played": true,
        "id": 403640,
        "last_rank": 57857,
        "player_name": "Ivan Pi\u0107uri\u0107",
        "rank": 49320,
        "rank_sort": 49326,
        "total": 2352
      },
      {
        "club_badge_src": "https://fantasy.premierleague.com/gcs/plfpl-production-adobe-approved/plfpl-production/69147/4037b128-bbb3-40a7-83e2-b57a64b32ec0.png",
        "entry": 69147,
        "entry_name": "Maad Men FC",
        "event_total": 50,
        "has_played": true,
        "id": 448329,
        "last_rank": 40036,
        "player_name": "Abdel Elmaadawi",
        "rank": 49320,
        "rank_sort": 49327,
        "total": 2352
      },
      {
        "club_badge_src": null,
        "entry": 82706,
        "entry_name": "My Old Team",
        "event_total": 50,
        "has_played": true,
        "id": 538235,
        "last_rank": 40036,
        "player_name": "Mark Jacques",
        "rank": 49320,
        "rank_sort": 49328,
        "total": 2352
      },
      {
        "club_badge_src": "https://fantasy.premierleague.com/gcs/plfpl-production-adobe-approved/plfpl-production/85889/d29bda08-9805-41c8-b41e-cddf8cc1ee96.png",
        "entry": 85889,
        "entry_name": "Yeddu",
        "event_total": 69,
        "has_played": true,
        "id": 559553,
        "last_rank": 70651,
        "player_name": "Nguyen Woi",
        "rank": 49320,
        "rank_sort": 49329,
        "total": 2352
      },
      {
        "club_badge_src": null,
        "entry": 93694,
        "entry_name": "Kiwi-or a waterMalen",
        "event_total": 64,
        "has_played": true,
        "id": 612272,
        "last_rank": 61411,
        "player_name": "Charlie Perkins",
        "rank": 49320,
        "rank_sort": 49330,
        "total": 2352
      },
      {
        "club_badge_src": null,
        "entry": 93743,
        "entry_name": "Gy\u00f6k T\u00fcah",
        "event_total": 55,
        "has_played": true,
        "id": 612602,
        "last_rank": 41101,
        "player_name": "Issei Kono",
        "rank": 49320,
        "rank_sort": 49331,
        "total": 2352
      },
      {
        "club_badge_src": "https://fantasy.premierleague.com/gcs/plfpl-production-adobe-approved/plfpl-production/174721/043f537f-8823-450b-92b9-bf3c5811e469.png",
        "entry": 174721,
        "entry_name": "Sunlessland",
        "event_total": 57,
        "has_played": true,
        "id": 1153674,
        "last_rank": 49691,
        "player_name": "Kiet Purcell",
        "rank": 49320,
        "rank_sort": 49332,
        "total": 2352
      },
      {
        "club_badge_src": null,
        "entry": 210909,
        "entry_name": "Kinder Mbeumo",
        "event_total": 49,
        "has_played": true,
        "id": 1402738,
        "last_rank": 38774,
        "player_name": "Joshua Francis",
        "rank": 49320,
        "rank_sort": 49333,
        "total": 2352
      },
      {
        "club_badge_src": null,
        "entry": 282802,
        "entry_name": "a cunha mateta",
        "event_total": 43,
        "has_played": true,
        "id": 1882528,
        "last_rank": 31620,
        "player_name": "Mons K\u00f8ningsberg",
        "rank": 49320,
        "rank_sort": 49334,
        "total": 2352
      },
      {
        "club_badge_src": "https://fantasy.premierleague.com/gcs/plfpl-production-adobe-approved/plfpl-production/284170/d26b5315-02d7-4cd9-aacd-0230ed19bce2.png",
        "entry": 284170,
        "entry_name": "Shark FC",
        "event_total": 67,
        "has_played": true,
        "id": 1892108,
        "last_rank": 66693,
        "player_name": "Tristan Taylor",
        "rank": 49320,
        "rank_sort": 49335,
        "total": 2352
      },
      {
        "club_badge_src": null,
        "entry": 298555,
        "entry_name": "Eze come Eze go",
        "event_total": 61,
        "has_played": true,
        "id": 1996149,
        "last_rank": 56069,
        "player_name": "Alex McHale",
        "rank": 49320,
        "rank_sort": 49336,
        "total": 2352
      },
      {
        "club_badge_src": "https://fantasy.premierleague.com/gcs/plfpl-production-adobe-approved/plfpl-production/307495/43539d85-1df2-4e5f-97f9-edb0991351c6.png",
        "entry": 307495,
        "entry_name": "Sir.Chin Lalisa",
        "event_total": 33,
        "has_played": true,
        "id": 2059465,
        "last_rank": 22534,
        "player_name": "Sir.Chin Lalisa",
        "rank": 49320,
        "rank_sort": 49337,
        "total": 2352
      },
      {
        "club_badge_src": "https://fantasy.premierleague.com/gcs/plfpl-production-adobe-approved/plfpl-production/322992/079c36f3-36d0-4277-be2b-4fd7c5a81881.png",
        "entry": 322992,
        "entry_name": "Lake United",
        "event_total": 64,
        "has_played": true,
        "id": 2164528,
        "last_rank": 61411,
        "player_name": "Adam Lake",
        "rank": 49320,
        "rank_sort": 49338,
        "total": 2352
      },
      {
        "club_badge_src": null,
        "entry": 378112,
        "entry_name": "fplcoin",
        "event_total": 65,
        "has_played": true,
        "id": 2533118,
        "last_rank": 63117,
        "player_name": "Kornniti Chanaporn",
        "rank": 49320,
        "rank_sort": 49339,
        "total": 2352
      },
      {
        "club_badge_src": null,
        "entry": 452443,
        "entry_name": "Jota 2 Holiday",
        "event_total": 60,
        "has_played": true,
        "id": 3035216,
        "last_rank": 54416,
        "player_name": "Neilesh Randall",
        "rank": 49320,
        "rank_sort": 49340,
        "total": 2352
      },
      {
        "club_badge_src": null,
        "entry": 551768,
        "entry_name": "No more Mr Rice Kai",
        "event_total": 67,
        "has_played": true,
        "id": 3713873,
        "last_rank": 66658,
        "player_name": "Alex Mitchell",
        "rank": 49320,
        "rank_sort": 49341,
        "total": 2352
      },
      {
        "club_badge_src": null,
        "entry": 628972,
        "entry_name": "The Gooners",
        "event_total": 62,
        "has_played": true,
        "id": 4250292,
        "last_rank": 58071,
        "player_name": "Alex Beekmeyer",
        "rank": 49320,
        "rank_sort": 49342,
        "total": 2352
      },
      {
        "club_badge_src": null,
        "entry": 640518,
        "entry_name": "Castro's Beard",
        "event_total": 64,
        "has_played": true,
        "id": 4328849,
        "last_rank": 61239,
        "player_name": "Michael Nemchick",
        "rank": 49320,
        "rank_sort": 49343,
        "total": 2352
      },
      {
        "club_badge_src": "https://fantasy.premierleague.com/gcs/plfpl-production-adobe-approved/plfpl-production/676877/10a655a5-7f10-4a47-8455-c8ca4b32cd37.png",
        "entry": 676877,
        "entry_name": "RAMY FC",
        "event_total": 38,
        "has_played": true,
        "id": 4579648,
        "last_rank": 26656,
        "player_name": "Kamya Reagan",
        "rank": 49320,
        "rank_sort": 49344,
        "total": 2352
      },
      {
        "club_badge_src": null,
        "entry": 740552,
        "entry_name": "Ospina Colada",
        "event_total": 32,
        "has_played": true,
        "id": 5035485,
        "last_rank": 21628,
        "player_name": "David Robson",
        "rank": 49320,
        "rank_sort": 49345,
        "total": 2352
      },
      {
        "club_badge_src": null,
        "entry": 751264,
        "entry_name": "why Always Me?",
        "event_total": 57,
        "has_played": true,
        "id": 5111706,
        "last_rank": 49880,
        "player_name": "Shavit Eliyahu",
        "rank": 49320,
        "rank_sort": 49346,
        "total": 2352
      },
      {
        "club_badge_src": null,
        "entry": 912329,
        "entry_name": "Return of the King",
        "event_total": 64,
        "has_played": true,
        "id": 6273216,
        "last_rank": 61606,
        "player_name": "Asheesh Banga",
        "rank": 49320,
        "rank_sort": 49347,
        "total": 2352
      },
      {
        "club_badge_src": null,
        "entry": 926929,
        "entry_name": "FOTZISFREELOADERS",
        "event_total": 73,
        "has_played": true,
        "id": 6376995,
        "last_rank": 79027,
        "player_name": "Patric Fitzi",
        "rank": 49320,
        "rank_sort": 49348,
        "total": 2352
      },
      {
        "club_badge_src": null,
        "entry": 980954,
        "entry_name": "SIMIz",
        "event_total": 67,
        "has_played": true,
        "id": 6762656,
        "last_rank": 66848,
        "player_name": "Simz Boods",
        "rank": 49320,
        "rank_sort": 49349,
        "total": 2352
      },
      {
        "club_badge_src": null,
        "entry": 1000174,
        "entry_name": "mmm",
        "event_total": 48,
        "has_played": true,
        "id": 6913643,
        "last_rank": 37589,
        "player_name": "Mathias Leksb\u00f8",
        "rank": 49320,
        "rank_sort": 49350,
        "total": 2352
      }
    ]
  }
}