{
  "last_updated_data": "2026-05-24T23:28:17Z",
  "league": {
    "admin_entry": null,
    "closed": false,
    "code_privacy": "p",
    "created": "2025-07-20T23:14:33.933835Z",
    "cup_league": 2815434,
    "has_cup": true,
    "id": 314,
    "league_type": "s",
    "max_entries": null,
    "name": "Overall",
    "rank": null,
    "scoring": "c",
    "start_event": 1
  },
  "new_entries": {
    "has_next": false,
    "page": 1,
    "results": []
  },
  "standings": {
    "has_next": true,
    "page": 651,
    "results": [
      {
        "club_badge_src": null,
        "entry": 1560495,
        "entry_name": "Rapid Rosehill",
        "event_total": 61,
        "has_played": true,
        "id": 10898079,
        "last_rank": 32190,
        "player_name": "Nial Friel",
        "rank": 32448,
        "rank_sort": 32501,
        "total": 2366
      },
      {
        "club_badge_src": null,
        "entry": 1570431,
        "entry_name": "McDizzle FC",
        "event_total": 41,
        "has_played": true,
        "id": 10972528,
        "last_rank": 18377,
        "player_name": "James McDermott",
        "rank": 32448,
        "rank_sort": 32502,
        "total": 2366
      },
      {
        "club_badge_src": null,
        "entry": 1590482,
        "entry_name": "Not Gunner Win",
        "event_total": 57,
        "has_played": true,
        "id": 11121143,
        "last_rank": 28150,
        "player_name": "Daniel Bates",
        "rank": 32448,
        "rank_sort": 32503,
        "total": 2366
      },
      {
        "club_badge_src": null,
        "entry": 1651651,
        "entry_name": "Mighty Reds",
        "event_total": 49,
        "has_played": true,
        "id": 11563399,
        "last_rank": 21301,
        "player_name": "Damien Davoren",
        "rank": 32448,
        "rank_sort": 32504,
        "total": 2366
      },
      {
        "club_badge_src": null,
        "entry": 1810027,
        "entry_name": "Always Next Season",
        "event_total": 42,
        "has_played": true,
        "id": 12725899,
        "last_rank": 19237,
        "player_name": "Nilesh Joshi",
        "rank": 32448,
        "rank_sort": 32505,
        "total": 2366
      },
      {
        "club_badge_src": null,
        "entry": 1945649,
        "entry_name": "WizzyDon",
        "event_total": 59,
        "has_played": true,
        "id": 13724386,
        "last_rank": 34578,
        "player_name": "Michael Wisdom",
        "rank": 32448,
        "rank_sort": 32506,
        "total": 2366
      },
      {
        "club_badge_src": null,
        "entry": 1952526,
        "entry_name": "mira",
        "event_total": 56,
        "has_played": true,
        "id": 13773653,
        "last_rank": 23522,
        "player_name": "Miran Syaman",
        "rank": 32448,
        "rank_sort": 32507,
        "total": 2366
      },
      {
        "club_badge_src": "https://fantasy.premierleague.com/gcs/plfpl-production-adobe-approved/plfpl-production/2002143/4a061866-804f-4f18-a1e3-3930819904c1.png",
        "entry": 2002143,
        "entry_name": "Picasso Spurs",
        "event_total": 67,
        "has_played": true,
        "id": 14154561,
        "last_rank": 44672,
        "player_name": "Laidlaw Saayman",
        "rank": 32448,
        "rank_sort": 32508,
        "total": 2366
      },
      {
        "club_badge_src": "https://fantasy.premierleague.com/gcs/plfpl-production-adobe-approved/plfpl-production/2041311/9ff08b41-50fb-4ab3-b0cc-8d7dfebbba4f.png",
        "entry": 2041311,
        "entry_name": "The Hammers",
        "event_total": 77,
        "has_played": true,
        "id": 14455802,
        "last_rank": 53621,
        "player_name": "Omar Ahmed",
        "rank": 32448,
        "rank_sort": 32509,
        "total": 2366
      },
      {
        "club_badge_src": null,
        "entry": 2249042,
        "entry_name": "Grace's Aces",
        "event_total": 51,
        "has_played": true,
        "id": 16025862,
        "last_rank": 22685,
        "player_name": "Adam Shawcross",
        "rank": 32448,
        "rank_sort": 32510,
        "total": 2366
      },
      {
        "club_badge_src": null,
        "entry": 2251258,
        "entry_name": "Aspinall Night Long",
        "event_total": 59,
        "has_played": true,
        "id": 16041712,
        "last_rank": 34578,
        "player_name": "Callum Diggles",
        "rank": 32448,
        "rank_sort": 32511,
        "total": 2366
      },
      {
        "club_badge_src": null,
        "entry": 2278942,
        "entry_name": "Livin Lavia Loca",
        "event_total": 71,
        "has_played": true,
        "id": 16251093,
        "last_rank": 44525,
        "player_name": "Jordan Hart",
        "rank": 32448,
        "rank_sort": 32512,
        "total": 2366
      },
      {
        "club_badge_src": "https://fantasy.premierleague.com/gcs/plfpl-production-adobe-approved/plfpl-production/2366461/bafa59a7-3be3-48b5-bd02-fa9971ab2c28.png",
        "entry": 2366461,
        "entry_name": "Athletico Teignmouth",
        "event_total": 56,
        "has_played": true,
        "id": 16891823,
        "last_rank": 27203,
        "player_name": "Dominic Spayne",
        "rank": 32448,
        "rank_sort": 32513,
        "total": 2366
      },
      {
        "club_badge_src": "https://fantasy.premierleague.com/gcs/plfpl-production-adobe-approved/plfpl-production/2560559/ad3c7441-7a39-4e99-8158-46d57d0de75d.png",
        "entry": 2560559,
        "entry_name": "Studs Up",
        "event_total": 58,
        "has_played": true,
        "id": 18363904,
        "last_rank": 33483,
        "player_name": "Stu Ireland",
        "rank": 32448,
        "rank_sort": 32514,
        "total": 2366
      },
      {
        "club_badge_src": null,
        "entry": 2576959,
        "entry_name": "Silver Wolves",
        "event_total": 63,
        "has_played": true,
        "id": 18494113,
        "last_rank": 34458,
        "player_name": "Tony Dineen",
        "rank": 32448,
        "rank_sort": 32515,
        "total": 2366
      },
      {
        "club_badge_src": null,
        "entry": 2613595,
        "entry_name": "AC Manila",
        "event_total": 42,
        "has_played": true,
        "id": 18778586,
        "last_rank": 19176,
        "player_name": "Alan Lawrence",
        "rank": 32448,
        "rank_sort": 32516,
        "total": 2366
      },
      {
        "club_badge_src": null,
        "entry": 2658224,
        "entry_name": "Osballers United",
        "event_total": 74,
        "has_played": true,
        "id": 19108099,
        "last_rank": 48898,
        "player_name": "Ben Osborne",
        "rank": 32448,
        "rank_sort": 32517,
        "total": 2366
      },
      {
        "club_badge_src": null,
        "entry": 2761048,
        "entry_name": "Leafs United",
        "event_total": 63,
        "has_played": true,
        "id": 20142677,
        "last_rank": 39403,
        "player_name": "Tom Ley",
        "rank": 32448,
        "rank_sort": 32518,
        "total": 2366
      },
      {
        "club_badge_src": "https://fantasy.premierleague.com/gcs/plfpl-production-adobe-approved/plfpl-production/2768202/d716ad6d-a9a4-4148-8d7c-66ab102db08f.png",
        "entry": 2768202,
        "entry_name": "\u32e1",
        "event_total": 67,
        "has_played": true,
        "id": 20196943,
        "last_rank": 44672,
        "player_name": "Callum Forbes",
        "rank": 32448,
        "rank_sort": 32519,
        "total": 2366
      },
      {
        "club_badge_src": null,
        "entry": 2803284,
        "entry_name": "Me, Myself, Ndiaye",
        "event_total": 65,
        "has_played": true,
        "id": 20471114,
        "last_rank": 36831,
        "player_name": "Nick Behan",
        "rank": 32448,
        "rank_sort": 32520,
        "total": 2366
      },
      {
        "club_badge_src": null,
        "entry": 2826220,
        "entry_name": "The Legends Slayer",
        "event_total": 70,
        "has_played": true,
        "id": 20649446,
        "last_rank": 48898,
        "player_name": "Jake Harman",
        "rank": 32448,
        "rank_sort": 32521,
        "total": 2366
      },
      {
        "club_badge_src": null,
        "entry": 2855935,
        "entry_name": "Bozos FC",
        "event_total": 57,
        "has_played": true,
        "id": 20883508,
        "last_rank": 32335,
        "player_name": "Andr\u00e9 Skj\u00f8l\u00e5s",
        "rank": 32448,
        "rank_sort": 32522,
        "total": 2366
      },
      {
        "club_badge_src": null,
        "entry": 3007701,
        "entry_name": "Ed Internazionale",
        "event_total": 51,
        "has_played": true,
        "id": 22125237,
        "last_rank": 26345,
        "player_name": "Ed Watts",
        "rank": 32448,
        "rank_sort": 32523,
        "total": 2366
      },
      {
        "club_badge_src": null,
        "entry": 3090300,
        "entry_name": "Fulhamaoui",
        "event_total": 51,
        "has_played": true,
        "id": 22775013,
        "last_rank": 22830,
        "player_name": "Ahmed Said",
        "rank": 32448,
        "rank_sort": 32524,
        "total": 2366
      },
      {
        "club_badge_src": null,
        "entry": 3182277,
        "entry_name": "cody is a rip off",
        "event_total": 55,
        "has_played": true,
        "id": 23515984,
        "last_rank": 30060,
        "player_name": "Tom Blundell",
        "rank": 32448,
        "rank_sort": 32525,
        "total": 2366
      },
      {
        "club_badge_src": null,
        "entry": 3189385,
        "entry_name": "Liam's XI",
        "event_total": 81,
        "has_played": true,
        "id": 23570458,
        "last_rank": 67422,
        "player_name": "Liam Wheatley",
        "rank": 32448,
        "rank_sort": 32526,
        "total": 2366
      },
      {
        "club_badge_src": null,
        "entry": 3312839,
        "entry_name": "Deeney in a Bottle",
        "event_total": 46,
        "has_played": true,
        "id": 24545141,
        "last_rank": 22154,
        "player_name": "Jack Lupton",
        "rank": 32448,
        "rank_sort": 32527,
        "total": 2366
      },
      {
        "club_badge_src": null,
        "entry": 3343095,
        "entry_name": "BananaBoatFc",
        "event_total": 57,
        "has_played": true,
        "id": 24797569,
        "last_rank": 32335,
        "player_name": "Diogo Palma",
        "rank": 32448,
        "rank_sort": 32528,
        "total": 2366
      },
      {
        "club_badge_src": null,
        "entry": 3425495,
        "entry_name": "FC Pack",
        "event_total": 52,
        "has_played": true,
        "id": 25446170,
        "last_rank": 27304,
        "player_name": "Duncan Cameron",
        "rank": 32448,
        "rank_sort": 32529,
        "total": 2366
      },
      {
        "club_badge_src": null,
        "entry": 3445773,
        "entry_name": "BrinnyFC",
        "event_total": 26,
        "has_played": true,
        "id": 25602216,
        "last_rank": 10151,
        "player_name": "Chris Brinsden",
        "rank": 32448,
        "rank_sort": 32530,
        "total": 2366
      },
      {
        "club_badge_src": null,
        "entry": 3525783,
        "entry_name": "Working Class",
        "event_total": 65,
        "has_played": true,
        "id": 26239847,
        "last_rank": 41967,
        "player_name": "Krystian Krzywdzi\u0144ski",
        "rank": 32448,
        "rank_sort": 32531,
        "total": 2366
      },
      {
        "club_badge_src": null,
        "entry": 3534881,
        "entry_name": "Emberarc\u00fa Fideszesek",
        "event_total": 51,
        "has_played": true,
        "id": 26310394,
        "last_rank": 26088,
        "player_name": "Barnabas Fodor",
        "rank": 32448,
        "rank_sort": 32532,
        "total": 2366
      },
      {
        "club_badge_src": null,
        "entry": 3614984,
        "entry_name": "Minteh Fresh",
        "event_total": 55,
        "has_played": true,
        "id": 26931079,
        "last_rank": 30060,
        "player_name": "Luke Conboy",
        "rank": 32448,
        "rank_sort": 32533,
        "total": 2366
      },
      {
        "club_badge_src": null,
        "entry": 3837750,
        "entry_name": "IPAS Centre FC",
        "event_total": 60,
        "has_played": true,
        "id": 28728105,
        "last_rank": 31125,
        "player_name": "Owen Maxwell",
        "rank": 32448,
        "rank_sort": 32534,
        "total": 2366
      },
      {
        "club_badge_src": null,
        "entry": 3988909,
        "entry_name": "Rovrum FC",
        "event_total": 55,
        "has_played": true,
        "id": 30033753,
        "last_rank": 26230,
        "player_name": "Jack James",
        "rank": 32448,
        "rank_sort": 32535,
        "total": 2366
      },
      {
        "club_badge_src": null,
        "entry": 4040053,
        "entry_name": "we8nottinghamforest",
        "event_total": 61,
        "has_played": true,
        "id": 30466760,
        "last_rank": 36831,
        "player_name": "Ali Nazim",
        "rank": 32448,
        "rank_sort": 32536,
        "total": 2366
      },
      {
        "club_badge_src": "https://fantasy.premierleague.com/gcs/plfpl-production-adobe-approved/plfpl-production/4130672/a051b7a0-82fa-416e-95c4-ef3aee2930a4.png",
        "entry": 4130672,
        "entry_name": "Gilesee United",
        "event_total": 50,
        "has_played": true,
        "id": 31214464,
        "last_rank": 25172,
        "player_name": "Paul Giles",
        "rank": 32448,
        "rank_sort": 32537,
        "total": 2366
      },
      {
        "club_badge_src": "https://fantasy.premierleague.com/gcs/plfpl-production-adobe-approved/plfpl-production/4167009/79fc18f1-5420-441e-b17a-21a661e9f23e.png",
        "entry": 4167009,
        "entry_name": "Br\u00e5tenveien FC",
        "event_total": 58,
        "has_played": true,
        "id": 31512075,
        "last_rank": 33332,
        "player_name": "Andr\u00e9 Nesje",
        "rank": 32448,
        "rank_sort": 32538,
        "total": 2366
      },
      {
        "club_badge_src": "https://fantasy.premierleague.com/gcs/plfpl-production-adobe-approved/plfpl-production/4353917/6d71bf48-0b98-4d43-a592-4a2cc458668a.png",
        "entry": 4353917,
        "entry_name": "Bruno dos tres",
        "event_total": 60,
        "has_played": true,
        "id": 33064488,
        "last_rank": 35166,
        "player_name": "Alief Oxania",
        "rank": 32448,
        "rank_sort": 32539,
        "total": 2366
      },
      {
        "club_badge_src": "https://fantasy.premierleague.com/gcs/plfpl-production-adobe-approved/plfpl-production/4601433/84e1147d-a513-46f6-b91e-8c85f3ca7899.png",
        "entry": 4601433,
        "entry_name": "Rizzle Gang",
        "event_total": 54,
        "has_played": true,
        "id": 35151456,
        "last_rank": 29199,
        "player_name": "Riaz Bungsraz",
        "rank": 32448,
        "rank_sort": 32540,
        "total": 2366
      },
      {
        "club_badge_src": null,
        "entry": 4608218,
        "entry_name": "Trust The Process",
        "event_total": 59,
        "has_played": true,
        "id": 35209966,
        "last_rank": 34578,
        "player_name": "Neel G",
        "rank": 32448,
        "rank_sort": 32541,
        "total": 2366
      },
      {
        "club_badge_src": null,
        "entry": 4732318,
        "entry_name": "majestic51",
        "event_total": 75,
        "has_played": true,
        "id": 36407149,
        "last_rank": 57001,
        "player_name": "Joshua Jackson",
        "rank": 32448,
        "rank_sort": 32542,
        "total": 2366
      },
      {
        "club_badge_src": null,
        "entry": 5222377,
        "entry_name": "Moha \ufffd",
        "event_total": 50,
        "has_played": true,
        "id": 40464179,
        "last_rank": 22064,
        "player_name": "Carl Henza",
        "rank": 32448,
        "rank_sort": 32543,
        "total": 2366
      },
      {
        "club_badge_src": null,
        "entry": 5401017,
        "entry_name": "Abdulrahman",
        "event_total": 65,
        "has_played": true,
        "id": 41994634,
        "last_rank": 41967,
        "player_name": "D7 10",
        "rank": 32448,
        "rank_sort": 32544,
        "total": 2366
      },
      {
        "club_badge_src": null,
        "entry": 5474733,
        "entry_name": "Almulla7",
        "event_total": 57,
        "has_played": true,
        "id": 42618789,
        "last_rank": 32335,
        "player_name": "mohammed almulla",
        "rank": 32448,
        "rank_sort": 32545,
        "total": 2366
      },
      {
        "club_badge_src": null,
        "entry": 5581855,
        "entry_name": "Rolly Boehly",
        "event_total": 46,
        "has_played": true,
        "id": 43596632,
        "last_rank": 22154,
        "player_name": "Peter Hurley",
        "rank": 32448,
        "rank_sort": 32546,
        "total": 2366
      },
      {
        "club_badge_src": null,
        "entry": 5593659,
        "entry_name": "Big Tarkowski",
        "event_total": 69,
        "has_played": true,
        "id": 43701784,
        "last_rank": 41617,
        "player_name": "Sai Adithya",
        "rank": 32448,
        "rank_sort": 32547,
        "total": 2366
      },
      {
        "club_badge_src": null,
        "entry": 5640207,
        "entry_name": "AHMED.K FC",
        "event_total": 53,
        "has_played": true,
        "id": 44106963,
        "last_rank": 24475,
        "player_name": "Ahmed Kamaleldin",
        "rank": 32448,
        "rank_sort": 32548,
        "total": 2366
      },
      {
        "club_badge_src": null,
        "entry": 5757015,
        "entry_name": "WTeam",
        "event_total": 63,
        "has_played": true,
        "id": 45127003,
        "last_rank": 39246,
        "player_name": "Wojtek Wachowicz",
        "rank": 32448,
        "rank_sort": 32549,
        "total": 2366
      },
      {
        "club_badge_src": null,
        "entry": 5807995,
        "entry_name": "Daniel Levy",
        "event_total": 66,
        "has_played": true,
        "id": 45569299,
        "last_rank": 43168,
        "player_name": "David Thurfjell",
        "rank": 32448,
        "rank_sort": 32550,
        "total": 2366
      }
    ]
  }
}