{
  "last_updated_data": "2026-05-24T23:28:17Z",
  "league": {
    "admin_entry": null,
    "closed": false,
    "code_privacy": "p",
    "created": "2025-07-20T23:14:33.933835Z",
    "cup_league": 2815434,
    "has_cup": true,
    "id": 314,
    "league_type": "s",
    "max_entries": null,
    "name": "Overall",
    "rank": null,
    "scoring": "c",
    "start_event": 1
  },
  "new_entries": {
    "has_next": false,
    "page": 1,
    "results": []
  },
  "standings": {
    "has_next": true,
    "page": 1584,
    "results": [
      {
        "club_badge_src": null,
        "entry": 18468,
        "entry_name": "Pino Kamada",
        "event_total": 55,
        "has_played": true,
        "id": 114894,
        "last_rank": 68107,
        "player_name": "Conor Carroll",
        "rank": 79149,
        "rank_sort": 79151,
        "total": 2336
      },
      {
        "club_badge_src": "https://fantasy.premierleague.com/gcs/plfpl-production-adobe-approved/plfpl-production/20056/137a357c-c7e9-433d-bb8a-42b3b426f10f.png",
        "entry": 20056,
        "entry_name": "Fpl _Meeksy",
        "event_total": 68,
        "has_played": true,
        "id": 124873,
        "last_rank": 97096,
        "player_name": "Daniel Meeks",
        "rank": 79149,
        "rank_sort": 79152,
        "total": 2336
      },
      {
        "club_badge_src": null,
        "entry": 20138,
        "entry_name": "Soul Survivors",
        "event_total": 68,
        "has_played": true,
        "id": 125399,
        "last_rank": 97305,
        "player_name": "Alissa Dsouza",
        "rank": 79149,
        "rank_sort": 79153,
        "total": 2336
      },
      {
        "club_badge_src": "https://fantasy.premierleague.com/gcs/plfpl-production-adobe-approved/plfpl-production/20526/01bb116f-da26-47e2-90d2-ed4def6501c6.png",
        "entry": 20526,
        "entry_name": "Rama FC",
        "event_total": 57,
        "has_played": true,
        "id": 128156,
        "last_rank": 72145,
        "player_name": "Kacper Sarama",
        "rank": 79149,
        "rank_sort": 79154,
        "total": 2336
      },
      {
        "club_badge_src": null,
        "entry": 32553,
        "entry_name": "Dont look bak Elanga",
        "event_total": 67,
        "has_played": true,
        "id": 207128,
        "last_rank": 94537,
        "player_name": "Darren McCabe",
        "rank": 79149,
        "rank_sort": 79155,
        "total": 2336
      },
      {
        "club_badge_src": "https://fantasy.premierleague.com/gcs/plfpl-production-adobe-approved/plfpl-production/39011/7e4cf611-17a8-4e6b-8213-45d4e382af3e.png",
        "entry": 39011,
        "entry_name": "muchas gracias",
        "event_total": 65,
        "has_played": true,
        "id": 250055,
        "last_rank": 99596,
        "player_name": "J P",
        "rank": 79149,
        "rank_sort": 79156,
        "total": 2336
      },
      {
        "club_badge_src": "https://fantasy.premierleague.com/gcs/plfpl-production-adobe-approved/plfpl-production/39595/8339cb7d-4961-43c0-b4c1-9cc88ce3c334.png",
        "entry": 39595,
        "entry_name": "FC Shumen",
        "event_total": 64,
        "has_played": true,
        "id": 253714,
        "last_rank": 97305,
        "player_name": "Numy Next",
        "rank": 79149,
        "rank_sort": 79157,
        "total": 2336
      },
      {
        "club_badge_src": null,
        "entry": 42011,
        "entry_name": "Moosemagic",
        "event_total": 51,
        "has_played": true,
        "id": 269202,
        "last_rank": 60462,
        "player_name": "Jerome Moussa",
        "rank": 79149,
        "rank_sort": 79158,
        "total": 2336
      },
      {
        "club_badge_src": null,
        "entry": 63896,
        "entry_name": "We'll ave a look",
        "event_total": 50,
        "has_played": true,
        "id": 412327,
        "last_rank": 66296,
        "player_name": "Josh Todd",
        "rank": 79149,
        "rank_sort": 79159,
        "total": 2336
      },
      {
        "club_badge_src": null,
        "entry": 67161,
        "entry_name": "AK-KK",
        "event_total": 71,
        "has_played": true,
        "id": 434747,
        "last_rank": 104941,
        "player_name": "Abhik Kumar",
        "rank": 79149,
        "rank_sort": 79160,
        "total": 2336
      },
      {
        "club_badge_src": null,
        "entry": 68594,
        "entry_name": "SERIAB FC",
        "event_total": 59,
        "has_played": true,
        "id": 444484,
        "last_rank": 76330,
        "player_name": "Irfan Harris",
        "rank": 79149,
        "rank_sort": 79161,
        "total": 2336
      },
      {
        "club_badge_src": null,
        "entry": 104929,
        "entry_name": "The Nerf Herders",
        "event_total": 78,
        "has_played": true,
        "id": 684424,
        "last_rank": 137711,
        "player_name": "Mark Greaves",
        "rank": 79149,
        "rank_sort": 79162,
        "total": 2336
      },
      {
        "club_badge_src": "https://fantasy.premierleague.com/gcs/plfpl-production-adobe-approved/plfpl-production/123796/90df8dfe-5760-427e-a659-7953ae7010d8.png",
        "entry": 123796,
        "entry_name": "Boring Prophet",
        "event_total": 44,
        "has_played": true,
        "id": 807412,
        "last_rank": 48642,
        "player_name": "Vasileios Karakasidis",
        "rank": 79149,
        "rank_sort": 79163,
        "total": 2336
      },
      {
        "club_badge_src": null,
        "entry": 126944,
        "entry_name": "King Ivan XCV",
        "event_total": 54,
        "has_played": true,
        "id": 827661,
        "last_rank": 66200,
        "player_name": "KingYip Chan",
        "rank": 79149,
        "rank_sort": 79164,
        "total": 2336
      },
      {
        "club_badge_src": null,
        "entry": 142712,
        "entry_name": "Bains on toast",
        "event_total": 78,
        "has_played": true,
        "id": 933296,
        "last_rank": 112169,
        "player_name": "Craig Walker",
        "rank": 79149,
        "rank_sort": 79165,
        "total": 2336
      },
      {
        "club_badge_src": null,
        "entry": 143282,
        "entry_name": "Backa Fc 2.0",
        "event_total": 44,
        "has_played": true,
        "id": 937380,
        "last_rank": 49207,
        "player_name": "Per Bengtsson",
        "rank": 79149,
        "rank_sort": 79166,
        "total": 2336
      },
      {
        "club_badge_src": null,
        "entry": 146704,
        "entry_name": "Four Lights",
        "event_total": 56,
        "has_played": true,
        "id": 961201,
        "last_rank": 78575,
        "player_name": "Mohamed Haikal",
        "rank": 79149,
        "rank_sort": 79167,
        "total": 2336
      },
      {
        "club_badge_src": null,
        "entry": 148811,
        "entry_name": "Beast FC",
        "event_total": 63,
        "has_played": true,
        "id": 975564,
        "last_rank": 84980,
        "player_name": "Kyle Lindsay",
        "rank": 79149,
        "rank_sort": 79168,
        "total": 2336
      },
      {
        "club_badge_src": null,
        "entry": 170840,
        "entry_name": "Push till it Wirtz",
        "event_total": 65,
        "has_played": true,
        "id": 1128674,
        "last_rank": 99959,
        "player_name": "Peter Grime",
        "rank": 79149,
        "rank_sort": 79169,
        "total": 2336
      },
      {
        "club_badge_src": null,
        "entry": 172818,
        "entry_name": "Paris Gangaman",
        "event_total": 61,
        "has_played": true,
        "id": 1141395,
        "last_rank": 90057,
        "player_name": "Dylan Evans",
        "rank": 79149,
        "rank_sort": 79170,
        "total": 2336
      },
      {
        "club_badge_src": "https://fantasy.premierleague.com/gcs/plfpl-production-adobe-approved/plfpl-production/175313/a80f2c85-42be-4000-af6c-c8c8d769d017.png",
        "entry": 175313,
        "entry_name": "Zubi or not Zubi",
        "event_total": 58,
        "has_played": true,
        "id": 1157495,
        "last_rank": 73975,
        "player_name": "Adam McGorrigan",
        "rank": 79149,
        "rank_sort": 79171,
        "total": 2336
      },
      {
        "club_badge_src": null,
        "entry": 184631,
        "entry_name": "Mount on Mee",
        "event_total": 49,
        "has_played": true,
        "id": 1219256,
        "last_rank": 64422,
        "player_name": "preston sharman",
        "rank": 79149,
        "rank_sort": 79172,
        "total": 2336
      },
      {
        "club_badge_src": null,
        "entry": 190139,
        "entry_name": "AJS",
        "event_total": 68,
        "has_played": true,
        "id": 1258944,
        "last_rank": 97096,
        "player_name": "Andrew Somogyi",
        "rank": 79149,
        "rank_sort": 79173,
        "total": 2336
      },
      {
        "club_badge_src": null,
        "entry": 195936,
        "entry_name": "Wolfsupps",
        "event_total": 62,
        "has_played": true,
        "id": 1299562,
        "last_rank": 92471,
        "player_name": "Matty Wolfe",
        "rank": 79149,
        "rank_sort": 79174,
        "total": 2336
      },
      {
        "club_badge_src": null,
        "entry": 197273,
        "entry_name": "Hasselturk",
        "event_total": 64,
        "has_played": true,
        "id": 1308867,
        "last_rank": 97470,
        "player_name": "Ertunc Hussein",
        "rank": 79149,
        "rank_sort": 79175,
        "total": 2336
      },
      {
        "club_badge_src": null,
        "entry": 204227,
        "entry_name": "Moaaz Fahd",
        "event_total": 45,
        "has_played": true,
        "id": 1357241,
        "last_rank": 57515,
        "player_name": "Moaaz Fahd",
        "rank": 79149,
        "rank_sort": 79176,
        "total": 2336
      },
      {
        "club_badge_src": null,
        "entry": 206485,
        "entry_name": "BP 12ja",
        "event_total": 54,
        "has_played": true,
        "id": 1372374,
        "last_rank": 66200,
        "player_name": "Thierry Ebbinkhuijsen",
        "rank": 79149,
        "rank_sort": 79177,
        "total": 2336
      },
      {
        "club_badge_src": "https://fantasy.premierleague.com/gcs/plfpl-production-adobe-approved/plfpl-production/273067/db549f95-4435-4f17-8b24-701d0d718cfc.png",
        "entry": 273067,
        "entry_name": "Skye Robertson",
        "event_total": 69,
        "has_played": true,
        "id": 1816913,
        "last_rank": 110709,
        "player_name": "Hayden Hoffmann",
        "rank": 79149,
        "rank_sort": 79178,
        "total": 2336
      },
      {
        "club_badge_src": "https://fantasy.premierleague.com/gcs/plfpl-production-adobe-approved/plfpl-production/300601/b1c0eeea-025b-4f7a-b163-0a456a3982a5.png",
        "entry": 300601,
        "entry_name": "Kinder Mbeumo",
        "event_total": 64,
        "has_played": true,
        "id": 2010761,
        "last_rank": 97305,
        "player_name": "Steven Liddell",
        "rank": 79149,
        "rank_sort": 79179,
        "total": 2336
      },
      {
        "club_badge_src": null,
        "entry": 314095,
        "entry_name": "The Rams",
        "event_total": 60,
        "has_played": true,
        "id": 2104724,
        "last_rank": 87710,
        "player_name": "Nj\u00f8rd Arne Sortland",
        "rank": 79149,
        "rank_sort": 79180,
        "total": 2336
      },
      {
        "club_badge_src": null,
        "entry": 371033,
        "entry_name": "Fc Zviti \ufffd\ufe0f",
        "event_total": 56,
        "has_played": true,
        "id": 2482757,
        "last_rank": 70072,
        "player_name": "Djamel Eddine",
        "rank": 79149,
        "rank_sort": 79181,
        "total": 2336
      },
      {
        "club_badge_src": null,
        "entry": 387128,
        "entry_name": "AMADness",
        "event_total": 79,
        "has_played": true,
        "id": 2597005,
        "last_rank": 128016,
        "player_name": "Mohammed Omer",
        "rank": 79149,
        "rank_sort": 79182,
        "total": 2336
      },
      {
        "club_badge_src": null,
        "entry": 395873,
        "entry_name": "B E N N Y  B O Y 2 0",
        "event_total": 76,
        "has_played": true,
        "id": 2654769,
        "last_rank": 118946,
        "player_name": "Mike Barnes",
        "rank": 79149,
        "rank_sort": 79183,
        "total": 2336
      },
      {
        "club_badge_src": null,
        "entry": 399990,
        "entry_name": "Manchester city",
        "event_total": 59,
        "has_played": true,
        "id": 2682042,
        "last_rank": 85349,
        "player_name": "S U",
        "rank": 79149,
        "rank_sort": 79184,
        "total": 2336
      },
      {
        "club_badge_src": null,
        "entry": 570794,
        "entry_name": "Cubley\u2019s XI",
        "event_total": 38,
        "has_played": true,
        "id": 3841535,
        "last_rank": 46313,
        "player_name": "Jack Cubley",
        "rank": 79149,
        "rank_sort": 79185,
        "total": 2336
      },
      {
        "club_badge_src": null,
        "entry": 598315,
        "entry_name": "MouRad XI",
        "event_total": 54,
        "has_played": true,
        "id": 4035187,
        "last_rank": 74166,
        "player_name": "Mourad Elghoula",
        "rank": 79149,
        "rank_sort": 79186,
        "total": 2336
      },
      {
        "club_badge_src": null,
        "entry": 651794,
        "entry_name": "Alisson Wonderland",
        "event_total": 59,
        "has_played": true,
        "id": 4404833,
        "last_rank": 85349,
        "player_name": "Robbie Douglas",
        "rank": 79149,
        "rank_sort": 79187,
        "total": 2336
      },
      {
        "club_badge_src": null,
        "entry": 682388,
        "entry_name": "Abade Abade",
        "event_total": 61,
        "has_played": true,
        "id": 4618281,
        "last_rank": 71956,
        "player_name": "Abade algobi",
        "rank": 79149,
        "rank_sort": 79188,
        "total": 2336
      },
      {
        "club_badge_src": null,
        "entry": 689133,
        "entry_name": "karrar jabar",
        "event_total": 79,
        "has_played": true,
        "id": 4665887,
        "last_rank": 141343,
        "player_name": "Karrar Alogaily",
        "rank": 79149,
        "rank_sort": 79189,
        "total": 2336
      },
      {
        "club_badge_src": null,
        "entry": 760470,
        "entry_name": "Me Myself Ndiaye",
        "event_total": 71,
        "has_played": true,
        "id": 5184123,
        "last_rank": 104712,
        "player_name": "Eli Groves",
        "rank": 79149,
        "rank_sort": 79190,
        "total": 2336
      },
      {
        "club_badge_src": null,
        "entry": 777306,
        "entry_name": "Eze Come, Eze Go",
        "event_total": 60,
        "has_played": true,
        "id": 5303835,
        "last_rank": 87710,
        "player_name": "S Warren",
        "rank": 79149,
        "rank_sort": 79191,
        "total": 2336
      },
      {
        "club_badge_src": null,
        "entry": 886386,
        "entry_name": "OtakuTeam",
        "event_total": 55,
        "has_played": true,
        "id": 6079542,
        "last_rank": 76474,
        "player_name": "Lev Tolkachev",
        "rank": 79149,
        "rank_sort": 79192,
        "total": 2336
      },
      {
        "club_badge_src": null,
        "entry": 910304,
        "entry_name": "Pufferfish FC",
        "event_total": 46,
        "has_played": true,
        "id": 6258958,
        "last_rank": 59170,
        "player_name": "Danny George",
        "rank": 79149,
        "rank_sort": 79193,
        "total": 2336
      },
      {
        "club_badge_src": null,
        "entry": 918299,
        "entry_name": "Mack79TeamFPL",
        "event_total": 59,
        "has_played": true,
        "id": 6315051,
        "last_rank": 76330,
        "player_name": "Markus Johansson",
        "rank": 79149,
        "rank_sort": 79194,
        "total": 2336
      },
      {
        "club_badge_src": "https://fantasy.premierleague.com/gcs/plfpl-production-adobe-approved/plfpl-production/1011500/00c1e59b-0ce4-4e0b-979a-ead4e2e35d5e.png",
        "entry": 1011500,
        "entry_name": "Cloud 9",
        "event_total": 50,
        "has_played": true,
        "id": 6996567,
        "last_rank": 66296,
        "player_name": "Badr Makhada",
        "rank": 79149,
        "rank_sort": 79195,
        "total": 2336
      },
      {
        "club_badge_src": "https://fantasy.premierleague.com/gcs/plfpl-production-adobe-approved/plfpl-production/1051774/9f27d161-7427-427a-a02a-a0456eab8521.png",
        "entry": 1051774,
        "entry_name": "\u0643\u0631\u0645 FC \u2620\ufe0f \u270c",
        "event_total": 67,
        "has_played": true,
        "id": 7278870,
        "last_rank": 104941,
        "player_name": "Mohamed Karam Hafez",
        "rank": 79149,
        "rank_sort": 79196,
        "total": 2336
      },
      {
        "club_badge_src": null,
        "entry": 1072404,
        "entry_name": "FPL@TripponCsaba\u00c1d\u00e1m",
        "event_total": 60,
        "has_played": true,
        "id": 7424232,
        "last_rank": 78244,
        "player_name": "Csaba Trippon",
        "rank": 79149,
        "rank_sort": 79197,
        "total": 2336
      },
      {
        "club_badge_src": null,
        "entry": 1199643,
        "entry_name": "Wallace FC",
        "event_total": 65,
        "has_played": true,
        "id": 8324895,
        "last_rank": 89426,
        "player_name": "Ole william G\u00e5rd",
        "rank": 79149,
        "rank_sort": 79198,
        "total": 2336
      },
      {
        "club_badge_src": null,
        "entry": 1318545,
        "entry_name": "Bukvalek Planina",
        "event_total": 58,
        "has_played": true,
        "id": 9164610,
        "last_rank": 73975,
        "player_name": "Zlatko Dejanovi\u0107",
        "rank": 79149,
        "rank_sort": 79199,
        "total": 2336
      },
      {
        "club_badge_src": null,
        "entry": 1368289,
        "entry_name": "FC Powerhouse",
        "event_total": 46,
        "has_played": true,
        "id": 9511630,
        "last_rank": 58911,
        "player_name": "George Dibou",
        "rank": 79149,
        "rank_sort": 79200,
        "total": 2336
      }
    ]
  }
}