{
  "last_updated_data": "2026-05-24T23:28:17Z",
  "league": {
    "admin_entry": null,
    "closed": false,
    "code_privacy": "p",
    "created": "2025-07-20T23:14:33.933835Z",
    "cup_league": 2815434,
    "has_cup": true,
    "id": 314,
    "league_type": "s",
    "max_entries": null,
    "name": "Overall",
    "rank": null,
    "scoring": "c",
    "start_event": 1
  },
  "new_entries": {
    "has_next": false,
    "page": 1,
    "results": []
  },
  "standings": {
    "has_next": true,
    "page": 1624,
    "results": [
      {
        "club_badge_src": null,
        "entry": 216309,
        "entry_name": "no solanke no party",
        "event_total": 53,
        "has_played": true,
        "id": 1438708,
        "last_rank": 73975,
        "player_name": "Bart\u00f3k Csaba",
        "rank": 81128,
        "rank_sort": 81151,
        "total": 2335
      },
      {
        "club_badge_src": null,
        "entry": 218680,
        "entry_name": "Levels44",
        "event_total": 53,
        "has_played": true,
        "id": 1454238,
        "last_rank": 74166,
        "player_name": "Paul Ochom",
        "rank": 81128,
        "rank_sort": 81152,
        "total": 2335
      },
      {
        "club_badge_src": null,
        "entry": 238156,
        "entry_name": "Cunha believe it?!",
        "event_total": 49,
        "has_played": true,
        "id": 1584433,
        "last_rank": 66200,
        "player_name": "Joe Taylor",
        "rank": 81128,
        "rank_sort": 81153,
        "total": 2335
      },
      {
        "club_badge_src": null,
        "entry": 246328,
        "entry_name": "EatMyDust25/26",
        "event_total": 53,
        "has_played": true,
        "id": 1639940,
        "last_rank": 74166,
        "player_name": "Nils-J\u00f8rgen Doksr\u00f8d",
        "rank": 81128,
        "rank_sort": 81154,
        "total": 2335
      },
      {
        "club_badge_src": null,
        "entry": 247977,
        "entry_name": "SelimutPutih",
        "event_total": 50,
        "has_played": true,
        "id": 1650516,
        "last_rank": 67926,
        "player_name": "KHUSAIRIE KHUCAI -REDLINE-",
        "rank": 81128,
        "rank_sort": 81155,
        "total": 2335
      },
      {
        "club_badge_src": null,
        "entry": 257705,
        "entry_name": "Smoke It, Ange",
        "event_total": 67,
        "has_played": true,
        "id": 1713767,
        "last_rank": 107485,
        "player_name": "Ian Molly",
        "rank": 81128,
        "rank_sort": 81156,
        "total": 2335
      },
      {
        "club_badge_src": null,
        "entry": 275856,
        "entry_name": "Lompet Foxes",
        "event_total": 62,
        "has_played": true,
        "id": 1835984,
        "last_rank": 84980,
        "player_name": "Nigel Piggott",
        "rank": 81128,
        "rank_sort": 81157,
        "total": 2335
      },
      {
        "club_badge_src": "https://fantasy.premierleague.com/gcs/plfpl-production-adobe-approved/plfpl-production/281772/ce7465c1-b243-4130-93c7-67807ccccfd7.png",
        "entry": 281772,
        "entry_name": "Hammerettes",
        "event_total": 61,
        "has_played": true,
        "id": 1875236,
        "last_rank": 82664,
        "player_name": "Darren Coppin",
        "rank": 81128,
        "rank_sort": 81158,
        "total": 2335
      },
      {
        "club_badge_src": null,
        "entry": 291360,
        "entry_name": "SzoboMee Symphony",
        "event_total": 67,
        "has_played": true,
        "id": 1943373,
        "last_rank": 107162,
        "player_name": "Nathan Holian",
        "rank": 81128,
        "rank_sort": 81159,
        "total": 2335
      },
      {
        "club_badge_src": null,
        "entry": 320454,
        "entry_name": "Fahim99",
        "event_total": 67,
        "has_played": true,
        "id": 2147810,
        "last_rank": 107162,
        "player_name": "Fahim Khan",
        "rank": 81128,
        "rank_sort": 81160,
        "total": 2335
      },
      {
        "club_badge_src": null,
        "entry": 335252,
        "entry_name": "Neville Wears Prada",
        "event_total": 85,
        "has_played": true,
        "id": 2244811,
        "last_rank": 165345,
        "player_name": "Jack Giddy",
        "rank": 81128,
        "rank_sort": 81161,
        "total": 2335
      },
      {
        "club_badge_src": null,
        "entry": 344782,
        "entry_name": "Ekitike-Taka",
        "event_total": 55,
        "has_played": true,
        "id": 2307811,
        "last_rank": 69907,
        "player_name": "Joel Ludlow",
        "rank": 81128,
        "rank_sort": 81162,
        "total": 2335
      },
      {
        "club_badge_src": null,
        "entry": 421267,
        "entry_name": "Leah\u00b4s North London",
        "event_total": 57,
        "has_played": true,
        "id": 2823132,
        "last_rank": 82873,
        "player_name": "Mat\u011bj \u0160ulc",
        "rank": 81128,
        "rank_sort": 81163,
        "total": 2335
      },
      {
        "club_badge_src": null,
        "entry": 436552,
        "entry_name": "Wise men say",
        "event_total": 69,
        "has_played": true,
        "id": 2927494,
        "last_rank": 113223,
        "player_name": "Daniel Baxter",
        "rank": 81128,
        "rank_sort": 81164,
        "total": 2335
      },
      {
        "club_badge_src": null,
        "entry": 444565,
        "entry_name": "AlanSheHer",
        "event_total": 51,
        "has_played": true,
        "id": 2981068,
        "last_rank": 62429,
        "player_name": "Nick Kruiper",
        "rank": 81128,
        "rank_sort": 81165,
        "total": 2335
      },
      {
        "club_badge_src": "https://fantasy.premierleague.com/gcs/plfpl-production-adobe-approved/plfpl-production/471079/4186e1c6-aa8e-4375-bf80-7e3a1f80366e.png",
        "entry": 471079,
        "entry_name": "Bollands Bandits",
        "event_total": 43,
        "has_played": true,
        "id": 3162506,
        "last_rank": 55659,
        "player_name": "Alex Bolland",
        "rank": 81128,
        "rank_sort": 81166,
        "total": 2335
      },
      {
        "club_badge_src": null,
        "entry": 484342,
        "entry_name": "woyo you like this",
        "event_total": 53,
        "has_played": true,
        "id": 3251051,
        "last_rank": 74166,
        "player_name": "Samuel collett",
        "rank": 81128,
        "rank_sort": 81167,
        "total": 2335
      },
      {
        "club_badge_src": null,
        "entry": 507532,
        "entry_name": "La Pulga \u2764\ufe0f",
        "event_total": 62,
        "has_played": true,
        "id": 3406505,
        "last_rank": 84980,
        "player_name": "Mounir Nakata",
        "rank": 81128,
        "rank_sort": 81168,
        "total": 2335
      },
      {
        "club_badge_src": "https://fantasy.premierleague.com/gcs/plfpl-production-adobe-approved/plfpl-production/544454/ec15c406-8dfc-4afe-b5f2-35d09f481296.png",
        "entry": 544454,
        "entry_name": "Lallana del Rey",
        "event_total": 69,
        "has_played": true,
        "id": 3664153,
        "last_rank": 91835,
        "player_name": "Adem Ljajic",
        "rank": 81128,
        "rank_sort": 81169,
        "total": 2335
      },
      {
        "club_badge_src": null,
        "entry": 552883,
        "entry_name": "Ama yamik arsenal",
        "event_total": 68,
        "has_played": true,
        "id": 3721344,
        "last_rank": 99296,
        "player_name": "moni harel",
        "rank": 81128,
        "rank_sort": 81170,
        "total": 2335
      },
      {
        "club_badge_src": null,
        "entry": 553671,
        "entry_name": "Ac milan",
        "event_total": 58,
        "has_played": true,
        "id": 3726598,
        "last_rank": 84980,
        "player_name": "fathi elammari",
        "rank": 81128,
        "rank_sort": 81171,
        "total": 2335
      },
      {
        "club_badge_src": null,
        "entry": 594642,
        "entry_name": "Dr_DbG\ufffd",
        "event_total": 68,
        "has_played": true,
        "id": 4008155,
        "last_rank": 110416,
        "player_name": "Muhammad Mukhtar",
        "rank": 81128,
        "rank_sort": 81172,
        "total": 2335
      },
      {
        "club_badge_src": "https://fantasy.premierleague.com/gcs/plfpl-production-adobe-approved/plfpl-production/614397/7a52f0cc-e91d-4e3a-b43f-818015f68c99.png",
        "entry": 614397,
        "entry_name": "Uruk-hai Havertz",
        "event_total": 55,
        "has_played": true,
        "id": 4151496,
        "last_rank": 69907,
        "player_name": "Freddie Sharman",
        "rank": 81128,
        "rank_sort": 81173,
        "total": 2335
      },
      {
        "club_badge_src": null,
        "entry": 622376,
        "entry_name": "JOGA BONITO .FC.",
        "event_total": 59,
        "has_played": true,
        "id": 4206008,
        "last_rank": 87541,
        "player_name": "Prince Donkor",
        "rank": 81128,
        "rank_sort": 81174,
        "total": 2335
      },
      {
        "club_badge_src": null,
        "entry": 625982,
        "entry_name": "Glitch FC",
        "event_total": 56,
        "has_played": true,
        "id": 4230183,
        "last_rank": 71956,
        "player_name": "Manu Rao",
        "rank": 81128,
        "rank_sort": 81175,
        "total": 2335
      },
      {
        "club_badge_src": null,
        "entry": 663266,
        "entry_name": "Abra Dubravka",
        "event_total": 64,
        "has_played": true,
        "id": 4483908,
        "last_rank": 89706,
        "player_name": "Sam Hardy",
        "rank": 81128,
        "rank_sort": 81176,
        "total": 2335
      },
      {
        "club_badge_src": null,
        "entry": 671754,
        "entry_name": "MinuteGamer",
        "event_total": 60,
        "has_played": true,
        "id": 4543717,
        "last_rank": 80465,
        "player_name": "Pete MBE",
        "rank": 81128,
        "rank_sort": 81177,
        "total": 2335
      },
      {
        "club_badge_src": "https://fantasy.premierleague.com/gcs/plfpl-production-adobe-approved/plfpl-production/685144/876bf810-33ee-486f-b48b-1ce96f3b5677.png",
        "entry": 685144,
        "entry_name": "ChiefGooner",
        "event_total": 68,
        "has_played": true,
        "id": 4637613,
        "last_rank": 99596,
        "player_name": "Jack Pronk",
        "rank": 81128,
        "rank_sort": 81178,
        "total": 2335
      },
      {
        "club_badge_src": "https://fantasy.premierleague.com/gcs/plfpl-production-adobe-approved/plfpl-production/693860/41fcead7-6fbc-4d43-aaf5-ab0c26963d5a.png",
        "entry": 693860,
        "entry_name": "Coeliac United",
        "event_total": 61,
        "has_played": true,
        "id": 4699242,
        "last_rank": 82664,
        "player_name": "Joe Wood",
        "rank": 81128,
        "rank_sort": 81179,
        "total": 2335
      },
      {
        "club_badge_src": "https://fantasy.premierleague.com/gcs/plfpl-production-adobe-approved/plfpl-production/718846/0b2dfd1b-98c2-4084-ac39-918d136591fe.png",
        "entry": 718846,
        "entry_name": "Dangerzone FC",
        "event_total": 69,
        "has_played": true,
        "id": 4878547,
        "last_rank": 112960,
        "player_name": "Duncan Stuart",
        "rank": 81128,
        "rank_sort": 81180,
        "total": 2335
      },
      {
        "club_badge_src": null,
        "entry": 727472,
        "entry_name": "OnlyGrans",
        "event_total": 47,
        "has_played": true,
        "id": 4942291,
        "last_rank": 62429,
        "player_name": "Josh Cadman",
        "rank": 81128,
        "rank_sort": 81181,
        "total": 2335
      },
      {
        "club_badge_src": "https://fantasy.premierleague.com/gcs/plfpl-production-adobe-approved/plfpl-production/742370/32e71fd5-bbef-4514-be3c-6349efafff3d.png",
        "entry": 742370,
        "entry_name": "rascql",
        "event_total": 63,
        "has_played": true,
        "id": 5049437,
        "last_rank": 77999,
        "player_name": "Caleb Blake",
        "rank": 81128,
        "rank_sort": 81182,
        "total": 2335
      },
      {
        "club_badge_src": null,
        "entry": 750784,
        "entry_name": "EF.SI. T\u00e5biTajm",
        "event_total": 56,
        "has_played": true,
        "id": 5108424,
        "last_rank": 80651,
        "player_name": "Tobias Friediger",
        "rank": 81128,
        "rank_sort": 81183,
        "total": 2335
      },
      {
        "club_badge_src": null,
        "entry": 753599,
        "entry_name": "SHAIBANI",
        "event_total": 28,
        "has_played": true,
        "id": 5128720,
        "last_rank": 34682,
        "player_name": "A Alshaibani",
        "rank": 81128,
        "rank_sort": 81184,
        "total": 2335
      },
      {
        "club_badge_src": null,
        "entry": 754609,
        "entry_name": "Hello Mate",
        "event_total": 66,
        "has_played": true,
        "id": 5136928,
        "last_rank": 104941,
        "player_name": "Phillip Smith",
        "rank": 81128,
        "rank_sort": 81185,
        "total": 2335
      },
      {
        "club_badge_src": null,
        "entry": 785530,
        "entry_name": "Green Machine",
        "event_total": 69,
        "has_played": true,
        "id": 5367752,
        "last_rank": 101818,
        "player_name": "Andy Green",
        "rank": 81128,
        "rank_sort": 81186,
        "total": 2335
      },
      {
        "club_badge_src": null,
        "entry": 818676,
        "entry_name": "keep looking up",
        "event_total": 70,
        "has_played": true,
        "id": 5606704,
        "last_rank": 115760,
        "player_name": "Aaron Ogunz",
        "rank": 81128,
        "rank_sort": 81187,
        "total": 2335
      },
      {
        "club_badge_src": null,
        "entry": 825318,
        "entry_name": "Santa Maria Tex Mex",
        "event_total": 58,
        "has_played": true,
        "id": 5652555,
        "last_rank": 84980,
        "player_name": "Eirik Braathen",
        "rank": 81128,
        "rank_sort": 81188,
        "total": 2335
      },
      {
        "club_badge_src": "https://fantasy.premierleague.com/gcs/plfpl-production-adobe-approved/plfpl-production/866863/01581a71-4cc1-4e6e-9daf-60a15a4cf93d.png",
        "entry": 866863,
        "entry_name": "Jota_XI",
        "event_total": 73,
        "has_played": true,
        "id": 5942971,
        "last_rank": 124961,
        "player_name": "Pynbianglang Marboh",
        "rank": 81128,
        "rank_sort": 81189,
        "total": 2335
      },
      {
        "club_badge_src": "https://fantasy.premierleague.com/gcs/plfpl-production-adobe-approved/plfpl-production/875119/42a662a2-b993-4f1f-926f-d79430bd6183.png",
        "entry": 875119,
        "entry_name": "Status: Red Arrow",
        "event_total": 49,
        "has_played": true,
        "id": 5999758,
        "last_rank": 66200,
        "player_name": "Diego Carmona",
        "rank": 81128,
        "rank_sort": 81190,
        "total": 2335
      },
      {
        "club_badge_src": "https://fantasy.premierleague.com/gcs/plfpl-production-adobe-approved/plfpl-production/878375/2ee8b943-8cea-4477-8ffd-0cb5c4c1cfe9.png",
        "entry": 878375,
        "entry_name": "Odegaarden of Eden",
        "event_total": 59,
        "has_played": true,
        "id": 6022256,
        "last_rank": 77999,
        "player_name": "Stephen Sena",
        "rank": 81128,
        "rank_sort": 81191,
        "total": 2335
      },
      {
        "club_badge_src": "https://fantasy.premierleague.com/gcs/plfpl-production-adobe-approved/plfpl-production/888404/c4d41ab0-c177-459b-a633-92fb17e9a154.png",
        "entry": 888404,
        "entry_name": "Game of Regrets",
        "event_total": 60,
        "has_played": true,
        "id": 6093528,
        "last_rank": 89897,
        "player_name": "George Moris",
        "rank": 81128,
        "rank_sort": 81192,
        "total": 2335
      },
      {
        "club_badge_src": null,
        "entry": 904343,
        "entry_name": "FMLFPL",
        "event_total": 60,
        "has_played": true,
        "id": 6214124,
        "last_rank": 89897,
        "player_name": "Leon Kenich",
        "rank": 81128,
        "rank_sort": 81193,
        "total": 2335
      },
      {
        "club_badge_src": null,
        "entry": 909779,
        "entry_name": "Electric Ballboy",
        "event_total": 52,
        "has_played": true,
        "id": 6254504,
        "last_rank": 64190,
        "player_name": "Darren Price",
        "rank": 81128,
        "rank_sort": 81194,
        "total": 2335
      },
      {
        "club_badge_src": null,
        "entry": 929996,
        "entry_name": "1-15 Smashing lads",
        "event_total": 74,
        "has_played": true,
        "id": 6398913,
        "last_rank": 115760,
        "player_name": "Simon Thake",
        "rank": 81128,
        "rank_sort": 81195,
        "total": 2335
      },
      {
        "club_badge_src": null,
        "entry": 940053,
        "entry_name": "Cowshed11",
        "event_total": 45,
        "has_played": true,
        "id": 6470117,
        "last_rank": 58911,
        "player_name": "Alan Brown",
        "rank": 81128,
        "rank_sort": 81196,
        "total": 2335
      },
      {
        "club_badge_src": null,
        "entry": 1090861,
        "entry_name": "Hotel Thiago",
        "event_total": 54,
        "has_played": true,
        "id": 7555016,
        "last_rank": 76330,
        "player_name": "Teodor Genov",
        "rank": 81128,
        "rank_sort": 81197,
        "total": 2335
      },
      {
        "club_badge_src": null,
        "entry": 1141333,
        "entry_name": "Reyad",
        "event_total": 72,
        "has_played": true,
        "id": 7911509,
        "last_rank": 110187,
        "player_name": "Reyad Musa",
        "rank": 81128,
        "rank_sort": 81198,
        "total": 2335
      },
      {
        "club_badge_src": "https://fantasy.premierleague.com/gcs/plfpl-production-adobe-approved/plfpl-production/1144597/8ee14e29-a0fc-4bfd-9bb8-4ff2ba70a0fb.png",
        "entry": 1144597,
        "entry_name": "Soul & Pepper",
        "event_total": 64,
        "has_played": true,
        "id": 7934272,
        "last_rank": 80194,
        "player_name": "Gilad MANY",
        "rank": 81128,
        "rank_sort": 81199,
        "total": 2335
      },
      {
        "club_badge_src": "https://fantasy.premierleague.com/gcs/plfpl-production-adobe-approved/plfpl-production/1225705/674d8b01-49ca-47dd-9e6e-6f7e4d57385c.png",
        "entry": 1225705,
        "entry_name": "The Situation",
        "event_total": 68,
        "has_played": true,
        "id": 8510492,
        "last_rank": 99596,
        "player_name": "Mahamoud Ali",
        "rank": 81128,
        "rank_sort": 81200,
        "total": 2335
      }
    ]
  }
}