{
  "last_updated_data": "2026-05-24T23:28:17Z",
  "league": {
    "admin_entry": null,
    "closed": false,
    "code_privacy": "p",
    "created": "2025-07-20T23:14:33.933835Z",
    "cup_league": 2815434,
    "has_cup": true,
    "id": 314,
    "league_type": "s",
    "max_entries": null,
    "name": "Overall",
    "rank": null,
    "scoring": "c",
    "start_event": 1
  },
  "new_entries": {
    "has_next": false,
    "page": 1,
    "results": []
  },
  "standings": {
    "has_next": true,
    "page": 1123,
    "results": [
      {
        "club_badge_src": null,
        "entry": 2197030,
        "entry_name": "Beef Cherki",
        "event_total": 68,
        "has_played": true,
        "id": 15632994,
        "last_rank": 77676,
        "player_name": "Magnus Eikeskog",
        "rank": 55963,
        "rank_sort": 56101,
        "total": 2348
      },
      {
        "club_badge_src": null,
        "entry": 2209749,
        "entry_name": "Awoniyitbefore*",
        "event_total": 47,
        "has_played": true,
        "id": 15735378,
        "last_rank": 41617,
        "player_name": "ryan royal",
        "rank": 55963,
        "rank_sort": 56102,
        "total": 2348
      },
      {
        "club_badge_src": null,
        "entry": 2354915,
        "entry_name": "Tiki-Taka Trauma",
        "event_total": 74,
        "has_played": true,
        "id": 16803154,
        "last_rank": 90746,
        "player_name": "Rahul Rao",
        "rank": 55963,
        "rank_sort": 56103,
        "total": 2348
      },
      {
        "club_badge_src": null,
        "entry": 2387994,
        "entry_name": "Loafers No Socks",
        "event_total": 53,
        "has_played": true,
        "id": 17056716,
        "last_rank": 50199,
        "player_name": "Nour Mahmud",
        "rank": 55963,
        "rank_sort": 56104,
        "total": 2348
      },
      {
        "club_badge_src": null,
        "entry": 2406450,
        "entry_name": "Old English Town",
        "event_total": 49,
        "has_played": true,
        "id": 17200761,
        "last_rank": 44048,
        "player_name": "Ben Culligan",
        "rank": 55963,
        "rank_sort": 56105,
        "total": 2348
      },
      {
        "club_badge_src": null,
        "entry": 2460861,
        "entry_name": "he who dares",
        "event_total": 59,
        "has_played": true,
        "id": 17602266,
        "last_rank": 60168,
        "player_name": "Philip Young",
        "rank": 55963,
        "rank_sort": 56106,
        "total": 2348
      },
      {
        "club_badge_src": null,
        "entry": 2488694,
        "entry_name": "Liga dos \u00faltimos",
        "event_total": 58,
        "has_played": true,
        "id": 17816132,
        "last_rank": 51403,
        "player_name": "Sofia Rocha",
        "rank": 55963,
        "rank_sort": 56107,
        "total": 2348
      },
      {
        "club_badge_src": "https://fantasy.premierleague.com/gcs/plfpl-production-adobe-approved/plfpl-production/2625316/986dafb3-d8bf-4daa-81de-7307ceb65363.png",
        "entry": 2625316,
        "entry_name": "Swaghetti Yolognese",
        "event_total": 47,
        "has_played": true,
        "id": 18865118,
        "last_rank": 41324,
        "player_name": "Franco Bolleurs",
        "rank": 55963,
        "rank_sort": 56108,
        "total": 2348
      },
      {
        "club_badge_src": null,
        "entry": 2644666,
        "entry_name": "the new age outlaws",
        "event_total": 64,
        "has_played": true,
        "id": 19008507,
        "last_rank": 69323,
        "player_name": "oscar preece",
        "rank": 55963,
        "rank_sort": 56109,
        "total": 2348
      },
      {
        "club_badge_src": "https://fantasy.premierleague.com/gcs/plfpl-production-adobe-approved/plfpl-production/2689874/6a615e59-4636-441a-8e1b-33e37f64cc62.png",
        "entry": 2689874,
        "entry_name": "LaLigaClears",
        "event_total": 58,
        "has_played": true,
        "id": 19347467,
        "last_rank": 58388,
        "player_name": "E Wool",
        "rank": 55963,
        "rank_sort": 56110,
        "total": 2348
      },
      {
        "club_badge_src": null,
        "entry": 2707080,
        "entry_name": "Zubi-doo",
        "event_total": 58,
        "has_played": true,
        "id": 19476201,
        "last_rank": 58388,
        "player_name": "Tega Emore",
        "rank": 55963,
        "rank_sort": 56111,
        "total": 2348
      },
      {
        "club_badge_src": null,
        "entry": 2725286,
        "entry_name": "Santos laguna",
        "event_total": 31,
        "has_played": true,
        "id": 19611189,
        "last_rank": 24330,
        "player_name": "vladimir bojovic",
        "rank": 55963,
        "rank_sort": 56112,
        "total": 2348
      },
      {
        "club_badge_src": "https://fantasy.premierleague.com/gcs/plfpl-production-adobe-approved/plfpl-production/2773585/64e867a3-0b45-4906-b2ef-ee7c04566005.png",
        "entry": 2773585,
        "entry_name": "drSOFFAR",
        "event_total": 61,
        "has_played": true,
        "id": 20239329,
        "last_rank": 63724,
        "player_name": "Ahmed Soffar",
        "rank": 55963,
        "rank_sort": 56113,
        "total": 2348
      },
      {
        "club_badge_src": null,
        "entry": 2784729,
        "entry_name": "Clearlake cash cow",
        "event_total": 67,
        "has_played": true,
        "id": 20329252,
        "last_rank": 75139,
        "player_name": "Ceri Davies",
        "rank": 55963,
        "rank_sort": 56114,
        "total": 2348
      },
      {
        "club_badge_src": null,
        "entry": 2978291,
        "entry_name": "The Devils",
        "event_total": 67,
        "has_played": true,
        "id": 21892954,
        "last_rank": 67063,
        "player_name": "Lashen Misra",
        "rank": 55963,
        "rank_sort": 56115,
        "total": 2348
      },
      {
        "club_badge_src": "https://fantasy.premierleague.com/gcs/plfpl-production-adobe-approved/plfpl-production/2999946/90585d55-523a-48c0-bc9d-54b79a5503e5.png",
        "entry": 2999946,
        "entry_name": "Lelemudani",
        "event_total": 68,
        "has_played": true,
        "id": 22065673,
        "last_rank": 77676,
        "player_name": "Bedirhan Ramiz",
        "rank": 55963,
        "rank_sort": 56116,
        "total": 2348
      },
      {
        "club_badge_src": null,
        "entry": 3003989,
        "entry_name": "FPL MI GC",
        "event_total": 56,
        "has_played": true,
        "id": 22096448,
        "last_rank": 55014,
        "player_name": "Mark Irvin",
        "rank": 55963,
        "rank_sort": 56117,
        "total": 2348
      },
      {
        "club_badge_src": null,
        "entry": 3014035,
        "entry_name": "Mata of Time",
        "event_total": 50,
        "has_played": true,
        "id": 22173793,
        "last_rank": 45714,
        "player_name": "Jevan Agama",
        "rank": 55963,
        "rank_sort": 56118,
        "total": 2348
      },
      {
        "club_badge_src": null,
        "entry": 3015999,
        "entry_name": "The Man",
        "event_total": 65,
        "has_played": true,
        "id": 22189025,
        "last_rank": 70985,
        "player_name": "Ashenafi Teka",
        "rank": 55963,
        "rank_sort": 56119,
        "total": 2348
      },
      {
        "club_badge_src": null,
        "entry": 3027643,
        "entry_name": "MacAwoniyi Cheese",
        "event_total": 66,
        "has_played": true,
        "id": 22277722,
        "last_rank": 73423,
        "player_name": "Sam Collins",
        "rank": 55963,
        "rank_sort": 56120,
        "total": 2348
      },
      {
        "club_badge_src": null,
        "entry": 3069334,
        "entry_name": "matts team",
        "event_total": 61,
        "has_played": true,
        "id": 22600471,
        "last_rank": 63390,
        "player_name": "matt costanza",
        "rank": 55963,
        "rank_sort": 56121,
        "total": 2348
      },
      {
        "club_badge_src": null,
        "entry": 3100265,
        "entry_name": "UTV",
        "event_total": 33,
        "has_played": true,
        "id": 22857691,
        "last_rank": 26088,
        "player_name": "Steven Whiting",
        "rank": 55963,
        "rank_sort": 56122,
        "total": 2348
      },
      {
        "club_badge_src": null,
        "entry": 3136342,
        "entry_name": "DERBY\u2019S FINEST",
        "event_total": 65,
        "has_played": true,
        "id": 23151813,
        "last_rank": 70757,
        "player_name": "kurtis johns",
        "rank": 55963,
        "rank_sort": 56123,
        "total": 2348
      },
      {
        "club_badge_src": null,
        "entry": 3211813,
        "entry_name": "Kaizenslautern",
        "event_total": 58,
        "has_played": true,
        "id": 23745997,
        "last_rank": 58388,
        "player_name": "George Daskalakis",
        "rank": 55963,
        "rank_sort": 56124,
        "total": 2348
      },
      {
        "club_badge_src": null,
        "entry": 3268297,
        "entry_name": "Rejuvenated Blues!",
        "event_total": 52,
        "has_played": true,
        "id": 24186105,
        "last_rank": 48642,
        "player_name": "Janak Gaire",
        "rank": 55963,
        "rank_sort": 56125,
        "total": 2348
      },
      {
        "club_badge_src": "https://fantasy.premierleague.com/gcs/plfpl-production-adobe-approved/plfpl-production/3281889/533d1e74-83c1-4767-a46b-12e680236226.png",
        "entry": 3281889,
        "entry_name": "LaManoDeDios",
        "event_total": 49,
        "has_played": true,
        "id": 24292789,
        "last_rank": 44303,
        "player_name": "Frank Kurz",
        "rank": 55963,
        "rank_sort": 56126,
        "total": 2348
      },
      {
        "club_badge_src": null,
        "entry": 3289232,
        "entry_name": "Tokkis FC",
        "event_total": 66,
        "has_played": true,
        "id": 24352041,
        "last_rank": 64943,
        "player_name": "Tor K\u00e5re Andersen",
        "rank": 55963,
        "rank_sort": 56127,
        "total": 2348
      },
      {
        "club_badge_src": null,
        "entry": 3295441,
        "entry_name": "Darkside of the Toon",
        "event_total": 53,
        "has_played": true,
        "id": 24403285,
        "last_rank": 50199,
        "player_name": "Graham McIntosh",
        "rank": 55963,
        "rank_sort": 56128,
        "total": 2348
      },
      {
        "club_badge_src": null,
        "entry": 3384263,
        "entry_name": "Back of the Neto",
        "event_total": 42,
        "has_played": true,
        "id": 25122097,
        "last_rank": 35424,
        "player_name": "Bryan Goncalves",
        "rank": 55963,
        "rank_sort": 56129,
        "total": 2348
      },
      {
        "club_badge_src": null,
        "entry": 3412869,
        "entry_name": "Ahmed Najem",
        "event_total": 80,
        "has_played": true,
        "id": 25346994,
        "last_rank": 105963,
        "player_name": "Ahmed Najm",
        "rank": 55963,
        "rank_sort": 56130,
        "total": 2348
      },
      {
        "club_badge_src": null,
        "entry": 3417501,
        "entry_name": "e11",
        "event_total": 58,
        "has_played": true,
        "id": 25384224,
        "last_rank": 51220,
        "player_name": "Eissa RM",
        "rank": 55963,
        "rank_sort": 56131,
        "total": 2348
      },
      {
        "club_badge_src": "https://fantasy.premierleague.com/gcs/plfpl-production-adobe-approved/plfpl-production/3449932/4eada8c3-e7e5-4fea-94a4-e744760c2d56.png",
        "entry": 3449932,
        "entry_name": "SPS TITAN",
        "event_total": 72,
        "has_played": true,
        "id": 25637127,
        "last_rank": 86304,
        "player_name": "Swochhal Prakash Shrestha",
        "rank": 55963,
        "rank_sort": 56132,
        "total": 2348
      },
      {
        "club_badge_src": null,
        "entry": 3564506,
        "entry_name": "Chittaranjan.bhat",
        "event_total": 68,
        "has_played": true,
        "id": 26540856,
        "last_rank": 77676,
        "player_name": "Chittaranjan Bhat",
        "rank": 55963,
        "rank_sort": 56133,
        "total": 2348
      },
      {
        "club_badge_src": "https://fantasy.premierleague.com/gcs/plfpl-production-adobe-approved/plfpl-production/3571719/d03ed7ab-2329-4305-8b06-8680bfac722e.png",
        "entry": 3571719,
        "entry_name": "THE MANIACS DUVNO",
        "event_total": 65,
        "has_played": true,
        "id": 26595571,
        "last_rank": 71386,
        "player_name": "Faruk Tiro",
        "rank": 55963,
        "rank_sort": 56134,
        "total": 2348
      },
      {
        "club_badge_src": null,
        "entry": 3595533,
        "entry_name": "Monster",
        "event_total": 68,
        "has_played": true,
        "id": 26778345,
        "last_rank": 77676,
        "player_name": "Godfred Oteng",
        "rank": 55963,
        "rank_sort": 56135,
        "total": 2348
      },
      {
        "club_badge_src": null,
        "entry": 3599791,
        "entry_name": "Silitpitik",
        "event_total": 54,
        "has_played": true,
        "id": 26810942,
        "last_rank": 51720,
        "player_name": "Febrian Edo Santoso",
        "rank": 55963,
        "rank_sort": 56136,
        "total": 2348
      },
      {
        "club_badge_src": null,
        "entry": 3604018,
        "entry_name": "Amateur XI",
        "event_total": 68,
        "has_played": true,
        "id": 26843979,
        "last_rank": 77258,
        "player_name": "Param Veer",
        "rank": 55963,
        "rank_sort": 56137,
        "total": 2348
      },
      {
        "club_badge_src": "https://fantasy.premierleague.com/gcs/plfpl-production-adobe-approved/plfpl-production/3621779/40775acf-b450-4bda-82a6-0fc926884680.png",
        "entry": 3621779,
        "entry_name": "Only Fools No Horses",
        "event_total": 78,
        "has_played": true,
        "id": 26984593,
        "last_rank": 100572,
        "player_name": "Stephen Poole",
        "rank": 55963,
        "rank_sort": 56138,
        "total": 2348
      },
      {
        "club_badge_src": null,
        "entry": 3754545,
        "entry_name": "Al-Liverpool",
        "event_total": 52,
        "has_played": true,
        "id": 28031717,
        "last_rank": 48642,
        "player_name": "Zupik Kerambit",
        "rank": 55963,
        "rank_sort": 56139,
        "total": 2348
      },
      {
        "club_badge_src": null,
        "entry": 3796794,
        "entry_name": "P\u00e5 magan bak Est\u00e8ve",
        "event_total": 67,
        "has_played": true,
        "id": 28379712,
        "last_rank": 75537,
        "player_name": "Endre Barmoen",
        "rank": 55963,
        "rank_sort": 56140,
        "total": 2348
      },
      {
        "club_badge_src": null,
        "entry": 3816372,
        "entry_name": "Dr. Oetker fanklub",
        "event_total": 55,
        "has_played": true,
        "id": 28539935,
        "last_rank": 53023,
        "player_name": "Rasmus Nielsen",
        "rank": 55963,
        "rank_sort": 56141,
        "total": 2348
      },
      {
        "club_badge_src": "https://fantasy.premierleague.com/gcs/plfpl-production-adobe-approved/plfpl-production/3831999/344e01df-60f5-4fb5-83e2-8486a67d98af.png",
        "entry": 3831999,
        "entry_name": "Jacks XI",
        "event_total": 65,
        "has_played": true,
        "id": 28666191,
        "last_rank": 70985,
        "player_name": "Jack Oneill",
        "rank": 55963,
        "rank_sort": 56142,
        "total": 2348
      },
      {
        "club_badge_src": null,
        "entry": 3851784,
        "entry_name": "Brazilian Steven",
        "event_total": 58,
        "has_played": true,
        "id": 28873906,
        "last_rank": 58071,
        "player_name": "Henry Quintana",
        "rank": 55963,
        "rank_sort": 56143,
        "total": 2348
      },
      {
        "club_badge_src": null,
        "entry": 3881176,
        "entry_name": "8-2 be Arsenal fan",
        "event_total": 58,
        "has_played": true,
        "id": 29162614,
        "last_rank": 58388,
        "player_name": "Paul Mcglinchey",
        "rank": 55963,
        "rank_sort": 56144,
        "total": 2348
      },
      {
        "club_badge_src": null,
        "entry": 3913047,
        "entry_name": "JG",
        "event_total": 55,
        "has_played": true,
        "id": 29421301,
        "last_rank": 53345,
        "player_name": "Jack Groves",
        "rank": 55963,
        "rank_sort": 56145,
        "total": 2348
      },
      {
        "club_badge_src": null,
        "entry": 3956628,
        "entry_name": "Fantastic",
        "event_total": 59,
        "has_played": true,
        "id": 29767798,
        "last_rank": 60168,
        "player_name": "Mr Anonymous",
        "rank": 55963,
        "rank_sort": 56146,
        "total": 2348
      },
      {
        "club_badge_src": null,
        "entry": 3985167,
        "entry_name": "Everybody Wirtz",
        "event_total": 50,
        "has_played": true,
        "id": 30002901,
        "last_rank": 45416,
        "player_name": "James Varah",
        "rank": 55963,
        "rank_sort": 56147,
        "total": 2348
      },
      {
        "club_badge_src": null,
        "entry": 4004618,
        "entry_name": "RedEd United",
        "event_total": 44,
        "has_played": true,
        "id": 30165508,
        "last_rank": 37822,
        "player_name": "Ed Leung",
        "rank": 55963,
        "rank_sort": 56148,
        "total": 2348
      },
      {
        "club_badge_src": null,
        "entry": 4009746,
        "entry_name": "More Than Wirtz",
        "event_total": 77,
        "has_played": true,
        "id": 30207635,
        "last_rank": 98896,
        "player_name": "Scott Brown",
        "rank": 55963,
        "rank_sort": 56149,
        "total": 2348
      },
      {
        "club_badge_src": "https://fantasy.premierleague.com/gcs/plfpl-production-adobe-approved/plfpl-production/4046435/b07ff3cd-96bd-4528-aaee-b090704b9a20.png",
        "entry": 4046435,
        "entry_name": "GOATs",
        "event_total": 45,
        "has_played": true,
        "id": 30519884,
        "last_rank": 39023,
        "player_name": "Dusan Josic",
        "rank": 55963,
        "rank_sort": 56150,
        "total": 2348
      }
    ]
  }
}