{
  "last_updated_data": "2026-05-24T23:28:17Z",
  "league": {
    "admin_entry": null,
    "closed": false,
    "code_privacy": "p",
    "created": "2025-07-20T23:14:33.933835Z",
    "cup_league": 2815434,
    "has_cup": true,
    "id": 314,
    "league_type": "s",
    "max_entries": null,
    "name": "Overall",
    "rank": null,
    "scoring": "c",
    "start_event": 1
  },
  "new_entries": {
    "has_next": false,
    "page": 1,
    "results": []
  },
  "standings": {
    "has_next": true,
    "page": 1313,
    "results": [
      {
        "club_badge_src": null,
        "entry": 7690809,
        "entry_name": "M Gibbs Whitewash",
        "event_total": 50,
        "has_played": true,
        "id": 63088892,
        "last_rank": 47868,
        "player_name": "Tom Hutchinson",
        "rank": 65545,
        "rank_sort": 65601,
        "total": 2343
      },
      {
        "club_badge_src": null,
        "entry": 8017285,
        "entry_name": "Absolutely Fabregas",
        "event_total": 71,
        "has_played": true,
        "id": 66040801,
        "last_rank": 97597,
        "player_name": "charlie greet",
        "rank": 65545,
        "rank_sort": 65602,
        "total": 2343
      },
      {
        "club_badge_src": null,
        "entry": 8172823,
        "entry_name": "Tshabalala",
        "event_total": 65,
        "has_played": true,
        "id": 67481748,
        "last_rank": 74395,
        "player_name": "Michal Ry\u0161av\u00fd",
        "rank": 65545,
        "rank_sort": 65603,
        "total": 2343
      },
      {
        "club_badge_src": null,
        "entry": 8484585,
        "entry_name": "Frankly Spursy",
        "event_total": 38,
        "has_played": true,
        "id": 70485552,
        "last_rank": 37211,
        "player_name": "Crispian Lee",
        "rank": 65545,
        "rank_sort": 65604,
        "total": 2343
      },
      {
        "club_badge_src": null,
        "entry": 9424553,
        "entry_name": "Victorious Secret",
        "event_total": 65,
        "has_played": true,
        "id": 79609427,
        "last_rank": 66296,
        "player_name": "Charlotte Harvey",
        "rank": 65545,
        "rank_sort": 65605,
        "total": 2343
      },
      {
        "club_badge_src": null,
        "entry": 14921,
        "entry_name": "Kinder Mbuemo",
        "event_total": 56,
        "has_played": true,
        "id": 91125,
        "last_rank": 57557,
        "player_name": "MATTHEW MORIARTY",
        "rank": 65606,
        "rank_sort": 65606,
        "total": 2343
      },
      {
        "club_badge_src": null,
        "entry": 24115,
        "entry_name": "Cant get any Wirtz",
        "event_total": 64,
        "has_played": true,
        "id": 152144,
        "last_rank": 57451,
        "player_name": "Ben Wallis",
        "rank": 65606,
        "rank_sort": 65607,
        "total": 2343
      },
      {
        "club_badge_src": null,
        "entry": 72479,
        "entry_name": "Southall United",
        "event_total": 46,
        "has_played": true,
        "id": 470971,
        "last_rank": 47950,
        "player_name": "Charan Kalsi",
        "rank": 65606,
        "rank_sort": 65608,
        "total": 2343
      },
      {
        "club_badge_src": null,
        "entry": 80052,
        "entry_name": "Affectionate Giza FC",
        "event_total": 52,
        "has_played": true,
        "id": 520870,
        "last_rank": 57596,
        "player_name": "Abu Bockarie Giza Sesay",
        "rank": 65606,
        "rank_sort": 65609,
        "total": 2343
      },
      {
        "club_badge_src": null,
        "entry": 167040,
        "entry_name": "ammar20",
        "event_total": 49,
        "has_played": true,
        "id": 1103972,
        "last_rank": 46406,
        "player_name": "Ammar theGOAT",
        "rank": 65606,
        "rank_sort": 65610,
        "total": 2343
      },
      {
        "club_badge_src": null,
        "entry": 198865,
        "entry_name": "Supa Strikas",
        "event_total": 63,
        "has_played": true,
        "id": 1319759,
        "last_rank": 70355,
        "player_name": "Aritravo Auddy",
        "rank": 65606,
        "rank_sort": 65611,
        "total": 2343
      },
      {
        "club_badge_src": null,
        "entry": 329800,
        "entry_name": "Baines on Toast",
        "event_total": 69,
        "has_played": true,
        "id": 2209194,
        "last_rank": 83216,
        "player_name": "George Clarkson",
        "rank": 65606,
        "rank_sort": 65612,
        "total": 2343
      },
      {
        "club_badge_src": null,
        "entry": 345032,
        "entry_name": "beefy weinr",
        "event_total": 58,
        "has_played": true,
        "id": 2309520,
        "last_rank": 61045,
        "player_name": "Dylan Tanner",
        "rank": 65606,
        "rank_sort": 65613,
        "total": 2343
      },
      {
        "club_badge_src": "https://fantasy.premierleague.com/gcs/plfpl-production-adobe-approved/plfpl-production/584820/9c376633-7a96-43c7-b5a9-8438907b4f77.png",
        "entry": 584820,
        "entry_name": "Sven's Men",
        "event_total": 64,
        "has_played": true,
        "id": 3935691,
        "last_rank": 64508,
        "player_name": "Nathan Brown",
        "rank": 65606,
        "rank_sort": 65614,
        "total": 2343
      },
      {
        "club_badge_src": null,
        "entry": 722698,
        "entry_name": "Colly Valance",
        "event_total": 62,
        "has_played": true,
        "id": 4908284,
        "last_rank": 76693,
        "player_name": "Glenn Magee",
        "rank": 65606,
        "rank_sort": 65615,
        "total": 2343
      },
      {
        "club_badge_src": null,
        "entry": 760069,
        "entry_name": "mojo",
        "event_total": 64,
        "has_played": true,
        "id": 5180750,
        "last_rank": 72407,
        "player_name": "Morten Johnsen",
        "rank": 65606,
        "rank_sort": 65616,
        "total": 2343
      },
      {
        "club_badge_src": null,
        "entry": 870175,
        "entry_name": "Papa Yaga",
        "event_total": 69,
        "has_played": true,
        "id": 5965716,
        "last_rank": 92738,
        "player_name": "Bakhit Hassan",
        "rank": 65606,
        "rank_sort": 65617,
        "total": 2343
      },
      {
        "club_badge_src": null,
        "entry": 943875,
        "entry_name": "Tsunami Trophy",
        "event_total": 70,
        "has_played": true,
        "id": 6500941,
        "last_rank": 76574,
        "player_name": "Reinhart Christianwar",
        "rank": 65606,
        "rank_sort": 65618,
        "total": 2343
      },
      {
        "club_badge_src": "https://fantasy.premierleague.com/gcs/plfpl-production-adobe-approved/plfpl-production/1152298/8d0ab1fb-e874-4819-bf22-781285120239.png",
        "entry": 1152298,
        "entry_name": "Ha Cunha Mbeumo",
        "event_total": 55,
        "has_played": true,
        "id": 7989711,
        "last_rank": 55865,
        "player_name": "Olly Quinn",
        "rank": 65606,
        "rank_sort": 65619,
        "total": 2343
      },
      {
        "club_badge_src": null,
        "entry": 1349736,
        "entry_name": "Fragile Folk FC",
        "event_total": 63,
        "has_played": true,
        "id": 9383289,
        "last_rank": 62812,
        "player_name": "Muthahar Ahmed",
        "rank": 65606,
        "rank_sort": 65620,
        "total": 2343
      },
      {
        "club_badge_src": "https://fantasy.premierleague.com/gcs/plfpl-production-adobe-approved/plfpl-production/1797344/062d5d49-d449-4f96-8fa3-78377541cadc.png",
        "entry": 1797344,
        "entry_name": "Wirtz So Good",
        "event_total": 53,
        "has_played": true,
        "id": 12631051,
        "last_rank": 59335,
        "player_name": "Hywel Llion",
        "rank": 65606,
        "rank_sort": 65621,
        "total": 2343
      },
      {
        "club_badge_src": null,
        "entry": 1903052,
        "entry_name": "EarthWindAndMaguire",
        "event_total": 59,
        "has_played": true,
        "id": 13415602,
        "last_rank": 70355,
        "player_name": "Leif Sundet",
        "rank": 65606,
        "rank_sort": 65622,
        "total": 2343
      },
      {
        "club_badge_src": "https://fantasy.premierleague.com/gcs/plfpl-production-adobe-approved/plfpl-production/2052282/7f854da5-f96c-4120-954a-b15d00d3354d.png",
        "entry": 2052282,
        "entry_name": "DanDan",
        "event_total": 62,
        "has_played": true,
        "id": 14536906,
        "last_rank": 76693,
        "player_name": "Hazem A. Maher",
        "rank": 65606,
        "rank_sort": 65623,
        "total": 2343
      },
      {
        "club_badge_src": null,
        "entry": 2337378,
        "entry_name": "DrinkTeamPoland13",
        "event_total": 56,
        "has_played": true,
        "id": 16677494,
        "last_rank": 57557,
        "player_name": "Michal Kozinski",
        "rank": 65606,
        "rank_sort": 65624,
        "total": 2343
      },
      {
        "club_badge_src": null,
        "entry": 2392777,
        "entry_name": "S&L",
        "event_total": 65,
        "has_played": true,
        "id": 17092719,
        "last_rank": 83216,
        "player_name": "James Emery",
        "rank": 65606,
        "rank_sort": 65625,
        "total": 2343
      },
      {
        "club_badge_src": null,
        "entry": 2627801,
        "entry_name": "Dami FC",
        "event_total": 81,
        "has_played": true,
        "id": 18883499,
        "last_rank": 125397,
        "player_name": "Damian Donaire",
        "rank": 65606,
        "rank_sort": 65626,
        "total": 2343
      },
      {
        "club_badge_src": null,
        "entry": 2747390,
        "entry_name": "ThereCanBeOnlyOne",
        "event_total": 63,
        "has_played": true,
        "id": 19912656,
        "last_rank": 78730,
        "player_name": "Paul Neary",
        "rank": 65606,
        "rank_sort": 65627,
        "total": 2343
      },
      {
        "club_badge_src": null,
        "entry": 2774859,
        "entry_name": "Wirtz Team Ever",
        "event_total": 64,
        "has_played": true,
        "id": 20249853,
        "last_rank": 72407,
        "player_name": "Nick Rhodes",
        "rank": 65606,
        "rank_sort": 65628,
        "total": 2343
      },
      {
        "club_badge_src": "https://fantasy.premierleague.com/gcs/plfpl-production-adobe-approved/plfpl-production/2776444/c169421e-978f-408c-945f-e84cb84e34a1.png",
        "entry": 2776444,
        "entry_name": "FPL_Siddy",
        "event_total": 64,
        "has_played": true,
        "id": 20262084,
        "last_rank": 72346,
        "player_name": "Siddhant Sinha",
        "rank": 65606,
        "rank_sort": 65629,
        "total": 2343
      },
      {
        "club_badge_src": "https://fantasy.premierleague.com/gcs/plfpl-production-adobe-approved/plfpl-production/2949897/b56bef9f-8d7a-4fff-a7f5-24fe3532c0c3.png",
        "entry": 2949897,
        "entry_name": "Boneh Team",
        "event_total": 49,
        "has_played": true,
        "id": 21664473,
        "last_rank": 52561,
        "player_name": "Roma Akbar Iswara",
        "rank": 65606,
        "rank_sort": 65630,
        "total": 2343
      },
      {
        "club_badge_src": null,
        "entry": 3388161,
        "entry_name": "\u0627\u0644\u062e\u0631\u0632\u0627 \u0627\u0644\u0632\u0631\u0642\u0627",
        "event_total": 85,
        "has_played": true,
        "id": 25152510,
        "last_rank": 82664,
        "player_name": "El Okpy",
        "rank": 65606,
        "rank_sort": 65631,
        "total": 2343
      },
      {
        "club_badge_src": null,
        "entry": 4595288,
        "entry_name": "Play For Fun",
        "event_total": 48,
        "has_played": true,
        "id": 35094953,
        "last_rank": 50984,
        "player_name": "Prince Academy",
        "rank": 65606,
        "rank_sort": 65632,
        "total": 2343
      },
      {
        "club_badge_src": null,
        "entry": 5045102,
        "entry_name": "chewts",
        "event_total": 65,
        "has_played": true,
        "id": 38971348,
        "last_rank": 83216,
        "player_name": "Yasser M",
        "rank": 65606,
        "rank_sort": 65633,
        "total": 2343
      },
      {
        "club_badge_src": null,
        "entry": 5235008,
        "entry_name": "Letteigt",
        "event_total": 58,
        "has_played": true,
        "id": 40567529,
        "last_rank": 61045,
        "player_name": "Daniel Halvorsen",
        "rank": 65606,
        "rank_sort": 65634,
        "total": 2343
      },
      {
        "club_badge_src": null,
        "entry": 5425810,
        "entry_name": "\u0646\u0648\u0631 \u0627\u0644\u062f\u064a\u0646",
        "event_total": 63,
        "has_played": true,
        "id": 42201948,
        "last_rank": 78782,
        "player_name": "Noureddine Bougouizi",
        "rank": 65606,
        "rank_sort": 65635,
        "total": 2343
      },
      {
        "club_badge_src": null,
        "entry": 5540516,
        "entry_name": "Some like it Slot.",
        "event_total": 48,
        "has_played": true,
        "id": 43231818,
        "last_rank": 50984,
        "player_name": "Dave Allen",
        "rank": 65606,
        "rank_sort": 65636,
        "total": 2343
      },
      {
        "club_badge_src": null,
        "entry": 5890712,
        "entry_name": "Ml3ooba",
        "event_total": 83,
        "has_played": true,
        "id": 46274580,
        "last_rank": 77999,
        "player_name": "Anas Azzouzi",
        "rank": 65606,
        "rank_sort": 65637,
        "total": 2343
      },
      {
        "club_badge_src": "https://fantasy.premierleague.com/gcs/plfpl-production-adobe-approved/plfpl-production/5897403/3dd8662c-6faf-4a4a-9328-165bc5287c6b.png",
        "entry": 5897403,
        "entry_name": "McLaren XI",
        "event_total": 64,
        "has_played": true,
        "id": 46331636,
        "last_rank": 81010,
        "player_name": "FIFA ROCKER",
        "rank": 65606,
        "rank_sort": 65638,
        "total": 2343
      },
      {
        "club_badge_src": null,
        "entry": 6675195,
        "entry_name": "I\u2019m blue da Ndiaye",
        "event_total": 69,
        "has_played": true,
        "id": 53391106,
        "last_rank": 92780,
        "player_name": "Max R",
        "rank": 65606,
        "rank_sort": 65639,
        "total": 2343
      },
      {
        "club_badge_src": null,
        "entry": 7258770,
        "entry_name": "Hasbulla",
        "event_total": 71,
        "has_played": true,
        "id": 58688716,
        "last_rank": 97750,
        "player_name": "Michal Debicki",
        "rank": 65606,
        "rank_sort": 65640,
        "total": 2343
      },
      {
        "club_badge_src": null,
        "entry": 8361730,
        "entry_name": "Kort men smal BK",
        "event_total": 49,
        "has_played": true,
        "id": 69315191,
        "last_rank": 52561,
        "player_name": "Linus H\u00e4gg",
        "rank": 65606,
        "rank_sort": 65641,
        "total": 2343
      },
      {
        "club_badge_src": "https://fantasy.premierleague.com/gcs/plfpl-production-adobe-approved/plfpl-production/8739138/bfd7ac8c-6f2e-4078-b4d3-c72cf9050fb8.png",
        "entry": 8739138,
        "entry_name": "jEsse",
        "event_total": 54,
        "has_played": true,
        "id": 72959402,
        "last_rank": 61087,
        "player_name": "Jessica Nelson",
        "rank": 65606,
        "rank_sort": 65642,
        "total": 2343
      },
      {
        "club_badge_src": null,
        "entry": 9395739,
        "entry_name": "Boomheaders & Volley",
        "event_total": 60,
        "has_played": true,
        "id": 79332627,
        "last_rank": 72495,
        "player_name": "Daniel Haynes",
        "rank": 65606,
        "rank_sort": 65643,
        "total": 2343
      },
      {
        "club_badge_src": null,
        "entry": 13824,
        "entry_name": "\u20acuro Dodgers",
        "event_total": 43,
        "has_played": true,
        "id": 83696,
        "last_rank": 38448,
        "player_name": "PAWEL KOZAK",
        "rank": 65644,
        "rank_sort": 65644,
        "total": 2343
      },
      {
        "club_badge_src": null,
        "entry": 137275,
        "entry_name": "Gligan Grudovo",
        "event_total": 73,
        "has_played": true,
        "id": 894684,
        "last_rank": 83216,
        "player_name": "Ivan Dimchev",
        "rank": 65644,
        "rank_sort": 65645,
        "total": 2343
      },
      {
        "club_badge_src": "https://fantasy.premierleague.com/gcs/plfpl-production-adobe-approved/plfpl-production/486643/edda7844-d8b3-4c4d-a62b-71876ab12fab.png",
        "entry": 486643,
        "entry_name": "\u0627\u0644\u0639\u0631\u0627\u0628",
        "event_total": 46,
        "has_played": true,
        "id": 3267094,
        "last_rank": 37211,
        "player_name": "Mina Atef",
        "rank": 65644,
        "rank_sort": 65646,
        "total": 2343
      },
      {
        "club_badge_src": "https://fantasy.premierleague.com/gcs/plfpl-production-adobe-approved/plfpl-production/509272/2ff391ba-aec3-4eea-9553-16828a2011f0.png",
        "entry": 509272,
        "entry_name": "Pork Reijnders",
        "event_total": 40,
        "has_played": true,
        "id": 3419293,
        "last_rank": 30395,
        "player_name": "Lee Sharpe",
        "rank": 65644,
        "rank_sort": 65647,
        "total": 2343
      },
      {
        "club_badge_src": null,
        "entry": 525030,
        "entry_name": "Cityzens",
        "event_total": 57,
        "has_played": true,
        "id": 3528250,
        "last_rank": 59335,
        "player_name": "Mohammed Alsaleh",
        "rank": 65644,
        "rank_sort": 65648,
        "total": 2343
      },
      {
        "club_badge_src": "https://fantasy.premierleague.com/gcs/plfpl-production-adobe-approved/plfpl-production/552954/6185bd88-5934-45e8-940c-c9e2b64c1d55.png",
        "entry": 552954,
        "entry_name": "ManchesterRed77",
        "event_total": 45,
        "has_played": true,
        "id": 3721799,
        "last_rank": 46468,
        "player_name": "Sandran Govindasamy",
        "rank": 65644,
        "rank_sort": 65649,
        "total": 2343
      },
      {
        "club_badge_src": null,
        "entry": 781388,
        "entry_name": "Cr7isurgoatsgoat",
        "event_total": 58,
        "has_played": true,
        "id": 5334803,
        "last_rank": 68437,
        "player_name": "Jon Limani",
        "rank": 65644,
        "rank_sort": 65650,
        "total": 2343
      }
    ]
  }
}