{
  "last_updated_data": "2026-05-24T23:28:17Z",
  "league": {
    "admin_entry": null,
    "closed": false,
    "code_privacy": "p",
    "created": "2025-07-20T23:14:33.933835Z",
    "cup_league": 2815434,
    "has_cup": true,
    "id": 314,
    "league_type": "s",
    "max_entries": null,
    "name": "Overall",
    "rank": null,
    "scoring": "c",
    "start_event": 1
  },
  "new_entries": {
    "has_next": false,
    "page": 1,
    "results": []
  },
  "standings": {
    "has_next": true,
    "page": 505,
    "results": [
      {
        "club_badge_src": null,
        "entry": 4119457,
        "entry_name": "Bruno Dos Tres",
        "event_total": 63,
        "has_played": true,
        "id": 31121012,
        "last_rank": 26599,
        "player_name": "Carrie Primo",
        "rank": 25198,
        "rank_sort": 25201,
        "total": 2374
      },
      {
        "club_badge_src": null,
        "entry": 31800,
        "entry_name": "Hull City AFC",
        "event_total": 90,
        "has_played": true,
        "id": 201818,
        "last_rank": 49499,
        "player_name": "Peter Hunt",
        "rank": 25202,
        "rank_sort": 25202,
        "total": 2374
      },
      {
        "club_badge_src": null,
        "entry": 6286623,
        "entry_name": "Costa del Sol FC",
        "event_total": 63,
        "has_played": true,
        "id": 49799210,
        "last_rank": 30470,
        "player_name": "Jimmy Sanell",
        "rank": 25202,
        "rank_sort": 25203,
        "total": 2374
      },
      {
        "club_badge_src": "https://fantasy.premierleague.com/gcs/plfpl-production-adobe-approved/plfpl-production/8219213/9c7186f8-e255-4890-8ba6-0311b118c44e.png",
        "entry": 8219213,
        "entry_name": "Vickyboy FPL",
        "event_total": 60,
        "has_played": true,
        "id": 67923090,
        "last_rank": 20800,
        "player_name": "Victor Souto",
        "rank": 25202,
        "rank_sort": 25204,
        "total": 2374
      },
      {
        "club_badge_src": null,
        "entry": 8246452,
        "entry_name": "VICTORIOUS SECRET",
        "event_total": 64,
        "has_played": true,
        "id": 68190091,
        "last_rank": 31496,
        "player_name": "Nick Scicluna",
        "rank": 25202,
        "rank_sort": 25205,
        "total": 2374
      },
      {
        "club_badge_src": null,
        "entry": 6474767,
        "entry_name": "Rodmee",
        "event_total": 63,
        "has_played": true,
        "id": 51594621,
        "last_rank": 30472,
        "player_name": "Rodgers Melly",
        "rank": 25206,
        "rank_sort": 25206,
        "total": 2374
      },
      {
        "club_badge_src": null,
        "entry": 6031281,
        "entry_name": "Battu FC",
        "event_total": 71,
        "has_played": true,
        "id": 47577425,
        "last_rank": 34899,
        "player_name": "Arjan Singh Battu",
        "rank": 25207,
        "rank_sort": 25207,
        "total": 2374
      },
      {
        "club_badge_src": null,
        "entry": 5645809,
        "entry_name": "here we go",
        "event_total": 44,
        "has_played": true,
        "id": 44160420,
        "last_rank": 15384,
        "player_name": "Top G",
        "rank": 25208,
        "rank_sort": 25208,
        "total": 2373
      },
      {
        "club_badge_src": null,
        "entry": 5582755,
        "entry_name": "KaypieceFC",
        "event_total": 57,
        "has_played": true,
        "id": 43604298,
        "last_rank": 24808,
        "player_name": "AbuBakr Kayode.",
        "rank": 25209,
        "rank_sort": 25209,
        "total": 2373
      },
      {
        "club_badge_src": null,
        "entry": 1165847,
        "entry_name": "Tesco McNeil Deal",
        "event_total": 56,
        "has_played": true,
        "id": 8087385,
        "last_rank": 23960,
        "player_name": "Michael Heywood",
        "rank": 25210,
        "rank_sort": 25210,
        "total": 2373
      },
      {
        "club_badge_src": null,
        "entry": 3106985,
        "entry_name": "ayman goussaka",
        "event_total": 43,
        "has_played": true,
        "id": 22909954,
        "last_rank": 14802,
        "player_name": "Ayman goussaka",
        "rank": 25210,
        "rank_sort": 25211,
        "total": 2373
      },
      {
        "club_badge_src": null,
        "entry": 14279,
        "entry_name": "Mighty Micks",
        "event_total": 64,
        "has_played": true,
        "id": 86646,
        "last_rank": 31507,
        "player_name": "Mark Hyland",
        "rank": 25212,
        "rank_sort": 25212,
        "total": 2373
      },
      {
        "club_badge_src": null,
        "entry": 1390823,
        "entry_name": "BeastMode",
        "event_total": 57,
        "has_played": true,
        "id": 9675743,
        "last_rank": 24817,
        "player_name": "Terrence Lwegado",
        "rank": 25212,
        "rank_sort": 25213,
        "total": 2373
      },
      {
        "club_badge_src": null,
        "entry": 94249,
        "entry_name": "ASDFC",
        "event_total": 57,
        "has_played": true,
        "id": 615840,
        "last_rank": 24809,
        "player_name": "Tom Murphy",
        "rank": 25214,
        "rank_sort": 25214,
        "total": 2373
      },
      {
        "club_badge_src": null,
        "entry": 403395,
        "entry_name": "THEGOAT",
        "event_total": 72,
        "has_played": true,
        "id": 2704952,
        "last_rank": 41039,
        "player_name": "Marc Morcos Douaihy",
        "rank": 25214,
        "rank_sort": 25215,
        "total": 2373
      },
      {
        "club_badge_src": null,
        "entry": 5952981,
        "entry_name": "MohhXI",
        "event_total": 67,
        "has_played": true,
        "id": 46825538,
        "last_rank": 34915,
        "player_name": "Mohammed Ughradar",
        "rank": 25214,
        "rank_sort": 25216,
        "total": 2373
      },
      {
        "club_badge_src": null,
        "entry": 6170052,
        "entry_name": "FOREVER BLUE",
        "event_total": 64,
        "has_played": true,
        "id": 48786400,
        "last_rank": 31509,
        "player_name": "Marwan Alhashbali",
        "rank": 25214,
        "rank_sort": 25217,
        "total": 2373
      },
      {
        "club_badge_src": null,
        "entry": 6452672,
        "entry_name": "Delapidated 11",
        "event_total": 57,
        "has_played": true,
        "id": 51385744,
        "last_rank": 24832,
        "player_name": "Andy Buckley",
        "rank": 25214,
        "rank_sort": 25218,
        "total": 2373
      },
      {
        "club_badge_src": null,
        "entry": 6469861,
        "entry_name": "Utd FC",
        "event_total": 69,
        "has_played": true,
        "id": 51549037,
        "last_rank": 37308,
        "player_name": "Denis Ndung'u",
        "rank": 25214,
        "rank_sort": 25219,
        "total": 2373
      },
      {
        "club_badge_src": "https://fantasy.premierleague.com/gcs/plfpl-production-adobe-approved/plfpl-production/8785171/33f92fba-7fd7-4b01-9fba-842907e19dac.png",
        "entry": 8785171,
        "entry_name": "Lekip Akshii",
        "event_total": 61,
        "has_played": true,
        "id": 73401511,
        "last_rank": 28532,
        "player_name": "Akshi Seegoolam",
        "rank": 25214,
        "rank_sort": 25220,
        "total": 2373
      },
      {
        "club_badge_src": null,
        "entry": 9201883,
        "entry_name": "Man united",
        "event_total": 72,
        "has_played": true,
        "id": 77452663,
        "last_rank": 41073,
        "player_name": "Haroun Kherouf",
        "rank": 25214,
        "rank_sort": 25221,
        "total": 2373
      },
      {
        "club_badge_src": null,
        "entry": 67736,
        "entry_name": "Pinky and DeBruyne",
        "event_total": 59,
        "has_played": true,
        "id": 438625,
        "last_rank": 26656,
        "player_name": "Chris Fenlon",
        "rank": 25222,
        "rank_sort": 25222,
        "total": 2373
      },
      {
        "club_badge_src": null,
        "entry": 85481,
        "entry_name": "Top Striker",
        "event_total": 38,
        "has_played": true,
        "id": 556737,
        "last_rank": 12109,
        "player_name": "Silver V.",
        "rank": 25222,
        "rank_sort": 25223,
        "total": 2373
      },
      {
        "club_badge_src": "https://fantasy.premierleague.com/gcs/plfpl-production-adobe-approved/plfpl-production/841950/2755256f-2a65-4312-87bd-7210109077b5.png",
        "entry": 841950,
        "entry_name": "Rutter Woke Nonsense",
        "event_total": 58,
        "has_played": true,
        "id": 5768795,
        "last_rank": 25729,
        "player_name": "Thomas Haugnes",
        "rank": 25222,
        "rank_sort": 25224,
        "total": 2373
      },
      {
        "club_badge_src": null,
        "entry": 1495415,
        "entry_name": "Who Let Udogie Out",
        "event_total": 78,
        "has_played": true,
        "id": 10428453,
        "last_rank": 49552,
        "player_name": "Enya Collins",
        "rank": 25222,
        "rank_sort": 25225,
        "total": 2373
      },
      {
        "club_badge_src": null,
        "entry": 2645354,
        "entry_name": "Kroos Control",
        "event_total": 47,
        "has_played": true,
        "id": 19013549,
        "last_rank": 17327,
        "player_name": "Anni Struhalla",
        "rank": 25222,
        "rank_sort": 25226,
        "total": 2373
      },
      {
        "club_badge_src": null,
        "entry": 3998581,
        "entry_name": "Glockeres",
        "event_total": 68,
        "has_played": true,
        "id": 30114627,
        "last_rank": 36099,
        "player_name": "Sahil N",
        "rank": 25222,
        "rank_sort": 25227,
        "total": 2373
      },
      {
        "club_badge_src": null,
        "entry": 4211671,
        "entry_name": "MKDONS 9th Team",
        "event_total": 51,
        "has_played": true,
        "id": 31888921,
        "last_rank": 20116,
        "player_name": "Toby Chambers",
        "rank": 25222,
        "rank_sort": 25228,
        "total": 2373
      },
      {
        "club_badge_src": null,
        "entry": 5461409,
        "entry_name": "asanee - watson",
        "event_total": 69,
        "has_played": true,
        "id": 42503271,
        "last_rank": 37325,
        "player_name": "Jayson Wang",
        "rank": 25222,
        "rank_sort": 25229,
        "total": 2373
      },
      {
        "club_badge_src": null,
        "entry": 9149447,
        "entry_name": "Arteras Magic",
        "event_total": 42,
        "has_played": true,
        "id": 76935314,
        "last_rank": 14251,
        "player_name": "Daniel Zapletal",
        "rank": 25222,
        "rank_sort": 25230,
        "total": 2373
      },
      {
        "club_badge_src": "https://fantasy.premierleague.com/gcs/plfpl-production-adobe-approved/plfpl-production/179720/9d485581-f90b-40a0-95e3-7d781b55369e.png",
        "entry": 179720,
        "entry_name": "Skulujiasmeni",
        "event_total": 68,
        "has_played": true,
        "id": 1185948,
        "last_rank": 36099,
        "player_name": "Constantinos Christoforou",
        "rank": 25231,
        "rank_sort": 25231,
        "total": 2373
      },
      {
        "club_badge_src": "https://fantasy.premierleague.com/gcs/plfpl-production-adobe-approved/plfpl-production/545614/8886395c-d79e-452c-adce-c15dd37aeed9.png",
        "entry": 545614,
        "entry_name": "Shaw Thing",
        "event_total": 72,
        "has_played": true,
        "id": 3672016,
        "last_rank": 41073,
        "player_name": "Maxwell Lagat",
        "rank": 25231,
        "rank_sort": 25232,
        "total": 2373
      },
      {
        "club_badge_src": null,
        "entry": 1667140,
        "entry_name": "#22 Bellingham",
        "event_total": 35,
        "has_played": true,
        "id": 11672254,
        "last_rank": 10748,
        "player_name": "Perry Lee",
        "rank": 25231,
        "rank_sort": 25233,
        "total": 2373
      },
      {
        "club_badge_src": null,
        "entry": 1929053,
        "entry_name": "100 man vs 1 Gyok",
        "event_total": 67,
        "has_played": true,
        "id": 13605158,
        "last_rank": 34969,
        "player_name": "oliver ogden",
        "rank": 25231,
        "rank_sort": 25234,
        "total": 2373
      },
      {
        "club_badge_src": null,
        "entry": 2944650,
        "entry_name": "Emcee Hammer",
        "event_total": 62,
        "has_played": true,
        "id": 21607205,
        "last_rank": 29475,
        "player_name": "Ed Bourrilhon",
        "rank": 25231,
        "rank_sort": 25235,
        "total": 2373
      },
      {
        "club_badge_src": null,
        "entry": 2999636,
        "entry_name": "Lord of the Ings",
        "event_total": 57,
        "has_played": true,
        "id": 22063319,
        "last_rank": 24832,
        "player_name": "Nick Fielding",
        "rank": 25231,
        "rank_sort": 25236,
        "total": 2373
      },
      {
        "club_badge_src": null,
        "entry": 3174133,
        "entry_name": "Tetra FC",
        "event_total": 58,
        "has_played": true,
        "id": 23453176,
        "last_rank": 25729,
        "player_name": "Alex Wardley",
        "rank": 25231,
        "rank_sort": 25237,
        "total": 2373
      },
      {
        "club_badge_src": null,
        "entry": 3850327,
        "entry_name": "Wirtz Case Possible",
        "event_total": 57,
        "has_played": true,
        "id": 28862409,
        "last_rank": 24897,
        "player_name": "Shaheen Deonarain",
        "rank": 25231,
        "rank_sort": 25238,
        "total": 2373
      },
      {
        "club_badge_src": "https://fantasy.premierleague.com/gcs/plfpl-production-adobe-approved/plfpl-production/3927003/35e3e3ae-19f0-4cfa-a743-910193390746.png",
        "entry": 3927003,
        "entry_name": "Haalandaise Sauce",
        "event_total": 43,
        "has_played": true,
        "id": 29533140,
        "last_rank": 14817,
        "player_name": "Jon Hockley",
        "rank": 25231,
        "rank_sort": 25239,
        "total": 2373
      },
      {
        "club_badge_src": null,
        "entry": 4512562,
        "entry_name": "shannyfootball",
        "event_total": 48,
        "has_played": true,
        "id": 34409584,
        "last_rank": 17970,
        "player_name": "Shantelle Hill",
        "rank": 25231,
        "rank_sort": 25240,
        "total": 2373
      },
      {
        "club_badge_src": null,
        "entry": 4749460,
        "entry_name": "Wanyamas in Pyjamas",
        "event_total": 65,
        "has_played": true,
        "id": 36546725,
        "last_rank": 32661,
        "player_name": "Kevin McCarron",
        "rank": 25231,
        "rank_sort": 25241,
        "total": 2373
      },
      {
        "club_badge_src": null,
        "entry": 5487658,
        "entry_name": "Runner",
        "event_total": 72,
        "has_played": true,
        "id": 42736518,
        "last_rank": 41073,
        "player_name": "Stefan Rickardsson",
        "rank": 25231,
        "rank_sort": 25242,
        "total": 2373
      },
      {
        "club_badge_src": null,
        "entry": 5849231,
        "entry_name": "Superlaget",
        "event_total": 74,
        "has_played": true,
        "id": 45921454,
        "last_rank": 43737,
        "player_name": "Tine Strand Nilsen",
        "rank": 25231,
        "rank_sort": 25243,
        "total": 2373
      },
      {
        "club_badge_src": null,
        "entry": 5973146,
        "entry_name": "Enter name here",
        "event_total": 64,
        "has_played": true,
        "id": 47010944,
        "last_rank": 31620,
        "player_name": "Champ Champ",
        "rank": 25231,
        "rank_sort": 25244,
        "total": 2373
      },
      {
        "club_badge_src": null,
        "entry": 6366660,
        "entry_name": "FC Banda CH",
        "event_total": 50,
        "has_played": true,
        "id": 50625558,
        "last_rank": 19432,
        "player_name": "Roland Wyszomierski",
        "rank": 25231,
        "rank_sort": 25245,
        "total": 2373
      },
      {
        "club_badge_src": null,
        "entry": 6587336,
        "entry_name": "outlandish shooters",
        "event_total": 70,
        "has_played": true,
        "id": 52608249,
        "last_rank": 38571,
        "player_name": "Stanley Ocran",
        "rank": 25231,
        "rank_sort": 25246,
        "total": 2373
      },
      {
        "club_badge_src": null,
        "entry": 6629575,
        "entry_name": "Cunha Leny a Yoro",
        "event_total": 57,
        "has_played": true,
        "id": 52983587,
        "last_rank": 24832,
        "player_name": "Jonny Miles",
        "rank": 25231,
        "rank_sort": 25247,
        "total": 2373
      },
      {
        "club_badge_src": "https://fantasy.premierleague.com/gcs/plfpl-production-adobe-approved/plfpl-production/7999572/08117081-34e1-4564-aabb-dc1284ee2629.png",
        "entry": 7999572,
        "entry_name": "KC",
        "event_total": 69,
        "has_played": true,
        "id": 65880158,
        "last_rank": 37376,
        "player_name": "N KC",
        "rank": 25231,
        "rank_sort": 25248,
        "total": 2373
      },
      {
        "club_badge_src": null,
        "entry": 8625165,
        "entry_name": "Whelby Wanderers",
        "event_total": 50,
        "has_played": true,
        "id": 71841104,
        "last_rank": 19432,
        "player_name": "Scot Whelby",
        "rank": 25231,
        "rank_sort": 25249,
        "total": 2373
      },
      {
        "club_badge_src": null,
        "entry": 8689151,
        "entry_name": "ostoora",
        "event_total": 69,
        "has_played": true,
        "id": 72474077,
        "last_rank": 37435,
        "player_name": "mostafa magdy",
        "rank": 25231,
        "rank_sort": 25250,
        "total": 2373
      }
    ]
  }
}