{
  "last_updated_data": "2026-05-24T23:28:17Z",
  "league": {
    "admin_entry": null,
    "closed": false,
    "code_privacy": "p",
    "created": "2025-07-20T23:14:33.933835Z",
    "cup_league": 2815434,
    "has_cup": true,
    "id": 314,
    "league_type": "s",
    "max_entries": null,
    "name": "Overall",
    "rank": null,
    "scoring": "c",
    "start_event": 1
  },
  "new_entries": {
    "has_next": false,
    "page": 1,
    "results": []
  },
  "standings": {
    "has_next": true,
    "page": 330,
    "results": [
      {
        "club_badge_src": null,
        "entry": 3149432,
        "entry_name": "\u062d\u062f\u064a\u062f\u064a",
        "event_total": 72,
        "has_played": true,
        "id": 23255842,
        "last_rank": 17878,
        "player_name": "omar Abdelaziz",
        "rank": 16448,
        "rank_sort": 16451,
        "total": 2386
      },
      {
        "club_badge_src": "https://fantasy.premierleague.com/gcs/plfpl-production-adobe-approved/plfpl-production/3880054/1957162f-760e-4765-aa49-be8d1f8b0d73.png",
        "entry": 3880054,
        "entry_name": "30 years & counting",
        "event_total": 43,
        "has_played": true,
        "id": 29153606,
        "last_rank": 9042,
        "player_name": "anthony quinn",
        "rank": 16448,
        "rank_sort": 16452,
        "total": 2386
      },
      {
        "club_badge_src": null,
        "entry": 4594372,
        "entry_name": "MelbourneGooners",
        "event_total": 59,
        "has_played": true,
        "id": 35086466,
        "last_rank": 17265,
        "player_name": "Graham Stewart",
        "rank": 16448,
        "rank_sort": 16453,
        "total": 2386
      },
      {
        "club_badge_src": null,
        "entry": 5515117,
        "entry_name": "Twente Embassy",
        "event_total": 69,
        "has_played": true,
        "id": 42995390,
        "last_rank": 24757,
        "player_name": "John Paul Docherty",
        "rank": 16448,
        "rank_sort": 16454,
        "total": 2386
      },
      {
        "club_badge_src": null,
        "entry": 179451,
        "entry_name": "Daniel Matthew FC",
        "event_total": 55,
        "has_played": true,
        "id": 1184213,
        "last_rank": 10676,
        "player_name": "daniel matthew",
        "rank": 16455,
        "rank_sort": 16455,
        "total": 2386
      },
      {
        "club_badge_src": null,
        "entry": 300176,
        "entry_name": "Imaginary Madrid",
        "event_total": 64,
        "has_played": true,
        "id": 2007704,
        "last_rank": 17918,
        "player_name": "Martin Fahy",
        "rank": 16455,
        "rank_sort": 16456,
        "total": 2386
      },
      {
        "club_badge_src": null,
        "entry": 929250,
        "entry_name": "Hombres con Astma",
        "event_total": 53,
        "has_played": true,
        "id": 6393742,
        "last_rank": 11563,
        "player_name": "Christopher Leyonberg Palmer",
        "rank": 16455,
        "rank_sort": 16457,
        "total": 2386
      },
      {
        "club_badge_src": null,
        "entry": 2577101,
        "entry_name": "Game of Gj\u00f6kes",
        "event_total": 58,
        "has_played": true,
        "id": 18495154,
        "last_rank": 10209,
        "player_name": "Janin \u017dnidar",
        "rank": 16455,
        "rank_sort": 16458,
        "total": 2386
      },
      {
        "club_badge_src": null,
        "entry": 2920224,
        "entry_name": "Samoo fc",
        "event_total": 86,
        "has_played": true,
        "id": 21406972,
        "last_rank": 43607,
        "player_name": "Samo Swn",
        "rank": 16455,
        "rank_sort": 16459,
        "total": 2386
      },
      {
        "club_badge_src": null,
        "entry": 4854852,
        "entry_name": "KC united",
        "event_total": 67,
        "has_played": true,
        "id": 37407286,
        "last_rank": 20065,
        "player_name": "Kongi Chauke",
        "rank": 16455,
        "rank_sort": 16460,
        "total": 2386
      },
      {
        "club_badge_src": "https://fantasy.premierleague.com/gcs/plfpl-production-adobe-approved/plfpl-production/5870991/8168c398-0aae-40b9-be37-73be61bdeb2b.png",
        "entry": 5870991,
        "entry_name": "\u062d\u0646\u0643\u0629 \u0641\u0646\u064a\u0629",
        "event_total": 61,
        "has_played": true,
        "id": 46113497,
        "last_rank": 13662,
        "player_name": "Youssef Meady",
        "rank": 16455,
        "rank_sort": 16461,
        "total": 2386
      },
      {
        "club_badge_src": null,
        "entry": 1273196,
        "entry_name": "betterthanfigo",
        "event_total": 52,
        "has_played": true,
        "id": 8846678,
        "last_rank": 13107,
        "player_name": "Vi Nguyen",
        "rank": 16462,
        "rank_sort": 16462,
        "total": 2386
      },
      {
        "club_badge_src": null,
        "entry": 2413400,
        "entry_name": "SIMBA FC",
        "event_total": 64,
        "has_played": true,
        "id": 17252077,
        "last_rank": 17927,
        "player_name": "Ganz Rawalee",
        "rank": 16462,
        "rank_sort": 16463,
        "total": 2386
      },
      {
        "club_badge_src": null,
        "entry": 6141038,
        "entry_name": "GagzysBagOfMoreFpls",
        "event_total": 77,
        "has_played": true,
        "id": 48534796,
        "last_rank": 28466,
        "player_name": "Darragh Boland",
        "rank": 16462,
        "rank_sort": 16464,
        "total": 2386
      },
      {
        "club_badge_src": "https://fantasy.premierleague.com/gcs/plfpl-production-adobe-approved/plfpl-production/36469/68be4865-fd73-422a-96be-b5e56a3ff5d0.png",
        "entry": 36469,
        "entry_name": "Kan-U Believe It!",
        "event_total": 67,
        "has_played": true,
        "id": 233476,
        "last_rank": 20084,
        "player_name": "Denzil Safo",
        "rank": 16465,
        "rank_sort": 16465,
        "total": 2386
      },
      {
        "club_badge_src": "https://fantasy.premierleague.com/gcs/plfpl-production-adobe-approved/plfpl-production/487033/94c8218f-54b2-4f50-b488-42dfc8470b16.png",
        "entry": 487033,
        "entry_name": "OP Ziyad",
        "event_total": 57,
        "has_played": true,
        "id": 3269703,
        "last_rank": 13681,
        "player_name": "Zyad az",
        "rank": 16465,
        "rank_sort": 16466,
        "total": 2386
      },
      {
        "club_badge_src": "https://fantasy.premierleague.com/gcs/plfpl-production-adobe-approved/plfpl-production/6318710/897ca988-b478-4adc-aef1-8f13ec1b20d8.png",
        "entry": 6318710,
        "entry_name": "FPLMYR1",
        "event_total": 62,
        "has_played": true,
        "id": 50159089,
        "last_rank": 16652,
        "player_name": "Myrone V",
        "rank": 16465,
        "rank_sort": 16467,
        "total": 2386
      },
      {
        "club_badge_src": "https://fantasy.premierleague.com/gcs/plfpl-production-adobe-approved/plfpl-production/1645245/27019914-42b1-4f0c-be40-ff60ffcf83c9.png",
        "entry": 1645245,
        "entry_name": "Gafsa fc",
        "event_total": 71,
        "has_played": true,
        "id": 11516912,
        "last_rank": 17275,
        "player_name": "Khaled Hassnaoui",
        "rank": 16468,
        "rank_sort": 16468,
        "total": 2386
      },
      {
        "club_badge_src": "https://fantasy.premierleague.com/gcs/plfpl-production-adobe-approved/plfpl-production/5579676/04f00d10-c11c-434b-afa8-d3d194eeffcb.png",
        "entry": 5579676,
        "entry_name": "Sheikh Armada Utd",
        "event_total": 74,
        "has_played": true,
        "id": 43577353,
        "last_rank": 29443,
        "player_name": "Luis Armada",
        "rank": 16468,
        "rank_sort": 16469,
        "total": 2386
      },
      {
        "club_badge_src": null,
        "entry": 6417396,
        "entry_name": "Hania Team",
        "event_total": 83,
        "has_played": true,
        "id": 51074732,
        "last_rank": 34891,
        "player_name": "Tata Hani",
        "rank": 16470,
        "rank_sort": 16470,
        "total": 2386
      },
      {
        "club_badge_src": null,
        "entry": 604588,
        "entry_name": "Corn on the Kobbie",
        "event_total": 57,
        "has_played": true,
        "id": 4081489,
        "last_rank": 11573,
        "player_name": "Dan Rist",
        "rank": 16471,
        "rank_sort": 16471,
        "total": 2386
      },
      {
        "club_badge_src": null,
        "entry": 7338183,
        "entry_name": "HaCunha Mateta",
        "event_total": 55,
        "has_played": true,
        "id": 59434938,
        "last_rank": 14798,
        "player_name": "Arti Manoharan",
        "rank": 16472,
        "rank_sort": 16472,
        "total": 2386
      },
      {
        "club_badge_src": null,
        "entry": 9177845,
        "entry_name": "Goal of Duty",
        "event_total": 65,
        "has_played": true,
        "id": 77214782,
        "last_rank": 21577,
        "player_name": "Zulkarnain Aziz",
        "rank": 16472,
        "rank_sort": 16473,
        "total": 2386
      },
      {
        "club_badge_src": null,
        "entry": 3484161,
        "entry_name": "Double or quits",
        "event_total": 58,
        "has_played": true,
        "id": 25908333,
        "last_rank": 14223,
        "player_name": "Graham Pearson",
        "rank": 16474,
        "rank_sort": 16474,
        "total": 2386
      },
      {
        "club_badge_src": null,
        "entry": 3368163,
        "entry_name": "Pings Kings",
        "event_total": 61,
        "has_played": true,
        "id": 24994411,
        "last_rank": 18628,
        "player_name": "Michael Pingram",
        "rank": 16475,
        "rank_sort": 16475,
        "total": 2385
      },
      {
        "club_badge_src": null,
        "entry": 4988342,
        "entry_name": "Kerala Blasters",
        "event_total": 69,
        "has_played": true,
        "id": 38510512,
        "last_rank": 24803,
        "player_name": "Tim Ambooken",
        "rank": 16475,
        "rank_sort": 16476,
        "total": 2385
      },
      {
        "club_badge_src": null,
        "entry": 7893181,
        "entry_name": "Sloots Toots",
        "event_total": 57,
        "has_played": true,
        "id": 64924285,
        "last_rank": 16022,
        "player_name": "Zach Eustace",
        "rank": 16475,
        "rank_sort": 16477,
        "total": 2385
      },
      {
        "club_badge_src": null,
        "entry": 2314508,
        "entry_name": "Danny Baldiola",
        "event_total": 74,
        "has_played": true,
        "id": 16510410,
        "last_rank": 29468,
        "player_name": "Danny Hill",
        "rank": 16478,
        "rank_sort": 16478,
        "total": 2385
      },
      {
        "club_badge_src": null,
        "entry": 8981871,
        "entry_name": "Zvezdice",
        "event_total": 49,
        "has_played": true,
        "id": 75307148,
        "last_rank": 11591,
        "player_name": "Tadeja Bon\u010da Rudolf",
        "rank": 16479,
        "rank_sort": 16479,
        "total": 2385
      },
      {
        "club_badge_src": null,
        "entry": 9113,
        "entry_name": "eedok",
        "event_total": 64,
        "has_played": true,
        "id": 53415,
        "last_rank": 20826,
        "player_name": "Khidir Osman",
        "rank": 16480,
        "rank_sort": 16480,
        "total": 2385
      },
      {
        "club_badge_src": null,
        "entry": 328422,
        "entry_name": "Brentalona",
        "event_total": 66,
        "has_played": true,
        "id": 2200185,
        "last_rank": 22358,
        "player_name": "Tom Sherriff",
        "rank": 16480,
        "rank_sort": 16481,
        "total": 2385
      },
      {
        "club_badge_src": "https://fantasy.premierleague.com/gcs/plfpl-production-adobe-approved/plfpl-production/1762540/05d8f68a-3fa3-4a5e-8bf7-356592786f03.png",
        "entry": 1762540,
        "entry_name": "Pharaoh's",
        "event_total": 67,
        "has_played": true,
        "id": 12376323,
        "last_rank": 23155,
        "player_name": "AbdelRhMan AyMan",
        "rank": 16480,
        "rank_sort": 16482,
        "total": 2385
      },
      {
        "club_badge_src": "https://fantasy.premierleague.com/gcs/plfpl-production-adobe-approved/plfpl-production/3170696/07765742-d35f-49fe-ab7b-acc4619ecfd8.png",
        "entry": 3170696,
        "entry_name": "Ankelkn\u00e6kkeran",
        "event_total": 51,
        "has_played": true,
        "id": 23426239,
        "last_rank": 12594,
        "player_name": "Marius Svarva",
        "rank": 16480,
        "rank_sort": 16483,
        "total": 2385
      },
      {
        "club_badge_src": null,
        "entry": 3498581,
        "entry_name": "too eze",
        "event_total": 45,
        "has_played": true,
        "id": 26024208,
        "last_rank": 9845,
        "player_name": "Patrick Evans",
        "rank": 16480,
        "rank_sort": 16484,
        "total": 2385
      },
      {
        "club_badge_src": null,
        "entry": 146528,
        "entry_name": "LADI FC",
        "event_total": 60,
        "has_played": true,
        "id": 960020,
        "last_rank": 17953,
        "player_name": "Oladipo Tela",
        "rank": 16485,
        "rank_sort": 16485,
        "total": 2385
      },
      {
        "club_badge_src": "https://fantasy.premierleague.com/gcs/plfpl-production-adobe-approved/plfpl-production/297678/d458625e-f689-44d1-b7c8-e8899586277d.png",
        "entry": 297678,
        "entry_name": "Change Name",
        "event_total": 46,
        "has_played": true,
        "id": 1989763,
        "last_rank": 10247,
        "player_name": "Rhys Skipton",
        "rank": 16485,
        "rank_sort": 16486,
        "total": 2385
      },
      {
        "club_badge_src": null,
        "entry": 354257,
        "entry_name": "SAKAtatties",
        "event_total": 79,
        "has_played": true,
        "id": 2370891,
        "last_rank": 34969,
        "player_name": "Euan Cram",
        "rank": 16485,
        "rank_sort": 16487,
        "total": 2385
      },
      {
        "club_badge_src": null,
        "entry": 581814,
        "entry_name": "H A L A M A D R I D",
        "event_total": 52,
        "has_played": true,
        "id": 3915574,
        "last_rank": 13121,
        "player_name": "Phauzan Official",
        "rank": 16485,
        "rank_sort": 16488,
        "total": 2385
      },
      {
        "club_badge_src": null,
        "entry": 1620401,
        "entry_name": "Good Moaning",
        "event_total": 60,
        "has_played": true,
        "id": 11339740,
        "last_rank": 17970,
        "player_name": "Mike Neuman",
        "rank": 16485,
        "rank_sort": 16489,
        "total": 2385
      },
      {
        "club_badge_src": null,
        "entry": 6100350,
        "entry_name": "Turkish De Ligt",
        "event_total": 55,
        "has_played": true,
        "id": 48178844,
        "last_rank": 14832,
        "player_name": "James Peel",
        "rank": 16485,
        "rank_sort": 16490,
        "total": 2385
      },
      {
        "club_badge_src": null,
        "entry": 7596693,
        "entry_name": "Victor Moses Garden",
        "event_total": 63,
        "has_played": true,
        "id": 62235204,
        "last_rank": 20116,
        "player_name": "Killian Collins",
        "rank": 16485,
        "rank_sort": 16491,
        "total": 2385
      },
      {
        "club_badge_src": null,
        "entry": 17493,
        "entry_name": "JC United",
        "event_total": 78,
        "has_played": true,
        "id": 108524,
        "last_rank": 33819,
        "player_name": "Justin Collins",
        "rank": 16492,
        "rank_sort": 16492,
        "total": 2385
      },
      {
        "club_badge_src": null,
        "entry": 239909,
        "entry_name": "Noni your business",
        "event_total": 64,
        "has_played": true,
        "id": 1596574,
        "last_rank": 20826,
        "player_name": "Danny Goodridge",
        "rank": 16492,
        "rank_sort": 16493,
        "total": 2385
      },
      {
        "club_badge_src": null,
        "entry": 275199,
        "entry_name": "Thomasthefrankengine",
        "event_total": 56,
        "has_played": true,
        "id": 1831464,
        "last_rank": 15388,
        "player_name": "Liam Davies",
        "rank": 16492,
        "rank_sort": 16494,
        "total": 2385
      },
      {
        "club_badge_src": "https://fantasy.premierleague.com/gcs/plfpl-production-adobe-approved/plfpl-production/538390/55a22d85-7362-40a6-a404-dda110507d77.png",
        "entry": 538390,
        "entry_name": "Nisse",
        "event_total": 48,
        "has_played": true,
        "id": 3624126,
        "last_rank": 11142,
        "player_name": "Tomas Ekman",
        "rank": 16492,
        "rank_sort": 16495,
        "total": 2385
      },
      {
        "club_badge_src": null,
        "entry": 991628,
        "entry_name": "FPL Smith fc",
        "event_total": 68,
        "has_played": true,
        "id": 6837491,
        "last_rank": 24039,
        "player_name": "Callum Smith",
        "rank": 16492,
        "rank_sort": 16496,
        "total": 2385
      },
      {
        "club_badge_src": null,
        "entry": 2969992,
        "entry_name": "Blax2themax",
        "event_total": 57,
        "has_played": true,
        "id": 21821388,
        "last_rank": 16062,
        "player_name": "Michael Blaxkj\u00e6r",
        "rank": 16492,
        "rank_sort": 16497,
        "total": 2385
      },
      {
        "club_badge_src": null,
        "entry": 3987718,
        "entry_name": "Serious Konsaquencee",
        "event_total": 43,
        "has_played": true,
        "id": 30023730,
        "last_rank": 9089,
        "player_name": "Joe Twiss",
        "rank": 16492,
        "rank_sort": 16498,
        "total": 2385
      },
      {
        "club_badge_src": null,
        "entry": 4371092,
        "entry_name": "Chunderland FC",
        "event_total": 73,
        "has_played": true,
        "id": 33208060,
        "last_rank": 28517,
        "player_name": "Hugo Yamaguchi",
        "rank": 16492,
        "rank_sort": 16499,
        "total": 2385
      },
      {
        "club_badge_src": null,
        "entry": 6015526,
        "entry_name": "Back of the Neto",
        "event_total": 58,
        "has_played": true,
        "id": 47435955,
        "last_rank": 16729,
        "player_name": "Rehaan Laul",
        "rank": 16492,
        "rank_sort": 16500,
        "total": 2385
      }
    ]
  }
}