{
  "last_updated_data": "2026-05-24T23:28:17Z",
  "league": {
    "admin_entry": null,
    "closed": false,
    "code_privacy": "p",
    "created": "2025-07-20T23:14:33.933835Z",
    "cup_league": 2815434,
    "has_cup": true,
    "id": 314,
    "league_type": "s",
    "max_entries": null,
    "name": "Overall",
    "rank": null,
    "scoring": "c",
    "start_event": 1
  },
  "new_entries": {
    "has_next": false,
    "page": 1,
    "results": []
  },
  "standings": {
    "has_next": true,
    "page": 823,
    "results": [
      {
        "club_badge_src": null,
        "entry": 169208,
        "entry_name": "Outsiders",
        "event_total": 70,
        "has_played": true,
        "id": 1118231,
        "last_rank": 61950,
        "player_name": "Pontus Karlsson",
        "rank": 41056,
        "rank_sort": 41101,
        "total": 2358
      },
      {
        "club_badge_src": null,
        "entry": 176654,
        "entry_name": "Megalodon",
        "event_total": 59,
        "has_played": true,
        "id": 1166119,
        "last_rank": 43786,
        "player_name": "Youssef Mohamed",
        "rank": 41056,
        "rank_sort": 41102,
        "total": 2358
      },
      {
        "club_badge_src": null,
        "entry": 181017,
        "entry_name": "Backstreet Moyes",
        "event_total": 65,
        "has_played": true,
        "id": 1194564,
        "last_rank": 52853,
        "player_name": "Sam Corri",
        "rank": 41056,
        "rank_sort": 41103,
        "total": 2358
      },
      {
        "club_badge_src": null,
        "entry": 186375,
        "entry_name": "Turkish De Ligt",
        "event_total": 55,
        "has_played": true,
        "id": 1231701,
        "last_rank": 38774,
        "player_name": "Darius Roohi",
        "rank": 41056,
        "rank_sort": 41104,
        "total": 2358
      },
      {
        "club_badge_src": null,
        "entry": 205849,
        "entry_name": "Varianz Arena",
        "event_total": 51,
        "has_played": true,
        "id": 1368291,
        "last_rank": 33936,
        "player_name": "Torstein Sylta",
        "rank": 41056,
        "rank_sort": 41105,
        "total": 2358
      },
      {
        "club_badge_src": null,
        "entry": 210493,
        "entry_name": "Olympus re45ers",
        "event_total": 81,
        "has_played": true,
        "id": 1399876,
        "last_rank": 84360,
        "player_name": "francis agnew",
        "rank": 41056,
        "rank_sort": 41106,
        "total": 2358
      },
      {
        "club_badge_src": "https://fantasy.premierleague.com/gcs/plfpl-production-adobe-approved/plfpl-production/212409/9078fbd9-f40b-4649-b905-b806ac621198.png",
        "entry": 212409,
        "entry_name": "Redrebels",
        "event_total": 61,
        "has_played": true,
        "id": 1413000,
        "last_rank": 46660,
        "player_name": "Abdul Nsubuga",
        "rank": 41056,
        "rank_sort": 41107,
        "total": 2358
      },
      {
        "club_badge_src": null,
        "entry": 213705,
        "entry_name": "Akram Dawod FC",
        "event_total": 59,
        "has_played": true,
        "id": 1421633,
        "last_rank": 44048,
        "player_name": "Akram Omar",
        "rank": 41056,
        "rank_sort": 41108,
        "total": 2358
      },
      {
        "club_badge_src": null,
        "entry": 214046,
        "entry_name": "Devils in Disguise",
        "event_total": 62,
        "has_played": true,
        "id": 1423969,
        "last_rank": 48363,
        "player_name": "Soham Saha",
        "rank": 41056,
        "rank_sort": 41109,
        "total": 2358
      },
      {
        "club_badge_src": "https://fantasy.premierleague.com/gcs/plfpl-production-adobe-approved/plfpl-production/214863/b4be4884-6c5c-4f30-8466-9acc3a986794.png",
        "entry": 214863,
        "entry_name": "United Armadillos",
        "event_total": 56,
        "has_played": true,
        "id": 1429212,
        "last_rank": 40036,
        "player_name": "Kristian Steen",
        "rank": 41056,
        "rank_sort": 41110,
        "total": 2358
      },
      {
        "club_badge_src": null,
        "entry": 220051,
        "entry_name": "Over By Christmas",
        "event_total": 54,
        "has_played": true,
        "id": 1463507,
        "last_rank": 37589,
        "player_name": "Ashley Thompson",
        "rank": 41056,
        "rank_sort": 41111,
        "total": 2358
      },
      {
        "club_badge_src": null,
        "entry": 225166,
        "entry_name": "Net Six and Chill",
        "event_total": 46,
        "has_played": true,
        "id": 1497861,
        "last_rank": 28546,
        "player_name": "Arttu Ojanper\u00e4",
        "rank": 41056,
        "rank_sort": 41112,
        "total": 2358
      },
      {
        "club_badge_src": null,
        "entry": 227257,
        "entry_name": "C.P \u00e4r ingen m\u00f6rdare",
        "event_total": 73,
        "has_played": true,
        "id": 1511678,
        "last_rank": 66738,
        "player_name": "Felix Nilsson",
        "rank": 41056,
        "rank_sort": 41113,
        "total": 2358
      },
      {
        "club_badge_src": null,
        "entry": 240111,
        "entry_name": "Senna FC",
        "event_total": 60,
        "has_played": true,
        "id": 1597959,
        "last_rank": 45416,
        "player_name": "Ayrton Charlesworth",
        "rank": 41056,
        "rank_sort": 41114,
        "total": 2358
      },
      {
        "club_badge_src": null,
        "entry": 245757,
        "entry_name": "Afternoon Delap",
        "event_total": 46,
        "has_played": true,
        "id": 1636222,
        "last_rank": 28726,
        "player_name": "Matt Rose",
        "rank": 41056,
        "rank_sort": 41115,
        "total": 2358
      },
      {
        "club_badge_src": null,
        "entry": 247180,
        "entry_name": "THE LETHAL BRIZZLE",
        "event_total": 68,
        "has_played": true,
        "id": 1645379,
        "last_rank": 57776,
        "player_name": "Harish Rama",
        "rank": 41056,
        "rank_sort": 41116,
        "total": 2358
      },
      {
        "club_badge_src": null,
        "entry": 262030,
        "entry_name": "FC H\u00f6ntyily",
        "event_total": 65,
        "has_played": true,
        "id": 1741974,
        "last_rank": 53345,
        "player_name": "Viljami Heinonen",
        "rank": 41056,
        "rank_sort": 41117,
        "total": 2358
      },
      {
        "club_badge_src": null,
        "entry": 284324,
        "entry_name": "M'Isak Itches",
        "event_total": 63,
        "has_played": true,
        "id": 1893171,
        "last_rank": 49691,
        "player_name": "James Brewer",
        "rank": 41056,
        "rank_sort": 41118,
        "total": 2358
      },
      {
        "club_badge_src": null,
        "entry": 289870,
        "entry_name": "Vee-guttan",
        "event_total": 54,
        "has_played": true,
        "id": 1932518,
        "last_rank": 37435,
        "player_name": "Martin Vee Akselsen",
        "rank": 41056,
        "rank_sort": 41119,
        "total": 2358
      },
      {
        "club_badge_src": null,
        "entry": 300172,
        "entry_name": "Sports",
        "event_total": 53,
        "has_played": true,
        "id": 2007668,
        "last_rank": 36624,
        "player_name": "Shane Egan",
        "rank": 41056,
        "rank_sort": 41120,
        "total": 2358
      },
      {
        "club_badge_src": null,
        "entry": 301490,
        "entry_name": "B\u00f6rjesson FF",
        "event_total": 58,
        "has_played": true,
        "id": 2017159,
        "last_rank": 42648,
        "player_name": "Herman B\u00f6rjesson",
        "rank": 41056,
        "rank_sort": 41121,
        "total": 2358
      },
      {
        "club_badge_src": null,
        "entry": 320745,
        "entry_name": "Aouar You?",
        "event_total": 43,
        "has_played": true,
        "id": 2149728,
        "last_rank": 26088,
        "player_name": "Max Sergejevs",
        "rank": 41056,
        "rank_sort": 41122,
        "total": 2358
      },
      {
        "club_badge_src": null,
        "entry": 322770,
        "entry_name": "Stedmania United",
        "event_total": 60,
        "has_played": true,
        "id": 2162944,
        "last_rank": 45252,
        "player_name": "Sion Stedman",
        "rank": 41056,
        "rank_sort": 41123,
        "total": 2358
      },
      {
        "club_badge_src": null,
        "entry": 333841,
        "entry_name": "Me Myself Ndiaye",
        "event_total": 62,
        "has_played": true,
        "id": 2235691,
        "last_rank": 48197,
        "player_name": "Ian Hooper",
        "rank": 41056,
        "rank_sort": 41124,
        "total": 2358
      },
      {
        "club_badge_src": null,
        "entry": 351126,
        "entry_name": "Change Name",
        "event_total": 47,
        "has_played": true,
        "id": 2350402,
        "last_rank": 29688,
        "player_name": "Nick Lewis",
        "rank": 41056,
        "rank_sort": 41125,
        "total": 2358
      },
      {
        "club_badge_src": null,
        "entry": 378507,
        "entry_name": "tjuebussen",
        "event_total": 64,
        "has_played": true,
        "id": 2535875,
        "last_rank": 51137,
        "player_name": "Lars Heldal",
        "rank": 41056,
        "rank_sort": 41126,
        "total": 2358
      },
      {
        "club_badge_src": null,
        "entry": 379235,
        "entry_name": "EL MEJOR SAIF \ufffd\ufe0f",
        "event_total": 64,
        "has_played": true,
        "id": 2540968,
        "last_rank": 51403,
        "player_name": "saif alhady",
        "rank": 41056,
        "rank_sort": 41127,
        "total": 2358
      },
      {
        "club_badge_src": "https://fantasy.premierleague.com/gcs/plfpl-production-adobe-approved/plfpl-production/383783/b7ba38c5-5c4f-48e0-8987-6ef24cfe8ef8.png",
        "entry": 383783,
        "entry_name": "Marmeladene",
        "event_total": 48,
        "has_played": true,
        "id": 2573873,
        "last_rank": 30600,
        "player_name": "Kris Dennis Sirevaag",
        "rank": 41056,
        "rank_sort": 41128,
        "total": 2358
      },
      {
        "club_badge_src": "https://fantasy.premierleague.com/gcs/plfpl-production-adobe-approved/plfpl-production/426148/a9ccb448-b0a5-44a5-9b22-d2d9c1fb7d60.png",
        "entry": 426148,
        "entry_name": "FPL Chow Mein",
        "event_total": 65,
        "has_played": true,
        "id": 2856877,
        "last_rank": 52853,
        "player_name": "Matthew Chow",
        "rank": 41056,
        "rank_sort": 41129,
        "total": 2358
      },
      {
        "club_badge_src": null,
        "entry": 431047,
        "entry_name": "Slot it over the bar",
        "event_total": 69,
        "has_played": true,
        "id": 2890857,
        "last_rank": 59813,
        "player_name": "Aaron Cornell",
        "rank": 41056,
        "rank_sort": 41130,
        "total": 2358
      },
      {
        "club_badge_src": null,
        "entry": 434698,
        "entry_name": "saudi fc",
        "event_total": 61,
        "has_played": true,
        "id": 2915101,
        "last_rank": 46839,
        "player_name": "Guramol Singh",
        "rank": 41056,
        "rank_sort": 41131,
        "total": 2358
      },
      {
        "club_badge_src": "https://fantasy.premierleague.com/gcs/plfpl-production-adobe-approved/plfpl-production/449255/4f296ba7-a2ef-4917-8bdb-342bc2811dde.png",
        "entry": 449255,
        "entry_name": "Mountchester United",
        "event_total": 75,
        "has_played": true,
        "id": 3014108,
        "last_rank": 70600,
        "player_name": "Daniel Cohen",
        "rank": 41056,
        "rank_sort": 41132,
        "total": 2358
      },
      {
        "club_badge_src": "https://fantasy.premierleague.com/gcs/plfpl-production-adobe-approved/plfpl-production/479575/7741650d-1991-43f1-948c-d399361ce5e5.png",
        "entry": 479575,
        "entry_name": "The Peaky Reijnders",
        "event_total": 64,
        "has_played": true,
        "id": 3219522,
        "last_rank": 45182,
        "player_name": "Zach Nibbelink",
        "rank": 41056,
        "rank_sort": 41133,
        "total": 2358
      },
      {
        "club_badge_src": "https://fantasy.premierleague.com/gcs/plfpl-production-adobe-approved/plfpl-production/489987/7749c181-fa0f-47f8-b372-616383132f7b.png",
        "entry": 489987,
        "entry_name": "Yoknee",
        "event_total": 48,
        "has_played": true,
        "id": 3289335,
        "last_rank": 30727,
        "player_name": "Yonatan Getachew",
        "rank": 41056,
        "rank_sort": 41134,
        "total": 2358
      },
      {
        "club_badge_src": null,
        "entry": 502214,
        "entry_name": "Fpl_Kim",
        "event_total": 67,
        "has_played": true,
        "id": 3370873,
        "last_rank": 56099,
        "player_name": "Kimotho Mwangi",
        "rank": 41056,
        "rank_sort": 41135,
        "total": 2358
      },
      {
        "club_badge_src": null,
        "entry": 522613,
        "entry_name": "World Champs FC",
        "event_total": 53,
        "has_played": true,
        "id": 3510063,
        "last_rank": 36348,
        "player_name": "Jeppe Runge",
        "rank": 41056,
        "rank_sort": 41136,
        "total": 2358
      },
      {
        "club_badge_src": null,
        "entry": 525102,
        "entry_name": "wirtz nightmare",
        "event_total": 58,
        "has_played": true,
        "id": 3528806,
        "last_rank": 42506,
        "player_name": "J R",
        "rank": 41056,
        "rank_sort": 41137,
        "total": 2358
      },
      {
        "club_badge_src": null,
        "entry": 529305,
        "entry_name": "Team Sonnebloem",
        "event_total": 66,
        "has_played": true,
        "id": 3559245,
        "last_rank": 54667,
        "player_name": "Joris Sonnemans",
        "rank": 41056,
        "rank_sort": 41138,
        "total": 2358
      },
      {
        "club_badge_src": null,
        "entry": 544123,
        "entry_name": "Dan's Dazzlers",
        "event_total": 52,
        "has_played": true,
        "id": 3661958,
        "last_rank": 35166,
        "player_name": "Daniel Astbury",
        "rank": 41056,
        "rank_sort": 41139,
        "total": 2358
      },
      {
        "club_badge_src": "https://fantasy.premierleague.com/gcs/plfpl-production-adobe-approved/plfpl-production/554712/5ad44804-a6da-48a7-80ce-e6367c4092b7.png",
        "entry": 554712,
        "entry_name": "You Shall Not Pass",
        "event_total": 68,
        "has_played": true,
        "id": 3733463,
        "last_rank": 57857,
        "player_name": "Matthew Rogers",
        "rank": 41056,
        "rank_sort": 41140,
        "total": 2358
      },
      {
        "club_badge_src": null,
        "entry": 568518,
        "entry_name": "I LikeTo Muniz Muniz",
        "event_total": 66,
        "has_played": true,
        "id": 3826464,
        "last_rank": 54494,
        "player_name": "Matt Duncan",
        "rank": 41056,
        "rank_sort": 41141,
        "total": 2358
      },
      {
        "club_badge_src": null,
        "entry": 569189,
        "entry_name": "Vintage Claret",
        "event_total": 55,
        "has_played": true,
        "id": 3830965,
        "last_rank": 39023,
        "player_name": "David Hartley",
        "rank": 41056,
        "rank_sort": 41142,
        "total": 2358
      },
      {
        "club_badge_src": null,
        "entry": 570868,
        "entry_name": "Come Digne With Me",
        "event_total": 63,
        "has_played": true,
        "id": 3842038,
        "last_rank": 49880,
        "player_name": "rhys haines",
        "rank": 41056,
        "rank_sort": 41143,
        "total": 2358
      },
      {
        "club_badge_src": null,
        "entry": 582298,
        "entry_name": "Baby Shark DuDuDu",
        "event_total": 55,
        "has_played": true,
        "id": 3918796,
        "last_rank": 38542,
        "player_name": "Tarun Walia",
        "rank": 41056,
        "rank_sort": 41144,
        "total": 2358
      },
      {
        "club_badge_src": null,
        "entry": 586131,
        "entry_name": "Under My Cucurella",
        "event_total": 45,
        "has_played": true,
        "id": 3944487,
        "last_rank": 27770,
        "player_name": "Ryan Spink",
        "rank": 41056,
        "rank_sort": 41145,
        "total": 2358
      },
      {
        "club_badge_src": "https://fantasy.premierleague.com/gcs/plfpl-production-adobe-approved/plfpl-production/587391/e9455e72-cd1d-46bc-9c68-fdc44e0c4987.png",
        "entry": 587391,
        "entry_name": "Staggering Shandies",
        "event_total": 55,
        "has_played": true,
        "id": 3953932,
        "last_rank": 38774,
        "player_name": "Neil Cole",
        "rank": 41056,
        "rank_sort": 41146,
        "total": 2358
      },
      {
        "club_badge_src": null,
        "entry": 589530,
        "entry_name": "Mighty Magpies",
        "event_total": 46,
        "has_played": true,
        "id": 3970679,
        "last_rank": 28726,
        "player_name": "Tom Wright",
        "rank": 41056,
        "rank_sort": 41147,
        "total": 2358
      },
      {
        "club_badge_src": null,
        "entry": 601344,
        "entry_name": "Catfish &the Arsenal",
        "event_total": 70,
        "has_played": true,
        "id": 4057630,
        "last_rank": 61411,
        "player_name": "Tom Kynaston",
        "rank": 41056,
        "rank_sort": 41148,
        "total": 2358
      },
      {
        "club_badge_src": null,
        "entry": 612211,
        "entry_name": "Cesc and the city",
        "event_total": 51,
        "has_played": true,
        "id": 4136640,
        "last_rank": 33936,
        "player_name": "Cameron Donaldson",
        "rank": 41056,
        "rank_sort": 41149,
        "total": 2358
      },
      {
        "club_badge_src": null,
        "entry": 618462,
        "entry_name": "Gorsk FC",
        "event_total": 31,
        "has_played": true,
        "id": 4178783,
        "last_rank": 16807,
        "player_name": "Matt Goringe",
        "rank": 41056,
        "rank_sort": 41150,
        "total": 2358
      }
    ]
  }
}