{
  "last_updated_data": "2026-05-24T23:28:17Z",
  "league": {
    "admin_entry": null,
    "closed": false,
    "code_privacy": "p",
    "created": "2025-07-20T23:14:33.933835Z",
    "cup_league": 2815434,
    "has_cup": true,
    "id": 314,
    "league_type": "s",
    "max_entries": null,
    "name": "Overall",
    "rank": null,
    "scoring": "c",
    "start_event": 1
  },
  "new_entries": {
    "has_next": false,
    "page": 1,
    "results": []
  },
  "standings": {
    "has_next": true,
    "page": 481,
    "results": [
      {
        "club_badge_src": null,
        "entry": 247605,
        "entry_name": "Girls Rule The World",
        "event_total": 58,
        "has_played": true,
        "id": 1648087,
        "last_rank": 24330,
        "player_name": "Dave Hoff",
        "rank": 23977,
        "rank_sort": 24001,
        "total": 2375
      },
      {
        "club_badge_src": null,
        "entry": 250558,
        "entry_name": "crouch potato",
        "event_total": 58,
        "has_played": true,
        "id": 1667037,
        "last_rank": 24475,
        "player_name": "A Blount",
        "rank": 23977,
        "rank_sort": 24002,
        "total": 2375
      },
      {
        "club_badge_src": null,
        "entry": 263603,
        "entry_name": "Hammer Time",
        "event_total": 59,
        "has_played": true,
        "id": 1752733,
        "last_rank": 25330,
        "player_name": "Sancho Panza",
        "rank": 23977,
        "rank_sort": 24003,
        "total": 2375
      },
      {
        "club_badge_src": null,
        "entry": 276489,
        "entry_name": "MFK Topvar",
        "event_total": 63,
        "has_played": true,
        "id": 1840188,
        "last_rank": 25172,
        "player_name": "Maximili\u00e1n \u017deliska",
        "rank": 23977,
        "rank_sort": 24004,
        "total": 2375
      },
      {
        "club_badge_src": null,
        "entry": 280515,
        "entry_name": "Champions 2025/26",
        "event_total": 65,
        "has_played": true,
        "id": 1866769,
        "last_rank": 27020,
        "player_name": "Edu Abuya",
        "rank": 23977,
        "rank_sort": 24005,
        "total": 2375
      },
      {
        "club_badge_src": null,
        "entry": 280703,
        "entry_name": "Nesta",
        "event_total": 58,
        "has_played": true,
        "id": 1868006,
        "last_rank": 21159,
        "player_name": "Peerapat Kluebmunwai",
        "rank": 23977,
        "rank_sort": 24006,
        "total": 2375
      },
      {
        "club_badge_src": null,
        "entry": 292887,
        "entry_name": "Sharkys Machine",
        "event_total": 54,
        "has_played": true,
        "id": 1954689,
        "last_rank": 15550,
        "player_name": "Garry Murray",
        "rank": 23977,
        "rank_sort": 24007,
        "total": 2375
      },
      {
        "club_badge_src": "https://fantasy.premierleague.com/gcs/plfpl-production-adobe-approved/plfpl-production/356476/b571fa4c-d2b5-4627-b070-d24dd23d0e12.png",
        "entry": 356476,
        "entry_name": "Mighty DC FC",
        "event_total": 51,
        "has_played": true,
        "id": 2385492,
        "last_rank": 19103,
        "player_name": "D'lambre Clarke",
        "rank": 23977,
        "rank_sort": 24008,
        "total": 2375
      },
      {
        "club_badge_src": "https://fantasy.premierleague.com/gcs/plfpl-production-adobe-approved/plfpl-production/373990/64426eb4-0698-47ad-a6b2-8bd637edc742.png",
        "entry": 373990,
        "entry_name": "mostapha palestine",
        "event_total": 57,
        "has_played": true,
        "id": 2502449,
        "last_rank": 23656,
        "player_name": "mostapha gaidi",
        "rank": 23977,
        "rank_sort": 24009,
        "total": 2375
      },
      {
        "club_badge_src": null,
        "entry": 379023,
        "entry_name": "Fairmile Headers",
        "event_total": 58,
        "has_played": true,
        "id": 2539472,
        "last_rank": 21159,
        "player_name": "Mark Walker",
        "rank": 23977,
        "rank_sort": 24010,
        "total": 2375
      },
      {
        "club_badge_src": "https://fantasy.premierleague.com/gcs/plfpl-production-adobe-approved/plfpl-production/381873/9a58c2b1-35b9-4c37-ae41-a59011dc3d78.png",
        "entry": 381873,
        "entry_name": "Bardak",
        "event_total": 55,
        "has_played": true,
        "id": 2560411,
        "last_rank": 18985,
        "player_name": "Rotem Barak",
        "rank": 23977,
        "rank_sort": 24011,
        "total": 2375
      },
      {
        "club_badge_src": null,
        "entry": 402307,
        "entry_name": "Nimbus",
        "event_total": 41,
        "has_played": true,
        "id": 2697584,
        "last_rank": 12846,
        "player_name": "Mads Konrad Horg\u00f8ien",
        "rank": 23977,
        "rank_sort": 24012,
        "total": 2375
      },
      {
        "club_badge_src": null,
        "entry": 402574,
        "entry_name": "Out From The Back",
        "event_total": 57,
        "has_played": true,
        "id": 2699312,
        "last_rank": 20416,
        "player_name": "Joel Aikenhead",
        "rank": 23977,
        "rank_sort": 24013,
        "total": 2375
      },
      {
        "club_badge_src": null,
        "entry": 410724,
        "entry_name": "RedHalf",
        "event_total": 66,
        "has_played": true,
        "id": 2753947,
        "last_rank": 31995,
        "player_name": "Jerry Joseph",
        "rank": 23977,
        "rank_sort": 24014,
        "total": 2375
      },
      {
        "club_badge_src": "https://fantasy.premierleague.com/gcs/plfpl-production-adobe-approved/plfpl-production/430025/b81547de-53d3-47b4-8c50-3e8d83944acb.png",
        "entry": 430025,
        "entry_name": "DIESOFCRINGE",
        "event_total": 70,
        "has_played": true,
        "id": 2884188,
        "last_rank": 36348,
        "player_name": "Frost Pepuga",
        "rank": 23977,
        "rank_sort": 24015,
        "total": 2375
      },
      {
        "club_badge_src": null,
        "entry": 441105,
        "entry_name": "Blink one Eto'o",
        "event_total": 61,
        "has_played": true,
        "id": 2957709,
        "last_rank": 27203,
        "player_name": "Tobias Lindstr\u00f6m",
        "rank": 23977,
        "rank_sort": 24016,
        "total": 2375
      },
      {
        "club_badge_src": "https://fantasy.premierleague.com/gcs/plfpl-production-adobe-approved/plfpl-production/450101/861e57c1-d2c0-4987-a48f-4cc80a710970.png",
        "entry": 450101,
        "entry_name": "ALOSTAZ - \u0627\u0644\u0623\u0633\u062a\u0627\u0630",
        "event_total": 40,
        "has_played": true,
        "id": 3019799,
        "last_rank": 12420,
        "player_name": "MOHAMED HELAL",
        "rank": 23977,
        "rank_sort": 24017,
        "total": 2375
      },
      {
        "club_badge_src": "https://fantasy.premierleague.com/gcs/plfpl-production-adobe-approved/plfpl-production/490239/6580b735-65e1-44e8-b822-4a90b5fb5ef1.png",
        "entry": 490239,
        "entry_name": "Dude, Where\u2019s Micah?",
        "event_total": 59,
        "has_played": true,
        "id": 3290948,
        "last_rank": 25172,
        "player_name": "Alf Helge Tveit",
        "rank": 23977,
        "rank_sort": 24018,
        "total": 2375
      },
      {
        "club_badge_src": null,
        "entry": 538447,
        "entry_name": "LIONHEART",
        "event_total": 63,
        "has_played": true,
        "id": 3624493,
        "last_rank": 25172,
        "player_name": "FADY HABASHI",
        "rank": 23977,
        "rank_sort": 24019,
        "total": 2375
      },
      {
        "club_badge_src": "https://fantasy.premierleague.com/gcs/plfpl-production-adobe-approved/plfpl-production/570064/0c6c9da1-e194-462f-a9ab-d4f30af8bbce.png",
        "entry": 570064,
        "entry_name": "African Engineers",
        "event_total": 61,
        "has_played": true,
        "id": 3836744,
        "last_rank": 27203,
        "player_name": "Kacper Szymczyk",
        "rank": 23977,
        "rank_sort": 24020,
        "total": 2375
      },
      {
        "club_badge_src": null,
        "entry": 583864,
        "entry_name": "MartinOdegard8",
        "event_total": 50,
        "has_played": true,
        "id": 3929277,
        "last_rank": 18377,
        "player_name": "Marko Knezevic",
        "rank": 23977,
        "rank_sort": 24021,
        "total": 2375
      },
      {
        "club_badge_src": null,
        "entry": 617787,
        "entry_name": "Chiefs Chillers",
        "event_total": 73,
        "has_played": true,
        "id": 4174015,
        "last_rank": 35424,
        "player_name": "Eoin O'Keeffe",
        "rank": 23977,
        "rank_sort": 24022,
        "total": 2375
      },
      {
        "club_badge_src": null,
        "entry": 694866,
        "entry_name": "Grass Update",
        "event_total": 42,
        "has_played": true,
        "id": 4706283,
        "last_rank": 13500,
        "player_name": "Jack Stockwell",
        "rank": 23977,
        "rank_sort": 24023,
        "total": 2375
      },
      {
        "club_badge_src": null,
        "entry": 718427,
        "entry_name": "Santorini Liverpool",
        "event_total": 50,
        "has_played": true,
        "id": 4875385,
        "last_rank": 18377,
        "player_name": "David Butcher",
        "rank": 23977,
        "rank_sort": 24024,
        "total": 2375
      },
      {
        "club_badge_src": null,
        "entry": 743750,
        "entry_name": "The Burn Identity",
        "event_total": 72,
        "has_played": true,
        "id": 5059209,
        "last_rank": 39023,
        "player_name": "Jack Hayward",
        "rank": 23977,
        "rank_sort": 24025,
        "total": 2375
      },
      {
        "club_badge_src": "https://fantasy.premierleague.com/gcs/plfpl-production-adobe-approved/plfpl-production/768199/dd83afc2-7444-4bdc-b6ce-66a26dd9e73d.png",
        "entry": 768199,
        "entry_name": "No DVB's",
        "event_total": 40,
        "has_played": true,
        "id": 5239589,
        "last_rank": 12420,
        "player_name": "Paul McDonough",
        "rank": 23977,
        "rank_sort": 24026,
        "total": 2375
      },
      {
        "club_badge_src": null,
        "entry": 771690,
        "entry_name": "Team V",
        "event_total": 60,
        "has_played": true,
        "id": 5264553,
        "last_rank": 26230,
        "player_name": "Chris Vieceli",
        "rank": 23977,
        "rank_sort": 24027,
        "total": 2375
      },
      {
        "club_badge_src": "https://fantasy.premierleague.com/gcs/plfpl-production-adobe-approved/plfpl-production/857777/bef3c429-96a3-407d-baba-31ef921438cc.png",
        "entry": 857777,
        "entry_name": "\u2660CYX\u2665",
        "event_total": 54,
        "has_played": true,
        "id": 5880088,
        "last_rank": 21301,
        "player_name": "CS Chin",
        "rank": 23977,
        "rank_sort": 24028,
        "total": 2375
      },
      {
        "club_badge_src": null,
        "entry": 930544,
        "entry_name": "Merseyside Red",
        "event_total": 51,
        "has_played": true,
        "id": 6402840,
        "last_rank": 16163,
        "player_name": "Tommy Lilleby",
        "rank": 23977,
        "rank_sort": 24029,
        "total": 2375
      },
      {
        "club_badge_src": null,
        "entry": 945538,
        "entry_name": "Shwhalen FC",
        "event_total": 64,
        "has_played": true,
        "id": 6512611,
        "last_rank": 29688,
        "player_name": "Ollie Whalen",
        "rank": 23977,
        "rank_sort": 24030,
        "total": 2375
      },
      {
        "club_badge_src": null,
        "entry": 1064055,
        "entry_name": "Change Name",
        "event_total": 71,
        "has_played": true,
        "id": 7366125,
        "last_rank": 33147,
        "player_name": "Ethan Custance",
        "rank": 23977,
        "rank_sort": 24031,
        "total": 2375
      },
      {
        "club_badge_src": null,
        "entry": 1076595,
        "entry_name": "ItsCarrickYouKnow",
        "event_total": 53,
        "has_played": true,
        "id": 7454310,
        "last_rank": 17437,
        "player_name": "Albert Sondrup Preysz",
        "rank": 23977,
        "rank_sort": 24032,
        "total": 2375
      },
      {
        "club_badge_src": null,
        "entry": 1170266,
        "entry_name": "JStars",
        "event_total": 64,
        "has_played": true,
        "id": 8118526,
        "last_rank": 26088,
        "player_name": "Jason Yorath",
        "rank": 23977,
        "rank_sort": 24033,
        "total": 2375
      },
      {
        "club_badge_src": null,
        "entry": 1207664,
        "entry_name": "No New\u3001",
        "event_total": 57,
        "has_played": true,
        "id": 8380981,
        "last_rank": 23656,
        "player_name": "Victor Lam",
        "rank": 23977,
        "rank_sort": 24034,
        "total": 2375
      },
      {
        "club_badge_src": null,
        "entry": 1233718,
        "entry_name": "Fauntonio Conte XI",
        "event_total": 45,
        "has_played": true,
        "id": 8567160,
        "last_rank": 14926,
        "player_name": "Jack Faunt",
        "rank": 23977,
        "rank_sort": 24035,
        "total": 2375
      },
      {
        "club_badge_src": null,
        "entry": 1259084,
        "entry_name": "Kroos Control",
        "event_total": 48,
        "has_played": true,
        "id": 8745810,
        "last_rank": 17150,
        "player_name": "tobias Strandberg",
        "rank": 23977,
        "rank_sort": 24036,
        "total": 2375
      },
      {
        "club_badge_src": null,
        "entry": 1336583,
        "entry_name": "MaduekeMe \u2b06\ufe0f B4uGoGo",
        "event_total": 50,
        "has_played": true,
        "id": 9290674,
        "last_rank": 15694,
        "player_name": "Baseer Zuberi",
        "rank": 23977,
        "rank_sort": 24037,
        "total": 2375
      },
      {
        "club_badge_src": null,
        "entry": 1401433,
        "entry_name": "AUNZA_888",
        "event_total": 60,
        "has_played": true,
        "id": 9750777,
        "last_rank": 22685,
        "player_name": "Theerapong Saengsai",
        "rank": 23977,
        "rank_sort": 24038,
        "total": 2375
      },
      {
        "club_badge_src": "https://fantasy.premierleague.com/gcs/plfpl-production-adobe-approved/plfpl-production/1517798/e2689d5d-43f1-4a17-a850-8ac7a0c3f45d.png",
        "entry": 1517798,
        "entry_name": "Hazard Begins",
        "event_total": 57,
        "has_played": true,
        "id": 10586166,
        "last_rank": 23656,
        "player_name": "Greg Papas",
        "rank": 23977,
        "rank_sort": 24039,
        "total": 2375
      },
      {
        "club_badge_src": null,
        "entry": 1571739,
        "entry_name": "Yacin '05",
        "event_total": 62,
        "has_played": true,
        "id": 10982460,
        "last_rank": 28150,
        "player_name": "M Yacin",
        "rank": 23977,
        "rank_sort": 24040,
        "total": 2375
      },
      {
        "club_badge_src": null,
        "entry": 1576860,
        "entry_name": "Menace F.C",
        "event_total": 63,
        "has_played": true,
        "id": 11018647,
        "last_rank": 29071,
        "player_name": "Sam Miron",
        "rank": 23977,
        "rank_sort": 24041,
        "total": 2375
      },
      {
        "club_badge_src": "https://fantasy.premierleague.com/gcs/plfpl-production-adobe-approved/plfpl-production/1911525/bc47269a-aadb-4581-8975-352bf7307251.png",
        "entry": 1911525,
        "entry_name": "Don\u2019tHatoThePlayer",
        "event_total": 59,
        "has_played": true,
        "id": 13476727,
        "last_rank": 21949,
        "player_name": "Verner Viisainen",
        "rank": 23977,
        "rank_sort": 24042,
        "total": 2375
      },
      {
        "club_badge_src": "https://fantasy.premierleague.com/gcs/plfpl-production-adobe-approved/plfpl-production/2009806/debdbfcf-953b-4824-a4f7-fab2225c09e6.png",
        "entry": 2009806,
        "entry_name": "The Grafties",
        "event_total": 61,
        "has_played": true,
        "id": 14211071,
        "last_rank": 27203,
        "player_name": "James Moses",
        "rank": 23977,
        "rank_sort": 24043,
        "total": 2375
      },
      {
        "club_badge_src": null,
        "entry": 2206926,
        "entry_name": "Lovro Budisin",
        "event_total": 46,
        "has_played": true,
        "id": 15713996,
        "last_rank": 15797,
        "player_name": "Dhon Aadhanu",
        "rank": 23977,
        "rank_sort": 24044,
        "total": 2375
      },
      {
        "club_badge_src": "https://fantasy.premierleague.com/gcs/plfpl-production-adobe-approved/plfpl-production/2384959/01728590-c959-49ec-bf4c-0e49aebd870f.png",
        "entry": 2384959,
        "entry_name": "Viking Thunderclap",
        "event_total": 50,
        "has_played": true,
        "id": 17031854,
        "last_rank": 18377,
        "player_name": "Davey Briton",
        "rank": 23977,
        "rank_sort": 24045,
        "total": 2375
      },
      {
        "club_badge_src": "https://fantasy.premierleague.com/gcs/plfpl-production-adobe-approved/plfpl-production/2403394/50b5ffd8-ca23-4d0a-be8f-143141dbf341.png",
        "entry": 2403394,
        "entry_name": "mhmd_r97",
        "event_total": 42,
        "has_played": true,
        "id": 17178321,
        "last_rank": 13558,
        "player_name": "\u0645\u062d\u0645\u062f \u0627\u0644\u062c\u0628\u0648\u0631\u064a",
        "rank": 23977,
        "rank_sort": 24046,
        "total": 2375
      },
      {
        "club_badge_src": null,
        "entry": 2675104,
        "entry_name": "Petinos10",
        "event_total": 38,
        "has_played": true,
        "id": 19234022,
        "last_rank": 11419,
        "player_name": "A Long",
        "rank": 23977,
        "rank_sort": 24047,
        "total": 2375
      },
      {
        "club_badge_src": null,
        "entry": 2688181,
        "entry_name": "Vonli",
        "event_total": 55,
        "has_played": true,
        "id": 19334809,
        "last_rank": 22064,
        "player_name": "Frode Vonli",
        "rank": 23977,
        "rank_sort": 24048,
        "total": 2375
      },
      {
        "club_badge_src": null,
        "entry": 2878682,
        "entry_name": "KUET La Teligatians",
        "event_total": 63,
        "has_played": true,
        "id": 21072499,
        "last_rank": 29071,
        "player_name": "Samiul Islam Sami",
        "rank": 23977,
        "rank_sort": 24049,
        "total": 2375
      },
      {
        "club_badge_src": null,
        "entry": 3086256,
        "entry_name": "Stranger Mings",
        "event_total": 66,
        "has_played": true,
        "id": 22739010,
        "last_rank": 32190,
        "player_name": "Nemanja Bjelogrli\u0107",
        "rank": 23977,
        "rank_sort": 24050,
        "total": 2375
      }
    ]
  }
}