{
  "last_updated_data": "2026-05-24T23:28:17Z",
  "league": {
    "admin_entry": null,
    "closed": false,
    "code_privacy": "p",
    "created": "2025-07-20T23:14:33.933835Z",
    "cup_league": 2815434,
    "has_cup": true,
    "id": 314,
    "league_type": "s",
    "max_entries": null,
    "name": "Overall",
    "rank": null,
    "scoring": "c",
    "start_event": 1
  },
  "new_entries": {
    "has_next": false,
    "page": 1,
    "results": []
  },
  "standings": {
    "has_next": true,
    "page": 43,
    "results": [
      {
        "club_badge_src": null,
        "entry": 7024553,
        "entry_name": "Weird Sesko",
        "event_total": 70,
        "has_played": true,
        "id": 56432582,
        "last_rank": 3562,
        "player_name": "Aod O-Connor",
        "rank": 2073,
        "rank_sort": 2101,
        "total": 2433
      },
      {
        "club_badge_src": null,
        "entry": 8456303,
        "entry_name": "Satay Bois",
        "event_total": 53,
        "has_played": true,
        "id": 70214353,
        "last_rank": 1523,
        "player_name": "JH Lim",
        "rank": 2073,
        "rank_sort": 2102,
        "total": 2433
      },
      {
        "club_badge_src": null,
        "entry": 8915190,
        "entry_name": "\u0e04\u0e16.\u0e22\u0e01.\u0e17\u0e2d.",
        "event_total": 57,
        "has_played": true,
        "id": 74656983,
        "last_rank": 1880,
        "player_name": "R Ronallipie",
        "rank": 2073,
        "rank_sort": 2103,
        "total": 2433
      },
      {
        "club_badge_src": null,
        "entry": 9048611,
        "entry_name": "harrys heroes",
        "event_total": 67,
        "has_played": true,
        "id": 75951383,
        "last_rank": 3103,
        "player_name": "Harry Rawlinson",
        "rank": 2073,
        "rank_sort": 2104,
        "total": 2433
      },
      {
        "club_badge_src": null,
        "entry": 51193,
        "entry_name": "Brown FC",
        "event_total": 68,
        "has_played": true,
        "id": 329246,
        "last_rank": 2665,
        "player_name": "Tom Brown",
        "rank": 2105,
        "rank_sort": 2105,
        "total": 2433
      },
      {
        "club_badge_src": null,
        "entry": 242789,
        "entry_name": "corn on the kobbie",
        "event_total": 66,
        "has_played": true,
        "id": 1616574,
        "last_rank": 2977,
        "player_name": "Scott vary",
        "rank": 2105,
        "rank_sort": 2106,
        "total": 2433
      },
      {
        "club_badge_src": "https://fantasy.premierleague.com/gcs/plfpl-production-adobe-approved/plfpl-production/275397/c9e278a6-7297-452b-8e8e-4cd95cbf04ea.png",
        "entry": 275397,
        "entry_name": "salem",
        "event_total": 67,
        "has_played": true,
        "id": 1832806,
        "last_rank": 3103,
        "player_name": "Salem Alaqeeli",
        "rank": 2105,
        "rank_sort": 2107,
        "total": 2433
      },
      {
        "club_badge_src": "https://fantasy.premierleague.com/gcs/plfpl-production-adobe-approved/plfpl-production/833189/06c7de62-bbdc-4266-987a-73647815ee17.png",
        "entry": 833189,
        "entry_name": "Baby Got Dak",
        "event_total": 71,
        "has_played": true,
        "id": 5706975,
        "last_rank": 3796,
        "player_name": "Nathan Davenport",
        "rank": 2105,
        "rank_sort": 2108,
        "total": 2433
      },
      {
        "club_badge_src": null,
        "entry": 845753,
        "entry_name": "GYCL",
        "event_total": 66,
        "has_played": true,
        "id": 5794873,
        "last_rank": 2418,
        "player_name": "Nigel Yam",
        "rank": 2105,
        "rank_sort": 2109,
        "total": 2433
      },
      {
        "club_badge_src": "https://fantasy.premierleague.com/gcs/plfpl-production-adobe-approved/plfpl-production/1442420/d340e2d0-1e32-479b-bf51-18d4a2a4aea1.png",
        "entry": 1442420,
        "entry_name": "Warthog Dukes",
        "event_total": 76,
        "has_played": true,
        "id": 10051120,
        "last_rank": 3902,
        "player_name": "Paul Nolan",
        "rank": 2105,
        "rank_sort": 2110,
        "total": 2433
      },
      {
        "club_badge_src": null,
        "entry": 1837804,
        "entry_name": "Pickies Puppies",
        "event_total": 64,
        "has_played": true,
        "id": 12929095,
        "last_rank": 2685,
        "player_name": "Andy Pickford",
        "rank": 2105,
        "rank_sort": 2111,
        "total": 2433
      },
      {
        "club_badge_src": null,
        "entry": 1877810,
        "entry_name": "\u2606LEADER\u2606",
        "event_total": 60,
        "has_played": true,
        "id": 13226316,
        "last_rank": 2215,
        "player_name": "Bibek Sayaju",
        "rank": 2105,
        "rank_sort": 2112,
        "total": 2433
      },
      {
        "club_badge_src": null,
        "entry": 1951427,
        "entry_name": "Magician'sReds",
        "event_total": 68,
        "has_played": true,
        "id": 13765792,
        "last_rank": 3302,
        "player_name": "Pravin Peraba",
        "rank": 2105,
        "rank_sort": 2113,
        "total": 2433
      },
      {
        "club_badge_src": null,
        "entry": 2155280,
        "entry_name": "Gas Gogo",
        "event_total": 57,
        "has_played": true,
        "id": 15320709,
        "last_rank": 1909,
        "player_name": "Gas EE#48",
        "rank": 2105,
        "rank_sort": 2114,
        "total": 2433
      },
      {
        "club_badge_src": null,
        "entry": 2375309,
        "entry_name": "The Pros",
        "event_total": 43,
        "has_played": true,
        "id": 16957450,
        "last_rank": 951,
        "player_name": "Doctor Mo",
        "rank": 2105,
        "rank_sort": 2115,
        "total": 2433
      },
      {
        "club_badge_src": null,
        "entry": 3361350,
        "entry_name": "Tar Lids",
        "event_total": 68,
        "has_played": true,
        "id": 24941083,
        "last_rank": 3302,
        "player_name": "David Proctor",
        "rank": 2105,
        "rank_sort": 2116,
        "total": 2433
      },
      {
        "club_badge_src": null,
        "entry": 3887381,
        "entry_name": "Theallstars",
        "event_total": 69,
        "has_played": true,
        "id": 29211156,
        "last_rank": 3408,
        "player_name": "Donal Deady",
        "rank": 2105,
        "rank_sort": 2117,
        "total": 2433
      },
      {
        "club_badge_src": null,
        "entry": 4095757,
        "entry_name": "Jet2 Haalanday",
        "event_total": 61,
        "has_played": true,
        "id": 30925307,
        "last_rank": 1880,
        "player_name": "Nicholas James",
        "rank": 2105,
        "rank_sort": 2118,
        "total": 2433
      },
      {
        "club_badge_src": null,
        "entry": 4659598,
        "entry_name": "Redemption Season",
        "event_total": 76,
        "has_played": true,
        "id": 35675317,
        "last_rank": 4839,
        "player_name": "Luke Evans",
        "rank": 2105,
        "rank_sort": 2119,
        "total": 2433
      },
      {
        "club_badge_src": "https://fantasy.premierleague.com/gcs/plfpl-production-adobe-approved/plfpl-production/4736075/d6fdcb9c-5c8e-4d7d-8340-0491bc72050e.png",
        "entry": 4736075,
        "entry_name": "Old Big 'Ead XI",
        "event_total": 53,
        "has_played": true,
        "id": 36438850,
        "last_rank": 1240,
        "player_name": "Kevin Sam",
        "rank": 2105,
        "rank_sort": 2120,
        "total": 2433
      },
      {
        "club_badge_src": null,
        "entry": 4772284,
        "entry_name": "KB's courier's",
        "event_total": 68,
        "has_played": true,
        "id": 36733884,
        "last_rank": 3257,
        "player_name": "Khurram Butt",
        "rank": 2105,
        "rank_sort": 2121,
        "total": 2433
      },
      {
        "club_badge_src": null,
        "entry": 5988682,
        "entry_name": "Ekitiketaka",
        "event_total": 69,
        "has_played": true,
        "id": 47181488,
        "last_rank": 3408,
        "player_name": "Hans Michael",
        "rank": 2105,
        "rank_sort": 2122,
        "total": 2433
      },
      {
        "club_badge_src": null,
        "entry": 6681396,
        "entry_name": "Beef Cherki",
        "event_total": 52,
        "has_played": true,
        "id": 53444622,
        "last_rank": 1465,
        "player_name": "Stephen Cherry",
        "rank": 2105,
        "rank_sort": 2123,
        "total": 2433
      },
      {
        "club_badge_src": null,
        "entry": 7236496,
        "entry_name": "Change Name",
        "event_total": 65,
        "has_played": true,
        "id": 58476083,
        "last_rank": 2870,
        "player_name": "Frankie Valori",
        "rank": 2105,
        "rank_sort": 2124,
        "total": 2433
      },
      {
        "club_badge_src": null,
        "entry": 7559402,
        "entry_name": "BOOM XHAKALAKA",
        "event_total": 60,
        "has_played": true,
        "id": 61896681,
        "last_rank": 2215,
        "player_name": "Sean Thornton",
        "rank": 2105,
        "rank_sort": 2125,
        "total": 2433
      },
      {
        "club_badge_src": null,
        "entry": 9127450,
        "entry_name": "s\u0142oik",
        "event_total": 50,
        "has_played": true,
        "id": 76721660,
        "last_rank": 1321,
        "player_name": "Bartosz Merta",
        "rank": 2105,
        "rank_sort": 2126,
        "total": 2433
      },
      {
        "club_badge_src": null,
        "entry": 223732,
        "entry_name": "21",
        "event_total": 73,
        "has_played": true,
        "id": 1488259,
        "last_rank": 3408,
        "player_name": "Emin Akhundov",
        "rank": 2127,
        "rank_sort": 2127,
        "total": 2433
      },
      {
        "club_badge_src": "https://fantasy.premierleague.com/gcs/plfpl-production-adobe-approved/plfpl-production/888503/ec0ffd61-b5f3-4c7d-b305-fe6a324ca0bd.png",
        "entry": 888503,
        "entry_name": "Rezo 10",
        "event_total": 55,
        "has_played": true,
        "id": 6094219,
        "last_rank": 1394,
        "player_name": "Rezo Elrais",
        "rank": 2127,
        "rank_sort": 2128,
        "total": 2433
      },
      {
        "club_badge_src": null,
        "entry": 1970662,
        "entry_name": "Elefantucci",
        "event_total": 75,
        "has_played": true,
        "id": 13908807,
        "last_rank": 3079,
        "player_name": "Esmond Han",
        "rank": 2127,
        "rank_sort": 2129,
        "total": 2433
      },
      {
        "club_badge_src": null,
        "entry": 3410981,
        "entry_name": "Duvets soft n cuddly",
        "event_total": 67,
        "has_played": true,
        "id": 25331752,
        "last_rank": 3150,
        "player_name": "Tom Duvall",
        "rank": 2127,
        "rank_sort": 2130,
        "total": 2433
      },
      {
        "club_badge_src": "https://fantasy.premierleague.com/gcs/plfpl-production-adobe-approved/plfpl-production/4690402/5c13245d-e1b9-4494-9088-631f3f50c1a9.png",
        "entry": 4690402,
        "entry_name": "McToonTown",
        "event_total": 69,
        "has_played": true,
        "id": 35949993,
        "last_rank": 3442,
        "player_name": "Chris McDaniels",
        "rank": 2127,
        "rank_sort": 2131,
        "total": 2433
      },
      {
        "club_badge_src": null,
        "entry": 5521886,
        "entry_name": "Rossoneri",
        "event_total": 75,
        "has_played": true,
        "id": 43059017,
        "last_rank": 4515,
        "player_name": "Andreas Berglund",
        "rank": 2127,
        "rank_sort": 2132,
        "total": 2433
      },
      {
        "club_badge_src": null,
        "entry": 5781090,
        "entry_name": "Bura Titans",
        "event_total": 68,
        "has_played": true,
        "id": 45332889,
        "last_rank": 3302,
        "player_name": "HANGOOL TWO TERM",
        "rank": 2127,
        "rank_sort": 2133,
        "total": 2433
      },
      {
        "club_badge_src": null,
        "entry": 949176,
        "entry_name": "Team Thomson",
        "event_total": 51,
        "has_played": true,
        "id": 6538564,
        "last_rank": 1420,
        "player_name": "Duncan Thomson",
        "rank": 2134,
        "rank_sort": 2134,
        "total": 2433
      },
      {
        "club_badge_src": null,
        "entry": 1918808,
        "entry_name": "Van Der Saji",
        "event_total": 64,
        "has_played": true,
        "id": 13530194,
        "last_rank": 2749,
        "player_name": "Edwin Saji",
        "rank": 2134,
        "rank_sort": 2135,
        "total": 2433
      },
      {
        "club_badge_src": "https://fantasy.premierleague.com/gcs/plfpl-production-adobe-approved/plfpl-production/2384813/b99dd377-3d52-4954-946e-865dfbc07bab.png",
        "entry": 2384813,
        "entry_name": "HaywardsHeathHotspur",
        "event_total": 63,
        "has_played": true,
        "id": 17030690,
        "last_rank": 2620,
        "player_name": "Owain Lloyd-Williams",
        "rank": 2134,
        "rank_sort": 2136,
        "total": 2433
      },
      {
        "club_badge_src": null,
        "entry": 2487193,
        "entry_name": "Clause 9 FC",
        "event_total": 61,
        "has_played": true,
        "id": 17803038,
        "last_rank": 2363,
        "player_name": "Lewis Dale",
        "rank": 2134,
        "rank_sort": 2137,
        "total": 2433
      },
      {
        "club_badge_src": null,
        "entry": 15085,
        "entry_name": "Diogoal",
        "event_total": 65,
        "has_played": true,
        "id": 92257,
        "last_rank": 2907,
        "player_name": "Simen J Str\u00f8mberg",
        "rank": 2138,
        "rank_sort": 2138,
        "total": 2433
      },
      {
        "club_badge_src": null,
        "entry": 3165202,
        "entry_name": "Free Palestine",
        "event_total": 45,
        "has_played": true,
        "id": 23383487,
        "last_rank": 1056,
        "player_name": "Mahmoud saeed",
        "rank": 2138,
        "rank_sort": 2139,
        "total": 2433
      },
      {
        "club_badge_src": null,
        "entry": 7706479,
        "entry_name": "Baked Baines",
        "event_total": 72,
        "has_played": true,
        "id": 63229502,
        "last_rank": 3342,
        "player_name": "Liam Herbert",
        "rank": 2138,
        "rank_sort": 2140,
        "total": 2433
      },
      {
        "club_badge_src": null,
        "entry": 9008789,
        "entry_name": "DreamTeam",
        "event_total": 66,
        "has_played": true,
        "id": 75564991,
        "last_rank": 2482,
        "player_name": "Emilie Edvardsen",
        "rank": 2138,
        "rank_sort": 2141,
        "total": 2433
      },
      {
        "club_badge_src": null,
        "entry": 771678,
        "entry_name": "pain in diaz",
        "event_total": 61,
        "has_played": true,
        "id": 5264469,
        "last_rank": 2377,
        "player_name": "Scott Brodie",
        "rank": 2142,
        "rank_sort": 2142,
        "total": 2433
      },
      {
        "club_badge_src": null,
        "entry": 1300526,
        "entry_name": "Brutus FC",
        "event_total": 54,
        "has_played": true,
        "id": 9038574,
        "last_rank": 1659,
        "player_name": "Bruno Gon\u00e7alves",
        "rank": 2142,
        "rank_sort": 2143,
        "total": 2433
      },
      {
        "club_badge_src": null,
        "entry": 3137982,
        "entry_name": "Kudus to you",
        "event_total": 62,
        "has_played": true,
        "id": 23164876,
        "last_rank": 2033,
        "player_name": "puiho lam",
        "rank": 2142,
        "rank_sort": 2144,
        "total": 2433
      },
      {
        "club_badge_src": "https://fantasy.premierleague.com/gcs/plfpl-production-adobe-approved/plfpl-production/104576/581cfeb6-b2f0-4fbe-a8e3-2d8312202561.png",
        "entry": 104576,
        "entry_name": "New Beginning",
        "event_total": 74,
        "has_played": true,
        "id": 682163,
        "last_rank": 3667,
        "player_name": "Stoyan Stoyanov",
        "rank": 2145,
        "rank_sort": 2145,
        "total": 2433
      },
      {
        "club_badge_src": null,
        "entry": 176011,
        "entry_name": "YNWA91",
        "event_total": 72,
        "has_played": true,
        "id": 1161944,
        "last_rank": 3362,
        "player_name": "Rolland Seik Viland",
        "rank": 2145,
        "rank_sort": 2146,
        "total": 2433
      },
      {
        "club_badge_src": null,
        "entry": 2603780,
        "entry_name": "Pallet Town",
        "event_total": 74,
        "has_played": true,
        "id": 18702783,
        "last_rank": 3667,
        "player_name": "Bradley Norhcott",
        "rank": 2145,
        "rank_sort": 2147,
        "total": 2433
      },
      {
        "club_badge_src": null,
        "entry": 3368110,
        "entry_name": "Team K",
        "event_total": 61,
        "has_played": true,
        "id": 24993992,
        "last_rank": 1946,
        "player_name": "Kenny Simons",
        "rank": 2145,
        "rank_sort": 2148,
        "total": 2433
      },
      {
        "club_badge_src": null,
        "entry": 8886169,
        "entry_name": "MUSTAFA FC",
        "event_total": 68,
        "has_played": true,
        "id": 74374548,
        "last_rank": 3362,
        "player_name": "Mustafa Aziz",
        "rank": 2145,
        "rank_sort": 2149,
        "total": 2433
      },
      {
        "club_badge_src": null,
        "entry": 996046,
        "entry_name": "Change Name",
        "event_total": 64,
        "has_played": true,
        "id": 6876562,
        "last_rank": 1836,
        "player_name": "Scott Purvis",
        "rank": 2150,
        "rank_sort": 2150,
        "total": 2433
      }
    ]
  }
}