{
  "last_updated_data": "2026-05-24T23:28:17Z",
  "league": {
    "admin_entry": null,
    "closed": false,
    "code_privacy": "p",
    "created": "2025-07-20T23:14:33.933835Z",
    "cup_league": 2815434,
    "has_cup": true,
    "id": 314,
    "league_type": "s",
    "max_entries": null,
    "name": "Overall",
    "rank": null,
    "scoring": "c",
    "start_event": 1
  },
  "new_entries": {
    "has_next": false,
    "page": 1,
    "results": []
  },
  "standings": {
    "has_next": true,
    "page": 942,
    "results": [
      {
        "club_badge_src": null,
        "entry": 1239912,
        "entry_name": "Tota Mainoo",
        "event_total": 54,
        "has_played": true,
        "id": 8611179,
        "last_rank": 43168,
        "player_name": "Akshay Anand",
        "rank": 46967,
        "rank_sort": 47051,
        "total": 2354
      },
      {
        "club_badge_src": null,
        "entry": 1264086,
        "entry_name": "BrothersInArmstrong",
        "event_total": 52,
        "has_played": true,
        "id": 8782824,
        "last_rank": 40503,
        "player_name": "John Atherton",
        "rank": 46967,
        "rank_sort": 47052,
        "total": 2354
      },
      {
        "club_badge_src": null,
        "entry": 1264605,
        "entry_name": "Under My Cucurella",
        "event_total": 66,
        "has_played": true,
        "id": 8786550,
        "last_rank": 61950,
        "player_name": "Hector Cramme",
        "rank": 46967,
        "rank_sort": 47053,
        "total": 2354
      },
      {
        "club_badge_src": null,
        "entry": 1304125,
        "entry_name": "Unai for an Eye",
        "event_total": 79,
        "has_played": true,
        "id": 9064107,
        "last_rank": 88594,
        "player_name": "Luke Smith",
        "rank": 46967,
        "rank_sort": 47054,
        "total": 2354
      },
      {
        "club_badge_src": null,
        "entry": 1308340,
        "entry_name": "Wirtz my time",
        "event_total": 42,
        "has_played": true,
        "id": 9094006,
        "last_rank": 25172,
        "player_name": "Craig Halliburton",
        "rank": 46967,
        "rank_sort": 47055,
        "total": 2354
      },
      {
        "club_badge_src": null,
        "entry": 1332808,
        "entry_name": "Flashy FC",
        "event_total": 65,
        "has_played": true,
        "id": 9263830,
        "last_rank": 53345,
        "player_name": "Jordan Twerdun",
        "rank": 46967,
        "rank_sort": 47056,
        "total": 2354
      },
      {
        "club_badge_src": null,
        "entry": 1409128,
        "entry_name": "Red Devils",
        "event_total": 40,
        "has_played": true,
        "id": 9805082,
        "last_rank": 23522,
        "player_name": "Ryan Sami",
        "rank": 46967,
        "rank_sort": 47057,
        "total": 2354
      },
      {
        "club_badge_src": "https://fantasy.premierleague.com/gcs/plfpl-production-adobe-approved/plfpl-production/1456529/ad2fe095-2b26-434e-9317-1163e8fc241b.png",
        "entry": 1456529,
        "entry_name": "Bigdog FC",
        "event_total": 52,
        "has_played": true,
        "id": 10149336,
        "last_rank": 40503,
        "player_name": "Adam Borsos",
        "rank": 46967,
        "rank_sort": 47058,
        "total": 2354
      },
      {
        "club_badge_src": null,
        "entry": 1501414,
        "entry_name": "Beto Call Saul",
        "event_total": 58,
        "has_played": true,
        "id": 10470755,
        "last_rank": 42940,
        "player_name": "Arqam Javid",
        "rank": 46967,
        "rank_sort": 47059,
        "total": 2354
      },
      {
        "club_badge_src": null,
        "entry": 1526692,
        "entry_name": "Newcastle City Sr",
        "event_total": 61,
        "has_played": true,
        "id": 10648333,
        "last_rank": 47163,
        "player_name": "Dang Huy",
        "rank": 46967,
        "rank_sort": 47060,
        "total": 2354
      },
      {
        "club_badge_src": "https://fantasy.premierleague.com/gcs/plfpl-production-adobe-approved/plfpl-production/1551631/507155dc-5db5-45eb-8aa2-f82781722d28.png",
        "entry": 1551631,
        "entry_name": "MarescaBall@SW6",
        "event_total": 47,
        "has_played": true,
        "id": 10833581,
        "last_rank": 34458,
        "player_name": "Soham Chakraborty",
        "rank": 46967,
        "rank_sort": 47061,
        "total": 2354
      },
      {
        "club_badge_src": null,
        "entry": 1578398,
        "entry_name": "Some Players",
        "event_total": 64,
        "has_played": true,
        "id": 11029453,
        "last_rank": 45252,
        "player_name": "Glenn Holmes",
        "rank": 46967,
        "rank_sort": 47062,
        "total": 2354
      },
      {
        "club_badge_src": null,
        "entry": 1588883,
        "entry_name": "Farke the bus",
        "event_total": 53,
        "has_played": true,
        "id": 11108354,
        "last_rank": 41824,
        "player_name": "Faraz Bhamjee",
        "rank": 46967,
        "rank_sort": 47063,
        "total": 2354
      },
      {
        "club_badge_src": null,
        "entry": 1660695,
        "entry_name": "Bebo",
        "event_total": 40,
        "has_played": true,
        "id": 11626911,
        "last_rank": 27203,
        "player_name": "bebo samir",
        "rank": 46967,
        "rank_sort": 47064,
        "total": 2354
      },
      {
        "club_badge_src": "https://fantasy.premierleague.com/gcs/plfpl-production-adobe-approved/plfpl-production/1690858/39fd929a-c15a-4e76-8e93-a881f14be097.png",
        "entry": 1690858,
        "entry_name": "Challengers",
        "event_total": 64,
        "has_played": true,
        "id": 11841147,
        "last_rank": 58388,
        "player_name": "Salil Bapat",
        "rank": 46967,
        "rank_sort": 47065,
        "total": 2354
      },
      {
        "club_badge_src": null,
        "entry": 1702826,
        "entry_name": "Blois Whites",
        "event_total": 72,
        "has_played": true,
        "id": 11928441,
        "last_rank": 73720,
        "player_name": "Chris Chapman",
        "rank": 46967,
        "rank_sort": 47066,
        "total": 2354
      },
      {
        "club_badge_src": null,
        "entry": 1750762,
        "entry_name": "Itu kali lah",
        "event_total": 44,
        "has_played": true,
        "id": 12286792,
        "last_rank": 31125,
        "player_name": "Noah Father",
        "rank": 46967,
        "rank_sort": 47067,
        "total": 2354
      },
      {
        "club_badge_src": null,
        "entry": 1772788,
        "entry_name": "the best team",
        "event_total": 56,
        "has_played": true,
        "id": 12453630,
        "last_rank": 45714,
        "player_name": "Oussama Hamlaoui",
        "rank": 46967,
        "rank_sort": 47068,
        "total": 2354
      },
      {
        "club_badge_src": null,
        "entry": 1835466,
        "entry_name": "Brentford B team",
        "event_total": 58,
        "has_played": true,
        "id": 12911996,
        "last_rank": 48898,
        "player_name": "Joe Fenton",
        "rank": 46967,
        "rank_sort": 47069,
        "total": 2354
      },
      {
        "club_badge_src": null,
        "entry": 1850885,
        "entry_name": "BigDaddyFantasy",
        "event_total": 52,
        "has_played": true,
        "id": 13024129,
        "last_rank": 40036,
        "player_name": "Tor-Vegard Hansen",
        "rank": 46967,
        "rank_sort": 47070,
        "total": 2354
      },
      {
        "club_badge_src": null,
        "entry": 1868216,
        "entry_name": "Aura Farm FC",
        "event_total": 72,
        "has_played": true,
        "id": 13150526,
        "last_rank": 73038,
        "player_name": "Mykhailo Uhlov",
        "rank": 46967,
        "rank_sort": 47071,
        "total": 2354
      },
      {
        "club_badge_src": "https://fantasy.premierleague.com/gcs/plfpl-production-adobe-approved/plfpl-production/1923944/694610cc-361a-4e0e-bba8-965b9adaac68.png",
        "entry": 1923944,
        "entry_name": "Munchmallow",
        "event_total": 61,
        "has_played": true,
        "id": 13568411,
        "last_rank": 53621,
        "player_name": "Robert Alidini",
        "rank": 46967,
        "rank_sort": 47072,
        "total": 2354
      },
      {
        "club_badge_src": null,
        "entry": 1952437,
        "entry_name": "Flokason",
        "event_total": 82,
        "has_played": true,
        "id": 13772969,
        "last_rank": 96374,
        "player_name": "Arnar Fl\u00f3kason",
        "rank": 46967,
        "rank_sort": 47073,
        "total": 2354
      },
      {
        "club_badge_src": null,
        "entry": 1972778,
        "entry_name": "Rubenchod United",
        "event_total": 63,
        "has_played": true,
        "id": 13924345,
        "last_rank": 56708,
        "player_name": "Shahbaz Rahul",
        "rank": 46967,
        "rank_sort": 47074,
        "total": 2354
      },
      {
        "club_badge_src": null,
        "entry": 2089732,
        "entry_name": "Cirih",
        "event_total": 60,
        "has_played": true,
        "id": 14826117,
        "last_rank": 51984,
        "player_name": "Ilija Jovanovi\u0107",
        "rank": 46967,
        "rank_sort": 47075,
        "total": 2354
      },
      {
        "club_badge_src": null,
        "entry": 2093560,
        "entry_name": "Beef Cherki",
        "event_total": 68,
        "has_played": true,
        "id": 14853850,
        "last_rank": 58388,
        "player_name": "Ted Eatenton",
        "rank": 46967,
        "rank_sort": 47076,
        "total": 2354
      },
      {
        "club_badge_src": "https://fantasy.premierleague.com/gcs/plfpl-production-adobe-approved/plfpl-production/2097466/03260d62-e22e-4eab-b446-f92816679d53.png",
        "entry": 2097466,
        "entry_name": "Martason United",
        "event_total": 65,
        "has_played": true,
        "id": 14882068,
        "last_rank": 59813,
        "player_name": "Martin Mal\u00fd",
        "rank": 46967,
        "rank_sort": 47077,
        "total": 2354
      },
      {
        "club_badge_src": null,
        "entry": 2118210,
        "entry_name": "Charleys Champions",
        "event_total": 63,
        "has_played": true,
        "id": 15045727,
        "last_rank": 57001,
        "player_name": "Charley Worrall",
        "rank": 46967,
        "rank_sort": 47078,
        "total": 2354
      },
      {
        "club_badge_src": null,
        "entry": 2202928,
        "entry_name": "Bruno Dos Tres",
        "event_total": 55,
        "has_played": true,
        "id": 15677416,
        "last_rank": 44525,
        "player_name": "Louis Radcliffe",
        "rank": 46967,
        "rank_sort": 47079,
        "total": 2354
      },
      {
        "club_badge_src": null,
        "entry": 2247052,
        "entry_name": "Can it get any wirtz",
        "event_total": 71,
        "has_played": true,
        "id": 16009883,
        "last_rank": 71713,
        "player_name": "Ethan Gamble",
        "rank": 46967,
        "rank_sort": 47080,
        "total": 2354
      },
      {
        "club_badge_src": null,
        "entry": 2260996,
        "entry_name": "Rom fc",
        "event_total": 56,
        "has_played": true,
        "id": 16120058,
        "last_rank": 45927,
        "player_name": "Ing Yanclo",
        "rank": 46967,
        "rank_sort": 47081,
        "total": 2354
      },
      {
        "club_badge_src": "https://fantasy.premierleague.com/gcs/plfpl-production-adobe-approved/plfpl-production/2392179/b15b0dbc-d039-480d-928b-b5a57aa5dbdb.png",
        "entry": 2392179,
        "entry_name": "Team ParaDise",
        "event_total": 51,
        "has_played": true,
        "id": 17088344,
        "last_rank": 39403,
        "player_name": "Levi Davis",
        "rank": 46967,
        "rank_sort": 47082,
        "total": 2354
      },
      {
        "club_badge_src": null,
        "entry": 2475571,
        "entry_name": "These Charming Men",
        "event_total": 64,
        "has_played": true,
        "id": 17711586,
        "last_rank": 58688,
        "player_name": "Darren Wood",
        "rank": 46967,
        "rank_sort": 47083,
        "total": 2354
      },
      {
        "club_badge_src": null,
        "entry": 2494176,
        "entry_name": "M!LDSEVEN",
        "event_total": 61,
        "has_played": true,
        "id": 17856446,
        "last_rank": 53621,
        "player_name": "Woottikit Siricharthcai",
        "rank": 46967,
        "rank_sort": 47084,
        "total": 2354
      },
      {
        "club_badge_src": null,
        "entry": 2687851,
        "entry_name": "Mbeumooooooo",
        "event_total": 52,
        "has_played": true,
        "id": 19332404,
        "last_rank": 40647,
        "player_name": "costas papacostas",
        "rank": 46967,
        "rank_sort": 47085,
        "total": 2354
      },
      {
        "club_badge_src": "https://fantasy.premierleague.com/gcs/plfpl-production-adobe-approved/plfpl-production/2740426/26ea3819-2f21-4e16-8d63-e4ecaae63212.png",
        "entry": 2740426,
        "entry_name": "Urine Trouble",
        "event_total": 58,
        "has_played": true,
        "id": 19773051,
        "last_rank": 48642,
        "player_name": "Ian Epstein",
        "rank": 46967,
        "rank_sort": 47086,
        "total": 2354
      },
      {
        "club_badge_src": null,
        "entry": 2758100,
        "entry_name": "HappyFly",
        "event_total": 48,
        "has_played": true,
        "id": 20110383,
        "last_rank": 35424,
        "player_name": "\u00c5smund Flydal",
        "rank": 46967,
        "rank_sort": 47087,
        "total": 2354
      },
      {
        "club_badge_src": null,
        "entry": 2820891,
        "entry_name": "ahmedhq14",
        "event_total": 40,
        "has_played": true,
        "id": 20608276,
        "last_rank": 27304,
        "player_name": "Ahmed ALGUTHMI",
        "rank": 46967,
        "rank_sort": 47088,
        "total": 2354
      },
      {
        "club_badge_src": null,
        "entry": 2867240,
        "entry_name": "Lets be Frank!",
        "event_total": 54,
        "has_played": true,
        "id": 20970910,
        "last_rank": 43168,
        "player_name": "Johannes Ibdal",
        "rank": 46967,
        "rank_sort": 47089,
        "total": 2354
      },
      {
        "club_badge_src": null,
        "entry": 2892772,
        "entry_name": "Ekitike Taka",
        "event_total": 67,
        "has_played": true,
        "id": 21187272,
        "last_rank": 56369,
        "player_name": "Dave Stuart",
        "rank": 46967,
        "rank_sort": 47090,
        "total": 2354
      },
      {
        "club_badge_src": null,
        "entry": 2907925,
        "entry_name": "Specious reasoning",
        "event_total": 63,
        "has_played": true,
        "id": 21312040,
        "last_rank": 49880,
        "player_name": "Alex Chaplin",
        "rank": 46967,
        "rank_sort": 47091,
        "total": 2354
      },
      {
        "club_badge_src": null,
        "entry": 2974614,
        "entry_name": "ards fc",
        "event_total": 56,
        "has_played": true,
        "id": 21858158,
        "last_rank": 45927,
        "player_name": "jamie hunter",
        "rank": 46967,
        "rank_sort": 47092,
        "total": 2354
      },
      {
        "club_badge_src": null,
        "entry": 3035119,
        "entry_name": "Trevoh Chalobi-wan",
        "event_total": 70,
        "has_played": true,
        "id": 22337131,
        "last_rank": 69323,
        "player_name": "Sam Devitt",
        "rank": 46967,
        "rank_sort": 47093,
        "total": 2354
      },
      {
        "club_badge_src": null,
        "entry": 3040702,
        "entry_name": "Redemption FC",
        "event_total": 82,
        "has_played": true,
        "id": 22380914,
        "last_rank": 96777,
        "player_name": "Ziad Khan",
        "rank": 46967,
        "rank_sort": 47094,
        "total": 2354
      },
      {
        "club_badge_src": null,
        "entry": 3066214,
        "entry_name": "Ekitike Taka",
        "event_total": 53,
        "has_played": true,
        "id": 22576292,
        "last_rank": 41824,
        "player_name": "Ben Wille",
        "rank": 46967,
        "rank_sort": 47095,
        "total": 2354
      },
      {
        "club_badge_src": "https://fantasy.premierleague.com/gcs/plfpl-production-adobe-approved/plfpl-production/3134728/6d368c5e-1652-49b5-937a-bfe29e7d036f.png",
        "entry": 3134728,
        "entry_name": "The Strandalorian",
        "event_total": 80,
        "has_played": true,
        "id": 23138997,
        "last_rank": 91835,
        "player_name": "Dan Ravenscroft",
        "rank": 46967,
        "rank_sort": 47096,
        "total": 2354
      },
      {
        "club_badge_src": null,
        "entry": 3259519,
        "entry_name": "olala fc",
        "event_total": 53,
        "has_played": true,
        "id": 24118211,
        "last_rank": 36348,
        "player_name": "Dario Dragovic",
        "rank": 46967,
        "rank_sort": 47097,
        "total": 2354
      },
      {
        "club_badge_src": "https://fantasy.premierleague.com/gcs/plfpl-production-adobe-approved/plfpl-production/3291665/e0b347d9-40c8-4925-b48c-78e5c5996043.png",
        "entry": 3291665,
        "entry_name": "SerialJayWalkers",
        "event_total": 52,
        "has_played": true,
        "id": 24371889,
        "last_rank": 40647,
        "player_name": "Dominic McDowell",
        "rank": 46967,
        "rank_sort": 47098,
        "total": 2354
      },
      {
        "club_badge_src": null,
        "entry": 3311557,
        "entry_name": "Change Name",
        "event_total": 64,
        "has_played": true,
        "id": 24534936,
        "last_rank": 58071,
        "player_name": "paul Mason",
        "rank": 46967,
        "rank_sort": 47099,
        "total": 2354
      },
      {
        "club_badge_src": null,
        "entry": 3376811,
        "entry_name": "Corky United",
        "event_total": 73,
        "has_played": true,
        "id": 25064169,
        "last_rank": 75874,
        "player_name": "Aidan Kehoe",
        "rank": 46967,
        "rank_sort": 47100,
        "total": 2354
      }
    ]
  }
}