{
  "last_updated_data": "2026-05-24T23:28:17Z",
  "league": {
    "admin_entry": null,
    "closed": false,
    "code_privacy": "p",
    "created": "2025-07-20T23:14:33.933835Z",
    "cup_league": 2815434,
    "has_cup": true,
    "id": 314,
    "league_type": "s",
    "max_entries": null,
    "name": "Overall",
    "rank": null,
    "scoring": "c",
    "start_event": 1
  },
  "new_entries": {
    "has_next": false,
    "page": 1,
    "results": []
  },
  "standings": {
    "has_next": true,
    "page": 100,
    "results": [
      {
        "club_badge_src": null,
        "entry": 2622021,
        "entry_name": "Egg Gy\u00f6kes",
        "event_total": 54,
        "has_played": true,
        "id": 18840489,
        "last_rank": 3951,
        "player_name": "Sam Anthony",
        "rank": 4925,
        "rank_sort": 4951,
        "total": 2415
      },
      {
        "club_badge_src": null,
        "entry": 2685189,
        "entry_name": "TEEPEE",
        "event_total": 65,
        "has_played": true,
        "id": 19312582,
        "last_rank": 5448,
        "player_name": "Thomas Power",
        "rank": 4925,
        "rank_sort": 4952,
        "total": 2415
      },
      {
        "club_badge_src": null,
        "entry": 2686594,
        "entry_name": "Fugied",
        "event_total": 67,
        "has_played": true,
        "id": 19323262,
        "last_rank": 7141,
        "player_name": "Elphas Toreveyi",
        "rank": 4925,
        "rank_sort": 4953,
        "total": 2415
      },
      {
        "club_badge_src": null,
        "entry": 3302343,
        "entry_name": "WillyWombat 2",
        "event_total": 66,
        "has_played": true,
        "id": 24459389,
        "last_rank": 5646,
        "player_name": "William Madsen",
        "rank": 4925,
        "rank_sort": 4954,
        "total": 2415
      },
      {
        "club_badge_src": null,
        "entry": 3934304,
        "entry_name": "Kinder Mbeumo",
        "event_total": 66,
        "has_played": true,
        "id": 29591396,
        "last_rank": 6752,
        "player_name": "Kurt Kvalstad",
        "rank": 4925,
        "rank_sort": 4955,
        "total": 2415
      },
      {
        "club_badge_src": null,
        "entry": 4096364,
        "entry_name": "Piece of Art",
        "event_total": 66,
        "has_played": true,
        "id": 30930200,
        "last_rank": 5688,
        "player_name": "Artyom Aristov",
        "rank": 4925,
        "rank_sort": 4956,
        "total": 2415
      },
      {
        "club_badge_src": null,
        "entry": 4386497,
        "entry_name": "Out, damned Slot!",
        "event_total": 72,
        "has_played": true,
        "id": 33342659,
        "last_rank": 8758,
        "player_name": "David McManus",
        "rank": 4925,
        "rank_sort": 4957,
        "total": 2415
      },
      {
        "club_badge_src": null,
        "entry": 4655636,
        "entry_name": "Wirtz Nightmare",
        "event_total": 74,
        "has_played": true,
        "id": 35630839,
        "last_rank": 9644,
        "player_name": "Jack Denton",
        "rank": 4925,
        "rank_sort": 4958,
        "total": 2415
      },
      {
        "club_badge_src": null,
        "entry": 4840223,
        "entry_name": "Finding Yoro FC",
        "event_total": 47,
        "has_played": true,
        "id": 37285110,
        "last_rank": 2870,
        "player_name": "Soe Wint Naing",
        "rank": 4925,
        "rank_sort": 4959,
        "total": 2415
      },
      {
        "club_badge_src": null,
        "entry": 5073835,
        "entry_name": "Mandem FC",
        "event_total": 54,
        "has_played": true,
        "id": 39212009,
        "last_rank": 3257,
        "player_name": "Joseph Lim",
        "rank": 4925,
        "rank_sort": 4960,
        "total": 2415
      },
      {
        "club_badge_src": null,
        "entry": 5842011,
        "entry_name": "bunay 8",
        "event_total": 81,
        "has_played": true,
        "id": 45859845,
        "last_rank": 12846,
        "player_name": "Binyam Solomon",
        "rank": 4925,
        "rank_sort": 4961,
        "total": 2415
      },
      {
        "club_badge_src": "https://fantasy.premierleague.com/gcs/plfpl-production-adobe-approved/plfpl-production/6072899/a8a05ab2-3ac2-437a-a8f1-c52f4e3e2367.png",
        "entry": 6072899,
        "entry_name": "sponsored by saudi",
        "event_total": 47,
        "has_played": true,
        "id": 47939641,
        "last_rank": 2870,
        "player_name": "Joaquim Verlsycke",
        "rank": 4925,
        "rank_sort": 4962,
        "total": 2415
      },
      {
        "club_badge_src": null,
        "entry": 6490210,
        "entry_name": "Buggas",
        "event_total": 65,
        "has_played": true,
        "id": 51735456,
        "last_rank": 6409,
        "player_name": "Hugo Stenquist",
        "rank": 4925,
        "rank_sort": 4963,
        "total": 2415
      },
      {
        "club_badge_src": null,
        "entry": 7317910,
        "entry_name": "Team Ingebretsen",
        "event_total": 67,
        "has_played": true,
        "id": 59244489,
        "last_rank": 5940,
        "player_name": "\u00c5dne ingebretsen",
        "rank": 4925,
        "rank_sort": 4964,
        "total": 2415
      },
      {
        "club_badge_src": null,
        "entry": 8399748,
        "entry_name": "SU30MKM",
        "event_total": 68,
        "has_played": true,
        "id": 69675571,
        "last_rank": 7333,
        "player_name": "Vishalaendra Devindran",
        "rank": 4925,
        "rank_sort": 4965,
        "total": 2415
      },
      {
        "club_badge_src": null,
        "entry": 9194163,
        "entry_name": "Chris Stian United",
        "event_total": 42,
        "has_played": true,
        "id": 77376597,
        "last_rank": 2189,
        "player_name": "Christian Lie Ulfsrud",
        "rank": 4925,
        "rank_sort": 4966,
        "total": 2415
      },
      {
        "club_badge_src": null,
        "entry": 9400265,
        "entry_name": "Leyden Orient",
        "event_total": 69,
        "has_played": true,
        "id": 79375875,
        "last_rank": 7761,
        "player_name": "Reuben Leyden",
        "rank": 4925,
        "rank_sort": 4967,
        "total": 2415
      },
      {
        "club_badge_src": "https://fantasy.premierleague.com/gcs/plfpl-production-adobe-approved/plfpl-production/15970/dfecf1bb-e01e-40e0-aaf6-6a7684737407.png",
        "entry": 15970,
        "entry_name": "London Red",
        "event_total": 66,
        "has_played": true,
        "id": 98402,
        "last_rank": 6887,
        "player_name": "Kevin Chan",
        "rank": 4968,
        "rank_sort": 4968,
        "total": 2415
      },
      {
        "club_badge_src": null,
        "entry": 18518,
        "entry_name": "Mastero",
        "event_total": 66,
        "has_played": true,
        "id": 115220,
        "last_rank": 6839,
        "player_name": "Sanjeeb Khadka",
        "rank": 4968,
        "rank_sort": 4969,
        "total": 2415
      },
      {
        "club_badge_src": null,
        "entry": 48319,
        "entry_name": "Cunha dig it, Saka",
        "event_total": 44,
        "has_played": true,
        "id": 310241,
        "last_rank": 2482,
        "player_name": "James Ioannou",
        "rank": 4968,
        "rank_sort": 4970,
        "total": 2415
      },
      {
        "club_badge_src": "https://fantasy.premierleague.com/gcs/plfpl-production-adobe-approved/plfpl-production/51228/f8402a8c-41dc-4bed-baea-181bf339660f.png",
        "entry": 51228,
        "entry_name": "Blue Moon Rising",
        "event_total": 60,
        "has_played": true,
        "id": 329469,
        "last_rank": 5241,
        "player_name": "Daniel Gregory",
        "rank": 4968,
        "rank_sort": 4971,
        "total": 2415
      },
      {
        "club_badge_src": null,
        "entry": 55079,
        "entry_name": "Just too Eze",
        "event_total": 58,
        "has_played": true,
        "id": 354489,
        "last_rank": 4839,
        "player_name": "Jac Benjamin",
        "rank": 4968,
        "rank_sort": 4972,
        "total": 2415
      },
      {
        "club_badge_src": null,
        "entry": 105603,
        "entry_name": "Shed XI",
        "event_total": 55,
        "has_played": true,
        "id": 688750,
        "last_rank": 3442,
        "player_name": "Tim Davis",
        "rank": 4968,
        "rank_sort": 4973,
        "total": 2415
      },
      {
        "club_badge_src": null,
        "entry": 121514,
        "entry_name": "LalaMoSa Bayern",
        "event_total": 63,
        "has_played": true,
        "id": 792848,
        "last_rank": 5011,
        "player_name": "Mohammad Sajjad",
        "rank": 4968,
        "rank_sort": 4974,
        "total": 2415
      },
      {
        "club_badge_src": null,
        "entry": 391005,
        "entry_name": "Dyballer",
        "event_total": 67,
        "has_played": true,
        "id": 2622775,
        "last_rank": 6011,
        "player_name": "Qais Ahmed",
        "rank": 4968,
        "rank_sort": 4975,
        "total": 2415
      },
      {
        "club_badge_src": "https://fantasy.premierleague.com/gcs/plfpl-production-adobe-approved/plfpl-production/413736/69dd74b8-ed27-4177-8e50-04429234d336.png",
        "entry": 413736,
        "entry_name": "YNWA\u2b50\ufe0f\u2600",
        "event_total": 73,
        "has_played": true,
        "id": 2773752,
        "last_rank": 7761,
        "player_name": "Wanut Rutchanantagul",
        "rank": 4968,
        "rank_sort": 4976,
        "total": 2415
      },
      {
        "club_badge_src": null,
        "entry": 577603,
        "entry_name": "ToffeeTozer FC",
        "event_total": 65,
        "has_played": true,
        "id": 3886623,
        "last_rank": 6579,
        "player_name": "Mark Tozer",
        "rank": 4968,
        "rank_sort": 4977,
        "total": 2415
      },
      {
        "club_badge_src": null,
        "entry": 609975,
        "entry_name": "Moonlight togers",
        "event_total": 72,
        "has_played": true,
        "id": 4120724,
        "last_rank": 6194,
        "player_name": "James Busby",
        "rank": 4968,
        "rank_sort": 4978,
        "total": 2415
      },
      {
        "club_badge_src": null,
        "entry": 710524,
        "entry_name": "Whatever",
        "event_total": 66,
        "has_played": true,
        "id": 4818596,
        "last_rank": 6887,
        "player_name": "Peter Manning",
        "rank": 4968,
        "rank_sort": 4979,
        "total": 2415
      },
      {
        "club_badge_src": null,
        "entry": 934724,
        "entry_name": "Tr\u00f8nderbataljonen",
        "event_total": 64,
        "has_played": true,
        "id": 6432369,
        "last_rank": 6305,
        "player_name": "Gabriel Steinsbekk",
        "rank": 4968,
        "rank_sort": 4980,
        "total": 2415
      },
      {
        "club_badge_src": null,
        "entry": 1476224,
        "entry_name": "Salt-N-Pepe",
        "event_total": 72,
        "has_played": true,
        "id": 10290575,
        "last_rank": 8854,
        "player_name": "Leah Vasconcelos",
        "rank": 4968,
        "rank_sort": 4981,
        "total": 2415
      },
      {
        "club_badge_src": null,
        "entry": 1752066,
        "entry_name": "Boomshakers",
        "event_total": 64,
        "has_played": true,
        "id": 12296278,
        "last_rank": 5241,
        "player_name": "Richard Eteen",
        "rank": 4968,
        "rank_sort": 4982,
        "total": 2415
      },
      {
        "club_badge_src": null,
        "entry": 2203544,
        "entry_name": "Postman14",
        "event_total": 56,
        "has_played": true,
        "id": 15681874,
        "last_rank": 3601,
        "player_name": "alkhc christofi",
        "rank": 4968,
        "rank_sort": 4983,
        "total": 2415
      },
      {
        "club_badge_src": null,
        "entry": 2355390,
        "entry_name": "Chupacabras",
        "event_total": 78,
        "has_played": true,
        "id": 16806578,
        "last_rank": 11345,
        "player_name": "Robert Vaughan",
        "rank": 4968,
        "rank_sort": 4984,
        "total": 2415
      },
      {
        "club_badge_src": null,
        "entry": 2403179,
        "entry_name": "AntiArgentina",
        "event_total": 57,
        "has_played": true,
        "id": 17176706,
        "last_rank": 4615,
        "player_name": "Alvaro Carbonell",
        "rank": 4968,
        "rank_sort": 4985,
        "total": 2415
      },
      {
        "club_badge_src": null,
        "entry": 2518090,
        "entry_name": "Conway Or Another",
        "event_total": 57,
        "has_played": true,
        "id": 18041698,
        "last_rank": 4570,
        "player_name": "Conor Askins",
        "rank": 4968,
        "rank_sort": 4986,
        "total": 2415
      },
      {
        "club_badge_src": null,
        "entry": 3343143,
        "entry_name": "ARSENAL",
        "event_total": 53,
        "has_played": true,
        "id": 24797981,
        "last_rank": 3796,
        "player_name": "FAISAL ALSHEWAIRED",
        "rank": 4968,
        "rank_sort": 4987,
        "total": 2415
      },
      {
        "club_badge_src": null,
        "entry": 3543813,
        "entry_name": "ABDERRAHMANe\ufffd77",
        "event_total": 74,
        "has_played": true,
        "id": 26380001,
        "last_rank": 8138,
        "player_name": "Abderrahmane Adjaout",
        "rank": 4968,
        "rank_sort": 4988,
        "total": 2415
      },
      {
        "club_badge_src": "https://fantasy.premierleague.com/gcs/plfpl-production-adobe-approved/plfpl-production/3822692/0b4e66d0-2ad3-4049-a556-56e39bcd0e2a.png",
        "entry": 3822692,
        "entry_name": "TheBurnIdentity",
        "event_total": 58,
        "has_played": true,
        "id": 28591570,
        "last_rank": 4804,
        "player_name": "Sam Bailey",
        "rank": 4968,
        "rank_sort": 4989,
        "total": 2415
      },
      {
        "club_badge_src": "https://fantasy.premierleague.com/gcs/plfpl-production-adobe-approved/plfpl-production/4322955/410fe9b2-65d7-4a81-b76c-8b8dd15e43dd.png",
        "entry": 4322955,
        "entry_name": "Raymondreddingdton",
        "event_total": 67,
        "has_played": true,
        "id": 32808491,
        "last_rank": 7141,
        "player_name": "fabian bryan",
        "rank": 4968,
        "rank_sort": 4990,
        "total": 2415
      },
      {
        "club_badge_src": null,
        "entry": 4506723,
        "entry_name": "FreaK FC",
        "event_total": 67,
        "has_played": true,
        "id": 34361662,
        "last_rank": 6011,
        "player_name": "David Watkins",
        "rank": 4968,
        "rank_sort": 4991,
        "total": 2415
      },
      {
        "club_badge_src": null,
        "entry": 4701604,
        "entry_name": "Bruisers",
        "event_total": 63,
        "has_played": true,
        "id": 36043678,
        "last_rank": 4954,
        "player_name": "David Cattaneo",
        "rank": 4968,
        "rank_sort": 4992,
        "total": 2415
      },
      {
        "club_badge_src": null,
        "entry": 5576741,
        "entry_name": "Sector Seven FC",
        "event_total": 76,
        "has_played": true,
        "id": 43551896,
        "last_rank": 10556,
        "player_name": "Ross Murray",
        "rank": 4968,
        "rank_sort": 4993,
        "total": 2415
      },
      {
        "club_badge_src": null,
        "entry": 6977370,
        "entry_name": "Tomeritanio",
        "event_total": 68,
        "has_played": true,
        "id": 55988017,
        "last_rank": 7450,
        "player_name": "Tomer Gal",
        "rank": 4968,
        "rank_sort": 4994,
        "total": 2415
      },
      {
        "club_badge_src": null,
        "entry": 8278325,
        "entry_name": "Madders United",
        "event_total": 63,
        "has_played": true,
        "id": 68493340,
        "last_rank": 6061,
        "player_name": "Maddy Brookes-Dodd",
        "rank": 4968,
        "rank_sort": 4995,
        "total": 2415
      },
      {
        "club_badge_src": null,
        "entry": 8407359,
        "entry_name": "Meow FC",
        "event_total": 62,
        "has_played": true,
        "id": 69746700,
        "last_rank": 5752,
        "player_name": "Peter Greenwood",
        "rank": 4968,
        "rank_sort": 4996,
        "total": 2415
      },
      {
        "club_badge_src": "https://fantasy.premierleague.com/gcs/plfpl-production-adobe-approved/plfpl-production/4096/8deb9370-5929-440f-b6e6-7e8bfb60a3d6.png",
        "entry": 4096,
        "entry_name": "Main Nut",
        "event_total": 71,
        "has_played": true,
        "id": 23246,
        "last_rank": 7193,
        "player_name": "Donatello Appreciator",
        "rank": 4997,
        "rank_sort": 4997,
        "total": 2415
      },
      {
        "club_badge_src": null,
        "entry": 19436,
        "entry_name": "Volcano",
        "event_total": 53,
        "has_played": true,
        "id": 120933,
        "last_rank": 3175,
        "player_name": "ahmed khaled",
        "rank": 4997,
        "rank_sort": 4998,
        "total": 2415
      },
      {
        "club_badge_src": null,
        "entry": 29704,
        "entry_name": "fpl_liam's XI",
        "event_total": 60,
        "has_played": true,
        "id": 187896,
        "last_rank": 5313,
        "player_name": "Liam Hamama",
        "rank": 4997,
        "rank_sort": 4999,
        "total": 2415
      },
      {
        "club_badge_src": null,
        "entry": 44562,
        "entry_name": "Going Honkers",
        "event_total": 57,
        "has_played": true,
        "id": 285606,
        "last_rank": 3103,
        "player_name": "Max Downton",
        "rank": 4997,
        "rank_sort": 5000,
        "total": 2415
      }
    ]
  }
}