{
  "last_updated_data": "2026-05-24T23:28:17Z",
  "league": {
    "admin_entry": null,
    "closed": false,
    "code_privacy": "p",
    "created": "2025-07-20T23:14:33.933835Z",
    "cup_league": 2815434,
    "has_cup": true,
    "id": 314,
    "league_type": "s",
    "max_entries": null,
    "name": "Overall",
    "rank": null,
    "scoring": "c",
    "start_event": 1
  },
  "new_entries": {
    "has_next": false,
    "page": 1,
    "results": []
  },
  "standings": {
    "has_next": true,
    "page": 82,
    "results": [
      {
        "club_badge_src": null,
        "entry": 2024256,
        "entry_name": "Aujan",
        "event_total": 51,
        "has_played": true,
        "id": 14325756,
        "last_rank": 2802,
        "player_name": "Abdullah AlAujan",
        "rank": 4045,
        "rank_sort": 4051,
        "total": 2419
      },
      {
        "club_badge_src": null,
        "entry": 2523874,
        "entry_name": "TBC",
        "event_total": 85,
        "has_played": true,
        "id": 18084668,
        "last_rank": 12599,
        "player_name": "Seho Han-Ch\u00e1vez",
        "rank": 4045,
        "rank_sort": 4052,
        "total": 2419
      },
      {
        "club_badge_src": null,
        "entry": 3169006,
        "entry_name": "Can't get any Wirtz",
        "event_total": 66,
        "has_played": true,
        "id": 23413237,
        "last_rank": 5646,
        "player_name": "Becky Woodhouse",
        "rank": 4045,
        "rank_sort": 4053,
        "total": 2419
      },
      {
        "club_badge_src": null,
        "entry": 3212737,
        "entry_name": "Russell'd Up",
        "event_total": 52,
        "has_played": true,
        "id": 23752849,
        "last_rank": 2945,
        "player_name": "Sam Russell",
        "rank": 4045,
        "rank_sort": 4054,
        "total": 2419
      },
      {
        "club_badge_src": "https://fantasy.premierleague.com/gcs/plfpl-production-adobe-approved/plfpl-production/6669852/41565519-c4c2-4f23-8738-221e906ba8bd.png",
        "entry": 6669852,
        "entry_name": "Change Name",
        "event_total": 77,
        "has_played": true,
        "id": 53343415,
        "last_rank": 9065,
        "player_name": "Myles Driver",
        "rank": 4045,
        "rank_sort": 4055,
        "total": 2419
      },
      {
        "club_badge_src": null,
        "entry": 6799475,
        "entry_name": "Swindon Slugs",
        "event_total": 47,
        "has_played": true,
        "id": 54451913,
        "last_rank": 2280,
        "player_name": "Ash Taylor",
        "rank": 4045,
        "rank_sort": 4056,
        "total": 2419
      },
      {
        "club_badge_src": "https://fantasy.premierleague.com/gcs/plfpl-production-adobe-approved/plfpl-production/6996653/b0248403-70f9-46c8-bd13-9d9e9572ca84.png",
        "entry": 6996653,
        "entry_name": "Limerick_FC",
        "event_total": 57,
        "has_played": true,
        "id": 56171090,
        "last_rank": 3721,
        "player_name": "Stian Kvalvaag",
        "rank": 4045,
        "rank_sort": 4057,
        "total": 2419
      },
      {
        "club_badge_src": null,
        "entry": 7046936,
        "entry_name": "Boom Xhakalaka",
        "event_total": 63,
        "has_played": true,
        "id": 56667552,
        "last_rank": 4930,
        "player_name": "Khalid Alenezi",
        "rank": 4045,
        "rank_sort": 4058,
        "total": 2419
      },
      {
        "club_badge_src": null,
        "entry": 8363582,
        "entry_name": "Shellz XI",
        "event_total": 70,
        "has_played": true,
        "id": 69333489,
        "last_rank": 6687,
        "player_name": "Will Shelley",
        "rank": 4045,
        "rank_sort": 4059,
        "total": 2419
      },
      {
        "club_badge_src": "https://fantasy.premierleague.com/gcs/plfpl-production-adobe-approved/plfpl-production/722/4f4989c4-8afa-4695-a38a-a75c4789d4b2.png",
        "entry": 722,
        "entry_name": "1",
        "event_total": 51,
        "has_played": true,
        "id": 3987,
        "last_rank": 2802,
        "player_name": "David Bennett",
        "rank": 4060,
        "rank_sort": 4060,
        "total": 2419
      },
      {
        "club_badge_src": "https://fantasy.premierleague.com/gcs/plfpl-production-adobe-approved/plfpl-production/10533/5cbe4841-105b-40b9-bfdd-2549822afe3a.png",
        "entry": 10533,
        "entry_name": "Dullta Force",
        "event_total": 43,
        "has_played": true,
        "id": 62326,
        "last_rank": 1856,
        "player_name": "Robert Hodges",
        "rank": 4060,
        "rank_sort": 4061,
        "total": 2419
      },
      {
        "club_badge_src": null,
        "entry": 25612,
        "entry_name": "Calcio",
        "event_total": 77,
        "has_played": true,
        "id": 162017,
        "last_rank": 9077,
        "player_name": "Naoto Nishimura",
        "rank": 4060,
        "rank_sort": 4062,
        "total": 2419
      },
      {
        "club_badge_src": null,
        "entry": 27076,
        "entry_name": "Never die",
        "event_total": 66,
        "has_played": true,
        "id": 171183,
        "last_rank": 5646,
        "player_name": "Jussi Hokkinen",
        "rank": 4060,
        "rank_sort": 4063,
        "total": 2419
      },
      {
        "club_badge_src": null,
        "entry": 35920,
        "entry_name": "VAR VAR away",
        "event_total": 58,
        "has_played": true,
        "id": 229880,
        "last_rank": 3951,
        "player_name": "Angelo Nicoli",
        "rank": 4060,
        "rank_sort": 4064,
        "total": 2419
      },
      {
        "club_badge_src": "https://fantasy.premierleague.com/gcs/plfpl-production-adobe-approved/plfpl-production/41581/aece8572-13b2-44de-b20c-645d2b4a46a6.png",
        "entry": 41581,
        "entry_name": "Inter Stella",
        "event_total": 62,
        "has_played": true,
        "id": 266420,
        "last_rank": 4742,
        "player_name": "Ross Jenkinson",
        "rank": 4060,
        "rank_sort": 4065,
        "total": 2419
      },
      {
        "club_badge_src": null,
        "entry": 66816,
        "entry_name": "Sinclair Select",
        "event_total": 49,
        "has_played": true,
        "id": 432275,
        "last_rank": 2553,
        "player_name": "Finlay Sinclair",
        "rank": 4060,
        "rank_sort": 4066,
        "total": 2419
      },
      {
        "club_badge_src": null,
        "entry": 70908,
        "entry_name": "2500",
        "event_total": 70,
        "has_played": true,
        "id": 460491,
        "last_rank": 6839,
        "player_name": "Zheng Xu",
        "rank": 4060,
        "rank_sort": 4067,
        "total": 2419
      },
      {
        "club_badge_src": null,
        "entry": 75545,
        "entry_name": "Redcar Exiles",
        "event_total": 72,
        "has_played": true,
        "id": 491158,
        "last_rank": 7310,
        "player_name": "Stuart Dickson",
        "rank": 4060,
        "rank_sort": 4068,
        "total": 2419
      },
      {
        "club_badge_src": null,
        "entry": 77337,
        "entry_name": "Poison Lasagna AC",
        "event_total": 44,
        "has_played": true,
        "id": 502654,
        "last_rank": 1978,
        "player_name": "Jack Brotchie",
        "rank": 4060,
        "rank_sort": 4069,
        "total": 2419
      },
      {
        "club_badge_src": null,
        "entry": 102896,
        "entry_name": "ArWangFC",
        "event_total": 65,
        "has_played": true,
        "id": 671418,
        "last_rank": 5400,
        "player_name": "Tanakorn Akkasela",
        "rank": 4060,
        "rank_sort": 4070,
        "total": 2419
      },
      {
        "club_badge_src": null,
        "entry": 109270,
        "entry_name": "GreedyGoat",
        "event_total": 67,
        "has_played": true,
        "id": 712431,
        "last_rank": 5940,
        "player_name": "Evelyn Kirkham",
        "rank": 4060,
        "rank_sort": 4071,
        "total": 2419
      },
      {
        "club_badge_src": null,
        "entry": 138048,
        "entry_name": "Tetney Hackers",
        "event_total": 66,
        "has_played": true,
        "id": 900289,
        "last_rank": 5646,
        "player_name": "Ian Burke",
        "rank": 4060,
        "rank_sort": 4072,
        "total": 2419
      },
      {
        "club_badge_src": null,
        "entry": 157321,
        "entry_name": "Shaw Ate Dalot",
        "event_total": 65,
        "has_played": true,
        "id": 1034933,
        "last_rank": 5386,
        "player_name": "Shakeel Musa",
        "rank": 4060,
        "rank_sort": 4073,
        "total": 2419
      },
      {
        "club_badge_src": null,
        "entry": 175520,
        "entry_name": "Lilyrosemary",
        "event_total": 62,
        "has_played": true,
        "id": 1158808,
        "last_rank": 4704,
        "player_name": "ville fr\u00f6jdh",
        "rank": 4060,
        "rank_sort": 4074,
        "total": 2419
      },
      {
        "club_badge_src": null,
        "entry": 187511,
        "entry_name": "Cobble FC",
        "event_total": 53,
        "has_played": true,
        "id": 1239882,
        "last_rank": 3103,
        "player_name": "Daniel Cobble",
        "rank": 4060,
        "rank_sort": 4075,
        "total": 2419
      },
      {
        "club_badge_src": null,
        "entry": 248178,
        "entry_name": "Bluemooners",
        "event_total": 68,
        "has_played": true,
        "id": 1651824,
        "last_rank": 6166,
        "player_name": "Mark Phillips",
        "rank": 4060,
        "rank_sort": 4076,
        "total": 2419
      },
      {
        "club_badge_src": "https://fantasy.premierleague.com/gcs/plfpl-production-adobe-approved/plfpl-production/298153/fe156f0a-dad6-49df-98a0-49168d597404.png",
        "entry": 298153,
        "entry_name": "CooBoo's Revenge",
        "event_total": 65,
        "has_played": true,
        "id": 1993183,
        "last_rank": 5400,
        "player_name": "Josh Nye",
        "rank": 4060,
        "rank_sort": 4077,
        "total": 2419
      },
      {
        "club_badge_src": null,
        "entry": 368890,
        "entry_name": "kinder mbuemo",
        "event_total": 66,
        "has_played": true,
        "id": 2468549,
        "last_rank": 5646,
        "player_name": "Aaron C",
        "rank": 4060,
        "rank_sort": 4078,
        "total": 2419
      },
      {
        "club_badge_src": null,
        "entry": 447224,
        "entry_name": "vervgr1",
        "event_total": 87,
        "has_played": true,
        "id": 2999860,
        "last_rank": 13947,
        "player_name": "John Synnes",
        "rank": 4060,
        "rank_sort": 4079,
        "total": 2419
      },
      {
        "club_badge_src": null,
        "entry": 622987,
        "entry_name": "Victory Delap FC",
        "event_total": 60,
        "has_played": true,
        "id": 4210142,
        "last_rank": 4303,
        "player_name": "Arman Khondker",
        "rank": 4060,
        "rank_sort": 4080,
        "total": 2419
      },
      {
        "club_badge_src": null,
        "entry": 708434,
        "entry_name": "Rice & Shine",
        "event_total": 71,
        "has_played": true,
        "id": 4801522,
        "last_rank": 7000,
        "player_name": "Will Pearce",
        "rank": 4060,
        "rank_sort": 4081,
        "total": 2419
      },
      {
        "club_badge_src": null,
        "entry": 712888,
        "entry_name": "AsaAri United",
        "event_total": 52,
        "has_played": true,
        "id": 4836152,
        "last_rank": 2952,
        "player_name": "Majid Mehdizadeh-Valoujerdy",
        "rank": 4060,
        "rank_sort": 4082,
        "total": 2419
      },
      {
        "club_badge_src": null,
        "entry": 865835,
        "entry_name": "Slots Machines",
        "event_total": 64,
        "has_played": true,
        "id": 5935697,
        "last_rank": 5147,
        "player_name": "victor Twynstra",
        "rank": 4060,
        "rank_sort": 4083,
        "total": 2419
      },
      {
        "club_badge_src": null,
        "entry": 936212,
        "entry_name": "Saka Potatoes",
        "event_total": 61,
        "has_played": true,
        "id": 6442870,
        "last_rank": 4515,
        "player_name": "Nathan Delang",
        "rank": 4060,
        "rank_sort": 4084,
        "total": 2419
      },
      {
        "club_badge_src": null,
        "entry": 1086288,
        "entry_name": "Oh it doesn't mata",
        "event_total": 49,
        "has_played": true,
        "id": 7522940,
        "last_rank": 2553,
        "player_name": "Stewart Thomson",
        "rank": 4060,
        "rank_sort": 4085,
        "total": 2419
      },
      {
        "club_badge_src": null,
        "entry": 1255801,
        "entry_name": "AFC United",
        "event_total": 56,
        "has_played": true,
        "id": 8722693,
        "last_rank": 3562,
        "player_name": "ANDREW CAMPBELL",
        "rank": 4060,
        "rank_sort": 4086,
        "total": 2419
      },
      {
        "club_badge_src": null,
        "entry": 1354157,
        "entry_name": "ZIZIE",
        "event_total": 70,
        "has_played": true,
        "id": 9413534,
        "last_rank": 6677,
        "player_name": "Mohd Azizi Hazwan Hashim",
        "rank": 4060,
        "rank_sort": 4087,
        "total": 2419
      },
      {
        "club_badge_src": "https://fantasy.premierleague.com/gcs/plfpl-production-adobe-approved/plfpl-production/1386803/db155216-8dc4-4ec8-8206-ae9ea77a6e70.png",
        "entry": 1386803,
        "entry_name": "Fred GOAT",
        "event_total": 74,
        "has_played": true,
        "id": 9645776,
        "last_rank": 7979,
        "player_name": "Luke Coleman-Evans",
        "rank": 4060,
        "rank_sort": 4088,
        "total": 2419
      },
      {
        "club_badge_src": "https://fantasy.premierleague.com/gcs/plfpl-production-adobe-approved/plfpl-production/1537503/ec03f4ed-5db8-4f23-b761-af80f0e0c03d.png",
        "entry": 1537503,
        "entry_name": "Star Team",
        "event_total": 69,
        "has_played": true,
        "id": 10730437,
        "last_rank": 6448,
        "player_name": "Manuel Cosentino",
        "rank": 4060,
        "rank_sort": 4089,
        "total": 2419
      },
      {
        "club_badge_src": null,
        "entry": 1590636,
        "entry_name": "Davran XI",
        "event_total": 81,
        "has_played": true,
        "id": 11122241,
        "last_rank": 10720,
        "player_name": "David Ranstr\u00f8m",
        "rank": 4060,
        "rank_sort": 4090,
        "total": 2419
      },
      {
        "club_badge_src": null,
        "entry": 1932462,
        "entry_name": "Rytof F-Club",
        "event_total": 52,
        "has_played": true,
        "id": 13629444,
        "last_rank": 2977,
        "player_name": "Joe Bendaoud",
        "rank": 4060,
        "rank_sort": 4091,
        "total": 2419
      },
      {
        "club_badge_src": null,
        "entry": 2178662,
        "entry_name": "Heikkis Heroes",
        "event_total": 47,
        "has_played": true,
        "id": 15494088,
        "last_rank": 2280,
        "player_name": "Anders Hedman",
        "rank": 4060,
        "rank_sort": 4092,
        "total": 2419
      },
      {
        "club_badge_src": null,
        "entry": 2407920,
        "entry_name": "Shakhtar Collonge",
        "event_total": 65,
        "has_played": true,
        "id": 17211477,
        "last_rank": 5400,
        "player_name": "Kiril Karl",
        "rank": 4060,
        "rank_sort": 4093,
        "total": 2419
      },
      {
        "club_badge_src": null,
        "entry": 2462869,
        "entry_name": "Gooner Time",
        "event_total": 50,
        "has_played": true,
        "id": 17617016,
        "last_rank": 2685,
        "player_name": "Adam Gausepohl",
        "rank": 4060,
        "rank_sort": 4094,
        "total": 2419
      },
      {
        "club_badge_src": null,
        "entry": 2617051,
        "entry_name": "DrunkDJs",
        "event_total": 65,
        "has_played": true,
        "id": 18804242,
        "last_rank": 5448,
        "player_name": "Tomasz Matuszczyk",
        "rank": 4060,
        "rank_sort": 4095,
        "total": 2419
      },
      {
        "club_badge_src": null,
        "entry": 2668054,
        "entry_name": "anan",
        "event_total": 32,
        "has_played": true,
        "id": 19181877,
        "last_rank": 1079,
        "player_name": "Anan Tamimi",
        "rank": 4060,
        "rank_sort": 4096,
        "total": 2419
      },
      {
        "club_badge_src": null,
        "entry": 2982376,
        "entry_name": "Decibel Bellinis",
        "event_total": 62,
        "has_played": true,
        "id": 21927816,
        "last_rank": 4742,
        "player_name": "Simon Stapnes",
        "rank": 4060,
        "rank_sort": 4097,
        "total": 2419
      },
      {
        "club_badge_src": null,
        "entry": 3200903,
        "entry_name": "Kinder Mbeumo",
        "event_total": 70,
        "has_played": true,
        "id": 23661409,
        "last_rank": 6752,
        "player_name": "Craig Griffin",
        "rank": 4060,
        "rank_sort": 4098,
        "total": 2419
      },
      {
        "club_badge_src": "https://fantasy.premierleague.com/gcs/plfpl-production-adobe-approved/plfpl-production/3224608/fdb3c17f-3f14-43f8-a657-8b4fca2f4683.png",
        "entry": 3224608,
        "entry_name": "AAAAAAAAAAAAA",
        "event_total": 60,
        "has_played": true,
        "id": 23846397,
        "last_rank": 4303,
        "player_name": "Alibek Amanbayev",
        "rank": 4060,
        "rank_sort": 4099,
        "total": 2419
      },
      {
        "club_badge_src": null,
        "entry": 3913621,
        "entry_name": "CescOnTheBench",
        "event_total": 49,
        "has_played": true,
        "id": 29426535,
        "last_rank": 2553,
        "player_name": "Filip Radovanovic",
        "rank": 4060,
        "rank_sort": 4100,
        "total": 2419
      }
    ]
  }
}