{
  "last_updated_data": "2026-05-24T23:28:17Z",
  "league": {
    "admin_entry": null,
    "closed": false,
    "code_privacy": "p",
    "created": "2025-07-20T23:14:33.933835Z",
    "cup_league": 2815434,
    "has_cup": true,
    "id": 314,
    "league_type": "s",
    "max_entries": null,
    "name": "Overall",
    "rank": null,
    "scoring": "c",
    "start_event": 1
  },
  "new_entries": {
    "has_next": false,
    "page": 1,
    "results": []
  },
  "standings": {
    "has_next": true,
    "page": 998,
    "results": [
      {
        "club_badge_src": null,
        "entry": 1206176,
        "entry_name": "Wael Rooney",
        "event_total": 90,
        "has_played": true,
        "id": 8370595,
        "last_rank": 123908,
        "player_name": "Wael Ahmed",
        "rank": 49730,
        "rank_sort": 49851,
        "total": 2352
      },
      {
        "club_badge_src": null,
        "entry": 1206617,
        "entry_name": "Blue is the colour",
        "event_total": 61,
        "has_played": true,
        "id": 8373778,
        "last_rank": 49880,
        "player_name": "Nasser Alotaibi",
        "rank": 49730,
        "rank_sort": 49852,
        "total": 2352
      },
      {
        "club_badge_src": null,
        "entry": 1243943,
        "entry_name": "AU FC",
        "event_total": 60,
        "has_played": true,
        "id": 8639222,
        "last_rank": 48363,
        "player_name": "Augustine Joseph",
        "rank": 49730,
        "rank_sort": 49853,
        "total": 2352
      },
      {
        "club_badge_src": null,
        "entry": 1259954,
        "entry_name": "Norris XI",
        "event_total": 56,
        "has_played": true,
        "id": 8752106,
        "last_rank": 48642,
        "player_name": "Jack Norris",
        "rank": 49730,
        "rank_sort": 49854,
        "total": 2352
      },
      {
        "club_badge_src": null,
        "entry": 1269955,
        "entry_name": "Oli's kogende gryde",
        "event_total": 59,
        "has_played": true,
        "id": 8823653,
        "last_rank": 53023,
        "player_name": "Oliver Glentedal",
        "rank": 49730,
        "rank_sort": 49855,
        "total": 2352
      },
      {
        "club_badge_src": null,
        "entry": 1278890,
        "entry_name": "Hemson",
        "event_total": 71,
        "has_played": true,
        "id": 8886743,
        "last_rank": 67063,
        "player_name": "Hei\u00f0mar Eyj\u00f3lfsson",
        "rank": 49730,
        "rank_sort": 49856,
        "total": 2352
      },
      {
        "club_badge_src": null,
        "entry": 1279444,
        "entry_name": "Bowen 747",
        "event_total": 43,
        "has_played": true,
        "id": 8890572,
        "last_rank": 31995,
        "player_name": "Jason Ford",
        "rank": 49730,
        "rank_sort": 49857,
        "total": 2352
      },
      {
        "club_badge_src": null,
        "entry": 1296550,
        "entry_name": "StLuxun Park Rangers",
        "event_total": 59,
        "has_played": true,
        "id": 9010915,
        "last_rank": 53345,
        "player_name": "J S",
        "rank": 49730,
        "rank_sort": 49858,
        "total": 2352
      },
      {
        "club_badge_src": null,
        "entry": 1310417,
        "entry_name": "wilderns wanderers",
        "event_total": 56,
        "has_played": true,
        "id": 9108549,
        "last_rank": 48898,
        "player_name": "chris wildern",
        "rank": 49730,
        "rank_sort": 49859,
        "total": 2352
      },
      {
        "club_badge_src": null,
        "entry": 1324899,
        "entry_name": "Alltid. Uansett",
        "event_total": 40,
        "has_played": true,
        "id": 9209233,
        "last_rank": 28906,
        "player_name": "Erlend Skuterud",
        "rank": 49730,
        "rank_sort": 49860,
        "total": 2352
      },
      {
        "club_badge_src": null,
        "entry": 1375562,
        "entry_name": "Oase.ai",
        "event_total": 61,
        "has_played": true,
        "id": 9562045,
        "last_rank": 56708,
        "player_name": "Olle nyberg",
        "rank": 49730,
        "rank_sort": 49861,
        "total": 2352
      },
      {
        "club_badge_src": null,
        "entry": 1401308,
        "entry_name": "United1878",
        "event_total": 57,
        "has_played": true,
        "id": 9749894,
        "last_rank": 49880,
        "player_name": "Bohuslav Naidiuk",
        "rank": 49730,
        "rank_sort": 49862,
        "total": 2352
      },
      {
        "club_badge_src": "https://fantasy.premierleague.com/gcs/plfpl-production-adobe-approved/plfpl-production/1404514/a73347a9-7be8-430e-b033-03cc1fc7f664.png",
        "entry": 1404514,
        "entry_name": "NASH FC",
        "event_total": 68,
        "has_played": true,
        "id": 9772450,
        "last_rank": 69641,
        "player_name": "Tinashe Musengi",
        "rank": 49730,
        "rank_sort": 49863,
        "total": 2352
      },
      {
        "club_badge_src": null,
        "entry": 1411935,
        "entry_name": "INTROVERT FC",
        "event_total": 58,
        "has_played": true,
        "id": 9825774,
        "last_rank": 51720,
        "player_name": "Paramate Praphun",
        "rank": 49730,
        "rank_sort": 49864,
        "total": 2352
      },
      {
        "club_badge_src": "https://fantasy.premierleague.com/gcs/plfpl-production-adobe-approved/plfpl-production/1431072/4a424192-ca49-42a2-9d61-4d67560289a1.png",
        "entry": 1431072,
        "entry_name": "Dogwood Triers",
        "event_total": 51,
        "has_played": true,
        "id": 9971767,
        "last_rank": 41617,
        "player_name": "Stuart Keeble",
        "rank": 49730,
        "rank_sort": 49865,
        "total": 2352
      },
      {
        "club_badge_src": null,
        "entry": 1489466,
        "entry_name": "whyalwaysme",
        "event_total": 55,
        "has_played": true,
        "id": 10386707,
        "last_rank": 41324,
        "player_name": "Topias Kuukkanen",
        "rank": 49730,
        "rank_sort": 49866,
        "total": 2352
      },
      {
        "club_badge_src": null,
        "entry": 1524730,
        "entry_name": "pArtetas Fritas",
        "event_total": 60,
        "has_played": true,
        "id": 10634540,
        "last_rank": 54667,
        "player_name": "Petter Tran",
        "rank": 49730,
        "rank_sort": 49867,
        "total": 2352
      },
      {
        "club_badge_src": null,
        "entry": 1563460,
        "entry_name": "Cunha believe it?",
        "event_total": 44,
        "has_played": true,
        "id": 10921005,
        "last_rank": 33147,
        "player_name": "Edward Higton",
        "rank": 49730,
        "rank_sort": 49868,
        "total": 2352
      },
      {
        "club_badge_src": null,
        "entry": 1579718,
        "entry_name": "ThomasTheFrankEngine",
        "event_total": 47,
        "has_played": true,
        "id": 11038845,
        "last_rank": 36624,
        "player_name": "Eoin Coughlan",
        "rank": 49730,
        "rank_sort": 49869,
        "total": 2352
      },
      {
        "club_badge_src": null,
        "entry": 1618478,
        "entry_name": "Daddels",
        "event_total": 43,
        "has_played": true,
        "id": 11325573,
        "last_rank": 31995,
        "player_name": "Sean Jardin",
        "rank": 49730,
        "rank_sort": 49870,
        "total": 2352
      },
      {
        "club_badge_src": null,
        "entry": 1624357,
        "entry_name": "Gunnit",
        "event_total": 62,
        "has_played": true,
        "id": 11369147,
        "last_rank": 58388,
        "player_name": "Charles Pegram",
        "rank": 49730,
        "rank_sort": 49871,
        "total": 2352
      },
      {
        "club_badge_src": null,
        "entry": 1647040,
        "entry_name": "FC FC",
        "event_total": 51,
        "has_played": true,
        "id": 11529571,
        "last_rank": 41824,
        "player_name": "jackson tucker",
        "rank": 49730,
        "rank_sort": 49872,
        "total": 2352
      },
      {
        "club_badge_src": null,
        "entry": 1723095,
        "entry_name": "Rubicon",
        "event_total": 67,
        "has_played": true,
        "id": 12079982,
        "last_rank": 67063,
        "player_name": "Ninos Shamoun",
        "rank": 49730,
        "rank_sort": 49873,
        "total": 2352
      },
      {
        "club_badge_src": null,
        "entry": 1798357,
        "entry_name": "Et Tu, Kudus?",
        "event_total": 61,
        "has_played": true,
        "id": 12638394,
        "last_rank": 56369,
        "player_name": "Josh Smith",
        "rank": 49730,
        "rank_sort": 49874,
        "total": 2352
      },
      {
        "club_badge_src": null,
        "entry": 1867522,
        "entry_name": "Om Mane Padme Hum",
        "event_total": 54,
        "has_played": true,
        "id": 13145416,
        "last_rank": 45416,
        "player_name": "Hindu Temples",
        "rank": 49730,
        "rank_sort": 49875,
        "total": 2352
      },
      {
        "club_badge_src": null,
        "entry": 1984822,
        "entry_name": "Set piece FC",
        "event_total": 61,
        "has_played": true,
        "id": 14020107,
        "last_rank": 56708,
        "player_name": "Jakob \u0160trasner",
        "rank": 49730,
        "rank_sort": 49876,
        "total": 2352
      },
      {
        "club_badge_src": null,
        "entry": 2018246,
        "entry_name": "Yoro Wissa Harry",
        "event_total": 54,
        "has_played": true,
        "id": 14278844,
        "last_rank": 45416,
        "player_name": "Rory Florentine",
        "rank": 49730,
        "rank_sort": 49877,
        "total": 2352
      },
      {
        "club_badge_src": null,
        "entry": 2063741,
        "entry_name": "Zi",
        "event_total": 65,
        "has_played": true,
        "id": 14623525,
        "last_rank": 63724,
        "player_name": "Simon L\u00e9onard",
        "rank": 49730,
        "rank_sort": 49878,
        "total": 2352
      },
      {
        "club_badge_src": null,
        "entry": 2087283,
        "entry_name": "Boudi&Joudi_FC",
        "event_total": 62,
        "has_played": true,
        "id": 14808391,
        "last_rank": 51403,
        "player_name": "Ahmed Mahmoud",
        "rank": 49730,
        "rank_sort": 49879,
        "total": 2352
      },
      {
        "club_badge_src": null,
        "entry": 2203507,
        "entry_name": "Baked Beans",
        "event_total": 73,
        "has_played": true,
        "id": 15681586,
        "last_rank": 79817,
        "player_name": "Bradley Fox",
        "rank": 49730,
        "rank_sort": 49880,
        "total": 2352
      },
      {
        "club_badge_src": null,
        "entry": 2394348,
        "entry_name": "major league saka",
        "event_total": 61,
        "has_played": true,
        "id": 17104603,
        "last_rank": 49880,
        "player_name": "Adnan Majidy",
        "rank": 49730,
        "rank_sort": 49881,
        "total": 2352
      },
      {
        "club_badge_src": null,
        "entry": 2397197,
        "entry_name": "Willem III",
        "event_total": 60,
        "has_played": true,
        "id": 17125826,
        "last_rank": 54667,
        "player_name": "Wilhelm N\u00e4ttsj\u00f6",
        "rank": 49730,
        "rank_sort": 49882,
        "total": 2352
      },
      {
        "club_badge_src": null,
        "entry": 2422616,
        "entry_name": "Tel-etubbies",
        "event_total": 51,
        "has_played": true,
        "id": 17321021,
        "last_rank": 36348,
        "player_name": "Dan Spinks",
        "rank": 49730,
        "rank_sort": 49883,
        "total": 2352
      },
      {
        "club_badge_src": null,
        "entry": 2487790,
        "entry_name": "On Your Edd",
        "event_total": 60,
        "has_played": true,
        "id": 17809341,
        "last_rank": 55014,
        "player_name": "Thomas Howarth",
        "rank": 49730,
        "rank_sort": 49884,
        "total": 2352
      },
      {
        "club_badge_src": null,
        "entry": 2551247,
        "entry_name": "Kylm\u00e4 K\u00e4mment\u00e4j\u00e4",
        "event_total": 54,
        "has_played": true,
        "id": 18291644,
        "last_rank": 45927,
        "player_name": "Antti Niemi",
        "rank": 49730,
        "rank_sort": 49885,
        "total": 2352
      },
      {
        "club_badge_src": null,
        "entry": 2553063,
        "entry_name": "die Wirtzschaft",
        "event_total": 67,
        "has_played": true,
        "id": 18305682,
        "last_rank": 67422,
        "player_name": "Zhirui Leong",
        "rank": 49730,
        "rank_sort": 49886,
        "total": 2352
      },
      {
        "club_badge_src": null,
        "entry": 2568430,
        "entry_name": "Absolute Dreamland",
        "event_total": 56,
        "has_played": true,
        "id": 18426341,
        "last_rank": 48642,
        "player_name": "Kathryn Strong",
        "rank": 49730,
        "rank_sort": 49887,
        "total": 2352
      },
      {
        "club_badge_src": "https://fantasy.premierleague.com/gcs/plfpl-production-adobe-approved/plfpl-production/2580759/33ad8414-c984-42ad-bf70-55a0263d664b.png",
        "entry": 2580759,
        "entry_name": "good kid, m.A.n city",
        "event_total": 58,
        "has_played": true,
        "id": 18523401,
        "last_rank": 45416,
        "player_name": "Paul James",
        "rank": 49730,
        "rank_sort": 49888,
        "total": 2352
      },
      {
        "club_badge_src": null,
        "entry": 2593585,
        "entry_name": "Cunha do it lads",
        "event_total": 70,
        "has_played": true,
        "id": 18622390,
        "last_rank": 73423,
        "player_name": "Laurent Depolla",
        "rank": 49730,
        "rank_sort": 49889,
        "total": 2352
      },
      {
        "club_badge_src": "https://fantasy.premierleague.com/gcs/plfpl-production-adobe-approved/plfpl-production/2616105/a3e7f767-69fe-4702-9041-0f2744ace926.png",
        "entry": 2616105,
        "entry_name": "\u2b50\ufe0fStirfry FC\u2b50\ufe0f",
        "event_total": 65,
        "has_played": true,
        "id": 18797157,
        "last_rank": 63390,
        "player_name": "Chris Thompson",
        "rank": 49730,
        "rank_sort": 49890,
        "total": 2352
      },
      {
        "club_badge_src": null,
        "entry": 2766140,
        "entry_name": "Warehouse FC",
        "event_total": 67,
        "has_played": true,
        "id": 20181461,
        "last_rank": 59632,
        "player_name": "Andreas Gustafsson",
        "rank": 49730,
        "rank_sort": 49891,
        "total": 2352
      },
      {
        "club_badge_src": "https://fantasy.premierleague.com/gcs/plfpl-production-adobe-approved/plfpl-production/2877348/3c5d111c-01ec-4e7e-81f6-b798cab59d5d.png",
        "entry": 2877348,
        "entry_name": "Ozzys crazy train",
        "event_total": 50,
        "has_played": true,
        "id": 21062383,
        "last_rank": 40297,
        "player_name": "Lee Yates",
        "rank": 49730,
        "rank_sort": 49892,
        "total": 2352
      },
      {
        "club_badge_src": null,
        "entry": 2909928,
        "entry_name": "Parzival",
        "event_total": 49,
        "has_played": true,
        "id": 21327415,
        "last_rank": 33936,
        "player_name": "Alex Dufb\u00e4ck",
        "rank": 49730,
        "rank_sort": 49893,
        "total": 2352
      },
      {
        "club_badge_src": null,
        "entry": 2946999,
        "entry_name": "MESSIJOY",
        "event_total": 68,
        "has_played": true,
        "id": 21638850,
        "last_rank": 68957,
        "player_name": "MESSI JOY",
        "rank": 49730,
        "rank_sort": 49894,
        "total": 2352
      },
      {
        "club_badge_src": null,
        "entry": 2951523,
        "entry_name": "Free Palestine",
        "event_total": 61,
        "has_played": true,
        "id": 21676688,
        "last_rank": 56708,
        "player_name": "Mohammed ali boushi",
        "rank": 49730,
        "rank_sort": 49895,
        "total": 2352
      },
      {
        "club_badge_src": null,
        "entry": 3013644,
        "entry_name": "Noni 2 Worry",
        "event_total": 53,
        "has_played": true,
        "id": 22170806,
        "last_rank": 44303,
        "player_name": "Louk Dekkers",
        "rank": 49730,
        "rank_sort": 49896,
        "total": 2352
      },
      {
        "club_badge_src": null,
        "entry": 3044618,
        "entry_name": "Trojan",
        "event_total": 72,
        "has_played": true,
        "id": 22411016,
        "last_rank": 76947,
        "player_name": "Mamadi Cond\u00e9",
        "rank": 49730,
        "rank_sort": 49897,
        "total": 2352
      },
      {
        "club_badge_src": null,
        "entry": 3179224,
        "entry_name": "Teej and Desist",
        "event_total": 60,
        "has_played": true,
        "id": 23492416,
        "last_rank": 54667,
        "player_name": "Tyler Turkson",
        "rank": 49730,
        "rank_sort": 49898,
        "total": 2352
      },
      {
        "club_badge_src": null,
        "entry": 3205293,
        "entry_name": "Lava chicken FC",
        "event_total": 70,
        "has_played": true,
        "id": 23695565,
        "last_rank": 73423,
        "player_name": "obaro edafe",
        "rank": 49730,
        "rank_sort": 49899,
        "total": 2352
      },
      {
        "club_badge_src": "https://fantasy.premierleague.com/gcs/plfpl-production-adobe-approved/plfpl-production/3308578/4df3c9d5-b16e-4dbf-a775-506d091edced.png",
        "entry": 3308578,
        "entry_name": "Little Green Men",
        "event_total": 49,
        "has_played": true,
        "id": 24510814,
        "last_rank": 39023,
        "player_name": "Ajim San",
        "rank": 49730,
        "rank_sort": 49900,
        "total": 2352
      }
    ]
  }
}