{
  "last_updated_data": "2026-05-24T23:28:17Z",
  "league": {
    "admin_entry": null,
    "closed": false,
    "code_privacy": "p",
    "created": "2025-07-20T23:14:33.933835Z",
    "cup_league": 2815434,
    "has_cup": true,
    "id": 314,
    "league_type": "s",
    "max_entries": null,
    "name": "Overall",
    "rank": null,
    "scoring": "c",
    "start_event": 1
  },
  "new_entries": {
    "has_next": false,
    "page": 1,
    "results": []
  },
  "standings": {
    "has_next": true,
    "page": 401,
    "results": [
      {
        "club_badge_src": null,
        "entry": 6894401,
        "entry_name": "EdwArdS\ufffd",
        "event_total": 61,
        "has_played": true,
        "id": 55257054,
        "last_rank": 22426,
        "player_name": "Edward Roland",
        "rank": 19880,
        "rank_sort": 20001,
        "total": 2380
      },
      {
        "club_badge_src": null,
        "entry": 7067330,
        "entry_name": "Kenzie United",
        "event_total": 50,
        "has_played": true,
        "id": 56864091,
        "last_rank": 14926,
        "player_name": "PnK Newman",
        "rank": 19880,
        "rank_sort": 20002,
        "total": 2380
      },
      {
        "club_badge_src": "https://fantasy.premierleague.com/gcs/plfpl-production-adobe-approved/plfpl-production/7070859/4527bcb2-2cd3-499d-8ec2-236c5dad4e24.png",
        "entry": 7070859,
        "entry_name": "Wispa United",
        "event_total": 70,
        "has_played": true,
        "id": 56897362,
        "last_rank": 30536,
        "player_name": "William Peter Pentreath",
        "rank": 19880,
        "rank_sort": 20003,
        "total": 2380
      },
      {
        "club_badge_src": null,
        "entry": 7107711,
        "entry_name": "Inter Your Dreams",
        "event_total": 54,
        "has_played": true,
        "id": 57250179,
        "last_rank": 17585,
        "player_name": "Conor Healy",
        "rank": 19880,
        "rank_sort": 20004,
        "total": 2380
      },
      {
        "club_badge_src": null,
        "entry": 7132944,
        "entry_name": "Red Djed Redemption",
        "event_total": 70,
        "has_played": true,
        "id": 57487818,
        "last_rank": 30727,
        "player_name": "An\u017ee Mlakar",
        "rank": 19880,
        "rank_sort": 20005,
        "total": 2380
      },
      {
        "club_badge_src": null,
        "entry": 7171847,
        "entry_name": "XtremeFC",
        "event_total": 71,
        "has_played": true,
        "id": 57870237,
        "last_rank": 31747,
        "player_name": "Anant Kannan",
        "rank": 19880,
        "rank_sort": 20006,
        "total": 2380
      },
      {
        "club_badge_src": null,
        "entry": 7526330,
        "entry_name": "Panthers FC",
        "event_total": 66,
        "has_played": true,
        "id": 61595762,
        "last_rank": 26827,
        "player_name": "Lee Gauthier",
        "rank": 19880,
        "rank_sort": 20007,
        "total": 2380
      },
      {
        "club_badge_src": null,
        "entry": 7665253,
        "entry_name": "United Reloaded",
        "event_total": 64,
        "has_played": true,
        "id": 62856833,
        "last_rank": 24897,
        "player_name": "Masood Abrahams",
        "rank": 19880,
        "rank_sort": 20008,
        "total": 2380
      },
      {
        "club_badge_src": null,
        "entry": 7673867,
        "entry_name": "Kinder Mbeumo",
        "event_total": 64,
        "has_played": true,
        "id": 62936346,
        "last_rank": 25002,
        "player_name": "David Gildea",
        "rank": 19880,
        "rank_sort": 20009,
        "total": 2380
      },
      {
        "club_badge_src": null,
        "entry": 7691255,
        "entry_name": "LENZ FC",
        "event_total": 63,
        "has_played": true,
        "id": 63092829,
        "last_rank": 24143,
        "player_name": "Andreas Pilleris",
        "rank": 19880,
        "rank_sort": 20010,
        "total": 2380
      },
      {
        "club_badge_src": null,
        "entry": 7721546,
        "entry_name": "Maximus Domination",
        "event_total": 70,
        "has_played": true,
        "id": 63365031,
        "last_rank": 30727,
        "player_name": "Bader Alammar",
        "rank": 19880,
        "rank_sort": 20011,
        "total": 2380
      },
      {
        "club_badge_src": null,
        "entry": 7722244,
        "entry_name": "South London LALALA",
        "event_total": 64,
        "has_played": true,
        "id": 63371319,
        "last_rank": 24897,
        "player_name": "Jerry jones",
        "rank": 19880,
        "rank_sort": 20012,
        "total": 2380
      },
      {
        "club_badge_src": "https://fantasy.premierleague.com/gcs/plfpl-production-adobe-approved/plfpl-production/7967348/169b3e39-fb77-440b-a71a-d2fe5456025e.png",
        "entry": 7967348,
        "entry_name": "apai kerbau",
        "event_total": 82,
        "has_played": true,
        "id": 65595075,
        "last_rank": 45714,
        "player_name": "bunZ TT",
        "rank": 19880,
        "rank_sort": 20013,
        "total": 2380
      },
      {
        "club_badge_src": null,
        "entry": 8215675,
        "entry_name": "Wakelin Wanderers",
        "event_total": 62,
        "has_played": true,
        "id": 67889821,
        "last_rank": 23341,
        "player_name": "Anna Wakelin",
        "rank": 19880,
        "rank_sort": 20014,
        "total": 2380
      },
      {
        "club_badge_src": null,
        "entry": 8324524,
        "entry_name": "Isseh fc",
        "event_total": 52,
        "has_played": true,
        "id": 68962637,
        "last_rank": 16320,
        "player_name": "Isseh .",
        "rank": 19880,
        "rank_sort": 20015,
        "total": 2380
      },
      {
        "club_badge_src": null,
        "entry": 8379964,
        "entry_name": "Mira",
        "event_total": 67,
        "has_played": true,
        "id": 69490778,
        "last_rank": 27644,
        "player_name": "Haris Leelayuwapan",
        "rank": 19880,
        "rank_sort": 20016,
        "total": 2380
      },
      {
        "club_badge_src": null,
        "entry": 8924504,
        "entry_name": "Sesko\u2019s Metho",
        "event_total": 58,
        "has_played": true,
        "id": 74747081,
        "last_rank": 20179,
        "player_name": "sam lawrence",
        "rank": 19880,
        "rank_sort": 20017,
        "total": 2380
      },
      {
        "club_badge_src": "https://fantasy.premierleague.com/gcs/plfpl-production-adobe-approved/plfpl-production/8997451/7b7b84aa-149f-4c5e-a360-fdb6b61d1d65.png",
        "entry": 8997451,
        "entry_name": "Above The Noise FC",
        "event_total": 67,
        "has_played": true,
        "id": 75456167,
        "last_rank": 27585,
        "player_name": "Gerhard Swart",
        "rank": 19880,
        "rank_sort": 20018,
        "total": 2380
      },
      {
        "club_badge_src": null,
        "entry": 9057424,
        "entry_name": "Oron8Tidhar",
        "event_total": 46,
        "has_played": true,
        "id": 76037065,
        "last_rank": 12705,
        "player_name": "Oron Tidhar",
        "rank": 19880,
        "rank_sort": 20019,
        "total": 2380
      },
      {
        "club_badge_src": null,
        "entry": 9162655,
        "entry_name": "Yoro Wizard Harry",
        "event_total": 68,
        "has_played": true,
        "id": 77064502,
        "last_rank": 28546,
        "player_name": "Faiyaz Selant",
        "rank": 19880,
        "rank_sort": 20020,
        "total": 2380
      },
      {
        "club_badge_src": "https://fantasy.premierleague.com/gcs/plfpl-production-adobe-approved/plfpl-production/9364536/ea006266-6a6b-45ea-bc5f-0c05ce62b06d.png",
        "entry": 9364536,
        "entry_name": "Chatgpt Cannot Add",
        "event_total": 55,
        "has_played": true,
        "id": 79027186,
        "last_rank": 18113,
        "player_name": "Siddharth Awasthi",
        "rank": 19880,
        "rank_sort": 20021,
        "total": 2380
      },
      {
        "club_badge_src": null,
        "entry": 6491,
        "entry_name": "Penalty Merchants FC",
        "event_total": 60,
        "has_played": true,
        "id": 37247,
        "last_rank": 21949,
        "player_name": "Lewis Kell",
        "rank": 20022,
        "rank_sort": 20022,
        "total": 2380
      },
      {
        "club_badge_src": "https://fantasy.premierleague.com/gcs/plfpl-production-adobe-approved/plfpl-production/7442/4f5b0c5b-5e28-49ae-bef8-63eba8e88f96.png",
        "entry": 7442,
        "entry_name": "Bebuns Reloaded",
        "event_total": 49,
        "has_played": true,
        "id": 42906,
        "last_rank": 12200,
        "player_name": "Ricardo Andrade",
        "rank": 20022,
        "rank_sort": 20023,
        "total": 2380
      },
      {
        "club_badge_src": null,
        "entry": 11299,
        "entry_name": "The Candy Crushers",
        "event_total": 62,
        "has_played": true,
        "id": 67107,
        "last_rank": 23522,
        "player_name": "Lisbeth Hansen",
        "rank": 20022,
        "rank_sort": 20024,
        "total": 2380
      },
      {
        "club_badge_src": "https://fantasy.premierleague.com/gcs/plfpl-production-adobe-approved/plfpl-production/11615/29af5b20-b578-4ffe-a80d-492d49a7d6d1.png",
        "entry": 11615,
        "entry_name": "Moonwalker United",
        "event_total": 63,
        "has_played": true,
        "id": 69117,
        "last_rank": 20983,
        "player_name": "Jakub Zieli\u0144ski",
        "rank": 20022,
        "rank_sort": 20025,
        "total": 2380
      },
      {
        "club_badge_src": "https://fantasy.premierleague.com/gcs/plfpl-production-adobe-approved/plfpl-production/11771/a7c93b34-9ec5-41c8-bef8-ebf0a9251098.png",
        "entry": 11771,
        "entry_name": "Fast & Calafiori-ous",
        "event_total": 49,
        "has_played": true,
        "id": 70123,
        "last_rank": 14604,
        "player_name": "Charlie Marshall",
        "rank": 20022,
        "rank_sort": 20026,
        "total": 2380
      },
      {
        "club_badge_src": null,
        "entry": 12128,
        "entry_name": "Q7cvv",
        "event_total": 58,
        "has_played": true,
        "id": 72367,
        "last_rank": 17437,
        "player_name": "Q7cv -",
        "rank": 20022,
        "rank_sort": 20027,
        "total": 2380
      },
      {
        "club_badge_src": null,
        "entry": 16707,
        "entry_name": "Lennys XI",
        "event_total": 69,
        "has_played": true,
        "id": 103358,
        "last_rank": 29688,
        "player_name": "Lenny Lock",
        "rank": 20022,
        "rank_sort": 20028,
        "total": 2380
      },
      {
        "club_badge_src": "https://fantasy.premierleague.com/gcs/plfpl-production-adobe-approved/plfpl-production/29389/572ce3e5-0ae8-4beb-8070-91eb0325ea5b.png",
        "entry": 29389,
        "entry_name": "Oligarch FC",
        "event_total": 61,
        "has_played": true,
        "id": 185818,
        "last_rank": 19544,
        "player_name": "Venelin Ivanov",
        "rank": 20022,
        "rank_sort": 20029,
        "total": 2380
      },
      {
        "club_badge_src": null,
        "entry": 44131,
        "entry_name": "KOTA SAMARAHAN FC",
        "event_total": 67,
        "has_played": true,
        "id": 282788,
        "last_rank": 27976,
        "player_name": "ALEXANDER ANAK JONATHAN",
        "rank": 20022,
        "rank_sort": 20030,
        "total": 2380
      },
      {
        "club_badge_src": null,
        "entry": 44609,
        "entry_name": "HaCunha Mateta",
        "event_total": 64,
        "has_played": true,
        "id": 285917,
        "last_rank": 25172,
        "player_name": "Kim Walsh",
        "rank": 20022,
        "rank_sort": 20031,
        "total": 2380
      },
      {
        "club_badge_src": null,
        "entry": 47765,
        "entry_name": "Expected Toulouse",
        "event_total": 64,
        "has_played": true,
        "id": 306525,
        "last_rank": 21775,
        "player_name": "Ryan Tierney",
        "rank": 20022,
        "rank_sort": 20032,
        "total": 2380
      },
      {
        "club_badge_src": null,
        "entry": 72824,
        "entry_name": "Gangsta's ParaDyche",
        "event_total": 57,
        "has_played": true,
        "id": 473296,
        "last_rank": 19721,
        "player_name": "Andy Langman",
        "rank": 20022,
        "rank_sort": 20033,
        "total": 2380
      },
      {
        "club_badge_src": "https://fantasy.premierleague.com/gcs/plfpl-production-adobe-approved/plfpl-production/111169/9c5b0aab-1ba2-4445-8111-eb3a1fd1df4c.png",
        "entry": 111169,
        "entry_name": "Tonklakaka",
        "event_total": 45,
        "has_played": true,
        "id": 724923,
        "last_rank": 12322,
        "player_name": "Potcharadanai Intasuwan",
        "rank": 20022,
        "rank_sort": 20034,
        "total": 2380
      },
      {
        "club_badge_src": "https://fantasy.premierleague.com/gcs/plfpl-production-adobe-approved/plfpl-production/116572/03651a9d-675a-46b6-8346-ea5c322a2ce0.png",
        "entry": 116572,
        "entry_name": "Zubi Zubi Doo",
        "event_total": 63,
        "has_played": true,
        "id": 761044,
        "last_rank": 24330,
        "player_name": "Joseph Pye",
        "rank": 20022,
        "rank_sort": 20035,
        "total": 2380
      },
      {
        "club_badge_src": "https://fantasy.premierleague.com/gcs/plfpl-production-adobe-approved/plfpl-production/128015/c921c559-52a2-425b-84c9-a5676d03b446.png",
        "entry": 128015,
        "entry_name": "Say Mo to Salah",
        "event_total": 67,
        "has_played": true,
        "id": 834445,
        "last_rank": 27644,
        "player_name": "Jonathan McCormack",
        "rank": 20022,
        "rank_sort": 20036,
        "total": 2380
      },
      {
        "club_badge_src": "https://fantasy.premierleague.com/gcs/plfpl-production-adobe-approved/plfpl-production/140544/29acbe52-da47-4458-a29d-e1a180a955bb.png",
        "entry": 140544,
        "entry_name": "Super Terriers HD",
        "event_total": 69,
        "has_played": true,
        "id": 917807,
        "last_rank": 29688,
        "player_name": "Paul Stead",
        "rank": 20022,
        "rank_sort": 20037,
        "total": 2380
      },
      {
        "club_badge_src": null,
        "entry": 158984,
        "entry_name": "Free Palestine",
        "event_total": 65,
        "has_played": true,
        "id": 1046241,
        "last_rank": 22534,
        "player_name": "Hasin Arefin Khan",
        "rank": 20022,
        "rank_sort": 20038,
        "total": 2380
      },
      {
        "club_badge_src": "https://fantasy.premierleague.com/gcs/plfpl-production-adobe-approved/plfpl-production/168190/8403746e-7676-47da-aa86-7f43465ec267.png",
        "entry": 168190,
        "entry_name": "Smithy United",
        "event_total": 56,
        "has_played": true,
        "id": 1111693,
        "last_rank": 18985,
        "player_name": "Alex Smith",
        "rank": 20022,
        "rank_sort": 20039,
        "total": 2380
      },
      {
        "club_badge_src": null,
        "entry": 181991,
        "entry_name": "Chicken",
        "event_total": 58,
        "has_played": true,
        "id": 1200979,
        "last_rank": 20179,
        "player_name": "Leon Tay",
        "rank": 20022,
        "rank_sort": 20040,
        "total": 2380
      },
      {
        "club_badge_src": null,
        "entry": 187439,
        "entry_name": "All-Stars XV",
        "event_total": 73,
        "has_played": true,
        "id": 1239341,
        "last_rank": 34051,
        "player_name": "Diego P\u00e9rez",
        "rank": 20022,
        "rank_sort": 20041,
        "total": 2380
      },
      {
        "club_badge_src": null,
        "entry": 204903,
        "entry_name": "Kinder Mbeumo",
        "event_total": 54,
        "has_played": true,
        "id": 1361897,
        "last_rank": 17437,
        "player_name": "Lawson Darnell-Smith",
        "rank": 20022,
        "rank_sort": 20042,
        "total": 2380
      },
      {
        "club_badge_src": null,
        "entry": 218988,
        "entry_name": "FC Gunnersaurus",
        "event_total": 62,
        "has_played": true,
        "id": 1456288,
        "last_rank": 23522,
        "player_name": "Adriell Ong",
        "rank": 20022,
        "rank_sort": 20043,
        "total": 2380
      },
      {
        "club_badge_src": "https://fantasy.premierleague.com/gcs/plfpl-production-adobe-approved/plfpl-production/221640/b422f5bb-90ef-4bdb-8193-578ae592e330.png",
        "entry": 221640,
        "entry_name": "Forest Glade FC",
        "event_total": 57,
        "has_played": true,
        "id": 1474155,
        "last_rank": 16729,
        "player_name": "Nathan Cole",
        "rank": 20022,
        "rank_sort": 20044,
        "total": 2380
      },
      {
        "club_badge_src": "https://fantasy.premierleague.com/gcs/plfpl-production-adobe-approved/plfpl-production/225929/da88cbec-a701-449c-9acb-f821f41e8622.png",
        "entry": 225929,
        "entry_name": "Foden Fetich",
        "event_total": 48,
        "has_played": true,
        "id": 1502962,
        "last_rank": 13947,
        "player_name": "Emil Sinkj\u00e6r",
        "rank": 20022,
        "rank_sort": 20045,
        "total": 2380
      },
      {
        "club_badge_src": "https://fantasy.premierleague.com/gcs/plfpl-production-adobe-approved/plfpl-production/227574/7dea5651-5299-47fb-8e54-63e88f02b1a1.png",
        "entry": 227574,
        "entry_name": "Skottingham",
        "event_total": 67,
        "has_played": true,
        "id": 1513789,
        "last_rank": 27770,
        "player_name": "Daniel Skott",
        "rank": 20022,
        "rank_sort": 20046,
        "total": 2380
      },
      {
        "club_badge_src": null,
        "entry": 237977,
        "entry_name": "Haalands Fl\u00e4der",
        "event_total": 64,
        "has_played": true,
        "id": 1583261,
        "last_rank": 25172,
        "player_name": "Marcus Hallabro",
        "rank": 20022,
        "rank_sort": 20047,
        "total": 2380
      },
      {
        "club_badge_src": "https://fantasy.premierleague.com/gcs/plfpl-production-adobe-approved/plfpl-production/264375/29c4b0c6-c608-47cc-82e2-daabc84d9ef2.png",
        "entry": 264375,
        "entry_name": "Delicious_Jr",
        "event_total": 74,
        "has_played": true,
        "id": 1758029,
        "last_rank": 35166,
        "player_name": "George Gregory",
        "rank": 20022,
        "rank_sort": 20048,
        "total": 2380
      },
      {
        "club_badge_src": null,
        "entry": 288389,
        "entry_name": "sTeViEg4EvEr",
        "event_total": 66,
        "has_played": true,
        "id": 1922182,
        "last_rank": 23341,
        "player_name": "Benson Toh",
        "rank": 20022,
        "rank_sort": 20049,
        "total": 2380
      },
      {
        "club_badge_src": null,
        "entry": 323227,
        "entry_name": "Healmev United",
        "event_total": 56,
        "has_played": true,
        "id": 2166076,
        "last_rank": 16163,
        "player_name": "Eli Mev",
        "rank": 20022,
        "rank_sort": 20050,
        "total": 2380
      }
    ]
  }
}