{
  "last_updated_data": "2026-05-24T23:28:17Z",
  "league": {
    "admin_entry": null,
    "closed": false,
    "code_privacy": "p",
    "created": "2025-07-20T23:14:33.933835Z",
    "cup_league": 2815434,
    "has_cup": true,
    "id": 314,
    "league_type": "s",
    "max_entries": null,
    "name": "Overall",
    "rank": null,
    "scoring": "c",
    "start_event": 1
  },
  "new_entries": {
    "has_next": false,
    "page": 1,
    "results": []
  },
  "standings": {
    "has_next": true,
    "page": 558,
    "results": [
      {
        "club_badge_src": null,
        "entry": 8796486,
        "entry_name": "Oldboys",
        "event_total": 72,
        "has_played": true,
        "id": 73511300,
        "last_rank": 39731,
        "player_name": "Emil Seva",
        "rank": 27843,
        "rank_sort": 27851,
        "total": 2371
      },
      {
        "club_badge_src": null,
        "entry": 45071,
        "entry_name": "Andrew's Xl",
        "event_total": 73,
        "has_played": true,
        "id": 289032,
        "last_rank": 36050,
        "player_name": "euan Andrew",
        "rank": 27852,
        "rank_sort": 27852,
        "total": 2371
      },
      {
        "club_badge_src": null,
        "entry": 411339,
        "entry_name": "Disco Mbeumo",
        "event_total": 75,
        "has_played": true,
        "id": 2758077,
        "last_rank": 38469,
        "player_name": "Reg Harris",
        "rank": 27852,
        "rank_sort": 27853,
        "total": 2371
      },
      {
        "club_badge_src": "https://fantasy.premierleague.com/gcs/plfpl-production-adobe-approved/plfpl-production/2607561/2723d343-f304-4deb-9d83-142ab58848cd.png",
        "entry": 2607561,
        "entry_name": "Belabes FC",
        "event_total": 55,
        "has_played": true,
        "id": 18732642,
        "last_rank": 22342,
        "player_name": "Pravin Nair",
        "rank": 27852,
        "rank_sort": 27854,
        "total": 2371
      },
      {
        "club_badge_src": null,
        "entry": 6773685,
        "entry_name": "one week wonder",
        "event_total": 65,
        "has_played": true,
        "id": 54237441,
        "last_rank": 36063,
        "player_name": "Dan Hayward",
        "rank": 27852,
        "rank_sort": 27855,
        "total": 2371
      },
      {
        "club_badge_src": null,
        "entry": 1730584,
        "entry_name": "Gapsnaps",
        "event_total": 59,
        "has_played": true,
        "id": 12138184,
        "last_rank": 22342,
        "player_name": "Philip Cassidy",
        "rank": 27856,
        "rank_sort": 27856,
        "total": 2371
      },
      {
        "club_badge_src": null,
        "entry": 8012236,
        "entry_name": "HAYTHAM",
        "event_total": 43,
        "has_played": true,
        "id": 65994862,
        "last_rank": 14219,
        "player_name": "Haytham Mohamed",
        "rank": 27857,
        "rank_sort": 27857,
        "total": 2371
      },
      {
        "club_badge_src": null,
        "entry": 4776556,
        "entry_name": "Braino Fernandez",
        "event_total": 61,
        "has_played": true,
        "id": 36768616,
        "last_rank": 27529,
        "player_name": "Tony James",
        "rank": 27858,
        "rank_sort": 27858,
        "total": 2371
      },
      {
        "club_badge_src": null,
        "entry": 279685,
        "entry_name": "bully goooo",
        "event_total": 55,
        "has_played": true,
        "id": 1861470,
        "last_rank": 25688,
        "player_name": "Callum Smith",
        "rank": 27859,
        "rank_sort": 27859,
        "total": 2371
      },
      {
        "club_badge_src": null,
        "entry": 332894,
        "entry_name": "It's Coming Home FC",
        "event_total": 59,
        "has_played": true,
        "id": 2229538,
        "last_rank": 22349,
        "player_name": "James Lupton",
        "rank": 27859,
        "rank_sort": 27860,
        "total": 2371
      },
      {
        "club_badge_src": "https://fantasy.premierleague.com/gcs/plfpl-production-adobe-approved/plfpl-production/1052276/e499a9dc-a862-4e76-9f2f-edb82dc5714d.png",
        "entry": 1052276,
        "entry_name": "EAGLESSSS",
        "event_total": 66,
        "has_played": true,
        "id": 7282398,
        "last_rank": 28497,
        "player_name": "Mouad Talibi",
        "rank": 27861,
        "rank_sort": 27861,
        "total": 2371
      },
      {
        "club_badge_src": null,
        "entry": 3745754,
        "entry_name": "\u0627\u0644\u062d\u0646\u0641\u064a \u0628\u0648\u0635\u0646\u062f\u0627\u0644",
        "event_total": 72,
        "has_played": true,
        "id": 27962695,
        "last_rank": 23131,
        "player_name": "Ferkhi abdelhalim",
        "rank": 27861,
        "rank_sort": 27862,
        "total": 2371
      },
      {
        "club_badge_src": null,
        "entry": 3126793,
        "entry_name": "Bankaslipz",
        "event_total": 67,
        "has_played": true,
        "id": 23076499,
        "last_rank": 29461,
        "player_name": "Bank Slipz",
        "rank": 27863,
        "rank_sort": 27863,
        "total": 2371
      },
      {
        "club_badge_src": null,
        "entry": 3029108,
        "entry_name": "Matsumoto",
        "event_total": 53,
        "has_played": true,
        "id": 22288719,
        "last_rank": 17948,
        "player_name": "Abdalla Shafey",
        "rank": 27864,
        "rank_sort": 27864,
        "total": 2371
      },
      {
        "club_badge_src": null,
        "entry": 8180364,
        "entry_name": "Bogati FC",
        "event_total": 63,
        "has_played": true,
        "id": 67555296,
        "last_rank": 29465,
        "player_name": "Bikram Bogati",
        "rank": 27865,
        "rank_sort": 27865,
        "total": 2371
      },
      {
        "club_badge_src": "https://fantasy.premierleague.com/gcs/plfpl-production-adobe-approved/plfpl-production/7143864/157e178b-67c3-4ce3-a28b-8594ae874f65.png",
        "entry": 7143864,
        "entry_name": "UTC - World Champion",
        "event_total": 61,
        "has_played": true,
        "id": 57592388,
        "last_rank": 31503,
        "player_name": "Thomas Murphy",
        "rank": 27866,
        "rank_sort": 27866,
        "total": 2370
      },
      {
        "club_badge_src": null,
        "entry": 15457,
        "entry_name": "Stockport Elite",
        "event_total": 71,
        "has_played": true,
        "id": 94885,
        "last_rank": 43727,
        "player_name": "Chris Crowther",
        "rank": 27867,
        "rank_sort": 27867,
        "total": 2370
      },
      {
        "club_badge_src": "https://fantasy.premierleague.com/gcs/plfpl-production-adobe-approved/plfpl-production/202052/9541ed5b-7ef8-47cd-88ed-2e6deb939345.png",
        "entry": 202052,
        "entry_name": "No DNA just RSA",
        "event_total": 58,
        "has_played": true,
        "id": 1341704,
        "last_rank": 28502,
        "player_name": "Funelakhe Duze",
        "rank": 27867,
        "rank_sort": 27868,
        "total": 2370
      },
      {
        "club_badge_src": null,
        "entry": 5971059,
        "entry_name": "HariboescobarX1",
        "event_total": 85,
        "has_played": true,
        "id": 46988614,
        "last_rank": 66621,
        "player_name": "Karl Burnett",
        "rank": 27867,
        "rank_sort": 27869,
        "total": 2370
      },
      {
        "club_badge_src": null,
        "entry": 3540517,
        "entry_name": "The Broadwood Boys",
        "event_total": 79,
        "has_played": true,
        "id": 26354308,
        "last_rank": 56035,
        "player_name": "Graham Kennedy",
        "rank": 27870,
        "rank_sort": 27870,
        "total": 2370
      },
      {
        "club_badge_src": null,
        "entry": 6840795,
        "entry_name": "Allison Wonderland",
        "event_total": 63,
        "has_played": true,
        "id": 54800436,
        "last_rank": 33816,
        "player_name": "David Lyons",
        "rank": 27870,
        "rank_sort": 27871,
        "total": 2370
      },
      {
        "club_badge_src": null,
        "entry": 1160490,
        "entry_name": "The Slot thickens",
        "event_total": 35,
        "has_played": true,
        "id": 8050183,
        "last_rank": 12087,
        "player_name": "Charlie Cane",
        "rank": 27872,
        "rank_sort": 27872,
        "total": 2370
      },
      {
        "club_badge_src": null,
        "entry": 4911203,
        "entry_name": "Choicest Eleven",
        "event_total": 59,
        "has_played": true,
        "id": 37874375,
        "last_rank": 29469,
        "player_name": "Jean Williams",
        "rank": 27872,
        "rank_sort": 27873,
        "total": 2370
      },
      {
        "club_badge_src": null,
        "entry": 7913471,
        "entry_name": "Richey FC",
        "event_total": 68,
        "has_played": true,
        "id": 65109878,
        "last_rank": 39762,
        "player_name": "steven Richards",
        "rank": 27872,
        "rank_sort": 27874,
        "total": 2370
      },
      {
        "club_badge_src": null,
        "entry": 8109426,
        "entry_name": "Brizzlekicks",
        "event_total": 52,
        "has_played": true,
        "id": 66888772,
        "last_rank": 23150,
        "player_name": "Mel Bristow",
        "rank": 27872,
        "rank_sort": 27875,
        "total": 2370
      },
      {
        "club_badge_src": null,
        "entry": 8764505,
        "entry_name": "Change Name",
        "event_total": 57,
        "has_played": true,
        "id": 73201518,
        "last_rank": 27549,
        "player_name": "Danny Ho",
        "rank": 27872,
        "rank_sort": 27876,
        "total": 2370
      },
      {
        "club_badge_src": null,
        "entry": 209867,
        "entry_name": "Come On City",
        "event_total": 53,
        "has_played": true,
        "id": 1395662,
        "last_rank": 23965,
        "player_name": "Steve Foristal",
        "rank": 27877,
        "rank_sort": 27877,
        "total": 2370
      },
      {
        "club_badge_src": null,
        "entry": 441965,
        "entry_name": "Kindergarden Klopp",
        "event_total": 67,
        "has_played": true,
        "id": 2963393,
        "last_rank": 38519,
        "player_name": "Darren Carrie",
        "rank": 27877,
        "rank_sort": 27878,
        "total": 2370
      },
      {
        "club_badge_src": null,
        "entry": 6748891,
        "entry_name": "Wirtz Case Scenario",
        "event_total": 75,
        "has_played": true,
        "id": 54028258,
        "last_rank": 49534,
        "player_name": "Milly A",
        "rank": 27877,
        "rank_sort": 27879,
        "total": 2370
      },
      {
        "club_badge_src": null,
        "entry": 8750449,
        "entry_name": "Cleonel Messi",
        "event_total": 53,
        "has_played": true,
        "id": 73067835,
        "last_rank": 23965,
        "player_name": "Cleo Hickenbotham",
        "rank": 27877,
        "rank_sort": 27880,
        "total": 2370
      },
      {
        "club_badge_src": null,
        "entry": 53232,
        "entry_name": "Alphas",
        "event_total": 67,
        "has_played": true,
        "id": 342407,
        "last_rank": 38542,
        "player_name": "Tiago Sereno",
        "rank": 27881,
        "rank_sort": 27881,
        "total": 2370
      },
      {
        "club_badge_src": null,
        "entry": 1457349,
        "entry_name": "EL-MALKY",
        "event_total": 64,
        "has_played": true,
        "id": 10155569,
        "last_rank": 34937,
        "player_name": "OMAR ELMALKY",
        "rank": 27881,
        "rank_sort": 27882,
        "total": 2370
      },
      {
        "club_badge_src": "https://fantasy.premierleague.com/gcs/plfpl-production-adobe-approved/plfpl-production/1762080/d6114d33-f265-4eb8-b778-a586d4fb0117.png",
        "entry": 1762080,
        "entry_name": "Peaky Blinders",
        "event_total": 72,
        "has_played": true,
        "id": 12372817,
        "last_rank": 45144,
        "player_name": "Ricardo Palmer",
        "rank": 27881,
        "rank_sort": 27883,
        "total": 2370
      },
      {
        "club_badge_src": null,
        "entry": 2634002,
        "entry_name": "A Saka White Rice",
        "event_total": 64,
        "has_played": true,
        "id": 18930226,
        "last_rank": 34915,
        "player_name": "Abhijit Nair",
        "rank": 27881,
        "rank_sort": 27884,
        "total": 2370
      },
      {
        "club_badge_src": null,
        "entry": 3452646,
        "entry_name": "Old And In The Way",
        "event_total": 49,
        "has_played": true,
        "id": 25658774,
        "last_rank": 20826,
        "player_name": "Michael England",
        "rank": 27881,
        "rank_sort": 27885,
        "total": 2370
      },
      {
        "club_badge_src": null,
        "entry": 3761163,
        "entry_name": "Braz Fc",
        "event_total": 60,
        "has_played": true,
        "id": 28082507,
        "last_rank": 30503,
        "player_name": "Benjy Hardman",
        "rank": 27881,
        "rank_sort": 27886,
        "total": 2370
      },
      {
        "club_badge_src": "https://fantasy.premierleague.com/gcs/plfpl-production-adobe-approved/plfpl-production/6152561/9211bdf4-f1dc-47d7-8005-c95ed5b3549f.png",
        "entry": 6152561,
        "entry_name": "Santa's Reijnders",
        "event_total": 80,
        "has_played": true,
        "id": 48635087,
        "last_rank": 57705,
        "player_name": "Rami Kers",
        "rank": 27881,
        "rank_sort": 27887,
        "total": 2370
      },
      {
        "club_badge_src": "https://fantasy.premierleague.com/gcs/plfpl-production-adobe-approved/plfpl-production/8293174/afc03919-3f9b-47c3-8397-8d20a48d42a0.png",
        "entry": 8293174,
        "entry_name": "Okarikwa United Fc",
        "event_total": 61,
        "has_played": true,
        "id": 68638342,
        "last_rank": 31518,
        "player_name": "Chisom Nwankwo",
        "rank": 27881,
        "rank_sort": 27888,
        "total": 2370
      },
      {
        "club_badge_src": null,
        "entry": 602443,
        "entry_name": "Tom's Eleven",
        "event_total": 61,
        "has_played": true,
        "id": 4065673,
        "last_rank": 31518,
        "player_name": "Tom Aspital",
        "rank": 27889,
        "rank_sort": 27889,
        "total": 2370
      },
      {
        "club_badge_src": null,
        "entry": 628622,
        "entry_name": "Wootton's Wanderers",
        "event_total": 51,
        "has_played": true,
        "id": 4247917,
        "last_rank": 22391,
        "player_name": "Harry Wootton",
        "rank": 27889,
        "rank_sort": 27890,
        "total": 2370
      },
      {
        "club_badge_src": null,
        "entry": 944611,
        "entry_name": "Our Kirkez",
        "event_total": 59,
        "has_played": true,
        "id": 6506052,
        "last_rank": 29482,
        "player_name": "James Mountford",
        "rank": 27889,
        "rank_sort": 27891,
        "total": 2370
      },
      {
        "club_badge_src": "https://fantasy.premierleague.com/gcs/plfpl-production-adobe-approved/plfpl-production/1622859/4434c349-de4d-49ea-8ffe-993c6e78d91f.png",
        "entry": 1622859,
        "entry_name": "Vee4Victory",
        "event_total": 93,
        "has_played": true,
        "id": 11358265,
        "last_rank": 83584,
        "player_name": "Vee Barton",
        "rank": 27889,
        "rank_sort": 27892,
        "total": 2370
      },
      {
        "club_badge_src": null,
        "entry": 1990728,
        "entry_name": "PreparedForTheWirtz",
        "event_total": 50,
        "has_played": true,
        "id": 14064552,
        "last_rank": 21609,
        "player_name": "Sean Rotherham",
        "rank": 27889,
        "rank_sort": 27893,
        "total": 2370
      },
      {
        "club_badge_src": null,
        "entry": 2395814,
        "entry_name": "Bayern bru",
        "event_total": 51,
        "has_played": true,
        "id": 17115359,
        "last_rank": 22376,
        "player_name": "Lorcan Bradley",
        "rank": 27889,
        "rank_sort": 27894,
        "total": 2370
      },
      {
        "club_badge_src": null,
        "entry": 2427429,
        "entry_name": "Emilive",
        "event_total": 37,
        "has_played": true,
        "id": 17357066,
        "last_rank": 13123,
        "player_name": "Pong K",
        "rank": 27889,
        "rank_sort": 27895,
        "total": 2370
      },
      {
        "club_badge_src": null,
        "entry": 2593196,
        "entry_name": "i hate fpl",
        "event_total": 88,
        "has_played": true,
        "id": 18619221,
        "last_rank": 72613,
        "player_name": "Will Bradley",
        "rank": 27889,
        "rank_sort": 27896,
        "total": 2370
      },
      {
        "club_badge_src": null,
        "entry": 4114265,
        "entry_name": "Sporting Dyl",
        "event_total": 56,
        "has_played": true,
        "id": 31075617,
        "last_rank": 26631,
        "player_name": "Dylan Jones",
        "rank": 27889,
        "rank_sort": 27897,
        "total": 2370
      },
      {
        "club_badge_src": null,
        "entry": 4371390,
        "entry_name": "Man U 2008",
        "event_total": 67,
        "has_played": true,
        "id": 33210587,
        "last_rank": 38542,
        "player_name": "Hemaang Agarwal",
        "rank": 27889,
        "rank_sort": 27898,
        "total": 2370
      },
      {
        "club_badge_src": null,
        "entry": 4939952,
        "entry_name": "Crumbs In The Bed",
        "event_total": 60,
        "has_played": true,
        "id": 38113524,
        "last_rank": 30536,
        "player_name": "Pharma Tom",
        "rank": 27889,
        "rank_sort": 27899,
        "total": 2370
      },
      {
        "club_badge_src": null,
        "entry": 5477312,
        "entry_name": "LayLoMay",
        "event_total": 68,
        "has_played": true,
        "id": 42641431,
        "last_rank": 39784,
        "player_name": "Jacq Chow",
        "rank": 27889,
        "rank_sort": 27900,
        "total": 2370
      }
    ]
  }
}