{
  "last_updated_data": "2026-05-24T23:28:17Z",
  "league": {
    "admin_entry": null,
    "closed": false,
    "code_privacy": "p",
    "created": "2025-07-20T23:14:33.933835Z",
    "cup_league": 2815434,
    "has_cup": true,
    "id": 314,
    "league_type": "s",
    "max_entries": null,
    "name": "Overall",
    "rank": null,
    "scoring": "c",
    "start_event": 1
  },
  "new_entries": {
    "has_next": false,
    "page": 1,
    "results": []
  },
  "standings": {
    "has_next": true,
    "page": 298,
    "results": [
      {
        "club_badge_src": null,
        "entry": 6436920,
        "entry_name": "Space Reijnders",
        "event_total": 71,
        "has_played": true,
        "id": 51246006,
        "last_rank": 24330,
        "player_name": "Kai Walker",
        "rank": 14750,
        "rank_sort": 14851,
        "total": 2388
      },
      {
        "club_badge_src": "https://fantasy.premierleague.com/gcs/plfpl-production-adobe-approved/plfpl-production/6452964/97e8e2d4-0869-4e85-bb42-208043e54b2d.png",
        "entry": 6452964,
        "entry_name": "Iwobi-Wan Kenobi",
        "event_total": 61,
        "has_played": true,
        "id": 51388308,
        "last_rank": 16702,
        "player_name": "James Silver",
        "rank": 14750,
        "rank_sort": 14852,
        "total": 2388
      },
      {
        "club_badge_src": null,
        "entry": 6564027,
        "entry_name": "ChaleyBePui",
        "event_total": 58,
        "has_played": true,
        "id": 52392020,
        "last_rank": 14926,
        "player_name": "Chalay Bam",
        "rank": 14750,
        "rank_sort": 14853,
        "total": 2388
      },
      {
        "club_badge_src": "https://fantasy.premierleague.com/gcs/plfpl-production-adobe-approved/plfpl-production/6565733/d71d3cbd-6728-4d17-a6fe-854b0ea94913.png",
        "entry": 6565733,
        "entry_name": "Pep Tore",
        "event_total": 59,
        "has_played": true,
        "id": 52407145,
        "last_rank": 15694,
        "player_name": "Mikal Aasberg Haugeland",
        "rank": 14750,
        "rank_sort": 14854,
        "total": 2388
      },
      {
        "club_badge_src": null,
        "entry": 6720638,
        "entry_name": "Zubi-Doobie-Do",
        "event_total": 63,
        "has_played": true,
        "id": 53787283,
        "last_rank": 17989,
        "player_name": "Ravi Mann",
        "rank": 14750,
        "rank_sort": 14855,
        "total": 2388
      },
      {
        "club_badge_src": null,
        "entry": 6742715,
        "entry_name": "Das ist Fu\u00dfball",
        "event_total": 56,
        "has_played": true,
        "id": 53974898,
        "last_rank": 13947,
        "player_name": "Vishaal Chouhan",
        "rank": 14750,
        "rank_sort": 14856,
        "total": 2388
      },
      {
        "club_badge_src": null,
        "entry": 6803060,
        "entry_name": "Tigra Mentality",
        "event_total": 52,
        "has_played": true,
        "id": 54482084,
        "last_rank": 11608,
        "player_name": "Martin Tomberg",
        "rank": 14750,
        "rank_sort": 14857,
        "total": 2388
      },
      {
        "club_badge_src": null,
        "entry": 6850891,
        "entry_name": "Merchants of Venice",
        "event_total": 55,
        "has_played": true,
        "id": 54886573,
        "last_rank": 13184,
        "player_name": "Sohail Merchant",
        "rank": 14750,
        "rank_sort": 14858,
        "total": 2388
      },
      {
        "club_badge_src": null,
        "entry": 6949570,
        "entry_name": "Mkurugenzi",
        "event_total": 56,
        "has_played": true,
        "id": 55724141,
        "last_rank": 13754,
        "player_name": "Inmate -14300",
        "rank": 14750,
        "rank_sort": 14859,
        "total": 2388
      },
      {
        "club_badge_src": null,
        "entry": 7061004,
        "entry_name": "Cunha Feel the Love",
        "event_total": 48,
        "has_played": true,
        "id": 56805206,
        "last_rank": 10031,
        "player_name": "Ace Hussain",
        "rank": 14750,
        "rank_sort": 14860,
        "total": 2388
      },
      {
        "club_badge_src": null,
        "entry": 7076773,
        "entry_name": "Ducksters",
        "event_total": 66,
        "has_played": true,
        "id": 56953207,
        "last_rank": 20280,
        "player_name": "Viktor Jakobsson",
        "rank": 14750,
        "rank_sort": 14861,
        "total": 2388
      },
      {
        "club_badge_src": null,
        "entry": 7188680,
        "entry_name": "Liverstolt",
        "event_total": 61,
        "has_played": true,
        "id": 58027691,
        "last_rank": 16675,
        "player_name": "Sverre Stoltenberg",
        "rank": 14750,
        "rank_sort": 14862,
        "total": 2388
      },
      {
        "club_badge_src": null,
        "entry": 8261749,
        "entry_name": "Nyborg",
        "event_total": 79,
        "has_played": true,
        "id": 68336059,
        "last_rank": 31556,
        "player_name": "Kristian Waage",
        "rank": 14750,
        "rank_sort": 14863,
        "total": 2388
      },
      {
        "club_badge_src": null,
        "entry": 8353560,
        "entry_name": "play like the girls",
        "event_total": 65,
        "has_played": true,
        "id": 69235441,
        "last_rank": 19544,
        "player_name": "Lucie Dick",
        "rank": 14750,
        "rank_sort": 14864,
        "total": 2388
      },
      {
        "club_badge_src": null,
        "entry": 8661454,
        "entry_name": "Podcast Enthusiast",
        "event_total": 64,
        "has_played": true,
        "id": 72203564,
        "last_rank": 18790,
        "player_name": "Alex Mclean",
        "rank": 14750,
        "rank_sort": 14865,
        "total": 2388
      },
      {
        "club_badge_src": null,
        "entry": 8761218,
        "entry_name": "Howeay the Lads",
        "event_total": 56,
        "has_played": true,
        "id": 73170005,
        "last_rank": 13821,
        "player_name": "Jack Elder",
        "rank": 14750,
        "rank_sort": 14866,
        "total": 2388
      },
      {
        "club_badge_src": null,
        "entry": 8801922,
        "entry_name": "pepisthegoatmctb",
        "event_total": 58,
        "has_played": true,
        "id": 73563399,
        "last_rank": 14832,
        "player_name": "Luke john",
        "rank": 14750,
        "rank_sort": 14867,
        "total": 2388
      },
      {
        "club_badge_src": null,
        "entry": 9141813,
        "entry_name": "Dirty Leeds",
        "event_total": 69,
        "has_played": true,
        "id": 76861338,
        "last_rank": 22426,
        "player_name": "Tom Palmer",
        "rank": 14750,
        "rank_sort": 14868,
        "total": 2388
      },
      {
        "club_badge_src": null,
        "entry": 2742,
        "entry_name": "Tosin and Turning FC",
        "event_total": 69,
        "has_played": true,
        "id": 15387,
        "last_rank": 19544,
        "player_name": "George Bonner",
        "rank": 14869,
        "rank_sort": 14869,
        "total": 2388
      },
      {
        "club_badge_src": null,
        "entry": 4448,
        "entry_name": "FPLPommy",
        "event_total": 58,
        "has_played": true,
        "id": 25290,
        "last_rank": 14926,
        "player_name": "Joshua Colk",
        "rank": 14869,
        "rank_sort": 14870,
        "total": 2388
      },
      {
        "club_badge_src": null,
        "entry": 5879,
        "entry_name": "Atherton XI",
        "event_total": 64,
        "has_played": true,
        "id": 33609,
        "last_rank": 18790,
        "player_name": "Callan Atherton",
        "rank": 14869,
        "rank_sort": 14871,
        "total": 2388
      },
      {
        "club_badge_src": null,
        "entry": 14215,
        "entry_name": "My Little Kone",
        "event_total": 59,
        "has_played": true,
        "id": 86216,
        "last_rank": 15550,
        "player_name": "Ronan Treacy",
        "rank": 14869,
        "rank_sort": 14872,
        "total": 2388
      },
      {
        "club_badge_src": null,
        "entry": 18739,
        "entry_name": "Bowen 747",
        "event_total": 69,
        "has_played": true,
        "id": 116615,
        "last_rank": 19544,
        "player_name": "Patrick Chalmers",
        "rank": 14869,
        "rank_sort": 14873,
        "total": 2388
      },
      {
        "club_badge_src": null,
        "entry": 30803,
        "entry_name": "Huijsen Sauce",
        "event_total": 71,
        "has_played": true,
        "id": 194966,
        "last_rank": 20983,
        "player_name": "Niklavs Grava",
        "rank": 14869,
        "rank_sort": 14874,
        "total": 2388
      },
      {
        "club_badge_src": null,
        "entry": 41542,
        "entry_name": "Sims City FC",
        "event_total": 56,
        "has_played": true,
        "id": 266170,
        "last_rank": 13947,
        "player_name": "Adam Sims",
        "rank": 14869,
        "rank_sort": 14875,
        "total": 2388
      },
      {
        "club_badge_src": null,
        "entry": 51165,
        "entry_name": "Boro Rejects",
        "event_total": 48,
        "has_played": true,
        "id": 329050,
        "last_rank": 10031,
        "player_name": "Jon Wetherell",
        "rank": 14869,
        "rank_sort": 14876,
        "total": 2388
      },
      {
        "club_badge_src": "https://fantasy.premierleague.com/gcs/plfpl-production-adobe-approved/plfpl-production/51205/61ba47b1-7742-49a1-b28d-0a8e10220265.png",
        "entry": 51205,
        "entry_name": "Desmond",
        "event_total": 60,
        "has_played": true,
        "id": 329317,
        "last_rank": 16062,
        "player_name": "Richard Fincham",
        "rank": 14869,
        "rank_sort": 14877,
        "total": 2388
      },
      {
        "club_badge_src": null,
        "entry": 66434,
        "entry_name": "Cirkuselefanterne",
        "event_total": 67,
        "has_played": true,
        "id": 429522,
        "last_rank": 18113,
        "player_name": "Casper Veje Anker",
        "rank": 14869,
        "rank_sort": 14878,
        "total": 2388
      },
      {
        "club_badge_src": null,
        "entry": 69664,
        "entry_name": "All Wrights",
        "event_total": 65,
        "has_played": true,
        "id": 452007,
        "last_rank": 16807,
        "player_name": "Josh Wright",
        "rank": 14869,
        "rank_sort": 14879,
        "total": 2388
      },
      {
        "club_badge_src": null,
        "entry": 89445,
        "entry_name": "MasterYates",
        "event_total": 76,
        "has_played": true,
        "id": 583887,
        "last_rank": 28726,
        "player_name": "Oliver Osbond",
        "rank": 14869,
        "rank_sort": 14880,
        "total": 2388
      },
      {
        "club_badge_src": null,
        "entry": 111664,
        "entry_name": "SalahLand FC",
        "event_total": 70,
        "has_played": true,
        "id": 728085,
        "last_rank": 23188,
        "player_name": "CHIEF HAMID",
        "rank": 14869,
        "rank_sort": 14881,
        "total": 2388
      },
      {
        "club_badge_src": null,
        "entry": 122446,
        "entry_name": "Nav's Old Boys",
        "event_total": 56,
        "has_played": true,
        "id": 798828,
        "last_rank": 11699,
        "player_name": "Navare Martin",
        "rank": 14869,
        "rank_sort": 14882,
        "total": 2388
      },
      {
        "club_badge_src": null,
        "entry": 122483,
        "entry_name": "13 19",
        "event_total": 25,
        "has_played": true,
        "id": 799064,
        "last_rank": 3601,
        "player_name": "Ben Parkin",
        "rank": 14869,
        "rank_sort": 14883,
        "total": 2388
      },
      {
        "club_badge_src": null,
        "entry": 127466,
        "entry_name": "Wilson IsiDON",
        "event_total": 68,
        "has_played": true,
        "id": 830953,
        "last_rank": 18790,
        "player_name": "Calum Egan",
        "rank": 14869,
        "rank_sort": 14884,
        "total": 2388
      },
      {
        "club_badge_src": null,
        "entry": 146457,
        "entry_name": "Sliddy FC",
        "event_total": 57,
        "has_played": true,
        "id": 959519,
        "last_rank": 14496,
        "player_name": "Sean Liddy",
        "rank": 14869,
        "rank_sort": 14885,
        "total": 2388
      },
      {
        "club_badge_src": null,
        "entry": 195415,
        "entry_name": "Rutter Woke Nonsense",
        "event_total": 55,
        "has_played": true,
        "id": 1295881,
        "last_rank": 13132,
        "player_name": "Joseph Dillingham",
        "rank": 14869,
        "rank_sort": 14886,
        "total": 2388
      },
      {
        "club_badge_src": null,
        "entry": 217345,
        "entry_name": "THANKSGIVING CHERKI",
        "event_total": 64,
        "has_played": true,
        "id": 1445461,
        "last_rank": 18790,
        "player_name": "Daniel Heikkila",
        "rank": 14869,
        "rank_sort": 14887,
        "total": 2388
      },
      {
        "club_badge_src": null,
        "entry": 219986,
        "entry_name": "Shanning City",
        "event_total": 59,
        "has_played": true,
        "id": 1463064,
        "last_rank": 13184,
        "player_name": "Charlie Two",
        "rank": 14869,
        "rank_sort": 14888,
        "total": 2388
      },
      {
        "club_badge_src": "https://fantasy.premierleague.com/gcs/plfpl-production-adobe-approved/plfpl-production/226657/eecdfc89-a2ec-4a70-968b-5ebf5d8e9d4c.png",
        "entry": 226657,
        "entry_name": "Hacunha Matata",
        "event_total": 63,
        "has_played": true,
        "id": 1507747,
        "last_rank": 17970,
        "player_name": "Fabian Kaloki",
        "rank": 14869,
        "rank_sort": 14889,
        "total": 2388
      },
      {
        "club_badge_src": null,
        "entry": 239367,
        "entry_name": "FC yoyo",
        "event_total": 60,
        "has_played": true,
        "id": 1592816,
        "last_rank": 13821,
        "player_name": "Youssef ET-TAYYEB",
        "rank": 14869,
        "rank_sort": 14890,
        "total": 2388
      },
      {
        "club_badge_src": null,
        "entry": 285609,
        "entry_name": "TheTribalChief Bader",
        "event_total": 65,
        "has_played": true,
        "id": 1902333,
        "last_rank": 19544,
        "player_name": "xvlii66 Otc",
        "rank": 14869,
        "rank_sort": 14891,
        "total": 2388
      },
      {
        "club_badge_src": null,
        "entry": 362968,
        "entry_name": "Aurko eleven",
        "event_total": 70,
        "has_played": true,
        "id": 2428751,
        "last_rank": 20280,
        "player_name": "Abdullah Aurko",
        "rank": 14869,
        "rank_sort": 14892,
        "total": 2388
      },
      {
        "club_badge_src": "https://fantasy.premierleague.com/gcs/plfpl-production-adobe-approved/plfpl-production/402804/59d1f292-989f-47e0-8075-ebb442b854d4.png",
        "entry": 402804,
        "entry_name": "Livin\u2019 Saliba Loca",
        "event_total": 63,
        "has_played": true,
        "id": 2700992,
        "last_rank": 18377,
        "player_name": "Luke Roberts",
        "rank": 14869,
        "rank_sort": 14893,
        "total": 2388
      },
      {
        "club_badge_src": null,
        "entry": 406269,
        "entry_name": "Pain in Dias",
        "event_total": 64,
        "has_played": true,
        "id": 2723953,
        "last_rank": 18640,
        "player_name": "Sam Dawson",
        "rank": 14869,
        "rank_sort": 14894,
        "total": 2388
      },
      {
        "club_badge_src": null,
        "entry": 406745,
        "entry_name": "Jim Smiths Army",
        "event_total": 70,
        "has_played": true,
        "id": 2727280,
        "last_rank": 23656,
        "player_name": "Andy Wood",
        "rank": 14869,
        "rank_sort": 14895,
        "total": 2388
      },
      {
        "club_badge_src": null,
        "entry": 438479,
        "entry_name": "Balotellitubbies",
        "event_total": 59,
        "has_played": true,
        "id": 2940330,
        "last_rank": 15694,
        "player_name": "Nick Blackman",
        "rank": 14869,
        "rank_sort": 14896,
        "total": 2388
      },
      {
        "club_badge_src": null,
        "entry": 441395,
        "entry_name": "Quaca",
        "event_total": 64,
        "has_played": true,
        "id": 2959577,
        "last_rank": 18790,
        "player_name": "Amar Kvakic",
        "rank": 14869,
        "rank_sort": 14897,
        "total": 2388
      },
      {
        "club_badge_src": "https://fantasy.premierleague.com/gcs/plfpl-production-adobe-approved/plfpl-production/443030/16f79896-b173-403c-8bf6-6aa667f8c1c5.png",
        "entry": 443030,
        "entry_name": "@cliff_fnc",
        "event_total": 54,
        "has_played": true,
        "id": 2970338,
        "last_rank": 12705,
        "player_name": "Anyona Ogaro",
        "rank": 14869,
        "rank_sort": 14898,
        "total": 2388
      },
      {
        "club_badge_src": null,
        "entry": 462371,
        "entry_name": "Shooting stars",
        "event_total": 85,
        "has_played": true,
        "id": 3101522,
        "last_rank": 38774,
        "player_name": "Mike White",
        "rank": 14869,
        "rank_sort": 14899,
        "total": 2388
      },
      {
        "club_badge_src": "https://fantasy.premierleague.com/gcs/plfpl-production-adobe-approved/plfpl-production/551056/dc9cbdea-2c48-401c-9b8d-65153e88ce12.png",
        "entry": 551056,
        "entry_name": "MOCNY GAZ",
        "event_total": 64,
        "has_played": true,
        "id": 3709067,
        "last_rank": 18985,
        "player_name": "Krzysztof W\u00f3jcik",
        "rank": 14869,
        "rank_sort": 14900,
        "total": 2388
      }
    ]
  }
}