{
  "last_updated_data": "2026-05-24T23:28:17Z",
  "league": {
    "admin_entry": null,
    "closed": false,
    "code_privacy": "p",
    "created": "2025-07-20T23:14:33.933835Z",
    "cup_league": 2815434,
    "has_cup": true,
    "id": 314,
    "league_type": "s",
    "max_entries": null,
    "name": "Overall",
    "rank": null,
    "scoring": "c",
    "start_event": 1
  },
  "new_entries": {
    "has_next": false,
    "page": 1,
    "results": []
  },
  "standings": {
    "has_next": true,
    "page": 1332,
    "results": [
      {
        "club_badge_src": null,
        "entry": 4588391,
        "entry_name": "100 times better",
        "event_total": 57,
        "has_played": true,
        "id": 35035032,
        "last_rank": 67422,
        "player_name": "Scott Lemmon",
        "rank": 66338,
        "rank_sort": 66551,
        "total": 2342
      },
      {
        "club_badge_src": null,
        "entry": 4604650,
        "entry_name": "ABU YUSUFF",
        "event_total": 60,
        "has_played": true,
        "id": 35179045,
        "last_rank": 73423,
        "player_name": "Cien Lentok",
        "rank": 66338,
        "rank_sort": 66552,
        "total": 2342
      },
      {
        "club_badge_src": "https://fantasy.premierleague.com/gcs/plfpl-production-adobe-approved/plfpl-production/4627962/83c360ce-d09c-4d85-9070-77b38d06f9ca.png",
        "entry": 4627962,
        "entry_name": "Bowen Arrow",
        "event_total": 60,
        "has_played": true,
        "id": 35383767,
        "last_rank": 65163,
        "player_name": "Henry Lightfoot",
        "rank": 66338,
        "rank_sort": 66553,
        "total": 2342
      },
      {
        "club_badge_src": null,
        "entry": 4692866,
        "entry_name": "E & J GGMU",
        "event_total": 36,
        "has_played": true,
        "id": 35971019,
        "last_rank": 35424,
        "player_name": "Bunnath By",
        "rank": 66338,
        "rank_sort": 66554,
        "total": 2342
      },
      {
        "club_badge_src": null,
        "entry": 4797278,
        "entry_name": "SemiSerious",
        "event_total": 61,
        "has_played": true,
        "id": 36935019,
        "last_rank": 74898,
        "player_name": "Anique Haque",
        "rank": 66338,
        "rank_sort": 66555,
        "total": 2342
      },
      {
        "club_badge_src": "https://fantasy.premierleague.com/gcs/plfpl-production-adobe-approved/plfpl-production/4995576/6623892b-1720-4cc7-ae96-e870a38b41fd.png",
        "entry": 4995576,
        "entry_name": "AL-SHABAB FC",
        "event_total": 52,
        "has_played": true,
        "id": 38570463,
        "last_rank": 58388,
        "player_name": "Ahmed Aly",
        "rank": 66338,
        "rank_sort": 66556,
        "total": 2342
      },
      {
        "club_badge_src": "https://fantasy.premierleague.com/gcs/plfpl-production-adobe-approved/plfpl-production/5006628/aea2f2a5-c044-468b-a9c5-5bfd9dba9e7a.png",
        "entry": 5006628,
        "entry_name": "Woods Wanderers V",
        "event_total": 49,
        "has_played": true,
        "id": 38660707,
        "last_rank": 53345,
        "player_name": "Nicholas Wood",
        "rank": 66338,
        "rank_sort": 66557,
        "total": 2342
      },
      {
        "club_badge_src": null,
        "entry": 5115475,
        "entry_name": "Juggernaut FC",
        "event_total": 57,
        "has_played": true,
        "id": 39549043,
        "last_rank": 67422,
        "player_name": "edward polonsky",
        "rank": 66338,
        "rank_sort": 66558,
        "total": 2342
      },
      {
        "club_badge_src": null,
        "entry": 5285792,
        "entry_name": "Wirtzkommen",
        "event_total": 75,
        "has_played": true,
        "id": 40971176,
        "last_rank": 108689,
        "player_name": "Niall O-Brien",
        "rank": 66338,
        "rank_sort": 66559,
        "total": 2342
      },
      {
        "club_badge_src": null,
        "entry": 5297190,
        "entry_name": "RofakoFc",
        "event_total": 61,
        "has_played": true,
        "id": 41060980,
        "last_rank": 75537,
        "player_name": "Christopher Okafor",
        "rank": 66338,
        "rank_sort": 66560,
        "total": 2342
      },
      {
        "club_badge_src": null,
        "entry": 5322135,
        "entry_name": "Slot Machine",
        "event_total": 58,
        "has_played": true,
        "id": 41257447,
        "last_rank": 61606,
        "player_name": "Tonye Dokubo",
        "rank": 66338,
        "rank_sort": 66561,
        "total": 2342
      },
      {
        "club_badge_src": null,
        "entry": 5328192,
        "entry_name": "Rainbow Rhythms",
        "event_total": 59,
        "has_played": true,
        "id": 41305327,
        "last_rank": 71386,
        "player_name": "Steven Doherty",
        "rank": 66338,
        "rank_sort": 66562,
        "total": 2342
      },
      {
        "club_badge_src": null,
        "entry": 5482776,
        "entry_name": "Linje L2 FK",
        "event_total": 59,
        "has_played": true,
        "id": 42690545,
        "last_rank": 70985,
        "player_name": "Kristian Lefdal",
        "rank": 66338,
        "rank_sort": 66563,
        "total": 2342
      },
      {
        "club_badge_src": null,
        "entry": 5514639,
        "entry_name": "SK Dons",
        "event_total": 61,
        "has_played": true,
        "id": 42990978,
        "last_rank": 75537,
        "player_name": "Daniel Mullin",
        "rank": 66338,
        "rank_sort": 66564,
        "total": 2342
      },
      {
        "club_badge_src": null,
        "entry": 5518453,
        "entry_name": "STONECOLD STEVE AYUL",
        "event_total": 73,
        "has_played": true,
        "id": 43027881,
        "last_rank": 103254,
        "player_name": "Don Ayul",
        "rank": 66338,
        "rank_sort": 66565,
        "total": 2342
      },
      {
        "club_badge_src": null,
        "entry": 5532055,
        "entry_name": "Crashbuddies",
        "event_total": 76,
        "has_played": true,
        "id": 43157920,
        "last_rank": 111669,
        "player_name": "Gavin Matheson",
        "rank": 66338,
        "rank_sort": 66566,
        "total": 2342
      },
      {
        "club_badge_src": null,
        "entry": 5576344,
        "entry_name": "Abanoub",
        "event_total": 55,
        "has_played": true,
        "id": 43548599,
        "last_rank": 63724,
        "player_name": "Abanoub Ashraf",
        "rank": 66338,
        "rank_sort": 66567,
        "total": 2342
      },
      {
        "club_badge_src": null,
        "entry": 5593808,
        "entry_name": "Mahmoud United",
        "event_total": 39,
        "has_played": true,
        "id": 43703201,
        "last_rank": 39246,
        "player_name": "Mahmoud rateb",
        "rank": 66338,
        "rank_sort": 66568,
        "total": 2342
      },
      {
        "club_badge_src": null,
        "entry": 5628783,
        "entry_name": "Matt Trick Heroes",
        "event_total": 64,
        "has_played": true,
        "id": 44006392,
        "last_rank": 81646,
        "player_name": "Matthew Boyd",
        "rank": 66338,
        "rank_sort": 66569,
        "total": 2342
      },
      {
        "club_badge_src": null,
        "entry": 5644988,
        "entry_name": "Fenner 11",
        "event_total": 48,
        "has_played": true,
        "id": 44152426,
        "last_rank": 51403,
        "player_name": "Joey Fenner",
        "rank": 66338,
        "rank_sort": 66570,
        "total": 2342
      },
      {
        "club_badge_src": null,
        "entry": 5671777,
        "entry_name": "GetMeLigt",
        "event_total": 42,
        "has_played": true,
        "id": 44384367,
        "last_rank": 42940,
        "player_name": "Adesope Adebomi",
        "rank": 66338,
        "rank_sort": 66571,
        "total": 2342
      },
      {
        "club_badge_src": null,
        "entry": 5772436,
        "entry_name": "Salah jag vinna igen",
        "event_total": 48,
        "has_played": true,
        "id": 45257738,
        "last_rank": 51720,
        "player_name": "Bengan -",
        "rank": 66338,
        "rank_sort": 66572,
        "total": 2342
      },
      {
        "club_badge_src": null,
        "entry": 5870539,
        "entry_name": "Kibitzer G^2",
        "event_total": 48,
        "has_played": true,
        "id": 46109653,
        "last_rank": 51720,
        "player_name": "Kenneth Leung",
        "rank": 66338,
        "rank_sort": 66573,
        "total": 2342
      },
      {
        "club_badge_src": "https://fantasy.premierleague.com/gcs/plfpl-production-adobe-approved/plfpl-production/5993694/bb710856-45a5-4b05-bf7b-3d2ddc8a5088.png",
        "entry": 5993694,
        "entry_name": "11 GNIEWNYCH LUDZI",
        "event_total": 78,
        "has_played": true,
        "id": 47234857,
        "last_rank": 116953,
        "player_name": "Mateusz Dziobiak",
        "rank": 66338,
        "rank_sort": 66574,
        "total": 2342
      },
      {
        "club_badge_src": null,
        "entry": 6025789,
        "entry_name": "3peat",
        "event_total": 61,
        "has_played": true,
        "id": 47528500,
        "last_rank": 75537,
        "player_name": "Stephen Magrath",
        "rank": 66338,
        "rank_sort": 66575,
        "total": 2342
      },
      {
        "club_badge_src": null,
        "entry": 6107102,
        "entry_name": "Class Act",
        "event_total": 52,
        "has_played": true,
        "id": 48238140,
        "last_rank": 58688,
        "player_name": "Jo\u00e3o Jesus",
        "rank": 66338,
        "rank_sort": 66576,
        "total": 2342
      },
      {
        "club_badge_src": null,
        "entry": 6188483,
        "entry_name": "Pogba XI",
        "event_total": 51,
        "has_played": true,
        "id": 48945622,
        "last_rank": 56369,
        "player_name": "Pauli Pogba",
        "rank": 66338,
        "rank_sort": 66577,
        "total": 2342
      },
      {
        "club_badge_src": null,
        "entry": 6294164,
        "entry_name": "Pz.Kpfw.I Ausf.C",
        "event_total": 37,
        "has_played": true,
        "id": 49879298,
        "last_rank": 36831,
        "player_name": "Takeshi Onodera",
        "rank": 66338,
        "rank_sort": 66578,
        "total": 2342
      },
      {
        "club_badge_src": null,
        "entry": 6381432,
        "entry_name": "Theinvincible0ne",
        "event_total": 57,
        "has_played": true,
        "id": 50754914,
        "last_rank": 67422,
        "player_name": "Subodh Khanal",
        "rank": 66338,
        "rank_sort": 66579,
        "total": 2342
      },
      {
        "club_badge_src": null,
        "entry": 6590482,
        "entry_name": "Lexmerciful Deals",
        "event_total": 70,
        "has_played": true,
        "id": 52635460,
        "last_rank": 95890,
        "player_name": "Lexmerciful Deals",
        "rank": 66338,
        "rank_sort": 66580,
        "total": 2342
      },
      {
        "club_badge_src": null,
        "entry": 6649782,
        "entry_name": "WinCity",
        "event_total": 61,
        "has_played": true,
        "id": 53160497,
        "last_rank": 75537,
        "player_name": "Sahil Mathur",
        "rank": 66338,
        "rank_sort": 66581,
        "total": 2342
      },
      {
        "club_badge_src": null,
        "entry": 6653911,
        "entry_name": "Godden again ol\u00e9 ol\u00e9",
        "event_total": 71,
        "has_played": true,
        "id": 53198720,
        "last_rank": 98896,
        "player_name": "James Rand",
        "rank": 66338,
        "rank_sort": 66582,
        "total": 2342
      },
      {
        "club_badge_src": null,
        "entry": 6655582,
        "entry_name": "Borat",
        "event_total": 66,
        "has_played": true,
        "id": 53214502,
        "last_rank": 77258,
        "player_name": "Bharat Vijay",
        "rank": 66338,
        "rank_sort": 66583,
        "total": 2342
      },
      {
        "club_badge_src": null,
        "entry": 6740854,
        "entry_name": "Reece Lightning",
        "event_total": 62,
        "has_played": true,
        "id": 53958901,
        "last_rank": 77258,
        "player_name": "Art Plumridge-Fetuga",
        "rank": 66338,
        "rank_sort": 66584,
        "total": 2342
      },
      {
        "club_badge_src": null,
        "entry": 6758638,
        "entry_name": "zac johnson",
        "event_total": 67,
        "has_played": true,
        "id": 54111776,
        "last_rank": 89055,
        "player_name": "Zac Johnson",
        "rank": 66338,
        "rank_sort": 66585,
        "total": 2342
      },
      {
        "club_badge_src": null,
        "entry": 6782220,
        "entry_name": "Welchinho",
        "event_total": 61,
        "has_played": true,
        "id": 54308738,
        "last_rank": 75537,
        "player_name": "Jack Welch",
        "rank": 66338,
        "rank_sort": 66586,
        "total": 2342
      },
      {
        "club_badge_src": null,
        "entry": 6825304,
        "entry_name": "She's a Kepa",
        "event_total": 50,
        "has_played": true,
        "id": 54668855,
        "last_rank": 54380,
        "player_name": "Brad Hargreaves",
        "rank": 66338,
        "rank_sort": 66587,
        "total": 2342
      },
      {
        "club_badge_src": null,
        "entry": 6907502,
        "entry_name": "UpTheBluff",
        "event_total": 55,
        "has_played": true,
        "id": 55366786,
        "last_rank": 63724,
        "player_name": "Sean Bragg",
        "rank": 66338,
        "rank_sort": 66588,
        "total": 2342
      },
      {
        "club_badge_src": null,
        "entry": 6973844,
        "entry_name": "Baker Neverlosin'",
        "event_total": 54,
        "has_played": true,
        "id": 55946279,
        "last_rank": 61950,
        "player_name": "Paul Baker",
        "rank": 66338,
        "rank_sort": 66589,
        "total": 2342
      },
      {
        "club_badge_src": null,
        "entry": 6975532,
        "entry_name": "\u0160e\u0161kotherapy",
        "event_total": 53,
        "has_played": true,
        "id": 55965525,
        "last_rank": 60168,
        "player_name": "Vinodh Nambiar",
        "rank": 66338,
        "rank_sort": 66590,
        "total": 2342
      },
      {
        "club_badge_src": null,
        "entry": 6980969,
        "entry_name": "Sesko Express",
        "event_total": 75,
        "has_played": true,
        "id": 56026875,
        "last_rank": 98183,
        "player_name": "Andrew O'Sullivan",
        "rank": 66338,
        "rank_sort": 66591,
        "total": 2342
      },
      {
        "club_badge_src": null,
        "entry": 6993961,
        "entry_name": "Clark The Bus",
        "event_total": 67,
        "has_played": true,
        "id": 56146862,
        "last_rank": 88594,
        "player_name": "Jack Clark",
        "rank": 66338,
        "rank_sort": 66592,
        "total": 2342
      },
      {
        "club_badge_src": null,
        "entry": 7140709,
        "entry_name": "me, myself, ndiaye",
        "event_total": 78,
        "has_played": true,
        "id": 57561498,
        "last_rank": 117915,
        "player_name": "Joshua Hodds",
        "rank": 66338,
        "rank_sort": 66593,
        "total": 2342
      },
      {
        "club_badge_src": null,
        "entry": 7172321,
        "entry_name": "TheFamousArsenal",
        "event_total": 68,
        "has_played": true,
        "id": 57874631,
        "last_rank": 91466,
        "player_name": "Dumitru Nurciu",
        "rank": 66338,
        "rank_sort": 66594,
        "total": 2342
      },
      {
        "club_badge_src": "https://fantasy.premierleague.com/gcs/plfpl-production-adobe-approved/plfpl-production/7252790/fed1b727-36c8-4510-b1df-1efe65cd619f.png",
        "entry": 7252790,
        "entry_name": "Ctrl Alt Deligt",
        "event_total": 60,
        "has_played": true,
        "id": 58633051,
        "last_rank": 73423,
        "player_name": "Hassan Deabes",
        "rank": 66338,
        "rank_sort": 66595,
        "total": 2342
      },
      {
        "club_badge_src": null,
        "entry": 7261318,
        "entry_name": "Cunha Leny a Yoro?",
        "event_total": 42,
        "has_played": true,
        "id": 58712061,
        "last_rank": 42940,
        "player_name": "Ciaran Mooney",
        "rank": 66338,
        "rank_sort": 66596,
        "total": 2342
      },
      {
        "club_badge_src": null,
        "entry": 7461527,
        "entry_name": "macker",
        "event_total": 62,
        "has_played": true,
        "id": 60784963,
        "last_rank": 77676,
        "player_name": "Adam McCabe",
        "rank": 66338,
        "rank_sort": 66597,
        "total": 2342
      },
      {
        "club_badge_src": null,
        "entry": 7573301,
        "entry_name": "Haaland Trembla",
        "event_total": 60,
        "has_played": true,
        "id": 62022449,
        "last_rank": 73038,
        "player_name": "Chirag Rajesh",
        "rank": 66338,
        "rank_sort": 66598,
        "total": 2342
      },
      {
        "club_badge_src": null,
        "entry": 7588305,
        "entry_name": "Almoatasem",
        "event_total": 58,
        "has_played": true,
        "id": 62159585,
        "last_rank": 69323,
        "player_name": "Almoatasem Alghailani",
        "rank": 66338,
        "rank_sort": 66599,
        "total": 2342
      },
      {
        "club_badge_src": null,
        "entry": 7600008,
        "entry_name": "Whu-Tang Clan",
        "event_total": 50,
        "has_played": true,
        "id": 62265037,
        "last_rank": 55311,
        "player_name": "James Boylan",
        "rank": 66338,
        "rank_sort": 66600,
        "total": 2342
      }
    ]
  }
}