{
  "last_updated_data": "2026-05-24T23:28:17Z",
  "league": {
    "admin_entry": null,
    "closed": false,
    "code_privacy": "p",
    "created": "2025-07-20T23:14:33.933835Z",
    "cup_league": 2815434,
    "has_cup": true,
    "id": 314,
    "league_type": "s",
    "max_entries": null,
    "name": "Overall",
    "rank": null,
    "scoring": "c",
    "start_event": 1
  },
  "new_entries": {
    "has_next": false,
    "page": 1,
    "results": []
  },
  "standings": {
    "has_next": true,
    "page": 910,
    "results": [
      {
        "club_badge_src": null,
        "entry": 1460473,
        "entry_name": "One Arm Sweats",
        "event_total": 72,
        "has_played": true,
        "id": 10180185,
        "last_rank": 71386,
        "player_name": "Sam Cradick",
        "rank": 45336,
        "rank_sort": 45451,
        "total": 2355
      },
      {
        "club_badge_src": "https://fantasy.premierleague.com/gcs/plfpl-production-adobe-approved/plfpl-production/1466844/b1699b55-2914-4611-80a0-01e7d7ea7a0d.png",
        "entry": 1466844,
        "entry_name": "Grand Land",
        "event_total": 66,
        "has_played": true,
        "id": 10224514,
        "last_rank": 53023,
        "player_name": "Jacob Grand",
        "rank": 45336,
        "rank_sort": 45452,
        "total": 2355
      },
      {
        "club_badge_src": "https://fantasy.premierleague.com/gcs/plfpl-production-adobe-approved/plfpl-production/1524433/ad070c20-0eae-40dc-83c8-02c6eb0857a7.png",
        "entry": 1524433,
        "entry_name": "mladen.lfc",
        "event_total": 60,
        "has_played": true,
        "id": 10632467,
        "last_rank": 49880,
        "player_name": "Mladen Markovic",
        "rank": 45336,
        "rank_sort": 45453,
        "total": 2355
      },
      {
        "club_badge_src": null,
        "entry": 1575743,
        "entry_name": "dylnw",
        "event_total": 75,
        "has_played": true,
        "id": 11010815,
        "last_rank": 77050,
        "player_name": "Patcharadanai siriwong",
        "rank": 45336,
        "rank_sort": 45454,
        "total": 2355
      },
      {
        "club_badge_src": null,
        "entry": 1599816,
        "entry_name": "Why Ayew Running",
        "event_total": 53,
        "has_played": true,
        "id": 11191668,
        "last_rank": 40297,
        "player_name": "Phil Brayfield",
        "rank": 45336,
        "rank_sort": 45455,
        "total": 2355
      },
      {
        "club_badge_src": "https://fantasy.premierleague.com/gcs/plfpl-production-adobe-approved/plfpl-production/1630951/6185250c-e703-4081-bc58-53b2711a7f53.png",
        "entry": 1630951,
        "entry_name": "Alex Mou",
        "event_total": 64,
        "has_played": true,
        "id": 11415718,
        "last_rank": 49691,
        "player_name": "Alexandros Kirkillis",
        "rank": 45336,
        "rank_sort": 45456,
        "total": 2355
      },
      {
        "club_badge_src": null,
        "entry": 1634142,
        "entry_name": "mansour 2026",
        "event_total": 38,
        "has_played": true,
        "id": 11438240,
        "last_rank": 24330,
        "player_name": "Mohamed Mansour",
        "rank": 45336,
        "rank_sort": 45457,
        "total": 2355
      },
      {
        "club_badge_src": null,
        "entry": 1743630,
        "entry_name": "Kvam",
        "event_total": 63,
        "has_played": true,
        "id": 12234688,
        "last_rank": 55014,
        "player_name": "Erlend Kvam",
        "rank": 45336,
        "rank_sort": 45458,
        "total": 2355
      },
      {
        "club_badge_src": null,
        "entry": 1766570,
        "entry_name": "TEC FC",
        "event_total": 76,
        "has_played": true,
        "id": 12408529,
        "last_rank": 79817,
        "player_name": "Tochi Okafor",
        "rank": 45336,
        "rank_sort": 45459,
        "total": 2355
      },
      {
        "club_badge_src": null,
        "entry": 1775047,
        "entry_name": "PS Hotshots",
        "event_total": 64,
        "has_played": true,
        "id": 12469776,
        "last_rank": 49880,
        "player_name": "Peter Skinner",
        "rank": 45336,
        "rank_sort": 45460,
        "total": 2355
      },
      {
        "club_badge_src": null,
        "entry": 1787359,
        "entry_name": "3peat incoming",
        "event_total": 64,
        "has_played": true,
        "id": 12558664,
        "last_rank": 56369,
        "player_name": "Aaron Melder",
        "rank": 45336,
        "rank_sort": 45461,
        "total": 2355
      },
      {
        "club_badge_src": null,
        "entry": 1797867,
        "entry_name": "BUNG FC",
        "event_total": 59,
        "has_played": true,
        "id": 12634890,
        "last_rank": 48642,
        "player_name": "Joe Bungay",
        "rank": 45336,
        "rank_sort": 45462,
        "total": 2355
      },
      {
        "club_badge_src": null,
        "entry": 1850309,
        "entry_name": "Micro Mauraders",
        "event_total": 52,
        "has_played": true,
        "id": 13020067,
        "last_rank": 39246,
        "player_name": "Niall Fitzpatrick",
        "rank": 45336,
        "rank_sort": 45463,
        "total": 2355
      },
      {
        "club_badge_src": null,
        "entry": 1911236,
        "entry_name": "Suisse Pirate",
        "event_total": 65,
        "has_played": true,
        "id": 13474603,
        "last_rank": 57857,
        "player_name": "Chris Miller",
        "rank": 45336,
        "rank_sort": 45464,
        "total": 2355
      },
      {
        "club_badge_src": null,
        "entry": 1970844,
        "entry_name": "Ozzyaboutheboyboy FC",
        "event_total": 51,
        "has_played": true,
        "id": 13910138,
        "last_rank": 37822,
        "player_name": "Ronnie Gailey",
        "rank": 45336,
        "rank_sort": 45465,
        "total": 2355
      },
      {
        "club_badge_src": null,
        "entry": 1985320,
        "entry_name": "Rancho Santana",
        "event_total": 63,
        "has_played": true,
        "id": 14023776,
        "last_rank": 48363,
        "player_name": "Karlo Nikoli\u0107",
        "rank": 45336,
        "rank_sort": 45466,
        "total": 2355
      },
      {
        "club_badge_src": null,
        "entry": 1993841,
        "entry_name": "Em em em, the Prem",
        "event_total": 60,
        "has_played": true,
        "id": 14088060,
        "last_rank": 49880,
        "player_name": "Sven Vermeulen",
        "rank": 45336,
        "rank_sort": 45467,
        "total": 2355
      },
      {
        "club_badge_src": null,
        "entry": 2010538,
        "entry_name": "Sveler\u00f8re",
        "event_total": 58,
        "has_played": true,
        "id": 14216457,
        "last_rank": 47163,
        "player_name": "Lars Andreas Folkestad",
        "rank": 45336,
        "rank_sort": 45468,
        "total": 2355
      },
      {
        "club_badge_src": null,
        "entry": 2017988,
        "entry_name": "Kuke",
        "event_total": 58,
        "has_played": true,
        "id": 14276904,
        "last_rank": 46839,
        "player_name": "Kuldeep Rawat",
        "rank": 45336,
        "rank_sort": 45469,
        "total": 2355
      },
      {
        "club_badge_src": null,
        "entry": 2055589,
        "entry_name": "Tsch\u00fcss",
        "event_total": 44,
        "has_played": true,
        "id": 14561602,
        "last_rank": 29904,
        "player_name": "Ahshadul Haque Sunny",
        "rank": 45336,
        "rank_sort": 45470,
        "total": 2355
      },
      {
        "club_badge_src": null,
        "entry": 2123108,
        "entry_name": "F.C CopenH\u00e4agen\u2011Dazs",
        "event_total": 42,
        "has_played": true,
        "id": 15082183,
        "last_rank": 27976,
        "player_name": "Matthew Millard",
        "rank": 45336,
        "rank_sort": 45471,
        "total": 2355
      },
      {
        "club_badge_src": null,
        "entry": 2173149,
        "entry_name": "MaW1n",
        "event_total": 63,
        "has_played": true,
        "id": 15452280,
        "last_rank": 55014,
        "player_name": "W K.",
        "rank": 45336,
        "rank_sort": 45472,
        "total": 2355
      },
      {
        "club_badge_src": null,
        "entry": 2187391,
        "entry_name": "Tompurinho",
        "event_total": 58,
        "has_played": true,
        "id": 15560929,
        "last_rank": 47163,
        "player_name": "Tomi Ojala",
        "rank": 45336,
        "rank_sort": 45473,
        "total": 2355
      },
      {
        "club_badge_src": null,
        "entry": 2192710,
        "entry_name": "Team Name",
        "event_total": 64,
        "has_played": true,
        "id": 15600613,
        "last_rank": 49880,
        "player_name": "Barry Smith",
        "rank": 45336,
        "rank_sort": 45474,
        "total": 2355
      },
      {
        "club_badge_src": null,
        "entry": 2264140,
        "entry_name": "Man U",
        "event_total": 69,
        "has_played": true,
        "id": 16143189,
        "last_rank": 65475,
        "player_name": "Avinaw Atul",
        "rank": 45336,
        "rank_sort": 45475,
        "total": 2355
      },
      {
        "club_badge_src": null,
        "entry": 2264333,
        "entry_name": "AS Football Club",
        "event_total": 67,
        "has_played": true,
        "id": 16144638,
        "last_rank": 61950,
        "player_name": "An\u00e9rcio Sousa",
        "rank": 45336,
        "rank_sort": 45476,
        "total": 2355
      },
      {
        "club_badge_src": "https://fantasy.premierleague.com/gcs/plfpl-production-adobe-approved/plfpl-production/2265751/7559177a-8abf-4cd2-aeaa-ce4ef83be9f7.png",
        "entry": 2265751,
        "entry_name": "For Beto or Wirtz",
        "event_total": 80,
        "has_played": true,
        "id": 16154818,
        "last_rank": 88594,
        "player_name": "Ben Ashworth",
        "rank": 45336,
        "rank_sort": 45477,
        "total": 2355
      },
      {
        "club_badge_src": null,
        "entry": 2313031,
        "entry_name": "youngs gunners",
        "event_total": 68,
        "has_played": true,
        "id": 16499631,
        "last_rank": 63724,
        "player_name": "Mitchell Young",
        "rank": 45336,
        "rank_sort": 45478,
        "total": 2355
      },
      {
        "club_badge_src": null,
        "entry": 2372186,
        "entry_name": "zain",
        "event_total": 47,
        "has_played": true,
        "id": 16934381,
        "last_rank": 33147,
        "player_name": "Every year Champion",
        "rank": 45336,
        "rank_sort": 45479,
        "total": 2355
      },
      {
        "club_badge_src": null,
        "entry": 2373583,
        "entry_name": "UTC",
        "event_total": 52,
        "has_played": true,
        "id": 16944674,
        "last_rank": 39023,
        "player_name": "james ainsworth",
        "rank": 45336,
        "rank_sort": 45480,
        "total": 2355
      },
      {
        "club_badge_src": null,
        "entry": 2441907,
        "entry_name": "NANANANANA HARTMAN!",
        "event_total": 67,
        "has_played": true,
        "id": 17463911,
        "last_rank": 61606,
        "player_name": "Jesper Melgers",
        "rank": 45336,
        "rank_sort": 45481,
        "total": 2355
      },
      {
        "club_badge_src": null,
        "entry": 2468118,
        "entry_name": "Al7ammadi",
        "event_total": 78,
        "has_played": true,
        "id": 17655636,
        "last_rank": 84731,
        "player_name": "Khaled Alhammadi",
        "rank": 45336,
        "rank_sort": 45482,
        "total": 2355
      },
      {
        "club_badge_src": null,
        "entry": 2503463,
        "entry_name": "Victorious Secret",
        "event_total": 64,
        "has_played": true,
        "id": 17927046,
        "last_rank": 56369,
        "player_name": "Mark Hopwood",
        "rank": 45336,
        "rank_sort": 45483,
        "total": 2355
      },
      {
        "club_badge_src": null,
        "entry": 2508518,
        "entry_name": "Umer XI",
        "event_total": 64,
        "has_played": true,
        "id": 17965312,
        "last_rank": 56708,
        "player_name": "Umer Farooq Chaudhry",
        "rank": 45336,
        "rank_sort": 45484,
        "total": 2355
      },
      {
        "club_badge_src": null,
        "entry": 2514396,
        "entry_name": "\u0641\u0631\u064a\u0642 \u0627\u0644\u0628\u0643\u0628\u0648\u0631\u062a\u0627\u062a",
        "event_total": 64,
        "has_played": true,
        "id": 18013872,
        "last_rank": 56369,
        "player_name": "Mohammed Farahat",
        "rank": 45336,
        "rank_sort": 45485,
        "total": 2355
      },
      {
        "club_badge_src": null,
        "entry": 2522053,
        "entry_name": "11 Man Wolf Pack",
        "event_total": 59,
        "has_played": true,
        "id": 18071067,
        "last_rank": 48642,
        "player_name": "Kenneth McFarlane",
        "rank": 45336,
        "rank_sort": 45486,
        "total": 2355
      },
      {
        "club_badge_src": null,
        "entry": 2662271,
        "entry_name": "Auto Glasner Repair",
        "event_total": 69,
        "has_played": true,
        "id": 19137872,
        "last_rank": 57857,
        "player_name": "Will Addison-Atkinson",
        "rank": 45336,
        "rank_sort": 45487,
        "total": 2355
      },
      {
        "club_badge_src": null,
        "entry": 2695906,
        "entry_name": "the cesc pistols",
        "event_total": 44,
        "has_played": true,
        "id": 19392596,
        "last_rank": 29904,
        "player_name": "Alfie Chambers",
        "rank": 45336,
        "rank_sort": 45488,
        "total": 2355
      },
      {
        "club_badge_src": "https://fantasy.premierleague.com/gcs/plfpl-production-adobe-approved/plfpl-production/2714259/f0837976-4c0b-4297-9d15-9ffab0544f40.png",
        "entry": 2714259,
        "entry_name": "Ratatouille",
        "event_total": 54,
        "has_played": true,
        "id": 19529324,
        "last_rank": 36348,
        "player_name": "Vice \u010cutura",
        "rank": 45336,
        "rank_sort": 45489,
        "total": 2355
      },
      {
        "club_badge_src": null,
        "entry": 2734563,
        "entry_name": "MinusTransferPointFC",
        "event_total": 60,
        "has_played": true,
        "id": 19678595,
        "last_rank": 50199,
        "player_name": "Alit Grg",
        "rank": 45336,
        "rank_sort": 45490,
        "total": 2355
      },
      {
        "club_badge_src": null,
        "entry": 2750856,
        "entry_name": "Fabian Shards",
        "event_total": 67,
        "has_played": true,
        "id": 19984904,
        "last_rank": 61950,
        "player_name": "Mark Shardlow",
        "rank": 45336,
        "rank_sort": 45491,
        "total": 2355
      },
      {
        "club_badge_src": null,
        "entry": 2773607,
        "entry_name": "BEDNAWRECK",
        "event_total": 49,
        "has_played": true,
        "id": 20239504,
        "last_rank": 35166,
        "player_name": "Filip Rek",
        "rank": 45336,
        "rank_sort": 45492,
        "total": 2355
      },
      {
        "club_badge_src": null,
        "entry": 2816545,
        "entry_name": "vik fc",
        "event_total": 87,
        "has_played": true,
        "id": 20572649,
        "last_rank": 106259,
        "player_name": "Vikhyaat Malhotra",
        "rank": 45336,
        "rank_sort": 45493,
        "total": 2355
      },
      {
        "club_badge_src": null,
        "entry": 2894440,
        "entry_name": "ABCDE FC",
        "event_total": 74,
        "has_played": true,
        "id": 21204702,
        "last_rank": 75139,
        "player_name": "Brian Potter",
        "rank": 45336,
        "rank_sort": 45494,
        "total": 2355
      },
      {
        "club_badge_src": null,
        "entry": 2906192,
        "entry_name": "Doubts all the way",
        "event_total": 41,
        "has_played": true,
        "id": 21298561,
        "last_rank": 26827,
        "player_name": "Dan Jenner",
        "rank": 45336,
        "rank_sort": 45495,
        "total": 2355
      },
      {
        "club_badge_src": null,
        "entry": 2913709,
        "entry_name": "real Madrid",
        "event_total": 44,
        "has_played": true,
        "id": 21356646,
        "last_rank": 29688,
        "player_name": "\u0645\u0627\u0631\u064a\u0633\u0644\u0648 \u0628\u064a\u0644\u0633\u0627",
        "rank": 45336,
        "rank_sort": 45496,
        "total": 2355
      },
      {
        "club_badge_src": null,
        "entry": 2931960,
        "entry_name": "Delap dance",
        "event_total": 40,
        "has_played": true,
        "id": 21496326,
        "last_rank": 26230,
        "player_name": "Luca Foianesi",
        "rank": 45336,
        "rank_sort": 45497,
        "total": 2355
      },
      {
        "club_badge_src": null,
        "entry": 2970365,
        "entry_name": "Crumballing on",
        "event_total": 62,
        "has_played": true,
        "id": 21824258,
        "last_rank": 53345,
        "player_name": "Callum Rumball",
        "rank": 45336,
        "rank_sort": 45498,
        "total": 2355
      },
      {
        "club_badge_src": null,
        "entry": 2984727,
        "entry_name": "Bukayo to the Futre",
        "event_total": 58,
        "has_played": true,
        "id": 21946305,
        "last_rank": 47163,
        "player_name": "Matt Price",
        "rank": 45336,
        "rank_sort": 45499,
        "total": 2355
      },
      {
        "club_badge_src": "https://fantasy.premierleague.com/gcs/plfpl-production-adobe-approved/plfpl-production/3084015/23d2a576-6931-4cb5-b929-36b483db04d0.png",
        "entry": 3084015,
        "entry_name": "DonStinoo",
        "event_total": 58,
        "has_played": true,
        "id": 22721629,
        "last_rank": 47163,
        "player_name": "Stijn Savelkoul",
        "rank": 45336,
        "rank_sort": 45500,
        "total": 2355
      }
    ]
  }
}