{
  "last_updated_data": "2026-05-24T23:28:17Z",
  "league": {
    "admin_entry": null,
    "closed": false,
    "code_privacy": "p",
    "created": "2025-07-20T23:14:33.933835Z",
    "cup_league": 2815434,
    "has_cup": true,
    "id": 314,
    "league_type": "s",
    "max_entries": null,
    "name": "Overall",
    "rank": null,
    "scoring": "c",
    "start_event": 1
  },
  "new_entries": {
    "has_next": false,
    "page": 1,
    "results": []
  },
  "standings": {
    "has_next": true,
    "page": 518,
    "results": [
      {
        "club_badge_src": null,
        "entry": 6850524,
        "entry_name": "Winners win",
        "event_total": 54,
        "has_played": true,
        "id": 54883488,
        "last_rank": 19835,
        "player_name": "Dhiran Bhogal",
        "rank": 25782,
        "rank_sort": 25851,
        "total": 2373
      },
      {
        "club_badge_src": null,
        "entry": 7432750,
        "entry_name": "losers",
        "event_total": 73,
        "has_played": true,
        "id": 60406856,
        "last_rank": 32751,
        "player_name": "Omar Ahmed",
        "rank": 25782,
        "rank_sort": 25852,
        "total": 2373
      },
      {
        "club_badge_src": null,
        "entry": 7655727,
        "entry_name": "BRIGHTBURN FC",
        "event_total": 66,
        "has_played": true,
        "id": 62767811,
        "last_rank": 30060,
        "player_name": "Emmanuel Benstowe",
        "rank": 25782,
        "rank_sort": 25853,
        "total": 2373
      },
      {
        "club_badge_src": null,
        "entry": 7661357,
        "entry_name": "See you soon!",
        "event_total": 40,
        "has_played": true,
        "id": 62819553,
        "last_rank": 13601,
        "player_name": "Abou Hilal",
        "rank": 25782,
        "rank_sort": 25854,
        "total": 2373
      },
      {
        "club_badge_src": null,
        "entry": 8083976,
        "entry_name": "LumLum",
        "event_total": 71,
        "has_played": true,
        "id": 66652047,
        "last_rank": 40647,
        "player_name": "Bos Galak",
        "rank": 25782,
        "rank_sort": 25855,
        "total": 2373
      },
      {
        "club_badge_src": "https://fantasy.premierleague.com/gcs/plfpl-production-adobe-approved/plfpl-production/8471469/feb80cfe-1155-4ff0-b548-6b195e7d172c.png",
        "entry": 8471469,
        "entry_name": "I\u2019m a Baleba",
        "event_total": 58,
        "has_played": true,
        "id": 70358934,
        "last_rank": 22830,
        "player_name": "Tord Espeset",
        "rank": 25782,
        "rank_sort": 25856,
        "total": 2373
      },
      {
        "club_badge_src": null,
        "entry": 8318,
        "entry_name": "Alisson Wonderland",
        "event_total": 76,
        "has_played": true,
        "id": 48298,
        "last_rank": 47596,
        "player_name": "David Jesuthasan",
        "rank": 25857,
        "rank_sort": 25857,
        "total": 2373
      },
      {
        "club_badge_src": null,
        "entry": 13862,
        "entry_name": "Ahmed ^",
        "event_total": 58,
        "has_played": true,
        "id": 83934,
        "last_rank": 19835,
        "player_name": "Ahmed AL-Harbi",
        "rank": 25857,
        "rank_sort": 25858,
        "total": 2373
      },
      {
        "club_badge_src": "https://fantasy.premierleague.com/gcs/plfpl-production-adobe-approved/plfpl-production/25069/476dd0fb-fe42-4043-9d29-6b193b21556f.png",
        "entry": 25069,
        "entry_name": "FC NIBCELONA",
        "event_total": 61,
        "has_played": true,
        "id": 158485,
        "last_rank": 18985,
        "player_name": "Luke Nibz",
        "rank": 25857,
        "rank_sort": 25859,
        "total": 2373
      },
      {
        "club_badge_src": null,
        "entry": 33868,
        "entry_name": "Backstreet Moyes",
        "event_total": 61,
        "has_played": true,
        "id": 216218,
        "last_rank": 25436,
        "player_name": "Jack Chan",
        "rank": 25857,
        "rank_sort": 25860,
        "total": 2373
      },
      {
        "club_badge_src": null,
        "entry": 55561,
        "entry_name": "Muzzy, Izzet Kewell",
        "event_total": 48,
        "has_played": true,
        "id": 357733,
        "last_rank": 13500,
        "player_name": "Richard Nykvist-H\u00f8ibach",
        "rank": 25857,
        "rank_sort": 25861,
        "total": 2373
      },
      {
        "club_badge_src": null,
        "entry": 78742,
        "entry_name": "Strangers",
        "event_total": 53,
        "has_played": true,
        "id": 511970,
        "last_rank": 19176,
        "player_name": "Alex Stamboliyski",
        "rank": 25857,
        "rank_sort": 25862,
        "total": 2373
      },
      {
        "club_badge_src": null,
        "entry": 93483,
        "entry_name": "Driving Me Mads",
        "event_total": 59,
        "has_played": true,
        "id": 610900,
        "last_rank": 27364,
        "player_name": "Oliver Graham",
        "rank": 25857,
        "rank_sort": 25863,
        "total": 2373
      },
      {
        "club_badge_src": null,
        "entry": 157875,
        "entry_name": "Boonrit Hot Spurs",
        "event_total": 59,
        "has_played": true,
        "id": 1038753,
        "last_rank": 23748,
        "player_name": "Boonrit Panyaphinitnugoon",
        "rank": 25857,
        "rank_sort": 25864,
        "total": 2373
      },
      {
        "club_badge_src": "https://fantasy.premierleague.com/gcs/plfpl-production-adobe-approved/plfpl-production/260221/2d18a423-1c65-4ed4-b419-406894ea3458.png",
        "entry": 260221,
        "entry_name": "FC AirWolf",
        "event_total": 65,
        "has_played": true,
        "id": 1729963,
        "last_rank": 29199,
        "player_name": "Dawid Miedzi\u0144ski",
        "rank": 25857,
        "rank_sort": 25865,
        "total": 2373
      },
      {
        "club_badge_src": "https://fantasy.premierleague.com/gcs/plfpl-production-adobe-approved/plfpl-production/290127/ee89e9df-a558-49c6-ab02-4c4a4cc36044.png",
        "entry": 290127,
        "entry_name": "Salah Days",
        "event_total": 76,
        "has_played": true,
        "id": 1934370,
        "last_rank": 41967,
        "player_name": "Brian Flannery",
        "rank": 25857,
        "rank_sort": 25866,
        "total": 2373
      },
      {
        "club_badge_src": null,
        "entry": 327638,
        "entry_name": "FahThai",
        "event_total": 63,
        "has_played": true,
        "id": 2195098,
        "last_rank": 27304,
        "player_name": "Jason Keeton",
        "rank": 25857,
        "rank_sort": 25867,
        "total": 2373
      },
      {
        "club_badge_src": "https://fantasy.premierleague.com/gcs/plfpl-production-adobe-approved/plfpl-production/333339/b2b5d67e-9324-4a00-ba5f-94c14aeeed37.png",
        "entry": 333339,
        "entry_name": "Aspik & RusleBuffon",
        "event_total": 59,
        "has_played": true,
        "id": 2232454,
        "last_rank": 27364,
        "player_name": "Kristoffer Hurv",
        "rank": 25857,
        "rank_sort": 25868,
        "total": 2373
      },
      {
        "club_badge_src": null,
        "entry": 383191,
        "entry_name": "Genting Haaland",
        "event_total": 54,
        "has_played": true,
        "id": 2569730,
        "last_rank": 22996,
        "player_name": "Duo Berbisa",
        "rank": 25857,
        "rank_sort": 25869,
        "total": 2373
      },
      {
        "club_badge_src": null,
        "entry": 495730,
        "entry_name": "Semen-yoyo",
        "event_total": 67,
        "has_played": true,
        "id": 3327446,
        "last_rank": 31236,
        "player_name": "Martin Graves Rasmussen",
        "rank": 25857,
        "rank_sort": 25870,
        "total": 2373
      },
      {
        "club_badge_src": "https://fantasy.premierleague.com/gcs/plfpl-production-adobe-approved/plfpl-production/590388/4f4b3a52-1d55-4522-836d-ad88c9863659.png",
        "entry": 590388,
        "entry_name": "For better or Wirtz",
        "event_total": 65,
        "has_played": true,
        "id": 3977053,
        "last_rank": 33582,
        "player_name": "Timothy Charteris",
        "rank": 25857,
        "rank_sort": 25871,
        "total": 2373
      },
      {
        "club_badge_src": "https://fantasy.premierleague.com/gcs/plfpl-production-adobe-approved/plfpl-production/720381/786a55ae-37f1-4d22-856e-2aff2e14f035.png",
        "entry": 720381,
        "entry_name": "\u0623\u0628\u0648 \u0645\u0627\u0644\u0643",
        "event_total": 56,
        "has_played": true,
        "id": 4890870,
        "last_rank": 24636,
        "player_name": "nassim Grimes",
        "rank": 25857,
        "rank_sort": 25872,
        "total": 2373
      },
      {
        "club_badge_src": null,
        "entry": 843878,
        "entry_name": "Tua Good at Palace",
        "event_total": 56,
        "has_played": true,
        "id": 5781867,
        "last_rank": 21392,
        "player_name": "Jake Stainsby",
        "rank": 25857,
        "rank_sort": 25873,
        "total": 2373
      },
      {
        "club_badge_src": null,
        "entry": 848457,
        "entry_name": "ZADX",
        "event_total": 64,
        "has_played": true,
        "id": 5815131,
        "last_rank": 32437,
        "player_name": "zeki obx",
        "rank": 25857,
        "rank_sort": 25874,
        "total": 2373
      },
      {
        "club_badge_src": null,
        "entry": 929926,
        "entry_name": "The Way to AMurillo",
        "event_total": 62,
        "has_played": true,
        "id": 6398415,
        "last_rank": 30276,
        "player_name": "Tom Hanson",
        "rank": 25857,
        "rank_sort": 25875,
        "total": 2373
      },
      {
        "club_badge_src": null,
        "entry": 1004182,
        "entry_name": "hojlund bling",
        "event_total": 63,
        "has_played": true,
        "id": 6941620,
        "last_rank": 27203,
        "player_name": "George Speake",
        "rank": 25857,
        "rank_sort": 25876,
        "total": 2373
      },
      {
        "club_badge_src": null,
        "entry": 1070305,
        "entry_name": "AVENGERS \u26bd\ufffd",
        "event_total": 66,
        "has_played": true,
        "id": 7409641,
        "last_rank": 30191,
        "player_name": "Aya Oraby",
        "rank": 25857,
        "rank_sort": 25877,
        "total": 2373
      },
      {
        "club_badge_src": null,
        "entry": 1486901,
        "entry_name": "S\u00e3o Paulo",
        "event_total": 69,
        "has_played": true,
        "id": 10368830,
        "last_rank": 33483,
        "player_name": "Adam Forster",
        "rank": 25857,
        "rank_sort": 25878,
        "total": 2373
      },
      {
        "club_badge_src": "https://fantasy.premierleague.com/gcs/plfpl-production-adobe-approved/plfpl-production/1683902/90bd319d-53d2-42d9-9905-1dee7f38d7ac.png",
        "entry": 1683902,
        "entry_name": "Hot Steppers X1",
        "event_total": 63,
        "has_played": true,
        "id": 11787740,
        "last_rank": 31309,
        "player_name": "James Thomas",
        "rank": 25857,
        "rank_sort": 25879,
        "total": 2373
      },
      {
        "club_badge_src": null,
        "entry": 1748854,
        "entry_name": "Dynamo AG",
        "event_total": 75,
        "has_played": true,
        "id": 12272632,
        "last_rank": 46106,
        "player_name": "Gravaldinho .",
        "rank": 25857,
        "rank_sort": 25880,
        "total": 2373
      },
      {
        "club_badge_src": null,
        "entry": 1765397,
        "entry_name": "Glory Glory",
        "event_total": 61,
        "has_played": true,
        "id": 12399971,
        "last_rank": 25436,
        "player_name": "Justin Chan",
        "rank": 25857,
        "rank_sort": 25881,
        "total": 2373
      },
      {
        "club_badge_src": "https://fantasy.premierleague.com/gcs/plfpl-production-adobe-approved/plfpl-production/1812639/3cc3aac3-88d7-437e-9287-e8952580f7ba.png",
        "entry": 1812639,
        "entry_name": "Mnyamboghini",
        "event_total": 66,
        "has_played": true,
        "id": 12745616,
        "last_rank": 34578,
        "player_name": "Ndavi Jr",
        "rank": 25857,
        "rank_sort": 25882,
        "total": 2373
      },
      {
        "club_badge_src": "https://fantasy.premierleague.com/gcs/plfpl-production-adobe-approved/plfpl-production/1879217/094802ad-d7ac-4979-9e2a-83d309df20c6.png",
        "entry": 1879217,
        "entry_name": "JOC 1302",
        "event_total": 58,
        "has_played": true,
        "id": 13239291,
        "last_rank": 22921,
        "player_name": "Jovana Jevremovic",
        "rank": 25857,
        "rank_sort": 25883,
        "total": 2373
      },
      {
        "club_badge_src": "https://fantasy.premierleague.com/gcs/plfpl-production-adobe-approved/plfpl-production/2165209/a9a5b06e-d97b-4ac1-b614-674e9682cbe4.png",
        "entry": 2165209,
        "entry_name": "Remain Palm",
        "event_total": 58,
        "has_played": true,
        "id": 15392481,
        "last_rank": 26475,
        "player_name": "Tre Samuels",
        "rank": 25857,
        "rank_sort": 25884,
        "total": 2373
      },
      {
        "club_badge_src": "https://fantasy.premierleague.com/gcs/plfpl-production-adobe-approved/plfpl-production/2833569/b5e2aa5b-f50e-414e-8720-2f1522c33864.png",
        "entry": 2833569,
        "entry_name": "Alozoc",
        "event_total": 61,
        "has_played": true,
        "id": 20706196,
        "last_rank": 29071,
        "player_name": "Dylan Ho",
        "rank": 25857,
        "rank_sort": 25885,
        "total": 2373
      },
      {
        "club_badge_src": null,
        "entry": 2967647,
        "entry_name": "Astra BK",
        "event_total": 82,
        "has_played": true,
        "id": 21802809,
        "last_rank": 50635,
        "player_name": "Felix Olsson",
        "rank": 25857,
        "rank_sort": 25886,
        "total": 2373
      },
      {
        "club_badge_src": null,
        "entry": 3017228,
        "entry_name": "Old Havertz Kai Hard",
        "event_total": 51,
        "has_played": true,
        "id": 22198381,
        "last_rank": 20678,
        "player_name": "nigel reeve",
        "rank": 25857,
        "rank_sort": 25887,
        "total": 2373
      },
      {
        "club_badge_src": null,
        "entry": 3019502,
        "entry_name": "Cunha dig it sucka?",
        "event_total": 52,
        "has_played": true,
        "id": 22215812,
        "last_rank": 21450,
        "player_name": "Conor McGurry",
        "rank": 25857,
        "rank_sort": 25888,
        "total": 2373
      },
      {
        "club_badge_src": null,
        "entry": 3336659,
        "entry_name": "Koattack",
        "event_total": 73,
        "has_played": true,
        "id": 24745348,
        "last_rank": 37822,
        "player_name": "Martin Persson",
        "rank": 25857,
        "rank_sort": 25889,
        "total": 2373
      },
      {
        "club_badge_src": null,
        "entry": 3368220,
        "entry_name": "Tishreen",
        "event_total": 57,
        "has_played": true,
        "id": 24994834,
        "last_rank": 22154,
        "player_name": "Wael Alahmad",
        "rank": 25857,
        "rank_sort": 25890,
        "total": 2373
      },
      {
        "club_badge_src": null,
        "entry": 3399241,
        "entry_name": "Springfield Isotopes",
        "event_total": 59,
        "has_played": true,
        "id": 25238938,
        "last_rank": 27364,
        "player_name": "Simon Livingston",
        "rank": 25857,
        "rank_sort": 25891,
        "total": 2373
      },
      {
        "club_badge_src": null,
        "entry": 3753775,
        "entry_name": "It chan",
        "event_total": 42,
        "has_played": true,
        "id": 28025968,
        "last_rank": 14712,
        "player_name": "Matthew Overton",
        "rank": 25857,
        "rank_sort": 25892,
        "total": 2373
      },
      {
        "club_badge_src": null,
        "entry": 3777956,
        "entry_name": "Mathetes",
        "event_total": 64,
        "has_played": true,
        "id": 28209628,
        "last_rank": 28273,
        "player_name": "Chibuzor Williams",
        "rank": 25857,
        "rank_sort": 25893,
        "total": 2373
      },
      {
        "club_badge_src": null,
        "entry": 3863518,
        "entry_name": "Team Odie",
        "event_total": 45,
        "has_played": true,
        "id": 28968838,
        "last_rank": 16512,
        "player_name": "Odwa Madolo",
        "rank": 25857,
        "rank_sort": 25894,
        "total": 2373
      },
      {
        "club_badge_src": null,
        "entry": 4102667,
        "entry_name": "Dawson Way",
        "event_total": 58,
        "has_played": true,
        "id": 30980889,
        "last_rank": 26425,
        "player_name": "Ben Willgrass",
        "rank": 25857,
        "rank_sort": 25895,
        "total": 2373
      },
      {
        "club_badge_src": null,
        "entry": 4651802,
        "entry_name": "Old Kinderhook",
        "event_total": 59,
        "has_played": true,
        "id": 35590312,
        "last_rank": 23748,
        "player_name": "Keith Beesley",
        "rank": 25857,
        "rank_sort": 25896,
        "total": 2373
      },
      {
        "club_badge_src": null,
        "entry": 4868383,
        "entry_name": "Kinder Bruno",
        "event_total": 67,
        "has_played": true,
        "id": 37523708,
        "last_rank": 35768,
        "player_name": "Jeremy Cheong",
        "rank": 25857,
        "rank_sort": 25897,
        "total": 2373
      },
      {
        "club_badge_src": null,
        "entry": 5266449,
        "entry_name": "Woody's boys .",
        "event_total": 70,
        "has_played": true,
        "id": 40818319,
        "last_rank": 39246,
        "player_name": "alan woods",
        "rank": 25857,
        "rank_sort": 25898,
        "total": 2373
      },
      {
        "club_badge_src": null,
        "entry": 5654172,
        "entry_name": "Selfcair Select X1",
        "event_total": 56,
        "has_played": true,
        "id": 44232453,
        "last_rank": 21301,
        "player_name": "John Wallis",
        "rank": 25857,
        "rank_sort": 25899,
        "total": 2373
      },
      {
        "club_badge_src": null,
        "entry": 6784740,
        "entry_name": "Bacon & Egg San\u00e9",
        "event_total": 57,
        "has_played": true,
        "id": 54329772,
        "last_rank": 25517,
        "player_name": "Tom Fletcher",
        "rank": 25857,
        "rank_sort": 25900,
        "total": 2373
      }
    ]
  }
}