{
  "last_updated_data": "2026-05-24T23:28:17Z",
  "league": {
    "admin_entry": null,
    "closed": false,
    "code_privacy": "p",
    "created": "2025-07-20T23:14:33.933835Z",
    "cup_league": 2815434,
    "has_cup": true,
    "id": 314,
    "league_type": "s",
    "max_entries": null,
    "name": "Overall",
    "rank": null,
    "scoring": "c",
    "start_event": 1
  },
  "new_entries": {
    "has_next": false,
    "page": 1,
    "results": []
  },
  "standings": {
    "has_next": true,
    "page": 525,
    "results": [
      {
        "club_badge_src": null,
        "entry": 955777,
        "entry_name": "Waste of time",
        "event_total": 58,
        "has_played": true,
        "id": 6585462,
        "last_rank": 26827,
        "player_name": "john ward",
        "rank": 26139,
        "rank_sort": 26201,
        "total": 2372
      },
      {
        "club_badge_src": null,
        "entry": 968562,
        "entry_name": "SAF FC",
        "event_total": 70,
        "has_played": true,
        "id": 6675517,
        "last_rank": 39874,
        "player_name": "Adam Nilsson",
        "rank": 26139,
        "rank_sort": 26202,
        "total": 2372
      },
      {
        "club_badge_src": null,
        "entry": 992085,
        "entry_name": "Awobba Bobb Bobb",
        "event_total": 52,
        "has_played": true,
        "id": 6841488,
        "last_rank": 21775,
        "player_name": "Kathryn McMaster",
        "rank": 26139,
        "rank_sort": 26203,
        "total": 2372
      },
      {
        "club_badge_src": "https://fantasy.premierleague.com/gcs/plfpl-production-adobe-approved/plfpl-production/1039597/069aca2a-9b09-4e2e-b83d-8eee4e348cd4.png",
        "entry": 1039597,
        "entry_name": "JogaBonito",
        "event_total": 81,
        "has_played": true,
        "id": 7194314,
        "last_rank": 56180,
        "player_name": "M\u00e1t\u00e9 Manhertz",
        "rank": 26139,
        "rank_sort": 26204,
        "total": 2372
      },
      {
        "club_badge_src": null,
        "entry": 1043209,
        "entry_name": "VictorMosesLawn",
        "event_total": 57,
        "has_played": true,
        "id": 7219309,
        "last_rank": 26088,
        "player_name": "Lewis McCabe",
        "rank": 26139,
        "rank_sort": 26205,
        "total": 2372
      },
      {
        "club_badge_src": "https://fantasy.premierleague.com/gcs/plfpl-production-adobe-approved/plfpl-production/1087059/ee665137-0743-45bf-a7ea-d1dbc7c715e7.png",
        "entry": 1087059,
        "entry_name": "M1 5GH",
        "event_total": 59,
        "has_played": true,
        "id": 7528361,
        "last_rank": 27770,
        "player_name": "Chanon Tanateeranan",
        "rank": 26139,
        "rank_sort": 26206,
        "total": 2372
      },
      {
        "club_badge_src": null,
        "entry": 1097692,
        "entry_name": "Ruddy Blankers FC",
        "event_total": 42,
        "has_played": true,
        "id": 7603141,
        "last_rank": 14926,
        "player_name": "Patrick Snortham",
        "rank": 26139,
        "rank_sort": 26207,
        "total": 2372
      },
      {
        "club_badge_src": null,
        "entry": 1189365,
        "entry_name": "Bandwagonesque FC",
        "event_total": 62,
        "has_played": true,
        "id": 8252434,
        "last_rank": 30727,
        "player_name": "Richard Lovell",
        "rank": 26139,
        "rank_sort": 26208,
        "total": 2372
      },
      {
        "club_badge_src": null,
        "entry": 1209801,
        "entry_name": "The Dream Team",
        "event_total": 59,
        "has_played": true,
        "id": 8396837,
        "last_rank": 27770,
        "player_name": "\u0393\u03b9\u03ce\u03c1\u03b3\u03bf\u03c2 \u0393\u03b9\u03b1\u03bd\u03bd\u03ac\u03ba\u03b7\u03c2",
        "rank": 26139,
        "rank_sort": 26209,
        "total": 2372
      },
      {
        "club_badge_src": "https://fantasy.premierleague.com/gcs/plfpl-production-adobe-approved/plfpl-production/1213460/3f5f0b37-d437-4fea-8f62-e116383d0f6b.png",
        "entry": 1213460,
        "entry_name": "Szobosslads",
        "event_total": 53,
        "has_played": true,
        "id": 8422658,
        "last_rank": 22426,
        "player_name": "Naren Rathan",
        "rank": 26139,
        "rank_sort": 26210,
        "total": 2372
      },
      {
        "club_badge_src": null,
        "entry": 1236534,
        "entry_name": "Threat of Joy",
        "event_total": 61,
        "has_played": true,
        "id": 8586663,
        "last_rank": 29688,
        "player_name": "Neil Timperley",
        "rank": 26139,
        "rank_sort": 26211,
        "total": 2372
      },
      {
        "club_badge_src": null,
        "entry": 1263096,
        "entry_name": "Armed With Glock",
        "event_total": 71,
        "has_played": true,
        "id": 8776025,
        "last_rank": 41162,
        "player_name": "Ash FPL",
        "rank": 26139,
        "rank_sort": 26212,
        "total": 2372
      },
      {
        "club_badge_src": null,
        "entry": 1295390,
        "entry_name": "Shinigamixi",
        "event_total": 84,
        "has_played": true,
        "id": 9002692,
        "last_rank": 61315,
        "player_name": "James Hensman",
        "rank": 26139,
        "rank_sort": 26213,
        "total": 2372
      },
      {
        "club_badge_src": null,
        "entry": 1305649,
        "entry_name": "Keep calm&Carrick on",
        "event_total": 52,
        "has_played": true,
        "id": 9075046,
        "last_rank": 21775,
        "player_name": "Christian Ruud",
        "rank": 26139,
        "rank_sort": 26214,
        "total": 2372
      },
      {
        "club_badge_src": null,
        "entry": 1317913,
        "entry_name": "wirtz case scenario",
        "event_total": 62,
        "has_played": true,
        "id": 9160379,
        "last_rank": 30600,
        "player_name": "Ewan Mannion",
        "rank": 26139,
        "rank_sort": 26215,
        "total": 2372
      },
      {
        "club_badge_src": null,
        "entry": 1383962,
        "entry_name": "Strijikmystach",
        "event_total": 50,
        "has_played": true,
        "id": 9625614,
        "last_rank": 20280,
        "player_name": "Josh Ginty",
        "rank": 26139,
        "rank_sort": 26216,
        "total": 2372
      },
      {
        "club_badge_src": null,
        "entry": 1441206,
        "entry_name": "PacandaSWAG",
        "event_total": 54,
        "has_played": true,
        "id": 10042742,
        "last_rank": 23341,
        "player_name": "Jonas Qapil",
        "rank": 26139,
        "rank_sort": 26217,
        "total": 2372
      },
      {
        "club_badge_src": null,
        "entry": 1451237,
        "entry_name": "Wulczok Palace",
        "event_total": 66,
        "has_played": true,
        "id": 10112231,
        "last_rank": 35166,
        "player_name": "Bartek Charyton",
        "rank": 26139,
        "rank_sort": 26218,
        "total": 2372
      },
      {
        "club_badge_src": null,
        "entry": 1452065,
        "entry_name": "Bhaukali Launde",
        "event_total": 46,
        "has_played": true,
        "id": 10117979,
        "last_rank": 17437,
        "player_name": "Sankalp Verma",
        "rank": 26139,
        "rank_sort": 26219,
        "total": 2372
      },
      {
        "club_badge_src": null,
        "entry": 1456351,
        "entry_name": "Blank",
        "event_total": 63,
        "has_played": true,
        "id": 10148097,
        "last_rank": 31620,
        "player_name": "Stephen Brennan",
        "rank": 26139,
        "rank_sort": 26220,
        "total": 2372
      },
      {
        "club_badge_src": null,
        "entry": 1460747,
        "entry_name": "Ninja Skrtels",
        "event_total": 56,
        "has_played": true,
        "id": 10182092,
        "last_rank": 24857,
        "player_name": "Shaun Mclaughlin",
        "rank": 26139,
        "rank_sort": 26221,
        "total": 2372
      },
      {
        "club_badge_src": null,
        "entry": 1473069,
        "entry_name": "D\u017e\u00f6 Keres, more \ufffd",
        "event_total": 44,
        "has_played": true,
        "id": 10268273,
        "last_rank": 16163,
        "player_name": "Juraj Lupa\u010d",
        "rank": 26139,
        "rank_sort": 26222,
        "total": 2372
      },
      {
        "club_badge_src": null,
        "entry": 1574421,
        "entry_name": "ForEvra United",
        "event_total": 69,
        "has_played": true,
        "id": 11001529,
        "last_rank": 38774,
        "player_name": "Mark Cassell",
        "rank": 26139,
        "rank_sort": 26223,
        "total": 2372
      },
      {
        "club_badge_src": null,
        "entry": 1607911,
        "entry_name": "Yoskara-team",
        "event_total": 59,
        "has_played": true,
        "id": 11249765,
        "last_rank": 27770,
        "player_name": "M. Ghassen Ounais",
        "rank": 26139,
        "rank_sort": 26224,
        "total": 2372
      },
      {
        "club_badge_src": null,
        "entry": 1642858,
        "entry_name": "Dynamo Dave",
        "event_total": 48,
        "has_played": true,
        "id": 11500246,
        "last_rank": 18790,
        "player_name": "David Houlgrave",
        "rank": 26139,
        "rank_sort": 26225,
        "total": 2372
      },
      {
        "club_badge_src": null,
        "entry": 1657289,
        "entry_name": "Gareth Whale",
        "event_total": 50,
        "has_played": true,
        "id": 11602942,
        "last_rank": 20280,
        "player_name": "Johan Aanes Andersen",
        "rank": 26139,
        "rank_sort": 26226,
        "total": 2372
      },
      {
        "club_badge_src": null,
        "entry": 1699170,
        "entry_name": "Charlton Athletic",
        "event_total": 52,
        "has_played": true,
        "id": 11901650,
        "last_rank": 21677,
        "player_name": "Willy Bernfield",
        "rank": 26139,
        "rank_sort": 26227,
        "total": 2372
      },
      {
        "club_badge_src": null,
        "entry": 1702644,
        "entry_name": "Neville Wears Prada",
        "event_total": 57,
        "has_played": true,
        "id": 11927144,
        "last_rank": 25776,
        "player_name": "Steve Mitchell",
        "rank": 26139,
        "rank_sort": 26228,
        "total": 2372
      },
      {
        "club_badge_src": null,
        "entry": 1732285,
        "entry_name": "Shavre",
        "event_total": 75,
        "has_played": true,
        "id": 12150757,
        "last_rank": 46591,
        "player_name": "Giorgi Shavre",
        "rank": 26139,
        "rank_sort": 26229,
        "total": 2372
      },
      {
        "club_badge_src": "https://fantasy.premierleague.com/gcs/plfpl-production-adobe-approved/plfpl-production/1740810/d3afdc95-b3d9-4014-939c-841d29143c37.png",
        "entry": 1740810,
        "entry_name": "360 No-Pope",
        "event_total": 56,
        "has_played": true,
        "id": 12213876,
        "last_rank": 24897,
        "player_name": "Brandon Chandler",
        "rank": 26139,
        "rank_sort": 26230,
        "total": 2372
      },
      {
        "club_badge_src": null,
        "entry": 1806406,
        "entry_name": "Mao",
        "event_total": 67,
        "has_played": true,
        "id": 12699562,
        "last_rank": 36624,
        "player_name": "David Teo",
        "rank": 26139,
        "rank_sort": 26231,
        "total": 2372
      },
      {
        "club_badge_src": null,
        "entry": 1862042,
        "entry_name": "Chido Obi Wan",
        "event_total": 61,
        "has_played": true,
        "id": 13105987,
        "last_rank": 29688,
        "player_name": "Mads Bech Pettersen",
        "rank": 26139,
        "rank_sort": 26232,
        "total": 2372
      },
      {
        "club_badge_src": null,
        "entry": 1922275,
        "entry_name": "Jhon Arias",
        "event_total": 43,
        "has_played": true,
        "id": 13556177,
        "last_rank": 15550,
        "player_name": "Karen Clewley",
        "rank": 26139,
        "rank_sort": 26233,
        "total": 2372
      },
      {
        "club_badge_src": null,
        "entry": 1928325,
        "entry_name": "The Cesc Pistols",
        "event_total": 38,
        "has_played": true,
        "id": 13599834,
        "last_rank": 12645,
        "player_name": "Jamie O-Brien",
        "rank": 26139,
        "rank_sort": 26234,
        "total": 2372
      },
      {
        "club_badge_src": null,
        "entry": 1942336,
        "entry_name": "Hamod AlRshoudi",
        "event_total": 61,
        "has_played": true,
        "id": 13700839,
        "last_rank": 29688,
        "player_name": "Hamod AlRashoudi",
        "rank": 26139,
        "rank_sort": 26235,
        "total": 2372
      },
      {
        "club_badge_src": null,
        "entry": 2023302,
        "entry_name": "TheyHitTheBecknbauer",
        "event_total": 59,
        "has_played": true,
        "id": 14318478,
        "last_rank": 27770,
        "player_name": "Lachlan Wright",
        "rank": 26139,
        "rank_sort": 26236,
        "total": 2372
      },
      {
        "club_badge_src": "https://fantasy.premierleague.com/gcs/plfpl-production-adobe-approved/plfpl-production/2079261/8b87f45f-aa86-4bd6-abd1-93e61eb58745.png",
        "entry": 2079261,
        "entry_name": "Bollazo",
        "event_total": 60,
        "has_played": true,
        "id": 14743204,
        "last_rank": 28726,
        "player_name": "Daniel Bolland",
        "rank": 26139,
        "rank_sort": 26237,
        "total": 2372
      },
      {
        "club_badge_src": null,
        "entry": 2090714,
        "entry_name": "Furiosa: AmadMaxSaga",
        "event_total": 74,
        "has_played": true,
        "id": 14833235,
        "last_rank": 45416,
        "player_name": "Adrian Taylor",
        "rank": 26139,
        "rank_sort": 26238,
        "total": 2372
      },
      {
        "club_badge_src": "https://fantasy.premierleague.com/gcs/plfpl-production-adobe-approved/plfpl-production/2093876/22ca0a7e-661f-4899-8cf6-884b4b30feeb.png",
        "entry": 2093876,
        "entry_name": "Justlookathisface",
        "event_total": 51,
        "has_played": true,
        "id": 14856071,
        "last_rank": 20888,
        "player_name": "Gary French",
        "rank": 26139,
        "rank_sort": 26239,
        "total": 2372
      },
      {
        "club_badge_src": null,
        "entry": 2154723,
        "entry_name": "Mo Amer",
        "event_total": 61,
        "has_played": true,
        "id": 15316447,
        "last_rank": 29578,
        "player_name": "Mohammad Amer",
        "rank": 26139,
        "rank_sort": 26240,
        "total": 2372
      },
      {
        "club_badge_src": null,
        "entry": 2201514,
        "entry_name": "Conty11",
        "event_total": 68,
        "has_played": true,
        "id": 15667028,
        "last_rank": 37376,
        "player_name": "conor cullen",
        "rank": 26139,
        "rank_sort": 26241,
        "total": 2372
      },
      {
        "club_badge_src": null,
        "entry": 2214816,
        "entry_name": "Ice Cold Chippy Chip",
        "event_total": 60,
        "has_played": true,
        "id": 15772953,
        "last_rank": 28609,
        "player_name": "Ian Watts",
        "rank": 26139,
        "rank_sort": 26242,
        "total": 2372
      },
      {
        "club_badge_src": null,
        "entry": 2262070,
        "entry_name": "Real Strugglers",
        "event_total": 63,
        "has_played": true,
        "id": 16127877,
        "last_rank": 31995,
        "player_name": "Stuart Mairs",
        "rank": 26139,
        "rank_sort": 26243,
        "total": 2372
      },
      {
        "club_badge_src": null,
        "entry": 2314665,
        "entry_name": "In-it-to-mcginn-it!",
        "event_total": 77,
        "has_played": true,
        "id": 16511589,
        "last_rank": 49691,
        "player_name": "Sam H",
        "rank": 26139,
        "rank_sort": 26244,
        "total": 2372
      },
      {
        "club_badge_src": null,
        "entry": 2428559,
        "entry_name": "Doingitforfun",
        "event_total": 58,
        "has_played": true,
        "id": 17365307,
        "last_rank": 26827,
        "player_name": "Stuart Bennett",
        "rank": 26139,
        "rank_sort": 26245,
        "total": 2372
      },
      {
        "club_badge_src": null,
        "entry": 2555109,
        "entry_name": "Broke the Mintehnet",
        "event_total": 65,
        "has_played": true,
        "id": 18321512,
        "last_rank": 33869,
        "player_name": "Cameron Duffy",
        "rank": 26139,
        "rank_sort": 26246,
        "total": 2372
      },
      {
        "club_badge_src": "https://fantasy.premierleague.com/gcs/plfpl-production-adobe-approved/plfpl-production/2565383/588af839-210b-400b-9886-b1ea2fe791ec.png",
        "entry": 2565383,
        "entry_name": "Aki FC",
        "event_total": 67,
        "has_played": true,
        "id": 18402132,
        "last_rank": 36142,
        "player_name": "Akirjan Siva",
        "rank": 26139,
        "rank_sort": 26247,
        "total": 2372
      },
      {
        "club_badge_src": null,
        "entry": 2632690,
        "entry_name": "Creevelough F.C",
        "event_total": 51,
        "has_played": true,
        "id": 18920656,
        "last_rank": 18029,
        "player_name": "Curtis Wilson",
        "rank": 26139,
        "rank_sort": 26248,
        "total": 2372
      },
      {
        "club_badge_src": null,
        "entry": 2661332,
        "entry_name": "SzopongbobSquarepant",
        "event_total": 79,
        "has_played": true,
        "id": 19130963,
        "last_rank": 52759,
        "player_name": "Andrew Fung",
        "rank": 26139,
        "rank_sort": 26249,
        "total": 2372
      },
      {
        "club_badge_src": null,
        "entry": 2703263,
        "entry_name": "ur worst natemare",
        "event_total": 64,
        "has_played": true,
        "id": 19447504,
        "last_rank": 32751,
        "player_name": "Nathan Chong",
        "rank": 26139,
        "rank_sort": 26250,
        "total": 2372
      }
    ]
  }
}