{
  "last_updated_data": "2026-05-24T23:28:17Z",
  "league": {
    "admin_entry": null,
    "closed": false,
    "code_privacy": "p",
    "created": "2025-07-20T23:14:33.933835Z",
    "cup_league": 2815434,
    "has_cup": true,
    "id": 314,
    "league_type": "s",
    "max_entries": null,
    "name": "Overall",
    "rank": null,
    "scoring": "c",
    "start_event": 1
  },
  "new_entries": {
    "has_next": false,
    "page": 1,
    "results": []
  },
  "standings": {
    "has_next": true,
    "page": 921,
    "results": [
      {
        "club_badge_src": null,
        "entry": 3967255,
        "entry_name": "changdesern20",
        "event_total": 55,
        "has_played": true,
        "id": 29852824,
        "last_rank": 43444,
        "player_name": "Dickson Chang",
        "rank": 45933,
        "rank_sort": 46001,
        "total": 2355
      },
      {
        "club_badge_src": "https://fantasy.premierleague.com/gcs/plfpl-production-adobe-approved/plfpl-production/3982314/e3901730-1c02-4667-90cc-f12be95f2591.png",
        "entry": 3982314,
        "entry_name": "fc M\u00f6rli",
        "event_total": 45,
        "has_played": true,
        "id": 29978072,
        "last_rank": 31236,
        "player_name": "Rasmus M\u00f6r\u00f6",
        "rank": 45933,
        "rank_sort": 46002,
        "total": 2355
      },
      {
        "club_badge_src": null,
        "entry": 4023895,
        "entry_name": "ABCDE-FPL",
        "event_total": 60,
        "has_played": true,
        "id": 30329996,
        "last_rank": 44672,
        "player_name": "James Hayan",
        "rank": 45933,
        "rank_sort": 46003,
        "total": 2355
      },
      {
        "club_badge_src": null,
        "entry": 4162249,
        "entry_name": "\u062d\u0646\u0643\u0648 \u0648\u062f \u062c\u0644\u0642\u0646\u064a",
        "event_total": 76,
        "has_played": true,
        "id": 31471882,
        "last_rank": 71956,
        "player_name": "ASMAN ABDALLA",
        "rank": 45933,
        "rank_sort": 46004,
        "total": 2355
      },
      {
        "club_badge_src": null,
        "entry": 4195178,
        "entry_name": "Onana's in Pyjamas",
        "event_total": 69,
        "has_played": true,
        "id": 31751474,
        "last_rank": 66200,
        "player_name": "Ollie Griffiths",
        "rank": 45933,
        "rank_sort": 46005,
        "total": 2355
      },
      {
        "club_badge_src": null,
        "entry": 4306435,
        "entry_name": "NaniFC",
        "event_total": 71,
        "has_played": true,
        "id": 32673692,
        "last_rank": 70072,
        "player_name": "Espen Ringlund",
        "rank": 45933,
        "rank_sort": 46006,
        "total": 2355
      },
      {
        "club_badge_src": null,
        "entry": 4365372,
        "entry_name": "PRO REGE ET LEGE",
        "event_total": 60,
        "has_played": true,
        "id": 33159838,
        "last_rank": 44672,
        "player_name": "Dumitru Tamas Szilamer",
        "rank": 45933,
        "rank_sort": 46007,
        "total": 2355
      },
      {
        "club_badge_src": null,
        "entry": 4372403,
        "entry_name": "Will Griggs Red Army",
        "event_total": 66,
        "has_played": true,
        "id": 33219890,
        "last_rank": 53837,
        "player_name": "Tom-Even Heimstad",
        "rank": 45933,
        "rank_sort": 46008,
        "total": 2355
      },
      {
        "club_badge_src": null,
        "entry": 4403800,
        "entry_name": "Half The World (a)",
        "event_total": 63,
        "has_played": true,
        "id": 33494346,
        "last_rank": 55747,
        "player_name": "Conor McGuire",
        "rank": 45933,
        "rank_sort": 46009,
        "total": 2355
      },
      {
        "club_badge_src": null,
        "entry": 4418801,
        "entry_name": "HKGeyy",
        "event_total": 45,
        "has_played": true,
        "id": 33619124,
        "last_rank": 31309,
        "player_name": "Youssef Naoui",
        "rank": 45933,
        "rank_sort": 46010,
        "total": 2355
      },
      {
        "club_badge_src": null,
        "entry": 4456959,
        "entry_name": "Easy Money",
        "event_total": 53,
        "has_played": true,
        "id": 33952400,
        "last_rank": 40647,
        "player_name": "Ryan Courtney",
        "rank": 45933,
        "rank_sort": 46011,
        "total": 2355
      },
      {
        "club_badge_src": null,
        "entry": 4583622,
        "entry_name": "BikashS",
        "event_total": 83,
        "has_played": true,
        "id": 34993674,
        "last_rank": 87350,
        "player_name": "Bikash Sharma",
        "rank": 45933,
        "rank_sort": 46012,
        "total": 2355
      },
      {
        "club_badge_src": null,
        "entry": 4640815,
        "entry_name": "Artetas Army",
        "event_total": 51,
        "has_played": true,
        "id": 35494756,
        "last_rank": 38340,
        "player_name": "Stuart Emmins",
        "rank": 45933,
        "rank_sort": 46013,
        "total": 2355
      },
      {
        "club_badge_src": null,
        "entry": 4719774,
        "entry_name": "Change Name",
        "event_total": 75,
        "has_played": true,
        "id": 36254425,
        "last_rank": 78575,
        "player_name": "Daan Joesten",
        "rank": 45933,
        "rank_sort": 46014,
        "total": 2355
      },
      {
        "club_badge_src": null,
        "entry": 4918315,
        "entry_name": "Kinder Mbeumo",
        "event_total": 65,
        "has_played": true,
        "id": 37934710,
        "last_rank": 59077,
        "player_name": "Tom Gibbs",
        "rank": 45933,
        "rank_sort": 46015,
        "total": 2355
      },
      {
        "club_badge_src": "https://fantasy.premierleague.com/gcs/plfpl-production-adobe-approved/plfpl-production/5165075/357a68a9-d22e-4521-8337-89fd91f57c16.png",
        "entry": 5165075,
        "entry_name": "BLUE LOCK",
        "event_total": 31,
        "has_played": true,
        "id": 39971577,
        "last_rank": 19237,
        "player_name": "Epif\u00e2nio Adriano",
        "rank": 45933,
        "rank_sort": 46016,
        "total": 2355
      },
      {
        "club_badge_src": null,
        "entry": 5608238,
        "entry_name": "Midfield Maestros",
        "event_total": 51,
        "has_played": true,
        "id": 43827927,
        "last_rank": 38340,
        "player_name": "Mohammed Imran",
        "rank": 45933,
        "rank_sort": 46017,
        "total": 2355
      },
      {
        "club_badge_src": null,
        "entry": 5634176,
        "entry_name": "GoalDiggers",
        "event_total": 59,
        "has_played": true,
        "id": 44054501,
        "last_rank": 49078,
        "player_name": "Saroj Shilpakar",
        "rank": 45933,
        "rank_sort": 46018,
        "total": 2355
      },
      {
        "club_badge_src": null,
        "entry": 5670763,
        "entry_name": "Dougy Dynamos",
        "event_total": 89,
        "has_played": true,
        "id": 44376061,
        "last_rank": 101818,
        "player_name": "Olivia Rollings",
        "rank": 45933,
        "rank_sort": 46019,
        "total": 2355
      },
      {
        "club_badge_src": null,
        "entry": 5769755,
        "entry_name": "Mc's XI",
        "event_total": 56,
        "has_played": true,
        "id": 45235265,
        "last_rank": 39403,
        "player_name": "Ciaran McDonald",
        "rank": 45933,
        "rank_sort": 46020,
        "total": 2355
      },
      {
        "club_badge_src": null,
        "entry": 5953816,
        "entry_name": "Pumper FC",
        "event_total": 68,
        "has_played": true,
        "id": 46833046,
        "last_rank": 57200,
        "player_name": "Nikola Hval Jurisin",
        "rank": 45933,
        "rank_sort": 46021,
        "total": 2355
      },
      {
        "club_badge_src": null,
        "entry": 6028214,
        "entry_name": "Prowse Every Weekend",
        "event_total": 59,
        "has_played": true,
        "id": 47549695,
        "last_rank": 38016,
        "player_name": "Alex Ellis",
        "rank": 45933,
        "rank_sort": 46022,
        "total": 2355
      },
      {
        "club_badge_src": null,
        "entry": 6039617,
        "entry_name": "Chinese Dave FC",
        "event_total": 52,
        "has_played": true,
        "id": 47649473,
        "last_rank": 39510,
        "player_name": "Chris McGilly",
        "rank": 45933,
        "rank_sort": 46023,
        "total": 2355
      },
      {
        "club_badge_src": null,
        "entry": 6175652,
        "entry_name": "I'm a Nuemann",
        "event_total": 76,
        "has_played": true,
        "id": 48834875,
        "last_rank": 80651,
        "player_name": "Harry Stanford",
        "rank": 45933,
        "rank_sort": 46024,
        "total": 2355
      },
      {
        "club_badge_src": "https://fantasy.premierleague.com/gcs/plfpl-production-adobe-approved/plfpl-production/6421958/c3c0edc1-83e1-4b5d-bb06-73cedb809e36.png",
        "entry": 6421958,
        "entry_name": "Footloose",
        "event_total": 68,
        "has_played": true,
        "id": 51115118,
        "last_rank": 64190,
        "player_name": "Martin Thomas",
        "rank": 45933,
        "rank_sort": 46025,
        "total": 2355
      },
      {
        "club_badge_src": "https://fantasy.premierleague.com/gcs/plfpl-production-adobe-approved/plfpl-production/6499192/eb710f9b-7074-4158-ae0c-cda2eb55f792.png",
        "entry": 6499192,
        "entry_name": "DARK TEAM",
        "event_total": 71,
        "has_played": true,
        "id": 51814479,
        "last_rank": 70183,
        "player_name": "Naimi Ghazi",
        "rank": 45933,
        "rank_sort": 46026,
        "total": 2355
      },
      {
        "club_badge_src": null,
        "entry": 6706774,
        "entry_name": "Hasu Apa's Men",
        "event_total": 61,
        "has_played": true,
        "id": 53669600,
        "last_rank": 52357,
        "player_name": "Mehraj Mojumder",
        "rank": 45933,
        "rank_sort": 46027,
        "total": 2355
      },
      {
        "club_badge_src": null,
        "entry": 6747124,
        "entry_name": "Dapper Dan",
        "event_total": 77,
        "has_played": true,
        "id": 54013441,
        "last_rank": 73975,
        "player_name": "Daniel Vukov",
        "rank": 45933,
        "rank_sort": 46028,
        "total": 2355
      },
      {
        "club_badge_src": null,
        "entry": 6842545,
        "entry_name": "The Lynch Mob",
        "event_total": 54,
        "has_played": true,
        "id": 54815034,
        "last_rank": 42081,
        "player_name": "Tommy Lynch",
        "rank": 45933,
        "rank_sort": 46029,
        "total": 2355
      },
      {
        "club_badge_src": null,
        "entry": 6924602,
        "entry_name": "Saltycandy17",
        "event_total": 54,
        "has_played": true,
        "id": 55510140,
        "last_rank": 42081,
        "player_name": "Alex boisvert",
        "rank": 45933,
        "rank_sort": 46030,
        "total": 2355
      },
      {
        "club_badge_src": null,
        "entry": 7200455,
        "entry_name": "Rashford Memorial 11",
        "event_total": 67,
        "has_played": true,
        "id": 58136379,
        "last_rank": 55311,
        "player_name": "Colm Shields",
        "rank": 45933,
        "rank_sort": 46031,
        "total": 2355
      },
      {
        "club_badge_src": null,
        "entry": 7411245,
        "entry_name": "Mortadha nabeel",
        "event_total": 45,
        "has_played": true,
        "id": 60132913,
        "last_rank": 23656,
        "player_name": "Mortadha Nabeel98",
        "rank": 45933,
        "rank_sort": 46032,
        "total": 2355
      },
      {
        "club_badge_src": null,
        "entry": 7417652,
        "entry_name": "Steven on my Pienaar",
        "event_total": 69,
        "has_played": true,
        "id": 60218395,
        "last_rank": 66057,
        "player_name": "Shard Beukes",
        "rank": 45933,
        "rank_sort": 46033,
        "total": 2355
      },
      {
        "club_badge_src": "https://fantasy.premierleague.com/gcs/plfpl-production-adobe-approved/plfpl-production/7439248/51798ae3-6630-41c0-b9f3-2b6c6c750c42.png",
        "entry": 7439248,
        "entry_name": "Pep Guardiola",
        "event_total": 51,
        "has_played": true,
        "id": 60493056,
        "last_rank": 38267,
        "player_name": "loai mhm'd",
        "rank": 45933,
        "rank_sort": 46034,
        "total": 2355
      },
      {
        "club_badge_src": null,
        "entry": 7499047,
        "entry_name": "mohsin",
        "event_total": 69,
        "has_played": true,
        "id": 61267182,
        "last_rank": 66296,
        "player_name": "Mohsin Bajja",
        "rank": 45933,
        "rank_sort": 46035,
        "total": 2355
      },
      {
        "club_badge_src": "https://fantasy.premierleague.com/gcs/plfpl-production-adobe-approved/plfpl-production/7682077/3573b655-c8ff-4668-a39b-aa15e99e532f.png",
        "entry": 7682077,
        "entry_name": "Saka Potatoes",
        "event_total": 72,
        "has_played": true,
        "id": 63009647,
        "last_rank": 64190,
        "player_name": "Lisa Molland",
        "rank": 45933,
        "rank_sort": 46036,
        "total": 2355
      },
      {
        "club_badge_src": null,
        "entry": 8024188,
        "entry_name": "Highbury FC",
        "event_total": 63,
        "has_played": true,
        "id": 66102748,
        "last_rank": 55747,
        "player_name": "Mark Lawrence",
        "rank": 45933,
        "rank_sort": 46037,
        "total": 2355
      },
      {
        "club_badge_src": null,
        "entry": 9188240,
        "entry_name": "4rsena1",
        "event_total": 65,
        "has_played": true,
        "id": 77318234,
        "last_rank": 58688,
        "player_name": "Lav Kumrai",
        "rank": 45933,
        "rank_sort": 46038,
        "total": 2355
      },
      {
        "club_badge_src": "https://fantasy.premierleague.com/gcs/plfpl-production-adobe-approved/plfpl-production/1082/f802987e-6499-4783-860a-ebbf265d4baa.png",
        "entry": 1082,
        "entry_name": "Top of the Ox",
        "event_total": 57,
        "has_played": true,
        "id": 6003,
        "last_rank": 40647,
        "player_name": "Stuart Webb",
        "rank": 46039,
        "rank_sort": 46039,
        "total": 2355
      },
      {
        "club_badge_src": "https://fantasy.premierleague.com/gcs/plfpl-production-adobe-approved/plfpl-production/2748/8de9e53b-9558-4870-aff5-d23351386199.png",
        "entry": 2748,
        "entry_name": "Mount Rashmore",
        "event_total": 74,
        "has_played": true,
        "id": 15423,
        "last_rank": 60671,
        "player_name": "Ricky Chadder",
        "rank": 46039,
        "rank_sort": 46040,
        "total": 2355
      },
      {
        "club_badge_src": null,
        "entry": 3467,
        "entry_name": "Rohit FPL",
        "event_total": 68,
        "has_played": true,
        "id": 19648,
        "last_rank": 64319,
        "player_name": "Rohit FPL",
        "rank": 46039,
        "rank_sort": 46041,
        "total": 2355
      },
      {
        "club_badge_src": null,
        "entry": 7331,
        "entry_name": "Brennan 42'",
        "event_total": 66,
        "has_played": true,
        "id": 42239,
        "last_rank": 47417,
        "player_name": "Alex --",
        "rank": 46039,
        "rank_sort": 46042,
        "total": 2355
      },
      {
        "club_badge_src": "https://fantasy.premierleague.com/gcs/plfpl-production-adobe-approved/plfpl-production/12448/2fb16949-42cf-4559-8602-cf4392d62510.png",
        "entry": 12448,
        "entry_name": "Corn On The Kobbie",
        "event_total": 74,
        "has_played": true,
        "id": 74522,
        "last_rank": 76330,
        "player_name": "Oliver Trevett",
        "rank": 46039,
        "rank_sort": 46043,
        "total": 2355
      },
      {
        "club_badge_src": null,
        "entry": 18009,
        "entry_name": "JR STARS",
        "event_total": 65,
        "has_played": true,
        "id": 111908,
        "last_rank": 52357,
        "player_name": "Kingsley Badu",
        "rank": 46039,
        "rank_sort": 46044,
        "total": 2355
      },
      {
        "club_badge_src": null,
        "entry": 55774,
        "entry_name": "Patties_Dirty_Enzo",
        "event_total": 45,
        "has_played": true,
        "id": 359147,
        "last_rank": 31371,
        "player_name": "Stuart Dutton",
        "rank": 46039,
        "rank_sort": 46045,
        "total": 2355
      },
      {
        "club_badge_src": null,
        "entry": 68679,
        "entry_name": "Kante's Inferno",
        "event_total": 71,
        "has_played": true,
        "id": 445078,
        "last_rank": 70183,
        "player_name": "Ibrahim Abdelwahab",
        "rank": 46039,
        "rank_sort": 46046,
        "total": 2355
      },
      {
        "club_badge_src": null,
        "entry": 69164,
        "entry_name": "Brian Munich",
        "event_total": 63,
        "has_played": true,
        "id": 448450,
        "last_rank": 55747,
        "player_name": "Brian Ellis",
        "rank": 46039,
        "rank_sort": 46047,
        "total": 2355
      },
      {
        "club_badge_src": null,
        "entry": 78458,
        "entry_name": "It Can",
        "event_total": 51,
        "has_played": true,
        "id": 510127,
        "last_rank": 38340,
        "player_name": "Adam Walton",
        "rank": 46039,
        "rank_sort": 46048,
        "total": 2355
      },
      {
        "club_badge_src": "https://fantasy.premierleague.com/gcs/plfpl-production-adobe-approved/plfpl-production/104150/f82d93b2-586d-406c-9554-8919dc117284.png",
        "entry": 104150,
        "entry_name": "Wirtz Case Scenario",
        "event_total": 58,
        "has_played": true,
        "id": 679462,
        "last_rank": 36963,
        "player_name": "Adam Soan-Anstee",
        "rank": 46039,
        "rank_sort": 46049,
        "total": 2355
      },
      {
        "club_badge_src": null,
        "entry": 104512,
        "entry_name": "Tudor Cinema Club",
        "event_total": 49,
        "has_played": true,
        "id": 681740,
        "last_rank": 35867,
        "player_name": "Ben Welton",
        "rank": 46039,
        "rank_sort": 46050,
        "total": 2355
      }
    ]
  }
}