{
  "last_updated_data": "2026-05-24T23:28:17Z",
  "league": {
    "admin_entry": null,
    "closed": false,
    "code_privacy": "p",
    "created": "2025-07-20T23:14:33.933835Z",
    "cup_league": 2815434,
    "has_cup": true,
    "id": 314,
    "league_type": "s",
    "max_entries": null,
    "name": "Overall",
    "rank": null,
    "scoring": "c",
    "start_event": 1
  },
  "new_entries": {
    "has_next": false,
    "page": 1,
    "results": []
  },
  "standings": {
    "has_next": true,
    "page": 38,
    "results": [
      {
        "club_badge_src": null,
        "entry": 570941,
        "entry_name": "BowlaRice",
        "event_total": 68,
        "has_played": true,
        "id": 3842523,
        "last_rank": 2891,
        "player_name": "Jamie Kirkham",
        "rank": 1850,
        "rank_sort": 1851,
        "total": 2436
      },
      {
        "club_badge_src": null,
        "entry": 1745871,
        "entry_name": "Gimbi's Gambler's",
        "event_total": 57,
        "has_played": true,
        "id": 12250967,
        "last_rank": 1321,
        "player_name": "Jamie Gillespie",
        "rank": 1850,
        "rank_sort": 1852,
        "total": 2436
      },
      {
        "club_badge_src": null,
        "entry": 1970748,
        "entry_name": "Captain Herre",
        "event_total": 52,
        "has_played": true,
        "id": 13909442,
        "last_rank": 1272,
        "player_name": "Heri Hansen Nes\u00e1",
        "rank": 1850,
        "rank_sort": 1853,
        "total": 2436
      },
      {
        "club_badge_src": null,
        "entry": 2137310,
        "entry_name": "Fore Fore Two",
        "event_total": 56,
        "has_played": true,
        "id": 15189674,
        "last_rank": 1563,
        "player_name": "Adam Leonard",
        "rank": 1850,
        "rank_sort": 1854,
        "total": 2436
      },
      {
        "club_badge_src": null,
        "entry": 3918206,
        "entry_name": "Clueless",
        "event_total": 54,
        "has_played": true,
        "id": 29462517,
        "last_rank": 1410,
        "player_name": "Reuben Gamoran",
        "rank": 1850,
        "rank_sort": 1855,
        "total": 2436
      },
      {
        "club_badge_src": null,
        "entry": 4348024,
        "entry_name": "ADI FC",
        "event_total": 57,
        "has_played": true,
        "id": 33016058,
        "last_rank": 1648,
        "player_name": "Jhossua Childs",
        "rank": 1850,
        "rank_sort": 1856,
        "total": 2436
      },
      {
        "club_badge_src": null,
        "entry": 4412689,
        "entry_name": "The Kingfishers",
        "event_total": 65,
        "has_played": true,
        "id": 33568613,
        "last_rank": 2468,
        "player_name": "Ann French",
        "rank": 1850,
        "rank_sort": 1857,
        "total": 2436
      },
      {
        "club_badge_src": null,
        "entry": 5290398,
        "entry_name": "Chuckle Town",
        "event_total": 61,
        "has_played": true,
        "id": 41007589,
        "last_rank": 2027,
        "player_name": "Matt Blake",
        "rank": 1850,
        "rank_sort": 1858,
        "total": 2436
      },
      {
        "club_badge_src": null,
        "entry": 6860417,
        "entry_name": "Leo FC",
        "event_total": 67,
        "has_played": true,
        "id": 54968450,
        "last_rank": 2215,
        "player_name": "Leutrim Hasani",
        "rank": 1850,
        "rank_sort": 1859,
        "total": 2436
      },
      {
        "club_badge_src": null,
        "entry": 15005,
        "entry_name": "Mika\u2019s XI",
        "event_total": 68,
        "has_played": true,
        "id": 91719,
        "last_rank": 2907,
        "player_name": "Tariq Haque",
        "rank": 1860,
        "rank_sort": 1860,
        "total": 2436
      },
      {
        "club_badge_src": null,
        "entry": 146965,
        "entry_name": "No Saints In This XI",
        "event_total": 74,
        "has_played": true,
        "id": 962902,
        "last_rank": 3796,
        "player_name": "Mark Beaven",
        "rank": 1860,
        "rank_sort": 1861,
        "total": 2436
      },
      {
        "club_badge_src": null,
        "entry": 380476,
        "entry_name": "A5ERKM FADY -1",
        "event_total": 76,
        "has_played": true,
        "id": 2549921,
        "last_rank": 4223,
        "player_name": "Yossef Amt",
        "rank": 1860,
        "rank_sort": 1862,
        "total": 2436
      },
      {
        "club_badge_src": null,
        "entry": 495821,
        "entry_name": "Owais B.Ghanem",
        "event_total": 70,
        "has_played": true,
        "id": 3328057,
        "last_rank": 2611,
        "player_name": "Owais Ghanem",
        "rank": 1860,
        "rank_sort": 1863,
        "total": 2436
      },
      {
        "club_badge_src": "https://fantasy.premierleague.com/gcs/plfpl-production-adobe-approved/plfpl-production/2130727/9dce998d-564e-4c2e-8298-f510e10b9315.png",
        "entry": 2130727,
        "entry_name": "AFC Neurospice",
        "event_total": 79,
        "has_played": true,
        "id": 15141204,
        "last_rank": 4804,
        "player_name": "Steven Burt",
        "rank": 1860,
        "rank_sort": 1864,
        "total": 2436
      },
      {
        "club_badge_src": null,
        "entry": 2620863,
        "entry_name": "Xhaka, walking",
        "event_total": 77,
        "has_played": true,
        "id": 18832015,
        "last_rank": 4394,
        "player_name": "Adam Lee",
        "rank": 1860,
        "rank_sort": 1865,
        "total": 2436
      },
      {
        "club_badge_src": null,
        "entry": 7208219,
        "entry_name": "Livin' Saliba Loca",
        "event_total": 60,
        "has_played": true,
        "id": 58210027,
        "last_rank": 1938,
        "player_name": "Paddy Duggan",
        "rank": 1860,
        "rank_sort": 1866,
        "total": 2436
      },
      {
        "club_badge_src": null,
        "entry": 523806,
        "entry_name": "Stubbed Mitoma",
        "event_total": 77,
        "has_played": true,
        "id": 3518478,
        "last_rank": 4431,
        "player_name": "Steven Jones",
        "rank": 1867,
        "rank_sort": 1867,
        "total": 2436
      },
      {
        "club_badge_src": null,
        "entry": 1962110,
        "entry_name": "Plumsack FC",
        "event_total": 59,
        "has_played": true,
        "id": 13843556,
        "last_rank": 1832,
        "player_name": "damien miller",
        "rank": 1867,
        "rank_sort": 1868,
        "total": 2436
      },
      {
        "club_badge_src": null,
        "entry": 9223370,
        "entry_name": "FC Hope and Cope",
        "event_total": 54,
        "has_played": true,
        "id": 77662967,
        "last_rank": 1426,
        "player_name": "Mary Hope Sousa",
        "rank": 1867,
        "rank_sort": 1869,
        "total": 2436
      },
      {
        "club_badge_src": "https://fantasy.premierleague.com/gcs/plfpl-production-adobe-approved/plfpl-production/19932/f3d67563-67de-44df-a891-008c6c43fa3d.png",
        "entry": 19932,
        "entry_name": "FPL Heritage",
        "event_total": 60,
        "has_played": true,
        "id": 124075,
        "last_rank": 1582,
        "player_name": "Salah L7B",
        "rank": 1870,
        "rank_sort": 1870,
        "total": 2436
      },
      {
        "club_badge_src": null,
        "entry": 2078625,
        "entry_name": "FPL Sophomore Vince",
        "event_total": 61,
        "has_played": true,
        "id": 14738489,
        "last_rank": 1657,
        "player_name": "Vincent Liardi",
        "rank": 1870,
        "rank_sort": 1871,
        "total": 2436
      },
      {
        "club_badge_src": null,
        "entry": 3643619,
        "entry_name": "Good Ebening",
        "event_total": 53,
        "has_played": true,
        "id": 27155443,
        "last_rank": 913,
        "player_name": "Tian Ke\u0161eljevi\u010d",
        "rank": 1870,
        "rank_sort": 1872,
        "total": 2436
      },
      {
        "club_badge_src": null,
        "entry": 558920,
        "entry_name": "ofer",
        "event_total": 65,
        "has_played": true,
        "id": 3761423,
        "last_rank": 2045,
        "player_name": "ofer harlev",
        "rank": 1873,
        "rank_sort": 1873,
        "total": 2436
      },
      {
        "club_badge_src": null,
        "entry": 990221,
        "entry_name": "Nduja Really Like It",
        "event_total": 66,
        "has_played": true,
        "id": 6827800,
        "last_rank": 2151,
        "player_name": "Ben Lock",
        "rank": 1873,
        "rank_sort": 1874,
        "total": 2436
      },
      {
        "club_badge_src": null,
        "entry": 8489229,
        "entry_name": "Ctrl Alt De Ligt",
        "event_total": 69,
        "has_played": true,
        "id": 70531165,
        "last_rank": 3042,
        "player_name": "David Frayne",
        "rank": 1873,
        "rank_sort": 1875,
        "total": 2436
      },
      {
        "club_badge_src": "https://fantasy.premierleague.com/gcs/plfpl-production-adobe-approved/plfpl-production/291771/922aad05-f4e1-4273-8a5f-0f8335e30a8d.png",
        "entry": 291771,
        "entry_name": "Yassine team",
        "event_total": 46,
        "has_played": true,
        "id": 1946365,
        "last_rank": 777,
        "player_name": "free palestine ---",
        "rank": 1876,
        "rank_sort": 1876,
        "total": 2436
      },
      {
        "club_badge_src": null,
        "entry": 3031927,
        "entry_name": "NoteNol",
        "event_total": 64,
        "has_played": true,
        "id": 22311467,
        "last_rank": 1951,
        "player_name": "Natee Sansombat",
        "rank": 1877,
        "rank_sort": 1877,
        "total": 2436
      },
      {
        "club_badge_src": null,
        "entry": 308702,
        "entry_name": "WengerBall",
        "event_total": 71,
        "has_played": true,
        "id": 2067725,
        "last_rank": 3376,
        "player_name": "Jon van Liow",
        "rank": 1878,
        "rank_sort": 1878,
        "total": 2435
      },
      {
        "club_badge_src": "https://fantasy.premierleague.com/gcs/plfpl-production-adobe-approved/plfpl-production/974039/cea0bd81-1dd2-4239-99dd-9b5f30ff9268.png",
        "entry": 974039,
        "entry_name": "\u0160inkansen",
        "event_total": 50,
        "has_played": true,
        "id": 6714404,
        "last_rank": 1190,
        "player_name": "\u010cedomir Luki\u0107",
        "rank": 1879,
        "rank_sort": 1879,
        "total": 2435
      },
      {
        "club_badge_src": null,
        "entry": 1189144,
        "entry_name": "Mind the Gap FC",
        "event_total": 61,
        "has_played": true,
        "id": 8250916,
        "last_rank": 2068,
        "player_name": "Cowen St Clair",
        "rank": 1879,
        "rank_sort": 1880,
        "total": 2435
      },
      {
        "club_badge_src": null,
        "entry": 3700742,
        "entry_name": "Lawrie FC",
        "event_total": 70,
        "has_played": true,
        "id": 27611530,
        "last_rank": 3223,
        "player_name": "Tom Lawrie",
        "rank": 1879,
        "rank_sort": 1881,
        "total": 2435
      },
      {
        "club_badge_src": "https://fantasy.premierleague.com/gcs/plfpl-production-adobe-approved/plfpl-production/4387786/b754c0a0-3c17-459a-9e84-0e029059c538.png",
        "entry": 4387786,
        "entry_name": "Wilsons Rovers",
        "event_total": 63,
        "has_played": true,
        "id": 33353520,
        "last_rank": 2274,
        "player_name": "Morgan Wilson",
        "rank": 1879,
        "rank_sort": 1882,
        "total": 2435
      },
      {
        "club_badge_src": null,
        "entry": 5066821,
        "entry_name": "Raya Sunshine",
        "event_total": 64,
        "has_played": true,
        "id": 39155082,
        "last_rank": 2399,
        "player_name": "Katherine Higgins",
        "rank": 1879,
        "rank_sort": 1883,
        "total": 2435
      },
      {
        "club_badge_src": null,
        "entry": 38448,
        "entry_name": "One Man Arne",
        "event_total": 65,
        "has_played": true,
        "id": 246412,
        "last_rank": 2518,
        "player_name": "Kev Leonard",
        "rank": 1884,
        "rank_sort": 1884,
        "total": 2435
      },
      {
        "club_badge_src": null,
        "entry": 92089,
        "entry_name": "AE",
        "event_total": 59,
        "has_played": true,
        "id": 601690,
        "last_rank": 1856,
        "player_name": "ABDULRHMAN J",
        "rank": 1884,
        "rank_sort": 1885,
        "total": 2435
      },
      {
        "club_badge_src": null,
        "entry": 108401,
        "entry_name": "\u4e8c\u96f6\u4e8c\u4e94\u5e74\u6b50\u9738\u76c3\u51a0\u8ecd+\u5065\u7d61\u901a\u76c3\u51a0\u8ecd\u71b1\u523a",
        "event_total": 64,
        "has_played": true,
        "id": 706734,
        "last_rank": 2418,
        "player_name": "Alex Liu",
        "rank": 1884,
        "rank_sort": 1886,
        "total": 2435
      },
      {
        "club_badge_src": null,
        "entry": 192016,
        "entry_name": "On Porro'd Time",
        "event_total": 66,
        "has_played": true,
        "id": 1272053,
        "last_rank": 2685,
        "player_name": "Adam Baker",
        "rank": 1884,
        "rank_sort": 1887,
        "total": 2435
      },
      {
        "club_badge_src": null,
        "entry": 244148,
        "entry_name": "Beat Don Hayes",
        "event_total": 65,
        "has_played": true,
        "id": 1625551,
        "last_rank": 2526,
        "player_name": "JJ Cremin",
        "rank": 1884,
        "rank_sort": 1888,
        "total": 2435
      },
      {
        "club_badge_src": null,
        "entry": 270908,
        "entry_name": "Banana Ljubljana",
        "event_total": 60,
        "has_played": true,
        "id": 1802254,
        "last_rank": 1961,
        "player_name": "Sigurd Holen",
        "rank": 1884,
        "rank_sort": 1889,
        "total": 2435
      },
      {
        "club_badge_src": null,
        "entry": 355219,
        "entry_name": "Gold Fashioned",
        "event_total": 83,
        "has_played": true,
        "id": 2377306,
        "last_rank": 5904,
        "player_name": "Rushabh Jajodia",
        "rank": 1884,
        "rank_sort": 1890,
        "total": 2435
      },
      {
        "club_badge_src": null,
        "entry": 677222,
        "entry_name": "bk br\u00e5ttom",
        "event_total": 64,
        "has_played": true,
        "id": 4582062,
        "last_rank": 2409,
        "player_name": "adrian julin",
        "rank": 1884,
        "rank_sort": 1891,
        "total": 2435
      },
      {
        "club_badge_src": "https://fantasy.premierleague.com/gcs/plfpl-production-adobe-approved/plfpl-production/743493/8a45a796-d685-4612-8ce0-d9310e19857a.png",
        "entry": 743493,
        "entry_name": "Pile It Like Its Hot",
        "event_total": 65,
        "has_played": true,
        "id": 5057407,
        "last_rank": 2553,
        "player_name": "Rasmus Pilemand",
        "rank": 1884,
        "rank_sort": 1892,
        "total": 2435
      },
      {
        "club_badge_src": null,
        "entry": 778278,
        "entry_name": "Skramondos",
        "event_total": 56,
        "has_played": true,
        "id": 5310796,
        "last_rank": 1609,
        "player_name": "Edvard Skramstad",
        "rank": 1884,
        "rank_sort": 1893,
        "total": 2435
      },
      {
        "club_badge_src": null,
        "entry": 813702,
        "entry_name": "Ste-aling the show",
        "event_total": 58,
        "has_played": true,
        "id": 5571910,
        "last_rank": 1773,
        "player_name": "Stevie-lee Sayers",
        "rank": 1884,
        "rank_sort": 1894,
        "total": 2435
      },
      {
        "club_badge_src": null,
        "entry": 856184,
        "entry_name": "Loozers",
        "event_total": 76,
        "has_played": true,
        "id": 5868709,
        "last_rank": 4270,
        "player_name": "Luc Robert",
        "rank": 1884,
        "rank_sort": 1895,
        "total": 2435
      },
      {
        "club_badge_src": null,
        "entry": 999730,
        "entry_name": "Wirtz Of Wisdom",
        "event_total": 40,
        "has_played": true,
        "id": 6910561,
        "last_rank": 710,
        "player_name": "Mathias Skelde",
        "rank": 1884,
        "rank_sort": 1896,
        "total": 2435
      },
      {
        "club_badge_src": null,
        "entry": 1342960,
        "entry_name": "Swiss Dream",
        "event_total": 64,
        "has_played": true,
        "id": 9337095,
        "last_rank": 2399,
        "player_name": "Florent Mostes",
        "rank": 1884,
        "rank_sort": 1897,
        "total": 2435
      },
      {
        "club_badge_src": null,
        "entry": 1751537,
        "entry_name": "me, myself, Ndiaye",
        "event_total": 84,
        "has_played": true,
        "id": 12292500,
        "last_rank": 6265,
        "player_name": "Max Wilks",
        "rank": 1884,
        "rank_sort": 1898,
        "total": 2435
      },
      {
        "club_badge_src": "https://fantasy.premierleague.com/gcs/plfpl-production-adobe-approved/plfpl-production/2747630/1d74c443-a719-4ac1-acf1-41d8e60576bc.png",
        "entry": 2747630,
        "entry_name": "AnfieldRoars_FC",
        "event_total": 68,
        "has_played": true,
        "id": 19918012,
        "last_rank": 2952,
        "player_name": "Sameer Kc",
        "rank": 1884,
        "rank_sort": 1899,
        "total": 2435
      },
      {
        "club_badge_src": null,
        "entry": 3229751,
        "entry_name": "Derek\u2019s AI Sucks",
        "event_total": 76,
        "has_played": true,
        "id": 23886338,
        "last_rank": 4303,
        "player_name": "Jimmy Weber",
        "rank": 1884,
        "rank_sort": 1900,
        "total": 2435
      }
    ]
  }
}