{
  "last_updated_data": "2026-05-24T23:28:17Z",
  "league": {
    "admin_entry": null,
    "closed": false,
    "code_privacy": "p",
    "created": "2025-07-20T23:14:33.933835Z",
    "cup_league": 2815434,
    "has_cup": true,
    "id": 314,
    "league_type": "s",
    "max_entries": null,
    "name": "Overall",
    "rank": null,
    "scoring": "c",
    "start_event": 1
  },
  "new_entries": {
    "has_next": false,
    "page": 1,
    "results": []
  },
  "standings": {
    "has_next": true,
    "page": 1038,
    "results": [
      {
        "club_badge_src": null,
        "entry": 2215905,
        "entry_name": "ibraibra",
        "event_total": 56,
        "has_played": true,
        "id": 15780984,
        "last_rank": 50635,
        "player_name": "Merf Ibra",
        "rank": 51772,
        "rank_sort": 51851,
        "total": 2351
      },
      {
        "club_badge_src": null,
        "entry": 2253293,
        "entry_name": "Dynamo Danger",
        "event_total": 61,
        "has_played": true,
        "id": 16061044,
        "last_rank": 58911,
        "player_name": "David Shovlin",
        "rank": 51772,
        "rank_sort": 51852,
        "total": 2351
      },
      {
        "club_badge_src": null,
        "entry": 2399172,
        "entry_name": "Citizens\ufffd",
        "event_total": 59,
        "has_played": true,
        "id": 17146064,
        "last_rank": 48898,
        "player_name": "\u00c2mr El Qatari",
        "rank": 51772,
        "rank_sort": 51853,
        "total": 2351
      },
      {
        "club_badge_src": null,
        "entry": 2409670,
        "entry_name": "Keyser's boys",
        "event_total": 52,
        "has_played": true,
        "id": 17224370,
        "last_rank": 39246,
        "player_name": "Nathan Browne",
        "rank": 51772,
        "rank_sort": 51854,
        "total": 2351
      },
      {
        "club_badge_src": null,
        "entry": 2456345,
        "entry_name": "Tak\u00fd je fodbal",
        "event_total": 40,
        "has_played": true,
        "id": 17569277,
        "last_rank": 30060,
        "player_name": "Ernest Lopu",
        "rank": 51772,
        "rank_sort": 51855,
        "total": 2351
      },
      {
        "club_badge_src": null,
        "entry": 2464151,
        "entry_name": ":)",
        "event_total": 54,
        "has_played": true,
        "id": 17626192,
        "last_rank": 41824,
        "player_name": "Nikola Petrov",
        "rank": 51772,
        "rank_sort": 51856,
        "total": 2351
      },
      {
        "club_badge_src": null,
        "entry": 2501202,
        "entry_name": "Ten Foot FC",
        "event_total": 61,
        "has_played": true,
        "id": 17909745,
        "last_rank": 58911,
        "player_name": "Thomas Curtis",
        "rank": 51772,
        "rank_sort": 51857,
        "total": 2351
      },
      {
        "club_badge_src": "https://fantasy.premierleague.com/gcs/plfpl-production-adobe-approved/plfpl-production/2613407/2c5e5f28-3353-4daa-8f17-3f9a4af07140.png",
        "entry": 2613407,
        "entry_name": "Rise of the Phoenix",
        "event_total": 62,
        "has_played": true,
        "id": 18777176,
        "last_rank": 60462,
        "player_name": "Ammar Asghar",
        "rank": 51772,
        "rank_sort": 51858,
        "total": 2351
      },
      {
        "club_badge_src": null,
        "entry": 2737043,
        "entry_name": "Superteam",
        "event_total": 40,
        "has_played": true,
        "id": 19703275,
        "last_rank": 26230,
        "player_name": "Dominik Pedersen",
        "rank": 51772,
        "rank_sort": 51859,
        "total": 2351
      },
      {
        "club_badge_src": "https://fantasy.premierleague.com/gcs/plfpl-production-adobe-approved/plfpl-production/2740849/dd19a13d-6ba8-4561-973e-c8222374f0a8.png",
        "entry": 2740849,
        "entry_name": "Exodia",
        "event_total": 31,
        "has_played": true,
        "id": 19780299,
        "last_rank": 22216,
        "player_name": "Ahmed Hamdy",
        "rank": 51772,
        "rank_sort": 51860,
        "total": 2351
      },
      {
        "club_badge_src": null,
        "entry": 2760289,
        "entry_name": "Don\u2019tLookBackElanga",
        "event_total": 59,
        "has_played": true,
        "id": 20136984,
        "last_rank": 55514,
        "player_name": "Ben Pople",
        "rank": 51772,
        "rank_sort": 51861,
        "total": 2351
      },
      {
        "club_badge_src": null,
        "entry": 2903474,
        "entry_name": "BantaBells FC **",
        "event_total": 56,
        "has_played": true,
        "id": 21277467,
        "last_rank": 50468,
        "player_name": "Michael Belli",
        "rank": 51772,
        "rank_sort": 51862,
        "total": 2351
      },
      {
        "club_badge_src": null,
        "entry": 2957356,
        "entry_name": "TikiTaka",
        "event_total": 61,
        "has_played": true,
        "id": 21722017,
        "last_rank": 58688,
        "player_name": "Stijn Brokken",
        "rank": 51772,
        "rank_sort": 51863,
        "total": 2351
      },
      {
        "club_badge_src": "https://fantasy.premierleague.com/gcs/plfpl-production-adobe-approved/plfpl-production/3127338/0827a862-7737-4114-998f-98d436a8217e.png",
        "entry": 3127338,
        "entry_name": "Trash",
        "event_total": 67,
        "has_played": true,
        "id": 23080662,
        "last_rank": 69641,
        "player_name": "Mat\u011bj Klva\u0148a",
        "rank": 51772,
        "rank_sort": 51864,
        "total": 2351
      },
      {
        "club_badge_src": null,
        "entry": 3148440,
        "entry_name": "ThomasTheFrankEngine",
        "event_total": 68,
        "has_played": true,
        "id": 23247985,
        "last_rank": 63390,
        "player_name": "Josh Spendiff",
        "rank": 51772,
        "rank_sort": 51865,
        "total": 2351
      },
      {
        "club_badge_src": null,
        "entry": 3160578,
        "entry_name": "Cook'd fc",
        "event_total": 57,
        "has_played": true,
        "id": 23347642,
        "last_rank": 52205,
        "player_name": "Daire Mc Grath",
        "rank": 51772,
        "rank_sort": 51866,
        "total": 2351
      },
      {
        "club_badge_src": null,
        "entry": 3250968,
        "entry_name": "FOUR C FC",
        "event_total": 67,
        "has_played": true,
        "id": 24052610,
        "last_rank": 69641,
        "player_name": "Robertttt Ali",
        "rank": 51772,
        "rank_sort": 51867,
        "total": 2351
      },
      {
        "club_badge_src": null,
        "entry": 3419183,
        "entry_name": "Bruno Dos Tres",
        "event_total": 49,
        "has_played": true,
        "id": 25397066,
        "last_rank": 40647,
        "player_name": "John Charles Roberts",
        "rank": 51772,
        "rank_sort": 51868,
        "total": 2351
      },
      {
        "club_badge_src": null,
        "entry": 3470374,
        "entry_name": "The Stud Muffins",
        "event_total": 66,
        "has_played": true,
        "id": 25799903,
        "last_rank": 67695,
        "player_name": "Saurabh Gupta",
        "rank": 51772,
        "rank_sort": 51869,
        "total": 2351
      },
      {
        "club_badge_src": null,
        "entry": 3538825,
        "entry_name": "kicking K",
        "event_total": 58,
        "has_played": true,
        "id": 26341253,
        "last_rank": 53621,
        "player_name": "Charlie Hope",
        "rank": 51772,
        "rank_sort": 51870,
        "total": 2351
      },
      {
        "club_badge_src": null,
        "entry": 3566543,
        "entry_name": "Go with the Flo",
        "event_total": 55,
        "has_played": true,
        "id": 26556287,
        "last_rank": 49078,
        "player_name": "Frankie Luigi",
        "rank": 51772,
        "rank_sort": 51871,
        "total": 2351
      },
      {
        "club_badge_src": null,
        "entry": 3595872,
        "entry_name": "HahaFPLTeamGoBrrrrrr",
        "event_total": 59,
        "has_played": true,
        "id": 26780911,
        "last_rank": 48898,
        "player_name": "Josh Gribling",
        "rank": 51772,
        "rank_sort": 51872,
        "total": 2351
      },
      {
        "club_badge_src": null,
        "entry": 3621421,
        "entry_name": "Obi-Wan Bissaka",
        "event_total": 69,
        "has_played": true,
        "id": 26981693,
        "last_rank": 73975,
        "player_name": "Ollie Bunker",
        "rank": 51772,
        "rank_sort": 51873,
        "total": 2351
      },
      {
        "club_badge_src": null,
        "entry": 3724573,
        "entry_name": "King's XI",
        "event_total": 39,
        "has_played": true,
        "id": 27797198,
        "last_rank": 29199,
        "player_name": "Alan Wong",
        "rank": 51772,
        "rank_sort": 51874,
        "total": 2351
      },
      {
        "club_badge_src": null,
        "entry": 3758302,
        "entry_name": "Dhall and Rice",
        "event_total": 70,
        "has_played": true,
        "id": 28060309,
        "last_rank": 75874,
        "player_name": "Daniel Hall",
        "rank": 51772,
        "rank_sort": 51875,
        "total": 2351
      },
      {
        "club_badge_src": null,
        "entry": 3842121,
        "entry_name": "tojo wolfpack",
        "event_total": 60,
        "has_played": true,
        "id": 28782581,
        "last_rank": 57200,
        "player_name": "Ricardo Rosa",
        "rank": 51772,
        "rank_sort": 51876,
        "total": 2351
      },
      {
        "club_badge_src": null,
        "entry": 4023745,
        "entry_name": "Hacunha Matata",
        "event_total": 47,
        "has_played": true,
        "id": 30328820,
        "last_rank": 38163,
        "player_name": "Vidur Ahluwalia",
        "rank": 51772,
        "rank_sort": 51877,
        "total": 2351
      },
      {
        "club_badge_src": null,
        "entry": 4087698,
        "entry_name": "Noni to be upset",
        "event_total": 54,
        "has_played": true,
        "id": 30861547,
        "last_rank": 47596,
        "player_name": "Joel Mathew",
        "rank": 51772,
        "rank_sort": 51878,
        "total": 2351
      },
      {
        "club_badge_src": null,
        "entry": 4221017,
        "entry_name": "Matheus Bundha",
        "event_total": 43,
        "has_played": true,
        "id": 31974427,
        "last_rank": 29071,
        "player_name": "Will Young",
        "rank": 51772,
        "rank_sort": 51879,
        "total": 2351
      },
      {
        "club_badge_src": "https://fantasy.premierleague.com/gcs/plfpl-production-adobe-approved/plfpl-production/4382636/fb13e249-cd89-4ce9-ba14-f8cd49011f5d.png",
        "entry": 4382636,
        "entry_name": "San Marino Spurs",
        "event_total": 56,
        "has_played": true,
        "id": 33309969,
        "last_rank": 50635,
        "player_name": "Sean McNally",
        "rank": 51772,
        "rank_sort": 51880,
        "total": 2351
      },
      {
        "club_badge_src": null,
        "entry": 4498413,
        "entry_name": "White Foxes",
        "event_total": 67,
        "has_played": true,
        "id": 34293257,
        "last_rank": 69641,
        "player_name": "Francis Whiteley",
        "rank": 51772,
        "rank_sort": 51881,
        "total": 2351
      },
      {
        "club_badge_src": null,
        "entry": 4512829,
        "entry_name": "RiceRiceBaby",
        "event_total": 67,
        "has_played": true,
        "id": 34411733,
        "last_rank": 69641,
        "player_name": "Tone Merete Lofstad",
        "rank": 51772,
        "rank_sort": 51882,
        "total": 2351
      },
      {
        "club_badge_src": null,
        "entry": 4678031,
        "entry_name": "KJ TEAM",
        "event_total": 59,
        "has_played": true,
        "id": 35840252,
        "last_rank": 55514,
        "player_name": "Khairil Jantan",
        "rank": 51772,
        "rank_sort": 51883,
        "total": 2351
      },
      {
        "club_badge_src": null,
        "entry": 4684990,
        "entry_name": "Less Talk",
        "event_total": 57,
        "has_played": true,
        "id": 35902753,
        "last_rank": 45927,
        "player_name": "Tony Tones",
        "rank": 51772,
        "rank_sort": 51884,
        "total": 2351
      },
      {
        "club_badge_src": null,
        "entry": 4753983,
        "entry_name": "3e9",
        "event_total": 65,
        "has_played": true,
        "id": 36582893,
        "last_rank": 66057,
        "player_name": "Asim Yahya",
        "rank": 51772,
        "rank_sort": 51885,
        "total": 2351
      },
      {
        "club_badge_src": "https://fantasy.premierleague.com/gcs/plfpl-production-adobe-approved/plfpl-production/4797311/354e7049-def0-4140-be1c-3b4c0a8792a6.png",
        "entry": 4797311,
        "entry_name": "I Baleba can fly",
        "event_total": 65,
        "has_played": true,
        "id": 36935299,
        "last_rank": 66057,
        "player_name": "Joshua Robinson",
        "rank": 51772,
        "rank_sort": 51886,
        "total": 2351
      },
      {
        "club_badge_src": null,
        "entry": 4870224,
        "entry_name": "Jorj",
        "event_total": 60,
        "has_played": true,
        "id": 37538722,
        "last_rank": 57001,
        "player_name": "Georges Moussallem",
        "rank": 51772,
        "rank_sort": 51887,
        "total": 2351
      },
      {
        "club_badge_src": null,
        "entry": 4920155,
        "entry_name": "Liquidate Chelsea",
        "event_total": 67,
        "has_played": true,
        "id": 37950117,
        "last_rank": 62223,
        "player_name": "Pete Deboer",
        "rank": 51772,
        "rank_sort": 51888,
        "total": 2351
      },
      {
        "club_badge_src": null,
        "entry": 4944078,
        "entry_name": "HniezerFc",
        "event_total": 51,
        "has_played": true,
        "id": 38147785,
        "last_rank": 43342,
        "player_name": "Shaun Khoshaba",
        "rank": 51772,
        "rank_sort": 51889,
        "total": 2351
      },
      {
        "club_badge_src": null,
        "entry": 4969899,
        "entry_name": "Kinder Mbeumo",
        "event_total": 55,
        "has_played": true,
        "id": 38355144,
        "last_rank": 48898,
        "player_name": "Alan Conlon",
        "rank": 51772,
        "rank_sort": 51890,
        "total": 2351
      },
      {
        "club_badge_src": "https://fantasy.premierleague.com/gcs/plfpl-production-adobe-approved/plfpl-production/5031465/ba7d8455-699f-4c2b-886c-f331b0789b78.png",
        "entry": 5031465,
        "entry_name": "\u0627\u0644\u0639\u0644\u0648\u0642 FC",
        "event_total": 70,
        "has_played": true,
        "id": 38861356,
        "last_rank": 76128,
        "player_name": "mohamed elsolia",
        "rank": 51772,
        "rank_sort": 51891,
        "total": 2351
      },
      {
        "club_badge_src": "https://fantasy.premierleague.com/gcs/plfpl-production-adobe-approved/plfpl-production/5136197/242c6dd2-c553-41e7-b635-83c27c0bc865.png",
        "entry": 5136197,
        "entry_name": "Tdon fc",
        "event_total": 69,
        "has_played": true,
        "id": 39727390,
        "last_rank": 45144,
        "player_name": "Ibrahim Jalloh",
        "rank": 51772,
        "rank_sort": 51892,
        "total": 2351
      },
      {
        "club_badge_src": "https://fantasy.premierleague.com/gcs/plfpl-production-adobe-approved/plfpl-production/5141847/710815ed-1559-4384-a0a3-29b39c74f671.png",
        "entry": 5141847,
        "entry_name": "nxrth fc",
        "event_total": 58,
        "has_played": true,
        "id": 39775757,
        "last_rank": 53952,
        "player_name": "Adedolapo Adefolahan",
        "rank": 51772,
        "rank_sort": 51893,
        "total": 2351
      },
      {
        "club_badge_src": null,
        "entry": 5423536,
        "entry_name": "The Lioness",
        "event_total": 72,
        "has_played": true,
        "id": 42183111,
        "last_rank": 80465,
        "player_name": "Liz Barber",
        "rank": 51772,
        "rank_sort": 51894,
        "total": 2351
      },
      {
        "club_badge_src": null,
        "entry": 5617858,
        "entry_name": "Dragon Rising",
        "event_total": 56,
        "has_played": true,
        "id": 43912482,
        "last_rank": 44525,
        "player_name": "Kijja Laowsuwan",
        "rank": 51772,
        "rank_sort": 51895,
        "total": 2351
      },
      {
        "club_badge_src": null,
        "entry": 5682392,
        "entry_name": "JurassIsak Park",
        "event_total": 56,
        "has_played": true,
        "id": 44475540,
        "last_rank": 50468,
        "player_name": "Carl Wilson",
        "rank": 51772,
        "rank_sort": 51896,
        "total": 2351
      },
      {
        "club_badge_src": null,
        "entry": 5786188,
        "entry_name": "Pastel Di Natale",
        "event_total": 46,
        "has_played": true,
        "id": 45376162,
        "last_rank": 32190,
        "player_name": "Morris Vasconcelos",
        "rank": 51772,
        "rank_sort": 51897,
        "total": 2351
      },
      {
        "club_badge_src": null,
        "entry": 5873876,
        "entry_name": "Bilbao Baggins",
        "event_total": 61,
        "has_played": true,
        "id": 46137566,
        "last_rank": 51720,
        "player_name": "James Coles",
        "rank": 51772,
        "rank_sort": 51898,
        "total": 2351
      },
      {
        "club_badge_src": null,
        "entry": 5997794,
        "entry_name": "Dr. Pepper\ufffd\ufe0f",
        "event_total": 55,
        "has_played": true,
        "id": 47277725,
        "last_rank": 43168,
        "player_name": "Robert Jackson",
        "rank": 51772,
        "rank_sort": 51899,
        "total": 2351
      },
      {
        "club_badge_src": null,
        "entry": 6005410,
        "entry_name": "Gangb9erwieBenzema",
        "event_total": 57,
        "has_played": true,
        "id": 47346323,
        "last_rank": 45927,
        "player_name": "Christoph Zingg",
        "rank": 51772,
        "rank_sort": 51900,
        "total": 2351
      }
    ]
  }
}