{
  "last_updated_data": "2026-05-24T23:28:17Z",
  "league": {
    "admin_entry": null,
    "closed": false,
    "code_privacy": "p",
    "created": "2025-07-20T23:14:33.933835Z",
    "cup_league": 2815434,
    "has_cup": true,
    "id": 314,
    "league_type": "s",
    "max_entries": null,
    "name": "Overall",
    "rank": null,
    "scoring": "c",
    "start_event": 1
  },
  "new_entries": {
    "has_next": false,
    "page": 1,
    "results": []
  },
  "standings": {
    "has_next": true,
    "page": 826,
    "results": [
      {
        "club_badge_src": null,
        "entry": 3541985,
        "entry_name": "Longcot Longballers",
        "event_total": 62,
        "has_played": true,
        "id": 26365549,
        "last_rank": 48119,
        "player_name": "Tom Craig",
        "rank": 41056,
        "rank_sort": 41251,
        "total": 2358
      },
      {
        "club_badge_src": null,
        "entry": 3581894,
        "entry_name": "Crewerpool FC",
        "event_total": 59,
        "has_played": true,
        "id": 26673941,
        "last_rank": 44048,
        "player_name": "Liam Hannan",
        "rank": 41056,
        "rank_sort": 41252,
        "total": 2358
      },
      {
        "club_badge_src": null,
        "entry": 3581946,
        "entry_name": "Batigol",
        "event_total": 71,
        "has_played": true,
        "id": 26674305,
        "last_rank": 63201,
        "player_name": "yishai Forscher",
        "rank": 41056,
        "rank_sort": 41253,
        "total": 2358
      },
      {
        "club_badge_src": "https://fantasy.premierleague.com/gcs/plfpl-production-adobe-approved/plfpl-production/3611090/a931ab3f-f4b0-452b-a1e0-48b27a5bae30.png",
        "entry": 3611090,
        "entry_name": "Big MacBurnie",
        "event_total": 46,
        "has_played": true,
        "id": 26900519,
        "last_rank": 28726,
        "player_name": "Dan Thomson",
        "rank": 41056,
        "rank_sort": 41254,
        "total": 2358
      },
      {
        "club_badge_src": "https://fantasy.premierleague.com/gcs/plfpl-production-adobe-approved/plfpl-production/3686922/9ff903f7-ee54-47e8-8ba8-e7a171ac0890.png",
        "entry": 3686922,
        "entry_name": "Est1979",
        "event_total": 67,
        "has_played": true,
        "id": 27503884,
        "last_rank": 56180,
        "player_name": "Danny Delker",
        "rank": 41056,
        "rank_sort": 41255,
        "total": 2358
      },
      {
        "club_badge_src": null,
        "entry": 3873827,
        "entry_name": "Mo Money Mo Salah",
        "event_total": 68,
        "has_played": true,
        "id": 29084710,
        "last_rank": 58071,
        "player_name": "Nicholas Tan",
        "rank": 41056,
        "rank_sort": 41256,
        "total": 2358
      },
      {
        "club_badge_src": "https://fantasy.premierleague.com/gcs/plfpl-production-adobe-approved/plfpl-production/3882035/265d195c-3400-40cf-9ca4-b9b7df8e02d2.png",
        "entry": 3882035,
        "entry_name": "YoungCeoFc",
        "event_total": 61,
        "has_played": true,
        "id": 29169322,
        "last_rank": 46839,
        "player_name": "Albert Ashie---",
        "rank": 41056,
        "rank_sort": 41257,
        "total": 2358
      },
      {
        "club_badge_src": null,
        "entry": 3902626,
        "entry_name": "MangoRayan",
        "event_total": 70,
        "has_played": true,
        "id": 29337851,
        "last_rank": 61258,
        "player_name": "Daniel R\u00e5dstr\u00f6m",
        "rank": 41056,
        "rank_sort": 41258,
        "total": 2358
      },
      {
        "club_badge_src": "https://fantasy.premierleague.com/gcs/plfpl-production-adobe-approved/plfpl-production/3909515/83aea916-639d-4474-bdcf-76ae5a4d491a.png",
        "entry": 3909515,
        "entry_name": "Cargo Jorts",
        "event_total": 71,
        "has_played": true,
        "id": 29393008,
        "last_rank": 63201,
        "player_name": "Mike Cary",
        "rank": 41056,
        "rank_sort": 41259,
        "total": 2358
      },
      {
        "club_badge_src": null,
        "entry": 3922128,
        "entry_name": "TeamMW",
        "event_total": 59,
        "has_played": true,
        "id": 29494362,
        "last_rank": 44048,
        "player_name": "Matt Windsor",
        "rank": 41056,
        "rank_sort": 41260,
        "total": 2358
      },
      {
        "club_badge_src": null,
        "entry": 3947030,
        "entry_name": "KingToddie FC",
        "event_total": 49,
        "has_played": true,
        "id": 29692477,
        "last_rank": 31747,
        "player_name": "Alex Todd",
        "rank": 41056,
        "rank_sort": 41261,
        "total": 2358
      },
      {
        "club_badge_src": null,
        "entry": 4000129,
        "entry_name": "AS7",
        "event_total": 59,
        "has_played": true,
        "id": 30127945,
        "last_rank": 43849,
        "player_name": "Ajay Singh",
        "rank": 41056,
        "rank_sort": 41262,
        "total": 2358
      },
      {
        "club_badge_src": null,
        "entry": 4000169,
        "entry_name": "Pro Evolution Saka",
        "event_total": 59,
        "has_played": true,
        "id": 30128304,
        "last_rank": 43849,
        "player_name": "Daniel Boyle",
        "rank": 41056,
        "rank_sort": 41263,
        "total": 2358
      },
      {
        "club_badge_src": null,
        "entry": 4007437,
        "entry_name": "herm",
        "event_total": 62,
        "has_played": true,
        "id": 30188830,
        "last_rank": 48197,
        "player_name": "Herman Liverud Knudsen",
        "rank": 41056,
        "rank_sort": 41264,
        "total": 2358
      },
      {
        "club_badge_src": null,
        "entry": 4139456,
        "entry_name": "Mike Rebels",
        "event_total": 50,
        "has_played": true,
        "id": 31283980,
        "last_rank": 32879,
        "player_name": "miguel rebelo",
        "rank": 41056,
        "rank_sort": 41265,
        "total": 2358
      },
      {
        "club_badge_src": null,
        "entry": 4142144,
        "entry_name": "Golden",
        "event_total": 59,
        "has_played": true,
        "id": 31305598,
        "last_rank": 44048,
        "player_name": "Ahmed Nabil",
        "rank": 41056,
        "rank_sort": 41266,
        "total": 2358
      },
      {
        "club_badge_src": null,
        "entry": 4156887,
        "entry_name": "3rd time lucky",
        "event_total": 54,
        "has_played": true,
        "id": 31423519,
        "last_rank": 37589,
        "player_name": "Timothy Wong",
        "rank": 41056,
        "rank_sort": 41267,
        "total": 2358
      },
      {
        "club_badge_src": "https://fantasy.premierleague.com/gcs/plfpl-production-adobe-approved/plfpl-production/4161546/e30b8448-1954-438c-8014-15a4a2d40e43.png",
        "entry": 4161546,
        "entry_name": "FC Apple",
        "event_total": 54,
        "has_played": true,
        "id": 31463885,
        "last_rank": 37589,
        "player_name": "Craig Nicolson",
        "rank": 41056,
        "rank_sort": 41268,
        "total": 2358
      },
      {
        "club_badge_src": null,
        "entry": 4183145,
        "entry_name": "It's Burger Time",
        "event_total": 65,
        "has_played": true,
        "id": 31649000,
        "last_rank": 52853,
        "player_name": "Callum Hodgart",
        "rank": 41056,
        "rank_sort": 41269,
        "total": 2358
      },
      {
        "club_badge_src": null,
        "entry": 4218538,
        "entry_name": "cold palmer",
        "event_total": 51,
        "has_played": true,
        "id": 31950651,
        "last_rank": 25729,
        "player_name": "hamza bourbaa",
        "rank": 41056,
        "rank_sort": 41270,
        "total": 2358
      },
      {
        "club_badge_src": null,
        "entry": 4243483,
        "entry_name": "Grand Kirin",
        "event_total": 67,
        "has_played": true,
        "id": 32162449,
        "last_rank": 56369,
        "player_name": "Brian Yip",
        "rank": 41056,
        "rank_sort": 41271,
        "total": 2358
      },
      {
        "club_badge_src": null,
        "entry": 4261137,
        "entry_name": "Doku Dre",
        "event_total": 68,
        "has_played": true,
        "id": 32307812,
        "last_rank": 57776,
        "player_name": "Nas Iqbal",
        "rank": 41056,
        "rank_sort": 41272,
        "total": 2358
      },
      {
        "club_badge_src": null,
        "entry": 4288536,
        "entry_name": "Delap Dance",
        "event_total": 70,
        "has_played": true,
        "id": 32529465,
        "last_rank": 61411,
        "player_name": "Jamie Terry",
        "rank": 41056,
        "rank_sort": 41273,
        "total": 2358
      },
      {
        "club_badge_src": null,
        "entry": 4311215,
        "entry_name": "luccas Losers",
        "event_total": 59,
        "has_played": true,
        "id": 32712464,
        "last_rank": 44303,
        "player_name": "David Ferris",
        "rank": 41056,
        "rank_sort": 41274,
        "total": 2358
      },
      {
        "club_badge_src": null,
        "entry": 4314197,
        "entry_name": "Phoenix squad",
        "event_total": 70,
        "has_played": true,
        "id": 32737543,
        "last_rank": 61606,
        "player_name": "Jip Joker",
        "rank": 41056,
        "rank_sort": 41275,
        "total": 2358
      },
      {
        "club_badge_src": null,
        "entry": 4360580,
        "entry_name": "Palmer Drama",
        "event_total": 68,
        "has_played": true,
        "id": 33118996,
        "last_rank": 57857,
        "player_name": "Thilly Thanabalasingam",
        "rank": 41056,
        "rank_sort": 41276,
        "total": 2358
      },
      {
        "club_badge_src": null,
        "entry": 4383350,
        "entry_name": "Injury Prone",
        "event_total": 64,
        "has_played": true,
        "id": 33316441,
        "last_rank": 51403,
        "player_name": "Chris Mills",
        "rank": 41056,
        "rank_sort": 41277,
        "total": 2358
      },
      {
        "club_badge_src": null,
        "entry": 4397448,
        "entry_name": "Bulquirtmander FC",
        "event_total": 41,
        "has_played": true,
        "id": 33438769,
        "last_rank": 24143,
        "player_name": "Phill Macbeth-Seath",
        "rank": 41056,
        "rank_sort": 41278,
        "total": 2358
      },
      {
        "club_badge_src": "https://fantasy.premierleague.com/gcs/plfpl-production-adobe-approved/plfpl-production/4473522/5b884cf4-2976-4c00-b408-71b8d86aa1bd.png",
        "entry": 4473522,
        "entry_name": "Old Biscuits",
        "event_total": 69,
        "has_played": true,
        "id": 34090965,
        "last_rank": 59535,
        "player_name": "Stuart Brown",
        "rank": 41056,
        "rank_sort": 41279,
        "total": 2358
      },
      {
        "club_badge_src": null,
        "entry": 4476302,
        "entry_name": "Obertan FC",
        "event_total": 54,
        "has_played": true,
        "id": 34113293,
        "last_rank": 37589,
        "player_name": "Mihir Damania",
        "rank": 41056,
        "rank_sort": 41280,
        "total": 2358
      },
      {
        "club_badge_src": null,
        "entry": 4639220,
        "entry_name": "Rynamo Kiev",
        "event_total": 53,
        "has_played": true,
        "id": 35479586,
        "last_rank": 36624,
        "player_name": "Ryan Holtby",
        "rank": 41056,
        "rank_sort": 41281,
        "total": 2358
      },
      {
        "club_badge_src": null,
        "entry": 4724001,
        "entry_name": "Kattepusene",
        "event_total": 57,
        "has_played": true,
        "id": 36305723,
        "last_rank": 41617,
        "player_name": "Magnus Fitzgerald",
        "rank": 41056,
        "rank_sort": 41282,
        "total": 2358
      },
      {
        "club_badge_src": null,
        "entry": 4797115,
        "entry_name": "GinosGems",
        "event_total": 65,
        "has_played": true,
        "id": 36933676,
        "last_rank": 52759,
        "player_name": "Mark Ingram",
        "rank": 41056,
        "rank_sort": 41283,
        "total": 2358
      },
      {
        "club_badge_src": null,
        "entry": 4822853,
        "entry_name": "Football\u2019s Friend",
        "event_total": 65,
        "has_played": true,
        "id": 37142021,
        "last_rank": 52853,
        "player_name": "Thanachai Poombansao",
        "rank": 41056,
        "rank_sort": 41284,
        "total": 2358
      },
      {
        "club_badge_src": null,
        "entry": 4887819,
        "entry_name": "Orecle",
        "event_total": 59,
        "has_played": true,
        "id": 37684295,
        "last_rank": 44048,
        "player_name": "Ore Akinyinka",
        "rank": 41056,
        "rank_sort": 41285,
        "total": 2358
      },
      {
        "club_badge_src": null,
        "entry": 4917840,
        "entry_name": "Trust the process",
        "event_total": 72,
        "has_played": true,
        "id": 37930895,
        "last_rank": 64830,
        "player_name": "Frederick Lee",
        "rank": 41056,
        "rank_sort": 41286,
        "total": 2358
      },
      {
        "club_badge_src": null,
        "entry": 4995418,
        "entry_name": "GettingCarrickedAway",
        "event_total": 67,
        "has_played": true,
        "id": 38568730,
        "last_rank": 56099,
        "player_name": "Zahir Dharamsi",
        "rank": 41056,
        "rank_sort": 41287,
        "total": 2358
      },
      {
        "club_badge_src": "https://fantasy.premierleague.com/gcs/plfpl-production-adobe-approved/plfpl-production/5005890/9a3e9fe6-081b-42e8-b44a-b5a32a97f799.png",
        "entry": 5005890,
        "entry_name": "Awoo",
        "event_total": 58,
        "has_played": true,
        "id": 38654715,
        "last_rank": 42648,
        "player_name": "Titus Muranen",
        "rank": 41056,
        "rank_sort": 41288,
        "total": 2358
      },
      {
        "club_badge_src": null,
        "entry": 5030450,
        "entry_name": "za\u015b_polane",
        "event_total": 74,
        "has_played": true,
        "id": 38853198,
        "last_rank": 68748,
        "player_name": "Artur Wower",
        "rank": 41056,
        "rank_sort": 41289,
        "total": 2358
      },
      {
        "club_badge_src": null,
        "entry": 5208636,
        "entry_name": "Sirius&Remus",
        "event_total": 61,
        "has_played": true,
        "id": 40343350,
        "last_rank": 46660,
        "player_name": "Stefan Gotzy",
        "rank": 41056,
        "rank_sort": 41290,
        "total": 2358
      },
      {
        "club_badge_src": null,
        "entry": 5267545,
        "entry_name": "\u017dIVINE",
        "event_total": 64,
        "has_played": true,
        "id": 40826843,
        "last_rank": 51403,
        "player_name": "Mislav \u0160antek",
        "rank": 41056,
        "rank_sort": 41291,
        "total": 2358
      },
      {
        "club_badge_src": null,
        "entry": 5366996,
        "entry_name": "Power Reijnders",
        "event_total": 60,
        "has_played": true,
        "id": 41695606,
        "last_rank": 45252,
        "player_name": "Harry Wilson",
        "rank": 41056,
        "rank_sort": 41292,
        "total": 2358
      },
      {
        "club_badge_src": null,
        "entry": 5380954,
        "entry_name": "Mabhuza",
        "event_total": 67,
        "has_played": true,
        "id": 41829266,
        "last_rank": 56369,
        "player_name": "swae lee",
        "rank": 41056,
        "rank_sort": 41293,
        "total": 2358
      },
      {
        "club_badge_src": null,
        "entry": 5636529,
        "entry_name": "Ty Mr. Marinakis",
        "event_total": 50,
        "has_played": true,
        "id": 44074617,
        "last_rank": 32879,
        "player_name": "Noah C",
        "rank": 41056,
        "rank_sort": 41294,
        "total": 2358
      },
      {
        "club_badge_src": "https://fantasy.premierleague.com/gcs/plfpl-production-adobe-approved/plfpl-production/5641323/d0ea49f2-bb41-4f1e-b0c8-2d1967f7f489.png",
        "entry": 5641323,
        "entry_name": "AskyfouFC",
        "event_total": 60,
        "has_played": true,
        "id": 44117222,
        "last_rank": 45416,
        "player_name": "stavros karadakis",
        "rank": 41056,
        "rank_sort": 41295,
        "total": 2358
      },
      {
        "club_badge_src": null,
        "entry": 5756790,
        "entry_name": "Nigerian Beef",
        "event_total": 50,
        "has_played": true,
        "id": 45125202,
        "last_rank": 32879,
        "player_name": "Michael Unsworth",
        "rank": 41056,
        "rank_sort": 41296,
        "total": 2358
      },
      {
        "club_badge_src": null,
        "entry": 5835077,
        "entry_name": "Just MO with the Flo",
        "event_total": 66,
        "has_played": true,
        "id": 45801386,
        "last_rank": 54667,
        "player_name": "Milly Overton",
        "rank": 41056,
        "rank_sort": 41297,
        "total": 2358
      },
      {
        "club_badge_src": null,
        "entry": 5844376,
        "entry_name": "Slagetti FC",
        "event_total": 55,
        "has_played": true,
        "id": 45880756,
        "last_rank": 38774,
        "player_name": "kevin schmuck",
        "rank": 41056,
        "rank_sort": 41298,
        "total": 2358
      },
      {
        "club_badge_src": null,
        "entry": 5911761,
        "entry_name": "Sooka Choose",
        "event_total": 54,
        "has_played": true,
        "id": 46456639,
        "last_rank": 37344,
        "player_name": "Darin Tang",
        "rank": 41056,
        "rank_sort": 41299,
        "total": 2358
      },
      {
        "club_badge_src": null,
        "entry": 5923133,
        "entry_name": "Out-Cartered",
        "event_total": 80,
        "has_played": true,
        "id": 46557610,
        "last_rank": 72815,
        "player_name": "Carter Hatton",
        "rank": 41056,
        "rank_sort": 41300,
        "total": 2358
      }
    ]
  }
}