{
  "last_updated_data": "2026-05-24T23:28:17Z",
  "league": {
    "admin_entry": null,
    "closed": false,
    "code_privacy": "p",
    "created": "2025-07-20T23:14:33.933835Z",
    "cup_league": 2815434,
    "has_cup": true,
    "id": 314,
    "league_type": "s",
    "max_entries": null,
    "name": "Overall",
    "rank": null,
    "scoring": "c",
    "start_event": 1
  },
  "new_entries": {
    "has_next": false,
    "page": 1,
    "results": []
  },
  "standings": {
    "has_next": true,
    "page": 220,
    "results": [
      {
        "club_badge_src": null,
        "entry": 364278,
        "entry_name": "gooners",
        "event_total": 57,
        "has_played": true,
        "id": 2437618,
        "last_rank": 10462,
        "player_name": "Alexander Helin",
        "rank": 10929,
        "rank_sort": 10951,
        "total": 2396
      },
      {
        "club_badge_src": null,
        "entry": 406808,
        "entry_name": "FUSION FC",
        "event_total": 66,
        "has_played": true,
        "id": 2727699,
        "last_rank": 10748,
        "player_name": "Vigfus Olafsson",
        "rank": 10929,
        "rank_sort": 10952,
        "total": 2396
      },
      {
        "club_badge_src": "https://fantasy.premierleague.com/gcs/plfpl-production-adobe-approved/plfpl-production/411502/cfa7ff1c-a3b0-48b3-ae38-814aab6fff3f.png",
        "entry": 411502,
        "entry_name": "lil Jose's Team",
        "event_total": 50,
        "has_played": true,
        "id": 2759117,
        "last_rank": 7761,
        "player_name": "Jos\u00e9 Andr\u00e9s Araya",
        "rank": 10929,
        "rank_sort": 10953,
        "total": 2396
      },
      {
        "club_badge_src": "https://fantasy.premierleague.com/gcs/plfpl-production-adobe-approved/plfpl-production/563203/a20dbe6b-9f6f-412c-8f0b-632c43c7c507.png",
        "entry": 563203,
        "entry_name": "Didew Stix FC",
        "event_total": 56,
        "has_played": true,
        "id": 3790840,
        "last_rank": 8382,
        "player_name": "Diego Avil\u00e9s",
        "rank": 10929,
        "rank_sort": 10954,
        "total": 2396
      },
      {
        "club_badge_src": null,
        "entry": 682708,
        "entry_name": "Hale End Heroes",
        "event_total": 53,
        "has_played": true,
        "id": 4620486,
        "last_rank": 8854,
        "player_name": "Dyllan Stuart-Evans",
        "rank": 10929,
        "rank_sort": 10955,
        "total": 2396
      },
      {
        "club_badge_src": null,
        "entry": 699645,
        "entry_name": "SL Superstars",
        "event_total": 49,
        "has_played": true,
        "id": 4739749,
        "last_rank": 7450,
        "player_name": "Sophie Lamont",
        "rank": 10929,
        "rank_sort": 10956,
        "total": 2396
      },
      {
        "club_badge_src": null,
        "entry": 728374,
        "entry_name": "Kit Kat FC",
        "event_total": 64,
        "has_played": true,
        "id": 4948632,
        "last_rank": 13754,
        "player_name": "Rhys Harvey",
        "rank": 10929,
        "rank_sort": 10957,
        "total": 2396
      },
      {
        "club_badge_src": null,
        "entry": 767190,
        "entry_name": "Beef Cherki",
        "event_total": 59,
        "has_played": true,
        "id": 5232677,
        "last_rank": 11237,
        "player_name": "Patrick Capurso",
        "rank": 10929,
        "rank_sort": 10958,
        "total": 2396
      },
      {
        "club_badge_src": "https://fantasy.premierleague.com/gcs/plfpl-production-adobe-approved/plfpl-production/821645/76b4b892-5b6f-49ca-b9d8-fe8a3c32226a.png",
        "entry": 821645,
        "entry_name": "Calafiori Dreaming",
        "event_total": 67,
        "has_played": true,
        "id": 5627195,
        "last_rank": 15694,
        "player_name": "Abel Asmamaw",
        "rank": 10929,
        "rank_sort": 10959,
        "total": 2396
      },
      {
        "club_badge_src": null,
        "entry": 872979,
        "entry_name": "Next Page Please",
        "event_total": 71,
        "has_played": true,
        "id": 5984953,
        "last_rank": 18029,
        "player_name": "Christopher Page",
        "rank": 10929,
        "rank_sort": 10960,
        "total": 2396
      },
      {
        "club_badge_src": "https://fantasy.premierleague.com/gcs/plfpl-production-adobe-approved/plfpl-production/922753/001537be-6cdd-41c2-b082-1736330bf298.png",
        "entry": 922753,
        "entry_name": "It's Always Sonny",
        "event_total": 68,
        "has_played": true,
        "id": 6346499,
        "last_rank": 16320,
        "player_name": "Andrew Botteri",
        "rank": 10929,
        "rank_sort": 10961,
        "total": 2396
      },
      {
        "club_badge_src": "https://fantasy.premierleague.com/gcs/plfpl-production-adobe-approved/plfpl-production/953628/723771ea-fe42-4c2f-afbd-e70a5719a257.png",
        "entry": 953628,
        "entry_name": "Kabin Fc",
        "event_total": 69,
        "has_played": true,
        "id": 6570447,
        "last_rank": 14370,
        "player_name": "afif aiman",
        "rank": 10929,
        "rank_sort": 10962,
        "total": 2396
      },
      {
        "club_badge_src": null,
        "entry": 991761,
        "entry_name": "Delap Dance",
        "event_total": 59,
        "has_played": true,
        "id": 6838512,
        "last_rank": 11345,
        "player_name": "William Sugiardjo",
        "rank": 10929,
        "rank_sort": 10963,
        "total": 2396
      },
      {
        "club_badge_src": null,
        "entry": 1020658,
        "entry_name": "67 67 URGHHH",
        "event_total": 26,
        "has_played": true,
        "id": 7061368,
        "last_rank": 2611,
        "player_name": "Scott Hamilton",
        "rank": 10929,
        "rank_sort": 10964,
        "total": 2396
      },
      {
        "club_badge_src": null,
        "entry": 1327256,
        "entry_name": "Wirtz of Wisdom",
        "event_total": 64,
        "has_played": true,
        "id": 9225675,
        "last_rank": 11699,
        "player_name": "Jonny Addis",
        "rank": 10929,
        "rank_sort": 10965,
        "total": 2396
      },
      {
        "club_badge_src": null,
        "entry": 1332175,
        "entry_name": "'c_'",
        "event_total": 71,
        "has_played": true,
        "id": 9259515,
        "last_rank": 18113,
        "player_name": "Jonne Sandqvist",
        "rank": 10929,
        "rank_sort": 10966,
        "total": 2396
      },
      {
        "club_badge_src": null,
        "entry": 1500582,
        "entry_name": "Change Name",
        "event_total": 67,
        "has_played": true,
        "id": 10464834,
        "last_rank": 15452,
        "player_name": "Ashley Davies",
        "rank": 10929,
        "rank_sort": 10967,
        "total": 2396
      },
      {
        "club_badge_src": null,
        "entry": 1604689,
        "entry_name": "Las Palmas",
        "event_total": 70,
        "has_played": true,
        "id": 11226649,
        "last_rank": 17585,
        "player_name": "\u0421\u0442\u0435\u0444\u0430\u043d \u0419\u043e\u0440\u0434\u0430\u043d\u043e\u0432",
        "rank": 10929,
        "rank_sort": 10968,
        "total": 2396
      },
      {
        "club_badge_src": "https://fantasy.premierleague.com/gcs/plfpl-production-adobe-approved/plfpl-production/1648746/48b57a72-be42-4913-bffb-9b8d034af9ca.png",
        "entry": 1648746,
        "entry_name": "Kuriboh Vibes",
        "event_total": 61,
        "has_played": true,
        "id": 11541889,
        "last_rank": 10346,
        "player_name": "Jake Ladlow",
        "rank": 10929,
        "rank_sort": 10969,
        "total": 2396
      },
      {
        "club_badge_src": null,
        "entry": 1850129,
        "entry_name": "devs XI",
        "event_total": 65,
        "has_played": true,
        "id": 13018808,
        "last_rank": 14496,
        "player_name": "Tom Devitt",
        "rank": 10929,
        "rank_sort": 10970,
        "total": 2396
      },
      {
        "club_badge_src": null,
        "entry": 1995538,
        "entry_name": "McFratm FC",
        "event_total": 77,
        "has_played": true,
        "id": 14100910,
        "last_rank": 22534,
        "player_name": "Sean Keith",
        "rank": 10929,
        "rank_sort": 10971,
        "total": 2396
      },
      {
        "club_badge_src": null,
        "entry": 1997272,
        "entry_name": "Charlz\u26bd\ufe0f",
        "event_total": 44,
        "has_played": true,
        "id": 14114246,
        "last_rank": 6011,
        "player_name": "brick\ud83c\udfb1 cm",
        "rank": 10929,
        "rank_sort": 10972,
        "total": 2396
      },
      {
        "club_badge_src": null,
        "entry": 2081628,
        "entry_name": "The Wannabees",
        "event_total": 52,
        "has_played": true,
        "id": 14763023,
        "last_rank": 8552,
        "player_name": "Simon Rasmussen",
        "rank": 10929,
        "rank_sort": 10973,
        "total": 2396
      },
      {
        "club_badge_src": "https://fantasy.premierleague.com/gcs/plfpl-production-adobe-approved/plfpl-production/2159284/9d104c94-7701-4fae-b1c5-50270bd84f48.png",
        "entry": 2159284,
        "entry_name": "Gaffer Comin Thru",
        "event_total": 67,
        "has_played": true,
        "id": 15349880,
        "last_rank": 15550,
        "player_name": "Wendell Fernandes",
        "rank": 10929,
        "rank_sort": 10974,
        "total": 2396
      },
      {
        "club_badge_src": null,
        "entry": 2280135,
        "entry_name": "Agbero fc",
        "event_total": 61,
        "has_played": true,
        "id": 16260029,
        "last_rank": 10346,
        "player_name": "Anthony mgbechi",
        "rank": 10929,
        "rank_sort": 10975,
        "total": 2396
      },
      {
        "club_badge_src": null,
        "entry": 2347956,
        "entry_name": "Team Tiga",
        "event_total": 63,
        "has_played": true,
        "id": 16753387,
        "last_rank": 13401,
        "player_name": "M I",
        "rank": 10929,
        "rank_sort": 10976,
        "total": 2396
      },
      {
        "club_badge_src": "https://fantasy.premierleague.com/gcs/plfpl-production-adobe-approved/plfpl-production/2362716/4769f48c-7d63-4062-8467-6078000f685a.png",
        "entry": 2362716,
        "entry_name": "A team has no name",
        "event_total": 72,
        "has_played": true,
        "id": 16862453,
        "last_rank": 18691,
        "player_name": "Denis McSweeney",
        "rank": 10929,
        "rank_sort": 10977,
        "total": 2396
      },
      {
        "club_badge_src": null,
        "entry": 2552202,
        "entry_name": "Furious feet",
        "event_total": 66,
        "has_played": true,
        "id": 18298999,
        "last_rank": 15063,
        "player_name": "Dion Greenway",
        "rank": 10929,
        "rank_sort": 10978,
        "total": 2396
      },
      {
        "club_badge_src": null,
        "entry": 2656636,
        "entry_name": "hahahihi",
        "event_total": 62,
        "has_played": true,
        "id": 19096450,
        "last_rank": 12846,
        "player_name": "Muhamad Firli",
        "rank": 10929,
        "rank_sort": 10979,
        "total": 2396
      },
      {
        "club_badge_src": "https://fantasy.premierleague.com/gcs/plfpl-production-adobe-approved/plfpl-production/3187918/678bf9a9-4711-4cdf-8ce9-a31f74693477.png",
        "entry": 3187918,
        "entry_name": "Ariel XI",
        "event_total": 57,
        "has_played": true,
        "id": 23559229,
        "last_rank": 10462,
        "player_name": "Ariel Ie",
        "rank": 10929,
        "rank_sort": 10980,
        "total": 2396
      },
      {
        "club_badge_src": null,
        "entry": 3196115,
        "entry_name": "Stars",
        "event_total": 60,
        "has_played": true,
        "id": 23624048,
        "last_rank": 11699,
        "player_name": "Omer Ibrahim",
        "rank": 10929,
        "rank_sort": 10981,
        "total": 2396
      },
      {
        "club_badge_src": null,
        "entry": 3299548,
        "entry_name": "Always Next Season",
        "event_total": 73,
        "has_played": true,
        "id": 24436477,
        "last_rank": 19544,
        "player_name": "Phil Campbell",
        "rank": 10929,
        "rank_sort": 10982,
        "total": 2396
      },
      {
        "club_badge_src": "https://fantasy.premierleague.com/gcs/plfpl-production-adobe-approved/plfpl-production/3403106/590c28ef-8662-4067-a378-3c582dabd6cc.png",
        "entry": 3403106,
        "entry_name": "Tbone de Pita",
        "event_total": 35,
        "has_played": true,
        "id": 25268432,
        "last_rank": 3902,
        "player_name": "Rosa Peixeira",
        "rank": 10929,
        "rank_sort": 10983,
        "total": 2396
      },
      {
        "club_badge_src": null,
        "entry": 3416597,
        "entry_name": "The Titans",
        "event_total": 39,
        "has_played": true,
        "id": 25377124,
        "last_rank": 4804,
        "player_name": "James Monro",
        "rank": 10929,
        "rank_sort": 10984,
        "total": 2396
      },
      {
        "club_badge_src": null,
        "entry": 3552348,
        "entry_name": "This team Enzo bad",
        "event_total": 65,
        "has_played": true,
        "id": 26446851,
        "last_rank": 14496,
        "player_name": "Pete Chiewhawan",
        "rank": 10929,
        "rank_sort": 10985,
        "total": 2396
      },
      {
        "club_badge_src": null,
        "entry": 3599267,
        "entry_name": "Appen summit up",
        "event_total": 68,
        "has_played": true,
        "id": 26806901,
        "last_rank": 16320,
        "player_name": "Matt Penney",
        "rank": 10929,
        "rank_sort": 10986,
        "total": 2396
      },
      {
        "club_badge_src": null,
        "entry": 3657826,
        "entry_name": "Moyesy's Army",
        "event_total": 59,
        "has_played": true,
        "id": 27275840,
        "last_rank": 11237,
        "player_name": "Mitchell Moody",
        "rank": 10929,
        "rank_sort": 10987,
        "total": 2396
      },
      {
        "club_badge_src": null,
        "entry": 3665622,
        "entry_name": "O70bzz",
        "event_total": 68,
        "has_played": true,
        "id": 27336920,
        "last_rank": 16320,
        "player_name": "Ayodeji Oroboade",
        "rank": 10929,
        "rank_sort": 10988,
        "total": 2396
      },
      {
        "club_badge_src": null,
        "entry": 3801393,
        "entry_name": "Wirtz Case Scenario",
        "event_total": 54,
        "has_played": true,
        "id": 28417435,
        "last_rank": 9248,
        "player_name": "Oran Donnelly",
        "rank": 10929,
        "rank_sort": 10989,
        "total": 2396
      },
      {
        "club_badge_src": null,
        "entry": 4028058,
        "entry_name": "Herr Kroos op Urk",
        "event_total": 55,
        "has_played": true,
        "id": 30364528,
        "last_rank": 8032,
        "player_name": "Herr Kroos",
        "rank": 10929,
        "rank_sort": 10990,
        "total": 2396
      },
      {
        "club_badge_src": null,
        "entry": 4253307,
        "entry_name": "RubbishManDogggggg",
        "event_total": 66,
        "has_played": true,
        "id": 32243883,
        "last_rank": 14926,
        "player_name": "Jacky Cheung",
        "rank": 10929,
        "rank_sort": 10991,
        "total": 2396
      },
      {
        "club_badge_src": null,
        "entry": 4255285,
        "entry_name": "Juan more time",
        "event_total": 60,
        "has_played": true,
        "id": 32259939,
        "last_rank": 11821,
        "player_name": "Juan Camilo Yugueros",
        "rank": 10929,
        "rank_sort": 10992,
        "total": 2396
      },
      {
        "club_badge_src": "https://fantasy.premierleague.com/gcs/plfpl-production-adobe-approved/plfpl-production/4287572/050064ee-4b9c-4e75-a66c-73770e42a885.png",
        "entry": 4287572,
        "entry_name": "Juggernaut Stargazer",
        "event_total": 68,
        "has_played": true,
        "id": 32521737,
        "last_rank": 16163,
        "player_name": "Keshab Gautam",
        "rank": 10929,
        "rank_sort": 10993,
        "total": 2396
      },
      {
        "club_badge_src": null,
        "entry": 4415575,
        "entry_name": "Me Myself Ndiaye",
        "event_total": 57,
        "has_played": true,
        "id": 33592526,
        "last_rank": 10462,
        "player_name": "Adam Atkinson",
        "rank": 10929,
        "rank_sort": 10994,
        "total": 2396
      },
      {
        "club_badge_src": null,
        "entry": 4421957,
        "entry_name": "Carlo Castagne",
        "event_total": 51,
        "has_played": true,
        "id": 33645291,
        "last_rank": 6752,
        "player_name": "Kelly Mack",
        "rank": 10929,
        "rank_sort": 10995,
        "total": 2396
      },
      {
        "club_badge_src": null,
        "entry": 4561307,
        "entry_name": "One Joseph-D\u00e9sir\u00e9",
        "event_total": 45,
        "has_played": true,
        "id": 34806401,
        "last_rank": 6265,
        "player_name": "Daniel Bitel",
        "rank": 10929,
        "rank_sort": 10996,
        "total": 2396
      },
      {
        "club_badge_src": null,
        "entry": 4826679,
        "entry_name": "FPL KILLED ME AGAIN",
        "event_total": 62,
        "has_played": true,
        "id": 37173043,
        "last_rank": 12705,
        "player_name": "Oliver Queen",
        "rank": 10929,
        "rank_sort": 10997,
        "total": 2396
      },
      {
        "club_badge_src": null,
        "entry": 4899555,
        "entry_name": "Cunha Mateta",
        "event_total": 68,
        "has_played": true,
        "id": 37780558,
        "last_rank": 13821,
        "player_name": "Ankit Kotecha",
        "rank": 10929,
        "rank_sort": 10998,
        "total": 2396
      },
      {
        "club_badge_src": "https://fantasy.premierleague.com/gcs/plfpl-production-adobe-approved/plfpl-production/4924707/fb9510e7-6948-4283-95ed-2ce2916c3384.png",
        "entry": 4924707,
        "entry_name": "Tkufa Shell Ness",
        "event_total": 77,
        "has_played": true,
        "id": 37986268,
        "last_rank": 22391,
        "player_name": "Ori Ben Tur",
        "rank": 10929,
        "rank_sort": 10999,
        "total": 2396
      },
      {
        "club_badge_src": null,
        "entry": 4934260,
        "entry_name": "Maresca Ball",
        "event_total": 68,
        "has_played": true,
        "id": 38065659,
        "last_rank": 16163,
        "player_name": "Max Berg",
        "rank": 10929,
        "rank_sort": 11000,
        "total": 2396
      }
    ]
  }
}