{
  "last_updated_data": "2026-05-24T23:28:17Z",
  "league": {
    "admin_entry": null,
    "closed": false,
    "code_privacy": "p",
    "created": "2025-07-20T23:14:33.933835Z",
    "cup_league": 2815434,
    "has_cup": true,
    "id": 314,
    "league_type": "s",
    "max_entries": null,
    "name": "Overall",
    "rank": null,
    "scoring": "c",
    "start_event": 1
  },
  "new_entries": {
    "has_next": false,
    "page": 1,
    "results": []
  },
  "standings": {
    "has_next": true,
    "page": 449,
    "results": [
      {
        "club_badge_src": null,
        "entry": 21590,
        "entry_name": "Murray XI",
        "event_total": 50,
        "has_played": true,
        "id": 135409,
        "last_rank": 17078,
        "player_name": "Alex Murray",
        "rank": 22395,
        "rank_sort": 22401,
        "total": 2377
      },
      {
        "club_badge_src": null,
        "entry": 29956,
        "entry_name": "Wenearlywontheleague",
        "event_total": 52,
        "has_played": true,
        "id": 189516,
        "last_rank": 18113,
        "player_name": "Mike Halpin",
        "rank": 22395,
        "rank_sort": 22402,
        "total": 2377
      },
      {
        "club_badge_src": "https://fantasy.premierleague.com/gcs/plfpl-production-adobe-approved/plfpl-production/30125/0355db7c-e18b-49f8-9fd8-cf470ba87b9f.png",
        "entry": 30125,
        "entry_name": "Father of Five",
        "event_total": 68,
        "has_played": true,
        "id": 190611,
        "last_rank": 32190,
        "player_name": "Samuel Slennett",
        "rank": 22395,
        "rank_sort": 22403,
        "total": 2377
      },
      {
        "club_badge_src": null,
        "entry": 39670,
        "entry_name": "TunaBae",
        "event_total": 33,
        "has_played": true,
        "id": 254215,
        "last_rank": 8552,
        "player_name": "Daniel Lundh",
        "rank": 22395,
        "rank_sort": 22404,
        "total": 2377
      },
      {
        "club_badge_src": null,
        "entry": 42169,
        "entry_name": "Houssam FPL",
        "event_total": 71,
        "has_played": true,
        "id": 270213,
        "last_rank": 35424,
        "player_name": "Houssam Gammoudi",
        "rank": 22395,
        "rank_sort": 22405,
        "total": 2377
      },
      {
        "club_badge_src": null,
        "entry": 49520,
        "entry_name": "Herca team",
        "event_total": 60,
        "has_played": true,
        "id": 318361,
        "last_rank": 24143,
        "player_name": "Jevgenijs Hercbergs",
        "rank": 22395,
        "rank_sort": 22406,
        "total": 2377
      },
      {
        "club_badge_src": null,
        "entry": 50589,
        "entry_name": "Flamin Hot Chido",
        "event_total": 68,
        "has_played": true,
        "id": 325408,
        "last_rank": 27976,
        "player_name": "Greg Pearl",
        "rank": 22395,
        "rank_sort": 22407,
        "total": 2377
      },
      {
        "club_badge_src": null,
        "entry": 50861,
        "entry_name": "Jaya Raya FC",
        "event_total": 60,
        "has_played": true,
        "id": 327166,
        "last_rank": 24475,
        "player_name": "Yogi Darma Putra",
        "rank": 22395,
        "rank_sort": 22408,
        "total": 2377
      },
      {
        "club_badge_src": "https://fantasy.premierleague.com/gcs/plfpl-production-adobe-approved/plfpl-production/55240/98561c40-6d42-4512-8c4d-fbb9f7d3e132.png",
        "entry": 55240,
        "entry_name": "Janie had a G\u00fcndo\u011fan",
        "event_total": 66,
        "has_played": true,
        "id": 355565,
        "last_rank": 30060,
        "player_name": "Luke Hillier",
        "rank": 22395,
        "rank_sort": 22409,
        "total": 2377
      },
      {
        "club_badge_src": null,
        "entry": 66706,
        "entry_name": "The Beach Boys",
        "event_total": 51,
        "has_played": true,
        "id": 431434,
        "last_rank": 14926,
        "player_name": "David Poole",
        "rank": 22395,
        "rank_sort": 22410,
        "total": 2377
      },
      {
        "club_badge_src": null,
        "entry": 68194,
        "entry_name": "Wirtz Case Scenario",
        "event_total": 72,
        "has_played": true,
        "id": 441761,
        "last_rank": 31995,
        "player_name": "Richard Brannen",
        "rank": 22395,
        "rank_sort": 22411,
        "total": 2377
      },
      {
        "club_badge_src": null,
        "entry": 72327,
        "entry_name": "MicksMen",
        "event_total": 51,
        "has_played": true,
        "id": 469956,
        "last_rank": 17718,
        "player_name": "Michael Porter",
        "rank": 22395,
        "rank_sort": 22412,
        "total": 2377
      },
      {
        "club_badge_src": null,
        "entry": 79337,
        "entry_name": "The Unbearablez",
        "event_total": 43,
        "has_played": true,
        "id": 515979,
        "last_rank": 12846,
        "player_name": "Benny Sidhu",
        "rank": 22395,
        "rank_sort": 22413,
        "total": 2377
      },
      {
        "club_badge_src": "https://fantasy.premierleague.com/gcs/plfpl-production-adobe-approved/plfpl-production/84037/ec8e83bf-314a-4a57-9a06-596eaf7e937e.png",
        "entry": 84037,
        "entry_name": "Ctrl Alt De Ligt",
        "event_total": 67,
        "has_played": true,
        "id": 547045,
        "last_rank": 26827,
        "player_name": "Michael Ibrikji",
        "rank": 22395,
        "rank_sort": 22414,
        "total": 2377
      },
      {
        "club_badge_src": null,
        "entry": 88210,
        "entry_name": "NiNja",
        "event_total": 64,
        "has_played": true,
        "id": 575545,
        "last_rank": 24330,
        "player_name": "Amr Ashraf",
        "rank": 22395,
        "rank_sort": 22415,
        "total": 2377
      },
      {
        "club_badge_src": null,
        "entry": 91682,
        "entry_name": "dazalona",
        "event_total": 72,
        "has_played": true,
        "id": 598941,
        "last_rank": 36624,
        "player_name": "Darragh O Rourke",
        "rank": 22395,
        "rank_sort": 22416,
        "total": 2377
      },
      {
        "club_badge_src": null,
        "entry": 107187,
        "entry_name": "Chippy Chips",
        "event_total": 59,
        "has_played": true,
        "id": 698753,
        "last_rank": 23656,
        "player_name": "Wade Ciappara",
        "rank": 22395,
        "rank_sort": 22417,
        "total": 2377
      },
      {
        "club_badge_src": null,
        "entry": 134907,
        "entry_name": "FC Barberlona",
        "event_total": 74,
        "has_played": true,
        "id": 878581,
        "last_rank": 38644,
        "player_name": "Keelan Barber",
        "rank": 22395,
        "rank_sort": 22418,
        "total": 2377
      },
      {
        "club_badge_src": null,
        "entry": 160803,
        "entry_name": "Hardly Athletic",
        "event_total": 64,
        "has_played": true,
        "id": 1059086,
        "last_rank": 24143,
        "player_name": "Adam Bottrill",
        "rank": 22395,
        "rank_sort": 22419,
        "total": 2377
      },
      {
        "club_badge_src": null,
        "entry": 172263,
        "entry_name": "Cream-O",
        "event_total": 60,
        "has_played": true,
        "id": 1137773,
        "last_rank": 21159,
        "player_name": "Minh Nguyen",
        "rank": 22395,
        "rank_sort": 22420,
        "total": 2377
      },
      {
        "club_badge_src": null,
        "entry": 181293,
        "entry_name": "Iron Fantasy",
        "event_total": 59,
        "has_played": true,
        "id": 1196388,
        "last_rank": 20416,
        "player_name": "The Eagle",
        "rank": 22395,
        "rank_sort": 22421,
        "total": 2377
      },
      {
        "club_badge_src": "https://fantasy.premierleague.com/gcs/plfpl-production-adobe-approved/plfpl-production/209837/c1bed989-bbe3-4f98-b811-8af447945532.png",
        "entry": 209837,
        "entry_name": "Zamalek",
        "event_total": 40,
        "has_played": true,
        "id": 1395460,
        "last_rank": 11419,
        "player_name": "Moamen Mosleh",
        "rank": 22395,
        "rank_sort": 22422,
        "total": 2377
      },
      {
        "club_badge_src": "https://fantasy.premierleague.com/gcs/plfpl-production-adobe-approved/plfpl-production/216360/e802d1b3-4b0b-4588-ab46-8d1aa6d2bf6f.png",
        "entry": 216360,
        "entry_name": "Beekm\u00f8rkt",
        "event_total": 54,
        "has_played": true,
        "id": 1439037,
        "last_rank": 14370,
        "player_name": "Christian Westgaard",
        "rank": 22395,
        "rank_sort": 22423,
        "total": 2377
      },
      {
        "club_badge_src": null,
        "entry": 253061,
        "entry_name": "Wild Boyz 25-26",
        "event_total": 51,
        "has_played": true,
        "id": 1683135,
        "last_rank": 17585,
        "player_name": "Chris Wild",
        "rank": 22395,
        "rank_sort": 22424,
        "total": 2377
      },
      {
        "club_badge_src": "https://fantasy.premierleague.com/gcs/plfpl-production-adobe-approved/plfpl-production/298651/8294bcfa-863a-42ce-9e20-ead676525993.png",
        "entry": 298651,
        "entry_name": "Cenas FC",
        "event_total": 66,
        "has_played": true,
        "id": 1996841,
        "last_rank": 29688,
        "player_name": "Ricardo Marques",
        "rank": 22395,
        "rank_sort": 22425,
        "total": 2377
      },
      {
        "club_badge_src": null,
        "entry": 345237,
        "entry_name": "EFC until i Ndiaye",
        "event_total": 71,
        "has_played": true,
        "id": 2310927,
        "last_rank": 35424,
        "player_name": "Ben Murphy",
        "rank": 22395,
        "rank_sort": 22426,
        "total": 2377
      },
      {
        "club_badge_src": "https://fantasy.premierleague.com/gcs/plfpl-production-adobe-approved/plfpl-production/458657/5e1d52a6-69c3-40be-95f2-fdb124bc89ec.png",
        "entry": 458657,
        "entry_name": "Hytaljets FC",
        "event_total": 59,
        "has_played": true,
        "id": 3076971,
        "last_rank": 23656,
        "player_name": "Steve Hyett",
        "rank": 22395,
        "rank_sort": 22427,
        "total": 2377
      },
      {
        "club_badge_src": "https://fantasy.premierleague.com/gcs/plfpl-production-adobe-approved/plfpl-production/475751/c60c1936-e343-4098-ab15-3adf4973d274.png",
        "entry": 475751,
        "entry_name": "Assem tiktak",
        "event_total": 49,
        "has_played": true,
        "id": 3193703,
        "last_rank": 16320,
        "player_name": "Assem Mostafa",
        "rank": 22395,
        "rank_sort": 22428,
        "total": 2377
      },
      {
        "club_badge_src": "https://fantasy.premierleague.com/gcs/plfpl-production-adobe-approved/plfpl-production/531928/2d98efcc-3e1d-4130-ac44-c32f792e62e9.png",
        "entry": 531928,
        "entry_name": "Stores Kanoner",
        "event_total": 49,
        "has_played": true,
        "id": 3577844,
        "last_rank": 16441,
        "player_name": "Nicolai Pedersen",
        "rank": 22395,
        "rank_sort": 22429,
        "total": 2377
      },
      {
        "club_badge_src": null,
        "entry": 639419,
        "entry_name": "\ufffd \ufffd",
        "event_total": 64,
        "has_played": true,
        "id": 4321405,
        "last_rank": 24330,
        "player_name": "\ud835\udc40\ud835\udc5c\ud835\udc61\ud835\udc4e\ud835\udc60\ud835\udc52\ud835\udc5a \ud835\udc59 \ud835\udc51\ud835\udc5f\ud835\udc4e\ud835\udc64\ud835\udc56\ud835\udc59",
        "rank": 22395,
        "rank_sort": 22430,
        "total": 2377
      },
      {
        "club_badge_src": null,
        "entry": 680709,
        "entry_name": "Back2Back?",
        "event_total": 73,
        "has_played": true,
        "id": 4606430,
        "last_rank": 33147,
        "player_name": "Rory Ibbotson",
        "rank": 22395,
        "rank_sort": 22431,
        "total": 2377
      },
      {
        "club_badge_src": null,
        "entry": 698074,
        "entry_name": "Old\u2019s Koool",
        "event_total": 62,
        "has_played": true,
        "id": 4728728,
        "last_rank": 25902,
        "player_name": "Nurul Monowar",
        "rank": 22395,
        "rank_sort": 22432,
        "total": 2377
      },
      {
        "club_badge_src": null,
        "entry": 715903,
        "entry_name": "Slot Drop",
        "event_total": 64,
        "has_played": true,
        "id": 4857235,
        "last_rank": 27976,
        "player_name": "Harrison Forest",
        "rank": 22395,
        "rank_sort": 22433,
        "total": 2377
      },
      {
        "club_badge_src": null,
        "entry": 803235,
        "entry_name": "Why are you Guiu?",
        "event_total": 48,
        "has_played": true,
        "id": 5498442,
        "last_rank": 13401,
        "player_name": "Tom Blackadder",
        "rank": 22395,
        "rank_sort": 22434,
        "total": 2377
      },
      {
        "club_badge_src": null,
        "entry": 820791,
        "entry_name": "Mr Browns Boys",
        "event_total": 72,
        "has_played": true,
        "id": 5621349,
        "last_rank": 36831,
        "player_name": "JONATHAN BROWN",
        "rank": 22395,
        "rank_sort": 22435,
        "total": 2377
      },
      {
        "club_badge_src": null,
        "entry": 882204,
        "entry_name": "Your Wirtz Nightmare",
        "event_total": 50,
        "has_played": true,
        "id": 6050092,
        "last_rank": 14496,
        "player_name": "Pete Gekas",
        "rank": 22395,
        "rank_sort": 22436,
        "total": 2377
      },
      {
        "club_badge_src": null,
        "entry": 890879,
        "entry_name": "Wirtz Nightmare",
        "event_total": 69,
        "has_played": true,
        "id": 6112554,
        "last_rank": 33332,
        "player_name": "David Marshall",
        "rank": 22395,
        "rank_sort": 22437,
        "total": 2377
      },
      {
        "club_badge_src": null,
        "entry": 928993,
        "entry_name": "Lawns 11",
        "event_total": 59,
        "has_played": true,
        "id": 6391971,
        "last_rank": 20416,
        "player_name": "Chris Lawn",
        "rank": 22395,
        "rank_sort": 22438,
        "total": 2377
      },
      {
        "club_badge_src": null,
        "entry": 1010568,
        "entry_name": "6x7=41",
        "event_total": 72,
        "has_played": true,
        "id": 6989093,
        "last_rank": 36624,
        "player_name": "keenan raihan",
        "rank": 22395,
        "rank_sort": 22439,
        "total": 2377
      },
      {
        "club_badge_src": null,
        "entry": 1034633,
        "entry_name": "KURD FPL",
        "event_total": 79,
        "has_played": true,
        "id": 7159374,
        "last_rank": 45252,
        "player_name": "Mhamad Kawa",
        "rank": 22395,
        "rank_sort": 22440,
        "total": 2377
      },
      {
        "club_badge_src": "https://fantasy.premierleague.com/gcs/plfpl-production-adobe-approved/plfpl-production/1166633/21f63f0b-4228-48fc-bf94-46ae12c26013.png",
        "entry": 1166633,
        "entry_name": "Inter Grunwald Umtw",
        "event_total": 46,
        "has_played": true,
        "id": 8092847,
        "last_rank": 14604,
        "player_name": "Bartosz Kurosi\u0144ski",
        "rank": 22395,
        "rank_sort": 22441,
        "total": 2377
      },
      {
        "club_badge_src": null,
        "entry": 1269350,
        "entry_name": "pep",
        "event_total": 64,
        "has_played": true,
        "id": 8819513,
        "last_rank": 20983,
        "player_name": "Yousef Almuihi",
        "rank": 22395,
        "rank_sort": 22442,
        "total": 2377
      },
      {
        "club_badge_src": "https://fantasy.premierleague.com/gcs/plfpl-production-adobe-approved/plfpl-production/1271811/63cdd49e-9fcf-450e-8944-a768da09988e.png",
        "entry": 1271811,
        "entry_name": "NK Pavijani",
        "event_total": 61,
        "has_played": true,
        "id": 8836968,
        "last_rank": 25330,
        "player_name": "Joseph Ducreux",
        "rank": 22395,
        "rank_sort": 22443,
        "total": 2377
      },
      {
        "club_badge_src": "https://fantasy.premierleague.com/gcs/plfpl-production-adobe-approved/plfpl-production/1276062/2e8e1025-0be3-4915-b3fa-f6a8a6a8fca8.png",
        "entry": 1276062,
        "entry_name": "FC Daddy & Joe",
        "event_total": 67,
        "has_played": true,
        "id": 8867003,
        "last_rank": 30957,
        "player_name": "Andy Westbrook",
        "rank": 22395,
        "rank_sort": 22444,
        "total": 2377
      },
      {
        "club_badge_src": null,
        "entry": 1457782,
        "entry_name": "Cognetti XI",
        "event_total": 69,
        "has_played": true,
        "id": 10158907,
        "last_rank": 28906,
        "player_name": "Simon Cognetti",
        "rank": 22395,
        "rank_sort": 22445,
        "total": 2377
      },
      {
        "club_badge_src": null,
        "entry": 1504463,
        "entry_name": "Too Slot to Handle",
        "event_total": 57,
        "has_played": true,
        "id": 10492291,
        "last_rank": 18790,
        "player_name": "Jamie Hall",
        "rank": 22395,
        "rank_sort": 22446,
        "total": 2377
      },
      {
        "club_badge_src": "https://fantasy.premierleague.com/gcs/plfpl-production-adobe-approved/plfpl-production/1510164/5d94dbe7-307f-42fe-9c07-d5d3a48a0c02.png",
        "entry": 1510164,
        "entry_name": "Pemburu No.1",
        "event_total": 32,
        "has_played": true,
        "id": 10532430,
        "last_rank": 8138,
        "player_name": "Din Dowman",
        "rank": 22395,
        "rank_sort": 22447,
        "total": 2377
      },
      {
        "club_badge_src": null,
        "entry": 1854081,
        "entry_name": "SpursKossDetG\u00e5r FC",
        "event_total": 59,
        "has_played": true,
        "id": 13047234,
        "last_rank": 20280,
        "player_name": "Lars Iver Stenvold",
        "rank": 22395,
        "rank_sort": 22448,
        "total": 2377
      },
      {
        "club_badge_src": null,
        "entry": 1960378,
        "entry_name": "The Aussie Ticker",
        "event_total": 64,
        "has_played": true,
        "id": 13830895,
        "last_rank": 28150,
        "player_name": "shane turner",
        "rank": 22395,
        "rank_sort": 22449,
        "total": 2377
      },
      {
        "club_badge_src": null,
        "entry": 1981578,
        "entry_name": "Let The Games Begin!",
        "event_total": 62,
        "has_played": true,
        "id": 13995084,
        "last_rank": 26088,
        "player_name": "Anna Happy",
        "rank": 22395,
        "rank_sort": 22450,
        "total": 2377
      }
    ]
  }
}