{
  "last_updated_data": "2026-05-24T23:28:17Z",
  "league": {
    "admin_entry": null,
    "closed": false,
    "code_privacy": "p",
    "created": "2025-07-20T23:14:33.933835Z",
    "cup_league": 2815434,
    "has_cup": true,
    "id": 314,
    "league_type": "s",
    "max_entries": null,
    "name": "Overall",
    "rank": null,
    "scoring": "c",
    "start_event": 1
  },
  "new_entries": {
    "has_next": false,
    "page": 1,
    "results": []
  },
  "standings": {
    "has_next": true,
    "page": 1478,
    "results": [
      {
        "club_badge_src": null,
        "entry": 3709363,
        "entry_name": "FC Ziomale",
        "event_total": 49,
        "has_played": true,
        "id": 27678197,
        "last_rank": 59813,
        "player_name": "Jadwiga \u0141",
        "rank": 73620,
        "rank_sort": 73851,
        "total": 2338
      },
      {
        "club_badge_src": null,
        "entry": 3735539,
        "entry_name": "You Hwang?",
        "event_total": 61,
        "has_played": true,
        "id": 27883456,
        "last_rank": 83934,
        "player_name": "Paul -----",
        "rank": 73620,
        "rank_sort": 73852,
        "total": 2338
      },
      {
        "club_badge_src": null,
        "entry": 3753859,
        "entry_name": "Power FC",
        "event_total": 56,
        "has_played": true,
        "id": 28026597,
        "last_rank": 72702,
        "player_name": "Byron Gale",
        "rank": 73620,
        "rank_sort": 73853,
        "total": 2338
      },
      {
        "club_badge_src": null,
        "entry": 3781032,
        "entry_name": "Lean FC",
        "event_total": 65,
        "has_played": true,
        "id": 28233746,
        "last_rank": 93883,
        "player_name": "Thomas Firestone",
        "rank": 73620,
        "rank_sort": 73854,
        "total": 2338
      },
      {
        "club_badge_src": null,
        "entry": 3806472,
        "entry_name": "ButterBeer",
        "event_total": 66,
        "has_played": true,
        "id": 28459178,
        "last_rank": 95890,
        "player_name": "Al Capone",
        "rank": 73620,
        "rank_sort": 73855,
        "total": 2338
      },
      {
        "club_badge_src": null,
        "entry": 3818358,
        "entry_name": "Snoop Udogie Dogg",
        "event_total": 50,
        "has_played": true,
        "id": 28556072,
        "last_rank": 61411,
        "player_name": "Lewis Todd",
        "rank": 73620,
        "rank_sort": 73856,
        "total": 2338
      },
      {
        "club_badge_src": "https://fantasy.premierleague.com/gcs/plfpl-production-adobe-approved/plfpl-production/3839931/0174345e-2e80-4d3c-8739-4c07c8e8496f.png",
        "entry": 3839931,
        "entry_name": "Cunha Simmer Down",
        "event_total": 65,
        "has_played": true,
        "id": 28755063,
        "last_rank": 93443,
        "player_name": "Ross Southgate",
        "rank": 73620,
        "rank_sort": 73857,
        "total": 2338
      },
      {
        "club_badge_src": null,
        "entry": 3932989,
        "entry_name": "iceman",
        "event_total": 71,
        "has_played": true,
        "id": 29580971,
        "last_rank": 108959,
        "player_name": "Amoory Mukhtar",
        "rank": 73620,
        "rank_sort": 73858,
        "total": 2338
      },
      {
        "club_badge_src": null,
        "entry": 3978014,
        "entry_name": "Buddsbys Babes",
        "event_total": 56,
        "has_played": true,
        "id": 29942729,
        "last_rank": 73038,
        "player_name": "Craig Budd",
        "rank": 73620,
        "rank_sort": 73859,
        "total": 2338
      },
      {
        "club_badge_src": null,
        "entry": 4010525,
        "entry_name": "Sizzler FC",
        "event_total": 41,
        "has_played": true,
        "id": 30215732,
        "last_rank": 46660,
        "player_name": "Shaan Sri-Path",
        "rank": 73620,
        "rank_sort": 73860,
        "total": 2338
      },
      {
        "club_badge_src": null,
        "entry": 4042378,
        "entry_name": "GoTexans",
        "event_total": 57,
        "has_played": true,
        "id": 30486539,
        "last_rank": 75139,
        "player_name": "Heidi Skogerb\u00f8 Fl\u00f8tre",
        "rank": 73620,
        "rank_sort": 73861,
        "total": 2338
      },
      {
        "club_badge_src": null,
        "entry": 4053140,
        "entry_name": "Villans FC",
        "event_total": 43,
        "has_played": true,
        "id": 30577858,
        "last_rank": 49691,
        "player_name": "Fahad Alajmi",
        "rank": 73620,
        "rank_sort": 73862,
        "total": 2338
      },
      {
        "club_badge_src": null,
        "entry": 4066711,
        "entry_name": "FKGR",
        "event_total": 60,
        "has_played": true,
        "id": 30692048,
        "last_rank": 81646,
        "player_name": "Jovan Rosic",
        "rank": 73620,
        "rank_sort": 73863,
        "total": 2338
      },
      {
        "club_badge_src": null,
        "entry": 4070394,
        "entry_name": "Middlesbrough",
        "event_total": 53,
        "has_played": true,
        "id": 30721993,
        "last_rank": 67063,
        "player_name": "SUNNY- The- Boro",
        "rank": 73620,
        "rank_sort": 73864,
        "total": 2338
      },
      {
        "club_badge_src": null,
        "entry": 4114788,
        "entry_name": "Purple Frank",
        "event_total": 65,
        "has_played": true,
        "id": 31081317,
        "last_rank": 93443,
        "player_name": "Harrison James",
        "rank": 73620,
        "rank_sort": 73865,
        "total": 2338
      },
      {
        "club_badge_src": null,
        "entry": 4122964,
        "entry_name": "OHH AHH CANTONA",
        "event_total": 62,
        "has_played": true,
        "id": 31149545,
        "last_rank": 85932,
        "player_name": "Arshed Mahmood",
        "rank": 73620,
        "rank_sort": 73866,
        "total": 2338
      },
      {
        "club_badge_src": null,
        "entry": 4127305,
        "entry_name": "The legend of Yoro",
        "event_total": 60,
        "has_played": true,
        "id": 31187266,
        "last_rank": 81420,
        "player_name": "Jonathan Cooper",
        "rank": 73620,
        "rank_sort": 73867,
        "total": 2338
      },
      {
        "club_badge_src": null,
        "entry": 4181704,
        "entry_name": "Oli's at the wheel",
        "event_total": 60,
        "has_played": true,
        "id": 31636805,
        "last_rank": 81420,
        "player_name": "Oliver Gambino",
        "rank": 73620,
        "rank_sort": 73868,
        "total": 2338
      },
      {
        "club_badge_src": null,
        "entry": 4198065,
        "entry_name": "FC Twenty Benson",
        "event_total": 69,
        "has_played": true,
        "id": 31776155,
        "last_rank": 93186,
        "player_name": "Shaun Boyle",
        "rank": 73620,
        "rank_sort": 73869,
        "total": 2338
      },
      {
        "club_badge_src": null,
        "entry": 4255545,
        "entry_name": "Kerr Bears FC",
        "event_total": 50,
        "has_played": true,
        "id": 32262030,
        "last_rank": 61606,
        "player_name": "John Kerr",
        "rank": 73620,
        "rank_sort": 73870,
        "total": 2338
      },
      {
        "club_badge_src": "https://fantasy.premierleague.com/gcs/plfpl-production-adobe-approved/plfpl-production/4284239/a28b06e8-1feb-4013-8680-94188c37eac6.png",
        "entry": 4284239,
        "entry_name": "A1000 FC",
        "event_total": 51,
        "has_played": true,
        "id": 32494309,
        "last_rank": 63201,
        "player_name": "Yuma Onishi",
        "rank": 73620,
        "rank_sort": 73871,
        "total": 2338
      },
      {
        "club_badge_src": null,
        "entry": 4394394,
        "entry_name": "Addington Rovers",
        "event_total": 67,
        "has_played": true,
        "id": 33411044,
        "last_rank": 98436,
        "player_name": "Carl Vanderwerff",
        "rank": 73620,
        "rank_sort": 73872,
        "total": 2338
      },
      {
        "club_badge_src": null,
        "entry": 4398448,
        "entry_name": "Gettin' Riggy with i",
        "event_total": 74,
        "has_played": true,
        "id": 33447277,
        "last_rank": 117423,
        "player_name": "Nathan Gallagher",
        "rank": 73620,
        "rank_sort": 73873,
        "total": 2338
      },
      {
        "club_badge_src": null,
        "entry": 4403148,
        "entry_name": "'arry's 'orns",
        "event_total": 52,
        "has_played": true,
        "id": 33488908,
        "last_rank": 65163,
        "player_name": "Harry James",
        "rank": 73620,
        "rank_sort": 73874,
        "total": 2338
      },
      {
        "club_badge_src": null,
        "entry": 4410836,
        "entry_name": "Dream Team",
        "event_total": 62,
        "has_played": true,
        "id": 33553259,
        "last_rank": 86304,
        "player_name": "Saad Aldhafyan",
        "rank": 73620,
        "rank_sort": 73875,
        "total": 2338
      },
      {
        "club_badge_src": null,
        "entry": 4414170,
        "entry_name": "Teisen truser\u00f6skers\u2728",
        "event_total": 54,
        "has_played": true,
        "id": 33580747,
        "last_rank": 68624,
        "player_name": "J\u00f8rn Andre Gundersen",
        "rank": 73620,
        "rank_sort": 73876,
        "total": 2338
      },
      {
        "club_badge_src": null,
        "entry": 4425347,
        "entry_name": "why ayew running",
        "event_total": 59,
        "has_played": true,
        "id": 33679949,
        "last_rank": 79431,
        "player_name": "Alex Smyth",
        "rank": 73620,
        "rank_sort": 73877,
        "total": 2338
      },
      {
        "club_badge_src": null,
        "entry": 4439417,
        "entry_name": "Randomly chosen",
        "event_total": 41,
        "has_played": true,
        "id": 33804007,
        "last_rank": 46839,
        "player_name": "Joe Cahill",
        "rank": 73620,
        "rank_sort": 73878,
        "total": 2338
      },
      {
        "club_badge_src": null,
        "entry": 4535724,
        "entry_name": "Sly Foxes",
        "event_total": 55,
        "has_played": true,
        "id": 34600728,
        "last_rank": 70985,
        "player_name": "Neil Fox",
        "rank": 73620,
        "rank_sort": 73879,
        "total": 2338
      },
      {
        "club_badge_src": null,
        "entry": 4590629,
        "entry_name": "Palmer Violets",
        "event_total": 54,
        "has_played": true,
        "id": 35054216,
        "last_rank": 68748,
        "player_name": "Maisy Jones",
        "rank": 73620,
        "rank_sort": 73880,
        "total": 2338
      },
      {
        "club_badge_src": "https://fantasy.premierleague.com/gcs/plfpl-production-adobe-approved/plfpl-production/4597846/db665481-c7d4-43bb-81be-5dd498596f99.png",
        "entry": 4597846,
        "entry_name": "Tel me why",
        "event_total": 44,
        "has_played": true,
        "id": 35117694,
        "last_rank": 51403,
        "player_name": "Nadav Finkelstein",
        "rank": 73620,
        "rank_sort": 73881,
        "total": 2338
      },
      {
        "club_badge_src": null,
        "entry": 4599091,
        "entry_name": "Pique Blinders",
        "event_total": 46,
        "has_played": true,
        "id": 35128136,
        "last_rank": 54667,
        "player_name": "Joshua Scriven",
        "rank": 73620,
        "rank_sort": 73882,
        "total": 2338
      },
      {
        "club_badge_src": null,
        "entry": 4603975,
        "entry_name": "Dynamo Montrose",
        "event_total": 51,
        "has_played": true,
        "id": 35173219,
        "last_rank": 63390,
        "player_name": "Andy Brown",
        "rank": 73620,
        "rank_sort": 73883,
        "total": 2338
      },
      {
        "club_badge_src": "https://fantasy.premierleague.com/gcs/plfpl-production-adobe-approved/plfpl-production/4645356/fc5ba257-0e1d-486f-bb50-5f1abc5d8bd1.png",
        "entry": 4645356,
        "entry_name": "DarshFelGesh",
        "event_total": 55,
        "has_played": true,
        "id": 35534511,
        "last_rank": 70985,
        "player_name": "Mostafa Saeed",
        "rank": 73620,
        "rank_sort": 73884,
        "total": 2338
      },
      {
        "club_badge_src": null,
        "entry": 4648647,
        "entry_name": "Mac VI",
        "event_total": 61,
        "has_played": true,
        "id": 35563705,
        "last_rank": 83934,
        "player_name": "Tumisang Libetso",
        "rank": 73620,
        "rank_sort": 73885,
        "total": 2338
      },
      {
        "club_badge_src": "https://fantasy.premierleague.com/gcs/plfpl-production-adobe-approved/plfpl-production/4665749/741e2f16-f9e9-4e87-8c4e-fb0a8addaa71.png",
        "entry": 4665749,
        "entry_name": "United We Stand",
        "event_total": 82,
        "has_played": true,
        "id": 35736436,
        "last_rank": 142439,
        "player_name": "Archie Crawford",
        "rank": 73620,
        "rank_sort": 73886,
        "total": 2338
      },
      {
        "club_badge_src": null,
        "entry": 4667684,
        "entry_name": "Gwentasy",
        "event_total": 69,
        "has_played": true,
        "id": 35752338,
        "last_rank": 103254,
        "player_name": "Gwen Tan",
        "rank": 73620,
        "rank_sort": 73887,
        "total": 2338
      },
      {
        "club_badge_src": null,
        "entry": 4667958,
        "entry_name": "Rocket FC",
        "event_total": 52,
        "has_played": true,
        "id": 35754788,
        "last_rank": 64943,
        "player_name": "Amy Reid",
        "rank": 73620,
        "rank_sort": 73888,
        "total": 2338
      },
      {
        "club_badge_src": null,
        "entry": 4696188,
        "entry_name": "Change Name",
        "event_total": 37,
        "has_played": true,
        "id": 35999119,
        "last_rank": 41617,
        "player_name": "Thomas Dainton",
        "rank": 73620,
        "rank_sort": 73889,
        "total": 2338
      },
      {
        "club_badge_src": null,
        "entry": 4735545,
        "entry_name": "Refuji All Stars",
        "event_total": 49,
        "has_played": true,
        "id": 36434477,
        "last_rank": 59496,
        "player_name": "Carl Fredrik Ekeberg",
        "rank": 73620,
        "rank_sort": 73890,
        "total": 2338
      },
      {
        "club_badge_src": null,
        "entry": 4739735,
        "entry_name": "Walker's wonder's",
        "event_total": 49,
        "has_played": true,
        "id": 36468264,
        "last_rank": 59813,
        "player_name": "Leigh Walker",
        "rank": 73620,
        "rank_sort": 73891,
        "total": 2338
      },
      {
        "club_badge_src": null,
        "entry": 4746081,
        "entry_name": "KING ABUS XI",
        "event_total": 69,
        "has_played": true,
        "id": 36518946,
        "last_rank": 103526,
        "player_name": "Mohammed Zaheer Wahed",
        "rank": 73620,
        "rank_sort": 73892,
        "total": 2338
      },
      {
        "club_badge_src": null,
        "entry": 4772620,
        "entry_name": "Hey Wirtz Going On",
        "event_total": 56,
        "has_played": true,
        "id": 36736571,
        "last_rank": 72702,
        "player_name": "Cathal Lanigan",
        "rank": 73620,
        "rank_sort": 73893,
        "total": 2338
      },
      {
        "club_badge_src": null,
        "entry": 4848728,
        "entry_name": "S F",
        "event_total": 73,
        "has_played": true,
        "id": 37355982,
        "last_rank": 114292,
        "player_name": "Samii Fawazz",
        "rank": 73620,
        "rank_sort": 73894,
        "total": 2338
      },
      {
        "club_badge_src": null,
        "entry": 4859749,
        "entry_name": "EXCELSIOR21",
        "event_total": 41,
        "has_played": true,
        "id": 37449307,
        "last_rank": 47163,
        "player_name": "Arcelinocent Pangemanan",
        "rank": 73620,
        "rank_sort": 73895,
        "total": 2338
      },
      {
        "club_badge_src": null,
        "entry": 4886645,
        "entry_name": "CHRISTOS 14",
        "event_total": 74,
        "has_played": true,
        "id": 37674651,
        "last_rank": 117112,
        "player_name": "olufemi adegbe",
        "rank": 73620,
        "rank_sort": 73896,
        "total": 2338
      },
      {
        "club_badge_src": null,
        "entry": 4954062,
        "entry_name": "S\u00e0\u00e1mu Al\u00e3jo",
        "event_total": 85,
        "has_played": true,
        "id": 38227860,
        "last_rank": 152727,
        "player_name": "Samuel Ibironke",
        "rank": 73620,
        "rank_sort": 73897,
        "total": 2338
      },
      {
        "club_badge_src": null,
        "entry": 4966177,
        "entry_name": "noni maduekweh",
        "event_total": 79,
        "has_played": true,
        "id": 38325143,
        "last_rank": 132281,
        "player_name": "Glenn Kweh",
        "rank": 73620,
        "rank_sort": 73898,
        "total": 2338
      },
      {
        "club_badge_src": null,
        "entry": 4983438,
        "entry_name": "Too Legit 2 Quit",
        "event_total": 49,
        "has_played": true,
        "id": 38471197,
        "last_rank": 59632,
        "player_name": "Lawrence Asouzu",
        "rank": 73620,
        "rank_sort": 73899,
        "total": 2338
      },
      {
        "club_badge_src": null,
        "entry": 4983893,
        "entry_name": "Seven hag",
        "event_total": 72,
        "has_played": true,
        "id": 38474835,
        "last_rank": 111669,
        "player_name": "Syed Mozid",
        "rank": 73620,
        "rank_sort": 73900,
        "total": 2338
      }
    ]
  }
}