{
  "last_updated_data": "2026-05-24T23:28:17Z",
  "league": {
    "admin_entry": null,
    "closed": false,
    "code_privacy": "p",
    "created": "2025-07-20T23:14:33.933835Z",
    "cup_league": 2815434,
    "has_cup": true,
    "id": 314,
    "league_type": "s",
    "max_entries": null,
    "name": "Overall",
    "rank": null,
    "scoring": "c",
    "start_event": 1
  },
  "new_entries": {
    "has_next": false,
    "page": 1,
    "results": []
  },
  "standings": {
    "has_next": true,
    "page": 718,
    "results": [
      {
        "club_badge_src": null,
        "entry": 5779375,
        "entry_name": "Agbadou dou dou",
        "event_total": 50,
        "has_played": true,
        "id": 45318292,
        "last_rank": 28273,
        "player_name": "Sam Gordon",
        "rank": 35750,
        "rank_sort": 35851,
        "total": 2363
      },
      {
        "club_badge_src": null,
        "entry": 5943773,
        "entry_name": "Eivinds utvalgte",
        "event_total": 56,
        "has_played": true,
        "id": 46743070,
        "last_rank": 30060,
        "player_name": "Eivind Hagen",
        "rank": 35750,
        "rank_sort": 35852,
        "total": 2363
      },
      {
        "club_badge_src": null,
        "entry": 6221212,
        "entry_name": "Magic Matoma",
        "event_total": 43,
        "has_played": true,
        "id": 49226793,
        "last_rank": 21949,
        "player_name": "Christopher Bell",
        "rank": 35750,
        "rank_sort": 35853,
        "total": 2363
      },
      {
        "club_badge_src": null,
        "entry": 6325600,
        "entry_name": "Pep Mjeed",
        "event_total": 38,
        "has_played": true,
        "id": 50250895,
        "last_rank": 15797,
        "player_name": "Abdulmajed Alghamdi",
        "rank": 35750,
        "rank_sort": 35854,
        "total": 2363
      },
      {
        "club_badge_src": null,
        "entry": 6501071,
        "entry_name": "Karim \ufffd",
        "event_total": 52,
        "has_played": true,
        "id": 51831580,
        "last_rank": 30191,
        "player_name": "karim mohamed",
        "rank": 35750,
        "rank_sort": 35855,
        "total": 2363
      },
      {
        "club_badge_src": null,
        "entry": 6576187,
        "entry_name": "BodalsBeste",
        "event_total": 55,
        "has_played": true,
        "id": 52506695,
        "last_rank": 33483,
        "player_name": "Lars Ole Bodal",
        "rank": 35750,
        "rank_sort": 35856,
        "total": 2363
      },
      {
        "club_badge_src": null,
        "entry": 6763986,
        "entry_name": "\u0639\u064a\u0633\u0649 \u0645\u0648\u0633\u0649",
        "event_total": 64,
        "has_played": true,
        "id": 54157243,
        "last_rank": 39246,
        "player_name": "Yousif Joe",
        "rank": 35750,
        "rank_sort": 35857,
        "total": 2363
      },
      {
        "club_badge_src": "https://fantasy.premierleague.com/gcs/plfpl-production-adobe-approved/plfpl-production/7052190/bf0ae5eb-745b-4616-a043-e8cfb4ce3704.png",
        "entry": 7052190,
        "entry_name": "Toove",
        "event_total": 54,
        "has_played": true,
        "id": 56718766,
        "last_rank": 32190,
        "player_name": "Ruben de Mink",
        "rank": 35750,
        "rank_sort": 35858,
        "total": 2363
      },
      {
        "club_badge_src": "https://fantasy.premierleague.com/gcs/plfpl-production-adobe-approved/plfpl-production/7580670/f56ee02a-53ea-4a13-a90a-70979e52c0cc.png",
        "entry": 7580670,
        "entry_name": "Pharmacist",
        "event_total": 50,
        "has_played": true,
        "id": 62089508,
        "last_rank": 28273,
        "player_name": "Hassan Aziz",
        "rank": 35750,
        "rank_sort": 35859,
        "total": 2363
      },
      {
        "club_badge_src": null,
        "entry": 7631492,
        "entry_name": "Victor FC",
        "event_total": 66,
        "has_played": true,
        "id": 62548930,
        "last_rank": 47417,
        "player_name": "victor obi",
        "rank": 35750,
        "rank_sort": 35860,
        "total": 2363
      },
      {
        "club_badge_src": null,
        "entry": 7720920,
        "entry_name": "Poepie FC",
        "event_total": 50,
        "has_played": true,
        "id": 63359453,
        "last_rank": 27770,
        "player_name": "Ilse Janssen",
        "rank": 35750,
        "rank_sort": 35861,
        "total": 2363
      },
      {
        "club_badge_src": null,
        "entry": 7796994,
        "entry_name": "shrimpers",
        "event_total": 62,
        "has_played": true,
        "id": 64046139,
        "last_rank": 36831,
        "player_name": "Bradley Pearce",
        "rank": 35750,
        "rank_sort": 35862,
        "total": 2363
      },
      {
        "club_badge_src": null,
        "entry": 7992549,
        "entry_name": "Melazizy",
        "event_total": 60,
        "has_played": true,
        "id": 65817063,
        "last_rank": 39246,
        "player_name": "Mohamed El Azizy",
        "rank": 35750,
        "rank_sort": 35863,
        "total": 2363
      },
      {
        "club_badge_src": null,
        "entry": 8330215,
        "entry_name": "Valentin",
        "event_total": 54,
        "has_played": true,
        "id": 69017239,
        "last_rank": 31995,
        "player_name": "Valentin Muschik",
        "rank": 35750,
        "rank_sort": 35864,
        "total": 2363
      },
      {
        "club_badge_src": null,
        "entry": 8628961,
        "entry_name": "Tommy Womiyasu",
        "event_total": 77,
        "has_played": true,
        "id": 71877903,
        "last_rank": 65796,
        "player_name": "Liam Martin",
        "rank": 35750,
        "rank_sort": 35865,
        "total": 2363
      },
      {
        "club_badge_src": null,
        "entry": 9373447,
        "entry_name": "Too sesko 4 my shirt",
        "event_total": 64,
        "has_played": true,
        "id": 79114966,
        "last_rank": 44672,
        "player_name": "Mitchell Royal",
        "rank": 35750,
        "rank_sort": 35866,
        "total": 2363
      },
      {
        "club_badge_src": null,
        "entry": 9473294,
        "entry_name": "ZoumAura",
        "event_total": 72,
        "has_played": true,
        "id": 80060869,
        "last_rank": 57358,
        "player_name": "Hazem Mohamed",
        "rank": 35750,
        "rank_sort": 35867,
        "total": 2363
      },
      {
        "club_badge_src": null,
        "entry": 29094,
        "entry_name": "\u8ba9\u4e00\u5207\u968f\u98ce \u505a\u4e00\u665a\u6ce5\u5de5",
        "event_total": 72,
        "has_played": true,
        "id": 183963,
        "last_rank": 50635,
        "player_name": "Richard Billyham",
        "rank": 35868,
        "rank_sort": 35868,
        "total": 2363
      },
      {
        "club_badge_src": null,
        "entry": 57585,
        "entry_name": "The People's Champ",
        "event_total": 60,
        "has_played": true,
        "id": 370973,
        "last_rank": 34578,
        "player_name": "Bo Hassan Al-Thani",
        "rank": 35868,
        "rank_sort": 35869,
        "total": 2363
      },
      {
        "club_badge_src": null,
        "entry": 58813,
        "entry_name": "Half the World (a)",
        "event_total": 56,
        "has_played": true,
        "id": 378779,
        "last_rank": 30191,
        "player_name": "Ryan Wilkins",
        "rank": 35868,
        "rank_sort": 35870,
        "total": 2363
      },
      {
        "club_badge_src": null,
        "entry": 85508,
        "entry_name": "TEAM Zamora",
        "event_total": 66,
        "has_played": true,
        "id": 556934,
        "last_rank": 41967,
        "player_name": "Peter J\u00f6nsson",
        "rank": 35868,
        "rank_sort": 35871,
        "total": 2363
      },
      {
        "club_badge_src": null,
        "entry": 86593,
        "entry_name": "Chutz",
        "event_total": 68,
        "has_played": true,
        "id": 564388,
        "last_rank": 44672,
        "player_name": "Josh Dann",
        "rank": 35868,
        "rank_sort": 35872,
        "total": 2363
      },
      {
        "club_badge_src": "https://fantasy.premierleague.com/gcs/plfpl-production-adobe-approved/plfpl-production/95392/b0c58430-50d1-4c7a-bc51-caac1a557181.png",
        "entry": 95392,
        "entry_name": "\u0627\u0644\u0642\u0627\u0636\u064a\u0629 \u0645\u0645\u0643\u0646",
        "event_total": 54,
        "has_played": true,
        "id": 623328,
        "last_rank": 32190,
        "player_name": "Mohammad Hesham",
        "rank": 35868,
        "rank_sort": 35873,
        "total": 2363
      },
      {
        "club_badge_src": null,
        "entry": 126795,
        "entry_name": "Riverside FC",
        "event_total": 73,
        "has_played": true,
        "id": 826693,
        "last_rank": 59077,
        "player_name": "Sean Foley",
        "rank": 35868,
        "rank_sort": 35874,
        "total": 2363
      },
      {
        "club_badge_src": null,
        "entry": 189902,
        "entry_name": "HaCunha Matata",
        "event_total": 56,
        "has_played": true,
        "id": 1257221,
        "last_rank": 30191,
        "player_name": "Wesley Beath",
        "rank": 35868,
        "rank_sort": 35875,
        "total": 2363
      },
      {
        "club_badge_src": "https://fantasy.premierleague.com/gcs/plfpl-production-adobe-approved/plfpl-production/218507/213b1dfd-8e18-4a49-a64d-519ad8d42695.png",
        "entry": 218507,
        "entry_name": "Cause trouble 2.0",
        "event_total": 58,
        "has_played": true,
        "id": 1453119,
        "last_rank": 37058,
        "player_name": "Adedamola Ogundiran",
        "rank": 35868,
        "rank_sort": 35876,
        "total": 2363
      },
      {
        "club_badge_src": null,
        "entry": 223755,
        "entry_name": "Mphaga",
        "event_total": 72,
        "has_played": true,
        "id": 1488432,
        "last_rank": 50468,
        "player_name": "Adivhaho mphaga",
        "rank": 35868,
        "rank_sort": 35877,
        "total": 2363
      },
      {
        "club_badge_src": "https://fantasy.premierleague.com/gcs/plfpl-production-adobe-approved/plfpl-production/352160/c1b105a1-9550-4c3a-89ca-ec8ca0b9ed83.png",
        "entry": 352160,
        "entry_name": "Woogie Boogie",
        "event_total": 68,
        "has_played": true,
        "id": 2357070,
        "last_rank": 44672,
        "player_name": "\u0141ukasz Trejtowicz",
        "rank": 35868,
        "rank_sort": 35878,
        "total": 2363
      },
      {
        "club_badge_src": null,
        "entry": 354024,
        "entry_name": "FPL ebomah",
        "event_total": 64,
        "has_played": true,
        "id": 2369348,
        "last_rank": 39403,
        "player_name": "Chuks Ebomah",
        "rank": 35868,
        "rank_sort": 35879,
        "total": 2363
      },
      {
        "club_badge_src": null,
        "entry": 356098,
        "entry_name": "Kaosm8",
        "event_total": 54,
        "has_played": true,
        "id": 2383024,
        "last_rank": 32437,
        "player_name": "kasper Arnesen",
        "rank": 35868,
        "rank_sort": 35880,
        "total": 2363
      },
      {
        "club_badge_src": "https://fantasy.premierleague.com/gcs/plfpl-production-adobe-approved/plfpl-production/371316/e174dc37-54d6-408c-8cf5-03b014ff19ee.png",
        "entry": 371316,
        "entry_name": "Arc'teryx",
        "event_total": 61,
        "has_played": true,
        "id": 2484613,
        "last_rank": 35768,
        "player_name": "Ed Raff",
        "rank": 35868,
        "rank_sort": 35881,
        "total": 2363
      },
      {
        "club_badge_src": null,
        "entry": 405293,
        "entry_name": "Buxusmotten",
        "event_total": 59,
        "has_played": true,
        "id": 2717338,
        "last_rank": 33483,
        "player_name": "Tom Verhaeghe",
        "rank": 35868,
        "rank_sort": 35882,
        "total": 2363
      },
      {
        "club_badge_src": null,
        "entry": 502206,
        "entry_name": "GERTY",
        "event_total": 67,
        "has_played": true,
        "id": 3370818,
        "last_rank": 49207,
        "player_name": "Ciara Davies",
        "rank": 35868,
        "rank_sort": 35883,
        "total": 2363
      },
      {
        "club_badge_src": null,
        "entry": 523656,
        "entry_name": "Spicy Potato",
        "event_total": 64,
        "has_played": true,
        "id": 3517388,
        "last_rank": 44804,
        "player_name": "Moetassem Mehrem",
        "rank": 35868,
        "rank_sort": 35884,
        "total": 2363
      },
      {
        "club_badge_src": "https://fantasy.premierleague.com/gcs/plfpl-production-adobe-approved/plfpl-production/547929/d64870f1-0d8f-4ffb-afb7-dbe4b5a65f48.png",
        "entry": 547929,
        "entry_name": "Methaliki",
        "event_total": 47,
        "has_played": true,
        "id": 3687525,
        "last_rank": 25517,
        "player_name": "Micha\u0142 Niedba\u0142a",
        "rank": 35868,
        "rank_sort": 35885,
        "total": 2363
      },
      {
        "club_badge_src": null,
        "entry": 560324,
        "entry_name": "Kid A",
        "event_total": 57,
        "has_played": true,
        "id": 3771592,
        "last_rank": 31236,
        "player_name": "Vasilis Z",
        "rank": 35868,
        "rank_sort": 35886,
        "total": 2363
      },
      {
        "club_badge_src": null,
        "entry": 574158,
        "entry_name": "Nathan IL",
        "event_total": 58,
        "has_played": true,
        "id": 3863887,
        "last_rank": 32335,
        "player_name": "Nathaniel Ottersen",
        "rank": 35868,
        "rank_sort": 35887,
        "total": 2363
      },
      {
        "club_badge_src": "https://fantasy.premierleague.com/gcs/plfpl-production-adobe-approved/plfpl-production/576325/f901b382-cf8a-4df3-991f-e4a9a7cd0044.png",
        "entry": 576325,
        "entry_name": "\u00d8deparfum",
        "event_total": 62,
        "has_played": true,
        "id": 3878146,
        "last_rank": 41967,
        "player_name": "Chad Okon",
        "rank": 35868,
        "rank_sort": 35888,
        "total": 2363
      },
      {
        "club_badge_src": null,
        "entry": 708976,
        "entry_name": "Jumpers4goalposts",
        "event_total": 67,
        "has_played": true,
        "id": 4806008,
        "last_rank": 43168,
        "player_name": "Glenn Foord",
        "rank": 35868,
        "rank_sort": 35889,
        "total": 2363
      },
      {
        "club_badge_src": null,
        "entry": 720062,
        "entry_name": "Stop Savin Chat",
        "event_total": 56,
        "has_played": true,
        "id": 4888257,
        "last_rank": 34682,
        "player_name": "Pep \ud83e\udd47",
        "rank": 35868,
        "rank_sort": 35890,
        "total": 2363
      },
      {
        "club_badge_src": "https://fantasy.premierleague.com/gcs/plfpl-production-adobe-approved/plfpl-production/756833/58550a06-8927-4561-8a4e-5f45b5b19fe8.png",
        "entry": 756833,
        "entry_name": "Saka Potatoes",
        "event_total": 61,
        "has_played": true,
        "id": 5152732,
        "last_rank": 40770,
        "player_name": "Michail Iatrakis",
        "rank": 35868,
        "rank_sort": 35891,
        "total": 2363
      },
      {
        "club_badge_src": "https://fantasy.premierleague.com/gcs/plfpl-production-adobe-approved/plfpl-production/800103/da01f810-9b43-4a75-9e09-db1125cd101c.png",
        "entry": 800103,
        "entry_name": "Harchester United",
        "event_total": 72,
        "has_played": true,
        "id": 5476526,
        "last_rank": 50635,
        "player_name": "Zachary Robert Zabel",
        "rank": 35868,
        "rank_sort": 35892,
        "total": 2363
      },
      {
        "club_badge_src": null,
        "entry": 806853,
        "entry_name": "Ryan",
        "event_total": 53,
        "has_played": true,
        "id": 5523742,
        "last_rank": 31236,
        "player_name": "Hayder Adeeb",
        "rank": 35868,
        "rank_sort": 35893,
        "total": 2363
      },
      {
        "club_badge_src": null,
        "entry": 874102,
        "entry_name": "The Equalizer",
        "event_total": 55,
        "has_played": true,
        "id": 5992700,
        "last_rank": 33483,
        "player_name": "Moshe Berebi",
        "rank": 35868,
        "rank_sort": 35894,
        "total": 2363
      },
      {
        "club_badge_src": null,
        "entry": 897624,
        "entry_name": "REAL MADRID FC",
        "event_total": 29,
        "has_played": true,
        "id": 6167192,
        "last_rank": 13060,
        "player_name": "Ahmed Hassan",
        "rank": 35868,
        "rank_sort": 35895,
        "total": 2363
      },
      {
        "club_badge_src": null,
        "entry": 902730,
        "entry_name": "CoZa's Flukes",
        "event_total": 58,
        "has_played": true,
        "id": 6202781,
        "last_rank": 37058,
        "player_name": "Corey Aitken",
        "rank": 35868,
        "rank_sort": 35896,
        "total": 2363
      },
      {
        "club_badge_src": null,
        "entry": 905361,
        "entry_name": "Null Kontroll",
        "event_total": 74,
        "has_played": true,
        "id": 6222614,
        "last_rank": 47417,
        "player_name": "Thomas Vestby",
        "rank": 35868,
        "rank_sort": 35897,
        "total": 2363
      },
      {
        "club_badge_src": "https://fantasy.premierleague.com/gcs/plfpl-production-adobe-approved/plfpl-production/905570/56a7d176-3043-4fa9-9f1d-b5f05acf4b0b.png",
        "entry": 905570,
        "entry_name": "BIG ONE",
        "event_total": 60,
        "has_played": true,
        "id": 6224105,
        "last_rank": 39510,
        "player_name": "Alsadig Abdalrhman",
        "rank": 35868,
        "rank_sort": 35898,
        "total": 2363
      },
      {
        "club_badge_src": null,
        "entry": 951188,
        "entry_name": "Chumbawamba",
        "event_total": 68,
        "has_played": true,
        "id": 6553216,
        "last_rank": 44303,
        "player_name": "Tom Burnett",
        "rank": 35868,
        "rank_sort": 35899,
        "total": 2363
      },
      {
        "club_badge_src": null,
        "entry": 964421,
        "entry_name": "e^pi*i+1",
        "event_total": 71,
        "has_played": true,
        "id": 6646613,
        "last_rank": 49078,
        "player_name": "William H",
        "rank": 35868,
        "rank_sort": 35900,
        "total": 2363
      }
    ]
  }
}