{
  "last_updated_data": "2026-05-24T23:28:17Z",
  "league": {
    "admin_entry": null,
    "closed": false,
    "code_privacy": "p",
    "created": "2025-07-20T23:14:33.933835Z",
    "cup_league": 2815434,
    "has_cup": true,
    "id": 314,
    "league_type": "s",
    "max_entries": null,
    "name": "Overall",
    "rank": null,
    "scoring": "c",
    "start_event": 1
  },
  "new_entries": {
    "has_next": false,
    "page": 1,
    "results": []
  },
  "standings": {
    "has_next": true,
    "page": 381,
    "results": [
      {
        "club_badge_src": null,
        "entry": 2209745,
        "entry_name": "InterUTD",
        "event_total": 58,
        "has_played": true,
        "id": 15735348,
        "last_rank": 16598,
        "player_name": "Pawel Kurto",
        "rank": 18988,
        "rank_sort": 19001,
        "total": 2382
      },
      {
        "club_badge_src": "https://fantasy.premierleague.com/gcs/plfpl-production-adobe-approved/plfpl-production/2876441/96ae3fd0-d7be-47e0-bc06-bacd6a81f845.png",
        "entry": 2876441,
        "entry_name": "Cleverley Named",
        "event_total": 59,
        "has_played": true,
        "id": 21054104,
        "last_rank": 20038,
        "player_name": "Tashan Chetty",
        "rank": 18988,
        "rank_sort": 19002,
        "total": 2382
      },
      {
        "club_badge_src": null,
        "entry": 2995439,
        "entry_name": "Stokealona",
        "event_total": 56,
        "has_played": true,
        "id": 22031272,
        "last_rank": 17894,
        "player_name": "joel viggars",
        "rank": 18988,
        "rank_sort": 19003,
        "total": 2382
      },
      {
        "club_badge_src": "https://fantasy.premierleague.com/gcs/plfpl-production-adobe-approved/plfpl-production/4166137/89971824-47c8-4807-9133-d795f1d8d371.png",
        "entry": 4166137,
        "entry_name": "Raunistula Rovers",
        "event_total": 66,
        "has_played": true,
        "id": 31504825,
        "last_rank": 22263,
        "player_name": "Jarkko Roto",
        "rank": 18988,
        "rank_sort": 19004,
        "total": 2382
      },
      {
        "club_badge_src": null,
        "entry": 4215708,
        "entry_name": "Avalanche United",
        "event_total": 70,
        "has_played": true,
        "id": 31926144,
        "last_rank": 29333,
        "player_name": "Adam Wallen",
        "rank": 18988,
        "rank_sort": 19005,
        "total": 2382
      },
      {
        "club_badge_src": null,
        "entry": 5209605,
        "entry_name": "Ever Ready 5",
        "event_total": 61,
        "has_played": true,
        "id": 40351770,
        "last_rank": 15876,
        "player_name": "Shanker Aswani",
        "rank": 18988,
        "rank_sort": 19006,
        "total": 2382
      },
      {
        "club_badge_src": null,
        "entry": 5604794,
        "entry_name": "20 Characters",
        "event_total": 39,
        "has_played": true,
        "id": 43797856,
        "last_rank": 6347,
        "player_name": "Aaron Drummond",
        "rank": 18988,
        "rank_sort": 19007,
        "total": 2382
      },
      {
        "club_badge_src": null,
        "entry": 7314319,
        "entry_name": "Wirtz up Mo",
        "event_total": 71,
        "has_played": true,
        "id": 59210709,
        "last_rank": 30361,
        "player_name": "Pravesh Patel",
        "rank": 18988,
        "rank_sort": 19008,
        "total": 2382
      },
      {
        "club_badge_src": null,
        "entry": 9024765,
        "entry_name": "My Farke Slot H\u00fcrz",
        "event_total": 65,
        "has_played": true,
        "id": 75718768,
        "last_rank": 24713,
        "player_name": "Jonny Williams",
        "rank": 18988,
        "rank_sort": 19009,
        "total": 2382
      },
      {
        "club_badge_src": null,
        "entry": 9493043,
        "entry_name": "FC Uncommitted",
        "event_total": 44,
        "has_played": true,
        "id": 80262362,
        "last_rank": 11104,
        "player_name": "Josh Wilson",
        "rank": 18988,
        "rank_sort": 19010,
        "total": 2382
      },
      {
        "club_badge_src": null,
        "entry": 52510,
        "entry_name": "Marzouk",
        "event_total": 79,
        "has_played": true,
        "id": 337654,
        "last_rank": 39673,
        "player_name": "Louay Marzouk",
        "rank": 19011,
        "rank_sort": 19011,
        "total": 2382
      },
      {
        "club_badge_src": "https://fantasy.premierleague.com/gcs/plfpl-production-adobe-approved/plfpl-production/53541/2c4c1b60-73e5-4cd5-8384-de789b833b9e.png",
        "entry": 53541,
        "entry_name": "IRAQI",
        "event_total": 50,
        "has_played": true,
        "id": 344484,
        "last_rank": 12027,
        "player_name": "Mohammed Ahmed",
        "rank": 19011,
        "rank_sort": 19012,
        "total": 2382
      },
      {
        "club_badge_src": null,
        "entry": 281306,
        "entry_name": "HaCunha Mateta",
        "event_total": 67,
        "has_played": true,
        "id": 1871944,
        "last_rank": 20008,
        "player_name": "Sacha Chowdhury",
        "rank": 19011,
        "rank_sort": 19013,
        "total": 2382
      },
      {
        "club_badge_src": null,
        "entry": 594385,
        "entry_name": "Rice Rice Baby",
        "event_total": 61,
        "has_played": true,
        "id": 4006276,
        "last_rank": 21510,
        "player_name": "Abi Welling",
        "rank": 19011,
        "rank_sort": 19014,
        "total": 2382
      },
      {
        "club_badge_src": null,
        "entry": 1103284,
        "entry_name": "Wirtz is Yet to Come",
        "event_total": 57,
        "has_played": true,
        "id": 7642156,
        "last_rank": 18592,
        "player_name": "Toby Calvert",
        "rank": 19011,
        "rank_sort": 19015,
        "total": 2382
      },
      {
        "club_badge_src": null,
        "entry": 1374988,
        "entry_name": "BUKIT JALIL FC",
        "event_total": 62,
        "has_played": true,
        "id": 9558067,
        "last_rank": 19302,
        "player_name": "HAFIZ ZAMI ABBAS -SANHOK-",
        "rank": 19011,
        "rank_sort": 19016,
        "total": 2382
      },
      {
        "club_badge_src": null,
        "entry": 1707458,
        "entry_name": "Toni Kroos",
        "event_total": 66,
        "has_played": true,
        "id": 11962313,
        "last_rank": 22293,
        "player_name": "Ali Omer",
        "rank": 19011,
        "rank_sort": 19017,
        "total": 2382
      },
      {
        "club_badge_src": null,
        "entry": 1710134,
        "entry_name": "Dark Knight FC",
        "event_total": 62,
        "has_played": true,
        "id": 11982199,
        "last_rank": 19302,
        "player_name": "Shikhar Nagaich",
        "rank": 19011,
        "rank_sort": 19018,
        "total": 2382
      },
      {
        "club_badge_src": null,
        "entry": 2160351,
        "entry_name": "World XI",
        "event_total": 66,
        "has_played": true,
        "id": 15357519,
        "last_rank": 25613,
        "player_name": "daniel stamar",
        "rank": 19011,
        "rank_sort": 19019,
        "total": 2382
      },
      {
        "club_badge_src": null,
        "entry": 2710033,
        "entry_name": "Tom's XI",
        "event_total": 67,
        "has_played": true,
        "id": 19498132,
        "last_rank": 20008,
        "player_name": "Thomas Pizey",
        "rank": 19011,
        "rank_sort": 19020,
        "total": 2382
      },
      {
        "club_badge_src": null,
        "entry": 3466405,
        "entry_name": "T.K",
        "event_total": 36,
        "has_played": true,
        "id": 25768879,
        "last_rank": 7928,
        "player_name": "Tomislav Kulic",
        "rank": 19011,
        "rank_sort": 19021,
        "total": 2382
      },
      {
        "club_badge_src": null,
        "entry": 3873152,
        "entry_name": "ALAWMOT",
        "event_total": 53,
        "has_played": true,
        "id": 29074590,
        "last_rank": 15987,
        "player_name": "Mike Oldridge",
        "rank": 19011,
        "rank_sort": 19022,
        "total": 2382
      },
      {
        "club_badge_src": "https://fantasy.premierleague.com/gcs/plfpl-production-adobe-approved/plfpl-production/4102822/ae22de17-11c6-4677-a18a-7f411f00c2f2.png",
        "entry": 4102822,
        "entry_name": "F C Coimbra",
        "event_total": 60,
        "has_played": true,
        "id": 30982074,
        "last_rank": 17878,
        "player_name": "Milton Silva",
        "rank": 19011,
        "rank_sort": 19023,
        "total": 2382
      },
      {
        "club_badge_src": null,
        "entry": 4143605,
        "entry_name": "Abdulmalik Team",
        "event_total": 61,
        "has_played": true,
        "id": 31316833,
        "last_rank": 18578,
        "player_name": "X Ecll",
        "rank": 19011,
        "rank_sort": 19024,
        "total": 2382
      },
      {
        "club_badge_src": null,
        "entry": 5428021,
        "entry_name": "Illuminartists",
        "event_total": 63,
        "has_played": true,
        "id": 42220181,
        "last_rank": 14668,
        "player_name": "Leandro Gomes",
        "rank": 19011,
        "rank_sort": 19025,
        "total": 2382
      },
      {
        "club_badge_src": null,
        "entry": 8673134,
        "entry_name": "Change Name",
        "event_total": 47,
        "has_played": true,
        "id": 72317352,
        "last_rank": 12559,
        "player_name": "Thomas Mellody",
        "rank": 19011,
        "rank_sort": 19026,
        "total": 2382
      },
      {
        "club_badge_src": "https://fantasy.premierleague.com/gcs/plfpl-production-adobe-approved/plfpl-production/28825/c9bfba0e-37b9-4ac3-ba2e-60fa38c6e1fb.png",
        "entry": 28825,
        "entry_name": "MadaSakas",
        "event_total": 53,
        "has_played": true,
        "id": 182226,
        "last_rank": 13662,
        "player_name": "Aaron Majewski",
        "rank": 19027,
        "rank_sort": 19027,
        "total": 2382
      },
      {
        "club_badge_src": null,
        "entry": 131206,
        "entry_name": "Robbie Managed",
        "event_total": 61,
        "has_played": true,
        "id": 854842,
        "last_rank": 21545,
        "player_name": "Robbie Butler",
        "rank": 19027,
        "rank_sort": 19028,
        "total": 2382
      },
      {
        "club_badge_src": null,
        "entry": 208826,
        "entry_name": "2Ezy",
        "event_total": 58,
        "has_played": true,
        "id": 1388581,
        "last_rank": 16621,
        "player_name": "Liam Quinsee",
        "rank": 19027,
        "rank_sort": 19029,
        "total": 2382
      },
      {
        "club_badge_src": null,
        "entry": 255217,
        "entry_name": "gyok tuah",
        "event_total": 42,
        "has_played": true,
        "id": 1697632,
        "last_rank": 8617,
        "player_name": "Charlie Ross",
        "rank": 19027,
        "rank_sort": 19030,
        "total": 2382
      },
      {
        "club_badge_src": null,
        "entry": 339929,
        "entry_name": "Van Mesho",
        "event_total": 69,
        "has_played": true,
        "id": 2275492,
        "last_rank": 24735,
        "player_name": "Meshari AlHazzaa",
        "rank": 19027,
        "rank_sort": 19031,
        "total": 2382
      },
      {
        "club_badge_src": null,
        "entry": 1160034,
        "entry_name": "ChickenTikkaMoSalah",
        "event_total": 69,
        "has_played": true,
        "id": 8047031,
        "last_rank": 24735,
        "player_name": "Ross Cadden",
        "rank": 19027,
        "rank_sort": 19032,
        "total": 2382
      },
      {
        "club_badge_src": "https://fantasy.premierleague.com/gcs/plfpl-production-adobe-approved/plfpl-production/1380560/943e23ee-f127-4125-b3cd-dfd6b2106d3e.png",
        "entry": 1380560,
        "entry_name": "FlatEarth",
        "event_total": 56,
        "has_played": true,
        "id": 9598297,
        "last_rank": 15350,
        "player_name": "Hrvoje Braovac",
        "rank": 19027,
        "rank_sort": 19033,
        "total": 2382
      },
      {
        "club_badge_src": null,
        "entry": 2153049,
        "entry_name": "Yossif Mohamed",
        "event_total": 68,
        "has_played": true,
        "id": 15303947,
        "last_rank": 27464,
        "player_name": "YOSSIF AZAB",
        "rank": 19027,
        "rank_sort": 19034,
        "total": 2382
      },
      {
        "club_badge_src": null,
        "entry": 2219331,
        "entry_name": "Better Call Slot",
        "event_total": 67,
        "has_played": true,
        "id": 15806500,
        "last_rank": 26554,
        "player_name": "Adam Loveday",
        "rank": 19027,
        "rank_sort": 19035,
        "total": 2382
      },
      {
        "club_badge_src": null,
        "entry": 2808263,
        "entry_name": "In Arteta We Trust",
        "event_total": 78,
        "has_played": true,
        "id": 20510084,
        "last_rank": 22216,
        "player_name": "Fotis Koutsikos",
        "rank": 19027,
        "rank_sort": 19036,
        "total": 2382
      },
      {
        "club_badge_src": null,
        "entry": 3598190,
        "entry_name": "Poptastic ^@^",
        "event_total": 45,
        "has_played": true,
        "id": 26798441,
        "last_rank": 11563,
        "player_name": "Pakorn Aumyoo",
        "rank": 19027,
        "rank_sort": 19037,
        "total": 2382
      },
      {
        "club_badge_src": null,
        "entry": 3654383,
        "entry_name": "\ufffd\u062c\u0627\u0643",
        "event_total": 62,
        "has_played": true,
        "id": 27240917,
        "last_rank": 16621,
        "player_name": "Mozafer Atif",
        "rank": 19027,
        "rank_sort": 19038,
        "total": 2382
      },
      {
        "club_badge_src": null,
        "entry": 27975,
        "entry_name": "pasdock haddock",
        "event_total": 68,
        "has_played": true,
        "id": 176913,
        "last_rank": 23919,
        "player_name": "thiero pesik",
        "rank": 19039,
        "rank_sort": 19039,
        "total": 2382
      },
      {
        "club_badge_src": "https://fantasy.premierleague.com/gcs/plfpl-production-adobe-approved/plfpl-production/136782/fd6b4f01-22a7-4adc-a319-00a02c2c77bd.png",
        "entry": 136782,
        "entry_name": "Sewey",
        "event_total": 50,
        "has_played": true,
        "id": 891166,
        "last_rank": 14200,
        "player_name": "Raymond Lu",
        "rank": 19039,
        "rank_sort": 19040,
        "total": 2382
      },
      {
        "club_badge_src": null,
        "entry": 146723,
        "entry_name": "No More Mr Rice Kai",
        "event_total": 67,
        "has_played": true,
        "id": 961332,
        "last_rank": 26541,
        "player_name": "David Hart",
        "rank": 19039,
        "rank_sort": 19041,
        "total": 2382
      },
      {
        "club_badge_src": null,
        "entry": 516053,
        "entry_name": "Tribal Yeet \u261d\ufe0f",
        "event_total": 71,
        "has_played": true,
        "id": 3464705,
        "last_rank": 26541,
        "player_name": "Daniel Thomas",
        "rank": 19039,
        "rank_sort": 19042,
        "total": 2382
      },
      {
        "club_badge_src": "https://fantasy.premierleague.com/gcs/plfpl-production-adobe-approved/plfpl-production/564658/0597e566-df33-4dad-ba1e-93e763686d77.png",
        "entry": 564658,
        "entry_name": "Kingfisher FC",
        "event_total": 63,
        "has_played": true,
        "id": 3800729,
        "last_rank": 23110,
        "player_name": "Christopher Keeley",
        "rank": 19039,
        "rank_sort": 19043,
        "total": 2382
      },
      {
        "club_badge_src": "https://fantasy.premierleague.com/gcs/plfpl-production-adobe-approved/plfpl-production/771908/35c987ba-a622-4053-b76a-7bd737f6ef95.png",
        "entry": 771908,
        "entry_name": "Van's on their Feet",
        "event_total": 59,
        "has_played": true,
        "id": 5266063,
        "last_rank": 17265,
        "player_name": "Jihad Van Rooyen",
        "rank": 19039,
        "rank_sort": 19044,
        "total": 2382
      },
      {
        "club_badge_src": "https://fantasy.premierleague.com/gcs/plfpl-production-adobe-approved/plfpl-production/843309/1c162e4a-725c-4610-baf9-03db38e02cad.png",
        "entry": 843309,
        "entry_name": "Mimi Cucu",
        "event_total": 44,
        "has_played": true,
        "id": 5778080,
        "last_rank": 9432,
        "player_name": "Mimi Cucu",
        "rank": 19039,
        "rank_sort": 19045,
        "total": 2382
      },
      {
        "club_badge_src": "https://fantasy.premierleague.com/gcs/plfpl-production-adobe-approved/plfpl-production/1048107/d9b580e2-7289-4efd-9199-9f75555c5f73.png",
        "entry": 1048107,
        "entry_name": "HaalandGlobetrotters",
        "event_total": 39,
        "has_played": true,
        "id": 7253433,
        "last_rank": 9047,
        "player_name": "Steve Clarke",
        "rank": 19039,
        "rank_sort": 19046,
        "total": 2382
      },
      {
        "club_badge_src": null,
        "entry": 1480439,
        "entry_name": "nerazzurri \ufffd",
        "event_total": 48,
        "has_played": true,
        "id": 10322573,
        "last_rank": 11112,
        "player_name": "Matthias Jakobsen",
        "rank": 19039,
        "rank_sort": 19047,
        "total": 2382
      },
      {
        "club_badge_src": "https://fantasy.premierleague.com/gcs/plfpl-production-adobe-approved/plfpl-production/1947245/84cb3497-f678-48d6-ba63-8e4b00a8ac08.png",
        "entry": 1947245,
        "entry_name": "Eze does it",
        "event_total": 50,
        "has_played": true,
        "id": 13735673,
        "last_rank": 10221,
        "player_name": "Nigel Atkinson",
        "rank": 19039,
        "rank_sort": 19048,
        "total": 2382
      },
      {
        "club_badge_src": null,
        "entry": 2074195,
        "entry_name": "7Up",
        "event_total": 67,
        "has_played": true,
        "id": 14706024,
        "last_rank": 26567,
        "player_name": "David Lo",
        "rank": 19039,
        "rank_sort": 19049,
        "total": 2382
      },
      {
        "club_badge_src": null,
        "entry": 3867883,
        "entry_name": "Lews Losers",
        "event_total": 53,
        "has_played": true,
        "id": 29006936,
        "last_rank": 15999,
        "player_name": "Lewis Fildes",
        "rank": 19039,
        "rank_sort": 19050,
        "total": 2382
      }
    ]
  }
}