{
  "last_updated_data": "2026-05-24T23:28:17Z",
  "league": {
    "admin_entry": null,
    "closed": false,
    "code_privacy": "p",
    "created": "2025-07-20T23:14:33.933835Z",
    "cup_league": 2815434,
    "has_cup": true,
    "id": 314,
    "league_type": "s",
    "max_entries": null,
    "name": "Overall",
    "rank": null,
    "scoring": "c",
    "start_event": 1
  },
  "new_entries": {
    "has_next": false,
    "page": 1,
    "results": []
  },
  "standings": {
    "has_next": true,
    "page": 1396,
    "results": [
      {
        "club_badge_src": null,
        "entry": 167507,
        "entry_name": "Not too Xavi Simons",
        "event_total": 49,
        "has_played": true,
        "id": 1107242,
        "last_rank": 56180,
        "player_name": "Sahit Atreya",
        "rank": 69708,
        "rank_sort": 69751,
        "total": 2340
      },
      {
        "club_badge_src": null,
        "entry": 178796,
        "entry_name": "Mr. Seskobeat",
        "event_total": 75,
        "has_played": true,
        "id": 1179985,
        "last_rank": 114292,
        "player_name": "Jagvir Gill",
        "rank": 69708,
        "rank_sort": 69752,
        "total": 2340
      },
      {
        "club_badge_src": null,
        "entry": 183182,
        "entry_name": "YBN FC",
        "event_total": 65,
        "has_played": true,
        "id": 1208992,
        "last_rank": 88348,
        "player_name": "Yotam Ben Nathan",
        "rank": 69708,
        "rank_sort": 69753,
        "total": 2340
      },
      {
        "club_badge_src": "https://fantasy.premierleague.com/gcs/plfpl-production-adobe-approved/plfpl-production/193957/6989a8f6-173f-494e-ab7e-a744f9e038f9.png",
        "entry": 193957,
        "entry_name": "ZubiZubiDoo",
        "event_total": 62,
        "has_played": true,
        "id": 1285757,
        "last_rank": 81646,
        "player_name": "Paolo van der Lubbe",
        "rank": 69708,
        "rank_sort": 69754,
        "total": 2340
      },
      {
        "club_badge_src": "https://fantasy.premierleague.com/gcs/plfpl-production-adobe-approved/plfpl-production/195276/ddf69ae6-58b9-4070-9930-1591c80f00be.png",
        "entry": 195276,
        "entry_name": "Nkunku Chanel",
        "event_total": 62,
        "has_played": true,
        "id": 1294910,
        "last_rank": 81646,
        "player_name": "Carlos Alas",
        "rank": 69708,
        "rank_sort": 69755,
        "total": 2340
      },
      {
        "club_badge_src": null,
        "entry": 196436,
        "entry_name": "Matcha The Day",
        "event_total": 88,
        "has_played": true,
        "id": 1303030,
        "last_rank": 155949,
        "player_name": "Louis Coleman-Seed",
        "rank": 69708,
        "rank_sort": 69756,
        "total": 2340
      },
      {
        "club_badge_src": "https://fantasy.premierleague.com/gcs/plfpl-production-adobe-approved/plfpl-production/200996/e9ff78bb-f68f-4e33-bb98-e2ef110a09da.png",
        "entry": 200996,
        "entry_name": "Stach me if you can",
        "event_total": 58,
        "has_played": true,
        "id": 1334523,
        "last_rank": 72815,
        "player_name": "Cam Grant",
        "rank": 69708,
        "rank_sort": 69757,
        "total": 2340
      },
      {
        "club_badge_src": null,
        "entry": 207848,
        "entry_name": "Cherki Cherki now",
        "event_total": 69,
        "has_played": true,
        "id": 1381666,
        "last_rank": 98183,
        "player_name": "Dan Barlow",
        "rank": 69708,
        "rank_sort": 69758,
        "total": 2340
      },
      {
        "club_badge_src": null,
        "entry": 209290,
        "entry_name": "\u0141yskonzi FC",
        "event_total": 50,
        "has_played": true,
        "id": 1391755,
        "last_rank": 57776,
        "player_name": "To Ja \u0141ysol",
        "rank": 69708,
        "rank_sort": 69759,
        "total": 2340
      },
      {
        "club_badge_src": null,
        "entry": 232512,
        "entry_name": "Padge City",
        "event_total": 72,
        "has_played": true,
        "id": 1546960,
        "last_rank": 105818,
        "player_name": "Matthew Padgett",
        "rank": 69708,
        "rank_sort": 69760,
        "total": 2340
      },
      {
        "club_badge_src": null,
        "entry": 255224,
        "entry_name": "547 FC",
        "event_total": 48,
        "has_played": true,
        "id": 1697669,
        "last_rank": 54494,
        "player_name": "Philasande Sibiya",
        "rank": 69708,
        "rank_sort": 69761,
        "total": 2340
      },
      {
        "club_badge_src": null,
        "entry": 274184,
        "entry_name": "Backstreet Moyes",
        "event_total": 55,
        "has_played": true,
        "id": 1824466,
        "last_rank": 67063,
        "player_name": "Luke Meadley",
        "rank": 69708,
        "rank_sort": 69762,
        "total": 2340
      },
      {
        "club_badge_src": null,
        "entry": 274725,
        "entry_name": "Razzi FC",
        "event_total": 60,
        "has_played": true,
        "id": 1828081,
        "last_rank": 77050,
        "player_name": "Basheer Adekunle",
        "rank": 69708,
        "rank_sort": 69763,
        "total": 2340
      },
      {
        "club_badge_src": "https://fantasy.premierleague.com/gcs/plfpl-production-adobe-approved/plfpl-production/297798/3a15514f-51cf-4041-9cb7-cd18ec3d197e.png",
        "entry": 297798,
        "entry_name": "MM Bower Rangers",
        "event_total": 61,
        "has_played": true,
        "id": 1990615,
        "last_rank": 79431,
        "player_name": "Liam Bower",
        "rank": 69708,
        "rank_sort": 69764,
        "total": 2340
      },
      {
        "club_badge_src": null,
        "entry": 301607,
        "entry_name": "Hacunha Matata",
        "event_total": 63,
        "has_played": true,
        "id": 2017982,
        "last_rank": 83584,
        "player_name": "Jamie Sorbie",
        "rank": 69708,
        "rank_sort": 69765,
        "total": 2340
      },
      {
        "club_badge_src": null,
        "entry": 303184,
        "entry_name": "Dango and Cash",
        "event_total": 65,
        "has_played": true,
        "id": 2029364,
        "last_rank": 88594,
        "player_name": "Konrad Mould",
        "rank": 69708,
        "rank_sort": 69766,
        "total": 2340
      },
      {
        "club_badge_src": null,
        "entry": 317337,
        "entry_name": "Mehdi LFC",
        "event_total": 63,
        "has_played": true,
        "id": 2127091,
        "last_rank": 83698,
        "player_name": "Mehdi LFC",
        "rank": 69708,
        "rank_sort": 69767,
        "total": 2340
      },
      {
        "club_badge_src": null,
        "entry": 325023,
        "entry_name": "AutoGlasner Replace",
        "event_total": 66,
        "has_played": true,
        "id": 2177908,
        "last_rank": 90625,
        "player_name": "Louis Sherlock",
        "rank": 69708,
        "rank_sort": 69768,
        "total": 2340
      },
      {
        "club_badge_src": null,
        "entry": 346456,
        "entry_name": "catchmeifyoucan",
        "event_total": 62,
        "has_played": true,
        "id": 2319053,
        "last_rank": 81646,
        "player_name": "Robert Samuel",
        "rank": 69708,
        "rank_sort": 69769,
        "total": 2340
      },
      {
        "club_badge_src": null,
        "entry": 362935,
        "entry_name": "Coneheads",
        "event_total": 66,
        "has_played": true,
        "id": 2428519,
        "last_rank": 90625,
        "player_name": "Ergeln Che",
        "rank": 69708,
        "rank_sort": 69770,
        "total": 2340
      },
      {
        "club_badge_src": null,
        "entry": 370887,
        "entry_name": "GL\u00f6CKeres FC",
        "event_total": 54,
        "has_played": true,
        "id": 2481803,
        "last_rank": 65475,
        "player_name": "Uche BW",
        "rank": 69708,
        "rank_sort": 69771,
        "total": 2340
      },
      {
        "club_badge_src": null,
        "entry": 379363,
        "entry_name": "BK Banan",
        "event_total": 69,
        "has_played": true,
        "id": 2541944,
        "last_rank": 88348,
        "player_name": "Conny \u00c5berg",
        "rank": 69708,
        "rank_sort": 69772,
        "total": 2340
      },
      {
        "club_badge_src": null,
        "entry": 380410,
        "entry_name": "Ice Cole",
        "event_total": 54,
        "has_played": true,
        "id": 2549446,
        "last_rank": 64943,
        "player_name": "Kwek Zheng Wei",
        "rank": 69708,
        "rank_sort": 69773,
        "total": 2340
      },
      {
        "club_badge_src": null,
        "entry": 388313,
        "entry_name": "ELZOOZ ZAMALEK",
        "event_total": 62,
        "has_played": true,
        "id": 2604974,
        "last_rank": 81646,
        "player_name": "Mahmoud Zizo",
        "rank": 69708,
        "rank_sort": 69774,
        "total": 2340
      },
      {
        "club_badge_src": null,
        "entry": 441434,
        "entry_name": "Red Imps",
        "event_total": 64,
        "has_played": true,
        "id": 2959831,
        "last_rank": 86304,
        "player_name": "Brian Walsh",
        "rank": 69708,
        "rank_sort": 69775,
        "total": 2340
      },
      {
        "club_badge_src": null,
        "entry": 458557,
        "entry_name": "Craggy Island Elite",
        "event_total": 66,
        "has_played": true,
        "id": 3076314,
        "last_rank": 90746,
        "player_name": "Lee Dunning",
        "rank": 69708,
        "rank_sort": 69776,
        "total": 2340
      },
      {
        "club_badge_src": null,
        "entry": 460790,
        "entry_name": "Shabby Alonso",
        "event_total": 71,
        "has_played": true,
        "id": 3091045,
        "last_rank": 103254,
        "player_name": "Fraser McDonald",
        "rank": 69708,
        "rank_sort": 69777,
        "total": 2340
      },
      {
        "club_badge_src": null,
        "entry": 462998,
        "entry_name": "No Trophy, No Cry XI",
        "event_total": 60,
        "has_played": true,
        "id": 3105726,
        "last_rank": 77258,
        "player_name": "Asmir Ibrakovic",
        "rank": 69708,
        "rank_sort": 69778,
        "total": 2340
      },
      {
        "club_badge_src": null,
        "entry": 474530,
        "entry_name": "Macmanxi",
        "event_total": 52,
        "has_played": true,
        "id": 3185686,
        "last_rank": 61411,
        "player_name": "Adam McDaid",
        "rank": 69708,
        "rank_sort": 69779,
        "total": 2340
      },
      {
        "club_badge_src": null,
        "entry": 476324,
        "entry_name": "Frimpong Ping Pong",
        "event_total": 61,
        "has_played": true,
        "id": 3197407,
        "last_rank": 79190,
        "player_name": "Rob Perry",
        "rank": 69708,
        "rank_sort": 69780,
        "total": 2340
      },
      {
        "club_badge_src": "https://fantasy.premierleague.com/gcs/plfpl-production-adobe-approved/plfpl-production/510930/8a06bd1f-ef9e-4ae8-b7d9-410255fc3224.png",
        "entry": 510930,
        "entry_name": "Accio points",
        "event_total": 41,
        "has_played": true,
        "id": 3431027,
        "last_rank": 44048,
        "player_name": "Jana Penxova",
        "rank": 69708,
        "rank_sort": 69781,
        "total": 2340
      },
      {
        "club_badge_src": "https://fantasy.premierleague.com/gcs/plfpl-production-adobe-approved/plfpl-production/511001/f9bf3a0e-7a6b-413d-a1ff-144ca87b7f08.png",
        "entry": 511001,
        "entry_name": "Fosselona FC",
        "event_total": 70,
        "has_played": true,
        "id": 3431501,
        "last_rank": 100488,
        "player_name": "Andreas Pettersen Fossen",
        "rank": 69708,
        "rank_sort": 69782,
        "total": 2340
      },
      {
        "club_badge_src": null,
        "entry": 513652,
        "entry_name": "Charli xGx",
        "event_total": 65,
        "has_played": true,
        "id": 3448971,
        "last_rank": 88185,
        "player_name": "george thresh",
        "rank": 69708,
        "rank_sort": 69783,
        "total": 2340
      },
      {
        "club_badge_src": null,
        "entry": 548126,
        "entry_name": "Fantaseagulls",
        "event_total": 56,
        "has_played": true,
        "id": 3688893,
        "last_rank": 68957,
        "player_name": "Ezra Thompson",
        "rank": 69708,
        "rank_sort": 69784,
        "total": 2340
      },
      {
        "club_badge_src": null,
        "entry": 549833,
        "entry_name": "Keravan Kestolotto",
        "event_total": 47,
        "has_played": true,
        "id": 3700197,
        "last_rank": 52853,
        "player_name": "Oskari Lehto",
        "rank": 69708,
        "rank_sort": 69785,
        "total": 2340
      },
      {
        "club_badge_src": null,
        "entry": 555771,
        "entry_name": "Mr Sitter",
        "event_total": 65,
        "has_played": true,
        "id": 3740451,
        "last_rank": 88348,
        "player_name": "Patrick Ruddy",
        "rank": 69708,
        "rank_sort": 69786,
        "total": 2340
      },
      {
        "club_badge_src": null,
        "entry": 580360,
        "entry_name": "Sempre Beneamata",
        "event_total": 60,
        "has_played": true,
        "id": 3905394,
        "last_rank": 77258,
        "player_name": "Sam Attard",
        "rank": 69708,
        "rank_sort": 69787,
        "total": 2340
      },
      {
        "club_badge_src": null,
        "entry": 589554,
        "entry_name": "Wirtz Case Scenario",
        "event_total": 64,
        "has_played": true,
        "id": 3970867,
        "last_rank": 86054,
        "player_name": "Ollie Brodie",
        "rank": 69708,
        "rank_sort": 69788,
        "total": 2340
      },
      {
        "club_badge_src": null,
        "entry": 603174,
        "entry_name": "Points dodgers fc",
        "event_total": 60,
        "has_played": true,
        "id": 4071111,
        "last_rank": 77676,
        "player_name": "Thomas Salacinski",
        "rank": 69708,
        "rank_sort": 69789,
        "total": 2340
      },
      {
        "club_badge_src": null,
        "entry": 607115,
        "entry_name": "Delivery Squad",
        "event_total": 38,
        "has_played": true,
        "id": 4099924,
        "last_rank": 40297,
        "player_name": "Reece Daniels",
        "rank": 69708,
        "rank_sort": 69790,
        "total": 2340
      },
      {
        "club_badge_src": null,
        "entry": 607770,
        "entry_name": "Utterly YG",
        "event_total": 52,
        "has_played": true,
        "id": 4104632,
        "last_rank": 61411,
        "player_name": "Yahaya Gidado",
        "rank": 69708,
        "rank_sort": 69791,
        "total": 2340
      },
      {
        "club_badge_src": null,
        "entry": 619555,
        "entry_name": "Santa\u2019s Reijnders",
        "event_total": 55,
        "has_played": true,
        "id": 4186710,
        "last_rank": 67063,
        "player_name": "James Mooring",
        "rank": 69708,
        "rank_sort": 69792,
        "total": 2340
      },
      {
        "club_badge_src": null,
        "entry": 645019,
        "entry_name": "Chells Angels",
        "event_total": 61,
        "has_played": true,
        "id": 4358962,
        "last_rank": 79431,
        "player_name": "Lewis Bennett",
        "rank": 69708,
        "rank_sort": 69793,
        "total": 2340
      },
      {
        "club_badge_src": null,
        "entry": 662110,
        "entry_name": "HeenryS",
        "event_total": 77,
        "has_played": true,
        "id": 4475486,
        "last_rank": 120103,
        "player_name": "Heenry CZ",
        "rank": 69708,
        "rank_sort": 69794,
        "total": 2340
      },
      {
        "club_badge_src": null,
        "entry": 682699,
        "entry_name": "Landos 11",
        "event_total": 67,
        "has_played": true,
        "id": 4620428,
        "last_rank": 93186,
        "player_name": "Gary Knight",
        "rank": 69708,
        "rank_sort": 69795,
        "total": 2340
      },
      {
        "club_badge_src": null,
        "entry": 690531,
        "entry_name": "sbo3a",
        "event_total": 68,
        "has_played": true,
        "id": 4675790,
        "last_rank": 95890,
        "player_name": "Aymen Elkhalifa",
        "rank": 69708,
        "rank_sort": 69796,
        "total": 2340
      },
      {
        "club_badge_src": null,
        "entry": 697821,
        "entry_name": "Pain in Dias",
        "event_total": 59,
        "has_played": true,
        "id": 4726907,
        "last_rank": 75139,
        "player_name": "Tyler Johnson",
        "rank": 69708,
        "rank_sort": 69797,
        "total": 2340
      },
      {
        "club_badge_src": null,
        "entry": 708226,
        "entry_name": "Vamos Alania",
        "event_total": 68,
        "has_played": true,
        "id": 4800051,
        "last_rank": 95640,
        "player_name": "Alex Psaroulis",
        "rank": 69708,
        "rank_sort": 69798,
        "total": 2340
      },
      {
        "club_badge_src": null,
        "entry": 722244,
        "entry_name": "MyBlanketIsntWorking",
        "event_total": 44,
        "has_played": true,
        "id": 4905152,
        "last_rank": 48197,
        "player_name": "Ois\u00edn - Maurice O'Reilly",
        "rank": 69708,
        "rank_sort": 69799,
        "total": 2340
      },
      {
        "club_badge_src": null,
        "entry": 733812,
        "entry_name": "Clementine Cologne",
        "event_total": 65,
        "has_played": true,
        "id": 4986872,
        "last_rank": 88185,
        "player_name": "Ai Haibara",
        "rank": 69708,
        "rank_sort": 69800,
        "total": 2340
      }
    ]
  }
}